{"items":[{"id":"xOrCCgFoPXY","title":"29- العطاء من الخلق حرمان والمنع من اللّه إحسان | شرح الحكم العطائية","publishedAt":"2025-11-21T20:15:07Z","duration":"PT43M8S","thumbnail":"https://i.ytimg.com/vi/xOrCCgFoPXY/mqdefault.jpg","viewCount":"2205","playlistId":"PLEkQk5xrP-tmf5ToOwmW-q0JwxkapbrMN","playlistName":"شرح كتاب إرشاد البرية إلى بعض معاني الحكم العطائية","category":"متنوع"},{"id":"IkJp5BAXg50","title":"28- كيف تفهم حكمة الله في المنع والعطاء؟ | شرح الحكم العطائية","publishedAt":"2025-11-17T18:30:32Z","duration":"PT49M27S","thumbnail":"https://i.ytimg.com/vi/IkJp5BAXg50/mqdefault.jpg","viewCount":"3551","playlistId":"PLEkQk5xrP-tmf5ToOwmW-q0JwxkapbrMN","playlistName":"شرح كتاب إرشاد البرية إلى بعض معاني الحكم العطائية","category":"متنوع"},{"id":"L5RFsLNrvoM","title":"19- ما هو الوارد وكيف يتعامل المريد مع الواردات؟ | شرح الحكم العطائية","publishedAt":"2025-05-18T19:24:31Z","duration":"PT49M53S","thumbnail":"https://i.ytimg.com/vi/L5RFsLNrvoM/mqdefault.jpg","viewCount":"4155","playlistId":"PLEkQk5xrP-tmf5ToOwmW-q0JwxkapbrMN","playlistName":"شرح كتاب إرشاد البرية إلى بعض معاني الحكم العطائية","category":"متنوع"},{"id":"wNxfUwj0vc4","title":"18- ما حكم ‏الذكر باللسان بدون حضور القلب؟ | شرح الحكم العطائية","publishedAt":"2025-05-15T17:01:12Z","duration":"PT42M50S","thumbnail":"https://i.ytimg.com/vi/wNxfUwj0vc4/mqdefault.jpg","viewCount":"4760","playlistId":"PLEkQk5xrP-tmf5ToOwmW-q0JwxkapbrMN","playlistName":"شرح كتاب إرشاد البرية إلى بعض معاني الحكم العطائية","category":"متنوع"},{"id":"6DEEQ3TRD_Q","title":"27- معنى أحوال القبض والبسط عند الصوفية | شرح الحكم العطائية","publishedAt":"2025-10-22T18:15:00Z","duration":"PT32M19S","thumbnail":"https://i.ytimg.com/vi/6DEEQ3TRD_Q/mqdefault.jpg","viewCount":"2716","playlistId":"PLEkQk5xrP-tmf5ToOwmW-q0JwxkapbrMN","playlistName":"شرح كتاب إرشاد البرية إلى بعض معاني الحكم العطائية","category":"متنوع"},{"id":"M8w0WA8Ik1Q","title":"4- ادفن وجودك في أرض الخمول فما نبت مما لم يدفن لا يتم نتاجه | شرح الحكم العطائية","publishedAt":"2024-08-09T18:30:31Z","duration":"PT46M38S","thumbnail":"https://i.ytimg.com/vi/M8w0WA8Ik1Q/mqdefault.jpg","viewCount":"9384","playlistId":"PLEkQk5xrP-tmf5ToOwmW-q0JwxkapbrMN","playlistName":"شرح كتاب إرشاد البرية إلى بعض معاني الحكم العطائية","category":"متنوع"},{"id":"y3mUD_q-HlY","title":"2- سوابق الهمم لا تخرق أسوار الأقدار | كيف تريح نفسك من التدبير؟ | شرح الحكم العطائية","publishedAt":"2024-07-29T18:33:09Z","duration":"PT46M28S","thumbnail":"https://i.ytimg.com/vi/y3mUD_q-HlY/mqdefault.jpg","viewCount":"17947","playlistId":"PLEkQk5xrP-tmf5ToOwmW-q0JwxkapbrMN","playlistName":"شرح كتاب إرشاد البرية إلى بعض معاني الحكم العطائية","category":"متنوع"},{"id":"hfLYqtYaS18","title":"3- اجتهادك فيما ضُمِنَ لك، وتقصيرك فيما طُلِبَ منك، دليل على انطماس البصيرة منك | شرح الحكم العطائية","publishedAt":"2024-08-02T17:00:39Z","duration":"PT37M58S","thumbnail":"https://i.ytimg.com/vi/hfLYqtYaS18/mqdefault.jpg","viewCount":"8141","playlistId":"PLEkQk5xrP-tmf5ToOwmW-q0JwxkapbrMN","playlistName":"شرح كتاب إرشاد البرية إلى بعض معاني الحكم العطائية","category":"متنوع"},{"id":"4u34d3TLKak","title":"22- لماذا ينعم الله علينا رغم أننا نعصيه؟ | شرح الحكم العطائية","publishedAt":"2025-07-24T18:00:07Z","duration":"PT35M24S","thumbnail":"https://i.ytimg.com/vi/4u34d3TLKak/mqdefault.jpg","viewCount":"2744","playlistId":"PLEkQk5xrP-tmf5ToOwmW-q0JwxkapbrMN","playlistName":"شرح كتاب إرشاد البرية إلى بعض معاني الحكم العطائية","category":"متنوع"},{"id":"fvebb0g180g","title":"8- مما يدلك على وجود قهره سبحانه أن حجبك عنه بما ليس بموجود معه | شرح الحكم العطائية","publishedAt":"2024-09-05T16:00:41Z","duration":"PT44M55S","thumbnail":"https://i.ytimg.com/vi/fvebb0g180g/mqdefault.jpg","viewCount":"6043","playlistId":"PLEkQk5xrP-tmf5ToOwmW-q0JwxkapbrMN","playlistName":"شرح كتاب إرشاد البرية إلى بعض معاني الحكم العطائية","category":"متنوع"},{"id":"FUejH87fhLs","title":"21- من لم يقبل على الله بملاطفات اﻹحسان قيد إليه بسلاسل الامتحان | شرح الحكم العطائية","publishedAt":"2025-07-19T17:30:03Z","duration":"PT36M4S","thumbnail":"https://i.ytimg.com/vi/FUejH87fhLs/mqdefault.jpg","viewCount":"4089","playlistId":"PLEkQk5xrP-tmf5ToOwmW-q0JwxkapbrMN","playlistName":"شرح كتاب إرشاد البرية إلى بعض معاني الحكم العطائية","category":"متنوع"},{"id":"rkH57eZ12RM","title":"14- ‏أين كان الله قبل خلق الأكوان؟ | شرح الحكم العطائية","publishedAt":"2025-01-16T18:29:51Z","duration":"PT56M59S","thumbnail":"https://i.ytimg.com/vi/rkH57eZ12RM/mqdefault.jpg","viewCount":"5170","playlistId":"PLEkQk5xrP-tmf5ToOwmW-q0JwxkapbrMN","playlistName":"شرح كتاب إرشاد البرية إلى بعض معاني الحكم العطائية","category":"متنوع"},{"id":"QARk5tfDoh0","title":"13- اخرج من أوصاف بشريتك عن كل وصف يناقض عبوديتك | شرح الحكم العطائية","publishedAt":"2025-01-10T18:58:56Z","duration":"PT45M23S","thumbnail":"https://i.ytimg.com/vi/QARk5tfDoh0/mqdefault.jpg","viewCount":"3740","playlistId":"PLEkQk5xrP-tmf5ToOwmW-q0JwxkapbrMN","playlistName":"شرح كتاب إرشاد البرية إلى بعض معاني الحكم العطائية","category":"متنوع"},{"id":"o9vhQRnbDF4","title":"16- كيف تتخلص من التعلق بالدنيا؟ ‏| شرح الحكم العطائية","publishedAt":"2025-04-27T05:52:25Z","duration":"PT35M1S","thumbnail":"https://i.ytimg.com/vi/o9vhQRnbDF4/mqdefault.jpg","viewCount":"5880","playlistId":"PLEkQk5xrP-tmf5ToOwmW-q0JwxkapbrMN","playlistName":"شرح كتاب إرشاد البرية إلى بعض معاني الحكم العطائية","category":"متنوع"},{"id":"qpIr5vV6sBA","title":"15- كيف تفوض أمرك إلى الله وتحسن الظن به؟ ‏| شرح الحكم العطائية","publishedAt":"2025-04-23T18:00:49Z","duration":"PT41M10S","thumbnail":"https://i.ytimg.com/vi/qpIr5vV6sBA/mqdefault.jpg","viewCount":"12121","playlistId":"PLEkQk5xrP-tmf5ToOwmW-q0JwxkapbrMN","playlistName":"شرح كتاب إرشاد البرية إلى بعض معاني الحكم العطائية","category":"متنوع"},{"id":"4UwcHg93ShQ","title":"25- كيف تجاهد نفسك على الطاعة؟ | شرح الحكم العطائية","publishedAt":"2025-08-16T19:00:04Z","duration":"PT42M13S","thumbnail":"https://i.ytimg.com/vi/4UwcHg93ShQ/mqdefault.jpg","viewCount":"3008","playlistId":"PLEkQk5xrP-tmf5ToOwmW-q0JwxkapbrMN","playlistName":"شرح كتاب إرشاد البرية إلى بعض معاني الحكم العطائية","category":"متنوع"},{"id":"lm7suKjAN8s","title":"24- ماذا أفعل حتى يرضى الله عني؟ | شرح الحكم العطائية","publishedAt":"2025-08-07T17:01:10Z","duration":"PT37M36S","thumbnail":"https://i.ytimg.com/vi/lm7suKjAN8s/mqdefault.jpg","viewCount":"3802","playlistId":"PLEkQk5xrP-tmf5ToOwmW-q0JwxkapbrMN","playlistName":"شرح كتاب إرشاد البرية إلى بعض معاني الحكم العطائية","category":"متنوع"},{"id":"0S1R9I9LhZU","title":"12- حقيقة الكشف وهل للمريد أن يطلب الكشف؟ | شرح الحكم العطائية","publishedAt":"2025-01-02T20:00:00Z","duration":"PT52M42S","thumbnail":"https://i.ytimg.com/vi/0S1R9I9LhZU/mqdefault.jpg","viewCount":"5471","playlistId":"PLEkQk5xrP-tmf5ToOwmW-q0JwxkapbrMN","playlistName":"شرح كتاب إرشاد البرية إلى بعض معاني الحكم العطائية","category":"متنوع"},{"id":"C3VjF0AmXYs","title":"11- لماذا يتحقق مطلبك مع الله ويصعب بالاعتماد على نفسك؟ | شرح الحكم العطائية","publishedAt":"2024-12-26T18:25:35Z","duration":"PT48M51S","thumbnail":"https://i.ytimg.com/vi/C3VjF0AmXYs/mqdefault.jpg","viewCount":"5687","playlistId":"PLEkQk5xrP-tmf5ToOwmW-q0JwxkapbrMN","playlistName":"شرح كتاب إرشاد البرية إلى بعض معاني الحكم العطائية","category":"متنوع"},{"id":"iWyjc5YeK4g","title":"10- ما من نَفَسٍ تبديه إلا وله قدر فيك يمضيه | شرح الحكم العطائية","publishedAt":"2024-12-17T17:25:59Z","duration":"PT42M59S","thumbnail":"https://i.ytimg.com/vi/iWyjc5YeK4g/mqdefault.jpg","viewCount":"4491","playlistId":"PLEkQk5xrP-tmf5ToOwmW-q0JwxkapbrMN","playlistName":"شرح كتاب إرشاد البرية إلى بعض معاني الحكم العطائية","category":"متنوع"},{"id":"17vS4zlF6bY","title":"9- كيف تكون أعمالك خالية من رعونات النفس؟ | شرح الحكم العطائية","publishedAt":"2024-12-12T17:09:51Z","duration":"PT43M22S","thumbnail":"https://i.ytimg.com/vi/17vS4zlF6bY/mqdefault.jpg","viewCount":"4493","playlistId":"PLEkQk5xrP-tmf5ToOwmW-q0JwxkapbrMN","playlistName":"شرح كتاب إرشاد البرية إلى بعض معاني الحكم العطائية","category":"متنوع"},{"id":"Rb-EQ1vL2Dk","title":"6- كيف يشرق قلب صور الأكوان منطبعة فى مرآته؟! | شرح الحكم العطائية","publishedAt":"2024-08-20T17:00:19Z","duration":"PT32M4S","thumbnail":"https://i.ytimg.com/vi/Rb-EQ1vL2Dk/mqdefault.jpg","viewCount":"6098","playlistId":"PLEkQk5xrP-tmf5ToOwmW-q0JwxkapbrMN","playlistName":"شرح كتاب إرشاد البرية إلى بعض معاني الحكم العطائية","category":"متنوع"},{"id":"dQxLaTK6kIA","title":"5- ما نفع القلب شيء مثل عزلة يدخل بها ميدان فكرة | شرح الحكم العطائية","publishedAt":"2024-08-15T18:24:52Z","duration":"PT40M51S","thumbnail":"https://i.ytimg.com/vi/dQxLaTK6kIA/mqdefault.jpg","viewCount":"8615","playlistId":"PLEkQk5xrP-tmf5ToOwmW-q0JwxkapbrMN","playlistName":"شرح كتاب إرشاد البرية إلى بعض معاني الحكم العطائية","category":"متنوع"},{"id":"Z4XDjopu7P4","title":"7- الكون كله ظلمة وإنما أناره ظهور الحق فيه | شرح الحكم العطائية","publishedAt":"2024-08-29T17:00:27Z","duration":"PT46M59S","thumbnail":"https://i.ytimg.com/vi/Z4XDjopu7P4/mqdefault.jpg","viewCount":"5929","playlistId":"PLEkQk5xrP-tmf5ToOwmW-q0JwxkapbrMN","playlistName":"شرح كتاب إرشاد البرية إلى بعض معاني الحكم العطائية","category":"متنوع"}],"total":29,"page":1,"pageSize":24,"totalPages":2}