{"items":[{"id":"3b9rSfBaQYg","title":"20- كيف يكون قلبي خالصا لله؟ | شرح الحكم العطائية","publishedAt":"2025-07-03T18:36:59Z","duration":"PT39M48S","thumbnail":"https://i.ytimg.com/vi/3b9rSfBaQYg/mqdefault.jpg","viewCount":"3444","playlistId":"PLEkQk5xrP-tmf5ToOwmW-q0JwxkapbrMN","playlistName":"شرح كتاب إرشاد البرية إلى بعض معاني الحكم العطائية","category":"متنوع"},{"id":"9gdLvBubrX0","title":"1- علامة الاعتماد على العمل ومعنى إرادتك التجريد أو الأسباب | شرح الحكم العطائية","publishedAt":"2024-07-25T17:00:05Z","duration":"PT52M40S","thumbnail":"https://i.ytimg.com/vi/9gdLvBubrX0/mqdefault.jpg","viewCount":"11126","playlistId":"PLEkQk5xrP-tmf5ToOwmW-q0JwxkapbrMN","playlistName":"شرح كتاب إرشاد البرية إلى بعض معاني الحكم العطائية","category":"متنوع"},{"id":"rBAhWWgFFrk","title":"26- ما الفرق بين أحوال القبض والبسط؟ | شرح الحكم العطائية","publishedAt":"2025-08-23T18:15:10Z","duration":"PT35M33S","thumbnail":"https://i.ytimg.com/vi/rBAhWWgFFrk/mqdefault.jpg","viewCount":"3511","playlistId":"PLEkQk5xrP-tmf5ToOwmW-q0JwxkapbrMN","playlistName":"شرح كتاب إرشاد البرية إلى بعض معاني الحكم العطائية","category":"متنوع"},{"id":"wNxfUwj0vc4","title":"18- ما حكم ‏الذكر باللسان بدون حضور القلب؟ | شرح الحكم العطائية","publishedAt":"2025-05-15T17:01:12Z","duration":"PT42M50S","thumbnail":"https://i.ytimg.com/vi/wNxfUwj0vc4/mqdefault.jpg","viewCount":"4760","playlistId":"PLEkQk5xrP-tmf5ToOwmW-q0JwxkapbrMN","playlistName":"شرح كتاب إرشاد البرية إلى بعض معاني الحكم العطائية","category":"متنوع"},{"id":"0S1R9I9LhZU","title":"12- حقيقة الكشف وهل للمريد أن يطلب الكشف؟ | شرح الحكم العطائية","publishedAt":"2025-01-02T20:00:00Z","duration":"PT52M42S","thumbnail":"https://i.ytimg.com/vi/0S1R9I9LhZU/mqdefault.jpg","viewCount":"5471","playlistId":"PLEkQk5xrP-tmf5ToOwmW-q0JwxkapbrMN","playlistName":"شرح كتاب إرشاد البرية إلى بعض معاني الحكم العطائية","category":"متنوع"}],"total":29,"page":2,"pageSize":24,"totalPages":2}