{"items":[{"id":"LvcFYlEl1kE","title":"مقرأة سورة الشعراء من آية ١٠","publishedAt":"2018-04-10T09:00:43Z","duration":"PT25M54S","thumbnail":"https://i.ytimg.com/vi/LvcFYlEl1kE/mqdefault.jpg","viewCount":"884","playlistId":"PLEkQk5xrP-tnmTYsyW6xNdyfhPq0Bhrhj","playlistName":"مقرأة الفجر - القُرْآنُ الكَرِيمُ - خَتْمَةُ التَّدَبُّرِ  أ.د. يسري جبر","category":"متنوع"},{"id":"tnHKmWpNpUU","title":"قراءة القرآن (من آية ٧ سورة آل عمران)","publishedAt":"2016-06-04T06:50:11Z","duration":"PT16M41S","thumbnail":"https://i.ytimg.com/vi/tnHKmWpNpUU/mqdefault.jpg","viewCount":"874","playlistId":"PLEkQk5xrP-tnmTYsyW6xNdyfhPq0Bhrhj","playlistName":"مقرأة الفجر - القُرْآنُ الكَرِيمُ - خَتْمَةُ التَّدَبُّرِ  أ.د. يسري جبر","category":"متنوع"},{"id":"eNzJtu0jJLs","title":"مقرأة سورة النور من آية ٣٥","publishedAt":"2018-03-17T13:05:36Z","duration":"PT17M42S","thumbnail":"https://i.ytimg.com/vi/eNzJtu0jJLs/mqdefault.jpg","viewCount":"868","playlistId":"PLEkQk5xrP-tnmTYsyW6xNdyfhPq0Bhrhj","playlistName":"مقرأة الفجر - القُرْآنُ الكَرِيمُ - خَتْمَةُ التَّدَبُّرِ  أ.د. يسري جبر","category":"متنوع"},{"id":"4mq5sw9MkAc","title":"مقرأة سورة العنكبوت من أولها","publishedAt":"2018-06-03T11:37:56Z","duration":"PT15M18S","thumbnail":"https://i.ytimg.com/vi/4mq5sw9MkAc/mqdefault.jpg","viewCount":"857","playlistId":"PLEkQk5xrP-tnmTYsyW6xNdyfhPq0Bhrhj","playlistName":"مقرأة الفجر - القُرْآنُ الكَرِيمُ - خَتْمَةُ التَّدَبُّرِ  أ.د. يسري جبر","category":"متنوع"},{"id":"7_VSx4GGMdU","title":"مقرأة سورة ص من أولها","publishedAt":"2018-09-27T12:05:50Z","duration":"PT22M5S","thumbnail":"https://i.ytimg.com/vi/7_VSx4GGMdU/mqdefault.jpg","viewCount":"857","playlistId":"PLEkQk5xrP-tnmTYsyW6xNdyfhPq0Bhrhj","playlistName":"مقرأة الفجر - القُرْآنُ الكَرِيمُ - خَتْمَةُ التَّدَبُّرِ  أ.د. يسري جبر","category":"متنوع"},{"id":"MU99hvE7V-c","title":"مقرأة سورة القلم من أولها","publishedAt":"2019-05-04T22:34:59Z","duration":"PT30M","thumbnail":"https://i.ytimg.com/vi/MU99hvE7V-c/mqdefault.jpg","viewCount":"850","playlistId":"PLEkQk5xrP-tnmTYsyW6xNdyfhPq0Bhrhj","playlistName":"مقرأة الفجر - القُرْآنُ الكَرِيمُ - خَتْمَةُ التَّدَبُّرِ  أ.د. يسري جبر","category":"متنوع"},{"id":"M8nkQ-CxYTY","title":"قراءة القرآن (من آية ١٨٥ سورة البقرة)","publishedAt":"2016-05-08T08:52:03Z","duration":"PT14M34S","thumbnail":"https://i.ytimg.com/vi/M8nkQ-CxYTY/mqdefault.jpg","viewCount":"849","playlistId":"PLEkQk5xrP-tnmTYsyW6xNdyfhPq0Bhrhj","playlistName":"مقرأة الفجر - القُرْآنُ الكَرِيمُ - خَتْمَةُ التَّدَبُّرِ  أ.د. يسري جبر","category":"متنوع"},{"id":"R3d3tdOB14w","title":"قراءة القرآن (من آية ٢٠٠ سورة البقرة)","publishedAt":"2016-05-12T04:32:20Z","duration":"PT5M56S","thumbnail":"https://i.ytimg.com/vi/R3d3tdOB14w/mqdefault.jpg","viewCount":"846","playlistId":"PLEkQk5xrP-tnmTYsyW6xNdyfhPq0Bhrhj","playlistName":"مقرأة الفجر - القُرْآنُ الكَرِيمُ - خَتْمَةُ التَّدَبُّرِ  أ.د. يسري جبر","category":"متنوع"},{"id":"zzpk2wiMbWY","title":"سورة الأنعام من أولها","publishedAt":"2016-11-28T11:27:35Z","duration":"PT19M53S","thumbnail":"https://i.ytimg.com/vi/zzpk2wiMbWY/mqdefault.jpg","viewCount":"831","playlistId":"PLEkQk5xrP-tnmTYsyW6xNdyfhPq0Bhrhj","playlistName":"مقرأة الفجر - القُرْآنُ الكَرِيمُ - خَتْمَةُ التَّدَبُّرِ  أ.د. يسري جبر","category":"متنوع"},{"id":"UIOYQExZrN0","title":"مقرأة سورة الفجر من أولها","publishedAt":"2019-07-17T10:12:34Z","duration":"PT15M45S","thumbnail":"https://i.ytimg.com/vi/UIOYQExZrN0/mqdefault.jpg","viewCount":"822","playlistId":"PLEkQk5xrP-tnmTYsyW6xNdyfhPq0Bhrhj","playlistName":"مقرأة الفجر - القُرْآنُ الكَرِيمُ - خَتْمَةُ التَّدَبُّرِ  أ.د. يسري جبر","category":"متنوع"},{"id":"xYEjrKJ45Yw","title":"مقرأة سورة يونس من آية ٨٣","publishedAt":"2017-05-23T07:26:27Z","duration":"PT23M10S","thumbnail":"https://i.ytimg.com/vi/xYEjrKJ45Yw/mqdefault.jpg","viewCount":"820","playlistId":"PLEkQk5xrP-tnmTYsyW6xNdyfhPq0Bhrhj","playlistName":"مقرأة الفجر - القُرْآنُ الكَرِيمُ - خَتْمَةُ التَّدَبُّرِ  أ.د. يسري جبر","category":"متنوع"},{"id":"WMDHEL3rq3o","title":"مقرأة سورة مريم من أولها","publishedAt":"2017-11-03T07:05:43Z","duration":"PT19M43S","thumbnail":"https://i.ytimg.com/vi/WMDHEL3rq3o/mqdefault.jpg","viewCount":"815","playlistId":"PLEkQk5xrP-tnmTYsyW6xNdyfhPq0Bhrhj","playlistName":"مقرأة الفجر - القُرْآنُ الكَرِيمُ - خَتْمَةُ التَّدَبُّرِ  أ.د. يسري جبر","category":"متنوع"},{"id":"XhNECFl4OJ8","title":"قراءة القرآن (من آية ٢٢٠ سورة البقرة)","publishedAt":"2016-05-14T21:55:54Z","duration":"PT18M41S","thumbnail":"https://i.ytimg.com/vi/XhNECFl4OJ8/mqdefault.jpg","viewCount":"812","playlistId":"PLEkQk5xrP-tnmTYsyW6xNdyfhPq0Bhrhj","playlistName":"مقرأة الفجر - القُرْآنُ الكَرِيمُ - خَتْمَةُ التَّدَبُّرِ  أ.د. يسري جبر","category":"متنوع"},{"id":"chZ9bk0DNUc","title":"مقرأة سورة المزمل من أولها","publishedAt":"2019-05-23T09:46:43Z","duration":"PT18M38S","thumbnail":"https://i.ytimg.com/vi/chZ9bk0DNUc/mqdefault.jpg","viewCount":"812","playlistId":"PLEkQk5xrP-tnmTYsyW6xNdyfhPq0Bhrhj","playlistName":"مقرأة الفجر - القُرْآنُ الكَرِيمُ - خَتْمَةُ التَّدَبُّرِ  أ.د. يسري جبر","category":"متنوع"},{"id":"gqU4a0Xkvcs","title":"مقرأة سورة التكوير من أولها","publishedAt":"2019-06-30T10:16:54Z","duration":"PT14M","thumbnail":"https://i.ytimg.com/vi/gqU4a0Xkvcs/mqdefault.jpg","viewCount":"807","playlistId":"PLEkQk5xrP-tnmTYsyW6xNdyfhPq0Bhrhj","playlistName":"مقرأة الفجر - القُرْآنُ الكَرِيمُ - خَتْمَةُ التَّدَبُّرِ  أ.د. يسري جبر","category":"متنوع"},{"id":"2c4el6SR5A0","title":"مقرأة سورة يوسف من آية ٥٨","publishedAt":"2017-07-03T16:04:38Z","duration":"PT24M26S","thumbnail":"https://i.ytimg.com/vi/2c4el6SR5A0/mqdefault.jpg","viewCount":"803","playlistId":"PLEkQk5xrP-tnmTYsyW6xNdyfhPq0Bhrhj","playlistName":"مقرأة الفجر - القُرْآنُ الكَرِيمُ - خَتْمَةُ التَّدَبُّرِ  أ.د. يسري جبر","category":"متنوع"},{"id":"w0KjX7NWTiQ","title":"مقرأة سورة يوسف من آية ١٩","publishedAt":"2017-06-24T10:26:34Z","duration":"PT32M17S","thumbnail":"https://i.ytimg.com/vi/w0KjX7NWTiQ/mqdefault.jpg","viewCount":"798","playlistId":"PLEkQk5xrP-tnmTYsyW6xNdyfhPq0Bhrhj","playlistName":"مقرأة الفجر - القُرْآنُ الكَرِيمُ - خَتْمَةُ التَّدَبُّرِ  أ.د. يسري جبر","category":"متنوع"},{"id":"VtBMUbXJNRU","title":"قراءة القرآن (من آية ٢٢٩ سورة البقرة)","publishedAt":"2016-05-17T02:39:53Z","duration":"PT23M22S","thumbnail":"https://i.ytimg.com/vi/VtBMUbXJNRU/mqdefault.jpg","viewCount":"795","playlistId":"PLEkQk5xrP-tnmTYsyW6xNdyfhPq0Bhrhj","playlistName":"مقرأة الفجر - القُرْآنُ الكَرِيمُ - خَتْمَةُ التَّدَبُّرِ  أ.د. يسري جبر","category":"متنوع"},{"id":"gOZqunnKx1o","title":"قراءة القرآن (من آية ٢١١ سورة البقرة)","publishedAt":"2016-05-12T20:30:53Z","duration":"PT13M10S","thumbnail":"https://i.ytimg.com/vi/gOZqunnKx1o/mqdefault.jpg","viewCount":"793","playlistId":"PLEkQk5xrP-tnmTYsyW6xNdyfhPq0Bhrhj","playlistName":"مقرأة الفجر - القُرْآنُ الكَرِيمُ - خَتْمَةُ التَّدَبُّرِ  أ.د. يسري جبر","category":"متنوع"},{"id":"G8AVAKp4Na0","title":"قراءة القرآن (من آية ٢٤٣ سورة البقرة)","publishedAt":"2016-05-23T20:11:11Z","duration":"PT31M15S","thumbnail":"https://i.ytimg.com/vi/G8AVAKp4Na0/mqdefault.jpg","viewCount":"789","playlistId":"PLEkQk5xrP-tnmTYsyW6xNdyfhPq0Bhrhj","playlistName":"مقرأة الفجر - القُرْآنُ الكَرِيمُ - خَتْمَةُ التَّدَبُّرِ  أ.د. يسري جبر","category":"متنوع"},{"id":"pH3vYlv4Aoc","title":"مقرأة سورة الرحمن من آية ٢٩","publishedAt":"2019-03-06T15:44:57Z","duration":"PT23M6S","thumbnail":"https://i.ytimg.com/vi/pH3vYlv4Aoc/mqdefault.jpg","viewCount":"788","playlistId":"PLEkQk5xrP-tnmTYsyW6xNdyfhPq0Bhrhj","playlistName":"مقرأة الفجر - القُرْآنُ الكَرِيمُ - خَتْمَةُ التَّدَبُّرِ  أ.د. يسري جبر","category":"متنوع"},{"id":"hLhQ6BBIQjM","title":"مقرأة سورة العصر من أولها","publishedAt":"2019-08-07T20:29:02Z","duration":"PT11M28S","thumbnail":"https://i.ytimg.com/vi/hLhQ6BBIQjM/mqdefault.jpg","viewCount":"781","playlistId":"PLEkQk5xrP-tnmTYsyW6xNdyfhPq0Bhrhj","playlistName":"مقرأة الفجر - القُرْآنُ الكَرِيمُ - خَتْمَةُ التَّدَبُّرِ  أ.د. يسري جبر","category":"متنوع"},{"id":"6K-LYgKtGDk","title":"مقرأة سورة الدخان من آية ٣٧","publishedAt":"2018-12-25T12:40:23Z","duration":"PT22M","thumbnail":"https://i.ytimg.com/vi/6K-LYgKtGDk/mqdefault.jpg","viewCount":"780","playlistId":"PLEkQk5xrP-tnmTYsyW6xNdyfhPq0Bhrhj","playlistName":"مقرأة الفجر - القُرْآنُ الكَرِيمُ - خَتْمَةُ التَّدَبُّرِ  أ.د. يسري جبر","category":"متنوع"},{"id":"_nlWhzzPFSs","title":"مقرأة سورة هود من آية ٤٤","publishedAt":"2017-06-14T09:37:12Z","duration":"PT11M24S","thumbnail":"https://i.ytimg.com/vi/_nlWhzzPFSs/mqdefault.jpg","viewCount":"776","playlistId":"PLEkQk5xrP-tnmTYsyW6xNdyfhPq0Bhrhj","playlistName":"مقرأة الفجر - القُرْآنُ الكَرِيمُ - خَتْمَةُ التَّدَبُّرِ  أ.د. يسري جبر","category":"متنوع"}],"total":942,"page":4,"pageSize":24,"totalPages":40}