{"items":[{"id":"jQFLeNUE8FU","title":"مقرأة سورة طه من آية ١١٢","publishedAt":"2017-12-07T19:44:47Z","duration":"PT20M34S","thumbnail":"https://i.ytimg.com/vi/jQFLeNUE8FU/mqdefault.jpg","viewCount":"288","playlistId":"PLEkQk5xrP-tnmTYsyW6xNdyfhPq0Bhrhj","playlistName":"مقرأة الفجر - القُرْآنُ الكَرِيمُ - خَتْمَةُ التَّدَبُّرِ  أ.د. يسري جبر","category":"متنوع"},{"id":"1YiXdWzGMJ4","title":"مقرأة سورة طه من آية ٩٩","publishedAt":"2017-12-06T20:27:36Z","duration":"PT20M50S","thumbnail":"https://i.ytimg.com/vi/1YiXdWzGMJ4/mqdefault.jpg","viewCount":"288","playlistId":"PLEkQk5xrP-tnmTYsyW6xNdyfhPq0Bhrhj","playlistName":"مقرأة الفجر - القُرْآنُ الكَرِيمُ - خَتْمَةُ التَّدَبُّرِ  أ.د. يسري جبر","category":"متنوع"},{"id":"lkRrTflVZOA","title":"مقرأة سورة يونس من آية ٣١","publishedAt":"2017-05-13T11:56:06Z","duration":"PT12M41S","thumbnail":"https://i.ytimg.com/vi/lkRrTflVZOA/mqdefault.jpg","viewCount":"287","playlistId":"PLEkQk5xrP-tnmTYsyW6xNdyfhPq0Bhrhj","playlistName":"مقرأة الفجر - القُرْآنُ الكَرِيمُ - خَتْمَةُ التَّدَبُّرِ  أ.د. يسري جبر","category":"متنوع"},{"id":"N3U33LQQ3lc","title":"مقرأة سورة الفرقان من آية ٦٣","publishedAt":"2018-04-06T11:30:40Z","duration":"PT24M13S","thumbnail":"https://i.ytimg.com/vi/N3U33LQQ3lc/mqdefault.jpg","viewCount":"287","playlistId":"PLEkQk5xrP-tnmTYsyW6xNdyfhPq0Bhrhj","playlistName":"مقرأة الفجر - القُرْآنُ الكَرِيمُ - خَتْمَةُ التَّدَبُّرِ  أ.د. يسري جبر","category":"متنوع"},{"id":"PBthxU-xzh0","title":"مقرأة سورة الفرقان من آية ٤١","publishedAt":"2018-04-02T07:05:12Z","duration":"PT19M44S","thumbnail":"https://i.ytimg.com/vi/PBthxU-xzh0/mqdefault.jpg","viewCount":"287","playlistId":"PLEkQk5xrP-tnmTYsyW6xNdyfhPq0Bhrhj","playlistName":"مقرأة الفجر - القُرْآنُ الكَرِيمُ - خَتْمَةُ التَّدَبُّرِ  أ.د. يسري جبر","category":"متنوع"},{"id":"9mznw-aeQkw","title":"مقرأة سورة الزخرف من آية ٢٦","publishedAt":"2018-12-14T07:35:02Z","duration":"PT25M33S","thumbnail":"https://i.ytimg.com/vi/9mznw-aeQkw/mqdefault.jpg","viewCount":"285","playlistId":"PLEkQk5xrP-tnmTYsyW6xNdyfhPq0Bhrhj","playlistName":"مقرأة الفجر - القُرْآنُ الكَرِيمُ - خَتْمَةُ التَّدَبُّرِ  أ.د. يسري جبر","category":"متنوع"},{"id":"4eSS1jFdwlk","title":"مقرأة الفجر من سورة إبراهيم آية ٢٨","publishedAt":"2017-08-02T14:10:38Z","duration":"PT23M35S","thumbnail":"https://i.ytimg.com/vi/4eSS1jFdwlk/mqdefault.jpg","viewCount":"285","playlistId":"PLEkQk5xrP-tnmTYsyW6xNdyfhPq0Bhrhj","playlistName":"مقرأة الفجر - القُرْآنُ الكَرِيمُ - خَتْمَةُ التَّدَبُّرِ  أ.د. يسري جبر","category":"متنوع"},{"id":"w3_PAKsd_I4","title":"مقرأة سورة الجمعة من آية ٥","publishedAt":"2019-04-11T10:57:05Z","duration":"PT7M26S","thumbnail":"https://i.ytimg.com/vi/w3_PAKsd_I4/mqdefault.jpg","viewCount":"283","playlistId":"PLEkQk5xrP-tnmTYsyW6xNdyfhPq0Bhrhj","playlistName":"مقرأة الفجر - القُرْآنُ الكَرِيمُ - خَتْمَةُ التَّدَبُّرِ  أ.د. يسري جبر","category":"متنوع"},{"id":"1qhauR5Ruo8","title":"مقرأة سورة مريم من آية ٧٧","publishedAt":"2017-11-21T14:41:16Z","duration":"PT12M19S","thumbnail":"https://i.ytimg.com/vi/1qhauR5Ruo8/mqdefault.jpg","viewCount":"281","playlistId":"PLEkQk5xrP-tnmTYsyW6xNdyfhPq0Bhrhj","playlistName":"مقرأة الفجر - القُرْآنُ الكَرِيمُ - خَتْمَةُ التَّدَبُّرِ  أ.د. يسري جبر","category":"متنوع"},{"id":"paRowm0KjOY","title":"مقرأة سورة هود من آية ٥٠","publishedAt":"2017-06-15T09:36:31Z","duration":"PT19M16S","thumbnail":"https://i.ytimg.com/vi/paRowm0KjOY/mqdefault.jpg","viewCount":"281","playlistId":"PLEkQk5xrP-tnmTYsyW6xNdyfhPq0Bhrhj","playlistName":"مقرأة الفجر - القُرْآنُ الكَرِيمُ - خَتْمَةُ التَّدَبُّرِ  أ.د. يسري جبر","category":"متنوع"},{"id":"tZAdcSoNin0","title":"مقرأة سورة النحل من آية ٨٤","publishedAt":"2017-08-31T11:54:26Z","duration":"PT13M10S","thumbnail":"https://i.ytimg.com/vi/tZAdcSoNin0/mqdefault.jpg","viewCount":"280","playlistId":"PLEkQk5xrP-tnmTYsyW6xNdyfhPq0Bhrhj","playlistName":"مقرأة الفجر - القُرْآنُ الكَرِيمُ - خَتْمَةُ التَّدَبُّرِ  أ.د. يسري جبر","category":"متنوع"},{"id":"3PTKI75OPcA","title":"مقرأة سورة الأنبياء من آية ٤٤","publishedAt":"2017-12-16T16:44:54Z","duration":"PT21M38S","thumbnail":"https://i.ytimg.com/vi/3PTKI75OPcA/mqdefault.jpg","viewCount":"280","playlistId":"PLEkQk5xrP-tnmTYsyW6xNdyfhPq0Bhrhj","playlistName":"مقرأة الفجر - القُرْآنُ الكَرِيمُ - خَتْمَةُ التَّدَبُّرِ  أ.د. يسري جبر","category":"متنوع"},{"id":"CGPnBbDUS5w","title":"مقرأة سورة النور من آية ٤٥","publishedAt":"2018-03-21T07:45:00Z","duration":"PT12M33S","thumbnail":"https://i.ytimg.com/vi/CGPnBbDUS5w/mqdefault.jpg","viewCount":"279","playlistId":"PLEkQk5xrP-tnmTYsyW6xNdyfhPq0Bhrhj","playlistName":"مقرأة الفجر - القُرْآنُ الكَرِيمُ - خَتْمَةُ التَّدَبُّرِ  أ.د. يسري جبر","category":"متنوع"},{"id":"OePqo0_bp54","title":"مقرأة سورة النحل من آية ٧٥","publishedAt":"2017-08-29T14:48:13Z","duration":"PT11M39S","thumbnail":"https://i.ytimg.com/vi/OePqo0_bp54/mqdefault.jpg","viewCount":"279","playlistId":"PLEkQk5xrP-tnmTYsyW6xNdyfhPq0Bhrhj","playlistName":"مقرأة الفجر - القُرْآنُ الكَرِيمُ - خَتْمَةُ التَّدَبُّرِ  أ.د. يسري جبر","category":"متنوع"},{"id":"1wMZyhy8AgY","title":"سورة التوبة آية 93","publishedAt":"2017-04-29T11:46:15Z","duration":"PT8M46S","thumbnail":"https://i.ytimg.com/vi/1wMZyhy8AgY/mqdefault.jpg","viewCount":"279","playlistId":"PLEkQk5xrP-tnmTYsyW6xNdyfhPq0Bhrhj","playlistName":"مقرأة الفجر - القُرْآنُ الكَرِيمُ - خَتْمَةُ التَّدَبُّرِ  أ.د. يسري جبر","category":"متنوع"},{"id":"Gxji7ipgfUc","title":"مقرأة سورة الروم من آية ٤٠","publishedAt":"2018-06-24T07:26:29Z","duration":"PT17M27S","thumbnail":"https://i.ytimg.com/vi/Gxji7ipgfUc/mqdefault.jpg","viewCount":"278","playlistId":"PLEkQk5xrP-tnmTYsyW6xNdyfhPq0Bhrhj","playlistName":"مقرأة الفجر - القُرْآنُ الكَرِيمُ - خَتْمَةُ التَّدَبُّرِ  أ.د. يسري جبر","category":"متنوع"},{"id":"OZ6uRIRngak","title":"مقرأة سورة العنكبوت من آية ٥٠","publishedAt":"2018-06-12T10:23:22Z","duration":"PT8M55S","thumbnail":"https://i.ytimg.com/vi/OZ6uRIRngak/mqdefault.jpg","viewCount":"278","playlistId":"PLEkQk5xrP-tnmTYsyW6xNdyfhPq0Bhrhj","playlistName":"مقرأة الفجر - القُرْآنُ الكَرِيمُ - خَتْمَةُ التَّدَبُّرِ  أ.د. يسري جبر","category":"متنوع"},{"id":"R58L01WSWhI","title":"مقرأة سورة النحل من آية ٦٨","publishedAt":"2017-08-27T07:22:14Z","duration":"PT12M18S","thumbnail":"https://i.ytimg.com/vi/R58L01WSWhI/mqdefault.jpg","viewCount":"278","playlistId":"PLEkQk5xrP-tnmTYsyW6xNdyfhPq0Bhrhj","playlistName":"مقرأة الفجر - القُرْآنُ الكَرِيمُ - خَتْمَةُ التَّدَبُّرِ  أ.د. يسري جبر","category":"متنوع"},{"id":"j6uVNYh3G84","title":"مقرأة سورة النور من آية ٣٢","publishedAt":"2018-03-16T08:23:39Z","duration":"PT16M7S","thumbnail":"https://i.ytimg.com/vi/j6uVNYh3G84/mqdefault.jpg","viewCount":"277","playlistId":"PLEkQk5xrP-tnmTYsyW6xNdyfhPq0Bhrhj","playlistName":"مقرأة الفجر - القُرْآنُ الكَرِيمُ - خَتْمَةُ التَّدَبُّرِ  أ.د. يسري جبر","category":"متنوع"},{"id":"MfECRZkpA3k","title":"مقرأة سورة الفرقان من آية ٥٣","publishedAt":"2018-04-04T10:24:42Z","duration":"PT24M19S","thumbnail":"https://i.ytimg.com/vi/MfECRZkpA3k/mqdefault.jpg","viewCount":"275","playlistId":"PLEkQk5xrP-tnmTYsyW6xNdyfhPq0Bhrhj","playlistName":"مقرأة الفجر - القُرْآنُ الكَرِيمُ - خَتْمَةُ التَّدَبُّرِ  أ.د. يسري جبر","category":"متنوع"},{"id":"c7npLI_Udho","title":"مقرأة سورة الحج من آية ٤٧","publishedAt":"2018-02-09T20:30:07Z","duration":"PT19M40S","thumbnail":"https://i.ytimg.com/vi/c7npLI_Udho/mqdefault.jpg","viewCount":"275","playlistId":"PLEkQk5xrP-tnmTYsyW6xNdyfhPq0Bhrhj","playlistName":"مقرأة الفجر - القُرْآنُ الكَرِيمُ - خَتْمَةُ التَّدَبُّرِ  أ.د. يسري جبر","category":"متنوع"},{"id":"tgYuJdhSLXI","title":"مقرأة سورة الحاقة من آية ٢٥","publishedAt":"2019-05-12T10:30:06Z","duration":"PT14M11S","thumbnail":"https://i.ytimg.com/vi/tgYuJdhSLXI/mqdefault.jpg","viewCount":"274","playlistId":"PLEkQk5xrP-tnmTYsyW6xNdyfhPq0Bhrhj","playlistName":"مقرأة الفجر - القُرْآنُ الكَرِيمُ - خَتْمَةُ التَّدَبُّرِ  أ.د. يسري جبر","category":"متنوع"},{"id":"kVAZagR6_i8","title":"مقرأة سورة التوبة من آية ١١٦","publishedAt":"2017-05-04T09:21:09Z","duration":"PT14M19S","thumbnail":"https://i.ytimg.com/vi/kVAZagR6_i8/mqdefault.jpg","viewCount":"274","playlistId":"PLEkQk5xrP-tnmTYsyW6xNdyfhPq0Bhrhj","playlistName":"مقرأة الفجر - القُرْآنُ الكَرِيمُ - خَتْمَةُ التَّدَبُّرِ  أ.د. يسري جبر","category":"متنوع"},{"id":"aUszkX_EqCU","title":"مقرأة سورة الشورى من آية ٣٦","publishedAt":"2018-12-05T11:43:24Z","duration":"PT28M8S","thumbnail":"https://i.ytimg.com/vi/aUszkX_EqCU/mqdefault.jpg","viewCount":"274","playlistId":"PLEkQk5xrP-tnmTYsyW6xNdyfhPq0Bhrhj","playlistName":"مقرأة الفجر - القُرْآنُ الكَرِيمُ - خَتْمَةُ التَّدَبُّرِ  أ.د. يسري جبر","category":"متنوع"}],"total":942,"page":36,"pageSize":24,"totalPages":40}