{"items":[{"id":"LtV2J5aXG_w","title":"القُرْآنُ الكَرِيمُ - خَتْمَةُ التَّدَبُّرِ - سُورةُ الفَاتِحَة","publishedAt":"2016-04-11T07:19:54Z","duration":"PT37M54S","thumbnail":"https://i.ytimg.com/vi/LtV2J5aXG_w/mqdefault.jpg","viewCount":"21751","playlistId":"PLEkQk5xrP-tnmTYsyW6xNdyfhPq0Bhrhj","playlistName":"مقرأة الفجر - القُرْآنُ الكَرِيمُ - خَتْمَةُ التَّدَبُّرِ  أ.د. يسري جبر","category":"متنوع"},{"id":"xiduAzr6oEo","title":"سُورة البقرة من أوَّلِها","publishedAt":"2016-04-16T20:03:59Z","duration":"PT40M25S","thumbnail":"https://i.ytimg.com/vi/xiduAzr6oEo/mqdefault.jpg","viewCount":"10068","playlistId":"PLEkQk5xrP-tnmTYsyW6xNdyfhPq0Bhrhj","playlistName":"مقرأة الفجر - القُرْآنُ الكَرِيمُ - خَتْمَةُ التَّدَبُّرِ  أ.د. يسري جبر","category":"متنوع"},{"id":"YLGlvhcF9gg","title":"سُورة البقرة آية 17","publishedAt":"2016-04-17T05:15:37Z","duration":"PT16M37S","thumbnail":"https://i.ytimg.com/vi/YLGlvhcF9gg/mqdefault.jpg","viewCount":"4754","playlistId":"PLEkQk5xrP-tnmTYsyW6xNdyfhPq0Bhrhj","playlistName":"مقرأة الفجر - القُرْآنُ الكَرِيمُ - خَتْمَةُ التَّدَبُّرِ  أ.د. يسري جبر","category":"متنوع"},{"id":"olIqfAhz4gc","title":"سورة يس من أولها أ.د. يسري جبر","publishedAt":"2018-08-30T09:34:35Z","duration":"PT23M53S","thumbnail":"https://i.ytimg.com/vi/olIqfAhz4gc/mqdefault.jpg","viewCount":"3944","playlistId":"PLEkQk5xrP-tnmTYsyW6xNdyfhPq0Bhrhj","playlistName":"مقرأة الفجر - القُرْآنُ الكَرِيمُ - خَتْمَةُ التَّدَبُّرِ  أ.د. يسري جبر","category":"متنوع"},{"id":"cInXJeOy7Ow","title":"سُورة البقرة آية 26","publishedAt":"2016-04-18T03:15:14Z","duration":"PT27M17S","thumbnail":"https://i.ytimg.com/vi/cInXJeOy7Ow/mqdefault.jpg","viewCount":"3506","playlistId":"PLEkQk5xrP-tnmTYsyW6xNdyfhPq0Bhrhj","playlistName":"مقرأة الفجر - القُرْآنُ الكَرِيمُ - خَتْمَةُ التَّدَبُّرِ  أ.د. يسري جبر","category":"متنوع"},{"id":"ZFn-FzHK3E0","title":"سورة البقرة آية 29","publishedAt":"2016-04-19T10:37:32Z","duration":"PT32M55S","thumbnail":"https://i.ytimg.com/vi/ZFn-FzHK3E0/mqdefault.jpg","viewCount":"2931","playlistId":"PLEkQk5xrP-tnmTYsyW6xNdyfhPq0Bhrhj","playlistName":"مقرأة الفجر - القُرْآنُ الكَرِيمُ - خَتْمَةُ التَّدَبُّرِ  أ.د. يسري جبر","category":"متنوع"},{"id":"QopIJXIauao","title":"سُورة البقرة آية 40","publishedAt":"2016-04-20T03:07:50Z","duration":"PT25M39S","thumbnail":"https://i.ytimg.com/vi/QopIJXIauao/mqdefault.jpg","viewCount":"2373","playlistId":"PLEkQk5xrP-tnmTYsyW6xNdyfhPq0Bhrhj","playlistName":"مقرأة الفجر - القُرْآنُ الكَرِيمُ - خَتْمَةُ التَّدَبُّرِ  أ.د. يسري جبر","category":"متنوع"},{"id":"F0nH6JBwVcw","title":"مقرأة سورة الكهف من أولها","publishedAt":"2017-10-12T15:50:26Z","duration":"PT13M23S","thumbnail":"https://i.ytimg.com/vi/F0nH6JBwVcw/mqdefault.jpg","viewCount":"2363","playlistId":"PLEkQk5xrP-tnmTYsyW6xNdyfhPq0Bhrhj","playlistName":"مقرأة الفجر - القُرْآنُ الكَرِيمُ - خَتْمَةُ التَّدَبُّرِ  أ.د. يسري جبر","category":"متنوع"},{"id":"oaI9vynDnRs","title":"مقرأة سورة الواقعة من أولها","publishedAt":"2019-03-10T11:04:16Z","duration":"PT19M49S","thumbnail":"https://i.ytimg.com/vi/oaI9vynDnRs/mqdefault.jpg","viewCount":"2354","playlistId":"PLEkQk5xrP-tnmTYsyW6xNdyfhPq0Bhrhj","playlistName":"مقرأة الفجر - القُرْآنُ الكَرِيمُ - خَتْمَةُ التَّدَبُّرِ  أ.د. يسري جبر","category":"متنوع"},{"id":"hebE3teLNJ4","title":"مقرأة سورة النور من أولها","publishedAt":"2018-03-08T11:27:24Z","duration":"PT27M32S","thumbnail":"https://i.ytimg.com/vi/hebE3teLNJ4/mqdefault.jpg","viewCount":"2308","playlistId":"PLEkQk5xrP-tnmTYsyW6xNdyfhPq0Bhrhj","playlistName":"مقرأة الفجر - القُرْآنُ الكَرِيمُ - خَتْمَةُ التَّدَبُّرِ  أ.د. يسري جبر","category":"متنوع"},{"id":"rUn5bwp14Yc","title":"مقرأة سورة الناس من أولها","publishedAt":"2019-08-17T22:07:10Z","duration":"PT26M56S","thumbnail":"https://i.ytimg.com/vi/rUn5bwp14Yc/mqdefault.jpg","viewCount":"2269","playlistId":"PLEkQk5xrP-tnmTYsyW6xNdyfhPq0Bhrhj","playlistName":"مقرأة الفجر - القُرْآنُ الكَرِيمُ - خَتْمَةُ التَّدَبُّرِ  أ.د. يسري جبر","category":"متنوع"},{"id":"Wk-XDwhSIxQ","title":"سُورة البقرة آية 50","publishedAt":"2016-04-21T03:18:07Z","duration":"PT25M43S","thumbnail":"https://i.ytimg.com/vi/Wk-XDwhSIxQ/mqdefault.jpg","viewCount":"2033","playlistId":"PLEkQk5xrP-tnmTYsyW6xNdyfhPq0Bhrhj","playlistName":"مقرأة الفجر - القُرْآنُ الكَرِيمُ - خَتْمَةُ التَّدَبُّرِ  أ.د. يسري جبر","category":"متنوع"},{"id":"TvLvgTz_K_I","title":"مقرأة سورة الإسراء من أولها","publishedAt":"2017-09-13T10:12:54Z","duration":"PT17M37S","thumbnail":"https://i.ytimg.com/vi/TvLvgTz_K_I/mqdefault.jpg","viewCount":"2027","playlistId":"PLEkQk5xrP-tnmTYsyW6xNdyfhPq0Bhrhj","playlistName":"مقرأة الفجر - القُرْآنُ الكَرِيمُ - خَتْمَةُ التَّدَبُّرِ  أ.د. يسري جبر","category":"متنوع"},{"id":"N05XE_5fMfc","title":"مقرأة سورة النجم من أولها","publishedAt":"2019-02-13T12:14:12Z","duration":"PT15M31S","thumbnail":"https://i.ytimg.com/vi/N05XE_5fMfc/mqdefault.jpg","viewCount":"1967","playlistId":"PLEkQk5xrP-tnmTYsyW6xNdyfhPq0Bhrhj","playlistName":"مقرأة الفجر - القُرْآنُ الكَرِيمُ - خَتْمَةُ التَّدَبُّرِ  أ.د. يسري جبر","category":"متنوع"},{"id":"ESiWL0gaAlk","title":"مقرأة سورة عبس من أولها","publishedAt":"2019-06-19T10:55:21Z","duration":"PT18M51S","thumbnail":"https://i.ytimg.com/vi/ESiWL0gaAlk/mqdefault.jpg","viewCount":"1911","playlistId":"PLEkQk5xrP-tnmTYsyW6xNdyfhPq0Bhrhj","playlistName":"مقرأة الفجر - القُرْآنُ الكَرِيمُ - خَتْمَةُ التَّدَبُّرِ  أ.د. يسري جبر","category":"متنوع"},{"id":"CUJeWeO8yT8","title":"مقرأة سورة الحديد من أولها","publishedAt":"2019-03-18T11:11:38Z","duration":"PT10M51S","thumbnail":"https://i.ytimg.com/vi/CUJeWeO8yT8/mqdefault.jpg","viewCount":"1897","playlistId":"PLEkQk5xrP-tnmTYsyW6xNdyfhPq0Bhrhj","playlistName":"مقرأة الفجر - القُرْآنُ الكَرِيمُ - خَتْمَةُ التَّدَبُّرِ  أ.د. يسري جبر","category":"متنوع"},{"id":"n3WrpYSmDis","title":"مقرأة سورة الإخلاص من أولها","publishedAt":"2019-08-16T16:23:50Z","duration":"PT13M22S","thumbnail":"https://i.ytimg.com/vi/n3WrpYSmDis/mqdefault.jpg","viewCount":"1838","playlistId":"PLEkQk5xrP-tnmTYsyW6xNdyfhPq0Bhrhj","playlistName":"مقرأة الفجر - القُرْآنُ الكَرِيمُ - خَتْمَةُ التَّدَبُّرِ  أ.د. يسري جبر","category":"متنوع"},{"id":"PKX9JiV8b6E","title":"سورة البقرة آية 60","publishedAt":"2016-04-22T09:22:24Z","duration":"PT22M23S","thumbnail":"https://i.ytimg.com/vi/PKX9JiV8b6E/mqdefault.jpg","viewCount":"1829","playlistId":"PLEkQk5xrP-tnmTYsyW6xNdyfhPq0Bhrhj","playlistName":"مقرأة الفجر - القُرْآنُ الكَرِيمُ - خَتْمَةُ التَّدَبُّرِ  أ.د. يسري جبر","category":"متنوع"},{"id":"YWi9EJdROWU","title":"سُورة البقرة آية 67","publishedAt":"2016-04-22T20:22:40Z","duration":"PT25M8S","thumbnail":"https://i.ytimg.com/vi/YWi9EJdROWU/mqdefault.jpg","viewCount":"1709","playlistId":"PLEkQk5xrP-tnmTYsyW6xNdyfhPq0Bhrhj","playlistName":"مقرأة الفجر - القُرْآنُ الكَرِيمُ - خَتْمَةُ التَّدَبُّرِ  أ.د. يسري جبر","category":"متنوع"},{"id":"Tfdf1YiWe9Y","title":"سورة البقرة آية 75","publishedAt":"2016-04-24T22:46:50Z","duration":"PT20M16S","thumbnail":"https://i.ytimg.com/vi/Tfdf1YiWe9Y/mqdefault.jpg","viewCount":"1686","playlistId":"PLEkQk5xrP-tnmTYsyW6xNdyfhPq0Bhrhj","playlistName":"مقرأة الفجر - القُرْآنُ الكَرِيمُ - خَتْمَةُ التَّدَبُّرِ  أ.د. يسري جبر","category":"متنوع"},{"id":"rrZOg_JNwFk","title":"مقرأة سورة القمر من أولها","publishedAt":"2019-02-25T14:04:16Z","duration":"PT14M51S","thumbnail":"https://i.ytimg.com/vi/rrZOg_JNwFk/mqdefault.jpg","viewCount":"1490","playlistId":"PLEkQk5xrP-tnmTYsyW6xNdyfhPq0Bhrhj","playlistName":"مقرأة الفجر - القُرْآنُ الكَرِيمُ - خَتْمَةُ التَّدَبُّرِ  أ.د. يسري جبر","category":"متنوع"},{"id":"LBuSNHfYZ_c","title":"سورة البقرة آية 101","publishedAt":"2016-04-27T03:03:01Z","duration":"PT18M49S","thumbnail":"https://i.ytimg.com/vi/LBuSNHfYZ_c/mqdefault.jpg","viewCount":"1476","playlistId":"PLEkQk5xrP-tnmTYsyW6xNdyfhPq0Bhrhj","playlistName":"مقرأة الفجر - القُرْآنُ الكَرِيمُ - خَتْمَةُ التَّدَبُّرِ  أ.د. يسري جبر","category":"متنوع"},{"id":"Eva82eq-Mq8","title":"سورة البقرة آية 106","publishedAt":"2016-04-28T02:06:49Z","duration":"PT22M56S","thumbnail":"https://i.ytimg.com/vi/Eva82eq-Mq8/mqdefault.jpg","viewCount":"1449","playlistId":"PLEkQk5xrP-tnmTYsyW6xNdyfhPq0Bhrhj","playlistName":"مقرأة الفجر - القُرْآنُ الكَرِيمُ - خَتْمَةُ التَّدَبُّرِ  أ.د. يسري جبر","category":"متنوع"},{"id":"Srjp2NhG4LQ","title":"مقرأة سورة الشرح من أولها","publishedAt":"2019-07-25T10:46:57Z","duration":"PT20M22S","thumbnail":"https://i.ytimg.com/vi/Srjp2NhG4LQ/mqdefault.jpg","viewCount":"1433","playlistId":"PLEkQk5xrP-tnmTYsyW6xNdyfhPq0Bhrhj","playlistName":"مقرأة الفجر - القُرْآنُ الكَرِيمُ - خَتْمَةُ التَّدَبُّرِ  أ.د. يسري جبر","category":"متنوع"}],"total":942,"page":1,"pageSize":24,"totalPages":40}