{"items":[{"id":"vGSV4rz-g4I","title":"سورة يونس  آية 46","publishedAt":"2017-05-16T11:20:55Z","duration":"PT13M17S","thumbnail":"https://i.ytimg.com/vi/vGSV4rz-g4I/mqdefault.jpg","viewCount":"315","playlistId":"PLEkQk5xrP-tnmTYsyW6xNdyfhPq0Bhrhj","playlistName":"مقرأة الفجر - القُرْآنُ الكَرِيمُ - خَتْمَةُ التَّدَبُّرِ  أ.د. يسري جبر","category":"متنوع"},{"id":"ZCXMg5ChUFQ","title":"مقرأة سورة محمد من آية ٣٣","publishedAt":"2019-01-16T15:04:28Z","duration":"PT19M29S","thumbnail":"https://i.ytimg.com/vi/ZCXMg5ChUFQ/mqdefault.jpg","viewCount":"315","playlistId":"PLEkQk5xrP-tnmTYsyW6xNdyfhPq0Bhrhj","playlistName":"مقرأة الفجر - القُرْآنُ الكَرِيمُ - خَتْمَةُ التَّدَبُّرِ  أ.د. يسري جبر","category":"متنوع"},{"id":"BHNZ28ph27c","title":"مقرأة سورة إبراهيم من آية ١٣","publishedAt":"2017-07-30T07:24:24Z","duration":"PT21M28S","thumbnail":"https://i.ytimg.com/vi/BHNZ28ph27c/mqdefault.jpg","viewCount":"315","playlistId":"PLEkQk5xrP-tnmTYsyW6xNdyfhPq0Bhrhj","playlistName":"مقرأة الفجر - القُرْآنُ الكَرِيمُ - خَتْمَةُ التَّدَبُّرِ  أ.د. يسري جبر","category":"متنوع"},{"id":"dajuMDkBgao","title":"مقرأة سورة النحل من آية ٩٧","publishedAt":"2017-09-08T15:32:31Z","duration":"PT19M42S","thumbnail":"https://i.ytimg.com/vi/dajuMDkBgao/mqdefault.jpg","viewCount":"315","playlistId":"PLEkQk5xrP-tnmTYsyW6xNdyfhPq0Bhrhj","playlistName":"مقرأة الفجر - القُرْآنُ الكَرِيمُ - خَتْمَةُ التَّدَبُّرِ  أ.د. يسري جبر","category":"متنوع"},{"id":"I4wgwonEYCw","title":"مقرأة سورة فصلت من آية ٢٦","publishedAt":"2018-11-23T16:40:04Z","duration":"PT16M13S","thumbnail":"https://i.ytimg.com/vi/I4wgwonEYCw/mqdefault.jpg","viewCount":"314","playlistId":"PLEkQk5xrP-tnmTYsyW6xNdyfhPq0Bhrhj","playlistName":"مقرأة الفجر - القُرْآنُ الكَرِيمُ - خَتْمَةُ التَّدَبُّرِ  أ.د. يسري جبر","category":"متنوع"},{"id":"IlAcE0Yr2iI","title":"مقرأة سورة الروم من آية ٥٢","publishedAt":"2018-06-27T10:48:36Z","duration":"PT27M41S","thumbnail":"https://i.ytimg.com/vi/IlAcE0Yr2iI/mqdefault.jpg","viewCount":"314","playlistId":"PLEkQk5xrP-tnmTYsyW6xNdyfhPq0Bhrhj","playlistName":"مقرأة الفجر - القُرْآنُ الكَرِيمُ - خَتْمَةُ التَّدَبُّرِ  أ.د. يسري جبر","category":"متنوع"},{"id":"wIXKjiKopdg","title":"مقرأة سورة الأحزاب من ٱية ٢٢","publishedAt":"2018-07-22T17:11:53Z","duration":"PT16M11S","thumbnail":"https://i.ytimg.com/vi/wIXKjiKopdg/mqdefault.jpg","viewCount":"313","playlistId":"PLEkQk5xrP-tnmTYsyW6xNdyfhPq0Bhrhj","playlistName":"مقرأة الفجر - القُرْآنُ الكَرِيمُ - خَتْمَةُ التَّدَبُّرِ  أ.د. يسري جبر","category":"متنوع"},{"id":"WbJvR8L-IWg","title":"مقرأة سورة النحل من آية ٣٨","publishedAt":"2017-08-21T11:12:25Z","duration":"PT11M32S","thumbnail":"https://i.ytimg.com/vi/WbJvR8L-IWg/mqdefault.jpg","viewCount":"313","playlistId":"PLEkQk5xrP-tnmTYsyW6xNdyfhPq0Bhrhj","playlistName":"مقرأة الفجر - القُرْآنُ الكَرِيمُ - خَتْمَةُ التَّدَبُّرِ  أ.د. يسري جبر","category":"متنوع"},{"id":"yFe5mYdDp8o","title":"مقرأة سورة العنكبوت من آية ١٢","publishedAt":"2018-06-05T11:14:17Z","duration":"PT8M51S","thumbnail":"https://i.ytimg.com/vi/yFe5mYdDp8o/mqdefault.jpg","viewCount":"313","playlistId":"PLEkQk5xrP-tnmTYsyW6xNdyfhPq0Bhrhj","playlistName":"مقرأة الفجر - القُرْآنُ الكَرِيمُ - خَتْمَةُ التَّدَبُّرِ  أ.د. يسري جبر","category":"متنوع"},{"id":"7mWMrimsXsQ","title":"مقرأة سورة هود من آية ٩٦","publishedAt":"2017-06-19T11:26:24Z","duration":"PT27M8S","thumbnail":"https://i.ytimg.com/vi/7mWMrimsXsQ/mqdefault.jpg","viewCount":"312","playlistId":"PLEkQk5xrP-tnmTYsyW6xNdyfhPq0Bhrhj","playlistName":"مقرأة الفجر - القُرْآنُ الكَرِيمُ - خَتْمَةُ التَّدَبُّرِ  أ.د. يسري جبر","category":"متنوع"},{"id":"U1NuJAFeA2s","title":"مقرأة سورة سبأ من آية ٤٧","publishedAt":"2018-08-18T14:11:22Z","duration":"PT27M34S","thumbnail":"https://i.ytimg.com/vi/U1NuJAFeA2s/mqdefault.jpg","viewCount":"311","playlistId":"PLEkQk5xrP-tnmTYsyW6xNdyfhPq0Bhrhj","playlistName":"مقرأة الفجر - القُرْآنُ الكَرِيمُ - خَتْمَةُ التَّدَبُّرِ  أ.د. يسري جبر","category":"متنوع"},{"id":"Q12lbrR8AuQ","title":"مقرأة سورة الروم من آية ١١","publishedAt":"2018-06-18T12:41:54Z","duration":"PT18M54S","thumbnail":"https://i.ytimg.com/vi/Q12lbrR8AuQ/mqdefault.jpg","viewCount":"311","playlistId":"PLEkQk5xrP-tnmTYsyW6xNdyfhPq0Bhrhj","playlistName":"مقرأة الفجر - القُرْآنُ الكَرِيمُ - خَتْمَةُ التَّدَبُّرِ  أ.د. يسري جبر","category":"متنوع"},{"id":"kvTsNcnr7YA","title":"مقرأة سورة إبراهيم من آية ١٠","publishedAt":"2017-07-29T16:28:45Z","duration":"PT16M47S","thumbnail":"https://i.ytimg.com/vi/kvTsNcnr7YA/mqdefault.jpg","viewCount":"311","playlistId":"PLEkQk5xrP-tnmTYsyW6xNdyfhPq0Bhrhj","playlistName":"مقرأة الفجر - القُرْآنُ الكَرِيمُ - خَتْمَةُ التَّدَبُّرِ  أ.د. يسري جبر","category":"متنوع"},{"id":"S8bT9NjqUak","title":"مقرأة سورة الأحزاب من ٱية ١٨","publishedAt":"2018-07-21T14:04:35Z","duration":"PT12M44S","thumbnail":"https://i.ytimg.com/vi/S8bT9NjqUak/mqdefault.jpg","viewCount":"311","playlistId":"PLEkQk5xrP-tnmTYsyW6xNdyfhPq0Bhrhj","playlistName":"مقرأة الفجر - القُرْآنُ الكَرِيمُ - خَتْمَةُ التَّدَبُّرِ  أ.د. يسري جبر","category":"متنوع"},{"id":"3p9VtRcaJ3U","title":"مقرأة سورة يونس من آية ٢٦","publishedAt":"2017-05-12T06:11:49Z","duration":"PT14M13S","thumbnail":"https://i.ytimg.com/vi/3p9VtRcaJ3U/mqdefault.jpg","viewCount":"311","playlistId":"PLEkQk5xrP-tnmTYsyW6xNdyfhPq0Bhrhj","playlistName":"مقرأة الفجر - القُرْآنُ الكَرِيمُ - خَتْمَةُ التَّدَبُّرِ  أ.د. يسري جبر","category":"متنوع"},{"id":"jUj0EXLPezE","title":"مقرأة سورة الشورى من آية ٤٤","publishedAt":"2018-12-08T12:44:26Z","duration":"PT19M9S","thumbnail":"https://i.ytimg.com/vi/jUj0EXLPezE/mqdefault.jpg","viewCount":"310","playlistId":"PLEkQk5xrP-tnmTYsyW6xNdyfhPq0Bhrhj","playlistName":"مقرأة الفجر - القُرْآنُ الكَرِيمُ - خَتْمَةُ التَّدَبُّرِ  أ.د. يسري جبر","category":"متنوع"},{"id":"iFMZeOTfkMU","title":"مقرأة سورة العنكبوت من آية ٦٥","publishedAt":"2018-06-15T08:34:43Z","duration":"PT11M55S","thumbnail":"https://i.ytimg.com/vi/iFMZeOTfkMU/mqdefault.jpg","viewCount":"310","playlistId":"PLEkQk5xrP-tnmTYsyW6xNdyfhPq0Bhrhj","playlistName":"مقرأة الفجر - القُرْآنُ الكَرِيمُ - خَتْمَةُ التَّدَبُّرِ  أ.د. يسري جبر","category":"متنوع"},{"id":"zgb_e44hkL0","title":"مقرأة سورة النور من آية ١٩","publishedAt":"2018-03-12T11:17:21Z","duration":"PT12M31S","thumbnail":"https://i.ytimg.com/vi/zgb_e44hkL0/mqdefault.jpg","viewCount":"310","playlistId":"PLEkQk5xrP-tnmTYsyW6xNdyfhPq0Bhrhj","playlistName":"مقرأة الفجر - القُرْآنُ الكَرِيمُ - خَتْمَةُ التَّدَبُّرِ  أ.د. يسري جبر","category":"متنوع"},{"id":"EplDav_y20M","title":"سورة النساء  آية ١٧٠","publishedAt":"2019-09-30T14:19:29Z","duration":"PT12M29S","thumbnail":"https://i.ytimg.com/vi/EplDav_y20M/mqdefault.jpg","viewCount":"309","playlistId":"PLEkQk5xrP-tnmTYsyW6xNdyfhPq0Bhrhj","playlistName":"مقرأة الفجر - القُرْآنُ الكَرِيمُ - خَتْمَةُ التَّدَبُّرِ  أ.د. يسري جبر","category":"متنوع"},{"id":"k9EI2_KJ9gg","title":"مقرأة سورة النحل من آية ٥٦","publishedAt":"2017-08-24T11:56:58Z","duration":"PT14M8S","thumbnail":"https://i.ytimg.com/vi/k9EI2_KJ9gg/mqdefault.jpg","viewCount":"308","playlistId":"PLEkQk5xrP-tnmTYsyW6xNdyfhPq0Bhrhj","playlistName":"مقرأة الفجر - القُرْآنُ الكَرِيمُ - خَتْمَةُ التَّدَبُّرِ  أ.د. يسري جبر","category":"متنوع"},{"id":"lrXTgsuUy1Y","title":"مقرأة سورة النحل من آية ٧٩","publishedAt":"2017-08-30T11:52:40Z","duration":"PT17M1S","thumbnail":"https://i.ytimg.com/vi/lrXTgsuUy1Y/mqdefault.jpg","viewCount":"308","playlistId":"PLEkQk5xrP-tnmTYsyW6xNdyfhPq0Bhrhj","playlistName":"مقرأة الفجر - القُرْآنُ الكَرِيمُ - خَتْمَةُ التَّدَبُّرِ  أ.د. يسري جبر","category":"متنوع"},{"id":"LFVRNVa6I5I","title":"مقرأة سورة الرعد من آية ٣٥","publishedAt":"2017-07-24T12:16:10Z","duration":"PT20M12S","thumbnail":"https://i.ytimg.com/vi/LFVRNVa6I5I/mqdefault.jpg","viewCount":"308","playlistId":"PLEkQk5xrP-tnmTYsyW6xNdyfhPq0Bhrhj","playlistName":"مقرأة الفجر - القُرْآنُ الكَرِيمُ - خَتْمَةُ التَّدَبُّرِ  أ.د. يسري جبر","category":"متنوع"},{"id":"Aghn8mPw_a0","title":"مقرأة سورة الأحزاب من ٱية ٣٢","publishedAt":"2018-07-24T17:26:08Z","duration":"PT17M16S","thumbnail":"https://i.ytimg.com/vi/Aghn8mPw_a0/mqdefault.jpg","viewCount":"308","playlistId":"PLEkQk5xrP-tnmTYsyW6xNdyfhPq0Bhrhj","playlistName":"مقرأة الفجر - القُرْآنُ الكَرِيمُ - خَتْمَةُ التَّدَبُّرِ  أ.د. يسري جبر","category":"متنوع"},{"id":"fziLKGNb1_Q","title":"مقرأة سورة الروم من آية ٤٨","publishedAt":"2018-06-26T11:18:42Z","duration":"PT17M","thumbnail":"https://i.ytimg.com/vi/fziLKGNb1_Q/mqdefault.jpg","viewCount":"307","playlistId":"PLEkQk5xrP-tnmTYsyW6xNdyfhPq0Bhrhj","playlistName":"مقرأة الفجر - القُرْآنُ الكَرِيمُ - خَتْمَةُ التَّدَبُّرِ  أ.د. يسري جبر","category":"متنوع"}],"total":942,"page":33,"pageSize":24,"totalPages":40}