{"items":[{"id":"c0MVuY1U6II","title":"سورة الأنفال آية 11","publishedAt":"2017-03-17T15:55:12Z","duration":"PT14M16S","thumbnail":"https://i.ytimg.com/vi/c0MVuY1U6II/mqdefault.jpg","viewCount":"513","playlistId":"PLEkQk5xrP-tnmTYsyW6xNdyfhPq0Bhrhj","playlistName":"مقرأة الفجر - القُرْآنُ الكَرِيمُ - خَتْمَةُ التَّدَبُّرِ  أ.د. يسري جبر","category":"متنوع"},{"id":"S84XP9w3dRI","title":"مقرأة سورة البروج من آية ١١","publishedAt":"2019-07-11T16:37:32Z","duration":"PT11M43S","thumbnail":"https://i.ytimg.com/vi/S84XP9w3dRI/mqdefault.jpg","viewCount":"513","playlistId":"PLEkQk5xrP-tnmTYsyW6xNdyfhPq0Bhrhj","playlistName":"مقرأة الفجر - القُرْآنُ الكَرِيمُ - خَتْمَةُ التَّدَبُّرِ  أ.د. يسري جبر","category":"متنوع"},{"id":"b_N96Tzhcl8","title":"سورة الذاريات من آية ٣٨","publishedAt":"2019-02-06T13:17:39Z","duration":"PT19M11S","thumbnail":"https://i.ytimg.com/vi/b_N96Tzhcl8/mqdefault.jpg","viewCount":"512","playlistId":"PLEkQk5xrP-tnmTYsyW6xNdyfhPq0Bhrhj","playlistName":"مقرأة الفجر - القُرْآنُ الكَرِيمُ - خَتْمَةُ التَّدَبُّرِ  أ.د. يسري جبر","category":"متنوع"},{"id":"oOSHMar9iPI","title":"مقرأة سورة يس من آية ٤٦","publishedAt":"2018-09-05T11:16:43Z","duration":"PT13M41S","thumbnail":"https://i.ytimg.com/vi/oOSHMar9iPI/mqdefault.jpg","viewCount":"511","playlistId":"PLEkQk5xrP-tnmTYsyW6xNdyfhPq0Bhrhj","playlistName":"مقرأة الفجر - القُرْآنُ الكَرِيمُ - خَتْمَةُ التَّدَبُّرِ  أ.د. يسري جبر","category":"متنوع"},{"id":"NKWrAmqH4jE","title":"سورة الأعراف آية 54","publishedAt":"2017-02-12T10:00:59Z","duration":"PT25M58S","thumbnail":"https://i.ytimg.com/vi/NKWrAmqH4jE/mqdefault.jpg","viewCount":"511","playlistId":"PLEkQk5xrP-tnmTYsyW6xNdyfhPq0Bhrhj","playlistName":"مقرأة الفجر - القُرْآنُ الكَرِيمُ - خَتْمَةُ التَّدَبُّرِ  أ.د. يسري جبر","category":"متنوع"},{"id":"muMfdzaclnE","title":"مقرأة سورة الكهف من آية ٣٢","publishedAt":"2017-10-25T09:59:56Z","duration":"PT36M7S","thumbnail":"https://i.ytimg.com/vi/muMfdzaclnE/mqdefault.jpg","viewCount":"511","playlistId":"PLEkQk5xrP-tnmTYsyW6xNdyfhPq0Bhrhj","playlistName":"مقرأة الفجر - القُرْآنُ الكَرِيمُ - خَتْمَةُ التَّدَبُّرِ  أ.د. يسري جبر","category":"متنوع"},{"id":"s_8Dy6cHKoM","title":"سورة النساء آية 43","publishedAt":"2016-08-22T07:40:54Z","duration":"PT32M52S","thumbnail":"https://i.ytimg.com/vi/s_8Dy6cHKoM/mqdefault.jpg","viewCount":"510","playlistId":"PLEkQk5xrP-tnmTYsyW6xNdyfhPq0Bhrhj","playlistName":"مقرأة الفجر - القُرْآنُ الكَرِيمُ - خَتْمَةُ التَّدَبُّرِ  أ.د. يسري جبر","category":"متنوع"},{"id":"zG7cxIarlZ8","title":"مقرأة سورة النحل من آية ١٠","publishedAt":"2017-08-15T12:48:05Z","duration":"PT22M7S","thumbnail":"https://i.ytimg.com/vi/zG7cxIarlZ8/mqdefault.jpg","viewCount":"509","playlistId":"PLEkQk5xrP-tnmTYsyW6xNdyfhPq0Bhrhj","playlistName":"مقرأة الفجر - القُرْآنُ الكَرِيمُ - خَتْمَةُ التَّدَبُّرِ  أ.د. يسري جبر","category":"متنوع"},{"id":"ILcRMYz4PZs","title":"مقرأة سورة نوح من آية ٣١","publishedAt":"2019-05-20T15:57:47Z","duration":"PT26M34S","thumbnail":"https://i.ytimg.com/vi/ILcRMYz4PZs/mqdefault.jpg","viewCount":"508","playlistId":"PLEkQk5xrP-tnmTYsyW6xNdyfhPq0Bhrhj","playlistName":"مقرأة الفجر - القُرْآنُ الكَرِيمُ - خَتْمَةُ التَّدَبُّرِ  أ.د. يسري جبر","category":"متنوع"},{"id":"fxMj9M64A1E","title":"مقرأة سورة الواقعة من آية ٢٧","publishedAt":"2019-03-11T11:19:37Z","duration":"PT9M14S","thumbnail":"https://i.ytimg.com/vi/fxMj9M64A1E/mqdefault.jpg","viewCount":"508","playlistId":"PLEkQk5xrP-tnmTYsyW6xNdyfhPq0Bhrhj","playlistName":"مقرأة الفجر - القُرْآنُ الكَرِيمُ - خَتْمَةُ التَّدَبُّرِ  أ.د. يسري جبر","category":"متنوع"},{"id":"DCcezY7NPps","title":"مقرأة سورة التغابن من أولها","publishedAt":"2019-04-15T10:49:56Z","duration":"PT12M25S","thumbnail":"https://i.ytimg.com/vi/DCcezY7NPps/mqdefault.jpg","viewCount":"508","playlistId":"PLEkQk5xrP-tnmTYsyW6xNdyfhPq0Bhrhj","playlistName":"مقرأة الفجر - القُرْآنُ الكَرِيمُ - خَتْمَةُ التَّدَبُّرِ  أ.د. يسري جبر","category":"متنوع"},{"id":"jKf1b-gG6VY","title":"سورة النساء آية 23","publishedAt":"2016-08-16T06:25:23Z","duration":"PT13M26S","thumbnail":"https://i.ytimg.com/vi/jKf1b-gG6VY/mqdefault.jpg","viewCount":"508","playlistId":"PLEkQk5xrP-tnmTYsyW6xNdyfhPq0Bhrhj","playlistName":"مقرأة الفجر - القُرْآنُ الكَرِيمُ - خَتْمَةُ التَّدَبُّرِ  أ.د. يسري جبر","category":"متنوع"},{"id":"LlxH1Z-qUzE","title":"سورة النساء آية 29","publishedAt":"2016-08-19T15:29:07Z","duration":"PT18M40S","thumbnail":"https://i.ytimg.com/vi/LlxH1Z-qUzE/mqdefault.jpg","viewCount":"508","playlistId":"PLEkQk5xrP-tnmTYsyW6xNdyfhPq0Bhrhj","playlistName":"مقرأة الفجر - القُرْآنُ الكَرِيمُ - خَتْمَةُ التَّدَبُّرِ  أ.د. يسري جبر","category":"متنوع"},{"id":"BmFb6nGFSpE","title":"مقرأة سورة فاطر من أولها","publishedAt":"2018-08-19T09:13:27Z","duration":"PT20M20S","thumbnail":"https://i.ytimg.com/vi/BmFb6nGFSpE/mqdefault.jpg","viewCount":"507","playlistId":"PLEkQk5xrP-tnmTYsyW6xNdyfhPq0Bhrhj","playlistName":"مقرأة الفجر - القُرْآنُ الكَرِيمُ - خَتْمَةُ التَّدَبُّرِ  أ.د. يسري جبر","category":"متنوع"},{"id":"XA5j-vE7KuU","title":"مقرأة سورة الإسراء من آية ٩","publishedAt":"2017-09-15T11:28:21Z","duration":"PT16M39S","thumbnail":"https://i.ytimg.com/vi/XA5j-vE7KuU/mqdefault.jpg","viewCount":"507","playlistId":"PLEkQk5xrP-tnmTYsyW6xNdyfhPq0Bhrhj","playlistName":"مقرأة الفجر - القُرْآنُ الكَرِيمُ - خَتْمَةُ التَّدَبُّرِ  أ.د. يسري جبر","category":"متنوع"},{"id":"wdK-ISpK6u4","title":"مقرأة سورة المرسلات من آية ٣٥","publishedAt":"2019-06-10T09:55:46Z","duration":"PT12M7S","thumbnail":"https://i.ytimg.com/vi/wdK-ISpK6u4/mqdefault.jpg","viewCount":"506","playlistId":"PLEkQk5xrP-tnmTYsyW6xNdyfhPq0Bhrhj","playlistName":"مقرأة الفجر - القُرْآنُ الكَرِيمُ - خَتْمَةُ التَّدَبُّرِ  أ.د. يسري جبر","category":"متنوع"},{"id":"9e5fj6c6S90","title":"مقرأة سورة الأنبياء من آية ٦٨","publishedAt":"2017-12-19T09:51:18Z","duration":"PT8M41S","thumbnail":"https://i.ytimg.com/vi/9e5fj6c6S90/mqdefault.jpg","viewCount":"506","playlistId":"PLEkQk5xrP-tnmTYsyW6xNdyfhPq0Bhrhj","playlistName":"مقرأة الفجر - القُرْآنُ الكَرِيمُ - خَتْمَةُ التَّدَبُّرِ  أ.د. يسري جبر","category":"متنوع"},{"id":"nFb5rwB0uFA","title":"مقرأة سورة الحديد من آية ٢٦","publishedAt":"2019-03-24T11:27:09Z","duration":"PT16M5S","thumbnail":"https://i.ytimg.com/vi/nFb5rwB0uFA/mqdefault.jpg","viewCount":"505","playlistId":"PLEkQk5xrP-tnmTYsyW6xNdyfhPq0Bhrhj","playlistName":"مقرأة الفجر - القُرْآنُ الكَرِيمُ - خَتْمَةُ التَّدَبُّرِ  أ.د. يسري جبر","category":"متنوع"},{"id":"hVk67GdjVmI","title":"مقرأة سورة ص من آية ٢٧","publishedAt":"2018-10-03T10:51:56Z","duration":"PT25M54S","thumbnail":"https://i.ytimg.com/vi/hVk67GdjVmI/mqdefault.jpg","viewCount":"505","playlistId":"PLEkQk5xrP-tnmTYsyW6xNdyfhPq0Bhrhj","playlistName":"مقرأة الفجر - القُرْآنُ الكَرِيمُ - خَتْمَةُ التَّدَبُّرِ  أ.د. يسري جبر","category":"متنوع"},{"id":"3KPycNKqFAc","title":"مقرأة سورة يوسف من آية ٨٨","publishedAt":"2017-07-06T10:58:01Z","duration":"PT17M50S","thumbnail":"https://i.ytimg.com/vi/3KPycNKqFAc/mqdefault.jpg","viewCount":"504","playlistId":"PLEkQk5xrP-tnmTYsyW6xNdyfhPq0Bhrhj","playlistName":"مقرأة الفجر - القُرْآنُ الكَرِيمُ - خَتْمَةُ التَّدَبُّرِ  أ.د. يسري جبر","category":"متنوع"},{"id":"3fluTVksOtQ","title":"قراءة القرآن (من آية ٦٩ سورة آل عمران)","publishedAt":"2016-07-11T21:31:33Z","duration":"PT13M38S","thumbnail":"https://i.ytimg.com/vi/3fluTVksOtQ/mqdefault.jpg","viewCount":"503","playlistId":"PLEkQk5xrP-tnmTYsyW6xNdyfhPq0Bhrhj","playlistName":"مقرأة الفجر - القُرْآنُ الكَرِيمُ - خَتْمَةُ التَّدَبُّرِ  أ.د. يسري جبر","category":"متنوع"},{"id":"hAR9ZNiSC88","title":"سورة الأعراف آية 80","publishedAt":"2017-02-17T07:50:40Z","duration":"PT28M44S","thumbnail":"https://i.ytimg.com/vi/hAR9ZNiSC88/mqdefault.jpg","viewCount":"502","playlistId":"PLEkQk5xrP-tnmTYsyW6xNdyfhPq0Bhrhj","playlistName":"مقرأة الفجر - القُرْآنُ الكَرِيمُ - خَتْمَةُ التَّدَبُّرِ  أ.د. يسري جبر","category":"متنوع"},{"id":"xO7rR76-7v4","title":"مقرأة سورة الصافات من آية ١٤٩","publishedAt":"2018-09-26T09:35:10Z","duration":"PT28M51S","thumbnail":"https://i.ytimg.com/vi/xO7rR76-7v4/mqdefault.jpg","viewCount":"502","playlistId":"PLEkQk5xrP-tnmTYsyW6xNdyfhPq0Bhrhj","playlistName":"مقرأة الفجر - القُرْآنُ الكَرِيمُ - خَتْمَةُ التَّدَبُّرِ  أ.د. يسري جبر","category":"متنوع"},{"id":"LsvXZTKwXMg","title":"مقرأة سورة القارعة من أولها","publishedAt":"2019-08-05T16:59:28Z","duration":"PT10M49S","thumbnail":"https://i.ytimg.com/vi/LsvXZTKwXMg/mqdefault.jpg","viewCount":"501","playlistId":"PLEkQk5xrP-tnmTYsyW6xNdyfhPq0Bhrhj","playlistName":"مقرأة الفجر - القُرْآنُ الكَرِيمُ - خَتْمَةُ التَّدَبُّرِ  أ.د. يسري جبر","category":"متنوع"}],"total":942,"page":12,"pageSize":24,"totalPages":40}