{"items":[{"id":"Ya2cgmrzZBQ","title":"سورة المائدة آية 97","publishedAt":"2016-11-23T06:58:58Z","duration":"PT7M59S","thumbnail":"https://i.ytimg.com/vi/Ya2cgmrzZBQ/mqdefault.jpg","viewCount":"322","playlistId":"PLEkQk5xrP-tnmTYsyW6xNdyfhPq0Bhrhj","playlistName":"مقرأة الفجر - القُرْآنُ الكَرِيمُ - خَتْمَةُ التَّدَبُّرِ  أ.د. يسري جبر","category":"متنوع"},{"id":"zPKnLh6ch78","title":"مقرأة سورة النمل من آية ١٥","publishedAt":"2018-04-27T07:48:13Z","duration":"PT23M6S","thumbnail":"https://i.ytimg.com/vi/zPKnLh6ch78/mqdefault.jpg","viewCount":"322","playlistId":"PLEkQk5xrP-tnmTYsyW6xNdyfhPq0Bhrhj","playlistName":"مقرأة الفجر - القُرْآنُ الكَرِيمُ - خَتْمَةُ التَّدَبُّرِ  أ.د. يسري جبر","category":"متنوع"},{"id":"rfmjpK64kJ0","title":"مقرأة سورة الفرقان من أولها","publishedAt":"2018-03-26T04:35:54Z","duration":"PT12M33S","thumbnail":"https://i.ytimg.com/vi/rfmjpK64kJ0/mqdefault.jpg","viewCount":"322","playlistId":"PLEkQk5xrP-tnmTYsyW6xNdyfhPq0Bhrhj","playlistName":"مقرأة الفجر - القُرْآنُ الكَرِيمُ - خَتْمَةُ التَّدَبُّرِ  أ.د. يسري جبر","category":"متنوع"},{"id":"WjN2AdiPOGM","title":"مقرأة سورة المؤمنون آية ٦٣","publishedAt":"2018-02-28T20:22:31Z","duration":"PT13M2S","thumbnail":"https://i.ytimg.com/vi/WjN2AdiPOGM/mqdefault.jpg","viewCount":"322","playlistId":"PLEkQk5xrP-tnmTYsyW6xNdyfhPq0Bhrhj","playlistName":"مقرأة الفجر - القُرْآنُ الكَرِيمُ - خَتْمَةُ التَّدَبُّرِ  أ.د. يسري جبر","category":"متنوع"},{"id":"nLnWgQ_PlKE","title":"مقرأة سورة الزخرف من آية ٥٦","publishedAt":"2018-12-18T12:09:07Z","duration":"PT17M18S","thumbnail":"https://i.ytimg.com/vi/nLnWgQ_PlKE/mqdefault.jpg","viewCount":"322","playlistId":"PLEkQk5xrP-tnmTYsyW6xNdyfhPq0Bhrhj","playlistName":"مقرأة الفجر - القُرْآنُ الكَرِيمُ - خَتْمَةُ التَّدَبُّرِ  أ.د. يسري جبر","category":"متنوع"},{"id":"wrvGOGE6RUs","title":"مقرأة سورة يونس من آية ١٧","publishedAt":"2017-05-10T11:02:34Z","duration":"PT10M57S","thumbnail":"https://i.ytimg.com/vi/wrvGOGE6RUs/mqdefault.jpg","viewCount":"322","playlistId":"PLEkQk5xrP-tnmTYsyW6xNdyfhPq0Bhrhj","playlistName":"مقرأة الفجر - القُرْآنُ الكَرِيمُ - خَتْمَةُ التَّدَبُّرِ  أ.د. يسري جبر","category":"متنوع"},{"id":"5fGwp3iUsyc","title":"مقرأة سورة السجدة من آية ٦","publishedAt":"2018-07-11T10:59:42Z","duration":"PT7M33S","thumbnail":"https://i.ytimg.com/vi/5fGwp3iUsyc/mqdefault.jpg","viewCount":"320","playlistId":"PLEkQk5xrP-tnmTYsyW6xNdyfhPq0Bhrhj","playlistName":"مقرأة الفجر - القُرْآنُ الكَرِيمُ - خَتْمَةُ التَّدَبُّرِ  أ.د. يسري جبر","category":"متنوع"},{"id":"yn5_0MR1pTw","title":"مقرأة سورة الإسراء من آية ٤١","publishedAt":"2017-09-25T13:12:42Z","duration":"PT12M58S","thumbnail":"https://i.ytimg.com/vi/yn5_0MR1pTw/mqdefault.jpg","viewCount":"320","playlistId":"PLEkQk5xrP-tnmTYsyW6xNdyfhPq0Bhrhj","playlistName":"مقرأة الفجر - القُرْآنُ الكَرِيمُ - خَتْمَةُ التَّدَبُّرِ  أ.د. يسري جبر","category":"متنوع"},{"id":"hNJfqII5wQM","title":"مقرأة سورة محمد من آية ٢٠","publishedAt":"2019-01-14T11:13:01Z","duration":"PT7M32S","thumbnail":"https://i.ytimg.com/vi/hNJfqII5wQM/mqdefault.jpg","viewCount":"319","playlistId":"PLEkQk5xrP-tnmTYsyW6xNdyfhPq0Bhrhj","playlistName":"مقرأة الفجر - القُرْآنُ الكَرِيمُ - خَتْمَةُ التَّدَبُّرِ  أ.د. يسري جبر","category":"متنوع"},{"id":"2R4jHfEuAW4","title":"مقرأة سورة هود من آية ٧٧","publishedAt":"2017-06-16T14:09:27Z","duration":"PT20M10S","thumbnail":"https://i.ytimg.com/vi/2R4jHfEuAW4/mqdefault.jpg","viewCount":"319","playlistId":"PLEkQk5xrP-tnmTYsyW6xNdyfhPq0Bhrhj","playlistName":"مقرأة الفجر - القُرْآنُ الكَرِيمُ - خَتْمَةُ التَّدَبُّرِ  أ.د. يسري جبر","category":"متنوع"},{"id":"x8V0Nzd3LS8","title":"مقرأة سورة الزخرف من آية ٣٣","publishedAt":"2018-12-15T09:45:33Z","duration":"PT20M48S","thumbnail":"https://i.ytimg.com/vi/x8V0Nzd3LS8/mqdefault.jpg","viewCount":"318","playlistId":"PLEkQk5xrP-tnmTYsyW6xNdyfhPq0Bhrhj","playlistName":"مقرأة الفجر - القُرْآنُ الكَرِيمُ - خَتْمَةُ التَّدَبُّرِ  أ.د. يسري جبر","category":"متنوع"},{"id":"D-4kllhcB-g","title":"مقرأة سورة الأنبياء من آية ٧٤","publishedAt":"2017-12-20T09:35:36Z","duration":"PT26M45S","thumbnail":"https://i.ytimg.com/vi/D-4kllhcB-g/mqdefault.jpg","viewCount":"318","playlistId":"PLEkQk5xrP-tnmTYsyW6xNdyfhPq0Bhrhj","playlistName":"مقرأة الفجر - القُرْآنُ الكَرِيمُ - خَتْمَةُ التَّدَبُّرِ  أ.د. يسري جبر","category":"متنوع"},{"id":"uUtnAYYjX2Y","title":"مقرأة سورة فاطر من آية ٢","publishedAt":"2018-08-20T08:51:10Z","duration":"PT10M32S","thumbnail":"https://i.ytimg.com/vi/uUtnAYYjX2Y/mqdefault.jpg","viewCount":"318","playlistId":"PLEkQk5xrP-tnmTYsyW6xNdyfhPq0Bhrhj","playlistName":"مقرأة الفجر - القُرْآنُ الكَرِيمُ - خَتْمَةُ التَّدَبُّرِ  أ.د. يسري جبر","category":"متنوع"},{"id":"-YotIv7dxA0","title":"مقرأة سورة المنافقون من آية ٧","publishedAt":"2019-04-14T10:03:03Z","duration":"PT12M1S","thumbnail":"https://i.ytimg.com/vi/-YotIv7dxA0/mqdefault.jpg","viewCount":"318","playlistId":"PLEkQk5xrP-tnmTYsyW6xNdyfhPq0Bhrhj","playlistName":"مقرأة الفجر - القُرْآنُ الكَرِيمُ - خَتْمَةُ التَّدَبُّرِ  أ.د. يسري جبر","category":"متنوع"},{"id":"u5HXvzV-73U","title":"مقرأة سورة الشعراء من آية أولها","publishedAt":"2018-04-09T11:26:26Z","duration":"PT28M48S","thumbnail":"https://i.ytimg.com/vi/u5HXvzV-73U/mqdefault.jpg","viewCount":"318","playlistId":"PLEkQk5xrP-tnmTYsyW6xNdyfhPq0Bhrhj","playlistName":"مقرأة الفجر - القُرْآنُ الكَرِيمُ - خَتْمَةُ التَّدَبُّرِ  أ.د. يسري جبر","category":"متنوع"},{"id":"JQY0S2HX0o4","title":"مقرأة سورة الصف من آية ١٠","publishedAt":"2019-04-09T11:03:01Z","duration":"PT13M17S","thumbnail":"https://i.ytimg.com/vi/JQY0S2HX0o4/mqdefault.jpg","viewCount":"317","playlistId":"PLEkQk5xrP-tnmTYsyW6xNdyfhPq0Bhrhj","playlistName":"مقرأة الفجر - القُرْآنُ الكَرِيمُ - خَتْمَةُ التَّدَبُّرِ  أ.د. يسري جبر","category":"متنوع"},{"id":"ZoW8f2N9RCU","title":"مقرأة سورة النحل من آية ٦٥","publishedAt":"2017-08-26T15:32:56Z","duration":"PT21M39S","thumbnail":"https://i.ytimg.com/vi/ZoW8f2N9RCU/mqdefault.jpg","viewCount":"317","playlistId":"PLEkQk5xrP-tnmTYsyW6xNdyfhPq0Bhrhj","playlistName":"مقرأة الفجر - القُرْآنُ الكَرِيمُ - خَتْمَةُ التَّدَبُّرِ  أ.د. يسري جبر","category":"متنوع"},{"id":"-M1N-fvn0Bw","title":"مقرأة سورة الجاثية من آية ١٨","publishedAt":"2018-12-30T09:44:48Z","duration":"PT20M47S","thumbnail":"https://i.ytimg.com/vi/-M1N-fvn0Bw/mqdefault.jpg","viewCount":"317","playlistId":"PLEkQk5xrP-tnmTYsyW6xNdyfhPq0Bhrhj","playlistName":"مقرأة الفجر - القُرْآنُ الكَرِيمُ - خَتْمَةُ التَّدَبُّرِ  أ.د. يسري جبر","category":"متنوع"},{"id":"s87RvR68Xcc","title":"مقرأة سورة الحج من آية ٨","publishedAt":"2018-01-15T04:41:07Z","duration":"PT5M15S","thumbnail":"https://i.ytimg.com/vi/s87RvR68Xcc/mqdefault.jpg","viewCount":"317","playlistId":"PLEkQk5xrP-tnmTYsyW6xNdyfhPq0Bhrhj","playlistName":"مقرأة الفجر - القُرْآنُ الكَرِيمُ - خَتْمَةُ التَّدَبُّرِ  أ.د. يسري جبر","category":"متنوع"},{"id":"hHl0UNzBq7A","title":"مقرأة سورة النور من آية ٣٦","publishedAt":"2018-03-18T08:28:00Z","duration":"PT8M3S","thumbnail":"https://i.ytimg.com/vi/hHl0UNzBq7A/mqdefault.jpg","viewCount":"316","playlistId":"PLEkQk5xrP-tnmTYsyW6xNdyfhPq0Bhrhj","playlistName":"مقرأة الفجر - القُرْآنُ الكَرِيمُ - خَتْمَةُ التَّدَبُّرِ  أ.د. يسري جبر","category":"متنوع"},{"id":"tVyDwEEFC-0","title":"مقرأة سورة الشورى من آية ٣٩","publishedAt":"2018-12-06T11:12:16Z","duration":"PT16M51S","thumbnail":"https://i.ytimg.com/vi/tVyDwEEFC-0/mqdefault.jpg","viewCount":"315","playlistId":"PLEkQk5xrP-tnmTYsyW6xNdyfhPq0Bhrhj","playlistName":"مقرأة الفجر - القُرْآنُ الكَرِيمُ - خَتْمَةُ التَّدَبُّرِ  أ.د. يسري جبر","category":"متنوع"},{"id":"dajuMDkBgao","title":"مقرأة سورة النحل من آية ٩٧","publishedAt":"2017-09-08T15:32:31Z","duration":"PT19M42S","thumbnail":"https://i.ytimg.com/vi/dajuMDkBgao/mqdefault.jpg","viewCount":"315","playlistId":"PLEkQk5xrP-tnmTYsyW6xNdyfhPq0Bhrhj","playlistName":"مقرأة الفجر - القُرْآنُ الكَرِيمُ - خَتْمَةُ التَّدَبُّرِ  أ.د. يسري جبر","category":"متنوع"},{"id":"3chapVyYzhU","title":"مقرأة سورة الأحزاب من ٱية ٤٩","publishedAt":"2018-07-30T07:42:30Z","duration":"PT13M59S","thumbnail":"https://i.ytimg.com/vi/3chapVyYzhU/mqdefault.jpg","viewCount":"315","playlistId":"PLEkQk5xrP-tnmTYsyW6xNdyfhPq0Bhrhj","playlistName":"مقرأة الفجر - القُرْآنُ الكَرِيمُ - خَتْمَةُ التَّدَبُّرِ  أ.د. يسري جبر","category":"متنوع"},{"id":"zU3hXFiLW1c","title":"مقرأة سورة لقمان من آية ١٠","publishedAt":"2018-07-01T12:48:57Z","duration":"PT14M46S","thumbnail":"https://i.ytimg.com/vi/zU3hXFiLW1c/mqdefault.jpg","viewCount":"315","playlistId":"PLEkQk5xrP-tnmTYsyW6xNdyfhPq0Bhrhj","playlistName":"مقرأة الفجر - القُرْآنُ الكَرِيمُ - خَتْمَةُ التَّدَبُّرِ  أ.د. يسري جبر","category":"متنوع"}],"total":942,"page":32,"pageSize":24,"totalPages":40}