{"items":[{"id":"jLoCeUSN97w","title":"مقرأة سورة النحل من آية ٢٤","publishedAt":"2017-08-18T06:08:16Z","duration":"PT17M15S","thumbnail":"https://i.ytimg.com/vi/jLoCeUSN97w/mqdefault.jpg","viewCount":"397","playlistId":"PLEkQk5xrP-tnmTYsyW6xNdyfhPq0Bhrhj","playlistName":"مقرأة الفجر - القُرْآنُ الكَرِيمُ - خَتْمَةُ التَّدَبُّرِ  أ.د. يسري جبر","category":"متنوع"},{"id":"rLsa3RWKMd4","title":"مقرأة سورة الأنبياء من آية ٩٨","publishedAt":"2017-12-30T15:00:56Z","duration":"PT15M18S","thumbnail":"https://i.ytimg.com/vi/rLsa3RWKMd4/mqdefault.jpg","viewCount":"397","playlistId":"PLEkQk5xrP-tnmTYsyW6xNdyfhPq0Bhrhj","playlistName":"مقرأة الفجر - القُرْآنُ الكَرِيمُ - خَتْمَةُ التَّدَبُّرِ  أ.د. يسري جبر","category":"متنوع"},{"id":"TF5ZRX-X33c","title":"مقرأة سورة غافر من آية ٥٦","publishedAt":"2018-11-13T06:12:53Z","duration":"PT34M14S","thumbnail":"https://i.ytimg.com/vi/TF5ZRX-X33c/mqdefault.jpg","viewCount":"397","playlistId":"PLEkQk5xrP-tnmTYsyW6xNdyfhPq0Bhrhj","playlistName":"مقرأة الفجر - القُرْآنُ الكَرِيمُ - خَتْمَةُ التَّدَبُّرِ  أ.د. يسري جبر","category":"متنوع"},{"id":"Co0fLk8cUkg","title":"سورة هود آية 6","publishedAt":"2017-06-01T21:28:07Z","duration":"PT15M28S","thumbnail":"https://i.ytimg.com/vi/Co0fLk8cUkg/mqdefault.jpg","viewCount":"396","playlistId":"PLEkQk5xrP-tnmTYsyW6xNdyfhPq0Bhrhj","playlistName":"مقرأة الفجر - القُرْآنُ الكَرِيمُ - خَتْمَةُ التَّدَبُّرِ  أ.د. يسري جبر","category":"متنوع"},{"id":"dynu39YdwwQ","title":"مقرأة الفجر من سورة إبراهيم آية ٢٢","publishedAt":"2017-08-01T08:05:00Z","duration":"PT28M18S","thumbnail":"https://i.ytimg.com/vi/dynu39YdwwQ/mqdefault.jpg","viewCount":"396","playlistId":"PLEkQk5xrP-tnmTYsyW6xNdyfhPq0Bhrhj","playlistName":"مقرأة الفجر - القُرْآنُ الكَرِيمُ - خَتْمَةُ التَّدَبُّرِ  أ.د. يسري جبر","category":"متنوع"},{"id":"Qh8d1SQpS8s","title":"مقرأة سورة الصافات من آية ٤٠","publishedAt":"2018-09-16T21:19:14Z","duration":"PT20M55S","thumbnail":"https://i.ytimg.com/vi/Qh8d1SQpS8s/mqdefault.jpg","viewCount":"396","playlistId":"PLEkQk5xrP-tnmTYsyW6xNdyfhPq0Bhrhj","playlistName":"مقرأة الفجر - القُرْآنُ الكَرِيمُ - خَتْمَةُ التَّدَبُّرِ  أ.د. يسري جبر","category":"متنوع"},{"id":"ejXENTqOVnc","title":"مقرأة سورة الحشر من آية ١١","publishedAt":"2019-04-02T08:35:31Z","duration":"PT15M14S","thumbnail":"https://i.ytimg.com/vi/ejXENTqOVnc/mqdefault.jpg","viewCount":"396","playlistId":"PLEkQk5xrP-tnmTYsyW6xNdyfhPq0Bhrhj","playlistName":"مقرأة الفجر - القُرْآنُ الكَرِيمُ - خَتْمَةُ التَّدَبُّرِ  أ.د. يسري جبر","category":"متنوع"},{"id":"lPFaqCAH4dc","title":"سورة الأعراف آية 163","publishedAt":"2017-03-05T03:44:55Z","duration":"PT16M46S","thumbnail":"https://i.ytimg.com/vi/lPFaqCAH4dc/mqdefault.jpg","viewCount":"395","playlistId":"PLEkQk5xrP-tnmTYsyW6xNdyfhPq0Bhrhj","playlistName":"مقرأة الفجر - القُرْآنُ الكَرِيمُ - خَتْمَةُ التَّدَبُّرِ  أ.د. يسري جبر","category":"متنوع"},{"id":"dJVstHxgVc4","title":"سورة الأعراف آية 150","publishedAt":"2017-03-01T13:43:51Z","duration":"PT20M28S","thumbnail":"https://i.ytimg.com/vi/dJVstHxgVc4/mqdefault.jpg","viewCount":"394","playlistId":"PLEkQk5xrP-tnmTYsyW6xNdyfhPq0Bhrhj","playlistName":"مقرأة الفجر - القُرْآنُ الكَرِيمُ - خَتْمَةُ التَّدَبُّرِ  أ.د. يسري جبر","category":"متنوع"},{"id":"TA6Igaosi5U","title":"مقرأة سورة الأحقاف من آية ١١","publishedAt":"2019-01-05T12:39:05Z","duration":"PT10M3S","thumbnail":"https://i.ytimg.com/vi/TA6Igaosi5U/mqdefault.jpg","viewCount":"394","playlistId":"PLEkQk5xrP-tnmTYsyW6xNdyfhPq0Bhrhj","playlistName":"مقرأة الفجر - القُرْآنُ الكَرِيمُ - خَتْمَةُ التَّدَبُّرِ  أ.د. يسري جبر","category":"متنوع"},{"id":"b4OVwarMgsA","title":"مقرأة سورة الممتحنة من آية ١٠","publishedAt":"2019-04-07T07:30:06Z","duration":"PT20M44S","thumbnail":"https://i.ytimg.com/vi/b4OVwarMgsA/mqdefault.jpg","viewCount":"394","playlistId":"PLEkQk5xrP-tnmTYsyW6xNdyfhPq0Bhrhj","playlistName":"مقرأة الفجر - القُرْآنُ الكَرِيمُ - خَتْمَةُ التَّدَبُّرِ  أ.د. يسري جبر","category":"متنوع"},{"id":"H9Zpf5MRxXM","title":"مقرأة سورة غافر من آية ١٠","publishedAt":"2018-11-04T10:17:06Z","duration":"PT18M49S","thumbnail":"https://i.ytimg.com/vi/H9Zpf5MRxXM/mqdefault.jpg","viewCount":"394","playlistId":"PLEkQk5xrP-tnmTYsyW6xNdyfhPq0Bhrhj","playlistName":"مقرأة الفجر - القُرْآنُ الكَرِيمُ - خَتْمَةُ التَّدَبُّرِ  أ.د. يسري جبر","category":"متنوع"},{"id":"s-TEi3-e4Ls","title":"سورة المائدة آية 17","publishedAt":"2016-10-31T03:42:51Z","duration":"PT11M58S","thumbnail":"https://i.ytimg.com/vi/s-TEi3-e4Ls/mqdefault.jpg","viewCount":"393","playlistId":"PLEkQk5xrP-tnmTYsyW6xNdyfhPq0Bhrhj","playlistName":"مقرأة الفجر - القُرْآنُ الكَرِيمُ - خَتْمَةُ التَّدَبُّرِ  أ.د. يسري جبر","category":"متنوع"},{"id":"7HLRwtHfvvc","title":"مقرأة سورة الزخرف من آية ١٥","publishedAt":"2018-12-13T18:42:44Z","duration":"PT30M8S","thumbnail":"https://i.ytimg.com/vi/7HLRwtHfvvc/mqdefault.jpg","viewCount":"393","playlistId":"PLEkQk5xrP-tnmTYsyW6xNdyfhPq0Bhrhj","playlistName":"مقرأة الفجر - القُرْآنُ الكَرِيمُ - خَتْمَةُ التَّدَبُّرِ  أ.د. يسري جبر","category":"متنوع"},{"id":"VTjQHFUM48U","title":"سورة النساء آية 127","publishedAt":"2016-09-27T20:46:31Z","duration":"PT22M54S","thumbnail":"https://i.ytimg.com/vi/VTjQHFUM48U/mqdefault.jpg","viewCount":"393","playlistId":"PLEkQk5xrP-tnmTYsyW6xNdyfhPq0Bhrhj","playlistName":"مقرأة الفجر - القُرْآنُ الكَرِيمُ - خَتْمَةُ التَّدَبُّرِ  أ.د. يسري جبر","category":"متنوع"},{"id":"vEKmvdwvycU","title":"سورة الأعراف آية 156","publishedAt":"2017-03-02T10:19:58Z","duration":"PT19M58S","thumbnail":"https://i.ytimg.com/vi/vEKmvdwvycU/mqdefault.jpg","viewCount":"393","playlistId":"PLEkQk5xrP-tnmTYsyW6xNdyfhPq0Bhrhj","playlistName":"مقرأة الفجر - القُرْآنُ الكَرِيمُ - خَتْمَةُ التَّدَبُّرِ  أ.د. يسري جبر","category":"متنوع"},{"id":"RMy3f8aLBTU","title":"مقرأة سورة النحل من آية ٦٢","publishedAt":"2017-08-25T14:39:54Z","duration":"PT23M31S","thumbnail":"https://i.ytimg.com/vi/RMy3f8aLBTU/mqdefault.jpg","viewCount":"393","playlistId":"PLEkQk5xrP-tnmTYsyW6xNdyfhPq0Bhrhj","playlistName":"مقرأة الفجر - القُرْآنُ الكَرِيمُ - خَتْمَةُ التَّدَبُّرِ  أ.د. يسري جبر","category":"متنوع"},{"id":"PUB_gC8J17s","title":"مقرأة سورة الأنفال من آية ٥٩","publishedAt":"2017-03-26T07:32:58Z","duration":"PT19M48S","thumbnail":"https://i.ytimg.com/vi/PUB_gC8J17s/mqdefault.jpg","viewCount":"392","playlistId":"PLEkQk5xrP-tnmTYsyW6xNdyfhPq0Bhrhj","playlistName":"مقرأة الفجر - القُرْآنُ الكَرِيمُ - خَتْمَةُ التَّدَبُّرِ  أ.د. يسري جبر","category":"متنوع"},{"id":"ob2YvEW_VFc","title":"سورة الأنفال آية 27","publishedAt":"2017-03-20T11:11:32Z","duration":"PT13M34S","thumbnail":"https://i.ytimg.com/vi/ob2YvEW_VFc/mqdefault.jpg","viewCount":"392","playlistId":"PLEkQk5xrP-tnmTYsyW6xNdyfhPq0Bhrhj","playlistName":"مقرأة الفجر - القُرْآنُ الكَرِيمُ - خَتْمَةُ التَّدَبُّرِ  أ.د. يسري جبر","category":"متنوع"},{"id":"EluNH_Wu-8o","title":"مقرأة سورة الحجرات من آية ٩","publishedAt":"2019-01-26T20:49:51Z","duration":"PT9M38S","thumbnail":"https://i.ytimg.com/vi/EluNH_Wu-8o/mqdefault.jpg","viewCount":"391","playlistId":"PLEkQk5xrP-tnmTYsyW6xNdyfhPq0Bhrhj","playlistName":"مقرأة الفجر - القُرْآنُ الكَرِيمُ - خَتْمَةُ التَّدَبُّرِ  أ.د. يسري جبر","category":"متنوع"},{"id":"5_JS6ho7JFI","title":"مقرأة سورة الزمر من آية ٤٣","publishedAt":"2018-10-25T00:08:40Z","duration":"PT26M58S","thumbnail":"https://i.ytimg.com/vi/5_JS6ho7JFI/mqdefault.jpg","viewCount":"391","playlistId":"PLEkQk5xrP-tnmTYsyW6xNdyfhPq0Bhrhj","playlistName":"مقرأة الفجر - القُرْآنُ الكَرِيمُ - خَتْمَةُ التَّدَبُّرِ  أ.د. يسري جبر","category":"متنوع"},{"id":"Ib4cDYL-XuY","title":"مقرأة سورة يس من آية ٧١","publishedAt":"2018-09-10T11:04:54Z","duration":"PT9M35S","thumbnail":"https://i.ytimg.com/vi/Ib4cDYL-XuY/mqdefault.jpg","viewCount":"391","playlistId":"PLEkQk5xrP-tnmTYsyW6xNdyfhPq0Bhrhj","playlistName":"مقرأة الفجر - القُرْآنُ الكَرِيمُ - خَتْمَةُ التَّدَبُّرِ  أ.د. يسري جبر","category":"متنوع"},{"id":"l8P92lgw2mY","title":"مقرأة سورة الإنسان من آية ٢٢","publishedAt":"2019-06-07T10:49:34Z","duration":"PT10M58S","thumbnail":"https://i.ytimg.com/vi/l8P92lgw2mY/mqdefault.jpg","viewCount":"391","playlistId":"PLEkQk5xrP-tnmTYsyW6xNdyfhPq0Bhrhj","playlistName":"مقرأة الفجر - القُرْآنُ الكَرِيمُ - خَتْمَةُ التَّدَبُّرِ  أ.د. يسري جبر","category":"متنوع"},{"id":"nAB6o_8mwCw","title":"سورة الأنعام آية 6","publishedAt":"2016-11-29T07:06:15Z","duration":"PT13M23S","thumbnail":"https://i.ytimg.com/vi/nAB6o_8mwCw/mqdefault.jpg","viewCount":"391","playlistId":"PLEkQk5xrP-tnmTYsyW6xNdyfhPq0Bhrhj","playlistName":"مقرأة الفجر - القُرْآنُ الكَرِيمُ - خَتْمَةُ التَّدَبُّرِ  أ.د. يسري جبر","category":"متنوع"}],"total":942,"page":22,"pageSize":24,"totalPages":40}