{"items":[{"id":"og3sZwIvz8I","title":"مقرأة سورة الشعراء من آية ١٧٦","publishedAt":"2018-04-20T15:03:53Z","duration":"PT18M41S","thumbnail":"https://i.ytimg.com/vi/og3sZwIvz8I/mqdefault.jpg","viewCount":"348","playlistId":"PLEkQk5xrP-tnmTYsyW6xNdyfhPq0Bhrhj","playlistName":"مقرأة الفجر - القُرْآنُ الكَرِيمُ - خَتْمَةُ التَّدَبُّرِ  أ.د. يسري جبر","category":"متنوع"},{"id":"mSaEHCPDt18","title":"مقرأة سورة النور من آية ٤٧","publishedAt":"2018-03-22T04:07:43Z","duration":"PT20M27S","thumbnail":"https://i.ytimg.com/vi/mSaEHCPDt18/mqdefault.jpg","viewCount":"348","playlistId":"PLEkQk5xrP-tnmTYsyW6xNdyfhPq0Bhrhj","playlistName":"مقرأة الفجر - القُرْآنُ الكَرِيمُ - خَتْمَةُ التَّدَبُّرِ  أ.د. يسري جبر","category":"متنوع"},{"id":"TZeYWHNQZmk","title":"سورة النساء آية 123","publishedAt":"2016-09-27T20:45:09Z","duration":"PT16M48S","thumbnail":"https://i.ytimg.com/vi/TZeYWHNQZmk/mqdefault.jpg","viewCount":"348","playlistId":"PLEkQk5xrP-tnmTYsyW6xNdyfhPq0Bhrhj","playlistName":"مقرأة الفجر - القُرْآنُ الكَرِيمُ - خَتْمَةُ التَّدَبُّرِ  أ.د. يسري جبر","category":"متنوع"},{"id":"2FK6y-hO-1c","title":"مقرأة سورة غافر من آية ٧٩","publishedAt":"2018-11-17T15:21:45Z","duration":"PT20M48S","thumbnail":"https://i.ytimg.com/vi/2FK6y-hO-1c/mqdefault.jpg","viewCount":"347","playlistId":"PLEkQk5xrP-tnmTYsyW6xNdyfhPq0Bhrhj","playlistName":"مقرأة الفجر - القُرْآنُ الكَرِيمُ - خَتْمَةُ التَّدَبُّرِ  أ.د. يسري جبر","category":"متنوع"},{"id":"dZ6HtKUOE6k","title":"مقرأة سورة التغابن من آية ١١","publishedAt":"2019-04-19T20:29:59Z","duration":"PT5M51S","thumbnail":"https://i.ytimg.com/vi/dZ6HtKUOE6k/mqdefault.jpg","viewCount":"347","playlistId":"PLEkQk5xrP-tnmTYsyW6xNdyfhPq0Bhrhj","playlistName":"مقرأة الفجر - القُرْآنُ الكَرِيمُ - خَتْمَةُ التَّدَبُّرِ  أ.د. يسري جبر","category":"متنوع"},{"id":"WJbYrPlDcHU","title":"سورة الأعراف آية 44","publishedAt":"2017-02-10T08:30:55Z","duration":"PT15M4S","thumbnail":"https://i.ytimg.com/vi/WJbYrPlDcHU/mqdefault.jpg","viewCount":"347","playlistId":"PLEkQk5xrP-tnmTYsyW6xNdyfhPq0Bhrhj","playlistName":"مقرأة الفجر - القُرْآنُ الكَرِيمُ - خَتْمَةُ التَّدَبُّرِ  أ.د. يسري جبر","category":"متنوع"},{"id":"GWdZHnGYqnU","title":"مقرأة سورة النمل من آية ٢٠","publishedAt":"2018-04-28T08:50:58Z","duration":"PT24M22S","thumbnail":"https://i.ytimg.com/vi/GWdZHnGYqnU/mqdefault.jpg","viewCount":"347","playlistId":"PLEkQk5xrP-tnmTYsyW6xNdyfhPq0Bhrhj","playlistName":"مقرأة الفجر - القُرْآنُ الكَرِيمُ - خَتْمَةُ التَّدَبُّرِ  أ.د. يسري جبر","category":"متنوع"},{"id":"C3sdRTAxiJg","title":"مقرأة سورة يونس من آية ٢٢","publishedAt":"2017-05-11T12:36:17Z","duration":"PT14M6S","thumbnail":"https://i.ytimg.com/vi/C3sdRTAxiJg/mqdefault.jpg","viewCount":"347","playlistId":"PLEkQk5xrP-tnmTYsyW6xNdyfhPq0Bhrhj","playlistName":"مقرأة الفجر - القُرْآنُ الكَرِيمُ - خَتْمَةُ التَّدَبُّرِ  أ.د. يسري جبر","category":"متنوع"},{"id":"E8D0pN_HPmg","title":"مقرأة سورة الأعراف من آية ١٨٠","publishedAt":"2017-03-09T08:07:10Z","duration":"PT21M50S","thumbnail":"https://i.ytimg.com/vi/E8D0pN_HPmg/mqdefault.jpg","viewCount":"347","playlistId":"PLEkQk5xrP-tnmTYsyW6xNdyfhPq0Bhrhj","playlistName":"مقرأة الفجر - القُرْآنُ الكَرِيمُ - خَتْمَةُ التَّدَبُّرِ  أ.د. يسري جبر","category":"متنوع"},{"id":"JB2qBpxn44w","title":"مقرأة سورة المؤمنون آية ٥٧","publishedAt":"2018-02-27T14:05:38Z","duration":"PT9M59S","thumbnail":"https://i.ytimg.com/vi/JB2qBpxn44w/mqdefault.jpg","viewCount":"346","playlistId":"PLEkQk5xrP-tnmTYsyW6xNdyfhPq0Bhrhj","playlistName":"مقرأة الفجر - القُرْآنُ الكَرِيمُ - خَتْمَةُ التَّدَبُّرِ  أ.د. يسري جبر","category":"متنوع"},{"id":"sV-OOQl1xlk","title":"سورة الأعراف آية 94","publishedAt":"2017-02-19T15:47:05Z","duration":"PT19M19S","thumbnail":"https://i.ytimg.com/vi/sV-OOQl1xlk/mqdefault.jpg","viewCount":"345","playlistId":"PLEkQk5xrP-tnmTYsyW6xNdyfhPq0Bhrhj","playlistName":"مقرأة الفجر - القُرْآنُ الكَرِيمُ - خَتْمَةُ التَّدَبُّرِ  أ.د. يسري جبر","category":"متنوع"},{"id":"vklltpx4W20","title":"مقرأة سورة الشعراء من آية ١٩٢","publishedAt":"2018-04-21T06:34:18Z","duration":"PT20M54S","thumbnail":"https://i.ytimg.com/vi/vklltpx4W20/mqdefault.jpg","viewCount":"345","playlistId":"PLEkQk5xrP-tnmTYsyW6xNdyfhPq0Bhrhj","playlistName":"مقرأة الفجر - القُرْآنُ الكَرِيمُ - خَتْمَةُ التَّدَبُّرِ  أ.د. يسري جبر","category":"متنوع"},{"id":"gg8zPRt-EX4","title":"مقرأة سورة النمل من آية ٧٠","publishedAt":"2018-05-06T13:51:26Z","duration":"PT28M58S","thumbnail":"https://i.ytimg.com/vi/gg8zPRt-EX4/mqdefault.jpg","viewCount":"344","playlistId":"PLEkQk5xrP-tnmTYsyW6xNdyfhPq0Bhrhj","playlistName":"مقرأة الفجر - القُرْآنُ الكَرِيمُ - خَتْمَةُ التَّدَبُّرِ  أ.د. يسري جبر","category":"متنوع"},{"id":"Dx1W462bAMA","title":"مقرأة سورة فصلت من آية ٤٥","publishedAt":"2018-11-27T10:03:01Z","duration":"PT31M50S","thumbnail":"https://i.ytimg.com/vi/Dx1W462bAMA/mqdefault.jpg","viewCount":"344","playlistId":"PLEkQk5xrP-tnmTYsyW6xNdyfhPq0Bhrhj","playlistName":"مقرأة الفجر - القُرْآنُ الكَرِيمُ - خَتْمَةُ التَّدَبُّرِ  أ.د. يسري جبر","category":"متنوع"},{"id":"7ZGdaKznX54","title":"مقرأة سورة النحل من آية ١٢٠","publishedAt":"2017-09-12T12:39:10Z","duration":"PT21M11S","thumbnail":"https://i.ytimg.com/vi/7ZGdaKznX54/mqdefault.jpg","viewCount":"343","playlistId":"PLEkQk5xrP-tnmTYsyW6xNdyfhPq0Bhrhj","playlistName":"مقرأة الفجر - القُرْآنُ الكَرِيمُ - خَتْمَةُ التَّدَبُّرِ  أ.د. يسري جبر","category":"متنوع"},{"id":"WYsDduOnUbQ","title":"مقرأة سورة الإسراء من آية ٦٠","publishedAt":"2017-09-30T09:41:02Z","duration":"PT8M39S","thumbnail":"https://i.ytimg.com/vi/WYsDduOnUbQ/mqdefault.jpg","viewCount":"343","playlistId":"PLEkQk5xrP-tnmTYsyW6xNdyfhPq0Bhrhj","playlistName":"مقرأة الفجر - القُرْآنُ الكَرِيمُ - خَتْمَةُ التَّدَبُّرِ  أ.د. يسري جبر","category":"متنوع"},{"id":"F7jrQT5yUZY","title":"مقرأة سورة الأحزاب من ٱية ٩","publishedAt":"2018-07-18T11:33:19Z","duration":"PT20M5S","thumbnail":"https://i.ytimg.com/vi/F7jrQT5yUZY/mqdefault.jpg","viewCount":"343","playlistId":"PLEkQk5xrP-tnmTYsyW6xNdyfhPq0Bhrhj","playlistName":"مقرأة الفجر - القُرْآنُ الكَرِيمُ - خَتْمَةُ التَّدَبُّرِ  أ.د. يسري جبر","category":"متنوع"},{"id":"_pzm_bID0w4","title":"مقرأة سورة النور من آية ٦١","publishedAt":"2018-03-25T03:17:05Z","duration":"PT28M59S","thumbnail":"https://i.ytimg.com/vi/_pzm_bID0w4/mqdefault.jpg","viewCount":"343","playlistId":"PLEkQk5xrP-tnmTYsyW6xNdyfhPq0Bhrhj","playlistName":"مقرأة الفجر - القُرْآنُ الكَرِيمُ - خَتْمَةُ التَّدَبُّرِ  أ.د. يسري جبر","category":"متنوع"},{"id":"a3QpE3GGJo0","title":"مقرأة سورة الروم من آية ٢٨","publishedAt":"2018-06-21T07:50:36Z","duration":"PT9M48S","thumbnail":"https://i.ytimg.com/vi/a3QpE3GGJo0/mqdefault.jpg","viewCount":"343","playlistId":"PLEkQk5xrP-tnmTYsyW6xNdyfhPq0Bhrhj","playlistName":"مقرأة الفجر - القُرْآنُ الكَرِيمُ - خَتْمَةُ التَّدَبُّرِ  أ.د. يسري جبر","category":"متنوع"},{"id":"ItHP6HFV-r8","title":"مقرأة سورة الأنفال من آية ٤١","publishedAt":"2017-03-23T06:34:42Z","duration":"PT26M36S","thumbnail":"https://i.ytimg.com/vi/ItHP6HFV-r8/mqdefault.jpg","viewCount":"343","playlistId":"PLEkQk5xrP-tnmTYsyW6xNdyfhPq0Bhrhj","playlistName":"مقرأة الفجر - القُرْآنُ الكَرِيمُ - خَتْمَةُ التَّدَبُّرِ  أ.د. يسري جبر","category":"متنوع"},{"id":"N7LbI1FJZRQ","title":"مقرأة سورة الزمر من آية ٣٩","publishedAt":"2018-10-23T12:44:21Z","duration":"PT26M35S","thumbnail":"https://i.ytimg.com/vi/N7LbI1FJZRQ/mqdefault.jpg","viewCount":"343","playlistId":"PLEkQk5xrP-tnmTYsyW6xNdyfhPq0Bhrhj","playlistName":"مقرأة الفجر - القُرْآنُ الكَرِيمُ - خَتْمَةُ التَّدَبُّرِ  أ.د. يسري جبر","category":"متنوع"},{"id":"ot1jJmxiXTE","title":"مقرأة سورة فصلت من آية ١٣","publishedAt":"2018-11-21T15:14:42Z","duration":"PT18M23S","thumbnail":"https://i.ytimg.com/vi/ot1jJmxiXTE/mqdefault.jpg","viewCount":"342","playlistId":"PLEkQk5xrP-tnmTYsyW6xNdyfhPq0Bhrhj","playlistName":"مقرأة الفجر - القُرْآنُ الكَرِيمُ - خَتْمَةُ التَّدَبُّرِ  أ.د. يسري جبر","category":"متنوع"},{"id":"8BUNyjLmRKY","title":"مقرأة سورة العنكبوت من آية ٢٠","publishedAt":"2018-06-07T07:56:58Z","duration":"PT14M47S","thumbnail":"https://i.ytimg.com/vi/8BUNyjLmRKY/mqdefault.jpg","viewCount":"342","playlistId":"PLEkQk5xrP-tnmTYsyW6xNdyfhPq0Bhrhj","playlistName":"مقرأة الفجر - القُرْآنُ الكَرِيمُ - خَتْمَةُ التَّدَبُّرِ  أ.د. يسري جبر","category":"متنوع"},{"id":"0rIyTQpfN-k","title":"مقرأة سورة القصص من آية ٥٨","publishedAt":"2018-05-28T23:09:04Z","duration":"PT10M31S","thumbnail":"https://i.ytimg.com/vi/0rIyTQpfN-k/mqdefault.jpg","viewCount":"342","playlistId":"PLEkQk5xrP-tnmTYsyW6xNdyfhPq0Bhrhj","playlistName":"مقرأة الفجر - القُرْآنُ الكَرِيمُ - خَتْمَةُ التَّدَبُّرِ  أ.د. يسري جبر","category":"متنوع"}],"total":942,"page":29,"pageSize":24,"totalPages":40}