{"items":[{"id":"1c0XUViBCQY","title":"مقرأة سورة الزمر من آية ٧","publishedAt":"2018-10-11T20:56:23Z","duration":"PT14M23S","thumbnail":"https://i.ytimg.com/vi/1c0XUViBCQY/mqdefault.jpg","viewCount":"407","playlistId":"PLEkQk5xrP-tnmTYsyW6xNdyfhPq0Bhrhj","playlistName":"مقرأة الفجر - القُرْآنُ الكَرِيمُ - خَتْمَةُ التَّدَبُّرِ  أ.د. يسري جبر","category":"متنوع"},{"id":"yi52_dhMSfo","title":"سورة المائدة آية 32","publishedAt":"2016-11-04T05:49:11Z","duration":"PT11M48S","thumbnail":"https://i.ytimg.com/vi/yi52_dhMSfo/mqdefault.jpg","viewCount":"406","playlistId":"PLEkQk5xrP-tnmTYsyW6xNdyfhPq0Bhrhj","playlistName":"مقرأة الفجر - القُرْآنُ الكَرِيمُ - خَتْمَةُ التَّدَبُّرِ  أ.د. يسري جبر","category":"متنوع"},{"id":"fsG4swbTtZ8","title":"سورة النساء آية 153","publishedAt":"2016-09-29T20:49:24Z","duration":"PT24M36S","thumbnail":"https://i.ytimg.com/vi/fsG4swbTtZ8/mqdefault.jpg","viewCount":"406","playlistId":"PLEkQk5xrP-tnmTYsyW6xNdyfhPq0Bhrhj","playlistName":"مقرأة الفجر - القُرْآنُ الكَرِيمُ - خَتْمَةُ التَّدَبُّرِ  أ.د. يسري جبر","category":"متنوع"},{"id":"w7AWbWDAFOs","title":"مقرأة سورة العنكبوت من آية ٣٦","publishedAt":"2018-06-09T12:38:40Z","duration":"PT12M31S","thumbnail":"https://i.ytimg.com/vi/w7AWbWDAFOs/mqdefault.jpg","viewCount":"406","playlistId":"PLEkQk5xrP-tnmTYsyW6xNdyfhPq0Bhrhj","playlistName":"مقرأة الفجر - القُرْآنُ الكَرِيمُ - خَتْمَةُ التَّدَبُّرِ  أ.د. يسري جبر","category":"متنوع"},{"id":"KbbSeinsJ1s","title":"مقرأة سورة الكهف من آية ٢٩","publishedAt":"2017-10-20T08:04:21Z","duration":"PT12M28S","thumbnail":"https://i.ytimg.com/vi/KbbSeinsJ1s/mqdefault.jpg","viewCount":"406","playlistId":"PLEkQk5xrP-tnmTYsyW6xNdyfhPq0Bhrhj","playlistName":"مقرأة الفجر - القُرْآنُ الكَرِيمُ - خَتْمَةُ التَّدَبُّرِ  أ.د. يسري جبر","category":"متنوع"},{"id":"1w45NDXJO4g","title":"مقرأة سورة الدخان من آية ١٧","publishedAt":"2018-12-23T11:55:33Z","duration":"PT17M29S","thumbnail":"https://i.ytimg.com/vi/1w45NDXJO4g/mqdefault.jpg","viewCount":"406","playlistId":"PLEkQk5xrP-tnmTYsyW6xNdyfhPq0Bhrhj","playlistName":"مقرأة الفجر - القُرْآنُ الكَرِيمُ - خَتْمَةُ التَّدَبُّرِ  أ.د. يسري جبر","category":"متنوع"},{"id":"JOeuT37F9Cs","title":"مقرأة سورة القيامة من آية ٢٠","publishedAt":"2019-06-04T10:54:39Z","duration":"PT15M56S","thumbnail":"https://i.ytimg.com/vi/JOeuT37F9Cs/mqdefault.jpg","viewCount":"405","playlistId":"PLEkQk5xrP-tnmTYsyW6xNdyfhPq0Bhrhj","playlistName":"مقرأة الفجر - القُرْآنُ الكَرِيمُ - خَتْمَةُ التَّدَبُّرِ  أ.د. يسري جبر","category":"متنوع"},{"id":"l9Oj6eKVzSo","title":"مقرأة سورة الفتح من آية ١١","publishedAt":"2019-01-19T15:29:52Z","duration":"PT18M48S","thumbnail":"https://i.ytimg.com/vi/l9Oj6eKVzSo/mqdefault.jpg","viewCount":"405","playlistId":"PLEkQk5xrP-tnmTYsyW6xNdyfhPq0Bhrhj","playlistName":"مقرأة الفجر - القُرْآنُ الكَرِيمُ - خَتْمَةُ التَّدَبُّرِ  أ.د. يسري جبر","category":"متنوع"},{"id":"TRyw7Ue1hM4","title":"سورة الأنفال آية 24","publishedAt":"2017-03-19T07:06:40Z","duration":"PT13M23S","thumbnail":"https://i.ytimg.com/vi/TRyw7Ue1hM4/mqdefault.jpg","viewCount":"404","playlistId":"PLEkQk5xrP-tnmTYsyW6xNdyfhPq0Bhrhj","playlistName":"مقرأة الفجر - القُرْآنُ الكَرِيمُ - خَتْمَةُ التَّدَبُّرِ  أ.د. يسري جبر","category":"متنوع"},{"id":"7wHbRl9F5-Q","title":"مقرأة سورة طه من آية ٦٦","publishedAt":"2017-12-03T15:20:38Z","duration":"PT29M50S","thumbnail":"https://i.ytimg.com/vi/7wHbRl9F5-Q/mqdefault.jpg","viewCount":"403","playlistId":"PLEkQk5xrP-tnmTYsyW6xNdyfhPq0Bhrhj","playlistName":"مقرأة الفجر - القُرْآنُ الكَرِيمُ - خَتْمَةُ التَّدَبُّرِ  أ.د. يسري جبر","category":"متنوع"},{"id":"yIxXFnoYOqY","title":"سورة النساء آية 95","publishedAt":"2016-09-05T06:06:34Z","duration":"PT10M22S","thumbnail":"https://i.ytimg.com/vi/yIxXFnoYOqY/mqdefault.jpg","viewCount":"403","playlistId":"PLEkQk5xrP-tnmTYsyW6xNdyfhPq0Bhrhj","playlistName":"مقرأة الفجر - القُرْآنُ الكَرِيمُ - خَتْمَةُ التَّدَبُّرِ  أ.د. يسري جبر","category":"متنوع"},{"id":"U7vnn3Y4dBo","title":"مقرأة سورة الفرقان من آية ٥٩","publishedAt":"2018-04-05T14:42:12Z","duration":"PT20M49S","thumbnail":"https://i.ytimg.com/vi/U7vnn3Y4dBo/mqdefault.jpg","viewCount":"403","playlistId":"PLEkQk5xrP-tnmTYsyW6xNdyfhPq0Bhrhj","playlistName":"مقرأة الفجر - القُرْآنُ الكَرِيمُ - خَتْمَةُ التَّدَبُّرِ  أ.د. يسري جبر","category":"متنوع"},{"id":"znw3q_YGozE","title":"قراءة وتفسير القرآن (من آية  ١٨٦ سورة آل عمران)","publishedAt":"2016-08-06T06:15:52Z","duration":"PT17M58S","thumbnail":"https://i.ytimg.com/vi/znw3q_YGozE/mqdefault.jpg","viewCount":"402","playlistId":"PLEkQk5xrP-tnmTYsyW6xNdyfhPq0Bhrhj","playlistName":"مقرأة الفجر - القُرْآنُ الكَرِيمُ - خَتْمَةُ التَّدَبُّرِ  أ.د. يسري جبر","category":"متنوع"},{"id":"bhfIYdMUdmY","title":"مقرأة سورة مريم من آية ٥٩","publishedAt":"2017-11-12T11:44:17Z","duration":"PT14M9S","thumbnail":"https://i.ytimg.com/vi/bhfIYdMUdmY/mqdefault.jpg","viewCount":"402","playlistId":"PLEkQk5xrP-tnmTYsyW6xNdyfhPq0Bhrhj","playlistName":"مقرأة الفجر - القُرْآنُ الكَرِيمُ - خَتْمَةُ التَّدَبُّرِ  أ.د. يسري جبر","category":"متنوع"},{"id":"AFjQjvX3_UY","title":"مقرأة سورة طه من آية ٤٥","publishedAt":"2017-11-30T20:50:22Z","duration":"PT20M19S","thumbnail":"https://i.ytimg.com/vi/AFjQjvX3_UY/mqdefault.jpg","viewCount":"401","playlistId":"PLEkQk5xrP-tnmTYsyW6xNdyfhPq0Bhrhj","playlistName":"مقرأة الفجر - القُرْآنُ الكَرِيمُ - خَتْمَةُ التَّدَبُّرِ  أ.د. يسري جبر","category":"متنوع"},{"id":"4qqzI_zpBZk","title":"مقرأة سورة الجمعة من أولها","publishedAt":"2019-04-10T09:26:41Z","duration":"PT16M47S","thumbnail":"https://i.ytimg.com/vi/4qqzI_zpBZk/mqdefault.jpg","viewCount":"401","playlistId":"PLEkQk5xrP-tnmTYsyW6xNdyfhPq0Bhrhj","playlistName":"مقرأة الفجر - القُرْآنُ الكَرِيمُ - خَتْمَةُ التَّدَبُّرِ  أ.د. يسري جبر","category":"متنوع"},{"id":"cYrw2CJGsy4","title":"مقرأة سورة الإسراء من آية ٨٣","publishedAt":"2017-10-08T10:44:28Z","duration":"PT15M47S","thumbnail":"https://i.ytimg.com/vi/cYrw2CJGsy4/mqdefault.jpg","viewCount":"400","playlistId":"PLEkQk5xrP-tnmTYsyW6xNdyfhPq0Bhrhj","playlistName":"مقرأة الفجر - القُرْآنُ الكَرِيمُ - خَتْمَةُ التَّدَبُّرِ  أ.د. يسري جبر","category":"متنوع"},{"id":"xwIw0D4gzmo","title":"مقرأة سورة غافر من آية ٢٣","publishedAt":"2018-11-06T18:41:17Z","duration":"PT24M47S","thumbnail":"https://i.ytimg.com/vi/xwIw0D4gzmo/mqdefault.jpg","viewCount":"400","playlistId":"PLEkQk5xrP-tnmTYsyW6xNdyfhPq0Bhrhj","playlistName":"مقرأة الفجر - القُرْآنُ الكَرِيمُ - خَتْمَةُ التَّدَبُّرِ  أ.د. يسري جبر","category":"متنوع"},{"id":"nzGojMHYwt4","title":"مقرأة سورة النساء من آية ١٠٠","publishedAt":"2019-09-30T09:03:41Z","duration":"PT10M11S","thumbnail":"https://i.ytimg.com/vi/nzGojMHYwt4/mqdefault.jpg","viewCount":"399","playlistId":"PLEkQk5xrP-tnmTYsyW6xNdyfhPq0Bhrhj","playlistName":"مقرأة الفجر - القُرْآنُ الكَرِيمُ - خَتْمَةُ التَّدَبُّرِ  أ.د. يسري جبر","category":"متنوع"},{"id":"n2SVVtjMsWs","title":"مقرأة سورة الصافات من آية ١٢٣","publishedAt":"2018-09-24T09:01:55Z","duration":"PT16M12S","thumbnail":"https://i.ytimg.com/vi/n2SVVtjMsWs/mqdefault.jpg","viewCount":"398","playlistId":"PLEkQk5xrP-tnmTYsyW6xNdyfhPq0Bhrhj","playlistName":"مقرأة الفجر - القُرْآنُ الكَرِيمُ - خَتْمَةُ التَّدَبُّرِ  أ.د. يسري جبر","category":"متنوع"},{"id":"tXLNjDM_z-I","title":"سورة الأنفال آية 36","publishedAt":"2017-03-22T08:09:02Z","duration":"PT14M43S","thumbnail":"https://i.ytimg.com/vi/tXLNjDM_z-I/mqdefault.jpg","viewCount":"398","playlistId":"PLEkQk5xrP-tnmTYsyW6xNdyfhPq0Bhrhj","playlistName":"مقرأة الفجر - القُرْآنُ الكَرِيمُ - خَتْمَةُ التَّدَبُّرِ  أ.د. يسري جبر","category":"متنوع"},{"id":"CFpNUdCxjpU","title":"مقرأة سورة الصافات من آية ١١","publishedAt":"2018-09-13T10:05:02Z","duration":"PT18M50S","thumbnail":"https://i.ytimg.com/vi/CFpNUdCxjpU/mqdefault.jpg","viewCount":"398","playlistId":"PLEkQk5xrP-tnmTYsyW6xNdyfhPq0Bhrhj","playlistName":"مقرأة الفجر - القُرْآنُ الكَرِيمُ - خَتْمَةُ التَّدَبُّرِ  أ.د. يسري جبر","category":"متنوع"},{"id":"qdttEucs4tc","title":"سورة المائدة آية 94","publishedAt":"2016-11-22T19:18:55Z","duration":"PT19M26S","thumbnail":"https://i.ytimg.com/vi/qdttEucs4tc/mqdefault.jpg","viewCount":"398","playlistId":"PLEkQk5xrP-tnmTYsyW6xNdyfhPq0Bhrhj","playlistName":"مقرأة الفجر - القُرْآنُ الكَرِيمُ - خَتْمَةُ التَّدَبُّرِ  أ.د. يسري جبر","category":"متنوع"},{"id":"sT8R7EFZFfM","title":"سورة الأعراف آية 85","publishedAt":"2017-02-18T12:39:13Z","duration":"PT26M43S","thumbnail":"https://i.ytimg.com/vi/sT8R7EFZFfM/mqdefault.jpg","viewCount":"398","playlistId":"PLEkQk5xrP-tnmTYsyW6xNdyfhPq0Bhrhj","playlistName":"مقرأة الفجر - القُرْآنُ الكَرِيمُ - خَتْمَةُ التَّدَبُّرِ  أ.د. يسري جبر","category":"متنوع"}],"total":942,"page":21,"pageSize":24,"totalPages":40}