{"items":[{"id":"JGHtMlHMrvs","title":"مقرأة سورة المطففين من آية ٢٩","publishedAt":"2019-07-07T09:46:05Z","duration":"PT13M21S","thumbnail":"https://i.ytimg.com/vi/JGHtMlHMrvs/mqdefault.jpg","viewCount":"483","playlistId":"PLEkQk5xrP-tnmTYsyW6xNdyfhPq0Bhrhj","playlistName":"مقرأة الفجر - القُرْآنُ الكَرِيمُ - خَتْمَةُ التَّدَبُّرِ  أ.د. يسري جبر","category":"متنوع"},{"id":"ug-F0R7lCDE","title":"سورة الأعراف آية 199","publishedAt":"2017-03-14T11:39:05Z","duration":"PT27M3S","thumbnail":"https://i.ytimg.com/vi/ug-F0R7lCDE/mqdefault.jpg","viewCount":"483","playlistId":"PLEkQk5xrP-tnmTYsyW6xNdyfhPq0Bhrhj","playlistName":"مقرأة الفجر - القُرْآنُ الكَرِيمُ - خَتْمَةُ التَّدَبُّرِ  أ.د. يسري جبر","category":"متنوع"},{"id":"rCnLPwfTF7Y","title":"مقرأة سورة القصص من آية ٢٢","publishedAt":"2018-05-18T18:26:19Z","duration":"PT27M12S","thumbnail":"https://i.ytimg.com/vi/rCnLPwfTF7Y/mqdefault.jpg","viewCount":"483","playlistId":"PLEkQk5xrP-tnmTYsyW6xNdyfhPq0Bhrhj","playlistName":"مقرأة الفجر - القُرْآنُ الكَرِيمُ - خَتْمَةُ التَّدَبُّرِ  أ.د. يسري جبر","category":"متنوع"},{"id":"wve-xsSjMFk","title":"مقرأة سورة المرسلات من أولها","publishedAt":"2019-06-08T09:11:48Z","duration":"PT8M8S","thumbnail":"https://i.ytimg.com/vi/wve-xsSjMFk/mqdefault.jpg","viewCount":"482","playlistId":"PLEkQk5xrP-tnmTYsyW6xNdyfhPq0Bhrhj","playlistName":"مقرأة الفجر - القُرْآنُ الكَرِيمُ - خَتْمَةُ التَّدَبُّرِ  أ.د. يسري جبر","category":"متنوع"},{"id":"HG2SMKI3mPM","title":"مقرأة سورة المزمل من آية ٢٠","publishedAt":"2019-05-26T10:02:39Z","duration":"PT8M59S","thumbnail":"https://i.ytimg.com/vi/HG2SMKI3mPM/mqdefault.jpg","viewCount":"482","playlistId":"PLEkQk5xrP-tnmTYsyW6xNdyfhPq0Bhrhj","playlistName":"مقرأة الفجر - القُرْآنُ الكَرِيمُ - خَتْمَةُ التَّدَبُّرِ  أ.د. يسري جبر","category":"متنوع"},{"id":"gfHyv3O5zlo","title":"مقرأة سورة النازعات من آية ٣٤","publishedAt":"2019-06-17T20:50:52Z","duration":"PT10M19S","thumbnail":"https://i.ytimg.com/vi/gfHyv3O5zlo/mqdefault.jpg","viewCount":"481","playlistId":"PLEkQk5xrP-tnmTYsyW6xNdyfhPq0Bhrhj","playlistName":"مقرأة الفجر - القُرْآنُ الكَرِيمُ - خَتْمَةُ التَّدَبُّرِ  أ.د. يسري جبر","category":"متنوع"},{"id":"B-YuznMUHfU","title":"قراءة وتفسير القرآن (من آية ١٦٩ سورة آل عمران)","publishedAt":"2016-08-03T05:49:44Z","duration":"PT8M47S","thumbnail":"https://i.ytimg.com/vi/B-YuznMUHfU/mqdefault.jpg","viewCount":"481","playlistId":"PLEkQk5xrP-tnmTYsyW6xNdyfhPq0Bhrhj","playlistName":"مقرأة الفجر - القُرْآنُ الكَرِيمُ - خَتْمَةُ التَّدَبُّرِ  أ.د. يسري جبر","category":"متنوع"},{"id":"ttEDtbySDo4","title":"قراءة القرآن (من آية ٩٣ سورة آل عمران)","publishedAt":"2016-07-14T13:04:40Z","duration":"PT13M36S","thumbnail":"https://i.ytimg.com/vi/ttEDtbySDo4/mqdefault.jpg","viewCount":"480","playlistId":"PLEkQk5xrP-tnmTYsyW6xNdyfhPq0Bhrhj","playlistName":"مقرأة الفجر - القُرْآنُ الكَرِيمُ - خَتْمَةُ التَّدَبُّرِ  أ.د. يسري جبر","category":"متنوع"},{"id":"ZsgSM4d6Qts","title":"سورة النساء آية 44","publishedAt":"2016-08-23T06:44:21Z","duration":"PT20M47S","thumbnail":"https://i.ytimg.com/vi/ZsgSM4d6Qts/mqdefault.jpg","viewCount":"479","playlistId":"PLEkQk5xrP-tnmTYsyW6xNdyfhPq0Bhrhj","playlistName":"مقرأة الفجر - القُرْآنُ الكَرِيمُ - خَتْمَةُ التَّدَبُّرِ  أ.د. يسري جبر","category":"متنوع"},{"id":"NzJWZItc_zs","title":"سورة التوبة آية 43","publishedAt":"2017-04-18T11:58:48Z","duration":"PT24M24S","thumbnail":"https://i.ytimg.com/vi/NzJWZItc_zs/mqdefault.jpg","viewCount":"477","playlistId":"PLEkQk5xrP-tnmTYsyW6xNdyfhPq0Bhrhj","playlistName":"مقرأة الفجر - القُرْآنُ الكَرِيمُ - خَتْمَةُ التَّدَبُّرِ  أ.د. يسري جبر","category":"متنوع"},{"id":"DhwUAGwQHyU","title":"مقرأة سورة التحريم من آية ٤","publishedAt":"2019-04-26T21:27:45Z","duration":"PT18M2S","thumbnail":"https://i.ytimg.com/vi/DhwUAGwQHyU/mqdefault.jpg","viewCount":"476","playlistId":"PLEkQk5xrP-tnmTYsyW6xNdyfhPq0Bhrhj","playlistName":"مقرأة الفجر - القُرْآنُ الكَرِيمُ - خَتْمَةُ التَّدَبُّرِ  أ.د. يسري جبر","category":"متنوع"},{"id":"oEGg4PVolYI","title":"مقرأة سورة الممتحنة من أولها","publishedAt":"2019-04-04T08:21:14Z","duration":"PT19M52S","thumbnail":"https://i.ytimg.com/vi/oEGg4PVolYI/mqdefault.jpg","viewCount":"476","playlistId":"PLEkQk5xrP-tnmTYsyW6xNdyfhPq0Bhrhj","playlistName":"مقرأة الفجر - القُرْآنُ الكَرِيمُ - خَتْمَةُ التَّدَبُّرِ  أ.د. يسري جبر","category":"متنوع"},{"id":"DZneOtrP0Ms","title":"مقرأة سورة المزمل من آية ١٢","publishedAt":"2019-05-25T09:14:33Z","duration":"PT18M34S","thumbnail":"https://i.ytimg.com/vi/DZneOtrP0Ms/mqdefault.jpg","viewCount":"475","playlistId":"PLEkQk5xrP-tnmTYsyW6xNdyfhPq0Bhrhj","playlistName":"مقرأة الفجر - القُرْآنُ الكَرِيمُ - خَتْمَةُ التَّدَبُّرِ  أ.د. يسري جبر","category":"متنوع"},{"id":"q2c2DHJNO6M","title":"سورة النساء آية 12","publishedAt":"2016-08-13T06:03:45Z","duration":"PT12M13S","thumbnail":"https://i.ytimg.com/vi/q2c2DHJNO6M/mqdefault.jpg","viewCount":"475","playlistId":"PLEkQk5xrP-tnmTYsyW6xNdyfhPq0Bhrhj","playlistName":"مقرأة الفجر - القُرْآنُ الكَرِيمُ - خَتْمَةُ التَّدَبُّرِ  أ.د. يسري جبر","category":"متنوع"},{"id":"1b4MZ8zg1CU","title":"سورة الأعراف آية 31","publishedAt":"2017-02-07T06:50:04Z","duration":"PT27M41S","thumbnail":"https://i.ytimg.com/vi/1b4MZ8zg1CU/mqdefault.jpg","viewCount":"474","playlistId":"PLEkQk5xrP-tnmTYsyW6xNdyfhPq0Bhrhj","playlistName":"مقرأة الفجر - القُرْآنُ الكَرِيمُ - خَتْمَةُ التَّدَبُّرِ  أ.د. يسري جبر","category":"متنوع"},{"id":"UK5kFp5G82k","title":"مقرأة سورة آل عمران من آية ١١٠","publishedAt":"2019-09-27T01:20:58Z","duration":"PT17M26S","thumbnail":"https://i.ytimg.com/vi/UK5kFp5G82k/mqdefault.jpg","viewCount":"472","playlistId":"PLEkQk5xrP-tnmTYsyW6xNdyfhPq0Bhrhj","playlistName":"مقرأة الفجر - القُرْآنُ الكَرِيمُ - خَتْمَةُ التَّدَبُّرِ  أ.د. يسري جبر","category":"متنوع"},{"id":"RZVZ5uwvrpg","title":"سورة الأنفال آية 5","publishedAt":"2017-03-17T03:36:28Z","duration":"PT25M1S","thumbnail":"https://i.ytimg.com/vi/RZVZ5uwvrpg/mqdefault.jpg","viewCount":"471","playlistId":"PLEkQk5xrP-tnmTYsyW6xNdyfhPq0Bhrhj","playlistName":"مقرأة الفجر - القُرْآنُ الكَرِيمُ - خَتْمَةُ التَّدَبُّرِ  أ.د. يسري جبر","category":"متنوع"},{"id":"m0mAsyAHlLM","title":"مقرأة سورة مريم من آية ٩","publishedAt":"2017-11-03T16:07:02Z","duration":"PT13M46S","thumbnail":"https://i.ytimg.com/vi/m0mAsyAHlLM/mqdefault.jpg","viewCount":"471","playlistId":"PLEkQk5xrP-tnmTYsyW6xNdyfhPq0Bhrhj","playlistName":"مقرأة الفجر - القُرْآنُ الكَرِيمُ - خَتْمَةُ التَّدَبُّرِ  أ.د. يسري جبر","category":"متنوع"},{"id":"SMy1iSZIbDA","title":"سورة الأنعام آية 65","publishedAt":"2016-12-12T18:23:29Z","duration":"PT32M10S","thumbnail":"https://i.ytimg.com/vi/SMy1iSZIbDA/mqdefault.jpg","viewCount":"469","playlistId":"PLEkQk5xrP-tnmTYsyW6xNdyfhPq0Bhrhj","playlistName":"مقرأة الفجر - القُرْآنُ الكَرِيمُ - خَتْمَةُ التَّدَبُّرِ  أ.د. يسري جبر","category":"متنوع"},{"id":"z3ICzL8cDyk","title":"مقرأة سورة الرعد من آية ٢٥","publishedAt":"2017-07-22T11:02:50Z","duration":"PT22M52S","thumbnail":"https://i.ytimg.com/vi/z3ICzL8cDyk/mqdefault.jpg","viewCount":"469","playlistId":"PLEkQk5xrP-tnmTYsyW6xNdyfhPq0Bhrhj","playlistName":"مقرأة الفجر - القُرْآنُ الكَرِيمُ - خَتْمَةُ التَّدَبُّرِ  أ.د. يسري جبر","category":"متنوع"},{"id":"h7Cj6VwuOd0","title":"سورة التوبة آية 16","publishedAt":"2017-03-31T04:42:00Z","duration":"PT18M2S","thumbnail":"https://i.ytimg.com/vi/h7Cj6VwuOd0/mqdefault.jpg","viewCount":"469","playlistId":"PLEkQk5xrP-tnmTYsyW6xNdyfhPq0Bhrhj","playlistName":"مقرأة الفجر - القُرْآنُ الكَرِيمُ - خَتْمَةُ التَّدَبُّرِ  أ.د. يسري جبر","category":"متنوع"},{"id":"dKTq64PdPnQ","title":"سورة النساء آية 65","publishedAt":"2016-08-28T20:24:58Z","duration":"PT10M49S","thumbnail":"https://i.ytimg.com/vi/dKTq64PdPnQ/mqdefault.jpg","viewCount":"469","playlistId":"PLEkQk5xrP-tnmTYsyW6xNdyfhPq0Bhrhj","playlistName":"مقرأة الفجر - القُرْآنُ الكَرِيمُ - خَتْمَةُ التَّدَبُّرِ  أ.د. يسري جبر","category":"متنوع"},{"id":"Uk4GSRkE-Q8","title":"مقرأة سورة المجادلة من آية ٥","publishedAt":"2019-03-26T11:01:09Z","duration":"PT14M47S","thumbnail":"https://i.ytimg.com/vi/Uk4GSRkE-Q8/mqdefault.jpg","viewCount":"469","playlistId":"PLEkQk5xrP-tnmTYsyW6xNdyfhPq0Bhrhj","playlistName":"مقرأة الفجر - القُرْآنُ الكَرِيمُ - خَتْمَةُ التَّدَبُّرِ  أ.د. يسري جبر","category":"متنوع"},{"id":"CkSrOYu1eQA","title":"مقرأة سورة الحجرات من آية ١١","publishedAt":"2019-01-27T22:15:58Z","duration":"PT25M21S","thumbnail":"https://i.ytimg.com/vi/CkSrOYu1eQA/mqdefault.jpg","viewCount":"469","playlistId":"PLEkQk5xrP-tnmTYsyW6xNdyfhPq0Bhrhj","playlistName":"مقرأة الفجر - القُرْآنُ الكَرِيمُ - خَتْمَةُ التَّدَبُّرِ  أ.د. يسري جبر","category":"متنوع"}],"total":942,"page":14,"pageSize":24,"totalPages":40}