{"items":[{"id":"FDbrbhmt00Q","title":"قراءة القرآن (من آية ١٠١ سورة آل عمران)","publishedAt":"2016-07-18T07:37:30Z","duration":"PT15M5S","thumbnail":"https://i.ytimg.com/vi/FDbrbhmt00Q/mqdefault.jpg","viewCount":"455","playlistId":"PLEkQk5xrP-tnmTYsyW6xNdyfhPq0Bhrhj","playlistName":"مقرأة الفجر - القُرْآنُ الكَرِيمُ - خَتْمَةُ التَّدَبُّرِ  أ.د. يسري جبر","category":"متنوع"},{"id":"TIICbexo2Z4","title":"مقرأة سورة النور من آية ١١","publishedAt":"2018-03-11T11:36:42Z","duration":"PT21M17S","thumbnail":"https://i.ytimg.com/vi/TIICbexo2Z4/mqdefault.jpg","viewCount":"455","playlistId":"PLEkQk5xrP-tnmTYsyW6xNdyfhPq0Bhrhj","playlistName":"مقرأة الفجر - القُرْآنُ الكَرِيمُ - خَتْمَةُ التَّدَبُّرِ  أ.د. يسري جبر","category":"متنوع"},{"id":"Vx302Q2wZQI","title":"مقرأة سورة الفتح من آية ٨","publishedAt":"2019-01-18T14:58:27Z","duration":"PT15M25S","thumbnail":"https://i.ytimg.com/vi/Vx302Q2wZQI/mqdefault.jpg","viewCount":"454","playlistId":"PLEkQk5xrP-tnmTYsyW6xNdyfhPq0Bhrhj","playlistName":"مقرأة الفجر - القُرْآنُ الكَرِيمُ - خَتْمَةُ التَّدَبُّرِ  أ.د. يسري جبر","category":"متنوع"},{"id":"dIGDR7lv1qk","title":"مقرأة سورة الانشقاق من آية ١٦","publishedAt":"2019-07-09T10:56:15Z","duration":"PT12M57S","thumbnail":"https://i.ytimg.com/vi/dIGDR7lv1qk/mqdefault.jpg","viewCount":"454","playlistId":"PLEkQk5xrP-tnmTYsyW6xNdyfhPq0Bhrhj","playlistName":"مقرأة الفجر - القُرْآنُ الكَرِيمُ - خَتْمَةُ التَّدَبُّرِ  أ.د. يسري جبر","category":"متنوع"},{"id":"3JLbublbSKo","title":"سورة النساء آية 48","publishedAt":"2016-08-24T12:02:29Z","duration":"PT15M44S","thumbnail":"https://i.ytimg.com/vi/3JLbublbSKo/mqdefault.jpg","viewCount":"454","playlistId":"PLEkQk5xrP-tnmTYsyW6xNdyfhPq0Bhrhj","playlistName":"مقرأة الفجر - القُرْآنُ الكَرِيمُ - خَتْمَةُ التَّدَبُّرِ  أ.د. يسري جبر","category":"متنوع"},{"id":"EFuqeMXttKw","title":"سورة المائدة آية 106","publishedAt":"2016-11-24T06:26:33Z","duration":"PT13M12S","thumbnail":"https://i.ytimg.com/vi/EFuqeMXttKw/mqdefault.jpg","viewCount":"453","playlistId":"PLEkQk5xrP-tnmTYsyW6xNdyfhPq0Bhrhj","playlistName":"مقرأة الفجر - القُرْآنُ الكَرِيمُ - خَتْمَةُ التَّدَبُّرِ  أ.د. يسري جبر","category":"متنوع"},{"id":"7h1_RYPFVgg","title":"سورة النساء آية 88","publishedAt":"2016-09-02T07:37:20Z","duration":"PT10M54S","thumbnail":"https://i.ytimg.com/vi/7h1_RYPFVgg/mqdefault.jpg","viewCount":"453","playlistId":"PLEkQk5xrP-tnmTYsyW6xNdyfhPq0Bhrhj","playlistName":"مقرأة الفجر - القُرْآنُ الكَرِيمُ - خَتْمَةُ التَّدَبُّرِ  أ.د. يسري جبر","category":"متنوع"},{"id":"cgePepOBbus","title":"مقرأة سورة النمل من آية ٦٦","publishedAt":"2018-05-05T17:02:09Z","duration":"PT15M46S","thumbnail":"https://i.ytimg.com/vi/cgePepOBbus/mqdefault.jpg","viewCount":"452","playlistId":"PLEkQk5xrP-tnmTYsyW6xNdyfhPq0Bhrhj","playlistName":"مقرأة الفجر - القُرْآنُ الكَرِيمُ - خَتْمَةُ التَّدَبُّرِ  أ.د. يسري جبر","category":"متنوع"},{"id":"134iWWWnPFg","title":"سورة التوبة آية 49","publishedAt":"2017-04-19T13:52:42Z","duration":"PT15M20S","thumbnail":"https://i.ytimg.com/vi/134iWWWnPFg/mqdefault.jpg","viewCount":"450","playlistId":"PLEkQk5xrP-tnmTYsyW6xNdyfhPq0Bhrhj","playlistName":"مقرأة الفجر - القُرْآنُ الكَرِيمُ - خَتْمَةُ التَّدَبُّرِ  أ.د. يسري جبر","category":"متنوع"},{"id":"XQ3Ff5aliJ4","title":"سورة الأنعام آية 136","publishedAt":"2017-01-06T15:28:13Z","duration":"PT23M38S","thumbnail":"https://i.ytimg.com/vi/XQ3Ff5aliJ4/mqdefault.jpg","viewCount":"449","playlistId":"PLEkQk5xrP-tnmTYsyW6xNdyfhPq0Bhrhj","playlistName":"مقرأة الفجر - القُرْآنُ الكَرِيمُ - خَتْمَةُ التَّدَبُّرِ  أ.د. يسري جبر","category":"متنوع"},{"id":"8evYo7s2lYk","title":"مقرأة سورة الأنعام من آية 106","publishedAt":"2016-12-28T11:44:40Z","duration":"PT26M39S","thumbnail":"https://i.ytimg.com/vi/8evYo7s2lYk/mqdefault.jpg","viewCount":"449","playlistId":"PLEkQk5xrP-tnmTYsyW6xNdyfhPq0Bhrhj","playlistName":"مقرأة الفجر - القُرْآنُ الكَرِيمُ - خَتْمَةُ التَّدَبُّرِ  أ.د. يسري جبر","category":"متنوع"},{"id":"sXOhFfkDSY4","title":"سورة الأنعام آية 75","publishedAt":"2016-12-21T07:59:11Z","duration":"PT17M9S","thumbnail":"https://i.ytimg.com/vi/sXOhFfkDSY4/mqdefault.jpg","viewCount":"449","playlistId":"PLEkQk5xrP-tnmTYsyW6xNdyfhPq0Bhrhj","playlistName":"مقرأة الفجر - القُرْآنُ الكَرِيمُ - خَتْمَةُ التَّدَبُّرِ  أ.د. يسري جبر","category":"متنوع"},{"id":"rDEjAIgyJkw","title":"مقرأة سورة النحل من آية ١٤","publishedAt":"2017-08-16T09:10:43Z","duration":"PT18M26S","thumbnail":"https://i.ytimg.com/vi/rDEjAIgyJkw/mqdefault.jpg","viewCount":"449","playlistId":"PLEkQk5xrP-tnmTYsyW6xNdyfhPq0Bhrhj","playlistName":"مقرأة الفجر - القُرْآنُ الكَرِيمُ - خَتْمَةُ التَّدَبُّرِ  أ.د. يسري جبر","category":"متنوع"},{"id":"Rafv9Q3Evsc","title":"مقرأة سورة الزمر من آية ٥٣","publishedAt":"2019-10-01T10:51:51Z","duration":"PT27M39S","thumbnail":"https://i.ytimg.com/vi/Rafv9Q3Evsc/mqdefault.jpg","viewCount":"448","playlistId":"PLEkQk5xrP-tnmTYsyW6xNdyfhPq0Bhrhj","playlistName":"مقرأة الفجر - القُرْآنُ الكَرِيمُ - خَتْمَةُ التَّدَبُّرِ  أ.د. يسري جبر","category":"متنوع"},{"id":"V2Wvt7iaVS8","title":"مقرأة سورة الكهف من آية ٢٧","publishedAt":"2017-10-19T11:29:13Z","duration":"PT24M36S","thumbnail":"https://i.ytimg.com/vi/V2Wvt7iaVS8/mqdefault.jpg","viewCount":"448","playlistId":"PLEkQk5xrP-tnmTYsyW6xNdyfhPq0Bhrhj","playlistName":"مقرأة الفجر - القُرْآنُ الكَرِيمُ - خَتْمَةُ التَّدَبُّرِ  أ.د. يسري جبر","category":"متنوع"},{"id":"_taODXwsWtM","title":"سورة الأعراف آية 132","publishedAt":"2017-02-25T15:00:16Z","duration":"PT23M31S","thumbnail":"https://i.ytimg.com/vi/_taODXwsWtM/mqdefault.jpg","viewCount":"448","playlistId":"PLEkQk5xrP-tnmTYsyW6xNdyfhPq0Bhrhj","playlistName":"مقرأة الفجر - القُرْآنُ الكَرِيمُ - خَتْمَةُ التَّدَبُّرِ  أ.د. يسري جبر","category":"متنوع"},{"id":"RDBE2Z47i3U","title":"سورة المائدة ايه 5","publishedAt":"2016-10-06T03:28:25Z","duration":"PT8M23S","thumbnail":"https://i.ytimg.com/vi/RDBE2Z47i3U/mqdefault.jpg","viewCount":"447","playlistId":"PLEkQk5xrP-tnmTYsyW6xNdyfhPq0Bhrhj","playlistName":"مقرأة الفجر - القُرْآنُ الكَرِيمُ - خَتْمَةُ التَّدَبُّرِ  أ.د. يسري جبر","category":"متنوع"},{"id":"bR1uQyRudgU","title":"سورة النساء آية 116","publishedAt":"2016-09-25T05:04:03Z","duration":"PT28M21S","thumbnail":"https://i.ytimg.com/vi/bR1uQyRudgU/mqdefault.jpg","viewCount":"446","playlistId":"PLEkQk5xrP-tnmTYsyW6xNdyfhPq0Bhrhj","playlistName":"مقرأة الفجر - القُرْآنُ الكَرِيمُ - خَتْمَةُ التَّدَبُّرِ  أ.د. يسري جبر","category":"متنوع"},{"id":"itTF2Hd3u18","title":"سورة المائدة آية 72","publishedAt":"2016-11-20T06:19:46Z","duration":"PT19M27S","thumbnail":"https://i.ytimg.com/vi/itTF2Hd3u18/mqdefault.jpg","viewCount":"446","playlistId":"PLEkQk5xrP-tnmTYsyW6xNdyfhPq0Bhrhj","playlistName":"مقرأة الفجر - القُرْآنُ الكَرِيمُ - خَتْمَةُ التَّدَبُّرِ  أ.د. يسري جبر","category":"متنوع"},{"id":"YABc_AZLhMs","title":"مقرأة سورة الطور من آية ٤٤","publishedAt":"2019-02-12T10:18:56Z","duration":"PT8M20S","thumbnail":"https://i.ytimg.com/vi/YABc_AZLhMs/mqdefault.jpg","viewCount":"444","playlistId":"PLEkQk5xrP-tnmTYsyW6xNdyfhPq0Bhrhj","playlistName":"مقرأة الفجر - القُرْآنُ الكَرِيمُ - خَتْمَةُ التَّدَبُّرِ  أ.د. يسري جبر","category":"متنوع"},{"id":"TSk_gANCWPM","title":"سورة الأنعام آية 116","publishedAt":"2016-12-30T13:24:11Z","duration":"PT22M56S","thumbnail":"https://i.ytimg.com/vi/TSk_gANCWPM/mqdefault.jpg","viewCount":"444","playlistId":"PLEkQk5xrP-tnmTYsyW6xNdyfhPq0Bhrhj","playlistName":"مقرأة الفجر - القُرْآنُ الكَرِيمُ - خَتْمَةُ التَّدَبُّرِ  أ.د. يسري جبر","category":"متنوع"},{"id":"t9r8EeZB7ZM","title":"مقرأة سورة الإسراء من آية ٦١","publishedAt":"2017-10-01T09:48:35Z","duration":"PT32M27S","thumbnail":"https://i.ytimg.com/vi/t9r8EeZB7ZM/mqdefault.jpg","viewCount":"444","playlistId":"PLEkQk5xrP-tnmTYsyW6xNdyfhPq0Bhrhj","playlistName":"مقرأة الفجر - القُرْآنُ الكَرِيمُ - خَتْمَةُ التَّدَبُّرِ  أ.د. يسري جبر","category":"متنوع"},{"id":"bKsropBz78k","title":"سورة الأعراف آية 167","publishedAt":"2017-03-06T07:13:43Z","duration":"PT27M58S","thumbnail":"https://i.ytimg.com/vi/bKsropBz78k/mqdefault.jpg","viewCount":"444","playlistId":"PLEkQk5xrP-tnmTYsyW6xNdyfhPq0Bhrhj","playlistName":"مقرأة الفجر - القُرْآنُ الكَرِيمُ - خَتْمَةُ التَّدَبُّرِ  أ.د. يسري جبر","category":"متنوع"},{"id":"RTEw4JleYgs","title":"مقرأة سورة الرحمن من آية ٦٢","publishedAt":"2019-03-09T16:55:55Z","duration":"PT12M37S","thumbnail":"https://i.ytimg.com/vi/RTEw4JleYgs/mqdefault.jpg","viewCount":"444","playlistId":"PLEkQk5xrP-tnmTYsyW6xNdyfhPq0Bhrhj","playlistName":"مقرأة الفجر - القُرْآنُ الكَرِيمُ - خَتْمَةُ التَّدَبُّرِ  أ.د. يسري جبر","category":"متنوع"}],"total":942,"page":16,"pageSize":24,"totalPages":40}