{"items":[{"id":"t9r8EeZB7ZM","title":"مقرأة سورة الإسراء من آية ٦١","publishedAt":"2017-10-01T09:48:35Z","duration":"PT32M27S","thumbnail":"https://i.ytimg.com/vi/t9r8EeZB7ZM/mqdefault.jpg","viewCount":"444","playlistId":"PLEkQk5xrP-tnmTYsyW6xNdyfhPq0Bhrhj","playlistName":"مقرأة الفجر - القُرْآنُ الكَرِيمُ - خَتْمَةُ التَّدَبُّرِ  أ.د. يسري جبر","category":"متنوع"},{"id":"mnv8Q7GYx-E","title":"سورة الأعراف آية 34","publishedAt":"2017-02-08T07:25:43Z","duration":"PT29M28S","thumbnail":"https://i.ytimg.com/vi/mnv8Q7GYx-E/mqdefault.jpg","viewCount":"443","playlistId":"PLEkQk5xrP-tnmTYsyW6xNdyfhPq0Bhrhj","playlistName":"مقرأة الفجر - القُرْآنُ الكَرِيمُ - خَتْمَةُ التَّدَبُّرِ  أ.د. يسري جبر","category":"متنوع"},{"id":"7cExjykkKng","title":"سورة الأنعام آية 59","publishedAt":"2016-12-10T04:23:13Z","duration":"PT13M27S","thumbnail":"https://i.ytimg.com/vi/7cExjykkKng/mqdefault.jpg","viewCount":"443","playlistId":"PLEkQk5xrP-tnmTYsyW6xNdyfhPq0Bhrhj","playlistName":"مقرأة الفجر - القُرْآنُ الكَرِيمُ - خَتْمَةُ التَّدَبُّرِ  أ.د. يسري جبر","category":"متنوع"},{"id":"6MqaLpqcg04","title":"سورة آل عمران آية 190","publishedAt":"2016-08-06T07:53:36Z","duration":"PT22M30S","thumbnail":"https://i.ytimg.com/vi/6MqaLpqcg04/mqdefault.jpg","viewCount":"443","playlistId":"PLEkQk5xrP-tnmTYsyW6xNdyfhPq0Bhrhj","playlistName":"مقرأة الفجر - القُرْآنُ الكَرِيمُ - خَتْمَةُ التَّدَبُّرِ  أ.د. يسري جبر","category":"متنوع"},{"id":"IXGm5eCUw9k","title":"مقرأة سورة آل عمران من آية ١٣٨","publishedAt":"2019-09-27T20:13:15Z","duration":"PT14M15S","thumbnail":"https://i.ytimg.com/vi/IXGm5eCUw9k/mqdefault.jpg","viewCount":"443","playlistId":"PLEkQk5xrP-tnmTYsyW6xNdyfhPq0Bhrhj","playlistName":"مقرأة الفجر - القُرْآنُ الكَرِيمُ - خَتْمَةُ التَّدَبُّرِ  أ.د. يسري جبر","category":"متنوع"},{"id":"P7s8oeGE_4U","title":"سورة الأنعام آية 84","publishedAt":"2016-12-23T07:07:55Z","duration":"PT9M22S","thumbnail":"https://i.ytimg.com/vi/P7s8oeGE_4U/mqdefault.jpg","viewCount":"443","playlistId":"PLEkQk5xrP-tnmTYsyW6xNdyfhPq0Bhrhj","playlistName":"مقرأة الفجر - القُرْآنُ الكَرِيمُ - خَتْمَةُ التَّدَبُّرِ  أ.د. يسري جبر","category":"متنوع"},{"id":"3QlDiomCuzs","title":"مقرأة سورة الإسراء من آية ١٣","publishedAt":"2017-09-16T12:08:02Z","duration":"PT15M50S","thumbnail":"https://i.ytimg.com/vi/3QlDiomCuzs/mqdefault.jpg","viewCount":"443","playlistId":"PLEkQk5xrP-tnmTYsyW6xNdyfhPq0Bhrhj","playlistName":"مقرأة الفجر - القُرْآنُ الكَرِيمُ - خَتْمَةُ التَّدَبُّرِ  أ.د. يسري جبر","category":"متنوع"},{"id":"_28IAUxWLvY","title":"سورة الأعراف آية 19","publishedAt":"2017-02-05T06:51:02Z","duration":"PT26M21S","thumbnail":"https://i.ytimg.com/vi/_28IAUxWLvY/mqdefault.jpg","viewCount":"442","playlistId":"PLEkQk5xrP-tnmTYsyW6xNdyfhPq0Bhrhj","playlistName":"مقرأة الفجر - القُرْآنُ الكَرِيمُ - خَتْمَةُ التَّدَبُّرِ  أ.د. يسري جبر","category":"متنوع"},{"id":"f6s4qXLLYVw","title":"سورة الأنعام آية 91","publishedAt":"2016-12-24T07:06:57Z","duration":"PT22M42S","thumbnail":"https://i.ytimg.com/vi/f6s4qXLLYVw/mqdefault.jpg","viewCount":"442","playlistId":"PLEkQk5xrP-tnmTYsyW6xNdyfhPq0Bhrhj","playlistName":"مقرأة الفجر - القُرْآنُ الكَرِيمُ - خَتْمَةُ التَّدَبُّرِ  أ.د. يسري جبر","category":"متنوع"},{"id":"HrD7G8h3xxA","title":"مقرأة سورة يوسف آية ٩٥","publishedAt":"2017-07-07T09:20:27Z","duration":"PT19M38S","thumbnail":"https://i.ytimg.com/vi/HrD7G8h3xxA/mqdefault.jpg","viewCount":"442","playlistId":"PLEkQk5xrP-tnmTYsyW6xNdyfhPq0Bhrhj","playlistName":"مقرأة الفجر - القُرْآنُ الكَرِيمُ - خَتْمَةُ التَّدَبُّرِ  أ.د. يسري جبر","category":"متنوع"},{"id":"ysD-vucKewQ","title":"سورة هود آية 36","publishedAt":"2017-06-01T22:11:46Z","duration":"PT17M20S","thumbnail":"https://i.ytimg.com/vi/ysD-vucKewQ/mqdefault.jpg","viewCount":"442","playlistId":"PLEkQk5xrP-tnmTYsyW6xNdyfhPq0Bhrhj","playlistName":"مقرأة الفجر - القُرْآنُ الكَرِيمُ - خَتْمَةُ التَّدَبُّرِ  أ.د. يسري جبر","category":"متنوع"},{"id":"qEqNXJ_iSBM","title":"مقرأة سورة الذاريات من آية ٢٤","publishedAt":"2019-02-05T11:20:42Z","duration":"PT21M47S","thumbnail":"https://i.ytimg.com/vi/qEqNXJ_iSBM/mqdefault.jpg","viewCount":"441","playlistId":"PLEkQk5xrP-tnmTYsyW6xNdyfhPq0Bhrhj","playlistName":"مقرأة الفجر - القُرْآنُ الكَرِيمُ - خَتْمَةُ التَّدَبُّرِ  أ.د. يسري جبر","category":"متنوع"},{"id":"lymw2JZ8MAU","title":"مقرأة سورة الإسراء من آية ٢٣","publishedAt":"2017-09-18T09:52:45Z","duration":"PT16M29S","thumbnail":"https://i.ytimg.com/vi/lymw2JZ8MAU/mqdefault.jpg","viewCount":"441","playlistId":"PLEkQk5xrP-tnmTYsyW6xNdyfhPq0Bhrhj","playlistName":"مقرأة الفجر - القُرْآنُ الكَرِيمُ - خَتْمَةُ التَّدَبُّرِ  أ.د. يسري جبر","category":"متنوع"},{"id":"PRgzw7Jrt30","title":"سورة التوبة آية 24","publishedAt":"2017-04-09T17:13:52Z","duration":"PT14M21S","thumbnail":"https://i.ytimg.com/vi/PRgzw7Jrt30/mqdefault.jpg","viewCount":"440","playlistId":"PLEkQk5xrP-tnmTYsyW6xNdyfhPq0Bhrhj","playlistName":"مقرأة الفجر - القُرْآنُ الكَرِيمُ - خَتْمَةُ التَّدَبُّرِ  أ.د. يسري جبر","category":"متنوع"},{"id":"GD2N2UiXGBg","title":"مقرأة سورة الصافات من أولها","publishedAt":"2018-09-12T10:44:13Z","duration":"PT11M57S","thumbnail":"https://i.ytimg.com/vi/GD2N2UiXGBg/mqdefault.jpg","viewCount":"440","playlistId":"PLEkQk5xrP-tnmTYsyW6xNdyfhPq0Bhrhj","playlistName":"مقرأة الفجر - القُرْآنُ الكَرِيمُ - خَتْمَةُ التَّدَبُّرِ  أ.د. يسري جبر","category":"متنوع"},{"id":"Yv-MF6WMvqI","title":"مقرأة سورة فصلت من آية ٩","publishedAt":"2018-11-20T07:09:50Z","duration":"PT14M3S","thumbnail":"https://i.ytimg.com/vi/Yv-MF6WMvqI/mqdefault.jpg","viewCount":"439","playlistId":"PLEkQk5xrP-tnmTYsyW6xNdyfhPq0Bhrhj","playlistName":"مقرأة الفجر - القُرْآنُ الكَرِيمُ - خَتْمَةُ التَّدَبُّرِ  أ.د. يسري جبر","category":"متنوع"},{"id":"96GJGRbvieo","title":"مقرأة سورة الكهف من آية ٥٠","publishedAt":"2017-10-26T12:41:23Z","duration":"PT13M54S","thumbnail":"https://i.ytimg.com/vi/96GJGRbvieo/mqdefault.jpg","viewCount":"439","playlistId":"PLEkQk5xrP-tnmTYsyW6xNdyfhPq0Bhrhj","playlistName":"مقرأة الفجر - القُرْآنُ الكَرِيمُ - خَتْمَةُ التَّدَبُّرِ  أ.د. يسري جبر","category":"متنوع"},{"id":"g4xNmOT9t8Y","title":"مقرأة سورة التغابن من آية ٢","publishedAt":"2019-04-16T12:14:49Z","duration":"PT18M51S","thumbnail":"https://i.ytimg.com/vi/g4xNmOT9t8Y/mqdefault.jpg","viewCount":"439","playlistId":"PLEkQk5xrP-tnmTYsyW6xNdyfhPq0Bhrhj","playlistName":"مقرأة الفجر - القُرْآنُ الكَرِيمُ - خَتْمَةُ التَّدَبُّرِ  أ.د. يسري جبر","category":"متنوع"},{"id":"WzKe6PRChQA","title":"سورة الأعراف آية 103","publishedAt":"2017-02-21T12:20:43Z","duration":"PT22M36S","thumbnail":"https://i.ytimg.com/vi/WzKe6PRChQA/mqdefault.jpg","viewCount":"439","playlistId":"PLEkQk5xrP-tnmTYsyW6xNdyfhPq0Bhrhj","playlistName":"مقرأة الفجر - القُرْآنُ الكَرِيمُ - خَتْمَةُ التَّدَبُّرِ  أ.د. يسري جبر","category":"متنوع"},{"id":"lxWTBlDY5_I","title":"مقرأة سورة القصص من أولها","publishedAt":"2018-05-09T16:38:02Z","duration":"PT19M49S","thumbnail":"https://i.ytimg.com/vi/lxWTBlDY5_I/mqdefault.jpg","viewCount":"439","playlistId":"PLEkQk5xrP-tnmTYsyW6xNdyfhPq0Bhrhj","playlistName":"مقرأة الفجر - القُرْآنُ الكَرِيمُ - خَتْمَةُ التَّدَبُّرِ  أ.د. يسري جبر","category":"متنوع"},{"id":"O-21DO2f4CM","title":"مقرأة سورة الحج من آية ١٤","publishedAt":"2018-01-19T09:27:20Z","duration":"PT20M45S","thumbnail":"https://i.ytimg.com/vi/O-21DO2f4CM/mqdefault.jpg","viewCount":"439","playlistId":"PLEkQk5xrP-tnmTYsyW6xNdyfhPq0Bhrhj","playlistName":"مقرأة الفجر - القُرْآنُ الكَرِيمُ - خَتْمَةُ التَّدَبُّرِ  أ.د. يسري جبر","category":"متنوع"},{"id":"d06OajHApJo","title":"مقرأة سورة الأعراف من آية ٥٩","publishedAt":"2017-02-14T11:31:59Z","duration":"PT22M21S","thumbnail":"https://i.ytimg.com/vi/d06OajHApJo/mqdefault.jpg","viewCount":"438","playlistId":"PLEkQk5xrP-tnmTYsyW6xNdyfhPq0Bhrhj","playlistName":"مقرأة الفجر - القُرْآنُ الكَرِيمُ - خَتْمَةُ التَّدَبُّرِ  أ.د. يسري جبر","category":"متنوع"},{"id":"en1nTo6NETE","title":"مقرأة سورة طه من آية ٣٧","publishedAt":"2017-11-30T13:53:41Z","duration":"PT26M56S","thumbnail":"https://i.ytimg.com/vi/en1nTo6NETE/mqdefault.jpg","viewCount":"438","playlistId":"PLEkQk5xrP-tnmTYsyW6xNdyfhPq0Bhrhj","playlistName":"مقرأة الفجر - القُرْآنُ الكَرِيمُ - خَتْمَةُ التَّدَبُّرِ  أ.د. يسري جبر","category":"متنوع"},{"id":"omK4MFNbi7I","title":"سورة الأعراف آية 40","publishedAt":"2017-02-09T09:25:20Z","duration":"PT22M50S","thumbnail":"https://i.ytimg.com/vi/omK4MFNbi7I/mqdefault.jpg","viewCount":"438","playlistId":"PLEkQk5xrP-tnmTYsyW6xNdyfhPq0Bhrhj","playlistName":"مقرأة الفجر - القُرْآنُ الكَرِيمُ - خَتْمَةُ التَّدَبُّرِ  أ.د. يسري جبر","category":"متنوع"}],"total":942,"page":17,"pageSize":24,"totalPages":40}