{"items":[{"id":"A9fXp2e-LM4","title":"مقرأة سورة الممتحنة من آية ٤","publishedAt":"2019-04-05T07:57:34Z","duration":"PT13M35S","thumbnail":"https://i.ytimg.com/vi/A9fXp2e-LM4/mqdefault.jpg","viewCount":"377","playlistId":"PLEkQk5xrP-tnmTYsyW6xNdyfhPq0Bhrhj","playlistName":"مقرأة الفجر - القُرْآنُ الكَرِيمُ - خَتْمَةُ التَّدَبُّرِ  أ.د. يسري جبر","category":"متنوع"},{"id":"RDRY0uDxQ_4","title":"سورة المائدة آية 48","publishedAt":"2016-11-11T11:05:40Z","duration":"PT15M18S","thumbnail":"https://i.ytimg.com/vi/RDRY0uDxQ_4/mqdefault.jpg","viewCount":"377","playlistId":"PLEkQk5xrP-tnmTYsyW6xNdyfhPq0Bhrhj","playlistName":"مقرأة الفجر - القُرْآنُ الكَرِيمُ - خَتْمَةُ التَّدَبُّرِ  أ.د. يسري جبر","category":"متنوع"},{"id":"FGmwrsRljPo","title":"مقرأة سورة الزمر من آية ٢٢","publishedAt":"2018-10-20T17:01:29Z","duration":"PT28M25S","thumbnail":"https://i.ytimg.com/vi/FGmwrsRljPo/mqdefault.jpg","viewCount":"377","playlistId":"PLEkQk5xrP-tnmTYsyW6xNdyfhPq0Bhrhj","playlistName":"مقرأة الفجر - القُرْآنُ الكَرِيمُ - خَتْمَةُ التَّدَبُّرِ  أ.د. يسري جبر","category":"متنوع"},{"id":"q-ERu8gq0Mk","title":"مقرأة سورة الأحزاب من ٱية ٥١","publishedAt":"2018-07-31T09:47:21Z","duration":"PT24M8S","thumbnail":"https://i.ytimg.com/vi/q-ERu8gq0Mk/mqdefault.jpg","viewCount":"375","playlistId":"PLEkQk5xrP-tnmTYsyW6xNdyfhPq0Bhrhj","playlistName":"مقرأة الفجر - القُرْآنُ الكَرِيمُ - خَتْمَةُ التَّدَبُّرِ  أ.د. يسري جبر","category":"متنوع"},{"id":"vbytXmL-EMw","title":"سورة الأنفال آية 45","publishedAt":"2017-03-24T07:42:46Z","duration":"PT15M6S","thumbnail":"https://i.ytimg.com/vi/vbytXmL-EMw/mqdefault.jpg","viewCount":"375","playlistId":"PLEkQk5xrP-tnmTYsyW6xNdyfhPq0Bhrhj","playlistName":"مقرأة الفجر - القُرْآنُ الكَرِيمُ - خَتْمَةُ التَّدَبُّرِ  أ.د. يسري جبر","category":"متنوع"},{"id":"NroXBc11i6c","title":"سورة الأعراف آية 187","publishedAt":"2017-03-07T17:22:25Z","duration":"PT10M29S","thumbnail":"https://i.ytimg.com/vi/NroXBc11i6c/mqdefault.jpg","viewCount":"375","playlistId":"PLEkQk5xrP-tnmTYsyW6xNdyfhPq0Bhrhj","playlistName":"مقرأة الفجر - القُرْآنُ الكَرِيمُ - خَتْمَةُ التَّدَبُّرِ  أ.د. يسري جبر","category":"متنوع"},{"id":"_aKGlsGHx98","title":"مقرأة سورة الأعراف من آية ١٤٥","publishedAt":"2017-02-28T09:46:12Z","duration":"PT18M4S","thumbnail":"https://i.ytimg.com/vi/_aKGlsGHx98/mqdefault.jpg","viewCount":"375","playlistId":"PLEkQk5xrP-tnmTYsyW6xNdyfhPq0Bhrhj","playlistName":"مقرأة الفجر - القُرْآنُ الكَرِيمُ - خَتْمَةُ التَّدَبُّرِ  أ.د. يسري جبر","category":"متنوع"},{"id":"q56jxNjC4KM","title":"مقرأة سورة مريم من آية ٥١","publishedAt":"2017-11-10T11:38:11Z","duration":"PT13M54S","thumbnail":"https://i.ytimg.com/vi/q56jxNjC4KM/mqdefault.jpg","viewCount":"374","playlistId":"PLEkQk5xrP-tnmTYsyW6xNdyfhPq0Bhrhj","playlistName":"مقرأة الفجر - القُرْآنُ الكَرِيمُ - خَتْمَةُ التَّدَبُّرِ  أ.د. يسري جبر","category":"متنوع"},{"id":"Cal-8hu-oGg","title":"مقرأة سورة الفتح من آية ١٨","publishedAt":"2019-01-21T16:15:34Z","duration":"PT14M25S","thumbnail":"https://i.ytimg.com/vi/Cal-8hu-oGg/mqdefault.jpg","viewCount":"374","playlistId":"PLEkQk5xrP-tnmTYsyW6xNdyfhPq0Bhrhj","playlistName":"مقرأة الفجر - القُرْآنُ الكَرِيمُ - خَتْمَةُ التَّدَبُّرِ  أ.د. يسري جبر","category":"متنوع"},{"id":"3_ghjEI_sIk","title":"مقرأة سورة طه من آية ١٢٨","publishedAt":"2017-12-09T12:57:32Z","duration":"PT20M30S","thumbnail":"https://i.ytimg.com/vi/3_ghjEI_sIk/mqdefault.jpg","viewCount":"374","playlistId":"PLEkQk5xrP-tnmTYsyW6xNdyfhPq0Bhrhj","playlistName":"مقرأة الفجر - القُرْآنُ الكَرِيمُ - خَتْمَةُ التَّدَبُّرِ  أ.د. يسري جبر","category":"متنوع"},{"id":"Y2SDL6twmT0","title":"مقرأة سورة الزمر من آية ٣٢","publishedAt":"2018-10-22T08:23:50Z","duration":"PT27M5S","thumbnail":"https://i.ytimg.com/vi/Y2SDL6twmT0/mqdefault.jpg","viewCount":"374","playlistId":"PLEkQk5xrP-tnmTYsyW6xNdyfhPq0Bhrhj","playlistName":"مقرأة الفجر - القُرْآنُ الكَرِيمُ - خَتْمَةُ التَّدَبُّرِ  أ.د. يسري جبر","category":"متنوع"},{"id":"dNeB4-2weG4","title":"سورة النساء آية 93","publishedAt":"2016-09-04T19:44:16Z","duration":"PT12M42S","thumbnail":"https://i.ytimg.com/vi/dNeB4-2weG4/mqdefault.jpg","viewCount":"374","playlistId":"PLEkQk5xrP-tnmTYsyW6xNdyfhPq0Bhrhj","playlistName":"مقرأة الفجر - القُرْآنُ الكَرِيمُ - خَتْمَةُ التَّدَبُّرِ  أ.د. يسري جبر","category":"متنوع"},{"id":"9BdpEBQvwj0","title":"مقرأة سورة المدثر من آية ١١","publishedAt":"2019-05-29T00:02:18Z","duration":"PT13M58S","thumbnail":"https://i.ytimg.com/vi/9BdpEBQvwj0/mqdefault.jpg","viewCount":"373","playlistId":"PLEkQk5xrP-tnmTYsyW6xNdyfhPq0Bhrhj","playlistName":"مقرأة الفجر - القُرْآنُ الكَرِيمُ - خَتْمَةُ التَّدَبُّرِ  أ.د. يسري جبر","category":"متنوع"},{"id":"XMufhvG1HsQ","title":"مقرأة سورة الأحزاب من ٱية ٥٤","publishedAt":"2018-08-01T07:38:00Z","duration":"PT15M48S","thumbnail":"https://i.ytimg.com/vi/XMufhvG1HsQ/mqdefault.jpg","viewCount":"372","playlistId":"PLEkQk5xrP-tnmTYsyW6xNdyfhPq0Bhrhj","playlistName":"مقرأة الفجر - القُرْآنُ الكَرِيمُ - خَتْمَةُ التَّدَبُّرِ  أ.د. يسري جبر","category":"متنوع"},{"id":"zOa9SzFUb0g","title":"مقرأة سورة النساء من آية ٩٢","publishedAt":"2019-09-29T20:35:00Z","duration":"PT22M12S","thumbnail":"https://i.ytimg.com/vi/zOa9SzFUb0g/mqdefault.jpg","viewCount":"372","playlistId":"PLEkQk5xrP-tnmTYsyW6xNdyfhPq0Bhrhj","playlistName":"مقرأة الفجر - القُرْآنُ الكَرِيمُ - خَتْمَةُ التَّدَبُّرِ  أ.د. يسري جبر","category":"متنوع"},{"id":"QRWym7uSMMU","title":"مقرأة سورة النجم من آية ٣١","publishedAt":"2019-02-21T20:36:21Z","duration":"PT12M17S","thumbnail":"https://i.ytimg.com/vi/QRWym7uSMMU/mqdefault.jpg","viewCount":"372","playlistId":"PLEkQk5xrP-tnmTYsyW6xNdyfhPq0Bhrhj","playlistName":"مقرأة الفجر - القُرْآنُ الكَرِيمُ - خَتْمَةُ التَّدَبُّرِ  أ.د. يسري جبر","category":"متنوع"},{"id":"QS9nvOfURuI","title":"مقرأة سورة الرعد من آية ٣٨","publishedAt":"2017-07-25T10:14:51Z","duration":"PT16M9S","thumbnail":"https://i.ytimg.com/vi/QS9nvOfURuI/mqdefault.jpg","viewCount":"372","playlistId":"PLEkQk5xrP-tnmTYsyW6xNdyfhPq0Bhrhj","playlistName":"مقرأة الفجر - القُرْآنُ الكَرِيمُ - خَتْمَةُ التَّدَبُّرِ  أ.د. يسري جبر","category":"متنوع"},{"id":"PqtarSYVpG8","title":"مقرأة سورة المؤمنون آية ٧١","publishedAt":"2018-03-01T10:43:20Z","duration":"PT11M45S","thumbnail":"https://i.ytimg.com/vi/PqtarSYVpG8/mqdefault.jpg","viewCount":"372","playlistId":"PLEkQk5xrP-tnmTYsyW6xNdyfhPq0Bhrhj","playlistName":"مقرأة الفجر - القُرْآنُ الكَرِيمُ - خَتْمَةُ التَّدَبُّرِ  أ.د. يسري جبر","category":"متنوع"},{"id":"X85gmxsHtSU","title":"مقرأة سورة السجدة من آية ١٨","publishedAt":"2018-07-14T15:01:38Z","duration":"PT14M25S","thumbnail":"https://i.ytimg.com/vi/X85gmxsHtSU/mqdefault.jpg","viewCount":"372","playlistId":"PLEkQk5xrP-tnmTYsyW6xNdyfhPq0Bhrhj","playlistName":"مقرأة الفجر - القُرْآنُ الكَرِيمُ - خَتْمَةُ التَّدَبُّرِ  أ.د. يسري جبر","category":"متنوع"},{"id":"ntzprsD4_ZI","title":"سورة النساء آية 51","publishedAt":"2019-09-29T10:37:19Z","duration":"PT20M48S","thumbnail":"https://i.ytimg.com/vi/ntzprsD4_ZI/mqdefault.jpg","viewCount":"371","playlistId":"PLEkQk5xrP-tnmTYsyW6xNdyfhPq0Bhrhj","playlistName":"مقرأة الفجر - القُرْآنُ الكَرِيمُ - خَتْمَةُ التَّدَبُّرِ  أ.د. يسري جبر","category":"متنوع"},{"id":"t_9RdBmMgzg","title":"مقرأة سورة القمر من آية ٢٣","publishedAt":"2019-02-28T11:22:54Z","duration":"PT11M28S","thumbnail":"https://i.ytimg.com/vi/t_9RdBmMgzg/mqdefault.jpg","viewCount":"371","playlistId":"PLEkQk5xrP-tnmTYsyW6xNdyfhPq0Bhrhj","playlistName":"مقرأة الفجر - القُرْآنُ الكَرِيمُ - خَتْمَةُ التَّدَبُّرِ  أ.د. يسري جبر","category":"متنوع"},{"id":"-zk5ehsss6M","title":"مقرأة سورة النمل من آية ٨٢","publishedAt":"2018-05-07T11:40:19Z","duration":"PT28M38S","thumbnail":"https://i.ytimg.com/vi/-zk5ehsss6M/mqdefault.jpg","viewCount":"371","playlistId":"PLEkQk5xrP-tnmTYsyW6xNdyfhPq0Bhrhj","playlistName":"مقرأة الفجر - القُرْآنُ الكَرِيمُ - خَتْمَةُ التَّدَبُّرِ  أ.د. يسري جبر","category":"متنوع"},{"id":"eqdd8uN5JM4","title":"مقرأة سورة إبراهيم من آية ١٨","publishedAt":"2017-07-31T10:21:12Z","duration":"PT18M9S","thumbnail":"https://i.ytimg.com/vi/eqdd8uN5JM4/mqdefault.jpg","viewCount":"371","playlistId":"PLEkQk5xrP-tnmTYsyW6xNdyfhPq0Bhrhj","playlistName":"مقرأة الفجر - القُرْآنُ الكَرِيمُ - خَتْمَةُ التَّدَبُّرِ  أ.د. يسري جبر","category":"متنوع"},{"id":"05KjuCZDwPo","title":"مقرأة سورة طه من آية ١٧","publishedAt":"2017-11-24T13:01:59Z","duration":"PT12M30S","thumbnail":"https://i.ytimg.com/vi/05KjuCZDwPo/mqdefault.jpg","viewCount":"371","playlistId":"PLEkQk5xrP-tnmTYsyW6xNdyfhPq0Bhrhj","playlistName":"مقرأة الفجر - القُرْآنُ الكَرِيمُ - خَتْمَةُ التَّدَبُّرِ  أ.د. يسري جبر","category":"متنوع"}],"total":942,"page":25,"pageSize":24,"totalPages":40}