{"items":[{"id":"zLuozWdvBOQ","title":"بِدَعُ التَفَاسِيرِ - مقدمة الكتاب المجلس الأول .  أ.د. يسري جبر","publishedAt":"2019-09-29T16:48:46Z","duration":"PT37M20S","thumbnail":"https://i.ytimg.com/vi/zLuozWdvBOQ/mqdefault.jpg","viewCount":"5611","playlistId":"PLEkQk5xrP-tkSGrPLMt1BEmJ54cGWYgtp","playlistName":"كتابُ بِدَعِ التَفَاسِيرِ - أ.د. يسري جبر","category":"متنوع"},{"id":"hKOpItHTXIM","title":"بِدَعُ التَفَاسِيرِ - مقدمة الكتاب المجلس الثاني .  أ.د. يسري جبر","publishedAt":"2019-09-30T15:08:27Z","duration":"PT17M13S","thumbnail":"https://i.ytimg.com/vi/hKOpItHTXIM/mqdefault.jpg","viewCount":"2058","playlistId":"PLEkQk5xrP-tkSGrPLMt1BEmJ54cGWYgtp","playlistName":"كتابُ بِدَعِ التَفَاسِيرِ - أ.د. يسري جبر","category":"متنوع"},{"id":"UOPezA0z0hQ","title":"بِدَعُ التَفَاسِيرِ - المجلس الخامس .  أ.د. يسري جبر","publishedAt":"2019-10-17T18:15:59Z","duration":"PT15M5S","thumbnail":"https://i.ytimg.com/vi/UOPezA0z0hQ/mqdefault.jpg","viewCount":"1214","playlistId":"PLEkQk5xrP-tkSGrPLMt1BEmJ54cGWYgtp","playlistName":"كتابُ بِدَعِ التَفَاسِيرِ - أ.د. يسري جبر","category":"متنوع"},{"id":"SLPuGb1n9RM","title":"بِدَعُ التَفَاسِيرِ - المجلس الثالث .  أ.د. يسري جبر","publishedAt":"2019-10-17T22:18:49Z","duration":"PT20M9S","thumbnail":"https://i.ytimg.com/vi/SLPuGb1n9RM/mqdefault.jpg","viewCount":"1984","playlistId":"PLEkQk5xrP-tkSGrPLMt1BEmJ54cGWYgtp","playlistName":"كتابُ بِدَعِ التَفَاسِيرِ - أ.د. يسري جبر","category":"متنوع"},{"id":"6faJYjngs2c","title":"بِدَعُ التَفَاسِيرِ -  المجلس الرابع .  أ.د. يسري جبر","publishedAt":"2019-10-17T22:25:29Z","duration":"PT15M39S","thumbnail":"https://i.ytimg.com/vi/6faJYjngs2c/mqdefault.jpg","viewCount":"1667","playlistId":"PLEkQk5xrP-tkSGrPLMt1BEmJ54cGWYgtp","playlistName":"كتابُ بِدَعِ التَفَاسِيرِ - أ.د. يسري جبر","category":"متنوع"},{"id":"9Zc39sqRM04","title":"بِدَعُ التَفَاسِيرِ - المجلس السادس .  أ.د. يسري جبر","publishedAt":"2019-10-17T22:26:18Z","duration":"PT2M57S","thumbnail":"https://i.ytimg.com/vi/9Zc39sqRM04/mqdefault.jpg","viewCount":"975","playlistId":"PLEkQk5xrP-tkSGrPLMt1BEmJ54cGWYgtp","playlistName":"كتابُ بِدَعِ التَفَاسِيرِ - أ.د. يسري جبر","category":"متنوع"},{"id":"25UjnIB717Y","title":"بِدَعُ التَفَاسِيرِ - المجلس السابع .  أ.د. يسري جبر","publishedAt":"2019-10-20T19:49:20Z","duration":"PT14M1S","thumbnail":"https://i.ytimg.com/vi/25UjnIB717Y/mqdefault.jpg","viewCount":"1197","playlistId":"PLEkQk5xrP-tkSGrPLMt1BEmJ54cGWYgtp","playlistName":"كتابُ بِدَعِ التَفَاسِيرِ - أ.د. يسري جبر","category":"متنوع"},{"id":"GcGWTde8uWE","title":"بِدَعُ التَفَاسِيرِ - المجلس الثامن .  أ.د. يسري جبر","publishedAt":"2019-10-26T15:55:08Z","duration":"PT14M24S","thumbnail":"https://i.ytimg.com/vi/GcGWTde8uWE/mqdefault.jpg","viewCount":"1162","playlistId":"PLEkQk5xrP-tkSGrPLMt1BEmJ54cGWYgtp","playlistName":"كتابُ بِدَعِ التَفَاسِيرِ - أ.د. يسري جبر","category":"متنوع"},{"id":"MOp0mR1GmeI","title":"بِدَعُ التَفَاسِيرِ - المجلس التاسع.  أ.د. يسري جبر","publishedAt":"2019-12-18T07:56:56Z","duration":"PT6M39S","thumbnail":"https://i.ytimg.com/vi/MOp0mR1GmeI/mqdefault.jpg","viewCount":"875","playlistId":"PLEkQk5xrP-tkSGrPLMt1BEmJ54cGWYgtp","playlistName":"كتابُ بِدَعِ التَفَاسِيرِ - أ.د. يسري جبر","category":"متنوع"},{"id":"PCT5T-LdJw0","title":"بِدَعُ التَفَاسِيرِ - المجلس العاشر.  أ.د. يسري جبر","publishedAt":"2020-01-25T18:08:35Z","duration":"PT13M37S","thumbnail":"https://i.ytimg.com/vi/PCT5T-LdJw0/mqdefault.jpg","viewCount":"1070","playlistId":"PLEkQk5xrP-tkSGrPLMt1BEmJ54cGWYgtp","playlistName":"كتابُ بِدَعِ التَفَاسِيرِ - أ.د. يسري جبر","category":"متنوع"},{"id":"ICKO9i8lVFs","title":"بِدَعُ التَفَاسِيرِ - المجلس الحادي عشر.  أ.د. يسري جبر","publishedAt":"2020-02-18T16:01:24Z","duration":"PT17M47S","thumbnail":"https://i.ytimg.com/vi/ICKO9i8lVFs/mqdefault.jpg","viewCount":"1090","playlistId":"PLEkQk5xrP-tkSGrPLMt1BEmJ54cGWYgtp","playlistName":"كتابُ بِدَعِ التَفَاسِيرِ - أ.د. يسري جبر","category":"متنوع"},{"id":"Qtgi8t-pGXc","title":"بِدَعُ التَفَاسِيرِ - المجلس الثاني عشر.  أ.د. يسري جبر","publishedAt":"2020-03-28T17:09:50Z","duration":"PT23M23S","thumbnail":"https://i.ytimg.com/vi/Qtgi8t-pGXc/mqdefault.jpg","viewCount":"1390","playlistId":"PLEkQk5xrP-tkSGrPLMt1BEmJ54cGWYgtp","playlistName":"كتابُ بِدَعِ التَفَاسِيرِ - أ.د. يسري جبر","category":"متنوع"},{"id":"vo7IQoiqwJI","title":"بِدَعُ التَفَاسِيرِ - المجلس الثالث عشر. أ.د. يسري جبر","publishedAt":"2020-04-25T08:42:50Z","duration":"PT17M10S","thumbnail":"https://i.ytimg.com/vi/vo7IQoiqwJI/mqdefault.jpg","viewCount":"798","playlistId":"PLEkQk5xrP-tkSGrPLMt1BEmJ54cGWYgtp","playlistName":"كتابُ بِدَعِ التَفَاسِيرِ - أ.د. يسري جبر","category":"متنوع"},{"id":"d69visWWRRM","title":"بِدَعُ التَفَاسِيرِ - المجلس الرابع عشر. أ.د. يسري جبر","publishedAt":"2020-09-09T19:13:13Z","duration":"PT14M57S","thumbnail":"https://i.ytimg.com/vi/d69visWWRRM/mqdefault.jpg","viewCount":"2023","playlistId":"PLEkQk5xrP-tkSGrPLMt1BEmJ54cGWYgtp","playlistName":"كتابُ بِدَعِ التَفَاسِيرِ - أ.د. يسري جبر","category":"متنوع"},{"id":"hYBLRGar-lc","title":"بِدَعُ التَفَاسِيرِ - المجلس الخامس عشر. أ.د. يسري جبر","publishedAt":"2020-09-17T19:17:33Z","duration":"PT10M8S","thumbnail":"https://i.ytimg.com/vi/hYBLRGar-lc/mqdefault.jpg","viewCount":"1010","playlistId":"PLEkQk5xrP-tkSGrPLMt1BEmJ54cGWYgtp","playlistName":"كتابُ بِدَعِ التَفَاسِيرِ - أ.د. يسري جبر","category":"متنوع"},{"id":"_Fv78idEwP8","title":"بِدَعُ التَفَاسِيرِ - المجلس السادس عشر. أ.د. يسري جبر","publishedAt":"2020-10-07T19:58:39Z","duration":"PT21M14S","thumbnail":"https://i.ytimg.com/vi/_Fv78idEwP8/mqdefault.jpg","viewCount":"1427","playlistId":"PLEkQk5xrP-tkSGrPLMt1BEmJ54cGWYgtp","playlistName":"كتابُ بِدَعِ التَفَاسِيرِ - أ.د. يسري جبر","category":"متنوع"},{"id":"t-imnyib9gw","title":"بِدَعُ التَفَاسِيرِ - المجلس السابع عشر. أ.د. يسري جبر","publishedAt":"2020-10-15T19:00:15Z","duration":"PT13M47S","thumbnail":"https://i.ytimg.com/vi/t-imnyib9gw/mqdefault.jpg","viewCount":"1352","playlistId":"PLEkQk5xrP-tkSGrPLMt1BEmJ54cGWYgtp","playlistName":"كتابُ بِدَعِ التَفَاسِيرِ - أ.د. يسري جبر","category":"متنوع"},{"id":"eREj4x3Dtmg","title":"بِدَعُ التَفَاسِيرِ - المجلس الثامن عشر. أ.د. يسري جبر","publishedAt":"2020-11-05T17:54:53Z","duration":"PT12M13S","thumbnail":"https://i.ytimg.com/vi/eREj4x3Dtmg/mqdefault.jpg","viewCount":"1155","playlistId":"PLEkQk5xrP-tkSGrPLMt1BEmJ54cGWYgtp","playlistName":"كتابُ بِدَعِ التَفَاسِيرِ - أ.د. يسري جبر","category":"متنوع"},{"id":"NUJyrBpVa9w","title":"تفسير قوله تعالى \"عَفَا اللَّهُ عَنكَ لِمَ أَذِنتَ لَهُمْ\" | أ.د. يسري جبر","publishedAt":"2021-04-03T15:03:11Z","duration":"PT11M29S","thumbnail":"https://i.ytimg.com/vi/NUJyrBpVa9w/mqdefault.jpg","viewCount":"3477","playlistId":"PLEkQk5xrP-tkSGrPLMt1BEmJ54cGWYgtp","playlistName":"كتابُ بِدَعِ التَفَاسِيرِ - أ.د. يسري جبر","category":"متنوع"},{"id":"DRj3YPNaFHE","title":"تفسير قوله تعالى \"أَمَّن يُجِيبُ الْمُضْطَرَّ إِذَا دَعَاه\"","publishedAt":"2021-04-28T19:15:01Z","duration":"PT25M25S","thumbnail":"https://i.ytimg.com/vi/DRj3YPNaFHE/mqdefault.jpg","viewCount":"4337","playlistId":"PLEkQk5xrP-tkSGrPLMt1BEmJ54cGWYgtp","playlistName":"كتابُ بِدَعِ التَفَاسِيرِ - أ.د. يسري جبر","category":"متنوع"},{"id":"4uF3Y6CODEk","title":"قصة سيدنا يوسف وتفسير قوله تعالى \"وَلَقَدْ هَمَّتْ بِهِ وَهَمَّ بِهَا”","publishedAt":"2021-05-31T17:00:15Z","duration":"PT17M8S","thumbnail":"https://i.ytimg.com/vi/4uF3Y6CODEk/mqdefault.jpg","viewCount":"5232","playlistId":"PLEkQk5xrP-tkSGrPLMt1BEmJ54cGWYgtp","playlistName":"كتابُ بِدَعِ التَفَاسِيرِ - أ.د. يسري جبر","category":"متنوع"},{"id":"w3Riyk0csXk","title":"”تفسير قوله تعالى \"يُسَبِّحُ الرَّعْدُ بِحَمْدِهِ وَالْمَلَائِكَةُ مِنْ خِيفَتِهِ","publishedAt":"2021-06-16T17:30:08Z","duration":"PT14M29S","thumbnail":"https://i.ytimg.com/vi/w3Riyk0csXk/mqdefault.jpg","viewCount":"3822","playlistId":"PLEkQk5xrP-tkSGrPLMt1BEmJ54cGWYgtp","playlistName":"كتابُ بِدَعِ التَفَاسِيرِ - أ.د. يسري جبر","category":"متنوع"},{"id":"xQFrhFm0eTk","title":"”تفسير قوله تعالى \"حَتَّىٰ إِذَا جَاءَ أَمْرُنَا وَفَارَ التَّنُّورُ","publishedAt":"2021-06-19T18:00:12Z","duration":"PT14M1S","thumbnail":"https://i.ytimg.com/vi/xQFrhFm0eTk/mqdefault.jpg","viewCount":"2349","playlistId":"PLEkQk5xrP-tkSGrPLMt1BEmJ54cGWYgtp","playlistName":"كتابُ بِدَعِ التَفَاسِيرِ - أ.د. يسري جبر","category":"متنوع"},{"id":"56MVO-z0Y6A","title":"”تفسير قوله تعالى \"وَاذْكُرْ رَبَّكَ إِذَا نَسِيتَ","publishedAt":"2021-07-21T17:15:00Z","duration":"PT38M39S","thumbnail":"https://i.ytimg.com/vi/56MVO-z0Y6A/mqdefault.jpg","viewCount":"6363","playlistId":"PLEkQk5xrP-tkSGrPLMt1BEmJ54cGWYgtp","playlistName":"كتابُ بِدَعِ التَفَاسِيرِ - أ.د. يسري جبر","category":"متنوع"}],"total":45,"page":1,"pageSize":24,"totalPages":2}