{"items":[{"id":"CCccxQac2Yw","title":"مقرأة سورة الفرقان من آية ١٧","publishedAt":"2018-03-29T09:29:54Z","duration":"PT14M52S","thumbnail":"https://i.ytimg.com/vi/CCccxQac2Yw/mqdefault.jpg","viewCount":"217","playlistId":"PLEkQk5xrP-tnmTYsyW6xNdyfhPq0Bhrhj","playlistName":"مقرأة الفجر - القُرْآنُ الكَرِيمُ - خَتْمَةُ التَّدَبُّرِ  أ.د. يسري جبر","category":"متنوع"},{"id":"wQsw_Nhp8hY","title":"مقرأة سورة الشعراء من آية ٣٢","publishedAt":"2018-04-09T11:26:37Z","duration":"PT21M9S","thumbnail":"https://i.ytimg.com/vi/wQsw_Nhp8hY/mqdefault.jpg","viewCount":"212","playlistId":"PLEkQk5xrP-tnmTYsyW6xNdyfhPq0Bhrhj","playlistName":"مقرأة الفجر - القُرْآنُ الكَرِيمُ - خَتْمَةُ التَّدَبُّرِ  أ.د. يسري جبر","category":"متنوع"},{"id":"Rr78Yel83iU","title":"مقرأة سورة سبأ من آية ٤٠","publishedAt":"2018-08-15T07:33:01Z","duration":"PT5M6S","thumbnail":"https://i.ytimg.com/vi/Rr78Yel83iU/mqdefault.jpg","viewCount":"210","playlistId":"PLEkQk5xrP-tnmTYsyW6xNdyfhPq0Bhrhj","playlistName":"مقرأة الفجر - القُرْآنُ الكَرِيمُ - خَتْمَةُ التَّدَبُّرِ  أ.د. يسري جبر","category":"متنوع"},{"id":"DDrTn83FSUI","title":"مقرأة سورة الشعراء من آية ١٤١","publishedAt":"2018-04-18T15:37:56Z","duration":"PT25M19S","thumbnail":"https://i.ytimg.com/vi/DDrTn83FSUI/mqdefault.jpg","viewCount":"206","playlistId":"PLEkQk5xrP-tnmTYsyW6xNdyfhPq0Bhrhj","playlistName":"مقرأة الفجر - القُرْآنُ الكَرِيمُ - خَتْمَةُ التَّدَبُّرِ  أ.د. يسري جبر","category":"متنوع"},{"id":"AZfKXAaK6u0","title":"مقرأة سورة الشعراء من آية ١٦٠","publishedAt":"2018-04-19T09:26:18Z","duration":"PT24M49S","thumbnail":"https://i.ytimg.com/vi/AZfKXAaK6u0/mqdefault.jpg","viewCount":"205","playlistId":"PLEkQk5xrP-tnmTYsyW6xNdyfhPq0Bhrhj","playlistName":"مقرأة الفجر - القُرْآنُ الكَرِيمُ - خَتْمَةُ التَّدَبُّرِ  أ.د. يسري جبر","category":"متنوع"},{"id":"YKcj3K2aaug","title":"مقرأة سورة فاطر من آية ٣٩","publishedAt":"2018-08-28T07:52:23Z","duration":"PT14M45S","thumbnail":"https://i.ytimg.com/vi/YKcj3K2aaug/mqdefault.jpg","viewCount":"203","playlistId":"PLEkQk5xrP-tnmTYsyW6xNdyfhPq0Bhrhj","playlistName":"مقرأة الفجر - القُرْآنُ الكَرِيمُ - خَتْمَةُ التَّدَبُّرِ  أ.د. يسري جبر","category":"متنوع"}],"total":942,"page":40,"pageSize":24,"totalPages":40}