{"items":[{"id":"wQKAFZJ0WbA","title":"هل يطلع الله بعض الأولياء علي الغيب؟","publishedAt":"2022-12-20T18:03:09Z","duration":"PT11M54S","thumbnail":"https://i.ytimg.com/vi/wQKAFZJ0WbA/mqdefault.jpg","viewCount":"32253","playlistId":"PLEkQk5xrP-tkGXuZ9atE3k_7it12rUPTs","playlistName":"أسئلة المتابعين","category":"متنوع"},{"id":"IEqq1thuptk","title":"هل يجوز مصافحة النساء؟","publishedAt":"2023-07-22T18:00:04Z","duration":"PT8M49S","thumbnail":"https://i.ytimg.com/vi/IEqq1thuptk/mqdefault.jpg","viewCount":"29061","playlistId":"PLEkQk5xrP-tkGXuZ9atE3k_7it12rUPTs","playlistName":"أسئلة المتابعين","category":"متنوع"},{"id":"SSz1MxzNlTc","title":"ما حكم الذكر بدون حضور القلب؟","publishedAt":"2023-04-02T19:00:09Z","duration":"PT8M53S","thumbnail":"https://i.ytimg.com/vi/SSz1MxzNlTc/mqdefault.jpg","viewCount":"27698","playlistId":"PLEkQk5xrP-tkGXuZ9atE3k_7it12rUPTs","playlistName":"أسئلة المتابعين","category":"متنوع"},{"id":"EMs0zxZGeuo","title":"ما رأيك في العلاقة بين الولد والبنت في ظل ما يحدث من جدل","publishedAt":"2024-03-16T18:00:12Z","duration":"PT14M38S","thumbnail":"https://i.ytimg.com/vi/EMs0zxZGeuo/mqdefault.jpg","viewCount":"27022","playlistId":"PLEkQk5xrP-tkGXuZ9atE3k_7it12rUPTs","playlistName":"أسئلة المتابعين","category":"متنوع"},{"id":"5s9X5XL3q-0","title":"قصة سيدنا الحسن والحسين كاملة","publishedAt":"2022-10-20T18:00:02Z","duration":"PT9M38S","thumbnail":"https://i.ytimg.com/vi/5s9X5XL3q-0/mqdefault.jpg","viewCount":"26162","playlistId":"PLEkQk5xrP-tkGXuZ9atE3k_7it12rUPTs","playlistName":"أسئلة المتابعين","category":"متنوع"},{"id":"XFLRWEjw1s8","title":"هل يجوز زيارة قبور الصالحين وطلب المدد منهم؟","publishedAt":"2022-01-14T19:29:40Z","duration":"PT10M43S","thumbnail":"https://i.ytimg.com/vi/XFLRWEjw1s8/mqdefault.jpg","viewCount":"25406","playlistId":"PLEkQk5xrP-tkGXuZ9atE3k_7it12rUPTs","playlistName":"أسئلة المتابعين","category":"متنوع"},{"id":"NFg6n2JGfvY","title":"ما معنى كلمة مدد؟","publishedAt":"2022-01-26T20:15:14Z","duration":"PT10M32S","thumbnail":"https://i.ytimg.com/vi/NFg6n2JGfvY/mqdefault.jpg","viewCount":"24736","playlistId":"PLEkQk5xrP-tkGXuZ9atE3k_7it12rUPTs","playlistName":"أسئلة المتابعين","category":"متنوع"},{"id":"WxxmfUJ_Nww","title":"حدود التعامل بين الشيوخ و النساء! #يسري_جبر","publishedAt":"2024-09-19T14:44:14Z","duration":"PT1M1S","thumbnail":"https://i.ytimg.com/vi/WxxmfUJ_Nww/mqdefault.jpg","viewCount":"24059","playlistId":"PLEkQk5xrP-tkGXuZ9atE3k_7it12rUPTs","playlistName":"أسئلة المتابعين","category":"متنوع"},{"id":"f9aGbGX4z6o","title":"\"الرد على المعترضين على فيديو التسمية باسم محمد \"بالدليل","publishedAt":"2023-04-20T19:20:03Z","duration":"PT10M2S","thumbnail":"https://i.ytimg.com/vi/f9aGbGX4z6o/mqdefault.jpg","viewCount":"23889","playlistId":"PLEkQk5xrP-tkGXuZ9atE3k_7it12rUPTs","playlistName":"أسئلة المتابعين","category":"متنوع"},{"id":"L6TpFMwrARY","title":"هل يجوز الاستماع الى الأغاني والموسيقى؟","publishedAt":"2023-03-30T19:00:09Z","duration":"PT8M12S","thumbnail":"https://i.ytimg.com/vi/L6TpFMwrARY/mqdefault.jpg","viewCount":"23758","playlistId":"PLEkQk5xrP-tkGXuZ9atE3k_7it12rUPTs","playlistName":"أسئلة المتابعين","category":"متنوع"},{"id":"80TONMGzeFo","title":"من هو الصوفي وما هو العهد؟","publishedAt":"2022-05-09T18:00:02Z","duration":"PT10M19S","thumbnail":"https://i.ytimg.com/vi/80TONMGzeFo/mqdefault.jpg","viewCount":"23352","playlistId":"PLEkQk5xrP-tkGXuZ9atE3k_7it12rUPTs","playlistName":"أسئلة المتابعين","category":"متنوع"},{"id":"0rHtgwkYA-4","title":"كيف تتخلص من جلد الذات المستمر؟","publishedAt":"2022-11-06T18:00:00Z","duration":"PT12M27S","thumbnail":"https://i.ytimg.com/vi/0rHtgwkYA-4/mqdefault.jpg","viewCount":"23124","playlistId":"PLEkQk5xrP-tkGXuZ9atE3k_7it12rUPTs","playlistName":"أسئلة المتابعين","category":"متنوع"},{"id":"AFuroSf7dv8","title":"من هم الأوتاد والأبدال والجرس والنجباء؟","publishedAt":"2022-08-04T18:00:04Z","duration":"PT8M1S","thumbnail":"https://i.ytimg.com/vi/AFuroSf7dv8/mqdefault.jpg","viewCount":"22921","playlistId":"PLEkQk5xrP-tkGXuZ9atE3k_7it12rUPTs","playlistName":"أسئلة المتابعين","category":"متنوع"},{"id":"xNgj6HkDHo8","title":"كيف أنظم وقتي؟","publishedAt":"2022-08-21T18:00:30Z","duration":"PT8M48S","thumbnail":"https://i.ytimg.com/vi/xNgj6HkDHo8/mqdefault.jpg","viewCount":"22628","playlistId":"PLEkQk5xrP-tkGXuZ9atE3k_7it12rUPTs","playlistName":"أسئلة المتابعين","category":"متنوع"},{"id":"EvFWu8tckCU","title":"ما سبب اعتراض الوهابية الدائم على كلامك؟","publishedAt":"2023-01-18T18:00:06Z","duration":"PT8M10S","thumbnail":"https://i.ytimg.com/vi/EvFWu8tckCU/mqdefault.jpg","viewCount":"22452","playlistId":"PLEkQk5xrP-tkGXuZ9atE3k_7it12rUPTs","playlistName":"أسئلة المتابعين","category":"متنوع"},{"id":"YzuNmcr-DK8","title":"حكم تهنئة المسيحيين بأعيادهم؟","publishedAt":"2021-12-26T19:08:15Z","duration":"PT10M45S","thumbnail":"https://i.ytimg.com/vi/YzuNmcr-DK8/mqdefault.jpg","viewCount":"21950","playlistId":"PLEkQk5xrP-tkGXuZ9atE3k_7it12rUPTs","playlistName":"أسئلة المتابعين","category":"متنوع"},{"id":"QmoBIDZvC7I","title":"هل يجوز تفسير الأحلام؟ | كل ما تريد معرفته عن تفسير الأحلام والكوابيس","publishedAt":"2024-03-27T18:00:13Z","duration":"PT13M59S","thumbnail":"https://i.ytimg.com/vi/QmoBIDZvC7I/mqdefault.jpg","viewCount":"21792","playlistId":"PLEkQk5xrP-tkGXuZ9atE3k_7it12rUPTs","playlistName":"أسئلة المتابعين","category":"متنوع"},{"id":"fIszxmLQb4o","title":"الفقر الحقيقي وأسباب الغنى","publishedAt":"2021-05-28T19:50:06Z","duration":"PT8M36S","thumbnail":"https://i.ytimg.com/vi/fIszxmLQb4o/mqdefault.jpg","viewCount":"21008","playlistId":"PLEkQk5xrP-tkGXuZ9atE3k_7it12rUPTs","playlistName":"أسئلة المتابعين","category":"متنوع"},{"id":"MFVceomZljc","title":"هل علم الفراسة وقراءة الوجوه حرام؟","publishedAt":"2022-12-23T18:00:07Z","duration":"PT11M18S","thumbnail":"https://i.ytimg.com/vi/MFVceomZljc/mqdefault.jpg","viewCount":"20912","playlistId":"PLEkQk5xrP-tkGXuZ9atE3k_7it12rUPTs","playlistName":"أسئلة المتابعين","category":"متنوع"},{"id":"zuhCfWCB4Tw","title":"الرد على تساؤلات الوهابية","publishedAt":"2021-06-10T18:00:14Z","duration":"PT12M9S","thumbnail":"https://i.ytimg.com/vi/zuhCfWCB4Tw/mqdefault.jpg","viewCount":"19981","playlistId":"PLEkQk5xrP-tkGXuZ9atE3k_7it12rUPTs","playlistName":"أسئلة المتابعين","category":"متنوع"},{"id":"-xG1tGl-id8","title":"هل صلاة الجمعة تسقط فرض الظهر؟","publishedAt":"2021-10-17T18:30:01Z","duration":"PT8M46S","thumbnail":"https://i.ytimg.com/vi/-xG1tGl-id8/mqdefault.jpg","viewCount":"19742","playlistId":"PLEkQk5xrP-tkGXuZ9atE3k_7it12rUPTs","playlistName":"أسئلة المتابعين","category":"متنوع"},{"id":"xQ950UAcQps","title":"كيف تكون سعيدا في حياتك؟","publishedAt":"2024-03-31T18:00:32Z","duration":"PT13M21S","thumbnail":"https://i.ytimg.com/vi/xQ950UAcQps/mqdefault.jpg","viewCount":"19146","playlistId":"PLEkQk5xrP-tkGXuZ9atE3k_7it12rUPTs","playlistName":"أسئلة المتابعين","category":"متنوع"},{"id":"uCzlM-1UFhM","title":"كيف تحمي أبناءك من الحسد؟","publishedAt":"2025-05-14T18:00:48Z","duration":"PT9M2S","thumbnail":"https://i.ytimg.com/vi/uCzlM-1UFhM/mqdefault.jpg","viewCount":"18626","playlistId":"PLEkQk5xrP-tkGXuZ9atE3k_7it12rUPTs","playlistName":"أسئلة المتابعين","category":"متنوع"},{"id":"lPj9HyZw2GY","title":"كيف أتخلص من الغضب وأكون واسع الصدر؟","publishedAt":"2023-07-23T18:00:30Z","duration":"PT10M20S","thumbnail":"https://i.ytimg.com/vi/lPj9HyZw2GY/mqdefault.jpg","viewCount":"18332","playlistId":"PLEkQk5xrP-tkGXuZ9atE3k_7it12rUPTs","playlistName":"أسئلة المتابعين","category":"متنوع"}],"total":335,"page":2,"pageSize":24,"totalPages":14}