{"items":[{"id":"5MBNPCyEZXI","title":"ما حكم الخروج على الحاكم الظالم؟","publishedAt":"2022-09-09T18:00:02Z","duration":"PT10M55S","thumbnail":"https://i.ytimg.com/vi/5MBNPCyEZXI/mqdefault.jpg","viewCount":"7683","playlistId":"PLEkQk5xrP-tkGXuZ9atE3k_7it12rUPTs","playlistName":"أسئلة المتابعين","category":"متنوع"},{"id":"p6sHKV2mag0","title":"كيف يحمي المريد نفسه من الأوهام؟","publishedAt":"2021-09-09T17:20:31Z","duration":"PT9M3S","thumbnail":"https://i.ytimg.com/vi/p6sHKV2mag0/mqdefault.jpg","viewCount":"7666","playlistId":"PLEkQk5xrP-tkGXuZ9atE3k_7it12rUPTs","playlistName":"أسئلة المتابعين","category":"متنوع"},{"id":"l-4zTknWZTs","title":"ما هي حدود الاختلاط بين الرجال والنساء؟","publishedAt":"2023-12-10T19:35:47Z","duration":"PT10M10S","thumbnail":"https://i.ytimg.com/vi/l-4zTknWZTs/mqdefault.jpg","viewCount":"7573","playlistId":"PLEkQk5xrP-tkGXuZ9atE3k_7it12rUPTs","playlistName":"أسئلة المتابعين","category":"متنوع"},{"id":"Ia4eh8MNbQA","title":"أريد تناول المهدّئات.. بماذا تنصحني؟","publishedAt":"2021-09-05T17:37:14Z","duration":"PT9M23S","thumbnail":"https://i.ytimg.com/vi/Ia4eh8MNbQA/mqdefault.jpg","viewCount":"7561","playlistId":"PLEkQk5xrP-tkGXuZ9atE3k_7it12rUPTs","playlistName":"أسئلة المتابعين","category":"متنوع"},{"id":"UfHp_kGmFiE","title":"هل الحركة والتمايل أثناء الذكر حرام؟","publishedAt":"2022-04-05T19:30:03Z","duration":"PT11M57S","thumbnail":"https://i.ytimg.com/vi/UfHp_kGmFiE/mqdefault.jpg","viewCount":"7487","playlistId":"PLEkQk5xrP-tkGXuZ9atE3k_7it12rUPTs","playlistName":"أسئلة المتابعين","category":"متنوع"},{"id":"QefZZTur1Uo","title":"ما معنى قراءة الفاتحة لسيدنا محمد ﷺ؟","publishedAt":"2022-08-25T18:00:15Z","duration":"PT10M17S","thumbnail":"https://i.ytimg.com/vi/QefZZTur1Uo/mqdefault.jpg","viewCount":"7344","playlistId":"PLEkQk5xrP-tkGXuZ9atE3k_7it12rUPTs","playlistName":"أسئلة المتابعين","category":"متنوع"},{"id":"SfeyYKP50bM","title":"هل رؤية النبي ﷺ يقظة حقيقة أم هلاوس؟","publishedAt":"2022-08-02T18:00:16Z","duration":"PT14M10S","thumbnail":"https://i.ytimg.com/vi/SfeyYKP50bM/mqdefault.jpg","viewCount":"7333","playlistId":"PLEkQk5xrP-tkGXuZ9atE3k_7it12rUPTs","playlistName":"أسئلة المتابعين","category":"متنوع"},{"id":"U71VggsKTME","title":"كيف أتخلص من جلد الذات؟","publishedAt":"2021-07-28T17:30:04Z","duration":"PT9M31S","thumbnail":"https://i.ytimg.com/vi/U71VggsKTME/mqdefault.jpg","viewCount":"7330","playlistId":"PLEkQk5xrP-tkGXuZ9atE3k_7it12rUPTs","playlistName":"أسئلة المتابعين","category":"متنوع"},{"id":"ej2a8xb3GdA","title":"أحاول مقاومة الكسل في الطاعات والخشوع في الصلاة ولا أستطيع ,, فماذا أفعل؟","publishedAt":"2024-10-21T17:45:07Z","duration":"PT8M32S","thumbnail":"https://i.ytimg.com/vi/ej2a8xb3GdA/mqdefault.jpg","viewCount":"7298","playlistId":"PLEkQk5xrP-tkGXuZ9atE3k_7it12rUPTs","playlistName":"أسئلة المتابعين","category":"متنوع"},{"id":"yk9jx6N3xW4","title":"هل قانون الإيجار القديم في مصر جائز شرعًا؟","publishedAt":"2022-04-24T19:30:02Z","duration":"PT12M4S","thumbnail":"https://i.ytimg.com/vi/yk9jx6N3xW4/mqdefault.jpg","viewCount":"7269","playlistId":"PLEkQk5xrP-tkGXuZ9atE3k_7it12rUPTs","playlistName":"أسئلة المتابعين","category":"متنوع"},{"id":"QcWx6hn7EFo","title":"أنا مقبل على الزواج ,, كيف أعالج قسوة طباعي؟","publishedAt":"2022-12-10T18:00:14Z","duration":"PT9M42S","thumbnail":"https://i.ytimg.com/vi/QcWx6hn7EFo/mqdefault.jpg","viewCount":"7222","playlistId":"PLEkQk5xrP-tkGXuZ9atE3k_7it12rUPTs","playlistName":"أسئلة المتابعين","category":"متنوع"},{"id":"cCo9Ltd5t2c","title":"زوجي تزوج عليا فهل من حقي طلب الطلاق ام ماذا أفعل؟","publishedAt":"2024-05-12T18:15:11Z","duration":"PT8M7S","thumbnail":"https://i.ytimg.com/vi/cCo9Ltd5t2c/mqdefault.jpg","viewCount":"7197","playlistId":"PLEkQk5xrP-tkGXuZ9atE3k_7it12rUPTs","playlistName":"أسئلة المتابعين","category":"متنوع"},{"id":"4tEeWmnJlr0","title":"ليه بتشرب و تدي اللي بتشربه لباقي الحضور؟ | الرد على المتابعين","publishedAt":"2024-03-18T18:00:03Z","duration":"PT10M22S","thumbnail":"https://i.ytimg.com/vi/4tEeWmnJlr0/mqdefault.jpg","viewCount":"7137","playlistId":"PLEkQk5xrP-tkGXuZ9atE3k_7it12rUPTs","playlistName":"أسئلة المتابعين","category":"متنوع"},{"id":"hFgqQx0sHng","title":"أنا معنديش بركة في الوقت والمال ,, فماذا أفعل؟","publishedAt":"2025-02-25T19:41:54Z","duration":"PT12M22S","thumbnail":"https://i.ytimg.com/vi/hFgqQx0sHng/mqdefault.jpg","viewCount":"7078","playlistId":"PLEkQk5xrP-tkGXuZ9atE3k_7it12rUPTs","playlistName":"أسئلة المتابعين","category":"متنوع"},{"id":"CyEnQ5SL5ho","title":"أهلي بيعاملوني وحش فهل ده يعتبر إهانة من ربنا بسبب ذنوبي؟","publishedAt":"2023-12-12T19:29:59Z","duration":"PT13M19S","thumbnail":"https://i.ytimg.com/vi/CyEnQ5SL5ho/mqdefault.jpg","viewCount":"7078","playlistId":"PLEkQk5xrP-tkGXuZ9atE3k_7it12rUPTs","playlistName":"أسئلة المتابعين","category":"متنوع"},{"id":"X4nmkrBF9Ag","title":"هل يجوز الحج بطريقة غير رسمية؟","publishedAt":"2024-03-07T19:00:26Z","duration":"PT13M37S","thumbnail":"https://i.ytimg.com/vi/X4nmkrBF9Ag/mqdefault.jpg","viewCount":"7066","playlistId":"PLEkQk5xrP-tkGXuZ9atE3k_7it12rUPTs","playlistName":"أسئلة المتابعين","category":"متنوع"},{"id":"gyGvyx4AFw4","title":"هل يجب إقامة خلافة إسلامية مرة أخرى؟","publishedAt":"2022-10-14T18:00:30Z","duration":"PT11M22S","thumbnail":"https://i.ytimg.com/vi/gyGvyx4AFw4/mqdefault.jpg","viewCount":"7020","playlistId":"PLEkQk5xrP-tkGXuZ9atE3k_7it12rUPTs","playlistName":"أسئلة المتابعين","category":"متنوع"},{"id":"Th4sS-y7FfY","title":"لا أشعر بالسعادة إلا عند ذكر الله وقراءة الأوراد ,, فماذا أفعل؟","publishedAt":"2025-02-01T19:30:34Z","duration":"PT11M51S","thumbnail":"https://i.ytimg.com/vi/Th4sS-y7FfY/mqdefault.jpg","viewCount":"6998","playlistId":"PLEkQk5xrP-tkGXuZ9atE3k_7it12rUPTs","playlistName":"أسئلة المتابعين","category":"متنوع"},{"id":"RzbT6icmoPM","title":"أنا زهقان وحاسس أني مش مستمتع بالحياة ,, فماذا أفعل؟","publishedAt":"2025-07-07T19:03:22Z","duration":"PT8M17S","thumbnail":"https://i.ytimg.com/vi/RzbT6icmoPM/mqdefault.jpg","viewCount":"6994","playlistId":"PLEkQk5xrP-tkGXuZ9atE3k_7it12rUPTs","playlistName":"أسئلة المتابعين","category":"متنوع"},{"id":"UpRZQczwaxs","title":"ازاي أرضى بما قسمه الله لي؟","publishedAt":"2025-06-23T18:44:52Z","duration":"PT12M41S","thumbnail":"https://i.ytimg.com/vi/UpRZQczwaxs/mqdefault.jpg","viewCount":"6980","playlistId":"PLEkQk5xrP-tkGXuZ9atE3k_7it12rUPTs","playlistName":"أسئلة المتابعين","category":"متنوع"},{"id":"OsVpzLMLmXI","title":"كيف نرد على من ينكر مديح الأولياء؟","publishedAt":"2022-08-08T18:00:09Z","duration":"PT8M57S","thumbnail":"https://i.ytimg.com/vi/OsVpzLMLmXI/mqdefault.jpg","viewCount":"6965","playlistId":"PLEkQk5xrP-tkGXuZ9atE3k_7it12rUPTs","playlistName":"أسئلة المتابعين","category":"متنوع"},{"id":"17qh1URC0bg","title":"أنا بكره أبويا وأمي بسبب سوء معاملتهم وخلافاتهم المستمرة ,, فماذا أفعل؟","publishedAt":"2024-03-13T18:00:01Z","duration":"PT10M51S","thumbnail":"https://i.ytimg.com/vi/17qh1URC0bg/mqdefault.jpg","viewCount":"6874","playlistId":"PLEkQk5xrP-tkGXuZ9atE3k_7it12rUPTs","playlistName":"أسئلة المتابعين","category":"متنوع"},{"id":"gbyXtCa5NXw","title":"أنا في بداية طريقي إلى الله ,, ما هي الكتب التي تنصحني بها؟","publishedAt":"2024-08-05T18:00:19Z","duration":"PT9M20S","thumbnail":"https://i.ytimg.com/vi/gbyXtCa5NXw/mqdefault.jpg","viewCount":"6857","playlistId":"PLEkQk5xrP-tkGXuZ9atE3k_7it12rUPTs","playlistName":"أسئلة المتابعين","category":"متنوع"},{"id":"Cvz9vPfoGLg","title":"هل يوجد ارتقاء في الذكر والأوراد في طريق التصوف؟","publishedAt":"2024-01-24T19:58:47Z","duration":"PT8M48S","thumbnail":"https://i.ytimg.com/vi/Cvz9vPfoGLg/mqdefault.jpg","viewCount":"6843","playlistId":"PLEkQk5xrP-tkGXuZ9atE3k_7it12rUPTs","playlistName":"أسئلة المتابعين","category":"متنوع"}],"total":335,"page":7,"pageSize":24,"totalPages":14}