{"items":[{"id":"1yWQuRQXuNw","title":"حكم زيارة القبور؟","publishedAt":"2022-11-22T18:00:00Z","duration":"PT10M2S","thumbnail":"https://i.ytimg.com/vi/1yWQuRQXuNw/mqdefault.jpg","viewCount":"6742","playlistId":"PLEkQk5xrP-tkGXuZ9atE3k_7it12rUPTs","playlistName":"أسئلة المتابعين","category":"متنوع"},{"id":"J3_wF-RQMt8","title":"هل يجوز زيارة الموتى في العيد؟","publishedAt":"2022-05-01T19:30:01Z","duration":"PT8M4S","thumbnail":"https://i.ytimg.com/vi/J3_wF-RQMt8/mqdefault.jpg","viewCount":"6695","playlistId":"PLEkQk5xrP-tkGXuZ9atE3k_7it12rUPTs","playlistName":"أسئلة المتابعين","category":"متنوع"},{"id":"Bu8XobLSKaA","title":"لا أستطيع المحافظة على الوضوء فماذا أفعل؟","publishedAt":"2024-03-12T18:00:05Z","duration":"PT9M25S","thumbnail":"https://i.ytimg.com/vi/Bu8XobLSKaA/mqdefault.jpg","viewCount":"6677","playlistId":"PLEkQk5xrP-tkGXuZ9atE3k_7it12rUPTs","playlistName":"أسئلة المتابعين","category":"متنوع"},{"id":"LkjNg32gY0U","title":"كيف نتعامل مع الناس المؤذية؟","publishedAt":"2023-09-15T17:00:13Z","duration":"PT11M3S","thumbnail":"https://i.ytimg.com/vi/LkjNg32gY0U/mqdefault.jpg","viewCount":"6631","playlistId":"PLEkQk5xrP-tkGXuZ9atE3k_7it12rUPTs","playlistName":"أسئلة المتابعين","category":"متنوع"},{"id":"qz-mUTXSH_k","title":"هل يجوز زيارة القبور للنساء؟","publishedAt":"2022-01-29T18:00:13Z","duration":"PT12M32S","thumbnail":"https://i.ytimg.com/vi/qz-mUTXSH_k/mqdefault.jpg","viewCount":"6596","playlistId":"PLEkQk5xrP-tkGXuZ9atE3k_7it12rUPTs","playlistName":"أسئلة المتابعين","category":"متنوع"},{"id":"MZCMZJZ-ogU","title":"ما حكم سماع الأغاني في رمضان؟","publishedAt":"2023-04-12T19:00:07Z","duration":"PT9M56S","thumbnail":"https://i.ytimg.com/vi/MZCMZJZ-ogU/mqdefault.jpg","viewCount":"6549","playlistId":"PLEkQk5xrP-tkGXuZ9atE3k_7it12rUPTs","playlistName":"أسئلة المتابعين","category":"متنوع"},{"id":"fofLUBTbIoE","title":"ما معنى الجذب وما أنواعه؟","publishedAt":"2025-03-23T19:00:34Z","duration":"PT8M9S","thumbnail":"https://i.ytimg.com/vi/fofLUBTbIoE/mqdefault.jpg","viewCount":"6440","playlistId":"PLEkQk5xrP-tkGXuZ9atE3k_7it12rUPTs","playlistName":"أسئلة المتابعين","category":"متنوع"},{"id":"pNbHd5qrNws","title":"هل التصوف كان موجودا أيام النبي ﷺ؟","publishedAt":"2023-01-02T18:00:28Z","duration":"PT8M51S","thumbnail":"https://i.ytimg.com/vi/pNbHd5qrNws/mqdefault.jpg","viewCount":"6414","playlistId":"PLEkQk5xrP-tkGXuZ9atE3k_7it12rUPTs","playlistName":"أسئلة المتابعين","category":"متنوع"},{"id":"noH7DBoNUqk","title":"هل يجوز قراءة الأوراد مع عدم فهمي لبعضها؟","publishedAt":"2024-01-25T19:15:05Z","duration":"PT9M24S","thumbnail":"https://i.ytimg.com/vi/noH7DBoNUqk/mqdefault.jpg","viewCount":"6373","playlistId":"PLEkQk5xrP-tkGXuZ9atE3k_7it12rUPTs","playlistName":"أسئلة المتابعين","category":"متنوع"},{"id":"BCJlzN4z2XU","title":"كيفية حل المشاكل الزوجية؟","publishedAt":"2022-12-19T18:00:04Z","duration":"PT8M11S","thumbnail":"https://i.ytimg.com/vi/BCJlzN4z2XU/mqdefault.jpg","viewCount":"6363","playlistId":"PLEkQk5xrP-tkGXuZ9atE3k_7it12rUPTs","playlistName":"أسئلة المتابعين","category":"متنوع"},{"id":"vxjkKV3QykU","title":"زوجي بيضربني دايما بدون سبب فماذا أفعل؟","publishedAt":"2023-05-16T18:00:23Z","duration":"PT8M14S","thumbnail":"https://i.ytimg.com/vi/vxjkKV3QykU/mqdefault.jpg","viewCount":"6351","playlistId":"PLEkQk5xrP-tkGXuZ9atE3k_7it12rUPTs","playlistName":"أسئلة المتابعين","category":"متنوع"},{"id":"wiN19lwrmxo","title":"مراتي بتشتغل ,,هل مشاركتها في مصروف البيت واجبة؟","publishedAt":"2024-05-06T17:32:16Z","duration":"PT8M6S","thumbnail":"https://i.ytimg.com/vi/wiN19lwrmxo/mqdefault.jpg","viewCount":"6333","playlistId":"PLEkQk5xrP-tkGXuZ9atE3k_7it12rUPTs","playlistName":"أسئلة المتابعين","category":"متنوع"},{"id":"y5bgcxbl48E","title":"هل الحسد والعين ممكن يكونوا سبب للموت؟","publishedAt":"2024-05-02T18:10:38Z","duration":"PT10M30S","thumbnail":"https://i.ytimg.com/vi/y5bgcxbl48E/mqdefault.jpg","viewCount":"6291","playlistId":"PLEkQk5xrP-tkGXuZ9atE3k_7it12rUPTs","playlistName":"أسئلة المتابعين","category":"متنوع"},{"id":"rlD0q5EqagU","title":"كيف أصبر على البلاء ,, وما الفرق بين البلاء والابتلاء؟","publishedAt":"2024-01-09T18:04:57Z","duration":"PT9M25S","thumbnail":"https://i.ytimg.com/vi/rlD0q5EqagU/mqdefault.jpg","viewCount":"6283","playlistId":"PLEkQk5xrP-tkGXuZ9atE3k_7it12rUPTs","playlistName":"أسئلة المتابعين","category":"متنوع"},{"id":"HR3g55dyCZ0","title":"هل يجوز الأكل عند شخص مع علمي بأن ماله حرام؟","publishedAt":"2023-02-16T18:00:07Z","duration":"PT8M34S","thumbnail":"https://i.ytimg.com/vi/HR3g55dyCZ0/mqdefault.jpg","viewCount":"6267","playlistId":"PLEkQk5xrP-tkGXuZ9atE3k_7it12rUPTs","playlistName":"أسئلة المتابعين","category":"متنوع"},{"id":"Ywju_GLi3Zs","title":"هل يجوز للمسلم دخول الكنيسة؟","publishedAt":"2021-11-24T19:58:02Z","duration":"PT10M7S","thumbnail":"https://i.ytimg.com/vi/Ywju_GLi3Zs/mqdefault.jpg","viewCount":"6260","playlistId":"PLEkQk5xrP-tkGXuZ9atE3k_7it12rUPTs","playlistName":"أسئلة المتابعين","category":"متنوع"},{"id":"BWUMu5wE95g","title":"هل يجوز فك السحر بسحر مثله؟","publishedAt":"2022-09-24T18:00:03Z","duration":"PT9M5S","thumbnail":"https://i.ytimg.com/vi/BWUMu5wE95g/mqdefault.jpg","viewCount":"6192","playlistId":"PLEkQk5xrP-tkGXuZ9atE3k_7it12rUPTs","playlistName":"أسئلة المتابعين","category":"متنوع"},{"id":"B9-jYxqSK_4","title":"حياتي كلها مشاكل وصعوبات ,, فماذا أفعل؟","publishedAt":"2024-12-09T18:56:42Z","duration":"PT8M37S","thumbnail":"https://i.ytimg.com/vi/B9-jYxqSK_4/mqdefault.jpg","viewCount":"6163","playlistId":"PLEkQk5xrP-tkGXuZ9atE3k_7it12rUPTs","playlistName":"أسئلة المتابعين","category":"متنوع"},{"id":"bLGUaZ3mjEc","title":"كيف تحصل على خبرة في مجالك؟","publishedAt":"2023-04-09T19:00:24Z","duration":"PT8M1S","thumbnail":"https://i.ytimg.com/vi/bLGUaZ3mjEc/mqdefault.jpg","viewCount":"6140","playlistId":"PLEkQk5xrP-tkGXuZ9atE3k_7it12rUPTs","playlistName":"أسئلة المتابعين","category":"متنوع"},{"id":"v-iMattTLJM","title":"ما معنى \"الرَّحْمَنُ عَلَى الْعَرْشِ اسْتَوَى\"؟","publishedAt":"2021-09-29T16:30:07Z","duration":"PT8M42S","thumbnail":"https://i.ytimg.com/vi/v-iMattTLJM/mqdefault.jpg","viewCount":"6078","playlistId":"PLEkQk5xrP-tkGXuZ9atE3k_7it12rUPTs","playlistName":"أسئلة المتابعين","category":"متنوع"},{"id":"0xPNr8bpGbM","title":"لماذا اختلف العلماء في تحديد أسماء الله؟","publishedAt":"2022-01-21T18:24:59Z","duration":"PT12M17S","thumbnail":"https://i.ytimg.com/vi/0xPNr8bpGbM/mqdefault.jpg","viewCount":"6025","playlistId":"PLEkQk5xrP-tkGXuZ9atE3k_7it12rUPTs","playlistName":"أسئلة المتابعين","category":"متنوع"},{"id":"bBr6AONS2VQ","title":"ما حدود الكلام والشات بين الشباب والفتيات قبل الزواج؟","publishedAt":"2025-08-27T18:00:39Z","duration":"PT8M9S","thumbnail":"https://i.ytimg.com/vi/bBr6AONS2VQ/mqdefault.jpg","viewCount":"5993","playlistId":"PLEkQk5xrP-tkGXuZ9atE3k_7it12rUPTs","playlistName":"أسئلة المتابعين","category":"متنوع"},{"id":"lPyPTIY5qFA","title":"ليه ربنا خلقنا وهو هيموتنا؟","publishedAt":"2021-05-06T19:15:00Z","duration":"PT10M27S","thumbnail":"https://i.ytimg.com/vi/lPyPTIY5qFA/mqdefault.jpg","viewCount":"5976","playlistId":"PLEkQk5xrP-tkGXuZ9atE3k_7it12rUPTs","playlistName":"أسئلة المتابعين","category":"متنوع"},{"id":"PnOUpfAz-OA","title":"هل لبس السلسلة حرام للرجال؟","publishedAt":"2021-10-06T19:56:53Z","duration":"PT8M59S","thumbnail":"https://i.ytimg.com/vi/PnOUpfAz-OA/mqdefault.jpg","viewCount":"5967","playlistId":"PLEkQk5xrP-tkGXuZ9atE3k_7it12rUPTs","playlistName":"أسئلة المتابعين","category":"متنوع"}],"total":335,"page":8,"pageSize":24,"totalPages":14}