{"items":[{"id":"vvSPqIBaCFc","title":"كيف نرد على من يقول أن الله في السماء؟","publishedAt":"2023-10-04T16:00:51Z","duration":"PT9M53S","thumbnail":"https://i.ytimg.com/vi/vvSPqIBaCFc/mqdefault.jpg","viewCount":"14941","playlistId":"PLEkQk5xrP-tkGXuZ9atE3k_7it12rUPTs","playlistName":"أسئلة المتابعين","category":"متنوع"},{"id":"H5bJlVXBJlA","title":"كيف تحمي نفسك من السحر؟","publishedAt":"2022-10-17T18:00:13Z","duration":"PT8M16S","thumbnail":"https://i.ytimg.com/vi/H5bJlVXBJlA/mqdefault.jpg","viewCount":"14879","playlistId":"PLEkQk5xrP-tkGXuZ9atE3k_7it12rUPTs","playlistName":"أسئلة المتابعين","category":"متنوع"},{"id":"WdFc0sTqEMk","title":"كيف أطلب العلم عن بعد؟","publishedAt":"2021-09-02T19:30:04Z","duration":"PT11M49S","thumbnail":"https://i.ytimg.com/vi/WdFc0sTqEMk/mqdefault.jpg","viewCount":"14436","playlistId":"PLEkQk5xrP-tkGXuZ9atE3k_7it12rUPTs","playlistName":"أسئلة المتابعين","category":"متنوع"},{"id":"jnT8vWurdyc","title":"كيف أتخلص من الكسل وفقدان الشغف؟","publishedAt":"2022-03-11T19:48:50Z","duration":"PT8M20S","thumbnail":"https://i.ytimg.com/vi/jnT8vWurdyc/mqdefault.jpg","viewCount":"14325","playlistId":"PLEkQk5xrP-tkGXuZ9atE3k_7it12rUPTs","playlistName":"أسئلة المتابعين","category":"متنوع"},{"id":"G38f2NTCKTo","title":"كم عدد الأنبياء العرب؟","publishedAt":"2022-01-20T18:39:29Z","duration":"PT8M46S","thumbnail":"https://i.ytimg.com/vi/G38f2NTCKTo/mqdefault.jpg","viewCount":"13987","playlistId":"PLEkQk5xrP-tkGXuZ9atE3k_7it12rUPTs","playlistName":"أسئلة المتابعين","category":"متنوع"},{"id":"c8RGFwlvfl8","title":"كيف قابلت الدكتور علي جمعة؟","publishedAt":"2022-03-12T19:24:04Z","duration":"PT9M36S","thumbnail":"https://i.ytimg.com/vi/c8RGFwlvfl8/mqdefault.jpg","viewCount":"13828","playlistId":"PLEkQk5xrP-tkGXuZ9atE3k_7it12rUPTs","playlistName":"أسئلة المتابعين","category":"متنوع"},{"id":"rbRMPe1GVmg","title":"هل لمس المرأة ينقض الوضوء؟","publishedAt":"2022-07-28T19:59:23Z","duration":"PT14M7S","thumbnail":"https://i.ytimg.com/vi/rbRMPe1GVmg/mqdefault.jpg","viewCount":"13716","playlistId":"PLEkQk5xrP-tkGXuZ9atE3k_7it12rUPTs","playlistName":"أسئلة المتابعين","category":"متنوع"},{"id":"m0rvdtZskNw","title":"ما حكم شراء وبيع العملات من السوق السوداء؟","publishedAt":"2023-11-18T18:23:06Z","duration":"PT8M8S","thumbnail":"https://i.ytimg.com/vi/m0rvdtZskNw/mqdefault.jpg","viewCount":"13671","playlistId":"PLEkQk5xrP-tkGXuZ9atE3k_7it12rUPTs","playlistName":"أسئلة المتابعين","category":"متنوع"},{"id":"rjgZU3tYsio","title":"هل الكشف حقيقة أم خيال من النفس؟","publishedAt":"2025-07-27T18:31:14Z","duration":"PT11M43S","thumbnail":"https://i.ytimg.com/vi/rjgZU3tYsio/mqdefault.jpg","viewCount":"13644","playlistId":"PLEkQk5xrP-tkGXuZ9atE3k_7it12rUPTs","playlistName":"أسئلة المتابعين","category":"متنوع"},{"id":"-_uKnDI8yxU","title":"ما الدليل على أن العوالم خلقت من نور سيدنا محمد ﷺ؟","publishedAt":"2022-09-08T19:01:47Z","duration":"PT9M30S","thumbnail":"https://i.ytimg.com/vi/-_uKnDI8yxU/mqdefault.jpg","viewCount":"13511","playlistId":"PLEkQk5xrP-tkGXuZ9atE3k_7it12rUPTs","playlistName":"أسئلة المتابعين","category":"متنوع"},{"id":"_PGpy7-onW4","title":"هل حركات المولوية أثناء الذكر جائزة؟","publishedAt":"2022-03-15T19:03:53Z","duration":"PT12M29S","thumbnail":"https://i.ytimg.com/vi/_PGpy7-onW4/mqdefault.jpg","viewCount":"13370","playlistId":"PLEkQk5xrP-tkGXuZ9atE3k_7it12rUPTs","playlistName":"أسئلة المتابعين","category":"متنوع"},{"id":"-eoz_3cV5m0","title":"هل يوجد أوراد تساعد على زيادة الرزق؟","publishedAt":"2025-04-15T19:00:01Z","duration":"PT8M57S","thumbnail":"https://i.ytimg.com/vi/-eoz_3cV5m0/mqdefault.jpg","viewCount":"13346","playlistId":"PLEkQk5xrP-tkGXuZ9atE3k_7it12rUPTs","playlistName":"أسئلة المتابعين","category":"متنوع"},{"id":"p0yfvThd-68","title":"كيف أسيطر على شهوتي؟","publishedAt":"2021-12-12T17:15:00Z","duration":"PT8M53S","thumbnail":"https://i.ytimg.com/vi/p0yfvThd-68/mqdefault.jpg","viewCount":"13279","playlistId":"PLEkQk5xrP-tkGXuZ9atE3k_7it12rUPTs","playlistName":"أسئلة المتابعين","category":"متنوع"},{"id":"xxQ0OYnxbXs","title":"أنا شاب ولا استطيع غض بصري فماذا أفعل؟","publishedAt":"2023-08-21T18:00:26Z","duration":"PT8M34S","thumbnail":"https://i.ytimg.com/vi/xxQ0OYnxbXs/mqdefault.jpg","viewCount":"12910","playlistId":"PLEkQk5xrP-tkGXuZ9atE3k_7it12rUPTs","playlistName":"أسئلة المتابعين","category":"متنوع"},{"id":"jB1eq6KUhPk","title":"أفضل طريقة لحل المشاكل الزوجية","publishedAt":"2021-07-29T17:50:10Z","duration":"PT8M32S","thumbnail":"https://i.ytimg.com/vi/jB1eq6KUhPk/mqdefault.jpg","viewCount":"12701","playlistId":"PLEkQk5xrP-tkGXuZ9atE3k_7it12rUPTs","playlistName":"أسئلة المتابعين","category":"متنوع"},{"id":"L5o21wnPllE","title":"أنا شاب بحاول أبطل العادة السرية ومش قادر ,, أعمل ايه؟","publishedAt":"2024-09-24T15:42:17Z","duration":"PT11M41S","thumbnail":"https://i.ytimg.com/vi/L5o21wnPllE/mqdefault.jpg","viewCount":"12568","playlistId":"PLEkQk5xrP-tkGXuZ9atE3k_7it12rUPTs","playlistName":"أسئلة المتابعين","category":"متنوع"},{"id":"YqTdX8cD6EA","title":"ابنتي ترفض الحجاب,, ماذا أفعل؟","publishedAt":"2021-08-01T17:32:00Z","duration":"PT10M33S","thumbnail":"https://i.ytimg.com/vi/YqTdX8cD6EA/mqdefault.jpg","viewCount":"12559","playlistId":"PLEkQk5xrP-tkGXuZ9atE3k_7it12rUPTs","playlistName":"أسئلة المتابعين","category":"متنوع"},{"id":"ArnlvcPAY7o","title":"ما موقف الصوفية من سيدنا معاوية بن أبي سفيان؟","publishedAt":"2022-09-17T18:41:33Z","duration":"PT11M34S","thumbnail":"https://i.ytimg.com/vi/ArnlvcPAY7o/mqdefault.jpg","viewCount":"12347","playlistId":"PLEkQk5xrP-tkGXuZ9atE3k_7it12rUPTs","playlistName":"أسئلة المتابعين","category":"متنوع"},{"id":"3uXvn2lb3ps","title":"أنا لا أستطيع المواظبة على الذكر فماذا أفعل؟","publishedAt":"2024-11-04T17:18:24Z","duration":"PT8M3S","thumbnail":"https://i.ytimg.com/vi/3uXvn2lb3ps/mqdefault.jpg","viewCount":"12336","playlistId":"PLEkQk5xrP-tkGXuZ9atE3k_7it12rUPTs","playlistName":"أسئلة المتابعين","category":"متنوع"},{"id":"FFqhdgKwR9M","title":"هل الانقطاع عن الأوراد خروج عن الطريق؟","publishedAt":"2021-08-06T17:30:00Z","duration":"PT10M9S","thumbnail":"https://i.ytimg.com/vi/FFqhdgKwR9M/mqdefault.jpg","viewCount":"12320","playlistId":"PLEkQk5xrP-tkGXuZ9atE3k_7it12rUPTs","playlistName":"أسئلة المتابعين","category":"متنوع"},{"id":"L20czz14E5Q","title":"كيف أتخلص من مشاهدة الأفلام الإباحية؟","publishedAt":"2021-05-05T19:15:00Z","duration":"PT10M32S","thumbnail":"https://i.ytimg.com/vi/L20czz14E5Q/mqdefault.jpg","viewCount":"12129","playlistId":"PLEkQk5xrP-tkGXuZ9atE3k_7it12rUPTs","playlistName":"أسئلة المتابعين","category":"متنوع"},{"id":"R_G_AASR8ik","title":"والدي وهابي وأنا أزهري ,, كيف أتعامل معه؟","publishedAt":"2022-03-03T18:47:17Z","duration":"PT9M26S","thumbnail":"https://i.ytimg.com/vi/R_G_AASR8ik/mqdefault.jpg","viewCount":"11665","playlistId":"PLEkQk5xrP-tkGXuZ9atE3k_7it12rUPTs","playlistName":"أسئلة المتابعين","category":"متنوع"},{"id":"uh1KGSs7yTk","title":"ما حكم سماع الموسيقى أو استخدامها في عملي؟","publishedAt":"2023-07-24T18:00:33Z","duration":"PT8M8S","thumbnail":"https://i.ytimg.com/vi/uh1KGSs7yTk/mqdefault.jpg","viewCount":"11662","playlistId":"PLEkQk5xrP-tkGXuZ9atE3k_7it12rUPTs","playlistName":"أسئلة المتابعين","category":"متنوع"},{"id":"jXDlHtqHlWM","title":"هل الدعاء يغير القدر؟","publishedAt":"2022-03-19T19:16:37Z","duration":"PT9M10S","thumbnail":"https://i.ytimg.com/vi/jXDlHtqHlWM/mqdefault.jpg","viewCount":"11315","playlistId":"PLEkQk5xrP-tkGXuZ9atE3k_7it12rUPTs","playlistName":"أسئلة المتابعين","category":"متنوع"}],"total":335,"page":4,"pageSize":24,"totalPages":14}