{"items":[{"id":"ap0GJNBKY6o","title":"عندي مشاكل مع أمي وأخواتي وصلت إلى الكراهية فماذا أفعل؟","publishedAt":"2024-10-26T17:30:26Z","duration":"PT11M1S","thumbnail":"https://i.ytimg.com/vi/ap0GJNBKY6o/mqdefault.jpg","viewCount":"5365","playlistId":"PLEkQk5xrP-tkGXuZ9atE3k_7it12rUPTs","playlistName":"أسئلة المتابعين","category":"متنوع"},{"id":"PAGQvpIMdLY","title":"هل يجوز الزواج من غير المسلمة؟","publishedAt":"2022-07-18T19:00:21Z","duration":"PT9M19S","thumbnail":"https://i.ytimg.com/vi/PAGQvpIMdLY/mqdefault.jpg","viewCount":"5352","playlistId":"PLEkQk5xrP-tkGXuZ9atE3k_7it12rUPTs","playlistName":"أسئلة المتابعين","category":"متنوع"},{"id":"5btNU6jMKek","title":"زوجتي ماتت وهي زعلانة مني ومش عارف أعمل ايه؟","publishedAt":"2023-12-17T18:38:11Z","duration":"PT8M1S","thumbnail":"https://i.ytimg.com/vi/5btNU6jMKek/mqdefault.jpg","viewCount":"5243","playlistId":"PLEkQk5xrP-tkGXuZ9atE3k_7it12rUPTs","playlistName":"أسئلة المتابعين","category":"متنوع"},{"id":"BVIsYUpEuOs","title":"ما حكم لبس البروكة للمرأة لتتزين لزوجها؟","publishedAt":"2024-04-19T18:00:18Z","duration":"PT8M33S","thumbnail":"https://i.ytimg.com/vi/BVIsYUpEuOs/mqdefault.jpg","viewCount":"5241","playlistId":"PLEkQk5xrP-tkGXuZ9atE3k_7it12rUPTs","playlistName":"أسئلة المتابعين","category":"متنوع"},{"id":"CRV3qAPP5CA","title":"أريد الزواج مرة أخرى وخايف من عدم العدل بين الزوجتين ,, ماذا أفعل؟","publishedAt":"2024-04-01T18:00:05Z","duration":"PT9M57S","thumbnail":"https://i.ytimg.com/vi/CRV3qAPP5CA/mqdefault.jpg","viewCount":"5225","playlistId":"PLEkQk5xrP-tkGXuZ9atE3k_7it12rUPTs","playlistName":"أسئلة المتابعين","category":"متنوع"},{"id":"Qll_nH7zXz0","title":"كيف يكون لك دور في نهضة الإسلام؟","publishedAt":"2021-11-28T18:00:08Z","duration":"PT10M49S","thumbnail":"https://i.ytimg.com/vi/Qll_nH7zXz0/mqdefault.jpg","viewCount":"5218","playlistId":"PLEkQk5xrP-tkGXuZ9atE3k_7it12rUPTs","playlistName":"أسئلة المتابعين","category":"متنوع"},{"id":"nae-53zn434","title":"كيف أجد فرص عمل مناسبة؟","publishedAt":"2021-07-27T19:39:00Z","duration":"PT11M51S","thumbnail":"https://i.ytimg.com/vi/nae-53zn434/mqdefault.jpg","viewCount":"5207","playlistId":"PLEkQk5xrP-tkGXuZ9atE3k_7it12rUPTs","playlistName":"أسئلة المتابعين","category":"متنوع"},{"id":"f8n5hyiCB-c","title":"هل يجوز نية صلاة الجماعة بالجن المسلمين؟","publishedAt":"2023-02-07T18:00:30Z","duration":"PT8M2S","thumbnail":"https://i.ytimg.com/vi/f8n5hyiCB-c/mqdefault.jpg","viewCount":"5196","playlistId":"PLEkQk5xrP-tkGXuZ9atE3k_7it12rUPTs","playlistName":"أسئلة المتابعين","category":"متنوع"},{"id":"YSIpCuZC9TY","title":"أنا مقبل على الزواج وأخاف من المشاكل الزوجية الكثيرة فماذا أفعل؟","publishedAt":"2023-01-03T18:00:12Z","duration":"PT8M6S","thumbnail":"https://i.ytimg.com/vi/YSIpCuZC9TY/mqdefault.jpg","viewCount":"5117","playlistId":"PLEkQk5xrP-tkGXuZ9atE3k_7it12rUPTs","playlistName":"أسئلة المتابعين","category":"متنوع"},{"id":"0ULNy_e72LU","title":"هل يجوز العمل عند شخص ماله حرام؟","publishedAt":"2024-05-03T17:15:00Z","duration":"PT9M33S","thumbnail":"https://i.ytimg.com/vi/0ULNy_e72LU/mqdefault.jpg","viewCount":"5007","playlistId":"PLEkQk5xrP-tkGXuZ9atE3k_7it12rUPTs","playlistName":"أسئلة المتابعين","category":"متنوع"},{"id":"7LApRtit9AE","title":"كيف تكون أبًا صالحًا؟","publishedAt":"2021-09-19T18:28:54Z","duration":"PT8M30S","thumbnail":"https://i.ytimg.com/vi/7LApRtit9AE/mqdefault.jpg","viewCount":"4989","playlistId":"PLEkQk5xrP-tkGXuZ9atE3k_7it12rUPTs","playlistName":"أسئلة المتابعين","category":"متنوع"},{"id":"bdDL-Jj4idI","title":"ابني مش بيسمع كلامي ازاى أصاحبه؟","publishedAt":"2024-02-10T18:00:13Z","duration":"PT11M40S","thumbnail":"https://i.ytimg.com/vi/bdDL-Jj4idI/mqdefault.jpg","viewCount":"4988","playlistId":"PLEkQk5xrP-tkGXuZ9atE3k_7it12rUPTs","playlistName":"أسئلة المتابعين","category":"متنوع"},{"id":"6txGEjQDW7Y","title":"بحاول أنتظم في الصلاة بقالي سنتين ومش عارف ,, فماذا أفعل؟","publishedAt":"2023-08-03T18:00:03Z","duration":"PT11M13S","thumbnail":"https://i.ytimg.com/vi/6txGEjQDW7Y/mqdefault.jpg","viewCount":"4907","playlistId":"PLEkQk5xrP-tkGXuZ9atE3k_7it12rUPTs","playlistName":"أسئلة المتابعين","category":"متنوع"},{"id":"kYFR7QBZizc","title":"هل العقيدة الأشعرية هي عقيدة الصحابة؟","publishedAt":"2024-04-23T18:00:23Z","duration":"PT8M42S","thumbnail":"https://i.ytimg.com/vi/kYFR7QBZizc/mqdefault.jpg","viewCount":"4899","playlistId":"PLEkQk5xrP-tkGXuZ9atE3k_7it12rUPTs","playlistName":"أسئلة المتابعين","category":"متنوع"},{"id":"C0NxdGHHWKs","title":"أريد الزواج مرة أخرى ,, ماذا أفعل؟","publishedAt":"2021-05-30T17:00:05Z","duration":"PT8M18S","thumbnail":"https://i.ytimg.com/vi/C0NxdGHHWKs/mqdefault.jpg","viewCount":"4798","playlistId":"PLEkQk5xrP-tkGXuZ9atE3k_7it12rUPTs","playlistName":"أسئلة المتابعين","category":"متنوع"},{"id":"4HctQl9Pxhc","title":"أنا بشتغل في مكان ومفيش حد بيتقن عمله غيري,, فماذا أفعل؟","publishedAt":"2024-03-25T18:00:02Z","duration":"PT13M50S","thumbnail":"https://i.ytimg.com/vi/4HctQl9Pxhc/mqdefault.jpg","viewCount":"4774","playlistId":"PLEkQk5xrP-tkGXuZ9atE3k_7it12rUPTs","playlistName":"أسئلة المتابعين","category":"متنوع"},{"id":"hmJPnQlkY5k","title":"ما حكم الغش في الامتحان؟","publishedAt":"2021-06-22T18:00:16Z","duration":"PT10M57S","thumbnail":"https://i.ytimg.com/vi/hmJPnQlkY5k/mqdefault.jpg","viewCount":"4757","playlistId":"PLEkQk5xrP-tkGXuZ9atE3k_7it12rUPTs","playlistName":"أسئلة المتابعين","category":"متنوع"},{"id":"Xw9lAdN_MeI","title":"أنا عندي وسواس قهري كيف أتحرر منه؟ | علاج الوسواس القهري","publishedAt":"2024-08-26T18:00:02Z","duration":"PT8M38S","thumbnail":"https://i.ytimg.com/vi/Xw9lAdN_MeI/mqdefault.jpg","viewCount":"4712","playlistId":"PLEkQk5xrP-tkGXuZ9atE3k_7it12rUPTs","playlistName":"أسئلة المتابعين","category":"متنوع"},{"id":"5QHuwh7bKHk","title":"حكم الحلف بالنبي ﷺ والحلف بغير الله وما الفرق؟","publishedAt":"2023-04-11T19:00:06Z","duration":"PT11M18S","thumbnail":"https://i.ytimg.com/vi/5QHuwh7bKHk/mqdefault.jpg","viewCount":"4666","playlistId":"PLEkQk5xrP-tkGXuZ9atE3k_7it12rUPTs","playlistName":"أسئلة المتابعين","category":"متنوع"},{"id":"HZGTj8keX-o","title":"أخي أكل حقي في الميراث فماذا أفعل معه؟","publishedAt":"2024-07-20T18:53:31Z","duration":"PT13M10S","thumbnail":"https://i.ytimg.com/vi/HZGTj8keX-o/mqdefault.jpg","viewCount":"4635","playlistId":"PLEkQk5xrP-tkGXuZ9atE3k_7it12rUPTs","playlistName":"أسئلة المتابعين","category":"متنوع"},{"id":"cUm5WW0_o4M","title":"هل تفسير وفهم القرآن أفضل من الحفظ بدون فهم؟","publishedAt":"2024-11-09T18:06:38Z","duration":"PT10M57S","thumbnail":"https://i.ytimg.com/vi/cUm5WW0_o4M/mqdefault.jpg","viewCount":"4625","playlistId":"PLEkQk5xrP-tkGXuZ9atE3k_7it12rUPTs","playlistName":"أسئلة المتابعين","category":"متنوع"},{"id":"UH1CTlxExu4","title":"عندي ماضي سيئ وتبت من ذنوبي لكن عندي فتور في الطاعة فماذا أفعل؟","publishedAt":"2025-01-14T19:25:44Z","duration":"PT9M43S","thumbnail":"https://i.ytimg.com/vi/UH1CTlxExu4/mqdefault.jpg","viewCount":"4616","playlistId":"PLEkQk5xrP-tkGXuZ9atE3k_7it12rUPTs","playlistName":"أسئلة المتابعين","category":"متنوع"},{"id":"E2InUpAgNbI","title":"ما الفرق بين التطلع إلى الغنى والزهد؟","publishedAt":"2022-11-12T18:00:04Z","duration":"PT8M11S","thumbnail":"https://i.ytimg.com/vi/E2InUpAgNbI/mqdefault.jpg","viewCount":"4586","playlistId":"PLEkQk5xrP-tkGXuZ9atE3k_7it12rUPTs","playlistName":"أسئلة المتابعين","category":"متنوع"},{"id":"JEb5opEDcgg","title":"أنا متقدملي طبيب ومستواه المادي قليل ,, فماذا أفعل؟","publishedAt":"2025-01-13T20:23:03Z","duration":"PT12M51S","thumbnail":"https://i.ytimg.com/vi/JEb5opEDcgg/mqdefault.jpg","viewCount":"4570","playlistId":"PLEkQk5xrP-tkGXuZ9atE3k_7it12rUPTs","playlistName":"أسئلة المتابعين","category":"متنوع"}],"total":335,"page":10,"pageSize":24,"totalPages":14}