{"items":[{"id":"obWIJXaJmvo","title":"ما حكم تجسس الزوجة على هاتف زوجها؟","publishedAt":"2025-09-01T19:00:46Z","duration":"PT9M30S","thumbnail":"https://i.ytimg.com/vi/obWIJXaJmvo/mqdefault.jpg","viewCount":"2638","playlistId":"PLEkQk5xrP-tkGXuZ9atE3k_7it12rUPTs","playlistName":"أسئلة المتابعين","category":"متنوع"},{"id":"lBU6JH59B8k","title":"زوجي يعامل أمي بطريقة سيئة ويرفض مراعاتي لها ,, فماذا أفعل معه؟","publishedAt":"2024-12-05T19:23:59Z","duration":"PT9M4S","thumbnail":"https://i.ytimg.com/vi/lBU6JH59B8k/mqdefault.jpg","viewCount":"2610","playlistId":"PLEkQk5xrP-tkGXuZ9atE3k_7it12rUPTs","playlistName":"أسئلة المتابعين","category":"متنوع"},{"id":"tqd3ltVk50Q","title":"ما حكم مخالفة القانون أو التحايل عليه؟","publishedAt":"2024-06-03T17:43:38Z","duration":"PT8M7S","thumbnail":"https://i.ytimg.com/vi/tqd3ltVk50Q/mqdefault.jpg","viewCount":"2518","playlistId":"PLEkQk5xrP-tkGXuZ9atE3k_7it12rUPTs","playlistName":"أسئلة المتابعين","category":"متنوع"},{"id":"KFv79lGeFQ8","title":"ما هي عقوبة القتل؟","publishedAt":"2021-12-22T17:30:06Z","duration":"PT10M45S","thumbnail":"https://i.ytimg.com/vi/KFv79lGeFQ8/mqdefault.jpg","viewCount":"2495","playlistId":"PLEkQk5xrP-tkGXuZ9atE3k_7it12rUPTs","playlistName":"أسئلة المتابعين","category":"متنوع"},{"id":"rgefAIkYTlc","title":"أهم 5 سنن نبوية عند استقبال مولودك الجديد","publishedAt":"2025-01-21T19:00:37Z","duration":"PT8M29S","thumbnail":"https://i.ytimg.com/vi/rgefAIkYTlc/mqdefault.jpg","viewCount":"2465","playlistId":"PLEkQk5xrP-tkGXuZ9atE3k_7it12rUPTs","playlistName":"أسئلة المتابعين","category":"متنوع"},{"id":"plqdHDqUTQM","title":"رسالة مهمة لأهالي وطلاب الثانوية العامة","publishedAt":"2024-08-06T17:33:54Z","duration":"PT8M55S","thumbnail":"https://i.ytimg.com/vi/plqdHDqUTQM/mqdefault.jpg","viewCount":"2405","playlistId":"PLEkQk5xrP-tkGXuZ9atE3k_7it12rUPTs","playlistName":"أسئلة المتابعين","category":"متنوع"},{"id":"_D3jcDwKvz8","title":"هل الشيطان سبب الذنوب أم أنه مجرد مبرر؟","publishedAt":"2025-03-24T19:00:26Z","duration":"PT9M29S","thumbnail":"https://i.ytimg.com/vi/_D3jcDwKvz8/mqdefault.jpg","viewCount":"2369","playlistId":"PLEkQk5xrP-tkGXuZ9atE3k_7it12rUPTs","playlistName":"أسئلة المتابعين","category":"متنوع"},{"id":"6T4cr5in24M","title":"أنا عندي وسواس في الطهارة وحاسس أن صلاتي مش مقبولة ,, فماذا أفعل ؟","publishedAt":"2025-07-10T18:15:00Z","duration":"PT8M48S","thumbnail":"https://i.ytimg.com/vi/6T4cr5in24M/mqdefault.jpg","viewCount":"2345","playlistId":"PLEkQk5xrP-tkGXuZ9atE3k_7it12rUPTs","playlistName":"أسئلة المتابعين","category":"متنوع"},{"id":"eCBp1OI_GJQ","title":"ما هي أسهل طريقة للحج؟","publishedAt":"2024-06-05T18:33:47Z","duration":"PT8M54S","thumbnail":"https://i.ytimg.com/vi/eCBp1OI_GJQ/mqdefault.jpg","viewCount":"2340","playlistId":"PLEkQk5xrP-tkGXuZ9atE3k_7it12rUPTs","playlistName":"أسئلة المتابعين","category":"متنوع"},{"id":"Oipjv23535I","title":"هل تجوز الصدقة على المسيحيين وهل يجوز مشاركتهم؟","publishedAt":"2025-01-08T18:23:30Z","duration":"PT8M25S","thumbnail":"https://i.ytimg.com/vi/Oipjv23535I/mqdefault.jpg","viewCount":"2338","playlistId":"PLEkQk5xrP-tkGXuZ9atE3k_7it12rUPTs","playlistName":"أسئلة المتابعين","category":"متنوع"},{"id":"lT514KwzH6Q","title":"ما هي آداب الصلاة في المسجد للنساء والرجال؟","publishedAt":"2024-04-13T18:00:29Z","duration":"PT9M40S","thumbnail":"https://i.ytimg.com/vi/lT514KwzH6Q/mqdefault.jpg","viewCount":"2321","playlistId":"PLEkQk5xrP-tkGXuZ9atE3k_7it12rUPTs","playlistName":"أسئلة المتابعين","category":"متنوع"},{"id":"Lten4oCzDJs","title":"زوجي تزوج عليا ولا يقوم بالنفقة ,, هل يجوز عدم طاعته؟","publishedAt":"2024-10-12T16:15:08Z","duration":"PT10M22S","thumbnail":"https://i.ytimg.com/vi/Lten4oCzDJs/mqdefault.jpg","viewCount":"2312","playlistId":"PLEkQk5xrP-tkGXuZ9atE3k_7it12rUPTs","playlistName":"أسئلة المتابعين","category":"متنوع"},{"id":"uh-LE5X6QhY","title":"ابني مش بيصلي فماذا أفعل معه؟","publishedAt":"2025-03-14T19:00:50Z","duration":"PT8M1S","thumbnail":"https://i.ytimg.com/vi/uh-LE5X6QhY/mqdefault.jpg","viewCount":"2262","playlistId":"PLEkQk5xrP-tkGXuZ9atE3k_7it12rUPTs","playlistName":"أسئلة المتابعين","category":"متنوع"},{"id":"8ZNe06qNKG0","title":"هل يجوز قراءة روايات الخيال والسفر بالزمن؟","publishedAt":"2025-09-09T19:30:00Z","duration":"PT9M26S","thumbnail":"https://i.ytimg.com/vi/8ZNe06qNKG0/mqdefault.jpg","viewCount":"2224","playlistId":"PLEkQk5xrP-tkGXuZ9atE3k_7it12rUPTs","playlistName":"أسئلة المتابعين","category":"متنوع"},{"id":"Ur_cX3z-yQs","title":"أهمية التقويم الهجري في حياتنا وما هي الصلاة الوسطى؟","publishedAt":"2025-06-24T16:00:48Z","duration":"PT9M4S","thumbnail":"https://i.ytimg.com/vi/Ur_cX3z-yQs/mqdefault.jpg","viewCount":"1995","playlistId":"PLEkQk5xrP-tkGXuZ9atE3k_7it12rUPTs","playlistName":"أسئلة المتابعين","category":"متنوع"},{"id":"tq41bTmuplU","title":"كيف نفهم صفات الله مثل اليد وغيرها بلا تجسيم أو تشبيه؟","publishedAt":"2025-08-02T18:31:08Z","duration":"PT9M22S","thumbnail":"https://i.ytimg.com/vi/tq41bTmuplU/mqdefault.jpg","viewCount":"1929","playlistId":"PLEkQk5xrP-tkGXuZ9atE3k_7it12rUPTs","playlistName":"أسئلة المتابعين","category":"متنوع"},{"id":"SRHCgzLohGc","title":"كيف أتخلص من الأرق المستمر ومشاكل النوم؟","publishedAt":"2025-10-16T17:30:07Z","duration":"PT8M1S","thumbnail":"https://i.ytimg.com/vi/SRHCgzLohGc/mqdefault.jpg","viewCount":"1909","playlistId":"PLEkQk5xrP-tkGXuZ9atE3k_7it12rUPTs","playlistName":"أسئلة المتابعين","category":"متنوع"},{"id":"g_duznd_RPs","title":"أنا مقاطع أهلي لأنهم حرموني من الورث ,, فماذا أفعل؟","publishedAt":"2025-03-11T18:33:21Z","duration":"PT8M27S","thumbnail":"https://i.ytimg.com/vi/g_duznd_RPs/mqdefault.jpg","viewCount":"1771","playlistId":"PLEkQk5xrP-tkGXuZ9atE3k_7it12rUPTs","playlistName":"أسئلة المتابعين","category":"متنوع"},{"id":"qPDifLQxYY0","title":"حاجات بنعملها بتفسد التوازن اللي ربنا خلقه في الأرض!","publishedAt":"2025-10-23T18:30:05Z","duration":"PT16M44S","thumbnail":"https://i.ytimg.com/vi/qPDifLQxYY0/mqdefault.jpg","viewCount":"1758","playlistId":"PLEkQk5xrP-tkGXuZ9atE3k_7it12rUPTs","playlistName":"أسئلة المتابعين","category":"متنوع"},{"id":"SIFdaGB65AI","title":"ما حكم زيارة مقامات آل البيت والصالحين؟","publishedAt":"2025-08-31T18:50:17Z","duration":"PT8M13S","thumbnail":"https://i.ytimg.com/vi/SIFdaGB65AI/mqdefault.jpg","viewCount":"1664","playlistId":"PLEkQk5xrP-tkGXuZ9atE3k_7it12rUPTs","playlistName":"أسئلة المتابعين","category":"متنوع"},{"id":"Mp5SWSxZLBQ","title":"هل يجوز عقد الزواج عن طريق الانترنت؟","publishedAt":"2025-03-02T18:30:17Z","duration":"PT8M58S","thumbnail":"https://i.ytimg.com/vi/Mp5SWSxZLBQ/mqdefault.jpg","viewCount":"1308","playlistId":"PLEkQk5xrP-tkGXuZ9atE3k_7it12rUPTs","playlistName":"أسئلة المتابعين","category":"متنوع"},{"id":"gKZYc3GWVJA","title":"ما حكم الكلام أثناء خطبة الجمعة؟","publishedAt":"2025-10-03T18:00:31Z","duration":"PT11M33S","thumbnail":"https://i.ytimg.com/vi/gKZYc3GWVJA/mqdefault.jpg","viewCount":"947","playlistId":"PLEkQk5xrP-tkGXuZ9atE3k_7it12rUPTs","playlistName":"أسئلة المتابعين","category":"متنوع"},{"id":"9zlafNifljE","title":"كيفية حل الخلافات الزوجية؟","publishedAt":"2025-05-10T18:00:14Z","duration":"PT13M30S","thumbnail":"https://i.ytimg.com/vi/9zlafNifljE/mqdefault.jpg","viewCount":"50","playlistId":"PLEkQk5xrP-tkGXuZ9atE3k_7it12rUPTs","playlistName":"أسئلة المتابعين","category":"متنوع"}],"total":335,"page":14,"pageSize":24,"totalPages":14}