{"items":[{"id":"gEKUusEOArw","title":"هل يجوز استخدام السحر في عمل الخير؟","publishedAt":"2022-12-03T18:00:13Z","duration":"PT8M1S","thumbnail":"https://i.ytimg.com/vi/gEKUusEOArw/mqdefault.jpg","viewCount":"11200","playlistId":"PLEkQk5xrP-tkGXuZ9atE3k_7it12rUPTs","playlistName":"أسئلة المتابعين","category":"متنوع"},{"id":"cCTGnrGJeV4","title":"أريد الانتحار,, هل سأموت كافرا؟","publishedAt":"2021-08-22T18:58:48Z","duration":"PT9M12S","thumbnail":"https://i.ytimg.com/vi/cCTGnrGJeV4/mqdefault.jpg","viewCount":"11046","playlistId":"PLEkQk5xrP-tkGXuZ9atE3k_7it12rUPTs","playlistName":"أسئلة المتابعين","category":"متنوع"},{"id":"JMOuvMww5FQ","title":"كيف تتعامل مع شخص يسيء إليك؟","publishedAt":"2023-08-31T18:00:09Z","duration":"PT8M35S","thumbnail":"https://i.ytimg.com/vi/JMOuvMww5FQ/mqdefault.jpg","viewCount":"10955","playlistId":"PLEkQk5xrP-tkGXuZ9atE3k_7it12rUPTs","playlistName":"أسئلة المتابعين","category":"متنوع"},{"id":"r8UQCKhZaAA","title":"أفضل طريقة لإنهاء المشاكل الزوجية","publishedAt":"2023-08-20T18:00:32Z","duration":"PT13M29S","thumbnail":"https://i.ytimg.com/vi/r8UQCKhZaAA/mqdefault.jpg","viewCount":"10945","playlistId":"PLEkQk5xrP-tkGXuZ9atE3k_7it12rUPTs","playlistName":"أسئلة المتابعين","category":"متنوع"},{"id":"teM6OicJoLo","title":"هل يوجد شروط للدخول في طريق التصوف؟","publishedAt":"2023-11-28T19:00:35Z","duration":"PT8M41S","thumbnail":"https://i.ytimg.com/vi/teM6OicJoLo/mqdefault.jpg","viewCount":"10937","playlistId":"PLEkQk5xrP-tkGXuZ9atE3k_7it12rUPTs","playlistName":"أسئلة المتابعين","category":"متنوع"},{"id":"vmt_EIK4UcA","title":"كيف تتخلص من الحب من طرف واحد؟","publishedAt":"2022-01-15T17:29:49Z","duration":"PT10M38S","thumbnail":"https://i.ytimg.com/vi/vmt_EIK4UcA/mqdefault.jpg","viewCount":"10771","playlistId":"PLEkQk5xrP-tkGXuZ9atE3k_7it12rUPTs","playlistName":"أسئلة المتابعين","category":"متنوع"},{"id":"SkGiiEQlcCI","title":"كيف تتغلب على شهوات نفسك في رمضان؟","publishedAt":"2024-03-24T18:00:22Z","duration":"PT16M48S","thumbnail":"https://i.ytimg.com/vi/SkGiiEQlcCI/mqdefault.jpg","viewCount":"10767","playlistId":"PLEkQk5xrP-tkGXuZ9atE3k_7it12rUPTs","playlistName":"أسئلة المتابعين","category":"متنوع"},{"id":"ESxu4Dt0NvM","title":"أنا مليش حظ في الدنيا رغم محافظتي على صلاتي ,, أعمل ايه؟","publishedAt":"2023-09-13T17:00:08Z","duration":"PT8M24S","thumbnail":"https://i.ytimg.com/vi/ESxu4Dt0NvM/mqdefault.jpg","viewCount":"10659","playlistId":"PLEkQk5xrP-tkGXuZ9atE3k_7it12rUPTs","playlistName":"أسئلة المتابعين","category":"متنوع"},{"id":"2LDOSw-cCZM","title":"هل يجوز تقبيل القبور والتبرك بها؟","publishedAt":"2023-03-27T19:00:01Z","duration":"PT8M21S","thumbnail":"https://i.ytimg.com/vi/2LDOSw-cCZM/mqdefault.jpg","viewCount":"10611","playlistId":"PLEkQk5xrP-tkGXuZ9atE3k_7it12rUPTs","playlistName":"أسئلة المتابعين","category":"متنوع"},{"id":"5v5qH7o0-dg","title":"هل يمكن للمريد الدخول في طريقتين؟","publishedAt":"2022-02-11T18:00:29Z","duration":"PT11M55S","thumbnail":"https://i.ytimg.com/vi/5v5qH7o0-dg/mqdefault.jpg","viewCount":"10345","playlistId":"PLEkQk5xrP-tkGXuZ9atE3k_7it12rUPTs","playlistName":"أسئلة المتابعين","category":"متنوع"},{"id":"XMIB7dao-uk","title":"هل النبي ﷺ يعرف حقيقته الروحانية؟","publishedAt":"2022-03-13T18:08:49Z","duration":"PT10M47S","thumbnail":"https://i.ytimg.com/vi/XMIB7dao-uk/mqdefault.jpg","viewCount":"9962","playlistId":"PLEkQk5xrP-tkGXuZ9atE3k_7it12rUPTs","playlistName":"أسئلة المتابعين","category":"متنوع"},{"id":"RpBTb-KUdEM","title":"الرد على التساؤلات الوهابية","publishedAt":"2021-10-05T17:26:53Z","duration":"PT9M47S","thumbnail":"https://i.ytimg.com/vi/RpBTb-KUdEM/mqdefault.jpg","viewCount":"9820","playlistId":"PLEkQk5xrP-tkGXuZ9atE3k_7it12rUPTs","playlistName":"أسئلة المتابعين","category":"متنوع"},{"id":"zXwrMtgitOQ","title":"كيف حققت النجاح في دراستك وعملك؟","publishedAt":"2023-01-10T18:15:11Z","duration":"PT8M25S","thumbnail":"https://i.ytimg.com/vi/zXwrMtgitOQ/mqdefault.jpg","viewCount":"9698","playlistId":"PLEkQk5xrP-tkGXuZ9atE3k_7it12rUPTs","playlistName":"أسئلة المتابعين","category":"متنوع"},{"id":"EPn80Gucc9s","title":"أنا زهقان وتعبان وحاسس أني مش مستمتع بالحياة ,, فماذا أفعل؟","publishedAt":"2023-08-02T18:00:09Z","duration":"PT10M15S","thumbnail":"https://i.ytimg.com/vi/EPn80Gucc9s/mqdefault.jpg","viewCount":"9696","playlistId":"PLEkQk5xrP-tkGXuZ9atE3k_7it12rUPTs","playlistName":"أسئلة المتابعين","category":"متنوع"},{"id":"rCMlvvldiMs","title":"كيف نفهم حديث \"رأيتُ ربِّي في أحسنِ صورة\" بغير تشبيه؟","publishedAt":"2021-12-13T17:30:04Z","duration":"PT8M39S","thumbnail":"https://i.ytimg.com/vi/rCMlvvldiMs/mqdefault.jpg","viewCount":"9614","playlistId":"PLEkQk5xrP-tkGXuZ9atE3k_7it12rUPTs","playlistName":"أسئلة المتابعين","category":"متنوع"},{"id":"x5ojFfZH_xc","title":"كيف أتغلب على ضعف الهمة والفتور في العبادة؟","publishedAt":"2025-07-01T18:12:59Z","duration":"PT12M22S","thumbnail":"https://i.ytimg.com/vi/x5ojFfZH_xc/mqdefault.jpg","viewCount":"9547","playlistId":"PLEkQk5xrP-tkGXuZ9atE3k_7it12rUPTs","playlistName":"أسئلة المتابعين","category":"متنوع"},{"id":"jNoB0ZX3LdI","title":"هل ربنا هيحاسبنا على حديث وخاطر النفس الأمارة بالسوء؟","publishedAt":"2023-12-25T19:09:14Z","duration":"PT8M38S","thumbnail":"https://i.ytimg.com/vi/jNoB0ZX3LdI/mqdefault.jpg","viewCount":"9535","playlistId":"PLEkQk5xrP-tkGXuZ9atE3k_7it12rUPTs","playlistName":"أسئلة المتابعين","category":"متنوع"},{"id":"t5qVByQkmoI","title":"كيف أواظب على الصلاة وأتخلص من شهوة مشاهدة الإباحية؟","publishedAt":"2023-12-02T18:29:03Z","duration":"PT8M48S","thumbnail":"https://i.ytimg.com/vi/t5qVByQkmoI/mqdefault.jpg","viewCount":"9290","playlistId":"PLEkQk5xrP-tkGXuZ9atE3k_7it12rUPTs","playlistName":"أسئلة المتابعين","category":"متنوع"},{"id":"b_nFeUevxzY","title":"أنا أعبد ربنا بس مش بحس بأي مشاعر ,, أعمل ايه؟","publishedAt":"2023-12-28T19:30:10Z","duration":"PT9M53S","thumbnail":"https://i.ytimg.com/vi/b_nFeUevxzY/mqdefault.jpg","viewCount":"9280","playlistId":"PLEkQk5xrP-tkGXuZ9atE3k_7it12rUPTs","playlistName":"أسئلة المتابعين","category":"متنوع"},{"id":"siOGt_19cKs","title":"ما هي أسباب زيادة الرزق وهل يوجد ورد مخصص؟","publishedAt":"2024-06-01T17:28:14Z","duration":"PT8M54S","thumbnail":"https://i.ytimg.com/vi/siOGt_19cKs/mqdefault.jpg","viewCount":"9239","playlistId":"PLEkQk5xrP-tkGXuZ9atE3k_7it12rUPTs","playlistName":"أسئلة المتابعين","category":"متنوع"},{"id":"trZOb6jk35w","title":"الرد على تعليقات بعض المتابعين","publishedAt":"2021-10-16T17:36:42Z","duration":"PT10M53S","thumbnail":"https://i.ytimg.com/vi/trZOb6jk35w/mqdefault.jpg","viewCount":"9230","playlistId":"PLEkQk5xrP-tkGXuZ9atE3k_7it12rUPTs","playlistName":"أسئلة المتابعين","category":"متنوع"},{"id":"39rZZqUtdQc","title":"هل يجوز ذكر الله أثناء التصفح على الانترنت؟","publishedAt":"2023-12-09T18:42:32Z","duration":"PT8M30S","thumbnail":"https://i.ytimg.com/vi/39rZZqUtdQc/mqdefault.jpg","viewCount":"9126","playlistId":"PLEkQk5xrP-tkGXuZ9atE3k_7it12rUPTs","playlistName":"أسئلة المتابعين","category":"متنوع"},{"id":"R69gCmC-Jb0","title":"هل فوائد شهادات الاستثمار حلال؟","publishedAt":"2022-12-17T18:00:14Z","duration":"PT10M30S","thumbnail":"https://i.ytimg.com/vi/R69gCmC-Jb0/mqdefault.jpg","viewCount":"9094","playlistId":"PLEkQk5xrP-tkGXuZ9atE3k_7it12rUPTs","playlistName":"أسئلة المتابعين","category":"متنوع"},{"id":"po-x2WEfE1o","title":"كيف أطلب شيئا من الله وأنا عاصٍ؟","publishedAt":"2021-07-11T17:30:02Z","duration":"PT11M32S","thumbnail":"https://i.ytimg.com/vi/po-x2WEfE1o/mqdefault.jpg","viewCount":"8989","playlistId":"PLEkQk5xrP-tkGXuZ9atE3k_7it12rUPTs","playlistName":"أسئلة المتابعين","category":"متنوع"}],"total":335,"page":5,"pageSize":24,"totalPages":14}