{"items":[{"id":"b5W3rlSjJio","title":"هل يجوز تهنئة المسيحيين بأعيادهم؟","publishedAt":"2024-12-25T17:00:37Z","duration":"PT9M44S","thumbnail":"https://i.ytimg.com/vi/b5W3rlSjJio/mqdefault.jpg","viewCount":"8824","playlistId":"PLEkQk5xrP-tkGXuZ9atE3k_7it12rUPTs","playlistName":"أسئلة المتابعين","category":"متنوع"},{"id":"X0GR2YbAaB4","title":"هل الصلاة على النبي ﷺ أفضل من الاستغفار؟","publishedAt":"2024-09-20T17:25:54Z","duration":"PT9M7S","thumbnail":"https://i.ytimg.com/vi/X0GR2YbAaB4/mqdefault.jpg","viewCount":"8816","playlistId":"PLEkQk5xrP-tkGXuZ9atE3k_7it12rUPTs","playlistName":"أسئلة المتابعين","category":"متنوع"},{"id":"hP8Z3xgx-hU","title":"كيف أنزع حب الدنيا من قلبي؟","publishedAt":"2022-08-11T18:00:14Z","duration":"PT11M4S","thumbnail":"https://i.ytimg.com/vi/hP8Z3xgx-hU/mqdefault.jpg","viewCount":"8814","playlistId":"PLEkQk5xrP-tkGXuZ9atE3k_7it12rUPTs","playlistName":"أسئلة المتابعين","category":"متنوع"},{"id":"7pakbyPl24I","title":"شرح مبسط لعلم الإلهيات والنبوات","publishedAt":"2022-01-17T18:31:57Z","duration":"PT12M20S","thumbnail":"https://i.ytimg.com/vi/7pakbyPl24I/mqdefault.jpg","viewCount":"8806","playlistId":"PLEkQk5xrP-tkGXuZ9atE3k_7it12rUPTs","playlistName":"أسئلة المتابعين","category":"متنوع"},{"id":"vj3DnXPsRQ0","title":"ازاي حفظت القرآن وكيف يمكن تدبره بدلا من قراءته؟","publishedAt":"2023-12-23T19:07:26Z","duration":"PT12M32S","thumbnail":"https://i.ytimg.com/vi/vj3DnXPsRQ0/mqdefault.jpg","viewCount":"8656","playlistId":"PLEkQk5xrP-tkGXuZ9atE3k_7it12rUPTs","playlistName":"أسئلة المتابعين","category":"متنوع"},{"id":"GjjhlZysk0g","title":"كيف تنتفع بالشيخ المربي؟","publishedAt":"2022-01-16T17:58:41Z","duration":"PT8M23S","thumbnail":"https://i.ytimg.com/vi/GjjhlZysk0g/mqdefault.jpg","viewCount":"8642","playlistId":"PLEkQk5xrP-tkGXuZ9atE3k_7it12rUPTs","playlistName":"أسئلة المتابعين","category":"متنوع"},{"id":"hxxB98BCwRA","title":"صديقي انتحر ,, هل ممكن ربنا يغفرله؟","publishedAt":"2024-06-04T18:10:33Z","duration":"PT8M24S","thumbnail":"https://i.ytimg.com/vi/hxxB98BCwRA/mqdefault.jpg","viewCount":"8559","playlistId":"PLEkQk5xrP-tkGXuZ9atE3k_7it12rUPTs","playlistName":"أسئلة المتابعين","category":"متنوع"},{"id":"HYt25-P_G6o","title":"هل التصوير حرام؟","publishedAt":"2021-11-07T19:35:42Z","duration":"PT8M46S","thumbnail":"https://i.ytimg.com/vi/HYt25-P_G6o/mqdefault.jpg","viewCount":"8502","playlistId":"PLEkQk5xrP-tkGXuZ9atE3k_7it12rUPTs","playlistName":"أسئلة المتابعين","category":"متنوع"},{"id":"9kTZCxxW7vA","title":"أريد السفر للعمل في دولة أوروبية وخايف فما رأيك؟","publishedAt":"2023-12-29T18:15:05Z","duration":"PT8M44S","thumbnail":"https://i.ytimg.com/vi/9kTZCxxW7vA/mqdefault.jpg","viewCount":"8432","playlistId":"PLEkQk5xrP-tkGXuZ9atE3k_7it12rUPTs","playlistName":"أسئلة المتابعين","category":"متنوع"},{"id":"wyj6UMP9Jm4","title":"كيفية تعليم الثقافة الجنسية للأطفال بشكل صحيح؟","publishedAt":"2022-09-04T19:01:51Z","duration":"PT10M5S","thumbnail":"https://i.ytimg.com/vi/wyj6UMP9Jm4/mqdefault.jpg","viewCount":"8392","playlistId":"PLEkQk5xrP-tkGXuZ9atE3k_7it12rUPTs","playlistName":"أسئلة المتابعين","category":"متنوع"},{"id":"WzQbCYi70TE","title":"هل يجوز الذكر بالقلب دون تحريك اللسان؟","publishedAt":"2025-02-16T19:17:40Z","duration":"PT10M7S","thumbnail":"https://i.ytimg.com/vi/WzQbCYi70TE/mqdefault.jpg","viewCount":"8302","playlistId":"PLEkQk5xrP-tkGXuZ9atE3k_7it12rUPTs","playlistName":"أسئلة المتابعين","category":"متنوع"},{"id":"G3Stx1yTcN4","title":"كيف نرد على قضية تأبير النخل؟","publishedAt":"2021-07-22T17:16:36Z","duration":"PT11M41S","thumbnail":"https://i.ytimg.com/vi/G3Stx1yTcN4/mqdefault.jpg","viewCount":"8297","playlistId":"PLEkQk5xrP-tkGXuZ9atE3k_7it12rUPTs","playlistName":"أسئلة المتابعين","category":"متنوع"},{"id":"bmMcueZWujM","title":"خايف أموت على معصية أو بدون قول الشهادة,, أعمل ايه؟؟","publishedAt":"2023-06-12T18:00:15Z","duration":"PT8M53S","thumbnail":"https://i.ytimg.com/vi/bmMcueZWujM/mqdefault.jpg","viewCount":"8280","playlistId":"PLEkQk5xrP-tkGXuZ9atE3k_7it12rUPTs","playlistName":"أسئلة المتابعين","category":"متنوع"},{"id":"Lgdb7wXZUr0","title":"هل يمكن للسحر التأثير والتحكم في عقل الإنسان؟","publishedAt":"2024-04-18T18:48:04Z","duration":"PT8M41S","thumbnail":"https://i.ytimg.com/vi/Lgdb7wXZUr0/mqdefault.jpg","viewCount":"8183","playlistId":"PLEkQk5xrP-tkGXuZ9atE3k_7it12rUPTs","playlistName":"أسئلة المتابعين","category":"متنوع"},{"id":"5lA6jE-K2oU","title":"هل أمة النبي ﷺ معصومة من العذاب؟","publishedAt":"2023-08-29T17:30:00Z","duration":"PT9M57S","thumbnail":"https://i.ytimg.com/vi/5lA6jE-K2oU/mqdefault.jpg","viewCount":"8172","playlistId":"PLEkQk5xrP-tkGXuZ9atE3k_7it12rUPTs","playlistName":"أسئلة المتابعين","category":"متنوع"},{"id":"5A6tiKMYm7s","title":"أنا بعاني من جلد الذات واللوم المتواصل لنفسي فماذا أفعل؟","publishedAt":"2025-01-06T18:42:06Z","duration":"PT9M48S","thumbnail":"https://i.ytimg.com/vi/5A6tiKMYm7s/mqdefault.jpg","viewCount":"8143","playlistId":"PLEkQk5xrP-tkGXuZ9atE3k_7it12rUPTs","playlistName":"أسئلة المتابعين","category":"متنوع"},{"id":"a_gTCfTG6vs","title":"كيف تتعامل مع الزيادة المستمرة للدولار؟","publishedAt":"2023-01-05T18:00:01Z","duration":"PT8M35S","thumbnail":"https://i.ytimg.com/vi/a_gTCfTG6vs/mqdefault.jpg","viewCount":"8087","playlistId":"PLEkQk5xrP-tkGXuZ9atE3k_7it12rUPTs","playlistName":"أسئلة المتابعين","category":"متنوع"},{"id":"kspnInSvjT0","title":"ما الفرق بين الجن والشياطين والعفاريت؟","publishedAt":"2024-10-20T17:40:28Z","duration":"PT11M26S","thumbnail":"https://i.ytimg.com/vi/kspnInSvjT0/mqdefault.jpg","viewCount":"8036","playlistId":"PLEkQk5xrP-tkGXuZ9atE3k_7it12rUPTs","playlistName":"أسئلة المتابعين","category":"متنوع"},{"id":"k3vDgCcsBDg","title":"هل يوجد عذاب في القبر؟","publishedAt":"2024-03-03T18:30:29Z","duration":"PT8M10S","thumbnail":"https://i.ytimg.com/vi/k3vDgCcsBDg/mqdefault.jpg","viewCount":"7939","playlistId":"PLEkQk5xrP-tkGXuZ9atE3k_7it12rUPTs","playlistName":"أسئلة المتابعين","category":"متنوع"},{"id":"n-BKcvCSOuM","title":"أنا طبيب وأرتكب بعض الأخطاء التي تؤدي إلى وفاة المرضى ,, ماذا أفعل؟","publishedAt":"2023-11-26T18:30:44Z","duration":"PT11M41S","thumbnail":"https://i.ytimg.com/vi/n-BKcvCSOuM/mqdefault.jpg","viewCount":"7885","playlistId":"PLEkQk5xrP-tkGXuZ9atE3k_7it12rUPTs","playlistName":"أسئلة المتابعين","category":"متنوع"},{"id":"GaXSsBVJ2d0","title":"هل تتوافق الديمقراطية مع الإسلام؟","publishedAt":"2021-04-05T19:58:45Z","duration":"PT9M54S","thumbnail":"https://i.ytimg.com/vi/GaXSsBVJ2d0/mqdefault.jpg","viewCount":"7829","playlistId":"PLEkQk5xrP-tkGXuZ9atE3k_7it12rUPTs","playlistName":"أسئلة المتابعين","category":"متنوع"},{"id":"hImQ40hiHAw","title":"ماذا أفعل إذا أخذت العهد ولم أستطع الوفاء به؟","publishedAt":"2021-09-22T16:24:05Z","duration":"PT11M33S","thumbnail":"https://i.ytimg.com/vi/hImQ40hiHAw/mqdefault.jpg","viewCount":"7774","playlistId":"PLEkQk5xrP-tkGXuZ9atE3k_7it12rUPTs","playlistName":"أسئلة المتابعين","category":"متنوع"},{"id":"P6r3yavMOJ8","title":"علاج الضعف أمام المعاصي","publishedAt":"2021-11-14T19:23:48Z","duration":"PT9M50S","thumbnail":"https://i.ytimg.com/vi/P6r3yavMOJ8/mqdefault.jpg","viewCount":"7757","playlistId":"PLEkQk5xrP-tkGXuZ9atE3k_7it12rUPTs","playlistName":"أسئلة المتابعين","category":"متنوع"},{"id":"jiyyeRyZhD8","title":"ما سر حديث \"العلماء ورثة الانبياء\"؟","publishedAt":"2021-12-19T18:00:13Z","duration":"PT12M8S","thumbnail":"https://i.ytimg.com/vi/jiyyeRyZhD8/mqdefault.jpg","viewCount":"7698","playlistId":"PLEkQk5xrP-tkGXuZ9atE3k_7it12rUPTs","playlistName":"أسئلة المتابعين","category":"متنوع"}],"total":335,"page":6,"pageSize":24,"totalPages":14}