{"items":[{"id":"lPj9HyZw2GY","title":"كيف أتخلص من الغضب وأكون واسع الصدر؟","publishedAt":"2023-07-23T18:00:30Z","duration":"PT10M20S","thumbnail":"https://i.ytimg.com/vi/lPj9HyZw2GY/mqdefault.jpg","viewCount":"18335","playlistId":"PLEkQk5xrP-tkGXuZ9atE3k_7it12rUPTs","playlistName":"أسئلة المتابعين","category":"متنوع"},{"id":"z-Caj2b8FNw","title":"حاسس أني فاشل وعمري بيضيع ,, فماذا أفعل؟","publishedAt":"2023-10-12T17:00:58Z","duration":"PT10M27S","thumbnail":"https://i.ytimg.com/vi/z-Caj2b8FNw/mqdefault.jpg","viewCount":"18159","playlistId":"PLEkQk5xrP-tkGXuZ9atE3k_7it12rUPTs","playlistName":"أسئلة المتابعين","category":"متنوع"},{"id":"KHTBzK42yPw","title":"حكم الاحتفال بالمولد النبوي","publishedAt":"2021-10-13T21:00:04Z","duration":"PT8M41S","thumbnail":"https://i.ytimg.com/vi/KHTBzK42yPw/mqdefault.jpg","viewCount":"18054","playlistId":"PLEkQk5xrP-tkGXuZ9atE3k_7it12rUPTs","playlistName":"أسئلة المتابعين","category":"متنوع"},{"id":"q4wVPB8WPgg","title":"كيفية علاج فتور الهمة في العبادة؟","publishedAt":"2023-04-06T19:00:30Z","duration":"PT8M11S","thumbnail":"https://i.ytimg.com/vi/q4wVPB8WPgg/mqdefault.jpg","viewCount":"17640","playlistId":"PLEkQk5xrP-tkGXuZ9atE3k_7it12rUPTs","playlistName":"أسئلة المتابعين","category":"متنوع"},{"id":"RJM4RK4I-Kg","title":"لا أستطيع الاستيقاظ لصلاة الفجر فماذا أفعل؟","publishedAt":"2024-02-22T19:25:45Z","duration":"PT8M51S","thumbnail":"https://i.ytimg.com/vi/RJM4RK4I-Kg/mqdefault.jpg","viewCount":"17540","playlistId":"PLEkQk5xrP-tkGXuZ9atE3k_7it12rUPTs","playlistName":"أسئلة المتابعين","category":"متنوع"},{"id":"B8PoYKgrXpo","title":"الفرق بين الاستغاثة والتوسل,, وكيفية التعامل مع الأهل الرافضين للتصوف؟","publishedAt":"2021-07-31T17:30:01Z","duration":"PT11M14S","thumbnail":"https://i.ytimg.com/vi/B8PoYKgrXpo/mqdefault.jpg","viewCount":"17494","playlistId":"PLEkQk5xrP-tkGXuZ9atE3k_7it12rUPTs","playlistName":"أسئلة المتابعين","category":"متنوع"},{"id":"MfimGAhT5_0","title":"ما تقسير أن النبيﷺ هو أول خلق الله؟","publishedAt":"2022-11-01T18:00:15Z","duration":"PT15M24S","thumbnail":"https://i.ytimg.com/vi/MfimGAhT5_0/mqdefault.jpg","viewCount":"17414","playlistId":"PLEkQk5xrP-tkGXuZ9atE3k_7it12rUPTs","playlistName":"أسئلة المتابعين","category":"متنوع"},{"id":"tAfVIjts4LY","title":"هل التدخين حرام؟؟","publishedAt":"2021-09-03T19:09:43Z","duration":"PT8M46S","thumbnail":"https://i.ytimg.com/vi/tAfVIjts4LY/mqdefault.jpg","viewCount":"17280","playlistId":"PLEkQk5xrP-tkGXuZ9atE3k_7it12rUPTs","playlistName":"أسئلة المتابعين","category":"متنوع"},{"id":"imqcgdYGiWg","title":"كيف نفهم كلام الأولياء؟","publishedAt":"2021-09-27T18:30:26Z","duration":"PT15M12S","thumbnail":"https://i.ytimg.com/vi/imqcgdYGiWg/mqdefault.jpg","viewCount":"17218","playlistId":"PLEkQk5xrP-tkGXuZ9atE3k_7it12rUPTs","playlistName":"أسئلة المتابعين","category":"متنوع"},{"id":"3cbuCyplB2k","title":"حكم تربية الكلب في البيت؟","publishedAt":"2021-01-07T17:45:02Z","duration":"PT10M59S","thumbnail":"https://i.ytimg.com/vi/3cbuCyplB2k/mqdefault.jpg","viewCount":"17131","playlistId":"PLEkQk5xrP-tkGXuZ9atE3k_7it12rUPTs","playlistName":"أسئلة المتابعين","category":"متنوع"},{"id":"f9_4jXTsP40","title":"ما سبب الوقوف عند ذكر لفظ الجلالة الله؟","publishedAt":"2022-12-12T18:00:26Z","duration":"PT8M39S","thumbnail":"https://i.ytimg.com/vi/f9_4jXTsP40/mqdefault.jpg","viewCount":"16435","playlistId":"PLEkQk5xrP-tkGXuZ9atE3k_7it12rUPTs","playlistName":"أسئلة المتابعين","category":"متنوع"},{"id":"UGZirCHDbq8","title":"أنا زعلان من ربنا كنت متعشم فيه وحسيت انه خذلني في مستقبلي أعمل ايه؟","publishedAt":"2023-10-07T18:00:18Z","duration":"PT12M3S","thumbnail":"https://i.ytimg.com/vi/UGZirCHDbq8/mqdefault.jpg","viewCount":"16386","playlistId":"PLEkQk5xrP-tkGXuZ9atE3k_7it12rUPTs","playlistName":"أسئلة المتابعين","category":"متنوع"},{"id":"VxE9WX8IJZM","title":"ماذا أفعل حتى يزيد حبي للنبي ﷺ؟","publishedAt":"2023-11-30T16:30:20Z","duration":"PT9M28S","thumbnail":"https://i.ytimg.com/vi/VxE9WX8IJZM/mqdefault.jpg","viewCount":"16280","playlistId":"PLEkQk5xrP-tkGXuZ9atE3k_7it12rUPTs","playlistName":"أسئلة المتابعين","category":"متنوع"},{"id":"173t4XewDZA","title":"حكم زيارة قبور الصالحين وطلب المدد منهم","publishedAt":"2023-01-12T18:00:00Z","duration":"PT10M25S","thumbnail":"https://i.ytimg.com/vi/173t4XewDZA/mqdefault.jpg","viewCount":"16151","playlistId":"PLEkQk5xrP-tkGXuZ9atE3k_7it12rUPTs","playlistName":"أسئلة المتابعين","category":"متنوع"},{"id":"jWmwty8ocdc","title":"كيف تحبُّ اللهَ ورسولَه أكثر ممّا سواهما؟","publishedAt":"2022-01-12T17:30:04Z","duration":"PT10M34S","thumbnail":"https://i.ytimg.com/vi/jWmwty8ocdc/mqdefault.jpg","viewCount":"15893","playlistId":"PLEkQk5xrP-tkGXuZ9atE3k_7it12rUPTs","playlistName":"أسئلة المتابعين","category":"متنوع"},{"id":"HSev5FHVVrc","title":"أشعر بالقهر والظلم في عملي ,, ماذا أفعل؟","publishedAt":"2022-08-13T18:00:05Z","duration":"PT10M49S","thumbnail":"https://i.ytimg.com/vi/HSev5FHVVrc/mqdefault.jpg","viewCount":"15715","playlistId":"PLEkQk5xrP-tkGXuZ9atE3k_7it12rUPTs","playlistName":"أسئلة المتابعين","category":"متنوع"},{"id":"4yVRMXuyK-M","title":"كيف نتصدى لحركة تكوين والدعاوى المشابهة؟","publishedAt":"2024-05-11T18:00:03Z","duration":"PT7M59S","thumbnail":"https://i.ytimg.com/vi/4yVRMXuyK-M/mqdefault.jpg","viewCount":"15643","playlistId":"PLEkQk5xrP-tkGXuZ9atE3k_7it12rUPTs","playlistName":"أسئلة المتابعين","category":"متنوع"},{"id":"wt_nqbWorus","title":"ما الدليل على أن النبي ﷺ حي في قبره؟","publishedAt":"2023-09-05T18:00:21Z","duration":"PT8M33S","thumbnail":"https://i.ytimg.com/vi/wt_nqbWorus/mqdefault.jpg","viewCount":"15640","playlistId":"PLEkQk5xrP-tkGXuZ9atE3k_7it12rUPTs","playlistName":"أسئلة المتابعين","category":"متنوع"},{"id":"r_Z2dDWx3Eo","title":"ما هي علامات ظهور المهدي المنتظر؟","publishedAt":"2022-02-26T17:00:35Z","duration":"PT10M39S","thumbnail":"https://i.ytimg.com/vi/r_Z2dDWx3Eo/mqdefault.jpg","viewCount":"15478","playlistId":"PLEkQk5xrP-tkGXuZ9atE3k_7it12rUPTs","playlistName":"أسئلة المتابعين","category":"متنوع"},{"id":"enUITTKkDSE","title":"كيف أعرف أنني ترقيت في طريق التصوف؟","publishedAt":"2022-08-01T18:00:15Z","duration":"PT8M43S","thumbnail":"https://i.ytimg.com/vi/enUITTKkDSE/mqdefault.jpg","viewCount":"15386","playlistId":"PLEkQk5xrP-tkGXuZ9atE3k_7it12rUPTs","playlistName":"أسئلة المتابعين","category":"متنوع"},{"id":"aQkJbpvjju4","title":"ازاي اتعامل مع الناس المؤذية في حياتي؟","publishedAt":"2023-12-24T18:00:02Z","duration":"PT10M15S","thumbnail":"https://i.ytimg.com/vi/aQkJbpvjju4/mqdefault.jpg","viewCount":"15210","playlistId":"PLEkQk5xrP-tkGXuZ9atE3k_7it12rUPTs","playlistName":"أسئلة المتابعين","category":"متنوع"},{"id":"lkz-VovZldQ","title":"كيف أبتعد عن الشهوات والمعاصي؟","publishedAt":"2023-02-06T18:00:22Z","duration":"PT8M1S","thumbnail":"https://i.ytimg.com/vi/lkz-VovZldQ/mqdefault.jpg","viewCount":"15102","playlistId":"PLEkQk5xrP-tkGXuZ9atE3k_7it12rUPTs","playlistName":"أسئلة المتابعين","category":"متنوع"},{"id":"Ua8QIzJYdEQ","title":"عندي اضطرابات نفسية بسبب طلاق أهلي وإهمالهم ,, فماذا أفعل؟","publishedAt":"2025-01-20T19:10:38Z","duration":"PT9M35S","thumbnail":"https://i.ytimg.com/vi/Ua8QIzJYdEQ/mqdefault.jpg","viewCount":"15032","playlistId":"PLEkQk5xrP-tkGXuZ9atE3k_7it12rUPTs","playlistName":"أسئلة المتابعين","category":"متنوع"},{"id":"vvSPqIBaCFc","title":"كيف نرد على من يقول أن الله في السماء؟","publishedAt":"2023-10-04T16:00:51Z","duration":"PT9M53S","thumbnail":"https://i.ytimg.com/vi/vvSPqIBaCFc/mqdefault.jpg","viewCount":"14957","playlistId":"PLEkQk5xrP-tkGXuZ9atE3k_7it12rUPTs","playlistName":"أسئلة المتابعين","category":"متنوع"}],"total":335,"page":3,"pageSize":24,"totalPages":14}