{"items":[{"id":"_obrDQxcuLU","title":"خطر الشذوذ والمثلية | أ.د. يسري جبر","publishedAt":"2022-04-23T15:30:10Z","duration":"PT31M27S","thumbnail":"https://i.ytimg.com/vi/_obrDQxcuLU/mqdefault.jpg","viewCount":"4297","playlistId":"PLEkQk5xrP-tnl7vb7KeAoPd5ZlqKKW8KV","playlistName":"شرح كتاب بهجة النفوس أ.د . يسرى جبر","category":"متنوع"},{"id":"8lG1Wo7iEHg","title":"عجائب صنائع المعروف | مجالس رمضانية","publishedAt":"2023-03-29T15:00:09Z","duration":"PT50M5S","thumbnail":"https://i.ytimg.com/vi/8lG1Wo7iEHg/mqdefault.jpg","viewCount":"4216","playlistId":"PLEkQk5xrP-tnl7vb7KeAoPd5ZlqKKW8KV","playlistName":"شرح كتاب بهجة النفوس أ.د . يسرى جبر","category":"متنوع"},{"id":"gSrvVHl4Xpc","title":"عواقب الألفاظ الخبيثة | مجالس رمضانية","publishedAt":"2023-04-01T15:00:22Z","duration":"PT47M3S","thumbnail":"https://i.ytimg.com/vi/gSrvVHl4Xpc/mqdefault.jpg","viewCount":"4178","playlistId":"PLEkQk5xrP-tnl7vb7KeAoPd5ZlqKKW8KV","playlistName":"شرح كتاب بهجة النفوس أ.د . يسرى جبر","category":"متنوع"},{"id":"_hLidYq2PWI","title":"حقيقة رؤيا النبي ﷺ في المنام | مجالس رمضانية","publishedAt":"2024-03-10T14:00:22Z","duration":"PT30M50S","thumbnail":"https://i.ytimg.com/vi/_hLidYq2PWI/mqdefault.jpg","viewCount":"4120","playlistId":"PLEkQk5xrP-tnl7vb7KeAoPd5ZlqKKW8KV","playlistName":"شرح كتاب بهجة النفوس أ.د . يسرى جبر","category":"متنوع"},{"id":"Ouj_6l-0Xkg","title":"فضل أخر سورة البقرة | أ.د. يسري جبر","publishedAt":"2021-04-29T14:05:00Z","duration":"PT23M3S","thumbnail":"https://i.ytimg.com/vi/Ouj_6l-0Xkg/mqdefault.jpg","viewCount":"4105","playlistId":"PLEkQk5xrP-tnl7vb7KeAoPd5ZlqKKW8KV","playlistName":"شرح كتاب بهجة النفوس أ.د . يسرى جبر","category":"متنوع"},{"id":"giJRqzAAH6g","title":"هل صدق الرؤيا من علامات الساعة؟ | مجالس رمضانية","publishedAt":"2024-03-13T14:00:36Z","duration":"PT37M38S","thumbnail":"https://i.ytimg.com/vi/giJRqzAAH6g/mqdefault.jpg","viewCount":"4075","playlistId":"PLEkQk5xrP-tnl7vb7KeAoPd5ZlqKKW8KV","playlistName":"شرح كتاب بهجة النفوس أ.د . يسرى جبر","category":"متنوع"},{"id":"y2feOz9SxAA","title":"كيف سيكون شكل الناس يوم القيامة؟ | مجالس رمضانية","publishedAt":"2023-04-15T15:00:43Z","duration":"PT26M","thumbnail":"https://i.ytimg.com/vi/y2feOz9SxAA/mqdefault.jpg","viewCount":"4023","playlistId":"PLEkQk5xrP-tnl7vb7KeAoPd5ZlqKKW8KV","playlistName":"شرح كتاب بهجة النفوس أ.د . يسرى جبر","category":"متنوع"},{"id":"eY84dVKEu9g","title":"كيفية كتابة الملائكة للحسنات والسيئات | مجالس رمضانية","publishedAt":"2024-03-31T14:00:32Z","duration":"PT21M50S","thumbnail":"https://i.ytimg.com/vi/eY84dVKEu9g/mqdefault.jpg","viewCount":"3819","playlistId":"PLEkQk5xrP-tnl7vb7KeAoPd5ZlqKKW8KV","playlistName":"شرح كتاب بهجة النفوس أ.د . يسرى جبر","category":"متنوع"},{"id":"9P2aVuSkMJA","title":"3- حديث الإسراء والمعراج بنبينا صلى الله عليه وآله وسلم (المجلس الثالث).   أ.د. يسري جبر","publishedAt":"2018-06-08T08:44:36Z","duration":"PT39M48S","thumbnail":"https://i.ytimg.com/vi/9P2aVuSkMJA/mqdefault.jpg","viewCount":"3794","playlistId":"PLEkQk5xrP-tnl7vb7KeAoPd5ZlqKKW8KV","playlistName":"شرح كتاب بهجة النفوس أ.د . يسرى جبر","category":"متنوع"},{"id":"zcXO2fARutg","title":"شرح دعاء سيد الاستغفار | مجالس رمضانية","publishedAt":"2023-04-11T15:00:50Z","duration":"PT37M45S","thumbnail":"https://i.ytimg.com/vi/zcXO2fARutg/mqdefault.jpg","viewCount":"3779","playlistId":"PLEkQk5xrP-tnl7vb7KeAoPd5ZlqKKW8KV","playlistName":"شرح كتاب بهجة النفوس أ.د . يسرى جبر","category":"متنوع"},{"id":"sNN3puAoADM","title":"ما هي أنواع الزنا؟ | مجالس رمضانية","publishedAt":"2023-04-08T15:00:37Z","duration":"PT28M12S","thumbnail":"https://i.ytimg.com/vi/sNN3puAoADM/mqdefault.jpg","viewCount":"3751","playlistId":"PLEkQk5xrP-tnl7vb7KeAoPd5ZlqKKW8KV","playlistName":"شرح كتاب بهجة النفوس أ.د . يسرى جبر","category":"متنوع"},{"id":"9YS1_BVKLAM","title":"الأخذ بالأسباب والتوكل على الله | أ.د. يسري جبر","publishedAt":"2022-04-14T15:30:03Z","duration":"PT20M12S","thumbnail":"https://i.ytimg.com/vi/9YS1_BVKLAM/mqdefault.jpg","viewCount":"3727","playlistId":"PLEkQk5xrP-tnl7vb7KeAoPd5ZlqKKW8KV","playlistName":"شرح كتاب بهجة النفوس أ.د . يسرى جبر","category":"متنوع"},{"id":"ki4VlgP4Urg","title":"حديث (١٦٦) عَرْضُ الجَنَّةِ أو النَّارِ عَلَى الِإنسَانِ حِينَ مَوتِهِ.  أ.د. يسري جبر","publishedAt":"2019-05-19T18:05:57Z","duration":"PT33M51S","thumbnail":"https://i.ytimg.com/vi/ki4VlgP4Urg/mqdefault.jpg","viewCount":"3673","playlistId":"PLEkQk5xrP-tnl7vb7KeAoPd5ZlqKKW8KV","playlistName":"شرح كتاب بهجة النفوس أ.د . يسرى جبر","category":"متنوع"},{"id":"-Wwa13CJUjs","title":"جواز التوسل بالنَّبيّ ﷺ | أ.د. يسري جبر","publishedAt":"2022-04-29T15:30:00Z","duration":"PT25M44S","thumbnail":"https://i.ytimg.com/vi/-Wwa13CJUjs/mqdefault.jpg","viewCount":"3660","playlistId":"PLEkQk5xrP-tnl7vb7KeAoPd5ZlqKKW8KV","playlistName":"شرح كتاب بهجة النفوس أ.د . يسرى جبر","category":"متنوع"},{"id":"1xZituGy8GA","title":"2- حديث الإسراء والمعراج بنبينا صلى الله عليه وآله وسلم ( المجلس الثاني ).   أ.د. يسري جبر","publishedAt":"2018-06-06T23:52:17Z","duration":"PT28M23S","thumbnail":"https://i.ytimg.com/vi/1xZituGy8GA/mqdefault.jpg","viewCount":"3631","playlistId":"PLEkQk5xrP-tnl7vb7KeAoPd5ZlqKKW8KV","playlistName":"شرح كتاب بهجة النفوس أ.د . يسرى جبر","category":"متنوع"},{"id":"apcCdnNfaMU","title":"سر إفطار النبي ﷺ علي التمر | أ.د. يسري جبر","publishedAt":"2021-05-10T16:00:02Z","duration":"PT34M39S","thumbnail":"https://i.ytimg.com/vi/apcCdnNfaMU/mqdefault.jpg","viewCount":"3336","playlistId":"PLEkQk5xrP-tnl7vb7KeAoPd5ZlqKKW8KV","playlistName":"شرح كتاب بهجة النفوس أ.د . يسرى جبر","category":"متنوع"},{"id":"HDDAdr-eQHo","title":"متى يجوز الخروج على الحاكم؟ | مجالس رمضانية","publishedAt":"2024-03-16T14:00:13Z","duration":"PT31M27S","thumbnail":"https://i.ytimg.com/vi/HDDAdr-eQHo/mqdefault.jpg","viewCount":"3333","playlistId":"PLEkQk5xrP-tnl7vb7KeAoPd5ZlqKKW8KV","playlistName":"شرح كتاب بهجة النفوس أ.د . يسرى جبر","category":"متنوع"},{"id":"xUw_OcMmidA","title":"رحمة الله بعباده | أ.د. يسري جبر","publishedAt":"2022-04-28T15:30:07Z","duration":"PT33M36S","thumbnail":"https://i.ytimg.com/vi/xUw_OcMmidA/mqdefault.jpg","viewCount":"3324","playlistId":"PLEkQk5xrP-tnl7vb7KeAoPd5ZlqKKW8KV","playlistName":"شرح كتاب بهجة النفوس أ.د . يسرى جبر","category":"متنوع"},{"id":"OH4aafWfeAw","title":"الخلود في الجنة والنار | مجالس رمضانية","publishedAt":"2023-04-17T19:00:09Z","duration":"PT22M16S","thumbnail":"https://i.ytimg.com/vi/OH4aafWfeAw/mqdefault.jpg","viewCount":"3112","playlistId":"PLEkQk5xrP-tnl7vb7KeAoPd5ZlqKKW8KV","playlistName":"شرح كتاب بهجة النفوس أ.د . يسرى جبر","category":"متنوع"},{"id":"qp3t4apduPU","title":"لماذا يعم العذاب الصالح والفاسد في الدنيا؟ | مجالس رمضانية","publishedAt":"2024-03-20T14:00:42Z","duration":"PT26M13S","thumbnail":"https://i.ytimg.com/vi/qp3t4apduPU/mqdefault.jpg","viewCount":"3099","playlistId":"PLEkQk5xrP-tnl7vb7KeAoPd5ZlqKKW8KV","playlistName":"شرح كتاب بهجة النفوس أ.د . يسرى جبر","category":"متنوع"},{"id":"fj2TwQl5cX8","title":"ما الفرق بين الحكمة والقدرة؟ | مجالس رمضانية","publishedAt":"2024-03-25T14:00:27Z","duration":"PT24M46S","thumbnail":"https://i.ytimg.com/vi/fj2TwQl5cX8/mqdefault.jpg","viewCount":"3081","playlistId":"PLEkQk5xrP-tnl7vb7KeAoPd5ZlqKKW8KV","playlistName":"شرح كتاب بهجة النفوس أ.د . يسرى جبر","category":"متنوع"},{"id":"jv7Ewb5C8J8","title":"خطورة الكذب في الرؤيا والتجسس | مجالس رمضانية","publishedAt":"2024-03-14T14:00:36Z","duration":"PT35M16S","thumbnail":"https://i.ytimg.com/vi/jv7Ewb5C8J8/mqdefault.jpg","viewCount":"2992","playlistId":"PLEkQk5xrP-tnl7vb7KeAoPd5ZlqKKW8KV","playlistName":"شرح كتاب بهجة النفوس أ.د . يسرى جبر","category":"متنوع"},{"id":"Nt8p-g22i3E","title":"سعة رحمة الله تعالى بعباده | أ.د. يسري جبر","publishedAt":"2022-04-30T15:30:02Z","duration":"PT28M10S","thumbnail":"https://i.ytimg.com/vi/Nt8p-g22i3E/mqdefault.jpg","viewCount":"2934","playlistId":"PLEkQk5xrP-tnl7vb7KeAoPd5ZlqKKW8KV","playlistName":"شرح كتاب بهجة النفوس أ.د . يسرى جبر","category":"متنوع"},{"id":"0PPb_j11iqY","title":"التشهد والصلاة الإبراهيمية | مجالس رمضانية","publishedAt":"2023-04-07T15:00:02Z","duration":"PT48M41S","thumbnail":"https://i.ytimg.com/vi/0PPb_j11iqY/mqdefault.jpg","viewCount":"2894","playlistId":"PLEkQk5xrP-tnl7vb7KeAoPd5ZlqKKW8KV","playlistName":"شرح كتاب بهجة النفوس أ.د . يسرى جبر","category":"متنوع"}],"total":237,"page":2,"pageSize":24,"totalPages":10}