{"items":[{"id":"NxZ93vOwkbA","title":"25- شرح اللؤلؤ والمرجان كتاب الصلاة من باب ٢٢","publishedAt":"2020-01-09T07:09:18Z","duration":"PT28M40S","thumbnail":"https://i.ytimg.com/vi/NxZ93vOwkbA/mqdefault.jpg","viewCount":"772","playlistId":"PLEkQk5xrP-tmKNjtYLfhATC37QdIsTMe0","playlistName":"شرح كتاب اللؤلؤ والمرجان فيما اتفق عليه الشيخان إماما المحدثين البخاري ومسلم. أ.د. يسري جبر","category":"حديث"},{"id":"uB2ngqviNq4","title":"26- شرح اللؤلؤ والمرجان كتاب الصلاة من باب ٢٩","publishedAt":"2020-01-09T15:31:34Z","duration":"PT22M30S","thumbnail":"https://i.ytimg.com/vi/uB2ngqviNq4/mqdefault.jpg","viewCount":"629","playlistId":"PLEkQk5xrP-tmKNjtYLfhATC37QdIsTMe0","playlistName":"شرح كتاب اللؤلؤ والمرجان فيما اتفق عليه الشيخان إماما المحدثين البخاري ومسلم. أ.د. يسري جبر","category":"حديث"},{"id":"oKoOS3AITK8","title":"27- شرح اللؤلؤ والمرجان كتاب الصلاة من باب ٣٤","publishedAt":"2020-01-10T07:29:34Z","duration":"PT20M10S","thumbnail":"https://i.ytimg.com/vi/oKoOS3AITK8/mqdefault.jpg","viewCount":"769","playlistId":"PLEkQk5xrP-tmKNjtYLfhATC37QdIsTMe0","playlistName":"شرح كتاب اللؤلؤ والمرجان فيما اتفق عليه الشيخان إماما المحدثين البخاري ومسلم. أ.د. يسري جبر","category":"حديث"},{"id":"TcL6cJpBDqA","title":"28- شرح اللؤلؤ والمرجان كتاب الصلاة من باب ٣٧","publishedAt":"2020-01-13T08:37:11Z","duration":"PT29M31S","thumbnail":"https://i.ytimg.com/vi/TcL6cJpBDqA/mqdefault.jpg","viewCount":"692","playlistId":"PLEkQk5xrP-tmKNjtYLfhATC37QdIsTMe0","playlistName":"شرح كتاب اللؤلؤ والمرجان فيما اتفق عليه الشيخان إماما المحدثين البخاري ومسلم. أ.د. يسري جبر","category":"حديث"},{"id":"nrY4ssB6pj4","title":"29- شرح اللؤلؤ والمرجان كتاب الصلاة من باب ٤٩","publishedAt":"2020-01-14T02:03:49Z","duration":"PT23M16S","thumbnail":"https://i.ytimg.com/vi/nrY4ssB6pj4/mqdefault.jpg","viewCount":"622","playlistId":"PLEkQk5xrP-tmKNjtYLfhATC37QdIsTMe0","playlistName":"شرح كتاب اللؤلؤ والمرجان فيما اتفق عليه الشيخان إماما المحدثين البخاري ومسلم. أ.د. يسري جبر","category":"حديث"},{"id":"NKblwYCm1_w","title":"30- شرح اللؤلؤ والمرجان كتاب المساجد ومواضع الصلاة من باب أوله","publishedAt":"2020-01-14T11:35:08Z","duration":"PT41M","thumbnail":"https://i.ytimg.com/vi/NKblwYCm1_w/mqdefault.jpg","viewCount":"772","playlistId":"PLEkQk5xrP-tmKNjtYLfhATC37QdIsTMe0","playlistName":"شرح كتاب اللؤلؤ والمرجان فيما اتفق عليه الشيخان إماما المحدثين البخاري ومسلم. أ.د. يسري جبر","category":"حديث"},{"id":"19depwaUcGQ","title":"31- شرح اللؤلؤ والمرجان كتاب المساجد ومواضع الصلاة من باب ٤","publishedAt":"2020-01-15T09:59:03Z","duration":"PT31M29S","thumbnail":"https://i.ytimg.com/vi/19depwaUcGQ/mqdefault.jpg","viewCount":"570","playlistId":"PLEkQk5xrP-tmKNjtYLfhATC37QdIsTMe0","playlistName":"شرح كتاب اللؤلؤ والمرجان فيما اتفق عليه الشيخان إماما المحدثين البخاري ومسلم. أ.د. يسري جبر","category":"حديث"},{"id":"j0UBv3yvRxM","title":"32- شرح اللؤلؤ والمرجان كتاب المساجد ومواضع الصلاة من باب ١٩","publishedAt":"2020-01-15T09:59:04Z","duration":"PT38M16S","thumbnail":"https://i.ytimg.com/vi/j0UBv3yvRxM/mqdefault.jpg","viewCount":"708","playlistId":"PLEkQk5xrP-tmKNjtYLfhATC37QdIsTMe0","playlistName":"شرح كتاب اللؤلؤ والمرجان فيما اتفق عليه الشيخان إماما المحدثين البخاري ومسلم. أ.د. يسري جبر","category":"حديث"},{"id":"rW_g-i5Nepc","title":"33- شرح اللؤلؤ والمرجان كتاب المساجد ومواضع الصلاة من باب ٢٦","publishedAt":"2020-01-16T02:43:23Z","duration":"PT29M29S","thumbnail":"https://i.ytimg.com/vi/rW_g-i5Nepc/mqdefault.jpg","viewCount":"580","playlistId":"PLEkQk5xrP-tmKNjtYLfhATC37QdIsTMe0","playlistName":"شرح كتاب اللؤلؤ والمرجان فيما اتفق عليه الشيخان إماما المحدثين البخاري ومسلم. أ.د. يسري جبر","category":"حديث"},{"id":"_EMwk1QhGIs","title":"34- شرح اللؤلؤ والمرجان كتاب المساجد ومواضع الصلاة من باب ٣١","publishedAt":"2020-01-16T02:43:33Z","duration":"PT32M22S","thumbnail":"https://i.ytimg.com/vi/_EMwk1QhGIs/mqdefault.jpg","viewCount":"574","playlistId":"PLEkQk5xrP-tmKNjtYLfhATC37QdIsTMe0","playlistName":"شرح كتاب اللؤلؤ والمرجان فيما اتفق عليه الشيخان إماما المحدثين البخاري ومسلم. أ.د. يسري جبر","category":"حديث"},{"id":"jnZgiQKzcZ4","title":"35- شرح اللؤلؤ والمرجان كتاب المساجد ومواضع الصلاة من باب ٣٦","publishedAt":"2020-01-16T21:48:31Z","duration":"PT29M57S","thumbnail":"https://i.ytimg.com/vi/jnZgiQKzcZ4/mqdefault.jpg","viewCount":"537","playlistId":"PLEkQk5xrP-tmKNjtYLfhATC37QdIsTMe0","playlistName":"شرح كتاب اللؤلؤ والمرجان فيما اتفق عليه الشيخان إماما المحدثين البخاري ومسلم. أ.د. يسري جبر","category":"حديث"},{"id":"YzF4LBbB1wM","title":"36- شرح اللؤلؤ والمرجان كتاب المساجد ومواضع الصلاة من باب ٤٢","publishedAt":"2020-01-16T21:48:31Z","duration":"PT35M18S","thumbnail":"https://i.ytimg.com/vi/YzF4LBbB1wM/mqdefault.jpg","viewCount":"624","playlistId":"PLEkQk5xrP-tmKNjtYLfhATC37QdIsTMe0","playlistName":"شرح كتاب اللؤلؤ والمرجان فيما اتفق عليه الشيخان إماما المحدثين البخاري ومسلم. أ.د. يسري جبر","category":"حديث"},{"id":"uJbFffVV7Vw","title":"38- شرح اللؤلؤ والمرجان كتاب الصلاة المسافرين وقصرها من أوله","publishedAt":"2020-01-18T11:25:31Z","duration":"PT37M49S","thumbnail":"https://i.ytimg.com/vi/uJbFffVV7Vw/mqdefault.jpg","viewCount":"710","playlistId":"PLEkQk5xrP-tmKNjtYLfhATC37QdIsTMe0","playlistName":"شرح كتاب اللؤلؤ والمرجان فيما اتفق عليه الشيخان إماما المحدثين البخاري ومسلم. أ.د. يسري جبر","category":"حديث"},{"id":"aVxMxCrMc0c","title":"37- شرح اللؤلؤ والمرجان كتاب المساجد ومواضع الصلاة من باب ٥١","publishedAt":"2020-01-18T11:25:31Z","duration":"PT32M10S","thumbnail":"https://i.ytimg.com/vi/aVxMxCrMc0c/mqdefault.jpg","viewCount":"545","playlistId":"PLEkQk5xrP-tmKNjtYLfhATC37QdIsTMe0","playlistName":"شرح كتاب اللؤلؤ والمرجان فيما اتفق عليه الشيخان إماما المحدثين البخاري ومسلم. أ.د. يسري جبر","category":"حديث"},{"id":"Tzzi9umIc3Q","title":"39- شرح اللؤلؤ والمرجان كتاب الصلاة المسافرين وقصرها من باب ٥","publishedAt":"2020-01-18T22:10:27Z","duration":"PT41M57S","thumbnail":"https://i.ytimg.com/vi/Tzzi9umIc3Q/mqdefault.jpg","viewCount":"603","playlistId":"PLEkQk5xrP-tmKNjtYLfhATC37QdIsTMe0","playlistName":"شرح كتاب اللؤلؤ والمرجان فيما اتفق عليه الشيخان إماما المحدثين البخاري ومسلم. أ.د. يسري جبر","category":"حديث"},{"id":"_YkCX6k__uI","title":"40- شرح اللؤلؤ والمرجان كتاب الصلاة المسافرين وقصرها من باب ١٥","publishedAt":"2020-01-18T22:10:27Z","duration":"PT37M38S","thumbnail":"https://i.ytimg.com/vi/_YkCX6k__uI/mqdefault.jpg","viewCount":"570","playlistId":"PLEkQk5xrP-tmKNjtYLfhATC37QdIsTMe0","playlistName":"شرح كتاب اللؤلؤ والمرجان فيما اتفق عليه الشيخان إماما المحدثين البخاري ومسلم. أ.د. يسري جبر","category":"حديث"},{"id":"L87U1Ye1rDk","title":"41- شرح اللؤلؤ والمرجان كتاب الصلاة المسافرين وقصرها من باب ٢٧","publishedAt":"2020-01-20T07:35:05Z","duration":"PT30M3S","thumbnail":"https://i.ytimg.com/vi/L87U1Ye1rDk/mqdefault.jpg","viewCount":"547","playlistId":"PLEkQk5xrP-tmKNjtYLfhATC37QdIsTMe0","playlistName":"شرح كتاب اللؤلؤ والمرجان فيما اتفق عليه الشيخان إماما المحدثين البخاري ومسلم. أ.د. يسري جبر","category":"حديث"},{"id":"P0JzC3sGz8Y","title":"42- شرح اللؤلؤ والمرجان كتاب الصلاة المسافرين وقصرها من باب ٣٦","publishedAt":"2020-01-21T07:02:01Z","duration":"PT14M35S","thumbnail":"https://i.ytimg.com/vi/P0JzC3sGz8Y/mqdefault.jpg","viewCount":"505","playlistId":"PLEkQk5xrP-tmKNjtYLfhATC37QdIsTMe0","playlistName":"شرح كتاب اللؤلؤ والمرجان فيما اتفق عليه الشيخان إماما المحدثين البخاري ومسلم. أ.د. يسري جبر","category":"حديث"},{"id":"_LZnl4_uJSo","title":"43- شرح اللؤلؤ والمرجان كتاب الصلاة المسافرين وقصرها من باب ٤٣","publishedAt":"2020-01-21T21:31:32Z","duration":"PT39M5S","thumbnail":"https://i.ytimg.com/vi/_LZnl4_uJSo/mqdefault.jpg","viewCount":"638","playlistId":"PLEkQk5xrP-tmKNjtYLfhATC37QdIsTMe0","playlistName":"شرح كتاب اللؤلؤ والمرجان فيما اتفق عليه الشيخان إماما المحدثين البخاري ومسلم. أ.د. يسري جبر","category":"حديث"},{"id":"Fv-Vh3ilnF8","title":"44- شرح اللؤلؤ والمرجان كتاب الجمعة من أوله","publishedAt":"2020-01-22T09:40:38Z","duration":"PT32M10S","thumbnail":"https://i.ytimg.com/vi/Fv-Vh3ilnF8/mqdefault.jpg","viewCount":"529","playlistId":"PLEkQk5xrP-tmKNjtYLfhATC37QdIsTMe0","playlistName":"شرح كتاب اللؤلؤ والمرجان فيما اتفق عليه الشيخان إماما المحدثين البخاري ومسلم. أ.د. يسري جبر","category":"حديث"},{"id":"lHEtIZ4RcMk","title":"45- شرح اللؤلؤ والمرجان كتاب صلاة العيدين من أوله","publishedAt":"2020-01-23T11:43:00Z","duration":"PT26M54S","thumbnail":"https://i.ytimg.com/vi/lHEtIZ4RcMk/mqdefault.jpg","viewCount":"457","playlistId":"PLEkQk5xrP-tmKNjtYLfhATC37QdIsTMe0","playlistName":"شرح كتاب اللؤلؤ والمرجان فيما اتفق عليه الشيخان إماما المحدثين البخاري ومسلم. أ.د. يسري جبر","category":"حديث"},{"id":"wwDRDIVVD1s","title":"46- شرح اللؤلؤ والمرجان كتاب صلاة الاستسقاء من أوله","publishedAt":"2020-01-26T10:53:44Z","duration":"PT18M28S","thumbnail":"https://i.ytimg.com/vi/wwDRDIVVD1s/mqdefault.jpg","viewCount":"429","playlistId":"PLEkQk5xrP-tmKNjtYLfhATC37QdIsTMe0","playlistName":"شرح كتاب اللؤلؤ والمرجان فيما اتفق عليه الشيخان إماما المحدثين البخاري ومسلم. أ.د. يسري جبر","category":"حديث"},{"id":"2k6UyRDHSBA","title":"47- شرح اللؤلؤ والمرجان كتاب صلاة الكسوف من أوله","publishedAt":"2020-01-27T06:17:59Z","duration":"PT26M36S","thumbnail":"https://i.ytimg.com/vi/2k6UyRDHSBA/mqdefault.jpg","viewCount":"420","playlistId":"PLEkQk5xrP-tmKNjtYLfhATC37QdIsTMe0","playlistName":"شرح كتاب اللؤلؤ والمرجان فيما اتفق عليه الشيخان إماما المحدثين البخاري ومسلم. أ.د. يسري جبر","category":"حديث"},{"id":"IVlNJELGUNA","title":"48- شرح اللؤلؤ والمرجان كتاب صلاة الكسوف من باب ٣","publishedAt":"2020-01-27T22:03:30Z","duration":"PT21M37S","thumbnail":"https://i.ytimg.com/vi/IVlNJELGUNA/mqdefault.jpg","viewCount":"357","playlistId":"PLEkQk5xrP-tmKNjtYLfhATC37QdIsTMe0","playlistName":"شرح كتاب اللؤلؤ والمرجان فيما اتفق عليه الشيخان إماما المحدثين البخاري ومسلم. أ.د. يسري جبر","category":"حديث"}],"total":192,"page":2,"pageSize":24,"totalPages":8}