{"items":[{"id":"w7SU35LeYoc","title":"رُبَّما دلَّهم الأدب على ترك الطلب، اعتمادا على قسمته، واشتغالا بذكره عن مسألته","publishedAt":"2017-05-20T18:03:53Z","duration":"PT10M2S","thumbnail":"https://i.ytimg.com/vi/w7SU35LeYoc/mqdefault.jpg","viewCount":"1230","playlistId":"PLEkQk5xrP-tkI_meE148wc7V7XHlB0WPb","playlistName":"من الحكم العطائية  د. يسري جبر","category":"متنوع"},{"id":"TXO4cipo7ks","title":"وُرُودُ الفاقات أعيادُ المُريدين","publishedAt":"2017-05-27T16:34:39Z","duration":"PT15M33S","thumbnail":"https://i.ytimg.com/vi/TXO4cipo7ks/mqdefault.jpg","viewCount":"5954","playlistId":"PLEkQk5xrP-tkI_meE148wc7V7XHlB0WPb","playlistName":"من الحكم العطائية  د. يسري جبر","category":"متنوع"},{"id":"unonb1Dud7k","title":"الفاقاتُ بُسُطُ المَوَاهِبِ","publishedAt":"2017-05-28T17:22:28Z","duration":"PT8M12S","thumbnail":"https://i.ytimg.com/vi/unonb1Dud7k/mqdefault.jpg","viewCount":"3956","playlistId":"PLEkQk5xrP-tkI_meE148wc7V7XHlB0WPb","playlistName":"من الحكم العطائية  د. يسري جبر","category":"متنوع"},{"id":"Od2TPaU5a-c","title":"إذا أردت وُرود المواهب عليك، صَحِّحِ الفقر والفاقةَ لديك (إِنَّمَا الصَّدَقَاتُ لِلْفُقَرَاءِ)","publishedAt":"2017-05-31T16:01:35Z","duration":"PT7M44S","thumbnail":"https://i.ytimg.com/vi/Od2TPaU5a-c/mqdefault.jpg","viewCount":"5501","playlistId":"PLEkQk5xrP-tkI_meE148wc7V7XHlB0WPb","playlistName":"من الحكم العطائية  د. يسري جبر","category":"متنوع"},{"id":"o_4__rO8FZw","title":"ربما رُزق الكرامة مَن لم تكمُل له الاستقامة","publishedAt":"2017-06-04T16:43:16Z","duration":"PT10M4S","thumbnail":"https://i.ytimg.com/vi/o_4__rO8FZw/mqdefault.jpg","viewCount":"11811","playlistId":"PLEkQk5xrP-tkI_meE148wc7V7XHlB0WPb","playlistName":"من الحكم العطائية  د. يسري جبر","category":"متنوع"},{"id":"ayLCEef7Bx4","title":"من علامة إقامة الحق لك في الشيء: إدامته إياك فيه مع حصول النتائج","publishedAt":"2017-06-12T17:26:11Z","duration":"PT3M48S","thumbnail":"https://i.ytimg.com/vi/ayLCEef7Bx4/mqdefault.jpg","viewCount":"1566","playlistId":"PLEkQk5xrP-tkI_meE148wc7V7XHlB0WPb","playlistName":"من الحكم العطائية  د. يسري جبر","category":"متنوع"},{"id":"7uXYl9WdnzA","title":"مَن عبّر من بساط إحسانه، أصمتته الإساءة، ومَن عبّر من بساط إحسان الله إليه، لم يصمت إذا أساء","publishedAt":"2017-06-13T15:32:09Z","duration":"PT11M35S","thumbnail":"https://i.ytimg.com/vi/7uXYl9WdnzA/mqdefault.jpg","viewCount":"2973","playlistId":"PLEkQk5xrP-tkI_meE148wc7V7XHlB0WPb","playlistName":"من الحكم العطائية  د. يسري جبر","category":"متنوع"},{"id":"TxRQLrkZ8MY","title":"تسبق أنوارُ الحكماء أقوالَهم ..  فحيث صار التنوير، وصل التعبير.","publishedAt":"2017-06-14T17:52:43Z","duration":"PT12M30S","thumbnail":"https://i.ytimg.com/vi/TxRQLrkZ8MY/mqdefault.jpg","viewCount":"1082","playlistId":"PLEkQk5xrP-tkI_meE148wc7V7XHlB0WPb","playlistName":"من الحكم العطائية  د. يسري جبر","category":"متنوع"},{"id":"6VJbtwl_exk","title":"كُلُّ كَلامٍ يَبرُزُ وَعَليهِ كِسْوَةُ القَلبِ الذي مِنهُ بَرَزَ","publishedAt":"2017-08-11T08:50:57Z","duration":"PT10M26S","thumbnail":"https://i.ytimg.com/vi/6VJbtwl_exk/mqdefault.jpg","viewCount":"1361","playlistId":"PLEkQk5xrP-tkI_meE148wc7V7XHlB0WPb","playlistName":"من الحكم العطائية  د. يسري جبر","category":"متنوع"},{"id":"UZQGZepBD7s","title":"عباراتهم إما لفيضان وجد أو لقصد هداية مُريد فالأول حال:السالكين والثاني:حال أرباب المُكنة والمتحققين","publishedAt":"2017-08-14T20:37:37Z","duration":"PT19M24S","thumbnail":"https://i.ytimg.com/vi/UZQGZepBD7s/mqdefault.jpg","viewCount":"827","playlistId":"PLEkQk5xrP-tkI_meE148wc7V7XHlB0WPb","playlistName":"من الحكم العطائية  د. يسري جبر","category":"متنوع"},{"id":"P-aRnGmEU7E","title":"لا ينبغي للسالك أن يُعبِّر عن وارداته، فإن ذلك يُقلُّ عملها في قلبه، ويمنعه وجود الصدق مع ربه.","publishedAt":"2017-08-23T19:10:04Z","duration":"PT4M3S","thumbnail":"https://i.ytimg.com/vi/P-aRnGmEU7E/mqdefault.jpg","viewCount":"1341","playlistId":"PLEkQk5xrP-tkI_meE148wc7V7XHlB0WPb","playlistName":"من الحكم العطائية  د. يسري جبر","category":"متنوع"},{"id":"qRCPwFBaGl0","title":"لاتمدنَّ يدك إلى الأخذ من الخلائق إلا أن ترى أنَّ المعطي فيهم مولاك فإذا كنت كذلك فخذ ما وافقك العلم","publishedAt":"2017-08-24T14:31:29Z","duration":"PT8M6S","thumbnail":"https://i.ytimg.com/vi/qRCPwFBaGl0/mqdefault.jpg","viewCount":"699","playlistId":"PLEkQk5xrP-tkI_meE148wc7V7XHlB0WPb","playlistName":"من الحكم العطائية  د. يسري جبر","category":"متنوع"},{"id":"X04T_cbjYW4","title":"ربما استحيا العارف أن يرفع حاجته إلى مولاه - اكتفاءً بمشيئته - فكيف لا يستحي أن يرفعها لخليقته.","publishedAt":"2017-08-25T08:53:09Z","duration":"PT5M17S","thumbnail":"https://i.ytimg.com/vi/X04T_cbjYW4/mqdefault.jpg","viewCount":"1117","playlistId":"PLEkQk5xrP-tkI_meE148wc7V7XHlB0WPb","playlistName":"من الحكم العطائية  د. يسري جبر","category":"متنوع"},{"id":"tx2mKmAZDHU","title":"إذا التبس عليك أمران فانظر أثْقلهما على النفس فاتَّبعْه، فإنه لا يثقل عليها إلا ما كان حقا.","publishedAt":"2017-08-27T20:36:36Z","duration":"PT8M16S","thumbnail":"https://i.ytimg.com/vi/tx2mKmAZDHU/mqdefault.jpg","viewCount":"1313","playlistId":"PLEkQk5xrP-tkI_meE148wc7V7XHlB0WPb","playlistName":"من الحكم العطائية  د. يسري جبر","category":"متنوع"},{"id":"fHKOYKEMmFo","title":"من علامة اتباع الهوى: المسارعة إلى نوافل الخيرات، والتكاسل عن القيام بحقوق الواجبات","publishedAt":"2017-08-28T21:37:42Z","duration":"PT13M4S","thumbnail":"https://i.ytimg.com/vi/fHKOYKEMmFo/mqdefault.jpg","viewCount":"896","playlistId":"PLEkQk5xrP-tkI_meE148wc7V7XHlB0WPb","playlistName":"من الحكم العطائية  د. يسري جبر","category":"متنوع"},{"id":"CyGleXILhBc","title":"قيد الطاعات بأنواع الأوقات، كي لا يمنعك عنها وجود التسويف، ووسع الوقت عليك، كي تبقى لك حصة الاختيار.","publishedAt":"2017-08-29T19:34:54Z","duration":"PT6M16S","thumbnail":"https://i.ytimg.com/vi/CyGleXILhBc/mqdefault.jpg","viewCount":"553","playlistId":"PLEkQk5xrP-tkI_meE148wc7V7XHlB0WPb","playlistName":"من الحكم العطائية  د. يسري جبر","category":"متنوع"},{"id":"UVquw7Xbllg","title":"علم قلة نهوض العباد إلى معاملته، فأوجب عليهم وجود طاعته، فساقهم إليه بسلاسل الإيجاب","publishedAt":"2017-09-01T19:10:43Z","duration":"PT4M45S","thumbnail":"https://i.ytimg.com/vi/UVquw7Xbllg/mqdefault.jpg","viewCount":"511","playlistId":"PLEkQk5xrP-tkI_meE148wc7V7XHlB0WPb","playlistName":"من الحكم العطائية  د. يسري جبر","category":"متنوع"},{"id":"Aqh-5osgNV0","title":"أوجب عليك وجود خدمته، وما أوجب عليك في الحقيقة إلا دخول جنته.","publishedAt":"2017-09-01T20:50:44Z","duration":"PT9M17S","thumbnail":"https://i.ytimg.com/vi/Aqh-5osgNV0/mqdefault.jpg","viewCount":"672","playlistId":"PLEkQk5xrP-tkI_meE148wc7V7XHlB0WPb","playlistName":"من الحكم العطائية  د. يسري جبر","category":"متنوع"},{"id":"9OHGGWWYKSc","title":"من استغرب أن ينقذه الله من شهواته، وأن يخرجه من وجود غفلته، فقد استعجز القدرة الإلهية","publishedAt":"2017-09-02T11:49:12Z","duration":"PT9M27S","thumbnail":"https://i.ytimg.com/vi/9OHGGWWYKSc/mqdefault.jpg","viewCount":"1310","playlistId":"PLEkQk5xrP-tkI_meE148wc7V7XHlB0WPb","playlistName":"من الحكم العطائية  د. يسري جبر","category":"متنوع"},{"id":"F092MhYD898","title":"رُبَّما ورَدَت الظُّلَمُ عليك، ليُعرِّفَكَ قدْرَ ما مَنَّ به عليك.","publishedAt":"2017-09-03T18:29:31Z","duration":"PT2M56S","thumbnail":"https://i.ytimg.com/vi/F092MhYD898/mqdefault.jpg","viewCount":"1253","playlistId":"PLEkQk5xrP-tkI_meE148wc7V7XHlB0WPb","playlistName":"من الحكم العطائية  د. يسري جبر","category":"متنوع"},{"id":"c4i0LY3IO60","title":"مَنْ لم يعرف قدر النعم بوجدانها، عرفها بوجود فقدانها","publishedAt":"2017-09-03T18:43:55Z","duration":"PT10M21S","thumbnail":"https://i.ytimg.com/vi/c4i0LY3IO60/mqdefault.jpg","viewCount":"831","playlistId":"PLEkQk5xrP-tkI_meE148wc7V7XHlB0WPb","playlistName":"من الحكم العطائية  د. يسري جبر","category":"متنوع"},{"id":"DVEyjaY3Kk0","title":"لا تدهشك واردات النعم عن القيام بحقوق شكرك، فإن ذلك مما يحطُّ من وجود قدرك","publishedAt":"2017-09-05T18:38:27Z","duration":"PT12M8S","thumbnail":"https://i.ytimg.com/vi/DVEyjaY3Kk0/mqdefault.jpg","viewCount":"575","playlistId":"PLEkQk5xrP-tkI_meE148wc7V7XHlB0WPb","playlistName":"من الحكم العطائية  د. يسري جبر","category":"متنوع"},{"id":"pEx57SzKRdQ","title":"تمكُّنُ حلاوةِ الهَوَى من القلبِ هُوَ الدَّاءُ العُضَالُ (1)","publishedAt":"2017-09-06T20:01:27Z","duration":"PT15M44S","thumbnail":"https://i.ytimg.com/vi/pEx57SzKRdQ/mqdefault.jpg","viewCount":"2441","playlistId":"PLEkQk5xrP-tkI_meE148wc7V7XHlB0WPb","playlistName":"من الحكم العطائية  د. يسري جبر","category":"متنوع"},{"id":"XyPGFgGdEwQ","title":"تمكُّنُ حلاوةِ الهَوَى من القلبِ هُوَ الدَّاءُ العُضَالُ (2)","publishedAt":"2017-09-06T20:01:56Z","duration":"PT30M37S","thumbnail":"https://i.ytimg.com/vi/XyPGFgGdEwQ/mqdefault.jpg","viewCount":"1095","playlistId":"PLEkQk5xrP-tkI_meE148wc7V7XHlB0WPb","playlistName":"من الحكم العطائية  د. يسري جبر","category":"متنوع"}],"total":136,"page":4,"pageSize":24,"totalPages":6}