{"items":[{"id":"tIxD5NdK7IQ","title":"نعمتان ما خرج موجود عنهما ، ولابدَّ لكل مُكوَّن منهما : نعمة الإيجاد ، ونعمة الإمداد .","publishedAt":"2016-11-11T20:13:21Z","duration":"PT20M32S","thumbnail":"https://i.ytimg.com/vi/tIxD5NdK7IQ/mqdefault.jpg","viewCount":"2498","playlistId":"PLEkQk5xrP-tkI_meE148wc7V7XHlB0WPb","playlistName":"من الحكم العطائية  د. يسري جبر","category":"متنوع"},{"id":"c5-5ciqYJ5w","title":"خير أوقاتك : وقت تشهد فيه وجود فاقتك ، وتُردُّ فيه إلى وجود ذِلَّتك","publishedAt":"2016-11-12T19:22:17Z","duration":"PT12M35S","thumbnail":"https://i.ytimg.com/vi/c5-5ciqYJ5w/mqdefault.jpg","viewCount":"2485","playlistId":"PLEkQk5xrP-tkI_meE148wc7V7XHlB0WPb","playlistName":"من الحكم العطائية  د. يسري جبر","category":"متنوع"},{"id":"VhK5_E8jMm4","title":"متى أوحشك من خلقه ، فاعلم أنَّه يريد أن يفتح لك باب الأنس به .","publishedAt":"2016-11-13T20:03:49Z","duration":"PT11M27S","thumbnail":"https://i.ytimg.com/vi/VhK5_E8jMm4/mqdefault.jpg","viewCount":"27598","playlistId":"PLEkQk5xrP-tkI_meE148wc7V7XHlB0WPb","playlistName":"من الحكم العطائية  د. يسري جبر","category":"متنوع"},{"id":"_xM1bfmPMOU","title":"متى أطلق لسانك بالطلب ، فاعلم أنَّه يُريد أن يعطيك","publishedAt":"2016-11-14T20:39:55Z","duration":"PT15M7S","thumbnail":"https://i.ytimg.com/vi/_xM1bfmPMOU/mqdefault.jpg","viewCount":"19657","playlistId":"PLEkQk5xrP-tkI_meE148wc7V7XHlB0WPb","playlistName":"من الحكم العطائية  د. يسري جبر","category":"متنوع"},{"id":"PXq-SjgWVbE","title":"العارفُ لا يزول اضطرارُه ، ولا يكون مع غير الله قرارُه .","publishedAt":"2016-11-20T20:06:03Z","duration":"PT21M20S","thumbnail":"https://i.ytimg.com/vi/PXq-SjgWVbE/mqdefault.jpg","viewCount":"9851","playlistId":"PLEkQk5xrP-tkI_meE148wc7V7XHlB0WPb","playlistName":"من الحكم العطائية  د. يسري جبر","category":"متنوع"},{"id":"oESN6aKpwZQ","title":"أنار الظواهر بأنوار آثاره ، وأنار السرائر بأنوار أوصافه","publishedAt":"2016-11-25T18:13:54Z","duration":"PT19M1S","thumbnail":"https://i.ytimg.com/vi/oESN6aKpwZQ/mqdefault.jpg","viewCount":"1399","playlistId":"PLEkQk5xrP-tkI_meE148wc7V7XHlB0WPb","playlistName":"من الحكم العطائية  د. يسري جبر","category":"متنوع"},{"id":"zK2MY5jT7PQ","title":"ليُخفف ألم البلاء عنك عِلْمُك بأنه سبحانه وتعالى هو المُبْلِي لك","publishedAt":"2016-11-30T17:41:13Z","duration":"PT1M38S","thumbnail":"https://i.ytimg.com/vi/zK2MY5jT7PQ/mqdefault.jpg","viewCount":"1844","playlistId":"PLEkQk5xrP-tkI_meE148wc7V7XHlB0WPb","playlistName":"من الحكم العطائية  د. يسري جبر","category":"متنوع"},{"id":"rSkTilbDMnw","title":"مَنْ ظنَّ انفكاك لُطفه عن قَدَره ، فذلك لقصور نَظَرِه .","publishedAt":"2016-12-04T19:43:29Z","duration":"PT7M7S","thumbnail":"https://i.ytimg.com/vi/rSkTilbDMnw/mqdefault.jpg","viewCount":"2452","playlistId":"PLEkQk5xrP-tkI_meE148wc7V7XHlB0WPb","playlistName":"من الحكم العطائية  د. يسري جبر","category":"متنوع"},{"id":"9HmXrpCR8aI","title":"لا يُخافُ عليك أن تلتبس الطُّرُقُ عليك ، وإنما يُخافُ عليك من غَلَبَةِ الهوى عليك","publishedAt":"2016-12-07T18:42:10Z","duration":"PT6M21S","thumbnail":"https://i.ytimg.com/vi/9HmXrpCR8aI/mqdefault.jpg","viewCount":"3449","playlistId":"PLEkQk5xrP-tkI_meE148wc7V7XHlB0WPb","playlistName":"من الحكم العطائية  د. يسري جبر","category":"متنوع"},{"id":"ItAtmB3FDYA","title":"لا تُطالِبْ ربَّك بتأخر مطلبك ، ولكن طالِبْ نفسك بتأخر أدبك","publishedAt":"2016-12-09T18:15:45Z","duration":"PT2M55S","thumbnail":"https://i.ytimg.com/vi/ItAtmB3FDYA/mqdefault.jpg","viewCount":"2022","playlistId":"PLEkQk5xrP-tkI_meE148wc7V7XHlB0WPb","playlistName":"من الحكم العطائية  د. يسري جبر","category":"متنوع"},{"id":"hm2qsLaJu6Y","title":"متى جعلك في الظاهر ممتثلا لأمره ، ورزقك في الباطن الاستسلام لقهره ، فقد أعظم المنَّة عليك","publishedAt":"2016-12-12T19:16:39Z","duration":"PT25M10S","thumbnail":"https://i.ytimg.com/vi/hm2qsLaJu6Y/mqdefault.jpg","viewCount":"8027","playlistId":"PLEkQk5xrP-tkI_meE148wc7V7XHlB0WPb","playlistName":"من الحكم العطائية  د. يسري جبر","category":"متنوع"},{"id":"6z3crdLFIAY","title":"لا يَسْتَحْقِرُ الوِرْدَ إلا جَهُول","publishedAt":"2016-12-14T21:24:16Z","duration":"PT11M7S","thumbnail":"https://i.ytimg.com/vi/6z3crdLFIAY/mqdefault.jpg","viewCount":"16527","playlistId":"PLEkQk5xrP-tkI_meE148wc7V7XHlB0WPb","playlistName":"من الحكم العطائية  د. يسري جبر","category":"متنوع"},{"id":"9Hhz-HiEMhg","title":"الغافل إذا أصبح ينظر ماذا يفعل والعاقل ينظر ماذا يفعل الله به","publishedAt":"2017-01-05T21:27:38Z","duration":"PT18M36S","thumbnail":"https://i.ytimg.com/vi/9Hhz-HiEMhg/mqdefault.jpg","viewCount":"8178","playlistId":"PLEkQk5xrP-tkI_meE148wc7V7XHlB0WPb","playlistName":"من الحكم العطائية  د. يسري جبر","category":"متنوع"},{"id":"BwHjmGGVhbc","title":"أمرك في هذه الدار بالنظر في مُكَوَّنَاته وسيكشف لك في تلك الدار عن كمال ذاته.","publishedAt":"2017-01-13T16:20:24Z","duration":"PT5M48S","thumbnail":"https://i.ytimg.com/vi/BwHjmGGVhbc/mqdefault.jpg","viewCount":"1649","playlistId":"PLEkQk5xrP-tkI_meE148wc7V7XHlB0WPb","playlistName":"من الحكم العطائية  د. يسري جبر","category":"متنوع"},{"id":"M61EeeacpvQ","title":"علم منك أنك لا تصبر عنه ، فأشهدك ما برز منه","publishedAt":"2017-01-18T18:46:51Z","duration":"PT5M9S","thumbnail":"https://i.ytimg.com/vi/M61EeeacpvQ/mqdefault.jpg","viewCount":"1792","playlistId":"PLEkQk5xrP-tkI_meE148wc7V7XHlB0WPb","playlistName":"من الحكم العطائية  د. يسري جبر","category":"متنوع"},{"id":"_LOxIBY3d_g","title":"لمَّا عَلِمَ الحقُّ منك وجودَ المَلل ، لوَّن لك الطاعات .","publishedAt":"2017-01-22T18:33:11Z","duration":"PT9M56S","thumbnail":"https://i.ytimg.com/vi/_LOxIBY3d_g/mqdefault.jpg","viewCount":"2063","playlistId":"PLEkQk5xrP-tkI_meE148wc7V7XHlB0WPb","playlistName":"من الحكم العطائية  د. يسري جبر","category":"متنوع"},{"id":"HqFzyGYs44o","title":"الصلاةُ طَهارةٌ ( طُُهرةٌ ) للقلوب من أدناس الذنوب، واستفتاحٌ لِبَابِ الغُيوب","publishedAt":"2017-01-25T17:28:27Z","duration":"PT12M31S","thumbnail":"https://i.ytimg.com/vi/HqFzyGYs44o/mqdefault.jpg","viewCount":"1808","playlistId":"PLEkQk5xrP-tkI_meE148wc7V7XHlB0WPb","playlistName":"من الحكم العطائية  د. يسري جبر","category":"متنوع"},{"id":"JV2ZCjIme0s","title":"متى طلَبْت عِوضًا على عَمَل ، طُولِبْت بوجود الصدْقِ فيه ، ويكفي المُرِيبَ غَنيمة وِجْدانُ السلامة.","publishedAt":"2017-01-28T12:31:34Z","duration":"PT18M34S","thumbnail":"https://i.ytimg.com/vi/JV2ZCjIme0s/mqdefault.jpg","viewCount":"1056","playlistId":"PLEkQk5xrP-tkI_meE148wc7V7XHlB0WPb","playlistName":"من الحكم العطائية  د. يسري جبر","category":"متنوع"},{"id":"OoVkrr1yUtg","title":"إذا أرادَ أن يُظهِرَ فضلَه عليك خَلَقَ ونَسَبَ إليك","publishedAt":"2017-01-29T12:34:01Z","duration":"PT9M47S","thumbnail":"https://i.ytimg.com/vi/OoVkrr1yUtg/mqdefault.jpg","viewCount":"3267","playlistId":"PLEkQk5xrP-tkI_meE148wc7V7XHlB0WPb","playlistName":"من الحكم العطائية  د. يسري جبر","category":"متنوع"},{"id":"Ap-AbZMnu5g","title":"لا نهاية لِمَذَامِّكَ إنْ أرْجَعَكَ إليك ، ولا تفْرُغ مَدائِحُك إنْ أظهر جُودَه عليك .","publishedAt":"2017-02-01T17:37:53Z","duration":"PT4M58S","thumbnail":"https://i.ytimg.com/vi/Ap-AbZMnu5g/mqdefault.jpg","viewCount":"1475","playlistId":"PLEkQk5xrP-tkI_meE148wc7V7XHlB0WPb","playlistName":"من الحكم العطائية  د. يسري جبر","category":"متنوع"},{"id":"MDDfUdtkOkM","title":"ما الشأن وجود الطلب ، إنما الشأن أن ترزق حسن الأدب","publishedAt":"2017-02-04T19:23:09Z","duration":"PT14M38S","thumbnail":"https://i.ytimg.com/vi/MDDfUdtkOkM/mqdefault.jpg","viewCount":"2887","playlistId":"PLEkQk5xrP-tkI_meE148wc7V7XHlB0WPb","playlistName":"من الحكم العطائية  د. يسري جبر","category":"متنوع"},{"id":"caqARrutwrY","title":"أظهر كل شيء ، لأنه الباطن . وطوى وجود كل شيء ، لأنه الظاهر .","publishedAt":"2017-02-23T18:03:58Z","duration":"PT5M16S","thumbnail":"https://i.ytimg.com/vi/caqARrutwrY/mqdefault.jpg","viewCount":"781","playlistId":"PLEkQk5xrP-tkI_meE148wc7V7XHlB0WPb","playlistName":"من الحكم العطائية  د. يسري جبر","category":"متنوع"},{"id":"gl2gmUPnlsg","title":"أباح لك أن تنظر ما في المُكَوَّنات ، وما أذِن لك أن تقف مع ذوات المُكَوَّنات","publishedAt":"2017-02-25T20:51:05Z","duration":"PT17M20S","thumbnail":"https://i.ytimg.com/vi/gl2gmUPnlsg/mqdefault.jpg","viewCount":"1033","playlistId":"PLEkQk5xrP-tkI_meE148wc7V7XHlB0WPb","playlistName":"من الحكم العطائية  د. يسري جبر","category":"متنوع"},{"id":"X23xO2VwvfI","title":"الناسُ يْمدحونك لِمَا يظُنُّون فيك فكُنْ أنت ذامَّا لنفسِك لِمَا تعلمُه منها","publishedAt":"2017-03-04T19:05:56Z","duration":"PT7M13S","thumbnail":"https://i.ytimg.com/vi/X23xO2VwvfI/mqdefault.jpg","viewCount":"796","playlistId":"PLEkQk5xrP-tkI_meE148wc7V7XHlB0WPb","playlistName":"من الحكم العطائية  د. يسري جبر","category":"متنوع"}],"total":136,"page":2,"pageSize":24,"totalPages":6}