{"items":[{"id":"wOf59LACOXc","title":"63- \"…التَّفكُّر في عظيم مخلوقات الله تعالى وفناء الدنيا…\" شرح دليل الفالحين","publishedAt":"2021-05-20T20:38:19Z","duration":"PT30M34S","thumbnail":"https://i.ytimg.com/vi/wOf59LACOXc/mqdefault.jpg","viewCount":"2108","playlistId":"PLEkQk5xrP-tkc9DXvSLguqX5-FYp6ASR4","playlistName":"دليل الفالحين لطرق رياض الصالحين","category":"متنوع"},{"id":"RRKT42AObHI","title":"64- المبادرة إلى الخيرات\"بادروا بالأعمال الصالحة…\" شرح دليل الفالحين","publishedAt":"2021-05-21T22:34:26Z","duration":"PT39M30S","thumbnail":"https://i.ytimg.com/vi/RRKT42AObHI/mqdefault.jpg","viewCount":"1523","playlistId":"PLEkQk5xrP-tkc9DXvSLguqX5-FYp6ASR4","playlistName":"دليل الفالحين لطرق رياض الصالحين","category":"متنوع"},{"id":"pfHUoK67cEM","title":"65- المبادرة إلى الخيرات\"أَخَذَ سَيْفًا يَومَ أُحُدٍ فَقالَ:…\"الحديث (5) شرح دليل الفالحين","publishedAt":"2021-05-22T20:10:49Z","duration":"PT29M50S","thumbnail":"https://i.ytimg.com/vi/pfHUoK67cEM/mqdefault.jpg","viewCount":"1071","playlistId":"PLEkQk5xrP-tkc9DXvSLguqX5-FYp6ASR4","playlistName":"دليل الفالحين لطرق رياض الصالحين","category":"متنوع"},{"id":"pqCQuGhTUaM","title":"66- المُجَاهَدة\"إنَّ اللهَ تعالى قال: مَن عادى لي وليًّا، فقد آذنتُه بالحرب…\" شرح دليل الفالحين","publishedAt":"2021-05-23T19:31:13Z","duration":"PT39M40S","thumbnail":"https://i.ytimg.com/vi/pqCQuGhTUaM/mqdefault.jpg","viewCount":"6690","playlistId":"PLEkQk5xrP-tkc9DXvSLguqX5-FYp6ASR4","playlistName":"دليل الفالحين لطرق رياض الصالحين","category":"متنوع"},{"id":"YmyxdtWEitM","title":"67- \"نِعْمَتان مَغْبُونٌ فيهِما كثيرٌ من النَّاسِ: الصِّحَّة والفَراغ\" الحديث(3) شرح دليل الفالحين","publishedAt":"2021-05-24T19:58:38Z","duration":"PT41M40S","thumbnail":"https://i.ytimg.com/vi/YmyxdtWEitM/mqdefault.jpg","viewCount":"1886","playlistId":"PLEkQk5xrP-tkc9DXvSLguqX5-FYp6ASR4","playlistName":"دليل الفالحين لطرق رياض الصالحين","category":"متنوع"},{"id":"LfkyMo-raBw","title":"68- \"…حُجِبَتِ النَّارُ بالشَّهَواتِ، وحُجِبَتِ الجَنَّةُ بالمَكارِهِ.\" الحديث (7) شرح دليل الفالحين","publishedAt":"2021-05-26T05:08:44Z","duration":"PT41M21S","thumbnail":"https://i.ytimg.com/vi/LfkyMo-raBw/mqdefault.jpg","viewCount":"1803","playlistId":"PLEkQk5xrP-tkc9DXvSLguqX5-FYp6ASR4","playlistName":"دليل الفالحين لطرق رياض الصالحين","category":"متنوع"},{"id":"b_PpZUo2eQI","title":"69- \"…فأعِنِّي علَى نَفْسِكَ بكَثْرَةِ السُّجُودِ...\" الحديث (12) شرح دليل الفالحين","publishedAt":"2021-05-28T05:00:34Z","duration":"PT36M41S","thumbnail":"https://i.ytimg.com/vi/b_PpZUo2eQI/mqdefault.jpg","viewCount":"2291","playlistId":"PLEkQk5xrP-tkc9DXvSLguqX5-FYp6ASR4","playlistName":"دليل الفالحين لطرق رياض الصالحين","category":"متنوع"},{"id":"fIszxmLQb4o","title":"الفقر الحقيقي وأسباب الغنى","publishedAt":"2021-05-28T19:50:06Z","duration":"PT8M36S","thumbnail":"https://i.ytimg.com/vi/fIszxmLQb4o/mqdefault.jpg","viewCount":"21008","playlistId":"PLEkQk5xrP-tkGXuZ9atE3k_7it12rUPTs","playlistName":"أسئلة المتابعين","category":"متنوع"},{"id":"xBE_mQ8aL2M","title":"70-\"…لَمَّا نزلتْ آيةُ الصَّدقة، كُنَّا نُحَامِلُ، فجاءَ رجلٌ فتصدق...\"الحديث (16) شرح دليل الفالحين","publishedAt":"2021-05-29T19:59:13Z","duration":"PT38M52S","thumbnail":"https://i.ytimg.com/vi/xBE_mQ8aL2M/mqdefault.jpg","viewCount":"1233","playlistId":"PLEkQk5xrP-tkc9DXvSLguqX5-FYp6ASR4","playlistName":"دليل الفالحين لطرق رياض الصالحين","category":"متنوع"},{"id":"C0NxdGHHWKs","title":"أريد الزواج مرة أخرى ,, ماذا أفعل؟","publishedAt":"2021-05-30T17:00:05Z","duration":"PT8M18S","thumbnail":"https://i.ytimg.com/vi/C0NxdGHHWKs/mqdefault.jpg","viewCount":"4798","playlistId":"PLEkQk5xrP-tkGXuZ9atE3k_7it12rUPTs","playlistName":"أسئلة المتابعين","category":"متنوع"},{"id":"y7Ev2NM6OVE","title":"كرامات الأولياء | أ.د. يسري جبر","publishedAt":"2021-05-30T20:30:00Z","duration":"PT14M38S","thumbnail":"https://i.ytimg.com/vi/y7Ev2NM6OVE/mqdefault.jpg","viewCount":"20454","playlistId":"PLEkQk5xrP-tm8ZIu74nTOZN9KJUJu416J","playlistName":"مقاطع مُهمَّة (يُسريَّات) أ.د. يسري جبر","category":"متنوع"},{"id":"5ylDh1KooMM","title":"71-\"…كُلُّكمْ جائعٌ إلَّا منْ أطْعمْته، فاسْتَطْعمُوني أُطْعِمْكمْ....\"الحديث (17) شرح دليل الفالحين","publishedAt":"2021-05-31T08:05:39Z","duration":"PT32M20S","thumbnail":"https://i.ytimg.com/vi/5ylDh1KooMM/mqdefault.jpg","viewCount":"1575","playlistId":"PLEkQk5xrP-tkc9DXvSLguqX5-FYp6ASR4","playlistName":"دليل الفالحين لطرق رياض الصالحين","category":"متنوع"},{"id":"4uF3Y6CODEk","title":"قصة سيدنا يوسف وتفسير قوله تعالى \"وَلَقَدْ هَمَّتْ بِهِ وَهَمَّ بِهَا”","publishedAt":"2021-05-31T17:00:15Z","duration":"PT17M8S","thumbnail":"https://i.ytimg.com/vi/4uF3Y6CODEk/mqdefault.jpg","viewCount":"5232","playlistId":"PLEkQk5xrP-tkSGrPLMt1BEmJ54cGWYgtp","playlistName":"كتابُ بِدَعِ التَفَاسِيرِ - أ.د. يسري جبر","category":"متنوع"},{"id":"6pMzIkmm4FA","title":"72- الحث على الازدياد من الخير في أواخر العمر - شرح دليل الفالحين","publishedAt":"2021-06-01T22:06:05Z","duration":"PT32M11S","thumbnail":"https://i.ytimg.com/vi/6pMzIkmm4FA/mqdefault.jpg","viewCount":"4164","playlistId":"PLEkQk5xrP-tkc9DXvSLguqX5-FYp6ASR4","playlistName":"دليل الفالحين لطرق رياض الصالحين","category":"متنوع"},{"id":"bM02sBArJwA","title":"73- \"… سُبْحَانَكَ رَبَّنَا وبِحَمْدِكَ، اللهمَّ اغْفِرْ لِي\" - شرح دليل الفالحين","publishedAt":"2021-06-04T05:31:31Z","duration":"PT23M16S","thumbnail":"https://i.ytimg.com/vi/bM02sBArJwA/mqdefault.jpg","viewCount":"1633","playlistId":"PLEkQk5xrP-tkc9DXvSLguqX5-FYp6ASR4","playlistName":"دليل الفالحين لطرق رياض الصالحين","category":"متنوع"},{"id":"-zpF6IDpihs","title":"لكل من فقد عزيزًا على قلبه ​| نصائح مهمة","publishedAt":"2021-06-04T19:27:05Z","duration":"PT12M24S","thumbnail":"https://i.ytimg.com/vi/-zpF6IDpihs/mqdefault.jpg","viewCount":"10300","playlistId":"PLEkQk5xrP-tm8ZIu74nTOZN9KJUJu416J","playlistName":"مقاطع مُهمَّة (يُسريَّات) أ.د. يسري جبر","category":"متنوع"},{"id":"GzpjyJIuX6o","title":"74- بيان كثرة طُرُق الخير\"…أيُّ الأعمالِ أفْضَلُ ؟…\" شرح دليل الفالحين","publishedAt":"2021-06-06T07:27:18Z","duration":"PT34M3S","thumbnail":"https://i.ytimg.com/vi/GzpjyJIuX6o/mqdefault.jpg","viewCount":"1659","playlistId":"PLEkQk5xrP-tkc9DXvSLguqX5-FYp6ASR4","playlistName":"دليل الفالحين لطرق رياض الصالحين","category":"متنوع"},{"id":"W0RQV9kqLIU","title":"كيف أذاكر بدون ملل؟","publishedAt":"2021-06-06T19:40:22Z","duration":"PT8M5S","thumbnail":"https://i.ytimg.com/vi/W0RQV9kqLIU/mqdefault.jpg","viewCount":"15841","playlistId":"PLEkQk5xrP-tm8ZIu74nTOZN9KJUJu416J","playlistName":"مقاطع مُهمَّة (يُسريَّات) أ.د. يسري جبر","category":"متنوع"},{"id":"5Ia_Dhcpr5Q","title":"75- \"يُصْبِحُ على كُلِّ سُلامَى من أحدكُمْ صدَقَةٌ، فكُلُّ تَسْبِيحَةٍ صدَقَةٌ، …\" شرح دليل الفالحين","publishedAt":"2021-06-08T07:01:06Z","duration":"PT35M13S","thumbnail":"https://i.ytimg.com/vi/5Ia_Dhcpr5Q/mqdefault.jpg","viewCount":"1192","playlistId":"PLEkQk5xrP-tkc9DXvSLguqX5-FYp6ASR4","playlistName":"دليل الفالحين لطرق رياض الصالحين","category":"متنوع"},{"id":"6nQTGIbHX74","title":"تجارب حياتية من حياة الدكتور يسري جبر","publishedAt":"2021-06-09T19:14:36Z","duration":"PT16M36S","thumbnail":"https://i.ytimg.com/vi/6nQTGIbHX74/mqdefault.jpg","viewCount":"65129","playlistId":"PLEkQk5xrP-tm8ZIu74nTOZN9KJUJu416J","playlistName":"مقاطع مُهمَّة (يُسريَّات) أ.د. يسري جبر","category":"متنوع"},{"id":"yfk0m1yx60w","title":"76- \"…لا تَحْقِرَنَّ مِنَ المَعروفِ شيئًا، ولو أنْ تَلْقَى أخاكَ بوَجْهٍ طَلْقٍ\" شرح دليل الفالحين","publishedAt":"2021-06-10T05:36:59Z","duration":"PT40M43S","thumbnail":"https://i.ytimg.com/vi/yfk0m1yx60w/mqdefault.jpg","viewCount":"1492","playlistId":"PLEkQk5xrP-tkc9DXvSLguqX5-FYp6ASR4","playlistName":"دليل الفالحين لطرق رياض الصالحين","category":"متنوع"},{"id":"zuhCfWCB4Tw","title":"الرد على تساؤلات الوهابية","publishedAt":"2021-06-10T18:00:14Z","duration":"PT12M9S","thumbnail":"https://i.ytimg.com/vi/zuhCfWCB4Tw/mqdefault.jpg","viewCount":"19981","playlistId":"PLEkQk5xrP-tkGXuZ9atE3k_7it12rUPTs","playlistName":"أسئلة المتابعين","category":"متنوع"},{"id":"phgtD0crRFY","title":"ما الحكمة من قراءة سورة الكهف يوم الجمعة؟","publishedAt":"2021-06-11T19:00:04Z","duration":"PT9M23S","thumbnail":"https://i.ytimg.com/vi/phgtD0crRFY/mqdefault.jpg","viewCount":"8342","playlistId":"PLEkQk5xrP-tm8ZIu74nTOZN9KJUJu416J","playlistName":"مقاطع مُهمَّة (يُسريَّات) أ.د. يسري جبر","category":"متنوع"},{"id":"8fyqx28hTW8","title":"لماذا يخبر الأولياء كراماتهم للناس؟","publishedAt":"2021-06-12T19:45:51Z","duration":"PT8M30S","thumbnail":"https://i.ytimg.com/vi/8fyqx28hTW8/mqdefault.jpg","viewCount":"57114","playlistId":"PLEkQk5xrP-tm8ZIu74nTOZN9KJUJu416J","playlistName":"مقاطع مُهمَّة (يُسريَّات) أ.د. يسري جبر","category":"متنوع"}],"total":4126,"page":106,"pageSize":24,"totalPages":172}