{"items":[{"id":"WxvbDgCi8a0","title":"هل يوجد تفسير للأحاديث الشاذة في السنة النبوية؟","publishedAt":"2021-03-14T18:59:16Z","duration":"PT11M57S","thumbnail":"https://i.ytimg.com/vi/WxvbDgCi8a0/mqdefault.jpg","viewCount":"6193","playlistId":"PLEkQk5xrP-tm8ZIu74nTOZN9KJUJu416J","playlistName":"مقاطع مُهمَّة (يُسريَّات) أ.د. يسري جبر","category":"متنوع"},{"id":"2XFtrvIZg_A","title":"29- باب التوبة: الحديث التاسع (2) شرح دليل الفالحين لطُرُق رياض الصالحين","publishedAt":"2021-03-15T06:25:13Z","duration":"PT48M14S","thumbnail":"https://i.ytimg.com/vi/2XFtrvIZg_A/mqdefault.jpg","viewCount":"1301","playlistId":"PLEkQk5xrP-tkc9DXvSLguqX5-FYp6ASR4","playlistName":"دليل الفالحين لطرق رياض الصالحين","category":"متنوع"},{"id":"51VRN8ri1YQ","title":"أريد الانتقام من شخص ظلمني ماذا أفعل؟","publishedAt":"2021-03-15T18:45:00Z","duration":"PT9M41S","thumbnail":"https://i.ytimg.com/vi/51VRN8ri1YQ/mqdefault.jpg","viewCount":"27199","playlistId":"PLEkQk5xrP-tm8ZIu74nTOZN9KJUJu416J","playlistName":"مقاطع مُهمَّة (يُسريَّات) أ.د. يسري جبر","category":"متنوع"},{"id":"80e2Oo8iWnY","title":"هل يجوز وهب ثواب الصلاة للميت؟","publishedAt":"2021-03-16T19:14:40Z","duration":"PT9M52S","thumbnail":"https://i.ytimg.com/vi/80e2Oo8iWnY/mqdefault.jpg","viewCount":"8008","playlistId":"PLEkQk5xrP-tm8ZIu74nTOZN9KJUJu416J","playlistName":"مقاطع مُهمَّة (يُسريَّات) أ.د. يسري جبر","category":"متنوع"},{"id":"jWvaIDImBFY","title":"30- باب التوبة: الحديث التاسع (3) شرح دليل الفالحين لطُرُق رياض الصالحين","publishedAt":"2021-03-17T08:28:02Z","duration":"PT41M53S","thumbnail":"https://i.ytimg.com/vi/jWvaIDImBFY/mqdefault.jpg","viewCount":"1412","playlistId":"PLEkQk5xrP-tkc9DXvSLguqX5-FYp6ASR4","playlistName":"دليل الفالحين لطرق رياض الصالحين","category":"متنوع"},{"id":"i8xFY8yBPzk","title":"السفر عبر الزمن بين النسبية والمعراج","publishedAt":"2021-03-17T19:38:25Z","duration":"PT10M11S","thumbnail":"https://i.ytimg.com/vi/i8xFY8yBPzk/mqdefault.jpg","viewCount":"21664","playlistId":"PLEkQk5xrP-tm8ZIu74nTOZN9KJUJu416J","playlistName":"مقاطع مُهمَّة (يُسريَّات) أ.د. يسري جبر","category":"متنوع"},{"id":"A6iwn2_5NWc","title":"31- باب التوبة: الحديث التاسع (4) شرح دليل الفالحين لطُرُق رياض الصالحين","publishedAt":"2021-03-19T07:15:17Z","duration":"PT41M32S","thumbnail":"https://i.ytimg.com/vi/A6iwn2_5NWc/mqdefault.jpg","viewCount":"1218","playlistId":"PLEkQk5xrP-tkc9DXvSLguqX5-FYp6ASR4","playlistName":"دليل الفالحين لطرق رياض الصالحين","category":"متنوع"},{"id":"hMtLsl09v-o","title":"هل يجب الصلاة على المبتدع والعاصي؟","publishedAt":"2021-03-19T19:56:20Z","duration":"PT10M55S","thumbnail":"https://i.ytimg.com/vi/hMtLsl09v-o/mqdefault.jpg","viewCount":"1642","playlistId":"PLEkQk5xrP-tnAJa3yfebXD7wNC_ECfZNt","playlistName":"كتاب النفحة الذكية في أن الهجر بدعة شركية","category":"متنوع"},{"id":"iROGHTNUlZ4","title":"32- باب التوبة: الحديث التاسع (5) شرح دليل الفالحين لطُرُق رياض الصالحين","publishedAt":"2021-03-21T07:10:44Z","duration":"PT37M46S","thumbnail":"https://i.ytimg.com/vi/iROGHTNUlZ4/mqdefault.jpg","viewCount":"1158","playlistId":"PLEkQk5xrP-tkc9DXvSLguqX5-FYp6ASR4","playlistName":"دليل الفالحين لطرق رياض الصالحين","category":"متنوع"},{"id":"xIe0VWe0i6o","title":"33- باب التوبة: الحديث العاشر - شرح دليل الفالحين لطُرُق رياض الصالحين","publishedAt":"2021-03-22T20:43:11Z","duration":"PT31M10S","thumbnail":"https://i.ytimg.com/vi/xIe0VWe0i6o/mqdefault.jpg","viewCount":"1202","playlistId":"PLEkQk5xrP-tkc9DXvSLguqX5-FYp6ASR4","playlistName":"دليل الفالحين لطرق رياض الصالحين","category":"متنوع"},{"id":"E0l8YrdXmbA","title":"هل تحليل كورونا يفسد الصيام؟","publishedAt":"2021-03-23T19:40:16Z","duration":"PT8M54S","thumbnail":"https://i.ytimg.com/vi/E0l8YrdXmbA/mqdefault.jpg","viewCount":"4356","playlistId":"PLEkQk5xrP-tm8ZIu74nTOZN9KJUJu416J","playlistName":"مقاطع مُهمَّة (يُسريَّات) أ.د. يسري جبر","category":"متنوع"},{"id":"2Rt4vryPX78","title":"أحكام الحيض والنفاس | أ.د. يسري جبر","publishedAt":"2021-03-24T18:00:00Z","duration":"PT26M8S","thumbnail":"https://i.ytimg.com/vi/2Rt4vryPX78/mqdefault.jpg","viewCount":"6632","playlistId":"PLEkQk5xrP-tm8ZIu74nTOZN9KJUJu416J","playlistName":"مقاطع مُهمَّة (يُسريَّات) أ.د. يسري جبر","category":"متنوع"},{"id":"XoaJT7MnFaw","title":"34- باب الثالث: باب الصبر - شرح دليل الفالحين لطُرُق رياض الصالحين","publishedAt":"2021-03-25T07:34:49Z","duration":"PT31M6S","thumbnail":"https://i.ytimg.com/vi/XoaJT7MnFaw/mqdefault.jpg","viewCount":"2261","playlistId":"PLEkQk5xrP-tkc9DXvSLguqX5-FYp6ASR4","playlistName":"دليل الفالحين لطرق رياض الصالحين","category":"متنوع"},{"id":"lOcCFJqLM-0","title":"35- بابُ الصَّبر:الحديثُ الأول \"...والحمدُ للهِ تملأُ الميزانَ...\" شرح دليل الفالحين","publishedAt":"2021-03-27T05:49:09Z","duration":"PT33M36S","thumbnail":"https://i.ytimg.com/vi/lOcCFJqLM-0/mqdefault.jpg","viewCount":"1533","playlistId":"PLEkQk5xrP-tkc9DXvSLguqX5-FYp6ASR4","playlistName":"دليل الفالحين لطرق رياض الصالحين","category":"متنوع"},{"id":"lQFLvLQPAnM","title":"الاحتفال والدعاء في ليلة النصف من شعبان","publishedAt":"2021-03-28T17:26:21Z","duration":"PT15M21S","thumbnail":"https://i.ytimg.com/vi/lQFLvLQPAnM/mqdefault.jpg","viewCount":"7934","playlistId":"PLEkQk5xrP-tm8ZIu74nTOZN9KJUJu416J","playlistName":"مقاطع مُهمَّة (يُسريَّات) أ.د. يسري جبر","category":"متنوع"},{"id":"4w-utGfQa2w","title":"36- باب الصَّبر:الحديث الثاني\"أنَّ ناسًا من الأنصارِ سألوا رسولَ الله ﷺ فأعطاهم...\"شرح دليل الفالحين","publishedAt":"2021-03-29T05:13:28Z","duration":"PT33M46S","thumbnail":"https://i.ytimg.com/vi/4w-utGfQa2w/mqdefault.jpg","viewCount":"1458","playlistId":"PLEkQk5xrP-tkc9DXvSLguqX5-FYp6ASR4","playlistName":"دليل الفالحين لطرق رياض الصالحين","category":"متنوع"},{"id":"XAD_FP-wuI4","title":"حكم ختان الإناث","publishedAt":"2021-03-30T20:00:06Z","duration":"PT8M23S","thumbnail":"https://i.ytimg.com/vi/XAD_FP-wuI4/mqdefault.jpg","viewCount":"54386","playlistId":"PLEkQk5xrP-tm8ZIu74nTOZN9KJUJu416J","playlistName":"مقاطع مُهمَّة (يُسريَّات) أ.د. يسري جبر","category":"متنوع"},{"id":"k7W8mMw6LdM","title":"37- بابُ الصَّبر: الحديثُ الرابع\"..ليسَ علَى أبِيكِ كَرْبٌ بَعْدَ اليَومِ..\"شرح دليل الفالحين","publishedAt":"2021-03-31T05:54:07Z","duration":"PT22M55S","thumbnail":"https://i.ytimg.com/vi/k7W8mMw6LdM/mqdefault.jpg","viewCount":"1046","playlistId":"PLEkQk5xrP-tkc9DXvSLguqX5-FYp6ASR4","playlistName":"دليل الفالحين لطرق رياض الصالحين","category":"متنوع"},{"id":"BoFyOZODmT4","title":"38- هل البكاء ضد الصَّبر؟ من بابُ الصَّبر: الحديثُ الخامس - شرح دليل الفالحين","publishedAt":"2021-04-01T05:50:08Z","duration":"PT35M33S","thumbnail":"https://i.ytimg.com/vi/BoFyOZODmT4/mqdefault.jpg","viewCount":"1690","playlistId":"PLEkQk5xrP-tkc9DXvSLguqX5-FYp6ASR4","playlistName":"دليل الفالحين لطرق رياض الصالحين","category":"متنوع"},{"id":"nnqczT6gBbw","title":"ما حكم الزواج العُرفيّ؟","publishedAt":"2021-04-01T15:15:03Z","duration":"PT8M40S","thumbnail":"https://i.ytimg.com/vi/nnqczT6gBbw/mqdefault.jpg","viewCount":"9558","playlistId":"PLEkQk5xrP-tm8ZIu74nTOZN9KJUJu416J","playlistName":"مقاطع مُهمَّة (يُسريَّات) أ.د. يسري جبر","category":"متنوع"},{"id":"uhNms2jbERI","title":"أدلة تحريم الهجر في الإسلام","publishedAt":"2021-04-02T19:53:31Z","duration":"PT19M25S","thumbnail":"https://i.ytimg.com/vi/uhNms2jbERI/mqdefault.jpg","viewCount":"1507","playlistId":"PLEkQk5xrP-tnAJa3yfebXD7wNC_ECfZNt","playlistName":"كتاب النفحة الذكية في أن الهجر بدعة شركية","category":"متنوع"},{"id":"D6rQj6nl7sw","title":"39- \"كان مَلِكٌ فيمَن كان قَبلَكُم، وكان له ساحِرٌ..\" الحديث السادس: باب الصَّبر - شرح دليل الفالحين","publishedAt":"2021-04-03T07:08:21Z","duration":"PT50M23S","thumbnail":"https://i.ytimg.com/vi/D6rQj6nl7sw/mqdefault.jpg","viewCount":"3253","playlistId":"PLEkQk5xrP-tkc9DXvSLguqX5-FYp6ASR4","playlistName":"دليل الفالحين لطرق رياض الصالحين","category":"متنوع"},{"id":"NUJyrBpVa9w","title":"تفسير قوله تعالى \"عَفَا اللَّهُ عَنكَ لِمَ أَذِنتَ لَهُمْ\" | أ.د. يسري جبر","publishedAt":"2021-04-03T15:03:11Z","duration":"PT11M29S","thumbnail":"https://i.ytimg.com/vi/NUJyrBpVa9w/mqdefault.jpg","viewCount":"3477","playlistId":"PLEkQk5xrP-tkSGrPLMt1BEmJ54cGWYgtp","playlistName":"كتابُ بِدَعِ التَفَاسِيرِ - أ.د. يسري جبر","category":"متنوع"},{"id":"RontIqQsLqQ","title":"40- \"مرَّ النبيُّ ﷺ بامرأة تبكي عند قبر...\"الحديث السابع: باب الصَّبر - شرح دليل الفالحين","publishedAt":"2021-04-05T06:28:26Z","duration":"PT29M24S","thumbnail":"https://i.ytimg.com/vi/RontIqQsLqQ/mqdefault.jpg","viewCount":"1754","playlistId":"PLEkQk5xrP-tkc9DXvSLguqX5-FYp6ASR4","playlistName":"دليل الفالحين لطرق رياض الصالحين","category":"متنوع"}],"total":4126,"page":102,"pageSize":24,"totalPages":172}