{"items":[{"id":"bK9o9t_OuiI","title":"مِنَ الفَوائِدِ اليُسْرِيَّةِ  (قَلَّ مَن نبَّهَ عَليهَا )","publishedAt":"2015-03-19T19:30:37Z","duration":"PT2M23S","thumbnail":"https://i.ytimg.com/vi/bK9o9t_OuiI/mqdefault.jpg","viewCount":"1494","playlistId":"PLEkQk5xrP-tm8ZIu74nTOZN9KJUJu416J","playlistName":"مقاطع مُهمَّة (يُسريَّات) أ.د. يسري جبر","category":"متنوع"},{"id":"RFRNPc_6pXE","title":"زِيَارَةُ أُمِّنَا وَأُمِّ المُؤْمِنِينَ السَّيِّدَةِ خَدِيجَةَ رَِضىَ اللهُ عَنْهَا وَأَرْضَاهَا","publishedAt":"2015-03-21T17:57:30Z","duration":"PT19M58S","thumbnail":"https://i.ytimg.com/vi/RFRNPc_6pXE/mqdefault.jpg","viewCount":"514","playlistId":"PLEkQk5xrP-tlB8lmbwjAKR8KRgiykGKhb","playlistName":"حضرات يسرية ومدائح نبوية","category":"متنوع"},{"id":"V7S8oSvdrOo","title":"شرح كتاب منازل السائرين للإمام الهروى المجلس الحادى والأربعون قسم الأَودية باب الإلهام وباب السكينة","publishedAt":"2015-03-23T21:01:30Z","duration":"PT1H15M24S","thumbnail":"https://i.ytimg.com/vi/V7S8oSvdrOo/mqdefault.jpg","viewCount":"1506","playlistId":"PLEkQk5xrP-tnLYi_5_tSRVBwqcs7ISV7Y","playlistName":"شرح كتاب منازل السائرين للإمام الهروي","category":"متنوع"},{"id":"MGpAq0K_aAk","title":"شرح كتاب منازل السائرين للإمام الهروى المجلس الثانى والأربعون قسم الأَودية باب الطمأنينة وباب الهمة","publishedAt":"2015-03-31T05:47:00Z","duration":"PT1H8M28S","thumbnail":"https://i.ytimg.com/vi/MGpAq0K_aAk/mqdefault.jpg","viewCount":"1467","playlistId":"PLEkQk5xrP-tnLYi_5_tSRVBwqcs7ISV7Y","playlistName":"شرح كتاب منازل السائرين للإمام الهروي","category":"متنوع"},{"id":"h1ZeadGKiV8","title":"صلوات اليوم الثالث أ.د. يسري جبر","publishedAt":"2015-04-03T05:02:17Z","duration":"PT14M19S","thumbnail":"https://i.ytimg.com/vi/h1ZeadGKiV8/mqdefault.jpg","viewCount":"6109","playlistId":"PLEkQk5xrP-tmuP5s2o33O9gAOC4ACxsma","playlistName":"صَلَواتُ الأَسْمَاءِ الْحُسْنَى شَرْحُ الصَّلَواتِ الْيُسْرِيَّةِ عَلَى خَيرِ الْبَرِيَّةِ  أ.د. يسرى جبر","category":"متنوع"},{"id":"weUv6xaf2EU","title":"شرح كتاب منازل السائرين للإمام الهروى المجلس الثالث والأربعون قسم الأَحوال باب المحبّة وباب الغَيْرة","publishedAt":"2015-04-07T04:18:21Z","duration":"PT1H9M49S","thumbnail":"https://i.ytimg.com/vi/weUv6xaf2EU/mqdefault.jpg","viewCount":"1195","playlistId":"PLEkQk5xrP-tnLYi_5_tSRVBwqcs7ISV7Y","playlistName":"شرح كتاب منازل السائرين للإمام الهروي","category":"متنوع"},{"id":"cWqgAfpd4Fc","title":"شرح كتاب منازل السائرين للإمام الهروى المجلس الرابع والأربعون قسم الأَحوال باب الشوق وباب القلق","publishedAt":"2015-04-13T04:58:41Z","duration":"PT44M35S","thumbnail":"https://i.ytimg.com/vi/cWqgAfpd4Fc/mqdefault.jpg","viewCount":"1061","playlistId":"PLEkQk5xrP-tnLYi_5_tSRVBwqcs7ISV7Y","playlistName":"شرح كتاب منازل السائرين للإمام الهروي","category":"متنوع"},{"id":"n_IQFaCtyJo","title":"كيف تكون من السالكين - د. يسري جبر","publishedAt":"2015-04-15T20:14:07Z","duration":"PT45S","thumbnail":"https://i.ytimg.com/vi/n_IQFaCtyJo/mqdefault.jpg","viewCount":"11522","playlistId":"PLEkQk5xrP-tm8ZIu74nTOZN9KJUJu416J","playlistName":"مقاطع مُهمَّة (يُسريَّات) أ.د. يسري جبر","category":"متنوع"},{"id":"QUd9at943I4","title":"وَاعْلَمُوا أَنَّ فِيكُمْ رَسُولَ الله - د. يسري جبر","publishedAt":"2015-04-15T20:33:54Z","duration":"PT6M38S","thumbnail":"https://i.ytimg.com/vi/QUd9at943I4/mqdefault.jpg","viewCount":"28479","playlistId":"PLEkQk5xrP-tm8ZIu74nTOZN9KJUJu416J","playlistName":"مقاطع مُهمَّة (يُسريَّات) أ.د. يسري جبر","category":"متنوع"},{"id":"SjXHmEfCwoU","title":"شرح كتاب منازل السائرين للإمام الهروى المجلس الخامس والأربعون قسم الأَحوال باب العطش وباب الوجد","publishedAt":"2015-04-20T12:15:33Z","duration":"PT1H6M31S","thumbnail":"https://i.ytimg.com/vi/SjXHmEfCwoU/mqdefault.jpg","viewCount":"1193","playlistId":"PLEkQk5xrP-tnLYi_5_tSRVBwqcs7ISV7Y","playlistName":"شرح كتاب منازل السائرين للإمام الهروي","category":"متنوع"},{"id":"DNe2ohGlRUo","title":"ما معنى كلمة مدد وغوث؟","publishedAt":"2015-04-25T19:31:25Z","duration":"PT13M56S","thumbnail":"https://i.ytimg.com/vi/DNe2ohGlRUo/mqdefault.jpg","viewCount":"59333","playlistId":"PLEkQk5xrP-tm8ZIu74nTOZN9KJUJu416J","playlistName":"مقاطع مُهمَّة (يُسريَّات) أ.د. يسري جبر","category":"متنوع"},{"id":"C-jjE-3oO9U","title":"مِنَ الفَوَائِدِ اليُسرِيَّةِ حَوْلَ مَعْنَى الدَهَشِ وَالهَيَمَانِ - د. يسري جبر","publishedAt":"2015-04-28T13:10:27Z","duration":"PT1M4S","thumbnail":"https://i.ytimg.com/vi/C-jjE-3oO9U/mqdefault.jpg","viewCount":"1460","playlistId":"PLEkQk5xrP-tm8ZIu74nTOZN9KJUJu416J","playlistName":"مقاطع مُهمَّة (يُسريَّات) أ.د. يسري جبر","category":"متنوع"},{"id":"Bio1m0b4nfg","title":"شرح كتاب منازل السائرين للإمام الهروى المجلس السادس والأربعون قسم الأَحوال باب الدهْشة وباب الهيَمان","publishedAt":"2015-04-28T13:36:03Z","duration":"PT47M24S","thumbnail":"https://i.ytimg.com/vi/Bio1m0b4nfg/mqdefault.jpg","viewCount":"1036","playlistId":"PLEkQk5xrP-tnLYi_5_tSRVBwqcs7ISV7Y","playlistName":"شرح كتاب منازل السائرين للإمام الهروي","category":"متنوع"},{"id":"TuCF_rNotiA","title":"اعرف صفات نبيك الخِلقية | اعرف نبيك","publishedAt":"2015-04-29T14:32:20Z","duration":"PT6M46S","thumbnail":"https://i.ytimg.com/vi/TuCF_rNotiA/mqdefault.jpg","viewCount":"7618","playlistId":"PLEkQk5xrP-tl6Mu_Mz3QMUSv5T6XBH-Dg","playlistName":"برنامج اعرف نبيك","category":"متنوع"},{"id":"co-yV2fuAgo","title":"خاتم النبوة هل وُلدَ به سيدنا محمد أم ظهر بعد ولادته ؟ | اعرف نبيك","publishedAt":"2015-04-30T14:43:33Z","duration":"PT6M18S","thumbnail":"https://i.ytimg.com/vi/co-yV2fuAgo/mqdefault.jpg","viewCount":"13134","playlistId":"PLEkQk5xrP-tl6Mu_Mz3QMUSv5T6XBH-Dg","playlistName":"برنامج اعرف نبيك","category":"متنوع"},{"id":"x9WvM5ByynY","title":"الأحاديث الواردة فى باب خاتِم النبوة   | اعرف نبيك","publishedAt":"2015-04-30T14:52:45Z","duration":"PT6M53S","thumbnail":"https://i.ytimg.com/vi/x9WvM5ByynY/mqdefault.jpg","viewCount":"1506","playlistId":"PLEkQk5xrP-tl6Mu_Mz3QMUSv5T6XBH-Dg","playlistName":"برنامج اعرف نبيك","category":"متنوع"},{"id":"-mc9Tii8eEU","title":"علامات النبوة وقصة إسلام \"سلمان الفارسي\" | اعرف نبيك","publishedAt":"2015-04-30T15:13:16Z","duration":"PT6M26S","thumbnail":"https://i.ytimg.com/vi/-mc9Tii8eEU/mqdefault.jpg","viewCount":"2497","playlistId":"PLEkQk5xrP-tl6Mu_Mz3QMUSv5T6XBH-Dg","playlistName":"برنامج اعرف نبيك","category":"متنوع"},{"id":"vb_eSE-5JFI","title":"شرح كتاب منازل السائرين للإمام الهروى المجلس السابع والأربعون قسم الأَحوال باب البرق وباب الذوق","publishedAt":"2015-05-04T19:26:05Z","duration":"PT45M28S","thumbnail":"https://i.ytimg.com/vi/vb_eSE-5JFI/mqdefault.jpg","viewCount":"995","playlistId":"PLEkQk5xrP-tnLYi_5_tSRVBwqcs7ISV7Y","playlistName":"شرح كتاب منازل السائرين للإمام الهروي","category":"متنوع"},{"id":"-nvAlp44Vqc","title":"المرأة الحائض وحكم مجالستها بين الإسلام واليهودية  اعرف نبيك","publishedAt":"2015-05-06T15:29:07Z","duration":"PT2M42S","thumbnail":"https://i.ytimg.com/vi/-nvAlp44Vqc/mqdefault.jpg","viewCount":"1108","playlistId":"PLEkQk5xrP-tl6Mu_Mz3QMUSv5T6XBH-Dg","playlistName":"برنامج اعرف نبيك","category":"متنوع"},{"id":"tjwZL4x3KxY","title":"كان رسول الله صلى الله عليه وسلم يُكثر دهن رأسه ويهتم بلحيته الشريفه | اعرف نبيك","publishedAt":"2015-05-06T15:32:11Z","duration":"PT1M38S","thumbnail":"https://i.ytimg.com/vi/tjwZL4x3KxY/mqdefault.jpg","viewCount":"20720","playlistId":"PLEkQk5xrP-tl6Mu_Mz3QMUSv5T6XBH-Dg","playlistName":"برنامج اعرف نبيك","category":"متنوع"},{"id":"EJ0F3AlhmZQ","title":"هل احتاج النبي أن يختضب لوجود شيب فى شعره | اعرف نبيك","publishedAt":"2015-05-07T14:44:31Z","duration":"PT2M20S","thumbnail":"https://i.ytimg.com/vi/EJ0F3AlhmZQ/mqdefault.jpg","viewCount":"1161","playlistId":"PLEkQk5xrP-tl6Mu_Mz3QMUSv5T6XBH-Dg","playlistName":"برنامج اعرف نبيك","category":"متنوع"},{"id":"ToNGDfkouPU","title":"شرف الله أهل مصر بشعرات من شعر النبي موجوده بالحسين | اعرف نبيك","publishedAt":"2015-05-07T15:12:38Z","duration":"PT1M6S","thumbnail":"https://i.ytimg.com/vi/ToNGDfkouPU/mqdefault.jpg","viewCount":"1109","playlistId":"PLEkQk5xrP-tl6Mu_Mz3QMUSv5T6XBH-Dg","playlistName":"برنامج اعرف نبيك","category":"متنوع"},{"id":"BpTk-nqD5o0","title":"شرح كتاب منازل السائرين للإمام الهروى المجلس الثامن والأربعون قسم الولايات باب اللحظ وباب الوقت","publishedAt":"2015-05-11T18:48:32Z","duration":"PT1H23M35S","thumbnail":"https://i.ytimg.com/vi/BpTk-nqD5o0/mqdefault.jpg","viewCount":"1291","playlistId":"PLEkQk5xrP-tnLYi_5_tSRVBwqcs7ISV7Y","playlistName":"شرح كتاب منازل السائرين للإمام الهروي","category":"متنوع"},{"id":"YepwMMKjXJU","title":"فوائد الكُحل الذى أوصانا به سيدنا محمد | اعرف نبيك","publishedAt":"2015-05-13T14:34:48Z","duration":"PT2M49S","thumbnail":"https://i.ytimg.com/vi/YepwMMKjXJU/mqdefault.jpg","viewCount":"18704","playlistId":"PLEkQk5xrP-tl6Mu_Mz3QMUSv5T6XBH-Dg","playlistName":"برنامج اعرف نبيك","category":"متنوع"}],"total":4126,"page":5,"pageSize":24,"totalPages":172}