{"items":[{"id":"xFMZaRsyAPU","title":"ูู ูููู ููุนู ุงููุจู ๏ทบ ุฃู ูุณุจู ูุนู ุงูููุ","publishedAt":"2025-05-13T18:31:09Z","duration":"PT8M10S","thumbnail":"https://i.ytimg.com/vi/xFMZaRsyAPU/mqdefault.jpg","viewCount":"2952","playlistId":"PLEkQk5xrP-tkGXuZ9atE3k_7it12rUPTs","playlistName":"ุฃุณุฆูุฉ ุงููุชุงุจุนูู","category":"ูุชููุน"},{"id":"uCzlM-1UFhM","title":"ููู ุชุญูู ุฃุจูุงุกู ูู ุงูุญุณุฏุ","publishedAt":"2025-05-14T18:00:48Z","duration":"PT9M2S","thumbnail":"https://i.ytimg.com/vi/uCzlM-1UFhM/mqdefault.jpg","viewCount":"18626","playlistId":"PLEkQk5xrP-tkGXuZ9atE3k_7it12rUPTs","playlistName":"ุฃุณุฆูุฉ ุงููุชุงุจุนูู","category":"ูุชููุน"},{"id":"wNxfUwj0vc4","title":"18- ูุง ุญูู โุงูุฐูุฑ ุจุงููุณุงู ุจุฏูู ุญุถูุฑ ุงูููุจุ | ุดุฑุญ ุงูุญูู ุงูุนุทุงุฆูุฉ","publishedAt":"2025-05-15T17:01:12Z","duration":"PT42M50S","thumbnail":"https://i.ytimg.com/vi/wNxfUwj0vc4/mqdefault.jpg","viewCount":"4760","playlistId":"PLEkQk5xrP-tmf5ToOwmW-q0JwxkapbrMN","playlistName":"ุดุฑุญ ูุชุงุจ ุฅุฑุดุงุฏ ุงูุจุฑูุฉ ุฅูู ุจุนุถ ูุนุงูู ุงูุญูู ุงูุนุทุงุฆูุฉ","category":"ูุชููุน"},{"id":"X9IA-dm_mB8","title":"56- ููู ุชุนุงูุฌ ุขูุงู ุงูุธูุฑ ุจุงูุณูุฉ ุงููุจููุฉุย| ุดุฑุญ ุณูู ุงูุฅูุงู ุงูุฏุงุฑ ูุทูู","publishedAt":"2025-05-17T09:00:57Z","duration":"PT41M54S","thumbnail":"https://i.ytimg.com/vi/X9IA-dm_mB8/mqdefault.jpg","viewCount":"2006","playlistId":"PLEkQk5xrP-tk_MCBZ706ORCw6gFtFyaGj","playlistName":"ุดุฑุญ ุณูู ุงูุฅูุงู ุงูุฏุงุฑูุทูู","category":"ูุชููุน"},{"id":"L5RFsLNrvoM","title":"19- ูุง ูู ุงููุงุฑุฏ ูููู ูุชุนุงูู ุงููุฑูุฏ ูุน ุงููุงุฑุฏุงุชุ | ุดุฑุญ ุงูุญูู ุงูุนุทุงุฆูุฉ","publishedAt":"2025-05-18T19:24:31Z","duration":"PT49M53S","thumbnail":"https://i.ytimg.com/vi/L5RFsLNrvoM/mqdefault.jpg","viewCount":"4155","playlistId":"PLEkQk5xrP-tmf5ToOwmW-q0JwxkapbrMN","playlistName":"ุดุฑุญ ูุชุงุจ ุฅุฑุดุงุฏ ุงูุจุฑูุฉ ุฅูู ุจุนุถ ูุนุงูู ุงูุญูู ุงูุนุทุงุฆูุฉ","category":"ูุชููุน"},{"id":"TXrGjefO2NE","title":"43- ูุงุฐุง ุชูุนู ุงุฐุง ุงุฎุชูู ุงูุนููุงุก ูู ุงููุชุงููุ | ุดุฑุญ ูุฎุชุตุฑ ุงููุชูุญุงุช ุงููููุฉ","publishedAt":"2025-05-19T18:00:34Z","duration":"PT51M26S","thumbnail":"https://i.ytimg.com/vi/TXrGjefO2NE/mqdefault.jpg","viewCount":"2109","playlistId":"PLEkQk5xrP-tnpkdZki6rPTtMak1bnI5g-","playlistName":"ุดุฑุญ ูุชุงุจ ูุฎุชุตุฑ ุงููุชูุญุงุช ุงููููุฉ ุงููุณูู ููุงูุญ ุงูุฃููุงุฑ ุงููุฏุณูุฉ","category":"ูุชููุน"},{"id":"VwyF9qFoF_A","title":"44- ูู ูุง ุชุฑูุฏ ูุนุฑูุชู ุนู ุงูุทูุงุฑุฉ ูุงูุงุบุชุณุงู | ุดุฑุญ ูุฎุชุตุฑ ุงููุชูุญุงุช ุงููููุฉ","publishedAt":"2025-05-24T18:07:48Z","duration":"PT52M39S","thumbnail":"https://i.ytimg.com/vi/VwyF9qFoF_A/mqdefault.jpg","viewCount":"2052","playlistId":"PLEkQk5xrP-tnpkdZki6rPTtMak1bnI5g-","playlistName":"ุดุฑุญ ูุชุงุจ ูุฎุชุตุฑ ุงููุชูุญุงุช ุงููููุฉ ุงููุณูู ููุงูุญ ุงูุฃููุงุฑ ุงููุฏุณูุฉ","category":"ูุชููุน"},{"id":"-6wXTmNvwj8","title":"ูุตุฉ ุงูุจุฑุฏุฉ ููุถุงุฆููุง ููุฑุงูุชูุง | ููุฏู๐","publishedAt":"2025-05-29T19:15:14Z","duration":"PT16M33S","thumbnail":"https://i.ytimg.com/vi/-6wXTmNvwj8/mqdefault.jpg","viewCount":"6190","playlistId":"PLEkQk5xrP-tm8ZIu74nTOZN9KJUJu416J","playlistName":"ููุงุทุน ููููููุฉ (ููุณุฑูููุงุช) ุฃ.ุฏ. ูุณุฑู ุฌุจุฑ","category":"ูุชููุน"},{"id":"IJFBj4cQyZU","title":"ูุฌูุณ ูุฑูุฒ ูุงูุจุฑูุฏุฌ ุงููุฑุขูู | ุงูุฌูุชุฑุง๐","publishedAt":"2025-05-31T18:17:55Z","duration":"PT21M36S","thumbnail":"https://i.ytimg.com/vi/IJFBj4cQyZU/mqdefault.jpg","viewCount":"2507","playlistId":"PLEkQk5xrP-tm8ZIu74nTOZN9KJUJu416J","playlistName":"ููุงุทุน ููููููุฉ (ููุณุฑูููุงุช) ุฃ.ุฏ. ูุณุฑู ุฌุจุฑ","category":"ูุชููุน"},{"id":"GHGt6Pmwg80","title":"ูุนูู ูุญุฏุฉ ุงููุฌูุฏ ุนูุฏ ุงูุตูููุฉ | ุงูุฌูุชุฑุง๐","publishedAt":"2025-06-01T19:14:37Z","duration":"PT20M14S","thumbnail":"https://i.ytimg.com/vi/GHGt6Pmwg80/mqdefault.jpg","viewCount":"7827","playlistId":"PLEkQk5xrP-tm8ZIu74nTOZN9KJUJu416J","playlistName":"ููุงุทุน ููููููุฉ (ููุณุฑูููุงุช) ุฃ.ุฏ. ูุณุฑู ุฌุจุฑ","category":"ูุชููุน"},{"id":"PfFCdy_YK8E","title":"ุงูุฑุฏ ุนูู ุฌููุน ุดุจูุงุช ูุงุฏุนุงุกุงุช ุงูููุงุจูุฉ | ุงูุฌูุชุฑุง๐","publishedAt":"2025-06-02T19:27:30Z","duration":"PT1H17M38S","thumbnail":"https://i.ytimg.com/vi/PfFCdy_YK8E/mqdefault.jpg","viewCount":"15715","playlistId":"PLEkQk5xrP-tmJzNvLntpzW0uPanPzxA0c","playlistName":"ููุงุกุงุช ููุญุงุถุฑุงุช","category":"ูุชููุน"},{"id":"EKqpe6NEO8U","title":"ุฏุนุงุก ูุฅุญูุงุก ููู ุนุฑูุฉ","publishedAt":"2025-06-05T11:04:36Z","duration":"PT29M45S","thumbnail":"https://i.ytimg.com/vi/EKqpe6NEO8U/mqdefault.jpg","viewCount":"6508","playlistId":"PLEkQk5xrP-tm8ZIu74nTOZN9KJUJu416J","playlistName":"ููุงุทุน ููููููุฉ (ููุณุฑูููุงุช) ุฃ.ุฏ. ูุณุฑู ุฌุจุฑ","category":"ูุชููุน"},{"id":"I23b1aOz5dw","title":"161- ุจุฑูุฉ ุฏุนูุฉ ุงูุตุงูุญูู - ุดุฑุญ ูุณูุฏ ุงูุฅูุงู ุฃุญูุฏ ุฑุถู ุงููู ุชุนุงูู ุนูู","publishedAt":"2025-06-10T05:00:15Z","duration":"PT33M58S","thumbnail":"https://i.ytimg.com/vi/I23b1aOz5dw/mqdefault.jpg","viewCount":"2866","playlistId":"PLEkQk5xrP-tkKprIuGrSdEuBSMsyg5We1","playlistName":"ุดุฑุญ ูุณูุฏ ุงูุฅูุงู ุฃุญูุฏ ุจู ุญูุจู","category":"ูุชููุน"},{"id":"UpRZQczwaxs","title":"ุงุฒุงู ุฃุฑุถู ุจูุง ูุณูู ุงููู ููุ","publishedAt":"2025-06-23T18:44:52Z","duration":"PT12M41S","thumbnail":"https://i.ytimg.com/vi/UpRZQczwaxs/mqdefault.jpg","viewCount":"6980","playlistId":"PLEkQk5xrP-tkGXuZ9atE3k_7it12rUPTs","playlistName":"ุฃุณุฆูุฉ ุงููุชุงุจุนูู","category":"ูุชููุน"},{"id":"Ur_cX3z-yQs","title":"ุฃูููุฉ ุงูุชูููู ุงููุฌุฑู ูู ุญูุงุชูุง ููุง ูู ุงูุตูุงุฉ ุงููุณุทูุ","publishedAt":"2025-06-24T16:00:48Z","duration":"PT9M4S","thumbnail":"https://i.ytimg.com/vi/Ur_cX3z-yQs/mqdefault.jpg","viewCount":"1995","playlistId":"PLEkQk5xrP-tkGXuZ9atE3k_7it12rUPTs","playlistName":"ุฃุณุฆูุฉ ุงููุชุงุจุนูู","category":"ูุชููุน"},{"id":"2MWpjd80-FU","title":"57- ูุงุฐุง ุชููู ูู ุงูุฑููุน ูุงูุณุฌูุฏุ | ุดุฑุญ ุณูู ุงูุฅูุงู ุงูุฏุงุฑ ูุทูู","publishedAt":"2025-06-28T09:00:55Z","duration":"PT43M14S","thumbnail":"https://i.ytimg.com/vi/2MWpjd80-FU/mqdefault.jpg","viewCount":"694","playlistId":"PLEkQk5xrP-tk_MCBZ706ORCw6gFtFyaGj","playlistName":"ุดุฑุญ ุณูู ุงูุฅูุงู ุงูุฏุงุฑูุทูู","category":"ูุชููุน"},{"id":"s2NVfWbgmJ4","title":"45- ูู ูุฌูุฒ ุงูุฎุฑูุฌ ุนู ุงูุฅุฌูุงุนุ | ุดุฑุญ ูุฎุชุตุฑ ุงููุชูุญุงุช ุงููููุฉ","publishedAt":"2025-06-30T18:30:36Z","duration":"PT48M54S","thumbnail":"https://i.ytimg.com/vi/s2NVfWbgmJ4/mqdefault.jpg","viewCount":"1646","playlistId":"PLEkQk5xrP-tnpkdZki6rPTtMak1bnI5g-","playlistName":"ุดุฑุญ ูุชุงุจ ูุฎุชุตุฑ ุงููุชูุญุงุช ุงููููุฉ ุงููุณูู ููุงูุญ ุงูุฃููุงุฑ ุงููุฏุณูุฉ","category":"ูุชููุน"},{"id":"x5ojFfZH_xc","title":"ููู ุฃุชุบูุจ ุนูู ุถุนู ุงูููุฉ ูุงููุชูุฑ ูู ุงูุนุจุงุฏุฉุ","publishedAt":"2025-07-01T18:12:59Z","duration":"PT12M22S","thumbnail":"https://i.ytimg.com/vi/x5ojFfZH_xc/mqdefault.jpg","viewCount":"9547","playlistId":"PLEkQk5xrP-tkGXuZ9atE3k_7it12rUPTs","playlistName":"ุฃุณุฆูุฉ ุงููุชุงุจุนูู","category":"ูุชููุน"},{"id":"3b9rSfBaQYg","title":"20- ููู ูููู ููุจู ุฎุงูุตุง ูููุ | ุดุฑุญ ุงูุญูู ุงูุนุทุงุฆูุฉ","publishedAt":"2025-07-03T18:36:59Z","duration":"PT39M48S","thumbnail":"https://i.ytimg.com/vi/3b9rSfBaQYg/mqdefault.jpg","viewCount":"3444","playlistId":"PLEkQk5xrP-tmf5ToOwmW-q0JwxkapbrMN","playlistName":"ุดุฑุญ ูุชุงุจ ุฅุฑุดุงุฏ ุงูุจุฑูุฉ ุฅูู ุจุนุถ ูุนุงูู ุงูุญูู ุงูุนุทุงุฆูุฉ","category":"ูุชููุน"},{"id":"KvvmXhAxPUA","title":"ูุตุฉ ููู ุนุงุดูุฑุงุก ููุง ูู ูุถู ุตูุงููุ","publishedAt":"2025-07-04T17:00:24Z","duration":"PT13M55S","thumbnail":"https://i.ytimg.com/vi/KvvmXhAxPUA/mqdefault.jpg","viewCount":"8287","playlistId":"PLEkQk5xrP-tm8ZIu74nTOZN9KJUJu416J","playlistName":"ููุงุทุน ููููููุฉ (ููุณุฑูููุงุช) ุฃ.ุฏ. ูุณุฑู ุฌุจุฑ","category":"ูุชููุน"},{"id":"AnxB-7BbtZU","title":"ุฏุนุงุก ูุฅุญูุงุก ููู ุนุงุดูุฑุงุก","publishedAt":"2025-07-05T12:28:11Z","duration":"PT43M38S","thumbnail":"https://i.ytimg.com/vi/AnxB-7BbtZU/mqdefault.jpg","viewCount":"2926","playlistId":"PLEkQk5xrP-tm8ZIu74nTOZN9KJUJu416J","playlistName":"ููุงุทุน ููููููุฉ (ููุณุฑูููุงุช) ุฃ.ุฏ. ูุณุฑู ุฌุจุฑ","category":"ูุชููุน"},{"id":"0dG0-x2kWaw","title":"46- ุดุฑูุท ุตุญุฉ ุงูุตูุงุฉ ููุชู ูุฑุถุชุ | ุดุฑุญ ูุฎุชุตุฑ ุงููุชูุญุงุช ุงููููุฉ","publishedAt":"2025-07-06T18:32:19Z","duration":"PT41M13S","thumbnail":"https://i.ytimg.com/vi/0dG0-x2kWaw/mqdefault.jpg","viewCount":"2046","playlistId":"PLEkQk5xrP-tnpkdZki6rPTtMak1bnI5g-","playlistName":"ุดุฑุญ ูุชุงุจ ูุฎุชุตุฑ ุงููุชูุญุงุช ุงููููุฉ ุงููุณูู ููุงูุญ ุงูุฃููุงุฑ ุงููุฏุณูุฉ","category":"ูุชููุน"},{"id":"RzbT6icmoPM","title":"ุฃูุง ุฒููุงู ูุญุงุณุณ ุฃูู ูุด ูุณุชูุชุน ุจุงูุญูุงุฉ ,, ููุงุฐุง ุฃูุนูุ","publishedAt":"2025-07-07T19:03:22Z","duration":"PT8M17S","thumbnail":"https://i.ytimg.com/vi/RzbT6icmoPM/mqdefault.jpg","viewCount":"6994","playlistId":"PLEkQk5xrP-tkGXuZ9atE3k_7it12rUPTs","playlistName":"ุฃุณุฆูุฉ ุงููุชุงุจุนูู","category":"ูุชููุน"},{"id":"6T4cr5in24M","title":"ุฃูุง ุนูุฏู ูุณูุงุณ ูู ุงูุทูุงุฑุฉ ูุญุงุณุณ ุฃู ุตูุงุชู ูุด ููุจููุฉ ,, ููุงุฐุง ุฃูุนู ุ","publishedAt":"2025-07-10T18:15:00Z","duration":"PT8M48S","thumbnail":"https://i.ytimg.com/vi/6T4cr5in24M/mqdefault.jpg","viewCount":"2345","playlistId":"PLEkQk5xrP-tkGXuZ9atE3k_7it12rUPTs","playlistName":"ุฃุณุฆูุฉ ุงููุชุงุจุนูู","category":"ูุชููุน"}],"total":4126,"page":167,"pageSize":24,"totalPages":172}