{"items":[{"id":"gx21C59ahzY","title":"شرح كتاب دلائل الخيرات - المجلس العشرون. أ.د. يسري جبر","publishedAt":"2020-02-15T21:35:10Z","duration":"PT33M9S","thumbnail":"https://i.ytimg.com/vi/gx21C59ahzY/mqdefault.jpg","viewCount":"9262","playlistId":"PLEkQk5xrP-tlAzcbIpuqjdFICW-knvTlR","playlistName":"شرح كتاب دلائل الخيرات وشوارق الأنوار","category":"متنوع"},{"id":"ICKO9i8lVFs","title":"بِدَعُ التَفَاسِيرِ - المجلس الحادي عشر.  أ.د. يسري جبر","publishedAt":"2020-02-18T16:01:24Z","duration":"PT17M47S","thumbnail":"https://i.ytimg.com/vi/ICKO9i8lVFs/mqdefault.jpg","viewCount":"1090","playlistId":"PLEkQk5xrP-tkSGrPLMt1BEmJ54cGWYgtp","playlistName":"كتابُ بِدَعِ التَفَاسِيرِ - أ.د. يسري جبر","category":"متنوع"},{"id":"qlfT-yHT8jw","title":"‎شرح كتاب دلائل الخيرات - المجلس الحادي والعشرون. أ.د. يسري جبر","publishedAt":"2020-02-24T12:47:58Z","duration":"PT15M53S","thumbnail":"https://i.ytimg.com/vi/qlfT-yHT8jw/mqdefault.jpg","viewCount":"6353","playlistId":"PLEkQk5xrP-tlAzcbIpuqjdFICW-knvTlR","playlistName":"شرح كتاب دلائل الخيرات وشوارق الأنوار","category":"متنوع"},{"id":"RavtZfXYwqI","title":"حول الكَمَالَاتِ المُحَمَّدِيَّة. أ.د.يسري جبر","publishedAt":"2020-02-27T13:33:55Z","duration":"PT30M28S","thumbnail":"https://i.ytimg.com/vi/RavtZfXYwqI/mqdefault.jpg","viewCount":"1918","playlistId":"PLEkQk5xrP-tm8ZIu74nTOZN9KJUJu416J","playlistName":"مقاطع مُهمَّة (يُسريَّات) أ.د. يسري جبر","category":"متنوع"},{"id":"rlmCTr1pY-M","title":"فِقْهُ العُمْرَةِ  أ.د. يسري جبر","publishedAt":"2020-03-01T19:49:30Z","duration":"PT1H16M51S","thumbnail":"https://i.ytimg.com/vi/rlmCTr1pY-M/mqdefault.jpg","viewCount":"6894","playlistId":"PLEkQk5xrP-tm8ZIu74nTOZN9KJUJu416J","playlistName":"مقاطع مُهمَّة (يُسريَّات) أ.د. يسري جبر","category":"متنوع"},{"id":"Gaow_s8zZe0","title":"حولَ الحقيقةِ المُحَمَّدِيَّة.    أ.د يسري  جبر","publishedAt":"2020-03-08T22:10:13Z","duration":"PT26M33S","thumbnail":"https://i.ytimg.com/vi/Gaow_s8zZe0/mqdefault.jpg","viewCount":"13755","playlistId":"PLEkQk5xrP-tm8ZIu74nTOZN9KJUJu416J","playlistName":"مقاطع مُهمَّة (يُسريَّات) أ.د. يسري جبر","category":"متنوع"},{"id":"-Gd8BnxSb9s","title":"أنوار ونفحات.  أ.د يسري جبر","publishedAt":"2020-03-09T18:38:07Z","duration":"PT22M29S","thumbnail":"https://i.ytimg.com/vi/-Gd8BnxSb9s/mqdefault.jpg","viewCount":"6380","playlistId":"PLEkQk5xrP-tm8ZIu74nTOZN9KJUJu416J","playlistName":"مقاطع مُهمَّة (يُسريَّات) أ.د. يسري جبر","category":"متنوع"},{"id":"nmH0qqVyaq0","title":"لِنُرِيَهُ مِنْ آيَاتِنَا  أ.د/ يسري جبر","publishedAt":"2020-03-12T18:03:16Z","duration":"PT41M48S","thumbnail":"https://i.ytimg.com/vi/nmH0qqVyaq0/mqdefault.jpg","viewCount":"2199","playlistId":"PLEkQk5xrP-tm8ZIu74nTOZN9KJUJu416J","playlistName":"مقاطع مُهمَّة (يُسريَّات) أ.د. يسري جبر","category":"متنوع"},{"id":"WAZkiaUFIxE","title":"زيارة سيد الشهداء سيدنا حمزة وشهداء أحد رضوان الله عليهم أجمعين.","publishedAt":"2020-03-14T18:39:40Z","duration":"PT1M38S","thumbnail":"https://i.ytimg.com/vi/WAZkiaUFIxE/mqdefault.jpg","viewCount":"3570","playlistId":"PLEkQk5xrP-tm8ZIu74nTOZN9KJUJu416J","playlistName":"مقاطع مُهمَّة (يُسريَّات) أ.د. يسري جبر","category":"متنوع"},{"id":"XJBULw5xhso","title":"‎شرح كتاب دلائل الخيرات - المجلس الثاني والعشرون. أ.د. يسري جبر","publishedAt":"2020-03-19T15:53:00Z","duration":"PT31M30S","thumbnail":"https://i.ytimg.com/vi/XJBULw5xhso/mqdefault.jpg","viewCount":"8163","playlistId":"PLEkQk5xrP-tlAzcbIpuqjdFICW-knvTlR","playlistName":"شرح كتاب دلائل الخيرات وشوارق الأنوار","category":"متنوع"},{"id":"FFJ8em6oCCk","title":"هل يَعْرِفُ الوَلِيُّ نَفْسَهُ  أ.د. يسري جبر","publishedAt":"2020-03-22T20:29:47Z","duration":"PT2M49S","thumbnail":"https://i.ytimg.com/vi/FFJ8em6oCCk/mqdefault.jpg","viewCount":"57306","playlistId":"PLEkQk5xrP-tm8ZIu74nTOZN9KJUJu416J","playlistName":"مقاطع مُهمَّة (يُسريَّات) أ.د. يسري جبر","category":"متنوع"},{"id":"4TxDOfeN5tE","title":"الكورونا ٢  أ.د. يسري جبر","publishedAt":"2020-03-23T15:31:34Z","duration":"PT3M41S","thumbnail":"https://i.ytimg.com/vi/4TxDOfeN5tE/mqdefault.jpg","viewCount":"23506","playlistId":"PLEkQk5xrP-tm8ZIu74nTOZN9KJUJu416J","playlistName":"مقاطع مُهمَّة (يُسريَّات) أ.د. يسري جبر","category":"متنوع"},{"id":"h-3PzNg4uXM","title":"يَا مُغِيثُ أَغِثْنَا   أ.د. يسري جبر","publishedAt":"2020-03-24T16:04:21Z","duration":"PT2M24S","thumbnail":"https://i.ytimg.com/vi/h-3PzNg4uXM/mqdefault.jpg","viewCount":"4202","playlistId":"PLEkQk5xrP-tm8ZIu74nTOZN9KJUJu416J","playlistName":"مقاطع مُهمَّة (يُسريَّات) أ.د. يسري جبر","category":"متنوع"},{"id":"CvIHb1o6ILY","title":"حِفْظُ حُرْمَةِ المُسْلِم.  أ.د. يسري جبر","publishedAt":"2020-03-25T18:20:11Z","duration":"PT1M19S","thumbnail":"https://i.ytimg.com/vi/CvIHb1o6ILY/mqdefault.jpg","viewCount":"1106","playlistId":"PLEkQk5xrP-tm8ZIu74nTOZN9KJUJu416J","playlistName":"مقاطع مُهمَّة (يُسريَّات) أ.د. يسري جبر","category":"متنوع"},{"id":"Qtgi8t-pGXc","title":"بِدَعُ التَفَاسِيرِ - المجلس الثاني عشر.  أ.د. يسري جبر","publishedAt":"2020-03-28T17:09:50Z","duration":"PT23M23S","thumbnail":"https://i.ytimg.com/vi/Qtgi8t-pGXc/mqdefault.jpg","viewCount":"1390","playlistId":"PLEkQk5xrP-tkSGrPLMt1BEmJ54cGWYgtp","playlistName":"كتابُ بِدَعِ التَفَاسِيرِ - أ.د. يسري جبر","category":"متنوع"},{"id":"0XVn-u7YZBk","title":"مَرْحَبًا شَعْبَان.  أ.د. يسري جبر","publishedAt":"2020-03-29T15:06:11Z","duration":"PT10M24S","thumbnail":"https://i.ytimg.com/vi/0XVn-u7YZBk/mqdefault.jpg","viewCount":"3532","playlistId":"PLEkQk5xrP-tm8ZIu74nTOZN9KJUJu416J","playlistName":"مقاطع مُهمَّة (يُسريَّات) أ.د. يسري جبر","category":"متنوع"},{"id":"mo4FfmJHXJo","title":"الخِذْلَانُ أَنْ تتفَرَّغَ مِنَ الشَوَاغِلِ ثمَّ لا تتوجَّه إِليه  أ.د. يسري جبر","publishedAt":"2020-03-30T15:19:03Z","duration":"PT6M29S","thumbnail":"https://i.ytimg.com/vi/mo4FfmJHXJo/mqdefault.jpg","viewCount":"5739","playlistId":"PLEkQk5xrP-tkI_meE148wc7V7XHlB0WPb","playlistName":"من الحكم العطائية  د. يسري جبر","category":"متنوع"},{"id":"9SijymE11Ls","title":"حفظ القرآن  أ.د. يسري جبر","publishedAt":"2020-03-31T11:43:57Z","duration":"PT10M15S","thumbnail":"https://i.ytimg.com/vi/9SijymE11Ls/mqdefault.jpg","viewCount":"26881","playlistId":"PLEkQk5xrP-tm8ZIu74nTOZN9KJUJu416J","playlistName":"مقاطع مُهمَّة (يُسريَّات) أ.د. يسري جبر","category":"متنوع"},{"id":"9ljYf5Ixyko","title":"صَلَّوا عَلَيهِ وَعَلَى آلِهِ  أ.د. يسري جبر","publishedAt":"2020-04-05T12:42:03Z","duration":"PT1M9S","thumbnail":"https://i.ytimg.com/vi/9ljYf5Ixyko/mqdefault.jpg","viewCount":"2574","playlistId":"PLEkQk5xrP-tm8ZIu74nTOZN9KJUJu416J","playlistName":"مقاطع مُهمَّة (يُسريَّات) أ.د. يسري جبر","category":"متنوع"},{"id":"XM-QoKlykPI","title":"ختام شرح كتاب دلائل الخيرات - المجلس الثالث والعشرون  أ.د. يسري جبر","publishedAt":"2020-04-17T18:10:38Z","duration":"PT25M50S","thumbnail":"https://i.ytimg.com/vi/XM-QoKlykPI/mqdefault.jpg","viewCount":"9532","playlistId":"PLEkQk5xrP-tlAzcbIpuqjdFICW-knvTlR","playlistName":"شرح كتاب دلائل الخيرات وشوارق الأنوار","category":"متنوع"},{"id":"0X-pDoaXoa0","title":"بَشَرٌ لَا كَالبَشَرِ ﷺ   أ د  يسري جبر","publishedAt":"2020-04-20T19:02:10Z","duration":"PT1H10M11S","thumbnail":"https://i.ytimg.com/vi/0X-pDoaXoa0/mqdefault.jpg","viewCount":"17165","playlistId":"PLEkQk5xrP-tlnvX_MSpJzq0sTimnumdYK","playlistName":"كيف تعرفُ نبيّك؟","category":"متنوع"},{"id":"E1B-ZSCAt8A","title":"شرح كتاب بهجة النفوس - المجلس الأول","publishedAt":"2020-04-23T20:00:12Z","duration":"PT40M48S","thumbnail":"https://i.ytimg.com/vi/E1B-ZSCAt8A/mqdefault.jpg","viewCount":"9172","playlistId":"PLEkQk5xrP-tlyEB2iywk4VchTQROnBrU6","playlistName":"بهجة النفوس من أوله  أ.د. يسري جبر","category":"متنوع"},{"id":"bqNUtXiantw","title":"شرح كتاب بهجة النفوس - المجلس الثاني","publishedAt":"2020-04-24T20:00:13Z","duration":"PT32M","thumbnail":"https://i.ytimg.com/vi/bqNUtXiantw/mqdefault.jpg","viewCount":"4038","playlistId":"PLEkQk5xrP-tlyEB2iywk4VchTQROnBrU6","playlistName":"بهجة النفوس من أوله  أ.د. يسري جبر","category":"متنوع"},{"id":"vo7IQoiqwJI","title":"بِدَعُ التَفَاسِيرِ - المجلس الثالث عشر. أ.د. يسري جبر","publishedAt":"2020-04-25T08:42:50Z","duration":"PT17M10S","thumbnail":"https://i.ytimg.com/vi/vo7IQoiqwJI/mqdefault.jpg","viewCount":"798","playlistId":"PLEkQk5xrP-tkSGrPLMt1BEmJ54cGWYgtp","playlistName":"كتابُ بِدَعِ التَفَاسِيرِ - أ.د. يسري جبر","category":"متنوع"}],"total":4129,"page":90,"pageSize":24,"totalPages":173}