{"items":[{"id":"87fQ_8mHgPs","title":"113- حكم فرق شعر الرأس - شرح مسند الإمام أحمد رضي الله تعالى عنه","publishedAt":"2024-06-22T09:10:00Z","duration":"PT27M11S","thumbnail":"https://i.ytimg.com/vi/87fQ_8mHgPs/mqdefault.jpg","viewCount":"956","playlistId":"PLEkQk5xrP-tkKprIuGrSdEuBSMsyg5We1","playlistName":"شرح مسند الإمام أحمد بن حنبل","category":"متنوع"},{"id":"k3fD7GxUVAw","title":"مجلس اللطيفية بصوت د.يسري جبر","publishedAt":"2024-06-23T18:09:40Z","duration":"PT26M25S","thumbnail":"https://i.ytimg.com/vi/k3fD7GxUVAw/mqdefault.jpg","viewCount":"7640","playlistId":"PLEkQk5xrP-tk3OeVFoMfKhOhyINnlPeYZ","playlistName":"الحَضْرَةُ الصِّدِّيقِيَّة والأوْرَاد","category":"متنوع"},{"id":"vf2VUVm8CxM","title":"ما رأيك في خلاف المريدين حول تنصيب شيخ الطريقة؟","publishedAt":"2024-06-24T18:18:34Z","duration":"PT8M17S","thumbnail":"https://i.ytimg.com/vi/vf2VUVm8CxM/mqdefault.jpg","viewCount":"5848","playlistId":"PLEkQk5xrP-tkGXuZ9atE3k_7it12rUPTs","playlistName":"أسئلة المتابعين","category":"متنوع"},{"id":"q_VjYYSPxwE","title":"23- هل السحر يغير الحقائق؟ | كيفية فهم معاني القرآن | شرح مختصر الفتوحات المكية","publishedAt":"2024-06-25T16:58:07Z","duration":"PT48M51S","thumbnail":"https://i.ytimg.com/vi/q_VjYYSPxwE/mqdefault.jpg","viewCount":"7236","playlistId":"PLEkQk5xrP-tnpkdZki6rPTtMak1bnI5g-","playlistName":"شرح كتاب مختصر الفتوحات المكية المسمى لواقح الأنوار القدسية","category":"متنوع"},{"id":"_K_9V5DsqQ0","title":"نصائح مهمة لكل شخص مقبل على الزواج!","publishedAt":"2024-06-26T18:03:38Z","duration":"PT8M33S","thumbnail":"https://i.ytimg.com/vi/_K_9V5DsqQ0/mqdefault.jpg","viewCount":"6890","playlistId":"PLEkQk5xrP-tm8ZIu74nTOZN9KJUJu416J","playlistName":"مقاطع مُهمَّة (يُسريَّات) أ.د. يسري جبر","category":"متنوع"},{"id":"ZfU68ePzf0I","title":"كيف نواجه انبهار أبنائنا بالحضارة الاوروبية؟","publishedAt":"2024-06-28T17:00:33Z","duration":"PT8M25S","thumbnail":"https://i.ytimg.com/vi/ZfU68ePzf0I/mqdefault.jpg","viewCount":"4933","playlistId":"PLEkQk5xrP-tm8ZIu74nTOZN9KJUJu416J","playlistName":"مقاطع مُهمَّة (يُسريَّات) أ.د. يسري جبر","category":"متنوع"},{"id":"0BvcNpTwxPI","title":"114- حكم مَن اتُّهِمَ زُورًا - شرح مسند الإمام أحمد رضي الله تعالى عنه","publishedAt":"2024-06-29T07:03:44Z","duration":"PT36M36S","thumbnail":"https://i.ytimg.com/vi/0BvcNpTwxPI/mqdefault.jpg","viewCount":"935","playlistId":"PLEkQk5xrP-tkKprIuGrSdEuBSMsyg5We1","playlistName":"شرح مسند الإمام أحمد بن حنبل","category":"متنوع"},{"id":"arI260x6zZc","title":"24- كيف يتجلى الله على الأولياء؟ | شرح مختصر الفتوحات المكية","publishedAt":"2024-06-30T18:00:02Z","duration":"PT48M19S","thumbnail":"https://i.ytimg.com/vi/arI260x6zZc/mqdefault.jpg","viewCount":"17692","playlistId":"PLEkQk5xrP-tnpkdZki6rPTtMak1bnI5g-","playlistName":"شرح كتاب مختصر الفتوحات المكية المسمى لواقح الأنوار القدسية","category":"متنوع"},{"id":"YWILVpKBuEA","title":"تفسير شطحات بعض الأولياء ولماذا يختلف عليهم العلماء؟","publishedAt":"2024-07-04T19:54:10Z","duration":"PT22M19S","thumbnail":"https://i.ytimg.com/vi/YWILVpKBuEA/mqdefault.jpg","viewCount":"12991","playlistId":"PLEkQk5xrP-tm8ZIu74nTOZN9KJUJu416J","playlistName":"مقاطع مُهمَّة (يُسريَّات) أ.د. يسري جبر","category":"متنوع"},{"id":"HXn5icCCkOk","title":"ما حكم الاحتفال بموالد الصالحين وما يحدث فيها من تمايل؟","publishedAt":"2024-07-05T17:15:00Z","duration":"PT10M58S","thumbnail":"https://i.ytimg.com/vi/HXn5icCCkOk/mqdefault.jpg","viewCount":"4948","playlistId":"PLEkQk5xrP-tm8ZIu74nTOZN9KJUJu416J","playlistName":"مقاطع مُهمَّة (يُسريَّات) أ.د. يسري جبر","category":"متنوع"},{"id":"y0LkCZb7gwg","title":"115- مَن استعاذ بالله فأعيذوه، ومَن سألكم بوجه الله فأعطوه | ما معنى العُمرى؟","publishedAt":"2024-07-08T08:00:37Z","duration":"PT43M48S","thumbnail":"https://i.ytimg.com/vi/y0LkCZb7gwg/mqdefault.jpg","viewCount":"1366","playlistId":"PLEkQk5xrP-tkKprIuGrSdEuBSMsyg5We1","playlistName":"شرح مسند الإمام أحمد بن حنبل","category":"متنوع"},{"id":"hSkd59FxULw","title":"ما أفضل كتب تفسير القرآن وما هي أنواع التفسير؟","publishedAt":"2024-07-08T18:00:30Z","duration":"PT23M41S","thumbnail":"https://i.ytimg.com/vi/hSkd59FxULw/mqdefault.jpg","viewCount":"6275","playlistId":"PLEkQk5xrP-tkSGrPLMt1BEmJ54cGWYgtp","playlistName":"كتابُ بِدَعِ التَفَاسِيرِ - أ.د. يسري جبر","category":"متنوع"},{"id":"84QcRRSifKo","title":"ما حكم حضور حفلات الإنشاد الديني؟","publishedAt":"2024-07-09T17:23:45Z","duration":"PT8M43S","thumbnail":"https://i.ytimg.com/vi/84QcRRSifKo/mqdefault.jpg","viewCount":"3290","playlistId":"PLEkQk5xrP-tm8ZIu74nTOZN9KJUJu416J","playlistName":"مقاطع مُهمَّة (يُسريَّات) أ.د. يسري جبر","category":"متنوع"},{"id":"YURtUYjTBGY","title":"تعريف وسيرة السيد عبد الله الصديق الغماري بقراءة د. يسري جبر","publishedAt":"2024-07-10T19:49:27Z","duration":"PT47M21S","thumbnail":"https://i.ytimg.com/vi/YURtUYjTBGY/mqdefault.jpg","viewCount":"4301","playlistId":"PLEkQk5xrP-tkSGrPLMt1BEmJ54cGWYgtp","playlistName":"كتابُ بِدَعِ التَفَاسِيرِ - أ.د. يسري جبر","category":"متنوع"},{"id":"JB5WU3IB7hY","title":"شرح الاسرائيليات في كتب تفاسير القرآن","publishedAt":"2024-07-11T19:08:07Z","duration":"PT40M4S","thumbnail":"https://i.ytimg.com/vi/JB5WU3IB7hY/mqdefault.jpg","viewCount":"3791","playlistId":"PLEkQk5xrP-tkSGrPLMt1BEmJ54cGWYgtp","playlistName":"كتابُ بِدَعِ التَفَاسِيرِ - أ.د. يسري جبر","category":"متنوع"},{"id":"_cpEU-iYGig","title":"25- درجات الوصول إلى الله | شرح مختصر الفتوحات المكية","publishedAt":"2024-07-13T18:00:30Z","duration":"PT46M14S","thumbnail":"https://i.ytimg.com/vi/_cpEU-iYGig/mqdefault.jpg","viewCount":"9270","playlistId":"PLEkQk5xrP-tnpkdZki6rPTtMak1bnI5g-","playlistName":"شرح كتاب مختصر الفتوحات المكية المسمى لواقح الأنوار القدسية","category":"متنوع"},{"id":"iMvlu2b4wIM","title":"116- حكم بيع الطعام قبل أن يُستوفى - شرح مسند الإمام أحمد رضي الله تعالى عنه","publishedAt":"2024-07-14T05:00:22Z","duration":"PT33M45S","thumbnail":"https://i.ytimg.com/vi/iMvlu2b4wIM/mqdefault.jpg","viewCount":"624","playlistId":"PLEkQk5xrP-tkKprIuGrSdEuBSMsyg5We1","playlistName":"شرح مسند الإمام أحمد بن حنبل","category":"متنوع"},{"id":"5-HoeEJT9zU","title":"كيف تكون طبيعة العلاقة بين الشيخ والمريد؟","publishedAt":"2024-07-14T17:40:53Z","duration":"PT8M42S","thumbnail":"https://i.ytimg.com/vi/5-HoeEJT9zU/mqdefault.jpg","viewCount":"4468","playlistId":"PLEkQk5xrP-tkGXuZ9atE3k_7it12rUPTs","playlistName":"أسئلة المتابعين","category":"متنوع"},{"id":"7VNWMMUL9HY","title":"قصة يوم عاشوراء وما هو فضل صيامه؟","publishedAt":"2024-07-15T17:30:00Z","duration":"PT13M55S","thumbnail":"https://i.ytimg.com/vi/7VNWMMUL9HY/mqdefault.jpg","viewCount":"9248","playlistId":"PLEkQk5xrP-tm8ZIu74nTOZN9KJUJu416J","playlistName":"مقاطع مُهمَّة (يُسريَّات) أ.د. يسري جبر","category":"متنوع"},{"id":"VZwKzEC2SHQ","title":"117- دعاء الكرب - شرح مسند الإمام أحمد رضي الله تعالى عنه","publishedAt":"2024-07-18T05:30:11Z","duration":"PT33M39S","thumbnail":"https://i.ytimg.com/vi/VZwKzEC2SHQ/mqdefault.jpg","viewCount":"1573","playlistId":"PLEkQk5xrP-tkKprIuGrSdEuBSMsyg5We1","playlistName":"شرح مسند الإمام أحمد بن حنبل","category":"متنوع"},{"id":"i9sv0qOF-HY","title":"كيف نحمي أنفسنا من مدعي التصوف؟","publishedAt":"2024-07-18T18:00:19Z","duration":"PT10M1S","thumbnail":"https://i.ytimg.com/vi/i9sv0qOF-HY/mqdefault.jpg","viewCount":"6995","playlistId":"PLEkQk5xrP-tm8ZIu74nTOZN9KJUJu416J","playlistName":"مقاطع مُهمَّة (يُسريَّات) أ.د. يسري جبر","category":"متنوع"},{"id":"Tkdx2-5O8f8","title":"هل ذكر الله أفضل من الجهاد؟ | وما أنواع الذكر؟","publishedAt":"2024-07-19T18:37:04Z","duration":"PT8M14S","thumbnail":"https://i.ytimg.com/vi/Tkdx2-5O8f8/mqdefault.jpg","viewCount":"5778","playlistId":"PLEkQk5xrP-tkGXuZ9atE3k_7it12rUPTs","playlistName":"أسئلة المتابعين","category":"متنوع"},{"id":"HZGTj8keX-o","title":"أخي أكل حقي في الميراث فماذا أفعل معه؟","publishedAt":"2024-07-20T18:53:31Z","duration":"PT13M10S","thumbnail":"https://i.ytimg.com/vi/HZGTj8keX-o/mqdefault.jpg","viewCount":"4635","playlistId":"PLEkQk5xrP-tkGXuZ9atE3k_7it12rUPTs","playlistName":"أسئلة المتابعين","category":"متنوع"},{"id":"alonyedcX60","title":"تفسير قوله تعالى \"ما منعك أن تسجد لما خلقت بيدي\" وقوله \"والسموات مطويات بيمينه\"","publishedAt":"2024-07-21T06:00:01Z","duration":"PT19M50S","thumbnail":"https://i.ytimg.com/vi/alonyedcX60/mqdefault.jpg","viewCount":"3163","playlistId":"PLEkQk5xrP-tkSGrPLMt1BEmJ54cGWYgtp","playlistName":"كتابُ بِدَعِ التَفَاسِيرِ - أ.د. يسري جبر","category":"متنوع"}],"total":4126,"page":156,"pageSize":24,"totalPages":172}