{"items":[{"id":"MU99hvE7V-c","title":"مقرأة سورة القلم من أولها","publishedAt":"2019-05-04T22:34:59Z","duration":"PT30M","thumbnail":"https://i.ytimg.com/vi/MU99hvE7V-c/mqdefault.jpg","viewCount":"850","playlistId":"PLEkQk5xrP-tnmTYsyW6xNdyfhPq0Bhrhj","playlistName":"مقرأة الفجر - القُرْآنُ الكَرِيمُ - خَتْمَةُ التَّدَبُّرِ  أ.د. يسري جبر","category":"متنوع"},{"id":"aqrim-TDPGk","title":"شرح سنن الدارمي كتاب الصلاة من باب ٥٤","publishedAt":"2019-05-05T08:53:12Z","duration":"PT31M7S","thumbnail":"https://i.ytimg.com/vi/aqrim-TDPGk/mqdefault.jpg","viewCount":"328","playlistId":"PLEkQk5xrP-tmAg-FuWjY057X_h5NmGmAa","playlistName":"شرح سنن الدارمي - أ.د. يسري جبر (كاملا)","category":"متنوع"},{"id":"xE2ajJg8Rdk","title":"مقرأة سورة القلم من آية ١٧","publishedAt":"2019-05-06T12:21:16Z","duration":"PT24M11S","thumbnail":"https://i.ytimg.com/vi/xE2ajJg8Rdk/mqdefault.jpg","viewCount":"532","playlistId":"PLEkQk5xrP-tnmTYsyW6xNdyfhPq0Bhrhj","playlistName":"مقرأة الفجر - القُرْآنُ الكَرِيمُ - خَتْمَةُ التَّدَبُّرِ  أ.د. يسري جبر","category":"متنوع"},{"id":"owAspWqx_1M","title":"المجلس الحادي عشر (١٦٠) حديث الإسراء والمعراج بنبينا صلى الله عليه وآله وسلم  أ. د. يسري جبر","publishedAt":"2019-05-06T15:50:55Z","duration":"PT30M24S","thumbnail":"https://i.ytimg.com/vi/owAspWqx_1M/mqdefault.jpg","viewCount":"719","playlistId":"PLEkQk5xrP-tnl7vb7KeAoPd5ZlqKKW8KV","playlistName":"شرح كتاب بهجة النفوس أ.د . يسرى جبر","category":"متنوع"},{"id":"tcQ4j3p1gXg","title":"شرح سنن الدارمي كتاب الصلاة من باب ٦٢","publishedAt":"2019-05-07T01:11:20Z","duration":"PT25M50S","thumbnail":"https://i.ytimg.com/vi/tcQ4j3p1gXg/mqdefault.jpg","viewCount":"377","playlistId":"PLEkQk5xrP-tmAg-FuWjY057X_h5NmGmAa","playlistName":"شرح سنن الدارمي - أ.د. يسري جبر (كاملا)","category":"متنوع"},{"id":"Sf8equRrpvo","title":"المجلس الثاني عشر من الحديث (١٦٠) حديث إسراء النبي صلى الله عليه وآله وسلم ومعراجه أ. د. يسري جبر","publishedAt":"2019-05-07T15:02:57Z","duration":"PT26M12S","thumbnail":"https://i.ytimg.com/vi/Sf8equRrpvo/mqdefault.jpg","viewCount":"520","playlistId":"PLEkQk5xrP-tnl7vb7KeAoPd5ZlqKKW8KV","playlistName":"شرح كتاب بهجة النفوس أ.د . يسرى جبر","category":"متنوع"},{"id":"Ud3yj6sdP1Y","title":"مقرأة سورة القلم من آية ٣٤","publishedAt":"2019-05-07T17:44:56Z","duration":"PT29M6S","thumbnail":"https://i.ytimg.com/vi/Ud3yj6sdP1Y/mqdefault.jpg","viewCount":"547","playlistId":"PLEkQk5xrP-tnmTYsyW6xNdyfhPq0Bhrhj","playlistName":"مقرأة الفجر - القُرْآنُ الكَرِيمُ - خَتْمَةُ التَّدَبُّرِ  أ.د. يسري جبر","category":"متنوع"},{"id":"QSJcd4taPE0","title":"شرح سنن الدارمي كتاب الصلاة من باب ٧٠","publishedAt":"2019-05-08T00:31:57Z","duration":"PT35M9S","thumbnail":"https://i.ytimg.com/vi/QSJcd4taPE0/mqdefault.jpg","viewCount":"309","playlistId":"PLEkQk5xrP-tmAg-FuWjY057X_h5NmGmAa","playlistName":"شرح سنن الدارمي - أ.د. يسري جبر (كاملا)","category":"متنوع"},{"id":"Al3omlFF96s","title":"مقرأة سورة الحاقة من أولها","publishedAt":"2019-05-08T09:45:11Z","duration":"PT11M30S","thumbnail":"https://i.ytimg.com/vi/Al3omlFF96s/mqdefault.jpg","viewCount":"416","playlistId":"PLEkQk5xrP-tnmTYsyW6xNdyfhPq0Bhrhj","playlistName":"مقرأة الفجر - القُرْآنُ الكَرِيمُ - خَتْمَةُ التَّدَبُّرِ  أ.د. يسري جبر","category":"متنوع"},{"id":"d7E4OaEFAKQ","title":"المجلس الثالث عشر من الحديث (١٦٠) حديث إسراء النبي صلى الله عليه وآله وسلم ومعراجه أ. د. يسري جبر","publishedAt":"2019-05-08T17:18:26Z","duration":"PT26M17S","thumbnail":"https://i.ytimg.com/vi/d7E4OaEFAKQ/mqdefault.jpg","viewCount":"501","playlistId":"PLEkQk5xrP-tnl7vb7KeAoPd5ZlqKKW8KV","playlistName":"شرح كتاب بهجة النفوس أ.د . يسرى جبر","category":"متنوع"},{"id":"1ZV6wZYPH4w","title":"شرح سنن الدارمي كتاب الصلاة من باب ٧٦","publishedAt":"2019-05-08T21:24:03Z","duration":"PT36M53S","thumbnail":"https://i.ytimg.com/vi/1ZV6wZYPH4w/mqdefault.jpg","viewCount":"386","playlistId":"PLEkQk5xrP-tmAg-FuWjY057X_h5NmGmAa","playlistName":"شرح سنن الدارمي - أ.د. يسري جبر (كاملا)","category":"متنوع"},{"id":"YGINebC89GU","title":"مقرأة سورة الحاقة من آية ١١","publishedAt":"2019-05-09T10:08:55Z","duration":"PT13M42S","thumbnail":"https://i.ytimg.com/vi/YGINebC89GU/mqdefault.jpg","viewCount":"389","playlistId":"PLEkQk5xrP-tnmTYsyW6xNdyfhPq0Bhrhj","playlistName":"مقرأة الفجر - القُرْآنُ الكَرِيمُ - خَتْمَةُ التَّدَبُّرِ  أ.د. يسري جبر","category":"متنوع"},{"id":"xvzyW76wzfs","title":"المجلس الرابع عشر من الحديث (١٦٠) حديث إسراء النبي صلى الله عليه وآله وسلم ومعراجه أ. د. يسري جبر","publishedAt":"2019-05-09T16:25:46Z","duration":"PT16M46S","thumbnail":"https://i.ytimg.com/vi/xvzyW76wzfs/mqdefault.jpg","viewCount":"444","playlistId":"PLEkQk5xrP-tnl7vb7KeAoPd5ZlqKKW8KV","playlistName":"شرح كتاب بهجة النفوس أ.د . يسرى جبر","category":"متنوع"},{"id":"wPinO7rUc1I","title":"شرح سنن الدارمي كتاب الصلاة من باب ٨٤","publishedAt":"2019-05-09T20:13:28Z","duration":"PT45M9S","thumbnail":"https://i.ytimg.com/vi/wPinO7rUc1I/mqdefault.jpg","viewCount":"382","playlistId":"PLEkQk5xrP-tmAg-FuWjY057X_h5NmGmAa","playlistName":"شرح سنن الدارمي - أ.د. يسري جبر (كاملا)","category":"متنوع"},{"id":"FNfG8FAhn9A","title":"المجلس الخامس عشر من الحديث (١٦٠) حديث إسراء النبي صلى الله عليه وآله وسلم ومعراجه أ. د. يسري جبر","publishedAt":"2019-05-10T15:04:26Z","duration":"PT15M8S","thumbnail":"https://i.ytimg.com/vi/FNfG8FAhn9A/mqdefault.jpg","viewCount":"481","playlistId":"PLEkQk5xrP-tnl7vb7KeAoPd5ZlqKKW8KV","playlistName":"شرح كتاب بهجة النفوس أ.د . يسرى جبر","category":"متنوع"},{"id":"fc3KHYePcaE","title":"مقرأة سورة الحاقة من آية ١٩","publishedAt":"2019-05-11T12:26:46Z","duration":"PT11M3S","thumbnail":"https://i.ytimg.com/vi/fc3KHYePcaE/mqdefault.jpg","viewCount":"292","playlistId":"PLEkQk5xrP-tnmTYsyW6xNdyfhPq0Bhrhj","playlistName":"مقرأة الفجر - القُرْآنُ الكَرِيمُ - خَتْمَةُ التَّدَبُّرِ  أ.د. يسري جبر","category":"متنوع"},{"id":"-n7tGrwaEiw","title":"المجلس السادس عشر من الحديث (١٦٠) حديث إسراء النبي صلى الله عليه وآله وسلم ومعراجه أ. د. يسري جبر","publishedAt":"2019-05-11T17:00:28Z","duration":"PT32M36S","thumbnail":"https://i.ytimg.com/vi/-n7tGrwaEiw/mqdefault.jpg","viewCount":"548","playlistId":"PLEkQk5xrP-tnl7vb7KeAoPd5ZlqKKW8KV","playlistName":"شرح كتاب بهجة النفوس أ.د . يسرى جبر","category":"متنوع"},{"id":"Btj0mtvDp6k","title":"شرح سنن الدارمي كتاب الصلاة من باب ٩٢","publishedAt":"2019-05-11T22:03:50Z","duration":"PT39M39S","thumbnail":"https://i.ytimg.com/vi/Btj0mtvDp6k/mqdefault.jpg","viewCount":"372","playlistId":"PLEkQk5xrP-tmAg-FuWjY057X_h5NmGmAa","playlistName":"شرح سنن الدارمي - أ.د. يسري جبر (كاملا)","category":"متنوع"},{"id":"tgYuJdhSLXI","title":"مقرأة سورة الحاقة من آية ٢٥","publishedAt":"2019-05-12T10:30:06Z","duration":"PT14M11S","thumbnail":"https://i.ytimg.com/vi/tgYuJdhSLXI/mqdefault.jpg","viewCount":"274","playlistId":"PLEkQk5xrP-tnmTYsyW6xNdyfhPq0Bhrhj","playlistName":"مقرأة الفجر - القُرْآنُ الكَرِيمُ - خَتْمَةُ التَّدَبُّرِ  أ.د. يسري جبر","category":"متنوع"},{"id":"jkOLT2bTGEY","title":"المجلس السابع عشر من الحديث (١٦٠) حديث إسراء النبي صلى الله عليه وآله وسلم ومعراجه أ. د. يسري جبر","publishedAt":"2019-05-12T14:34:13Z","duration":"PT28M14S","thumbnail":"https://i.ytimg.com/vi/jkOLT2bTGEY/mqdefault.jpg","viewCount":"495","playlistId":"PLEkQk5xrP-tnl7vb7KeAoPd5ZlqKKW8KV","playlistName":"شرح كتاب بهجة النفوس أ.د . يسرى جبر","category":"متنوع"},{"id":"JwtNikjaMZ4","title":"شرح سنن الدارمي كتاب الصلاة من باب ٩٩","publishedAt":"2019-05-12T22:37:49Z","duration":"PT35M52S","thumbnail":"https://i.ytimg.com/vi/JwtNikjaMZ4/mqdefault.jpg","viewCount":"334","playlistId":"PLEkQk5xrP-tmAg-FuWjY057X_h5NmGmAa","playlistName":"شرح سنن الدارمي - أ.د. يسري جبر (كاملا)","category":"متنوع"},{"id":"xkDXFnIeeOI","title":"مقرأة سورة الحاقة من آية ٣٨","publishedAt":"2019-05-13T12:47:45Z","duration":"PT15M46S","thumbnail":"https://i.ytimg.com/vi/xkDXFnIeeOI/mqdefault.jpg","viewCount":"354","playlistId":"PLEkQk5xrP-tnmTYsyW6xNdyfhPq0Bhrhj","playlistName":"مقرأة الفجر - القُرْآنُ الكَرِيمُ - خَتْمَةُ التَّدَبُّرِ  أ.د. يسري جبر","category":"متنوع"},{"id":"t9ZX0BfqjDI","title":"المجلس الثامن عشر من الحديث (١٦٠) حديث إسراء النبي صلى الله عليه وآله وسلم ومعراجه أ. د. يسري جبر","publishedAt":"2019-05-13T15:44:52Z","duration":"PT31M49S","thumbnail":"https://i.ytimg.com/vi/t9ZX0BfqjDI/mqdefault.jpg","viewCount":"581","playlistId":"PLEkQk5xrP-tnl7vb7KeAoPd5ZlqKKW8KV","playlistName":"شرح كتاب بهجة النفوس أ.د . يسرى جبر","category":"متنوع"},{"id":"z3Kg7rvoqkU","title":"شرح سنن الدارمي كتاب الصلاة من باب ٩٩","publishedAt":"2019-05-13T20:21:04Z","duration":"PT33M30S","thumbnail":"https://i.ytimg.com/vi/z3Kg7rvoqkU/mqdefault.jpg","viewCount":"328","playlistId":"PLEkQk5xrP-tmAg-FuWjY057X_h5NmGmAa","playlistName":"شرح سنن الدارمي - أ.د. يسري جبر (كاملا)","category":"متنوع"}],"total":4126,"page":76,"pageSize":24,"totalPages":172}