{"items":[{"id":"JGHtMlHMrvs","title":"مقرأة سورة المطففين من آية ٢٩","publishedAt":"2019-07-07T09:46:05Z","duration":"PT13M21S","thumbnail":"https://i.ytimg.com/vi/JGHtMlHMrvs/mqdefault.jpg","viewCount":"487","playlistId":"PLEkQk5xrP-tnmTYsyW6xNdyfhPq0Bhrhj","playlistName":"مقرأة الفجر - القُرْآنُ الكَرِيمُ - خَتْمَةُ التَّدَبُّرِ  أ.د. يسري جبر","category":"متنوع"},{"id":"F09NMTzaOOc","title":"شرح سنن الدارمي كتاب المناسك من باب ٣٤","publishedAt":"2019-07-07T19:38:36Z","duration":"PT37M38S","thumbnail":"https://i.ytimg.com/vi/F09NMTzaOOc/mqdefault.jpg","viewCount":"374","playlistId":"PLEkQk5xrP-tmAg-FuWjY057X_h5NmGmAa","playlistName":"شرح سنن الدارمي - أ.د. يسري جبر (كاملا)","category":"متنوع"},{"id":"NUl8ouYjB9o","title":"مقرأة سورة الانشقاق من أولها","publishedAt":"2019-07-08T12:12:05Z","duration":"PT17M36S","thumbnail":"https://i.ytimg.com/vi/NUl8ouYjB9o/mqdefault.jpg","viewCount":"584","playlistId":"PLEkQk5xrP-tnmTYsyW6xNdyfhPq0Bhrhj","playlistName":"مقرأة الفجر - القُرْآنُ الكَرِيمُ - خَتْمَةُ التَّدَبُّرِ  أ.د. يسري جبر","category":"متنوع"},{"id":"3al2VlgIOvU","title":"شرح سنن الدارمي كتاب المناسك من باب ٣٥","publishedAt":"2019-07-08T20:56:10Z","duration":"PT24M29S","thumbnail":"https://i.ytimg.com/vi/3al2VlgIOvU/mqdefault.jpg","viewCount":"284","playlistId":"PLEkQk5xrP-tmAg-FuWjY057X_h5NmGmAa","playlistName":"شرح سنن الدارمي - أ.د. يسري جبر (كاملا)","category":"متنوع"},{"id":"dIGDR7lv1qk","title":"مقرأة سورة الانشقاق من آية ١٦","publishedAt":"2019-07-09T10:56:15Z","duration":"PT12M57S","thumbnail":"https://i.ytimg.com/vi/dIGDR7lv1qk/mqdefault.jpg","viewCount":"457","playlistId":"PLEkQk5xrP-tnmTYsyW6xNdyfhPq0Bhrhj","playlistName":"مقرأة الفجر - القُرْآنُ الكَرِيمُ - خَتْمَةُ التَّدَبُّرِ  أ.د. يسري جبر","category":"متنوع"},{"id":"-91GoJh1GS0","title":"شرح سنن الدارمي كتاب المناسك من باب ٤٣","publishedAt":"2019-07-09T18:12:10Z","duration":"PT32M50S","thumbnail":"https://i.ytimg.com/vi/-91GoJh1GS0/mqdefault.jpg","viewCount":"342","playlistId":"PLEkQk5xrP-tmAg-FuWjY057X_h5NmGmAa","playlistName":"شرح سنن الدارمي - أ.د. يسري جبر (كاملا)","category":"متنوع"},{"id":"CcxGYdiyJEU","title":"مقرأة سورة البروج من أولها","publishedAt":"2019-07-10T12:43:07Z","duration":"PT10M3S","thumbnail":"https://i.ytimg.com/vi/CcxGYdiyJEU/mqdefault.jpg","viewCount":"586","playlistId":"PLEkQk5xrP-tnmTYsyW6xNdyfhPq0Bhrhj","playlistName":"مقرأة الفجر - القُرْآنُ الكَرِيمُ - خَتْمَةُ التَّدَبُّرِ  أ.د. يسري جبر","category":"متنوع"},{"id":"FvuGnQRqoX0","title":"شرح سنن الدارمي كتاب المناسك من باب ٥٠","publishedAt":"2019-07-11T07:50:01Z","duration":"PT25M30S","thumbnail":"https://i.ytimg.com/vi/FvuGnQRqoX0/mqdefault.jpg","viewCount":"253","playlistId":"PLEkQk5xrP-tmAg-FuWjY057X_h5NmGmAa","playlistName":"شرح سنن الدارمي - أ.د. يسري جبر (كاملا)","category":"متنوع"},{"id":"S84XP9w3dRI","title":"مقرأة سورة البروج من آية ١١","publishedAt":"2019-07-11T16:37:32Z","duration":"PT11M43S","thumbnail":"https://i.ytimg.com/vi/S84XP9w3dRI/mqdefault.jpg","viewCount":"514","playlistId":"PLEkQk5xrP-tnmTYsyW6xNdyfhPq0Bhrhj","playlistName":"مقرأة الفجر - القُرْآنُ الكَرِيمُ - خَتْمَةُ التَّدَبُّرِ  أ.د. يسري جبر","category":"متنوع"},{"id":"F_6T-tx5L_A","title":"شرح سنن الدارمي كتاب المناسك من باب ٥٧","publishedAt":"2019-07-12T07:41:32Z","duration":"PT34M8S","thumbnail":"https://i.ytimg.com/vi/F_6T-tx5L_A/mqdefault.jpg","viewCount":"376","playlistId":"PLEkQk5xrP-tmAg-FuWjY057X_h5NmGmAa","playlistName":"شرح سنن الدارمي - أ.د. يسري جبر (كاملا)","category":"متنوع"},{"id":"VodckCvB-vQ","title":"مقرأة سورة الطارق من أولها","publishedAt":"2019-07-14T09:06:29Z","duration":"PT19M52S","thumbnail":"https://i.ytimg.com/vi/VodckCvB-vQ/mqdefault.jpg","viewCount":"764","playlistId":"PLEkQk5xrP-tnmTYsyW6xNdyfhPq0Bhrhj","playlistName":"مقرأة الفجر - القُرْآنُ الكَرِيمُ - خَتْمَةُ التَّدَبُّرِ  أ.د. يسري جبر","category":"متنوع"},{"id":"RaPiUvUaBGQ","title":"شرح سنن الدارمي كتاب المناسك من باب ٦٢","publishedAt":"2019-07-14T22:01:58Z","duration":"PT27M50S","thumbnail":"https://i.ytimg.com/vi/RaPiUvUaBGQ/mqdefault.jpg","viewCount":"271","playlistId":"PLEkQk5xrP-tmAg-FuWjY057X_h5NmGmAa","playlistName":"شرح سنن الدارمي - أ.د. يسري جبر (كاملا)","category":"متنوع"},{"id":"yRFXNIZLZoY","title":"شرح سنن الدارمي كتاب المناسك من باب ٧١","publishedAt":"2019-07-15T21:14:21Z","duration":"PT25M51S","thumbnail":"https://i.ytimg.com/vi/yRFXNIZLZoY/mqdefault.jpg","viewCount":"262","playlistId":"PLEkQk5xrP-tmAg-FuWjY057X_h5NmGmAa","playlistName":"شرح سنن الدارمي - أ.د. يسري جبر (كاملا)","category":"متنوع"},{"id":"yFH9f00bUOA","title":"مقرأة سورة الأعلی من أولها","publishedAt":"2019-07-16T06:18:01Z","duration":"PT27M21S","thumbnail":"https://i.ytimg.com/vi/yFH9f00bUOA/mqdefault.jpg","viewCount":"772","playlistId":"PLEkQk5xrP-tnmTYsyW6xNdyfhPq0Bhrhj","playlistName":"مقرأة الفجر - القُرْآنُ الكَرِيمُ - خَتْمَةُ التَّدَبُّرِ  أ.د. يسري جبر","category":"متنوع"},{"id":"IKNv8ameR-c","title":"شرح سنن الدارمي كتاب المناسك من باب ٨١","publishedAt":"2019-07-16T18:49:58Z","duration":"PT29M14S","thumbnail":"https://i.ytimg.com/vi/IKNv8ameR-c/mqdefault.jpg","viewCount":"211","playlistId":"PLEkQk5xrP-tmAg-FuWjY057X_h5NmGmAa","playlistName":"شرح سنن الدارمي - أ.د. يسري جبر (كاملا)","category":"متنوع"},{"id":"6PbZGIGzuPg","title":"مقرأة سورة الغاشية من أولها","publishedAt":"2019-07-17T05:22:35Z","duration":"PT26M27S","thumbnail":"https://i.ytimg.com/vi/6PbZGIGzuPg/mqdefault.jpg","viewCount":"537","playlistId":"PLEkQk5xrP-tnmTYsyW6xNdyfhPq0Bhrhj","playlistName":"مقرأة الفجر - القُرْآنُ الكَرِيمُ - خَتْمَةُ التَّدَبُّرِ  أ.د. يسري جبر","category":"متنوع"},{"id":"UIOYQExZrN0","title":"مقرأة سورة الفجر من أولها","publishedAt":"2019-07-17T10:12:34Z","duration":"PT15M45S","thumbnail":"https://i.ytimg.com/vi/UIOYQExZrN0/mqdefault.jpg","viewCount":"823","playlistId":"PLEkQk5xrP-tnmTYsyW6xNdyfhPq0Bhrhj","playlistName":"مقرأة الفجر - القُرْآنُ الكَرِيمُ - خَتْمَةُ التَّدَبُّرِ  أ.د. يسري جبر","category":"متنوع"},{"id":"RNcdBqpXmUU","title":"شرح سنن الدارمي كتاب الأضاحي من أوله","publishedAt":"2019-07-18T07:58:41Z","duration":"PT33M43S","thumbnail":"https://i.ytimg.com/vi/RNcdBqpXmUU/mqdefault.jpg","viewCount":"301","playlistId":"PLEkQk5xrP-tmAg-FuWjY057X_h5NmGmAa","playlistName":"شرح سنن الدارمي - أ.د. يسري جبر (كاملا)","category":"متنوع"},{"id":"X1NUbcJD5co","title":"مقرأة سورة الفجر من آية ١٥","publishedAt":"2019-07-18T11:03:08Z","duration":"PT23M1S","thumbnail":"https://i.ytimg.com/vi/X1NUbcJD5co/mqdefault.jpg","viewCount":"658","playlistId":"PLEkQk5xrP-tnmTYsyW6xNdyfhPq0Bhrhj","playlistName":"مقرأة الفجر - القُرْآنُ الكَرِيمُ - خَتْمَةُ التَّدَبُّرِ  أ.د. يسري جبر","category":"متنوع"},{"id":"Wxn8nvIXm6I","title":"شرح سنن الدارمي كتاب الأضاحي من باب ٨","publishedAt":"2019-07-18T17:43:22Z","duration":"PT23M28S","thumbnail":"https://i.ytimg.com/vi/Wxn8nvIXm6I/mqdefault.jpg","viewCount":"403","playlistId":"PLEkQk5xrP-tmAg-FuWjY057X_h5NmGmAa","playlistName":"شرح سنن الدارمي - أ.د. يسري جبر (كاملا)","category":"متنوع"},{"id":"coq1V_cD880","title":"مقرأة سورة البلد من أولها","publishedAt":"2019-07-21T08:16:27Z","duration":"PT18M1S","thumbnail":"https://i.ytimg.com/vi/coq1V_cD880/mqdefault.jpg","viewCount":"672","playlistId":"PLEkQk5xrP-tnmTYsyW6xNdyfhPq0Bhrhj","playlistName":"مقرأة الفجر - القُرْآنُ الكَرِيمُ - خَتْمَةُ التَّدَبُّرِ  أ.د. يسري جبر","category":"متنوع"},{"id":"0w5gqtXvYCY","title":"شرح سنن الدارمي كتاب الأضاحي من باب ١٠","publishedAt":"2019-07-21T16:00:42Z","duration":"PT30M11S","thumbnail":"https://i.ytimg.com/vi/0w5gqtXvYCY/mqdefault.jpg","viewCount":"326","playlistId":"PLEkQk5xrP-tmAg-FuWjY057X_h5NmGmAa","playlistName":"شرح سنن الدارمي - أ.د. يسري جبر (كاملا)","category":"متنوع"},{"id":"68wcmyJYXNc","title":"مقرأة سورة الشمس من أولها","publishedAt":"2019-07-22T09:07:41Z","duration":"PT16M7S","thumbnail":"https://i.ytimg.com/vi/68wcmyJYXNc/mqdefault.jpg","viewCount":"589","playlistId":"PLEkQk5xrP-tnmTYsyW6xNdyfhPq0Bhrhj","playlistName":"مقرأة الفجر - القُرْآنُ الكَرِيمُ - خَتْمَةُ التَّدَبُّرِ  أ.د. يسري جبر","category":"متنوع"},{"id":"0ILP5gFk1gI","title":"شرح سنن الدارمي كتاب الأضاحي من باب ١٩","publishedAt":"2019-07-22T20:56:28Z","duration":"PT34M3S","thumbnail":"https://i.ytimg.com/vi/0ILP5gFk1gI/mqdefault.jpg","viewCount":"319","playlistId":"PLEkQk5xrP-tmAg-FuWjY057X_h5NmGmAa","playlistName":"شرح سنن الدارمي - أ.د. يسري جبر (كاملا)","category":"متنوع"}],"total":4129,"page":81,"pageSize":24,"totalPages":173}