{"items":[{"id":"GaXSsBVJ2d0","title":"هل تتوافق الديمقراطية مع الإسلام؟","publishedAt":"2021-04-05T19:58:45Z","duration":"PT9M54S","thumbnail":"https://i.ytimg.com/vi/GaXSsBVJ2d0/mqdefault.jpg","viewCount":"7829","playlistId":"PLEkQk5xrP-tkGXuZ9atE3k_7it12rUPTs","playlistName":"أسئلة المتابعين","category":"متنوع"},{"id":"He7to-RWtfE","title":"هل أستطيع رؤية النبي ﷺ يقظة؟","publishedAt":"2021-04-06T18:37:06Z","duration":"PT10M37S","thumbnail":"https://i.ytimg.com/vi/He7to-RWtfE/mqdefault.jpg","viewCount":"34284","playlistId":"PLEkQk5xrP-tm8ZIu74nTOZN9KJUJu416J","playlistName":"مقاطع مُهمَّة (يُسريَّات) أ.د. يسري جبر","category":"متنوع"},{"id":"vxvxKEgo7sU","title":"41- \"...ألا أُرِيكَ امْرَأَةً من أهل الجنَّة؟ قلتُ: بلى...\"الحديث(11)باب الصَّبر - شرح دليل الفالحين","publishedAt":"2021-04-07T06:21:32Z","duration":"PT37M22S","thumbnail":"https://i.ytimg.com/vi/vxvxKEgo7sU/mqdefault.jpg","viewCount":"1880","playlistId":"PLEkQk5xrP-tkc9DXvSLguqX5-FYp6ASR4","playlistName":"دليل الفالحين لطرق رياض الصالحين","category":"متنوع"},{"id":"xAu7S8YVp2Q","title":"الرد على من يُطالب بتطبيق الختان","publishedAt":"2021-04-07T19:26:54Z","duration":"PT13M16S","thumbnail":"https://i.ytimg.com/vi/xAu7S8YVp2Q/mqdefault.jpg","viewCount":"5741","playlistId":"PLEkQk5xrP-tm8ZIu74nTOZN9KJUJu416J","playlistName":"مقاطع مُهمَّة (يُسريَّات) أ.د. يسري جبر","category":"متنوع"},{"id":"3lnIoyVa5lc","title":"شبهات واعتراضات حول التصوف","publishedAt":"2021-04-08T18:17:35Z","duration":"PT8M14S","thumbnail":"https://i.ytimg.com/vi/3lnIoyVa5lc/mqdefault.jpg","viewCount":"6539","playlistId":"PLEkQk5xrP-tm8ZIu74nTOZN9KJUJu416J","playlistName":"مقاطع مُهمَّة (يُسريَّات) أ.د. يسري جبر","category":"متنوع"},{"id":"doT9cgDG4EQ","title":"42-\"مَنْ يُرِدِ اللَّهُ بِهِ خَيْرًا، يُصِبْ مِنْهُ\" الحديث( 15) باب الصَّبر - شرح دليل الفالحين","publishedAt":"2021-04-09T05:21:45Z","duration":"PT33M8S","thumbnail":"https://i.ytimg.com/vi/doT9cgDG4EQ/mqdefault.jpg","viewCount":"2592","playlistId":"PLEkQk5xrP-tkc9DXvSLguqX5-FYp6ASR4","playlistName":"دليل الفالحين لطرق رياض الصالحين","category":"متنوع"},{"id":"IyrWSL4jd00","title":"كيفية قراءة الأوراد","publishedAt":"2021-04-10T19:40:12Z","duration":"PT23M23S","thumbnail":"https://i.ytimg.com/vi/IyrWSL4jd00/mqdefault.jpg","viewCount":"92359","playlistId":"PLEkQk5xrP-tm8ZIu74nTOZN9KJUJu416J","playlistName":"مقاطع مُهمَّة (يُسريَّات) أ.د. يسري جبر","category":"متنوع"},{"id":"ZMisdo1HiSg","title":"43-\"لما كان يوم حُنينٍ آثر رسولُ اللهِ ﷺ ناسا في القسمة...\" الحديث( 18)باب الصّبر- شرح دليل الفالحين","publishedAt":"2021-04-11T06:06:16Z","duration":"PT27M59S","thumbnail":"https://i.ytimg.com/vi/ZMisdo1HiSg/mqdefault.jpg","viewCount":"1105","playlistId":"PLEkQk5xrP-tkc9DXvSLguqX5-FYp6ASR4","playlistName":"دليل الفالحين لطرق رياض الصالحين","category":"متنوع"},{"id":"cfz3u-Ol8vM","title":"حَدِيث (١٨٣)\"مَنْ قالَ لا إلهَ إلاَّ اللَّه وحْدهُ لاَ شَرِيكَ له...\" | أ.د. يسري جبر","publishedAt":"2021-04-13T15:33:34Z","duration":"PT42M41S","thumbnail":"https://i.ytimg.com/vi/cfz3u-Ol8vM/mqdefault.jpg","viewCount":"11629","playlistId":"PLEkQk5xrP-tnl7vb7KeAoPd5ZlqKKW8KV","playlistName":"شرح كتاب بهجة النفوس أ.د . يسرى جبر","category":"متنوع"},{"id":"N4kDK7LaPgY","title":"44-“كان ابن لأبي طلحة يشتكي فخرج أبو طلحة فقُبض الصَّبي...”الحديث( 21)باب الصّبر - شرح دليل الفالحين","publishedAt":"2021-04-14T07:04:43Z","duration":"PT37M43S","thumbnail":"https://i.ytimg.com/vi/N4kDK7LaPgY/mqdefault.jpg","viewCount":"1606","playlistId":"PLEkQk5xrP-tkc9DXvSLguqX5-FYp6ASR4","playlistName":"دليل الفالحين لطرق رياض الصالحين","category":"متنوع"},{"id":"uw5Jed2YUE8","title":"حَدِيث (١٨٤)\"كراهية صيام الدهر\" | أ.د. يسري جبر","publishedAt":"2021-04-14T15:30:14Z","duration":"PT29M10S","thumbnail":"https://i.ytimg.com/vi/uw5Jed2YUE8/mqdefault.jpg","viewCount":"1011","playlistId":"PLEkQk5xrP-tnl7vb7KeAoPd5ZlqKKW8KV","playlistName":"شرح كتاب بهجة النفوس أ.د . يسرى جبر","category":"متنوع"},{"id":"g143o-Y2gDA","title":"هل صلاة التراويح بدعة؟","publishedAt":"2021-04-14T19:15:01Z","duration":"PT10M","thumbnail":"https://i.ytimg.com/vi/g143o-Y2gDA/mqdefault.jpg","viewCount":"4175","playlistId":"PLEkQk5xrP-tm8ZIu74nTOZN9KJUJu416J","playlistName":"مقاطع مُهمَّة (يُسريَّات) أ.د. يسري جبر","category":"متنوع"},{"id":"iiUVDXCWvvQ","title":"حَدِيث (١٨٥)\"أحب الصيام إلى الله صيام داود..\" | أ.د. يسري جبر","publishedAt":"2021-04-15T15:15:01Z","duration":"PT37M59S","thumbnail":"https://i.ytimg.com/vi/iiUVDXCWvvQ/mqdefault.jpg","viewCount":"1349","playlistId":"PLEkQk5xrP-tnl7vb7KeAoPd5ZlqKKW8KV","playlistName":"شرح كتاب بهجة النفوس أ.د . يسرى جبر","category":"متنوع"},{"id":"NUBNd1tCAc0","title":"معنى البركة والمدد","publishedAt":"2021-04-15T19:15:00Z","duration":"PT23M","thumbnail":"https://i.ytimg.com/vi/NUBNd1tCAc0/mqdefault.jpg","viewCount":"16350","playlistId":"PLEkQk5xrP-tm8ZIu74nTOZN9KJUJu416J","playlistName":"مقاطع مُهمَّة (يُسريَّات) أ.د. يسري جبر","category":"متنوع"},{"id":"Wu28YRkd7OM","title":"45- “ليسَ الشَّديدُ بالصُّرَعَةِ...”الحديث ( 22) باب الصّبر - شرح دليل الفالحين","publishedAt":"2021-04-16T06:30:13Z","duration":"PT35M45S","thumbnail":"https://i.ytimg.com/vi/Wu28YRkd7OM/mqdefault.jpg","viewCount":"1138","playlistId":"PLEkQk5xrP-tkc9DXvSLguqX5-FYp6ASR4","playlistName":"دليل الفالحين لطرق رياض الصالحين","category":"متنوع"},{"id":"t9V6UFjk7F4","title":"حَدِيث (١٨٦)\"أول مسجد وضع للصلاة\" | أ.د. يسري جبر","publishedAt":"2021-04-16T15:30:04Z","duration":"PT14M8S","thumbnail":"https://i.ytimg.com/vi/t9V6UFjk7F4/mqdefault.jpg","viewCount":"505","playlistId":"PLEkQk5xrP-tnl7vb7KeAoPd5ZlqKKW8KV","playlistName":"شرح كتاب بهجة النفوس أ.د . يسرى جبر","category":"متنوع"},{"id":"Df0sPUVytZI","title":"حَدِيث (١٨٧)\"الثلاثة الذين تكلموا في المهد\" | أ.د. يسري جبر","publishedAt":"2021-04-17T15:51:04Z","duration":"PT37M20S","thumbnail":"https://i.ytimg.com/vi/Df0sPUVytZI/mqdefault.jpg","viewCount":"1513","playlistId":"PLEkQk5xrP-tnl7vb7KeAoPd5ZlqKKW8KV","playlistName":"شرح كتاب بهجة النفوس أ.د . يسرى جبر","category":"متنوع"},{"id":"1XztYItae-c","title":"46- “قدم عُيينة بنُ حصْن فنزل على ابن اخيه...”الحديث ( 27) باب الصّبر - شرح دليل الفالحين","publishedAt":"2021-04-18T06:22:34Z","duration":"PT45M50S","thumbnail":"https://i.ytimg.com/vi/1XztYItae-c/mqdefault.jpg","viewCount":"1095","playlistId":"PLEkQk5xrP-tkc9DXvSLguqX5-FYp6ASR4","playlistName":"دليل الفالحين لطرق رياض الصالحين","category":"متنوع"},{"id":"ArDStHo64Yw","title":"حَدِيث (١٨٨)\"من أمر عند موته بحرق جسده...\" | أ.د. يسري جبر","publishedAt":"2021-04-18T15:30:02Z","duration":"PT12M56S","thumbnail":"https://i.ytimg.com/vi/ArDStHo64Yw/mqdefault.jpg","viewCount":"886","playlistId":"PLEkQk5xrP-tnl7vb7KeAoPd5ZlqKKW8KV","playlistName":"شرح كتاب بهجة النفوس أ.د . يسرى جبر","category":"متنوع"},{"id":"gMqGXajQDTg","title":"هل يجوز لي الإفطار بسبب مشقة العمل؟","publishedAt":"2021-04-18T19:15:01Z","duration":"PT8M47S","thumbnail":"https://i.ytimg.com/vi/gMqGXajQDTg/mqdefault.jpg","viewCount":"3871","playlistId":"PLEkQk5xrP-tm8ZIu74nTOZN9KJUJu416J","playlistName":"مقاطع مُهمَّة (يُسريَّات) أ.د. يسري جبر","category":"متنوع"},{"id":"7N76rzFAE0k","title":"حَدِيث (١٨۹)\"الوفاء ببعية الأمراء\" | أ.د. يسري جبر","publishedAt":"2021-04-19T17:03:56Z","duration":"PT41M59S","thumbnail":"https://i.ytimg.com/vi/7N76rzFAE0k/mqdefault.jpg","viewCount":"801","playlistId":"PLEkQk5xrP-tnl7vb7KeAoPd5ZlqKKW8KV","playlistName":"شرح كتاب بهجة النفوس أ.د . يسرى جبر","category":"متنوع"},{"id":"IvAZdkp-vGA","title":"كره المعصية وعدم كره العاصي","publishedAt":"2021-04-19T19:15:01Z","duration":"PT13M33S","thumbnail":"https://i.ytimg.com/vi/IvAZdkp-vGA/mqdefault.jpg","viewCount":"1425","playlistId":"PLEkQk5xrP-tnAJa3yfebXD7wNC_ECfZNt","playlistName":"كتاب النفحة الذكية في أن الهجر بدعة شركية","category":"متنوع"},{"id":"QFn-nQinP1w","title":"47-“إنَّ الصِّدقَ يَهدي إلى البِرِّ ...”الحديث (١) باب الصِّدق - شرح دليل الفالحين","publishedAt":"2021-04-20T06:00:04Z","duration":"PT35M3S","thumbnail":"https://i.ytimg.com/vi/QFn-nQinP1w/mqdefault.jpg","viewCount":"1407","playlistId":"PLEkQk5xrP-tkc9DXvSLguqX5-FYp6ASR4","playlistName":"دليل الفالحين لطرق رياض الصالحين","category":"متنوع"},{"id":"OgirG_I7Q5A","title":"من علامات أخر الزمان | أ.د. يسري جبر","publishedAt":"2021-04-20T17:12:40Z","duration":"PT27M45S","thumbnail":"https://i.ytimg.com/vi/OgirG_I7Q5A/mqdefault.jpg","viewCount":"6810","playlistId":"PLEkQk5xrP-tnl7vb7KeAoPd5ZlqKKW8KV","playlistName":"شرح كتاب بهجة النفوس أ.د . يسرى جبر","category":"متنوع"}],"total":4129,"page":103,"pageSize":24,"totalPages":173}