{"items":[{"id":"Ex0CFchshOw","title":"29- شرح وحدة الوجود عند الصوفية | شرح مختصر الفتوحات المكية","publishedAt":"2024-08-11T17:00:09Z","duration":"PT43M32S","thumbnail":"https://i.ytimg.com/vi/Ex0CFchshOw/mqdefault.jpg","viewCount":"7140","playlistId":"PLEkQk5xrP-tnpkdZki6rPTtMak1bnI5g-","playlistName":"شرح كتاب مختصر الفتوحات المكية المسمى لواقح الأنوار القدسية","category":"متنوع"},{"id":"SBFLtI9034U","title":"120- كيف نحافظ على نعمتي الصحة و الفراغ - شرح مسند الإمام أحمد رضي الله تعالى عنه","publishedAt":"2024-08-12T06:48:32Z","duration":"PT37M4S","thumbnail":"https://i.ytimg.com/vi/SBFLtI9034U/mqdefault.jpg","viewCount":"1596","playlistId":"PLEkQk5xrP-tkKprIuGrSdEuBSMsyg5We1","playlistName":"شرح مسند الإمام أحمد بن حنبل","category":"متنوع"},{"id":"dQxLaTK6kIA","title":"5- ما نفع القلب شيء مثل عزلة يدخل بها ميدان فكرة | شرح الحكم العطائية","publishedAt":"2024-08-15T18:24:52Z","duration":"PT40M51S","thumbnail":"https://i.ytimg.com/vi/dQxLaTK6kIA/mqdefault.jpg","viewCount":"8633","playlistId":"PLEkQk5xrP-tmf5ToOwmW-q0JwxkapbrMN","playlistName":"شرح كتاب إرشاد البرية إلى بعض معاني الحكم العطائية","category":"متنوع"},{"id":"PndGcgKOEAU","title":"42- كتاب الصلاة | شرح سنن الدار قطني رضي الله عنه","publishedAt":"2024-08-17T09:00:24Z","duration":"PT1H1M43S","thumbnail":"https://i.ytimg.com/vi/PndGcgKOEAU/mqdefault.jpg","viewCount":"944","playlistId":"PLEkQk5xrP-tk_MCBZ706ORCw6gFtFyaGj","playlistName":"شرح سنن الإمام الدارقطني","category":"متنوع"},{"id":"PU5gOn6TEUU","title":"ما هي أفضل طريقة لصلاة السنن والنوافل؟","publishedAt":"2024-08-17T17:26:26Z","duration":"PT9M32S","thumbnail":"https://i.ytimg.com/vi/PU5gOn6TEUU/mqdefault.jpg","viewCount":"3240","playlistId":"PLEkQk5xrP-tkGXuZ9atE3k_7it12rUPTs","playlistName":"أسئلة المتابعين","category":"متنوع"},{"id":"f1uN5njXN80","title":"30- كيف تفرق بين الخاطر الرحماني والشيطاني والنفساني؟ | شرح مختصر الفتوحات المكية","publishedAt":"2024-08-18T17:04:54Z","duration":"PT44M26S","thumbnail":"https://i.ytimg.com/vi/f1uN5njXN80/mqdefault.jpg","viewCount":"6670","playlistId":"PLEkQk5xrP-tnpkdZki6rPTtMak1bnI5g-","playlistName":"شرح كتاب مختصر الفتوحات المكية المسمى لواقح الأنوار القدسية","category":"متنوع"},{"id":"6TYZBlGBFYg","title":"كيف أحسن ظني بالله وهو لا يستجيب دعائي؟","publishedAt":"2024-08-19T17:16:51Z","duration":"PT8M4S","thumbnail":"https://i.ytimg.com/vi/6TYZBlGBFYg/mqdefault.jpg","viewCount":"5508","playlistId":"PLEkQk5xrP-tkGXuZ9atE3k_7it12rUPTs","playlistName":"أسئلة المتابعين","category":"متنوع"},{"id":"Rb-EQ1vL2Dk","title":"6- كيف يشرق قلب صور الأكوان منطبعة فى مرآته؟! | شرح الحكم العطائية","publishedAt":"2024-08-20T17:00:19Z","duration":"PT32M4S","thumbnail":"https://i.ytimg.com/vi/Rb-EQ1vL2Dk/mqdefault.jpg","viewCount":"6110","playlistId":"PLEkQk5xrP-tmf5ToOwmW-q0JwxkapbrMN","playlistName":"شرح كتاب إرشاد البرية إلى بعض معاني الحكم العطائية","category":"متنوع"},{"id":"_uKVQsLEOXk","title":"أدلة جواز التوسل بالأنبياء والأولياء في السنة النبوية","publishedAt":"2024-08-22T17:45:36Z","duration":"PT58M9S","thumbnail":"https://i.ytimg.com/vi/_uKVQsLEOXk/mqdefault.jpg","viewCount":"3744","playlistId":"PLEkQk5xrP-tm5wKaFaltLbztkXrGxixKu","playlistName":"شرح كتاب اتحاف الاذكياء بجواز التوسل بالأنبياء والأولياء","category":"متنوع"},{"id":"yFJi3lW2ayk","title":"43- كيفية الأذان - كتاب الصلاة | شرح سنن الدار قطني رضي الله عنه","publishedAt":"2024-08-24T09:00:50Z","duration":"PT51M18S","thumbnail":"https://i.ytimg.com/vi/yFJi3lW2ayk/mqdefault.jpg","viewCount":"644","playlistId":"PLEkQk5xrP-tk_MCBZ706ORCw6gFtFyaGj","playlistName":"شرح سنن الإمام الدارقطني","category":"متنوع"},{"id":"QT7K2TMCgyY","title":"121- هل حجَّ النَّبيّ ﷺ مفردا أم متمتعا أم قارنا؟ ومتى تبدأ التلبية؟","publishedAt":"2024-08-25T06:38:30Z","duration":"PT33M2S","thumbnail":"https://i.ytimg.com/vi/QT7K2TMCgyY/mqdefault.jpg","viewCount":"610","playlistId":"PLEkQk5xrP-tkKprIuGrSdEuBSMsyg5We1","playlistName":"شرح مسند الإمام أحمد بن حنبل","category":"متنوع"},{"id":"5kM9zifq4Pk","title":"31- هل يمكن معرفة الله بالعقل؟ | شرح مختصر الفتوحات المكية","publishedAt":"2024-08-25T17:00:05Z","duration":"PT35M37S","thumbnail":"https://i.ytimg.com/vi/5kM9zifq4Pk/mqdefault.jpg","viewCount":"5031","playlistId":"PLEkQk5xrP-tnpkdZki6rPTtMak1bnI5g-","playlistName":"شرح كتاب مختصر الفتوحات المكية المسمى لواقح الأنوار القدسية","category":"متنوع"},{"id":"Xw9lAdN_MeI","title":"أنا عندي وسواس قهري كيف أتحرر منه؟ | علاج الوسواس القهري","publishedAt":"2024-08-26T18:00:02Z","duration":"PT8M38S","thumbnail":"https://i.ytimg.com/vi/Xw9lAdN_MeI/mqdefault.jpg","viewCount":"4715","playlistId":"PLEkQk5xrP-tkGXuZ9atE3k_7it12rUPTs","playlistName":"أسئلة المتابعين","category":"متنوع"},{"id":"cHbV-w27-SE","title":"كيف أتعامل مع الأولياء والمشايخ وما هي آداب زيارتهم؟","publishedAt":"2024-08-27T17:07:52Z","duration":"PT8M42S","thumbnail":"https://i.ytimg.com/vi/cHbV-w27-SE/mqdefault.jpg","viewCount":"4131","playlistId":"PLEkQk5xrP-tm8ZIu74nTOZN9KJUJu416J","playlistName":"مقاطع مُهمَّة (يُسريَّات) أ.د. يسري جبر","category":"متنوع"},{"id":"TcqnEzDjyks","title":"قصة الدعاء اللي غير حياتي!","publishedAt":"2024-08-28T18:00:45Z","duration":"PT8M59S","thumbnail":"https://i.ytimg.com/vi/TcqnEzDjyks/mqdefault.jpg","viewCount":"67072","playlistId":"PLEkQk5xrP-tm8ZIu74nTOZN9KJUJu416J","playlistName":"مقاطع مُهمَّة (يُسريَّات) أ.د. يسري جبر","category":"متنوع"},{"id":"Z4XDjopu7P4","title":"7- الكون كله ظلمة وإنما أناره ظهور الحق فيه | شرح الحكم العطائية","publishedAt":"2024-08-29T17:00:27Z","duration":"PT46M59S","thumbnail":"https://i.ytimg.com/vi/Z4XDjopu7P4/mqdefault.jpg","viewCount":"5939","playlistId":"PLEkQk5xrP-tmf5ToOwmW-q0JwxkapbrMN","playlistName":"شرح كتاب إرشاد البرية إلى بعض معاني الحكم العطائية","category":"متنوع"},{"id":"US0VMH_V92A","title":"هل الدعاء عند قبور الأولياء والصالحين مستجاب؟","publishedAt":"2024-08-30T17:00:22Z","duration":"PT19M54S","thumbnail":"https://i.ytimg.com/vi/US0VMH_V92A/mqdefault.jpg","viewCount":"3802","playlistId":"PLEkQk5xrP-tm5wKaFaltLbztkXrGxixKu","playlistName":"شرح كتاب اتحاف الاذكياء بجواز التوسل بالأنبياء والأولياء","category":"متنوع"},{"id":"dfObO0LE7Zw","title":"44- أوقات الكراهة في الصلاة | شرح سنن الدار قطني رضي الله عنه","publishedAt":"2024-08-31T09:05:00Z","duration":"PT48M6S","thumbnail":"https://i.ytimg.com/vi/dfObO0LE7Zw/mqdefault.jpg","viewCount":"853","playlistId":"PLEkQk5xrP-tk_MCBZ706ORCw6gFtFyaGj","playlistName":"شرح سنن الإمام الدارقطني","category":"متنوع"},{"id":"PlqXtXH8HqE","title":"الرد على من ينكر واسطة النبي ﷺ في الأكوان!","publishedAt":"2024-08-31T18:00:08Z","duration":"PT8M57S","thumbnail":"https://i.ytimg.com/vi/PlqXtXH8HqE/mqdefault.jpg","viewCount":"3609","playlistId":"PLEkQk5xrP-tkGXuZ9atE3k_7it12rUPTs","playlistName":"أسئلة المتابعين","category":"متنوع"},{"id":"H_trLq0GZv0","title":"122- تَأْويلُ النَّبيّ ﷺ لِلرُّؤْيا - شرح مسند الإمام أحمد رضي الله تعالى عنه","publishedAt":"2024-09-01T10:21:29Z","duration":"PT28M46S","thumbnail":"https://i.ytimg.com/vi/H_trLq0GZv0/mqdefault.jpg","viewCount":"805","playlistId":"PLEkQk5xrP-tkKprIuGrSdEuBSMsyg5We1","playlistName":"شرح مسند الإمام أحمد بن حنبل","category":"متنوع"},{"id":"UukH6LhtVBE","title":"32- ما هو الزمكان و هل الزمن نسبي؟ | شرح مختصر الفتوحات المكية","publishedAt":"2024-09-01T16:00:04Z","duration":"PT34M58S","thumbnail":"https://i.ytimg.com/vi/UukH6LhtVBE/mqdefault.jpg","viewCount":"9252","playlistId":"PLEkQk5xrP-tnpkdZki6rPTtMak1bnI5g-","playlistName":"شرح كتاب مختصر الفتوحات المكية المسمى لواقح الأنوار القدسية","category":"متنوع"},{"id":"rLlYdiuA1bE","title":"بذكرى المولد نحيا","publishedAt":"2024-09-04T16:38:42Z","duration":"PT19M42S","thumbnail":"https://i.ytimg.com/vi/rLlYdiuA1bE/mqdefault.jpg","viewCount":"9377","playlistId":"PLEkQk5xrP-tm8ZIu74nTOZN9KJUJu416J","playlistName":"مقاطع مُهمَّة (يُسريَّات) أ.د. يسري جبر","category":"متنوع"},{"id":"fvebb0g180g","title":"8- مما يدلك على وجود قهره سبحانه أن حجبك عنه بما ليس بموجود معه | شرح الحكم العطائية","publishedAt":"2024-09-05T16:00:41Z","duration":"PT44M55S","thumbnail":"https://i.ytimg.com/vi/fvebb0g180g/mqdefault.jpg","viewCount":"6051","playlistId":"PLEkQk5xrP-tmf5ToOwmW-q0JwxkapbrMN","playlistName":"شرح كتاب إرشاد البرية إلى بعض معاني الحكم العطائية","category":"متنوع"},{"id":"O6vRVKrNOG8","title":"33- ما هو علم اللوح والقلم؟ | شرح مختصر الفتوحات المكية","publishedAt":"2024-09-07T16:00:20Z","duration":"PT32M47S","thumbnail":"https://i.ytimg.com/vi/O6vRVKrNOG8/mqdefault.jpg","viewCount":"5443","playlistId":"PLEkQk5xrP-tnpkdZki6rPTtMak1bnI5g-","playlistName":"شرح كتاب مختصر الفتوحات المكية المسمى لواقح الأنوار القدسية","category":"متنوع"}],"total":4129,"page":158,"pageSize":24,"totalPages":173}