{"items":[{"id":"x_MWrwiy0Nc","title":"37- حكم إهداء ما يحرم لبسه - شرح مسند الإمام أحمد","publishedAt":"2023-11-07T06:33:03Z","duration":"PT13M33S","thumbnail":"https://i.ytimg.com/vi/x_MWrwiy0Nc/mqdefault.jpg","viewCount":"1045","playlistId":"PLEkQk5xrP-tkKprIuGrSdEuBSMsyg5We1","playlistName":"شرح مسند الإمام أحمد بن حنبل","category":"متنوع"},{"id":"ymmcp_HVnwo","title":"20- كيفية علاج الوسواس في الوضوء | موجبات الغسل","publishedAt":"2023-11-11T08:37:39Z","duration":"PT31M42S","thumbnail":"https://i.ytimg.com/vi/ymmcp_HVnwo/mqdefault.jpg","viewCount":"1448","playlistId":"PLEkQk5xrP-tk_MCBZ706ORCw6gFtFyaGj","playlistName":"شرح سنن الإمام الدارقطني","category":"متنوع"},{"id":"0lGIe1Bpggw","title":"تفسير الآيات القرآنية الواردة في حق النبي ﷺ","publishedAt":"2023-11-12T12:37:20Z","duration":"PT55M21S","thumbnail":"https://i.ytimg.com/vi/0lGIe1Bpggw/mqdefault.jpg","viewCount":"8640","playlistId":"PLEkQk5xrP-tm8ZIu74nTOZN9KJUJu416J","playlistName":"مقاطع مُهمَّة (يُسريَّات) أ.د. يسري جبر","category":"متنوع"},{"id":"jabxIZiuSUo","title":"38- خطورة الجهل بالدين والاستبداد بالرأي - شرح مسند الإمام أحمد","publishedAt":"2023-11-14T06:30:17Z","duration":"PT38M28S","thumbnail":"https://i.ytimg.com/vi/jabxIZiuSUo/mqdefault.jpg","viewCount":"2089","playlistId":"PLEkQk5xrP-tkKprIuGrSdEuBSMsyg5We1","playlistName":"شرح مسند الإمام أحمد بن حنبل","category":"متنوع"},{"id":"sT3uQUFVIow","title":"39- ماذا تفعل عند الكرب - شرح مسند الإمام أحمد","publishedAt":"2023-11-16T06:38:39Z","duration":"PT36M15S","thumbnail":"https://i.ytimg.com/vi/sT3uQUFVIow/mqdefault.jpg","viewCount":"3043","playlistId":"PLEkQk5xrP-tkKprIuGrSdEuBSMsyg5We1","playlistName":"شرح مسند الإمام أحمد بن حنبل","category":"متنوع"},{"id":"GOmk9ZfjBNE","title":"40- متى تبدأ مدة المسح على الخفين؟ - شرح مسند الإمام أحمد","publishedAt":"2023-11-18T06:41:14Z","duration":"PT19M37S","thumbnail":"https://i.ytimg.com/vi/GOmk9ZfjBNE/mqdefault.jpg","viewCount":"923","playlistId":"PLEkQk5xrP-tkKprIuGrSdEuBSMsyg5We1","playlistName":"شرح مسند الإمام أحمد بن حنبل","category":"متنوع"},{"id":"2012N7g5CfI","title":"21- حكم المضمضة والاستنشاق في غسل الجنابة | حكم قراءة القرآن للجنب والحائض","publishedAt":"2023-11-18T09:00:03Z","duration":"PT39M4S","thumbnail":"https://i.ytimg.com/vi/2012N7g5CfI/mqdefault.jpg","viewCount":"959","playlistId":"PLEkQk5xrP-tk_MCBZ706ORCw6gFtFyaGj","playlistName":"شرح سنن الإمام الدارقطني","category":"متنوع"},{"id":"m0rvdtZskNw","title":"ما حكم شراء وبيع العملات من السوق السوداء؟","publishedAt":"2023-11-18T18:23:06Z","duration":"PT8M8S","thumbnail":"https://i.ytimg.com/vi/m0rvdtZskNw/mqdefault.jpg","viewCount":"13671","playlistId":"PLEkQk5xrP-tkGXuZ9atE3k_7it12rUPTs","playlistName":"أسئلة المتابعين","category":"متنوع"},{"id":"9ZQWSd0l9xs","title":"41- بعض خصائص النبيّ ﷺ - شرح مسند الإمام أحمد","publishedAt":"2023-11-20T06:30:04Z","duration":"PT40M6S","thumbnail":"https://i.ytimg.com/vi/9ZQWSd0l9xs/mqdefault.jpg","viewCount":"3195","playlistId":"PLEkQk5xrP-tkKprIuGrSdEuBSMsyg5We1","playlistName":"شرح مسند الإمام أحمد بن حنبل","category":"متنوع"},{"id":"dad8UGb_Ksw","title":"42- حكم الدعاء لمن مات على الشرك - شرح مسند الإمام أحمد","publishedAt":"2023-11-24T07:15:02Z","duration":"PT33M12S","thumbnail":"https://i.ytimg.com/vi/dad8UGb_Ksw/mqdefault.jpg","viewCount":"1358","playlistId":"PLEkQk5xrP-tkKprIuGrSdEuBSMsyg5We1","playlistName":"شرح مسند الإمام أحمد بن حنبل","category":"متنوع"},{"id":"Z6JqR7food4","title":"22- حكم قراءة القرآن ومس المصحف على غير طهارة","publishedAt":"2023-11-25T09:00:33Z","duration":"PT29M19S","thumbnail":"https://i.ytimg.com/vi/Z6JqR7food4/mqdefault.jpg","viewCount":"1924","playlistId":"PLEkQk5xrP-tk_MCBZ706ORCw6gFtFyaGj","playlistName":"شرح سنن الإمام الدارقطني","category":"متنوع"},{"id":"cLJqraG5Lr8","title":"43- حكم الشرب قائما | وصف النَّبيّ ﷺ - شرح مسند الإمام أحمد","publishedAt":"2023-11-26T06:15:01Z","duration":"PT39M52S","thumbnail":"https://i.ytimg.com/vi/cLJqraG5Lr8/mqdefault.jpg","viewCount":"2625","playlistId":"PLEkQk5xrP-tkKprIuGrSdEuBSMsyg5We1","playlistName":"شرح مسند الإمام أحمد بن حنبل","category":"متنوع"},{"id":"n-BKcvCSOuM","title":"أنا طبيب وأرتكب بعض الأخطاء التي تؤدي إلى وفاة المرضى ,, ماذا أفعل؟","publishedAt":"2023-11-26T18:30:44Z","duration":"PT11M41S","thumbnail":"https://i.ytimg.com/vi/n-BKcvCSOuM/mqdefault.jpg","viewCount":"7885","playlistId":"PLEkQk5xrP-tkGXuZ9atE3k_7it12rUPTs","playlistName":"أسئلة المتابعين","category":"متنوع"},{"id":"U04iX88xkfk","title":"44- إنَّ الله يحب العبد المفتَّن التَّواب - شرح مسند الإمام أحمد","publishedAt":"2023-11-28T06:39:37Z","duration":"PT37M57S","thumbnail":"https://i.ytimg.com/vi/U04iX88xkfk/mqdefault.jpg","viewCount":"4209","playlistId":"PLEkQk5xrP-tkKprIuGrSdEuBSMsyg5We1","playlistName":"شرح مسند الإمام أحمد بن حنبل","category":"متنوع"},{"id":"teM6OicJoLo","title":"هل يوجد شروط للدخول في طريق التصوف؟","publishedAt":"2023-11-28T19:00:35Z","duration":"PT8M41S","thumbnail":"https://i.ytimg.com/vi/teM6OicJoLo/mqdefault.jpg","viewCount":"10937","playlistId":"PLEkQk5xrP-tkGXuZ9atE3k_7it12rUPTs","playlistName":"أسئلة المتابعين","category":"متنوع"},{"id":"1j88-rC7GkA","title":"45- الحث على أفضل القربات وأحسنها والمبادرة إليها - شرح مسند الإمام أحمد","publishedAt":"2023-11-30T06:44:14Z","duration":"PT33M44S","thumbnail":"https://i.ytimg.com/vi/1j88-rC7GkA/mqdefault.jpg","viewCount":"1559","playlistId":"PLEkQk5xrP-tkKprIuGrSdEuBSMsyg5We1","playlistName":"شرح مسند الإمام أحمد بن حنبل","category":"متنوع"},{"id":"VxE9WX8IJZM","title":"ماذا أفعل حتى يزيد حبي للنبي ﷺ؟","publishedAt":"2023-11-30T16:30:20Z","duration":"PT9M28S","thumbnail":"https://i.ytimg.com/vi/VxE9WX8IJZM/mqdefault.jpg","viewCount":"16277","playlistId":"PLEkQk5xrP-tkGXuZ9atE3k_7it12rUPTs","playlistName":"أسئلة المتابعين","category":"متنوع"},{"id":"O-LmscaGPnI","title":"23- ما ورد في طهارة المَنيّ وحكمه رطبًا ويابسًا | وماذا يصنع الجنب إذا أراد أن يأكل أو يشرب أو ينام","publishedAt":"2023-12-02T10:18:25Z","duration":"PT39M18S","thumbnail":"https://i.ytimg.com/vi/O-LmscaGPnI/mqdefault.jpg","viewCount":"1281","playlistId":"PLEkQk5xrP-tk_MCBZ706ORCw6gFtFyaGj","playlistName":"شرح سنن الإمام الدارقطني","category":"متنوع"},{"id":"t5qVByQkmoI","title":"كيف أواظب على الصلاة وأتخلص من شهوة مشاهدة الإباحية؟","publishedAt":"2023-12-02T18:29:03Z","duration":"PT8M48S","thumbnail":"https://i.ytimg.com/vi/t5qVByQkmoI/mqdefault.jpg","viewCount":"9290","playlistId":"PLEkQk5xrP-tkGXuZ9atE3k_7it12rUPTs","playlistName":"أسئلة المتابعين","category":"متنوع"},{"id":"AiM7mSyJLZg","title":"46- الفرق بين المَني والمذي والودي | صفات الخوارج - شرح مسند الإمام أحمد","publishedAt":"2023-12-03T06:47:10Z","duration":"PT36M35S","thumbnail":"https://i.ytimg.com/vi/AiM7mSyJLZg/mqdefault.jpg","viewCount":"1570","playlistId":"PLEkQk5xrP-tkKprIuGrSdEuBSMsyg5We1","playlistName":"شرح مسند الإمام أحمد بن حنبل","category":"متنوع"},{"id":"fF7jI2SmtBw","title":"47- الفرق بين المرفق والكوع والبوع والكرسوع - شرح مسند الإمام أحمد","publishedAt":"2023-12-05T07:00:36Z","duration":"PT35M49S","thumbnail":"https://i.ytimg.com/vi/fF7jI2SmtBw/mqdefault.jpg","viewCount":"1456","playlistId":"PLEkQk5xrP-tkKprIuGrSdEuBSMsyg5We1","playlistName":"شرح مسند الإمام أحمد بن حنبل","category":"متنوع"},{"id":"SaByW1gum_Y","title":"48- حكم إرسال الهَدْي للكعبة|مَن هم الأبدال والنجباء والنقباء - شرح مسند الإمام أحمد","publishedAt":"2023-12-09T06:30:13Z","duration":"PT31M30S","thumbnail":"https://i.ytimg.com/vi/SaByW1gum_Y/mqdefault.jpg","viewCount":"2237","playlistId":"PLEkQk5xrP-tkKprIuGrSdEuBSMsyg5We1","playlistName":"شرح مسند الإمام أحمد بن حنبل","category":"متنوع"},{"id":"ldw-S7O-9bI","title":"24- حكم بول الصبي والصبية مالم يأكلا الطعام","publishedAt":"2023-12-09T09:46:26Z","duration":"PT23M20S","thumbnail":"https://i.ytimg.com/vi/ldw-S7O-9bI/mqdefault.jpg","viewCount":"649","playlistId":"PLEkQk5xrP-tk_MCBZ706ORCw6gFtFyaGj","playlistName":"شرح سنن الإمام الدارقطني","category":"متنوع"},{"id":"39rZZqUtdQc","title":"هل يجوز ذكر الله أثناء التصفح على الانترنت؟","publishedAt":"2023-12-09T18:42:32Z","duration":"PT8M30S","thumbnail":"https://i.ytimg.com/vi/39rZZqUtdQc/mqdefault.jpg","viewCount":"9126","playlistId":"PLEkQk5xrP-tkGXuZ9atE3k_7it12rUPTs","playlistName":"أسئلة المتابعين","category":"متنوع"}],"total":4126,"page":146,"pageSize":24,"totalPages":172}