{"items":[{"id":"RK8mAOrG7kE","title":"كيف تنسب لنفسك شيئا لا تملكه!","publishedAt":"2020-11-26T18:16:45Z","duration":"PT8M10S","thumbnail":"https://i.ytimg.com/vi/RK8mAOrG7kE/mqdefault.jpg","viewCount":"2738","playlistId":"PLEkQk5xrP-tm8ZIu74nTOZN9KJUJu416J","playlistName":"مقاطع مُهمَّة (يُسريَّات) أ.د. يسري جبر","category":"متنوع"},{"id":"BDr0PAj_rVo","title":"أحكام الرضاعة","publishedAt":"2020-11-27T17:50:18Z","duration":"PT9M12S","thumbnail":"https://i.ytimg.com/vi/BDr0PAj_rVo/mqdefault.jpg","viewCount":"4401","playlistId":"PLEkQk5xrP-tm8ZIu74nTOZN9KJUJu416J","playlistName":"مقاطع مُهمَّة (يُسريَّات) أ.د. يسري جبر","category":"متنوع"},{"id":"e7K9FRvlI_Y","title":"تكلم مع الله","publishedAt":"2020-11-28T18:52:51Z","duration":"PT4M27S","thumbnail":"https://i.ytimg.com/vi/e7K9FRvlI_Y/mqdefault.jpg","viewCount":"13322","playlistId":"PLEkQk5xrP-tm8ZIu74nTOZN9KJUJu416J","playlistName":"مقاطع مُهمَّة (يُسريَّات) أ.د. يسري جبر","category":"متنوع"},{"id":"HHWYvGOwKBc","title":"لذة المعارف والترقّي","publishedAt":"2020-12-04T18:05:55Z","duration":"PT4M32S","thumbnail":"https://i.ytimg.com/vi/HHWYvGOwKBc/mqdefault.jpg","viewCount":"5653","playlistId":"PLEkQk5xrP-tm8ZIu74nTOZN9KJUJu416J","playlistName":"مقاطع مُهمَّة (يُسريَّات) أ.د. يسري جبر","category":"متنوع"},{"id":"oy4G-AxSdiA","title":"الصراط على متن جهنم","publishedAt":"2020-12-05T17:45:02Z","duration":"PT4M44S","thumbnail":"https://i.ytimg.com/vi/oy4G-AxSdiA/mqdefault.jpg","viewCount":"2506","playlistId":"PLEkQk5xrP-tm8ZIu74nTOZN9KJUJu416J","playlistName":"مقاطع مُهمَّة (يُسريَّات) أ.د. يسري جبر","category":"متنوع"},{"id":"QeLaU7G0jzg","title":"كيف تعيش الحب؟","publishedAt":"2020-12-09T18:34:31Z","duration":"PT9M32S","thumbnail":"https://i.ytimg.com/vi/QeLaU7G0jzg/mqdefault.jpg","viewCount":"11627","playlistId":"PLEkQk5xrP-tm8ZIu74nTOZN9KJUJu416J","playlistName":"مقاطع مُهمَّة (يُسريَّات) أ.د. يسري جبر","category":"متنوع"},{"id":"lChaNbTquYs","title":"درجات الصبر","publishedAt":"2020-12-11T17:25:14Z","duration":"PT10M40S","thumbnail":"https://i.ytimg.com/vi/lChaNbTquYs/mqdefault.jpg","viewCount":"4924","playlistId":"PLEkQk5xrP-tm8ZIu74nTOZN9KJUJu416J","playlistName":"مقاطع مُهمَّة (يُسريَّات) أ.د. يسري جبر","category":"متنوع"},{"id":"Z33PcQo_C5M","title":"حياة الدكتور يسري جبر | الحلقة الأولى","publishedAt":"2020-12-13T18:37:54Z","duration":"PT13M4S","thumbnail":"https://i.ytimg.com/vi/Z33PcQo_C5M/mqdefault.jpg","viewCount":"17552","playlistId":"PLEkQk5xrP-tl6tFiMFGUucCTvLgnWyAfz","playlistName":"حياة الأستاذ الدكتور يسري جبر","category":"متنوع"},{"id":"alwuaUGFbvA","title":"انتظارُ الفرجِ عبادة","publishedAt":"2020-12-14T18:23:12Z","duration":"PT12M32S","thumbnail":"https://i.ytimg.com/vi/alwuaUGFbvA/mqdefault.jpg","viewCount":"5630","playlistId":"PLEkQk5xrP-tm8ZIu74nTOZN9KJUJu416J","playlistName":"مقاطع مُهمَّة (يُسريَّات) أ.د. يسري جبر","category":"متنوع"},{"id":"uOtVSkWQqb8","title":"حياة الدكتور يسري جبر | الحلقة الثانية","publishedAt":"2020-12-17T18:24:16Z","duration":"PT15M6S","thumbnail":"https://i.ytimg.com/vi/uOtVSkWQqb8/mqdefault.jpg","viewCount":"9622","playlistId":"PLEkQk5xrP-tl6tFiMFGUucCTvLgnWyAfz","playlistName":"حياة الأستاذ الدكتور يسري جبر","category":"متنوع"},{"id":"FBl0r5I1FMY","title":"كيف تحسن خلقك؟","publishedAt":"2020-12-18T19:12:46Z","duration":"PT9M59S","thumbnail":"https://i.ytimg.com/vi/FBl0r5I1FMY/mqdefault.jpg","viewCount":"5156","playlistId":"PLEkQk5xrP-tm8ZIu74nTOZN9KJUJu416J","playlistName":"مقاطع مُهمَّة (يُسريَّات) أ.د. يسري جبر","category":"متنوع"},{"id":"N9-EZFbAZS8","title":"حياة الدكتور يسري جبر | الحلقة الثالثة","publishedAt":"2020-12-21T18:15:02Z","duration":"PT11M55S","thumbnail":"https://i.ytimg.com/vi/N9-EZFbAZS8/mqdefault.jpg","viewCount":"7223","playlistId":"PLEkQk5xrP-tl6tFiMFGUucCTvLgnWyAfz","playlistName":"حياة الأستاذ الدكتور يسري جبر","category":"متنوع"},{"id":"wC-rrnchtBo","title":"معنى مدد يا مولانا ياحسين؟","publishedAt":"2020-12-22T18:32:54Z","duration":"PT11M17S","thumbnail":"https://i.ytimg.com/vi/wC-rrnchtBo/mqdefault.jpg","viewCount":"85818","playlistId":"PLEkQk5xrP-tm8ZIu74nTOZN9KJUJu416J","playlistName":"مقاطع مُهمَّة (يُسريَّات) أ.د. يسري جبر","category":"متنوع"},{"id":"Mo7k-9_JDQQ","title":"ما هو التصوف؟","publishedAt":"2020-12-23T17:45:00Z","duration":"PT11M59S","thumbnail":"https://i.ytimg.com/vi/Mo7k-9_JDQQ/mqdefault.jpg","viewCount":"5665","playlistId":"PLEkQk5xrP-tm8ZIu74nTOZN9KJUJu416J","playlistName":"مقاطع مُهمَّة (يُسريَّات) أ.د. يسري جبر","category":"متنوع"},{"id":"dLAge3TdIOA","title":"العلم بالنَّبيّ ﷺ","publishedAt":"2020-12-25T19:07:39Z","duration":"PT10M12S","thumbnail":"https://i.ytimg.com/vi/dLAge3TdIOA/mqdefault.jpg","viewCount":"5343","playlistId":"PLEkQk5xrP-tm8ZIu74nTOZN9KJUJu416J","playlistName":"مقاطع مُهمَّة (يُسريَّات) أ.د. يسري جبر","category":"متنوع"},{"id":"wu5-JMDGU5s","title":"حكم تهنئة إخواننا المسيحيين بأعيادهم","publishedAt":"2020-12-27T19:22:09Z","duration":"PT10M50S","thumbnail":"https://i.ytimg.com/vi/wu5-JMDGU5s/mqdefault.jpg","viewCount":"20484","playlistId":"PLEkQk5xrP-tm8ZIu74nTOZN9KJUJu416J","playlistName":"مقاطع مُهمَّة (يُسريَّات) أ.د. يسري جبر","category":"متنوع"},{"id":"h2tgBh9ulmk","title":"هل رؤية النبي ﷺ في المنام دليل على الولاية؟؟","publishedAt":"2020-12-29T18:15:46Z","duration":"PT10M4S","thumbnail":"https://i.ytimg.com/vi/h2tgBh9ulmk/mqdefault.jpg","viewCount":"105620","playlistId":"PLEkQk5xrP-tm8ZIu74nTOZN9KJUJu416J","playlistName":"مقاطع مُهمَّة (يُسريَّات) أ.د. يسري جبر","category":"متنوع"},{"id":"SOdtAQlGiIk","title":"أفضل طرق المذاكرة","publishedAt":"2021-01-05T18:29:08Z","duration":"PT15M40S","thumbnail":"https://i.ytimg.com/vi/SOdtAQlGiIk/mqdefault.jpg","viewCount":"47166","playlistId":"PLEkQk5xrP-tm8ZIu74nTOZN9KJUJu416J","playlistName":"مقاطع مُهمَّة (يُسريَّات) أ.د. يسري جبر","category":"متنوع"},{"id":"BuTAVhNxaoU","title":"الجراحة بين الحلاق والطبيب!","publishedAt":"2021-01-06T18:35:22Z","duration":"PT8M1S","thumbnail":"https://i.ytimg.com/vi/BuTAVhNxaoU/mqdefault.jpg","viewCount":"7417","playlistId":"PLEkQk5xrP-tm8ZIu74nTOZN9KJUJu416J","playlistName":"مقاطع مُهمَّة (يُسريَّات) أ.د. يسري جبر","category":"متنوع"},{"id":"3cbuCyplB2k","title":"حكم تربية الكلب في البيت؟","publishedAt":"2021-01-07T17:45:02Z","duration":"PT10M59S","thumbnail":"https://i.ytimg.com/vi/3cbuCyplB2k/mqdefault.jpg","viewCount":"17128","playlistId":"PLEkQk5xrP-tkGXuZ9atE3k_7it12rUPTs","playlistName":"أسئلة المتابعين","category":"متنوع"},{"id":"fCa_pu465-Q","title":"1- التعريفُ بالإمام النوويّ - شرح كتاب دليل الفالحين أ.د يسري جبر","publishedAt":"2021-01-09T09:10:21Z","duration":"PT39M16S","thumbnail":"https://i.ytimg.com/vi/fCa_pu465-Q/mqdefault.jpg","viewCount":"13514","playlistId":"PLEkQk5xrP-tkc9DXvSLguqX5-FYp6ASR4","playlistName":"دليل الفالحين لطرق رياض الصالحين","category":"متنوع"},{"id":"2X7fNyCiEYQ","title":"2- التعريفُ بالشيخ ‎محمد بن علَّان صاحب كتاب دليل الفالحين أ.د. يسري جبر","publishedAt":"2021-01-11T07:18:11Z","duration":"PT24M17S","thumbnail":"https://i.ytimg.com/vi/2X7fNyCiEYQ/mqdefault.jpg","viewCount":"5212","playlistId":"PLEkQk5xrP-tkc9DXvSLguqX5-FYp6ASR4","playlistName":"دليل الفالحين لطرق رياض الصالحين","category":"متنوع"},{"id":"reBsvD53jQY","title":"الفرق بين القَدَر والعِلْم والإرادة والقُدرة","publishedAt":"2021-01-11T19:00:09Z","duration":"PT13M55S","thumbnail":"https://i.ytimg.com/vi/reBsvD53jQY/mqdefault.jpg","viewCount":"33206","playlistId":"PLEkQk5xrP-tm8ZIu74nTOZN9KJUJu416J","playlistName":"مقاطع مُهمَّة (يُسريَّات) أ.د. يسري جبر","category":"متنوع"},{"id":"Sud5BTJ7liY","title":"كيف تصبح غنيا؟","publishedAt":"2021-01-12T18:42:48Z","duration":"PT12M10S","thumbnail":"https://i.ytimg.com/vi/Sud5BTJ7liY/mqdefault.jpg","viewCount":"91637","playlistId":"PLEkQk5xrP-tm8ZIu74nTOZN9KJUJu416J","playlistName":"مقاطع مُهمَّة (يُسريَّات) أ.د. يسري جبر","category":"متنوع"}],"total":4126,"page":98,"pageSize":24,"totalPages":172}