{"items":[{"id":"7bMK5lHDHFA","title":"( 119 ) حديث الإفك وبراءة السيدة عائشة أم المؤمنين منه - المجلس الثاني عشر","publishedAt":"2017-05-25T17:54:22Z","duration":"PT28M26S","thumbnail":"https://i.ytimg.com/vi/7bMK5lHDHFA/mqdefault.jpg","viewCount":"217","playlistId":"PLEkQk5xrP-tnl7vb7KeAoPd5ZlqKKW8KV","playlistName":"شرح كتاب بهجة النفوس أ.د . يسرى جبر","category":"متنوع"},{"id":"5Quu1qhnQ6M","title":"مقرأة سورة هود من أولها","publishedAt":"2017-05-26T17:24:04Z","duration":"PT16M18S","thumbnail":"https://i.ytimg.com/vi/5Quu1qhnQ6M/mqdefault.jpg","viewCount":"515","playlistId":"PLEkQk5xrP-tnmTYsyW6xNdyfhPq0Bhrhj","playlistName":"مقرأة الفجر - القُرْآنُ الكَرِيمُ - خَتْمَةُ التَّدَبُّرِ  أ.د. يسري جبر","category":"متنوع"},{"id":"u_kY-Q6xlFY","title":"الجمال كله    د. يسري جبر","publishedAt":"2017-05-27T15:06:39Z","duration":"PT1M45S","thumbnail":"https://i.ytimg.com/vi/u_kY-Q6xlFY/mqdefault.jpg","viewCount":"3064","playlistId":"PLEkQk5xrP-tm8ZIu74nTOZN9KJUJu416J","playlistName":"مقاطع مُهمَّة (يُسريَّات) أ.د. يسري جبر","category":"متنوع"},{"id":"FtnXMBhpVEQ","title":"هل يُستفاد بالأنبياء بعد وفاتهم     د.يسري جبر","publishedAt":"2017-05-27T15:27:43Z","duration":"PT7M26S","thumbnail":"https://i.ytimg.com/vi/FtnXMBhpVEQ/mqdefault.jpg","viewCount":"4753","playlistId":"PLEkQk5xrP-tm8ZIu74nTOZN9KJUJu416J","playlistName":"مقاطع مُهمَّة (يُسريَّات) أ.د. يسري جبر","category":"متنوع"},{"id":"TbgqklcWsBE","title":"( 119 ) حديث الإفك وبراءة السيدة عائشة أم المؤمنين منه - المجلس الثالث عشر د. يسري جبر","publishedAt":"2017-05-27T15:35:01Z","duration":"PT36M3S","thumbnail":"https://i.ytimg.com/vi/TbgqklcWsBE/mqdefault.jpg","viewCount":"299","playlistId":"PLEkQk5xrP-tnl7vb7KeAoPd5ZlqKKW8KV","playlistName":"شرح كتاب بهجة النفوس أ.د . يسرى جبر","category":"متنوع"},{"id":"TXO4cipo7ks","title":"وُرُودُ الفاقات أعيادُ المُريدين","publishedAt":"2017-05-27T16:34:39Z","duration":"PT15M33S","thumbnail":"https://i.ytimg.com/vi/TXO4cipo7ks/mqdefault.jpg","viewCount":"5954","playlistId":"PLEkQk5xrP-tkI_meE148wc7V7XHlB0WPb","playlistName":"من الحكم العطائية  د. يسري جبر","category":"متنوع"},{"id":"pL9cFTSRKPQ","title":"( 119 ) حديث الإفك وبراءة السيدة عائشة أم المؤمنين منه - المجلس الرابع عشر د. يسري جبر","publishedAt":"2017-05-28T14:15:59Z","duration":"PT39M23S","thumbnail":"https://i.ytimg.com/vi/pL9cFTSRKPQ/mqdefault.jpg","viewCount":"321","playlistId":"PLEkQk5xrP-tnl7vb7KeAoPd5ZlqKKW8KV","playlistName":"شرح كتاب بهجة النفوس أ.د . يسرى جبر","category":"متنوع"},{"id":"unonb1Dud7k","title":"الفاقاتُ بُسُطُ المَوَاهِبِ","publishedAt":"2017-05-28T17:22:28Z","duration":"PT8M12S","thumbnail":"https://i.ytimg.com/vi/unonb1Dud7k/mqdefault.jpg","viewCount":"3956","playlistId":"PLEkQk5xrP-tkI_meE148wc7V7XHlB0WPb","playlistName":"من الحكم العطائية  د. يسري جبر","category":"متنوع"},{"id":"jtprMouzjwg","title":"( 119 ) حديث الإفك وبراءة السيدة عائشة أم المؤمنين منه - المجلس الخامس عشر د. يسري جبر","publishedAt":"2017-05-29T04:40:29Z","duration":"PT33M48S","thumbnail":"https://i.ytimg.com/vi/jtprMouzjwg/mqdefault.jpg","viewCount":"274","playlistId":"PLEkQk5xrP-tnl7vb7KeAoPd5ZlqKKW8KV","playlistName":"شرح كتاب بهجة النفوس أ.د . يسرى جبر","category":"متنوع"},{"id":"RFlQUYEZSeI","title":"( 119 ) حديث الإفك وبراءة السيدة عائشة أم المؤمنين منه - المجلس السادس عشر والأخير د. يسري جبر","publishedAt":"2017-05-30T03:20:54Z","duration":"PT26M43S","thumbnail":"https://i.ytimg.com/vi/RFlQUYEZSeI/mqdefault.jpg","viewCount":"240","playlistId":"PLEkQk5xrP-tnl7vb7KeAoPd5ZlqKKW8KV","playlistName":"شرح كتاب بهجة النفوس أ.د . يسرى جبر","category":"متنوع"},{"id":"0tTxPwkPIEQ","title":"51- دُخُولِ الْحَائِضِ مَكَّةَ كتاب الحج ك الموطأ د يسري جبر الأزهري","publishedAt":"2017-05-30T23:58:21Z","duration":"PT59M28S","thumbnail":"https://i.ytimg.com/vi/0tTxPwkPIEQ/mqdefault.jpg","viewCount":"289","playlistId":"PLEkQk5xrP-tnC6BRuqMjyO-484iqXeg0o","playlistName":"شرح كتاب الموطأ للإمام مالك","category":"متنوع"},{"id":"bjq8JioDK1A","title":"( 120 ) حديث يمين الغموس -  د. يسري جبر","publishedAt":"2017-05-31T01:44:16Z","duration":"PT22M30S","thumbnail":"https://i.ytimg.com/vi/bjq8JioDK1A/mqdefault.jpg","viewCount":"390","playlistId":"PLEkQk5xrP-tnl7vb7KeAoPd5ZlqKKW8KV","playlistName":"شرح كتاب بهجة النفوس أ.د . يسرى جبر","category":"متنوع"},{"id":"Od2TPaU5a-c","title":"إذا أردت وُرود المواهب عليك، صَحِّحِ الفقر والفاقةَ لديك (إِنَّمَا الصَّدَقَاتُ لِلْفُقَرَاءِ)","publishedAt":"2017-05-31T16:01:35Z","duration":"PT7M44S","thumbnail":"https://i.ytimg.com/vi/Od2TPaU5a-c/mqdefault.jpg","viewCount":"5501","playlistId":"PLEkQk5xrP-tkI_meE148wc7V7XHlB0WPb","playlistName":"من الحكم العطائية  د. يسري جبر","category":"متنوع"},{"id":"JK5PQmx9WgA","title":"( 121 ) حديث لا تصدقوا أهل الكتاب المجلس الأول - د. يسري جبر","publishedAt":"2017-06-01T03:11:25Z","duration":"PT27M30S","thumbnail":"https://i.ytimg.com/vi/JK5PQmx9WgA/mqdefault.jpg","viewCount":"656","playlistId":"PLEkQk5xrP-tnl7vb7KeAoPd5ZlqKKW8KV","playlistName":"شرح كتاب بهجة النفوس أ.د . يسرى جبر","category":"متنوع"},{"id":"Co0fLk8cUkg","title":"سورة هود آية 6","publishedAt":"2017-06-01T21:28:07Z","duration":"PT15M28S","thumbnail":"https://i.ytimg.com/vi/Co0fLk8cUkg/mqdefault.jpg","viewCount":"396","playlistId":"PLEkQk5xrP-tnmTYsyW6xNdyfhPq0Bhrhj","playlistName":"مقرأة الفجر - القُرْآنُ الكَرِيمُ - خَتْمَةُ التَّدَبُّرِ  أ.د. يسري جبر","category":"متنوع"},{"id":"aPJZYDmnrqw","title":"سورة هود آية 12","publishedAt":"2017-06-01T21:30:18Z","duration":"PT12M12S","thumbnail":"https://i.ytimg.com/vi/aPJZYDmnrqw/mqdefault.jpg","viewCount":"349","playlistId":"PLEkQk5xrP-tnmTYsyW6xNdyfhPq0Bhrhj","playlistName":"مقرأة الفجر - القُرْآنُ الكَرِيمُ - خَتْمَةُ التَّدَبُّرِ  أ.د. يسري جبر","category":"متنوع"},{"id":"lJgn5cawZvU","title":"سورة هود آية 18","publishedAt":"2017-06-01T21:32:17Z","duration":"PT19M47S","thumbnail":"https://i.ytimg.com/vi/lJgn5cawZvU/mqdefault.jpg","viewCount":"378","playlistId":"PLEkQk5xrP-tnmTYsyW6xNdyfhPq0Bhrhj","playlistName":"مقرأة الفجر - القُرْآنُ الكَرِيمُ - خَتْمَةُ التَّدَبُّرِ  أ.د. يسري جبر","category":"متنوع"},{"id":"DDben9eKBO4","title":"سورة هود آية 25","publishedAt":"2017-06-01T21:35:11Z","duration":"PT30M8S","thumbnail":"https://i.ytimg.com/vi/DDben9eKBO4/mqdefault.jpg","viewCount":"354","playlistId":"PLEkQk5xrP-tnmTYsyW6xNdyfhPq0Bhrhj","playlistName":"مقرأة الفجر - القُرْآنُ الكَرِيمُ - خَتْمَةُ التَّدَبُّرِ  أ.د. يسري جبر","category":"متنوع"},{"id":"ysD-vucKewQ","title":"سورة هود آية 36","publishedAt":"2017-06-01T22:11:46Z","duration":"PT17M20S","thumbnail":"https://i.ytimg.com/vi/ysD-vucKewQ/mqdefault.jpg","viewCount":"442","playlistId":"PLEkQk5xrP-tnmTYsyW6xNdyfhPq0Bhrhj","playlistName":"مقرأة الفجر - القُرْآنُ الكَرِيمُ - خَتْمَةُ التَّدَبُّرِ  أ.د. يسري جبر","category":"متنوع"},{"id":"fmJrLpj0u4A","title":"( 121 ) حديث لا تصدقوا أهل الكتاب المجلس الثاني - د. يسري جبر","publishedAt":"2017-06-02T07:47:31Z","duration":"PT31M33S","thumbnail":"https://i.ytimg.com/vi/fmJrLpj0u4A/mqdefault.jpg","viewCount":"867","playlistId":"PLEkQk5xrP-tnl7vb7KeAoPd5ZlqKKW8KV","playlistName":"شرح كتاب بهجة النفوس أ.د . يسرى جبر","category":"متنوع"},{"id":"BCM_BwjGtFI","title":"( 122 ) حديث جواز الكذب      د. يسري جبر","publishedAt":"2017-06-04T16:18:38Z","duration":"PT27M48S","thumbnail":"https://i.ytimg.com/vi/BCM_BwjGtFI/mqdefault.jpg","viewCount":"1055","playlistId":"PLEkQk5xrP-tnl7vb7KeAoPd5ZlqKKW8KV","playlistName":"شرح كتاب بهجة النفوس أ.د . يسرى جبر","category":"متنوع"},{"id":"o_4__rO8FZw","title":"ربما رُزق الكرامة مَن لم تكمُل له الاستقامة","publishedAt":"2017-06-04T16:43:16Z","duration":"PT10M4S","thumbnail":"https://i.ytimg.com/vi/o_4__rO8FZw/mqdefault.jpg","viewCount":"11811","playlistId":"PLEkQk5xrP-tkI_meE148wc7V7XHlB0WPb","playlistName":"من الحكم العطائية  د. يسري جبر","category":"متنوع"},{"id":"z6IJJSEC5Is","title":"( 123 ) حديث صلح الحديبية د. يسري جبر","publishedAt":"2017-06-05T15:03:52Z","duration":"PT34M10S","thumbnail":"https://i.ytimg.com/vi/z6IJJSEC5Is/mqdefault.jpg","viewCount":"659","playlistId":"PLEkQk5xrP-tnl7vb7KeAoPd5ZlqKKW8KV","playlistName":"شرح كتاب بهجة النفوس أ.د . يسرى جبر","category":"متنوع"},{"id":"Fr3DtYgrFnY","title":"( 124 ) حديث جواز الوصية في الثلث - المجلس الأول - د. يسري جبر","publishedAt":"2017-06-06T15:23:23Z","duration":"PT34M40S","thumbnail":"https://i.ytimg.com/vi/Fr3DtYgrFnY/mqdefault.jpg","viewCount":"260","playlistId":"PLEkQk5xrP-tnl7vb7KeAoPd5ZlqKKW8KV","playlistName":"شرح كتاب بهجة النفوس أ.د . يسرى جبر","category":"متنوع"}],"total":4126,"page":41,"pageSize":24,"totalPages":172}