{"items":[{"id":"j4RySDfYtkA","title":"كيف تجمع بين الرابطة والمحبة والحضرة في طريق التصوف؟","publishedAt":"2025-08-08T18:47:54Z","duration":"PT28M17S","thumbnail":"https://i.ytimg.com/vi/j4RySDfYtkA/mqdefault.jpg","viewCount":"3418","playlistId":"PLEkQk5xrP-tmsEDdkkXMM1ca2-AquQYad","playlistName":"شرح كتاب مدارج الحقيقة في الرابطة عند أهل الطريقة","category":"متنوع"},{"id":"ii0lHBFfWT4","title":"61- فوائد النسيان وماذا يفعل الإمام إذا صلى بالناس وهو على غير وضوء؟ | شرح سنن الإمام الدارقطني","publishedAt":"2025-08-09T10:08:37Z","duration":"PT45M15S","thumbnail":"https://i.ytimg.com/vi/ii0lHBFfWT4/mqdefault.jpg","viewCount":"572","playlistId":"PLEkQk5xrP-tk_MCBZ706ORCw6gFtFyaGj","playlistName":"شرح سنن الإمام الدارقطني","category":"متنوع"},{"id":"V0itB4HyQZs","title":"165- حكم من اتهم زوجته بالزنا - شرح مسند الإمام أحمد رضي الله تعالى عنه","publishedAt":"2025-08-10T09:00:43Z","duration":"PT15M5S","thumbnail":"https://i.ytimg.com/vi/V0itB4HyQZs/mqdefault.jpg","viewCount":"518","playlistId":"PLEkQk5xrP-tkKprIuGrSdEuBSMsyg5We1","playlistName":"شرح مسند الإمام أحمد بن حنبل","category":"متنوع"},{"id":"NVtVSlEOlgA","title":"166- الفرق بين المسانيد والسنن - شرح مسند الإمام أحمد رضي الله تعالى عنه","publishedAt":"2025-08-13T09:20:40Z","duration":"PT24M14S","thumbnail":"https://i.ytimg.com/vi/NVtVSlEOlgA/mqdefault.jpg","viewCount":"570","playlistId":"PLEkQk5xrP-tkKprIuGrSdEuBSMsyg5We1","playlistName":"شرح مسند الإمام أحمد بن حنبل","category":"متنوع"},{"id":"Jo_W8bVAAhY","title":"ماذا أقول عند زيارة النبي ﷺ وما آداب الزيارة؟","publishedAt":"2025-08-13T18:00:31Z","duration":"PT9M43S","thumbnail":"https://i.ytimg.com/vi/Jo_W8bVAAhY/mqdefault.jpg","viewCount":"2869","playlistId":"PLEkQk5xrP-tm8ZIu74nTOZN9KJUJu416J","playlistName":"مقاطع مُهمَّة (يُسريَّات) أ.د. يسري جبر","category":"متنوع"},{"id":"XexJ-gpXc4M","title":"مديري عنده جنون عظمة فكيف أتعامل معه؟","publishedAt":"2025-08-14T18:00:25Z","duration":"PT10M3S","thumbnail":"https://i.ytimg.com/vi/XexJ-gpXc4M/mqdefault.jpg","viewCount":"3272","playlistId":"PLEkQk5xrP-tm8ZIu74nTOZN9KJUJu416J","playlistName":"مقاطع مُهمَّة (يُسريَّات) أ.د. يسري جبر","category":"متنوع"},{"id":"ItjvGr965iw","title":"51- كيف تنجو من فتنة المسيح الدجال؟ | شرح مختصر الفتوحات المكية","publishedAt":"2025-08-15T18:00:31Z","duration":"PT44M8S","thumbnail":"https://i.ytimg.com/vi/ItjvGr965iw/mqdefault.jpg","viewCount":"2483","playlistId":"PLEkQk5xrP-tnpkdZki6rPTtMak1bnI5g-","playlistName":"شرح كتاب مختصر الفتوحات المكية المسمى لواقح الأنوار القدسية","category":"متنوع"},{"id":"4UwcHg93ShQ","title":"25- كيف تجاهد نفسك على الطاعة؟ | شرح الحكم العطائية","publishedAt":"2025-08-16T19:00:04Z","duration":"PT42M13S","thumbnail":"https://i.ytimg.com/vi/4UwcHg93ShQ/mqdefault.jpg","viewCount":"3008","playlistId":"PLEkQk5xrP-tmf5ToOwmW-q0JwxkapbrMN","playlistName":"شرح كتاب إرشاد البرية إلى بعض معاني الحكم العطائية","category":"متنوع"},{"id":"J6rsqpvApE0","title":"62- النسيان في الصلاة وأحكام سجود السهو | شرح سنن الإمام الدار قطني","publishedAt":"2025-08-17T04:00:19Z","duration":"PT51M45S","thumbnail":"https://i.ytimg.com/vi/J6rsqpvApE0/mqdefault.jpg","viewCount":"567","playlistId":"PLEkQk5xrP-tk_MCBZ706ORCw6gFtFyaGj","playlistName":"شرح سنن الإمام الدارقطني","category":"متنوع"},{"id":"RpnQzYuRtQ8","title":"كيف أصل إلى السلام النفسي في حياتي؟","publishedAt":"2025-08-17T18:00:17Z","duration":"PT9M7S","thumbnail":"https://i.ytimg.com/vi/RpnQzYuRtQ8/mqdefault.jpg","viewCount":"4313","playlistId":"PLEkQk5xrP-tkGXuZ9atE3k_7it12rUPTs","playlistName":"أسئلة المتابعين","category":"متنوع"},{"id":"kLEvrx3sWvQ","title":"من هم الأشاعرة وما هي العقيدة الأشعرية الصحيحة؟","publishedAt":"2025-08-18T19:00:47Z","duration":"PT11M10S","thumbnail":"https://i.ytimg.com/vi/kLEvrx3sWvQ/mqdefault.jpg","viewCount":"6851","playlistId":"PLEkQk5xrP-tm8ZIu74nTOZN9KJUJu416J","playlistName":"مقاطع مُهمَّة (يُسريَّات) أ.د. يسري جبر","category":"متنوع"},{"id":"_D7EdKk_wvs","title":"167- حكم الصلاة عن الميت وقراءة القرآن له - شرح مسند الإمام أحمد رضي الله تعالى عنه","publishedAt":"2025-08-19T09:00:56Z","duration":"PT17M37S","thumbnail":"https://i.ytimg.com/vi/_D7EdKk_wvs/mqdefault.jpg","viewCount":"651","playlistId":"PLEkQk5xrP-tkKprIuGrSdEuBSMsyg5We1","playlistName":"شرح مسند الإمام أحمد بن حنبل","category":"متنوع"},{"id":"nzNTTR043Ao","title":"هل يوجد رابطة روحية مع الشيخ بعد وفاته؟","publishedAt":"2025-08-19T19:00:48Z","duration":"PT28M45S","thumbnail":"https://i.ytimg.com/vi/nzNTTR043Ao/mqdefault.jpg","viewCount":"3913","playlistId":"PLEkQk5xrP-tmsEDdkkXMM1ca2-AquQYad","playlistName":"شرح كتاب مدارج الحقيقة في الرابطة عند أهل الطريقة","category":"متنوع"},{"id":"5hECAoOzTM0","title":"ازاي أتغلب على نفسي الأمارة بالسوء؟","publishedAt":"2025-08-20T17:00:17Z","duration":"PT8M49S","thumbnail":"https://i.ytimg.com/vi/5hECAoOzTM0/mqdefault.jpg","viewCount":"2680","playlistId":"PLEkQk5xrP-tkGXuZ9atE3k_7it12rUPTs","playlistName":"أسئلة المتابعين","category":"متنوع"},{"id":"JPIkmHMT_SI","title":"52- كيف تحقق العبودية لله؟ | شرح مختصر الفتوحات المكية","publishedAt":"2025-08-21T18:00:17Z","duration":"PT53M8S","thumbnail":"https://i.ytimg.com/vi/JPIkmHMT_SI/mqdefault.jpg","viewCount":"2266","playlistId":"PLEkQk5xrP-tnpkdZki6rPTtMak1bnI5g-","playlistName":"شرح كتاب مختصر الفتوحات المكية المسمى لواقح الأنوار القدسية","category":"متنوع"},{"id":"zUrxrVrd3BY","title":"كيف يتصل قلب المريد بالشيخ؟ | سر الرابطة في طريق التصوف","publishedAt":"2025-08-22T18:01:02Z","duration":"PT28M35S","thumbnail":"https://i.ytimg.com/vi/zUrxrVrd3BY/mqdefault.jpg","viewCount":"5469","playlistId":"PLEkQk5xrP-tmsEDdkkXMM1ca2-AquQYad","playlistName":"شرح كتاب مدارج الحقيقة في الرابطة عند أهل الطريقة","category":"متنوع"},{"id":"M0HCle-v4Po","title":"63-  تعمل ايه لو عندك وسواس قهري في الصلاة؟ | شرح سنن الإمام الدارقطني","publishedAt":"2025-08-23T09:00:25Z","duration":"PT36M16S","thumbnail":"https://i.ytimg.com/vi/M0HCle-v4Po/mqdefault.jpg","viewCount":"568","playlistId":"PLEkQk5xrP-tk_MCBZ706ORCw6gFtFyaGj","playlistName":"شرح سنن الإمام الدارقطني","category":"متنوع"},{"id":"rBAhWWgFFrk","title":"26- ما الفرق بين أحوال القبض والبسط؟ | شرح الحكم العطائية","publishedAt":"2025-08-23T18:15:10Z","duration":"PT35M33S","thumbnail":"https://i.ytimg.com/vi/rBAhWWgFFrk/mqdefault.jpg","viewCount":"3511","playlistId":"PLEkQk5xrP-tmf5ToOwmW-q0JwxkapbrMN","playlistName":"شرح كتاب إرشاد البرية إلى بعض معاني الحكم العطائية","category":"متنوع"},{"id":"B_MEA3mC5Qc","title":"بذكرى المولد نحيا","publishedAt":"2025-08-25T18:15:15Z","duration":"PT19M49S","thumbnail":"https://i.ytimg.com/vi/B_MEA3mC5Qc/mqdefault.jpg","viewCount":"7684","playlistId":"PLEkQk5xrP-tm8ZIu74nTOZN9KJUJu416J","playlistName":"مقاطع مُهمَّة (يُسريَّات) أ.د. يسري جبر","category":"متنوع"},{"id":"bBr6AONS2VQ","title":"ما حدود الكلام والشات بين الشباب والفتيات قبل الزواج؟","publishedAt":"2025-08-27T18:00:39Z","duration":"PT8M9S","thumbnail":"https://i.ytimg.com/vi/bBr6AONS2VQ/mqdefault.jpg","viewCount":"5993","playlistId":"PLEkQk5xrP-tkGXuZ9atE3k_7it12rUPTs","playlistName":"أسئلة المتابعين","category":"متنوع"},{"id":"6H8JkUyksRg","title":"عندي مشكلة في نومي ولا أستطيع الاستيقاظ للفجر فماذا أفعل؟","publishedAt":"2025-08-28T18:06:30Z","duration":"PT9M8S","thumbnail":"https://i.ytimg.com/vi/6H8JkUyksRg/mqdefault.jpg","viewCount":"4272","playlistId":"PLEkQk5xrP-tkGXuZ9atE3k_7it12rUPTs","playlistName":"أسئلة المتابعين","category":"متنوع"},{"id":"5qJaJxrl2v8","title":"كيف تستمد علو الهمة من شيخك؟","publishedAt":"2025-08-29T18:00:11Z","duration":"PT27M50S","thumbnail":"https://i.ytimg.com/vi/5qJaJxrl2v8/mqdefault.jpg","viewCount":"2900","playlistId":"PLEkQk5xrP-tmsEDdkkXMM1ca2-AquQYad","playlistName":"شرح كتاب مدارج الحقيقة في الرابطة عند أهل الطريقة","category":"متنوع"},{"id":"g_Q4sH3lsaI","title":"64- متى نسجد للسهو وهل على المأموم سجود سهو؟ | شرح سنن الإمام الدارقطني","publishedAt":"2025-08-30T09:00:57Z","duration":"PT36M41S","thumbnail":"https://i.ytimg.com/vi/g_Q4sH3lsaI/mqdefault.jpg","viewCount":"266","playlistId":"PLEkQk5xrP-tk_MCBZ706ORCw6gFtFyaGj","playlistName":"شرح سنن الإمام الدارقطني","category":"متنوع"},{"id":"oFj_QOX27TQ","title":"ازاي تكسر الرهبة والخوف عند مواجهة الناس؟","publishedAt":"2025-08-30T18:14:59Z","duration":"PT11M10S","thumbnail":"https://i.ytimg.com/vi/oFj_QOX27TQ/mqdefault.jpg","viewCount":"4244","playlistId":"PLEkQk5xrP-tkGXuZ9atE3k_7it12rUPTs","playlistName":"أسئلة المتابعين","category":"متنوع"}],"total":4126,"page":169,"pageSize":24,"totalPages":172}