{"items":[{"id":"H9606UBw_HE","title":"شرح القصيدة المنفرجة لابن النحوي رضى الله عنه - المجلس الرابع - د. يسري جبر","publishedAt":"2015-07-11T20:12:42Z","duration":"PT47M","thumbnail":"https://i.ytimg.com/vi/H9606UBw_HE/mqdefault.jpg","viewCount":"2870","playlistId":"PLEkQk5xrP-tna48sTO8GZ77fBCf3PgzNc","playlistName":"شرح القصيدة المنفرجة لابن النحوي - د. يسري جبر","category":"متنوع"},{"id":"VBJnawCzUVs","title":"شرح كتاب السِّيَرمن سنن الترمذى - المجلس الأول","publishedAt":"2015-07-12T04:08:12Z","duration":"PT23M35S","thumbnail":"https://i.ytimg.com/vi/VBJnawCzUVs/mqdefault.jpg","viewCount":"245","playlistId":"PLEkQk5xrP-tnu6of679SvxdVx0qSrJzmb","playlistName":"شرح سنن الإمام الترمذي رضى الله عنه د. يسري جبر","category":"متنوع"},{"id":"EGUTPfOfTK0","title":"شرح كتاب السِّيَر من سنن الترمذي - المجلس الثاني","publishedAt":"2015-07-13T03:47:20Z","duration":"PT22M1S","thumbnail":"https://i.ytimg.com/vi/EGUTPfOfTK0/mqdefault.jpg","viewCount":"158","playlistId":"PLEkQk5xrP-tnu6of679SvxdVx0qSrJzmb","playlistName":"شرح سنن الإمام الترمذي رضى الله عنه د. يسري جبر","category":"متنوع"},{"id":"CHNATKDJAb8","title":"شرح كتاب السِّيَر من سنن الترمذي - المجلس الثالث","publishedAt":"2015-07-14T03:53:01Z","duration":"PT19M16S","thumbnail":"https://i.ytimg.com/vi/CHNATKDJAb8/mqdefault.jpg","viewCount":"168","playlistId":"PLEkQk5xrP-tnu6of679SvxdVx0qSrJzmb","playlistName":"شرح سنن الإمام الترمذي رضى الله عنه د. يسري جبر","category":"متنوع"},{"id":"LR8H-ll4gqo","title":"( 109 ) حديث مراتب الضيافة والتيامن فيها سنة من سنته صلى الله عليه وسلم","publishedAt":"2015-07-15T04:16:16Z","duration":"PT27M57S","thumbnail":"https://i.ytimg.com/vi/LR8H-ll4gqo/mqdefault.jpg","viewCount":"241","playlistId":"PLEkQk5xrP-tnl7vb7KeAoPd5ZlqKKW8KV","playlistName":"شرح كتاب بهجة النفوس أ.د . يسرى جبر","category":"متنوع"},{"id":"B_K_t5olZsg","title":"شرح القصيدة المنفرجة لابن النحوي رضى الله عنه - المجلس الثاني - د. يسري جبر","publishedAt":"2015-07-20T09:08:37Z","duration":"PT53M31S","thumbnail":"https://i.ytimg.com/vi/B_K_t5olZsg/mqdefault.jpg","viewCount":"10875","playlistId":"PLEkQk5xrP-tna48sTO8GZ77fBCf3PgzNc","playlistName":"شرح القصيدة المنفرجة لابن النحوي - د. يسري جبر","category":"متنوع"},{"id":"ybQgycYhdA4","title":"السَّلامَةُ مِنَ الدُنْيَا بِتَرْكِهَا لا بِأَخْذِهَا    د. يسرى جبر","publishedAt":"2015-07-21T09:57:40Z","duration":"PT15M8S","thumbnail":"https://i.ytimg.com/vi/ybQgycYhdA4/mqdefault.jpg","viewCount":"2684","playlistId":"PLEkQk5xrP-tm8ZIu74nTOZN9KJUJu416J","playlistName":"مقاطع مُهمَّة (يُسريَّات) أ.د. يسري جبر","category":"متنوع"},{"id":"c7I2u1AmNyc","title":"( 110 )  حَِديثُ قَبُولِ الهَدِيَّةِ وَالإِثَاَبِة عَلَيهَا","publishedAt":"2015-07-21T10:00:55Z","duration":"PT34M56S","thumbnail":"https://i.ytimg.com/vi/c7I2u1AmNyc/mqdefault.jpg","viewCount":"258","playlistId":"PLEkQk5xrP-tnl7vb7KeAoPd5ZlqKKW8KV","playlistName":"شرح كتاب بهجة النفوس أ.د . يسرى جبر","category":"متنوع"},{"id":"DOqVAV7LThg","title":"الصفات المذمومة عند العرب | اعرف نبيك","publishedAt":"2015-07-22T15:11:40Z","duration":"PT6M29S","thumbnail":"https://i.ytimg.com/vi/DOqVAV7LThg/mqdefault.jpg","viewCount":"886","playlistId":"PLEkQk5xrP-tl6Mu_Mz3QMUSv5T6XBH-Dg","playlistName":"برنامج اعرف نبيك","category":"متنوع"},{"id":"iXah5FXflLM","title":"كيف كان ينام سيدنا محمد وما الدعاء الذي كان يقوله قبل النوم | اعرف نبيك","publishedAt":"2015-07-23T14:45:03Z","duration":"PT1M36S","thumbnail":"https://i.ytimg.com/vi/iXah5FXflLM/mqdefault.jpg","viewCount":"2954","playlistId":"PLEkQk5xrP-tl6Mu_Mz3QMUSv5T6XBH-Dg","playlistName":"برنامج اعرف نبيك","category":"متنوع"},{"id":"hHOhEl8wsvk","title":"شرح كتاب فضائل الجهاد من سنن الترمذي - المجلس الأول","publishedAt":"2015-07-29T04:25:08Z","duration":"PT35M16S","thumbnail":"https://i.ytimg.com/vi/hHOhEl8wsvk/mqdefault.jpg","viewCount":"113","playlistId":"PLEkQk5xrP-tnu6of679SvxdVx0qSrJzmb","playlistName":"شرح سنن الإمام الترمذي رضى الله عنه د. يسري جبر","category":"متنوع"},{"id":"Nc3nkmWt7b4","title":"شرح كتاب فضائل الجهاد من سنن الترمذي - المجلس الثاني","publishedAt":"2015-07-30T04:42:09Z","duration":"PT37M51S","thumbnail":"https://i.ytimg.com/vi/Nc3nkmWt7b4/mqdefault.jpg","viewCount":"89","playlistId":"PLEkQk5xrP-tnu6of679SvxdVx0qSrJzmb","playlistName":"شرح سنن الإمام الترمذي رضى الله عنه د. يسري جبر","category":"متنوع"},{"id":"9s1gGfm6p3c","title":"كان سيدنا محمد يقوم يصلي حتى تنتفخ قدماه | اعرف نبيك","publishedAt":"2015-07-30T15:06:41Z","duration":"PT1M56S","thumbnail":"https://i.ytimg.com/vi/9s1gGfm6p3c/mqdefault.jpg","viewCount":"498","playlistId":"PLEkQk5xrP-tl6Mu_Mz3QMUSv5T6XBH-Dg","playlistName":"برنامج اعرف نبيك","category":"متنوع"},{"id":"A2wtUGD8Om4","title":"السيدة عائشة أم المؤمنين تصف حال سيدنا محمد في الليل | اعرف نبيك","publishedAt":"2015-07-30T15:14:46Z","duration":"PT2M41S","thumbnail":"https://i.ytimg.com/vi/A2wtUGD8Om4/mqdefault.jpg","viewCount":"523","playlistId":"PLEkQk5xrP-tl6Mu_Mz3QMUSv5T6XBH-Dg","playlistName":"برنامج اعرف نبيك","category":"متنوع"},{"id":"Crt5u1vMOyQ","title":"وصف صلاة سيدنا محمد في رمضان | اعرف نبيك","publishedAt":"2015-07-30T15:33:25Z","duration":"PT3M39S","thumbnail":"https://i.ytimg.com/vi/Crt5u1vMOyQ/mqdefault.jpg","viewCount":"540","playlistId":"PLEkQk5xrP-tl6Mu_Mz3QMUSv5T6XBH-Dg","playlistName":"برنامج اعرف نبيك","category":"متنوع"},{"id":"DGf1rabrcS8","title":"شرح كتاب فضائل الجهاد من سنن الترمذي - المجلس الثالث","publishedAt":"2015-08-02T04:04:36Z","duration":"PT30M51S","thumbnail":"https://i.ytimg.com/vi/DGf1rabrcS8/mqdefault.jpg","viewCount":"93","playlistId":"PLEkQk5xrP-tnu6of679SvxdVx0qSrJzmb","playlistName":"شرح سنن الإمام الترمذي رضى الله عنه د. يسري جبر","category":"متنوع"},{"id":"MPdRE2_wTnU","title":"شرح كتاب فضائل الجهاد من سنن الترمذي - المجلس الرابع","publishedAt":"2015-08-03T04:09:44Z","duration":"PT26M55S","thumbnail":"https://i.ytimg.com/vi/MPdRE2_wTnU/mqdefault.jpg","viewCount":"74","playlistId":"PLEkQk5xrP-tnu6of679SvxdVx0qSrJzmb","playlistName":"شرح سنن الإمام الترمذي رضى الله عنه د. يسري جبر","category":"متنوع"},{"id":"acE2xi83OAA","title":"شرح كتاب فضائل الجهاد من سنن الترمذي - المجلس الخامس","publishedAt":"2015-08-04T04:16:16Z","duration":"PT31M25S","thumbnail":"https://i.ytimg.com/vi/acE2xi83OAA/mqdefault.jpg","viewCount":"72","playlistId":"PLEkQk5xrP-tnu6of679SvxdVx0qSrJzmb","playlistName":"شرح سنن الإمام الترمذي رضى الله عنه د. يسري جبر","category":"متنوع"},{"id":"MrOI81EqzWs","title":"شرح كتاب فضائل الجهاد من سنن الترمذي - المجلس السادس","publishedAt":"2015-08-05T04:23:38Z","duration":"PT39M31S","thumbnail":"https://i.ytimg.com/vi/MrOI81EqzWs/mqdefault.jpg","viewCount":"71","playlistId":"PLEkQk5xrP-tnu6of679SvxdVx0qSrJzmb","playlistName":"شرح سنن الإمام الترمذي رضى الله عنه د. يسري جبر","category":"متنوع"},{"id":"PgSdfJ9DHV8","title":"المقصود بالمُلك والملكوت والجبروت | اعرف نبيك","publishedAt":"2015-08-05T15:19:21Z","duration":"PT2M7S","thumbnail":"https://i.ytimg.com/vi/PgSdfJ9DHV8/mqdefault.jpg","viewCount":"17407","playlistId":"PLEkQk5xrP-tl6Mu_Mz3QMUSv5T6XBH-Dg","playlistName":"برنامج اعرف نبيك","category":"متنوع"},{"id":"ezysXv7-ipQ","title":"جبريل عليه السلام ينزل لسيدنا محمد ويبشره | اعرف نبيك","publishedAt":"2015-08-05T15:35:24Z","duration":"PT2M16S","thumbnail":"https://i.ytimg.com/vi/ezysXv7-ipQ/mqdefault.jpg","viewCount":"748","playlistId":"PLEkQk5xrP-tl6Mu_Mz3QMUSv5T6XBH-Dg","playlistName":"برنامج اعرف نبيك","category":"متنوع"},{"id":"3EMsbVFeeDg","title":"شرح كتاب الجهاد من سنن الترمذي - المجلس الأول","publishedAt":"2015-08-06T04:27:01Z","duration":"PT27M","thumbnail":"https://i.ytimg.com/vi/3EMsbVFeeDg/mqdefault.jpg","viewCount":"99","playlistId":"PLEkQk5xrP-tnu6of679SvxdVx0qSrJzmb","playlistName":"شرح سنن الإمام الترمذي رضى الله عنه د. يسري جبر","category":"متنوع"},{"id":"luUNuFCvE7M","title":"شرح كتاب الجهاد من سنن الترمذي - المجلس الثاني","publishedAt":"2015-08-07T04:35:04Z","duration":"PT36M16S","thumbnail":"https://i.ytimg.com/vi/luUNuFCvE7M/mqdefault.jpg","viewCount":"83","playlistId":"PLEkQk5xrP-tnu6of679SvxdVx0qSrJzmb","playlistName":"شرح سنن الإمام الترمذي رضى الله عنه د. يسري جبر","category":"متنوع"},{"id":"QWbqYvGZtWU","title":"شرح كتاب الجهاد من سنن الترمذي - المجلس الثالث","publishedAt":"2015-08-08T04:32:40Z","duration":"PT33M20S","thumbnail":"https://i.ytimg.com/vi/QWbqYvGZtWU/mqdefault.jpg","viewCount":"74","playlistId":"PLEkQk5xrP-tnu6of679SvxdVx0qSrJzmb","playlistName":"شرح سنن الإمام الترمذي رضى الله عنه د. يسري جبر","category":"متنوع"}],"total":4126,"page":9,"pageSize":24,"totalPages":172}