{"items":[{"id":"le1zh-ErAcw","title":"شرح سنن الدارمي كتاب فضائل القرآن من باب ٢","publishedAt":"2019-12-11T09:25:43Z","duration":"PT30M8S","thumbnail":"https://i.ytimg.com/vi/le1zh-ErAcw/mqdefault.jpg","viewCount":"216","playlistId":"PLEkQk5xrP-tmAg-FuWjY057X_h5NmGmAa","playlistName":"شرح سنن الدارمي - أ.د. يسري جبر (كاملا)","category":"متنوع"},{"id":"WT8_yi6bbVs","title":"شرح سنن الدارمي كتاب فضائل القرآن من باب ٧","publishedAt":"2019-12-12T11:31:41Z","duration":"PT27M32S","thumbnail":"https://i.ytimg.com/vi/WT8_yi6bbVs/mqdefault.jpg","viewCount":"273","playlistId":"PLEkQk5xrP-tmAg-FuWjY057X_h5NmGmAa","playlistName":"شرح سنن الدارمي - أ.د. يسري جبر (كاملا)","category":"متنوع"},{"id":"q2uMreJAfhw","title":"شرح سنن الدارمي كتاب فضائل القرآن من باب ١٤","publishedAt":"2019-12-12T19:32:06Z","duration":"PT36M4S","thumbnail":"https://i.ytimg.com/vi/q2uMreJAfhw/mqdefault.jpg","viewCount":"283","playlistId":"PLEkQk5xrP-tmAg-FuWjY057X_h5NmGmAa","playlistName":"شرح سنن الدارمي - أ.د. يسري جبر (كاملا)","category":"متنوع"},{"id":"MzypiQQAc6Q","title":"شرح سنن الدارمي كتاب فضائل القرآن من باب ١٧","publishedAt":"2019-12-13T19:04:07Z","duration":"PT21M57S","thumbnail":"https://i.ytimg.com/vi/MzypiQQAc6Q/mqdefault.jpg","viewCount":"288","playlistId":"PLEkQk5xrP-tmAg-FuWjY057X_h5NmGmAa","playlistName":"شرح سنن الدارمي - أ.د. يسري جبر (كاملا)","category":"متنوع"},{"id":"PdKggC7CrZA","title":"شرح سنن الدارمي كتاب فضائل القرآن من باب ٢٠","publishedAt":"2019-12-14T13:59:41Z","duration":"PT29M3S","thumbnail":"https://i.ytimg.com/vi/PdKggC7CrZA/mqdefault.jpg","viewCount":"217","playlistId":"PLEkQk5xrP-tmAg-FuWjY057X_h5NmGmAa","playlistName":"شرح سنن الدارمي - أ.د. يسري جبر (كاملا)","category":"متنوع"},{"id":"_KFF4a_b3sY","title":"شرح سنن الدارمي كتاب فضائل القرآن من باب ٢٥","publishedAt":"2019-12-15T00:01:13Z","duration":"PT16M9S","thumbnail":"https://i.ytimg.com/vi/_KFF4a_b3sY/mqdefault.jpg","viewCount":"249","playlistId":"PLEkQk5xrP-tmAg-FuWjY057X_h5NmGmAa","playlistName":"شرح سنن الدارمي - أ.د. يسري جبر (كاملا)","category":"متنوع"},{"id":"bjQBORkfaTM","title":"شرح سنن الدارمي كتاب فضائل القرآن من باب ٣٠","publishedAt":"2019-12-15T12:02:19Z","duration":"PT16M11S","thumbnail":"https://i.ytimg.com/vi/bjQBORkfaTM/mqdefault.jpg","viewCount":"216","playlistId":"PLEkQk5xrP-tmAg-FuWjY057X_h5NmGmAa","playlistName":"شرح سنن الدارمي - أ.د. يسري جبر (كاملا)","category":"متنوع"},{"id":"NryB3AGxXEQ","title":"شرح كتاب دلائل الخيرات - المجلس الثالث عشر. أ.د. يسري جبر","publishedAt":"2019-12-16T06:45:11Z","duration":"PT12M17S","thumbnail":"https://i.ytimg.com/vi/NryB3AGxXEQ/mqdefault.jpg","viewCount":"7786","playlistId":"PLEkQk5xrP-tlAzcbIpuqjdFICW-knvTlR","playlistName":"شرح كتاب دلائل الخيرات وشوارق الأنوار","category":"متنوع"},{"id":"MOp0mR1GmeI","title":"بِدَعُ التَفَاسِيرِ - المجلس التاسع.  أ.د. يسري جبر","publishedAt":"2019-12-18T07:56:56Z","duration":"PT6M39S","thumbnail":"https://i.ytimg.com/vi/MOp0mR1GmeI/mqdefault.jpg","viewCount":"876","playlistId":"PLEkQk5xrP-tkSGrPLMt1BEmJ54cGWYgtp","playlistName":"كتابُ بِدَعِ التَفَاسِيرِ - أ.د. يسري جبر","category":"متنوع"},{"id":"T1nztzuCus8","title":"أَحَبَّ اللهُ مَن أَحَبَّ حُسَيْنًا.    أ.د. يسري جبر","publishedAt":"2019-12-24T16:56:11Z","duration":"PT35M4S","thumbnail":"https://i.ytimg.com/vi/T1nztzuCus8/mqdefault.jpg","viewCount":"6183","playlistId":"PLEkQk5xrP-tm8ZIu74nTOZN9KJUJu416J","playlistName":"مقاطع مُهمَّة (يُسريَّات) أ.د. يسري جبر","category":"متنوع"},{"id":"l7OOlB9K4ww","title":"شرح كتاب دلائل الخيرات - المجلس الرابع عشر. أ.د. يسري جبر","publishedAt":"2019-12-26T18:04:59Z","duration":"PT28M4S","thumbnail":"https://i.ytimg.com/vi/l7OOlB9K4ww/mqdefault.jpg","viewCount":"11135","playlistId":"PLEkQk5xrP-tlAzcbIpuqjdFICW-knvTlR","playlistName":"شرح كتاب دلائل الخيرات وشوارق الأنوار","category":"متنوع"},{"id":"8oscJalkqDk","title":"هل نكره شخص الكافر؟","publishedAt":"2019-12-27T16:11:16Z","duration":"PT14M28S","thumbnail":"https://i.ytimg.com/vi/8oscJalkqDk/mqdefault.jpg","viewCount":"2378","playlistId":"PLEkQk5xrP-tm8ZIu74nTOZN9KJUJu416J","playlistName":"مقاطع مُهمَّة (يُسريَّات) أ.د. يسري جبر","category":"متنوع"},{"id":"uHbn2gUaycg","title":"الموتُ للمُؤمِنِ نِعْمَةٌ وكَرَامَةٌ    أ.د.يسري جبر","publishedAt":"2019-12-29T16:27:18Z","duration":"PT2M10S","thumbnail":"https://i.ytimg.com/vi/uHbn2gUaycg/mqdefault.jpg","viewCount":"3615","playlistId":"PLEkQk5xrP-tm8ZIu74nTOZN9KJUJu416J","playlistName":"مقاطع مُهمَّة (يُسريَّات) أ.د. يسري جبر","category":"متنوع"},{"id":"LHnsGYx_cVA","title":"حَمَلَةُ العَرْشِ. أ.د.يسري جبر","publishedAt":"2019-12-31T14:30:18Z","duration":"PT1M15S","thumbnail":"https://i.ytimg.com/vi/LHnsGYx_cVA/mqdefault.jpg","viewCount":"2093","playlistId":"PLEkQk5xrP-tm8ZIu74nTOZN9KJUJu416J","playlistName":"مقاطع مُهمَّة (يُسريَّات) أ.د. يسري جبر","category":"متنوع"},{"id":"ybU0BBtHsw4","title":"شرح كتاب دلائل الخيرات - المجلس الخامس عشر. أ.د. يسري جبر","publishedAt":"2020-01-03T11:59:54Z","duration":"PT36M10S","thumbnail":"https://i.ytimg.com/vi/ybU0BBtHsw4/mqdefault.jpg","viewCount":"11017","playlistId":"PLEkQk5xrP-tlAzcbIpuqjdFICW-knvTlR","playlistName":"شرح كتاب دلائل الخيرات وشوارق الأنوار","category":"متنوع"},{"id":"nFl6XCJ8_Ec","title":"الفرقُ بَينَ صَلِّ وَصَلَّى","publishedAt":"2020-01-05T16:29:15Z","duration":"PT1M8S","thumbnail":"https://i.ytimg.com/vi/nFl6XCJ8_Ec/mqdefault.jpg","viewCount":"1172","playlistId":"PLEkQk5xrP-tm8ZIu74nTOZN9KJUJu416J","playlistName":"مقاطع مُهمَّة (يُسريَّات) أ.د. يسري جبر","category":"متنوع"},{"id":"GERlVJajvL8","title":"خدمة المريض. أ.د. يسري جبر","publishedAt":"2020-01-13T18:05:31Z","duration":"PT1M35S","thumbnail":"https://i.ytimg.com/vi/GERlVJajvL8/mqdefault.jpg","viewCount":"2730","playlistId":"PLEkQk5xrP-tm8ZIu74nTOZN9KJUJu416J","playlistName":"مقاطع مُهمَّة (يُسريَّات) أ.د. يسري جبر","category":"متنوع"},{"id":"YDHLR3FCygU","title":"فوائد النمل للبشرية. د.يسري جبر","publishedAt":"2020-01-14T18:59:49Z","duration":"PT2M47S","thumbnail":"https://i.ytimg.com/vi/YDHLR3FCygU/mqdefault.jpg","viewCount":"2898","playlistId":"PLEkQk5xrP-tm8ZIu74nTOZN9KJUJu416J","playlistName":"مقاطع مُهمَّة (يُسريَّات) أ.د. يسري جبر","category":"متنوع"},{"id":"vNfOVDzQEgE","title":"شرح كتاب دلائل الخيرات - المجلس السادس عشر. أ.د. يسري جبر","publishedAt":"2020-01-17T19:23:59Z","duration":"PT51M6S","thumbnail":"https://i.ytimg.com/vi/vNfOVDzQEgE/mqdefault.jpg","viewCount":"14100","playlistId":"PLEkQk5xrP-tlAzcbIpuqjdFICW-knvTlR","playlistName":"شرح كتاب دلائل الخيرات وشوارق الأنوار","category":"متنوع"},{"id":"ezqYiYnTCkc","title":"مفهوم الأُمِّيَّة في القرآن.  أ.د/ يسري جبر","publishedAt":"2020-01-19T20:48:21Z","duration":"PT6M2S","thumbnail":"https://i.ytimg.com/vi/ezqYiYnTCkc/mqdefault.jpg","viewCount":"1402","playlistId":"PLEkQk5xrP-tm8ZIu74nTOZN9KJUJu416J","playlistName":"مقاطع مُهمَّة (يُسريَّات) أ.د. يسري جبر","category":"متنوع"},{"id":"m_Zh_yuIqzI","title":"شرح كتاب دلائل الخيرات - المجلس السابع عشر. أ.د. يسري جبر","publishedAt":"2020-01-24T14:21:15Z","duration":"PT18M43S","thumbnail":"https://i.ytimg.com/vi/m_Zh_yuIqzI/mqdefault.jpg","viewCount":"7738","playlistId":"PLEkQk5xrP-tlAzcbIpuqjdFICW-knvTlR","playlistName":"شرح كتاب دلائل الخيرات وشوارق الأنوار","category":"متنوع"},{"id":"PCT5T-LdJw0","title":"بِدَعُ التَفَاسِيرِ - المجلس العاشر.  أ.د. يسري جبر","publishedAt":"2020-01-25T18:08:35Z","duration":"PT13M37S","thumbnail":"https://i.ytimg.com/vi/PCT5T-LdJw0/mqdefault.jpg","viewCount":"1071","playlistId":"PLEkQk5xrP-tkSGrPLMt1BEmJ54cGWYgtp","playlistName":"كتابُ بِدَعِ التَفَاسِيرِ - أ.د. يسري جبر","category":"متنوع"},{"id":"jaIm_-TWkBk","title":"شرح كتاب دلائل الخيرات - المجلس الثامن عشر. أ.د. يسري جبر","publishedAt":"2020-01-30T16:55:29Z","duration":"PT34M26S","thumbnail":"https://i.ytimg.com/vi/jaIm_-TWkBk/mqdefault.jpg","viewCount":"10520","playlistId":"PLEkQk5xrP-tlAzcbIpuqjdFICW-knvTlR","playlistName":"شرح كتاب دلائل الخيرات وشوارق الأنوار","category":"متنوع"},{"id":"WD67TPh8AN4","title":"شرح كتاب دلائل الخيرات - المجلس التاسع عشر. أ.د. يسري جبر","publishedAt":"2020-02-08T12:41:02Z","duration":"PT21M18S","thumbnail":"https://i.ytimg.com/vi/WD67TPh8AN4/mqdefault.jpg","viewCount":"7294","playlistId":"PLEkQk5xrP-tlAzcbIpuqjdFICW-knvTlR","playlistName":"شرح كتاب دلائل الخيرات وشوارق الأنوار","category":"متنوع"}],"total":4129,"page":89,"pageSize":24,"totalPages":173}