{"items":[{"id":"tf3jGZ9szeI","title":"Ø£Ø³Ø±Ø§Ø± Ø­ÙˆÙ„ Ù…Ø¹Ø¬Ø²Ø© Ø§Ù„Ø¥Ø³Ø±Ø§Ø¡ ÙˆØ§Ù„Ù…Ø¹Ø±Ø§Ø¬ |ğŸ“Ø¬Ø§ÙˆØ© Ø§Ù„ÙˆØ³Ø·Ù‰ - Ø¥Ù†Ø¯ÙˆÙ†ÙŠØ³ÙŠØ§ Ù¤","publishedAt":"2023-02-27T18:00:25Z","duration":"PT25M38S","thumbnail":"https://i.ytimg.com/vi/tf3jGZ9szeI/mqdefault.jpg","viewCount":"2607","playlistId":"PLEkQk5xrP-tm8ZIu74nTOZN9KJUJu416J","playlistName":"Ù…Ù‚Ø§Ø·Ø¹ Ù…ÙÙ‡Ù…ÙÙ‘Ø© (ÙŠÙØ³Ø±ÙŠÙ‘ÙØ§Øª) Ø£.Ø¯. ÙŠØ³Ø±ÙŠ Ø¬Ø¨Ø±","category":"Ù…ØªÙ†ÙˆØ¹"},{"id":"ypfag30SCQM","title":"Ù…Ø§Ø°Ø§ Ø­Ø¯Ø« ÙŠÙˆÙ… ÙˆÙØ§Ø© Ø§Ù„Ù†Ø¨ÙŠ ï·ºØŸ","publishedAt":"2023-02-28T18:03:26Z","duration":"PT43M35S","thumbnail":"https://i.ytimg.com/vi/ypfag30SCQM/mqdefault.jpg","viewCount":"4218","playlistId":"PLEkQk5xrP-tm8ZIu74nTOZN9KJUJu416J","playlistName":"Ù…Ù‚Ø§Ø·Ø¹ Ù…ÙÙ‡Ù…ÙÙ‘Ø© (ÙŠÙØ³Ø±ÙŠÙ‘ÙØ§Øª) Ø£.Ø¯. ÙŠØ³Ø±ÙŠ Ø¬Ø¨Ø±","category":"Ù…ØªÙ†ÙˆØ¹"},{"id":"J7nUoGwzsgk","title":"405- Ø£ÙÙ‚Ù’Ø±ÙØ¨Ù Ù…Ø§ ÙŠÙÙƒÙˆÙ†Ù Ø§Ù„Ø¹ÙØ¨Ù’Ø¯Ù Ù…ÙÙ† Ø±ÙØ¨Ù‘ÙÙ‡ÙØŒ ÙˆÙ‡Ùˆ Ø³Ø§Ø¬ÙØ¯ÙŒØŒ ÙØ£ÙƒÙ’Ø«ÙØ±ÙÙˆØ§ Ø§Ù„Ø¯Ù‘ÙØ¹Ø§Ø¡Ù - Ø´Ø±Ø­ Ø¯Ù„ÙŠÙ„ Ø§Ù„ÙØ§Ù„Ø­ÙŠÙ†","publishedAt":"2023-03-01T05:00:13Z","duration":"PT49M51S","thumbnail":"https://i.ytimg.com/vi/J7nUoGwzsgk/mqdefault.jpg","viewCount":"1772","playlistId":"PLEkQk5xrP-tkc9DXvSLguqX5-FYp6ASR4","playlistName":"Ø¯Ù„ÙŠÙ„ Ø§Ù„ÙØ§Ù„Ø­ÙŠÙ† Ù„Ø·Ø±Ù‚ Ø±ÙŠØ§Ø¶ Ø§Ù„ØµØ§Ù„Ø­ÙŠÙ†","category":"Ù…ØªÙ†ÙˆØ¹"},{"id":"FNZoq8Dw_pE","title":"Ù‡Ù„ ÙƒØ§Ù† Ø§Ù„Ù†Ø¨ÙŠ ï·º ÙŠØªÙƒÙ„Ù… Ø¨Ø¬Ù…ÙŠØ¹ Ø§Ù„Ù„ØºØ§ØªØŸ","publishedAt":"2023-03-01T18:00:06Z","duration":"PT18M53S","thumbnail":"https://i.ytimg.com/vi/FNZoq8Dw_pE/mqdefault.jpg","viewCount":"6109","playlistId":"PLEkQk5xrP-tm8ZIu74nTOZN9KJUJu416J","playlistName":"Ù…Ù‚Ø§Ø·Ø¹ Ù…ÙÙ‡Ù…ÙÙ‘Ø© (ÙŠÙØ³Ø±ÙŠÙ‘ÙØ§Øª) Ø£.Ø¯. ÙŠØ³Ø±ÙŠ Ø¬Ø¨Ø±","category":"Ù…ØªÙ†ÙˆØ¹"},{"id":"Gx2FLVypVC4","title":"Ø£Ø³Ø±Ø§Ø± ÙˆÙ…Ø¹Ø§Ù†ÙŠ Ø­ÙˆÙ„ Ø§Ù„Ø­Ù‚ÙŠÙ‚Ø© Ø§Ù„Ù…Ø­Ù…Ø¯ÙŠØ©","publishedAt":"2023-03-02T18:00:11Z","duration":"PT22M30S","thumbnail":"https://i.ytimg.com/vi/Gx2FLVypVC4/mqdefault.jpg","viewCount":"10259","playlistId":"PLEkQk5xrP-tm8ZIu74nTOZN9KJUJu416J","playlistName":"Ù…Ù‚Ø§Ø·Ø¹ Ù…ÙÙ‡Ù…ÙÙ‘Ø© (ÙŠÙØ³Ø±ÙŠÙ‘ÙØ§Øª) Ø£.Ø¯. ÙŠØ³Ø±ÙŠ Ø¬Ø¨Ø±","category":"Ù…ØªÙ†ÙˆØ¹"},{"id":"swPrt6iPmAs","title":"406- Ù…ÙØ«ÙÙ„Ù Ø§Ù„Ø°ÙŠ ÙŠÙØ°Ù’ÙƒÙØ±Ù Ø±ÙØ¨Ù‘ÙÙ‡Ù ÙˆØ§Ù„Ø°ÙŠ Ù„Ø§ ÙŠÙØ°Ù’ÙƒÙØ±Ù Ø±ÙØ¨Ù‘ÙÙ‡ÙØŒ Ù…ÙØ«ÙÙ„Ù Ø§Ù„Ø­ÙÙŠÙ‘Ù ÙˆØ§Ù„Ù…ÙÙŠÙ‘ÙØªÙ.","publishedAt":"2023-03-03T05:00:23Z","duration":"PT32M42S","thumbnail":"https://i.ytimg.com/vi/swPrt6iPmAs/mqdefault.jpg","viewCount":"1259","playlistId":"PLEkQk5xrP-tkc9DXvSLguqX5-FYp6ASR4","playlistName":"Ø¯Ù„ÙŠÙ„ Ø§Ù„ÙØ§Ù„Ø­ÙŠÙ† Ù„Ø·Ø±Ù‚ Ø±ÙŠØ§Ø¶ Ø§Ù„ØµØ§Ù„Ø­ÙŠÙ†","category":"Ù…ØªÙ†ÙˆØ¹"},{"id":"me1E-5FDq6Y","title":"ÙØ¶Ù„ Ù‚Ø±Ø§Ø¡Ø© Ø³ÙˆØ±Ø© Ø§Ù„ÙƒÙ‡Ù ÙŠÙˆÙ… Ø§Ù„Ø¬Ù…Ø¹Ø©","publishedAt":"2023-03-03T18:00:21Z","duration":"PT44M10S","thumbnail":"https://i.ytimg.com/vi/me1E-5FDq6Y/mqdefault.jpg","viewCount":"4467","playlistId":"PLEkQk5xrP-tm8ZIu74nTOZN9KJUJu416J","playlistName":"Ù…Ù‚Ø§Ø·Ø¹ Ù…ÙÙ‡Ù…ÙÙ‘Ø© (ÙŠÙØ³Ø±ÙŠÙ‘ÙØ§Øª) Ø£.Ø¯. ÙŠØ³Ø±ÙŠ Ø¬Ø¨Ø±","category":"Ù…ØªÙ†ÙˆØ¹"},{"id":"i8pWwpYlbDo","title":"Ù…Ø§ Ø§Ù„ÙØ±Ù‚ Ø¨ÙŠÙ† Ø§Ù„Ø±Ø¬Ø§Ø¡ ÙˆØ§Ù„Ø±ØºØ¨Ø© ÙˆØ§Ù„Ø±Ø¶Ø§ØŸ","publishedAt":"2023-03-04T18:00:29Z","duration":"PT20M50S","thumbnail":"https://i.ytimg.com/vi/i8pWwpYlbDo/mqdefault.jpg","viewCount":"2628","playlistId":"PLEkQk5xrP-tm8ZIu74nTOZN9KJUJu416J","playlistName":"Ù…Ù‚Ø§Ø·Ø¹ Ù…ÙÙ‡Ù…ÙÙ‘Ø© (ÙŠÙØ³Ø±ÙŠÙ‘ÙØ§Øª) Ø£.Ø¯. ÙŠØ³Ø±ÙŠ Ø¬Ø¨Ø±","category":"Ù…ØªÙ†ÙˆØ¹"},{"id":"tAHfGIRCxCA","title":"407- Ø³Ø¨Ù‚ Ø§Ù„Ù…ÙÙÙØ±Ù‘ÙØ¯ÙˆÙ† Ù‚Ø§Ù„ÙˆØ§ ÙˆÙ…Ø§ Ø§Ù„Ù…ÙÙÙØ±Ù‘ÙØ¯ÙˆÙ† ÙŠØ§ Ø±Ø³ÙˆÙ„Ù Ø§Ù„Ù„Ù‡ Ù‚Ø§Ù„ Ø§Ù„Ø°Ù‘ÙØ§ÙƒØ±ÙˆÙ† Ø§Ù„Ù„Ù‡Ù ÙƒØ«ÙŠØ±Ù‹Ø§ ÙˆØ§Ù„Ø°Ù‘ÙØ§ÙƒØ±Ø§Øª.","publishedAt":"2023-03-05T05:00:19Z","duration":"PT32M3S","thumbnail":"https://i.ytimg.com/vi/tAHfGIRCxCA/mqdefault.jpg","viewCount":"1644","playlistId":"PLEkQk5xrP-tkc9DXvSLguqX5-FYp6ASR4","playlistName":"Ø¯Ù„ÙŠÙ„ Ø§Ù„ÙØ§Ù„Ø­ÙŠÙ† Ù„Ø·Ø±Ù‚ Ø±ÙŠØ§Ø¶ Ø§Ù„ØµØ§Ù„Ø­ÙŠÙ†","category":"Ù…ØªÙ†ÙˆØ¹"},{"id":"1Ko55Cj2zOE","title":"ÙØ¶Ù„ Ù„ÙŠÙ„Ø© Ø§Ù„Ù†ØµÙ Ù…Ù† Ø´Ø¹Ø¨Ø§Ù†","publishedAt":"2023-03-06T15:00:02Z","duration":"PT18M31S","thumbnail":"https://i.ytimg.com/vi/1Ko55Cj2zOE/mqdefault.jpg","viewCount":"9936","playlistId":"PLEkQk5xrP-tm8ZIu74nTOZN9KJUJu416J","playlistName":"Ù…Ù‚Ø§Ø·Ø¹ Ù…ÙÙ‡Ù…ÙÙ‘Ø© (ÙŠÙØ³Ø±ÙŠÙ‘ÙØ§Øª) Ø£.Ø¯. ÙŠØ³Ø±ÙŠ Ø¬Ø¨Ø±","category":"Ù…ØªÙ†ÙˆØ¹"},{"id":"cIpcCFQwEUU","title":"408- Ø£ÙÙ„ÙØ§ Ø£ÙÙ†ÙØ¨Ù‘ÙØ¦ÙÙƒÙ… Ø¨ÙØ®ÙÙŠÙ’Ø±Ù Ø£Ø¹Ù…Ø§Ù„ÙÙƒÙÙ…ØŒ ÙˆØ£ÙØ²Ù’ÙƒØ§Ù‡Ø§ Ø¹ÙÙ†Ø¯Ù Ù…ÙÙ„ÙÙŠÙƒÙÙƒÙÙ…ØŒ ÙˆØ£ÙØ±ÙØ¹ÙÙ‡Ø§ ÙÙŠ Ø¯ÙØ±ÙØ¬Ø§ØªÙÙƒÙÙ…â€¦","publishedAt":"2023-03-07T05:00:15Z","duration":"PT36M11S","thumbnail":"https://i.ytimg.com/vi/cIpcCFQwEUU/mqdefault.jpg","viewCount":"1466","playlistId":"PLEkQk5xrP-tkc9DXvSLguqX5-FYp6ASR4","playlistName":"Ø¯Ù„ÙŠÙ„ Ø§Ù„ÙØ§Ù„Ø­ÙŠÙ† Ù„Ø·Ø±Ù‚ Ø±ÙŠØ§Ø¶ Ø§Ù„ØµØ§Ù„Ø­ÙŠÙ†","category":"Ù…ØªÙ†ÙˆØ¹"},{"id":"8DBEEvVl5Jo","title":"Ø§Ù„Ø±Ø¶Ø§ Ø¨Ø§Ù„Ø¥Ù‚Ø§Ù…Ø© Ø¹ÙŠÙ† Ø§Ù„ÙƒØ±Ø§Ù…Ø©","publishedAt":"2023-03-07T18:00:06Z","duration":"PT23M54S","thumbnail":"https://i.ytimg.com/vi/8DBEEvVl5Jo/mqdefault.jpg","viewCount":"7262","playlistId":"PLEkQk5xrP-tm8ZIu74nTOZN9KJUJu416J","playlistName":"Ù…Ù‚Ø§Ø·Ø¹ Ù…ÙÙ‡Ù…ÙÙ‘Ø© (ÙŠÙØ³Ø±ÙŠÙ‘ÙØ§Øª) Ø£.Ø¯. ÙŠØ³Ø±ÙŠ Ø¬Ø¨Ø±","category":"Ù…ØªÙ†ÙˆØ¹"},{"id":"RXa4VbAx1JA","title":"409- ÙØ¶Ù„ Ø­ÙÙ„ÙÙ‚Ù Ø§Ù„Ø°ÙÙƒØ± ÙˆØ§Ù„Ù†Ø¯Ø¨ Ø¹Ù„Ù‰ Ù…Ù„Ø§Ø²Ù…ØªÙ‡Ø§ ÙˆØ§Ù„Ù†Ù‡ÙŠ Ø¹Ù† Ù…ÙØ§Ø±Ù‚ØªÙ‡Ø§ Ù„ØºÙŠØ± Ø¹Ø°Ø± - Ø´Ø±Ø­ Ø¯Ù„ÙŠÙ„ Ø§Ù„ÙØ§Ù„Ø­ÙŠÙ†","publishedAt":"2023-03-09T05:00:16Z","duration":"PT30M5S","thumbnail":"https://i.ytimg.com/vi/RXa4VbAx1JA/mqdefault.jpg","viewCount":"1806","playlistId":"PLEkQk5xrP-tkc9DXvSLguqX5-FYp6ASR4","playlistName":"Ø¯Ù„ÙŠÙ„ Ø§Ù„ÙØ§Ù„Ø­ÙŠÙ† Ù„Ø·Ø±Ù‚ Ø±ÙŠØ§Ø¶ Ø§Ù„ØµØ§Ù„Ø­ÙŠÙ†","category":"Ù…ØªÙ†ÙˆØ¹"},{"id":"xUGlRzl1i2Q","title":"ØªØ¹Ø±Ù Ø¹Ù„Ù‰ Ø³ÙŠØ¯Ù†Ø§ Ø§Ù„Ù†Ø¨ÙŠ ï·º","publishedAt":"2023-03-09T18:00:33Z","duration":"PT22M39S","thumbnail":"https://i.ytimg.com/vi/xUGlRzl1i2Q/mqdefault.jpg","viewCount":"6968","playlistId":"PLEkQk5xrP-tm8ZIu74nTOZN9KJUJu416J","playlistName":"Ù…Ù‚Ø§Ø·Ø¹ Ù…ÙÙ‡Ù…ÙÙ‘Ø© (ÙŠÙØ³Ø±ÙŠÙ‘ÙØ§Øª) Ø£.Ø¯. ÙŠØ³Ø±ÙŠ Ø¬Ø¨Ø±","category":"Ù…ØªÙ†ÙˆØ¹"},{"id":"nb5JccA9g7s","title":"ÙØ¶Ù„ Ø§Ù„ØµÙ„Ø§Ø© Ø¹Ù„Ù‰ Ø§Ù„Ù†Ø¨ÙŠ ï·º","publishedAt":"2023-03-10T18:00:22Z","duration":"PT10M12S","thumbnail":"https://i.ytimg.com/vi/nb5JccA9g7s/mqdefault.jpg","viewCount":"9870","playlistId":"PLEkQk5xrP-tm8ZIu74nTOZN9KJUJu416J","playlistName":"Ù…Ù‚Ø§Ø·Ø¹ Ù…ÙÙ‡Ù…ÙÙ‘Ø© (ÙŠÙØ³Ø±ÙŠÙ‘ÙØ§Øª) Ø£.Ø¯. ÙŠØ³Ø±ÙŠ Ø¬Ø¨Ø±","category":"Ù…ØªÙ†ÙˆØ¹"},{"id":"5mhTZ4lK7iQ","title":"410- Ù„Ø§ ÙŠÙÙ‚Ù’Ø¹ÙØ¯Ù Ù‚ÙÙˆÙ…ÙŒ ÙŠØ°Ù’ÙƒÙØ±ÙˆÙ† Ø§Ù„Ù„Ù‘ÙÙ‡Ù Ø¹Ø²Ù‘Ù ÙˆØ¬Ù„Ù‘Ù Ø¥ÙÙ„Ù‘Ø§ Ø­ÙÙ‘ÙØªÙ’Ù‡Ù…Ù Ø§Ù„Ù…Ù„ÙØ§Ø¦ÙƒØ©ÙØŒ ÙˆØºØ´ÙŠÙØªÙ’Ù‡Ù…Ù Ø§Ù„Ø±Ù‘ÙØ­Ù’Ù…Ø©Ù","publishedAt":"2023-03-11T05:00:02Z","duration":"PT26M22S","thumbnail":"https://i.ytimg.com/vi/5mhTZ4lK7iQ/mqdefault.jpg","viewCount":"1127","playlistId":"PLEkQk5xrP-tkc9DXvSLguqX5-FYp6ASR4","playlistName":"Ø¯Ù„ÙŠÙ„ Ø§Ù„ÙØ§Ù„Ø­ÙŠÙ† Ù„Ø·Ø±Ù‚ Ø±ÙŠØ§Ø¶ Ø§Ù„ØµØ§Ù„Ø­ÙŠÙ†","category":"Ù…ØªÙ†ÙˆØ¹"},{"id":"z5lzUf6iEr4","title":"Ù…Ø§ Ù‡ÙŠ Ø¢Ø¯Ø§Ø¨ Ø·Ø§Ù„Ø¨ Ø§Ù„Ø¹Ù„Ù…ØŸ","publishedAt":"2023-03-11T18:00:32Z","duration":"PT31M38S","thumbnail":"https://i.ytimg.com/vi/z5lzUf6iEr4/mqdefault.jpg","viewCount":"1799","playlistId":"PLEkQk5xrP-tm8ZIu74nTOZN9KJUJu416J","playlistName":"Ù…Ù‚Ø§Ø·Ø¹ Ù…ÙÙ‡Ù…ÙÙ‘Ø© (ÙŠÙØ³Ø±ÙŠÙ‘ÙØ§Øª) Ø£.Ø¯. ÙŠØ³Ø±ÙŠ Ø¬Ø¨Ø±","category":"Ù…ØªÙ†ÙˆØ¹"},{"id":"8ZI-e_UE1ho","title":"Ù…Ø§ Ù‡Ùˆ Ù†ÙˆØ± Ø§Ù„Ù‚Ø¯ÙŠÙ…ØŸ","publishedAt":"2023-03-12T18:09:07Z","duration":"PT14M5S","thumbnail":"https://i.ytimg.com/vi/8ZI-e_UE1ho/mqdefault.jpg","viewCount":"4104","playlistId":"PLEkQk5xrP-tm8ZIu74nTOZN9KJUJu416J","playlistName":"Ù…Ù‚Ø§Ø·Ø¹ Ù…ÙÙ‡Ù…ÙÙ‘Ø© (ÙŠÙØ³Ø±ÙŠÙ‘ÙØ§Øª) Ø£.Ø¯. ÙŠØ³Ø±ÙŠ Ø¬Ø¨Ø±","category":"Ù…ØªÙ†ÙˆØ¹"},{"id":"coMCGvsdBhI","title":"411- Ø§Ù„Ø°ÙƒØ± Ø¹Ù†Ø¯ Ø§Ù„ØµØ¨Ø§Ø­ ÙˆØ§Ù„Ù…Ø³Ø§Ø¡ ÙˆØ¨ÙŠØ§Ù† ÙˆÙ‚ØªÙ‡ - Ø´Ø±Ø­ Ø¯Ù„ÙŠÙ„ Ø§Ù„ÙØ§Ù„Ø­ÙŠÙ†","publishedAt":"2023-03-13T05:00:14Z","duration":"PT26M10S","thumbnail":"https://i.ytimg.com/vi/coMCGvsdBhI/mqdefault.jpg","viewCount":"1918","playlistId":"PLEkQk5xrP-tkc9DXvSLguqX5-FYp6ASR4","playlistName":"Ø¯Ù„ÙŠÙ„ Ø§Ù„ÙØ§Ù„Ø­ÙŠÙ† Ù„Ø·Ø±Ù‚ Ø±ÙŠØ§Ø¶ Ø§Ù„ØµØ§Ù„Ø­ÙŠÙ†","category":"Ù…ØªÙ†ÙˆØ¹"},{"id":"v5Ijm107NkA","title":"Ù…Ø§Ø°Ø§ Ø£ÙØ¹Ù„ Ø­ØªÙ‰ Ø£Ø±Ù‰ Ø§Ù„Ù†Ø¨ÙŠ ï·º ÙŠÙ‚Ø¸Ø©ØŸ","publishedAt":"2023-03-13T18:00:31Z","duration":"PT9M25S","thumbnail":"https://i.ytimg.com/vi/v5Ijm107NkA/mqdefault.jpg","viewCount":"13782","playlistId":"PLEkQk5xrP-tm8ZIu74nTOZN9KJUJu416J","playlistName":"Ù…Ù‚Ø§Ø·Ø¹ Ù…ÙÙ‡Ù…ÙÙ‘Ø© (ÙŠÙØ³Ø±ÙŠÙ‘ÙØ§Øª) Ø£.Ø¯. ÙŠØ³Ø±ÙŠ Ø¬Ø¨Ø±","category":"Ù…ØªÙ†ÙˆØ¹"},{"id":"vrk0kW3UKqM","title":"Ù…Ø§ Ù‡Ùˆ Ø§Ù„ØªØµÙˆÙ ÙˆÙ…Ø§ Ù‡ÙŠ Ø§Ù„Ø·Ø±ÙŠÙ‚Ø© ÙˆÙ…ØªÙ‰ Ø¢Ø®Ø°Ù‡Ø§ØŸ","publishedAt":"2023-03-14T18:00:31Z","duration":"PT28M43S","thumbnail":"https://i.ytimg.com/vi/vrk0kW3UKqM/mqdefault.jpg","viewCount":"145961","playlistId":"PLEkQk5xrP-tm8ZIu74nTOZN9KJUJu416J","playlistName":"Ù…Ù‚Ø§Ø·Ø¹ Ù…ÙÙ‡Ù…ÙÙ‘Ø© (ÙŠÙØ³Ø±ÙŠÙ‘ÙØ§Øª) Ø£.Ø¯. ÙŠØ³Ø±ÙŠ Ø¬Ø¨Ø±","category":"Ù…ØªÙ†ÙˆØ¹"},{"id":"s_pkd3y5nnc","title":"412- Ø¨ÙŠØ§Ù† Ù…Ø§ ÙŠÙÙ‚Ø§Ù„ Ø¥Ø°Ø§ Ø£Ù…Ø³ÙŠÙ’Øª ÙˆØ¥Ø°Ø§ Ø£ØµØ¨Ø­Ù’Øª ÙˆØ¥Ø°Ø§ Ø£Ø®Ø°Ù’Øª Ù…Ø¶Ø¬Ø¹Ùƒ - Ø´Ø±Ø­ Ø¯Ù„ÙŠÙ„ Ø§Ù„ÙØ§Ù„Ø­ÙŠÙ†","publishedAt":"2023-03-15T05:35:00Z","duration":"PT30M18S","thumbnail":"https://i.ytimg.com/vi/s_pkd3y5nnc/mqdefault.jpg","viewCount":"995","playlistId":"PLEkQk5xrP-tkc9DXvSLguqX5-FYp6ASR4","playlistName":"Ø¯Ù„ÙŠÙ„ Ø§Ù„ÙØ§Ù„Ø­ÙŠÙ† Ù„Ø·Ø±Ù‚ Ø±ÙŠØ§Ø¶ Ø§Ù„ØµØ§Ù„Ø­ÙŠÙ†","category":"Ù…ØªÙ†ÙˆØ¹"},{"id":"oXz8FgR1g8k","title":"Ù‡Ù„ ÙŠØ¬ÙˆØ² Ø§Ù„Ø§Ø­ØªÙØ§Ù„ Ø¨Ù…ÙˆØ§Ù„Ø¯ Ø§Ù„Ø£ÙˆÙ„ÙŠØ§Ø¡ ÙˆØ§Ù„ØµØ§Ù„Ø­ÙŠÙ†ØŸ","publishedAt":"2023-03-15T18:00:20Z","duration":"PT20M28S","thumbnail":"https://i.ytimg.com/vi/oXz8FgR1g8k/mqdefault.jpg","viewCount":"2961","playlistId":"PLEkQk5xrP-tm8ZIu74nTOZN9KJUJu416J","playlistName":"Ù…Ù‚Ø§Ø·Ø¹ Ù…ÙÙ‡Ù…ÙÙ‘Ø© (ÙŠÙØ³Ø±ÙŠÙ‘ÙØ§Øª) Ø£.Ø¯. ÙŠØ³Ø±ÙŠ Ø¬Ø¨Ø±","category":"Ù…ØªÙ†ÙˆØ¹"},{"id":"G9zuezXSAV0","title":"413- Ù…Ø§ ÙŠÙÙ‚Ø§Ù„Ù Ø¹Ù†Ø¯ Ø§Ù„Ù†ÙˆÙ… - Ø´Ø±Ø­ Ø¯Ù„ÙŠÙ„ Ø§Ù„ÙØ§Ù„Ø­ÙŠÙ†","publishedAt":"2023-03-17T05:00:05Z","duration":"PT38M54S","thumbnail":"https://i.ytimg.com/vi/G9zuezXSAV0/mqdefault.jpg","viewCount":"1247","playlistId":"PLEkQk5xrP-tkc9DXvSLguqX5-FYp6ASR4","playlistName":"Ø¯Ù„ÙŠÙ„ Ø§Ù„ÙØ§Ù„Ø­ÙŠÙ† Ù„Ø·Ø±Ù‚ Ø±ÙŠØ§Ø¶ Ø§Ù„ØµØ§Ù„Ø­ÙŠÙ†","category":"Ù…ØªÙ†ÙˆØ¹"}],"total":4126,"page":135,"pageSize":24,"totalPages":172}