{"items":[{"id":"sAUxljXEkcg","title":"فضل صلة الرحم | أ.د. يسري جبر","publishedAt":"2022-04-26T15:30:11Z","duration":"PT41M3S","thumbnail":"https://i.ytimg.com/vi/sAUxljXEkcg/mqdefault.jpg","viewCount":"2586","playlistId":"PLEkQk5xrP-tnl7vb7KeAoPd5ZlqKKW8KV","playlistName":"شرح كتاب بهجة النفوس أ.د . يسرى جبر","category":"متنوع"},{"id":"QLDMN4qdwfM","title":"239- كراهية تمنِّي الموت - شرح دليل الفالحين","publishedAt":"2022-04-27T05:00:13Z","duration":"PT38M20S","thumbnail":"https://i.ytimg.com/vi/QLDMN4qdwfM/mqdefault.jpg","viewCount":"1185","playlistId":"PLEkQk5xrP-tkc9DXvSLguqX5-FYp6ASR4","playlistName":"دليل الفالحين لطرق رياض الصالحين","category":"متنوع"},{"id":"Dzb4BXd5X80","title":"فضل تربية البنات | أ.د. يسري جبر","publishedAt":"2022-04-27T19:30:02Z","duration":"PT43M17S","thumbnail":"https://i.ytimg.com/vi/Dzb4BXd5X80/mqdefault.jpg","viewCount":"2860","playlistId":"PLEkQk5xrP-tnl7vb7KeAoPd5ZlqKKW8KV","playlistName":"شرح كتاب بهجة النفوس أ.د . يسرى جبر","category":"متنوع"},{"id":"xUw_OcMmidA","title":"رحمة الله بعباده | أ.د. يسري جبر","publishedAt":"2022-04-28T15:30:07Z","duration":"PT33M36S","thumbnail":"https://i.ytimg.com/vi/xUw_OcMmidA/mqdefault.jpg","viewCount":"3324","playlistId":"PLEkQk5xrP-tnl7vb7KeAoPd5ZlqKKW8KV","playlistName":"شرح كتاب بهجة النفوس أ.د . يسرى جبر","category":"متنوع"},{"id":"5n6DaWNBKoo","title":"240- الورعُ وتركُ الشُبُهات - شرح دليل الفالحين","publishedAt":"2022-04-29T05:00:04Z","duration":"PT43M40S","thumbnail":"https://i.ytimg.com/vi/5n6DaWNBKoo/mqdefault.jpg","viewCount":"1063","playlistId":"PLEkQk5xrP-tkc9DXvSLguqX5-FYp6ASR4","playlistName":"دليل الفالحين لطرق رياض الصالحين","category":"متنوع"},{"id":"-Wwa13CJUjs","title":"جواز التوسل بالنَّبيّ ﷺ | أ.د. يسري جبر","publishedAt":"2022-04-29T15:30:00Z","duration":"PT25M44S","thumbnail":"https://i.ytimg.com/vi/-Wwa13CJUjs/mqdefault.jpg","viewCount":"3660","playlistId":"PLEkQk5xrP-tnl7vb7KeAoPd5ZlqKKW8KV","playlistName":"شرح كتاب بهجة النفوس أ.د . يسرى جبر","category":"متنوع"},{"id":"RwMvKq1Wt7Q","title":"241- البِرُّ حُسنُ الخُلُق، والإِثْمُ ما حاك في صدرك ، وكرهت أن يطلع عليه الناس - شرح دليل الفالحين","publishedAt":"2022-04-30T05:00:10Z","duration":"PT46M21S","thumbnail":"https://i.ytimg.com/vi/RwMvKq1Wt7Q/mqdefault.jpg","viewCount":"1789","playlistId":"PLEkQk5xrP-tkc9DXvSLguqX5-FYp6ASR4","playlistName":"دليل الفالحين لطرق رياض الصالحين","category":"متنوع"},{"id":"Nt8p-g22i3E","title":"سعة رحمة الله تعالى بعباده | أ.د. يسري جبر","publishedAt":"2022-04-30T15:30:02Z","duration":"PT28M10S","thumbnail":"https://i.ytimg.com/vi/Nt8p-g22i3E/mqdefault.jpg","viewCount":"2934","playlistId":"PLEkQk5xrP-tnl7vb7KeAoPd5ZlqKKW8KV","playlistName":"شرح كتاب بهجة النفوس أ.د . يسرى جبر","category":"متنوع"},{"id":"4Iw5D40aYtA","title":"توادد المؤمنين وتراحمهم | أ.د. يسري جبر","publishedAt":"2022-05-01T15:30:01Z","duration":"PT22M49S","thumbnail":"https://i.ytimg.com/vi/4Iw5D40aYtA/mqdefault.jpg","viewCount":"1117","playlistId":"PLEkQk5xrP-tnl7vb7KeAoPd5ZlqKKW8KV","playlistName":"شرح كتاب بهجة النفوس أ.د . يسرى جبر","category":"متنوع"},{"id":"J3_wF-RQMt8","title":"هل يجوز زيارة الموتى في العيد؟","publishedAt":"2022-05-01T19:30:01Z","duration":"PT8M4S","thumbnail":"https://i.ytimg.com/vi/J3_wF-RQMt8/mqdefault.jpg","viewCount":"6695","playlistId":"PLEkQk5xrP-tkGXuZ9atE3k_7it12rUPTs","playlistName":"أسئلة المتابعين","category":"متنوع"},{"id":"p4p6ejFBsLY","title":"بعد رمضان ,, نصيحة لمن يريد حفظ القرآن","publishedAt":"2022-05-02T19:00:23Z","duration":"PT11M46S","thumbnail":"https://i.ytimg.com/vi/p4p6ejFBsLY/mqdefault.jpg","viewCount":"29191","playlistId":"PLEkQk5xrP-tm8ZIu74nTOZN9KJUJu416J","playlistName":"مقاطع مُهمَّة (يُسريَّات) أ.د. يسري جبر","category":"متنوع"},{"id":"TwtgQDgfrSQ","title":"حكم فوائد البنوك | أ.د. يسري جبر","publishedAt":"2022-05-04T18:15:02Z","duration":"PT12M10S","thumbnail":"https://i.ytimg.com/vi/TwtgQDgfrSQ/mqdefault.jpg","viewCount":"202064","playlistId":"PLEkQk5xrP-tm8ZIu74nTOZN9KJUJu416J","playlistName":"مقاطع مُهمَّة (يُسريَّات) أ.د. يسري جبر","category":"متنوع"},{"id":"aVJ65Boy-aU","title":"هل الاستماع إلى الأغاني حرام؟","publishedAt":"2022-05-05T18:00:00Z","duration":"PT11M40S","thumbnail":"https://i.ytimg.com/vi/aVJ65Boy-aU/mqdefault.jpg","viewCount":"21286","playlistId":"PLEkQk5xrP-tm8ZIu74nTOZN9KJUJu416J","playlistName":"مقاطع مُهمَّة (يُسريَّات) أ.د. يسري جبر","category":"متنوع"},{"id":"J5fwRVtLIR4","title":"هل يوجد مجاز في القرآن الكريم؟","publishedAt":"2022-05-06T18:00:06Z","duration":"PT8M42S","thumbnail":"https://i.ytimg.com/vi/J5fwRVtLIR4/mqdefault.jpg","viewCount":"4620","playlistId":"PLEkQk5xrP-tm8ZIu74nTOZN9KJUJu416J","playlistName":"مقاطع مُهمَّة (يُسريَّات) أ.د. يسري جبر","category":"متنوع"},{"id":"Eb__BTXrsQU","title":"242- حكم مَن تزوج أخته من الرضاع وأنجب منها - شرح دليل الفالحين","publishedAt":"2022-05-07T05:00:04Z","duration":"PT39M7S","thumbnail":"https://i.ytimg.com/vi/Eb__BTXrsQU/mqdefault.jpg","viewCount":"4308","playlistId":"PLEkQk5xrP-tkc9DXvSLguqX5-FYp6ASR4","playlistName":"دليل الفالحين لطرق رياض الصالحين","category":"متنوع"},{"id":"x9ewQtN9FiM","title":"كيف تتخلص من العادة السرية بشكل نهائي؟","publishedAt":"2022-05-07T18:00:30Z","duration":"PT8M37S","thumbnail":"https://i.ytimg.com/vi/x9ewQtN9FiM/mqdefault.jpg","viewCount":"41356","playlistId":"PLEkQk5xrP-tkGXuZ9atE3k_7it12rUPTs","playlistName":"أسئلة المتابعين","category":"متنوع"},{"id":"c0KaIgF_v7Q","title":"243- استحباب العُزْلة عند فساد الزمان - شرح دليل الفالحين","publishedAt":"2022-05-08T20:00:05Z","duration":"PT47M55S","thumbnail":"https://i.ytimg.com/vi/c0KaIgF_v7Q/mqdefault.jpg","viewCount":"5597","playlistId":"PLEkQk5xrP-tkc9DXvSLguqX5-FYp6ASR4","playlistName":"دليل الفالحين لطرق رياض الصالحين","category":"متنوع"},{"id":"80TONMGzeFo","title":"من هو الصوفي وما هو العهد؟","publishedAt":"2022-05-09T18:00:02Z","duration":"PT10M19S","thumbnail":"https://i.ytimg.com/vi/80TONMGzeFo/mqdefault.jpg","viewCount":"23352","playlistId":"PLEkQk5xrP-tkGXuZ9atE3k_7it12rUPTs","playlistName":"أسئلة المتابعين","category":"متنوع"},{"id":"SDuzaiKL3Vs","title":"244- فضلُ الاختلاط بالناس - شرح دليل الفالحين","publishedAt":"2022-05-10T05:15:00Z","duration":"PT31M8S","thumbnail":"https://i.ytimg.com/vi/SDuzaiKL3Vs/mqdefault.jpg","viewCount":"2387","playlistId":"PLEkQk5xrP-tkc9DXvSLguqX5-FYp6ASR4","playlistName":"دليل الفالحين لطرق رياض الصالحين","category":"متنوع"},{"id":"V3AglBHgm8Y","title":"كيف نواجه غلاء الأسعار؟","publishedAt":"2022-05-10T18:00:11Z","duration":"PT10M30S","thumbnail":"https://i.ytimg.com/vi/V3AglBHgm8Y/mqdefault.jpg","viewCount":"5405","playlistId":"PLEkQk5xrP-tm8ZIu74nTOZN9KJUJu416J","playlistName":"مقاطع مُهمَّة (يُسريَّات) أ.د. يسري جبر","category":"متنوع"},{"id":"BK9nuOBoaM0","title":"245- التواضع وخفض الجناح - شرح دليل الفالحين","publishedAt":"2022-05-11T19:30:00Z","duration":"PT43M53S","thumbnail":"https://i.ytimg.com/vi/BK9nuOBoaM0/mqdefault.jpg","viewCount":"2469","playlistId":"PLEkQk5xrP-tkc9DXvSLguqX5-FYp6ASR4","playlistName":"دليل الفالحين لطرق رياض الصالحين","category":"متنوع"},{"id":"Tt1IHeksHvI","title":"كيف تتوكل على الله حق التوكل؟","publishedAt":"2022-05-12T19:00:15Z","duration":"PT17M15S","thumbnail":"https://i.ytimg.com/vi/Tt1IHeksHvI/mqdefault.jpg","viewCount":"72075","playlistId":"PLEkQk5xrP-tm8ZIu74nTOZN9KJUJu416J","playlistName":"مقاطع مُهمَّة (يُسريَّات) أ.د. يسري جبر","category":"متنوع"},{"id":"krK02-HIa7k","title":"246- رحمةُ النَّبيّ ﷺ بالأطفال والصبيان والإماء - شرح دليل الفالحين","publishedAt":"2022-05-13T05:15:01Z","duration":"PT32M20S","thumbnail":"https://i.ytimg.com/vi/krK02-HIa7k/mqdefault.jpg","viewCount":"1372","playlistId":"PLEkQk5xrP-tkc9DXvSLguqX5-FYp6ASR4","playlistName":"دليل الفالحين لطرق رياض الصالحين","category":"متنوع"},{"id":"e6-ZwqpmqJ0","title":"هل يجوز الترحم على غير المسلمين؟","publishedAt":"2022-05-13T19:00:39Z","duration":"PT15M57S","thumbnail":"https://i.ytimg.com/vi/e6-ZwqpmqJ0/mqdefault.jpg","viewCount":"64981","playlistId":"PLEkQk5xrP-tm8ZIu74nTOZN9KJUJu416J","playlistName":"مقاطع مُهمَّة (يُسريَّات) أ.د. يسري جبر","category":"متنوع"}],"total":4126,"page":121,"pageSize":24,"totalPages":172}