{"items":[{"id":"MCk_un62AAw","title":"ุฎุทุจุฉ ุงูุฌูุนุฉ | ุจุฑุดูููุฉ - ุฅุณุจุงููุง๐","publishedAt":"2025-11-07T18:00:21Z","duration":"PT20M20S","thumbnail":"https://i.ytimg.com/vi/MCk_un62AAw/mqdefault.jpg","viewCount":"1409","playlistId":"PLEkQk5xrP-tm8ZIu74nTOZN9KJUJu416J","playlistName":"ููุงุทุน ููููููุฉ (ููุณุฑูููุงุช) ุฃ.ุฏ. ูุณุฑู ุฌุจุฑ","category":"ูุชููุน"},{"id":"datzEoo9P64","title":"ูุถู ููููุฒ ุงูุตูุงุฉ ุนูู ุงููุจู ๏ทบ","publishedAt":"2025-11-08T17:01:05Z","duration":"PT28M54S","thumbnail":"https://i.ytimg.com/vi/datzEoo9P64/mqdefault.jpg","viewCount":"10170","playlistId":"PLEkQk5xrP-tm8ZIu74nTOZN9KJUJu416J","playlistName":"ููุงุทุน ููููููุฉ (ููุณุฑูููุงุช) ุฃ.ุฏ. ูุณุฑู ุฌุจุฑ","category":"ูุชููุน"},{"id":"AgZucIKsTbQ","title":"ุดุฑุญ ูุงูู ููุนุฌุฒุงุช ูุดูุงุฆู ุงููุจู ๏ทบ","publishedAt":"2025-11-09T20:15:00Z","duration":"PT20M57S","thumbnail":"https://i.ytimg.com/vi/AgZucIKsTbQ/mqdefault.jpg","viewCount":"2262","playlistId":"PLEkQk5xrP-tm8ZIu74nTOZN9KJUJu416J","playlistName":"ููุงุทุน ููููููุฉ (ููุณุฑูููุงุช) ุฃ.ุฏ. ูุณุฑู ุฌุจุฑ","category":"ูุชููุน"},{"id":"XTgah0TfI6k","title":"ููู ุชุนุฑู ุฃูู ุชุฑููุช ูู ุทุฑูู ุงูุชุตููุ","publishedAt":"2025-11-10T19:30:06Z","duration":"PT38M5S","thumbnail":"https://i.ytimg.com/vi/XTgah0TfI6k/mqdefault.jpg","viewCount":"3922","playlistId":"PLEkQk5xrP-tm8ZIu74nTOZN9KJUJu416J","playlistName":"ููุงุทุน ููููููุฉ (ููุณุฑูููุงุช) ุฃ.ุฏ. ูุณุฑู ุฌุจุฑ","category":"ูุชููุน"},{"id":"NLdReIqGXj0","title":"ูุง ูู ุฃูุถู ุตูุบุฉ ููุตูุงุฉ ุนูู ุงููุจู ๏ทบุ","publishedAt":"2025-11-11T18:30:22Z","duration":"PT8M5S","thumbnail":"https://i.ytimg.com/vi/NLdReIqGXj0/mqdefault.jpg","viewCount":"13553","playlistId":"PLEkQk5xrP-tm8ZIu74nTOZN9KJUJu416J","playlistName":"ููุงุทุน ููููููุฉ (ููุณุฑูููุงุช) ุฃ.ุฏ. ูุณุฑู ุฌุจุฑ","category":"ูุชููุน"},{"id":"_nHc48neKOs","title":"ุงุฒุงู ุชุดูู ุงููุจู ๏ทบ ูู ุงูููุงูุ","publishedAt":"2025-11-12T19:30:12Z","duration":"PT8M23S","thumbnail":"https://i.ytimg.com/vi/_nHc48neKOs/mqdefault.jpg","viewCount":"2867","playlistId":"PLEkQk5xrP-tm8ZIu74nTOZN9KJUJu416J","playlistName":"ููุงุทุน ููููููุฉ (ููุณุฑูููุงุช) ุฃ.ุฏ. ูุณุฑู ุฌุจุฑ","category":"ูุชููุน"},{"id":"QrzOrbGSNf0","title":"ููู ุชูุซุฑ ูู ุฐูุฑ ุงููู ูุน ูุซุฑุฉ ูุดุงุบู ุงูุญูุงุฉุ","publishedAt":"2025-11-13T20:10:30Z","duration":"PT11M14S","thumbnail":"https://i.ytimg.com/vi/QrzOrbGSNf0/mqdefault.jpg","viewCount":"4630","playlistId":"PLEkQk5xrP-tm8ZIu74nTOZN9KJUJu416J","playlistName":"ููุงุทุน ููููููุฉ (ููุณุฑูููุงุช) ุฃ.ุฏ. ูุณุฑู ุฌุจุฑ","category":"ูุชููุน"},{"id":"VWAJCzdz5eU","title":"ุงุฒุงู ุชุฑุจู ุฃููุงุฏู ุชุฑุจูุฉ ุตุญูุญุฉุ","publishedAt":"2025-11-14T18:16:41Z","duration":"PT11M37S","thumbnail":"https://i.ytimg.com/vi/VWAJCzdz5eU/mqdefault.jpg","viewCount":"1848","playlistId":"PLEkQk5xrP-tm8ZIu74nTOZN9KJUJu416J","playlistName":"ููุงุทุน ููููููุฉ (ููุณุฑูููุงุช) ุฃ.ุฏ. ูุณุฑู ุฌุจุฑ","category":"ูุชููุน"},{"id":"LXzCSzDrgvY","title":"ูุง ุญูู ุงูุชูุณู ุจุงูุฃูููุงุก ูุงูุตุงูุญููุ","publishedAt":"2025-11-15T17:15:01Z","duration":"PT10M31S","thumbnail":"https://i.ytimg.com/vi/LXzCSzDrgvY/mqdefault.jpg","viewCount":"1842","playlistId":"PLEkQk5xrP-tm8ZIu74nTOZN9KJUJu416J","playlistName":"ููุงุทุน ููููููุฉ (ููุณุฑูููุงุช) ุฃ.ุฏ. ูุณุฑู ุฌุจุฑ","category":"ูุชููุน"},{"id":"PvCkTzCk17Y","title":"67- ููููุฉ ุฌูุน ุงูุตูุงุฉ ูููุณุงูุฑ ูุตูุงุชู ูู ุงูุณูููุฉ ูุงุณุชูุจุงู ุงููุจูุฉ | ุดุฑุญ ุณูู ุงูุฅูุงู ุงูุฏุงุฑูุทูู","publishedAt":"2025-11-16T10:30:27Z","duration":"PT33M15S","thumbnail":"https://i.ytimg.com/vi/PvCkTzCk17Y/mqdefault.jpg","viewCount":"473","playlistId":"PLEkQk5xrP-tk_MCBZ706ORCw6gFtFyaGj","playlistName":"ุดุฑุญ ุณูู ุงูุฅูุงู ุงูุฏุงุฑูุทูู","category":"ูุชููุน"},{"id":"sInKHEjFiSQ","title":"54- ูุง ูู ุฃุฑูุงู ุงูุตูุงุฉ ูุณูููุงุ | ุดุฑุญ ูุฎุชุตุฑ ุงููุชูุญุงุช ุงููููุฉ","publishedAt":"2025-11-16T19:15:57Z","duration":"PT41M15S","thumbnail":"https://i.ytimg.com/vi/sInKHEjFiSQ/mqdefault.jpg","viewCount":"1101","playlistId":"PLEkQk5xrP-tnpkdZki6rPTtMak1bnI5g-","playlistName":"ุดุฑุญ ูุชุงุจ ูุฎุชุตุฑ ุงููุชูุญุงุช ุงููููุฉ ุงููุณูู ููุงูุญ ุงูุฃููุงุฑ ุงููุฏุณูุฉ","category":"ูุชููุน"},{"id":"dDX_akFojEY","title":"182- ุฏููู ุฌูุงุฒ ุงูุฐูุฑ ูุฎุชุงู ุงูุตูุงุฉ ุฌูุฑูุง ุฌูุงุนุฉ - ุดุฑุญ ูุณูุฏ ุงูุฅูุงู ุฃุญูุฏ ุฑุถู ุงููู ุชุนุงูู ุนูู","publishedAt":"2025-11-17T10:01:06Z","duration":"PT20M19S","thumbnail":"https://i.ytimg.com/vi/dDX_akFojEY/mqdefault.jpg","viewCount":"574","playlistId":"PLEkQk5xrP-tkKprIuGrSdEuBSMsyg5We1","playlistName":"ุดุฑุญ ูุณูุฏ ุงูุฅูุงู ุฃุญูุฏ ุจู ุญูุจู","category":"ูุชููุน"},{"id":"IkJp5BAXg50","title":"28- ููู ุชููู ุญููุฉ ุงููู ูู ุงูููุน ูุงูุนุทุงุกุ | ุดุฑุญ ุงูุญูู ุงูุนุทุงุฆูุฉ","publishedAt":"2025-11-17T18:30:32Z","duration":"PT49M27S","thumbnail":"https://i.ytimg.com/vi/IkJp5BAXg50/mqdefault.jpg","viewCount":"3592","playlistId":"PLEkQk5xrP-tmf5ToOwmW-q0JwxkapbrMN","playlistName":"ุดุฑุญ ูุชุงุจ ุฅุฑุดุงุฏ ุงูุจุฑูุฉ ุฅูู ุจุนุถ ูุนุงูู ุงูุญูู ุงูุนุทุงุฆูุฉ","category":"ูุชููุน"},{"id":"eLGwJOCNeHA","title":"183- {ููุนูููููููู ููุง ูููู ุชูููู ุชูุนููููู  ููููุงูู ููุถููู ุงูููููู ุนููููููู ุนูุธููููุง}","publishedAt":"2025-11-19T10:01:12Z","duration":"PT24M19S","thumbnail":"https://i.ytimg.com/vi/eLGwJOCNeHA/mqdefault.jpg","viewCount":"921","playlistId":"PLEkQk5xrP-tkKprIuGrSdEuBSMsyg5We1","playlistName":"ุดุฑุญ ูุณูุฏ ุงูุฅูุงู ุฃุญูุฏ ุจู ุญูุจู","category":"ูุชููุน"},{"id":"Hdy9w6VRM6o","title":"184- ูุง ุงููุฑู ุจูู ุงูุฑุคูุง ูุงูุฑุคูุฉุ | ุฃ.ุฏ.ูุณุฑู ุฌุจุฑ","publishedAt":"2025-11-21T10:00:26Z","duration":"PT20M29S","thumbnail":"https://i.ytimg.com/vi/Hdy9w6VRM6o/mqdefault.jpg","viewCount":"706","playlistId":"PLEkQk5xrP-tkKprIuGrSdEuBSMsyg5We1","playlistName":"ุดุฑุญ ูุณูุฏ ุงูุฅูุงู ุฃุญูุฏ ุจู ุญูุจู","category":"ูุชููุน"},{"id":"xOrCCgFoPXY","title":"29- ุงูุนุทุงุก ูู ุงูุฎูู ุญุฑูุงู ูุงูููุน ูู ุงูููู ุฅุญุณุงู | ุดุฑุญ ุงูุญูู ุงูุนุทุงุฆูุฉ","publishedAt":"2025-11-21T20:15:07Z","duration":"PT43M8S","thumbnail":"https://i.ytimg.com/vi/xOrCCgFoPXY/mqdefault.jpg","viewCount":"2268","playlistId":"PLEkQk5xrP-tmf5ToOwmW-q0JwxkapbrMN","playlistName":"ุดุฑุญ ูุชุงุจ ุฅุฑุดุงุฏ ุงูุจุฑูุฉ ุฅูู ุจุนุถ ูุนุงูู ุงูุญูู ุงูุนุทุงุฆูุฉ","category":"ูุชููุน"},{"id":"c59fuCwHKt4","title":"55- ูุง ูุนูู ุงูุชุฃููู ููุง ุฃููุงุนูุ | ุดุฑุญ ูุฎุชุตุฑ ุงููุชูุญุงุช ุงููููุฉ","publishedAt":"2025-11-22T19:45:03Z","duration":"PT40M19S","thumbnail":"https://i.ytimg.com/vi/c59fuCwHKt4/mqdefault.jpg","viewCount":"1240","playlistId":"PLEkQk5xrP-tnpkdZki6rPTtMak1bnI5g-","playlistName":"ุดุฑุญ ูุชุงุจ ูุฎุชุตุฑ ุงููุชูุญุงุช ุงููููุฉ ุงููุณูู ููุงูุญ ุงูุฃููุงุฑ ุงููุฏุณูุฉ","category":"ูุชููุน"},{"id":"Nm8DaVNcg64","title":"68- ูุชู ุชูุชุญ ุนูู ุงูุฅูุงู ูู ุงููุฑุงุกุฉุ | ููุง ูุฏุฑ ุงููุฌุงุณุฉ ุงูุชู ุชุจุทู ุงูุตูุงุฉ | ุดุฑุญ ุณูู ุงูุฅูุงู ุงูุฏุงุฑูุทูู","publishedAt":"2025-11-23T05:30:23Z","duration":"PT32M19S","thumbnail":"https://i.ytimg.com/vi/Nm8DaVNcg64/mqdefault.jpg","viewCount":"440","playlistId":"PLEkQk5xrP-tk_MCBZ706ORCw6gFtFyaGj","playlistName":"ุดุฑุญ ุณูู ุงูุฅูุงู ุงูุฏุงุฑูุทูู","category":"ูุชููุน"},{"id":"SZCxQBzqyO0","title":"185- {ููููุง ููุฑูุจูููู ููุง ููุคูููููููู ุญูุชููููฐ ููุญููููููููู ูููููุง ุดูุฌูุฑู ุจููููููููู}","publishedAt":"2025-11-25T05:30:16Z","duration":"PT18M41S","thumbnail":"https://i.ytimg.com/vi/SZCxQBzqyO0/mqdefault.jpg","viewCount":"654","playlistId":"PLEkQk5xrP-tkKprIuGrSdEuBSMsyg5We1","playlistName":"ุดุฑุญ ูุณูุฏ ุงูุฅูุงู ุฃุญูุฏ ุจู ุญูุจู","category":"ูุชููุน"},{"id":"2Y0QGnJH6HA","title":"ุงุนูู ุงูู ูู ุงูุชุดูุช ุฅู ุฒูุฌุชู ุจุชุฎููู ูุน ุดุฎุต ุขุฎุฑุ","publishedAt":"2025-11-26T19:30:00Z","duration":"PT10M11S","thumbnail":"https://i.ytimg.com/vi/2Y0QGnJH6HA/mqdefault.jpg","viewCount":"3276","playlistId":"PLEkQk5xrP-tkGXuZ9atE3k_7it12rUPTs","playlistName":"ุฃุณุฆูุฉ ุงููุชุงุจุนูู","category":"ูุชููุน"},{"id":"9EkSn5ofjpE","title":"ูุงูุง ุชุนุฑูู ุนู ุณูุฑุฉ ุขู ุงูุจูุช ูููู ุตุจุฑูุง ุนูู ุงูุจูุงุกุ","publishedAt":"2025-11-27T20:05:43Z","duration":"PT16M","thumbnail":"https://i.ytimg.com/vi/9EkSn5ofjpE/mqdefault.jpg","viewCount":"2343","playlistId":"PLEkQk5xrP-tm8ZIu74nTOZN9KJUJu416J","playlistName":"ููุงุทุน ููููููุฉ (ููุณุฑูููุงุช) ุฃ.ุฏ. ูุณุฑู ุฌุจุฑ","category":"ูุชููุน"},{"id":"FRRhRiWiOvQ","title":"69- ูุง ูู ูุชูุฉ ุณูุฏูุง ุฏุงูุฏุ | ููุง ุงููุฑู ุจูู ุณุฌูุฏ ุงูุชูุงูุฉ ูุณุฌูุฏ ุงูุดูุฑ | ุดุฑุญ ุณูู ุงูุฅูุงู ุงูุฏุงุฑูุทูู","publishedAt":"2025-11-29T10:00:33Z","duration":"PT36M40S","thumbnail":"https://i.ytimg.com/vi/FRRhRiWiOvQ/mqdefault.jpg","viewCount":"1006","playlistId":"PLEkQk5xrP-tk_MCBZ706ORCw6gFtFyaGj","playlistName":"ุดุฑุญ ุณูู ุงูุฅูุงู ุงูุฏุงุฑูุทูู","category":"ูุชููุน"},{"id":"A2vmm6D6lsw","title":"186- ุขุฏุงุจ ุฑูู ุงูุฌูุฑุงุช | ูุง ููุฏู ูู ุงููุฏู - ุดุฑุญ ูุณูุฏ ุงูุฅูุงู ุฃุญูุฏ ุฑุถู ุงููู ุชุนุงูู ุนูู","publishedAt":"2025-12-05T05:30:10Z","duration":"PT36M3S","thumbnail":"https://i.ytimg.com/vi/A2vmm6D6lsw/mqdefault.jpg","viewCount":"217","playlistId":"PLEkQk5xrP-tkKprIuGrSdEuBSMsyg5We1","playlistName":"ุดุฑุญ ูุณูุฏ ุงูุฅูุงู ุฃุญูุฏ ุจู ุญูุจู","category":"ูุชููุน"},{"id":"1waFzUExLu8","title":"187- ูุจุฐุฉ ุนู ุณูุฏูุง ุนุจุฏ ุงููู ุจู ูุณุนูุฏ ุฑุถู ุงููู ุนูู | ููู ุชุนุฑู ุฃูู ูู ุฃูู ุงูุณุนุงุฏุฉุ","publishedAt":"2025-12-05T21:26:32Z","duration":"PT27M4S","thumbnail":"https://i.ytimg.com/vi/1waFzUExLu8/mqdefault.jpg","viewCount":"567","playlistId":"PLEkQk5xrP-tkKprIuGrSdEuBSMsyg5We1","playlistName":"ุดุฑุญ ูุณูุฏ ุงูุฅูุงู ุฃุญูุฏ ุจู ุญูุจู","category":"ูุชููุน"}],"total":4129,"page":172,"pageSize":24,"totalPages":173}