{"items":[{"id":"-Hr0QDUCE1w","title":"77- \"الإِيمانُ بضْعٌ وسَبْعُونَ، أوْ بضْعٌ وسِتُّونَ، شُعْبَةً،…\" شرح دليل الفالحين","publishedAt":"2021-06-13T05:31:27Z","duration":"PT45M32S","thumbnail":"https://i.ytimg.com/vi/-Hr0QDUCE1w/mqdefault.jpg","viewCount":"1655","playlistId":"PLEkQk5xrP-tkc9DXvSLguqX5-FYp6ASR4","playlistName":"دليل الفالحين لطرق رياض الصالحين","category":"متنوع"},{"id":"ekTmY6pKRGg","title":"أسهل طريقة لفهم علم التوحيد","publishedAt":"2021-06-13T19:30:06Z","duration":"PT12M52S","thumbnail":"https://i.ytimg.com/vi/ekTmY6pKRGg/mqdefault.jpg","viewCount":"23563","playlistId":"PLEkQk5xrP-tm8ZIu74nTOZN9KJUJu416J","playlistName":"مقاطع مُهمَّة (يُسريَّات) أ.د. يسري جبر","category":"متنوع"},{"id":"djn4vMWEgBc","title":"ما هي عقيدة الأشاعرة؟","publishedAt":"2021-06-14T19:30:02Z","duration":"PT11M45S","thumbnail":"https://i.ytimg.com/vi/djn4vMWEgBc/mqdefault.jpg","viewCount":"110210","playlistId":"PLEkQk5xrP-tm8ZIu74nTOZN9KJUJu416J","playlistName":"مقاطع مُهمَّة (يُسريَّات) أ.د. يسري جبر","category":"متنوع"},{"id":"KzlBISW8xUg","title":"78- \"لقَدْ رَأَيْتُ رَجُلًا يَتَقَلَّبُ في الجَنَّةِ،…\" شرح دليل الفالحين","publishedAt":"2021-06-15T05:50:29Z","duration":"PT39M22S","thumbnail":"https://i.ytimg.com/vi/KzlBISW8xUg/mqdefault.jpg","viewCount":"2398","playlistId":"PLEkQk5xrP-tkc9DXvSLguqX5-FYp6ASR4","playlistName":"دليل الفالحين لطرق رياض الصالحين","category":"متنوع"},{"id":"w3Riyk0csXk","title":"”تفسير قوله تعالى \"يُسَبِّحُ الرَّعْدُ بِحَمْدِهِ وَالْمَلَائِكَةُ مِنْ خِيفَتِهِ","publishedAt":"2021-06-16T17:30:08Z","duration":"PT14M29S","thumbnail":"https://i.ytimg.com/vi/w3Riyk0csXk/mqdefault.jpg","viewCount":"3825","playlistId":"PLEkQk5xrP-tkSGrPLMt1BEmJ54cGWYgtp","playlistName":"كتابُ بِدَعِ التَفَاسِيرِ - أ.د. يسري جبر","category":"متنوع"},{"id":"ZbgApBtAxyY","title":"79-\"أَلا أدُلُّكُمْ علَى ما يَمْحُو اللهُ به الخَطايا، ويَرْفَعُ به الدَّرَجاتِ؟…\" شرح دليل الفالحين","publishedAt":"2021-06-17T05:36:23Z","duration":"PT33M26S","thumbnail":"https://i.ytimg.com/vi/ZbgApBtAxyY/mqdefault.jpg","viewCount":"3045","playlistId":"PLEkQk5xrP-tkc9DXvSLguqX5-FYp6ASR4","playlistName":"دليل الفالحين لطرق رياض الصالحين","category":"متنوع"},{"id":"wTyjlkpaMp8","title":"كيف تكون من الأغنياء؟","publishedAt":"2021-06-17T17:31:08Z","duration":"PT9M58S","thumbnail":"https://i.ytimg.com/vi/wTyjlkpaMp8/mqdefault.jpg","viewCount":"23241","playlistId":"PLEkQk5xrP-tm8ZIu74nTOZN9KJUJu416J","playlistName":"مقاطع مُهمَّة (يُسريَّات) أ.د. يسري جبر","category":"متنوع"},{"id":"unnpxJqWAnQ","title":"80-\"كانَ رَجُلٌ لا أَعْلَمُ رَجُلًا أَبْعَدَ مِنَ المَسْجِدِ منه،…\" شرح دليل الفالحين","publishedAt":"2021-06-19T06:27:38Z","duration":"PT35M23S","thumbnail":"https://i.ytimg.com/vi/unnpxJqWAnQ/mqdefault.jpg","viewCount":"1465","playlistId":"PLEkQk5xrP-tkc9DXvSLguqX5-FYp6ASR4","playlistName":"دليل الفالحين لطرق رياض الصالحين","category":"متنوع"},{"id":"xQFrhFm0eTk","title":"”تفسير قوله تعالى \"حَتَّىٰ إِذَا جَاءَ أَمْرُنَا وَفَارَ التَّنُّورُ","publishedAt":"2021-06-19T18:00:12Z","duration":"PT14M1S","thumbnail":"https://i.ytimg.com/vi/xQFrhFm0eTk/mqdefault.jpg","viewCount":"2350","playlistId":"PLEkQk5xrP-tkSGrPLMt1BEmJ54cGWYgtp","playlistName":"كتابُ بِدَعِ التَفَاسِيرِ - أ.د. يسري جبر","category":"متنوع"},{"id":"I9Fz8qNs0Rk","title":"81- الاقتصاد في العبادة - شرح دليل الفالحين","publishedAt":"2021-06-20T22:12:37Z","duration":"PT34M5S","thumbnail":"https://i.ytimg.com/vi/I9Fz8qNs0Rk/mqdefault.jpg","viewCount":"1594","playlistId":"PLEkQk5xrP-tkc9DXvSLguqX5-FYp6ASR4","playlistName":"دليل الفالحين لطرق رياض الصالحين","category":"متنوع"},{"id":"SOxirrqzFlA","title":"تفسير الأحلام حقيقة أم خرافة؟","publishedAt":"2021-06-21T18:45:00Z","duration":"PT13M37S","thumbnail":"https://i.ytimg.com/vi/SOxirrqzFlA/mqdefault.jpg","viewCount":"23488","playlistId":"PLEkQk5xrP-tm8ZIu74nTOZN9KJUJu416J","playlistName":"مقاطع مُهمَّة (يُسريَّات) أ.د. يسري جبر","category":"متنوع"},{"id":"rFnjA0wgwK8","title":"82- \"هَلَكَ المُتَنَطِّعُونَ\" قَالَهَا ثلاثًا - شرح دليل الفالحين","publishedAt":"2021-06-22T06:45:24Z","duration":"PT31M43S","thumbnail":"https://i.ytimg.com/vi/rFnjA0wgwK8/mqdefault.jpg","viewCount":"1921","playlistId":"PLEkQk5xrP-tkc9DXvSLguqX5-FYp6ASR4","playlistName":"دليل الفالحين لطرق رياض الصالحين","category":"متنوع"},{"id":"hmJPnQlkY5k","title":"ما حكم الغش في الامتحان؟","publishedAt":"2021-06-22T18:00:16Z","duration":"PT10M57S","thumbnail":"https://i.ytimg.com/vi/hmJPnQlkY5k/mqdefault.jpg","viewCount":"4757","playlistId":"PLEkQk5xrP-tkGXuZ9atE3k_7it12rUPTs","playlistName":"أسئلة المتابعين","category":"متنوع"},{"id":"yoMApCrOtT0","title":"هل يجب أخذ الإذن عند الذكر؟","publishedAt":"2021-06-23T17:58:22Z","duration":"PT10M33S","thumbnail":"https://i.ytimg.com/vi/yoMApCrOtT0/mqdefault.jpg","viewCount":"10428","playlistId":"PLEkQk5xrP-tm8ZIu74nTOZN9KJUJu416J","playlistName":"مقاطع مُهمَّة (يُسريَّات) أ.د. يسري جبر","category":"متنوع"},{"id":"_fhRb0bE5Vg","title":"إزاي اتعامل مع الفساد والرشوة في شغلي؟","publishedAt":"2021-06-24T17:30:05Z","duration":"PT9M47S","thumbnail":"https://i.ytimg.com/vi/_fhRb0bE5Vg/mqdefault.jpg","viewCount":"8641","playlistId":"PLEkQk5xrP-tl6tFiMFGUucCTvLgnWyAfz","playlistName":"حياة الأستاذ الدكتور يسري جبر","category":"متنوع"},{"id":"LnaLUJ33M_w","title":"83- \"آخى النَّبيُّ ﷺ بين سلمان وأبي الدَّرداء، فزار سلمانُ أبا الدَّرداء…،\" - شرح دليل الفالحين","publishedAt":"2021-06-25T07:51:01Z","duration":"PT52M8S","thumbnail":"https://i.ytimg.com/vi/LnaLUJ33M_w/mqdefault.jpg","viewCount":"1406","playlistId":"PLEkQk5xrP-tkc9DXvSLguqX5-FYp6ASR4","playlistName":"دليل الفالحين لطرق رياض الصالحين","category":"متنوع"},{"id":"upEZQE5WhKc","title":"أريد التوبة ولكن أكرر الذنب ,, ماذا أفعل؟","publishedAt":"2021-06-26T19:10:09Z","duration":"PT11M28S","thumbnail":"https://i.ytimg.com/vi/upEZQE5WhKc/mqdefault.jpg","viewCount":"8950","playlistId":"PLEkQk5xrP-tm8ZIu74nTOZN9KJUJu416J","playlistName":"مقاطع مُهمَّة (يُسريَّات) أ.د. يسري جبر","category":"متنوع"},{"id":"UwtlTXhbySc","title":"84- \"لا صام مَن صام الأبد\" - شرح دليل الفالحين","publishedAt":"2021-06-27T05:49:46Z","duration":"PT44M6S","thumbnail":"https://i.ytimg.com/vi/UwtlTXhbySc/mqdefault.jpg","viewCount":"1163","playlistId":"PLEkQk5xrP-tkc9DXvSLguqX5-FYp6ASR4","playlistName":"دليل الفالحين لطرق رياض الصالحين","category":"متنوع"},{"id":"9LJDxqX9a9o","title":"بشوف أشياء غريبة وخايفة يكون جن ,, ماذا أفعل؟","publishedAt":"2021-06-27T18:55:25Z","duration":"PT10M5S","thumbnail":"https://i.ytimg.com/vi/9LJDxqX9a9o/mqdefault.jpg","viewCount":"9084","playlistId":"PLEkQk5xrP-tm8ZIu74nTOZN9KJUJu416J","playlistName":"مقاطع مُهمَّة (يُسريَّات) أ.د. يسري جبر","category":"متنوع"},{"id":"zBD-D5Oz8gg","title":"سيدي أبو الحسن الشاذلي | أ.د. يسري جبر","publishedAt":"2021-06-28T21:15:01Z","duration":"PT17M57S","thumbnail":"https://i.ytimg.com/vi/zBD-D5Oz8gg/mqdefault.jpg","viewCount":"68516","playlistId":"PLEkQk5xrP-tm8ZIu74nTOZN9KJUJu416J","playlistName":"مقاطع مُهمَّة (يُسريَّات) أ.د. يسري جبر","category":"متنوع"},{"id":"qlua6Idnp2Y","title":"85- المحافظة على الأعمال - شرح دليل الفالحين","publishedAt":"2021-06-29T08:39:15Z","duration":"PT28M52S","thumbnail":"https://i.ytimg.com/vi/qlua6Idnp2Y/mqdefault.jpg","viewCount":"1217","playlistId":"PLEkQk5xrP-tkc9DXvSLguqX5-FYp6ASR4","playlistName":"دليل الفالحين لطرق رياض الصالحين","category":"متنوع"},{"id":"Yf2S7BIPbAY","title":"86- المحافظةُ على السُّنَّة وآدابها \"دَعُونِي مَا تَرَكْتُكُم…\" شرح دليل الفالحين","publishedAt":"2021-06-30T19:49:49Z","duration":"PT37M29S","thumbnail":"https://i.ytimg.com/vi/Yf2S7BIPbAY/mqdefault.jpg","viewCount":"1741","playlistId":"PLEkQk5xrP-tkc9DXvSLguqX5-FYp6ASR4","playlistName":"دليل الفالحين لطرق رياض الصالحين","category":"متنوع"},{"id":"k52w4U53VgM","title":"87- \"وعَظَنَا رسولُ الله ﷺ مَوْعظَةً وجِلَتْ منها القلوبُ، وذَرَفَت منها العيونُ…\" شرح دليل الفالحين","publishedAt":"2021-07-01T18:04:48Z","duration":"PT36M59S","thumbnail":"https://i.ytimg.com/vi/k52w4U53VgM/mqdefault.jpg","viewCount":"3412","playlistId":"PLEkQk5xrP-tkc9DXvSLguqX5-FYp6ASR4","playlistName":"دليل الفالحين لطرق رياض الصالحين","category":"متنوع"},{"id":"WGW5zN9INfM","title":"88- \"أنَّ رَجُلًا أَكَلَ عِنْدَ رَسولِ اللهِ ﷺ بشِمَالِه، فَقال: كُلْ بيَمِينِكَ…\" شرح دليل الفالحين","publishedAt":"2021-07-03T09:47:01Z","duration":"PT52M24S","thumbnail":"https://i.ytimg.com/vi/WGW5zN9INfM/mqdefault.jpg","viewCount":"1349","playlistId":"PLEkQk5xrP-tkc9DXvSLguqX5-FYp6ASR4","playlistName":"دليل الفالحين لطرق رياض الصالحين","category":"متنوع"}],"total":4129,"page":107,"pageSize":24,"totalPages":173}