{"items":[{"id":"szy1dCawzJI","title":"كيفية قراءة الصلوات اليسرية   د.يسري جبر","publishedAt":"2017-09-06T16:08:31Z","duration":"PT5M2S","thumbnail":"https://i.ytimg.com/vi/szy1dCawzJI/mqdefault.jpg","viewCount":"4998","playlistId":"PLEkQk5xrP-tm8ZIu74nTOZN9KJUJu416J","playlistName":"مقاطع مُهمَّة (يُسريَّات) أ.د. يسري جبر","category":"متنوع"},{"id":"pEx57SzKRdQ","title":"تمكُّنُ حلاوةِ الهَوَى من القلبِ هُوَ الدَّاءُ العُضَالُ (1)","publishedAt":"2017-09-06T20:01:27Z","duration":"PT15M44S","thumbnail":"https://i.ytimg.com/vi/pEx57SzKRdQ/mqdefault.jpg","viewCount":"2441","playlistId":"PLEkQk5xrP-tkI_meE148wc7V7XHlB0WPb","playlistName":"من الحكم العطائية  د. يسري جبر","category":"متنوع"},{"id":"XyPGFgGdEwQ","title":"تمكُّنُ حلاوةِ الهَوَى من القلبِ هُوَ الدَّاءُ العُضَالُ (2)","publishedAt":"2017-09-06T20:01:56Z","duration":"PT30M37S","thumbnail":"https://i.ytimg.com/vi/XyPGFgGdEwQ/mqdefault.jpg","viewCount":"1095","playlistId":"PLEkQk5xrP-tkI_meE148wc7V7XHlB0WPb","playlistName":"من الحكم العطائية  د. يسري جبر","category":"متنوع"},{"id":"dajuMDkBgao","title":"مقرأة سورة النحل من آية ٩٧","publishedAt":"2017-09-08T15:32:31Z","duration":"PT19M42S","thumbnail":"https://i.ytimg.com/vi/dajuMDkBgao/mqdefault.jpg","viewCount":"315","playlistId":"PLEkQk5xrP-tnmTYsyW6xNdyfhPq0Bhrhj","playlistName":"مقرأة الفجر - القُرْآنُ الكَرِيمُ - خَتْمَةُ التَّدَبُّرِ  أ.د. يسري جبر","category":"متنوع"},{"id":"Yrvxz0t-Y6Y","title":"مقرأة سورة النحل من آية ١٠٤","publishedAt":"2017-09-09T12:38:07Z","duration":"PT16M48S","thumbnail":"https://i.ytimg.com/vi/Yrvxz0t-Y6Y/mqdefault.jpg","viewCount":"254","playlistId":"PLEkQk5xrP-tnmTYsyW6xNdyfhPq0Bhrhj","playlistName":"مقرأة الفجر - القُرْآنُ الكَرِيمُ - خَتْمَةُ التَّدَبُّرِ  أ.د. يسري جبر","category":"متنوع"},{"id":"VfqKMseAOms","title":"مقرأة سورة النحل من آية ١١١","publishedAt":"2017-09-10T11:04:25Z","duration":"PT19M57S","thumbnail":"https://i.ytimg.com/vi/VfqKMseAOms/mqdefault.jpg","viewCount":"263","playlistId":"PLEkQk5xrP-tnmTYsyW6xNdyfhPq0Bhrhj","playlistName":"مقرأة الفجر - القُرْآنُ الكَرِيمُ - خَتْمَةُ التَّدَبُّرِ  أ.د. يسري جبر","category":"متنوع"},{"id":"UkVBB8e96zI","title":"مقرأة سورة النحل من آية ١١٦","publishedAt":"2017-09-11T13:17:20Z","duration":"PT8M1S","thumbnail":"https://i.ytimg.com/vi/UkVBB8e96zI/mqdefault.jpg","viewCount":"258","playlistId":"PLEkQk5xrP-tnmTYsyW6xNdyfhPq0Bhrhj","playlistName":"مقرأة الفجر - القُرْآنُ الكَرِيمُ - خَتْمَةُ التَّدَبُّرِ  أ.د. يسري جبر","category":"متنوع"},{"id":"qANsLQZBDRw","title":"لا يُخرِِجُ الشهوةَ من القلبِ إلا خوفٌ مُزعِجٌ أو شوقٌ مُقلِقٌ","publishedAt":"2017-09-11T19:47:09Z","duration":"PT11M59S","thumbnail":"https://i.ytimg.com/vi/qANsLQZBDRw/mqdefault.jpg","viewCount":"5879","playlistId":"PLEkQk5xrP-tkI_meE148wc7V7XHlB0WPb","playlistName":"من الحكم العطائية  د. يسري جبر","category":"متنوع"},{"id":"7ZGdaKznX54","title":"مقرأة سورة النحل من آية ١٢٠","publishedAt":"2017-09-12T12:39:10Z","duration":"PT21M11S","thumbnail":"https://i.ytimg.com/vi/7ZGdaKznX54/mqdefault.jpg","viewCount":"343","playlistId":"PLEkQk5xrP-tnmTYsyW6xNdyfhPq0Bhrhj","playlistName":"مقرأة الفجر - القُرْآنُ الكَرِيمُ - خَتْمَةُ التَّدَبُّرِ  أ.د. يسري جبر","category":"متنوع"},{"id":"TvLvgTz_K_I","title":"مقرأة سورة الإسراء من أولها","publishedAt":"2017-09-13T10:12:54Z","duration":"PT17M37S","thumbnail":"https://i.ytimg.com/vi/TvLvgTz_K_I/mqdefault.jpg","viewCount":"2027","playlistId":"PLEkQk5xrP-tnmTYsyW6xNdyfhPq0Bhrhj","playlistName":"مقرأة الفجر - القُرْآنُ الكَرِيمُ - خَتْمَةُ التَّدَبُّرِ  أ.د. يسري جبر","category":"متنوع"},{"id":"lgGemPfsWSc","title":"مقرأة سورة الإسراء من آية ٤","publishedAt":"2017-09-14T09:07:18Z","duration":"PT15M31S","thumbnail":"https://i.ytimg.com/vi/lgGemPfsWSc/mqdefault.jpg","viewCount":"618","playlistId":"PLEkQk5xrP-tnmTYsyW6xNdyfhPq0Bhrhj","playlistName":"مقرأة الفجر - القُرْآنُ الكَرِيمُ - خَتْمَةُ التَّدَبُّرِ  أ.د. يسري جبر","category":"متنوع"},{"id":"LCfQ_k2m28c","title":"56- باب مَا يُنْهَى عَنْهُ مِنَ الضَّحَايَا ك الموطأ د يسري جبر الأزهري","publishedAt":"2017-09-14T13:43:27Z","duration":"PT1H5M43S","thumbnail":"https://i.ytimg.com/vi/LCfQ_k2m28c/mqdefault.jpg","viewCount":"299","playlistId":"PLEkQk5xrP-tnC6BRuqMjyO-484iqXeg0o","playlistName":"شرح كتاب الموطأ للإمام مالك","category":"متنوع"},{"id":"XA5j-vE7KuU","title":"مقرأة سورة الإسراء من آية ٩","publishedAt":"2017-09-15T11:28:21Z","duration":"PT16M39S","thumbnail":"https://i.ytimg.com/vi/XA5j-vE7KuU/mqdefault.jpg","viewCount":"507","playlistId":"PLEkQk5xrP-tnmTYsyW6xNdyfhPq0Bhrhj","playlistName":"مقرأة الفجر - القُرْآنُ الكَرِيمُ - خَتْمَةُ التَّدَبُّرِ  أ.د. يسري جبر","category":"متنوع"},{"id":"3QlDiomCuzs","title":"مقرأة سورة الإسراء من آية ١٣","publishedAt":"2017-09-16T12:08:02Z","duration":"PT15M50S","thumbnail":"https://i.ytimg.com/vi/3QlDiomCuzs/mqdefault.jpg","viewCount":"443","playlistId":"PLEkQk5xrP-tnmTYsyW6xNdyfhPq0Bhrhj","playlistName":"مقرأة الفجر - القُرْآنُ الكَرِيمُ - خَتْمَةُ التَّدَبُّرِ  أ.د. يسري جبر","category":"متنوع"},{"id":"12FmNV7Wo3w","title":"57- كتاب الصيد ك الموطأ د يسري جبر الأزهري","publishedAt":"2017-09-17T00:06:04Z","duration":"PT1H5M46S","thumbnail":"https://i.ytimg.com/vi/12FmNV7Wo3w/mqdefault.jpg","viewCount":"224","playlistId":"PLEkQk5xrP-tnC6BRuqMjyO-484iqXeg0o","playlistName":"شرح كتاب الموطأ للإمام مالك","category":"متنوع"},{"id":"DnpAV4JcAZI","title":"مقرأة سورة الإسراء من آية ١٨","publishedAt":"2017-09-17T07:43:59Z","duration":"PT12M9S","thumbnail":"https://i.ytimg.com/vi/DnpAV4JcAZI/mqdefault.jpg","viewCount":"340","playlistId":"PLEkQk5xrP-tnmTYsyW6xNdyfhPq0Bhrhj","playlistName":"مقرأة الفجر - القُرْآنُ الكَرِيمُ - خَتْمَةُ التَّدَبُّرِ  أ.د. يسري جبر","category":"متنوع"},{"id":"GmezkYISVf0","title":"58 - كتاب الفرائض ك الموطأ د يسري جبر الأزهري","publishedAt":"2017-09-17T15:34:24Z","duration":"PT58M53S","thumbnail":"https://i.ytimg.com/vi/GmezkYISVf0/mqdefault.jpg","viewCount":"354","playlistId":"PLEkQk5xrP-tnC6BRuqMjyO-484iqXeg0o","playlistName":"شرح كتاب الموطأ للإمام مالك","category":"متنوع"},{"id":"vXfTQc_jMHw","title":"59- باب مِيرَاثِ الإِخْوَةِ لِلأُمِّ ك الموطأ د يسري جبر الأزهري","publishedAt":"2017-09-17T23:17:09Z","duration":"PT49M49S","thumbnail":"https://i.ytimg.com/vi/vXfTQc_jMHw/mqdefault.jpg","viewCount":"228","playlistId":"PLEkQk5xrP-tnC6BRuqMjyO-484iqXeg0o","playlistName":"شرح كتاب الموطأ للإمام مالك","category":"متنوع"},{"id":"lymw2JZ8MAU","title":"مقرأة سورة الإسراء من آية ٢٣","publishedAt":"2017-09-18T09:52:45Z","duration":"PT16M29S","thumbnail":"https://i.ytimg.com/vi/lymw2JZ8MAU/mqdefault.jpg","viewCount":"441","playlistId":"PLEkQk5xrP-tnmTYsyW6xNdyfhPq0Bhrhj","playlistName":"مقرأة الفجر - القُرْآنُ الكَرِيمُ - خَتْمَةُ التَّدَبُّرِ  أ.د. يسري جبر","category":"متنوع"},{"id":"U8ck67nOfnQ","title":"مقرأة سورة الإسراء من آية ٢٦","publishedAt":"2017-09-19T10:49:41Z","duration":"PT17M13S","thumbnail":"https://i.ytimg.com/vi/U8ck67nOfnQ/mqdefault.jpg","viewCount":"1095","playlistId":"PLEkQk5xrP-tnmTYsyW6xNdyfhPq0Bhrhj","playlistName":"مقرأة الفجر - القُرْآنُ الكَرِيمُ - خَتْمَةُ التَّدَبُّرِ  أ.د. يسري جبر","category":"متنوع"},{"id":"fp0F7Trl71g","title":"مقرأة سورة الإسراء من آية ٣١","publishedAt":"2017-09-20T08:21:19Z","duration":"PT12M57S","thumbnail":"https://i.ytimg.com/vi/fp0F7Trl71g/mqdefault.jpg","viewCount":"303","playlistId":"PLEkQk5xrP-tnmTYsyW6xNdyfhPq0Bhrhj","playlistName":"مقرأة الفجر - القُرْآنُ الكَرِيمُ - خَتْمَةُ التَّدَبُّرِ  أ.د. يسري جبر","category":"متنوع"},{"id":"z3rPc5cHxWk","title":"60- باب مِيرَاثِ الْجَدَّةِ ك الموطأ د يسري جبر الأزهري","publishedAt":"2017-09-20T12:47:10Z","duration":"PT54M9S","thumbnail":"https://i.ytimg.com/vi/z3rPc5cHxWk/mqdefault.jpg","viewCount":"243","playlistId":"PLEkQk5xrP-tnC6BRuqMjyO-484iqXeg0o","playlistName":"شرح كتاب الموطأ للإمام مالك","category":"متنوع"},{"id":"pHqVaWyVyZo","title":"مقرأة سورة الإسراء من آية ٣٤","publishedAt":"2017-09-20T19:15:18Z","duration":"PT25M23S","thumbnail":"https://i.ytimg.com/vi/pHqVaWyVyZo/mqdefault.jpg","viewCount":"360","playlistId":"PLEkQk5xrP-tnmTYsyW6xNdyfhPq0Bhrhj","playlistName":"مقرأة الفجر - القُرْآنُ الكَرِيمُ - خَتْمَةُ التَّدَبُّرِ  أ.د. يسري جبر","category":"متنوع"},{"id":"yn5_0MR1pTw","title":"مقرأة سورة الإسراء من آية ٤١","publishedAt":"2017-09-25T13:12:42Z","duration":"PT12M58S","thumbnail":"https://i.ytimg.com/vi/yn5_0MR1pTw/mqdefault.jpg","viewCount":"320","playlistId":"PLEkQk5xrP-tnmTYsyW6xNdyfhPq0Bhrhj","playlistName":"مقرأة الفجر - القُرْآنُ الكَرِيمُ - خَتْمَةُ التَّدَبُّرِ  أ.د. يسري جبر","category":"متنوع"}],"total":4126,"page":47,"pageSize":24,"totalPages":172}