{"items":[{"id":"ww7XLDdCFWs","title":"شرح كتاب منازل السائرين للإمام الهروى - المجلس الحادي والعشرون - باب الثقة","publishedAt":"2014-09-15T09:18:58Z","duration":"PT57M34S","thumbnail":"https://i.ytimg.com/vi/ww7XLDdCFWs/mqdefault.jpg","viewCount":"2178","playlistId":"PLEkQk5xrP-tnLYi_5_tSRVBwqcs7ISV7Y","playlistName":"شرح كتاب منازل السائرين للإمام الهروي","category":"متنوع"},{"id":"bjHRqCXh0B0","title":"المجلس الثامن من شرح الخريدة البهية","publishedAt":"2014-09-16T18:34:25Z","duration":"PT1H6M10S","thumbnail":"https://i.ytimg.com/vi/bjHRqCXh0B0/mqdefault.jpg","viewCount":"5811","playlistId":"PLEkQk5xrP-tnI6h_R1hvYgrrstFAJCvv9","playlistName":"شرح الخريدة البهية د. يسري جبر","category":"متنوع"},{"id":"1oy7XySUk-0","title":"شرح كتاب منازل السائرين للإمام الهروى - المجلس الثاني والعشرون - باب التسليم","publishedAt":"2014-09-22T10:36:50Z","duration":"PT1H9M","thumbnail":"https://i.ytimg.com/vi/1oy7XySUk-0/mqdefault.jpg","viewCount":"1813","playlistId":"PLEkQk5xrP-tnLYi_5_tSRVBwqcs7ISV7Y","playlistName":"شرح كتاب منازل السائرين للإمام الهروي","category":"متنوع"},{"id":"b6MNH1ekDuk","title":"الفتوحات الربانية حول المعانى القرآنية - د. يسري جبر","publishedAt":"2014-09-29T19:49:21Z","duration":"PT24M20S","thumbnail":"https://i.ytimg.com/vi/b6MNH1ekDuk/mqdefault.jpg","viewCount":"68905","playlistId":"PLEkQk5xrP-tm8ZIu74nTOZN9KJUJu416J","playlistName":"مقاطع مُهمَّة (يُسريَّات) أ.د. يسري جبر","category":"متنوع"},{"id":"IzgdyjQQJ5s","title":"ظهر الفساد فى البر والبحر بما كسبت أيدى الناس","publishedAt":"2014-10-03T19:26:38Z","duration":"PT36M57S","thumbnail":"https://i.ytimg.com/vi/IzgdyjQQJ5s/mqdefault.jpg","viewCount":"2580","playlistId":"PLEkQk5xrP-tm8ZIu74nTOZN9KJUJu416J","playlistName":"مقاطع مُهمَّة (يُسريَّات) أ.د. يسري جبر","category":"متنوع"},{"id":"GuyLIA4eiy8","title":"كيف تكون مسلمًا مؤمنًا محسنًا عليمًا بفتن زمانك د.يسري جبر","publishedAt":"2014-10-09T03:26:29Z","duration":"PT19M36S","thumbnail":"https://i.ytimg.com/vi/GuyLIA4eiy8/mqdefault.jpg","viewCount":"26293","playlistId":"PLEkQk5xrP-tm8ZIu74nTOZN9KJUJu416J","playlistName":"مقاطع مُهمَّة (يُسريَّات) أ.د. يسري جبر","category":"متنوع"},{"id":"DKaxczAjOv0","title":"مقطع من قراءة وشرح كتاب الشفا بتعريف حقوق المصطفى (باب عصمة الأنبياء ) عليهم الصلاة والسلام","publishedAt":"2014-10-11T21:05:27Z","duration":"PT33M44S","thumbnail":"https://i.ytimg.com/vi/DKaxczAjOv0/mqdefault.jpg","viewCount":"2298","playlistId":"PLEkQk5xrP-tm8ZIu74nTOZN9KJUJu416J","playlistName":"مقاطع مُهمَّة (يُسريَّات) أ.د. يسري جبر","category":"متنوع"},{"id":"5P6Y42s5cNg","title":"شرح كتاب منازل السائرين للإمام الهروى - المجلس الثالث والعشرون - قسم الأخلاق - باب الصبر","publishedAt":"2014-10-14T13:52:48Z","duration":"PT1H25M17S","thumbnail":"https://i.ytimg.com/vi/5P6Y42s5cNg/mqdefault.jpg","viewCount":"2034","playlistId":"PLEkQk5xrP-tnLYi_5_tSRVBwqcs7ISV7Y","playlistName":"شرح كتاب منازل السائرين للإمام الهروي","category":"متنوع"},{"id":"QRsidHhS2bc","title":"فائدة الدخول فى طريق التصوف ومبايعة الشيخ | أ.د. يسري جبر","publishedAt":"2014-10-15T18:58:15Z","duration":"PT10M13S","thumbnail":"https://i.ytimg.com/vi/QRsidHhS2bc/mqdefault.jpg","viewCount":"98166","playlistId":"PLEkQk5xrP-tm8ZIu74nTOZN9KJUJu416J","playlistName":"مقاطع مُهمَّة (يُسريَّات) أ.د. يسري جبر","category":"متنوع"},{"id":"gODhOAbhIBg","title":"شرح كتاب منازل السائرين للإمام الهروى - المجلس الرابع والعشرون - قسم الأخلاق- باب الرضا","publishedAt":"2014-10-20T17:34:40Z","duration":"PT1H18M35S","thumbnail":"https://i.ytimg.com/vi/gODhOAbhIBg/mqdefault.jpg","viewCount":"1667","playlistId":"PLEkQk5xrP-tnLYi_5_tSRVBwqcs7ISV7Y","playlistName":"شرح كتاب منازل السائرين للإمام الهروي","category":"متنوع"},{"id":"yb6IFXoHLeE","title":"يا إمام الرسل يا سندى","publishedAt":"2014-11-01T20:32:55Z","duration":"PT4M56S","thumbnail":"https://i.ytimg.com/vi/yb6IFXoHLeE/mqdefault.jpg","viewCount":"1645","playlistId":"PLEkQk5xrP-tlB8lmbwjAKR8KRgiykGKhb","playlistName":"حضرات يسرية ومدائح نبوية","category":"متنوع"},{"id":"jiwuRtfDl9k","title":"أدّبوا أولادكم على ثلاث خصال حبّ نبيّكم وحب آل بيته وتلاوة القرآن - د. يسري جبر","publishedAt":"2014-11-02T18:57:18Z","duration":"PT19M21S","thumbnail":"https://i.ytimg.com/vi/jiwuRtfDl9k/mqdefault.jpg","viewCount":"5596","playlistId":"PLEkQk5xrP-tmJzNvLntpzW0uPanPzxA0c","playlistName":"لقاءات ومحاضرات","category":"متنوع"},{"id":"uiAlmnLAmVc","title":"حديث المسلسل بعاشوراء في الجامع الأزهر مولانا د. يسري جبر والشيخ أسامة الأزهري","publishedAt":"2014-11-03T14:35:25Z","duration":"PT56M40S","thumbnail":"https://i.ytimg.com/vi/uiAlmnLAmVc/mqdefault.jpg","viewCount":"4808","playlistId":"PLEkQk5xrP-tmJzNvLntpzW0uPanPzxA0c","playlistName":"لقاءات ومحاضرات","category":"متنوع"},{"id":"Upz8-L-YHbQ","title":"شرح كتاب منازل السائرين للإمام الهروى - المجلس الخامس والعشرون - قسم الأخلاق- باب الشكر","publishedAt":"2014-11-03T19:24:27Z","duration":"PT51M58S","thumbnail":"https://i.ytimg.com/vi/Upz8-L-YHbQ/mqdefault.jpg","viewCount":"1832","playlistId":"PLEkQk5xrP-tnLYi_5_tSRVBwqcs7ISV7Y","playlistName":"شرح كتاب منازل السائرين للإمام الهروي","category":"متنوع"},{"id":"qhv3QzLo3Us","title":"بين كتفيه علامة خاتم الرسل الكرام صلى الله عليه وآله وسلم","publishedAt":"2014-11-03T20:05:45Z","duration":"PT5M3S","thumbnail":"https://i.ytimg.com/vi/qhv3QzLo3Us/mqdefault.jpg","viewCount":"3242","playlistId":"PLEkQk5xrP-tlB8lmbwjAKR8KRgiykGKhb","playlistName":"حضرات يسرية ومدائح نبوية","category":"متنوع"},{"id":"ABuVV5OkLxY","title":"ما المقصود بتقارب الزمان كما أخبر النبي؟ (مفهوم عصري)","publishedAt":"2014-11-11T11:35:00Z","duration":"PT11M30S","thumbnail":"https://i.ytimg.com/vi/ABuVV5OkLxY/mqdefault.jpg","viewCount":"10736","playlistId":"PLEkQk5xrP-tm8ZIu74nTOZN9KJUJu416J","playlistName":"مقاطع مُهمَّة (يُسريَّات) أ.د. يسري جبر","category":"متنوع"},{"id":"MEcTMZaqmVA","title":"شرح كتاب منازل السائرين للإمام الهروى - المجلس السادس والعشرون - قسم الأخلاق باب الحياء","publishedAt":"2014-11-17T04:13:05Z","duration":"PT56M39S","thumbnail":"https://i.ytimg.com/vi/MEcTMZaqmVA/mqdefault.jpg","viewCount":"1425","playlistId":"PLEkQk5xrP-tnLYi_5_tSRVBwqcs7ISV7Y","playlistName":"شرح كتاب منازل السائرين للإمام الهروي","category":"متنوع"},{"id":"HPLAvQ2uNq8","title":"شرح كتاب منازل السائرين للإمام الهروى - المجلس السابع والعشرون - قسم الأخلاق باب الصدق","publishedAt":"2014-11-25T20:13:28Z","duration":"PT53M24S","thumbnail":"https://i.ytimg.com/vi/HPLAvQ2uNq8/mqdefault.jpg","viewCount":"1326","playlistId":"PLEkQk5xrP-tnLYi_5_tSRVBwqcs7ISV7Y","playlistName":"شرح كتاب منازل السائرين للإمام الهروي","category":"متنوع"},{"id":"T0MczJf8yxE","title":"شرح كتاب منازل السائرين للإمام الهروى - المجلس الثامن والعشرون - قسم الأخلاق باب الإيثار","publishedAt":"2014-12-01T03:52:33Z","duration":"PT45M56S","thumbnail":"https://i.ytimg.com/vi/T0MczJf8yxE/mqdefault.jpg","viewCount":"1185","playlistId":"PLEkQk5xrP-tnLYi_5_tSRVBwqcs7ISV7Y","playlistName":"شرح كتاب منازل السائرين للإمام الهروي","category":"متنوع"},{"id":"2SjtW_v-vBw","title":"الجمع بين حديث (عرض الأعمال وحديث أولا تدري ما أحدثوا بعدك) مولانا د. يسري جبر","publishedAt":"2014-12-06T08:10:18Z","duration":"PT4M35S","thumbnail":"https://i.ytimg.com/vi/2SjtW_v-vBw/mqdefault.jpg","viewCount":"2532","playlistId":"PLEkQk5xrP-tm8ZIu74nTOZN9KJUJu416J","playlistName":"مقاطع مُهمَّة (يُسريَّات) أ.د. يسري جبر","category":"متنوع"},{"id":"70tNdxC8OcY","title":"شرح كتاب منازل السائرين للإمام الهروى - المجلس التاسع والعشرون - قسم الأخلاق باب الخُلُق","publishedAt":"2014-12-08T05:20:58Z","duration":"PT1H6M27S","thumbnail":"https://i.ytimg.com/vi/70tNdxC8OcY/mqdefault.jpg","viewCount":"1339","playlistId":"PLEkQk5xrP-tnLYi_5_tSRVBwqcs7ISV7Y","playlistName":"شرح كتاب منازل السائرين للإمام الهروي","category":"متنوع"},{"id":"1QDi-O5dSVE","title":"دعوة فضيلة الشيخ عبدالله بن مسعود لفضيلة الدكتور يسرى رشدى والدكتور يحي الغوثانى","publishedAt":"2014-12-12T16:58:33Z","duration":"PT41M57S","thumbnail":"https://i.ytimg.com/vi/1QDi-O5dSVE/mqdefault.jpg","viewCount":"759","playlistId":"PLEkQk5xrP-tlB8lmbwjAKR8KRgiykGKhb","playlistName":"حضرات يسرية ومدائح نبوية","category":"متنوع"},{"id":"f8MnWWm_d6M","title":"شرح كتاب منازل السائرين للإمام الهروى - المجلس الثلاثون - قسم الأخلاق باب التواضع","publishedAt":"2014-12-15T04:08:04Z","duration":"PT56M44S","thumbnail":"https://i.ytimg.com/vi/f8MnWWm_d6M/mqdefault.jpg","viewCount":"1290","playlistId":"PLEkQk5xrP-tnLYi_5_tSRVBwqcs7ISV7Y","playlistName":"شرح كتاب منازل السائرين للإمام الهروي","category":"متنوع"},{"id":"mCj-KBYtjqk","title":"الفرق بين الأحدية والواحدية والتوحيد والفرق بين الألوهية والربوبية - د. يسري جبر","publishedAt":"2014-12-19T19:48:48Z","duration":"PT5M43S","thumbnail":"https://i.ytimg.com/vi/mCj-KBYtjqk/mqdefault.jpg","viewCount":"17196","playlistId":"PLEkQk5xrP-tm8ZIu74nTOZN9KJUJu416J","playlistName":"مقاطع مُهمَّة (يُسريَّات) أ.د. يسري جبر","category":"متنوع"}],"total":4126,"page":3,"pageSize":24,"totalPages":172}