{"items":[{"id":"M7Q9jUt2gv4","title":"كيف تجعل صلاتك مقبولة عند الله؟ | مجالس رمضانية","publishedAt":"2025-03-06T15:00:32Z","duration":"PT15M15S","thumbnail":"https://i.ytimg.com/vi/M7Q9jUt2gv4/mqdefault.jpg","viewCount":"2471","playlistId":"PLEkQk5xrP-tkeI_WVPfuoTJO46aVkpaz0","playlistName":"شرح كتاب ميزان الاعتدال لحفظ الدين والأحوال","category":"متنوع"},{"id":"MLo675wtzgk","title":"حاسس أني تايه في الدين بسبب تعدد الطوائف والأفكار ,, فماذا أفعل؟","publishedAt":"2025-03-06T18:30:25Z","duration":"PT8M53S","thumbnail":"https://i.ytimg.com/vi/MLo675wtzgk/mqdefault.jpg","viewCount":"3862","playlistId":"PLEkQk5xrP-tkGXuZ9atE3k_7it12rUPTs","playlistName":"أسئلة المتابعين","category":"متنوع"},{"id":"h1pBJGYNex4","title":"كيف أتخلص من التركيز الزائد في أمور الدنيا؟ | مجالس رمضانية","publishedAt":"2025-03-07T15:01:01Z","duration":"PT33M41S","thumbnail":"https://i.ytimg.com/vi/h1pBJGYNex4/mqdefault.jpg","viewCount":"6415","playlistId":"PLEkQk5xrP-tkeI_WVPfuoTJO46aVkpaz0","playlistName":"شرح كتاب ميزان الاعتدال لحفظ الدين والأحوال","category":"متنوع"},{"id":"njGhMc4ECic","title":"كيف تكون صلاتي مقبولة؟ | مجالس رمضانية","publishedAt":"2025-03-08T15:00:57Z","duration":"PT14M33S","thumbnail":"https://i.ytimg.com/vi/njGhMc4ECic/mqdefault.jpg","viewCount":"1479","playlistId":"PLEkQk5xrP-tkeI_WVPfuoTJO46aVkpaz0","playlistName":"شرح كتاب ميزان الاعتدال لحفظ الدين والأحوال","category":"متنوع"},{"id":"mxBSRzEeFxs","title":"ازاي تتحرر من إدمان التليفون والسوشيال ميديا؟","publishedAt":"2025-03-08T18:30:42Z","duration":"PT8M51S","thumbnail":"https://i.ytimg.com/vi/mxBSRzEeFxs/mqdefault.jpg","viewCount":"16720","playlistId":"PLEkQk5xrP-tm8ZIu74nTOZN9KJUJu416J","playlistName":"مقاطع مُهمَّة (يُسريَّات) أ.د. يسري جبر","category":"متنوع"},{"id":"cpFkM74nI5g","title":"فضل وثواب صلاة الجماعة | مجالس رمضانية","publishedAt":"2025-03-09T15:00:50Z","duration":"PT18M55S","thumbnail":"https://i.ytimg.com/vi/cpFkM74nI5g/mqdefault.jpg","viewCount":"1385","playlistId":"PLEkQk5xrP-tkeI_WVPfuoTJO46aVkpaz0","playlistName":"شرح كتاب ميزان الاعتدال لحفظ الدين والأحوال","category":"متنوع"},{"id":"AfdehqiYnIQ","title":"هل صلاة الجمعة تسقط فرض الظهر؟ | مجالس رمضانية","publishedAt":"2025-03-10T15:00:19Z","duration":"PT25M7S","thumbnail":"https://i.ytimg.com/vi/AfdehqiYnIQ/mqdefault.jpg","viewCount":"1296","playlistId":"PLEkQk5xrP-tkeI_WVPfuoTJO46aVkpaz0","playlistName":"شرح كتاب ميزان الاعتدال لحفظ الدين والأحوال","category":"متنوع"},{"id":"1j8pGJ8YJ_o","title":"كيف أتغلب على النفس الأمارة بالسوء؟","publishedAt":"2025-03-10T18:30:02Z","duration":"PT8M15S","thumbnail":"https://i.ytimg.com/vi/1j8pGJ8YJ_o/mqdefault.jpg","viewCount":"5400","playlistId":"PLEkQk5xrP-tkGXuZ9atE3k_7it12rUPTs","playlistName":"أسئلة المتابعين","category":"متنوع"},{"id":"wZ5m8avk_F4","title":"كيف تشكر نعم الله عليك؟ | مجالس رمضانية","publishedAt":"2025-03-11T15:01:24Z","duration":"PT24M23S","thumbnail":"https://i.ytimg.com/vi/wZ5m8avk_F4/mqdefault.jpg","viewCount":"3877","playlistId":"PLEkQk5xrP-tkeI_WVPfuoTJO46aVkpaz0","playlistName":"شرح كتاب ميزان الاعتدال لحفظ الدين والأحوال","category":"متنوع"},{"id":"g_duznd_RPs","title":"أنا مقاطع أهلي لأنهم حرموني من الورث ,, فماذا أفعل؟","publishedAt":"2025-03-11T18:33:21Z","duration":"PT8M27S","thumbnail":"https://i.ytimg.com/vi/g_duznd_RPs/mqdefault.jpg","viewCount":"1772","playlistId":"PLEkQk5xrP-tkGXuZ9atE3k_7it12rUPTs","playlistName":"أسئلة المتابعين","category":"متنوع"},{"id":"LdYfqYKT_os","title":"كيف تتغلب على وساوس الشيطان؟ | مجالس رمضانية","publishedAt":"2025-03-12T15:30:14Z","duration":"PT33M2S","thumbnail":"https://i.ytimg.com/vi/LdYfqYKT_os/mqdefault.jpg","viewCount":"5988","playlistId":"PLEkQk5xrP-tkeI_WVPfuoTJO46aVkpaz0","playlistName":"شرح كتاب ميزان الاعتدال لحفظ الدين والأحوال","category":"متنوع"},{"id":"CTRBgJDJWyc","title":"هل حفظ القرآن واجب على كل مسلم؟","publishedAt":"2025-03-12T19:00:10Z","duration":"PT9M14S","thumbnail":"https://i.ytimg.com/vi/CTRBgJDJWyc/mqdefault.jpg","viewCount":"3809","playlistId":"PLEkQk5xrP-tkGXuZ9atE3k_7it12rUPTs","playlistName":"أسئلة المتابعين","category":"متنوع"},{"id":"Fg_eRBIY42w","title":"ما أهم مفاتيح الخير وزيادة الرزق؟ | مجالس رمضانية","publishedAt":"2025-03-13T15:30:07Z","duration":"PT27M47S","thumbnail":"https://i.ytimg.com/vi/Fg_eRBIY42w/mqdefault.jpg","viewCount":"3438","playlistId":"PLEkQk5xrP-tkeI_WVPfuoTJO46aVkpaz0","playlistName":"شرح كتاب ميزان الاعتدال لحفظ الدين والأحوال","category":"متنوع"},{"id":"mYbre9dYCCA","title":"وصايا نبوية تحميك من الأمراض","publishedAt":"2025-03-13T19:00:40Z","duration":"PT9M49S","thumbnail":"https://i.ytimg.com/vi/mYbre9dYCCA/mqdefault.jpg","viewCount":"4188","playlistId":"PLEkQk5xrP-tm8ZIu74nTOZN9KJUJu416J","playlistName":"مقاطع مُهمَّة (يُسريَّات) أ.د. يسري جبر","category":"متنوع"},{"id":"vJsw8uY66QI","title":"كيف سيعاقب الله مانع الزكاة يوم القيامة؟ | مجالس رمضانية","publishedAt":"2025-03-14T15:30:22Z","duration":"PT24M27S","thumbnail":"https://i.ytimg.com/vi/vJsw8uY66QI/mqdefault.jpg","viewCount":"1209","playlistId":"PLEkQk5xrP-tkeI_WVPfuoTJO46aVkpaz0","playlistName":"شرح كتاب ميزان الاعتدال لحفظ الدين والأحوال","category":"متنوع"},{"id":"uh-LE5X6QhY","title":"ابني مش بيصلي فماذا أفعل معه؟","publishedAt":"2025-03-14T19:00:50Z","duration":"PT8M1S","thumbnail":"https://i.ytimg.com/vi/uh-LE5X6QhY/mqdefault.jpg","viewCount":"2269","playlistId":"PLEkQk5xrP-tkGXuZ9atE3k_7it12rUPTs","playlistName":"أسئلة المتابعين","category":"متنوع"},{"id":"YCKToSCFGKk","title":"كيف تصل إلى أعلى درجات الإيمان؟ | مجالس رمضانية","publishedAt":"2025-03-15T15:30:11Z","duration":"PT31M22S","thumbnail":"https://i.ytimg.com/vi/YCKToSCFGKk/mqdefault.jpg","viewCount":"6033","playlistId":"PLEkQk5xrP-tkeI_WVPfuoTJO46aVkpaz0","playlistName":"شرح كتاب ميزان الاعتدال لحفظ الدين والأحوال","category":"متنوع"},{"id":"XVGvSEfr5WU","title":"تعرف على عجائب الصدقة واثرها في حياتك | مجالس رمضانية","publishedAt":"2025-03-16T15:30:09Z","duration":"PT26M21S","thumbnail":"https://i.ytimg.com/vi/XVGvSEfr5WU/mqdefault.jpg","viewCount":"5699","playlistId":"PLEkQk5xrP-tkeI_WVPfuoTJO46aVkpaz0","playlistName":"شرح كتاب ميزان الاعتدال لحفظ الدين والأحوال","category":"متنوع"},{"id":"FGzmm9lPeR0","title":"إطعام الطعام مفتاح لدخول الجنة! | مجالس رمضانية","publishedAt":"2025-03-17T15:30:04Z","duration":"PT45M8S","thumbnail":"https://i.ytimg.com/vi/FGzmm9lPeR0/mqdefault.jpg","viewCount":"2672","playlistId":"PLEkQk5xrP-tkeI_WVPfuoTJO46aVkpaz0","playlistName":"شرح كتاب ميزان الاعتدال لحفظ الدين والأحوال","category":"متنوع"},{"id":"BLYT_LxZ6Tc","title":"3 عبادات تضمن لك الجنة","publishedAt":"2025-03-17T19:00:12Z","duration":"PT8M16S","thumbnail":"https://i.ytimg.com/vi/BLYT_LxZ6Tc/mqdefault.jpg","viewCount":"2389","playlistId":"PLEkQk5xrP-tm8ZIu74nTOZN9KJUJu416J","playlistName":"مقاطع مُهمَّة (يُسريَّات) أ.د. يسري جبر","category":"متنوع"},{"id":"JtYUm3IHLdg","title":"قصص النبي والصحابة مع الإنفاق في سبيل الله | مجالس رمضانية","publishedAt":"2025-03-18T15:00:29Z","duration":"PT29M18S","thumbnail":"https://i.ytimg.com/vi/JtYUm3IHLdg/mqdefault.jpg","viewCount":"2038","playlistId":"PLEkQk5xrP-tkeI_WVPfuoTJO46aVkpaz0","playlistName":"شرح كتاب ميزان الاعتدال لحفظ الدين والأحوال","category":"متنوع"},{"id":"Xv4qryaPm6Y","title":"ما حكم الصلاة جالسا مع قدرتي على الوقوف؟","publishedAt":"2025-03-18T19:00:23Z","duration":"PT15M43S","thumbnail":"https://i.ytimg.com/vi/Xv4qryaPm6Y/mqdefault.jpg","viewCount":"3808","playlistId":"PLEkQk5xrP-tkGXuZ9atE3k_7it12rUPTs","playlistName":"أسئلة المتابعين","category":"متنوع"},{"id":"rMqs5UZ6ZzE","title":"ما هي صفات الشخص البخيل وكيفية علاجه؟ | مجالس رمضانية","publishedAt":"2025-03-19T15:01:17Z","duration":"PT26M50S","thumbnail":"https://i.ytimg.com/vi/rMqs5UZ6ZzE/mqdefault.jpg","viewCount":"2120","playlistId":"PLEkQk5xrP-tkeI_WVPfuoTJO46aVkpaz0","playlistName":"شرح كتاب ميزان الاعتدال لحفظ الدين والأحوال","category":"متنوع"},{"id":"QtD2ClPUbvk","title":"هل يجب التأكد من حاجة الفقير قبل التصدق عليه؟ | مجالس رمضانية","publishedAt":"2025-03-20T15:00:29Z","duration":"PT21M34S","thumbnail":"https://i.ytimg.com/vi/QtD2ClPUbvk/mqdefault.jpg","viewCount":"1864","playlistId":"PLEkQk5xrP-tkeI_WVPfuoTJO46aVkpaz0","playlistName":"شرح كتاب ميزان الاعتدال لحفظ الدين والأحوال","category":"متنوع"}],"total":4129,"page":164,"pageSize":24,"totalPages":173}