{"items":[{"id":"IqvBqUyUjnQ","title":"448- النهي عن تناجي اثنين دون الثالث بغير إذنه إلا لحاجة - شرح دليل الفالحين","publishedAt":"2023-05-17T08:59:00Z","duration":"PT27M36S","thumbnail":"https://i.ytimg.com/vi/IqvBqUyUjnQ/mqdefault.jpg","viewCount":"553","playlistId":"PLEkQk5xrP-tkc9DXvSLguqX5-FYp6ASR4","playlistName":"دليل الفالحين لطرق رياض الصالحين","category":"متنوع"},{"id":"oALNF66HP9A","title":"449- النهي عن تعذيب العبد والدَّابَّة والمرأة والولد بغير سبب شرعيِّ أو زائد على قدْر الأدب","publishedAt":"2023-05-18T08:59:01Z","duration":"PT32M29S","thumbnail":"https://i.ytimg.com/vi/oALNF66HP9A/mqdefault.jpg","viewCount":"736","playlistId":"PLEkQk5xrP-tkc9DXvSLguqX5-FYp6ASR4","playlistName":"دليل الفالحين لطرق رياض الصالحين","category":"متنوع"},{"id":"Vw7zOW8Pifg","title":"450- حكم الرجوع في الهِبة أو الصدقة - شرح دليل الفالحين","publishedAt":"2023-05-19T08:59:00Z","duration":"PT25M40S","thumbnail":"https://i.ytimg.com/vi/Vw7zOW8Pifg/mqdefault.jpg","viewCount":"803","playlistId":"PLEkQk5xrP-tkc9DXvSLguqX5-FYp6ASR4","playlistName":"دليل الفالحين لطرق رياض الصالحين","category":"متنوع"},{"id":"h2SNtfXmCzM","title":"10- حكم ولوغ الكلب في الإناء وسؤر القطة - سنن الإمام الدار قطني رضي الله عنه","publishedAt":"2023-05-20T08:59:00Z","duration":"PT48M32S","thumbnail":"https://i.ytimg.com/vi/h2SNtfXmCzM/mqdefault.jpg","viewCount":"1052","playlistId":"PLEkQk5xrP-tk_MCBZ706ORCw6gFtFyaGj","playlistName":"شرح سنن الإمام الدارقطني","category":"متنوع"},{"id":"txiPVGj-VQo","title":"451- تغليظ تحريم الرِّبا - شرح دليل الفالحين","publishedAt":"2023-05-21T05:00:32Z","duration":"PT31M47S","thumbnail":"https://i.ytimg.com/vi/txiPVGj-VQo/mqdefault.jpg","viewCount":"794","playlistId":"PLEkQk5xrP-tkc9DXvSLguqX5-FYp6ASR4","playlistName":"دليل الفالحين لطرق رياض الصالحين","category":"متنوع"},{"id":"hLHHJIhtkz0","title":"452- تحريم الرياء  - شرح دليل الفالحين","publishedAt":"2023-05-22T05:00:20Z","duration":"PT32M1S","thumbnail":"https://i.ytimg.com/vi/hLHHJIhtkz0/mqdefault.jpg","viewCount":"870","playlistId":"PLEkQk5xrP-tkc9DXvSLguqX5-FYp6ASR4","playlistName":"دليل الفالحين لطرق رياض الصالحين","category":"متنوع"},{"id":"KqeNpslX2H4","title":"453- تحريم النظر إلى المرأة الأجنبية والأمرد الحسن لغير حاجة شرعية - شرح دليل الفالحين","publishedAt":"2023-05-23T08:59:00Z","duration":"PT30M35S","thumbnail":"https://i.ytimg.com/vi/KqeNpslX2H4/mqdefault.jpg","viewCount":"1332","playlistId":"PLEkQk5xrP-tkc9DXvSLguqX5-FYp6ASR4","playlistName":"دليل الفالحين لطرق رياض الصالحين","category":"متنوع"},{"id":"6YOfAFitJ_8","title":"454- تحريم الخلوة بالأجنبية - شرح دليل الفالحين","publishedAt":"2023-05-24T08:59:00Z","duration":"PT15M43S","thumbnail":"https://i.ytimg.com/vi/6YOfAFitJ_8/mqdefault.jpg","viewCount":"741","playlistId":"PLEkQk5xrP-tkc9DXvSLguqX5-FYp6ASR4","playlistName":"دليل الفالحين لطرق رياض الصالحين","category":"متنوع"},{"id":"tK9ww_wgxyM","title":"455- تحريم تشبُّه الرجال بالنساء وتشبُّه النساء بالرجال في لباسٍ وحركةٍ وغير ذلك - شرح دليل الفالحين","publishedAt":"2023-05-25T05:00:21Z","duration":"PT29M1S","thumbnail":"https://i.ytimg.com/vi/tK9ww_wgxyM/mqdefault.jpg","viewCount":"948","playlistId":"PLEkQk5xrP-tkc9DXvSLguqX5-FYp6ASR4","playlistName":"دليل الفالحين لطرق رياض الصالحين","category":"متنوع"},{"id":"YwKNWESlTng","title":"456- النهي عن التَّشَبُّه بالشيطان والكفار - شرح دليل الفالحين","publishedAt":"2023-05-26T08:59:00Z","duration":"PT37M9S","thumbnail":"https://i.ytimg.com/vi/YwKNWESlTng/mqdefault.jpg","viewCount":"830","playlistId":"PLEkQk5xrP-tkc9DXvSLguqX5-FYp6ASR4","playlistName":"دليل الفالحين لطرق رياض الصالحين","category":"متنوع"},{"id":"XjUfwiInODA","title":"457- تحريم وصل الشعر والوَشْم والوَشْر  - شرح دليل الفالحين","publishedAt":"2023-05-27T08:59:00Z","duration":"PT35M24S","thumbnail":"https://i.ytimg.com/vi/XjUfwiInODA/mqdefault.jpg","viewCount":"794","playlistId":"PLEkQk5xrP-tkc9DXvSLguqX5-FYp6ASR4","playlistName":"دليل الفالحين لطرق رياض الصالحين","category":"متنوع"},{"id":"LgmQuNrMkJw","title":"458- كراهية الاستنجاء باليمين - شرح دليل الفالحين","publishedAt":"2023-05-28T08:59:00Z","duration":"PT23M6S","thumbnail":"https://i.ytimg.com/vi/LgmQuNrMkJw/mqdefault.jpg","viewCount":"542","playlistId":"PLEkQk5xrP-tkc9DXvSLguqX5-FYp6ASR4","playlistName":"دليل الفالحين لطرق رياض الصالحين","category":"متنوع"},{"id":"xSJiZEAsF8s","title":"459- النَّهي عن التَّكلُّف وهو فعل وقول ما لا مصلحة فيه بمشقَّة - شرح دليل الفالحين","publishedAt":"2023-05-29T08:59:01Z","duration":"PT34M52S","thumbnail":"https://i.ytimg.com/vi/xSJiZEAsF8s/mqdefault.jpg","viewCount":"686","playlistId":"PLEkQk5xrP-tkc9DXvSLguqX5-FYp6ASR4","playlistName":"دليل الفالحين لطرق رياض الصالحين","category":"متنوع"},{"id":"2Y5Wz5gzYco","title":"460- حكم قراءة الفنجان والكفَّ وغيرهما - شرح دليل الفالحين","publishedAt":"2023-05-29T18:00:01Z","duration":"PT42M47S","thumbnail":"https://i.ytimg.com/vi/2Y5Wz5gzYco/mqdefault.jpg","viewCount":"1465","playlistId":"PLEkQk5xrP-tkc9DXvSLguqX5-FYp6ASR4","playlistName":"دليل الفالحين لطرق رياض الصالحين","category":"متنوع"},{"id":"8Xnz3exag6U","title":"461- النهي عن التَّطَيُّر - شرح دليل الفالحين","publishedAt":"2023-05-30T18:00:04Z","duration":"PT22M15S","thumbnail":"https://i.ytimg.com/vi/8Xnz3exag6U/mqdefault.jpg","viewCount":"605","playlistId":"PLEkQk5xrP-tkc9DXvSLguqX5-FYp6ASR4","playlistName":"دليل الفالحين لطرق رياض الصالحين","category":"متنوع"},{"id":"w7SapB2Q7nU","title":"462- حكم تصوير الحيوان واتخاذ الصورة في حائط وغيره - شرح دليل الفالحين","publishedAt":"2023-05-31T08:59:00Z","duration":"PT35M45S","thumbnail":"https://i.ytimg.com/vi/w7SapB2Q7nU/mqdefault.jpg","viewCount":"990","playlistId":"PLEkQk5xrP-tkc9DXvSLguqX5-FYp6ASR4","playlistName":"دليل الفالحين لطرق رياض الصالحين","category":"متنوع"},{"id":"zhL2k0i4Da0","title":"463- تحريم اتخاذ الكلب إلا لصيد أو ماشية أو زرع  - شرح دليل الفالحين","publishedAt":"2023-06-01T18:00:19Z","duration":"PT22M29S","thumbnail":"https://i.ytimg.com/vi/zhL2k0i4Da0/mqdefault.jpg","viewCount":"567","playlistId":"PLEkQk5xrP-tkc9DXvSLguqX5-FYp6ASR4","playlistName":"دليل الفالحين لطرق رياض الصالحين","category":"متنوع"},{"id":"zrXAvhKCE1o","title":"464- النهي عن البصاق في المسجد والأمر بإزالته منه إذا وُجد فيه والأمر بتنزيه المسجد عن الأقذار","publishedAt":"2023-06-02T08:59:00Z","duration":"PT32M32S","thumbnail":"https://i.ytimg.com/vi/zrXAvhKCE1o/mqdefault.jpg","viewCount":"463","playlistId":"PLEkQk5xrP-tkc9DXvSLguqX5-FYp6ASR4","playlistName":"دليل الفالحين لطرق رياض الصالحين","category":"متنوع"},{"id":"GVXNbYXbORE","title":"465- حكم الذهاب إلى المسجد لمن أكل ثومًا أو بصلًا أو غيرها ممَّا له رائحة كريهة - شرح دليل الفالحين","publishedAt":"2023-06-03T08:59:00Z","duration":"PT35M19S","thumbnail":"https://i.ytimg.com/vi/GVXNbYXbORE/mqdefault.jpg","viewCount":"590","playlistId":"PLEkQk5xrP-tkc9DXvSLguqX5-FYp6ASR4","playlistName":"دليل الفالحين لطرق رياض الصالحين","category":"متنوع"},{"id":"0XvEAinEK4A","title":"466- حكم الحَلِف بمخلوقٍ كالنَّبيّ والكعبة والملائكة والسماء والآباء والحياة - شرح دليل الفالحين","publishedAt":"2023-06-03T18:00:00Z","duration":"PT15M24S","thumbnail":"https://i.ytimg.com/vi/0XvEAinEK4A/mqdefault.jpg","viewCount":"703","playlistId":"PLEkQk5xrP-tkc9DXvSLguqX5-FYp6ASR4","playlistName":"دليل الفالحين لطرق رياض الصالحين","category":"متنوع"},{"id":"tOZ9tSFqYyU","title":"467- تغليظ تحريم اليمين الكاذبة عمدًا - شرح دليل الفالحين","publishedAt":"2023-06-04T18:00:19Z","duration":"PT30M37S","thumbnail":"https://i.ytimg.com/vi/tOZ9tSFqYyU/mqdefault.jpg","viewCount":"383","playlistId":"PLEkQk5xrP-tkc9DXvSLguqX5-FYp6ASR4","playlistName":"دليل الفالحين لطرق رياض الصالحين","category":"متنوع"},{"id":"GJ7EHZGN5qs","title":"468- العفو عن لغو اليمين وأنَّه لا كفَّارة فيه - شرح دليل الفالحين","publishedAt":"2023-06-05T08:59:00Z","duration":"PT33M27S","thumbnail":"https://i.ytimg.com/vi/GJ7EHZGN5qs/mqdefault.jpg","viewCount":"647","playlistId":"PLEkQk5xrP-tkc9DXvSLguqX5-FYp6ASR4","playlistName":"دليل الفالحين لطرق رياض الصالحين","category":"متنوع"},{"id":"OjMei2Zt6qQ","title":"469- كراهة سَبِّ الحُمَّى - شرح دليل الفالحين","publishedAt":"2023-06-06T08:59:00Z","duration":"PT23M56S","thumbnail":"https://i.ytimg.com/vi/OjMei2Zt6qQ/mqdefault.jpg","viewCount":"678","playlistId":"PLEkQk5xrP-tkc9DXvSLguqX5-FYp6ASR4","playlistName":"دليل الفالحين لطرق رياض الصالحين","category":"متنوع"},{"id":"71u5Z4nB8SM","title":"470- حكم مَنْ يعتقد أنَّ النُّجومَ سَببٌ في نُزولِ المطرِ - شرح دليل الفالحين","publishedAt":"2023-06-07T08:59:01Z","duration":"PT38M11S","thumbnail":"https://i.ytimg.com/vi/71u5Z4nB8SM/mqdefault.jpg","viewCount":"550","playlistId":"PLEkQk5xrP-tkc9DXvSLguqX5-FYp6ASR4","playlistName":"دليل الفالحين لطرق رياض الصالحين","category":"متنوع"}],"total":4129,"page":140,"pageSize":24,"totalPages":173}