{"items":[{"id":"1BT7MwWyWwY","title":"62- حكم التلقين في الحَدّ | إدّخار لحم الأضحية - شرح مسند الإمام أحمد رضي الله عنه","publishedAt":"2024-01-06T07:00:02Z","duration":"PT35M52S","thumbnail":"https://i.ytimg.com/vi/1BT7MwWyWwY/mqdefault.jpg","viewCount":"985","playlistId":"PLEkQk5xrP-tkKprIuGrSdEuBSMsyg5We1","playlistName":"شرح مسند الإمام أحمد بن حنبل","category":"متنوع"},{"id":"EK26J7nKXSQ","title":"176- ما الوقت المناسب لعمل الحجامة؟ وعلاقته بالدورة الدموية - شرح مسند الإمام أحمد رضي الله عنه","publishedAt":"2025-10-23T09:00:22Z","duration":"PT29M6S","thumbnail":"https://i.ytimg.com/vi/EK26J7nKXSQ/mqdefault.jpg","viewCount":"975","playlistId":"PLEkQk5xrP-tkKprIuGrSdEuBSMsyg5We1","playlistName":"شرح مسند الإمام أحمد بن حنبل","category":"متنوع"},{"id":"2IsGxVhH-Uk","title":"95- تكملة ما جاء في مسند سيدنا الفضل بن العباس رضي اللهُ تعالى عنهما (2)","publishedAt":"2024-04-19T07:00:02Z","duration":"PT26M27S","thumbnail":"https://i.ytimg.com/vi/2IsGxVhH-Uk/mqdefault.jpg","viewCount":"973","playlistId":"PLEkQk5xrP-tkKprIuGrSdEuBSMsyg5We1","playlistName":"شرح مسند الإمام أحمد بن حنبل","category":"متنوع"},{"id":"czQG-2M2F3A","title":"135- إنَّ الحُمَّى من فيح جهنم فأبردوها بالماء - شرح مسند الإمام أحمد رضي الله تعالى عنه","publishedAt":"2024-11-05T06:00:30Z","duration":"PT28M55S","thumbnail":"https://i.ytimg.com/vi/czQG-2M2F3A/mqdefault.jpg","viewCount":"968","playlistId":"PLEkQk5xrP-tkKprIuGrSdEuBSMsyg5We1","playlistName":"شرح مسند الإمام أحمد بن حنبل","category":"متنوع"},{"id":"v7K4Pwr1Gtg","title":"100- حكم ختام الصلاة جهرًا - شرح مسند الإمام أحمد رضي الله تعالى عنه","publishedAt":"2024-05-03T05:00:29Z","duration":"PT35M3S","thumbnail":"https://i.ytimg.com/vi/v7K4Pwr1Gtg/mqdefault.jpg","viewCount":"960","playlistId":"PLEkQk5xrP-tkKprIuGrSdEuBSMsyg5We1","playlistName":"شرح مسند الإمام أحمد بن حنبل","category":"متنوع"},{"id":"87fQ_8mHgPs","title":"113- حكم فرق شعر الرأس - شرح مسند الإمام أحمد رضي الله تعالى عنه","publishedAt":"2024-06-22T09:10:00Z","duration":"PT27M11S","thumbnail":"https://i.ytimg.com/vi/87fQ_8mHgPs/mqdefault.jpg","viewCount":"956","playlistId":"PLEkQk5xrP-tkKprIuGrSdEuBSMsyg5We1","playlistName":"شرح مسند الإمام أحمد بن حنبل","category":"متنوع"},{"id":"qVr7PB2F16s","title":"74- الفرق بين اللحد والشق | النَّبيُّ ﷺ له التصريف في الأحكام - شرح مسند الإمام أحمد رضي الله عنه","publishedAt":"2024-02-07T06:30:16Z","duration":"PT29M21S","thumbnail":"https://i.ytimg.com/vi/qVr7PB2F16s/mqdefault.jpg","viewCount":"954","playlistId":"PLEkQk5xrP-tkKprIuGrSdEuBSMsyg5We1","playlistName":"شرح مسند الإمام أحمد بن حنبل","category":"متنوع"},{"id":"Vb7DvCeDiRQ","title":"93- تكملة ما جاء في مسند سيدنا العباس بن عبد المطلب رضي الله تعالى عنه (2)","publishedAt":"2024-04-14T07:16:57Z","duration":"PT27M39S","thumbnail":"https://i.ytimg.com/vi/Vb7DvCeDiRQ/mqdefault.jpg","viewCount":"949","playlistId":"PLEkQk5xrP-tkKprIuGrSdEuBSMsyg5We1","playlistName":"شرح مسند الإمام أحمد بن حنبل","category":"متنوع"},{"id":"0BvcNpTwxPI","title":"114- حكم مَن اتُّهِمَ زُورًا - شرح مسند الإمام أحمد رضي الله تعالى عنه","publishedAt":"2024-06-29T07:03:44Z","duration":"PT36M36S","thumbnail":"https://i.ytimg.com/vi/0BvcNpTwxPI/mqdefault.jpg","viewCount":"935","playlistId":"PLEkQk5xrP-tkKprIuGrSdEuBSMsyg5We1","playlistName":"شرح مسند الإمام أحمد بن حنبل","category":"متنوع"},{"id":"BByzeuce25M","title":"131- كيف تتعامل مع مديرك إذا كلَّفك بشيء أخطأ فيه؟ - شرح مسند الإمام أحمد رضي الله تعالى عنه","publishedAt":"2024-10-28T06:00:06Z","duration":"PT39M11S","thumbnail":"https://i.ytimg.com/vi/BByzeuce25M/mqdefault.jpg","viewCount":"934","playlistId":"PLEkQk5xrP-tkKprIuGrSdEuBSMsyg5We1","playlistName":"شرح مسند الإمام أحمد بن حنبل","category":"متنوع"},{"id":"bUWXQ-XGysA","title":"102- لا هجرةَ بعد الفتح، ولكنْ جهادٌ ونيَّةٌ - شرح مسند الإمام أحمد رضي الله تعالى عنه","publishedAt":"2024-05-07T05:15:02Z","duration":"PT25M2S","thumbnail":"https://i.ytimg.com/vi/bUWXQ-XGysA/mqdefault.jpg","viewCount":"931","playlistId":"PLEkQk5xrP-tkKprIuGrSdEuBSMsyg5We1","playlistName":"شرح مسند الإمام أحمد بن حنبل","category":"متنوع"},{"id":"CLRy0GEzAmc","title":"111-أهمية تقديم الصلاة على الخطبة يوم العيد - شرح مسند الإمام أحمد رضي الله تعالى عنه","publishedAt":"2024-06-17T06:00:09Z","duration":"PT21M31S","thumbnail":"https://i.ytimg.com/vi/CLRy0GEzAmc/mqdefault.jpg","viewCount":"926","playlistId":"PLEkQk5xrP-tkKprIuGrSdEuBSMsyg5We1","playlistName":"شرح مسند الإمام أحمد بن حنبل","category":"متنوع"},{"id":"GOmk9ZfjBNE","title":"40- متى تبدأ مدة المسح على الخفين؟ - شرح مسند الإمام أحمد","publishedAt":"2023-11-18T06:41:14Z","duration":"PT19M37S","thumbnail":"https://i.ytimg.com/vi/GOmk9ZfjBNE/mqdefault.jpg","viewCount":"923","playlistId":"PLEkQk5xrP-tkKprIuGrSdEuBSMsyg5We1","playlistName":"شرح مسند الإمام أحمد بن حنبل","category":"متنوع"},{"id":"df6OH5zhl6g","title":"12- حكم ثبوت الهلال بشهادة الواحد| حكم المسح على الخفّين|بيان ما يجوز من اللباس والنهي عن ثوب الشهرة","publishedAt":"2023-08-08T05:00:30Z","duration":"PT41M35S","thumbnail":"https://i.ytimg.com/vi/df6OH5zhl6g/mqdefault.jpg","viewCount":"918","playlistId":"PLEkQk5xrP-tkKprIuGrSdEuBSMsyg5We1","playlistName":"شرح مسند الإمام أحمد بن حنبل","category":"متنوع"},{"id":"eLGwJOCNeHA","title":"183- {وَعَلَّمَكَ مَا لَمْ تَكُن تَعْلَمُ ۚ وَكَانَ فَضْلُ اللَّهِ عَلَيْكَ عَظِيمًا}","publishedAt":"2025-11-19T10:01:12Z","duration":"PT24M19S","thumbnail":"https://i.ytimg.com/vi/eLGwJOCNeHA/mqdefault.jpg","viewCount":"911","playlistId":"PLEkQk5xrP-tkKprIuGrSdEuBSMsyg5We1","playlistName":"شرح مسند الإمام أحمد بن حنبل","category":"متنوع"},{"id":"jFd6eNFZ1oQ","title":"63- حكم تعدد الركوعات في صلاة الكسوف | الوتر - شرح مسند الإمام أحمد رضي الله عنه","publishedAt":"2024-01-08T06:15:01Z","duration":"PT29M33S","thumbnail":"https://i.ytimg.com/vi/jFd6eNFZ1oQ/mqdefault.jpg","viewCount":"901","playlistId":"PLEkQk5xrP-tkKprIuGrSdEuBSMsyg5We1","playlistName":"شرح مسند الإمام أحمد بن حنبل","category":"متنوع"},{"id":"Jowdyf2w2zc","title":"73-  نُبذة عن سيدنا أبي إسحاق سعد بن أبي وقاص سابع العشرة المبشرين بالجنة رضي اللهُ تعالى عنه","publishedAt":"2024-02-05T21:41:53Z","duration":"PT23M45S","thumbnail":"https://i.ytimg.com/vi/Jowdyf2w2zc/mqdefault.jpg","viewCount":"896","playlistId":"PLEkQk5xrP-tkKprIuGrSdEuBSMsyg5We1","playlistName":"شرح مسند الإمام أحمد بن حنبل","category":"متنوع"},{"id":"-BMP4SshhR8","title":"106- حكم العمل على الأرض ببعض ما يخرج منها - شرح مسند الإمام أحمد رضي الله تعالى عنه","publishedAt":"2024-05-19T06:18:40Z","duration":"PT30M27S","thumbnail":"https://i.ytimg.com/vi/-BMP4SshhR8/mqdefault.jpg","viewCount":"893","playlistId":"PLEkQk5xrP-tkKprIuGrSdEuBSMsyg5We1","playlistName":"شرح مسند الإمام أحمد بن حنبل","category":"متنوع"},{"id":"d0R-9BRazP0","title":"61- حكم الجلوس على فُرشِ الحرير - شرح مسند الإمام أحمد رضي الله عنه","publishedAt":"2024-01-04T07:00:10Z","duration":"PT35M42S","thumbnail":"https://i.ytimg.com/vi/d0R-9BRazP0/mqdefault.jpg","viewCount":"891","playlistId":"PLEkQk5xrP-tkKprIuGrSdEuBSMsyg5We1","playlistName":"شرح مسند الإمام أحمد بن حنبل","category":"متنوع"},{"id":"Wxj9gSdxxO8","title":"164- \"فأنا فرط أمتي لم يصابوا بمثلي\" ﷺ - شرح مسند الإمام أحمد رضي الله تعالى عنه","publishedAt":"2025-08-01T09:00:54Z","duration":"PT33M24S","thumbnail":"https://i.ytimg.com/vi/Wxj9gSdxxO8/mqdefault.jpg","viewCount":"891","playlistId":"PLEkQk5xrP-tkKprIuGrSdEuBSMsyg5We1","playlistName":"شرح مسند الإمام أحمد بن حنبل","category":"متنوع"},{"id":"guAWY6a3lOs","title":"153- ما يقال بين السجدتين - شرح مسند الإمام أحمد رضي الله تعالى عنه","publishedAt":"2025-02-23T07:00:22Z","duration":"PT32M43S","thumbnail":"https://i.ytimg.com/vi/guAWY6a3lOs/mqdefault.jpg","viewCount":"887","playlistId":"PLEkQk5xrP-tkKprIuGrSdEuBSMsyg5We1","playlistName":"شرح مسند الإمام أحمد بن حنبل","category":"متنوع"},{"id":"cqp8GG76hoc","title":"79- سبب نزول آية الوصيَّة بالوالدَيْنِ وعدمِ طاعتِهما في معصية - شرح مسند الإمام أحمد رضي الله عنه","publishedAt":"2024-02-18T06:30:10Z","duration":"PT21M25S","thumbnail":"https://i.ytimg.com/vi/cqp8GG76hoc/mqdefault.jpg","viewCount":"885","playlistId":"PLEkQk5xrP-tkKprIuGrSdEuBSMsyg5We1","playlistName":"شرح مسند الإمام أحمد بن حنبل","category":"متنوع"},{"id":"axD6GeZDzf8","title":"87- نبذة عن سيدنا عبد الرحمن بن أبي بكر رضي اللهُ تعالى عنه - شرح مسند الإمام أحمد رضي","publishedAt":"2024-03-20T06:30:01Z","duration":"PT24M25S","thumbnail":"https://i.ytimg.com/vi/axD6GeZDzf8/mqdefault.jpg","viewCount":"879","playlistId":"PLEkQk5xrP-tkKprIuGrSdEuBSMsyg5We1","playlistName":"شرح مسند الإمام أحمد بن حنبل","category":"متنوع"},{"id":"E1m2qi8HdzU","title":"136- كيفية دفن الميت والفرق بين الشق واللحد - شرح مسند الإمام أحمد رضي الله تعالى عنه","publishedAt":"2024-11-08T06:41:08Z","duration":"PT40M10S","thumbnail":"https://i.ytimg.com/vi/E1m2qi8HdzU/mqdefault.jpg","viewCount":"873","playlistId":"PLEkQk5xrP-tkKprIuGrSdEuBSMsyg5We1","playlistName":"شرح مسند الإمام أحمد بن حنبل","category":"متنوع"}],"total":185,"page":6,"pageSize":24,"totalPages":8}