{"items":[{"id":"WywW9UPpDLM","title":"86- نبذة عن سيدنا أبي عبيدة بن الجراح رضي الله تعالى عنه - شرح مسند الإمام أحمد رضي الله تعالى عنه","publishedAt":"2024-03-17T07:00:22Z","duration":"PT22M10S","thumbnail":"https://i.ytimg.com/vi/WywW9UPpDLM/mqdefault.jpg","viewCount":"863","playlistId":"PLEkQk5xrP-tkKprIuGrSdEuBSMsyg5We1","playlistName":"شرح مسند الإمام أحمد بن حنبل","category":"متنوع"},{"id":"oveeCWvwPBU","title":"105- حكم الأكل من صيد الكلب المعلم - شرح مسند الإمام أحمد رضي الله تعالى عنه","publishedAt":"2024-05-18T05:54:18Z","duration":"PT36M51S","thumbnail":"https://i.ytimg.com/vi/oveeCWvwPBU/mqdefault.jpg","viewCount":"854","playlistId":"PLEkQk5xrP-tkKprIuGrSdEuBSMsyg5We1","playlistName":"شرح مسند الإمام أحمد بن حنبل","category":"متنوع"},{"id":"jFGUFu0AAXE","title":"162- التنافس على الدنيا - شرح مسند الإمام أحمد رضي الله تعالى عنه","publishedAt":"2025-07-18T09:01:47Z","duration":"PT30M32S","thumbnail":"https://i.ytimg.com/vi/jFGUFu0AAXE/mqdefault.jpg","viewCount":"839","playlistId":"PLEkQk5xrP-tkKprIuGrSdEuBSMsyg5We1","playlistName":"شرح مسند الإمام أحمد بن حنبل","category":"متنوع"},{"id":"APyVTqiFezI","title":"159- درء الحدود بالشبهات - شرح مسند الإمام أحمد رضي الله تعالى عنه","publishedAt":"2025-04-18T09:00:30Z","duration":"PT22M29S","thumbnail":"https://i.ytimg.com/vi/APyVTqiFezI/mqdefault.jpg","viewCount":"835","playlistId":"PLEkQk5xrP-tkKprIuGrSdEuBSMsyg5We1","playlistName":"شرح مسند الإمام أحمد بن حنبل","category":"متنوع"},{"id":"rdunYXXmU10","title":"108- حكم اللعان - شرح مسند الإمام أحمد رضي الله تعالى عنه","publishedAt":"2024-05-26T06:04:25Z","duration":"PT27M5S","thumbnail":"https://i.ytimg.com/vi/rdunYXXmU10/mqdefault.jpg","viewCount":"830","playlistId":"PLEkQk5xrP-tkKprIuGrSdEuBSMsyg5We1","playlistName":"شرح مسند الإمام أحمد بن حنبل","category":"متنوع"},{"id":"BwzJWv5AZ_Y","title":"112- حُجَّ عن أبيك - شرح مسند الإمام أحمد رضي الله تعالى عنه","publishedAt":"2024-06-19T09:01:00Z","duration":"PT40M49S","thumbnail":"https://i.ytimg.com/vi/BwzJWv5AZ_Y/mqdefault.jpg","viewCount":"817","playlistId":"PLEkQk5xrP-tkKprIuGrSdEuBSMsyg5We1","playlistName":"شرح مسند الإمام أحمد بن حنبل","category":"متنوع"},{"id":"H_trLq0GZv0","title":"122- تَأْويلُ النَّبيّ ﷺ لِلرُّؤْيا - شرح مسند الإمام أحمد رضي الله تعالى عنه","publishedAt":"2024-09-01T10:21:29Z","duration":"PT28M46S","thumbnail":"https://i.ytimg.com/vi/H_trLq0GZv0/mqdefault.jpg","viewCount":"805","playlistId":"PLEkQk5xrP-tkKprIuGrSdEuBSMsyg5We1","playlistName":"شرح مسند الإمام أحمد بن حنبل","category":"متنوع"},{"id":"xuq2kIE3WH8","title":"149- ما معنى الحديث الشاذ؟ وهل يُستدل به في الأحكام؟ - شرح مسند الإمام أحمد رضي الله تعالى عنه","publishedAt":"2025-01-14T06:30:21Z","duration":"PT24M14S","thumbnail":"https://i.ytimg.com/vi/xuq2kIE3WH8/mqdefault.jpg","viewCount":"801","playlistId":"PLEkQk5xrP-tkKprIuGrSdEuBSMsyg5We1","playlistName":"شرح مسند الإمام أحمد بن حنبل","category":"متنوع"},{"id":"15JMEdPFHVU","title":"172- حكم سفر المرأة للدراسة بغير محرم - شرح مسند الإمام أحمد رضي الله تعالى عنه","publishedAt":"2025-10-12T04:30:04Z","duration":"PT27M52S","thumbnail":"https://i.ytimg.com/vi/15JMEdPFHVU/mqdefault.jpg","viewCount":"784","playlistId":"PLEkQk5xrP-tkKprIuGrSdEuBSMsyg5We1","playlistName":"شرح مسند الإمام أحمد بن حنبل","category":"متنوع"},{"id":"mXV8LVfHI3U","title":"126- طواف القدوم - شرح مسند الإمام أحمد رضي الله تعالى عنه","publishedAt":"2024-10-09T06:17:56Z","duration":"PT41M18S","thumbnail":"https://i.ytimg.com/vi/mXV8LVfHI3U/mqdefault.jpg","viewCount":"773","playlistId":"PLEkQk5xrP-tkKprIuGrSdEuBSMsyg5We1","playlistName":"شرح مسند الإمام أحمد بن حنبل","category":"متنوع"},{"id":"tiUOQj2s75I","title":"60- مَشروعيَّةُ الإهلالِ بالعُمرةِ والحَجِّ معًا - شرح مسند الإمام أحمد رضي الله عنه","publishedAt":"2024-01-02T07:00:31Z","duration":"PT21M33S","thumbnail":"https://i.ytimg.com/vi/tiUOQj2s75I/mqdefault.jpg","viewCount":"754","playlistId":"PLEkQk5xrP-tkKprIuGrSdEuBSMsyg5We1","playlistName":"شرح مسند الإمام أحمد بن حنبل","category":"متنوع"},{"id":"ZOpuLIRgu0I","title":"171- نعمتان مغبون فيهما كثير من الناس الصحة والفراغ - شرح مسند الإمام أحمد رضي الله تعالى عنه","publishedAt":"2025-10-01T09:00:56Z","duration":"PT23M19S","thumbnail":"https://i.ytimg.com/vi/ZOpuLIRgu0I/mqdefault.jpg","viewCount":"751","playlistId":"PLEkQk5xrP-tkKprIuGrSdEuBSMsyg5We1","playlistName":"شرح مسند الإمام أحمد بن حنبل","category":"متنوع"},{"id":"BgomuzQsNzw","title":"151- شروط الأضحية | الاستعاذة من فتنة الدجال","publishedAt":"2025-02-15T07:30:05Z","duration":"PT43M12S","thumbnail":"https://i.ytimg.com/vi/BgomuzQsNzw/mqdefault.jpg","viewCount":"745","playlistId":"PLEkQk5xrP-tkKprIuGrSdEuBSMsyg5We1","playlistName":"شرح مسند الإمام أحمد بن حنبل","category":"متنوع"},{"id":"_3AxasItDAs","title":"88- نبذة عن سيدنا زيد بن خارجة رضي اللهُ تعالى عنهما - شرح مسند الإمام أحمد رضي الله تعالى عنه","publishedAt":"2024-03-23T07:00:29Z","duration":"PT12M46S","thumbnail":"https://i.ytimg.com/vi/_3AxasItDAs/mqdefault.jpg","viewCount":"725","playlistId":"PLEkQk5xrP-tkKprIuGrSdEuBSMsyg5We1","playlistName":"شرح مسند الإمام أحمد بن حنبل","category":"متنوع"},{"id":"_zxdEDjvbKM","title":"181- كيف نحبب أبناءنا في التعليم؟ - شرح مسند الإمام أحمد رضي الله تعالى عنه","publishedAt":"2025-11-07T05:41:17Z","duration":"PT33M42S","thumbnail":"https://i.ytimg.com/vi/_zxdEDjvbKM/mqdefault.jpg","viewCount":"723","playlistId":"PLEkQk5xrP-tkKprIuGrSdEuBSMsyg5We1","playlistName":"شرح مسند الإمام أحمد بن حنبل","category":"متنوع"},{"id":"h2xW-LC0OAM","title":"134- درء الحدود بالشبهات - شرح مسند الإمام أحمد رضي الله تعالى عنه","publishedAt":"2024-11-03T06:00:21Z","duration":"PT36M23S","thumbnail":"https://i.ytimg.com/vi/h2xW-LC0OAM/mqdefault.jpg","viewCount":"721","playlistId":"PLEkQk5xrP-tkKprIuGrSdEuBSMsyg5We1","playlistName":"شرح مسند الإمام أحمد بن حنبل","category":"متنوع"},{"id":"rI8HCHV_pmk","title":"160- كيف نفهم النهي عن كسب الحجام وعلاقته بأجر الطبيب - شرح مسند الإمام أحمد رضي الله تعالى عنه","publishedAt":"2025-04-28T09:01:09Z","duration":"PT18M2S","thumbnail":"https://i.ytimg.com/vi/rI8HCHV_pmk/mqdefault.jpg","viewCount":"701","playlistId":"PLEkQk5xrP-tkKprIuGrSdEuBSMsyg5We1","playlistName":"شرح مسند الإمام أحمد بن حنبل","category":"متنوع"},{"id":"axkRwcCMixA","title":"145- حكم الالتفات في الصلاة - شرح مسند الإمام أحمد رضي الله تعالى عنه","publishedAt":"2024-12-17T06:30:01Z","duration":"PT18M4S","thumbnail":"https://i.ytimg.com/vi/axkRwcCMixA/mqdefault.jpg","viewCount":"699","playlistId":"PLEkQk5xrP-tkKprIuGrSdEuBSMsyg5We1","playlistName":"شرح مسند الإمام أحمد بن حنبل","category":"متنوع"},{"id":"Hdy9w6VRM6o","title":"184- ما الفرق بين الرؤيا والرؤية؟ | أ.د.يسري جبر","publishedAt":"2025-11-21T10:00:26Z","duration":"PT20M29S","thumbnail":"https://i.ytimg.com/vi/Hdy9w6VRM6o/mqdefault.jpg","viewCount":"696","playlistId":"PLEkQk5xrP-tkKprIuGrSdEuBSMsyg5We1","playlistName":"شرح مسند الإمام أحمد بن حنبل","category":"متنوع"},{"id":"YamautdzMbw","title":"141- حكم مَن كتم عِلمَه وغَشَّ الناس - شرح مسند الإمام أحمد رضي الله تعالى عنه","publishedAt":"2024-12-04T06:47:32Z","duration":"PT34M33S","thumbnail":"https://i.ytimg.com/vi/YamautdzMbw/mqdefault.jpg","viewCount":"691","playlistId":"PLEkQk5xrP-tkKprIuGrSdEuBSMsyg5We1","playlistName":"شرح مسند الإمام أحمد بن حنبل","category":"متنوع"},{"id":"_g4WM0wK4q0","title":"133- غزوة أحد - شرح مسند الإمام أحمد رضي الله تعالى عنه","publishedAt":"2024-11-01T06:00:17Z","duration":"PT24M54S","thumbnail":"https://i.ytimg.com/vi/_g4WM0wK4q0/mqdefault.jpg","viewCount":"658","playlistId":"PLEkQk5xrP-tkKprIuGrSdEuBSMsyg5We1","playlistName":"شرح مسند الإمام أحمد بن حنبل","category":"متنوع"},{"id":"w0_sMITcKC4","title":"163- النهي عن قتل أربع من الدواب - شرح مسند الإمام أحمد رضي الله تعالى عنه","publishedAt":"2025-07-20T08:01:09Z","duration":"PT32M41S","thumbnail":"https://i.ytimg.com/vi/w0_sMITcKC4/mqdefault.jpg","viewCount":"657","playlistId":"PLEkQk5xrP-tkKprIuGrSdEuBSMsyg5We1","playlistName":"شرح مسند الإمام أحمد بن حنبل","category":"متنوع"},{"id":"_D7EdKk_wvs","title":"167- حكم الصلاة عن الميت وقراءة القرآن له - شرح مسند الإمام أحمد رضي الله تعالى عنه","publishedAt":"2025-08-19T09:00:56Z","duration":"PT17M37S","thumbnail":"https://i.ytimg.com/vi/_D7EdKk_wvs/mqdefault.jpg","viewCount":"651","playlistId":"PLEkQk5xrP-tkKprIuGrSdEuBSMsyg5We1","playlistName":"شرح مسند الإمام أحمد بن حنبل","category":"متنوع"},{"id":"9TEms_yh-E0","title":"168- دعاء الكرب - شرح مسند الإمام أحمد رضي الله تعالى عنه","publishedAt":"2025-09-17T04:15:01Z","duration":"PT18M56S","thumbnail":"https://i.ytimg.com/vi/9TEms_yh-E0/mqdefault.jpg","viewCount":"646","playlistId":"PLEkQk5xrP-tkKprIuGrSdEuBSMsyg5We1","playlistName":"شرح مسند الإمام أحمد بن حنبل","category":"متنوع"}],"total":185,"page":7,"pageSize":24,"totalPages":8}