{"items":[{"id":"PMDhsxCDRa4","title":"19- حكم مَن رأى لمعة في عقبه لم يصلها الماء - كتاب الطهارة","publishedAt":"2023-11-05T06:15:00Z","duration":"PT33M58S","thumbnail":"https://i.ytimg.com/vi/PMDhsxCDRa4/mqdefault.jpg","viewCount":"1045","playlistId":"PLEkQk5xrP-tk_MCBZ706ORCw6gFtFyaGj","playlistName":"شرح سنن الإمام الدارقطني","category":"متنوع"},{"id":"GT9Gi0kfl90","title":"52- وجوب قراءة \"بسم الله الرحمن الرحيم\" في الصلاة والجهر بها","publishedAt":"2025-01-11T07:00:10Z","duration":"PT38M31S","thumbnail":"https://i.ytimg.com/vi/GT9Gi0kfl90/mqdefault.jpg","viewCount":"1041","playlistId":"PLEkQk5xrP-tk_MCBZ706ORCw6gFtFyaGj","playlistName":"شرح سنن الإمام الدارقطني","category":"متنوع"},{"id":"Dj6nvEe7dbg","title":"5- الوضوء بماء أهل الكتاب، وحكم ماء البئر إذا وقع فيها حيوان - كتاب الطهارة","publishedAt":"2023-01-07T09:00:10Z","duration":"PT44M9S","thumbnail":"https://i.ytimg.com/vi/Dj6nvEe7dbg/mqdefault.jpg","viewCount":"1034","playlistId":"PLEkQk5xrP-tk_MCBZ706ORCw6gFtFyaGj","playlistName":"شرح سنن الإمام الدارقطني","category":"متنوع"},{"id":"BwjP_qlAnuw","title":"3- الفرق بين الماء إذا تغير بمجاور أو بمخالط، ومعنى التطهير بالمكاثرة","publishedAt":"2022-12-24T09:00:06Z","duration":"PT39M43S","thumbnail":"https://i.ytimg.com/vi/BwjP_qlAnuw/mqdefault.jpg","viewCount":"1011","playlistId":"PLEkQk5xrP-tk_MCBZ706ORCw6gFtFyaGj","playlistName":"شرح سنن الإمام الدارقطني","category":"متنوع"},{"id":"aBU91JWPCUc","title":"7- حكم دبغ جلود الميتة، وأهمية غسل اليدين لمن استيقظ من نومه - كتاب الطهارة","publishedAt":"2023-01-21T09:00:00Z","duration":"PT46M54S","thumbnail":"https://i.ytimg.com/vi/aBU91JWPCUc/mqdefault.jpg","viewCount":"978","playlistId":"PLEkQk5xrP-tk_MCBZ706ORCw6gFtFyaGj","playlistName":"شرح سنن الإمام الدارقطني","category":"متنوع"},{"id":"M7vsyDMaLXE","title":"6- حكم الوضوء بالماء الذي يُبلُّ فيه الخُبز، ومعنى قوله تعالى\"إِذَا قُمْتُمْ إِلَى الصَّلَاةِ\"","publishedAt":"2023-01-14T09:00:08Z","duration":"PT40M53S","thumbnail":"https://i.ytimg.com/vi/M7vsyDMaLXE/mqdefault.jpg","viewCount":"971","playlistId":"PLEkQk5xrP-tk_MCBZ706ORCw6gFtFyaGj","playlistName":"شرح سنن الإمام الدارقطني","category":"متنوع"},{"id":"SE6cwIgrwOU","title":"17- هل الأُذنان من الرأس فتُمسَح أم من الوجه فتُغسَل - كتاب الطهارة - شرح سنن الإمام الدار قطني","publishedAt":"2023-10-21T06:01:31Z","duration":"PT52M34S","thumbnail":"https://i.ytimg.com/vi/SE6cwIgrwOU/mqdefault.jpg","viewCount":"959","playlistId":"PLEkQk5xrP-tk_MCBZ706ORCw6gFtFyaGj","playlistName":"شرح سنن الإمام الدارقطني","category":"متنوع"},{"id":"2012N7g5CfI","title":"21- حكم المضمضة والاستنشاق في غسل الجنابة | حكم قراءة القرآن للجنب والحائض","publishedAt":"2023-11-18T09:00:03Z","duration":"PT39M4S","thumbnail":"https://i.ytimg.com/vi/2012N7g5CfI/mqdefault.jpg","viewCount":"959","playlistId":"PLEkQk5xrP-tk_MCBZ706ORCw6gFtFyaGj","playlistName":"شرح سنن الإمام الدارقطني","category":"متنوع"},{"id":"FUv9FYWXy0M","title":"31- حكم مَن ضحك في الصلاة - شرح سنن الإمام الدار قطني رضي الله عنه","publishedAt":"2024-02-10T11:34:19Z","duration":"PT35M47S","thumbnail":"https://i.ytimg.com/vi/FUv9FYWXy0M/mqdefault.jpg","viewCount":"946","playlistId":"PLEkQk5xrP-tk_MCBZ706ORCw6gFtFyaGj","playlistName":"شرح سنن الإمام الدارقطني","category":"متنوع"},{"id":"PndGcgKOEAU","title":"42- كتاب الصلاة | شرح سنن الدار قطني رضي الله عنه","publishedAt":"2024-08-17T09:00:24Z","duration":"PT1H1M43S","thumbnail":"https://i.ytimg.com/vi/PndGcgKOEAU/mqdefault.jpg","viewCount":"944","playlistId":"PLEkQk5xrP-tk_MCBZ706ORCw6gFtFyaGj","playlistName":"شرح سنن الإمام الدارقطني","category":"متنوع"},{"id":"Vx_nQLwGoMw","title":"28- غسل الوجه وبيان اسم كل جزء فيه - شرح سنن الإمام الدار قطني رضي الله عنه","publishedAt":"2024-01-06T10:07:40Z","duration":"PT34M59S","thumbnail":"https://i.ytimg.com/vi/Vx_nQLwGoMw/mqdefault.jpg","viewCount":"942","playlistId":"PLEkQk5xrP-tk_MCBZ706ORCw6gFtFyaGj","playlistName":"شرح سنن الإمام الدارقطني","category":"متنوع"},{"id":"FRRhRiWiOvQ","title":"69- ما هي فتنة سيدنا داود؟ | وما الفرق بين سجود التلاوة وسجود الشكر | شرح سنن الإمام الدارقطني","publishedAt":"2025-11-29T10:00:33Z","duration":"PT36M40S","thumbnail":"https://i.ytimg.com/vi/FRRhRiWiOvQ/mqdefault.jpg","viewCount":"939","playlistId":"PLEkQk5xrP-tk_MCBZ706ORCw6gFtFyaGj","playlistName":"شرح سنن الإمام الدارقطني","category":"متنوع"},{"id":"FwTcY8KvvXw","title":"4- حكم الماء المتغيِّر - كتاب الطهارة - شرح سنن الإمام الدار قطني رضي الله عنه.","publishedAt":"2022-12-31T09:00:12Z","duration":"PT29M59S","thumbnail":"https://i.ytimg.com/vi/FwTcY8KvvXw/mqdefault.jpg","viewCount":"896","playlistId":"PLEkQk5xrP-tk_MCBZ706ORCw6gFtFyaGj","playlistName":"شرح سنن الإمام الدارقطني","category":"متنوع"},{"id":"eigpBgP03Fg","title":"50- كيفية رفع اليدين في الصلاة عند الافتتاح والركوع والرفع منه | شرح سنن الإمام الدار قطني","publishedAt":"2024-12-28T06:30:24Z","duration":"PT38M49S","thumbnail":"https://i.ytimg.com/vi/eigpBgP03Fg/mqdefault.jpg","viewCount":"889","playlistId":"PLEkQk5xrP-tk_MCBZ706ORCw6gFtFyaGj","playlistName":"شرح سنن الإمام الدارقطني","category":"متنوع"},{"id":"Dln6vfh_RSk","title":"18- فضل الوضوء واستيعاب جميع القدم بالماء - كتاب الطهارة","publishedAt":"2023-10-28T07:19:33Z","duration":"PT25M54S","thumbnail":"https://i.ytimg.com/vi/Dln6vfh_RSk/mqdefault.jpg","viewCount":"869","playlistId":"PLEkQk5xrP-tk_MCBZ706ORCw6gFtFyaGj","playlistName":"شرح سنن الإمام الدارقطني","category":"متنوع"},{"id":"dfObO0LE7Zw","title":"44- أوقات الكراهة في الصلاة | شرح سنن الدار قطني رضي الله عنه","publishedAt":"2024-08-31T09:05:00Z","duration":"PT48M6S","thumbnail":"https://i.ytimg.com/vi/dfObO0LE7Zw/mqdefault.jpg","viewCount":"853","playlistId":"PLEkQk5xrP-tk_MCBZ706ORCw6gFtFyaGj","playlistName":"شرح سنن الإمام الدارقطني","category":"متنوع"},{"id":"lIabdInko9E","title":"54- حكم قراءة المأموم الفاتحة في الصلاة خلف الإمام | شرح سنن الإمام الدار قطني","publishedAt":"2025-05-03T09:01:07Z","duration":"PT41M34S","thumbnail":"https://i.ytimg.com/vi/lIabdInko9E/mqdefault.jpg","viewCount":"842","playlistId":"PLEkQk5xrP-tk_MCBZ706ORCw6gFtFyaGj","playlistName":"شرح سنن الإمام الدارقطني","category":"متنوع"},{"id":"Qi7jqkTx3DI","title":"47- صفة الصبح والشفق وما تجب به الصلاة | شرح سنن الدار قطني رضي الله عنه","publishedAt":"2024-12-07T09:00:32Z","duration":"PT49M51S","thumbnail":"https://i.ytimg.com/vi/Qi7jqkTx3DI/mqdefault.jpg","viewCount":"834","playlistId":"PLEkQk5xrP-tk_MCBZ706ORCw6gFtFyaGj","playlistName":"شرح سنن الإمام الدارقطني","category":"متنوع"},{"id":"4_vVumfairI","title":"59- صيغ التشهد وأسرار في معانيه | شرح سنن الإمام الدار قطني","publishedAt":"2025-07-26T09:00:05Z","duration":"PT37M56S","thumbnail":"https://i.ytimg.com/vi/4_vVumfairI/mqdefault.jpg","viewCount":"820","playlistId":"PLEkQk5xrP-tk_MCBZ706ORCw6gFtFyaGj","playlistName":"شرح سنن الإمام الدارقطني","category":"متنوع"},{"id":"BllsZS8-P34","title":"53- حكم صلاة من لا يحسن الفاتحة | شرح سنن الإمام الدار قطني","publishedAt":"2025-04-26T09:00:12Z","duration":"PT37M50S","thumbnail":"https://i.ytimg.com/vi/BllsZS8-P34/mqdefault.jpg","viewCount":"818","playlistId":"PLEkQk5xrP-tk_MCBZ706ORCw6gFtFyaGj","playlistName":"شرح سنن الإمام الدارقطني","category":"متنوع"},{"id":"4TweW2pkneo","title":"29- حكم مَن أصابه قيء أو رُعاف أو قلَس أثناء الصلاة","publishedAt":"2024-01-13T09:15:00Z","duration":"PT32M9S","thumbnail":"https://i.ytimg.com/vi/4TweW2pkneo/mqdefault.jpg","viewCount":"811","playlistId":"PLEkQk5xrP-tk_MCBZ706ORCw6gFtFyaGj","playlistName":"شرح سنن الإمام الدارقطني","category":"متنوع"},{"id":"BhsAQh2ctkM","title":"51-  دعاء الاستفتاح - شرح سنن الإمام الدار قطني رضي الله تعالى عنه","publishedAt":"2025-01-04T07:00:06Z","duration":"PT42M31S","thumbnail":"https://i.ytimg.com/vi/BhsAQh2ctkM/mqdefault.jpg","viewCount":"804","playlistId":"PLEkQk5xrP-tk_MCBZ706ORCw6gFtFyaGj","playlistName":"شرح سنن الإمام الدارقطني","category":"متنوع"},{"id":"2A7T72pLzcs","title":"33- حكم التبسم في الصلاة | بيان الكلام الذي يبطل الصلاة | شرح سنن الإمام الدار قطني رضي الله عنه","publishedAt":"2024-03-09T09:00:01Z","duration":"PT37M47S","thumbnail":"https://i.ytimg.com/vi/2A7T72pLzcs/mqdefault.jpg","viewCount":"741","playlistId":"PLEkQk5xrP-tk_MCBZ706ORCw6gFtFyaGj","playlistName":"شرح سنن الإمام الدارقطني","category":"متنوع"},{"id":"IDErcP3LwXE","title":"34- حكم التيمم مع وجود الماء - كتاب الطهارة - شرح سنن الإمام الدار قطني رضي الله عنه","publishedAt":"2024-04-27T10:00:14Z","duration":"PT36M7S","thumbnail":"https://i.ytimg.com/vi/IDErcP3LwXE/mqdefault.jpg","viewCount":"725","playlistId":"PLEkQk5xrP-tk_MCBZ706ORCw6gFtFyaGj","playlistName":"شرح سنن الإمام الدارقطني","category":"متنوع"}],"total":69,"page":2,"pageSize":24,"totalPages":3}