{"items":[{"id":"5inQF-eP0Mw","title":"شرح كتاب الأذكار من كلام سيد الأبرار للإمام النووى رضى الله عنه - المجلس التاسع والثلاثون","publishedAt":"2016-05-04T20:00:03Z","duration":"PT15M35S","thumbnail":"https://i.ytimg.com/vi/5inQF-eP0Mw/mqdefault.jpg","viewCount":"286","playlistId":"PLEkQk5xrP-tkWS57Ubysh0ifJR8dmuEtE","playlistName":"شرح كتاب الأذكار للإمام النووي د. يسرى جبر","category":"حديث"}],"total":49,"page":3,"pageSize":24,"totalPages":3}