{"items":[{"id":"clUWDYt-S5Q","title":"صحيح الإمام البخاري رضي الله عنه كتاب اللباس ( باب إعْفَاءِ اللِّحى ) المجلس الثامن. د. يسري جبر","publishedAt":"2016-11-06T14:03:06Z","duration":"PT44M","thumbnail":"https://i.ytimg.com/vi/clUWDYt-S5Q/mqdefault.jpg","viewCount":"785","playlistId":"PLEkQk5xrP-tmJuzaj4GWRenFoFx9gdbFX","playlistName":"شرح كتاب صحيح الإمام البخاري رضي الله تعالى عنه   أ.د. يسرى جبر","category":"حديث"},{"id":"UwhjVEnuJyM","title":"شرح صحيح الإمام البخاري رضي الله تعالى عنه - كتابُِ الأَحْكَامِ  أ.د. يسري جبر","publishedAt":"2019-09-07T17:23:52Z","duration":"PT31M16S","thumbnail":"https://i.ytimg.com/vi/UwhjVEnuJyM/mqdefault.jpg","viewCount":"714","playlistId":"PLEkQk5xrP-tmJuzaj4GWRenFoFx9gdbFX","playlistName":"شرح كتاب صحيح الإمام البخاري رضي الله تعالى عنه   أ.د. يسرى جبر","category":"حديث"},{"id":"cAjtlydGmb0","title":"شرح صحيح الإمام البخاري رضي الله عنه - كتاب الدعوات (الدعاء عند الكرب)المجلس الرابع د. يسري جبر","publishedAt":"2017-05-07T15:30:16Z","duration":"PT37M33S","thumbnail":"https://i.ytimg.com/vi/cAjtlydGmb0/mqdefault.jpg","viewCount":"616","playlistId":"PLEkQk5xrP-tmJuzaj4GWRenFoFx9gdbFX","playlistName":"شرح كتاب صحيح الإمام البخاري رضي الله تعالى عنه   أ.د. يسرى جبر","category":"حديث"},{"id":"QjwKSezIfj4","title":"‎شرح صحيح الإمام البخاري رضي الله تعالى عنه - كتابُ التوحيد.","publishedAt":"2020-02-23T14:58:45Z","duration":"PT48M42S","thumbnail":"https://i.ytimg.com/vi/QjwKSezIfj4/mqdefault.jpg","viewCount":"592","playlistId":"PLEkQk5xrP-tmJuzaj4GWRenFoFx9gdbFX","playlistName":"شرح كتاب صحيح الإمام البخاري رضي الله تعالى عنه   أ.د. يسرى جبر","category":"حديث"},{"id":"vvvX-KaRXc0","title":"شرح صحيح الإمام البخاري رضي الله تعالى عنه - كتابُِ الأَحْكَامِ   أ.د. يسري جبر","publishedAt":"2019-06-23T19:23:55Z","duration":"PT37M4S","thumbnail":"https://i.ytimg.com/vi/vvvX-KaRXc0/mqdefault.jpg","viewCount":"575","playlistId":"PLEkQk5xrP-tmJuzaj4GWRenFoFx9gdbFX","playlistName":"شرح كتاب صحيح الإمام البخاري رضي الله تعالى عنه   أ.د. يسرى جبر","category":"حديث"},{"id":"GrzoEUgW0Ms","title":"باب قول النبي صلى الله عليه وآله وسلم \"اللهم اغفر لي ما قدمت وما أخرت\" المجلس السابع د. يسري جبر","publishedAt":"2017-07-29T06:47:55Z","duration":"PT52M5S","thumbnail":"https://i.ytimg.com/vi/GrzoEUgW0Ms/mqdefault.jpg","viewCount":"534","playlistId":"PLEkQk5xrP-tmJuzaj4GWRenFoFx9gdbFX","playlistName":"شرح كتاب صحيح الإمام البخاري رضي الله تعالى عنه   أ.د. يسرى جبر","category":"حديث"},{"id":"WD2xPNnPyvo","title":"صحيح الإمام البخاري رضي الله عنه -كتاب القدر (2) د.يسري جبر","publishedAt":"2017-10-14T01:26:26Z","duration":"PT1H5M59S","thumbnail":"https://i.ytimg.com/vi/WD2xPNnPyvo/mqdefault.jpg","viewCount":"510","playlistId":"PLEkQk5xrP-tmJuzaj4GWRenFoFx9gdbFX","playlistName":"شرح كتاب صحيح الإمام البخاري رضي الله تعالى عنه   أ.د. يسرى جبر","category":"حديث"},{"id":"5GrokMGoBvQ","title":"صحيح الإمام البخارى رضى الله عنه - كتاب فضائل القرآن - المجلس الثانى","publishedAt":"2014-12-06T20:01:18Z","duration":"PT1H2M26S","thumbnail":"https://i.ytimg.com/vi/5GrokMGoBvQ/mqdefault.jpg","viewCount":"509","playlistId":"PLEkQk5xrP-tmJuzaj4GWRenFoFx9gdbFX","playlistName":"شرح كتاب صحيح الإمام البخاري رضي الله تعالى عنه   أ.د. يسرى جبر","category":"حديث"},{"id":"LxBp0Iej6Ik","title":"شرح صحيح الإمام البخاري رضي الله عنه - كتاب الرقاق باب البكاء من خشية الله (7) د.يسري جبر","publishedAt":"2017-08-26T06:40:14Z","duration":"PT58M7S","thumbnail":"https://i.ytimg.com/vi/LxBp0Iej6Ik/mqdefault.jpg","viewCount":"490","playlistId":"PLEkQk5xrP-tmJuzaj4GWRenFoFx9gdbFX","playlistName":"شرح كتاب صحيح الإمام البخاري رضي الله تعالى عنه   أ.د. يسرى جبر","category":"حديث"},{"id":"0Fbetlwe9lY","title":"شرح صحيح الإمام البخاري رضي الله تعالى عنه - كتابُِ أَخْبَارِ الآحَادِ  أ.د. يسري جبر","publishedAt":"2019-12-03T16:05:56Z","duration":"PT36M8S","thumbnail":"https://i.ytimg.com/vi/0Fbetlwe9lY/mqdefault.jpg","viewCount":"483","playlistId":"PLEkQk5xrP-tmJuzaj4GWRenFoFx9gdbFX","playlistName":"شرح كتاب صحيح الإمام البخاري رضي الله تعالى عنه   أ.د. يسرى جبر","category":"حديث"},{"id":"_pbuqKYfqxM","title":"‎شرح صحيح الإمام البخاري رضي الله تعالى عنه - كتابُ الاعتصَامِ بالكِتابِ والسُّنَّةِ. أ.د. يسري جبر","publishedAt":"2020-01-06T20:02:45Z","duration":"PT49M11S","thumbnail":"https://i.ytimg.com/vi/_pbuqKYfqxM/mqdefault.jpg","viewCount":"478","playlistId":"PLEkQk5xrP-tmJuzaj4GWRenFoFx9gdbFX","playlistName":"شرح كتاب صحيح الإمام البخاري رضي الله تعالى عنه   أ.د. يسرى جبر","category":"حديث"},{"id":"jzLcmEUao08","title":"شرح صحيح البخاري كتاب الدعوات (الاستعاذة من أرذل العمر ومن فتنة الدنيا)المجلس السادس د.يسري جبر","publishedAt":"2017-05-14T15:20:43Z","duration":"PT44M4S","thumbnail":"https://i.ytimg.com/vi/jzLcmEUao08/mqdefault.jpg","viewCount":"467","playlistId":"PLEkQk5xrP-tmJuzaj4GWRenFoFx9gdbFX","playlistName":"شرح كتاب صحيح الإمام البخاري رضي الله تعالى عنه   أ.د. يسرى جبر","category":"حديث"},{"id":"7dMJPTwag4s","title":"صحيح الإمام البخاري رضي الله عنه - كتاب اللباس باب المتنمصات - المجلس الحادي عشر. د. يسري جبر","publishedAt":"2016-11-16T15:55:20Z","duration":"PT1H14M47S","thumbnail":"https://i.ytimg.com/vi/7dMJPTwag4s/mqdefault.jpg","viewCount":"448","playlistId":"PLEkQk5xrP-tmJuzaj4GWRenFoFx9gdbFX","playlistName":"شرح كتاب صحيح الإمام البخاري رضي الله تعالى عنه   أ.د. يسرى جبر","category":"حديث"},{"id":"O5-60N5pecI","title":"شرح صحيح الإمام البخاري رضي الله تعالى عنه - كتابُِ الأَحْكَامِ  أ.د. يسري جبر","publishedAt":"2019-08-01T17:11:50Z","duration":"PT40M47S","thumbnail":"https://i.ytimg.com/vi/O5-60N5pecI/mqdefault.jpg","viewCount":"446","playlistId":"PLEkQk5xrP-tmJuzaj4GWRenFoFx9gdbFX","playlistName":"شرح كتاب صحيح الإمام البخاري رضي الله تعالى عنه   أ.د. يسرى جبر","category":"حديث"},{"id":"fUgxTnkav_I","title":"‎شرح صحيح الإمام البخاري رضي الله تعالى عنه - كتابُ الاعتصَامِ بالكِتابِ والسُّنَّةِ. أ.د. يسري جبر","publishedAt":"2020-01-03T19:00:41Z","duration":"PT39M15S","thumbnail":"https://i.ytimg.com/vi/fUgxTnkav_I/mqdefault.jpg","viewCount":"445","playlistId":"PLEkQk5xrP-tmJuzaj4GWRenFoFx9gdbFX","playlistName":"شرح كتاب صحيح الإمام البخاري رضي الله تعالى عنه   أ.د. يسرى جبر","category":"حديث"},{"id":"pJbDIV-HJUM","title":"شرح صحيح الإمام البخاري رضي الله تعالى عنه - كتابُ التَّمَنِّي  أ.د. يسري جبر","publishedAt":"2019-10-29T14:41:52Z","duration":"PT24M6S","thumbnail":"https://i.ytimg.com/vi/pJbDIV-HJUM/mqdefault.jpg","viewCount":"436","playlistId":"PLEkQk5xrP-tmJuzaj4GWRenFoFx9gdbFX","playlistName":"شرح كتاب صحيح الإمام البخاري رضي الله تعالى عنه   أ.د. يسرى جبر","category":"حديث"},{"id":"evgwU8TZgMc","title":"‎شرح صحيح الإمام البخاري رضي الله تعالى عنه - كتابُ الاعتصَامِ بالكِتابِ والسُّنَّةِ. أ.د. يسري جبر","publishedAt":"2019-12-26T08:29:54Z","duration":"PT30M54S","thumbnail":"https://i.ytimg.com/vi/evgwU8TZgMc/mqdefault.jpg","viewCount":"431","playlistId":"PLEkQk5xrP-tmJuzaj4GWRenFoFx9gdbFX","playlistName":"شرح كتاب صحيح الإمام البخاري رضي الله تعالى عنه   أ.د. يسرى جبر","category":"حديث"},{"id":"L5CTdHKSD6U","title":"شرح صحيح الإمام البخاري رضي الله تعالى عنه - كتابُِ الأَحْكَامِ أ.د. يسري جبر","publishedAt":"2019-07-23T11:33:47Z","duration":"PT36M47S","thumbnail":"https://i.ytimg.com/vi/L5CTdHKSD6U/mqdefault.jpg","viewCount":"427","playlistId":"PLEkQk5xrP-tmJuzaj4GWRenFoFx9gdbFX","playlistName":"شرح كتاب صحيح الإمام البخاري رضي الله تعالى عنه   أ.د. يسرى جبر","category":"حديث"},{"id":"XQq2-t2N7Ww","title":"شرح صحيح الإمام البخاري رضي الله تعالى عنه - كتابُ التَّمَنِّي     أ.د. يسري جبر","publishedAt":"2019-10-13T08:04:19Z","duration":"PT25M36S","thumbnail":"https://i.ytimg.com/vi/XQq2-t2N7Ww/mqdefault.jpg","viewCount":"420","playlistId":"PLEkQk5xrP-tmJuzaj4GWRenFoFx9gdbFX","playlistName":"شرح كتاب صحيح الإمام البخاري رضي الله تعالى عنه   أ.د. يسرى جبر","category":"حديث"},{"id":"cQ5d6-49ZKc","title":"صحيح الإمام البخاري رضي الله عنه -كتاب الرقاق باب يدخل الجنة سبعون ألفا بغير حساب (13) د.يسري جبر","publishedAt":"2017-09-19T17:44:59Z","duration":"PT52M14S","thumbnail":"https://i.ytimg.com/vi/cQ5d6-49ZKc/mqdefault.jpg","viewCount":"412","playlistId":"PLEkQk5xrP-tmJuzaj4GWRenFoFx9gdbFX","playlistName":"شرح كتاب صحيح الإمام البخاري رضي الله تعالى عنه   أ.د. يسرى جبر","category":"حديث"},{"id":"1IiUwZMhChQ","title":"صحيح الإمام البخارى رضى الله عنه - كتاب فضائل القرآن - المجلس الرابع","publishedAt":"2014-12-20T20:01:49Z","duration":"PT59M41S","thumbnail":"https://i.ytimg.com/vi/1IiUwZMhChQ/mqdefault.jpg","viewCount":"385","playlistId":"PLEkQk5xrP-tmJuzaj4GWRenFoFx9gdbFX","playlistName":"شرح كتاب صحيح الإمام البخاري رضي الله تعالى عنه   أ.د. يسرى جبر","category":"حديث"},{"id":"9CUQMs6fPHc","title":"صحيح البخاري كتاب الدعوات -هل يُصلى على غير النبي صلى الله عليه وآله وسلم - المجلس الخامس د.يسري جبر","publishedAt":"2017-05-08T21:03:56Z","duration":"PT1H6M3S","thumbnail":"https://i.ytimg.com/vi/9CUQMs6fPHc/mqdefault.jpg","viewCount":"374","playlistId":"PLEkQk5xrP-tmJuzaj4GWRenFoFx9gdbFX","playlistName":"شرح كتاب صحيح الإمام البخاري رضي الله تعالى عنه   أ.د. يسرى جبر","category":"حديث"},{"id":"HL9jqjoRRsY","title":"صحيح الإمام البخاري  كتاب الرقاق كيف كان عيش النبي صلى الله عليه وآله وسلم (5) د.يسري جبر","publishedAt":"2017-08-14T14:49:17Z","duration":"PT40M31S","thumbnail":"https://i.ytimg.com/vi/HL9jqjoRRsY/mqdefault.jpg","viewCount":"374","playlistId":"PLEkQk5xrP-tmJuzaj4GWRenFoFx9gdbFX","playlistName":"شرح كتاب صحيح الإمام البخاري رضي الله تعالى عنه   أ.د. يسرى جبر","category":"حديث"},{"id":"Ij1LFLHXL0c","title":"‎شرح صحيح الإمام البخاري رضي الله تعالى عنه - كتابُ الاعتصَامِ بالكِتابِ والسُّنَّةِ. أ.د. يسري جبر","publishedAt":"2020-01-16T13:17:29Z","duration":"PT45M2S","thumbnail":"https://i.ytimg.com/vi/Ij1LFLHXL0c/mqdefault.jpg","viewCount":"372","playlistId":"PLEkQk5xrP-tmJuzaj4GWRenFoFx9gdbFX","playlistName":"شرح كتاب صحيح الإمام البخاري رضي الله تعالى عنه   أ.د. يسرى جبر","category":"حديث"}],"total":219,"page":2,"pageSize":24,"totalPages":10}