{"items":[{"id":"mlMmU3jh_1s","title":"صحيح الإمام البخاري رضي الله عنه - كتاب الحدود ( باب كّمِ التَّعْزِيرُ والأَدَبُ ؟ ) د.يسري جبر","publishedAt":"2018-03-30T05:50:38Z","duration":"PT43M29S","thumbnail":"https://i.ytimg.com/vi/mlMmU3jh_1s/mqdefault.jpg","viewCount":"148","playlistId":"PLEkQk5xrP-tmJuzaj4GWRenFoFx9gdbFX","playlistName":"شرح كتاب صحيح الإمام البخاري رضي الله تعالى عنه   أ.د. يسرى جبر","category":"حديث"},{"id":"6dWH6zFxH2Q","title":"صحيح الإمام البخاري رضي الله عنه - كتاب الطب المجلس الخامس د. يسري جبر","publishedAt":"2016-08-20T18:50:22Z","duration":"PT44M37S","thumbnail":"https://i.ytimg.com/vi/6dWH6zFxH2Q/mqdefault.jpg","viewCount":"148","playlistId":"PLEkQk5xrP-tmJuzaj4GWRenFoFx9gdbFX","playlistName":"شرح كتاب صحيح الإمام البخاري رضي الله تعالى عنه   أ.د. يسرى جبر","category":"حديث"},{"id":"kuM1dqjk6dA","title":"صحيح الإمام البخاري رضي الله عنه - كتاب الأشربة - المجلس الثالث د. يسري جبر","publishedAt":"2016-05-04T19:29:31Z","duration":"PT1H16M34S","thumbnail":"https://i.ytimg.com/vi/kuM1dqjk6dA/mqdefault.jpg","viewCount":"148","playlistId":"PLEkQk5xrP-tmJuzaj4GWRenFoFx9gdbFX","playlistName":"شرح كتاب صحيح الإمام البخاري رضي الله تعالى عنه   أ.د. يسرى جبر","category":"حديث"},{"id":"4QXeIJjMbEU","title":"صحيح الإمام البخاري رضي الله عنه -كتاب الرقاق باب \"الا يظن اولئك انهم مبعوثون\" (12) د.يسري جبر","publishedAt":"2017-09-19T05:06:33Z","duration":"PT31M24S","thumbnail":"https://i.ytimg.com/vi/4QXeIJjMbEU/mqdefault.jpg","viewCount":"147","playlistId":"PLEkQk5xrP-tmJuzaj4GWRenFoFx9gdbFX","playlistName":"شرح كتاب صحيح الإمام البخاري رضي الله تعالى عنه   أ.د. يسرى جبر","category":"حديث"},{"id":"TUpUOtbjgTo","title":"صحيح الإمام البخاري رضي الله عنه - كتاب النفقات  - المجلس الأول","publishedAt":"2016-01-10T11:20:23Z","duration":"PT1H57S","thumbnail":"https://i.ytimg.com/vi/TUpUOtbjgTo/mqdefault.jpg","viewCount":"146","playlistId":"PLEkQk5xrP-tmJuzaj4GWRenFoFx9gdbFX","playlistName":"شرح كتاب صحيح الإمام البخاري رضي الله تعالى عنه   أ.د. يسرى جبر","category":"حديث"},{"id":"2DZoUIMaEZc","title":"صحيح الإمام البخاري رضي الله عنه - كتاب الأشربة - المجلس الثاني د. يسري جبر","publishedAt":"2016-05-02T14:08:52Z","duration":"PT56M40S","thumbnail":"https://i.ytimg.com/vi/2DZoUIMaEZc/mqdefault.jpg","viewCount":"146","playlistId":"PLEkQk5xrP-tmJuzaj4GWRenFoFx9gdbFX","playlistName":"شرح كتاب صحيح الإمام البخاري رضي الله تعالى عنه   أ.د. يسرى جبر","category":"حديث"},{"id":"u_IH3b7eU9k","title":"صحيح الإمام البخاري رضي الله عنه - كتاب اللباس المجلس الخامس د. يسري جبر","publishedAt":"2016-10-06T20:50:11Z","duration":"PT1H16M28S","thumbnail":"https://i.ytimg.com/vi/u_IH3b7eU9k/mqdefault.jpg","viewCount":"145","playlistId":"PLEkQk5xrP-tmJuzaj4GWRenFoFx9gdbFX","playlistName":"شرح كتاب صحيح الإمام البخاري رضي الله تعالى عنه   أ.د. يسرى جبر","category":"حديث"},{"id":"u0i703Nqq9E","title":"صحيح الإمام البخاري رضي الله عنه - ختام كتاب الأشربة وبداية كتاب المرضى د. يسري جبر","publishedAt":"2016-05-10T15:00:55Z","duration":"PT1H7M43S","thumbnail":"https://i.ytimg.com/vi/u0i703Nqq9E/mqdefault.jpg","viewCount":"145","playlistId":"PLEkQk5xrP-tmJuzaj4GWRenFoFx9gdbFX","playlistName":"شرح كتاب صحيح الإمام البخاري رضي الله تعالى عنه   أ.د. يسرى جبر","category":"حديث"},{"id":"l22wNfBkN5M","title":"صحيح الإمام البخاري رضي الله تعالى عنه - كتاب الأطعمة - المجلس الخامس","publishedAt":"2016-03-02T18:53:32Z","duration":"PT44M57S","thumbnail":"https://i.ytimg.com/vi/l22wNfBkN5M/mqdefault.jpg","viewCount":"143","playlistId":"PLEkQk5xrP-tmJuzaj4GWRenFoFx9gdbFX","playlistName":"شرح كتاب صحيح الإمام البخاري رضي الله تعالى عنه   أ.د. يسرى جبر","category":"حديث"},{"id":"SnrYkYPIbqY","title":"صحيح الإمام البخارى رضى الله عنه - كتاب النكاح المجلس الخامس عشر","publishedAt":"2015-04-19T15:26:14Z","duration":"PT1H3M52S","thumbnail":"https://i.ytimg.com/vi/SnrYkYPIbqY/mqdefault.jpg","viewCount":"143","playlistId":"PLEkQk5xrP-tmJuzaj4GWRenFoFx9gdbFX","playlistName":"شرح كتاب صحيح الإمام البخاري رضي الله تعالى عنه   أ.د. يسرى جبر","category":"حديث"},{"id":"mqfjC6qXo4E","title":"صحيح الإمام البخاري رضي الله عنه - كتاب الأطعمة - المجلس الثانى","publishedAt":"2016-01-24T12:14:28Z","duration":"PT1H9M6S","thumbnail":"https://i.ytimg.com/vi/mqfjC6qXo4E/mqdefault.jpg","viewCount":"142","playlistId":"PLEkQk5xrP-tmJuzaj4GWRenFoFx9gdbFX","playlistName":"شرح كتاب صحيح الإمام البخاري رضي الله تعالى عنه   أ.د. يسرى جبر","category":"حديث"},{"id":"1W9l6yIZmB4","title":"صحيح الإمام البخارى رضى الله عنه - كتاب النكاح المجلس الرابع عشر","publishedAt":"2015-04-12T05:16:11Z","duration":"PT1H8M22S","thumbnail":"https://i.ytimg.com/vi/1W9l6yIZmB4/mqdefault.jpg","viewCount":"142","playlistId":"PLEkQk5xrP-tmJuzaj4GWRenFoFx9gdbFX","playlistName":"شرح كتاب صحيح الإمام البخاري رضي الله تعالى عنه   أ.د. يسرى جبر","category":"حديث"},{"id":"-CwRZs2AaJ4","title":"صحيح الإمام البخاري رضي الله عنه - كتاب الطلاق - المجلس الثامن","publishedAt":"2015-11-08T04:07:48Z","duration":"PT48M11S","thumbnail":"https://i.ytimg.com/vi/-CwRZs2AaJ4/mqdefault.jpg","viewCount":"142","playlistId":"PLEkQk5xrP-tmJuzaj4GWRenFoFx9gdbFX","playlistName":"شرح كتاب صحيح الإمام البخاري رضي الله تعالى عنه   أ.د. يسرى جبر","category":"حديث"},{"id":"_oKDBQycth8","title":"صحيح الإمام البخارى رضى الله عنه - كتاب النكاح - المجلس العاشر","publishedAt":"2015-03-15T03:22:22Z","duration":"PT59M38S","thumbnail":"https://i.ytimg.com/vi/_oKDBQycth8/mqdefault.jpg","viewCount":"142","playlistId":"PLEkQk5xrP-tmJuzaj4GWRenFoFx9gdbFX","playlistName":"شرح كتاب صحيح الإمام البخاري رضي الله تعالى عنه   أ.د. يسرى جبر","category":"حديث"},{"id":"u2Z8nk7xGH0","title":"صحيح الإمام البخارى رضى الله عنه - كتاب النكاح المجلس الحادى عشر","publishedAt":"2015-03-22T14:48:08Z","duration":"PT43M14S","thumbnail":"https://i.ytimg.com/vi/u2Z8nk7xGH0/mqdefault.jpg","viewCount":"141","playlistId":"PLEkQk5xrP-tmJuzaj4GWRenFoFx9gdbFX","playlistName":"شرح كتاب صحيح الإمام البخاري رضي الله تعالى عنه   أ.د. يسرى جبر","category":"حديث"},{"id":"DifU4UaENlA","title":"صحيح الإمام البخاري رضي الله عنه - كتاب الطلاق - المجلس الخامس","publishedAt":"2015-08-10T17:53:30Z","duration":"PT1H6M36S","thumbnail":"https://i.ytimg.com/vi/DifU4UaENlA/mqdefault.jpg","viewCount":"139","playlistId":"PLEkQk5xrP-tmJuzaj4GWRenFoFx9gdbFX","playlistName":"شرح كتاب صحيح الإمام البخاري رضي الله تعالى عنه   أ.د. يسرى جبر","category":"حديث"},{"id":"8KKT6iFiqcE","title":"شرح صحيح الإمام البخاري رضي الله تعالى عنه - كتاب التعبير د. يسري جبر","publishedAt":"2018-11-24T16:02:59Z","duration":"PT16M11S","thumbnail":"https://i.ytimg.com/vi/8KKT6iFiqcE/mqdefault.jpg","viewCount":"139","playlistId":"PLEkQk5xrP-tmJuzaj4GWRenFoFx9gdbFX","playlistName":"شرح كتاب صحيح الإمام البخاري رضي الله تعالى عنه   أ.د. يسرى جبر","category":"حديث"},{"id":"mpbjqhMX9ic","title":"صحيح الإمام البخارى رضى الله عنه - كتاب النكاح - المجلس التاسع","publishedAt":"2015-03-08T14:33:07Z","duration":"PT1H1M8S","thumbnail":"https://i.ytimg.com/vi/mpbjqhMX9ic/mqdefault.jpg","viewCount":"139","playlistId":"PLEkQk5xrP-tmJuzaj4GWRenFoFx9gdbFX","playlistName":"شرح كتاب صحيح الإمام البخاري رضي الله تعالى عنه   أ.د. يسرى جبر","category":"حديث"},{"id":"wqeBDPSAEQM","title":"صحيح الإمام البخاري رضي الله عنه - كتاب الدِّيات المجلس الثاني ( د.يسري جبر)","publishedAt":"2018-04-08T16:51:47Z","duration":"PT32M1S","thumbnail":"https://i.ytimg.com/vi/wqeBDPSAEQM/mqdefault.jpg","viewCount":"137","playlistId":"PLEkQk5xrP-tmJuzaj4GWRenFoFx9gdbFX","playlistName":"شرح كتاب صحيح الإمام البخاري رضي الله تعالى عنه   أ.د. يسرى جبر","category":"حديث"},{"id":"Ls1bmoyeGbQ","title":"صحيح الإمام البخاري رضي الله عنه - كتاب الأدب - المجلس السابع  د. يسري جبر","publishedAt":"2016-12-26T19:41:30Z","duration":"PT29M44S","thumbnail":"https://i.ytimg.com/vi/Ls1bmoyeGbQ/mqdefault.jpg","viewCount":"137","playlistId":"PLEkQk5xrP-tmJuzaj4GWRenFoFx9gdbFX","playlistName":"شرح كتاب صحيح الإمام البخاري رضي الله تعالى عنه   أ.د. يسرى جبر","category":"حديث"},{"id":"Ji_8lkAyxsk","title":"صحيح الإمام البخاري رضي الله عنه - كتاب استتابة المُرْتدِّين والمُعاندين وقتالهم - المجلس الرابع.","publishedAt":"2018-08-07T09:29:53Z","duration":"PT41M22S","thumbnail":"https://i.ytimg.com/vi/Ji_8lkAyxsk/mqdefault.jpg","viewCount":"134","playlistId":"PLEkQk5xrP-tmJuzaj4GWRenFoFx9gdbFX","playlistName":"شرح كتاب صحيح الإمام البخاري رضي الله تعالى عنه   أ.د. يسرى جبر","category":"حديث"},{"id":"l-siBlIVPtY","title":"صحيح الإمام البخاري رضي الله عنه - كتاب الذبائح والصيد والتسمية على الصيد -المجلس الثاني د. يسري جبر","publishedAt":"2016-03-28T05:12:33Z","duration":"PT1H30S","thumbnail":"https://i.ytimg.com/vi/l-siBlIVPtY/mqdefault.jpg","viewCount":"133","playlistId":"PLEkQk5xrP-tmJuzaj4GWRenFoFx9gdbFX","playlistName":"شرح كتاب صحيح الإمام البخاري رضي الله تعالى عنه   أ.د. يسرى جبر","category":"حديث"},{"id":"D9Y1ElMtBOE","title":"صحيح الإمام البخاري رضي الله تعالى عنه - كتاب الأطعمة - المجلس الرابع","publishedAt":"2016-01-31T20:40:03Z","duration":"PT1H5M44S","thumbnail":"https://i.ytimg.com/vi/D9Y1ElMtBOE/mqdefault.jpg","viewCount":"133","playlistId":"PLEkQk5xrP-tmJuzaj4GWRenFoFx9gdbFX","playlistName":"شرح كتاب صحيح الإمام البخاري رضي الله تعالى عنه   أ.د. يسرى جبر","category":"حديث"},{"id":"WdLAYpWWrJo","title":"صحيح الإمام البخاري رضي الله عنه ختام كتاب الاستئذان باب لا يتناجى اثنان دون الثالث - المجلس السابع","publishedAt":"2017-04-19T18:38:00Z","duration":"PT55M34S","thumbnail":"https://i.ytimg.com/vi/WdLAYpWWrJo/mqdefault.jpg","viewCount":"128","playlistId":"PLEkQk5xrP-tmJuzaj4GWRenFoFx9gdbFX","playlistName":"شرح كتاب صحيح الإمام البخاري رضي الله تعالى عنه   أ.د. يسرى جبر","category":"حديث"}],"total":219,"page":7,"pageSize":24,"totalPages":10}