{"items":[{"id":"LoC7xzp1qzI","title":"صحيح الإمام البخاري رضي الله عنه - كتاب الدِّيات المجلس الرابع ( د.يسري جبر)","publishedAt":"2018-05-22T23:25:09Z","duration":"PT34M42S","thumbnail":"https://i.ytimg.com/vi/LoC7xzp1qzI/mqdefault.jpg","viewCount":"128","playlistId":"PLEkQk5xrP-tmJuzaj4GWRenFoFx9gdbFX","playlistName":"شرح كتاب صحيح الإمام البخاري رضي الله تعالى عنه   أ.د. يسرى جبر","category":"حديث"},{"id":"D7kE8QWxxug","title":"صحيح الإمام البخاري رضي الله عنه - كتاب الحدود (باب نَفْي أَهْل المَعَاصِي وَالمُخَنَّثِن)د.يسري جبر","publishedAt":"2018-03-30T05:49:26Z","duration":"PT33M48S","thumbnail":"https://i.ytimg.com/vi/D7kE8QWxxug/mqdefault.jpg","viewCount":"128","playlistId":"PLEkQk5xrP-tmJuzaj4GWRenFoFx9gdbFX","playlistName":"شرح كتاب صحيح الإمام البخاري رضي الله تعالى عنه   أ.د. يسرى جبر","category":"حديث"},{"id":"WdLAYpWWrJo","title":"صحيح الإمام البخاري رضي الله عنه ختام كتاب الاستئذان باب لا يتناجى اثنان دون الثالث - المجلس السابع","publishedAt":"2017-04-19T18:38:00Z","duration":"PT55M34S","thumbnail":"https://i.ytimg.com/vi/WdLAYpWWrJo/mqdefault.jpg","viewCount":"128","playlistId":"PLEkQk5xrP-tmJuzaj4GWRenFoFx9gdbFX","playlistName":"شرح كتاب صحيح الإمام البخاري رضي الله تعالى عنه   أ.د. يسرى جبر","category":"حديث"},{"id":"YrFAIynXGms","title":"صحيح الإمام البخاري رضي الله تعالى عنه - كتاب الأطعمة - المجلس التاسع والأخير","publishedAt":"2016-03-19T11:18:16Z","duration":"PT39M55S","thumbnail":"https://i.ytimg.com/vi/YrFAIynXGms/mqdefault.jpg","viewCount":"125","playlistId":"PLEkQk5xrP-tmJuzaj4GWRenFoFx9gdbFX","playlistName":"شرح كتاب صحيح الإمام البخاري رضي الله تعالى عنه   أ.د. يسرى جبر","category":"حديث"},{"id":"YD2bcdRUtgQ","title":"صحيح الإمام البخاري رضي الله عنه - كتاب النفقات - المجلس الثانى","publishedAt":"2016-01-11T19:09:25Z","duration":"PT53M36S","thumbnail":"https://i.ytimg.com/vi/YD2bcdRUtgQ/mqdefault.jpg","viewCount":"124","playlistId":"PLEkQk5xrP-tmJuzaj4GWRenFoFx9gdbFX","playlistName":"شرح كتاب صحيح الإمام البخاري رضي الله تعالى عنه   أ.د. يسرى جبر","category":"حديث"},{"id":"WZ8RgU-fZUM","title":"صحيح الإمام البخاري رضي الله تعالى عنه - كتاب الأطعمة - المجلس الثامن","publishedAt":"2016-03-18T14:20:39Z","duration":"PT1H49S","thumbnail":"https://i.ytimg.com/vi/WZ8RgU-fZUM/mqdefault.jpg","viewCount":"124","playlistId":"PLEkQk5xrP-tmJuzaj4GWRenFoFx9gdbFX","playlistName":"شرح كتاب صحيح الإمام البخاري رضي الله تعالى عنه   أ.د. يسرى جبر","category":"حديث"},{"id":"nsuhiA5uEvY","title":"صحيح الإمام البخاري رضي الله عنه - كتاب الطب المجلس السابع  د. يسري جبر","publishedAt":"2016-08-31T19:24:32Z","duration":"PT40M45S","thumbnail":"https://i.ytimg.com/vi/nsuhiA5uEvY/mqdefault.jpg","viewCount":"122","playlistId":"PLEkQk5xrP-tmJuzaj4GWRenFoFx9gdbFX","playlistName":"شرح كتاب صحيح الإمام البخاري رضي الله تعالى عنه   أ.د. يسرى جبر","category":"حديث"},{"id":"bOnCNdSIHGI","title":"صحيح الإمام البخاري رضي الله عنه - كتاب الأدب - المجلس الخامس عشر د. يسري جبر","publishedAt":"2017-02-23T15:26:23Z","duration":"PT41M45S","thumbnail":"https://i.ytimg.com/vi/bOnCNdSIHGI/mqdefault.jpg","viewCount":"120","playlistId":"PLEkQk5xrP-tmJuzaj4GWRenFoFx9gdbFX","playlistName":"شرح كتاب صحيح الإمام البخاري رضي الله تعالى عنه   أ.د. يسرى جبر","category":"حديث"},{"id":"Waqqq31HJRM","title":"صحيح الإمام البخاري رضي الله عنه - كتاب الدِّيات المجلس الثالث ( د.يسري جبر)","publishedAt":"2018-05-12T20:57:13Z","duration":"PT19M23S","thumbnail":"https://i.ytimg.com/vi/Waqqq31HJRM/mqdefault.jpg","viewCount":"120","playlistId":"PLEkQk5xrP-tmJuzaj4GWRenFoFx9gdbFX","playlistName":"شرح كتاب صحيح الإمام البخاري رضي الله تعالى عنه   أ.د. يسرى جبر","category":"حديث"},{"id":"Dv_ql5quUiU","title":"صحيح الإمام البخاري رضي الله عنه - ختام كتاب الأضاحي وبداية كتاب الأشربة - المجلس الأول د. يسري جبر","publishedAt":"2016-04-25T14:48:48Z","duration":"PT1H5M18S","thumbnail":"https://i.ytimg.com/vi/Dv_ql5quUiU/mqdefault.jpg","viewCount":"120","playlistId":"PLEkQk5xrP-tmJuzaj4GWRenFoFx9gdbFX","playlistName":"شرح كتاب صحيح الإمام البخاري رضي الله تعالى عنه   أ.د. يسرى جبر","category":"حديث"},{"id":"uaT-Id9cYWw","title":"صحيح الإمام البخاري رضي الله تعالى عنه - كتاب الأطعمة - المجلس السابع","publishedAt":"2016-03-07T05:10:52Z","duration":"PT32M14S","thumbnail":"https://i.ytimg.com/vi/uaT-Id9cYWw/mqdefault.jpg","viewCount":"118","playlistId":"PLEkQk5xrP-tmJuzaj4GWRenFoFx9gdbFX","playlistName":"شرح كتاب صحيح الإمام البخاري رضي الله تعالى عنه   أ.د. يسرى جبر","category":"حديث"},{"id":"zN8iLmR8j8g","title":"صحيح الإمام البخاري رضي الله عنه - كتاب الطب المجلس الثالث د. يسري جبر","publishedAt":"2016-08-19T19:39:09Z","duration":"PT53M4S","thumbnail":"https://i.ytimg.com/vi/zN8iLmR8j8g/mqdefault.jpg","viewCount":"118","playlistId":"PLEkQk5xrP-tmJuzaj4GWRenFoFx9gdbFX","playlistName":"شرح كتاب صحيح الإمام البخاري رضي الله تعالى عنه   أ.د. يسرى جبر","category":"حديث"},{"id":"dqHRvrCprpc","title":"صحيح البخاري - كتاب الفرائض - باب ميراث الزوج مع الولد وغيره","publishedAt":"2018-01-30T13:15:08Z","duration":"PT1H5M4S","thumbnail":"https://i.ytimg.com/vi/dqHRvrCprpc/mqdefault.jpg","viewCount":"118","playlistId":"PLEkQk5xrP-tmJuzaj4GWRenFoFx9gdbFX","playlistName":"شرح كتاب صحيح الإمام البخاري رضي الله تعالى عنه   أ.د. يسرى جبر","category":"حديث"},{"id":"OEPlPLX6clo","title":"صحيح الإمام البخاري رضي الله عنه - كتاب الأشربة - المجلس الرابع د. يسري جبر","publishedAt":"2016-05-10T02:38:46Z","duration":"PT56M37S","thumbnail":"https://i.ytimg.com/vi/OEPlPLX6clo/mqdefault.jpg","viewCount":"117","playlistId":"PLEkQk5xrP-tmJuzaj4GWRenFoFx9gdbFX","playlistName":"شرح كتاب صحيح الإمام البخاري رضي الله تعالى عنه   أ.د. يسرى جبر","category":"حديث"},{"id":"arKYZiSE6y4","title":"صحيح الإمام البخاري رضي الله عنه - كتاب الدِّيات المجلس السادس د.يسري جبر","publishedAt":"2018-07-07T21:22:12Z","duration":"PT45M34S","thumbnail":"https://i.ytimg.com/vi/arKYZiSE6y4/mqdefault.jpg","viewCount":"115","playlistId":"PLEkQk5xrP-tmJuzaj4GWRenFoFx9gdbFX","playlistName":"شرح كتاب صحيح الإمام البخاري رضي الله تعالى عنه   أ.د. يسرى جبر","category":"حديث"},{"id":"20WBTIwot_k","title":"صحيح الإمام البخاري رضي الله عنه - كتاب الطلاق - المجلس الثالث","publishedAt":"2015-05-25T19:13:12Z","duration":"PT1H6M29S","thumbnail":"https://i.ytimg.com/vi/20WBTIwot_k/mqdefault.jpg","viewCount":"114","playlistId":"PLEkQk5xrP-tmJuzaj4GWRenFoFx9gdbFX","playlistName":"شرح كتاب صحيح الإمام البخاري رضي الله تعالى عنه   أ.د. يسرى جبر","category":"حديث"},{"id":"kp2pYW8YR4Q","title":"صحيح الإمام البخاري رضي الله عنه - كتاب اللباس المجلس الرابع د. يسري جبر","publishedAt":"2016-10-05T20:36:52Z","duration":"PT40M33S","thumbnail":"https://i.ytimg.com/vi/kp2pYW8YR4Q/mqdefault.jpg","viewCount":"113","playlistId":"PLEkQk5xrP-tmJuzaj4GWRenFoFx9gdbFX","playlistName":"شرح كتاب صحيح الإمام البخاري رضي الله تعالى عنه   أ.د. يسرى جبر","category":"حديث"},{"id":"8cg7gwJGoTQ","title":"صحيح الإمام البخاري رضي الله عنه - كتاب الطلاق - المجلس الثالث عشر","publishedAt":"2015-12-13T13:22:10Z","duration":"PT46M5S","thumbnail":"https://i.ytimg.com/vi/8cg7gwJGoTQ/mqdefault.jpg","viewCount":"113","playlistId":"PLEkQk5xrP-tmJuzaj4GWRenFoFx9gdbFX","playlistName":"شرح كتاب صحيح الإمام البخاري رضي الله تعالى عنه   أ.د. يسرى جبر","category":"حديث"},{"id":"OwfQCQrvQMY","title":"صحيح الإمام البخاري رضي الله عنه - كتاب الأيمان والنذور (باب قول الرجل \"لَعَمْرُ الله\") د.يسري جبر","publishedAt":"2017-11-07T12:09:10Z","duration":"PT31M46S","thumbnail":"https://i.ytimg.com/vi/OwfQCQrvQMY/mqdefault.jpg","viewCount":"110","playlistId":"PLEkQk5xrP-tmJuzaj4GWRenFoFx9gdbFX","playlistName":"شرح كتاب صحيح الإمام البخاري رضي الله تعالى عنه   أ.د. يسرى جبر","category":"حديث"},{"id":"9pBYE8EtzkM","title":"صحيح الإمام البخاري رضي الله عنه - كتاب الذبائح والصيد والتسمية على الصيد -المجلس الرابع د. يسري جبر","publishedAt":"2016-04-04T03:02:12Z","duration":"PT1H4M10S","thumbnail":"https://i.ytimg.com/vi/9pBYE8EtzkM/mqdefault.jpg","viewCount":"110","playlistId":"PLEkQk5xrP-tmJuzaj4GWRenFoFx9gdbFX","playlistName":"شرح كتاب صحيح الإمام البخاري رضي الله تعالى عنه   أ.د. يسرى جبر","category":"حديث"},{"id":"X3aqJi0IHuE","title":"صحيح الإمام البخاري رضي الله عنه كتاب الاستئذان باب من زار قوما فقال عندهم - المجلس السادس","publishedAt":"2017-04-17T18:47:41Z","duration":"PT34M55S","thumbnail":"https://i.ytimg.com/vi/X3aqJi0IHuE/mqdefault.jpg","viewCount":"110","playlistId":"PLEkQk5xrP-tmJuzaj4GWRenFoFx9gdbFX","playlistName":"شرح كتاب صحيح الإمام البخاري رضي الله تعالى عنه   أ.د. يسرى جبر","category":"حديث"},{"id":"ADp3dKycHII","title":"صحيح الإمام البخاري رضي الله عنه - كتاب الطلاق - المجلس التاسع","publishedAt":"2015-11-30T19:12:25Z","duration":"PT41M3S","thumbnail":"https://i.ytimg.com/vi/ADp3dKycHII/mqdefault.jpg","viewCount":"107","playlistId":"PLEkQk5xrP-tmJuzaj4GWRenFoFx9gdbFX","playlistName":"شرح كتاب صحيح الإمام البخاري رضي الله تعالى عنه   أ.د. يسرى جبر","category":"حديث"},{"id":"xyHoQKBe0p4","title":"صحيح الإمام البخاري رضي الله عنه - كتاب الأيمان والنذور (تكملة باب كيف كانت يمين النبي) د.يسري جبر","publishedAt":"2017-10-28T07:11:55Z","duration":"PT29M5S","thumbnail":"https://i.ytimg.com/vi/xyHoQKBe0p4/mqdefault.jpg","viewCount":"106","playlistId":"PLEkQk5xrP-tmJuzaj4GWRenFoFx9gdbFX","playlistName":"شرح كتاب صحيح الإمام البخاري رضي الله تعالى عنه   أ.د. يسرى جبر","category":"حديث"},{"id":"h1wgUuJt2V0","title":"صحيح الإمام البخاري رضي الله عنه - كتاب الطلاق - المجلس العاشر","publishedAt":"2015-12-02T17:57:06Z","duration":"PT35M39S","thumbnail":"https://i.ytimg.com/vi/h1wgUuJt2V0/mqdefault.jpg","viewCount":"105","playlistId":"PLEkQk5xrP-tmJuzaj4GWRenFoFx9gdbFX","playlistName":"شرح كتاب صحيح الإمام البخاري رضي الله تعالى عنه   أ.د. يسرى جبر","category":"حديث"}],"total":219,"page":8,"pageSize":24,"totalPages":10}