{"items":[{"id":"piEUVIPnH6w","title":"صحيح الإمام البخاري رضي الله عنه - كتاب الرقاق باب من أحب لقاء الله أحب الله لقاءه (10) د.يسري جبر","publishedAt":"2017-09-10T21:02:21Z","duration":"PT37M40S","thumbnail":"https://i.ytimg.com/vi/piEUVIPnH6w/mqdefault.jpg","viewCount":"284","playlistId":"PLEkQk5xrP-tmJuzaj4GWRenFoFx9gdbFX","playlistName":"شرح كتاب صحيح الإمام البخاري رضي الله تعالى عنه   أ.د. يسرى جبر","category":"حديث"},{"id":"VLXaUJnOBKg","title":"صحيح الإمام البخاري رضي الله عنه - كتاب الأدب - باب عقوق الوالدين - المجلس الثاني د. يسري جبر","publishedAt":"2016-11-21T19:02:42Z","duration":"PT42M43S","thumbnail":"https://i.ytimg.com/vi/VLXaUJnOBKg/mqdefault.jpg","viewCount":"283","playlistId":"PLEkQk5xrP-tmJuzaj4GWRenFoFx9gdbFX","playlistName":"شرح كتاب صحيح الإمام البخاري رضي الله تعالى عنه   أ.د. يسرى جبر","category":"حديث"},{"id":"wlKwfcNocoo","title":"شرح صحيح الإمام البخاري رضي الله تعالى عنه - كتاب الحِيَل. د. يسري جبر","publishedAt":"2018-10-27T13:51:41Z","duration":"PT36M","thumbnail":"https://i.ytimg.com/vi/wlKwfcNocoo/mqdefault.jpg","viewCount":"282","playlistId":"PLEkQk5xrP-tmJuzaj4GWRenFoFx9gdbFX","playlistName":"شرح كتاب صحيح الإمام البخاري رضي الله تعالى عنه   أ.د. يسرى جبر","category":"حديث"},{"id":"gXqR7GIp5_0","title":"صحيح الإمام البخاري رضي الله عنه - كتاب الأدب - المجلس السادس عشر د. يسري جبر","publishedAt":"2017-02-23T17:45:00Z","duration":"PT1H19M10S","thumbnail":"https://i.ytimg.com/vi/gXqR7GIp5_0/mqdefault.jpg","viewCount":"279","playlistId":"PLEkQk5xrP-tmJuzaj4GWRenFoFx9gdbFX","playlistName":"شرح كتاب صحيح الإمام البخاري رضي الله تعالى عنه   أ.د. يسرى جبر","category":"حديث"},{"id":"m40SeuWKYwQ","title":"صحيح الإمام البخاري رضي الله عنه - كتاب الأدب - المجلس التاسع  د. يسري جبر","publishedAt":"2017-01-03T20:03:51Z","duration":"PT49M50S","thumbnail":"https://i.ytimg.com/vi/m40SeuWKYwQ/mqdefault.jpg","viewCount":"276","playlistId":"PLEkQk5xrP-tmJuzaj4GWRenFoFx9gdbFX","playlistName":"شرح كتاب صحيح الإمام البخاري رضي الله تعالى عنه   أ.د. يسرى جبر","category":"حديث"},{"id":"lzHb2ecr8Ak","title":"صحيح الإمام البخاري رضي الله عنه -كتاب القدر (4) د.يسري جبر","publishedAt":"2017-10-21T08:13:06Z","duration":"PT50M14S","thumbnail":"https://i.ytimg.com/vi/lzHb2ecr8Ak/mqdefault.jpg","viewCount":"262","playlistId":"PLEkQk5xrP-tmJuzaj4GWRenFoFx9gdbFX","playlistName":"شرح كتاب صحيح الإمام البخاري رضي الله تعالى عنه   أ.د. يسرى جبر","category":"حديث"},{"id":"Fwvih36VnWc","title":"صحيح الإمام البخاري رضي الله عنه - كتاب الأدب - المجلس السابع عشر د. يسري جبر","publishedAt":"2017-02-26T20:28:59Z","duration":"PT47M31S","thumbnail":"https://i.ytimg.com/vi/Fwvih36VnWc/mqdefault.jpg","viewCount":"259","playlistId":"PLEkQk5xrP-tmJuzaj4GWRenFoFx9gdbFX","playlistName":"شرح كتاب صحيح الإمام البخاري رضي الله تعالى عنه   أ.د. يسرى جبر","category":"حديث"},{"id":"B9j-ind1TIk","title":"صحيح الإمام البخاري رضي الله عنه - كتاب الأدب - المجلس الحادي والعشرون د. يسري جبر","publishedAt":"2017-03-13T19:22:32Z","duration":"PT40M48S","thumbnail":"https://i.ytimg.com/vi/B9j-ind1TIk/mqdefault.jpg","viewCount":"256","playlistId":"PLEkQk5xrP-tmJuzaj4GWRenFoFx9gdbFX","playlistName":"شرح كتاب صحيح الإمام البخاري رضي الله تعالى عنه   أ.د. يسرى جبر","category":"حديث"},{"id":"OXbIsVATU1A","title":"صحيح الإمام البخاري رضي الله عنه - كتاب الأدب - المجلس الثاني عشر د. يسري جبر","publishedAt":"2017-02-07T21:52:28Z","duration":"PT59M11S","thumbnail":"https://i.ytimg.com/vi/OXbIsVATU1A/mqdefault.jpg","viewCount":"253","playlistId":"PLEkQk5xrP-tmJuzaj4GWRenFoFx9gdbFX","playlistName":"شرح كتاب صحيح الإمام البخاري رضي الله تعالى عنه   أ.د. يسرى جبر","category":"حديث"},{"id":"dYFsmsQmYak","title":"صحيح الإمام البخاري رضي الله عنه - كتاب الرقاق باب نفخ الصور(11) د.يسري جبر","publishedAt":"2017-09-18T12:12:33Z","duration":"PT58M19S","thumbnail":"https://i.ytimg.com/vi/dYFsmsQmYak/mqdefault.jpg","viewCount":"253","playlistId":"PLEkQk5xrP-tmJuzaj4GWRenFoFx9gdbFX","playlistName":"شرح كتاب صحيح الإمام البخاري رضي الله تعالى عنه   أ.د. يسرى جبر","category":"حديث"},{"id":"IIekkytllbM","title":"صحيح الإمام البخارى رضى الله عنه - كتاب النكاح - المجلس الخامس","publishedAt":"2015-02-08T21:27:36Z","duration":"PT57M39S","thumbnail":"https://i.ytimg.com/vi/IIekkytllbM/mqdefault.jpg","viewCount":"251","playlistId":"PLEkQk5xrP-tmJuzaj4GWRenFoFx9gdbFX","playlistName":"شرح كتاب صحيح الإمام البخاري رضي الله تعالى عنه   أ.د. يسرى جبر","category":"حديث"},{"id":"u08PMvEH9cU","title":"صحيح الإمام البخاري رضي الله عنه -كتاب القدر (3) د.يسري جبر","publishedAt":"2017-10-21T08:13:02Z","duration":"PT33M31S","thumbnail":"https://i.ytimg.com/vi/u08PMvEH9cU/mqdefault.jpg","viewCount":"251","playlistId":"PLEkQk5xrP-tmJuzaj4GWRenFoFx9gdbFX","playlistName":"شرح كتاب صحيح الإمام البخاري رضي الله تعالى عنه   أ.د. يسرى جبر","category":"حديث"},{"id":"NrXZl71HD_E","title":"شرح صحيح الإمام البخاري رضي الله تعالى عنه - كتاب الحِيَل.  د. يسري جبر","publishedAt":"2018-10-17T19:56:05Z","duration":"PT30M47S","thumbnail":"https://i.ytimg.com/vi/NrXZl71HD_E/mqdefault.jpg","viewCount":"251","playlistId":"PLEkQk5xrP-tmJuzaj4GWRenFoFx9gdbFX","playlistName":"شرح كتاب صحيح الإمام البخاري رضي الله تعالى عنه   أ.د. يسرى جبر","category":"حديث"},{"id":"iLI8CWxKCfQ","title":"صحيح الإمام البخاري رضي الله عنه - كتاب استتابة المُرْتدِّين والمُعاندين وقتالهم المجلس الأول","publishedAt":"2018-07-16T07:48:03Z","duration":"PT42M49S","thumbnail":"https://i.ytimg.com/vi/iLI8CWxKCfQ/mqdefault.jpg","viewCount":"243","playlistId":"PLEkQk5xrP-tmJuzaj4GWRenFoFx9gdbFX","playlistName":"شرح كتاب صحيح الإمام البخاري رضي الله تعالى عنه   أ.د. يسرى جبر","category":"حديث"},{"id":"yFOYlOUax9E","title":"شرح صحيح الإمام البخاري رضي الله تعالى عنه - كتاب الدعوات   د. يسري جبر","publishedAt":"2017-04-27T16:08:56Z","duration":"PT59M5S","thumbnail":"https://i.ytimg.com/vi/yFOYlOUax9E/mqdefault.jpg","viewCount":"239","playlistId":"PLEkQk5xrP-tmJuzaj4GWRenFoFx9gdbFX","playlistName":"شرح كتاب صحيح الإمام البخاري رضي الله تعالى عنه   أ.د. يسرى جبر","category":"حديث"},{"id":"DkXdHZXOgwg","title":"صحيح الإمام البخاري رضي الله عنه - كتاب الأدب - المجلس الثامن د. يسري جبر","publishedAt":"2016-12-29T20:16:06Z","duration":"PT20M47S","thumbnail":"https://i.ytimg.com/vi/DkXdHZXOgwg/mqdefault.jpg","viewCount":"234","playlistId":"PLEkQk5xrP-tmJuzaj4GWRenFoFx9gdbFX","playlistName":"شرح كتاب صحيح الإمام البخاري رضي الله تعالى عنه   أ.د. يسرى جبر","category":"حديث"},{"id":"hSt4SW2VM6g","title":"صحيح الإمام البخاري رضي الله عنه - كتاب الأطعمة - المجلس الأول","publishedAt":"2016-01-18T18:59:34Z","duration":"PT1H23M10S","thumbnail":"https://i.ytimg.com/vi/hSt4SW2VM6g/mqdefault.jpg","viewCount":"227","playlistId":"PLEkQk5xrP-tmJuzaj4GWRenFoFx9gdbFX","playlistName":"شرح كتاب صحيح الإمام البخاري رضي الله تعالى عنه   أ.د. يسرى جبر","category":"حديث"},{"id":"sQ2Xd_nyFZw","title":"صحيح البخاري ختام كتاب الدعوات وبداية كتاب الرقاق(الصحة والفراغ ولا عيش إلا عيش الآخرة) د.يسري جبر","publishedAt":"2017-07-30T16:08:27Z","duration":"PT52M41S","thumbnail":"https://i.ytimg.com/vi/sQ2Xd_nyFZw/mqdefault.jpg","viewCount":"222","playlistId":"PLEkQk5xrP-tmJuzaj4GWRenFoFx9gdbFX","playlistName":"شرح كتاب صحيح الإمام البخاري رضي الله تعالى عنه   أ.د. يسرى جبر","category":"حديث"},{"id":"xnH080LsaFE","title":"صحيح الإمام البخارى رضى عنه - كتاب فضائل القرآن - المجلس السادس","publishedAt":"2015-01-05T21:00:32Z","duration":"PT1H6M32S","thumbnail":"https://i.ytimg.com/vi/xnH080LsaFE/mqdefault.jpg","viewCount":"220","playlistId":"PLEkQk5xrP-tmJuzaj4GWRenFoFx9gdbFX","playlistName":"شرح كتاب صحيح الإمام البخاري رضي الله تعالى عنه   أ.د. يسرى جبر","category":"حديث"},{"id":"OMxh6TYSigk","title":"صحيح الإمام البخاري رضي الله عنه - كتاب الأدب - المجلس السادس د. يسري جبر","publishedAt":"2016-12-22T17:56:45Z","duration":"PT37M3S","thumbnail":"https://i.ytimg.com/vi/OMxh6TYSigk/mqdefault.jpg","viewCount":"219","playlistId":"PLEkQk5xrP-tmJuzaj4GWRenFoFx9gdbFX","playlistName":"شرح كتاب صحيح الإمام البخاري رضي الله تعالى عنه   أ.د. يسرى جبر","category":"حديث"},{"id":"i488JglYapc","title":"صحيح الإمام البخارى رضى الله عنه - كتاب النكاح - المجلس السادس","publishedAt":"2015-02-25T19:28:12Z","duration":"PT1H3M26S","thumbnail":"https://i.ytimg.com/vi/i488JglYapc/mqdefault.jpg","viewCount":"218","playlistId":"PLEkQk5xrP-tmJuzaj4GWRenFoFx9gdbFX","playlistName":"شرح كتاب صحيح الإمام البخاري رضي الله تعالى عنه   أ.د. يسرى جبر","category":"حديث"},{"id":"5TiTwSkKmks","title":"صحيح الإمام البخاري رضي الله عنه كتاب الاستئذان باب - السلام اسم من أسماء الله تعالى - المجلس الثاني","publishedAt":"2017-03-22T18:58:54Z","duration":"PT1H8M49S","thumbnail":"https://i.ytimg.com/vi/5TiTwSkKmks/mqdefault.jpg","viewCount":"218","playlistId":"PLEkQk5xrP-tmJuzaj4GWRenFoFx9gdbFX","playlistName":"شرح كتاب صحيح الإمام البخاري رضي الله تعالى عنه   أ.د. يسرى جبر","category":"حديث"},{"id":"hIzsXxns7a8","title":"صحيح الإمام البخاري رضي الله عنه - كتاب اللباس باب الطيب في الرأس واللحية المجلس العاشر. د. يسري جبر","publishedAt":"2016-11-13T13:52:13Z","duration":"PT44M47S","thumbnail":"https://i.ytimg.com/vi/hIzsXxns7a8/mqdefault.jpg","viewCount":"216","playlistId":"PLEkQk5xrP-tmJuzaj4GWRenFoFx9gdbFX","playlistName":"شرح كتاب صحيح الإمام البخاري رضي الله تعالى عنه   أ.د. يسرى جبر","category":"حديث"},{"id":"idh0NxbGMg4","title":"صحيح الإمام البخاري رضي الله عنه - كتاب اللباس ( باب نقش الخاتم ) المجلس السابع د. يسري جبر","publishedAt":"2016-10-31T12:05:46Z","duration":"PT1H9M34S","thumbnail":"https://i.ytimg.com/vi/idh0NxbGMg4/mqdefault.jpg","viewCount":"209","playlistId":"PLEkQk5xrP-tmJuzaj4GWRenFoFx9gdbFX","playlistName":"شرح كتاب صحيح الإمام البخاري رضي الله تعالى عنه   أ.د. يسرى جبر","category":"حديث"}],"total":219,"page":4,"pageSize":24,"totalPages":10}