{"items":[{"id":"ChJ-PfHp0YE","title":"شرح كتاب الرسالة القشيرية - (المجلس الأول) د. يسري جبر","publishedAt":"2017-11-10T07:17:24Z","duration":"PT53M14S","thumbnail":"https://i.ytimg.com/vi/ChJ-PfHp0YE/mqdefault.jpg","viewCount":"65222","playlistId":"PLEkQk5xrP-tkHAGOwIKr4pc5ehhyQ5HMJ","playlistName":"كتاب الرسالة القشيرية (تصوف) - د. يسري جبر","category":"تصوف"},{"id":"Gn-iak3IctI","title":"الرسالة القشيرية - المجلس (108) بَابُ كرامات الأولياء | أ.د. يسري جبر","publishedAt":"2022-01-18T18:43:35Z","duration":"PT45M22S","thumbnail":"https://i.ytimg.com/vi/Gn-iak3IctI/mqdefault.jpg","viewCount":"56396","playlistId":"PLEkQk5xrP-tkHAGOwIKr4pc5ehhyQ5HMJ","playlistName":"كتاب الرسالة القشيرية (تصوف) - د. يسري جبر","category":"تصوف"},{"id":"zuG_2ASwjmM","title":"الرسالة القشيرية - المجلس (94) بَابُ التوحيد | أ.د. يسري جبر","publishedAt":"2021-10-14T19:00:16Z","duration":"PT1H33M47S","thumbnail":"https://i.ytimg.com/vi/zuG_2ASwjmM/mqdefault.jpg","viewCount":"46516","playlistId":"PLEkQk5xrP-tkHAGOwIKr4pc5ehhyQ5HMJ","playlistName":"كتاب الرسالة القشيرية (تصوف) - د. يسري جبر","category":"تصوف"},{"id":"68xSVsLyjVw","title":"الرسالة القشيرية - المجلس (96) بَابُ المعرفة بالله | أ.د. يسري جبر","publishedAt":"2021-10-24T18:00:02Z","duration":"PT1H16S","thumbnail":"https://i.ytimg.com/vi/68xSVsLyjVw/mqdefault.jpg","viewCount":"42713","playlistId":"PLEkQk5xrP-tkHAGOwIKr4pc5ehhyQ5HMJ","playlistName":"كتاب الرسالة القشيرية (تصوف) - د. يسري جبر","category":"تصوف"},{"id":"gLdJRej8J9k","title":"الرسالة القشيرية - المجلس (97) بَابُ المعرفة بالله ۲ | أ.د. يسري جبر","publishedAt":"2021-11-02T19:00:11Z","duration":"PT1H9M41S","thumbnail":"https://i.ytimg.com/vi/gLdJRej8J9k/mqdefault.jpg","viewCount":"30649","playlistId":"PLEkQk5xrP-tkHAGOwIKr4pc5ehhyQ5HMJ","playlistName":"كتاب الرسالة القشيرية (تصوف) - د. يسري جبر","category":"تصوف"},{"id":"bvEjUAB1Si8","title":"ختام الرسالة القشيرية - المجلس (120) بَابُ الوصية للمريدين ۲ | أ.د. يسري جبر","publishedAt":"2022-06-22T18:13:33Z","duration":"PT1H22M50S","thumbnail":"https://i.ytimg.com/vi/bvEjUAB1Si8/mqdefault.jpg","viewCount":"29195","playlistId":"PLEkQk5xrP-tkHAGOwIKr4pc5ehhyQ5HMJ","playlistName":"كتاب الرسالة القشيرية (تصوف) - د. يسري جبر","category":"تصوف"},{"id":"Mgys8_XmXPE","title":"الرسالة القشيرية - المجلس (112) بَابُ كرامات الأولياء ٥ | أ.د. يسري جبر","publishedAt":"2022-02-17T18:00:33Z","duration":"PT53M50S","thumbnail":"https://i.ytimg.com/vi/Mgys8_XmXPE/mqdefault.jpg","viewCount":"27629","playlistId":"PLEkQk5xrP-tkHAGOwIKr4pc5ehhyQ5HMJ","playlistName":"كتاب الرسالة القشيرية (تصوف) - د. يسري جبر","category":"تصوف"},{"id":"R6GDrSjlYKo","title":"الرسالة القشيرية - المجلس (116) بَابُ كرامات الأولياء ۹ والأخير | أ.د. يسري جبر","publishedAt":"2022-03-20T17:00:29Z","duration":"PT51M16S","thumbnail":"https://i.ytimg.com/vi/R6GDrSjlYKo/mqdefault.jpg","viewCount":"27195","playlistId":"PLEkQk5xrP-tkHAGOwIKr4pc5ehhyQ5HMJ","playlistName":"كتاب الرسالة القشيرية (تصوف) - د. يسري جبر","category":"تصوف"},{"id":"3Oe4eDbxcP8","title":"شرح كتاب الرسالة القشيرية - المجلس الثاني (المقدمة)","publishedAt":"2017-11-16T19:27:34Z","duration":"PT53M5S","thumbnail":"https://i.ytimg.com/vi/3Oe4eDbxcP8/mqdefault.jpg","viewCount":"27117","playlistId":"PLEkQk5xrP-tkHAGOwIKr4pc5ehhyQ5HMJ","playlistName":"كتاب الرسالة القشيرية (تصوف) - د. يسري جبر","category":"تصوف"},{"id":"qfWqsy7PwQE","title":"الرسالة القشيرية - المجلس (98) بَابُ المحبة | أ.د. يسري جبر","publishedAt":"2021-11-10T19:06:18Z","duration":"PT1H3M46S","thumbnail":"https://i.ytimg.com/vi/qfWqsy7PwQE/mqdefault.jpg","viewCount":"25291","playlistId":"PLEkQk5xrP-tkHAGOwIKr4pc5ehhyQ5HMJ","playlistName":"كتاب الرسالة القشيرية (تصوف) - د. يسري جبر","category":"تصوف"},{"id":"8PF0HWMbrlM","title":"الرسالة القشيرية - المجلس (113) بَابُ كرامات الأولياء ٦ | أ.د. يسري جبر","publishedAt":"2022-02-24T19:33:16Z","duration":"PT56M35S","thumbnail":"https://i.ytimg.com/vi/8PF0HWMbrlM/mqdefault.jpg","viewCount":"23703","playlistId":"PLEkQk5xrP-tkHAGOwIKr4pc5ehhyQ5HMJ","playlistName":"كتاب الرسالة القشيرية (تصوف) - د. يسري جبر","category":"تصوف"},{"id":"iQpWLiwZtdI","title":"الرسالة القشيرية - المجلس (110) بَابُ كرامات الأولياء ۳ | أ.د. يسري جبر","publishedAt":"2022-02-01T19:36:24Z","duration":"PT53M58S","thumbnail":"https://i.ytimg.com/vi/iQpWLiwZtdI/mqdefault.jpg","viewCount":"23552","playlistId":"PLEkQk5xrP-tkHAGOwIKr4pc5ehhyQ5HMJ","playlistName":"كتاب الرسالة القشيرية (تصوف) - د. يسري جبر","category":"تصوف"},{"id":"2Zxt2UIJeGg","title":"الرسالة القشيرية - المجلس (95) بَابُ أحوالهم عند الخروج من الدنيا | أ.د. يسري جبر","publishedAt":"2021-10-21T19:49:19Z","duration":"PT1H1M55S","thumbnail":"https://i.ytimg.com/vi/2Zxt2UIJeGg/mqdefault.jpg","viewCount":"22092","playlistId":"PLEkQk5xrP-tkHAGOwIKr4pc5ehhyQ5HMJ","playlistName":"كتاب الرسالة القشيرية (تصوف) - د. يسري جبر","category":"تصوف"},{"id":"Hl2oQVDXl64","title":"شرح كتاب الرسالة القشيرية - المجلس الثالث (المقدمة 2)","publishedAt":"2017-11-24T07:59:14Z","duration":"PT1H50S","thumbnail":"https://i.ytimg.com/vi/Hl2oQVDXl64/mqdefault.jpg","viewCount":"21977","playlistId":"PLEkQk5xrP-tkHAGOwIKr4pc5ehhyQ5HMJ","playlistName":"كتاب الرسالة القشيرية (تصوف) - د. يسري جبر","category":"تصوف"},{"id":"deMGiEgSb3g","title":"الرسالة القشيرية - المجلس (109) بَابُ كرامات الأولياء ٢ | أ.د. يسري جبر","publishedAt":"2022-01-25T18:00:11Z","duration":"PT53M5S","thumbnail":"https://i.ytimg.com/vi/deMGiEgSb3g/mqdefault.jpg","viewCount":"21785","playlistId":"PLEkQk5xrP-tkHAGOwIKr4pc5ehhyQ5HMJ","playlistName":"كتاب الرسالة القشيرية (تصوف) - د. يسري جبر","category":"تصوف"},{"id":"pazss1wyxzs","title":"شرح كتاب الرسالة القشيرية - المجلس الرابع - الفصل الأول (1)","publishedAt":"2017-12-07T13:11:40Z","duration":"PT56M16S","thumbnail":"https://i.ytimg.com/vi/pazss1wyxzs/mqdefault.jpg","viewCount":"21460","playlistId":"PLEkQk5xrP-tkHAGOwIKr4pc5ehhyQ5HMJ","playlistName":"كتاب الرسالة القشيرية (تصوف) - د. يسري جبر","category":"تصوف"},{"id":"DDJL-lGtR20","title":"الرسالة القشيرية - المجلس (111) بَابُ كرامات الأولياء ٤ | أ.د. يسري جبر","publishedAt":"2022-02-10T20:05:10Z","duration":"PT51M26S","thumbnail":"https://i.ytimg.com/vi/DDJL-lGtR20/mqdefault.jpg","viewCount":"19583","playlistId":"PLEkQk5xrP-tkHAGOwIKr4pc5ehhyQ5HMJ","playlistName":"كتاب الرسالة القشيرية (تصوف) - د. يسري جبر","category":"تصوف"},{"id":"qOYoWZHOi-A","title":"الرسالة القشيرية - المجلس (114) بَابُ كرامات الأولياء ٧ | أ.د. يسري جبر","publishedAt":"2022-03-01T18:05:28Z","duration":"PT51M51S","thumbnail":"https://i.ytimg.com/vi/qOYoWZHOi-A/mqdefault.jpg","viewCount":"19484","playlistId":"PLEkQk5xrP-tkHAGOwIKr4pc5ehhyQ5HMJ","playlistName":"كتاب الرسالة القشيرية (تصوف) - د. يسري جبر","category":"تصوف"},{"id":"e7Vjm8d8h10","title":"الرسالة القشيرية - المجلس (119) بَابُ الوصية للمريدين | أ.د. يسري جبر","publishedAt":"2022-06-17T18:15:06Z","duration":"PT56M17S","thumbnail":"https://i.ytimg.com/vi/e7Vjm8d8h10/mqdefault.jpg","viewCount":"18162","playlistId":"PLEkQk5xrP-tkHAGOwIKr4pc5ehhyQ5HMJ","playlistName":"كتاب الرسالة القشيرية (تصوف) - د. يسري جبر","category":"تصوف"},{"id":"IJPkRt534tA","title":"شرح كتاب الرسالة القشيرية - المجلس الخامس - الفصل الأول (2)","publishedAt":"2017-12-15T08:05:01Z","duration":"PT1H14M13S","thumbnail":"https://i.ytimg.com/vi/IJPkRt534tA/mqdefault.jpg","viewCount":"17722","playlistId":"PLEkQk5xrP-tkHAGOwIKr4pc5ehhyQ5HMJ","playlistName":"كتاب الرسالة القشيرية (تصوف) - د. يسري جبر","category":"تصوف"},{"id":"M1YrBhXPXAc","title":"الرسالة القشيرية - المجلس (64)  بابُ الْيَقِينِ. أ.د. يسري جبر","publishedAt":"2019-10-17T15:05:43Z","duration":"PT1H8M21S","thumbnail":"https://i.ytimg.com/vi/M1YrBhXPXAc/mqdefault.jpg","viewCount":"15443","playlistId":"PLEkQk5xrP-tkHAGOwIKr4pc5ehhyQ5HMJ","playlistName":"كتاب الرسالة القشيرية (تصوف) - د. يسري جبر","category":"تصوف"},{"id":"dfny3k4ZI_Q","title":"الرسالة القشيرية - المجلس (117) بَابُ رؤيا القوم | أ.د. يسري جبر","publishedAt":"2022-04-01T17:00:59Z","duration":"PT58M39S","thumbnail":"https://i.ytimg.com/vi/dfny3k4ZI_Q/mqdefault.jpg","viewCount":"15133","playlistId":"PLEkQk5xrP-tkHAGOwIKr4pc5ehhyQ5HMJ","playlistName":"كتاب الرسالة القشيرية (تصوف) - د. يسري جبر","category":"تصوف"},{"id":"fW-r7sAAuYE","title":"الرسالة القشيرية - المجلس (115) بَابُ كرامات الأولياء ٨ | أ.د. يسري جبر","publishedAt":"2022-03-10T19:22:56Z","duration":"PT51M17S","thumbnail":"https://i.ytimg.com/vi/fW-r7sAAuYE/mqdefault.jpg","viewCount":"15037","playlistId":"PLEkQk5xrP-tkHAGOwIKr4pc5ehhyQ5HMJ","playlistName":"كتاب الرسالة القشيرية (تصوف) - د. يسري جبر","category":"تصوف"},{"id":"TFWDRfZR2Tk","title":"شرح كتاب الرسالة القشيرية - المجلس السادس - الفصل الأول (3)","publishedAt":"2017-12-22T14:24:00Z","duration":"PT1H17M44S","thumbnail":"https://i.ytimg.com/vi/TFWDRfZR2Tk/mqdefault.jpg","viewCount":"14554","playlistId":"PLEkQk5xrP-tkHAGOwIKr4pc5ehhyQ5HMJ","playlistName":"كتاب الرسالة القشيرية (تصوف) - د. يسري جبر","category":"تصوف"}],"total":120,"page":1,"pageSize":24,"totalPages":5}