{"items":[{"id":"5LfCEeXGNOs","title":"شرح صحيح البخاري كتاب الفتن من باب ١٠","publishedAt":"2018-12-31T21:18:36Z","duration":"PT36M22S","thumbnail":"https://i.ytimg.com/vi/5LfCEeXGNOs/mqdefault.jpg","viewCount":"821","playlistId":"PLEkQk5xrP-tlEerGoLa1AFy-2XvQ-sovv","playlistName":"شرح صحيح البخاري - أ.د. يسري جبر (كاملا)","category":"حديث"},{"id":"wdbWM9I45_c","title":"شرح صحيح البخاري كتاب الفتن من باب ١٥","publishedAt":"2019-01-01T22:07:47Z","duration":"PT30M18S","thumbnail":"https://i.ytimg.com/vi/wdbWM9I45_c/mqdefault.jpg","viewCount":"820","playlistId":"PLEkQk5xrP-tlEerGoLa1AFy-2XvQ-sovv","playlistName":"شرح صحيح البخاري - أ.د. يسري جبر (كاملا)","category":"حديث"},{"id":"40f988d2itw","title":"شرح صحيح البخاري كتاب الفتن من باب ١٨","publishedAt":"2019-01-03T09:36:52Z","duration":"PT40M26S","thumbnail":"https://i.ytimg.com/vi/40f988d2itw/mqdefault.jpg","viewCount":"867","playlistId":"PLEkQk5xrP-tlEerGoLa1AFy-2XvQ-sovv","playlistName":"شرح صحيح البخاري - أ.د. يسري جبر (كاملا)","category":"حديث"},{"id":"ISFAFflOiVg","title":"شرح صحيح البخاري كتاب الفتن من باب ٢٢","publishedAt":"2019-01-04T09:18:25Z","duration":"PT29M48S","thumbnail":"https://i.ytimg.com/vi/ISFAFflOiVg/mqdefault.jpg","viewCount":"705","playlistId":"PLEkQk5xrP-tlEerGoLa1AFy-2XvQ-sovv","playlistName":"شرح صحيح البخاري - أ.د. يسري جبر (كاملا)","category":"حديث"},{"id":"kzJr4I0UFLg","title":"شرح صحيح البخاري كتاب الفتن من باب ٢٧","publishedAt":"2019-01-05T18:28:53Z","duration":"PT39M50S","thumbnail":"https://i.ytimg.com/vi/kzJr4I0UFLg/mqdefault.jpg","viewCount":"870","playlistId":"PLEkQk5xrP-tlEerGoLa1AFy-2XvQ-sovv","playlistName":"شرح صحيح البخاري - أ.د. يسري جبر (كاملا)","category":"حديث"},{"id":"arRAZ_97Weo","title":"شرح صحيح البخاري كتاب الأحكام من أوله","publishedAt":"2019-01-06T21:23:24Z","duration":"PT34M47S","thumbnail":"https://i.ytimg.com/vi/arRAZ_97Weo/mqdefault.jpg","viewCount":"501","playlistId":"PLEkQk5xrP-tlEerGoLa1AFy-2XvQ-sovv","playlistName":"شرح صحيح البخاري - أ.د. يسري جبر (كاملا)","category":"حديث"},{"id":"mHNDPM2PCnc","title":"شرح صحيح البخاري كتاب الأحكام من باب ٤","publishedAt":"2019-01-07T19:34:02Z","duration":"PT40M39S","thumbnail":"https://i.ytimg.com/vi/mHNDPM2PCnc/mqdefault.jpg","viewCount":"426","playlistId":"PLEkQk5xrP-tlEerGoLa1AFy-2XvQ-sovv","playlistName":"شرح صحيح البخاري - أ.د. يسري جبر (كاملا)","category":"حديث"},{"id":"d3rBqG_XA9k","title":"شرح صحيح البخاري كتاب الأحكام من باب ١١","publishedAt":"2019-01-08T21:25:27Z","duration":"PT40M53S","thumbnail":"https://i.ytimg.com/vi/d3rBqG_XA9k/mqdefault.jpg","viewCount":"446","playlistId":"PLEkQk5xrP-tlEerGoLa1AFy-2XvQ-sovv","playlistName":"شرح صحيح البخاري - أ.د. يسري جبر (كاملا)","category":"حديث"},{"id":"eQo-rSw2zDc","title":"شرح صحيح البخاري كتاب الأحكام من باب ١٦","publishedAt":"2019-01-09T22:17:16Z","duration":"PT27M21S","thumbnail":"https://i.ytimg.com/vi/eQo-rSw2zDc/mqdefault.jpg","viewCount":"397","playlistId":"PLEkQk5xrP-tlEerGoLa1AFy-2XvQ-sovv","playlistName":"شرح صحيح البخاري - أ.د. يسري جبر (كاملا)","category":"حديث"},{"id":"h5hdM7gT3dg","title":"شرح صحيح البخاري كتاب الأحكام من باب ٢١","publishedAt":"2019-01-10T21:35:24Z","duration":"PT27M18S","thumbnail":"https://i.ytimg.com/vi/h5hdM7gT3dg/mqdefault.jpg","viewCount":"443","playlistId":"PLEkQk5xrP-tlEerGoLa1AFy-2XvQ-sovv","playlistName":"شرح صحيح البخاري - أ.د. يسري جبر (كاملا)","category":"حديث"},{"id":"QGuSKprTzbw","title":"شرح صحيح البخاري كتاب الأحكام من باب ٢٥","publishedAt":"2019-01-11T21:18:18Z","duration":"PT26M3S","thumbnail":"https://i.ytimg.com/vi/QGuSKprTzbw/mqdefault.jpg","viewCount":"347","playlistId":"PLEkQk5xrP-tlEerGoLa1AFy-2XvQ-sovv","playlistName":"شرح صحيح البخاري - أ.د. يسري جبر (كاملا)","category":"حديث"},{"id":"RNJEhtQa4j4","title":"شرح صحيح البخاري كتاب الأحكام من باب ٣٠","publishedAt":"2019-01-12T21:50:01Z","duration":"PT29M26S","thumbnail":"https://i.ytimg.com/vi/RNJEhtQa4j4/mqdefault.jpg","viewCount":"412","playlistId":"PLEkQk5xrP-tlEerGoLa1AFy-2XvQ-sovv","playlistName":"شرح صحيح البخاري - أ.د. يسري جبر (كاملا)","category":"حديث"},{"id":"dr5e8ZtzXrk","title":"شرح صحيح البخاري كتاب الأحكام من باب ٣٧","publishedAt":"2019-01-13T22:12:56Z","duration":"PT33M42S","thumbnail":"https://i.ytimg.com/vi/dr5e8ZtzXrk/mqdefault.jpg","viewCount":"426","playlistId":"PLEkQk5xrP-tlEerGoLa1AFy-2XvQ-sovv","playlistName":"شرح صحيح البخاري - أ.د. يسري جبر (كاملا)","category":"حديث"},{"id":"y03RGRMj1ZU","title":"شرح صحيح البخاري كتاب الأحكام من باب ٤٣","publishedAt":"2019-01-14T21:16:06Z","duration":"PT43M47S","thumbnail":"https://i.ytimg.com/vi/y03RGRMj1ZU/mqdefault.jpg","viewCount":"367","playlistId":"PLEkQk5xrP-tlEerGoLa1AFy-2XvQ-sovv","playlistName":"شرح صحيح البخاري - أ.د. يسري جبر (كاملا)","category":"حديث"},{"id":"NTfvE45mwNY","title":"شرح صحيح البخاري كتاب الأحكام من باب ٤٤","publishedAt":"2019-01-15T22:08:35Z","duration":"PT30M17S","thumbnail":"https://i.ytimg.com/vi/NTfvE45mwNY/mqdefault.jpg","viewCount":"396","playlistId":"PLEkQk5xrP-tlEerGoLa1AFy-2XvQ-sovv","playlistName":"شرح صحيح البخاري - أ.د. يسري جبر (كاملا)","category":"حديث"},{"id":"PI2aNsBc9v8","title":"شرح صحيح البخاري كتاب الأحكام من باب ٥١","publishedAt":"2019-01-16T22:26:03Z","duration":"PT28M45S","thumbnail":"https://i.ytimg.com/vi/PI2aNsBc9v8/mqdefault.jpg","viewCount":"365","playlistId":"PLEkQk5xrP-tlEerGoLa1AFy-2XvQ-sovv","playlistName":"شرح صحيح البخاري - أ.د. يسري جبر (كاملا)","category":"حديث"},{"id":"UHHQAWSsaMY","title":"شرح صحيح البخاري كتاب التمني من أوله","publishedAt":"2019-01-17T21:35:50Z","duration":"PT32M18S","thumbnail":"https://i.ytimg.com/vi/UHHQAWSsaMY/mqdefault.jpg","viewCount":"505","playlistId":"PLEkQk5xrP-tlEerGoLa1AFy-2XvQ-sovv","playlistName":"شرح صحيح البخاري - أ.د. يسري جبر (كاملا)","category":"حديث"},{"id":"-DydqfY85PM","title":"شرح صحيح البخاري كتاب التمني من باب ٨","publishedAt":"2019-01-18T19:00:25Z","duration":"PT33M11S","thumbnail":"https://i.ytimg.com/vi/-DydqfY85PM/mqdefault.jpg","viewCount":"440","playlistId":"PLEkQk5xrP-tlEerGoLa1AFy-2XvQ-sovv","playlistName":"شرح صحيح البخاري - أ.د. يسري جبر (كاملا)","category":"حديث"},{"id":"bE_c1u4mBfs","title":"شرح صحيح البخاري كتاب أخبار الآحاد من أوله","publishedAt":"2019-01-19T21:28:18Z","duration":"PT42M27S","thumbnail":"https://i.ytimg.com/vi/bE_c1u4mBfs/mqdefault.jpg","viewCount":"556","playlistId":"PLEkQk5xrP-tlEerGoLa1AFy-2XvQ-sovv","playlistName":"شرح صحيح البخاري - أ.د. يسري جبر (كاملا)","category":"حديث"},{"id":"ryMxSvz04vE","title":"شرح صحيح البخاري كتاب الإعتصام بالكتاب والسنة من أوله","publishedAt":"2019-01-20T23:07:50Z","duration":"PT28M51S","thumbnail":"https://i.ytimg.com/vi/ryMxSvz04vE/mqdefault.jpg","viewCount":"544","playlistId":"PLEkQk5xrP-tlEerGoLa1AFy-2XvQ-sovv","playlistName":"شرح صحيح البخاري - أ.د. يسري جبر (كاملا)","category":"حديث"},{"id":"X9LFxvbJ-wc","title":"شرح صحيح البخاري كتاب الإعتصام بالكتاب والسنة من باب ٣","publishedAt":"2019-01-21T21:35:03Z","duration":"PT41M23S","thumbnail":"https://i.ytimg.com/vi/X9LFxvbJ-wc/mqdefault.jpg","viewCount":"469","playlistId":"PLEkQk5xrP-tlEerGoLa1AFy-2XvQ-sovv","playlistName":"شرح صحيح البخاري - أ.د. يسري جبر (كاملا)","category":"حديث"},{"id":"zA40fsFy6iI","title":"شرح صحيح البخاري كتاب الإعتصام بالكتاب والسنة من باب ٤","publishedAt":"2019-01-23T09:57:34Z","duration":"PT32M11S","thumbnail":"https://i.ytimg.com/vi/zA40fsFy6iI/mqdefault.jpg","viewCount":"469","playlistId":"PLEkQk5xrP-tlEerGoLa1AFy-2XvQ-sovv","playlistName":"شرح صحيح البخاري - أ.د. يسري جبر (كاملا)","category":"حديث"},{"id":"g1U4uPSRER0","title":"شرح صحيح البخاري كتاب الإعتصام بالكتاب والسنة من باب ٦","publishedAt":"2019-01-24T12:09:42Z","duration":"PT40M27S","thumbnail":"https://i.ytimg.com/vi/g1U4uPSRER0/mqdefault.jpg","viewCount":"418","playlistId":"PLEkQk5xrP-tlEerGoLa1AFy-2XvQ-sovv","playlistName":"شرح صحيح البخاري - أ.د. يسري جبر (كاملا)","category":"حديث"},{"id":"zIyPEtPuXyE","title":"شرح صحيح البخاري كتاب الاعتصام بالكتاب والسنة من باب ٧","publishedAt":"2019-01-25T14:55:37Z","duration":"PT29M25S","thumbnail":"https://i.ytimg.com/vi/zIyPEtPuXyE/mqdefault.jpg","viewCount":"481","playlistId":"PLEkQk5xrP-tlEerGoLa1AFy-2XvQ-sovv","playlistName":"شرح صحيح البخاري - أ.د. يسري جبر (كاملا)","category":"حديث"}],"total":719,"page":29,"pageSize":24,"totalPages":30}