{"items":[{"id":"EUPafMltExc","title":"شرح صحيح البخاري ( كتاب الصلاة مجلس ٣ )","publishedAt":"2016-09-29T20:50:42Z","duration":"PT41M25S","thumbnail":"https://i.ytimg.com/vi/EUPafMltExc/mqdefault.jpg","viewCount":"1726","playlistId":"PLEkQk5xrP-tlEerGoLa1AFy-2XvQ-sovv","playlistName":"شرح صحيح البخاري - أ.د. يسري جبر (كاملا)","category":"حديث"},{"id":"gcLQFvwhc9o","title":"شرح صحيح البخاري ( كتاب الصلاة مجلس ٤ )","publishedAt":"2016-10-01T08:57:42Z","duration":"PT31M47S","thumbnail":"https://i.ytimg.com/vi/gcLQFvwhc9o/mqdefault.jpg","viewCount":"1438","playlistId":"PLEkQk5xrP-tlEerGoLa1AFy-2XvQ-sovv","playlistName":"شرح صحيح البخاري - أ.د. يسري جبر (كاملا)","category":"حديث"},{"id":"ZokRgARTiL0","title":"شرح صحيح البخاري ( كتاب الصلاة مجلس ٦)","publishedAt":"2016-10-01T10:16:10Z","duration":"PT35M11S","thumbnail":"https://i.ytimg.com/vi/ZokRgARTiL0/mqdefault.jpg","viewCount":"1421","playlistId":"PLEkQk5xrP-tlEerGoLa1AFy-2XvQ-sovv","playlistName":"شرح صحيح البخاري - أ.د. يسري جبر (كاملا)","category":"حديث"},{"id":"XE7akJS72Mg","title":"شرح صحيح البخاري ( كتاب الصلاة مجلس ٥ )","publishedAt":"2016-10-01T10:16:33Z","duration":"PT41M56S","thumbnail":"https://i.ytimg.com/vi/XE7akJS72Mg/mqdefault.jpg","viewCount":"1639","playlistId":"PLEkQk5xrP-tlEerGoLa1AFy-2XvQ-sovv","playlistName":"شرح صحيح البخاري - أ.د. يسري جبر (كاملا)","category":"حديث"},{"id":"aW8RRE8KM10","title":"شرح صحيح البخاري ( كتاب الصلاة مجلس ٧)","publishedAt":"2016-10-02T07:40:30Z","duration":"PT35M48S","thumbnail":"https://i.ytimg.com/vi/aW8RRE8KM10/mqdefault.jpg","viewCount":"1452","playlistId":"PLEkQk5xrP-tlEerGoLa1AFy-2XvQ-sovv","playlistName":"شرح صحيح البخاري - أ.د. يسري جبر (كاملا)","category":"حديث"},{"id":"ewn6tgGqYCA","title":"شرح صحيح البخاري ( كتاب الصلاة مجلس ٨)","publishedAt":"2016-10-03T08:00:52Z","duration":"PT22M9S","thumbnail":"https://i.ytimg.com/vi/ewn6tgGqYCA/mqdefault.jpg","viewCount":"1237","playlistId":"PLEkQk5xrP-tlEerGoLa1AFy-2XvQ-sovv","playlistName":"شرح صحيح البخاري - أ.د. يسري جبر (كاملا)","category":"حديث"},{"id":"TaebrLzX5MI","title":"شرح صحيح البخاري ( كتاب الصلاة مجلس ٩)","publishedAt":"2016-10-04T08:22:23Z","duration":"PT30M26S","thumbnail":"https://i.ytimg.com/vi/TaebrLzX5MI/mqdefault.jpg","viewCount":"1429","playlistId":"PLEkQk5xrP-tlEerGoLa1AFy-2XvQ-sovv","playlistName":"شرح صحيح البخاري - أ.د. يسري جبر (كاملا)","category":"حديث"},{"id":"A4FI_7e4bMA","title":"شرح صحيح البخاري ( كتاب الصلاة مجلس 10)","publishedAt":"2016-10-12T04:19:29Z","duration":"PT36M16S","thumbnail":"https://i.ytimg.com/vi/A4FI_7e4bMA/mqdefault.jpg","viewCount":"1425","playlistId":"PLEkQk5xrP-tlEerGoLa1AFy-2XvQ-sovv","playlistName":"شرح صحيح البخاري - أ.د. يسري جبر (كاملا)","category":"حديث"},{"id":"N3DduHbejz4","title":"شرح صحيح البخاري - كتاب الصلاة من باب ٧٤","publishedAt":"2016-10-28T04:38:22Z","duration":"PT31M43S","thumbnail":"https://i.ytimg.com/vi/N3DduHbejz4/mqdefault.jpg","viewCount":"1233","playlistId":"PLEkQk5xrP-tlEerGoLa1AFy-2XvQ-sovv","playlistName":"شرح صحيح البخاري - أ.د. يسري جبر (كاملا)","category":"حديث"},{"id":"XOHv13JqIhQ","title":"شرح صحيح البخاري - كتاب الصلاة من باب ٨١","publishedAt":"2016-10-29T03:41:34Z","duration":"PT35M18S","thumbnail":"https://i.ytimg.com/vi/XOHv13JqIhQ/mqdefault.jpg","viewCount":"1215","playlistId":"PLEkQk5xrP-tlEerGoLa1AFy-2XvQ-sovv","playlistName":"شرح صحيح البخاري - أ.د. يسري جبر (كاملا)","category":"حديث"},{"id":"JvaL0YArOno","title":"شرح صحيح البخاري - كتاب الصلاة من باب 89","publishedAt":"2016-10-30T03:55:29Z","duration":"PT34M19S","thumbnail":"https://i.ytimg.com/vi/JvaL0YArOno/mqdefault.jpg","viewCount":"1243","playlistId":"PLEkQk5xrP-tlEerGoLa1AFy-2XvQ-sovv","playlistName":"شرح صحيح البخاري - أ.د. يسري جبر (كاملا)","category":"حديث"},{"id":"aLJZS45cqeE","title":"شرح صحيح البخاري - كتاب الصلاة من باب 92","publishedAt":"2016-10-30T04:07:41Z","duration":"PT30M38S","thumbnail":"https://i.ytimg.com/vi/aLJZS45cqeE/mqdefault.jpg","viewCount":"1227","playlistId":"PLEkQk5xrP-tlEerGoLa1AFy-2XvQ-sovv","playlistName":"شرح صحيح البخاري - أ.د. يسري جبر (كاملا)","category":"حديث"},{"id":"9n_5eQL3ino","title":"شرح صحيح البخاري - كتاب الصلاة من باب 102","publishedAt":"2016-10-31T03:47:08Z","duration":"PT34M13S","thumbnail":"https://i.ytimg.com/vi/9n_5eQL3ino/mqdefault.jpg","viewCount":"1456","playlistId":"PLEkQk5xrP-tlEerGoLa1AFy-2XvQ-sovv","playlistName":"شرح صحيح البخاري - أ.د. يسري جبر (كاملا)","category":"حديث"},{"id":"a8FR5Ouqal4","title":"شرح صحيح البخاري كتاب مواقيت الصلاة من باب ٤","publishedAt":"2016-11-01T05:43:56Z","duration":"PT36M53S","thumbnail":"https://i.ytimg.com/vi/a8FR5Ouqal4/mqdefault.jpg","viewCount":"1440","playlistId":"PLEkQk5xrP-tlEerGoLa1AFy-2XvQ-sovv","playlistName":"شرح صحيح البخاري - أ.د. يسري جبر (كاملا)","category":"حديث"},{"id":"lHGBEHX4rA4","title":"شرح صحيح البخاري كتاب مواقيت الصلاة من باب ١١","publishedAt":"2016-11-03T04:38:38Z","duration":"PT25M27S","thumbnail":"https://i.ytimg.com/vi/lHGBEHX4rA4/mqdefault.jpg","viewCount":"1290","playlistId":"PLEkQk5xrP-tlEerGoLa1AFy-2XvQ-sovv","playlistName":"شرح صحيح البخاري - أ.د. يسري جبر (كاملا)","category":"حديث"},{"id":"6oxxrcfCeCQ","title":"شرح صحيح البخاري كتاب مواقيت الصلاة من باب ١٤","publishedAt":"2016-11-04T05:55:05Z","duration":"PT41M4S","thumbnail":"https://i.ytimg.com/vi/6oxxrcfCeCQ/mqdefault.jpg","viewCount":"1253","playlistId":"PLEkQk5xrP-tlEerGoLa1AFy-2XvQ-sovv","playlistName":"شرح صحيح البخاري - أ.د. يسري جبر (كاملا)","category":"حديث"},{"id":"hwVYfccwWuI","title":"شرح صحيح البخاري كتاب مواقيت الصلاة من باب ٢٢","publishedAt":"2016-11-04T11:14:29Z","duration":"PT35M14S","thumbnail":"https://i.ytimg.com/vi/hwVYfccwWuI/mqdefault.jpg","viewCount":"1161","playlistId":"PLEkQk5xrP-tlEerGoLa1AFy-2XvQ-sovv","playlistName":"شرح صحيح البخاري - أ.د. يسري جبر (كاملا)","category":"حديث"},{"id":"zSwfFihyuGk","title":"شرح صحيح البخاري كتاب مواقيت الصلاة من باب ٣٢","publishedAt":"2016-11-05T05:36:39Z","duration":"PT36M3S","thumbnail":"https://i.ytimg.com/vi/zSwfFihyuGk/mqdefault.jpg","viewCount":"1154","playlistId":"PLEkQk5xrP-tlEerGoLa1AFy-2XvQ-sovv","playlistName":"شرح صحيح البخاري - أ.د. يسري جبر (كاملا)","category":"حديث"},{"id":"FSWo8xGC_m0","title":"شرح صحيح البخاري كتاب مواقيت الصلاة من باب ٣٩","publishedAt":"2016-11-10T04:29:40Z","duration":"PT23M45S","thumbnail":"https://i.ytimg.com/vi/FSWo8xGC_m0/mqdefault.jpg","viewCount":"1050","playlistId":"PLEkQk5xrP-tlEerGoLa1AFy-2XvQ-sovv","playlistName":"شرح صحيح البخاري - أ.د. يسري جبر (كاملا)","category":"حديث"},{"id":"5bSRn-sbZ_o","title":"شرح صحيح البخاري كتاب الأذان من باب ١","publishedAt":"2016-11-11T04:08:27Z","duration":"PT38M30S","thumbnail":"https://i.ytimg.com/vi/5bSRn-sbZ_o/mqdefault.jpg","viewCount":"1456","playlistId":"PLEkQk5xrP-tlEerGoLa1AFy-2XvQ-sovv","playlistName":"شرح صحيح البخاري - أ.د. يسري جبر (كاملا)","category":"حديث"},{"id":"S1F0yZJ6iqA","title":"شرح صحيح البخاري كتاب الأذان من باب ٩","publishedAt":"2016-11-11T11:08:24Z","duration":"PT36M9S","thumbnail":"https://i.ytimg.com/vi/S1F0yZJ6iqA/mqdefault.jpg","viewCount":"1208","playlistId":"PLEkQk5xrP-tlEerGoLa1AFy-2XvQ-sovv","playlistName":"شرح صحيح البخاري - أ.د. يسري جبر (كاملا)","category":"حديث"},{"id":"2T5XlckgRhs","title":"شرح صحيح البخاري كتاب الأذان من باب ١٨","publishedAt":"2016-11-11T12:48:34Z","duration":"PT34M51S","thumbnail":"https://i.ytimg.com/vi/2T5XlckgRhs/mqdefault.jpg","viewCount":"1121","playlistId":"PLEkQk5xrP-tlEerGoLa1AFy-2XvQ-sovv","playlistName":"شرح صحيح البخاري - أ.د. يسري جبر (كاملا)","category":"حديث"},{"id":"cIX4q76Kpsg","title":"شرح صحيح البخاري كتاب الأذان من باب ٢٩","publishedAt":"2016-11-12T04:01:26Z","duration":"PT34M14S","thumbnail":"https://i.ytimg.com/vi/cIX4q76Kpsg/mqdefault.jpg","viewCount":"1052","playlistId":"PLEkQk5xrP-tlEerGoLa1AFy-2XvQ-sovv","playlistName":"شرح صحيح البخاري - أ.د. يسري جبر (كاملا)","category":"حديث"},{"id":"DVgjlhg2Qow","title":"شرح صحيح البخاري كتاب الأذان من باب ٣٦","publishedAt":"2016-11-12T05:43:20Z","duration":"PT43M48S","thumbnail":"https://i.ytimg.com/vi/DVgjlhg2Qow/mqdefault.jpg","viewCount":"1245","playlistId":"PLEkQk5xrP-tlEerGoLa1AFy-2XvQ-sovv","playlistName":"شرح صحيح البخاري - أ.د. يسري جبر (كاملا)","category":"حديث"}],"total":719,"page":3,"pageSize":24,"totalPages":30}