{"items":[{"id":"0BXJC17KA0c","title":"ماذا تفعل إن لم تستطع الحج هذا العام؟","publishedAt":"2024-06-10T18:47:25Z","duration":"PT18M29S","thumbnail":"https://i.ytimg.com/vi/0BXJC17KA0c/mqdefault.jpg","viewCount":"4587","playlistId":"PLEkQk5xrP-tlArtGpeLWaqNM7h7IDeAVC","playlistName":"خطب الجمعة أ.د. يسري جبر","category":"خطب"},{"id":"zXxEuotW1JE","title":"كيف تختار أصحابك؟","publishedAt":"2023-08-19T18:00:34Z","duration":"PT11M36S","thumbnail":"https://i.ytimg.com/vi/zXxEuotW1JE/mqdefault.jpg","viewCount":"5660","playlistId":"PLEkQk5xrP-tlArtGpeLWaqNM7h7IDeAVC","playlistName":"خطب الجمعة أ.د. يسري جبر","category":"خطب"},{"id":"eoVmAJPeGN0","title":"أين الله ﷻ؟","publishedAt":"2023-08-17T17:00:22Z","duration":"PT8M5S","thumbnail":"https://i.ytimg.com/vi/eoVmAJPeGN0/mqdefault.jpg","viewCount":"10752","playlistId":"PLEkQk5xrP-tlArtGpeLWaqNM7h7IDeAVC","playlistName":"خطب الجمعة أ.د. يسري جبر","category":"خطب"},{"id":"iNXnV0l76Oo","title":"كيف تتغلب على شهوة نفسك؟","publishedAt":"2023-08-15T18:00:18Z","duration":"PT17M15S","thumbnail":"https://i.ytimg.com/vi/iNXnV0l76Oo/mqdefault.jpg","viewCount":"37572","playlistId":"PLEkQk5xrP-tlArtGpeLWaqNM7h7IDeAVC","playlistName":"خطب الجمعة أ.د. يسري جبر","category":"خطب"},{"id":"lnvHPkID2v8","title":"فصاحة وبلاغة النبي ﷺ","publishedAt":"2023-08-11T18:00:23Z","duration":"PT12M24S","thumbnail":"https://i.ytimg.com/vi/lnvHPkID2v8/mqdefault.jpg","viewCount":"3579","playlistId":"PLEkQk5xrP-tlArtGpeLWaqNM7h7IDeAVC","playlistName":"خطب الجمعة أ.د. يسري جبر","category":"خطب"},{"id":"flithzVV4bY","title":"هو ليه ربنا مش بيستجيب دعائي؟","publishedAt":"2023-08-10T18:00:27Z","duration":"PT8M35S","thumbnail":"https://i.ytimg.com/vi/flithzVV4bY/mqdefault.jpg","viewCount":"5861","playlistId":"PLEkQk5xrP-tlArtGpeLWaqNM7h7IDeAVC","playlistName":"خطب الجمعة أ.د. يسري جبر","category":"خطب"},{"id":"PJDzapqud1g","title":"رحمة النبي ﷺ بالأكوان","publishedAt":"2022-05-24T19:30:02Z","duration":"PT13M8S","thumbnail":"https://i.ytimg.com/vi/PJDzapqud1g/mqdefault.jpg","viewCount":"5214","playlistId":"PLEkQk5xrP-tlArtGpeLWaqNM7h7IDeAVC","playlistName":"خطب الجمعة أ.د. يسري جبر","category":"خطب"},{"id":"EE4g65A8yeM","title":"ما هو علاج السحر ,, وكيف تحمي نفسك منه؟","publishedAt":"2022-05-23T18:00:03Z","duration":"PT16M46S","thumbnail":"https://i.ytimg.com/vi/EE4g65A8yeM/mqdefault.jpg","viewCount":"32344","playlistId":"PLEkQk5xrP-tlArtGpeLWaqNM7h7IDeAVC","playlistName":"خطب الجمعة أ.د. يسري جبر","category":"خطب"},{"id":"wnlfNj73q7Y","title":"هل يرحم الله الكافر بعد موته؟","publishedAt":"2022-05-22T18:44:17Z","duration":"PT16M45S","thumbnail":"https://i.ytimg.com/vi/wnlfNj73q7Y/mqdefault.jpg","viewCount":"5410","playlistId":"PLEkQk5xrP-tlArtGpeLWaqNM7h7IDeAVC","playlistName":"خطب الجمعة أ.د. يسري جبر","category":"خطب"},{"id":"yRhFVFOs53I","title":"أفضل الأعمال في العشر الأوائل من ذي الحجة","publishedAt":"2024-06-08T18:48:10Z","duration":"PT21M48S","thumbnail":"https://i.ytimg.com/vi/yRhFVFOs53I/mqdefault.jpg","viewCount":"10704","playlistId":"PLEkQk5xrP-tlArtGpeLWaqNM7h7IDeAVC","playlistName":"خطب الجمعة أ.د. يسري جبر","category":"خطب"},{"id":"3qYhjHxVvYI","title":"كيف تغتنم العشر الأوائل من ذي الحجة؟","publishedAt":"2024-06-06T18:00:41Z","duration":"PT8M57S","thumbnail":"https://i.ytimg.com/vi/3qYhjHxVvYI/mqdefault.jpg","viewCount":"10504","playlistId":"PLEkQk5xrP-tlArtGpeLWaqNM7h7IDeAVC","playlistName":"خطب الجمعة أ.د. يسري جبر","category":"خطب"},{"id":"MUD4rkqHVBw","title":"ما هي خطورة التنمر وكيف تتعامل مع المتنمرين؟","publishedAt":"2024-05-30T17:00:15Z","duration":"PT12M57S","thumbnail":"https://i.ytimg.com/vi/MUD4rkqHVBw/mqdefault.jpg","viewCount":"3517","playlistId":"PLEkQk5xrP-tlArtGpeLWaqNM7h7IDeAVC","playlistName":"خطب الجمعة أ.د. يسري جبر","category":"خطب"},{"id":"lxu2HdPW40s","title":"كيف نتعامل مع الأزمات    د. يسري جبر","publishedAt":"2016-11-12T13:04:10Z","duration":"PT44M36S","thumbnail":"https://i.ytimg.com/vi/lxu2HdPW40s/mqdefault.jpg","viewCount":"2669","playlistId":"PLEkQk5xrP-tlArtGpeLWaqNM7h7IDeAVC","playlistName":"خطب الجمعة أ.د. يسري جبر","category":"خطب"},{"id":"eOVptzahNcc","title":"الصفات الذميمة التي يتجنبها المسلم  د . يسرى جبر","publishedAt":"2016-03-05T06:49:18Z","duration":"PT37M14S","thumbnail":"https://i.ytimg.com/vi/eOVptzahNcc/mqdefault.jpg","viewCount":"618","playlistId":"PLEkQk5xrP-tlArtGpeLWaqNM7h7IDeAVC","playlistName":"خطب الجمعة أ.د. يسري جبر","category":"خطب"},{"id":"EBfrPQtwkUI","title":"شُبهات حول أُمّيّة النبىِ صلى الله عليه وآله وسلم وحول الغنائم فى عصرنا   د. يسرى جبر","publishedAt":"2016-02-26T19:34:17Z","duration":"PT44M3S","thumbnail":"https://i.ytimg.com/vi/EBfrPQtwkUI/mqdefault.jpg","viewCount":"520","playlistId":"PLEkQk5xrP-tlArtGpeLWaqNM7h7IDeAVC","playlistName":"خطب الجمعة أ.د. يسري جبر","category":"خطب"},{"id":"572I8M0JAEc","title":"من مظاهر الحياء ( الأمر بالمعروف والنهى عن المنكر ) د. يسرى جبر","publishedAt":"2016-01-31T20:54:44Z","duration":"PT39M6S","thumbnail":"https://i.ytimg.com/vi/572I8M0JAEc/mqdefault.jpg","viewCount":"260","playlistId":"PLEkQk5xrP-tlArtGpeLWaqNM7h7IDeAVC","playlistName":"خطب الجمعة أ.د. يسري جبر","category":"خطب"},{"id":"71SroGBOh_g","title":"درس الجمعة ١٩ ربيع الآخر ١٤٣٧هـ","publishedAt":"2016-01-29T13:33:50Z","duration":"PT1H11S","thumbnail":"https://i.ytimg.com/vi/71SroGBOh_g/mqdefault.jpg","viewCount":"186","playlistId":"PLEkQk5xrP-tmYN0y2PQUkx881GYBxD16g","playlistName":"درس الجمعة","category":"خطب"},{"id":"4A3MVkjuJaU","title":"هل النبي ﷺ هو أفضل الخلق؟","publishedAt":"2023-01-16T18:00:02Z","duration":"PT8M24S","thumbnail":"https://i.ytimg.com/vi/4A3MVkjuJaU/mqdefault.jpg","viewCount":"2387","playlistId":"PLEkQk5xrP-tlArtGpeLWaqNM7h7IDeAVC","playlistName":"خطب الجمعة أ.د. يسري جبر","category":"خطب"},{"id":"y3j8lsUUglI","title":"ما الفرق بين إرادة وقدرة وعلم الله؟","publishedAt":"2023-01-15T18:00:28Z","duration":"PT12M13S","thumbnail":"https://i.ytimg.com/vi/y3j8lsUUglI/mqdefault.jpg","viewCount":"3799","playlistId":"PLEkQk5xrP-tlArtGpeLWaqNM7h7IDeAVC","playlistName":"خطب الجمعة أ.د. يسري جبر","category":"خطب"},{"id":"Uluzgse_D6M","title":"الإحسان.  أ.د. يسري جبر","publishedAt":"2019-12-25T09:10:49Z","duration":"PT37M27S","thumbnail":"https://i.ytimg.com/vi/Uluzgse_D6M/mqdefault.jpg","viewCount":"2812","playlistId":"PLEkQk5xrP-tlArtGpeLWaqNM7h7IDeAVC","playlistName":"خطب الجمعة أ.د. يسري جبر","category":"خطب"},{"id":"RgHjwr_5lBQ","title":"كيف تستغل شبابك؟","publishedAt":"2023-01-14T18:00:13Z","duration":"PT12M55S","thumbnail":"https://i.ytimg.com/vi/RgHjwr_5lBQ/mqdefault.jpg","viewCount":"4894","playlistId":"PLEkQk5xrP-tlArtGpeLWaqNM7h7IDeAVC","playlistName":"خطب الجمعة أ.د. يسري جبر","category":"خطب"},{"id":"NnscmR4Y6Wc","title":"الرد على منتقدي الشيخ الشعراوي","publishedAt":"2023-01-13T18:00:15Z","duration":"PT10M29S","thumbnail":"https://i.ytimg.com/vi/NnscmR4Y6Wc/mqdefault.jpg","viewCount":"77179","playlistId":"PLEkQk5xrP-tlArtGpeLWaqNM7h7IDeAVC","playlistName":"خطب الجمعة أ.د. يسري جبر","category":"خطب"},{"id":"Li_nh5lxwiA","title":"الخلاصة من البداية للنهاية","publishedAt":"2021-10-11T19:52:42Z","duration":"PT42M53S","thumbnail":"https://i.ytimg.com/vi/Li_nh5lxwiA/mqdefault.jpg","viewCount":"15785","playlistId":"PLEkQk5xrP-tlArtGpeLWaqNM7h7IDeAVC","playlistName":"خطب الجمعة أ.د. يسري جبر","category":"خطب"},{"id":"U473amEsySM","title":"يوم الفرقان | أ.د. يسري جبر","publishedAt":"2022-04-17T21:45:00Z","duration":"PT12M4S","thumbnail":"https://i.ytimg.com/vi/U473amEsySM/mqdefault.jpg","viewCount":"2896","playlistId":"PLEkQk5xrP-tlArtGpeLWaqNM7h7IDeAVC","playlistName":"خطب الجمعة أ.د. يسري جبر","category":"خطب"}],"total":675,"page":15,"pageSize":24,"totalPages":29}