{"items":[{"id":"Gd5Z-gOBEz8","title":"الدفاع عن الصحابة وحكم الطعن فيهم!","publishedAt":"2023-07-16T18:00:12Z","duration":"PT11M12S","thumbnail":"https://i.ytimg.com/vi/Gd5Z-gOBEz8/mqdefault.jpg","viewCount":"3583","playlistId":"PLEkQk5xrP-tlArtGpeLWaqNM7h7IDeAVC","playlistName":"خطب الجمعة أ.د. يسري جبر","category":"خطب"},{"id":"Go1kDuLuwIg","title":"ما الفرق بين الدنيا والبرزخ والبعث والنشور؟","publishedAt":"2023-07-15T18:00:05Z","duration":"PT8M21S","thumbnail":"https://i.ytimg.com/vi/Go1kDuLuwIg/mqdefault.jpg","viewCount":"6890","playlistId":"PLEkQk5xrP-tlArtGpeLWaqNM7h7IDeAVC","playlistName":"خطب الجمعة أ.د. يسري جبر","category":"خطب"},{"id":"J8FcnmC8JQ0","title":"شرح مبسط لوحدة الوجود عند الصوفية","publishedAt":"2023-07-14T18:00:06Z","duration":"PT9M7S","thumbnail":"https://i.ytimg.com/vi/J8FcnmC8JQ0/mqdefault.jpg","viewCount":"24258","playlistId":"PLEkQk5xrP-tlArtGpeLWaqNM7h7IDeAVC","playlistName":"خطب الجمعة أ.د. يسري جبر","category":"خطب"},{"id":"d3RbfRu3DAU","title":"كيف تفوز في رمضان؟ (۲)","publishedAt":"2021-04-21T19:15:01Z","duration":"PT32M58S","thumbnail":"https://i.ytimg.com/vi/d3RbfRu3DAU/mqdefault.jpg","viewCount":"2856","playlistId":"PLEkQk5xrP-tlArtGpeLWaqNM7h7IDeAVC","playlistName":"خطب الجمعة أ.د. يسري جبر","category":"خطب"},{"id":"z_XNuzfoGs0","title":"الشريعة والحقيقة في حديث لا عَدْوى ولا طِيَرة","publishedAt":"2020-10-02T10:00:26Z","duration":"PT54M43S","thumbnail":"https://i.ytimg.com/vi/z_XNuzfoGs0/mqdefault.jpg","viewCount":"1974","playlistId":"PLEkQk5xrP-tlArtGpeLWaqNM7h7IDeAVC","playlistName":"خطب الجمعة أ.د. يسري جبر","category":"خطب"},{"id":"rjr5isA5-lw","title":"كيف تغتنم ليالي رمضان؟","publishedAt":"2021-04-17T19:15:02Z","duration":"PT10M20S","thumbnail":"https://i.ytimg.com/vi/rjr5isA5-lw/mqdefault.jpg","viewCount":"8253","playlistId":"PLEkQk5xrP-tlArtGpeLWaqNM7h7IDeAVC","playlistName":"خطب الجمعة أ.د. يسري جبر","category":"خطب"},{"id":"L2QGmJBTAew","title":"أفضل ذكر للصائم في رمضان","publishedAt":"2021-04-16T19:15:00Z","duration":"PT13M46S","thumbnail":"https://i.ytimg.com/vi/L2QGmJBTAew/mqdefault.jpg","viewCount":"14430","playlistId":"PLEkQk5xrP-tlArtGpeLWaqNM7h7IDeAVC","playlistName":"خطب الجمعة أ.د. يسري جبر","category":"خطب"},{"id":"-i-i9DBZgHE","title":"عاشوراء ومقتل مولانا الإمام الحسين رضي الله تعالى عنه وعليه السلام  د. يسري جبر","publishedAt":"2018-09-26T15:14:33Z","duration":"PT36M34S","thumbnail":"https://i.ytimg.com/vi/-i-i9DBZgHE/mqdefault.jpg","viewCount":"6823","playlistId":"PLEkQk5xrP-tlArtGpeLWaqNM7h7IDeAVC","playlistName":"خطب الجمعة أ.د. يسري جبر","category":"خطب"},{"id":"04tR9_i3HqY","title":"متى سيأتي نصر الله؟","publishedAt":"2023-10-24T18:19:39Z","duration":"PT21M3S","thumbnail":"https://i.ytimg.com/vi/04tR9_i3HqY/mqdefault.jpg","viewCount":"31761","playlistId":"PLEkQk5xrP-tlArtGpeLWaqNM7h7IDeAVC","playlistName":"خطب الجمعة أ.د. يسري جبر","category":"خطب"},{"id":"VvqxRutWilc","title":"ألا إن نصر الله قريب","publishedAt":"2023-10-13T17:00:20Z","duration":"PT8M12S","thumbnail":"https://i.ytimg.com/vi/VvqxRutWilc/mqdefault.jpg","viewCount":"17122","playlistId":"PLEkQk5xrP-tlArtGpeLWaqNM7h7IDeAVC","playlistName":"خطب الجمعة أ.د. يسري جبر","category":"خطب"},{"id":"tDYmq3TFPio","title":"درس الجمعة ٢٢ صفر ١٤٣٧هـ","publishedAt":"2015-12-04T12:55:43Z","duration":"PT54M11S","thumbnail":"https://i.ytimg.com/vi/tDYmq3TFPio/mqdefault.jpg","viewCount":"227","playlistId":"PLEkQk5xrP-tmYN0y2PQUkx881GYBxD16g","playlistName":"درس الجمعة","category":"خطب"},{"id":"DTOZ4ueS9Zs","title":"خَيرُ مَا يَكْنِزُ المَرْءُ    د. يسري جبر","publishedAt":"2015-12-03T19:52:24Z","duration":"PT49M32S","thumbnail":"https://i.ytimg.com/vi/DTOZ4ueS9Zs/mqdefault.jpg","viewCount":"207","playlistId":"PLEkQk5xrP-tlArtGpeLWaqNM7h7IDeAVC","playlistName":"خطب الجمعة أ.د. يسري جبر","category":"خطب"},{"id":"Mi5zW3NjGJ8","title":"بَعْضُ صِفَاتِ المُؤْمِنِ د. يسرى جبر","publishedAt":"2015-12-02T17:07:52Z","duration":"PT48M46S","thumbnail":"https://i.ytimg.com/vi/Mi5zW3NjGJ8/mqdefault.jpg","viewCount":"297","playlistId":"PLEkQk5xrP-tlArtGpeLWaqNM7h7IDeAVC","playlistName":"خطب الجمعة أ.د. يسري جبر","category":"خطب"},{"id":"7PIZ2poqIhU","title":"ثَلَاثٌ لَا يَسْلَمُ مِنْهُنَّ كَثِيرٌ مِنَ النَّاسِ - د. يسري جبر","publishedAt":"2015-11-29T17:21:24Z","duration":"PT34M40S","thumbnail":"https://i.ytimg.com/vi/7PIZ2poqIhU/mqdefault.jpg","viewCount":"777","playlistId":"PLEkQk5xrP-tlArtGpeLWaqNM7h7IDeAVC","playlistName":"خطب الجمعة أ.د. يسري جبر","category":"خطب"},{"id":"cH0oLec5DDo","title":"درس الجمعة","publishedAt":"2015-11-20T14:42:31Z","duration":"PT1H2M","thumbnail":"https://i.ytimg.com/vi/cH0oLec5DDo/mqdefault.jpg","viewCount":"177","playlistId":"PLEkQk5xrP-tmYN0y2PQUkx881GYBxD16g","playlistName":"درس الجمعة","category":"خطب"},{"id":"gcRQzlaoDI4","title":"( وَإِنَّكَ لَعَلَى خُلُقٍ عَظِيمٍ ) د.يسرى جبر","publishedAt":"2015-11-06T20:19:38Z","duration":"PT48M57S","thumbnail":"https://i.ytimg.com/vi/gcRQzlaoDI4/mqdefault.jpg","viewCount":"814","playlistId":"PLEkQk5xrP-tlArtGpeLWaqNM7h7IDeAVC","playlistName":"خطب الجمعة أ.د. يسري جبر","category":"خطب"},{"id":"8PFTY02ivNs","title":"كيف تفوز في رمضان؟","publishedAt":"2021-04-13T19:15:00Z","duration":"PT47M24S","thumbnail":"https://i.ytimg.com/vi/8PFTY02ivNs/mqdefault.jpg","viewCount":"21432","playlistId":"PLEkQk5xrP-tlArtGpeLWaqNM7h7IDeAVC","playlistName":"خطب الجمعة أ.د. يسري جبر","category":"خطب"},{"id":"pgQBNSPwdB0","title":"ماذا أفعل إن لم أستطع الحج هذا العام؟","publishedAt":"2023-06-25T18:04:46Z","duration":"PT8M41S","thumbnail":"https://i.ytimg.com/vi/pgQBNSPwdB0/mqdefault.jpg","viewCount":"4894","playlistId":"PLEkQk5xrP-tlArtGpeLWaqNM7h7IDeAVC","playlistName":"خطب الجمعة أ.د. يسري جبر","category":"خطب"},{"id":"aIqMyyIW0PE","title":"كيف تتحلى بأخلاق الحجاج طول العام؟","publishedAt":"2023-06-22T18:30:02Z","duration":"PT11M48S","thumbnail":"https://i.ytimg.com/vi/aIqMyyIW0PE/mqdefault.jpg","viewCount":"1908","playlistId":"PLEkQk5xrP-tlArtGpeLWaqNM7h7IDeAVC","playlistName":"خطب الجمعة أ.د. يسري جبر","category":"خطب"},{"id":"PtSLowwEx7s","title":"كيف تتخلق بأخلاق النبي ﷺ؟","publishedAt":"2022-12-05T18:00:09Z","duration":"PT17M19S","thumbnail":"https://i.ytimg.com/vi/PtSLowwEx7s/mqdefault.jpg","viewCount":"3623","playlistId":"PLEkQk5xrP-tlArtGpeLWaqNM7h7IDeAVC","playlistName":"خطب الجمعة أ.د. يسري جبر","category":"خطب"},{"id":"2uGIZbcYDIs","title":"كيف نفهم صفات الله تعالى؟","publishedAt":"2022-11-29T18:00:01Z","duration":"PT9M20S","thumbnail":"https://i.ytimg.com/vi/2uGIZbcYDIs/mqdefault.jpg","viewCount":"5388","playlistId":"PLEkQk5xrP-tlArtGpeLWaqNM7h7IDeAVC","playlistName":"خطب الجمعة أ.د. يسري جبر","category":"خطب"},{"id":"t_qrAEeYdzM","title":"ما هي صفات الله تعالى؟","publishedAt":"2022-11-27T18:00:18Z","duration":"PT10M22S","thumbnail":"https://i.ytimg.com/vi/t_qrAEeYdzM/mqdefault.jpg","viewCount":"7021","playlistId":"PLEkQk5xrP-tlArtGpeLWaqNM7h7IDeAVC","playlistName":"خطب الجمعة أ.د. يسري جبر","category":"خطب"},{"id":"KLRTHPdn8no","title":"معجزة النبي ﷺ في تبليغ الدعوة","publishedAt":"2022-11-26T18:00:17Z","duration":"PT22M14S","thumbnail":"https://i.ytimg.com/vi/KLRTHPdn8no/mqdefault.jpg","viewCount":"3618","playlistId":"PLEkQk5xrP-tlArtGpeLWaqNM7h7IDeAVC","playlistName":"خطب الجمعة أ.د. يسري جبر","category":"خطب"},{"id":"UQ4CiNB-9Rc","title":"قوانين و أسرار الرزق","publishedAt":"2022-11-21T18:00:21Z","duration":"PT12M25S","thumbnail":"https://i.ytimg.com/vi/UQ4CiNB-9Rc/mqdefault.jpg","viewCount":"17173","playlistId":"PLEkQk5xrP-tlArtGpeLWaqNM7h7IDeAVC","playlistName":"خطب الجمعة أ.د. يسري جبر","category":"خطب"}],"total":675,"page":27,"pageSize":24,"totalPages":29}