{"items":[{"id":"-i-i9DBZgHE","title":"عاشوراء ومقتل مولانا الإمام الحسين رضي الله تعالى عنه وعليه السلام  د. يسري جبر","publishedAt":"2018-09-26T15:14:33Z","duration":"PT36M34S","thumbnail":"https://i.ytimg.com/vi/-i-i9DBZgHE/mqdefault.jpg","viewCount":"6823","playlistId":"PLEkQk5xrP-tlArtGpeLWaqNM7h7IDeAVC","playlistName":"خطب الجمعة أ.د. يسري جبر","category":"خطب"},{"id":"04tR9_i3HqY","title":"متى سيأتي نصر الله؟","publishedAt":"2023-10-24T18:19:39Z","duration":"PT21M3S","thumbnail":"https://i.ytimg.com/vi/04tR9_i3HqY/mqdefault.jpg","viewCount":"31761","playlistId":"PLEkQk5xrP-tlArtGpeLWaqNM7h7IDeAVC","playlistName":"خطب الجمعة أ.د. يسري جبر","category":"خطب"},{"id":"VvqxRutWilc","title":"ألا إن نصر الله قريب","publishedAt":"2023-10-13T17:00:20Z","duration":"PT8M12S","thumbnail":"https://i.ytimg.com/vi/VvqxRutWilc/mqdefault.jpg","viewCount":"17122","playlistId":"PLEkQk5xrP-tlArtGpeLWaqNM7h7IDeAVC","playlistName":"خطب الجمعة أ.د. يسري جبر","category":"خطب"},{"id":"8PFTY02ivNs","title":"كيف تفوز في رمضان؟","publishedAt":"2021-04-13T19:15:00Z","duration":"PT47M24S","thumbnail":"https://i.ytimg.com/vi/8PFTY02ivNs/mqdefault.jpg","viewCount":"21432","playlistId":"PLEkQk5xrP-tlArtGpeLWaqNM7h7IDeAVC","playlistName":"خطب الجمعة أ.د. يسري جبر","category":"خطب"},{"id":"pgQBNSPwdB0","title":"ماذا أفعل إن لم أستطع الحج هذا العام؟","publishedAt":"2023-06-25T18:04:46Z","duration":"PT8M41S","thumbnail":"https://i.ytimg.com/vi/pgQBNSPwdB0/mqdefault.jpg","viewCount":"4894","playlistId":"PLEkQk5xrP-tlArtGpeLWaqNM7h7IDeAVC","playlistName":"خطب الجمعة أ.د. يسري جبر","category":"خطب"},{"id":"aIqMyyIW0PE","title":"كيف تتحلى بأخلاق الحجاج طول العام؟","publishedAt":"2023-06-22T18:30:02Z","duration":"PT11M48S","thumbnail":"https://i.ytimg.com/vi/aIqMyyIW0PE/mqdefault.jpg","viewCount":"1908","playlistId":"PLEkQk5xrP-tlArtGpeLWaqNM7h7IDeAVC","playlistName":"خطب الجمعة أ.د. يسري جبر","category":"خطب"},{"id":"PtSLowwEx7s","title":"كيف تتخلق بأخلاق النبي ﷺ؟","publishedAt":"2022-12-05T18:00:09Z","duration":"PT17M19S","thumbnail":"https://i.ytimg.com/vi/PtSLowwEx7s/mqdefault.jpg","viewCount":"3623","playlistId":"PLEkQk5xrP-tlArtGpeLWaqNM7h7IDeAVC","playlistName":"خطب الجمعة أ.د. يسري جبر","category":"خطب"},{"id":"2uGIZbcYDIs","title":"كيف نفهم صفات الله تعالى؟","publishedAt":"2022-11-29T18:00:01Z","duration":"PT9M20S","thumbnail":"https://i.ytimg.com/vi/2uGIZbcYDIs/mqdefault.jpg","viewCount":"5388","playlistId":"PLEkQk5xrP-tlArtGpeLWaqNM7h7IDeAVC","playlistName":"خطب الجمعة أ.د. يسري جبر","category":"خطب"},{"id":"t_qrAEeYdzM","title":"ما هي صفات الله تعالى؟","publishedAt":"2022-11-27T18:00:18Z","duration":"PT10M22S","thumbnail":"https://i.ytimg.com/vi/t_qrAEeYdzM/mqdefault.jpg","viewCount":"7021","playlistId":"PLEkQk5xrP-tlArtGpeLWaqNM7h7IDeAVC","playlistName":"خطب الجمعة أ.د. يسري جبر","category":"خطب"},{"id":"KLRTHPdn8no","title":"معجزة النبي ﷺ في تبليغ الدعوة","publishedAt":"2022-11-26T18:00:17Z","duration":"PT22M14S","thumbnail":"https://i.ytimg.com/vi/KLRTHPdn8no/mqdefault.jpg","viewCount":"3618","playlistId":"PLEkQk5xrP-tlArtGpeLWaqNM7h7IDeAVC","playlistName":"خطب الجمعة أ.د. يسري جبر","category":"خطب"},{"id":"UQ4CiNB-9Rc","title":"قوانين و أسرار الرزق","publishedAt":"2022-11-21T18:00:21Z","duration":"PT12M25S","thumbnail":"https://i.ytimg.com/vi/UQ4CiNB-9Rc/mqdefault.jpg","viewCount":"17173","playlistId":"PLEkQk5xrP-tlArtGpeLWaqNM7h7IDeAVC","playlistName":"خطب الجمعة أ.د. يسري جبر","category":"خطب"},{"id":"J2gyofOL4wg","title":"سبيل النجاة من فتنة الدجال","publishedAt":"2022-11-20T18:00:12Z","duration":"PT10M53S","thumbnail":"https://i.ytimg.com/vi/J2gyofOL4wg/mqdefault.jpg","viewCount":"6813","playlistId":"PLEkQk5xrP-tlArtGpeLWaqNM7h7IDeAVC","playlistName":"خطب الجمعة أ.د. يسري جبر","category":"خطب"},{"id":"D6wzlbaqVzw","title":"اقترب ظهور المسيح الدجال","publishedAt":"2022-11-19T18:00:06Z","duration":"PT21M5S","thumbnail":"https://i.ytimg.com/vi/D6wzlbaqVzw/mqdefault.jpg","viewCount":"29456","playlistId":"PLEkQk5xrP-tlArtGpeLWaqNM7h7IDeAVC","playlistName":"خطب الجمعة أ.د. يسري جبر","category":"خطب"},{"id":"4r-CD4P4_J8","title":"حول المولد النبوي الشريف (3)   د. يسري جبر","publishedAt":"2018-11-25T17:34:08Z","duration":"PT42M15S","thumbnail":"https://i.ytimg.com/vi/4r-CD4P4_J8/mqdefault.jpg","viewCount":"1042","playlistId":"PLEkQk5xrP-tlArtGpeLWaqNM7h7IDeAVC","playlistName":"خطب الجمعة أ.د. يسري جبر","category":"خطب"},{"id":"i83VVRngwRA","title":"حول المولد النبوي الشريف (2)   د. يسري جبر","publishedAt":"2018-11-18T18:41:31Z","duration":"PT40M52S","thumbnail":"https://i.ytimg.com/vi/i83VVRngwRA/mqdefault.jpg","viewCount":"1971","playlistId":"PLEkQk5xrP-tlArtGpeLWaqNM7h7IDeAVC","playlistName":"خطب الجمعة أ.د. يسري جبر","category":"خطب"},{"id":"NX9koGQvZ9s","title":"حول المولد النبوي الشريف (1)   د. يسري جبر","publishedAt":"2018-11-18T18:34:19Z","duration":"PT39M13S","thumbnail":"https://i.ytimg.com/vi/NX9koGQvZ9s/mqdefault.jpg","viewCount":"4875","playlistId":"PLEkQk5xrP-tlArtGpeLWaqNM7h7IDeAVC","playlistName":"خطب الجمعة أ.د. يسري جبر","category":"خطب"},{"id":"t9T2q_96FIM","title":"ما هي أفضل الأعمال في شهر شعبان؟","publishedAt":"2023-02-21T18:00:23Z","duration":"PT13M54S","thumbnail":"https://i.ytimg.com/vi/t9T2q_96FIM/mqdefault.jpg","viewCount":"17069","playlistId":"PLEkQk5xrP-tlArtGpeLWaqNM7h7IDeAVC","playlistName":"خطب الجمعة أ.د. يسري جبر","category":"خطب"},{"id":"b1CdOaDym00","title":"آدَابُ الصِيَامِ والقِيَامِ وَقِرَاءَةِ القُرْآنِ د. يسري جبر","publishedAt":"2015-06-22T18:56:49Z","duration":"PT32M53S","thumbnail":"https://i.ytimg.com/vi/b1CdOaDym00/mqdefault.jpg","viewCount":"329","playlistId":"PLEkQk5xrP-tlArtGpeLWaqNM7h7IDeAVC","playlistName":"خطب الجمعة أ.د. يسري جبر","category":"خطب"},{"id":"twOxOtO9Ivc","title":"كيف تكون عبدًا شكورًا","publishedAt":"2020-09-21T18:57:18Z","duration":"PT36M15S","thumbnail":"https://i.ytimg.com/vi/twOxOtO9Ivc/mqdefault.jpg","viewCount":"5435","playlistId":"PLEkQk5xrP-tlArtGpeLWaqNM7h7IDeAVC","playlistName":"خطب الجمعة أ.د. يسري جبر","category":"خطب"},{"id":"6TPGQOltXVc","title":"قيمة زكاة الفطر,, ومتى تخرجها؟","publishedAt":"2023-04-19T19:00:04Z","duration":"PT10M55S","thumbnail":"https://i.ytimg.com/vi/6TPGQOltXVc/mqdefault.jpg","viewCount":"5166","playlistId":"PLEkQk5xrP-tlArtGpeLWaqNM7h7IDeAVC","playlistName":"خطب الجمعة أ.د. يسري جبر","category":"خطب"},{"id":"r9Qv0JpS-ro","title":"حقائق ومعاني حول روحانية النبي ﷺ","publishedAt":"2025-02-20T20:02:42Z","duration":"PT27M28S","thumbnail":"https://i.ytimg.com/vi/r9Qv0JpS-ro/mqdefault.jpg","viewCount":"3792","playlistId":"PLEkQk5xrP-tlArtGpeLWaqNM7h7IDeAVC","playlistName":"خطب الجمعة أ.د. يسري جبر","category":"خطب"},{"id":"mEsKC0gpJmE","title":"كيف يكون النبي ﷺ قدوتي في الحياة؟","publishedAt":"2025-02-19T19:29:55Z","duration":"PT22M35S","thumbnail":"https://i.ytimg.com/vi/mEsKC0gpJmE/mqdefault.jpg","viewCount":"3293","playlistId":"PLEkQk5xrP-tlArtGpeLWaqNM7h7IDeAVC","playlistName":"خطب الجمعة أ.د. يسري جبر","category":"خطب"},{"id":"Xux0Pn5Br5A","title":"كيف نتأدَّب فى رمضان د. يسري جبر","publishedAt":"2015-06-12T11:02:34Z","duration":"PT48M6S","thumbnail":"https://i.ytimg.com/vi/Xux0Pn5Br5A/mqdefault.jpg","viewCount":"1491","playlistId":"PLEkQk5xrP-tlArtGpeLWaqNM7h7IDeAVC","playlistName":"خطب الجمعة أ.د. يسري جبر","category":"خطب"},{"id":"QRhR543s3_o","title":"ما معنى محمد رسول الله؟","publishedAt":"2022-11-15T18:00:21Z","duration":"PT16M30S","thumbnail":"https://i.ytimg.com/vi/QRhR543s3_o/mqdefault.jpg","viewCount":"4491","playlistId":"PLEkQk5xrP-tlArtGpeLWaqNM7h7IDeAVC","playlistName":"خطب الجمعة أ.د. يسري جبر","category":"خطب"}],"total":675,"page":8,"pageSize":24,"totalPages":29}