{"items":[{"id":"MmRXZa1_mQM","title":"البصر والبصيرة","publishedAt":"2020-12-07T18:33:24Z","duration":"PT8M28S","thumbnail":"https://i.ytimg.com/vi/MmRXZa1_mQM/mqdefault.jpg","viewCount":"7679","playlistId":"PLEkQk5xrP-tlArtGpeLWaqNM7h7IDeAVC","playlistName":"خطب الجمعة أ.د. يسري جبر","category":"خطب"},{"id":"0twNV7FpQag","title":"سرقة يقع فيها كثير من الناس  د. يسري جبر","publishedAt":"2016-08-27T18:25:23Z","duration":"PT41M24S","thumbnail":"https://i.ytimg.com/vi/0twNV7FpQag/mqdefault.jpg","viewCount":"2402","playlistId":"PLEkQk5xrP-tlArtGpeLWaqNM7h7IDeAVC","playlistName":"خطب الجمعة أ.د. يسري جبر","category":"خطب"},{"id":"OqqVA43pQ_A","title":"وَعَلَّمَ آدَمَ الأَسْمَاءَ كُلَّهَا - د. يسرى جبر","publishedAt":"2015-08-15T17:39:55Z","duration":"PT53M53S","thumbnail":"https://i.ytimg.com/vi/OqqVA43pQ_A/mqdefault.jpg","viewCount":"8841","playlistId":"PLEkQk5xrP-tlArtGpeLWaqNM7h7IDeAVC","playlistName":"خطب الجمعة أ.د. يسري جبر","category":"خطب"},{"id":"eOVptzahNcc","title":"الصفات الذميمة التي يتجنبها المسلم  د . يسرى جبر","publishedAt":"2016-03-05T06:49:18Z","duration":"PT37M14S","thumbnail":"https://i.ytimg.com/vi/eOVptzahNcc/mqdefault.jpg","viewCount":"618","playlistId":"PLEkQk5xrP-tlArtGpeLWaqNM7h7IDeAVC","playlistName":"خطب الجمعة أ.د. يسري جبر","category":"خطب"},{"id":"3ZCQlGjjeiM","title":"أحكام الصيام وشروطه وآدابه (خطبة مسجلة)أ.د. يسري جبر","publishedAt":"2020-04-10T10:15:10Z","duration":"PT39M53S","thumbnail":"https://i.ytimg.com/vi/3ZCQlGjjeiM/mqdefault.jpg","viewCount":"2166","playlistId":"PLEkQk5xrP-tlArtGpeLWaqNM7h7IDeAVC","playlistName":"خطب الجمعة أ.د. يسري جبر","category":"خطب"},{"id":"EBfrPQtwkUI","title":"شُبهات حول أُمّيّة النبىِ صلى الله عليه وآله وسلم وحول الغنائم فى عصرنا   د. يسرى جبر","publishedAt":"2016-02-26T19:34:17Z","duration":"PT44M3S","thumbnail":"https://i.ytimg.com/vi/EBfrPQtwkUI/mqdefault.jpg","viewCount":"520","playlistId":"PLEkQk5xrP-tlArtGpeLWaqNM7h7IDeAVC","playlistName":"خطب الجمعة أ.د. يسري جبر","category":"خطب"},{"id":"beCyefqZ_v0","title":"الوفاء بالعهد","publishedAt":"2017-11-13T21:06:42Z","duration":"PT40M4S","thumbnail":"https://i.ytimg.com/vi/beCyefqZ_v0/mqdefault.jpg","viewCount":"384","playlistId":"PLEkQk5xrP-tlArtGpeLWaqNM7h7IDeAVC","playlistName":"خطب الجمعة أ.د. يسري جبر","category":"خطب"},{"id":"1maCqKtd0uc","title":"وَلَقَدْ كَرَّمْنَا بَنِى ءَادَمَ - د. يسرى جبر","publishedAt":"2015-08-22T18:42:24Z","duration":"PT41M36S","thumbnail":"https://i.ytimg.com/vi/1maCqKtd0uc/mqdefault.jpg","viewCount":"229","playlistId":"PLEkQk5xrP-tlArtGpeLWaqNM7h7IDeAVC","playlistName":"خطب الجمعة أ.د. يسري جبر","category":"خطب"},{"id":"572I8M0JAEc","title":"من مظاهر الحياء ( الأمر بالمعروف والنهى عن المنكر ) د. يسرى جبر","publishedAt":"2016-01-31T20:54:44Z","duration":"PT39M6S","thumbnail":"https://i.ytimg.com/vi/572I8M0JAEc/mqdefault.jpg","viewCount":"260","playlistId":"PLEkQk5xrP-tlArtGpeLWaqNM7h7IDeAVC","playlistName":"خطب الجمعة أ.د. يسري جبر","category":"خطب"},{"id":"71SroGBOh_g","title":"درس الجمعة ١٩ ربيع الآخر ١٤٣٧هـ","publishedAt":"2016-01-29T13:33:50Z","duration":"PT1H11S","thumbnail":"https://i.ytimg.com/vi/71SroGBOh_g/mqdefault.jpg","viewCount":"186","playlistId":"PLEkQk5xrP-tmYN0y2PQUkx881GYBxD16g","playlistName":"درس الجمعة","category":"خطب"},{"id":"4A3MVkjuJaU","title":"هل النبي ﷺ هو أفضل الخلق؟","publishedAt":"2023-01-16T18:00:02Z","duration":"PT8M24S","thumbnail":"https://i.ytimg.com/vi/4A3MVkjuJaU/mqdefault.jpg","viewCount":"2387","playlistId":"PLEkQk5xrP-tlArtGpeLWaqNM7h7IDeAVC","playlistName":"خطب الجمعة أ.د. يسري جبر","category":"خطب"},{"id":"y3j8lsUUglI","title":"ما الفرق بين إرادة وقدرة وعلم الله؟","publishedAt":"2023-01-15T18:00:28Z","duration":"PT12M13S","thumbnail":"https://i.ytimg.com/vi/y3j8lsUUglI/mqdefault.jpg","viewCount":"3799","playlistId":"PLEkQk5xrP-tlArtGpeLWaqNM7h7IDeAVC","playlistName":"خطب الجمعة أ.د. يسري جبر","category":"خطب"},{"id":"Uluzgse_D6M","title":"الإحسان.  أ.د. يسري جبر","publishedAt":"2019-12-25T09:10:49Z","duration":"PT37M27S","thumbnail":"https://i.ytimg.com/vi/Uluzgse_D6M/mqdefault.jpg","viewCount":"2812","playlistId":"PLEkQk5xrP-tlArtGpeLWaqNM7h7IDeAVC","playlistName":"خطب الجمعة أ.د. يسري جبر","category":"خطب"},{"id":"2rLVN0kvkao","title":"الوَفَاءُ بِالعَهْدِ.   أ.د. يسري جبر","publishedAt":"2019-01-27T18:37:05Z","duration":"PT35M29S","thumbnail":"https://i.ytimg.com/vi/2rLVN0kvkao/mqdefault.jpg","viewCount":"451","playlistId":"PLEkQk5xrP-tlArtGpeLWaqNM7h7IDeAVC","playlistName":"خطب الجمعة أ.د. يسري جبر","category":"خطب"},{"id":"fGJsx9pESew","title":"لماذا نحتفل بمولد النبي ﷺ وهل الاحتفال بدعة؟","publishedAt":"2025-08-26T17:30:12Z","duration":"PT21M27S","thumbnail":"https://i.ytimg.com/vi/fGJsx9pESew/mqdefault.jpg","viewCount":"9117","playlistId":"PLEkQk5xrP-tlArtGpeLWaqNM7h7IDeAVC","playlistName":"خطب الجمعة أ.د. يسري جبر","category":"خطب"},{"id":"As3mTPewN5A","title":"كيف نحتفل بمولد النبي ﷺ؟","publishedAt":"2025-08-24T17:00:10Z","duration":"PT21M49S","thumbnail":"https://i.ytimg.com/vi/As3mTPewN5A/mqdefault.jpg","viewCount":"6233","playlistId":"PLEkQk5xrP-tlArtGpeLWaqNM7h7IDeAVC","playlistName":"خطب الجمعة أ.د. يسري جبر","category":"خطب"},{"id":"RgHjwr_5lBQ","title":"كيف تستغل شبابك؟","publishedAt":"2023-01-14T18:00:13Z","duration":"PT12M55S","thumbnail":"https://i.ytimg.com/vi/RgHjwr_5lBQ/mqdefault.jpg","viewCount":"4894","playlistId":"PLEkQk5xrP-tlArtGpeLWaqNM7h7IDeAVC","playlistName":"خطب الجمعة أ.د. يسري جبر","category":"خطب"},{"id":"NnscmR4Y6Wc","title":"الرد على منتقدي الشيخ الشعراوي","publishedAt":"2023-01-13T18:00:15Z","duration":"PT10M29S","thumbnail":"https://i.ytimg.com/vi/NnscmR4Y6Wc/mqdefault.jpg","viewCount":"77179","playlistId":"PLEkQk5xrP-tlArtGpeLWaqNM7h7IDeAVC","playlistName":"خطب الجمعة أ.د. يسري جبر","category":"خطب"},{"id":"evFrTbq8CdM","title":"حول ميلاد النَّبِىِّ صَلَّى اللهُ عليه وآله وسَلَّمَ وأَخْلاقه التى افْتَقَدْناها د. يسري جبر","publishedAt":"2015-12-27T12:01:47Z","duration":"PT53M54S","thumbnail":"https://i.ytimg.com/vi/evFrTbq8CdM/mqdefault.jpg","viewCount":"215","playlistId":"PLEkQk5xrP-tlArtGpeLWaqNM7h7IDeAVC","playlistName":"خطب الجمعة أ.د. يسري جبر","category":"خطب"},{"id":"XLn-rq6fGm8","title":"فى شهرِ ميلاد النَّبِىِّ يحلُو الكلام عنِ الَّنبِىِّ صَلَّى اللهُ عليه وآله وسلَّم د. يسري جبر","publishedAt":"2015-12-19T17:20:29Z","duration":"PT49M3S","thumbnail":"https://i.ytimg.com/vi/XLn-rq6fGm8/mqdefault.jpg","viewCount":"296","playlistId":"PLEkQk5xrP-tlArtGpeLWaqNM7h7IDeAVC","playlistName":"خطب الجمعة أ.د. يسري جبر","category":"خطب"},{"id":"R-ES8PJfQWA","title":"خطورة إهدار المال العام","publishedAt":"2021-08-02T17:30:02Z","duration":"PT14M12S","thumbnail":"https://i.ytimg.com/vi/R-ES8PJfQWA/mqdefault.jpg","viewCount":"2023","playlistId":"PLEkQk5xrP-tlArtGpeLWaqNM7h7IDeAVC","playlistName":"خطب الجمعة أ.د. يسري جبر","category":"خطب"},{"id":"Z5QyWOu5D-A","title":"ما حكم الخروج على الحاكم؟","publishedAt":"2022-11-11T18:00:30Z","duration":"PT15M43S","thumbnail":"https://i.ytimg.com/vi/Z5QyWOu5D-A/mqdefault.jpg","viewCount":"5630","playlistId":"PLEkQk5xrP-tlArtGpeLWaqNM7h7IDeAVC","playlistName":"خطب الجمعة أ.د. يسري جبر","category":"خطب"},{"id":"jdDoI8-1pIs","title":"حول إسراء النبي صلى الله عليه وآله وسلم ومعراجه.  أ.د. يسري جبر","publishedAt":"2019-03-31T15:27:49Z","duration":"PT40M35S","thumbnail":"https://i.ytimg.com/vi/jdDoI8-1pIs/mqdefault.jpg","viewCount":"897","playlistId":"PLEkQk5xrP-tlArtGpeLWaqNM7h7IDeAVC","playlistName":"خطب الجمعة أ.د. يسري جبر","category":"خطب"},{"id":"gKPcrU0dNPQ","title":"كيفية التأسي بالنبي صلى الله عليه وآله وسلم د. يسري جبر","publishedAt":"2016-06-14T14:25:13Z","duration":"PT49M29S","thumbnail":"https://i.ytimg.com/vi/gKPcrU0dNPQ/mqdefault.jpg","viewCount":"628","playlistId":"PLEkQk5xrP-tlArtGpeLWaqNM7h7IDeAVC","playlistName":"خطب الجمعة أ.د. يسري جبر","category":"خطب"}],"total":675,"page":7,"pageSize":24,"totalPages":29}