{"items":[{"id":"QDJr8J7I8x4","title":"دقائق في العقيدة.  أ.د. يسري جبر","publishedAt":"2019-11-16T21:54:49Z","duration":"PT51M25S","thumbnail":"https://i.ytimg.com/vi/QDJr8J7I8x4/mqdefault.jpg","viewCount":"17284","playlistId":"PLEkQk5xrP-tlArtGpeLWaqNM7h7IDeAVC","playlistName":"خطب الجمعة أ.د. يسري جبر","category":"خطب"},{"id":"qEbf535WF9Y","title":"تعليقات حول مناسك الحج","publishedAt":"2019-11-05T14:10:50Z","duration":"PT45M28S","thumbnail":"https://i.ytimg.com/vi/qEbf535WF9Y/mqdefault.jpg","viewCount":"433","playlistId":"PLEkQk5xrP-tlArtGpeLWaqNM7h7IDeAVC","playlistName":"خطب الجمعة أ.د. يسري جبر","category":"خطب"},{"id":"i8I_f0Gw0Ik","title":"العلم قبل العمل  د. يسري جبر","publishedAt":"2016-08-20T20:06:44Z","duration":"PT39M31S","thumbnail":"https://i.ytimg.com/vi/i8I_f0Gw0Ik/mqdefault.jpg","viewCount":"1061","playlistId":"PLEkQk5xrP-tlArtGpeLWaqNM7h7IDeAVC","playlistName":"خطب الجمعة أ.د. يسري جبر","category":"خطب"},{"id":"us1XfuP0hpU","title":"خطبة الجمعة - الفوائد اليسرية فى الهجرة النبوية","publishedAt":"2014-11-01T18:15:21Z","duration":"PT36M30S","thumbnail":"https://i.ytimg.com/vi/us1XfuP0hpU/mqdefault.jpg","viewCount":"693","playlistId":"PLEkQk5xrP-tlArtGpeLWaqNM7h7IDeAVC","playlistName":"خطب الجمعة أ.د. يسري جبر","category":"خطب"},{"id":"Eqw5fw_Xsjo","title":"الاستقامة  د.يسري جبر","publishedAt":"2016-08-17T19:14:06Z","duration":"PT39M21S","thumbnail":"https://i.ytimg.com/vi/Eqw5fw_Xsjo/mqdefault.jpg","viewCount":"787","playlistId":"PLEkQk5xrP-tlArtGpeLWaqNM7h7IDeAVC","playlistName":"خطب الجمعة أ.د. يسري جبر","category":"خطب"},{"id":"yfctgtF6kZk","title":"الأدلة اليُسرية على مشروعية الاحتفال بمولد خير البرية ﷺ  أ.د. يسري جبر","publishedAt":"2019-11-04T17:44:23Z","duration":"PT46M42S","thumbnail":"https://i.ytimg.com/vi/yfctgtF6kZk/mqdefault.jpg","viewCount":"13664","playlistId":"PLEkQk5xrP-tlArtGpeLWaqNM7h7IDeAVC","playlistName":"خطب الجمعة أ.د. يسري جبر","category":"خطب"},{"id":"PoJkTWsOZzA","title":"حولَ عِصْمَةِ الأنبياءِ (5)  أ.د/ يسري جبر","publishedAt":"2020-02-12T14:28:25Z","duration":"PT45M17S","thumbnail":"https://i.ytimg.com/vi/PoJkTWsOZzA/mqdefault.jpg","viewCount":"653","playlistId":"PLEkQk5xrP-tlArtGpeLWaqNM7h7IDeAVC","playlistName":"خطب الجمعة أ.د. يسري جبر","category":"خطب"},{"id":"lxWmI5yIupk","title":"حولَ عِصْمَةِ الأنبياءِ (4)  أ.د/ يسري جبر","publishedAt":"2020-02-07T14:51:22Z","duration":"PT40M23S","thumbnail":"https://i.ytimg.com/vi/lxWmI5yIupk/mqdefault.jpg","viewCount":"703","playlistId":"PLEkQk5xrP-tlArtGpeLWaqNM7h7IDeAVC","playlistName":"خطب الجمعة أ.د. يسري جبر","category":"خطب"},{"id":"684VYcPo-OI","title":"كيف تأخذ بالأسباب ولا تعتمد عليها؟","publishedAt":"2022-06-25T18:02:19Z","duration":"PT20M26S","thumbnail":"https://i.ytimg.com/vi/684VYcPo-OI/mqdefault.jpg","viewCount":"21508","playlistId":"PLEkQk5xrP-tlArtGpeLWaqNM7h7IDeAVC","playlistName":"خطب الجمعة أ.د. يسري جبر","category":"خطب"},{"id":"zjs6rQx_i1g","title":"سبب تحويل القبلة ومتى تحولت؟","publishedAt":"2025-02-14T19:00:10Z","duration":"PT19M54S","thumbnail":"https://i.ytimg.com/vi/zjs6rQx_i1g/mqdefault.jpg","viewCount":"1995","playlistId":"PLEkQk5xrP-tlArtGpeLWaqNM7h7IDeAVC","playlistName":"خطب الجمعة أ.د. يسري جبر","category":"خطب"},{"id":"Niw42C1NunE","title":"ماذا أفعل في ليلة النصف من شعبان؟","publishedAt":"2025-02-12T18:36:29Z","duration":"PT16M59S","thumbnail":"https://i.ytimg.com/vi/Niw42C1NunE/mqdefault.jpg","viewCount":"17503","playlistId":"PLEkQk5xrP-tlArtGpeLWaqNM7h7IDeAVC","playlistName":"خطب الجمعة أ.د. يسري جبر","category":"خطب"},{"id":"XnxnI5DVnWw","title":"\"فَاطِمَةُ بَضْعَةٌ مِنِّي\" رضي اللهُ عنها وأرضاها وعليها السلام أ.د. يسري جبر","publishedAt":"2020-02-20T17:08:40Z","duration":"PT45M24S","thumbnail":"https://i.ytimg.com/vi/XnxnI5DVnWw/mqdefault.jpg","viewCount":"1607","playlistId":"PLEkQk5xrP-tlArtGpeLWaqNM7h7IDeAVC","playlistName":"خطب الجمعة أ.د. يسري جبر","category":"خطب"},{"id":"wlF7CCO0wGk","title":"النظافة من الإيمان","publishedAt":"2022-06-15T18:00:31Z","duration":"PT19M12S","thumbnail":"https://i.ytimg.com/vi/wlF7CCO0wGk/mqdefault.jpg","viewCount":"2477","playlistId":"PLEkQk5xrP-tlArtGpeLWaqNM7h7IDeAVC","playlistName":"خطب الجمعة أ.د. يسري جبر","category":"خطب"},{"id":"WvStWLfjX2M","title":"الإنسان بين الوجود والعدم","publishedAt":"2022-06-14T18:53:01Z","duration":"PT8M41S","thumbnail":"https://i.ytimg.com/vi/WvStWLfjX2M/mqdefault.jpg","viewCount":"4661","playlistId":"PLEkQk5xrP-tlArtGpeLWaqNM7h7IDeAVC","playlistName":"خطب الجمعة أ.د. يسري جبر","category":"خطب"},{"id":"kfK9TukzmKo","title":"شُبُهَات مُعَاصِرَة (4) أ.د. يسري جبر","publishedAt":"2019-07-13T20:38:18Z","duration":"PT44M25S","thumbnail":"https://i.ytimg.com/vi/kfK9TukzmKo/mqdefault.jpg","viewCount":"1301","playlistId":"PLEkQk5xrP-tlArtGpeLWaqNM7h7IDeAVC","playlistName":"خطب الجمعة أ.د. يسري جبر","category":"خطب"},{"id":"eYtwLgD1kvY","title":"قضية الجبر والاختيار د. يسري جبر","publishedAt":"2016-05-14T19:31:05Z","duration":"PT45M27S","thumbnail":"https://i.ytimg.com/vi/eYtwLgD1kvY/mqdefault.jpg","viewCount":"3277","playlistId":"PLEkQk5xrP-tlArtGpeLWaqNM7h7IDeAVC","playlistName":"خطب الجمعة أ.د. يسري جبر","category":"خطب"},{"id":"BZnzZYnaCu4","title":"الصدق والإخلاص د . يسري جبر","publishedAt":"2016-05-12T17:10:05Z","duration":"PT41M38S","thumbnail":"https://i.ytimg.com/vi/BZnzZYnaCu4/mqdefault.jpg","viewCount":"1506","playlistId":"PLEkQk5xrP-tlArtGpeLWaqNM7h7IDeAVC","playlistName":"خطب الجمعة أ.د. يسري جبر","category":"خطب"},{"id":"aAO1RtPm704","title":"شكر النعم | أ.د. يسري جبر","publishedAt":"2021-06-03T17:15:01Z","duration":"PT9M17S","thumbnail":"https://i.ytimg.com/vi/aAO1RtPm704/mqdefault.jpg","viewCount":"3028","playlistId":"PLEkQk5xrP-tlArtGpeLWaqNM7h7IDeAVC","playlistName":"خطب الجمعة أ.د. يسري جبر","category":"خطب"},{"id":"0zC3tNcoBR4","title":"الإِسْتِعْدَادُ لِلْعَشْرِالآوَاخِرِ مِن رَمَضَانَ  د. يسري جبر","publishedAt":"2015-07-03T19:24:02Z","duration":"PT39M15S","thumbnail":"https://i.ytimg.com/vi/0zC3tNcoBR4/mqdefault.jpg","viewCount":"622","playlistId":"PLEkQk5xrP-tlArtGpeLWaqNM7h7IDeAVC","playlistName":"خطب الجمعة أ.د. يسري جبر","category":"خطب"},{"id":"W4cXSri_wyA","title":"درس الجمعة لفضيلة الدكتور يسري جبر","publishedAt":"2015-07-03T13:25:49Z","duration":"PT1H6M42S","thumbnail":"https://i.ytimg.com/vi/W4cXSri_wyA/mqdefault.jpg","viewCount":"370","playlistId":"PLEkQk5xrP-tmYN0y2PQUkx881GYBxD16g","playlistName":"درس الجمعة","category":"خطب"},{"id":"9pJe_HWPhi0","title":"ميلاد الكمالات الإنسانية الأعظم ﷺ    أ.د  يسري جبر","publishedAt":"2020-04-20T09:22:56Z","duration":"PT36M25S","thumbnail":"https://i.ytimg.com/vi/9pJe_HWPhi0/mqdefault.jpg","viewCount":"1282","playlistId":"PLEkQk5xrP-tlArtGpeLWaqNM7h7IDeAVC","playlistName":"خطب الجمعة أ.د. يسري جبر","category":"خطب"},{"id":"C8tFE-f3B5o","title":"بِدَع رجبيَّة.  أ.د. يسري جبر","publishedAt":"2019-03-18T18:27:01Z","duration":"PT40M3S","thumbnail":"https://i.ytimg.com/vi/C8tFE-f3B5o/mqdefault.jpg","viewCount":"1525","playlistId":"PLEkQk5xrP-tlArtGpeLWaqNM7h7IDeAVC","playlistName":"خطب الجمعة أ.د. يسري جبر","category":"خطب"},{"id":"jHRvh6oxUjc","title":"لطائف وإشارات في الطريق إلى الله  أ.د.يسري جبر","publishedAt":"2019-10-26T18:08:43Z","duration":"PT44M22S","thumbnail":"https://i.ytimg.com/vi/jHRvh6oxUjc/mqdefault.jpg","viewCount":"75826","playlistId":"PLEkQk5xrP-tlArtGpeLWaqNM7h7IDeAVC","playlistName":"خطب الجمعة أ.د. يسري جبر","category":"خطب"},{"id":"ppnNFX3TD0A","title":"خَيْرُ مَا تَطْلُبُهُ مِنْهُ مَا هُوَ طَالِبُهُ مِنْكَ.  أ.د.يسري جبر","publishedAt":"2019-10-20T18:18:15Z","duration":"PT32M49S","thumbnail":"https://i.ytimg.com/vi/ppnNFX3TD0A/mqdefault.jpg","viewCount":"2944","playlistId":"PLEkQk5xrP-tlArtGpeLWaqNM7h7IDeAVC","playlistName":"خطب الجمعة أ.د. يسري جبر","category":"خطب"}],"total":675,"page":9,"pageSize":24,"totalPages":29}