{"items":[{"id":"cYeuzojChLQ","title":"كيف تكون مع النبي ﷺ في الجنة؟","publishedAt":"2025-01-22T19:01:53Z","duration":"PT32M22S","thumbnail":"https://i.ytimg.com/vi/cYeuzojChLQ/mqdefault.jpg","viewCount":"4989","playlistId":"PLEkQk5xrP-tlArtGpeLWaqNM7h7IDeAVC","playlistName":"خطب الجمعة أ.د. يسري جبر","category":"خطب"},{"id":"ZT9R0KeaKGM","title":"كيف تصل إلى الله تعالى؟","publishedAt":"2025-01-19T19:41:13Z","duration":"PT23M40S","thumbnail":"https://i.ytimg.com/vi/ZT9R0KeaKGM/mqdefault.jpg","viewCount":"3601","playlistId":"PLEkQk5xrP-tlArtGpeLWaqNM7h7IDeAVC","playlistName":"خطب الجمعة أ.د. يسري جبر","category":"خطب"},{"id":"4gXg1NSZLaU","title":"حرية الاعتقاد لا تُعارض حدّ الرِّدَّة د. يسري جبر","publishedAt":"2018-10-20T17:39:45Z","duration":"PT26M20S","thumbnail":"https://i.ytimg.com/vi/4gXg1NSZLaU/mqdefault.jpg","viewCount":"781","playlistId":"PLEkQk5xrP-tlArtGpeLWaqNM7h7IDeAVC","playlistName":"خطب الجمعة أ.د. يسري جبر","category":"خطب"},{"id":"YGunXTkhu4s","title":"هل خلقنا الله ليعذبنا؟","publishedAt":"2024-05-27T18:47:33Z","duration":"PT26M43S","thumbnail":"https://i.ytimg.com/vi/YGunXTkhu4s/mqdefault.jpg","viewCount":"6547","playlistId":"PLEkQk5xrP-tlArtGpeLWaqNM7h7IDeAVC","playlistName":"خطب الجمعة أ.د. يسري جبر","category":"خطب"},{"id":"zu2SqvhbKIk","title":"إِنَّمَا يُوفَّى الصَّابِرونَ أَجْرَهُم بِغَيرِ حِسَاب","publishedAt":"2015-02-14T17:44:49Z","duration":"PT32M45S","thumbnail":"https://i.ytimg.com/vi/zu2SqvhbKIk/mqdefault.jpg","viewCount":"297","playlistId":"PLEkQk5xrP-tlArtGpeLWaqNM7h7IDeAVC","playlistName":"خطب الجمعة أ.د. يسري جبر","category":"خطب"},{"id":"X12LVGqh1ss","title":"مِنَ العِبَادَاتِ المَهْجُورَةِ 4","publishedAt":"2015-02-06T18:55:46Z","duration":"PT29M7S","thumbnail":"https://i.ytimg.com/vi/X12LVGqh1ss/mqdefault.jpg","viewCount":"310","playlistId":"PLEkQk5xrP-tlArtGpeLWaqNM7h7IDeAVC","playlistName":"خطب الجمعة أ.د. يسري جبر","category":"خطب"},{"id":"nWRmNYBuFMI","title":"المؤمن للمؤمن كالبنيان يشدُّ بعضه بعضا","publishedAt":"2021-11-23T20:33:30Z","duration":"PT44M21S","thumbnail":"https://i.ytimg.com/vi/nWRmNYBuFMI/mqdefault.jpg","viewCount":"1778","playlistId":"PLEkQk5xrP-tlArtGpeLWaqNM7h7IDeAVC","playlistName":"خطب الجمعة أ.د. يسري جبر","category":"خطب"},{"id":"pGZl5W9kSMA","title":"ما الفرق بين الافتقار إلى الله والغنى بالله؟","publishedAt":"2022-12-09T18:00:20Z","duration":"PT14M32S","thumbnail":"https://i.ytimg.com/vi/pGZl5W9kSMA/mqdefault.jpg","viewCount":"3568","playlistId":"PLEkQk5xrP-tlArtGpeLWaqNM7h7IDeAVC","playlistName":"خطب الجمعة أ.د. يسري جبر","category":"خطب"},{"id":"6lBrRrSX8O0","title":"كيف تشكر نعم الله عليك؟","publishedAt":"2022-12-08T18:00:06Z","duration":"PT14M8S","thumbnail":"https://i.ytimg.com/vi/6lBrRrSX8O0/mqdefault.jpg","viewCount":"5348","playlistId":"PLEkQk5xrP-tlArtGpeLWaqNM7h7IDeAVC","playlistName":"خطب الجمعة أ.د. يسري جبر","category":"خطب"},{"id":"deVcBZYmPC0","title":"نصائح حول اختيار المدرسة في مصر","publishedAt":"2017-10-07T13:53:04Z","duration":"PT30M32S","thumbnail":"https://i.ytimg.com/vi/deVcBZYmPC0/mqdefault.jpg","viewCount":"493","playlistId":"PLEkQk5xrP-tlArtGpeLWaqNM7h7IDeAVC","playlistName":"خطب الجمعة أ.د. يسري جبر","category":"خطب"},{"id":"WaiUe1Mk7D8","title":"حول الهجرة وفتنة الأسرة المعاصرة د.يسري جبر","publishedAt":"2017-10-02T19:52:50Z","duration":"PT41M51S","thumbnail":"https://i.ytimg.com/vi/WaiUe1Mk7D8/mqdefault.jpg","viewCount":"965","playlistId":"PLEkQk5xrP-tlArtGpeLWaqNM7h7IDeAVC","playlistName":"خطب الجمعة أ.د. يسري جبر","category":"خطب"},{"id":"JXsaRtjiWiQ","title":"(وَالَّذِينَ هُمْ لِأَمَانَاتِهِمْ وَعَهْدِهِمْ رَاعُونَ)   د. يسري جبر","publishedAt":"2017-03-25T17:17:30Z","duration":"PT36M41S","thumbnail":"https://i.ytimg.com/vi/JXsaRtjiWiQ/mqdefault.jpg","viewCount":"611","playlistId":"PLEkQk5xrP-tlArtGpeLWaqNM7h7IDeAVC","playlistName":"خطب الجمعة أ.د. يسري جبر","category":"خطب"},{"id":"H5nGdoCK_iY","title":"كيف تستغل وقت فراغك؟","publishedAt":"2023-01-26T18:00:10Z","duration":"PT15M27S","thumbnail":"https://i.ytimg.com/vi/H5nGdoCK_iY/mqdefault.jpg","viewCount":"8184","playlistId":"PLEkQk5xrP-tlArtGpeLWaqNM7h7IDeAVC","playlistName":"خطب الجمعة أ.د. يسري جبر","category":"خطب"},{"id":"bwRpwUHINJk","title":"أهمية تعليم معجزات النَّبيّ ﷺ لأبنائك","publishedAt":"2022-07-12T19:30:02Z","duration":"PT20M9S","thumbnail":"https://i.ytimg.com/vi/bwRpwUHINJk/mqdefault.jpg","viewCount":"4271","playlistId":"PLEkQk5xrP-tlArtGpeLWaqNM7h7IDeAVC","playlistName":"خطب الجمعة أ.د. يسري جبر","category":"خطب"},{"id":"V0lwc232yM0","title":"هل يوجد سبب لكل ما هو حرام؟","publishedAt":"2022-07-11T19:05:44Z","duration":"PT11M4S","thumbnail":"https://i.ytimg.com/vi/V0lwc232yM0/mqdefault.jpg","viewCount":"4285","playlistId":"PLEkQk5xrP-tlArtGpeLWaqNM7h7IDeAVC","playlistName":"خطب الجمعة أ.د. يسري جبر","category":"خطب"},{"id":"ut_zP-FfGgw","title":"كَيفَ نُوَدِّعُ شَهْرَ رَمَضَانَ   أ.د. يسري جبر","publishedAt":"2019-06-01T23:33:41Z","duration":"PT39M30S","thumbnail":"https://i.ytimg.com/vi/ut_zP-FfGgw/mqdefault.jpg","viewCount":"1539","playlistId":"PLEkQk5xrP-tlArtGpeLWaqNM7h7IDeAVC","playlistName":"خطب الجمعة أ.د. يسري جبر","category":"خطب"},{"id":"84rzM7EXRMo","title":"كيف تتضاعف حسناتك في الأيام المتبقية من رمضان؟","publishedAt":"2025-03-21T19:00:06Z","duration":"PT14M37S","thumbnail":"https://i.ytimg.com/vi/84rzM7EXRMo/mqdefault.jpg","viewCount":"4809","playlistId":"PLEkQk5xrP-tlArtGpeLWaqNM7h7IDeAVC","playlistName":"خطب الجمعة أ.د. يسري جبر","category":"خطب"},{"id":"BUyje5Zs5zQ","title":"مَنْ مِثْلُهُ ؟ صلّى اللهُ عليه وآله وسلّم","publishedAt":"2015-01-17T17:26:43Z","duration":"PT34M20S","thumbnail":"https://i.ytimg.com/vi/BUyje5Zs5zQ/mqdefault.jpg","viewCount":"535","playlistId":"PLEkQk5xrP-tlArtGpeLWaqNM7h7IDeAVC","playlistName":"خطب الجمعة أ.د. يسري جبر","category":"خطب"},{"id":"p1PUxEr9iJg","title":"وصفُ النبّى صلّى الله عليه وآله وسلّم","publishedAt":"2015-01-09T19:16:35Z","duration":"PT40M28S","thumbnail":"https://i.ytimg.com/vi/p1PUxEr9iJg/mqdefault.jpg","viewCount":"571","playlistId":"PLEkQk5xrP-tlArtGpeLWaqNM7h7IDeAVC","playlistName":"خطب الجمعة أ.د. يسري جبر","category":"خطب"},{"id":"RVi4_nuUhz8","title":"القدس إسلامية","publishedAt":"2017-12-09T14:47:39Z","duration":"PT33M10S","thumbnail":"https://i.ytimg.com/vi/RVi4_nuUhz8/mqdefault.jpg","viewCount":"912","playlistId":"PLEkQk5xrP-tlArtGpeLWaqNM7h7IDeAVC","playlistName":"خطب الجمعة أ.د. يسري جبر","category":"خطب"},{"id":"QX-tHl1_ftI","title":"حَولَ لَيلةِ القَدْرِ  د. يسري جبر","publishedAt":"2017-06-17T09:40:10Z","duration":"PT34M23S","thumbnail":"https://i.ytimg.com/vi/QX-tHl1_ftI/mqdefault.jpg","viewCount":"3313","playlistId":"PLEkQk5xrP-tlArtGpeLWaqNM7h7IDeAVC","playlistName":"خطب الجمعة أ.د. يسري جبر","category":"خطب"},{"id":"yxyCWEVP1gQ","title":"لطائف ومعاني حول الشهادتين","publishedAt":"2022-12-06T18:00:30Z","duration":"PT16M33S","thumbnail":"https://i.ytimg.com/vi/yxyCWEVP1gQ/mqdefault.jpg","viewCount":"2538","playlistId":"PLEkQk5xrP-tlArtGpeLWaqNM7h7IDeAVC","playlistName":"خطب الجمعة أ.د. يسري جبر","category":"خطب"},{"id":"ucPdjBNZalM","title":"حسن الخُلق من أعظم ما يُتقرب به إلى الله    د. يسري جبر","publishedAt":"2016-09-09T19:35:56Z","duration":"PT28M50S","thumbnail":"https://i.ytimg.com/vi/ucPdjBNZalM/mqdefault.jpg","viewCount":"1253","playlistId":"PLEkQk5xrP-tlArtGpeLWaqNM7h7IDeAVC","playlistName":"خطب الجمعة أ.د. يسري جبر","category":"خطب"},{"id":"jcuoenTs1Cg","title":"مقامك حيث أقامك","publishedAt":"2021-11-22T19:13:12Z","duration":"PT20M6S","thumbnail":"https://i.ytimg.com/vi/jcuoenTs1Cg/mqdefault.jpg","viewCount":"29699","playlistId":"PLEkQk5xrP-tlArtGpeLWaqNM7h7IDeAVC","playlistName":"خطب الجمعة أ.د. يسري جبر","category":"خطب"}],"total":675,"page":25,"pageSize":24,"totalPages":29}