{"items":[{"id":"9epEDMeytAc","title":"بداية العشر الأواخر وما هو موعد ليلة القدر؟","publishedAt":"2023-04-10T19:00:04Z","duration":"PT11M54S","thumbnail":"https://i.ytimg.com/vi/9epEDMeytAc/mqdefault.jpg","viewCount":"28443","playlistId":"PLEkQk5xrP-tlArtGpeLWaqNM7h7IDeAVC","playlistName":"خطب الجمعة أ.د. يسري جبر","category":"خطب"},{"id":"ZeGuK9xlS2I","title":"فضل النبي ﷺ على الامة","publishedAt":"2023-04-07T19:00:20Z","duration":"PT15M17S","thumbnail":"https://i.ytimg.com/vi/ZeGuK9xlS2I/mqdefault.jpg","viewCount":"3032","playlistId":"PLEkQk5xrP-tlArtGpeLWaqNM7h7IDeAVC","playlistName":"خطب الجمعة أ.د. يسري جبر","category":"خطب"},{"id":"S55MYGGktCA","title":"كيف تكون تقوى الله تعالى؟","publishedAt":"2023-04-05T19:00:09Z","duration":"PT23M34S","thumbnail":"https://i.ytimg.com/vi/S55MYGGktCA/mqdefault.jpg","viewCount":"9499","playlistId":"PLEkQk5xrP-tlArtGpeLWaqNM7h7IDeAVC","playlistName":"خطب الجمعة أ.د. يسري جبر","category":"خطب"},{"id":"fGJsx9pESew","title":"لماذا نحتفل بمولد النبي ﷺ وهل الاحتفال بدعة؟","publishedAt":"2025-08-26T17:30:12Z","duration":"PT21M27S","thumbnail":"https://i.ytimg.com/vi/fGJsx9pESew/mqdefault.jpg","viewCount":"9117","playlistId":"PLEkQk5xrP-tlArtGpeLWaqNM7h7IDeAVC","playlistName":"خطب الجمعة أ.د. يسري جبر","category":"خطب"},{"id":"As3mTPewN5A","title":"كيف نحتفل بمولد النبي ﷺ؟","publishedAt":"2025-08-24T17:00:10Z","duration":"PT21M49S","thumbnail":"https://i.ytimg.com/vi/As3mTPewN5A/mqdefault.jpg","viewCount":"6233","playlistId":"PLEkQk5xrP-tlArtGpeLWaqNM7h7IDeAVC","playlistName":"خطب الجمعة أ.د. يسري جبر","category":"خطب"},{"id":"ZcR0IRnKNAo","title":"كيف تغتنم ليالي رمضان؟","publishedAt":"2023-03-31T19:00:17Z","duration":"PT8M23S","thumbnail":"https://i.ytimg.com/vi/ZcR0IRnKNAo/mqdefault.jpg","viewCount":"5449","playlistId":"PLEkQk5xrP-tlArtGpeLWaqNM7h7IDeAVC","playlistName":"خطب الجمعة أ.د. يسري جبر","category":"خطب"},{"id":"tbW1UCSmh8E","title":"كيف يحبك الله تعالى؟","publishedAt":"2023-03-25T19:00:29Z","duration":"PT13M8S","thumbnail":"https://i.ytimg.com/vi/tbW1UCSmh8E/mqdefault.jpg","viewCount":"8590","playlistId":"PLEkQk5xrP-tlArtGpeLWaqNM7h7IDeAVC","playlistName":"خطب الجمعة أ.د. يسري جبر","category":"خطب"},{"id":"fZumqSf-zug","title":"كيف تبدأ رمضان بقلب سيلم؟","publishedAt":"2023-03-24T19:00:18Z","duration":"PT17M26S","thumbnail":"https://i.ytimg.com/vi/fZumqSf-zug/mqdefault.jpg","viewCount":"8016","playlistId":"PLEkQk5xrP-tlArtGpeLWaqNM7h7IDeAVC","playlistName":"خطب الجمعة أ.د. يسري جبر","category":"خطب"},{"id":"6ji28ij5vO0","title":"كيف تستثمر وقتك في رمضان؟","publishedAt":"2023-03-23T19:00:02Z","duration":"PT10M34S","thumbnail":"https://i.ytimg.com/vi/6ji28ij5vO0/mqdefault.jpg","viewCount":"11174","playlistId":"PLEkQk5xrP-tlArtGpeLWaqNM7h7IDeAVC","playlistName":"خطب الجمعة أ.د. يسري جبر","category":"خطب"},{"id":"aXfnNEquzWs","title":"كيف نستعد لشهر رمضان؟","publishedAt":"2023-03-21T18:13:49Z","duration":"PT18M15S","thumbnail":"https://i.ytimg.com/vi/aXfnNEquzWs/mqdefault.jpg","viewCount":"8793","playlistId":"PLEkQk5xrP-tlArtGpeLWaqNM7h7IDeAVC","playlistName":"خطب الجمعة أ.د. يسري جبر","category":"خطب"},{"id":"8DCF27yts-I","title":"واعلموا أن فيكم رسول الله","publishedAt":"2021-10-19T18:30:05Z","duration":"PT32M37S","thumbnail":"https://i.ytimg.com/vi/8DCF27yts-I/mqdefault.jpg","viewCount":"22483","playlistId":"PLEkQk5xrP-tlArtGpeLWaqNM7h7IDeAVC","playlistName":"خطب الجمعة أ.د. يسري جبر","category":"خطب"},{"id":"eJEy89vRBCo","title":"حَقَائِقُ مُحَمَّدِيَّة    د. يسري جبر","publishedAt":"2018-09-09T13:12:52Z","duration":"PT45M","thumbnail":"https://i.ytimg.com/vi/eJEy89vRBCo/mqdefault.jpg","viewCount":"3351","playlistId":"PLEkQk5xrP-tlArtGpeLWaqNM7h7IDeAVC","playlistName":"خطب الجمعة أ.د. يسري جبر","category":"خطب"},{"id":"VmYQvL2hfe4","title":"كيف تغتنم ما تبقى من رمضان؟","publishedAt":"2021-04-24T19:15:03Z","duration":"PT16M16S","thumbnail":"https://i.ytimg.com/vi/VmYQvL2hfe4/mqdefault.jpg","viewCount":"3943","playlistId":"PLEkQk5xrP-tlArtGpeLWaqNM7h7IDeAVC","playlistName":"خطب الجمعة أ.د. يسري جبر","category":"خطب"},{"id":"t9T2q_96FIM","title":"ما هي أفضل الأعمال في شهر شعبان؟","publishedAt":"2023-02-21T18:00:23Z","duration":"PT13M54S","thumbnail":"https://i.ytimg.com/vi/t9T2q_96FIM/mqdefault.jpg","viewCount":"17069","playlistId":"PLEkQk5xrP-tlArtGpeLWaqNM7h7IDeAVC","playlistName":"خطب الجمعة أ.د. يسري جبر","category":"خطب"},{"id":"bWGXmvXSsS8","title":"ماذا حدث ليلة الإسراء والمعراج؟","publishedAt":"2023-02-17T10:04:14Z","duration":"PT49M5S","thumbnail":"https://i.ytimg.com/vi/bWGXmvXSsS8/mqdefault.jpg","viewCount":"8155","playlistId":"PLEkQk5xrP-tlArtGpeLWaqNM7h7IDeAVC","playlistName":"خطب الجمعة أ.د. يسري جبر","category":"خطب"},{"id":"e7a73L9Ek_I","title":"هل الغاية تبرر الوسيلة؟","publishedAt":"2023-02-14T18:00:17Z","duration":"PT11M39S","thumbnail":"https://i.ytimg.com/vi/e7a73L9Ek_I/mqdefault.jpg","viewCount":"2850","playlistId":"PLEkQk5xrP-tlArtGpeLWaqNM7h7IDeAVC","playlistName":"خطب الجمعة أ.د. يسري جبر","category":"خطب"},{"id":"NfIcf4ovFMM","title":"أخلاق النبي ﷺ مع أعدائه","publishedAt":"2023-02-13T18:00:13Z","duration":"PT8M17S","thumbnail":"https://i.ytimg.com/vi/NfIcf4ovFMM/mqdefault.jpg","viewCount":"2091","playlistId":"PLEkQk5xrP-tlArtGpeLWaqNM7h7IDeAVC","playlistName":"خطب الجمعة أ.د. يسري جبر","category":"خطب"},{"id":"QuzjpcvBXig","title":"لماذا خلقنا الله؟","publishedAt":"2023-02-12T18:00:10Z","duration":"PT11M29S","thumbnail":"https://i.ytimg.com/vi/QuzjpcvBXig/mqdefault.jpg","viewCount":"5833","playlistId":"PLEkQk5xrP-tlArtGpeLWaqNM7h7IDeAVC","playlistName":"خطب الجمعة أ.د. يسري جبر","category":"خطب"},{"id":"_4xaxI7hqb8","title":"الجمال والجلال في حياة النبي ﷺ","publishedAt":"2023-02-10T18:00:16Z","duration":"PT8M2S","thumbnail":"https://i.ytimg.com/vi/_4xaxI7hqb8/mqdefault.jpg","viewCount":"2664","playlistId":"PLEkQk5xrP-tlArtGpeLWaqNM7h7IDeAVC","playlistName":"خطب الجمعة أ.د. يسري جبر","category":"خطب"},{"id":"k4hIPcu8Cis","title":"كبف تحرر نفسك من الخوف على الرزق؟","publishedAt":"2023-02-04T18:00:21Z","duration":"PT14M6S","thumbnail":"https://i.ytimg.com/vi/k4hIPcu8Cis/mqdefault.jpg","viewCount":"16801","playlistId":"PLEkQk5xrP-tlArtGpeLWaqNM7h7IDeAVC","playlistName":"خطب الجمعة أ.د. يسري جبر","category":"خطب"},{"id":"NLbXJC5ih1Y","title":"خطورة الاعتراض على قدر الله","publishedAt":"2023-02-03T18:00:09Z","duration":"PT15M14S","thumbnail":"https://i.ytimg.com/vi/NLbXJC5ih1Y/mqdefault.jpg","viewCount":"17134","playlistId":"PLEkQk5xrP-tlArtGpeLWaqNM7h7IDeAVC","playlistName":"خطب الجمعة أ.د. يسري جبر","category":"خطب"},{"id":"qcFyDaXugpM","title":"مظاهر قدرة الله في الكون","publishedAt":"2023-02-02T18:00:17Z","duration":"PT8M38S","thumbnail":"https://i.ytimg.com/vi/qcFyDaXugpM/mqdefault.jpg","viewCount":"2737","playlistId":"PLEkQk5xrP-tlArtGpeLWaqNM7h7IDeAVC","playlistName":"خطب الجمعة أ.د. يسري جبر","category":"خطب"},{"id":"Kob8B79vFW0","title":"هل اقترب ظهور المسيح الدجال وما هي فتنته؟","publishedAt":"2023-02-01T18:00:08Z","duration":"PT10M26S","thumbnail":"https://i.ytimg.com/vi/Kob8B79vFW0/mqdefault.jpg","viewCount":"16122","playlistId":"PLEkQk5xrP-tlArtGpeLWaqNM7h7IDeAVC","playlistName":"خطب الجمعة أ.د. يسري جبر","category":"خطب"},{"id":"fq0UvlsDDng","title":"فوض أمرك إلى الله","publishedAt":"2023-01-31T18:00:14Z","duration":"PT11M15S","thumbnail":"https://i.ytimg.com/vi/fq0UvlsDDng/mqdefault.jpg","viewCount":"10771","playlistId":"PLEkQk5xrP-tlArtGpeLWaqNM7h7IDeAVC","playlistName":"خطب الجمعة أ.د. يسري جبر","category":"خطب"}],"total":675,"page":11,"pageSize":24,"totalPages":29}