{"items":[{"id":"kmWW-3pNj9I","title":"الرد على من ينكر رؤية النبي ﷺ في المنام!","publishedAt":"2025-12-02T18:15:06Z","duration":"PT10M10S","thumbnail":"https://i.ytimg.com/vi/kmWW-3pNj9I/mqdefault.jpg","viewCount":"914","playlistId":"PLEkQk5xrP-tlArtGpeLWaqNM7h7IDeAVC","playlistName":"خطب الجمعة أ.د. يسري جبر","category":"خطب"},{"id":"HSPe_HG38-U","title":"متى تكون مستعدا للزواج وإنشاء أسرة صالحة؟","publishedAt":"2025-11-29T18:01:16Z","duration":"PT10M8S","thumbnail":"https://i.ytimg.com/vi/HSPe_HG38-U/mqdefault.jpg","viewCount":"1334","playlistId":"PLEkQk5xrP-tlArtGpeLWaqNM7h7IDeAVC","playlistName":"خطب الجمعة أ.د. يسري جبر","category":"خطب"},{"id":"qsd3lU15mak","title":"كيف أكون صالحا في هذا الزمان؟","publishedAt":"2025-11-28T17:01:36Z","duration":"PT11M18S","thumbnail":"https://i.ytimg.com/vi/qsd3lU15mak/mqdefault.jpg","viewCount":"1487","playlistId":"PLEkQk5xrP-tlArtGpeLWaqNM7h7IDeAVC","playlistName":"خطب الجمعة أ.د. يسري جبر","category":"خطب"},{"id":"SXKu0CzDeCo","title":"كيف وسعت رحمة الله كل شيء؟ | أجمل ما قيل عن رحمة الله","publishedAt":"2025-11-25T19:03:45Z","duration":"PT12M59S","thumbnail":"https://i.ytimg.com/vi/SXKu0CzDeCo/mqdefault.jpg","viewCount":"1634","playlistId":"PLEkQk5xrP-tlArtGpeLWaqNM7h7IDeAVC","playlistName":"خطب الجمعة أ.د. يسري جبر","category":"خطب"},{"id":"vvetyQQ_9qU","title":"قابلت مسلمين اسلموا بعد 60 سنة من الكفر!!","publishedAt":"2025-11-24T17:59:56Z","duration":"PT9M26S","thumbnail":"https://i.ytimg.com/vi/vvetyQQ_9qU/mqdefault.jpg","viewCount":"1069","playlistId":"PLEkQk5xrP-tlArtGpeLWaqNM7h7IDeAVC","playlistName":"خطب الجمعة أ.د. يسري جبر","category":"خطب"},{"id":"U6TseIMQ2hc","title":"كيف تجعل نيتك خالصة لله في جميع أعمالك؟","publishedAt":"2025-11-23T18:59:56Z","duration":"PT15M46S","thumbnail":"https://i.ytimg.com/vi/U6TseIMQ2hc/mqdefault.jpg","viewCount":"1537","playlistId":"PLEkQk5xrP-tlArtGpeLWaqNM7h7IDeAVC","playlistName":"خطب الجمعة أ.د. يسري جبر","category":"خطب"},{"id":"Nrmz3r1GxJE","title":"كيف تربي نفسك تربية نبوية؟","publishedAt":"2025-11-20T19:45:00Z","duration":"PT18M27S","thumbnail":"https://i.ytimg.com/vi/Nrmz3r1GxJE/mqdefault.jpg","viewCount":"1908","playlistId":"PLEkQk5xrP-tlArtGpeLWaqNM7h7IDeAVC","playlistName":"خطب الجمعة أ.د. يسري جبر","category":"خطب"},{"id":"PIhPm_I1XjI","title":"حقائق وإشارات في الطريق إلى الله","publishedAt":"2021-09-16T18:23:24Z","duration":"PT41M18S","thumbnail":"https://i.ytimg.com/vi/PIhPm_I1XjI/mqdefault.jpg","viewCount":"7789","playlistId":"PLEkQk5xrP-tlArtGpeLWaqNM7h7IDeAVC","playlistName":"خطب الجمعة أ.د. يسري جبر","category":"خطب"},{"id":"beCyefqZ_v0","title":"الوفاء بالعهد","publishedAt":"2017-11-13T21:06:42Z","duration":"PT40M4S","thumbnail":"https://i.ytimg.com/vi/beCyefqZ_v0/mqdefault.jpg","viewCount":"384","playlistId":"PLEkQk5xrP-tlArtGpeLWaqNM7h7IDeAVC","playlistName":"خطب الجمعة أ.د. يسري جبر","category":"خطب"},{"id":"cgixz-3AIuA","title":"علَيك أَن تَتَعَلَّمَ سُنَّةَ نَبِيِّكَ صَلَّى اللهُ علَيه وآله وسَلَّم وكيف كان يعيش د. يسري جبر","publishedAt":"2015-07-11T10:30:58Z","duration":"PT49M52S","thumbnail":"https://i.ytimg.com/vi/cgixz-3AIuA/mqdefault.jpg","viewCount":"235","playlistId":"PLEkQk5xrP-tlArtGpeLWaqNM7h7IDeAVC","playlistName":"خطب الجمعة أ.د. يسري جبر","category":"خطب"},{"id":"f0dYluUCjxs","title":"تجليات الله في الأكوان | أ.د. يسري جبر","publishedAt":"2021-06-12T14:00:30Z","duration":"PT34M44S","thumbnail":"https://i.ytimg.com/vi/f0dYluUCjxs/mqdefault.jpg","viewCount":"8264","playlistId":"PLEkQk5xrP-tlArtGpeLWaqNM7h7IDeAVC","playlistName":"خطب الجمعة أ.د. يسري جبر","category":"خطب"},{"id":"VpVbDGeR-9E","title":"لا يظِلمُ رَبٌك أحدًا","publishedAt":"2018-07-08T02:05:38Z","duration":"PT36M53S","thumbnail":"https://i.ytimg.com/vi/VpVbDGeR-9E/mqdefault.jpg","viewCount":"900","playlistId":"PLEkQk5xrP-tlArtGpeLWaqNM7h7IDeAVC","playlistName":"خطب الجمعة أ.د. يسري جبر","category":"خطب"},{"id":"n6jvRyrRyCo","title":"كيف تتحلى بالقناعة والرضا؟","publishedAt":"2022-12-27T18:00:28Z","duration":"PT8M41S","thumbnail":"https://i.ytimg.com/vi/n6jvRyrRyCo/mqdefault.jpg","viewCount":"4735","playlistId":"PLEkQk5xrP-tlArtGpeLWaqNM7h7IDeAVC","playlistName":"خطب الجمعة أ.د. يسري جبر","category":"خطب"},{"id":"fGENFLKbwwE","title":"كيف تتعامل مع الناس بتواضع؟","publishedAt":"2022-12-26T18:00:13Z","duration":"PT12M28S","thumbnail":"https://i.ytimg.com/vi/fGENFLKbwwE/mqdefault.jpg","viewCount":"4097","playlistId":"PLEkQk5xrP-tlArtGpeLWaqNM7h7IDeAVC","playlistName":"خطب الجمعة أ.د. يسري جبر","category":"خطب"},{"id":"sf_a8bxKQUo","title":"مظاهر قدرة الله في خلق الإنسان","publishedAt":"2022-12-25T18:00:14Z","duration":"PT10M53S","thumbnail":"https://i.ytimg.com/vi/sf_a8bxKQUo/mqdefault.jpg","viewCount":"3443","playlistId":"PLEkQk5xrP-tlArtGpeLWaqNM7h7IDeAVC","playlistName":"خطب الجمعة أ.د. يسري جبر","category":"خطب"},{"id":"BWQvsS_HXiA","title":"كيف تكون وارثا محمديا؟","publishedAt":"2021-06-08T19:15:01Z","duration":"PT10M50S","thumbnail":"https://i.ytimg.com/vi/BWQvsS_HXiA/mqdefault.jpg","viewCount":"7693","playlistId":"PLEkQk5xrP-tlArtGpeLWaqNM7h7IDeAVC","playlistName":"خطب الجمعة أ.د. يسري جبر","category":"خطب"},{"id":"Ywn5QSY1now","title":"أين الله؟ | أ.د. يسري جبر","publishedAt":"2021-06-07T20:00:05Z","duration":"PT15M5S","thumbnail":"https://i.ytimg.com/vi/Ywn5QSY1now/mqdefault.jpg","viewCount":"9066","playlistId":"PLEkQk5xrP-tlArtGpeLWaqNM7h7IDeAVC","playlistName":"خطب الجمعة أ.د. يسري جبر","category":"خطب"},{"id":"jAIQTavYE48","title":"طُرُقُ شُكْر الله على نِعَمِه","publishedAt":"2021-06-07T12:14:41Z","duration":"PT36M24S","thumbnail":"https://i.ytimg.com/vi/jAIQTavYE48/mqdefault.jpg","viewCount":"5541","playlistId":"PLEkQk5xrP-tlArtGpeLWaqNM7h7IDeAVC","playlistName":"خطب الجمعة أ.د. يسري جبر","category":"خطب"},{"id":"aAO1RtPm704","title":"شكر النعم | أ.د. يسري جبر","publishedAt":"2021-06-03T17:15:01Z","duration":"PT9M17S","thumbnail":"https://i.ytimg.com/vi/aAO1RtPm704/mqdefault.jpg","viewCount":"3028","playlistId":"PLEkQk5xrP-tlArtGpeLWaqNM7h7IDeAVC","playlistName":"خطب الجمعة أ.د. يسري جبر","category":"خطب"},{"id":"0zC3tNcoBR4","title":"الإِسْتِعْدَادُ لِلْعَشْرِالآوَاخِرِ مِن رَمَضَانَ  د. يسري جبر","publishedAt":"2015-07-03T19:24:02Z","duration":"PT39M15S","thumbnail":"https://i.ytimg.com/vi/0zC3tNcoBR4/mqdefault.jpg","viewCount":"622","playlistId":"PLEkQk5xrP-tlArtGpeLWaqNM7h7IDeAVC","playlistName":"خطب الجمعة أ.د. يسري جبر","category":"خطب"},{"id":"W4cXSri_wyA","title":"درس الجمعة لفضيلة الدكتور يسري جبر","publishedAt":"2015-07-03T13:25:49Z","duration":"PT1H6M42S","thumbnail":"https://i.ytimg.com/vi/W4cXSri_wyA/mqdefault.jpg","viewCount":"370","playlistId":"PLEkQk5xrP-tmYN0y2PQUkx881GYBxD16g","playlistName":"درس الجمعة","category":"خطب"},{"id":"bXHAcDAWRWM","title":"الكَونُ إِدْرَاكُكَ  د. يسري جبر","publishedAt":"2015-06-28T01:10:50Z","duration":"PT49M11S","thumbnail":"https://i.ytimg.com/vi/bXHAcDAWRWM/mqdefault.jpg","viewCount":"4302","playlistId":"PLEkQk5xrP-tlArtGpeLWaqNM7h7IDeAVC","playlistName":"خطب الجمعة أ.د. يسري جبر","category":"خطب"},{"id":"b1CdOaDym00","title":"آدَابُ الصِيَامِ والقِيَامِ وَقِرَاءَةِ القُرْآنِ د. يسري جبر","publishedAt":"2015-06-22T18:56:49Z","duration":"PT32M53S","thumbnail":"https://i.ytimg.com/vi/b1CdOaDym00/mqdefault.jpg","viewCount":"329","playlistId":"PLEkQk5xrP-tlArtGpeLWaqNM7h7IDeAVC","playlistName":"خطب الجمعة أ.د. يسري جبر","category":"خطب"},{"id":"Xux0Pn5Br5A","title":"كيف نتأدَّب فى رمضان د. يسري جبر","publishedAt":"2015-06-12T11:02:34Z","duration":"PT48M6S","thumbnail":"https://i.ytimg.com/vi/Xux0Pn5Br5A/mqdefault.jpg","viewCount":"1491","playlistId":"PLEkQk5xrP-tlArtGpeLWaqNM7h7IDeAVC","playlistName":"خطب الجمعة أ.د. يسري جبر","category":"خطب"}],"total":675,"page":1,"pageSize":24,"totalPages":29}