{"items":[{"id":"684VYcPo-OI","title":"كيف تأخذ بالأسباب ولا تعتمد عليها؟","publishedAt":"2022-06-25T18:02:19Z","duration":"PT20M26S","thumbnail":"https://i.ytimg.com/vi/684VYcPo-OI/mqdefault.jpg","viewCount":"21508","playlistId":"PLEkQk5xrP-tlArtGpeLWaqNM7h7IDeAVC","playlistName":"خطب الجمعة أ.د. يسري جبر","category":"خطب"},{"id":"wlF7CCO0wGk","title":"النظافة من الإيمان","publishedAt":"2022-06-15T18:00:31Z","duration":"PT19M12S","thumbnail":"https://i.ytimg.com/vi/wlF7CCO0wGk/mqdefault.jpg","viewCount":"2477","playlistId":"PLEkQk5xrP-tlArtGpeLWaqNM7h7IDeAVC","playlistName":"خطب الجمعة أ.د. يسري جبر","category":"خطب"},{"id":"WvStWLfjX2M","title":"الإنسان بين الوجود والعدم","publishedAt":"2022-06-14T18:53:01Z","duration":"PT8M41S","thumbnail":"https://i.ytimg.com/vi/WvStWLfjX2M/mqdefault.jpg","viewCount":"4661","playlistId":"PLEkQk5xrP-tlArtGpeLWaqNM7h7IDeAVC","playlistName":"خطب الجمعة أ.د. يسري جبر","category":"خطب"},{"id":"w3S4csS_ZjI","title":"تعامل مع المباح كأنه دواء د. يسري جبر","publishedAt":"2016-07-10T19:12:40Z","duration":"PT44M9S","thumbnail":"https://i.ytimg.com/vi/w3S4csS_ZjI/mqdefault.jpg","viewCount":"656","playlistId":"PLEkQk5xrP-tlArtGpeLWaqNM7h7IDeAVC","playlistName":"خطب الجمعة أ.د. يسري جبر","category":"خطب"},{"id":"8JNiITtGTBg","title":"خطبة عيد الفطر المبارك  د. يسري جبر","publishedAt":"2016-07-07T08:28:19Z","duration":"PT22M19S","thumbnail":"https://i.ytimg.com/vi/8JNiITtGTBg/mqdefault.jpg","viewCount":"1329","playlistId":"PLEkQk5xrP-tnTGoEr4TI_tnp8L7Ujv9dx","playlistName":"خطب العيد","category":"خطب"},{"id":"PJDzapqud1g","title":"رحمة النبي ﷺ بالأكوان","publishedAt":"2022-05-24T19:30:02Z","duration":"PT13M8S","thumbnail":"https://i.ytimg.com/vi/PJDzapqud1g/mqdefault.jpg","viewCount":"5214","playlistId":"PLEkQk5xrP-tlArtGpeLWaqNM7h7IDeAVC","playlistName":"خطب الجمعة أ.د. يسري جبر","category":"خطب"},{"id":"EE4g65A8yeM","title":"ما هو علاج السحر ,, وكيف تحمي نفسك منه؟","publishedAt":"2022-05-23T18:00:03Z","duration":"PT16M46S","thumbnail":"https://i.ytimg.com/vi/EE4g65A8yeM/mqdefault.jpg","viewCount":"32344","playlistId":"PLEkQk5xrP-tlArtGpeLWaqNM7h7IDeAVC","playlistName":"خطب الجمعة أ.د. يسري جبر","category":"خطب"},{"id":"wnlfNj73q7Y","title":"هل يرحم الله الكافر بعد موته؟","publishedAt":"2022-05-22T18:44:17Z","duration":"PT16M45S","thumbnail":"https://i.ytimg.com/vi/wnlfNj73q7Y/mqdefault.jpg","viewCount":"5410","playlistId":"PLEkQk5xrP-tlArtGpeLWaqNM7h7IDeAVC","playlistName":"خطب الجمعة أ.د. يسري جبر","category":"خطب"},{"id":"YwklgBzyCLo","title":"كيف تحمي نفسك من المجاذيب؟","publishedAt":"2022-05-19T18:00:16Z","duration":"PT14M42S","thumbnail":"https://i.ytimg.com/vi/YwklgBzyCLo/mqdefault.jpg","viewCount":"40953","playlistId":"PLEkQk5xrP-tlArtGpeLWaqNM7h7IDeAVC","playlistName":"خطب الجمعة أ.د. يسري جبر","category":"خطب"},{"id":"GGN_LVl2bSA","title":"كيف نستقبل العام الهجري الجديد؟","publishedAt":"2025-06-26T18:33:09Z","duration":"PT16M2S","thumbnail":"https://i.ytimg.com/vi/GGN_LVl2bSA/mqdefault.jpg","viewCount":"3038","playlistId":"PLEkQk5xrP-tlArtGpeLWaqNM7h7IDeAVC","playlistName":"خطب الجمعة أ.د. يسري جبر","category":"خطب"},{"id":"5y45L-AClT8","title":"فيض الرحمن في ليلة النصف من شعبان","publishedAt":"2021-03-29T13:01:03Z","duration":"PT34M36S","thumbnail":"https://i.ytimg.com/vi/5y45L-AClT8/mqdefault.jpg","viewCount":"1990","playlistId":"PLEkQk5xrP-tlArtGpeLWaqNM7h7IDeAVC","playlistName":"خطب الجمعة أ.د. يسري جبر","category":"خطب"},{"id":"u3Y-9z-OeHo","title":"فضل ليلة النصف من شعبان","publishedAt":"2021-03-27T15:08:00Z","duration":"PT16M59S","thumbnail":"https://i.ytimg.com/vi/u3Y-9z-OeHo/mqdefault.jpg","viewCount":"13791","playlistId":"PLEkQk5xrP-tlArtGpeLWaqNM7h7IDeAVC","playlistName":"خطب الجمعة أ.د. يسري جبر","category":"خطب"},{"id":"Cy-5m5pLQ2k","title":"أفضل الأعمال في شهر شعبان","publishedAt":"2021-03-25T18:30:05Z","duration":"PT28M8S","thumbnail":"https://i.ytimg.com/vi/Cy-5m5pLQ2k/mqdefault.jpg","viewCount":"5513","playlistId":"PLEkQk5xrP-tlArtGpeLWaqNM7h7IDeAVC","playlistName":"خطب الجمعة أ.د. يسري جبر","category":"خطب"},{"id":"y_qcOj8itQw","title":"وصايا النبي لدخول الجنة","publishedAt":"2021-03-21T19:58:47Z","duration":"PT8M8S","thumbnail":"https://i.ytimg.com/vi/y_qcOj8itQw/mqdefault.jpg","viewCount":"3996","playlistId":"PLEkQk5xrP-tlArtGpeLWaqNM7h7IDeAVC","playlistName":"خطب الجمعة أ.د. يسري جبر","category":"خطب"},{"id":"DiNLzDEmATU","title":"هل صلاة العيد تسقط فرض الجمعة؟ | خطبة عيد الأضحى","publishedAt":"2025-06-06T06:00:21Z","duration":"PT23M39S","thumbnail":"https://i.ytimg.com/vi/DiNLzDEmATU/mqdefault.jpg","viewCount":"3916","playlistId":"PLEkQk5xrP-tlArtGpeLWaqNM7h7IDeAVC","playlistName":"خطب الجمعة أ.د. يسري جبر","category":"خطب"},{"id":"l1qeNnLttDY","title":"ماذا تفعل في يوم عرفة؟","publishedAt":"2025-06-04T18:15:04Z","duration":"PT14M44S","thumbnail":"https://i.ytimg.com/vi/l1qeNnLttDY/mqdefault.jpg","viewCount":"10144","playlistId":"PLEkQk5xrP-tlArtGpeLWaqNM7h7IDeAVC","playlistName":"خطب الجمعة أ.د. يسري جبر","category":"خطب"},{"id":"qXMXbog7_oY","title":"ماذا تفعل إن لم تستطع الحج هذا العام؟","publishedAt":"2025-06-03T18:51:35Z","duration":"PT18M29S","thumbnail":"https://i.ytimg.com/vi/qXMXbog7_oY/mqdefault.jpg","viewCount":"3492","playlistId":"PLEkQk5xrP-tlArtGpeLWaqNM7h7IDeAVC","playlistName":"خطب الجمعة أ.د. يسري جبر","category":"خطب"},{"id":"5zdVVADYWfA","title":"علوم الطاقة بين الحقيقة والخرافات وحكم العلاج بالطاقة؟","publishedAt":"2025-05-28T19:54:31Z","duration":"PT41M13S","thumbnail":"https://i.ytimg.com/vi/5zdVVADYWfA/mqdefault.jpg","viewCount":"16560","playlistId":"PLEkQk5xrP-tlArtGpeLWaqNM7h7IDeAVC","playlistName":"خطب الجمعة أ.د. يسري جبر","category":"خطب"},{"id":"wFfvwzlGx-o","title":"كيف تغتنم العشر الأوائل من ذي الحجة؟","publishedAt":"2025-05-27T17:01:23Z","duration":"PT8M51S","thumbnail":"https://i.ytimg.com/vi/wFfvwzlGx-o/mqdefault.jpg","viewCount":"4361","playlistId":"PLEkQk5xrP-tlArtGpeLWaqNM7h7IDeAVC","playlistName":"خطب الجمعة أ.د. يسري جبر","category":"خطب"},{"id":"Vc5Ea7OKFck","title":"أفضل الأعمال في العشر الأوائل من ذي الحجة","publishedAt":"2025-05-26T20:19:42Z","duration":"PT21M48S","thumbnail":"https://i.ytimg.com/vi/Vc5Ea7OKFck/mqdefault.jpg","viewCount":"19595","playlistId":"PLEkQk5xrP-tlArtGpeLWaqNM7h7IDeAVC","playlistName":"خطب الجمعة أ.د. يسري جبر","category":"خطب"},{"id":"2RRMFn04TMo","title":"كيف يكون النبي ﷺ قدوتك في حياتك؟","publishedAt":"2025-05-25T18:23:38Z","duration":"PT10M8S","thumbnail":"https://i.ytimg.com/vi/2RRMFn04TMo/mqdefault.jpg","viewCount":"2217","playlistId":"PLEkQk5xrP-tlArtGpeLWaqNM7h7IDeAVC","playlistName":"خطب الجمعة أ.د. يسري جبر","category":"خطب"},{"id":"wgVd-VBs9Dw","title":"خطبة الجمعة | مسجد هونسلو لندن","publishedAt":"2025-05-23T14:39:08Z","duration":"PT24M1S","thumbnail":"https://i.ytimg.com/vi/wgVd-VBs9Dw/mqdefault.jpg","viewCount":"3185","playlistId":"PLEkQk5xrP-tlArtGpeLWaqNM7h7IDeAVC","playlistName":"خطب الجمعة أ.د. يسري جبر","category":"خطب"},{"id":"zAe9TVd_JJc","title":"فضل زيارة مقامات الأولياء","publishedAt":"2022-05-18T18:00:31Z","duration":"PT11M57S","thumbnail":"https://i.ytimg.com/vi/zAe9TVd_JJc/mqdefault.jpg","viewCount":"11556","playlistId":"PLEkQk5xrP-tlArtGpeLWaqNM7h7IDeAVC","playlistName":"خطب الجمعة أ.د. يسري جبر","category":"خطب"},{"id":"wZRIqF2hnWk","title":"كيف تتخلق بأخلاق رمضان طول العام؟","publishedAt":"2022-05-03T18:30:45Z","duration":"PT21M37S","thumbnail":"https://i.ytimg.com/vi/wZRIqF2hnWk/mqdefault.jpg","viewCount":"3649","playlistId":"PLEkQk5xrP-tlArtGpeLWaqNM7h7IDeAVC","playlistName":"خطب الجمعة أ.د. يسري جبر","category":"خطب"}],"total":675,"page":24,"pageSize":24,"totalPages":29}