{"items":[{"id":"1SMFYxB1sFY","title":"كيف أرضى بقضاء الله وقدره؟","publishedAt":"2022-07-25T18:29:03Z","duration":"PT18M3S","thumbnail":"https://i.ytimg.com/vi/1SMFYxB1sFY/mqdefault.jpg","viewCount":"12787","playlistId":"PLEkQk5xrP-tlArtGpeLWaqNM7h7IDeAVC","playlistName":"خطب الجمعة أ.د. يسري جبر","category":"خطب"},{"id":"UKaZqDFyv9g","title":"كيف تدرك حقيقة العبودية؟","publishedAt":"2022-07-24T18:47:54Z","duration":"PT14M10S","thumbnail":"https://i.ytimg.com/vi/UKaZqDFyv9g/mqdefault.jpg","viewCount":"5240","playlistId":"PLEkQk5xrP-tlArtGpeLWaqNM7h7IDeAVC","playlistName":"خطب الجمعة أ.د. يسري جبر","category":"خطب"},{"id":"fQqYUHtrTP8","title":"كيف يُعذَّبُ المسلم العاصي؟","publishedAt":"2022-02-22T19:15:53Z","duration":"PT8M10S","thumbnail":"https://i.ytimg.com/vi/fQqYUHtrTP8/mqdefault.jpg","viewCount":"6606","playlistId":"PLEkQk5xrP-tlArtGpeLWaqNM7h7IDeAVC","playlistName":"خطب الجمعة أ.د. يسري جبر","category":"خطب"},{"id":"3oZ6QzhWbE8","title":"أسرار معجزة الإسراء والمعراج","publishedAt":"2022-02-19T17:00:01Z","duration":"PT16M41S","thumbnail":"https://i.ytimg.com/vi/3oZ6QzhWbE8/mqdefault.jpg","viewCount":"10247","playlistId":"PLEkQk5xrP-tlArtGpeLWaqNM7h7IDeAVC","playlistName":"خطب الجمعة أ.د. يسري جبر","category":"خطب"},{"id":"uGzqje70E5s","title":"ما هي أسرار الزواج الناجح؟","publishedAt":"2022-02-16T17:30:29Z","duration":"PT9M55S","thumbnail":"https://i.ytimg.com/vi/uGzqje70E5s/mqdefault.jpg","viewCount":"24417","playlistId":"PLEkQk5xrP-tlArtGpeLWaqNM7h7IDeAVC","playlistName":"خطب الجمعة أ.د. يسري جبر","category":"خطب"},{"id":"QvJE4zitAm0","title":"عناية الله برسوله ﷺ","publishedAt":"2021-03-18T18:00:04Z","duration":"PT31M50S","thumbnail":"https://i.ytimg.com/vi/QvJE4zitAm0/mqdefault.jpg","viewCount":"5457","playlistId":"PLEkQk5xrP-tlArtGpeLWaqNM7h7IDeAVC","playlistName":"خطب الجمعة أ.د. يسري جبر","category":"خطب"},{"id":"XRZu3PJAfiY","title":"منظور الحب في الإسلام","publishedAt":"2017-11-06T04:39:03Z","duration":"PT36M42S","thumbnail":"https://i.ytimg.com/vi/XRZu3PJAfiY/mqdefault.jpg","viewCount":"786","playlistId":"PLEkQk5xrP-tlArtGpeLWaqNM7h7IDeAVC","playlistName":"خطب الجمعة أ.د. يسري جبر","category":"خطب"},{"id":"NiVIV6NELcI","title":"كيف غار اللهُ على نبيّه ﷺ","publishedAt":"2021-03-13T09:51:49Z","duration":"PT49M5S","thumbnail":"https://i.ytimg.com/vi/NiVIV6NELcI/mqdefault.jpg","viewCount":"2082","playlistId":"PLEkQk5xrP-tlArtGpeLWaqNM7h7IDeAVC","playlistName":"خطب الجمعة أ.د. يسري جبر","category":"خطب"},{"id":"Atrli-ecdUY","title":"تفسير\"سبحان الذي أسرى بعبده ليلاً\" | كما لم تسمعه من قبل","publishedAt":"2021-03-12T19:19:37Z","duration":"PT15M29S","thumbnail":"https://i.ytimg.com/vi/Atrli-ecdUY/mqdefault.jpg","viewCount":"6452","playlistId":"PLEkQk5xrP-tlArtGpeLWaqNM7h7IDeAVC","playlistName":"خطب الجمعة أ.د. يسري جبر","category":"خطب"},{"id":"N2QvIGvOrwk","title":"أسرار الإسراء والمعراج!","publishedAt":"2021-03-10T18:30:00Z","duration":"PT17M48S","thumbnail":"https://i.ytimg.com/vi/N2QvIGvOrwk/mqdefault.jpg","viewCount":"16394","playlistId":"PLEkQk5xrP-tlArtGpeLWaqNM7h7IDeAVC","playlistName":"خطب الجمعة أ.د. يسري جبر","category":"خطب"},{"id":"cSd620OLYSw","title":"إضافات يسرية لخصائص خير البرية","publishedAt":"2021-03-09T20:20:33Z","duration":"PT10M23S","thumbnail":"https://i.ytimg.com/vi/cSd620OLYSw/mqdefault.jpg","viewCount":"3268","playlistId":"PLEkQk5xrP-tlArtGpeLWaqNM7h7IDeAVC","playlistName":"خطب الجمعة أ.د. يسري جبر","category":"خطب"},{"id":"wZRIqF2hnWk","title":"كيف تتخلق بأخلاق رمضان طول العام؟","publishedAt":"2022-05-03T18:30:45Z","duration":"PT21M37S","thumbnail":"https://i.ytimg.com/vi/wZRIqF2hnWk/mqdefault.jpg","viewCount":"3649","playlistId":"PLEkQk5xrP-tlArtGpeLWaqNM7h7IDeAVC","playlistName":"خطب الجمعة أ.د. يسري جبر","category":"خطب"},{"id":"12L6TWxgwG0","title":"خطبة عيد الفطر المبارك","publishedAt":"2022-05-02T07:00:01Z","duration":"PT28M54S","thumbnail":"https://i.ytimg.com/vi/12L6TWxgwG0/mqdefault.jpg","viewCount":"3810","playlistId":"PLEkQk5xrP-tlArtGpeLWaqNM7h7IDeAVC","playlistName":"خطب الجمعة أ.د. يسري جبر","category":"خطب"},{"id":"ZLk33LkX9EM","title":"قيمة زكاة الفطر,, ومتى تخرجها؟","publishedAt":"2022-04-30T19:30:03Z","duration":"PT16M41S","thumbnail":"https://i.ytimg.com/vi/ZLk33LkX9EM/mqdefault.jpg","viewCount":"4007","playlistId":"PLEkQk5xrP-tlArtGpeLWaqNM7h7IDeAVC","playlistName":"خطب الجمعة أ.د. يسري جبر","category":"خطب"},{"id":"D359hh1POys","title":"ليلة القدر خير من ألف شهر","publishedAt":"2022-04-27T15:30:02Z","duration":"PT16M55S","thumbnail":"https://i.ytimg.com/vi/D359hh1POys/mqdefault.jpg","viewCount":"5461","playlistId":"PLEkQk5xrP-tlArtGpeLWaqNM7h7IDeAVC","playlistName":"خطب الجمعة أ.د. يسري جبر","category":"خطب"},{"id":"Me01EjpIVQs","title":"هل خلقنا الله مستضعفين في هذه الدنيا؟","publishedAt":"2023-12-07T18:18:10Z","duration":"PT15M58S","thumbnail":"https://i.ytimg.com/vi/Me01EjpIVQs/mqdefault.jpg","viewCount":"7501","playlistId":"PLEkQk5xrP-tlArtGpeLWaqNM7h7IDeAVC","playlistName":"خطب الجمعة أ.د. يسري جبر","category":"خطب"},{"id":"jqZ6SCdjGMA","title":"أسرار ذكر الله","publishedAt":"2022-02-02T18:00:18Z","duration":"PT40M15S","thumbnail":"https://i.ytimg.com/vi/jqZ6SCdjGMA/mqdefault.jpg","viewCount":"147122","playlistId":"PLEkQk5xrP-tlArtGpeLWaqNM7h7IDeAVC","playlistName":"خطب الجمعة أ.د. يسري جبر","category":"خطب"},{"id":"DaVm9RfIBVU","title":"كيف نواجه الأفلام الموجهة لدعم الشذوذ؟","publishedAt":"2022-01-28T18:15:03Z","duration":"PT23M53S","thumbnail":"https://i.ytimg.com/vi/DaVm9RfIBVU/mqdefault.jpg","viewCount":"12309","playlistId":"PLEkQk5xrP-tlArtGpeLWaqNM7h7IDeAVC","playlistName":"خطب الجمعة أ.د. يسري جبر","category":"خطب"},{"id":"PtHJ4dxLimQ","title":"انظرنا يارسول الله","publishedAt":"2021-03-04T13:16:23Z","duration":"PT36M47S","thumbnail":"https://i.ytimg.com/vi/PtHJ4dxLimQ/mqdefault.jpg","viewCount":"21359","playlistId":"PLEkQk5xrP-tlArtGpeLWaqNM7h7IDeAVC","playlistName":"خطب الجمعة أ.د. يسري جبر","category":"خطب"},{"id":"Rp6VE2mzY6E","title":"حول الحقيقة المحمدية","publishedAt":"2021-03-01T19:06:12Z","duration":"PT9M9S","thumbnail":"https://i.ytimg.com/vi/Rp6VE2mzY6E/mqdefault.jpg","viewCount":"14536","playlistId":"PLEkQk5xrP-tlArtGpeLWaqNM7h7IDeAVC","playlistName":"خطب الجمعة أ.د. يسري جبر","category":"خطب"},{"id":"LHGrGijB4Xg","title":"حقيقة الدنيا","publishedAt":"2021-02-28T17:58:51Z","duration":"PT11M44S","thumbnail":"https://i.ytimg.com/vi/LHGrGijB4Xg/mqdefault.jpg","viewCount":"13321","playlistId":"PLEkQk5xrP-tlArtGpeLWaqNM7h7IDeAVC","playlistName":"خطب الجمعة أ.د. يسري جبر","category":"خطب"},{"id":"Jml4HyRxY78","title":"كيف تتخلص من العادات السيئة؟","publishedAt":"2021-02-27T19:14:09Z","duration":"PT8M29S","thumbnail":"https://i.ytimg.com/vi/Jml4HyRxY78/mqdefault.jpg","viewCount":"6453","playlistId":"PLEkQk5xrP-tlArtGpeLWaqNM7h7IDeAVC","playlistName":"خطب الجمعة أ.د. يسري جبر","category":"خطب"},{"id":"g-QqKVRx-0c","title":"كيف نستعد لاستقبال شهر رمضان؟","publishedAt":"2021-02-23T19:29:24Z","duration":"PT10M16S","thumbnail":"https://i.ytimg.com/vi/g-QqKVRx-0c/mqdefault.jpg","viewCount":"5048","playlistId":"PLEkQk5xrP-tlArtGpeLWaqNM7h7IDeAVC","playlistName":"خطب الجمعة أ.د. يسري جبر","category":"خطب"},{"id":"Ehq4E3yreVg","title":"الأعمال المستحبة في شهر رجب","publishedAt":"2021-02-22T19:26:45Z","duration":"PT14M26S","thumbnail":"https://i.ytimg.com/vi/Ehq4E3yreVg/mqdefault.jpg","viewCount":"58807","playlistId":"PLEkQk5xrP-tlArtGpeLWaqNM7h7IDeAVC","playlistName":"خطب الجمعة أ.د. يسري جبر","category":"خطب"}],"total":675,"page":26,"pageSize":24,"totalPages":29}