{"items":[{"id":"8JGat1IL-Vw","title":"كيف تكون رحيمًا بمن حولك؟","publishedAt":"2025-04-21T18:00:09Z","duration":"PT8M37S","thumbnail":"https://i.ytimg.com/vi/8JGat1IL-Vw/mqdefault.jpg","viewCount":"3661","playlistId":"PLEkQk5xrP-tlArtGpeLWaqNM7h7IDeAVC","playlistName":"خطب الجمعة أ.د. يسري جبر","category":"خطب"},{"id":"KovBDFuvNqQ","title":"هل النبي ﷺ نور؟","publishedAt":"2025-04-17T19:34:50Z","duration":"PT22M49S","thumbnail":"https://i.ytimg.com/vi/KovBDFuvNqQ/mqdefault.jpg","viewCount":"4968","playlistId":"PLEkQk5xrP-tlArtGpeLWaqNM7h7IDeAVC","playlistName":"خطب الجمعة أ.د. يسري جبر","category":"خطب"},{"id":"QwAa5Bdz5NQ","title":"أهمية الأمانة في الاسلام","publishedAt":"2022-12-22T18:00:16Z","duration":"PT25M58S","thumbnail":"https://i.ytimg.com/vi/QwAa5Bdz5NQ/mqdefault.jpg","viewCount":"3505","playlistId":"PLEkQk5xrP-tlArtGpeLWaqNM7h7IDeAVC","playlistName":"خطب الجمعة أ.د. يسري جبر","category":"خطب"},{"id":"rP_yO8WlwBk","title":"نصائح النبي ﷺ لمواجهة الفتن","publishedAt":"2022-12-18T18:00:29Z","duration":"PT8M33S","thumbnail":"https://i.ytimg.com/vi/rP_yO8WlwBk/mqdefault.jpg","viewCount":"6253","playlistId":"PLEkQk5xrP-tlArtGpeLWaqNM7h7IDeAVC","playlistName":"خطب الجمعة أ.د. يسري جبر","category":"خطب"},{"id":"37Bv05s49WI","title":"كيف نحصن أنفسنا من فتن هذا الزمان؟","publishedAt":"2024-12-23T21:18:58Z","duration":"PT31M10S","thumbnail":"https://i.ytimg.com/vi/37Bv05s49WI/mqdefault.jpg","viewCount":"8606","playlistId":"PLEkQk5xrP-tlArtGpeLWaqNM7h7IDeAVC","playlistName":"خطب الجمعة أ.د. يسري جبر","category":"خطب"},{"id":"ScINot-2Vpo","title":"ما هي سبل النجاة من فتن آخر الزمان؟","publishedAt":"2024-12-18T15:59:39Z","duration":"PT17M52S","thumbnail":"https://i.ytimg.com/vi/ScINot-2Vpo/mqdefault.jpg","viewCount":"8203","playlistId":"PLEkQk5xrP-tlArtGpeLWaqNM7h7IDeAVC","playlistName":"خطب الجمعة أ.د. يسري جبر","category":"خطب"},{"id":"JL9-4IEihyY","title":"أول خطوة لاستقبال شهر رمضان","publishedAt":"2022-03-30T18:47:19Z","duration":"PT18M15S","thumbnail":"https://i.ytimg.com/vi/JL9-4IEihyY/mqdefault.jpg","viewCount":"9860","playlistId":"PLEkQk5xrP-tlArtGpeLWaqNM7h7IDeAVC","playlistName":"خطب الجمعة أ.د. يسري جبر","category":"خطب"},{"id":"qqO56X3lL2s","title":"كيف تجمع الناس وهم متفرقون؟","publishedAt":"2022-03-28T18:00:17Z","duration":"PT15M51S","thumbnail":"https://i.ytimg.com/vi/qqO56X3lL2s/mqdefault.jpg","viewCount":"3787","playlistId":"PLEkQk5xrP-tlArtGpeLWaqNM7h7IDeAVC","playlistName":"خطب الجمعة أ.د. يسري جبر","category":"خطب"},{"id":"iKJEFy_TaDc","title":"لماذا خرج الوهابية من أهل السنة ولم يخرجوا من الإسلام | أ.د. يسري جبر","publishedAt":"2016-10-02T03:13:26Z","duration":"PT1H27M10S","thumbnail":"https://i.ytimg.com/vi/iKJEFy_TaDc/mqdefault.jpg","viewCount":"130119","playlistId":"PLEkQk5xrP-tlArtGpeLWaqNM7h7IDeAVC","playlistName":"خطب الجمعة أ.د. يسري جبر","category":"خطب"},{"id":"R0hVD4KWC70","title":"مَا هِى عَوائِقُ المَعْرِفَةِ وَالعِلْمِ د. يسري جبر","publishedAt":"2016-01-16T16:05:23Z","duration":"PT30M52S","thumbnail":"https://i.ytimg.com/vi/R0hVD4KWC70/mqdefault.jpg","viewCount":"289","playlistId":"PLEkQk5xrP-tlArtGpeLWaqNM7h7IDeAVC","playlistName":"خطب الجمعة أ.د. يسري جبر","category":"خطب"},{"id":"FwCJqOD7s3Y","title":"درس الجمعة ٥ ربيع الآخر ١٤٣٧هـ","publishedAt":"2016-01-15T13:04:04Z","duration":"PT1H6M42S","thumbnail":"https://i.ytimg.com/vi/FwCJqOD7s3Y/mqdefault.jpg","viewCount":"180","playlistId":"PLEkQk5xrP-tmYN0y2PQUkx881GYBxD16g","playlistName":"درس الجمعة","category":"خطب"},{"id":"QVu_UZULqqQ","title":"الرد على من ينكر خصوصية النبي ﷺ","publishedAt":"2025-05-22T17:40:04Z","duration":"PT17M18S","thumbnail":"https://i.ytimg.com/vi/QVu_UZULqqQ/mqdefault.jpg","viewCount":"2804","playlistId":"PLEkQk5xrP-tlArtGpeLWaqNM7h7IDeAVC","playlistName":"خطب الجمعة أ.د. يسري جبر","category":"خطب"},{"id":"_0E6A6EoxXI","title":"كيف تحمي نفسك من أوحال التوحيد؟","publishedAt":"2025-05-21T17:00:55Z","duration":"PT8M40S","thumbnail":"https://i.ytimg.com/vi/_0E6A6EoxXI/mqdefault.jpg","viewCount":"5054","playlistId":"PLEkQk5xrP-tlArtGpeLWaqNM7h7IDeAVC","playlistName":"خطب الجمعة أ.د. يسري جبر","category":"خطب"},{"id":"Tl9gm7DaNAM","title":"خطر الفكر الوهابي على المسلمين!","publishedAt":"2025-05-20T19:50:48Z","duration":"PT43M","thumbnail":"https://i.ytimg.com/vi/Tl9gm7DaNAM/mqdefault.jpg","viewCount":"36521","playlistId":"PLEkQk5xrP-tlArtGpeLWaqNM7h7IDeAVC","playlistName":"خطب الجمعة أ.د. يسري جبر","category":"خطب"},{"id":"Hu4KmbgjmII","title":"كيف تغتنم العشر الأواخر من رمضان؟","publishedAt":"2022-04-22T19:30:01Z","duration":"PT9M42S","thumbnail":"https://i.ytimg.com/vi/Hu4KmbgjmII/mqdefault.jpg","viewCount":"6983","playlistId":"PLEkQk5xrP-tlArtGpeLWaqNM7h7IDeAVC","playlistName":"خطب الجمعة أ.د. يسري جبر","category":"خطب"},{"id":"7L7co43nbr8","title":"كيف تكون من أهل ليلة القدر؟","publishedAt":"2022-04-21T19:30:02Z","duration":"PT8M38S","thumbnail":"https://i.ytimg.com/vi/7L7co43nbr8/mqdefault.jpg","viewCount":"11185","playlistId":"PLEkQk5xrP-tlArtGpeLWaqNM7h7IDeAVC","playlistName":"خطب الجمعة أ.د. يسري جبر","category":"خطب"},{"id":"O4tAHZxBUMQ","title":"رمضانيات  د. يسري جبر","publishedAt":"2018-05-19T15:48:04Z","duration":"PT36M5S","thumbnail":"https://i.ytimg.com/vi/O4tAHZxBUMQ/mqdefault.jpg","viewCount":"1078","playlistId":"PLEkQk5xrP-tlArtGpeLWaqNM7h7IDeAVC","playlistName":"خطب الجمعة أ.د. يسري جبر","category":"خطب"},{"id":"PoJkTWsOZzA","title":"حولَ عِصْمَةِ الأنبياءِ (5)  أ.د/ يسري جبر","publishedAt":"2020-02-12T14:28:25Z","duration":"PT45M17S","thumbnail":"https://i.ytimg.com/vi/PoJkTWsOZzA/mqdefault.jpg","viewCount":"653","playlistId":"PLEkQk5xrP-tlArtGpeLWaqNM7h7IDeAVC","playlistName":"خطب الجمعة أ.د. يسري جبر","category":"خطب"},{"id":"LCQAHVMZMow","title":"شرح قضية الكسب والاختيار","publishedAt":"2022-04-18T19:30:01Z","duration":"PT16M2S","thumbnail":"https://i.ytimg.com/vi/LCQAHVMZMow/mqdefault.jpg","viewCount":"3297","playlistId":"PLEkQk5xrP-tlArtGpeLWaqNM7h7IDeAVC","playlistName":"خطب الجمعة أ.د. يسري جبر","category":"خطب"},{"id":"g5MpaEwGhIM","title":"هل يقبل الله عبادة المتخاصمين؟","publishedAt":"2024-12-14T17:04:06Z","duration":"PT9M18S","thumbnail":"https://i.ytimg.com/vi/g5MpaEwGhIM/mqdefault.jpg","viewCount":"1834","playlistId":"PLEkQk5xrP-tlArtGpeLWaqNM7h7IDeAVC","playlistName":"خطب الجمعة أ.د. يسري جبر","category":"خطب"},{"id":"Gi0ml7zkSv0","title":"من العبادات المهجورة 2","publishedAt":"2014-12-19T20:09:20Z","duration":"PT41M48S","thumbnail":"https://i.ytimg.com/vi/Gi0ml7zkSv0/mqdefault.jpg","viewCount":"717","playlistId":"PLEkQk5xrP-tlArtGpeLWaqNM7h7IDeAVC","playlistName":"خطب الجمعة أ.د. يسري جبر","category":"خطب"},{"id":"TbvQkBK5wwk","title":"مِن العبادات المهجورة","publishedAt":"2014-12-12T18:02:10Z","duration":"PT30M22S","thumbnail":"https://i.ytimg.com/vi/TbvQkBK5wwk/mqdefault.jpg","viewCount":"975","playlistId":"PLEkQk5xrP-tlArtGpeLWaqNM7h7IDeAVC","playlistName":"خطب الجمعة أ.د. يسري جبر","category":"خطب"},{"id":"9epEDMeytAc","title":"بداية العشر الأواخر وما هو موعد ليلة القدر؟","publishedAt":"2023-04-10T19:00:04Z","duration":"PT11M54S","thumbnail":"https://i.ytimg.com/vi/9epEDMeytAc/mqdefault.jpg","viewCount":"28443","playlistId":"PLEkQk5xrP-tlArtGpeLWaqNM7h7IDeAVC","playlistName":"خطب الجمعة أ.د. يسري جبر","category":"خطب"},{"id":"BWQvsS_HXiA","title":"كيف تكون وارثا محمديا؟","publishedAt":"2021-06-08T19:15:01Z","duration":"PT10M50S","thumbnail":"https://i.ytimg.com/vi/BWQvsS_HXiA/mqdefault.jpg","viewCount":"7693","playlistId":"PLEkQk5xrP-tlArtGpeLWaqNM7h7IDeAVC","playlistName":"خطب الجمعة أ.د. يسري جبر","category":"خطب"}],"total":675,"page":21,"pageSize":24,"totalPages":29}