{"items":[{"id":"iY9fuOJp2O0","title":"حول التوكل والتفويض والثقة والتسليم","publishedAt":"2017-10-29T14:02:02Z","duration":"PT34M20S","thumbnail":"https://i.ytimg.com/vi/iY9fuOJp2O0/mqdefault.jpg","viewCount":"26750","playlistId":"PLEkQk5xrP-tlArtGpeLWaqNM7h7IDeAVC","playlistName":"خطب الجمعة أ.د. يسري جبر","category":"خطب"},{"id":"wzUPm8jihYo","title":"حول القطب سيدي إبراهيم الدسوقي","publishedAt":"2017-10-21T07:10:14Z","duration":"PT42M32S","thumbnail":"https://i.ytimg.com/vi/wzUPm8jihYo/mqdefault.jpg","viewCount":"111106","playlistId":"PLEkQk5xrP-tlArtGpeLWaqNM7h7IDeAVC","playlistName":"خطب الجمعة أ.د. يسري جبر","category":"خطب"},{"id":"qvn2amnc0SI","title":"حول تربية الأولاد في الإسلام","publishedAt":"2017-10-14T10:09:31Z","duration":"PT41M19S","thumbnail":"https://i.ytimg.com/vi/qvn2amnc0SI/mqdefault.jpg","viewCount":"1202","playlistId":"PLEkQk5xrP-tlArtGpeLWaqNM7h7IDeAVC","playlistName":"خطب الجمعة أ.د. يسري جبر","category":"خطب"},{"id":"deVcBZYmPC0","title":"نصائح حول اختيار المدرسة في مصر","publishedAt":"2017-10-07T13:53:04Z","duration":"PT30M32S","thumbnail":"https://i.ytimg.com/vi/deVcBZYmPC0/mqdefault.jpg","viewCount":"493","playlistId":"PLEkQk5xrP-tlArtGpeLWaqNM7h7IDeAVC","playlistName":"خطب الجمعة أ.د. يسري جبر","category":"خطب"},{"id":"WaiUe1Mk7D8","title":"حول الهجرة وفتنة الأسرة المعاصرة د.يسري جبر","publishedAt":"2017-10-02T19:52:50Z","duration":"PT41M51S","thumbnail":"https://i.ytimg.com/vi/WaiUe1Mk7D8/mqdefault.jpg","viewCount":"965","playlistId":"PLEkQk5xrP-tlArtGpeLWaqNM7h7IDeAVC","playlistName":"خطب الجمعة أ.د. يسري جبر","category":"خطب"},{"id":"Iz13ivQDXfw","title":"كيفية تطبيق الإسلام في المراحل الزمنية المختلفة","publishedAt":"2017-09-24T20:06:25Z","duration":"PT36M46S","thumbnail":"https://i.ytimg.com/vi/Iz13ivQDXfw/mqdefault.jpg","viewCount":"457","playlistId":"PLEkQk5xrP-tlArtGpeLWaqNM7h7IDeAVC","playlistName":"خطب الجمعة أ.د. يسري جبر","category":"خطب"},{"id":"AiNTTgPLNgk","title":"وَلَا تَسُبُّوا الَّذِينَ يَدْعُونَ مِن دُونِ اللَّهِ فَيَسُبُّوا اللَّهَ عَدْوًا بِغَيْرِ عِلْمٍ","publishedAt":"2017-09-08T21:07:51Z","duration":"PT33M3S","thumbnail":"https://i.ytimg.com/vi/AiNTTgPLNgk/mqdefault.jpg","viewCount":"405","playlistId":"PLEkQk5xrP-tlArtGpeLWaqNM7h7IDeAVC","playlistName":"خطب الجمعة أ.د. يسري جبر","category":"خطب"},{"id":"lnckMw50eeg","title":"إنَّ الله كتب الإحسان على كل شيء    د.يسري جبر","publishedAt":"2017-09-03T18:17:41Z","duration":"PT38M16S","thumbnail":"https://i.ytimg.com/vi/lnckMw50eeg/mqdefault.jpg","viewCount":"700","playlistId":"PLEkQk5xrP-tlArtGpeLWaqNM7h7IDeAVC","playlistName":"خطب الجمعة أ.د. يسري جبر","category":"خطب"},{"id":"P2NIXRlrnzk","title":"هل النبي ﷺ هو أول خلق الله؟","publishedAt":"2024-09-17T16:37:38Z","duration":"PT11M26S","thumbnail":"https://i.ytimg.com/vi/P2NIXRlrnzk/mqdefault.jpg","viewCount":"2577","playlistId":"PLEkQk5xrP-tlArtGpeLWaqNM7h7IDeAVC","playlistName":"خطب الجمعة أ.د. يسري جبر","category":"خطب"},{"id":"Or6lqbi8JoA","title":"هل تعرف قدر النبي ﷺ ؟","publishedAt":"2024-09-16T17:17:04Z","duration":"PT18M36S","thumbnail":"https://i.ytimg.com/vi/Or6lqbi8JoA/mqdefault.jpg","viewCount":"3273","playlistId":"PLEkQk5xrP-tlArtGpeLWaqNM7h7IDeAVC","playlistName":"خطب الجمعة أ.د. يسري جبر","category":"خطب"},{"id":"3V5N8O1RQdA","title":"كيف ولد رسول الله ﷺ؟ | قصة المولد النبوي الشريف","publishedAt":"2024-09-15T14:10:53Z","duration":"PT19M34S","thumbnail":"https://i.ytimg.com/vi/3V5N8O1RQdA/mqdefault.jpg","viewCount":"7150","playlistId":"PLEkQk5xrP-tlArtGpeLWaqNM7h7IDeAVC","playlistName":"خطب الجمعة أ.د. يسري جبر","category":"خطب"},{"id":"COwwrZ2dXEQ","title":"الرد على من ينكر الاحتفال بالمولد النبوي!","publishedAt":"2024-09-14T17:00:14Z","duration":"PT9M16S","thumbnail":"https://i.ytimg.com/vi/COwwrZ2dXEQ/mqdefault.jpg","viewCount":"5063","playlistId":"PLEkQk5xrP-tlArtGpeLWaqNM7h7IDeAVC","playlistName":"خطب الجمعة أ.د. يسري جبر","category":"خطب"},{"id":"31qPQGVIGM8","title":"الرضا بالقضاء والقدر","publishedAt":"2024-09-03T17:51:21Z","duration":"PT17M44S","thumbnail":"https://i.ytimg.com/vi/31qPQGVIGM8/mqdefault.jpg","viewCount":"5331","playlistId":"PLEkQk5xrP-tlArtGpeLWaqNM7h7IDeAVC","playlistName":"خطب الجمعة أ.د. يسري جبر","category":"خطب"},{"id":"kk3I_DS5Igs","title":"ما من أَيام الْعملُ الصَّالح فيهِا أَحبُّ إِلى اللَّه من هذه الأيام يعني أيام العشرِ د.يسري جبر","publishedAt":"2017-08-29T16:59:26Z","duration":"PT40M50S","thumbnail":"https://i.ytimg.com/vi/kk3I_DS5Igs/mqdefault.jpg","viewCount":"428","playlistId":"PLEkQk5xrP-tlArtGpeLWaqNM7h7IDeAVC","playlistName":"خطب الجمعة أ.د. يسري جبر","category":"خطب"},{"id":"ySL0oiHv6hw","title":"الحَجُّ أَشْهُرٌ مَعْلُومَات    د.يسري جبر","publishedAt":"2017-08-13T19:04:38Z","duration":"PT35M18S","thumbnail":"https://i.ytimg.com/vi/ySL0oiHv6hw/mqdefault.jpg","viewCount":"368","playlistId":"PLEkQk5xrP-tlArtGpeLWaqNM7h7IDeAVC","playlistName":"خطب الجمعة أ.د. يسري جبر","category":"خطب"},{"id":"9qxMqbhkyZA","title":"الرَّحمةُ المُهْدَاةُ ﷺ","publishedAt":"2021-09-03T10:04:48Z","duration":"PT45M4S","thumbnail":"https://i.ytimg.com/vi/9qxMqbhkyZA/mqdefault.jpg","viewCount":"3537","playlistId":"PLEkQk5xrP-tlArtGpeLWaqNM7h7IDeAVC","playlistName":"خطب الجمعة أ.د. يسري جبر","category":"خطب"},{"id":"6xumJjZdSiU","title":"حول الحج   د.يسري جبر","publishedAt":"2017-08-05T19:24:15Z","duration":"PT42M8S","thumbnail":"https://i.ytimg.com/vi/6xumJjZdSiU/mqdefault.jpg","viewCount":"969","playlistId":"PLEkQk5xrP-tlArtGpeLWaqNM7h7IDeAVC","playlistName":"خطب الجمعة أ.د. يسري جبر","category":"خطب"},{"id":"khA9Xs9gU8Y","title":"آداب الأشهر الحُرُم  د. يسري جبر","publishedAt":"2017-07-29T16:41:53Z","duration":"PT24M30S","thumbnail":"https://i.ytimg.com/vi/khA9Xs9gU8Y/mqdefault.jpg","viewCount":"423","playlistId":"PLEkQk5xrP-tlArtGpeLWaqNM7h7IDeAVC","playlistName":"خطب الجمعة أ.د. يسري جبر","category":"خطب"},{"id":"QkZVa75skdA","title":"اتق الله حيثما كنت   د. يسري جبر","publishedAt":"2017-07-09T19:11:41Z","duration":"PT42M36S","thumbnail":"https://i.ytimg.com/vi/QkZVa75skdA/mqdefault.jpg","viewCount":"1192","playlistId":"PLEkQk5xrP-tlArtGpeLWaqNM7h7IDeAVC","playlistName":"خطب الجمعة أ.د. يسري جبر","category":"خطب"},{"id":"GrxCAi8AJDY","title":"حول ختام رمضان وزكاة الفطر","publishedAt":"2017-06-29T16:10:12Z","duration":"PT40M53S","thumbnail":"https://i.ytimg.com/vi/GrxCAi8AJDY/mqdefault.jpg","viewCount":"271","playlistId":"PLEkQk5xrP-tlArtGpeLWaqNM7h7IDeAVC","playlistName":"خطب الجمعة أ.د. يسري جبر","category":"خطب"},{"id":"QX-tHl1_ftI","title":"حَولَ لَيلةِ القَدْرِ  د. يسري جبر","publishedAt":"2017-06-17T09:40:10Z","duration":"PT34M23S","thumbnail":"https://i.ytimg.com/vi/QX-tHl1_ftI/mqdefault.jpg","viewCount":"3313","playlistId":"PLEkQk5xrP-tlArtGpeLWaqNM7h7IDeAVC","playlistName":"خطب الجمعة أ.د. يسري جبر","category":"خطب"},{"id":"aDzIOQcMyWE","title":"منوعات رمضانية   د. يسري جبر","publishedAt":"2017-06-10T17:45:11Z","duration":"PT35M56S","thumbnail":"https://i.ytimg.com/vi/aDzIOQcMyWE/mqdefault.jpg","viewCount":"645","playlistId":"PLEkQk5xrP-tlArtGpeLWaqNM7h7IDeAVC","playlistName":"خطب الجمعة أ.د. يسري جبر","category":"خطب"},{"id":"isdm9697-AY","title":"رمضانيات  د.يسري جبر","publishedAt":"2017-06-06T17:12:48Z","duration":"PT39M48S","thumbnail":"https://i.ytimg.com/vi/isdm9697-AY/mqdefault.jpg","viewCount":"682","playlistId":"PLEkQk5xrP-tlArtGpeLWaqNM7h7IDeAVC","playlistName":"خطب الجمعة أ.د. يسري جبر","category":"خطب"},{"id":"4EwFl5PgBrI","title":"البُشرى بقُدوم شهر رمضان د.يسري جبر","publishedAt":"2017-05-27T17:40:49Z","duration":"PT45M51S","thumbnail":"https://i.ytimg.com/vi/4EwFl5PgBrI/mqdefault.jpg","viewCount":"1797","playlistId":"PLEkQk5xrP-tlArtGpeLWaqNM7h7IDeAVC","playlistName":"خطب الجمعة أ.د. يسري جبر","category":"خطب"}],"total":675,"page":5,"pageSize":24,"totalPages":29}