{"items":[{"id":"rsWyl_6xSbI","title":"شجرةُ الأصل النُّورانيَّة","publishedAt":"2020-12-26T17:59:09Z","duration":"PT8M1S","thumbnail":"https://i.ytimg.com/vi/rsWyl_6xSbI/mqdefault.jpg","viewCount":"4499","playlistId":"PLEkQk5xrP-tlArtGpeLWaqNM7h7IDeAVC","playlistName":"خطب الجمعة أ.د. يسري جبر","category":"خطب"},{"id":"WsXkdz15ENI","title":"الافتقار إلى الله والغنى بالله","publishedAt":"2022-01-09T18:01:17Z","duration":"PT22M17S","thumbnail":"https://i.ytimg.com/vi/WsXkdz15ENI/mqdefault.jpg","viewCount":"4889","playlistId":"PLEkQk5xrP-tlArtGpeLWaqNM7h7IDeAVC","playlistName":"خطب الجمعة أ.د. يسري جبر","category":"خطب"},{"id":"avDW585674o","title":"١- حول ظاهرة الكسوف وكيفية صلاتها ٢- الفرق بين الجهاد فى الله والجهاد فى سبيل الله","publishedAt":"2015-03-21T03:19:07Z","duration":"PT34M50S","thumbnail":"https://i.ytimg.com/vi/avDW585674o/mqdefault.jpg","viewCount":"138","playlistId":"PLEkQk5xrP-tlArtGpeLWaqNM7h7IDeAVC","playlistName":"خطب الجمعة أ.د. يسري جبر","category":"خطب"},{"id":"bOoBopey4To","title":"حول معاني سورة الماعون أ.د. يسري جبر","publishedAt":"2018-12-18T18:31:18Z","duration":"PT41M38S","thumbnail":"https://i.ytimg.com/vi/bOoBopey4To/mqdefault.jpg","viewCount":"489","playlistId":"PLEkQk5xrP-tlArtGpeLWaqNM7h7IDeAVC","playlistName":"خطب الجمعة أ.د. يسري جبر","category":"خطب"},{"id":"6xumJjZdSiU","title":"حول الحج   د.يسري جبر","publishedAt":"2017-08-05T19:24:15Z","duration":"PT42M8S","thumbnail":"https://i.ytimg.com/vi/6xumJjZdSiU/mqdefault.jpg","viewCount":"969","playlistId":"PLEkQk5xrP-tlArtGpeLWaqNM7h7IDeAVC","playlistName":"خطب الجمعة أ.د. يسري جبر","category":"خطب"},{"id":"1x1_W05SK-s","title":"فقه الصيام (أحكامه وشروطه وآدابه) د. يسري جبر","publishedAt":"2018-05-15T10:58:52Z","duration":"PT39M53S","thumbnail":"https://i.ytimg.com/vi/1x1_W05SK-s/mqdefault.jpg","viewCount":"1774","playlistId":"PLEkQk5xrP-tlArtGpeLWaqNM7h7IDeAVC","playlistName":"خطب الجمعة أ.د. يسري جبر","category":"خطب"},{"id":"TNeDkG9QdR4","title":"آداب التعامل مع القرآن الكريم","publishedAt":"2014-11-29T19:34:04Z","duration":"PT40M14S","thumbnail":"https://i.ytimg.com/vi/TNeDkG9QdR4/mqdefault.jpg","viewCount":"1100","playlistId":"PLEkQk5xrP-tlArtGpeLWaqNM7h7IDeAVC","playlistName":"خطب الجمعة أ.د. يسري جبر","category":"خطب"},{"id":"4FNwzK8YdIU","title":"الفرق بين الجسد والروح والنفس وما هى أنواع النفوس","publishedAt":"2014-11-25T17:12:28Z","duration":"PT31M52S","thumbnail":"https://i.ytimg.com/vi/4FNwzK8YdIU/mqdefault.jpg","viewCount":"5948","playlistId":"PLEkQk5xrP-tlArtGpeLWaqNM7h7IDeAVC","playlistName":"خطب الجمعة أ.د. يسري جبر","category":"خطب"},{"id":"V0lwc232yM0","title":"هل يوجد سبب لكل ما هو حرام؟","publishedAt":"2022-07-11T19:05:44Z","duration":"PT11M4S","thumbnail":"https://i.ytimg.com/vi/V0lwc232yM0/mqdefault.jpg","viewCount":"4285","playlistId":"PLEkQk5xrP-tlArtGpeLWaqNM7h7IDeAVC","playlistName":"خطب الجمعة أ.د. يسري جبر","category":"خطب"},{"id":"AQrV5wFKjb4","title":"كَفَى بِالمَرْءِ إِثْمًا أَن يُضَيِّعَ مَن يَقُوت","publishedAt":"2015-03-07T19:24:49Z","duration":"PT38M31S","thumbnail":"https://i.ytimg.com/vi/AQrV5wFKjb4/mqdefault.jpg","viewCount":"685","playlistId":"PLEkQk5xrP-tlArtGpeLWaqNM7h7IDeAVC","playlistName":"خطب الجمعة أ.د. يسري جبر","category":"خطب"},{"id":"G_g0Ethu47k","title":"كيف بدء الخلق؟","publishedAt":"2021-02-02T18:50:11Z","duration":"PT9M29S","thumbnail":"https://i.ytimg.com/vi/G_g0Ethu47k/mqdefault.jpg","viewCount":"9942","playlistId":"PLEkQk5xrP-tlArtGpeLWaqNM7h7IDeAVC","playlistName":"خطب الجمعة أ.د. يسري جبر","category":"خطب"},{"id":"g6PiBkrizM4","title":"المُرادُ مِنَ البَلاءِ هُوَ الصَّبْرُ وَالمُصَابَرَةُ وَالمُرَابَطَةُ","publishedAt":"2015-02-20T21:34:44Z","duration":"PT23M11S","thumbnail":"https://i.ytimg.com/vi/g6PiBkrizM4/mqdefault.jpg","viewCount":"713","playlistId":"PLEkQk5xrP-tlArtGpeLWaqNM7h7IDeAVC","playlistName":"خطب الجمعة أ.د. يسري جبر","category":"خطب"},{"id":"Eqw5fw_Xsjo","title":"الاستقامة  د.يسري جبر","publishedAt":"2016-08-17T19:14:06Z","duration":"PT39M21S","thumbnail":"https://i.ytimg.com/vi/Eqw5fw_Xsjo/mqdefault.jpg","viewCount":"787","playlistId":"PLEkQk5xrP-tlArtGpeLWaqNM7h7IDeAVC","playlistName":"خطب الجمعة أ.د. يسري جبر","category":"خطب"},{"id":"UhTyp08m78M","title":"تفسير ما يحدث في المنطقة العربية وهل اقترب ظهور المسيح الدجال؟","publishedAt":"2024-10-07T18:14:21Z","duration":"PT32M25S","thumbnail":"https://i.ytimg.com/vi/UhTyp08m78M/mqdefault.jpg","viewCount":"71560","playlistId":"PLEkQk5xrP-tlArtGpeLWaqNM7h7IDeAVC","playlistName":"خطب الجمعة أ.د. يسري جبر","category":"خطب"},{"id":"sA5VDfNyW58","title":"ازاي تربي أولادك زي تربية النبي ﷺ لأولاده؟","publishedAt":"2024-10-05T18:49:13Z","duration":"PT10M32S","thumbnail":"https://i.ytimg.com/vi/sA5VDfNyW58/mqdefault.jpg","viewCount":"3261","playlistId":"PLEkQk5xrP-tlArtGpeLWaqNM7h7IDeAVC","playlistName":"خطب الجمعة أ.د. يسري جبر","category":"خطب"},{"id":"P2NIXRlrnzk","title":"هل النبي ﷺ هو أول خلق الله؟","publishedAt":"2024-09-17T16:37:38Z","duration":"PT11M26S","thumbnail":"https://i.ytimg.com/vi/P2NIXRlrnzk/mqdefault.jpg","viewCount":"2577","playlistId":"PLEkQk5xrP-tlArtGpeLWaqNM7h7IDeAVC","playlistName":"خطب الجمعة أ.د. يسري جبر","category":"خطب"},{"id":"Or6lqbi8JoA","title":"هل تعرف قدر النبي ﷺ ؟","publishedAt":"2024-09-16T17:17:04Z","duration":"PT18M36S","thumbnail":"https://i.ytimg.com/vi/Or6lqbi8JoA/mqdefault.jpg","viewCount":"3273","playlistId":"PLEkQk5xrP-tlArtGpeLWaqNM7h7IDeAVC","playlistName":"خطب الجمعة أ.د. يسري جبر","category":"خطب"},{"id":"H79K50fmMwQ","title":"لماذا يحاسبنا الله على أعمالنا وهي مكتوبة علينا؟","publishedAt":"2025-03-09T18:30:16Z","duration":"PT14M45S","thumbnail":"https://i.ytimg.com/vi/H79K50fmMwQ/mqdefault.jpg","viewCount":"2580","playlistId":"PLEkQk5xrP-tlArtGpeLWaqNM7h7IDeAVC","playlistName":"خطب الجمعة أ.د. يسري جبر","category":"خطب"},{"id":"AqLV7DoGxPY","title":"الدين النصيحة","publishedAt":"2020-12-20T17:43:42Z","duration":"PT8M38S","thumbnail":"https://i.ytimg.com/vi/AqLV7DoGxPY/mqdefault.jpg","viewCount":"2597","playlistId":"PLEkQk5xrP-tlArtGpeLWaqNM7h7IDeAVC","playlistName":"خطب الجمعة أ.د. يسري جبر","category":"خطب"},{"id":"qXzPIN4wwwI","title":"قيمة المرء فيما يتقن","publishedAt":"2020-12-19T18:30:04Z","duration":"PT17M17S","thumbnail":"https://i.ytimg.com/vi/qXzPIN4wwwI/mqdefault.jpg","viewCount":"4742","playlistId":"PLEkQk5xrP-tlArtGpeLWaqNM7h7IDeAVC","playlistName":"خطب الجمعة أ.د. يسري جبر","category":"خطب"},{"id":"WuwtKBxOaLM","title":"الشكر","publishedAt":"2020-07-31T10:30:09Z","duration":"PT32M43S","thumbnail":"https://i.ytimg.com/vi/WuwtKBxOaLM/mqdefault.jpg","viewCount":"1820","playlistId":"PLEkQk5xrP-tlArtGpeLWaqNM7h7IDeAVC","playlistName":"خطب الجمعة أ.د. يسري جبر","category":"خطب"},{"id":"VphX3E1hrOE","title":"فضل قضاء حوائج الناس | قصص في حياتي","publishedAt":"2024-11-19T17:30:05Z","duration":"PT16M19S","thumbnail":"https://i.ytimg.com/vi/VphX3E1hrOE/mqdefault.jpg","viewCount":"6206","playlistId":"PLEkQk5xrP-tlArtGpeLWaqNM7h7IDeAVC","playlistName":"خطب الجمعة أ.د. يسري جبر","category":"خطب"},{"id":"2Vru-9PMb5Y","title":"كيف أواجه اختبارات الحياة وأرضى بقضاء الله؟","publishedAt":"2024-11-18T18:14:03Z","duration":"PT22M23S","thumbnail":"https://i.ytimg.com/vi/2Vru-9PMb5Y/mqdefault.jpg","viewCount":"7856","playlistId":"PLEkQk5xrP-tlArtGpeLWaqNM7h7IDeAVC","playlistName":"خطب الجمعة أ.د. يسري جبر","category":"خطب"},{"id":"0UPfgF33Nx8","title":"كيف تكون من أولياء الله الصالحين وما هي صفاتهم؟","publishedAt":"2024-11-17T19:43:37Z","duration":"PT25M4S","thumbnail":"https://i.ytimg.com/vi/0UPfgF33Nx8/mqdefault.jpg","viewCount":"42755","playlistId":"PLEkQk5xrP-tlArtGpeLWaqNM7h7IDeAVC","playlistName":"خطب الجمعة أ.د. يسري جبر","category":"خطب"}],"total":675,"page":14,"pageSize":24,"totalPages":29}