{"items":[{"id":"85U5x-QopCc","title":"\"ุจุงุจ ููู ุงููู ุชุนุงูู\"ูููููู ุงูููุฐูู ุฎููููู ุงูุณููููุงููุงุชู ููุงููุฃูุฑูุถู ุจูุงููุญูููู","publishedAt":"2022-06-19T05:00:01Z","duration":"PT51M51S","thumbnail":"https://i.ytimg.com/vi/85U5x-QopCc/mqdefault.jpg","viewCount":"2955","playlistId":"PLEkQk5xrP-tmJuzaj4GWRenFoFx9gdbFX","playlistName":"ุดุฑุญ ูุชุงุจ ุตุญูุญ ุงูุฅูุงู ุงูุจุฎุงุฑู ุฑุถู ุงููู ุชุนุงูู ุนูู   ุฃ.ุฏ. ูุณุฑู ุฌุจุฑ","category":"ุญุฏูุซ"},{"id":"G0Ouyu9UwgQ","title":"ุดุฑุญ ุตุญูุญ ุงูุจุฎุงุฑู - ูุชุงุจ ุงููุบุงุฒู ูู ุจุงุจ ูฆูฃ","publishedAt":"2018-02-24T17:53:20Z","duration":"PT28M8S","thumbnail":"https://i.ytimg.com/vi/G0Ouyu9UwgQ/mqdefault.jpg","viewCount":"547","playlistId":"PLEkQk5xrP-tlEerGoLa1AFy-2XvQ-sovv","playlistName":"ุดุฑุญ ุตุญูุญ ุงูุจุฎุงุฑู - ุฃ.ุฏ. ูุณุฑู ุฌุจุฑ (ูุงููุง)","category":"ุญุฏูุซ"},{"id":"nJ7fUp3Ptvs","title":"ุดุฑุญ ุตุญูุญ ุงูุจุฎุงุฑู - ูุชุงุจ ุงููุบุงุฒู ูู ุจุงุจ ูฆูก","publishedAt":"2018-02-23T18:34:20Z","duration":"PT31M19S","thumbnail":"https://i.ytimg.com/vi/nJ7fUp3Ptvs/mqdefault.jpg","viewCount":"598","playlistId":"PLEkQk5xrP-tlEerGoLa1AFy-2XvQ-sovv","playlistName":"ุดุฑุญ ุตุญูุญ ุงูุจุฎุงุฑู - ุฃ.ุฏ. ูุณุฑู ุฌุจุฑ (ูุงููุง)","category":"ุญุฏูุซ"},{"id":"edh3XB8WOMY","title":"ุดุฑุญ ุตุญูุญ ุงูุจุฎุงุฑู - ูุชุงุจ ุงููุบุงุฒู ุชูููุฉ ุจุงุจ ูฅูจ","publishedAt":"2018-02-22T14:50:08Z","duration":"PT23M23S","thumbnail":"https://i.ytimg.com/vi/edh3XB8WOMY/mqdefault.jpg","viewCount":"474","playlistId":"PLEkQk5xrP-tlEerGoLa1AFy-2XvQ-sovv","playlistName":"ุดุฑุญ ุตุญูุญ ุงูุจุฎุงุฑู - ุฃ.ุฏ. ูุณุฑู ุฌุจุฑ (ูุงููุง)","category":"ุญุฏูุซ"},{"id":"WizHLKxMvdg","title":"ุดุฑุญ ุตุญูุญ ุงูุจุฎุงุฑู -  ูุชุงุจ ุงููุบุงุฒู ูู ุจุงุจ ูฅูง","publishedAt":"2018-02-21T15:32:43Z","duration":"PT25M32S","thumbnail":"https://i.ytimg.com/vi/WizHLKxMvdg/mqdefault.jpg","viewCount":"438","playlistId":"PLEkQk5xrP-tlEerGoLa1AFy-2XvQ-sovv","playlistName":"ุดุฑุญ ุตุญูุญ ุงูุจุฎุงุฑู - ุฃ.ุฏ. ูุณุฑู ุฌุจุฑ (ูุงููุง)","category":"ุญุฏูุซ"},{"id":"3VZnsE3uqgg","title":"ุดุฑุญ ุตุญูุญ ุงูุจุฎุงุฑู - ูุชุงุจ ุงููุบุงุฒู ุชูููุฉ  ุจุงุจ ูฅูฅ","publishedAt":"2018-02-20T20:25:16Z","duration":"PT33M19S","thumbnail":"https://i.ytimg.com/vi/3VZnsE3uqgg/mqdefault.jpg","viewCount":"576","playlistId":"PLEkQk5xrP-tlEerGoLa1AFy-2XvQ-sovv","playlistName":"ุดุฑุญ ุตุญูุญ ุงูุจุฎุงุฑู - ุฃ.ุฏ. ูุณุฑู ุฌุจุฑ (ูุงููุง)","category":"ุญุฏูุซ"},{"id":"osZWvJa7Oco","title":"ุดุฑุญ ุตุญูุญ ุงูุจุฎุงุฑู - ูุชุงุจ ุงููุบุงุฒู ูู ุจุงุจ ูฅูฃ","publishedAt":"2018-02-19T19:53:37Z","duration":"PT40M7S","thumbnail":"https://i.ytimg.com/vi/osZWvJa7Oco/mqdefault.jpg","viewCount":"903","playlistId":"PLEkQk5xrP-tlEerGoLa1AFy-2XvQ-sovv","playlistName":"ุดุฑุญ ุตุญูุญ ุงูุจุฎุงุฑู - ุฃ.ุฏ. ูุณุฑู ุฌุจุฑ (ูุงููุง)","category":"ุญุฏูุซ"},{"id":"IkfF8ouCIk0","title":"๐ด CEREMONIAL PENUTUPAN MAJELIS SAMA' & KHATMIL KITAB SHAHIH AL-BUKHARI | PP. PROGRESIF BUMI SHALAWAT","publishedAt":"2025-02-10T05:00:56Z","duration":"PT3H41M15S","thumbnail":"https://i.ytimg.com/vi/IkfF8ouCIk0/mqdefault.jpg","viewCount":"7675","playlistId":"PLEkQk5xrP-tkKcTKLIthzWrdXY7QaOjh_","playlistName":"ูุฑุงุกุฉ ุตุญูุญ ุงูุจุฎุงุฑู ูุงููุงู ูู ุฅูุฏูููุณูุง","category":"ุญุฏูุซ"},{"id":"RNJEhtQa4j4","title":"ุดุฑุญ ุตุญูุญ ุงูุจุฎุงุฑู ูุชุงุจ ุงูุฃุญูุงู ูู ุจุงุจ ูฃู","publishedAt":"2019-01-12T21:50:01Z","duration":"PT29M26S","thumbnail":"https://i.ytimg.com/vi/RNJEhtQa4j4/mqdefault.jpg","viewCount":"412","playlistId":"PLEkQk5xrP-tlEerGoLa1AFy-2XvQ-sovv","playlistName":"ุดุฑุญ ุตุญูุญ ุงูุจุฎุงุฑู - ุฃ.ุฏ. ูุณุฑู ุฌุจุฑ (ูุงููุง)","category":"ุญุฏูุซ"},{"id":"QGuSKprTzbw","title":"ุดุฑุญ ุตุญูุญ ุงูุจุฎุงุฑู ูุชุงุจ ุงูุฃุญูุงู ูู ุจุงุจ ูขูฅ","publishedAt":"2019-01-11T21:18:18Z","duration":"PT26M3S","thumbnail":"https://i.ytimg.com/vi/QGuSKprTzbw/mqdefault.jpg","viewCount":"347","playlistId":"PLEkQk5xrP-tlEerGoLa1AFy-2XvQ-sovv","playlistName":"ุดุฑุญ ุตุญูุญ ุงูุจุฎุงุฑู - ุฃ.ุฏ. ูุณุฑู ุฌุจุฑ (ูุงููุง)","category":"ุญุฏูุซ"},{"id":"b-WLdyO9nLc","title":"ุตุญูุญ ุงูุจุฎุงุฑู - ูุชุงุจ ุงููุญุงุฑุจูู ูู ุฃูู ุงูููุฑ ูุงูุฑุฏุฉ","publishedAt":"2018-03-05T18:57:45Z","duration":"PT25M48S","thumbnail":"https://i.ytimg.com/vi/b-WLdyO9nLc/mqdefault.jpg","viewCount":"159","playlistId":"PLEkQk5xrP-tmJuzaj4GWRenFoFx9gdbFX","playlistName":"ุดุฑุญ ูุชุงุจ ุตุญูุญ ุงูุฅูุงู ุงูุจุฎุงุฑู ุฑุถู ุงููู ุชุนุงูู ุนูู   ุฃ.ุฏ. ูุณุฑู ุฌุจุฑ","category":"ุญุฏูุซ"},{"id":"VJO1xiCN7L4","title":"137- ุงูุทูุฑุฉ ูุงููุฃู ููุง ูููู ููู ุงูุดุคู","publishedAt":"2020-09-22T08:23:15Z","duration":"PT23M20S","thumbnail":"https://i.ytimg.com/vi/VJO1xiCN7L4/mqdefault.jpg","viewCount":"1858","playlistId":"PLEkQk5xrP-tmKNjtYLfhATC37QdIsTMe0","playlistName":"ุดุฑุญ ูุชุงุจ ุงููุคูุค ูุงููุฑุฌุงู ูููุง ุงุชูู ุนููู ุงูุดูุฎุงู ุฅูุงูุง ุงููุญุฏุซูู ุงูุจุฎุงุฑู ููุณูู. ุฃ.ุฏ. ูุณุฑู ุฌุจุฑ","category":"ุญุฏูุซ"},{"id":"i_xNhbWosPY","title":"136- ุงูุชุฏุงูู ุจุณูู ุงูุนุณู","publishedAt":"2020-09-20T19:53:11Z","duration":"PT26M52S","thumbnail":"https://i.ytimg.com/vi/i_xNhbWosPY/mqdefault.jpg","viewCount":"1875","playlistId":"PLEkQk5xrP-tmKNjtYLfhATC37QdIsTMe0","playlistName":"ุดุฑุญ ูุชุงุจ ุงููุคูุค ูุงููุฑุฌุงู ูููุง ุงุชูู ุนููู ุงูุดูุฎุงู ุฅูุงูุง ุงููุญุฏุซูู ุงูุจุฎุงุฑู ููุณูู. ุฃ.ุฏ. ูุณุฑู ุฌุจุฑ","category":"ุญุฏูุซ"},{"id":"u-mctorbvig","title":"135- ุฌูุงุฒ ุฃุฎุฐ ุงูุฃุฌุฑุฉ ุนูู ุงูุฑููููุฉ ุจุงููุฑุขู ูุงูุฃุฐูุงุฑ","publishedAt":"2020-09-20T06:29:58Z","duration":"PT25M30S","thumbnail":"https://i.ytimg.com/vi/u-mctorbvig/mqdefault.jpg","viewCount":"2504","playlistId":"PLEkQk5xrP-tmKNjtYLfhATC37QdIsTMe0","playlistName":"ุดุฑุญ ูุชุงุจ ุงููุคูุค ูุงููุฑุฌุงู ูููุง ุงุชูู ุนููู ุงูุดูุฎุงู ุฅูุงูุง ุงููุญุฏุซูู ุงูุจุฎุงุฑู ููุณูู. ุฃ.ุฏ. ูุณุฑู ุฌุจุฑ","category":"ุญุฏูุซ"},{"id":"mbNl5n1aiNM","title":"134- ุจุงุจ ุงูุณูุญุฑ","publishedAt":"2020-09-18T05:33:52Z","duration":"PT33M3S","thumbnail":"https://i.ytimg.com/vi/mbNl5n1aiNM/mqdefault.jpg","viewCount":"26694","playlistId":"PLEkQk5xrP-tmKNjtYLfhATC37QdIsTMe0","playlistName":"ุดุฑุญ ูุชุงุจ ุงููุคูุค ูุงููุฑุฌุงู ูููุง ุงุชูู ุนููู ุงูุดูุฎุงู ุฅูุงูุง ุงููุญุฏุซูู ุงูุจุฎุงุฑู ููุณูู. ุฃ.ุฏ. ูุณุฑู ุฌุจุฑ","category":"ุญุฏูุซ"},{"id":"ZXwgjdnUIvY","title":"133- ููู ุฃุชู ูุฌูุณูุง ููุฌุฏ ููุฑุฌุฉ ูุฌูุณ ูููุงุ ูุฅูููุง  ูุฑุงุฆูู","publishedAt":"2020-09-16T14:30:06Z","duration":"PT20M6S","thumbnail":"https://i.ytimg.com/vi/ZXwgjdnUIvY/mqdefault.jpg","viewCount":"1018","playlistId":"PLEkQk5xrP-tmKNjtYLfhATC37QdIsTMe0","playlistName":"ุดุฑุญ ูุชุงุจ ุงููุคูุค ูุงููุฑุฌุงู ูููุง ุงุชูู ุนููู ุงูุดูุฎุงู ุฅูุงูุง ุงููุญุฏุซูู ุงูุจุฎุงุฑู ููุณูู. ุฃ.ุฏ. ูุณุฑู ุฌุจุฑ","category":"ุญุฏูุซ"},{"id":"j4T1kyV5rLY","title":"132- ุจุงุจู ูุณูู ุงูุฑุงูุจ ุนูู ุงููุงุดู ูุงููููู ุนูู ุงููุซูุฑ","publishedAt":"2020-09-15T14:46:43Z","duration":"PT23M38S","thumbnail":"https://i.ytimg.com/vi/j4T1kyV5rLY/mqdefault.jpg","viewCount":"717","playlistId":"PLEkQk5xrP-tmKNjtYLfhATC37QdIsTMe0","playlistName":"ุดุฑุญ ูุชุงุจ ุงููุคูุค ูุงููุฑุฌุงู ูููุง ุงุชูู ุนููู ุงูุดูุฎุงู ุฅูุงูุง ุงููุญุฏุซูู ุงูุจุฎุงุฑู ููุณูู. ุฃ.ุฏ. ูุณุฑู ุฌุจุฑ","category":"ุญุฏูุซ"},{"id":"S7c10PzG_eA","title":"ุดุฑุญ ุตุญูุญ ุงูุจุฎุงุฑู - ูุชุงุจ ุงูุชูุณูุฑ ูู ุฃููู","publishedAt":"2018-03-05T12:00:10Z","duration":"PT23M50S","thumbnail":"https://i.ytimg.com/vi/S7c10PzG_eA/mqdefault.jpg","viewCount":"868","playlistId":"PLEkQk5xrP-tlEerGoLa1AFy-2XvQ-sovv","playlistName":"ุดุฑุญ ุตุญูุญ ุงูุจุฎุงุฑู - ุฃ.ุฏ. ูุณุฑู ุฌุจุฑ (ูุงููุง)","category":"ุญุฏูุซ"},{"id":"Am6w7NcpW8U","title":"ุดุฑุญ ุตุญูุญ ุงูุจุฎุงุฑู ูุชุงุจ ุงููุบุงุฒู ุชูููุฉ  ุจุงุจ ูจูฅ","publishedAt":"2018-03-04T18:38:59Z","duration":"PT51M45S","thumbnail":"https://i.ytimg.com/vi/Am6w7NcpW8U/mqdefault.jpg","viewCount":"674","playlistId":"PLEkQk5xrP-tlEerGoLa1AFy-2XvQ-sovv","playlistName":"ุดุฑุญ ุตุญูุญ ุงูุจุฎุงุฑู - ุฃ.ุฏ. ูุณุฑู ุฌุจุฑ (ูุงููุง)","category":"ุญุฏูุซ"},{"id":"nqqDIkv0Jf4","title":"ุดุฑุญ ุตุญูุญ ุงูุจุฎุงุฑู - ูุชุงุจ ุงูุฌุฒูุฉ ูุงูููุงุฏุนุฉ ูู ุจุงุจ ูค","publishedAt":"2017-09-05T17:30:43Z","duration":"PT31M17S","thumbnail":"https://i.ytimg.com/vi/nqqDIkv0Jf4/mqdefault.jpg","viewCount":"479","playlistId":"PLEkQk5xrP-tlEerGoLa1AFy-2XvQ-sovv","playlistName":"ุดุฑุญ ุตุญูุญ ุงูุจุฎุงุฑู - ุฃ.ุฏ. ูุณุฑู ุฌุจุฑ (ูุงููุง)","category":"ุญุฏูุซ"},{"id":"qAqArrbJzos","title":"ุดุฑุญ ุตุญูุญ ุงูุฅูุงู ุงูุจุฎุงุฑู ุฑุถู ุงููู ุนูู - ูุชุงุจ ุงูุฑูุงู ุจุงุจ ุฑูุน ุงูุฃูุงูุฉ (9) ุฏ.ูุณุฑู ุฌุจุฑ","publishedAt":"2017-09-03T18:16:58Z","duration":"PT58M15S","thumbnail":"https://i.ytimg.com/vi/qAqArrbJzos/mqdefault.jpg","viewCount":"169","playlistId":"PLEkQk5xrP-tmJuzaj4GWRenFoFx9gdbFX","playlistName":"ุดุฑุญ ูุชุงุจ ุตุญูุญ ุงูุฅูุงู ุงูุจุฎุงุฑู ุฑุถู ุงููู ุชุนุงูู ุนูู   ุฃ.ุฏ. ูุณุฑู ุฌุจุฑ","category":"ุญุฏูุซ"},{"id":"zkjw4BeAmIc","title":"ุดุฑุญ ุตุญูุญ ุงูุจุฎุงุฑู ูุชุงุจ ุงูุฐุจุงุฆุญ ูุงูุตูุฏ ูู ุจุงุจ ูขูฉ","publishedAt":"2018-07-21T19:28:52Z","duration":"PT36M13S","thumbnail":"https://i.ytimg.com/vi/zkjw4BeAmIc/mqdefault.jpg","viewCount":"416","playlistId":"PLEkQk5xrP-tlEerGoLa1AFy-2XvQ-sovv","playlistName":"ุดุฑุญ ุตุญูุญ ุงูุจุฎุงุฑู - ุฃ.ุฏ. ูุณุฑู ุฌุจุฑ (ูุงููุง)","category":"ุญุฏูุซ"},{"id":"L3DCeEf9hOM","title":"ุดุฑุญ ุตุญูุญ ุงูุจุฎุงุฑู ูุชุงุจ ุงูุฐุจุงุฆุญ ูุงูุตูุฏ ูู ุจุงุจ ูขูฅ","publishedAt":"2018-07-19T21:02:46Z","duration":"PT38M11S","thumbnail":"https://i.ytimg.com/vi/L3DCeEf9hOM/mqdefault.jpg","viewCount":"463","playlistId":"PLEkQk5xrP-tlEerGoLa1AFy-2XvQ-sovv","playlistName":"ุดุฑุญ ุตุญูุญ ุงูุจุฎุงุฑู - ุฃ.ุฏ. ูุณุฑู ุฌุจุฑ (ูุงููุง)","category":"ุญุฏูุซ"},{"id":"pdWEQbgdQ1U","title":"ุดุฑุญ ุตุญูุญ ุงูุจุฎุงุฑู ูุชุงุจ ุงูุฐุจุงุฆุญ ูุงูุตูุฏ ูู ุจุงุจ ูกูฆ","publishedAt":"2018-07-18T15:41:56Z","duration":"PT33M35S","thumbnail":"https://i.ytimg.com/vi/pdWEQbgdQ1U/mqdefault.jpg","viewCount":"395","playlistId":"PLEkQk5xrP-tlEerGoLa1AFy-2XvQ-sovv","playlistName":"ุดุฑุญ ุตุญูุญ ุงูุจุฎุงุฑู - ุฃ.ุฏ. ูุณุฑู ุฌุจุฑ (ูุงููุง)","category":"ุญุฏูุซ"}],"total":1218,"page":3,"pageSize":24,"totalPages":51}