{"items":[{"id":"wEs3bVMLc0k","title":"188- الزهد والرقائق","publishedAt":"2020-12-30T07:10:23Z","duration":"PT21M46S","thumbnail":"https://i.ytimg.com/vi/wEs3bVMLc0k/mqdefault.jpg","viewCount":"2650","playlistId":"PLEkQk5xrP-tmKNjtYLfhATC37QdIsTMe0","playlistName":"شرح كتاب اللؤلؤ والمرجان فيما اتفق عليه الشيخان إماما المحدثين البخاري ومسلم. أ.د. يسري جبر","category":"حديث"},{"id":"H5bHZLn9B3g","title":"187- كتابُ الفتن وأشراط الساعة - باب ابن صياد","publishedAt":"2020-12-28T07:05:20Z","duration":"PT27M10S","thumbnail":"https://i.ytimg.com/vi/H5bHZLn9B3g/mqdefault.jpg","viewCount":"5088","playlistId":"PLEkQk5xrP-tmKNjtYLfhATC37QdIsTMe0","playlistName":"شرح كتاب اللؤلؤ والمرجان فيما اتفق عليه الشيخان إماما المحدثين البخاري ومسلم. أ.د. يسري جبر","category":"حديث"},{"id":"46TLxRmrX_o","title":"186- لا تقومُ الساعة حتى يمر الرجلُ بقبر الرجلِ فيتمنَّى أن يكون مكان الميت من البلاء","publishedAt":"2020-12-26T09:21:57Z","duration":"PT15M3S","thumbnail":"https://i.ytimg.com/vi/46TLxRmrX_o/mqdefault.jpg","viewCount":"4767","playlistId":"PLEkQk5xrP-tmKNjtYLfhATC37QdIsTMe0","playlistName":"شرح كتاب اللؤلؤ والمرجان فيما اتفق عليه الشيخان إماما المحدثين البخاري ومسلم. أ.د. يسري جبر","category":"حديث"},{"id":"UvbPAfOoxHk","title":"185- الفِتنُ وأشراطُ الساعة - إذا تواجه المسلمان بسيفيهما","publishedAt":"2020-12-24T08:07:25Z","duration":"PT34M37S","thumbnail":"https://i.ytimg.com/vi/UvbPAfOoxHk/mqdefault.jpg","viewCount":"5848","playlistId":"PLEkQk5xrP-tmKNjtYLfhATC37QdIsTMe0","playlistName":"شرح كتاب اللؤلؤ والمرجان فيما اتفق عليه الشيخان إماما المحدثين البخاري ومسلم. أ.د. يسري جبر","category":"حديث"},{"id":"o1q-V0LbRw4","title":"الأربعون النووية - المجلس الثالث والأخير - الحديث الحادي والثلاثون","publishedAt":"2020-12-23T07:58:03Z","duration":"PT50M22S","thumbnail":"https://i.ytimg.com/vi/o1q-V0LbRw4/mqdefault.jpg","viewCount":"1436","playlistId":"PLEkQk5xrP-tmHtx4cjd_IK-SgBg00N_ZN","playlistName":"الأربعون النووية","category":"حديث"},{"id":"u2Z8nk7xGH0","title":"صحيح الإمام البخارى رضى الله عنه - كتاب النكاح المجلس الحادى عشر","publishedAt":"2015-03-22T14:48:08Z","duration":"PT43M14S","thumbnail":"https://i.ytimg.com/vi/u2Z8nk7xGH0/mqdefault.jpg","viewCount":"141","playlistId":"PLEkQk5xrP-tmJuzaj4GWRenFoFx9gdbFX","playlistName":"شرح كتاب صحيح الإمام البخاري رضي الله تعالى عنه   أ.د. يسرى جبر","category":"حديث"},{"id":"_oKDBQycth8","title":"صحيح الإمام البخارى رضى الله عنه - كتاب النكاح - المجلس العاشر","publishedAt":"2015-03-15T03:22:22Z","duration":"PT59M38S","thumbnail":"https://i.ytimg.com/vi/_oKDBQycth8/mqdefault.jpg","viewCount":"142","playlistId":"PLEkQk5xrP-tmJuzaj4GWRenFoFx9gdbFX","playlistName":"شرح كتاب صحيح الإمام البخاري رضي الله تعالى عنه   أ.د. يسرى جبر","category":"حديث"},{"id":"BDhFY6GNZPE","title":"شرح صحيح البخاري كتاب الحيل من باب ١٤","publishedAt":"2018-12-19T21:06:15Z","duration":"PT34M46S","thumbnail":"https://i.ytimg.com/vi/BDhFY6GNZPE/mqdefault.jpg","viewCount":"394","playlistId":"PLEkQk5xrP-tlEerGoLa1AFy-2XvQ-sovv","playlistName":"شرح صحيح البخاري - أ.د. يسري جبر (كاملا)","category":"حديث"},{"id":"5GrokMGoBvQ","title":"صحيح الإمام البخارى رضى الله عنه - كتاب فضائل القرآن - المجلس الثانى","publishedAt":"2014-12-06T20:01:18Z","duration":"PT1H2M26S","thumbnail":"https://i.ytimg.com/vi/5GrokMGoBvQ/mqdefault.jpg","viewCount":"509","playlistId":"PLEkQk5xrP-tmJuzaj4GWRenFoFx9gdbFX","playlistName":"شرح كتاب صحيح الإمام البخاري رضي الله تعالى عنه   أ.د. يسرى جبر","category":"حديث"},{"id":"JFCVB7zd1xM","title":"شرح كتاب الأذكار من كلام سيد الأبرار للإمام النووى رضى الله عنه - المجلس الرابع","publishedAt":"2014-12-05T18:42:15Z","duration":"PT25M6S","thumbnail":"https://i.ytimg.com/vi/JFCVB7zd1xM/mqdefault.jpg","viewCount":"1376","playlistId":"PLEkQk5xrP-tkWS57Ubysh0ifJR8dmuEtE","playlistName":"شرح كتاب الأذكار للإمام النووي د. يسرى جبر","category":"حديث"},{"id":"Ut9qW7dcf8Y","title":"صحيح الإمام البخارى رضى الله عنه - كتاب فضائل القرآن - المجلس الأول","publishedAt":"2014-12-01T14:08:00Z","duration":"PT57M39S","thumbnail":"https://i.ytimg.com/vi/Ut9qW7dcf8Y/mqdefault.jpg","viewCount":"3124","playlistId":"PLEkQk5xrP-tmJuzaj4GWRenFoFx9gdbFX","playlistName":"شرح كتاب صحيح الإمام البخاري رضي الله تعالى عنه   أ.د. يسرى جبر","category":"حديث"},{"id":"Wuy--7BHmd4","title":"شرح كتاب الأذكار من كلام سيد الأبرار للإمام النووى رضى الله عنه - المجلس الثالث","publishedAt":"2014-11-29T17:17:54Z","duration":"PT12M9S","thumbnail":"https://i.ytimg.com/vi/Wuy--7BHmd4/mqdefault.jpg","viewCount":"1492","playlistId":"PLEkQk5xrP-tkWS57Ubysh0ifJR8dmuEtE","playlistName":"شرح كتاب الأذكار للإمام النووي د. يسرى جبر","category":"حديث"},{"id":"Rf3MapC6WNw","title":"شرح كتاب الأذكار من كلام سيد الأبرار للإمام النووى رضى الله عنه - المجلس الثاني","publishedAt":"2014-11-21T18:21:52Z","duration":"PT25M55S","thumbnail":"https://i.ytimg.com/vi/Rf3MapC6WNw/mqdefault.jpg","viewCount":"2868","playlistId":"PLEkQk5xrP-tkWS57Ubysh0ifJR8dmuEtE","playlistName":"شرح كتاب الأذكار للإمام النووي د. يسرى جبر","category":"حديث"},{"id":"s9Mtfnl3zGA","title":"شرح كتاب الأذكار من كلام سيد الأبرار للإمام النووى رضى الله عنه - المجلس الأول","publishedAt":"2014-11-19T17:05:52Z","duration":"PT18M44S","thumbnail":"https://i.ytimg.com/vi/s9Mtfnl3zGA/mqdefault.jpg","viewCount":"7408","playlistId":"PLEkQk5xrP-tkWS57Ubysh0ifJR8dmuEtE","playlistName":"شرح كتاب الأذكار للإمام النووي د. يسرى جبر","category":"حديث"},{"id":"mpbjqhMX9ic","title":"صحيح الإمام البخارى رضى الله عنه - كتاب النكاح - المجلس التاسع","publishedAt":"2015-03-08T14:33:07Z","duration":"PT1H1M8S","thumbnail":"https://i.ytimg.com/vi/mpbjqhMX9ic/mqdefault.jpg","viewCount":"139","playlistId":"PLEkQk5xrP-tmJuzaj4GWRenFoFx9gdbFX","playlistName":"شرح كتاب صحيح الإمام البخاري رضي الله تعالى عنه   أ.د. يسرى جبر","category":"حديث"},{"id":"jgTYfQM1ktM","title":"صحيح الإمام البخارى رضى الله عنه - كتاب النكاح - المجلس الثامن","publishedAt":"2015-03-02T18:06:48Z","duration":"PT1H4M48S","thumbnail":"https://i.ytimg.com/vi/jgTYfQM1ktM/mqdefault.jpg","viewCount":"162","playlistId":"PLEkQk5xrP-tmJuzaj4GWRenFoFx9gdbFX","playlistName":"شرح كتاب صحيح الإمام البخاري رضي الله تعالى عنه   أ.د. يسرى جبر","category":"حديث"},{"id":"dc9A3oRoVaM","title":"صحيح الإمام البخارى رضى الله عنه - كتاب النكاح - المجلس السابع","publishedAt":"2015-03-01T20:17:19Z","duration":"PT54M4S","thumbnail":"https://i.ytimg.com/vi/dc9A3oRoVaM/mqdefault.jpg","viewCount":"160","playlistId":"PLEkQk5xrP-tmJuzaj4GWRenFoFx9gdbFX","playlistName":"شرح كتاب صحيح الإمام البخاري رضي الله تعالى عنه   أ.د. يسرى جبر","category":"حديث"},{"id":"i488JglYapc","title":"صحيح الإمام البخارى رضى الله عنه - كتاب النكاح - المجلس السادس","publishedAt":"2015-02-25T19:28:12Z","duration":"PT1H3M26S","thumbnail":"https://i.ytimg.com/vi/i488JglYapc/mqdefault.jpg","viewCount":"218","playlistId":"PLEkQk5xrP-tmJuzaj4GWRenFoFx9gdbFX","playlistName":"شرح كتاب صحيح الإمام البخاري رضي الله تعالى عنه   أ.د. يسرى جبر","category":"حديث"},{"id":"-xBRjPW30c0","title":"الأربعون النووية - المجلس الثاني -  الحديث العاشر","publishedAt":"2020-12-22T07:49:23Z","duration":"PT1H2M39S","thumbnail":"https://i.ytimg.com/vi/-xBRjPW30c0/mqdefault.jpg","viewCount":"2312","playlistId":"PLEkQk5xrP-tmHtx4cjd_IK-SgBg00N_ZN","playlistName":"الأربعون النووية","category":"حديث"},{"id":"MmoYzYxjCTM","title":"184- اقترابُ الفِتنِ وفَتْحُ رَدْم يأجوج ومأجوج","publishedAt":"2020-12-20T08:00:40Z","duration":"PT22M5S","thumbnail":"https://i.ytimg.com/vi/MmoYzYxjCTM/mqdefault.jpg","viewCount":"34781","playlistId":"PLEkQk5xrP-tmKNjtYLfhATC37QdIsTMe0","playlistName":"شرح كتاب اللؤلؤ والمرجان فيما اتفق عليه الشيخان إماما المحدثين البخاري ومسلم. أ.د. يسري جبر","category":"حديث"},{"id":"25p4sXsKT4k","title":"122- كتاب الصيد والذبائح","publishedAt":"2020-08-31T11:01:24Z","duration":"PT39M4S","thumbnail":"https://i.ytimg.com/vi/25p4sXsKT4k/mqdefault.jpg","viewCount":"547","playlistId":"PLEkQk5xrP-tmKNjtYLfhATC37QdIsTMe0","playlistName":"شرح كتاب اللؤلؤ والمرجان فيما اتفق عليه الشيخان إماما المحدثين البخاري ومسلم. أ.د. يسري جبر","category":"حديث"},{"id":"i3CId7ps0Ks","title":"شرح صحيح البخاري   كتاب الزكاة من باب ٥٥","publishedAt":"2017-02-22T19:30:38Z","duration":"PT32M37S","thumbnail":"https://i.ytimg.com/vi/i3CId7ps0Ks/mqdefault.jpg","viewCount":"867","playlistId":"PLEkQk5xrP-tlEerGoLa1AFy-2XvQ-sovv","playlistName":"شرح صحيح البخاري - أ.د. يسري جبر (كاملا)","category":"حديث"},{"id":"BKGhfPPo9Go","title":"شرح صحيح البخاري   كتاب الزكاة من باب ٥١","publishedAt":"2017-02-21T15:14:10Z","duration":"PT47M56S","thumbnail":"https://i.ytimg.com/vi/BKGhfPPo9Go/mqdefault.jpg","viewCount":"961","playlistId":"PLEkQk5xrP-tlEerGoLa1AFy-2XvQ-sovv","playlistName":"شرح صحيح البخاري - أ.د. يسري جبر (كاملا)","category":"حديث"},{"id":"aMOgT9eewUE","title":"شرح صحيح البخاري كتاب المغازي من باب ٨٢","publishedAt":"2018-03-03T21:17:34Z","duration":"PT41M48S","thumbnail":"https://i.ytimg.com/vi/aMOgT9eewUE/mqdefault.jpg","viewCount":"586","playlistId":"PLEkQk5xrP-tlEerGoLa1AFy-2XvQ-sovv","playlistName":"شرح صحيح البخاري - أ.د. يسري جبر (كاملا)","category":"حديث"}],"total":1218,"page":6,"pageSize":24,"totalPages":51}