{"items":[{"id":"WizHLKxMvdg","title":"ุดุฑุญ ุตุญูุญ ุงูุจุฎุงุฑู -  ูุชุงุจ ุงููุบุงุฒู ูู ุจุงุจ ูฅูง","publishedAt":"2018-02-21T15:32:43Z","duration":"PT25M32S","thumbnail":"https://i.ytimg.com/vi/WizHLKxMvdg/mqdefault.jpg","viewCount":"438","playlistId":"PLEkQk5xrP-tlEerGoLa1AFy-2XvQ-sovv","playlistName":"ุดุฑุญ ุตุญูุญ ุงูุจุฎุงุฑู - ุฃ.ุฏ. ูุณุฑู ุฌุจุฑ (ูุงููุง)","category":"ุญุฏูุซ"},{"id":"3VZnsE3uqgg","title":"ุดุฑุญ ุตุญูุญ ุงูุจุฎุงุฑู - ูุชุงุจ ุงููุบุงุฒู ุชูููุฉ  ุจุงุจ ูฅูฅ","publishedAt":"2018-02-20T20:25:16Z","duration":"PT33M19S","thumbnail":"https://i.ytimg.com/vi/3VZnsE3uqgg/mqdefault.jpg","viewCount":"576","playlistId":"PLEkQk5xrP-tlEerGoLa1AFy-2XvQ-sovv","playlistName":"ุดุฑุญ ุตุญูุญ ุงูุจุฎุงุฑู - ุฃ.ุฏ. ูุณุฑู ุฌุจุฑ (ูุงููุง)","category":"ุญุฏูุซ"},{"id":"osZWvJa7Oco","title":"ุดุฑุญ ุตุญูุญ ุงูุจุฎุงุฑู - ูุชุงุจ ุงููุบุงุฒู ูู ุจุงุจ ูฅูฃ","publishedAt":"2018-02-19T19:53:37Z","duration":"PT40M7S","thumbnail":"https://i.ytimg.com/vi/osZWvJa7Oco/mqdefault.jpg","viewCount":"903","playlistId":"PLEkQk5xrP-tlEerGoLa1AFy-2XvQ-sovv","playlistName":"ุดุฑุญ ุตุญูุญ ุงูุจุฎุงุฑู - ุฃ.ุฏ. ูุณุฑู ุฌุจุฑ (ูุงููุง)","category":"ุญุฏูุซ"},{"id":"IkfF8ouCIk0","title":"๐ด CEREMONIAL PENUTUPAN MAJELIS SAMA' & KHATMIL KITAB SHAHIH AL-BUKHARI | PP. PROGRESIF BUMI SHALAWAT","publishedAt":"2025-02-10T05:00:56Z","duration":"PT3H41M15S","thumbnail":"https://i.ytimg.com/vi/IkfF8ouCIk0/mqdefault.jpg","viewCount":"7675","playlistId":"PLEkQk5xrP-tkKcTKLIthzWrdXY7QaOjh_","playlistName":"ูุฑุงุกุฉ ุตุญูุญ ุงูุจุฎุงุฑู ูุงููุงู ูู ุฅูุฏูููุณูุง","category":"ุญุฏูุซ"},{"id":"RNJEhtQa4j4","title":"ุดุฑุญ ุตุญูุญ ุงูุจุฎุงุฑู ูุชุงุจ ุงูุฃุญูุงู ูู ุจุงุจ ูฃู","publishedAt":"2019-01-12T21:50:01Z","duration":"PT29M26S","thumbnail":"https://i.ytimg.com/vi/RNJEhtQa4j4/mqdefault.jpg","viewCount":"412","playlistId":"PLEkQk5xrP-tlEerGoLa1AFy-2XvQ-sovv","playlistName":"ุดุฑุญ ุตุญูุญ ุงูุจุฎุงุฑู - ุฃ.ุฏ. ูุณุฑู ุฌุจุฑ (ูุงููุง)","category":"ุญุฏูุซ"},{"id":"QGuSKprTzbw","title":"ุดุฑุญ ุตุญูุญ ุงูุจุฎุงุฑู ูุชุงุจ ุงูุฃุญูุงู ูู ุจุงุจ ูขูฅ","publishedAt":"2019-01-11T21:18:18Z","duration":"PT26M3S","thumbnail":"https://i.ytimg.com/vi/QGuSKprTzbw/mqdefault.jpg","viewCount":"347","playlistId":"PLEkQk5xrP-tlEerGoLa1AFy-2XvQ-sovv","playlistName":"ุดุฑุญ ุตุญูุญ ุงูุจุฎุงุฑู - ุฃ.ุฏ. ูุณุฑู ุฌุจุฑ (ูุงููุง)","category":"ุญุฏูุซ"},{"id":"b-WLdyO9nLc","title":"ุตุญูุญ ุงูุจุฎุงุฑู - ูุชุงุจ ุงููุญุงุฑุจูู ูู ุฃูู ุงูููุฑ ูุงูุฑุฏุฉ","publishedAt":"2018-03-05T18:57:45Z","duration":"PT25M48S","thumbnail":"https://i.ytimg.com/vi/b-WLdyO9nLc/mqdefault.jpg","viewCount":"159","playlistId":"PLEkQk5xrP-tmJuzaj4GWRenFoFx9gdbFX","playlistName":"ุดุฑุญ ูุชุงุจ ุตุญูุญ ุงูุฅูุงู ุงูุจุฎุงุฑู ุฑุถู ุงููู ุชุนุงูู ุนูู   ุฃ.ุฏ. ูุณุฑู ุฌุจุฑ","category":"ุญุฏูุซ"},{"id":"S7c10PzG_eA","title":"ุดุฑุญ ุตุญูุญ ุงูุจุฎุงุฑู - ูุชุงุจ ุงูุชูุณูุฑ ูู ุฃููู","publishedAt":"2018-03-05T12:00:10Z","duration":"PT23M50S","thumbnail":"https://i.ytimg.com/vi/S7c10PzG_eA/mqdefault.jpg","viewCount":"868","playlistId":"PLEkQk5xrP-tlEerGoLa1AFy-2XvQ-sovv","playlistName":"ุดุฑุญ ุตุญูุญ ุงูุจุฎุงุฑู - ุฃ.ุฏ. ูุณุฑู ุฌุจุฑ (ูุงููุง)","category":"ุญุฏูุซ"},{"id":"Am6w7NcpW8U","title":"ุดุฑุญ ุตุญูุญ ุงูุจุฎุงุฑู ูุชุงุจ ุงููุบุงุฒู ุชูููุฉ  ุจุงุจ ูจูฅ","publishedAt":"2018-03-04T18:38:59Z","duration":"PT51M45S","thumbnail":"https://i.ytimg.com/vi/Am6w7NcpW8U/mqdefault.jpg","viewCount":"674","playlistId":"PLEkQk5xrP-tlEerGoLa1AFy-2XvQ-sovv","playlistName":"ุดุฑุญ ุตุญูุญ ุงูุจุฎุงุฑู - ุฃ.ุฏ. ูุณุฑู ุฌุจุฑ (ูุงููุง)","category":"ุญุฏูุซ"},{"id":"nqqDIkv0Jf4","title":"ุดุฑุญ ุตุญูุญ ุงูุจุฎุงุฑู - ูุชุงุจ ุงูุฌุฒูุฉ ูุงูููุงุฏุนุฉ ูู ุจุงุจ ูค","publishedAt":"2017-09-05T17:30:43Z","duration":"PT31M17S","thumbnail":"https://i.ytimg.com/vi/nqqDIkv0Jf4/mqdefault.jpg","viewCount":"479","playlistId":"PLEkQk5xrP-tlEerGoLa1AFy-2XvQ-sovv","playlistName":"ุดุฑุญ ุตุญูุญ ุงูุจุฎุงุฑู - ุฃ.ุฏ. ูุณุฑู ุฌุจุฑ (ูุงููุง)","category":"ุญุฏูุซ"},{"id":"qAqArrbJzos","title":"ุดุฑุญ ุตุญูุญ ุงูุฅูุงู ุงูุจุฎุงุฑู ุฑุถู ุงููู ุนูู - ูุชุงุจ ุงูุฑูุงู ุจุงุจ ุฑูุน ุงูุฃูุงูุฉ (9) ุฏ.ูุณุฑู ุฌุจุฑ","publishedAt":"2017-09-03T18:16:58Z","duration":"PT58M15S","thumbnail":"https://i.ytimg.com/vi/qAqArrbJzos/mqdefault.jpg","viewCount":"169","playlistId":"PLEkQk5xrP-tmJuzaj4GWRenFoFx9gdbFX","playlistName":"ุดุฑุญ ูุชุงุจ ุตุญูุญ ุงูุฅูุงู ุงูุจุฎุงุฑู ุฑุถู ุงููู ุชุนุงูู ุนูู   ุฃ.ุฏ. ูุณุฑู ุฌุจุฑ","category":"ุญุฏูุซ"},{"id":"zkjw4BeAmIc","title":"ุดุฑุญ ุตุญูุญ ุงูุจุฎุงุฑู ูุชุงุจ ุงูุฐุจุงุฆุญ ูุงูุตูุฏ ูู ุจุงุจ ูขูฉ","publishedAt":"2018-07-21T19:28:52Z","duration":"PT36M13S","thumbnail":"https://i.ytimg.com/vi/zkjw4BeAmIc/mqdefault.jpg","viewCount":"416","playlistId":"PLEkQk5xrP-tlEerGoLa1AFy-2XvQ-sovv","playlistName":"ุดุฑุญ ุตุญูุญ ุงูุจุฎุงุฑู - ุฃ.ุฏ. ูุณุฑู ุฌุจุฑ (ูุงููุง)","category":"ุญุฏูุซ"},{"id":"L3DCeEf9hOM","title":"ุดุฑุญ ุตุญูุญ ุงูุจุฎุงุฑู ูุชุงุจ ุงูุฐุจุงุฆุญ ูุงูุตูุฏ ูู ุจุงุจ ูขูฅ","publishedAt":"2018-07-19T21:02:46Z","duration":"PT38M11S","thumbnail":"https://i.ytimg.com/vi/L3DCeEf9hOM/mqdefault.jpg","viewCount":"463","playlistId":"PLEkQk5xrP-tlEerGoLa1AFy-2XvQ-sovv","playlistName":"ุดุฑุญ ุตุญูุญ ุงูุจุฎุงุฑู - ุฃ.ุฏ. ูุณุฑู ุฌุจุฑ (ูุงููุง)","category":"ุญุฏูุซ"},{"id":"pdWEQbgdQ1U","title":"ุดุฑุญ ุตุญูุญ ุงูุจุฎุงุฑู ูุชุงุจ ุงูุฐุจุงุฆุญ ูุงูุตูุฏ ูู ุจุงุจ ูกูฆ","publishedAt":"2018-07-18T15:41:56Z","duration":"PT33M35S","thumbnail":"https://i.ytimg.com/vi/pdWEQbgdQ1U/mqdefault.jpg","viewCount":"395","playlistId":"PLEkQk5xrP-tlEerGoLa1AFy-2XvQ-sovv","playlistName":"ุดุฑุญ ุตุญูุญ ุงูุจุฎุงุฑู - ุฃ.ุฏ. ูุณุฑู ุฌุจุฑ (ูุงููุง)","category":"ุญุฏูุซ"},{"id":"Kqt8nxfytrI","title":"ุดุฑุญ ุตุญูุญ ุงูุจุฎุงุฑู ูุชุงุจ ุงูุฐุจุงุฆุญ ูุงูุตูุฏ ูู ุจุงุจ ูกูข","publishedAt":"2018-07-17T23:24:55Z","duration":"PT37M35S","thumbnail":"https://i.ytimg.com/vi/Kqt8nxfytrI/mqdefault.jpg","viewCount":"440","playlistId":"PLEkQk5xrP-tlEerGoLa1AFy-2XvQ-sovv","playlistName":"ุดุฑุญ ุตุญูุญ ุงูุจุฎุงุฑู - ุฃ.ุฏ. ูุณุฑู ุฌุจุฑ (ูุงููุง)","category":"ุญุฏูุซ"},{"id":"kVr8LkgpGW8","title":"ุดุฑุญ ุตุญูุญ ุงูุจุฎุงุฑู ูุชุงุจ ุงูุฐุจุงุฆุญ ูุงูุตูุฏ ูู ุจุงุจ ูฅ","publishedAt":"2018-07-16T23:46:17Z","duration":"PT35M11S","thumbnail":"https://i.ytimg.com/vi/kVr8LkgpGW8/mqdefault.jpg","viewCount":"429","playlistId":"PLEkQk5xrP-tlEerGoLa1AFy-2XvQ-sovv","playlistName":"ุดุฑุญ ุตุญูุญ ุงูุจุฎุงุฑู - ุฃ.ุฏ. ูุณุฑู ุฌุจุฑ (ูุงููุง)","category":"ุญุฏูุซ"},{"id":"iLI8CWxKCfQ","title":"ุตุญูุญ ุงูุฅูุงู ุงูุจุฎุงุฑู ุฑุถู ุงููู ุนูู - ูุชุงุจ ุงุณุชุชุงุจุฉ ุงูููุฑูุชุฏูููู ูุงูููุนุงูุฏูู ููุชุงููู ุงููุฌูุณ ุงูุฃูู","publishedAt":"2018-07-16T07:48:03Z","duration":"PT42M49S","thumbnail":"https://i.ytimg.com/vi/iLI8CWxKCfQ/mqdefault.jpg","viewCount":"243","playlistId":"PLEkQk5xrP-tmJuzaj4GWRenFoFx9gdbFX","playlistName":"ุดุฑุญ ูุชุงุจ ุตุญูุญ ุงูุฅูุงู ุงูุจุฎุงุฑู ุฑุถู ุงููู ุชุนุงูู ุนูู   ุฃ.ุฏ. ูุณุฑู ุฌุจุฑ","category":"ุญุฏูุซ"},{"id":"p7ZzmILwE-I","title":"ุดุฑุญ ุตุญูุญ ุงูุจุฎุงุฑู ูุชุงุจ ุงูุฑูุงู ูู ุจุงุจ ูฆ","publishedAt":"2018-10-19T12:57:48Z","duration":"PT40M58S","thumbnail":"https://i.ytimg.com/vi/p7ZzmILwE-I/mqdefault.jpg","viewCount":"585","playlistId":"PLEkQk5xrP-tlEerGoLa1AFy-2XvQ-sovv","playlistName":"ุดุฑุญ ุตุญูุญ ุงูุจุฎุงุฑู - ุฃ.ุฏ. ูุณุฑู ุฌุจุฑ (ูุงููุง)","category":"ุญุฏูุซ"},{"id":"FBENCXar6Vg","title":"ุดุฑุญ ุตุญูุญ ุงูุจุฎุงุฑู ูุชุงุจ ุงูุฑูุงู ูู ุจุงุจ ูฃ","publishedAt":"2018-10-18T12:44:20Z","duration":"PT22M48S","thumbnail":"https://i.ytimg.com/vi/FBENCXar6Vg/mqdefault.jpg","viewCount":"456","playlistId":"PLEkQk5xrP-tlEerGoLa1AFy-2XvQ-sovv","playlistName":"ุดุฑุญ ุตุญูุญ ุงูุจุฎุงุฑู - ุฃ.ุฏ. ูุณุฑู ุฌุจุฑ (ูุงููุง)","category":"ุญุฏูุซ"},{"id":"NrXZl71HD_E","title":"ุดุฑุญ ุตุญูุญ ุงูุฅูุงู ุงูุจุฎุงุฑู ุฑุถู ุงููู ุชุนุงูู ุนูู - ูุชุงุจ ุงูุญูููู.  ุฏ. ูุณุฑู ุฌุจุฑ","publishedAt":"2018-10-17T19:56:05Z","duration":"PT30M47S","thumbnail":"https://i.ytimg.com/vi/NrXZl71HD_E/mqdefault.jpg","viewCount":"251","playlistId":"PLEkQk5xrP-tmJuzaj4GWRenFoFx9gdbFX","playlistName":"ุดุฑุญ ูุชุงุจ ุตุญูุญ ุงูุฅูุงู ุงูุจุฎุงุฑู ุฑุถู ุงููู ุชุนุงูู ุนูู   ุฃ.ุฏ. ูุณุฑู ุฌุจุฑ","category":"ุญุฏูุซ"},{"id":"dSaldtINQ7w","title":"119- ุดุฑุญ ุงููุคูุค ูุงููุฑุฌุงู ูุชุงุจ ุงูุฅูุงุฑุฉ ูู ุงูุจุงุจ ุงูุซุงูุซ ุนุดุฑ","publishedAt":"2020-04-13T11:00:18Z","duration":"PT23M14S","thumbnail":"https://i.ytimg.com/vi/dSaldtINQ7w/mqdefault.jpg","viewCount":"462","playlistId":"PLEkQk5xrP-tmKNjtYLfhATC37QdIsTMe0","playlistName":"ุดุฑุญ ูุชุงุจ ุงููุคูุค ูุงููุฑุฌุงู ูููุง ุงุชูู ุนููู ุงูุดูุฎุงู ุฅูุงูุง ุงููุญุฏุซูู ุงูุจุฎุงุฑู ููุณูู. ุฃ.ุฏ. ูุณุฑู ุฌุจุฑ","category":"ุญุฏูุซ"},{"id":"d9dKEuEZYlE","title":"118- ุดุฑุญ ุงููุคูุค ูุงููุฑุฌุงู ูุชุงุจ ุงูุฅูุงุฑุฉ ูู ุงูุจุงุจ ุงูุณุงุฏุณ","publishedAt":"2020-04-12T20:45:01Z","duration":"PT26M5S","thumbnail":"https://i.ytimg.com/vi/d9dKEuEZYlE/mqdefault.jpg","viewCount":"445","playlistId":"PLEkQk5xrP-tmKNjtYLfhATC37QdIsTMe0","playlistName":"ุดุฑุญ ูุชุงุจ ุงููุคูุค ูุงููุฑุฌุงู ูููุง ุงุชูู ุนููู ุงูุดูุฎุงู ุฅูุงูุง ุงููุญุฏุซูู ุงูุจุฎุงุฑู ููุณูู. ุฃ.ุฏ. ูุณุฑู ุฌุจุฑ","category":"ุญุฏูุซ"},{"id":"MlUhmkv9gZg","title":"117- ุดุฑุญ ุงููุคูุค ูุงููุฑุฌุงู ูุชุงุจ ุงูุฅูุงุฑุฉ ูู ุฃููู","publishedAt":"2020-04-11T20:00:02Z","duration":"PT18M37S","thumbnail":"https://i.ytimg.com/vi/MlUhmkv9gZg/mqdefault.jpg","viewCount":"583","playlistId":"PLEkQk5xrP-tmKNjtYLfhATC37QdIsTMe0","playlistName":"ุดุฑุญ ูุชุงุจ ุงููุคูุค ูุงููุฑุฌุงู ูููุง ุงุชูู ุนููู ุงูุดูุฎุงู ุฅูุงูุง ุงููุญุฏุซูู ุงูุจุฎุงุฑู ููุณูู. ุฃ.ุฏ. ูุณุฑู ุฌุจุฑ","category":"ุญุฏูุซ"},{"id":"zwzBPUPFAgM","title":"116- ุดุฑุญ ุงููุคูุค ูุงููุฑุฌุงู ูุชุงุจ ุงูุฌูุงุฏ ูู ุงูุจุงุจ ุงูุซุงูุซ ูุงูุฃุฑุจุนูู","publishedAt":"2020-04-09T07:00:12Z","duration":"PT30M16S","thumbnail":"https://i.ytimg.com/vi/zwzBPUPFAgM/mqdefault.jpg","viewCount":"518","playlistId":"PLEkQk5xrP-tmKNjtYLfhATC37QdIsTMe0","playlistName":"ุดุฑุญ ูุชุงุจ ุงููุคูุค ูุงููุฑุฌุงู ูููุง ุงุชูู ุนููู ุงูุดูุฎุงู ุฅูุงูุง ุงููุญุฏุซูู ุงูุจุฎุงุฑู ููุณูู. ุฃ.ุฏ. ูุณุฑู ุฌุจุฑ","category":"ุญุฏูุซ"}],"total":1218,"page":18,"pageSize":24,"totalPages":51}