{"items":[{"id":"WXqX051KZHA","title":"ุดุฑุญ ุตุญูุญ ุงูุฅูุงู ุงูุจุฎุงุฑู ุฑุถู ุงููู ุชุนุงูู ุนูู - ูุชุงุจูู ุงูุฃูุญูููุงูู  ุฃ.ุฏ. ูุณุฑู ุฌุจุฑ","publishedAt":"2019-09-22T16:47:36Z","duration":"PT33M12S","thumbnail":"https://i.ytimg.com/vi/WXqX051KZHA/mqdefault.jpg","viewCount":"298","playlistId":"PLEkQk5xrP-tmJuzaj4GWRenFoFx9gdbFX","playlistName":"ุดุฑุญ ูุชุงุจ ุตุญูุญ ุงูุฅูุงู ุงูุจุฎุงุฑู ุฑุถู ุงููู ุชุนุงูู ุนูู   ุฃ.ุฏ. ูุณุฑู ุฌุจุฑ","category":"ุญุฏูุซ"},{"id":"Pg0x6UC4-dA","title":"ุดุฑุญ ุตุญูุญ ุงูุจุฎุงุฑู ( ูุชุงุจ ุจุฏุก ุงููุญู ูุฌูุณ ูข)","publishedAt":"2016-08-07T13:56:35Z","duration":"PT35M55S","thumbnail":"https://i.ytimg.com/vi/Pg0x6UC4-dA/mqdefault.jpg","viewCount":"5453","playlistId":"PLEkQk5xrP-tlEerGoLa1AFy-2XvQ-sovv","playlistName":"ุดุฑุญ ุตุญูุญ ุงูุจุฎุงุฑู - ุฃ.ุฏ. ูุณุฑู ุฌุจุฑ (ูุงููุง)","category":"ุญุฏูุซ"},{"id":"gi3XD-KulY0","title":"ุตุญูุญ ุงูุฅูุงู ุงูุจุฎุงุฑู ุฑุถู ุงููู ุนูู - ุฎุชุงู ูุชุงุจ ุงููุฑุถู  ูุจุฏุงูุฉ ูุชุงุจ ุงูุทุจ ุฏ. ูุณุฑู ุฌุจุฑ","publishedAt":"2016-08-07T13:32:54Z","duration":"PT1H6M38S","thumbnail":"https://i.ytimg.com/vi/gi3XD-KulY0/mqdefault.jpg","viewCount":"185","playlistId":"PLEkQk5xrP-tmJuzaj4GWRenFoFx9gdbFX","playlistName":"ุดุฑุญ ูุชุงุจ ุตุญูุญ ุงูุฅูุงู ุงูุจุฎุงุฑู ุฑุถู ุงููู ุชุนุงูู ุนูู   ุฃ.ุฏ. ูุณุฑู ุฌุจุฑ","category":"ุญุฏูุซ"},{"id":"ULzvlz5yfBs","title":"ุดุฑุญ ุตุญูุญ ุงูุจุฎุงุฑู ( ูุชุงุจ ุจุฏุก ุงููุญู  ุงููุฌูุณ ูก)","publishedAt":"2016-08-06T09:05:58Z","duration":"PT48M","thumbnail":"https://i.ytimg.com/vi/ULzvlz5yfBs/mqdefault.jpg","viewCount":"10883","playlistId":"PLEkQk5xrP-tlEerGoLa1AFy-2XvQ-sovv","playlistName":"ุดุฑุญ ุตุญูุญ ุงูุจุฎุงุฑู - ุฃ.ุฏ. ูุณุฑู ุฌุจุฑ (ูุงููุง)","category":"ุญุฏูุซ"},{"id":"02vA77On9k8","title":"ุดุฑุญ ุตุญูุญ ุงูุจุฎุงุฑู   ( ุฃุฎุฑ ูุฌูุณ ูู ุงูููุฏูุฉ , ูุฌูุณ ูฅ)","publishedAt":"2016-08-06T07:17:05Z","duration":"PT33M34S","thumbnail":"https://i.ytimg.com/vi/02vA77On9k8/mqdefault.jpg","viewCount":"3682","playlistId":"PLEkQk5xrP-tlEerGoLa1AFy-2XvQ-sovv","playlistName":"ุดุฑุญ ุตุญูุญ ุงูุจุฎุงุฑู - ุฃ.ุฏ. ูุณุฑู ุฌุจุฑ (ูุงููุง)","category":"ุญุฏูุซ"},{"id":"IkfF8ouCIk0","title":"๐ด CEREMONIAL PENUTUPAN MAJELIS SAMA' & KHATMIL KITAB SHAHIH AL-BUKHARI | PP. PROGRESIF BUMI SHALAWAT","publishedAt":"2025-02-10T05:00:56Z","duration":"PT3H41M15S","thumbnail":"https://i.ytimg.com/vi/IkfF8ouCIk0/mqdefault.jpg","viewCount":"7675","playlistId":"PLEkQk5xrP-tkKcTKLIthzWrdXY7QaOjh_","playlistName":"ูุฑุงุกุฉ ุตุญูุญ ุงูุจุฎุงุฑู ูุงููุงู ูู ุฅูุฏูููุณูุง","category":"ุญุฏูุซ"},{"id":"RNJEhtQa4j4","title":"ุดุฑุญ ุตุญูุญ ุงูุจุฎุงุฑู ูุชุงุจ ุงูุฃุญูุงู ูู ุจุงุจ ูฃู","publishedAt":"2019-01-12T21:50:01Z","duration":"PT29M26S","thumbnail":"https://i.ytimg.com/vi/RNJEhtQa4j4/mqdefault.jpg","viewCount":"412","playlistId":"PLEkQk5xrP-tlEerGoLa1AFy-2XvQ-sovv","playlistName":"ุดุฑุญ ุตุญูุญ ุงูุจุฎุงุฑู - ุฃ.ุฏ. ูุณุฑู ุฌุจุฑ (ูุงููุง)","category":"ุญุฏูุซ"},{"id":"QGuSKprTzbw","title":"ุดุฑุญ ุตุญูุญ ุงูุจุฎุงุฑู ูุชุงุจ ุงูุฃุญูุงู ูู ุจุงุจ ูขูฅ","publishedAt":"2019-01-11T21:18:18Z","duration":"PT26M3S","thumbnail":"https://i.ytimg.com/vi/QGuSKprTzbw/mqdefault.jpg","viewCount":"347","playlistId":"PLEkQk5xrP-tlEerGoLa1AFy-2XvQ-sovv","playlistName":"ุดุฑุญ ุตุญูุญ ุงูุจุฎุงุฑู - ุฃ.ุฏ. ูุณุฑู ุฌุจุฑ (ูุงููุง)","category":"ุญุฏูุซ"},{"id":"b-WLdyO9nLc","title":"ุตุญูุญ ุงูุจุฎุงุฑู - ูุชุงุจ ุงููุญุงุฑุจูู ูู ุฃูู ุงูููุฑ ูุงูุฑุฏุฉ","publishedAt":"2018-03-05T18:57:45Z","duration":"PT25M48S","thumbnail":"https://i.ytimg.com/vi/b-WLdyO9nLc/mqdefault.jpg","viewCount":"159","playlistId":"PLEkQk5xrP-tmJuzaj4GWRenFoFx9gdbFX","playlistName":"ุดุฑุญ ูุชุงุจ ุตุญูุญ ุงูุฅูุงู ุงูุจุฎุงุฑู ุฑุถู ุงููู ุชุนุงูู ุนูู   ุฃ.ุฏ. ูุณุฑู ุฌุจุฑ","category":"ุญุฏูุซ"},{"id":"RCDCI_gE8rE","title":"174- ูุจูู ุงูุชูุจุฉ ูู ุงูุฐููุจ ูุฅู ุชูุฑุฑุช ุงูุฐููุจ ูุงูุชูุจุฉ","publishedAt":"2020-12-01T20:16:57Z","duration":"PT33M59S","thumbnail":"https://i.ytimg.com/vi/RCDCI_gE8rE/mqdefault.jpg","viewCount":"8088","playlistId":"PLEkQk5xrP-tmKNjtYLfhATC37QdIsTMe0","playlistName":"ุดุฑุญ ูุชุงุจ ุงููุคูุค ูุงููุฑุฌุงู ูููุง ุงุชูู ุนููู ุงูุดูุฎุงู ุฅูุงูุง ุงููุญุฏุซูู ุงูุจุฎุงุฑู ููุณูู. ุฃ.ุฏ. ูุณุฑู ุฌุจุฑ","category":"ุญุฏูุซ"},{"id":"RVNCCeEDLCw","title":"173- ุงูุญุถูู ุนูู ุงูุชูุจุฉ ูุงููุฑุญ ุจูุง","publishedAt":"2020-11-30T21:06:46Z","duration":"PT32M18S","thumbnail":"https://i.ytimg.com/vi/RVNCCeEDLCw/mqdefault.jpg","viewCount":"4195","playlistId":"PLEkQk5xrP-tmKNjtYLfhATC37QdIsTMe0","playlistName":"ุดุฑุญ ูุชุงุจ ุงููุคูุค ูุงููุฑุฌุงู ูููุง ุงุชูู ุนููู ุงูุดูุฎุงู ุฅูุงูุง ุงููุญุฏุซูู ุงูุจุฎุงุฑู ููุณูู. ุฃ.ุฏ. ูุณุฑู ุฌุจุฑ","category":"ุญุฏูุซ"},{"id":"F8MCGHPZpO0","title":"ุงูุฃุฑุจุนูู ุงูููููุฉ - ุงููุฌูุณ ุงูุฃูู","publishedAt":"2020-11-29T08:20:11Z","duration":"PT40M8S","thumbnail":"https://i.ytimg.com/vi/F8MCGHPZpO0/mqdefault.jpg","viewCount":"6067","playlistId":"PLEkQk5xrP-tmHtx4cjd_IK-SgBg00N_ZN","playlistName":"ุงูุฃุฑุจุนูู ุงูููููุฉ","category":"ุญุฏูุซ"},{"id":"5-FLnPU3Xc8","title":"172- ุงูุชุนูููุฐ ูู ุดุฑูู ูุง ุนูู ููู ุดุฑูู ูุง ูู ูุนูู","publishedAt":"2020-11-27T07:55:22Z","duration":"PT30M18S","thumbnail":"https://i.ytimg.com/vi/5-FLnPU3Xc8/mqdefault.jpg","viewCount":"2216","playlistId":"PLEkQk5xrP-tmKNjtYLfhATC37QdIsTMe0","playlistName":"ุดุฑุญ ูุชุงุจ ุงููุคูุค ูุงููุฑุฌุงู ูููุง ุงุชูู ุนููู ุงูุดูุฎุงู ุฅูุงูุง ุงููุญุฏุซูู ุงูุจุฎุงุฑู ููุณูู. ุฃ.ุฏ. ูุณุฑู ุฌุจุฑ","category":"ุญุฏูุซ"},{"id":"vUcyMilbJZM","title":"171- ุงุณุชุญุจุงุจู ุฎูุถู ุงูุตูุชู ุจุงูุฐูููุฑ","publishedAt":"2020-11-25T19:05:16Z","duration":"PT32M24S","thumbnail":"https://i.ytimg.com/vi/vUcyMilbJZM/mqdefault.jpg","viewCount":"4106","playlistId":"PLEkQk5xrP-tmKNjtYLfhATC37QdIsTMe0","playlistName":"ุดุฑุญ ูุชุงุจ ุงููุคูุค ูุงููุฑุฌุงู ูููุง ุงุชูู ุนููู ุงูุดูุฎุงู ุฅูุงูุง ุงููุญุฏุซูู ุงูุจุฎุงุฑู ููุณูู. ุฃ.ุฏ. ูุณุฑู ุฌุจุฑ","category":"ุญุฏูุซ"},{"id":"wtsZL-eocQg","title":"ุดุฑุญ ุตุญูุญ ุงูุจุฎุงุฑู ูุชุงุจ ุงูุฃุถุงุญู ูู ุจุงุจ ูฉ","publishedAt":"2018-07-24T08:46:39Z","duration":"PT32M44S","thumbnail":"https://i.ytimg.com/vi/wtsZL-eocQg/mqdefault.jpg","viewCount":"478","playlistId":"PLEkQk5xrP-tlEerGoLa1AFy-2XvQ-sovv","playlistName":"ุดุฑุญ ุตุญูุญ ุงูุจุฎุงุฑู - ุฃ.ุฏ. ูุณุฑู ุฌุจุฑ (ูุงููุง)","category":"ุญุฏูุซ"},{"id":"OroUt00-bOo","title":"ุดุฑุญ ุตุญูุญ ุงูุจุฎุงุฑู ูุชุงุจ ุงูุฃุถุงุญู ูู ุฃููู","publishedAt":"2018-07-23T07:24:45Z","duration":"PT39M29S","thumbnail":"https://i.ytimg.com/vi/OroUt00-bOo/mqdefault.jpg","viewCount":"620","playlistId":"PLEkQk5xrP-tlEerGoLa1AFy-2XvQ-sovv","playlistName":"ุดุฑุญ ุตุญูุญ ุงูุจุฎุงุฑู - ุฃ.ุฏ. ูุณุฑู ุฌุจุฑ (ูุงููุง)","category":"ุญุฏูุซ"},{"id":"t4edptwOFEY","title":"ุตุญูุญ ุงูุฅูุงู ุงูุจุฎุงุฑู ุฑุถู ุงููู ุนูู - ูุชุงุจ ุงุณุชุชุงุจุฉ ุงูููุฑูุชุฏูููู ูุงูููุนุงูุฏูู ููุชุงููู ุงููุฌูุณ ุงูุซุงูู.","publishedAt":"2018-07-22T22:11:27Z","duration":"PT49M37S","thumbnail":"https://i.ytimg.com/vi/t4edptwOFEY/mqdefault.jpg","viewCount":"203","playlistId":"PLEkQk5xrP-tmJuzaj4GWRenFoFx9gdbFX","playlistName":"ุดุฑุญ ูุชุงุจ ุตุญูุญ ุงูุฅูุงู ุงูุจุฎุงุฑู ุฑุถู ุงููู ุชุนุงูู ุนูู   ุฃ.ุฏ. ูุณุฑู ุฌุจุฑ","category":"ุญุฏูุซ"},{"id":"iYlNySBdUaE","title":"3- ุดุฑุญ ูุชุงุจ ุงููุคูุค ูุงููุฑุฌุงู - ุงููุฌูุณ ุงูุซุงูุซ. ุฃ.ุฏ. ูุณุฑู ุฌุจุฑ","publishedAt":"2019-12-05T19:29:46Z","duration":"PT38M54S","thumbnail":"https://i.ytimg.com/vi/iYlNySBdUaE/mqdefault.jpg","viewCount":"2768","playlistId":"PLEkQk5xrP-tmKNjtYLfhATC37QdIsTMe0","playlistName":"ุดุฑุญ ูุชุงุจ ุงููุคูุค ูุงููุฑุฌุงู ูููุง ุงุชูู ุนููู ุงูุดูุฎุงู ุฅูุงูุง ุงููุญุฏุซูู ุงูุจุฎุงุฑู ููุณูู. ุฃ.ุฏ. ูุณุฑู ุฌุจุฑ","category":"ุญุฏูุซ"},{"id":"0Fbetlwe9lY","title":"ุดุฑุญ ุตุญูุญ ุงูุฅูุงู ุงูุจุฎุงุฑู ุฑุถู ุงููู ุชุนุงูู ุนูู - ูุชุงุจูู ุฃูุฎูุจูุงุฑู ุงูุขุญูุงุฏู  ุฃ.ุฏ. ูุณุฑู ุฌุจุฑ","publishedAt":"2019-12-03T16:05:56Z","duration":"PT36M8S","thumbnail":"https://i.ytimg.com/vi/0Fbetlwe9lY/mqdefault.jpg","viewCount":"483","playlistId":"PLEkQk5xrP-tmJuzaj4GWRenFoFx9gdbFX","playlistName":"ุดุฑุญ ูุชุงุจ ุตุญูุญ ุงูุฅูุงู ุงูุจุฎุงุฑู ุฑุถู ุงููู ุชุนุงูู ุนูู   ุฃ.ุฏ. ูุณุฑู ุฌุจุฑ","category":"ุญุฏูุซ"},{"id":"b_MRG8iRCPU","title":"2- ุดุฑุญ ูุชุงุจ ุงููุคูุค ูุงููุฑุฌุงู - ุงููุฌูุณ ุงูุซุงูู. ุฃ.ุฏ. ูุณุฑู ุฌุจุฑ","publishedAt":"2019-11-29T08:30:23Z","duration":"PT35M55S","thumbnail":"https://i.ytimg.com/vi/b_MRG8iRCPU/mqdefault.jpg","viewCount":"4278","playlistId":"PLEkQk5xrP-tmKNjtYLfhATC37QdIsTMe0","playlistName":"ุดุฑุญ ูุชุงุจ ุงููุคูุค ูุงููุฑุฌุงู ูููุง ุงุชูู ุนููู ุงูุดูุฎุงู ุฅูุงูุง ุงููุญุฏุซูู ุงูุจุฎุงุฑู ููุณูู. ุฃ.ุฏ. ูุณุฑู ุฌุจุฑ","category":"ุญุฏูุซ"},{"id":"kI8H5hsYD2k","title":"1- ุดุฑุญ ูุชุงุจ ุงููุคูุค ูุงููุฑุฌุงู ูููุง ุงุชูู ุนููู ุงูุดูุฎุงู ุฅูุงูุง ุงููุญุฏุซูู ุงูุจุฎุงุฑู ููุณูู.   ุฃ.ุฏ. ูุณุฑู ุฌุจุฑ","publishedAt":"2019-11-27T18:33:37Z","duration":"PT43M12S","thumbnail":"https://i.ytimg.com/vi/kI8H5hsYD2k/mqdefault.jpg","viewCount":"12264","playlistId":"PLEkQk5xrP-tmKNjtYLfhATC37QdIsTMe0","playlistName":"ุดุฑุญ ูุชุงุจ ุงููุคูุค ูุงููุฑุฌุงู ูููุง ุงุชูู ุนููู ุงูุดูุฎุงู ุฅูุงูุง ุงููุญุฏุซูู ุงูุจุฎุงุฑู ููุณูู. ุฃ.ุฏ. ูุณุฑู ุฌุจุฑ","category":"ุญุฏูุซ"},{"id":"NbFGEh_UDUk","title":"ุดุฑุญ ุตุญูุญ ุงูุฅูุงู ุงูุจุฎุงุฑู ุฑุถู ุงููู ุชุนุงูู ุนูู - ูุชุงุจูู ุฃูุฎูุจูุงุฑ ุงูุขุญูุงุฏู  ุฃ.ุฏ. ูุณุฑู ุฌุจุฑ","publishedAt":"2019-11-18T08:09:35Z","duration":"PT30M58S","thumbnail":"https://i.ytimg.com/vi/NbFGEh_UDUk/mqdefault.jpg","viewCount":"367","playlistId":"PLEkQk5xrP-tmJuzaj4GWRenFoFx9gdbFX","playlistName":"ุดุฑุญ ูุชุงุจ ุตุญูุญ ุงูุฅูุงู ุงูุจุฎุงุฑู ุฑุถู ุงููู ุชุนุงูู ุนูู   ุฃ.ุฏ. ูุณุฑู ุฌุจุฑ","category":"ุญุฏูุซ"},{"id":"jHOo03Xr3zk","title":"ุดุฑุญ ุตุญูุญ ุงูุฅูุงู ุงูุจุฎุงุฑู ุฑุถู ุงููู ุชุนุงูู ุนูู - ูุชุงุจูู ุฃูุฎูุจูุงุฑู ุงูุขุญูุงุฏู  ุฃ.ุฏ. ูุณุฑู ุฌุจุฑ","publishedAt":"2019-11-11T19:10:50Z","duration":"PT30M54S","thumbnail":"https://i.ytimg.com/vi/jHOo03Xr3zk/mqdefault.jpg","viewCount":"298","playlistId":"PLEkQk5xrP-tmJuzaj4GWRenFoFx9gdbFX","playlistName":"ุดุฑุญ ูุชุงุจ ุตุญูุญ ุงูุฅูุงู ุงูุจุฎุงุฑู ุฑุถู ุงููู ุชุนุงูู ุนูู   ุฃ.ุฏ. ูุณุฑู ุฌุจุฑ","category":"ุญุฏูุซ"},{"id":"6dWH6zFxH2Q","title":"ุตุญูุญ ุงูุฅูุงู ุงูุจุฎุงุฑู ุฑุถู ุงููู ุนูู - ูุชุงุจ ุงูุทุจ ุงููุฌูุณ ุงูุฎุงูุณ ุฏ. ูุณุฑู ุฌุจุฑ","publishedAt":"2016-08-20T18:50:22Z","duration":"PT44M37S","thumbnail":"https://i.ytimg.com/vi/6dWH6zFxH2Q/mqdefault.jpg","viewCount":"148","playlistId":"PLEkQk5xrP-tmJuzaj4GWRenFoFx9gdbFX","playlistName":"ุดุฑุญ ูุชุงุจ ุตุญูุญ ุงูุฅูุงู ุงูุจุฎุงุฑู ุฑุถู ุงููู ุชุนุงูู ุนูู   ุฃ.ุฏ. ูุณุฑู ุฌุจุฑ","category":"ุญุฏูุซ"}],"total":1218,"page":24,"pageSize":24,"totalPages":51}