{"items":[{"id":"YlIPeNKqzWg","title":"91- شرح اللؤلؤ والمرجان كتاب البيوع من الباب السادس عشر","publishedAt":"2020-03-10T06:00:03Z","duration":"PT17M24S","thumbnail":"https://i.ytimg.com/vi/YlIPeNKqzWg/mqdefault.jpg","viewCount":"394","playlistId":"PLEkQk5xrP-tmKNjtYLfhATC37QdIsTMe0","playlistName":"شرح كتاب اللؤلؤ والمرجان فيما اتفق عليه الشيخان إماما المحدثين البخاري ومسلم. أ.د. يسري جبر","category":"حديث"},{"id":"b_a-aj6veCI","title":"شرح صحيح البخاري كتاب الدعوات من باب ٣٣","publishedAt":"2018-10-08T21:45:35Z","duration":"PT20M25S","thumbnail":"https://i.ytimg.com/vi/b_a-aj6veCI/mqdefault.jpg","viewCount":"457","playlistId":"PLEkQk5xrP-tlEerGoLa1AFy-2XvQ-sovv","playlistName":"شرح صحيح البخاري - أ.د. يسري جبر (كاملا)","category":"حديث"},{"id":"l69ncasMB3I","title":"شرح كتاب الأذكار من كلام سيد الأبرار للإمام النووى رضى الله عنه - المجلس السابع والعشرون","publishedAt":"2015-06-04T19:13:42Z","duration":"PT6M54S","thumbnail":"https://i.ytimg.com/vi/l69ncasMB3I/mqdefault.jpg","viewCount":"291","playlistId":"PLEkQk5xrP-tkWS57Ubysh0ifJR8dmuEtE","playlistName":"شرح كتاب الأذكار للإمام النووي د. يسرى جبر","category":"حديث"},{"id":"RgrW93yY1IU","title":"145- صِفةُ النَّبيّ ﷺ وأنه كان أحسن الناس وجهًا","publishedAt":"2020-10-06T07:52:44Z","duration":"PT30M39S","thumbnail":"https://i.ytimg.com/vi/RgrW93yY1IU/mqdefault.jpg","viewCount":"4135","playlistId":"PLEkQk5xrP-tmKNjtYLfhATC37QdIsTMe0","playlistName":"شرح كتاب اللؤلؤ والمرجان فيما اتفق عليه الشيخان إماما المحدثين البخاري ومسلم. أ.د. يسري جبر","category":"حديث"},{"id":"VI7z1zBwXNY","title":"144-  رحمته ﷺ الصبيان والعيال وتواضعه وفضل ذلك","publishedAt":"2020-10-04T07:56:09Z","duration":"PT30M57S","thumbnail":"https://i.ytimg.com/vi/VI7z1zBwXNY/mqdefault.jpg","viewCount":"1615","playlistId":"PLEkQk5xrP-tmKNjtYLfhATC37QdIsTMe0","playlistName":"شرح كتاب اللؤلؤ والمرجان فيما اتفق عليه الشيخان إماما المحدثين البخاري ومسلم. أ.د. يسري جبر","category":"حديث"},{"id":"IVlNJELGUNA","title":"48- شرح اللؤلؤ والمرجان كتاب صلاة الكسوف من باب ٣","publishedAt":"2020-01-27T22:03:30Z","duration":"PT21M37S","thumbnail":"https://i.ytimg.com/vi/IVlNJELGUNA/mqdefault.jpg","viewCount":"357","playlistId":"PLEkQk5xrP-tmKNjtYLfhATC37QdIsTMe0","playlistName":"شرح كتاب اللؤلؤ والمرجان فيما اتفق عليه الشيخان إماما المحدثين البخاري ومسلم. أ.د. يسري جبر","category":"حديث"},{"id":"2k6UyRDHSBA","title":"47- شرح اللؤلؤ والمرجان كتاب صلاة الكسوف من أوله","publishedAt":"2020-01-27T06:17:59Z","duration":"PT26M36S","thumbnail":"https://i.ytimg.com/vi/2k6UyRDHSBA/mqdefault.jpg","viewCount":"420","playlistId":"PLEkQk5xrP-tmKNjtYLfhATC37QdIsTMe0","playlistName":"شرح كتاب اللؤلؤ والمرجان فيما اتفق عليه الشيخان إماما المحدثين البخاري ومسلم. أ.د. يسري جبر","category":"حديث"},{"id":"wwDRDIVVD1s","title":"46- شرح اللؤلؤ والمرجان كتاب صلاة الاستسقاء من أوله","publishedAt":"2020-01-26T10:53:44Z","duration":"PT18M28S","thumbnail":"https://i.ytimg.com/vi/wwDRDIVVD1s/mqdefault.jpg","viewCount":"429","playlistId":"PLEkQk5xrP-tmKNjtYLfhATC37QdIsTMe0","playlistName":"شرح كتاب اللؤلؤ والمرجان فيما اتفق عليه الشيخان إماما المحدثين البخاري ومسلم. أ.د. يسري جبر","category":"حديث"},{"id":"SFHiu8lDH20","title":"‎شرح صحيح الإمام البخاري رضي الله تعالى عنه - كتابُ الاعتصَامِ بالكِتابِ والسُّنَّةِ. أ.د. يسري جبر","publishedAt":"2020-01-25T08:48:47Z","duration":"PT51M29S","thumbnail":"https://i.ytimg.com/vi/SFHiu8lDH20/mqdefault.jpg","viewCount":"346","playlistId":"PLEkQk5xrP-tmJuzaj4GWRenFoFx9gdbFX","playlistName":"شرح كتاب صحيح الإمام البخاري رضي الله تعالى عنه   أ.د. يسرى جبر","category":"حديث"},{"id":"lHEtIZ4RcMk","title":"45- شرح اللؤلؤ والمرجان كتاب صلاة العيدين من أوله","publishedAt":"2020-01-23T11:43:00Z","duration":"PT26M54S","thumbnail":"https://i.ytimg.com/vi/lHEtIZ4RcMk/mqdefault.jpg","viewCount":"457","playlistId":"PLEkQk5xrP-tmKNjtYLfhATC37QdIsTMe0","playlistName":"شرح كتاب اللؤلؤ والمرجان فيما اتفق عليه الشيخان إماما المحدثين البخاري ومسلم. أ.د. يسري جبر","category":"حديث"},{"id":"Fv-Vh3ilnF8","title":"44- شرح اللؤلؤ والمرجان كتاب الجمعة من أوله","publishedAt":"2020-01-22T09:40:38Z","duration":"PT32M10S","thumbnail":"https://i.ytimg.com/vi/Fv-Vh3ilnF8/mqdefault.jpg","viewCount":"529","playlistId":"PLEkQk5xrP-tmKNjtYLfhATC37QdIsTMe0","playlistName":"شرح كتاب اللؤلؤ والمرجان فيما اتفق عليه الشيخان إماما المحدثين البخاري ومسلم. أ.د. يسري جبر","category":"حديث"},{"id":"_LZnl4_uJSo","title":"43- شرح اللؤلؤ والمرجان كتاب الصلاة المسافرين وقصرها من باب ٤٣","publishedAt":"2020-01-21T21:31:32Z","duration":"PT39M5S","thumbnail":"https://i.ytimg.com/vi/_LZnl4_uJSo/mqdefault.jpg","viewCount":"638","playlistId":"PLEkQk5xrP-tmKNjtYLfhATC37QdIsTMe0","playlistName":"شرح كتاب اللؤلؤ والمرجان فيما اتفق عليه الشيخان إماما المحدثين البخاري ومسلم. أ.د. يسري جبر","category":"حديث"},{"id":"P0JzC3sGz8Y","title":"42- شرح اللؤلؤ والمرجان كتاب الصلاة المسافرين وقصرها من باب ٣٦","publishedAt":"2020-01-21T07:02:01Z","duration":"PT14M35S","thumbnail":"https://i.ytimg.com/vi/P0JzC3sGz8Y/mqdefault.jpg","viewCount":"505","playlistId":"PLEkQk5xrP-tmKNjtYLfhATC37QdIsTMe0","playlistName":"شرح كتاب اللؤلؤ والمرجان فيما اتفق عليه الشيخان إماما المحدثين البخاري ومسلم. أ.د. يسري جبر","category":"حديث"},{"id":"L87U1Ye1rDk","title":"41- شرح اللؤلؤ والمرجان كتاب الصلاة المسافرين وقصرها من باب ٢٧","publishedAt":"2020-01-20T07:35:05Z","duration":"PT30M3S","thumbnail":"https://i.ytimg.com/vi/L87U1Ye1rDk/mqdefault.jpg","viewCount":"547","playlistId":"PLEkQk5xrP-tmKNjtYLfhATC37QdIsTMe0","playlistName":"شرح كتاب اللؤلؤ والمرجان فيما اتفق عليه الشيخان إماما المحدثين البخاري ومسلم. أ.د. يسري جبر","category":"حديث"},{"id":"XE7akJS72Mg","title":"شرح صحيح البخاري ( كتاب الصلاة مجلس ٥ )","publishedAt":"2016-10-01T10:16:33Z","duration":"PT41M56S","thumbnail":"https://i.ytimg.com/vi/XE7akJS72Mg/mqdefault.jpg","viewCount":"1639","playlistId":"PLEkQk5xrP-tlEerGoLa1AFy-2XvQ-sovv","playlistName":"شرح صحيح البخاري - أ.د. يسري جبر (كاملا)","category":"حديث"},{"id":"ZokRgARTiL0","title":"شرح صحيح البخاري ( كتاب الصلاة مجلس ٦)","publishedAt":"2016-10-01T10:16:10Z","duration":"PT35M11S","thumbnail":"https://i.ytimg.com/vi/ZokRgARTiL0/mqdefault.jpg","viewCount":"1421","playlistId":"PLEkQk5xrP-tlEerGoLa1AFy-2XvQ-sovv","playlistName":"شرح صحيح البخاري - أ.د. يسري جبر (كاملا)","category":"حديث"},{"id":"gcLQFvwhc9o","title":"شرح صحيح البخاري ( كتاب الصلاة مجلس ٤ )","publishedAt":"2016-10-01T08:57:42Z","duration":"PT31M47S","thumbnail":"https://i.ytimg.com/vi/gcLQFvwhc9o/mqdefault.jpg","viewCount":"1437","playlistId":"PLEkQk5xrP-tlEerGoLa1AFy-2XvQ-sovv","playlistName":"شرح صحيح البخاري - أ.د. يسري جبر (كاملا)","category":"حديث"},{"id":"GrzoEUgW0Ms","title":"باب قول النبي صلى الله عليه وآله وسلم \"اللهم اغفر لي ما قدمت وما أخرت\" المجلس السابع د. يسري جبر","publishedAt":"2017-07-29T06:47:55Z","duration":"PT52M5S","thumbnail":"https://i.ytimg.com/vi/GrzoEUgW0Ms/mqdefault.jpg","viewCount":"534","playlistId":"PLEkQk5xrP-tmJuzaj4GWRenFoFx9gdbFX","playlistName":"شرح كتاب صحيح الإمام البخاري رضي الله تعالى عنه   أ.د. يسرى جبر","category":"حديث"},{"id":"ZUjl-GAXLMc","title":"شرح صحيح البخاري - كتاب الجهاد والسير من باب ٩","publishedAt":"2017-07-28T20:47:05Z","duration":"PT35M45S","thumbnail":"https://i.ytimg.com/vi/ZUjl-GAXLMc/mqdefault.jpg","viewCount":"673","playlistId":"PLEkQk5xrP-tlEerGoLa1AFy-2XvQ-sovv","playlistName":"شرح صحيح البخاري - أ.د. يسري جبر (كاملا)","category":"حديث"},{"id":"H7pgAZFuwFw","title":"شرح صحيح البخاري - كتاب الجهاد والسير من باب ٤","publishedAt":"2017-07-27T21:48:03Z","duration":"PT27M1S","thumbnail":"https://i.ytimg.com/vi/H7pgAZFuwFw/mqdefault.jpg","viewCount":"696","playlistId":"PLEkQk5xrP-tlEerGoLa1AFy-2XvQ-sovv","playlistName":"شرح صحيح البخاري - أ.د. يسري جبر (كاملا)","category":"حديث"},{"id":"OzBRIFc0SYI","title":"شرح صحيح البخاري - كتاب الجهاد والسير من باب ٢","publishedAt":"2017-07-26T18:29:42Z","duration":"PT30M29S","thumbnail":"https://i.ytimg.com/vi/OzBRIFc0SYI/mqdefault.jpg","viewCount":"754","playlistId":"PLEkQk5xrP-tlEerGoLa1AFy-2XvQ-sovv","playlistName":"شرح صحيح البخاري - أ.د. يسري جبر (كاملا)","category":"حديث"},{"id":"9hWUMz65Kjo","title":"شرح صحيح البخاري - كتاب الجهاد والسير من أوله","publishedAt":"2017-07-25T19:57:40Z","duration":"PT39M54S","thumbnail":"https://i.ytimg.com/vi/9hWUMz65Kjo/mqdefault.jpg","viewCount":"1176","playlistId":"PLEkQk5xrP-tlEerGoLa1AFy-2XvQ-sovv","playlistName":"شرح صحيح البخاري - أ.د. يسري جبر (كاملا)","category":"حديث"},{"id":"KzAHwxQlkUU","title":"109- شرح اللؤلؤ والمرجان كتاب الجهاد من أوله","publishedAt":"2020-03-30T07:00:03Z","duration":"PT26M55S","thumbnail":"https://i.ytimg.com/vi/KzAHwxQlkUU/mqdefault.jpg","viewCount":"478","playlistId":"PLEkQk5xrP-tmKNjtYLfhATC37QdIsTMe0","playlistName":"شرح كتاب اللؤلؤ والمرجان فيما اتفق عليه الشيخان إماما المحدثين البخاري ومسلم. أ.د. يسري جبر","category":"حديث"},{"id":"DJ4b_g4kcIg","title":"108- شرح اللؤلؤ والمرجان كتاب اللقطة من أوله","publishedAt":"2020-03-29T07:00:05Z","duration":"PT21M27S","thumbnail":"https://i.ytimg.com/vi/DJ4b_g4kcIg/mqdefault.jpg","viewCount":"448","playlistId":"PLEkQk5xrP-tmKNjtYLfhATC37QdIsTMe0","playlistName":"شرح كتاب اللؤلؤ والمرجان فيما اتفق عليه الشيخان إماما المحدثين البخاري ومسلم. أ.د. يسري جبر","category":"حديث"}],"total":1218,"page":34,"pageSize":24,"totalPages":51}