{"items":[{"id":"hSt4SW2VM6g","title":"صحيح الإمام البخاري رضي الله عنه - كتاب الأطعمة - المجلس الأول","publishedAt":"2016-01-18T18:59:34Z","duration":"PT1H23M10S","thumbnail":"https://i.ytimg.com/vi/hSt4SW2VM6g/mqdefault.jpg","viewCount":"227","playlistId":"PLEkQk5xrP-tmJuzaj4GWRenFoFx9gdbFX","playlistName":"شرح كتاب صحيح الإمام البخاري رضي الله تعالى عنه   أ.د. يسرى جبر","category":"حديث"},{"id":"O4qZDLjeGsI","title":"شرح كتاب الأذكار من كلام سيد الأبرار للإمام النووى رضى الله عنه - المجلس الحادى والثلاثون","publishedAt":"2015-07-10T16:56:48Z","duration":"PT10M56S","thumbnail":"https://i.ytimg.com/vi/O4qZDLjeGsI/mqdefault.jpg","viewCount":"285","playlistId":"PLEkQk5xrP-tkWS57Ubysh0ifJR8dmuEtE","playlistName":"شرح كتاب الأذكار للإمام النووي د. يسرى جبر","category":"حديث"},{"id":"a-M9PxZZnYs","title":"شرح كتاب الأذكار من كلام سيد الأبرار للإمام النووى رضى الله عنه - المجلس الثلاثون","publishedAt":"2015-07-06T17:48:26Z","duration":"PT10M25S","thumbnail":"https://i.ytimg.com/vi/a-M9PxZZnYs/mqdefault.jpg","viewCount":"317","playlistId":"PLEkQk5xrP-tkWS57Ubysh0ifJR8dmuEtE","playlistName":"شرح كتاب الأذكار للإمام النووي د. يسرى جبر","category":"حديث"},{"id":"A4FI_7e4bMA","title":"شرح صحيح البخاري ( كتاب الصلاة مجلس 10)","publishedAt":"2016-10-12T04:19:29Z","duration":"PT36M16S","thumbnail":"https://i.ytimg.com/vi/A4FI_7e4bMA/mqdefault.jpg","viewCount":"1425","playlistId":"PLEkQk5xrP-tlEerGoLa1AFy-2XvQ-sovv","playlistName":"شرح صحيح البخاري - أ.د. يسري جبر (كاملا)","category":"حديث"},{"id":"u_IH3b7eU9k","title":"صحيح الإمام البخاري رضي الله عنه - كتاب اللباس المجلس الخامس د. يسري جبر","publishedAt":"2016-10-06T20:50:11Z","duration":"PT1H16M28S","thumbnail":"https://i.ytimg.com/vi/u_IH3b7eU9k/mqdefault.jpg","viewCount":"145","playlistId":"PLEkQk5xrP-tmJuzaj4GWRenFoFx9gdbFX","playlistName":"شرح كتاب صحيح الإمام البخاري رضي الله تعالى عنه   أ.د. يسرى جبر","category":"حديث"},{"id":"kp2pYW8YR4Q","title":"صحيح الإمام البخاري رضي الله عنه - كتاب اللباس المجلس الرابع د. يسري جبر","publishedAt":"2016-10-05T20:36:52Z","duration":"PT40M33S","thumbnail":"https://i.ytimg.com/vi/kp2pYW8YR4Q/mqdefault.jpg","viewCount":"113","playlistId":"PLEkQk5xrP-tmJuzaj4GWRenFoFx9gdbFX","playlistName":"شرح كتاب صحيح الإمام البخاري رضي الله تعالى عنه   أ.د. يسرى جبر","category":"حديث"},{"id":"TaebrLzX5MI","title":"شرح صحيح البخاري ( كتاب الصلاة مجلس ٩)","publishedAt":"2016-10-04T08:22:23Z","duration":"PT30M26S","thumbnail":"https://i.ytimg.com/vi/TaebrLzX5MI/mqdefault.jpg","viewCount":"1429","playlistId":"PLEkQk5xrP-tlEerGoLa1AFy-2XvQ-sovv","playlistName":"شرح صحيح البخاري - أ.د. يسري جبر (كاملا)","category":"حديث"},{"id":"ewn6tgGqYCA","title":"شرح صحيح البخاري ( كتاب الصلاة مجلس ٨)","publishedAt":"2016-10-03T08:00:52Z","duration":"PT22M9S","thumbnail":"https://i.ytimg.com/vi/ewn6tgGqYCA/mqdefault.jpg","viewCount":"1238","playlistId":"PLEkQk5xrP-tlEerGoLa1AFy-2XvQ-sovv","playlistName":"شرح صحيح البخاري - أ.د. يسري جبر (كاملا)","category":"حديث"},{"id":"aW8RRE8KM10","title":"شرح صحيح البخاري ( كتاب الصلاة مجلس ٧)","publishedAt":"2016-10-02T07:40:30Z","duration":"PT35M48S","thumbnail":"https://i.ytimg.com/vi/aW8RRE8KM10/mqdefault.jpg","viewCount":"1452","playlistId":"PLEkQk5xrP-tlEerGoLa1AFy-2XvQ-sovv","playlistName":"شرح صحيح البخاري - أ.د. يسري جبر (كاملا)","category":"حديث"},{"id":"YD2bcdRUtgQ","title":"صحيح الإمام البخاري رضي الله عنه - كتاب النفقات - المجلس الثانى","publishedAt":"2016-01-11T19:09:25Z","duration":"PT53M36S","thumbnail":"https://i.ytimg.com/vi/YD2bcdRUtgQ/mqdefault.jpg","viewCount":"124","playlistId":"PLEkQk5xrP-tmJuzaj4GWRenFoFx9gdbFX","playlistName":"شرح كتاب صحيح الإمام البخاري رضي الله تعالى عنه   أ.د. يسرى جبر","category":"حديث"},{"id":"TUpUOtbjgTo","title":"صحيح الإمام البخاري رضي الله عنه - كتاب النفقات  - المجلس الأول","publishedAt":"2016-01-10T11:20:23Z","duration":"PT1H57S","thumbnail":"https://i.ytimg.com/vi/TUpUOtbjgTo/mqdefault.jpg","viewCount":"146","playlistId":"PLEkQk5xrP-tmJuzaj4GWRenFoFx9gdbFX","playlistName":"شرح كتاب صحيح الإمام البخاري رضي الله تعالى عنه   أ.د. يسرى جبر","category":"حديث"},{"id":"fK_PeG_WVjA","title":"صحيح الإمام البخاري رضي الله عنه - كتاب الطلاق - المجلس السابع عشر","publishedAt":"2016-01-06T18:55:07Z","duration":"PT42M56S","thumbnail":"https://i.ytimg.com/vi/fK_PeG_WVjA/mqdefault.jpg","viewCount":"102","playlistId":"PLEkQk5xrP-tmJuzaj4GWRenFoFx9gdbFX","playlistName":"شرح كتاب صحيح الإمام البخاري رضي الله تعالى عنه   أ.د. يسرى جبر","category":"حديث"},{"id":"dINmLX-CVBo","title":"صحيح الإمام البخاري رضي الله عنه - كتاب الطلاق - المجلس السادس عشر","publishedAt":"2016-01-05T21:14:54Z","duration":"PT49M36S","thumbnail":"https://i.ytimg.com/vi/dINmLX-CVBo/mqdefault.jpg","viewCount":"79","playlistId":"PLEkQk5xrP-tmJuzaj4GWRenFoFx9gdbFX","playlistName":"شرح كتاب صحيح الإمام البخاري رضي الله تعالى عنه   أ.د. يسرى جبر","category":"حديث"},{"id":"qUzRyq_27Ug","title":"صحيح الإمام البخاري رضي الله عنه - كتاب الطلاق - المجلس الخامس عشر","publishedAt":"2015-12-28T10:51:05Z","duration":"PT47M30S","thumbnail":"https://i.ytimg.com/vi/qUzRyq_27Ug/mqdefault.jpg","viewCount":"72","playlistId":"PLEkQk5xrP-tmJuzaj4GWRenFoFx9gdbFX","playlistName":"شرح كتاب صحيح الإمام البخاري رضي الله تعالى عنه   أ.د. يسرى جبر","category":"حديث"},{"id":"mOF5ix4diW4","title":"صحيح الإمام البخاري رضي الله عنه - كتاب الطلاق - المجلس الرابع عشر","publishedAt":"2015-12-20T19:52:36Z","duration":"PT47M23S","thumbnail":"https://i.ytimg.com/vi/mOF5ix4diW4/mqdefault.jpg","viewCount":"77","playlistId":"PLEkQk5xrP-tmJuzaj4GWRenFoFx9gdbFX","playlistName":"شرح كتاب صحيح الإمام البخاري رضي الله تعالى عنه   أ.د. يسرى جبر","category":"حديث"},{"id":"8cg7gwJGoTQ","title":"صحيح الإمام البخاري رضي الله عنه - كتاب الطلاق - المجلس الثالث عشر","publishedAt":"2015-12-13T13:22:10Z","duration":"PT46M5S","thumbnail":"https://i.ytimg.com/vi/8cg7gwJGoTQ/mqdefault.jpg","viewCount":"113","playlistId":"PLEkQk5xrP-tmJuzaj4GWRenFoFx9gdbFX","playlistName":"شرح كتاب صحيح الإمام البخاري رضي الله تعالى عنه   أ.د. يسرى جبر","category":"حديث"},{"id":"AZKhf92SrD8","title":"صحيح الإمام البخاري رضي الله عنه - كتاب الطلاق - المجلس الثاني عشر","publishedAt":"2015-12-07T09:04:32Z","duration":"PT27M43S","thumbnail":"https://i.ytimg.com/vi/AZKhf92SrD8/mqdefault.jpg","viewCount":"101","playlistId":"PLEkQk5xrP-tmJuzaj4GWRenFoFx9gdbFX","playlistName":"شرح كتاب صحيح الإمام البخاري رضي الله تعالى عنه   أ.د. يسرى جبر","category":"حديث"},{"id":"ZKiiUTydNoc","title":"صحيح الإمام البخاري رضي الله عنه - كتاب الطلاق - المجلس الحادي عشر","publishedAt":"2015-12-03T20:59:06Z","duration":"PT49M33S","thumbnail":"https://i.ytimg.com/vi/ZKiiUTydNoc/mqdefault.jpg","viewCount":"87","playlistId":"PLEkQk5xrP-tmJuzaj4GWRenFoFx9gdbFX","playlistName":"شرح كتاب صحيح الإمام البخاري رضي الله تعالى عنه   أ.د. يسرى جبر","category":"حديث"},{"id":"h1wgUuJt2V0","title":"صحيح الإمام البخاري رضي الله عنه - كتاب الطلاق - المجلس العاشر","publishedAt":"2015-12-02T17:57:06Z","duration":"PT35M39S","thumbnail":"https://i.ytimg.com/vi/h1wgUuJt2V0/mqdefault.jpg","viewCount":"105","playlistId":"PLEkQk5xrP-tmJuzaj4GWRenFoFx9gdbFX","playlistName":"شرح كتاب صحيح الإمام البخاري رضي الله تعالى عنه   أ.د. يسرى جبر","category":"حديث"},{"id":"ADp3dKycHII","title":"صحيح الإمام البخاري رضي الله عنه - كتاب الطلاق - المجلس التاسع","publishedAt":"2015-11-30T19:12:25Z","duration":"PT41M3S","thumbnail":"https://i.ytimg.com/vi/ADp3dKycHII/mqdefault.jpg","viewCount":"107","playlistId":"PLEkQk5xrP-tmJuzaj4GWRenFoFx9gdbFX","playlistName":"شرح كتاب صحيح الإمام البخاري رضي الله تعالى عنه   أ.د. يسرى جبر","category":"حديث"},{"id":"-CwRZs2AaJ4","title":"صحيح الإمام البخاري رضي الله عنه - كتاب الطلاق - المجلس الثامن","publishedAt":"2015-11-08T04:07:48Z","duration":"PT48M11S","thumbnail":"https://i.ytimg.com/vi/-CwRZs2AaJ4/mqdefault.jpg","viewCount":"142","playlistId":"PLEkQk5xrP-tmJuzaj4GWRenFoFx9gdbFX","playlistName":"شرح كتاب صحيح الإمام البخاري رضي الله تعالى عنه   أ.د. يسرى جبر","category":"حديث"},{"id":"jtR5hLvWsDQ","title":"شرح صحيح البخاري  كتاب فضائل الصحابة من باب ١٨","publishedAt":"2017-11-21T18:37:33Z","duration":"PT29M14S","thumbnail":"https://i.ytimg.com/vi/jtR5hLvWsDQ/mqdefault.jpg","viewCount":"459","playlistId":"PLEkQk5xrP-tlEerGoLa1AFy-2XvQ-sovv","playlistName":"شرح صحيح البخاري - أ.د. يسري جبر (كاملا)","category":"حديث"},{"id":"uuPYeWVPtKU","title":"شرح صحيح البخاري  كتاب فضائل الصحابة من باب ١٤","publishedAt":"2017-11-21T17:09:02Z","duration":"PT39M32S","thumbnail":"https://i.ytimg.com/vi/uuPYeWVPtKU/mqdefault.jpg","viewCount":"552","playlistId":"PLEkQk5xrP-tlEerGoLa1AFy-2XvQ-sovv","playlistName":"شرح صحيح البخاري - أ.د. يسري جبر (كاملا)","category":"حديث"},{"id":"nvs5EE4TxUk","title":"شرح صحيح البخاري  كتاب فضائل الصحابة من باب ١١","publishedAt":"2017-11-21T15:39:32Z","duration":"PT31M","thumbnail":"https://i.ytimg.com/vi/nvs5EE4TxUk/mqdefault.jpg","viewCount":"503","playlistId":"PLEkQk5xrP-tlEerGoLa1AFy-2XvQ-sovv","playlistName":"شرح صحيح البخاري - أ.د. يسري جبر (كاملا)","category":"حديث"}],"total":1218,"page":41,"pageSize":24,"totalPages":51}