{"items":[{"id":"9Zo0rrr9Zp8","title":"شرح صحيح البخاري كتاب الديات من أوله","publishedAt":"2018-12-03T20:07:52Z","duration":"PT33M8S","thumbnail":"https://i.ytimg.com/vi/9Zo0rrr9Zp8/mqdefault.jpg","viewCount":"382","playlistId":"PLEkQk5xrP-tlEerGoLa1AFy-2XvQ-sovv","playlistName":"شرح صحيح البخاري - أ.د. يسري جبر (كاملا)","category":"حديث"},{"id":"UKd0ROq031g","title":"شرح صحيح البخاري كتاب المحاربين من أهل الكفر والردة من باب ٢٦","publishedAt":"2018-12-02T15:24:20Z","duration":"PT36M55S","thumbnail":"https://i.ytimg.com/vi/UKd0ROq031g/mqdefault.jpg","viewCount":"338","playlistId":"PLEkQk5xrP-tlEerGoLa1AFy-2XvQ-sovv","playlistName":"شرح صحيح البخاري - أ.د. يسري جبر (كاملا)","category":"حديث"},{"id":"nnm36a3L3pw","title":"شرح صحيح البخاري كتاب المحاربين من أهل الكفر والردة من باب ١٨","publishedAt":"2018-12-01T15:43:51Z","duration":"PT35M48S","thumbnail":"https://i.ytimg.com/vi/nnm36a3L3pw/mqdefault.jpg","viewCount":"385","playlistId":"PLEkQk5xrP-tlEerGoLa1AFy-2XvQ-sovv","playlistName":"شرح صحيح البخاري - أ.د. يسري جبر (كاملا)","category":"حديث"},{"id":"-R0IlfovUZ8","title":"شرح صحيح البخاري كتاب المحاربين من أهل الكفر والردة من باب ١٧","publishedAt":"2018-11-30T15:12:29Z","duration":"PT35M39S","thumbnail":"https://i.ytimg.com/vi/-R0IlfovUZ8/mqdefault.jpg","viewCount":"422","playlistId":"PLEkQk5xrP-tlEerGoLa1AFy-2XvQ-sovv","playlistName":"شرح صحيح البخاري - أ.د. يسري جبر (كاملا)","category":"حديث"},{"id":"kZTnzBYvDAQ","title":"شرح صحيح البخاري كتاب المحاربين من أهل الكفر والردة من باب ٧","publishedAt":"2018-11-29T20:50:24Z","duration":"PT32M","thumbnail":"https://i.ytimg.com/vi/kZTnzBYvDAQ/mqdefault.jpg","viewCount":"397","playlistId":"PLEkQk5xrP-tlEerGoLa1AFy-2XvQ-sovv","playlistName":"شرح صحيح البخاري - أ.د. يسري جبر (كاملا)","category":"حديث"},{"id":"2EP5dtEfF0o","title":"شرح صحيح البخاري كتاب المحاربين من أهل الكفر والردة من أوله","publishedAt":"2018-11-29T12:26:41Z","duration":"PT34M56S","thumbnail":"https://i.ytimg.com/vi/2EP5dtEfF0o/mqdefault.jpg","viewCount":"431","playlistId":"PLEkQk5xrP-tlEerGoLa1AFy-2XvQ-sovv","playlistName":"شرح صحيح البخاري - أ.د. يسري جبر (كاملا)","category":"حديث"},{"id":"wu0rnGuRB1E","title":"شرح صحيح البخاري كتاب الحدود من باب ٩","publishedAt":"2018-11-27T15:54:24Z","duration":"PT27M56S","thumbnail":"https://i.ytimg.com/vi/wu0rnGuRB1E/mqdefault.jpg","viewCount":"387","playlistId":"PLEkQk5xrP-tlEerGoLa1AFy-2XvQ-sovv","playlistName":"شرح صحيح البخاري - أ.د. يسري جبر (كاملا)","category":"حديث"},{"id":"zUuPnZ9HkK4","title":"شرح صحيح البخاري كتاب الحدود من أوله","publishedAt":"2018-11-26T19:04:32Z","duration":"PT37M18S","thumbnail":"https://i.ytimg.com/vi/zUuPnZ9HkK4/mqdefault.jpg","viewCount":"535","playlistId":"PLEkQk5xrP-tlEerGoLa1AFy-2XvQ-sovv","playlistName":"شرح صحيح البخاري - أ.د. يسري جبر (كاملا)","category":"حديث"},{"id":"9loWimxeq4g","title":"شرح صحيح البخاري - كتاب سجود القرآن من أوله","publishedAt":"2016-12-21T09:13:02Z","duration":"PT33M33S","thumbnail":"https://i.ytimg.com/vi/9loWimxeq4g/mqdefault.jpg","viewCount":"1032","playlistId":"PLEkQk5xrP-tlEerGoLa1AFy-2XvQ-sovv","playlistName":"شرح صحيح البخاري - أ.د. يسري جبر (كاملا)","category":"حديث"},{"id":"42X5gMIOdaU","title":"شرح كتاب الأذكار من كلام سيد الأبرار للإمام النووى رضى الله عنه - المجلس الخمسون","publishedAt":"2016-12-21T06:43:31Z","duration":"PT14M25S","thumbnail":"https://i.ytimg.com/vi/42X5gMIOdaU/mqdefault.jpg","viewCount":"1259","playlistId":"PLEkQk5xrP-tkWS57Ubysh0ifJR8dmuEtE","playlistName":"شرح كتاب الأذكار للإمام النووي د. يسرى جبر","category":"حديث"},{"id":"VwtWtKg-OKg","title":"وشرح صحيح البخاري - كتاب الكسوف من باب ١٠","publishedAt":"2016-12-20T12:53:23Z","duration":"PT27M28S","thumbnail":"https://i.ytimg.com/vi/VwtWtKg-OKg/mqdefault.jpg","viewCount":"728","playlistId":"PLEkQk5xrP-tlEerGoLa1AFy-2XvQ-sovv","playlistName":"شرح صحيح البخاري - أ.د. يسري جبر (كاملا)","category":"حديث"},{"id":"VPKR4Nx3GyY","title":"شرح صحيح البخاري - كتاب الكسوف من أوله","publishedAt":"2016-12-19T08:49:51Z","duration":"PT44M27S","thumbnail":"https://i.ytimg.com/vi/VPKR4Nx3GyY/mqdefault.jpg","viewCount":"930","playlistId":"PLEkQk5xrP-tlEerGoLa1AFy-2XvQ-sovv","playlistName":"شرح صحيح البخاري - أ.د. يسري جبر (كاملا)","category":"حديث"},{"id":"8hLIOXadAv4","title":"شرح كتاب الأذكار من كلام سيد الأبرار للإمام النووى رضى الله عنه - المجلس الثامن والأربعون","publishedAt":"2016-12-18T07:50:39Z","duration":"PT14M24S","thumbnail":"https://i.ytimg.com/vi/8hLIOXadAv4/mqdefault.jpg","viewCount":"361","playlistId":"PLEkQk5xrP-tkWS57Ubysh0ifJR8dmuEtE","playlistName":"شرح كتاب الأذكار للإمام النووي د. يسرى جبر","category":"حديث"},{"id":"F__iTgXDr2A","title":"شرح كتاب الأذكار من كلام سيد الأبرار للإمام النووى رضى الله عنه - المجلس التاسع والأربعون","publishedAt":"2016-12-18T07:49:32Z","duration":"PT10M15S","thumbnail":"https://i.ytimg.com/vi/F__iTgXDr2A/mqdefault.jpg","viewCount":"298","playlistId":"PLEkQk5xrP-tkWS57Ubysh0ifJR8dmuEtE","playlistName":"شرح كتاب الأذكار للإمام النووي د. يسرى جبر","category":"حديث"},{"id":"okL4WpJEu8M","title":"شرح كتاب الأذكار من كلام سيد الأبرار للإمام النووى رضى الله عنه - المجلس السابع والأربعون","publishedAt":"2016-12-17T07:55:10Z","duration":"PT12M26S","thumbnail":"https://i.ytimg.com/vi/okL4WpJEu8M/mqdefault.jpg","viewCount":"275","playlistId":"PLEkQk5xrP-tkWS57Ubysh0ifJR8dmuEtE","playlistName":"شرح كتاب الأذكار للإمام النووي د. يسرى جبر","category":"حديث"},{"id":"taqLKvkZ_Cg","title":"شرح كتاب الأذكار من كلام سيد الأبرار للإمام النووى رضى الله عنه - المجلس السادس والأربعون","publishedAt":"2016-12-16T04:43:34Z","duration":"PT6M55S","thumbnail":"https://i.ytimg.com/vi/taqLKvkZ_Cg/mqdefault.jpg","viewCount":"320","playlistId":"PLEkQk5xrP-tkWS57Ubysh0ifJR8dmuEtE","playlistName":"شرح كتاب الأذكار للإمام النووي د. يسرى جبر","category":"حديث"},{"id":"ov-oPgG_B-M","title":"شرح كتاب الأذكار من كلام سيد الأبرار للإمام النووى رضى الله عنه - المجلس الخامس والأربعون","publishedAt":"2016-12-15T04:17:30Z","duration":"PT7M6S","thumbnail":"https://i.ytimg.com/vi/ov-oPgG_B-M/mqdefault.jpg","viewCount":"272","playlistId":"PLEkQk5xrP-tkWS57Ubysh0ifJR8dmuEtE","playlistName":"شرح كتاب الأذكار للإمام النووي د. يسرى جبر","category":"حديث"},{"id":"dyYEtAoHxKE","title":"شرح كتاب الأذكار من كلام سيد الأبرار للإمام النووى رضى الله عنه - المجلس الرابع والأربعون","publishedAt":"2016-12-14T11:35:39Z","duration":"PT4M16S","thumbnail":"https://i.ytimg.com/vi/dyYEtAoHxKE/mqdefault.jpg","viewCount":"253","playlistId":"PLEkQk5xrP-tkWS57Ubysh0ifJR8dmuEtE","playlistName":"شرح كتاب الأذكار للإمام النووي د. يسرى جبر","category":"حديث"},{"id":"nu25Dn0t4j4","title":"شرح صحيح البخاري كتاب الاستسقاء من باب ٢٠","publishedAt":"2016-12-12T18:27:36Z","duration":"PT19M9S","thumbnail":"https://i.ytimg.com/vi/nu25Dn0t4j4/mqdefault.jpg","viewCount":"811","playlistId":"PLEkQk5xrP-tlEerGoLa1AFy-2XvQ-sovv","playlistName":"شرح صحيح البخاري - أ.د. يسري جبر (كاملا)","category":"حديث"},{"id":"3X18YWr5E5A","title":"شرح صحيح البخاري كتاب الاستسقاء من باب ١٠","publishedAt":"2016-12-11T05:12:20Z","duration":"PT32M52S","thumbnail":"https://i.ytimg.com/vi/3X18YWr5E5A/mqdefault.jpg","viewCount":"826","playlistId":"PLEkQk5xrP-tlEerGoLa1AFy-2XvQ-sovv","playlistName":"شرح صحيح البخاري - أ.د. يسري جبر (كاملا)","category":"حديث"},{"id":"fiuvX-iPD-Q","title":"شرح صحيح البخاري كتاب الاستسقاء من أوله","publishedAt":"2016-12-10T04:24:20Z","duration":"PT38M38S","thumbnail":"https://i.ytimg.com/vi/fiuvX-iPD-Q/mqdefault.jpg","viewCount":"925","playlistId":"PLEkQk5xrP-tlEerGoLa1AFy-2XvQ-sovv","playlistName":"شرح صحيح البخاري - أ.د. يسري جبر (كاملا)","category":"حديث"},{"id":"dP-brcBi9GY","title":"شرح صحيح البخاري   كتاب مناقب الأنصار تكملة باب ٤٥ المجلس الرابع","publishedAt":"2017-12-16T20:21:27Z","duration":"PT34M16S","thumbnail":"https://i.ytimg.com/vi/dP-brcBi9GY/mqdefault.jpg","viewCount":"526","playlistId":"PLEkQk5xrP-tlEerGoLa1AFy-2XvQ-sovv","playlistName":"شرح صحيح البخاري - أ.د. يسري جبر (كاملا)","category":"حديث"},{"id":"28QW09XiAuo","title":"شرح صحيح البخاري   كتاب مناقب الأنصار تكملة باب ٤٥ المجلس الثالث","publishedAt":"2017-12-15T20:27:10Z","duration":"PT35M41S","thumbnail":"https://i.ytimg.com/vi/28QW09XiAuo/mqdefault.jpg","viewCount":"476","playlistId":"PLEkQk5xrP-tlEerGoLa1AFy-2XvQ-sovv","playlistName":"شرح صحيح البخاري - أ.د. يسري جبر (كاملا)","category":"حديث"},{"id":"GCip6dvHKEM","title":"شرح صحيح البخاري   كتاب مناقب الأنصار تكملة باب ٤٥","publishedAt":"2017-12-13T12:47:55Z","duration":"PT36M35S","thumbnail":"https://i.ytimg.com/vi/GCip6dvHKEM/mqdefault.jpg","viewCount":"544","playlistId":"PLEkQk5xrP-tlEerGoLa1AFy-2XvQ-sovv","playlistName":"شرح صحيح البخاري - أ.د. يسري جبر (كاملا)","category":"حديث"}],"total":1218,"page":37,"pageSize":24,"totalPages":51}