{"items":[{"id":"dSaldtINQ7w","title":"119- ุดุฑุญ ุงููุคูุค ูุงููุฑุฌุงู ูุชุงุจ ุงูุฅูุงุฑุฉ ูู ุงูุจุงุจ ุงูุซุงูุซ ุนุดุฑ","publishedAt":"2020-04-13T11:00:18Z","duration":"PT23M14S","thumbnail":"https://i.ytimg.com/vi/dSaldtINQ7w/mqdefault.jpg","viewCount":"462","playlistId":"PLEkQk5xrP-tmKNjtYLfhATC37QdIsTMe0","playlistName":"ุดุฑุญ ูุชุงุจ ุงููุคูุค ูุงููุฑุฌุงู ูููุง ุงุชูู ุนููู ุงูุดูุฎุงู ุฅูุงูุง ุงููุญุฏุซูู ุงูุจุฎุงุฑู ููุณูู. ุฃ.ุฏ. ูุณุฑู ุฌุจุฑ","category":"ุญุฏูุซ"},{"id":"d9dKEuEZYlE","title":"118- ุดุฑุญ ุงููุคูุค ูุงููุฑุฌุงู ูุชุงุจ ุงูุฅูุงุฑุฉ ูู ุงูุจุงุจ ุงูุณุงุฏุณ","publishedAt":"2020-04-12T20:45:01Z","duration":"PT26M5S","thumbnail":"https://i.ytimg.com/vi/d9dKEuEZYlE/mqdefault.jpg","viewCount":"445","playlistId":"PLEkQk5xrP-tmKNjtYLfhATC37QdIsTMe0","playlistName":"ุดุฑุญ ูุชุงุจ ุงููุคูุค ูุงููุฑุฌุงู ูููุง ุงุชูู ุนููู ุงูุดูุฎุงู ุฅูุงูุง ุงููุญุฏุซูู ุงูุจุฎุงุฑู ููุณูู. ุฃ.ุฏ. ูุณุฑู ุฌุจุฑ","category":"ุญุฏูุซ"},{"id":"MlUhmkv9gZg","title":"117- ุดุฑุญ ุงููุคูุค ูุงููุฑุฌุงู ูุชุงุจ ุงูุฅูุงุฑุฉ ูู ุฃููู","publishedAt":"2020-04-11T20:00:02Z","duration":"PT18M37S","thumbnail":"https://i.ytimg.com/vi/MlUhmkv9gZg/mqdefault.jpg","viewCount":"583","playlistId":"PLEkQk5xrP-tmKNjtYLfhATC37QdIsTMe0","playlistName":"ุดุฑุญ ูุชุงุจ ุงููุคูุค ูุงููุฑุฌุงู ูููุง ุงุชูู ุนููู ุงูุดูุฎุงู ุฅูุงูุง ุงููุญุฏุซูู ุงูุจุฎุงุฑู ููุณูู. ุฃ.ุฏ. ูุณุฑู ุฌุจุฑ","category":"ุญุฏูุซ"},{"id":"zwzBPUPFAgM","title":"116- ุดุฑุญ ุงููุคูุค ูุงููุฑุฌุงู ูุชุงุจ ุงูุฌูุงุฏ ูู ุงูุจุงุจ ุงูุซุงูุซ ูุงูุฃุฑุจุนูู","publishedAt":"2020-04-09T07:00:12Z","duration":"PT30M16S","thumbnail":"https://i.ytimg.com/vi/zwzBPUPFAgM/mqdefault.jpg","viewCount":"518","playlistId":"PLEkQk5xrP-tmKNjtYLfhATC37QdIsTMe0","playlistName":"ุดุฑุญ ูุชุงุจ ุงููุคูุค ูุงููุฑุฌุงู ูููุง ุงุชูู ุนููู ุงูุดูุฎุงู ุฅูุงูุง ุงููุญุฏุซูู ุงูุจุฎุงุฑู ููุณูู. ุฃ.ุฏ. ูุณุฑู ุฌุจุฑ","category":"ุญุฏูุซ"},{"id":"UNTq8SNphPQ","title":"115- ุดุฑุญ ุงููุคูุค ูุงููุฑุฌุงู ูุชุงุจ ุงูุฌูุงุฏ ูู ุงูุจุงุจ ุงูุฃุฑุจุนูู","publishedAt":"2020-04-07T08:45:25Z","duration":"PT23M13S","thumbnail":"https://i.ytimg.com/vi/UNTq8SNphPQ/mqdefault.jpg","viewCount":"472","playlistId":"PLEkQk5xrP-tmKNjtYLfhATC37QdIsTMe0","playlistName":"ุดุฑุญ ูุชุงุจ ุงููุคูุค ูุงููุฑุฌุงู ูููุง ุงุชูู ุนููู ุงูุดูุฎุงู ุฅูุงูุง ุงููุญุฏุซูู ุงูุจุฎุงุฑู ููุณูู. ุฃ.ุฏ. ูุณุฑู ุฌุจุฑ","category":"ุญุฏูุซ"},{"id":"z4xrd6GEgzY","title":"114- ุดุฑุญ ุงููุคูุค ูุงููุฑุฌุงู ูุชุงุจ ุงูุฌูุงุฏ ูู ุงูุจุงุจ ุงูุฑุงุจุน ูุงูุซูุงุซูู","publishedAt":"2020-04-04T07:00:17Z","duration":"PT35M16S","thumbnail":"https://i.ytimg.com/vi/z4xrd6GEgzY/mqdefault.jpg","viewCount":"693","playlistId":"PLEkQk5xrP-tmKNjtYLfhATC37QdIsTMe0","playlistName":"ุดุฑุญ ูุชุงุจ ุงููุคูุค ูุงููุฑุฌุงู ูููุง ุงุชูู ุนููู ุงูุดูุฎุงู ุฅูุงูุง ุงููุญุฏุซูู ุงูุจุฎุงุฑู ููุณูู. ุฃ.ุฏ. ูุณุฑู ุฌุจุฑ","category":"ุญุฏูุซ"},{"id":"uvAInfSXIDk","title":"113- ุดุฑุญ ุงููุคูุค ูุงููุฑุฌุงู ูุชุงุจ ุงูุฌูุงุฏ ูู ุงูุจุงุจ ุงูุณุงุฏุณ ูุงูุนุดุฑูู","publishedAt":"2020-04-03T07:00:18Z","duration":"PT22M19S","thumbnail":"https://i.ytimg.com/vi/uvAInfSXIDk/mqdefault.jpg","viewCount":"383","playlistId":"PLEkQk5xrP-tmKNjtYLfhATC37QdIsTMe0","playlistName":"ุดุฑุญ ูุชุงุจ ุงููุคูุค ูุงููุฑุฌุงู ูููุง ุงุชูู ุนููู ุงูุดูุฎุงู ุฅูุงูุง ุงููุญุฏุซูู ุงูุจุฎุงุฑู ููุณูู. ุฃ.ุฏ. ูุณุฑู ุฌุจุฑ","category":"ุญุฏูุซ"},{"id":"4ThZhyElqUQ","title":"112- ุดุฑุญ ุงููุคูุค ูุงููุฑุฌุงู ูุชุงุจ ุงูุฌูุงุฏ ูู ุงูุจุงุจ ุงูุชุงุณุน ุนุดุฑ","publishedAt":"2020-04-02T11:00:00Z","duration":"PT33M47S","thumbnail":"https://i.ytimg.com/vi/4ThZhyElqUQ/mqdefault.jpg","viewCount":"362","playlistId":"PLEkQk5xrP-tmKNjtYLfhATC37QdIsTMe0","playlistName":"ุดุฑุญ ูุชุงุจ ุงููุคูุค ูุงููุฑุฌุงู ูููุง ุงุชูู ุนููู ุงูุดูุฎุงู ุฅูุงูุง ุงููุญุฏุซูู ุงูุจุฎุงุฑู ููุณูู. ุฃ.ุฏ. ูุณุฑู ุฌุจุฑ","category":"ุญุฏูุซ"},{"id":"rVuA8e4xpWc","title":"111- ุดุฑุญ ุงููุคูุค ูุงููุฑุฌุงู ูุชุงุจ ุงูุฌูุงุฏ ูู ุงูุจุงุจ ุงูุณุงุฏุณ ุนุดุฑ","publishedAt":"2020-04-01T07:00:15Z","duration":"PT20M24S","thumbnail":"https://i.ytimg.com/vi/rVuA8e4xpWc/mqdefault.jpg","viewCount":"474","playlistId":"PLEkQk5xrP-tmKNjtYLfhATC37QdIsTMe0","playlistName":"ุดุฑุญ ูุชุงุจ ุงููุคูุค ูุงููุฑุฌุงู ูููุง ุงุชูู ุนููู ุงูุดูุฎุงู ุฅูุงูุง ุงููุญุฏุซูู ุงูุจุฎุงุฑู ููุณูู. ุฃ.ุฏ. ูุณุฑู ุฌุจุฑ","category":"ุญุฏูุซ"},{"id":"fuWZQ_tWWmI","title":"110- ุดุฑุญ ุงููุคูุค ูุงููุฑุฌุงู ูุชุงุจ ุงูุฌูุงุฏ ูู ุงูุจุงุจ ุงูุซุงูู ุนุดุฑ","publishedAt":"2020-03-31T07:30:02Z","duration":"PT32M41S","thumbnail":"https://i.ytimg.com/vi/fuWZQ_tWWmI/mqdefault.jpg","viewCount":"436","playlistId":"PLEkQk5xrP-tmKNjtYLfhATC37QdIsTMe0","playlistName":"ุดุฑุญ ูุชุงุจ ุงููุคูุค ูุงููุฑุฌุงู ูููุง ุงุชูู ุนููู ุงูุดูุฎุงู ุฅูุงูุง ุงููุญุฏุซูู ุงูุจุฎุงุฑู ููุณูู. ุฃ.ุฏ. ูุณุฑู ุฌุจุฑ","category":"ุญุฏูุซ"},{"id":"KzAHwxQlkUU","title":"109- ุดุฑุญ ุงููุคูุค ูุงููุฑุฌุงู ูุชุงุจ ุงูุฌูุงุฏ ูู ุฃููู","publishedAt":"2020-03-30T07:00:03Z","duration":"PT26M55S","thumbnail":"https://i.ytimg.com/vi/KzAHwxQlkUU/mqdefault.jpg","viewCount":"478","playlistId":"PLEkQk5xrP-tmKNjtYLfhATC37QdIsTMe0","playlistName":"ุดุฑุญ ูุชุงุจ ุงููุคูุค ูุงููุฑุฌุงู ูููุง ุงุชูู ุนููู ุงูุดูุฎุงู ุฅูุงูุง ุงููุญุฏุซูู ุงูุจุฎุงุฑู ููุณูู. ุฃ.ุฏ. ูุณุฑู ุฌุจุฑ","category":"ุญุฏูุซ"},{"id":"DJ4b_g4kcIg","title":"108- ุดุฑุญ ุงููุคูุค ูุงููุฑุฌุงู ูุชุงุจ ุงูููุทุฉ ูู ุฃููู","publishedAt":"2020-03-29T07:00:05Z","duration":"PT21M27S","thumbnail":"https://i.ytimg.com/vi/DJ4b_g4kcIg/mqdefault.jpg","viewCount":"448","playlistId":"PLEkQk5xrP-tmKNjtYLfhATC37QdIsTMe0","playlistName":"ุดุฑุญ ูุชุงุจ ุงููุคูุค ูุงููุฑุฌุงู ูููุง ุงุชูู ุนููู ุงูุดูุฎุงู ุฅูุงูุง ุงููุญุฏุซูู ุงูุจุฎุงุฑู ููุณูู. ุฃ.ุฏ. ูุณุฑู ุฌุจุฑ","category":"ุญุฏูุซ"},{"id":"IkfF8ouCIk0","title":"๐ด CEREMONIAL PENUTUPAN MAJELIS SAMA' & KHATMIL KITAB SHAHIH AL-BUKHARI | PP. PROGRESIF BUMI SHALAWAT","publishedAt":"2025-02-10T05:00:56Z","duration":"PT3H41M15S","thumbnail":"https://i.ytimg.com/vi/IkfF8ouCIk0/mqdefault.jpg","viewCount":"7675","playlistId":"PLEkQk5xrP-tkKcTKLIthzWrdXY7QaOjh_","playlistName":"ูุฑุงุกุฉ ุตุญูุญ ุงูุจุฎุงุฑู ูุงููุงู ูู ุฅูุฏูููุณูุง","category":"ุญุฏูุซ"},{"id":"0F9U8HgGxNE","title":"๐ด Majelis Sama Hadits Shahih Bukhari - PP Progresif Bumi Shalawat (Minggu, 9 Februari 2025 | Sesi 2)","publishedAt":"2025-02-10T00:27:27Z","duration":"PT2H37M11S","thumbnail":"https://i.ytimg.com/vi/0F9U8HgGxNE/mqdefault.jpg","viewCount":"2314","playlistId":"PLEkQk5xrP-tkKcTKLIthzWrdXY7QaOjh_","playlistName":"ูุฑุงุกุฉ ุตุญูุญ ุงูุจุฎุงุฑู ูุงููุงู ูู ุฅูุฏูููุณูุง","category":"ุญุฏูุซ"},{"id":"bC7ymFZQ1L4","title":"๐ด Majelis Sama Hadits Shahih Bukhari - PP Progresif Bumi Shalawat (Minggu, 9 Februari 2025 | Sesi 1)","publishedAt":"2025-02-09T06:21:18Z","duration":"PT4H39M50S","thumbnail":"https://i.ytimg.com/vi/bC7ymFZQ1L4/mqdefault.jpg","viewCount":"2032","playlistId":"PLEkQk5xrP-tkKcTKLIthzWrdXY7QaOjh_","playlistName":"ูุฑุงุกุฉ ุตุญูุญ ุงูุจุฎุงุฑู ูุงููุงู ูู ุฅูุฏูููุณูุง","category":"ุญุฏูุซ"},{"id":"zal-oXyHjwg","title":"๐ด Majelis Sama' Hadits Shahih Bukhari - PP Progresif Bumi Shalawat (Sabtu, 8 Februari 2025 | Sesi 2)","publishedAt":"2025-02-08T23:27:44Z","duration":"PT2H39M56S","thumbnail":"https://i.ytimg.com/vi/zal-oXyHjwg/mqdefault.jpg","viewCount":"1165","playlistId":"PLEkQk5xrP-tkKcTKLIthzWrdXY7QaOjh_","playlistName":"ูุฑุงุกุฉ ุตุญูุญ ุงูุจุฎุงุฑู ูุงููุงู ูู ุฅูุฏูููุณูุง","category":"ุญุฏูุซ"},{"id":"75zg76wlrbQ","title":"107- ุดุฑุญ ุงููุคูุค ูุงููุฑุฌุงู ูุชุงุจ ุงูุฃูุถูุฉ ูู ุฃููู","publishedAt":"2020-03-28T07:00:00Z","duration":"PT35M34S","thumbnail":"https://i.ytimg.com/vi/75zg76wlrbQ/mqdefault.jpg","viewCount":"375","playlistId":"PLEkQk5xrP-tmKNjtYLfhATC37QdIsTMe0","playlistName":"ุดุฑุญ ูุชุงุจ ุงููุคูุค ูุงููุฑุฌุงู ูููุง ุงุชูู ุนููู ุงูุดูุฎุงู ุฅูุงูุง ุงููุญุฏุซูู ุงูุจุฎุงุฑู ููุณูู. ุฃ.ุฏ. ูุณุฑู ุฌุจุฑ","category":"ุญุฏูุซ"},{"id":"nseu6xUHhaM","title":"106- ุดุฑุญ ุงููุคูุค ูุงููุฑุฌุงู ูุชุงุจ ุงูุญุฏูุฏ ูู ุงูุจุงุจ ุงูุณุงุฏุณ","publishedAt":"2020-03-26T07:00:22Z","duration":"PT28M49S","thumbnail":"https://i.ytimg.com/vi/nseu6xUHhaM/mqdefault.jpg","viewCount":"578","playlistId":"PLEkQk5xrP-tmKNjtYLfhATC37QdIsTMe0","playlistName":"ุดุฑุญ ูุชุงุจ ุงููุคูุค ูุงููุฑุฌุงู ูููุง ุงุชูู ุนููู ุงูุดูุฎุงู ุฅูุงูุง ุงููุญุฏุซูู ุงูุจุฎุงุฑู ููุณูู. ุฃ.ุฏ. ูุณุฑู ุฌุจุฑ","category":"ุญุฏูุซ"},{"id":"E9V7ntw8LI8","title":"105- ุดุฑุญ ุงููุคูุค ูุงููุฑุฌุงู ูุชุงุจ ุงูุญุฏูุฏ ูู ุฃููู","publishedAt":"2020-03-25T06:00:02Z","duration":"PT37M10S","thumbnail":"https://i.ytimg.com/vi/E9V7ntw8LI8/mqdefault.jpg","viewCount":"451","playlistId":"PLEkQk5xrP-tmKNjtYLfhATC37QdIsTMe0","playlistName":"ุดุฑุญ ูุชุงุจ ุงููุคูุค ูุงููุฑุฌุงู ูููุง ุงุชูู ุนููู ุงูุดูุฎุงู ุฅูุงูุง ุงููุญุฏุซูู ุงูุจุฎุงุฑู ููุณูู. ุฃ.ุฏ. ูุณุฑู ุฌุจุฑ","category":"ุญุฏูุซ"},{"id":"CyYO_mymJfw","title":"104- ุดุฑุญ ุงููุคูุค ูุงููุฑุฌุงู ูุชุงุจ ุงููุณุงูุฉ ูู ุงูุจุงุจ ุงูุฎุงูุณ","publishedAt":"2020-03-24T07:00:03Z","duration":"PT22M38S","thumbnail":"https://i.ytimg.com/vi/CyYO_mymJfw/mqdefault.jpg","viewCount":"421","playlistId":"PLEkQk5xrP-tmKNjtYLfhATC37QdIsTMe0","playlistName":"ุดุฑุญ ูุชุงุจ ุงููุคูุค ูุงููุฑุฌุงู ูููุง ุงุชูู ุนููู ุงูุดูุฎุงู ุฅูุงูุง ุงููุญุฏุซูู ุงูุจุฎุงุฑู ููุณูู. ุฃ.ุฏ. ูุณุฑู ุฌุจุฑ","category":"ุญุฏูุซ"},{"id":"Id79wDNvRfQ","title":"103- ุดุฑุญ ุงููุคูุค ูุงููุฑุฌุงู ูุชุงุจ ุงููุณุงูุฉ ูู ุฃููู","publishedAt":"2020-03-23T07:00:04Z","duration":"PT31M3S","thumbnail":"https://i.ytimg.com/vi/Id79wDNvRfQ/mqdefault.jpg","viewCount":"381","playlistId":"PLEkQk5xrP-tmKNjtYLfhATC37QdIsTMe0","playlistName":"ุดุฑุญ ูุชุงุจ ุงููุคูุค ูุงููุฑุฌุงู ูููุง ุงุชูู ุนููู ุงูุดูุฎุงู ุฅูุงูุง ุงููุญุฏุซูู ุงูุจุฎุงุฑู ููุณูู. ุฃ.ุฏ. ูุณุฑู ุฌุจุฑ","category":"ุญุฏูุซ"},{"id":"wCjlzJNWujs","title":"102- ุดุฑุญ ุงููุคูุค ูุงููุฑุฌุงู ูุชุงุจ ุงูุฃููุงู ูู ุงูุจุงุจ ุงูุณุงุฏุณ","publishedAt":"2020-03-22T08:30:06Z","duration":"PT24M50S","thumbnail":"https://i.ytimg.com/vi/wCjlzJNWujs/mqdefault.jpg","viewCount":"391","playlistId":"PLEkQk5xrP-tmKNjtYLfhATC37QdIsTMe0","playlistName":"ุดุฑุญ ูุชุงุจ ุงููุคูุค ูุงููุฑุฌุงู ูููุง ุงุชูู ุนููู ุงูุดูุฎุงู ุฅูุงูุง ุงููุญุฏุซูู ุงูุจุฎุงุฑู ููุณูู. ุฃ.ุฏ. ูุณุฑู ุฌุจุฑ","category":"ุญุฏูุซ"},{"id":"lARtl2O1Sck","title":"101- ุดุฑุญ ุงููุคูุค ูุงููุฑุฌุงู ูุชุงุจ ุงูุฃููุงู ูู ุฃููู","publishedAt":"2020-03-20T06:30:04Z","duration":"PT22M24S","thumbnail":"https://i.ytimg.com/vi/lARtl2O1Sck/mqdefault.jpg","viewCount":"421","playlistId":"PLEkQk5xrP-tmKNjtYLfhATC37QdIsTMe0","playlistName":"ุดุฑุญ ูุชุงุจ ุงููุคูุค ูุงููุฑุฌุงู ูููุง ุงุชูู ุนููู ุงูุดูุฎุงู ุฅูุงูุง ุงููุญุฏุซูู ุงูุจุฎุงุฑู ููุณูู. ุฃ.ุฏ. ูุณุฑู ุฌุจุฑ","category":"ุญุฏูุซ"},{"id":"nmjoqSDX5Y0","title":"100- ุดุฑุญ ุงููุคูุค ูุงููุฑุฌุงู ูุชุงุจ ุงููุฐุฑ ูู ุฃููู","publishedAt":"2020-03-19T06:30:03Z","duration":"PT11M58S","thumbnail":"https://i.ytimg.com/vi/nmjoqSDX5Y0/mqdefault.jpg","viewCount":"392","playlistId":"PLEkQk5xrP-tmKNjtYLfhATC37QdIsTMe0","playlistName":"ุดุฑุญ ูุชุงุจ ุงููุคูุค ูุงููุฑุฌุงู ูููุง ุงุชูู ุนููู ุงูุดูุฎุงู ุฅูุงูุง ุงููุญุฏุซูู ุงูุจุฎุงุฑู ููุณูู. ุฃ.ุฏ. ูุณุฑู ุฌุจุฑ","category":"ุญุฏูุซ"}],"total":1218,"page":44,"pageSize":24,"totalPages":51}