{"items":[{"id":"02vA77On9k8","title":"ุดุฑุญ ุตุญูุญ ุงูุจุฎุงุฑู   ( ุฃุฎุฑ ูุฌูุณ ูู ุงูููุฏูุฉ , ูุฌูุณ ูฅ)","publishedAt":"2016-08-06T07:17:05Z","duration":"PT33M34S","thumbnail":"https://i.ytimg.com/vi/02vA77On9k8/mqdefault.jpg","viewCount":"3682","playlistId":"PLEkQk5xrP-tlEerGoLa1AFy-2XvQ-sovv","playlistName":"ุดุฑุญ ุตุญูุญ ุงูุจุฎุงุฑู - ุฃ.ุฏ. ูุณุฑู ุฌุจุฑ (ูุงููุง)","category":"ุญุฏูุซ"},{"id":"0F9U8HgGxNE","title":"๐ด Majelis Sama Hadits Shahih Bukhari - PP Progresif Bumi Shalawat (Minggu, 9 Februari 2025 | Sesi 2)","publishedAt":"2025-02-10T00:27:27Z","duration":"PT2H37M11S","thumbnail":"https://i.ytimg.com/vi/0F9U8HgGxNE/mqdefault.jpg","viewCount":"2314","playlistId":"PLEkQk5xrP-tkKcTKLIthzWrdXY7QaOjh_","playlistName":"ูุฑุงุกุฉ ุตุญูุญ ุงูุจุฎุงุฑู ูุงููุงู ูู ุฅูุฏูููุณูุง","category":"ุญุฏูุซ"},{"id":"bC7ymFZQ1L4","title":"๐ด Majelis Sama Hadits Shahih Bukhari - PP Progresif Bumi Shalawat (Minggu, 9 Februari 2025 | Sesi 1)","publishedAt":"2025-02-09T06:21:18Z","duration":"PT4H39M50S","thumbnail":"https://i.ytimg.com/vi/bC7ymFZQ1L4/mqdefault.jpg","viewCount":"2032","playlistId":"PLEkQk5xrP-tkKcTKLIthzWrdXY7QaOjh_","playlistName":"ูุฑุงุกุฉ ุตุญูุญ ุงูุจุฎุงุฑู ูุงููุงู ูู ุฅูุฏูููุณูุง","category":"ุญุฏูุซ"},{"id":"zal-oXyHjwg","title":"๐ด Majelis Sama' Hadits Shahih Bukhari - PP Progresif Bumi Shalawat (Sabtu, 8 Februari 2025 | Sesi 2)","publishedAt":"2025-02-08T23:27:44Z","duration":"PT2H39M56S","thumbnail":"https://i.ytimg.com/vi/zal-oXyHjwg/mqdefault.jpg","viewCount":"1165","playlistId":"PLEkQk5xrP-tkKcTKLIthzWrdXY7QaOjh_","playlistName":"ูุฑุงุกุฉ ุตุญูุญ ุงูุจุฎุงุฑู ูุงููุงู ูู ุฅูุฏูููุณูุง","category":"ุญุฏูุซ"},{"id":"75zg76wlrbQ","title":"107- ุดุฑุญ ุงููุคูุค ูุงููุฑุฌุงู ูุชุงุจ ุงูุฃูุถูุฉ ูู ุฃููู","publishedAt":"2020-03-28T07:00:00Z","duration":"PT35M34S","thumbnail":"https://i.ytimg.com/vi/75zg76wlrbQ/mqdefault.jpg","viewCount":"375","playlistId":"PLEkQk5xrP-tmKNjtYLfhATC37QdIsTMe0","playlistName":"ุดุฑุญ ูุชุงุจ ุงููุคูุค ูุงููุฑุฌุงู ูููุง ุงุชูู ุนููู ุงูุดูุฎุงู ุฅูุงูุง ุงููุญุฏุซูู ุงูุจุฎุงุฑู ููุณูู. ุฃ.ุฏ. ูุณุฑู ุฌุจุฑ","category":"ุญุฏูุซ"},{"id":"nseu6xUHhaM","title":"106- ุดุฑุญ ุงููุคูุค ูุงููุฑุฌุงู ูุชุงุจ ุงูุญุฏูุฏ ูู ุงูุจุงุจ ุงูุณุงุฏุณ","publishedAt":"2020-03-26T07:00:22Z","duration":"PT28M49S","thumbnail":"https://i.ytimg.com/vi/nseu6xUHhaM/mqdefault.jpg","viewCount":"578","playlistId":"PLEkQk5xrP-tmKNjtYLfhATC37QdIsTMe0","playlistName":"ุดุฑุญ ูุชุงุจ ุงููุคูุค ูุงููุฑุฌุงู ูููุง ุงุชูู ุนููู ุงูุดูุฎุงู ุฅูุงูุง ุงููุญุฏุซูู ุงูุจุฎุงุฑู ููุณูู. ุฃ.ุฏ. ูุณุฑู ุฌุจุฑ","category":"ุญุฏูุซ"},{"id":"E9V7ntw8LI8","title":"105- ุดุฑุญ ุงููุคูุค ูุงููุฑุฌุงู ูุชุงุจ ุงูุญุฏูุฏ ูู ุฃููู","publishedAt":"2020-03-25T06:00:02Z","duration":"PT37M10S","thumbnail":"https://i.ytimg.com/vi/E9V7ntw8LI8/mqdefault.jpg","viewCount":"451","playlistId":"PLEkQk5xrP-tmKNjtYLfhATC37QdIsTMe0","playlistName":"ุดุฑุญ ูุชุงุจ ุงููุคูุค ูุงููุฑุฌุงู ูููุง ุงุชูู ุนููู ุงูุดูุฎุงู ุฅูุงูุง ุงููุญุฏุซูู ุงูุจุฎุงุฑู ููุณูู. ุฃ.ุฏ. ูุณุฑู ุฌุจุฑ","category":"ุญุฏูุซ"},{"id":"IvxztUWp7Y0","title":"ุตุญูุญ ุงูุจุฎุงุฑู - ูุชุงุจ ุงูุญุฏูุฏ","publishedAt":"2018-02-19T07:28:56Z","duration":"PT56M26S","thumbnail":"https://i.ytimg.com/vi/IvxztUWp7Y0/mqdefault.jpg","viewCount":"185","playlistId":"PLEkQk5xrP-tmJuzaj4GWRenFoFx9gdbFX","playlistName":"ุดุฑุญ ูุชุงุจ ุตุญูุญ ุงูุฅูุงู ุงูุจุฎุงุฑู ุฑุถู ุงููู ุชุนุงูู ุนูู   ุฃ.ุฏ. ูุณุฑู ุฌุจุฑ","category":"ุญุฏูุซ"},{"id":"rwT2PQ8dqcM","title":"ุดุฑุญ ุตุญูุญ ุงูุจุฎุงุฑู - ูุชุงุจ ุงููุบุงุฒู ูู ุจุงุจ ูฅู","publishedAt":"2018-02-18T20:57:11Z","duration":"PT26M56S","thumbnail":"https://i.ytimg.com/vi/rwT2PQ8dqcM/mqdefault.jpg","viewCount":"592","playlistId":"PLEkQk5xrP-tlEerGoLa1AFy-2XvQ-sovv","playlistName":"ุดุฑุญ ุตุญูุญ ุงูุจุฎุงุฑู - ุฃ.ุฏ. ูุณุฑู ุฌุจุฑ (ูุงููุง)","category":"ุญุฏูุซ"},{"id":"_ceYcEdlLtM","title":"ุดุฑุญ ุตุญูุญ ุงูุจุฎุงุฑู - ูุชุงุจ ุงููุบุงุฒู ูู ุจุงุจ ูคูง","publishedAt":"2018-02-17T16:20:39Z","duration":"PT24M8S","thumbnail":"https://i.ytimg.com/vi/_ceYcEdlLtM/mqdefault.jpg","viewCount":"524","playlistId":"PLEkQk5xrP-tlEerGoLa1AFy-2XvQ-sovv","playlistName":"ุดุฑุญ ุตุญูุญ ุงูุจุฎุงุฑู - ุฃ.ุฏ. ูุณุฑู ุฌุจุฑ (ูุงููุง)","category":"ุญุฏูุซ"},{"id":"ApJMr2X6z2I","title":"ุดุฑุญ ุตุญูุญ ุงูุจุฎุงุฑู - ูุชุงุจ ุงููุบุงุฒู ูู ุจุงุจ ูคูฆ","publishedAt":"2018-02-16T19:42:28Z","duration":"PT17M39S","thumbnail":"https://i.ytimg.com/vi/ApJMr2X6z2I/mqdefault.jpg","viewCount":"487","playlistId":"PLEkQk5xrP-tlEerGoLa1AFy-2XvQ-sovv","playlistName":"ุดุฑุญ ุตุญูุญ ุงูุจุฎุงุฑู - ุฃ.ุฏ. ูุณุฑู ุฌุจุฑ (ูุงููุง)","category":"ุญุฏูุซ"},{"id":"A1xI6XCfua8","title":"ุดุฑุญ ุตุญูุญ ุงูุจุฎุงุฑู - ูุชุงุจ ุงููุบุงุฒู ูู ุจุงุจ ูคูฅ","publishedAt":"2018-02-15T21:05:03Z","duration":"PT26M36S","thumbnail":"https://i.ytimg.com/vi/A1xI6XCfua8/mqdefault.jpg","viewCount":"506","playlistId":"PLEkQk5xrP-tlEerGoLa1AFy-2XvQ-sovv","playlistName":"ุดุฑุญ ุตุญูุญ ุงูุจุฎุงุฑู - ุฃ.ุฏ. ูุณุฑู ุฌุจุฑ (ูุงููุง)","category":"ุญุฏูุซ"},{"id":"NTMKR_g0p7I","title":"ุดุฑุญ ุตุญูุญ ุงูุจุฎุงุฑู ( ููุฏูุฉ ูุฌูุณ ูค)","publishedAt":"2016-08-04T07:22:08Z","duration":"PT43M13S","thumbnail":"https://i.ytimg.com/vi/NTMKR_g0p7I/mqdefault.jpg","viewCount":"4232","playlistId":"PLEkQk5xrP-tlEerGoLa1AFy-2XvQ-sovv","playlistName":"ุดุฑุญ ุตุญูุญ ุงูุจุฎุงุฑู - ุฃ.ุฏ. ูุณุฑู ุฌุจุฑ (ูุงููุง)","category":"ุญุฏูุซ"},{"id":"fUm9e7gdqW0","title":"ุดุฑุญ ุตุญูุญ ุงูุจุฎุงุฑู ( ููุฏูุฉ  ูุฌูุณ ูฃ)","publishedAt":"2016-08-03T10:51:25Z","duration":"PT41M22S","thumbnail":"https://i.ytimg.com/vi/fUm9e7gdqW0/mqdefault.jpg","viewCount":"5633","playlistId":"PLEkQk5xrP-tlEerGoLa1AFy-2XvQ-sovv","playlistName":"ุดุฑุญ ุตุญูุญ ุงูุจุฎุงุฑู - ุฃ.ุฏ. ูุณุฑู ุฌุจุฑ (ูุงููุง)","category":"ุญุฏูุซ"},{"id":"ssDhTwEBkMU","title":"ุดุฑุญ ุตุญูุญ ุงูุจุฎุงุฑู ( ููุฏูุฉ  ูุฌูุณ ูข)","publishedAt":"2016-08-03T10:41:32Z","duration":"PT44M45S","thumbnail":"https://i.ytimg.com/vi/ssDhTwEBkMU/mqdefault.jpg","viewCount":"9669","playlistId":"PLEkQk5xrP-tlEerGoLa1AFy-2XvQ-sovv","playlistName":"ุดุฑุญ ุตุญูุญ ุงูุจุฎุงุฑู - ุฃ.ุฏ. ูุณุฑู ุฌุจุฑ (ูุงููุง)","category":"ุญุฏูุซ"},{"id":"RjdTiq1mPJE","title":"ุดุฑุญ ุตุญูุญ ุงูุจุฎุงุฑู - ูุชุงุจ ุงูุฌูุงุฆุฒ ูู ุจุงุจ ูฃูก","publishedAt":"2017-01-13T05:45:49Z","duration":"PT31M28S","thumbnail":"https://i.ytimg.com/vi/RjdTiq1mPJE/mqdefault.jpg","viewCount":"995","playlistId":"PLEkQk5xrP-tlEerGoLa1AFy-2XvQ-sovv","playlistName":"ุดุฑุญ ุตุญูุญ ุงูุจุฎุงุฑู - ุฃ.ุฏ. ูุณุฑู ุฌุจุฑ (ูุงููุง)","category":"ุญุฏูุซ"},{"id":"FqMYjWU46t4","title":"ุดุฑุญ ุตุญูุญ ุงูุจุฎุงุฑู - ูุชุงุจ ุงูุฌูุงุฆุฒ ูู ุจุงุจ ูขูข","publishedAt":"2017-01-11T11:15:21Z","duration":"PT34M34S","thumbnail":"https://i.ytimg.com/vi/FqMYjWU46t4/mqdefault.jpg","viewCount":"1026","playlistId":"PLEkQk5xrP-tlEerGoLa1AFy-2XvQ-sovv","playlistName":"ุดุฑุญ ุตุญูุญ ุงูุจุฎุงุฑู - ุฃ.ุฏ. ูุณุฑู ุฌุจุฑ (ูุงููุง)","category":"ุญุฏูุซ"},{"id":"suqSH8Cp5Es","title":"ุดุฑุญ ุตุญูุญ ุงูุจุฎุงุฑู - ูุชุงุจ ุงูุฌูุงุฆุฒ ูู ุจุงุจ ูฉ","publishedAt":"2017-01-10T10:02:05Z","duration":"PT33M25S","thumbnail":"https://i.ytimg.com/vi/suqSH8Cp5Es/mqdefault.jpg","viewCount":"909","playlistId":"PLEkQk5xrP-tlEerGoLa1AFy-2XvQ-sovv","playlistName":"ุดุฑุญ ุตุญูุญ ุงูุจุฎุงุฑู - ุฃ.ุฏ. ูุณุฑู ุฌุจุฑ (ูุงููุง)","category":"ุญุฏูุซ"},{"id":"UWelXkvTXeA","title":"ุดุฑุญ ุตุญูุญ ุงูุจุฎุงุฑู - ูุชุงุจ ุงูุฌูุงุฆุฒ ูู ุจุงุจ ูค","publishedAt":"2017-01-08T12:36:06Z","duration":"PT40M25S","thumbnail":"https://i.ytimg.com/vi/UWelXkvTXeA/mqdefault.jpg","viewCount":"1153","playlistId":"PLEkQk5xrP-tlEerGoLa1AFy-2XvQ-sovv","playlistName":"ุดุฑุญ ุตุญูุญ ุงูุจุฎุงุฑู - ุฃ.ุฏ. ูุณุฑู ุฌุจุฑ (ูุงููุง)","category":"ุญุฏูุซ"},{"id":"FVRi8NozgCA","title":"ุดุฑุญ ูุชุงุจ ุงูุฃุฐูุงุฑ ูู ููุงู ุณูุฏ ุงูุฃุจุฑุงุฑ ููุฅูุงู ุงููููู ุฑุถู ุงููู ุนูู - ุงููุฌูุณ ุงููุงุญุฏ ูุงูุฃุฑุจุนูู","publishedAt":"2016-05-20T08:07:23Z","duration":"PT11M57S","thumbnail":"https://i.ytimg.com/vi/FVRi8NozgCA/mqdefault.jpg","viewCount":"365","playlistId":"PLEkQk5xrP-tkWS57Ubysh0ifJR8dmuEtE","playlistName":"ุดุฑุญ ูุชุงุจ ุงูุฃุฐูุงุฑ ููุฅูุงู ุงููููู ุฏ. ูุณุฑู ุฌุจุฑ","category":"ุญุฏูุซ"},{"id":"iTVZzQtAVgs","title":"ุตุญูุญ ุงูุฅูุงู ุงูุจุฎุงุฑู ุฑุถู ุงููู ุนูู -  ูุชุงุจ ุงููุฑุถู - ุงููุฌูุณ ุงูุซุงูู ุฏ. ูุณุฑู ุฌุจุฑ","publishedAt":"2016-05-16T16:27:43Z","duration":"PT50M15S","thumbnail":"https://i.ytimg.com/vi/iTVZzQtAVgs/mqdefault.jpg","viewCount":"149","playlistId":"PLEkQk5xrP-tmJuzaj4GWRenFoFx9gdbFX","playlistName":"ุดุฑุญ ูุชุงุจ ุตุญูุญ ุงูุฅูุงู ุงูุจุฎุงุฑู ุฑุถู ุงููู ุชุนุงูู ุนูู   ุฃ.ุฏ. ูุณุฑู ุฌุจุฑ","category":"ุญุฏูุซ"},{"id":"omDcJX0_NEw","title":"๐ด Majelis Sama' Hadits Shahih Bukhari - PP Progresif Bumi Shalawat (Senin, 3 Februari 2025 | Sesi 1)","publishedAt":"2025-02-03T06:01:11Z","duration":"PT4H22M22S","thumbnail":"https://i.ytimg.com/vi/omDcJX0_NEw/mqdefault.jpg","viewCount":"2771","playlistId":"PLEkQk5xrP-tkKcTKLIthzWrdXY7QaOjh_","playlistName":"ูุฑุงุกุฉ ุตุญูุญ ุงูุจุฎุงุฑู ูุงููุงู ูู ุฅูุฏูููุณูุง","category":"ุญุฏูุซ"},{"id":"6dxI6Frav1o","title":"๐ด Majelis Sama' Hadits Shahih Bukhari - PP. Progresif Bumi Shalawat (Ahad, 2 Februari 2025 | Sesi 2)","publishedAt":"2025-02-02T23:20:19Z","duration":"PT2H12M20S","thumbnail":"https://i.ytimg.com/vi/6dxI6Frav1o/mqdefault.jpg","viewCount":"2906","playlistId":"PLEkQk5xrP-tkKcTKLIthzWrdXY7QaOjh_","playlistName":"ูุฑุงุกุฉ ุตุญูุญ ุงูุจุฎุงุฑู ูุงููุงู ูู ุฅูุฏูููุณูุง","category":"ุญุฏูุซ"},{"id":"oFvUMRrXjBQ","title":"๐ด Majelis Sama' Hadits Shahih Bukhari - PP. Progresif Bumi Shalawat (Ahad, 2 Februari 2025 | Sesi 3)","publishedAt":"2025-02-02T17:38:43Z","duration":"PT4H15M6S","thumbnail":"https://i.ytimg.com/vi/oFvUMRrXjBQ/mqdefault.jpg","viewCount":"3109","playlistId":"PLEkQk5xrP-tkKcTKLIthzWrdXY7QaOjh_","playlistName":"ูุฑุงุกุฉ ุตุญูุญ ุงูุจุฎุงุฑู ูุงููุงู ูู ุฅูุฏูููุณูุง","category":"ุญุฏูุซ"}],"total":1218,"page":15,"pageSize":24,"totalPages":51}