{"items":[{"id":"wtsZL-eocQg","title":"شرح صحيح البخاري كتاب الأضاحي من باب ٩","publishedAt":"2018-07-24T08:46:39Z","duration":"PT32M44S","thumbnail":"https://i.ytimg.com/vi/wtsZL-eocQg/mqdefault.jpg","viewCount":"478","playlistId":"PLEkQk5xrP-tlEerGoLa1AFy-2XvQ-sovv","playlistName":"شرح صحيح البخاري - أ.د. يسري جبر (كاملا)","category":"حديث"},{"id":"OroUt00-bOo","title":"شرح صحيح البخاري كتاب الأضاحي من أوله","publishedAt":"2018-07-23T07:24:45Z","duration":"PT39M29S","thumbnail":"https://i.ytimg.com/vi/OroUt00-bOo/mqdefault.jpg","viewCount":"620","playlistId":"PLEkQk5xrP-tlEerGoLa1AFy-2XvQ-sovv","playlistName":"شرح صحيح البخاري - أ.د. يسري جبر (كاملا)","category":"حديث"},{"id":"t4edptwOFEY","title":"صحيح الإمام البخاري رضي الله عنه - كتاب استتابة المُرْتدِّين والمُعاندين وقتالهم المجلس الثاني.","publishedAt":"2018-07-22T22:11:27Z","duration":"PT49M37S","thumbnail":"https://i.ytimg.com/vi/t4edptwOFEY/mqdefault.jpg","viewCount":"203","playlistId":"PLEkQk5xrP-tmJuzaj4GWRenFoFx9gdbFX","playlistName":"شرح كتاب صحيح الإمام البخاري رضي الله تعالى عنه   أ.د. يسرى جبر","category":"حديث"},{"id":"zkjw4BeAmIc","title":"شرح صحيح البخاري كتاب الذبائح والصيد من باب ٢٩","publishedAt":"2018-07-21T19:28:52Z","duration":"PT36M13S","thumbnail":"https://i.ytimg.com/vi/zkjw4BeAmIc/mqdefault.jpg","viewCount":"416","playlistId":"PLEkQk5xrP-tlEerGoLa1AFy-2XvQ-sovv","playlistName":"شرح صحيح البخاري - أ.د. يسري جبر (كاملا)","category":"حديث"},{"id":"L3DCeEf9hOM","title":"شرح صحيح البخاري كتاب الذبائح والصيد من باب ٢٥","publishedAt":"2018-07-19T21:02:46Z","duration":"PT38M11S","thumbnail":"https://i.ytimg.com/vi/L3DCeEf9hOM/mqdefault.jpg","viewCount":"463","playlistId":"PLEkQk5xrP-tlEerGoLa1AFy-2XvQ-sovv","playlistName":"شرح صحيح البخاري - أ.د. يسري جبر (كاملا)","category":"حديث"},{"id":"pdWEQbgdQ1U","title":"شرح صحيح البخاري كتاب الذبائح والصيد من باب ١٦","publishedAt":"2018-07-18T15:41:56Z","duration":"PT33M35S","thumbnail":"https://i.ytimg.com/vi/pdWEQbgdQ1U/mqdefault.jpg","viewCount":"395","playlistId":"PLEkQk5xrP-tlEerGoLa1AFy-2XvQ-sovv","playlistName":"شرح صحيح البخاري - أ.د. يسري جبر (كاملا)","category":"حديث"},{"id":"Kqt8nxfytrI","title":"شرح صحيح البخاري كتاب الذبائح والصيد من باب ١٢","publishedAt":"2018-07-17T23:24:55Z","duration":"PT37M35S","thumbnail":"https://i.ytimg.com/vi/Kqt8nxfytrI/mqdefault.jpg","viewCount":"440","playlistId":"PLEkQk5xrP-tlEerGoLa1AFy-2XvQ-sovv","playlistName":"شرح صحيح البخاري - أ.د. يسري جبر (كاملا)","category":"حديث"},{"id":"kVr8LkgpGW8","title":"شرح صحيح البخاري كتاب الذبائح والصيد من باب ٥","publishedAt":"2018-07-16T23:46:17Z","duration":"PT35M11S","thumbnail":"https://i.ytimg.com/vi/kVr8LkgpGW8/mqdefault.jpg","viewCount":"429","playlistId":"PLEkQk5xrP-tlEerGoLa1AFy-2XvQ-sovv","playlistName":"شرح صحيح البخاري - أ.د. يسري جبر (كاملا)","category":"حديث"},{"id":"iLI8CWxKCfQ","title":"صحيح الإمام البخاري رضي الله عنه - كتاب استتابة المُرْتدِّين والمُعاندين وقتالهم المجلس الأول","publishedAt":"2018-07-16T07:48:03Z","duration":"PT42M49S","thumbnail":"https://i.ytimg.com/vi/iLI8CWxKCfQ/mqdefault.jpg","viewCount":"243","playlistId":"PLEkQk5xrP-tmJuzaj4GWRenFoFx9gdbFX","playlistName":"شرح كتاب صحيح الإمام البخاري رضي الله تعالى عنه   أ.د. يسرى جبر","category":"حديث"},{"id":"O5-60N5pecI","title":"شرح صحيح الإمام البخاري رضي الله تعالى عنه - كتابُِ الأَحْكَامِ  أ.د. يسري جبر","publishedAt":"2019-08-01T17:11:50Z","duration":"PT40M47S","thumbnail":"https://i.ytimg.com/vi/O5-60N5pecI/mqdefault.jpg","viewCount":"446","playlistId":"PLEkQk5xrP-tmJuzaj4GWRenFoFx9gdbFX","playlistName":"شرح كتاب صحيح الإمام البخاري رضي الله تعالى عنه   أ.د. يسرى جبر","category":"حديث"},{"id":"L5CTdHKSD6U","title":"شرح صحيح الإمام البخاري رضي الله تعالى عنه - كتابُِ الأَحْكَامِ أ.د. يسري جبر","publishedAt":"2019-07-23T11:33:47Z","duration":"PT36M47S","thumbnail":"https://i.ytimg.com/vi/L5CTdHKSD6U/mqdefault.jpg","viewCount":"427","playlistId":"PLEkQk5xrP-tmJuzaj4GWRenFoFx9gdbFX","playlistName":"شرح كتاب صحيح الإمام البخاري رضي الله تعالى عنه   أ.د. يسرى جبر","category":"حديث"},{"id":"sUGI69O5fbY","title":"شرح صحيح الإمام البخاري رضي الله تعالى عنه - كتابُِ الأَحْكَامِ أ.د. يسري جبر","publishedAt":"2019-07-16T22:40:49Z","duration":"PT37M39S","thumbnail":"https://i.ytimg.com/vi/sUGI69O5fbY/mqdefault.jpg","viewCount":"327","playlistId":"PLEkQk5xrP-tmJuzaj4GWRenFoFx9gdbFX","playlistName":"شرح كتاب صحيح الإمام البخاري رضي الله تعالى عنه   أ.د. يسرى جبر","category":"حديث"},{"id":"17kZi4wqIA4","title":"شرح صحيح الإمام البخاري رضي الله تعالى عنه - كتابُِ الأَحْكَامِ أ.د. يسري جبر","publishedAt":"2019-07-12T23:54:38Z","duration":"PT39M13S","thumbnail":"https://i.ytimg.com/vi/17kZi4wqIA4/mqdefault.jpg","viewCount":"372","playlistId":"PLEkQk5xrP-tmJuzaj4GWRenFoFx9gdbFX","playlistName":"شرح كتاب صحيح الإمام البخاري رضي الله تعالى عنه   أ.د. يسرى جبر","category":"حديث"},{"id":"jSmlUUGmtGY","title":"شرح كتاب الأذكار من كلام سيد الأبرار للإمام النووى رضى الله عنه - المجلس الأربعون","publishedAt":"2016-05-12T18:18:06Z","duration":"PT3M8S","thumbnail":"https://i.ytimg.com/vi/jSmlUUGmtGY/mqdefault.jpg","viewCount":"235","playlistId":"PLEkQk5xrP-tkWS57Ubysh0ifJR8dmuEtE","playlistName":"شرح كتاب الأذكار للإمام النووي د. يسرى جبر","category":"حديث"},{"id":"u0i703Nqq9E","title":"صحيح الإمام البخاري رضي الله عنه - ختام كتاب الأشربة وبداية كتاب المرضى د. يسري جبر","publishedAt":"2016-05-10T15:00:55Z","duration":"PT1H7M43S","thumbnail":"https://i.ytimg.com/vi/u0i703Nqq9E/mqdefault.jpg","viewCount":"145","playlistId":"PLEkQk5xrP-tmJuzaj4GWRenFoFx9gdbFX","playlistName":"شرح كتاب صحيح الإمام البخاري رضي الله تعالى عنه   أ.د. يسرى جبر","category":"حديث"},{"id":"OEPlPLX6clo","title":"صحيح الإمام البخاري رضي الله عنه - كتاب الأشربة - المجلس الرابع د. يسري جبر","publishedAt":"2016-05-10T02:38:46Z","duration":"PT56M37S","thumbnail":"https://i.ytimg.com/vi/OEPlPLX6clo/mqdefault.jpg","viewCount":"117","playlistId":"PLEkQk5xrP-tmJuzaj4GWRenFoFx9gdbFX","playlistName":"شرح كتاب صحيح الإمام البخاري رضي الله تعالى عنه   أ.د. يسرى جبر","category":"حديث"},{"id":"6vU5bUDsT-M","title":"شرح صحيح الإمام البخاري رضي الله تعالى عنه - كتابُِ الأَحْكَامِ أ.د. يسري جبر","publishedAt":"2019-07-03T15:17:08Z","duration":"PT36M33S","thumbnail":"https://i.ytimg.com/vi/6vU5bUDsT-M/mqdefault.jpg","viewCount":"313","playlistId":"PLEkQk5xrP-tmJuzaj4GWRenFoFx9gdbFX","playlistName":"شرح كتاب صحيح الإمام البخاري رضي الله تعالى عنه   أ.د. يسرى جبر","category":"حديث"},{"id":"vvvX-KaRXc0","title":"شرح صحيح الإمام البخاري رضي الله تعالى عنه - كتابُِ الأَحْكَامِ   أ.د. يسري جبر","publishedAt":"2019-06-23T19:23:55Z","duration":"PT37M4S","thumbnail":"https://i.ytimg.com/vi/vvvX-KaRXc0/mqdefault.jpg","viewCount":"575","playlistId":"PLEkQk5xrP-tmJuzaj4GWRenFoFx9gdbFX","playlistName":"شرح كتاب صحيح الإمام البخاري رضي الله تعالى عنه   أ.د. يسرى جبر","category":"حديث"},{"id":"geMxDUHmBCM","title":"شرح صحيح البخاري كتاب الطلا‎ق من باب ٤٥","publishedAt":"2018-06-27T16:08:29Z","duration":"PT22M44S","thumbnail":"https://i.ytimg.com/vi/geMxDUHmBCM/mqdefault.jpg","viewCount":"356","playlistId":"PLEkQk5xrP-tlEerGoLa1AFy-2XvQ-sovv","playlistName":"شرح صحيح البخاري - أ.د. يسري جبر (كاملا)","category":"حديث"},{"id":"oS_bpGQIwVM","title":"شرح صحيح البخاري كتاب الطلا‎ق من باب ٤٢","publishedAt":"2018-06-26T17:34:46Z","duration":"PT18M6S","thumbnail":"https://i.ytimg.com/vi/oS_bpGQIwVM/mqdefault.jpg","viewCount":"356","playlistId":"PLEkQk5xrP-tlEerGoLa1AFy-2XvQ-sovv","playlistName":"شرح صحيح البخاري - أ.د. يسري جبر (كاملا)","category":"حديث"},{"id":"HLNAFCL__hY","title":"شرح صحيح البخاري كتاب الطلا‎ق من باب ٤٠","publishedAt":"2018-06-25T20:40:47Z","duration":"PT18M53S","thumbnail":"https://i.ytimg.com/vi/HLNAFCL__hY/mqdefault.jpg","viewCount":"390","playlistId":"PLEkQk5xrP-tlEerGoLa1AFy-2XvQ-sovv","playlistName":"شرح صحيح البخاري - أ.د. يسري جبر (كاملا)","category":"حديث"},{"id":"6y8ac29qrus","title":"شرح صحيح البخاري كتاب الطلا‎ق من باب ٣٣","publishedAt":"2018-06-24T21:44:50Z","duration":"PT20M26S","thumbnail":"https://i.ytimg.com/vi/6y8ac29qrus/mqdefault.jpg","viewCount":"369","playlistId":"PLEkQk5xrP-tlEerGoLa1AFy-2XvQ-sovv","playlistName":"شرح صحيح البخاري - أ.د. يسري جبر (كاملا)","category":"حديث"},{"id":"N57BQkPDl1w","title":"شرح صحيح البخاري كتاب الطلا‎ق من باب ٢٨","publishedAt":"2018-06-23T18:40:11Z","duration":"PT24M28S","thumbnail":"https://i.ytimg.com/vi/N57BQkPDl1w/mqdefault.jpg","viewCount":"390","playlistId":"PLEkQk5xrP-tlEerGoLa1AFy-2XvQ-sovv","playlistName":"شرح صحيح البخاري - أ.د. يسري جبر (كاملا)","category":"حديث"},{"id":"sd2ZlyWqUVQ","title":"شرح صحيح البخاري كتاب الطلا‎ق من باب ٢٦","publishedAt":"2018-06-22T19:48:01Z","duration":"PT27M31S","thumbnail":"https://i.ytimg.com/vi/sd2ZlyWqUVQ/mqdefault.jpg","viewCount":"401","playlistId":"PLEkQk5xrP-tlEerGoLa1AFy-2XvQ-sovv","playlistName":"شرح صحيح البخاري - أ.د. يسري جبر (كاملا)","category":"حديث"}],"total":1218,"page":42,"pageSize":24,"totalPages":51}