{"items":[{"id":"s351Xybqxcw","title":"60- شرح اللؤلؤ والمرجان كتاب الصيام من الباب العاشر","publishedAt":"2020-02-08T06:00:07Z","duration":"PT30M39S","thumbnail":"https://i.ytimg.com/vi/s351Xybqxcw/mqdefault.jpg","viewCount":"519","playlistId":"PLEkQk5xrP-tmKNjtYLfhATC37QdIsTMe0","playlistName":"شرح كتاب اللؤلؤ والمرجان فيما اتفق عليه الشيخان إماما المحدثين البخاري ومسلم. أ.د. يسري جبر","category":"حديث"},{"id":"jsiNiU8jJxA","title":"59- شرح اللؤلؤ والمرجان كتاب الصيام من أوله","publishedAt":"2020-02-07T06:00:05Z","duration":"PT21M42S","thumbnail":"https://i.ytimg.com/vi/jsiNiU8jJxA/mqdefault.jpg","viewCount":"486","playlistId":"PLEkQk5xrP-tmKNjtYLfhATC37QdIsTMe0","playlistName":"شرح كتاب اللؤلؤ والمرجان فيما اتفق عليه الشيخان إماما المحدثين البخاري ومسلم. أ.د. يسري جبر","category":"حديث"},{"id":"M6lZ_zWxT5k","title":"قوله تعالى \"وَكَانَ ٱللَّهُ سَمِیعَۢا بَصِيرًا\"","publishedAt":"2022-06-25T05:00:07Z","duration":"PT42M31S","thumbnail":"https://i.ytimg.com/vi/M6lZ_zWxT5k/mqdefault.jpg","viewCount":"2006","playlistId":"PLEkQk5xrP-tmJuzaj4GWRenFoFx9gdbFX","playlistName":"شرح كتاب صحيح الإمام البخاري رضي الله تعالى عنه   أ.د. يسرى جبر","category":"حديث"},{"id":"85U5x-QopCc","title":"\"باب قول الله تعالى\"وَهُوَ الَّذِي خَلَقَ السَّمَاوَاتِ وَالْأَرْضَ بِالْحَقِّ","publishedAt":"2022-06-19T05:00:01Z","duration":"PT51M51S","thumbnail":"https://i.ytimg.com/vi/85U5x-QopCc/mqdefault.jpg","viewCount":"2955","playlistId":"PLEkQk5xrP-tmJuzaj4GWRenFoFx9gdbFX","playlistName":"شرح كتاب صحيح الإمام البخاري رضي الله تعالى عنه   أ.د. يسرى جبر","category":"حديث"},{"id":"pJbDIV-HJUM","title":"شرح صحيح الإمام البخاري رضي الله تعالى عنه - كتابُ التَّمَنِّي  أ.د. يسري جبر","publishedAt":"2019-10-29T14:41:52Z","duration":"PT24M6S","thumbnail":"https://i.ytimg.com/vi/pJbDIV-HJUM/mqdefault.jpg","viewCount":"436","playlistId":"PLEkQk5xrP-tmJuzaj4GWRenFoFx9gdbFX","playlistName":"شرح كتاب صحيح الإمام البخاري رضي الله تعالى عنه   أ.د. يسرى جبر","category":"حديث"},{"id":"sUGI69O5fbY","title":"شرح صحيح الإمام البخاري رضي الله تعالى عنه - كتابُِ الأَحْكَامِ أ.د. يسري جبر","publishedAt":"2019-07-16T22:40:49Z","duration":"PT37M39S","thumbnail":"https://i.ytimg.com/vi/sUGI69O5fbY/mqdefault.jpg","viewCount":"327","playlistId":"PLEkQk5xrP-tmJuzaj4GWRenFoFx9gdbFX","playlistName":"شرح كتاب صحيح الإمام البخاري رضي الله تعالى عنه   أ.د. يسرى جبر","category":"حديث"},{"id":"17kZi4wqIA4","title":"شرح صحيح الإمام البخاري رضي الله تعالى عنه - كتابُِ الأَحْكَامِ أ.د. يسري جبر","publishedAt":"2019-07-12T23:54:38Z","duration":"PT39M13S","thumbnail":"https://i.ytimg.com/vi/17kZi4wqIA4/mqdefault.jpg","viewCount":"372","playlistId":"PLEkQk5xrP-tmJuzaj4GWRenFoFx9gdbFX","playlistName":"شرح كتاب صحيح الإمام البخاري رضي الله تعالى عنه   أ.د. يسرى جبر","category":"حديث"},{"id":"jSmlUUGmtGY","title":"شرح كتاب الأذكار من كلام سيد الأبرار للإمام النووى رضى الله عنه - المجلس الأربعون","publishedAt":"2016-05-12T18:18:06Z","duration":"PT3M8S","thumbnail":"https://i.ytimg.com/vi/jSmlUUGmtGY/mqdefault.jpg","viewCount":"235","playlistId":"PLEkQk5xrP-tkWS57Ubysh0ifJR8dmuEtE","playlistName":"شرح كتاب الأذكار للإمام النووي د. يسرى جبر","category":"حديث"},{"id":"wY-wX3LbVsM","title":"121- شرح اللؤلؤ والمرجان كتاب الإمارة من الباب الأربعين","publishedAt":"2020-04-21T20:05:54Z","duration":"PT37M41S","thumbnail":"https://i.ytimg.com/vi/wY-wX3LbVsM/mqdefault.jpg","viewCount":"577","playlistId":"PLEkQk5xrP-tmKNjtYLfhATC37QdIsTMe0","playlistName":"شرح كتاب اللؤلؤ والمرجان فيما اتفق عليه الشيخان إماما المحدثين البخاري ومسلم. أ.د. يسري جبر","category":"حديث"},{"id":"H2OOtAjS1Gs","title":"شرح صحيح الإمام البخاري رضي الله تعالى عنه - كتابُ التَّمَنِّي أ.د. يسري جبر","publishedAt":"2019-10-22T09:11:41Z","duration":"PT30M19S","thumbnail":"https://i.ytimg.com/vi/H2OOtAjS1Gs/mqdefault.jpg","viewCount":"311","playlistId":"PLEkQk5xrP-tmJuzaj4GWRenFoFx9gdbFX","playlistName":"شرح كتاب صحيح الإمام البخاري رضي الله تعالى عنه   أ.د. يسرى جبر","category":"حديث"},{"id":"XQq2-t2N7Ww","title":"شرح صحيح الإمام البخاري رضي الله تعالى عنه - كتابُ التَّمَنِّي     أ.د. يسري جبر","publishedAt":"2019-10-13T08:04:19Z","duration":"PT25M36S","thumbnail":"https://i.ytimg.com/vi/XQq2-t2N7Ww/mqdefault.jpg","viewCount":"420","playlistId":"PLEkQk5xrP-tmJuzaj4GWRenFoFx9gdbFX","playlistName":"شرح كتاب صحيح الإمام البخاري رضي الله تعالى عنه   أ.د. يسرى جبر","category":"حديث"},{"id":"AT--YDWg41k","title":"شرح صحيح الإمام البخاري رضي الله تعالى عنه - كتابُِ الأَحْكَامِ  أ.د. يسري جبر","publishedAt":"2019-10-01T16:42:49Z","duration":"PT30M6S","thumbnail":"https://i.ytimg.com/vi/AT--YDWg41k/mqdefault.jpg","viewCount":"291","playlistId":"PLEkQk5xrP-tmJuzaj4GWRenFoFx9gdbFX","playlistName":"شرح كتاب صحيح الإمام البخاري رضي الله تعالى عنه   أ.د. يسرى جبر","category":"حديث"},{"id":"WXqX051KZHA","title":"شرح صحيح الإمام البخاري رضي الله تعالى عنه - كتابُِ الأَحْكَامِ  أ.د. يسري جبر","publishedAt":"2019-09-22T16:47:36Z","duration":"PT33M12S","thumbnail":"https://i.ytimg.com/vi/WXqX051KZHA/mqdefault.jpg","viewCount":"298","playlistId":"PLEkQk5xrP-tmJuzaj4GWRenFoFx9gdbFX","playlistName":"شرح كتاب صحيح الإمام البخاري رضي الله تعالى عنه   أ.د. يسرى جبر","category":"حديث"},{"id":"Pg0x6UC4-dA","title":"شرح صحيح البخاري ( كتاب بدء الوحي مجلس ٢)","publishedAt":"2016-08-07T13:56:35Z","duration":"PT35M55S","thumbnail":"https://i.ytimg.com/vi/Pg0x6UC4-dA/mqdefault.jpg","viewCount":"5453","playlistId":"PLEkQk5xrP-tlEerGoLa1AFy-2XvQ-sovv","playlistName":"شرح صحيح البخاري - أ.د. يسري جبر (كاملا)","category":"حديث"},{"id":"gi3XD-KulY0","title":"صحيح الإمام البخاري رضي الله عنه - ختام كتاب المرضى  وبداية كتاب الطب د. يسري جبر","publishedAt":"2016-08-07T13:32:54Z","duration":"PT1H6M38S","thumbnail":"https://i.ytimg.com/vi/gi3XD-KulY0/mqdefault.jpg","viewCount":"185","playlistId":"PLEkQk5xrP-tmJuzaj4GWRenFoFx9gdbFX","playlistName":"شرح كتاب صحيح الإمام البخاري رضي الله تعالى عنه   أ.د. يسرى جبر","category":"حديث"},{"id":"ULzvlz5yfBs","title":"شرح صحيح البخاري ( كتاب بدء الوحي  المجلس ١)","publishedAt":"2016-08-06T09:05:58Z","duration":"PT48M","thumbnail":"https://i.ytimg.com/vi/ULzvlz5yfBs/mqdefault.jpg","viewCount":"10883","playlistId":"PLEkQk5xrP-tlEerGoLa1AFy-2XvQ-sovv","playlistName":"شرح صحيح البخاري - أ.د. يسري جبر (كاملا)","category":"حديث"},{"id":"02vA77On9k8","title":"شرح صحيح البخاري   ( أخر مجلس في المقدمة , مجلس ٥)","publishedAt":"2016-08-06T07:17:05Z","duration":"PT33M34S","thumbnail":"https://i.ytimg.com/vi/02vA77On9k8/mqdefault.jpg","viewCount":"3682","playlistId":"PLEkQk5xrP-tlEerGoLa1AFy-2XvQ-sovv","playlistName":"شرح صحيح البخاري - أ.د. يسري جبر (كاملا)","category":"حديث"},{"id":"NTMKR_g0p7I","title":"شرح صحيح البخاري ( مقدمة مجلس ٤)","publishedAt":"2016-08-04T07:22:08Z","duration":"PT43M13S","thumbnail":"https://i.ytimg.com/vi/NTMKR_g0p7I/mqdefault.jpg","viewCount":"4232","playlistId":"PLEkQk5xrP-tlEerGoLa1AFy-2XvQ-sovv","playlistName":"شرح صحيح البخاري - أ.د. يسري جبر (كاملا)","category":"حديث"},{"id":"fUm9e7gdqW0","title":"شرح صحيح البخاري ( مقدمة  مجلس ٣)","publishedAt":"2016-08-03T10:51:25Z","duration":"PT41M22S","thumbnail":"https://i.ytimg.com/vi/fUm9e7gdqW0/mqdefault.jpg","viewCount":"5633","playlistId":"PLEkQk5xrP-tlEerGoLa1AFy-2XvQ-sovv","playlistName":"شرح صحيح البخاري - أ.د. يسري جبر (كاملا)","category":"حديث"},{"id":"ssDhTwEBkMU","title":"شرح صحيح البخاري ( مقدمة  مجلس ٢)","publishedAt":"2016-08-03T10:41:32Z","duration":"PT44M45S","thumbnail":"https://i.ytimg.com/vi/ssDhTwEBkMU/mqdefault.jpg","viewCount":"9669","playlistId":"PLEkQk5xrP-tlEerGoLa1AFy-2XvQ-sovv","playlistName":"شرح صحيح البخاري - أ.د. يسري جبر (كاملا)","category":"حديث"},{"id":"RjdTiq1mPJE","title":"شرح صحيح البخاري - كتاب الجنائز من باب ٣١","publishedAt":"2017-01-13T05:45:49Z","duration":"PT31M28S","thumbnail":"https://i.ytimg.com/vi/RjdTiq1mPJE/mqdefault.jpg","viewCount":"995","playlistId":"PLEkQk5xrP-tlEerGoLa1AFy-2XvQ-sovv","playlistName":"شرح صحيح البخاري - أ.د. يسري جبر (كاملا)","category":"حديث"},{"id":"FqMYjWU46t4","title":"شرح صحيح البخاري - كتاب الجنائز من باب ٢٢","publishedAt":"2017-01-11T11:15:21Z","duration":"PT34M34S","thumbnail":"https://i.ytimg.com/vi/FqMYjWU46t4/mqdefault.jpg","viewCount":"1026","playlistId":"PLEkQk5xrP-tlEerGoLa1AFy-2XvQ-sovv","playlistName":"شرح صحيح البخاري - أ.د. يسري جبر (كاملا)","category":"حديث"},{"id":"suqSH8Cp5Es","title":"شرح صحيح البخاري - كتاب الجنائز من باب ٩","publishedAt":"2017-01-10T10:02:05Z","duration":"PT33M25S","thumbnail":"https://i.ytimg.com/vi/suqSH8Cp5Es/mqdefault.jpg","viewCount":"909","playlistId":"PLEkQk5xrP-tlEerGoLa1AFy-2XvQ-sovv","playlistName":"شرح صحيح البخاري - أ.د. يسري جبر (كاملا)","category":"حديث"},{"id":"UWelXkvTXeA","title":"شرح صحيح البخاري - كتاب الجنائز من باب ٤","publishedAt":"2017-01-08T12:36:06Z","duration":"PT40M25S","thumbnail":"https://i.ytimg.com/vi/UWelXkvTXeA/mqdefault.jpg","viewCount":"1153","playlistId":"PLEkQk5xrP-tlEerGoLa1AFy-2XvQ-sovv","playlistName":"شرح صحيح البخاري - أ.د. يسري جبر (كاملا)","category":"حديث"}],"total":1218,"page":19,"pageSize":24,"totalPages":51}