{"items":[{"id":"_x8V1crAwCY","title":"شرح صحيح الإمام البخاري رضي الله تعالى عنه - كتاب الحِيَل.  د. يسري جبر","publishedAt":"2018-10-09T17:46:05Z","duration":"PT37M22S","thumbnail":"https://i.ytimg.com/vi/_x8V1crAwCY/mqdefault.jpg","viewCount":"290","playlistId":"PLEkQk5xrP-tmJuzaj4GWRenFoFx9gdbFX","playlistName":"شرح كتاب صحيح الإمام البخاري رضي الله تعالى عنه   أ.د. يسرى جبر","category":"حديث"},{"id":"DgvoEYR-w1g","title":"شرح صحيح البخاري كتاب الدعوات من باب ٣٨","publishedAt":"2018-10-09T17:13:13Z","duration":"PT23M33S","thumbnail":"https://i.ytimg.com/vi/DgvoEYR-w1g/mqdefault.jpg","viewCount":"416","playlistId":"PLEkQk5xrP-tlEerGoLa1AFy-2XvQ-sovv","playlistName":"شرح صحيح البخاري - أ.د. يسري جبر (كاملا)","category":"حديث"},{"id":"b_a-aj6veCI","title":"شرح صحيح البخاري كتاب الدعوات من باب ٣٣","publishedAt":"2018-10-08T21:45:35Z","duration":"PT20M25S","thumbnail":"https://i.ytimg.com/vi/b_a-aj6veCI/mqdefault.jpg","viewCount":"457","playlistId":"PLEkQk5xrP-tlEerGoLa1AFy-2XvQ-sovv","playlistName":"شرح صحيح البخاري - أ.د. يسري جبر (كاملا)","category":"حديث"},{"id":"l69ncasMB3I","title":"شرح كتاب الأذكار من كلام سيد الأبرار للإمام النووى رضى الله عنه - المجلس السابع والعشرون","publishedAt":"2015-06-04T19:13:42Z","duration":"PT6M54S","thumbnail":"https://i.ytimg.com/vi/l69ncasMB3I/mqdefault.jpg","viewCount":"291","playlistId":"PLEkQk5xrP-tkWS57Ubysh0ifJR8dmuEtE","playlistName":"شرح كتاب الأذكار للإمام النووي د. يسرى جبر","category":"حديث"},{"id":"CwlXDnkxlVI","title":"610- قوله تعالى\"تَعْرُجُ الْمَلائِكَةُ وَالرُّوحُ إِلَيْهِ\" - كتاب التوحيد - شرح صحيح الإمام البخاري","publishedAt":"2022-08-27T05:45:00Z","duration":"PT46M39S","thumbnail":"https://i.ytimg.com/vi/CwlXDnkxlVI/mqdefault.jpg","viewCount":"2230","playlistId":"PLEkQk5xrP-tmJuzaj4GWRenFoFx9gdbFX","playlistName":"شرح كتاب صحيح الإمام البخاري رضي الله تعالى عنه   أ.د. يسرى جبر","category":"حديث"},{"id":"Ktx50mtQyts","title":"شرح صحيح البخاري كتاب التفسير فى سورة البقرة من باب ٣٥","publishedAt":"2018-03-11T17:24:59Z","duration":"PT32M54S","thumbnail":"https://i.ytimg.com/vi/Ktx50mtQyts/mqdefault.jpg","viewCount":"523","playlistId":"PLEkQk5xrP-tlEerGoLa1AFy-2XvQ-sovv","playlistName":"شرح صحيح البخاري - أ.د. يسري جبر (كاملا)","category":"حديث"},{"id":"ab3EDes-CTM","title":"شرح صحيح البخاري كتاب التفسير فى سورة البقرة من باب ٢٨","publishedAt":"2018-03-10T19:10:19Z","duration":"PT38M5S","thumbnail":"https://i.ytimg.com/vi/ab3EDes-CTM/mqdefault.jpg","viewCount":"683","playlistId":"PLEkQk5xrP-tlEerGoLa1AFy-2XvQ-sovv","playlistName":"شرح صحيح البخاري - أ.د. يسري جبر (كاملا)","category":"حديث"},{"id":"EbzjYc69d1o","title":"شرح صحيح البخاري كتاب التفسير فى سورة البقرة من باب ٢٢","publishedAt":"2018-03-09T20:19:49Z","duration":"PT36M6S","thumbnail":"https://i.ytimg.com/vi/EbzjYc69d1o/mqdefault.jpg","viewCount":"600","playlistId":"PLEkQk5xrP-tlEerGoLa1AFy-2XvQ-sovv","playlistName":"شرح صحيح البخاري - أ.د. يسري جبر (كاملا)","category":"حديث"},{"id":"yMSycaopzzM","title":"شرح صحيح البخاري كتاب التفسير فى سورة البقرة من باب ١١","publishedAt":"2018-03-08T21:49:46Z","duration":"PT31M30S","thumbnail":"https://i.ytimg.com/vi/yMSycaopzzM/mqdefault.jpg","viewCount":"601","playlistId":"PLEkQk5xrP-tlEerGoLa1AFy-2XvQ-sovv","playlistName":"شرح صحيح البخاري - أ.د. يسري جبر (كاملا)","category":"حديث"},{"id":"sfoMMNBQQxg","title":"شرح صحيح البخاري كتاب التفسير من سورة البقرة من باب ٧","publishedAt":"2018-03-07T11:31:14Z","duration":"PT24M39S","thumbnail":"https://i.ytimg.com/vi/sfoMMNBQQxg/mqdefault.jpg","viewCount":"652","playlistId":"PLEkQk5xrP-tlEerGoLa1AFy-2XvQ-sovv","playlistName":"شرح صحيح البخاري - أ.د. يسري جبر (كاملا)","category":"حديث"},{"id":"R4WRvDMeGxw","title":"شرح صحيح البخاري كتاب التفسير من سورة البقرة من أوله","publishedAt":"2018-03-06T14:12:18Z","duration":"PT29M57S","thumbnail":"https://i.ytimg.com/vi/R4WRvDMeGxw/mqdefault.jpg","viewCount":"1331","playlistId":"PLEkQk5xrP-tlEerGoLa1AFy-2XvQ-sovv","playlistName":"شرح صحيح البخاري - أ.د. يسري جبر (كاملا)","category":"حديث"},{"id":"Y7VZhDWCmp4","title":"609- قوله تعالى\"وَكَانَ عَرْشُهُ عَلَى الْمَاءِ\" -  شرح صحيح الإمام البخاري رضي الله تعالى عنه","publishedAt":"2022-08-19T19:15:01Z","duration":"PT40M28S","thumbnail":"https://i.ytimg.com/vi/Y7VZhDWCmp4/mqdefault.jpg","viewCount":"5058","playlistId":"PLEkQk5xrP-tmJuzaj4GWRenFoFx9gdbFX","playlistName":"شرح كتاب صحيح الإمام البخاري رضي الله تعالى عنه   أ.د. يسرى جبر","category":"حديث"},{"id":"45Rc-vqz2zg","title":"شرح صحيح البخاري - كتاب الزكاة من أوله","publishedAt":"2017-02-12T14:27:38Z","duration":"PT30M54S","thumbnail":"https://i.ytimg.com/vi/45Rc-vqz2zg/mqdefault.jpg","viewCount":"1388","playlistId":"PLEkQk5xrP-tlEerGoLa1AFy-2XvQ-sovv","playlistName":"شرح صحيح البخاري - أ.د. يسري جبر (كاملا)","category":"حديث"},{"id":"TbQiQd9fhsw","title":"شرح صحيح البخاري - كتاب الجنائز من باب ٩٤","publishedAt":"2017-02-11T13:18:52Z","duration":"PT49M3S","thumbnail":"https://i.ytimg.com/vi/TbQiQd9fhsw/mqdefault.jpg","viewCount":"1056","playlistId":"PLEkQk5xrP-tlEerGoLa1AFy-2XvQ-sovv","playlistName":"شرح صحيح البخاري - أ.د. يسري جبر (كاملا)","category":"حديث"},{"id":"46U9EXFBTWk","title":"شرح صحيح البخاري - كتاب الجنائز من باب ٩١","publishedAt":"2017-02-10T09:48:31Z","duration":"PT34M12S","thumbnail":"https://i.ytimg.com/vi/46U9EXFBTWk/mqdefault.jpg","viewCount":"898","playlistId":"PLEkQk5xrP-tlEerGoLa1AFy-2XvQ-sovv","playlistName":"شرح صحيح البخاري - أ.د. يسري جبر (كاملا)","category":"حديث"},{"id":"IHAhoIUrFkQ","title":"شرح صحيح البخاري - كتاب الجنائز من باب ٨٥","publishedAt":"2017-02-09T12:29:37Z","duration":"PT33M20S","thumbnail":"https://i.ytimg.com/vi/IHAhoIUrFkQ/mqdefault.jpg","viewCount":"885","playlistId":"PLEkQk5xrP-tlEerGoLa1AFy-2XvQ-sovv","playlistName":"شرح صحيح البخاري - أ.د. يسري جبر (كاملا)","category":"حديث"},{"id":"KA8YF_zKOA8","title":"شرح صحيح البخاري - كتاب الجنائز من باب 80","publishedAt":"2017-02-08T08:11:32Z","duration":"PT40M42S","thumbnail":"https://i.ytimg.com/vi/KA8YF_zKOA8/mqdefault.jpg","viewCount":"874","playlistId":"PLEkQk5xrP-tlEerGoLa1AFy-2XvQ-sovv","playlistName":"شرح صحيح البخاري - أ.د. يسري جبر (كاملا)","category":"حديث"},{"id":"OXbIsVATU1A","title":"صحيح الإمام البخاري رضي الله عنه - كتاب الأدب - المجلس الثاني عشر د. يسري جبر","publishedAt":"2017-02-07T21:52:28Z","duration":"PT59M11S","thumbnail":"https://i.ytimg.com/vi/OXbIsVATU1A/mqdefault.jpg","viewCount":"253","playlistId":"PLEkQk5xrP-tmJuzaj4GWRenFoFx9gdbFX","playlistName":"شرح كتاب صحيح الإمام البخاري رضي الله تعالى عنه   أ.د. يسرى جبر","category":"حديث"},{"id":"vR0i1GLOjQI","title":"شرح صحيح البخاري - كتاب الجنائز من باب ٧٧","publishedAt":"2017-02-07T08:30:48Z","duration":"PT40M26S","thumbnail":"https://i.ytimg.com/vi/vR0i1GLOjQI/mqdefault.jpg","viewCount":"865","playlistId":"PLEkQk5xrP-tlEerGoLa1AFy-2XvQ-sovv","playlistName":"شرح صحيح البخاري - أ.د. يسري جبر (كاملا)","category":"حديث"},{"id":"UC_y1o7ExQs","title":"شرح صحيح البخاري - كتاب الجنائز من باب ٦٨","publishedAt":"2017-02-06T12:43:33Z","duration":"PT44M56S","thumbnail":"https://i.ytimg.com/vi/UC_y1o7ExQs/mqdefault.jpg","viewCount":"956","playlistId":"PLEkQk5xrP-tlEerGoLa1AFy-2XvQ-sovv","playlistName":"شرح صحيح البخاري - أ.د. يسري جبر (كاملا)","category":"حديث"},{"id":"9xSRgs4ZjW0","title":"شرح صحيح البخاري - كتاب الجنائز من باب ٥٧","publishedAt":"2017-02-05T07:03:03Z","duration":"PT22M10S","thumbnail":"https://i.ytimg.com/vi/9xSRgs4ZjW0/mqdefault.jpg","viewCount":"885","playlistId":"PLEkQk5xrP-tlEerGoLa1AFy-2XvQ-sovv","playlistName":"شرح صحيح البخاري - أ.د. يسري جبر (كاملا)","category":"حديث"},{"id":"L7kNkVUy__A","title":"شرح صحيح البخاري - كتاب الجنائز من باب ٤٩","publishedAt":"2017-02-04T04:56:40Z","duration":"PT25M48S","thumbnail":"https://i.ytimg.com/vi/L7kNkVUy__A/mqdefault.jpg","viewCount":"751","playlistId":"PLEkQk5xrP-tlEerGoLa1AFy-2XvQ-sovv","playlistName":"شرح صحيح البخاري - أ.د. يسري جبر (كاملا)","category":"حديث"},{"id":"G0bL7KIcM0Y","title":"608- قولُه تعالى \"لِمَا خَلَقْتُ بِيَدَيَّ\" شرح صحيح الإمام البخاري رضي الله عنه","publishedAt":"2022-08-13T05:30:02Z","duration":"PT49M19S","thumbnail":"https://i.ytimg.com/vi/G0bL7KIcM0Y/mqdefault.jpg","viewCount":"2421","playlistId":"PLEkQk5xrP-tmJuzaj4GWRenFoFx9gdbFX","playlistName":"شرح كتاب صحيح الإمام البخاري رضي الله تعالى عنه   أ.د. يسرى جبر","category":"حديث"},{"id":"CxJdmAp6L5Y","title":"شرح صحيح البخاري كتاب التفسير فى سورة النساء من باب ١١","publishedAt":"2018-03-19T13:18:09Z","duration":"PT30M37S","thumbnail":"https://i.ytimg.com/vi/CxJdmAp6L5Y/mqdefault.jpg","viewCount":"486","playlistId":"PLEkQk5xrP-tlEerGoLa1AFy-2XvQ-sovv","playlistName":"شرح صحيح البخاري - أ.د. يسري جبر (كاملا)","category":"حديث"}],"total":1218,"page":5,"pageSize":24,"totalPages":51}