{"items":[{"id":"6ou70ssly2Q","title":"شرح صحيح البخاري كتاب الدعوات من باب ٤٨","publishedAt":"2018-10-12T21:04:25Z","duration":"PT33M30S","thumbnail":"https://i.ytimg.com/vi/6ou70ssly2Q/mqdefault.jpg","viewCount":"459","playlistId":"PLEkQk5xrP-tlEerGoLa1AFy-2XvQ-sovv","playlistName":"شرح صحيح البخاري - أ.د. يسري جبر (كاملا)","category":"حديث"},{"id":"_x8V1crAwCY","title":"شرح صحيح الإمام البخاري رضي الله تعالى عنه - كتاب الحِيَل.  د. يسري جبر","publishedAt":"2018-10-09T17:46:05Z","duration":"PT37M22S","thumbnail":"https://i.ytimg.com/vi/_x8V1crAwCY/mqdefault.jpg","viewCount":"290","playlistId":"PLEkQk5xrP-tmJuzaj4GWRenFoFx9gdbFX","playlistName":"شرح كتاب صحيح الإمام البخاري رضي الله تعالى عنه   أ.د. يسرى جبر","category":"حديث"},{"id":"DgvoEYR-w1g","title":"شرح صحيح البخاري كتاب الدعوات من باب ٣٨","publishedAt":"2018-10-09T17:13:13Z","duration":"PT23M33S","thumbnail":"https://i.ytimg.com/vi/DgvoEYR-w1g/mqdefault.jpg","viewCount":"416","playlistId":"PLEkQk5xrP-tlEerGoLa1AFy-2XvQ-sovv","playlistName":"شرح صحيح البخاري - أ.د. يسري جبر (كاملا)","category":"حديث"},{"id":"b_a-aj6veCI","title":"شرح صحيح البخاري كتاب الدعوات من باب ٣٣","publishedAt":"2018-10-08T21:45:35Z","duration":"PT20M25S","thumbnail":"https://i.ytimg.com/vi/b_a-aj6veCI/mqdefault.jpg","viewCount":"457","playlistId":"PLEkQk5xrP-tlEerGoLa1AFy-2XvQ-sovv","playlistName":"شرح صحيح البخاري - أ.د. يسري جبر (كاملا)","category":"حديث"},{"id":"l69ncasMB3I","title":"شرح كتاب الأذكار من كلام سيد الأبرار للإمام النووى رضى الله عنه - المجلس السابع والعشرون","publishedAt":"2015-06-04T19:13:42Z","duration":"PT6M54S","thumbnail":"https://i.ytimg.com/vi/l69ncasMB3I/mqdefault.jpg","viewCount":"291","playlistId":"PLEkQk5xrP-tkWS57Ubysh0ifJR8dmuEtE","playlistName":"شرح كتاب الأذكار للإمام النووي د. يسرى جبر","category":"حديث"},{"id":"av4P95TBYGo","title":"صحيح الإمام البخاري رضي الله عنه - كتاب الطلاق - المجلس الرابع","publishedAt":"2015-05-31T17:49:38Z","duration":"PT54M42S","thumbnail":"https://i.ytimg.com/vi/av4P95TBYGo/mqdefault.jpg","viewCount":"73","playlistId":"PLEkQk5xrP-tmJuzaj4GWRenFoFx9gdbFX","playlistName":"شرح كتاب صحيح الإمام البخاري رضي الله تعالى عنه   أ.د. يسرى جبر","category":"حديث"},{"id":"9SkTTkcHOdQ","title":"شرح كتاب الأذكار من كلام سيد الأبرار للإمام النووى رضى الله عنه - المجلس السادس والعشرون","publishedAt":"2015-05-27T03:55:25Z","duration":"PT13M7S","thumbnail":"https://i.ytimg.com/vi/9SkTTkcHOdQ/mqdefault.jpg","viewCount":"328","playlistId":"PLEkQk5xrP-tkWS57Ubysh0ifJR8dmuEtE","playlistName":"شرح كتاب الأذكار للإمام النووي د. يسرى جبر","category":"حديث"},{"id":"20WBTIwot_k","title":"صحيح الإمام البخاري رضي الله عنه - كتاب الطلاق - المجلس الثالث","publishedAt":"2015-05-25T19:13:12Z","duration":"PT1H6M29S","thumbnail":"https://i.ytimg.com/vi/20WBTIwot_k/mqdefault.jpg","viewCount":"114","playlistId":"PLEkQk5xrP-tmJuzaj4GWRenFoFx9gdbFX","playlistName":"شرح كتاب صحيح الإمام البخاري رضي الله تعالى عنه   أ.د. يسرى جبر","category":"حديث"},{"id":"8G1969aVDl0","title":"شرح كتاب الأذكار من كلام سيد الأبرار للإمام النووى رضى الله عنه - المجلس الخامس والعشرون","publishedAt":"2015-05-20T19:04:16Z","duration":"PT13M4S","thumbnail":"https://i.ytimg.com/vi/8G1969aVDl0/mqdefault.jpg","viewCount":"359","playlistId":"PLEkQk5xrP-tkWS57Ubysh0ifJR8dmuEtE","playlistName":"شرح كتاب الأذكار للإمام النووي د. يسرى جبر","category":"حديث"},{"id":"YXh_VKdxW6s","title":"صحيح الإمام البخاري رضي الله عنه - كتاب الطلاق - المجلس الثانى","publishedAt":"2015-05-18T04:37:56Z","duration":"PT56M48S","thumbnail":"https://i.ytimg.com/vi/YXh_VKdxW6s/mqdefault.jpg","viewCount":"169","playlistId":"PLEkQk5xrP-tmJuzaj4GWRenFoFx9gdbFX","playlistName":"شرح كتاب صحيح الإمام البخاري رضي الله تعالى عنه   أ.د. يسرى جبر","category":"حديث"},{"id":"6YKMJYuKwT0","title":"شرح كتاب الأذكار من كلام سيد الأبرار للإمام النووى رضى الله عنه - المجلس الرابع والعشرون","publishedAt":"2015-05-14T14:28:51Z","duration":"PT18M24S","thumbnail":"https://i.ytimg.com/vi/6YKMJYuKwT0/mqdefault.jpg","viewCount":"357","playlistId":"PLEkQk5xrP-tkWS57Ubysh0ifJR8dmuEtE","playlistName":"شرح كتاب الأذكار للإمام النووي د. يسرى جبر","category":"حديث"},{"id":"lHGBEHX4rA4","title":"شرح صحيح البخاري كتاب مواقيت الصلاة من باب ١١","publishedAt":"2016-11-03T04:38:38Z","duration":"PT25M27S","thumbnail":"https://i.ytimg.com/vi/lHGBEHX4rA4/mqdefault.jpg","viewCount":"1289","playlistId":"PLEkQk5xrP-tlEerGoLa1AFy-2XvQ-sovv","playlistName":"شرح صحيح البخاري - أ.د. يسري جبر (كاملا)","category":"حديث"},{"id":"a8FR5Ouqal4","title":"شرح صحيح البخاري كتاب مواقيت الصلاة من باب ٤","publishedAt":"2016-11-01T05:43:56Z","duration":"PT36M53S","thumbnail":"https://i.ytimg.com/vi/a8FR5Ouqal4/mqdefault.jpg","viewCount":"1440","playlistId":"PLEkQk5xrP-tlEerGoLa1AFy-2XvQ-sovv","playlistName":"شرح صحيح البخاري - أ.د. يسري جبر (كاملا)","category":"حديث"},{"id":"idh0NxbGMg4","title":"صحيح الإمام البخاري رضي الله عنه - كتاب اللباس ( باب نقش الخاتم ) المجلس السابع د. يسري جبر","publishedAt":"2016-10-31T12:05:46Z","duration":"PT1H9M34S","thumbnail":"https://i.ytimg.com/vi/idh0NxbGMg4/mqdefault.jpg","viewCount":"209","playlistId":"PLEkQk5xrP-tmJuzaj4GWRenFoFx9gdbFX","playlistName":"شرح كتاب صحيح الإمام البخاري رضي الله تعالى عنه   أ.د. يسرى جبر","category":"حديث"},{"id":"9n_5eQL3ino","title":"شرح صحيح البخاري - كتاب الصلاة من باب 102","publishedAt":"2016-10-31T03:47:08Z","duration":"PT34M13S","thumbnail":"https://i.ytimg.com/vi/9n_5eQL3ino/mqdefault.jpg","viewCount":"1455","playlistId":"PLEkQk5xrP-tlEerGoLa1AFy-2XvQ-sovv","playlistName":"شرح صحيح البخاري - أ.د. يسري جبر (كاملا)","category":"حديث"},{"id":"vzbwgqt_K24","title":"شرح صحيح البخاري- كتاب فضائل الصحابة من باب ٤","publishedAt":"2017-11-09T17:48:23Z","duration":"PT36M58S","thumbnail":"https://i.ytimg.com/vi/vzbwgqt_K24/mqdefault.jpg","viewCount":"730","playlistId":"PLEkQk5xrP-tlEerGoLa1AFy-2XvQ-sovv","playlistName":"شرح صحيح البخاري - أ.د. يسري جبر (كاملا)","category":"حديث"},{"id":"Yry7Udiy2ms","title":"شرح صحيح البخاري- كتاب فضائل الصحابة من أوله","publishedAt":"2017-11-08T13:27:14Z","duration":"PT46M3S","thumbnail":"https://i.ytimg.com/vi/Yry7Udiy2ms/mqdefault.jpg","viewCount":"1090","playlistId":"PLEkQk5xrP-tlEerGoLa1AFy-2XvQ-sovv","playlistName":"شرح صحيح البخاري - أ.د. يسري جبر (كاملا)","category":"حديث"},{"id":"OwfQCQrvQMY","title":"صحيح الإمام البخاري رضي الله عنه - كتاب الأيمان والنذور (باب قول الرجل \"لَعَمْرُ الله\") د.يسري جبر","publishedAt":"2017-11-07T12:09:10Z","duration":"PT31M46S","thumbnail":"https://i.ytimg.com/vi/OwfQCQrvQMY/mqdefault.jpg","viewCount":"110","playlistId":"PLEkQk5xrP-tmJuzaj4GWRenFoFx9gdbFX","playlistName":"شرح كتاب صحيح الإمام البخاري رضي الله تعالى عنه   أ.د. يسرى جبر","category":"حديث"},{"id":"l7SRm5qKL1c","title":"صحيح البخاري - كتاب الأيمان والنذور (باب مَن حلف ألا يدخل على أهله شهرًا وكان الشهر تسعًا وعشرين)","publishedAt":"2017-11-07T06:13:20Z","duration":"PT40M5S","thumbnail":"https://i.ytimg.com/vi/l7SRm5qKL1c/mqdefault.jpg","viewCount":"153","playlistId":"PLEkQk5xrP-tmJuzaj4GWRenFoFx9gdbFX","playlistName":"شرح كتاب صحيح الإمام البخاري رضي الله تعالى عنه   أ.د. يسرى جبر","category":"حديث"},{"id":"jji8m9x1Mac","title":"صحيح الإمام البخاري رضي الله عنه - كتاب الأيمان والنذور (باب اليمين الغموس) د.يسري جبر","publishedAt":"2017-11-07T06:08:37Z","duration":"PT46M16S","thumbnail":"https://i.ytimg.com/vi/jji8m9x1Mac/mqdefault.jpg","viewCount":"104","playlistId":"PLEkQk5xrP-tmJuzaj4GWRenFoFx9gdbFX","playlistName":"شرح كتاب صحيح الإمام البخاري رضي الله تعالى عنه   أ.د. يسرى جبر","category":"حديث"},{"id":"4xcMw0xqpg4","title":"شرح صحيح البخاري- كتاب المناقب من باب ٢٧","publishedAt":"2017-11-05T21:05:00Z","duration":"PT31M41S","thumbnail":"https://i.ytimg.com/vi/4xcMw0xqpg4/mqdefault.jpg","viewCount":"587","playlistId":"PLEkQk5xrP-tlEerGoLa1AFy-2XvQ-sovv","playlistName":"شرح صحيح البخاري - أ.د. يسري جبر (كاملا)","category":"حديث"},{"id":"IOUFAy3DgiY","title":"شرح صحيح البخاري- كتاب المناقب تكملة باب ٢٦ المجلس السادس","publishedAt":"2017-11-04T13:36:48Z","duration":"PT29M52S","thumbnail":"https://i.ytimg.com/vi/IOUFAy3DgiY/mqdefault.jpg","viewCount":"547","playlistId":"PLEkQk5xrP-tlEerGoLa1AFy-2XvQ-sovv","playlistName":"شرح صحيح البخاري - أ.د. يسري جبر (كاملا)","category":"حديث"},{"id":"uFRDlzfIxbs","title":"شرح صحيح البخاري- كتاب المناقب تكملة باب ٢٦ المجلس الخامس","publishedAt":"2017-11-03T19:11:41Z","duration":"PT38M29S","thumbnail":"https://i.ytimg.com/vi/uFRDlzfIxbs/mqdefault.jpg","viewCount":"608","playlistId":"PLEkQk5xrP-tlEerGoLa1AFy-2XvQ-sovv","playlistName":"شرح صحيح البخاري - أ.د. يسري جبر (كاملا)","category":"حديث"},{"id":"s_NJBM7w9cY","title":"شرح صحيح البخاري- كتاب المناقب تكملة باب ٢٦ المجلس الرابع","publishedAt":"2017-11-03T10:54:11Z","duration":"PT35M3S","thumbnail":"https://i.ytimg.com/vi/s_NJBM7w9cY/mqdefault.jpg","viewCount":"592","playlistId":"PLEkQk5xrP-tlEerGoLa1AFy-2XvQ-sovv","playlistName":"شرح صحيح البخاري - أ.د. يسري جبر (كاملا)","category":"حديث"}],"total":1218,"page":2,"pageSize":24,"totalPages":51}