{"items":[{"id":"Pj27-hQ4O2I","title":"76- شرح اللؤلؤ والمرجان كتاب الحج من الباب السادس والثمانين","publishedAt":"2020-02-24T06:00:10Z","duration":"PT26M54S","thumbnail":"https://i.ytimg.com/vi/Pj27-hQ4O2I/mqdefault.jpg","viewCount":"366","playlistId":"PLEkQk5xrP-tmKNjtYLfhATC37QdIsTMe0","playlistName":"شرح كتاب اللؤلؤ والمرجان فيما اتفق عليه الشيخان إماما المحدثين البخاري ومسلم. أ.د. يسري جبر","category":"حديث"},{"id":"QjwKSezIfj4","title":"‎شرح صحيح الإمام البخاري رضي الله تعالى عنه - كتابُ التوحيد.","publishedAt":"2020-02-23T14:58:45Z","duration":"PT48M42S","thumbnail":"https://i.ytimg.com/vi/QjwKSezIfj4/mqdefault.jpg","viewCount":"592","playlistId":"PLEkQk5xrP-tmJuzaj4GWRenFoFx9gdbFX","playlistName":"شرح كتاب صحيح الإمام البخاري رضي الله تعالى عنه   أ.د. يسرى جبر","category":"حديث"},{"id":"-icP_4ECmrw","title":"75- شرح اللؤلؤ والمرجان كتاب الحج من الباب الخامس والثمانين","publishedAt":"2020-02-23T06:00:00Z","duration":"PT24M6S","thumbnail":"https://i.ytimg.com/vi/-icP_4ECmrw/mqdefault.jpg","viewCount":"333","playlistId":"PLEkQk5xrP-tmKNjtYLfhATC37QdIsTMe0","playlistName":"شرح كتاب اللؤلؤ والمرجان فيما اتفق عليه الشيخان إماما المحدثين البخاري ومسلم. أ.د. يسري جبر","category":"حديث"},{"id":"1AbvAIlF6pU","title":"74- شرح اللؤلؤ والمرجان كتاب الحج من الباب السادس والسبعين","publishedAt":"2020-02-22T06:00:01Z","duration":"PT23M37S","thumbnail":"https://i.ytimg.com/vi/1AbvAIlF6pU/mqdefault.jpg","viewCount":"418","playlistId":"PLEkQk5xrP-tmKNjtYLfhATC37QdIsTMe0","playlistName":"شرح كتاب اللؤلؤ والمرجان فيما اتفق عليه الشيخان إماما المحدثين البخاري ومسلم. أ.د. يسري جبر","category":"حديث"},{"id":"q7xcwr2OIw8","title":"73- شرح اللؤلؤ والمرجان كتاب الحج من الباب الثامن والستّين","publishedAt":"2020-02-21T06:00:06Z","duration":"PT36M8S","thumbnail":"https://i.ytimg.com/vi/q7xcwr2OIw8/mqdefault.jpg","viewCount":"469","playlistId":"PLEkQk5xrP-tmKNjtYLfhATC37QdIsTMe0","playlistName":"شرح كتاب اللؤلؤ والمرجان فيما اتفق عليه الشيخان إماما المحدثين البخاري ومسلم. أ.د. يسري جبر","category":"حديث"},{"id":"fwJl5gCnKXo","title":"72- شرح اللؤلؤ والمرجان كتاب الحج من الباب التاسع والخمسين","publishedAt":"2020-02-20T06:00:11Z","duration":"PT22M51S","thumbnail":"https://i.ytimg.com/vi/fwJl5gCnKXo/mqdefault.jpg","viewCount":"317","playlistId":"PLEkQk5xrP-tmKNjtYLfhATC37QdIsTMe0","playlistName":"شرح كتاب اللؤلؤ والمرجان فيما اتفق عليه الشيخان إماما المحدثين البخاري ومسلم. أ.د. يسري جبر","category":"حديث"},{"id":"JqgjQm1hkpw","title":"71- شرح اللؤلؤ والمرجان كتاب الحج من الباب التاسع والأربعين","publishedAt":"2020-02-19T06:00:05Z","duration":"PT23M38S","thumbnail":"https://i.ytimg.com/vi/JqgjQm1hkpw/mqdefault.jpg","viewCount":"391","playlistId":"PLEkQk5xrP-tmKNjtYLfhATC37QdIsTMe0","playlistName":"شرح كتاب اللؤلؤ والمرجان فيما اتفق عليه الشيخان إماما المحدثين البخاري ومسلم. أ.د. يسري جبر","category":"حديث"},{"id":"HNKa-pCT07k","title":"70- شرح اللؤلؤ والمرجان كتاب الحج من الباب الثالث والأربعين","publishedAt":"2020-02-18T06:00:02Z","duration":"PT19M12S","thumbnail":"https://i.ytimg.com/vi/HNKa-pCT07k/mqdefault.jpg","viewCount":"360","playlistId":"PLEkQk5xrP-tmKNjtYLfhATC37QdIsTMe0","playlistName":"شرح كتاب اللؤلؤ والمرجان فيما اتفق عليه الشيخان إماما المحدثين البخاري ومسلم. أ.د. يسري جبر","category":"حديث"},{"id":"hK7HgrGAAG0","title":"69- شرح اللؤلؤ والمرجان كتاب الحج من الباب الثامن والثلاثين","publishedAt":"2020-02-17T06:00:13Z","duration":"PT17M6S","thumbnail":"https://i.ytimg.com/vi/hK7HgrGAAG0/mqdefault.jpg","viewCount":"436","playlistId":"PLEkQk5xrP-tmKNjtYLfhATC37QdIsTMe0","playlistName":"شرح كتاب اللؤلؤ والمرجان فيما اتفق عليه الشيخان إماما المحدثين البخاري ومسلم. أ.د. يسري جبر","category":"حديث"},{"id":"pJbDIV-HJUM","title":"شرح صحيح الإمام البخاري رضي الله تعالى عنه - كتابُ التَّمَنِّي  أ.د. يسري جبر","publishedAt":"2019-10-29T14:41:52Z","duration":"PT24M6S","thumbnail":"https://i.ytimg.com/vi/pJbDIV-HJUM/mqdefault.jpg","viewCount":"436","playlistId":"PLEkQk5xrP-tmJuzaj4GWRenFoFx9gdbFX","playlistName":"شرح كتاب صحيح الإمام البخاري رضي الله تعالى عنه   أ.د. يسرى جبر","category":"حديث"},{"id":"sUGI69O5fbY","title":"شرح صحيح الإمام البخاري رضي الله تعالى عنه - كتابُِ الأَحْكَامِ أ.د. يسري جبر","publishedAt":"2019-07-16T22:40:49Z","duration":"PT37M39S","thumbnail":"https://i.ytimg.com/vi/sUGI69O5fbY/mqdefault.jpg","viewCount":"327","playlistId":"PLEkQk5xrP-tmJuzaj4GWRenFoFx9gdbFX","playlistName":"شرح كتاب صحيح الإمام البخاري رضي الله تعالى عنه   أ.د. يسرى جبر","category":"حديث"},{"id":"17kZi4wqIA4","title":"شرح صحيح الإمام البخاري رضي الله تعالى عنه - كتابُِ الأَحْكَامِ أ.د. يسري جبر","publishedAt":"2019-07-12T23:54:38Z","duration":"PT39M13S","thumbnail":"https://i.ytimg.com/vi/17kZi4wqIA4/mqdefault.jpg","viewCount":"372","playlistId":"PLEkQk5xrP-tmJuzaj4GWRenFoFx9gdbFX","playlistName":"شرح كتاب صحيح الإمام البخاري رضي الله تعالى عنه   أ.د. يسرى جبر","category":"حديث"},{"id":"jSmlUUGmtGY","title":"شرح كتاب الأذكار من كلام سيد الأبرار للإمام النووى رضى الله عنه - المجلس الأربعون","publishedAt":"2016-05-12T18:18:06Z","duration":"PT3M8S","thumbnail":"https://i.ytimg.com/vi/jSmlUUGmtGY/mqdefault.jpg","viewCount":"235","playlistId":"PLEkQk5xrP-tkWS57Ubysh0ifJR8dmuEtE","playlistName":"شرح كتاب الأذكار للإمام النووي د. يسرى جبر","category":"حديث"},{"id":"KEzcIwpy64E","title":"شرح كتاب الأذكار من كلام سيد الأبرار للإمام النووى رضى الله عنه - المجلس التاسع والعشرون","publishedAt":"2015-07-04T15:19:10Z","duration":"PT7M56S","thumbnail":"https://i.ytimg.com/vi/KEzcIwpy64E/mqdefault.jpg","viewCount":"264","playlistId":"PLEkQk5xrP-tkWS57Ubysh0ifJR8dmuEtE","playlistName":"شرح كتاب الأذكار للإمام النووي د. يسرى جبر","category":"حديث"},{"id":"wY-wX3LbVsM","title":"121- شرح اللؤلؤ والمرجان كتاب الإمارة من الباب الأربعين","publishedAt":"2020-04-21T20:05:54Z","duration":"PT37M41S","thumbnail":"https://i.ytimg.com/vi/wY-wX3LbVsM/mqdefault.jpg","viewCount":"577","playlistId":"PLEkQk5xrP-tmKNjtYLfhATC37QdIsTMe0","playlistName":"شرح كتاب اللؤلؤ والمرجان فيما اتفق عليه الشيخان إماما المحدثين البخاري ومسلم. أ.د. يسري جبر","category":"حديث"},{"id":"H2OOtAjS1Gs","title":"شرح صحيح الإمام البخاري رضي الله تعالى عنه - كتابُ التَّمَنِّي أ.د. يسري جبر","publishedAt":"2019-10-22T09:11:41Z","duration":"PT30M19S","thumbnail":"https://i.ytimg.com/vi/H2OOtAjS1Gs/mqdefault.jpg","viewCount":"311","playlistId":"PLEkQk5xrP-tmJuzaj4GWRenFoFx9gdbFX","playlistName":"شرح كتاب صحيح الإمام البخاري رضي الله تعالى عنه   أ.د. يسرى جبر","category":"حديث"},{"id":"XQq2-t2N7Ww","title":"شرح صحيح الإمام البخاري رضي الله تعالى عنه - كتابُ التَّمَنِّي     أ.د. يسري جبر","publishedAt":"2019-10-13T08:04:19Z","duration":"PT25M36S","thumbnail":"https://i.ytimg.com/vi/XQq2-t2N7Ww/mqdefault.jpg","viewCount":"420","playlistId":"PLEkQk5xrP-tmJuzaj4GWRenFoFx9gdbFX","playlistName":"شرح كتاب صحيح الإمام البخاري رضي الله تعالى عنه   أ.د. يسرى جبر","category":"حديث"},{"id":"AT--YDWg41k","title":"شرح صحيح الإمام البخاري رضي الله تعالى عنه - كتابُِ الأَحْكَامِ  أ.د. يسري جبر","publishedAt":"2019-10-01T16:42:49Z","duration":"PT30M6S","thumbnail":"https://i.ytimg.com/vi/AT--YDWg41k/mqdefault.jpg","viewCount":"291","playlistId":"PLEkQk5xrP-tmJuzaj4GWRenFoFx9gdbFX","playlistName":"شرح كتاب صحيح الإمام البخاري رضي الله تعالى عنه   أ.د. يسرى جبر","category":"حديث"}],"total":1218,"page":51,"pageSize":24,"totalPages":51}