{"items":[{"id":"r_X8AIUg7iw","title":"الاحتفال بختام ربيع الأنور وكلمة إمام مسجد سيدنا الحسين رضي الله عنه","publishedAt":"2021-11-09T21:06:30Z","duration":"PT23M25S","thumbnail":"https://i.ytimg.com/vi/r_X8AIUg7iw/mqdefault.jpg","viewCount":"2389","playlistId":"PLEkQk5xrP-tm8ZIu74nTOZN9KJUJu416J","playlistName":"مقاطع مُهمَّة (يُسريَّات) أ.د. يسري جبر","category":"متنوع"},{"id":"0IdotzWdclE","title":"كيف تُدافع عن نبيك ﷺ؟","publishedAt":"2021-11-13T18:00:01Z","duration":"PT11M20S","thumbnail":"https://i.ytimg.com/vi/0IdotzWdclE/mqdefault.jpg","viewCount":"3544","playlistId":"PLEkQk5xrP-tm8ZIu74nTOZN9KJUJu416J","playlistName":"مقاطع مُهمَّة (يُسريَّات) أ.د. يسري جبر","category":"متنوع"},{"id":"GSLXoeETu1U","title":"الفرق بين الشريعة والحقيقة والطريقة؟","publishedAt":"2021-11-15T20:23:50Z","duration":"PT26M50S","thumbnail":"https://i.ytimg.com/vi/GSLXoeETu1U/mqdefault.jpg","viewCount":"23297","playlistId":"PLEkQk5xrP-tm8ZIu74nTOZN9KJUJu416J","playlistName":"مقاطع مُهمَّة (يُسريَّات) أ.د. يسري جبر","category":"متنوع"},{"id":"aIxRo9B_jGw","title":"كيف تعطي بلا مقابل؟","publishedAt":"2021-11-19T20:18:13Z","duration":"PT15M41S","thumbnail":"https://i.ytimg.com/vi/aIxRo9B_jGw/mqdefault.jpg","viewCount":"6378","playlistId":"PLEkQk5xrP-tm8ZIu74nTOZN9KJUJu416J","playlistName":"مقاطع مُهمَّة (يُسريَّات) أ.د. يسري جبر","category":"متنوع"},{"id":"47TxVnmEEAg","title":"ما أهمية الأذكار الصوفية والرد على من ينكرها؟","publishedAt":"2021-12-05T18:45:53Z","duration":"PT14M41S","thumbnail":"https://i.ytimg.com/vi/47TxVnmEEAg/mqdefault.jpg","viewCount":"28529","playlistId":"PLEkQk5xrP-tm8ZIu74nTOZN9KJUJu416J","playlistName":"مقاطع مُهمَّة (يُسريَّات) أ.د. يسري جبر","category":"متنوع"},{"id":"S6Iw7WYVx2Q","title":"كم تكون نفقة الزوجة بعد الطلاق؟","publishedAt":"2021-12-07T18:48:43Z","duration":"PT8M1S","thumbnail":"https://i.ytimg.com/vi/S6Iw7WYVx2Q/mqdefault.jpg","viewCount":"12403","playlistId":"PLEkQk5xrP-tm8ZIu74nTOZN9KJUJu416J","playlistName":"مقاطع مُهمَّة (يُسريَّات) أ.د. يسري جبر","category":"متنوع"},{"id":"7gdXTIjoOPA","title":"متى يفتح الله على المريد؟","publishedAt":"2021-12-15T15:45:01Z","duration":"PT9M12S","thumbnail":"https://i.ytimg.com/vi/7gdXTIjoOPA/mqdefault.jpg","viewCount":"29815","playlistId":"PLEkQk5xrP-tm8ZIu74nTOZN9KJUJu416J","playlistName":"مقاطع مُهمَّة (يُسريَّات) أ.د. يسري جبر","category":"متنوع"},{"id":"Z5S2aNTe1pI","title":"قوة الاستماع","publishedAt":"2021-12-23T19:12:14Z","duration":"PT12M41S","thumbnail":"https://i.ytimg.com/vi/Z5S2aNTe1pI/mqdefault.jpg","viewCount":"6463","playlistId":"PLEkQk5xrP-tm8ZIu74nTOZN9KJUJu416J","playlistName":"مقاطع مُهمَّة (يُسريَّات) أ.د. يسري جبر","category":"متنوع"},{"id":"HUDHh0PDfsE","title":"ذكرى ميلاد سيدنا عيسى عليه السلام","publishedAt":"2022-01-04T19:46:55Z","duration":"PT14M15S","thumbnail":"https://i.ytimg.com/vi/HUDHh0PDfsE/mqdefault.jpg","viewCount":"4268","playlistId":"PLEkQk5xrP-tm8ZIu74nTOZN9KJUJu416J","playlistName":"مقاطع مُهمَّة (يُسريَّات) أ.د. يسري جبر","category":"متنوع"},{"id":"TKslnPSM0DQ","title":"كيف تربي أولادك تربية صحيحة في هذا الزمان؟","publishedAt":"2022-01-24T19:00:10Z","duration":"PT13M3S","thumbnail":"https://i.ytimg.com/vi/TKslnPSM0DQ/mqdefault.jpg","viewCount":"10533","playlistId":"PLEkQk5xrP-tm8ZIu74nTOZN9KJUJu416J","playlistName":"مقاطع مُهمَّة (يُسريَّات) أ.د. يسري جبر","category":"متنوع"},{"id":"3lQyCUlQy4A","title":"كيف نفهم شطحات بعض الأولياء؟","publishedAt":"2022-02-04T18:16:14Z","duration":"PT17M19S","thumbnail":"https://i.ytimg.com/vi/3lQyCUlQy4A/mqdefault.jpg","viewCount":"143304","playlistId":"PLEkQk5xrP-tm8ZIu74nTOZN9KJUJu416J","playlistName":"مقاطع مُهمَّة (يُسريَّات) أ.د. يسري جبر","category":"متنوع"},{"id":"kW-x03FbiMU","title":"مَنْ نازعك على دُنْيَا، اتركْها له وقلْ سَلَامٌ","publishedAt":"2022-03-09T18:22:08Z","duration":"PT12M8S","thumbnail":"https://i.ytimg.com/vi/kW-x03FbiMU/mqdefault.jpg","viewCount":"15093","playlistId":"PLEkQk5xrP-tm8ZIu74nTOZN9KJUJu416J","playlistName":"مقاطع مُهمَّة (يُسريَّات) أ.د. يسري جبر","category":"متنوع"},{"id":"f0B6tDzI8AU","title":"كيف تفهم معنى التفاؤل التشاؤم؟","publishedAt":"2022-03-18T18:00:34Z","duration":"PT14M58S","thumbnail":"https://i.ytimg.com/vi/f0B6tDzI8AU/mqdefault.jpg","viewCount":"4737","playlistId":"PLEkQk5xrP-tm8ZIu74nTOZN9KJUJu416J","playlistName":"مقاطع مُهمَّة (يُسريَّات) أ.د. يسري جبر","category":"متنوع"},{"id":"L0nD824YrEE","title":"كيف تطلب حاجتك من الله؟","publishedAt":"2022-03-21T17:44:15Z","duration":"PT8M4S","thumbnail":"https://i.ytimg.com/vi/L0nD824YrEE/mqdefault.jpg","viewCount":"11995","playlistId":"PLEkQk5xrP-tm8ZIu74nTOZN9KJUJu416J","playlistName":"مقاطع مُهمَّة (يُسريَّات) أ.د. يسري جبر","category":"متنوع"},{"id":"cmmVjRBuGsU","title":"كيف تستقبل رمضان بقلب سليم؟","publishedAt":"2022-03-31T19:54:58Z","duration":"PT16M58S","thumbnail":"https://i.ytimg.com/vi/cmmVjRBuGsU/mqdefault.jpg","viewCount":"6535","playlistId":"PLEkQk5xrP-tm8ZIu74nTOZN9KJUJu416J","playlistName":"مقاطع مُهمَّة (يُسريَّات) أ.د. يسري جبر","category":"متنوع"},{"id":"ipAwxGCAXiI","title":"ما هي آداب زيارة الأولياء والصالحين؟","publishedAt":"2022-04-14T19:30:03Z","duration":"PT8M36S","thumbnail":"https://i.ytimg.com/vi/ipAwxGCAXiI/mqdefault.jpg","viewCount":"12429","playlistId":"PLEkQk5xrP-tm8ZIu74nTOZN9KJUJu416J","playlistName":"مقاطع مُهمَّة (يُسريَّات) أ.د. يسري جبر","category":"متنوع"},{"id":"7gAOK-tidTs","title":"هل صلاة التراويح 20 ركعة سنة نبوية؟","publishedAt":"2022-04-20T19:30:00Z","duration":"PT12M46S","thumbnail":"https://i.ytimg.com/vi/7gAOK-tidTs/mqdefault.jpg","viewCount":"4651","playlistId":"PLEkQk5xrP-tm8ZIu74nTOZN9KJUJu416J","playlistName":"مقاطع مُهمَّة (يُسريَّات) أ.د. يسري جبر","category":"متنوع"},{"id":"7SliqxPymwM","title":"فضل العشر الأواخر من رمضان","publishedAt":"2022-04-21T15:30:02Z","duration":"PT16M56S","thumbnail":"https://i.ytimg.com/vi/7SliqxPymwM/mqdefault.jpg","viewCount":"22134","playlistId":"PLEkQk5xrP-tm8ZIu74nTOZN9KJUJu416J","playlistName":"مقاطع مُهمَّة (يُسريَّات) أ.د. يسري جبر","category":"متنوع"},{"id":"T6SzvUQDn_I","title":"ما الفرق بين المدارس الحكومية والخاصة؟","publishedAt":"2022-04-25T19:30:01Z","duration":"PT8M15S","thumbnail":"https://i.ytimg.com/vi/T6SzvUQDn_I/mqdefault.jpg","viewCount":"6940","playlistId":"PLEkQk5xrP-tm8ZIu74nTOZN9KJUJu416J","playlistName":"مقاطع مُهمَّة (يُسريَّات) أ.د. يسري جبر","category":"متنوع"},{"id":"p4p6ejFBsLY","title":"بعد رمضان ,, نصيحة لمن يريد حفظ القرآن","publishedAt":"2022-05-02T19:00:23Z","duration":"PT11M46S","thumbnail":"https://i.ytimg.com/vi/p4p6ejFBsLY/mqdefault.jpg","viewCount":"29191","playlistId":"PLEkQk5xrP-tm8ZIu74nTOZN9KJUJu416J","playlistName":"مقاطع مُهمَّة (يُسريَّات) أ.د. يسري جبر","category":"متنوع"},{"id":"TwtgQDgfrSQ","title":"حكم فوائد البنوك | أ.د. يسري جبر","publishedAt":"2022-05-04T18:15:02Z","duration":"PT12M10S","thumbnail":"https://i.ytimg.com/vi/TwtgQDgfrSQ/mqdefault.jpg","viewCount":"202240","playlistId":"PLEkQk5xrP-tm8ZIu74nTOZN9KJUJu416J","playlistName":"مقاطع مُهمَّة (يُسريَّات) أ.د. يسري جبر","category":"متنوع"},{"id":"aVJ65Boy-aU","title":"هل الاستماع إلى الأغاني حرام؟","publishedAt":"2022-05-05T18:00:00Z","duration":"PT11M40S","thumbnail":"https://i.ytimg.com/vi/aVJ65Boy-aU/mqdefault.jpg","viewCount":"21296","playlistId":"PLEkQk5xrP-tm8ZIu74nTOZN9KJUJu416J","playlistName":"مقاطع مُهمَّة (يُسريَّات) أ.د. يسري جبر","category":"متنوع"},{"id":"J5fwRVtLIR4","title":"هل يوجد مجاز في القرآن الكريم؟","publishedAt":"2022-05-06T18:00:06Z","duration":"PT8M42S","thumbnail":"https://i.ytimg.com/vi/J5fwRVtLIR4/mqdefault.jpg","viewCount":"4624","playlistId":"PLEkQk5xrP-tm8ZIu74nTOZN9KJUJu416J","playlistName":"مقاطع مُهمَّة (يُسريَّات) أ.د. يسري جبر","category":"متنوع"},{"id":"V3AglBHgm8Y","title":"كيف نواجه غلاء الأسعار؟","publishedAt":"2022-05-10T18:00:11Z","duration":"PT10M30S","thumbnail":"https://i.ytimg.com/vi/V3AglBHgm8Y/mqdefault.jpg","viewCount":"5405","playlistId":"PLEkQk5xrP-tm8ZIu74nTOZN9KJUJu416J","playlistName":"مقاطع مُهمَّة (يُسريَّات) أ.د. يسري جبر","category":"متنوع"}],"total":560,"page":16,"pageSize":24,"totalPages":24}