{"items":[{"id":"Pov1n_kjJ_k","title":"السَّمَاعُ عِبادة","publishedAt":"2020-07-16T19:12:01Z","duration":"PT4M42S","thumbnail":"https://i.ytimg.com/vi/Pov1n_kjJ_k/mqdefault.jpg","viewCount":"4308","playlistId":"PLEkQk5xrP-tm8ZIu74nTOZN9KJUJu416J","playlistName":"مقاطع مُهمَّة (يُسريَّات) أ.د. يسري جبر","category":"متنوع"},{"id":"r2_srCNFsmw","title":"كيف تعمل بما تسمعه؟","publishedAt":"2022-12-01T18:00:20Z","duration":"PT11M10S","thumbnail":"https://i.ytimg.com/vi/r2_srCNFsmw/mqdefault.jpg","viewCount":"4285","playlistId":"PLEkQk5xrP-tm8ZIu74nTOZN9KJUJu416J","playlistName":"مقاطع مُهمَّة (يُسريَّات) أ.د. يسري جبر","category":"متنوع"},{"id":"HUDHh0PDfsE","title":"ذكرى ميلاد سيدنا عيسى عليه السلام","publishedAt":"2022-01-04T19:46:55Z","duration":"PT14M15S","thumbnail":"https://i.ytimg.com/vi/HUDHh0PDfsE/mqdefault.jpg","viewCount":"4268","playlistId":"PLEkQk5xrP-tm8ZIu74nTOZN9KJUJu416J","playlistName":"مقاطع مُهمَّة (يُسريَّات) أ.د. يسري جبر","category":"متنوع"},{"id":"ypfag30SCQM","title":"ماذا حدث يوم وفاة النبي ﷺ؟","publishedAt":"2023-02-28T18:03:26Z","duration":"PT43M35S","thumbnail":"https://i.ytimg.com/vi/ypfag30SCQM/mqdefault.jpg","viewCount":"4218","playlistId":"PLEkQk5xrP-tm8ZIu74nTOZN9KJUJu416J","playlistName":"مقاطع مُهمَّة (يُسريَّات) أ.د. يسري جبر","category":"متنوع"},{"id":"h-3PzNg4uXM","title":"يَا مُغِيثُ أَغِثْنَا   أ.د. يسري جبر","publishedAt":"2020-03-24T16:04:21Z","duration":"PT2M24S","thumbnail":"https://i.ytimg.com/vi/h-3PzNg4uXM/mqdefault.jpg","viewCount":"4202","playlistId":"PLEkQk5xrP-tm8ZIu74nTOZN9KJUJu416J","playlistName":"مقاطع مُهمَّة (يُسريَّات) أ.د. يسري جبر","category":"متنوع"},{"id":"mYbre9dYCCA","title":"وصايا نبوية تحميك من الأمراض","publishedAt":"2025-03-13T19:00:40Z","duration":"PT9M49S","thumbnail":"https://i.ytimg.com/vi/mYbre9dYCCA/mqdefault.jpg","viewCount":"4188","playlistId":"PLEkQk5xrP-tm8ZIu74nTOZN9KJUJu416J","playlistName":"مقاطع مُهمَّة (يُسريَّات) أ.د. يسري جبر","category":"متنوع"},{"id":"g143o-Y2gDA","title":"هل صلاة التراويح بدعة؟","publishedAt":"2021-04-14T19:15:01Z","duration":"PT10M","thumbnail":"https://i.ytimg.com/vi/g143o-Y2gDA/mqdefault.jpg","viewCount":"4175","playlistId":"PLEkQk5xrP-tm8ZIu74nTOZN9KJUJu416J","playlistName":"مقاطع مُهمَّة (يُسريَّات) أ.د. يسري جبر","category":"متنوع"},{"id":"_uGA8Aet6-U","title":"قدسية عقد الزواج وسر نجاحه","publishedAt":"2022-09-01T19:00:24Z","duration":"PT20M35S","thumbnail":"https://i.ytimg.com/vi/_uGA8Aet6-U/mqdefault.jpg","viewCount":"4174","playlistId":"PLEkQk5xrP-tm8ZIu74nTOZN9KJUJu416J","playlistName":"مقاطع مُهمَّة (يُسريَّات) أ.د. يسري جبر","category":"متنوع"},{"id":"eGxq68inTeQ","title":"كيف تحافظ على عبادتك","publishedAt":"2020-08-25T19:43:45Z","duration":"PT5M39S","thumbnail":"https://i.ytimg.com/vi/eGxq68inTeQ/mqdefault.jpg","viewCount":"4161","playlistId":"PLEkQk5xrP-tm8ZIu74nTOZN9KJUJu416J","playlistName":"مقاطع مُهمَّة (يُسريَّات) أ.د. يسري جبر","category":"متنوع"},{"id":"QugBXFuHYEM","title":"حصاد 2022","publishedAt":"2022-12-31T18:01:33Z","duration":"PT14M26S","thumbnail":"https://i.ytimg.com/vi/QugBXFuHYEM/mqdefault.jpg","viewCount":"4149","playlistId":"PLEkQk5xrP-tm8ZIu74nTOZN9KJUJu416J","playlistName":"مقاطع مُهمَّة (يُسريَّات) أ.د. يسري جبر","category":"متنوع"},{"id":"p4P6hqktAOQ","title":"أنا من أهوى ومن أهوى أنا","publishedAt":"2016-07-07T12:39:37Z","duration":"PT1M9S","thumbnail":"https://i.ytimg.com/vi/p4P6hqktAOQ/mqdefault.jpg","viewCount":"4144","playlistId":"PLEkQk5xrP-tm8ZIu74nTOZN9KJUJu416J","playlistName":"مقاطع مُهمَّة (يُسريَّات) أ.د. يسري جبر","category":"متنوع"},{"id":"im2HysUhoVU","title":"التخلي والتحلي والتجلي","publishedAt":"2020-09-14T18:39:28Z","duration":"PT3M37S","thumbnail":"https://i.ytimg.com/vi/im2HysUhoVU/mqdefault.jpg","viewCount":"4138","playlistId":"PLEkQk5xrP-tm8ZIu74nTOZN9KJUJu416J","playlistName":"مقاطع مُهمَّة (يُسريَّات) أ.د. يسري جبر","category":"متنوع"},{"id":"xyZKY-ki9qE","title":"ثمرة مجالس الاحتفال بالمولد النبوى الشريف - د. يسري جبر","publishedAt":"2014-04-20T02:52:55Z","duration":"PT5M11S","thumbnail":"https://i.ytimg.com/vi/xyZKY-ki9qE/mqdefault.jpg","viewCount":"4136","playlistId":"PLEkQk5xrP-tm8ZIu74nTOZN9KJUJu416J","playlistName":"مقاطع مُهمَّة (يُسريَّات) أ.د. يسري جبر","category":"متنوع"},{"id":"cHbV-w27-SE","title":"كيف أتعامل مع الأولياء والمشايخ وما هي آداب زيارتهم؟","publishedAt":"2024-08-27T17:07:52Z","duration":"PT8M42S","thumbnail":"https://i.ytimg.com/vi/cHbV-w27-SE/mqdefault.jpg","viewCount":"4131","playlistId":"PLEkQk5xrP-tm8ZIu74nTOZN9KJUJu416J","playlistName":"مقاطع مُهمَّة (يُسريَّات) أ.د. يسري جبر","category":"متنوع"},{"id":"oc3zfcb29y8","title":"النبي ﷺ هو النعمة الكبرى","publishedAt":"2020-06-27T20:08:48Z","duration":"PT5M48S","thumbnail":"https://i.ytimg.com/vi/oc3zfcb29y8/mqdefault.jpg","viewCount":"4114","playlistId":"PLEkQk5xrP-tm8ZIu74nTOZN9KJUJu416J","playlistName":"مقاطع مُهمَّة (يُسريَّات) أ.د. يسري جبر","category":"متنوع"},{"id":"8ZI-e_UE1ho","title":"ما هو نور القديم؟","publishedAt":"2023-03-12T18:09:07Z","duration":"PT14M5S","thumbnail":"https://i.ytimg.com/vi/8ZI-e_UE1ho/mqdefault.jpg","viewCount":"4104","playlistId":"PLEkQk5xrP-tm8ZIu74nTOZN9KJUJu416J","playlistName":"مقاطع مُهمَّة (يُسريَّات) أ.د. يسري جبر","category":"متنوع"},{"id":"NwUDVZ4KmLc","title":"كيف انتهت تجارة العبيد والجواري وقصة تحرر المماليك؟","publishedAt":"2022-12-02T18:00:10Z","duration":"PT10M21S","thumbnail":"https://i.ytimg.com/vi/NwUDVZ4KmLc/mqdefault.jpg","viewCount":"4102","playlistId":"PLEkQk5xrP-tm8ZIu74nTOZN9KJUJu416J","playlistName":"مقاطع مُهمَّة (يُسريَّات) أ.د. يسري جبر","category":"متنوع"},{"id":"EzW9RvsX0Ag","title":"الصبر بالله لا بالنفس","publishedAt":"2020-06-17T15:38:44Z","duration":"PT5M24S","thumbnail":"https://i.ytimg.com/vi/EzW9RvsX0Ag/mqdefault.jpg","viewCount":"4082","playlistId":"PLEkQk5xrP-tm8ZIu74nTOZN9KJUJu416J","playlistName":"مقاطع مُهمَّة (يُسريَّات) أ.د. يسري جبر","category":"متنوع"},{"id":"C0aa-l2R8oc","title":"الموقف تجاه الفتنة الكبرى بين الصحابة  د. يسرى جبر","publishedAt":"2015-12-07T16:30:59Z","duration":"PT3M28S","thumbnail":"https://i.ytimg.com/vi/C0aa-l2R8oc/mqdefault.jpg","viewCount":"4066","playlistId":"PLEkQk5xrP-tm8ZIu74nTOZN9KJUJu416J","playlistName":"مقاطع مُهمَّة (يُسريَّات) أ.د. يسري جبر","category":"متنوع"},{"id":"WEkdnRIaxkU","title":"كيف تصبر عند الصدمة الأولى؟","publishedAt":"2020-06-16T17:48:44Z","duration":"PT18M27S","thumbnail":"https://i.ytimg.com/vi/WEkdnRIaxkU/mqdefault.jpg","viewCount":"4061","playlistId":"PLEkQk5xrP-tm8ZIu74nTOZN9KJUJu416J","playlistName":"مقاطع مُهمَّة (يُسريَّات) أ.د. يسري جبر","category":"متنوع"},{"id":"UKPPJw0fFAE","title":"الحياءُ من الله","publishedAt":"2020-07-03T20:48:19Z","duration":"PT8M49S","thumbnail":"https://i.ytimg.com/vi/UKPPJw0fFAE/mqdefault.jpg","viewCount":"4054","playlistId":"PLEkQk5xrP-tm8ZIu74nTOZN9KJUJu416J","playlistName":"مقاطع مُهمَّة (يُسريَّات) أ.د. يسري جبر","category":"متنوع"},{"id":"VZMOtcJvMEo","title":"الانقطاع عن النَّفْس","publishedAt":"2020-08-14T19:20:30Z","duration":"PT4M5S","thumbnail":"https://i.ytimg.com/vi/VZMOtcJvMEo/mqdefault.jpg","viewCount":"4046","playlistId":"PLEkQk5xrP-tm8ZIu74nTOZN9KJUJu416J","playlistName":"مقاطع مُهمَّة (يُسريَّات) أ.د. يسري جبر","category":"متنوع"},{"id":"EJ0ErvShWlg","title":"التصوف بين العلم والسلوك","publishedAt":"2020-05-29T18:49:42Z","duration":"PT9M20S","thumbnail":"https://i.ytimg.com/vi/EJ0ErvShWlg/mqdefault.jpg","viewCount":"4037","playlistId":"PLEkQk5xrP-tm8ZIu74nTOZN9KJUJu416J","playlistName":"مقاطع مُهمَّة (يُسريَّات) أ.د. يسري جبر","category":"متنوع"},{"id":"E_qm5orDoIc","title":"درجات التوكُّل","publishedAt":"2020-10-04T20:06:50Z","duration":"PT14M1S","thumbnail":"https://i.ytimg.com/vi/E_qm5orDoIc/mqdefault.jpg","viewCount":"4017","playlistId":"PLEkQk5xrP-tm8ZIu74nTOZN9KJUJu416J","playlistName":"مقاطع مُهمَّة (يُسريَّات) أ.د. يسري جبر","category":"متنوع"}],"total":560,"page":17,"pageSize":24,"totalPages":24}