{"items":[{"id":"SOdtAQlGiIk","title":"أفضل طرق المذاكرة","publishedAt":"2021-01-05T18:29:08Z","duration":"PT15M40S","thumbnail":"https://i.ytimg.com/vi/SOdtAQlGiIk/mqdefault.jpg","viewCount":"47194","playlistId":"PLEkQk5xrP-tm8ZIu74nTOZN9KJUJu416J","playlistName":"مقاطع مُهمَّة (يُسريَّات) أ.د. يسري جبر","category":"متنوع"},{"id":"M_kdSWpAxQ0","title":"هل يجوز زواج المسلمة من غير المسلم؟","publishedAt":"2020-11-21T18:00:06Z","duration":"PT18M57S","thumbnail":"https://i.ytimg.com/vi/M_kdSWpAxQ0/mqdefault.jpg","viewCount":"45810","playlistId":"PLEkQk5xrP-tm8ZIu74nTOZN9KJUJu416J","playlistName":"مقاطع مُهمَّة (يُسريَّات) أ.د. يسري جبر","category":"متنوع"},{"id":"j1XHz6Sutlo","title":"خصائص النبي فى الأكوان د يسري جبر احتفال المولد النبوي بمضيفة الدح","publishedAt":"2016-12-07T11:56:02Z","duration":"PT25M59S","thumbnail":"https://i.ytimg.com/vi/j1XHz6Sutlo/mqdefault.jpg","viewCount":"45761","playlistId":"PLEkQk5xrP-tm8ZIu74nTOZN9KJUJu416J","playlistName":"مقاطع مُهمَّة (يُسريَّات) أ.د. يسري جبر","category":"متنوع"},{"id":"hQ4DKI72YOA","title":"كيف تعرف الشيخ المُربـّـِى ؟","publishedAt":"2014-04-09T16:41:08Z","duration":"PT5M12S","thumbnail":"https://i.ytimg.com/vi/hQ4DKI72YOA/mqdefault.jpg","viewCount":"44848","playlistId":"PLEkQk5xrP-tm8ZIu74nTOZN9KJUJu416J","playlistName":"مقاطع مُهمَّة (يُسريَّات) أ.د. يسري جبر","category":"متنوع"},{"id":"uFI7mGX3GUU","title":"الرد على التساؤلات الوهابية","publishedAt":"2021-03-02T18:42:00Z","duration":"PT12M34S","thumbnail":"https://i.ytimg.com/vi/uFI7mGX3GUU/mqdefault.jpg","viewCount":"43455","playlistId":"PLEkQk5xrP-tm8ZIu74nTOZN9KJUJu416J","playlistName":"مقاطع مُهمَّة (يُسريَّات) أ.د. يسري جبر","category":"متنوع"},{"id":"_RRARFp6g00","title":"ما هو التصوف؟","publishedAt":"2021-03-03T19:55:40Z","duration":"PT15M44S","thumbnail":"https://i.ytimg.com/vi/_RRARFp6g00/mqdefault.jpg","viewCount":"40975","playlistId":"PLEkQk5xrP-tm8ZIu74nTOZN9KJUJu416J","playlistName":"مقاطع مُهمَّة (يُسريَّات) أ.د. يسري جبر","category":"متنوع"},{"id":"-h4UDUM08TY","title":"كن متمسكا بدلائل الخيرات","publishedAt":"2020-10-26T19:11:27Z","duration":"PT7M4S","thumbnail":"https://i.ytimg.com/vi/-h4UDUM08TY/mqdefault.jpg","viewCount":"37974","playlistId":"PLEkQk5xrP-tm8ZIu74nTOZN9KJUJu416J","playlistName":"مقاطع مُهمَّة (يُسريَّات) أ.د. يسري جبر","category":"متنوع"},{"id":"sEDqIbZ4srQ","title":"فتنة الدجال وظهور المهدي","publishedAt":"2020-11-14T18:05:35Z","duration":"PT10M13S","thumbnail":"https://i.ytimg.com/vi/sEDqIbZ4srQ/mqdefault.jpg","viewCount":"36817","playlistId":"PLEkQk5xrP-tm8ZIu74nTOZN9KJUJu416J","playlistName":"مقاطع مُهمَّة (يُسريَّات) أ.د. يسري جبر","category":"متنوع"},{"id":"115ELEvz1_U","title":"ما هو التصوف,, ومن هم الصوفية؟؟","publishedAt":"2021-09-07T17:41:42Z","duration":"PT18M51S","thumbnail":"https://i.ytimg.com/vi/115ELEvz1_U/mqdefault.jpg","viewCount":"36716","playlistId":"PLEkQk5xrP-tm8ZIu74nTOZN9KJUJu416J","playlistName":"مقاطع مُهمَّة (يُسريَّات) أ.د. يسري جبر","category":"متنوع"},{"id":"4EAf9u36PDc","title":"تساؤلات الوهابية","publishedAt":"2021-01-20T18:07:13Z","duration":"PT9M31S","thumbnail":"https://i.ytimg.com/vi/4EAf9u36PDc/mqdefault.jpg","viewCount":"36388","playlistId":"PLEkQk5xrP-tm8ZIu74nTOZN9KJUJu416J","playlistName":"مقاطع مُهمَّة (يُسريَّات) أ.د. يسري جبر","category":"متنوع"},{"id":"lHE8vtw6qA4","title":"معنى وحدة الوجود عند أهل السنة والجماعة","publishedAt":"2013-11-30T19:12:47Z","duration":"PT7M43S","thumbnail":"https://i.ytimg.com/vi/lHE8vtw6qA4/mqdefault.jpg","viewCount":"35883","playlistId":"PLEkQk5xrP-tm8ZIu74nTOZN9KJUJu416J","playlistName":"مقاطع مُهمَّة (يُسريَّات) أ.د. يسري جبر","category":"متنوع"},{"id":"rKilpuQUo0Q","title":"شتات الفكر وضياع الوقت","publishedAt":"2020-08-11T18:29:39Z","duration":"PT12M41S","thumbnail":"https://i.ytimg.com/vi/rKilpuQUo0Q/mqdefault.jpg","viewCount":"35662","playlistId":"PLEkQk5xrP-tm8ZIu74nTOZN9KJUJu416J","playlistName":"مقاطع مُهمَّة (يُسريَّات) أ.د. يسري جبر","category":"متنوع"},{"id":"MSH0Be4hrSQ","title":"كيف تفهم الإشارات","publishedAt":"2020-07-17T19:28:07Z","duration":"PT11M34S","thumbnail":"https://i.ytimg.com/vi/MSH0Be4hrSQ/mqdefault.jpg","viewCount":"34946","playlistId":"PLEkQk5xrP-tm8ZIu74nTOZN9KJUJu416J","playlistName":"مقاطع مُهمَّة (يُسريَّات) أ.د. يسري جبر","category":"متنوع"},{"id":"He7to-RWtfE","title":"هل أستطيع رؤية النبي ﷺ يقظة؟","publishedAt":"2021-04-06T18:37:06Z","duration":"PT10M37S","thumbnail":"https://i.ytimg.com/vi/He7to-RWtfE/mqdefault.jpg","viewCount":"34284","playlistId":"PLEkQk5xrP-tm8ZIu74nTOZN9KJUJu416J","playlistName":"مقاطع مُهمَّة (يُسريَّات) أ.د. يسري جبر","category":"متنوع"},{"id":"reBsvD53jQY","title":"الفرق بين القَدَر والعِلْم والإرادة والقُدرة","publishedAt":"2021-01-11T19:00:09Z","duration":"PT13M55S","thumbnail":"https://i.ytimg.com/vi/reBsvD53jQY/mqdefault.jpg","viewCount":"33217","playlistId":"PLEkQk5xrP-tm8ZIu74nTOZN9KJUJu416J","playlistName":"مقاطع مُهمَّة (يُسريَّات) أ.د. يسري جبر","category":"متنوع"},{"id":"hLxVUzlP4Ls","title":"معنى حديث الجارية عند أهل السنة والجماعة والرد على الوهابية المجسمة","publishedAt":"2013-10-09T10:59:46Z","duration":"PT7M33S","thumbnail":"https://i.ytimg.com/vi/hLxVUzlP4Ls/mqdefault.jpg","viewCount":"31850","playlistId":"PLEkQk5xrP-tm8ZIu74nTOZN9KJUJu416J","playlistName":"مقاطع مُهمَّة (يُسريَّات) أ.د. يسري جبر","category":"متنوع"},{"id":"Y6hX6N47YKg","title":"كيف أتعامل مع صديقي الوهابي؟","publishedAt":"2021-02-10T19:56:08Z","duration":"PT8M2S","thumbnail":"https://i.ytimg.com/vi/Y6hX6N47YKg/mqdefault.jpg","viewCount":"31616","playlistId":"PLEkQk5xrP-tm8ZIu74nTOZN9KJUJu416J","playlistName":"مقاطع مُهمَّة (يُسريَّات) أ.د. يسري جبر","category":"متنوع"},{"id":"DqGGVU_haTc","title":"ليه الست دايما بتتألم في حياتها؟","publishedAt":"2023-05-01T18:00:09Z","duration":"PT16M34S","thumbnail":"https://i.ytimg.com/vi/DqGGVU_haTc/mqdefault.jpg","viewCount":"30145","playlistId":"PLEkQk5xrP-tm8ZIu74nTOZN9KJUJu416J","playlistName":"مقاطع مُهمَّة (يُسريَّات) أ.د. يسري جبر","category":"متنوع"},{"id":"dOfLo8-VhXE","title":"من هو أول خلق الله؟","publishedAt":"2021-02-06T18:56:05Z","duration":"PT15M12S","thumbnail":"https://i.ytimg.com/vi/dOfLo8-VhXE/mqdefault.jpg","viewCount":"29939","playlistId":"PLEkQk5xrP-tm8ZIu74nTOZN9KJUJu416J","playlistName":"مقاطع مُهمَّة (يُسريَّات) أ.د. يسري جبر","category":"متنوع"},{"id":"gf12TKOWgtQ","title":"كيف تختار شيخ الطريقة؟","publishedAt":"2014-04-29T14:21:01Z","duration":"PT2M27S","thumbnail":"https://i.ytimg.com/vi/gf12TKOWgtQ/mqdefault.jpg","viewCount":"29886","playlistId":"PLEkQk5xrP-tm8ZIu74nTOZN9KJUJu416J","playlistName":"مقاطع مُهمَّة (يُسريَّات) أ.د. يسري جبر","category":"متنوع"},{"id":"kDaf1MBH_oQ","title":"ما هو سر زيادة الرزق؟","publishedAt":"2022-06-02T18:29:57Z","duration":"PT8M30S","thumbnail":"https://i.ytimg.com/vi/kDaf1MBH_oQ/mqdefault.jpg","viewCount":"29845","playlistId":"PLEkQk5xrP-tm8ZIu74nTOZN9KJUJu416J","playlistName":"مقاطع مُهمَّة (يُسريَّات) أ.د. يسري جبر","category":"متنوع"},{"id":"7gdXTIjoOPA","title":"متى يفتح الله على المريد؟","publishedAt":"2021-12-15T15:45:01Z","duration":"PT9M12S","thumbnail":"https://i.ytimg.com/vi/7gdXTIjoOPA/mqdefault.jpg","viewCount":"29815","playlistId":"PLEkQk5xrP-tm8ZIu74nTOZN9KJUJu416J","playlistName":"مقاطع مُهمَّة (يُسريَّات) أ.د. يسري جبر","category":"متنوع"},{"id":"Oox4haeeVEU","title":"هل الخضر عليه السلام ما زال حيًا ؟","publishedAt":"2021-02-20T18:58:14Z","duration":"PT11M57S","thumbnail":"https://i.ytimg.com/vi/Oox4haeeVEU/mqdefault.jpg","viewCount":"29532","playlistId":"PLEkQk5xrP-tm8ZIu74nTOZN9KJUJu416J","playlistName":"مقاطع مُهمَّة (يُسريَّات) أ.د. يسري جبر","category":"متنوع"},{"id":"p4p6ejFBsLY","title":"بعد رمضان ,, نصيحة لمن يريد حفظ القرآن","publishedAt":"2022-05-02T19:00:23Z","duration":"PT11M46S","thumbnail":"https://i.ytimg.com/vi/p4p6ejFBsLY/mqdefault.jpg","viewCount":"29191","playlistId":"PLEkQk5xrP-tm8ZIu74nTOZN9KJUJu416J","playlistName":"مقاطع مُهمَّة (يُسريَّات) أ.د. يسري جبر","category":"متنوع"}],"total":560,"page":3,"pageSize":24,"totalPages":24}