{"items":[{"id":"PArlAkVg0_4","title":"كرامات السيد أحمد البدوي رضي اللهُ عنه","publishedAt":"2021-10-02T19:00:17Z","duration":"PT9M8S","thumbnail":"https://i.ytimg.com/vi/PArlAkVg0_4/mqdefault.jpg","viewCount":"289099","playlistId":"PLEkQk5xrP-tm8ZIu74nTOZN9KJUJu416J","playlistName":"مقاطع مُهمَّة (يُسريَّات) أ.د. يسري جبر","category":"متنوع"},{"id":"ISBi95KWyr0","title":"نبذة عن سيدى أحمد البدوى رضى الله عنه","publishedAt":"2014-04-21T20:05:32Z","duration":"PT24M55S","thumbnail":"https://i.ytimg.com/vi/ISBi95KWyr0/mqdefault.jpg","viewCount":"234353","playlistId":"PLEkQk5xrP-tm8ZIu74nTOZN9KJUJu416J","playlistName":"مقاطع مُهمَّة (يُسريَّات) أ.د. يسري جبر","category":"متنوع"},{"id":"TwtgQDgfrSQ","title":"حكم فوائد البنوك | أ.د. يسري جبر","publishedAt":"2022-05-04T18:15:02Z","duration":"PT12M10S","thumbnail":"https://i.ytimg.com/vi/TwtgQDgfrSQ/mqdefault.jpg","viewCount":"202240","playlistId":"PLEkQk5xrP-tm8ZIu74nTOZN9KJUJu416J","playlistName":"مقاطع مُهمَّة (يُسريَّات) أ.د. يسري جبر","category":"متنوع"},{"id":"thm0OFPjhac","title":"هل الصلاة على النبي ﷺ أفضل من الذكر بلا إله إلا الله؟","publishedAt":"2022-11-24T18:00:22Z","duration":"PT8M31S","thumbnail":"https://i.ytimg.com/vi/thm0OFPjhac/mqdefault.jpg","viewCount":"187044","playlistId":"PLEkQk5xrP-tm8ZIu74nTOZN9KJUJu416J","playlistName":"مقاطع مُهمَّة (يُسريَّات) أ.د. يسري جبر","category":"متنوع"},{"id":"0Ep3YzxWW34","title":"الفرق بين النفس والقلب والعقل والروح والسر | أ.د. يسري جبر","publishedAt":"2014-03-08T17:51:00Z","duration":"PT21M12S","thumbnail":"https://i.ytimg.com/vi/0Ep3YzxWW34/mqdefault.jpg","viewCount":"177618","playlistId":"PLEkQk5xrP-tm8ZIu74nTOZN9KJUJu416J","playlistName":"مقاطع مُهمَّة (يُسريَّات) أ.د. يسري جبر","category":"متنوع"},{"id":"zbB7vnhxtOE","title":"نهاية العالم","publishedAt":"2020-11-23T19:12:48Z","duration":"PT10M47S","thumbnail":"https://i.ytimg.com/vi/zbB7vnhxtOE/mqdefault.jpg","viewCount":"151469","playlistId":"PLEkQk5xrP-tm8ZIu74nTOZN9KJUJu416J","playlistName":"مقاطع مُهمَّة (يُسريَّات) أ.د. يسري جبر","category":"متنوع"},{"id":"vrk0kW3UKqM","title":"ما هو التصوف وما هي الطريقة ومتى آخذها؟","publishedAt":"2023-03-14T18:00:31Z","duration":"PT28M43S","thumbnail":"https://i.ytimg.com/vi/vrk0kW3UKqM/mqdefault.jpg","viewCount":"146135","playlistId":"PLEkQk5xrP-tm8ZIu74nTOZN9KJUJu416J","playlistName":"مقاطع مُهمَّة (يُسريَّات) أ.د. يسري جبر","category":"متنوع"},{"id":"3lQyCUlQy4A","title":"كيف نفهم شطحات بعض الأولياء؟","publishedAt":"2022-02-04T18:16:14Z","duration":"PT17M19S","thumbnail":"https://i.ytimg.com/vi/3lQyCUlQy4A/mqdefault.jpg","viewCount":"143304","playlistId":"PLEkQk5xrP-tm8ZIu74nTOZN9KJUJu416J","playlistName":"مقاطع مُهمَّة (يُسريَّات) أ.د. يسري جبر","category":"متنوع"},{"id":"q_sclrrZ_JY","title":"ما هي الأسرار التي تُكشف للأولياء؟","publishedAt":"2021-01-28T18:36:45Z","duration":"PT10M49S","thumbnail":"https://i.ytimg.com/vi/q_sclrrZ_JY/mqdefault.jpg","viewCount":"121061","playlistId":"PLEkQk5xrP-tm8ZIu74nTOZN9KJUJu416J","playlistName":"مقاطع مُهمَّة (يُسريَّات) أ.د. يسري جبر","category":"متنوع"},{"id":"kFTcJSBojCo","title":"هل يوجد ربا في فوائد البنوك,, وما هي أنواع الربا؟","publishedAt":"2022-12-29T18:00:14Z","duration":"PT10M23S","thumbnail":"https://i.ytimg.com/vi/kFTcJSBojCo/mqdefault.jpg","viewCount":"113490","playlistId":"PLEkQk5xrP-tm8ZIu74nTOZN9KJUJu416J","playlistName":"مقاطع مُهمَّة (يُسريَّات) أ.د. يسري جبر","category":"متنوع"},{"id":"djn4vMWEgBc","title":"ما هي عقيدة الأشاعرة؟","publishedAt":"2021-06-14T19:30:02Z","duration":"PT11M45S","thumbnail":"https://i.ytimg.com/vi/djn4vMWEgBc/mqdefault.jpg","viewCount":"110210","playlistId":"PLEkQk5xrP-tm8ZIu74nTOZN9KJUJu416J","playlistName":"مقاطع مُهمَّة (يُسريَّات) أ.د. يسري جبر","category":"متنوع"},{"id":"r-Yw83ZH6Ik","title":"فضيلة حزب البحر وأهميته في عصر الحداثة وما بعد الحداثة | أ.د. يسري جبر","publishedAt":"2015-08-11T18:48:51Z","duration":"PT42M23S","thumbnail":"https://i.ytimg.com/vi/r-Yw83ZH6Ik/mqdefault.jpg","viewCount":"109324","playlistId":"PLEkQk5xrP-tm8ZIu74nTOZN9KJUJu416J","playlistName":"مقاطع مُهمَّة (يُسريَّات) أ.د. يسري جبر","category":"متنوع"},{"id":"h2tgBh9ulmk","title":"هل رؤية النبي ﷺ في المنام دليل على الولاية؟؟","publishedAt":"2020-12-29T18:15:46Z","duration":"PT10M4S","thumbnail":"https://i.ytimg.com/vi/h2tgBh9ulmk/mqdefault.jpg","viewCount":"105670","playlistId":"PLEkQk5xrP-tm8ZIu74nTOZN9KJUJu416J","playlistName":"مقاطع مُهمَّة (يُسريَّات) أ.د. يسري جبر","category":"متنوع"},{"id":"8umGwDevU10","title":"نصيحة لمن يريد حفظ القرآن بعد رمضان","publishedAt":"2025-03-27T19:30:01Z","duration":"PT11M47S","thumbnail":"https://i.ytimg.com/vi/8umGwDevU10/mqdefault.jpg","viewCount":"99870","playlistId":"PLEkQk5xrP-tm8ZIu74nTOZN9KJUJu416J","playlistName":"مقاطع مُهمَّة (يُسريَّات) أ.د. يسري جبر","category":"متنوع"},{"id":"haEn1rN0m2I","title":"فضل الصلاة على النبي ﷺ","publishedAt":"2020-10-28T19:18:08Z","duration":"PT17M55S","thumbnail":"https://i.ytimg.com/vi/haEn1rN0m2I/mqdefault.jpg","viewCount":"99843","playlistId":"PLEkQk5xrP-tm8ZIu74nTOZN9KJUJu416J","playlistName":"مقاطع مُهمَّة (يُسريَّات) أ.د. يسري جبر","category":"متنوع"},{"id":"QRsidHhS2bc","title":"فائدة الدخول فى طريق التصوف ومبايعة الشيخ | أ.د. يسري جبر","publishedAt":"2014-10-15T18:58:15Z","duration":"PT10M13S","thumbnail":"https://i.ytimg.com/vi/QRsidHhS2bc/mqdefault.jpg","viewCount":"98174","playlistId":"PLEkQk5xrP-tm8ZIu74nTOZN9KJUJu416J","playlistName":"مقاطع مُهمَّة (يُسريَّات) أ.د. يسري جبر","category":"متنوع"},{"id":"IyrWSL4jd00","title":"كيفية قراءة الأوراد","publishedAt":"2021-04-10T19:40:12Z","duration":"PT23M23S","thumbnail":"https://i.ytimg.com/vi/IyrWSL4jd00/mqdefault.jpg","viewCount":"92359","playlistId":"PLEkQk5xrP-tm8ZIu74nTOZN9KJUJu416J","playlistName":"مقاطع مُهمَّة (يُسريَّات) أ.د. يسري جبر","category":"متنوع"},{"id":"Sud5BTJ7liY","title":"كيف تصبح غنيا؟","publishedAt":"2021-01-12T18:42:48Z","duration":"PT12M10S","thumbnail":"https://i.ytimg.com/vi/Sud5BTJ7liY/mqdefault.jpg","viewCount":"91672","playlistId":"PLEkQk5xrP-tm8ZIu74nTOZN9KJUJu416J","playlistName":"مقاطع مُهمَّة (يُسريَّات) أ.د. يسري جبر","category":"متنوع"},{"id":"wC-rrnchtBo","title":"معنى مدد يا مولانا ياحسين؟","publishedAt":"2020-12-22T18:32:54Z","duration":"PT11M17S","thumbnail":"https://i.ytimg.com/vi/wC-rrnchtBo/mqdefault.jpg","viewCount":"85865","playlistId":"PLEkQk5xrP-tm8ZIu74nTOZN9KJUJu416J","playlistName":"مقاطع مُهمَّة (يُسريَّات) أ.د. يسري جبر","category":"متنوع"},{"id":"oXWiNMaIVSY","title":"هل السحر خرافة ؟","publishedAt":"2021-01-19T18:49:49Z","duration":"PT9M13S","thumbnail":"https://i.ytimg.com/vi/oXWiNMaIVSY/mqdefault.jpg","viewCount":"84489","playlistId":"PLEkQk5xrP-tm8ZIu74nTOZN9KJUJu416J","playlistName":"مقاطع مُهمَّة (يُسريَّات) أ.د. يسري جبر","category":"متنوع"},{"id":"yffaCPgAW_c","title":"ظاهرة خسوف القمر وكيفية صلاة الخسوف؟","publishedAt":"2025-09-07T09:15:13Z","duration":"PT12M45S","thumbnail":"https://i.ytimg.com/vi/yffaCPgAW_c/mqdefault.jpg","viewCount":"82790","playlistId":"PLEkQk5xrP-tm8ZIu74nTOZN9KJUJu416J","playlistName":"مقاطع مُهمَّة (يُسريَّات) أ.د. يسري جبر","category":"متنوع"},{"id":"Tt1IHeksHvI","title":"كيف تتوكل على الله حق التوكل؟","publishedAt":"2022-05-12T19:00:15Z","duration":"PT17M15S","thumbnail":"https://i.ytimg.com/vi/Tt1IHeksHvI/mqdefault.jpg","viewCount":"72127","playlistId":"PLEkQk5xrP-tm8ZIu74nTOZN9KJUJu416J","playlistName":"مقاطع مُهمَّة (يُسريَّات) أ.د. يسري جبر","category":"متنوع"},{"id":"b6MNH1ekDuk","title":"الفتوحات الربانية حول المعانى القرآنية - د. يسري جبر","publishedAt":"2014-09-29T19:49:21Z","duration":"PT24M20S","thumbnail":"https://i.ytimg.com/vi/b6MNH1ekDuk/mqdefault.jpg","viewCount":"68911","playlistId":"PLEkQk5xrP-tm8ZIu74nTOZN9KJUJu416J","playlistName":"مقاطع مُهمَّة (يُسريَّات) أ.د. يسري جبر","category":"متنوع"},{"id":"zBD-D5Oz8gg","title":"سيدي أبو الحسن الشاذلي | أ.د. يسري جبر","publishedAt":"2021-06-28T21:15:01Z","duration":"PT17M57S","thumbnail":"https://i.ytimg.com/vi/zBD-D5Oz8gg/mqdefault.jpg","viewCount":"68516","playlistId":"PLEkQk5xrP-tm8ZIu74nTOZN9KJUJu416J","playlistName":"مقاطع مُهمَّة (يُسريَّات) أ.د. يسري جبر","category":"متنوع"}],"total":560,"page":1,"pageSize":24,"totalPages":24}