{"items":[{"id":"WI-85HOTOOY","title":"الرسالة القشيرية - المجلس السادس و العشرون - (التواجد والوجد والوجود).","publishedAt":"2018-08-09T05:34:32Z","duration":"PT50M52S","thumbnail":"https://i.ytimg.com/vi/WI-85HOTOOY/mqdefault.jpg","viewCount":"7993","playlistId":"PLEkQk5xrP-tkHAGOwIKr4pc5ehhyQ5HMJ","playlistName":"كتاب الرسالة القشيرية (تصوف) - د. يسري جبر","category":"تصوف"},{"id":"D9yI-C0lICg","title":"الرسالة القشيرية - المجلس السابع و العشرون - (الجمع والفرق وجمع الجمع).","publishedAt":"2018-08-16T06:49:49Z","duration":"PT40M8S","thumbnail":"https://i.ytimg.com/vi/D9yI-C0lICg/mqdefault.jpg","viewCount":"7068","playlistId":"PLEkQk5xrP-tkHAGOwIKr4pc5ehhyQ5HMJ","playlistName":"كتاب الرسالة القشيرية (تصوف) - د. يسري جبر","category":"تصوف"},{"id":"e3hibHMurc0","title":"الرسالة القشيرية - المجلس الثامن و العشرون - الفناء والبقاء.","publishedAt":"2018-09-11T18:20:32Z","duration":"PT1H3M31S","thumbnail":"https://i.ytimg.com/vi/e3hibHMurc0/mqdefault.jpg","viewCount":"10706","playlistId":"PLEkQk5xrP-tkHAGOwIKr4pc5ehhyQ5HMJ","playlistName":"كتاب الرسالة القشيرية (تصوف) - د. يسري جبر","category":"تصوف"},{"id":"qBrzlXWuESo","title":"الرسالة القشيرية المجلس التاسع و العشرون (الغَيْبَةُ والحُضُور)     د. يسري جبر","publishedAt":"2018-09-21T20:43:29Z","duration":"PT30M52S","thumbnail":"https://i.ytimg.com/vi/qBrzlXWuESo/mqdefault.jpg","viewCount":"5750","playlistId":"PLEkQk5xrP-tkHAGOwIKr4pc5ehhyQ5HMJ","playlistName":"كتاب الرسالة القشيرية (تصوف) - د. يسري جبر","category":"تصوف"},{"id":"09ENj-0GgiQ","title":"الرسالة القشيرية المجلس الثلاثون (الصَحْو والسُكْر - الذَوق والشُرب) د. يسري جبر","publishedAt":"2018-10-06T17:29:22Z","duration":"PT45M31S","thumbnail":"https://i.ytimg.com/vi/09ENj-0GgiQ/mqdefault.jpg","viewCount":"6969","playlistId":"PLEkQk5xrP-tkHAGOwIKr4pc5ehhyQ5HMJ","playlistName":"كتاب الرسالة القشيرية (تصوف) - د. يسري جبر","category":"تصوف"},{"id":"AbSn28cTTrg","title":"الرسالة القشيرية المجلس الواحد و الثلاثون ( المحو والإثبات - السَتر والتجلِّي ) د. يسري جبر","publishedAt":"2018-10-12T19:53:52Z","duration":"PT45M26S","thumbnail":"https://i.ytimg.com/vi/AbSn28cTTrg/mqdefault.jpg","viewCount":"6270","playlistId":"PLEkQk5xrP-tkHAGOwIKr4pc5ehhyQ5HMJ","playlistName":"كتاب الرسالة القشيرية (تصوف) - د. يسري جبر","category":"تصوف"},{"id":"heU8B1Fw5bU","title":"الرسالة القشيرية المجلس الثاني و الثلاثون (المحاضرة والمكاشفة والمشاهدة).د. يسري جبر","publishedAt":"2018-10-18T15:18:30Z","duration":"PT49M42S","thumbnail":"https://i.ytimg.com/vi/heU8B1Fw5bU/mqdefault.jpg","viewCount":"9686","playlistId":"PLEkQk5xrP-tkHAGOwIKr4pc5ehhyQ5HMJ","playlistName":"كتاب الرسالة القشيرية (تصوف) - د. يسري جبر","category":"تصوف"},{"id":"ft3nkyFDqdo","title":"الرسالة القشيرية المجلس الرابع و الثلاثون (القرب والبعد - الشريعة والحقيقة) د. يسري جبر","publishedAt":"2018-11-01T15:23:43Z","duration":"PT50M33S","thumbnail":"https://i.ytimg.com/vi/ft3nkyFDqdo/mqdefault.jpg","viewCount":"8275","playlistId":"PLEkQk5xrP-tkHAGOwIKr4pc5ehhyQ5HMJ","playlistName":"كتاب الرسالة القشيرية (تصوف) - د. يسري جبر","category":"تصوف"},{"id":"66EEx6lgD4U","title":"الرسالة القشيرية المجلس الخامس و الثلاثون (النَّفَس - الخواطر) د. يسري جبر","publishedAt":"2018-11-09T16:28:15Z","duration":"PT41M43S","thumbnail":"https://i.ytimg.com/vi/66EEx6lgD4U/mqdefault.jpg","viewCount":"7627","playlistId":"PLEkQk5xrP-tkHAGOwIKr4pc5ehhyQ5HMJ","playlistName":"كتاب الرسالة القشيرية (تصوف) - د. يسري جبر","category":"تصوف"},{"id":"Nkyzqw4jpnI","title":"الرسالة القشيرية المجلس الثالث و الثلاثون (البواده والهجوم - التلوين والتمكين) د. يسري جبر","publishedAt":"2018-11-25T16:13:15Z","duration":"PT42M51S","thumbnail":"https://i.ytimg.com/vi/Nkyzqw4jpnI/mqdefault.jpg","viewCount":"5532","playlistId":"PLEkQk5xrP-tkHAGOwIKr4pc5ehhyQ5HMJ","playlistName":"كتاب الرسالة القشيرية (تصوف) - د. يسري جبر","category":"تصوف"},{"id":"se41rUHZgbs","title":"الرسالة القشيرية المجلس السادس والثلاثون(علم اليقين وعين اليقين وحق اليقين-الوارد-الشاهد)د. يسري جبر","publishedAt":"2018-11-25T17:15:58Z","duration":"PT48M30S","thumbnail":"https://i.ytimg.com/vi/se41rUHZgbs/mqdefault.jpg","viewCount":"5602","playlistId":"PLEkQk5xrP-tkHAGOwIKr4pc5ehhyQ5HMJ","playlistName":"كتاب الرسالة القشيرية (تصوف) - د. يسري جبر","category":"تصوف"},{"id":"krSDFCigd6o","title":"الرسالة القشيرية المجلس السابع و الثلاثون(النَّفْس والروح والسرّ) د. يسري جبر","publishedAt":"2018-11-25T18:34:55Z","duration":"PT1H12M15S","thumbnail":"https://i.ytimg.com/vi/krSDFCigd6o/mqdefault.jpg","viewCount":"12400","playlistId":"PLEkQk5xrP-tkHAGOwIKr4pc5ehhyQ5HMJ","playlistName":"كتاب الرسالة القشيرية (تصوف) - د. يسري جبر","category":"تصوف"},{"id":"9aPofSxJj50","title":"الرسالة القشيرية المجلس الثامن و الثلاثون (باب التوبة) د. يسري جبر","publishedAt":"2018-11-30T17:49:56Z","duration":"PT45M7S","thumbnail":"https://i.ytimg.com/vi/9aPofSxJj50/mqdefault.jpg","viewCount":"7663","playlistId":"PLEkQk5xrP-tkHAGOwIKr4pc5ehhyQ5HMJ","playlistName":"كتاب الرسالة القشيرية (تصوف) - د. يسري جبر","category":"تصوف"},{"id":"qhXt6JNx2ZY","title":"الرسالة القشيرية المجلس التاسع و الثلاثون - تكملة باب التوبة (2)   أ.د. يسري جبر","publishedAt":"2018-12-13T15:49:15Z","duration":"PT45M46S","thumbnail":"https://i.ytimg.com/vi/qhXt6JNx2ZY/mqdefault.jpg","viewCount":"4773","playlistId":"PLEkQk5xrP-tkHAGOwIKr4pc5ehhyQ5HMJ","playlistName":"كتاب الرسالة القشيرية (تصوف) - د. يسري جبر","category":"تصوف"},{"id":"afrhNKw1aRU","title":"الرسالة القشيرية المجلس الأربعون - تكملة باب التوبة (3)   أ.د. يسري جبر","publishedAt":"2018-12-13T17:58:47Z","duration":"PT30M41S","thumbnail":"https://i.ytimg.com/vi/afrhNKw1aRU/mqdefault.jpg","viewCount":"4066","playlistId":"PLEkQk5xrP-tkHAGOwIKr4pc5ehhyQ5HMJ","playlistName":"كتاب الرسالة القشيرية (تصوف) - د. يسري جبر","category":"تصوف"},{"id":"ze2jjrdP-6s","title":"الرسالة القشيرية المجلس الواحد و الأربعون - باب المجاهدة  أ.د. يسري جبر","publishedAt":"2018-12-23T17:08:14Z","duration":"PT42M48S","thumbnail":"https://i.ytimg.com/vi/ze2jjrdP-6s/mqdefault.jpg","viewCount":"8674","playlistId":"PLEkQk5xrP-tkHAGOwIKr4pc5ehhyQ5HMJ","playlistName":"كتاب الرسالة القشيرية (تصوف) - د. يسري جبر","category":"تصوف"},{"id":"AvdJPtXhyOI","title":"الرسالة القشيرية المجلس الثاني و الأربعون - تكملة باب المجاهدة (2)  أ.د. يسري جبر","publishedAt":"2018-12-28T19:55:17Z","duration":"PT53M6S","thumbnail":"https://i.ytimg.com/vi/AvdJPtXhyOI/mqdefault.jpg","viewCount":"6303","playlistId":"PLEkQk5xrP-tkHAGOwIKr4pc5ehhyQ5HMJ","playlistName":"كتاب الرسالة القشيرية (تصوف) - د. يسري جبر","category":"تصوف"},{"id":"NXXHP15HAvk","title":"الرسالة القشيرية المجلس الثالث والأربعون - تكملة باب المجاهدة (3) . أ.د. يسري جبر","publishedAt":"2019-01-22T18:22:05Z","duration":"PT47M32S","thumbnail":"https://i.ytimg.com/vi/NXXHP15HAvk/mqdefault.jpg","viewCount":"4581","playlistId":"PLEkQk5xrP-tkHAGOwIKr4pc5ehhyQ5HMJ","playlistName":"كتاب الرسالة القشيرية (تصوف) - د. يسري جبر","category":"تصوف"},{"id":"zHMnMo2-FnY","title":"الرسالة القشيرية المجلس الرابع والأربعون - باب الخلوة والعزلة.  أ.د. يسري جبر","publishedAt":"2019-01-22T18:34:04Z","duration":"PT59M32S","thumbnail":"https://i.ytimg.com/vi/zHMnMo2-FnY/mqdefault.jpg","viewCount":"12617","playlistId":"PLEkQk5xrP-tkHAGOwIKr4pc5ehhyQ5HMJ","playlistName":"كتاب الرسالة القشيرية (تصوف) - د. يسري جبر","category":"تصوف"},{"id":"ez6smYMpgnA","title":"الرسالة القشيرية المجلس الخامس والأربعون - باب التقوى.   أ.د. يسري جبر","publishedAt":"2019-01-22T19:19:48Z","duration":"PT54M14S","thumbnail":"https://i.ytimg.com/vi/ez6smYMpgnA/mqdefault.jpg","viewCount":"6527","playlistId":"PLEkQk5xrP-tkHAGOwIKr4pc5ehhyQ5HMJ","playlistName":"كتاب الرسالة القشيرية (تصوف) - د. يسري جبر","category":"تصوف"},{"id":"5HVPVJs--OM","title":"الرسالة القشيرية المجلس السادس والأربعون - باب الورع - أ.د. يسري جبر","publishedAt":"2019-01-29T07:21:46Z","duration":"PT1H11M52S","thumbnail":"https://i.ytimg.com/vi/5HVPVJs--OM/mqdefault.jpg","viewCount":"6108","playlistId":"PLEkQk5xrP-tkHAGOwIKr4pc5ehhyQ5HMJ","playlistName":"كتاب الرسالة القشيرية (تصوف) - د. يسري جبر","category":"تصوف"},{"id":"Q9DfXCqScn8","title":"الرسالة القشيرية - المجلس السابع والأربعون - باب الزهد - أ.د. يسري جبر","publishedAt":"2019-02-02T14:23:37Z","duration":"PT49M24S","thumbnail":"https://i.ytimg.com/vi/Q9DfXCqScn8/mqdefault.jpg","viewCount":"5197","playlistId":"PLEkQk5xrP-tkHAGOwIKr4pc5ehhyQ5HMJ","playlistName":"كتاب الرسالة القشيرية (تصوف) - د. يسري جبر","category":"تصوف"},{"id":"vxhbzGROpgw","title":"الرسالة القشيرية - المجلس الثامن والأربعون - تكملة باب الزهد - أ.د. يسري جبر","publishedAt":"2019-02-09T18:24:36Z","duration":"PT42M35S","thumbnail":"https://i.ytimg.com/vi/vxhbzGROpgw/mqdefault.jpg","viewCount":"3785","playlistId":"PLEkQk5xrP-tkHAGOwIKr4pc5ehhyQ5HMJ","playlistName":"كتاب الرسالة القشيرية (تصوف) - د. يسري جبر","category":"تصوف"},{"id":"kAwsLwlB92U","title":"الرسالة القشيرية - المجلس التاسع والأربعون - باب الصمت - أ.د. يسري جبر","publishedAt":"2019-02-15T14:52:26Z","duration":"PT52M49S","thumbnail":"https://i.ytimg.com/vi/kAwsLwlB92U/mqdefault.jpg","viewCount":"9797","playlistId":"PLEkQk5xrP-tkHAGOwIKr4pc5ehhyQ5HMJ","playlistName":"كتاب الرسالة القشيرية (تصوف) - د. يسري جبر","category":"تصوف"}],"total":120,"page":2,"pageSize":24,"totalPages":5}