{"items":[{"id":"BpTk-nqD5o0","title":"شرح كتاب منازل السائرين للإمام الهروى المجلس الثامن والأربعون قسم الولايات باب اللحظ وباب الوقت","publishedAt":"2015-05-11T18:48:32Z","duration":"PT1H23M35S","thumbnail":"https://i.ytimg.com/vi/BpTk-nqD5o0/mqdefault.jpg","viewCount":"1291","playlistId":"PLEkQk5xrP-tnLYi_5_tSRVBwqcs7ISV7Y","playlistName":"شرح كتاب منازل السائرين للإمام الهروي","category":"متنوع"},{"id":"AwPhe_RiduM","title":"شرح كتاب منازل السائرين للإمام الهروى - المجلس الثانى والثلاثون - قسم الأخلاق باب الانبساط","publishedAt":"2014-12-29T05:48:06Z","duration":"PT54M59S","thumbnail":"https://i.ytimg.com/vi/AwPhe_RiduM/mqdefault.jpg","viewCount":"1291","playlistId":"PLEkQk5xrP-tnLYi_5_tSRVBwqcs7ISV7Y","playlistName":"شرح كتاب منازل السائرين للإمام الهروي","category":"متنوع"},{"id":"f8MnWWm_d6M","title":"شرح كتاب منازل السائرين للإمام الهروى - المجلس الثلاثون - قسم الأخلاق باب التواضع","publishedAt":"2014-12-15T04:08:04Z","duration":"PT56M44S","thumbnail":"https://i.ytimg.com/vi/f8MnWWm_d6M/mqdefault.jpg","viewCount":"1290","playlistId":"PLEkQk5xrP-tnLYi_5_tSRVBwqcs7ISV7Y","playlistName":"شرح كتاب منازل السائرين للإمام الهروي","category":"متنوع"},{"id":"SU0aUc8SIRE","title":"ِمنازل السائرين للإمام الهروى المجلس الخامس والخمسون قسم الحقائق بَابُ الاتصَالِ وبَابُ الانفِصَالِ","publishedAt":"2015-11-11T22:28:14Z","duration":"PT27M2S","thumbnail":"https://i.ytimg.com/vi/SU0aUc8SIRE/mqdefault.jpg","viewCount":"1268","playlistId":"PLEkQk5xrP-tnLYi_5_tSRVBwqcs7ISV7Y","playlistName":"شرح كتاب منازل السائرين للإمام الهروي","category":"متنوع"},{"id":"X91TNNJf5_M","title":"شرح كتاب منازل السائرين للإمام الهروى-المجلس السابع والثلاثون قسم الأُصول باب الغنى وباب مقام المراد","publishedAt":"2015-02-02T22:23:25Z","duration":"PT53M47S","thumbnail":"https://i.ytimg.com/vi/X91TNNJf5_M/mqdefault.jpg","viewCount":"1237","playlistId":"PLEkQk5xrP-tnLYi_5_tSRVBwqcs7ISV7Y","playlistName":"شرح كتاب منازل السائرين للإمام الهروي","category":"متنوع"},{"id":"weUv6xaf2EU","title":"شرح كتاب منازل السائرين للإمام الهروى المجلس الثالث والأربعون قسم الأَحوال باب المحبّة وباب الغَيْرة","publishedAt":"2015-04-07T04:18:21Z","duration":"PT1H9M49S","thumbnail":"https://i.ytimg.com/vi/weUv6xaf2EU/mqdefault.jpg","viewCount":"1195","playlistId":"PLEkQk5xrP-tnLYi_5_tSRVBwqcs7ISV7Y","playlistName":"شرح كتاب منازل السائرين للإمام الهروي","category":"متنوع"},{"id":"SjXHmEfCwoU","title":"شرح كتاب منازل السائرين للإمام الهروى المجلس الخامس والأربعون قسم الأَحوال باب العطش وباب الوجد","publishedAt":"2015-04-20T12:15:33Z","duration":"PT1H6M31S","thumbnail":"https://i.ytimg.com/vi/SjXHmEfCwoU/mqdefault.jpg","viewCount":"1193","playlistId":"PLEkQk5xrP-tnLYi_5_tSRVBwqcs7ISV7Y","playlistName":"شرح كتاب منازل السائرين للإمام الهروي","category":"متنوع"},{"id":"T0MczJf8yxE","title":"شرح كتاب منازل السائرين للإمام الهروى - المجلس الثامن والعشرون - قسم الأخلاق باب الإيثار","publishedAt":"2014-12-01T03:52:33Z","duration":"PT45M56S","thumbnail":"https://i.ytimg.com/vi/T0MczJf8yxE/mqdefault.jpg","viewCount":"1185","playlistId":"PLEkQk5xrP-tnLYi_5_tSRVBwqcs7ISV7Y","playlistName":"شرح كتاب منازل السائرين للإمام الهروي","category":"متنوع"},{"id":"a_11jlvl864","title":"شرح كتاب منازل السائرين للإمام الهروى المجلس التاسع والأربعون قسم الولايات باب الصفاء وباب السرور","publishedAt":"2015-05-18T21:36:46Z","duration":"PT1H7M13S","thumbnail":"https://i.ytimg.com/vi/a_11jlvl864/mqdefault.jpg","viewCount":"1147","playlistId":"PLEkQk5xrP-tnLYi_5_tSRVBwqcs7ISV7Y","playlistName":"شرح كتاب منازل السائرين للإمام الهروي","category":"متنوع"},{"id":"XRmvg83MDzY","title":"منازل السائرين للإمام الهروى المجلس الرابع والخمسون قسم الحقائق بابُ السُّكْر وبابُ الصَّحْو","publishedAt":"2015-11-06T07:07:42Z","duration":"PT1H1M23S","thumbnail":"https://i.ytimg.com/vi/XRmvg83MDzY/mqdefault.jpg","viewCount":"1095","playlistId":"PLEkQk5xrP-tnLYi_5_tSRVBwqcs7ISV7Y","playlistName":"شرح كتاب منازل السائرين للإمام الهروي","category":"متنوع"},{"id":"cWqgAfpd4Fc","title":"شرح كتاب منازل السائرين للإمام الهروى المجلس الرابع والأربعون قسم الأَحوال باب الشوق وباب القلق","publishedAt":"2015-04-13T04:58:41Z","duration":"PT44M35S","thumbnail":"https://i.ytimg.com/vi/cWqgAfpd4Fc/mqdefault.jpg","viewCount":"1061","playlistId":"PLEkQk5xrP-tnLYi_5_tSRVBwqcs7ISV7Y","playlistName":"شرح كتاب منازل السائرين للإمام الهروي","category":"متنوع"},{"id":"Bio1m0b4nfg","title":"شرح كتاب منازل السائرين للإمام الهروى المجلس السادس والأربعون قسم الأَحوال باب الدهْشة وباب الهيَمان","publishedAt":"2015-04-28T13:36:03Z","duration":"PT47M24S","thumbnail":"https://i.ytimg.com/vi/Bio1m0b4nfg/mqdefault.jpg","viewCount":"1036","playlistId":"PLEkQk5xrP-tnLYi_5_tSRVBwqcs7ISV7Y","playlistName":"شرح كتاب منازل السائرين للإمام الهروي","category":"متنوع"},{"id":"vb_eSE-5JFI","title":"شرح كتاب منازل السائرين للإمام الهروى المجلس السابع والأربعون قسم الأَحوال باب البرق وباب الذوق","publishedAt":"2015-05-04T19:26:05Z","duration":"PT45M28S","thumbnail":"https://i.ytimg.com/vi/vb_eSE-5JFI/mqdefault.jpg","viewCount":"995","playlistId":"PLEkQk5xrP-tnLYi_5_tSRVBwqcs7ISV7Y","playlistName":"شرح كتاب منازل السائرين للإمام الهروي","category":"متنوع"}],"total":61,"page":3,"pageSize":24,"totalPages":3}