{"items":[{"id":"nrY4ssB6pj4","title":"29- شرح اللؤلؤ والمرجان كتاب الصلاة من باب ٤٩","publishedAt":"2020-01-14T02:03:49Z","duration":"PT23M16S","thumbnail":"https://i.ytimg.com/vi/nrY4ssB6pj4/mqdefault.jpg","viewCount":"622","playlistId":"PLEkQk5xrP-tmKNjtYLfhATC37QdIsTMe0","playlistName":"شرح كتاب اللؤلؤ والمرجان فيما اتفق عليه الشيخان إماما المحدثين البخاري ومسلم. أ.د. يسري جبر","category":"حديث"},{"id":"TcL6cJpBDqA","title":"28- شرح اللؤلؤ والمرجان كتاب الصلاة من باب ٣٧","publishedAt":"2020-01-13T08:37:11Z","duration":"PT29M31S","thumbnail":"https://i.ytimg.com/vi/TcL6cJpBDqA/mqdefault.jpg","viewCount":"692","playlistId":"PLEkQk5xrP-tmKNjtYLfhATC37QdIsTMe0","playlistName":"شرح كتاب اللؤلؤ والمرجان فيما اتفق عليه الشيخان إماما المحدثين البخاري ومسلم. أ.د. يسري جبر","category":"حديث"},{"id":"oKoOS3AITK8","title":"27- شرح اللؤلؤ والمرجان كتاب الصلاة من باب ٣٤","publishedAt":"2020-01-10T07:29:34Z","duration":"PT20M10S","thumbnail":"https://i.ytimg.com/vi/oKoOS3AITK8/mqdefault.jpg","viewCount":"769","playlistId":"PLEkQk5xrP-tmKNjtYLfhATC37QdIsTMe0","playlistName":"شرح كتاب اللؤلؤ والمرجان فيما اتفق عليه الشيخان إماما المحدثين البخاري ومسلم. أ.د. يسري جبر","category":"حديث"},{"id":"uB2ngqviNq4","title":"26- شرح اللؤلؤ والمرجان كتاب الصلاة من باب ٢٩","publishedAt":"2020-01-09T15:31:34Z","duration":"PT22M30S","thumbnail":"https://i.ytimg.com/vi/uB2ngqviNq4/mqdefault.jpg","viewCount":"629","playlistId":"PLEkQk5xrP-tmKNjtYLfhATC37QdIsTMe0","playlistName":"شرح كتاب اللؤلؤ والمرجان فيما اتفق عليه الشيخان إماما المحدثين البخاري ومسلم. أ.د. يسري جبر","category":"حديث"},{"id":"NxZ93vOwkbA","title":"25- شرح اللؤلؤ والمرجان كتاب الصلاة من باب ٢٢","publishedAt":"2020-01-09T07:09:18Z","duration":"PT28M40S","thumbnail":"https://i.ytimg.com/vi/NxZ93vOwkbA/mqdefault.jpg","viewCount":"772","playlistId":"PLEkQk5xrP-tmKNjtYLfhATC37QdIsTMe0","playlistName":"شرح كتاب اللؤلؤ والمرجان فيما اتفق عليه الشيخان إماما المحدثين البخاري ومسلم. أ.د. يسري جبر","category":"حديث"},{"id":"UNTq8SNphPQ","title":"115- شرح اللؤلؤ والمرجان كتاب الجهاد من الباب الأربعين","publishedAt":"2020-04-07T08:45:25Z","duration":"PT23M13S","thumbnail":"https://i.ytimg.com/vi/UNTq8SNphPQ/mqdefault.jpg","viewCount":"472","playlistId":"PLEkQk5xrP-tmKNjtYLfhATC37QdIsTMe0","playlistName":"شرح كتاب اللؤلؤ والمرجان فيما اتفق عليه الشيخان إماما المحدثين البخاري ومسلم. أ.د. يسري جبر","category":"حديث"},{"id":"4ThZhyElqUQ","title":"112- شرح اللؤلؤ والمرجان كتاب الجهاد من الباب التاسع عشر","publishedAt":"2020-04-02T11:00:00Z","duration":"PT33M47S","thumbnail":"https://i.ytimg.com/vi/4ThZhyElqUQ/mqdefault.jpg","viewCount":"362","playlistId":"PLEkQk5xrP-tmKNjtYLfhATC37QdIsTMe0","playlistName":"شرح كتاب اللؤلؤ والمرجان فيما اتفق عليه الشيخان إماما المحدثين البخاري ومسلم. أ.د. يسري جبر","category":"حديث"},{"id":"rVuA8e4xpWc","title":"111- شرح اللؤلؤ والمرجان كتاب الجهاد من الباب السادس عشر","publishedAt":"2020-04-01T07:00:15Z","duration":"PT20M24S","thumbnail":"https://i.ytimg.com/vi/rVuA8e4xpWc/mqdefault.jpg","viewCount":"474","playlistId":"PLEkQk5xrP-tmKNjtYLfhATC37QdIsTMe0","playlistName":"شرح كتاب اللؤلؤ والمرجان فيما اتفق عليه الشيخان إماما المحدثين البخاري ومسلم. أ.د. يسري جبر","category":"حديث"},{"id":"_VEQi7cRP9M","title":"ختامُ شرح كتاب اللؤلؤ والمرجان - كتابُ التفسير","publishedAt":"2021-01-07T08:03:35Z","duration":"PT34M32S","thumbnail":"https://i.ytimg.com/vi/_VEQi7cRP9M/mqdefault.jpg","viewCount":"2211","playlistId":"PLEkQk5xrP-tmKNjtYLfhATC37QdIsTMe0","playlistName":"شرح كتاب اللؤلؤ والمرجان فيما اتفق عليه الشيخان إماما المحدثين البخاري ومسلم. أ.د. يسري جبر","category":"حديث"},{"id":"fuWZQ_tWWmI","title":"110- شرح اللؤلؤ والمرجان كتاب الجهاد من الباب الثاني عشر","publishedAt":"2020-03-31T07:30:02Z","duration":"PT32M41S","thumbnail":"https://i.ytimg.com/vi/fuWZQ_tWWmI/mqdefault.jpg","viewCount":"436","playlistId":"PLEkQk5xrP-tmKNjtYLfhATC37QdIsTMe0","playlistName":"شرح كتاب اللؤلؤ والمرجان فيما اتفق عليه الشيخان إماما المحدثين البخاري ومسلم. أ.د. يسري جبر","category":"حديث"},{"id":"0IIFl-cGo5s","title":"16- شرح اللؤلؤ والمرجان كتاب الإيمان من باب ٨٢","publishedAt":"2020-01-02T09:39:00Z","duration":"PT34M25S","thumbnail":"https://i.ytimg.com/vi/0IIFl-cGo5s/mqdefault.jpg","viewCount":"1085","playlistId":"PLEkQk5xrP-tmKNjtYLfhATC37QdIsTMe0","playlistName":"شرح كتاب اللؤلؤ والمرجان فيما اتفق عليه الشيخان إماما المحدثين البخاري ومسلم. أ.د. يسري جبر","category":"حديث"},{"id":"Ov1x3_deNjM","title":"15- شرح اللؤلؤ والمرجان كتاب الإيمان من باب ٨١","publishedAt":"2020-01-01T09:07:36Z","duration":"PT42M4S","thumbnail":"https://i.ytimg.com/vi/Ov1x3_deNjM/mqdefault.jpg","viewCount":"1282","playlistId":"PLEkQk5xrP-tmKNjtYLfhATC37QdIsTMe0","playlistName":"شرح كتاب اللؤلؤ والمرجان فيما اتفق عليه الشيخان إماما المحدثين البخاري ومسلم. أ.د. يسري جبر","category":"حديث"},{"id":"k9C9ZVjsB7s","title":"14- شرح اللؤلؤ والمرجان كتاب الإيمان من باب ٧٥","publishedAt":"2019-12-31T08:21:14Z","duration":"PT27M17S","thumbnail":"https://i.ytimg.com/vi/k9C9ZVjsB7s/mqdefault.jpg","viewCount":"1054","playlistId":"PLEkQk5xrP-tmKNjtYLfhATC37QdIsTMe0","playlistName":"شرح كتاب اللؤلؤ والمرجان فيما اتفق عليه الشيخان إماما المحدثين البخاري ومسلم. أ.د. يسري جبر","category":"حديث"},{"id":"Zich9qikf7Y","title":"13- شرح اللؤلؤ والمرجان كتاب الإيمان من باب ٧٤","publishedAt":"2019-12-28T17:19:39Z","duration":"PT35M10S","thumbnail":"https://i.ytimg.com/vi/Zich9qikf7Y/mqdefault.jpg","viewCount":"1240","playlistId":"PLEkQk5xrP-tmKNjtYLfhATC37QdIsTMe0","playlistName":"شرح كتاب اللؤلؤ والمرجان فيما اتفق عليه الشيخان إماما المحدثين البخاري ومسلم. أ.د. يسري جبر","category":"حديث"},{"id":"2L8wvB9NQEk","title":"191- لا يُلْدَغُ المؤمنُ مِن جُحرٍ مرتين","publishedAt":"2021-01-05T07:11:13Z","duration":"PT23M3S","thumbnail":"https://i.ytimg.com/vi/2L8wvB9NQEk/mqdefault.jpg","viewCount":"4411","playlistId":"PLEkQk5xrP-tmKNjtYLfhATC37QdIsTMe0","playlistName":"شرح كتاب اللؤلؤ والمرجان فيما اتفق عليه الشيخان إماما المحدثين البخاري ومسلم. أ.د. يسري جبر","category":"حديث"},{"id":"9ndQjYhvwSo","title":"183- صِفةُ يوم القيامة","publishedAt":"2020-12-17T06:49:33Z","duration":"PT15M53S","thumbnail":"https://i.ytimg.com/vi/9ndQjYhvwSo/mqdefault.jpg","viewCount":"4440","playlistId":"PLEkQk5xrP-tmKNjtYLfhATC37QdIsTMe0","playlistName":"شرح كتاب اللؤلؤ والمرجان فيما اتفق عليه الشيخان إماما المحدثين البخاري ومسلم. أ.د. يسري جبر","category":"حديث"},{"id":"YV4bYer9FVs","title":"182- النَّارُ يدخلها الجبَّارون والجنَّةُ يدخلها الضُّعفاء","publishedAt":"2020-12-15T07:26:40Z","duration":"PT35M14S","thumbnail":"https://i.ytimg.com/vi/YV4bYer9FVs/mqdefault.jpg","viewCount":"3617","playlistId":"PLEkQk5xrP-tmKNjtYLfhATC37QdIsTMe0","playlistName":"شرح كتاب اللؤلؤ والمرجان فيما اتفق عليه الشيخان إماما المحدثين البخاري ومسلم. أ.د. يسري جبر","category":"حديث"},{"id":"14ne4ZptCQc","title":"181- الجَنَّةُ وصِفَةُ نعيمِها وأهلِهِا","publishedAt":"2020-12-13T06:51:00Z","duration":"PT24M14S","thumbnail":"https://i.ytimg.com/vi/14ne4ZptCQc/mqdefault.jpg","viewCount":"5484","playlistId":"PLEkQk5xrP-tmKNjtYLfhATC37QdIsTMe0","playlistName":"شرح كتاب اللؤلؤ والمرجان فيما اتفق عليه الشيخان إماما المحدثين البخاري ومسلم. أ.د. يسري جبر","category":"حديث"},{"id":"thV07ZFFFPk","title":"180-  الدُّخَان","publishedAt":"2020-12-12T07:16:25Z","duration":"PT32M18S","thumbnail":"https://i.ytimg.com/vi/thV07ZFFFPk/mqdefault.jpg","viewCount":"4180","playlistId":"PLEkQk5xrP-tmKNjtYLfhATC37QdIsTMe0","playlistName":"شرح كتاب اللؤلؤ والمرجان فيما اتفق عليه الشيخان إماما المحدثين البخاري ومسلم. أ.د. يسري جبر","category":"حديث"},{"id":"_fOn2gh2HlU","title":"124- شرح اللؤلؤ والمرجان كتاب الأشربة من أوله","publishedAt":"2020-09-02T20:45:29Z","duration":"PT28M14S","thumbnail":"https://i.ytimg.com/vi/_fOn2gh2HlU/mqdefault.jpg","viewCount":"565","playlistId":"PLEkQk5xrP-tmKNjtYLfhATC37QdIsTMe0","playlistName":"شرح كتاب اللؤلؤ والمرجان فيما اتفق عليه الشيخان إماما المحدثين البخاري ومسلم. أ.د. يسري جبر","category":"حديث"},{"id":"KzAHwxQlkUU","title":"109- شرح اللؤلؤ والمرجان كتاب الجهاد من أوله","publishedAt":"2020-03-30T07:00:03Z","duration":"PT26M55S","thumbnail":"https://i.ytimg.com/vi/KzAHwxQlkUU/mqdefault.jpg","viewCount":"478","playlistId":"PLEkQk5xrP-tmKNjtYLfhATC37QdIsTMe0","playlistName":"شرح كتاب اللؤلؤ والمرجان فيما اتفق عليه الشيخان إماما المحدثين البخاري ومسلم. أ.د. يسري جبر","category":"حديث"},{"id":"DJ4b_g4kcIg","title":"108- شرح اللؤلؤ والمرجان كتاب اللقطة من أوله","publishedAt":"2020-03-29T07:00:05Z","duration":"PT21M27S","thumbnail":"https://i.ytimg.com/vi/DJ4b_g4kcIg/mqdefault.jpg","viewCount":"448","playlistId":"PLEkQk5xrP-tmKNjtYLfhATC37QdIsTMe0","playlistName":"شرح كتاب اللؤلؤ والمرجان فيما اتفق عليه الشيخان إماما المحدثين البخاري ومسلم. أ.د. يسري جبر","category":"حديث"},{"id":"oF0ezQr7D_4","title":"131- النهي عن التَّكنِّي بأبي القاسم وبيان ما يُستحبُّ من الأسماء","publishedAt":"2020-09-14T13:21:48Z","duration":"PT25M20S","thumbnail":"https://i.ytimg.com/vi/oF0ezQr7D_4/mqdefault.jpg","viewCount":"911","playlistId":"PLEkQk5xrP-tmKNjtYLfhATC37QdIsTMe0","playlistName":"شرح كتاب اللؤلؤ والمرجان فيما اتفق عليه الشيخان إماما المحدثين البخاري ومسلم. أ.د. يسري جبر","category":"حديث"},{"id":"H-8oRSC3SqQ","title":"130- باب جواز وسْم الحيوان غير الْآدَمِيِّ في غَيْرِ الوجْه، وندْبه في نَعَم الزَّكاة وَالْجِزْيَة","publishedAt":"2020-09-13T12:37:20Z","duration":"PT27M17S","thumbnail":"https://i.ytimg.com/vi/H-8oRSC3SqQ/mqdefault.jpg","viewCount":"593","playlistId":"PLEkQk5xrP-tmKNjtYLfhATC37QdIsTMe0","playlistName":"شرح كتاب اللؤلؤ والمرجان فيما اتفق عليه الشيخان إماما المحدثين البخاري ومسلم. أ.د. يسري جبر","category":"حديث"}],"total":192,"page":7,"pageSize":24,"totalPages":8}