{"items":[{"id":"aVxMxCrMc0c","title":"37- شرح اللؤلؤ والمرجان كتاب المساجد ومواضع الصلاة من باب ٥١","publishedAt":"2020-01-18T11:25:31Z","duration":"PT32M10S","thumbnail":"https://i.ytimg.com/vi/aVxMxCrMc0c/mqdefault.jpg","viewCount":"545","playlistId":"PLEkQk5xrP-tmKNjtYLfhATC37QdIsTMe0","playlistName":"شرح كتاب اللؤلؤ والمرجان فيما اتفق عليه الشيخان إماما المحدثين البخاري ومسلم. أ.د. يسري جبر","category":"حديث"},{"id":"YlIPeNKqzWg","title":"91- شرح اللؤلؤ والمرجان كتاب البيوع من الباب السادس عشر","publishedAt":"2020-03-10T06:00:03Z","duration":"PT17M24S","thumbnail":"https://i.ytimg.com/vi/YlIPeNKqzWg/mqdefault.jpg","viewCount":"394","playlistId":"PLEkQk5xrP-tmKNjtYLfhATC37QdIsTMe0","playlistName":"شرح كتاب اللؤلؤ والمرجان فيما اتفق عليه الشيخان إماما المحدثين البخاري ومسلم. أ.د. يسري جبر","category":"حديث"},{"id":"RgrW93yY1IU","title":"145- صِفةُ النَّبيّ ﷺ وأنه كان أحسن الناس وجهًا","publishedAt":"2020-10-06T07:52:44Z","duration":"PT30M39S","thumbnail":"https://i.ytimg.com/vi/RgrW93yY1IU/mqdefault.jpg","viewCount":"4135","playlistId":"PLEkQk5xrP-tmKNjtYLfhATC37QdIsTMe0","playlistName":"شرح كتاب اللؤلؤ والمرجان فيما اتفق عليه الشيخان إماما المحدثين البخاري ومسلم. أ.د. يسري جبر","category":"حديث"},{"id":"VI7z1zBwXNY","title":"144-  رحمته ﷺ الصبيان والعيال وتواضعه وفضل ذلك","publishedAt":"2020-10-04T07:56:09Z","duration":"PT30M57S","thumbnail":"https://i.ytimg.com/vi/VI7z1zBwXNY/mqdefault.jpg","viewCount":"1615","playlistId":"PLEkQk5xrP-tmKNjtYLfhATC37QdIsTMe0","playlistName":"شرح كتاب اللؤلؤ والمرجان فيما اتفق عليه الشيخان إماما المحدثين البخاري ومسلم. أ.د. يسري جبر","category":"حديث"},{"id":"IVlNJELGUNA","title":"48- شرح اللؤلؤ والمرجان كتاب صلاة الكسوف من باب ٣","publishedAt":"2020-01-27T22:03:30Z","duration":"PT21M37S","thumbnail":"https://i.ytimg.com/vi/IVlNJELGUNA/mqdefault.jpg","viewCount":"357","playlistId":"PLEkQk5xrP-tmKNjtYLfhATC37QdIsTMe0","playlistName":"شرح كتاب اللؤلؤ والمرجان فيما اتفق عليه الشيخان إماما المحدثين البخاري ومسلم. أ.د. يسري جبر","category":"حديث"},{"id":"2k6UyRDHSBA","title":"47- شرح اللؤلؤ والمرجان كتاب صلاة الكسوف من أوله","publishedAt":"2020-01-27T06:17:59Z","duration":"PT26M36S","thumbnail":"https://i.ytimg.com/vi/2k6UyRDHSBA/mqdefault.jpg","viewCount":"420","playlistId":"PLEkQk5xrP-tmKNjtYLfhATC37QdIsTMe0","playlistName":"شرح كتاب اللؤلؤ والمرجان فيما اتفق عليه الشيخان إماما المحدثين البخاري ومسلم. أ.د. يسري جبر","category":"حديث"},{"id":"wwDRDIVVD1s","title":"46- شرح اللؤلؤ والمرجان كتاب صلاة الاستسقاء من أوله","publishedAt":"2020-01-26T10:53:44Z","duration":"PT18M28S","thumbnail":"https://i.ytimg.com/vi/wwDRDIVVD1s/mqdefault.jpg","viewCount":"429","playlistId":"PLEkQk5xrP-tmKNjtYLfhATC37QdIsTMe0","playlistName":"شرح كتاب اللؤلؤ والمرجان فيما اتفق عليه الشيخان إماما المحدثين البخاري ومسلم. أ.د. يسري جبر","category":"حديث"},{"id":"lHEtIZ4RcMk","title":"45- شرح اللؤلؤ والمرجان كتاب صلاة العيدين من أوله","publishedAt":"2020-01-23T11:43:00Z","duration":"PT26M54S","thumbnail":"https://i.ytimg.com/vi/lHEtIZ4RcMk/mqdefault.jpg","viewCount":"457","playlistId":"PLEkQk5xrP-tmKNjtYLfhATC37QdIsTMe0","playlistName":"شرح كتاب اللؤلؤ والمرجان فيما اتفق عليه الشيخان إماما المحدثين البخاري ومسلم. أ.د. يسري جبر","category":"حديث"},{"id":"Fv-Vh3ilnF8","title":"44- شرح اللؤلؤ والمرجان كتاب الجمعة من أوله","publishedAt":"2020-01-22T09:40:38Z","duration":"PT32M10S","thumbnail":"https://i.ytimg.com/vi/Fv-Vh3ilnF8/mqdefault.jpg","viewCount":"529","playlistId":"PLEkQk5xrP-tmKNjtYLfhATC37QdIsTMe0","playlistName":"شرح كتاب اللؤلؤ والمرجان فيما اتفق عليه الشيخان إماما المحدثين البخاري ومسلم. أ.د. يسري جبر","category":"حديث"},{"id":"_LZnl4_uJSo","title":"43- شرح اللؤلؤ والمرجان كتاب الصلاة المسافرين وقصرها من باب ٤٣","publishedAt":"2020-01-21T21:31:32Z","duration":"PT39M5S","thumbnail":"https://i.ytimg.com/vi/_LZnl4_uJSo/mqdefault.jpg","viewCount":"638","playlistId":"PLEkQk5xrP-tmKNjtYLfhATC37QdIsTMe0","playlistName":"شرح كتاب اللؤلؤ والمرجان فيما اتفق عليه الشيخان إماما المحدثين البخاري ومسلم. أ.د. يسري جبر","category":"حديث"},{"id":"P0JzC3sGz8Y","title":"42- شرح اللؤلؤ والمرجان كتاب الصلاة المسافرين وقصرها من باب ٣٦","publishedAt":"2020-01-21T07:02:01Z","duration":"PT14M35S","thumbnail":"https://i.ytimg.com/vi/P0JzC3sGz8Y/mqdefault.jpg","viewCount":"505","playlistId":"PLEkQk5xrP-tmKNjtYLfhATC37QdIsTMe0","playlistName":"شرح كتاب اللؤلؤ والمرجان فيما اتفق عليه الشيخان إماما المحدثين البخاري ومسلم. أ.د. يسري جبر","category":"حديث"},{"id":"L87U1Ye1rDk","title":"41- شرح اللؤلؤ والمرجان كتاب الصلاة المسافرين وقصرها من باب ٢٧","publishedAt":"2020-01-20T07:35:05Z","duration":"PT30M3S","thumbnail":"https://i.ytimg.com/vi/L87U1Ye1rDk/mqdefault.jpg","viewCount":"547","playlistId":"PLEkQk5xrP-tmKNjtYLfhATC37QdIsTMe0","playlistName":"شرح كتاب اللؤلؤ والمرجان فيما اتفق عليه الشيخان إماما المحدثين البخاري ومسلم. أ.د. يسري جبر","category":"حديث"},{"id":"PFe9d2xe_ps","title":"86- شرح اللؤلؤ والمرجان كتاب الطلاق من الباب السادس","publishedAt":"2020-03-05T06:00:02Z","duration":"PT21M8S","thumbnail":"https://i.ytimg.com/vi/PFe9d2xe_ps/mqdefault.jpg","viewCount":"301","playlistId":"PLEkQk5xrP-tmKNjtYLfhATC37QdIsTMe0","playlistName":"شرح كتاب اللؤلؤ والمرجان فيما اتفق عليه الشيخان إماما المحدثين البخاري ومسلم. أ.د. يسري جبر","category":"حديث"},{"id":"PPBkI5OI1tk","title":"85- شرح اللؤلؤ والمرجان كتاب الطلاق من الباب الرابع","publishedAt":"2020-03-04T06:00:05Z","duration":"PT30M37S","thumbnail":"https://i.ytimg.com/vi/PPBkI5OI1tk/mqdefault.jpg","viewCount":"414","playlistId":"PLEkQk5xrP-tmKNjtYLfhATC37QdIsTMe0","playlistName":"شرح كتاب اللؤلؤ والمرجان فيما اتفق عليه الشيخان إماما المحدثين البخاري ومسلم. أ.د. يسري جبر","category":"حديث"},{"id":"m_AOIep7lyc","title":"84- شرح اللؤلؤ والمرجان كتاب الطلاق من أوله","publishedAt":"2020-03-03T06:00:05Z","duration":"PT29M18S","thumbnail":"https://i.ytimg.com/vi/m_AOIep7lyc/mqdefault.jpg","viewCount":"476","playlistId":"PLEkQk5xrP-tmKNjtYLfhATC37QdIsTMe0","playlistName":"شرح كتاب اللؤلؤ والمرجان فيما اتفق عليه الشيخان إماما المحدثين البخاري ومسلم. أ.د. يسري جبر","category":"حديث"},{"id":"m3IhFqf1t-E","title":"83- شرح اللؤلؤ والمرجان كتاب الرضاع من الباب الثالث عشر","publishedAt":"2020-03-02T06:00:04Z","duration":"PT26M10S","thumbnail":"https://i.ytimg.com/vi/m3IhFqf1t-E/mqdefault.jpg","viewCount":"424","playlistId":"PLEkQk5xrP-tmKNjtYLfhATC37QdIsTMe0","playlistName":"شرح كتاب اللؤلؤ والمرجان فيما اتفق عليه الشيخان إماما المحدثين البخاري ومسلم. أ.د. يسري جبر","category":"حديث"},{"id":"1jBVGmueAYE","title":"82- شرح اللؤلؤ والمرجان كتاب الرضاع من الباب العاشر","publishedAt":"2020-03-01T06:00:00Z","duration":"PT21M27S","thumbnail":"https://i.ytimg.com/vi/1jBVGmueAYE/mqdefault.jpg","viewCount":"340","playlistId":"PLEkQk5xrP-tmKNjtYLfhATC37QdIsTMe0","playlistName":"شرح كتاب اللؤلؤ والمرجان فيما اتفق عليه الشيخان إماما المحدثين البخاري ومسلم. أ.د. يسري جبر","category":"حديث"},{"id":"I5EjmJN0bPE","title":"143- شجاعة النَّبيّ ﷺ وتقدُّمه للحرب","publishedAt":"2020-10-02T07:19:52Z","duration":"PT22M20S","thumbnail":"https://i.ytimg.com/vi/I5EjmJN0bPE/mqdefault.jpg","viewCount":"1566","playlistId":"PLEkQk5xrP-tmKNjtYLfhATC37QdIsTMe0","playlistName":"شرح كتاب اللؤلؤ والمرجان فيما اتفق عليه الشيخان إماما المحدثين البخاري ومسلم. أ.د. يسري جبر","category":"حديث"},{"id":"AbBD8WT3dZ8","title":"142- بابُ ذِكْرِ كونِه ﷺ خاتم النبيين","publishedAt":"2020-09-30T08:28:14Z","duration":"PT24M36S","thumbnail":"https://i.ytimg.com/vi/AbBD8WT3dZ8/mqdefault.jpg","viewCount":"1734","playlistId":"PLEkQk5xrP-tmKNjtYLfhATC37QdIsTMe0","playlistName":"شرح كتاب اللؤلؤ والمرجان فيما اتفق عليه الشيخان إماما المحدثين البخاري ومسلم. أ.د. يسري جبر","category":"حديث"},{"id":"rl_Vx0svDYc","title":"141-  معجزات النَّبيّ  ﷺ","publishedAt":"2020-09-28T20:09:48Z","duration":"PT24M13S","thumbnail":"https://i.ytimg.com/vi/rl_Vx0svDYc/mqdefault.jpg","viewCount":"2759","playlistId":"PLEkQk5xrP-tmKNjtYLfhATC37QdIsTMe0","playlistName":"شرح كتاب اللؤلؤ والمرجان فيما اتفق عليه الشيخان إماما المحدثين البخاري ومسلم. أ.د. يسري جبر","category":"حديث"},{"id":"MfKhIJDJyTk","title":"140- رؤيا النَّبيّ ﷺ","publishedAt":"2020-09-27T06:56:05Z","duration":"PT31M12S","thumbnail":"https://i.ytimg.com/vi/MfKhIJDJyTk/mqdefault.jpg","viewCount":"14089","playlistId":"PLEkQk5xrP-tmKNjtYLfhATC37QdIsTMe0","playlistName":"شرح كتاب اللؤلؤ والمرجان فيما اتفق عليه الشيخان إماما المحدثين البخاري ومسلم. أ.د. يسري جبر","category":"حديث"},{"id":"ioRnkJjMDpw","title":"139- الرؤيا","publishedAt":"2020-09-26T04:41:02Z","duration":"PT22M7S","thumbnail":"https://i.ytimg.com/vi/ioRnkJjMDpw/mqdefault.jpg","viewCount":"8017","playlistId":"PLEkQk5xrP-tmKNjtYLfhATC37QdIsTMe0","playlistName":"شرح كتاب اللؤلؤ والمرجان فيما اتفق عليه الشيخان إماما المحدثين البخاري ومسلم. أ.د. يسري جبر","category":"حديث"},{"id":"lXA1NO5wcNE","title":"138- النَّهْي عن سبِّ الدهر","publishedAt":"2020-09-24T06:02:27Z","duration":"PT18M","thumbnail":"https://i.ytimg.com/vi/lXA1NO5wcNE/mqdefault.jpg","viewCount":"1229","playlistId":"PLEkQk5xrP-tmKNjtYLfhATC37QdIsTMe0","playlistName":"شرح كتاب اللؤلؤ والمرجان فيما اتفق عليه الشيخان إماما المحدثين البخاري ومسلم. أ.د. يسري جبر","category":"حديث"},{"id":"NKblwYCm1_w","title":"30- شرح اللؤلؤ والمرجان كتاب المساجد ومواضع الصلاة من باب أوله","publishedAt":"2020-01-14T11:35:08Z","duration":"PT41M","thumbnail":"https://i.ytimg.com/vi/NKblwYCm1_w/mqdefault.jpg","viewCount":"772","playlistId":"PLEkQk5xrP-tmKNjtYLfhATC37QdIsTMe0","playlistName":"شرح كتاب اللؤلؤ والمرجان فيما اتفق عليه الشيخان إماما المحدثين البخاري ومسلم. أ.د. يسري جبر","category":"حديث"}],"total":192,"page":4,"pageSize":24,"totalPages":8}