{"items":[{"id":"pCuupYitNN4","title":"القِسمُ (22) من التوكيد: الاعتراض (2) شرح البرهان في علوم القرآن","publishedAt":"2021-05-19T06:13:32Z","duration":"PT30M5S","thumbnail":"https://i.ytimg.com/vi/pCuupYitNN4/mqdefault.jpg","viewCount":"353","playlistId":"PLEkQk5xrP-tnW3iBL7HkKziOFCFZbTlf0","playlistName":"شرح البرهان في علوم القرآن - أ.د. يسري جبر","category":"تفسير"},{"id":"MpsvTCUgWc0","title":"القِسمُ (22) من التوكيد: الاعتراض - شرح البرهان في علوم القرآن","publishedAt":"2021-05-18T04:57:05Z","duration":"PT12M2S","thumbnail":"https://i.ytimg.com/vi/MpsvTCUgWc0/mqdefault.jpg","viewCount":"319","playlistId":"PLEkQk5xrP-tnW3iBL7HkKziOFCFZbTlf0","playlistName":"شرح البرهان في علوم القرآن - أ.د. يسري جبر","category":"تفسير"},{"id":"IWq_HOd0wLg","title":"القِسمُ (21) من التوكيد: المبالغة (فائدة) - شرح البرهان في علوم القرآن","publishedAt":"2021-05-16T19:21:28Z","duration":"PT18M35S","thumbnail":"https://i.ytimg.com/vi/IWq_HOd0wLg/mqdefault.jpg","viewCount":"379","playlistId":"PLEkQk5xrP-tnW3iBL7HkKziOFCFZbTlf0","playlistName":"شرح البرهان في علوم القرآن - أ.د. يسري جبر","category":"تفسير"},{"id":"qs8PbvAdgt8","title":"القِسمُ (21) من التوكيد: المبالغة - شرح البرهان في علوم القرآن","publishedAt":"2021-05-15T06:47:51Z","duration":"PT16M24S","thumbnail":"https://i.ytimg.com/vi/qs8PbvAdgt8/mqdefault.jpg","viewCount":"328","playlistId":"PLEkQk5xrP-tnW3iBL7HkKziOFCFZbTlf0","playlistName":"شرح البرهان في علوم القرآن - أ.د. يسري جبر","category":"تفسير"},{"id":"hzc8o54ghWA","title":"القِسمُ (20) من التوكيد: الاستثناء والاستدراك - شرح البرهان في علوم القرآن","publishedAt":"2021-05-13T07:04:18Z","duration":"PT17M6S","thumbnail":"https://i.ytimg.com/vi/hzc8o54ghWA/mqdefault.jpg","viewCount":"328","playlistId":"PLEkQk5xrP-tnW3iBL7HkKziOFCFZbTlf0","playlistName":"شرح البرهان في علوم القرآن - أ.د. يسري جبر","category":"تفسير"},{"id":"D4YAqDrwuWg","title":"القِسمُ (19) من التوكيد: إبراز الكلام في صورة المستحيل…\"- شرح البرهان في علوم القرآن","publishedAt":"2021-05-11T06:30:56Z","duration":"PT10M31S","thumbnail":"https://i.ytimg.com/vi/D4YAqDrwuWg/mqdefault.jpg","viewCount":"165","playlistId":"PLEkQk5xrP-tnW3iBL7HkKziOFCFZbTlf0","playlistName":"شرح البرهان في علوم القرآن - أ.د. يسري جبر","category":"تفسير"},{"id":"3v9rTKhKnbM","title":"619- (ما) الشَرطيَّة - شرح البرهان في علوم القرآن","publishedAt":"2022-12-13T05:00:04Z","duration":"PT31M33S","thumbnail":"https://i.ytimg.com/vi/3v9rTKhKnbM/mqdefault.jpg","viewCount":"281","playlistId":"PLEkQk5xrP-tnW3iBL7HkKziOFCFZbTlf0","playlistName":"شرح البرهان في علوم القرآن - أ.د. يسري جبر","category":"تفسير"},{"id":"NuPqmeTmyZs","title":"618- معنى (ما) - شرح البرهان في علوم القرآن","publishedAt":"2022-12-11T05:00:09Z","duration":"PT37M19S","thumbnail":"https://i.ytimg.com/vi/NuPqmeTmyZs/mqdefault.jpg","viewCount":"391","playlistId":"PLEkQk5xrP-tnW3iBL7HkKziOFCFZbTlf0","playlistName":"شرح البرهان في علوم القرآن - أ.د. يسري جبر","category":"تفسير"},{"id":"3xCu8wPbjVs","title":"617- (لَيْسَ - لَدُنْ) - شرح البرهان في علوم القرآن","publishedAt":"2022-12-10T05:00:02Z","duration":"PT18M54S","thumbnail":"https://i.ytimg.com/vi/3xCu8wPbjVs/mqdefault.jpg","viewCount":"347","playlistId":"PLEkQk5xrP-tnW3iBL7HkKziOFCFZbTlf0","playlistName":"شرح البرهان في علوم القرآن - أ.د. يسري جبر","category":"تفسير"},{"id":"uJ_NQAAhnr0","title":"616- حرف (لَعَلَّ) - شرح البرهان في علوم القرآن","publishedAt":"2022-12-09T05:00:17Z","duration":"PT30M28S","thumbnail":"https://i.ytimg.com/vi/uJ_NQAAhnr0/mqdefault.jpg","viewCount":"272","playlistId":"PLEkQk5xrP-tnW3iBL7HkKziOFCFZbTlf0","playlistName":"شرح البرهان في علوم القرآن - أ.د. يسري جبر","category":"تفسير"},{"id":"_sN9rB8RWdA","title":"615- حرف (لَكن - لَكنَّ) - شرح البرهان في علوم القرآن","publishedAt":"2022-12-08T05:00:11Z","duration":"PT28M35S","thumbnail":"https://i.ytimg.com/vi/_sN9rB8RWdA/mqdefault.jpg","viewCount":"359","playlistId":"PLEkQk5xrP-tnW3iBL7HkKziOFCFZbTlf0","playlistName":"شرح البرهان في علوم القرآن - أ.د. يسري جبر","category":"تفسير"},{"id":"Gb1xEY7_ooc","title":"614- حرف (لَمَا) - شرح البرهان في علوم القرآن","publishedAt":"2022-12-07T05:00:05Z","duration":"PT19M52S","thumbnail":"https://i.ytimg.com/vi/Gb1xEY7_ooc/mqdefault.jpg","viewCount":"407","playlistId":"PLEkQk5xrP-tnW3iBL7HkKziOFCFZbTlf0","playlistName":"شرح البرهان في علوم القرآن - أ.د. يسري جبر","category":"تفسير"},{"id":"KRqcihzf5Ko","title":"613- حرف (لمَّا) - شرح البرهان في علوم القرآن","publishedAt":"2022-12-06T05:00:05Z","duration":"PT30M38S","thumbnail":"https://i.ytimg.com/vi/KRqcihzf5Ko/mqdefault.jpg","viewCount":"354","playlistId":"PLEkQk5xrP-tnW3iBL7HkKziOFCFZbTlf0","playlistName":"شرح البرهان في علوم القرآن - أ.د. يسري جبر","category":"تفسير"},{"id":"xcbaEBW8Dxk","title":"القِسمُ (14) من التوكيد: فوائد التَّكرار: الفائدة الثالثة - شرح البرهان في علوم القرآن","publishedAt":"2021-04-21T05:50:01Z","duration":"PT21M39S","thumbnail":"https://i.ytimg.com/vi/xcbaEBW8Dxk/mqdefault.jpg","viewCount":"389","playlistId":"PLEkQk5xrP-tnW3iBL7HkKziOFCFZbTlf0","playlistName":"شرح البرهان في علوم القرآن - أ.د. يسري جبر","category":"تفسير"},{"id":"tcDD9Mj5ng8","title":"القِسمُ (14) من التوكيد: فوائد التَّكرار  - شرح البرهان في علوم القرآن","publishedAt":"2021-04-19T05:40:08Z","duration":"PT8M59S","thumbnail":"https://i.ytimg.com/vi/tcDD9Mj5ng8/mqdefault.jpg","viewCount":"280","playlistId":"PLEkQk5xrP-tnW3iBL7HkKziOFCFZbTlf0","playlistName":"شرح البرهان في علوم القرآن - أ.د. يسري جبر","category":"تفسير"},{"id":"vx6JDIzZxmM","title":"القِسمُ (14) من التوكيد: التَّكرار على وجه التأكيد - شرح البرهان في علوم القرآن","publishedAt":"2021-04-17T05:17:37Z","duration":"PT13M10S","thumbnail":"https://i.ytimg.com/vi/vx6JDIzZxmM/mqdefault.jpg","viewCount":"215","playlistId":"PLEkQk5xrP-tnW3iBL7HkKziOFCFZbTlf0","playlistName":"شرح البرهان في علوم القرآن - أ.د. يسري جبر","category":"تفسير"},{"id":"NI_xXXP2lv4","title":"القِسمُ (12) من التوكيد: إطلاق الجَمْع وإرادة الواحد - شرح البرهان في علوم القرآن","publishedAt":"2021-04-15T06:44:13Z","duration":"PT11M51S","thumbnail":"https://i.ytimg.com/vi/NI_xXXP2lv4/mqdefault.jpg","viewCount":"275","playlistId":"PLEkQk5xrP-tnW3iBL7HkKziOFCFZbTlf0","playlistName":"شرح البرهان في علوم القرآن - أ.د. يسري جبر","category":"تفسير"},{"id":"d-bJOM6os7Q","title":"612- حرف (لوما) - شرح البرهان في علوم القرآن","publishedAt":"2022-12-05T05:00:11Z","duration":"PT19M37S","thumbnail":"https://i.ytimg.com/vi/d-bJOM6os7Q/mqdefault.jpg","viewCount":"368","playlistId":"PLEkQk5xrP-tnW3iBL7HkKziOFCFZbTlf0","playlistName":"شرح البرهان في علوم القرآن - أ.د. يسري جبر","category":"تفسير"},{"id":"NaFQxHveOCI","title":"611- حرف (لولا) - شرح البرهان في علوم القرآن","publishedAt":"2022-12-04T05:00:14Z","duration":"PT23M30S","thumbnail":"https://i.ytimg.com/vi/NaFQxHveOCI/mqdefault.jpg","viewCount":"279","playlistId":"PLEkQk5xrP-tnW3iBL7HkKziOFCFZbTlf0","playlistName":"شرح البرهان في علوم القرآن - أ.د. يسري جبر","category":"تفسير"},{"id":"TXIWLRJuHh0","title":"610- (لو) المصدرية - شرح البرهان في علوم القرآن","publishedAt":"2022-12-03T05:00:09Z","duration":"PT14M25S","thumbnail":"https://i.ytimg.com/vi/TXIWLRJuHh0/mqdefault.jpg","viewCount":"301","playlistId":"PLEkQk5xrP-tnW3iBL7HkKziOFCFZbTlf0","playlistName":"شرح البرهان في علوم القرآن - أ.د. يسري جبر","category":"تفسير"},{"id":"3LfClT1oCXA","title":"609- (لو) الامتناعية(2) - شرح البرهان في علوم القرآن","publishedAt":"2022-12-02T05:00:01Z","duration":"PT16M27S","thumbnail":"https://i.ytimg.com/vi/3LfClT1oCXA/mqdefault.jpg","viewCount":"320","playlistId":"PLEkQk5xrP-tnW3iBL7HkKziOFCFZbTlf0","playlistName":"شرح البرهان في علوم القرآن - أ.د. يسري جبر","category":"تفسير"},{"id":"1PPF33WRDto","title":"608- (لو) الامتناعية؛ وفيها عِدة مسائل - شرح البرهان في علوم القران","publishedAt":"2022-12-01T05:00:00Z","duration":"PT18M54S","thumbnail":"https://i.ytimg.com/vi/1PPF33WRDto/mqdefault.jpg","viewCount":"404","playlistId":"PLEkQk5xrP-tnW3iBL7HkKziOFCFZbTlf0","playlistName":"شرح البرهان في علوم القرآن - أ.د. يسري جبر","category":"تفسير"},{"id":"1gS7uyJaBD0","title":"607- (لو) حرف امتناع لامتناع، وامتناع لوجوب - شرح البرهان في علوم القرآن","publishedAt":"2022-11-30T05:00:02Z","duration":"PT21M52S","thumbnail":"https://i.ytimg.com/vi/1gS7uyJaBD0/mqdefault.jpg","viewCount":"831","playlistId":"PLEkQk5xrP-tnW3iBL7HkKziOFCFZbTlf0","playlistName":"شرح البرهان في علوم القرآن - أ.د. يسري جبر","category":"تفسير"},{"id":"YAqgsMOgs5o","title":"606-  حرف (لو) - شرح البرهان في علوم القرآن","publishedAt":"2022-11-29T05:05:00Z","duration":"PT30M11S","thumbnail":"https://i.ytimg.com/vi/YAqgsMOgs5o/mqdefault.jpg","viewCount":"389","playlistId":"PLEkQk5xrP-tnW3iBL7HkKziOFCFZbTlf0","playlistName":"شرح البرهان في علوم القرآن - أ.د. يسري جبر","category":"تفسير"}],"total":631,"page":8,"pageSize":24,"totalPages":27}