{"items":[{"id":"-oHnBNGPNG0","title":"شرح البرهان في علوم القرآن - النوع ٣ - إيقاع المناسبة في مقاطع الفواصل","publishedAt":"2019-08-30T09:25:26Z","duration":"PT33M22S","thumbnail":"https://i.ytimg.com/vi/-oHnBNGPNG0/mqdefault.jpg","viewCount":"1491","playlistId":"PLEkQk5xrP-tnW3iBL7HkKziOFCFZbTlf0","playlistName":"شرح البرهان في علوم القرآن - أ.د. يسري جبر","category":"تفسير"},{"id":"NmLTGT9LYtY","title":"شرح البرهان في علوم القرآن - النوع ٣ - معرفة الفواصل ورؤوس الآي","publishedAt":"2019-08-29T15:09:22Z","duration":"PT34M39S","thumbnail":"https://i.ytimg.com/vi/NmLTGT9LYtY/mqdefault.jpg","viewCount":"2210","playlistId":"PLEkQk5xrP-tnW3iBL7HkKziOFCFZbTlf0","playlistName":"شرح البرهان في علوم القرآن - أ.د. يسري جبر","category":"تفسير"},{"id":"C_zbpISEPZc","title":"شرح البرهان في علوم القرآن - النوع ٢ - تتمة أنواع ارتباط الآي بعضها ببعض","publishedAt":"2019-08-28T09:36:24Z","duration":"PT25M37S","thumbnail":"https://i.ytimg.com/vi/C_zbpISEPZc/mqdefault.jpg","viewCount":"1930","playlistId":"PLEkQk5xrP-tnW3iBL7HkKziOFCFZbTlf0","playlistName":"شرح البرهان في علوم القرآن - أ.د. يسري جبر","category":"تفسير"},{"id":"7ieWuZN8pMg","title":"شرح البرهان في علوم القرآن - النوع ٢ - تكملة أنواع ارتباط الآي بعضها ببعض","publishedAt":"2019-08-27T16:27:42Z","duration":"PT31M18S","thumbnail":"https://i.ytimg.com/vi/7ieWuZN8pMg/mqdefault.jpg","viewCount":"2092","playlistId":"PLEkQk5xrP-tnW3iBL7HkKziOFCFZbTlf0","playlistName":"شرح البرهان في علوم القرآن - أ.د. يسري جبر","category":"تفسير"},{"id":"joU3ciSZR9g","title":"شرح البرهان في علوم القرآن - النوع ٢ - أنواع ارتباط الآي بعضها ببعض","publishedAt":"2019-08-26T10:19:44Z","duration":"PT29M58S","thumbnail":"https://i.ytimg.com/vi/joU3ciSZR9g/mqdefault.jpg","viewCount":"2556","playlistId":"PLEkQk5xrP-tnW3iBL7HkKziOFCFZbTlf0","playlistName":"شرح البرهان في علوم القرآن - أ.د. يسري جبر","category":"تفسير"},{"id":"uTW3b3QLU30","title":"شرح البرهان في علوم القرآن - النوع ٢ - معرفة المناسبات بين الآيات","publishedAt":"2019-08-25T08:53:35Z","duration":"PT33M34S","thumbnail":"https://i.ytimg.com/vi/uTW3b3QLU30/mqdefault.jpg","viewCount":"3319","playlistId":"PLEkQk5xrP-tnW3iBL7HkKziOFCFZbTlf0","playlistName":"شرح البرهان في علوم القرآن - أ.د. يسري جبر","category":"تفسير"},{"id":"T7v1Rwp9bAo","title":"شرح البرهان في علوم القرآن - النوع ١ - فصل فيما نزل مكررا","publishedAt":"2019-08-24T10:04:37Z","duration":"PT27M16S","thumbnail":"https://i.ytimg.com/vi/T7v1Rwp9bAo/mqdefault.jpg","viewCount":"3591","playlistId":"PLEkQk5xrP-tnW3iBL7HkKziOFCFZbTlf0","playlistName":"شرح البرهان في علوم القرآن - أ.د. يسري جبر","category":"تفسير"},{"id":"qjIOYpIZQs4","title":"شرح البرهان في علوم القرآن - النوع ١ - معرفة أسباب النزول","publishedAt":"2019-08-22T09:25:58Z","duration":"PT35M22S","thumbnail":"https://i.ytimg.com/vi/qjIOYpIZQs4/mqdefault.jpg","viewCount":"5076","playlistId":"PLEkQk5xrP-tnW3iBL7HkKziOFCFZbTlf0","playlistName":"شرح البرهان في علوم القرآن - أ.د. يسري جبر","category":"تفسير"},{"id":"42rWRT9_NVs","title":"شرح البرهان في علوم القرآن - فصل في علوم القرآن","publishedAt":"2019-08-21T09:15:42Z","duration":"PT27M34S","thumbnail":"https://i.ytimg.com/vi/42rWRT9_NVs/mqdefault.jpg","viewCount":"4160","playlistId":"PLEkQk5xrP-tnW3iBL7HkKziOFCFZbTlf0","playlistName":"شرح البرهان في علوم القرآن - أ.د. يسري جبر","category":"تفسير"},{"id":"Z9iOZ43j4a0","title":"شرح البرهان في علوم القرآن - فصل في علم التفسير","publishedAt":"2019-08-20T07:21:52Z","duration":"PT36M23S","thumbnail":"https://i.ytimg.com/vi/Z9iOZ43j4a0/mqdefault.jpg","viewCount":"6543","playlistId":"PLEkQk5xrP-tnW3iBL7HkKziOFCFZbTlf0","playlistName":"شرح البرهان في علوم القرآن - أ.د. يسري جبر","category":"تفسير"},{"id":"VB0Aunmfr34","title":"شرح البرهان في علوم القرآن - تكملة مقدمة المؤلف","publishedAt":"2019-08-19T09:41:00Z","duration":"PT29M23S","thumbnail":"https://i.ytimg.com/vi/VB0Aunmfr34/mqdefault.jpg","viewCount":"5690","playlistId":"PLEkQk5xrP-tnW3iBL7HkKziOFCFZbTlf0","playlistName":"شرح البرهان في علوم القرآن - أ.د. يسري جبر","category":"تفسير"},{"id":"OzL4hAp9YOE","title":"شرح البرهان في علوم القرآن - مقدمة المؤلف","publishedAt":"2019-08-18T11:26:07Z","duration":"PT34M46S","thumbnail":"https://i.ytimg.com/vi/OzL4hAp9YOE/mqdefault.jpg","viewCount":"15763","playlistId":"PLEkQk5xrP-tnW3iBL7HkKziOFCFZbTlf0","playlistName":"شرح البرهان في علوم القرآن - أ.د. يسري جبر","category":"تفسير"},{"id":"iQasc6ivZXI","title":"الالتفات - شرح البرهان في علوم القرآن","publishedAt":"2021-11-08T05:14:55Z","duration":"PT13M53S","thumbnail":"https://i.ytimg.com/vi/iQasc6ivZXI/mqdefault.jpg","viewCount":"760","playlistId":"PLEkQk5xrP-tnW3iBL7HkKziOFCFZbTlf0","playlistName":"شرح البرهان في علوم القرآن - أ.د. يسري جبر","category":"تفسير"},{"id":"7mjUOsrsnXU","title":"تغليب الإسلام - شرح البرهان في علوم القرآن","publishedAt":"2021-11-06T20:58:53Z","duration":"PT30M30S","thumbnail":"https://i.ytimg.com/vi/7mjUOsrsnXU/mqdefault.jpg","viewCount":"655","playlistId":"PLEkQk5xrP-tnW3iBL7HkKziOFCFZbTlf0","playlistName":"شرح البرهان في علوم القرآن - أ.د. يسري جبر","category":"تفسير"},{"id":"RSJxbj1IYM4","title":"تغليب الموصوف على غير الموصوف - شرح البرهان في علوم القرآن","publishedAt":"2021-11-02T02:44:17Z","duration":"PT25M25S","thumbnail":"https://i.ytimg.com/vi/RSJxbj1IYM4/mqdefault.jpg","viewCount":"425","playlistId":"PLEkQk5xrP-tnW3iBL7HkKziOFCFZbTlf0","playlistName":"شرح البرهان في علوم القرآن - أ.د. يسري جبر","category":"تفسير"},{"id":"_Cyb1Uu927A","title":"تغليب العاقل على غيره - شرح البرهان في علوم القرآن","publishedAt":"2021-10-31T10:26:24Z","duration":"PT25M3S","thumbnail":"https://i.ytimg.com/vi/_Cyb1Uu927A/mqdefault.jpg","viewCount":"576","playlistId":"PLEkQk5xrP-tnW3iBL7HkKziOFCFZbTlf0","playlistName":"شرح البرهان في علوم القرآن - أ.د. يسري جبر","category":"تفسير"},{"id":"VtSvDVudqRA","title":"الأسلوب العاشر: الترديد - شرح البرهان في علوم القرآن","publishedAt":"2021-10-30T09:34:26Z","duration":"PT21M8S","thumbnail":"https://i.ytimg.com/vi/VtSvDVudqRA/mqdefault.jpg","viewCount":"432","playlistId":"PLEkQk5xrP-tnW3iBL7HkKziOFCFZbTlf0","playlistName":"شرح البرهان في علوم القرآن - أ.د. يسري جبر","category":"تفسير"},{"id":"gvA1FpHDsZA","title":"الأسلوب السابع: الاختصاص - شرح البرهان في علوم القرآن","publishedAt":"2021-10-28T04:15:03Z","duration":"PT8M20S","thumbnail":"https://i.ytimg.com/vi/gvA1FpHDsZA/mqdefault.jpg","viewCount":"468","playlistId":"PLEkQk5xrP-tnW3iBL7HkKziOFCFZbTlf0","playlistName":"شرح البرهان في علوم القرآن - أ.د. يسري جبر","category":"تفسير"},{"id":"icPjRY-frAM","title":"الأسلوب الخامس: المُدْرَج - البرهان في علوم القرآن","publishedAt":"2021-10-26T19:03:27Z","duration":"PT27M27S","thumbnail":"https://i.ytimg.com/vi/icPjRY-frAM/mqdefault.jpg","viewCount":"518","playlistId":"PLEkQk5xrP-tnW3iBL7HkKziOFCFZbTlf0","playlistName":"شرح البرهان في علوم القرآن - أ.د. يسري جبر","category":"تفسير"},{"id":"otp-gCH9W6Y","title":"النوع الثاني: قلب المعطوف - البرهان في علوم القرآن","publishedAt":"2021-10-26T03:44:55Z","duration":"PT7M28S","thumbnail":"https://i.ytimg.com/vi/otp-gCH9W6Y/mqdefault.jpg","viewCount":"481","playlistId":"PLEkQk5xrP-tnW3iBL7HkKziOFCFZbTlf0","playlistName":"شرح البرهان في علوم القرآن - أ.د. يسري جبر","category":"تفسير"},{"id":"SZy3jhELfQQ","title":"الأسلوب الرابع: القلب - البرهان في علوم القرآن","publishedAt":"2021-10-24T06:19:38Z","duration":"PT32M8S","thumbnail":"https://i.ytimg.com/vi/SZy3jhELfQQ/mqdefault.jpg","viewCount":"730","playlistId":"PLEkQk5xrP-tnW3iBL7HkKziOFCFZbTlf0","playlistName":"شرح البرهان في علوم القرآن - أ.د. يسري جبر","category":"تفسير"},{"id":"M0I_qUoZCTI","title":"أمثلة ما قُدّم في آية وأُخّر في أخرى(2) - تكملة أنواع التقديم والتأخير(22) البرهان في علوم القرآن","publishedAt":"2021-10-22T04:07:01Z","duration":"PT17M43S","thumbnail":"https://i.ytimg.com/vi/M0I_qUoZCTI/mqdefault.jpg","viewCount":"482","playlistId":"PLEkQk5xrP-tnW3iBL7HkKziOFCFZbTlf0","playlistName":"شرح البرهان في علوم القرآن - أ.د. يسري جبر","category":"تفسير"},{"id":"U3mRjAGfc1I","title":"النوع الثالث: ما قُدّم في آية وأُخّر في أخرى تكملة أنواع التقديم والتأخير(21) البرهان في علوم القرآن","publishedAt":"2021-10-20T10:25:27Z","duration":"PT26M59S","thumbnail":"https://i.ytimg.com/vi/U3mRjAGfc1I/mqdefault.jpg","viewCount":"415","playlistId":"PLEkQk5xrP-tnW3iBL7HkKziOFCFZbTlf0","playlistName":"شرح البرهان في علوم القرآن - أ.د. يسري جبر","category":"تفسير"},{"id":"LnORgwmHjHs","title":"النوع الثاني مما قُدِّم ورتبته التأخير(٢)تكملة أنواع التقديم والتأخير(20)شرح البرهان في علوم القرآن","publishedAt":"2021-10-19T03:30:31Z","duration":"PT25M40S","thumbnail":"https://i.ytimg.com/vi/LnORgwmHjHs/mqdefault.jpg","viewCount":"404","playlistId":"PLEkQk5xrP-tnW3iBL7HkKziOFCFZbTlf0","playlistName":"شرح البرهان في علوم القرآن - أ.د. يسري جبر","category":"تفسير"}],"total":631,"page":9,"pageSize":24,"totalPages":27}