{"items":[{"id":"OnfS0_-P-Z4","title":"499- الفَرقُ بينَ الخِطَابِ بالاسمِ والفعل - شرح البرهان في علوم القرآن","publishedAt":"2022-04-26T05:00:08Z","duration":"PT32M32S","thumbnail":"https://i.ytimg.com/vi/OnfS0_-P-Z4/mqdefault.jpg","viewCount":"990","playlistId":"PLEkQk5xrP-tnW3iBL7HkKziOFCFZbTlf0","playlistName":"شرح البرهان في علوم القرآن - أ.د. يسري جبر","category":"تفسير"},{"id":"A3IfUUVLSjs","title":"498- ذِكْرُ الرَّحْمَةِ والعَذَابِ في القُرآن - شرح البرهان في علوم القرآن","publishedAt":"2022-04-24T05:00:06Z","duration":"PT26M24S","thumbnail":"https://i.ytimg.com/vi/A3IfUUVLSjs/mqdefault.jpg","viewCount":"657","playlistId":"PLEkQk5xrP-tnW3iBL7HkKziOFCFZbTlf0","playlistName":"شرح البرهان في علوم القرآن - أ.د. يسري جبر","category":"تفسير"},{"id":"9Wc-N5_6zRU","title":"487- قاعدة في الضمائر (قد يُذكر شيئان ويُعاد الضمير على أحدهما) - شرح البرهان في علوم القرآن","publishedAt":"2022-03-29T06:41:41Z","duration":"PT13M51S","thumbnail":"https://i.ytimg.com/vi/9Wc-N5_6zRU/mqdefault.jpg","viewCount":"508","playlistId":"PLEkQk5xrP-tnW3iBL7HkKziOFCFZbTlf0","playlistName":"شرح البرهان في علوم القرآن - أ.د. يسري جبر","category":"تفسير"},{"id":"OSGj5u05cP0","title":"486- قاعدة في الضمائر (ألَّا يعود على مذكور، ولا معلوم بالسياق، أو غيره)- شرح البرهان في علوم القرآن","publishedAt":"2022-03-28T06:12:24Z","duration":"PT6M34S","thumbnail":"https://i.ytimg.com/vi/OSGj5u05cP0/mqdefault.jpg","viewCount":"578","playlistId":"PLEkQk5xrP-tnW3iBL7HkKziOFCFZbTlf0","playlistName":"شرح البرهان في علوم القرآن - أ.د. يسري جبر","category":"تفسير"},{"id":"IvdHEYZx_mg","title":"485- قاعدة في الضمائر (أن يدل عليه بالالتزام) - شرح البرهان في علوم القرآن","publishedAt":"2022-03-27T21:41:24Z","duration":"PT20M41S","thumbnail":"https://i.ytimg.com/vi/IvdHEYZx_mg/mqdefault.jpg","viewCount":"517","playlistId":"PLEkQk5xrP-tnW3iBL7HkKziOFCFZbTlf0","playlistName":"شرح البرهان في علوم القرآن - أ.د. يسري جبر","category":"تفسير"},{"id":"pHGhJjbTm-M","title":"484- قاعدةٌ في الضمائر وأسباب استعمالها - شرح البرهان في علوم القرآن","publishedAt":"2022-03-26T19:52:05Z","duration":"PT14M4S","thumbnail":"https://i.ytimg.com/vi/pHGhJjbTm-M/mqdefault.jpg","viewCount":"651","playlistId":"PLEkQk5xrP-tnW3iBL7HkKziOFCFZbTlf0","playlistName":"شرح البرهان في علوم القرآن - أ.د. يسري جبر","category":"تفسير"},{"id":"oxNQXVy4ZEo","title":"483- قاعدةٌ نَحَويَّة: نون الجَمْع - شرح البرهان في علوم القرآن","publishedAt":"2022-03-26T05:13:42Z","duration":"PT9M43S","thumbnail":"https://i.ytimg.com/vi/oxNQXVy4ZEo/mqdefault.jpg","viewCount":"536","playlistId":"PLEkQk5xrP-tnW3iBL7HkKziOFCFZbTlf0","playlistName":"شرح البرهان في علوم القرآن - أ.د. يسري جبر","category":"تفسير"},{"id":"D4zpPmTtucA","title":"482- أكواب وأباريق | كأس ما الفرق بينهما؟ - شرح البرهان في علوم القرآن","publishedAt":"2022-03-25T05:57:57Z","duration":"PT30M29S","thumbnail":"https://i.ytimg.com/vi/D4zpPmTtucA/mqdefault.jpg","viewCount":"1157","playlistId":"PLEkQk5xrP-tnW3iBL7HkKziOFCFZbTlf0","playlistName":"شرح البرهان في علوم القرآن - أ.د. يسري جبر","category":"تفسير"},{"id":"pKFPKntkImw","title":"497- التَّأدُّبُ في الخِطَابِ بإضَافَةِ الخَيرِ إلى الله - شرح البرهان في علوم القرآن","publishedAt":"2022-04-22T05:00:30Z","duration":"PT35M38S","thumbnail":"https://i.ytimg.com/vi/pKFPKntkImw/mqdefault.jpg","viewCount":"745","playlistId":"PLEkQk5xrP-tnW3iBL7HkKziOFCFZbTlf0","playlistName":"شرح البرهان في علوم القرآن - أ.د. يسري جبر","category":"تفسير"},{"id":"NW8dEusdEM0","title":"496- الخِطابُ بالشيء عن اعتقاد المُخَاطَبِ دون ما في نفْس الأمر - شرح البرهان في علوم القرآن","publishedAt":"2022-04-20T05:00:16Z","duration":"PT23M25S","thumbnail":"https://i.ytimg.com/vi/NW8dEusdEM0/mqdefault.jpg","viewCount":"534","playlistId":"PLEkQk5xrP-tnW3iBL7HkKziOFCFZbTlf0","playlistName":"شرح البرهان في علوم القرآن - أ.د. يسري جبر","category":"تفسير"},{"id":"g1xZJ2NniWQ","title":"شرح البرهان في علوم القرآن - النوع ٤١ - معرفة تقسيره وتأويله","publishedAt":"2020-04-04T07:00:11Z","duration":"PT16M27S","thumbnail":"https://i.ytimg.com/vi/g1xZJ2NniWQ/mqdefault.jpg","viewCount":"421","playlistId":"PLEkQk5xrP-tnW3iBL7HkKziOFCFZbTlf0","playlistName":"شرح البرهان في علوم القرآن - أ.د. يسري جبر","category":"تفسير"},{"id":"I3AQ4jO8dJ4","title":"شرح البرهان في علوم القرآن - النوع ١٤ - معرفة تقسيمه بحسب سوره وترتيب السور والآيات وعددها","publishedAt":"2019-11-02T23:27:34Z","duration":"PT16M44S","thumbnail":"https://i.ytimg.com/vi/I3AQ4jO8dJ4/mqdefault.jpg","viewCount":"617","playlistId":"PLEkQk5xrP-tnW3iBL7HkKziOFCFZbTlf0","playlistName":"شرح البرهان في علوم القرآن - أ.د. يسري جبر","category":"تفسير"},{"id":"VB_q2bL5-bg","title":"شرح البرهان في علوم القرآن - النوع ١٣ - نسخ القرآن في المصاحف ٢","publishedAt":"2019-11-01T22:21:21Z","duration":"PT19M26S","thumbnail":"https://i.ytimg.com/vi/VB_q2bL5-bg/mqdefault.jpg","viewCount":"596","playlistId":"PLEkQk5xrP-tnW3iBL7HkKziOFCFZbTlf0","playlistName":"شرح البرهان في علوم القرآن - أ.د. يسري جبر","category":"تفسير"},{"id":"Q3kUqqtTSxw","title":"شرح البرهان في علوم القرآن - النوع ١٣ - نسخ القرآن في المصاحف","publishedAt":"2019-10-31T10:47:41Z","duration":"PT24M28S","thumbnail":"https://i.ytimg.com/vi/Q3kUqqtTSxw/mqdefault.jpg","viewCount":"615","playlistId":"PLEkQk5xrP-tnW3iBL7HkKziOFCFZbTlf0","playlistName":"شرح البرهان في علوم القرآن - أ.د. يسري جبر","category":"تفسير"},{"id":"bxY_3XaRCyk","title":"شرح البرهان في علوم القرآن - النوع ٣١ - معرفة الأمثال الكائنة فيه","publishedAt":"2020-02-15T06:00:06Z","duration":"PT29M48S","thumbnail":"https://i.ytimg.com/vi/bxY_3XaRCyk/mqdefault.jpg","viewCount":"414","playlistId":"PLEkQk5xrP-tnW3iBL7HkKziOFCFZbTlf0","playlistName":"شرح البرهان في علوم القرآن - أ.د. يسري جبر","category":"تفسير"},{"id":"2o1ufN21RNY","title":"شرح البرهان في علوم القرآن - النوع ٣٠ - في أنه هل يجوز في التصانيف والرسائل والخطب استعمال...","publishedAt":"2020-02-14T06:00:00Z","duration":"PT23M58S","thumbnail":"https://i.ytimg.com/vi/2o1ufN21RNY/mqdefault.jpg","viewCount":"283","playlistId":"PLEkQk5xrP-tnW3iBL7HkKziOFCFZbTlf0","playlistName":"شرح البرهان في علوم القرآن - أ.د. يسري جبر","category":"تفسير"},{"id":"YcO4842ejw0","title":"شرح البرهان في علوم القرآن - النوع ٢٩ - مسألة في أحكام تتعلق باحترام المصحف وتبجيله","publishedAt":"2020-02-13T06:00:06Z","duration":"PT27M10S","thumbnail":"https://i.ytimg.com/vi/YcO4842ejw0/mqdefault.jpg","viewCount":"406","playlistId":"PLEkQk5xrP-tnW3iBL7HkKziOFCFZbTlf0","playlistName":"شرح البرهان في علوم القرآن - أ.د. يسري جبر","category":"تفسير"},{"id":"_QF2cMnYOjM","title":"شرح البرهان في علوم القرآن - النوع ٢٩ - مسألة في حكم من يشرب شيئا كتب من القرآن","publishedAt":"2020-02-12T06:00:06Z","duration":"PT25M5S","thumbnail":"https://i.ytimg.com/vi/_QF2cMnYOjM/mqdefault.jpg","viewCount":"681","playlistId":"PLEkQk5xrP-tnW3iBL7HkKziOFCFZbTlf0","playlistName":"شرح البرهان في علوم القرآن - أ.د. يسري جبر","category":"تفسير"},{"id":"4DTE3cgL8YQ","title":"شرح البرهان في علوم القرآن - النوع ٢٩ - مسألة في التكبير بين السور ابتداء من سورة الضحى","publishedAt":"2020-02-11T06:00:01Z","duration":"PT19M13S","thumbnail":"https://i.ytimg.com/vi/4DTE3cgL8YQ/mqdefault.jpg","viewCount":"802","playlistId":"PLEkQk5xrP-tnW3iBL7HkKziOFCFZbTlf0","playlistName":"شرح البرهان في علوم القرآن - أ.د. يسري جبر","category":"تفسير"},{"id":"k8-FJVaoYWQ","title":"شرح البرهان في علوم القرآن - النوع ٢٩ - فصل في ختم القرأن","publishedAt":"2020-02-10T06:00:06Z","duration":"PT17M46S","thumbnail":"https://i.ytimg.com/vi/k8-FJVaoYWQ/mqdefault.jpg","viewCount":"311","playlistId":"PLEkQk5xrP-tnW3iBL7HkKziOFCFZbTlf0","playlistName":"شرح البرهان في علوم القرآن - أ.د. يسري جبر","category":"تفسير"},{"id":"VUlH7Dqm9pk","title":"الاختزال (11) الغرض من حذف المفعول (2) - شرح البرهان في علوم القرآن","publishedAt":"2021-07-07T22:08:28Z","duration":"PT15M11S","thumbnail":"https://i.ytimg.com/vi/VUlH7Dqm9pk/mqdefault.jpg","viewCount":"314","playlistId":"PLEkQk5xrP-tnW3iBL7HkKziOFCFZbTlf0","playlistName":"شرح البرهان في علوم القرآن - أ.د. يسري جبر","category":"تفسير"},{"id":"aKj_DJDZWgc","title":"الاختزال (10) حذف المفعول - شرح البرهان في علوم القرآن","publishedAt":"2021-07-07T05:27:07Z","duration":"PT7M24S","thumbnail":"https://i.ytimg.com/vi/aKj_DJDZWgc/mqdefault.jpg","viewCount":"309","playlistId":"PLEkQk5xrP-tnW3iBL7HkKziOFCFZbTlf0","playlistName":"شرح البرهان في علوم القرآن - أ.د. يسري جبر","category":"تفسير"},{"id":"3TXhb5m542g","title":"الاختزال (9) حذف المخصوص في باب ( نِعْمَ وبِئْسَ ) شرح البرهان في علوم القرآن","publishedAt":"2021-07-06T12:50:11Z","duration":"PT21M45S","thumbnail":"https://i.ytimg.com/vi/3TXhb5m542g/mqdefault.jpg","viewCount":"267","playlistId":"PLEkQk5xrP-tnW3iBL7HkKziOFCFZbTlf0","playlistName":"شرح البرهان في علوم القرآن - أ.د. يسري جبر","category":"تفسير"},{"id":"7PTZsVBKZBQ","title":"الاختزال (8) حذف المعطوف عليه - شرح البرهان في علوم القرآن","publishedAt":"2021-07-05T05:40:18Z","duration":"PT11M48S","thumbnail":"https://i.ytimg.com/vi/7PTZsVBKZBQ/mqdefault.jpg","viewCount":"329","playlistId":"PLEkQk5xrP-tnW3iBL7HkKziOFCFZbTlf0","playlistName":"شرح البرهان في علوم القرآن - أ.د. يسري جبر","category":"تفسير"}],"total":631,"page":25,"pageSize":24,"totalPages":27}