{"items":[{"id":"OzL4hAp9YOE","title":"شرح البرهان في علوم القرآن - مقدمة المؤلف","publishedAt":"2019-08-18T11:26:07Z","duration":"PT34M46S","thumbnail":"https://i.ytimg.com/vi/OzL4hAp9YOE/mqdefault.jpg","viewCount":"15763","playlistId":"PLEkQk5xrP-tnW3iBL7HkKziOFCFZbTlf0","playlistName":"شرح البرهان في علوم القرآن - أ.د. يسري جبر","category":"تفسير"},{"id":"iQasc6ivZXI","title":"الالتفات - شرح البرهان في علوم القرآن","publishedAt":"2021-11-08T05:14:55Z","duration":"PT13M53S","thumbnail":"https://i.ytimg.com/vi/iQasc6ivZXI/mqdefault.jpg","viewCount":"760","playlistId":"PLEkQk5xrP-tnW3iBL7HkKziOFCFZbTlf0","playlistName":"شرح البرهان في علوم القرآن - أ.د. يسري جبر","category":"تفسير"},{"id":"7mjUOsrsnXU","title":"تغليب الإسلام - شرح البرهان في علوم القرآن","publishedAt":"2021-11-06T20:58:53Z","duration":"PT30M30S","thumbnail":"https://i.ytimg.com/vi/7mjUOsrsnXU/mqdefault.jpg","viewCount":"655","playlistId":"PLEkQk5xrP-tnW3iBL7HkKziOFCFZbTlf0","playlistName":"شرح البرهان في علوم القرآن - أ.د. يسري جبر","category":"تفسير"},{"id":"RSJxbj1IYM4","title":"تغليب الموصوف على غير الموصوف - شرح البرهان في علوم القرآن","publishedAt":"2021-11-02T02:44:17Z","duration":"PT25M25S","thumbnail":"https://i.ytimg.com/vi/RSJxbj1IYM4/mqdefault.jpg","viewCount":"425","playlistId":"PLEkQk5xrP-tnW3iBL7HkKziOFCFZbTlf0","playlistName":"شرح البرهان في علوم القرآن - أ.د. يسري جبر","category":"تفسير"},{"id":"_Cyb1Uu927A","title":"تغليب العاقل على غيره - شرح البرهان في علوم القرآن","publishedAt":"2021-10-31T10:26:24Z","duration":"PT25M3S","thumbnail":"https://i.ytimg.com/vi/_Cyb1Uu927A/mqdefault.jpg","viewCount":"576","playlistId":"PLEkQk5xrP-tnW3iBL7HkKziOFCFZbTlf0","playlistName":"شرح البرهان في علوم القرآن - أ.د. يسري جبر","category":"تفسير"},{"id":"VtSvDVudqRA","title":"الأسلوب العاشر: الترديد - شرح البرهان في علوم القرآن","publishedAt":"2021-10-30T09:34:26Z","duration":"PT21M8S","thumbnail":"https://i.ytimg.com/vi/VtSvDVudqRA/mqdefault.jpg","viewCount":"432","playlistId":"PLEkQk5xrP-tnW3iBL7HkKziOFCFZbTlf0","playlistName":"شرح البرهان في علوم القرآن - أ.د. يسري جبر","category":"تفسير"},{"id":"gvA1FpHDsZA","title":"الأسلوب السابع: الاختصاص - شرح البرهان في علوم القرآن","publishedAt":"2021-10-28T04:15:03Z","duration":"PT8M20S","thumbnail":"https://i.ytimg.com/vi/gvA1FpHDsZA/mqdefault.jpg","viewCount":"468","playlistId":"PLEkQk5xrP-tnW3iBL7HkKziOFCFZbTlf0","playlistName":"شرح البرهان في علوم القرآن - أ.د. يسري جبر","category":"تفسير"}],"total":631,"page":27,"pageSize":24,"totalPages":27}