{"items":[{"id":"Q9ohcGaFF6o","title":"النوع الثاني مما قدّم والنية به التأخير - تكملة أنواع التقديم والتأخير(19)شرح البرهان في علوم القرآن","publishedAt":"2021-10-17T21:52:35Z","duration":"PT17M44S","thumbnail":"https://i.ytimg.com/vi/Q9ohcGaFF6o/mqdefault.jpg","viewCount":"369","playlistId":"PLEkQk5xrP-tnW3iBL7HkKziOFCFZbTlf0","playlistName":"شرح البرهان في علوم القرآن - أ.د. يسري جبر","category":"تفسير"},{"id":"OkwldhLwwog","title":"تكملة أنواع التقديم والتأخير (9) - شرح البرهان في علوم القرآن","publishedAt":"2021-09-28T09:54:52Z","duration":"PT25M44S","thumbnail":"https://i.ytimg.com/vi/OkwldhLwwog/mqdefault.jpg","viewCount":"425","playlistId":"PLEkQk5xrP-tnW3iBL7HkKziOFCFZbTlf0","playlistName":"شرح البرهان في علوم القرآن - أ.د. يسري جبر","category":"تفسير"},{"id":"i_QRnrFIIIk","title":"السَّبْق بالرتبة - تكملة أنواع التقديم والتأخير (8) - شرح البرهان في علوم القرآن","publishedAt":"2021-09-25T06:02:09Z","duration":"PT26M40S","thumbnail":"https://i.ytimg.com/vi/i_QRnrFIIIk/mqdefault.jpg","viewCount":"664","playlistId":"PLEkQk5xrP-tnW3iBL7HkKziOFCFZbTlf0","playlistName":"شرح البرهان في علوم القرآن - أ.د. يسري جبر","category":"تفسير"},{"id":"TAZaVtKFU2w","title":"تكملة أنواع التقديم والتأخير (7) - شرح البرهان في علوم القرآن","publishedAt":"2021-09-23T04:53:20Z","duration":"PT12M28S","thumbnail":"https://i.ytimg.com/vi/TAZaVtKFU2w/mqdefault.jpg","viewCount":"322","playlistId":"PLEkQk5xrP-tnW3iBL7HkKziOFCFZbTlf0","playlistName":"شرح البرهان في علوم القرآن - أ.د. يسري جبر","category":"تفسير"},{"id":"c_nlTC1SR0U","title":"القِسمُ (14) من التوكيد: فوائد التَّكرار: الفائدة السابعة (3) - شرح البرهان في علوم القرآن","publishedAt":"2021-04-30T04:41:38Z","duration":"PT29M38S","thumbnail":"https://i.ytimg.com/vi/c_nlTC1SR0U/mqdefault.jpg","viewCount":"330","playlistId":"PLEkQk5xrP-tnW3iBL7HkKziOFCFZbTlf0","playlistName":"شرح البرهان في علوم القرآن - أ.د. يسري جبر","category":"تفسير"},{"id":"pC_RgBvh0II","title":"القِسمُ (14) من التوكيد: فوائد التَّكرار: الفائدة السابعة (2) - شرح البرهان في علوم القرآن","publishedAt":"2021-04-27T05:25:36Z","duration":"PT29M29S","thumbnail":"https://i.ytimg.com/vi/pC_RgBvh0II/mqdefault.jpg","viewCount":"369","playlistId":"PLEkQk5xrP-tnW3iBL7HkKziOFCFZbTlf0","playlistName":"شرح البرهان في علوم القرآن - أ.د. يسري جبر","category":"تفسير"},{"id":"gHPzP8-tifs","title":"القِسمُ (14) من التوكيد: فوائد التَّكرار: الفائدة السابعة - شرح البرهان في علوم القرآن","publishedAt":"2021-04-25T05:49:11Z","duration":"PT25M17S","thumbnail":"https://i.ytimg.com/vi/gHPzP8-tifs/mqdefault.jpg","viewCount":"384","playlistId":"PLEkQk5xrP-tnW3iBL7HkKziOFCFZbTlf0","playlistName":"شرح البرهان في علوم القرآن - أ.د. يسري جبر","category":"تفسير"},{"id":"sVJqXR7usj0","title":"القِسمُ (14) من التوكيد: فوائد التَّكرار: الفائدة الخامسة - شرح البرهان في علوم القرآن","publishedAt":"2021-04-23T04:18:33Z","duration":"PT22M7S","thumbnail":"https://i.ytimg.com/vi/sVJqXR7usj0/mqdefault.jpg","viewCount":"341","playlistId":"PLEkQk5xrP-tnW3iBL7HkKziOFCFZbTlf0","playlistName":"شرح البرهان في علوم القرآن - أ.د. يسري جبر","category":"تفسير"},{"id":"3Y9Yfx1VwTE","title":"تكملة أنواع التقديم والتأخير (6) (السَّبْق) - شرح البرهان في علوم القرآن","publishedAt":"2021-09-20T12:13:53Z","duration":"PT8M33S","thumbnail":"https://i.ytimg.com/vi/3Y9Yfx1VwTE/mqdefault.jpg","viewCount":"362","playlistId":"PLEkQk5xrP-tnW3iBL7HkKziOFCFZbTlf0","playlistName":"شرح البرهان في علوم القرآن - أ.د. يسري جبر","category":"تفسير"},{"id":"VE5q-6Cgq7w","title":"تقديم المكان على الزمان - تكملة أسباب التقديم والتأخير - شرح البرهان في علوم القرآن","publishedAt":"2021-09-18T09:23:36Z","duration":"PT15M31S","thumbnail":"https://i.ytimg.com/vi/VE5q-6Cgq7w/mqdefault.jpg","viewCount":"929","playlistId":"PLEkQk5xrP-tnW3iBL7HkKziOFCFZbTlf0","playlistName":"شرح البرهان في علوم القرآن - أ.د. يسري جبر","category":"تفسير"},{"id":"o3ePvH7AmFw","title":"تقديم الظلمة على النور والليل على النهار - تكملة أنواع التقديم والتأخير  شرح البرهان في علوم القرآن","publishedAt":"2021-09-16T06:30:35Z","duration":"PT27M10S","thumbnail":"https://i.ytimg.com/vi/o3ePvH7AmFw/mqdefault.jpg","viewCount":"904","playlistId":"PLEkQk5xrP-tnW3iBL7HkKziOFCFZbTlf0","playlistName":"شرح البرهان في علوم القرآن - أ.د. يسري جبر","category":"تفسير"},{"id":"O9Ek_gfQtj0","title":"أنواع التقديم والتأخير - شرح البرهان في علوم القرآن","publishedAt":"2021-09-14T05:44:01Z","duration":"PT16M5S","thumbnail":"https://i.ytimg.com/vi/O9Ek_gfQtj0/mqdefault.jpg","viewCount":"664","playlistId":"PLEkQk5xrP-tnW3iBL7HkKziOFCFZbTlf0","playlistName":"شرح البرهان في علوم القرآن - أ.د. يسري جبر","category":"تفسير"},{"id":"CtTnSgLK-iY","title":"أسباب التقديم والتأخير - شرح البرهان في علوم القرآن","publishedAt":"2021-09-12T05:43:44Z","duration":"PT20M10S","thumbnail":"https://i.ytimg.com/vi/CtTnSgLK-iY/mqdefault.jpg","viewCount":"676","playlistId":"PLEkQk5xrP-tnW3iBL7HkKziOFCFZbTlf0","playlistName":"شرح البرهان في علوم القرآن - أ.د. يسري جبر","category":"تفسير"},{"id":"0iyuK9Wog4E","title":"أسلوب التقديم والتأخير - شرح البرهان في علوم القرآن","publishedAt":"2021-09-10T06:06:06Z","duration":"PT12M22S","thumbnail":"https://i.ytimg.com/vi/0iyuK9Wog4E/mqdefault.jpg","viewCount":"673","playlistId":"PLEkQk5xrP-tnW3iBL7HkKziOFCFZbTlf0","playlistName":"شرح البرهان في علوم القرآن - أ.د. يسري جبر","category":"تفسير"},{"id":"ac0ZcYl7wTg","title":"الاختزال (41) أقسام الإيجاز - شرح البرهان في علوم القرآن","publishedAt":"2021-09-08T05:45:03Z","duration":"PT32M47S","thumbnail":"https://i.ytimg.com/vi/ac0ZcYl7wTg/mqdefault.jpg","viewCount":"439","playlistId":"PLEkQk5xrP-tnW3iBL7HkKziOFCFZbTlf0","playlistName":"شرح البرهان في علوم القرآن - أ.د. يسري جبر","category":"تفسير"},{"id":"3xLE5MSPPZc","title":"الاختزال (40) الإيجاز في بعض الأمثلة القرآنية - شرح البرهان في علوم القرآن","publishedAt":"2021-09-06T19:26:10Z","duration":"PT29M15S","thumbnail":"https://i.ytimg.com/vi/3xLE5MSPPZc/mqdefault.jpg","viewCount":"732","playlistId":"PLEkQk5xrP-tnW3iBL7HkKziOFCFZbTlf0","playlistName":"شرح البرهان في علوم القرآن - أ.د. يسري جبر","category":"تفسير"},{"id":"8kIpdWzZKxU","title":"الاختزال (39) الإيجاز - شرح البرهان في علوم القرآن","publishedAt":"2021-09-04T05:48:30Z","duration":"PT25M13S","thumbnail":"https://i.ytimg.com/vi/8kIpdWzZKxU/mqdefault.jpg","viewCount":"502","playlistId":"PLEkQk5xrP-tnW3iBL7HkKziOFCFZbTlf0","playlistName":"شرح البرهان في علوم القرآن - أ.د. يسري جبر","category":"تفسير"},{"id":"2DNHRcxuarg","title":"الاختزال (38) حذف الحرف (6) - شرح البرهان في علوم القرآن","publishedAt":"2021-09-02T06:12:47Z","duration":"PT16M30S","thumbnail":"https://i.ytimg.com/vi/2DNHRcxuarg/mqdefault.jpg","viewCount":"367","playlistId":"PLEkQk5xrP-tnW3iBL7HkKziOFCFZbTlf0","playlistName":"شرح البرهان في علوم القرآن - أ.د. يسري جبر","category":"تفسير"},{"id":"kNRc4VBNiwA","title":"الاختزال (37) حذف الحرف (5) فائدة في حذف الجارّ - شرح البرهان في علوم القرآن","publishedAt":"2021-08-31T05:40:50Z","duration":"PT37M12S","thumbnail":"https://i.ytimg.com/vi/kNRc4VBNiwA/mqdefault.jpg","viewCount":"479","playlistId":"PLEkQk5xrP-tnW3iBL7HkKziOFCFZbTlf0","playlistName":"شرح البرهان في علوم القرآن - أ.د. يسري جبر","category":"تفسير"},{"id":"VUlH7Dqm9pk","title":"الاختزال (11) الغرض من حذف المفعول (2) - شرح البرهان في علوم القرآن","publishedAt":"2021-07-07T22:08:28Z","duration":"PT15M11S","thumbnail":"https://i.ytimg.com/vi/VUlH7Dqm9pk/mqdefault.jpg","viewCount":"314","playlistId":"PLEkQk5xrP-tnW3iBL7HkKziOFCFZbTlf0","playlistName":"شرح البرهان في علوم القرآن - أ.د. يسري جبر","category":"تفسير"},{"id":"aKj_DJDZWgc","title":"الاختزال (10) حذف المفعول - شرح البرهان في علوم القرآن","publishedAt":"2021-07-07T05:27:07Z","duration":"PT7M24S","thumbnail":"https://i.ytimg.com/vi/aKj_DJDZWgc/mqdefault.jpg","viewCount":"309","playlistId":"PLEkQk5xrP-tnW3iBL7HkKziOFCFZbTlf0","playlistName":"شرح البرهان في علوم القرآن - أ.د. يسري جبر","category":"تفسير"},{"id":"3TXhb5m542g","title":"الاختزال (9) حذف المخصوص في باب ( نِعْمَ وبِئْسَ ) شرح البرهان في علوم القرآن","publishedAt":"2021-07-06T12:50:11Z","duration":"PT21M45S","thumbnail":"https://i.ytimg.com/vi/3TXhb5m542g/mqdefault.jpg","viewCount":"267","playlistId":"PLEkQk5xrP-tnW3iBL7HkKziOFCFZbTlf0","playlistName":"شرح البرهان في علوم القرآن - أ.د. يسري جبر","category":"تفسير"},{"id":"7PTZsVBKZBQ","title":"الاختزال (8) حذف المعطوف عليه - شرح البرهان في علوم القرآن","publishedAt":"2021-07-05T05:40:18Z","duration":"PT11M48S","thumbnail":"https://i.ytimg.com/vi/7PTZsVBKZBQ/mqdefault.jpg","viewCount":"329","playlistId":"PLEkQk5xrP-tnW3iBL7HkKziOFCFZbTlf0","playlistName":"شرح البرهان في علوم القرآن - أ.د. يسري جبر","category":"تفسير"},{"id":"gUC0pF4PEQA","title":"الاختزال (7) حذف الموصوف - شرح البرهان في علوم القرآن","publishedAt":"2021-07-04T13:32:55Z","duration":"PT13M58S","thumbnail":"https://i.ytimg.com/vi/gUC0pF4PEQA/mqdefault.jpg","viewCount":"371","playlistId":"PLEkQk5xrP-tnW3iBL7HkKziOFCFZbTlf0","playlistName":"شرح البرهان في علوم القرآن - أ.د. يسري جبر","category":"تفسير"}],"total":631,"page":10,"pageSize":24,"totalPages":27}