{"items":[{"id":"Dx2UtVVyYls","title":"شرح البرهان في علوم القرآن - النوع ٢٦ - معرفة فضائله","publishedAt":"2020-01-27T22:03:27Z","duration":"PT7M36S","thumbnail":"https://i.ytimg.com/vi/Dx2UtVVyYls/mqdefault.jpg","viewCount":"343","playlistId":"PLEkQk5xrP-tnW3iBL7HkKziOFCFZbTlf0","playlistName":"شرح البرهان في علوم القرآن - أ.د. يسري جبر","category":"تفسير"},{"id":"AQJ2xAYnsRY","title":"شرح البرهان في علوم القرآن - النوع ٢٥ - علم مرسوم الخط (فصل في بعض حروف الإدغام ٢)","publishedAt":"2020-01-26T10:53:38Z","duration":"PT19M51S","thumbnail":"https://i.ytimg.com/vi/AQJ2xAYnsRY/mqdefault.jpg","viewCount":"356","playlistId":"PLEkQk5xrP-tnW3iBL7HkKziOFCFZbTlf0","playlistName":"شرح البرهان في علوم القرآن - أ.د. يسري جبر","category":"تفسير"},{"id":"QoNAJDNv6Xc","title":"شرح البرهان في علوم القرآن - النوع ٢٥ - علم مرسوم الخط (فصل في بعض حروف الإدغام)","publishedAt":"2020-01-23T11:43:01Z","duration":"PT23M11S","thumbnail":"https://i.ytimg.com/vi/QoNAJDNv6Xc/mqdefault.jpg","viewCount":"349","playlistId":"PLEkQk5xrP-tnW3iBL7HkKziOFCFZbTlf0","playlistName":"شرح البرهان في علوم القرآن - أ.د. يسري جبر","category":"تفسير"},{"id":"WrGYHCcyu64","title":"شرح البرهان في علوم القرآن - النوع ٢٥ - علم مرسوم الخط (فصل في الفصل والوصل ٣)","publishedAt":"2020-01-22T09:40:39Z","duration":"PT25M5S","thumbnail":"https://i.ytimg.com/vi/WrGYHCcyu64/mqdefault.jpg","viewCount":"364","playlistId":"PLEkQk5xrP-tnW3iBL7HkKziOFCFZbTlf0","playlistName":"شرح البرهان في علوم القرآن - أ.د. يسري جبر","category":"تفسير"},{"id":"JxD3Fli3XRY","title":"شرح البرهان في علوم القرآن - النوع ٢٥ - علم مرسوم الخط (فصل في الفصل والوصل ٢)","publishedAt":"2020-01-21T21:31:32Z","duration":"PT21M7S","thumbnail":"https://i.ytimg.com/vi/JxD3Fli3XRY/mqdefault.jpg","viewCount":"282","playlistId":"PLEkQk5xrP-tnW3iBL7HkKziOFCFZbTlf0","playlistName":"شرح البرهان في علوم القرآن - أ.د. يسري جبر","category":"تفسير"},{"id":"ThnrgkOPgRs","title":"شرح البرهان في علوم القرآن - النوع ٢٥ - علم مرسوم الخط (فصل في الفصل والوصل)","publishedAt":"2020-01-21T07:02:01Z","duration":"PT26M35S","thumbnail":"https://i.ytimg.com/vi/ThnrgkOPgRs/mqdefault.jpg","viewCount":"309","playlistId":"PLEkQk5xrP-tnW3iBL7HkKziOFCFZbTlf0","playlistName":"شرح البرهان في علوم القرآن - أ.د. يسري جبر","category":"تفسير"},{"id":"QSdxCQ8zpw8","title":"شرح البرهان في علوم القرآن - النوع ٢٥ - علم مرسوم الخط (فصل في مد التاء وقبضها ٢)","publishedAt":"2020-01-20T07:35:05Z","duration":"PT11M35S","thumbnail":"https://i.ytimg.com/vi/QSdxCQ8zpw8/mqdefault.jpg","viewCount":"278","playlistId":"PLEkQk5xrP-tnW3iBL7HkKziOFCFZbTlf0","playlistName":"شرح البرهان في علوم القرآن - أ.د. يسري جبر","category":"تفسير"},{"id":"i_MMK3iwz3o","title":"622- (ما) المصدرية  - شرح البرهان في علوم القرآن","publishedAt":"2022-12-18T05:00:22Z","duration":"PT19M58S","thumbnail":"https://i.ytimg.com/vi/i_MMK3iwz3o/mqdefault.jpg","viewCount":"384","playlistId":"PLEkQk5xrP-tnW3iBL7HkKziOFCFZbTlf0","playlistName":"شرح البرهان في علوم القرآن - أ.د. يسري جبر","category":"تفسير"},{"id":"4NE4abxP-lk","title":"621- (ما) النافية - شرح البرهان في علوم القرآن","publishedAt":"2022-12-17T05:00:02Z","duration":"PT33M1S","thumbnail":"https://i.ytimg.com/vi/4NE4abxP-lk/mqdefault.jpg","viewCount":"344","playlistId":"PLEkQk5xrP-tnW3iBL7HkKziOFCFZbTlf0","playlistName":"شرح البرهان في علوم القرآن - أ.د. يسري جبر","category":"تفسير"},{"id":"ouUmL-Dxhp8","title":"620- معنى(ما): تَعجُّبِيَّة - نكرة بمعنى شيء - نكرة بغير صِفةٍ ولا صِلة - شرح البرهان في علوم القرآن","publishedAt":"2022-12-16T05:00:32Z","duration":"PT21M56S","thumbnail":"https://i.ytimg.com/vi/ouUmL-Dxhp8/mqdefault.jpg","viewCount":"415","playlistId":"PLEkQk5xrP-tnW3iBL7HkKziOFCFZbTlf0","playlistName":"شرح البرهان في علوم القرآن - أ.د. يسري جبر","category":"تفسير"},{"id":"Eu8cVrHAv84","title":"633- حرف (الواو) - شرح البرهان في علوم القرآن","publishedAt":"2023-01-01T05:00:06Z","duration":"PT16M48S","thumbnail":"https://i.ytimg.com/vi/Eu8cVrHAv84/mqdefault.jpg","viewCount":"398","playlistId":"PLEkQk5xrP-tnW3iBL7HkKziOFCFZbTlf0","playlistName":"شرح البرهان في علوم القرآن - أ.د. يسري جبر","category":"تفسير"},{"id":"Z9LKzeFY8RU","title":"632 - حرف (هل - هيهات) - شرح البرهان في علوم القرآن","publishedAt":"2022-12-29T05:00:13Z","duration":"PT22M53S","thumbnail":"https://i.ytimg.com/vi/Z9LKzeFY8RU/mqdefault.jpg","viewCount":"395","playlistId":"PLEkQk5xrP-tnW3iBL7HkKziOFCFZbTlf0","playlistName":"شرح البرهان في علوم القرآن - أ.د. يسري جبر","category":"تفسير"},{"id":"PP3STaZONnM","title":"631- حرف (الهاء - ها) - شرح دليل الفالحين","publishedAt":"2022-12-28T05:00:09Z","duration":"PT19M4S","thumbnail":"https://i.ytimg.com/vi/PP3STaZONnM/mqdefault.jpg","viewCount":"326","playlistId":"PLEkQk5xrP-tnW3iBL7HkKziOFCFZbTlf0","playlistName":"شرح البرهان في علوم القرآن - أ.د. يسري جبر","category":"تفسير"},{"id":"zmKl9wPiN5s","title":"630- حرف (النون) - شرح البرهان في علوم القرآن","publishedAt":"2022-12-27T05:00:31Z","duration":"PT18M2S","thumbnail":"https://i.ytimg.com/vi/zmKl9wPiN5s/mqdefault.jpg","viewCount":"378","playlistId":"PLEkQk5xrP-tnW3iBL7HkKziOFCFZbTlf0","playlistName":"شرح البرهان في علوم القرآن - أ.د. يسري جبر","category":"تفسير"},{"id":"dMkxLTzt2W8","title":"629- حرف (مع) - شرح البرهان في علوم القرآن","publishedAt":"2022-12-26T05:00:10Z","duration":"PT24M19S","thumbnail":"https://i.ytimg.com/vi/dMkxLTzt2W8/mqdefault.jpg","viewCount":"270","playlistId":"PLEkQk5xrP-tnW3iBL7HkKziOFCFZbTlf0","playlistName":"شرح البرهان في علوم القرآن - أ.د. يسري جبر","category":"تفسير"},{"id":"nMT1j-dZqK8","title":"628- (مِن) الزائدة - شرح البرهان في علوم القرآن","publishedAt":"2022-12-25T05:00:30Z","duration":"PT32M43S","thumbnail":"https://i.ytimg.com/vi/nMT1j-dZqK8/mqdefault.jpg","viewCount":"464","playlistId":"PLEkQk5xrP-tnW3iBL7HkKziOFCFZbTlf0","playlistName":"شرح البرهان في علوم القرآن - أ.د. يسري جبر","category":"تفسير"},{"id":"y5cRL1FeUuE","title":"627- حرف (مِن) بمعنى البدل - شرح البرهان في علوم القرآن","publishedAt":"2022-12-24T05:00:20Z","duration":"PT12M9S","thumbnail":"https://i.ytimg.com/vi/y5cRL1FeUuE/mqdefault.jpg","viewCount":"257","playlistId":"PLEkQk5xrP-tnW3iBL7HkKziOFCFZbTlf0","playlistName":"شرح البرهان في علوم القرآن - أ.د. يسري جبر","category":"تفسير"},{"id":"-XGsV6dhPms","title":"شرح البرهان في علوم القرآن - النوع ٢٥ - علم مرسوم الخط (فصل في مد التاء وقبضها)","publishedAt":"2020-01-18T22:10:27Z","duration":"PT21M13S","thumbnail":"https://i.ytimg.com/vi/-XGsV6dhPms/mqdefault.jpg","viewCount":"354","playlistId":"PLEkQk5xrP-tnW3iBL7HkKziOFCFZbTlf0","playlistName":"شرح البرهان في علوم القرآن - أ.د. يسري جبر","category":"تفسير"},{"id":"JuRfuHW5y3U","title":"شرح البرهان في علوم القرآن - النوع ٢٥ - علم مرسوم الخط (فصل فيما كتبت الألف فيه واوا...)","publishedAt":"2020-01-18T22:10:27Z","duration":"PT13M35S","thumbnail":"https://i.ytimg.com/vi/JuRfuHW5y3U/mqdefault.jpg","viewCount":"308","playlistId":"PLEkQk5xrP-tnW3iBL7HkKziOFCFZbTlf0","playlistName":"شرح البرهان في علوم القرآن - أ.د. يسري جبر","category":"تفسير"},{"id":"b6_lV2GU56s","title":"شرح البرهان في علوم القرآن - النوع ٢٥ - علم مرسوم الخط (فصل في حذف النون)","publishedAt":"2020-01-18T11:25:31Z","duration":"PT10M50S","thumbnail":"https://i.ytimg.com/vi/b6_lV2GU56s/mqdefault.jpg","viewCount":"254","playlistId":"PLEkQk5xrP-tnW3iBL7HkKziOFCFZbTlf0","playlistName":"شرح البرهان في علوم القرآن - أ.د. يسري جبر","category":"تفسير"},{"id":"hOyCe--Syjc","title":"شرح البرهان في علوم القرآن - النوع ٢٥ - علم مرسوم الخط (الناقص وأقسامه : حذف الياء)","publishedAt":"2020-01-16T21:48:31Z","duration":"PT19M44S","thumbnail":"https://i.ytimg.com/vi/hOyCe--Syjc/mqdefault.jpg","viewCount":"383","playlistId":"PLEkQk5xrP-tnW3iBL7HkKziOFCFZbTlf0","playlistName":"شرح البرهان في علوم القرآن - أ.د. يسري جبر","category":"تفسير"},{"id":"0IvpX0RiSsc","title":"شرح البرهان في علوم القرآن - النوع ٢٥ - علم مرسوم الخط (الناقص وأقسامه : حذف الياء ٢)","publishedAt":"2020-01-16T21:48:31Z","duration":"PT7M49S","thumbnail":"https://i.ytimg.com/vi/0IvpX0RiSsc/mqdefault.jpg","viewCount":"273","playlistId":"PLEkQk5xrP-tnW3iBL7HkKziOFCFZbTlf0","playlistName":"شرح البرهان في علوم القرآن - أ.د. يسري جبر","category":"تفسير"},{"id":"WcHfdOEcckE","title":"شرح البرهان في علوم القرآن - النوع ٢٥ - علم مرسوم الخط (الناقص وأقسامه  : حذف الواو)","publishedAt":"2020-01-16T02:43:28Z","duration":"PT9M59S","thumbnail":"https://i.ytimg.com/vi/WcHfdOEcckE/mqdefault.jpg","viewCount":"243","playlistId":"PLEkQk5xrP-tnW3iBL7HkKziOFCFZbTlf0","playlistName":"شرح البرهان في علوم القرآن - أ.د. يسري جبر","category":"تفسير"},{"id":"Ouzw6GLDpk0","title":"شرح البرهان في علوم القرآن - النوع ٢٥ - علم مرسوم الخط (الناقص وأقسامه : حذف الألف ٣)","publishedAt":"2020-01-16T02:43:16Z","duration":"PT16M36S","thumbnail":"https://i.ytimg.com/vi/Ouzw6GLDpk0/mqdefault.jpg","viewCount":"336","playlistId":"PLEkQk5xrP-tnW3iBL7HkKziOFCFZbTlf0","playlistName":"شرح البرهان في علوم القرآن - أ.د. يسري جبر","category":"تفسير"}],"total":631,"page":21,"pageSize":24,"totalPages":27}