{"items":[{"id":"SreOtn6A09U","title":"شرح البرهان في علوم القرآن - النوع ٣٨ - فصل في اشتمال القرآن على أعلى أنواع الإعجاز","publishedAt":"2020-03-28T07:00:07Z","duration":"PT20M25S","thumbnail":"https://i.ytimg.com/vi/SreOtn6A09U/mqdefault.jpg","viewCount":"431","playlistId":"PLEkQk5xrP-tnW3iBL7HkKziOFCFZbTlf0","playlistName":"شرح البرهان في علوم القرآن - أ.د. يسري جبر","category":"تفسير"},{"id":"ZjDOsgQlXqY","title":"شرح البرهان في علوم القرآن - النوع ٣٨ - فصل في اختلاف المقامات ووضع كل شيء في موضع يلائمه","publishedAt":"2020-03-26T07:00:09Z","duration":"PT20M30S","thumbnail":"https://i.ytimg.com/vi/ZjDOsgQlXqY/mqdefault.jpg","viewCount":"360","playlistId":"PLEkQk5xrP-tnW3iBL7HkKziOFCFZbTlf0","playlistName":"شرح البرهان في علوم القرآن - أ.د. يسري جبر","category":"تفسير"},{"id":"mX4H1AeEPw8","title":"شرح البرهان في علوم القرآن - النوع ٣٨ - فصل في تنزيه الله القرآن عن أن يكون شعرا","publishedAt":"2020-03-25T06:00:12Z","duration":"PT16M51S","thumbnail":"https://i.ytimg.com/vi/mX4H1AeEPw8/mqdefault.jpg","viewCount":"236","playlistId":"PLEkQk5xrP-tnW3iBL7HkKziOFCFZbTlf0","playlistName":"شرح البرهان في علوم القرآن - أ.د. يسري جبر","category":"تفسير"},{"id":"c_nlTC1SR0U","title":"القِسمُ (14) من التوكيد: فوائد التَّكرار: الفائدة السابعة (3) - شرح البرهان في علوم القرآن","publishedAt":"2021-04-30T04:41:38Z","duration":"PT29M38S","thumbnail":"https://i.ytimg.com/vi/c_nlTC1SR0U/mqdefault.jpg","viewCount":"330","playlistId":"PLEkQk5xrP-tnW3iBL7HkKziOFCFZbTlf0","playlistName":"شرح البرهان في علوم القرآن - أ.د. يسري جبر","category":"تفسير"},{"id":"pC_RgBvh0II","title":"القِسمُ (14) من التوكيد: فوائد التَّكرار: الفائدة السابعة (2) - شرح البرهان في علوم القرآن","publishedAt":"2021-04-27T05:25:36Z","duration":"PT29M29S","thumbnail":"https://i.ytimg.com/vi/pC_RgBvh0II/mqdefault.jpg","viewCount":"369","playlistId":"PLEkQk5xrP-tnW3iBL7HkKziOFCFZbTlf0","playlistName":"شرح البرهان في علوم القرآن - أ.د. يسري جبر","category":"تفسير"},{"id":"gHPzP8-tifs","title":"القِسمُ (14) من التوكيد: فوائد التَّكرار: الفائدة السابعة - شرح البرهان في علوم القرآن","publishedAt":"2021-04-25T05:49:11Z","duration":"PT25M17S","thumbnail":"https://i.ytimg.com/vi/gHPzP8-tifs/mqdefault.jpg","viewCount":"384","playlistId":"PLEkQk5xrP-tnW3iBL7HkKziOFCFZbTlf0","playlistName":"شرح البرهان في علوم القرآن - أ.د. يسري جبر","category":"تفسير"},{"id":"sVJqXR7usj0","title":"القِسمُ (14) من التوكيد: فوائد التَّكرار: الفائدة الخامسة - شرح البرهان في علوم القرآن","publishedAt":"2021-04-23T04:18:33Z","duration":"PT22M7S","thumbnail":"https://i.ytimg.com/vi/sVJqXR7usj0/mqdefault.jpg","viewCount":"341","playlistId":"PLEkQk5xrP-tnW3iBL7HkKziOFCFZbTlf0","playlistName":"شرح البرهان في علوم القرآن - أ.د. يسري جبر","category":"تفسير"},{"id":"3Y9Yfx1VwTE","title":"تكملة أنواع التقديم والتأخير (6) (السَّبْق) - شرح البرهان في علوم القرآن","publishedAt":"2021-09-20T12:13:53Z","duration":"PT8M33S","thumbnail":"https://i.ytimg.com/vi/3Y9Yfx1VwTE/mqdefault.jpg","viewCount":"362","playlistId":"PLEkQk5xrP-tnW3iBL7HkKziOFCFZbTlf0","playlistName":"شرح البرهان في علوم القرآن - أ.د. يسري جبر","category":"تفسير"},{"id":"VE5q-6Cgq7w","title":"تقديم المكان على الزمان - تكملة أسباب التقديم والتأخير - شرح البرهان في علوم القرآن","publishedAt":"2021-09-18T09:23:36Z","duration":"PT15M31S","thumbnail":"https://i.ytimg.com/vi/VE5q-6Cgq7w/mqdefault.jpg","viewCount":"929","playlistId":"PLEkQk5xrP-tnW3iBL7HkKziOFCFZbTlf0","playlistName":"شرح البرهان في علوم القرآن - أ.د. يسري جبر","category":"تفسير"},{"id":"o3ePvH7AmFw","title":"تقديم الظلمة على النور والليل على النهار - تكملة أنواع التقديم والتأخير  شرح البرهان في علوم القرآن","publishedAt":"2021-09-16T06:30:35Z","duration":"PT27M10S","thumbnail":"https://i.ytimg.com/vi/o3ePvH7AmFw/mqdefault.jpg","viewCount":"904","playlistId":"PLEkQk5xrP-tnW3iBL7HkKziOFCFZbTlf0","playlistName":"شرح البرهان في علوم القرآن - أ.د. يسري جبر","category":"تفسير"},{"id":"O9Ek_gfQtj0","title":"أنواع التقديم والتأخير - شرح البرهان في علوم القرآن","publishedAt":"2021-09-14T05:44:01Z","duration":"PT16M5S","thumbnail":"https://i.ytimg.com/vi/O9Ek_gfQtj0/mqdefault.jpg","viewCount":"664","playlistId":"PLEkQk5xrP-tnW3iBL7HkKziOFCFZbTlf0","playlistName":"شرح البرهان في علوم القرآن - أ.د. يسري جبر","category":"تفسير"},{"id":"CtTnSgLK-iY","title":"أسباب التقديم والتأخير - شرح البرهان في علوم القرآن","publishedAt":"2021-09-12T05:43:44Z","duration":"PT20M10S","thumbnail":"https://i.ytimg.com/vi/CtTnSgLK-iY/mqdefault.jpg","viewCount":"676","playlistId":"PLEkQk5xrP-tnW3iBL7HkKziOFCFZbTlf0","playlistName":"شرح البرهان في علوم القرآن - أ.د. يسري جبر","category":"تفسير"},{"id":"0iyuK9Wog4E","title":"أسلوب التقديم والتأخير - شرح البرهان في علوم القرآن","publishedAt":"2021-09-10T06:06:06Z","duration":"PT12M22S","thumbnail":"https://i.ytimg.com/vi/0iyuK9Wog4E/mqdefault.jpg","viewCount":"673","playlistId":"PLEkQk5xrP-tnW3iBL7HkKziOFCFZbTlf0","playlistName":"شرح البرهان في علوم القرآن - أ.د. يسري جبر","category":"تفسير"},{"id":"9of6yyyG40Q","title":"شرح البرهان في علوم القرآن - النوع ٣٨ - فصل في أنه هل يعلم إعجاز القرآن ضرورة","publishedAt":"2020-03-24T07:00:02Z","duration":"PT16M24S","thumbnail":"https://i.ytimg.com/vi/9of6yyyG40Q/mqdefault.jpg","viewCount":"282","playlistId":"PLEkQk5xrP-tnW3iBL7HkKziOFCFZbTlf0","playlistName":"شرح البرهان في علوم القرآن - أ.د. يسري جبر","category":"تفسير"},{"id":"_z_aY7e6WnQ","title":"شرح البرهان في علوم القرآن - النوع ٣٨ - فصل في قدر المعجز من القرآن","publishedAt":"2020-03-23T07:00:08Z","duration":"PT17M21S","thumbnail":"https://i.ytimg.com/vi/_z_aY7e6WnQ/mqdefault.jpg","viewCount":"306","playlistId":"PLEkQk5xrP-tnW3iBL7HkKziOFCFZbTlf0","playlistName":"شرح البرهان في علوم القرآن - أ.د. يسري جبر","category":"تفسير"},{"id":"PjjUJ6Csbew","title":"شرح البرهان في علوم القرآن - النوع ٣٨ - بيان الأقوال المختلفة في وجوه الإعجاز ٥","publishedAt":"2020-03-22T08:30:02Z","duration":"PT11M33S","thumbnail":"https://i.ytimg.com/vi/PjjUJ6Csbew/mqdefault.jpg","viewCount":"317","playlistId":"PLEkQk5xrP-tnW3iBL7HkKziOFCFZbTlf0","playlistName":"شرح البرهان في علوم القرآن - أ.د. يسري جبر","category":"تفسير"},{"id":"KwLA3aDqJX4","title":"شرح البرهان في علوم القرآن - النوع ٣٨ - بيان الأقوال المختلفة في وجوه الإعجاز ٤","publishedAt":"2020-03-20T06:30:01Z","duration":"PT20M31S","thumbnail":"https://i.ytimg.com/vi/KwLA3aDqJX4/mqdefault.jpg","viewCount":"321","playlistId":"PLEkQk5xrP-tnW3iBL7HkKziOFCFZbTlf0","playlistName":"شرح البرهان في علوم القرآن - أ.د. يسري جبر","category":"تفسير"},{"id":"k6MxZ6jVEQ8","title":"شرح البرهان في علوم القرآن - النوع ٣٨ - بيان الأقوال المختلفة في وجوه الإعجاز ٣","publishedAt":"2020-03-19T06:30:00Z","duration":"PT28M17S","thumbnail":"https://i.ytimg.com/vi/k6MxZ6jVEQ8/mqdefault.jpg","viewCount":"259","playlistId":"PLEkQk5xrP-tnW3iBL7HkKziOFCFZbTlf0","playlistName":"شرح البرهان في علوم القرآن - أ.د. يسري جبر","category":"تفسير"},{"id":"60AdSiRU3lE","title":"شرح البرهان في علوم القرآن - النوع ٣٨ - بيان الأقوال المختلفة في وجوه الإعجاز ٢","publishedAt":"2020-03-18T06:30:00Z","duration":"PT19M9S","thumbnail":"https://i.ytimg.com/vi/60AdSiRU3lE/mqdefault.jpg","viewCount":"268","playlistId":"PLEkQk5xrP-tnW3iBL7HkKziOFCFZbTlf0","playlistName":"شرح البرهان في علوم القرآن - أ.د. يسري جبر","category":"تفسير"},{"id":"CJXPkyTNjQ0","title":"شرح البرهان في علوم القرآن - النوع ٣٨ - بيان الأقوال المختلفة في وجوه الإعجاز","publishedAt":"2020-03-17T06:30:02Z","duration":"PT19M59S","thumbnail":"https://i.ytimg.com/vi/CJXPkyTNjQ0/mqdefault.jpg","viewCount":"362","playlistId":"PLEkQk5xrP-tnW3iBL7HkKziOFCFZbTlf0","playlistName":"شرح البرهان في علوم القرآن - أ.د. يسري جبر","category":"تفسير"},{"id":"l2K_SCHZUd0","title":"شرح البرهان في علوم القرآن - النوع ٣٨ - معرفة إعجازه","publishedAt":"2020-03-16T08:30:04Z","duration":"PT41M57S","thumbnail":"https://i.ytimg.com/vi/l2K_SCHZUd0/mqdefault.jpg","viewCount":"451","playlistId":"PLEkQk5xrP-tnW3iBL7HkKziOFCFZbTlf0","playlistName":"شرح البرهان في علوم القرآن - أ.د. يسري جبر","category":"تفسير"},{"id":"Ut-0_GbczB0","title":"شرح البرهان في علوم القرآن - النوع ٣٧ - في حكم الآيات المتشابهات الواردة في الصفات ٤","publishedAt":"2020-03-15T06:30:00Z","duration":"PT29M1S","thumbnail":"https://i.ytimg.com/vi/Ut-0_GbczB0/mqdefault.jpg","viewCount":"350","playlistId":"PLEkQk5xrP-tnW3iBL7HkKziOFCFZbTlf0","playlistName":"شرح البرهان في علوم القرآن - أ.د. يسري جبر","category":"تفسير"},{"id":"TiG-Nm-6x0U","title":"شرح البرهان في علوم القرآن - النوع ٣٧ - في حكم الآيات المتشابهات الواردة في الصفات ٣","publishedAt":"2020-03-14T06:30:00Z","duration":"PT13M54S","thumbnail":"https://i.ytimg.com/vi/TiG-Nm-6x0U/mqdefault.jpg","viewCount":"333","playlistId":"PLEkQk5xrP-tnW3iBL7HkKziOFCFZbTlf0","playlistName":"شرح البرهان في علوم القرآن - أ.د. يسري جبر","category":"تفسير"},{"id":"H8uH_MDxJ0Q","title":"شرح البرهان في علوم القرآن - النوع ٣٧ - في حكم الآيات المتشابهات الواردة في الصفات ٢","publishedAt":"2020-03-13T06:30:01Z","duration":"PT34M36S","thumbnail":"https://i.ytimg.com/vi/H8uH_MDxJ0Q/mqdefault.jpg","viewCount":"341","playlistId":"PLEkQk5xrP-tnW3iBL7HkKziOFCFZbTlf0","playlistName":"شرح البرهان في علوم القرآن - أ.د. يسري جبر","category":"تفسير"}],"total":631,"page":1,"pageSize":24,"totalPages":27}