{"items":[{"id":"YYs26aamPAU","title":"480- مجيءُ المَشرِق والمغرب في القرآن(بالجمع-التثنية-الإفراد) فما الفرق؟ شرح البرهان في علوم القرآن","publishedAt":"2022-03-20T06:30:14Z","duration":"PT24M19S","thumbnail":"https://i.ytimg.com/vi/YYs26aamPAU/mqdefault.jpg","viewCount":"932","playlistId":"PLEkQk5xrP-tnW3iBL7HkKziOFCFZbTlf0","playlistName":"شرح البرهان في علوم القرآن - أ.د. يسري جبر","category":"تفسير"},{"id":"R9YBm2RYmFI","title":"579- حروف المعاني(40): الحرف 42: (غير)  -شرح البرهان في علوم القرآن","publishedAt":"2022-10-26T05:15:00Z","duration":"PT38M3S","thumbnail":"https://i.ytimg.com/vi/R9YBm2RYmFI/mqdefault.jpg","viewCount":"449","playlistId":"PLEkQk5xrP-tnW3iBL7HkKziOFCFZbTlf0","playlistName":"شرح البرهان في علوم القرآن - أ.د. يسري جبر","category":"تفسير"},{"id":"KxpIycXXevw","title":"578- حروف المعاني(39): الحرف 41: (عند) - شرح البرهان في علوم القرآن","publishedAt":"2022-10-25T05:00:06Z","duration":"PT11M45S","thumbnail":"https://i.ytimg.com/vi/KxpIycXXevw/mqdefault.jpg","viewCount":"355","playlistId":"PLEkQk5xrP-tnW3iBL7HkKziOFCFZbTlf0","playlistName":"شرح البرهان في علوم القرآن - أ.د. يسري جبر","category":"تفسير"},{"id":"TuLdLmPd6k8","title":"577- حروف المعاني(38): الحرف 40: عسى - شرح البرهان في علوم القرآن","publishedAt":"2022-10-24T05:00:10Z","duration":"PT14M29S","thumbnail":"https://i.ytimg.com/vi/TuLdLmPd6k8/mqdefault.jpg","viewCount":"363","playlistId":"PLEkQk5xrP-tnW3iBL7HkKziOFCFZbTlf0","playlistName":"شرح البرهان في علوم القرآن - أ.د. يسري جبر","category":"تفسير"},{"id":"zSqyN8ZUCg8","title":"576- حروف المعاني(37): الحرف 39: عن - شرح البرهان في علوم القرآن","publishedAt":"2022-10-23T05:00:20Z","duration":"PT16M33S","thumbnail":"https://i.ytimg.com/vi/zSqyN8ZUCg8/mqdefault.jpg","viewCount":"338","playlistId":"PLEkQk5xrP-tnW3iBL7HkKziOFCFZbTlf0","playlistName":"شرح البرهان في علوم القرآن - أ.د. يسري جبر","category":"تفسير"},{"id":"F8T27X9Y558","title":"575- حروف المعاني(36): الحرف 38: على - شرح البرهان في علوم القرآن","publishedAt":"2022-10-21T05:00:11Z","duration":"PT15M14S","thumbnail":"https://i.ytimg.com/vi/F8T27X9Y558/mqdefault.jpg","viewCount":"320","playlistId":"PLEkQk5xrP-tnW3iBL7HkKziOFCFZbTlf0","playlistName":"شرح البرهان في علوم القرآن - أ.د. يسري جبر","category":"تفسير"},{"id":"9zrEYDUZCb8","title":"574- حروف المعاني(35): الحرف 37: سَوفَ - شرح البرهان في علوم القرآن","publishedAt":"2022-10-20T05:00:04Z","duration":"PT20M3S","thumbnail":"https://i.ytimg.com/vi/9zrEYDUZCb8/mqdefault.jpg","viewCount":"434","playlistId":"PLEkQk5xrP-tnW3iBL7HkKziOFCFZbTlf0","playlistName":"شرح البرهان في علوم القرآن - أ.د. يسري جبر","category":"تفسير"},{"id":"ncIm7uh_BmU","title":"573- حروف المعاني(34): رُوَيْد - شرح البرهان في علوم القرآن","publishedAt":"2022-10-19T05:10:00Z","duration":"PT12M45S","thumbnail":"https://i.ytimg.com/vi/ncIm7uh_BmU/mqdefault.jpg","viewCount":"230","playlistId":"PLEkQk5xrP-tnW3iBL7HkKziOFCFZbTlf0","playlistName":"شرح البرهان في علوم القرآن - أ.د. يسري جبر","category":"تفسير"},{"id":"8-Wq3QoLuKU","title":"572- حروف المعاني(33): ذو - ذات - شرح البرهان في علوم القرآن","publishedAt":"2022-10-18T05:00:04Z","duration":"PT21M22S","thumbnail":"https://i.ytimg.com/vi/8-Wq3QoLuKU/mqdefault.jpg","viewCount":"326","playlistId":"PLEkQk5xrP-tnW3iBL7HkKziOFCFZbTlf0","playlistName":"شرح البرهان في علوم القرآن - أ.د. يسري جبر","category":"تفسير"},{"id":"XNF5eO5CbIc","title":"571- حروف المعاني(32): الحرف(31) حيث - شرح البرهان في علوم القرآن","publishedAt":"2022-10-16T05:00:11Z","duration":"PT17M14S","thumbnail":"https://i.ytimg.com/vi/XNF5eO5CbIc/mqdefault.jpg","viewCount":"504","playlistId":"PLEkQk5xrP-tnW3iBL7HkKziOFCFZbTlf0","playlistName":"شرح البرهان في علوم القرآن - أ.د. يسري جبر","category":"تفسير"},{"id":"B0Bv9KObf4U","title":"546- استعمالات (إذا): قد تأتي زائدة - شرح البرهان في علوم القرآن","publishedAt":"2022-08-14T05:30:02Z","duration":"PT22M16S","thumbnail":"https://i.ytimg.com/vi/B0Bv9KObf4U/mqdefault.jpg","viewCount":"437","playlistId":"PLEkQk5xrP-tnW3iBL7HkKziOFCFZbTlf0","playlistName":"شرح البرهان في علوم القرآن - أ.د. يسري جبر","category":"تفسير"},{"id":"bWF_qbBtnxs","title":"545- أوجه الاختلاف بين (إذا) و (إن) - شرح البرهان في علوم القرآن","publishedAt":"2022-08-09T06:00:18Z","duration":"PT18M55S","thumbnail":"https://i.ytimg.com/vi/bWF_qbBtnxs/mqdefault.jpg","viewCount":"489","playlistId":"PLEkQk5xrP-tnW3iBL7HkKziOFCFZbTlf0","playlistName":"شرح البرهان في علوم القرآن - أ.د. يسري جبر","category":"تفسير"},{"id":"sxbs47oMkWg","title":"544- الفرق بين (إذا) و (إن) - شرح البرهان في علوم القرآن","publishedAt":"2022-08-05T05:15:01Z","duration":"PT28M32S","thumbnail":"https://i.ytimg.com/vi/sxbs47oMkWg/mqdefault.jpg","viewCount":"523","playlistId":"PLEkQk5xrP-tnW3iBL7HkKziOFCFZbTlf0","playlistName":"شرح البرهان في علوم القرآن - أ.د. يسري جبر","category":"تفسير"},{"id":"K8sDg7MqF1Y","title":"543- (إذا) ظرفٌ لِما يُستقبل من الزمان - شرح البرهان في علوم القرآن","publishedAt":"2022-08-02T05:15:00Z","duration":"PT18M32S","thumbnail":"https://i.ytimg.com/vi/K8sDg7MqF1Y/mqdefault.jpg","viewCount":"553","playlistId":"PLEkQk5xrP-tnW3iBL7HkKziOFCFZbTlf0","playlistName":"شرح البرهان في علوم القرآن - أ.د. يسري جبر","category":"تفسير"},{"id":"pQyG_yJA16o","title":"542- حروف المعاني: حرف إذا (3) فائدة - شرح البرهان في علوم القرآن","publishedAt":"2022-07-30T05:16:01Z","duration":"PT30M22S","thumbnail":"https://i.ytimg.com/vi/pQyG_yJA16o/mqdefault.jpg","viewCount":"509","playlistId":"PLEkQk5xrP-tnW3iBL7HkKziOFCFZbTlf0","playlistName":"شرح البرهان في علوم القرآن - أ.د. يسري جبر","category":"تفسير"},{"id":"IPjS22uiDXQ","title":"541- حروف المعاني: حرف إذا (2) - شرح البرهان في علوم القرآن","publishedAt":"2022-07-27T05:30:03Z","duration":"PT29M51S","thumbnail":"https://i.ytimg.com/vi/IPjS22uiDXQ/mqdefault.jpg","viewCount":"552","playlistId":"PLEkQk5xrP-tnW3iBL7HkKziOFCFZbTlf0","playlistName":"شرح البرهان في علوم القرآن - أ.د. يسري جبر","category":"تفسير"},{"id":"rFTULbT-u3I","title":"540- حروف المعاني: حرف إذا - شرح البرهان في علوم القرآن","publishedAt":"2022-07-24T05:15:02Z","duration":"PT14M11S","thumbnail":"https://i.ytimg.com/vi/rFTULbT-u3I/mqdefault.jpg","viewCount":"441","playlistId":"PLEkQk5xrP-tnW3iBL7HkKziOFCFZbTlf0","playlistName":"شرح البرهان في علوم القرآن - أ.د. يسري جبر","category":"تفسير"},{"id":"JNnwvDmCYkI","title":"التَّجْنِيس (تَشَابُه في المَبْنَى واختلاف في المعنى) - شرح البرهان في علوم القرآن","publishedAt":"2022-02-22T11:31:39Z","duration":"PT14M2S","thumbnail":"https://i.ytimg.com/vi/JNnwvDmCYkI/mqdefault.jpg","viewCount":"513","playlistId":"PLEkQk5xrP-tnW3iBL7HkKziOFCFZbTlf0","playlistName":"شرح البرهان في علوم القرآن - أ.د. يسري جبر","category":"تفسير"},{"id":"unOIv9E6-CM","title":"التَّجْرِيد - شرح البرهان في علوم القرآن","publishedAt":"2022-02-21T11:10:19Z","duration":"PT11M24S","thumbnail":"https://i.ytimg.com/vi/unOIv9E6-CM/mqdefault.jpg","viewCount":"600","playlistId":"PLEkQk5xrP-tnW3iBL7HkKziOFCFZbTlf0","playlistName":"شرح البرهان في علوم القرآن - أ.د. يسري جبر","category":"تفسير"},{"id":"Wh37N31GvQA","title":"التَّوْرِيَة - شرح البرهان في علوم القرآن","publishedAt":"2022-02-19T07:02:36Z","duration":"PT40M41S","thumbnail":"https://i.ytimg.com/vi/Wh37N31GvQA/mqdefault.jpg","viewCount":"941","playlistId":"PLEkQk5xrP-tnW3iBL7HkKziOFCFZbTlf0","playlistName":"شرح البرهان في علوم القرآن - أ.د. يسري جبر","category":"تفسير"},{"id":"bKHxRiC6KSU","title":"الاسْتعارةُ فَرعُ التشبيهِ وأنواعُها خَمْسةٌ - شرح البرهان في علوم القرآن","publishedAt":"2022-02-16T07:47:49Z","duration":"PT18M24S","thumbnail":"https://i.ytimg.com/vi/bKHxRiC6KSU/mqdefault.jpg","viewCount":"756","playlistId":"PLEkQk5xrP-tnW3iBL7HkKziOFCFZbTlf0","playlistName":"شرح البرهان في علوم القرآن - أ.د. يسري جبر","category":"تفسير"},{"id":"wc-Qlz-1DIQ","title":"أقسام الاستعارة - شرح البرهان في علوم القرآن","publishedAt":"2022-02-14T19:35:35Z","duration":"PT13M40S","thumbnail":"https://i.ytimg.com/vi/wc-Qlz-1DIQ/mqdefault.jpg","viewCount":"618","playlistId":"PLEkQk5xrP-tnW3iBL7HkKziOFCFZbTlf0","playlistName":"شرح البرهان في علوم القرآن - أ.د. يسري جبر","category":"تفسير"},{"id":"cxACcwSGwvU","title":"الاستعارة قِسْمٌ من أقسام المجاز - شرح البرهان في علوم القرآن","publishedAt":"2022-02-13T08:51:20Z","duration":"PT31M29S","thumbnail":"https://i.ytimg.com/vi/cxACcwSGwvU/mqdefault.jpg","viewCount":"671","playlistId":"PLEkQk5xrP-tnW3iBL7HkKziOFCFZbTlf0","playlistName":"شرح البرهان في علوم القرآن - أ.د. يسري جبر","category":"تفسير"},{"id":"fyZwx_EWqTc","title":"مباحث في الاستعارة - شرح البرهان في علوم القرآن","publishedAt":"2022-02-12T07:42:56Z","duration":"PT18M59S","thumbnail":"https://i.ytimg.com/vi/fyZwx_EWqTc/mqdefault.jpg","viewCount":"619","playlistId":"PLEkQk5xrP-tnW3iBL7HkKziOFCFZbTlf0","playlistName":"شرح البرهان في علوم القرآن - أ.د. يسري جبر","category":"تفسير"}],"total":631,"page":19,"pageSize":24,"totalPages":27}