{"items":[{"id":"sAZ9prjXYco","title":"565- حروف المعاني(26): الحرف(25) (بل) - شرح البرهان في علوم القرآن","publishedAt":"2022-10-05T06:15:02Z","duration":"PT16M39S","thumbnail":"https://i.ytimg.com/vi/sAZ9prjXYco/mqdefault.jpg","viewCount":"497","playlistId":"PLEkQk5xrP-tnW3iBL7HkKziOFCFZbTlf0","playlistName":"شرح البرهان في علوم القرآن - أ.د. يسري جبر","category":"تفسير"},{"id":"NzSVfJjhDXs","title":"564- حروف المعاني(25): الحرف(24) (الباء) الوظيفة الرابعة تأتي للاستعانة","publishedAt":"2022-09-29T06:15:00Z","duration":"PT18M35S","thumbnail":"https://i.ytimg.com/vi/NzSVfJjhDXs/mqdefault.jpg","viewCount":"493","playlistId":"PLEkQk5xrP-tnW3iBL7HkKziOFCFZbTlf0","playlistName":"شرح البرهان في علوم القرآن - أ.د. يسري جبر","category":"تفسير"},{"id":"WwobCrcHaNE","title":"563- حروف المعاني(24): الحرف(24) (الباء) - شرح البرهان في علوم القرآن","publishedAt":"2022-09-27T06:15:03Z","duration":"PT36M","thumbnail":"https://i.ytimg.com/vi/WwobCrcHaNE/mqdefault.jpg","viewCount":"482","playlistId":"PLEkQk5xrP-tnW3iBL7HkKziOFCFZbTlf0","playlistName":"شرح البرهان في علوم القرآن - أ.د. يسري جبر","category":"تفسير"},{"id":"OjfLrNe2ijo","title":"562- حروف المعاني(23): الحرف(22) (أَيَّان) - شرح البرهان في علوم القرآن","publishedAt":"2022-09-22T06:00:08Z","duration":"PT8M4S","thumbnail":"https://i.ytimg.com/vi/OjfLrNe2ijo/mqdefault.jpg","viewCount":"417","playlistId":"PLEkQk5xrP-tnW3iBL7HkKziOFCFZbTlf0","playlistName":"شرح البرهان في علوم القرآن - أ.د. يسري جبر","category":"تفسير"},{"id":"AfdLeQWjTw4","title":"561- حروف المعاني(22): الحرف التاسع عشر (الآن) - شرح البرهان في علوم القرآن","publishedAt":"2022-09-20T06:00:02Z","duration":"PT25M52S","thumbnail":"https://i.ytimg.com/vi/AfdLeQWjTw4/mqdefault.jpg","viewCount":"537","playlistId":"PLEkQk5xrP-tnW3iBL7HkKziOFCFZbTlf0","playlistName":"شرح البرهان في علوم القرآن - أ.د. يسري جبر","category":"تفسير"},{"id":"Byp2xcpc3RA","title":"شرح البرهان في علوم القرآن - النوع ٢٤ - فصل ملخص في تقسيمات الوقف","publishedAt":"2020-01-06T06:37:59Z","duration":"PT20M45S","thumbnail":"https://i.ytimg.com/vi/Byp2xcpc3RA/mqdefault.jpg","viewCount":"426","playlistId":"PLEkQk5xrP-tnW3iBL7HkKziOFCFZbTlf0","playlistName":"شرح البرهان في علوم القرآن - أ.د. يسري جبر","category":"تفسير"},{"id":"4q-bpfhBqIs","title":"شرح البرهان في علوم القرآن - النوع ٢٤ - مسألة","publishedAt":"2020-01-05T08:40:13Z","duration":"PT13M50S","thumbnail":"https://i.ytimg.com/vi/4q-bpfhBqIs/mqdefault.jpg","viewCount":"344","playlistId":"PLEkQk5xrP-tnW3iBL7HkKziOFCFZbTlf0","playlistName":"شرح البرهان في علوم القرآن - أ.د. يسري جبر","category":"تفسير"},{"id":"-j1DCef2Cgs","title":"شرح البرهان في علوم القرآن - النوع ٢٤ - معرفة الوقف والابتداء ٤","publishedAt":"2020-01-04T22:16:09Z","duration":"PT23M17S","thumbnail":"https://i.ytimg.com/vi/-j1DCef2Cgs/mqdefault.jpg","viewCount":"413","playlistId":"PLEkQk5xrP-tnW3iBL7HkKziOFCFZbTlf0","playlistName":"شرح البرهان في علوم القرآن - أ.د. يسري جبر","category":"تفسير"},{"id":"qRSP_1TVZks","title":"شرح البرهان في علوم القرآن - النوع ٢٤ - معرفة الوقف والابتداء ٣","publishedAt":"2020-01-04T08:16:07Z","duration":"PT18M56S","thumbnail":"https://i.ytimg.com/vi/qRSP_1TVZks/mqdefault.jpg","viewCount":"421","playlistId":"PLEkQk5xrP-tnW3iBL7HkKziOFCFZbTlf0","playlistName":"شرح البرهان في علوم القرآن - أ.د. يسري جبر","category":"تفسير"},{"id":"AN-bbuVhwqE","title":"شرح البرهان في علوم القرآن - النوع ٢٤ - معرفة الوقف والابتداء ٢","publishedAt":"2020-01-03T07:55:50Z","duration":"PT20M56S","thumbnail":"https://i.ytimg.com/vi/AN-bbuVhwqE/mqdefault.jpg","viewCount":"448","playlistId":"PLEkQk5xrP-tnW3iBL7HkKziOFCFZbTlf0","playlistName":"شرح البرهان في علوم القرآن - أ.د. يسري جبر","category":"تفسير"},{"id":"ybKFY_B6ISk","title":"560- حروف المعاني(21): الحرف السابع عشر (إِمَّا) - شرح البرهان في علوم القرآن","publishedAt":"2022-09-15T06:00:15Z","duration":"PT16M51S","thumbnail":"https://i.ytimg.com/vi/ybKFY_B6ISk/mqdefault.jpg","viewCount":"568","playlistId":"PLEkQk5xrP-tnW3iBL7HkKziOFCFZbTlf0","playlistName":"شرح البرهان في علوم القرآن - أ.د. يسري جبر","category":"تفسير"},{"id":"V5MBNI5Nock","title":"التشبيه - شرح البرهان في علوم القرآن","publishedAt":"2022-01-27T08:15:33Z","duration":"PT15M26S","thumbnail":"https://i.ytimg.com/vi/V5MBNI5Nock/mqdefault.jpg","viewCount":"648","playlistId":"PLEkQk5xrP-tnW3iBL7HkKziOFCFZbTlf0","playlistName":"شرح البرهان في علوم القرآن - أ.د. يسري جبر","category":"تفسير"},{"id":"ve3zJnOoH3g","title":"التَّوَسُّع - شرح البرهان في علوم القرآن","publishedAt":"2022-01-25T06:48:48Z","duration":"PT6M18S","thumbnail":"https://i.ytimg.com/vi/ve3zJnOoH3g/mqdefault.jpg","viewCount":"765","playlistId":"PLEkQk5xrP-tnW3iBL7HkKziOFCFZbTlf0","playlistName":"شرح البرهان في علوم القرآن - أ.د. يسري جبر","category":"تفسير"},{"id":"nUCqR76_Q-I","title":"الإعراض عن صريح الحُكْم - شرح البرهان في علوم القرآن","publishedAt":"2022-01-22T20:33:08Z","duration":"PT8M9S","thumbnail":"https://i.ytimg.com/vi/nUCqR76_Q-I/mqdefault.jpg","viewCount":"591","playlistId":"PLEkQk5xrP-tnW3iBL7HkKziOFCFZbTlf0","playlistName":"شرح البرهان في علوم القرآن - أ.د. يسري جبر","category":"تفسير"},{"id":"1D-ecPuldZI","title":"إخراج الكلام مَخرج الشَّكِّ في اللَّفْظِ دون الحقيقة - شرح البرهان في علوم القرآن","publishedAt":"2022-01-20T06:52:40Z","duration":"PT31M46S","thumbnail":"https://i.ytimg.com/vi/1D-ecPuldZI/mqdefault.jpg","viewCount":"862","playlistId":"PLEkQk5xrP-tnW3iBL7HkKziOFCFZbTlf0","playlistName":"شرح البرهان في علوم القرآن - أ.د. يسري جبر","category":"تفسير"},{"id":"Ds6pqdVrGPY","title":"ثبوت العام لا ينفي الخاص (4) قاعدة مهمَّة - شرح البرهان في علوم القرآن","publishedAt":"2022-01-18T06:51:26Z","duration":"PT23M31S","thumbnail":"https://i.ytimg.com/vi/Ds6pqdVrGPY/mqdefault.jpg","viewCount":"744","playlistId":"PLEkQk5xrP-tnW3iBL7HkKziOFCFZbTlf0","playlistName":"شرح البرهان في علوم القرآن - أ.د. يسري جبر","category":"تفسير"},{"id":"anVEg1-yJaA","title":"نَفْي العام يدل على نَفْي الخاص (3)  قاعدة مهمَّة - شرح البرهان في علوم القرآن","publishedAt":"2022-01-16T07:00:49Z","duration":"PT30M13S","thumbnail":"https://i.ytimg.com/vi/anVEg1-yJaA/mqdefault.jpg","viewCount":"1009","playlistId":"PLEkQk5xrP-tnW3iBL7HkKziOFCFZbTlf0","playlistName":"شرح البرهان في علوم القرآن - أ.د. يسري جبر","category":"تفسير"},{"id":"ZpsG8Chws8c","title":"القِسمُ الحادي عشر من التوكيد: المثنَّى وإرادة الواحد - شرح البرهان في علوم القرآن","publishedAt":"2021-04-12T06:05:18Z","duration":"PT16M27S","thumbnail":"https://i.ytimg.com/vi/ZpsG8Chws8c/mqdefault.jpg","viewCount":"341","playlistId":"PLEkQk5xrP-tnW3iBL7HkKziOFCFZbTlf0","playlistName":"شرح البرهان في علوم القرآن - أ.د. يسري جبر","category":"تفسير"},{"id":"0xeUTwp0bwo","title":"القِسمُ العاشرُ من التوكيد: صِيَغُ المبالغة (4) \"ما جاء على صيغة فعول\" شرح البرهان في علوم القرآن","publishedAt":"2021-04-10T06:56:17Z","duration":"PT15M5S","thumbnail":"https://i.ytimg.com/vi/0xeUTwp0bwo/mqdefault.jpg","viewCount":"326","playlistId":"PLEkQk5xrP-tnW3iBL7HkKziOFCFZbTlf0","playlistName":"شرح البرهان في علوم القرآن - أ.د. يسري جبر","category":"تفسير"},{"id":"MbmCdVTezpg","title":"القِسمُ العاشرُ من التوكيد: صِيَغُ المبالغة (3) \"ما جاء على صيغة فعيل\" شرح البرهان في علوم القرآن","publishedAt":"2021-04-08T06:06:47Z","duration":"PT26M24S","thumbnail":"https://i.ytimg.com/vi/MbmCdVTezpg/mqdefault.jpg","viewCount":"401","playlistId":"PLEkQk5xrP-tnW3iBL7HkKziOFCFZbTlf0","playlistName":"شرح البرهان في علوم القرآن - أ.د. يسري جبر","category":"تفسير"},{"id":"SJy5Egc-WPk","title":"القِسمُ العاشرُ من التوكيد: صِيَغُ المبالغة (2) \"تنبيهات\" شرح البرهان في علوم القرآن","publishedAt":"2021-04-06T06:05:26Z","duration":"PT19M2S","thumbnail":"https://i.ytimg.com/vi/SJy5Egc-WPk/mqdefault.jpg","viewCount":"333","playlistId":"PLEkQk5xrP-tnW3iBL7HkKziOFCFZbTlf0","playlistName":"شرح البرهان في علوم القرآن - أ.د. يسري جبر","category":"تفسير"},{"id":"0iYDD98tujE","title":"القِسمُ العاشرُ من التوكيد: صِيَغُ المبالغة - شرح البرهان في علوم القرآن","publishedAt":"2021-04-04T06:00:33Z","duration":"PT23M44S","thumbnail":"https://i.ytimg.com/vi/0iYDD98tujE/mqdefault.jpg","viewCount":"382","playlistId":"PLEkQk5xrP-tnW3iBL7HkKziOFCFZbTlf0","playlistName":"شرح البرهان في علوم القرآن - أ.د. يسري جبر","category":"تفسير"},{"id":"ym8xh9P-WeE","title":"القِسمُ التاسع من التوكيد: وضع الظاهر موضع المُضْمَر (7) شرح البرهان في علوم القرآن","publishedAt":"2021-04-02T05:47:21Z","duration":"PT18M29S","thumbnail":"https://i.ytimg.com/vi/ym8xh9P-WeE/mqdefault.jpg","viewCount":"329","playlistId":"PLEkQk5xrP-tnW3iBL7HkKziOFCFZbTlf0","playlistName":"شرح البرهان في علوم القرآن - أ.د. يسري جبر","category":"تفسير"},{"id":"35QVDS1Fzm4","title":"559- حروف المعاني(20): الحرف السادس عشر (أَمَّا) - شرح البرهان في علوم القرآن","publishedAt":"2022-09-09T06:30:22Z","duration":"PT25M8S","thumbnail":"https://i.ytimg.com/vi/35QVDS1Fzm4/mqdefault.jpg","viewCount":"524","playlistId":"PLEkQk5xrP-tnW3iBL7HkKziOFCFZbTlf0","playlistName":"شرح البرهان في علوم القرآن - أ.د. يسري جبر","category":"تفسير"}],"total":631,"page":11,"pageSize":24,"totalPages":27}