{"items":[{"id":"wk61jD-2RY8","title":"539- حروف المعاني: حرف الجواب(إذًا) - شرح البرهان في علوم القرآن","publishedAt":"2022-07-13T05:00:20Z","duration":"PT28M10S","thumbnail":"https://i.ytimg.com/vi/wk61jD-2RY8/mqdefault.jpg","viewCount":"653","playlistId":"PLEkQk5xrP-tnW3iBL7HkKziOFCFZbTlf0","playlistName":"شرح البرهان في علوم القرآن - أ.د. يسري جبر","category":"تفسير"},{"id":"8LXhPrnkS5Q","title":"538- حروف المعاني: ضرورة تقدُّم الاستفهام على حرف العطف (أم) - شرح البرهان في علوم القرآن","publishedAt":"2022-07-10T05:00:01Z","duration":"PT12M29S","thumbnail":"https://i.ytimg.com/vi/8LXhPrnkS5Q/mqdefault.jpg","viewCount":"514","playlistId":"PLEkQk5xrP-tnW3iBL7HkKziOFCFZbTlf0","playlistName":"شرح البرهان في علوم القرآن - أ.د. يسري جبر","category":"تفسير"},{"id":"QK_3DxDUgok","title":"شرح البرهان في علوم القرآن - النوع ٢١ - معرفة كون اللفظ والتركيب أحسن وأفصح","publishedAt":"2019-12-17T08:48:48Z","duration":"PT28M51S","thumbnail":"https://i.ytimg.com/vi/QK_3DxDUgok/mqdefault.jpg","viewCount":"599","playlistId":"PLEkQk5xrP-tnW3iBL7HkKziOFCFZbTlf0","playlistName":"شرح البرهان في علوم القرآن - أ.د. يسري جبر","category":"تفسير"},{"id":"56YLLwVww1s","title":"شرح البرهان في علوم القرآن - النوع ٢٠ - معرفة الأحكام من جهة أفرادها وتركيبها ٣","publishedAt":"2019-12-15T19:25:48Z","duration":"PT17M56S","thumbnail":"https://i.ytimg.com/vi/56YLLwVww1s/mqdefault.jpg","viewCount":"515","playlistId":"PLEkQk5xrP-tnW3iBL7HkKziOFCFZbTlf0","playlistName":"شرح البرهان في علوم القرآن - أ.د. يسري جبر","category":"تفسير"},{"id":"cSIUpWDTRFw","title":"شرح البرهان في علوم القرآن - النوع ٢٠ - معرفة الأحكام من جهة أفرادها وتركيبها ٤","publishedAt":"2019-12-15T17:44:35Z","duration":"PT24M46S","thumbnail":"https://i.ytimg.com/vi/cSIUpWDTRFw/mqdefault.jpg","viewCount":"443","playlistId":"PLEkQk5xrP-tnW3iBL7HkKziOFCFZbTlf0","playlistName":"شرح البرهان في علوم القرآن - أ.د. يسري جبر","category":"تفسير"},{"id":"_7zDn6D_HTw","title":"شرح البرهان في علوم القرآن - النوع ١٨ - معرفة غريبه","publishedAt":"2019-12-15T08:41:56Z","duration":"PT35M47S","thumbnail":"https://i.ytimg.com/vi/_7zDn6D_HTw/mqdefault.jpg","viewCount":"770","playlistId":"PLEkQk5xrP-tnW3iBL7HkKziOFCFZbTlf0","playlistName":"شرح البرهان في علوم القرآن - أ.د. يسري جبر","category":"تفسير"},{"id":"c_nlTC1SR0U","title":"القِسمُ (14) من التوكيد: فوائد التَّكرار: الفائدة السابعة (3) - شرح البرهان في علوم القرآن","publishedAt":"2021-04-30T04:41:38Z","duration":"PT29M38S","thumbnail":"https://i.ytimg.com/vi/c_nlTC1SR0U/mqdefault.jpg","viewCount":"330","playlistId":"PLEkQk5xrP-tnW3iBL7HkKziOFCFZbTlf0","playlistName":"شرح البرهان في علوم القرآن - أ.د. يسري جبر","category":"تفسير"},{"id":"pC_RgBvh0II","title":"القِسمُ (14) من التوكيد: فوائد التَّكرار: الفائدة السابعة (2) - شرح البرهان في علوم القرآن","publishedAt":"2021-04-27T05:25:36Z","duration":"PT29M29S","thumbnail":"https://i.ytimg.com/vi/pC_RgBvh0II/mqdefault.jpg","viewCount":"369","playlistId":"PLEkQk5xrP-tnW3iBL7HkKziOFCFZbTlf0","playlistName":"شرح البرهان في علوم القرآن - أ.د. يسري جبر","category":"تفسير"},{"id":"gHPzP8-tifs","title":"القِسمُ (14) من التوكيد: فوائد التَّكرار: الفائدة السابعة - شرح البرهان في علوم القرآن","publishedAt":"2021-04-25T05:49:11Z","duration":"PT25M17S","thumbnail":"https://i.ytimg.com/vi/gHPzP8-tifs/mqdefault.jpg","viewCount":"384","playlistId":"PLEkQk5xrP-tnW3iBL7HkKziOFCFZbTlf0","playlistName":"شرح البرهان في علوم القرآن - أ.د. يسري جبر","category":"تفسير"},{"id":"sVJqXR7usj0","title":"القِسمُ (14) من التوكيد: فوائد التَّكرار: الفائدة الخامسة - شرح البرهان في علوم القرآن","publishedAt":"2021-04-23T04:18:33Z","duration":"PT22M7S","thumbnail":"https://i.ytimg.com/vi/sVJqXR7usj0/mqdefault.jpg","viewCount":"341","playlistId":"PLEkQk5xrP-tnW3iBL7HkKziOFCFZbTlf0","playlistName":"شرح البرهان في علوم القرآن - أ.د. يسري جبر","category":"تفسير"},{"id":"R0fx5tHgDM0","title":"الاختزال (36) حذف الحرف (4) حذف ( لو ) - شرح البرهان في علوم القرآن","publishedAt":"2021-08-28T06:21:25Z","duration":"PT15M22S","thumbnail":"https://i.ytimg.com/vi/R0fx5tHgDM0/mqdefault.jpg","viewCount":"382","playlistId":"PLEkQk5xrP-tnW3iBL7HkKziOFCFZbTlf0","playlistName":"شرح البرهان في علوم القرآن - أ.د. يسري جبر","category":"تفسير"},{"id":"-Nh64ZyN9_g","title":"الاختزال (35) حذف الحرف (3) حرف الفاء - شرح البرهان في علوم القرآن","publishedAt":"2021-08-26T06:01:48Z","duration":"PT19M1S","thumbnail":"https://i.ytimg.com/vi/-Nh64ZyN9_g/mqdefault.jpg","viewCount":"438","playlistId":"PLEkQk5xrP-tnW3iBL7HkKziOFCFZbTlf0","playlistName":"شرح البرهان في علوم القرآن - أ.د. يسري جبر","category":"تفسير"},{"id":"2d00-DdFUs4","title":"الاختزال (34) حذف الحرف (2) حرف الواو - شرح البرهان في علوم القرآن","publishedAt":"2021-08-24T05:28:39Z","duration":"PT15M9S","thumbnail":"https://i.ytimg.com/vi/2d00-DdFUs4/mqdefault.jpg","viewCount":"315","playlistId":"PLEkQk5xrP-tnW3iBL7HkKziOFCFZbTlf0","playlistName":"شرح البرهان في علوم القرآن - أ.د. يسري جبر","category":"تفسير"},{"id":"mfjob1pny-4","title":"الاختزال (33) حذف الحرف - شرح البرهان في علوم القرآن","publishedAt":"2021-08-21T06:21:05Z","duration":"PT22M37S","thumbnail":"https://i.ytimg.com/vi/mfjob1pny-4/mqdefault.jpg","viewCount":"404","playlistId":"PLEkQk5xrP-tnW3iBL7HkKziOFCFZbTlf0","playlistName":"شرح البرهان في علوم القرآن - أ.د. يسري جبر","category":"تفسير"},{"id":"OdZz_gpO_xw","title":"الاختزال (32) حذف الفعل (6)- شرح البرهان في علوم القرآن","publishedAt":"2021-08-19T05:46:54Z","duration":"PT13M19S","thumbnail":"https://i.ytimg.com/vi/OdZz_gpO_xw/mqdefault.jpg","viewCount":"438","playlistId":"PLEkQk5xrP-tnW3iBL7HkKziOFCFZbTlf0","playlistName":"شرح البرهان في علوم القرآن - أ.د. يسري جبر","category":"تفسير"},{"id":"lUUNPJ4XW0o","title":"الاختزال (31) حذف الفعل (5)- شرح البرهان في علوم القرآن","publishedAt":"2021-08-17T06:35:46Z","duration":"PT7M8S","thumbnail":"https://i.ytimg.com/vi/lUUNPJ4XW0o/mqdefault.jpg","viewCount":"330","playlistId":"PLEkQk5xrP-tnW3iBL7HkKziOFCFZbTlf0","playlistName":"شرح البرهان في علوم القرآن - أ.د. يسري جبر","category":"تفسير"},{"id":"z0_BY0JhUXs","title":"شرح البرهان في علوم القرآن - النوع ١٧ - معرفة ما فيه من غير لغة العرب","publishedAt":"2019-12-14T18:54:03Z","duration":"PT22M36S","thumbnail":"https://i.ytimg.com/vi/z0_BY0JhUXs/mqdefault.jpg","viewCount":"599","playlistId":"PLEkQk5xrP-tnW3iBL7HkKziOFCFZbTlf0","playlistName":"شرح البرهان في علوم القرآن - أ.د. يسري جبر","category":"تفسير"},{"id":"DKu4ERI9jIE","title":"شرح البرهان في علوم القرآن - النوع ١٦ - معرفة ما وقع فيه من غير لغة أهل الحجاز","publishedAt":"2019-12-14T09:06:28Z","duration":"PT18M41S","thumbnail":"https://i.ytimg.com/vi/DKu4ERI9jIE/mqdefault.jpg","viewCount":"484","playlistId":"PLEkQk5xrP-tnW3iBL7HkKziOFCFZbTlf0","playlistName":"شرح البرهان في علوم القرآن - أ.د. يسري جبر","category":"تفسير"},{"id":"BbrO6iWDPNE","title":"شرح البرهان في علوم القرآن - النوع ١٥ - تفسير هذه الأسامي","publishedAt":"2019-12-13T15:25:48Z","duration":"PT22M5S","thumbnail":"https://i.ytimg.com/vi/BbrO6iWDPNE/mqdefault.jpg","viewCount":"549","playlistId":"PLEkQk5xrP-tnW3iBL7HkKziOFCFZbTlf0","playlistName":"شرح البرهان في علوم القرآن - أ.د. يسري جبر","category":"تفسير"},{"id":"zMP5BeFhhO0","title":"شرح البرهان في علوم القرآن - النوع ١٥ - معرفة أسمائه واشتقاتها","publishedAt":"2019-12-12T14:19:03Z","duration":"PT11M48S","thumbnail":"https://i.ytimg.com/vi/zMP5BeFhhO0/mqdefault.jpg","viewCount":"437","playlistId":"PLEkQk5xrP-tnW3iBL7HkKziOFCFZbTlf0","playlistName":"شرح البرهان في علوم القرآن - أ.د. يسري جبر","category":"تفسير"},{"id":"7PDkFSxkJpQ","title":"شرح البرهان في علوم القرآن - النوع ١٤ - خاتمة : في تعدد أسماء السور","publishedAt":"2019-12-11T12:43:08Z","duration":"PT15M47S","thumbnail":"https://i.ytimg.com/vi/7PDkFSxkJpQ/mqdefault.jpg","viewCount":"426","playlistId":"PLEkQk5xrP-tnW3iBL7HkKziOFCFZbTlf0","playlistName":"شرح البرهان في علوم القرآن - أ.د. يسري جبر","category":"تفسير"},{"id":"mo2_M7MNYrA","title":"509- أسبابُ التنكير - شرح البرهان في علوم القرآن","publishedAt":"2022-05-18T05:10:00Z","duration":"PT25M32S","thumbnail":"https://i.ytimg.com/vi/mo2_M7MNYrA/mqdefault.jpg","viewCount":"830","playlistId":"PLEkQk5xrP-tnW3iBL7HkKziOFCFZbTlf0","playlistName":"شرح البرهان في علوم القرآن - أ.د. يسري جبر","category":"تفسير"},{"id":"peYjM5vfghg","title":"508- التعريف والتنكير - شرح البرهان في علوم القرآن","publishedAt":"2022-05-15T07:15:03Z","duration":"PT52M10S","thumbnail":"https://i.ytimg.com/vi/peYjM5vfghg/mqdefault.jpg","viewCount":"887","playlistId":"PLEkQk5xrP-tnW3iBL7HkKziOFCFZbTlf0","playlistName":"شرح البرهان في علوم القرآن - أ.د. يسري جبر","category":"تفسير"},{"id":"2xSsN31zq7M","title":"507- الفرق بين الإتيان والإعطاء - شرح البرهان في علوم القرآن","publishedAt":"2022-05-14T05:45:01Z","duration":"PT15M21S","thumbnail":"https://i.ytimg.com/vi/2xSsN31zq7M/mqdefault.jpg","viewCount":"2895","playlistId":"PLEkQk5xrP-tnW3iBL7HkKziOFCFZbTlf0","playlistName":"شرح البرهان في علوم القرآن - أ.د. يسري جبر","category":"تفسير"}],"total":631,"page":3,"pageSize":24,"totalPages":27}