{"items":[{"id":"4aIH8XByiSc","title":"شرح البرهان في علوم القرآن - النوع ٣ - فصل في ضابط الفواصل","publishedAt":"2019-09-06T18:35:41Z","duration":"PT34M11S","thumbnail":"https://i.ytimg.com/vi/4aIH8XByiSc/mqdefault.jpg","viewCount":"1196","playlistId":"PLEkQk5xrP-tnW3iBL7HkKziOFCFZbTlf0","playlistName":"شرح البرهان في علوم القرآن - أ.د. يسري جبر","category":"تفسير"},{"id":"Z1tkoFSKcDo","title":"شرح البرهان في علوم القرآن - النوع ٣ - ائتلاف الفواصل مع ما يدل عليه الكلام ٤","publishedAt":"2019-09-05T10:15:12Z","duration":"PT29M11S","thumbnail":"https://i.ytimg.com/vi/Z1tkoFSKcDo/mqdefault.jpg","viewCount":"1482","playlistId":"PLEkQk5xrP-tnW3iBL7HkKziOFCFZbTlf0","playlistName":"شرح البرهان في علوم القرآن - أ.د. يسري جبر","category":"تفسير"},{"id":"ybKFY_B6ISk","title":"560- حروف المعاني(21): الحرف السابع عشر (إِمَّا) - شرح البرهان في علوم القرآن","publishedAt":"2022-09-15T06:00:15Z","duration":"PT16M51S","thumbnail":"https://i.ytimg.com/vi/ybKFY_B6ISk/mqdefault.jpg","viewCount":"568","playlistId":"PLEkQk5xrP-tnW3iBL7HkKziOFCFZbTlf0","playlistName":"شرح البرهان في علوم القرآن - أ.د. يسري جبر","category":"تفسير"},{"id":"V5MBNI5Nock","title":"التشبيه - شرح البرهان في علوم القرآن","publishedAt":"2022-01-27T08:15:33Z","duration":"PT15M26S","thumbnail":"https://i.ytimg.com/vi/V5MBNI5Nock/mqdefault.jpg","viewCount":"648","playlistId":"PLEkQk5xrP-tnW3iBL7HkKziOFCFZbTlf0","playlistName":"شرح البرهان في علوم القرآن - أ.د. يسري جبر","category":"تفسير"},{"id":"ve3zJnOoH3g","title":"التَّوَسُّع - شرح البرهان في علوم القرآن","publishedAt":"2022-01-25T06:48:48Z","duration":"PT6M18S","thumbnail":"https://i.ytimg.com/vi/ve3zJnOoH3g/mqdefault.jpg","viewCount":"765","playlistId":"PLEkQk5xrP-tnW3iBL7HkKziOFCFZbTlf0","playlistName":"شرح البرهان في علوم القرآن - أ.د. يسري جبر","category":"تفسير"},{"id":"IPjS22uiDXQ","title":"541- حروف المعاني: حرف إذا (2) - شرح البرهان في علوم القرآن","publishedAt":"2022-07-27T05:30:03Z","duration":"PT29M51S","thumbnail":"https://i.ytimg.com/vi/IPjS22uiDXQ/mqdefault.jpg","viewCount":"552","playlistId":"PLEkQk5xrP-tnW3iBL7HkKziOFCFZbTlf0","playlistName":"شرح البرهان في علوم القرآن - أ.د. يسري جبر","category":"تفسير"},{"id":"sAZ9prjXYco","title":"565- حروف المعاني(26): الحرف(25) (بل) - شرح البرهان في علوم القرآن","publishedAt":"2022-10-05T06:15:02Z","duration":"PT16M39S","thumbnail":"https://i.ytimg.com/vi/sAZ9prjXYco/mqdefault.jpg","viewCount":"497","playlistId":"PLEkQk5xrP-tnW3iBL7HkKziOFCFZbTlf0","playlistName":"شرح البرهان في علوم القرآن - أ.د. يسري جبر","category":"تفسير"},{"id":"Hyv032b85NM","title":"المفعول المطلق","publishedAt":"2021-01-08T06:51:33Z","duration":"PT23M33S","thumbnail":"https://i.ytimg.com/vi/Hyv032b85NM/mqdefault.jpg","viewCount":"828","playlistId":"PLEkQk5xrP-tnW3iBL7HkKziOFCFZbTlf0","playlistName":"شرح البرهان في علوم القرآن - أ.د. يسري جبر","category":"تفسير"},{"id":"rFTULbT-u3I","title":"540- حروف المعاني: حرف إذا - شرح البرهان في علوم القرآن","publishedAt":"2022-07-24T05:15:02Z","duration":"PT14M11S","thumbnail":"https://i.ytimg.com/vi/rFTULbT-u3I/mqdefault.jpg","viewCount":"441","playlistId":"PLEkQk5xrP-tnW3iBL7HkKziOFCFZbTlf0","playlistName":"شرح البرهان في علوم القرآن - أ.د. يسري جبر","category":"تفسير"},{"id":"JNnwvDmCYkI","title":"التَّجْنِيس (تَشَابُه في المَبْنَى واختلاف في المعنى) - شرح البرهان في علوم القرآن","publishedAt":"2022-02-22T11:31:39Z","duration":"PT14M2S","thumbnail":"https://i.ytimg.com/vi/JNnwvDmCYkI/mqdefault.jpg","viewCount":"513","playlistId":"PLEkQk5xrP-tnW3iBL7HkKziOFCFZbTlf0","playlistName":"شرح البرهان في علوم القرآن - أ.د. يسري جبر","category":"تفسير"},{"id":"unOIv9E6-CM","title":"التَّجْرِيد - شرح البرهان في علوم القرآن","publishedAt":"2022-02-21T11:10:19Z","duration":"PT11M24S","thumbnail":"https://i.ytimg.com/vi/unOIv9E6-CM/mqdefault.jpg","viewCount":"600","playlistId":"PLEkQk5xrP-tnW3iBL7HkKziOFCFZbTlf0","playlistName":"شرح البرهان في علوم القرآن - أ.د. يسري جبر","category":"تفسير"},{"id":"Wh37N31GvQA","title":"التَّوْرِيَة - شرح البرهان في علوم القرآن","publishedAt":"2022-02-19T07:02:36Z","duration":"PT40M41S","thumbnail":"https://i.ytimg.com/vi/Wh37N31GvQA/mqdefault.jpg","viewCount":"941","playlistId":"PLEkQk5xrP-tnW3iBL7HkKziOFCFZbTlf0","playlistName":"شرح البرهان في علوم القرآن - أ.د. يسري جبر","category":"تفسير"},{"id":"bKHxRiC6KSU","title":"الاسْتعارةُ فَرعُ التشبيهِ وأنواعُها خَمْسةٌ - شرح البرهان في علوم القرآن","publishedAt":"2022-02-16T07:47:49Z","duration":"PT18M24S","thumbnail":"https://i.ytimg.com/vi/bKHxRiC6KSU/mqdefault.jpg","viewCount":"756","playlistId":"PLEkQk5xrP-tnW3iBL7HkKziOFCFZbTlf0","playlistName":"شرح البرهان في علوم القرآن - أ.د. يسري جبر","category":"تفسير"},{"id":"wc-Qlz-1DIQ","title":"أقسام الاستعارة - شرح البرهان في علوم القرآن","publishedAt":"2022-02-14T19:35:35Z","duration":"PT13M40S","thumbnail":"https://i.ytimg.com/vi/wc-Qlz-1DIQ/mqdefault.jpg","viewCount":"618","playlistId":"PLEkQk5xrP-tnW3iBL7HkKziOFCFZbTlf0","playlistName":"شرح البرهان في علوم القرآن - أ.د. يسري جبر","category":"تفسير"},{"id":"cxACcwSGwvU","title":"الاستعارة قِسْمٌ من أقسام المجاز - شرح البرهان في علوم القرآن","publishedAt":"2022-02-13T08:51:20Z","duration":"PT31M29S","thumbnail":"https://i.ytimg.com/vi/cxACcwSGwvU/mqdefault.jpg","viewCount":"671","playlistId":"PLEkQk5xrP-tnW3iBL7HkKziOFCFZbTlf0","playlistName":"شرح البرهان في علوم القرآن - أ.د. يسري جبر","category":"تفسير"},{"id":"fyZwx_EWqTc","title":"مباحث في الاستعارة - شرح البرهان في علوم القرآن","publishedAt":"2022-02-12T07:42:56Z","duration":"PT18M59S","thumbnail":"https://i.ytimg.com/vi/fyZwx_EWqTc/mqdefault.jpg","viewCount":"619","playlistId":"PLEkQk5xrP-tnW3iBL7HkKziOFCFZbTlf0","playlistName":"شرح البرهان في علوم القرآن - أ.د. يسري جبر","category":"تفسير"},{"id":"6GvRyf_MuNo","title":"الاستعارة - شرح البرهان في علوم القرآن","publishedAt":"2022-02-10T08:34:34Z","duration":"PT31M45S","thumbnail":"https://i.ytimg.com/vi/6GvRyf_MuNo/mqdefault.jpg","viewCount":"637","playlistId":"PLEkQk5xrP-tnW3iBL7HkKziOFCFZbTlf0","playlistName":"شرح البرهان في علوم القرآن - أ.د. يسري جبر","category":"تفسير"},{"id":"hmvKJrAbz4M","title":"حَذْفُ المُشَبَّه - شرح البرهان في علوم القرآن","publishedAt":"2022-02-09T06:41:14Z","duration":"PT20M4S","thumbnail":"https://i.ytimg.com/vi/hmvKJrAbz4M/mqdefault.jpg","viewCount":"677","playlistId":"PLEkQk5xrP-tnW3iBL7HkKziOFCFZbTlf0","playlistName":"شرح البرهان في علوم القرآن - أ.د. يسري جبر","category":"تفسير"},{"id":"rm_i8dCSazI","title":"دُخُولُ أدَاةِ التَشْبِيهِ عَلَى المُشَبَّه - شرح البرهان في علوم القرآن","publishedAt":"2022-02-07T07:01:54Z","duration":"PT12M45S","thumbnail":"https://i.ytimg.com/vi/rm_i8dCSazI/mqdefault.jpg","viewCount":"586","playlistId":"PLEkQk5xrP-tnW3iBL7HkKziOFCFZbTlf0","playlistName":"شرح البرهان في علوم القرآن - أ.د. يسري جبر","category":"تفسير"},{"id":"wrfCyekjfEc","title":"قواعدُ تتعلّقُ بالتشبيه (القاعدة الرابعة) شرح البرهان في علوم القرآن","publishedAt":"2022-02-05T06:46:01Z","duration":"PT16M10S","thumbnail":"https://i.ytimg.com/vi/wrfCyekjfEc/mqdefault.jpg","viewCount":"639","playlistId":"PLEkQk5xrP-tnW3iBL7HkKziOFCFZbTlf0","playlistName":"شرح البرهان في علوم القرآن - أ.د. يسري جبر","category":"تفسير"},{"id":"9HfGbtrc5Ns","title":"القِسمُ السابع من التوكيد: عطف أحد المترادفيْن على الآخر -  شرح البرهان في علوم القرآن","publishedAt":"2021-03-18T06:49:00Z","duration":"PT21M47S","thumbnail":"https://i.ytimg.com/vi/9HfGbtrc5Ns/mqdefault.jpg","viewCount":"374","playlistId":"PLEkQk5xrP-tnW3iBL7HkKziOFCFZbTlf0","playlistName":"شرح البرهان في علوم القرآن - أ.د. يسري جبر","category":"تفسير"},{"id":"i_QRnrFIIIk","title":"السَّبْق بالرتبة - تكملة أنواع التقديم والتأخير (8) - شرح البرهان في علوم القرآن","publishedAt":"2021-09-25T06:02:09Z","duration":"PT26M40S","thumbnail":"https://i.ytimg.com/vi/i_QRnrFIIIk/mqdefault.jpg","viewCount":"664","playlistId":"PLEkQk5xrP-tnW3iBL7HkKziOFCFZbTlf0","playlistName":"شرح البرهان في علوم القرآن - أ.د. يسري جبر","category":"تفسير"},{"id":"TAZaVtKFU2w","title":"تكملة أنواع التقديم والتأخير (7) - شرح البرهان في علوم القرآن","publishedAt":"2021-09-23T04:53:20Z","duration":"PT12M28S","thumbnail":"https://i.ytimg.com/vi/TAZaVtKFU2w/mqdefault.jpg","viewCount":"322","playlistId":"PLEkQk5xrP-tnW3iBL7HkKziOFCFZbTlf0","playlistName":"شرح البرهان في علوم القرآن - أ.د. يسري جبر","category":"تفسير"},{"id":"kcj_1iXrnYE","title":"القِسمُ الخامس من التوكيد: ذِكْر الخاص بعد العام - شرح البرهان في علوم القرآن","publishedAt":"2021-03-13T07:58:56Z","duration":"PT32M54S","thumbnail":"https://i.ytimg.com/vi/kcj_1iXrnYE/mqdefault.jpg","viewCount":"368","playlistId":"PLEkQk5xrP-tnW3iBL7HkKziOFCFZbTlf0","playlistName":"شرح البرهان في علوم القرآن - أ.د. يسري جبر","category":"تفسير"}],"total":631,"page":18,"pageSize":24,"totalPages":27}