{"items":[{"id":"GINeV3aLeTg","title":"(14) سيدنا أبو زكريا يحيى بن معاذ الرازي الواعظ رضي الله عنه  د. يسري جبر","publishedAt":"2018-04-15T19:53:54Z","duration":"PT30M17S","thumbnail":"https://i.ytimg.com/vi/GINeV3aLeTg/mqdefault.jpg","viewCount":"7298","playlistId":"PLEkQk5xrP-tmmI87XkWepRdTpisz2Lfgr","playlistName":"باب في ذكر مشايخ هذه الطريقة من شرح كتاب الرسالة القشيرية","category":"تصوف"},{"id":"JtiSzF0FTcE","title":"(13) سيدنا أبو عبد الرحمن حاتم بن علوان رضي الله عنه  د. يسري جبر","publishedAt":"2018-04-14T18:35:34Z","duration":"PT8M27S","thumbnail":"https://i.ytimg.com/vi/JtiSzF0FTcE/mqdefault.jpg","viewCount":"1802","playlistId":"PLEkQk5xrP-tmmI87XkWepRdTpisz2Lfgr","playlistName":"باب في ذكر مشايخ هذه الطريقة من شرح كتاب الرسالة القشيرية","category":"تصوف"},{"id":"VDIbqSuXFuQ","title":"(12) سيدنا أبو سليمان عبد الرحمن بن عطية الدَّاراني رضي الله عنه  د. يسري جبر","publishedAt":"2018-04-14T17:41:35Z","duration":"PT9M29S","thumbnail":"https://i.ytimg.com/vi/VDIbqSuXFuQ/mqdefault.jpg","viewCount":"2965","playlistId":"PLEkQk5xrP-tmmI87XkWepRdTpisz2Lfgr","playlistName":"باب في ذكر مشايخ هذه الطريقة من شرح كتاب الرسالة القشيرية","category":"تصوف"},{"id":"cT0tPM83BqM","title":"(11) سيدنا أبو محمد سهل بن عبد الله التُّستَري رضي الله عنه   د. يسري جبر","publishedAt":"2018-04-12T18:31:40Z","duration":"PT14M31S","thumbnail":"https://i.ytimg.com/vi/cT0tPM83BqM/mqdefault.jpg","viewCount":"8392","playlistId":"PLEkQk5xrP-tmmI87XkWepRdTpisz2Lfgr","playlistName":"باب في ذكر مشايخ هذه الطريقة من شرح كتاب الرسالة القشيرية","category":"تصوف"},{"id":"xfLN5b403z8","title":"(10) سيدنا أبو يزيد طيفور بن عيسى البسطامي رضي الله عنه   د. يسري جبر","publishedAt":"2018-04-12T17:00:33Z","duration":"PT25M36S","thumbnail":"https://i.ytimg.com/vi/xfLN5b403z8/mqdefault.jpg","viewCount":"33946","playlistId":"PLEkQk5xrP-tmmI87XkWepRdTpisz2Lfgr","playlistName":"باب في ذكر مشايخ هذه الطريقة من شرح كتاب الرسالة القشيرية","category":"تصوف"},{"id":"yi2wA1JM7jU","title":"(9) سيدنا أبو علي شقيق بن إبراهيم البلخي رضي الله عنه  د. يسري جبر","publishedAt":"2018-04-09T18:25:03Z","duration":"PT21M41S","thumbnail":"https://i.ytimg.com/vi/yi2wA1JM7jU/mqdefault.jpg","viewCount":"10133","playlistId":"PLEkQk5xrP-tmmI87XkWepRdTpisz2Lfgr","playlistName":"باب في ذكر مشايخ هذه الطريقة من شرح كتاب الرسالة القشيرية","category":"تصوف"},{"id":"AJj_1HAQJp4","title":"(8) سيدنا أبو سليمان داود بن نُصَير الطائي رضي الله عنه   د. يسري جبر","publishedAt":"2018-04-09T18:07:36Z","duration":"PT14M6S","thumbnail":"https://i.ytimg.com/vi/AJj_1HAQJp4/mqdefault.jpg","viewCount":"5361","playlistId":"PLEkQk5xrP-tmmI87XkWepRdTpisz2Lfgr","playlistName":"باب في ذكر مشايخ هذه الطريقة من شرح كتاب الرسالة القشيرية","category":"تصوف"},{"id":"Nbh-PGcyRb4","title":"(7) سيدنا أبو عبد الله الحارث بن أسد المحاسبي رضي الله عنه د. يسري جبر","publishedAt":"2018-04-09T11:35:54Z","duration":"PT21M6S","thumbnail":"https://i.ytimg.com/vi/Nbh-PGcyRb4/mqdefault.jpg","viewCount":"13557","playlistId":"PLEkQk5xrP-tmmI87XkWepRdTpisz2Lfgr","playlistName":"باب في ذكر مشايخ هذه الطريقة من شرح كتاب الرسالة القشيرية","category":"تصوف"},{"id":"6c7qXgkmWos","title":"(39) سيدنا أبو العباس أحمد بن محمد بن مسروق رضي الله عنه د. يسري جبر","publishedAt":"2018-04-06T21:12:13Z","duration":"PT19M28S","thumbnail":"https://i.ytimg.com/vi/6c7qXgkmWos/mqdefault.jpg","viewCount":"2832","playlistId":"PLEkQk5xrP-tmmI87XkWepRdTpisz2Lfgr","playlistName":"باب في ذكر مشايخ هذه الطريقة من شرح كتاب الرسالة القشيرية","category":"تصوف"},{"id":"8pDVHlgo-3U","title":"(6) سيدنا أبو نصر بِشْر بن الحارث الحافي رضي الله عنه   د. يسري جبر","publishedAt":"2018-03-29T17:41:27Z","duration":"PT14M12S","thumbnail":"https://i.ytimg.com/vi/8pDVHlgo-3U/mqdefault.jpg","viewCount":"14018","playlistId":"PLEkQk5xrP-tmmI87XkWepRdTpisz2Lfgr","playlistName":"باب في ذكر مشايخ هذه الطريقة من شرح كتاب الرسالة القشيرية","category":"تصوف"},{"id":"KWhpqemHnK4","title":"(5) سيدنا أبو الحسن سَريّ بن مُغلِّس السَّقطي   د. يسري جبر","publishedAt":"2018-03-26T18:14:55Z","duration":"PT14M33S","thumbnail":"https://i.ytimg.com/vi/KWhpqemHnK4/mqdefault.jpg","viewCount":"13483","playlistId":"PLEkQk5xrP-tmmI87XkWepRdTpisz2Lfgr","playlistName":"باب في ذكر مشايخ هذه الطريقة من شرح كتاب الرسالة القشيرية","category":"تصوف"},{"id":"Ugq9G4TJW4c","title":"(4) سيدنا أبو محفوظ معروف بن فيروز الكرخي رضي الله عنه  د. يسري جبر","publishedAt":"2018-03-18T21:27:42Z","duration":"PT19M","thumbnail":"https://i.ytimg.com/vi/Ugq9G4TJW4c/mqdefault.jpg","viewCount":"25157","playlistId":"PLEkQk5xrP-tmmI87XkWepRdTpisz2Lfgr","playlistName":"باب في ذكر مشايخ هذه الطريقة من شرح كتاب الرسالة القشيرية","category":"تصوف"},{"id":"6_FJDCuug7c","title":"3- سيدنا أبو عليّ الفُضَيل بن عِياض رضي الله عنه  د. يسري جبر","publishedAt":"2018-03-17T16:02:31Z","duration":"PT10M47S","thumbnail":"https://i.ytimg.com/vi/6_FJDCuug7c/mqdefault.jpg","viewCount":"9335","playlistId":"PLEkQk5xrP-tmmI87XkWepRdTpisz2Lfgr","playlistName":"باب في ذكر مشايخ هذه الطريقة من شرح كتاب الرسالة القشيرية","category":"تصوف"},{"id":"Jmo8dUc4sDI","title":"2- سيدنا أبو الفيض ذو النون المصري رضي الله عنه د. يسري جبر","publishedAt":"2018-03-15T18:26:54Z","duration":"PT12M17S","thumbnail":"https://i.ytimg.com/vi/Jmo8dUc4sDI/mqdefault.jpg","viewCount":"24524","playlistId":"PLEkQk5xrP-tmmI87XkWepRdTpisz2Lfgr","playlistName":"باب في ذكر مشايخ هذه الطريقة من شرح كتاب الرسالة القشيرية","category":"تصوف"},{"id":"Oxkk5CUkRCM","title":"1- سيدنا إبراهيم بن أدهم رضي الله تعالى عنه  د. يسري جبر","publishedAt":"2018-03-03T17:00:32Z","duration":"PT25M50S","thumbnail":"https://i.ytimg.com/vi/Oxkk5CUkRCM/mqdefault.jpg","viewCount":"96030","playlistId":"PLEkQk5xrP-tmmI87XkWepRdTpisz2Lfgr","playlistName":"باب في ذكر مشايخ هذه الطريقة من شرح كتاب الرسالة القشيرية","category":"تصوف"}],"total":39,"page":2,"pageSize":24,"totalPages":2}