{"items":[{"id":"goxE2tLTVT0","title":"شرح كتاب فتح القريب المجيب «فصلٌ في اللباس» د. يسري رشدي جبر","publishedAt":"2015-10-23T17:54:57Z","duration":"PT1H6M36S","thumbnail":"https://i.ytimg.com/vi/goxE2tLTVT0/mqdefault.jpg","viewCount":"1281","playlistId":"PLEkQk5xrP-tlyOgfNBZTZgoATzVW4mI20","playlistName":"كتاب فتح القريب المجيب (علم الفقه الشافعي)","category":"فقه"},{"id":"y7e1yEazOps","title":"شرح كتاب فتح القريب المجيب «فصلٌ في صلاة الكسوف والخسوف» د. يسري رشدي جبر","publishedAt":"2015-10-14T23:00:48Z","duration":"PT1H7M48S","thumbnail":"https://i.ytimg.com/vi/y7e1yEazOps/mqdefault.jpg","viewCount":"915","playlistId":"PLEkQk5xrP-tlyOgfNBZTZgoATzVW4mI20","playlistName":"كتاب فتح القريب المجيب (علم الفقه الشافعي)","category":"فقه"},{"id":"9h85yoU5wOs","title":"شرح فتح القريب المجيب كتاب أحكام الأقضية والشهادات - المجلس الأول","publishedAt":"2017-02-09T08:24:36Z","duration":"PT43M35S","thumbnail":"https://i.ytimg.com/vi/9h85yoU5wOs/mqdefault.jpg","viewCount":"603","playlistId":"PLEkQk5xrP-tlyOgfNBZTZgoATzVW4mI20","playlistName":"كتاب فتح القريب المجيب (علم الفقه الشافعي)","category":"فقه"},{"id":"UrmSjt2Ww0w","title":"شرح فتح القريب المجيب «شرائط الصلاة قبل الدخول فيها خمسة أشياء» د. يسري جبر","publishedAt":"2015-03-21T16:19:25Z","duration":"PT1H7M1S","thumbnail":"https://i.ytimg.com/vi/UrmSjt2Ww0w/mqdefault.jpg","viewCount":"2212","playlistId":"PLEkQk5xrP-tlyOgfNBZTZgoATzVW4mI20","playlistName":"كتاب فتح القريب المجيب (علم الفقه الشافعي)","category":"فقه"},{"id":"XjwSW_r1Mag","title":"شرح كتاب فتح القريب المجيب «الاستنجاء» د. يسري جبر","publishedAt":"2014-12-05T00:58:21Z","duration":"PT51M55S","thumbnail":"https://i.ytimg.com/vi/XjwSW_r1Mag/mqdefault.jpg","viewCount":"2766","playlistId":"PLEkQk5xrP-tlyOgfNBZTZgoATzVW4mI20","playlistName":"كتاب فتح القريب المجيب (علم الفقه الشافعي)","category":"فقه"},{"id":"-fW_d9fWgUk","title":"شرح فتح القريب المجيب «شرائط وجوب الصلاة» د. يسري جبر","publishedAt":"2015-03-07T08:03:23Z","duration":"PT1H7M30S","thumbnail":"https://i.ytimg.com/vi/-fW_d9fWgUk/mqdefault.jpg","viewCount":"2054","playlistId":"PLEkQk5xrP-tlyOgfNBZTZgoATzVW4mI20","playlistName":"كتاب فتح القريب المجيب (علم الفقه الشافعي)","category":"فقه"},{"id":"_hYTveFCX1Y","title":"شرح كتاب فتح القريب المجيب «كتاب أحكام الصلاة» د. يسري جبر","publishedAt":"2015-02-27T22:14:08Z","duration":"PT58M16S","thumbnail":"https://i.ytimg.com/vi/_hYTveFCX1Y/mqdefault.jpg","viewCount":"4621","playlistId":"PLEkQk5xrP-tlyOgfNBZTZgoATzVW4mI20","playlistName":"كتاب فتح القريب المجيب (علم الفقه الشافعي)","category":"فقه"},{"id":"nG-qPU4ndLY","title":"شرح فتح القريب المجيب - كتاب أحكام الأيمان والنذور","publishedAt":"2017-01-07T14:49:02Z","duration":"PT31M35S","thumbnail":"https://i.ytimg.com/vi/nG-qPU4ndLY/mqdefault.jpg","viewCount":"698","playlistId":"PLEkQk5xrP-tlyOgfNBZTZgoATzVW4mI20","playlistName":"كتاب فتح القريب المجيب (علم الفقه الشافعي)","category":"فقه"},{"id":"irfZ3YSLfuI","title":"شرح كتاب فتح القريب المجيب «الأوقات التى تكره الصلاة فيها» د. يسري رشدي جبر","publishedAt":"2015-05-25T14:44:29Z","duration":"PT1H31M45S","thumbnail":"https://i.ytimg.com/vi/irfZ3YSLfuI/mqdefault.jpg","viewCount":"2178","playlistId":"PLEkQk5xrP-tlyOgfNBZTZgoATzVW4mI20","playlistName":"كتاب فتح القريب المجيب (علم الفقه الشافعي)","category":"فقه"},{"id":"ZSqaQrjN39g","title":"شرح كتاب فتح القريب المجيب «فروض الوضوء» د. يسري جبر","publishedAt":"2014-06-15T21:37:13Z","duration":"PT1H23M42S","thumbnail":"https://i.ytimg.com/vi/ZSqaQrjN39g/mqdefault.jpg","viewCount":"4904","playlistId":"PLEkQk5xrP-tlyOgfNBZTZgoATzVW4mI20","playlistName":"كتاب فتح القريب المجيب (علم الفقه الشافعي)","category":"فقه"},{"id":"1hpbg-OzxZg","title":"شرح كتاب فتح القريب المجيب «تطهير جلود الميتة واستعمال الأواني والسواك» د. يسري جبر","publishedAt":"2014-06-14T16:41:04Z","duration":"PT1H24M36S","thumbnail":"https://i.ytimg.com/vi/1hpbg-OzxZg/mqdefault.jpg","viewCount":"3937","playlistId":"PLEkQk5xrP-tlyOgfNBZTZgoATzVW4mI20","playlistName":"كتاب فتح القريب المجيب (علم الفقه الشافعي)","category":"فقه"},{"id":"8zsaYr8NuIU","title":"شرح كتاب «فتح القريب المجيب» كتاب أحكام الطهارة_أنواع المياه","publishedAt":"2014-06-11T12:59:49Z","duration":"PT1H41M45S","thumbnail":"https://i.ytimg.com/vi/8zsaYr8NuIU/mqdefault.jpg","viewCount":"8152","playlistId":"PLEkQk5xrP-tlyOgfNBZTZgoATzVW4mI20","playlistName":"كتاب فتح القريب المجيب (علم الفقه الشافعي)","category":"فقه"}],"total":36,"page":2,"pageSize":24,"totalPages":2}