{"items":[{"id":"qK27J5Qtg9g","title":"شرح منازل السائرين - المجلس (3) باب اليقظة | أ.د. يسري جبر","publishedAt":"2022-08-10T18:00:26Z","duration":"PT1H1M14S","thumbnail":"https://i.ytimg.com/vi/qK27J5Qtg9g/mqdefault.jpg","viewCount":"40101","playlistId":"PLEkQk5xrP-tmiUfQ-2Tsn7QIak4EsvaZW","playlistName":"كتاب التيسير المعين بشرح معاني منازل السائرين (تصوف) - د.يسري جبر","category":"تصوف"},{"id":"Ttss3vs7dUY","title":"شرح منازل السائرين - المجلس (1) المقدمة | أ.د. يسري جبر","publishedAt":"2022-07-04T18:00:17Z","duration":"PT54M7S","thumbnail":"https://i.ytimg.com/vi/Ttss3vs7dUY/mqdefault.jpg","viewCount":"34531","playlistId":"PLEkQk5xrP-tmiUfQ-2Tsn7QIak4EsvaZW","playlistName":"كتاب التيسير المعين بشرح معاني منازل السائرين (تصوف) - د.يسري جبر","category":"تصوف"},{"id":"FX4BsGq5rig","title":"57- كيف تذكر الله بقلبك وما هي أنواع الذكر؟ | شرح منازل السائرين","publishedAt":"2025-01-07T18:15:00Z","duration":"PT30M53S","thumbnail":"https://i.ytimg.com/vi/FX4BsGq5rig/mqdefault.jpg","viewCount":"19324","playlistId":"PLEkQk5xrP-tmiUfQ-2Tsn7QIak4EsvaZW","playlistName":"كتاب التيسير المعين بشرح معاني منازل السائرين (تصوف) - د.يسري جبر","category":"تصوف"},{"id":"nGkxIWQMv0Y","title":"شرح منازل السائرين - المجلس (4) باب التوبة | أ.د. يسري جبر","publishedAt":"2022-08-17T17:13:13Z","duration":"PT41M16S","thumbnail":"https://i.ytimg.com/vi/nGkxIWQMv0Y/mqdefault.jpg","viewCount":"17473","playlistId":"PLEkQk5xrP-tmiUfQ-2Tsn7QIak4EsvaZW","playlistName":"كتاب التيسير المعين بشرح معاني منازل السائرين (تصوف) - د.يسري جبر","category":"تصوف"},{"id":"E-DZkZUL39A","title":"شرح منازل السائرين - المجلس (2) المقدمة ٢ | أ.د. يسري جبر","publishedAt":"2022-07-20T19:00:02Z","duration":"PT1H1M59S","thumbnail":"https://i.ytimg.com/vi/E-DZkZUL39A/mqdefault.jpg","viewCount":"14285","playlistId":"PLEkQk5xrP-tmiUfQ-2Tsn7QIak4EsvaZW","playlistName":"كتاب التيسير المعين بشرح معاني منازل السائرين (تصوف) - د.يسري جبر","category":"تصوف"},{"id":"fCnOyDMTc2A","title":"شرح منازل السائرين - المجلس (5) باب التوبة ۲ | أ.د. يسري جبر","publishedAt":"2022-08-26T20:46:28Z","duration":"PT53M33S","thumbnail":"https://i.ytimg.com/vi/fCnOyDMTc2A/mqdefault.jpg","viewCount":"14035","playlistId":"PLEkQk5xrP-tmiUfQ-2Tsn7QIak4EsvaZW","playlistName":"كتاب التيسير المعين بشرح معاني منازل السائرين (تصوف) - د.يسري جبر","category":"تصوف"},{"id":"ltm-Woc9o48","title":"56- طريقك إلى الأنس بالله | شرح منازل السائرين","publishedAt":"2024-12-24T19:56:46Z","duration":"PT31M42S","thumbnail":"https://i.ytimg.com/vi/ltm-Woc9o48/mqdefault.jpg","viewCount":"12601","playlistId":"PLEkQk5xrP-tmiUfQ-2Tsn7QIak4EsvaZW","playlistName":"كتاب التيسير المعين بشرح معاني منازل السائرين (تصوف) - د.يسري جبر","category":"تصوف"},{"id":"yk-tOpadu58","title":"شرح منازل السائرين - المجلس (38) باب التسليم | أ.د. يسري جبر","publishedAt":"2024-02-28T18:30:47Z","duration":"PT48M11S","thumbnail":"https://i.ytimg.com/vi/yk-tOpadu58/mqdefault.jpg","viewCount":"11062","playlistId":"PLEkQk5xrP-tmiUfQ-2Tsn7QIak4EsvaZW","playlistName":"كتاب التيسير المعين بشرح معاني منازل السائرين (تصوف) - د.يسري جبر","category":"تصوف"},{"id":"fGgqn2a8uZU","title":"شرح منازل السائرين - المجلس (8) باب الإنابةِ والتَّفَكُّرِ | أ.د. يسري جبر","publishedAt":"2022-09-14T18:00:31Z","duration":"PT51M28S","thumbnail":"https://i.ytimg.com/vi/fGgqn2a8uZU/mqdefault.jpg","viewCount":"10852","playlistId":"PLEkQk5xrP-tmiUfQ-2Tsn7QIak4EsvaZW","playlistName":"كتاب التيسير المعين بشرح معاني منازل السائرين (تصوف) - د.يسري جبر","category":"تصوف"},{"id":"_phdi4Crt8Q","title":"شرح منازل السائرين - المجلس (7) باب المحاسبة | أ.د. يسري جبر","publishedAt":"2022-09-12T18:00:14Z","duration":"PT50M24S","thumbnail":"https://i.ytimg.com/vi/_phdi4Crt8Q/mqdefault.jpg","viewCount":"10676","playlistId":"PLEkQk5xrP-tmiUfQ-2Tsn7QIak4EsvaZW","playlistName":"كتاب التيسير المعين بشرح معاني منازل السائرين (تصوف) - د.يسري جبر","category":"تصوف"},{"id":"75M4uDbnamQ","title":"68- كيف تشعر بالطمأنينة وراحة البال في حياتك؟ | شرح منازل السائرين","publishedAt":"2025-09-16T17:45:20Z","duration":"PT35M59S","thumbnail":"https://i.ytimg.com/vi/75M4uDbnamQ/mqdefault.jpg","viewCount":"10554","playlistId":"PLEkQk5xrP-tmiUfQ-2Tsn7QIak4EsvaZW","playlistName":"كتاب التيسير المعين بشرح معاني منازل السائرين (تصوف) - د.يسري جبر","category":"تصوف"},{"id":"KYd54QZZKdY","title":"67- متى ينزل الله السكينة على قلبك؟ | شرح منازل السائرين","publishedAt":"2025-09-03T19:00:13Z","duration":"PT30M36S","thumbnail":"https://i.ytimg.com/vi/KYd54QZZKdY/mqdefault.jpg","viewCount":"10078","playlistId":"PLEkQk5xrP-tmiUfQ-2Tsn7QIak4EsvaZW","playlistName":"كتاب التيسير المعين بشرح معاني منازل السائرين (تصوف) - د.يسري جبر","category":"تصوف"},{"id":"mo_UluzU8UU","title":"66- متى يتجلى الإلهام الرباني في قلب المريد؟ | شرح منازل السائرين","publishedAt":"2025-08-06T19:02:01Z","duration":"PT39M9S","thumbnail":"https://i.ytimg.com/vi/mo_UluzU8UU/mqdefault.jpg","viewCount":"9994","playlistId":"PLEkQk5xrP-tmiUfQ-2Tsn7QIak4EsvaZW","playlistName":"كتاب التيسير المعين بشرح معاني منازل السائرين (تصوف) - د.يسري جبر","category":"تصوف"},{"id":"BrxVyn4uKL0","title":"شرح منازل السائرين - المجلس (36) باب التفويض | أ.د. يسري جبر","publishedAt":"2024-02-08T18:30:11Z","duration":"PT34M15S","thumbnail":"https://i.ytimg.com/vi/BrxVyn4uKL0/mqdefault.jpg","viewCount":"8801","playlistId":"PLEkQk5xrP-tmiUfQ-2Tsn7QIak4EsvaZW","playlistName":"كتاب التيسير المعين بشرح معاني منازل السائرين (تصوف) - د.يسري جبر","category":"تصوف"},{"id":"EmV3I5kk4CE","title":"شرح منازل السائرين - المجلس (17) باب الحزن | أ.د. يسري جبر","publishedAt":"2022-12-07T18:00:07Z","duration":"PT43M4S","thumbnail":"https://i.ytimg.com/vi/EmV3I5kk4CE/mqdefault.jpg","viewCount":"8738","playlistId":"PLEkQk5xrP-tmiUfQ-2Tsn7QIak4EsvaZW","playlistName":"كتاب التيسير المعين بشرح معاني منازل السائرين (تصوف) - د.يسري جبر","category":"تصوف"},{"id":"bU9Bxwh0Zc8","title":"شرح منازل السائرين - المجلس (6) باب التوبة ۳ | أ.د. يسري جبر","publishedAt":"2022-09-07T17:15:03Z","duration":"PT42M4S","thumbnail":"https://i.ytimg.com/vi/bU9Bxwh0Zc8/mqdefault.jpg","viewCount":"8574","playlistId":"PLEkQk5xrP-tmiUfQ-2Tsn7QIak4EsvaZW","playlistName":"كتاب التيسير المعين بشرح معاني منازل السائرين (تصوف) - د.يسري جبر","category":"تصوف"},{"id":"OjOHb09p8h0","title":"59- متى يعصمك الله من الذنوب والمعاصي؟ | شرح منازل السائرين","publishedAt":"2025-04-22T19:01:17Z","duration":"PT38M","thumbnail":"https://i.ytimg.com/vi/OjOHb09p8h0/mqdefault.jpg","viewCount":"8413","playlistId":"PLEkQk5xrP-tmiUfQ-2Tsn7QIak4EsvaZW","playlistName":"كتاب التيسير المعين بشرح معاني منازل السائرين (تصوف) - د.يسري جبر","category":"تصوف"},{"id":"vEobFWTvXcw","title":"شرح منازل السائرين - المجلس (9) باب التَّفَكُّرِ ٢ | أ.د. يسري جبر","publishedAt":"2022-09-30T18:00:24Z","duration":"PT50M51S","thumbnail":"https://i.ytimg.com/vi/vEobFWTvXcw/mqdefault.jpg","viewCount":"8142","playlistId":"PLEkQk5xrP-tmiUfQ-2Tsn7QIak4EsvaZW","playlistName":"كتاب التيسير المعين بشرح معاني منازل السائرين (تصوف) - د.يسري جبر","category":"تصوف"},{"id":"_imgPh80E2o","title":"63- كيف تكون من أصحاب البصيرة؟ | شرح منازل السائرين","publishedAt":"2025-07-08T18:59:13Z","duration":"PT27M5S","thumbnail":"https://i.ytimg.com/vi/_imgPh80E2o/mqdefault.jpg","viewCount":"7624","playlistId":"PLEkQk5xrP-tmiUfQ-2Tsn7QIak4EsvaZW","playlistName":"كتاب التيسير المعين بشرح معاني منازل السائرين (تصوف) - د.يسري جبر","category":"تصوف"},{"id":"68woQ3PXSeA","title":"58- ما هو الفقر الحقيقي وكيف تكون غنيا بالله؟ | شرح منازل السائرين","publishedAt":"2025-01-15T19:30:58Z","duration":"PT55M3S","thumbnail":"https://i.ytimg.com/vi/68woQ3PXSeA/mqdefault.jpg","viewCount":"7580","playlistId":"PLEkQk5xrP-tmiUfQ-2Tsn7QIak4EsvaZW","playlistName":"كتاب التيسير المعين بشرح معاني منازل السائرين (تصوف) - د.يسري جبر","category":"تصوف"},{"id":"PITBHDG_Ezw","title":"شرح منازل السائرين - المجلس (33) مقدمة باب التوكل | أ.د. يسري جبر","publishedAt":"2024-01-17T18:26:50Z","duration":"PT34M35S","thumbnail":"https://i.ytimg.com/vi/PITBHDG_Ezw/mqdefault.jpg","viewCount":"7540","playlistId":"PLEkQk5xrP-tmiUfQ-2Tsn7QIak4EsvaZW","playlistName":"كتاب التيسير المعين بشرح معاني منازل السائرين (تصوف) - د.يسري جبر","category":"تصوف"},{"id":"NMo7CyhIc40","title":"شرح منازل السائرين - المجلس (18) باب الخوف | أ.د. يسري جبر","publishedAt":"2022-12-13T18:00:06Z","duration":"PT36M22S","thumbnail":"https://i.ytimg.com/vi/NMo7CyhIc40/mqdefault.jpg","viewCount":"7306","playlistId":"PLEkQk5xrP-tmiUfQ-2Tsn7QIak4EsvaZW","playlistName":"كتاب التيسير المعين بشرح معاني منازل السائرين (تصوف) - د.يسري جبر","category":"تصوف"},{"id":"GEfm0aikW-8","title":"شرح منازل السائرين - المجلس (11) باب التَّذَكُّر | أ.د. يسري جبر","publishedAt":"2022-10-12T18:00:11Z","duration":"PT52M1S","thumbnail":"https://i.ytimg.com/vi/GEfm0aikW-8/mqdefault.jpg","viewCount":"7254","playlistId":"PLEkQk5xrP-tmiUfQ-2Tsn7QIak4EsvaZW","playlistName":"كتاب التيسير المعين بشرح معاني منازل السائرين (تصوف) - د.يسري جبر","category":"تصوف"},{"id":"Yy1JynmJfxg","title":"شرح منازل السائرين - المجلس (41) باب الرضا | أ.د. يسري جبر","publishedAt":"2024-04-24T18:33:49Z","duration":"PT40M47S","thumbnail":"https://i.ytimg.com/vi/Yy1JynmJfxg/mqdefault.jpg","viewCount":"7164","playlistId":"PLEkQk5xrP-tmiUfQ-2Tsn7QIak4EsvaZW","playlistName":"كتاب التيسير المعين بشرح معاني منازل السائرين (تصوف) - د.يسري جبر","category":"تصوف"}],"total":69,"page":1,"pageSize":24,"totalPages":3}