{"items":[{"id":"E8R_tod_uQQ","title":"ماذا حدث في فتنة الخوارج وقصة استشهاد سيدنا علي بن أبي طالب؟","publishedAt":"2025-09-30T18:00:33Z","duration":"PT28M10S","thumbnail":"https://i.ytimg.com/vi/E8R_tod_uQQ/mqdefault.jpg","viewCount":"8692","playlistId":"PLEkQk5xrP-tlArtGpeLWaqNM7h7IDeAVC","playlistName":"خطب الجمعة أ.د. يسري جبر","category":"خطب"},{"id":"ribnonDgVto","title":"كيف تجعل حب آل البيت طريقك إلى الجنة؟","publishedAt":"2025-09-29T16:30:31Z","duration":"PT8M32S","thumbnail":"https://i.ytimg.com/vi/ribnonDgVto/mqdefault.jpg","viewCount":"2111","playlistId":"PLEkQk5xrP-tlArtGpeLWaqNM7h7IDeAVC","playlistName":"خطب الجمعة أ.د. يسري جبر","category":"خطب"},{"id":"dWz81uEoJo0","title":"ابني بيسأل فين ربنا؟ إزاي أرد عليه صح؟","publishedAt":"2025-09-26T19:45:25Z","duration":"PT25M42S","thumbnail":"https://i.ytimg.com/vi/dWz81uEoJo0/mqdefault.jpg","viewCount":"2572","playlistId":"PLEkQk5xrP-tlArtGpeLWaqNM7h7IDeAVC","playlistName":"خطب الجمعة أ.د. يسري جبر","category":"خطب"},{"id":"jMHYUl2p8wU","title":"كيف نرد على من يسأل أين الله؟","publishedAt":"2025-09-25T18:58:13Z","duration":"PT19M8S","thumbnail":"https://i.ytimg.com/vi/jMHYUl2p8wU/mqdefault.jpg","viewCount":"2539","playlistId":"PLEkQk5xrP-tlArtGpeLWaqNM7h7IDeAVC","playlistName":"خطب الجمعة أ.د. يسري جبر","category":"خطب"},{"id":"RZDsLB_gfXA","title":"رحلة في الكمالات المحمدية","publishedAt":"2025-09-17T18:17:33Z","duration":"PT12M45S","thumbnail":"https://i.ytimg.com/vi/RZDsLB_gfXA/mqdefault.jpg","viewCount":"1238","playlistId":"PLEkQk5xrP-tlArtGpeLWaqNM7h7IDeAVC","playlistName":"خطب الجمعة أ.د. يسري جبر","category":"خطب"},{"id":"Maj_wP5wRf8","title":"ما تفسير عتاب الله للنبي في جميع مواضع القرآن؟","publishedAt":"2025-09-15T18:45:02Z","duration":"PT28M56S","thumbnail":"https://i.ytimg.com/vi/Maj_wP5wRf8/mqdefault.jpg","viewCount":"2361","playlistId":"PLEkQk5xrP-tlArtGpeLWaqNM7h7IDeAVC","playlistName":"خطب الجمعة أ.د. يسري جبر","category":"خطب"},{"id":"qvg7SWM3Bes","title":"قصة مولد النبي ﷺ من الميلاد إلى المعجزات!","publishedAt":"2025-09-06T19:15:06Z","duration":"PT39M31S","thumbnail":"https://i.ytimg.com/vi/qvg7SWM3Bes/mqdefault.jpg","viewCount":"5351","playlistId":"PLEkQk5xrP-tlArtGpeLWaqNM7h7IDeAVC","playlistName":"خطب الجمعة أ.د. يسري جبر","category":"خطب"},{"id":"u05lu_CXs_s","title":"حقائق ومعاني حول روحانية النبي ﷺ في يوم مولده","publishedAt":"2025-09-04T18:45:45Z","duration":"PT23M21S","thumbnail":"https://i.ytimg.com/vi/u05lu_CXs_s/mqdefault.jpg","viewCount":"3984","playlistId":"PLEkQk5xrP-tlArtGpeLWaqNM7h7IDeAVC","playlistName":"خطب الجمعة أ.د. يسري جبر","category":"خطب"},{"id":"fGJsx9pESew","title":"لماذا نحتفل بمولد النبي ﷺ وهل الاحتفال بدعة؟","publishedAt":"2025-08-26T17:30:12Z","duration":"PT21M27S","thumbnail":"https://i.ytimg.com/vi/fGJsx9pESew/mqdefault.jpg","viewCount":"9123","playlistId":"PLEkQk5xrP-tlArtGpeLWaqNM7h7IDeAVC","playlistName":"خطب الجمعة أ.د. يسري جبر","category":"خطب"},{"id":"As3mTPewN5A","title":"كيف نحتفل بمولد النبي ﷺ؟","publishedAt":"2025-08-24T17:00:10Z","duration":"PT21M49S","thumbnail":"https://i.ytimg.com/vi/As3mTPewN5A/mqdefault.jpg","viewCount":"6233","playlistId":"PLEkQk5xrP-tlArtGpeLWaqNM7h7IDeAVC","playlistName":"خطب الجمعة أ.د. يسري جبر","category":"خطب"},{"id":"Zbi0t9q1t50","title":"أسرار لا يكمل إيمانك إلا بمعرفتها!","publishedAt":"2025-07-17T19:15:03Z","duration":"PT15M44S","thumbnail":"https://i.ytimg.com/vi/Zbi0t9q1t50/mqdefault.jpg","viewCount":"7601","playlistId":"PLEkQk5xrP-tlArtGpeLWaqNM7h7IDeAVC","playlistName":"خطب الجمعة أ.د. يسري جبر","category":"خطب"},{"id":"swLb_b7D81Q","title":"كيف تحصن نفسك من أفكار الوهابية؟","publishedAt":"2025-07-15T18:57:47Z","duration":"PT15M4S","thumbnail":"https://i.ytimg.com/vi/swLb_b7D81Q/mqdefault.jpg","viewCount":"2797","playlistId":"PLEkQk5xrP-tlArtGpeLWaqNM7h7IDeAVC","playlistName":"خطب الجمعة أ.د. يسري جبر","category":"خطب"},{"id":"GGN_LVl2bSA","title":"كيف نستقبل العام الهجري الجديد؟","publishedAt":"2025-06-26T18:33:09Z","duration":"PT16M2S","thumbnail":"https://i.ytimg.com/vi/GGN_LVl2bSA/mqdefault.jpg","viewCount":"3038","playlistId":"PLEkQk5xrP-tlArtGpeLWaqNM7h7IDeAVC","playlistName":"خطب الجمعة أ.د. يسري جبر","category":"خطب"},{"id":"DiNLzDEmATU","title":"هل صلاة العيد تسقط فرض الجمعة؟ | خطبة عيد الأضحى","publishedAt":"2025-06-06T06:00:21Z","duration":"PT23M39S","thumbnail":"https://i.ytimg.com/vi/DiNLzDEmATU/mqdefault.jpg","viewCount":"3917","playlistId":"PLEkQk5xrP-tlArtGpeLWaqNM7h7IDeAVC","playlistName":"خطب الجمعة أ.د. يسري جبر","category":"خطب"},{"id":"l1qeNnLttDY","title":"ماذا تفعل في يوم عرفة؟","publishedAt":"2025-06-04T18:15:04Z","duration":"PT14M44S","thumbnail":"https://i.ytimg.com/vi/l1qeNnLttDY/mqdefault.jpg","viewCount":"10144","playlistId":"PLEkQk5xrP-tlArtGpeLWaqNM7h7IDeAVC","playlistName":"خطب الجمعة أ.د. يسري جبر","category":"خطب"},{"id":"qXMXbog7_oY","title":"ماذا تفعل إن لم تستطع الحج هذا العام؟","publishedAt":"2025-06-03T18:51:35Z","duration":"PT18M29S","thumbnail":"https://i.ytimg.com/vi/qXMXbog7_oY/mqdefault.jpg","viewCount":"3492","playlistId":"PLEkQk5xrP-tlArtGpeLWaqNM7h7IDeAVC","playlistName":"خطب الجمعة أ.د. يسري جبر","category":"خطب"},{"id":"5zdVVADYWfA","title":"علوم الطاقة بين الحقيقة والخرافات وحكم العلاج بالطاقة؟","publishedAt":"2025-05-28T19:54:31Z","duration":"PT41M13S","thumbnail":"https://i.ytimg.com/vi/5zdVVADYWfA/mqdefault.jpg","viewCount":"16564","playlistId":"PLEkQk5xrP-tlArtGpeLWaqNM7h7IDeAVC","playlistName":"خطب الجمعة أ.د. يسري جبر","category":"خطب"},{"id":"wFfvwzlGx-o","title":"كيف تغتنم العشر الأوائل من ذي الحجة؟","publishedAt":"2025-05-27T17:01:23Z","duration":"PT8M51S","thumbnail":"https://i.ytimg.com/vi/wFfvwzlGx-o/mqdefault.jpg","viewCount":"4361","playlistId":"PLEkQk5xrP-tlArtGpeLWaqNM7h7IDeAVC","playlistName":"خطب الجمعة أ.د. يسري جبر","category":"خطب"},{"id":"Vc5Ea7OKFck","title":"أفضل الأعمال في العشر الأوائل من ذي الحجة","publishedAt":"2025-05-26T20:19:42Z","duration":"PT21M48S","thumbnail":"https://i.ytimg.com/vi/Vc5Ea7OKFck/mqdefault.jpg","viewCount":"19597","playlistId":"PLEkQk5xrP-tlArtGpeLWaqNM7h7IDeAVC","playlistName":"خطب الجمعة أ.د. يسري جبر","category":"خطب"},{"id":"2RRMFn04TMo","title":"كيف يكون النبي ﷺ قدوتك في حياتك؟","publishedAt":"2025-05-25T18:23:38Z","duration":"PT10M8S","thumbnail":"https://i.ytimg.com/vi/2RRMFn04TMo/mqdefault.jpg","viewCount":"2217","playlistId":"PLEkQk5xrP-tlArtGpeLWaqNM7h7IDeAVC","playlistName":"خطب الجمعة أ.د. يسري جبر","category":"خطب"},{"id":"wgVd-VBs9Dw","title":"خطبة الجمعة | مسجد هونسلو لندن","publishedAt":"2025-05-23T14:39:08Z","duration":"PT24M1S","thumbnail":"https://i.ytimg.com/vi/wgVd-VBs9Dw/mqdefault.jpg","viewCount":"3187","playlistId":"PLEkQk5xrP-tlArtGpeLWaqNM7h7IDeAVC","playlistName":"خطب الجمعة أ.د. يسري جبر","category":"خطب"},{"id":"QVu_UZULqqQ","title":"الرد على من ينكر خصوصية النبي ﷺ","publishedAt":"2025-05-22T17:40:04Z","duration":"PT17M18S","thumbnail":"https://i.ytimg.com/vi/QVu_UZULqqQ/mqdefault.jpg","viewCount":"2806","playlistId":"PLEkQk5xrP-tlArtGpeLWaqNM7h7IDeAVC","playlistName":"خطب الجمعة أ.د. يسري جبر","category":"خطب"},{"id":"_0E6A6EoxXI","title":"كيف تحمي نفسك من أوحال التوحيد؟","publishedAt":"2025-05-21T17:00:55Z","duration":"PT8M40S","thumbnail":"https://i.ytimg.com/vi/_0E6A6EoxXI/mqdefault.jpg","viewCount":"5059","playlistId":"PLEkQk5xrP-tlArtGpeLWaqNM7h7IDeAVC","playlistName":"خطب الجمعة أ.د. يسري جبر","category":"خطب"},{"id":"Tl9gm7DaNAM","title":"خطر الفكر الوهابي على المسلمين!","publishedAt":"2025-05-20T19:50:48Z","duration":"PT43M","thumbnail":"https://i.ytimg.com/vi/Tl9gm7DaNAM/mqdefault.jpg","viewCount":"36593","playlistId":"PLEkQk5xrP-tlArtGpeLWaqNM7h7IDeAVC","playlistName":"خطب الجمعة أ.د. يسري جبر","category":"خطب"}],"total":676,"page":2,"pageSize":24,"totalPages":29}