{"items":[{"id":"3BrlwZ8JXE0","title":"كيف تواجه فتن هذا الزمان  د. يسري جبر","publishedAt":"2017-02-04T18:25:13Z","duration":"PT51M1S","thumbnail":"https://i.ytimg.com/vi/3BrlwZ8JXE0/mqdefault.jpg","viewCount":"41082","playlistId":"PLEkQk5xrP-tlArtGpeLWaqNM7h7IDeAVC","playlistName":"خطب الجمعة أ.د. يسري جبر","category":"خطب"},{"id":"teWBVrhJnZk","title":"الموت في القرآن والسنة  د. يسري جبر","publishedAt":"2017-01-07T18:38:24Z","duration":"PT44M37S","thumbnail":"https://i.ytimg.com/vi/teWBVrhJnZk/mqdefault.jpg","viewCount":"14929","playlistId":"PLEkQk5xrP-tlArtGpeLWaqNM7h7IDeAVC","playlistName":"خطب الجمعة أ.د. يسري جبر","category":"خطب"},{"id":"NqoFlBeNP2A","title":"مظهر الرحمة في الوالدين  د.يسري جبر","publishedAt":"2017-01-02T14:09:52Z","duration":"PT47M15S","thumbnail":"https://i.ytimg.com/vi/NqoFlBeNP2A/mqdefault.jpg","viewCount":"2179","playlistId":"PLEkQk5xrP-tlArtGpeLWaqNM7h7IDeAVC","playlistName":"خطب الجمعة أ.د. يسري جبر","category":"خطب"},{"id":"nfbqjHV_bmE","title":"الروحانية المحمدية في القرآن الكريم   د. يسري جبر","publishedAt":"2016-12-25T19:19:50Z","duration":"PT51M4S","thumbnail":"https://i.ytimg.com/vi/nfbqjHV_bmE/mqdefault.jpg","viewCount":"39718","playlistId":"PLEkQk5xrP-tlArtGpeLWaqNM7h7IDeAVC","playlistName":"خطب الجمعة أ.د. يسري جبر","category":"خطب"},{"id":"jXJlohddBlU","title":"حول المولد النبوي الشريف   د. يسري جبر","publishedAt":"2016-12-04T13:50:35Z","duration":"PT36M40S","thumbnail":"https://i.ytimg.com/vi/jXJlohddBlU/mqdefault.jpg","viewCount":"2844","playlistId":"PLEkQk5xrP-tlArtGpeLWaqNM7h7IDeAVC","playlistName":"خطب الجمعة أ.د. يسري جبر","category":"خطب"},{"id":"Z6GPJ86Cm6Y","title":"سلاح الدعاء    د. يسري جبر","publishedAt":"2016-11-26T14:01:54Z","duration":"PT39M50S","thumbnail":"https://i.ytimg.com/vi/Z6GPJ86Cm6Y/mqdefault.jpg","viewCount":"23114","playlistId":"PLEkQk5xrP-tlArtGpeLWaqNM7h7IDeAVC","playlistName":"خطب الجمعة أ.د. يسري جبر","category":"خطب"},{"id":"1dqNX1TPvNM","title":"الإِيمانُ بِالقَضَاءِ والَقَدَرِ  د. يسري جبر","publishedAt":"2016-11-19T07:22:15Z","duration":"PT37M9S","thumbnail":"https://i.ytimg.com/vi/1dqNX1TPvNM/mqdefault.jpg","viewCount":"13898","playlistId":"PLEkQk5xrP-tlArtGpeLWaqNM7h7IDeAVC","playlistName":"خطب الجمعة أ.د. يسري جبر","category":"خطب"},{"id":"lxu2HdPW40s","title":"كيف نتعامل مع الأزمات    د. يسري جبر","publishedAt":"2016-11-12T13:04:10Z","duration":"PT44M36S","thumbnail":"https://i.ytimg.com/vi/lxu2HdPW40s/mqdefault.jpg","viewCount":"2671","playlistId":"PLEkQk5xrP-tlArtGpeLWaqNM7h7IDeAVC","playlistName":"خطب الجمعة أ.د. يسري جبر","category":"خطب"},{"id":"BuqKsmZj8P0","title":"الحياة كفاح    د. يسري جبر","publishedAt":"2016-11-05T21:20:06Z","duration":"PT49M49S","thumbnail":"https://i.ytimg.com/vi/BuqKsmZj8P0/mqdefault.jpg","viewCount":"2572","playlistId":"PLEkQk5xrP-tlArtGpeLWaqNM7h7IDeAVC","playlistName":"خطب الجمعة أ.د. يسري جبر","category":"خطب"},{"id":"7J7c1myYWFo","title":"لا نستجدي ولا نستغني   د. يسري جبر","publishedAt":"2016-10-30T14:38:10Z","duration":"PT45M28S","thumbnail":"https://i.ytimg.com/vi/7J7c1myYWFo/mqdefault.jpg","viewCount":"774","playlistId":"PLEkQk5xrP-tlArtGpeLWaqNM7h7IDeAVC","playlistName":"خطب الجمعة أ.د. يسري جبر","category":"خطب"},{"id":"JESq49xXRDU","title":"حول الروحانية المحمدية ونصيب المسلم المعاصر من الهجرة النبوية    د. يسري جبر","publishedAt":"2016-10-12T04:26:32Z","duration":"PT51M9S","thumbnail":"https://i.ytimg.com/vi/JESq49xXRDU/mqdefault.jpg","viewCount":"8211","playlistId":"PLEkQk5xrP-tlArtGpeLWaqNM7h7IDeAVC","playlistName":"خطب الجمعة أ.د. يسري جبر","category":"خطب"},{"id":"iKJEFy_TaDc","title":"لماذا خرج الوهابية من أهل السنة ولم يخرجوا من الإسلام | أ.د. يسري جبر","publishedAt":"2016-10-02T03:13:26Z","duration":"PT1H27M10S","thumbnail":"https://i.ytimg.com/vi/iKJEFy_TaDc/mqdefault.jpg","viewCount":"130137","playlistId":"PLEkQk5xrP-tlArtGpeLWaqNM7h7IDeAVC","playlistName":"خطب الجمعة أ.د. يسري جبر","category":"خطب"},{"id":"HjUV-VmreM4","title":"كيف تُحصِّل ثواب الهجرة في هذا الزمان    د. يسري جبر","publishedAt":"2016-10-01T14:39:33Z","duration":"PT34M28S","thumbnail":"https://i.ytimg.com/vi/HjUV-VmreM4/mqdefault.jpg","viewCount":"977","playlistId":"PLEkQk5xrP-tlArtGpeLWaqNM7h7IDeAVC","playlistName":"خطب الجمعة أ.د. يسري جبر","category":"خطب"},{"id":"ucPdjBNZalM","title":"حسن الخُلق من أعظم ما يُتقرب به إلى الله    د. يسري جبر","publishedAt":"2016-09-09T19:35:56Z","duration":"PT28M50S","thumbnail":"https://i.ytimg.com/vi/ucPdjBNZalM/mqdefault.jpg","viewCount":"1253","playlistId":"PLEkQk5xrP-tlArtGpeLWaqNM7h7IDeAVC","playlistName":"خطب الجمعة أ.د. يسري جبر","category":"خطب"},{"id":"0twNV7FpQag","title":"سرقة يقع فيها كثير من الناس  د. يسري جبر","publishedAt":"2016-08-27T18:25:23Z","duration":"PT41M24S","thumbnail":"https://i.ytimg.com/vi/0twNV7FpQag/mqdefault.jpg","viewCount":"2402","playlistId":"PLEkQk5xrP-tlArtGpeLWaqNM7h7IDeAVC","playlistName":"خطب الجمعة أ.د. يسري جبر","category":"خطب"},{"id":"i8I_f0Gw0Ik","title":"العلم قبل العمل  د. يسري جبر","publishedAt":"2016-08-20T20:06:44Z","duration":"PT39M31S","thumbnail":"https://i.ytimg.com/vi/i8I_f0Gw0Ik/mqdefault.jpg","viewCount":"1061","playlistId":"PLEkQk5xrP-tlArtGpeLWaqNM7h7IDeAVC","playlistName":"خطب الجمعة أ.د. يسري جبر","category":"خطب"},{"id":"Eqw5fw_Xsjo","title":"الاستقامة  د.يسري جبر","publishedAt":"2016-08-17T19:14:06Z","duration":"PT39M21S","thumbnail":"https://i.ytimg.com/vi/Eqw5fw_Xsjo/mqdefault.jpg","viewCount":"788","playlistId":"PLEkQk5xrP-tlArtGpeLWaqNM7h7IDeAVC","playlistName":"خطب الجمعة أ.د. يسري جبر","category":"خطب"},{"id":"v4URe6lCyLU","title":"ما معنى الاعتصام وما الفرق بين الاعتصام بحبل الله والاعتصام بالله  د.يسري جبر","publishedAt":"2016-08-06T18:13:00Z","duration":"PT48M48S","thumbnail":"https://i.ytimg.com/vi/v4URe6lCyLU/mqdefault.jpg","viewCount":"1300","playlistId":"PLEkQk5xrP-tlArtGpeLWaqNM7h7IDeAVC","playlistName":"خطب الجمعة أ.د. يسري جبر","category":"خطب"},{"id":"2vtEEhBipMQ","title":"ما هو الحب  د.يسري جبر","publishedAt":"2016-08-04T08:31:38Z","duration":"PT43M25S","thumbnail":"https://i.ytimg.com/vi/2vtEEhBipMQ/mqdefault.jpg","viewCount":"6970","playlistId":"PLEkQk5xrP-tlArtGpeLWaqNM7h7IDeAVC","playlistName":"خطب الجمعة أ.د. يسري جبر","category":"خطب"},{"id":"FfKCsB8yTqQ","title":"منوعات إيمانية د. يسري جبر","publishedAt":"2016-07-16T15:04:51Z","duration":"PT46M25S","thumbnail":"https://i.ytimg.com/vi/FfKCsB8yTqQ/mqdefault.jpg","viewCount":"946","playlistId":"PLEkQk5xrP-tlArtGpeLWaqNM7h7IDeAVC","playlistName":"خطب الجمعة أ.د. يسري جبر","category":"خطب"},{"id":"w3S4csS_ZjI","title":"تعامل مع المباح كأنه دواء د. يسري جبر","publishedAt":"2016-07-10T19:12:40Z","duration":"PT44M9S","thumbnail":"https://i.ytimg.com/vi/w3S4csS_ZjI/mqdefault.jpg","viewCount":"656","playlistId":"PLEkQk5xrP-tlArtGpeLWaqNM7h7IDeAVC","playlistName":"خطب الجمعة أ.د. يسري جبر","category":"خطب"},{"id":"8JNiITtGTBg","title":"خطبة عيد الفطر المبارك  د. يسري جبر","publishedAt":"2016-07-07T08:28:19Z","duration":"PT22M19S","thumbnail":"https://i.ytimg.com/vi/8JNiITtGTBg/mqdefault.jpg","viewCount":"1329","playlistId":"PLEkQk5xrP-tnTGoEr4TI_tnp8L7Ujv9dx","playlistName":"خطب العيد","category":"خطب"},{"id":"gKPcrU0dNPQ","title":"كيفية التأسي بالنبي صلى الله عليه وآله وسلم د. يسري جبر","publishedAt":"2016-06-14T14:25:13Z","duration":"PT49M29S","thumbnail":"https://i.ytimg.com/vi/gKPcrU0dNPQ/mqdefault.jpg","viewCount":"628","playlistId":"PLEkQk5xrP-tlArtGpeLWaqNM7h7IDeAVC","playlistName":"خطب الجمعة أ.د. يسري جبر","category":"خطب"},{"id":"6ba9DdA95nI","title":"كل الناس يغدو فبائع نفسه فمعتقها أو موبقها د. يسري جبر","publishedAt":"2016-06-04T14:19:17Z","duration":"PT42M29S","thumbnail":"https://i.ytimg.com/vi/6ba9DdA95nI/mqdefault.jpg","viewCount":"1602","playlistId":"PLEkQk5xrP-tlArtGpeLWaqNM7h7IDeAVC","playlistName":"خطب الجمعة أ.د. يسري جبر","category":"خطب"}],"total":676,"page":25,"pageSize":24,"totalPages":29}