{"items":[{"id":"VBuNqyuuMpc","title":"182- ضمير الشأن والقصة - شرح الإتقان في علوم القرآن","publishedAt":"2023-12-12T06:49:05Z","duration":"PT28M6S","thumbnail":"https://i.ytimg.com/vi/VBuNqyuuMpc/mqdefault.jpg","viewCount":"731","playlistId":"PLEkQk5xrP-tlPw10KGJKagu7zm4Ry2Tge","playlistName":"شرح الإتقان في علوم القرآن","category":"تفسير"},{"id":"3XVpYO5zOxA","title":"109- الألفاظ الواردة في القرآن التي لها معاني في لغات أخرى - حرف القاف - شرح الإتقان في علوم القرآن","publishedAt":"2023-06-25T08:59:00Z","duration":"PT35M7S","thumbnail":"https://i.ytimg.com/vi/3XVpYO5zOxA/mqdefault.jpg","viewCount":"533","playlistId":"PLEkQk5xrP-tlPw10KGJKagu7zm4Ry2Tge","playlistName":"شرح الإتقان في علوم القرآن","category":"تفسير"},{"id":"cZDlINX1jK8","title":"108- الألفاظ الواردة في القرآن التي لها معاني في لغات أخرى - حرف الراء - شرح الإتقان في علوم القرآن","publishedAt":"2023-06-25T05:00:25Z","duration":"PT39M9S","thumbnail":"https://i.ytimg.com/vi/cZDlINX1jK8/mqdefault.jpg","viewCount":"781","playlistId":"PLEkQk5xrP-tlPw10KGJKagu7zm4Ry2Tge","playlistName":"شرح الإتقان في علوم القرآن","category":"تفسير"},{"id":"2NGSPb14hNs","title":"34- معنى نزول القرآن على سبعة أحرف (3) الوجه العاشر - شرح الإتقان في علوم القرآن","publishedAt":"2023-03-08T05:30:00Z","duration":"PT27M21S","thumbnail":"https://i.ytimg.com/vi/2NGSPb14hNs/mqdefault.jpg","viewCount":"1329","playlistId":"PLEkQk5xrP-tlPw10KGJKagu7zm4Ry2Tge","playlistName":"شرح الإتقان في علوم القرآن","category":"تفسير"},{"id":"FKebcgEeWfs","title":"263- بدائع القرآن - شرح الإتقان في علوم القرآن","publishedAt":"2024-10-31T06:00:06Z","duration":"PT37M39S","thumbnail":"https://i.ytimg.com/vi/FKebcgEeWfs/mqdefault.jpg","viewCount":"682","playlistId":"PLEkQk5xrP-tlPw10KGJKagu7zm4Ry2Tge","playlistName":"شرح الإتقان في علوم القرآن","category":"تفسير"},{"id":"NU9Z4qDmSYc","title":"262- التَّمَنِّي - شرح الإتقان في علوم القرآن","publishedAt":"2024-10-29T06:00:21Z","duration":"PT22M1S","thumbnail":"https://i.ytimg.com/vi/NU9Z4qDmSYc/mqdefault.jpg","viewCount":"545","playlistId":"PLEkQk5xrP-tlPw10KGJKagu7zm4Ry2Tge","playlistName":"شرح الإتقان في علوم القرآن","category":"تفسير"},{"id":"7JBGPJZWYkc","title":"261- الأمر - شرح الإتقان في علوم القرآن","publishedAt":"2024-10-27T06:00:04Z","duration":"PT18M47S","thumbnail":"https://i.ytimg.com/vi/7JBGPJZWYkc/mqdefault.jpg","viewCount":"450","playlistId":"PLEkQk5xrP-tlPw10KGJKagu7zm4Ry2Tge","playlistName":"شرح الإتقان في علوم القرآن","category":"تفسير"},{"id":"D26faSFPW9s","title":"89- غريب القرآن(4)- ما جاء في سورة سبأ - شرح الإتقان في علوم القرآن","publishedAt":"2023-06-02T05:00:10Z","duration":"PT31M3S","thumbnail":"https://i.ytimg.com/vi/D26faSFPW9s/mqdefault.jpg","viewCount":"630","playlistId":"PLEkQk5xrP-tlPw10KGJKagu7zm4Ry2Tge","playlistName":"شرح الإتقان في علوم القرآن","category":"تفسير"},{"id":"CG8E5sjgl1E","title":"88- غريب القرآن(3) - ما جاء في سورة إبراهيم عليه السلام - شرح الإتقان في علوم","publishedAt":"2023-06-01T05:00:04Z","duration":"PT37M45S","thumbnail":"https://i.ytimg.com/vi/CG8E5sjgl1E/mqdefault.jpg","viewCount":"955","playlistId":"PLEkQk5xrP-tlPw10KGJKagu7zm4Ry2Tge","playlistName":"شرح الإتقان في علوم القرآن","category":"تفسير"},{"id":"-SfhdEmr1Hw","title":"87- غريب القرآن (2) - ما جاء في سورة النساء وما بعدها - شرح الإتقان في علوم القرآن","publishedAt":"2023-05-31T05:00:00Z","duration":"PT28M29S","thumbnail":"https://i.ytimg.com/vi/-SfhdEmr1Hw/mqdefault.jpg","viewCount":"767","playlistId":"PLEkQk5xrP-tlPw10KGJKagu7zm4Ry2Tge","playlistName":"شرح الإتقان في علوم القرآن","category":"تفسير"},{"id":"_c2jNOXMRN8","title":"86- غريب القرآن - شرح الإتقان في علوم القرآن","publishedAt":"2023-05-30T08:59:00Z","duration":"PT17M59S","thumbnail":"https://i.ytimg.com/vi/_c2jNOXMRN8/mqdefault.jpg","viewCount":"730","playlistId":"PLEkQk5xrP-tlPw10KGJKagu7zm4Ry2Tge","playlistName":"شرح الإتقان في علوم القرآن","category":"تفسير"},{"id":"Y7bCRw9vHUU","title":"273- صيغة المبالغة - شرح الإتقان في علوم القرآن","publishedAt":"2024-12-09T06:15:01Z","duration":"PT38M13S","thumbnail":"https://i.ytimg.com/vi/Y7bCRw9vHUU/mqdefault.jpg","viewCount":"455","playlistId":"PLEkQk5xrP-tlPw10KGJKagu7zm4Ry2Tge","playlistName":"شرح الإتقان في علوم القرآن","category":"تفسير"},{"id":"3pXJmMJVRd4","title":"272- الفرائد - شرح الإتقان في علوم القرآن","publishedAt":"2024-12-05T07:14:00Z","duration":"PT37M9S","thumbnail":"https://i.ytimg.com/vi/3pXJmMJVRd4/mqdefault.jpg","viewCount":"650","playlistId":"PLEkQk5xrP-tlPw10KGJKagu7zm4Ry2Tge","playlistName":"شرح الإتقان في علوم القرآن","category":"تفسير"},{"id":"HIOn5GxoLoc","title":"20- النَّوْعُ التاسع: معرفة سبب النزول - شرح الإتقان في علوم القرآن","publishedAt":"2023-02-08T05:00:11Z","duration":"PT30M23S","thumbnail":"https://i.ytimg.com/vi/HIOn5GxoLoc/mqdefault.jpg","viewCount":"1441","playlistId":"PLEkQk5xrP-tlPw10KGJKagu7zm4Ry2Tge","playlistName":"شرح الإتقان في علوم القرآن","category":"تفسير"},{"id":"8SunTfxgvPM","title":"19- النَّوْعُ الثامن: معرفة آخر ما نزل من القرآن - شرح الإتقان في علوم القرآن","publishedAt":"2023-02-07T05:00:06Z","duration":"PT27M23S","thumbnail":"https://i.ytimg.com/vi/8SunTfxgvPM/mqdefault.jpg","viewCount":"1115","playlistId":"PLEkQk5xrP-tlPw10KGJKagu7zm4Ry2Tge","playlistName":"شرح الإتقان في علوم القرآن","category":"تفسير"},{"id":"dXUjcbNiL7g","title":"169- معنى ( وَيْكَأَنَّ - ويل - يا )- شرح الإتقان في علوم القرآن","publishedAt":"2023-11-08T06:30:18Z","duration":"PT32M19S","thumbnail":"https://i.ytimg.com/vi/dXUjcbNiL7g/mqdefault.jpg","viewCount":"977","playlistId":"PLEkQk5xrP-tlPw10KGJKagu7zm4Ry2Tge","playlistName":"شرح الإتقان في علوم القرآن","category":"تفسير"},{"id":"nIR65ixxlWs","title":"168- حرف ( الواو ) - شرح الإتقان في علوم القرآن","publishedAt":"2023-11-06T06:15:02Z","duration":"PT44M32S","thumbnail":"https://i.ytimg.com/vi/nIR65ixxlWs/mqdefault.jpg","viewCount":"847","playlistId":"PLEkQk5xrP-tlPw10KGJKagu7zm4Ry2Tge","playlistName":"شرح الإتقان في علوم القرآن","category":"تفسير"},{"id":"H_Tb4BU05_0","title":"167- معنى (الهاء - ها - هات - هل - هلُمَّ - هنا - هيت - هيهات)  - شرح الإتقان في علوم القرآن","publishedAt":"2023-11-02T06:15:00Z","duration":"PT30M17S","thumbnail":"https://i.ytimg.com/vi/H_Tb4BU05_0/mqdefault.jpg","viewCount":"622","playlistId":"PLEkQk5xrP-tlPw10KGJKagu7zm4Ry2Tge","playlistName":"شرح الإتقان في علوم القرآن","category":"تفسير"},{"id":"HMoZBgZOBXw","title":"293- العلوم المستنبطة من القرآن (3) - شرح الإتقان في علوم القرآن","publishedAt":"2025-07-19T05:00:15Z","duration":"PT12M18S","thumbnail":"https://i.ytimg.com/vi/HMoZBgZOBXw/mqdefault.jpg","viewCount":"380","playlistId":"PLEkQk5xrP-tlPw10KGJKagu7zm4Ry2Tge","playlistName":"شرح الإتقان في علوم القرآن","category":"تفسير"},{"id":"Zx5av_tDfEs","title":"292- العلوم المستنبطة من القرآن (2) - شرح الإتقان في علوم القرآن","publishedAt":"2025-07-17T09:03:32Z","duration":"PT24M48S","thumbnail":"https://i.ytimg.com/vi/Zx5av_tDfEs/mqdefault.jpg","viewCount":"317","playlistId":"PLEkQk5xrP-tlPw10KGJKagu7zm4Ry2Tge","playlistName":"شرح الإتقان في علوم القرآن","category":"تفسير"},{"id":"1slwWuJWIz0","title":"181- قاعدةٌ: الأَصلُ عَوْدُ الضميرِ على أَقْرَبِ مذْكور - شرح الإتقان في علوم القرآن","publishedAt":"2023-12-08T06:30:00Z","duration":"PT35M49S","thumbnail":"https://i.ytimg.com/vi/1slwWuJWIz0/mqdefault.jpg","viewCount":"715","playlistId":"PLEkQk5xrP-tlPw10KGJKagu7zm4Ry2Tge","playlistName":"شرح الإتقان في علوم القرآن","category":"تفسير"},{"id":"OrL0dju6xj0","title":"247- دخول الأحرف الزائدة - النوع الثاني من أنواع الإطناب بالزيادة - شرح الإتقان في علوم القرآن","publishedAt":"2024-07-17T08:00:16Z","duration":"PT21M18S","thumbnail":"https://i.ytimg.com/vi/OrL0dju6xj0/mqdefault.jpg","viewCount":"515","playlistId":"PLEkQk5xrP-tlPw10KGJKagu7zm4Ry2Tge","playlistName":"شرح الإتقان في علوم القرآن","category":"تفسير"},{"id":"uvE7EGaw6rY","title":"246- الإطناب - شرح الإتقان في علوم القرآن","publishedAt":"2024-07-13T05:18:04Z","duration":"PT28M18S","thumbnail":"https://i.ytimg.com/vi/uvE7EGaw6rY/mqdefault.jpg","viewCount":"607","playlistId":"PLEkQk5xrP-tlPw10KGJKagu7zm4Ry2Tge","playlistName":"شرح الإتقان في علوم القرآن","category":"تفسير"},{"id":"sN87pZYp0Rg","title":"180- قاعدةٌ في الضمائر - شرح الإتقان في علوم القرآن","publishedAt":"2023-12-07T06:51:37Z","duration":"PT34M44S","thumbnail":"https://i.ytimg.com/vi/sN87pZYp0Rg/mqdefault.jpg","viewCount":"735","playlistId":"PLEkQk5xrP-tlPw10KGJKagu7zm4Ry2Tge","playlistName":"شرح الإتقان في علوم القرآن","category":"تفسير"}],"total":313,"page":5,"pageSize":24,"totalPages":14}