{"items":[{"id":"y8Z-aep8lKw","title":"37- سبب جمع القرآن الكريم وتسميته بالمصحف - شرح الإتقان في علوم القرآن","publishedAt":"2023-03-14T05:00:23Z","duration":"PT38M26S","thumbnail":"https://i.ytimg.com/vi/y8Z-aep8lKw/mqdefault.jpg","viewCount":"1360","playlistId":"PLEkQk5xrP-tlPw10KGJKagu7zm4Ry2Tge","playlistName":"شرح الإتقان في علوم القرآن","category":"تفسير"},{"id":"vpkKDpfer1I","title":"36- أسماء القرآن الكريم وأسماء سوره - شرح الإتقان في علوم القرآن","publishedAt":"2023-03-12T05:00:25Z","duration":"PT29M19S","thumbnail":"https://i.ytimg.com/vi/vpkKDpfer1I/mqdefault.jpg","viewCount":"1254","playlistId":"PLEkQk5xrP-tlPw10KGJKagu7zm4Ry2Tge","playlistName":"شرح الإتقان في علوم القرآن","category":"تفسير"},{"id":"Kx69ypSgZus","title":"35- معنى نزول القرآن على سبعة أحرف (4) ومعرفة الأَوْلى من أقوال العلماء","publishedAt":"2023-03-10T05:00:12Z","duration":"PT17M7S","thumbnail":"https://i.ytimg.com/vi/Kx69ypSgZus/mqdefault.jpg","viewCount":"1241","playlistId":"PLEkQk5xrP-tlPw10KGJKagu7zm4Ry2Tge","playlistName":"شرح الإتقان في علوم القرآن","category":"تفسير"},{"id":"2NGSPb14hNs","title":"34- معنى نزول القرآن على سبعة أحرف (3) الوجه العاشر - شرح الإتقان في علوم القرآن","publishedAt":"2023-03-08T05:30:00Z","duration":"PT27M21S","thumbnail":"https://i.ytimg.com/vi/2NGSPb14hNs/mqdefault.jpg","viewCount":"1329","playlistId":"PLEkQk5xrP-tlPw10KGJKagu7zm4Ry2Tge","playlistName":"شرح الإتقان في علوم القرآن","category":"تفسير"},{"id":"4XC29w0TID0","title":"33- معنى نزول القرآن على سبعة أحرف (2) الوجه الثامن - شرح الإتقان في علوم القرآن","publishedAt":"2023-03-06T05:00:04Z","duration":"PT10M28S","thumbnail":"https://i.ytimg.com/vi/4XC29w0TID0/mqdefault.jpg","viewCount":"1141","playlistId":"PLEkQk5xrP-tlPw10KGJKagu7zm4Ry2Tge","playlistName":"شرح الإتقان في علوم القرآن","category":"تفسير"},{"id":"23yPXZBqlQ4","title":"63- كيفية الوقْفِ على أواخر الكَلِم - شرح الإتقان في علوم القرآن","publishedAt":"2023-05-06T08:59:00Z","duration":"PT25M52S","thumbnail":"https://i.ytimg.com/vi/23yPXZBqlQ4/mqdefault.jpg","viewCount":"787","playlistId":"PLEkQk5xrP-tlPw10KGJKagu7zm4Ry2Tge","playlistName":"شرح الإتقان في علوم القرآن","category":"تفسير"},{"id":"CLCxWABo5Og","title":"62- معرفة الوقف والابتداء (5) ضوابط - شرح الإتقان في علوم القرآن","publishedAt":"2023-05-05T08:59:00Z","duration":"PT35M12S","thumbnail":"https://i.ytimg.com/vi/CLCxWABo5Og/mqdefault.jpg","viewCount":"743","playlistId":"PLEkQk5xrP-tlPw10KGJKagu7zm4Ry2Tge","playlistName":"شرح الإتقان في علوم القرآن","category":"تفسير"},{"id":"XaNzcYZPLNc","title":"61- معرفة الوقف والابتداء (4) - شرح الإتقان في علوم القرآن","publishedAt":"2023-05-04T18:00:19Z","duration":"PT34M58S","thumbnail":"https://i.ytimg.com/vi/XaNzcYZPLNc/mqdefault.jpg","viewCount":"679","playlistId":"PLEkQk5xrP-tlPw10KGJKagu7zm4Ry2Tge","playlistName":"شرح الإتقان في علوم القرآن","category":"تفسير"},{"id":"1IdR2AaCdz4","title":"60- معرفة الوقف والابتداء (3) - شرح الإتقان في علوم القرآن","publishedAt":"2023-05-04T05:00:00Z","duration":"PT28M49S","thumbnail":"https://i.ytimg.com/vi/1IdR2AaCdz4/mqdefault.jpg","viewCount":"744","playlistId":"PLEkQk5xrP-tlPw10KGJKagu7zm4Ry2Tge","playlistName":"شرح الإتقان في علوم القرآن","category":"تفسير"},{"id":"xZKidzZAaes","title":"283- مناسبة الآيات والسور (2) - شرح الإتقان في علوم القرآن","publishedAt":"2025-02-11T06:30:32Z","duration":"PT27M12S","thumbnail":"https://i.ytimg.com/vi/xZKidzZAaes/mqdefault.jpg","viewCount":"626","playlistId":"PLEkQk5xrP-tlPw10KGJKagu7zm4Ry2Tge","playlistName":"شرح الإتقان في علوم القرآن","category":"تفسير"},{"id":"31NnhqK0n8Y","title":"159- معنى (لن) - شرح الإتقان في علوم القرآن","publishedAt":"2023-10-11T05:15:00Z","duration":"PT18M34S","thumbnail":"https://i.ytimg.com/vi/31NnhqK0n8Y/mqdefault.jpg","viewCount":"733","playlistId":"PLEkQk5xrP-tlPw10KGJKagu7zm4Ry2Tge","playlistName":"شرح الإتقان في علوم القرآن","category":"تفسير"},{"id":"B7QG_ZLQu68","title":"158- معاني (لعلَّ - لمْ - لمَّا) - شرح الإتقان في علوم القرآن","publishedAt":"2023-10-08T05:30:20Z","duration":"PT21M11S","thumbnail":"https://i.ytimg.com/vi/B7QG_ZLQu68/mqdefault.jpg","viewCount":"474","playlistId":"PLEkQk5xrP-tlPw10KGJKagu7zm4Ry2Tge","playlistName":"شرح الإتقان في علوم القرآن","category":"تفسير"},{"id":"epmmLKUCLgw","title":"157- معنى (لَكِنَّ - لَكِنْ) - شرح الإتقان في علوم القرآن","publishedAt":"2023-10-05T05:34:56Z","duration":"PT22M40S","thumbnail":"https://i.ytimg.com/vi/epmmLKUCLgw/mqdefault.jpg","viewCount":"718","playlistId":"PLEkQk5xrP-tlPw10KGJKagu7zm4Ry2Tge","playlistName":"شرح الإتقان في علوم القرآن","category":"تفسير"},{"id":"IYVMGg24Hjg","title":"156- معنى (لات - لا جرم) - شرح الإتقان في علوم القرآن","publishedAt":"2023-10-03T05:15:00Z","duration":"PT18M13S","thumbnail":"https://i.ytimg.com/vi/IYVMGg24Hjg/mqdefault.jpg","viewCount":"728","playlistId":"PLEkQk5xrP-tlPw10KGJKagu7zm4Ry2Tge","playlistName":"شرح الإتقان في علوم القرآن","category":"تفسير"},{"id":"i9RblRDEzu8","title":"155- معاني (لا) - شرح الإتقان في علوم القرآن","publishedAt":"2023-10-01T05:15:01Z","duration":"PT35M32S","thumbnail":"https://i.ytimg.com/vi/i9RblRDEzu8/mqdefault.jpg","viewCount":"726","playlistId":"PLEkQk5xrP-tlPw10KGJKagu7zm4Ry2Tge","playlistName":"شرح الإتقان في علوم القرآن","category":"تفسير"},{"id":"9XRJA72ZwN4","title":"154- أنواع اللام واستخداماتها - شرح الإتقان في علوم القرآن","publishedAt":"2023-09-29T05:15:00Z","duration":"PT41M1S","thumbnail":"https://i.ytimg.com/vi/9XRJA72ZwN4/mqdefault.jpg","viewCount":"845","playlistId":"PLEkQk5xrP-tlPw10KGJKagu7zm4Ry2Tge","playlistName":"شرح الإتقان في علوم القرآن","category":"تفسير"},{"id":"-YmrWz1SxGM","title":"153- معاني (كم - كي - كيف) - شرح الإتقان في علوم القرآن","publishedAt":"2023-09-26T05:15:00Z","duration":"PT32M6S","thumbnail":"https://i.ytimg.com/vi/-YmrWz1SxGM/mqdefault.jpg","viewCount":"684","playlistId":"PLEkQk5xrP-tlPw10KGJKagu7zm4Ry2Tge","playlistName":"شرح الإتقان في علوم القرآن","category":"تفسير"},{"id":"FjAuoJvNByo","title":"152- معنى (كلَّا) - شرح الإتقان في علوم القرآن","publishedAt":"2023-09-24T05:15:01Z","duration":"PT21M7S","thumbnail":"https://i.ytimg.com/vi/FjAuoJvNByo/mqdefault.jpg","viewCount":"699","playlistId":"PLEkQk5xrP-tlPw10KGJKagu7zm4Ry2Tge","playlistName":"شرح الإتقان في علوم القرآن","category":"تفسير"},{"id":"_rsq1cJ88Jc","title":"166- معنى (النون - التنوين - نَعَمْ - نِعْمَ)  - شرح الإتقان في علوم القرآن","publishedAt":"2023-10-30T06:00:24Z","duration":"PT26M21S","thumbnail":"https://i.ytimg.com/vi/_rsq1cJ88Jc/mqdefault.jpg","viewCount":"839","playlistId":"PLEkQk5xrP-tlPw10KGJKagu7zm4Ry2Tge","playlistName":"شرح الإتقان في علوم القرآن","category":"تفسير"},{"id":"lHjQtTKEF1s","title":"165- معنى (مِن - مَن) - شرح الإتقان في علوم القرآن","publishedAt":"2023-10-29T06:00:27Z","duration":"PT33M37S","thumbnail":"https://i.ytimg.com/vi/lHjQtTKEF1s/mqdefault.jpg","viewCount":"699","playlistId":"PLEkQk5xrP-tlPw10KGJKagu7zm4Ry2Tge","playlistName":"شرح الإتقان في علوم القرآن","category":"تفسير"},{"id":"B4pRCELbeaE","title":"50- معرفة حُفَّاظ القرآن الكريم ورُواته - شرح الإتقان في علوم القرآن","publishedAt":"2023-04-09T05:30:02Z","duration":"PT30M41S","thumbnail":"https://i.ytimg.com/vi/B4pRCELbeaE/mqdefault.jpg","viewCount":"946","playlistId":"PLEkQk5xrP-tlPw10KGJKagu7zm4Ry2Tge","playlistName":"شرح الإتقان في علوم القرآن","category":"تفسير"},{"id":"92mf9-Na3xM","title":"151- معنى (كل) - شرح الإتقان في علوم القرآن","publishedAt":"2023-09-21T05:01:21Z","duration":"PT16M15S","thumbnail":"https://i.ytimg.com/vi/92mf9-Na3xM/mqdefault.jpg","viewCount":"563","playlistId":"PLEkQk5xrP-tlPw10KGJKagu7zm4Ry2Tge","playlistName":"شرح الإتقان في علوم القرآن","category":"تفسير"},{"id":"a0jpFmNRz5A","title":"150- معنى (كان) - شرح الإتقان في علوم القرآن","publishedAt":"2023-09-18T05:00:00Z","duration":"PT26M22S","thumbnail":"https://i.ytimg.com/vi/a0jpFmNRz5A/mqdefault.jpg","viewCount":"922","playlistId":"PLEkQk5xrP-tlPw10KGJKagu7zm4Ry2Tge","playlistName":"شرح الإتقان في علوم القرآن","category":"تفسير"},{"id":"VfxBPxsM44Y","title":"149- معنى (كاد) - شرح الإتقان في علوم القرآن","publishedAt":"2023-09-16T05:15:01Z","duration":"PT11M1S","thumbnail":"https://i.ytimg.com/vi/VfxBPxsM44Y/mqdefault.jpg","viewCount":"661","playlistId":"PLEkQk5xrP-tlPw10KGJKagu7zm4Ry2Tge","playlistName":"شرح الإتقان في علوم القرآن","category":"تفسير"}],"total":313,"page":2,"pageSize":24,"totalPages":14}