{"items":[{"id":"cze9xqHYh0M","title":"229- فائدة التشبيه والمجاز والاستعارة في فهم معاني القرآن الكريم - شرح الإتقان في علوم القرآن","publishedAt":"2024-04-26T06:16:35Z","duration":"PT21M47S","thumbnail":"https://i.ytimg.com/vi/cze9xqHYh0M/mqdefault.jpg","viewCount":"953","playlistId":"PLEkQk5xrP-tlPw10KGJKagu7zm4Ry2Tge","playlistName":"شرح الإتقان في علوم القرآن","category":"تفسير"},{"id":"Oh8exxIPKbM","title":"228- أقسام الاستعارة: أصلية ، تبعية - شرح الإتقان في علوم القرآن","publishedAt":"2024-04-25T06:15:01Z","duration":"PT32M57S","thumbnail":"https://i.ytimg.com/vi/Oh8exxIPKbM/mqdefault.jpg","viewCount":"699","playlistId":"PLEkQk5xrP-tlPw10KGJKagu7zm4Ry2Tge","playlistName":"شرح الإتقان في علوم القرآن","category":"تفسير"},{"id":"iY9CX6tOdKo","title":"227- الاستعارة - شرح الإتقان في علوم القرآن","publishedAt":"2024-04-23T05:30:15Z","duration":"PT24M18S","thumbnail":"https://i.ytimg.com/vi/iY9CX6tOdKo/mqdefault.jpg","viewCount":"701","playlistId":"PLEkQk5xrP-tlPw10KGJKagu7zm4Ry2Tge","playlistName":"شرح الإتقان في علوم القرآن","category":"تفسير"},{"id":"5AkYqF-K-Zg","title":"226- النوع الثالث: تشبيه ما تقع عليه الحاسة بما لا تقع  - شرح الإتقان في علوم القرآن","publishedAt":"2024-04-20T07:00:30Z","duration":"PT22M47S","thumbnail":"https://i.ytimg.com/vi/5AkYqF-K-Zg/mqdefault.jpg","viewCount":"923","playlistId":"PLEkQk5xrP-tlPw10KGJKagu7zm4Ry2Tge","playlistName":"شرح الإتقان في علوم القرآن","category":"تفسير"},{"id":"uFSVDcBjgcY","title":"225- التشبيه - شرح الإتقان في علوم القرآن","publishedAt":"2024-04-18T06:00:23Z","duration":"PT26M26S","thumbnail":"https://i.ytimg.com/vi/uFSVDcBjgcY/mqdefault.jpg","viewCount":"846","playlistId":"PLEkQk5xrP-tlPw10KGJKagu7zm4Ry2Tge","playlistName":"شرح الإتقان في علوم القرآن","category":"تفسير"},{"id":"35UQI5PuvPU","title":"224- فصلٌ في أنواع مختلف في عدها من المجاز - شرح الإتقان في علوم القرآن","publishedAt":"2024-04-15T06:00:01Z","duration":"PT25M17S","thumbnail":"https://i.ytimg.com/vi/35UQI5PuvPU/mqdefault.jpg","viewCount":"660","playlistId":"PLEkQk5xrP-tlPw10KGJKagu7zm4Ry2Tge","playlistName":"شرح الإتقان في علوم القرآن","category":"تفسير"},{"id":"W8rGnmlFFOE","title":"223- من أنواع المجاز: وضع النداء موضع التعجب - شرح الإتقان في علوم القرآن","publishedAt":"2024-04-12T06:00:20Z","duration":"PT33M21S","thumbnail":"https://i.ytimg.com/vi/W8rGnmlFFOE/mqdefault.jpg","viewCount":"712","playlistId":"PLEkQk5xrP-tlPw10KGJKagu7zm4Ry2Tge","playlistName":"شرح الإتقان في علوم القرآن","category":"تفسير"},{"id":"ks2A4_Z5BlA","title":"222- من أنواع المجاز: إطلاق المُسَبَّب على السبب - شرح الإتقان في علوم القرآن","publishedAt":"2024-03-29T07:00:09Z","duration":"PT41M9S","thumbnail":"https://i.ytimg.com/vi/ks2A4_Z5BlA/mqdefault.jpg","viewCount":"709","playlistId":"PLEkQk5xrP-tlPw10KGJKagu7zm4Ry2Tge","playlistName":"شرح الإتقان في علوم القرآن","category":"تفسير"},{"id":"oGkAYCzftGk","title":"221- الحقيقة والمجاز في القرآن - شرح الإتقان في علوم القرآن","publishedAt":"2024-03-26T07:15:02Z","duration":"PT50M1S","thumbnail":"https://i.ytimg.com/vi/oGkAYCzftGk/mqdefault.jpg","viewCount":"912","playlistId":"PLEkQk5xrP-tlPw10KGJKagu7zm4Ry2Tge","playlistName":"شرح الإتقان في علوم القرآن","category":"تفسير"},{"id":"KRL0noSHBH8","title":"220- فائدة: خطاب القرآن ثلاثة أقسام - شرح الإتقان في علوم القرآن","publishedAt":"2024-03-24T06:30:05Z","duration":"PT16M1S","thumbnail":"https://i.ytimg.com/vi/KRL0noSHBH8/mqdefault.jpg","viewCount":"494","playlistId":"PLEkQk5xrP-tlPw10KGJKagu7zm4Ry2Tge","playlistName":"شرح الإتقان في علوم القرآن","category":"تفسير"},{"id":"Dc9s7RD89iU","title":"219- أنواع الخطاب في القرآن - شرح الإتقان في علوم القرآن","publishedAt":"2024-03-21T07:00:05Z","duration":"PT32M30S","thumbnail":"https://i.ytimg.com/vi/Dc9s7RD89iU/mqdefault.jpg","viewCount":"612","playlistId":"PLEkQk5xrP-tlPw10KGJKagu7zm4Ry2Tge","playlistName":"شرح الإتقان في علوم القرآن","category":"تفسير"},{"id":"ABR3jd9fEQE","title":"218- المنطوق والمفهوم - شرح الإتقان في علوم القرآن","publishedAt":"2024-03-19T06:30:04Z","duration":"PT41M19S","thumbnail":"https://i.ytimg.com/vi/ABR3jd9fEQE/mqdefault.jpg","viewCount":"658","playlistId":"PLEkQk5xrP-tlPw10KGJKagu7zm4Ry2Tge","playlistName":"شرح الإتقان في علوم القرآن","category":"تفسير"},{"id":"oUyJKnzF294","title":"217- المطلق والمقيد - شرح الإتقان في علوم القرآن","publishedAt":"2024-03-14T06:30:23Z","duration":"PT27M32S","thumbnail":"https://i.ytimg.com/vi/oUyJKnzF294/mqdefault.jpg","viewCount":"940","playlistId":"PLEkQk5xrP-tlPw10KGJKagu7zm4Ry2Tge","playlistName":"شرح الإتقان في علوم القرآن","category":"تفسير"},{"id":"Y7bCRw9vHUU","title":"273- صيغة المبالغة - شرح الإتقان في علوم القرآن","publishedAt":"2024-12-09T06:15:01Z","duration":"PT38M13S","thumbnail":"https://i.ytimg.com/vi/Y7bCRw9vHUU/mqdefault.jpg","viewCount":"455","playlistId":"PLEkQk5xrP-tlPw10KGJKagu7zm4Ry2Tge","playlistName":"شرح الإتقان في علوم القرآن","category":"تفسير"},{"id":"3pXJmMJVRd4","title":"272- الفرائد - شرح الإتقان في علوم القرآن","publishedAt":"2024-12-05T07:14:00Z","duration":"PT37M9S","thumbnail":"https://i.ytimg.com/vi/3pXJmMJVRd4/mqdefault.jpg","viewCount":"650","playlistId":"PLEkQk5xrP-tlPw10KGJKagu7zm4Ry2Tge","playlistName":"شرح الإتقان في علوم القرآن","category":"تفسير"},{"id":"MAmVVyrZ_j0","title":"271- أسلوب الجمع - شرح الإتقان في علوم القرآن","publishedAt":"2024-11-30T05:00:22Z","duration":"PT20M33S","thumbnail":"https://i.ytimg.com/vi/MAmVVyrZ_j0/mqdefault.jpg","viewCount":"493","playlistId":"PLEkQk5xrP-tlPw10KGJKagu7zm4Ry2Tge","playlistName":"شرح الإتقان في علوم القرآن","category":"تفسير"},{"id":"PVZvC44C79w","title":"279- فواصل الآي (5) التصدير - شرح الإتقان في علوم القرآن","publishedAt":"2025-01-08T06:30:10Z","duration":"PT35M31S","thumbnail":"https://i.ytimg.com/vi/PVZvC44C79w/mqdefault.jpg","viewCount":"495","playlistId":"PLEkQk5xrP-tlPw10KGJKagu7zm4Ry2Tge","playlistName":"شرح الإتقان في علوم القرآن","category":"تفسير"},{"id":"S2cZG3nMz6A","title":"278- فواصل الآي (4) التمكين - شرح الإتقان في علوم القرآن","publishedAt":"2025-01-05T07:15:01Z","duration":"PT40M1S","thumbnail":"https://i.ytimg.com/vi/S2cZG3nMz6A/mqdefault.jpg","viewCount":"538","playlistId":"PLEkQk5xrP-tlPw10KGJKagu7zm4Ry2Tge","playlistName":"شرح الإتقان في علوم القرآن","category":"تفسير"},{"id":"DH7SxBQEhXA","title":"216-فصلٌ في أسباب الاختلاف - شرح الإتقان في علوم القرآن","publishedAt":"2024-03-07T06:30:04Z","duration":"PT32M35S","thumbnail":"https://i.ytimg.com/vi/DH7SxBQEhXA/mqdefault.jpg","viewCount":"722","playlistId":"PLEkQk5xrP-tlPw10KGJKagu7zm4Ry2Tge","playlistName":"شرح الإتقان في علوم القرآن","category":"تفسير"},{"id":"xwCptz17uow","title":"107- الألفاظ الواردة في القرآن التي لها معاني في لغات أخرى - شرح الإتقان في علوم القرآن","publishedAt":"2023-06-21T05:01:00Z","duration":"PT24M46S","thumbnail":"https://i.ytimg.com/vi/xwCptz17uow/mqdefault.jpg","viewCount":"849","playlistId":"PLEkQk5xrP-tlPw10KGJKagu7zm4Ry2Tge","playlistName":"شرح الإتقان في علوم القرآن","category":"تفسير"},{"id":"Q9yHbRYhFZY","title":"105- ما وقع في القرآن بغير لغة الحجاز (4) - شرح الإتقان في علوم القرآن","publishedAt":"2023-06-19T05:00:12Z","duration":"PT18M57S","thumbnail":"https://i.ytimg.com/vi/Q9yHbRYhFZY/mqdefault.jpg","viewCount":"411","playlistId":"PLEkQk5xrP-tlPw10KGJKagu7zm4Ry2Tge","playlistName":"شرح الإتقان في علوم القرآن","category":"تفسير"},{"id":"NNV4Cy__CAs","title":"104- ما وقع في القرآن بغير لغة الحجاز (3) - شرح الإتقان في علوم القرآن","publishedAt":"2023-06-17T05:00:11Z","duration":"PT12M35S","thumbnail":"https://i.ytimg.com/vi/NNV4Cy__CAs/mqdefault.jpg","viewCount":"544","playlistId":"PLEkQk5xrP-tlPw10KGJKagu7zm4Ry2Tge","playlistName":"شرح الإتقان في علوم القرآن","category":"تفسير"},{"id":"HLXj7JxhWys","title":"103- ما وقع في القرآن بغير لغة الحجاز (2) - شرح الإتقان في علوم القرآن","publishedAt":"2023-06-16T05:00:08Z","duration":"PT18M37S","thumbnail":"https://i.ytimg.com/vi/HLXj7JxhWys/mqdefault.jpg","viewCount":"572","playlistId":"PLEkQk5xrP-tlPw10KGJKagu7zm4Ry2Tge","playlistName":"شرح الإتقان في علوم القرآن","category":"تفسير"},{"id":"AmT6_OBYXbc","title":"102- ما وقع في القرآن بغير لغة الحجاز - شرح الإتقان في علوم القرآن","publishedAt":"2023-06-15T05:01:00Z","duration":"PT12M23S","thumbnail":"https://i.ytimg.com/vi/AmT6_OBYXbc/mqdefault.jpg","viewCount":"890","playlistId":"PLEkQk5xrP-tlPw10KGJKagu7zm4Ry2Tge","playlistName":"شرح الإتقان في علوم القرآن","category":"تفسير"}],"total":313,"page":3,"pageSize":24,"totalPages":14}