{"items":[{"id":"xwCptz17uow","title":"107- الألفاظ الواردة في القرآن التي لها معاني في لغات أخرى - شرح الإتقان في علوم القرآن","publishedAt":"2023-06-21T05:01:00Z","duration":"PT24M46S","thumbnail":"https://i.ytimg.com/vi/xwCptz17uow/mqdefault.jpg","viewCount":"849","playlistId":"PLEkQk5xrP-tlPw10KGJKagu7zm4Ry2Tge","playlistName":"شرح الإتقان في علوم القرآن","category":"تفسير"},{"id":"Q9yHbRYhFZY","title":"105- ما وقع في القرآن بغير لغة الحجاز (4) - شرح الإتقان في علوم القرآن","publishedAt":"2023-06-19T05:00:12Z","duration":"PT18M57S","thumbnail":"https://i.ytimg.com/vi/Q9yHbRYhFZY/mqdefault.jpg","viewCount":"411","playlistId":"PLEkQk5xrP-tlPw10KGJKagu7zm4Ry2Tge","playlistName":"شرح الإتقان في علوم القرآن","category":"تفسير"},{"id":"oUyJKnzF294","title":"217- المطلق والمقيد - شرح الإتقان في علوم القرآن","publishedAt":"2024-03-14T06:30:23Z","duration":"PT27M32S","thumbnail":"https://i.ytimg.com/vi/oUyJKnzF294/mqdefault.jpg","viewCount":"940","playlistId":"PLEkQk5xrP-tlPw10KGJKagu7zm4Ry2Tge","playlistName":"شرح الإتقان في علوم القرآن","category":"تفسير"},{"id":"XrFDwHQrOyY","title":"302- أسماء البلاد والأمكنة - شرح الإتقان في علوم القرآن","publishedAt":"2025-09-29T09:00:48Z","duration":"PT25M5S","thumbnail":"https://i.ytimg.com/vi/XrFDwHQrOyY/mqdefault.jpg","viewCount":"413","playlistId":"PLEkQk5xrP-tlPw10KGJKagu7zm4Ry2Tge","playlistName":"شرح الإتقان في علوم القرآن","category":"تفسير"},{"id":"A-9ehOH0Byc","title":"194- قاعدةٌ في العطف - شرح الإتقان في علوم القرآن","publishedAt":"2024-01-07T06:15:00Z","duration":"PT43M28S","thumbnail":"https://i.ytimg.com/vi/A-9ehOH0Byc/mqdefault.jpg","viewCount":"806","playlistId":"PLEkQk5xrP-tlPw10KGJKagu7zm4Ry2Tge","playlistName":"شرح الإتقان في علوم القرآن","category":"تفسير"},{"id":"8EO71CtPbA0","title":"129- معنى (إِنَّ - أَنَّ) - شرح الإتقان في علوم القرآن","publishedAt":"2023-07-22T05:00:05Z","duration":"PT26M16S","thumbnail":"https://i.ytimg.com/vi/8EO71CtPbA0/mqdefault.jpg","viewCount":"398","playlistId":"PLEkQk5xrP-tlPw10KGJKagu7zm4Ry2Tge","playlistName":"شرح الإتقان في علوم القرآن","category":"تفسير"},{"id":"ZyuEAdpyK1w","title":"128- معنى (أن) - شرح الإتقان في علوم القرآن","publishedAt":"2023-07-19T05:00:14Z","duration":"PT25M57S","thumbnail":"https://i.ytimg.com/vi/ZyuEAdpyK1w/mqdefault.jpg","viewCount":"420","playlistId":"PLEkQk5xrP-tlPw10KGJKagu7zm4Ry2Tge","playlistName":"شرح الإتقان في علوم القرآن","category":"تفسير"},{"id":"Tufqtp93G-8","title":"127- معنى (إن) - شرح الإتقان في علوم القرآن","publishedAt":"2023-07-18T05:00:23Z","duration":"PT42M15S","thumbnail":"https://i.ytimg.com/vi/Tufqtp93G-8/mqdefault.jpg","viewCount":"377","playlistId":"PLEkQk5xrP-tlPw10KGJKagu7zm4Ry2Tge","playlistName":"شرح الإتقان في علوم القرآن","category":"تفسير"},{"id":"qqkG3WVbaZk","title":"126- معنى (أمَّا - إِمَّا) - شرح الإتقان في علوم القرآن","publishedAt":"2023-07-16T05:05:00Z","duration":"PT13M17S","thumbnail":"https://i.ytimg.com/vi/qqkG3WVbaZk/mqdefault.jpg","viewCount":"719","playlistId":"PLEkQk5xrP-tlPw10KGJKagu7zm4Ry2Tge","playlistName":"شرح الإتقان في علوم القرآن","category":"تفسير"},{"id":"6OjApf3WAts","title":"125- معنى (أم) - شرح الإتقان في علوم القرآن","publishedAt":"2023-07-14T05:00:03Z","duration":"PT16M6S","thumbnail":"https://i.ytimg.com/vi/6OjApf3WAts/mqdefault.jpg","viewCount":"585","playlistId":"PLEkQk5xrP-tlPw10KGJKagu7zm4Ry2Tge","playlistName":"شرح الإتقان في علوم القرآن","category":"تفسير"},{"id":"IsfhZyoEFFk","title":"124- معنى كلمة (اللَّهُمَّ) - شرح الإتقان في علوم القرآن","publishedAt":"2023-07-11T05:00:13Z","duration":"PT16M38S","thumbnail":"https://i.ytimg.com/vi/IsfhZyoEFFk/mqdefault.jpg","viewCount":"1751","playlistId":"PLEkQk5xrP-tlPw10KGJKagu7zm4Ry2Tge","playlistName":"شرح الإتقان في علوم القرآن","category":"تفسير"},{"id":"LN-oTK651-4","title":"123- معنى كلمة (الآن) - شرح الإتقان في علوم القرآن","publishedAt":"2023-07-10T05:00:14Z","duration":"PT12M42S","thumbnail":"https://i.ytimg.com/vi/LN-oTK651-4/mqdefault.jpg","viewCount":"569","playlistId":"PLEkQk5xrP-tlPw10KGJKagu7zm4Ry2Tge","playlistName":"شرح الإتقان في علوم القرآن","category":"تفسير"},{"id":"caYS7eQgjvA","title":"122- معاني الحروف (أَلا - أَلَّا - إِلَّا) والفرق بينهما - شرح الإتقان في علوم القرآن","publishedAt":"2023-07-09T05:00:17Z","duration":"PT30M15S","thumbnail":"https://i.ytimg.com/vi/caYS7eQgjvA/mqdefault.jpg","viewCount":"978","playlistId":"PLEkQk5xrP-tlPw10KGJKagu7zm4Ry2Tge","playlistName":"شرح الإتقان في علوم القرآن","category":"تفسير"},{"id":"cin6bt2OMNQ","title":"121- معنى كلمة (أُفّ) - شرح الإتقان في علوم القرآن","publishedAt":"2023-07-08T05:00:19Z","duration":"PT28M56S","thumbnail":"https://i.ytimg.com/vi/cin6bt2OMNQ/mqdefault.jpg","viewCount":"562","playlistId":"PLEkQk5xrP-tlPw10KGJKagu7zm4Ry2Tge","playlistName":"شرح الإتقان في علوم القرآن","category":"تفسير"},{"id":"9HMwL0vHrN0","title":"120- معاني كلمة (إذًا) وإعراب ما بعدها - شرح الإتقان في علوم القرآن","publishedAt":"2023-07-07T05:00:08Z","duration":"PT18M15S","thumbnail":"https://i.ytimg.com/vi/9HMwL0vHrN0/mqdefault.jpg","viewCount":"467","playlistId":"PLEkQk5xrP-tlPw10KGJKagu7zm4Ry2Tge","playlistName":"شرح الإتقان في علوم القرآن","category":"تفسير"},{"id":"wk_hxATBtAI","title":"119- تكملة ما جاء في معاني كلمة (إذا) تنبيهات - شرح الإتقان في علوم القرآن","publishedAt":"2023-07-06T05:00:20Z","duration":"PT22M5S","thumbnail":"https://i.ytimg.com/vi/wk_hxATBtAI/mqdefault.jpg","viewCount":"677","playlistId":"PLEkQk5xrP-tlPw10KGJKagu7zm4Ry2Tge","playlistName":"شرح الإتقان في علوم القرآن","category":"تفسير"},{"id":"skubg8N53vs","title":"118- معاني كلمة (إذا) - شرح الإتقان في علوم القرآن","publishedAt":"2023-07-05T05:00:31Z","duration":"PT15M48S","thumbnail":"https://i.ytimg.com/vi/skubg8N53vs/mqdefault.jpg","viewCount":"518","playlistId":"PLEkQk5xrP-tlPw10KGJKagu7zm4Ry2Tge","playlistName":"شرح الإتقان في علوم القرآن","category":"تفسير"},{"id":"Jufj905UDFo","title":"117- معاني كلمة (إذ) - شرح الإتقان في علوم القرآن","publishedAt":"2023-07-04T05:00:06Z","duration":"PT32M5S","thumbnail":"https://i.ytimg.com/vi/Jufj905UDFo/mqdefault.jpg","viewCount":"658","playlistId":"PLEkQk5xrP-tlPw10KGJKagu7zm4Ry2Tge","playlistName":"شرح الإتقان في علوم القرآن","category":"تفسير"},{"id":"t1nhj-ZYq9k","title":"116- ما معنى الأحد؟ وما الفرق بين الواحد والأحد؟ - شرح الإتقان في علوم القرآن","publishedAt":"2023-07-03T05:00:31Z","duration":"PT10M48S","thumbnail":"https://i.ytimg.com/vi/t1nhj-ZYq9k/mqdefault.jpg","viewCount":"1580","playlistId":"PLEkQk5xrP-tlPw10KGJKagu7zm4Ry2Tge","playlistName":"شرح الإتقان في علوم القرآن","category":"تفسير"},{"id":"c5uKQKw3RY4","title":"115- الأدوات التي يحتاج إليها المُفَسِّر - شرح الإتقان في علوم القرآن","publishedAt":"2023-07-02T05:00:26Z","duration":"PT27M39S","thumbnail":"https://i.ytimg.com/vi/c5uKQKw3RY4/mqdefault.jpg","viewCount":"909","playlistId":"PLEkQk5xrP-tlPw10KGJKagu7zm4Ry2Tge","playlistName":"شرح الإتقان في علوم القرآن","category":"تفسير"},{"id":"xBl5NsRE_RI","title":"114- علم مفردات القرآن(2) - شرح الإتقان في علوم القرآن","publishedAt":"2023-07-01T05:00:29Z","duration":"PT23M23S","thumbnail":"https://i.ytimg.com/vi/xBl5NsRE_RI/mqdefault.jpg","viewCount":"566","playlistId":"PLEkQk5xrP-tlPw10KGJKagu7zm4Ry2Tge","playlistName":"شرح الإتقان في علوم القرآن","category":"تفسير"},{"id":"Px-tWTKBdE8","title":"113- علم مفردات القرآن - شرح الإتقان في علوم القرآن","publishedAt":"2023-06-30T05:00:23Z","duration":"PT30M40S","thumbnail":"https://i.ytimg.com/vi/Px-tWTKBdE8/mqdefault.jpg","viewCount":"726","playlistId":"PLEkQk5xrP-tlPw10KGJKagu7zm4Ry2Tge","playlistName":"شرح الإتقان في علوم القرآن","category":"تفسير"},{"id":"MBsAZw0Vcqs","title":"253- من غرائب التفسير وعجائب التأويل - شرح الإتقان في علوم القرآن","publishedAt":"2024-09-05T08:03:32Z","duration":"PT48M","thumbnail":"https://i.ytimg.com/vi/MBsAZw0Vcqs/mqdefault.jpg","viewCount":"816","playlistId":"PLEkQk5xrP-tlPw10KGJKagu7zm4Ry2Tge","playlistName":"شرح الإتقان في علوم القرآن","category":"تفسير"},{"id":"iugsxL7i3fs","title":"297- جدل القرآن - شرح الإتقان في علوم القرآن","publishedAt":"2025-08-18T09:00:58Z","duration":"PT33M54S","thumbnail":"https://i.ytimg.com/vi/iugsxL7i3fs/mqdefault.jpg","viewCount":"401","playlistId":"PLEkQk5xrP-tlPw10KGJKagu7zm4Ry2Tge","playlistName":"شرح الإتقان في علوم القرآن","category":"تفسير"}],"total":313,"page":6,"pageSize":24,"totalPages":14}