{"items":[{"id":"kGEA566Om8w","title":"291- العلوم المستنبطة من القرآن - شرح الإتقان في علوم القرآن","publishedAt":"2025-04-29T09:01:07Z","duration":"PT16M23S","thumbnail":"https://i.ytimg.com/vi/kGEA566Om8w/mqdefault.jpg","viewCount":"690","playlistId":"PLEkQk5xrP-tlPw10KGJKagu7zm4Ry2Tge","playlistName":"شرح الإتقان في علوم القرآن","category":"تفسير"},{"id":"fEtJ8dGapuk","title":"231- من أنواع البديع التي تشبه الكناية (الإرداف) - شرح الإتقان في علوم القرآن","publishedAt":"2024-05-04T04:45:48Z","duration":"PT23M27S","thumbnail":"https://i.ytimg.com/vi/fEtJ8dGapuk/mqdefault.jpg","viewCount":"587","playlistId":"PLEkQk5xrP-tlPw10KGJKagu7zm4Ry2Tge","playlistName":"شرح الإتقان في علوم القرآن","category":"تفسير"},{"id":"Sq_FszvqP0o","title":"112- معاني كلمة القضاء في القرآن - شرح الإتقان في علوم القرآن","publishedAt":"2023-06-29T05:00:11Z","duration":"PT10M42S","thumbnail":"https://i.ytimg.com/vi/Sq_FszvqP0o/mqdefault.jpg","viewCount":"668","playlistId":"PLEkQk5xrP-tlPw10KGJKagu7zm4Ry2Tge","playlistName":"شرح الإتقان في علوم القرآن","category":"تفسير"},{"id":"jKMuk4GrU-4","title":"111- معاني كلمة الرحمة في القرآن - شرح الإتقان في علوم القرآن","publishedAt":"2023-06-27T05:00:16Z","duration":"PT9M4S","thumbnail":"https://i.ytimg.com/vi/jKMuk4GrU-4/mqdefault.jpg","viewCount":"648","playlistId":"PLEkQk5xrP-tlPw10KGJKagu7zm4Ry2Tge","playlistName":"شرح الإتقان في علوم القرآن","category":"تفسير"},{"id":"IB6vGG0nfhM","title":"110- الوجوه والنظائر - شرح الإتقان في علوم القرآن","publishedAt":"2023-06-26T05:00:07Z","duration":"PT23M25S","thumbnail":"https://i.ytimg.com/vi/IB6vGG0nfhM/mqdefault.jpg","viewCount":"724","playlistId":"PLEkQk5xrP-tlPw10KGJKagu7zm4Ry2Tge","playlistName":"شرح الإتقان في علوم القرآن","category":"تفسير"},{"id":"SwX--YoIkxA","title":"265- أسلوب الالتفات - شرح الإتقان في علوم القرآن","publishedAt":"2024-11-04T06:00:19Z","duration":"PT22M16S","thumbnail":"https://i.ytimg.com/vi/SwX--YoIkxA/mqdefault.jpg","viewCount":"604","playlistId":"PLEkQk5xrP-tlPw10KGJKagu7zm4Ry2Tge","playlistName":"شرح الإتقان في علوم القرآن","category":"تفسير"},{"id":"7vPk0JeXRYA","title":"264- أسلوب الاستخدام - شرح الإتقان في علوم القرآن","publishedAt":"2024-11-02T06:00:06Z","duration":"PT28M13S","thumbnail":"https://i.ytimg.com/vi/7vPk0JeXRYA/mqdefault.jpg","viewCount":"564","playlistId":"PLEkQk5xrP-tlPw10KGJKagu7zm4Ry2Tge","playlistName":"شرح الإتقان في علوم القرآن","category":"تفسير"},{"id":"34c_tXNbH94","title":"185- أسباب التعريف - شرح الإتقان في علوم القرآن","publishedAt":"2023-12-18T06:54:13Z","duration":"PT30M18S","thumbnail":"https://i.ytimg.com/vi/34c_tXNbH94/mqdefault.jpg","viewCount":"795","playlistId":"PLEkQk5xrP-tlPw10KGJKagu7zm4Ry2Tge","playlistName":"شرح الإتقان في علوم القرآن","category":"تفسير"},{"id":"fm1KYGYVOkE","title":"184- التعريف والتنكير - شرح الإتقان في علوم القرآن","publishedAt":"2023-12-16T06:15:01Z","duration":"PT33M16S","thumbnail":"https://i.ytimg.com/vi/fm1KYGYVOkE/mqdefault.jpg","viewCount":"514","playlistId":"PLEkQk5xrP-tlPw10KGJKagu7zm4Ry2Tge","playlistName":"شرح الإتقان في علوم القرآن","category":"تفسير"},{"id":"9z-B5RQtl_E","title":"183- التذكير والتأنيث - شرح الإتقان في علوم القرآن","publishedAt":"2023-12-14T06:30:01Z","duration":"PT12M40S","thumbnail":"https://i.ytimg.com/vi/9z-B5RQtl_E/mqdefault.jpg","viewCount":"604","playlistId":"PLEkQk5xrP-tlPw10KGJKagu7zm4Ry2Tge","playlistName":"شرح الإتقان في علوم القرآن","category":"تفسير"},{"id":"VBuNqyuuMpc","title":"182- ضمير الشأن والقصة - شرح الإتقان في علوم القرآن","publishedAt":"2023-12-12T06:49:05Z","duration":"PT28M6S","thumbnail":"https://i.ytimg.com/vi/VBuNqyuuMpc/mqdefault.jpg","viewCount":"731","playlistId":"PLEkQk5xrP-tlPw10KGJKagu7zm4Ry2Tge","playlistName":"شرح الإتقان في علوم القرآن","category":"تفسير"},{"id":"3XVpYO5zOxA","title":"109- الألفاظ الواردة في القرآن التي لها معاني في لغات أخرى - حرف القاف - شرح الإتقان في علوم القرآن","publishedAt":"2023-06-25T08:59:00Z","duration":"PT35M7S","thumbnail":"https://i.ytimg.com/vi/3XVpYO5zOxA/mqdefault.jpg","viewCount":"533","playlistId":"PLEkQk5xrP-tlPw10KGJKagu7zm4Ry2Tge","playlistName":"شرح الإتقان في علوم القرآن","category":"تفسير"},{"id":"cZDlINX1jK8","title":"108- الألفاظ الواردة في القرآن التي لها معاني في لغات أخرى - حرف الراء - شرح الإتقان في علوم القرآن","publishedAt":"2023-06-25T05:00:25Z","duration":"PT39M9S","thumbnail":"https://i.ytimg.com/vi/cZDlINX1jK8/mqdefault.jpg","viewCount":"781","playlistId":"PLEkQk5xrP-tlPw10KGJKagu7zm4Ry2Tge","playlistName":"شرح الإتقان في علوم القرآن","category":"تفسير"},{"id":"FKebcgEeWfs","title":"263- بدائع القرآن - شرح الإتقان في علوم القرآن","publishedAt":"2024-10-31T06:00:06Z","duration":"PT37M39S","thumbnail":"https://i.ytimg.com/vi/FKebcgEeWfs/mqdefault.jpg","viewCount":"682","playlistId":"PLEkQk5xrP-tlPw10KGJKagu7zm4Ry2Tge","playlistName":"شرح الإتقان في علوم القرآن","category":"تفسير"},{"id":"NU9Z4qDmSYc","title":"262- التَّمَنِّي - شرح الإتقان في علوم القرآن","publishedAt":"2024-10-29T06:00:21Z","duration":"PT22M1S","thumbnail":"https://i.ytimg.com/vi/NU9Z4qDmSYc/mqdefault.jpg","viewCount":"545","playlistId":"PLEkQk5xrP-tlPw10KGJKagu7zm4Ry2Tge","playlistName":"شرح الإتقان في علوم القرآن","category":"تفسير"},{"id":"7JBGPJZWYkc","title":"261- الأمر - شرح الإتقان في علوم القرآن","publishedAt":"2024-10-27T06:00:04Z","duration":"PT18M47S","thumbnail":"https://i.ytimg.com/vi/7JBGPJZWYkc/mqdefault.jpg","viewCount":"450","playlistId":"PLEkQk5xrP-tlPw10KGJKagu7zm4Ry2Tge","playlistName":"شرح الإتقان في علوم القرآن","category":"تفسير"},{"id":"D26faSFPW9s","title":"89- غريب القرآن(4)- ما جاء في سورة سبأ - شرح الإتقان في علوم القرآن","publishedAt":"2023-06-02T05:00:10Z","duration":"PT31M3S","thumbnail":"https://i.ytimg.com/vi/D26faSFPW9s/mqdefault.jpg","viewCount":"630","playlistId":"PLEkQk5xrP-tlPw10KGJKagu7zm4Ry2Tge","playlistName":"شرح الإتقان في علوم القرآن","category":"تفسير"},{"id":"CG8E5sjgl1E","title":"88- غريب القرآن(3) - ما جاء في سورة إبراهيم عليه السلام - شرح الإتقان في علوم","publishedAt":"2023-06-01T05:00:04Z","duration":"PT37M45S","thumbnail":"https://i.ytimg.com/vi/CG8E5sjgl1E/mqdefault.jpg","viewCount":"955","playlistId":"PLEkQk5xrP-tlPw10KGJKagu7zm4Ry2Tge","playlistName":"شرح الإتقان في علوم القرآن","category":"تفسير"},{"id":"-SfhdEmr1Hw","title":"87- غريب القرآن (2) - ما جاء في سورة النساء وما بعدها - شرح الإتقان في علوم القرآن","publishedAt":"2023-05-31T05:00:00Z","duration":"PT28M29S","thumbnail":"https://i.ytimg.com/vi/-SfhdEmr1Hw/mqdefault.jpg","viewCount":"767","playlistId":"PLEkQk5xrP-tlPw10KGJKagu7zm4Ry2Tge","playlistName":"شرح الإتقان في علوم القرآن","category":"تفسير"},{"id":"_c2jNOXMRN8","title":"86- غريب القرآن - شرح الإتقان في علوم القرآن","publishedAt":"2023-05-30T08:59:00Z","duration":"PT17M59S","thumbnail":"https://i.ytimg.com/vi/_c2jNOXMRN8/mqdefault.jpg","viewCount":"730","playlistId":"PLEkQk5xrP-tlPw10KGJKagu7zm4Ry2Tge","playlistName":"شرح الإتقان في علوم القرآن","category":"تفسير"},{"id":"Y7bCRw9vHUU","title":"273- صيغة المبالغة - شرح الإتقان في علوم القرآن","publishedAt":"2024-12-09T06:15:01Z","duration":"PT38M13S","thumbnail":"https://i.ytimg.com/vi/Y7bCRw9vHUU/mqdefault.jpg","viewCount":"455","playlistId":"PLEkQk5xrP-tlPw10KGJKagu7zm4Ry2Tge","playlistName":"شرح الإتقان في علوم القرآن","category":"تفسير"},{"id":"3pXJmMJVRd4","title":"272- الفرائد - شرح الإتقان في علوم القرآن","publishedAt":"2024-12-05T07:14:00Z","duration":"PT37M9S","thumbnail":"https://i.ytimg.com/vi/3pXJmMJVRd4/mqdefault.jpg","viewCount":"650","playlistId":"PLEkQk5xrP-tlPw10KGJKagu7zm4Ry2Tge","playlistName":"شرح الإتقان في علوم القرآن","category":"تفسير"},{"id":"HIOn5GxoLoc","title":"20- النَّوْعُ التاسع: معرفة سبب النزول - شرح الإتقان في علوم القرآن","publishedAt":"2023-02-08T05:00:11Z","duration":"PT30M23S","thumbnail":"https://i.ytimg.com/vi/HIOn5GxoLoc/mqdefault.jpg","viewCount":"1441","playlistId":"PLEkQk5xrP-tlPw10KGJKagu7zm4Ry2Tge","playlistName":"شرح الإتقان في علوم القرآن","category":"تفسير"},{"id":"8SunTfxgvPM","title":"19- النَّوْعُ الثامن: معرفة آخر ما نزل من القرآن - شرح الإتقان في علوم القرآن","publishedAt":"2023-02-07T05:00:06Z","duration":"PT27M23S","thumbnail":"https://i.ytimg.com/vi/8SunTfxgvPM/mqdefault.jpg","viewCount":"1115","playlistId":"PLEkQk5xrP-tlPw10KGJKagu7zm4Ry2Tge","playlistName":"شرح الإتقان في علوم القرآن","category":"تفسير"}],"total":313,"page":11,"pageSize":24,"totalPages":14}