{"items":[{"id":"clC8pIt4cSE","title":"534- حذف المفضول إذا دلَّ عليه دليل - شرح البرهان في علوم القرآن","publishedAt":"2022-06-29T05:15:02Z","duration":"PT23M59S","thumbnail":"https://i.ytimg.com/vi/clC8pIt4cSE/mqdefault.jpg","viewCount":"744","playlistId":"PLEkQk5xrP-tnW3iBL7HkKziOFCFZbTlf0","playlistName":"شرح البرهان في علوم القرآن - أ.د. يسري جبر","category":"تفسير"},{"id":"MeLga30kFd4","title":"535- ما يحتاج إليه المُفسِّر - شرح البرهان في علوم القرآن","publishedAt":"2022-07-01T05:00:07Z","duration":"PT30M22S","thumbnail":"https://i.ytimg.com/vi/MeLga30kFd4/mqdefault.jpg","viewCount":"721","playlistId":"PLEkQk5xrP-tnW3iBL7HkKziOFCFZbTlf0","playlistName":"شرح البرهان في علوم القرآن - أ.د. يسري جبر","category":"تفسير"},{"id":"-o145U3wbKA","title":"536- حروف المعاني: حرف الهمزة - شرح البرهان في علوم القرآن","publishedAt":"2022-07-05T05:31:00Z","duration":"PT13M19S","thumbnail":"https://i.ytimg.com/vi/-o145U3wbKA/mqdefault.jpg","viewCount":"675","playlistId":"PLEkQk5xrP-tnW3iBL7HkKziOFCFZbTlf0","playlistName":"شرح البرهان في علوم القرآن - أ.د. يسري جبر","category":"تفسير"},{"id":"auvGX_O8JlE","title":"537- حروف المعاني: حرف العطف (أم) - شرح البرهان في علوم القرآن","publishedAt":"2022-07-07T06:00:01Z","duration":"PT33M52S","thumbnail":"https://i.ytimg.com/vi/auvGX_O8JlE/mqdefault.jpg","viewCount":"576","playlistId":"PLEkQk5xrP-tnW3iBL7HkKziOFCFZbTlf0","playlistName":"شرح البرهان في علوم القرآن - أ.د. يسري جبر","category":"تفسير"},{"id":"8LXhPrnkS5Q","title":"538- حروف المعاني: ضرورة تقدُّم الاستفهام على حرف العطف (أم) - شرح البرهان في علوم القرآن","publishedAt":"2022-07-10T05:00:01Z","duration":"PT12M29S","thumbnail":"https://i.ytimg.com/vi/8LXhPrnkS5Q/mqdefault.jpg","viewCount":"514","playlistId":"PLEkQk5xrP-tnW3iBL7HkKziOFCFZbTlf0","playlistName":"شرح البرهان في علوم القرآن - أ.د. يسري جبر","category":"تفسير"},{"id":"wk61jD-2RY8","title":"539- حروف المعاني: حرف الجواب(إذًا) - شرح البرهان في علوم القرآن","publishedAt":"2022-07-13T05:00:20Z","duration":"PT28M10S","thumbnail":"https://i.ytimg.com/vi/wk61jD-2RY8/mqdefault.jpg","viewCount":"653","playlistId":"PLEkQk5xrP-tnW3iBL7HkKziOFCFZbTlf0","playlistName":"شرح البرهان في علوم القرآن - أ.د. يسري جبر","category":"تفسير"},{"id":"rFTULbT-u3I","title":"540- حروف المعاني: حرف إذا - شرح البرهان في علوم القرآن","publishedAt":"2022-07-24T05:15:02Z","duration":"PT14M11S","thumbnail":"https://i.ytimg.com/vi/rFTULbT-u3I/mqdefault.jpg","viewCount":"441","playlistId":"PLEkQk5xrP-tnW3iBL7HkKziOFCFZbTlf0","playlistName":"شرح البرهان في علوم القرآن - أ.د. يسري جبر","category":"تفسير"},{"id":"IPjS22uiDXQ","title":"541- حروف المعاني: حرف إذا (2) - شرح البرهان في علوم القرآن","publishedAt":"2022-07-27T05:30:03Z","duration":"PT29M51S","thumbnail":"https://i.ytimg.com/vi/IPjS22uiDXQ/mqdefault.jpg","viewCount":"552","playlistId":"PLEkQk5xrP-tnW3iBL7HkKziOFCFZbTlf0","playlistName":"شرح البرهان في علوم القرآن - أ.د. يسري جبر","category":"تفسير"},{"id":"pQyG_yJA16o","title":"542- حروف المعاني: حرف إذا (3) فائدة - شرح البرهان في علوم القرآن","publishedAt":"2022-07-30T05:16:01Z","duration":"PT30M22S","thumbnail":"https://i.ytimg.com/vi/pQyG_yJA16o/mqdefault.jpg","viewCount":"509","playlistId":"PLEkQk5xrP-tnW3iBL7HkKziOFCFZbTlf0","playlistName":"شرح البرهان في علوم القرآن - أ.د. يسري جبر","category":"تفسير"},{"id":"K8sDg7MqF1Y","title":"543- (إذا) ظرفٌ لِما يُستقبل من الزمان - شرح البرهان في علوم القرآن","publishedAt":"2022-08-02T05:15:00Z","duration":"PT18M32S","thumbnail":"https://i.ytimg.com/vi/K8sDg7MqF1Y/mqdefault.jpg","viewCount":"553","playlistId":"PLEkQk5xrP-tnW3iBL7HkKziOFCFZbTlf0","playlistName":"شرح البرهان في علوم القرآن - أ.د. يسري جبر","category":"تفسير"},{"id":"sxbs47oMkWg","title":"544- الفرق بين (إذا) و (إن) - شرح البرهان في علوم القرآن","publishedAt":"2022-08-05T05:15:01Z","duration":"PT28M32S","thumbnail":"https://i.ytimg.com/vi/sxbs47oMkWg/mqdefault.jpg","viewCount":"523","playlistId":"PLEkQk5xrP-tnW3iBL7HkKziOFCFZbTlf0","playlistName":"شرح البرهان في علوم القرآن - أ.د. يسري جبر","category":"تفسير"},{"id":"bWF_qbBtnxs","title":"545- أوجه الاختلاف بين (إذا) و (إن) - شرح البرهان في علوم القرآن","publishedAt":"2022-08-09T06:00:18Z","duration":"PT18M55S","thumbnail":"https://i.ytimg.com/vi/bWF_qbBtnxs/mqdefault.jpg","viewCount":"489","playlistId":"PLEkQk5xrP-tnW3iBL7HkKziOFCFZbTlf0","playlistName":"شرح البرهان في علوم القرآن - أ.د. يسري جبر","category":"تفسير"},{"id":"B0Bv9KObf4U","title":"546- استعمالات (إذا): قد تأتي زائدة - شرح البرهان في علوم القرآن","publishedAt":"2022-08-14T05:30:02Z","duration":"PT22M16S","thumbnail":"https://i.ytimg.com/vi/B0Bv9KObf4U/mqdefault.jpg","viewCount":"438","playlistId":"PLEkQk5xrP-tnW3iBL7HkKziOFCFZbTlf0","playlistName":"شرح البرهان في علوم القرآن - أ.د. يسري جبر","category":"تفسير"},{"id":"yEtaYmtIxZM","title":"547- معنى حرف (إذ) - شرح البرهان في علوم القرآن","publishedAt":"2022-08-16T05:35:00Z","duration":"PT18M58S","thumbnail":"https://i.ytimg.com/vi/yEtaYmtIxZM/mqdefault.jpg","viewCount":"615","playlistId":"PLEkQk5xrP-tnW3iBL7HkKziOFCFZbTlf0","playlistName":"شرح البرهان في علوم القرآن - أ.د. يسري جبر","category":"تفسير"},{"id":"X-eFVykmiHM","title":"548- حرف العطف (أو) - شرح البرهان في علوم القرآن","publishedAt":"2022-08-19T05:30:10Z","duration":"PT24M4S","thumbnail":"https://i.ytimg.com/vi/X-eFVykmiHM/mqdefault.jpg","viewCount":"471","playlistId":"PLEkQk5xrP-tnW3iBL7HkKziOFCFZbTlf0","playlistName":"شرح البرهان في علوم القرآن - أ.د. يسري جبر","category":"تفسير"},{"id":"daDa1kza1Hw","title":"549- حرف العطف (أو) (2)- شرح البرهان في علوم القرآن","publishedAt":"2022-08-22T21:17:00Z","duration":"PT18M45S","thumbnail":"https://i.ytimg.com/vi/daDa1kza1Hw/mqdefault.jpg","viewCount":"444","playlistId":"PLEkQk5xrP-tnW3iBL7HkKziOFCFZbTlf0","playlistName":"شرح البرهان في علوم القرآن - أ.د. يسري جبر","category":"تفسير"},{"id":"gCEVL-BiWqI","title":"550- حروف المعاني(11) حرف (إن) - شرح البرهان في علوم القرآن","publishedAt":"2022-08-25T06:15:03Z","duration":"PT29M7S","thumbnail":"https://i.ytimg.com/vi/gCEVL-BiWqI/mqdefault.jpg","viewCount":"610","playlistId":"PLEkQk5xrP-tnW3iBL7HkKziOFCFZbTlf0","playlistName":"شرح البرهان في علوم القرآن - أ.د. يسري جبر","category":"تفسير"},{"id":"-960iickIkk","title":"551- حروف المعاني(12) حرف (إن) المُخَفَّفَة من الثقيلة - شرح البرهان في علوم القرآن","publishedAt":"2022-08-28T05:45:00Z","duration":"PT32M14S","thumbnail":"https://i.ytimg.com/vi/-960iickIkk/mqdefault.jpg","viewCount":"557","playlistId":"PLEkQk5xrP-tnW3iBL7HkKziOFCFZbTlf0","playlistName":"شرح البرهان في علوم القرآن - أ.د. يسري جبر","category":"تفسير"},{"id":"9AAqLlITJwA","title":"552- حروف المعاني(13): حرف(أن) - شرح البرهان في علوم القرآن","publishedAt":"2022-08-29T20:40:02Z","duration":"PT15M1S","thumbnail":"https://i.ytimg.com/vi/9AAqLlITJwA/mqdefault.jpg","viewCount":"522","playlistId":"PLEkQk5xrP-tnW3iBL7HkKziOFCFZbTlf0","playlistName":"شرح البرهان في علوم القرآن - أ.د. يسري جبر","category":"تفسير"},{"id":"hkPKs8bT_dM","title":"553- حروف المعاني(14):  حرف(أن) قد يأتي بمعنى(أي)","publishedAt":"2022-08-31T05:45:00Z","duration":"PT29M51S","thumbnail":"https://i.ytimg.com/vi/hkPKs8bT_dM/mqdefault.jpg","viewCount":"545","playlistId":"PLEkQk5xrP-tnW3iBL7HkKziOFCFZbTlf0","playlistName":"شرح البرهان في علوم القرآن - أ.د. يسري جبر","category":"تفسير"},{"id":"CehsctTYBZc","title":"554- حروف المعاني(15): حرف(إِنَّ) - شرح البرهان في علوم القرآن","publishedAt":"2022-08-31T18:15:00Z","duration":"PT29M18S","thumbnail":"https://i.ytimg.com/vi/CehsctTYBZc/mqdefault.jpg","viewCount":"715","playlistId":"PLEkQk5xrP-tnW3iBL7HkKziOFCFZbTlf0","playlistName":"شرح البرهان في علوم القرآن - أ.د. يسري جبر","category":"تفسير"},{"id":"W5aUbcbYxsQ","title":"555- حروف المعاني(16): حرف (إلى) - شرح البرهان في علوم القرآن","publishedAt":"2022-09-02T06:00:09Z","duration":"PT37M54S","thumbnail":"https://i.ytimg.com/vi/W5aUbcbYxsQ/mqdefault.jpg","viewCount":"513","playlistId":"PLEkQk5xrP-tnW3iBL7HkKziOFCFZbTlf0","playlistName":"شرح البرهان في علوم القرآن - أ.د. يسري جبر","category":"تفسير"},{"id":"U-zhrfCB-BQ","title":"556- حروف المعاني(17): (أَلا) و (أَلَّا) - شرح البرهان في علوم القرآن","publishedAt":"2022-09-03T20:10:00Z","duration":"PT14M51S","thumbnail":"https://i.ytimg.com/vi/U-zhrfCB-BQ/mqdefault.jpg","viewCount":"460","playlistId":"PLEkQk5xrP-tnW3iBL7HkKziOFCFZbTlf0","playlistName":"شرح البرهان في علوم القرآن - أ.د. يسري جبر","category":"تفسير"},{"id":"hulo0ht1OSY","title":"557- حروف المعاني(18): حرف (إِلَّا) - شرح البرهان في علوم القرآن","publishedAt":"2022-09-05T06:00:10Z","duration":"PT31M53S","thumbnail":"https://i.ytimg.com/vi/hulo0ht1OSY/mqdefault.jpg","viewCount":"722","playlistId":"PLEkQk5xrP-tnW3iBL7HkKziOFCFZbTlf0","playlistName":"شرح البرهان في علوم القرآن - أ.د. يسري جبر","category":"تفسير"}],"total":631,"page":23,"pageSize":24,"totalPages":27}