{"items":[{"id":"5p-YsdLbAHs","title":"شرح سنن الدارمي - المقدمة - ٤٠","publishedAt":"2019-03-25T21:47:30Z","duration":"PT52M36S","thumbnail":"https://i.ytimg.com/vi/5p-YsdLbAHs/mqdefault.jpg","viewCount":"543","playlistId":"PLEkQk5xrP-tmAg-FuWjY057X_h5NmGmAa","playlistName":"شرح سنن الدارمي - أ.د. يسري جبر (كاملا)","category":"متنوع"},{"id":"aUoBTBL7dqc","title":"شرح سنن الدارمي - المقدمة - ٤٣","publishedAt":"2019-03-26T21:53:48Z","duration":"PT37M19S","thumbnail":"https://i.ytimg.com/vi/aUoBTBL7dqc/mqdefault.jpg","viewCount":"469","playlistId":"PLEkQk5xrP-tmAg-FuWjY057X_h5NmGmAa","playlistName":"شرح سنن الدارمي - أ.د. يسري جبر (كاملا)","category":"متنوع"},{"id":"C2uwRPxpMCE","title":"شرح سنن الدارمي - المقدمة - ٤٤","publishedAt":"2019-03-27T22:38:54Z","duration":"PT40M58S","thumbnail":"https://i.ytimg.com/vi/C2uwRPxpMCE/mqdefault.jpg","viewCount":"530","playlistId":"PLEkQk5xrP-tmAg-FuWjY057X_h5NmGmAa","playlistName":"شرح سنن الدارمي - أ.د. يسري جبر (كاملا)","category":"متنوع"},{"id":"y-hWgtYoeHs","title":"شرح سنن الدارمي - المقدمة - ٤٦","publishedAt":"2019-03-28T20:59:52Z","duration":"PT41M49S","thumbnail":"https://i.ytimg.com/vi/y-hWgtYoeHs/mqdefault.jpg","viewCount":"518","playlistId":"PLEkQk5xrP-tmAg-FuWjY057X_h5NmGmAa","playlistName":"شرح سنن الدارمي - أ.د. يسري جبر (كاملا)","category":"متنوع"},{"id":"5-zldDhkndM","title":"شرح سنن الدارمي - المقدمة - ٤٨","publishedAt":"2019-03-30T21:47:12Z","duration":"PT31M11S","thumbnail":"https://i.ytimg.com/vi/5-zldDhkndM/mqdefault.jpg","viewCount":"486","playlistId":"PLEkQk5xrP-tmAg-FuWjY057X_h5NmGmAa","playlistName":"شرح سنن الدارمي - أ.د. يسري جبر (كاملا)","category":"متنوع"},{"id":"JSplhX7tcBY","title":"شرح سنن الدارمي - المقدمة - ٥١","publishedAt":"2019-03-31T21:18:03Z","duration":"PT36M59S","thumbnail":"https://i.ytimg.com/vi/JSplhX7tcBY/mqdefault.jpg","viewCount":"452","playlistId":"PLEkQk5xrP-tmAg-FuWjY057X_h5NmGmAa","playlistName":"شرح سنن الدارمي - أ.د. يسري جبر (كاملا)","category":"متنوع"},{"id":"OfXxB5rfRvE","title":"شرح سنن الدارمي - المقدمة - ٥٤","publishedAt":"2019-04-01T22:13:16Z","duration":"PT36M46S","thumbnail":"https://i.ytimg.com/vi/OfXxB5rfRvE/mqdefault.jpg","viewCount":"430","playlistId":"PLEkQk5xrP-tmAg-FuWjY057X_h5NmGmAa","playlistName":"شرح سنن الدارمي - أ.د. يسري جبر (كاملا)","category":"متنوع"},{"id":"t6i_6MBVjns","title":"شرح سنن الدارمي - المقدمة - ٥٧","publishedAt":"2019-04-02T21:11:35Z","duration":"PT40M24S","thumbnail":"https://i.ytimg.com/vi/t6i_6MBVjns/mqdefault.jpg","viewCount":"463","playlistId":"PLEkQk5xrP-tmAg-FuWjY057X_h5NmGmAa","playlistName":"شرح سنن الدارمي - أ.د. يسري جبر (كاملا)","category":"متنوع"},{"id":"mDuMLmNmn7k","title":"شرح سنن الدارمي كتاب الطهارة من أوله","publishedAt":"2019-04-03T20:05:13Z","duration":"PT32M52S","thumbnail":"https://i.ytimg.com/vi/mDuMLmNmn7k/mqdefault.jpg","viewCount":"640","playlistId":"PLEkQk5xrP-tmAg-FuWjY057X_h5NmGmAa","playlistName":"شرح سنن الدارمي - أ.د. يسري جبر (كاملا)","category":"متنوع"},{"id":"RSApp1SuGNs","title":"شرح سنن الدارمي كتاب الطهارة من باب ٢","publishedAt":"2019-04-04T22:18:52Z","duration":"PT34M20S","thumbnail":"https://i.ytimg.com/vi/RSApp1SuGNs/mqdefault.jpg","viewCount":"491","playlistId":"PLEkQk5xrP-tmAg-FuWjY057X_h5NmGmAa","playlistName":"شرح سنن الدارمي - أ.د. يسري جبر (كاملا)","category":"متنوع"},{"id":"guShUAoFI3c","title":"شرح سنن الدارمي كتاب الطهارة من باب ٤","publishedAt":"2019-04-05T20:51:14Z","duration":"PT37M10S","thumbnail":"https://i.ytimg.com/vi/guShUAoFI3c/mqdefault.jpg","viewCount":"487","playlistId":"PLEkQk5xrP-tmAg-FuWjY057X_h5NmGmAa","playlistName":"شرح سنن الدارمي - أ.د. يسري جبر (كاملا)","category":"متنوع"},{"id":"-NbfXLUsRMk","title":"شرح سنن الدارمي كتاب الطهارة من باب ١٨","publishedAt":"2019-04-06T20:52:54Z","duration":"PT35M26S","thumbnail":"https://i.ytimg.com/vi/-NbfXLUsRMk/mqdefault.jpg","viewCount":"485","playlistId":"PLEkQk5xrP-tmAg-FuWjY057X_h5NmGmAa","playlistName":"شرح سنن الدارمي - أ.د. يسري جبر (كاملا)","category":"متنوع"},{"id":"CN4MDBMQRf4","title":"شرح سنن الدارمي كتاب الطهارة من باب ٣١","publishedAt":"2019-04-07T21:34:47Z","duration":"PT36M12S","thumbnail":"https://i.ytimg.com/vi/CN4MDBMQRf4/mqdefault.jpg","viewCount":"412","playlistId":"PLEkQk5xrP-tmAg-FuWjY057X_h5NmGmAa","playlistName":"شرح سنن الدارمي - أ.د. يسري جبر (كاملا)","category":"متنوع"},{"id":"uGfqu0_BVh4","title":"شرح سنن الدارمي كتاب الطهارة من باب ٤٤","publishedAt":"2019-04-08T20:21:58Z","duration":"PT35M33S","thumbnail":"https://i.ytimg.com/vi/uGfqu0_BVh4/mqdefault.jpg","viewCount":"467","playlistId":"PLEkQk5xrP-tmAg-FuWjY057X_h5NmGmAa","playlistName":"شرح سنن الدارمي - أ.د. يسري جبر (كاملا)","category":"متنوع"},{"id":"1Y_Kw939HK0","title":"شرح سنن الدارمي كتاب الطهارة من باب ٥٤","publishedAt":"2019-04-09T21:55:15Z","duration":"PT33M46S","thumbnail":"https://i.ytimg.com/vi/1Y_Kw939HK0/mqdefault.jpg","viewCount":"445","playlistId":"PLEkQk5xrP-tmAg-FuWjY057X_h5NmGmAa","playlistName":"شرح سنن الدارمي - أ.د. يسري جبر (كاملا)","category":"متنوع"},{"id":"sNF8V8SgKVk","title":"شرح سنن الدارمي كتاب الطهارة من باب ٦٥","publishedAt":"2019-04-10T20:37:29Z","duration":"PT45M31S","thumbnail":"https://i.ytimg.com/vi/sNF8V8SgKVk/mqdefault.jpg","viewCount":"377","playlistId":"PLEkQk5xrP-tmAg-FuWjY057X_h5NmGmAa","playlistName":"شرح سنن الدارمي - أ.د. يسري جبر (كاملا)","category":"متنوع"},{"id":"_RsiiTIbJ8M","title":"شرح سنن الدارمي كتاب الطهارة من باب ٧٩","publishedAt":"2019-04-11T22:13:23Z","duration":"PT47M19S","thumbnail":"https://i.ytimg.com/vi/_RsiiTIbJ8M/mqdefault.jpg","viewCount":"407","playlistId":"PLEkQk5xrP-tmAg-FuWjY057X_h5NmGmAa","playlistName":"شرح سنن الدارمي - أ.د. يسري جبر (كاملا)","category":"متنوع"},{"id":"Da2b1UHv_n4","title":"شرح سنن الدارمي كتاب الطهارة من باب ٨٥","publishedAt":"2019-04-13T03:56:40Z","duration":"PT33M36S","thumbnail":"https://i.ytimg.com/vi/Da2b1UHv_n4/mqdefault.jpg","viewCount":"350","playlistId":"PLEkQk5xrP-tmAg-FuWjY057X_h5NmGmAa","playlistName":"شرح سنن الدارمي - أ.د. يسري جبر (كاملا)","category":"متنوع"},{"id":"yc6HXLFE3AQ","title":"شرح سنن الدارمي كتاب الطهارة من باب ٩٢","publishedAt":"2019-04-13T23:52:18Z","duration":"PT35M25S","thumbnail":"https://i.ytimg.com/vi/yc6HXLFE3AQ/mqdefault.jpg","viewCount":"364","playlistId":"PLEkQk5xrP-tmAg-FuWjY057X_h5NmGmAa","playlistName":"شرح سنن الدارمي - أ.د. يسري جبر (كاملا)","category":"متنوع"},{"id":"5ol62jLK984","title":"شرح سنن الدارمي كتاب الطهارة من باب ٩٥","publishedAt":"2019-04-14T22:30:24Z","duration":"PT41M45S","thumbnail":"https://i.ytimg.com/vi/5ol62jLK984/mqdefault.jpg","viewCount":"373","playlistId":"PLEkQk5xrP-tmAg-FuWjY057X_h5NmGmAa","playlistName":"شرح سنن الدارمي - أ.د. يسري جبر (كاملا)","category":"متنوع"},{"id":"hJb0bTUJIbI","title":"شرح سنن الدارمي كتاب الطهارة من باب ٩٧","publishedAt":"2019-04-15T22:15:56Z","duration":"PT40M16S","thumbnail":"https://i.ytimg.com/vi/hJb0bTUJIbI/mqdefault.jpg","viewCount":"371","playlistId":"PLEkQk5xrP-tmAg-FuWjY057X_h5NmGmAa","playlistName":"شرح سنن الدارمي - أ.د. يسري جبر (كاملا)","category":"متنوع"},{"id":"OQGgCevvwao","title":"شرح سنن الدارمي كتاب الطهارة من باب ٩٨","publishedAt":"2019-04-17T09:24:37Z","duration":"PT35M22S","thumbnail":"https://i.ytimg.com/vi/OQGgCevvwao/mqdefault.jpg","viewCount":"375","playlistId":"PLEkQk5xrP-tmAg-FuWjY057X_h5NmGmAa","playlistName":"شرح سنن الدارمي - أ.د. يسري جبر (كاملا)","category":"متنوع"},{"id":"rNNsflSrUfQ","title":"شرح سنن الدارمي كتاب الطهارة من باب ٩٩","publishedAt":"2019-04-18T11:42:03Z","duration":"PT27M10S","thumbnail":"https://i.ytimg.com/vi/rNNsflSrUfQ/mqdefault.jpg","viewCount":"312","playlistId":"PLEkQk5xrP-tmAg-FuWjY057X_h5NmGmAa","playlistName":"شرح سنن الدارمي - أ.د. يسري جبر (كاملا)","category":"متنوع"},{"id":"phHduOxJyd0","title":"شرح سنن الدارمي كتاب الطهارة من باب ١٠٣","publishedAt":"2019-04-19T09:55:42Z","duration":"PT38M50S","thumbnail":"https://i.ytimg.com/vi/phHduOxJyd0/mqdefault.jpg","viewCount":"366","playlistId":"PLEkQk5xrP-tmAg-FuWjY057X_h5NmGmAa","playlistName":"شرح سنن الدارمي - أ.د. يسري جبر (كاملا)","category":"متنوع"}],"total":213,"page":2,"pageSize":24,"totalPages":9}