{"items":[{"id":"Zssc6IS69n0","title":"شرح سنن الدارمي كتاب الصوم من باب ١٨","publishedAt":"2019-06-16T00:04:47Z","duration":"PT22M47S","thumbnail":"https://i.ytimg.com/vi/Zssc6IS69n0/mqdefault.jpg","viewCount":"312","playlistId":"PLEkQk5xrP-tmAg-FuWjY057X_h5NmGmAa","playlistName":"شرح سنن الدارمي - أ.د. يسري جبر (كاملا)","category":"متنوع"},{"id":"988NJsRVRgk","title":"شرح سنن الدارمي كتاب الصوم من باب ٢٤","publishedAt":"2019-06-16T23:38:45Z","duration":"PT21M42S","thumbnail":"https://i.ytimg.com/vi/988NJsRVRgk/mqdefault.jpg","viewCount":"341","playlistId":"PLEkQk5xrP-tmAg-FuWjY057X_h5NmGmAa","playlistName":"شرح سنن الدارمي - أ.د. يسري جبر (كاملا)","category":"متنوع"},{"id":"ctQeeLxiqa8","title":"شرح سنن الدارمي كتاب الصوم من باب ٣٣","publishedAt":"2019-06-18T01:42:44Z","duration":"PT21M57S","thumbnail":"https://i.ytimg.com/vi/ctQeeLxiqa8/mqdefault.jpg","viewCount":"348","playlistId":"PLEkQk5xrP-tmAg-FuWjY057X_h5NmGmAa","playlistName":"شرح سنن الدارمي - أ.د. يسري جبر (كاملا)","category":"متنوع"},{"id":"2OuovZrHx7Q","title":"شرح سنن الدارمي كتاب الصوم من باب ٤٥","publishedAt":"2019-06-19T21:29:58Z","duration":"PT29M23S","thumbnail":"https://i.ytimg.com/vi/2OuovZrHx7Q/mqdefault.jpg","viewCount":"357","playlistId":"PLEkQk5xrP-tmAg-FuWjY057X_h5NmGmAa","playlistName":"شرح سنن الدارمي - أ.د. يسري جبر (كاملا)","category":"متنوع"},{"id":"tT9CP4eSCMs","title":"شرح سنن الدارمي كتاب المناسك من أوله","publishedAt":"2019-06-20T22:54:32Z","duration":"PT10M29S","thumbnail":"https://i.ytimg.com/vi/tT9CP4eSCMs/mqdefault.jpg","viewCount":"441","playlistId":"PLEkQk5xrP-tmAg-FuWjY057X_h5NmGmAa","playlistName":"شرح سنن الدارمي - أ.د. يسري جبر (كاملا)","category":"متنوع"},{"id":"pGjXHEDhSY8","title":"شرح سنن الدارمي كتاب المناسك من باب ٥","publishedAt":"2019-06-30T20:13:51Z","duration":"PT24M40S","thumbnail":"https://i.ytimg.com/vi/pGjXHEDhSY8/mqdefault.jpg","viewCount":"330","playlistId":"PLEkQk5xrP-tmAg-FuWjY057X_h5NmGmAa","playlistName":"شرح سنن الدارمي - أ.د. يسري جبر (كاملا)","category":"متنوع"},{"id":"31Z8AFpwIEs","title":"شرح سنن الدارمي كتاب المناسك من باب ١٠","publishedAt":"2019-07-01T22:49:14Z","duration":"PT28M1S","thumbnail":"https://i.ytimg.com/vi/31Z8AFpwIEs/mqdefault.jpg","viewCount":"303","playlistId":"PLEkQk5xrP-tmAg-FuWjY057X_h5NmGmAa","playlistName":"شرح سنن الدارمي - أ.د. يسري جبر (كاملا)","category":"متنوع"},{"id":"rhdAhbVORQI","title":"شرح سنن الدارمي كتاب المناسك من باب ١٦","publishedAt":"2019-07-02T21:20:01Z","duration":"PT27M36S","thumbnail":"https://i.ytimg.com/vi/rhdAhbVORQI/mqdefault.jpg","viewCount":"341","playlistId":"PLEkQk5xrP-tmAg-FuWjY057X_h5NmGmAa","playlistName":"شرح سنن الدارمي - أ.د. يسري جبر (كاملا)","category":"متنوع"},{"id":"_G2tuhOxE2I","title":"شرح سنن الدارمي كتاب المناسك من باب ٢٢","publishedAt":"2019-07-03T21:56:40Z","duration":"PT25M20S","thumbnail":"https://i.ytimg.com/vi/_G2tuhOxE2I/mqdefault.jpg","viewCount":"282","playlistId":"PLEkQk5xrP-tmAg-FuWjY057X_h5NmGmAa","playlistName":"شرح سنن الدارمي - أ.د. يسري جبر (كاملا)","category":"متنوع"},{"id":"vrvplf6AoDI","title":"شرح سنن الدارمي كتاب المناسك من باب ٢٧","publishedAt":"2019-07-04T20:46:06Z","duration":"PT25M","thumbnail":"https://i.ytimg.com/vi/vrvplf6AoDI/mqdefault.jpg","viewCount":"350","playlistId":"PLEkQk5xrP-tmAg-FuWjY057X_h5NmGmAa","playlistName":"شرح سنن الدارمي - أ.د. يسري جبر (كاملا)","category":"متنوع"},{"id":"F09NMTzaOOc","title":"شرح سنن الدارمي كتاب المناسك من باب ٣٤","publishedAt":"2019-07-07T19:38:36Z","duration":"PT37M38S","thumbnail":"https://i.ytimg.com/vi/F09NMTzaOOc/mqdefault.jpg","viewCount":"374","playlistId":"PLEkQk5xrP-tmAg-FuWjY057X_h5NmGmAa","playlistName":"شرح سنن الدارمي - أ.د. يسري جبر (كاملا)","category":"متنوع"},{"id":"3al2VlgIOvU","title":"شرح سنن الدارمي كتاب المناسك من باب ٣٥","publishedAt":"2019-07-08T20:56:10Z","duration":"PT24M29S","thumbnail":"https://i.ytimg.com/vi/3al2VlgIOvU/mqdefault.jpg","viewCount":"284","playlistId":"PLEkQk5xrP-tmAg-FuWjY057X_h5NmGmAa","playlistName":"شرح سنن الدارمي - أ.د. يسري جبر (كاملا)","category":"متنوع"},{"id":"-91GoJh1GS0","title":"شرح سنن الدارمي كتاب المناسك من باب ٤٣","publishedAt":"2019-07-09T18:12:10Z","duration":"PT32M50S","thumbnail":"https://i.ytimg.com/vi/-91GoJh1GS0/mqdefault.jpg","viewCount":"342","playlistId":"PLEkQk5xrP-tmAg-FuWjY057X_h5NmGmAa","playlistName":"شرح سنن الدارمي - أ.د. يسري جبر (كاملا)","category":"متنوع"},{"id":"FvuGnQRqoX0","title":"شرح سنن الدارمي كتاب المناسك من باب ٥٠","publishedAt":"2019-07-11T07:50:01Z","duration":"PT25M30S","thumbnail":"https://i.ytimg.com/vi/FvuGnQRqoX0/mqdefault.jpg","viewCount":"253","playlistId":"PLEkQk5xrP-tmAg-FuWjY057X_h5NmGmAa","playlistName":"شرح سنن الدارمي - أ.د. يسري جبر (كاملا)","category":"متنوع"},{"id":"F_6T-tx5L_A","title":"شرح سنن الدارمي كتاب المناسك من باب ٥٧","publishedAt":"2019-07-12T07:41:32Z","duration":"PT34M8S","thumbnail":"https://i.ytimg.com/vi/F_6T-tx5L_A/mqdefault.jpg","viewCount":"376","playlistId":"PLEkQk5xrP-tmAg-FuWjY057X_h5NmGmAa","playlistName":"شرح سنن الدارمي - أ.د. يسري جبر (كاملا)","category":"متنوع"},{"id":"RaPiUvUaBGQ","title":"شرح سنن الدارمي كتاب المناسك من باب ٦٢","publishedAt":"2019-07-14T22:01:58Z","duration":"PT27M50S","thumbnail":"https://i.ytimg.com/vi/RaPiUvUaBGQ/mqdefault.jpg","viewCount":"271","playlistId":"PLEkQk5xrP-tmAg-FuWjY057X_h5NmGmAa","playlistName":"شرح سنن الدارمي - أ.د. يسري جبر (كاملا)","category":"متنوع"},{"id":"yRFXNIZLZoY","title":"شرح سنن الدارمي كتاب المناسك من باب ٧١","publishedAt":"2019-07-15T21:14:21Z","duration":"PT25M51S","thumbnail":"https://i.ytimg.com/vi/yRFXNIZLZoY/mqdefault.jpg","viewCount":"262","playlistId":"PLEkQk5xrP-tmAg-FuWjY057X_h5NmGmAa","playlistName":"شرح سنن الدارمي - أ.د. يسري جبر (كاملا)","category":"متنوع"},{"id":"IKNv8ameR-c","title":"شرح سنن الدارمي كتاب المناسك من باب ٨١","publishedAt":"2019-07-16T18:49:58Z","duration":"PT29M14S","thumbnail":"https://i.ytimg.com/vi/IKNv8ameR-c/mqdefault.jpg","viewCount":"211","playlistId":"PLEkQk5xrP-tmAg-FuWjY057X_h5NmGmAa","playlistName":"شرح سنن الدارمي - أ.د. يسري جبر (كاملا)","category":"متنوع"},{"id":"RNcdBqpXmUU","title":"شرح سنن الدارمي كتاب الأضاحي من أوله","publishedAt":"2019-07-18T07:58:41Z","duration":"PT33M43S","thumbnail":"https://i.ytimg.com/vi/RNcdBqpXmUU/mqdefault.jpg","viewCount":"301","playlistId":"PLEkQk5xrP-tmAg-FuWjY057X_h5NmGmAa","playlistName":"شرح سنن الدارمي - أ.د. يسري جبر (كاملا)","category":"متنوع"},{"id":"Wxn8nvIXm6I","title":"شرح سنن الدارمي كتاب الأضاحي من باب ٨","publishedAt":"2019-07-18T17:43:22Z","duration":"PT23M28S","thumbnail":"https://i.ytimg.com/vi/Wxn8nvIXm6I/mqdefault.jpg","viewCount":"403","playlistId":"PLEkQk5xrP-tmAg-FuWjY057X_h5NmGmAa","playlistName":"شرح سنن الدارمي - أ.د. يسري جبر (كاملا)","category":"متنوع"},{"id":"0w5gqtXvYCY","title":"شرح سنن الدارمي كتاب الأضاحي من باب ١٠","publishedAt":"2019-07-21T16:00:42Z","duration":"PT30M11S","thumbnail":"https://i.ytimg.com/vi/0w5gqtXvYCY/mqdefault.jpg","viewCount":"326","playlistId":"PLEkQk5xrP-tmAg-FuWjY057X_h5NmGmAa","playlistName":"شرح سنن الدارمي - أ.د. يسري جبر (كاملا)","category":"متنوع"},{"id":"0ILP5gFk1gI","title":"شرح سنن الدارمي كتاب الأضاحي من باب ١٩","publishedAt":"2019-07-22T20:56:28Z","duration":"PT34M3S","thumbnail":"https://i.ytimg.com/vi/0ILP5gFk1gI/mqdefault.jpg","viewCount":"319","playlistId":"PLEkQk5xrP-tmAg-FuWjY057X_h5NmGmAa","playlistName":"شرح سنن الدارمي - أ.د. يسري جبر (كاملا)","category":"متنوع"},{"id":"jSvHRsHN0a0","title":"شرح سنن الدارمي كتاب الصيد من أوله","publishedAt":"2019-07-23T22:15:23Z","duration":"PT30M25S","thumbnail":"https://i.ytimg.com/vi/jSvHRsHN0a0/mqdefault.jpg","viewCount":"371","playlistId":"PLEkQk5xrP-tmAg-FuWjY057X_h5NmGmAa","playlistName":"شرح سنن الدارمي - أ.د. يسري جبر (كاملا)","category":"متنوع"},{"id":"0m1IR4ffrs8","title":"شرح سنن الدارمي كتاب الأطعمة من أوله","publishedAt":"2019-07-24T22:38:27Z","duration":"PT27M22S","thumbnail":"https://i.ytimg.com/vi/0m1IR4ffrs8/mqdefault.jpg","viewCount":"458","playlistId":"PLEkQk5xrP-tmAg-FuWjY057X_h5NmGmAa","playlistName":"شرح سنن الدارمي - أ.د. يسري جبر (كاملا)","category":"متنوع"}],"total":213,"page":5,"pageSize":24,"totalPages":9}