{"items":[{"id":"bNpaZxaqEdg","title":"شرح كتاب الفتن من سنن الترمذي - المجلس الثاني","publishedAt":"2015-12-15T05:57:43Z","duration":"PT34M36S","thumbnail":"https://i.ytimg.com/vi/bNpaZxaqEdg/mqdefault.jpg","viewCount":"263","playlistId":"PLEkQk5xrP-tnu6of679SvxdVx0qSrJzmb","playlistName":"شرح سنن الإمام الترمذي رضى الله عنه د. يسري جبر","category":"متنوع"},{"id":"VlRlM7mdYvU","title":"شرح كتاب الفتن من سنن الترمذي - المجلس الثالث","publishedAt":"2015-12-16T05:59:55Z","duration":"PT33M36S","thumbnail":"https://i.ytimg.com/vi/VlRlM7mdYvU/mqdefault.jpg","viewCount":"286","playlistId":"PLEkQk5xrP-tnu6of679SvxdVx0qSrJzmb","playlistName":"شرح سنن الإمام الترمذي رضى الله عنه د. يسري جبر","category":"متنوع"},{"id":"JGEC1BfaXr4","title":"شرح كتاب الفتن من سنن الترمذي - المجلس الرابع","publishedAt":"2015-12-17T06:04:39Z","duration":"PT36M45S","thumbnail":"https://i.ytimg.com/vi/JGEC1BfaXr4/mqdefault.jpg","viewCount":"304","playlistId":"PLEkQk5xrP-tnu6of679SvxdVx0qSrJzmb","playlistName":"شرح سنن الإمام الترمذي رضى الله عنه د. يسري جبر","category":"متنوع"},{"id":"5JxLw_FWs-Q","title":"شرح كتاب الفتن من سنن الترمذي - المجلس الخامس","publishedAt":"2015-12-18T06:13:38Z","duration":"PT33M31S","thumbnail":"https://i.ytimg.com/vi/5JxLw_FWs-Q/mqdefault.jpg","viewCount":"275","playlistId":"PLEkQk5xrP-tnu6of679SvxdVx0qSrJzmb","playlistName":"شرح سنن الإمام الترمذي رضى الله عنه د. يسري جبر","category":"متنوع"},{"id":"yGu1QiqvE_4","title":"شرح كتاب الفتن من سنن الترمذي - المجلس السادس","publishedAt":"2015-12-19T07:19:53Z","duration":"PT35M44S","thumbnail":"https://i.ytimg.com/vi/yGu1QiqvE_4/mqdefault.jpg","viewCount":"246","playlistId":"PLEkQk5xrP-tnu6of679SvxdVx0qSrJzmb","playlistName":"شرح سنن الإمام الترمذي رضى الله عنه د. يسري جبر","category":"متنوع"},{"id":"I_Ozvo9uV_k","title":"شرح كتاب الفتن من سنن الترمذي - المجلس السابع","publishedAt":"2015-12-20T06:10:03Z","duration":"PT37M11S","thumbnail":"https://i.ytimg.com/vi/I_Ozvo9uV_k/mqdefault.jpg","viewCount":"307","playlistId":"PLEkQk5xrP-tnu6of679SvxdVx0qSrJzmb","playlistName":"شرح سنن الإمام الترمذي رضى الله عنه د. يسري جبر","category":"متنوع"},{"id":"i7tVX8RRJFE","title":"شرح كتاب الفتن من سنن الترمذي - المجلس الثامن","publishedAt":"2015-12-21T05:55:48Z","duration":"PT34M46S","thumbnail":"https://i.ytimg.com/vi/i7tVX8RRJFE/mqdefault.jpg","viewCount":"320","playlistId":"PLEkQk5xrP-tnu6of679SvxdVx0qSrJzmb","playlistName":"شرح سنن الإمام الترمذي رضى الله عنه د. يسري جبر","category":"متنوع"},{"id":"C1ln8BD_E-M","title":"شرح كتاب الفتن من سنن الترمذي - المجلس الحادي عشر","publishedAt":"2015-12-26T05:59:24Z","duration":"PT32M6S","thumbnail":"https://i.ytimg.com/vi/C1ln8BD_E-M/mqdefault.jpg","viewCount":"237","playlistId":"PLEkQk5xrP-tnu6of679SvxdVx0qSrJzmb","playlistName":"شرح سنن الإمام الترمذي رضى الله عنه د. يسري جبر","category":"متنوع"},{"id":"eoXOm7Iaj7E","title":"شرح كتاب الفتن من سنن الترمذي - المجلس العاشر","publishedAt":"2015-12-27T04:38:02Z","duration":"PT36M51S","thumbnail":"https://i.ytimg.com/vi/eoXOm7Iaj7E/mqdefault.jpg","viewCount":"192","playlistId":"PLEkQk5xrP-tnu6of679SvxdVx0qSrJzmb","playlistName":"شرح سنن الإمام الترمذي رضى الله عنه د. يسري جبر","category":"متنوع"},{"id":"xb9N_YNAElo","title":"شرح كتاب الفتن من سنن الترمذي - المجلس الثاني عشر","publishedAt":"2015-12-27T06:10:36Z","duration":"PT41M31S","thumbnail":"https://i.ytimg.com/vi/xb9N_YNAElo/mqdefault.jpg","viewCount":"219","playlistId":"PLEkQk5xrP-tnu6of679SvxdVx0qSrJzmb","playlistName":"شرح سنن الإمام الترمذي رضى الله عنه د. يسري جبر","category":"متنوع"},{"id":"y2q6_UK_8_Q","title":"شرح كتاب الفتن من سنن الترمذي - المجلس الثالث عشر","publishedAt":"2015-12-28T06:02:47Z","duration":"PT42M37S","thumbnail":"https://i.ytimg.com/vi/y2q6_UK_8_Q/mqdefault.jpg","viewCount":"194","playlistId":"PLEkQk5xrP-tnu6of679SvxdVx0qSrJzmb","playlistName":"شرح سنن الإمام الترمذي رضى الله عنه د. يسري جبر","category":"متنوع"},{"id":"9Ms6-HYyL1M","title":"شرح كتاب الفتن من سنن الترمذي - المجلس التاسع","publishedAt":"2015-12-29T04:49:27Z","duration":"PT49M24S","thumbnail":"https://i.ytimg.com/vi/9Ms6-HYyL1M/mqdefault.jpg","viewCount":"161","playlistId":"PLEkQk5xrP-tnu6of679SvxdVx0qSrJzmb","playlistName":"شرح سنن الإمام الترمذي رضى الله عنه د. يسري جبر","category":"متنوع"},{"id":"9AUpei8NFic","title":"شرح كتاب الفتن من سنن الترمذي - المجلس الرابع عشر","publishedAt":"2015-12-29T06:20:18Z","duration":"PT54M26S","thumbnail":"https://i.ytimg.com/vi/9AUpei8NFic/mqdefault.jpg","viewCount":"254","playlistId":"PLEkQk5xrP-tnu6of679SvxdVx0qSrJzmb","playlistName":"شرح سنن الإمام الترمذي رضى الله عنه د. يسري جبر","category":"متنوع"},{"id":"3s8I2VPISxs","title":"287-  «رؤيا المؤمن جزء من ستة وأربعين جزءًا من النبوة» - شرح سنن الإمام الترمذي رضي الله تعالى عنه","publishedAt":"2015-12-30T06:28:50Z","duration":"PT48M51S","thumbnail":"https://i.ytimg.com/vi/3s8I2VPISxs/mqdefault.jpg","viewCount":"539","playlistId":"PLEkQk5xrP-tnu6of679SvxdVx0qSrJzmb","playlistName":"شرح سنن الإمام الترمذي رضى الله عنه د. يسري جبر","category":"متنوع"},{"id":"LOP7RFzpJPc","title":"شرح كتاب الرؤيا من سنن الترمذي - المجلس الثاني","publishedAt":"2015-12-31T06:19:23Z","duration":"PT38M41S","thumbnail":"https://i.ytimg.com/vi/LOP7RFzpJPc/mqdefault.jpg","viewCount":"243","playlistId":"PLEkQk5xrP-tnu6of679SvxdVx0qSrJzmb","playlistName":"شرح سنن الإمام الترمذي رضى الله عنه د. يسري جبر","category":"متنوع"},{"id":"1jmooUTHb6Q","title":"شرح كتاب الزهد من سنن الترمذي - المجلس الأول","publishedAt":"2016-01-02T06:18:43Z","duration":"PT36M36S","thumbnail":"https://i.ytimg.com/vi/1jmooUTHb6Q/mqdefault.jpg","viewCount":"390","playlistId":"PLEkQk5xrP-tnu6of679SvxdVx0qSrJzmb","playlistName":"شرح سنن الإمام الترمذي رضى الله عنه د. يسري جبر","category":"متنوع"},{"id":"8cI5GlgzRHk","title":"شرح كتاب الزهد من سنن الترمذي - المجلس الثاني","publishedAt":"2016-01-03T06:08:01Z","duration":"PT31M41S","thumbnail":"https://i.ytimg.com/vi/8cI5GlgzRHk/mqdefault.jpg","viewCount":"200","playlistId":"PLEkQk5xrP-tnu6of679SvxdVx0qSrJzmb","playlistName":"شرح سنن الإمام الترمذي رضى الله عنه د. يسري جبر","category":"متنوع"},{"id":"QX3UPs20D4g","title":"شرح كتاب الزهد من سنن الترمذي - المجلس الثالث","publishedAt":"2016-01-04T20:39:45Z","duration":"PT12M18S","thumbnail":"https://i.ytimg.com/vi/QX3UPs20D4g/mqdefault.jpg","viewCount":"114","playlistId":"PLEkQk5xrP-tnu6of679SvxdVx0qSrJzmb","playlistName":"شرح سنن الإمام الترمذي رضى الله عنه د. يسري جبر","category":"متنوع"},{"id":"viLCUlYrSas","title":"شرح كتاب الزهد من سنن الترمذي - المجلس الرابع","publishedAt":"2016-01-05T06:03:10Z","duration":"PT31M51S","thumbnail":"https://i.ytimg.com/vi/viLCUlYrSas/mqdefault.jpg","viewCount":"186","playlistId":"PLEkQk5xrP-tnu6of679SvxdVx0qSrJzmb","playlistName":"شرح سنن الإمام الترمذي رضى الله عنه د. يسري جبر","category":"متنوع"},{"id":"lHYTWF1Ypk8","title":"شرح كتاب الزهد من سنن الترمذي - المجلس الخامس","publishedAt":"2016-01-06T06:17:06Z","duration":"PT37M59S","thumbnail":"https://i.ytimg.com/vi/lHYTWF1Ypk8/mqdefault.jpg","viewCount":"188","playlistId":"PLEkQk5xrP-tnu6of679SvxdVx0qSrJzmb","playlistName":"شرح سنن الإمام الترمذي رضى الله عنه د. يسري جبر","category":"متنوع"},{"id":"HoBcUKli7RM","title":"شرح كتاب الزهد من سنن الترمذي - المجلس السادس","publishedAt":"2016-01-07T06:24:19Z","duration":"PT37M1S","thumbnail":"https://i.ytimg.com/vi/HoBcUKli7RM/mqdefault.jpg","viewCount":"164","playlistId":"PLEkQk5xrP-tnu6of679SvxdVx0qSrJzmb","playlistName":"شرح سنن الإمام الترمذي رضى الله عنه د. يسري جبر","category":"متنوع"},{"id":"OTSt55Cr8dc","title":"شرح كتاب الزهد من سنن الترمذي - المجلس السابع","publishedAt":"2016-01-08T07:44:57Z","duration":"PT36M48S","thumbnail":"https://i.ytimg.com/vi/OTSt55Cr8dc/mqdefault.jpg","viewCount":"127","playlistId":"PLEkQk5xrP-tnu6of679SvxdVx0qSrJzmb","playlistName":"شرح سنن الإمام الترمذي رضى الله عنه د. يسري جبر","category":"متنوع"},{"id":"3vtbWzLm3aM","title":"شرح كتاب الزهد من سنن الترمذي - المجلس الثامن","publishedAt":"2016-01-09T08:04:52Z","duration":"PT31M17S","thumbnail":"https://i.ytimg.com/vi/3vtbWzLm3aM/mqdefault.jpg","viewCount":"175","playlistId":"PLEkQk5xrP-tnu6of679SvxdVx0qSrJzmb","playlistName":"شرح سنن الإمام الترمذي رضى الله عنه د. يسري جبر","category":"متنوع"},{"id":"HOGWSrespeY","title":"شرح كتاب الزهد من سنن الترمذي - المجلس التاسع","publishedAt":"2016-01-10T08:41:27Z","duration":"PT38M26S","thumbnail":"https://i.ytimg.com/vi/HOGWSrespeY/mqdefault.jpg","viewCount":"239","playlistId":"PLEkQk5xrP-tnu6of679SvxdVx0qSrJzmb","playlistName":"شرح سنن الإمام الترمذي رضى الله عنه د. يسري جبر","category":"متنوع"}],"total":244,"page":5,"pageSize":24,"totalPages":11}