{"items":[{"id":"jcxOn-nolD4","title":"شرح كتاب المناقب من سنن الترمذي - المجلس الثامن عشر","publishedAt":"2016-07-14T10:42:09Z","duration":"PT14M34S","thumbnail":"https://i.ytimg.com/vi/jcxOn-nolD4/mqdefault.jpg","viewCount":"104","playlistId":"PLEkQk5xrP-tnu6of679SvxdVx0qSrJzmb","playlistName":"شرح سنن الإمام الترمذي رضى الله عنه د. يسري جبر","category":"متنوع"},{"id":"UYKvYBNBkUQ","title":"شرح كتاب المناقب من سنن الترمذي - المجلس العشرون","publishedAt":"2016-07-14T13:05:05Z","duration":"PT14M3S","thumbnail":"https://i.ytimg.com/vi/UYKvYBNBkUQ/mqdefault.jpg","viewCount":"109","playlistId":"PLEkQk5xrP-tnu6of679SvxdVx0qSrJzmb","playlistName":"شرح سنن الإمام الترمذي رضى الله عنه د. يسري جبر","category":"متنوع"},{"id":"Eta6cvFIKKY","title":"شرح كتاب المناقب من سنن الترمذي - المجلس الحادي والعشرون","publishedAt":"2016-07-14T15:21:42Z","duration":"PT13M18S","thumbnail":"https://i.ytimg.com/vi/Eta6cvFIKKY/mqdefault.jpg","viewCount":"141","playlistId":"PLEkQk5xrP-tnu6of679SvxdVx0qSrJzmb","playlistName":"شرح سنن الإمام الترمذي رضى الله عنه د. يسري جبر","category":"متنوع"},{"id":"YoTHV4ObHhs","title":"شرح كتاب المناقب من سنن الترمذي - المجلس الثاني والعشرون","publishedAt":"2016-07-16T18:07:58Z","duration":"PT21M56S","thumbnail":"https://i.ytimg.com/vi/YoTHV4ObHhs/mqdefault.jpg","viewCount":"397","playlistId":"PLEkQk5xrP-tnu6of679SvxdVx0qSrJzmb","playlistName":"شرح سنن الإمام الترمذي رضى الله عنه د. يسري جبر","category":"متنوع"}],"total":244,"page":11,"pageSize":24,"totalPages":11}