{"items":[{"id":"Z1kjhjrMpGE","title":"9- الفرق بين الروح والجسد وما هي الأبراج السماوية والأرضين السبع؟ | شرح مختصر الفتوحات المكية","publishedAt":"2024-02-25T13:55:06Z","duration":"PT52M12S","thumbnail":"https://i.ytimg.com/vi/Z1kjhjrMpGE/mqdefault.jpg","viewCount":"22496","playlistId":"PLEkQk5xrP-tnpkdZki6rPTtMak1bnI5g-","playlistName":"شرح كتاب مختصر الفتوحات المكية المسمى لواقح الأنوار القدسية","category":"متنوع"},{"id":"LZyVWCkYedc","title":"8- الفرق بين الإنس والجن وأيهما أقوى | شرح مختصر الفتوحات المكية","publishedAt":"2024-02-18T17:30:02Z","duration":"PT56M1S","thumbnail":"https://i.ytimg.com/vi/LZyVWCkYedc/mqdefault.jpg","viewCount":"16180","playlistId":"PLEkQk5xrP-tnpkdZki6rPTtMak1bnI5g-","playlistName":"شرح كتاب مختصر الفتوحات المكية المسمى لواقح الأنوار القدسية","category":"متنوع"},{"id":"S7khw6RV_Hg","title":"7- نبذة عن عالم المنامات والتجليات | الفرق بين كلام العلماء والأولياء - شرح مختصر الفتوحات المكية","publishedAt":"2024-02-12T12:33:02Z","duration":"PT1H2M41S","thumbnail":"https://i.ytimg.com/vi/S7khw6RV_Hg/mqdefault.jpg","viewCount":"30672","playlistId":"PLEkQk5xrP-tnpkdZki6rPTtMak1bnI5g-","playlistName":"شرح كتاب مختصر الفتوحات المكية المسمى لواقح الأنوار القدسية","category":"متنوع"},{"id":"VjmQgCw3OUQ","title":"6- لطائف عالم الأرواح وخصائص عالم الأجساد | دليل الانتفاع بالمؤمن حيا وميتا","publishedAt":"2024-02-08T12:05:00Z","duration":"PT1H9M18S","thumbnail":"https://i.ytimg.com/vi/VjmQgCw3OUQ/mqdefault.jpg","viewCount":"26068","playlistId":"PLEkQk5xrP-tnpkdZki6rPTtMak1bnI5g-","playlistName":"شرح كتاب مختصر الفتوحات المكية المسمى لواقح الأنوار القدسية","category":"متنوع"},{"id":"NslGXEdfdv0","title":"5- التنزيه المطلق لله سبحانه وتعالى - شرح مختصر الفُتُوحَات المَكْيَّة","publishedAt":"2024-01-28T20:03:55Z","duration":"PT1H30S","thumbnail":"https://i.ytimg.com/vi/NslGXEdfdv0/mqdefault.jpg","viewCount":"15730","playlistId":"PLEkQk5xrP-tnpkdZki6rPTtMak1bnI5g-","playlistName":"شرح كتاب مختصر الفتوحات المكية المسمى لواقح الأنوار القدسية","category":"متنوع"},{"id":"JuSqQzQL7cY","title":"4- أحوال العارفين بالله - شرح مختصر الفُتُوحَات المَكْيَّة","publishedAt":"2024-01-16T20:42:24Z","duration":"PT1H11M36S","thumbnail":"https://i.ytimg.com/vi/JuSqQzQL7cY/mqdefault.jpg","viewCount":"31859","playlistId":"PLEkQk5xrP-tnpkdZki6rPTtMak1bnI5g-","playlistName":"شرح كتاب مختصر الفتوحات المكية المسمى لواقح الأنوار القدسية","category":"متنوع"},{"id":"6z4jMnH-JHY","title":"3- تكملة شرح العقيدة وما جاء في النُّبوَّات - شرح مختصر الفُتُوحَات المَكْيَّة","publishedAt":"2024-01-05T21:22:09Z","duration":"PT1H10M28S","thumbnail":"https://i.ytimg.com/vi/6z4jMnH-JHY/mqdefault.jpg","viewCount":"25396","playlistId":"PLEkQk5xrP-tnpkdZki6rPTtMak1bnI5g-","playlistName":"شرح كتاب مختصر الفتوحات المكية المسمى لواقح الأنوار القدسية","category":"متنوع"},{"id":"ScfbIPwFdeU","title":"2- شرح مبسط للعقيدة (خُطبة كتاب الفُتُوحَات المَكْيَّة) - شرح مختصر الفُتُوحَات المَكْيَّة","publishedAt":"2023-12-31T10:30:08Z","duration":"PT1H11M42S","thumbnail":"https://i.ytimg.com/vi/ScfbIPwFdeU/mqdefault.jpg","viewCount":"33086","playlistId":"PLEkQk5xrP-tnpkdZki6rPTtMak1bnI5g-","playlistName":"شرح كتاب مختصر الفتوحات المكية المسمى لواقح الأنوار القدسية","category":"متنوع"},{"id":"nY3SD7LIswo","title":"41- أسرار وفوائد الوضوء | شرح مختصر الفتوحات المكية","publishedAt":"2025-05-09T19:24:23Z","duration":"PT49M45S","thumbnail":"https://i.ytimg.com/vi/nY3SD7LIswo/mqdefault.jpg","viewCount":"2212","playlistId":"PLEkQk5xrP-tnpkdZki6rPTtMak1bnI5g-","playlistName":"شرح كتاب مختصر الفتوحات المكية المسمى لواقح الأنوار القدسية","category":"متنوع"},{"id":"QyHUvUqET74","title":"1- بداية الفتح الربَّاني - شرح مختصر الفُتُوحَات المَكْيَّة","publishedAt":"2023-12-25T11:00:19Z","duration":"PT1H2M11S","thumbnail":"https://i.ytimg.com/vi/QyHUvUqET74/mqdefault.jpg","viewCount":"90299","playlistId":"PLEkQk5xrP-tnpkdZki6rPTtMak1bnI5g-","playlistName":"شرح كتاب مختصر الفتوحات المكية المسمى لواقح الأنوار القدسية","category":"متنوع"},{"id":"Pvo0QfveC6I","title":"49- أسرار السجود وأقرب لحظة بينك وبين الله | شرح مختصر الفتوحات المكية","publishedAt":"2025-07-26T18:10:03Z","duration":"PT32M14S","thumbnail":"https://i.ytimg.com/vi/Pvo0QfveC6I/mqdefault.jpg","viewCount":"2593","playlistId":"PLEkQk5xrP-tnpkdZki6rPTtMak1bnI5g-","playlistName":"شرح كتاب مختصر الفتوحات المكية المسمى لواقح الأنوار القدسية","category":"متنوع"},{"id":"xUatz6bQuXw","title":"48- شروط الأمر بالمعروف والدعوة إلى الله | شرح مختصر الفتوحات المكية","publishedAt":"2025-07-21T17:30:27Z","duration":"PT44M20S","thumbnail":"https://i.ytimg.com/vi/xUatz6bQuXw/mqdefault.jpg","viewCount":"1342","playlistId":"PLEkQk5xrP-tnpkdZki6rPTtMak1bnI5g-","playlistName":"شرح كتاب مختصر الفتوحات المكية المسمى لواقح الأنوار القدسية","category":"متنوع"},{"id":"Tg5CrgiT_oA","title":"47- كيفية قضاء الصلوات الفائتة؟ | شرح مختصر الفتوحات المكية","publishedAt":"2025-07-14T18:33:40Z","duration":"PT50M49S","thumbnail":"https://i.ytimg.com/vi/Tg5CrgiT_oA/mqdefault.jpg","viewCount":"1749","playlistId":"PLEkQk5xrP-tnpkdZki6rPTtMak1bnI5g-","playlistName":"شرح كتاب مختصر الفتوحات المكية المسمى لواقح الأنوار القدسية","category":"متنوع"},{"id":"0dG0-x2kWaw","title":"46- شروط صحة الصلاة ومتى فرضت؟ | شرح مختصر الفتوحات المكية","publishedAt":"2025-07-06T18:32:19Z","duration":"PT41M13S","thumbnail":"https://i.ytimg.com/vi/0dG0-x2kWaw/mqdefault.jpg","viewCount":"2046","playlistId":"PLEkQk5xrP-tnpkdZki6rPTtMak1bnI5g-","playlistName":"شرح كتاب مختصر الفتوحات المكية المسمى لواقح الأنوار القدسية","category":"متنوع"},{"id":"s2NVfWbgmJ4","title":"45- هل يجوز الخروج عن الإجماع؟ | شرح مختصر الفتوحات المكية","publishedAt":"2025-06-30T18:30:36Z","duration":"PT48M54S","thumbnail":"https://i.ytimg.com/vi/s2NVfWbgmJ4/mqdefault.jpg","viewCount":"1646","playlistId":"PLEkQk5xrP-tnpkdZki6rPTtMak1bnI5g-","playlistName":"شرح كتاب مختصر الفتوحات المكية المسمى لواقح الأنوار القدسية","category":"متنوع"},{"id":"O6vRVKrNOG8","title":"33- ما هو علم اللوح والقلم؟ | شرح مختصر الفتوحات المكية","publishedAt":"2024-09-07T16:00:20Z","duration":"PT32M47S","thumbnail":"https://i.ytimg.com/vi/O6vRVKrNOG8/mqdefault.jpg","viewCount":"5441","playlistId":"PLEkQk5xrP-tnpkdZki6rPTtMak1bnI5g-","playlistName":"شرح كتاب مختصر الفتوحات المكية المسمى لواقح الأنوار القدسية","category":"متنوع"},{"id":"jya9c0g3J_0","title":"16- ماذا أفعل حتى يستجيب الله دعائي؟ | شرح مختصر الفتوحات المكية","publishedAt":"2024-05-05T17:02:49Z","duration":"PT40M41S","thumbnail":"https://i.ytimg.com/vi/jya9c0g3J_0/mqdefault.jpg","viewCount":"8482","playlistId":"PLEkQk5xrP-tnpkdZki6rPTtMak1bnI5g-","playlistName":"شرح كتاب مختصر الفتوحات المكية المسمى لواقح الأنوار القدسية","category":"متنوع"},{"id":"arI260x6zZc","title":"24- كيف يتجلى الله على الأولياء؟ | شرح مختصر الفتوحات المكية","publishedAt":"2024-06-30T18:00:02Z","duration":"PT48M19S","thumbnail":"https://i.ytimg.com/vi/arI260x6zZc/mqdefault.jpg","viewCount":"17692","playlistId":"PLEkQk5xrP-tnpkdZki6rPTtMak1bnI5g-","playlistName":"شرح كتاب مختصر الفتوحات المكية المسمى لواقح الأنوار القدسية","category":"متنوع"},{"id":"q_VjYYSPxwE","title":"23- هل السحر يغير الحقائق؟ | كيفية فهم معاني القرآن | شرح مختصر الفتوحات المكية","publishedAt":"2024-06-25T16:58:07Z","duration":"PT48M51S","thumbnail":"https://i.ytimg.com/vi/q_VjYYSPxwE/mqdefault.jpg","viewCount":"7236","playlistId":"PLEkQk5xrP-tnpkdZki6rPTtMak1bnI5g-","playlistName":"شرح كتاب مختصر الفتوحات المكية المسمى لواقح الأنوار القدسية","category":"متنوع"},{"id":"Rt-hWXj8tX8","title":"22- أحوال الصالحين وأهل الله | شرح مختصر الفتوحات المكية","publishedAt":"2024-06-18T17:10:18Z","duration":"PT56M37S","thumbnail":"https://i.ytimg.com/vi/Rt-hWXj8tX8/mqdefault.jpg","viewCount":"10410","playlistId":"PLEkQk5xrP-tnpkdZki6rPTtMak1bnI5g-","playlistName":"شرح كتاب مختصر الفتوحات المكية المسمى لواقح الأنوار القدسية","category":"متنوع"},{"id":"JPIkmHMT_SI","title":"52- كيف تحقق العبودية لله؟ | شرح مختصر الفتوحات المكية","publishedAt":"2025-08-21T18:00:17Z","duration":"PT53M8S","thumbnail":"https://i.ytimg.com/vi/JPIkmHMT_SI/mqdefault.jpg","viewCount":"2266","playlistId":"PLEkQk5xrP-tnpkdZki6rPTtMak1bnI5g-","playlistName":"شرح كتاب مختصر الفتوحات المكية المسمى لواقح الأنوار القدسية","category":"متنوع"},{"id":"w55ovO15ioU","title":"40- كل ما تريد معرفته عن الطهارة | شرح مختصر الفتوحات المكية","publishedAt":"2025-04-19T19:30:18Z","duration":"PT52M22S","thumbnail":"https://i.ytimg.com/vi/w55ovO15ioU/mqdefault.jpg","viewCount":"2619","playlistId":"PLEkQk5xrP-tnpkdZki6rPTtMak1bnI5g-","playlistName":"شرح كتاب مختصر الفتوحات المكية المسمى لواقح الأنوار القدسية","category":"متنوع"},{"id":"ItjvGr965iw","title":"51- كيف تنجو من فتنة المسيح الدجال؟ | شرح مختصر الفتوحات المكية","publishedAt":"2025-08-15T18:00:31Z","duration":"PT44M8S","thumbnail":"https://i.ytimg.com/vi/ItjvGr965iw/mqdefault.jpg","viewCount":"2483","playlistId":"PLEkQk5xrP-tnpkdZki6rPTtMak1bnI5g-","playlistName":"شرح كتاب مختصر الفتوحات المكية المسمى لواقح الأنوار القدسية","category":"متنوع"},{"id":"Um52xE8wevA","title":"36- رحلة إلى يوم القيامة وماذا سيحدث بالتفصيل؟ | شرح مختصر الفتوحات المكية","publishedAt":"2024-12-28T18:21:31Z","duration":"PT50M29S","thumbnail":"https://i.ytimg.com/vi/Um52xE8wevA/mqdefault.jpg","viewCount":"7172","playlistId":"PLEkQk5xrP-tnpkdZki6rPTtMak1bnI5g-","playlistName":"شرح كتاب مختصر الفتوحات المكية المسمى لواقح الأنوار القدسية","category":"متنوع"}],"total":55,"page":2,"pageSize":24,"totalPages":3}