{"items":[{"id":"6z4jMnH-JHY","title":"3- تكملة شرح العقيدة وما جاء في النُّبوَّات - شرح مختصر الفُتُوحَات المَكْيَّة","publishedAt":"2024-01-05T21:22:09Z","duration":"PT1H10M28S","thumbnail":"https://i.ytimg.com/vi/6z4jMnH-JHY/mqdefault.jpg","viewCount":"25396","playlistId":"PLEkQk5xrP-tnpkdZki6rPTtMak1bnI5g-","playlistName":"شرح كتاب مختصر الفتوحات المكية المسمى لواقح الأنوار القدسية","category":"متنوع"},{"id":"ScfbIPwFdeU","title":"2- شرح مبسط للعقيدة (خُطبة كتاب الفُتُوحَات المَكْيَّة) - شرح مختصر الفُتُوحَات المَكْيَّة","publishedAt":"2023-12-31T10:30:08Z","duration":"PT1H11M42S","thumbnail":"https://i.ytimg.com/vi/ScfbIPwFdeU/mqdefault.jpg","viewCount":"33086","playlistId":"PLEkQk5xrP-tnpkdZki6rPTtMak1bnI5g-","playlistName":"شرح كتاب مختصر الفتوحات المكية المسمى لواقح الأنوار القدسية","category":"متنوع"},{"id":"QyHUvUqET74","title":"1- بداية الفتح الربَّاني - شرح مختصر الفُتُوحَات المَكْيَّة","publishedAt":"2023-12-25T11:00:19Z","duration":"PT1H2M11S","thumbnail":"https://i.ytimg.com/vi/QyHUvUqET74/mqdefault.jpg","viewCount":"90299","playlistId":"PLEkQk5xrP-tnpkdZki6rPTtMak1bnI5g-","playlistName":"شرح كتاب مختصر الفتوحات المكية المسمى لواقح الأنوار القدسية","category":"متنوع"},{"id":"Pvo0QfveC6I","title":"49- أسرار السجود وأقرب لحظة بينك وبين الله | شرح مختصر الفتوحات المكية","publishedAt":"2025-07-26T18:10:03Z","duration":"PT32M14S","thumbnail":"https://i.ytimg.com/vi/Pvo0QfveC6I/mqdefault.jpg","viewCount":"2593","playlistId":"PLEkQk5xrP-tnpkdZki6rPTtMak1bnI5g-","playlistName":"شرح كتاب مختصر الفتوحات المكية المسمى لواقح الأنوار القدسية","category":"متنوع"},{"id":"xUatz6bQuXw","title":"48- شروط الأمر بالمعروف والدعوة إلى الله | شرح مختصر الفتوحات المكية","publishedAt":"2025-07-21T17:30:27Z","duration":"PT44M20S","thumbnail":"https://i.ytimg.com/vi/xUatz6bQuXw/mqdefault.jpg","viewCount":"1342","playlistId":"PLEkQk5xrP-tnpkdZki6rPTtMak1bnI5g-","playlistName":"شرح كتاب مختصر الفتوحات المكية المسمى لواقح الأنوار القدسية","category":"متنوع"},{"id":"Tg5CrgiT_oA","title":"47- كيفية قضاء الصلوات الفائتة؟ | شرح مختصر الفتوحات المكية","publishedAt":"2025-07-14T18:33:40Z","duration":"PT50M49S","thumbnail":"https://i.ytimg.com/vi/Tg5CrgiT_oA/mqdefault.jpg","viewCount":"1749","playlistId":"PLEkQk5xrP-tnpkdZki6rPTtMak1bnI5g-","playlistName":"شرح كتاب مختصر الفتوحات المكية المسمى لواقح الأنوار القدسية","category":"متنوع"},{"id":"0dG0-x2kWaw","title":"46- شروط صحة الصلاة ومتى فرضت؟ | شرح مختصر الفتوحات المكية","publishedAt":"2025-07-06T18:32:19Z","duration":"PT41M13S","thumbnail":"https://i.ytimg.com/vi/0dG0-x2kWaw/mqdefault.jpg","viewCount":"2046","playlistId":"PLEkQk5xrP-tnpkdZki6rPTtMak1bnI5g-","playlistName":"شرح كتاب مختصر الفتوحات المكية المسمى لواقح الأنوار القدسية","category":"متنوع"}],"total":55,"page":3,"pageSize":24,"totalPages":3}