{"items":[{"id":"MmoYzYxjCTM","title":"184- اقترابُ الفِتنِ وفَتْحُ رَدْم يأجوج ومأجوج","publishedAt":"2020-12-20T08:00:40Z","duration":"PT22M5S","thumbnail":"https://i.ytimg.com/vi/MmoYzYxjCTM/mqdefault.jpg","viewCount":"34781","playlistId":"PLEkQk5xrP-tmKNjtYLfhATC37QdIsTMe0","playlistName":"شرح كتاب اللؤلؤ والمرجان فيما اتفق عليه الشيخان إماما المحدثين البخاري ومسلم. أ.د. يسري جبر","category":"حديث"},{"id":"mbNl5n1aiNM","title":"134- باب السِحر","publishedAt":"2020-09-18T05:33:52Z","duration":"PT33M3S","thumbnail":"https://i.ytimg.com/vi/mbNl5n1aiNM/mqdefault.jpg","viewCount":"26694","playlistId":"PLEkQk5xrP-tmKNjtYLfhATC37QdIsTMe0","playlistName":"شرح كتاب اللؤلؤ والمرجان فيما اتفق عليه الشيخان إماما المحدثين البخاري ومسلم. أ.د. يسري جبر","category":"حديث"},{"id":"MfKhIJDJyTk","title":"140- رؤيا النَّبيّ ﷺ","publishedAt":"2020-09-27T06:56:05Z","duration":"PT31M12S","thumbnail":"https://i.ytimg.com/vi/MfKhIJDJyTk/mqdefault.jpg","viewCount":"14089","playlistId":"PLEkQk5xrP-tmKNjtYLfhATC37QdIsTMe0","playlistName":"شرح كتاب اللؤلؤ والمرجان فيما اتفق عليه الشيخان إماما المحدثين البخاري ومسلم. أ.د. يسري جبر","category":"حديث"},{"id":"kI8H5hsYD2k","title":"1- شرح كتاب اللؤلؤ والمرجان فيما اتفق عليه الشيخان إماما المحدثين البخاري ومسلم.   أ.د. يسري جبر","publishedAt":"2019-11-27T18:33:37Z","duration":"PT43M12S","thumbnail":"https://i.ytimg.com/vi/kI8H5hsYD2k/mqdefault.jpg","viewCount":"12264","playlistId":"PLEkQk5xrP-tmKNjtYLfhATC37QdIsTMe0","playlistName":"شرح كتاب اللؤلؤ والمرجان فيما اتفق عليه الشيخان إماما المحدثين البخاري ومسلم. أ.د. يسري جبر","category":"حديث"},{"id":"ONvQugM77qE","title":"170- فضل الدعاء باللهم آتنا في الدنيا حسنة وفي الآخرة حسنة وقنا عذاب النار","publishedAt":"2020-11-24T06:56:03Z","duration":"PT14M22S","thumbnail":"https://i.ytimg.com/vi/ONvQugM77qE/mqdefault.jpg","viewCount":"8890","playlistId":"PLEkQk5xrP-tmKNjtYLfhATC37QdIsTMe0","playlistName":"شرح كتاب اللؤلؤ والمرجان فيما اتفق عليه الشيخان إماما المحدثين البخاري ومسلم. أ.د. يسري جبر","category":"حديث"},{"id":"RCDCI_gE8rE","title":"174- قبول التوبة من الذنوب وإن تكررت الذنوب والتوبة","publishedAt":"2020-12-01T20:16:57Z","duration":"PT33M59S","thumbnail":"https://i.ytimg.com/vi/RCDCI_gE8rE/mqdefault.jpg","viewCount":"8088","playlistId":"PLEkQk5xrP-tmKNjtYLfhATC37QdIsTMe0","playlistName":"شرح كتاب اللؤلؤ والمرجان فيما اتفق عليه الشيخان إماما المحدثين البخاري ومسلم. أ.د. يسري جبر","category":"حديث"},{"id":"ioRnkJjMDpw","title":"139- الرؤيا","publishedAt":"2020-09-26T04:41:02Z","duration":"PT22M7S","thumbnail":"https://i.ytimg.com/vi/ioRnkJjMDpw/mqdefault.jpg","viewCount":"8017","playlistId":"PLEkQk5xrP-tmKNjtYLfhATC37QdIsTMe0","playlistName":"شرح كتاب اللؤلؤ والمرجان فيما اتفق عليه الشيخان إماما المحدثين البخاري ومسلم. أ.د. يسري جبر","category":"حديث"},{"id":"yCCzzbdgrz0","title":"167- القَدَر - بابُ خَلْقِ الآدَمِيّ في بطن أمِّهِ وكتابة رزقه وأجله وعمله وشقاوته وسعادته","publishedAt":"2020-11-18T07:25:28Z","duration":"PT34M41S","thumbnail":"https://i.ytimg.com/vi/yCCzzbdgrz0/mqdefault.jpg","viewCount":"7512","playlistId":"PLEkQk5xrP-tmKNjtYLfhATC37QdIsTMe0","playlistName":"شرح كتاب اللؤلؤ والمرجان فيما اتفق عليه الشيخان إماما المحدثين البخاري ومسلم. أ.د. يسري جبر","category":"حديث"},{"id":"mVr9E6ztICk","title":"169- الحثُّ على ذِكْر الله تعالى","publishedAt":"2020-11-22T07:49:00Z","duration":"PT22M25S","thumbnail":"https://i.ytimg.com/vi/mVr9E6ztICk/mqdefault.jpg","viewCount":"6134","playlistId":"PLEkQk5xrP-tmKNjtYLfhATC37QdIsTMe0","playlistName":"شرح كتاب اللؤلؤ والمرجان فيما اتفق عليه الشيخان إماما المحدثين البخاري ومسلم. أ.د. يسري جبر","category":"حديث"},{"id":"UvbPAfOoxHk","title":"185- الفِتنُ وأشراطُ الساعة - إذا تواجه المسلمان بسيفيهما","publishedAt":"2020-12-24T08:07:25Z","duration":"PT34M37S","thumbnail":"https://i.ytimg.com/vi/UvbPAfOoxHk/mqdefault.jpg","viewCount":"5848","playlistId":"PLEkQk5xrP-tmKNjtYLfhATC37QdIsTMe0","playlistName":"شرح كتاب اللؤلؤ والمرجان فيما اتفق عليه الشيخان إماما المحدثين البخاري ومسلم. أ.د. يسري جبر","category":"حديث"},{"id":"VPhNneUqwuM","title":"190- حِفظُ اللسان","publishedAt":"2021-01-03T07:18:25Z","duration":"PT29M26S","thumbnail":"https://i.ytimg.com/vi/VPhNneUqwuM/mqdefault.jpg","viewCount":"5501","playlistId":"PLEkQk5xrP-tmKNjtYLfhATC37QdIsTMe0","playlistName":"شرح كتاب اللؤلؤ والمرجان فيما اتفق عليه الشيخان إماما المحدثين البخاري ومسلم. أ.د. يسري جبر","category":"حديث"},{"id":"14ne4ZptCQc","title":"181- الجَنَّةُ وصِفَةُ نعيمِها وأهلِهِا","publishedAt":"2020-12-13T06:51:00Z","duration":"PT24M14S","thumbnail":"https://i.ytimg.com/vi/14ne4ZptCQc/mqdefault.jpg","viewCount":"5484","playlistId":"PLEkQk5xrP-tmKNjtYLfhATC37QdIsTMe0","playlistName":"شرح كتاب اللؤلؤ والمرجان فيما اتفق عليه الشيخان إماما المحدثين البخاري ومسلم. أ.د. يسري جبر","category":"حديث"},{"id":"H5bHZLn9B3g","title":"187- كتابُ الفتن وأشراط الساعة - باب ابن صياد","publishedAt":"2020-12-28T07:05:20Z","duration":"PT27M10S","thumbnail":"https://i.ytimg.com/vi/H5bHZLn9B3g/mqdefault.jpg","viewCount":"5088","playlistId":"PLEkQk5xrP-tmKNjtYLfhATC37QdIsTMe0","playlistName":"شرح كتاب اللؤلؤ والمرجان فيما اتفق عليه الشيخان إماما المحدثين البخاري ومسلم. أ.د. يسري جبر","category":"حديث"},{"id":"46TLxRmrX_o","title":"186- لا تقومُ الساعة حتى يمر الرجلُ بقبر الرجلِ فيتمنَّى أن يكون مكان الميت من البلاء","publishedAt":"2020-12-26T09:21:57Z","duration":"PT15M3S","thumbnail":"https://i.ytimg.com/vi/46TLxRmrX_o/mqdefault.jpg","viewCount":"4767","playlistId":"PLEkQk5xrP-tmKNjtYLfhATC37QdIsTMe0","playlistName":"شرح كتاب اللؤلؤ والمرجان فيما اتفق عليه الشيخان إماما المحدثين البخاري ومسلم. أ.د. يسري جبر","category":"حديث"},{"id":"ke57UcwRiAg","title":"155- السيدة فاطمة بنت النَّبيّ ﷺ رضي الله عنها وعليها السلام","publishedAt":"2020-10-25T07:31:00Z","duration":"PT18M20S","thumbnail":"https://i.ytimg.com/vi/ke57UcwRiAg/mqdefault.jpg","viewCount":"4707","playlistId":"PLEkQk5xrP-tmKNjtYLfhATC37QdIsTMe0","playlistName":"شرح كتاب اللؤلؤ والمرجان فيما اتفق عليه الشيخان إماما المحدثين البخاري ومسلم. أ.د. يسري جبر","category":"حديث"},{"id":"9ndQjYhvwSo","title":"183- صِفةُ يوم القيامة","publishedAt":"2020-12-17T06:49:33Z","duration":"PT15M53S","thumbnail":"https://i.ytimg.com/vi/9ndQjYhvwSo/mqdefault.jpg","viewCount":"4440","playlistId":"PLEkQk5xrP-tmKNjtYLfhATC37QdIsTMe0","playlistName":"شرح كتاب اللؤلؤ والمرجان فيما اتفق عليه الشيخان إماما المحدثين البخاري ومسلم. أ.د. يسري جبر","category":"حديث"},{"id":"2L8wvB9NQEk","title":"191- لا يُلْدَغُ المؤمنُ مِن جُحرٍ مرتين","publishedAt":"2021-01-05T07:11:13Z","duration":"PT23M3S","thumbnail":"https://i.ytimg.com/vi/2L8wvB9NQEk/mqdefault.jpg","viewCount":"4411","playlistId":"PLEkQk5xrP-tmKNjtYLfhATC37QdIsTMe0","playlistName":"شرح كتاب اللؤلؤ والمرجان فيما اتفق عليه الشيخان إماما المحدثين البخاري ومسلم. أ.د. يسري جبر","category":"حديث"},{"id":"b_MRG8iRCPU","title":"2- شرح كتاب اللؤلؤ والمرجان - المجلس الثاني. أ.د. يسري جبر","publishedAt":"2019-11-29T08:30:23Z","duration":"PT35M55S","thumbnail":"https://i.ytimg.com/vi/b_MRG8iRCPU/mqdefault.jpg","viewCount":"4278","playlistId":"PLEkQk5xrP-tmKNjtYLfhATC37QdIsTMe0","playlistName":"شرح كتاب اللؤلؤ والمرجان فيما اتفق عليه الشيخان إماما المحدثين البخاري ومسلم. أ.د. يسري جبر","category":"حديث"},{"id":"Ss9bnLrR7Tk","title":"179- نُزل أهل الجنَّة","publishedAt":"2020-12-10T19:10:33Z","duration":"PT24M12S","thumbnail":"https://i.ytimg.com/vi/Ss9bnLrR7Tk/mqdefault.jpg","viewCount":"4217","playlistId":"PLEkQk5xrP-tmKNjtYLfhATC37QdIsTMe0","playlistName":"شرح كتاب اللؤلؤ والمرجان فيما اتفق عليه الشيخان إماما المحدثين البخاري ومسلم. أ.د. يسري جبر","category":"حديث"},{"id":"RVNCCeEDLCw","title":"173- الحضُّ على التوبة والفرح بها","publishedAt":"2020-11-30T21:06:46Z","duration":"PT32M18S","thumbnail":"https://i.ytimg.com/vi/RVNCCeEDLCw/mqdefault.jpg","viewCount":"4195","playlistId":"PLEkQk5xrP-tmKNjtYLfhATC37QdIsTMe0","playlistName":"شرح كتاب اللؤلؤ والمرجان فيما اتفق عليه الشيخان إماما المحدثين البخاري ومسلم. أ.د. يسري جبر","category":"حديث"},{"id":"thV07ZFFFPk","title":"180-  الدُّخَان","publishedAt":"2020-12-12T07:16:25Z","duration":"PT32M18S","thumbnail":"https://i.ytimg.com/vi/thV07ZFFFPk/mqdefault.jpg","viewCount":"4180","playlistId":"PLEkQk5xrP-tmKNjtYLfhATC37QdIsTMe0","playlistName":"شرح كتاب اللؤلؤ والمرجان فيما اتفق عليه الشيخان إماما المحدثين البخاري ومسلم. أ.د. يسري جبر","category":"حديث"},{"id":"RgrW93yY1IU","title":"145- صِفةُ النَّبيّ ﷺ وأنه كان أحسن الناس وجهًا","publishedAt":"2020-10-06T07:52:44Z","duration":"PT30M39S","thumbnail":"https://i.ytimg.com/vi/RgrW93yY1IU/mqdefault.jpg","viewCount":"4135","playlistId":"PLEkQk5xrP-tmKNjtYLfhATC37QdIsTMe0","playlistName":"شرح كتاب اللؤلؤ والمرجان فيما اتفق عليه الشيخان إماما المحدثين البخاري ومسلم. أ.د. يسري جبر","category":"حديث"},{"id":"vUcyMilbJZM","title":"171- استحبابُ خفضِ الصوتِ بالذِكْر","publishedAt":"2020-11-25T19:05:16Z","duration":"PT32M24S","thumbnail":"https://i.ytimg.com/vi/vUcyMilbJZM/mqdefault.jpg","viewCount":"4106","playlistId":"PLEkQk5xrP-tmKNjtYLfhATC37QdIsTMe0","playlistName":"شرح كتاب اللؤلؤ والمرجان فيما اتفق عليه الشيخان إماما المحدثين البخاري ومسلم. أ.د. يسري جبر","category":"حديث"},{"id":"YV4bYer9FVs","title":"182- النَّارُ يدخلها الجبَّارون والجنَّةُ يدخلها الضُّعفاء","publishedAt":"2020-12-15T07:26:40Z","duration":"PT35M14S","thumbnail":"https://i.ytimg.com/vi/YV4bYer9FVs/mqdefault.jpg","viewCount":"3617","playlistId":"PLEkQk5xrP-tmKNjtYLfhATC37QdIsTMe0","playlistName":"شرح كتاب اللؤلؤ والمرجان فيما اتفق عليه الشيخان إماما المحدثين البخاري ومسلم. أ.د. يسري جبر","category":"حديث"}],"total":192,"page":1,"pageSize":24,"totalPages":8}