{"items":[{"id":"iklKk8FVwUM","title":"24- شرح اللؤلؤ والمرجان كتاب الصلاة من باب ١٧","publishedAt":"2020-01-08T19:28:22Z","duration":"PT37M24S","thumbnail":"https://i.ytimg.com/vi/iklKk8FVwUM/mqdefault.jpg","viewCount":"995","playlistId":"PLEkQk5xrP-tmKNjtYLfhATC37QdIsTMe0","playlistName":"شرح كتاب اللؤلؤ والمرجان فيما اتفق عليه الشيخان إماما المحدثين البخاري ومسلم. أ.د. يسري جبر","category":"حديث"},{"id":"G3aFSOcDNig","title":"159- فضائل جعفر بن أبي طالب وأسماء بنت عُميس وأهل سفينتهم رضي الله عنهم","publishedAt":"2020-11-02T07:28:34Z","duration":"PT21M11S","thumbnail":"https://i.ytimg.com/vi/G3aFSOcDNig/mqdefault.jpg","viewCount":"993","playlistId":"PLEkQk5xrP-tmKNjtYLfhATC37QdIsTMe0","playlistName":"شرح كتاب اللؤلؤ والمرجان فيما اتفق عليه الشيخان إماما المحدثين البخاري ومسلم. أ.د. يسري جبر","category":"حديث"},{"id":"1P_6R_beDFM","title":"127- جواز أكل المَرَق واستحباب أكل اليقطين","publishedAt":"2020-09-07T05:22:40Z","duration":"PT32M23S","thumbnail":"https://i.ytimg.com/vi/1P_6R_beDFM/mqdefault.jpg","viewCount":"977","playlistId":"PLEkQk5xrP-tmKNjtYLfhATC37QdIsTMe0","playlistName":"شرح كتاب اللؤلؤ والمرجان فيما اتفق عليه الشيخان إماما المحدثين البخاري ومسلم. أ.د. يسري جبر","category":"حديث"},{"id":"2cIhPkDiFDU","title":"129- بابٌ في طرح خاتم الذهب","publishedAt":"2020-09-10T11:57:55Z","duration":"PT33M10S","thumbnail":"https://i.ytimg.com/vi/2cIhPkDiFDU/mqdefault.jpg","viewCount":"973","playlistId":"PLEkQk5xrP-tmKNjtYLfhATC37QdIsTMe0","playlistName":"شرح كتاب اللؤلؤ والمرجان فيما اتفق عليه الشيخان إماما المحدثين البخاري ومسلم. أ.د. يسري جبر","category":"حديث"},{"id":"k0pfkL32AvM","title":"125- باب إباحة النبيذ الذي لم يشتد ولم يصر مُسكرًا","publishedAt":"2020-09-05T05:19:53Z","duration":"PT24M57S","thumbnail":"https://i.ytimg.com/vi/k0pfkL32AvM/mqdefault.jpg","viewCount":"962","playlistId":"PLEkQk5xrP-tmKNjtYLfhATC37QdIsTMe0","playlistName":"شرح كتاب اللؤلؤ والمرجان فيما اتفق عليه الشيخان إماما المحدثين البخاري ومسلم. أ.د. يسري جبر","category":"حديث"},{"id":"OkaAyockQTA","title":"151- فضل سعد بن أبي وقَّاص رضي اللهُ عنه","publishedAt":"2020-10-18T07:01:59Z","duration":"PT18M18S","thumbnail":"https://i.ytimg.com/vi/OkaAyockQTA/mqdefault.jpg","viewCount":"957","playlistId":"PLEkQk5xrP-tmKNjtYLfhATC37QdIsTMe0","playlistName":"شرح كتاب اللؤلؤ والمرجان فيما اتفق عليه الشيخان إماما المحدثين البخاري ومسلم. أ.د. يسري جبر","category":"حديث"},{"id":"cMOzh2Xh1II","title":"161- كتابُ البِرِّ والصِّلةِ والآداب","publishedAt":"2020-11-06T07:11:11Z","duration":"PT18M","thumbnail":"https://i.ytimg.com/vi/cMOzh2Xh1II/mqdefault.jpg","viewCount":"946","playlistId":"PLEkQk5xrP-tmKNjtYLfhATC37QdIsTMe0","playlistName":"شرح كتاب اللؤلؤ والمرجان فيما اتفق عليه الشيخان إماما المحدثين البخاري ومسلم. أ.د. يسري جبر","category":"حديث"},{"id":"oF0ezQr7D_4","title":"131- النهي عن التَّكنِّي بأبي القاسم وبيان ما يُستحبُّ من الأسماء","publishedAt":"2020-09-14T13:21:48Z","duration":"PT25M20S","thumbnail":"https://i.ytimg.com/vi/oF0ezQr7D_4/mqdefault.jpg","viewCount":"911","playlistId":"PLEkQk5xrP-tmKNjtYLfhATC37QdIsTMe0","playlistName":"شرح كتاب اللؤلؤ والمرجان فيما اتفق عليه الشيخان إماما المحدثين البخاري ومسلم. أ.د. يسري جبر","category":"حديث"},{"id":"-lT-DwmyqQc","title":"20- شرح اللؤلؤ والمرجان كتاب الحيض من أوله","publishedAt":"2020-01-05T08:40:13Z","duration":"PT33M4S","thumbnail":"https://i.ytimg.com/vi/-lT-DwmyqQc/mqdefault.jpg","viewCount":"887","playlistId":"PLEkQk5xrP-tmKNjtYLfhATC37QdIsTMe0","playlistName":"شرح كتاب اللؤلؤ والمرجان فيما اتفق عليه الشيخان إماما المحدثين البخاري ومسلم. أ.د. يسري جبر","category":"حديث"},{"id":"6s9oiJLr2EU","title":"17- شرح اللؤلؤ والمرجان كتاب الإيمان من باب ٨٩","publishedAt":"2020-01-03T07:55:50Z","duration":"PT28M2S","thumbnail":"https://i.ytimg.com/vi/6s9oiJLr2EU/mqdefault.jpg","viewCount":"887","playlistId":"PLEkQk5xrP-tmKNjtYLfhATC37QdIsTMe0","playlistName":"شرح كتاب اللؤلؤ والمرجان فيما اتفق عليه الشيخان إماما المحدثين البخاري ومسلم. أ.د. يسري جبر","category":"حديث"},{"id":"1HAlwHhelt0","title":"156- بابٌ من فضائل عبد الله بن مسعود وأمِّه رضي الله عنهما","publishedAt":"2020-10-27T08:52:19Z","duration":"PT25M14S","thumbnail":"https://i.ytimg.com/vi/1HAlwHhelt0/mqdefault.jpg","viewCount":"877","playlistId":"PLEkQk5xrP-tmKNjtYLfhATC37QdIsTMe0","playlistName":"شرح كتاب اللؤلؤ والمرجان فيما اتفق عليه الشيخان إماما المحدثين البخاري ومسلم. أ.د. يسري جبر","category":"حديث"},{"id":"tHbxVk7dOZU","title":"152- فضائل عبد الله بن جعفر رضي الله عنهما","publishedAt":"2020-10-21T10:46:16Z","duration":"PT16M16S","thumbnail":"https://i.ytimg.com/vi/tHbxVk7dOZU/mqdefault.jpg","viewCount":"870","playlistId":"PLEkQk5xrP-tmKNjtYLfhATC37QdIsTMe0","playlistName":"شرح كتاب اللؤلؤ والمرجان فيما اتفق عليه الشيخان إماما المحدثين البخاري ومسلم. أ.د. يسري جبر","category":"حديث"},{"id":"NKblwYCm1_w","title":"30- شرح اللؤلؤ والمرجان كتاب المساجد ومواضع الصلاة من باب أوله","publishedAt":"2020-01-14T11:35:08Z","duration":"PT41M","thumbnail":"https://i.ytimg.com/vi/NKblwYCm1_w/mqdefault.jpg","viewCount":"772","playlistId":"PLEkQk5xrP-tmKNjtYLfhATC37QdIsTMe0","playlistName":"شرح كتاب اللؤلؤ والمرجان فيما اتفق عليه الشيخان إماما المحدثين البخاري ومسلم. أ.د. يسري جبر","category":"حديث"},{"id":"NxZ93vOwkbA","title":"25- شرح اللؤلؤ والمرجان كتاب الصلاة من باب ٢٢","publishedAt":"2020-01-09T07:09:18Z","duration":"PT28M40S","thumbnail":"https://i.ytimg.com/vi/NxZ93vOwkbA/mqdefault.jpg","viewCount":"772","playlistId":"PLEkQk5xrP-tmKNjtYLfhATC37QdIsTMe0","playlistName":"شرح كتاب اللؤلؤ والمرجان فيما اتفق عليه الشيخان إماما المحدثين البخاري ومسلم. أ.د. يسري جبر","category":"حديث"},{"id":"oKoOS3AITK8","title":"27- شرح اللؤلؤ والمرجان كتاب الصلاة من باب ٣٤","publishedAt":"2020-01-10T07:29:34Z","duration":"PT20M10S","thumbnail":"https://i.ytimg.com/vi/oKoOS3AITK8/mqdefault.jpg","viewCount":"769","playlistId":"PLEkQk5xrP-tmKNjtYLfhATC37QdIsTMe0","playlistName":"شرح كتاب اللؤلؤ والمرجان فيما اتفق عليه الشيخان إماما المحدثين البخاري ومسلم. أ.د. يسري جبر","category":"حديث"},{"id":"v4KiGr83QnE","title":"21- شرح اللؤلؤ والمرجان كتاب الحيض من باب ١٠","publishedAt":"2020-01-06T06:38:01Z","duration":"PT32M37S","thumbnail":"https://i.ytimg.com/vi/v4KiGr83QnE/mqdefault.jpg","viewCount":"766","playlistId":"PLEkQk5xrP-tmKNjtYLfhATC37QdIsTMe0","playlistName":"شرح كتاب اللؤلؤ والمرجان فيما اتفق عليه الشيخان إماما المحدثين البخاري ومسلم. أ.د. يسري جبر","category":"حديث"},{"id":"j4T1kyV5rLY","title":"132- بابٌ يسلم الراكب على الماشي والقليل على الكثير","publishedAt":"2020-09-15T14:46:43Z","duration":"PT23M38S","thumbnail":"https://i.ytimg.com/vi/j4T1kyV5rLY/mqdefault.jpg","viewCount":"717","playlistId":"PLEkQk5xrP-tmKNjtYLfhATC37QdIsTMe0","playlistName":"شرح كتاب اللؤلؤ والمرجان فيما اتفق عليه الشيخان إماما المحدثين البخاري ومسلم. أ.د. يسري جبر","category":"حديث"},{"id":"vNRtNmkF6Vs","title":"126- استحباب إدارة الماء واللبن ونحوهما عن يمين المبتدي","publishedAt":"2020-09-06T05:02:30Z","duration":"PT21M52S","thumbnail":"https://i.ytimg.com/vi/vNRtNmkF6Vs/mqdefault.jpg","viewCount":"715","playlistId":"PLEkQk5xrP-tmKNjtYLfhATC37QdIsTMe0","playlistName":"شرح كتاب اللؤلؤ والمرجان فيما اتفق عليه الشيخان إماما المحدثين البخاري ومسلم. أ.د. يسري جبر","category":"حديث"},{"id":"uJbFffVV7Vw","title":"38- شرح اللؤلؤ والمرجان كتاب الصلاة المسافرين وقصرها من أوله","publishedAt":"2020-01-18T11:25:31Z","duration":"PT37M49S","thumbnail":"https://i.ytimg.com/vi/uJbFffVV7Vw/mqdefault.jpg","viewCount":"710","playlistId":"PLEkQk5xrP-tmKNjtYLfhATC37QdIsTMe0","playlistName":"شرح كتاب اللؤلؤ والمرجان فيما اتفق عليه الشيخان إماما المحدثين البخاري ومسلم. أ.د. يسري جبر","category":"حديث"},{"id":"j0UBv3yvRxM","title":"32- شرح اللؤلؤ والمرجان كتاب المساجد ومواضع الصلاة من باب ١٩","publishedAt":"2020-01-15T09:59:04Z","duration":"PT38M16S","thumbnail":"https://i.ytimg.com/vi/j0UBv3yvRxM/mqdefault.jpg","viewCount":"708","playlistId":"PLEkQk5xrP-tmKNjtYLfhATC37QdIsTMe0","playlistName":"شرح كتاب اللؤلؤ والمرجان فيما اتفق عليه الشيخان إماما المحدثين البخاري ومسلم. أ.د. يسري جبر","category":"حديث"},{"id":"z4xrd6GEgzY","title":"114- شرح اللؤلؤ والمرجان كتاب الجهاد من الباب الرابع والثلاثين","publishedAt":"2020-04-04T07:00:17Z","duration":"PT35M16S","thumbnail":"https://i.ytimg.com/vi/z4xrd6GEgzY/mqdefault.jpg","viewCount":"693","playlistId":"PLEkQk5xrP-tmKNjtYLfhATC37QdIsTMe0","playlistName":"شرح كتاب اللؤلؤ والمرجان فيما اتفق عليه الشيخان إماما المحدثين البخاري ومسلم. أ.د. يسري جبر","category":"حديث"},{"id":"TcL6cJpBDqA","title":"28- شرح اللؤلؤ والمرجان كتاب الصلاة من باب ٣٧","publishedAt":"2020-01-13T08:37:11Z","duration":"PT29M31S","thumbnail":"https://i.ytimg.com/vi/TcL6cJpBDqA/mqdefault.jpg","viewCount":"692","playlistId":"PLEkQk5xrP-tmKNjtYLfhATC37QdIsTMe0","playlistName":"شرح كتاب اللؤلؤ والمرجان فيما اتفق عليه الشيخان إماما المحدثين البخاري ومسلم. أ.د. يسري جبر","category":"حديث"},{"id":"DlayEPhLoMM","title":"157- فضائل جرير بن عبد الله رضي الله عنه","publishedAt":"2020-10-29T05:54:52Z","duration":"PT31M46S","thumbnail":"https://i.ytimg.com/vi/DlayEPhLoMM/mqdefault.jpg","viewCount":"686","playlistId":"PLEkQk5xrP-tmKNjtYLfhATC37QdIsTMe0","playlistName":"شرح كتاب اللؤلؤ والمرجان فيما اتفق عليه الشيخان إماما المحدثين البخاري ومسلم. أ.د. يسري جبر","category":"حديث"},{"id":"v0fg63BA_-k","title":"52- شرح اللؤلؤ والمرجان كتاب الزكاة من أوله","publishedAt":"2020-02-01T07:00:05Z","duration":"PT34M51S","thumbnail":"https://i.ytimg.com/vi/v0fg63BA_-k/mqdefault.jpg","viewCount":"677","playlistId":"PLEkQk5xrP-tmKNjtYLfhATC37QdIsTMe0","playlistName":"شرح كتاب اللؤلؤ والمرجان فيما اتفق عليه الشيخان إماما المحدثين البخاري ومسلم. أ.د. يسري جبر","category":"حديث"}],"total":192,"page":4,"pageSize":24,"totalPages":8}