{"items":[{"id":"2keSnqhuxWg","title":"24- صلاةُ الكسوف والخسوف","publishedAt":"2021-10-16T11:21:11Z","duration":"PT1H7M47S","thumbnail":"https://i.ytimg.com/vi/2keSnqhuxWg/mqdefault.jpg","viewCount":"680","playlistId":"PLEkQk5xrP-tkXuPs-0sXfWQDWzBKmcjWN","playlistName":"\"فتح القريب المجيب في شرح ألفاظ التقريب\"( فقه شافعيّ)  أ. د. يسري جبر","category":"فقه"},{"id":"hotUJ4071Pg","title":"23- صلاة العيدين - شرح كتاب فتح القريب المجيب","publishedAt":"2021-10-15T14:19:53Z","duration":"PT50M30S","thumbnail":"https://i.ytimg.com/vi/hotUJ4071Pg/mqdefault.jpg","viewCount":"763","playlistId":"PLEkQk5xrP-tkXuPs-0sXfWQDWzBKmcjWN","playlistName":"\"فتح القريب المجيب في شرح ألفاظ التقريب\"( فقه شافعيّ)  أ. د. يسري جبر","category":"فقه"},{"id":"sFFqWm9aK7Y","title":"22- أحكام صلاة الجمعة - شرح كتاب فتح القريب المجيب","publishedAt":"2021-10-14T10:41:24Z","duration":"PT1H26M36S","thumbnail":"https://i.ytimg.com/vi/sFFqWm9aK7Y/mqdefault.jpg","viewCount":"1056","playlistId":"PLEkQk5xrP-tkXuPs-0sXfWQDWzBKmcjWN","playlistName":"\"فتح القريب المجيب في شرح ألفاظ التقريب\"( فقه شافعيّ)  أ. د. يسري جبر","category":"فقه"},{"id":"50eTflHCQf4","title":"شرح مسند الإمام محمد بن إدريس الشافعيّ رضي الله تعالى عنه - المجلس السابع  أ.د. يسري جبر","publishedAt":"2019-12-22T12:00:12Z","duration":"PT51M56S","thumbnail":"https://i.ytimg.com/vi/50eTflHCQf4/mqdefault.jpg","viewCount":"991","playlistId":"PLEkQk5xrP-tlDtaqY0qhNXAiZ19gaGzKI","playlistName":"شرح مسند الإمام محمد بن إدريس الشافعيّ رضي الله تعالى عنه","category":"فقه"},{"id":"TkWfgE7FW7c","title":"64- أحكام الرَّضَاع - شرح مسند الإمام الشافعي رضي الله عنه","publishedAt":"2023-01-10T09:00:13Z","duration":"PT43M1S","thumbnail":"https://i.ytimg.com/vi/TkWfgE7FW7c/mqdefault.jpg","viewCount":"620","playlistId":"PLEkQk5xrP-tlDtaqY0qhNXAiZ19gaGzKI","playlistName":"شرح مسند الإمام محمد بن إدريس الشافعيّ رضي الله تعالى عنه","category":"فقه"},{"id":"jCXZS_fngBo","title":"21- باب قصر الصلاة وجمعها - شرح كتاب فتح القريب المجيب","publishedAt":"2021-10-13T10:57:05Z","duration":"PT1H5M52S","thumbnail":"https://i.ytimg.com/vi/jCXZS_fngBo/mqdefault.jpg","viewCount":"1436","playlistId":"PLEkQk5xrP-tkXuPs-0sXfWQDWzBKmcjWN","playlistName":"\"فتح القريب المجيب في شرح ألفاظ التقريب\"( فقه شافعيّ)  أ. د. يسري جبر","category":"فقه"},{"id":"uMJZndErreU","title":"20- الأوقاتُ التى تُكْرَهُ الصلاة فيها - شرح كتاب فتح القريب المجيب","publishedAt":"2021-10-12T11:15:38Z","duration":"PT1H31M45S","thumbnail":"https://i.ytimg.com/vi/uMJZndErreU/mqdefault.jpg","viewCount":"1301","playlistId":"PLEkQk5xrP-tkXuPs-0sXfWQDWzBKmcjWN","playlistName":"\"فتح القريب المجيب في شرح ألفاظ التقريب\"( فقه شافعيّ)  أ. د. يسري جبر","category":"فقه"},{"id":"-2z3z0NGHu8","title":"19- تابع ركعات الفرائض  - شرح كتاب فتح القريب المجيب","publishedAt":"2021-10-11T10:53:16Z","duration":"PT1H15M7S","thumbnail":"https://i.ytimg.com/vi/-2z3z0NGHu8/mqdefault.jpg","viewCount":"1208","playlistId":"PLEkQk5xrP-tkXuPs-0sXfWQDWzBKmcjWN","playlistName":"\"فتح القريب المجيب في شرح ألفاظ التقريب\"( فقه شافعيّ)  أ. د. يسري جبر","category":"فقه"},{"id":"eWG58bNAYZQ","title":"18- فصلٌ في أمور تخالفُ فيها المرأةُ الرجلَ في الصلاة - شرح كتاب فتح القريب المجيب","publishedAt":"2021-10-10T10:47:12Z","duration":"PT1H1M57S","thumbnail":"https://i.ytimg.com/vi/eWG58bNAYZQ/mqdefault.jpg","viewCount":"1291","playlistId":"PLEkQk5xrP-tkXuPs-0sXfWQDWzBKmcjWN","playlistName":"\"فتح القريب المجيب في شرح ألفاظ التقريب\"( فقه شافعيّ)  أ. د. يسري جبر","category":"فقه"},{"id":"8S8bwLVYqpw","title":"16- أركان الصلاة - شرح كتاب فتح القريب المجيب","publishedAt":"2021-10-08T11:12:11Z","duration":"PT1H6M5S","thumbnail":"https://i.ytimg.com/vi/8S8bwLVYqpw/mqdefault.jpg","viewCount":"1303","playlistId":"PLEkQk5xrP-tkXuPs-0sXfWQDWzBKmcjWN","playlistName":"\"فتح القريب المجيب في شرح ألفاظ التقريب\"( فقه شافعيّ)  أ. د. يسري جبر","category":"فقه"},{"id":"iKiN_MJ181I","title":"24- من كتاب المناسك - شرح مسند الإمام الشافعيّ رضي الله عنه - الحديث (516)","publishedAt":"2021-10-08T06:16:40Z","duration":"PT1H1M29S","thumbnail":"https://i.ytimg.com/vi/iKiN_MJ181I/mqdefault.jpg","viewCount":"753","playlistId":"PLEkQk5xrP-tlDtaqY0qhNXAiZ19gaGzKI","playlistName":"شرح مسند الإمام محمد بن إدريس الشافعيّ رضي الله تعالى عنه","category":"فقه"},{"id":"0VIAeWvvE5I","title":"15-  شرائط الصلاة قبل الدخول فيها خمسة أشياء - شرح فتح القريب المجيب","publishedAt":"2021-10-06T10:33:38Z","duration":"PT1H7M1S","thumbnail":"https://i.ytimg.com/vi/0VIAeWvvE5I/mqdefault.jpg","viewCount":"1334","playlistId":"PLEkQk5xrP-tkXuPs-0sXfWQDWzBKmcjWN","playlistName":"\"فتح القريب المجيب في شرح ألفاظ التقريب\"( فقه شافعيّ)  أ. د. يسري جبر","category":"فقه"},{"id":"0VP6XUZjPhY","title":"14- شرائط وجوب الصلاة - شرح فتح القريب المجيب","publishedAt":"2021-10-05T11:50:06Z","duration":"PT1H7M30S","thumbnail":"https://i.ytimg.com/vi/0VP6XUZjPhY/mqdefault.jpg","viewCount":"1178","playlistId":"PLEkQk5xrP-tkXuPs-0sXfWQDWzBKmcjWN","playlistName":"\"فتح القريب المجيب في شرح ألفاظ التقريب\"( فقه شافعيّ)  أ. د. يسري جبر","category":"فقه"},{"id":"YgdrH7bLAZI","title":"17- سنن الصلاة بعد الدخول فيها - شرح كتاب فتح القريب المجيب","publishedAt":"2021-10-09T11:18:31Z","duration":"PT1H14M13S","thumbnail":"https://i.ytimg.com/vi/YgdrH7bLAZI/mqdefault.jpg","viewCount":"1414","playlistId":"PLEkQk5xrP-tkXuPs-0sXfWQDWzBKmcjWN","playlistName":"\"فتح القريب المجيب في شرح ألفاظ التقريب\"( فقه شافعيّ)  أ. د. يسري جبر","category":"فقه"},{"id":"f_VyZqd8TUM","title":"25- حُكْمُ مَن جَاوزَ المواقيت غير مُحْرِم - من كتاب المناسك - شرح مسند الإمام الشافعيّ رضي الله عنه","publishedAt":"2021-10-09T06:31:49Z","duration":"PT1H1M50S","thumbnail":"https://i.ytimg.com/vi/f_VyZqd8TUM/mqdefault.jpg","viewCount":"754","playlistId":"PLEkQk5xrP-tlDtaqY0qhNXAiZ19gaGzKI","playlistName":"شرح مسند الإمام محمد بن إدريس الشافعيّ رضي الله تعالى عنه","category":"فقه"},{"id":"sfxD4znWUFM","title":"شرح فتح القريب المجيب  «سنن الوضوء» د. يسري جبر","publishedAt":"2014-09-12T20:26:12Z","duration":"PT1H1M26S","thumbnail":"https://i.ytimg.com/vi/sfxD4znWUFM/mqdefault.jpg","viewCount":"2692","playlistId":"PLEkQk5xrP-tlyOgfNBZTZgoATzVW4mI20","playlistName":"كتاب فتح القريب المجيب (علم الفقه الشافعي)","category":"فقه"},{"id":"QtYwmmUSD4M","title":"شرح كتاب فتح القريب المجيب كتاب أحكام الصيام د. يسري رشدي جبر","publishedAt":"2016-01-15T12:10:16Z","duration":"PT28M37S","thumbnail":"https://i.ytimg.com/vi/QtYwmmUSD4M/mqdefault.jpg","viewCount":"1964","playlistId":"PLEkQk5xrP-tlyOgfNBZTZgoATzVW4mI20","playlistName":"كتاب فتح القريب المجيب (علم الفقه الشافعي)","category":"فقه"},{"id":"UCwuM4av7l4","title":"مقدمة شرح كتاب فتح القريب المجيب - فقه شافعي","publishedAt":"2013-11-17T12:43:06Z","duration":"PT1H34M9S","thumbnail":"https://i.ytimg.com/vi/UCwuM4av7l4/mqdefault.jpg","viewCount":"23268","playlistId":"PLEkQk5xrP-tlyOgfNBZTZgoATzVW4mI20","playlistName":"كتاب فتح القريب المجيب (علم الفقه الشافعي)","category":"فقه"},{"id":"EYSCSpihdEM","title":"شرح كتاب فتح القريب المجيب «سنن الصلاة بعد الدخول فيها» د. يسري رشدي جبر","publishedAt":"2015-04-14T10:25:20Z","duration":"PT1H14M13S","thumbnail":"https://i.ytimg.com/vi/EYSCSpihdEM/mqdefault.jpg","viewCount":"2257","playlistId":"PLEkQk5xrP-tlyOgfNBZTZgoATzVW4mI20","playlistName":"كتاب فتح القريب المجيب (علم الفقه الشافعي)","category":"فقه"},{"id":"RUj1ShkWqUQ","title":"شرح كتاب فتح القريب المجيب فصل في «أركان الصلاة» د. يسري رشدي جبر","publishedAt":"2015-03-30T22:03:37Z","duration":"PT1H6M5S","thumbnail":"https://i.ytimg.com/vi/RUj1ShkWqUQ/mqdefault.jpg","viewCount":"2721","playlistId":"PLEkQk5xrP-tlyOgfNBZTZgoATzVW4mI20","playlistName":"كتاب فتح القريب المجيب (علم الفقه الشافعي)","category":"فقه"},{"id":"7YyfOSc_Jfc","title":"شرح مسند الإمام محمد بن إدريس الشافعيّ رضي الله تعالى عنه - المجلس العاشر  أ.د. يسري جبر","publishedAt":"2020-01-19T14:45:17Z","duration":"PT54M12S","thumbnail":"https://i.ytimg.com/vi/7YyfOSc_Jfc/mqdefault.jpg","viewCount":"827","playlistId":"PLEkQk5xrP-tlDtaqY0qhNXAiZ19gaGzKI","playlistName":"شرح مسند الإمام محمد بن إدريس الشافعيّ رضي الله تعالى عنه","category":"فقه"},{"id":"z-d-aDtPwn0","title":"شرح مسند الإمام محمد بن إدريس الشافعيّ رضي الله تعالى عنه - المجلس الحادي عشر  أ.د. يسري جبر","publishedAt":"2020-01-25T18:44:59Z","duration":"PT50M54S","thumbnail":"https://i.ytimg.com/vi/z-d-aDtPwn0/mqdefault.jpg","viewCount":"750","playlistId":"PLEkQk5xrP-tlDtaqY0qhNXAiZ19gaGzKI","playlistName":"شرح مسند الإمام محمد بن إدريس الشافعيّ رضي الله تعالى عنه","category":"فقه"},{"id":"LkYSwnPt1IE","title":"42- حَجْرُ السَّفِيهِ والمُفْلِس","publishedAt":"2022-03-27T05:54:17Z","duration":"PT47M3S","thumbnail":"https://i.ytimg.com/vi/LkYSwnPt1IE/mqdefault.jpg","viewCount":"2082","playlistId":"PLEkQk5xrP-tkXuPs-0sXfWQDWzBKmcjWN","playlistName":"\"فتح القريب المجيب في شرح ألفاظ التقريب\"( فقه شافعيّ)  أ. د. يسري جبر","category":"فقه"},{"id":"jLHSxsszVmA","title":"10- فصل فى التَّيمُّم - شرح كتاب فتح القريب المجيب","publishedAt":"2021-10-01T03:40:21Z","duration":"PT1H24M3S","thumbnail":"https://i.ytimg.com/vi/jLHSxsszVmA/mqdefault.jpg","viewCount":"1347","playlistId":"PLEkQk5xrP-tkXuPs-0sXfWQDWzBKmcjWN","playlistName":"\"فتح القريب المجيب في شرح ألفاظ التقريب\"( فقه شافعيّ)  أ. د. يسري جبر","category":"فقه"}],"total":144,"page":5,"pageSize":24,"totalPages":6}