{"items":[{"id":"hotUJ4071Pg","title":"23- صلاة العيدين - شرح كتاب فتح القريب المجيب","publishedAt":"2021-10-15T14:19:53Z","duration":"PT50M30S","thumbnail":"https://i.ytimg.com/vi/hotUJ4071Pg/mqdefault.jpg","viewCount":"763","playlistId":"PLEkQk5xrP-tkXuPs-0sXfWQDWzBKmcjWN","playlistName":"\"فتح القريب المجيب في شرح ألفاظ التقريب\"( فقه شافعيّ)  أ. د. يسري جبر","category":"فقه"},{"id":"sFFqWm9aK7Y","title":"22- أحكام صلاة الجمعة - شرح كتاب فتح القريب المجيب","publishedAt":"2021-10-14T10:41:24Z","duration":"PT1H26M36S","thumbnail":"https://i.ytimg.com/vi/sFFqWm9aK7Y/mqdefault.jpg","viewCount":"1056","playlistId":"PLEkQk5xrP-tkXuPs-0sXfWQDWzBKmcjWN","playlistName":"\"فتح القريب المجيب في شرح ألفاظ التقريب\"( فقه شافعيّ)  أ. د. يسري جبر","category":"فقه"},{"id":"50eTflHCQf4","title":"شرح مسند الإمام محمد بن إدريس الشافعيّ رضي الله تعالى عنه - المجلس السابع  أ.د. يسري جبر","publishedAt":"2019-12-22T12:00:12Z","duration":"PT51M56S","thumbnail":"https://i.ytimg.com/vi/50eTflHCQf4/mqdefault.jpg","viewCount":"991","playlistId":"PLEkQk5xrP-tlDtaqY0qhNXAiZ19gaGzKI","playlistName":"شرح مسند الإمام محمد بن إدريس الشافعيّ رضي الله تعالى عنه","category":"فقه"},{"id":"0ODQpq7cIiw","title":"40- حُكْمُ بَيْعِ السَّلَمِ (السَّلَفِ)","publishedAt":"2022-03-11T06:00:09Z","duration":"PT55M31S","thumbnail":"https://i.ytimg.com/vi/0ODQpq7cIiw/mqdefault.jpg","viewCount":"1190","playlistId":"PLEkQk5xrP-tlDtaqY0qhNXAiZ19gaGzKI","playlistName":"شرح مسند الإمام محمد بن إدريس الشافعيّ رضي الله تعالى عنه","category":"فقه"},{"id":"jKCXioiEOFk","title":"39- حُكْمُ الصَّيْدِ لِلْمُحْرِمِ","publishedAt":"2022-03-09T03:46:01Z","duration":"PT50M41S","thumbnail":"https://i.ytimg.com/vi/jKCXioiEOFk/mqdefault.jpg","viewCount":"584","playlistId":"PLEkQk5xrP-tlDtaqY0qhNXAiZ19gaGzKI","playlistName":"شرح مسند الإمام محمد بن إدريس الشافعيّ رضي الله تعالى عنه","category":"فقه"},{"id":"mwYro_Qlg4g","title":"38- أَنْوَاعُ الرِّبَا","publishedAt":"2022-03-07T06:21:29Z","duration":"PT57M24S","thumbnail":"https://i.ytimg.com/vi/mwYro_Qlg4g/mqdefault.jpg","viewCount":"2304","playlistId":"PLEkQk5xrP-tlDtaqY0qhNXAiZ19gaGzKI","playlistName":"شرح مسند الإمام محمد بن إدريس الشافعيّ رضي الله تعالى عنه","category":"فقه"},{"id":"1Fn1Ci45xi0","title":"29- نصاب الزروع - شرح كتاب فتح القريب المجيب","publishedAt":"2021-10-27T01:48:28Z","duration":"PT1H36M4S","thumbnail":"https://i.ytimg.com/vi/1Fn1Ci45xi0/mqdefault.jpg","viewCount":"847","playlistId":"PLEkQk5xrP-tkXuPs-0sXfWQDWzBKmcjWN","playlistName":"\"فتح القريب المجيب في شرح ألفاظ التقريب\"( فقه شافعيّ)  أ. د. يسري جبر","category":"فقه"},{"id":"rDsNDmsKEZo","title":"48- كيف نفهم معنى(رضاع الكبير)؟","publishedAt":"2022-09-12T07:15:02Z","duration":"PT1H2M55S","thumbnail":"https://i.ytimg.com/vi/rDsNDmsKEZo/mqdefault.jpg","viewCount":"1582","playlistId":"PLEkQk5xrP-tlDtaqY0qhNXAiZ19gaGzKI","playlistName":"شرح مسند الإمام محمد بن إدريس الشافعيّ رضي الله تعالى عنه","category":"فقه"},{"id":"rXO8QeAFDLc","title":"شرح كتاب فتح القريب المجيب «فصل صلاة العيدين» د. يسري رشدي جبر","publishedAt":"2015-09-08T23:36:57Z","duration":"PT50M30S","thumbnail":"https://i.ytimg.com/vi/rXO8QeAFDLc/mqdefault.jpg","viewCount":"1160","playlistId":"PLEkQk5xrP-tlyOgfNBZTZgoATzVW4mI20","playlistName":"كتاب فتح القريب المجيب (علم الفقه الشافعي)","category":"فقه"},{"id":"O4jyin34pgM","title":"58- أحكامُ الزَّواج والتَّعدُّد - شرح مسند الإمام الشافعي رضي الله عنه","publishedAt":"2022-11-10T09:00:13Z","duration":"PT36M52S","thumbnail":"https://i.ytimg.com/vi/O4jyin34pgM/mqdefault.jpg","viewCount":"1117","playlistId":"PLEkQk5xrP-tlDtaqY0qhNXAiZ19gaGzKI","playlistName":"شرح مسند الإمام محمد بن إدريس الشافعيّ رضي الله تعالى عنه","category":"فقه"},{"id":"zNNfI4tmz-M","title":"57- الوَلاءُ لمن أعتق - شرح مسند الإمام الشافعي رضي الله عنه","publishedAt":"2022-11-07T09:00:35Z","duration":"PT58M36S","thumbnail":"https://i.ytimg.com/vi/zNNfI4tmz-M/mqdefault.jpg","viewCount":"604","playlistId":"PLEkQk5xrP-tlDtaqY0qhNXAiZ19gaGzKI","playlistName":"شرح مسند الإمام محمد بن إدريس الشافعيّ رضي الله تعالى عنه","category":"فقه"},{"id":"a83_n2r7cVs","title":"31- نواقض الصيام - شرح كتاب فتح القريب المجيب","publishedAt":"2021-10-31T03:12:09Z","duration":"PT1H22M21S","thumbnail":"https://i.ytimg.com/vi/a83_n2r7cVs/mqdefault.jpg","viewCount":"884","playlistId":"PLEkQk5xrP-tkXuPs-0sXfWQDWzBKmcjWN","playlistName":"\"فتح القريب المجيب في شرح ألفاظ التقريب\"( فقه شافعيّ)  أ. د. يسري جبر","category":"فقه"},{"id":"2yeLoSrVRy4","title":"21- من كتاب الزكاة من أوله إلا ما كان معادا - الحديث (434)","publishedAt":"2021-09-18T03:20:37Z","duration":"PT54M53S","thumbnail":"https://i.ytimg.com/vi/2yeLoSrVRy4/mqdefault.jpg","viewCount":"563","playlistId":"PLEkQk5xrP-tlDtaqY0qhNXAiZ19gaGzKI","playlistName":"شرح مسند الإمام محمد بن إدريس الشافعيّ رضي الله تعالى عنه","category":"فقه"},{"id":"voqzrF5N9RI","title":"18- \"ليس السَّنَةُ بأنْ لا تُمطَروا…\" - شرح مسند الإمام الشافعي رضي الله عنه","publishedAt":"2021-08-22T06:07:28Z","duration":"PT52M43S","thumbnail":"https://i.ytimg.com/vi/voqzrF5N9RI/mqdefault.jpg","viewCount":"2638","playlistId":"PLEkQk5xrP-tlDtaqY0qhNXAiZ19gaGzKI","playlistName":"شرح مسند الإمام محمد بن إدريس الشافعيّ رضي الله تعالى عنه","category":"فقه"},{"id":"UCwuM4av7l4","title":"مقدمة شرح كتاب فتح القريب المجيب - فقه شافعي","publishedAt":"2013-11-17T12:43:06Z","duration":"PT1H34M9S","thumbnail":"https://i.ytimg.com/vi/UCwuM4av7l4/mqdefault.jpg","viewCount":"23268","playlistId":"PLEkQk5xrP-tlyOgfNBZTZgoATzVW4mI20","playlistName":"كتاب فتح القريب المجيب (علم الفقه الشافعي)","category":"فقه"},{"id":"XDIyKh7jElY","title":"شرح فتح القريب المجيب كتاب أحكام الأقضية والشهادات - المجلس الثاني","publishedAt":"2017-02-24T09:43:51Z","duration":"PT23M43S","thumbnail":"https://i.ytimg.com/vi/XDIyKh7jElY/mqdefault.jpg","viewCount":"642","playlistId":"PLEkQk5xrP-tlyOgfNBZTZgoATzVW4mI20","playlistName":"كتاب فتح القريب المجيب (علم الفقه الشافعي)","category":"فقه"},{"id":"SCaeqWVIC4E","title":"30- أحكام الصيام - شرح كتاب فتح القريب المجيب","publishedAt":"2021-10-30T02:51:37Z","duration":"PT28M37S","thumbnail":"https://i.ytimg.com/vi/SCaeqWVIC4E/mqdefault.jpg","viewCount":"700","playlistId":"PLEkQk5xrP-tkXuPs-0sXfWQDWzBKmcjWN","playlistName":"\"فتح القريب المجيب في شرح ألفاظ التقريب\"( فقه شافعيّ)  أ. د. يسري جبر","category":"فقه"},{"id":"EYSCSpihdEM","title":"شرح كتاب فتح القريب المجيب «سنن الصلاة بعد الدخول فيها» د. يسري رشدي جبر","publishedAt":"2015-04-14T10:25:20Z","duration":"PT1H14M13S","thumbnail":"https://i.ytimg.com/vi/EYSCSpihdEM/mqdefault.jpg","viewCount":"2257","playlistId":"PLEkQk5xrP-tlyOgfNBZTZgoATzVW4mI20","playlistName":"كتاب فتح القريب المجيب (علم الفقه الشافعي)","category":"فقه"},{"id":"RUj1ShkWqUQ","title":"شرح كتاب فتح القريب المجيب فصل في «أركان الصلاة» د. يسري رشدي جبر","publishedAt":"2015-03-30T22:03:37Z","duration":"PT1H6M5S","thumbnail":"https://i.ytimg.com/vi/RUj1ShkWqUQ/mqdefault.jpg","viewCount":"2721","playlistId":"PLEkQk5xrP-tlyOgfNBZTZgoATzVW4mI20","playlistName":"كتاب فتح القريب المجيب (علم الفقه الشافعي)","category":"فقه"},{"id":"OZS75wFCNwU","title":"17- الأحاديث الواردة في صلاة الكسوف - شرح مسند الإمام الشافعي المجلس 17","publishedAt":"2021-08-16T05:39:09Z","duration":"PT53M21S","thumbnail":"https://i.ytimg.com/vi/OZS75wFCNwU/mqdefault.jpg","viewCount":"952","playlistId":"PLEkQk5xrP-tlDtaqY0qhNXAiZ19gaGzKI","playlistName":"شرح مسند الإمام محمد بن إدريس الشافعيّ رضي الله تعالى عنه","category":"فقه"},{"id":"-2z3z0NGHu8","title":"19- تابع ركعات الفرائض  - شرح كتاب فتح القريب المجيب","publishedAt":"2021-10-11T10:53:16Z","duration":"PT1H15M7S","thumbnail":"https://i.ytimg.com/vi/-2z3z0NGHu8/mqdefault.jpg","viewCount":"1208","playlistId":"PLEkQk5xrP-tkXuPs-0sXfWQDWzBKmcjWN","playlistName":"\"فتح القريب المجيب في شرح ألفاظ التقريب\"( فقه شافعيّ)  أ. د. يسري جبر","category":"فقه"},{"id":"eWG58bNAYZQ","title":"18- فصلٌ في أمور تخالفُ فيها المرأةُ الرجلَ في الصلاة - شرح كتاب فتح القريب المجيب","publishedAt":"2021-10-10T10:47:12Z","duration":"PT1H1M57S","thumbnail":"https://i.ytimg.com/vi/eWG58bNAYZQ/mqdefault.jpg","viewCount":"1291","playlistId":"PLEkQk5xrP-tkXuPs-0sXfWQDWzBKmcjWN","playlistName":"\"فتح القريب المجيب في شرح ألفاظ التقريب\"( فقه شافعيّ)  أ. د. يسري جبر","category":"فقه"},{"id":"WD_93I3UTC4","title":"شرح مسند الإمام محمد بن إدريس الشافعيّ رضي الله تعالى عنه - المجلس الرابع عشر  أ.د. يسري جبر","publishedAt":"2020-02-17T10:29:44Z","duration":"PT48M37S","thumbnail":"https://i.ytimg.com/vi/WD_93I3UTC4/mqdefault.jpg","viewCount":"563","playlistId":"PLEkQk5xrP-tlDtaqY0qhNXAiZ19gaGzKI","playlistName":"شرح مسند الإمام محمد بن إدريس الشافعيّ رضي الله تعالى عنه","category":"فقه"},{"id":"pmqARGJXYqA","title":"شرح كتاب فتح القريب المجيب «تابع ركعات الفرائض» د. يسري رشدي جبر","publishedAt":"2015-05-05T20:44:27Z","duration":"PT1H15M7S","thumbnail":"https://i.ytimg.com/vi/pmqARGJXYqA/mqdefault.jpg","viewCount":"1728","playlistId":"PLEkQk5xrP-tlyOgfNBZTZgoATzVW4mI20","playlistName":"كتاب فتح القريب المجيب (علم الفقه الشافعي)","category":"فقه"}],"total":144,"page":2,"pageSize":24,"totalPages":6}