{"items":[{"id":"ZQWDwaaT6z8","title":"36 - \"لا يَخْلُوَنَّ رَجُلٌ بامْرَأَةٍ، ولا يَحلُّ  لامْرَأةٍ أن تُسَافِرِ إلَّا ومعها ذو مَحْرَمٍ…\"","publishedAt":"2022-02-18T21:00:06Z","duration":"PT1H11M27S","thumbnail":"https://i.ytimg.com/vi/ZQWDwaaT6z8/mqdefault.jpg","viewCount":"2049","playlistId":"PLEkQk5xrP-tlDtaqY0qhNXAiZ19gaGzKI","playlistName":"شرح مسند الإمام محمد بن إدريس الشافعيّ رضي الله تعالى عنه","category":"فقه"},{"id":"qEsZYhfcwRc","title":"35 - أوقاتُ الكَراهة","publishedAt":"2022-02-17T07:27:16Z","duration":"PT1H1M55S","thumbnail":"https://i.ytimg.com/vi/qEsZYhfcwRc/mqdefault.jpg","viewCount":"2256","playlistId":"PLEkQk5xrP-tlDtaqY0qhNXAiZ19gaGzKI","playlistName":"شرح مسند الإمام محمد بن إدريس الشافعيّ رضي الله تعالى عنه","category":"فقه"},{"id":"qlqkesUuGNc","title":"34- فضائل يوم عاشوراء","publishedAt":"2022-02-14T08:16:09Z","duration":"PT57M37S","thumbnail":"https://i.ytimg.com/vi/qlqkesUuGNc/mqdefault.jpg","viewCount":"1101","playlistId":"PLEkQk5xrP-tlDtaqY0qhNXAiZ19gaGzKI","playlistName":"شرح مسند الإمام محمد بن إدريس الشافعيّ رضي الله تعالى عنه","category":"فقه"},{"id":"RobRT7DUeGE","title":"36- الدماء الواجبة في الإحرام - شرح كتاب فتح القريب المجيب","publishedAt":"2021-07-15T19:00:13Z","duration":"PT46M44S","thumbnail":"https://i.ytimg.com/vi/RobRT7DUeGE/mqdefault.jpg","viewCount":"823","playlistId":"PLEkQk5xrP-tnXN9VywgB4qmBFO8geIZTV","playlistName":"أحكام الحج من كتاب فتح القريب المجيب","category":"فقه"},{"id":"Y-M8EUcWSdQ","title":"34- واجبات الحَجِّ - شرح كتاب فتح القريب المجيب","publishedAt":"2021-07-14T19:10:09Z","duration":"PT1H7M9S","thumbnail":"https://i.ytimg.com/vi/Y-M8EUcWSdQ/mqdefault.jpg","viewCount":"1113","playlistId":"PLEkQk5xrP-tnXN9VywgB4qmBFO8geIZTV","playlistName":"أحكام الحج من كتاب فتح القريب المجيب","category":"فقه"},{"id":"NFT2kGvK1w4","title":"35- محظورات الإحرام - شرح كتاب فتح القريب المجيب","publishedAt":"2021-07-13T19:00:04Z","duration":"PT1H32S","thumbnail":"https://i.ytimg.com/vi/NFT2kGvK1w4/mqdefault.jpg","viewCount":"966","playlistId":"PLEkQk5xrP-tnXN9VywgB4qmBFO8geIZTV","playlistName":"أحكام الحج من كتاب فتح القريب المجيب","category":"فقه"},{"id":"s9yiv0Tp9g0","title":"33- شرائط وُجُوب الحَجِّ - شرح كتاب فتح القريب المجيب","publishedAt":"2021-07-12T19:00:16Z","duration":"PT1H7S","thumbnail":"https://i.ytimg.com/vi/s9yiv0Tp9g0/mqdefault.jpg","viewCount":"1994","playlistId":"PLEkQk5xrP-tnXN9VywgB4qmBFO8geIZTV","playlistName":"أحكام الحج من كتاب فتح القريب المجيب","category":"فقه"},{"id":"kGYqQ1mWU-w","title":"31- حُكْمُ مَن اشترى الثمارَ قَبلَ بُدُوِّ صَلَاحِها - الحديث \"727” من كتاب البيوع والمعاملات.","publishedAt":"2022-01-05T07:30:14Z","duration":"PT39M59S","thumbnail":"https://i.ytimg.com/vi/kGYqQ1mWU-w/mqdefault.jpg","viewCount":"771","playlistId":"PLEkQk5xrP-tlDtaqY0qhNXAiZ19gaGzKI","playlistName":"شرح مسند الإمام محمد بن إدريس الشافعيّ رضي الله تعالى عنه","category":"فقه"},{"id":"Sk78Y2jLW-U","title":"30 - هل العبد من الأجناس الربوية؟ - الحديث 695 من كتاب البيوع والمعاملات.","publishedAt":"2022-01-03T08:39:25Z","duration":"PT53M22S","thumbnail":"https://i.ytimg.com/vi/Sk78Y2jLW-U/mqdefault.jpg","viewCount":"1412","playlistId":"PLEkQk5xrP-tlDtaqY0qhNXAiZ19gaGzKI","playlistName":"شرح مسند الإمام محمد بن إدريس الشافعيّ رضي الله تعالى عنه","category":"فقه"},{"id":"n_k4lJa1-pw","title":"29- عَقْدُ السَّلَم (بيَعُ السَّلَف)- الحديث (679) من أبواب المعاملات","publishedAt":"2022-01-01T07:43:46Z","duration":"PT45M30S","thumbnail":"https://i.ytimg.com/vi/n_k4lJa1-pw/mqdefault.jpg","viewCount":"951","playlistId":"PLEkQk5xrP-tlDtaqY0qhNXAiZ19gaGzKI","playlistName":"شرح مسند الإمام محمد بن إدريس الشافعيّ رضي الله تعالى عنه","category":"فقه"},{"id":"KtkBOn0IT4A","title":"28- \"…لَا تَقْتُلُوا الصَّيْدَ وَأَنتُمْ حُرُمٌ…\" - الحديث (649) كتاب المناسك","publishedAt":"2021-12-30T07:10:51Z","duration":"PT57M13S","thumbnail":"https://i.ytimg.com/vi/KtkBOn0IT4A/mqdefault.jpg","viewCount":"823","playlistId":"PLEkQk5xrP-tlDtaqY0qhNXAiZ19gaGzKI","playlistName":"شرح مسند الإمام محمد بن إدريس الشافعيّ رضي الله تعالى عنه","category":"فقه"},{"id":"XjXsSnRzhF8","title":"27- المسح على الرُّكْنِ اليَمَانِي والحَجَر - الحديث (614) كتاب المناسك","publishedAt":"2021-12-28T07:03:50Z","duration":"PT52M18S","thumbnail":"https://i.ytimg.com/vi/XjXsSnRzhF8/mqdefault.jpg","viewCount":"1483","playlistId":"PLEkQk5xrP-tlDtaqY0qhNXAiZ19gaGzKI","playlistName":"شرح مسند الإمام محمد بن إدريس الشافعيّ رضي الله تعالى عنه","category":"فقه"},{"id":"q8v_F6F5kA8","title":"كِتابُ العِيدين - شرح مسند الإمام الشافعي المجلس 16  أ.د. يسري جبر","publishedAt":"2020-04-26T12:27:54Z","duration":"PT56M38S","thumbnail":"https://i.ytimg.com/vi/q8v_F6F5kA8/mqdefault.jpg","viewCount":"804","playlistId":"PLEkQk5xrP-tlDtaqY0qhNXAiZ19gaGzKI","playlistName":"شرح مسند الإمام محمد بن إدريس الشافعيّ رضي الله تعالى عنه","category":"فقه"},{"id":"YQZCHTXVCgE","title":"شرح مسند الإمام محمد بن إدريس الشافعيّ رضي الله تعالى عنه - المجلس الخامس عشر  أ.د. يسري جبر","publishedAt":"2020-02-26T03:54:38Z","duration":"PT42M32S","thumbnail":"https://i.ytimg.com/vi/YQZCHTXVCgE/mqdefault.jpg","viewCount":"527","playlistId":"PLEkQk5xrP-tlDtaqY0qhNXAiZ19gaGzKI","playlistName":"شرح مسند الإمام محمد بن إدريس الشافعيّ رضي الله تعالى عنه","category":"فقه"},{"id":"WD_93I3UTC4","title":"شرح مسند الإمام محمد بن إدريس الشافعيّ رضي الله تعالى عنه - المجلس الرابع عشر  أ.د. يسري جبر","publishedAt":"2020-02-17T10:29:44Z","duration":"PT48M37S","thumbnail":"https://i.ytimg.com/vi/WD_93I3UTC4/mqdefault.jpg","viewCount":"563","playlistId":"PLEkQk5xrP-tlDtaqY0qhNXAiZ19gaGzKI","playlistName":"شرح مسند الإمام محمد بن إدريس الشافعيّ رضي الله تعالى عنه","category":"فقه"},{"id":"feK6ys36gMk","title":"شرح مسند الإمام محمد بن إدريس الشافعيّ رضي الله تعالى عنه - المجلس الثالث عشر  أ.د. يسري جبر","publishedAt":"2020-02-10T13:30:31Z","duration":"PT44M2S","thumbnail":"https://i.ytimg.com/vi/feK6ys36gMk/mqdefault.jpg","viewCount":"599","playlistId":"PLEkQk5xrP-tlDtaqY0qhNXAiZ19gaGzKI","playlistName":"شرح مسند الإمام محمد بن إدريس الشافعيّ رضي الله تعالى عنه","category":"فقه"},{"id":"_Y511U_2tEE","title":"شرح مسند الإمام محمد بن إدريس الشافعيّ رضي الله تعالى عنه - المجلس الثاني عشر  أ.د. يسري جبر","publishedAt":"2020-02-01T18:02:19Z","duration":"PT47M35S","thumbnail":"https://i.ytimg.com/vi/_Y511U_2tEE/mqdefault.jpg","viewCount":"770","playlistId":"PLEkQk5xrP-tlDtaqY0qhNXAiZ19gaGzKI","playlistName":"شرح مسند الإمام محمد بن إدريس الشافعيّ رضي الله تعالى عنه","category":"فقه"},{"id":"z-d-aDtPwn0","title":"شرح مسند الإمام محمد بن إدريس الشافعيّ رضي الله تعالى عنه - المجلس الحادي عشر  أ.د. يسري جبر","publishedAt":"2020-01-25T18:44:59Z","duration":"PT50M54S","thumbnail":"https://i.ytimg.com/vi/z-d-aDtPwn0/mqdefault.jpg","viewCount":"750","playlistId":"PLEkQk5xrP-tlDtaqY0qhNXAiZ19gaGzKI","playlistName":"شرح مسند الإمام محمد بن إدريس الشافعيّ رضي الله تعالى عنه","category":"فقه"},{"id":"7YyfOSc_Jfc","title":"شرح مسند الإمام محمد بن إدريس الشافعيّ رضي الله تعالى عنه - المجلس العاشر  أ.د. يسري جبر","publishedAt":"2020-01-19T14:45:17Z","duration":"PT54M12S","thumbnail":"https://i.ytimg.com/vi/7YyfOSc_Jfc/mqdefault.jpg","viewCount":"827","playlistId":"PLEkQk5xrP-tlDtaqY0qhNXAiZ19gaGzKI","playlistName":"شرح مسند الإمام محمد بن إدريس الشافعيّ رضي الله تعالى عنه","category":"فقه"},{"id":"ajGpkbm2eH0","title":"شرح مسند الإمام محمد بن إدريس الشافعيّ رضي الله تعالى عنه - المجلس التاسع  أ.د. يسري جبر","publishedAt":"2020-01-12T08:51:47Z","duration":"PT59M29S","thumbnail":"https://i.ytimg.com/vi/ajGpkbm2eH0/mqdefault.jpg","viewCount":"884","playlistId":"PLEkQk5xrP-tlDtaqY0qhNXAiZ19gaGzKI","playlistName":"شرح مسند الإمام محمد بن إدريس الشافعيّ رضي الله تعالى عنه","category":"فقه"},{"id":"Ytrh34bdOOg","title":"شرح مسند الإمام محمد بن إدريس الشافعيّ رضي الله تعالى عنه - المجلس الثامن  أ.د. يسري جبر","publishedAt":"2020-01-11T13:07:43Z","duration":"PT58M17S","thumbnail":"https://i.ytimg.com/vi/Ytrh34bdOOg/mqdefault.jpg","viewCount":"926","playlistId":"PLEkQk5xrP-tlDtaqY0qhNXAiZ19gaGzKI","playlistName":"شرح مسند الإمام محمد بن إدريس الشافعيّ رضي الله تعالى عنه","category":"فقه"},{"id":"50eTflHCQf4","title":"شرح مسند الإمام محمد بن إدريس الشافعيّ رضي الله تعالى عنه - المجلس السابع  أ.د. يسري جبر","publishedAt":"2019-12-22T12:00:12Z","duration":"PT51M56S","thumbnail":"https://i.ytimg.com/vi/50eTflHCQf4/mqdefault.jpg","viewCount":"991","playlistId":"PLEkQk5xrP-tlDtaqY0qhNXAiZ19gaGzKI","playlistName":"شرح مسند الإمام محمد بن إدريس الشافعيّ رضي الله تعالى عنه","category":"فقه"},{"id":"QC5974HEMJA","title":"6- شرح مسند الإمام محمد بن إدريس الشافعيّ رضي الله تعالى عنه - المجلس السادس  أ.د. يسري جبر","publishedAt":"2019-12-11T14:34:02Z","duration":"PT58M8S","thumbnail":"https://i.ytimg.com/vi/QC5974HEMJA/mqdefault.jpg","viewCount":"1266","playlistId":"PLEkQk5xrP-tlDtaqY0qhNXAiZ19gaGzKI","playlistName":"شرح مسند الإمام محمد بن إدريس الشافعيّ رضي الله تعالى عنه","category":"فقه"},{"id":"a0FMWMB15Iw","title":"شرح مسند الإمام محمد بن إدريس الشافعيّ رضي الله تعالى عنه - المجلس الخامس  أ.د. يسري جبر","publishedAt":"2019-12-04T18:40:46Z","duration":"PT48M25S","thumbnail":"https://i.ytimg.com/vi/a0FMWMB15Iw/mqdefault.jpg","viewCount":"1386","playlistId":"PLEkQk5xrP-tlDtaqY0qhNXAiZ19gaGzKI","playlistName":"شرح مسند الإمام محمد بن إدريس الشافعيّ رضي الله تعالى عنه","category":"فقه"}],"total":144,"page":3,"pageSize":24,"totalPages":6}