{"items":[{"id":"vjlOe0oCqBY","title":"251- الإطناب بالبدل - شرح الإتقان في علوم القرآن","publishedAt":"2024-08-15T06:30:18Z","duration":"PT43M55S","thumbnail":"https://i.ytimg.com/vi/vjlOe0oCqBY/mqdefault.jpg","viewCount":"484","playlistId":"PLEkQk5xrP-tlPw10KGJKagu7zm4Ry2Tge","playlistName":"شرح الإتقان في علوم القرآن","category":"تفسير"},{"id":"TIILTQu0YL8","title":"284- مناسبة الآيات والسور (3) - شرح الإتقان في علوم القرآن","publishedAt":"2025-02-22T07:00:27Z","duration":"PT24M33S","thumbnail":"https://i.ytimg.com/vi/TIILTQu0YL8/mqdefault.jpg","viewCount":"482","playlistId":"PLEkQk5xrP-tlPw10KGJKagu7zm4Ry2Tge","playlistName":"شرح الإتقان في علوم القرآن","category":"تفسير"},{"id":"86rdArhGnsI","title":"99- غريب القرآن (14) - شرح الإتقان في علوم القرآن","publishedAt":"2023-06-12T05:00:07Z","duration":"PT27M19S","thumbnail":"https://i.ytimg.com/vi/86rdArhGnsI/mqdefault.jpg","viewCount":"481","playlistId":"PLEkQk5xrP-tlPw10KGJKagu7zm4Ry2Tge","playlistName":"شرح الإتقان في علوم القرآن","category":"تفسير"},{"id":"JSYPWGXevyk","title":"179-  فائدة: فيما قُرئ بثلاثة أوجه \"الإعراب، أو  البناء، أو نحو ذلك\"(2)- شرح الإتقان في علوم القرآن","publishedAt":"2023-12-06T06:30:10Z","duration":"PT30M59S","thumbnail":"https://i.ytimg.com/vi/JSYPWGXevyk/mqdefault.jpg","viewCount":"477","playlistId":"PLEkQk5xrP-tlPw10KGJKagu7zm4Ry2Tge","playlistName":"شرح الإتقان في علوم القرآن","category":"تفسير"},{"id":"uKPv6tO82kk","title":"207- فروع منثورة تتعلق بالعموم والخصوص - شرح الإتقان في علوم القرآن","publishedAt":"2024-02-12T06:30:25Z","duration":"PT22M18S","thumbnail":"https://i.ytimg.com/vi/uKPv6tO82kk/mqdefault.jpg","viewCount":"474","playlistId":"PLEkQk5xrP-tlPw10KGJKagu7zm4Ry2Tge","playlistName":"شرح الإتقان في علوم القرآن","category":"تفسير"},{"id":"B7QG_ZLQu68","title":"158- معاني (لعلَّ - لمْ - لمَّا) - شرح الإتقان في علوم القرآن","publishedAt":"2023-10-08T05:30:20Z","duration":"PT21M11S","thumbnail":"https://i.ytimg.com/vi/B7QG_ZLQu68/mqdefault.jpg","viewCount":"474","playlistId":"PLEkQk5xrP-tlPw10KGJKagu7zm4Ry2Tge","playlistName":"شرح الإتقان في علوم القرآن","category":"تفسير"},{"id":"9HMwL0vHrN0","title":"120- معاني كلمة (إذًا) وإعراب ما بعدها - شرح الإتقان في علوم القرآن","publishedAt":"2023-07-07T05:00:08Z","duration":"PT18M15S","thumbnail":"https://i.ytimg.com/vi/9HMwL0vHrN0/mqdefault.jpg","viewCount":"467","playlistId":"PLEkQk5xrP-tlPw10KGJKagu7zm4Ry2Tge","playlistName":"شرح الإتقان في علوم القرآن","category":"تفسير"},{"id":"as0Moy_AV58","title":"94- غريب القرآن (9) - شرح الإتقان في علوم القرآن","publishedAt":"2023-06-06T05:00:01Z","duration":"PT25M9S","thumbnail":"https://i.ytimg.com/vi/as0Moy_AV58/mqdefault.jpg","viewCount":"466","playlistId":"PLEkQk5xrP-tlPw10KGJKagu7zm4Ry2Tge","playlistName":"شرح الإتقان في علوم القرآن","category":"تفسير"},{"id":"N5IeEwxjjdc","title":"312- أفضل القرآن وفاضله (2) - شرح الإتقان في علوم القرآن","publishedAt":"2025-11-06T05:30:11Z","duration":"PT27M26S","thumbnail":"https://i.ytimg.com/vi/N5IeEwxjjdc/mqdefault.jpg","viewCount":"460","playlistId":"PLEkQk5xrP-tlPw10KGJKagu7zm4Ry2Tge","playlistName":"شرح الإتقان في علوم القرآن","category":"تفسير"},{"id":"VIqAqDEXbN8","title":"92- غريب القرآن (7)  - شرح الإتقان في علوم القرآن","publishedAt":"2023-06-04T08:59:00Z","duration":"PT20M44S","thumbnail":"https://i.ytimg.com/vi/VIqAqDEXbN8/mqdefault.jpg","viewCount":"458","playlistId":"PLEkQk5xrP-tlPw10KGJKagu7zm4Ry2Tge","playlistName":"شرح الإتقان في علوم القرآن","category":"تفسير"},{"id":"c2C4MXxuoEY","title":"313- مفردات القرآن - شرح الإتقان في علوم القرآن","publishedAt":"2025-11-08T05:30:20Z","duration":"PT31M24S","thumbnail":"https://i.ytimg.com/vi/c2C4MXxuoEY/mqdefault.jpg","viewCount":"458","playlistId":"PLEkQk5xrP-tlPw10KGJKagu7zm4Ry2Tge","playlistName":"شرح الإتقان في علوم القرآن","category":"تفسير"},{"id":"Y7bCRw9vHUU","title":"273- صيغة المبالغة - شرح الإتقان في علوم القرآن","publishedAt":"2024-12-09T06:15:01Z","duration":"PT38M13S","thumbnail":"https://i.ytimg.com/vi/Y7bCRw9vHUU/mqdefault.jpg","viewCount":"455","playlistId":"PLEkQk5xrP-tlPw10KGJKagu7zm4Ry2Tge","playlistName":"شرح الإتقان في علوم القرآن","category":"تفسير"},{"id":"KtK1TNqgwVQ","title":"97- غريب القرآن (12) - شرح الإتقان في علوم القرآن","publishedAt":"2023-06-09T05:00:15Z","duration":"PT36M13S","thumbnail":"https://i.ytimg.com/vi/KtK1TNqgwVQ/mqdefault.jpg","viewCount":"451","playlistId":"PLEkQk5xrP-tlPw10KGJKagu7zm4Ry2Tge","playlistName":"شرح الإتقان في علوم القرآن","category":"تفسير"},{"id":"7JBGPJZWYkc","title":"261- الأمر - شرح الإتقان في علوم القرآن","publishedAt":"2024-10-27T06:00:04Z","duration":"PT18M47S","thumbnail":"https://i.ytimg.com/vi/7JBGPJZWYkc/mqdefault.jpg","viewCount":"450","playlistId":"PLEkQk5xrP-tlPw10KGJKagu7zm4Ry2Tge","playlistName":"شرح الإتقان في علوم القرآن","category":"تفسير"},{"id":"wK1mA-33F_I","title":"132- معاني (أَوْلَى - إِي - أَيّ) - شرح الإتقان في علوم القرآن","publishedAt":"2023-07-25T05:00:26Z","duration":"PT14M10S","thumbnail":"https://i.ytimg.com/vi/wK1mA-33F_I/mqdefault.jpg","viewCount":"448","playlistId":"PLEkQk5xrP-tlPw10KGJKagu7zm4Ry2Tge","playlistName":"شرح الإتقان في علوم القرآن","category":"تفسير"},{"id":"J8zQie_asK4","title":"258- نفي الاستطاعة - شرح الإتقان في علوم القرآن","publishedAt":"2024-10-13T06:00:16Z","duration":"PT19M37S","thumbnail":"https://i.ytimg.com/vi/J8zQie_asK4/mqdefault.jpg","viewCount":"443","playlistId":"PLEkQk5xrP-tlPw10KGJKagu7zm4Ry2Tge","playlistName":"شرح الإتقان في علوم القرآن","category":"تفسير"},{"id":"sQZyqCii6Cg","title":"295- أنواع الأمثال في القرآن - شرح الإتقان في علوم القرآن","publishedAt":"2025-08-03T09:01:16Z","duration":"PT34M","thumbnail":"https://i.ytimg.com/vi/sQZyqCii6Cg/mqdefault.jpg","viewCount":"442","playlistId":"PLEkQk5xrP-tlPw10KGJKagu7zm4Ry2Tge","playlistName":"شرح الإتقان في علوم القرآن","category":"تفسير"},{"id":"KSKt7LB9vnI","title":"304- المبهمات في القرآن - شرح الإتقان في علوم القرآن","publishedAt":"2025-10-13T05:07:30Z","duration":"PT24M17S","thumbnail":"https://i.ytimg.com/vi/KSKt7LB9vnI/mqdefault.jpg","viewCount":"442","playlistId":"PLEkQk5xrP-tlPw10KGJKagu7zm4Ry2Tge","playlistName":"شرح الإتقان في علوم القرآن","category":"تفسير"},{"id":"tuhAnRYW9RE","title":"315- خواص القرآن - شرح الإتقان في علوم القرآن","publishedAt":"2025-11-20T10:01:42Z","duration":"PT33M51S","thumbnail":"https://i.ytimg.com/vi/tuhAnRYW9RE/mqdefault.jpg","viewCount":"438","playlistId":"PLEkQk5xrP-tlPw10KGJKagu7zm4Ry2Tge","playlistName":"شرح الإتقان في علوم القرآن","category":"تفسير"},{"id":"irSkxOQZW5o","title":"139- معنى (حَيْث) - شرح الإتقان في علوم القرآن","publishedAt":"2023-08-01T05:00:31Z","duration":"PT6M25S","thumbnail":"https://i.ytimg.com/vi/irSkxOQZW5o/mqdefault.jpg","viewCount":"438","playlistId":"PLEkQk5xrP-tlPw10KGJKagu7zm4Ry2Tge","playlistName":"شرح الإتقان في علوم القرآن","category":"تفسير"},{"id":"n1f8i48Hkr4","title":"274- المواربة، المراجعة، النزاهة، الإبداع - شرح الإتقان في علوم القرآن","publishedAt":"2024-12-11T07:24:23Z","duration":"PT15M4S","thumbnail":"https://i.ytimg.com/vi/n1f8i48Hkr4/mqdefault.jpg","viewCount":"435","playlistId":"PLEkQk5xrP-tlPw10KGJKagu7zm4Ry2Tge","playlistName":"شرح الإتقان في علوم القرآن","category":"تفسير"},{"id":"o2POrRroVPE","title":"276- فواصل الآي (2) - شرح الإتقان في علوم القرآن","publishedAt":"2024-12-19T06:30:22Z","duration":"PT22M46S","thumbnail":"https://i.ytimg.com/vi/o2POrRroVPE/mqdefault.jpg","viewCount":"434","playlistId":"PLEkQk5xrP-tlPw10KGJKagu7zm4Ry2Tge","playlistName":"شرح الإتقان في علوم القرآن","category":"تفسير"},{"id":"ddZCuxWbjjI","title":"137- معنى (ثُمَ - ثَمَّ) - شرح الإتقان في علوم القرآن","publishedAt":"2023-07-30T05:00:30Z","duration":"PT29M18S","thumbnail":"https://i.ytimg.com/vi/ddZCuxWbjjI/mqdefault.jpg","viewCount":"434","playlistId":"PLEkQk5xrP-tlPw10KGJKagu7zm4Ry2Tge","playlistName":"شرح الإتقان في علوم القرآن","category":"تفسير"},{"id":"TLf7kcuVY5Q","title":"136- معنى (بِئْسَ) - شرح الإتقان في علوم القرآن","publishedAt":"2023-07-29T05:00:12Z","duration":"PT24M17S","thumbnail":"https://i.ytimg.com/vi/TLf7kcuVY5Q/mqdefault.jpg","viewCount":"428","playlistId":"PLEkQk5xrP-tlPw10KGJKagu7zm4Ry2Tge","playlistName":"شرح الإتقان في علوم القرآن","category":"تفسير"}],"total":313,"page":12,"pageSize":24,"totalPages":14}