{"items":[{"id":"w_o-Y_bXrdE","title":"40- فائدة في إعراب أسماء السور - شرح الإتقان في علوم القرآن","publishedAt":"2023-03-20T05:00:20Z","duration":"PT21M16S","thumbnail":"https://i.ytimg.com/vi/w_o-Y_bXrdE/mqdefault.jpg","viewCount":"1284","playlistId":"PLEkQk5xrP-tlPw10KGJKagu7zm4Ry2Tge","playlistName":"شرح الإتقان في علوم القرآن","category":"تفسير"},{"id":"vpkKDpfer1I","title":"36- أسماء القرآن الكريم وأسماء سوره - شرح الإتقان في علوم القرآن","publishedAt":"2023-03-12T05:00:25Z","duration":"PT29M19S","thumbnail":"https://i.ytimg.com/vi/vpkKDpfer1I/mqdefault.jpg","viewCount":"1254","playlistId":"PLEkQk5xrP-tlPw10KGJKagu7zm4Ry2Tge","playlistName":"شرح الإتقان في علوم القرآن","category":"تفسير"},{"id":"DtPTIW3Oz9Y","title":"17- معرفة أول ما نزل من القرآن - شرح الإتقان في علوم القرآن","publishedAt":"2023-01-26T05:00:07Z","duration":"PT30M14S","thumbnail":"https://i.ytimg.com/vi/DtPTIW3Oz9Y/mqdefault.jpg","viewCount":"1252","playlistId":"PLEkQk5xrP-tlPw10KGJKagu7zm4Ry2Tge","playlistName":"شرح الإتقان في علوم القرآن","category":"تفسير"},{"id":"Kx69ypSgZus","title":"35- معنى نزول القرآن على سبعة أحرف (4) ومعرفة الأَوْلى من أقوال العلماء","publishedAt":"2023-03-10T05:00:12Z","duration":"PT17M7S","thumbnail":"https://i.ytimg.com/vi/Kx69ypSgZus/mqdefault.jpg","viewCount":"1241","playlistId":"PLEkQk5xrP-tlPw10KGJKagu7zm4Ry2Tge","playlistName":"شرح الإتقان في علوم القرآن","category":"تفسير"},{"id":"BQjMjGdxdX8","title":"28- النَّوْعُ الخامس عشر: ما أُنزل منه على بعض الأنبياء وما لم ينزل منه على أحد قبل النَّبيّ ﷺ","publishedAt":"2023-02-24T05:00:03Z","duration":"PT25M21S","thumbnail":"https://i.ytimg.com/vi/BQjMjGdxdX8/mqdefault.jpg","viewCount":"1213","playlistId":"PLEkQk5xrP-tlPw10KGJKagu7zm4Ry2Tge","playlistName":"شرح الإتقان في علوم القرآن","category":"تفسير"},{"id":"usWW9h4Rn4k","title":"22- النَّوعُ التاسع: معرفة سبب النزول (3) المسألة الثالثة - الجزء الأول - شرح الإتقان في علوم القرآن","publishedAt":"2023-02-12T05:00:26Z","duration":"PT36M12S","thumbnail":"https://i.ytimg.com/vi/usWW9h4Rn4k/mqdefault.jpg","viewCount":"1203","playlistId":"PLEkQk5xrP-tlPw10KGJKagu7zm4Ry2Tge","playlistName":"شرح الإتقان في علوم القرآن","category":"تفسير"},{"id":"o1A29_4WnVQ","title":"11- ضوابط لمعرفة المكِّي والمدني - شرح الإتقان في علوم القرآن","publishedAt":"2023-01-18T05:15:01Z","duration":"PT22M16S","thumbnail":"https://i.ytimg.com/vi/o1A29_4WnVQ/mqdefault.jpg","viewCount":"1190","playlistId":"PLEkQk5xrP-tlPw10KGJKagu7zm4Ry2Tge","playlistName":"شرح الإتقان في علوم القرآن","category":"تفسير"},{"id":"O2V_swiaTqM","title":"26- النَّوْعُ الحادي عشر: ما تكرر نزوله - الجزء الأول - شرح الإتقان في علوم القرآن","publishedAt":"2023-02-20T05:00:09Z","duration":"PT31M54S","thumbnail":"https://i.ytimg.com/vi/O2V_swiaTqM/mqdefault.jpg","viewCount":"1169","playlistId":"PLEkQk5xrP-tlPw10KGJKagu7zm4Ry2Tge","playlistName":"شرح الإتقان في علوم القرآن","category":"تفسير"},{"id":"A1KcTg5nF_U","title":"9- بيان السور التي بعضها مَكِّي وبعضها مَدَني - شرح الإتقان في علوم القرآن","publishedAt":"2023-01-16T05:00:08Z","duration":"PT28M23S","thumbnail":"https://i.ytimg.com/vi/A1KcTg5nF_U/mqdefault.jpg","viewCount":"1169","playlistId":"PLEkQk5xrP-tlPw10KGJKagu7zm4Ry2Tge","playlistName":"شرح الإتقان في علوم القرآن","category":"تفسير"},{"id":"g79y1FJ2yJU","title":"21- النَّوْعُ التاسع: معرفة سبب النزول (2) - شرح الإتقان في علوم القرآن","publishedAt":"2023-02-10T05:00:30Z","duration":"PT20M28S","thumbnail":"https://i.ytimg.com/vi/g79y1FJ2yJU/mqdefault.jpg","viewCount":"1163","playlistId":"PLEkQk5xrP-tlPw10KGJKagu7zm4Ry2Tge","playlistName":"شرح الإتقان في علوم القرآن","category":"تفسير"},{"id":"zcjd5Cr6JhE","title":"13- النوع الثاني في معرفة الحضري والسفري - شرح الإتقان في علوم القرآن","publishedAt":"2023-01-20T05:25:00Z","duration":"PT30M26S","thumbnail":"https://i.ytimg.com/vi/zcjd5Cr6JhE/mqdefault.jpg","viewCount":"1148","playlistId":"PLEkQk5xrP-tlPw10KGJKagu7zm4Ry2Tge","playlistName":"شرح الإتقان في علوم القرآن","category":"تفسير"},{"id":"5vp9Pd7AaiY","title":"23- النَّوعُ التاسع: معرفة سبب النزول(4) المسألة الخامسة - الجزء الأول - شرح الإتقان في علوم القرآن","publishedAt":"2023-02-14T05:00:02Z","duration":"PT28M18S","thumbnail":"https://i.ytimg.com/vi/5vp9Pd7AaiY/mqdefault.jpg","viewCount":"1148","playlistId":"PLEkQk5xrP-tlPw10KGJKagu7zm4Ry2Tge","playlistName":"شرح الإتقان في علوم القرآن","category":"تفسير"},{"id":"4XC29w0TID0","title":"33- معنى نزول القرآن على سبعة أحرف (2) الوجه الثامن - شرح الإتقان في علوم القرآن","publishedAt":"2023-03-06T05:00:04Z","duration":"PT10M28S","thumbnail":"https://i.ytimg.com/vi/4XC29w0TID0/mqdefault.jpg","viewCount":"1141","playlistId":"PLEkQk5xrP-tlPw10KGJKagu7zm4Ry2Tge","playlistName":"شرح الإتقان في علوم القرآن","category":"تفسير"},{"id":"TBDGuzDXH2s","title":"285- ما جاء في الآيات المشتبهات - شرح الإتقان في علوم القرآن","publishedAt":"2025-04-01T10:00:40Z","duration":"PT36M22S","thumbnail":"https://i.ytimg.com/vi/TBDGuzDXH2s/mqdefault.jpg","viewCount":"1139","playlistId":"PLEkQk5xrP-tlPw10KGJKagu7zm4Ry2Tge","playlistName":"شرح الإتقان في علوم القرآن","category":"تفسير"},{"id":"AM4ay3a9tqU","title":"57- بِاخْتِلَافِ الْقِرَاءَاتِ يَظْهَرُ الِاخْتِلَافُ فِي الْأَحْكَام - شرح الإتقان في علوم القرآن","publishedAt":"2023-05-01T05:00:04Z","duration":"PT33M41S","thumbnail":"https://i.ytimg.com/vi/AM4ay3a9tqU/mqdefault.jpg","viewCount":"1139","playlistId":"PLEkQk5xrP-tlPw10KGJKagu7zm4Ry2Tge","playlistName":"شرح الإتقان في علوم القرآن","category":"تفسير"},{"id":"98ALDIa7u9A","title":"15- النوع الثالث في معرفة النهاري والليلي - شرح الإتقان في علوم القرآن","publishedAt":"2023-01-22T05:00:03Z","duration":"PT30M17S","thumbnail":"https://i.ytimg.com/vi/98ALDIa7u9A/mqdefault.jpg","viewCount":"1136","playlistId":"PLEkQk5xrP-tlPw10KGJKagu7zm4Ry2Tge","playlistName":"شرح الإتقان في علوم القرآن","category":"تفسير"},{"id":"4ur7-2pcJnI","title":"147- حرف القاف - شرح الإتقان في علوم القرآن","publishedAt":"2023-09-12T05:00:02Z","duration":"PT24M46S","thumbnail":"https://i.ytimg.com/vi/4ur7-2pcJnI/mqdefault.jpg","viewCount":"1135","playlistId":"PLEkQk5xrP-tlPw10KGJKagu7zm4Ry2Tge","playlistName":"شرح الإتقان في علوم القرآن","category":"تفسير"},{"id":"F2olww8HJY8","title":"18- تكملة معرفة أول ما نزل من القرآن - شرح الإتقان في علوم القران","publishedAt":"2023-01-27T05:00:13Z","duration":"PT30M17S","thumbnail":"https://i.ytimg.com/vi/F2olww8HJY8/mqdefault.jpg","viewCount":"1125","playlistId":"PLEkQk5xrP-tlPw10KGJKagu7zm4Ry2Tge","playlistName":"شرح الإتقان في علوم القرآن","category":"تفسير"},{"id":"JRIvmiKCq4o","title":"39- أسماءُ السِوَر .. هل هي توقيفيَّة؟ - شرح الإتقان في علوم القرآن","publishedAt":"2023-03-18T05:00:10Z","duration":"PT16M40S","thumbnail":"https://i.ytimg.com/vi/JRIvmiKCq4o/mqdefault.jpg","viewCount":"1119","playlistId":"PLEkQk5xrP-tlPw10KGJKagu7zm4Ry2Tge","playlistName":"شرح الإتقان في علوم القرآن","category":"تفسير"},{"id":"8SunTfxgvPM","title":"19- النَّوْعُ الثامن: معرفة آخر ما نزل من القرآن - شرح الإتقان في علوم القرآن","publishedAt":"2023-02-07T05:00:06Z","duration":"PT27M23S","thumbnail":"https://i.ytimg.com/vi/8SunTfxgvPM/mqdefault.jpg","viewCount":"1115","playlistId":"PLEkQk5xrP-tlPw10KGJKagu7zm4Ry2Tge","playlistName":"شرح الإتقان في علوم القرآن","category":"تفسير"},{"id":"inSQz3TTLMU","title":"287- بعض وجوه الإعجاز في القرآن الكريم - شرح الإتقان في علوم القرآن","publishedAt":"2025-04-05T15:00:57Z","duration":"PT21M8S","thumbnail":"https://i.ytimg.com/vi/inSQz3TTLMU/mqdefault.jpg","viewCount":"1109","playlistId":"PLEkQk5xrP-tlPw10KGJKagu7zm4Ry2Tge","playlistName":"شرح الإتقان في علوم القرآن","category":"تفسير"},{"id":"9IrxTy6yG5M","title":"41- جمع القرآن وترتيبه - شرح الإتقان في علوم القرآن","publishedAt":"2023-03-22T05:00:02Z","duration":"PT31M24S","thumbnail":"https://i.ytimg.com/vi/9IrxTy6yG5M/mqdefault.jpg","viewCount":"1104","playlistId":"PLEkQk5xrP-tlPw10KGJKagu7zm4Ry2Tge","playlistName":"شرح الإتقان في علوم القرآن","category":"تفسير"},{"id":"i0N4pxZXBvI","title":"310- فضل سورة الدُّخان - شرح الإتقان في علوم القرآن","publishedAt":"2025-10-31T05:30:36Z","duration":"PT16M6S","thumbnail":"https://i.ytimg.com/vi/i0N4pxZXBvI/mqdefault.jpg","viewCount":"1101","playlistId":"PLEkQk5xrP-tlPw10KGJKagu7zm4Ry2Tge","playlistName":"شرح الإتقان في علوم القرآن","category":"تفسير"},{"id":"5EhUxRL8xts","title":"49- هل البسملة آية من الفاتحة؟ - شرح الاتقان في علوم القران","publishedAt":"2023-04-07T05:00:03Z","duration":"PT27M13S","thumbnail":"https://i.ytimg.com/vi/5EhUxRL8xts/mqdefault.jpg","viewCount":"1091","playlistId":"PLEkQk5xrP-tlPw10KGJKagu7zm4Ry2Tge","playlistName":"شرح الإتقان في علوم القرآن","category":"تفسير"}],"total":313,"page":2,"pageSize":24,"totalPages":14}