{"items":[{"id":"5EhUxRL8xts","title":"49- هل البسملة آية من الفاتحة؟ - شرح الاتقان في علوم القران","publishedAt":"2023-04-07T05:00:03Z","duration":"PT27M13S","thumbnail":"https://i.ytimg.com/vi/5EhUxRL8xts/mqdefault.jpg","viewCount":"1091","playlistId":"PLEkQk5xrP-tlPw10KGJKagu7zm4Ry2Tge","playlistName":"شرح الإتقان في علوم القرآن","category":"تفسير"},{"id":"NMu0jr8rZ7E","title":"30- النَّوْعُ السادس عشر: تكملة ما جاء في كيفية إنزاله - شرح الإتقان في علوم القرآن","publishedAt":"2023-02-28T04:59:42Z","duration":"PT29M36S","thumbnail":"https://i.ytimg.com/vi/NMu0jr8rZ7E/mqdefault.jpg","viewCount":"1085","playlistId":"PLEkQk5xrP-tlPw10KGJKagu7zm4Ry2Tge","playlistName":"شرح الإتقان في علوم القرآن","category":"تفسير"},{"id":"bPpjcpj2Zp8","title":"46- عدد سور القرآن وآياته وكلماته وحروفه  - شرح الإتقان في علوم القرآن","publishedAt":"2023-04-01T05:00:12Z","duration":"PT24M43S","thumbnail":"https://i.ytimg.com/vi/bPpjcpj2Zp8/mqdefault.jpg","viewCount":"1073","playlistId":"PLEkQk5xrP-tlPw10KGJKagu7zm4Ry2Tge","playlistName":"شرح الإتقان في علوم القرآن","category":"تفسير"},{"id":"VVRiF8OZd9w","title":"56- القرآن والقراءات  - شرح الإتقان في علوم القرآن","publishedAt":"2023-04-30T05:00:20Z","duration":"PT33M46S","thumbnail":"https://i.ytimg.com/vi/VVRiF8OZd9w/mqdefault.jpg","viewCount":"1069","playlistId":"PLEkQk5xrP-tlPw10KGJKagu7zm4Ry2Tge","playlistName":"شرح الإتقان في علوم القرآن","category":"تفسير"},{"id":"xoXfqq_jOCY","title":"24- النَّوْعُ التاسع: معرفة سبب النزول(5) المسألة الخامسة: الحالة السادسة - الجزء الأول","publishedAt":"2023-02-16T05:00:34Z","duration":"PT32M13S","thumbnail":"https://i.ytimg.com/vi/xoXfqq_jOCY/mqdefault.jpg","viewCount":"1068","playlistId":"PLEkQk5xrP-tlPw10KGJKagu7zm4Ry2Tge","playlistName":"شرح الإتقان في علوم القرآن","category":"تفسير"},{"id":"xuQwTAJsz00","title":"14- معرفة ما نزل في السفر - شرح الإتقان في علوم القرآن","publishedAt":"2023-01-21T05:00:19Z","duration":"PT22M8S","thumbnail":"https://i.ytimg.com/vi/xuQwTAJsz00/mqdefault.jpg","viewCount":"1043","playlistId":"PLEkQk5xrP-tlPw10KGJKagu7zm4Ry2Tge","playlistName":"شرح الإتقان في علوم القرآن","category":"تفسير"},{"id":"p32jNsuSVHY","title":"27- النَّوعُ الثالث عشر: ما نزل مُفَرَّقًا وما نزل جمعًا - شرح الإتقان في علوم القرآن","publishedAt":"2023-02-22T05:00:32Z","duration":"PT29M40S","thumbnail":"https://i.ytimg.com/vi/p32jNsuSVHY/mqdefault.jpg","viewCount":"1042","playlistId":"PLEkQk5xrP-tlPw10KGJKagu7zm4Ry2Tge","playlistName":"شرح الإتقان في علوم القرآن","category":"تفسير"},{"id":"zoBMcM4swy0","title":"58-  الوقف والابتداء - شرح الإتقان في علوم القرآن","publishedAt":"2023-05-02T05:00:25Z","duration":"PT31M3S","thumbnail":"https://i.ytimg.com/vi/zoBMcM4swy0/mqdefault.jpg","viewCount":"1041","playlistId":"PLEkQk5xrP-tlPw10KGJKagu7zm4Ry2Tge","playlistName":"شرح الإتقان في علوم القرآن","category":"تفسير"},{"id":"0JRg6SQrOaU","title":"197- فصلٌ: من الْمُتَشَابه آيَاتُ الصِّفات  - شرح الإتقان في علوم القرآن","publishedAt":"2024-01-15T06:46:40Z","duration":"PT41M55S","thumbnail":"https://i.ytimg.com/vi/0JRg6SQrOaU/mqdefault.jpg","viewCount":"1030","playlistId":"PLEkQk5xrP-tlPw10KGJKagu7zm4Ry2Tge","playlistName":"شرح الإتقان في علوم القرآن","category":"تفسير"},{"id":"jbhf5ASDXcE","title":"301- أسماء الملائكة - شرح الإتقان في علوم القرآن","publishedAt":"2025-09-25T09:01:14Z","duration":"PT32M22S","thumbnail":"https://i.ytimg.com/vi/jbhf5ASDXcE/mqdefault.jpg","viewCount":"1021","playlistId":"PLEkQk5xrP-tlPw10KGJKagu7zm4Ry2Tge","playlistName":"شرح الإتقان في علوم القرآن","category":"تفسير"},{"id":"oLShc8Cp19w","title":"10- تكملة بيان السور التي بعضها مَكِّي وبعضها مَدَني 2 - شرح الإتقان في علوم القرآن","publishedAt":"2023-01-17T05:00:26Z","duration":"PT16M13S","thumbnail":"https://i.ytimg.com/vi/oLShc8Cp19w/mqdefault.jpg","viewCount":"1009","playlistId":"PLEkQk5xrP-tlPw10KGJKagu7zm4Ry2Tge","playlistName":"شرح الإتقان في علوم القرآن","category":"تفسير"},{"id":"rbcIRODyrqo","title":"210- الناسخ والمنسوخ - شرح الإتقان في علوم القرآن","publishedAt":"2024-02-17T21:58:42Z","duration":"PT33M48S","thumbnail":"https://i.ytimg.com/vi/rbcIRODyrqo/mqdefault.jpg","viewCount":"999","playlistId":"PLEkQk5xrP-tlPw10KGJKagu7zm4Ry2Tge","playlistName":"شرح الإتقان في علوم القرآن","category":"تفسير"},{"id":"V93fZEyTTXo","title":"146- معاني حرف (في) - شرح الإتقان في علوم القرآن","publishedAt":"2023-08-10T05:15:47Z","duration":"PT19M24S","thumbnail":"https://i.ytimg.com/vi/V93fZEyTTXo/mqdefault.jpg","viewCount":"994","playlistId":"PLEkQk5xrP-tlPw10KGJKagu7zm4Ry2Tge","playlistName":"شرح الإتقان في علوم القرآن","category":"تفسير"},{"id":"hN6hTLf-wNc","title":"199- فصلٌ: من الْمُتَشَابه آيَاتُ الصِّفات - صفة (القُرْب) - شرح الإتقان في علوم القرآن","publishedAt":"2024-01-25T07:00:14Z","duration":"PT32M13S","thumbnail":"https://i.ytimg.com/vi/hN6hTLf-wNc/mqdefault.jpg","viewCount":"989","playlistId":"PLEkQk5xrP-tlPw10KGJKagu7zm4Ry2Tge","playlistName":"شرح الإتقان في علوم القرآن","category":"تفسير"},{"id":"JEGBKhdXG6Q","title":"67- أحكام التلاوة: الإدغام والإظهار والإخفاء والإقلاب - شرح الإتقان في علوم القرآن","publishedAt":"2023-05-10T05:00:05Z","duration":"PT29M55S","thumbnail":"https://i.ytimg.com/vi/JEGBKhdXG6Q/mqdefault.jpg","viewCount":"986","playlistId":"PLEkQk5xrP-tlPw10KGJKagu7zm4Ry2Tge","playlistName":"شرح الإتقان في علوم القرآن","category":"تفسير"},{"id":"zZoIi8U8C_8","title":"25- النَّوْعُ العاشر: فيما أُنزِل من القرآن على لسان بعض الصحابة - الجزء الأول","publishedAt":"2023-02-18T05:00:27Z","duration":"PT18M44S","thumbnail":"https://i.ytimg.com/vi/zZoIi8U8C_8/mqdefault.jpg","viewCount":"980","playlistId":"PLEkQk5xrP-tlPw10KGJKagu7zm4Ry2Tge","playlistName":"شرح الإتقان في علوم القرآن","category":"تفسير"},{"id":"caYS7eQgjvA","title":"122- معاني الحروف (أَلا - أَلَّا - إِلَّا) والفرق بينهما - شرح الإتقان في علوم القرآن","publishedAt":"2023-07-09T05:00:17Z","duration":"PT30M15S","thumbnail":"https://i.ytimg.com/vi/caYS7eQgjvA/mqdefault.jpg","viewCount":"978","playlistId":"PLEkQk5xrP-tlPw10KGJKagu7zm4Ry2Tge","playlistName":"شرح الإتقان في علوم القرآن","category":"تفسير"},{"id":"dXUjcbNiL7g","title":"169- معنى ( وَيْكَأَنَّ - ويل - يا )- شرح الإتقان في علوم القرآن","publishedAt":"2023-11-08T06:30:18Z","duration":"PT32M19S","thumbnail":"https://i.ytimg.com/vi/dXUjcbNiL7g/mqdefault.jpg","viewCount":"977","playlistId":"PLEkQk5xrP-tlPw10KGJKagu7zm4Ry2Tge","playlistName":"شرح الإتقان في علوم القرآن","category":"تفسير"},{"id":"j8_ETyb62ME","title":"204- كيف نفرق بين (العام والمطلق) وبين (الخاص والمقيد) - الإتقان في علوم القرآن","publishedAt":"2024-02-05T07:54:34Z","duration":"PT26M58S","thumbnail":"https://i.ytimg.com/vi/j8_ETyb62ME/mqdefault.jpg","viewCount":"959","playlistId":"PLEkQk5xrP-tlPw10KGJKagu7zm4Ry2Tge","playlistName":"شرح الإتقان في علوم القرآن","category":"تفسير"},{"id":"vlKPfctXsys","title":"43- ترتيب آيات القرآن الكريم - شرح الإتقان في علوم القرآن","publishedAt":"2023-03-26T05:00:21Z","duration":"PT23M42S","thumbnail":"https://i.ytimg.com/vi/vlKPfctXsys/mqdefault.jpg","viewCount":"956","playlistId":"PLEkQk5xrP-tlPw10KGJKagu7zm4Ry2Tge","playlistName":"شرح الإتقان في علوم القرآن","category":"تفسير"},{"id":"CG8E5sjgl1E","title":"88- غريب القرآن(3) - ما جاء في سورة إبراهيم عليه السلام - شرح الإتقان في علوم","publishedAt":"2023-06-01T05:00:04Z","duration":"PT37M45S","thumbnail":"https://i.ytimg.com/vi/CG8E5sjgl1E/mqdefault.jpg","viewCount":"955","playlistId":"PLEkQk5xrP-tlPw10KGJKagu7zm4Ry2Tge","playlistName":"شرح الإتقان في علوم القرآن","category":"تفسير"},{"id":"cze9xqHYh0M","title":"229- فائدة التشبيه والمجاز والاستعارة في فهم معاني القرآن الكريم - شرح الإتقان في علوم القرآن","publishedAt":"2024-04-26T06:16:35Z","duration":"PT21M47S","thumbnail":"https://i.ytimg.com/vi/cze9xqHYh0M/mqdefault.jpg","viewCount":"953","playlistId":"PLEkQk5xrP-tlPw10KGJKagu7zm4Ry2Tge","playlistName":"شرح الإتقان في علوم القرآن","category":"تفسير"},{"id":"7Mm1gfD8WGw","title":"198- فصلٌ: من الْمُتَشَابه آيَاتُ الصِّفات - معنى (النفْس) - شرح الإتقان في علوم القرآن","publishedAt":"2024-01-23T06:50:01Z","duration":"PT26M28S","thumbnail":"https://i.ytimg.com/vi/7Mm1gfD8WGw/mqdefault.jpg","viewCount":"951","playlistId":"PLEkQk5xrP-tlPw10KGJKagu7zm4Ry2Tge","playlistName":"شرح الإتقان في علوم القرآن","category":"تفسير"},{"id":"B4pRCELbeaE","title":"50- معرفة حُفَّاظ القرآن الكريم ورُواته - شرح الإتقان في علوم القرآن","publishedAt":"2023-04-09T05:30:02Z","duration":"PT30M41S","thumbnail":"https://i.ytimg.com/vi/B4pRCELbeaE/mqdefault.jpg","viewCount":"946","playlistId":"PLEkQk5xrP-tlPw10KGJKagu7zm4Ry2Tge","playlistName":"شرح الإتقان في علوم القرآن","category":"تفسير"}],"total":313,"page":3,"pageSize":24,"totalPages":14}