{"items":[{"id":"G7maJvjBCLg","title":"242- أنواع الحذف - شرح الإتقان في علوم القرآن","publishedAt":"2024-06-18T05:00:15Z","duration":"PT22M29S","thumbnail":"https://i.ytimg.com/vi/G7maJvjBCLg/mqdefault.jpg","viewCount":"679","playlistId":"PLEkQk5xrP-tlPw10KGJKagu7zm4Ry2Tge","playlistName":"شرح الإتقان في علوم القرآن","category":"تفسير"},{"id":"wk_hxATBtAI","title":"119- تكملة ما جاء في معاني كلمة (إذا) تنبيهات - شرح الإتقان في علوم القرآن","publishedAt":"2023-07-06T05:00:20Z","duration":"PT22M5S","thumbnail":"https://i.ytimg.com/vi/wk_hxATBtAI/mqdefault.jpg","viewCount":"677","playlistId":"PLEkQk5xrP-tlPw10KGJKagu7zm4Ry2Tge","playlistName":"شرح الإتقان في علوم القرآن","category":"تفسير"},{"id":"rdlu242xHEM","title":"145- حرف الفاء (أنواعها) - شرح الإتقان في علوم القرآن","publishedAt":"2023-08-09T05:01:23Z","duration":"PT35M29S","thumbnail":"https://i.ytimg.com/vi/rdlu242xHEM/mqdefault.jpg","viewCount":"669","playlistId":"PLEkQk5xrP-tlPw10KGJKagu7zm4Ry2Tge","playlistName":"شرح الإتقان في علوم القرآن","category":"تفسير"},{"id":"Sq_FszvqP0o","title":"112- معاني كلمة القضاء في القرآن - شرح الإتقان في علوم القرآن","publishedAt":"2023-06-29T05:00:11Z","duration":"PT10M42S","thumbnail":"https://i.ytimg.com/vi/Sq_FszvqP0o/mqdefault.jpg","viewCount":"668","playlistId":"PLEkQk5xrP-tlPw10KGJKagu7zm4Ry2Tge","playlistName":"شرح الإتقان في علوم القرآن","category":"تفسير"},{"id":"aN-VwbZJ49s","title":"82- تحسين الصوت بالقراءة - آداب تلاوة القرآن(5)- شرح الإتقان في علوم القرآن","publishedAt":"2023-05-27T05:00:01Z","duration":"PT23M27S","thumbnail":"https://i.ytimg.com/vi/aN-VwbZJ49s/mqdefault.jpg","viewCount":"665","playlistId":"PLEkQk5xrP-tlPw10KGJKagu7zm4Ry2Tge","playlistName":"شرح الإتقان في علوم القرآن","category":"تفسير"},{"id":"bvnBHDAWXHo","title":"78- آداب تلاوة القرآن (2) - شرح الإتقان في علوم القرآن","publishedAt":"2023-05-24T05:00:21Z","duration":"PT25M17S","thumbnail":"https://i.ytimg.com/vi/bvnBHDAWXHo/mqdefault.jpg","viewCount":"663","playlistId":"PLEkQk5xrP-tlPw10KGJKagu7zm4Ry2Tge","playlistName":"شرح الإتقان في علوم القرآن","category":"تفسير"},{"id":"30Ys_kL72Cc","title":"186- قاعدة أخرى في التعريف والتنكير - شرح الإتقان في علوم القرآن","publishedAt":"2023-12-20T07:13:00Z","duration":"PT35M11S","thumbnail":"https://i.ytimg.com/vi/30Ys_kL72Cc/mqdefault.jpg","viewCount":"661","playlistId":"PLEkQk5xrP-tlPw10KGJKagu7zm4Ry2Tge","playlistName":"شرح الإتقان في علوم القرآن","category":"تفسير"},{"id":"VfxBPxsM44Y","title":"149- معنى (كاد) - شرح الإتقان في علوم القرآن","publishedAt":"2023-09-16T05:15:01Z","duration":"PT11M1S","thumbnail":"https://i.ytimg.com/vi/VfxBPxsM44Y/mqdefault.jpg","viewCount":"661","playlistId":"PLEkQk5xrP-tlPw10KGJKagu7zm4Ry2Tge","playlistName":"شرح الإتقان في علوم القرآن","category":"تفسير"},{"id":"35UQI5PuvPU","title":"224- فصلٌ في أنواع مختلف في عدها من المجاز - شرح الإتقان في علوم القرآن","publishedAt":"2024-04-15T06:00:01Z","duration":"PT25M17S","thumbnail":"https://i.ytimg.com/vi/35UQI5PuvPU/mqdefault.jpg","viewCount":"660","playlistId":"PLEkQk5xrP-tlPw10KGJKagu7zm4Ry2Tge","playlistName":"شرح الإتقان في علوم القرآن","category":"تفسير"},{"id":"LemzuVdlzMs","title":"189- قاعدةٌ: مقابلة الجمع بالجمع - شرح الإتقان في علوم القرآن","publishedAt":"2023-12-26T07:00:12Z","duration":"PT40M17S","thumbnail":"https://i.ytimg.com/vi/LemzuVdlzMs/mqdefault.jpg","viewCount":"659","playlistId":"PLEkQk5xrP-tlPw10KGJKagu7zm4Ry2Tge","playlistName":"شرح الإتقان في علوم القرآن","category":"تفسير"},{"id":"ABR3jd9fEQE","title":"218- المنطوق والمفهوم - شرح الإتقان في علوم القرآن","publishedAt":"2024-03-19T06:30:04Z","duration":"PT41M19S","thumbnail":"https://i.ytimg.com/vi/ABR3jd9fEQE/mqdefault.jpg","viewCount":"658","playlistId":"PLEkQk5xrP-tlPw10KGJKagu7zm4Ry2Tge","playlistName":"شرح الإتقان في علوم القرآن","category":"تفسير"},{"id":"Jufj905UDFo","title":"117- معاني كلمة (إذ) - شرح الإتقان في علوم القرآن","publishedAt":"2023-07-04T05:00:06Z","duration":"PT32M5S","thumbnail":"https://i.ytimg.com/vi/Jufj905UDFo/mqdefault.jpg","viewCount":"658","playlistId":"PLEkQk5xrP-tlPw10KGJKagu7zm4Ry2Tge","playlistName":"شرح الإتقان في علوم القرآن","category":"تفسير"},{"id":"YIIELKp66TE","title":"235- ما الفرق بين الحصر والاختصاص؟ - شرح الإتقان في علوم القرآن","publishedAt":"2024-05-13T05:00:16Z","duration":"PT28M25S","thumbnail":"https://i.ytimg.com/vi/YIIELKp66TE/mqdefault.jpg","viewCount":"657","playlistId":"PLEkQk5xrP-tlPw10KGJKagu7zm4Ry2Tge","playlistName":"شرح الإتقان في علوم القرآن","category":"تفسير"},{"id":"i3D6grkPkaI","title":"205- أنواع العام (ثلاثة) - شرح الإتقان في علوم القرآن","publishedAt":"2024-02-06T07:00:47Z","duration":"PT29M29S","thumbnail":"https://i.ytimg.com/vi/i3D6grkPkaI/mqdefault.jpg","viewCount":"655","playlistId":"PLEkQk5xrP-tlPw10KGJKagu7zm4Ry2Tge","playlistName":"شرح الإتقان في علوم القرآن","category":"تفسير"},{"id":"3pXJmMJVRd4","title":"272- الفرائد - شرح الإتقان في علوم القرآن","publishedAt":"2024-12-05T07:14:00Z","duration":"PT37M9S","thumbnail":"https://i.ytimg.com/vi/3pXJmMJVRd4/mqdefault.jpg","viewCount":"650","playlistId":"PLEkQk5xrP-tlPw10KGJKagu7zm4Ry2Tge","playlistName":"شرح الإتقان في علوم القرآن","category":"تفسير"},{"id":"jKMuk4GrU-4","title":"111- معاني كلمة الرحمة في القرآن - شرح الإتقان في علوم القرآن","publishedAt":"2023-06-27T05:00:16Z","duration":"PT9M4S","thumbnail":"https://i.ytimg.com/vi/jKMuk4GrU-4/mqdefault.jpg","viewCount":"648","playlistId":"PLEkQk5xrP-tlPw10KGJKagu7zm4Ry2Tge","playlistName":"شرح الإتقان في علوم القرآن","category":"تفسير"},{"id":"yTv3SUZkpcM","title":"259- الاستفهام - شرح الإتقان في علوم القرآن","publishedAt":"2024-10-14T06:00:28Z","duration":"PT30M17S","thumbnail":"https://i.ytimg.com/vi/yTv3SUZkpcM/mqdefault.jpg","viewCount":"644","playlistId":"PLEkQk5xrP-tlPw10KGJKagu7zm4Ry2Tge","playlistName":"شرح الإتقان في علوم القرآن","category":"تفسير"},{"id":"grnleaDrIDo","title":"281- خواتم السور - شرح الإتقان في علوم القرآن","publishedAt":"2025-01-24T06:30:26Z","duration":"PT12M32S","thumbnail":"https://i.ytimg.com/vi/grnleaDrIDo/mqdefault.jpg","viewCount":"644","playlistId":"PLEkQk5xrP-tlPw10KGJKagu7zm4Ry2Tge","playlistName":"شرح الإتقان في علوم القرآن","category":"تفسير"},{"id":"5LvIc8b0cIc","title":"134- معاني حرف الباء - شرح الإتقان في علوم القرآن","publishedAt":"2023-07-27T05:00:02Z","duration":"PT22M38S","thumbnail":"https://i.ytimg.com/vi/5LvIc8b0cIc/mqdefault.jpg","viewCount":"641","playlistId":"PLEkQk5xrP-tlPw10KGJKagu7zm4Ry2Tge","playlistName":"شرح الإتقان في علوم القرآن","category":"تفسير"},{"id":"PITok4dC9bU","title":"232- الحصر والاختصاص - شرح الإتقان في علوم القرآن","publishedAt":"2024-05-06T05:00:24Z","duration":"PT30M2S","thumbnail":"https://i.ytimg.com/vi/PITok4dC9bU/mqdefault.jpg","viewCount":"641","playlistId":"PLEkQk5xrP-tlPw10KGJKagu7zm4Ry2Tge","playlistName":"شرح الإتقان في علوم القرآن","category":"تفسير"},{"id":"P8TgkN-Obk4","title":"269- أسلوب التنكيت - شرح الإتقان في علوم القرآن","publishedAt":"2024-11-19T06:00:12Z","duration":"PT14M17S","thumbnail":"https://i.ytimg.com/vi/P8TgkN-Obk4/mqdefault.jpg","viewCount":"640","playlistId":"PLEkQk5xrP-tlPw10KGJKagu7zm4Ry2Tge","playlistName":"شرح الإتقان في علوم القرآن","category":"تفسير"},{"id":"D26faSFPW9s","title":"89- غريب القرآن(4)- ما جاء في سورة سبأ - شرح الإتقان في علوم القرآن","publishedAt":"2023-06-02T05:00:10Z","duration":"PT31M3S","thumbnail":"https://i.ytimg.com/vi/D26faSFPW9s/mqdefault.jpg","viewCount":"630","playlistId":"PLEkQk5xrP-tlPw10KGJKagu7zm4Ry2Tge","playlistName":"شرح الإتقان في علوم القرآن","category":"تفسير"},{"id":"q9khgFaohhg","title":"100- غريب القرآن (15) - شرح الإتقان في علوم القرآن","publishedAt":"2023-06-13T05:00:20Z","duration":"PT35M34S","thumbnail":"https://i.ytimg.com/vi/q9khgFaohhg/mqdefault.jpg","viewCount":"627","playlistId":"PLEkQk5xrP-tlPw10KGJKagu7zm4Ry2Tge","playlistName":"شرح الإتقان في علوم القرآن","category":"تفسير"},{"id":"xZKidzZAaes","title":"283- مناسبة الآيات والسور (2) - شرح الإتقان في علوم القرآن","publishedAt":"2025-02-11T06:30:32Z","duration":"PT27M12S","thumbnail":"https://i.ytimg.com/vi/xZKidzZAaes/mqdefault.jpg","viewCount":"626","playlistId":"PLEkQk5xrP-tlPw10KGJKagu7zm4Ry2Tge","playlistName":"شرح الإتقان في علوم القرآن","category":"تفسير"}],"total":313,"page":8,"pageSize":24,"totalPages":14}