{"items":[{"id":"YmzXzUH0DQw","title":"نُبْذةٌ عن الإمام السيوطي رضي الله عنه | فهرس الكتاب - شرح الإتقان في علوم القرآن","publishedAt":"2023-01-06T05:00:25Z","duration":"PT36M56S","thumbnail":"https://i.ytimg.com/vi/YmzXzUH0DQw/mqdefault.jpg","viewCount":"17653","playlistId":"PLEkQk5xrP-tlPw10KGJKagu7zm4Ry2Tge","playlistName":"شرح الإتقان في علوم القرآن","category":"تفسير"},{"id":"z0DLSxxQYRU","title":"2- المقدمة أول ما يقرأ القارئ وآخر ما يكتبه الكاتب - شرح الإتقان في علوم القرآن","publishedAt":"2023-01-07T05:00:23Z","duration":"PT23M58S","thumbnail":"https://i.ytimg.com/vi/z0DLSxxQYRU/mqdefault.jpg","viewCount":"4717","playlistId":"PLEkQk5xrP-tlPw10KGJKagu7zm4Ry2Tge","playlistName":"شرح الإتقان في علوم القرآن","category":"تفسير"},{"id":"LcATst9bpZs","title":"3- النوع الأول في معرفة المَكّي والمَدَني  - شرح الإتقان في علوم القرآن","publishedAt":"2023-01-08T05:00:13Z","duration":"PT28M8S","thumbnail":"https://i.ytimg.com/vi/LcATst9bpZs/mqdefault.jpg","viewCount":"4199","playlistId":"PLEkQk5xrP-tlPw10KGJKagu7zm4Ry2Tge","playlistName":"شرح الإتقان في علوم القرآن","category":"تفسير"},{"id":"bHNraVVvB_8","title":"4- معرفة ما نزل من القرآن بمكّة - شرح الإتقان في علوم القرآن","publishedAt":"2023-01-09T05:00:23Z","duration":"PT22M1S","thumbnail":"https://i.ytimg.com/vi/bHNraVVvB_8/mqdefault.jpg","viewCount":"2658","playlistId":"PLEkQk5xrP-tlPw10KGJKagu7zm4Ry2Tge","playlistName":"شرح الإتقان في علوم القرآن","category":"تفسير"},{"id":"pm0KzmOrNQs","title":"286- خوارق العادات وأنواعها - شرح الإتقان في علوم القرآن","publishedAt":"2025-04-03T10:01:13Z","duration":"PT28M","thumbnail":"https://i.ytimg.com/vi/pm0KzmOrNQs/mqdefault.jpg","viewCount":"2276","playlistId":"PLEkQk5xrP-tlPw10KGJKagu7zm4Ry2Tge","playlistName":"شرح الإتقان في علوم القرآن","category":"تفسير"},{"id":"CCipILqb38Y","title":"5- معرفة ما نزل من القرآن بالمدينة - شرح الإتقان في علوم القرآن","publishedAt":"2023-01-11T05:35:00Z","duration":"PT21M30S","thumbnail":"https://i.ytimg.com/vi/CCipILqb38Y/mqdefault.jpg","viewCount":"2156","playlistId":"PLEkQk5xrP-tlPw10KGJKagu7zm4Ry2Tge","playlistName":"شرح الإتقان في علوم القرآن","category":"تفسير"},{"id":"HDLaPbwVPZU","title":"32- معنى نزول القرآن على سبعة أحرف - المسألة الثالثة - الجزء الأول - شرح الإتقان في علوم القرآن","publishedAt":"2023-03-04T05:00:16Z","duration":"PT20M16S","thumbnail":"https://i.ytimg.com/vi/HDLaPbwVPZU/mqdefault.jpg","viewCount":"1920","playlistId":"PLEkQk5xrP-tlPw10KGJKagu7zm4Ry2Tge","playlistName":"شرح الإتقان في علوم القرآن","category":"تفسير"},{"id":"aqN_Tq5Rh7g","title":"6- بيان السور المختلَف فيها بين المكّي والمدني - شرح الإتقان في علوم القرآن","publishedAt":"2023-01-13T05:00:01Z","duration":"PT34M10S","thumbnail":"https://i.ytimg.com/vi/aqN_Tq5Rh7g/mqdefault.jpg","viewCount":"1888","playlistId":"PLEkQk5xrP-tlPw10KGJKagu7zm4Ry2Tge","playlistName":"شرح الإتقان في علوم القرآن","category":"تفسير"},{"id":"PiNzn06dS30","title":"289- لا تنقضي عجائبه ولا يشبع منه العلماء - شرح الإتقان في علوم القرآن","publishedAt":"2025-04-10T10:00:39Z","duration":"PT31M18S","thumbnail":"https://i.ytimg.com/vi/PiNzn06dS30/mqdefault.jpg","viewCount":"1839","playlistId":"PLEkQk5xrP-tlPw10KGJKagu7zm4Ry2Tge","playlistName":"شرح الإتقان في علوم القرآن","category":"تفسير"},{"id":"IsfhZyoEFFk","title":"124- معنى كلمة (اللَّهُمَّ) - شرح الإتقان في علوم القرآن","publishedAt":"2023-07-11T05:00:13Z","duration":"PT16M38S","thumbnail":"https://i.ytimg.com/vi/IsfhZyoEFFk/mqdefault.jpg","viewCount":"1751","playlistId":"PLEkQk5xrP-tlPw10KGJKagu7zm4Ry2Tge","playlistName":"شرح الإتقان في علوم القرآن","category":"تفسير"},{"id":"UFyqiig3M6E","title":"290- كيف نُحصل سعادة الدارين؟ - شرح الإتقان في علوم القرآن","publishedAt":"2025-04-21T10:00:42Z","duration":"PT38M26S","thumbnail":"https://i.ytimg.com/vi/UFyqiig3M6E/mqdefault.jpg","viewCount":"1658","playlistId":"PLEkQk5xrP-tlPw10KGJKagu7zm4Ry2Tge","playlistName":"شرح الإتقان في علوم القرآن","category":"تفسير"},{"id":"t1nhj-ZYq9k","title":"116- ما معنى الأحد؟ وما الفرق بين الواحد والأحد؟ - شرح الإتقان في علوم القرآن","publishedAt":"2023-07-03T05:00:31Z","duration":"PT10M48S","thumbnail":"https://i.ytimg.com/vi/t1nhj-ZYq9k/mqdefault.jpg","viewCount":"1580","playlistId":"PLEkQk5xrP-tlPw10KGJKagu7zm4Ry2Tge","playlistName":"شرح الإتقان في علوم القرآن","category":"تفسير"},{"id":"iX0t0y5hF5k","title":"31- كيفيات نزول الوحي على سيدنا رسول الله ﷺ - الجزء الأول - شرح الإتقان في علوم القرآن","publishedAt":"2023-03-02T05:00:30Z","duration":"PT19M32S","thumbnail":"https://i.ytimg.com/vi/iX0t0y5hF5k/mqdefault.jpg","viewCount":"1558","playlistId":"PLEkQk5xrP-tlPw10KGJKagu7zm4Ry2Tge","playlistName":"شرح الإتقان في علوم القرآن","category":"تفسير"},{"id":"LkW2DYbGAgc","title":"74- كيف تَتَلَقَّى القرآن وتَتَعَلَّمه؟ - شرح الإتقان في علوم القرآن","publishedAt":"2023-05-18T05:00:10Z","duration":"PT25M51S","thumbnail":"https://i.ytimg.com/vi/LkW2DYbGAgc/mqdefault.jpg","viewCount":"1497","playlistId":"PLEkQk5xrP-tlPw10KGJKagu7zm4Ry2Tge","playlistName":"شرح الإتقان في علوم القرآن","category":"تفسير"},{"id":"iiJWxiHLImA","title":"38- سور القرآن الكريم التي لها أكثر من اسم - شرح الإتقان في علوم القرآن","publishedAt":"2023-03-16T05:00:13Z","duration":"PT21M7S","thumbnail":"https://i.ytimg.com/vi/iiJWxiHLImA/mqdefault.jpg","viewCount":"1472","playlistId":"PLEkQk5xrP-tlPw10KGJKagu7zm4Ry2Tge","playlistName":"شرح الإتقان في علوم القرآن","category":"تفسير"},{"id":"gRIS6tve4i4","title":"7- تكملة بيان السور المختلَف فيها بين المكّي والمدني - شرح الإتقان في علوم القرآن","publishedAt":"2023-01-14T05:00:27Z","duration":"PT29M41S","thumbnail":"https://i.ytimg.com/vi/gRIS6tve4i4/mqdefault.jpg","viewCount":"1462","playlistId":"PLEkQk5xrP-tlPw10KGJKagu7zm4Ry2Tge","playlistName":"شرح الإتقان في علوم القرآن","category":"تفسير"},{"id":"HIOn5GxoLoc","title":"20- النَّوْعُ التاسع: معرفة سبب النزول - شرح الإتقان في علوم القرآن","publishedAt":"2023-02-08T05:00:11Z","duration":"PT30M23S","thumbnail":"https://i.ytimg.com/vi/HIOn5GxoLoc/mqdefault.jpg","viewCount":"1441","playlistId":"PLEkQk5xrP-tlPw10KGJKagu7zm4Ry2Tge","playlistName":"شرح الإتقان في علوم القرآن","category":"تفسير"},{"id":"6X4lDjndrxY","title":"148- معني حرف الكاف - شرح الإتقان في علوم القرآن","publishedAt":"2023-09-14T05:14:17Z","duration":"PT26M6S","thumbnail":"https://i.ytimg.com/vi/6X4lDjndrxY/mqdefault.jpg","viewCount":"1391","playlistId":"PLEkQk5xrP-tlPw10KGJKagu7zm4Ry2Tge","playlistName":"شرح الإتقان في علوم القرآن","category":"تفسير"},{"id":"27H7KTr27ro","title":"8- بيان ما نزل من الآيات المدنية في السور المكية - شرح الإتقان في علوم القرآن","publishedAt":"2023-01-15T05:00:00Z","duration":"PT31M6S","thumbnail":"https://i.ytimg.com/vi/27H7KTr27ro/mqdefault.jpg","viewCount":"1387","playlistId":"PLEkQk5xrP-tlPw10KGJKagu7zm4Ry2Tge","playlistName":"شرح الإتقان في علوم القرآن","category":"تفسير"},{"id":"y8Z-aep8lKw","title":"37- سبب جمع القرآن الكريم وتسميته بالمصحف - شرح الإتقان في علوم القرآن","publishedAt":"2023-03-14T05:00:23Z","duration":"PT38M26S","thumbnail":"https://i.ytimg.com/vi/y8Z-aep8lKw/mqdefault.jpg","viewCount":"1360","playlistId":"PLEkQk5xrP-tlPw10KGJKagu7zm4Ry2Tge","playlistName":"شرح الإتقان في علوم القرآن","category":"تفسير"},{"id":"04oSNE6RipI","title":"195- المحكم والمتشابه - شرح الإتقان في علوم القرآن","publishedAt":"2024-01-09T06:15:00Z","duration":"PT52M17S","thumbnail":"https://i.ytimg.com/vi/04oSNE6RipI/mqdefault.jpg","viewCount":"1344","playlistId":"PLEkQk5xrP-tlPw10KGJKagu7zm4Ry2Tge","playlistName":"شرح الإتقان في علوم القرآن","category":"تفسير"},{"id":"2NGSPb14hNs","title":"34- معنى نزول القرآن على سبعة أحرف (3) الوجه العاشر - شرح الإتقان في علوم القرآن","publishedAt":"2023-03-08T05:30:00Z","duration":"PT27M21S","thumbnail":"https://i.ytimg.com/vi/2NGSPb14hNs/mqdefault.jpg","viewCount":"1329","playlistId":"PLEkQk5xrP-tlPw10KGJKagu7zm4Ry2Tge","playlistName":"شرح الإتقان في علوم القرآن","category":"تفسير"},{"id":"HqmzJoGnuTM","title":"29- النَّوْعُ السادس عشر: كيفية إنزاله وفيه مسائل: المسألة الأولى - الجزء الأول","publishedAt":"2023-02-26T05:00:07Z","duration":"PT26M23S","thumbnail":"https://i.ytimg.com/vi/HqmzJoGnuTM/mqdefault.jpg","viewCount":"1291","playlistId":"PLEkQk5xrP-tlPw10KGJKagu7zm4Ry2Tge","playlistName":"شرح الإتقان في علوم القرآن","category":"تفسير"},{"id":"NmuMZvQmHso","title":"53- معرفة المتواتر والمشهور والآحاد والشاذ والموضوع والمدرج - شرح الإتقان في علوم القرآن","publishedAt":"2023-04-25T09:00:24Z","duration":"PT33M33S","thumbnail":"https://i.ytimg.com/vi/NmuMZvQmHso/mqdefault.jpg","viewCount":"1290","playlistId":"PLEkQk5xrP-tlPw10KGJKagu7zm4Ry2Tge","playlistName":"شرح الإتقان في علوم القرآن","category":"تفسير"}],"total":313,"page":1,"pageSize":24,"totalPages":14}