{"items":[{"id":"k4zASJFj3Lk","title":"238- إيجاز القصر - شرح الإتقان في علوم القرآن","publishedAt":"2024-05-24T05:00:31Z","duration":"PT31M34S","thumbnail":"https://i.ytimg.com/vi/k4zASJFj3Lk/mqdefault.jpg","viewCount":"626","playlistId":"PLEkQk5xrP-tlPw10KGJKagu7zm4Ry2Tge","playlistName":"شرح الإتقان في علوم القرآن","category":"تفسير"},{"id":"ht9Jmcu6Mx0","title":"236- الإيجاز والإطناب - شرح الإتقان في علوم القرآن","publishedAt":"2024-05-19T05:00:31Z","duration":"PT31M42S","thumbnail":"https://i.ytimg.com/vi/ht9Jmcu6Mx0/mqdefault.jpg","viewCount":"626","playlistId":"PLEkQk5xrP-tlPw10KGJKagu7zm4Ry2Tge","playlistName":"شرح الإتقان في علوم القرآن","category":"تفسير"},{"id":"H_Tb4BU05_0","title":"167- معنى (الهاء - ها - هات - هل - هلُمَّ - هنا - هيت - هيهات)  - شرح الإتقان في علوم القرآن","publishedAt":"2023-11-02T06:15:00Z","duration":"PT30M17S","thumbnail":"https://i.ytimg.com/vi/H_Tb4BU05_0/mqdefault.jpg","viewCount":"622","playlistId":"PLEkQk5xrP-tlPw10KGJKagu7zm4Ry2Tge","playlistName":"شرح الإتقان في علوم القرآن","category":"تفسير"},{"id":"mXRpRor9QFI","title":"70- أحكام التلاوة (4): الإدغام والإظهار والإخفاء والإقلاب - شرح الإتقان في علوم القرآن","publishedAt":"2023-05-13T05:00:31Z","duration":"PT25M57S","thumbnail":"https://i.ytimg.com/vi/mXRpRor9QFI/mqdefault.jpg","viewCount":"621","playlistId":"PLEkQk5xrP-tlPw10KGJKagu7zm4Ry2Tge","playlistName":"شرح الإتقان في علوم القرآن","category":"تفسير"},{"id":"FrKtxA0b7WA","title":"239- قاعدة في حذف المفعول اختصارا - شرح الإتقان في علوم القرآن","publishedAt":"2024-05-27T08:55:07Z","duration":"PT37M11S","thumbnail":"https://i.ytimg.com/vi/FrKtxA0b7WA/mqdefault.jpg","viewCount":"618","playlistId":"PLEkQk5xrP-tlPw10KGJKagu7zm4Ry2Tge","playlistName":"شرح الإتقان في علوم القرآن","category":"تفسير"},{"id":"pTgW4c9zZb4","title":"244- الاختزال: أمثلة حذف الفعل وحذف الحرف - شرح الإتقان في علوم القرآن","publishedAt":"2024-06-23T09:06:27Z","duration":"PT38M19S","thumbnail":"https://i.ytimg.com/vi/pTgW4c9zZb4/mqdefault.jpg","viewCount":"614","playlistId":"PLEkQk5xrP-tlPw10KGJKagu7zm4Ry2Tge","playlistName":"شرح الإتقان في علوم القرآن","category":"تفسير"},{"id":"oOiuyJObduo","title":"188- قاعدةٌ: الفرق بين (بررة - أبرار ، إخوة - إخوان) - شرح الإتقان في علوم القرآن","publishedAt":"2023-12-24T07:07:38Z","duration":"PT28M34S","thumbnail":"https://i.ytimg.com/vi/oOiuyJObduo/mqdefault.jpg","viewCount":"612","playlistId":"PLEkQk5xrP-tlPw10KGJKagu7zm4Ry2Tge","playlistName":"شرح الإتقان في علوم القرآن","category":"تفسير"},{"id":"Dc9s7RD89iU","title":"219- أنواع الخطاب في القرآن - شرح الإتقان في علوم القرآن","publishedAt":"2024-03-21T07:00:05Z","duration":"PT32M30S","thumbnail":"https://i.ytimg.com/vi/Dc9s7RD89iU/mqdefault.jpg","viewCount":"612","playlistId":"PLEkQk5xrP-tlPw10KGJKagu7zm4Ry2Tge","playlistName":"شرح الإتقان في علوم القرآن","category":"تفسير"},{"id":"M_vBiAx3s2c","title":"177- شروط الإعراب (7) تنبيهات - شرح الإتقان في علوم القرآن","publishedAt":"2023-12-01T06:30:11Z","duration":"PT22M51S","thumbnail":"https://i.ytimg.com/vi/M_vBiAx3s2c/mqdefault.jpg","viewCount":"611","playlistId":"PLEkQk5xrP-tlPw10KGJKagu7zm4Ry2Tge","playlistName":"شرح الإتقان في علوم القرآن","category":"تفسير"},{"id":"uvE7EGaw6rY","title":"246- الإطناب - شرح الإتقان في علوم القرآن","publishedAt":"2024-07-13T05:18:04Z","duration":"PT28M18S","thumbnail":"https://i.ytimg.com/vi/uvE7EGaw6rY/mqdefault.jpg","viewCount":"607","playlistId":"PLEkQk5xrP-tlPw10KGJKagu7zm4Ry2Tge","playlistName":"شرح الإتقان في علوم القرآن","category":"تفسير"},{"id":"u3ZOCOHH1XQ","title":"71- أحكام التلاوة (5): بيان المَدِّ والقَصْر - شرح الإتقان في علوم القرآن","publishedAt":"2023-05-14T05:00:31Z","duration":"PT25M6S","thumbnail":"https://i.ytimg.com/vi/u3ZOCOHH1XQ/mqdefault.jpg","viewCount":"605","playlistId":"PLEkQk5xrP-tlPw10KGJKagu7zm4Ry2Tge","playlistName":"شرح الإتقان في علوم القرآن","category":"تفسير"},{"id":"SwX--YoIkxA","title":"265- أسلوب الالتفات - شرح الإتقان في علوم القرآن","publishedAt":"2024-11-04T06:00:19Z","duration":"PT22M16S","thumbnail":"https://i.ytimg.com/vi/SwX--YoIkxA/mqdefault.jpg","viewCount":"604","playlistId":"PLEkQk5xrP-tlPw10KGJKagu7zm4Ry2Tge","playlistName":"شرح الإتقان في علوم القرآن","category":"تفسير"},{"id":"9z-B5RQtl_E","title":"183- التذكير والتأنيث - شرح الإتقان في علوم القرآن","publishedAt":"2023-12-14T06:30:01Z","duration":"PT12M40S","thumbnail":"https://i.ytimg.com/vi/9z-B5RQtl_E/mqdefault.jpg","viewCount":"604","playlistId":"PLEkQk5xrP-tlPw10KGJKagu7zm4Ry2Tge","playlistName":"شرح الإتقان في علوم القرآن","category":"تفسير"},{"id":"cIjdLaqPLRw","title":"314- أشد آية في القرآن - شرح الإتقان في علوم القرآن","publishedAt":"2025-11-18T10:01:07Z","duration":"PT24M","thumbnail":"https://i.ytimg.com/vi/cIjdLaqPLRw/mqdefault.jpg","viewCount":"600","playlistId":"PLEkQk5xrP-tlPw10KGJKagu7zm4Ry2Tge","playlistName":"شرح الإتقان في علوم القرآن","category":"تفسير"},{"id":"IlUwp5elvrs","title":"234- تنبيه: تقديم المعمول يفيد الحصر  - شرح الإتقان في علوم القرآن","publishedAt":"2024-05-10T05:15:01Z","duration":"PT24M41S","thumbnail":"https://i.ytimg.com/vi/IlUwp5elvrs/mqdefault.jpg","viewCount":"597","playlistId":"PLEkQk5xrP-tlPw10KGJKagu7zm4Ry2Tge","playlistName":"شرح الإتقان في علوم القرآن","category":"تفسير"},{"id":"mPIenwnTlFc","title":"230- الكناية والتعريض - شرح الإتقان في علوم القرآن","publishedAt":"2024-05-02T05:17:03Z","duration":"PT28M22S","thumbnail":"https://i.ytimg.com/vi/mPIenwnTlFc/mqdefault.jpg","viewCount":"596","playlistId":"PLEkQk5xrP-tlPw10KGJKagu7zm4Ry2Tge","playlistName":"شرح الإتقان في علوم القرآن","category":"تفسير"},{"id":"_llUMlMIBxI","title":"202- النوع 44: في مقدمه ومؤخره- القسم الأول: ما أُشكل معناه بحسب الظاهر- شرح الإتقان في علوم القرآن","publishedAt":"2024-02-01T20:49:40Z","duration":"PT19M","thumbnail":"https://i.ytimg.com/vi/_llUMlMIBxI/mqdefault.jpg","viewCount":"594","playlistId":"PLEkQk5xrP-tlPw10KGJKagu7zm4Ry2Tge","playlistName":"شرح الإتقان في علوم القرآن","category":"تفسير"},{"id":"iMSU6GPfbA8","title":"256- الخبر والإنشاء - شرح الإتقان في علوم القرآن","publishedAt":"2024-09-23T06:31:37Z","duration":"PT32M","thumbnail":"https://i.ytimg.com/vi/iMSU6GPfbA8/mqdefault.jpg","viewCount":"591","playlistId":"PLEkQk5xrP-tlPw10KGJKagu7zm4Ry2Tge","playlistName":"شرح الإتقان في علوم القرآن","category":"تفسير"},{"id":"9DXuB4q3QFY","title":"176- شروط الإعراب (6) تنبيهات - شرح الإتقان في علوم القرآن","publishedAt":"2023-11-29T06:37:40Z","duration":"PT23M2S","thumbnail":"https://i.ytimg.com/vi/9DXuB4q3QFY/mqdefault.jpg","viewCount":"590","playlistId":"PLEkQk5xrP-tlPw10KGJKagu7zm4Ry2Tge","playlistName":"شرح الإتقان في علوم القرآن","category":"تفسير"},{"id":"fEtJ8dGapuk","title":"231- من أنواع البديع التي تشبه الكناية (الإرداف) - شرح الإتقان في علوم القرآن","publishedAt":"2024-05-04T04:45:48Z","duration":"PT23M27S","thumbnail":"https://i.ytimg.com/vi/fEtJ8dGapuk/mqdefault.jpg","viewCount":"587","playlistId":"PLEkQk5xrP-tlPw10KGJKagu7zm4Ry2Tge","playlistName":"شرح الإتقان في علوم القرآن","category":"تفسير"},{"id":"6OjApf3WAts","title":"125- معنى (أم) - شرح الإتقان في علوم القرآن","publishedAt":"2023-07-14T05:00:03Z","duration":"PT16M6S","thumbnail":"https://i.ytimg.com/vi/6OjApf3WAts/mqdefault.jpg","viewCount":"585","playlistId":"PLEkQk5xrP-tlPw10KGJKagu7zm4Ry2Tge","playlistName":"شرح الإتقان في علوم القرآن","category":"تفسير"},{"id":"Ln_Cv3GVOfA","title":"309- فضائل سور القرآن - شرح الإتقان في علوم القرآن","publishedAt":"2025-10-27T09:00:33Z","duration":"PT17M32S","thumbnail":"https://i.ytimg.com/vi/Ln_Cv3GVOfA/mqdefault.jpg","viewCount":"583","playlistId":"PLEkQk5xrP-tlPw10KGJKagu7zm4Ry2Tge","playlistName":"شرح الإتقان في علوم القرآن","category":"تفسير"},{"id":"8fZvypl2xKE","title":"237- الإيجاز الجامع - شرح الإتقان في علوم القرآن","publishedAt":"2024-05-21T08:34:28Z","duration":"PT23M18S","thumbnail":"https://i.ytimg.com/vi/8fZvypl2xKE/mqdefault.jpg","viewCount":"581","playlistId":"PLEkQk5xrP-tlPw10KGJKagu7zm4Ry2Tge","playlistName":"شرح الإتقان في علوم القرآن","category":"تفسير"},{"id":"v3ZlEcoy2b4","title":"90- غريب القرآن(5) - ما جاء في سورة النبأ - شرح الإتقان في علوم القرآن","publishedAt":"2023-06-03T05:00:31Z","duration":"PT25M31S","thumbnail":"https://i.ytimg.com/vi/v3ZlEcoy2b4/mqdefault.jpg","viewCount":"580","playlistId":"PLEkQk5xrP-tlPw10KGJKagu7zm4Ry2Tge","playlistName":"شرح الإتقان في علوم القرآن","category":"تفسير"}],"total":313,"page":9,"pageSize":24,"totalPages":14}