{"items":[{"id":"uFdZbySN7Ns","title":"143- حرف العين (عَسَىٰ - عِند) - شرح الإتقان في علوم القرآن","publishedAt":"2023-08-06T05:00:27Z","duration":"PT33M10S","thumbnail":"https://i.ytimg.com/vi/uFdZbySN7Ns/mqdefault.jpg","viewCount":"721","playlistId":"PLEkQk5xrP-tlPw10KGJKagu7zm4Ry2Tge","playlistName":"شرح الإتقان في علوم القرآن","category":"تفسير"},{"id":"qqkG3WVbaZk","title":"126- معنى (أمَّا - إِمَّا) - شرح الإتقان في علوم القرآن","publishedAt":"2023-07-16T05:05:00Z","duration":"PT13M17S","thumbnail":"https://i.ytimg.com/vi/qqkG3WVbaZk/mqdefault.jpg","viewCount":"719","playlistId":"PLEkQk5xrP-tlPw10KGJKagu7zm4Ry2Tge","playlistName":"شرح الإتقان في علوم القرآن","category":"تفسير"},{"id":"epmmLKUCLgw","title":"157- معنى (لَكِنَّ - لَكِنْ) - شرح الإتقان في علوم القرآن","publishedAt":"2023-10-05T05:34:56Z","duration":"PT22M40S","thumbnail":"https://i.ytimg.com/vi/epmmLKUCLgw/mqdefault.jpg","viewCount":"718","playlistId":"PLEkQk5xrP-tlPw10KGJKagu7zm4Ry2Tge","playlistName":"شرح الإتقان في علوم القرآن","category":"تفسير"},{"id":"1slwWuJWIz0","title":"181- قاعدةٌ: الأَصلُ عَوْدُ الضميرِ على أَقْرَبِ مذْكور - شرح الإتقان في علوم القرآن","publishedAt":"2023-12-08T06:30:00Z","duration":"PT35M49S","thumbnail":"https://i.ytimg.com/vi/1slwWuJWIz0/mqdefault.jpg","viewCount":"715","playlistId":"PLEkQk5xrP-tlPw10KGJKagu7zm4Ry2Tge","playlistName":"شرح الإتقان في علوم القرآن","category":"تفسير"},{"id":"W8rGnmlFFOE","title":"223- من أنواع المجاز: وضع النداء موضع التعجب - شرح الإتقان في علوم القرآن","publishedAt":"2024-04-12T06:00:20Z","duration":"PT33M21S","thumbnail":"https://i.ytimg.com/vi/W8rGnmlFFOE/mqdefault.jpg","viewCount":"712","playlistId":"PLEkQk5xrP-tlPw10KGJKagu7zm4Ry2Tge","playlistName":"شرح الإتقان في علوم القرآن","category":"تفسير"},{"id":"HEgzzCbFzdU","title":"48- اختلاف العدِّ تفصيلًا وإجمالًا - شرح الإتقان في علوم القرآن","publishedAt":"2023-04-05T05:10:00Z","duration":"PT20M33S","thumbnail":"https://i.ytimg.com/vi/HEgzzCbFzdU/mqdefault.jpg","viewCount":"711","playlistId":"PLEkQk5xrP-tlPw10KGJKagu7zm4Ry2Tge","playlistName":"شرح الإتقان في علوم القرآن","category":"تفسير"},{"id":"ks2A4_Z5BlA","title":"222- من أنواع المجاز: إطلاق المُسَبَّب على السبب - شرح الإتقان في علوم القرآن","publishedAt":"2024-03-29T07:00:09Z","duration":"PT41M9S","thumbnail":"https://i.ytimg.com/vi/ks2A4_Z5BlA/mqdefault.jpg","viewCount":"709","playlistId":"PLEkQk5xrP-tlPw10KGJKagu7zm4Ry2Tge","playlistName":"شرح الإتقان في علوم القرآن","category":"تفسير"},{"id":"-1pTKb2xR2g","title":"203- النوع 44: في مقدمه ومؤخره (2) القسم الثاني: ما ليس كذلك - شرح الإتقان في علوم القرآن","publishedAt":"2024-02-03T06:30:00Z","duration":"PT32M14S","thumbnail":"https://i.ytimg.com/vi/-1pTKb2xR2g/mqdefault.jpg","viewCount":"708","playlistId":"PLEkQk5xrP-tlPw10KGJKagu7zm4Ry2Tge","playlistName":"شرح الإتقان في علوم القرآن","category":"تفسير"},{"id":"Zj90Pt0deOc","title":"65- الإمالة والفتح وما بينهما - شرح الإتقان في علوم القرآن","publishedAt":"2023-05-08T05:01:07Z","duration":"PT28M7S","thumbnail":"https://i.ytimg.com/vi/Zj90Pt0deOc/mqdefault.jpg","viewCount":"706","playlistId":"PLEkQk5xrP-tlPw10KGJKagu7zm4Ry2Tge","playlistName":"شرح الإتقان في علوم القرآن","category":"تفسير"},{"id":"iY9CX6tOdKo","title":"227- الاستعارة - شرح الإتقان في علوم القرآن","publishedAt":"2024-04-23T05:30:15Z","duration":"PT24M18S","thumbnail":"https://i.ytimg.com/vi/iY9CX6tOdKo/mqdefault.jpg","viewCount":"701","playlistId":"PLEkQk5xrP-tlPw10KGJKagu7zm4Ry2Tge","playlistName":"شرح الإتقان في علوم القرآن","category":"تفسير"},{"id":"Oh8exxIPKbM","title":"228- أقسام الاستعارة: أصلية ، تبعية - شرح الإتقان في علوم القرآن","publishedAt":"2024-04-25T06:15:01Z","duration":"PT32M57S","thumbnail":"https://i.ytimg.com/vi/Oh8exxIPKbM/mqdefault.jpg","viewCount":"699","playlistId":"PLEkQk5xrP-tlPw10KGJKagu7zm4Ry2Tge","playlistName":"شرح الإتقان في علوم القرآن","category":"تفسير"},{"id":"FjAuoJvNByo","title":"152- معنى (كلَّا) - شرح الإتقان في علوم القرآن","publishedAt":"2023-09-24T05:15:01Z","duration":"PT21M7S","thumbnail":"https://i.ytimg.com/vi/FjAuoJvNByo/mqdefault.jpg","viewCount":"699","playlistId":"PLEkQk5xrP-tlPw10KGJKagu7zm4Ry2Tge","playlistName":"شرح الإتقان في علوم القرآن","category":"تفسير"},{"id":"lHjQtTKEF1s","title":"165- معنى (مِن - مَن) - شرح الإتقان في علوم القرآن","publishedAt":"2023-10-29T06:00:27Z","duration":"PT33M37S","thumbnail":"https://i.ytimg.com/vi/lHjQtTKEF1s/mqdefault.jpg","viewCount":"699","playlistId":"PLEkQk5xrP-tlPw10KGJKagu7zm4Ry2Tge","playlistName":"شرح الإتقان في علوم القرآن","category":"تفسير"},{"id":"bVDO0y5fWi4","title":"212- أقسام سور القرآن باعتبار الناسخ والمنسوخ (2) - شرح الإتقان في علوم القرآن","publishedAt":"2024-02-22T08:06:53Z","duration":"PT34M28S","thumbnail":"https://i.ytimg.com/vi/bVDO0y5fWi4/mqdefault.jpg","viewCount":"698","playlistId":"PLEkQk5xrP-tlPw10KGJKagu7zm4Ry2Tge","playlistName":"شرح الإتقان في علوم القرآن","category":"تفسير"},{"id":"-y3riLwaGjI","title":"245- الاختزال: أمثلة حذف أكثر من كلمة - شرح الإتقان في علوم القرآن","publishedAt":"2024-06-30T05:00:00Z","duration":"PT17M32S","thumbnail":"https://i.ytimg.com/vi/-y3riLwaGjI/mqdefault.jpg","viewCount":"698","playlistId":"PLEkQk5xrP-tlPw10KGJKagu7zm4Ry2Tge","playlistName":"شرح الإتقان في علوم القرآن","category":"تفسير"},{"id":"QuahGy6o3CA","title":"160- معنى (لو) - شرح الإتقان في علوم القرآن","publishedAt":"2023-10-15T05:15:00Z","duration":"PT33M","thumbnail":"https://i.ytimg.com/vi/QuahGy6o3CA/mqdefault.jpg","viewCount":"691","playlistId":"PLEkQk5xrP-tlPw10KGJKagu7zm4Ry2Tge","playlistName":"شرح الإتقان في علوم القرآن","category":"تفسير"},{"id":"PgrMb_LKmGA","title":"51- بيان مَن جمع القرآن ومَن اشتهر بإقرائه - شرح الإتقان في علوم القرآن","publishedAt":"2023-04-15T10:01:00Z","duration":"PT25M48S","thumbnail":"https://i.ytimg.com/vi/PgrMb_LKmGA/mqdefault.jpg","viewCount":"691","playlistId":"PLEkQk5xrP-tlPw10KGJKagu7zm4Ry2Tge","playlistName":"شرح الإتقان في علوم القرآن","category":"تفسير"},{"id":"kGEA566Om8w","title":"291- العلوم المستنبطة من القرآن - شرح الإتقان في علوم القرآن","publishedAt":"2025-04-29T09:01:07Z","duration":"PT16M23S","thumbnail":"https://i.ytimg.com/vi/kGEA566Om8w/mqdefault.jpg","viewCount":"690","playlistId":"PLEkQk5xrP-tlPw10KGJKagu7zm4Ry2Tge","playlistName":"شرح الإتقان في علوم القرآن","category":"تفسير"},{"id":"y0k5D7v9AlE","title":"68- أحكام التلاوة (2): الإدغام والإظهار والإخفاء والإقلاب - شرح الإتقان في علوم القرآن","publishedAt":"2023-05-11T05:30:12Z","duration":"PT11M5S","thumbnail":"https://i.ytimg.com/vi/y0k5D7v9AlE/mqdefault.jpg","viewCount":"689","playlistId":"PLEkQk5xrP-tlPw10KGJKagu7zm4Ry2Tge","playlistName":"شرح الإتقان في علوم القرآن","category":"تفسير"},{"id":"jHNEkOdzCO0","title":"282- مناسبة الآيات والسور - شرح الإتقان في علوم القرآن","publishedAt":"2025-02-04T07:29:11Z","duration":"PT42M58S","thumbnail":"https://i.ytimg.com/vi/jHNEkOdzCO0/mqdefault.jpg","viewCount":"688","playlistId":"PLEkQk5xrP-tlPw10KGJKagu7zm4Ry2Tge","playlistName":"شرح الإتقان في علوم القرآن","category":"تفسير"},{"id":"jJJPseN-OjI","title":"84- حكم سجود التِّلاوة ومواضعها -آداب تلاوة القرآن (7) - شرح الإتقان في علوم القرآن","publishedAt":"2023-05-29T05:00:30Z","duration":"PT30M5S","thumbnail":"https://i.ytimg.com/vi/jJJPseN-OjI/mqdefault.jpg","viewCount":"685","playlistId":"PLEkQk5xrP-tlPw10KGJKagu7zm4Ry2Tge","playlistName":"شرح الإتقان في علوم القرآن","category":"تفسير"},{"id":"-YmrWz1SxGM","title":"153- معاني (كم - كي - كيف) - شرح الإتقان في علوم القرآن","publishedAt":"2023-09-26T05:15:00Z","duration":"PT32M6S","thumbnail":"https://i.ytimg.com/vi/-YmrWz1SxGM/mqdefault.jpg","viewCount":"684","playlistId":"PLEkQk5xrP-tlPw10KGJKagu7zm4Ry2Tge","playlistName":"شرح الإتقان في علوم القرآن","category":"تفسير"},{"id":"FKebcgEeWfs","title":"263- بدائع القرآن - شرح الإتقان في علوم القرآن","publishedAt":"2024-10-31T06:00:06Z","duration":"PT37M39S","thumbnail":"https://i.ytimg.com/vi/FKebcgEeWfs/mqdefault.jpg","viewCount":"682","playlistId":"PLEkQk5xrP-tlPw10KGJKagu7zm4Ry2Tge","playlistName":"شرح الإتقان في علوم القرآن","category":"تفسير"},{"id":"G7maJvjBCLg","title":"242- أنواع الحذف - شرح الإتقان في علوم القرآن","publishedAt":"2024-06-18T05:00:15Z","duration":"PT22M29S","thumbnail":"https://i.ytimg.com/vi/G7maJvjBCLg/mqdefault.jpg","viewCount":"679","playlistId":"PLEkQk5xrP-tlPw10KGJKagu7zm4Ry2Tge","playlistName":"شرح الإتقان في علوم القرآن","category":"تفسير"}],"total":313,"page":7,"pageSize":24,"totalPages":14}