{"items":[{"id":"Wg4qH0L-OeE","title":"81- باب السُّلْفَةِ فِى الْعُرُوضِ ك الموطأ د يسري جبر الأزهري","publishedAt":"2018-10-25T14:21:51Z","duration":"PT49M40S","thumbnail":"https://i.ytimg.com/vi/Wg4qH0L-OeE/mqdefault.jpg","viewCount":"221","playlistId":"PLEkQk5xrP-tnC6BRuqMjyO-484iqXeg0o","playlistName":"شرح كتاب الموطأ للإمام مالك","category":"متنوع"},{"id":"0i4Fdfml7mg","title":"76- باب مَا يَجُوزُ فِى اسْتِثْنَاءِ الثَّمَرِ  ك الموطأ د يسري جبر الأزهري","publishedAt":"2018-09-03T13:00:04Z","duration":"PT51M45S","thumbnail":"https://i.ytimg.com/vi/0i4Fdfml7mg/mqdefault.jpg","viewCount":"219","playlistId":"PLEkQk5xrP-tnC6BRuqMjyO-484iqXeg0o","playlistName":"شرح كتاب الموطأ للإمام مالك","category":"متنوع"},{"id":"JI89DZMN6yU","title":"79- باب بَيْعِ الطَّعَامِ بِالطَّعَامِ لاَ فَضْلَ بَيْنَهُمَا ك الموطأ د يسري جبر الأزهري","publishedAt":"2018-09-22T13:35:44Z","duration":"PT43M40S","thumbnail":"https://i.ytimg.com/vi/JI89DZMN6yU/mqdefault.jpg","viewCount":"218","playlistId":"PLEkQk5xrP-tnC6BRuqMjyO-484iqXeg0o","playlistName":"شرح كتاب الموطأ للإمام مالك","category":"متنوع"},{"id":"WSWIBNqRFYk","title":"78- باب الْعِينَةِ وَمَا يُشْبِهُهَا ك الموطأ د يسري جبر الأزهري","publishedAt":"2018-09-19T11:04:36Z","duration":"PT35M50S","thumbnail":"https://i.ytimg.com/vi/WSWIBNqRFYk/mqdefault.jpg","viewCount":"217","playlistId":"PLEkQk5xrP-tnC6BRuqMjyO-484iqXeg0o","playlistName":"شرح كتاب الموطأ للإمام مالك","category":"متنوع"},{"id":"CzFIsoJ0Ses","title":"77- باب بَيْعِ الْفَاكِهَةِ ك الموطأ د يسري جبر الأزهري","publishedAt":"2018-09-13T11:37:26Z","duration":"PT53M11S","thumbnail":"https://i.ytimg.com/vi/CzFIsoJ0Ses/mqdefault.jpg","viewCount":"216","playlistId":"PLEkQk5xrP-tnC6BRuqMjyO-484iqXeg0o","playlistName":"شرح كتاب الموطأ للإمام مالك","category":"متنوع"},{"id":"WKWAnBO4St8","title":"70- باب عِدَّةِ الَّتِى تَفْقِدُ زَوْجَهَا ك الموطأ د يسري جبر الأزهري","publishedAt":"2018-08-16T12:38:27Z","duration":"PT51M50S","thumbnail":"https://i.ytimg.com/vi/WKWAnBO4St8/mqdefault.jpg","viewCount":"213","playlistId":"PLEkQk5xrP-tnC6BRuqMjyO-484iqXeg0o","playlistName":"شرح كتاب الموطأ للإمام مالك","category":"متنوع"},{"id":"QZld4emReIg","title":"66- باب مَا لاَ يُبِينُ مِنَ التَّمْلِيكِ  ك الموطأ د يسري جبر الأزهري","publishedAt":"2018-07-19T17:47:15Z","duration":"PT57M35S","thumbnail":"https://i.ytimg.com/vi/QZld4emReIg/mqdefault.jpg","viewCount":"206","playlistId":"PLEkQk5xrP-tnC6BRuqMjyO-484iqXeg0o","playlistName":"شرح كتاب الموطأ للإمام مالك","category":"متنوع"},{"id":"OFYQgwV0dFA","title":"73- باب مَا جَاءَ فِى الإِحْدَادِ ك الموطأ د يسري جبر الأزهري","publishedAt":"2018-08-27T11:56:54Z","duration":"PT1H54S","thumbnail":"https://i.ytimg.com/vi/OFYQgwV0dFA/mqdefault.jpg","viewCount":"189","playlistId":"PLEkQk5xrP-tnC6BRuqMjyO-484iqXeg0o","playlistName":"شرح كتاب الموطأ للإمام مالك","category":"متنوع"},{"id":"6o4Q4-q5pXg","title":"67- باب مَا جَاءَ فِى الْخِيَارِ  ك الموطأ د يسري جبر الأزهري","publishedAt":"2018-07-20T11:30:51Z","duration":"PT49M10S","thumbnail":"https://i.ytimg.com/vi/6o4Q4-q5pXg/mqdefault.jpg","viewCount":"186","playlistId":"PLEkQk5xrP-tnC6BRuqMjyO-484iqXeg0o","playlistName":"شرح كتاب الموطأ للإمام مالك","category":"متنوع"},{"id":"1O7xOQnw4qE","title":"72- باب عِدَّةِ الْمُتَوَفَّى عَنْهَا زَوْجُهَا إِذَا كَانَتْ حَامِلاً  ك الموطأ د يسري جبر الأزهري","publishedAt":"2018-08-26T11:52:29Z","duration":"PT41M31S","thumbnail":"https://i.ytimg.com/vi/1O7xOQnw4qE/mqdefault.jpg","viewCount":"179","playlistId":"PLEkQk5xrP-tnC6BRuqMjyO-484iqXeg0o","playlistName":"شرح كتاب الموطأ للإمام مالك","category":"متنوع"},{"id":"_N9v1xWfMSg","title":"68- باب مَا جَاءَ فِى اللِّعَانِ ك الموطأ د يسري جبر الأزهري","publishedAt":"2018-08-04T11:34:35Z","duration":"PT41M56S","thumbnail":"https://i.ytimg.com/vi/_N9v1xWfMSg/mqdefault.jpg","viewCount":"171","playlistId":"PLEkQk5xrP-tnC6BRuqMjyO-484iqXeg0o","playlistName":"شرح كتاب الموطأ للإمام مالك","category":"متنوع"}],"total":83,"page":4,"pageSize":24,"totalPages":4}