{"items":[{"id":"IIekkytllbM","title":"صحيح الإمام البخارى رضى الله عنه - كتاب النكاح - المجلس الخامس","publishedAt":"2015-02-08T21:27:36Z","duration":"PT57M39S","thumbnail":"https://i.ytimg.com/vi/IIekkytllbM/mqdefault.jpg","viewCount":"251","playlistId":"PLEkQk5xrP-tmJuzaj4GWRenFoFx9gdbFX","playlistName":"شرح كتاب صحيح الإمام البخاري رضي الله تعالى عنه   أ.د. يسرى جبر","category":"حديث"},{"id":"oa73hq-jaBA","title":"صحيح الإمام البخارى رضى الله عنه - كتاب النكاح - المجلس الرابع","publishedAt":"2015-02-01T04:11:18Z","duration":"PT58M52S","thumbnail":"https://i.ytimg.com/vi/oa73hq-jaBA/mqdefault.jpg","viewCount":"290","playlistId":"PLEkQk5xrP-tmJuzaj4GWRenFoFx9gdbFX","playlistName":"شرح كتاب صحيح الإمام البخاري رضي الله تعالى عنه   أ.د. يسرى جبر","category":"حديث"},{"id":"LoC7xzp1qzI","title":"صحيح الإمام البخاري رضي الله عنه - كتاب الدِّيات المجلس الرابع ( د.يسري جبر)","publishedAt":"2018-05-22T23:25:09Z","duration":"PT34M42S","thumbnail":"https://i.ytimg.com/vi/LoC7xzp1qzI/mqdefault.jpg","viewCount":"128","playlistId":"PLEkQk5xrP-tmJuzaj4GWRenFoFx9gdbFX","playlistName":"شرح كتاب صحيح الإمام البخاري رضي الله تعالى عنه   أ.د. يسرى جبر","category":"حديث"},{"id":"QiM4Yqv14r8","title":"شرح صحيح الإمام البخاري رضي الله تعالى عنه - كتاب الإكراه - المجلس الثاني.   د. يسري جبر","publishedAt":"2018-09-12T20:47:23Z","duration":"PT19M33S","thumbnail":"https://i.ytimg.com/vi/QiM4Yqv14r8/mqdefault.jpg","viewCount":"178","playlistId":"PLEkQk5xrP-tmJuzaj4GWRenFoFx9gdbFX","playlistName":"شرح كتاب صحيح الإمام البخاري رضي الله تعالى عنه   أ.د. يسرى جبر","category":"حديث"},{"id":"Ls1bmoyeGbQ","title":"صحيح الإمام البخاري رضي الله عنه - كتاب الأدب - المجلس السابع  د. يسري جبر","publishedAt":"2016-12-26T19:41:30Z","duration":"PT29M44S","thumbnail":"https://i.ytimg.com/vi/Ls1bmoyeGbQ/mqdefault.jpg","viewCount":"137","playlistId":"PLEkQk5xrP-tmJuzaj4GWRenFoFx9gdbFX","playlistName":"شرح كتاب صحيح الإمام البخاري رضي الله تعالى عنه   أ.د. يسرى جبر","category":"حديث"},{"id":"OMxh6TYSigk","title":"صحيح الإمام البخاري رضي الله عنه - كتاب الأدب - المجلس السادس د. يسري جبر","publishedAt":"2016-12-22T17:56:45Z","duration":"PT37M3S","thumbnail":"https://i.ytimg.com/vi/OMxh6TYSigk/mqdefault.jpg","viewCount":"219","playlistId":"PLEkQk5xrP-tmJuzaj4GWRenFoFx9gdbFX","playlistName":"شرح كتاب صحيح الإمام البخاري رضي الله تعالى عنه   أ.د. يسرى جبر","category":"حديث"},{"id":"hJHfk6zoDGY","title":"صحيح البخاري - كتاب الفرائض - باب الولاء لمن اعتق وميراث اللقيط","publishedAt":"2018-02-04T23:39:20Z","duration":"PT47M49S","thumbnail":"https://i.ytimg.com/vi/hJHfk6zoDGY/mqdefault.jpg","viewCount":"48","playlistId":"PLEkQk5xrP-tmJuzaj4GWRenFoFx9gdbFX","playlistName":"شرح كتاب صحيح الإمام البخاري رضي الله تعالى عنه   أ.د. يسرى جبر","category":"حديث"},{"id":"jQcXiRQR9hw","title":"صحيح البخاري - كتاب الفرائض - باب (يُوصِيكُمُ اللَّهُ فِي أَوْلَادِكُمْ )","publishedAt":"2017-12-25T18:23:31Z","duration":"PT46M","thumbnail":"https://i.ytimg.com/vi/jQcXiRQR9hw/mqdefault.jpg","viewCount":"158","playlistId":"PLEkQk5xrP-tmJuzaj4GWRenFoFx9gdbFX","playlistName":"شرح كتاب صحيح الإمام البخاري رضي الله تعالى عنه   أ.د. يسرى جبر","category":"حديث"},{"id":"TRAj3QK0YP4","title":"صحيح البخاري - كتاب الأيمان والنذور - باب صاع المدينة","publishedAt":"2017-12-24T15:56:16Z","duration":"PT53M31S","thumbnail":"https://i.ytimg.com/vi/TRAj3QK0YP4/mqdefault.jpg","viewCount":"86","playlistId":"PLEkQk5xrP-tmJuzaj4GWRenFoFx9gdbFX","playlistName":"شرح كتاب صحيح الإمام البخاري رضي الله تعالى عنه   أ.د. يسرى جبر","category":"حديث"},{"id":"Waqqq31HJRM","title":"صحيح الإمام البخاري رضي الله عنه - كتاب الدِّيات المجلس الثالث ( د.يسري جبر)","publishedAt":"2018-05-12T20:57:13Z","duration":"PT19M23S","thumbnail":"https://i.ytimg.com/vi/Waqqq31HJRM/mqdefault.jpg","viewCount":"120","playlistId":"PLEkQk5xrP-tmJuzaj4GWRenFoFx9gdbFX","playlistName":"شرح كتاب صحيح الإمام البخاري رضي الله تعالى عنه   أ.د. يسرى جبر","category":"حديث"},{"id":"dqHRvrCprpc","title":"صحيح البخاري - كتاب الفرائض - باب ميراث الزوج مع الولد وغيره","publishedAt":"2018-01-30T13:15:08Z","duration":"PT1H5M4S","thumbnail":"https://i.ytimg.com/vi/dqHRvrCprpc/mqdefault.jpg","viewCount":"118","playlistId":"PLEkQk5xrP-tmJuzaj4GWRenFoFx9gdbFX","playlistName":"شرح كتاب صحيح الإمام البخاري رضي الله تعالى عنه   أ.د. يسرى جبر","category":"حديث"},{"id":"2U_a6PJkTgc","title":"صحيح البخاري - كتاب الفرائض - باب قول النبي صلى الله عليه وسلم \"لا نورث ما تركنا صدقه","publishedAt":"2017-12-31T09:49:48Z","duration":"PT43M27S","thumbnail":"https://i.ytimg.com/vi/2U_a6PJkTgc/mqdefault.jpg","viewCount":"197","playlistId":"PLEkQk5xrP-tmJuzaj4GWRenFoFx9gdbFX","playlistName":"شرح كتاب صحيح الإمام البخاري رضي الله تعالى عنه   أ.د. يسرى جبر","category":"حديث"},{"id":"1IiUwZMhChQ","title":"صحيح الإمام البخارى رضى الله عنه - كتاب فضائل القرآن - المجلس الرابع","publishedAt":"2014-12-20T20:01:49Z","duration":"PT59M41S","thumbnail":"https://i.ytimg.com/vi/1IiUwZMhChQ/mqdefault.jpg","viewCount":"385","playlistId":"PLEkQk5xrP-tmJuzaj4GWRenFoFx9gdbFX","playlistName":"شرح كتاب صحيح الإمام البخاري رضي الله تعالى عنه   أ.د. يسرى جبر","category":"حديث"},{"id":"wGXrWAk47BA","title":"صحيح الإمام البخارى رضى الله عنه - كتاب فضائل القرآن - المجلس الثالث","publishedAt":"2014-12-14T04:28:42Z","duration":"PT1H4M18S","thumbnail":"https://i.ytimg.com/vi/wGXrWAk47BA/mqdefault.jpg","viewCount":"329","playlistId":"PLEkQk5xrP-tmJuzaj4GWRenFoFx9gdbFX","playlistName":"شرح كتاب صحيح الإمام البخاري رضي الله تعالى عنه   أ.د. يسرى جبر","category":"حديث"},{"id":"cQ5d6-49ZKc","title":"صحيح الإمام البخاري رضي الله عنه -كتاب الرقاق باب يدخل الجنة سبعون ألفا بغير حساب (13) د.يسري جبر","publishedAt":"2017-09-19T17:44:59Z","duration":"PT52M14S","thumbnail":"https://i.ytimg.com/vi/cQ5d6-49ZKc/mqdefault.jpg","viewCount":"412","playlistId":"PLEkQk5xrP-tmJuzaj4GWRenFoFx9gdbFX","playlistName":"شرح كتاب صحيح الإمام البخاري رضي الله تعالى عنه   أ.د. يسرى جبر","category":"حديث"},{"id":"4QXeIJjMbEU","title":"صحيح الإمام البخاري رضي الله عنه -كتاب الرقاق باب \"الا يظن اولئك انهم مبعوثون\" (12) د.يسري جبر","publishedAt":"2017-09-19T05:06:33Z","duration":"PT31M24S","thumbnail":"https://i.ytimg.com/vi/4QXeIJjMbEU/mqdefault.jpg","viewCount":"147","playlistId":"PLEkQk5xrP-tmJuzaj4GWRenFoFx9gdbFX","playlistName":"شرح كتاب صحيح الإمام البخاري رضي الله تعالى عنه   أ.د. يسرى جبر","category":"حديث"},{"id":"dYFsmsQmYak","title":"صحيح الإمام البخاري رضي الله عنه - كتاب الرقاق باب نفخ الصور(11) د.يسري جبر","publishedAt":"2017-09-18T12:12:33Z","duration":"PT58M19S","thumbnail":"https://i.ytimg.com/vi/dYFsmsQmYak/mqdefault.jpg","viewCount":"253","playlistId":"PLEkQk5xrP-tmJuzaj4GWRenFoFx9gdbFX","playlistName":"شرح كتاب صحيح الإمام البخاري رضي الله تعالى عنه   أ.د. يسرى جبر","category":"حديث"},{"id":"VkFZqsb0L74","title":"صحيح الإمام البخاري رضي الله عنه - كتاب الأدب - المجلس الخامس  د. يسري جبر","publishedAt":"2016-12-07T14:29:04Z","duration":"PT50M32S","thumbnail":"https://i.ytimg.com/vi/VkFZqsb0L74/mqdefault.jpg","viewCount":"194","playlistId":"PLEkQk5xrP-tmJuzaj4GWRenFoFx9gdbFX","playlistName":"شرح كتاب صحيح الإمام البخاري رضي الله تعالى عنه   أ.د. يسرى جبر","category":"حديث"},{"id":"lRoDXA0hmik","title":"‎شرح صحيح الإمام البخاري رضي الله تعالى عنه - كتاب الاعتصام من أوله - أ.د. يسري جبر","publishedAt":"2019-12-12T08:25:37Z","duration":"PT26M28S","thumbnail":"https://i.ytimg.com/vi/lRoDXA0hmik/mqdefault.jpg","viewCount":"331","playlistId":"PLEkQk5xrP-tmJuzaj4GWRenFoFx9gdbFX","playlistName":"شرح كتاب صحيح الإمام البخاري رضي الله تعالى عنه   أ.د. يسرى جبر","category":"حديث"},{"id":"5GrokMGoBvQ","title":"صحيح الإمام البخارى رضى الله عنه - كتاب فضائل القرآن - المجلس الثانى","publishedAt":"2014-12-06T20:01:18Z","duration":"PT1H2M26S","thumbnail":"https://i.ytimg.com/vi/5GrokMGoBvQ/mqdefault.jpg","viewCount":"509","playlistId":"PLEkQk5xrP-tmJuzaj4GWRenFoFx9gdbFX","playlistName":"شرح كتاب صحيح الإمام البخاري رضي الله تعالى عنه   أ.د. يسرى جبر","category":"حديث"},{"id":"Ut9qW7dcf8Y","title":"صحيح الإمام البخارى رضى الله عنه - كتاب فضائل القرآن - المجلس الأول","publishedAt":"2014-12-01T14:08:00Z","duration":"PT57M39S","thumbnail":"https://i.ytimg.com/vi/Ut9qW7dcf8Y/mqdefault.jpg","viewCount":"3124","playlistId":"PLEkQk5xrP-tmJuzaj4GWRenFoFx9gdbFX","playlistName":"شرح كتاب صحيح الإمام البخاري رضي الله تعالى عنه   أ.د. يسرى جبر","category":"حديث"},{"id":"xnH080LsaFE","title":"صحيح الإمام البخارى رضى عنه - كتاب فضائل القرآن - المجلس السادس","publishedAt":"2015-01-05T21:00:32Z","duration":"PT1H6M32S","thumbnail":"https://i.ytimg.com/vi/xnH080LsaFE/mqdefault.jpg","viewCount":"220","playlistId":"PLEkQk5xrP-tmJuzaj4GWRenFoFx9gdbFX","playlistName":"شرح كتاب صحيح الإمام البخاري رضي الله تعالى عنه   أ.د. يسرى جبر","category":"حديث"},{"id":"wqeBDPSAEQM","title":"صحيح الإمام البخاري رضي الله عنه - كتاب الدِّيات المجلس الثاني ( د.يسري جبر)","publishedAt":"2018-04-08T16:51:47Z","duration":"PT32M1S","thumbnail":"https://i.ytimg.com/vi/wqeBDPSAEQM/mqdefault.jpg","viewCount":"137","playlistId":"PLEkQk5xrP-tmJuzaj4GWRenFoFx9gdbFX","playlistName":"شرح كتاب صحيح الإمام البخاري رضي الله تعالى عنه   أ.د. يسرى جبر","category":"حديث"},{"id":"Uvhx4_BUyCg","title":"صحيح الإمام البخاري رضي الله عنه - كتاب الأدب - المجلس الرابع    د. يسري جبر","publishedAt":"2016-12-04T18:06:31Z","duration":"PT50M11S","thumbnail":"https://i.ytimg.com/vi/Uvhx4_BUyCg/mqdefault.jpg","viewCount":"181","playlistId":"PLEkQk5xrP-tmJuzaj4GWRenFoFx9gdbFX","playlistName":"شرح كتاب صحيح الإمام البخاري رضي الله تعالى عنه   أ.د. يسرى جبر","category":"حديث"}],"total":219,"page":7,"pageSize":24,"totalPages":10}