{"items":[{"id":"xyHoQKBe0p4","title":"صحيح الإمام البخاري رضي الله عنه - كتاب الأيمان والنذور (تكملة باب كيف كانت يمين النبي) د.يسري جبر","publishedAt":"2017-10-28T07:11:55Z","duration":"PT29M5S","thumbnail":"https://i.ytimg.com/vi/xyHoQKBe0p4/mqdefault.jpg","viewCount":"106","playlistId":"PLEkQk5xrP-tmJuzaj4GWRenFoFx9gdbFX","playlistName":"شرح كتاب صحيح الإمام البخاري رضي الله تعالى عنه   أ.د. يسرى جبر","category":"حديث"},{"id":"b-WLdyO9nLc","title":"صحيح البخاري - كتاب المحاربين من أهل الكفر والردة","publishedAt":"2018-03-05T18:57:45Z","duration":"PT25M48S","thumbnail":"https://i.ytimg.com/vi/b-WLdyO9nLc/mqdefault.jpg","viewCount":"159","playlistId":"PLEkQk5xrP-tmJuzaj4GWRenFoFx9gdbFX","playlistName":"شرح كتاب صحيح الإمام البخاري رضي الله تعالى عنه   أ.د. يسرى جبر","category":"حديث"},{"id":"IvxztUWp7Y0","title":"صحيح البخاري - كتاب الحدود","publishedAt":"2018-02-19T07:28:56Z","duration":"PT56M26S","thumbnail":"https://i.ytimg.com/vi/IvxztUWp7Y0/mqdefault.jpg","viewCount":"185","playlistId":"PLEkQk5xrP-tmJuzaj4GWRenFoFx9gdbFX","playlistName":"شرح كتاب صحيح الإمام البخاري رضي الله تعالى عنه   أ.د. يسرى جبر","category":"حديث"},{"id":"hJHfk6zoDGY","title":"صحيح البخاري - كتاب الفرائض - باب الولاء لمن اعتق وميراث اللقيط","publishedAt":"2018-02-04T23:39:20Z","duration":"PT47M49S","thumbnail":"https://i.ytimg.com/vi/hJHfk6zoDGY/mqdefault.jpg","viewCount":"48","playlistId":"PLEkQk5xrP-tmJuzaj4GWRenFoFx9gdbFX","playlistName":"شرح كتاب صحيح الإمام البخاري رضي الله تعالى عنه   أ.د. يسرى جبر","category":"حديث"},{"id":"dqHRvrCprpc","title":"صحيح البخاري - كتاب الفرائض - باب ميراث الزوج مع الولد وغيره","publishedAt":"2018-01-30T13:15:08Z","duration":"PT1H5M4S","thumbnail":"https://i.ytimg.com/vi/dqHRvrCprpc/mqdefault.jpg","viewCount":"118","playlistId":"PLEkQk5xrP-tmJuzaj4GWRenFoFx9gdbFX","playlistName":"شرح كتاب صحيح الإمام البخاري رضي الله تعالى عنه   أ.د. يسرى جبر","category":"حديث"},{"id":"2U_a6PJkTgc","title":"صحيح البخاري - كتاب الفرائض - باب قول النبي صلى الله عليه وسلم \"لا نورث ما تركنا صدقه","publishedAt":"2017-12-31T09:49:48Z","duration":"PT43M27S","thumbnail":"https://i.ytimg.com/vi/2U_a6PJkTgc/mqdefault.jpg","viewCount":"197","playlistId":"PLEkQk5xrP-tmJuzaj4GWRenFoFx9gdbFX","playlistName":"شرح كتاب صحيح الإمام البخاري رضي الله تعالى عنه   أ.د. يسرى جبر","category":"حديث"},{"id":"1IiUwZMhChQ","title":"صحيح الإمام البخارى رضى الله عنه - كتاب فضائل القرآن - المجلس الرابع","publishedAt":"2014-12-20T20:01:49Z","duration":"PT59M41S","thumbnail":"https://i.ytimg.com/vi/1IiUwZMhChQ/mqdefault.jpg","viewCount":"385","playlistId":"PLEkQk5xrP-tmJuzaj4GWRenFoFx9gdbFX","playlistName":"شرح كتاب صحيح الإمام البخاري رضي الله تعالى عنه   أ.د. يسرى جبر","category":"حديث"},{"id":"wGXrWAk47BA","title":"صحيح الإمام البخارى رضى الله عنه - كتاب فضائل القرآن - المجلس الثالث","publishedAt":"2014-12-14T04:28:42Z","duration":"PT1H4M18S","thumbnail":"https://i.ytimg.com/vi/wGXrWAk47BA/mqdefault.jpg","viewCount":"329","playlistId":"PLEkQk5xrP-tmJuzaj4GWRenFoFx9gdbFX","playlistName":"شرح كتاب صحيح الإمام البخاري رضي الله تعالى عنه   أ.د. يسرى جبر","category":"حديث"},{"id":"5GrokMGoBvQ","title":"صحيح الإمام البخارى رضى الله عنه - كتاب فضائل القرآن - المجلس الثانى","publishedAt":"2014-12-06T20:01:18Z","duration":"PT1H2M26S","thumbnail":"https://i.ytimg.com/vi/5GrokMGoBvQ/mqdefault.jpg","viewCount":"509","playlistId":"PLEkQk5xrP-tmJuzaj4GWRenFoFx9gdbFX","playlistName":"شرح كتاب صحيح الإمام البخاري رضي الله تعالى عنه   أ.د. يسرى جبر","category":"حديث"},{"id":"Ut9qW7dcf8Y","title":"صحيح الإمام البخارى رضى الله عنه - كتاب فضائل القرآن - المجلس الأول","publishedAt":"2014-12-01T14:08:00Z","duration":"PT57M39S","thumbnail":"https://i.ytimg.com/vi/Ut9qW7dcf8Y/mqdefault.jpg","viewCount":"3124","playlistId":"PLEkQk5xrP-tmJuzaj4GWRenFoFx9gdbFX","playlistName":"شرح كتاب صحيح الإمام البخاري رضي الله تعالى عنه   أ.د. يسرى جبر","category":"حديث"},{"id":"jzLcmEUao08","title":"شرح صحيح البخاري كتاب الدعوات (الاستعاذة من أرذل العمر ومن فتنة الدنيا)المجلس السادس د.يسري جبر","publishedAt":"2017-05-14T15:20:43Z","duration":"PT44M4S","thumbnail":"https://i.ytimg.com/vi/jzLcmEUao08/mqdefault.jpg","viewCount":"467","playlistId":"PLEkQk5xrP-tmJuzaj4GWRenFoFx9gdbFX","playlistName":"شرح كتاب صحيح الإمام البخاري رضي الله تعالى عنه   أ.د. يسرى جبر","category":"حديث"},{"id":"p3al_tWSuRs","title":"صحيح الإمام البخاري رضي الله عنه كتاب اللباس ( باب الجعد ) المجلس التاسع. د. يسري جبر","publishedAt":"2016-11-07T19:10:23Z","duration":"PT50M10S","thumbnail":"https://i.ytimg.com/vi/p3al_tWSuRs/mqdefault.jpg","viewCount":"168","playlistId":"PLEkQk5xrP-tmJuzaj4GWRenFoFx9gdbFX","playlistName":"شرح كتاب صحيح الإمام البخاري رضي الله تعالى عنه   أ.د. يسرى جبر","category":"حديث"},{"id":"clUWDYt-S5Q","title":"صحيح الإمام البخاري رضي الله عنه كتاب اللباس ( باب إعْفَاءِ اللِّحى ) المجلس الثامن. د. يسري جبر","publishedAt":"2016-11-06T14:03:06Z","duration":"PT44M","thumbnail":"https://i.ytimg.com/vi/clUWDYt-S5Q/mqdefault.jpg","viewCount":"785","playlistId":"PLEkQk5xrP-tmJuzaj4GWRenFoFx9gdbFX","playlistName":"شرح كتاب صحيح الإمام البخاري رضي الله تعالى عنه   أ.د. يسرى جبر","category":"حديث"},{"id":"l-siBlIVPtY","title":"صحيح الإمام البخاري رضي الله عنه - كتاب الذبائح والصيد والتسمية على الصيد -المجلس الثاني د. يسري جبر","publishedAt":"2016-03-28T05:12:33Z","duration":"PT1H30S","thumbnail":"https://i.ytimg.com/vi/l-siBlIVPtY/mqdefault.jpg","viewCount":"133","playlistId":"PLEkQk5xrP-tmJuzaj4GWRenFoFx9gdbFX","playlistName":"شرح كتاب صحيح الإمام البخاري رضي الله تعالى عنه   أ.د. يسرى جبر","category":"حديث"},{"id":"_o7TCjHNbB4","title":"صحيح الإمام البخاري رضي الله عنه - كتاب الذبائح والصيد والتسمية على الصيد - المجلس الأول د. يسري جبر","publishedAt":"2016-03-27T04:48:15Z","duration":"PT44M43S","thumbnail":"https://i.ytimg.com/vi/_o7TCjHNbB4/mqdefault.jpg","viewCount":"187","playlistId":"PLEkQk5xrP-tmJuzaj4GWRenFoFx9gdbFX","playlistName":"شرح كتاب صحيح الإمام البخاري رضي الله تعالى عنه   أ.د. يسرى جبر","category":"حديث"},{"id":"oLRgNnghg_8","title":"صحيح الإمام البخاري رضي الله تعالى عنه - كتاب العقيقة  د. يسري جبر","publishedAt":"2016-03-21T19:51:56Z","duration":"PT32M43S","thumbnail":"https://i.ytimg.com/vi/oLRgNnghg_8/mqdefault.jpg","viewCount":"199","playlistId":"PLEkQk5xrP-tmJuzaj4GWRenFoFx9gdbFX","playlistName":"شرح كتاب صحيح الإمام البخاري رضي الله تعالى عنه   أ.د. يسرى جبر","category":"حديث"},{"id":"YrFAIynXGms","title":"صحيح الإمام البخاري رضي الله تعالى عنه - كتاب الأطعمة - المجلس التاسع والأخير","publishedAt":"2016-03-19T11:18:16Z","duration":"PT39M55S","thumbnail":"https://i.ytimg.com/vi/YrFAIynXGms/mqdefault.jpg","viewCount":"125","playlistId":"PLEkQk5xrP-tmJuzaj4GWRenFoFx9gdbFX","playlistName":"شرح كتاب صحيح الإمام البخاري رضي الله تعالى عنه   أ.د. يسرى جبر","category":"حديث"},{"id":"WZ8RgU-fZUM","title":"صحيح الإمام البخاري رضي الله تعالى عنه - كتاب الأطعمة - المجلس الثامن","publishedAt":"2016-03-18T14:20:39Z","duration":"PT1H49S","thumbnail":"https://i.ytimg.com/vi/WZ8RgU-fZUM/mqdefault.jpg","viewCount":"124","playlistId":"PLEkQk5xrP-tmJuzaj4GWRenFoFx9gdbFX","playlistName":"شرح كتاب صحيح الإمام البخاري رضي الله تعالى عنه   أ.د. يسرى جبر","category":"حديث"},{"id":"9CUQMs6fPHc","title":"صحيح البخاري كتاب الدعوات -هل يُصلى على غير النبي صلى الله عليه وآله وسلم - المجلس الخامس د.يسري جبر","publishedAt":"2017-05-08T21:03:56Z","duration":"PT1H6M3S","thumbnail":"https://i.ytimg.com/vi/9CUQMs6fPHc/mqdefault.jpg","viewCount":"374","playlistId":"PLEkQk5xrP-tmJuzaj4GWRenFoFx9gdbFX","playlistName":"شرح كتاب صحيح الإمام البخاري رضي الله تعالى عنه   أ.د. يسرى جبر","category":"حديث"},{"id":"cAjtlydGmb0","title":"شرح صحيح الإمام البخاري رضي الله عنه - كتاب الدعوات (الدعاء عند الكرب)المجلس الرابع د. يسري جبر","publishedAt":"2017-05-07T15:30:16Z","duration":"PT37M33S","thumbnail":"https://i.ytimg.com/vi/cAjtlydGmb0/mqdefault.jpg","viewCount":"616","playlistId":"PLEkQk5xrP-tmJuzaj4GWRenFoFx9gdbFX","playlistName":"شرح كتاب صحيح الإمام البخاري رضي الله تعالى عنه   أ.د. يسرى جبر","category":"حديث"},{"id":"dt-0zpKinXA","title":"شرح صحيح الإمام البخاري رضي الله عنه - كتاب الدعوات (الدعاء بعد الصلاة)المجلس الثالث د. يسري جبر","publishedAt":"2017-05-02T20:25:10Z","duration":"PT54M24S","thumbnail":"https://i.ytimg.com/vi/dt-0zpKinXA/mqdefault.jpg","viewCount":"361","playlistId":"PLEkQk5xrP-tmJuzaj4GWRenFoFx9gdbFX","playlistName":"شرح كتاب صحيح الإمام البخاري رضي الله تعالى عنه   أ.د. يسرى جبر","category":"حديث"},{"id":"cQs7QATmk1E","title":"صحيح الإمام البخاري رضي الله عنه كتاب الدعوات (التكبير والتسبيح عند المنام)المجلس الثاني د. يسري جبر","publishedAt":"2017-05-01T09:41:23Z","duration":"PT34M38S","thumbnail":"https://i.ytimg.com/vi/cQs7QATmk1E/mqdefault.jpg","viewCount":"294","playlistId":"PLEkQk5xrP-tmJuzaj4GWRenFoFx9gdbFX","playlistName":"شرح كتاب صحيح الإمام البخاري رضي الله تعالى عنه   أ.د. يسرى جبر","category":"حديث"},{"id":"yFOYlOUax9E","title":"شرح صحيح الإمام البخاري رضي الله تعالى عنه - كتاب الدعوات   د. يسري جبر","publishedAt":"2017-04-27T16:08:56Z","duration":"PT59M5S","thumbnail":"https://i.ytimg.com/vi/yFOYlOUax9E/mqdefault.jpg","viewCount":"239","playlistId":"PLEkQk5xrP-tmJuzaj4GWRenFoFx9gdbFX","playlistName":"شرح كتاب صحيح الإمام البخاري رضي الله تعالى عنه   أ.د. يسرى جبر","category":"حديث"},{"id":"-GYaus2hmNw","title":"صحيح الإمام البخاري رضي الله عنه - كتاب الذبائح والصيد والتسمية على الصيد -المجلس الثامن د. يسري جبر","publishedAt":"2016-04-19T15:46:12Z","duration":"PT1H7M3S","thumbnail":"https://i.ytimg.com/vi/-GYaus2hmNw/mqdefault.jpg","viewCount":"99","playlistId":"PLEkQk5xrP-tmJuzaj4GWRenFoFx9gdbFX","playlistName":"شرح كتاب صحيح الإمام البخاري رضي الله تعالى عنه   أ.د. يسرى جبر","category":"حديث"}],"total":219,"page":5,"pageSize":24,"totalPages":10}