{"items":[{"id":"jeaA5-_K2ns","title":"24- “إن الله تعالى يبسط يده بالليل ليتوب مسيء النهار، ويبسط يده بالنهار ليتوب مسيء الليل..","publishedAt":"2021-03-02T09:01:42Z","duration":"PT32M55S","thumbnail":"https://i.ytimg.com/vi/jeaA5-_K2ns/mqdefault.jpg","viewCount":"2393","playlistId":"PLEkQk5xrP-tkc9DXvSLguqX5-FYp6ASR4","playlistName":"دليل الفالحين لطرق رياض الصالحين","category":"متنوع"},{"id":"hBckKH9fMXY","title":"23- باب التوبة الحديث الأول: والله إني لأستغفر الله وأتوب إليه في اليوم أكثر من سبعين مرة.","publishedAt":"2021-02-27T07:01:22Z","duration":"PT35M50S","thumbnail":"https://i.ytimg.com/vi/hBckKH9fMXY/mqdefault.jpg","viewCount":"2359","playlistId":"PLEkQk5xrP-tkc9DXvSLguqX5-FYp6ASR4","playlistName":"دليل الفالحين لطرق رياض الصالحين","category":"متنوع"},{"id":"xYydgq0Wgn0","title":"22- شروط التوبة”2” \"عجائب التوبة تشمل الماضي والحاضر والمستقبل\" شرح كتاب دليل الفالحين.","publishedAt":"2021-02-24T09:08:38Z","duration":"PT35M40S","thumbnail":"https://i.ytimg.com/vi/xYydgq0Wgn0/mqdefault.jpg","viewCount":"3433","playlistId":"PLEkQk5xrP-tkc9DXvSLguqX5-FYp6ASR4","playlistName":"دليل الفالحين لطرق رياض الصالحين","category":"متنوع"},{"id":"lPSYxFtVYpQ","title":"21- شروط التوبة\"1\"- شرح كتاب دليل الفالحين.","publishedAt":"2021-02-21T06:53:56Z","duration":"PT28M42S","thumbnail":"https://i.ytimg.com/vi/lPSYxFtVYpQ/mqdefault.jpg","viewCount":"2096","playlistId":"PLEkQk5xrP-tkc9DXvSLguqX5-FYp6ASR4","playlistName":"دليل الفالحين لطرق رياض الصالحين","category":"متنوع"},{"id":"ZhzJtpZqr7Q","title":"20- \"انطلق ثلاثة نفر ممن كان قبلكم حتى آواهم المبيت إلى غار فدخلوه..\" شرح كتاب دليل الفالحين.","publishedAt":"2021-02-18T08:15:23Z","duration":"PT44M16S","thumbnail":"https://i.ytimg.com/vi/ZhzJtpZqr7Q/mqdefault.jpg","viewCount":"3188","playlistId":"PLEkQk5xrP-tkc9DXvSLguqX5-FYp6ASR4","playlistName":"دليل الفالحين لطرق رياض الصالحين","category":"متنوع"},{"id":"4cQBTbsNE6s","title":"19- إنَّ اللهَ كتبَ الحسَناتِ والسَّيِّئَاتِ ثمَّ بَيَّنَ ذلك...\" شرح كتاب دليل الفالحين.","publishedAt":"2021-02-15T07:12:59Z","duration":"PT31M6S","thumbnail":"https://i.ytimg.com/vi/4cQBTbsNE6s/mqdefault.jpg","viewCount":"2609","playlistId":"PLEkQk5xrP-tkc9DXvSLguqX5-FYp6ASR4","playlistName":"دليل الفالحين لطرق رياض الصالحين","category":"متنوع"},{"id":"CsxTwOR8WkA","title":"18- صلاة الرجل جماعة تزيد على صلاته في سُوقه وبيته بضعا وعشرين درجة... - شرح كتاب دليل الفالحين","publishedAt":"2021-02-12T07:18:19Z","duration":"PT34M58S","thumbnail":"https://i.ytimg.com/vi/CsxTwOR8WkA/mqdefault.jpg","viewCount":"2151","playlistId":"PLEkQk5xrP-tkc9DXvSLguqX5-FYp6ASR4","playlistName":"دليل الفالحين لطرق رياض الصالحين","category":"متنوع"},{"id":"sQVNfOyWcOY","title":"17- \"إنَّ الله تعالى لا ينظر إلى أجسامكم ولا إلى صوركم ولكن ينظر إلى قلوبكم\" شرح كتاب دليل الفالحين","publishedAt":"2021-02-10T08:57:36Z","duration":"PT39M53S","thumbnail":"https://i.ytimg.com/vi/sQVNfOyWcOY/mqdefault.jpg","viewCount":"5270","playlistId":"PLEkQk5xrP-tkc9DXvSLguqX5-FYp6ASR4","playlistName":"دليل الفالحين لطرق رياض الصالحين","category":"متنوع"},{"id":"dJaGQ8EB41E","title":"16- الحديث السابع - شرح كتاب دليل الفالحين لطرق رياض الصالحين","publishedAt":"2021-02-08T07:08:13Z","duration":"PT33M59S","thumbnail":"https://i.ytimg.com/vi/dJaGQ8EB41E/mqdefault.jpg","viewCount":"1972","playlistId":"PLEkQk5xrP-tkc9DXvSLguqX5-FYp6ASR4","playlistName":"دليل الفالحين لطرق رياض الصالحين","category":"متنوع"},{"id":"TgFpCd5dQEw","title":"15- الحديث السادس - شرح كتاب دليل الفالحين لطرق رياض الصالحين","publishedAt":"2021-02-06T08:10:59Z","duration":"PT18M29S","thumbnail":"https://i.ytimg.com/vi/TgFpCd5dQEw/mqdefault.jpg","viewCount":"1997","playlistId":"PLEkQk5xrP-tkc9DXvSLguqX5-FYp6ASR4","playlistName":"دليل الفالحين لطرق رياض الصالحين","category":"متنوع"},{"id":"Q4unoU1zTf0","title":"14- الحديث الثالث\"لا هِجْرةَ بعد الفتْح ولكنْ جهادٌ ونيَّة\"شرح كتاب دليل الفالحين لطرق رياض الصالحين","publishedAt":"2021-02-04T07:10:52Z","duration":"PT27M38S","thumbnail":"https://i.ytimg.com/vi/Q4unoU1zTf0/mqdefault.jpg","viewCount":"2127","playlistId":"PLEkQk5xrP-tkc9DXvSLguqX5-FYp6ASR4","playlistName":"دليل الفالحين لطرق رياض الصالحين","category":"متنوع"},{"id":"G8kp4t6C-LU","title":"13- الحديث الثاني\" يغزو جيشٌ الكعبة...\" شرح كتاب دليل الفالحين لطرق رياض الصالحين","publishedAt":"2021-02-02T07:03:47Z","duration":"PT22M6S","thumbnail":"https://i.ytimg.com/vi/G8kp4t6C-LU/mqdefault.jpg","viewCount":"4186","playlistId":"PLEkQk5xrP-tkc9DXvSLguqX5-FYp6ASR4","playlistName":"دليل الفالحين لطرق رياض الصالحين","category":"متنوع"},{"id":"x9LBWk6J3DI","title":"12- \"ومن كانت هجرته لدنيا يصيبها..\" تكملة شرح حديث\"إنَّما الأعمال بالنيّات، وإنَما لكل امرئٍ ما نوى\"","publishedAt":"2021-01-31T08:02:39Z","duration":"PT47M39S","thumbnail":"https://i.ytimg.com/vi/x9LBWk6J3DI/mqdefault.jpg","viewCount":"3328","playlistId":"PLEkQk5xrP-tkc9DXvSLguqX5-FYp6ASR4","playlistName":"دليل الفالحين لطرق رياض الصالحين","category":"متنوع"},{"id":"rDtAll8Hky8","title":"11-  حقيقةُ النيَّة - شرح حديث\"إِنَّمَا الأَعْمَالُ بِالنِّيَّات، وإِنَّمَا لكُلِّ امْرِئٍ ما نَوَى\"","publishedAt":"2021-01-29T07:01:02Z","duration":"PT37M54S","thumbnail":"https://i.ytimg.com/vi/rDtAll8Hky8/mqdefault.jpg","viewCount":"5627","playlistId":"PLEkQk5xrP-tkc9DXvSLguqX5-FYp6ASR4","playlistName":"دليل الفالحين لطرق رياض الصالحين","category":"متنوع"},{"id":"BXq8WyWC94Q","title":"10- تكملة شرح حديث \"إِنَّمَا الأَعْمَالُ بِالنِّيَّاتِ، وَإِنَّمَا لِكُلِّ امْرِئٍ مَا نَوَى\"","publishedAt":"2021-01-27T07:14:19Z","duration":"PT32M10S","thumbnail":"https://i.ytimg.com/vi/BXq8WyWC94Q/mqdefault.jpg","viewCount":"3463","playlistId":"PLEkQk5xrP-tkc9DXvSLguqX5-FYp6ASR4","playlistName":"دليل الفالحين لطرق رياض الصالحين","category":"متنوع"},{"id":"YEsbag9lF-I","title":"9- شرح حديث \"إِنَّمَا الأَعْمَالُ بِالنِّيَّاتِ، وَإِنَّمَا لِكُلِّ امْرِئٍ مَا نَوَى\"","publishedAt":"2021-01-25T19:44:22Z","duration":"PT37M38S","thumbnail":"https://i.ytimg.com/vi/YEsbag9lF-I/mqdefault.jpg","viewCount":"7399","playlistId":"PLEkQk5xrP-tkc9DXvSLguqX5-FYp6ASR4","playlistName":"دليل الفالحين لطرق رياض الصالحين","category":"متنوع"},{"id":"zSL-WBrEQyM","title":"8- الإخلاص وإحضار النية في جميع الأعمال... شرح دليل الفالحين أ.د. يسري جبر","publishedAt":"2021-01-24T06:56:29Z","duration":"PT29M28S","thumbnail":"https://i.ytimg.com/vi/zSL-WBrEQyM/mqdefault.jpg","viewCount":"7635","playlistId":"PLEkQk5xrP-tkc9DXvSLguqX5-FYp6ASR4","playlistName":"دليل الفالحين لطرق رياض الصالحين","category":"متنوع"},{"id":"bmGVhOKuRXk","title":"7- آخر مقدمة كتاب رياض الصالحين وتعليق الشارح عليها - شرح دليل الفالحين أ.د. يسري جبر","publishedAt":"2021-01-21T08:28:05Z","duration":"PT36M2S","thumbnail":"https://i.ytimg.com/vi/bmGVhOKuRXk/mqdefault.jpg","viewCount":"2021","playlistId":"PLEkQk5xrP-tkc9DXvSLguqX5-FYp6ASR4","playlistName":"دليل الفالحين لطرق رياض الصالحين","category":"متنوع"},{"id":"XzLJ0uEIuVU","title":"6- تكملة مقدمة كتاب رياض الصالحين وتعليق الشارح عليها - شرح دليل الفالحين أ.د. يسري جبر","publishedAt":"2021-01-19T07:46:35Z","duration":"PT39M9S","thumbnail":"https://i.ytimg.com/vi/XzLJ0uEIuVU/mqdefault.jpg","viewCount":"2332","playlistId":"PLEkQk5xrP-tkc9DXvSLguqX5-FYp6ASR4","playlistName":"دليل الفالحين لطرق رياض الصالحين","category":"متنوع"},{"id":"GaCtERIPIxM","title":"5- تكملة مقدمة كتاب رياض الصالحين وتعليق الشارح عليها - شرح دليل الفالحين أ.د. يسري جبر","publishedAt":"2021-01-17T08:33:35Z","duration":"PT38M","thumbnail":"https://i.ytimg.com/vi/GaCtERIPIxM/mqdefault.jpg","viewCount":"2653","playlistId":"PLEkQk5xrP-tkc9DXvSLguqX5-FYp6ASR4","playlistName":"دليل الفالحين لطرق رياض الصالحين","category":"متنوع"},{"id":"l_TvV12zKTI","title":"4- تكملة مقدمة كتاب رياض الصالحين وتعليق الشارح عليها - شرح دليل الفالحين أ.د. يسري جبر","publishedAt":"2021-01-15T07:52:06Z","duration":"PT40M41S","thumbnail":"https://i.ytimg.com/vi/l_TvV12zKTI/mqdefault.jpg","viewCount":"3494","playlistId":"PLEkQk5xrP-tkc9DXvSLguqX5-FYp6ASR4","playlistName":"دليل الفالحين لطرق رياض الصالحين","category":"متنوع"},{"id":"8BYUdSpPYl8","title":"3- مقدمة كتاب رياض الصالحين  للإمام النوويّ رضي الله عنه أ.د. يسري جبر","publishedAt":"2021-01-13T08:56:27Z","duration":"PT37M48S","thumbnail":"https://i.ytimg.com/vi/8BYUdSpPYl8/mqdefault.jpg","viewCount":"6530","playlistId":"PLEkQk5xrP-tkc9DXvSLguqX5-FYp6ASR4","playlistName":"دليل الفالحين لطرق رياض الصالحين","category":"متنوع"},{"id":"2X7fNyCiEYQ","title":"2- التعريفُ بالشيخ ‎محمد بن علَّان صاحب كتاب دليل الفالحين أ.د. يسري جبر","publishedAt":"2021-01-11T07:18:11Z","duration":"PT24M17S","thumbnail":"https://i.ytimg.com/vi/2X7fNyCiEYQ/mqdefault.jpg","viewCount":"5217","playlistId":"PLEkQk5xrP-tkc9DXvSLguqX5-FYp6ASR4","playlistName":"دليل الفالحين لطرق رياض الصالحين","category":"متنوع"},{"id":"fCa_pu465-Q","title":"1- التعريفُ بالإمام النوويّ - شرح كتاب دليل الفالحين أ.د يسري جبر","publishedAt":"2021-01-09T09:10:21Z","duration":"PT39M16S","thumbnail":"https://i.ytimg.com/vi/fCa_pu465-Q/mqdefault.jpg","viewCount":"13535","playlistId":"PLEkQk5xrP-tkc9DXvSLguqX5-FYp6ASR4","playlistName":"دليل الفالحين لطرق رياض الصالحين","category":"متنوع"}],"total":504,"page":21,"pageSize":24,"totalPages":21}