{"items":[{"id":"Iz13ivQDXfw","title":"كيفية تطبيق الإسلام في المراحل الزمنية المختلفة","publishedAt":"2017-09-24T20:06:25Z","duration":"PT36M46S","thumbnail":"https://i.ytimg.com/vi/Iz13ivQDXfw/mqdefault.jpg","viewCount":"457","playlistId":"PLEkQk5xrP-tlArtGpeLWaqNM7h7IDeAVC","playlistName":"خطب الجمعة أ.د. يسري جبر","category":"خطب"},{"id":"2rLVN0kvkao","title":"الوَفَاءُ بِالعَهْدِ.   أ.د. يسري جبر","publishedAt":"2019-01-27T18:37:05Z","duration":"PT35M29S","thumbnail":"https://i.ytimg.com/vi/2rLVN0kvkao/mqdefault.jpg","viewCount":"451","playlistId":"PLEkQk5xrP-tlArtGpeLWaqNM7h7IDeAVC","playlistName":"خطب الجمعة أ.د. يسري جبر","category":"خطب"},{"id":"1eYYCSazEO0","title":"خُطُورَةُ التَّأَلِّى عَلَى الله  د. يسرى جبر","publishedAt":"2015-04-04T14:30:24Z","duration":"PT43M41S","thumbnail":"https://i.ytimg.com/vi/1eYYCSazEO0/mqdefault.jpg","viewCount":"444","playlistId":"PLEkQk5xrP-tlArtGpeLWaqNM7h7IDeAVC","playlistName":"خطب الجمعة أ.د. يسري جبر","category":"خطب"},{"id":"Wh23wLKvEKA","title":"العقل بين الاعتراض والانقياد د. يسري جبر","publishedAt":"2015-05-02T18:26:12Z","duration":"PT38M8S","thumbnail":"https://i.ytimg.com/vi/Wh23wLKvEKA/mqdefault.jpg","viewCount":"443","playlistId":"PLEkQk5xrP-tlArtGpeLWaqNM7h7IDeAVC","playlistName":"خطب الجمعة أ.د. يسري جبر","category":"خطب"},{"id":"qEbf535WF9Y","title":"تعليقات حول مناسك الحج","publishedAt":"2019-11-05T14:10:50Z","duration":"PT45M28S","thumbnail":"https://i.ytimg.com/vi/qEbf535WF9Y/mqdefault.jpg","viewCount":"433","playlistId":"PLEkQk5xrP-tlArtGpeLWaqNM7h7IDeAVC","playlistName":"خطب الجمعة أ.د. يسري جبر","category":"خطب"},{"id":"kk3I_DS5Igs","title":"ما من أَيام الْعملُ الصَّالح فيهِا أَحبُّ إِلى اللَّه من هذه الأيام يعني أيام العشرِ د.يسري جبر","publishedAt":"2017-08-29T16:59:26Z","duration":"PT40M50S","thumbnail":"https://i.ytimg.com/vi/kk3I_DS5Igs/mqdefault.jpg","viewCount":"428","playlistId":"PLEkQk5xrP-tlArtGpeLWaqNM7h7IDeAVC","playlistName":"خطب الجمعة أ.د. يسري جبر","category":"خطب"},{"id":"khA9Xs9gU8Y","title":"آداب الأشهر الحُرُم  د. يسري جبر","publishedAt":"2017-07-29T16:41:53Z","duration":"PT24M30S","thumbnail":"https://i.ytimg.com/vi/khA9Xs9gU8Y/mqdefault.jpg","viewCount":"423","playlistId":"PLEkQk5xrP-tlArtGpeLWaqNM7h7IDeAVC","playlistName":"خطب الجمعة أ.د. يسري جبر","category":"خطب"},{"id":"U7fTFILsagU","title":"أَدَبُ الكَلامِ مَعَ الخَلْقِ د. يسري جبر","publishedAt":"2015-06-06T16:39:52Z","duration":"PT46M49S","thumbnail":"https://i.ytimg.com/vi/U7fTFILsagU/mqdefault.jpg","viewCount":"415","playlistId":"PLEkQk5xrP-tlArtGpeLWaqNM7h7IDeAVC","playlistName":"خطب الجمعة أ.د. يسري جبر","category":"خطب"},{"id":"AiNTTgPLNgk","title":"وَلَا تَسُبُّوا الَّذِينَ يَدْعُونَ مِن دُونِ اللَّهِ فَيَسُبُّوا اللَّهَ عَدْوًا بِغَيْرِ عِلْمٍ","publishedAt":"2017-09-08T21:07:51Z","duration":"PT33M3S","thumbnail":"https://i.ytimg.com/vi/AiNTTgPLNgk/mqdefault.jpg","viewCount":"405","playlistId":"PLEkQk5xrP-tlArtGpeLWaqNM7h7IDeAVC","playlistName":"خطب الجمعة أ.د. يسري جبر","category":"خطب"},{"id":"beCyefqZ_v0","title":"الوفاء بالعهد","publishedAt":"2017-11-13T21:06:42Z","duration":"PT40M4S","thumbnail":"https://i.ytimg.com/vi/beCyefqZ_v0/mqdefault.jpg","viewCount":"384","playlistId":"PLEkQk5xrP-tlArtGpeLWaqNM7h7IDeAVC","playlistName":"خطب الجمعة أ.د. يسري جبر","category":"خطب"},{"id":"LP7W-reiHMc","title":"حول النبي في ذكرى مولده صلى الله عليه وآله وسلم","publishedAt":"2017-12-15T21:09:53Z","duration":"PT50M57S","thumbnail":"https://i.ytimg.com/vi/LP7W-reiHMc/mqdefault.jpg","viewCount":"383","playlistId":"PLEkQk5xrP-tlArtGpeLWaqNM7h7IDeAVC","playlistName":"خطب الجمعة أ.د. يسري جبر","category":"خطب"},{"id":"6Brrs_Kkto4","title":"إسلام الوجه لله","publishedAt":"2017-11-21T13:40:59Z","duration":"PT39M59S","thumbnail":"https://i.ytimg.com/vi/6Brrs_Kkto4/mqdefault.jpg","viewCount":"375","playlistId":"PLEkQk5xrP-tlArtGpeLWaqNM7h7IDeAVC","playlistName":"خطب الجمعة أ.د. يسري جبر","category":"خطب"},{"id":"ySL0oiHv6hw","title":"الحَجُّ أَشْهُرٌ مَعْلُومَات    د.يسري جبر","publishedAt":"2017-08-13T19:04:38Z","duration":"PT35M18S","thumbnail":"https://i.ytimg.com/vi/ySL0oiHv6hw/mqdefault.jpg","viewCount":"368","playlistId":"PLEkQk5xrP-tlArtGpeLWaqNM7h7IDeAVC","playlistName":"خطب الجمعة أ.د. يسري جبر","category":"خطب"},{"id":"b1CdOaDym00","title":"آدَابُ الصِيَامِ والقِيَامِ وَقِرَاءَةِ القُرْآنِ د. يسري جبر","publishedAt":"2015-06-22T18:56:49Z","duration":"PT32M53S","thumbnail":"https://i.ytimg.com/vi/b1CdOaDym00/mqdefault.jpg","viewCount":"329","playlistId":"PLEkQk5xrP-tlArtGpeLWaqNM7h7IDeAVC","playlistName":"خطب الجمعة أ.د. يسري جبر","category":"خطب"},{"id":"9MTXfZyVk50","title":"اسْتَوصُوا بِأَهْلِ مِصرَ خَيرًا - د. يسري جبر","publishedAt":"2015-08-09T15:47:17Z","duration":"PT38M12S","thumbnail":"https://i.ytimg.com/vi/9MTXfZyVk50/mqdefault.jpg","viewCount":"324","playlistId":"PLEkQk5xrP-tlArtGpeLWaqNM7h7IDeAVC","playlistName":"خطب الجمعة أ.د. يسري جبر","category":"خطب"},{"id":"Ht0cXh1C9fs","title":"فَرْقٌ كَبِيرٌ أَن تَظُنَّ أَنَّكَ مُقِيمٌ وَأَنتَ مُسَافِر د. يسري جبر","publishedAt":"2015-07-25T12:10:23Z","duration":"PT41M27S","thumbnail":"https://i.ytimg.com/vi/Ht0cXh1C9fs/mqdefault.jpg","viewCount":"321","playlistId":"PLEkQk5xrP-tlArtGpeLWaqNM7h7IDeAVC","playlistName":"خطب الجمعة أ.د. يسري جبر","category":"خطب"},{"id":"X12LVGqh1ss","title":"مِنَ العِبَادَاتِ المَهْجُورَةِ 4","publishedAt":"2015-02-06T18:55:46Z","duration":"PT29M7S","thumbnail":"https://i.ytimg.com/vi/X12LVGqh1ss/mqdefault.jpg","viewCount":"310","playlistId":"PLEkQk5xrP-tlArtGpeLWaqNM7h7IDeAVC","playlistName":"خطب الجمعة أ.د. يسري جبر","category":"خطب"},{"id":"Mi5zW3NjGJ8","title":"بَعْضُ صِفَاتِ المُؤْمِنِ د. يسرى جبر","publishedAt":"2015-12-02T17:07:52Z","duration":"PT48M46S","thumbnail":"https://i.ytimg.com/vi/Mi5zW3NjGJ8/mqdefault.jpg","viewCount":"297","playlistId":"PLEkQk5xrP-tlArtGpeLWaqNM7h7IDeAVC","playlistName":"خطب الجمعة أ.د. يسري جبر","category":"خطب"},{"id":"zu2SqvhbKIk","title":"إِنَّمَا يُوفَّى الصَّابِرونَ أَجْرَهُم بِغَيرِ حِسَاب","publishedAt":"2015-02-14T17:44:49Z","duration":"PT32M45S","thumbnail":"https://i.ytimg.com/vi/zu2SqvhbKIk/mqdefault.jpg","viewCount":"297","playlistId":"PLEkQk5xrP-tlArtGpeLWaqNM7h7IDeAVC","playlistName":"خطب الجمعة أ.د. يسري جبر","category":"خطب"},{"id":"XLn-rq6fGm8","title":"فى شهرِ ميلاد النَّبِىِّ يحلُو الكلام عنِ الَّنبِىِّ صَلَّى اللهُ عليه وآله وسلَّم د. يسري جبر","publishedAt":"2015-12-19T17:20:29Z","duration":"PT49M3S","thumbnail":"https://i.ytimg.com/vi/XLn-rq6fGm8/mqdefault.jpg","viewCount":"296","playlistId":"PLEkQk5xrP-tlArtGpeLWaqNM7h7IDeAVC","playlistName":"خطب الجمعة أ.د. يسري جبر","category":"خطب"},{"id":"juB0rfvYYks","title":"رمضانيات (4) د. يسري جبر","publishedAt":"2018-06-10T16:06:28Z","duration":"PT37M12S","thumbnail":"https://i.ytimg.com/vi/juB0rfvYYks/mqdefault.jpg","viewCount":"294","playlistId":"PLEkQk5xrP-tlArtGpeLWaqNM7h7IDeAVC","playlistName":"خطب الجمعة أ.د. يسري جبر","category":"خطب"},{"id":"R0hVD4KWC70","title":"مَا هِى عَوائِقُ المَعْرِفَةِ وَالعِلْمِ د. يسري جبر","publishedAt":"2016-01-16T16:05:23Z","duration":"PT30M52S","thumbnail":"https://i.ytimg.com/vi/R0hVD4KWC70/mqdefault.jpg","viewCount":"289","playlistId":"PLEkQk5xrP-tlArtGpeLWaqNM7h7IDeAVC","playlistName":"خطب الجمعة أ.د. يسري جبر","category":"خطب"},{"id":"GrxCAi8AJDY","title":"حول ختام رمضان وزكاة الفطر","publishedAt":"2017-06-29T16:10:12Z","duration":"PT40M53S","thumbnail":"https://i.ytimg.com/vi/GrxCAi8AJDY/mqdefault.jpg","viewCount":"271","playlistId":"PLEkQk5xrP-tlArtGpeLWaqNM7h7IDeAVC","playlistName":"خطب الجمعة أ.د. يسري جبر","category":"خطب"},{"id":"oCbg9palcDA","title":"كَيفَ نُودِّعُ وَكَيفَ نَسْتَقْبِلُ   د. يسرى جبر","publishedAt":"2015-10-14T03:49:51Z","duration":"PT34M54S","thumbnail":"https://i.ytimg.com/vi/oCbg9palcDA/mqdefault.jpg","viewCount":"266","playlistId":"PLEkQk5xrP-tlArtGpeLWaqNM7h7IDeAVC","playlistName":"خطب الجمعة أ.د. يسري جبر","category":"خطب"}],"total":660,"page":27,"pageSize":24,"totalPages":28}