{"items":[{"id":"tho1wTqC51g","title":"ما معنى التقوى وكيف تتقي الله سبحانه وتعالى؟","publishedAt":"2024-08-13T17:00:39Z","duration":"PT9M2S","thumbnail":"https://i.ytimg.com/vi/tho1wTqC51g/mqdefault.jpg","viewCount":"3870","playlistId":"PLEkQk5xrP-tlArtGpeLWaqNM7h7IDeAVC","playlistName":"خطب الجمعة أ.د. يسري جبر","category":"خطب"},{"id":"6kKhI1ixf1g","title":"هل عصى سيدنا آدم ربه؟","publishedAt":"2024-05-10T18:01:38Z","duration":"PT8M57S","thumbnail":"https://i.ytimg.com/vi/6kKhI1ixf1g/mqdefault.jpg","viewCount":"3857","playlistId":"PLEkQk5xrP-tlArtGpeLWaqNM7h7IDeAVC","playlistName":"خطب الجمعة أ.د. يسري جبر","category":"خطب"},{"id":"12L6TWxgwG0","title":"خطبة عيد الفطر المبارك","publishedAt":"2022-05-02T07:00:01Z","duration":"PT28M54S","thumbnail":"https://i.ytimg.com/vi/12L6TWxgwG0/mqdefault.jpg","viewCount":"3810","playlistId":"PLEkQk5xrP-tlArtGpeLWaqNM7h7IDeAVC","playlistName":"خطب الجمعة أ.د. يسري جبر","category":"خطب"},{"id":"AefPLsVSzQk","title":"ما هي سنن عيد الأضحى المبارك؟ | خطبة العيد","publishedAt":"2024-06-16T05:52:48Z","duration":"PT36M34S","thumbnail":"https://i.ytimg.com/vi/AefPLsVSzQk/mqdefault.jpg","viewCount":"3806","playlistId":"PLEkQk5xrP-tlArtGpeLWaqNM7h7IDeAVC","playlistName":"خطب الجمعة أ.د. يسري جبر","category":"خطب"},{"id":"y3j8lsUUglI","title":"ما الفرق بين إرادة وقدرة وعلم الله؟","publishedAt":"2023-01-15T18:00:28Z","duration":"PT12M13S","thumbnail":"https://i.ytimg.com/vi/y3j8lsUUglI/mqdefault.jpg","viewCount":"3799","playlistId":"PLEkQk5xrP-tlArtGpeLWaqNM7h7IDeAVC","playlistName":"خطب الجمعة أ.د. يسري جبر","category":"خطب"},{"id":"r9Qv0JpS-ro","title":"حقائق ومعاني حول روحانية النبي ﷺ","publishedAt":"2025-02-20T20:02:42Z","duration":"PT27M28S","thumbnail":"https://i.ytimg.com/vi/r9Qv0JpS-ro/mqdefault.jpg","viewCount":"3792","playlistId":"PLEkQk5xrP-tlArtGpeLWaqNM7h7IDeAVC","playlistName":"خطب الجمعة أ.د. يسري جبر","category":"خطب"},{"id":"qqO56X3lL2s","title":"كيف تجمع الناس وهم متفرقون؟","publishedAt":"2022-03-28T18:00:17Z","duration":"PT15M51S","thumbnail":"https://i.ytimg.com/vi/qqO56X3lL2s/mqdefault.jpg","viewCount":"3787","playlistId":"PLEkQk5xrP-tlArtGpeLWaqNM7h7IDeAVC","playlistName":"خطب الجمعة أ.د. يسري جبر","category":"خطب"},{"id":"h0XKLFbHvPE","title":"قدرةُ الله عَزَّ وجَلَّ | أ.د. يسري جبر","publishedAt":"2022-08-14T18:00:22Z","duration":"PT8M25S","thumbnail":"https://i.ytimg.com/vi/h0XKLFbHvPE/mqdefault.jpg","viewCount":"3764","playlistId":"PLEkQk5xrP-tlArtGpeLWaqNM7h7IDeAVC","playlistName":"خطب الجمعة أ.د. يسري جبر","category":"خطب"},{"id":"AkJxW3sq3FE","title":"كيف نستقبل العام الهجري الجديد؟","publishedAt":"2024-07-06T19:08:30Z","duration":"PT16M2S","thumbnail":"https://i.ytimg.com/vi/AkJxW3sq3FE/mqdefault.jpg","viewCount":"3763","playlistId":"PLEkQk5xrP-tlArtGpeLWaqNM7h7IDeAVC","playlistName":"خطب الجمعة أ.د. يسري جبر","category":"خطب"},{"id":"x56TnjoCNeQ","title":"كيف تعامل النبي ﷺ مع الأزمات السياسية؟","publishedAt":"2022-10-29T18:00:32Z","duration":"PT20M57S","thumbnail":"https://i.ytimg.com/vi/x56TnjoCNeQ/mqdefault.jpg","viewCount":"3763","playlistId":"PLEkQk5xrP-tlArtGpeLWaqNM7h7IDeAVC","playlistName":"خطب الجمعة أ.د. يسري جبر","category":"خطب"},{"id":"2lCdGCR3PsE","title":"حول ليلة النصف من شعبان د. يسري جبر","publishedAt":"2015-05-30T19:17:57Z","duration":"PT48M24S","thumbnail":"https://i.ytimg.com/vi/2lCdGCR3PsE/mqdefault.jpg","viewCount":"3753","playlistId":"PLEkQk5xrP-tlArtGpeLWaqNM7h7IDeAVC","playlistName":"خطب الجمعة أ.د. يسري جبر","category":"خطب"},{"id":"yTOOXtcp9NA","title":"هل للصدقة أوجه غير المال؟","publishedAt":"2021-06-15T18:46:35Z","duration":"PT18M58S","thumbnail":"https://i.ytimg.com/vi/yTOOXtcp9NA/mqdefault.jpg","viewCount":"3747","playlistId":"PLEkQk5xrP-tlArtGpeLWaqNM7h7IDeAVC","playlistName":"خطب الجمعة أ.د. يسري جبر","category":"خطب"},{"id":"B-2C7h99QnI","title":"بَلِ الْإِنسَانُ عَلَىٰ نَفْسِهِ بَصِيرَةٌ     أ.د.يسري جبر","publishedAt":"2019-10-18T18:47:57Z","duration":"PT43M17S","thumbnail":"https://i.ytimg.com/vi/B-2C7h99QnI/mqdefault.jpg","viewCount":"3729","playlistId":"PLEkQk5xrP-tlArtGpeLWaqNM7h7IDeAVC","playlistName":"خطب الجمعة أ.د. يسري جبر","category":"خطب"},{"id":"j73t_n7tuuM","title":"عبادة الشكر  د. يسري جبر","publishedAt":"2017-12-30T18:45:52Z","duration":"PT32M43S","thumbnail":"https://i.ytimg.com/vi/j73t_n7tuuM/mqdefault.jpg","viewCount":"3726","playlistId":"PLEkQk5xrP-tlArtGpeLWaqNM7h7IDeAVC","playlistName":"خطب الجمعة أ.د. يسري جبر","category":"خطب"},{"id":"OyKJNHJtseQ","title":"كيف تبدأ العام الهجري بقلب سليم؟","publishedAt":"2024-07-07T18:02:13Z","duration":"PT16M1S","thumbnail":"https://i.ytimg.com/vi/OyKJNHJtseQ/mqdefault.jpg","viewCount":"3711","playlistId":"PLEkQk5xrP-tlArtGpeLWaqNM7h7IDeAVC","playlistName":"خطب الجمعة أ.د. يسري جبر","category":"خطب"},{"id":"lpgCei0A-IU","title":"ما هي صفات المؤمن الصادق؟","publishedAt":"2022-10-15T18:00:22Z","duration":"PT13M","thumbnail":"https://i.ytimg.com/vi/lpgCei0A-IU/mqdefault.jpg","viewCount":"3690","playlistId":"PLEkQk5xrP-tlArtGpeLWaqNM7h7IDeAVC","playlistName":"خطب الجمعة أ.د. يسري جبر","category":"خطب"},{"id":"_8L6uvZqIiE","title":"خطبة الاحتفال بالمولد النبوي","publishedAt":"2021-10-27T19:55:08Z","duration":"PT43M28S","thumbnail":"https://i.ytimg.com/vi/_8L6uvZqIiE/mqdefault.jpg","viewCount":"3686","playlistId":"PLEkQk5xrP-tlArtGpeLWaqNM7h7IDeAVC","playlistName":"خطب الجمعة أ.د. يسري جبر","category":"خطب"},{"id":"jA438oSvwdc","title":"لماذا يبتلي الله عباده؟","publishedAt":"2025-01-11T18:15:02Z","duration":"PT11M42S","thumbnail":"https://i.ytimg.com/vi/jA438oSvwdc/mqdefault.jpg","viewCount":"3671","playlistId":"PLEkQk5xrP-tlArtGpeLWaqNM7h7IDeAVC","playlistName":"خطب الجمعة أ.د. يسري جبر","category":"خطب"},{"id":"8JGat1IL-Vw","title":"كيف تكون رحيمًا بمن حولك؟","publishedAt":"2025-04-21T18:00:09Z","duration":"PT8M37S","thumbnail":"https://i.ytimg.com/vi/8JGat1IL-Vw/mqdefault.jpg","viewCount":"3663","playlistId":"PLEkQk5xrP-tlArtGpeLWaqNM7h7IDeAVC","playlistName":"خطب الجمعة أ.د. يسري جبر","category":"خطب"},{"id":"wZRIqF2hnWk","title":"كيف تتخلق بأخلاق رمضان طول العام؟","publishedAt":"2022-05-03T18:30:45Z","duration":"PT21M37S","thumbnail":"https://i.ytimg.com/vi/wZRIqF2hnWk/mqdefault.jpg","viewCount":"3649","playlistId":"PLEkQk5xrP-tlArtGpeLWaqNM7h7IDeAVC","playlistName":"خطب الجمعة أ.د. يسري جبر","category":"خطب"},{"id":"PtSLowwEx7s","title":"كيف تتخلق بأخلاق النبي ﷺ؟","publishedAt":"2022-12-05T18:00:09Z","duration":"PT17M19S","thumbnail":"https://i.ytimg.com/vi/PtSLowwEx7s/mqdefault.jpg","viewCount":"3626","playlistId":"PLEkQk5xrP-tlArtGpeLWaqNM7h7IDeAVC","playlistName":"خطب الجمعة أ.د. يسري جبر","category":"خطب"},{"id":"KLRTHPdn8no","title":"معجزة النبي ﷺ في تبليغ الدعوة","publishedAt":"2022-11-26T18:00:17Z","duration":"PT22M14S","thumbnail":"https://i.ytimg.com/vi/KLRTHPdn8no/mqdefault.jpg","viewCount":"3619","playlistId":"PLEkQk5xrP-tlArtGpeLWaqNM7h7IDeAVC","playlistName":"خطب الجمعة أ.د. يسري جبر","category":"خطب"},{"id":"ZT9R0KeaKGM","title":"كيف تصل إلى الله تعالى؟","publishedAt":"2025-01-19T19:41:13Z","duration":"PT23M40S","thumbnail":"https://i.ytimg.com/vi/ZT9R0KeaKGM/mqdefault.jpg","viewCount":"3606","playlistId":"PLEkQk5xrP-tlArtGpeLWaqNM7h7IDeAVC","playlistName":"خطب الجمعة أ.د. يسري جبر","category":"خطب"},{"id":"Gd5Z-gOBEz8","title":"الدفاع عن الصحابة وحكم الطعن فيهم!","publishedAt":"2023-07-16T18:00:12Z","duration":"PT11M12S","thumbnail":"https://i.ytimg.com/vi/Gd5Z-gOBEz8/mqdefault.jpg","viewCount":"3582","playlistId":"PLEkQk5xrP-tlArtGpeLWaqNM7h7IDeAVC","playlistName":"خطب الجمعة أ.د. يسري جبر","category":"خطب"}],"total":660,"page":15,"pageSize":24,"totalPages":28}