{"items":[{"id":"GCM15a3uHDU","title":"أنواع الشهداء (خطبة مسجلة)  أ.د. يسري جبر","publishedAt":"2020-03-21T13:45:52Z","duration":"PT36M39S","thumbnail":"https://i.ytimg.com/vi/GCM15a3uHDU/mqdefault.jpg","viewCount":"1704","playlistId":"PLEkQk5xrP-tlArtGpeLWaqNM7h7IDeAVC","playlistName":"خطب الجمعة أ.د. يسري جبر","category":"خطب"},{"id":"dSRxVX5KQIk","title":"كيف تشكر الله على نعمه وتحافظ عليها؟","publishedAt":"2025-10-05T19:15:41Z","duration":"PT16M17S","thumbnail":"https://i.ytimg.com/vi/dSRxVX5KQIk/mqdefault.jpg","viewCount":"1702","playlistId":"PLEkQk5xrP-tlArtGpeLWaqNM7h7IDeAVC","playlistName":"خطب الجمعة أ.د. يسري جبر","category":"خطب"},{"id":"0gWozUYF6uw","title":"أسرار ومعاني حول روحانية النبي ﷺ","publishedAt":"2025-10-10T19:48:36Z","duration":"PT16M35S","thumbnail":"https://i.ytimg.com/vi/0gWozUYF6uw/mqdefault.jpg","viewCount":"1677","playlistId":"PLEkQk5xrP-tlArtGpeLWaqNM7h7IDeAVC","playlistName":"خطب الجمعة أ.د. يسري جبر","category":"خطب"},{"id":"JYZL3vD5grQ","title":"الدروس المستفادة من الهجرة النبوية","publishedAt":"2021-08-15T18:45:01Z","duration":"PT11M59S","thumbnail":"https://i.ytimg.com/vi/JYZL3vD5grQ/mqdefault.jpg","viewCount":"1666","playlistId":"PLEkQk5xrP-tlArtGpeLWaqNM7h7IDeAVC","playlistName":"خطب الجمعة أ.د. يسري جبر","category":"خطب"},{"id":"SXKu0CzDeCo","title":"كيف وسعت رحمة الله كل شيء؟ | أجمل ما قيل عن رحمة الله","publishedAt":"2025-11-25T19:03:45Z","duration":"PT12M59S","thumbnail":"https://i.ytimg.com/vi/SXKu0CzDeCo/mqdefault.jpg","viewCount":"1661","playlistId":"PLEkQk5xrP-tlArtGpeLWaqNM7h7IDeAVC","playlistName":"خطب الجمعة أ.د. يسري جبر","category":"خطب"},{"id":"EeT3tSoohFY","title":"كيف تكون من أهل التقوى؟","publishedAt":"2025-03-22T19:00:08Z","duration":"PT8M48S","thumbnail":"https://i.ytimg.com/vi/EeT3tSoohFY/mqdefault.jpg","viewCount":"1639","playlistId":"PLEkQk5xrP-tlArtGpeLWaqNM7h7IDeAVC","playlistName":"خطب الجمعة أ.د. يسري جبر","category":"خطب"},{"id":"XkhhPbKkmgM","title":"رَمَضَانُ شَهْرُ الجِهَادَيْنِ أ.د. يسري جبر","publishedAt":"2019-05-18T14:11:17Z","duration":"PT36M1S","thumbnail":"https://i.ytimg.com/vi/XkhhPbKkmgM/mqdefault.jpg","viewCount":"1638","playlistId":"PLEkQk5xrP-tlArtGpeLWaqNM7h7IDeAVC","playlistName":"خطب الجمعة أ.د. يسري جبر","category":"خطب"},{"id":"XnxnI5DVnWw","title":"\"فَاطِمَةُ بَضْعَةٌ مِنِّي\" رضي اللهُ عنها وأرضاها وعليها السلام أ.د. يسري جبر","publishedAt":"2020-02-20T17:08:40Z","duration":"PT45M24S","thumbnail":"https://i.ytimg.com/vi/XnxnI5DVnWw/mqdefault.jpg","viewCount":"1608","playlistId":"PLEkQk5xrP-tlArtGpeLWaqNM7h7IDeAVC","playlistName":"خطب الجمعة أ.د. يسري جبر","category":"خطب"},{"id":"6ba9DdA95nI","title":"كل الناس يغدو فبائع نفسه فمعتقها أو موبقها د. يسري جبر","publishedAt":"2016-06-04T14:19:17Z","duration":"PT42M29S","thumbnail":"https://i.ytimg.com/vi/6ba9DdA95nI/mqdefault.jpg","viewCount":"1602","playlistId":"PLEkQk5xrP-tlArtGpeLWaqNM7h7IDeAVC","playlistName":"خطب الجمعة أ.د. يسري جبر","category":"خطب"},{"id":"tVOJ_WFWgHw","title":"قيمة زكاة الفطر,, ومتى تخرجها؟","publishedAt":"2025-03-28T19:00:51Z","duration":"PT21M38S","thumbnail":"https://i.ytimg.com/vi/tVOJ_WFWgHw/mqdefault.jpg","viewCount":"1600","playlistId":"PLEkQk5xrP-tlArtGpeLWaqNM7h7IDeAVC","playlistName":"خطب الجمعة أ.د. يسري جبر","category":"خطب"},{"id":"5AFBkEmd-Q0","title":"كيف حج النبي ﷺ حجة الوداع؟","publishedAt":"2024-06-12T18:24:15Z","duration":"PT17M26S","thumbnail":"https://i.ytimg.com/vi/5AFBkEmd-Q0/mqdefault.jpg","viewCount":"1589","playlistId":"PLEkQk5xrP-tlArtGpeLWaqNM7h7IDeAVC","playlistName":"خطب الجمعة أ.د. يسري جبر","category":"خطب"},{"id":"qsd3lU15mak","title":"كيف أكون صالحا في هذا الزمان؟","publishedAt":"2025-11-28T17:01:36Z","duration":"PT11M18S","thumbnail":"https://i.ytimg.com/vi/qsd3lU15mak/mqdefault.jpg","viewCount":"1578","playlistId":"PLEkQk5xrP-tlArtGpeLWaqNM7h7IDeAVC","playlistName":"خطب الجمعة أ.د. يسري جبر","category":"خطب"},{"id":"U6TseIMQ2hc","title":"كيف تجعل نيتك خالصة لله في جميع أعمالك؟","publishedAt":"2025-11-23T18:59:56Z","duration":"PT15M46S","thumbnail":"https://i.ytimg.com/vi/U6TseIMQ2hc/mqdefault.jpg","viewCount":"1564","playlistId":"PLEkQk5xrP-tlArtGpeLWaqNM7h7IDeAVC","playlistName":"خطب الجمعة أ.د. يسري جبر","category":"خطب"},{"id":"PRQBzMA7Rfo","title":"ذكرى عاشوراء وماحدث فى كربلاء","publishedAt":"2014-11-12T13:42:38Z","duration":"PT39M54S","thumbnail":"https://i.ytimg.com/vi/PRQBzMA7Rfo/mqdefault.jpg","viewCount":"1549","playlistId":"PLEkQk5xrP-tlArtGpeLWaqNM7h7IDeAVC","playlistName":"خطب الجمعة أ.د. يسري جبر","category":"خطب"},{"id":"ut_zP-FfGgw","title":"كَيفَ نُوَدِّعُ شَهْرَ رَمَضَانَ   أ.د. يسري جبر","publishedAt":"2019-06-01T23:33:41Z","duration":"PT39M30S","thumbnail":"https://i.ytimg.com/vi/ut_zP-FfGgw/mqdefault.jpg","viewCount":"1539","playlistId":"PLEkQk5xrP-tlArtGpeLWaqNM7h7IDeAVC","playlistName":"خطب الجمعة أ.د. يسري جبر","category":"خطب"},{"id":"C8tFE-f3B5o","title":"بِدَع رجبيَّة.  أ.د. يسري جبر","publishedAt":"2019-03-18T18:27:01Z","duration":"PT40M3S","thumbnail":"https://i.ytimg.com/vi/C8tFE-f3B5o/mqdefault.jpg","viewCount":"1525","playlistId":"PLEkQk5xrP-tlArtGpeLWaqNM7h7IDeAVC","playlistName":"خطب الجمعة أ.د. يسري جبر","category":"خطب"},{"id":"BZnzZYnaCu4","title":"الصدق والإخلاص د . يسري جبر","publishedAt":"2016-05-12T17:10:05Z","duration":"PT41M38S","thumbnail":"https://i.ytimg.com/vi/BZnzZYnaCu4/mqdefault.jpg","viewCount":"1507","playlistId":"PLEkQk5xrP-tlArtGpeLWaqNM7h7IDeAVC","playlistName":"خطب الجمعة أ.د. يسري جبر","category":"خطب"},{"id":"Xux0Pn5Br5A","title":"كيف نتأدَّب فى رمضان د. يسري جبر","publishedAt":"2015-06-12T11:02:34Z","duration":"PT48M6S","thumbnail":"https://i.ytimg.com/vi/Xux0Pn5Br5A/mqdefault.jpg","viewCount":"1491","playlistId":"PLEkQk5xrP-tlArtGpeLWaqNM7h7IDeAVC","playlistName":"خطب الجمعة أ.د. يسري جبر","category":"خطب"},{"id":"O7Dh1wMScPE","title":"نصائح تربوية  د. يسري جبر","publishedAt":"2018-11-04T18:23:46Z","duration":"PT45M11S","thumbnail":"https://i.ytimg.com/vi/O7Dh1wMScPE/mqdefault.jpg","viewCount":"1468","playlistId":"PLEkQk5xrP-tlArtGpeLWaqNM7h7IDeAVC","playlistName":"خطب الجمعة أ.د. يسري جبر","category":"خطب"},{"id":"NbcYzmiNjnA","title":"كيف تتخلق بأخلاق رمضان طول العام؟","publishedAt":"2024-04-08T18:00:11Z","duration":"PT21M37S","thumbnail":"https://i.ytimg.com/vi/NbcYzmiNjnA/mqdefault.jpg","viewCount":"1466","playlistId":"PLEkQk5xrP-tlArtGpeLWaqNM7h7IDeAVC","playlistName":"خطب الجمعة أ.د. يسري جبر","category":"خطب"},{"id":"BDJGsTO4Yvg","title":"كَيفيَّة الحَجِّ وأفضلها  أ.د. يسري جبر","publishedAt":"2019-07-28T15:28:12Z","duration":"PT40M25S","thumbnail":"https://i.ytimg.com/vi/BDJGsTO4Yvg/mqdefault.jpg","viewCount":"1464","playlistId":"PLEkQk5xrP-tlArtGpeLWaqNM7h7IDeAVC","playlistName":"خطب الجمعة أ.د. يسري جبر","category":"خطب"},{"id":"HSPe_HG38-U","title":"متى تكون مستعدا للزواج وإنشاء أسرة صالحة؟","publishedAt":"2025-11-29T18:01:16Z","duration":"PT10M8S","thumbnail":"https://i.ytimg.com/vi/HSPe_HG38-U/mqdefault.jpg","viewCount":"1445","playlistId":"PLEkQk5xrP-tlArtGpeLWaqNM7h7IDeAVC","playlistName":"خطب الجمعة أ.د. يسري جبر","category":"خطب"},{"id":"RRNd0V9MM8w","title":"الاستعداد للعشر الأوائل من ذي الحجة - د. يسري جبر","publishedAt":"2015-09-15T18:42:33Z","duration":"PT32M15S","thumbnail":"https://i.ytimg.com/vi/RRNd0V9MM8w/mqdefault.jpg","viewCount":"1437","playlistId":"PLEkQk5xrP-tlArtGpeLWaqNM7h7IDeAVC","playlistName":"خطب الجمعة أ.د. يسري جبر","category":"خطب"},{"id":"Vwh20aMama8","title":"\"وَلَا تَسْتَوِي الْحَسَنَةُ وَلَا السَّيِّئَةُ ۚ ادْفَعْ بِالَّتِي هِيَ أَحْسَنُ \".  أ.د. يسري جبر","publishedAt":"2019-12-14T16:42:04Z","duration":"PT43M8S","thumbnail":"https://i.ytimg.com/vi/Vwh20aMama8/mqdefault.jpg","viewCount":"1376","playlistId":"PLEkQk5xrP-tlArtGpeLWaqNM7h7IDeAVC","playlistName":"خطب الجمعة أ.د. يسري جبر","category":"خطب"}],"total":660,"page":22,"pageSize":24,"totalPages":28}