{"items":[{"id":"QyHUvUqET74","title":"1- بداية الفتح الربَّاني - شرح مختصر الفُتُوحَات المَكْيَّة","publishedAt":"2023-12-25T11:00:19Z","duration":"PT1H2M11S","thumbnail":"https://i.ytimg.com/vi/QyHUvUqET74/mqdefault.jpg","viewCount":"90370","playlistId":"PLEkQk5xrP-tnpkdZki6rPTtMak1bnI5g-","playlistName":"شرح كتاب مختصر الفتوحات المكية المسمى لواقح الأنوار القدسية","category":"متنوع"},{"id":"ScfbIPwFdeU","title":"2- شرح مبسط للعقيدة (خُطبة كتاب الفُتُوحَات المَكْيَّة) - شرح مختصر الفُتُوحَات المَكْيَّة","publishedAt":"2023-12-31T10:30:08Z","duration":"PT1H11M42S","thumbnail":"https://i.ytimg.com/vi/ScfbIPwFdeU/mqdefault.jpg","viewCount":"33111","playlistId":"PLEkQk5xrP-tnpkdZki6rPTtMak1bnI5g-","playlistName":"شرح كتاب مختصر الفتوحات المكية المسمى لواقح الأنوار القدسية","category":"متنوع"},{"id":"JuSqQzQL7cY","title":"4- أحوال العارفين بالله - شرح مختصر الفُتُوحَات المَكْيَّة","publishedAt":"2024-01-16T20:42:24Z","duration":"PT1H11M36S","thumbnail":"https://i.ytimg.com/vi/JuSqQzQL7cY/mqdefault.jpg","viewCount":"31891","playlistId":"PLEkQk5xrP-tnpkdZki6rPTtMak1bnI5g-","playlistName":"شرح كتاب مختصر الفتوحات المكية المسمى لواقح الأنوار القدسية","category":"متنوع"},{"id":"S7khw6RV_Hg","title":"7- نبذة عن عالم المنامات والتجليات | الفرق بين كلام العلماء والأولياء - شرح مختصر الفتوحات المكية","publishedAt":"2024-02-12T12:33:02Z","duration":"PT1H2M41S","thumbnail":"https://i.ytimg.com/vi/S7khw6RV_Hg/mqdefault.jpg","viewCount":"30698","playlistId":"PLEkQk5xrP-tnpkdZki6rPTtMak1bnI5g-","playlistName":"شرح كتاب مختصر الفتوحات المكية المسمى لواقح الأنوار القدسية","category":"متنوع"},{"id":"VjmQgCw3OUQ","title":"6- لطائف عالم الأرواح وخصائص عالم الأجساد | دليل الانتفاع بالمؤمن حيا وميتا","publishedAt":"2024-02-08T12:05:00Z","duration":"PT1H9M18S","thumbnail":"https://i.ytimg.com/vi/VjmQgCw3OUQ/mqdefault.jpg","viewCount":"26094","playlistId":"PLEkQk5xrP-tnpkdZki6rPTtMak1bnI5g-","playlistName":"شرح كتاب مختصر الفتوحات المكية المسمى لواقح الأنوار القدسية","category":"متنوع"},{"id":"6z4jMnH-JHY","title":"3- تكملة شرح العقيدة وما جاء في النُّبوَّات - شرح مختصر الفُتُوحَات المَكْيَّة","publishedAt":"2024-01-05T21:22:09Z","duration":"PT1H10M28S","thumbnail":"https://i.ytimg.com/vi/6z4jMnH-JHY/mqdefault.jpg","viewCount":"25417","playlistId":"PLEkQk5xrP-tnpkdZki6rPTtMak1bnI5g-","playlistName":"شرح كتاب مختصر الفتوحات المكية المسمى لواقح الأنوار القدسية","category":"متنوع"},{"id":"Z1kjhjrMpGE","title":"9- الفرق بين الروح والجسد وما هي الأبراج السماوية والأرضين السبع؟ | شرح مختصر الفتوحات المكية","publishedAt":"2024-02-25T13:55:06Z","duration":"PT52M12S","thumbnail":"https://i.ytimg.com/vi/Z1kjhjrMpGE/mqdefault.jpg","viewCount":"22511","playlistId":"PLEkQk5xrP-tnpkdZki6rPTtMak1bnI5g-","playlistName":"شرح كتاب مختصر الفتوحات المكية المسمى لواقح الأنوار القدسية","category":"متنوع"},{"id":"arI260x6zZc","title":"24- كيف يتجلى الله على الأولياء؟ | شرح مختصر الفتوحات المكية","publishedAt":"2024-06-30T18:00:02Z","duration":"PT48M19S","thumbnail":"https://i.ytimg.com/vi/arI260x6zZc/mqdefault.jpg","viewCount":"17706","playlistId":"PLEkQk5xrP-tnpkdZki6rPTtMak1bnI5g-","playlistName":"شرح كتاب مختصر الفتوحات المكية المسمى لواقح الأنوار القدسية","category":"متنوع"},{"id":"LZyVWCkYedc","title":"8- الفرق بين الإنس والجن وأيهما أقوى | شرح مختصر الفتوحات المكية","publishedAt":"2024-02-18T17:30:02Z","duration":"PT56M1S","thumbnail":"https://i.ytimg.com/vi/LZyVWCkYedc/mqdefault.jpg","viewCount":"16194","playlistId":"PLEkQk5xrP-tnpkdZki6rPTtMak1bnI5g-","playlistName":"شرح كتاب مختصر الفتوحات المكية المسمى لواقح الأنوار القدسية","category":"متنوع"},{"id":"NslGXEdfdv0","title":"5- التنزيه المطلق لله سبحانه وتعالى - شرح مختصر الفُتُوحَات المَكْيَّة","publishedAt":"2024-01-28T20:03:55Z","duration":"PT1H30S","thumbnail":"https://i.ytimg.com/vi/NslGXEdfdv0/mqdefault.jpg","viewCount":"15747","playlistId":"PLEkQk5xrP-tnpkdZki6rPTtMak1bnI5g-","playlistName":"شرح كتاب مختصر الفتوحات المكية المسمى لواقح الأنوار القدسية","category":"متنوع"},{"id":"NmFkdXwWMMQ","title":"10- الفرق بين إلهام الولي ووحي النبي | من هم المُحَدَّثون؟ | شرح مختصر الفتوحات المكية","publishedAt":"2024-03-04T11:40:16Z","duration":"PT50M47S","thumbnail":"https://i.ytimg.com/vi/NmFkdXwWMMQ/mqdefault.jpg","viewCount":"14607","playlistId":"PLEkQk5xrP-tnpkdZki6rPTtMak1bnI5g-","playlistName":"شرح كتاب مختصر الفتوحات المكية المسمى لواقح الأنوار القدسية","category":"متنوع"},{"id":"tXMUjCOC7HQ","title":"11- كيف يوسوس الشيطان للناس؟ | شرح مختصر الفتوحات المكية","publishedAt":"2024-03-08T19:10:05Z","duration":"PT54M59S","thumbnail":"https://i.ytimg.com/vi/tXMUjCOC7HQ/mqdefault.jpg","viewCount":"13096","playlistId":"PLEkQk5xrP-tnpkdZki6rPTtMak1bnI5g-","playlistName":"شرح كتاب مختصر الفتوحات المكية المسمى لواقح الأنوار القدسية","category":"متنوع"},{"id":"mIBJpIVfB5Y","title":"18- تفسير ما أصابك من حسنة فمن الله وما أصابك من سيئة فمن نفسك | شرح مختصر الفتوحات المكية","publishedAt":"2024-05-20T17:00:33Z","duration":"PT50M18S","thumbnail":"https://i.ytimg.com/vi/mIBJpIVfB5Y/mqdefault.jpg","viewCount":"10768","playlistId":"PLEkQk5xrP-tnpkdZki6rPTtMak1bnI5g-","playlistName":"شرح كتاب مختصر الفتوحات المكية المسمى لواقح الأنوار القدسية","category":"متنوع"},{"id":"Rt-hWXj8tX8","title":"22- أحوال الصالحين وأهل الله | شرح مختصر الفتوحات المكية","publishedAt":"2024-06-18T17:10:18Z","duration":"PT56M37S","thumbnail":"https://i.ytimg.com/vi/Rt-hWXj8tX8/mqdefault.jpg","viewCount":"10424","playlistId":"PLEkQk5xrP-tnpkdZki6rPTtMak1bnI5g-","playlistName":"شرح كتاب مختصر الفتوحات المكية المسمى لواقح الأنوار القدسية","category":"متنوع"},{"id":"xmCCsRP-JkE","title":"12- هل رحمة الله تشمل غير المسلمين؟ | شرح مختصر الفتوحات المكية","publishedAt":"2024-03-28T18:00:26Z","duration":"PT53M27S","thumbnail":"https://i.ytimg.com/vi/xmCCsRP-JkE/mqdefault.jpg","viewCount":"10373","playlistId":"PLEkQk5xrP-tnpkdZki6rPTtMak1bnI5g-","playlistName":"شرح كتاب مختصر الفتوحات المكية المسمى لواقح الأنوار القدسية","category":"متنوع"},{"id":"NgmFKhvv57k","title":"38- أسرار لا إله إلا الله | شرح مختصر الفتوحات المكية","publishedAt":"2025-01-12T16:02:35Z","duration":"PT41M8S","thumbnail":"https://i.ytimg.com/vi/NgmFKhvv57k/mqdefault.jpg","viewCount":"9774","playlistId":"PLEkQk5xrP-tnpkdZki6rPTtMak1bnI5g-","playlistName":"شرح كتاب مختصر الفتوحات المكية المسمى لواقح الأنوار القدسية","category":"متنوع"},{"id":"_cpEU-iYGig","title":"25- درجات الوصول إلى الله | شرح مختصر الفتوحات المكية","publishedAt":"2024-07-13T18:00:30Z","duration":"PT46M14S","thumbnail":"https://i.ytimg.com/vi/_cpEU-iYGig/mqdefault.jpg","viewCount":"9278","playlistId":"PLEkQk5xrP-tnpkdZki6rPTtMak1bnI5g-","playlistName":"شرح كتاب مختصر الفتوحات المكية المسمى لواقح الأنوار القدسية","category":"متنوع"},{"id":"UukH6LhtVBE","title":"32- ما هو الزمكان و هل الزمن نسبي؟ | شرح مختصر الفتوحات المكية","publishedAt":"2024-09-01T16:00:04Z","duration":"PT34M58S","thumbnail":"https://i.ytimg.com/vi/UukH6LhtVBE/mqdefault.jpg","viewCount":"9252","playlistId":"PLEkQk5xrP-tnpkdZki6rPTtMak1bnI5g-","playlistName":"شرح كتاب مختصر الفتوحات المكية المسمى لواقح الأنوار القدسية","category":"متنوع"},{"id":"wzLk7rf18xc","title":"13- هل يمكننا رؤية الله يوم القيامة؟ | شرح مختصر الفتوحات المكية","publishedAt":"2024-04-14T18:18:39Z","duration":"PT53M31S","thumbnail":"https://i.ytimg.com/vi/wzLk7rf18xc/mqdefault.jpg","viewCount":"9119","playlistId":"PLEkQk5xrP-tnpkdZki6rPTtMak1bnI5g-","playlistName":"شرح كتاب مختصر الفتوحات المكية المسمى لواقح الأنوار القدسية","category":"متنوع"},{"id":"x1Z1qRW2v1c","title":"19- الإيمان بالغيب ونعمة الستر | شرح مختصر الفتوحات المكية","publishedAt":"2024-05-26T17:20:51Z","duration":"PT50M34S","thumbnail":"https://i.ytimg.com/vi/x1Z1qRW2v1c/mqdefault.jpg","viewCount":"8716","playlistId":"PLEkQk5xrP-tnpkdZki6rPTtMak1bnI5g-","playlistName":"شرح كتاب مختصر الفتوحات المكية المسمى لواقح الأنوار القدسية","category":"متنوع"},{"id":"1mIsBoZzgzY","title":"28- صفات أولياء الله الصالحين | شرح مختصر الفتوحات المكية","publishedAt":"2024-08-04T17:00:02Z","duration":"PT49M57S","thumbnail":"https://i.ytimg.com/vi/1mIsBoZzgzY/mqdefault.jpg","viewCount":"8495","playlistId":"PLEkQk5xrP-tnpkdZki6rPTtMak1bnI5g-","playlistName":"شرح كتاب مختصر الفتوحات المكية المسمى لواقح الأنوار القدسية","category":"متنوع"},{"id":"jya9c0g3J_0","title":"16- ماذا أفعل حتى يستجيب الله دعائي؟ | شرح مختصر الفتوحات المكية","publishedAt":"2024-05-05T17:02:49Z","duration":"PT40M41S","thumbnail":"https://i.ytimg.com/vi/jya9c0g3J_0/mqdefault.jpg","viewCount":"8485","playlistId":"PLEkQk5xrP-tnpkdZki6rPTtMak1bnI5g-","playlistName":"شرح كتاب مختصر الفتوحات المكية المسمى لواقح الأنوار القدسية","category":"متنوع"},{"id":"pbXHMFnyPqg","title":"21- ما الفرق بين علوم القلب والعقل | شرح مختصر الفتوحات المكية","publishedAt":"2024-06-09T17:45:55Z","duration":"PT41M53S","thumbnail":"https://i.ytimg.com/vi/pbXHMFnyPqg/mqdefault.jpg","viewCount":"8410","playlistId":"PLEkQk5xrP-tnpkdZki6rPTtMak1bnI5g-","playlistName":"شرح كتاب مختصر الفتوحات المكية المسمى لواقح الأنوار القدسية","category":"متنوع"},{"id":"9acGEmsjgOc","title":"17- الفرق بين الشريعة والحقيقة في قصة سيدنا موسى والخضر | شرح مختصر الفتوحات المكية","publishedAt":"2024-05-13T17:16:50Z","duration":"PT45M8S","thumbnail":"https://i.ytimg.com/vi/9acGEmsjgOc/mqdefault.jpg","viewCount":"8380","playlistId":"PLEkQk5xrP-tnpkdZki6rPTtMak1bnI5g-","playlistName":"شرح كتاب مختصر الفتوحات المكية المسمى لواقح الأنوار القدسية","category":"متنوع"}],"total":55,"page":1,"pageSize":24,"totalPages":3}