{"items":[{"id":"AnxB-7BbtZU","title":"Ø¯Ø¹Ø§Ø¡ ÙˆØ¥Ø­ÙŠØ§Ø¡ ÙŠÙˆÙ… Ø¹Ø§Ø´ÙˆØ±Ø§Ø¡","publishedAt":"2025-07-05T12:28:11Z","duration":"PT43M38S","thumbnail":"https://i.ytimg.com/vi/AnxB-7BbtZU/mqdefault.jpg","viewCount":"2926","playlistId":"PLEkQk5xrP-tm8ZIu74nTOZN9KJUJu416J","playlistName":"Ù…Ù‚Ø§Ø·Ø¹ Ù…ÙÙ‡Ù…ÙÙ‘Ø© (ÙŠÙØ³Ø±ÙŠÙ‘ÙØ§Øª) Ø£.Ø¯. ÙŠØ³Ø±ÙŠ Ø¬Ø¨Ø±","category":"Ù…ØªÙ†ÙˆØ¹"},{"id":"Jo_W8bVAAhY","title":"Ù…Ø§Ø°Ø§ Ø£Ù‚ÙˆÙ„ Ø¹Ù†Ø¯ Ø²ÙŠØ§Ø±Ø© Ø§Ù„Ù†Ø¨ÙŠ ï·º ÙˆÙ…Ø§ Ø¢Ø¯Ø§Ø¨ Ø§Ù„Ø²ÙŠØ§Ø±Ø©ØŸ","publishedAt":"2025-08-13T18:00:31Z","duration":"PT9M43S","thumbnail":"https://i.ytimg.com/vi/Jo_W8bVAAhY/mqdefault.jpg","viewCount":"2869","playlistId":"PLEkQk5xrP-tm8ZIu74nTOZN9KJUJu416J","playlistName":"Ù…Ù‚Ø§Ø·Ø¹ Ù…ÙÙ‡Ù…ÙÙ‘Ø© (ÙŠÙØ³Ø±ÙŠÙ‘ÙØ§Øª) Ø£.Ø¯. ÙŠØ³Ø±ÙŠ Ø¬Ø¨Ø±","category":"Ù…ØªÙ†ÙˆØ¹"},{"id":"XexJ-gpXc4M","title":"Ù…Ø¯ÙŠØ±ÙŠ Ø¹Ù†Ø¯Ù‡ Ø¬Ù†ÙˆÙ† Ø¹Ø¸Ù…Ø© ÙÙƒÙŠÙ Ø£ØªØ¹Ø§Ù…Ù„ Ù…Ø¹Ù‡ØŸ","publishedAt":"2025-08-14T18:00:25Z","duration":"PT10M3S","thumbnail":"https://i.ytimg.com/vi/XexJ-gpXc4M/mqdefault.jpg","viewCount":"3272","playlistId":"PLEkQk5xrP-tm8ZIu74nTOZN9KJUJu416J","playlistName":"Ù…Ù‚Ø§Ø·Ø¹ Ù…ÙÙ‡Ù…ÙÙ‘Ø© (ÙŠÙØ³Ø±ÙŠÙ‘ÙØ§Øª) Ø£.Ø¯. ÙŠØ³Ø±ÙŠ Ø¬Ø¨Ø±","category":"Ù…ØªÙ†ÙˆØ¹"},{"id":"kLEvrx3sWvQ","title":"Ù…Ù† Ù‡Ù… Ø§Ù„Ø£Ø´Ø§Ø¹Ø±Ø© ÙˆÙ…Ø§ Ù‡ÙŠ Ø§Ù„Ø¹Ù‚ÙŠØ¯Ø© Ø§Ù„Ø£Ø´Ø¹Ø±ÙŠØ© Ø§Ù„ØµØ­ÙŠØ­Ø©ØŸ","publishedAt":"2025-08-18T19:00:47Z","duration":"PT11M10S","thumbnail":"https://i.ytimg.com/vi/kLEvrx3sWvQ/mqdefault.jpg","viewCount":"6851","playlistId":"PLEkQk5xrP-tm8ZIu74nTOZN9KJUJu416J","playlistName":"Ù…Ù‚Ø§Ø·Ø¹ Ù…ÙÙ‡Ù…ÙÙ‘Ø© (ÙŠÙØ³Ø±ÙŠÙ‘ÙØ§Øª) Ø£.Ø¯. ÙŠØ³Ø±ÙŠ Ø¬Ø¨Ø±","category":"Ù…ØªÙ†ÙˆØ¹"},{"id":"B_MEA3mC5Qc","title":"Ø¨Ø°ÙƒØ±Ù‰ Ø§Ù„Ù…ÙˆÙ„Ø¯ Ù†Ø­ÙŠØ§","publishedAt":"2025-08-25T18:15:15Z","duration":"PT19M49S","thumbnail":"https://i.ytimg.com/vi/B_MEA3mC5Qc/mqdefault.jpg","viewCount":"7684","playlistId":"PLEkQk5xrP-tm8ZIu74nTOZN9KJUJu416J","playlistName":"Ù…Ù‚Ø§Ø·Ø¹ Ù…ÙÙ‡Ù…ÙÙ‘Ø© (ÙŠÙØ³Ø±ÙŠÙ‘ÙØ§Øª) Ø£.Ø¯. ÙŠØ³Ø±ÙŠ Ø¬Ø¨Ø±","category":"Ù…ØªÙ†ÙˆØ¹"},{"id":"yffaCPgAW_c","title":"Ø¸Ø§Ù‡Ø±Ø© Ø®Ø³ÙˆÙ Ø§Ù„Ù‚Ù…Ø± ÙˆÙƒÙŠÙÙŠØ© ØµÙ„Ø§Ø© Ø§Ù„Ø®Ø³ÙˆÙØŸ","publishedAt":"2025-09-07T09:15:13Z","duration":"PT12M45S","thumbnail":"https://i.ytimg.com/vi/yffaCPgAW_c/mqdefault.jpg","viewCount":"82769","playlistId":"PLEkQk5xrP-tm8ZIu74nTOZN9KJUJu416J","playlistName":"Ù…Ù‚Ø§Ø·Ø¹ Ù…ÙÙ‡Ù…ÙÙ‘Ø© (ÙŠÙØ³Ø±ÙŠÙ‘ÙØ§Øª) Ø£.Ø¯. ÙŠØ³Ø±ÙŠ Ø¬Ø¨Ø±","category":"Ù…ØªÙ†ÙˆØ¹"},{"id":"dNukwytgzWA","title":"ÙƒÙ„Ù…Ø© Ø¯. Ù…Ø¬Ø¯ÙŠ Ø¹Ø§Ø´ÙˆØ± Ùˆ Ø¯. Ø£Ø­Ù…Ø¯ Ù…Ù…Ø¯ÙˆØ­ Ø§Ø­ØªÙØ§Ù„Ù‹Ø§ Ø¨Ø§Ù„Ù…ÙˆÙ„Ø¯ Ø§Ù„Ù†Ø¨ÙˆÙŠ","publishedAt":"2025-09-12T18:45:02Z","duration":"PT15M20S","thumbnail":"https://i.ytimg.com/vi/dNukwytgzWA/mqdefault.jpg","viewCount":"1928","playlistId":"PLEkQk5xrP-tm8ZIu74nTOZN9KJUJu416J","playlistName":"Ù…Ù‚Ø§Ø·Ø¹ Ù…ÙÙ‡Ù…ÙÙ‘Ø© (ÙŠÙØ³Ø±ÙŠÙ‘ÙØ§Øª) Ø£.Ø¯. ÙŠØ³Ø±ÙŠ Ø¬Ø¨Ø±","category":"Ù…ØªÙ†ÙˆØ¹"},{"id":"Zr_H7F1VvgY","title":"ÙƒÙ„Ù…Ø© Ø£.Ø¯. ÙŠØ³Ø±ÙŠ Ø¬Ø¨Ø± Ø§Ø­ØªÙØ§Ù„Ù‹Ø§ Ø¨Ø§Ù„Ù…ÙˆÙ„Ø¯ Ø§Ù„Ù†Ø¨ÙˆÙŠ Ø§Ù„Ø´Ø±ÙŠÙ","publishedAt":"2025-09-13T18:30:53Z","duration":"PT31M54S","thumbnail":"https://i.ytimg.com/vi/Zr_H7F1VvgY/mqdefault.jpg","viewCount":"879","playlistId":"PLEkQk5xrP-tm8ZIu74nTOZN9KJUJu416J","playlistName":"Ù…Ù‚Ø§Ø·Ø¹ Ù…ÙÙ‡Ù…ÙÙ‘Ø© (ÙŠÙØ³Ø±ÙŠÙ‘ÙØ§Øª) Ø£.Ø¯. ÙŠØ³Ø±ÙŠ Ø¬Ø¨Ø±","category":"Ù…ØªÙ†ÙˆØ¹"},{"id":"aBW4ma4u6iQ","title":"ÙƒÙŠÙ ØªØ¹Ø±Ù Ù†Ø¨ÙŠÙƒØŸ | Ø³ÙŠØ±Ø© Ø§Ù„Ù†Ø¨ÙŠ ï·º ÙƒØ§Ù…Ù„Ø©","publishedAt":"2025-09-19T19:00:00Z","duration":"PT2H10M25S","thumbnail":"https://i.ytimg.com/vi/aBW4ma4u6iQ/mqdefault.jpg","viewCount":"4626","playlistId":"PLEkQk5xrP-tm8ZIu74nTOZN9KJUJu416J","playlistName":"Ù…Ù‚Ø§Ø·Ø¹ Ù…ÙÙ‡Ù…ÙÙ‘Ø© (ÙŠÙØ³Ø±ÙŠÙ‘ÙØ§Øª) Ø£.Ø¯. ÙŠØ³Ø±ÙŠ Ø¬Ø¨Ø±","category":"Ù…ØªÙ†ÙˆØ¹"},{"id":"oo_NF_ndYQE","title":"ÙƒÙŠÙ Ø£ÙˆØ§Ø¬Ù‡ ØµØ¹ÙˆØ¨Ø§Øª Ø§Ù„Ø­ÙŠØ§Ø© ÙˆØ£ØªØºÙ„Ø¨ Ø¹Ù„Ù‰ Ø§Ù„Ø¶ØºÙˆØ·Ø§Øª Ø§Ù„Ù†ÙØ³ÙŠØ©ØŸ","publishedAt":"2025-09-20T19:00:43Z","duration":"PT14M35S","thumbnail":"https://i.ytimg.com/vi/oo_NF_ndYQE/mqdefault.jpg","viewCount":"11495","playlistId":"PLEkQk5xrP-tm8ZIu74nTOZN9KJUJu416J","playlistName":"Ù…Ù‚Ø§Ø·Ø¹ Ù…ÙÙ‡Ù…ÙÙ‘Ø© (ÙŠÙØ³Ø±ÙŠÙ‘ÙØ§Øª) Ø£.Ø¯. ÙŠØ³Ø±ÙŠ Ø¬Ø¨Ø±","category":"Ù…ØªÙ†ÙˆØ¹"},{"id":"vjlN0NsF6t0","title":"Ù…Ø§ Ù‡Ùˆ Ø³Ø¨Ø¨ Ø§Ù„Ù…Ø´Ø§ÙƒÙ„ Ø¨ÙŠÙ† Ø§Ù„Ø²ÙˆØ¬ÙŠÙ†ØŸ ÙˆÙƒÙŠÙ ØªØ¹ÙŠØ´ Ø­ÙŠØ§Ø© Ø³Ø¹ÙŠØ¯Ø© Ù…Ø¹ Ø£ÙˆÙ„Ø§Ø¯ÙƒØŸ","publishedAt":"2025-10-09T17:41:00Z","duration":"PT11M58S","thumbnail":"https://i.ytimg.com/vi/vjlN0NsF6t0/mqdefault.jpg","viewCount":"1499","playlistId":"PLEkQk5xrP-tm8ZIu74nTOZN9KJUJu416J","playlistName":"Ù…Ù‚Ø§Ø·Ø¹ Ù…ÙÙ‡Ù…ÙÙ‘Ø© (ÙŠÙØ³Ø±ÙŠÙ‘ÙØ§Øª) Ø£.Ø¯. ÙŠØ³Ø±ÙŠ Ø¬Ø¨Ø±","category":"Ù…ØªÙ†ÙˆØ¹"},{"id":"yjvPI50k5do","title":"Ù…Ø§ Ù‡ÙŠ ØµÙØ§Øª Ø§Ù„Ø£ÙˆÙ„ÙŠØ§Ø¡ ÙˆÙ…Ø§ ÙØ¶Ù„ Ø²ÙŠØ§Ø±Ø© Ù…Ù‚Ø§Ù…ØªÙ‡Ù…ØŸ","publishedAt":"2025-10-17T18:34:59Z","duration":"PT21M9S","thumbnail":"https://i.ytimg.com/vi/yjvPI50k5do/mqdefault.jpg","viewCount":"8378","playlistId":"PLEkQk5xrP-tm8ZIu74nTOZN9KJUJu416J","playlistName":"Ù…Ù‚Ø§Ø·Ø¹ Ù…ÙÙ‡Ù…ÙÙ‘Ø© (ÙŠÙØ³Ø±ÙŠÙ‘ÙØ§Øª) Ø£.Ø¯. ÙŠØ³Ø±ÙŠ Ø¬Ø¨Ø±","category":"Ù…ØªÙ†ÙˆØ¹"},{"id":"0xvKxu6V9Es","title":"ÙƒÙŠÙ ØªØµØ¨Ø± Ø¹Ù„Ù‰ Ø§Ù„Ø¨Ù„Ø§Ø¡ ÙƒÙ…Ø§ ØµØ¨Ø± Ø¢Ù„ Ø§Ù„Ø¨ÙŠØªØŸ","publishedAt":"2025-10-21T18:45:54Z","duration":"PT16M13S","thumbnail":"https://i.ytimg.com/vi/0xvKxu6V9Es/mqdefault.jpg","viewCount":"2577","playlistId":"PLEkQk5xrP-tm8ZIu74nTOZN9KJUJu416J","playlistName":"Ù…Ù‚Ø§Ø·Ø¹ Ù…ÙÙ‡Ù…ÙÙ‘Ø© (ÙŠÙØ³Ø±ÙŠÙ‘ÙØ§Øª) Ø£.Ø¯. ÙŠØ³Ø±ÙŠ Ø¬Ø¨Ø±","category":"Ù…ØªÙ†ÙˆØ¹"},{"id":"JyV-JnoqbJU","title":"ÙƒÙŠÙ ØªØªØ¹Ø±Ù Ø¹Ù„Ù‰ Ø®ØµØ§Ø¦Øµ ÙˆÙƒÙ…Ø§Ù„Ø§Øª Ø§Ù„Ù†Ø¨ÙŠ ï·ºØŸ","publishedAt":"2025-10-24T17:00:25Z","duration":"PT23M40S","thumbnail":"https://i.ytimg.com/vi/JyV-JnoqbJU/mqdefault.jpg","viewCount":"1840","playlistId":"PLEkQk5xrP-tm8ZIu74nTOZN9KJUJu416J","playlistName":"Ù…Ù‚Ø§Ø·Ø¹ Ù…ÙÙ‡Ù…ÙÙ‘Ø© (ÙŠÙØ³Ø±ÙŠÙ‘ÙØ§Øª) Ø£.Ø¯. ÙŠØ³Ø±ÙŠ Ø¬Ø¨Ø±","category":"Ù…ØªÙ†ÙˆØ¹"},{"id":"b2M0ADuF9ak","title":"Ù‡Ù„ ØªØ±Ùƒ Ø§Ù„Ø³ÙŠØ¯ Ø§Ù„Ø¨Ø¯ÙˆÙŠ Ø§Ù„ØµÙ„Ø§Ø©ØŸ","publishedAt":"2025-10-25T19:25:18Z","duration":"PT8M3S","thumbnail":"https://i.ytimg.com/vi/b2M0ADuF9ak/mqdefault.jpg","viewCount":"9643","playlistId":"PLEkQk5xrP-tm8ZIu74nTOZN9KJUJu416J","playlistName":"Ù…Ù‚Ø§Ø·Ø¹ Ù…ÙÙ‡Ù…ÙÙ‘Ø© (ÙŠÙØ³Ø±ÙŠÙ‘ÙØ§Øª) Ø£.Ø¯. ÙŠØ³Ø±ÙŠ Ø¬Ø¨Ø±","category":"Ù…ØªÙ†ÙˆØ¹"},{"id":"gM6XmKdZLHo","title":"ÙƒÙŠÙ ØªØ­ÙØ¸ Ù‚Ù„Ø¨Ùƒ Ù…Ù† Ø´Ø¨Ù‡Ø§Øª Ø§Ù„Ø¹Ù‚ÙŠØ¯Ø©ØŸ","publishedAt":"2025-10-29T20:00:49Z","duration":"PT27M48S","thumbnail":"https://i.ytimg.com/vi/gM6XmKdZLHo/mqdefault.jpg","viewCount":"3176","playlistId":"PLEkQk5xrP-tm8ZIu74nTOZN9KJUJu416J","playlistName":"Ù…Ù‚Ø§Ø·Ø¹ Ù…ÙÙ‡Ù…ÙÙ‘Ø© (ÙŠÙØ³Ø±ÙŠÙ‘ÙØ§Øª) Ø£.Ø¯. ÙŠØ³Ø±ÙŠ Ø¬Ø¨Ø±","category":"Ù…ØªÙ†ÙˆØ¹"},{"id":"DC4H7pcCAO0","title":"ÙˆØµØ§ÙŠØ§ Ù„Ù„Ù…Ø³Ù„Ù…ÙŠÙ† ÙÙŠ Ø£ÙˆØ±ÙˆØ¨Ø§ ÙˆØ¨Ù„Ø§Ø¯ Ø§Ù„ØºØ±Ø¨ | Ø¥Ø´Ø¨ÙŠÙ„ÙŠØ© - Ø§Ø³Ø¨Ø§Ù†ÙŠØ§ğŸ“","publishedAt":"2025-10-31T19:30:06Z","duration":"PT14M3S","thumbnail":"https://i.ytimg.com/vi/DC4H7pcCAO0/mqdefault.jpg","viewCount":"2743","playlistId":"PLEkQk5xrP-tm8ZIu74nTOZN9KJUJu416J","playlistName":"Ù…Ù‚Ø§Ø·Ø¹ Ù…ÙÙ‡Ù…ÙÙ‘Ø© (ÙŠÙØ³Ø±ÙŠÙ‘ÙØ§Øª) Ø£.Ø¯. ÙŠØ³Ø±ÙŠ Ø¬Ø¨Ø±","category":"Ù…ØªÙ†ÙˆØ¹"},{"id":"c7rSbnwaU4M","title":"ÙƒÙŠÙ ØªØµÙ„ Ø¥Ù„Ù‰ Ù…Ù‚Ø§Ù… Ø§Ù„Ø´ÙƒØ± ÙÙŠ 4 Ø®Ø·ÙˆØ§ØªØŸ","publishedAt":"2025-11-01T18:32:22Z","duration":"PT12M38S","thumbnail":"https://i.ytimg.com/vi/c7rSbnwaU4M/mqdefault.jpg","viewCount":"1993","playlistId":"PLEkQk5xrP-tm8ZIu74nTOZN9KJUJu416J","playlistName":"Ù…Ù‚Ø§Ø·Ø¹ Ù…ÙÙ‡Ù…ÙÙ‘Ø© (ÙŠÙØ³Ø±ÙŠÙ‘ÙØ§Øª) Ø£.Ø¯. ÙŠØ³Ø±ÙŠ Ø¬Ø¨Ø±","category":"Ù…ØªÙ†ÙˆØ¹"},{"id":"kDUO_tbx_1o","title":"ÙƒÙŠÙ ØªØªØ¹Ø±Ù Ø¹Ù„Ù‰ Ø±ÙˆØ­Ø§Ù†ÙŠØ© Ø§Ù„Ù†Ø¨ÙŠ ï·ºØŸ","publishedAt":"2025-11-02T17:01:09Z","duration":"PT16M10S","thumbnail":"https://i.ytimg.com/vi/kDUO_tbx_1o/mqdefault.jpg","viewCount":"2609","playlistId":"PLEkQk5xrP-tm8ZIu74nTOZN9KJUJu416J","playlistName":"Ù…Ù‚Ø§Ø·Ø¹ Ù…ÙÙ‡Ù…ÙÙ‘Ø© (ÙŠÙØ³Ø±ÙŠÙ‘ÙØ§Øª) Ø£.Ø¯. ÙŠØ³Ø±ÙŠ Ø¬Ø¨Ø±","category":"Ù…ØªÙ†ÙˆØ¹"},{"id":"9ze0FdI-ofk","title":"ÙƒÙŠÙ ØªÙ†Ø²Ø¹ Ø­Ø¨ Ø§Ù„Ø¯Ù†ÙŠØ§ ÙˆØ§Ù„ØªØ¹Ù„Ù‚ Ø¨Ù‡Ø§ Ù…Ù† Ù‚Ù„Ø¨ÙƒØŸ","publishedAt":"2025-11-03T19:06:35Z","duration":"PT11M26S","thumbnail":"https://i.ytimg.com/vi/9ze0FdI-ofk/mqdefault.jpg","viewCount":"4481","playlistId":"PLEkQk5xrP-tm8ZIu74nTOZN9KJUJu416J","playlistName":"Ù…Ù‚Ø§Ø·Ø¹ Ù…ÙÙ‡Ù…ÙÙ‘Ø© (ÙŠÙØ³Ø±ÙŠÙ‘ÙØ§Øª) Ø£.Ø¯. ÙŠØ³Ø±ÙŠ Ø¬Ø¨Ø±","category":"Ù…ØªÙ†ÙˆØ¹"},{"id":"u_h6yoe-Q8U","title":"Ù„Ù…Ø§Ø°Ø§ Ø®Ù„Ù‚Ù†Ø§ Ø§Ù„Ù„Ù‡ ÙˆÙ„Ù…Ø§Ø°Ø§ Ø£Ù…Ø±Ù†Ø§ Ø¨Ø¹Ø¨Ø§Ø¯ØªÙ‡ØŸ","publishedAt":"2025-11-04T21:00:58Z","duration":"PT26M17S","thumbnail":"https://i.ytimg.com/vi/u_h6yoe-Q8U/mqdefault.jpg","viewCount":"1731","playlistId":"PLEkQk5xrP-tm8ZIu74nTOZN9KJUJu416J","playlistName":"Ù…Ù‚Ø§Ø·Ø¹ Ù…ÙÙ‡Ù…ÙÙ‘Ø© (ÙŠÙØ³Ø±ÙŠÙ‘ÙØ§Øª) Ø£.Ø¯. ÙŠØ³Ø±ÙŠ Ø¬Ø¨Ø±","category":"Ù…ØªÙ†ÙˆØ¹"},{"id":"q3TysWWyoZ0","title":"ÙƒÙŠÙ ÙŠØªØ¹Ø§Ù…Ù„ Ø§Ù„Ù…Ø³Ù„Ù… ÙÙŠ Ø£ÙˆØ±ÙˆØ¨Ø§ ÙˆØ¨Ù„Ø§Ø¯ Ø§Ù„ØºØ±Ø¨ Ù…Ø¹ Ø§Ù„ØªØ­Ø¯ÙŠØ§Øª Ø§Ù„ØªÙŠ ØªÙˆØ§Ø¬Ù‡Ù‡ØŸ","publishedAt":"2025-11-06T18:01:03Z","duration":"PT20M30S","thumbnail":"https://i.ytimg.com/vi/q3TysWWyoZ0/mqdefault.jpg","viewCount":"1330","playlistId":"PLEkQk5xrP-tm8ZIu74nTOZN9KJUJu416J","playlistName":"Ù…Ù‚Ø§Ø·Ø¹ Ù…ÙÙ‡Ù…ÙÙ‘Ø© (ÙŠÙØ³Ø±ÙŠÙ‘ÙØ§Øª) Ø£.Ø¯. ÙŠØ³Ø±ÙŠ Ø¬Ø¨Ø±","category":"Ù…ØªÙ†ÙˆØ¹"},{"id":"MCk_un62AAw","title":"Ø®Ø·Ø¨Ø© Ø§Ù„Ø¬Ù…Ø¹Ø© | Ø¨Ø±Ø´Ù„ÙˆÙ†Ø© - Ø¥Ø³Ø¨Ø§Ù†ÙŠØ§ğŸ“","publishedAt":"2025-11-07T18:00:21Z","duration":"PT20M20S","thumbnail":"https://i.ytimg.com/vi/MCk_un62AAw/mqdefault.jpg","viewCount":"1406","playlistId":"PLEkQk5xrP-tm8ZIu74nTOZN9KJUJu416J","playlistName":"Ù…Ù‚Ø§Ø·Ø¹ Ù…ÙÙ‡Ù…ÙÙ‘Ø© (ÙŠÙØ³Ø±ÙŠÙ‘ÙØ§Øª) Ø£.Ø¯. ÙŠØ³Ø±ÙŠ Ø¬Ø¨Ø±","category":"Ù…ØªÙ†ÙˆØ¹"},{"id":"datzEoo9P64","title":"ÙØ¶Ù„ ÙˆÙƒÙ†ÙˆØ² Ø§Ù„ØµÙ„Ø§Ø© Ø¹Ù„Ù‰ Ø§Ù„Ù†Ø¨ÙŠ ï·º","publishedAt":"2025-11-08T17:01:05Z","duration":"PT28M54S","thumbnail":"https://i.ytimg.com/vi/datzEoo9P64/mqdefault.jpg","viewCount":"10131","playlistId":"PLEkQk5xrP-tm8ZIu74nTOZN9KJUJu416J","playlistName":"Ù…Ù‚Ø§Ø·Ø¹ Ù…ÙÙ‡Ù…ÙÙ‘Ø© (ÙŠÙØ³Ø±ÙŠÙ‘ÙØ§Øª) Ø£.Ø¯. ÙŠØ³Ø±ÙŠ Ø¬Ø¨Ø±","category":"Ù…ØªÙ†ÙˆØ¹"}],"total":560,"page":23,"pageSize":24,"totalPages":24}