{"items":[{"id":"bvtfH7AwfQ4","title":"سؤال عن فضائل الصلوات اليُسْريَّة على خير البَريَّة - د. يسرى جبر","publishedAt":"2015-08-15T18:48:53Z","duration":"PT4M57S","thumbnail":"https://i.ytimg.com/vi/bvtfH7AwfQ4/mqdefault.jpg","viewCount":"23995","playlistId":"PLEkQk5xrP-tm8ZIu74nTOZN9KJUJu416J","playlistName":"مقاطع مُهمَّة (يُسريَّات) أ.د. يسري جبر","category":"متنوع"},{"id":"C0aa-l2R8oc","title":"الموقف تجاه الفتنة الكبرى بين الصحابة  د. يسرى جبر","publishedAt":"2015-12-07T16:30:59Z","duration":"PT3M28S","thumbnail":"https://i.ytimg.com/vi/C0aa-l2R8oc/mqdefault.jpg","viewCount":"4066","playlistId":"PLEkQk5xrP-tm8ZIu74nTOZN9KJUJu416J","playlistName":"مقاطع مُهمَّة (يُسريَّات) أ.د. يسري جبر","category":"متنوع"},{"id":"Wzc6TGj3HSU","title":"حُبُّ النَّبِِّى وَكَثْرةِ الصَلاةِ عليه تَنْزِعُ الدُنْيا مِنَ القُلُوبِ  د . يسرى جبر","publishedAt":"2016-01-10T20:50:51Z","duration":"PT4M38S","thumbnail":"https://i.ytimg.com/vi/Wzc6TGj3HSU/mqdefault.jpg","viewCount":"54277","playlistId":"PLEkQk5xrP-tm8ZIu74nTOZN9KJUJu416J","playlistName":"مقاطع مُهمَّة (يُسريَّات) أ.د. يسري جبر","category":"متنوع"},{"id":"p4P6hqktAOQ","title":"أنا من أهوى ومن أهوى أنا","publishedAt":"2016-07-07T12:39:37Z","duration":"PT1M9S","thumbnail":"https://i.ytimg.com/vi/p4P6hqktAOQ/mqdefault.jpg","viewCount":"4142","playlistId":"PLEkQk5xrP-tm8ZIu74nTOZN9KJUJu416J","playlistName":"مقاطع مُهمَّة (يُسريَّات) أ.د. يسري جبر","category":"متنوع"},{"id":"SmIpGsvOxGA","title":"نور المصطفى ملأ الأكوان","publishedAt":"2016-07-09T18:46:02Z","duration":"PT13M32S","thumbnail":"https://i.ytimg.com/vi/SmIpGsvOxGA/mqdefault.jpg","viewCount":"12481","playlistId":"PLEkQk5xrP-tm8ZIu74nTOZN9KJUJu416J","playlistName":"مقاطع مُهمَّة (يُسريَّات) أ.د. يسري جبر","category":"متنوع"},{"id":"pt9RKWnDUvc","title":"الحمدُ للهٍ أنَا بكَ وَإليكَ  أ.د يسري جبر","publishedAt":"2016-07-11T20:56:28Z","duration":"PT1M32S","thumbnail":"https://i.ytimg.com/vi/pt9RKWnDUvc/mqdefault.jpg","viewCount":"1506","playlistId":"PLEkQk5xrP-tm8ZIu74nTOZN9KJUJu416J","playlistName":"مقاطع مُهمَّة (يُسريَّات) أ.د. يسري جبر","category":"متنوع"},{"id":"2mclCySzFC0","title":"الفرق بين المحبة والخلة والعشق  د. يسري جبر","publishedAt":"2016-07-18T16:56:04Z","duration":"PT8M50S","thumbnail":"https://i.ytimg.com/vi/2mclCySzFC0/mqdefault.jpg","viewCount":"7483","playlistId":"PLEkQk5xrP-tm8ZIu74nTOZN9KJUJu416J","playlistName":"مقاطع مُهمَّة (يُسريَّات) أ.د. يسري جبر","category":"متنوع"},{"id":"_7VRVE8hcZc","title":"مَنْ هُمُ الأَولِيَاء د. يسري جبر","publishedAt":"2016-07-23T19:12:25Z","duration":"PT13M33S","thumbnail":"https://i.ytimg.com/vi/_7VRVE8hcZc/mqdefault.jpg","viewCount":"5667","playlistId":"PLEkQk5xrP-tm8ZIu74nTOZN9KJUJu416J","playlistName":"مقاطع مُهمَّة (يُسريَّات) أ.د. يسري جبر","category":"متنوع"},{"id":"ZcExG620sCI","title":"من صلى علىّ مرة صلى الله عليه بهاعشرا د. يسري جبر","publishedAt":"2016-08-06T16:37:39Z","duration":"PT1M9S","thumbnail":"https://i.ytimg.com/vi/ZcExG620sCI/mqdefault.jpg","viewCount":"748","playlistId":"PLEkQk5xrP-tm8ZIu74nTOZN9KJUJu416J","playlistName":"مقاطع مُهمَّة (يُسريَّات) أ.د. يسري جبر","category":"متنوع"},{"id":"xJypUC7gLbc","title":"ماذا نفعل في وقت الأزمات  د. يسري جبر","publishedAt":"2016-11-05T20:37:57Z","duration":"PT15M34S","thumbnail":"https://i.ytimg.com/vi/xJypUC7gLbc/mqdefault.jpg","viewCount":"8189","playlistId":"PLEkQk5xrP-tm8ZIu74nTOZN9KJUJu416J","playlistName":"مقاطع مُهمَّة (يُسريَّات) أ.د. يسري جبر","category":"متنوع"},{"id":"j1XHz6Sutlo","title":"خصائص النبي فى الأكوان د يسري جبر احتفال المولد النبوي بمضيفة الدح","publishedAt":"2016-12-07T11:56:02Z","duration":"PT25M59S","thumbnail":"https://i.ytimg.com/vi/j1XHz6Sutlo/mqdefault.jpg","viewCount":"45748","playlistId":"PLEkQk5xrP-tm8ZIu74nTOZN9KJUJu416J","playlistName":"مقاطع مُهمَّة (يُسريَّات) أ.د. يسري جبر","category":"متنوع"},{"id":"Nvo-GJF1B-Y","title":"الليلة الختامية لأسبوع الاحتفالات بالمولد النبوي 2016","publishedAt":"2016-12-14T20:32:09Z","duration":"PT21S","thumbnail":"https://i.ytimg.com/vi/Nvo-GJF1B-Y/mqdefault.jpg","viewCount":"777","playlistId":"PLEkQk5xrP-tm8ZIu74nTOZN9KJUJu416J","playlistName":"مقاطع مُهمَّة (يُسريَّات) أ.د. يسري جبر","category":"متنوع"},{"id":"KoPPNzEB6fU","title":"شرح الصلاة الأنموذجية د. يسري جبر","publishedAt":"2017-01-10T18:56:58Z","duration":"PT8M17S","thumbnail":"https://i.ytimg.com/vi/KoPPNzEB6fU/mqdefault.jpg","viewCount":"12871","playlistId":"PLEkQk5xrP-tm8ZIu74nTOZN9KJUJu416J","playlistName":"مقاطع مُهمَّة (يُسريَّات) أ.د. يسري جبر","category":"متنوع"},{"id":"3ZPrwr-dtM4","title":"شرح صلاة المُتَرَدِّي   د. يسري جبر","publishedAt":"2017-01-18T17:32:18Z","duration":"PT17M47S","thumbnail":"https://i.ytimg.com/vi/3ZPrwr-dtM4/mqdefault.jpg","viewCount":"9206","playlistId":"PLEkQk5xrP-tm8ZIu74nTOZN9KJUJu416J","playlistName":"مقاطع مُهمَّة (يُسريَّات) أ.د. يسري جبر","category":"متنوع"},{"id":"dXoFlCB_lOA","title":"لكل نبي دعوة مستجابة    د. يسري جبر","publishedAt":"2017-04-27T16:55:44Z","duration":"PT10M19S","thumbnail":"https://i.ytimg.com/vi/dXoFlCB_lOA/mqdefault.jpg","viewCount":"1469","playlistId":"PLEkQk5xrP-tm8ZIu74nTOZN9KJUJu416J","playlistName":"مقاطع مُهمَّة (يُسريَّات) أ.د. يسري جبر","category":"متنوع"},{"id":"t5StMhXfILU","title":"نظرة ومدد يا رسول الله د. يسري جبر","publishedAt":"2017-05-02T20:27:30Z","duration":"PT1M44S","thumbnail":"https://i.ytimg.com/vi/t5StMhXfILU/mqdefault.jpg","viewCount":"3717","playlistId":"PLEkQk5xrP-tm8ZIu74nTOZN9KJUJu416J","playlistName":"مقاطع مُهمَّة (يُسريَّات) أ.د. يسري جبر","category":"متنوع"},{"id":"u_kY-Q6xlFY","title":"الجمال كله    د. يسري جبر","publishedAt":"2017-05-27T15:06:39Z","duration":"PT1M45S","thumbnail":"https://i.ytimg.com/vi/u_kY-Q6xlFY/mqdefault.jpg","viewCount":"3064","playlistId":"PLEkQk5xrP-tm8ZIu74nTOZN9KJUJu416J","playlistName":"مقاطع مُهمَّة (يُسريَّات) أ.د. يسري جبر","category":"متنوع"},{"id":"FtnXMBhpVEQ","title":"هل يُستفاد بالأنبياء بعد وفاتهم     د.يسري جبر","publishedAt":"2017-05-27T15:27:43Z","duration":"PT7M26S","thumbnail":"https://i.ytimg.com/vi/FtnXMBhpVEQ/mqdefault.jpg","viewCount":"4753","playlistId":"PLEkQk5xrP-tm8ZIu74nTOZN9KJUJu416J","playlistName":"مقاطع مُهمَّة (يُسريَّات) أ.د. يسري جبر","category":"متنوع"},{"id":"0uuWh8fHq_Q","title":"ساعة الإجابة في يوم الجمعة   د. يسري جبر","publishedAt":"2017-07-28T09:02:54Z","duration":"PT7M43S","thumbnail":"https://i.ytimg.com/vi/0uuWh8fHq_Q/mqdefault.jpg","viewCount":"17554","playlistId":"PLEkQk5xrP-tm8ZIu74nTOZN9KJUJu416J","playlistName":"مقاطع مُهمَّة (يُسريَّات) أ.د. يسري جبر","category":"متنوع"},{"id":"ISHynL4au0o","title":"الرضا بالإقامة عين الكرامة     د. يسري جبر","publishedAt":"2017-08-11T08:25:04Z","duration":"PT2M55S","thumbnail":"https://i.ytimg.com/vi/ISHynL4au0o/mqdefault.jpg","viewCount":"5774","playlistId":"PLEkQk5xrP-tm8ZIu74nTOZN9KJUJu416J","playlistName":"مقاطع مُهمَّة (يُسريَّات) أ.د. يسري جبر","category":"متنوع"},{"id":"B3vvX5Cx-O8","title":"صلاة العيد وصلاة الجمعة  د. يسري جبر","publishedAt":"2017-08-29T20:31:01Z","duration":"PT1M24S","thumbnail":"https://i.ytimg.com/vi/B3vvX5Cx-O8/mqdefault.jpg","viewCount":"1079","playlistId":"PLEkQk5xrP-tm8ZIu74nTOZN9KJUJu416J","playlistName":"مقاطع مُهمَّة (يُسريَّات) أ.د. يسري جبر","category":"متنوع"},{"id":"szy1dCawzJI","title":"كيفية قراءة الصلوات اليسرية   د.يسري جبر","publishedAt":"2017-09-06T16:08:31Z","duration":"PT5M2S","thumbnail":"https://i.ytimg.com/vi/szy1dCawzJI/mqdefault.jpg","viewCount":"4998","playlistId":"PLEkQk5xrP-tm8ZIu74nTOZN9KJUJu416J","playlistName":"مقاطع مُهمَّة (يُسريَّات) أ.د. يسري جبر","category":"متنوع"},{"id":"YyO-HUnFH4M","title":"كلمة فضيلة الدكتور يسري جبر في الملتقى العالمي الثاني عشر للتصوف بالمغرب","publishedAt":"2017-11-30T12:21:12Z","duration":"PT22M44S","thumbnail":"https://i.ytimg.com/vi/YyO-HUnFH4M/mqdefault.jpg","viewCount":"7486","playlistId":"PLEkQk5xrP-tm8ZIu74nTOZN9KJUJu416J","playlistName":"مقاطع مُهمَّة (يُسريَّات) أ.د. يسري جبر","category":"متنوع"},{"id":"Q2CjZQxCioU","title":"الأدبُ يُوَصِّلُكَ إلى الله  د. يسري جبر","publishedAt":"2018-03-08T18:43:00Z","duration":"PT5M7S","thumbnail":"https://i.ytimg.com/vi/Q2CjZQxCioU/mqdefault.jpg","viewCount":"5456","playlistId":"PLEkQk5xrP-tm8ZIu74nTOZN9KJUJu416J","playlistName":"مقاطع مُهمَّة (يُسريَّات) أ.د. يسري جبر","category":"متنوع"}],"total":560,"page":3,"pageSize":24,"totalPages":24}