{"items":[{"id":"TcqnEzDjyks","title":"Ù‚ØµØ© Ø§Ù„Ø¯Ø¹Ø§Ø¡ Ø§Ù„Ù„ÙŠ ØºÙŠØ± Ø­ÙŠØ§ØªÙŠ!","publishedAt":"2024-08-28T18:00:45Z","duration":"PT8M59S","thumbnail":"https://i.ytimg.com/vi/TcqnEzDjyks/mqdefault.jpg","viewCount":"67072","playlistId":"PLEkQk5xrP-tm8ZIu74nTOZN9KJUJu416J","playlistName":"Ù…Ù‚Ø§Ø·Ø¹ Ù…ÙÙ‡Ù…ÙÙ‘Ø© (ÙŠÙØ³Ø±ÙŠÙ‘ÙØ§Øª) Ø£.Ø¯. ÙŠØ³Ø±ÙŠ Ø¬Ø¨Ø±","category":"Ù…ØªÙ†ÙˆØ¹"},{"id":"rLlYdiuA1bE","title":"Ø¨Ø°ÙƒØ±Ù‰ Ø§Ù„Ù…ÙˆÙ„Ø¯ Ù†Ø­ÙŠØ§","publishedAt":"2024-09-04T16:38:42Z","duration":"PT19M42S","thumbnail":"https://i.ytimg.com/vi/rLlYdiuA1bE/mqdefault.jpg","viewCount":"9377","playlistId":"PLEkQk5xrP-tm8ZIu74nTOZN9KJUJu416J","playlistName":"Ù…Ù‚Ø§Ø·Ø¹ Ù…ÙÙ‡Ù…ÙÙ‘Ø© (ÙŠÙØ³Ø±ÙŠÙ‘ÙØ§Øª) Ø£.Ø¯. ÙŠØ³Ø±ÙŠ Ø¬Ø¨Ø±","category":"Ù…ØªÙ†ÙˆØ¹"},{"id":"MYDWOsFv5uQ","title":"Ù…Ø§ Ù‡Ùˆ Ø§Ù„ÙØªØ­ Ø¹Ù†Ø¯ Ø§Ù„ØµÙˆÙÙŠØ© ÙˆÙ‡Ù„ ÙŠÙƒÙˆÙ† Ù„Ù„Ø£ÙˆÙ„ÙŠØ§Ø¡ ÙÙ‚Ø·ØŸ","publishedAt":"2024-09-08T17:18:36Z","duration":"PT8M34S","thumbnail":"https://i.ytimg.com/vi/MYDWOsFv5uQ/mqdefault.jpg","viewCount":"11000","playlistId":"PLEkQk5xrP-tm8ZIu74nTOZN9KJUJu416J","playlistName":"Ù…Ù‚Ø§Ø·Ø¹ Ù…ÙÙ‡Ù…ÙÙ‘Ø© (ÙŠÙØ³Ø±ÙŠÙ‘ÙØ§Øª) Ø£.Ø¯. ÙŠØ³Ø±ÙŠ Ø¬Ø¨Ø±","category":"Ù…ØªÙ†ÙˆØ¹"},{"id":"OBh1XwJJuv8","title":"ÙƒÙŠÙ ØªØ¹Ø±Ù Ø£ÙˆÙ„ÙŠØ§Ø¡ Ø§Ù„Ù„Ù‡ Ø§Ù„ØµØ§Ù„Ø­ÙŠÙ†ØŸ","publishedAt":"2024-10-17T18:46:19Z","duration":"PT18M36S","thumbnail":"https://i.ytimg.com/vi/OBh1XwJJuv8/mqdefault.jpg","viewCount":"16554","playlistId":"PLEkQk5xrP-tm8ZIu74nTOZN9KJUJu416J","playlistName":"Ù…Ù‚Ø§Ø·Ø¹ Ù…ÙÙ‡Ù…ÙÙ‘Ø© (ÙŠÙØ³Ø±ÙŠÙ‘ÙØ§Øª) Ø£.Ø¯. ÙŠØ³Ø±ÙŠ Ø¬Ø¨Ø±","category":"Ù…ØªÙ†ÙˆØ¹"},{"id":"OBuo2tDEQxA","title":"Ù…Ø§ Ù‡Ùˆ Ø§Ù„ØªØµÙˆÙ ÙˆÙƒÙŠÙ ØªÙƒÙˆÙ† Ù…Ù† Ø§Ù„ØµÙˆÙÙŠØ©ØŸ","publishedAt":"2024-11-07T18:00:16Z","duration":"PT48M50S","thumbnail":"https://i.ytimg.com/vi/OBuo2tDEQxA/mqdefault.jpg","viewCount":"2037","playlistId":"PLEkQk5xrP-tm8ZIu74nTOZN9KJUJu416J","playlistName":"Ù…Ù‚Ø§Ø·Ø¹ Ù…ÙÙ‡Ù…ÙÙ‘Ø© (ÙŠÙØ³Ø±ÙŠÙ‘ÙØ§Øª) Ø£.Ø¯. ÙŠØ³Ø±ÙŠ Ø¬Ø¨Ø±","category":"Ù…ØªÙ†ÙˆØ¹"},{"id":"vMZqPuqv9-s","title":"Ø£Ø³Ø±Ø§Ø± ÙˆÙ…Ø¹Ø§Ù†ÙŠ Ø­ÙˆÙ„ Ø§Ù„Ø¥Ø³Ø±Ø§Ø¡ ÙˆØ§Ù„Ù…Ø¹Ø±Ø§Ø¬ | Ù…Ù† Ù„ÙŠØ§Ù„ÙŠ Ø§Ù„Ù…Ø¯ÙŠÙ†Ø© Ø§Ù„Ù…Ù†ÙˆØ±Ø© ğŸ“","publishedAt":"2025-01-25T18:50:20Z","duration":"PT39M36S","thumbnail":"https://i.ytimg.com/vi/vMZqPuqv9-s/mqdefault.jpg","viewCount":"7699","playlistId":"PLEkQk5xrP-tm8ZIu74nTOZN9KJUJu416J","playlistName":"Ù…Ù‚Ø§Ø·Ø¹ Ù…ÙÙ‡Ù…ÙÙ‘Ø© (ÙŠÙØ³Ø±ÙŠÙ‘ÙØ§Øª) Ø£.Ø¯. ÙŠØ³Ø±ÙŠ Ø¬Ø¨Ø±","category":"Ù…ØªÙ†ÙˆØ¹"},{"id":"Lkho4XMm9-Y","title":"Ø¥Ø­ÙŠØ§Ø¡ Ù„ÙŠÙ„Ø© Ø§Ù„Ø¥Ø³Ø±Ø§Ø¡ ÙˆØ§Ù„Ù…Ø¹Ø±Ø§Ø¬ | Ù…Ù† Ù„ÙŠØ§Ù„ÙŠ Ø§Ù„Ù…Ø¯ÙŠÙ†Ø© Ø§Ù„Ù…Ù†ÙˆØ±Ø©ğŸ“","publishedAt":"2025-01-26T17:15:00Z","duration":"PT1H3M10S","thumbnail":"https://i.ytimg.com/vi/Lkho4XMm9-Y/mqdefault.jpg","viewCount":"11158","playlistId":"PLEkQk5xrP-tm8ZIu74nTOZN9KJUJu416J","playlistName":"Ù…Ù‚Ø§Ø·Ø¹ Ù…ÙÙ‡Ù…ÙÙ‘Ø© (ÙŠÙØ³Ø±ÙŠÙ‘ÙØ§Øª) Ø£.Ø¯. ÙŠØ³Ø±ÙŠ Ø¬Ø¨Ø±","category":"Ù…ØªÙ†ÙˆØ¹"},{"id":"RQRp90DazEw","title":"Ø´Ø±Ø­ Ø§Ù„Ù…Ù†Ø§Ø¬Ø§Ø© Ø§Ù„Ø¥Ù„Ù‡ÙŠØ© Ù„Ø§Ø¨Ù† Ø¹Ø·Ø§Ø¡ Ø§Ù„Ù„Ù‡ Ø§Ù„Ø³ÙƒÙ†Ø¯Ø±ÙŠ ÙƒØ§Ù…Ù„Ø§ | Ø£.Ø¯.ÙŠØ³Ø±ÙŠ Ø¬Ø¨Ø±","publishedAt":"2025-01-28T17:59:37Z","duration":"PT1H55M47S","thumbnail":"https://i.ytimg.com/vi/RQRp90DazEw/mqdefault.jpg","viewCount":"2466","playlistId":"PLEkQk5xrP-tm8ZIu74nTOZN9KJUJu416J","playlistName":"Ù…Ù‚Ø§Ø·Ø¹ Ù…ÙÙ‡Ù…ÙÙ‘Ø© (ÙŠÙØ³Ø±ÙŠÙ‘ÙØ§Øª) Ø£.Ø¯. ÙŠØ³Ø±ÙŠ Ø¬Ø¨Ø±","category":"Ù…ØªÙ†ÙˆØ¹"},{"id":"KFWJj3jaHnY","title":"ÙØ¶Ù„ Ù„ÙŠÙ„Ø© Ø§Ù„Ù†ØµÙ Ù…Ù† Ø´Ø¹Ø¨Ø§Ù†","publishedAt":"2025-02-11T18:31:48Z","duration":"PT18M31S","thumbnail":"https://i.ytimg.com/vi/KFWJj3jaHnY/mqdefault.jpg","viewCount":"17815","playlistId":"PLEkQk5xrP-tm8ZIu74nTOZN9KJUJu416J","playlistName":"Ù…Ù‚Ø§Ø·Ø¹ Ù…ÙÙ‡Ù…ÙÙ‘Ø© (ÙŠÙØ³Ø±ÙŠÙ‘ÙØ§Øª) Ø£.Ø¯. ÙŠØ³Ø±ÙŠ Ø¬Ø¨Ø±","category":"Ù…ØªÙ†ÙˆØ¹"},{"id":"sfChufgPpic","title":"Ø¯Ø¹Ø§Ø¡ ÙˆØ¥Ø­ÙŠØ§Ø¡ Ù„ÙŠÙ„Ø© Ø§Ù„Ù†ØµÙ Ù…Ù† Ø´Ø¹Ø¨Ø§Ù†","publishedAt":"2025-02-13T17:01:04Z","duration":"PT25M36S","thumbnail":"https://i.ytimg.com/vi/sfChufgPpic/mqdefault.jpg","viewCount":"8123","playlistId":"PLEkQk5xrP-tm8ZIu74nTOZN9KJUJu416J","playlistName":"Ù…Ù‚Ø§Ø·Ø¹ Ù…ÙÙ‡Ù…ÙÙ‘Ø© (ÙŠÙØ³Ø±ÙŠÙ‘ÙØ§Øª) Ø£.Ø¯. ÙŠØ³Ø±ÙŠ Ø¬Ø¨Ø±","category":"Ù…ØªÙ†ÙˆØ¹"},{"id":"I_fF6y_LW7k","title":"Ø§Ø²Ø§ÙŠ Ø§Ø¬ØªÙ‡Ø¯ Ù„Ù„Ø¢Ø®Ø±Ø© Ø²ÙŠ Ù…Ø§ Ø¨Ø¬ØªÙ‡Ø¯ Ù„Ù„Ø¯Ù†ÙŠØ§ØŸ","publishedAt":"2025-03-04T18:30:13Z","duration":"PT8M28S","thumbnail":"https://i.ytimg.com/vi/I_fF6y_LW7k/mqdefault.jpg","viewCount":"4782","playlistId":"PLEkQk5xrP-tm8ZIu74nTOZN9KJUJu416J","playlistName":"Ù…Ù‚Ø§Ø·Ø¹ Ù…ÙÙ‡Ù…ÙÙ‘Ø© (ÙŠÙØ³Ø±ÙŠÙ‘ÙØ§Øª) Ø£.Ø¯. ÙŠØ³Ø±ÙŠ Ø¬Ø¨Ø±","category":"Ù…ØªÙ†ÙˆØ¹"},{"id":"mxBSRzEeFxs","title":"Ø§Ø²Ø§ÙŠ ØªØªØ­Ø±Ø± Ù…Ù† Ø¥Ø¯Ù…Ø§Ù† Ø§Ù„ØªÙ„ÙŠÙÙˆÙ† ÙˆØ§Ù„Ø³ÙˆØ´ÙŠØ§Ù„ Ù…ÙŠØ¯ÙŠØ§ØŸ","publishedAt":"2025-03-08T18:30:42Z","duration":"PT8M51S","thumbnail":"https://i.ytimg.com/vi/mxBSRzEeFxs/mqdefault.jpg","viewCount":"16720","playlistId":"PLEkQk5xrP-tm8ZIu74nTOZN9KJUJu416J","playlistName":"Ù…Ù‚Ø§Ø·Ø¹ Ù…ÙÙ‡Ù…ÙÙ‘Ø© (ÙŠÙØ³Ø±ÙŠÙ‘ÙØ§Øª) Ø£.Ø¯. ÙŠØ³Ø±ÙŠ Ø¬Ø¨Ø±","category":"Ù…ØªÙ†ÙˆØ¹"},{"id":"mYbre9dYCCA","title":"ÙˆØµØ§ÙŠØ§ Ù†Ø¨ÙˆÙŠØ© ØªØ­Ù…ÙŠÙƒ Ù…Ù† Ø§Ù„Ø£Ù…Ø±Ø§Ø¶","publishedAt":"2025-03-13T19:00:40Z","duration":"PT9M49S","thumbnail":"https://i.ytimg.com/vi/mYbre9dYCCA/mqdefault.jpg","viewCount":"4188","playlistId":"PLEkQk5xrP-tm8ZIu74nTOZN9KJUJu416J","playlistName":"Ù…Ù‚Ø§Ø·Ø¹ Ù…ÙÙ‡Ù…ÙÙ‘Ø© (ÙŠÙØ³Ø±ÙŠÙ‘ÙØ§Øª) Ø£.Ø¯. ÙŠØ³Ø±ÙŠ Ø¬Ø¨Ø±","category":"Ù…ØªÙ†ÙˆØ¹"},{"id":"BLYT_LxZ6Tc","title":"3 Ø¹Ø¨Ø§Ø¯Ø§Øª ØªØ¶Ù…Ù† Ù„Ùƒ Ø§Ù„Ø¬Ù†Ø©","publishedAt":"2025-03-17T19:00:12Z","duration":"PT8M16S","thumbnail":"https://i.ytimg.com/vi/BLYT_LxZ6Tc/mqdefault.jpg","viewCount":"2389","playlistId":"PLEkQk5xrP-tm8ZIu74nTOZN9KJUJu416J","playlistName":"Ù…Ù‚Ø§Ø·Ø¹ Ù…ÙÙ‡Ù…ÙÙ‘Ø© (ÙŠÙØ³Ø±ÙŠÙ‘ÙØ§Øª) Ø£.Ø¯. ÙŠØ³Ø±ÙŠ Ø¬Ø¨Ø±","category":"Ù…ØªÙ†ÙˆØ¹"},{"id":"-kD6fHiKv_4","title":"ÙØ¶Ù„ Ø§Ù„Ø¹Ø´Ø± Ø§Ù„Ø£ÙˆØ§Ø®Ø± Ù…Ù† Ø±Ù…Ø¶Ø§Ù† ÙˆÙ…ÙˆØ¹Ø¯ Ù„ÙŠÙ„Ø© Ø§Ù„Ù‚Ø¯Ø± Ø¨Ù†Ø³Ø¨Ø© ÙƒØ¨ÙŠØ±Ø©! ğŸ¤²ğŸŒ™","publishedAt":"2025-03-20T19:00:00Z","duration":"PT15M12S","thumbnail":"https://i.ytimg.com/vi/-kD6fHiKv_4/mqdefault.jpg","viewCount":"13721","playlistId":"PLEkQk5xrP-tm8ZIu74nTOZN9KJUJu416J","playlistName":"Ù…Ù‚Ø§Ø·Ø¹ Ù…ÙÙ‡Ù…ÙÙ‘Ø© (ÙŠÙØ³Ø±ÙŠÙ‘ÙØ§Øª) Ø£.Ø¯. ÙŠØ³Ø±ÙŠ Ø¬Ø¨Ø±","category":"Ù…ØªÙ†ÙˆØ¹"},{"id":"KVzUO026dYU","title":"ÙƒÙŠÙ ØªÙƒÙˆÙ† Ù…Ù† Ø£Ù‡Ù„ Ù„ÙŠÙ„Ø© Ø§Ù„Ù‚Ø¯Ø±ØŸğŸ¤²ğŸŒ™","publishedAt":"2025-03-25T19:00:22Z","duration":"PT13M57S","thumbnail":"https://i.ytimg.com/vi/KVzUO026dYU/mqdefault.jpg","viewCount":"6845","playlistId":"PLEkQk5xrP-tm8ZIu74nTOZN9KJUJu416J","playlistName":"Ù…Ù‚Ø§Ø·Ø¹ Ù…ÙÙ‡Ù…ÙÙ‘Ø© (ÙŠÙØ³Ø±ÙŠÙ‘ÙØ§Øª) Ø£.Ø¯. ÙŠØ³Ø±ÙŠ Ø¬Ø¨Ø±","category":"Ù…ØªÙ†ÙˆØ¹"},{"id":"8umGwDevU10","title":"Ù†ØµÙŠØ­Ø© Ù„Ù…Ù† ÙŠØ±ÙŠØ¯ Ø­ÙØ¸ Ø§Ù„Ù‚Ø±Ø§Ù“Ù† Ø¨Ø¹Ø¯ Ø±Ù…Ø¶Ø§Ù†","publishedAt":"2025-03-27T19:30:01Z","duration":"PT11M47S","thumbnail":"https://i.ytimg.com/vi/8umGwDevU10/mqdefault.jpg","viewCount":"99870","playlistId":"PLEkQk5xrP-tm8ZIu74nTOZN9KJUJu416J","playlistName":"Ù…Ù‚Ø§Ø·Ø¹ Ù…ÙÙ‡Ù…ÙÙ‘Ø© (ÙŠÙØ³Ø±ÙŠÙ‘ÙØ§Øª) Ø£.Ø¯. ÙŠØ³Ø±ÙŠ Ø¬Ø¨Ø±","category":"Ù…ØªÙ†ÙˆØ¹"},{"id":"En4BPx8mJ0s","title":"ÙƒÙŠÙ ÙƒÙ†Øª ØªØ°Ø§ÙƒØ± Ù‚Ø¨Ù„ Ø§Ù„Ø§Ù…ØªØ­Ø§Ù†Ø§Øª Ø£Ø«Ù†Ø§Ø¡ Ø­ÙŠØ§ØªÙƒ Ø§Ù„Ø¬Ø§Ù…Ø¹ÙŠØ©ØŸ","publishedAt":"2025-05-06T18:00:13Z","duration":"PT10M2S","thumbnail":"https://i.ytimg.com/vi/En4BPx8mJ0s/mqdefault.jpg","viewCount":"4323","playlistId":"PLEkQk5xrP-tm8ZIu74nTOZN9KJUJu416J","playlistName":"Ù…Ù‚Ø§Ø·Ø¹ Ù…ÙÙ‡Ù…ÙÙ‘Ø© (ÙŠÙØ³Ø±ÙŠÙ‘ÙØ§Øª) Ø£.Ø¯. ÙŠØ³Ø±ÙŠ Ø¬Ø¨Ø±","category":"Ù…ØªÙ†ÙˆØ¹"},{"id":"zuraUNK6v8U","title":"Ø´Ø±ÙˆØ· Ø§Ù„Ø¯Ø®ÙˆÙ„ ÙÙŠ Ø§Ù„ØªØµÙˆÙ ÙˆÙ…Ø§ Ù‡ÙŠ Ø§Ù„Ø·Ø±ÙŠÙ‚Ø© ÙˆÙ…ØªÙ‰ Ø¢Ø®Ø°Ù‡Ø§ØŸ","publishedAt":"2025-05-07T18:44:36Z","duration":"PT14M9S","thumbnail":"https://i.ytimg.com/vi/zuraUNK6v8U/mqdefault.jpg","viewCount":"6680","playlistId":"PLEkQk5xrP-tm8ZIu74nTOZN9KJUJu416J","playlistName":"Ù…Ù‚Ø§Ø·Ø¹ Ù…ÙÙ‡Ù…ÙÙ‘Ø© (ÙŠÙØ³Ø±ÙŠÙ‘ÙØ§Øª) Ø£.Ø¯. ÙŠØ³Ø±ÙŠ Ø¬Ø¨Ø±","category":"Ù…ØªÙ†ÙˆØ¹"},{"id":"-6wXTmNvwj8","title":"Ù‚ØµØ© Ø§Ù„Ø¨Ø±Ø¯Ø© ÙˆÙØ¶Ø§Ø¦Ù„Ù‡Ø§ ÙˆÙƒØ±Ø§Ù…ØªÙ‡Ø§ | Ù„Ù†Ø¯Ù†ğŸ“","publishedAt":"2025-05-29T19:15:14Z","duration":"PT16M33S","thumbnail":"https://i.ytimg.com/vi/-6wXTmNvwj8/mqdefault.jpg","viewCount":"6195","playlistId":"PLEkQk5xrP-tm8ZIu74nTOZN9KJUJu416J","playlistName":"Ù…Ù‚Ø§Ø·Ø¹ Ù…ÙÙ‡Ù…ÙÙ‘Ø© (ÙŠÙØ³Ø±ÙŠÙ‘ÙØ§Øª) Ø£.Ø¯. ÙŠØ³Ø±ÙŠ Ø¬Ø¨Ø±","category":"Ù…ØªÙ†ÙˆØ¹"},{"id":"IJFBj4cQyZU","title":"Ù…Ø¬Ù„Ø³ Ù…Ø±ÙƒØ² ÙƒØ§Ù…Ø¨Ø±ÙŠØ¯Ø¬ Ø§Ù„Ù‚Ø±Ø¢Ù†ÙŠ | Ø§Ù†Ø¬Ù„ØªØ±Ø§ğŸ“","publishedAt":"2025-05-31T18:17:55Z","duration":"PT21M36S","thumbnail":"https://i.ytimg.com/vi/IJFBj4cQyZU/mqdefault.jpg","viewCount":"2507","playlistId":"PLEkQk5xrP-tm8ZIu74nTOZN9KJUJu416J","playlistName":"Ù…Ù‚Ø§Ø·Ø¹ Ù…ÙÙ‡Ù…ÙÙ‘Ø© (ÙŠÙØ³Ø±ÙŠÙ‘ÙØ§Øª) Ø£.Ø¯. ÙŠØ³Ø±ÙŠ Ø¬Ø¨Ø±","category":"Ù…ØªÙ†ÙˆØ¹"},{"id":"GHGt6Pmwg80","title":"Ù…Ø¹Ù†Ù‰ ÙˆØ­Ø¯Ø© Ø§Ù„ÙˆØ¬ÙˆØ¯ Ø¹Ù†Ø¯ Ø§Ù„ØµÙˆÙÙŠØ© | Ø§Ù†Ø¬Ù„ØªØ±Ø§ğŸ“","publishedAt":"2025-06-01T19:14:37Z","duration":"PT20M14S","thumbnail":"https://i.ytimg.com/vi/GHGt6Pmwg80/mqdefault.jpg","viewCount":"7841","playlistId":"PLEkQk5xrP-tm8ZIu74nTOZN9KJUJu416J","playlistName":"Ù…Ù‚Ø§Ø·Ø¹ Ù…ÙÙ‡Ù…ÙÙ‘Ø© (ÙŠÙØ³Ø±ÙŠÙ‘ÙØ§Øª) Ø£.Ø¯. ÙŠØ³Ø±ÙŠ Ø¬Ø¨Ø±","category":"Ù…ØªÙ†ÙˆØ¹"},{"id":"EKqpe6NEO8U","title":"Ø¯Ø¹Ø§Ø¡ ÙˆØ¥Ø­ÙŠØ§Ø¡ ÙŠÙˆÙ… Ø¹Ø±ÙØ©","publishedAt":"2025-06-05T11:04:36Z","duration":"PT29M45S","thumbnail":"https://i.ytimg.com/vi/EKqpe6NEO8U/mqdefault.jpg","viewCount":"6508","playlistId":"PLEkQk5xrP-tm8ZIu74nTOZN9KJUJu416J","playlistName":"Ù…Ù‚Ø§Ø·Ø¹ Ù…ÙÙ‡Ù…ÙÙ‘Ø© (ÙŠÙØ³Ø±ÙŠÙ‘ÙØ§Øª) Ø£.Ø¯. ÙŠØ³Ø±ÙŠ Ø¬Ø¨Ø±","category":"Ù…ØªÙ†ÙˆØ¹"},{"id":"KvvmXhAxPUA","title":"Ù‚ØµØ© ÙŠÙˆÙ… Ø¹Ø§Ø´ÙˆØ±Ø§Ø¡ ÙˆÙ…Ø§ Ù‡Ùˆ ÙØ¶Ù„ ØµÙŠØ§Ù…Ù‡ØŸ","publishedAt":"2025-07-04T17:00:24Z","duration":"PT13M55S","thumbnail":"https://i.ytimg.com/vi/KvvmXhAxPUA/mqdefault.jpg","viewCount":"8288","playlistId":"PLEkQk5xrP-tm8ZIu74nTOZN9KJUJu416J","playlistName":"Ù…Ù‚Ø§Ø·Ø¹ Ù…ÙÙ‡Ù…ÙÙ‘Ø© (ÙŠÙØ³Ø±ÙŠÙ‘ÙØ§Øª) Ø£.Ø¯. ÙŠØ³Ø±ÙŠ Ø¬Ø¨Ø±","category":"Ù…ØªÙ†ÙˆØ¹"}],"total":560,"page":22,"pageSize":24,"totalPages":24}