{"items":[{"id":"cuKhw5cxRvg","title":"شرح حديث لاتشد الرحال إلا إلى ثلاثة مساجد","publishedAt":"2012-09-28T07:13:36Z","duration":"PT14M43S","thumbnail":"https://i.ytimg.com/vi/cuKhw5cxRvg/mqdefault.jpg","viewCount":"8953","playlistId":"PLEkQk5xrP-tm8ZIu74nTOZN9KJUJu416J","playlistName":"مقاطع مُهمَّة (يُسريَّات) أ.د. يسري جبر","category":"متنوع"},{"id":"tcOFrmq0v9M","title":"مقطع من احتفال المولد 2013 - د. يسري رشدي","publishedAt":"2013-04-24T11:49:31Z","duration":"PT1M6S","thumbnail":"https://i.ytimg.com/vi/tcOFrmq0v9M/mqdefault.jpg","viewCount":"617","playlistId":"PLEkQk5xrP-tm8ZIu74nTOZN9KJUJu416J","playlistName":"مقاطع مُهمَّة (يُسريَّات) أ.د. يسري جبر","category":"متنوع"},{"id":"oFKjzTDDwCA","title":"دليل حرمة التدخين وأنه من الكبائر","publishedAt":"2013-07-18T16:20:28Z","duration":"PT12M48S","thumbnail":"https://i.ytimg.com/vi/oFKjzTDDwCA/mqdefault.jpg","viewCount":"5254","playlistId":"PLEkQk5xrP-tm8ZIu74nTOZN9KJUJu416J","playlistName":"مقاطع مُهمَّة (يُسريَّات) أ.د. يسري جبر","category":"متنوع"},{"id":"hLxVUzlP4Ls","title":"معنى حديث الجارية عند أهل السنة والجماعة والرد على الوهابية المجسمة","publishedAt":"2013-10-09T10:59:46Z","duration":"PT7M33S","thumbnail":"https://i.ytimg.com/vi/hLxVUzlP4Ls/mqdefault.jpg","viewCount":"31847","playlistId":"PLEkQk5xrP-tm8ZIu74nTOZN9KJUJu416J","playlistName":"مقاطع مُهمَّة (يُسريَّات) أ.د. يسري جبر","category":"متنوع"},{"id":"4M0DKKCk_Ic","title":"حقيقة الأولية المحمدية بدليل القرآن والسنة","publishedAt":"2013-11-07T02:25:36Z","duration":"PT5M22S","thumbnail":"https://i.ytimg.com/vi/4M0DKKCk_Ic/mqdefault.jpg","viewCount":"13074","playlistId":"PLEkQk5xrP-tm8ZIu74nTOZN9KJUJu416J","playlistName":"مقاطع مُهمَّة (يُسريَّات) أ.د. يسري جبر","category":"متنوع"},{"id":"lHE8vtw6qA4","title":"معنى وحدة الوجود عند أهل السنة والجماعة","publishedAt":"2013-11-30T19:12:47Z","duration":"PT7M43S","thumbnail":"https://i.ytimg.com/vi/lHE8vtw6qA4/mqdefault.jpg","viewCount":"35875","playlistId":"PLEkQk5xrP-tm8ZIu74nTOZN9KJUJu416J","playlistName":"مقاطع مُهمَّة (يُسريَّات) أ.د. يسري جبر","category":"متنوع"},{"id":"0Ep3YzxWW34","title":"الفرق بين النفس والقلب والعقل والروح والسر | أ.د. يسري جبر","publishedAt":"2014-03-08T17:51:00Z","duration":"PT21M12S","thumbnail":"https://i.ytimg.com/vi/0Ep3YzxWW34/mqdefault.jpg","viewCount":"177593","playlistId":"PLEkQk5xrP-tm8ZIu74nTOZN9KJUJu416J","playlistName":"مقاطع مُهمَّة (يُسريَّات) أ.د. يسري جبر","category":"متنوع"},{"id":"hQ4DKI72YOA","title":"كيف تعرف الشيخ المُربـّـِى ؟","publishedAt":"2014-04-09T16:41:08Z","duration":"PT5M12S","thumbnail":"https://i.ytimg.com/vi/hQ4DKI72YOA/mqdefault.jpg","viewCount":"44845","playlistId":"PLEkQk5xrP-tm8ZIu74nTOZN9KJUJu416J","playlistName":"مقاطع مُهمَّة (يُسريَّات) أ.د. يسري جبر","category":"متنوع"},{"id":"xyZKY-ki9qE","title":"ثمرة مجالس الاحتفال بالمولد النبوى الشريف - د. يسري جبر","publishedAt":"2014-04-20T02:52:55Z","duration":"PT5M11S","thumbnail":"https://i.ytimg.com/vi/xyZKY-ki9qE/mqdefault.jpg","viewCount":"4136","playlistId":"PLEkQk5xrP-tm8ZIu74nTOZN9KJUJu416J","playlistName":"مقاطع مُهمَّة (يُسريَّات) أ.د. يسري جبر","category":"متنوع"},{"id":"ISBi95KWyr0","title":"نبذة عن سيدى أحمد البدوى رضى الله عنه","publishedAt":"2014-04-21T20:05:32Z","duration":"PT24M55S","thumbnail":"https://i.ytimg.com/vi/ISBi95KWyr0/mqdefault.jpg","viewCount":"234327","playlistId":"PLEkQk5xrP-tm8ZIu74nTOZN9KJUJu416J","playlistName":"مقاطع مُهمَّة (يُسريَّات) أ.د. يسري جبر","category":"متنوع"},{"id":"n_fTJ578dj0","title":"الفرق بين الأحدية والواحدية والفردانية - د. يسري جبر","publishedAt":"2014-04-22T19:25:54Z","duration":"PT22M35S","thumbnail":"https://i.ytimg.com/vi/n_fTJ578dj0/mqdefault.jpg","viewCount":"19838","playlistId":"PLEkQk5xrP-tm8ZIu74nTOZN9KJUJu416J","playlistName":"مقاطع مُهمَّة (يُسريَّات) أ.د. يسري جبر","category":"متنوع"},{"id":"gf12TKOWgtQ","title":"كيف تختار شيخ الطريقة؟","publishedAt":"2014-04-29T14:21:01Z","duration":"PT2M27S","thumbnail":"https://i.ytimg.com/vi/gf12TKOWgtQ/mqdefault.jpg","viewCount":"29885","playlistId":"PLEkQk5xrP-tm8ZIu74nTOZN9KJUJu416J","playlistName":"مقاطع مُهمَّة (يُسريَّات) أ.د. يسري جبر","category":"متنوع"},{"id":"dBkzbNYqqIE","title":"فتنة الأهل والمال وكفارتها","publishedAt":"2014-05-04T06:03:46Z","duration":"PT35M57S","thumbnail":"https://i.ytimg.com/vi/dBkzbNYqqIE/mqdefault.jpg","viewCount":"1699","playlistId":"PLEkQk5xrP-tm8ZIu74nTOZN9KJUJu416J","playlistName":"مقاطع مُهمَّة (يُسريَّات) أ.د. يسري جبر","category":"متنوع"},{"id":"tQZ7ndCfiko","title":"نبذة عن عالم الخيال - د. يسري جبر","publishedAt":"2014-06-28T16:31:14Z","duration":"PT24M13S","thumbnail":"https://i.ytimg.com/vi/tQZ7ndCfiko/mqdefault.jpg","viewCount":"54394","playlistId":"PLEkQk5xrP-tm8ZIu74nTOZN9KJUJu416J","playlistName":"مقاطع مُهمَّة (يُسريَّات) أ.د. يسري جبر","category":"متنوع"},{"id":"OgXSD7oZ-Fs","title":"سورة الأنبياء والحج وقصة الغرانيق","publishedAt":"2014-08-15T23:40:47Z","duration":"PT59M9S","thumbnail":"https://i.ytimg.com/vi/OgXSD7oZ-Fs/mqdefault.jpg","viewCount":"1411","playlistId":"PLEkQk5xrP-tm8ZIu74nTOZN9KJUJu416J","playlistName":"مقاطع مُهمَّة (يُسريَّات) أ.د. يسري جبر","category":"متنوع"},{"id":"xxztBdVV4wY","title":"شرح حديث سحر النبي من صحيح الإمام مسلم","publishedAt":"2014-08-20T09:46:59Z","duration":"PT46M1S","thumbnail":"https://i.ytimg.com/vi/xxztBdVV4wY/mqdefault.jpg","viewCount":"13012","playlistId":"PLEkQk5xrP-tm8ZIu74nTOZN9KJUJu416J","playlistName":"مقاطع مُهمَّة (يُسريَّات) أ.د. يسري جبر","category":"متنوع"},{"id":"MbHZ4_nfSvY","title":"شرح صحيح البخاري_ كتاب (بدء الخلق) «حديث الذبابة» ورد الشبهات حولها د. يسري جبر","publishedAt":"2014-08-25T01:39:24Z","duration":"PT1H16M17S","thumbnail":"https://i.ytimg.com/vi/MbHZ4_nfSvY/mqdefault.jpg","viewCount":"7408","playlistId":"PLEkQk5xrP-tm8ZIu74nTOZN9KJUJu416J","playlistName":"مقاطع مُهمَّة (يُسريَّات) أ.د. يسري جبر","category":"متنوع"},{"id":"jEMc1lQzJMM","title":"ماذا تفعل في زمن الفتنة","publishedAt":"2014-09-08T17:14:16Z","duration":"PT17M16S","thumbnail":"https://i.ytimg.com/vi/jEMc1lQzJMM/mqdefault.jpg","viewCount":"4456","playlistId":"PLEkQk5xrP-tm8ZIu74nTOZN9KJUJu416J","playlistName":"مقاطع مُهمَّة (يُسريَّات) أ.د. يسري جبر","category":"متنوع"},{"id":"-nQr7nvjyqU","title":"الكتب التي ينصح بقراءتها لنتخلق بأخلاق المحمدية","publishedAt":"2014-09-11T07:09:15Z","duration":"PT3M51S","thumbnail":"https://i.ytimg.com/vi/-nQr7nvjyqU/mqdefault.jpg","viewCount":"7102","playlistId":"PLEkQk5xrP-tm8ZIu74nTOZN9KJUJu416J","playlistName":"مقاطع مُهمَّة (يُسريَّات) أ.د. يسري جبر","category":"متنوع"},{"id":"8yuU3JvfbO0","title":"تأبير النخل بين أهل الحقيقة والشريعة","publishedAt":"2014-09-12T07:41:06Z","duration":"PT27M16S","thumbnail":"https://i.ytimg.com/vi/8yuU3JvfbO0/mqdefault.jpg","viewCount":"3667","playlistId":"PLEkQk5xrP-tm8ZIu74nTOZN9KJUJu416J","playlistName":"مقاطع مُهمَّة (يُسريَّات) أ.د. يسري جبر","category":"متنوع"},{"id":"b6MNH1ekDuk","title":"الفتوحات الربانية حول المعانى القرآنية - د. يسري جبر","publishedAt":"2014-09-29T19:49:21Z","duration":"PT24M20S","thumbnail":"https://i.ytimg.com/vi/b6MNH1ekDuk/mqdefault.jpg","viewCount":"68905","playlistId":"PLEkQk5xrP-tm8ZIu74nTOZN9KJUJu416J","playlistName":"مقاطع مُهمَّة (يُسريَّات) أ.د. يسري جبر","category":"متنوع"},{"id":"IzgdyjQQJ5s","title":"ظهر الفساد فى البر والبحر بما كسبت أيدى الناس","publishedAt":"2014-10-03T19:26:38Z","duration":"PT36M57S","thumbnail":"https://i.ytimg.com/vi/IzgdyjQQJ5s/mqdefault.jpg","viewCount":"2580","playlistId":"PLEkQk5xrP-tm8ZIu74nTOZN9KJUJu416J","playlistName":"مقاطع مُهمَّة (يُسريَّات) أ.د. يسري جبر","category":"متنوع"},{"id":"GuyLIA4eiy8","title":"كيف تكون مسلمًا مؤمنًا محسنًا عليمًا بفتن زمانك د.يسري جبر","publishedAt":"2014-10-09T03:26:29Z","duration":"PT19M36S","thumbnail":"https://i.ytimg.com/vi/GuyLIA4eiy8/mqdefault.jpg","viewCount":"26293","playlistId":"PLEkQk5xrP-tm8ZIu74nTOZN9KJUJu416J","playlistName":"مقاطع مُهمَّة (يُسريَّات) أ.د. يسري جبر","category":"متنوع"},{"id":"DKaxczAjOv0","title":"مقطع من قراءة وشرح كتاب الشفا بتعريف حقوق المصطفى (باب عصمة الأنبياء ) عليهم الصلاة والسلام","publishedAt":"2014-10-11T21:05:27Z","duration":"PT33M44S","thumbnail":"https://i.ytimg.com/vi/DKaxczAjOv0/mqdefault.jpg","viewCount":"2298","playlistId":"PLEkQk5xrP-tm8ZIu74nTOZN9KJUJu416J","playlistName":"مقاطع مُهمَّة (يُسريَّات) أ.د. يسري جبر","category":"متنوع"}],"total":560,"page":1,"pageSize":24,"totalPages":24}