{"items":[{"id":"8fyqx28hTW8","title":"لماذا يخبر الأولياء كراماتهم للناس؟","publishedAt":"2021-06-12T19:45:51Z","duration":"PT8M30S","thumbnail":"https://i.ytimg.com/vi/8fyqx28hTW8/mqdefault.jpg","viewCount":"57114","playlistId":"PLEkQk5xrP-tm8ZIu74nTOZN9KJUJu416J","playlistName":"مقاطع مُهمَّة (يُسريَّات) أ.د. يسري جبر","category":"متنوع"},{"id":"ekTmY6pKRGg","title":"أسهل طريقة لفهم علم التوحيد","publishedAt":"2021-06-13T19:30:06Z","duration":"PT12M52S","thumbnail":"https://i.ytimg.com/vi/ekTmY6pKRGg/mqdefault.jpg","viewCount":"23555","playlistId":"PLEkQk5xrP-tm8ZIu74nTOZN9KJUJu416J","playlistName":"مقاطع مُهمَّة (يُسريَّات) أ.د. يسري جبر","category":"متنوع"},{"id":"djn4vMWEgBc","title":"ما هي عقيدة الأشاعرة؟","publishedAt":"2021-06-14T19:30:02Z","duration":"PT11M45S","thumbnail":"https://i.ytimg.com/vi/djn4vMWEgBc/mqdefault.jpg","viewCount":"110148","playlistId":"PLEkQk5xrP-tm8ZIu74nTOZN9KJUJu416J","playlistName":"مقاطع مُهمَّة (يُسريَّات) أ.د. يسري جبر","category":"متنوع"},{"id":"wTyjlkpaMp8","title":"كيف تكون من الأغنياء؟","publishedAt":"2021-06-17T17:31:08Z","duration":"PT9M58S","thumbnail":"https://i.ytimg.com/vi/wTyjlkpaMp8/mqdefault.jpg","viewCount":"23232","playlistId":"PLEkQk5xrP-tm8ZIu74nTOZN9KJUJu416J","playlistName":"مقاطع مُهمَّة (يُسريَّات) أ.د. يسري جبر","category":"متنوع"},{"id":"SOxirrqzFlA","title":"تفسير الأحلام حقيقة أم خرافة؟","publishedAt":"2021-06-21T18:45:00Z","duration":"PT13M37S","thumbnail":"https://i.ytimg.com/vi/SOxirrqzFlA/mqdefault.jpg","viewCount":"23484","playlistId":"PLEkQk5xrP-tm8ZIu74nTOZN9KJUJu416J","playlistName":"مقاطع مُهمَّة (يُسريَّات) أ.د. يسري جبر","category":"متنوع"},{"id":"yoMApCrOtT0","title":"هل يجب أخذ الإذن عند الذكر؟","publishedAt":"2021-06-23T17:58:22Z","duration":"PT10M33S","thumbnail":"https://i.ytimg.com/vi/yoMApCrOtT0/mqdefault.jpg","viewCount":"10414","playlistId":"PLEkQk5xrP-tm8ZIu74nTOZN9KJUJu416J","playlistName":"مقاطع مُهمَّة (يُسريَّات) أ.د. يسري جبر","category":"متنوع"},{"id":"upEZQE5WhKc","title":"أريد التوبة ولكن أكرر الذنب ,, ماذا أفعل؟","publishedAt":"2021-06-26T19:10:09Z","duration":"PT11M28S","thumbnail":"https://i.ytimg.com/vi/upEZQE5WhKc/mqdefault.jpg","viewCount":"8946","playlistId":"PLEkQk5xrP-tm8ZIu74nTOZN9KJUJu416J","playlistName":"مقاطع مُهمَّة (يُسريَّات) أ.د. يسري جبر","category":"متنوع"},{"id":"9LJDxqX9a9o","title":"بشوف أشياء غريبة وخايفة يكون جن ,, ماذا أفعل؟","publishedAt":"2021-06-27T18:55:25Z","duration":"PT10M5S","thumbnail":"https://i.ytimg.com/vi/9LJDxqX9a9o/mqdefault.jpg","viewCount":"9081","playlistId":"PLEkQk5xrP-tm8ZIu74nTOZN9KJUJu416J","playlistName":"مقاطع مُهمَّة (يُسريَّات) أ.د. يسري جبر","category":"متنوع"},{"id":"zBD-D5Oz8gg","title":"سيدي أبو الحسن الشاذلي | أ.د. يسري جبر","publishedAt":"2021-06-28T21:15:01Z","duration":"PT17M57S","thumbnail":"https://i.ytimg.com/vi/zBD-D5Oz8gg/mqdefault.jpg","viewCount":"68481","playlistId":"PLEkQk5xrP-tm8ZIu74nTOZN9KJUJu416J","playlistName":"مقاطع مُهمَّة (يُسريَّات) أ.د. يسري جبر","category":"متنوع"},{"id":"FaznfDbYnBs","title":"مفهوم طبي للسعي إلى الصلاة","publishedAt":"2021-07-24T17:30:01Z","duration":"PT26M12S","thumbnail":"https://i.ytimg.com/vi/FaznfDbYnBs/mqdefault.jpg","viewCount":"11148","playlistId":"PLEkQk5xrP-tm8ZIu74nTOZN9KJUJu416J","playlistName":"مقاطع مُهمَّة (يُسريَّات) أ.د. يسري جبر","category":"متنوع"},{"id":"u7QFCV-VgCc","title":"كيف تكون متواضغًا؟","publishedAt":"2021-07-25T19:26:14Z","duration":"PT18M23S","thumbnail":"https://i.ytimg.com/vi/u7QFCV-VgCc/mqdefault.jpg","viewCount":"5012","playlistId":"PLEkQk5xrP-tm8ZIu74nTOZN9KJUJu416J","playlistName":"مقاطع مُهمَّة (يُسريَّات) أ.د. يسري جبر","category":"متنوع"},{"id":"-lJG7_cho3o","title":"حكم زيارة الأضرحة والتبرك بها","publishedAt":"2021-07-26T19:30:01Z","duration":"PT12M9S","thumbnail":"https://i.ytimg.com/vi/-lJG7_cho3o/mqdefault.jpg","viewCount":"58263","playlistId":"PLEkQk5xrP-tm8ZIu74nTOZN9KJUJu416J","playlistName":"مقاطع مُهمَّة (يُسريَّات) أ.د. يسري جبر","category":"متنوع"},{"id":"dBbJgGLGGyk","title":"هل ضرب الزوجة مباح؟","publishedAt":"2021-08-05T19:02:17Z","duration":"PT16M20S","thumbnail":"https://i.ytimg.com/vi/dBbJgGLGGyk/mqdefault.jpg","viewCount":"13685","playlistId":"PLEkQk5xrP-tm8ZIu74nTOZN9KJUJu416J","playlistName":"مقاطع مُهمَّة (يُسريَّات) أ.د. يسري جبر","category":"متنوع"},{"id":"EtEcpp2v2Gs","title":"التصوف ودوره في مواجهة الوباء والمحن","publishedAt":"2021-08-12T06:13:59Z","duration":"PT29M34S","thumbnail":"https://i.ytimg.com/vi/EtEcpp2v2Gs/mqdefault.jpg","viewCount":"7310","playlistId":"PLEkQk5xrP-tm8ZIu74nTOZN9KJUJu416J","playlistName":"مقاطع مُهمَّة (يُسريَّات) أ.د. يسري جبر","category":"متنوع"},{"id":"ewayINKQNns","title":"هل الله موجود في السماء؟","publishedAt":"2021-08-19T18:00:22Z","duration":"PT11M34S","thumbnail":"https://i.ytimg.com/vi/ewayINKQNns/mqdefault.jpg","viewCount":"54625","playlistId":"PLEkQk5xrP-tm8ZIu74nTOZN9KJUJu416J","playlistName":"مقاطع مُهمَّة (يُسريَّات) أ.د. يسري جبر","category":"متنوع"},{"id":"49LdZNokzRw","title":"هل نأخذ بالأحاديث الآحاد في العقيدة؟","publishedAt":"2021-08-20T17:00:02Z","duration":"PT10M21S","thumbnail":"https://i.ytimg.com/vi/49LdZNokzRw/mqdefault.jpg","viewCount":"6907","playlistId":"PLEkQk5xrP-tm8ZIu74nTOZN9KJUJu416J","playlistName":"مقاطع مُهمَّة (يُسريَّات) أ.د. يسري جبر","category":"متنوع"},{"id":"Mfw_VtgJdjY","title":"ما هي شروط رؤية النبيﷺ ؟","publishedAt":"2021-08-29T18:30:10Z","duration":"PT12M57S","thumbnail":"https://i.ytimg.com/vi/Mfw_VtgJdjY/mqdefault.jpg","viewCount":"28984","playlistId":"PLEkQk5xrP-tm8ZIu74nTOZN9KJUJu416J","playlistName":"مقاطع مُهمَّة (يُسريَّات) أ.د. يسري جبر","category":"متنوع"},{"id":"Z5QPSibhzwk","title":"ما موقفك من معاوية بن أبي سفيان؟","publishedAt":"2021-08-30T19:08:43Z","duration":"PT11M40S","thumbnail":"https://i.ytimg.com/vi/Z5QPSibhzwk/mqdefault.jpg","viewCount":"49050","playlistId":"PLEkQk5xrP-tm8ZIu74nTOZN9KJUJu416J","playlistName":"مقاطع مُهمَّة (يُسريَّات) أ.د. يسري جبر","category":"متنوع"},{"id":"-WWtH1n4p8k","title":"برحمتك أستغيث,, هل النبي ﷺ هو الرحمة؟","publishedAt":"2021-08-31T16:30:01Z","duration":"PT12M37S","thumbnail":"https://i.ytimg.com/vi/-WWtH1n4p8k/mqdefault.jpg","viewCount":"6876","playlistId":"PLEkQk5xrP-tm8ZIu74nTOZN9KJUJu416J","playlistName":"مقاطع مُهمَّة (يُسريَّات) أ.د. يسري جبر","category":"متنوع"},{"id":"115ELEvz1_U","title":"ما هو التصوف,, ومن هم الصوفية؟؟","publishedAt":"2021-09-07T17:41:42Z","duration":"PT18M51S","thumbnail":"https://i.ytimg.com/vi/115ELEvz1_U/mqdefault.jpg","viewCount":"36703","playlistId":"PLEkQk5xrP-tm8ZIu74nTOZN9KJUJu416J","playlistName":"مقاطع مُهمَّة (يُسريَّات) أ.د. يسري جبر","category":"متنوع"},{"id":"Wn-XAVRMFJE","title":"امدادات النَّبيّ ﷺ","publishedAt":"2021-09-12T18:00:17Z","duration":"PT26M47S","thumbnail":"https://i.ytimg.com/vi/Wn-XAVRMFJE/mqdefault.jpg","viewCount":"10557","playlistId":"PLEkQk5xrP-tm8ZIu74nTOZN9KJUJu416J","playlistName":"مقاطع مُهمَّة (يُسريَّات) أ.د. يسري جبر","category":"متنوع"},{"id":"PArlAkVg0_4","title":"كرامات السيد أحمد البدوي رضي اللهُ عنه","publishedAt":"2021-10-02T19:00:17Z","duration":"PT9M8S","thumbnail":"https://i.ytimg.com/vi/PArlAkVg0_4/mqdefault.jpg","viewCount":"288866","playlistId":"PLEkQk5xrP-tm8ZIu74nTOZN9KJUJu416J","playlistName":"مقاطع مُهمَّة (يُسريَّات) أ.د. يسري جبر","category":"متنوع"},{"id":"r7B3o6yqND0","title":"الفُتوّة","publishedAt":"2021-11-01T04:24:42Z","duration":"PT7M33S","thumbnail":"https://i.ytimg.com/vi/r7B3o6yqND0/mqdefault.jpg","viewCount":"4507","playlistId":"PLEkQk5xrP-tm8ZIu74nTOZN9KJUJu416J","playlistName":"مقاطع مُهمَّة (يُسريَّات) أ.د. يسري جبر","category":"متنوع"},{"id":"grKuX971Q3E","title":"ما الفرق بين العارف بالله والعالِم؟","publishedAt":"2021-11-01T17:00:37Z","duration":"PT11M40S","thumbnail":"https://i.ytimg.com/vi/grKuX971Q3E/mqdefault.jpg","viewCount":"11433","playlistId":"PLEkQk5xrP-tm8ZIu74nTOZN9KJUJu416J","playlistName":"مقاطع مُهمَّة (يُسريَّات) أ.د. يسري جبر","category":"متنوع"}],"total":560,"page":15,"pageSize":24,"totalPages":24}