{"items":[{"id":"_nPFnPflZZE","title":"ما هو أسلوب التربية الصحيحة للأبناء؟","publishedAt":"2021-02-03T18:56:44Z","duration":"PT13M30S","thumbnail":"https://i.ytimg.com/vi/_nPFnPflZZE/mqdefault.jpg","viewCount":"16713","playlistId":"PLEkQk5xrP-tm8ZIu74nTOZN9KJUJu416J","playlistName":"مقاطع مُهمَّة (يُسريَّات) أ.د. يسري جبر","category":"متنوع"},{"id":"vX4QPFODldw","title":"كيف تحمي نفسك من الأفكار الوهابية؟","publishedAt":"2021-02-04T19:30:03Z","duration":"PT12M56S","thumbnail":"https://i.ytimg.com/vi/vX4QPFODldw/mqdefault.jpg","viewCount":"67436","playlistId":"PLEkQk5xrP-tm8ZIu74nTOZN9KJUJu416J","playlistName":"مقاطع مُهمَّة (يُسريَّات) أ.د. يسري جبر","category":"متنوع"},{"id":"Uu0cRwADfP4","title":"كيف يشعر بنا الأموات؟","publishedAt":"2021-02-05T20:08:38Z","duration":"PT12M25S","thumbnail":"https://i.ytimg.com/vi/Uu0cRwADfP4/mqdefault.jpg","viewCount":"25714","playlistId":"PLEkQk5xrP-tm8ZIu74nTOZN9KJUJu416J","playlistName":"مقاطع مُهمَّة (يُسريَّات) أ.د. يسري جبر","category":"متنوع"},{"id":"dOfLo8-VhXE","title":"من هو أول خلق الله؟","publishedAt":"2021-02-06T18:56:05Z","duration":"PT15M12S","thumbnail":"https://i.ytimg.com/vi/dOfLo8-VhXE/mqdefault.jpg","viewCount":"29929","playlistId":"PLEkQk5xrP-tm8ZIu74nTOZN9KJUJu416J","playlistName":"مقاطع مُهمَّة (يُسريَّات) أ.د. يسري جبر","category":"متنوع"},{"id":"-k7mdV2BmH0","title":"الزهراءُ البتول قُرَّةُ عين الرسول ﷺ","publishedAt":"2021-02-08T19:38:07Z","duration":"PT9M49S","thumbnail":"https://i.ytimg.com/vi/-k7mdV2BmH0/mqdefault.jpg","viewCount":"5726","playlistId":"PLEkQk5xrP-tm8ZIu74nTOZN9KJUJu416J","playlistName":"مقاطع مُهمَّة (يُسريَّات) أ.د. يسري جبر","category":"متنوع"},{"id":"hEple_gfKbg","title":"تزوجت على زوجتي .. ماذا أفعل؟","publishedAt":"2021-02-09T18:33:08Z","duration":"PT8M17S","thumbnail":"https://i.ytimg.com/vi/hEple_gfKbg/mqdefault.jpg","viewCount":"27366","playlistId":"PLEkQk5xrP-tm8ZIu74nTOZN9KJUJu416J","playlistName":"مقاطع مُهمَّة (يُسريَّات) أ.د. يسري جبر","category":"متنوع"},{"id":"Y6hX6N47YKg","title":"كيف أتعامل مع صديقي الوهابي؟","publishedAt":"2021-02-10T19:56:08Z","duration":"PT8M2S","thumbnail":"https://i.ytimg.com/vi/Y6hX6N47YKg/mqdefault.jpg","viewCount":"31590","playlistId":"PLEkQk5xrP-tm8ZIu74nTOZN9KJUJu416J","playlistName":"مقاطع مُهمَّة (يُسريَّات) أ.د. يسري جبر","category":"متنوع"},{"id":"KQ0gxvXO5tE","title":"كيف أتخلص من الوسواس؟","publishedAt":"2021-02-16T20:20:37Z","duration":"PT13M31S","thumbnail":"https://i.ytimg.com/vi/KQ0gxvXO5tE/mqdefault.jpg","viewCount":"64965","playlistId":"PLEkQk5xrP-tm8ZIu74nTOZN9KJUJu416J","playlistName":"مقاطع مُهمَّة (يُسريَّات) أ.د. يسري جبر","category":"متنوع"},{"id":"E_-X0XtbSpg","title":"كيف قابلت السيد عبد الله الصديق الغماري  والدكتور على جمعة؟","publishedAt":"2021-02-17T19:20:01Z","duration":"PT12M5S","thumbnail":"https://i.ytimg.com/vi/E_-X0XtbSpg/mqdefault.jpg","viewCount":"61844","playlistId":"PLEkQk5xrP-tm8ZIu74nTOZN9KJUJu416J","playlistName":"مقاطع مُهمَّة (يُسريَّات) أ.د. يسري جبر","category":"متنوع"},{"id":"dNfOGexBKiM","title":"ما أهمية العهد الصوفي في الكتاب والسنة؟","publishedAt":"2021-02-18T18:15:00Z","duration":"PT10M56S","thumbnail":"https://i.ytimg.com/vi/dNfOGexBKiM/mqdefault.jpg","viewCount":"55902","playlistId":"PLEkQk5xrP-tm8ZIu74nTOZN9KJUJu416J","playlistName":"مقاطع مُهمَّة (يُسريَّات) أ.د. يسري جبر","category":"متنوع"},{"id":"Oox4haeeVEU","title":"هل الخضر عليه السلام ما زال حيًا ؟","publishedAt":"2021-02-20T18:58:14Z","duration":"PT11M57S","thumbnail":"https://i.ytimg.com/vi/Oox4haeeVEU/mqdefault.jpg","viewCount":"29525","playlistId":"PLEkQk5xrP-tm8ZIu74nTOZN9KJUJu416J","playlistName":"مقاطع مُهمَّة (يُسريَّات) أ.د. يسري جبر","category":"متنوع"},{"id":"AyO5UXRtjSY","title":"هل والدي النبي ﷺ في الجنة أم في النار؟","publishedAt":"2021-02-24T19:38:31Z","duration":"PT10M32S","thumbnail":"https://i.ytimg.com/vi/AyO5UXRtjSY/mqdefault.jpg","viewCount":"51353","playlistId":"PLEkQk5xrP-tm8ZIu74nTOZN9KJUJu416J","playlistName":"مقاطع مُهمَّة (يُسريَّات) أ.د. يسري جبر","category":"متنوع"},{"id":"qnepN5w1qLQ","title":"أريد الزواج ماذا افعل؟","publishedAt":"2021-02-25T19:35:53Z","duration":"PT15M25S","thumbnail":"https://i.ytimg.com/vi/qnepN5w1qLQ/mqdefault.jpg","viewCount":"24082","playlistId":"PLEkQk5xrP-tm8ZIu74nTOZN9KJUJu416J","playlistName":"مقاطع مُهمَّة (يُسريَّات) أ.د. يسري جبر","category":"متنوع"},{"id":"uFI7mGX3GUU","title":"الرد على التساؤلات الوهابية","publishedAt":"2021-03-02T18:42:00Z","duration":"PT12M34S","thumbnail":"https://i.ytimg.com/vi/uFI7mGX3GUU/mqdefault.jpg","viewCount":"43433","playlistId":"PLEkQk5xrP-tm8ZIu74nTOZN9KJUJu416J","playlistName":"مقاطع مُهمَّة (يُسريَّات) أ.د. يسري جبر","category":"متنوع"},{"id":"_RRARFp6g00","title":"ما هو التصوف؟","publishedAt":"2021-03-03T19:55:40Z","duration":"PT15M44S","thumbnail":"https://i.ytimg.com/vi/_RRARFp6g00/mqdefault.jpg","viewCount":"40965","playlistId":"PLEkQk5xrP-tm8ZIu74nTOZN9KJUJu416J","playlistName":"مقاطع مُهمَّة (يُسريَّات) أ.د. يسري جبر","category":"متنوع"},{"id":"8xROviVH4nM","title":"هل مشايخ الوهابية لهم سند متصل؟","publishedAt":"2021-03-04T19:58:52Z","duration":"PT8M42S","thumbnail":"https://i.ytimg.com/vi/8xROviVH4nM/mqdefault.jpg","viewCount":"19520","playlistId":"PLEkQk5xrP-tm8ZIu74nTOZN9KJUJu416J","playlistName":"مقاطع مُهمَّة (يُسريَّات) أ.د. يسري جبر","category":"متنوع"},{"id":"G7pFRIiceco","title":"كيف أتخلص من الكبر والغرور؟","publishedAt":"2021-03-05T18:30:56Z","duration":"PT10M48S","thumbnail":"https://i.ytimg.com/vi/G7pFRIiceco/mqdefault.jpg","viewCount":"11812","playlistId":"PLEkQk5xrP-tm8ZIu74nTOZN9KJUJu416J","playlistName":"مقاطع مُهمَّة (يُسريَّات) أ.د. يسري جبر","category":"متنوع"},{"id":"nsXH_yWyq24","title":"كيف دافع الله عن نبيه ﷺ؟","publishedAt":"2021-03-07T19:16:07Z","duration":"PT8M31S","thumbnail":"https://i.ytimg.com/vi/nsXH_yWyq24/mqdefault.jpg","viewCount":"2269","playlistId":"PLEkQk5xrP-tm8ZIu74nTOZN9KJUJu416J","playlistName":"مقاطع مُهمَّة (يُسريَّات) أ.د. يسري جبر","category":"متنوع"},{"id":"ke3cXkjuA_M","title":"ماذا حدث في الإسراء والمعراج؟","publishedAt":"2021-03-11T18:16:23Z","duration":"PT9M53S","thumbnail":"https://i.ytimg.com/vi/ke3cXkjuA_M/mqdefault.jpg","viewCount":"6612","playlistId":"PLEkQk5xrP-tm8ZIu74nTOZN9KJUJu416J","playlistName":"مقاطع مُهمَّة (يُسريَّات) أ.د. يسري جبر","category":"متنوع"},{"id":"aGVt8PjG-Ps","title":"كيف نواجه انتشار الفكر الوهابي؟","publishedAt":"2021-03-13T20:02:02Z","duration":"PT10M44S","thumbnail":"https://i.ytimg.com/vi/aGVt8PjG-Ps/mqdefault.jpg","viewCount":"25928","playlistId":"PLEkQk5xrP-tm8ZIu74nTOZN9KJUJu416J","playlistName":"مقاطع مُهمَّة (يُسريَّات) أ.د. يسري جبر","category":"متنوع"},{"id":"WxvbDgCi8a0","title":"هل يوجد تفسير للأحاديث الشاذة في السنة النبوية؟","publishedAt":"2021-03-14T18:59:16Z","duration":"PT11M57S","thumbnail":"https://i.ytimg.com/vi/WxvbDgCi8a0/mqdefault.jpg","viewCount":"6193","playlistId":"PLEkQk5xrP-tm8ZIu74nTOZN9KJUJu416J","playlistName":"مقاطع مُهمَّة (يُسريَّات) أ.د. يسري جبر","category":"متنوع"},{"id":"51VRN8ri1YQ","title":"أريد الانتقام من شخص ظلمني ماذا أفعل؟","publishedAt":"2021-03-15T18:45:00Z","duration":"PT9M41S","thumbnail":"https://i.ytimg.com/vi/51VRN8ri1YQ/mqdefault.jpg","viewCount":"27199","playlistId":"PLEkQk5xrP-tm8ZIu74nTOZN9KJUJu416J","playlistName":"مقاطع مُهمَّة (يُسريَّات) أ.د. يسري جبر","category":"متنوع"},{"id":"80e2Oo8iWnY","title":"هل يجوز وهب ثواب الصلاة للميت؟","publishedAt":"2021-03-16T19:14:40Z","duration":"PT9M52S","thumbnail":"https://i.ytimg.com/vi/80e2Oo8iWnY/mqdefault.jpg","viewCount":"8008","playlistId":"PLEkQk5xrP-tm8ZIu74nTOZN9KJUJu416J","playlistName":"مقاطع مُهمَّة (يُسريَّات) أ.د. يسري جبر","category":"متنوع"},{"id":"i8xFY8yBPzk","title":"السفر عبر الزمن بين النسبية والمعراج","publishedAt":"2021-03-17T19:38:25Z","duration":"PT10M11S","thumbnail":"https://i.ytimg.com/vi/i8xFY8yBPzk/mqdefault.jpg","viewCount":"21664","playlistId":"PLEkQk5xrP-tm8ZIu74nTOZN9KJUJu416J","playlistName":"مقاطع مُهمَّة (يُسريَّات) أ.د. يسري جبر","category":"متنوع"}],"total":560,"page":13,"pageSize":24,"totalPages":24}