{"items":[{"id":"b_EIyU_-FLs","title":"مقرأة سورة قريش من أولها","publishedAt":"2019-08-11T20:25:20Z","duration":"PT7M33S","thumbnail":"https://i.ytimg.com/vi/b_EIyU_-FLs/mqdefault.jpg","viewCount":"717","playlistId":"PLEkQk5xrP-tnmTYsyW6xNdyfhPq0Bhrhj","playlistName":"مقرأة الفجر - القُرْآنُ الكَرِيمُ - خَتْمَةُ التَّدَبُّرِ  أ.د. يسري جبر","category":"متنوع"},{"id":"tzytPbeXfpk","title":"مقرأة سورة الماعون من أولها","publishedAt":"2019-08-13T11:07:32Z","duration":"PT17M8S","thumbnail":"https://i.ytimg.com/vi/tzytPbeXfpk/mqdefault.jpg","viewCount":"722","playlistId":"PLEkQk5xrP-tnmTYsyW6xNdyfhPq0Bhrhj","playlistName":"مقرأة الفجر - القُرْآنُ الكَرِيمُ - خَتْمَةُ التَّدَبُّرِ  أ.د. يسري جبر","category":"متنوع"},{"id":"KlXupWwB9PM","title":"مقرأة سورة الكوثر من أولها","publishedAt":"2019-08-14T08:12:21Z","duration":"PT7M48S","thumbnail":"https://i.ytimg.com/vi/KlXupWwB9PM/mqdefault.jpg","viewCount":"928","playlistId":"PLEkQk5xrP-tnmTYsyW6xNdyfhPq0Bhrhj","playlistName":"مقرأة الفجر - القُرْآنُ الكَرِيمُ - خَتْمَةُ التَّدَبُّرِ  أ.د. يسري جبر","category":"متنوع"},{"id":"MLh50WimpSI","title":"مقرأة سورة الكافرون من أولها","publishedAt":"2019-08-14T22:36:21Z","duration":"PT5M42S","thumbnail":"https://i.ytimg.com/vi/MLh50WimpSI/mqdefault.jpg","viewCount":"546","playlistId":"PLEkQk5xrP-tnmTYsyW6xNdyfhPq0Bhrhj","playlistName":"مقرأة الفجر - القُرْآنُ الكَرِيمُ - خَتْمَةُ التَّدَبُّرِ  أ.د. يسري جبر","category":"متنوع"},{"id":"jXLBGkeyk5Y","title":"مقرأة سورة النصر من أولها","publishedAt":"2019-08-15T10:21:57Z","duration":"PT5M2S","thumbnail":"https://i.ytimg.com/vi/jXLBGkeyk5Y/mqdefault.jpg","viewCount":"641","playlistId":"PLEkQk5xrP-tnmTYsyW6xNdyfhPq0Bhrhj","playlistName":"مقرأة الفجر - القُرْآنُ الكَرِيمُ - خَتْمَةُ التَّدَبُّرِ  أ.د. يسري جبر","category":"متنوع"},{"id":"1LW1kCy2McA","title":"مقرأة سورة المسد من أولها","publishedAt":"2019-08-16T04:14:58Z","duration":"PT20M6S","thumbnail":"https://i.ytimg.com/vi/1LW1kCy2McA/mqdefault.jpg","viewCount":"901","playlistId":"PLEkQk5xrP-tnmTYsyW6xNdyfhPq0Bhrhj","playlistName":"مقرأة الفجر - القُرْآنُ الكَرِيمُ - خَتْمَةُ التَّدَبُّرِ  أ.د. يسري جبر","category":"متنوع"},{"id":"n3WrpYSmDis","title":"مقرأة سورة الإخلاص من أولها","publishedAt":"2019-08-16T16:23:50Z","duration":"PT13M22S","thumbnail":"https://i.ytimg.com/vi/n3WrpYSmDis/mqdefault.jpg","viewCount":"1838","playlistId":"PLEkQk5xrP-tnmTYsyW6xNdyfhPq0Bhrhj","playlistName":"مقرأة الفجر - القُرْآنُ الكَرِيمُ - خَتْمَةُ التَّدَبُّرِ  أ.د. يسري جبر","category":"متنوع"},{"id":"O8A484glFRM","title":"مقرأة سورة الفلق من أولها","publishedAt":"2019-08-17T11:23:10Z","duration":"PT14M22S","thumbnail":"https://i.ytimg.com/vi/O8A484glFRM/mqdefault.jpg","viewCount":"1294","playlistId":"PLEkQk5xrP-tnmTYsyW6xNdyfhPq0Bhrhj","playlistName":"مقرأة الفجر - القُرْآنُ الكَرِيمُ - خَتْمَةُ التَّدَبُّرِ  أ.د. يسري جبر","category":"متنوع"},{"id":"rUn5bwp14Yc","title":"مقرأة سورة الناس من أولها","publishedAt":"2019-08-17T22:07:10Z","duration":"PT26M56S","thumbnail":"https://i.ytimg.com/vi/rUn5bwp14Yc/mqdefault.jpg","viewCount":"2269","playlistId":"PLEkQk5xrP-tnmTYsyW6xNdyfhPq0Bhrhj","playlistName":"مقرأة الفجر - القُرْآنُ الكَرِيمُ - خَتْمَةُ التَّدَبُّرِ  أ.د. يسري جبر","category":"متنوع"},{"id":"DRYCh8pgOcw","title":"مقرأة سورة آل عمران من آية ٤٢","publishedAt":"2019-09-26T21:13:10Z","duration":"PT31M6S","thumbnail":"https://i.ytimg.com/vi/DRYCh8pgOcw/mqdefault.jpg","viewCount":"543","playlistId":"PLEkQk5xrP-tnmTYsyW6xNdyfhPq0Bhrhj","playlistName":"مقرأة الفجر - القُرْآنُ الكَرِيمُ - خَتْمَةُ التَّدَبُّرِ  أ.د. يسري جبر","category":"متنوع"},{"id":"p9xEZnuIpEA","title":"مقرأة سورة آل عمران من آية ١٠٤","publishedAt":"2019-09-26T22:31:25Z","duration":"PT20M4S","thumbnail":"https://i.ytimg.com/vi/p9xEZnuIpEA/mqdefault.jpg","viewCount":"520","playlistId":"PLEkQk5xrP-tnmTYsyW6xNdyfhPq0Bhrhj","playlistName":"مقرأة الفجر - القُرْآنُ الكَرِيمُ - خَتْمَةُ التَّدَبُّرِ  أ.د. يسري جبر","category":"متنوع"},{"id":"UK5kFp5G82k","title":"مقرأة سورة آل عمران من آية ١١٠","publishedAt":"2019-09-27T01:20:58Z","duration":"PT17M26S","thumbnail":"https://i.ytimg.com/vi/UK5kFp5G82k/mqdefault.jpg","viewCount":"474","playlistId":"PLEkQk5xrP-tnmTYsyW6xNdyfhPq0Bhrhj","playlistName":"مقرأة الفجر - القُرْآنُ الكَرِيمُ - خَتْمَةُ التَّدَبُّرِ  أ.د. يسري جبر","category":"متنوع"},{"id":"Ijn3glt5N84","title":"مقرأة سورة آل عمران من آية ١١٦","publishedAt":"2019-09-27T08:44:40Z","duration":"PT32M58S","thumbnail":"https://i.ytimg.com/vi/Ijn3glt5N84/mqdefault.jpg","viewCount":"545","playlistId":"PLEkQk5xrP-tnmTYsyW6xNdyfhPq0Bhrhj","playlistName":"مقرأة الفجر - القُرْآنُ الكَرِيمُ - خَتْمَةُ التَّدَبُّرِ  أ.د. يسري جبر","category":"متنوع"},{"id":"yzMG6-MUH-Q","title":"مقرأة سورة آل عمران من آية ١٢١","publishedAt":"2019-09-27T10:54:45Z","duration":"PT14M13S","thumbnail":"https://i.ytimg.com/vi/yzMG6-MUH-Q/mqdefault.jpg","viewCount":"418","playlistId":"PLEkQk5xrP-tnmTYsyW6xNdyfhPq0Bhrhj","playlistName":"مقرأة الفجر - القُرْآنُ الكَرِيمُ - خَتْمَةُ التَّدَبُّرِ  أ.د. يسري جبر","category":"متنوع"},{"id":"8l2KmpDZ2k8","title":"مقرأة سورة آل عمران من آية ١٣٠","publishedAt":"2019-09-27T15:16:38Z","duration":"PT29M32S","thumbnail":"https://i.ytimg.com/vi/8l2KmpDZ2k8/mqdefault.jpg","viewCount":"556","playlistId":"PLEkQk5xrP-tnmTYsyW6xNdyfhPq0Bhrhj","playlistName":"مقرأة الفجر - القُرْآنُ الكَرِيمُ - خَتْمَةُ التَّدَبُّرِ  أ.د. يسري جبر","category":"متنوع"},{"id":"AqhaW43TrzE","title":"مقرأة سورة آل عمران من آية ١٣٥","publishedAt":"2019-09-27T16:48:46Z","duration":"PT8M58S","thumbnail":"https://i.ytimg.com/vi/AqhaW43TrzE/mqdefault.jpg","viewCount":"464","playlistId":"PLEkQk5xrP-tnmTYsyW6xNdyfhPq0Bhrhj","playlistName":"مقرأة الفجر - القُرْآنُ الكَرِيمُ - خَتْمَةُ التَّدَبُّرِ  أ.د. يسري جبر","category":"متنوع"},{"id":"IXGm5eCUw9k","title":"مقرأة سورة آل عمران من آية ١٣٨","publishedAt":"2019-09-27T20:13:15Z","duration":"PT14M15S","thumbnail":"https://i.ytimg.com/vi/IXGm5eCUw9k/mqdefault.jpg","viewCount":"444","playlistId":"PLEkQk5xrP-tnmTYsyW6xNdyfhPq0Bhrhj","playlistName":"مقرأة الفجر - القُرْآنُ الكَرِيمُ - خَتْمَةُ التَّدَبُّرِ  أ.د. يسري جبر","category":"متنوع"},{"id":"5hVZleKVxQg","title":"مقرأة سورة آل عمران من آية ١٤٤","publishedAt":"2019-09-28T06:55:03Z","duration":"PT14M6S","thumbnail":"https://i.ytimg.com/vi/5hVZleKVxQg/mqdefault.jpg","viewCount":"486","playlistId":"PLEkQk5xrP-tnmTYsyW6xNdyfhPq0Bhrhj","playlistName":"مقرأة الفجر - القُرْآنُ الكَرِيمُ - خَتْمَةُ التَّدَبُّرِ  أ.د. يسري جبر","category":"متنوع"},{"id":"dz8ZvlBKKlU","title":"مقرأة سورة آل عمران من آية ١٤٩","publishedAt":"2019-09-28T11:24:21Z","duration":"PT16M10S","thumbnail":"https://i.ytimg.com/vi/dz8ZvlBKKlU/mqdefault.jpg","viewCount":"456","playlistId":"PLEkQk5xrP-tnmTYsyW6xNdyfhPq0Bhrhj","playlistName":"مقرأة الفجر - القُرْآنُ الكَرِيمُ - خَتْمَةُ التَّدَبُّرِ  أ.د. يسري جبر","category":"متنوع"},{"id":"9n_dU6x9qa0","title":"مقرأة سورة آل عمران من آية ١٥٣","publishedAt":"2019-09-28T16:48:11Z","duration":"PT13M18S","thumbnail":"https://i.ytimg.com/vi/9n_dU6x9qa0/mqdefault.jpg","viewCount":"412","playlistId":"PLEkQk5xrP-tnmTYsyW6xNdyfhPq0Bhrhj","playlistName":"مقرأة الفجر - القُرْآنُ الكَرِيمُ - خَتْمَةُ التَّدَبُّرِ  أ.د. يسري جبر","category":"متنوع"},{"id":"sKUcBXudafk","title":"مقرأة سورة آل عمران من آية ١٥٥","publishedAt":"2019-09-28T22:34:36Z","duration":"PT13M7S","thumbnail":"https://i.ytimg.com/vi/sKUcBXudafk/mqdefault.jpg","viewCount":"433","playlistId":"PLEkQk5xrP-tnmTYsyW6xNdyfhPq0Bhrhj","playlistName":"مقرأة الفجر - القُرْآنُ الكَرِيمُ - خَتْمَةُ التَّدَبُّرِ  أ.د. يسري جبر","category":"متنوع"},{"id":"yDMGSKwy_Kw","title":"مقرأة سورة آل عمران من آية ١٥٩","publishedAt":"2019-09-29T00:56:58Z","duration":"PT9M29S","thumbnail":"https://i.ytimg.com/vi/yDMGSKwy_Kw/mqdefault.jpg","viewCount":"727","playlistId":"PLEkQk5xrP-tnmTYsyW6xNdyfhPq0Bhrhj","playlistName":"مقرأة الفجر - القُرْآنُ الكَرِيمُ - خَتْمَةُ التَّدَبُّرِ  أ.د. يسري جبر","category":"متنوع"},{"id":"oX9sAWyJaCA","title":"سورة آل عمران آية 164","publishedAt":"2019-09-29T07:11:11Z","duration":"PT16M32S","thumbnail":"https://i.ytimg.com/vi/oX9sAWyJaCA/mqdefault.jpg","viewCount":"535","playlistId":"PLEkQk5xrP-tnmTYsyW6xNdyfhPq0Bhrhj","playlistName":"مقرأة الفجر - القُرْآنُ الكَرِيمُ - خَتْمَةُ التَّدَبُّرِ  أ.د. يسري جبر","category":"متنوع"},{"id":"ntzprsD4_ZI","title":"سورة النساء آية 51","publishedAt":"2019-09-29T10:37:19Z","duration":"PT20M48S","thumbnail":"https://i.ytimg.com/vi/ntzprsD4_ZI/mqdefault.jpg","viewCount":"371","playlistId":"PLEkQk5xrP-tnmTYsyW6xNdyfhPq0Bhrhj","playlistName":"مقرأة الفجر - القُرْآنُ الكَرِيمُ - خَتْمَةُ التَّدَبُّرِ  أ.د. يسري جبر","category":"متنوع"}],"total":942,"page":39,"pageSize":24,"totalPages":40}