{"items":[{"id":"paRowm0KjOY","title":"مقرأة سورة هود من آية ٥٠","publishedAt":"2017-06-15T09:36:31Z","duration":"PT19M16S","thumbnail":"https://i.ytimg.com/vi/paRowm0KjOY/mqdefault.jpg","viewCount":"281","playlistId":"PLEkQk5xrP-tnmTYsyW6xNdyfhPq0Bhrhj","playlistName":"مقرأة الفجر - القُرْآنُ الكَرِيمُ - خَتْمَةُ التَّدَبُّرِ  أ.د. يسري جبر","category":"متنوع"},{"id":"w2WnSOIEpIw","title":"مقرأة سورة هود من آية ٦١","publishedAt":"2017-06-15T15:22:34Z","duration":"PT24M54S","thumbnail":"https://i.ytimg.com/vi/w2WnSOIEpIw/mqdefault.jpg","viewCount":"333","playlistId":"PLEkQk5xrP-tnmTYsyW6xNdyfhPq0Bhrhj","playlistName":"مقرأة الفجر - القُرْآنُ الكَرِيمُ - خَتْمَةُ التَّدَبُّرِ  أ.د. يسري جبر","category":"متنوع"},{"id":"LHPPWT0LiUs","title":"مقرأة سورة هود من آية ٦٩","publishedAt":"2017-06-16T07:25:50Z","duration":"PT19M51S","thumbnail":"https://i.ytimg.com/vi/LHPPWT0LiUs/mqdefault.jpg","viewCount":"261","playlistId":"PLEkQk5xrP-tnmTYsyW6xNdyfhPq0Bhrhj","playlistName":"مقرأة الفجر - القُرْآنُ الكَرِيمُ - خَتْمَةُ التَّدَبُّرِ  أ.د. يسري جبر","category":"متنوع"},{"id":"2R4jHfEuAW4","title":"مقرأة سورة هود من آية ٧٧","publishedAt":"2017-06-16T14:09:27Z","duration":"PT20M10S","thumbnail":"https://i.ytimg.com/vi/2R4jHfEuAW4/mqdefault.jpg","viewCount":"319","playlistId":"PLEkQk5xrP-tnmTYsyW6xNdyfhPq0Bhrhj","playlistName":"مقرأة الفجر - القُرْآنُ الكَرِيمُ - خَتْمَةُ التَّدَبُّرِ  أ.د. يسري جبر","category":"متنوع"},{"id":"lVrb1vUPJYU","title":"مقرأة سورة هود من آية ٨٤","publishedAt":"2017-06-17T07:17:23Z","duration":"PT28M16S","thumbnail":"https://i.ytimg.com/vi/lVrb1vUPJYU/mqdefault.jpg","viewCount":"291","playlistId":"PLEkQk5xrP-tnmTYsyW6xNdyfhPq0Bhrhj","playlistName":"مقرأة الفجر - القُرْآنُ الكَرِيمُ - خَتْمَةُ التَّدَبُّرِ  أ.د. يسري جبر","category":"متنوع"},{"id":"CqfnOI2x6Nk","title":"مقرأة سورة هود من آية ٩٠","publishedAt":"2017-06-18T07:32:44Z","duration":"PT12M9S","thumbnail":"https://i.ytimg.com/vi/CqfnOI2x6Nk/mqdefault.jpg","viewCount":"293","playlistId":"PLEkQk5xrP-tnmTYsyW6xNdyfhPq0Bhrhj","playlistName":"مقرأة الفجر - القُرْآنُ الكَرِيمُ - خَتْمَةُ التَّدَبُّرِ  أ.د. يسري جبر","category":"متنوع"},{"id":"iYTJ1saNEWI","title":"مقرأة سورة هود من آية ١٠٦","publishedAt":"2017-06-18T08:07:10Z","duration":"PT18M59S","thumbnail":"https://i.ytimg.com/vi/iYTJ1saNEWI/mqdefault.jpg","viewCount":"298","playlistId":"PLEkQk5xrP-tnmTYsyW6xNdyfhPq0Bhrhj","playlistName":"مقرأة الفجر - القُرْآنُ الكَرِيمُ - خَتْمَةُ التَّدَبُّرِ  أ.د. يسري جبر","category":"متنوع"},{"id":"7mWMrimsXsQ","title":"مقرأة سورة هود من آية ٩٦","publishedAt":"2017-06-19T11:26:24Z","duration":"PT27M8S","thumbnail":"https://i.ytimg.com/vi/7mWMrimsXsQ/mqdefault.jpg","viewCount":"312","playlistId":"PLEkQk5xrP-tnmTYsyW6xNdyfhPq0Bhrhj","playlistName":"مقرأة الفجر - القُرْآنُ الكَرِيمُ - خَتْمَةُ التَّدَبُّرِ  أ.د. يسري جبر","category":"متنوع"},{"id":"tTkhuTt_Rt8","title":"مقرأة سورة هود من آية ١١٢","publishedAt":"2017-06-21T11:00:48Z","duration":"PT24M36S","thumbnail":"https://i.ytimg.com/vi/tTkhuTt_Rt8/mqdefault.jpg","viewCount":"370","playlistId":"PLEkQk5xrP-tnmTYsyW6xNdyfhPq0Bhrhj","playlistName":"مقرأة الفجر - القُرْآنُ الكَرِيمُ - خَتْمَةُ التَّدَبُّرِ  أ.د. يسري جبر","category":"متنوع"},{"id":"NLBejSiRzP4","title":"مقرأة سورة يوسف من أولها","publishedAt":"2017-06-22T12:26:46Z","duration":"PT15M39S","thumbnail":"https://i.ytimg.com/vi/NLBejSiRzP4/mqdefault.jpg","viewCount":"950","playlistId":"PLEkQk5xrP-tnmTYsyW6xNdyfhPq0Bhrhj","playlistName":"مقرأة الفجر - القُرْآنُ الكَرِيمُ - خَتْمَةُ التَّدَبُّرِ  أ.د. يسري جبر","category":"متنوع"},{"id":"wqdHPPWTdaY","title":"مقرأة سورة يوسف من آية ٧","publishedAt":"2017-06-23T15:39:53Z","duration":"PT25M12S","thumbnail":"https://i.ytimg.com/vi/wqdHPPWTdaY/mqdefault.jpg","viewCount":"673","playlistId":"PLEkQk5xrP-tnmTYsyW6xNdyfhPq0Bhrhj","playlistName":"مقرأة الفجر - القُرْآنُ الكَرِيمُ - خَتْمَةُ التَّدَبُّرِ  أ.د. يسري جبر","category":"متنوع"},{"id":"w0KjX7NWTiQ","title":"مقرأة سورة يوسف من آية ١٩","publishedAt":"2017-06-24T10:26:34Z","duration":"PT32M17S","thumbnail":"https://i.ytimg.com/vi/w0KjX7NWTiQ/mqdefault.jpg","viewCount":"798","playlistId":"PLEkQk5xrP-tnmTYsyW6xNdyfhPq0Bhrhj","playlistName":"مقرأة الفجر - القُرْآنُ الكَرِيمُ - خَتْمَةُ التَّدَبُّرِ  أ.د. يسري جبر","category":"متنوع"},{"id":"9H3kKVTVByc","title":"مقرأة سورة يوسف من آية ٣٠","publishedAt":"2017-06-26T07:59:46Z","duration":"PT17M45S","thumbnail":"https://i.ytimg.com/vi/9H3kKVTVByc/mqdefault.jpg","viewCount":"553","playlistId":"PLEkQk5xrP-tnmTYsyW6xNdyfhPq0Bhrhj","playlistName":"مقرأة الفجر - القُرْآنُ الكَرِيمُ - خَتْمَةُ التَّدَبُّرِ  أ.د. يسري جبر","category":"متنوع"},{"id":"O1ziQ1hoXQA","title":"مقرأة سورة يوسف من آية ٣٣","publishedAt":"2017-06-28T14:58:37Z","duration":"PT15M17S","thumbnail":"https://i.ytimg.com/vi/O1ziQ1hoXQA/mqdefault.jpg","viewCount":"486","playlistId":"PLEkQk5xrP-tnmTYsyW6xNdyfhPq0Bhrhj","playlistName":"مقرأة الفجر - القُرْآنُ الكَرِيمُ - خَتْمَةُ التَّدَبُّرِ  أ.د. يسري جبر","category":"متنوع"},{"id":"1UWBir43fCs","title":"مقرأة سورة يوسف من آية ٤٣","publishedAt":"2017-06-29T13:50:38Z","duration":"PT20M10S","thumbnail":"https://i.ytimg.com/vi/1UWBir43fCs/mqdefault.jpg","viewCount":"495","playlistId":"PLEkQk5xrP-tnmTYsyW6xNdyfhPq0Bhrhj","playlistName":"مقرأة الفجر - القُرْآنُ الكَرِيمُ - خَتْمَةُ التَّدَبُّرِ  أ.د. يسري جبر","category":"متنوع"},{"id":"MDiAi38TrLo","title":"مقرأة سورة يوسف من آية ٥٠","publishedAt":"2017-07-01T10:31:17Z","duration":"PT21M56S","thumbnail":"https://i.ytimg.com/vi/MDiAi38TrLo/mqdefault.jpg","viewCount":"578","playlistId":"PLEkQk5xrP-tnmTYsyW6xNdyfhPq0Bhrhj","playlistName":"مقرأة الفجر - القُرْآنُ الكَرِيمُ - خَتْمَةُ التَّدَبُّرِ  أ.د. يسري جبر","category":"متنوع"},{"id":"2c4el6SR5A0","title":"مقرأة سورة يوسف من آية ٥٨","publishedAt":"2017-07-03T16:04:38Z","duration":"PT24M26S","thumbnail":"https://i.ytimg.com/vi/2c4el6SR5A0/mqdefault.jpg","viewCount":"803","playlistId":"PLEkQk5xrP-tnmTYsyW6xNdyfhPq0Bhrhj","playlistName":"مقرأة الفجر - القُرْآنُ الكَرِيمُ - خَتْمَةُ التَّدَبُّرِ  أ.د. يسري جبر","category":"متنوع"},{"id":"YbfVYHtoNzM","title":"مقرأة سورة يوسف من آية ٦٨","publishedAt":"2017-07-04T08:29:14Z","duration":"PT25M44S","thumbnail":"https://i.ytimg.com/vi/YbfVYHtoNzM/mqdefault.jpg","viewCount":"598","playlistId":"PLEkQk5xrP-tnmTYsyW6xNdyfhPq0Bhrhj","playlistName":"مقرأة الفجر - القُرْآنُ الكَرِيمُ - خَتْمَةُ التَّدَبُّرِ  أ.د. يسري جبر","category":"متنوع"},{"id":"KyR6VKuqcM8","title":"مقرأة سورة يوسف من آية ٨٤","publishedAt":"2017-07-05T08:20:22Z","duration":"PT14M36S","thumbnail":"https://i.ytimg.com/vi/KyR6VKuqcM8/mqdefault.jpg","viewCount":"426","playlistId":"PLEkQk5xrP-tnmTYsyW6xNdyfhPq0Bhrhj","playlistName":"مقرأة الفجر - القُرْآنُ الكَرِيمُ - خَتْمَةُ التَّدَبُّرِ  أ.د. يسري جبر","category":"متنوع"},{"id":"3KPycNKqFAc","title":"مقرأة سورة يوسف من آية ٨٨","publishedAt":"2017-07-06T10:58:01Z","duration":"PT17M50S","thumbnail":"https://i.ytimg.com/vi/3KPycNKqFAc/mqdefault.jpg","viewCount":"504","playlistId":"PLEkQk5xrP-tnmTYsyW6xNdyfhPq0Bhrhj","playlistName":"مقرأة الفجر - القُرْآنُ الكَرِيمُ - خَتْمَةُ التَّدَبُّرِ  أ.د. يسري جبر","category":"متنوع"},{"id":"HrD7G8h3xxA","title":"مقرأة سورة يوسف آية ٩٥","publishedAt":"2017-07-07T09:20:27Z","duration":"PT19M38S","thumbnail":"https://i.ytimg.com/vi/HrD7G8h3xxA/mqdefault.jpg","viewCount":"442","playlistId":"PLEkQk5xrP-tnmTYsyW6xNdyfhPq0Bhrhj","playlistName":"مقرأة الفجر - القُرْآنُ الكَرِيمُ - خَتْمَةُ التَّدَبُّرِ  أ.د. يسري جبر","category":"متنوع"},{"id":"qAUt4VG8AZQ","title":"مقرأة سورة يوسف من آية ١٠١","publishedAt":"2017-07-08T08:12:08Z","duration":"PT10M42S","thumbnail":"https://i.ytimg.com/vi/qAUt4VG8AZQ/mqdefault.jpg","viewCount":"384","playlistId":"PLEkQk5xrP-tnmTYsyW6xNdyfhPq0Bhrhj","playlistName":"مقرأة الفجر - القُرْآنُ الكَرِيمُ - خَتْمَةُ التَّدَبُّرِ  أ.د. يسري جبر","category":"متنوع"},{"id":"M09qA82NKls","title":"مقرأة سورة يوسف من آية ١٠٩","publishedAt":"2017-07-09T10:13:47Z","duration":"PT17M39S","thumbnail":"https://i.ytimg.com/vi/M09qA82NKls/mqdefault.jpg","viewCount":"436","playlistId":"PLEkQk5xrP-tnmTYsyW6xNdyfhPq0Bhrhj","playlistName":"مقرأة الفجر - القُرْآنُ الكَرِيمُ - خَتْمَةُ التَّدَبُّرِ  أ.د. يسري جبر","category":"متنوع"},{"id":"P01Nu0f64MU","title":"مقرأة سورة الرعد من أولها","publishedAt":"2017-07-10T06:55:26Z","duration":"PT22M53S","thumbnail":"https://i.ytimg.com/vi/P01Nu0f64MU/mqdefault.jpg","viewCount":"1424","playlistId":"PLEkQk5xrP-tnmTYsyW6xNdyfhPq0Bhrhj","playlistName":"مقرأة الفجر - القُرْآنُ الكَرِيمُ - خَتْمَةُ التَّدَبُّرِ  أ.د. يسري جبر","category":"متنوع"}],"total":942,"page":13,"pageSize":24,"totalPages":40}