{"items":[{"id":"heU8B1Fw5bU","title":"الرسالة القشيرية المجلس الثاني و الثلاثون (المحاضرة والمكاشفة والمشاهدة).د. يسري جبر","publishedAt":"2018-10-18T15:18:30Z","duration":"PT49M42S","thumbnail":"https://i.ytimg.com/vi/heU8B1Fw5bU/mqdefault.jpg","viewCount":"9686","playlistId":"PLEkQk5xrP-tkHAGOwIKr4pc5ehhyQ5HMJ","playlistName":"كتاب الرسالة القشيرية (تصوف) - د. يسري جبر","category":"تصوف"},{"id":"W6JSGxD5aqg","title":"عُقُوقُ الوَالدَيْنِ  أ.د. يسري جبر","publishedAt":"2020-04-12T11:55:25Z","duration":"PT42M43S","thumbnail":"https://i.ytimg.com/vi/W6JSGxD5aqg/mqdefault.jpg","viewCount":"1928","playlistId":"PLEkQk5xrP-tlhpr-bJBjCsJw3j1S-LD9B","playlistName":"كتابُ الأدَبِ - المجلس الأول  أ.د. يسري جبر","category":"تصوف"},{"id":"NNNEfsXKhZ4","title":"البِرُّ والصِّلَةُ. أ.د.  يسري جبر","publishedAt":"2020-04-11T11:25:52Z","duration":"PT50M54S","thumbnail":"https://i.ytimg.com/vi/NNNEfsXKhZ4/mqdefault.jpg","viewCount":"2380","playlistId":"PLEkQk5xrP-tlhpr-bJBjCsJw3j1S-LD9B","playlistName":"كتابُ الأدَبِ - المجلس الأول  أ.د. يسري جبر","category":"تصوف"},{"id":"5efQFWAKwxM","title":"شرح منازل السائرين - المجلس (22) باب الزهد | أ.د. يسري جبر","publishedAt":"2023-01-11T18:00:02Z","duration":"PT41M41S","thumbnail":"https://i.ytimg.com/vi/5efQFWAKwxM/mqdefault.jpg","viewCount":"5212","playlistId":"PLEkQk5xrP-tmiUfQ-2Tsn7QIak4EsvaZW","playlistName":"كتاب التيسير المعين بشرح معاني منازل السائرين (تصوف) - د.يسري جبر","category":"تصوف"},{"id":"6b71oov0hvs","title":"61- كيف تكون عارفًا بالله؟ | شرح منازل السائرين","publishedAt":"2025-06-25T19:17:20Z","duration":"PT34M56S","thumbnail":"https://i.ytimg.com/vi/6b71oov0hvs/mqdefault.jpg","viewCount":"5308","playlistId":"PLEkQk5xrP-tmiUfQ-2Tsn7QIak4EsvaZW","playlistName":"كتاب التيسير المعين بشرح معاني منازل السائرين (تصوف) - د.يسري جبر","category":"تصوف"},{"id":"ysTQigvxWuE","title":"‎الرسالة القشيرية - المجلس (83) بَابُ الغَيْرَة . أ.د. يسري جبر","publishedAt":"2020-02-25T15:07:33Z","duration":"PT45M58S","thumbnail":"https://i.ytimg.com/vi/ysTQigvxWuE/mqdefault.jpg","viewCount":"2730","playlistId":"PLEkQk5xrP-tkHAGOwIKr4pc5ehhyQ5HMJ","playlistName":"كتاب الرسالة القشيرية (تصوف) - د. يسري جبر","category":"تصوف"},{"id":"jFFSWh5Of4U","title":"شرح منازل السائرين - المجلس (37) باب الثقة | أ.د. يسري جبر","publishedAt":"2024-02-20T18:00:27Z","duration":"PT32M40S","thumbnail":"https://i.ytimg.com/vi/jFFSWh5Of4U/mqdefault.jpg","viewCount":"7059","playlistId":"PLEkQk5xrP-tmiUfQ-2Tsn7QIak4EsvaZW","playlistName":"كتاب التيسير المعين بشرح معاني منازل السائرين (تصوف) - د.يسري جبر","category":"تصوف"},{"id":"toWLIAnUNg8","title":"الرسالة القشيرية - المجلس (93) بَابُ الصحبة | أ.د. يسري جبر","publishedAt":"2021-10-08T17:07:12Z","duration":"PT1H3M35S","thumbnail":"https://i.ytimg.com/vi/toWLIAnUNg8/mqdefault.jpg","viewCount":"6893","playlistId":"PLEkQk5xrP-tkHAGOwIKr4pc5ehhyQ5HMJ","playlistName":"كتاب الرسالة القشيرية (تصوف) - د. يسري جبر","category":"تصوف"},{"id":"pazss1wyxzs","title":"شرح كتاب الرسالة القشيرية - المجلس الرابع - الفصل الأول (1)","publishedAt":"2017-12-07T13:11:40Z","duration":"PT56M16S","thumbnail":"https://i.ytimg.com/vi/pazss1wyxzs/mqdefault.jpg","viewCount":"21460","playlistId":"PLEkQk5xrP-tkHAGOwIKr4pc5ehhyQ5HMJ","playlistName":"كتاب الرسالة القشيرية (تصوف) - د. يسري جبر","category":"تصوف"},{"id":"KWhpqemHnK4","title":"(5) سيدنا أبو الحسن سَريّ بن مُغلِّس السَّقطي   د. يسري جبر","publishedAt":"2018-03-26T18:14:55Z","duration":"PT14M33S","thumbnail":"https://i.ytimg.com/vi/KWhpqemHnK4/mqdefault.jpg","viewCount":"13480","playlistId":"PLEkQk5xrP-tmmI87XkWepRdTpisz2Lfgr","playlistName":"باب في ذكر مشايخ هذه الطريقة من شرح كتاب الرسالة القشيرية","category":"تصوف"},{"id":"y14BPvUuB-4","title":"(الرسالة القشيرية - المجلس السادس عشر (باب في ذكر مشايخ هذه الطريقة - المجلس الثامن","publishedAt":"2018-03-25T19:42:02Z","duration":"PT58M13S","thumbnail":"https://i.ytimg.com/vi/y14BPvUuB-4/mqdefault.jpg","viewCount":"8502","playlistId":"PLEkQk5xrP-tkHAGOwIKr4pc5ehhyQ5HMJ","playlistName":"كتاب الرسالة القشيرية (تصوف) - د. يسري جبر","category":"تصوف"},{"id":"HA8BQTv-VHA","title":"ورد يوم الجمعة من كتاب دلائل الخيرات وشوارق الأنوار في ذكر الصلاة على النَّبيّ المختار ﷺ","publishedAt":"2023-09-08T09:00:11Z","duration":"PT17M11S","thumbnail":"https://i.ytimg.com/vi/HA8BQTv-VHA/mqdefault.jpg","viewCount":"25229","playlistId":"PLEkQk5xrP-tnAXVT9Huen-nNMlvs5w6UI","playlistName":"دلائل الخيرات و شوارق الأنوار في ذكر الصلاة على النَّبيّ المختار ﷺ","category":"تصوف"},{"id":"Nzp5dfVvcrk","title":"ورد يوم الخميس من كتاب دلائل الخيرات وشوارق الأنوار في ذكر الصلاة على النَّبيّ المختار ﷺ","publishedAt":"2023-09-07T09:00:24Z","duration":"PT14M49S","thumbnail":"https://i.ytimg.com/vi/Nzp5dfVvcrk/mqdefault.jpg","viewCount":"16917","playlistId":"PLEkQk5xrP-tnAXVT9Huen-nNMlvs5w6UI","playlistName":"دلائل الخيرات و شوارق الأنوار في ذكر الصلاة على النَّبيّ المختار ﷺ","category":"تصوف"},{"id":"j--NzQhEN1k","title":"ورد يوم الأربعاء من كتاب دلائل الخيرات وشوارق الأنوار في ذكر الصلاة على النَّبيّ المختار ﷺ","publishedAt":"2023-09-06T09:00:35Z","duration":"PT15M3S","thumbnail":"https://i.ytimg.com/vi/j--NzQhEN1k/mqdefault.jpg","viewCount":"17106","playlistId":"PLEkQk5xrP-tnAXVT9Huen-nNMlvs5w6UI","playlistName":"دلائل الخيرات و شوارق الأنوار في ذكر الصلاة على النَّبيّ المختار ﷺ","category":"تصوف"},{"id":"XdOVS8vbOhE","title":"ورد يوم الثلاثاء من كتاب دلائل الخيرات وشوارق الأنوار في ذكر الصلاة على النَّبيّ المختار ﷺ","publishedAt":"2023-09-05T09:00:28Z","duration":"PT14M40S","thumbnail":"https://i.ytimg.com/vi/XdOVS8vbOhE/mqdefault.jpg","viewCount":"17535","playlistId":"PLEkQk5xrP-tnAXVT9Huen-nNMlvs5w6UI","playlistName":"دلائل الخيرات و شوارق الأنوار في ذكر الصلاة على النَّبيّ المختار ﷺ","category":"تصوف"},{"id":"BrxVyn4uKL0","title":"شرح منازل السائرين - المجلس (36) باب التفويض | أ.د. يسري جبر","publishedAt":"2024-02-08T18:30:11Z","duration":"PT34M15S","thumbnail":"https://i.ytimg.com/vi/BrxVyn4uKL0/mqdefault.jpg","viewCount":"8794","playlistId":"PLEkQk5xrP-tmiUfQ-2Tsn7QIak4EsvaZW","playlistName":"كتاب التيسير المعين بشرح معاني منازل السائرين (تصوف) - د.يسري جبر","category":"تصوف"},{"id":"Hl2oQVDXl64","title":"شرح كتاب الرسالة القشيرية - المجلس الثالث (المقدمة 2)","publishedAt":"2017-11-24T07:59:14Z","duration":"PT1H50S","thumbnail":"https://i.ytimg.com/vi/Hl2oQVDXl64/mqdefault.jpg","viewCount":"21977","playlistId":"PLEkQk5xrP-tkHAGOwIKr4pc5ehhyQ5HMJ","playlistName":"كتاب الرسالة القشيرية (تصوف) - د. يسري جبر","category":"تصوف"},{"id":"5HVPVJs--OM","title":"الرسالة القشيرية المجلس السادس والأربعون - باب الورع - أ.د. يسري جبر","publishedAt":"2019-01-29T07:21:46Z","duration":"PT1H11M52S","thumbnail":"https://i.ytimg.com/vi/5HVPVJs--OM/mqdefault.jpg","viewCount":"6108","playlistId":"PLEkQk5xrP-tkHAGOwIKr4pc5ehhyQ5HMJ","playlistName":"كتاب الرسالة القشيرية (تصوف) - د. يسري جبر","category":"تصوف"},{"id":"68xSVsLyjVw","title":"الرسالة القشيرية - المجلس (96) بَابُ المعرفة بالله | أ.د. يسري جبر","publishedAt":"2021-10-24T18:00:02Z","duration":"PT1H16S","thumbnail":"https://i.ytimg.com/vi/68xSVsLyjVw/mqdefault.jpg","viewCount":"42713","playlistId":"PLEkQk5xrP-tkHAGOwIKr4pc5ehhyQ5HMJ","playlistName":"كتاب الرسالة القشيرية (تصوف) - د. يسري جبر","category":"تصوف"},{"id":"afiKh1Tcz7Y","title":"(34) سيدنا يوسف بن الحسين رضي الله عنه   د. يسري جبر","publishedAt":"2018-09-04T19:13:51Z","duration":"PT8M24S","thumbnail":"https://i.ytimg.com/vi/afiKh1Tcz7Y/mqdefault.jpg","viewCount":"1450","playlistId":"PLEkQk5xrP-tmmI87XkWepRdTpisz2Lfgr","playlistName":"باب في ذكر مشايخ هذه الطريقة من شرح كتاب الرسالة القشيرية","category":"تصوف"},{"id":"ez-Zi4IXAeM","title":"(33) سيدنا أبو الفوارس شاه بن شجاع الكِرْمَاني رضي الله عنه د. يسري جبر","publishedAt":"2018-09-04T18:42:03Z","duration":"PT4M58S","thumbnail":"https://i.ytimg.com/vi/ez-Zi4IXAeM/mqdefault.jpg","viewCount":"867","playlistId":"PLEkQk5xrP-tmmI87XkWepRdTpisz2Lfgr","playlistName":"باب في ذكر مشايخ هذه الطريقة من شرح كتاب الرسالة القشيرية","category":"تصوف"},{"id":"bO4CroQih0Q","title":"الرسالة القشيرية - المجلس الخامس و العشرون - (القبض والبسط - الهيبة والأُنس).","publishedAt":"2018-08-02T10:19:47Z","duration":"PT52M47S","thumbnail":"https://i.ytimg.com/vi/bO4CroQih0Q/mqdefault.jpg","viewCount":"12436","playlistId":"PLEkQk5xrP-tkHAGOwIKr4pc5ehhyQ5HMJ","playlistName":"كتاب الرسالة القشيرية (تصوف) - د. يسري جبر","category":"تصوف"},{"id":"_phdi4Crt8Q","title":"شرح منازل السائرين - المجلس (7) باب المحاسبة | أ.د. يسري جبر","publishedAt":"2022-09-12T18:00:14Z","duration":"PT50M24S","thumbnail":"https://i.ytimg.com/vi/_phdi4Crt8Q/mqdefault.jpg","viewCount":"10656","playlistId":"PLEkQk5xrP-tmiUfQ-2Tsn7QIak4EsvaZW","playlistName":"كتاب التيسير المعين بشرح معاني منازل السائرين (تصوف) - د.يسري جبر","category":"تصوف"},{"id":"umeQUL53_3A","title":"شرح منازل السائرين - المجلس (43) باب الحياء | أ.د. يسري جبر","publishedAt":"2024-05-09T17:35:37Z","duration":"PT45M33S","thumbnail":"https://i.ytimg.com/vi/umeQUL53_3A/mqdefault.jpg","viewCount":"4376","playlistId":"PLEkQk5xrP-tmiUfQ-2Tsn7QIak4EsvaZW","playlistName":"كتاب التيسير المعين بشرح معاني منازل السائرين (تصوف) - د.يسري جبر","category":"تصوف"}],"total":241,"page":1,"pageSize":24,"totalPages":11}