{"items":[{"id":"fW-r7sAAuYE","title":"الرسالة القشيرية - المجلس (115) بَابُ كرامات الأولياء ٨ | أ.د. يسري جبر","publishedAt":"2022-03-10T19:22:56Z","duration":"PT51M17S","thumbnail":"https://i.ytimg.com/vi/fW-r7sAAuYE/mqdefault.jpg","viewCount":"15037","playlistId":"PLEkQk5xrP-tkHAGOwIKr4pc5ehhyQ5HMJ","playlistName":"كتاب الرسالة القشيرية (تصوف) - د. يسري جبر","category":"تصوف"},{"id":"U46ldz5D4wA","title":"شرح منازل السائرين - المجلس (14) باب الفرار | أ.د. يسري جبر","publishedAt":"2022-11-09T18:00:13Z","duration":"PT41M46S","thumbnail":"https://i.ytimg.com/vi/U46ldz5D4wA/mqdefault.jpg","viewCount":"6960","playlistId":"PLEkQk5xrP-tmiUfQ-2Tsn7QIak4EsvaZW","playlistName":"كتاب التيسير المعين بشرح معاني منازل السائرين (تصوف) - د.يسري جبر","category":"تصوف"},{"id":"I7Wy4FsgLxs","title":"شرح منازل السائرين - المجلس (13) باب الاعتصام | أ.د. يسري جبر","publishedAt":"2022-10-31T18:00:10Z","duration":"PT51M41S","thumbnail":"https://i.ytimg.com/vi/I7Wy4FsgLxs/mqdefault.jpg","viewCount":"6232","playlistId":"PLEkQk5xrP-tmiUfQ-2Tsn7QIak4EsvaZW","playlistName":"كتاب التيسير المعين بشرح معاني منازل السائرين (تصوف) - د.يسري جبر","category":"تصوف"},{"id":"6Pbb6Kah5nE","title":"الرسالة القشيرية - المجلس (78) بَابُ ‎الفِرَاسَةِ. أ.د. يسري جبر","publishedAt":"2020-01-22T18:32:54Z","duration":"PT50M45S","thumbnail":"https://i.ytimg.com/vi/6Pbb6Kah5nE/mqdefault.jpg","viewCount":"4383","playlistId":"PLEkQk5xrP-tkHAGOwIKr4pc5ehhyQ5HMJ","playlistName":"كتاب الرسالة القشيرية (تصوف) - د. يسري جبر","category":"تصوف"},{"id":"t_dq16zmdyc","title":"الرسالة القشيرية - المجلس (65)  بابُ الصَّبْر . أ.د. يسري جبر","publishedAt":"2020-01-20T17:44:22Z","duration":"PT51M14S","thumbnail":"https://i.ytimg.com/vi/t_dq16zmdyc/mqdefault.jpg","viewCount":"6339","playlistId":"PLEkQk5xrP-tkHAGOwIKr4pc5ehhyQ5HMJ","playlistName":"كتاب الرسالة القشيرية (تصوف) - د. يسري جبر","category":"تصوف"},{"id":"gdwTyVFdGM8","title":"60- كيف تصل إلى مقام الإحسان؟ | شرح منازل السائرين","publishedAt":"2025-05-08T18:00:41Z","duration":"PT47M18S","thumbnail":"https://i.ytimg.com/vi/gdwTyVFdGM8/mqdefault.jpg","viewCount":"5721","playlistId":"PLEkQk5xrP-tmiUfQ-2Tsn7QIak4EsvaZW","playlistName":"كتاب التيسير المعين بشرح معاني منازل السائرين (تصوف) - د.يسري جبر","category":"تصوف"},{"id":"R6GDrSjlYKo","title":"الرسالة القشيرية - المجلس (116) بَابُ كرامات الأولياء ۹ والأخير | أ.د. يسري جبر","publishedAt":"2022-03-20T17:00:29Z","duration":"PT51M16S","thumbnail":"https://i.ytimg.com/vi/R6GDrSjlYKo/mqdefault.jpg","viewCount":"27195","playlistId":"PLEkQk5xrP-tkHAGOwIKr4pc5ehhyQ5HMJ","playlistName":"كتاب الرسالة القشيرية (تصوف) - د. يسري جبر","category":"تصوف"},{"id":"kS8Vpp3HmZA","title":"شرح منازل السائرين - المجلس (12) باب التَّذَكُّر ٢ | أ.د. يسري جبر","publishedAt":"2022-10-19T18:00:17Z","duration":"PT45M55S","thumbnail":"https://i.ytimg.com/vi/kS8Vpp3HmZA/mqdefault.jpg","viewCount":"5059","playlistId":"PLEkQk5xrP-tmiUfQ-2Tsn7QIak4EsvaZW","playlistName":"كتاب التيسير المعين بشرح معاني منازل السائرين (تصوف) - د.يسري جبر","category":"تصوف"},{"id":"qBrzlXWuESo","title":"الرسالة القشيرية المجلس التاسع و العشرون (الغَيْبَةُ والحُضُور)     د. يسري جبر","publishedAt":"2018-09-21T20:43:29Z","duration":"PT30M52S","thumbnail":"https://i.ytimg.com/vi/qBrzlXWuESo/mqdefault.jpg","viewCount":"5750","playlistId":"PLEkQk5xrP-tkHAGOwIKr4pc5ehhyQ5HMJ","playlistName":"كتاب الرسالة القشيرية (تصوف) - د. يسري جبر","category":"تصوف"},{"id":"Wk0ICRr__gM","title":"(38) سيدنا أبو عبد الله محمد بن إسماعيل المغربي رضي الله عنه  د. يسري جبر","publishedAt":"2018-09-17T18:53:25Z","duration":"PT3M58S","thumbnail":"https://i.ytimg.com/vi/Wk0ICRr__gM/mqdefault.jpg","viewCount":"1000","playlistId":"PLEkQk5xrP-tmmI87XkWepRdTpisz2Lfgr","playlistName":"باب في ذكر مشايخ هذه الطريقة من شرح كتاب الرسالة القشيرية","category":"تصوف"},{"id":"QbgEegLUZP4","title":"(37) سيدنا أبو سعيد أحمد بن عيسى الخرَّاز رضي الله عنه  د. يسري جبر","publishedAt":"2018-09-16T19:29:26Z","duration":"PT4M21S","thumbnail":"https://i.ytimg.com/vi/QbgEegLUZP4/mqdefault.jpg","viewCount":"912","playlistId":"PLEkQk5xrP-tmmI87XkWepRdTpisz2Lfgr","playlistName":"باب في ذكر مشايخ هذه الطريقة من شرح كتاب الرسالة القشيرية","category":"تصوف"},{"id":"dDiYjktIBYM","title":"(36) سيدنا أبو بكر محمد بن عمر الوراق الترمذي رضي الله عنه  د. يسري جبر","publishedAt":"2018-09-16T18:54:58Z","duration":"PT6M19S","thumbnail":"https://i.ytimg.com/vi/dDiYjktIBYM/mqdefault.jpg","viewCount":"925","playlistId":"PLEkQk5xrP-tmmI87XkWepRdTpisz2Lfgr","playlistName":"باب في ذكر مشايخ هذه الطريقة من شرح كتاب الرسالة القشيرية","category":"تصوف"},{"id":"qK27J5Qtg9g","title":"شرح منازل السائرين - المجلس (3) باب اليقظة | أ.د. يسري جبر","publishedAt":"2022-08-10T18:00:26Z","duration":"PT1H1M14S","thumbnail":"https://i.ytimg.com/vi/qK27J5Qtg9g/mqdefault.jpg","viewCount":"40048","playlistId":"PLEkQk5xrP-tmiUfQ-2Tsn7QIak4EsvaZW","playlistName":"كتاب التيسير المعين بشرح معاني منازل السائرين (تصوف) - د.يسري جبر","category":"تصوف"},{"id":"Ugq9G4TJW4c","title":"(4) سيدنا أبو محفوظ معروف بن فيروز الكرخي رضي الله عنه  د. يسري جبر","publishedAt":"2018-03-18T21:27:42Z","duration":"PT19M","thumbnail":"https://i.ytimg.com/vi/Ugq9G4TJW4c/mqdefault.jpg","viewCount":"25151","playlistId":"PLEkQk5xrP-tmmI87XkWepRdTpisz2Lfgr","playlistName":"باب في ذكر مشايخ هذه الطريقة من شرح كتاب الرسالة القشيرية","category":"تصوف"},{"id":"fGgqn2a8uZU","title":"شرح منازل السائرين - المجلس (8) باب الإنابةِ والتَّفَكُّرِ | أ.د. يسري جبر","publishedAt":"2022-09-14T18:00:31Z","duration":"PT51M28S","thumbnail":"https://i.ytimg.com/vi/fGgqn2a8uZU/mqdefault.jpg","viewCount":"10832","playlistId":"PLEkQk5xrP-tmiUfQ-2Tsn7QIak4EsvaZW","playlistName":"كتاب التيسير المعين بشرح معاني منازل السائرين (تصوف) - د.يسري جبر","category":"تصوف"},{"id":"deMGiEgSb3g","title":"الرسالة القشيرية - المجلس (109) بَابُ كرامات الأولياء ٢ | أ.د. يسري جبر","publishedAt":"2022-01-25T18:00:11Z","duration":"PT53M5S","thumbnail":"https://i.ytimg.com/vi/deMGiEgSb3g/mqdefault.jpg","viewCount":"21785","playlistId":"PLEkQk5xrP-tkHAGOwIKr4pc5ehhyQ5HMJ","playlistName":"كتاب الرسالة القشيرية (تصوف) - د. يسري جبر","category":"تصوف"},{"id":"cqHkFBMYqow","title":"53- كيف تكون مريدا إلى الله وتقوي إرادتك على الطاعات؟ | شرح منازل السائرين","publishedAt":"2024-12-04T15:36:19Z","duration":"PT39M1S","thumbnail":"https://i.ytimg.com/vi/cqHkFBMYqow/mqdefault.jpg","viewCount":"5618","playlistId":"PLEkQk5xrP-tmiUfQ-2Tsn7QIak4EsvaZW","playlistName":"كتاب التيسير المعين بشرح معاني منازل السائرين (تصوف) - د.يسري جبر","category":"تصوف"},{"id":"Mgys8_XmXPE","title":"الرسالة القشيرية - المجلس (112) بَابُ كرامات الأولياء ٥ | أ.د. يسري جبر","publishedAt":"2022-02-17T18:00:33Z","duration":"PT53M50S","thumbnail":"https://i.ytimg.com/vi/Mgys8_XmXPE/mqdefault.jpg","viewCount":"27629","playlistId":"PLEkQk5xrP-tkHAGOwIKr4pc5ehhyQ5HMJ","playlistName":"كتاب الرسالة القشيرية (تصوف) - د. يسري جبر","category":"تصوف"},{"id":"DDJL-lGtR20","title":"الرسالة القشيرية - المجلس (111) بَابُ كرامات الأولياء ٤ | أ.د. يسري جبر","publishedAt":"2022-02-10T20:05:10Z","duration":"PT51M26S","thumbnail":"https://i.ytimg.com/vi/DDJL-lGtR20/mqdefault.jpg","viewCount":"19583","playlistId":"PLEkQk5xrP-tkHAGOwIKr4pc5ehhyQ5HMJ","playlistName":"كتاب الرسالة القشيرية (تصوف) - د. يسري جبر","category":"تصوف"},{"id":"ChJ-PfHp0YE","title":"شرح كتاب الرسالة القشيرية - (المجلس الأول) د. يسري جبر","publishedAt":"2017-11-10T07:17:24Z","duration":"PT53M14S","thumbnail":"https://i.ytimg.com/vi/ChJ-PfHp0YE/mqdefault.jpg","viewCount":"65222","playlistId":"PLEkQk5xrP-tkHAGOwIKr4pc5ehhyQ5HMJ","playlistName":"كتاب الرسالة القشيرية (تصوف) - د. يسري جبر","category":"تصوف"},{"id":"IJPkRt534tA","title":"شرح كتاب الرسالة القشيرية - المجلس الخامس - الفصل الأول (2)","publishedAt":"2017-12-15T08:05:01Z","duration":"PT1H14M13S","thumbnail":"https://i.ytimg.com/vi/IJPkRt534tA/mqdefault.jpg","viewCount":"17722","playlistId":"PLEkQk5xrP-tkHAGOwIKr4pc5ehhyQ5HMJ","playlistName":"كتاب الرسالة القشيرية (تصوف) - د. يسري جبر","category":"تصوف"},{"id":"iQpWLiwZtdI","title":"الرسالة القشيرية - المجلس (110) بَابُ كرامات الأولياء ۳ | أ.د. يسري جبر","publishedAt":"2022-02-01T19:36:24Z","duration":"PT53M58S","thumbnail":"https://i.ytimg.com/vi/iQpWLiwZtdI/mqdefault.jpg","viewCount":"23552","playlistId":"PLEkQk5xrP-tkHAGOwIKr4pc5ehhyQ5HMJ","playlistName":"كتاب الرسالة القشيرية (تصوف) - د. يسري جبر","category":"تصوف"},{"id":"WI-85HOTOOY","title":"الرسالة القشيرية - المجلس السادس و العشرون - (التواجد والوجد والوجود).","publishedAt":"2018-08-09T05:34:32Z","duration":"PT50M52S","thumbnail":"https://i.ytimg.com/vi/WI-85HOTOOY/mqdefault.jpg","viewCount":"7993","playlistId":"PLEkQk5xrP-tkHAGOwIKr4pc5ehhyQ5HMJ","playlistName":"كتاب الرسالة القشيرية (تصوف) - د. يسري جبر","category":"تصوف"},{"id":"lF_stBts0ak","title":"(32) سيدنا أبو عُبيد البُسْرِي رضي الله عنه د. يسري جبر","publishedAt":"2018-08-07T18:32:37Z","duration":"PT4M47S","thumbnail":"https://i.ytimg.com/vi/lF_stBts0ak/mqdefault.jpg","viewCount":"788","playlistId":"PLEkQk5xrP-tmmI87XkWepRdTpisz2Lfgr","playlistName":"باب في ذكر مشايخ هذه الطريقة من شرح كتاب الرسالة القشيرية","category":"تصوف"}],"total":241,"page":10,"pageSize":24,"totalPages":11}