{"items":[{"id":"vEobFWTvXcw","title":"شرح منازل السائرين - المجلس (9) باب التَّفَكُّرِ ٢ | أ.د. يسري جبر","publishedAt":"2022-09-30T18:00:24Z","duration":"PT50M51S","thumbnail":"https://i.ytimg.com/vi/vEobFWTvXcw/mqdefault.jpg","viewCount":"8123","playlistId":"PLEkQk5xrP-tmiUfQ-2Tsn7QIak4EsvaZW","playlistName":"كتاب التيسير المعين بشرح معاني منازل السائرين (تصوف) - د.يسري جبر","category":"تصوف"},{"id":"gY7bhosUX-M","title":"الرسالة القشيرية - المجلس التاسع عشر (باب في ذكر مشايخ هذه الطريقة - المجلس الحادي عشر)","publishedAt":"2018-05-12T20:49:18Z","duration":"PT54M50S","thumbnail":"https://i.ytimg.com/vi/gY7bhosUX-M/mqdefault.jpg","viewCount":"5809","playlistId":"PLEkQk5xrP-tkHAGOwIKr4pc5ehhyQ5HMJ","playlistName":"كتاب الرسالة القشيرية (تصوف) - د. يسري جبر","category":"تصوف"},{"id":"HVw3NnS29vo","title":"(28) سيدنا أبو عبد الله محمد بن الفضل البَلْخي رضي الله عنه د. يسري جبر","publishedAt":"2018-05-12T19:35:48Z","duration":"PT8M53S","thumbnail":"https://i.ytimg.com/vi/HVw3NnS29vo/mqdefault.jpg","viewCount":"744","playlistId":"PLEkQk5xrP-tmmI87XkWepRdTpisz2Lfgr","playlistName":"باب في ذكر مشايخ هذه الطريقة من شرح كتاب الرسالة القشيرية","category":"تصوف"},{"id":"NU9aYVNRL00","title":"(27) سيدنا أبو محمد رُوَيمْ بن أحمد رضي الله عنه  د. يسري جبر","publishedAt":"2018-05-11T18:07:11Z","duration":"PT9M39S","thumbnail":"https://i.ytimg.com/vi/NU9aYVNRL00/mqdefault.jpg","viewCount":"914","playlistId":"PLEkQk5xrP-tmmI87XkWepRdTpisz2Lfgr","playlistName":"باب في ذكر مشايخ هذه الطريقة من شرح كتاب الرسالة القشيرية","category":"تصوف"},{"id":"ZLD0aV80_pg","title":"(26) سيدنا أبو عبد الله أحمد بن يحيى الجلاء رضي الله عنه   د. يسري جبر","publishedAt":"2018-05-06T19:40:36Z","duration":"PT8M29S","thumbnail":"https://i.ytimg.com/vi/ZLD0aV80_pg/mqdefault.jpg","viewCount":"734","playlistId":"PLEkQk5xrP-tmmI87XkWepRdTpisz2Lfgr","playlistName":"باب في ذكر مشايخ هذه الطريقة من شرح كتاب الرسالة القشيرية","category":"تصوف"},{"id":"92Y1dBpr-lI","title":"شرح منازل السائرين - المجلس (42) باب الشكر | أ.د. يسري جبر","publishedAt":"2024-05-01T19:15:32Z","duration":"PT42M32S","thumbnail":"https://i.ytimg.com/vi/92Y1dBpr-lI/mqdefault.jpg","viewCount":"5617","playlistId":"PLEkQk5xrP-tmiUfQ-2Tsn7QIak4EsvaZW","playlistName":"كتاب التيسير المعين بشرح معاني منازل السائرين (تصوف) - د.يسري جبر","category":"تصوف"},{"id":"-2c1UfiRNVY","title":"الرسالة القشيرية - المجلس (54) باب الحُزن وباب الجوع وترك الشهوة  أ.د. يسري جبر","publishedAt":"2019-03-30T09:23:41Z","duration":"PT1H9M8S","thumbnail":"https://i.ytimg.com/vi/-2c1UfiRNVY/mqdefault.jpg","viewCount":"11092","playlistId":"PLEkQk5xrP-tkHAGOwIKr4pc5ehhyQ5HMJ","playlistName":"كتاب الرسالة القشيرية (تصوف) - د. يسري جبر","category":"تصوف"},{"id":"75M4uDbnamQ","title":"68- كيف تشعر بالطمأنينة وراحة البال في حياتك؟ | شرح منازل السائرين","publishedAt":"2025-09-16T17:45:20Z","duration":"PT35M59S","thumbnail":"https://i.ytimg.com/vi/75M4uDbnamQ/mqdefault.jpg","viewCount":"10342","playlistId":"PLEkQk5xrP-tmiUfQ-2Tsn7QIak4EsvaZW","playlistName":"كتاب التيسير المعين بشرح معاني منازل السائرين (تصوف) - د.يسري جبر","category":"تصوف"},{"id":"jQ0vXlXaEVg","title":"الرسالة القشيرية - المجلس (72) بَابُ الصدق . أ.د. يسري جبر","publishedAt":"2019-12-06T13:44:35Z","duration":"PT48M39S","thumbnail":"https://i.ytimg.com/vi/jQ0vXlXaEVg/mqdefault.jpg","viewCount":"4899","playlistId":"PLEkQk5xrP-tkHAGOwIKr4pc5ehhyQ5HMJ","playlistName":"كتاب الرسالة القشيرية (تصوف) - د. يسري جبر","category":"تصوف"},{"id":"1tdDdzOfpSk","title":"الرسالة القشيرية - المجلس (71) بَابُ الإخْلَاصِ. أ.د. يسري جبر","publishedAt":"2019-11-28T22:11:47Z","duration":"PT54M47S","thumbnail":"https://i.ytimg.com/vi/1tdDdzOfpSk/mqdefault.jpg","viewCount":"8337","playlistId":"PLEkQk5xrP-tkHAGOwIKr4pc5ehhyQ5HMJ","playlistName":"كتاب الرسالة القشيرية (تصوف) - د. يسري جبر","category":"تصوف"},{"id":"8pkV4CSR1Bc","title":"الرسالة القشيرية - المجلس (70) بَابُ الاسْتِقَامَةِ. أ.د. يسري جبر","publishedAt":"2019-11-15T22:57:55Z","duration":"PT36M41S","thumbnail":"https://i.ytimg.com/vi/8pkV4CSR1Bc/mqdefault.jpg","viewCount":"4756","playlistId":"PLEkQk5xrP-tkHAGOwIKr4pc5ehhyQ5HMJ","playlistName":"كتاب الرسالة القشيرية (تصوف) - د. يسري جبر","category":"تصوف"},{"id":"Y2FURtG0sJM","title":"الرسالة القشيرية - المجلس (69) بَابُ الإِرَادَةِ. أ.د. يسري جبر","publishedAt":"2019-11-08T08:37:43Z","duration":"PT55M20S","thumbnail":"https://i.ytimg.com/vi/Y2FURtG0sJM/mqdefault.jpg","viewCount":"6699","playlistId":"PLEkQk5xrP-tkHAGOwIKr4pc5ehhyQ5HMJ","playlistName":"كتاب الرسالة القشيرية (تصوف) - د. يسري جبر","category":"تصوف"},{"id":"Dl7xXGox7Z8","title":"الرسالة القشيرية - المجلس (61)  بابُ التَّوَكُّلِ (2). أ.د. يسري جبر","publishedAt":"2019-09-28T12:37:55Z","duration":"PT53M3S","thumbnail":"https://i.ytimg.com/vi/Dl7xXGox7Z8/mqdefault.jpg","viewCount":"5164","playlistId":"PLEkQk5xrP-tkHAGOwIKr4pc5ehhyQ5HMJ","playlistName":"كتاب الرسالة القشيرية (تصوف) - د. يسري جبر","category":"تصوف"},{"id":"DrR83TvgiRA","title":"شرح منازل السائرين - المجلس (30) باب الإخلاص | أ.د. يسري جبر","publishedAt":"2023-10-03T17:30:02Z","duration":"PT25M46S","thumbnail":"https://i.ytimg.com/vi/DrR83TvgiRA/mqdefault.jpg","viewCount":"4952","playlistId":"PLEkQk5xrP-tmiUfQ-2Tsn7QIak4EsvaZW","playlistName":"كتاب التيسير المعين بشرح معاني منازل السائرين (تصوف) - د.يسري جبر","category":"تصوف"},{"id":"1y8T7IVVWO8","title":"الرسالة القشيرية - المجلس (60)  بابُ التَّوَكُّلِ. أ.د. يسري جبر","publishedAt":"2019-08-06T01:05:45Z","duration":"PT48M58S","thumbnail":"https://i.ytimg.com/vi/1y8T7IVVWO8/mqdefault.jpg","viewCount":"8301","playlistId":"PLEkQk5xrP-tkHAGOwIKr4pc5ehhyQ5HMJ","playlistName":"كتاب الرسالة القشيرية (تصوف) - د. يسري جبر","category":"تصوف"},{"id":"vaGOHWJ-UDo","title":"الرسالة القشيرية - المجلس (59) بابُ القَنَاعَة. أ.د. يسري جبر","publishedAt":"2019-07-27T17:26:28Z","duration":"PT50M44S","thumbnail":"https://i.ytimg.com/vi/vaGOHWJ-UDo/mqdefault.jpg","viewCount":"5262","playlistId":"PLEkQk5xrP-tkHAGOwIKr4pc5ehhyQ5HMJ","playlistName":"كتاب الرسالة القشيرية (تصوف) - د. يسري جبر","category":"تصوف"},{"id":"3mvDWiHMrz0","title":"شرح منازل السائرين - المجلس (26) باب الرغبة | أ.د. يسري جبر","publishedAt":"2023-02-15T18:00:01Z","duration":"PT47M34S","thumbnail":"https://i.ytimg.com/vi/3mvDWiHMrz0/mqdefault.jpg","viewCount":"5005","playlistId":"PLEkQk5xrP-tmiUfQ-2Tsn7QIak4EsvaZW","playlistName":"كتاب التيسير المعين بشرح معاني منازل السائرين (تصوف) - د.يسري جبر","category":"تصوف"},{"id":"BrxVyn4uKL0","title":"شرح منازل السائرين - المجلس (36) باب التفويض | أ.د. يسري جبر","publishedAt":"2024-02-08T18:30:11Z","duration":"PT34M15S","thumbnail":"https://i.ytimg.com/vi/BrxVyn4uKL0/mqdefault.jpg","viewCount":"8794","playlistId":"PLEkQk5xrP-tmiUfQ-2Tsn7QIak4EsvaZW","playlistName":"كتاب التيسير المعين بشرح معاني منازل السائرين (تصوف) - د.يسري جبر","category":"تصوف"},{"id":"JvK2pKt8b1g","title":"شرح منازل السائرين - المجلس (21) باب الإخبات | أ.د. يسري جبر","publishedAt":"2023-01-04T18:00:07Z","duration":"PT50M14S","thumbnail":"https://i.ytimg.com/vi/JvK2pKt8b1g/mqdefault.jpg","viewCount":"5213","playlistId":"PLEkQk5xrP-tmiUfQ-2Tsn7QIak4EsvaZW","playlistName":"كتاب التيسير المعين بشرح معاني منازل السائرين (تصوف) - د.يسري جبر","category":"تصوف"},{"id":"Hl2oQVDXl64","title":"شرح كتاب الرسالة القشيرية - المجلس الثالث (المقدمة 2)","publishedAt":"2017-11-24T07:59:14Z","duration":"PT1H50S","thumbnail":"https://i.ytimg.com/vi/Hl2oQVDXl64/mqdefault.jpg","viewCount":"21977","playlistId":"PLEkQk5xrP-tkHAGOwIKr4pc5ehhyQ5HMJ","playlistName":"كتاب الرسالة القشيرية (تصوف) - د. يسري جبر","category":"تصوف"},{"id":"qfWqsy7PwQE","title":"الرسالة القشيرية - المجلس (98) بَابُ المحبة | أ.د. يسري جبر","publishedAt":"2021-11-10T19:06:18Z","duration":"PT1H3M46S","thumbnail":"https://i.ytimg.com/vi/qfWqsy7PwQE/mqdefault.jpg","viewCount":"25291","playlistId":"PLEkQk5xrP-tkHAGOwIKr4pc5ehhyQ5HMJ","playlistName":"كتاب الرسالة القشيرية (تصوف) - د. يسري جبر","category":"تصوف"},{"id":"Q9DfXCqScn8","title":"الرسالة القشيرية - المجلس السابع والأربعون - باب الزهد - أ.د. يسري جبر","publishedAt":"2019-02-02T14:23:37Z","duration":"PT49M24S","thumbnail":"https://i.ytimg.com/vi/Q9DfXCqScn8/mqdefault.jpg","viewCount":"5197","playlistId":"PLEkQk5xrP-tkHAGOwIKr4pc5ehhyQ5HMJ","playlistName":"كتاب الرسالة القشيرية (تصوف) - د. يسري جبر","category":"تصوف"},{"id":"GxC3BwxuV4w","title":"شرح منازل السائرين - المجلس (25) باب الرجاء | أ.د. يسري جبر","publishedAt":"2023-02-08T18:00:11Z","duration":"PT45M56S","thumbnail":"https://i.ytimg.com/vi/GxC3BwxuV4w/mqdefault.jpg","viewCount":"5956","playlistId":"PLEkQk5xrP-tmiUfQ-2Tsn7QIak4EsvaZW","playlistName":"كتاب التيسير المعين بشرح معاني منازل السائرين (تصوف) - د.يسري جبر","category":"تصوف"},{"id":"7yfZ_aSM8Rw","title":"‎ الرسالة القشيرية - المجلس (79) بَابُ الفِرَاسَةِ ٢. أ.د. يسري جبر","publishedAt":"2020-01-26T21:21:36Z","duration":"PT50M9S","thumbnail":"https://i.ytimg.com/vi/7yfZ_aSM8Rw/mqdefault.jpg","viewCount":"3458","playlistId":"PLEkQk5xrP-tkHAGOwIKr4pc5ehhyQ5HMJ","playlistName":"كتاب الرسالة القشيرية (تصوف) - د. يسري جبر","category":"تصوف"}],"total":241,"page":8,"pageSize":24,"totalPages":11}