{"items":[{"id":"4qKENDf3XPE","title":"الرسالة القشيرية - المجلس (50) تكملة باب الصمت - باب الخوف أ.د. يسري جبر","publishedAt":"2019-03-13T15:23:36Z","duration":"PT53M34S","thumbnail":"https://i.ytimg.com/vi/4qKENDf3XPE/mqdefault.jpg","viewCount":"7951","playlistId":"PLEkQk5xrP-tkHAGOwIKr4pc5ehhyQ5HMJ","playlistName":"كتاب الرسالة القشيرية (تصوف) - د. يسري جبر","category":"تصوف"},{"id":"qfWqsy7PwQE","title":"الرسالة القشيرية - المجلس (98) بَابُ المحبة | أ.د. يسري جبر","publishedAt":"2021-11-10T19:06:18Z","duration":"PT1H3M46S","thumbnail":"https://i.ytimg.com/vi/qfWqsy7PwQE/mqdefault.jpg","viewCount":"25291","playlistId":"PLEkQk5xrP-tkHAGOwIKr4pc5ehhyQ5HMJ","playlistName":"كتاب الرسالة القشيرية (تصوف) - د. يسري جبر","category":"تصوف"},{"id":"Q9DfXCqScn8","title":"الرسالة القشيرية - المجلس السابع والأربعون - باب الزهد - أ.د. يسري جبر","publishedAt":"2019-02-02T14:23:37Z","duration":"PT49M24S","thumbnail":"https://i.ytimg.com/vi/Q9DfXCqScn8/mqdefault.jpg","viewCount":"5197","playlistId":"PLEkQk5xrP-tkHAGOwIKr4pc5ehhyQ5HMJ","playlistName":"كتاب الرسالة القشيرية (تصوف) - د. يسري جبر","category":"تصوف"},{"id":"5HVPVJs--OM","title":"الرسالة القشيرية المجلس السادس والأربعون - باب الورع - أ.د. يسري جبر","publishedAt":"2019-01-29T07:21:46Z","duration":"PT1H11M52S","thumbnail":"https://i.ytimg.com/vi/5HVPVJs--OM/mqdefault.jpg","viewCount":"6108","playlistId":"PLEkQk5xrP-tkHAGOwIKr4pc5ehhyQ5HMJ","playlistName":"كتاب الرسالة القشيرية (تصوف) - د. يسري جبر","category":"تصوف"},{"id":"gLdJRej8J9k","title":"الرسالة القشيرية - المجلس (97) بَابُ المعرفة بالله ۲ | أ.د. يسري جبر","publishedAt":"2021-11-02T19:00:11Z","duration":"PT1H9M41S","thumbnail":"https://i.ytimg.com/vi/gLdJRej8J9k/mqdefault.jpg","viewCount":"30649","playlistId":"PLEkQk5xrP-tkHAGOwIKr4pc5ehhyQ5HMJ","playlistName":"كتاب الرسالة القشيرية (تصوف) - د. يسري جبر","category":"تصوف"},{"id":"nctWHmx0hpA","title":"الرسالة القشيرية - المجلس العشرون - باب في ذكر مشايخ هذه الطريقة - المجلس الثاني عشر","publishedAt":"2018-07-03T18:19:18Z","duration":"PT51M5S","thumbnail":"https://i.ytimg.com/vi/nctWHmx0hpA/mqdefault.jpg","viewCount":"5580","playlistId":"PLEkQk5xrP-tkHAGOwIKr4pc5ehhyQ5HMJ","playlistName":"كتاب الرسالة القشيرية (تصوف) - د. يسري جبر","category":"تصوف"},{"id":"KgukMU92Tr8","title":"الرسالة القشيرية-المجلس الثالث و العشرون- باب في تفسير ألفاظ تدور بين هذه الطائفة وبيان ما يشكل منها","publishedAt":"2018-07-19T18:35:04Z","duration":"PT50M11S","thumbnail":"https://i.ytimg.com/vi/KgukMU92Tr8/mqdefault.jpg","viewCount":"7282","playlistId":"PLEkQk5xrP-tkHAGOwIKr4pc5ehhyQ5HMJ","playlistName":"كتاب الرسالة القشيرية (تصوف) - د. يسري جبر","category":"تصوف"},{"id":"1y8T7IVVWO8","title":"الرسالة القشيرية - المجلس (60)  بابُ التَّوَكُّلِ. أ.د. يسري جبر","publishedAt":"2019-08-06T01:05:45Z","duration":"PT48M58S","thumbnail":"https://i.ytimg.com/vi/1y8T7IVVWO8/mqdefault.jpg","viewCount":"8301","playlistId":"PLEkQk5xrP-tkHAGOwIKr4pc5ehhyQ5HMJ","playlistName":"كتاب الرسالة القشيرية (تصوف) - د. يسري جبر","category":"تصوف"},{"id":"vaGOHWJ-UDo","title":"الرسالة القشيرية - المجلس (59) بابُ القَنَاعَة. أ.د. يسري جبر","publishedAt":"2019-07-27T17:26:28Z","duration":"PT50M44S","thumbnail":"https://i.ytimg.com/vi/vaGOHWJ-UDo/mqdefault.jpg","viewCount":"5262","playlistId":"PLEkQk5xrP-tkHAGOwIKr4pc5ehhyQ5HMJ","playlistName":"كتاب الرسالة القشيرية (تصوف) - د. يسري جبر","category":"تصوف"},{"id":"3mvDWiHMrz0","title":"شرح منازل السائرين - المجلس (26) باب الرغبة | أ.د. يسري جبر","publishedAt":"2023-02-15T18:00:01Z","duration":"PT47M34S","thumbnail":"https://i.ytimg.com/vi/3mvDWiHMrz0/mqdefault.jpg","viewCount":"5005","playlistId":"PLEkQk5xrP-tmiUfQ-2Tsn7QIak4EsvaZW","playlistName":"كتاب التيسير المعين بشرح معاني منازل السائرين (تصوف) - د.يسري جبر","category":"تصوف"},{"id":"GxC3BwxuV4w","title":"شرح منازل السائرين - المجلس (25) باب الرجاء | أ.د. يسري جبر","publishedAt":"2023-02-08T18:00:11Z","duration":"PT45M56S","thumbnail":"https://i.ytimg.com/vi/GxC3BwxuV4w/mqdefault.jpg","viewCount":"5956","playlistId":"PLEkQk5xrP-tmiUfQ-2Tsn7QIak4EsvaZW","playlistName":"كتاب التيسير المعين بشرح معاني منازل السائرين (تصوف) - د.يسري جبر","category":"تصوف"},{"id":"XQZHYD3kKDY","title":"الرسالة القشيرية - المجلس (58) بابُ الحَسَدِ وبابُ الغِيبَة أ.د. يسري جبر","publishedAt":"2019-07-20T19:09:20Z","duration":"PT47M30S","thumbnail":"https://i.ytimg.com/vi/XQZHYD3kKDY/mqdefault.jpg","viewCount":"6754","playlistId":"PLEkQk5xrP-tkHAGOwIKr4pc5ehhyQ5HMJ","playlistName":"كتاب الرسالة القشيرية (تصوف) - د. يسري جبر","category":"تصوف"},{"id":"kAwsLwlB92U","title":"الرسالة القشيرية - المجلس التاسع والأربعون - باب الصمت - أ.د. يسري جبر","publishedAt":"2019-02-15T14:52:26Z","duration":"PT52M49S","thumbnail":"https://i.ytimg.com/vi/kAwsLwlB92U/mqdefault.jpg","viewCount":"9797","playlistId":"PLEkQk5xrP-tkHAGOwIKr4pc5ehhyQ5HMJ","playlistName":"كتاب الرسالة القشيرية (تصوف) - د. يسري جبر","category":"تصوف"},{"id":"vxhbzGROpgw","title":"الرسالة القشيرية - المجلس الثامن والأربعون - تكملة باب الزهد - أ.د. يسري جبر","publishedAt":"2019-02-09T18:24:36Z","duration":"PT42M35S","thumbnail":"https://i.ytimg.com/vi/vxhbzGROpgw/mqdefault.jpg","viewCount":"3785","playlistId":"PLEkQk5xrP-tkHAGOwIKr4pc5ehhyQ5HMJ","playlistName":"كتاب الرسالة القشيرية (تصوف) - د. يسري جبر","category":"تصوف"},{"id":"OjOHb09p8h0","title":"59- متى يعصمك الله من الذنوب والمعاصي؟ | شرح منازل السائرين","publishedAt":"2025-04-22T19:01:17Z","duration":"PT38M","thumbnail":"https://i.ytimg.com/vi/OjOHb09p8h0/mqdefault.jpg","viewCount":"8375","playlistId":"PLEkQk5xrP-tmiUfQ-2Tsn7QIak4EsvaZW","playlistName":"كتاب التيسير المعين بشرح معاني منازل السائرين (تصوف) - د.يسري جبر","category":"تصوف"},{"id":"qKwaxuW3dtY","title":"شرح منازل السائرين - المجلس (19) باب الإشفاق | أ.د. يسري جبر","publishedAt":"2022-12-21T18:00:46Z","duration":"PT38M54S","thumbnail":"https://i.ytimg.com/vi/qKwaxuW3dtY/mqdefault.jpg","viewCount":"4692","playlistId":"PLEkQk5xrP-tmiUfQ-2Tsn7QIak4EsvaZW","playlistName":"كتاب التيسير المعين بشرح معاني منازل السائرين (تصوف) - د.يسري جبر","category":"تصوف"},{"id":"PG2ihpFDd5Y","title":"(35) سيدنا أبو عبد الله محمد بن علي الترمذي رضي الله عنه  د. يسري جبر","publishedAt":"2018-09-12T19:25:08Z","duration":"PT3M53S","thumbnail":"https://i.ytimg.com/vi/PG2ihpFDd5Y/mqdefault.jpg","viewCount":"823","playlistId":"PLEkQk5xrP-tmmI87XkWepRdTpisz2Lfgr","playlistName":"باب في ذكر مشايخ هذه الطريقة من شرح كتاب الرسالة القشيرية","category":"تصوف"},{"id":"e3hibHMurc0","title":"الرسالة القشيرية - المجلس الثامن و العشرون - الفناء والبقاء.","publishedAt":"2018-09-11T18:20:32Z","duration":"PT1H3M31S","thumbnail":"https://i.ytimg.com/vi/e3hibHMurc0/mqdefault.jpg","viewCount":"10706","playlistId":"PLEkQk5xrP-tkHAGOwIKr4pc5ehhyQ5HMJ","playlistName":"كتاب الرسالة القشيرية (تصوف) - د. يسري جبر","category":"تصوف"},{"id":"I7hqqeDRliM","title":"الرحمة بالإنسان والحيوان","publishedAt":"2020-04-16T14:12:29Z","duration":"PT50M32S","thumbnail":"https://i.ytimg.com/vi/I7hqqeDRliM/mqdefault.jpg","viewCount":"1085","playlistId":"PLEkQk5xrP-tlhpr-bJBjCsJw3j1S-LD9B","playlistName":"كتابُ الأدَبِ - المجلس الأول  أ.د. يسري جبر","category":"تصوف"},{"id":"mibMPmBYRtM","title":"ليسَ الوَاصِلُ بالمُكاَفِئ    أ.د. يسري جبر","publishedAt":"2020-04-14T17:35:19Z","duration":"PT50M11S","thumbnail":"https://i.ytimg.com/vi/mibMPmBYRtM/mqdefault.jpg","viewCount":"1260","playlistId":"PLEkQk5xrP-tlhpr-bJBjCsJw3j1S-LD9B","playlistName":"كتابُ الأدَبِ - المجلس الأول  أ.د. يسري جبر","category":"تصوف"},{"id":"_bEQCIYiK-c","title":"٢- البِرُّ والصِّلَةُ   أ.د. يسري جبر","publishedAt":"2020-04-13T21:24:37Z","duration":"PT25M3S","thumbnail":"https://i.ytimg.com/vi/_bEQCIYiK-c/mqdefault.jpg","viewCount":"1179","playlistId":"PLEkQk5xrP-tlhpr-bJBjCsJw3j1S-LD9B","playlistName":"كتابُ الأدَبِ - المجلس الأول  أ.د. يسري جبر","category":"تصوف"},{"id":"W6JSGxD5aqg","title":"عُقُوقُ الوَالدَيْنِ  أ.د. يسري جبر","publishedAt":"2020-04-12T11:55:25Z","duration":"PT42M43S","thumbnail":"https://i.ytimg.com/vi/W6JSGxD5aqg/mqdefault.jpg","viewCount":"1928","playlistId":"PLEkQk5xrP-tlhpr-bJBjCsJw3j1S-LD9B","playlistName":"كتابُ الأدَبِ - المجلس الأول  أ.د. يسري جبر","category":"تصوف"},{"id":"NNNEfsXKhZ4","title":"البِرُّ والصِّلَةُ. أ.د.  يسري جبر","publishedAt":"2020-04-11T11:25:52Z","duration":"PT50M54S","thumbnail":"https://i.ytimg.com/vi/NNNEfsXKhZ4/mqdefault.jpg","viewCount":"2380","playlistId":"PLEkQk5xrP-tlhpr-bJBjCsJw3j1S-LD9B","playlistName":"كتابُ الأدَبِ - المجلس الأول  أ.د. يسري جبر","category":"تصوف"},{"id":"09ENj-0GgiQ","title":"الرسالة القشيرية المجلس الثلاثون (الصَحْو والسُكْر - الذَوق والشُرب) د. يسري جبر","publishedAt":"2018-10-06T17:29:22Z","duration":"PT45M31S","thumbnail":"https://i.ytimg.com/vi/09ENj-0GgiQ/mqdefault.jpg","viewCount":"6969","playlistId":"PLEkQk5xrP-tkHAGOwIKr4pc5ehhyQ5HMJ","playlistName":"كتاب الرسالة القشيرية (تصوف) - د. يسري جبر","category":"تصوف"}],"total":241,"page":9,"pageSize":24,"totalPages":11}