{"items":[{"id":"pazss1wyxzs","title":"شرح كتاب الرسالة القشيرية - المجلس الرابع - الفصل الأول (1)","publishedAt":"2017-12-07T13:11:40Z","duration":"PT56M16S","thumbnail":"https://i.ytimg.com/vi/pazss1wyxzs/mqdefault.jpg","viewCount":"21460","playlistId":"PLEkQk5xrP-tkHAGOwIKr4pc5ehhyQ5HMJ","playlistName":"كتاب الرسالة القشيرية (تصوف) - د. يسري جبر","category":"تصوف"},{"id":"Hl2oQVDXl64","title":"شرح كتاب الرسالة القشيرية - المجلس الثالث (المقدمة 2)","publishedAt":"2017-11-24T07:59:14Z","duration":"PT1H50S","thumbnail":"https://i.ytimg.com/vi/Hl2oQVDXl64/mqdefault.jpg","viewCount":"21977","playlistId":"PLEkQk5xrP-tkHAGOwIKr4pc5ehhyQ5HMJ","playlistName":"كتاب الرسالة القشيرية (تصوف) - د. يسري جبر","category":"تصوف"},{"id":"Y3SmvO9np-I","title":"الرسالة القشيرية - المجلس (90) بَابُ التصوف۲ | أ.د. يسري جبر","publishedAt":"2021-09-15T19:30:04Z","duration":"PT58M20S","thumbnail":"https://i.ytimg.com/vi/Y3SmvO9np-I/mqdefault.jpg","viewCount":"7900","playlistId":"PLEkQk5xrP-tkHAGOwIKr4pc5ehhyQ5HMJ","playlistName":"كتاب الرسالة القشيرية (تصوف) - د. يسري جبر","category":"تصوف"},{"id":"3Oe4eDbxcP8","title":"شرح كتاب الرسالة القشيرية - المجلس الثاني (المقدمة)","publishedAt":"2017-11-16T19:27:34Z","duration":"PT53M5S","thumbnail":"https://i.ytimg.com/vi/3Oe4eDbxcP8/mqdefault.jpg","viewCount":"27117","playlistId":"PLEkQk5xrP-tkHAGOwIKr4pc5ehhyQ5HMJ","playlistName":"كتاب الرسالة القشيرية (تصوف) - د. يسري جبر","category":"تصوف"},{"id":"ChJ-PfHp0YE","title":"شرح كتاب الرسالة القشيرية - (المجلس الأول) د. يسري جبر","publishedAt":"2017-11-10T07:17:24Z","duration":"PT53M14S","thumbnail":"https://i.ytimg.com/vi/ChJ-PfHp0YE/mqdefault.jpg","viewCount":"65222","playlistId":"PLEkQk5xrP-tkHAGOwIKr4pc5ehhyQ5HMJ","playlistName":"كتاب الرسالة القشيرية (تصوف) - د. يسري جبر","category":"تصوف"},{"id":"ZLGMkzhC_98","title":"الرسالة القشيرية - المجلس (89) بَابُ التصوف | أ.د. يسري جبر","publishedAt":"2021-09-08T18:15:02Z","duration":"PT58M22S","thumbnail":"https://i.ytimg.com/vi/ZLGMkzhC_98/mqdefault.jpg","viewCount":"8119","playlistId":"PLEkQk5xrP-tkHAGOwIKr4pc5ehhyQ5HMJ","playlistName":"كتاب الرسالة القشيرية (تصوف) - د. يسري جبر","category":"تصوف"},{"id":"9cSUenkpB20","title":"الرسالة القشيرية - المجلس (88) بَابُ الفقر ۳ | أ.د. يسري جبر","publishedAt":"2021-09-01T18:30:11Z","duration":"PT47M30S","thumbnail":"https://i.ytimg.com/vi/9cSUenkpB20/mqdefault.jpg","viewCount":"4042","playlistId":"PLEkQk5xrP-tkHAGOwIKr4pc5ehhyQ5HMJ","playlistName":"كتاب الرسالة القشيرية (تصوف) - د. يسري جبر","category":"تصوف"},{"id":"CrTwIClUFLo","title":"48- كيف أتخلص من الكبر؟ وما هو التواضع؟ | شرح منازل السائرين","publishedAt":"2024-08-21T17:00:21Z","duration":"PT41M11S","thumbnail":"https://i.ytimg.com/vi/CrTwIClUFLo/mqdefault.jpg","viewCount":"4491","playlistId":"PLEkQk5xrP-tmiUfQ-2Tsn7QIak4EsvaZW","playlistName":"كتاب التيسير المعين بشرح معاني منازل السائرين (تصوف) - د.يسري جبر","category":"تصوف"},{"id":"sV-7yhg9I1Q","title":"الرسالة القشيرية - المجلس (87) بَابُ الفقر (۲) | أ.د. يسري جبر","publishedAt":"2021-08-24T19:00:12Z","duration":"PT51M33S","thumbnail":"https://i.ytimg.com/vi/sV-7yhg9I1Q/mqdefault.jpg","viewCount":"5461","playlistId":"PLEkQk5xrP-tkHAGOwIKr4pc5ehhyQ5HMJ","playlistName":"كتاب الرسالة القشيرية (تصوف) - د. يسري جبر","category":"تصوف"},{"id":"oDwbMNiVSc4","title":"الرسالة القشيرية - المجلس (86) بَابُ الفقر | أ.د. يسري جبر","publishedAt":"2021-08-14T17:26:14Z","duration":"PT54M7S","thumbnail":"https://i.ytimg.com/vi/oDwbMNiVSc4/mqdefault.jpg","viewCount":"8328","playlistId":"PLEkQk5xrP-tkHAGOwIKr4pc5ehhyQ5HMJ","playlistName":"كتاب الرسالة القشيرية (تصوف) - د. يسري جبر","category":"تصوف"},{"id":"VXjzV2eAV60","title":"شرح منازل السائرين - المجلس (47) درجات باب الخُلُق | أ.د. يسري جبر","publishedAt":"2024-07-24T17:56:04Z","duration":"PT35M37S","thumbnail":"https://i.ytimg.com/vi/VXjzV2eAV60/mqdefault.jpg","viewCount":"2603","playlistId":"PLEkQk5xrP-tmiUfQ-2Tsn7QIak4EsvaZW","playlistName":"كتاب التيسير المعين بشرح معاني منازل السائرين (تصوف) - د.يسري جبر","category":"تصوف"},{"id":"gdwTyVFdGM8","title":"60- كيف تصل إلى مقام الإحسان؟ | شرح منازل السائرين","publishedAt":"2025-05-08T18:00:41Z","duration":"PT47M18S","thumbnail":"https://i.ytimg.com/vi/gdwTyVFdGM8/mqdefault.jpg","viewCount":"5721","playlistId":"PLEkQk5xrP-tmiUfQ-2Tsn7QIak4EsvaZW","playlistName":"كتاب التيسير المعين بشرح معاني منازل السائرين (تصوف) - د.يسري جبر","category":"تصوف"},{"id":"LJA4G2XXyQA","title":"شرح منازل السائرين - المجلس (46) مقدمة باب الخُلُق | أ.د. يسري جبر","publishedAt":"2024-05-29T18:38:10Z","duration":"PT53M14S","thumbnail":"https://i.ytimg.com/vi/LJA4G2XXyQA/mqdefault.jpg","viewCount":"4132","playlistId":"PLEkQk5xrP-tmiUfQ-2Tsn7QIak4EsvaZW","playlistName":"كتاب التيسير المعين بشرح معاني منازل السائرين (تصوف) - د.يسري جبر","category":"تصوف"},{"id":"TfKVUZKhQ0o","title":"69- ما مفاتيح علو الهمة عند المسلم؟ | شرح منازل السائرين","publishedAt":"2025-10-30T18:00:27Z","duration":"PT29M34S","thumbnail":"https://i.ytimg.com/vi/TfKVUZKhQ0o/mqdefault.jpg","viewCount":"3387","playlistId":"PLEkQk5xrP-tmiUfQ-2Tsn7QIak4EsvaZW","playlistName":"كتاب التيسير المعين بشرح معاني منازل السائرين (تصوف) - د.يسري جبر","category":"تصوف"},{"id":"F26vx0wFNa8","title":"شرح منازل السائرين - المجلس (45) باب الإيثار | أ.د. يسري جبر","publishedAt":"2024-05-23T17:00:14Z","duration":"PT46M28S","thumbnail":"https://i.ytimg.com/vi/F26vx0wFNa8/mqdefault.jpg","viewCount":"3519","playlistId":"PLEkQk5xrP-tmiUfQ-2Tsn7QIak4EsvaZW","playlistName":"كتاب التيسير المعين بشرح معاني منازل السائرين (تصوف) - د.يسري جبر","category":"تصوف"},{"id":"MbfuLctly6Q","title":"شرح منازل السائرين - المجلس (44) باب الصدق | أ.د. يسري جبر","publishedAt":"2024-05-16T17:15:00Z","duration":"PT40M54S","thumbnail":"https://i.ytimg.com/vi/MbfuLctly6Q/mqdefault.jpg","viewCount":"4266","playlistId":"PLEkQk5xrP-tmiUfQ-2Tsn7QIak4EsvaZW","playlistName":"كتاب التيسير المعين بشرح معاني منازل السائرين (تصوف) - د.يسري جبر","category":"تصوف"},{"id":"umeQUL53_3A","title":"شرح منازل السائرين - المجلس (43) باب الحياء | أ.د. يسري جبر","publishedAt":"2024-05-09T17:35:37Z","duration":"PT45M33S","thumbnail":"https://i.ytimg.com/vi/umeQUL53_3A/mqdefault.jpg","viewCount":"4376","playlistId":"PLEkQk5xrP-tmiUfQ-2Tsn7QIak4EsvaZW","playlistName":"كتاب التيسير المعين بشرح معاني منازل السائرين (تصوف) - د.يسري جبر","category":"تصوف"},{"id":"92Y1dBpr-lI","title":"شرح منازل السائرين - المجلس (42) باب الشكر | أ.د. يسري جبر","publishedAt":"2024-05-01T19:15:32Z","duration":"PT42M32S","thumbnail":"https://i.ytimg.com/vi/92Y1dBpr-lI/mqdefault.jpg","viewCount":"5617","playlistId":"PLEkQk5xrP-tmiUfQ-2Tsn7QIak4EsvaZW","playlistName":"كتاب التيسير المعين بشرح معاني منازل السائرين (تصوف) - د.يسري جبر","category":"تصوف"},{"id":"Yy1JynmJfxg","title":"شرح منازل السائرين - المجلس (41) باب الرضا | أ.د. يسري جبر","publishedAt":"2024-04-24T18:33:49Z","duration":"PT40M47S","thumbnail":"https://i.ytimg.com/vi/Yy1JynmJfxg/mqdefault.jpg","viewCount":"7150","playlistId":"PLEkQk5xrP-tmiUfQ-2Tsn7QIak4EsvaZW","playlistName":"كتاب التيسير المعين بشرح معاني منازل السائرين (تصوف) - د.يسري جبر","category":"تصوف"},{"id":"RBKyv3Kyi2I","title":"شرح منازل السائرين - المجلس (40) درجات باب الصبر | أ.د. يسري جبر","publishedAt":"2024-04-17T17:59:55Z","duration":"PT42M21S","thumbnail":"https://i.ytimg.com/vi/RBKyv3Kyi2I/mqdefault.jpg","viewCount":"6513","playlistId":"PLEkQk5xrP-tmiUfQ-2Tsn7QIak4EsvaZW","playlistName":"كتاب التيسير المعين بشرح معاني منازل السائرين (تصوف) - د.يسري جبر","category":"تصوف"},{"id":"oCqYo1t7-Bk","title":"شرح منازل السائرين - المجلس (39) مقدمة باب الصبر | أ.د. يسري جبر","publishedAt":"2024-03-06T18:00:35Z","duration":"PT37M18S","thumbnail":"https://i.ytimg.com/vi/oCqYo1t7-Bk/mqdefault.jpg","viewCount":"4387","playlistId":"PLEkQk5xrP-tmiUfQ-2Tsn7QIak4EsvaZW","playlistName":"كتاب التيسير المعين بشرح معاني منازل السائرين (تصوف) - د.يسري جبر","category":"تصوف"},{"id":"yk-tOpadu58","title":"شرح منازل السائرين - المجلس (38) باب التسليم | أ.د. يسري جبر","publishedAt":"2024-02-28T18:30:47Z","duration":"PT48M11S","thumbnail":"https://i.ytimg.com/vi/yk-tOpadu58/mqdefault.jpg","viewCount":"11038","playlistId":"PLEkQk5xrP-tmiUfQ-2Tsn7QIak4EsvaZW","playlistName":"كتاب التيسير المعين بشرح معاني منازل السائرين (تصوف) - د.يسري جبر","category":"تصوف"},{"id":"jFFSWh5Of4U","title":"شرح منازل السائرين - المجلس (37) باب الثقة | أ.د. يسري جبر","publishedAt":"2024-02-20T18:00:27Z","duration":"PT32M40S","thumbnail":"https://i.ytimg.com/vi/jFFSWh5Of4U/mqdefault.jpg","viewCount":"7059","playlistId":"PLEkQk5xrP-tmiUfQ-2Tsn7QIak4EsvaZW","playlistName":"كتاب التيسير المعين بشرح معاني منازل السائرين (تصوف) - د.يسري جبر","category":"تصوف"},{"id":"BrxVyn4uKL0","title":"شرح منازل السائرين - المجلس (36) باب التفويض | أ.د. يسري جبر","publishedAt":"2024-02-08T18:30:11Z","duration":"PT34M15S","thumbnail":"https://i.ytimg.com/vi/BrxVyn4uKL0/mqdefault.jpg","viewCount":"8794","playlistId":"PLEkQk5xrP-tmiUfQ-2Tsn7QIak4EsvaZW","playlistName":"كتاب التيسير المعين بشرح معاني منازل السائرين (تصوف) - د.يسري جبر","category":"تصوف"}],"total":241,"page":5,"pageSize":24,"totalPages":11}