{"items":[{"id":"8RNyVUfw9lw","title":"شرح منازل السائرين - المجلس (27) باب الرعاية | أ.د. يسري جبر","publishedAt":"2023-05-17T18:00:02Z","duration":"PT42M55S","thumbnail":"https://i.ytimg.com/vi/8RNyVUfw9lw/mqdefault.jpg","viewCount":"4262","playlistId":"PLEkQk5xrP-tmiUfQ-2Tsn7QIak4EsvaZW","playlistName":"كتاب التيسير المعين بشرح معاني منازل السائرين (تصوف) - د.يسري جبر","category":"تصوف"},{"id":"9cSUenkpB20","title":"الرسالة القشيرية - المجلس (88) بَابُ الفقر ۳ | أ.د. يسري جبر","publishedAt":"2021-09-01T18:30:11Z","duration":"PT47M30S","thumbnail":"https://i.ytimg.com/vi/9cSUenkpB20/mqdefault.jpg","viewCount":"4042","playlistId":"PLEkQk5xrP-tkHAGOwIKr4pc5ehhyQ5HMJ","playlistName":"كتاب الرسالة القشيرية (تصوف) - د. يسري جبر","category":"تصوف"},{"id":"68woQ3PXSeA","title":"58- ما هو الفقر الحقيقي وكيف تكون غنيا بالله؟ | شرح منازل السائرين","publishedAt":"2025-01-15T19:30:58Z","duration":"PT55M3S","thumbnail":"https://i.ytimg.com/vi/68woQ3PXSeA/mqdefault.jpg","viewCount":"7547","playlistId":"PLEkQk5xrP-tmiUfQ-2Tsn7QIak4EsvaZW","playlistName":"كتاب التيسير المعين بشرح معاني منازل السائرين (تصوف) - د.يسري جبر","category":"تصوف"},{"id":"FX4BsGq5rig","title":"57- كيف تذكر الله بقلبك وما هي أنواع الذكر؟ | شرح منازل السائرين","publishedAt":"2025-01-07T18:15:00Z","duration":"PT30M53S","thumbnail":"https://i.ytimg.com/vi/FX4BsGq5rig/mqdefault.jpg","viewCount":"19268","playlistId":"PLEkQk5xrP-tmiUfQ-2Tsn7QIak4EsvaZW","playlistName":"كتاب التيسير المعين بشرح معاني منازل السائرين (تصوف) - د.يسري جبر","category":"تصوف"},{"id":"vxhbzGROpgw","title":"الرسالة القشيرية - المجلس الثامن والأربعون - تكملة باب الزهد - أ.د. يسري جبر","publishedAt":"2019-02-09T18:24:36Z","duration":"PT42M35S","thumbnail":"https://i.ytimg.com/vi/vxhbzGROpgw/mqdefault.jpg","viewCount":"3785","playlistId":"PLEkQk5xrP-tkHAGOwIKr4pc5ehhyQ5HMJ","playlistName":"كتاب الرسالة القشيرية (تصوف) - د. يسري جبر","category":"تصوف"},{"id":"cT0tPM83BqM","title":"(11) سيدنا أبو محمد سهل بن عبد الله التُّستَري رضي الله عنه   د. يسري جبر","publishedAt":"2018-04-12T18:31:40Z","duration":"PT14M31S","thumbnail":"https://i.ytimg.com/vi/cT0tPM83BqM/mqdefault.jpg","viewCount":"8389","playlistId":"PLEkQk5xrP-tmmI87XkWepRdTpisz2Lfgr","playlistName":"باب في ذكر مشايخ هذه الطريقة من شرح كتاب الرسالة القشيرية","category":"تصوف"},{"id":"xfLN5b403z8","title":"(10) سيدنا أبو يزيد طيفور بن عيسى البسطامي رضي الله عنه   د. يسري جبر","publishedAt":"2018-04-12T17:00:33Z","duration":"PT25M36S","thumbnail":"https://i.ytimg.com/vi/xfLN5b403z8/mqdefault.jpg","viewCount":"33937","playlistId":"PLEkQk5xrP-tmmI87XkWepRdTpisz2Lfgr","playlistName":"باب في ذكر مشايخ هذه الطريقة من شرح كتاب الرسالة القشيرية","category":"تصوف"},{"id":"yi2wA1JM7jU","title":"(9) سيدنا أبو علي شقيق بن إبراهيم البلخي رضي الله عنه  د. يسري جبر","publishedAt":"2018-04-09T18:25:03Z","duration":"PT21M41S","thumbnail":"https://i.ytimg.com/vi/yi2wA1JM7jU/mqdefault.jpg","viewCount":"10132","playlistId":"PLEkQk5xrP-tmmI87XkWepRdTpisz2Lfgr","playlistName":"باب في ذكر مشايخ هذه الطريقة من شرح كتاب الرسالة القشيرية","category":"تصوف"},{"id":"AJj_1HAQJp4","title":"(8) سيدنا أبو سليمان داود بن نُصَير الطائي رضي الله عنه   د. يسري جبر","publishedAt":"2018-04-09T18:07:36Z","duration":"PT14M6S","thumbnail":"https://i.ytimg.com/vi/AJj_1HAQJp4/mqdefault.jpg","viewCount":"5358","playlistId":"PLEkQk5xrP-tmmI87XkWepRdTpisz2Lfgr","playlistName":"باب في ذكر مشايخ هذه الطريقة من شرح كتاب الرسالة القشيرية","category":"تصوف"},{"id":"Nbh-PGcyRb4","title":"(7) سيدنا أبو عبد الله الحارث بن أسد المحاسبي رضي الله عنه د. يسري جبر","publishedAt":"2018-04-09T11:35:54Z","duration":"PT21M6S","thumbnail":"https://i.ytimg.com/vi/Nbh-PGcyRb4/mqdefault.jpg","viewCount":"13546","playlistId":"PLEkQk5xrP-tmmI87XkWepRdTpisz2Lfgr","playlistName":"باب في ذكر مشايخ هذه الطريقة من شرح كتاب الرسالة القشيرية","category":"تصوف"},{"id":"BeadQpCbJHM","title":"الرسالة القشيرية - المجلس الخامس عشر (باب في ذكر مشايخ هذه الطريقة - المجلس السابع)","publishedAt":"2018-04-09T11:34:47Z","duration":"PT54M28S","thumbnail":"https://i.ytimg.com/vi/BeadQpCbJHM/mqdefault.jpg","viewCount":"7414","playlistId":"PLEkQk5xrP-tkHAGOwIKr4pc5ehhyQ5HMJ","playlistName":"كتاب الرسالة القشيرية (تصوف) - د. يسري جبر","category":"تصوف"},{"id":"kkfMynY944E","title":"الرسالة القشيرية - المجلس العاشر (باب في ذكر مشايخ هذه الطريقة - المجلس الثاني)","publishedAt":"2018-02-08T12:36:57Z","duration":"PT47M48S","thumbnail":"https://i.ytimg.com/vi/kkfMynY944E/mqdefault.jpg","viewCount":"10463","playlistId":"PLEkQk5xrP-tkHAGOwIKr4pc5ehhyQ5HMJ","playlistName":"كتاب الرسالة القشيرية (تصوف) - د. يسري جبر","category":"تصوف"},{"id":"ez6smYMpgnA","title":"الرسالة القشيرية المجلس الخامس والأربعون - باب التقوى.   أ.د. يسري جبر","publishedAt":"2019-01-22T19:19:48Z","duration":"PT54M14S","thumbnail":"https://i.ytimg.com/vi/ez6smYMpgnA/mqdefault.jpg","viewCount":"6527","playlistId":"PLEkQk5xrP-tkHAGOwIKr4pc5ehhyQ5HMJ","playlistName":"كتاب الرسالة القشيرية (تصوف) - د. يسري جبر","category":"تصوف"},{"id":"OjOHb09p8h0","title":"59- متى يعصمك الله من الذنوب والمعاصي؟ | شرح منازل السائرين","publishedAt":"2025-04-22T19:01:17Z","duration":"PT38M","thumbnail":"https://i.ytimg.com/vi/OjOHb09p8h0/mqdefault.jpg","viewCount":"8375","playlistId":"PLEkQk5xrP-tmiUfQ-2Tsn7QIak4EsvaZW","playlistName":"كتاب التيسير المعين بشرح معاني منازل السائرين (تصوف) - د.يسري جبر","category":"تصوف"},{"id":"qKwaxuW3dtY","title":"شرح منازل السائرين - المجلس (19) باب الإشفاق | أ.د. يسري جبر","publishedAt":"2022-12-21T18:00:46Z","duration":"PT38M54S","thumbnail":"https://i.ytimg.com/vi/qKwaxuW3dtY/mqdefault.jpg","viewCount":"4692","playlistId":"PLEkQk5xrP-tmiUfQ-2Tsn7QIak4EsvaZW","playlistName":"كتاب التيسير المعين بشرح معاني منازل السائرين (تصوف) - د.يسري جبر","category":"تصوف"},{"id":"Gn-iak3IctI","title":"الرسالة القشيرية - المجلس (108) بَابُ كرامات الأولياء | أ.د. يسري جبر","publishedAt":"2022-01-18T18:43:35Z","duration":"PT45M22S","thumbnail":"https://i.ytimg.com/vi/Gn-iak3IctI/mqdefault.jpg","viewCount":"56396","playlistId":"PLEkQk5xrP-tkHAGOwIKr4pc5ehhyQ5HMJ","playlistName":"كتاب الرسالة القشيرية (تصوف) - د. يسري جبر","category":"تصوف"},{"id":"INNcCGimqQk","title":"(18) سيدنا أبو تراب عسكر بن حصين النَّخْشَبيّ رضي الله عنه  د. يسري جبر","publishedAt":"2018-04-22T18:10:40Z","duration":"PT14M27S","thumbnail":"https://i.ytimg.com/vi/INNcCGimqQk/mqdefault.jpg","viewCount":"2502","playlistId":"PLEkQk5xrP-tmmI87XkWepRdTpisz2Lfgr","playlistName":"باب في ذكر مشايخ هذه الطريقة من شرح كتاب الرسالة القشيرية","category":"تصوف"},{"id":"Sj-K59hAt6c","title":"(17) سيدنا أبو حفص عمر بن مسلمة الحداد رضي الله عنه  د. يسري جبر","publishedAt":"2018-04-18T19:53:56Z","duration":"PT6M8S","thumbnail":"https://i.ytimg.com/vi/Sj-K59hAt6c/mqdefault.jpg","viewCount":"945","playlistId":"PLEkQk5xrP-tmmI87XkWepRdTpisz2Lfgr","playlistName":"باب في ذكر مشايخ هذه الطريقة من شرح كتاب الرسالة القشيرية","category":"تصوف"},{"id":"YEqZK5ghh50","title":"(16) سيدنا أبو الحسين أحمد بن أبي الحواري رضي الله عنه   د. يسري جبر","publishedAt":"2018-04-18T19:10:25Z","duration":"PT6M22S","thumbnail":"https://i.ytimg.com/vi/YEqZK5ghh50/mqdefault.jpg","viewCount":"1072","playlistId":"PLEkQk5xrP-tmmI87XkWepRdTpisz2Lfgr","playlistName":"باب في ذكر مشايخ هذه الطريقة من شرح كتاب الرسالة القشيرية","category":"تصوف"},{"id":"S4RFK4_OEPM","title":"(15) سيدنا أبو حامد أحمد بن خَضرويه البلخي رضي الله عنه د. يسري جبر","publishedAt":"2018-04-15T21:30:11Z","duration":"PT6M41S","thumbnail":"https://i.ytimg.com/vi/S4RFK4_OEPM/mqdefault.jpg","viewCount":"1183","playlistId":"PLEkQk5xrP-tmmI87XkWepRdTpisz2Lfgr","playlistName":"باب في ذكر مشايخ هذه الطريقة من شرح كتاب الرسالة القشيرية","category":"تصوف"},{"id":"GINeV3aLeTg","title":"(14) سيدنا أبو زكريا يحيى بن معاذ الرازي الواعظ رضي الله عنه  د. يسري جبر","publishedAt":"2018-04-15T19:53:54Z","duration":"PT30M17S","thumbnail":"https://i.ytimg.com/vi/GINeV3aLeTg/mqdefault.jpg","viewCount":"7297","playlistId":"PLEkQk5xrP-tmmI87XkWepRdTpisz2Lfgr","playlistName":"باب في ذكر مشايخ هذه الطريقة من شرح كتاب الرسالة القشيرية","category":"تصوف"},{"id":"ltm-Woc9o48","title":"56- طريقك إلى الأنس بالله | شرح منازل السائرين","publishedAt":"2024-12-24T19:56:46Z","duration":"PT31M42S","thumbnail":"https://i.ytimg.com/vi/ltm-Woc9o48/mqdefault.jpg","viewCount":"12559","playlistId":"PLEkQk5xrP-tmiUfQ-2Tsn7QIak4EsvaZW","playlistName":"كتاب التيسير المعين بشرح معاني منازل السائرين (تصوف) - د.يسري جبر","category":"تصوف"},{"id":"azIr7HPfFSk","title":"55- ما الفرق بين علم اليقين وعين اليقين وحق اليقين؟ | شرح منازل السائرين","publishedAt":"2024-12-19T19:18:16Z","duration":"PT36M57S","thumbnail":"https://i.ytimg.com/vi/azIr7HPfFSk/mqdefault.jpg","viewCount":"3525","playlistId":"PLEkQk5xrP-tmiUfQ-2Tsn7QIak4EsvaZW","playlistName":"كتاب التيسير المعين بشرح معاني منازل السائرين (تصوف) - د.يسري جبر","category":"تصوف"},{"id":"ZtK14qsxJS0","title":"54- كيف تتعلم الأدب في طريقك إلى الله؟ | شرح منازل السائرين","publishedAt":"2024-12-11T16:13:47Z","duration":"PT27M46S","thumbnail":"https://i.ytimg.com/vi/ZtK14qsxJS0/mqdefault.jpg","viewCount":"3605","playlistId":"PLEkQk5xrP-tmiUfQ-2Tsn7QIak4EsvaZW","playlistName":"كتاب التيسير المعين بشرح معاني منازل السائرين (تصوف) - د.يسري جبر","category":"تصوف"}],"total":241,"page":3,"pageSize":24,"totalPages":11}