{"items":[{"id":"vEobFWTvXcw","title":"شرح منازل السائرين - المجلس (9) باب التَّفَكُّرِ ٢ | أ.د. يسري جبر","publishedAt":"2022-09-30T18:00:24Z","duration":"PT50M51S","thumbnail":"https://i.ytimg.com/vi/vEobFWTvXcw/mqdefault.jpg","viewCount":"8123","playlistId":"PLEkQk5xrP-tmiUfQ-2Tsn7QIak4EsvaZW","playlistName":"كتاب التيسير المعين بشرح معاني منازل السائرين (تصوف) - د.يسري جبر","category":"تصوف"},{"id":"KcBRO97P7Cg","title":"64- ما هي فراسة المؤمن وهل الفراسة من علم الغيب؟ | شرح منازل السائرين","publishedAt":"2025-07-16T18:50:24Z","duration":"PT34M26S","thumbnail":"https://i.ytimg.com/vi/KcBRO97P7Cg/mqdefault.jpg","viewCount":"6219","playlistId":"PLEkQk5xrP-tmiUfQ-2Tsn7QIak4EsvaZW","playlistName":"كتاب التيسير المعين بشرح معاني منازل السائرين (تصوف) - د.يسري جبر","category":"تصوف"},{"id":"_imgPh80E2o","title":"63- كيف تكون من أصحاب البصيرة؟ | شرح منازل السائرين","publishedAt":"2025-07-08T18:59:13Z","duration":"PT27M5S","thumbnail":"https://i.ytimg.com/vi/_imgPh80E2o/mqdefault.jpg","viewCount":"7567","playlistId":"PLEkQk5xrP-tmiUfQ-2Tsn7QIak4EsvaZW","playlistName":"كتاب التيسير المعين بشرح معاني منازل السائرين (تصوف) - د.يسري جبر","category":"تصوف"},{"id":"fGgqn2a8uZU","title":"شرح منازل السائرين - المجلس (8) باب الإنابةِ والتَّفَكُّرِ | أ.د. يسري جبر","publishedAt":"2022-09-14T18:00:31Z","duration":"PT51M28S","thumbnail":"https://i.ytimg.com/vi/fGgqn2a8uZU/mqdefault.jpg","viewCount":"10832","playlistId":"PLEkQk5xrP-tmiUfQ-2Tsn7QIak4EsvaZW","playlistName":"كتاب التيسير المعين بشرح معاني منازل السائرين (تصوف) - د.يسري جبر","category":"تصوف"},{"id":"deMGiEgSb3g","title":"الرسالة القشيرية - المجلس (109) بَابُ كرامات الأولياء ٢ | أ.د. يسري جبر","publishedAt":"2022-01-25T18:00:11Z","duration":"PT53M5S","thumbnail":"https://i.ytimg.com/vi/deMGiEgSb3g/mqdefault.jpg","viewCount":"21785","playlistId":"PLEkQk5xrP-tkHAGOwIKr4pc5ehhyQ5HMJ","playlistName":"كتاب الرسالة القشيرية (تصوف) - د. يسري جبر","category":"تصوف"},{"id":"Gn-iak3IctI","title":"الرسالة القشيرية - المجلس (108) بَابُ كرامات الأولياء | أ.د. يسري جبر","publishedAt":"2022-01-18T18:43:35Z","duration":"PT45M22S","thumbnail":"https://i.ytimg.com/vi/Gn-iak3IctI/mqdefault.jpg","viewCount":"56396","playlistId":"PLEkQk5xrP-tkHAGOwIKr4pc5ehhyQ5HMJ","playlistName":"كتاب الرسالة القشيرية (تصوف) - د. يسري جبر","category":"تصوف"},{"id":"_phdi4Crt8Q","title":"شرح منازل السائرين - المجلس (7) باب المحاسبة | أ.د. يسري جبر","publishedAt":"2022-09-12T18:00:14Z","duration":"PT50M24S","thumbnail":"https://i.ytimg.com/vi/_phdi4Crt8Q/mqdefault.jpg","viewCount":"10656","playlistId":"PLEkQk5xrP-tmiUfQ-2Tsn7QIak4EsvaZW","playlistName":"كتاب التيسير المعين بشرح معاني منازل السائرين (تصوف) - د.يسري جبر","category":"تصوف"},{"id":"bU9Bxwh0Zc8","title":"شرح منازل السائرين - المجلس (6) باب التوبة ۳ | أ.د. يسري جبر","publishedAt":"2022-09-07T17:15:03Z","duration":"PT42M4S","thumbnail":"https://i.ytimg.com/vi/bU9Bxwh0Zc8/mqdefault.jpg","viewCount":"8551","playlistId":"PLEkQk5xrP-tmiUfQ-2Tsn7QIak4EsvaZW","playlistName":"كتاب التيسير المعين بشرح معاني منازل السائرين (تصوف) - د.يسري جبر","category":"تصوف"},{"id":"fCnOyDMTc2A","title":"شرح منازل السائرين - المجلس (5) باب التوبة ۲ | أ.د. يسري جبر","publishedAt":"2022-08-26T20:46:28Z","duration":"PT53M33S","thumbnail":"https://i.ytimg.com/vi/fCnOyDMTc2A/mqdefault.jpg","viewCount":"14011","playlistId":"PLEkQk5xrP-tmiUfQ-2Tsn7QIak4EsvaZW","playlistName":"كتاب التيسير المعين بشرح معاني منازل السائرين (تصوف) - د.يسري جبر","category":"تصوف"},{"id":"nGkxIWQMv0Y","title":"شرح منازل السائرين - المجلس (4) باب التوبة | أ.د. يسري جبر","publishedAt":"2022-08-17T17:13:13Z","duration":"PT41M16S","thumbnail":"https://i.ytimg.com/vi/nGkxIWQMv0Y/mqdefault.jpg","viewCount":"17452","playlistId":"PLEkQk5xrP-tmiUfQ-2Tsn7QIak4EsvaZW","playlistName":"كتاب التيسير المعين بشرح معاني منازل السائرين (تصوف) - د.يسري جبر","category":"تصوف"},{"id":"qK27J5Qtg9g","title":"شرح منازل السائرين - المجلس (3) باب اليقظة | أ.د. يسري جبر","publishedAt":"2022-08-10T18:00:26Z","duration":"PT1H1M14S","thumbnail":"https://i.ytimg.com/vi/qK27J5Qtg9g/mqdefault.jpg","viewCount":"40048","playlistId":"PLEkQk5xrP-tmiUfQ-2Tsn7QIak4EsvaZW","playlistName":"كتاب التيسير المعين بشرح معاني منازل السائرين (تصوف) - د.يسري جبر","category":"تصوف"},{"id":"E-DZkZUL39A","title":"شرح منازل السائرين - المجلس (2) المقدمة ٢ | أ.د. يسري جبر","publishedAt":"2022-07-20T19:00:02Z","duration":"PT1H1M59S","thumbnail":"https://i.ytimg.com/vi/E-DZkZUL39A/mqdefault.jpg","viewCount":"14261","playlistId":"PLEkQk5xrP-tmiUfQ-2Tsn7QIak4EsvaZW","playlistName":"كتاب التيسير المعين بشرح معاني منازل السائرين (تصوف) - د.يسري جبر","category":"تصوف"},{"id":"D9yI-C0lICg","title":"الرسالة القشيرية - المجلس السابع و العشرون - (الجمع والفرق وجمع الجمع).","publishedAt":"2018-08-16T06:49:49Z","duration":"PT40M8S","thumbnail":"https://i.ytimg.com/vi/D9yI-C0lICg/mqdefault.jpg","viewCount":"7068","playlistId":"PLEkQk5xrP-tkHAGOwIKr4pc5ehhyQ5HMJ","playlistName":"كتاب الرسالة القشيرية (تصوف) - د. يسري جبر","category":"تصوف"},{"id":"Ttss3vs7dUY","title":"شرح منازل السائرين - المجلس (1) المقدمة | أ.د. يسري جبر","publishedAt":"2022-07-04T18:00:17Z","duration":"PT54M7S","thumbnail":"https://i.ytimg.com/vi/Ttss3vs7dUY/mqdefault.jpg","viewCount":"34483","playlistId":"PLEkQk5xrP-tmiUfQ-2Tsn7QIak4EsvaZW","playlistName":"كتاب التيسير المعين بشرح معاني منازل السائرين (تصوف) - د.يسري جبر","category":"تصوف"},{"id":"bvEjUAB1Si8","title":"ختام الرسالة القشيرية - المجلس (120) بَابُ الوصية للمريدين ۲ | أ.د. يسري جبر","publishedAt":"2022-06-22T18:13:33Z","duration":"PT1H22M50S","thumbnail":"https://i.ytimg.com/vi/bvEjUAB1Si8/mqdefault.jpg","viewCount":"29195","playlistId":"PLEkQk5xrP-tkHAGOwIKr4pc5ehhyQ5HMJ","playlistName":"كتاب الرسالة القشيرية (تصوف) - د. يسري جبر","category":"تصوف"},{"id":"e7Vjm8d8h10","title":"الرسالة القشيرية - المجلس (119) بَابُ الوصية للمريدين | أ.د. يسري جبر","publishedAt":"2022-06-17T18:15:06Z","duration":"PT56M17S","thumbnail":"https://i.ytimg.com/vi/e7Vjm8d8h10/mqdefault.jpg","viewCount":"18162","playlistId":"PLEkQk5xrP-tkHAGOwIKr4pc5ehhyQ5HMJ","playlistName":"كتاب الرسالة القشيرية (تصوف) - د. يسري جبر","category":"تصوف"},{"id":"DIv5j1p8MrY","title":"الرسالة القشيرية - المجلس (118) بَابُ رؤيا القوم ٢ | أ.د. يسري جبر","publishedAt":"2022-06-09T19:07:23Z","duration":"PT56M27S","thumbnail":"https://i.ytimg.com/vi/DIv5j1p8MrY/mqdefault.jpg","viewCount":"12251","playlistId":"PLEkQk5xrP-tkHAGOwIKr4pc5ehhyQ5HMJ","playlistName":"كتاب الرسالة القشيرية (تصوف) - د. يسري جبر","category":"تصوف"},{"id":"IGKbfmbq-EI","title":"62- كيف تكون حكيماً وما هي الحكمة؟ | شرح منازل السائرين","publishedAt":"2025-07-02T18:00:30Z","duration":"PT28M34S","thumbnail":"https://i.ytimg.com/vi/IGKbfmbq-EI/mqdefault.jpg","viewCount":"6415","playlistId":"PLEkQk5xrP-tmiUfQ-2Tsn7QIak4EsvaZW","playlistName":"كتاب التيسير المعين بشرح معاني منازل السائرين (تصوف) - د.يسري جبر","category":"تصوف"},{"id":"6b71oov0hvs","title":"61- كيف تكون عارفًا بالله؟ | شرح منازل السائرين","publishedAt":"2025-06-25T19:17:20Z","duration":"PT34M56S","thumbnail":"https://i.ytimg.com/vi/6b71oov0hvs/mqdefault.jpg","viewCount":"5308","playlistId":"PLEkQk5xrP-tmiUfQ-2Tsn7QIak4EsvaZW","playlistName":"كتاب التيسير المعين بشرح معاني منازل السائرين (تصوف) - د.يسري جبر","category":"تصوف"},{"id":"toWLIAnUNg8","title":"الرسالة القشيرية - المجلس (93) بَابُ الصحبة | أ.د. يسري جبر","publishedAt":"2021-10-08T17:07:12Z","duration":"PT1H3M35S","thumbnail":"https://i.ytimg.com/vi/toWLIAnUNg8/mqdefault.jpg","viewCount":"6893","playlistId":"PLEkQk5xrP-tkHAGOwIKr4pc5ehhyQ5HMJ","playlistName":"كتاب الرسالة القشيرية (تصوف) - د. يسري جبر","category":"تصوف"},{"id":"dfny3k4ZI_Q","title":"الرسالة القشيرية - المجلس (117) بَابُ رؤيا القوم | أ.د. يسري جبر","publishedAt":"2022-04-01T17:00:59Z","duration":"PT58M39S","thumbnail":"https://i.ytimg.com/vi/dfny3k4ZI_Q/mqdefault.jpg","viewCount":"15133","playlistId":"PLEkQk5xrP-tkHAGOwIKr4pc5ehhyQ5HMJ","playlistName":"كتاب الرسالة القشيرية (تصوف) - د. يسري جبر","category":"تصوف"},{"id":"R6GDrSjlYKo","title":"الرسالة القشيرية - المجلس (116) بَابُ كرامات الأولياء ۹ والأخير | أ.د. يسري جبر","publishedAt":"2022-03-20T17:00:29Z","duration":"PT51M16S","thumbnail":"https://i.ytimg.com/vi/R6GDrSjlYKo/mqdefault.jpg","viewCount":"27195","playlistId":"PLEkQk5xrP-tkHAGOwIKr4pc5ehhyQ5HMJ","playlistName":"كتاب الرسالة القشيرية (تصوف) - د. يسري جبر","category":"تصوف"},{"id":"fW-r7sAAuYE","title":"الرسالة القشيرية - المجلس (115) بَابُ كرامات الأولياء ٨ | أ.د. يسري جبر","publishedAt":"2022-03-10T19:22:56Z","duration":"PT51M17S","thumbnail":"https://i.ytimg.com/vi/fW-r7sAAuYE/mqdefault.jpg","viewCount":"15037","playlistId":"PLEkQk5xrP-tkHAGOwIKr4pc5ehhyQ5HMJ","playlistName":"كتاب الرسالة القشيرية (تصوف) - د. يسري جبر","category":"تصوف"},{"id":"qOYoWZHOi-A","title":"الرسالة القشيرية - المجلس (114) بَابُ كرامات الأولياء ٧ | أ.د. يسري جبر","publishedAt":"2022-03-01T18:05:28Z","duration":"PT51M51S","thumbnail":"https://i.ytimg.com/vi/qOYoWZHOi-A/mqdefault.jpg","viewCount":"19484","playlistId":"PLEkQk5xrP-tkHAGOwIKr4pc5ehhyQ5HMJ","playlistName":"كتاب الرسالة القشيرية (تصوف) - د. يسري جبر","category":"تصوف"}],"total":241,"page":4,"pageSize":24,"totalPages":11}