{"items":[{"id":"aLJZS45cqeE","title":"شرح صحيح البخاري - كتاب الصلاة من باب 92","publishedAt":"2016-10-30T04:07:41Z","duration":"PT30M38S","thumbnail":"https://i.ytimg.com/vi/aLJZS45cqeE/mqdefault.jpg","viewCount":"1227","playlistId":"PLEkQk5xrP-tlEerGoLa1AFy-2XvQ-sovv","playlistName":"شرح صحيح البخاري - أ.د. يسري جبر (كاملا)","category":"حديث"},{"id":"JvaL0YArOno","title":"شرح صحيح البخاري - كتاب الصلاة من باب 89","publishedAt":"2016-10-30T03:55:29Z","duration":"PT34M19S","thumbnail":"https://i.ytimg.com/vi/JvaL0YArOno/mqdefault.jpg","viewCount":"1243","playlistId":"PLEkQk5xrP-tlEerGoLa1AFy-2XvQ-sovv","playlistName":"شرح صحيح البخاري - أ.د. يسري جبر (كاملا)","category":"حديث"},{"id":"XOHv13JqIhQ","title":"شرح صحيح البخاري - كتاب الصلاة من باب ٨١","publishedAt":"2016-10-29T03:41:34Z","duration":"PT35M18S","thumbnail":"https://i.ytimg.com/vi/XOHv13JqIhQ/mqdefault.jpg","viewCount":"1215","playlistId":"PLEkQk5xrP-tlEerGoLa1AFy-2XvQ-sovv","playlistName":"شرح صحيح البخاري - أ.د. يسري جبر (كاملا)","category":"حديث"},{"id":"N3DduHbejz4","title":"شرح صحيح البخاري - كتاب الصلاة من باب ٧٤","publishedAt":"2016-10-28T04:38:22Z","duration":"PT31M43S","thumbnail":"https://i.ytimg.com/vi/N3DduHbejz4/mqdefault.jpg","viewCount":"1233","playlistId":"PLEkQk5xrP-tlEerGoLa1AFy-2XvQ-sovv","playlistName":"شرح صحيح البخاري - أ.د. يسري جبر (كاملا)","category":"حديث"},{"id":"A4FI_7e4bMA","title":"شرح صحيح البخاري ( كتاب الصلاة مجلس 10)","publishedAt":"2016-10-12T04:19:29Z","duration":"PT36M16S","thumbnail":"https://i.ytimg.com/vi/A4FI_7e4bMA/mqdefault.jpg","viewCount":"1425","playlistId":"PLEkQk5xrP-tlEerGoLa1AFy-2XvQ-sovv","playlistName":"شرح صحيح البخاري - أ.د. يسري جبر (كاملا)","category":"حديث"},{"id":"u_IH3b7eU9k","title":"صحيح الإمام البخاري رضي الله عنه - كتاب اللباس المجلس الخامس د. يسري جبر","publishedAt":"2016-10-06T20:50:11Z","duration":"PT1H16M28S","thumbnail":"https://i.ytimg.com/vi/u_IH3b7eU9k/mqdefault.jpg","viewCount":"145","playlistId":"PLEkQk5xrP-tmJuzaj4GWRenFoFx9gdbFX","playlistName":"شرح كتاب صحيح الإمام البخاري رضي الله تعالى عنه   أ.د. يسرى جبر","category":"حديث"},{"id":"kp2pYW8YR4Q","title":"صحيح الإمام البخاري رضي الله عنه - كتاب اللباس المجلس الرابع د. يسري جبر","publishedAt":"2016-10-05T20:36:52Z","duration":"PT40M33S","thumbnail":"https://i.ytimg.com/vi/kp2pYW8YR4Q/mqdefault.jpg","viewCount":"113","playlistId":"PLEkQk5xrP-tmJuzaj4GWRenFoFx9gdbFX","playlistName":"شرح كتاب صحيح الإمام البخاري رضي الله تعالى عنه   أ.د. يسرى جبر","category":"حديث"},{"id":"TaebrLzX5MI","title":"شرح صحيح البخاري ( كتاب الصلاة مجلس ٩)","publishedAt":"2016-10-04T08:22:23Z","duration":"PT30M26S","thumbnail":"https://i.ytimg.com/vi/TaebrLzX5MI/mqdefault.jpg","viewCount":"1429","playlistId":"PLEkQk5xrP-tlEerGoLa1AFy-2XvQ-sovv","playlistName":"شرح صحيح البخاري - أ.د. يسري جبر (كاملا)","category":"حديث"},{"id":"ewn6tgGqYCA","title":"شرح صحيح البخاري ( كتاب الصلاة مجلس ٨)","publishedAt":"2016-10-03T08:00:52Z","duration":"PT22M9S","thumbnail":"https://i.ytimg.com/vi/ewn6tgGqYCA/mqdefault.jpg","viewCount":"1237","playlistId":"PLEkQk5xrP-tlEerGoLa1AFy-2XvQ-sovv","playlistName":"شرح صحيح البخاري - أ.د. يسري جبر (كاملا)","category":"حديث"},{"id":"aW8RRE8KM10","title":"شرح صحيح البخاري ( كتاب الصلاة مجلس ٧)","publishedAt":"2016-10-02T07:40:30Z","duration":"PT35M48S","thumbnail":"https://i.ytimg.com/vi/aW8RRE8KM10/mqdefault.jpg","viewCount":"1452","playlistId":"PLEkQk5xrP-tlEerGoLa1AFy-2XvQ-sovv","playlistName":"شرح صحيح البخاري - أ.د. يسري جبر (كاملا)","category":"حديث"},{"id":"XE7akJS72Mg","title":"شرح صحيح البخاري ( كتاب الصلاة مجلس ٥ )","publishedAt":"2016-10-01T10:16:33Z","duration":"PT41M56S","thumbnail":"https://i.ytimg.com/vi/XE7akJS72Mg/mqdefault.jpg","viewCount":"1639","playlistId":"PLEkQk5xrP-tlEerGoLa1AFy-2XvQ-sovv","playlistName":"شرح صحيح البخاري - أ.د. يسري جبر (كاملا)","category":"حديث"},{"id":"ZokRgARTiL0","title":"شرح صحيح البخاري ( كتاب الصلاة مجلس ٦)","publishedAt":"2016-10-01T10:16:10Z","duration":"PT35M11S","thumbnail":"https://i.ytimg.com/vi/ZokRgARTiL0/mqdefault.jpg","viewCount":"1421","playlistId":"PLEkQk5xrP-tlEerGoLa1AFy-2XvQ-sovv","playlistName":"شرح صحيح البخاري - أ.د. يسري جبر (كاملا)","category":"حديث"},{"id":"gcLQFvwhc9o","title":"شرح صحيح البخاري ( كتاب الصلاة مجلس ٤ )","publishedAt":"2016-10-01T08:57:42Z","duration":"PT31M47S","thumbnail":"https://i.ytimg.com/vi/gcLQFvwhc9o/mqdefault.jpg","viewCount":"1438","playlistId":"PLEkQk5xrP-tlEerGoLa1AFy-2XvQ-sovv","playlistName":"شرح صحيح البخاري - أ.د. يسري جبر (كاملا)","category":"حديث"},{"id":"EUPafMltExc","title":"شرح صحيح البخاري ( كتاب الصلاة مجلس ٣ )","publishedAt":"2016-09-29T20:50:42Z","duration":"PT41M25S","thumbnail":"https://i.ytimg.com/vi/EUPafMltExc/mqdefault.jpg","viewCount":"1726","playlistId":"PLEkQk5xrP-tlEerGoLa1AFy-2XvQ-sovv","playlistName":"شرح صحيح البخاري - أ.د. يسري جبر (كاملا)","category":"حديث"},{"id":"U39uS1Lts5Q","title":"شرح صحيح البخاري ( كتاب الصلاة مجلس ٢ )","publishedAt":"2016-09-29T20:27:43Z","duration":"PT41M5S","thumbnail":"https://i.ytimg.com/vi/U39uS1Lts5Q/mqdefault.jpg","viewCount":"1799","playlistId":"PLEkQk5xrP-tlEerGoLa1AFy-2XvQ-sovv","playlistName":"شرح صحيح البخاري - أ.د. يسري جبر (كاملا)","category":"حديث"},{"id":"LitKVPnavws","title":"شرح صحيح البخاري ( كتاب الصلاة مجلس ١ )","publishedAt":"2016-09-29T20:23:41Z","duration":"PT34M14S","thumbnail":"https://i.ytimg.com/vi/LitKVPnavws/mqdefault.jpg","viewCount":"2434","playlistId":"PLEkQk5xrP-tlEerGoLa1AFy-2XvQ-sovv","playlistName":"شرح صحيح البخاري - أ.د. يسري جبر (كاملا)","category":"حديث"},{"id":"-Nqihz1iOug","title":"شرح صحيح البخاري ( كتاب الغسل مجلس ٣ )","publishedAt":"2016-09-29T19:53:36Z","duration":"PT35M37S","thumbnail":"https://i.ytimg.com/vi/-Nqihz1iOug/mqdefault.jpg","viewCount":"1508","playlistId":"PLEkQk5xrP-tlEerGoLa1AFy-2XvQ-sovv","playlistName":"شرح صحيح البخاري - أ.د. يسري جبر (كاملا)","category":"حديث"},{"id":"be6LYh1g4mc","title":"شرح صحيح البخاري ( كتاب التيمم مجلس ٣ )","publishedAt":"2016-09-27T20:48:18Z","duration":"PT21M32S","thumbnail":"https://i.ytimg.com/vi/be6LYh1g4mc/mqdefault.jpg","viewCount":"1019","playlistId":"PLEkQk5xrP-tlEerGoLa1AFy-2XvQ-sovv","playlistName":"شرح صحيح البخاري - أ.د. يسري جبر (كاملا)","category":"حديث"},{"id":"Thv3-oMW5xY","title":"شرح صحيح البخاري ( كتاب التيمم مجلس ٢ )","publishedAt":"2016-09-27T20:47:10Z","duration":"PT45M20S","thumbnail":"https://i.ytimg.com/vi/Thv3-oMW5xY/mqdefault.jpg","viewCount":"1346","playlistId":"PLEkQk5xrP-tlEerGoLa1AFy-2XvQ-sovv","playlistName":"شرح صحيح البخاري - أ.د. يسري جبر (كاملا)","category":"حديث"},{"id":"HPTIGsxh6CU","title":"شرح صحيح البخاري ( كتاب التيمم مجلس ١ )","publishedAt":"2016-09-27T20:45:55Z","duration":"PT30M59S","thumbnail":"https://i.ytimg.com/vi/HPTIGsxh6CU/mqdefault.jpg","viewCount":"1407","playlistId":"PLEkQk5xrP-tlEerGoLa1AFy-2XvQ-sovv","playlistName":"شرح صحيح البخاري - أ.د. يسري جبر (كاملا)","category":"حديث"},{"id":"t1D843XFFfw","title":"شرح صحيح البخاري ( كتاب الحيض مجلس ٤ )","publishedAt":"2016-09-27T20:33:44Z","duration":"PT36M3S","thumbnail":"https://i.ytimg.com/vi/t1D843XFFfw/mqdefault.jpg","viewCount":"1215","playlistId":"PLEkQk5xrP-tlEerGoLa1AFy-2XvQ-sovv","playlistName":"شرح صحيح البخاري - أ.د. يسري جبر (كاملا)","category":"حديث"},{"id":"CEAYhTd9e2s","title":"صحيح الإمام البخاري رضي الله عنه - كتاب اللباس المجلس الثالث د. يسري جبر","publishedAt":"2016-09-26T19:20:12Z","duration":"PT1H1M33S","thumbnail":"https://i.ytimg.com/vi/CEAYhTd9e2s/mqdefault.jpg","viewCount":"156","playlistId":"PLEkQk5xrP-tmJuzaj4GWRenFoFx9gdbFX","playlistName":"شرح كتاب صحيح الإمام البخاري رضي الله تعالى عنه   أ.د. يسرى جبر","category":"حديث"},{"id":"sQwUFYy1g2M","title":"صحيح الإمام البخاري رضي الله عنه - كتاب اللباس المجلس الثاني د. يسري جبر","publishedAt":"2016-09-26T14:34:31Z","duration":"PT27M32S","thumbnail":"https://i.ytimg.com/vi/sQwUFYy1g2M/mqdefault.jpg","viewCount":"181","playlistId":"PLEkQk5xrP-tmJuzaj4GWRenFoFx9gdbFX","playlistName":"شرح كتاب صحيح الإمام البخاري رضي الله تعالى عنه   أ.د. يسرى جبر","category":"حديث"},{"id":"SHZa9RaHlJs","title":"شرح صحيح البخاري ( كتاب الحيض مجلس ٣ )","publishedAt":"2016-09-24T04:06:38Z","duration":"PT33M4S","thumbnail":"https://i.ytimg.com/vi/SHZa9RaHlJs/mqdefault.jpg","viewCount":"1357","playlistId":"PLEkQk5xrP-tlEerGoLa1AFy-2XvQ-sovv","playlistName":"شرح صحيح البخاري - أ.د. يسري جبر (كاملا)","category":"حديث"}],"total":1218,"page":44,"pageSize":24,"totalPages":51}