{"items":[{"id":"vE9teTK5Yms","title":"ما هي فتنة سيدنا سليمان عليه السلام؟","publishedAt":"2022-10-19T07:30:07Z","duration":"PT8M32S","thumbnail":"https://i.ytimg.com/vi/vE9teTK5Yms/mqdefault.jpg","viewCount":"6966","playlistId":"PLEkQk5xrP-tkSGrPLMt1BEmJ54cGWYgtp","playlistName":"كتابُ بِدَعِ التَفَاسِيرِ - أ.د. يسري جبر","category":"متنوع"},{"id":"56MVO-z0Y6A","title":"”تفسير قوله تعالى \"وَاذْكُرْ رَبَّكَ إِذَا نَسِيتَ","publishedAt":"2021-07-21T17:15:00Z","duration":"PT38M39S","thumbnail":"https://i.ytimg.com/vi/56MVO-z0Y6A/mqdefault.jpg","viewCount":"6364","playlistId":"PLEkQk5xrP-tkSGrPLMt1BEmJ54cGWYgtp","playlistName":"كتابُ بِدَعِ التَفَاسِيرِ - أ.د. يسري جبر","category":"متنوع"},{"id":"hSkd59FxULw","title":"ما أفضل كتب تفسير القرآن وما هي أنواع التفسير؟","publishedAt":"2024-07-08T18:00:30Z","duration":"PT23M41S","thumbnail":"https://i.ytimg.com/vi/hSkd59FxULw/mqdefault.jpg","viewCount":"6290","playlistId":"PLEkQk5xrP-tkSGrPLMt1BEmJ54cGWYgtp","playlistName":"كتابُ بِدَعِ التَفَاسِيرِ - أ.د. يسري جبر","category":"متنوع"},{"id":"3kNVc2VwtmY","title":"”تفسير قوله تعالى \"فَأَرْسَلْنَا إِلَيْهَا رُوحَنَا فَتَمَثَّلَ لَهَا بَشَرًا سَوِيًّا","publishedAt":"2021-07-30T17:30:00Z","duration":"PT10M36S","thumbnail":"https://i.ytimg.com/vi/3kNVc2VwtmY/mqdefault.jpg","viewCount":"5910","playlistId":"PLEkQk5xrP-tkSGrPLMt1BEmJ54cGWYgtp","playlistName":"كتابُ بِدَعِ التَفَاسِيرِ - أ.د. يسري جبر","category":"متنوع"},{"id":"zLuozWdvBOQ","title":"بِدَعُ التَفَاسِيرِ - مقدمة الكتاب المجلس الأول .  أ.د. يسري جبر","publishedAt":"2019-09-29T16:48:46Z","duration":"PT37M20S","thumbnail":"https://i.ytimg.com/vi/zLuozWdvBOQ/mqdefault.jpg","viewCount":"5612","playlistId":"PLEkQk5xrP-tkSGrPLMt1BEmJ54cGWYgtp","playlistName":"كتابُ بِدَعِ التَفَاسِيرِ - أ.د. يسري جبر","category":"متنوع"},{"id":"4uF3Y6CODEk","title":"قصة سيدنا يوسف وتفسير قوله تعالى \"وَلَقَدْ هَمَّتْ بِهِ وَهَمَّ بِهَا”","publishedAt":"2021-05-31T17:00:15Z","duration":"PT17M8S","thumbnail":"https://i.ytimg.com/vi/4uF3Y6CODEk/mqdefault.jpg","viewCount":"5232","playlistId":"PLEkQk5xrP-tkSGrPLMt1BEmJ54cGWYgtp","playlistName":"كتابُ بِدَعِ التَفَاسِيرِ - أ.د. يسري جبر","category":"متنوع"},{"id":"9otLnR0igz8","title":"بدع التفاسير في سورة يس و ص","publishedAt":"2022-09-16T18:00:05Z","duration":"PT10M18S","thumbnail":"https://i.ytimg.com/vi/9otLnR0igz8/mqdefault.jpg","viewCount":"4510","playlistId":"PLEkQk5xrP-tkSGrPLMt1BEmJ54cGWYgtp","playlistName":"كتابُ بِدَعِ التَفَاسِيرِ - أ.د. يسري جبر","category":"متنوع"},{"id":"DRj3YPNaFHE","title":"تفسير قوله تعالى \"أَمَّن يُجِيبُ الْمُضْطَرَّ إِذَا دَعَاه\"","publishedAt":"2021-04-28T19:15:01Z","duration":"PT25M25S","thumbnail":"https://i.ytimg.com/vi/DRj3YPNaFHE/mqdefault.jpg","viewCount":"4337","playlistId":"PLEkQk5xrP-tkSGrPLMt1BEmJ54cGWYgtp","playlistName":"كتابُ بِدَعِ التَفَاسِيرِ - أ.د. يسري جبر","category":"متنوع"},{"id":"YURtUYjTBGY","title":"تعريف وسيرة السيد عبد الله الصديق الغماري بقراءة د. يسري جبر","publishedAt":"2024-07-10T19:49:27Z","duration":"PT47M21S","thumbnail":"https://i.ytimg.com/vi/YURtUYjTBGY/mqdefault.jpg","viewCount":"4307","playlistId":"PLEkQk5xrP-tkSGrPLMt1BEmJ54cGWYgtp","playlistName":"كتابُ بِدَعِ التَفَاسِيرِ - أ.د. يسري جبر","category":"متنوع"},{"id":"VSPLl46b0k4","title":"بدع التفاسير في فتنة سيدنا داود عليه السلام","publishedAt":"2022-09-19T18:00:20Z","duration":"PT9M33S","thumbnail":"https://i.ytimg.com/vi/VSPLl46b0k4/mqdefault.jpg","viewCount":"4266","playlistId":"PLEkQk5xrP-tkSGrPLMt1BEmJ54cGWYgtp","playlistName":"كتابُ بِدَعِ التَفَاسِيرِ - أ.د. يسري جبر","category":"متنوع"},{"id":"7OzeDrxWVdc","title":"تفسير قوله تعالى\"وَرَبُّكَ يَخْلُقُ مَا يَشَاءُ وَيَخْتَار\"","publishedAt":"2022-03-14T18:00:21Z","duration":"PT9M45S","thumbnail":"https://i.ytimg.com/vi/7OzeDrxWVdc/mqdefault.jpg","viewCount":"4035","playlistId":"PLEkQk5xrP-tkSGrPLMt1BEmJ54cGWYgtp","playlistName":"كتابُ بِدَعِ التَفَاسِيرِ - أ.د. يسري جبر","category":"متنوع"},{"id":"ShE4wbGjceI","title":"تفسير قوله تعالى\"ثُمَّ أَوْرَثْنَا الْكِتَابَ الَّذِينَ اصْطَفَيْنَا مِنْ عِبَادِنَا\"","publishedAt":"2022-04-07T19:30:02Z","duration":"PT10M40S","thumbnail":"https://i.ytimg.com/vi/ShE4wbGjceI/mqdefault.jpg","viewCount":"3989","playlistId":"PLEkQk5xrP-tkSGrPLMt1BEmJ54cGWYgtp","playlistName":"كتابُ بِدَعِ التَفَاسِيرِ - أ.د. يسري جبر","category":"متنوع"},{"id":"w3Riyk0csXk","title":"”تفسير قوله تعالى \"يُسَبِّحُ الرَّعْدُ بِحَمْدِهِ وَالْمَلَائِكَةُ مِنْ خِيفَتِهِ","publishedAt":"2021-06-16T17:30:08Z","duration":"PT14M29S","thumbnail":"https://i.ytimg.com/vi/w3Riyk0csXk/mqdefault.jpg","viewCount":"3825","playlistId":"PLEkQk5xrP-tkSGrPLMt1BEmJ54cGWYgtp","playlistName":"كتابُ بِدَعِ التَفَاسِيرِ - أ.د. يسري جبر","category":"متنوع"},{"id":"JB5WU3IB7hY","title":"شرح الاسرائيليات في كتب تفاسير القرآن","publishedAt":"2024-07-11T19:08:07Z","duration":"PT40M4S","thumbnail":"https://i.ytimg.com/vi/JB5WU3IB7hY/mqdefault.jpg","viewCount":"3794","playlistId":"PLEkQk5xrP-tkSGrPLMt1BEmJ54cGWYgtp","playlistName":"كتابُ بِدَعِ التَفَاسِيرِ - أ.د. يسري جبر","category":"متنوع"},{"id":"NUJyrBpVa9w","title":"تفسير قوله تعالى \"عَفَا اللَّهُ عَنكَ لِمَ أَذِنتَ لَهُمْ\" | أ.د. يسري جبر","publishedAt":"2021-04-03T15:03:11Z","duration":"PT11M29S","thumbnail":"https://i.ytimg.com/vi/NUJyrBpVa9w/mqdefault.jpg","viewCount":"3481","playlistId":"PLEkQk5xrP-tkSGrPLMt1BEmJ54cGWYgtp","playlistName":"كتابُ بِدَعِ التَفَاسِيرِ - أ.د. يسري جبر","category":"متنوع"},{"id":"AnvV5HaD2Tk","title":"تفسير قوله تعالى\"حَتَّىٰ تَوَارَتْ بِالحِجَابِ\" من سورة ص آية ( ٣٢ ) - شرح كتاب بدع التفاسير","publishedAt":"2023-01-29T05:00:05Z","duration":"PT12M57S","thumbnail":"https://i.ytimg.com/vi/AnvV5HaD2Tk/mqdefault.jpg","viewCount":"3384","playlistId":"PLEkQk5xrP-tkSGrPLMt1BEmJ54cGWYgtp","playlistName":"كتابُ بِدَعِ التَفَاسِيرِ - أ.د. يسري جبر","category":"متنوع"},{"id":"m1UKR5IdFDA","title":"”تفسير قوله تعالى \"وَلا تَعْجَلْ بِالْقُرْآنِ مِنْ قَبْلِ أَنْ يُقْضَى إِلَيْكَ وَحْيُه","publishedAt":"2021-08-04T19:00:12Z","duration":"PT13M51S","thumbnail":"https://i.ytimg.com/vi/m1UKR5IdFDA/mqdefault.jpg","viewCount":"3362","playlistId":"PLEkQk5xrP-tkSGrPLMt1BEmJ54cGWYgtp","playlistName":"كتابُ بِدَعِ التَفَاسِيرِ - أ.د. يسري جبر","category":"متنوع"},{"id":"0D9b1vIb7H0","title":"”تفسير قوله تعالى \"يَوْمَ نَطْوِي السَّمَاءَ كَطَيِّ السِّجِلِّ لِلْكُتُب","publishedAt":"2021-08-07T18:00:01Z","duration":"PT12M","thumbnail":"https://i.ytimg.com/vi/0D9b1vIb7H0/mqdefault.jpg","viewCount":"3352","playlistId":"PLEkQk5xrP-tkSGrPLMt1BEmJ54cGWYgtp","playlistName":"كتابُ بِدَعِ التَفَاسِيرِ - أ.د. يسري جبر","category":"متنوع"},{"id":"1yL5ic2o33Y","title":"تفسير قوله تعالى\"وَيُنَزِّلُ مِنَ السَّمَاءِ مِنْ جِبَالٍ فِيهَا مِنْ بَرَد\"","publishedAt":"2021-09-17T17:00:01Z","duration":"PT7M21S","thumbnail":"https://i.ytimg.com/vi/1yL5ic2o33Y/mqdefault.jpg","viewCount":"3220","playlistId":"PLEkQk5xrP-tkSGrPLMt1BEmJ54cGWYgtp","playlistName":"كتابُ بِدَعِ التَفَاسِيرِ - أ.د. يسري جبر","category":"متنوع"},{"id":"alonyedcX60","title":"تفسير قوله تعالى \"ما منعك أن تسجد لما خلقت بيدي\" وقوله \"والسموات مطويات بيمينه\"","publishedAt":"2024-07-21T06:00:01Z","duration":"PT19M50S","thumbnail":"https://i.ytimg.com/vi/alonyedcX60/mqdefault.jpg","viewCount":"3166","playlistId":"PLEkQk5xrP-tkSGrPLMt1BEmJ54cGWYgtp","playlistName":"كتابُ بِدَعِ التَفَاسِيرِ - أ.د. يسري جبر","category":"متنوع"},{"id":"4NF0YVQRuh8","title":"تفسير قوله تعالى \"يا أيها النبي لم تحرم ما أحل الله لك تبتغي مرضاة أزواجك\"","publishedAt":"2024-07-27T17:09:16Z","duration":"PT19M36S","thumbnail":"https://i.ytimg.com/vi/4NF0YVQRuh8/mqdefault.jpg","viewCount":"2801","playlistId":"PLEkQk5xrP-tkSGrPLMt1BEmJ54cGWYgtp","playlistName":"كتابُ بِدَعِ التَفَاسِيرِ - أ.د. يسري جبر","category":"متنوع"},{"id":"WFImrIx-XAg","title":"تفسير قوله تعالى\"وَمَآ أَرْسَلْنَا مِن قَبْلِكَ من رَّسُولٍۢ وَلَا نَبِىٍّ إِلَّآ إِذَا تَمَنَّى…\"","publishedAt":"2021-09-10T17:21:08Z","duration":"PT10M24S","thumbnail":"https://i.ytimg.com/vi/WFImrIx-XAg/mqdefault.jpg","viewCount":"2785","playlistId":"PLEkQk5xrP-tkSGrPLMt1BEmJ54cGWYgtp","playlistName":"كتابُ بِدَعِ التَفَاسِيرِ - أ.د. يسري جبر","category":"متنوع"},{"id":"xQFrhFm0eTk","title":"”تفسير قوله تعالى \"حَتَّىٰ إِذَا جَاءَ أَمْرُنَا وَفَارَ التَّنُّورُ","publishedAt":"2021-06-19T18:00:12Z","duration":"PT14M1S","thumbnail":"https://i.ytimg.com/vi/xQFrhFm0eTk/mqdefault.jpg","viewCount":"2350","playlistId":"PLEkQk5xrP-tkSGrPLMt1BEmJ54cGWYgtp","playlistName":"كتابُ بِدَعِ التَفَاسِيرِ - أ.د. يسري جبر","category":"متنوع"},{"id":"sqvJcmi5DLI","title":"تفسير قوله تعالى\"يَا بُنَيَّ إِنَّهَا إِن تَكُ مِثْقَالَ حَبَّةٍ مِّنْ خَرْدَل\"","publishedAt":"2022-03-23T18:44:26Z","duration":"PT9M46S","thumbnail":"https://i.ytimg.com/vi/sqvJcmi5DLI/mqdefault.jpg","viewCount":"2211","playlistId":"PLEkQk5xrP-tkSGrPLMt1BEmJ54cGWYgtp","playlistName":"كتابُ بِدَعِ التَفَاسِيرِ - أ.د. يسري جبر","category":"متنوع"}],"total":45,"page":1,"pageSize":24,"totalPages":2}