{"items":[{"id":"B_Sckq-bhVg","title":"كيف تكون رحيمًا؟","publishedAt":"2021-10-01T18:15:00Z","duration":"PT40M12S","thumbnail":"https://i.ytimg.com/vi/B_Sckq-bhVg/mqdefault.jpg","viewCount":"2388","playlistId":"PLEkQk5xrP-tlArtGpeLWaqNM7h7IDeAVC","playlistName":"خطب الجمعة أ.د. يسري جبر","category":"خطب"},{"id":"Gz_0c4Gxtuc","title":"مراقبة الله في السر والعلن","publishedAt":"2021-10-07T19:01:22Z","duration":"PT41M39S","thumbnail":"https://i.ytimg.com/vi/Gz_0c4Gxtuc/mqdefault.jpg","viewCount":"7035","playlistId":"PLEkQk5xrP-tlArtGpeLWaqNM7h7IDeAVC","playlistName":"خطب الجمعة أ.د. يسري جبر","category":"خطب"},{"id":"Li_nh5lxwiA","title":"الخلاصة من البداية للنهاية","publishedAt":"2021-10-11T19:52:42Z","duration":"PT42M53S","thumbnail":"https://i.ytimg.com/vi/Li_nh5lxwiA/mqdefault.jpg","viewCount":"15787","playlistId":"PLEkQk5xrP-tlArtGpeLWaqNM7h7IDeAVC","playlistName":"خطب الجمعة أ.د. يسري جبر","category":"خطب"},{"id":"8DCF27yts-I","title":"واعلموا أن فيكم رسول الله","publishedAt":"2021-10-19T18:30:05Z","duration":"PT32M37S","thumbnail":"https://i.ytimg.com/vi/8DCF27yts-I/mqdefault.jpg","viewCount":"22492","playlistId":"PLEkQk5xrP-tlArtGpeLWaqNM7h7IDeAVC","playlistName":"خطب الجمعة أ.د. يسري جبر","category":"خطب"},{"id":"_8L6uvZqIiE","title":"خطبة الاحتفال بالمولد النبوي","publishedAt":"2021-10-27T19:55:08Z","duration":"PT43M28S","thumbnail":"https://i.ytimg.com/vi/_8L6uvZqIiE/mqdefault.jpg","viewCount":"3686","playlistId":"PLEkQk5xrP-tlArtGpeLWaqNM7h7IDeAVC","playlistName":"خطب الجمعة أ.د. يسري جبر","category":"خطب"},{"id":"Y0GEATT1R7I","title":"كيف بدء الوحي؟","publishedAt":"2021-11-06T14:03:07Z","duration":"PT42M34S","thumbnail":"https://i.ytimg.com/vi/Y0GEATT1R7I/mqdefault.jpg","viewCount":"6220","playlistId":"PLEkQk5xrP-tlArtGpeLWaqNM7h7IDeAVC","playlistName":"خطب الجمعة أ.د. يسري جبر","category":"خطب"},{"id":"b792bfIjD3I","title":"ما الحكمة التي خلقنا من أجلها؟","publishedAt":"2021-11-12T17:48:20Z","duration":"PT52M58S","thumbnail":"https://i.ytimg.com/vi/b792bfIjD3I/mqdefault.jpg","viewCount":"61302","playlistId":"PLEkQk5xrP-tlArtGpeLWaqNM7h7IDeAVC","playlistName":"خطب الجمعة أ.د. يسري جبر","category":"خطب"},{"id":"A8ayPc4qAhM","title":"كيف نقتدي بالنبي ﷺ في حياتنا؟","publishedAt":"2021-11-17T16:57:25Z","duration":"PT37M9S","thumbnail":"https://i.ytimg.com/vi/A8ayPc4qAhM/mqdefault.jpg","viewCount":"5075","playlistId":"PLEkQk5xrP-tlArtGpeLWaqNM7h7IDeAVC","playlistName":"خطب الجمعة أ.د. يسري جبر","category":"خطب"},{"id":"jcuoenTs1Cg","title":"مقامك حيث أقامك","publishedAt":"2021-11-22T19:13:12Z","duration":"PT20M6S","thumbnail":"https://i.ytimg.com/vi/jcuoenTs1Cg/mqdefault.jpg","viewCount":"29715","playlistId":"PLEkQk5xrP-tlArtGpeLWaqNM7h7IDeAVC","playlistName":"خطب الجمعة أ.د. يسري جبر","category":"خطب"},{"id":"nWRmNYBuFMI","title":"المؤمن للمؤمن كالبنيان يشدُّ بعضه بعضا","publishedAt":"2021-11-23T20:33:30Z","duration":"PT44M21S","thumbnail":"https://i.ytimg.com/vi/nWRmNYBuFMI/mqdefault.jpg","viewCount":"1778","playlistId":"PLEkQk5xrP-tlArtGpeLWaqNM7h7IDeAVC","playlistName":"خطب الجمعة أ.د. يسري جبر","category":"خطب"},{"id":"ePWz15Pqg3U","title":"ذكرى ميلاد سيدنا الحسين -رضي الله عنه- وقصة استشهاده","publishedAt":"2021-11-29T18:47:21Z","duration":"PT16M47S","thumbnail":"https://i.ytimg.com/vi/ePWz15Pqg3U/mqdefault.jpg","viewCount":"9029","playlistId":"PLEkQk5xrP-tlArtGpeLWaqNM7h7IDeAVC","playlistName":"خطب الجمعة أ.د. يسري جبر","category":"خطب"},{"id":"cC99eXFhL_0","title":"الرد على بعض شُبهات ابن تيمية","publishedAt":"2021-11-30T15:47:32Z","duration":"PT15M54S","thumbnail":"https://i.ytimg.com/vi/cC99eXFhL_0/mqdefault.jpg","viewCount":"20729","playlistId":"PLEkQk5xrP-tlArtGpeLWaqNM7h7IDeAVC","playlistName":"خطب الجمعة أ.د. يسري جبر","category":"خطب"},{"id":"1kek6EQrkJc","title":"الناس تائهون عن الحق بالعقل","publishedAt":"2021-12-11T17:30:00Z","duration":"PT45M47S","thumbnail":"https://i.ytimg.com/vi/1kek6EQrkJc/mqdefault.jpg","viewCount":"7055","playlistId":"PLEkQk5xrP-tlArtGpeLWaqNM7h7IDeAVC","playlistName":"خطب الجمعة أ.د. يسري جبر","category":"خطب"},{"id":"sbwB09bxYAA","title":"كيف تكون مسلما صالحا؟","publishedAt":"2021-12-16T17:30:09Z","duration":"PT45M47S","thumbnail":"https://i.ytimg.com/vi/sbwB09bxYAA/mqdefault.jpg","viewCount":"8129","playlistId":"PLEkQk5xrP-tlArtGpeLWaqNM7h7IDeAVC","playlistName":"خطب الجمعة أ.د. يسري جبر","category":"خطب"},{"id":"TiK-mWtZlcQ","title":"نصائح ستغير حياتك!","publishedAt":"2021-12-18T18:00:10Z","duration":"PT8M1S","thumbnail":"https://i.ytimg.com/vi/TiK-mWtZlcQ/mqdefault.jpg","viewCount":"10811","playlistId":"PLEkQk5xrP-tlArtGpeLWaqNM7h7IDeAVC","playlistName":"خطب الجمعة أ.د. يسري جبر","category":"خطب"},{"id":"8-y6R-DOS8Q","title":"التوبة الصادقة","publishedAt":"2022-01-01T19:07:30Z","duration":"PT37M8S","thumbnail":"https://i.ytimg.com/vi/8-y6R-DOS8Q/mqdefault.jpg","viewCount":"6717","playlistId":"PLEkQk5xrP-tlArtGpeLWaqNM7h7IDeAVC","playlistName":"خطب الجمعة أ.د. يسري جبر","category":"خطب"},{"id":"WsXkdz15ENI","title":"الافتقار إلى الله والغنى بالله","publishedAt":"2022-01-09T18:01:17Z","duration":"PT22M17S","thumbnail":"https://i.ytimg.com/vi/WsXkdz15ENI/mqdefault.jpg","viewCount":"4890","playlistId":"PLEkQk5xrP-tlArtGpeLWaqNM7h7IDeAVC","playlistName":"خطب الجمعة أ.د. يسري جبر","category":"خطب"},{"id":"ZOE3d3tr_40","title":"كيف نغير الواقع؟","publishedAt":"2022-01-27T20:00:50Z","duration":"PT41M30S","thumbnail":"https://i.ytimg.com/vi/ZOE3d3tr_40/mqdefault.jpg","viewCount":"21268","playlistId":"PLEkQk5xrP-tlArtGpeLWaqNM7h7IDeAVC","playlistName":"خطب الجمعة أ.د. يسري جبر","category":"خطب"},{"id":"DaVm9RfIBVU","title":"كيف نواجه الأفلام الموجهة لدعم الشذوذ؟","publishedAt":"2022-01-28T18:15:03Z","duration":"PT23M53S","thumbnail":"https://i.ytimg.com/vi/DaVm9RfIBVU/mqdefault.jpg","viewCount":"12313","playlistId":"PLEkQk5xrP-tlArtGpeLWaqNM7h7IDeAVC","playlistName":"خطب الجمعة أ.د. يسري جبر","category":"خطب"},{"id":"jqZ6SCdjGMA","title":"أسرار ذكر الله","publishedAt":"2022-02-02T18:00:18Z","duration":"PT40M15S","thumbnail":"https://i.ytimg.com/vi/jqZ6SCdjGMA/mqdefault.jpg","viewCount":"147228","playlistId":"PLEkQk5xrP-tlArtGpeLWaqNM7h7IDeAVC","playlistName":"خطب الجمعة أ.د. يسري جبر","category":"خطب"},{"id":"uGzqje70E5s","title":"ما هي أسرار الزواج الناجح؟","publishedAt":"2022-02-16T17:30:29Z","duration":"PT9M55S","thumbnail":"https://i.ytimg.com/vi/uGzqje70E5s/mqdefault.jpg","viewCount":"24425","playlistId":"PLEkQk5xrP-tlArtGpeLWaqNM7h7IDeAVC","playlistName":"خطب الجمعة أ.د. يسري جبر","category":"خطب"},{"id":"3oZ6QzhWbE8","title":"أسرار معجزة الإسراء والمعراج","publishedAt":"2022-02-19T17:00:01Z","duration":"PT16M41S","thumbnail":"https://i.ytimg.com/vi/3oZ6QzhWbE8/mqdefault.jpg","viewCount":"10250","playlistId":"PLEkQk5xrP-tlArtGpeLWaqNM7h7IDeAVC","playlistName":"خطب الجمعة أ.د. يسري جبر","category":"خطب"},{"id":"fQqYUHtrTP8","title":"كيف يُعذَّبُ المسلم العاصي؟","publishedAt":"2022-02-22T19:15:53Z","duration":"PT8M10S","thumbnail":"https://i.ytimg.com/vi/fQqYUHtrTP8/mqdefault.jpg","viewCount":"6608","playlistId":"PLEkQk5xrP-tlArtGpeLWaqNM7h7IDeAVC","playlistName":"خطب الجمعة أ.د. يسري جبر","category":"خطب"},{"id":"XT7yHxKxBdc","title":"ما هي العوالم التي خلقها الله؟","publishedAt":"2022-02-28T18:00:42Z","duration":"PT12M21S","thumbnail":"https://i.ytimg.com/vi/XT7yHxKxBdc/mqdefault.jpg","viewCount":"11006","playlistId":"PLEkQk5xrP-tlArtGpeLWaqNM7h7IDeAVC","playlistName":"خطب الجمعة أ.د. يسري جبر","category":"خطب"}],"total":676,"page":15,"pageSize":24,"totalPages":29}