{"items":[{"id":"V0TXJhBLbdw","title":"ثُمَّ لَا يَجِدُواْ فِيٓ أَنفُسِهِمۡ حَرَجٗا مِّمَّا قَضَيۡتَ وَيُسَلِّمُواْ تَسۡلِيمٗا د.يسري جبر","publishedAt":"2015-05-08T20:56:27Z","duration":"PT37M44S","thumbnail":"https://i.ytimg.com/vi/V0TXJhBLbdw/mqdefault.jpg","viewCount":"252","playlistId":"PLEkQk5xrP-tlArtGpeLWaqNM7h7IDeAVC","playlistName":"خطب الجمعة أ.د. يسري جبر","category":"خطب"},{"id":"bt6RdgBBzpI","title":"حَولَ الإِسْرَاءِ والمِعْرَاج  د. يسري جبر","publishedAt":"2015-05-16T16:37:44Z","duration":"PT34M45S","thumbnail":"https://i.ytimg.com/vi/bt6RdgBBzpI/mqdefault.jpg","viewCount":"837","playlistId":"PLEkQk5xrP-tlArtGpeLWaqNM7h7IDeAVC","playlistName":"خطب الجمعة أ.د. يسري جبر","category":"خطب"},{"id":"X0-C1r1po14","title":"رُفِعَت الأَقْلاَمُ وَجَفَّت الصُحُف د. يسري جبر","publishedAt":"2015-05-23T05:50:25Z","duration":"PT38M24S","thumbnail":"https://i.ytimg.com/vi/X0-C1r1po14/mqdefault.jpg","viewCount":"6741","playlistId":"PLEkQk5xrP-tlArtGpeLWaqNM7h7IDeAVC","playlistName":"خطب الجمعة أ.د. يسري جبر","category":"خطب"},{"id":"2lCdGCR3PsE","title":"حول ليلة النصف من شعبان د. يسري جبر","publishedAt":"2015-05-30T19:17:57Z","duration":"PT48M24S","thumbnail":"https://i.ytimg.com/vi/2lCdGCR3PsE/mqdefault.jpg","viewCount":"3753","playlistId":"PLEkQk5xrP-tlArtGpeLWaqNM7h7IDeAVC","playlistName":"خطب الجمعة أ.د. يسري جبر","category":"خطب"},{"id":"U7fTFILsagU","title":"أَدَبُ الكَلامِ مَعَ الخَلْقِ د. يسري جبر","publishedAt":"2015-06-06T16:39:52Z","duration":"PT46M49S","thumbnail":"https://i.ytimg.com/vi/U7fTFILsagU/mqdefault.jpg","viewCount":"415","playlistId":"PLEkQk5xrP-tlArtGpeLWaqNM7h7IDeAVC","playlistName":"خطب الجمعة أ.د. يسري جبر","category":"خطب"},{"id":"Xux0Pn5Br5A","title":"كيف نتأدَّب فى رمضان د. يسري جبر","publishedAt":"2015-06-12T11:02:34Z","duration":"PT48M6S","thumbnail":"https://i.ytimg.com/vi/Xux0Pn5Br5A/mqdefault.jpg","viewCount":"1491","playlistId":"PLEkQk5xrP-tlArtGpeLWaqNM7h7IDeAVC","playlistName":"خطب الجمعة أ.د. يسري جبر","category":"خطب"},{"id":"b1CdOaDym00","title":"آدَابُ الصِيَامِ والقِيَامِ وَقِرَاءَةِ القُرْآنِ د. يسري جبر","publishedAt":"2015-06-22T18:56:49Z","duration":"PT32M53S","thumbnail":"https://i.ytimg.com/vi/b1CdOaDym00/mqdefault.jpg","viewCount":"329","playlistId":"PLEkQk5xrP-tlArtGpeLWaqNM7h7IDeAVC","playlistName":"خطب الجمعة أ.د. يسري جبر","category":"خطب"},{"id":"bXHAcDAWRWM","title":"الكَونُ إِدْرَاكُكَ  د. يسري جبر","publishedAt":"2015-06-28T01:10:50Z","duration":"PT49M11S","thumbnail":"https://i.ytimg.com/vi/bXHAcDAWRWM/mqdefault.jpg","viewCount":"4302","playlistId":"PLEkQk5xrP-tlArtGpeLWaqNM7h7IDeAVC","playlistName":"خطب الجمعة أ.د. يسري جبر","category":"خطب"},{"id":"W4cXSri_wyA","title":"درس الجمعة لفضيلة الدكتور يسري جبر","publishedAt":"2015-07-03T13:25:49Z","duration":"PT1H6M42S","thumbnail":"https://i.ytimg.com/vi/W4cXSri_wyA/mqdefault.jpg","viewCount":"370","playlistId":"PLEkQk5xrP-tmYN0y2PQUkx881GYBxD16g","playlistName":"درس الجمعة","category":"خطب"},{"id":"0zC3tNcoBR4","title":"الإِسْتِعْدَادُ لِلْعَشْرِالآوَاخِرِ مِن رَمَضَانَ  د. يسري جبر","publishedAt":"2015-07-03T19:24:02Z","duration":"PT39M15S","thumbnail":"https://i.ytimg.com/vi/0zC3tNcoBR4/mqdefault.jpg","viewCount":"622","playlistId":"PLEkQk5xrP-tlArtGpeLWaqNM7h7IDeAVC","playlistName":"خطب الجمعة أ.د. يسري جبر","category":"خطب"},{"id":"cgixz-3AIuA","title":"علَيك أَن تَتَعَلَّمَ سُنَّةَ نَبِيِّكَ صَلَّى اللهُ علَيه وآله وسَلَّم وكيف كان يعيش د. يسري جبر","publishedAt":"2015-07-11T10:30:58Z","duration":"PT49M52S","thumbnail":"https://i.ytimg.com/vi/cgixz-3AIuA/mqdefault.jpg","viewCount":"235","playlistId":"PLEkQk5xrP-tlArtGpeLWaqNM7h7IDeAVC","playlistName":"خطب الجمعة أ.د. يسري جبر","category":"خطب"},{"id":"Ht0cXh1C9fs","title":"فَرْقٌ كَبِيرٌ أَن تَظُنَّ أَنَّكَ مُقِيمٌ وَأَنتَ مُسَافِر د. يسري جبر","publishedAt":"2015-07-25T12:10:23Z","duration":"PT41M27S","thumbnail":"https://i.ytimg.com/vi/Ht0cXh1C9fs/mqdefault.jpg","viewCount":"321","playlistId":"PLEkQk5xrP-tlArtGpeLWaqNM7h7IDeAVC","playlistName":"خطب الجمعة أ.د. يسري جبر","category":"خطب"},{"id":"9MTXfZyVk50","title":"اسْتَوصُوا بِأَهْلِ مِصرَ خَيرًا - د. يسري جبر","publishedAt":"2015-08-09T15:47:17Z","duration":"PT38M12S","thumbnail":"https://i.ytimg.com/vi/9MTXfZyVk50/mqdefault.jpg","viewCount":"324","playlistId":"PLEkQk5xrP-tlArtGpeLWaqNM7h7IDeAVC","playlistName":"خطب الجمعة أ.د. يسري جبر","category":"خطب"},{"id":"OqqVA43pQ_A","title":"وَعَلَّمَ آدَمَ الأَسْمَاءَ كُلَّهَا - د. يسرى جبر","publishedAt":"2015-08-15T17:39:55Z","duration":"PT53M53S","thumbnail":"https://i.ytimg.com/vi/OqqVA43pQ_A/mqdefault.jpg","viewCount":"8841","playlistId":"PLEkQk5xrP-tlArtGpeLWaqNM7h7IDeAVC","playlistName":"خطب الجمعة أ.د. يسري جبر","category":"خطب"},{"id":"1maCqKtd0uc","title":"وَلَقَدْ كَرَّمْنَا بَنِى ءَادَمَ - د. يسرى جبر","publishedAt":"2015-08-22T18:42:24Z","duration":"PT41M36S","thumbnail":"https://i.ytimg.com/vi/1maCqKtd0uc/mqdefault.jpg","viewCount":"229","playlistId":"PLEkQk5xrP-tlArtGpeLWaqNM7h7IDeAVC","playlistName":"خطب الجمعة أ.د. يسري جبر","category":"خطب"},{"id":"RRNd0V9MM8w","title":"الاستعداد للعشر الأوائل من ذي الحجة - د. يسري جبر","publishedAt":"2015-09-15T18:42:33Z","duration":"PT32M15S","thumbnail":"https://i.ytimg.com/vi/RRNd0V9MM8w/mqdefault.jpg","viewCount":"1437","playlistId":"PLEkQk5xrP-tlArtGpeLWaqNM7h7IDeAVC","playlistName":"خطب الجمعة أ.د. يسري جبر","category":"خطب"},{"id":"DjznyNwQN0o","title":"يوم عرفة -  د.يسري جبر","publishedAt":"2015-09-22T10:03:00Z","duration":"PT27M48S","thumbnail":"https://i.ytimg.com/vi/DjznyNwQN0o/mqdefault.jpg","viewCount":"1311","playlistId":"PLEkQk5xrP-tlArtGpeLWaqNM7h7IDeAVC","playlistName":"خطب الجمعة أ.د. يسري جبر","category":"خطب"},{"id":"oCbg9palcDA","title":"كَيفَ نُودِّعُ وَكَيفَ نَسْتَقْبِلُ   د. يسرى جبر","publishedAt":"2015-10-14T03:49:51Z","duration":"PT34M54S","thumbnail":"https://i.ytimg.com/vi/oCbg9palcDA/mqdefault.jpg","viewCount":"266","playlistId":"PLEkQk5xrP-tlArtGpeLWaqNM7h7IDeAVC","playlistName":"خطب الجمعة أ.د. يسري جبر","category":"خطب"},{"id":"gcRQzlaoDI4","title":"( وَإِنَّكَ لَعَلَى خُلُقٍ عَظِيمٍ ) د.يسرى جبر","publishedAt":"2015-11-06T20:19:38Z","duration":"PT48M57S","thumbnail":"https://i.ytimg.com/vi/gcRQzlaoDI4/mqdefault.jpg","viewCount":"814","playlistId":"PLEkQk5xrP-tlArtGpeLWaqNM7h7IDeAVC","playlistName":"خطب الجمعة أ.د. يسري جبر","category":"خطب"},{"id":"cH0oLec5DDo","title":"درس الجمعة","publishedAt":"2015-11-20T14:42:31Z","duration":"PT1H2M","thumbnail":"https://i.ytimg.com/vi/cH0oLec5DDo/mqdefault.jpg","viewCount":"177","playlistId":"PLEkQk5xrP-tmYN0y2PQUkx881GYBxD16g","playlistName":"درس الجمعة","category":"خطب"},{"id":"7PIZ2poqIhU","title":"ثَلَاثٌ لَا يَسْلَمُ مِنْهُنَّ كَثِيرٌ مِنَ النَّاسِ - د. يسري جبر","publishedAt":"2015-11-29T17:21:24Z","duration":"PT34M40S","thumbnail":"https://i.ytimg.com/vi/7PIZ2poqIhU/mqdefault.jpg","viewCount":"777","playlistId":"PLEkQk5xrP-tlArtGpeLWaqNM7h7IDeAVC","playlistName":"خطب الجمعة أ.د. يسري جبر","category":"خطب"},{"id":"Mi5zW3NjGJ8","title":"بَعْضُ صِفَاتِ المُؤْمِنِ د. يسرى جبر","publishedAt":"2015-12-02T17:07:52Z","duration":"PT48M46S","thumbnail":"https://i.ytimg.com/vi/Mi5zW3NjGJ8/mqdefault.jpg","viewCount":"297","playlistId":"PLEkQk5xrP-tlArtGpeLWaqNM7h7IDeAVC","playlistName":"خطب الجمعة أ.د. يسري جبر","category":"خطب"},{"id":"DTOZ4ueS9Zs","title":"خَيرُ مَا يَكْنِزُ المَرْءُ    د. يسري جبر","publishedAt":"2015-12-03T19:52:24Z","duration":"PT49M32S","thumbnail":"https://i.ytimg.com/vi/DTOZ4ueS9Zs/mqdefault.jpg","viewCount":"207","playlistId":"PLEkQk5xrP-tlArtGpeLWaqNM7h7IDeAVC","playlistName":"خطب الجمعة أ.د. يسري جبر","category":"خطب"},{"id":"tDYmq3TFPio","title":"درس الجمعة ٢٢ صفر ١٤٣٧هـ","publishedAt":"2015-12-04T12:55:43Z","duration":"PT54M11S","thumbnail":"https://i.ytimg.com/vi/tDYmq3TFPio/mqdefault.jpg","viewCount":"227","playlistId":"PLEkQk5xrP-tmYN0y2PQUkx881GYBxD16g","playlistName":"درس الجمعة","category":"خطب"}],"total":675,"page":2,"pageSize":24,"totalPages":29}