{"items":[{"id":"QZlDD_dGFOY","title":"ما هي شروط قبول العمل الصالح؟","publishedAt":"2024-08-12T18:13:32Z","duration":"PT8M12S","thumbnail":"https://i.ytimg.com/vi/QZlDD_dGFOY/mqdefault.jpg","viewCount":"2122","playlistId":"PLEkQk5xrP-tlArtGpeLWaqNM7h7IDeAVC","playlistName":"خطب الجمعة أ.د. يسري جبر","category":"خطب"},{"id":"tho1wTqC51g","title":"ما معنى التقوى وكيف تتقي الله سبحانه وتعالى؟","publishedAt":"2024-08-13T17:00:39Z","duration":"PT9M2S","thumbnail":"https://i.ytimg.com/vi/tho1wTqC51g/mqdefault.jpg","viewCount":"3867","playlistId":"PLEkQk5xrP-tlArtGpeLWaqNM7h7IDeAVC","playlistName":"خطب الجمعة أ.د. يسري جبر","category":"خطب"},{"id":"t2TEDn8wupM","title":"ما هي صفات الله تعالى وكيف نفهمها بدون تشبيه؟","publishedAt":"2024-08-23T17:48:53Z","duration":"PT15M28S","thumbnail":"https://i.ytimg.com/vi/t2TEDn8wupM/mqdefault.jpg","viewCount":"3118","playlistId":"PLEkQk5xrP-tlArtGpeLWaqNM7h7IDeAVC","playlistName":"خطب الجمعة أ.د. يسري جبر","category":"خطب"},{"id":"asYYtxxlonI","title":"هل حقوق العباد لا تسقط بالتوبة؟","publishedAt":"2024-09-02T17:00:02Z","duration":"PT9M23S","thumbnail":"https://i.ytimg.com/vi/asYYtxxlonI/mqdefault.jpg","viewCount":"2331","playlistId":"PLEkQk5xrP-tlArtGpeLWaqNM7h7IDeAVC","playlistName":"خطب الجمعة أ.د. يسري جبر","category":"خطب"},{"id":"31qPQGVIGM8","title":"الرضا بالقضاء والقدر","publishedAt":"2024-09-03T17:51:21Z","duration":"PT17M44S","thumbnail":"https://i.ytimg.com/vi/31qPQGVIGM8/mqdefault.jpg","viewCount":"5331","playlistId":"PLEkQk5xrP-tlArtGpeLWaqNM7h7IDeAVC","playlistName":"خطب الجمعة أ.د. يسري جبر","category":"خطب"},{"id":"COwwrZ2dXEQ","title":"الرد على من ينكر الاحتفال بالمولد النبوي!","publishedAt":"2024-09-14T17:00:14Z","duration":"PT9M16S","thumbnail":"https://i.ytimg.com/vi/COwwrZ2dXEQ/mqdefault.jpg","viewCount":"5063","playlistId":"PLEkQk5xrP-tlArtGpeLWaqNM7h7IDeAVC","playlistName":"خطب الجمعة أ.د. يسري جبر","category":"خطب"},{"id":"3V5N8O1RQdA","title":"كيف ولد رسول الله ﷺ؟ | قصة المولد النبوي الشريف","publishedAt":"2024-09-15T14:10:53Z","duration":"PT19M34S","thumbnail":"https://i.ytimg.com/vi/3V5N8O1RQdA/mqdefault.jpg","viewCount":"7150","playlistId":"PLEkQk5xrP-tlArtGpeLWaqNM7h7IDeAVC","playlistName":"خطب الجمعة أ.د. يسري جبر","category":"خطب"},{"id":"Or6lqbi8JoA","title":"هل تعرف قدر النبي ﷺ ؟","publishedAt":"2024-09-16T17:17:04Z","duration":"PT18M36S","thumbnail":"https://i.ytimg.com/vi/Or6lqbi8JoA/mqdefault.jpg","viewCount":"3273","playlistId":"PLEkQk5xrP-tlArtGpeLWaqNM7h7IDeAVC","playlistName":"خطب الجمعة أ.د. يسري جبر","category":"خطب"},{"id":"P2NIXRlrnzk","title":"هل النبي ﷺ هو أول خلق الله؟","publishedAt":"2024-09-17T16:37:38Z","duration":"PT11M26S","thumbnail":"https://i.ytimg.com/vi/P2NIXRlrnzk/mqdefault.jpg","viewCount":"2577","playlistId":"PLEkQk5xrP-tlArtGpeLWaqNM7h7IDeAVC","playlistName":"خطب الجمعة أ.د. يسري جبر","category":"خطب"},{"id":"T80dE3mxFPI","title":"الرد على من يدعي أن والدي النبي ﷺ في النار","publishedAt":"2024-09-28T15:42:53Z","duration":"PT16M45S","thumbnail":"https://i.ytimg.com/vi/T80dE3mxFPI/mqdefault.jpg","viewCount":"2046","playlistId":"PLEkQk5xrP-tlArtGpeLWaqNM7h7IDeAVC","playlistName":"خطب الجمعة أ.د. يسري جبر","category":"خطب"},{"id":"gffbhZiBBGo","title":"كيفية الصبر على الابتلاءات؟","publishedAt":"2024-09-29T18:59:20Z","duration":"PT17M21S","thumbnail":"https://i.ytimg.com/vi/gffbhZiBBGo/mqdefault.jpg","viewCount":"5821","playlistId":"PLEkQk5xrP-tlArtGpeLWaqNM7h7IDeAVC","playlistName":"خطب الجمعة أ.د. يسري جبر","category":"خطب"},{"id":"LXgWvOsnyxg","title":"شروط قبول العمل الصالح","publishedAt":"2024-09-30T18:04:55Z","duration":"PT8M21S","thumbnail":"https://i.ytimg.com/vi/LXgWvOsnyxg/mqdefault.jpg","viewCount":"2391","playlistId":"PLEkQk5xrP-tlArtGpeLWaqNM7h7IDeAVC","playlistName":"خطب الجمعة أ.د. يسري جبر","category":"خطب"},{"id":"JMdHpodu8zM","title":"كيف أكون من المؤمنين وأتحقق بمقام الإحسان؟","publishedAt":"2024-10-02T18:35:38Z","duration":"PT18M53S","thumbnail":"https://i.ytimg.com/vi/JMdHpodu8zM/mqdefault.jpg","viewCount":"3905","playlistId":"PLEkQk5xrP-tlArtGpeLWaqNM7h7IDeAVC","playlistName":"خطب الجمعة أ.د. يسري جبر","category":"خطب"},{"id":"UxaGgQtm4Pw","title":"ما الفرق بين الروح والجسد والنفس؟","publishedAt":"2024-10-03T18:57:23Z","duration":"PT19M55S","thumbnail":"https://i.ytimg.com/vi/UxaGgQtm4Pw/mqdefault.jpg","viewCount":"4877","playlistId":"PLEkQk5xrP-tlArtGpeLWaqNM7h7IDeAVC","playlistName":"خطب الجمعة أ.د. يسري جبر","category":"خطب"},{"id":"sA5VDfNyW58","title":"ازاي تربي أولادك زي تربية النبي ﷺ لأولاده؟","publishedAt":"2024-10-05T18:49:13Z","duration":"PT10M32S","thumbnail":"https://i.ytimg.com/vi/sA5VDfNyW58/mqdefault.jpg","viewCount":"3261","playlistId":"PLEkQk5xrP-tlArtGpeLWaqNM7h7IDeAVC","playlistName":"خطب الجمعة أ.د. يسري جبر","category":"خطب"},{"id":"UhTyp08m78M","title":"تفسير ما يحدث في المنطقة العربية وهل اقترب ظهور المسيح الدجال؟","publishedAt":"2024-10-07T18:14:21Z","duration":"PT32M25S","thumbnail":"https://i.ytimg.com/vi/UhTyp08m78M/mqdefault.jpg","viewCount":"71560","playlistId":"PLEkQk5xrP-tlArtGpeLWaqNM7h7IDeAVC","playlistName":"خطب الجمعة أ.د. يسري جبر","category":"خطب"},{"id":"RGzIXfArzO4","title":"هل الابتلاء عقوبة أم محبة من الله؟","publishedAt":"2024-10-14T18:01:36Z","duration":"PT28M15S","thumbnail":"https://i.ytimg.com/vi/RGzIXfArzO4/mqdefault.jpg","viewCount":"7989","playlistId":"PLEkQk5xrP-tlArtGpeLWaqNM7h7IDeAVC","playlistName":"خطب الجمعة أ.د. يسري جبر","category":"خطب"},{"id":"C21jb5K0xqc","title":"‏هل النبي ﷺ ‏حي في قبره؟","publishedAt":"2024-10-15T18:45:17Z","duration":"PT14M15S","thumbnail":"https://i.ytimg.com/vi/C21jb5K0xqc/mqdefault.jpg","viewCount":"5003","playlistId":"PLEkQk5xrP-tlArtGpeLWaqNM7h7IDeAVC","playlistName":"خطب الجمعة أ.د. يسري جبر","category":"خطب"},{"id":"vQTOAA9wFwY","title":"كيف تكون فى معية الله تعالى؟","publishedAt":"2024-10-18T17:51:40Z","duration":"PT9M19S","thumbnail":"https://i.ytimg.com/vi/vQTOAA9wFwY/mqdefault.jpg","viewCount":"9483","playlistId":"PLEkQk5xrP-tlArtGpeLWaqNM7h7IDeAVC","playlistName":"خطب الجمعة أ.د. يسري جبر","category":"خطب"},{"id":"bI60C7XGrbY","title":"كيف تعود قلبك على الرضا بالقضاء والقدر؟","publishedAt":"2024-10-27T18:32:20Z","duration":"PT31M37S","thumbnail":"https://i.ytimg.com/vi/bI60C7XGrbY/mqdefault.jpg","viewCount":"21005","playlistId":"PLEkQk5xrP-tlArtGpeLWaqNM7h7IDeAVC","playlistName":"خطب الجمعة أ.د. يسري جبر","category":"خطب"},{"id":"l9YEXC8KUVI","title":"ما هو العلم النافع؟","publishedAt":"2024-11-01T18:25:49Z","duration":"PT13M27S","thumbnail":"https://i.ytimg.com/vi/l9YEXC8KUVI/mqdefault.jpg","viewCount":"2486","playlistId":"PLEkQk5xrP-tlArtGpeLWaqNM7h7IDeAVC","playlistName":"خطب الجمعة أ.د. يسري جبر","category":"خطب"},{"id":"s7PtrL2VXh0","title":"كيف نصبر على الابتلاءات والمصائب؟","publishedAt":"2024-11-03T17:00:55Z","duration":"PT25M9S","thumbnail":"https://i.ytimg.com/vi/s7PtrL2VXh0/mqdefault.jpg","viewCount":"8957","playlistId":"PLEkQk5xrP-tlArtGpeLWaqNM7h7IDeAVC","playlistName":"خطب الجمعة أ.د. يسري جبر","category":"خطب"},{"id":"8ogkyjfhydo","title":"الرد على شبهات وادعاءات الوهابية!","publishedAt":"2024-11-14T18:50:40Z","duration":"PT25M29S","thumbnail":"https://i.ytimg.com/vi/8ogkyjfhydo/mqdefault.jpg","viewCount":"6559","playlistId":"PLEkQk5xrP-tlArtGpeLWaqNM7h7IDeAVC","playlistName":"خطب الجمعة أ.د. يسري جبر","category":"خطب"},{"id":"pVjZMWpcXoo","title":"هل يمكن الانتفاع بالأنساب يوم القيامة؟","publishedAt":"2024-11-15T18:47:01Z","duration":"PT11M20S","thumbnail":"https://i.ytimg.com/vi/pVjZMWpcXoo/mqdefault.jpg","viewCount":"2597","playlistId":"PLEkQk5xrP-tlArtGpeLWaqNM7h7IDeAVC","playlistName":"خطب الجمعة أ.د. يسري جبر","category":"خطب"}],"total":675,"page":24,"pageSize":24,"totalPages":29}