{"items":[{"id":"2J2GMs8DrLo","title":"ما وقع من علامات ليلة مولد النبي ﷺ","publishedAt":"2023-09-26T18:25:49Z","duration":"PT19M34S","thumbnail":"https://i.ytimg.com/vi/2J2GMs8DrLo/mqdefault.jpg","viewCount":"13640","playlistId":"PLEkQk5xrP-tlArtGpeLWaqNM7h7IDeAVC","playlistName":"خطب الجمعة أ.د. يسري جبر","category":"خطب"},{"id":"c1r4o7ANOLU","title":"لماذا نحتفل بمولد النبي ﷺ وهل الاحتفال بدعة؟","publishedAt":"2023-09-27T13:00:30Z","duration":"PT21M27S","thumbnail":"https://i.ytimg.com/vi/c1r4o7ANOLU/mqdefault.jpg","viewCount":"11992","playlistId":"PLEkQk5xrP-tlArtGpeLWaqNM7h7IDeAVC","playlistName":"خطب الجمعة أ.د. يسري جبر","category":"خطب"},{"id":"9Eua1uSocMI","title":"كيف ولد رسول الله ﷺ؟","publishedAt":"2023-09-30T17:00:05Z","duration":"PT14M10S","thumbnail":"https://i.ytimg.com/vi/9Eua1uSocMI/mqdefault.jpg","viewCount":"3477","playlistId":"PLEkQk5xrP-tlArtGpeLWaqNM7h7IDeAVC","playlistName":"خطب الجمعة أ.د. يسري جبر","category":"خطب"},{"id":"VvqxRutWilc","title":"ألا إن نصر الله قريب","publishedAt":"2023-10-13T17:00:20Z","duration":"PT8M12S","thumbnail":"https://i.ytimg.com/vi/VvqxRutWilc/mqdefault.jpg","viewCount":"17122","playlistId":"PLEkQk5xrP-tlArtGpeLWaqNM7h7IDeAVC","playlistName":"خطب الجمعة أ.د. يسري جبر","category":"خطب"},{"id":"04tR9_i3HqY","title":"متى سيأتي نصر الله؟","publishedAt":"2023-10-24T18:19:39Z","duration":"PT21M3S","thumbnail":"https://i.ytimg.com/vi/04tR9_i3HqY/mqdefault.jpg","viewCount":"31761","playlistId":"PLEkQk5xrP-tlArtGpeLWaqNM7h7IDeAVC","playlistName":"خطب الجمعة أ.د. يسري جبر","category":"خطب"},{"id":"51jKF42OSy0","title":"سبب ضعف دول المسلمين وعدم المشاركة للدفاع عن أرضهم","publishedAt":"2023-10-29T19:30:10Z","duration":"PT14M44S","thumbnail":"https://i.ytimg.com/vi/51jKF42OSy0/mqdefault.jpg","viewCount":"21430","playlistId":"PLEkQk5xrP-tlArtGpeLWaqNM7h7IDeAVC","playlistName":"خطب الجمعة أ.د. يسري جبر","category":"خطب"},{"id":"T4FQxRbzElc","title":"كيف يكون لكل منا دور إيجابي في الأزمة الحالية؟","publishedAt":"2023-10-31T18:16:51Z","duration":"PT19M1S","thumbnail":"https://i.ytimg.com/vi/T4FQxRbzElc/mqdefault.jpg","viewCount":"8039","playlistId":"PLEkQk5xrP-tlArtGpeLWaqNM7h7IDeAVC","playlistName":"خطب الجمعة أ.د. يسري جبر","category":"خطب"},{"id":"MHd2NiFCRZ4","title":"ماذا فعل النبي ﷺ قبل الفتح الإسلامي؟","publishedAt":"2023-11-02T16:14:20Z","duration":"PT8M32S","thumbnail":"https://i.ytimg.com/vi/MHd2NiFCRZ4/mqdefault.jpg","viewCount":"5080","playlistId":"PLEkQk5xrP-tlArtGpeLWaqNM7h7IDeAVC","playlistName":"خطب الجمعة أ.د. يسري جبر","category":"خطب"},{"id":"_bmO4pymJNw","title":"اعرف تاريخ الي/هود مع المسلمين","publishedAt":"2023-11-07T18:30:23Z","duration":"PT8M21S","thumbnail":"https://i.ytimg.com/vi/_bmO4pymJNw/mqdefault.jpg","viewCount":"11912","playlistId":"PLEkQk5xrP-tlArtGpeLWaqNM7h7IDeAVC","playlistName":"خطب الجمعة أ.د. يسري جبر","category":"خطب"},{"id":"tNb4U7UsYV4","title":"كيف يكون لنا دور في نصرة القضية الفلس/طينية؟","publishedAt":"2023-11-09T19:36:25Z","duration":"PT19M45S","thumbnail":"https://i.ytimg.com/vi/tNb4U7UsYV4/mqdefault.jpg","viewCount":"5454","playlistId":"PLEkQk5xrP-tlArtGpeLWaqNM7h7IDeAVC","playlistName":"خطب الجمعة أ.د. يسري جبر","category":"خطب"},{"id":"0nZSI5WzoSs","title":"ضعف العرب وصبر ورباط أهل غ/زة","publishedAt":"2023-11-13T19:07:23Z","duration":"PT9M40S","thumbnail":"https://i.ytimg.com/vi/0nZSI5WzoSs/mqdefault.jpg","viewCount":"15134","playlistId":"PLEkQk5xrP-tlArtGpeLWaqNM7h7IDeAVC","playlistName":"خطب الجمعة أ.د. يسري جبر","category":"خطب"},{"id":"Me01EjpIVQs","title":"هل خلقنا الله مستضعفين في هذه الدنيا؟","publishedAt":"2023-12-07T18:18:10Z","duration":"PT15M58S","thumbnail":"https://i.ytimg.com/vi/Me01EjpIVQs/mqdefault.jpg","viewCount":"7501","playlistId":"PLEkQk5xrP-tlArtGpeLWaqNM7h7IDeAVC","playlistName":"خطب الجمعة أ.د. يسري جبر","category":"خطب"},{"id":"EKr1fgpPClw","title":"ما هي أفضل الأعمال فى شهر رجب؟","publishedAt":"2024-01-14T18:16:08Z","duration":"PT17M42S","thumbnail":"https://i.ytimg.com/vi/EKr1fgpPClw/mqdefault.jpg","viewCount":"37661","playlistId":"PLEkQk5xrP-tlArtGpeLWaqNM7h7IDeAVC","playlistName":"خطب الجمعة أ.د. يسري جبر","category":"خطب"},{"id":"Wx5kIUig-Ig","title":"فضائل العبادة في شهر رجب","publishedAt":"2024-01-15T18:36:12Z","duration":"PT16M6S","thumbnail":"https://i.ytimg.com/vi/Wx5kIUig-Ig/mqdefault.jpg","viewCount":"7152","playlistId":"PLEkQk5xrP-tlArtGpeLWaqNM7h7IDeAVC","playlistName":"خطب الجمعة أ.د. يسري جبر","category":"خطب"},{"id":"eJQhLeiS5eY","title":"ما هي أفضل الأعمال في شهر شعبان؟","publishedAt":"2024-02-11T18:12:36Z","duration":"PT13M54S","thumbnail":"https://i.ytimg.com/vi/eJQhLeiS5eY/mqdefault.jpg","viewCount":"18908","playlistId":"PLEkQk5xrP-tlArtGpeLWaqNM7h7IDeAVC","playlistName":"خطب الجمعة أ.د. يسري جبر","category":"خطب"},{"id":"ncXuedCSSv4","title":"ماذا أفعل في ليلة النصف من شعبان؟","publishedAt":"2024-02-23T18:17:50Z","duration":"PT16M59S","thumbnail":"https://i.ytimg.com/vi/ncXuedCSSv4/mqdefault.jpg","viewCount":"43782","playlistId":"PLEkQk5xrP-tlArtGpeLWaqNM7h7IDeAVC","playlistName":"خطب الجمعة أ.د. يسري جبر","category":"خطب"},{"id":"Ry2OgyxIYQk","title":"ما أهمية الدعاء في الوضع الحالي؟ | قصة تغير القبلة","publishedAt":"2024-02-29T19:00:18Z","duration":"PT19M19S","thumbnail":"https://i.ytimg.com/vi/Ry2OgyxIYQk/mqdefault.jpg","viewCount":"3026","playlistId":"PLEkQk5xrP-tlArtGpeLWaqNM7h7IDeAVC","playlistName":"خطب الجمعة أ.د. يسري جبر","category":"خطب"},{"id":"q1H3bV6Etvs","title":"كيف تبدأ رمضان بقلب سيلم؟","publishedAt":"2024-03-10T18:00:19Z","duration":"PT17M26S","thumbnail":"https://i.ytimg.com/vi/q1H3bV6Etvs/mqdefault.jpg","viewCount":"13174","playlistId":"PLEkQk5xrP-tlArtGpeLWaqNM7h7IDeAVC","playlistName":"خطب الجمعة أ.د. يسري جبر","category":"خطب"},{"id":"N_IM3NUiv9c","title":"بيفطر ولا لأ؟ | كل ما تريد معرفته عن مفطرات الصيام!","publishedAt":"2024-03-15T18:07:59Z","duration":"PT15M15S","thumbnail":"https://i.ytimg.com/vi/N_IM3NUiv9c/mqdefault.jpg","viewCount":"2873","playlistId":"PLEkQk5xrP-tlArtGpeLWaqNM7h7IDeAVC","playlistName":"خطب الجمعة أ.د. يسري جبر","category":"خطب"},{"id":"J5Qa7Yqy4jU","title":"كيف تكون حسن الخلق أثناء الصيام؟","publishedAt":"2024-03-22T18:00:10Z","duration":"PT14M16S","thumbnail":"https://i.ytimg.com/vi/J5Qa7Yqy4jU/mqdefault.jpg","viewCount":"1814","playlistId":"PLEkQk5xrP-tlArtGpeLWaqNM7h7IDeAVC","playlistName":"خطب الجمعة أ.د. يسري جبر","category":"خطب"},{"id":"N_VVvg1pXHs","title":"بداية العشر الأواخر ومتى ستكون ليلة القدر؟","publishedAt":"2024-03-30T18:00:19Z","duration":"PT8M33S","thumbnail":"https://i.ytimg.com/vi/N_VVvg1pXHs/mqdefault.jpg","viewCount":"5445","playlistId":"PLEkQk5xrP-tlArtGpeLWaqNM7h7IDeAVC","playlistName":"خطب الجمعة أ.د. يسري جبر","category":"خطب"},{"id":"JXJ5cOwk2U4","title":"كيف تكون من أهل ليلة القدر؟","publishedAt":"2024-04-04T18:00:14Z","duration":"PT16M55S","thumbnail":"https://i.ytimg.com/vi/JXJ5cOwk2U4/mqdefault.jpg","viewCount":"8476","playlistId":"PLEkQk5xrP-tlArtGpeLWaqNM7h7IDeAVC","playlistName":"خطب الجمعة أ.د. يسري جبر","category":"خطب"},{"id":"tjy1TVAwt5I","title":"لو نفسك ربنا يختارك لـ ليلة القدر لازم تتخلق بهذا الخلق!","publishedAt":"2024-04-05T18:00:34Z","duration":"PT9M","thumbnail":"https://i.ytimg.com/vi/tjy1TVAwt5I/mqdefault.jpg","viewCount":"8771","playlistId":"PLEkQk5xrP-tlArtGpeLWaqNM7h7IDeAVC","playlistName":"خطب الجمعة أ.د. يسري جبر","category":"خطب"},{"id":"DTEdRnU4H3M","title":"كل ما تريد معرفته عن زكاة الفطر وموعد إخراجها","publishedAt":"2024-04-06T18:00:09Z","duration":"PT22M1S","thumbnail":"https://i.ytimg.com/vi/DTEdRnU4H3M/mqdefault.jpg","viewCount":"1765","playlistId":"PLEkQk5xrP-tlArtGpeLWaqNM7h7IDeAVC","playlistName":"خطب الجمعة أ.د. يسري جبر","category":"خطب"}],"total":675,"page":22,"pageSize":24,"totalPages":29}