{"items":[{"id":"rbCQC6pAl-E","title":"يا أَيُّها الَّذِين آمَنُوا إِذَا قُمْتُم إِلى الصَّلاةِ فاغْسِلوا وُجُوهَكم وأيديَكم ..  د.يسري جبر","publishedAt":"2018-02-24T18:20:33Z","duration":"PT39M4S","thumbnail":"https://i.ytimg.com/vi/rbCQC6pAl-E/mqdefault.jpg","viewCount":"567","playlistId":"PLEkQk5xrP-tlArtGpeLWaqNM7h7IDeAVC","playlistName":"خطب الجمعة أ.د. يسري جبر","category":"خطب"},{"id":"sB2lQcrTcto","title":"أحسنُ الناس مَن أسلم وأحسنُ مَن أسلم مَن سَلِم وأحسنُ مَن سَلِم مَن استسلم  د. يسري جبر","publishedAt":"2018-03-03T18:35:51Z","duration":"PT35M45S","thumbnail":"https://i.ytimg.com/vi/sB2lQcrTcto/mqdefault.jpg","viewCount":"570","playlistId":"PLEkQk5xrP-tlArtGpeLWaqNM7h7IDeAVC","playlistName":"خطب الجمعة أ.د. يسري جبر","category":"خطب"},{"id":"8iuXTt1-94Q","title":"حول مولد أمّنا السيدة فاطمة الزهراء البتول رضي الله تعالى عنها وعليها السلام د. يسري جبر","publishedAt":"2018-03-10T21:10:25Z","duration":"PT43M22S","thumbnail":"https://i.ytimg.com/vi/8iuXTt1-94Q/mqdefault.jpg","viewCount":"1034","playlistId":"PLEkQk5xrP-tlArtGpeLWaqNM7h7IDeAVC","playlistName":"خطب الجمعة أ.د. يسري جبر","category":"خطب"},{"id":"er_CzM3RVqU","title":"تفسير سورة الهُمَزَة  د. يسري جبر","publishedAt":"2018-03-17T15:30:04Z","duration":"PT37M5S","thumbnail":"https://i.ytimg.com/vi/er_CzM3RVqU/mqdefault.jpg","viewCount":"996","playlistId":"PLEkQk5xrP-tlArtGpeLWaqNM7h7IDeAVC","playlistName":"خطب الجمعة أ.د. يسري جبر","category":"خطب"},{"id":"v9pHBA_oSWI","title":"نَصَائِحُ رَجَبِيَّة   د. يسري جبر","publishedAt":"2018-03-25T02:45:04Z","duration":"PT29M53S","thumbnail":"https://i.ytimg.com/vi/v9pHBA_oSWI/mqdefault.jpg","viewCount":"5864","playlistId":"PLEkQk5xrP-tlArtGpeLWaqNM7h7IDeAVC","playlistName":"خطب الجمعة أ.د. يسري جبر","category":"خطب"},{"id":"O1LyLHFcGew","title":"ما على المسلم زمن الفتنة  د. يسري جبر","publishedAt":"2018-04-01T14:29:06Z","duration":"PT36M56S","thumbnail":"https://i.ytimg.com/vi/O1LyLHFcGew/mqdefault.jpg","viewCount":"3000","playlistId":"PLEkQk5xrP-tlArtGpeLWaqNM7h7IDeAVC","playlistName":"خطب الجمعة أ.د. يسري جبر","category":"خطب"},{"id":"zaLts1IMcKA","title":"حول معاني سُورة \"التَّكَاثُر\" د. يسري جبر","publishedAt":"2018-04-07T14:39:06Z","duration":"PT41M52S","thumbnail":"https://i.ytimg.com/vi/zaLts1IMcKA/mqdefault.jpg","viewCount":"6352","playlistId":"PLEkQk5xrP-tlArtGpeLWaqNM7h7IDeAVC","playlistName":"خطب الجمعة أ.د. يسري جبر","category":"خطب"},{"id":"H5GyX7Y84kE","title":"أسلحة هذا الزمان لا تصلح للجهاد بالسلاح باسم الإسلام   د. يسري جبر","publishedAt":"2018-05-10T17:32:53Z","duration":"PT47M25S","thumbnail":"https://i.ytimg.com/vi/H5GyX7Y84kE/mqdefault.jpg","viewCount":"2384","playlistId":"PLEkQk5xrP-tlArtGpeLWaqNM7h7IDeAVC","playlistName":"خطب الجمعة أ.د. يسري جبر","category":"خطب"},{"id":"1x1_W05SK-s","title":"فقه الصيام (أحكامه وشروطه وآدابه) د. يسري جبر","publishedAt":"2018-05-15T10:58:52Z","duration":"PT39M53S","thumbnail":"https://i.ytimg.com/vi/1x1_W05SK-s/mqdefault.jpg","viewCount":"1774","playlistId":"PLEkQk5xrP-tlArtGpeLWaqNM7h7IDeAVC","playlistName":"خطب الجمعة أ.د. يسري جبر","category":"خطب"},{"id":"O4tAHZxBUMQ","title":"رمضانيات  د. يسري جبر","publishedAt":"2018-05-19T15:48:04Z","duration":"PT36M5S","thumbnail":"https://i.ytimg.com/vi/O4tAHZxBUMQ/mqdefault.jpg","viewCount":"1078","playlistId":"PLEkQk5xrP-tlArtGpeLWaqNM7h7IDeAVC","playlistName":"خطب الجمعة أ.د. يسري جبر","category":"خطب"},{"id":"96U3BG48zD8","title":"رمضانيات (۲)  د. يسري جبر","publishedAt":"2018-05-27T12:41:52Z","duration":"PT32M22S","thumbnail":"https://i.ytimg.com/vi/96U3BG48zD8/mqdefault.jpg","viewCount":"539","playlistId":"PLEkQk5xrP-tlArtGpeLWaqNM7h7IDeAVC","playlistName":"خطب الجمعة أ.د. يسري جبر","category":"خطب"},{"id":"rL3Gdc4O1R4","title":"رمضانيات (۳) د. يسري جبر","publishedAt":"2018-06-02T00:17:04Z","duration":"PT35M56S","thumbnail":"https://i.ytimg.com/vi/rL3Gdc4O1R4/mqdefault.jpg","viewCount":"478","playlistId":"PLEkQk5xrP-tlArtGpeLWaqNM7h7IDeAVC","playlistName":"خطب الجمعة أ.د. يسري جبر","category":"خطب"},{"id":"juB0rfvYYks","title":"رمضانيات (4) د. يسري جبر","publishedAt":"2018-06-10T16:06:28Z","duration":"PT37M12S","thumbnail":"https://i.ytimg.com/vi/juB0rfvYYks/mqdefault.jpg","viewCount":"294","playlistId":"PLEkQk5xrP-tlArtGpeLWaqNM7h7IDeAVC","playlistName":"خطب الجمعة أ.د. يسري جبر","category":"خطب"},{"id":"zwDOpQeWmPA","title":"سُنَنُ النَّبيِّ صلى الله عليه وآله وسلم في الأزمات   د. يسري جبر","publishedAt":"2018-07-01T08:56:28Z","duration":"PT42M12S","thumbnail":"https://i.ytimg.com/vi/zwDOpQeWmPA/mqdefault.jpg","viewCount":"772","playlistId":"PLEkQk5xrP-tlArtGpeLWaqNM7h7IDeAVC","playlistName":"خطب الجمعة أ.د. يسري جبر","category":"خطب"},{"id":"VpVbDGeR-9E","title":"لا يظِلمُ رَبٌك أحدًا","publishedAt":"2018-07-08T02:05:38Z","duration":"PT36M53S","thumbnail":"https://i.ytimg.com/vi/VpVbDGeR-9E/mqdefault.jpg","viewCount":"900","playlistId":"PLEkQk5xrP-tlArtGpeLWaqNM7h7IDeAVC","playlistName":"خطب الجمعة أ.د. يسري جبر","category":"خطب"},{"id":"J3gE6pSRhyI","title":"ولَوْ رَحِمْنَاهُمْ وَكَشَفْنَا مَا بِهِم مِّن ضُرٍّ لَّلَجُّوا فِي طُغْيَانِهِمْ يَعْمَهُونَ","publishedAt":"2018-07-15T18:29:29Z","duration":"PT35M54S","thumbnail":"https://i.ytimg.com/vi/J3gE6pSRhyI/mqdefault.jpg","viewCount":"985","playlistId":"PLEkQk5xrP-tlArtGpeLWaqNM7h7IDeAVC","playlistName":"خطب الجمعة أ.د. يسري جبر","category":"خطب"},{"id":"L3Se63T5bnY","title":"الْمَلَائِكَةُ  د.يسري جبر","publishedAt":"2018-07-22T11:32:41Z","duration":"PT52M25S","thumbnail":"https://i.ytimg.com/vi/L3Se63T5bnY/mqdefault.jpg","viewCount":"10657","playlistId":"PLEkQk5xrP-tlArtGpeLWaqNM7h7IDeAVC","playlistName":"خطب الجمعة أ.د. يسري جبر","category":"خطب"},{"id":"TFhJe4hvU64","title":"الْمَلَائِكَةُ (۲) د.يسري جبر","publishedAt":"2018-07-28T14:38:58Z","duration":"PT58M43S","thumbnail":"https://i.ytimg.com/vi/TFhJe4hvU64/mqdefault.jpg","viewCount":"7476","playlistId":"PLEkQk5xrP-tlArtGpeLWaqNM7h7IDeAVC","playlistName":"خطب الجمعة أ.د. يسري جبر","category":"خطب"},{"id":"_a57UiO-rIc","title":"مُعامَلةُ الحَقِّ في الخَلْق د.يسري جبر","publishedAt":"2018-08-03T22:54:51Z","duration":"PT41M8S","thumbnail":"https://i.ytimg.com/vi/_a57UiO-rIc/mqdefault.jpg","viewCount":"936","playlistId":"PLEkQk5xrP-tlArtGpeLWaqNM7h7IDeAVC","playlistName":"خطب الجمعة أ.د. يسري جبر","category":"خطب"},{"id":"YSfllCSoGqA","title":"تصحيحُ العَقائِدِ في العَشْر الأَوائل   د. يسري جبر","publishedAt":"2018-08-12T13:07:02Z","duration":"PT41M25S","thumbnail":"https://i.ytimg.com/vi/YSfllCSoGqA/mqdefault.jpg","viewCount":"925","playlistId":"PLEkQk5xrP-tlArtGpeLWaqNM7h7IDeAVC","playlistName":"خطب الجمعة أ.د. يسري جبر","category":"خطب"},{"id":"aHhfAnrayGU","title":"نصائح من الأيام العشر  د. يسري جبر","publishedAt":"2018-08-18T01:20:07Z","duration":"PT38M41S","thumbnail":"https://i.ytimg.com/vi/aHhfAnrayGU/mqdefault.jpg","viewCount":"962","playlistId":"PLEkQk5xrP-tlArtGpeLWaqNM7h7IDeAVC","playlistName":"خطب الجمعة أ.د. يسري جبر","category":"خطب"},{"id":"eJEy89vRBCo","title":"حَقَائِقُ مُحَمَّدِيَّة    د. يسري جبر","publishedAt":"2018-09-09T13:12:52Z","duration":"PT45M","thumbnail":"https://i.ytimg.com/vi/eJEy89vRBCo/mqdefault.jpg","viewCount":"3351","playlistId":"PLEkQk5xrP-tlArtGpeLWaqNM7h7IDeAVC","playlistName":"خطب الجمعة أ.د. يسري جبر","category":"خطب"},{"id":"-i-i9DBZgHE","title":"عاشوراء ومقتل مولانا الإمام الحسين رضي الله تعالى عنه وعليه السلام  د. يسري جبر","publishedAt":"2018-09-26T15:14:33Z","duration":"PT36M34S","thumbnail":"https://i.ytimg.com/vi/-i-i9DBZgHE/mqdefault.jpg","viewCount":"6823","playlistId":"PLEkQk5xrP-tlArtGpeLWaqNM7h7IDeAVC","playlistName":"خطب الجمعة أ.د. يسري جبر","category":"خطب"},{"id":"YvQ5dm7zirM","title":"مفاهيم حول تصحيح العقيدة ومحبة آل البيت رضي الله تعالى عنهم وعليهم السلام.  د. يسري جبر","publishedAt":"2018-10-08T17:36:50Z","duration":"PT42M10S","thumbnail":"https://i.ytimg.com/vi/YvQ5dm7zirM/mqdefault.jpg","viewCount":"3221","playlistId":"PLEkQk5xrP-tlArtGpeLWaqNM7h7IDeAVC","playlistName":"خطب الجمعة أ.د. يسري جبر","category":"خطب"}],"total":676,"page":7,"pageSize":24,"totalPages":29}