{"items":[{"id":"7Ke8mNnUm2U","title":"كيف كان نقش خاتم سيدنا محمد | اعرف نبيك","publishedAt":"2015-05-20T15:53:05Z","duration":"PT35S","thumbnail":"https://i.ytimg.com/vi/7Ke8mNnUm2U/mqdefault.jpg","viewCount":"2331","playlistId":"PLEkQk5xrP-tl6Mu_Mz3QMUSv5T6XBH-Dg","playlistName":"برنامج اعرف نبيك","category":"متنوع"},{"id":"NQC0IXjyjMU","title":"أسماء النبي المخصوصة و المذكورة في الكتب السماوية | اعرف نبيك","publishedAt":"2015-09-24T15:40:49Z","duration":"PT5M47S","thumbnail":"https://i.ytimg.com/vi/NQC0IXjyjMU/mqdefault.jpg","viewCount":"2285","playlistId":"PLEkQk5xrP-tl6Mu_Mz3QMUSv5T6XBH-Dg","playlistName":"برنامج اعرف نبيك","category":"متنوع"},{"id":"mFu029ijKgI","title":"لماذا نلبس الحذاء من اليمين الى اليسار ؟ | اعرف نبيك","publishedAt":"2015-10-14T17:24:33Z","duration":"PT7M52S","thumbnail":"https://i.ytimg.com/vi/mFu029ijKgI/mqdefault.jpg","viewCount":"2212","playlistId":"PLEkQk5xrP-tl6Mu_Mz3QMUSv5T6XBH-Dg","playlistName":"برنامج اعرف نبيك","category":"متنوع"},{"id":"hcuuu2cwAJw","title":"تبرك الصحابة بماء وضوء رسول الله | اعرف نبيك","publishedAt":"2015-09-03T16:09:48Z","duration":"PT5M12S","thumbnail":"https://i.ytimg.com/vi/hcuuu2cwAJw/mqdefault.jpg","viewCount":"2087","playlistId":"PLEkQk5xrP-tl6Mu_Mz3QMUSv5T6XBH-Dg","playlistName":"برنامج اعرف نبيك","category":"متنوع"},{"id":"_onIx-uXOQw","title":"ماهي أحب الثياب إلى سيدنا محمد | اعرف نبيك","publishedAt":"2015-05-13T14:47:02Z","duration":"PT1M47S","thumbnail":"https://i.ytimg.com/vi/_onIx-uXOQw/mqdefault.jpg","viewCount":"1660","playlistId":"PLEkQk5xrP-tl6Mu_Mz3QMUSv5T6XBH-Dg","playlistName":"برنامج اعرف نبيك","category":"متنوع"},{"id":"bNs5JAakqQY","title":"الأنبياء لا يورثون | اعرف نبيك","publishedAt":"2015-11-19T17:05:08Z","duration":"PT5M58S","thumbnail":"https://i.ytimg.com/vi/bNs5JAakqQY/mqdefault.jpg","viewCount":"1636","playlistId":"PLEkQk5xrP-tl6Mu_Mz3QMUSv5T6XBH-Dg","playlistName":"برنامج اعرف نبيك","category":"متنوع"},{"id":"x9WvM5ByynY","title":"الأحاديث الواردة فى باب خاتِم النبوة   | اعرف نبيك","publishedAt":"2015-04-30T14:52:45Z","duration":"PT6M53S","thumbnail":"https://i.ytimg.com/vi/x9WvM5ByynY/mqdefault.jpg","viewCount":"1506","playlistId":"PLEkQk5xrP-tl6Mu_Mz3QMUSv5T6XBH-Dg","playlistName":"برنامج اعرف نبيك","category":"متنوع"},{"id":"3NrEb_MbMgw","title":"حياء رسول الله | اعرف نبيك","publishedAt":"2015-09-17T15:21:01Z","duration":"PT8M55S","thumbnail":"https://i.ytimg.com/vi/3NrEb_MbMgw/mqdefault.jpg","viewCount":"1492","playlistId":"PLEkQk5xrP-tl6Mu_Mz3QMUSv5T6XBH-Dg","playlistName":"برنامج اعرف نبيك","category":"متنوع"},{"id":"-h07ZV9nnqw","title":"كيف كان عيش سيدنا محمد | اعرف نبيك","publishedAt":"2015-05-14T15:15:52Z","duration":"PT3M44S","thumbnail":"https://i.ytimg.com/vi/-h07ZV9nnqw/mqdefault.jpg","viewCount":"1424","playlistId":"PLEkQk5xrP-tl6Mu_Mz3QMUSv5T6XBH-Dg","playlistName":"برنامج اعرف نبيك","category":"متنوع"},{"id":"W2SKx_D3J3M","title":"عبادة النبي صلى الله عليه وسلم | اعرف نبيك","publishedAt":"2015-08-12T15:22:43Z","duration":"PT6M39S","thumbnail":"https://i.ytimg.com/vi/W2SKx_D3J3M/mqdefault.jpg","viewCount":"1386","playlistId":"PLEkQk5xrP-tl6Mu_Mz3QMUSv5T6XBH-Dg","playlistName":"برنامج اعرف نبيك","category":"متنوع"},{"id":"B6o92Titpio","title":"الحكمة من لبس سيدنا محمد جميع أنواع وألوان الثياب | اعرف نبيك","publishedAt":"2015-05-14T14:46:30Z","duration":"PT2M1S","thumbnail":"https://i.ytimg.com/vi/B6o92Titpio/mqdefault.jpg","viewCount":"1213","playlistId":"PLEkQk5xrP-tl6Mu_Mz3QMUSv5T6XBH-Dg","playlistName":"برنامج اعرف نبيك","category":"متنوع"},{"id":"mpVqQ45mCaA","title":"ماهي ثياب الشهرة ولماذا كرهها سيدنا محمد | اعرف نبيك","publishedAt":"2015-05-14T14:53:26Z","duration":"PT47S","thumbnail":"https://i.ytimg.com/vi/mpVqQ45mCaA/mqdefault.jpg","viewCount":"1163","playlistId":"PLEkQk5xrP-tl6Mu_Mz3QMUSv5T6XBH-Dg","playlistName":"برنامج اعرف نبيك","category":"متنوع"},{"id":"EJ0F3AlhmZQ","title":"هل احتاج النبي أن يختضب لوجود شيب فى شعره | اعرف نبيك","publishedAt":"2015-05-07T14:44:31Z","duration":"PT2M20S","thumbnail":"https://i.ytimg.com/vi/EJ0F3AlhmZQ/mqdefault.jpg","viewCount":"1161","playlistId":"PLEkQk5xrP-tl6Mu_Mz3QMUSv5T6XBH-Dg","playlistName":"برنامج اعرف نبيك","category":"متنوع"},{"id":"cJ-sP-aa_Gw","title":"كيف عاش النبي ثلاثون يوما بدون طعام | اعرف نبيك","publishedAt":"2015-10-07T17:06:57Z","duration":"PT5M8S","thumbnail":"https://i.ytimg.com/vi/cJ-sP-aa_Gw/mqdefault.jpg","viewCount":"1110","playlistId":"PLEkQk5xrP-tl6Mu_Mz3QMUSv5T6XBH-Dg","playlistName":"برنامج اعرف نبيك","category":"متنوع"},{"id":"ToNGDfkouPU","title":"شرف الله أهل مصر بشعرات من شعر النبي موجوده بالحسين | اعرف نبيك","publishedAt":"2015-05-07T15:12:38Z","duration":"PT1M6S","thumbnail":"https://i.ytimg.com/vi/ToNGDfkouPU/mqdefault.jpg","viewCount":"1109","playlistId":"PLEkQk5xrP-tl6Mu_Mz3QMUSv5T6XBH-Dg","playlistName":"برنامج اعرف نبيك","category":"متنوع"},{"id":"-nvAlp44Vqc","title":"المرأة الحائض وحكم مجالستها بين الإسلام واليهودية  اعرف نبيك","publishedAt":"2015-05-06T15:29:07Z","duration":"PT2M42S","thumbnail":"https://i.ytimg.com/vi/-nvAlp44Vqc/mqdefault.jpg","viewCount":"1108","playlistId":"PLEkQk5xrP-tl6Mu_Mz3QMUSv5T6XBH-Dg","playlistName":"برنامج اعرف نبيك","category":"متنوع"},{"id":"9rY-Nyn1ISw","title":"عطف النبي صلى الله عليه  وسلم علي الفقراء | اعرف نبيك","publishedAt":"2015-09-03T16:04:11Z","duration":"PT7M18S","thumbnail":"https://i.ytimg.com/vi/9rY-Nyn1ISw/mqdefault.jpg","viewCount":"1040","playlistId":"PLEkQk5xrP-tl6Mu_Mz3QMUSv5T6XBH-Dg","playlistName":"برنامج اعرف نبيك","category":"متنوع"},{"id":"-XRRuIM3UpI","title":"برغم علم النبي أنه معصوم من الناس أَخذَ بالأسباب | اعرف نبيك","publishedAt":"2015-05-21T15:31:14Z","duration":"PT1M29S","thumbnail":"https://i.ytimg.com/vi/-XRRuIM3UpI/mqdefault.jpg","viewCount":"956","playlistId":"PLEkQk5xrP-tl6Mu_Mz3QMUSv5T6XBH-Dg","playlistName":"برنامج اعرف نبيك","category":"متنوع"},{"id":"FIXSlMa9hyo","title":"هَدي سيدنا محمد فى ارتداء الحذاء | اعرف نبيك","publishedAt":"2015-05-20T15:42:49Z","duration":"PT46S","thumbnail":"https://i.ytimg.com/vi/FIXSlMa9hyo/mqdefault.jpg","viewCount":"915","playlistId":"PLEkQk5xrP-tl6Mu_Mz3QMUSv5T6XBH-Dg","playlistName":"برنامج اعرف نبيك","category":"متنوع"},{"id":"DOqVAV7LThg","title":"الصفات المذمومة عند العرب | اعرف نبيك","publishedAt":"2015-07-22T15:11:40Z","duration":"PT6M29S","thumbnail":"https://i.ytimg.com/vi/DOqVAV7LThg/mqdefault.jpg","viewCount":"886","playlistId":"PLEkQk5xrP-tl6Mu_Mz3QMUSv5T6XBH-Dg","playlistName":"برنامج اعرف نبيك","category":"متنوع"},{"id":"IEMeAi05nFs","title":"مكانة المدينة المنورة في الإسلام | اعرف نبيك","publishedAt":"2015-06-11T14:38:17Z","duration":"PT1M19S","thumbnail":"https://i.ytimg.com/vi/IEMeAi05nFs/mqdefault.jpg","viewCount":"877","playlistId":"PLEkQk5xrP-tl6Mu_Mz3QMUSv5T6XBH-Dg","playlistName":"برنامج اعرف نبيك","category":"متنوع"},{"id":"JzeCeTZen0Y","title":"كان سيدنا محمد يُحب التيمُن ما استطاع | اعرف نبيك","publishedAt":"2015-05-20T15:52:03Z","duration":"PT26S","thumbnail":"https://i.ytimg.com/vi/JzeCeTZen0Y/mqdefault.jpg","viewCount":"802","playlistId":"PLEkQk5xrP-tl6Mu_Mz3QMUSv5T6XBH-Dg","playlistName":"برنامج اعرف نبيك","category":"متنوع"},{"id":"ezysXv7-ipQ","title":"جبريل عليه السلام ينزل لسيدنا محمد ويبشره | اعرف نبيك","publishedAt":"2015-08-05T15:35:24Z","duration":"PT2M16S","thumbnail":"https://i.ytimg.com/vi/ezysXv7-ipQ/mqdefault.jpg","viewCount":"748","playlistId":"PLEkQk5xrP-tl6Mu_Mz3QMUSv5T6XBH-Dg","playlistName":"برنامج اعرف نبيك","category":"متنوع"},{"id":"r_djy_X8A2E","title":"طريقة نصح رسول الله للناس | اعرف نبيك","publishedAt":"2015-09-09T16:31:17Z","duration":"PT9M50S","thumbnail":"https://i.ytimg.com/vi/r_djy_X8A2E/mqdefault.jpg","viewCount":"640","playlistId":"PLEkQk5xrP-tl6Mu_Mz3QMUSv5T6XBH-Dg","playlistName":"برنامج اعرف نبيك","category":"متنوع"}],"total":66,"page":2,"pageSize":24,"totalPages":3}