{"items":[{"id":"Ih4MhsxX6JE","title":"ستر أنوار السرائر بكثائف الظواهر، إجلالا لها أن تبتذل بوجود الإظهار،...","publishedAt":"2017-04-01T15:52:35Z","duration":"PT22M9S","thumbnail":"https://i.ytimg.com/vi/Ih4MhsxX6JE/mqdefault.jpg","viewCount":"10072","playlistId":"PLEkQk5xrP-tkI_meE148wc7V7XHlB0WPb","playlistName":"من الحكم العطائية  د. يسري جبر","category":"متنوع"},{"id":"Mbil34s6r0g","title":"ربما وقفت القلوب مع الأنوار، كما حُجبت النفوس بكثائف الأغيار.","publishedAt":"2017-03-29T19:36:54Z","duration":"PT6M7S","thumbnail":"https://i.ytimg.com/vi/Mbil34s6r0g/mqdefault.jpg","viewCount":"3273","playlistId":"PLEkQk5xrP-tkI_meE148wc7V7XHlB0WPb","playlistName":"من الحكم العطائية  د. يسري جبر","category":"متنوع"},{"id":"qiiKcEy1L7M","title":"نور يكشف لك به عن آثاره، ونور يكشف لك به عن أوصافه .","publishedAt":"2017-03-28T19:42:24Z","duration":"PT19M48S","thumbnail":"https://i.ytimg.com/vi/qiiKcEy1L7M/mqdefault.jpg","viewCount":"10981","playlistId":"PLEkQk5xrP-tkI_meE148wc7V7XHlB0WPb","playlistName":"من الحكم العطائية  د. يسري جبر","category":"متنوع"},{"id":"oESN6aKpwZQ","title":"أنار الظواهر بأنوار آثاره ، وأنار السرائر بأنوار أوصافه","publishedAt":"2016-11-25T18:13:54Z","duration":"PT19M1S","thumbnail":"https://i.ytimg.com/vi/oESN6aKpwZQ/mqdefault.jpg","viewCount":"1399","playlistId":"PLEkQk5xrP-tkI_meE148wc7V7XHlB0WPb","playlistName":"من الحكم العطائية  د. يسري جبر","category":"متنوع"},{"id":"PXq-SjgWVbE","title":"العارفُ لا يزول اضطرارُه ، ولا يكون مع غير الله قرارُه .","publishedAt":"2016-11-20T20:06:03Z","duration":"PT21M20S","thumbnail":"https://i.ytimg.com/vi/PXq-SjgWVbE/mqdefault.jpg","viewCount":"9851","playlistId":"PLEkQk5xrP-tkI_meE148wc7V7XHlB0WPb","playlistName":"من الحكم العطائية  د. يسري جبر","category":"متنوع"},{"id":"_xM1bfmPMOU","title":"متى أطلق لسانك بالطلب ، فاعلم أنَّه يُريد أن يعطيك","publishedAt":"2016-11-14T20:39:55Z","duration":"PT15M7S","thumbnail":"https://i.ytimg.com/vi/_xM1bfmPMOU/mqdefault.jpg","viewCount":"19657","playlistId":"PLEkQk5xrP-tkI_meE148wc7V7XHlB0WPb","playlistName":"من الحكم العطائية  د. يسري جبر","category":"متنوع"},{"id":"VhK5_E8jMm4","title":"متى أوحشك من خلقه ، فاعلم أنَّه يريد أن يفتح لك باب الأنس به .","publishedAt":"2016-11-13T20:03:49Z","duration":"PT11M27S","thumbnail":"https://i.ytimg.com/vi/VhK5_E8jMm4/mqdefault.jpg","viewCount":"27598","playlistId":"PLEkQk5xrP-tkI_meE148wc7V7XHlB0WPb","playlistName":"من الحكم العطائية  د. يسري جبر","category":"متنوع"},{"id":"c5-5ciqYJ5w","title":"خير أوقاتك : وقت تشهد فيه وجود فاقتك ، وتُردُّ فيه إلى وجود ذِلَّتك","publishedAt":"2016-11-12T19:22:17Z","duration":"PT12M35S","thumbnail":"https://i.ytimg.com/vi/c5-5ciqYJ5w/mqdefault.jpg","viewCount":"2485","playlistId":"PLEkQk5xrP-tkI_meE148wc7V7XHlB0WPb","playlistName":"من الحكم العطائية  د. يسري جبر","category":"متنوع"},{"id":"tIxD5NdK7IQ","title":"نعمتان ما خرج موجود عنهما ، ولابدَّ لكل مُكوَّن منهما : نعمة الإيجاد ، ونعمة الإمداد .","publishedAt":"2016-11-11T20:13:21Z","duration":"PT20M32S","thumbnail":"https://i.ytimg.com/vi/tIxD5NdK7IQ/mqdefault.jpg","viewCount":"2498","playlistId":"PLEkQk5xrP-tkI_meE148wc7V7XHlB0WPb","playlistName":"من الحكم العطائية  د. يسري جبر","category":"متنوع"},{"id":"0AK8PSOVDsE","title":"مطالع الأنوار : القلوب والأسرار","publishedAt":"2017-03-23T17:19:39Z","duration":"PT14M48S","thumbnail":"https://i.ytimg.com/vi/0AK8PSOVDsE/mqdefault.jpg","viewCount":"11423","playlistId":"PLEkQk5xrP-tkI_meE148wc7V7XHlB0WPb","playlistName":"من الحكم العطائية  د. يسري جبر","category":"متنوع"},{"id":"i0tTZk_Cjus","title":"ربما أفادك في ليل القبض ما لم تستفدْه في إشراق نهار البسط .","publishedAt":"2017-03-20T19:35:52Z","duration":"PT14M17S","thumbnail":"https://i.ytimg.com/vi/i0tTZk_Cjus/mqdefault.jpg","viewCount":"9276","playlistId":"PLEkQk5xrP-tkI_meE148wc7V7XHlB0WPb","playlistName":"من الحكم العطائية  د. يسري جبر","category":"متنوع"},{"id":"Z6hL97JKP68","title":"مطلبُ العارفين من الله الصدقُ في العُبُوديَّة ، والقيامُ بحقوق الرُّبُوبَِّية","publishedAt":"2016-11-01T19:51:09Z","duration":"PT5M55S","thumbnail":"https://i.ytimg.com/vi/Z6hL97JKP68/mqdefault.jpg","viewCount":"3186","playlistId":"PLEkQk5xrP-tkI_meE148wc7V7XHlB0WPb","playlistName":"من الحكم العطائية  د. يسري جبر","category":"متنوع"},{"id":"O3I3NWmLqbc","title":"الرَّجَاءُ مَا قارنَه عَمَلٌ ، وإلَّا .. فهُو أُمْنِيَةٌ !","publishedAt":"2016-11-01T18:50:37Z","duration":"PT4M26S","thumbnail":"https://i.ytimg.com/vi/O3I3NWmLqbc/mqdefault.jpg","viewCount":"2409","playlistId":"PLEkQk5xrP-tkI_meE148wc7V7XHlB0WPb","playlistName":"من الحكم العطائية  د. يسري جبر","category":"متنوع"},{"id":"MVUXEIvWZfc","title":"مقامُ الفَرْقِ ومقامُ الجَمْعِ","publishedAt":"2016-10-31T13:20:31Z","duration":"PT13M2S","thumbnail":"https://i.ytimg.com/vi/MVUXEIvWZfc/mqdefault.jpg","viewCount":"7253","playlistId":"PLEkQk5xrP-tkI_meE148wc7V7XHlB0WPb","playlistName":"من الحكم العطائية  د. يسري جبر","category":"متنوع"},{"id":"LFRKIcc8bWQ","title":"إذا أردت أن يفتح لك باب الرجاء،فاشهد ما منه إليك.وإذا أردت أن يفتح لك باب الخوف،فاشهد ما منك إليه","publishedAt":"2017-03-17T20:42:25Z","duration":"PT13M33S","thumbnail":"https://i.ytimg.com/vi/LFRKIcc8bWQ/mqdefault.jpg","viewCount":"5045","playlistId":"PLEkQk5xrP-tkI_meE148wc7V7XHlB0WPb","playlistName":"من الحكم العطائية  د. يسري جبر","category":"متنوع"},{"id":"FQny9E1h8K4","title":"إذا وقع منك ذنب ، فلا يكن سببا يؤيسك من حصول الاستقامة مع ربك فقد يكون ذلك آخر ذنب قُدِّر عليك","publishedAt":"2017-03-15T18:05:39Z","duration":"PT5M30S","thumbnail":"https://i.ytimg.com/vi/FQny9E1h8K4/mqdefault.jpg","viewCount":"2360","playlistId":"PLEkQk5xrP-tkI_meE148wc7V7XHlB0WPb","playlistName":"من الحكم العطائية  د. يسري جبر","category":"متنوع"},{"id":"pbGqBWrgzg4","title":"متى كنت إذا أُعطيت بسطك العطاء،وإذا مُنعت قبضك المنع،فاستدِل بذلك على طفوليتك، وعدم صدقك في عبوديتك","publishedAt":"2017-03-11T19:05:16Z","duration":"PT10M50S","thumbnail":"https://i.ytimg.com/vi/pbGqBWrgzg4/mqdefault.jpg","viewCount":"1309","playlistId":"PLEkQk5xrP-tkI_meE148wc7V7XHlB0WPb","playlistName":"من الحكم العطائية  د. يسري جبر","category":"متنوع"},{"id":"1-lck3JcIEg","title":"الزهاد إذا مدحواانقبضوا،لشهودهم الثناء من الخلق والعارفون إذا مدحواانبسطوالشهودهم ذلك من الملِك الحق","publishedAt":"2017-03-09T21:18:54Z","duration":"PT10M32S","thumbnail":"https://i.ytimg.com/vi/1-lck3JcIEg/mqdefault.jpg","viewCount":"872","playlistId":"PLEkQk5xrP-tkI_meE148wc7V7XHlB0WPb","playlistName":"من الحكم العطائية  د. يسري جبر","category":"متنوع"},{"id":"1C7lHWXYR2Q","title":"أجهل الناس مَنْ ترك يقين ما عنده لظن ما عند الناس","publishedAt":"2017-03-08T19:14:24Z","duration":"PT6M34S","thumbnail":"https://i.ytimg.com/vi/1C7lHWXYR2Q/mqdefault.jpg","viewCount":"1585","playlistId":"PLEkQk5xrP-tkI_meE148wc7V7XHlB0WPb","playlistName":"من الحكم العطائية  د. يسري جبر","category":"متنوع"},{"id":"X23xO2VwvfI","title":"الناسُ يْمدحونك لِمَا يظُنُّون فيك فكُنْ أنت ذامَّا لنفسِك لِمَا تعلمُه منها","publishedAt":"2017-03-04T19:05:56Z","duration":"PT7M13S","thumbnail":"https://i.ytimg.com/vi/X23xO2VwvfI/mqdefault.jpg","viewCount":"796","playlistId":"PLEkQk5xrP-tkI_meE148wc7V7XHlB0WPb","playlistName":"من الحكم العطائية  د. يسري جبر","category":"متنوع"},{"id":"gl2gmUPnlsg","title":"أباح لك أن تنظر ما في المُكَوَّنات ، وما أذِن لك أن تقف مع ذوات المُكَوَّنات","publishedAt":"2017-02-25T20:51:05Z","duration":"PT17M20S","thumbnail":"https://i.ytimg.com/vi/gl2gmUPnlsg/mqdefault.jpg","viewCount":"1033","playlistId":"PLEkQk5xrP-tkI_meE148wc7V7XHlB0WPb","playlistName":"من الحكم العطائية  د. يسري جبر","category":"متنوع"},{"id":"qANsLQZBDRw","title":"لا يُخرِِجُ الشهوةَ من القلبِ إلا خوفٌ مُزعِجٌ أو شوقٌ مُقلِقٌ","publishedAt":"2017-09-11T19:47:09Z","duration":"PT11M59S","thumbnail":"https://i.ytimg.com/vi/qANsLQZBDRw/mqdefault.jpg","viewCount":"5879","playlistId":"PLEkQk5xrP-tkI_meE148wc7V7XHlB0WPb","playlistName":"من الحكم العطائية  د. يسري جبر","category":"متنوع"},{"id":"XyPGFgGdEwQ","title":"تمكُّنُ حلاوةِ الهَوَى من القلبِ هُوَ الدَّاءُ العُضَالُ (2)","publishedAt":"2017-09-06T20:01:56Z","duration":"PT30M37S","thumbnail":"https://i.ytimg.com/vi/XyPGFgGdEwQ/mqdefault.jpg","viewCount":"1095","playlistId":"PLEkQk5xrP-tkI_meE148wc7V7XHlB0WPb","playlistName":"من الحكم العطائية  د. يسري جبر","category":"متنوع"},{"id":"pEx57SzKRdQ","title":"تمكُّنُ حلاوةِ الهَوَى من القلبِ هُوَ الدَّاءُ العُضَالُ (1)","publishedAt":"2017-09-06T20:01:27Z","duration":"PT15M44S","thumbnail":"https://i.ytimg.com/vi/pEx57SzKRdQ/mqdefault.jpg","viewCount":"2441","playlistId":"PLEkQk5xrP-tkI_meE148wc7V7XHlB0WPb","playlistName":"من الحكم العطائية  د. يسري جبر","category":"متنوع"}],"total":136,"page":4,"pageSize":24,"totalPages":6}