{"items":[{"id":"HqFzyGYs44o","title":"الصلاةُ طَهارةٌ ( طُُهرةٌ ) للقلوب من أدناس الذنوب، واستفتاحٌ لِبَابِ الغُيوب","publishedAt":"2017-01-25T17:28:27Z","duration":"PT12M31S","thumbnail":"https://i.ytimg.com/vi/HqFzyGYs44o/mqdefault.jpg","viewCount":"1808","playlistId":"PLEkQk5xrP-tkI_meE148wc7V7XHlB0WPb","playlistName":"من الحكم العطائية  د. يسري جبر","category":"متنوع"},{"id":"_LOxIBY3d_g","title":"لمَّا عَلِمَ الحقُّ منك وجودَ المَلل ، لوَّن لك الطاعات .","publishedAt":"2017-01-22T18:33:11Z","duration":"PT9M56S","thumbnail":"https://i.ytimg.com/vi/_LOxIBY3d_g/mqdefault.jpg","viewCount":"2063","playlistId":"PLEkQk5xrP-tkI_meE148wc7V7XHlB0WPb","playlistName":"من الحكم العطائية  د. يسري جبر","category":"متنوع"},{"id":"M61EeeacpvQ","title":"علم منك أنك لا تصبر عنه ، فأشهدك ما برز منه","publishedAt":"2017-01-18T18:46:51Z","duration":"PT5M9S","thumbnail":"https://i.ytimg.com/vi/M61EeeacpvQ/mqdefault.jpg","viewCount":"1792","playlistId":"PLEkQk5xrP-tkI_meE148wc7V7XHlB0WPb","playlistName":"من الحكم العطائية  د. يسري جبر","category":"متنوع"},{"id":"BwHjmGGVhbc","title":"أمرك في هذه الدار بالنظر في مُكَوَّنَاته وسيكشف لك في تلك الدار عن كمال ذاته.","publishedAt":"2017-01-13T16:20:24Z","duration":"PT5M48S","thumbnail":"https://i.ytimg.com/vi/BwHjmGGVhbc/mqdefault.jpg","viewCount":"1649","playlistId":"PLEkQk5xrP-tkI_meE148wc7V7XHlB0WPb","playlistName":"من الحكم العطائية  د. يسري جبر","category":"متنوع"},{"id":"gl2gmUPnlsg","title":"أباح لك أن تنظر ما في المُكَوَّنات ، وما أذِن لك أن تقف مع ذوات المُكَوَّنات","publishedAt":"2017-02-25T20:51:05Z","duration":"PT17M20S","thumbnail":"https://i.ytimg.com/vi/gl2gmUPnlsg/mqdefault.jpg","viewCount":"1033","playlistId":"PLEkQk5xrP-tkI_meE148wc7V7XHlB0WPb","playlistName":"من الحكم العطائية  د. يسري جبر","category":"متنوع"},{"id":"4fQwbmamtZg","title":"العِلمُ إنْ قَارَنَتْهُ الخَشْيَةُ .. فَلَكَ، وَإِلَّا فَعَلَيكَ.","publishedAt":"2018-02-24T18:04:10Z","duration":"PT10M29S","thumbnail":"https://i.ytimg.com/vi/4fQwbmamtZg/mqdefault.jpg","viewCount":"781","playlistId":"PLEkQk5xrP-tkI_meE148wc7V7XHlB0WPb","playlistName":"من الحكم العطائية  د. يسري جبر","category":"متنوع"},{"id":"c4i0LY3IO60","title":"مَنْ لم يعرف قدر النعم بوجدانها، عرفها بوجود فقدانها","publishedAt":"2017-09-03T18:43:55Z","duration":"PT10M21S","thumbnail":"https://i.ytimg.com/vi/c4i0LY3IO60/mqdefault.jpg","viewCount":"831","playlistId":"PLEkQk5xrP-tkI_meE148wc7V7XHlB0WPb","playlistName":"من الحكم العطائية  د. يسري جبر","category":"متنوع"},{"id":"F092MhYD898","title":"رُبَّما ورَدَت الظُّلَمُ عليك، ليُعرِّفَكَ قدْرَ ما مَنَّ به عليك.","publishedAt":"2017-09-03T18:29:31Z","duration":"PT2M56S","thumbnail":"https://i.ytimg.com/vi/F092MhYD898/mqdefault.jpg","viewCount":"1253","playlistId":"PLEkQk5xrP-tkI_meE148wc7V7XHlB0WPb","playlistName":"من الحكم العطائية  د. يسري جبر","category":"متنوع"},{"id":"CyGleXILhBc","title":"قيد الطاعات بأنواع الأوقات، كي لا يمنعك عنها وجود التسويف، ووسع الوقت عليك، كي تبقى لك حصة الاختيار.","publishedAt":"2017-08-29T19:34:54Z","duration":"PT6M16S","thumbnail":"https://i.ytimg.com/vi/CyGleXILhBc/mqdefault.jpg","viewCount":"553","playlistId":"PLEkQk5xrP-tkI_meE148wc7V7XHlB0WPb","playlistName":"من الحكم العطائية  د. يسري جبر","category":"متنوع"},{"id":"9OHGGWWYKSc","title":"من استغرب أن ينقذه الله من شهواته، وأن يخرجه من وجود غفلته، فقد استعجز القدرة الإلهية","publishedAt":"2017-09-02T11:49:12Z","duration":"PT9M27S","thumbnail":"https://i.ytimg.com/vi/9OHGGWWYKSc/mqdefault.jpg","viewCount":"1310","playlistId":"PLEkQk5xrP-tkI_meE148wc7V7XHlB0WPb","playlistName":"من الحكم العطائية  د. يسري جبر","category":"متنوع"},{"id":"Aqh-5osgNV0","title":"أوجب عليك وجود خدمته، وما أوجب عليك في الحقيقة إلا دخول جنته.","publishedAt":"2017-09-01T20:50:44Z","duration":"PT9M17S","thumbnail":"https://i.ytimg.com/vi/Aqh-5osgNV0/mqdefault.jpg","viewCount":"672","playlistId":"PLEkQk5xrP-tkI_meE148wc7V7XHlB0WPb","playlistName":"من الحكم العطائية  د. يسري جبر","category":"متنوع"},{"id":"UVquw7Xbllg","title":"علم قلة نهوض العباد إلى معاملته، فأوجب عليهم وجود طاعته، فساقهم إليه بسلاسل الإيجاب","publishedAt":"2017-09-01T19:10:43Z","duration":"PT4M45S","thumbnail":"https://i.ytimg.com/vi/UVquw7Xbllg/mqdefault.jpg","viewCount":"511","playlistId":"PLEkQk5xrP-tkI_meE148wc7V7XHlB0WPb","playlistName":"من الحكم العطائية  د. يسري جبر","category":"متنوع"},{"id":"9Hhz-HiEMhg","title":"الغافل إذا أصبح ينظر ماذا يفعل والعاقل ينظر ماذا يفعل الله به","publishedAt":"2017-01-05T21:27:38Z","duration":"PT18M36S","thumbnail":"https://i.ytimg.com/vi/9Hhz-HiEMhg/mqdefault.jpg","viewCount":"8178","playlistId":"PLEkQk5xrP-tkI_meE148wc7V7XHlB0WPb","playlistName":"من الحكم العطائية  د. يسري جبر","category":"متنوع"},{"id":"6eaacO4vqJ4","title":"عَلِم أنَّ العباد يتشوفون إلى ظهور سر العناية ، فقال \" يَخْتَصُّ بِرَحْمَتِهِ مَن يَشَاءُ \"","publishedAt":"2017-05-07T21:31:34Z","duration":"PT5M50S","thumbnail":"https://i.ytimg.com/vi/6eaacO4vqJ4/mqdefault.jpg","viewCount":"3823","playlistId":"PLEkQk5xrP-tkI_meE148wc7V7XHlB0WPb","playlistName":"من الحكم العطائية  د. يسري جبر","category":"متنوع"},{"id":"IJValUpcEjc","title":"عنايتُه فيك لا لشيء منك، وأين كنت حين واجهتْك عنايتُه، وقابلتْك رعايتُه","publishedAt":"2017-05-04T19:50:50Z","duration":"PT4M57S","thumbnail":"https://i.ytimg.com/vi/IJValUpcEjc/mqdefault.jpg","viewCount":"2521","playlistId":"PLEkQk5xrP-tkI_meE148wc7V7XHlB0WPb","playlistName":"من الحكم العطائية  د. يسري جبر","category":"متنوع"},{"id":"1L6hZffZvus","title":"كيف يكون طلبك اللاحق سببا في عطائه السابق","publishedAt":"2017-05-04T15:42:38Z","duration":"PT8M34S","thumbnail":"https://i.ytimg.com/vi/1L6hZffZvus/mqdefault.jpg","viewCount":"1663","playlistId":"PLEkQk5xrP-tkI_meE148wc7V7XHlB0WPb","playlistName":"من الحكم العطائية  د. يسري جبر","category":"متنوع"}],"total":136,"page":6,"pageSize":24,"totalPages":6}