{"items":[{"id":"_D7EdKk_wvs","title":"167- حكم الصلاة عن الميت وقراءة القرآن له - شرح مسند الإمام أحمد رضي الله تعالى عنه","publishedAt":"2025-08-19T09:00:56Z","duration":"PT17M37S","thumbnail":"https://i.ytimg.com/vi/_D7EdKk_wvs/mqdefault.jpg","viewCount":"651","playlistId":"PLEkQk5xrP-tkKprIuGrSdEuBSMsyg5We1","playlistName":"شرح مسند الإمام أحمد بن حنبل","category":"متنوع"},{"id":"E3-6kf-2gEk","title":"147- لعن اللهُ مَن تولَّى غير مَواليه - شرح مسند الإمام أحمد رضي الله تعالى عنه","publishedAt":"2025-01-01T07:11:04Z","duration":"PT35M38S","thumbnail":"https://i.ytimg.com/vi/E3-6kf-2gEk/mqdefault.jpg","viewCount":"1006","playlistId":"PLEkQk5xrP-tkKprIuGrSdEuBSMsyg5We1","playlistName":"شرح مسند الإمام أحمد بن حنبل","category":"متنوع"},{"id":"APyVTqiFezI","title":"159- درء الحدود بالشبهات - شرح مسند الإمام أحمد رضي الله تعالى عنه","publishedAt":"2025-04-18T09:00:30Z","duration":"PT22M29S","thumbnail":"https://i.ytimg.com/vi/APyVTqiFezI/mqdefault.jpg","viewCount":"835","playlistId":"PLEkQk5xrP-tkKprIuGrSdEuBSMsyg5We1","playlistName":"شرح مسند الإمام أحمد بن حنبل","category":"متنوع"},{"id":"NVtVSlEOlgA","title":"166- الفرق بين المسانيد والسنن - شرح مسند الإمام أحمد رضي الله تعالى عنه","publishedAt":"2025-08-13T09:20:40Z","duration":"PT24M14S","thumbnail":"https://i.ytimg.com/vi/NVtVSlEOlgA/mqdefault.jpg","viewCount":"570","playlistId":"PLEkQk5xrP-tkKprIuGrSdEuBSMsyg5We1","playlistName":"شرح مسند الإمام أحمد بن حنبل","category":"متنوع"},{"id":"V0itB4HyQZs","title":"165- حكم من اتهم زوجته بالزنا - شرح مسند الإمام أحمد رضي الله تعالى عنه","publishedAt":"2025-08-10T09:00:43Z","duration":"PT15M5S","thumbnail":"https://i.ytimg.com/vi/V0itB4HyQZs/mqdefault.jpg","viewCount":"518","playlistId":"PLEkQk5xrP-tkKprIuGrSdEuBSMsyg5We1","playlistName":"شرح مسند الإمام أحمد بن حنبل","category":"متنوع"},{"id":"b1JrB_h8NGI","title":"158- الاختلاف قد يكون سببا في حرمان الخير - شرح مسند الإمام أحمد رضي الله تعالى عنه","publishedAt":"2025-04-09T10:00:51Z","duration":"PT12M9S","thumbnail":"https://i.ytimg.com/vi/b1JrB_h8NGI/mqdefault.jpg","viewCount":"1206","playlistId":"PLEkQk5xrP-tkKprIuGrSdEuBSMsyg5We1","playlistName":"شرح مسند الإمام أحمد بن حنبل","category":"متنوع"},{"id":"ZRyPN0obcpk","title":"157- حكم زيارة النساء للقبور - شرح مسند الإمام أحمد رضي الله تعالى عنه","publishedAt":"2025-04-07T10:00:50Z","duration":"PT16M6S","thumbnail":"https://i.ytimg.com/vi/ZRyPN0obcpk/mqdefault.jpg","viewCount":"1113","playlistId":"PLEkQk5xrP-tkKprIuGrSdEuBSMsyg5We1","playlistName":"شرح مسند الإمام أحمد بن حنبل","category":"متنوع"},{"id":"QOgHHW6kOAg","title":"156- وصف سيدنا جبريل عليه السلام في صورته الحقيقية - شرح مسند الإمام أحمد رضي الله تعالى عنه","publishedAt":"2025-04-06T15:00:35Z","duration":"PT17M37S","thumbnail":"https://i.ytimg.com/vi/QOgHHW6kOAg/mqdefault.jpg","viewCount":"2331","playlistId":"PLEkQk5xrP-tkKprIuGrSdEuBSMsyg5We1","playlistName":"شرح مسند الإمام أحمد بن حنبل","category":"متنوع"},{"id":"ohLJOqBXWDc","title":"155- هل يجوز قراءة الفنجان والتصديق في الأبراج؟ - شرح مسند الإمام أحمد رضي الله تعالى عنه","publishedAt":"2025-04-02T10:01:08Z","duration":"PT14M33S","thumbnail":"https://i.ytimg.com/vi/ohLJOqBXWDc/mqdefault.jpg","viewCount":"2453","playlistId":"PLEkQk5xrP-tkKprIuGrSdEuBSMsyg5We1","playlistName":"شرح مسند الإمام أحمد بن حنبل","category":"متنوع"},{"id":"tfPpaBhy-lM","title":"128- فضائل أم المؤمنين السيدة عائشة رضي اللهُ تعالى عنها وأرضاها","publishedAt":"2024-10-13T09:05:00Z","duration":"PT29M24S","thumbnail":"https://i.ytimg.com/vi/tfPpaBhy-lM/mqdefault.jpg","viewCount":"1205","playlistId":"PLEkQk5xrP-tkKprIuGrSdEuBSMsyg5We1","playlistName":"شرح مسند الإمام أحمد بن حنبل","category":"متنوع"},{"id":"TOcWcq-Vxtk","title":"146- ما معنى احفظ الله تجده أمامك؟ - شرح مسند الإمام أحمد رضي الله تعالى عنه","publishedAt":"2024-12-20T06:30:21Z","duration":"PT15M26S","thumbnail":"https://i.ytimg.com/vi/TOcWcq-Vxtk/mqdefault.jpg","viewCount":"1485","playlistId":"PLEkQk5xrP-tkKprIuGrSdEuBSMsyg5We1","playlistName":"شرح مسند الإمام أحمد بن حنبل","category":"متنوع"},{"id":"axkRwcCMixA","title":"145- حكم الالتفات في الصلاة - شرح مسند الإمام أحمد رضي الله تعالى عنه","publishedAt":"2024-12-17T06:30:01Z","duration":"PT18M4S","thumbnail":"https://i.ytimg.com/vi/axkRwcCMixA/mqdefault.jpg","viewCount":"699","playlistId":"PLEkQk5xrP-tkKprIuGrSdEuBSMsyg5We1","playlistName":"شرح مسند الإمام أحمد بن حنبل","category":"متنوع"},{"id":"H7vut5DoPT4","title":"144- حال الغني والفقير عند دخول الجنة - شرح مسند الإمام أحمد رضي الله تعالى عنه","publishedAt":"2024-12-13T06:30:09Z","duration":"PT44M10S","thumbnail":"https://i.ytimg.com/vi/H7vut5DoPT4/mqdefault.jpg","viewCount":"1395","playlistId":"PLEkQk5xrP-tkKprIuGrSdEuBSMsyg5We1","playlistName":"شرح مسند الإمام أحمد بن حنبل","category":"متنوع"},{"id":"h2xW-LC0OAM","title":"134- درء الحدود بالشبهات - شرح مسند الإمام أحمد رضي الله تعالى عنه","publishedAt":"2024-11-03T06:00:21Z","duration":"PT36M23S","thumbnail":"https://i.ytimg.com/vi/h2xW-LC0OAM/mqdefault.jpg","viewCount":"721","playlistId":"PLEkQk5xrP-tkKprIuGrSdEuBSMsyg5We1","playlistName":"شرح مسند الإمام أحمد بن حنبل","category":"متنوع"},{"id":"_g4WM0wK4q0","title":"133- غزوة أحد - شرح مسند الإمام أحمد رضي الله تعالى عنه","publishedAt":"2024-11-01T06:00:17Z","duration":"PT24M54S","thumbnail":"https://i.ytimg.com/vi/_g4WM0wK4q0/mqdefault.jpg","viewCount":"658","playlistId":"PLEkQk5xrP-tkKprIuGrSdEuBSMsyg5We1","playlistName":"شرح مسند الإمام أحمد بن حنبل","category":"متنوع"},{"id":"jHNGngxEGFU","title":"132- نصيحة مهمة للمحافظة على صحة الكبد - شرح مسند الإمام أحمد رضي الله تعالى عنه","publishedAt":"2024-10-30T06:00:31Z","duration":"PT28M12S","thumbnail":"https://i.ytimg.com/vi/jHNGngxEGFU/mqdefault.jpg","viewCount":"1998","playlistId":"PLEkQk5xrP-tkKprIuGrSdEuBSMsyg5We1","playlistName":"شرح مسند الإمام أحمد بن حنبل","category":"متنوع"},{"id":"BByzeuce25M","title":"131- كيف تتعامل مع مديرك إذا كلَّفك بشيء أخطأ فيه؟ - شرح مسند الإمام أحمد رضي الله تعالى عنه","publishedAt":"2024-10-28T06:00:06Z","duration":"PT39M11S","thumbnail":"https://i.ytimg.com/vi/BByzeuce25M/mqdefault.jpg","viewCount":"934","playlistId":"PLEkQk5xrP-tkKprIuGrSdEuBSMsyg5We1","playlistName":"شرح مسند الإمام أحمد بن حنبل","category":"متنوع"},{"id":"dfXCTdf2Sq4","title":"130- حكم أداء العمرة في أشهر الحج - شرح مسند الإمام أحمد رضي الله تعالى عنه","publishedAt":"2024-10-25T06:00:19Z","duration":"PT35M33S","thumbnail":"https://i.ytimg.com/vi/dfXCTdf2Sq4/mqdefault.jpg","viewCount":"611","playlistId":"PLEkQk5xrP-tkKprIuGrSdEuBSMsyg5We1","playlistName":"شرح مسند الإمام أحمد بن حنبل","category":"متنوع"},{"id":"NUMTJJVQtMg","title":"129- حكم صيام يوم عرفة للحاج - شرح مسند الإمام أحمد رضي الله تعالى عنه","publishedAt":"2024-10-20T06:00:12Z","duration":"PT22M27S","thumbnail":"https://i.ytimg.com/vi/NUMTJJVQtMg/mqdefault.jpg","viewCount":"457","playlistId":"PLEkQk5xrP-tkKprIuGrSdEuBSMsyg5We1","playlistName":"شرح مسند الإمام أحمد بن حنبل","category":"متنوع"},{"id":"guAWY6a3lOs","title":"153- ما يقال بين السجدتين - شرح مسند الإمام أحمد رضي الله تعالى عنه","publishedAt":"2025-02-23T07:00:22Z","duration":"PT32M43S","thumbnail":"https://i.ytimg.com/vi/guAWY6a3lOs/mqdefault.jpg","viewCount":"887","playlistId":"PLEkQk5xrP-tkKprIuGrSdEuBSMsyg5We1","playlistName":"شرح مسند الإمام أحمد بن حنبل","category":"متنوع"},{"id":"MI1TB8M7a5Q","title":"34- خير نساء العالمين - شرح مسند الإمام أحمد","publishedAt":"2023-10-27T06:07:36Z","duration":"PT31M40S","thumbnail":"https://i.ytimg.com/vi/MI1TB8M7a5Q/mqdefault.jpg","viewCount":"2112","playlistId":"PLEkQk5xrP-tkKprIuGrSdEuBSMsyg5We1","playlistName":"شرح مسند الإمام أحمد بن حنبل","category":"متنوع"},{"id":"xZJBAUEwFAs","title":"33- لا طاعة في معصية، إنما الطاعة في المعروف - شرح مسند الإمام أحمد","publishedAt":"2023-10-26T05:30:15Z","duration":"PT29M22S","thumbnail":"https://i.ytimg.com/vi/xZJBAUEwFAs/mqdefault.jpg","viewCount":"1747","playlistId":"PLEkQk5xrP-tkKprIuGrSdEuBSMsyg5We1","playlistName":"شرح مسند الإمام أحمد بن حنبل","category":"متنوع"},{"id":"BfeOA6kv8RY","title":"32- حكم المذي وكيفية التطهر منه - شرح مسند الإمام أحمد","publishedAt":"2023-10-23T05:30:02Z","duration":"PT34M18S","thumbnail":"https://i.ytimg.com/vi/BfeOA6kv8RY/mqdefault.jpg","viewCount":"1820","playlistId":"PLEkQk5xrP-tkKprIuGrSdEuBSMsyg5We1","playlistName":"شرح مسند الإمام أحمد بن حنبل","category":"متنوع"},{"id":"njVvchfbS4Q","title":"31- حكم تقديم الوصية على الدين - شرح مسند الإمام أحمد","publishedAt":"2023-10-20T05:30:12Z","duration":"PT28M14S","thumbnail":"https://i.ytimg.com/vi/njVvchfbS4Q/mqdefault.jpg","viewCount":"1273","playlistId":"PLEkQk5xrP-tkKprIuGrSdEuBSMsyg5We1","playlistName":"شرح مسند الإمام أحمد بن حنبل","category":"متنوع"}],"total":185,"page":2,"pageSize":24,"totalPages":8}