{"items":[{"id":"SZCxQBzqyO0","title":"185- {فَلَا وَرَبِّكَ لَا يُؤْمِنُونَ حَتَّىٰ يُحَكِّمُوكَ فِيمَا شَجَرَ بَيْنَهُمْ}","publishedAt":"2025-11-25T05:30:16Z","duration":"PT18M41S","thumbnail":"https://i.ytimg.com/vi/SZCxQBzqyO0/mqdefault.jpg","viewCount":"636","playlistId":"PLEkQk5xrP-tkKprIuGrSdEuBSMsyg5We1","playlistName":"شرح مسند الإمام أحمد بن حنبل","category":"متنوع"},{"id":"Hdy9w6VRM6o","title":"184- ما الفرق بين الرؤيا والرؤية؟ | أ.د.يسري جبر","publishedAt":"2025-11-21T10:00:26Z","duration":"PT20M29S","thumbnail":"https://i.ytimg.com/vi/Hdy9w6VRM6o/mqdefault.jpg","viewCount":"696","playlistId":"PLEkQk5xrP-tkKprIuGrSdEuBSMsyg5We1","playlistName":"شرح مسند الإمام أحمد بن حنبل","category":"متنوع"},{"id":"eLGwJOCNeHA","title":"183- {وَعَلَّمَكَ مَا لَمْ تَكُن تَعْلَمُ ۚ وَكَانَ فَضْلُ اللَّهِ عَلَيْكَ عَظِيمًا}","publishedAt":"2025-11-19T10:01:12Z","duration":"PT24M19S","thumbnail":"https://i.ytimg.com/vi/eLGwJOCNeHA/mqdefault.jpg","viewCount":"911","playlistId":"PLEkQk5xrP-tkKprIuGrSdEuBSMsyg5We1","playlistName":"شرح مسند الإمام أحمد بن حنبل","category":"متنوع"},{"id":"dDX_akFojEY","title":"182- دليل جواز الذكر وختام الصلاة جهرًا جماعة - شرح مسند الإمام أحمد رضي الله تعالى عنه","publishedAt":"2025-11-17T10:01:06Z","duration":"PT20M19S","thumbnail":"https://i.ytimg.com/vi/dDX_akFojEY/mqdefault.jpg","viewCount":"570","playlistId":"PLEkQk5xrP-tkKprIuGrSdEuBSMsyg5We1","playlistName":"شرح مسند الإمام أحمد بن حنبل","category":"متنوع"},{"id":"_D7EdKk_wvs","title":"167- حكم الصلاة عن الميت وقراءة القرآن له - شرح مسند الإمام أحمد رضي الله تعالى عنه","publishedAt":"2025-08-19T09:00:56Z","duration":"PT17M37S","thumbnail":"https://i.ytimg.com/vi/_D7EdKk_wvs/mqdefault.jpg","viewCount":"651","playlistId":"PLEkQk5xrP-tkKprIuGrSdEuBSMsyg5We1","playlistName":"شرح مسند الإمام أحمد بن حنبل","category":"متنوع"},{"id":"NVtVSlEOlgA","title":"166- الفرق بين المسانيد والسنن - شرح مسند الإمام أحمد رضي الله تعالى عنه","publishedAt":"2025-08-13T09:20:40Z","duration":"PT24M14S","thumbnail":"https://i.ytimg.com/vi/NVtVSlEOlgA/mqdefault.jpg","viewCount":"570","playlistId":"PLEkQk5xrP-tkKprIuGrSdEuBSMsyg5We1","playlistName":"شرح مسند الإمام أحمد بن حنبل","category":"متنوع"},{"id":"V0itB4HyQZs","title":"165- حكم من اتهم زوجته بالزنا - شرح مسند الإمام أحمد رضي الله تعالى عنه","publishedAt":"2025-08-10T09:00:43Z","duration":"PT15M5S","thumbnail":"https://i.ytimg.com/vi/V0itB4HyQZs/mqdefault.jpg","viewCount":"518","playlistId":"PLEkQk5xrP-tkKprIuGrSdEuBSMsyg5We1","playlistName":"شرح مسند الإمام أحمد بن حنبل","category":"متنوع"},{"id":"Wxj9gSdxxO8","title":"164- \"فأنا فرط أمتي لم يصابوا بمثلي\" ﷺ - شرح مسند الإمام أحمد رضي الله تعالى عنه","publishedAt":"2025-08-01T09:00:54Z","duration":"PT33M24S","thumbnail":"https://i.ytimg.com/vi/Wxj9gSdxxO8/mqdefault.jpg","viewCount":"891","playlistId":"PLEkQk5xrP-tkKprIuGrSdEuBSMsyg5We1","playlistName":"شرح مسند الإمام أحمد بن حنبل","category":"متنوع"},{"id":"w0_sMITcKC4","title":"163- النهي عن قتل أربع من الدواب - شرح مسند الإمام أحمد رضي الله تعالى عنه","publishedAt":"2025-07-20T08:01:09Z","duration":"PT32M41S","thumbnail":"https://i.ytimg.com/vi/w0_sMITcKC4/mqdefault.jpg","viewCount":"657","playlistId":"PLEkQk5xrP-tkKprIuGrSdEuBSMsyg5We1","playlistName":"شرح مسند الإمام أحمد بن حنبل","category":"متنوع"},{"id":"jFGUFu0AAXE","title":"162- التنافس على الدنيا - شرح مسند الإمام أحمد رضي الله تعالى عنه","publishedAt":"2025-07-18T09:01:47Z","duration":"PT30M32S","thumbnail":"https://i.ytimg.com/vi/jFGUFu0AAXE/mqdefault.jpg","viewCount":"839","playlistId":"PLEkQk5xrP-tkKprIuGrSdEuBSMsyg5We1","playlistName":"شرح مسند الإمام أحمد بن حنبل","category":"متنوع"},{"id":"I23b1aOz5dw","title":"161- بركة دعوة الصالحين - شرح مسند الإمام أحمد رضي الله تعالى عنه","publishedAt":"2025-06-10T05:00:15Z","duration":"PT33M58S","thumbnail":"https://i.ytimg.com/vi/I23b1aOz5dw/mqdefault.jpg","viewCount":"2866","playlistId":"PLEkQk5xrP-tkKprIuGrSdEuBSMsyg5We1","playlistName":"شرح مسند الإمام أحمد بن حنبل","category":"متنوع"},{"id":"rI8HCHV_pmk","title":"160- كيف نفهم النهي عن كسب الحجام وعلاقته بأجر الطبيب - شرح مسند الإمام أحمد رضي الله تعالى عنه","publishedAt":"2025-04-28T09:01:09Z","duration":"PT18M2S","thumbnail":"https://i.ytimg.com/vi/rI8HCHV_pmk/mqdefault.jpg","viewCount":"701","playlistId":"PLEkQk5xrP-tkKprIuGrSdEuBSMsyg5We1","playlistName":"شرح مسند الإمام أحمد بن حنبل","category":"متنوع"},{"id":"WWWRKGs98l4","title":"154- حال النَّبي ﷺ عند نزول الوحي - شرح مسند الإمام أحمد رضي الله تعالى عنه","publishedAt":"2025-03-04T06:15:01Z","duration":"PT34M1S","thumbnail":"https://i.ytimg.com/vi/WWWRKGs98l4/mqdefault.jpg","viewCount":"550","playlistId":"PLEkQk5xrP-tkKprIuGrSdEuBSMsyg5We1","playlistName":"شرح مسند الإمام أحمد بن حنبل","category":"متنوع"},{"id":"y0LkCZb7gwg","title":"115- مَن استعاذ بالله فأعيذوه، ومَن سألكم بوجه الله فأعطوه | ما معنى العُمرى؟","publishedAt":"2024-07-08T08:00:37Z","duration":"PT43M48S","thumbnail":"https://i.ytimg.com/vi/y0LkCZb7gwg/mqdefault.jpg","viewCount":"1366","playlistId":"PLEkQk5xrP-tkKprIuGrSdEuBSMsyg5We1","playlistName":"شرح مسند الإمام أحمد بن حنبل","category":"متنوع"},{"id":"0BvcNpTwxPI","title":"114- حكم مَن اتُّهِمَ زُورًا - شرح مسند الإمام أحمد رضي الله تعالى عنه","publishedAt":"2024-06-29T07:03:44Z","duration":"PT36M36S","thumbnail":"https://i.ytimg.com/vi/0BvcNpTwxPI/mqdefault.jpg","viewCount":"935","playlistId":"PLEkQk5xrP-tkKprIuGrSdEuBSMsyg5We1","playlistName":"شرح مسند الإمام أحمد بن حنبل","category":"متنوع"},{"id":"87fQ_8mHgPs","title":"113- حكم فرق شعر الرأس - شرح مسند الإمام أحمد رضي الله تعالى عنه","publishedAt":"2024-06-22T09:10:00Z","duration":"PT27M11S","thumbnail":"https://i.ytimg.com/vi/87fQ_8mHgPs/mqdefault.jpg","viewCount":"956","playlistId":"PLEkQk5xrP-tkKprIuGrSdEuBSMsyg5We1","playlistName":"شرح مسند الإمام أحمد بن حنبل","category":"متنوع"},{"id":"BwzJWv5AZ_Y","title":"112- حُجَّ عن أبيك - شرح مسند الإمام أحمد رضي الله تعالى عنه","publishedAt":"2024-06-19T09:01:00Z","duration":"PT40M49S","thumbnail":"https://i.ytimg.com/vi/BwzJWv5AZ_Y/mqdefault.jpg","viewCount":"817","playlistId":"PLEkQk5xrP-tkKprIuGrSdEuBSMsyg5We1","playlistName":"شرح مسند الإمام أحمد بن حنبل","category":"متنوع"},{"id":"guAWY6a3lOs","title":"153- ما يقال بين السجدتين - شرح مسند الإمام أحمد رضي الله تعالى عنه","publishedAt":"2025-02-23T07:00:22Z","duration":"PT32M43S","thumbnail":"https://i.ytimg.com/vi/guAWY6a3lOs/mqdefault.jpg","viewCount":"887","playlistId":"PLEkQk5xrP-tkKprIuGrSdEuBSMsyg5We1","playlistName":"شرح مسند الإمام أحمد بن حنبل","category":"متنوع"},{"id":"-0chXj_fmWs","title":"152- آداب النوم - شرح مسند الإمام أحمد رضي الله تعالى عنه","publishedAt":"2025-02-16T07:11:05Z","duration":"PT14M","thumbnail":"https://i.ytimg.com/vi/-0chXj_fmWs/mqdefault.jpg","viewCount":"996","playlistId":"PLEkQk5xrP-tkKprIuGrSdEuBSMsyg5We1","playlistName":"شرح مسند الإمام أحمد بن حنبل","category":"متنوع"},{"id":"BgomuzQsNzw","title":"151- شروط الأضحية | الاستعاذة من فتنة الدجال","publishedAt":"2025-02-15T07:30:05Z","duration":"PT43M12S","thumbnail":"https://i.ytimg.com/vi/BgomuzQsNzw/mqdefault.jpg","viewCount":"745","playlistId":"PLEkQk5xrP-tkKprIuGrSdEuBSMsyg5We1","playlistName":"شرح مسند الإمام أحمد بن حنبل","category":"متنوع"},{"id":"ebjcIacZb84","title":"150- متى يجب الجهاد في سبيل الله؟","publishedAt":"2025-02-05T07:00:23Z","duration":"PT23M17S","thumbnail":"https://i.ytimg.com/vi/ebjcIacZb84/mqdefault.jpg","viewCount":"1013","playlistId":"PLEkQk5xrP-tkKprIuGrSdEuBSMsyg5We1","playlistName":"شرح مسند الإمام أحمد بن حنبل","category":"متنوع"},{"id":"QJ_bcw_HMNI","title":"139- كيف يكون نشاطك اليومي مع تغير الأحوال؟ - شرح مسند الإمام أحمد رضي الله تعالى عنه","publishedAt":"2024-11-21T06:00:22Z","duration":"PT30M6S","thumbnail":"https://i.ytimg.com/vi/QJ_bcw_HMNI/mqdefault.jpg","viewCount":"2525","playlistId":"PLEkQk5xrP-tkKprIuGrSdEuBSMsyg5We1","playlistName":"شرح مسند الإمام أحمد بن حنبل","category":"متنوع"},{"id":"mjccf2pViFA","title":"138- كيف تدخل السرور على الأولياء والصالحين في قبورهم؟ - شرح مسند الإمام أحمد رضي الله تعالى عنه","publishedAt":"2024-11-18T06:18:02Z","duration":"PT18M41S","thumbnail":"https://i.ytimg.com/vi/mjccf2pViFA/mqdefault.jpg","viewCount":"2162","playlistId":"PLEkQk5xrP-tkKprIuGrSdEuBSMsyg5We1","playlistName":"شرح مسند الإمام أحمد بن حنبل","category":"متنوع"},{"id":"eVDrA578dTc","title":"137- من كذب عليَّ متعمِّدا فليتبوأ مقعدَه من النار - شرح مسند الإمام أحمد رضي الله تعالى عنه","publishedAt":"2024-11-12T06:15:39Z","duration":"PT27M14S","thumbnail":"https://i.ytimg.com/vi/eVDrA578dTc/mqdefault.jpg","viewCount":"1017","playlistId":"PLEkQk5xrP-tkKprIuGrSdEuBSMsyg5We1","playlistName":"شرح مسند الإمام أحمد بن حنبل","category":"متنوع"}],"total":185,"page":1,"pageSize":24,"totalPages":8}