{"items":[{"id":"9jBkLKy6Y-s","title":"5- سَلوا اللَّهَ العفوَ والعافيةَ - شرح مسند الإمام أحمد","publishedAt":"2023-07-30T08:59:00Z","duration":"PT41M10S","thumbnail":"https://i.ytimg.com/vi/9jBkLKy6Y-s/mqdefault.jpg","viewCount":"2528","playlistId":"PLEkQk5xrP-tkKprIuGrSdEuBSMsyg5We1","playlistName":"شرح مسند الإمام أحمد بن حنبل","category":"متنوع"},{"id":"xPc_UV4UO0Q","title":"4- أُعطيتُ سبعين ألفًا يدخلون الجنّة بغير حسابٍ وجوهُهم كالقمر ليلة البدر وقلوبُهم على قلب رجلٍ واحد","publishedAt":"2023-07-29T08:59:00Z","duration":"PT44M18S","thumbnail":"https://i.ytimg.com/vi/xPc_UV4UO0Q/mqdefault.jpg","viewCount":"3011","playlistId":"PLEkQk5xrP-tkKprIuGrSdEuBSMsyg5We1","playlistName":"شرح مسند الإمام أحمد بن حنبل","category":"متنوع"},{"id":"isLOpYw_7-c","title":"3- سَعة رحمة الله تعالى للخائفين منه وإثباتُ الشّفاعة للنَّبيّ ﷺ يوم القيامة - شرح مسند الإمام أحمد","publishedAt":"2023-07-27T08:59:00Z","duration":"PT43M12S","thumbnail":"https://i.ytimg.com/vi/isLOpYw_7-c/mqdefault.jpg","viewCount":"3130","playlistId":"PLEkQk5xrP-tkKprIuGrSdEuBSMsyg5We1","playlistName":"شرح مسند الإمام أحمد بن حنبل","category":"متنوع"},{"id":"ohN2cIbku4w","title":"2- لا يحجُّ بعد العام مُشرِك - شرح مسند الإمام أحمد بن حنبل","publishedAt":"2023-07-26T08:59:00Z","duration":"PT46M34S","thumbnail":"https://i.ytimg.com/vi/ohN2cIbku4w/mqdefault.jpg","viewCount":"2400","playlistId":"PLEkQk5xrP-tkKprIuGrSdEuBSMsyg5We1","playlistName":"شرح مسند الإمام أحمد بن حنبل","category":"متنوع"},{"id":"E3-6kf-2gEk","title":"147- لعن اللهُ مَن تولَّى غير مَواليه - شرح مسند الإمام أحمد رضي الله تعالى عنه","publishedAt":"2025-01-01T07:11:04Z","duration":"PT35M38S","thumbnail":"https://i.ytimg.com/vi/E3-6kf-2gEk/mqdefault.jpg","viewCount":"1006","playlistId":"PLEkQk5xrP-tkKprIuGrSdEuBSMsyg5We1","playlistName":"شرح مسند الإمام أحمد بن حنبل","category":"متنوع"},{"id":"xuq2kIE3WH8","title":"149- ما معنى الحديث الشاذ؟ وهل يُستدل به في الأحكام؟ - شرح مسند الإمام أحمد رضي الله تعالى عنه","publishedAt":"2025-01-14T06:30:21Z","duration":"PT24M14S","thumbnail":"https://i.ytimg.com/vi/xuq2kIE3WH8/mqdefault.jpg","viewCount":"801","playlistId":"PLEkQk5xrP-tkKprIuGrSdEuBSMsyg5We1","playlistName":"شرح مسند الإمام أحمد بن حنبل","category":"متنوع"},{"id":"mt5yU1ZnMPo","title":"148- حب الأنصار من الإيمان - شرح مسند الإمام أحمد رضي الله تعالى عنه","publishedAt":"2025-01-10T06:30:19Z","duration":"PT6M7S","thumbnail":"https://i.ytimg.com/vi/mt5yU1ZnMPo/mqdefault.jpg","viewCount":"482","playlistId":"PLEkQk5xrP-tkKprIuGrSdEuBSMsyg5We1","playlistName":"شرح مسند الإمام أحمد بن حنبل","category":"متنوع"},{"id":"rs5oOG-BhF8","title":"58- قد عفوتُ لكم عن صدقة الخيل والرقيق - شرح مسند الإمام أحمد","publishedAt":"2023-12-27T07:02:48Z","duration":"PT28M42S","thumbnail":"https://i.ytimg.com/vi/rs5oOG-BhF8/mqdefault.jpg","viewCount":"1043","playlistId":"PLEkQk5xrP-tkKprIuGrSdEuBSMsyg5We1","playlistName":"شرح مسند الإمام أحمد بن حنبل","category":"متنوع"},{"id":"REhzhW6Ac4E","title":"57- خُطورة الكذبِ في الرُّؤيا وعُقوبته - شرح مسند الإمام أحمد","publishedAt":"2023-12-25T07:00:08Z","duration":"PT36M32S","thumbnail":"https://i.ytimg.com/vi/REhzhW6Ac4E/mqdefault.jpg","viewCount":"1301","playlistId":"PLEkQk5xrP-tkKprIuGrSdEuBSMsyg5We1","playlistName":"شرح مسند الإمام أحمد بن حنبل","category":"متنوع"},{"id":"APyVTqiFezI","title":"159- درء الحدود بالشبهات - شرح مسند الإمام أحمد رضي الله تعالى عنه","publishedAt":"2025-04-18T09:00:30Z","duration":"PT22M29S","thumbnail":"https://i.ytimg.com/vi/APyVTqiFezI/mqdefault.jpg","viewCount":"835","playlistId":"PLEkQk5xrP-tkKprIuGrSdEuBSMsyg5We1","playlistName":"شرح مسند الإمام أحمد بن حنبل","category":"متنوع"},{"id":"NVtVSlEOlgA","title":"166- الفرق بين المسانيد والسنن - شرح مسند الإمام أحمد رضي الله تعالى عنه","publishedAt":"2025-08-13T09:20:40Z","duration":"PT24M14S","thumbnail":"https://i.ytimg.com/vi/NVtVSlEOlgA/mqdefault.jpg","viewCount":"570","playlistId":"PLEkQk5xrP-tkKprIuGrSdEuBSMsyg5We1","playlistName":"شرح مسند الإمام أحمد بن حنبل","category":"متنوع"},{"id":"V0itB4HyQZs","title":"165- حكم من اتهم زوجته بالزنا - شرح مسند الإمام أحمد رضي الله تعالى عنه","publishedAt":"2025-08-10T09:00:43Z","duration":"PT15M5S","thumbnail":"https://i.ytimg.com/vi/V0itB4HyQZs/mqdefault.jpg","viewCount":"518","playlistId":"PLEkQk5xrP-tkKprIuGrSdEuBSMsyg5We1","playlistName":"شرح مسند الإمام أحمد بن حنبل","category":"متنوع"},{"id":"b1JrB_h8NGI","title":"158- الاختلاف قد يكون سببا في حرمان الخير - شرح مسند الإمام أحمد رضي الله تعالى عنه","publishedAt":"2025-04-09T10:00:51Z","duration":"PT12M9S","thumbnail":"https://i.ytimg.com/vi/b1JrB_h8NGI/mqdefault.jpg","viewCount":"1206","playlistId":"PLEkQk5xrP-tkKprIuGrSdEuBSMsyg5We1","playlistName":"شرح مسند الإمام أحمد بن حنبل","category":"متنوع"},{"id":"ZRyPN0obcpk","title":"157- حكم زيارة النساء للقبور - شرح مسند الإمام أحمد رضي الله تعالى عنه","publishedAt":"2025-04-07T10:00:50Z","duration":"PT16M6S","thumbnail":"https://i.ytimg.com/vi/ZRyPN0obcpk/mqdefault.jpg","viewCount":"1113","playlistId":"PLEkQk5xrP-tkKprIuGrSdEuBSMsyg5We1","playlistName":"شرح مسند الإمام أحمد بن حنبل","category":"متنوع"},{"id":"hK2e3Vn1p5M","title":"56- صِفةُ خَلْقِ النَّبيّ ﷺ وأنَّه كان أحسَنَ النَّاسِ خَلْقًا - شرح مسند الإمام أحمد","publishedAt":"2023-12-23T06:15:01Z","duration":"PT29M35S","thumbnail":"https://i.ytimg.com/vi/hK2e3Vn1p5M/mqdefault.jpg","viewCount":"1158","playlistId":"PLEkQk5xrP-tkKprIuGrSdEuBSMsyg5We1","playlistName":"شرح مسند الإمام أحمد بن حنبل","category":"متنوع"},{"id":"MV0A7hyCuwg","title":"55- ألَا أُخبِرُكم بخَيرِ هذه الأُمَّةِ بعدَ نَبيِّهَا؟ - شرح مسند الإمام أحمد","publishedAt":"2023-12-21T07:13:57Z","duration":"PT26M17S","thumbnail":"https://i.ytimg.com/vi/MV0A7hyCuwg/mqdefault.jpg","viewCount":"1115","playlistId":"PLEkQk5xrP-tkKprIuGrSdEuBSMsyg5We1","playlistName":"شرح مسند الإمام أحمد بن حنبل","category":"متنوع"},{"id":"E2r81lhWASI","title":"54- حكم التختُّم بالذهب، ولباس القَسِّيِّ والمُعَصْفَرِ، والقراءة في الركوع، والشرب قائمًا","publishedAt":"2023-12-19T07:29:53Z","duration":"PT29M28S","thumbnail":"https://i.ytimg.com/vi/E2r81lhWASI/mqdefault.jpg","viewCount":"1391","playlistId":"PLEkQk5xrP-tkKprIuGrSdEuBSMsyg5We1","playlistName":"شرح مسند الإمام أحمد بن حنبل","category":"متنوع"},{"id":"3VdOSC6Hvxs","title":"109 - علِّموا ويسِّروا ولا تعسِّروا وإذا غضب أحدكم فليسكت - شرح مسند الإمام أحمد رضي الله تعالى عنه","publishedAt":"2024-05-28T05:00:03Z","duration":"PT21M6S","thumbnail":"https://i.ytimg.com/vi/3VdOSC6Hvxs/mqdefault.jpg","viewCount":"1944","playlistId":"PLEkQk5xrP-tkKprIuGrSdEuBSMsyg5We1","playlistName":"شرح مسند الإمام أحمد بن حنبل","category":"متنوع"},{"id":"rdunYXXmU10","title":"108- حكم اللعان - شرح مسند الإمام أحمد رضي الله تعالى عنه","publishedAt":"2024-05-26T06:04:25Z","duration":"PT27M5S","thumbnail":"https://i.ytimg.com/vi/rdunYXXmU10/mqdefault.jpg","viewCount":"830","playlistId":"PLEkQk5xrP-tkKprIuGrSdEuBSMsyg5We1","playlistName":"شرح مسند الإمام أحمد بن حنبل","category":"متنوع"},{"id":"QOgHHW6kOAg","title":"156- وصف سيدنا جبريل عليه السلام في صورته الحقيقية - شرح مسند الإمام أحمد رضي الله تعالى عنه","publishedAt":"2025-04-06T15:00:35Z","duration":"PT17M37S","thumbnail":"https://i.ytimg.com/vi/QOgHHW6kOAg/mqdefault.jpg","viewCount":"2331","playlistId":"PLEkQk5xrP-tkKprIuGrSdEuBSMsyg5We1","playlistName":"شرح مسند الإمام أحمد بن حنبل","category":"متنوع"},{"id":"ohLJOqBXWDc","title":"155- هل يجوز قراءة الفنجان والتصديق في الأبراج؟ - شرح مسند الإمام أحمد رضي الله تعالى عنه","publishedAt":"2025-04-02T10:01:08Z","duration":"PT14M33S","thumbnail":"https://i.ytimg.com/vi/ohLJOqBXWDc/mqdefault.jpg","viewCount":"2453","playlistId":"PLEkQk5xrP-tkKprIuGrSdEuBSMsyg5We1","playlistName":"شرح مسند الإمام أحمد بن حنبل","category":"متنوع"},{"id":"rejKMd9gEIA","title":"101- حكم مَن انشغل بالنافلة عن الفريضة - شرح مسند الإمام أحمد رضي الله تعالى عنه","publishedAt":"2024-05-05T09:00:39Z","duration":"PT39M18S","thumbnail":"https://i.ytimg.com/vi/rejKMd9gEIA/mqdefault.jpg","viewCount":"1097","playlistId":"PLEkQk5xrP-tkKprIuGrSdEuBSMsyg5We1","playlistName":"شرح مسند الإمام أحمد بن حنبل","category":"متنوع"},{"id":"56fRxxN2AAM","title":"85- قصة مقتل أبي جهل يوم بدر على يد غلامين - شرح مسند الإمام أحمد رضي الله تعالى عنه","publishedAt":"2024-03-11T07:00:02Z","duration":"PT24M25S","thumbnail":"https://i.ytimg.com/vi/56fRxxN2AAM/mqdefault.jpg","viewCount":"1143","playlistId":"PLEkQk5xrP-tkKprIuGrSdEuBSMsyg5We1","playlistName":"شرح مسند الإمام أحمد بن حنبل","category":"متنوع"},{"id":"99WSA0n0NBg","title":"84- نبذة عن سيدنا عبد الرحمن بن عوف الزهري أحد العشرة المبشرين بالجنة رضي اللهُ تعالى عنه","publishedAt":"2024-03-06T06:30:01Z","duration":"PT32M8S","thumbnail":"https://i.ytimg.com/vi/99WSA0n0NBg/mqdefault.jpg","viewCount":"1322","playlistId":"PLEkQk5xrP-tkKprIuGrSdEuBSMsyg5We1","playlistName":"شرح مسند الإمام أحمد بن حنبل","category":"متنوع"}],"total":185,"page":3,"pageSize":24,"totalPages":8}