{"items":[{"id":"KB0zJnrYeGM","title":"170- ابتسم النبي ﷺ ورضي عن أدب الصحابة معه ﷺ - شرح مسند الإمام أحمد رضي الله تعالى عنه","publishedAt":"2025-09-28T09:00:25Z","duration":"PT14M16S","thumbnail":"https://i.ytimg.com/vi/KB0zJnrYeGM/mqdefault.jpg","viewCount":"534","playlistId":"PLEkQk5xrP-tkKprIuGrSdEuBSMsyg5We1","playlistName":"شرح مسند الإمام أحمد بن حنبل","category":"متنوع"},{"id":"ywauUyoPVv4","title":"169- حكم أولاد المشركين - شرح مسند الإمام أحمد رضي الله تعالى عنه","publishedAt":"2025-09-19T04:30:49Z","duration":"PT15M49S","thumbnail":"https://i.ytimg.com/vi/ywauUyoPVv4/mqdefault.jpg","viewCount":"486","playlistId":"PLEkQk5xrP-tkKprIuGrSdEuBSMsyg5We1","playlistName":"شرح مسند الإمام أحمد بن حنبل","category":"متنوع"},{"id":"9TEms_yh-E0","title":"168- دعاء الكرب - شرح مسند الإمام أحمد رضي الله تعالى عنه","publishedAt":"2025-09-17T04:15:01Z","duration":"PT18M56S","thumbnail":"https://i.ytimg.com/vi/9TEms_yh-E0/mqdefault.jpg","viewCount":"646","playlistId":"PLEkQk5xrP-tkKprIuGrSdEuBSMsyg5We1","playlistName":"شرح مسند الإمام أحمد بن حنبل","category":"متنوع"},{"id":"w0_sMITcKC4","title":"163- النهي عن قتل أربع من الدواب - شرح مسند الإمام أحمد رضي الله تعالى عنه","publishedAt":"2025-07-20T08:01:09Z","duration":"PT32M41S","thumbnail":"https://i.ytimg.com/vi/w0_sMITcKC4/mqdefault.jpg","viewCount":"657","playlistId":"PLEkQk5xrP-tkKprIuGrSdEuBSMsyg5We1","playlistName":"شرح مسند الإمام أحمد بن حنبل","category":"متنوع"},{"id":"jFGUFu0AAXE","title":"162- التنافس على الدنيا - شرح مسند الإمام أحمد رضي الله تعالى عنه","publishedAt":"2025-07-18T09:01:47Z","duration":"PT30M32S","thumbnail":"https://i.ytimg.com/vi/jFGUFu0AAXE/mqdefault.jpg","viewCount":"839","playlistId":"PLEkQk5xrP-tkKprIuGrSdEuBSMsyg5We1","playlistName":"شرح مسند الإمام أحمد بن حنبل","category":"متنوع"},{"id":"I23b1aOz5dw","title":"161- بركة دعوة الصالحين - شرح مسند الإمام أحمد رضي الله تعالى عنه","publishedAt":"2025-06-10T05:00:15Z","duration":"PT33M58S","thumbnail":"https://i.ytimg.com/vi/I23b1aOz5dw/mqdefault.jpg","viewCount":"2866","playlistId":"PLEkQk5xrP-tkKprIuGrSdEuBSMsyg5We1","playlistName":"شرح مسند الإمام أحمد بن حنبل","category":"متنوع"},{"id":"tju5HTHHUe0","title":"125- وَأَقِمِ الصَّلَاةَ طَرَفَيِ النَّهَارِ وَزُلَفًا مِّنَ اللَّيْلِ","publishedAt":"2024-09-21T06:29:13Z","duration":"PT30M48S","thumbnail":"https://i.ytimg.com/vi/tju5HTHHUe0/mqdefault.jpg","viewCount":"1251","playlistId":"PLEkQk5xrP-tkKprIuGrSdEuBSMsyg5We1","playlistName":"شرح مسند الإمام أحمد بن حنبل","category":"متنوع"},{"id":"vtPBUQaWpsI","title":"104- الوصية الجامعة البالغة - شرح مسند الإمام أحمد رضي الله تعالى عنه","publishedAt":"2024-05-12T05:38:26Z","duration":"PT31M23S","thumbnail":"https://i.ytimg.com/vi/vtPBUQaWpsI/mqdefault.jpg","viewCount":"1501","playlistId":"PLEkQk5xrP-tkKprIuGrSdEuBSMsyg5We1","playlistName":"شرح مسند الإمام أحمد بن حنبل","category":"متنوع"},{"id":"6U4bNZ_WZrg","title":"103- فتن آخر الزمان | دعاء الشدة والكرب - شرح مسند الإمام أحمد رضي الله تعالى عنه","publishedAt":"2024-05-09T05:18:44Z","duration":"PT42M50S","thumbnail":"https://i.ytimg.com/vi/6U4bNZ_WZrg/mqdefault.jpg","viewCount":"2414","playlistId":"PLEkQk5xrP-tkKprIuGrSdEuBSMsyg5We1","playlistName":"شرح مسند الإمام أحمد بن حنبل","category":"متنوع"},{"id":"bUWXQ-XGysA","title":"102- لا هجرةَ بعد الفتح، ولكنْ جهادٌ ونيَّةٌ - شرح مسند الإمام أحمد رضي الله تعالى عنه","publishedAt":"2024-05-07T05:15:02Z","duration":"PT25M2S","thumbnail":"https://i.ytimg.com/vi/bUWXQ-XGysA/mqdefault.jpg","viewCount":"931","playlistId":"PLEkQk5xrP-tkKprIuGrSdEuBSMsyg5We1","playlistName":"شرح مسند الإمام أحمد بن حنبل","category":"متنوع"},{"id":"ebjcIacZb84","title":"150- متى يجب الجهاد في سبيل الله؟","publishedAt":"2025-02-05T07:00:23Z","duration":"PT23M17S","thumbnail":"https://i.ytimg.com/vi/ebjcIacZb84/mqdefault.jpg","viewCount":"1013","playlistId":"PLEkQk5xrP-tkKprIuGrSdEuBSMsyg5We1","playlistName":"شرح مسند الإمام أحمد بن حنبل","category":"متنوع"},{"id":"oGPiMQZmZOg","title":"124- كان النَّبيُّ ﷺ يسمع الصوت ويرى الضوء - شرح مسند الإمام أحمد رضي الله تعالى عنه","publishedAt":"2024-09-15T06:00:24Z","duration":"PT35M14S","thumbnail":"https://i.ytimg.com/vi/oGPiMQZmZOg/mqdefault.jpg","viewCount":"1454","playlistId":"PLEkQk5xrP-tkKprIuGrSdEuBSMsyg5We1","playlistName":"شرح مسند الإمام أحمد بن حنبل","category":"متنوع"},{"id":"No6FUxGdsa0","title":"123- \"يَسْتَبْشِرُونَ بِنِعْمَةٍ منَ اللهِ وَفَضْلٍ وَأَنَّ ﷲَ لَا يُضِيعُ أَجْرَ الْمُؤْمِنِين\"","publishedAt":"2024-09-09T06:00:19Z","duration":"PT16M14S","thumbnail":"https://i.ytimg.com/vi/No6FUxGdsa0/mqdefault.jpg","viewCount":"1254","playlistId":"PLEkQk5xrP-tkKprIuGrSdEuBSMsyg5We1","playlistName":"شرح مسند الإمام أحمد بن حنبل","category":"متنوع"},{"id":"rejKMd9gEIA","title":"101- حكم مَن انشغل بالنافلة عن الفريضة - شرح مسند الإمام أحمد رضي الله تعالى عنه","publishedAt":"2024-05-05T09:00:39Z","duration":"PT39M18S","thumbnail":"https://i.ytimg.com/vi/rejKMd9gEIA/mqdefault.jpg","viewCount":"1097","playlistId":"PLEkQk5xrP-tkKprIuGrSdEuBSMsyg5We1","playlistName":"شرح مسند الإمام أحمد بن حنبل","category":"متنوع"},{"id":"v7K4Pwr1Gtg","title":"100- حكم ختام الصلاة جهرًا - شرح مسند الإمام أحمد رضي الله تعالى عنه","publishedAt":"2024-05-03T05:00:29Z","duration":"PT35M3S","thumbnail":"https://i.ytimg.com/vi/v7K4Pwr1Gtg/mqdefault.jpg","viewCount":"960","playlistId":"PLEkQk5xrP-tkKprIuGrSdEuBSMsyg5We1","playlistName":"شرح مسند الإمام أحمد بن حنبل","category":"متنوع"},{"id":"IkusFyibm8Y","title":"99- من مبشرات النبوة الرؤيا الصالحة - شرح مسند الإمام أحمد رضي الله تعالى عنه","publishedAt":"2024-05-01T06:00:11Z","duration":"PT42M47S","thumbnail":"https://i.ytimg.com/vi/IkusFyibm8Y/mqdefault.jpg","viewCount":"1749","playlistId":"PLEkQk5xrP-tkKprIuGrSdEuBSMsyg5We1","playlistName":"شرح مسند الإمام أحمد بن حنبل","category":"متنوع"},{"id":"WWWRKGs98l4","title":"154- حال النَّبي ﷺ عند نزول الوحي - شرح مسند الإمام أحمد رضي الله تعالى عنه","publishedAt":"2025-03-04T06:15:01Z","duration":"PT34M1S","thumbnail":"https://i.ytimg.com/vi/WWWRKGs98l4/mqdefault.jpg","viewCount":"550","playlistId":"PLEkQk5xrP-tkKprIuGrSdEuBSMsyg5We1","playlistName":"شرح مسند الإمام أحمد بن حنبل","category":"متنوع"},{"id":"QJ_bcw_HMNI","title":"139- كيف يكون نشاطك اليومي مع تغير الأحوال؟ - شرح مسند الإمام أحمد رضي الله تعالى عنه","publishedAt":"2024-11-21T06:00:22Z","duration":"PT30M6S","thumbnail":"https://i.ytimg.com/vi/QJ_bcw_HMNI/mqdefault.jpg","viewCount":"2525","playlistId":"PLEkQk5xrP-tkKprIuGrSdEuBSMsyg5We1","playlistName":"شرح مسند الإمام أحمد بن حنبل","category":"متنوع"},{"id":"mjccf2pViFA","title":"138- كيف تدخل السرور على الأولياء والصالحين في قبورهم؟ - شرح مسند الإمام أحمد رضي الله تعالى عنه","publishedAt":"2024-11-18T06:18:02Z","duration":"PT18M41S","thumbnail":"https://i.ytimg.com/vi/mjccf2pViFA/mqdefault.jpg","viewCount":"2162","playlistId":"PLEkQk5xrP-tkKprIuGrSdEuBSMsyg5We1","playlistName":"شرح مسند الإمام أحمد بن حنبل","category":"متنوع"},{"id":"eVDrA578dTc","title":"137- من كذب عليَّ متعمِّدا فليتبوأ مقعدَه من النار - شرح مسند الإمام أحمد رضي الله تعالى عنه","publishedAt":"2024-11-12T06:15:39Z","duration":"PT27M14S","thumbnail":"https://i.ytimg.com/vi/eVDrA578dTc/mqdefault.jpg","viewCount":"1017","playlistId":"PLEkQk5xrP-tkKprIuGrSdEuBSMsyg5We1","playlistName":"شرح مسند الإمام أحمد بن حنبل","category":"متنوع"},{"id":"E1m2qi8HdzU","title":"136- كيفية دفن الميت والفرق بين الشق واللحد - شرح مسند الإمام أحمد رضي الله تعالى عنه","publishedAt":"2024-11-08T06:41:08Z","duration":"PT40M10S","thumbnail":"https://i.ytimg.com/vi/E1m2qi8HdzU/mqdefault.jpg","viewCount":"873","playlistId":"PLEkQk5xrP-tkKprIuGrSdEuBSMsyg5We1","playlistName":"شرح مسند الإمام أحمد بن حنبل","category":"متنوع"},{"id":"czQG-2M2F3A","title":"135- إنَّ الحُمَّى من فيح جهنم فأبردوها بالماء - شرح مسند الإمام أحمد رضي الله تعالى عنه","publishedAt":"2024-11-05T06:00:30Z","duration":"PT28M55S","thumbnail":"https://i.ytimg.com/vi/czQG-2M2F3A/mqdefault.jpg","viewCount":"968","playlistId":"PLEkQk5xrP-tkKprIuGrSdEuBSMsyg5We1","playlistName":"شرح مسند الإمام أحمد بن حنبل","category":"متنوع"},{"id":"y0LkCZb7gwg","title":"115- مَن استعاذ بالله فأعيذوه، ومَن سألكم بوجه الله فأعطوه | ما معنى العُمرى؟","publishedAt":"2024-07-08T08:00:37Z","duration":"PT43M48S","thumbnail":"https://i.ytimg.com/vi/y0LkCZb7gwg/mqdefault.jpg","viewCount":"1366","playlistId":"PLEkQk5xrP-tkKprIuGrSdEuBSMsyg5We1","playlistName":"شرح مسند الإمام أحمد بن حنبل","category":"متنوع"},{"id":"0BvcNpTwxPI","title":"114- حكم مَن اتُّهِمَ زُورًا - شرح مسند الإمام أحمد رضي الله تعالى عنه","publishedAt":"2024-06-29T07:03:44Z","duration":"PT36M36S","thumbnail":"https://i.ytimg.com/vi/0BvcNpTwxPI/mqdefault.jpg","viewCount":"935","playlistId":"PLEkQk5xrP-tkKprIuGrSdEuBSMsyg5We1","playlistName":"شرح مسند الإمام أحمد بن حنبل","category":"متنوع"}],"total":185,"page":4,"pageSize":24,"totalPages":8}