{"items":[{"id":"GyU1OrYzCe4","title":"متى وَرَدَت الوَارِدَاتُ الإلهيةِ إليك، َهَدمَت العوائِدَ عليك.","publishedAt":"2018-01-04T23:48:16Z","duration":"PT19M59S","thumbnail":"https://i.ytimg.com/vi/GyU1OrYzCe4/mqdefault.jpg","viewCount":"45460","playlistId":"PLEkQk5xrP-tkI_meE148wc7V7XHlB0WPb","playlistName":"من الحكم العطائية  د. يسري جبر","category":"متنوع"},{"id":"VhK5_E8jMm4","title":"متى أوحشك من خلقه ، فاعلم أنَّه يريد أن يفتح لك باب الأنس به .","publishedAt":"2016-11-13T20:03:49Z","duration":"PT11M27S","thumbnail":"https://i.ytimg.com/vi/VhK5_E8jMm4/mqdefault.jpg","viewCount":"27603","playlistId":"PLEkQk5xrP-tkI_meE148wc7V7XHlB0WPb","playlistName":"من الحكم العطائية  د. يسري جبر","category":"متنوع"},{"id":"ZSDyJKZxg3U","title":"لو أشرق لك نور اليقين ، لرأيت الآخرة أقرب إليك من أن ترحل إليها","publishedAt":"2016-10-23T21:02:52Z","duration":"PT14M11S","thumbnail":"https://i.ytimg.com/vi/ZSDyJKZxg3U/mqdefault.jpg","viewCount":"20148","playlistId":"PLEkQk5xrP-tkI_meE148wc7V7XHlB0WPb","playlistName":"من الحكم العطائية  د. يسري جبر","category":"متنوع"},{"id":"_xM1bfmPMOU","title":"متى أطلق لسانك بالطلب ، فاعلم أنَّه يُريد أن يعطيك","publishedAt":"2016-11-14T20:39:55Z","duration":"PT15M7S","thumbnail":"https://i.ytimg.com/vi/_xM1bfmPMOU/mqdefault.jpg","viewCount":"19659","playlistId":"PLEkQk5xrP-tkI_meE148wc7V7XHlB0WPb","playlistName":"من الحكم العطائية  د. يسري جبر","category":"متنوع"},{"id":"CI-mQAoCp80","title":"ربما أطلعك على غيب ملكوته، وحجب عنك الاستشراف على أسرار العباد.","publishedAt":"2017-04-16T11:45:28Z","duration":"PT19M39S","thumbnail":"https://i.ytimg.com/vi/CI-mQAoCp80/mqdefault.jpg","viewCount":"16956","playlistId":"PLEkQk5xrP-tkI_meE148wc7V7XHlB0WPb","playlistName":"من الحكم العطائية  د. يسري جبر","category":"متنوع"},{"id":"6z3crdLFIAY","title":"لا يَسْتَحْقِرُ الوِرْدَ إلا جَهُول","publishedAt":"2016-12-14T21:24:16Z","duration":"PT11M7S","thumbnail":"https://i.ytimg.com/vi/6z3crdLFIAY/mqdefault.jpg","viewCount":"16527","playlistId":"PLEkQk5xrP-tkI_meE148wc7V7XHlB0WPb","playlistName":"من الحكم العطائية  د. يسري جبر","category":"متنوع"},{"id":"RC64W9LvysY","title":"كيف تُخرق لك العوائد وأنت لم تخرق من نفسك العوائد","publishedAt":"2016-10-17T17:55:47Z","duration":"PT12M37S","thumbnail":"https://i.ytimg.com/vi/RC64W9LvysY/mqdefault.jpg","viewCount":"15378","playlistId":"PLEkQk5xrP-tkI_meE148wc7V7XHlB0WPb","playlistName":"من الحكم العطائية  د. يسري جبر","category":"متنوع"},{"id":"ZlyVxXzsVp8","title":"متى آلَمَكَ عدمُ إقبال الناس عليك، أو توجُّهُهم بالذَّمّ إليك، فارجِعْ إلى عِلْم اللهِ فيك..","publishedAt":"2018-02-26T18:25:47Z","duration":"PT12M34S","thumbnail":"https://i.ytimg.com/vi/ZlyVxXzsVp8/mqdefault.jpg","viewCount":"14139","playlistId":"PLEkQk5xrP-tkI_meE148wc7V7XHlB0WPb","playlistName":"من الحكم العطائية  د. يسري جبر","category":"متنوع"},{"id":"lSkFrXPhaFM","title":"لاتطلبنَّ بقاء الواردات بعد أن بسطت أنوارها، وأودعت أسرارها، فلك في الله غِنى عن كل شيء ...","publishedAt":"2018-01-13T19:40:01Z","duration":"PT6M31S","thumbnail":"https://i.ytimg.com/vi/lSkFrXPhaFM/mqdefault.jpg","viewCount":"13446","playlistId":"PLEkQk5xrP-tkI_meE148wc7V7XHlB0WPb","playlistName":"من الحكم العطائية  د. يسري جبر","category":"متنوع"},{"id":"9TxxO_4H0x4","title":"إنَّمَا أجْرَى الأذَى عَلى أيديهم كَي لا تَكُونَ سَاكِنًا إِلَيهم..","publishedAt":"2018-02-28T19:57:22Z","duration":"PT9M39S","thumbnail":"https://i.ytimg.com/vi/9TxxO_4H0x4/mqdefault.jpg","viewCount":"12573","playlistId":"PLEkQk5xrP-tkI_meE148wc7V7XHlB0WPb","playlistName":"من الحكم العطائية  د. يسري جبر","category":"متنوع"},{"id":"cPASN-oDX2M","title":"قومٌ تسبق أنوارُهم أذكارَهم، وقومٌ تسبق أذكارُهم أنوارَهم، وقومٌ تتساوى أذكارُهم وأنوارُهم...","publishedAt":"2018-03-17T19:37:53Z","duration":"PT10M9S","thumbnail":"https://i.ytimg.com/vi/cPASN-oDX2M/mqdefault.jpg","viewCount":"12542","playlistId":"PLEkQk5xrP-tkI_meE148wc7V7XHlB0WPb","playlistName":"من الحكم العطائية  د. يسري جبر","category":"متنوع"},{"id":"o_4__rO8FZw","title":"ربما رُزق الكرامة مَن لم تكمُل له الاستقامة","publishedAt":"2017-06-04T16:43:16Z","duration":"PT10M4S","thumbnail":"https://i.ytimg.com/vi/o_4__rO8FZw/mqdefault.jpg","viewCount":"11813","playlistId":"PLEkQk5xrP-tkI_meE148wc7V7XHlB0WPb","playlistName":"من الحكم العطائية  د. يسري جبر","category":"متنوع"},{"id":"0AK8PSOVDsE","title":"مطالع الأنوار : القلوب والأسرار","publishedAt":"2017-03-23T17:19:39Z","duration":"PT14M48S","thumbnail":"https://i.ytimg.com/vi/0AK8PSOVDsE/mqdefault.jpg","viewCount":"11423","playlistId":"PLEkQk5xrP-tkI_meE148wc7V7XHlB0WPb","playlistName":"من الحكم العطائية  د. يسري جبر","category":"متنوع"},{"id":"shRoteu8ih4","title":"أنت حُرٌ مما أنت عنه آيسٌ، وعبدٌ لما أنت له طامع","publishedAt":"2016-10-27T17:58:04Z","duration":"PT9M16S","thumbnail":"https://i.ytimg.com/vi/shRoteu8ih4/mqdefault.jpg","viewCount":"11112","playlistId":"PLEkQk5xrP-tkI_meE148wc7V7XHlB0WPb","playlistName":"من الحكم العطائية  د. يسري جبر","category":"متنوع"},{"id":"qiiKcEy1L7M","title":"نور يكشف لك به عن آثاره، ونور يكشف لك به عن أوصافه .","publishedAt":"2017-03-28T19:42:24Z","duration":"PT19M48S","thumbnail":"https://i.ytimg.com/vi/qiiKcEy1L7M/mqdefault.jpg","viewCount":"10981","playlistId":"PLEkQk5xrP-tkI_meE148wc7V7XHlB0WPb","playlistName":"من الحكم العطائية  د. يسري جبر","category":"متنوع"},{"id":"ZL61f4qHYi0","title":"لا يُعلم قدْر أنوارِ القلوب والأسرار إلا في غيب الملكوت كما لا تظهر أنوار السماء إلا في شهادة المُلك","publishedAt":"2018-01-28T17:48:32Z","duration":"PT15M51S","thumbnail":"https://i.ytimg.com/vi/ZL61f4qHYi0/mqdefault.jpg","viewCount":"10107","playlistId":"PLEkQk5xrP-tkI_meE148wc7V7XHlB0WPb","playlistName":"من الحكم العطائية  د. يسري جبر","category":"متنوع"},{"id":"Ih4MhsxX6JE","title":"ستر أنوار السرائر بكثائف الظواهر، إجلالا لها أن تبتذل بوجود الإظهار،...","publishedAt":"2017-04-01T15:52:35Z","duration":"PT22M9S","thumbnail":"https://i.ytimg.com/vi/Ih4MhsxX6JE/mqdefault.jpg","viewCount":"10072","playlistId":"PLEkQk5xrP-tkI_meE148wc7V7XHlB0WPb","playlistName":"من الحكم العطائية  د. يسري جبر","category":"متنوع"},{"id":"PXq-SjgWVbE","title":"العارفُ لا يزول اضطرارُه ، ولا يكون مع غير الله قرارُه .","publishedAt":"2016-11-20T20:06:03Z","duration":"PT21M20S","thumbnail":"https://i.ytimg.com/vi/PXq-SjgWVbE/mqdefault.jpg","viewCount":"9855","playlistId":"PLEkQk5xrP-tkI_meE148wc7V7XHlB0WPb","playlistName":"من الحكم العطائية  د. يسري جبر","category":"متنوع"},{"id":"3V64Hr4hja8","title":"رُبَّما فتح لك باب الطاعة ، وما فتح لك باب القبول ورُبَّما قضى عليك بالذنب ، فكان سببا في الوصول .","publishedAt":"2016-11-10T18:25:44Z","duration":"PT10M30S","thumbnail":"https://i.ytimg.com/vi/3V64Hr4hja8/mqdefault.jpg","viewCount":"9808","playlistId":"PLEkQk5xrP-tkI_meE148wc7V7XHlB0WPb","playlistName":"من الحكم العطائية  د. يسري جبر","category":"متنوع"},{"id":"i0tTZk_Cjus","title":"ربما أفادك في ليل القبض ما لم تستفدْه في إشراق نهار البسط .","publishedAt":"2017-03-20T19:35:52Z","duration":"PT14M17S","thumbnail":"https://i.ytimg.com/vi/i0tTZk_Cjus/mqdefault.jpg","viewCount":"9278","playlistId":"PLEkQk5xrP-tkI_meE148wc7V7XHlB0WPb","playlistName":"من الحكم العطائية  د. يسري جبر","category":"متنوع"},{"id":"poc9MZ2Sz-c","title":"سبحان من لم يجعل الدليل على أوليائه إلا من حيث الدليل عليه، ولم يوصل إليهم إلا من أراد أن يوصله إليه","publishedAt":"2017-04-11T19:28:12Z","duration":"PT13M34S","thumbnail":"https://i.ytimg.com/vi/poc9MZ2Sz-c/mqdefault.jpg","viewCount":"9046","playlistId":"PLEkQk5xrP-tkI_meE148wc7V7XHlB0WPb","playlistName":"من الحكم العطائية  د. يسري جبر","category":"متنوع"},{"id":"HFmOBlc5ODg","title":"ما تجدُ القلوبُ من الهُمُومِ والأحزانِ، فلأجلِ ما مُنِعَت من وُجُودِ العيَانِ.","publishedAt":"2018-01-15T17:22:43Z","duration":"PT6M46S","thumbnail":"https://i.ytimg.com/vi/HFmOBlc5ODg/mqdefault.jpg","viewCount":"8779","playlistId":"PLEkQk5xrP-tkI_meE148wc7V7XHlB0WPb","playlistName":"من الحكم العطائية  د. يسري جبر","category":"متنوع"},{"id":"9Hhz-HiEMhg","title":"الغافل إذا أصبح ينظر ماذا يفعل والعاقل ينظر ماذا يفعل الله به","publishedAt":"2017-01-05T21:27:38Z","duration":"PT18M36S","thumbnail":"https://i.ytimg.com/vi/9Hhz-HiEMhg/mqdefault.jpg","viewCount":"8178","playlistId":"PLEkQk5xrP-tkI_meE148wc7V7XHlB0WPb","playlistName":"من الحكم العطائية  د. يسري جبر","category":"متنوع"},{"id":"eNbmLq3KpIw","title":"إنما يُؤْلمكَ المَنْعُ لِعَدَمِ فَهْمِكَ عنِ اللهِ فيه","publishedAt":"2016-11-09T18:35:34Z","duration":"PT8M7S","thumbnail":"https://i.ytimg.com/vi/eNbmLq3KpIw/mqdefault.jpg","viewCount":"8163","playlistId":"PLEkQk5xrP-tkI_meE148wc7V7XHlB0WPb","playlistName":"من الحكم العطائية  د. يسري جبر","category":"متنوع"}],"total":136,"page":1,"pageSize":24,"totalPages":6}