{"items":[{"id":"w9un83u2_Jg","title":"أنوارٌ أُذِنَ لها في الوصول وأنوارٌ أُذِنَ لها في الدخول.","publishedAt":"2017-12-24T18:52:02Z","duration":"PT23M23S","thumbnail":"https://i.ytimg.com/vi/w9un83u2_Jg/mqdefault.jpg","viewCount":"8103","playlistId":"PLEkQk5xrP-tkI_meE148wc7V7XHlB0WPb","playlistName":"من الحكم العطائية  د. يسري جبر","category":"متنوع"},{"id":"hm2qsLaJu6Y","title":"متى جعلك في الظاهر ممتثلا لأمره ، ورزقك في الباطن الاستسلام لقهره ، فقد أعظم المنَّة عليك","publishedAt":"2016-12-12T19:16:39Z","duration":"PT25M10S","thumbnail":"https://i.ytimg.com/vi/hm2qsLaJu6Y/mqdefault.jpg","viewCount":"8029","playlistId":"PLEkQk5xrP-tkI_meE148wc7V7XHlB0WPb","playlistName":"من الحكم العطائية  د. يسري جبر","category":"متنوع"},{"id":"wvpz5_ltsFE","title":"الحقائقُ تَرِدُ في حَالِ التَّجَلِّي مُجْمَلَةً وبعْدَ الوَعْي يكونُ البيانُ","publishedAt":"2018-01-02T18:50:17Z","duration":"PT13M30S","thumbnail":"https://i.ytimg.com/vi/wvpz5_ltsFE/mqdefault.jpg","viewCount":"7452","playlistId":"PLEkQk5xrP-tkI_meE148wc7V7XHlB0WPb","playlistName":"من الحكم العطائية  د. يسري جبر","category":"متنوع"},{"id":"MVUXEIvWZfc","title":"مقامُ الفَرْقِ ومقامُ الجَمْعِ","publishedAt":"2016-10-31T13:20:31Z","duration":"PT13M2S","thumbnail":"https://i.ytimg.com/vi/MVUXEIvWZfc/mqdefault.jpg","viewCount":"7255","playlistId":"PLEkQk5xrP-tkI_meE148wc7V7XHlB0WPb","playlistName":"من الحكم العطائية  د. يسري جبر","category":"متنوع"},{"id":"9EwKnJEFt4w","title":"فَرِّغْ قَلْبَكَ منَ الأغْيارِ، يُمْلأْ بالمعَارِفِ والأسْرارِ.","publishedAt":"2017-12-25T19:29:11Z","duration":"PT7M23S","thumbnail":"https://i.ytimg.com/vi/9EwKnJEFt4w/mqdefault.jpg","viewCount":"7163","playlistId":"PLEkQk5xrP-tkI_meE148wc7V7XHlB0WPb","playlistName":"من الحكم العطائية  د. يسري جبر","category":"متنوع"},{"id":"lukTm5qnLbs","title":"إنما حجب الحقَّ عنك، شدة قربه منك - إنما احتجب لشدة ظهوره، وخفي عن الأبصار لعظيم نوره","publishedAt":"2017-04-29T19:05:31Z","duration":"PT9M47S","thumbnail":"https://i.ytimg.com/vi/lukTm5qnLbs/mqdefault.jpg","viewCount":"6887","playlistId":"PLEkQk5xrP-tkI_meE148wc7V7XHlB0WPb","playlistName":"من الحكم العطائية  د. يسري جبر","category":"متنوع"},{"id":"qkzK9Lmc5ns","title":"من عرف الحق، شهده في كل شيء، ومن فني به، غاب عن كل شيء، ومن أحبه، لم يؤثر عليه شيئا.","publishedAt":"2017-04-27T19:45:08Z","duration":"PT12M47S","thumbnail":"https://i.ytimg.com/vi/qkzK9Lmc5ns/mqdefault.jpg","viewCount":"6882","playlistId":"PLEkQk5xrP-tkI_meE148wc7V7XHlB0WPb","playlistName":"من الحكم العطائية  د. يسري جبر","category":"متنوع"},{"id":"jmTRAVYZnDY","title":"أنتَ معَ الأكوَانِ مَا لمْ تشْهَد المُكَوِّنَ، فإذا شَهِدتهُ كانت الأكوانُ مَعَك.","publishedAt":"2018-01-25T19:14:54Z","duration":"PT17M36S","thumbnail":"https://i.ytimg.com/vi/jmTRAVYZnDY/mqdefault.jpg","viewCount":"6738","playlistId":"PLEkQk5xrP-tkI_meE148wc7V7XHlB0WPb","playlistName":"من الحكم العطائية  د. يسري جبر","category":"متنوع"},{"id":"rFcAfKXSu0I","title":"الفِكْرَةُ: سَيْرُ القَلْبِ، في مَيَادِينِ الأَغْيَارِ.","publishedAt":"2018-04-03T18:12:55Z","duration":"PT19M12S","thumbnail":"https://i.ytimg.com/vi/rFcAfKXSu0I/mqdefault.jpg","viewCount":"6713","playlistId":"PLEkQk5xrP-tkI_meE148wc7V7XHlB0WPb","playlistName":"من الحكم العطائية  د. يسري جبر","category":"متنوع"},{"id":"MqfdAVOA57w","title":"غيِّبْ نظر الخلق إليك بنظر الحق إليك، وغِبْ عن وجود إقبالهم عليك بشهود إقباله عليك.","publishedAt":"2017-04-26T19:47:12Z","duration":"PT13M31S","thumbnail":"https://i.ytimg.com/vi/MqfdAVOA57w/mqdefault.jpg","viewCount":"6460","playlistId":"PLEkQk5xrP-tkI_meE148wc7V7XHlB0WPb","playlistName":"من الحكم العطائية  د. يسري جبر","category":"متنوع"},{"id":"TXO4cipo7ks","title":"وُرُودُ الفاقات أعيادُ المُريدين","publishedAt":"2017-05-27T16:34:39Z","duration":"PT15M33S","thumbnail":"https://i.ytimg.com/vi/TXO4cipo7ks/mqdefault.jpg","viewCount":"5954","playlistId":"PLEkQk5xrP-tkI_meE148wc7V7XHlB0WPb","playlistName":"من الحكم العطائية  د. يسري جبر","category":"متنوع"},{"id":"qANsLQZBDRw","title":"لا يُخرِِجُ الشهوةَ من القلبِ إلا خوفٌ مُزعِجٌ أو شوقٌ مُقلِقٌ","publishedAt":"2017-09-11T19:47:09Z","duration":"PT11M59S","thumbnail":"https://i.ytimg.com/vi/qANsLQZBDRw/mqdefault.jpg","viewCount":"5879","playlistId":"PLEkQk5xrP-tkI_meE148wc7V7XHlB0WPb","playlistName":"من الحكم العطائية  د. يسري جبر","category":"متنوع"},{"id":"mXFmkUunaBU","title":"لا تزكّينَّ واردا لا تعلمُ ثمرتَه، فليس المرادُ من السحابة الإمطار، وإنما المرادُ منها وجود الإثمار.","publishedAt":"2018-01-12T18:41:14Z","duration":"PT7M58S","thumbnail":"https://i.ytimg.com/vi/mXFmkUunaBU/mqdefault.jpg","viewCount":"5842","playlistId":"PLEkQk5xrP-tkI_meE148wc7V7XHlB0WPb","playlistName":"من الحكم العطائية  د. يسري جبر","category":"متنوع"},{"id":"mo4FfmJHXJo","title":"الخِذْلَانُ أَنْ تتفَرَّغَ مِنَ الشَوَاغِلِ ثمَّ لا تتوجَّه إِليه  أ.د. يسري جبر","publishedAt":"2020-03-30T15:19:03Z","duration":"PT6M29S","thumbnail":"https://i.ytimg.com/vi/mo4FfmJHXJo/mqdefault.jpg","viewCount":"5739","playlistId":"PLEkQk5xrP-tkI_meE148wc7V7XHlB0WPb","playlistName":"من الحكم العطائية  د. يسري جبر","category":"متنوع"},{"id":"hEC3l0V7KIc","title":"وُصُولك إلى الله وُصُولك إلى العِلْم به، وإلا .. فجلَّ ربُّنا أن يتَّصل به شيء، أو يتَّصل هو بشيء.","publishedAt":"2017-12-31T21:02:22Z","duration":"PT13M16S","thumbnail":"https://i.ytimg.com/vi/hEC3l0V7KIc/mqdefault.jpg","viewCount":"5726","playlistId":"PLEkQk5xrP-tkI_meE148wc7V7XHlB0WPb","playlistName":"من الحكم العطائية  د. يسري جبر","category":"متنوع"},{"id":"0m347AXFgBA","title":"مَنْ أَثْبَتَ لِنَفْسِهِ تَوَاضُعًا فَهُو المُتَكَبِّرُ حَقًّا..","publishedAt":"2018-03-01T19:26:59Z","duration":"PT11M11S","thumbnail":"https://i.ytimg.com/vi/0m347AXFgBA/mqdefault.jpg","viewCount":"5556","playlistId":"PLEkQk5xrP-tkI_meE148wc7V7XHlB0WPb","playlistName":"من الحكم العطائية  د. يسري جبر","category":"متنوع"},{"id":"Od2TPaU5a-c","title":"إذا أردت وُرود المواهب عليك، صَحِّحِ الفقر والفاقةَ لديك (إِنَّمَا الصَّدَقَاتُ لِلْفُقَرَاءِ)","publishedAt":"2017-05-31T16:01:35Z","duration":"PT7M44S","thumbnail":"https://i.ytimg.com/vi/Od2TPaU5a-c/mqdefault.jpg","viewCount":"5501","playlistId":"PLEkQk5xrP-tkI_meE148wc7V7XHlB0WPb","playlistName":"من الحكم العطائية  د. يسري جبر","category":"متنوع"},{"id":"LFRKIcc8bWQ","title":"إذا أردت أن يفتح لك باب الرجاء،فاشهد ما منه إليك.وإذا أردت أن يفتح لك باب الخوف،فاشهد ما منك إليه","publishedAt":"2017-03-17T20:42:25Z","duration":"PT13M33S","thumbnail":"https://i.ytimg.com/vi/LFRKIcc8bWQ/mqdefault.jpg","viewCount":"5046","playlistId":"PLEkQk5xrP-tkI_meE148wc7V7XHlB0WPb","playlistName":"من الحكم العطائية  د. يسري جبر","category":"متنوع"},{"id":"xLzwKq8H0r4","title":"لا تيأس من قَبول عمل لم تجدْ فيه وجود الحُضور، فرُبَّما قبِلَ من العمل ما لم تُدْرِكْ ثمرته عاجلا.","publishedAt":"2018-01-09T18:57:24Z","duration":"PT4M57S","thumbnail":"https://i.ytimg.com/vi/xLzwKq8H0r4/mqdefault.jpg","viewCount":"4963","playlistId":"PLEkQk5xrP-tkI_meE148wc7V7XHlB0WPb","playlistName":"من الحكم العطائية  د. يسري جبر","category":"متنوع"},{"id":"dmyWQAP0HT0","title":"ليس المحبُّ الذي يرجو من محبوبه عِوضا،أو يطلب منه غرضا،فإن المحبَّ من يبذل لك،ليس المحبُّ من تبذل له","publishedAt":"2018-03-06T17:52:50Z","duration":"PT10M55S","thumbnail":"https://i.ytimg.com/vi/dmyWQAP0HT0/mqdefault.jpg","viewCount":"4868","playlistId":"PLEkQk5xrP-tkI_meE148wc7V7XHlB0WPb","playlistName":"من الحكم العطائية  د. يسري جبر","category":"متنوع"},{"id":"rZA-cqpR3UM","title":"منْ لم يشْكر النِعَم ، فقد تعرَّضَ لزوالها ، ومنْ شَكَرَها فقد قيَّدها بعِقَالِها.","publishedAt":"2016-10-27T20:17:56Z","duration":"PT14M47S","thumbnail":"https://i.ytimg.com/vi/rZA-cqpR3UM/mqdefault.jpg","viewCount":"4776","playlistId":"PLEkQk5xrP-tkI_meE148wc7V7XHlB0WPb","playlistName":"من الحكم العطائية  د. يسري جبر","category":"متنوع"},{"id":"VHRogFju0VY","title":"قومٌ أقامهم الحقُّ لخدمته ، وقومٌ اختصَّهم بمحبَّته","publishedAt":"2016-10-28T20:56:09Z","duration":"PT5M2S","thumbnail":"https://i.ytimg.com/vi/VHRogFju0VY/mqdefault.jpg","viewCount":"4609","playlistId":"PLEkQk5xrP-tkI_meE148wc7V7XHlB0WPb","playlistName":"من الحكم العطائية  د. يسري جبر","category":"متنوع"},{"id":"-LQMIvvPOrc","title":"الحزن على فقدان الطاعة مع عدم النهوض إليها من علامات الاغترار","publishedAt":"2016-10-30T14:21:37Z","duration":"PT4M54S","thumbnail":"https://i.ytimg.com/vi/-LQMIvvPOrc/mqdefault.jpg","viewCount":"4555","playlistId":"PLEkQk5xrP-tkI_meE148wc7V7XHlB0WPb","playlistName":"من الحكم العطائية  د. يسري جبر","category":"متنوع"},{"id":"klrmD8BaOvs","title":"وَسِعكَ الكونُ من حيثُ جسمانيَّتُك، ولم يسعْكَ من حيثُ رُوحَانيَّتُك.","publishedAt":"2018-01-23T16:32:16Z","duration":"PT10M30S","thumbnail":"https://i.ytimg.com/vi/klrmD8BaOvs/mqdefault.jpg","viewCount":"4516","playlistId":"PLEkQk5xrP-tkI_meE148wc7V7XHlB0WPb","playlistName":"من الحكم العطائية  د. يسري جبر","category":"متنوع"}],"total":136,"page":2,"pageSize":24,"totalPages":6}