{"items":[{"id":"SWgcVxRcKc8","title":"ما صحبك إلا من صحبك وهو بعيبك عليم ، وليس ذلك إلا مولاك الكريم","publishedAt":"2016-10-23T04:29:21Z","duration":"PT7M17S","thumbnail":"https://i.ytimg.com/vi/SWgcVxRcKc8/mqdefault.jpg","viewCount":"1455","playlistId":"PLEkQk5xrP-tkI_meE148wc7V7XHlB0WPb","playlistName":"من الحكم العطائية  د. يسري جبر","category":"متنوع"},{"id":"gX27DZ8Xr4M","title":"عَلِم أنك لا تقبلُ النُّصحَ المُجرَّدَ، فذوَّقكَ من ذواقها ما يُسهِّلُ عليك وُجُود فِراقِها.","publishedAt":"2018-02-15T18:36:40Z","duration":"PT7M34S","thumbnail":"https://i.ytimg.com/vi/gX27DZ8Xr4M/mqdefault.jpg","viewCount":"1450","playlistId":"PLEkQk5xrP-tkI_meE148wc7V7XHlB0WPb","playlistName":"من الحكم العطائية  د. يسري جبر","category":"متنوع"},{"id":"oEUtCs3wL-w","title":"لا يلزم من ثبوت الخصوصية عدم وصف البشرية، إنما مثل الخصوصية كإشراق شمس النهار،ظهرت في الأفق...","publishedAt":"2018-03-13T18:29:01Z","duration":"PT11M11S","thumbnail":"https://i.ytimg.com/vi/oEUtCs3wL-w/mqdefault.jpg","viewCount":"1440","playlistId":"PLEkQk5xrP-tkI_meE148wc7V7XHlB0WPb","playlistName":"من الحكم العطائية  د. يسري جبر","category":"متنوع"},{"id":"RIhZGL58jAE","title":"منْ تمامِ النعمةِ عليك: أنْ يرزقكَ ما يَكْفيكَ، ويَمْنعكَ ما يُطْغيك.","publishedAt":"2018-02-01T17:57:11Z","duration":"PT8M16S","thumbnail":"https://i.ytimg.com/vi/RIhZGL58jAE/mqdefault.jpg","viewCount":"1414","playlistId":"PLEkQk5xrP-tkI_meE148wc7V7XHlB0WPb","playlistName":"من الحكم العطائية  د. يسري جبر","category":"متنوع"},{"id":"oESN6aKpwZQ","title":"أنار الظواهر بأنوار آثاره ، وأنار السرائر بأنوار أوصافه","publishedAt":"2016-11-25T18:13:54Z","duration":"PT19M1S","thumbnail":"https://i.ytimg.com/vi/oESN6aKpwZQ/mqdefault.jpg","viewCount":"1399","playlistId":"PLEkQk5xrP-tkI_meE148wc7V7XHlB0WPb","playlistName":"من الحكم العطائية  د. يسري جبر","category":"متنوع"},{"id":"6VJbtwl_exk","title":"كُلُّ كَلامٍ يَبرُزُ وَعَليهِ كِسْوَةُ القَلبِ الذي مِنهُ بَرَزَ","publishedAt":"2017-08-11T08:50:57Z","duration":"PT10M26S","thumbnail":"https://i.ytimg.com/vi/6VJbtwl_exk/mqdefault.jpg","viewCount":"1361","playlistId":"PLEkQk5xrP-tkI_meE148wc7V7XHlB0WPb","playlistName":"من الحكم العطائية  د. يسري جبر","category":"متنوع"},{"id":"Yn23Mav9hlk","title":"لا يكن طلبك تسببا إلى العطاء منه، فيقل فهمك عنه، وليكن طلبك لإظهار العبودية، وقياما بحقوق الربوبية.","publishedAt":"2017-05-02T20:46:22Z","duration":"PT5M40S","thumbnail":"https://i.ytimg.com/vi/Yn23Mav9hlk/mqdefault.jpg","viewCount":"1342","playlistId":"PLEkQk5xrP-tkI_meE148wc7V7XHlB0WPb","playlistName":"من الحكم العطائية  د. يسري جبر","category":"متنوع"},{"id":"P-aRnGmEU7E","title":"لا ينبغي للسالك أن يُعبِّر عن وارداته، فإن ذلك يُقلُّ عملها في قلبه، ويمنعه وجود الصدق مع ربه.","publishedAt":"2017-08-23T19:10:04Z","duration":"PT4M3S","thumbnail":"https://i.ytimg.com/vi/P-aRnGmEU7E/mqdefault.jpg","viewCount":"1341","playlistId":"PLEkQk5xrP-tkI_meE148wc7V7XHlB0WPb","playlistName":"من الحكم العطائية  د. يسري جبر","category":"متنوع"},{"id":"tx2mKmAZDHU","title":"إذا التبس عليك أمران فانظر أثْقلهما على النفس فاتَّبعْه، فإنه لا يثقل عليها إلا ما كان حقا.","publishedAt":"2017-08-27T20:36:36Z","duration":"PT8M16S","thumbnail":"https://i.ytimg.com/vi/tx2mKmAZDHU/mqdefault.jpg","viewCount":"1313","playlistId":"PLEkQk5xrP-tkI_meE148wc7V7XHlB0WPb","playlistName":"من الحكم العطائية  د. يسري جبر","category":"متنوع"},{"id":"9OHGGWWYKSc","title":"من استغرب أن ينقذه الله من شهواته، وأن يخرجه من وجود غفلته، فقد استعجز القدرة الإلهية","publishedAt":"2017-09-02T11:49:12Z","duration":"PT9M27S","thumbnail":"https://i.ytimg.com/vi/9OHGGWWYKSc/mqdefault.jpg","viewCount":"1310","playlistId":"PLEkQk5xrP-tkI_meE148wc7V7XHlB0WPb","playlistName":"من الحكم العطائية  د. يسري جبر","category":"متنوع"},{"id":"pbGqBWrgzg4","title":"متى كنت إذا أُعطيت بسطك العطاء،وإذا مُنعت قبضك المنع،فاستدِل بذلك على طفوليتك، وعدم صدقك في عبوديتك","publishedAt":"2017-03-11T19:05:16Z","duration":"PT10M50S","thumbnail":"https://i.ytimg.com/vi/pbGqBWrgzg4/mqdefault.jpg","viewCount":"1310","playlistId":"PLEkQk5xrP-tkI_meE148wc7V7XHlB0WPb","playlistName":"من الحكم العطائية  د. يسري جبر","category":"متنوع"},{"id":"F092MhYD898","title":"رُبَّما ورَدَت الظُّلَمُ عليك، ليُعرِّفَكَ قدْرَ ما مَنَّ به عليك.","publishedAt":"2017-09-03T18:29:31Z","duration":"PT2M56S","thumbnail":"https://i.ytimg.com/vi/F092MhYD898/mqdefault.jpg","viewCount":"1253","playlistId":"PLEkQk5xrP-tkI_meE148wc7V7XHlB0WPb","playlistName":"من الحكم العطائية  د. يسري جبر","category":"متنوع"},{"id":"Er66k6gLc6U","title":"النعيمُ، وإن تنوعت مظاهره،إنما هو بشهوده واقترابه.والعذابُ، وإن تنوعت مظاهره،إنما هو بوجود حجابه ...","publishedAt":"2018-01-14T16:53:20Z","duration":"PT3M49S","thumbnail":"https://i.ytimg.com/vi/Er66k6gLc6U/mqdefault.jpg","viewCount":"1234","playlistId":"PLEkQk5xrP-tkI_meE148wc7V7XHlB0WPb","playlistName":"من الحكم العطائية  د. يسري جبر","category":"متنوع"},{"id":"w7SU35LeYoc","title":"رُبَّما دلَّهم الأدب على ترك الطلب، اعتمادا على قسمته، واشتغالا بذكره عن مسألته","publishedAt":"2017-05-20T18:03:53Z","duration":"PT10M2S","thumbnail":"https://i.ytimg.com/vi/w7SU35LeYoc/mqdefault.jpg","viewCount":"1230","playlistId":"PLEkQk5xrP-tkI_meE148wc7V7XHlB0WPb","playlistName":"من الحكم العطائية  د. يسري جبر","category":"متنوع"},{"id":"Valp2zn-B-E","title":"وِجدانُ ثمرات الطاعات عاجلا، بشائر للعاملين بوجُود الجزاء عليها آجلا.","publishedAt":"2018-03-15T19:03:35Z","duration":"PT7M20S","thumbnail":"https://i.ytimg.com/vi/Valp2zn-B-E/mqdefault.jpg","viewCount":"1223","playlistId":"PLEkQk5xrP-tkI_meE148wc7V7XHlB0WPb","playlistName":"من الحكم العطائية  د. يسري جبر","category":"متنوع"},{"id":"hXfJXDf6kXc","title":"لا تَسْتَبْطِئْ منه النَّوالَ، ولكن اسْتَبْطِئْ من نَفْسِكَ وُجُودَ الإِقْبَالِ.","publishedAt":"2017-12-26T17:32:09Z","duration":"PT6M10S","thumbnail":"https://i.ytimg.com/vi/hXfJXDf6kXc/mqdefault.jpg","viewCount":"1157","playlistId":"PLEkQk5xrP-tkI_meE148wc7V7XHlB0WPb","playlistName":"من الحكم العطائية  د. يسري جبر","category":"متنوع"},{"id":"X04T_cbjYW4","title":"ربما استحيا العارف أن يرفع حاجته إلى مولاه - اكتفاءً بمشيئته - فكيف لا يستحي أن يرفعها لخليقته.","publishedAt":"2017-08-25T08:53:09Z","duration":"PT5M17S","thumbnail":"https://i.ytimg.com/vi/X04T_cbjYW4/mqdefault.jpg","viewCount":"1117","playlistId":"PLEkQk5xrP-tkI_meE148wc7V7XHlB0WPb","playlistName":"من الحكم العطائية  د. يسري جبر","category":"متنوع"},{"id":"XyPGFgGdEwQ","title":"تمكُّنُ حلاوةِ الهَوَى من القلبِ هُوَ الدَّاءُ العُضَالُ (2)","publishedAt":"2017-09-06T20:01:56Z","duration":"PT30M37S","thumbnail":"https://i.ytimg.com/vi/XyPGFgGdEwQ/mqdefault.jpg","viewCount":"1095","playlistId":"PLEkQk5xrP-tkI_meE148wc7V7XHlB0WPb","playlistName":"من الحكم العطائية  د. يسري جبر","category":"متنوع"},{"id":"TxRQLrkZ8MY","title":"تسبق أنوارُ الحكماء أقوالَهم ..  فحيث صار التنوير، وصل التعبير.","publishedAt":"2017-06-14T17:52:43Z","duration":"PT12M30S","thumbnail":"https://i.ytimg.com/vi/TxRQLrkZ8MY/mqdefault.jpg","viewCount":"1082","playlistId":"PLEkQk5xrP-tkI_meE148wc7V7XHlB0WPb","playlistName":"من الحكم العطائية  د. يسري جبر","category":"متنوع"},{"id":"8GDnS4K2690","title":"العلمُ النافعُ هو الذي ينبسطُ في الصدرِ شُعَاعُه، وينكشِفُ به عن القلبِ قِنَاعُه.","publishedAt":"2018-01-16T20:03:01Z","duration":"PT8M19S","thumbnail":"https://i.ytimg.com/vi/8GDnS4K2690/mqdefault.jpg","viewCount":"1074","playlistId":"PLEkQk5xrP-tkI_meE148wc7V7XHlB0WPb","playlistName":"من الحكم العطائية  د. يسري جبر","category":"متنوع"},{"id":"JV2ZCjIme0s","title":"متى طلَبْت عِوضًا على عَمَل ، طُولِبْت بوجود الصدْقِ فيه ، ويكفي المُرِيبَ غَنيمة وِجْدانُ السلامة.","publishedAt":"2017-01-28T12:31:34Z","duration":"PT18M34S","thumbnail":"https://i.ytimg.com/vi/JV2ZCjIme0s/mqdefault.jpg","viewCount":"1056","playlistId":"PLEkQk5xrP-tkI_meE148wc7V7XHlB0WPb","playlistName":"من الحكم العطائية  د. يسري جبر","category":"متنوع"},{"id":"gl2gmUPnlsg","title":"أباح لك أن تنظر ما في المُكَوَّنات ، وما أذِن لك أن تقف مع ذوات المُكَوَّنات","publishedAt":"2017-02-25T20:51:05Z","duration":"PT17M20S","thumbnail":"https://i.ytimg.com/vi/gl2gmUPnlsg/mqdefault.jpg","viewCount":"1033","playlistId":"PLEkQk5xrP-tkI_meE148wc7V7XHlB0WPb","playlistName":"من الحكم العطائية  د. يسري جبر","category":"متنوع"},{"id":"4sISodcxK0Y","title":"إنَّمَا جَعَلَها مَحَلًّا للأَغْيَار ومَعْدِنًا لوجُودِ الأكْدَار.. تزْهيدًا لكَ فيها.","publishedAt":"2018-03-30T18:43:47Z","duration":"PT3M38S","thumbnail":"https://i.ytimg.com/vi/4sISodcxK0Y/mqdefault.jpg","viewCount":"1003","playlistId":"PLEkQk5xrP-tkI_meE148wc7V7XHlB0WPb","playlistName":"من الحكم العطائية  د. يسري جبر","category":"متنوع"},{"id":"DzFNQ7B1Xuc","title":"كيف يَحْتَجِبُ الحقُّ بشئ ، والذي يَحْتَجِبُ به ، هُو فيه ظاهرٌ ، وموجودٌ حاضِرٌ.","publishedAt":"2018-01-08T17:04:54Z","duration":"PT14M24S","thumbnail":"https://i.ytimg.com/vi/DzFNQ7B1Xuc/mqdefault.jpg","viewCount":"963","playlistId":"PLEkQk5xrP-tkI_meE148wc7V7XHlB0WPb","playlistName":"من الحكم العطائية  د. يسري جبر","category":"متنوع"}],"total":136,"page":5,"pageSize":24,"totalPages":6}