{"items":[{"id":"YAhNfWG06Ns","title":"ÙƒÙŠÙ ØªØ¹Ø±Ù Ø§Ù„Ø´ÙŠØ® Ø§Ù„Ù…Ø±Ø¨ÙŠØŸ","publishedAt":"2023-08-27T18:00:23Z","duration":"PT1H10M2S","thumbnail":"https://i.ytimg.com/vi/YAhNfWG06Ns/mqdefault.jpg","viewCount":"51650","playlistId":"PLEkQk5xrP-tmJzNvLntpzW0uPanPzxA0c","playlistName":"Ù„Ù‚Ø§Ø¡Ø§Øª ÙˆÙ…Ø­Ø§Ø¶Ø±Ø§Øª","category":"Ù…ØªÙ†ÙˆØ¹"},{"id":"CU-0zkB4MzE","title":"ÙˆØµÙ Ø§Ù„Ù†Ø¨ÙŠ ØµÙ„ Ø§Ù„Ù„Ù‡ Ø¹Ù„ÙŠÙ‡ ÙˆØ³Ù„Ù…","publishedAt":"2012-05-27T07:53:47Z","duration":"PT2H22M28S","thumbnail":"https://i.ytimg.com/vi/CU-0zkB4MzE/mqdefault.jpg","viewCount":"51437","playlistId":"PLEkQk5xrP-tmJzNvLntpzW0uPanPzxA0c","playlistName":"Ù„Ù‚Ø§Ø¡Ø§Øª ÙˆÙ…Ø­Ø§Ø¶Ø±Ø§Øª","category":"Ù…ØªÙ†ÙˆØ¹"},{"id":"msFb8zjUaC4","title":"Ø­Ù‚Ø§Ø¦Ù‚ ÙˆÙ…Ø¹Ø§Ù†ÙŠ Ø­ÙˆÙ„ Ø§Ù„Ø±ÙˆØ­Ø§Ù†ÙŠØ© Ø§Ù„Ù…Ø­Ù…Ø¯ÙŠØ© | Ø¯Ù…Ø´Ù‚, Ø³ÙˆØ±ÙŠØ§","publishedAt":"2024-05-14T19:27:57Z","duration":"PT55M47S","thumbnail":"https://i.ytimg.com/vi/msFb8zjUaC4/mqdefault.jpg","viewCount":"25164","playlistId":"PLEkQk5xrP-tmJzNvLntpzW0uPanPzxA0c","playlistName":"Ù„Ù‚Ø§Ø¡Ø§Øª ÙˆÙ…Ø­Ø§Ø¶Ø±Ø§Øª","category":"Ù…ØªÙ†ÙˆØ¹"},{"id":"CiLHa_7Eosk","title":"Ù…ÙØ§ØªÙŠØ­ Ø¹Ù„Ùˆ Ø§Ù„Ù‡Ù…Ø© Ø¹Ù†Ø¯ Ø§Ù„Ù…Ø³Ù„Ù… | Ø¯Ù…Ø´Ù‚, Ø³ÙˆØ±ÙŠØ§","publishedAt":"2024-05-19T18:00:06Z","duration":"PT58M59S","thumbnail":"https://i.ytimg.com/vi/CiLHa_7Eosk/mqdefault.jpg","viewCount":"25009","playlistId":"PLEkQk5xrP-tmJzNvLntpzW0uPanPzxA0c","playlistName":"Ù„Ù‚Ø§Ø¡Ø§Øª ÙˆÙ…Ø­Ø§Ø¶Ø±Ø§Øª","category":"Ù…ØªÙ†ÙˆØ¹"},{"id":"ionvxx04Hgs","title":"Ø­ÙƒÙ… Ø§Ù„Ø§Ø¶Ø±Ø­Ø© ÙˆÙ‡Ø¯Ù…Ù‡Ø§ ÙˆØ§ØªØ®Ø§Ø°Ù‡Ø§ Ø§Ù„Ù…Ù‚Ø§Ø¨Ø± | Ø§Ù„Ø­Ù„Ù‚Ø© 12 Ù…Ù† ÙØªØ§ÙˆÙ‰ Ø§Ù„Ø¯ÙƒØªÙˆØ± ÙŠØ³Ø±ÙŠ Ø¬Ø¨Ø± | Ù‚Ù†Ø§Ø© Ø£Ø²Ù‡Ø± ØªÙ‰ ÙÙ‰ Azhar TV","publishedAt":"2012-09-16T10:49:45Z","duration":"PT1H33M21S","thumbnail":"https://i.ytimg.com/vi/ionvxx04Hgs/mqdefault.jpg","viewCount":"23437","playlistId":"PLEkQk5xrP-tmJzNvLntpzW0uPanPzxA0c","playlistName":"Ù„Ù‚Ø§Ø¡Ø§Øª ÙˆÙ…Ø­Ø§Ø¶Ø±Ø§Øª","category":"Ù…ØªÙ†ÙˆØ¹"},{"id":"33AiItyD5sg","title":"Ø¯. ÙŠØ³Ø±ÙŠ Ø¬Ø¨Ø± _Ø°ÙƒØ± Ø§Ù„Ø®ÙˆØ§Ø±Ø¬ ÙˆÙ‚ØµØ© Ø°ÙŠ Ø§Ù„Ù‚Ø±Ù†ÙŠÙ† ÙˆÙŠØ£Ø¬ÙˆØ¬ ÙˆÙ…Ø£Ø¬ÙˆØ¬. ØµØ­ÙŠØ­ Ø§Ù„Ø¨Ø®Ø§Ø±ÙŠ","publishedAt":"2014-08-15T20:40:03Z","duration":"PT1H28M30S","thumbnail":"https://i.ytimg.com/vi/33AiItyD5sg/mqdefault.jpg","viewCount":"20736","playlistId":"PLEkQk5xrP-tmJzNvLntpzW0uPanPzxA0c","playlistName":"Ù„Ù‚Ø§Ø¡Ø§Øª ÙˆÙ…Ø­Ø§Ø¶Ø±Ø§Øª","category":"Ù…ØªÙ†ÙˆØ¹"},{"id":"5ruGyJKSrDM","title":"Ø¯. ÙŠØ³Ø±ÙŠ Ø±Ø´Ø¯ÙŠ Ø¬Ø¨Ø±_Ù…Ø­Ø§Ø¶Ø±Ø© Ø§Ù„Ø¥Ù…Ø§Ù… Ø§Ù„Ø´Ø§ÙØ¹ÙŠ_Ø§Ù„Ø¯Ø±ÙˆØ³ Ø§Ù„Ù…Ø­Ù…Ø¯ÙŠØ©","publishedAt":"2014-07-21T04:42:26Z","duration":"PT57M13S","thumbnail":"https://i.ytimg.com/vi/5ruGyJKSrDM/mqdefault.jpg","viewCount":"20346","playlistId":"PLEkQk5xrP-tmJzNvLntpzW0uPanPzxA0c","playlistName":"Ù„Ù‚Ø§Ø¡Ø§Øª ÙˆÙ…Ø­Ø§Ø¶Ø±Ø§Øª","category":"Ù…ØªÙ†ÙˆØ¹"},{"id":"YUkDvdXyh18","title":"Ø§Ù„ÙØ±Ù‚ Ø¨ÙŠÙ† Ø§Ù„Ù†ÙØ³ ÙˆØ§Ù„Ø±ÙˆØ­ | Ù…Ø¹ Ø§Ù„Ù†Ø§Ø³","publishedAt":"2016-04-26T21:54:13Z","duration":"PT4M54S","thumbnail":"https://i.ytimg.com/vi/YUkDvdXyh18/mqdefault.jpg","viewCount":"19331","playlistId":"PLEkQk5xrP-tmJzNvLntpzW0uPanPzxA0c","playlistName":"Ù„Ù‚Ø§Ø¡Ø§Øª ÙˆÙ…Ø­Ø§Ø¶Ø±Ø§Øª","category":"Ù…ØªÙ†ÙˆØ¹"},{"id":"KYW1A30OsWE","title":"Ù„Ø·Ø§Ø¦Ù ÙˆØ¥Ø´Ø§Ø±Ø§Øª ÙÙŠ Ø§Ù„Ø·Ø±ÙŠÙ‚ Ø¥Ù„Ù‰ Ø§Ù„Ù„Ù‡ | Ø¯Ù…Ø´Ù‚, Ø³ÙˆØ±ÙŠØ§","publishedAt":"2024-05-21T17:02:01Z","duration":"PT47M50S","thumbnail":"https://i.ytimg.com/vi/KYW1A30OsWE/mqdefault.jpg","viewCount":"17957","playlistId":"PLEkQk5xrP-tmJzNvLntpzW0uPanPzxA0c","playlistName":"Ù„Ù‚Ø§Ø¡Ø§Øª ÙˆÙ…Ø­Ø§Ø¶Ø±Ø§Øª","category":"Ù…ØªÙ†ÙˆØ¹"},{"id":"v8nmIPSVXn0","title":"Ù…Ø¯ÙŠÙ†Ø© Ø§Ù„Ø´Ù‡Ø¯Ø§Ø¡ Ø§Ù„Ø¨Ù‡Ù†Ø³Ø§ (Ø¨Ù‚ÙŠØ¹ Ù…ØµØ±)","publishedAt":"2014-04-27T15:19:57Z","duration":"PT1H17M28S","thumbnail":"https://i.ytimg.com/vi/v8nmIPSVXn0/mqdefault.jpg","viewCount":"16282","playlistId":"PLEkQk5xrP-tmJzNvLntpzW0uPanPzxA0c","playlistName":"Ù„Ù‚Ø§Ø¡Ø§Øª ÙˆÙ…Ø­Ø§Ø¶Ø±Ø§Øª","category":"Ù…ØªÙ†ÙˆØ¹"},{"id":"PfFCdy_YK8E","title":"Ø§Ù„Ø±Ø¯ Ø¹Ù„Ù‰ Ø¬Ù…ÙŠØ¹ Ø´Ø¨Ù‡Ø§Øª ÙˆØ§Ø¯Ø¹Ø§Ø¡Ø§Øª Ø§Ù„ÙˆÙ‡Ø§Ø¨ÙŠØ© | Ø§Ù†Ø¬Ù„ØªØ±Ø§ğŸ“","publishedAt":"2025-06-02T19:27:30Z","duration":"PT1H17M38S","thumbnail":"https://i.ytimg.com/vi/PfFCdy_YK8E/mqdefault.jpg","viewCount":"15715","playlistId":"PLEkQk5xrP-tmJzNvLntpzW0uPanPzxA0c","playlistName":"Ù„Ù‚Ø§Ø¡Ø§Øª ÙˆÙ…Ø­Ø§Ø¶Ø±Ø§Øª","category":"Ù…ØªÙ†ÙˆØ¹"},{"id":"WQz5smOu7tI","title":"Ù…Ø¹Ù†Ù‰ Ø§Ù„ØªØµÙˆÙ ÙÙŠ Ø§Ù„Ø¥Ø³Ù„Ø§Ù… | Ù…Ø¹ Ø§Ù„Ù†Ø§Ø³","publishedAt":"2016-04-26T21:51:00Z","duration":"PT7M8S","thumbnail":"https://i.ytimg.com/vi/WQz5smOu7tI/mqdefault.jpg","viewCount":"14614","playlistId":"PLEkQk5xrP-tmJzNvLntpzW0uPanPzxA0c","playlistName":"Ù„Ù‚Ø§Ø¡Ø§Øª ÙˆÙ…Ø­Ø§Ø¶Ø±Ø§Øª","category":"Ù…ØªÙ†ÙˆØ¹"},{"id":"kFcihqDJtjs","title":"Ø¨ÙØ´ÙØ±ÙŒ Ù„ÙØ§ ÙƒÙØ§Ù„Ø¨ÙØ´ÙØ±Ù ï·º   Ø£.Ø¯. ÙŠØ³Ø±ÙŠ Ø¬Ø¨Ø±","publishedAt":"2019-11-20T17:10:17Z","duration":"PT1H10M11S","thumbnail":"https://i.ytimg.com/vi/kFcihqDJtjs/mqdefault.jpg","viewCount":"14370","playlistId":"PLEkQk5xrP-tmJzNvLntpzW0uPanPzxA0c","playlistName":"Ù„Ù‚Ø§Ø¡Ø§Øª ÙˆÙ…Ø­Ø§Ø¶Ø±Ø§Øª","category":"Ù…ØªÙ†ÙˆØ¹"},{"id":"Nmhi1QGjeF8","title":"\"Ø¬ÙØ¹ÙÙ„ÙÙ†ÙÙŠ ÙÙØ§ØªÙØ­Ù‹Ø§ ÙˆÙØ®ÙØ§ØªÙÙ…Ù‹Ø§\"ï·º  Ø£.Ø¯. ÙŠØ³Ø±ÙŠ Ø¬Ø¨Ø±","publishedAt":"2019-11-13T13:23:19Z","duration":"PT30M38S","thumbnail":"https://i.ytimg.com/vi/Nmhi1QGjeF8/mqdefault.jpg","viewCount":"13646","playlistId":"PLEkQk5xrP-tmJzNvLntpzW0uPanPzxA0c","playlistName":"Ù„Ù‚Ø§Ø¡Ø§Øª ÙˆÙ…Ø­Ø§Ø¶Ø±Ø§Øª","category":"Ù…ØªÙ†ÙˆØ¹"},{"id":"jDNpVpfckUA","title":"Ù‚ØµØµ ÙˆØ°ÙƒØ±ÙŠØ§Øª ÙÙŠ Ø­ÙŠØ§Ø© Ø¯.ÙŠØ³Ø±ÙŠ Ø¬Ø¨Ø±","publishedAt":"2024-06-21T17:42:16Z","duration":"PT1H11M50S","thumbnail":"https://i.ytimg.com/vi/jDNpVpfckUA/mqdefault.jpg","viewCount":"7185","playlistId":"PLEkQk5xrP-tmJzNvLntpzW0uPanPzxA0c","playlistName":"Ù„Ù‚Ø§Ø¡Ø§Øª ÙˆÙ…Ø­Ø§Ø¶Ø±Ø§Øª","category":"Ù…ØªÙ†ÙˆØ¹"},{"id":"LY2j7U51qwM","title":"ÙƒÙŠÙ ØªØ¹Ø±Ù Ø§Ù„Ù†Ø¨ÙŠ ï·º Ù…Ù† Ø­ÙŠØ« Ø±ÙˆØ­Ø§Ù†ÙŠØªÙ‡ØŸ","publishedAt":"2024-04-27T18:24:22Z","duration":"PT56M27S","thumbnail":"https://i.ytimg.com/vi/LY2j7U51qwM/mqdefault.jpg","viewCount":"6135","playlistId":"PLEkQk5xrP-tmJzNvLntpzW0uPanPzxA0c","playlistName":"Ù„Ù‚Ø§Ø¡Ø§Øª ÙˆÙ…Ø­Ø§Ø¶Ø±Ø§Øª","category":"Ù…ØªÙ†ÙˆØ¹"},{"id":"jiwuRtfDl9k","title":"Ø£Ø¯Ù‘Ø¨ÙˆØ§ Ø£ÙˆÙ„Ø§Ø¯ÙƒÙ… Ø¹Ù„Ù‰ Ø«Ù„Ø§Ø« Ø®ØµØ§Ù„ Ø­Ø¨Ù‘ Ù†Ø¨ÙŠÙ‘ÙƒÙ… ÙˆØ­Ø¨ Ø¢Ù„ Ø¨ÙŠØªÙ‡ ÙˆØªÙ„Ø§ÙˆØ© Ø§Ù„Ù‚Ø±Ø¢Ù† - Ø¯. ÙŠØ³Ø±ÙŠ Ø¬Ø¨Ø±","publishedAt":"2014-11-02T18:57:18Z","duration":"PT19M21S","thumbnail":"https://i.ytimg.com/vi/jiwuRtfDl9k/mqdefault.jpg","viewCount":"5596","playlistId":"PLEkQk5xrP-tmJzNvLntpzW0uPanPzxA0c","playlistName":"Ù„Ù‚Ø§Ø¡Ø§Øª ÙˆÙ…Ø­Ø§Ø¶Ø±Ø§Øª","category":"Ù…ØªÙ†ÙˆØ¹"},{"id":"xdTiUbe5T7s","title":"ÙƒÙ„Ù…Ø© Ø£.Ø¯. ÙŠØ³Ø±ÙŠ Ø¬Ø¨Ø± ÙÙŠ Ø§Ù„Ù…Ø¤ØªÙ…Ø± Ø§Ù„ØµÙˆÙÙŠ Ø§Ù„Ø¹Ø§Ù„Ù…ÙŠ | Ø¬Ø§ÙˆØ© Ø§Ù„ÙˆØ³Ø·Ù‰  - Ø¥Ù†Ø¯ÙˆÙ†ÙŠØ³ÙŠØ§","publishedAt":"2023-09-20T18:30:41Z","duration":"PT16M15S","thumbnail":"https://i.ytimg.com/vi/xdTiUbe5T7s/mqdefault.jpg","viewCount":"5262","playlistId":"PLEkQk5xrP-tmJzNvLntpzW0uPanPzxA0c","playlistName":"Ù„Ù‚Ø§Ø¡Ø§Øª ÙˆÙ…Ø­Ø§Ø¶Ø±Ø§Øª","category":"Ù…ØªÙ†ÙˆØ¹"},{"id":"vafyNpRgbEc","title":"ÙƒÙ„Ù…Ø© Ø£.Ø¯. ÙŠØ³Ø±ÙŠ Ø¬Ø¨Ø± ÙÙŠ Ù…Ø¯ÙŠÙ†Ø© Ø¨ÙˆÙ„Ùˆ | ØªØ±ÙƒÙŠØ§","publishedAt":"2023-08-03T08:59:00Z","duration":"PT14M3S","thumbnail":"https://i.ytimg.com/vi/vafyNpRgbEc/mqdefault.jpg","viewCount":"5033","playlistId":"PLEkQk5xrP-tmJzNvLntpzW0uPanPzxA0c","playlistName":"Ù„Ù‚Ø§Ø¡Ø§Øª ÙˆÙ…Ø­Ø§Ø¶Ø±Ø§Øª","category":"Ù…ØªÙ†ÙˆØ¹"},{"id":"uiAlmnLAmVc","title":"Ø­Ø¯ÙŠØ« Ø§Ù„Ù…Ø³Ù„Ø³Ù„ Ø¨Ø¹Ø§Ø´ÙˆØ±Ø§Ø¡ ÙÙŠ Ø§Ù„Ø¬Ø§Ù…Ø¹ Ø§Ù„Ø£Ø²Ù‡Ø± Ù…ÙˆÙ„Ø§Ù†Ø§ Ø¯. ÙŠØ³Ø±ÙŠ Ø¬Ø¨Ø± ÙˆØ§Ù„Ø´ÙŠØ® Ø£Ø³Ø§Ù…Ø© Ø§Ù„Ø£Ø²Ù‡Ø±ÙŠ","publishedAt":"2014-11-03T14:35:25Z","duration":"PT56M40S","thumbnail":"https://i.ytimg.com/vi/uiAlmnLAmVc/mqdefault.jpg","viewCount":"4808","playlistId":"PLEkQk5xrP-tmJzNvLntpzW0uPanPzxA0c","playlistName":"Ù„Ù‚Ø§Ø¡Ø§Øª ÙˆÙ…Ø­Ø§Ø¶Ø±Ø§Øª","category":"Ù…ØªÙ†ÙˆØ¹"},{"id":"AFp-7P4F3rc","title":"Ø¨Ø±ÙƒØ© Ø§Ù„Ø²Ù…Ù† Ø¹Ù†Ø¯ Ø§Ù„Ø¹Ù„Ù…Ø§Ø¡","publishedAt":"2016-05-16T05:34:33Z","duration":"PT7M45S","thumbnail":"https://i.ytimg.com/vi/AFp-7P4F3rc/mqdefault.jpg","viewCount":"4350","playlistId":"PLEkQk5xrP-tmJzNvLntpzW0uPanPzxA0c","playlistName":"Ù„Ù‚Ø§Ø¡Ø§Øª ÙˆÙ…Ø­Ø§Ø¶Ø±Ø§Øª","category":"Ù…ØªÙ†ÙˆØ¹"},{"id":"Vnk_h3viEmE","title":"ÙØ¨Ø°Ù„Ùƒ ÙÙ„ÙŠÙØ±Ø­ÙˆØ§ - ÙØ¶Ù„ Ø³ÙŠØ¯Ù†Ø§ Ù…Ø­Ù…Ø¯ ÙˆØªØ¹Ø¸ÙŠÙ…Ù‡ ÙÙŠ Ø§Ù„Ù‚Ù„ÙˆØ¨ - Ø¯. ÙŠØ³Ø±ÙŠ Ø¬Ø¨Ø± - @alerthTV","publishedAt":"2016-03-01T10:40:01Z","duration":"PT4M19S","thumbnail":"https://i.ytimg.com/vi/Vnk_h3viEmE/mqdefault.jpg","viewCount":"3327","playlistId":"PLEkQk5xrP-tmJzNvLntpzW0uPanPzxA0c","playlistName":"Ù„Ù‚Ø§Ø¡Ø§Øª ÙˆÙ…Ø­Ø§Ø¶Ø±Ø§Øª","category":"Ù…ØªÙ†ÙˆØ¹"},{"id":"n-OmJwLgg4E","title":"Ø§Ø­ØªÙØ§Ù„ÙŠØ© Ø§Ù„Ø³Ø§Ø¯Ø© Ø§Ù„Ù†Ø¬Ø¯ÙŠØ© Ø§Ù„Ø¬Ø¹Ø§ÙØ±Ø© Ø¨Ù…ÙˆÙ„Ø¯ Ø§Ù„Ø¹Ø§Ø±Ù Ø¨Ø§Ù„Ù„Ù‡ Ø³ÙŠØ¯ÙŠ Ø¹Ù„ÙŠØ§Ù† Ø§Ù„Ù†Ø¬Ø¯ÙŠ Ø±Ø¶ÙŠ Ø§Ù„Ù„Ù‡ Ø¹Ù†Ù‡","publishedAt":"2019-09-15T18:55:58Z","duration":"PT1H15M24S","thumbnail":"https://i.ytimg.com/vi/n-OmJwLgg4E/mqdefault.jpg","viewCount":"3214","playlistId":"PLEkQk5xrP-tmJzNvLntpzW0uPanPzxA0c","playlistName":"Ù„Ù‚Ø§Ø¡Ø§Øª ÙˆÙ…Ø­Ø§Ø¶Ø±Ø§Øª","category":"Ù…ØªÙ†ÙˆØ¹"},{"id":"QOEoFAUGRY4","title":"Ù‡Ù„ Ø§Ù„Ù†Ø¨ÙŠ ï·º Ø¨Ø´Ø± Ù…Ø«Ù„Ù†Ø§ØŸ ÙˆÙ…Ø§ Ø§Ù„ÙØ±Ù‚ Ø¨ÙŠÙ† Ø±ÙˆØ­Ø§Ù†ÙŠØªÙ‡ ÙˆØ¨Ø´Ø±ÙŠØªÙ‡ØŸ","publishedAt":"2025-07-20T18:00:31Z","duration":"PT20M4S","thumbnail":"https://i.ytimg.com/vi/QOEoFAUGRY4/mqdefault.jpg","viewCount":"3092","playlistId":"PLEkQk5xrP-tmJzNvLntpzW0uPanPzxA0c","playlistName":"Ù„Ù‚Ø§Ø¡Ø§Øª ÙˆÙ…Ø­Ø§Ø¶Ø±Ø§Øª","category":"Ù…ØªÙ†ÙˆØ¹"}],"total":42,"page":1,"pageSize":24,"totalPages":2}