{"items":[{"id":"83Y0D5hI3kg","title":"37- أحكام البيوع وغيرها من المعاملات - شرح كتاب فتح القريب المجيب","publishedAt":"2021-11-09T06:09:36Z","duration":"PT45M16S","thumbnail":"https://i.ytimg.com/vi/83Y0D5hI3kg/mqdefault.jpg","viewCount":"1076","playlistId":"PLEkQk5xrP-tkXuPs-0sXfWQDWzBKmcjWN","playlistName":"\"فتح القريب المجيب في شرح ألفاظ التقريب\"( فقه شافعيّ)  أ. د. يسري جبر","category":"فقه"},{"id":"sFFqWm9aK7Y","title":"22- أحكام صلاة الجمعة - شرح كتاب فتح القريب المجيب","publishedAt":"2021-10-14T10:41:24Z","duration":"PT1H26M36S","thumbnail":"https://i.ytimg.com/vi/sFFqWm9aK7Y/mqdefault.jpg","viewCount":"1058","playlistId":"PLEkQk5xrP-tkXuPs-0sXfWQDWzBKmcjWN","playlistName":"\"فتح القريب المجيب في شرح ألفاظ التقريب\"( فقه شافعيّ)  أ. د. يسري جبر","category":"فقه"},{"id":"tJZkDHhVuRw","title":"38- الرِّبَا - شرح كتاب فتح القريب المجيب","publishedAt":"2021-11-10T06:19:02Z","duration":"PT49M32S","thumbnail":"https://i.ytimg.com/vi/tJZkDHhVuRw/mqdefault.jpg","viewCount":"1032","playlistId":"PLEkQk5xrP-tkXuPs-0sXfWQDWzBKmcjWN","playlistName":"\"فتح القريب المجيب في شرح ألفاظ التقريب\"( فقه شافعيّ)  أ. د. يسري جبر","category":"فقه"},{"id":"UjleIgMprcM","title":"25- فصلٌ في اللباس - شرح كتاب فتح القريب المجيب","publishedAt":"2021-10-17T10:40:45Z","duration":"PT1H6M36S","thumbnail":"https://i.ytimg.com/vi/UjleIgMprcM/mqdefault.jpg","viewCount":"928","playlistId":"PLEkQk5xrP-tkXuPs-0sXfWQDWzBKmcjWN","playlistName":"\"فتح القريب المجيب في شرح ألفاظ التقريب\"( فقه شافعيّ)  أ. د. يسري جبر","category":"فقه"},{"id":"u1xEqhh9_XU","title":"32- يَحرُمُ صيام خمسة أيام - شرح كتاب فتح القريب المجيب","publishedAt":"2021-11-02T10:55:10Z","duration":"PT1H13M52S","thumbnail":"https://i.ytimg.com/vi/u1xEqhh9_XU/mqdefault.jpg","viewCount":"914","playlistId":"PLEkQk5xrP-tkXuPs-0sXfWQDWzBKmcjWN","playlistName":"\"فتح القريب المجيب في شرح ألفاظ التقريب\"( فقه شافعيّ)  أ. د. يسري جبر","category":"فقه"},{"id":"arv1ohzTqyQ","title":"27- كتاب أحكام الزكاة - شرح كتاب فتح القريب المجيب","publishedAt":"2021-10-22T20:34:36Z","duration":"PT45M29S","thumbnail":"https://i.ytimg.com/vi/arv1ohzTqyQ/mqdefault.jpg","viewCount":"904","playlistId":"PLEkQk5xrP-tkXuPs-0sXfWQDWzBKmcjWN","playlistName":"\"فتح القريب المجيب في شرح ألفاظ التقريب\"( فقه شافعيّ)  أ. د. يسري جبر","category":"فقه"},{"id":"a83_n2r7cVs","title":"31- نواقض الصيام - شرح كتاب فتح القريب المجيب","publishedAt":"2021-10-31T03:12:09Z","duration":"PT1H22M21S","thumbnail":"https://i.ytimg.com/vi/a83_n2r7cVs/mqdefault.jpg","viewCount":"884","playlistId":"PLEkQk5xrP-tkXuPs-0sXfWQDWzBKmcjWN","playlistName":"\"فتح القريب المجيب في شرح ألفاظ التقريب\"( فقه شافعيّ)  أ. د. يسري جبر","category":"فقه"},{"id":"1Fn1Ci45xi0","title":"29- نصاب الزروع - شرح كتاب فتح القريب المجيب","publishedAt":"2021-10-27T01:48:28Z","duration":"PT1H36M4S","thumbnail":"https://i.ytimg.com/vi/1Fn1Ci45xi0/mqdefault.jpg","viewCount":"851","playlistId":"PLEkQk5xrP-tkXuPs-0sXfWQDWzBKmcjWN","playlistName":"\"فتح القريب المجيب في شرح ألفاظ التقريب\"( فقه شافعيّ)  أ. د. يسري جبر","category":"فقه"},{"id":"pHGIhe3Flic","title":"39- الاختيار - شرح كتاب فتح القريب المجيب","publishedAt":"2021-11-11T06:40:17Z","duration":"PT41M6S","thumbnail":"https://i.ytimg.com/vi/pHGIhe3Flic/mqdefault.jpg","viewCount":"843","playlistId":"PLEkQk5xrP-tkXuPs-0sXfWQDWzBKmcjWN","playlistName":"\"فتح القريب المجيب في شرح ألفاظ التقريب\"( فقه شافعيّ)  أ. د. يسري جبر","category":"فقه"},{"id":"hotUJ4071Pg","title":"23- صلاة العيدين - شرح كتاب فتح القريب المجيب","publishedAt":"2021-10-15T14:19:53Z","duration":"PT50M30S","thumbnail":"https://i.ytimg.com/vi/hotUJ4071Pg/mqdefault.jpg","viewCount":"763","playlistId":"PLEkQk5xrP-tkXuPs-0sXfWQDWzBKmcjWN","playlistName":"\"فتح القريب المجيب في شرح ألفاظ التقريب\"( فقه شافعيّ)  أ. د. يسري جبر","category":"فقه"},{"id":"5gaobAwj5QQ","title":"26- فصل فيما يتعلق بالميت من غسله وتكفينه والصلاة عليه ودفنه - شرح كتاب فتح القريب المجيب","publishedAt":"2021-10-19T23:13:03Z","duration":"PT1H33M15S","thumbnail":"https://i.ytimg.com/vi/5gaobAwj5QQ/mqdefault.jpg","viewCount":"717","playlistId":"PLEkQk5xrP-tkXuPs-0sXfWQDWzBKmcjWN","playlistName":"\"فتح القريب المجيب في شرح ألفاظ التقريب\"( فقه شافعيّ)  أ. د. يسري جبر","category":"فقه"},{"id":"SCaeqWVIC4E","title":"30- أحكام الصيام - شرح كتاب فتح القريب المجيب","publishedAt":"2021-10-30T02:51:37Z","duration":"PT28M37S","thumbnail":"https://i.ytimg.com/vi/SCaeqWVIC4E/mqdefault.jpg","viewCount":"700","playlistId":"PLEkQk5xrP-tkXuPs-0sXfWQDWzBKmcjWN","playlistName":"\"فتح القريب المجيب في شرح ألفاظ التقريب\"( فقه شافعيّ)  أ. د. يسري جبر","category":"فقه"},{"id":"2keSnqhuxWg","title":"24- صلاةُ الكسوف والخسوف","publishedAt":"2021-10-16T11:21:11Z","duration":"PT1H7M47S","thumbnail":"https://i.ytimg.com/vi/2keSnqhuxWg/mqdefault.jpg","viewCount":"680","playlistId":"PLEkQk5xrP-tkXuPs-0sXfWQDWzBKmcjWN","playlistName":"\"فتح القريب المجيب في شرح ألفاظ التقريب\"( فقه شافعيّ)  أ. د. يسري جبر","category":"فقه"},{"id":"5aeRnn0Wg_Y","title":"28- فصلٌ في نِصاب الِإبل - شرح كتاب فتح القريب المجيب","publishedAt":"2021-10-24T11:28:36Z","duration":"PT25M21S","thumbnail":"https://i.ytimg.com/vi/5aeRnn0Wg_Y/mqdefault.jpg","viewCount":"610","playlistId":"PLEkQk5xrP-tkXuPs-0sXfWQDWzBKmcjWN","playlistName":"\"فتح القريب المجيب في شرح ألفاظ التقريب\"( فقه شافعيّ)  أ. د. يسري جبر","category":"فقه"}],"total":38,"page":2,"pageSize":24,"totalPages":2}