{"items":[{"id":"m_Zh_yuIqzI","title":"Ø´Ø±Ø­ ÙƒØªØ§Ø¨ Ø¯Ù„Ø§Ø¦Ù„ Ø§Ù„Ø®ÙŠØ±Ø§Øª - Ø§Ù„Ù…Ø¬Ù„Ø³ Ø§Ù„Ø³Ø§Ø¨Ø¹ Ø¹Ø´Ø±. Ø£.Ø¯. ÙŠØ³Ø±ÙŠ Ø¬Ø¨Ø±","publishedAt":"2020-01-24T14:21:15Z","duration":"PT18M43S","thumbnail":"https://i.ytimg.com/vi/m_Zh_yuIqzI/mqdefault.jpg","viewCount":"7738","playlistId":"PLEkQk5xrP-tlAzcbIpuqjdFICW-knvTlR","playlistName":"Ø´Ø±Ø­ ÙƒØªØ§Ø¨ Ø¯Ù„Ø§Ø¦Ù„ Ø§Ù„Ø®ÙŠØ±Ø§Øª ÙˆØ´ÙˆØ§Ø±Ù‚ Ø§Ù„Ø£Ù†ÙˆØ§Ø±","category":"Ù…ØªÙ†ÙˆØ¹"},{"id":"EJDwwjr8C4Y","title":"Ø§Ù„Ø±Ø³Ø§Ù„Ø© Ø§Ù„Ù‚Ø´ÙŠØ±ÙŠØ© - Ø§Ù„Ù…Ø¬Ù„Ø³ Ø§Ù„Ø«Ø§Ù…Ù† Ø¹Ø´Ø± (Ø¨Ø§Ø¨ ÙÙŠ Ø°ÙƒØ± Ù…Ø´Ø§ÙŠØ® Ù‡Ø°Ù‡ Ø§Ù„Ø·Ø±ÙŠÙ‚Ø© - Ø§Ù„Ù…Ø¬Ù„Ø³ Ø§Ù„Ø¹Ø§Ø´Ø±)","publishedAt":"2018-05-03T23:33:12Z","duration":"PT56M55S","thumbnail":"https://i.ytimg.com/vi/EJDwwjr8C4Y/mqdefault.jpg","viewCount":"7729","playlistId":"PLEkQk5xrP-tkHAGOwIKr4pc5ehhyQ5HMJ","playlistName":"ÙƒØªØ§Ø¨ Ø§Ù„Ø±Ø³Ø§Ù„Ø© Ø§Ù„Ù‚Ø´ÙŠØ±ÙŠØ© (ØªØµÙˆÙ) - Ø¯. ÙŠØ³Ø±ÙŠ Ø¬Ø¨Ø±","category":"ØªØµÙˆÙ"},{"id":"0rxVpU6d1Dk","title":"Ø´Ø±Ø­ Ø§Ù„Ø­Ø²Ø¨ Ø§Ù„ÙƒØ¨ÙŠØ±- Ø§Ù„Ù…Ø¬Ù„Ø³ Ø§Ù„Ø±Ø§Ø¨Ø¹   Ø¯.ÙŠØ³Ø±ÙŠ Ø¬Ø¨Ø±","publishedAt":"2017-07-02T17:12:47Z","duration":"PT41M20S","thumbnail":"https://i.ytimg.com/vi/0rxVpU6d1Dk/mqdefault.jpg","viewCount":"7721","playlistId":"PLEkQk5xrP-tlm5F9ID5I_--LMV7PcWjp_","playlistName":"Ø´Ø±Ø­ Ø§Ù„Ø­Ø²Ø¨ Ø§Ù„ÙƒØ¨ÙŠØ± Ù„Ø³ÙŠØ¯Ù‰ Ø£Ø¨ÙŠ Ø§Ù„Ø­Ø³Ù† Ø§Ù„Ø´Ø§Ø°Ù„ÙŠ Ø¯.ÙŠØ³Ø±ÙŠ Ø¬Ø¨Ø±","category":"Ù…ØªÙ†ÙˆØ¹"},{"id":"U4ZM7AxxKm4","title":"Ù…Ø§Ø°Ø§ Ø­Ø¯Ø« Ù„ÙŠÙ„Ø© Ø§Ù„Ø¥Ø³Ø±Ø§Ø¡ ÙˆØ§Ù„Ù…Ø¹Ø±Ø§Ø¬ØŸ","publishedAt":"2025-01-24T18:15:38Z","duration":"PT28M44S","thumbnail":"https://i.ytimg.com/vi/U4ZM7AxxKm4/mqdefault.jpg","viewCount":"7717","playlistId":"PLEkQk5xrP-tlArtGpeLWaqNM7h7IDeAVC","playlistName":"Ø®Ø·Ø¨ Ø§Ù„Ø¬Ù…Ø¹Ø© Ø£.Ø¯. ÙŠØ³Ø±ÙŠ Ø¬Ø¨Ø±","category":"Ø®Ø·Ø¨"},{"id":"L0SwsmNGrsk","title":"Ø§Ù„ÙØ±Ù‚ Ø¨ÙŠÙ† Ø¹Ø§Ù„Ù… Ø§Ù„Ø®Ù„Ù‚ ÙˆØ¹Ø§Ù„Ù… Ø§Ù„Ø£Ù…Ø±ØŸ","publishedAt":"2022-04-04T19:30:04Z","duration":"PT8M38S","thumbnail":"https://i.ytimg.com/vi/L0SwsmNGrsk/mqdefault.jpg","viewCount":"7705","playlistId":"PLEkQk5xrP-tlArtGpeLWaqNM7h7IDeAVC","playlistName":"Ø®Ø·Ø¨ Ø§Ù„Ø¬Ù…Ø¹Ø© Ø£.Ø¯. ÙŠØ³Ø±ÙŠ Ø¬Ø¨Ø±","category":"Ø®Ø·Ø¨"},{"id":"jiyyeRyZhD8","title":"Ù…Ø§ Ø³Ø± Ø­Ø¯ÙŠØ« \"Ø§Ù„Ø¹Ù„Ù…Ø§Ø¡ ÙˆØ±Ø«Ø© Ø§Ù„Ø§Ù†Ø¨ÙŠØ§Ø¡\"ØŸ","publishedAt":"2021-12-19T18:00:13Z","duration":"PT12M8S","thumbnail":"https://i.ytimg.com/vi/jiyyeRyZhD8/mqdefault.jpg","viewCount":"7703","playlistId":"PLEkQk5xrP-tkGXuZ9atE3k_7it12rUPTs","playlistName":"Ø£Ø³Ø¦Ù„Ø© Ø§Ù„Ù…ØªØ§Ø¨Ø¹ÙŠÙ†","category":"Ù…ØªÙ†ÙˆØ¹"},{"id":"vMZqPuqv9-s","title":"Ø£Ø³Ø±Ø§Ø± ÙˆÙ…Ø¹Ø§Ù†ÙŠ Ø­ÙˆÙ„ Ø§Ù„Ø¥Ø³Ø±Ø§Ø¡ ÙˆØ§Ù„Ù…Ø¹Ø±Ø§Ø¬ | Ù…Ù† Ù„ÙŠØ§Ù„ÙŠ Ø§Ù„Ù…Ø¯ÙŠÙ†Ø© Ø§Ù„Ù…Ù†ÙˆØ±Ø© ğŸ“","publishedAt":"2025-01-25T18:50:20Z","duration":"PT39M36S","thumbnail":"https://i.ytimg.com/vi/vMZqPuqv9-s/mqdefault.jpg","viewCount":"7699","playlistId":"PLEkQk5xrP-tm8ZIu74nTOZN9KJUJu416J","playlistName":"Ù…Ù‚Ø§Ø·Ø¹ Ù…ÙÙ‡Ù…ÙÙ‘Ø© (ÙŠÙØ³Ø±ÙŠÙ‘ÙØ§Øª) Ø£.Ø¯. ÙŠØ³Ø±ÙŠ Ø¬Ø¨Ø±","category":"Ù…ØªÙ†ÙˆØ¹"},{"id":"BWQvsS_HXiA","title":"ÙƒÙŠÙ ØªÙƒÙˆÙ† ÙˆØ§Ø±Ø«Ø§ Ù…Ø­Ù…Ø¯ÙŠØ§ØŸ","publishedAt":"2021-06-08T19:15:01Z","duration":"PT10M50S","thumbnail":"https://i.ytimg.com/vi/BWQvsS_HXiA/mqdefault.jpg","viewCount":"7699","playlistId":"PLEkQk5xrP-tlArtGpeLWaqNM7h7IDeAVC","playlistName":"Ø®Ø·Ø¨ Ø§Ù„Ø¬Ù…Ø¹Ø© Ø£.Ø¯. ÙŠØ³Ø±ÙŠ Ø¬Ø¨Ø±","category":"Ø®Ø·Ø¨"},{"id":"mKFD41oajXg","title":"Ù‡Ù„ ÙŠÙˆØ¬Ø¯ ÙˆØ§Ø³Ø·Ø© Ø¨ÙŠÙ† Ø§Ù„Ø¹Ø¨Ø¯ ÙˆØ±Ø¨Ù‡ØŸ","publishedAt":"2023-08-04T18:00:33Z","duration":"PT9M44S","thumbnail":"https://i.ytimg.com/vi/mKFD41oajXg/mqdefault.jpg","viewCount":"7693","playlistId":"PLEkQk5xrP-tlArtGpeLWaqNM7h7IDeAVC","playlistName":"Ø®Ø·Ø¨ Ø§Ù„Ø¬Ù…Ø¹Ø© Ø£.Ø¯. ÙŠØ³Ø±ÙŠ Ø¬Ø¨Ø±","category":"Ø®Ø·Ø¨"},{"id":"5MBNPCyEZXI","title":"Ù…Ø§ Ø­ÙƒÙ… Ø§Ù„Ø®Ø±ÙˆØ¬ Ø¹Ù„Ù‰ Ø§Ù„Ø­Ø§ÙƒÙ… Ø§Ù„Ø¸Ø§Ù„Ù…ØŸ","publishedAt":"2022-09-09T18:00:02Z","duration":"PT10M55S","thumbnail":"https://i.ytimg.com/vi/5MBNPCyEZXI/mqdefault.jpg","viewCount":"7688","playlistId":"PLEkQk5xrP-tkGXuZ9atE3k_7it12rUPTs","playlistName":"Ø£Ø³Ø¦Ù„Ø© Ø§Ù„Ù…ØªØ§Ø¨Ø¹ÙŠÙ†","category":"Ù…ØªÙ†ÙˆØ¹"},{"id":"B_MEA3mC5Qc","title":"Ø¨Ø°ÙƒØ±Ù‰ Ø§Ù„Ù…ÙˆÙ„Ø¯ Ù†Ø­ÙŠØ§","publishedAt":"2025-08-25T18:15:15Z","duration":"PT19M49S","thumbnail":"https://i.ytimg.com/vi/B_MEA3mC5Qc/mqdefault.jpg","viewCount":"7686","playlistId":"PLEkQk5xrP-tm8ZIu74nTOZN9KJUJu416J","playlistName":"Ù…Ù‚Ø§Ø·Ø¹ Ù…ÙÙ‡Ù…ÙÙ‘Ø© (ÙŠÙØ³Ø±ÙŠÙ‘ÙØ§Øª) Ø£.Ø¯. ÙŠØ³Ø±ÙŠ Ø¬Ø¨Ø±","category":"Ù…ØªÙ†ÙˆØ¹"},{"id":"MmRXZa1_mQM","title":"Ø§Ù„Ø¨ØµØ± ÙˆØ§Ù„Ø¨ØµÙŠØ±Ø©","publishedAt":"2020-12-07T18:33:24Z","duration":"PT8M28S","thumbnail":"https://i.ytimg.com/vi/MmRXZa1_mQM/mqdefault.jpg","viewCount":"7680","playlistId":"PLEkQk5xrP-tlArtGpeLWaqNM7h7IDeAVC","playlistName":"Ø®Ø·Ø¨ Ø§Ù„Ø¬Ù…Ø¹Ø© Ø£.Ø¯. ÙŠØ³Ø±ÙŠ Ø¬Ø¨Ø±","category":"Ø®Ø·Ø¨"},{"id":"IkfF8ouCIk0","title":"ğŸ”´ CEREMONIAL PENUTUPAN MAJELIS SAMA' & KHATMIL KITAB SHAHIH AL-BUKHARI | PP. PROGRESIF BUMI SHALAWAT","publishedAt":"2025-02-10T05:00:56Z","duration":"PT3H41M15S","thumbnail":"https://i.ytimg.com/vi/IkfF8ouCIk0/mqdefault.jpg","viewCount":"7678","playlistId":"PLEkQk5xrP-tkKcTKLIthzWrdXY7QaOjh_","playlistName":"Ù‚Ø±Ø§Ø¡Ø© ØµØ­ÙŠØ­ Ø§Ù„Ø¨Ø®Ø§Ø±ÙŠ ÙƒØ§Ù…Ù„Ø§Ù‹ ÙÙŠ Ø¥Ù†Ø¯ÙˆÙ†ÙŠØ³ÙŠØ§","category":"Ø­Ø¯ÙŠØ«"},{"id":"9aPofSxJj50","title":"Ø§Ù„Ø±Ø³Ø§Ù„Ø© Ø§Ù„Ù‚Ø´ÙŠØ±ÙŠØ© Ø§Ù„Ù…Ø¬Ù„Ø³ Ø§Ù„Ø«Ø§Ù…Ù† Ùˆ Ø§Ù„Ø«Ù„Ø§Ø«ÙˆÙ† (Ø¨Ø§Ø¨ Ø§Ù„ØªÙˆØ¨Ø©) Ø¯. ÙŠØ³Ø±ÙŠ Ø¬Ø¨Ø±","publishedAt":"2018-11-30T17:49:56Z","duration":"PT45M7S","thumbnail":"https://i.ytimg.com/vi/9aPofSxJj50/mqdefault.jpg","viewCount":"7672","playlistId":"PLEkQk5xrP-tkHAGOwIKr4pc5ehhyQ5HMJ","playlistName":"ÙƒØªØ§Ø¨ Ø§Ù„Ø±Ø³Ø§Ù„Ø© Ø§Ù„Ù‚Ø´ÙŠØ±ÙŠØ© (ØªØµÙˆÙ) - Ø¯. ÙŠØ³Ø±ÙŠ Ø¬Ø¨Ø±","category":"ØªØµÙˆÙ"},{"id":"p6sHKV2mag0","title":"ÙƒÙŠÙ ÙŠØ­Ù…ÙŠ Ø§Ù„Ù…Ø±ÙŠØ¯ Ù†ÙØ³Ù‡ Ù…Ù† Ø§Ù„Ø£ÙˆÙ‡Ø§Ù…ØŸ","publishedAt":"2021-09-09T17:20:31Z","duration":"PT9M3S","thumbnail":"https://i.ytimg.com/vi/p6sHKV2mag0/mqdefault.jpg","viewCount":"7668","playlistId":"PLEkQk5xrP-tkGXuZ9atE3k_7it12rUPTs","playlistName":"Ø£Ø³Ø¦Ù„Ø© Ø§Ù„Ù…ØªØ§Ø¨Ø¹ÙŠÙ†","category":"Ù…ØªÙ†ÙˆØ¹"},{"id":"T_pzsOQnJss","title":"ØµÙØ§Øª Ø§Ù„Ø°Ø§Øª Ø§Ù„Ø¥Ù„Ù‡ÙŠØ©","publishedAt":"2023-01-06T18:00:10Z","duration":"PT10M57S","thumbnail":"https://i.ytimg.com/vi/T_pzsOQnJss/mqdefault.jpg","viewCount":"7662","playlistId":"PLEkQk5xrP-tlArtGpeLWaqNM7h7IDeAVC","playlistName":"Ø®Ø·Ø¨ Ø§Ù„Ø¬Ù…Ø¹Ø© Ø£.Ø¯. ÙŠØ³Ø±ÙŠ Ø¬Ø¨Ø±","category":"Ø®Ø·Ø¨"},{"id":"k3fD7GxUVAw","title":"Ù…Ø¬Ù„Ø³ Ø§Ù„Ù„Ø·ÙŠÙÙŠØ© Ø¨ØµÙˆØª Ø¯.ÙŠØ³Ø±ÙŠ Ø¬Ø¨Ø±","publishedAt":"2024-06-23T18:09:40Z","duration":"PT26M25S","thumbnail":"https://i.ytimg.com/vi/k3fD7GxUVAw/mqdefault.jpg","viewCount":"7649","playlistId":"PLEkQk5xrP-tk3OeVFoMfKhOhyINnlPeYZ","playlistName":"Ø§Ù„Ø­ÙØ¶Ù’Ø±ÙØ©Ù Ø§Ù„ØµÙ‘ÙØ¯Ù‘ÙÙŠÙ‚ÙÙŠÙ‘ÙØ© ÙˆØ§Ù„Ø£ÙˆÙ’Ø±ÙØ§Ø¯","category":"Ù…ØªÙ†ÙˆØ¹"},{"id":"JVmgulWA6Mg","title":"ÙƒÙŠÙ ØªÙ†Ø¬Ùˆ ÙÙŠ Ø²Ù…Ù† Ø§Ù„ÙØªÙ†ØŸ","publishedAt":"2021-05-26T19:39:40Z","duration":"PT12M7S","thumbnail":"https://i.ytimg.com/vi/JVmgulWA6Mg/mqdefault.jpg","viewCount":"7644","playlistId":"PLEkQk5xrP-tlArtGpeLWaqNM7h7IDeAVC","playlistName":"Ø®Ø·Ø¨ Ø§Ù„Ø¬Ù…Ø¹Ø© Ø£.Ø¯. ÙŠØ³Ø±ÙŠ Ø¬Ø¨Ø±","category":"Ø®Ø·Ø¨"},{"id":"zSL-WBrEQyM","title":"8- Ø§Ù„Ø¥Ø®Ù„Ø§Øµ ÙˆØ¥Ø­Ø¶Ø§Ø± Ø§Ù„Ù†ÙŠØ© ÙÙŠ Ø¬Ù…ÙŠØ¹ Ø§Ù„Ø£Ø¹Ù…Ø§Ù„... Ø´Ø±Ø­ Ø¯Ù„ÙŠÙ„ Ø§Ù„ÙØ§Ù„Ø­ÙŠÙ† Ø£.Ø¯. ÙŠØ³Ø±ÙŠ Ø¬Ø¨Ø±","publishedAt":"2021-01-24T06:56:29Z","duration":"PT29M28S","thumbnail":"https://i.ytimg.com/vi/zSL-WBrEQyM/mqdefault.jpg","viewCount":"7635","playlistId":"PLEkQk5xrP-tkc9DXvSLguqX5-FYp6ASR4","playlistName":"Ø¯Ù„ÙŠÙ„ Ø§Ù„ÙØ§Ù„Ø­ÙŠÙ† Ù„Ø·Ø±Ù‚ Ø±ÙŠØ§Ø¶ Ø§Ù„ØµØ§Ù„Ø­ÙŠÙ†","category":"Ù…ØªÙ†ÙˆØ¹"},{"id":"GjkPoH8XAYQ","title":"Ø´Ø±Ø­ ÙƒØªØ§Ø¨ Ù†ÙˆØ± Ø§Ù„ÙŠÙ‚ÙŠÙ† ÙÙŠ Ø³ÙŠØ±Ø© Ø³ÙŠØ¯ Ø§Ù„Ù…Ø±Ø³Ù„ÙŠÙ† Ù„Ù„Ø´ÙŠØ® Ø§Ù„Ø®Ø¶Ø±ÙŠ Ø±Ø­Ù…Ù‡ Ø§Ù„Ù„Ù‡ (Ø§Ù„Ù…Ø¬Ù„Ø³61)  Ø¯.ÙŠØ³Ø±ÙŠ Ø¬Ø¨Ø±","publishedAt":"2018-10-14T20:04:24Z","duration":"PT44M12S","thumbnail":"https://i.ytimg.com/vi/GjkPoH8XAYQ/mqdefault.jpg","viewCount":"7633","playlistId":"PLEkQk5xrP-tl2t4NQx1IhKnAJCMzF0Nli","playlistName":"Ø´Ø±Ø­ ÙƒØªØ§Ø¨ Ù†ÙˆØ± Ø§Ù„ÙŠÙ‚ÙŠÙ† ÙÙŠ Ø³ÙŠØ±Ø© Ø³ÙŠØ¯ Ø§Ù„Ù…Ø±Ø³Ù„ÙŠÙ†   Ø¯. ÙŠØ³Ø±ÙŠ Ø¬Ø¨Ø±","category":"Ø³ÙŠØ±Ø©"},{"id":"66EEx6lgD4U","title":"Ø§Ù„Ø±Ø³Ø§Ù„Ø© Ø§Ù„Ù‚Ø´ÙŠØ±ÙŠØ© Ø§Ù„Ù…Ø¬Ù„Ø³ Ø§Ù„Ø®Ø§Ù…Ø³ Ùˆ Ø§Ù„Ø«Ù„Ø§Ø«ÙˆÙ† (Ø§Ù„Ù†Ù‘ÙÙÙØ³ - Ø§Ù„Ø®ÙˆØ§Ø·Ø±) Ø¯. ÙŠØ³Ø±ÙŠ Ø¬Ø¨Ø±","publishedAt":"2018-11-09T16:28:15Z","duration":"PT41M43S","thumbnail":"https://i.ytimg.com/vi/66EEx6lgD4U/mqdefault.jpg","viewCount":"7630","playlistId":"PLEkQk5xrP-tkHAGOwIKr4pc5ehhyQ5HMJ","playlistName":"ÙƒØªØ§Ø¨ Ø§Ù„Ø±Ø³Ø§Ù„Ø© Ø§Ù„Ù‚Ø´ÙŠØ±ÙŠØ© (ØªØµÙˆÙ) - Ø¯. ÙŠØ³Ø±ÙŠ Ø¬Ø¨Ø±","category":"ØªØµÙˆÙ"},{"id":"_imgPh80E2o","title":"63- ÙƒÙŠÙ ØªÙƒÙˆÙ† Ù…Ù† Ø£ØµØ­Ø§Ø¨ Ø§Ù„Ø¨ØµÙŠØ±Ø©ØŸ | Ø´Ø±Ø­ Ù…Ù†Ø§Ø²Ù„ Ø§Ù„Ø³Ø§Ø¦Ø±ÙŠÙ†","publishedAt":"2025-07-08T18:59:13Z","duration":"PT27M5S","thumbnail":"https://i.ytimg.com/vi/_imgPh80E2o/mqdefault.jpg","viewCount":"7624","playlistId":"PLEkQk5xrP-tmiUfQ-2Tsn7QIak4EsvaZW","playlistName":"ÙƒØªØ§Ø¨ Ø§Ù„ØªÙŠØ³ÙŠØ± Ø§Ù„Ù…Ø¹ÙŠÙ† Ø¨Ø´Ø±Ø­ Ù…Ø¹Ø§Ù†ÙŠ Ù…Ù†Ø§Ø²Ù„ Ø§Ù„Ø³Ø§Ø¦Ø±ÙŠÙ† (ØªØµÙˆÙ) - Ø¯.ÙŠØ³Ø±ÙŠ Ø¬Ø¨Ø±","category":"ØªØµÙˆÙ"},{"id":"TuCF_rNotiA","title":"Ø§Ø¹Ø±Ù ØµÙØ§Øª Ù†Ø¨ÙŠÙƒ Ø§Ù„Ø®ÙÙ„Ù‚ÙŠØ© | Ø§Ø¹Ø±Ù Ù†Ø¨ÙŠÙƒ","publishedAt":"2015-04-29T14:32:20Z","duration":"PT6M46S","thumbnail":"https://i.ytimg.com/vi/TuCF_rNotiA/mqdefault.jpg","viewCount":"7620","playlistId":"PLEkQk5xrP-tl6Mu_Mz3QMUSv5T6XBH-Dg","playlistName":"Ø¨Ø±Ù†Ø§Ù…Ø¬ Ø§Ø¹Ø±Ù Ù†Ø¨ÙŠÙƒ","category":"Ù…ØªÙ†ÙˆØ¹"},{"id":"uNdkydYKCgc","title":"Ø§Ù„ÙØ±Ù‚ Ø¨ÙŠÙ† Ø§Ù„Ù…ØªØ¹Ø© ÙˆØ§Ù„Ø³Ø¹Ø§Ø¯Ø©","publishedAt":"2020-12-15T18:45:00Z","duration":"PT17M1S","thumbnail":"https://i.ytimg.com/vi/uNdkydYKCgc/mqdefault.jpg","viewCount":"7617","playlistId":"PLEkQk5xrP-tlArtGpeLWaqNM7h7IDeAVC","playlistName":"Ø®Ø·Ø¨ Ø§Ù„Ø¬Ù…Ø¹Ø© Ø£.Ø¯. ÙŠØ³Ø±ÙŠ Ø¬Ø¨Ø±","category":"Ø®Ø·Ø¨"}],"total":7675,"page":41,"pageSize":24,"totalPages":320}