{"items":[{"id":"P7s8oeGE_4U","title":"سورة الأنعام آية 84","publishedAt":"2016-12-23T07:07:55Z","duration":"PT9M22S","thumbnail":"https://i.ytimg.com/vi/P7s8oeGE_4U/mqdefault.jpg","viewCount":"443","playlistId":"PLEkQk5xrP-tnmTYsyW6xNdyfhPq0Bhrhj","playlistName":"مقرأة الفجر - القُرْآنُ الكَرِيمُ - خَتْمَةُ التَّدَبُّرِ  أ.د. يسري جبر","category":"متنوع"},{"id":"7cExjykkKng","title":"سورة الأنعام آية 59","publishedAt":"2016-12-10T04:23:13Z","duration":"PT13M27S","thumbnail":"https://i.ytimg.com/vi/7cExjykkKng/mqdefault.jpg","viewCount":"443","playlistId":"PLEkQk5xrP-tnmTYsyW6xNdyfhPq0Bhrhj","playlistName":"مقرأة الفجر - القُرْآنُ الكَرِيمُ - خَتْمَةُ التَّدَبُّرِ  أ.د. يسري جبر","category":"متنوع"},{"id":"6MqaLpqcg04","title":"سورة آل عمران آية 190","publishedAt":"2016-08-06T07:53:36Z","duration":"PT22M30S","thumbnail":"https://i.ytimg.com/vi/6MqaLpqcg04/mqdefault.jpg","viewCount":"443","playlistId":"PLEkQk5xrP-tnmTYsyW6xNdyfhPq0Bhrhj","playlistName":"مقرأة الفجر - القُرْآنُ الكَرِيمُ - خَتْمَةُ التَّدَبُّرِ  أ.د. يسري جبر","category":"متنوع"},{"id":"Wh23wLKvEKA","title":"العقل بين الاعتراض والانقياد د. يسري جبر","publishedAt":"2015-05-02T18:26:12Z","duration":"PT38M8S","thumbnail":"https://i.ytimg.com/vi/Wh23wLKvEKA/mqdefault.jpg","viewCount":"443","playlistId":"PLEkQk5xrP-tlArtGpeLWaqNM7h7IDeAVC","playlistName":"خطب الجمعة أ.د. يسري جبر","category":"خطب"},{"id":"sQZyqCii6Cg","title":"295- أنواع الأمثال في القرآن - شرح الإتقان في علوم القرآن","publishedAt":"2025-08-03T09:01:16Z","duration":"PT34M","thumbnail":"https://i.ytimg.com/vi/sQZyqCii6Cg/mqdefault.jpg","viewCount":"442","playlistId":"PLEkQk5xrP-tlPw10KGJKagu7zm4Ry2Tge","playlistName":"شرح الإتقان في علوم القرآن","category":"تفسير"},{"id":"hFwqmy7iSKU","title":"الشَّرْط: القاعدة الثالثة","publishedAt":"2020-12-02T07:11:46Z","duration":"PT11M46S","thumbnail":"https://i.ytimg.com/vi/hFwqmy7iSKU/mqdefault.jpg","viewCount":"442","playlistId":"PLEkQk5xrP-tnW3iBL7HkKziOFCFZbTlf0","playlistName":"شرح البرهان في علوم القرآن - أ.د. يسري جبر","category":"تفسير"},{"id":"IdX27qBZan0","title":"شرح سنن الدارمي كتاب فضائل القرآن من أوله - تكملة","publishedAt":"2019-11-26T12:12:36Z","duration":"PT16M42S","thumbnail":"https://i.ytimg.com/vi/IdX27qBZan0/mqdefault.jpg","viewCount":"442","playlistId":"PLEkQk5xrP-tmAg-FuWjY057X_h5NmGmAa","playlistName":"شرح سنن الدارمي - أ.د. يسري جبر (كاملا)","category":"متنوع"},{"id":"qEqNXJ_iSBM","title":"مقرأة سورة الذاريات من آية ٢٤","publishedAt":"2019-02-05T11:20:42Z","duration":"PT21M47S","thumbnail":"https://i.ytimg.com/vi/qEqNXJ_iSBM/mqdefault.jpg","viewCount":"442","playlistId":"PLEkQk5xrP-tnmTYsyW6xNdyfhPq0Bhrhj","playlistName":"مقرأة الفجر - القُرْآنُ الكَرِيمُ - خَتْمَةُ التَّدَبُّرِ  أ.د. يسري جبر","category":"متنوع"},{"id":"qgz6OeXfblo","title":"١٤٤ حديث وعظ المجاهدين د. يسري جبر","publishedAt":"2018-05-21T02:51:47Z","duration":"PT39M","thumbnail":"https://i.ytimg.com/vi/qgz6OeXfblo/mqdefault.jpg","viewCount":"442","playlistId":"PLEkQk5xrP-tnl7vb7KeAoPd5ZlqKKW8KV","playlistName":"شرح كتاب بهجة النفوس أ.د . يسرى جبر","category":"متنوع"},{"id":"WizHLKxMvdg","title":"شرح صحيح البخاري -  كتاب المغازي من باب ٥٧","publishedAt":"2018-02-21T15:32:43Z","duration":"PT25M32S","thumbnail":"https://i.ytimg.com/vi/WizHLKxMvdg/mqdefault.jpg","viewCount":"442","playlistId":"PLEkQk5xrP-tlEerGoLa1AFy-2XvQ-sovv","playlistName":"شرح صحيح البخاري - أ.د. يسري جبر (كاملا)","category":"حديث"},{"id":"HrD7G8h3xxA","title":"مقرأة سورة يوسف آية ٩٥","publishedAt":"2017-07-07T09:20:27Z","duration":"PT19M38S","thumbnail":"https://i.ytimg.com/vi/HrD7G8h3xxA/mqdefault.jpg","viewCount":"442","playlistId":"PLEkQk5xrP-tnmTYsyW6xNdyfhPq0Bhrhj","playlistName":"مقرأة الفجر - القُرْآنُ الكَرِيمُ - خَتْمَةُ التَّدَبُّرِ  أ.د. يسري جبر","category":"متنوع"},{"id":"ysD-vucKewQ","title":"سورة هود آية 36","publishedAt":"2017-06-01T22:11:46Z","duration":"PT17M20S","thumbnail":"https://i.ytimg.com/vi/ysD-vucKewQ/mqdefault.jpg","viewCount":"442","playlistId":"PLEkQk5xrP-tnmTYsyW6xNdyfhPq0Bhrhj","playlistName":"مقرأة الفجر - القُرْآنُ الكَرِيمُ - خَتْمَةُ التَّدَبُّرِ  أ.د. يسري جبر","category":"متنوع"},{"id":"f6s4qXLLYVw","title":"سورة الأنعام آية 91","publishedAt":"2016-12-24T07:06:57Z","duration":"PT22M42S","thumbnail":"https://i.ytimg.com/vi/f6s4qXLLYVw/mqdefault.jpg","viewCount":"442","playlistId":"PLEkQk5xrP-tnmTYsyW6xNdyfhPq0Bhrhj","playlistName":"مقرأة الفجر - القُرْآنُ الكَرِيمُ - خَتْمَةُ التَّدَبُّرِ  أ.د. يسري جبر","category":"متنوع"},{"id":"rFTULbT-u3I","title":"540- حروف المعاني: حرف إذا - شرح البرهان في علوم القرآن","publishedAt":"2022-07-24T05:15:02Z","duration":"PT14M11S","thumbnail":"https://i.ytimg.com/vi/rFTULbT-u3I/mqdefault.jpg","viewCount":"441","playlistId":"PLEkQk5xrP-tnW3iBL7HkKziOFCFZbTlf0","playlistName":"شرح البرهان في علوم القرآن - أ.د. يسري جبر","category":"تفسير"},{"id":"tT9CP4eSCMs","title":"شرح سنن الدارمي كتاب المناسك من أوله","publishedAt":"2019-06-20T22:54:32Z","duration":"PT10M29S","thumbnail":"https://i.ytimg.com/vi/tT9CP4eSCMs/mqdefault.jpg","viewCount":"441","playlistId":"PLEkQk5xrP-tmAg-FuWjY057X_h5NmGmAa","playlistName":"شرح سنن الدارمي - أ.د. يسري جبر (كاملا)","category":"متنوع"},{"id":"rKt-h9tS0Js","title":"شرح صحيح البخاري كتاب الرقاق من باب ٤١","publishedAt":"2018-10-31T12:05:33Z","duration":"PT31M42S","thumbnail":"https://i.ytimg.com/vi/rKt-h9tS0Js/mqdefault.jpg","viewCount":"441","playlistId":"PLEkQk5xrP-tlEerGoLa1AFy-2XvQ-sovv","playlistName":"شرح صحيح البخاري - أ.د. يسري جبر (كاملا)","category":"حديث"},{"id":"96GJGRbvieo","title":"مقرأة سورة الكهف من آية ٥٠","publishedAt":"2017-10-26T12:41:23Z","duration":"PT13M54S","thumbnail":"https://i.ytimg.com/vi/96GJGRbvieo/mqdefault.jpg","viewCount":"441","playlistId":"PLEkQk5xrP-tnmTYsyW6xNdyfhPq0Bhrhj","playlistName":"مقرأة الفجر - القُرْآنُ الكَرِيمُ - خَتْمَةُ التَّدَبُّرِ  أ.د. يسري جبر","category":"متنوع"},{"id":"lymw2JZ8MAU","title":"مقرأة سورة الإسراء من آية ٢٣","publishedAt":"2017-09-18T09:52:45Z","duration":"PT16M29S","thumbnail":"https://i.ytimg.com/vi/lymw2JZ8MAU/mqdefault.jpg","viewCount":"441","playlistId":"PLEkQk5xrP-tnmTYsyW6xNdyfhPq0Bhrhj","playlistName":"مقرأة الفجر - القُرْآنُ الكَرِيمُ - خَتْمَةُ التَّدَبُّرِ  أ.د. يسري جبر","category":"متنوع"},{"id":"Nm8DaVNcg64","title":"68- متى تفتح على الإمام في القراءة؟ | وما قدر النجاسة التي تبطل الصلاة | شرح سنن الإمام الدارقطني","publishedAt":"2025-11-23T05:30:23Z","duration":"PT32M19S","thumbnail":"https://i.ytimg.com/vi/Nm8DaVNcg64/mqdefault.jpg","viewCount":"440","playlistId":"PLEkQk5xrP-tk_MCBZ706ORCw6gFtFyaGj","playlistName":"شرح سنن الإمام الدارقطني","category":"متنوع"},{"id":"-DydqfY85PM","title":"شرح صحيح البخاري كتاب التمني من باب ٨","publishedAt":"2019-01-18T19:00:25Z","duration":"PT33M11S","thumbnail":"https://i.ytimg.com/vi/-DydqfY85PM/mqdefault.jpg","viewCount":"440","playlistId":"PLEkQk5xrP-tlEerGoLa1AFy-2XvQ-sovv","playlistName":"شرح صحيح البخاري - أ.د. يسري جبر (كاملا)","category":"حديث"},{"id":"Yv-MF6WMvqI","title":"مقرأة سورة فصلت من آية ٩","publishedAt":"2018-11-20T07:09:50Z","duration":"PT14M3S","thumbnail":"https://i.ytimg.com/vi/Yv-MF6WMvqI/mqdefault.jpg","viewCount":"440","playlistId":"PLEkQk5xrP-tnmTYsyW6xNdyfhPq0Bhrhj","playlistName":"مقرأة الفجر - القُرْآنُ الكَرِيمُ - خَتْمَةُ التَّدَبُّرِ  أ.د. يسري جبر","category":"متنوع"},{"id":"GD2N2UiXGBg","title":"مقرأة سورة الصافات من أولها","publishedAt":"2018-09-12T10:44:13Z","duration":"PT11M57S","thumbnail":"https://i.ytimg.com/vi/GD2N2UiXGBg/mqdefault.jpg","viewCount":"440","playlistId":"PLEkQk5xrP-tnmTYsyW6xNdyfhPq0Bhrhj","playlistName":"مقرأة الفجر - القُرْآنُ الكَرِيمُ - خَتْمَةُ التَّدَبُّرِ  أ.د. يسري جبر","category":"متنوع"},{"id":"Kqt8nxfytrI","title":"شرح صحيح البخاري كتاب الذبائح والصيد من باب ١٢","publishedAt":"2018-07-17T23:24:55Z","duration":"PT37M35S","thumbnail":"https://i.ytimg.com/vi/Kqt8nxfytrI/mqdefault.jpg","viewCount":"440","playlistId":"PLEkQk5xrP-tlEerGoLa1AFy-2XvQ-sovv","playlistName":"شرح صحيح البخاري - أ.د. يسري جبر (كاملا)","category":"حديث"},{"id":"PRgzw7Jrt30","title":"سورة التوبة آية 24","publishedAt":"2017-04-09T17:13:52Z","duration":"PT14M21S","thumbnail":"https://i.ytimg.com/vi/PRgzw7Jrt30/mqdefault.jpg","viewCount":"440","playlistId":"PLEkQk5xrP-tnmTYsyW6xNdyfhPq0Bhrhj","playlistName":"مقرأة الفجر - القُرْآنُ الكَرِيمُ - خَتْمَةُ التَّدَبُّرِ  أ.د. يسري جبر","category":"متنوع"}],"total":7675,"page":242,"pageSize":24,"totalPages":320}