{"items":[{"id":"LE3CNLvaGNY","title":"379- إنَّ اللهَ قَدْ فَرِضَ عَليكُمُ الحجُّ فحُجُّوا - شرح دليل الفالحين","publishedAt":"2023-01-10T05:00:14Z","duration":"PT24M14S","thumbnail":"https://i.ytimg.com/vi/LE3CNLvaGNY/mqdefault.jpg","viewCount":"476","playlistId":"PLEkQk5xrP-tkc9DXvSLguqX5-FYp6ASR4","playlistName":"دليل الفالحين لطرق رياض الصالحين","category":"متنوع"},{"id":"cf8gemAJQXw","title":"320- استحباب طلب الرِفْقَة في السفر - شرح دليل الفالحين","publishedAt":"2022-10-28T09:00:21Z","duration":"PT32M44S","thumbnail":"https://i.ytimg.com/vi/cf8gemAJQXw/mqdefault.jpg","viewCount":"476","playlistId":"PLEkQk5xrP-tkc9DXvSLguqX5-FYp6ASR4","playlistName":"دليل الفالحين لطرق رياض الصالحين","category":"متنوع"},{"id":"W8Mzr--ONDQ","title":"إطلاق الجَمْع وإرادة المُثَنَّى","publishedAt":"2020-10-19T06:59:43Z","duration":"PT18M49S","thumbnail":"https://i.ytimg.com/vi/W8Mzr--ONDQ/mqdefault.jpg","viewCount":"476","playlistId":"PLEkQk5xrP-tnW3iBL7HkKziOFCFZbTlf0","playlistName":"شرح البرهان في علوم القرآن - أ.د. يسري جبر","category":"تفسير"},{"id":"m_AOIep7lyc","title":"84- شرح اللؤلؤ والمرجان كتاب الطلاق من أوله","publishedAt":"2020-03-03T06:00:05Z","duration":"PT29M18S","thumbnail":"https://i.ytimg.com/vi/m_AOIep7lyc/mqdefault.jpg","viewCount":"476","playlistId":"PLEkQk5xrP-tmKNjtYLfhATC37QdIsTMe0","playlistName":"شرح كتاب اللؤلؤ والمرجان فيما اتفق عليه الشيخان إماما المحدثين البخاري ومسلم. أ.د. يسري جبر","category":"حديث"},{"id":"DhwUAGwQHyU","title":"مقرأة سورة التحريم من آية ٤","publishedAt":"2019-04-26T21:27:45Z","duration":"PT18M2S","thumbnail":"https://i.ytimg.com/vi/DhwUAGwQHyU/mqdefault.jpg","viewCount":"476","playlistId":"PLEkQk5xrP-tnmTYsyW6xNdyfhPq0Bhrhj","playlistName":"مقرأة الفجر - القُرْآنُ الكَرِيمُ - خَتْمَةُ التَّدَبُّرِ  أ.د. يسري جبر","category":"متنوع"},{"id":"oEGg4PVolYI","title":"مقرأة سورة الممتحنة من أولها","publishedAt":"2019-04-04T08:21:14Z","duration":"PT19M52S","thumbnail":"https://i.ytimg.com/vi/oEGg4PVolYI/mqdefault.jpg","viewCount":"476","playlistId":"PLEkQk5xrP-tnmTYsyW6xNdyfhPq0Bhrhj","playlistName":"مقرأة الفجر - القُرْآنُ الكَرِيمُ - خَتْمَةُ التَّدَبُّرِ  أ.د. يسري جبر","category":"متنوع"},{"id":"HrsmnAu0AQ8","title":"368- وجوب صوم رمضان وبيان فضل الصيام وما يتعلق به - شرح دليل الفالحين","publishedAt":"2022-12-28T09:00:13Z","duration":"PT31M25S","thumbnail":"https://i.ytimg.com/vi/HrsmnAu0AQ8/mqdefault.jpg","viewCount":"475","playlistId":"PLEkQk5xrP-tkc9DXvSLguqX5-FYp6ASR4","playlistName":"دليل الفالحين لطرق رياض الصالحين","category":"متنوع"},{"id":"DZneOtrP0Ms","title":"مقرأة سورة المزمل من آية ١٢","publishedAt":"2019-05-25T09:14:33Z","duration":"PT18M34S","thumbnail":"https://i.ytimg.com/vi/DZneOtrP0Ms/mqdefault.jpg","viewCount":"475","playlistId":"PLEkQk5xrP-tnmTYsyW6xNdyfhPq0Bhrhj","playlistName":"مقرأة الفجر - القُرْآنُ الكَرِيمُ - خَتْمَةُ التَّدَبُّرِ  أ.د. يسري جبر","category":"متنوع"},{"id":"uxb6wlr7Rvg","title":"شرح صحيح البخاري كتاب الأدب من باب ٨٦","publishedAt":"2018-09-13T19:00:41Z","duration":"PT17M28S","thumbnail":"https://i.ytimg.com/vi/uxb6wlr7Rvg/mqdefault.jpg","viewCount":"475","playlistId":"PLEkQk5xrP-tlEerGoLa1AFy-2XvQ-sovv","playlistName":"شرح صحيح البخاري - أ.د. يسري جبر (كاملا)","category":"حديث"},{"id":"c10gBnxag_0","title":"شرح صحيح البخاري كتاب النكاح من باب ١٠٧","publishedAt":"2018-06-10T20:04:32Z","duration":"PT27M54S","thumbnail":"https://i.ytimg.com/vi/c10gBnxag_0/mqdefault.jpg","viewCount":"475","playlistId":"PLEkQk5xrP-tlEerGoLa1AFy-2XvQ-sovv","playlistName":"شرح صحيح البخاري - أ.د. يسري جبر (كاملا)","category":"حديث"},{"id":"q2c2DHJNO6M","title":"سورة النساء آية 12","publishedAt":"2016-08-13T06:03:45Z","duration":"PT12M13S","thumbnail":"https://i.ytimg.com/vi/q2c2DHJNO6M/mqdefault.jpg","viewCount":"475","playlistId":"PLEkQk5xrP-tnmTYsyW6xNdyfhPq0Bhrhj","playlistName":"مقرأة الفجر - القُرْآنُ الكَرِيمُ - خَتْمَةُ التَّدَبُّرِ  أ.د. يسري جبر","category":"متنوع"},{"id":"uKPv6tO82kk","title":"207- فروع منثورة تتعلق بالعموم والخصوص - شرح الإتقان في علوم القرآن","publishedAt":"2024-02-12T06:30:25Z","duration":"PT22M18S","thumbnail":"https://i.ytimg.com/vi/uKPv6tO82kk/mqdefault.jpg","viewCount":"474","playlistId":"PLEkQk5xrP-tlPw10KGJKagu7zm4Ry2Tge","playlistName":"شرح الإتقان في علوم القرآن","category":"تفسير"},{"id":"B7QG_ZLQu68","title":"158- معاني (لعلَّ - لمْ - لمَّا) - شرح الإتقان في علوم القرآن","publishedAt":"2023-10-08T05:30:20Z","duration":"PT21M11S","thumbnail":"https://i.ytimg.com/vi/B7QG_ZLQu68/mqdefault.jpg","viewCount":"474","playlistId":"PLEkQk5xrP-tlPw10KGJKagu7zm4Ry2Tge","playlistName":"شرح الإتقان في علوم القرآن","category":"تفسير"},{"id":"_bJUq8mDhbA","title":"شرح البرهان في علوم القرآن - النوع ٢٤ - فصل في الكلام على \"كلّا\" في القرآن","publishedAt":"2020-01-08T19:28:21Z","duration":"PT21M43S","thumbnail":"https://i.ytimg.com/vi/_bJUq8mDhbA/mqdefault.jpg","viewCount":"474","playlistId":"PLEkQk5xrP-tnW3iBL7HkKziOFCFZbTlf0","playlistName":"شرح البرهان في علوم القرآن - أ.د. يسري جبر","category":"تفسير"},{"id":"yv29BH87_Bg","title":"شرح البرهان في علوم القرآن - النوع ٢٤ - فصل ملخص في تقسيمات الوقف ٢","publishedAt":"2020-01-07T07:48:29Z","duration":"PT21M15S","thumbnail":"https://i.ytimg.com/vi/yv29BH87_Bg/mqdefault.jpg","viewCount":"474","playlistId":"PLEkQk5xrP-tnW3iBL7HkKziOFCFZbTlf0","playlistName":"شرح البرهان في علوم القرآن - أ.د. يسري جبر","category":"تفسير"},{"id":"UK5kFp5G82k","title":"مقرأة سورة آل عمران من آية ١١٠","publishedAt":"2019-09-27T01:20:58Z","duration":"PT17M26S","thumbnail":"https://i.ytimg.com/vi/UK5kFp5G82k/mqdefault.jpg","viewCount":"474","playlistId":"PLEkQk5xrP-tnmTYsyW6xNdyfhPq0Bhrhj","playlistName":"مقرأة الفجر - القُرْآنُ الكَرِيمُ - خَتْمَةُ التَّدَبُّرِ  أ.د. يسري جبر","category":"متنوع"},{"id":"1b4MZ8zg1CU","title":"سورة الأعراف آية 31","publishedAt":"2017-02-07T06:50:04Z","duration":"PT27M41S","thumbnail":"https://i.ytimg.com/vi/1b4MZ8zg1CU/mqdefault.jpg","viewCount":"474","playlistId":"PLEkQk5xrP-tnmTYsyW6xNdyfhPq0Bhrhj","playlistName":"مقرأة الفجر - القُرْآنُ الكَرِيمُ - خَتْمَةُ التَّدَبُّرِ  أ.د. يسري جبر","category":"متنوع"},{"id":"PvCkTzCk17Y","title":"67- كيفية جمع الصلاة للمسافر وصلاته في السفينة واستقبال القبلة | شرح سنن الإمام الدارقطني","publishedAt":"2025-11-16T10:30:27Z","duration":"PT33M15S","thumbnail":"https://i.ytimg.com/vi/PvCkTzCk17Y/mqdefault.jpg","viewCount":"473","playlistId":"PLEkQk5xrP-tk_MCBZ706ORCw6gFtFyaGj","playlistName":"شرح سنن الإمام الدارقطني","category":"متنوع"},{"id":"TXIeMNS0ReI","title":"شرح صحيح البخاري   كتاب مناقب الأنصار من باب ٣٨","publishedAt":"2017-12-10T18:31:06Z","duration":"PT30M41S","thumbnail":"https://i.ytimg.com/vi/TXIeMNS0ReI/mqdefault.jpg","viewCount":"473","playlistId":"PLEkQk5xrP-tlEerGoLa1AFy-2XvQ-sovv","playlistName":"شرح صحيح البخاري - أ.د. يسري جبر (كاملا)","category":"حديث"},{"id":"RZVZ5uwvrpg","title":"سورة الأنفال آية 5","publishedAt":"2017-03-17T03:36:28Z","duration":"PT25M1S","thumbnail":"https://i.ytimg.com/vi/RZVZ5uwvrpg/mqdefault.jpg","viewCount":"473","playlistId":"PLEkQk5xrP-tnmTYsyW6xNdyfhPq0Bhrhj","playlistName":"مقرأة الفجر - القُرْآنُ الكَرِيمُ - خَتْمَةُ التَّدَبُّرِ  أ.د. يسري جبر","category":"متنوع"},{"id":"ZtNG-vNgVZE","title":"أدوات التوكيد - تأكيد الضمير - شرح البرهان في علوم القرآن أ.د. يسري جبر","publishedAt":"2021-01-23T07:53:17Z","duration":"PT10M35S","thumbnail":"https://i.ytimg.com/vi/ZtNG-vNgVZE/mqdefault.jpg","viewCount":"472","playlistId":"PLEkQk5xrP-tnW3iBL7HkKziOFCFZbTlf0","playlistName":"شرح البرهان في علوم القرآن - أ.د. يسري جبر","category":"تفسير"},{"id":"UNTq8SNphPQ","title":"115- شرح اللؤلؤ والمرجان كتاب الجهاد من الباب الأربعين","publishedAt":"2020-04-07T08:45:25Z","duration":"PT23M13S","thumbnail":"https://i.ytimg.com/vi/UNTq8SNphPQ/mqdefault.jpg","viewCount":"472","playlistId":"PLEkQk5xrP-tmKNjtYLfhATC37QdIsTMe0","playlistName":"شرح كتاب اللؤلؤ والمرجان فيما اتفق عليه الشيخان إماما المحدثين البخاري ومسلم. أ.د. يسري جبر","category":"حديث"},{"id":"ckJdkpdeEtY","title":"شرح صحيح البخاري كتاب الطب من باب ٢٤","publishedAt":"2018-08-06T13:57:08Z","duration":"PT24M5S","thumbnail":"https://i.ytimg.com/vi/ckJdkpdeEtY/mqdefault.jpg","viewCount":"472","playlistId":"PLEkQk5xrP-tlEerGoLa1AFy-2XvQ-sovv","playlistName":"شرح صحيح البخاري - أ.د. يسري جبر (كاملا)","category":"حديث"},{"id":"eaU57RPed9s","title":"شرح صحيح البخاري كتاب الأطعمة من باب ٤١","publishedAt":"2018-07-11T17:49:44Z","duration":"PT27M57S","thumbnail":"https://i.ytimg.com/vi/eaU57RPed9s/mqdefault.jpg","viewCount":"472","playlistId":"PLEkQk5xrP-tlEerGoLa1AFy-2XvQ-sovv","playlistName":"شرح صحيح البخاري - أ.د. يسري جبر (كاملا)","category":"حديث"}],"total":7675,"page":233,"pageSize":24,"totalPages":320}