{"items":[{"id":"sJGsfUbVbdE","title":"سورة المائدة آية 12","publishedAt":"2016-10-29T03:42:56Z","duration":"PT10M52S","thumbnail":"https://i.ytimg.com/vi/sJGsfUbVbdE/mqdefault.jpg","viewCount":"385","playlistId":"PLEkQk5xrP-tnmTYsyW6xNdyfhPq0Bhrhj","playlistName":"مقرأة الفجر - القُرْآنُ الكَرِيمُ - خَتْمَةُ التَّدَبُّرِ  أ.د. يسري جبر","category":"متنوع"},{"id":"1py6cHf2N6E","title":"سورة النساء آية 131","publishedAt":"2016-09-27T20:47:48Z","duration":"PT18M44S","thumbnail":"https://i.ytimg.com/vi/1py6cHf2N6E/mqdefault.jpg","viewCount":"385","playlistId":"PLEkQk5xrP-tnmTYsyW6xNdyfhPq0Bhrhj","playlistName":"مقرأة الفجر - القُرْآنُ الكَرِيمُ - خَتْمَةُ التَّدَبُّرِ  أ.د. يسري جبر","category":"متنوع"},{"id":"1IiUwZMhChQ","title":"صحيح الإمام البخارى رضى الله عنه - كتاب فضائل القرآن - المجلس الرابع","publishedAt":"2014-12-20T20:01:49Z","duration":"PT59M41S","thumbnail":"https://i.ytimg.com/vi/1IiUwZMhChQ/mqdefault.jpg","viewCount":"385","playlistId":"PLEkQk5xrP-tmJuzaj4GWRenFoFx9gdbFX","playlistName":"شرح كتاب صحيح الإمام البخاري رضي الله تعالى عنه   أ.د. يسرى جبر","category":"حديث"},{"id":"i_MMK3iwz3o","title":"622- (ما) المصدرية  - شرح البرهان في علوم القرآن","publishedAt":"2022-12-18T05:00:22Z","duration":"PT19M58S","thumbnail":"https://i.ytimg.com/vi/i_MMK3iwz3o/mqdefault.jpg","viewCount":"384","playlistId":"PLEkQk5xrP-tnW3iBL7HkKziOFCFZbTlf0","playlistName":"شرح البرهان في علوم القرآن - أ.د. يسري جبر","category":"تفسير"},{"id":"gHPzP8-tifs","title":"القِسمُ (14) من التوكيد: فوائد التَّكرار: الفائدة السابعة - شرح البرهان في علوم القرآن","publishedAt":"2021-04-25T05:49:11Z","duration":"PT25M17S","thumbnail":"https://i.ytimg.com/vi/gHPzP8-tifs/mqdefault.jpg","viewCount":"384","playlistId":"PLEkQk5xrP-tnW3iBL7HkKziOFCFZbTlf0","playlistName":"شرح البرهان في علوم القرآن - أ.د. يسري جبر","category":"تفسير"},{"id":"xColmL-gIs8","title":"مقرأة سورة الزمر من آية ١٧","publishedAt":"2018-10-18T08:06:22Z","duration":"PT31M57S","thumbnail":"https://i.ytimg.com/vi/xColmL-gIs8/mqdefault.jpg","viewCount":"384","playlistId":"PLEkQk5xrP-tnmTYsyW6xNdyfhPq0Bhrhj","playlistName":"مقرأة الفجر - القُرْآنُ الكَرِيمُ - خَتْمَةُ التَّدَبُّرِ  أ.د. يسري جبر","category":"متنوع"},{"id":"beCyefqZ_v0","title":"الوفاء بالعهد","publishedAt":"2017-11-13T21:06:42Z","duration":"PT40M4S","thumbnail":"https://i.ytimg.com/vi/beCyefqZ_v0/mqdefault.jpg","viewCount":"384","playlistId":"PLEkQk5xrP-tlArtGpeLWaqNM7h7IDeAVC","playlistName":"خطب الجمعة أ.د. يسري جبر","category":"خطب"},{"id":"qAUt4VG8AZQ","title":"مقرأة سورة يوسف من آية ١٠١","publishedAt":"2017-07-08T08:12:08Z","duration":"PT10M42S","thumbnail":"https://i.ytimg.com/vi/qAUt4VG8AZQ/mqdefault.jpg","viewCount":"384","playlistId":"PLEkQk5xrP-tnmTYsyW6xNdyfhPq0Bhrhj","playlistName":"مقرأة الفجر - القُرْآنُ الكَرِيمُ - خَتْمَةُ التَّدَبُّرِ  أ.د. يسري جبر","category":"متنوع"},{"id":"gE_wS0qe6-A","title":"( 118 ) حديث الثلاثة المعذبون","publishedAt":"2016-06-21T14:55:38Z","duration":"PT16M34S","thumbnail":"https://i.ytimg.com/vi/gE_wS0qe6-A/mqdefault.jpg","viewCount":"384","playlistId":"PLEkQk5xrP-tnl7vb7KeAoPd5ZlqKKW8KV","playlistName":"شرح كتاب بهجة النفوس أ.د . يسرى جبر","category":"متنوع"},{"id":"tOZ9tSFqYyU","title":"467- تغليظ تحريم اليمين الكاذبة عمدًا - شرح دليل الفالحين","publishedAt":"2023-06-04T18:00:19Z","duration":"PT30M37S","thumbnail":"https://i.ytimg.com/vi/tOZ9tSFqYyU/mqdefault.jpg","viewCount":"383","playlistId":"PLEkQk5xrP-tkc9DXvSLguqX5-FYp6ASR4","playlistName":"دليل الفالحين لطرق رياض الصالحين","category":"متنوع"},{"id":"6eVFQw3frnI","title":"مُشَاكَلَةُ اللَّفْظِ لِلْمَعْنَى (3) - شرح البرهان في علوم القرآن","publishedAt":"2021-12-31T07:02:38Z","duration":"PT14M","thumbnail":"https://i.ytimg.com/vi/6eVFQw3frnI/mqdefault.jpg","viewCount":"383","playlistId":"PLEkQk5xrP-tnW3iBL7HkKziOFCFZbTlf0","playlistName":"شرح البرهان في علوم القرآن - أ.د. يسري جبر","category":"تفسير"},{"id":"kCI3vajfcUA","title":"شرح البرهان في علوم القرآن - النوع ٣٢ - فائدة في ضرورة معرفة المفسر قواعد أصول الفقه","publishedAt":"2020-02-18T06:00:04Z","duration":"PT31M59S","thumbnail":"https://i.ytimg.com/vi/kCI3vajfcUA/mqdefault.jpg","viewCount":"383","playlistId":"PLEkQk5xrP-tnW3iBL7HkKziOFCFZbTlf0","playlistName":"شرح البرهان في علوم القرآن - أ.د. يسري جبر","category":"تفسير"},{"id":"hOyCe--Syjc","title":"شرح البرهان في علوم القرآن - النوع ٢٥ - علم مرسوم الخط (الناقص وأقسامه : حذف الياء)","publishedAt":"2020-01-16T21:48:31Z","duration":"PT19M44S","thumbnail":"https://i.ytimg.com/vi/hOyCe--Syjc/mqdefault.jpg","viewCount":"383","playlistId":"PLEkQk5xrP-tnW3iBL7HkKziOFCFZbTlf0","playlistName":"شرح البرهان في علوم القرآن - أ.د. يسري جبر","category":"تفسير"},{"id":"nkAv0vDLWKY","title":"مقرأة سورة الممتحنة من آية ٧","publishedAt":"2019-04-06T09:35:10Z","duration":"PT14M39S","thumbnail":"https://i.ytimg.com/vi/nkAv0vDLWKY/mqdefault.jpg","viewCount":"383","playlistId":"PLEkQk5xrP-tnmTYsyW6xNdyfhPq0Bhrhj","playlistName":"مقرأة الفجر - القُرْآنُ الكَرِيمُ - خَتْمَةُ التَّدَبُّرِ  أ.د. يسري جبر","category":"متنوع"},{"id":"9Zo0rrr9Zp8","title":"شرح صحيح البخاري كتاب الديات من أوله","publishedAt":"2018-12-03T20:07:52Z","duration":"PT33M8S","thumbnail":"https://i.ytimg.com/vi/9Zo0rrr9Zp8/mqdefault.jpg","viewCount":"383","playlistId":"PLEkQk5xrP-tlEerGoLa1AFy-2XvQ-sovv","playlistName":"شرح صحيح البخاري - أ.د. يسري جبر (كاملا)","category":"حديث"},{"id":"dzsdr7fPpPY","title":"شرح صحيح البخاري كتاب الفرائض من باب ٢٠","publishedAt":"2018-11-25T16:14:00Z","duration":"PT49M23S","thumbnail":"https://i.ytimg.com/vi/dzsdr7fPpPY/mqdefault.jpg","viewCount":"383","playlistId":"PLEkQk5xrP-tlEerGoLa1AFy-2XvQ-sovv","playlistName":"شرح صحيح البخاري - أ.د. يسري جبر (كاملا)","category":"حديث"},{"id":"mIOLPOwAR7s","title":"مقرأة سورة لقمان من أولها","publishedAt":"2018-06-28T13:38:02Z","duration":"PT11M6S","thumbnail":"https://i.ytimg.com/vi/mIOLPOwAR7s/mqdefault.jpg","viewCount":"383","playlistId":"PLEkQk5xrP-tnmTYsyW6xNdyfhPq0Bhrhj","playlistName":"مقرأة الفجر - القُرْآنُ الكَرِيمُ - خَتْمَةُ التَّدَبُّرِ  أ.د. يسري جبر","category":"متنوع"},{"id":"LP7W-reiHMc","title":"حول النبي في ذكرى مولده صلى الله عليه وآله وسلم","publishedAt":"2017-12-15T21:09:53Z","duration":"PT50M57S","thumbnail":"https://i.ytimg.com/vi/LP7W-reiHMc/mqdefault.jpg","viewCount":"383","playlistId":"PLEkQk5xrP-tlArtGpeLWaqNM7h7IDeAVC","playlistName":"خطب الجمعة أ.د. يسري جبر","category":"خطب"},{"id":"hflQHUhfRQ0","title":"سورة الأنعام آية 125","publishedAt":"2017-01-02T08:24:44Z","duration":"PT19M","thumbnail":"https://i.ytimg.com/vi/hflQHUhfRQ0/mqdefault.jpg","viewCount":"383","playlistId":"PLEkQk5xrP-tnmTYsyW6xNdyfhPq0Bhrhj","playlistName":"مقرأة الفجر - القُرْآنُ الكَرِيمُ - خَتْمَةُ التَّدَبُّرِ  أ.د. يسري جبر","category":"متنوع"},{"id":"_BIf3efuZmw","title":"شرح كتاب الأذكار من كلام سيد الأبرار للإمام النووى رضى الله عنه - المجلس الثانى والعشرون","publishedAt":"2015-04-29T20:17:53Z","duration":"PT13M2S","thumbnail":"https://i.ytimg.com/vi/_BIf3efuZmw/mqdefault.jpg","viewCount":"383","playlistId":"PLEkQk5xrP-tkWS57Ubysh0ifJR8dmuEtE","playlistName":"شرح كتاب الأذكار للإمام النووي د. يسرى جبر","category":"حديث"},{"id":"Bf5Lb6nPMBY","title":"567- حروف المعاني(28): الحرف(26) (بلى) تنبيهات","publishedAt":"2022-10-12T05:30:02Z","duration":"PT34M6S","thumbnail":"https://i.ytimg.com/vi/Bf5Lb6nPMBY/mqdefault.jpg","viewCount":"382","playlistId":"PLEkQk5xrP-tnW3iBL7HkKziOFCFZbTlf0","playlistName":"شرح البرهان في علوم القرآن - أ.د. يسري جبر","category":"تفسير"},{"id":"R0fx5tHgDM0","title":"الاختزال (36) حذف الحرف (4) حذف ( لو ) - شرح البرهان في علوم القرآن","publishedAt":"2021-08-28T06:21:25Z","duration":"PT15M22S","thumbnail":"https://i.ytimg.com/vi/R0fx5tHgDM0/mqdefault.jpg","viewCount":"382","playlistId":"PLEkQk5xrP-tnW3iBL7HkKziOFCFZbTlf0","playlistName":"شرح البرهان في علوم القرآن - أ.د. يسري جبر","category":"تفسير"},{"id":"iv7DgxgG_sA","title":"الاختزال (22) حذف جواب الشرط (3) أمثلة - شرح البرهان في علوم القرآن","publishedAt":"2021-07-29T05:24:33Z","duration":"PT15M41S","thumbnail":"https://i.ytimg.com/vi/iv7DgxgG_sA/mqdefault.jpg","viewCount":"382","playlistId":"PLEkQk5xrP-tnW3iBL7HkKziOFCFZbTlf0","playlistName":"شرح البرهان في علوم القرآن - أ.د. يسري جبر","category":"تفسير"},{"id":"0iYDD98tujE","title":"القِسمُ العاشرُ من التوكيد: صِيَغُ المبالغة - شرح البرهان في علوم القرآن","publishedAt":"2021-04-04T06:00:33Z","duration":"PT23M44S","thumbnail":"https://i.ytimg.com/vi/0iYDD98tujE/mqdefault.jpg","viewCount":"382","playlistId":"PLEkQk5xrP-tnW3iBL7HkKziOFCFZbTlf0","playlistName":"شرح البرهان في علوم القرآن - أ.د. يسري جبر","category":"تفسير"}],"total":7675,"page":260,"pageSize":24,"totalPages":320}