{"items":[{"id":"xhfq3sjKjRk","title":"لولا الأنبياء لما اهتديت | ردا على الفيديو المقتطع لسيدي أبو الحسن الشاذلي","publishedAt":"2024-03-13T12:11:53Z","duration":"PT1M35S","thumbnail":"https://i.ytimg.com/vi/xhfq3sjKjRk/mqdefault.jpg","viewCount":"319","playlistId":"PLEkQk5xrP-tlG4r6Zxis5AqEnE9aNyJdV","playlistName":"الرد على المعترضين على د. يسري جبر","category":"ردود"},{"id":"-W08jQjKpow","title":"الاهتمام عند المُخَاطَب - تكملة أنواع التقديم والتأخير(15) - شرح البرهان في علوم القرآن","publishedAt":"2021-10-11T05:56:41Z","duration":"PT14M50S","thumbnail":"https://i.ytimg.com/vi/-W08jQjKpow/mqdefault.jpg","viewCount":"319","playlistId":"PLEkQk5xrP-tnW3iBL7HkKziOFCFZbTlf0","playlistName":"شرح البرهان في علوم القرآن - أ.د. يسري جبر","category":"تفسير"},{"id":"9NCsF6reRvk","title":"القِسمُ (28) من التوكيد: التعليل (2) - شرح البرهان في علوم القرآن","publishedAt":"2021-06-03T05:21:37Z","duration":"PT20M18S","thumbnail":"https://i.ytimg.com/vi/9NCsF6reRvk/mqdefault.jpg","viewCount":"319","playlistId":"PLEkQk5xrP-tnW3iBL7HkKziOFCFZbTlf0","playlistName":"شرح البرهان في علوم القرآن - أ.د. يسري جبر","category":"تفسير"},{"id":"Ha4H9L4tn3o","title":"القِسمُ (26) من التوكيد: الزيادة (2) التنبيهات - شرح البرهان في علوم القرآن","publishedAt":"2021-05-23T06:27:23Z","duration":"PT11M52S","thumbnail":"https://i.ytimg.com/vi/Ha4H9L4tn3o/mqdefault.jpg","viewCount":"319","playlistId":"PLEkQk5xrP-tnW3iBL7HkKziOFCFZbTlf0","playlistName":"شرح البرهان في علوم القرآن - أ.د. يسري جبر","category":"تفسير"},{"id":"MpsvTCUgWc0","title":"القِسمُ (22) من التوكيد: الاعتراض - شرح البرهان في علوم القرآن","publishedAt":"2021-05-18T04:57:05Z","duration":"PT12M2S","thumbnail":"https://i.ytimg.com/vi/MpsvTCUgWc0/mqdefault.jpg","viewCount":"319","playlistId":"PLEkQk5xrP-tnW3iBL7HkKziOFCFZbTlf0","playlistName":"شرح البرهان في علوم القرآن - أ.د. يسري جبر","category":"تفسير"},{"id":"0ILP5gFk1gI","title":"شرح سنن الدارمي كتاب الأضاحي من باب ١٩","publishedAt":"2019-07-22T20:56:28Z","duration":"PT34M3S","thumbnail":"https://i.ytimg.com/vi/0ILP5gFk1gI/mqdefault.jpg","viewCount":"319","playlistId":"PLEkQk5xrP-tmAg-FuWjY057X_h5NmGmAa","playlistName":"شرح سنن الدارمي - أ.د. يسري جبر (كاملا)","category":"متنوع"},{"id":"FiCGgzHkj-w","title":"شرح سنن الدارمي كتاب الصلاة من باب ٢١٧","publishedAt":"2019-06-04T20:14:24Z","duration":"PT25M46S","thumbnail":"https://i.ytimg.com/vi/FiCGgzHkj-w/mqdefault.jpg","viewCount":"319","playlistId":"PLEkQk5xrP-tmAg-FuWjY057X_h5NmGmAa","playlistName":"شرح سنن الدارمي - أ.د. يسري جبر (كاملا)","category":"متنوع"},{"id":"hNJfqII5wQM","title":"مقرأة سورة محمد من آية ٢٠","publishedAt":"2019-01-14T11:13:01Z","duration":"PT7M32S","thumbnail":"https://i.ytimg.com/vi/hNJfqII5wQM/mqdefault.jpg","viewCount":"319","playlistId":"PLEkQk5xrP-tnmTYsyW6xNdyfhPq0Bhrhj","playlistName":"مقرأة الفجر - القُرْآنُ الكَرِيمُ - خَتْمَةُ التَّدَبُّرِ  أ.د. يسري جبر","category":"متنوع"},{"id":"2R4jHfEuAW4","title":"مقرأة سورة هود من آية ٧٧","publishedAt":"2017-06-16T14:09:27Z","duration":"PT20M10S","thumbnail":"https://i.ytimg.com/vi/2R4jHfEuAW4/mqdefault.jpg","viewCount":"319","playlistId":"PLEkQk5xrP-tnmTYsyW6xNdyfhPq0Bhrhj","playlistName":"مقرأة الفجر - القُرْآنُ الكَرِيمُ - خَتْمَةُ التَّدَبُّرِ  أ.د. يسري جبر","category":"متنوع"},{"id":"-YotIv7dxA0","title":"مقرأة سورة المنافقون من آية ٧","publishedAt":"2019-04-14T10:03:03Z","duration":"PT12M1S","thumbnail":"https://i.ytimg.com/vi/-YotIv7dxA0/mqdefault.jpg","viewCount":"318","playlistId":"PLEkQk5xrP-tnmTYsyW6xNdyfhPq0Bhrhj","playlistName":"مقرأة الفجر - القُرْآنُ الكَرِيمُ - خَتْمَةُ التَّدَبُّرِ  أ.د. يسري جبر","category":"متنوع"},{"id":"x8V0Nzd3LS8","title":"مقرأة سورة الزخرف من آية ٣٣","publishedAt":"2018-12-15T09:45:33Z","duration":"PT20M48S","thumbnail":"https://i.ytimg.com/vi/x8V0Nzd3LS8/mqdefault.jpg","viewCount":"318","playlistId":"PLEkQk5xrP-tnmTYsyW6xNdyfhPq0Bhrhj","playlistName":"مقرأة الفجر - القُرْآنُ الكَرِيمُ - خَتْمَةُ التَّدَبُّرِ  أ.د. يسري جبر","category":"متنوع"},{"id":"uUtnAYYjX2Y","title":"مقرأة سورة فاطر من آية ٢","publishedAt":"2018-08-20T08:51:10Z","duration":"PT10M32S","thumbnail":"https://i.ytimg.com/vi/uUtnAYYjX2Y/mqdefault.jpg","viewCount":"318","playlistId":"PLEkQk5xrP-tnmTYsyW6xNdyfhPq0Bhrhj","playlistName":"مقرأة الفجر - القُرْآنُ الكَرِيمُ - خَتْمَةُ التَّدَبُّرِ  أ.د. يسري جبر","category":"متنوع"},{"id":"u5HXvzV-73U","title":"مقرأة سورة الشعراء من آية أولها","publishedAt":"2018-04-09T11:26:26Z","duration":"PT28M48S","thumbnail":"https://i.ytimg.com/vi/u5HXvzV-73U/mqdefault.jpg","viewCount":"318","playlistId":"PLEkQk5xrP-tnmTYsyW6xNdyfhPq0Bhrhj","playlistName":"مقرأة الفجر - القُرْآنُ الكَرِيمُ - خَتْمَةُ التَّدَبُّرِ  أ.د. يسري جبر","category":"متنوع"},{"id":"dNh2DlYh5I8","title":"صحيح الإمام البخاري رضي الله عنه -كتاب الرقاق باب صفة الجنة والنار (المجلس الأخير) د.يسري جبر","publishedAt":"2017-10-06T04:16:05Z","duration":"PT1H5M3S","thumbnail":"https://i.ytimg.com/vi/dNh2DlYh5I8/mqdefault.jpg","viewCount":"318","playlistId":"PLEkQk5xrP-tmJuzaj4GWRenFoFx9gdbFX","playlistName":"شرح كتاب صحيح الإمام البخاري رضي الله تعالى عنه   أ.د. يسرى جبر","category":"حديث"},{"id":"Zx5av_tDfEs","title":"292- العلوم المستنبطة من القرآن (2) - شرح الإتقان في علوم القرآن","publishedAt":"2025-07-17T09:03:32Z","duration":"PT24M48S","thumbnail":"https://i.ytimg.com/vi/Zx5av_tDfEs/mqdefault.jpg","viewCount":"317","playlistId":"PLEkQk5xrP-tlPw10KGJKagu7zm4Ry2Tge","playlistName":"شرح الإتقان في علوم القرآن","category":"تفسير"},{"id":"nHUn5AwLvCk","title":"584- الحرف (45)(قَدْ) يستخدم في التقليل - شرح البرهان في علوم القرآن","publishedAt":"2022-11-01T05:00:20Z","duration":"PT11M34S","thumbnail":"https://i.ytimg.com/vi/nHUn5AwLvCk/mqdefault.jpg","viewCount":"317","playlistId":"PLEkQk5xrP-tnW3iBL7HkKziOFCFZbTlf0","playlistName":"شرح البرهان في علوم القرآن - أ.د. يسري جبر","category":"تفسير"},{"id":"Ebp49Zh1t08","title":"الاختزال (15) حذف المفعول (6) - شرح البرهان في علوم القرآن","publishedAt":"2021-07-14T05:34:53Z","duration":"PT12M8S","thumbnail":"https://i.ytimg.com/vi/Ebp49Zh1t08/mqdefault.jpg","viewCount":"317","playlistId":"PLEkQk5xrP-tnW3iBL7HkKziOFCFZbTlf0","playlistName":"شرح البرهان في علوم القرآن - أ.د. يسري جبر","category":"تفسير"},{"id":"6at8mUK9wPo","title":"شرح البرهان في علوم القرآن - النوع ٤١ - أقسام التفسير","publishedAt":"2020-04-13T11:00:02Z","duration":"PT22M20S","thumbnail":"https://i.ytimg.com/vi/6at8mUK9wPo/mqdefault.jpg","viewCount":"317","playlistId":"PLEkQk5xrP-tnW3iBL7HkKziOFCFZbTlf0","playlistName":"شرح البرهان في علوم القرآن - أ.د. يسري جبر","category":"تفسير"},{"id":"PjjUJ6Csbew","title":"شرح البرهان في علوم القرآن - النوع ٣٨ - بيان الأقوال المختلفة في وجوه الإعجاز ٥","publishedAt":"2020-03-22T08:30:02Z","duration":"PT11M33S","thumbnail":"https://i.ytimg.com/vi/PjjUJ6Csbew/mqdefault.jpg","viewCount":"317","playlistId":"PLEkQk5xrP-tnW3iBL7HkKziOFCFZbTlf0","playlistName":"شرح البرهان في علوم القرآن - أ.د. يسري جبر","category":"تفسير"},{"id":"fwJl5gCnKXo","title":"72- شرح اللؤلؤ والمرجان كتاب الحج من الباب التاسع والخمسين","publishedAt":"2020-02-20T06:00:11Z","duration":"PT22M51S","thumbnail":"https://i.ytimg.com/vi/fwJl5gCnKXo/mqdefault.jpg","viewCount":"317","playlistId":"PLEkQk5xrP-tmKNjtYLfhATC37QdIsTMe0","playlistName":"شرح كتاب اللؤلؤ والمرجان فيما اتفق عليه الشيخان إماما المحدثين البخاري ومسلم. أ.د. يسري جبر","category":"حديث"},{"id":"VWLePZU1pPQ","title":"شرح سنن الدارمي كتاب الصلاة من باب ١٣١","publishedAt":"2019-05-15T21:36:53Z","duration":"PT38M57S","thumbnail":"https://i.ytimg.com/vi/VWLePZU1pPQ/mqdefault.jpg","viewCount":"317","playlistId":"PLEkQk5xrP-tmAg-FuWjY057X_h5NmGmAa","playlistName":"شرح سنن الدارمي - أ.د. يسري جبر (كاملا)","category":"متنوع"},{"id":"JQY0S2HX0o4","title":"مقرأة سورة الصف من آية ١٠","publishedAt":"2019-04-09T11:03:01Z","duration":"PT13M17S","thumbnail":"https://i.ytimg.com/vi/JQY0S2HX0o4/mqdefault.jpg","viewCount":"317","playlistId":"PLEkQk5xrP-tnmTYsyW6xNdyfhPq0Bhrhj","playlistName":"مقرأة الفجر - القُرْآنُ الكَرِيمُ - خَتْمَةُ التَّدَبُّرِ  أ.د. يسري جبر","category":"متنوع"},{"id":"-M1N-fvn0Bw","title":"مقرأة سورة الجاثية من آية ١٨","publishedAt":"2018-12-30T09:44:48Z","duration":"PT20M47S","thumbnail":"https://i.ytimg.com/vi/-M1N-fvn0Bw/mqdefault.jpg","viewCount":"317","playlistId":"PLEkQk5xrP-tnmTYsyW6xNdyfhPq0Bhrhj","playlistName":"مقرأة الفجر - القُرْآنُ الكَرِيمُ - خَتْمَةُ التَّدَبُّرِ  أ.د. يسري جبر","category":"متنوع"},{"id":"zU3hXFiLW1c","title":"مقرأة سورة لقمان من آية ١٠","publishedAt":"2018-07-01T12:48:57Z","duration":"PT14M46S","thumbnail":"https://i.ytimg.com/vi/zU3hXFiLW1c/mqdefault.jpg","viewCount":"317","playlistId":"PLEkQk5xrP-tnmTYsyW6xNdyfhPq0Bhrhj","playlistName":"مقرأة الفجر - القُرْآنُ الكَرِيمُ - خَتْمَةُ التَّدَبُّرِ  أ.د. يسري جبر","category":"متنوع"}],"total":7675,"page":280,"pageSize":24,"totalPages":320}