{"items":[{"id":"iTTpAn-yNWI","title":"18- ุนููุฏุฉู ุงูุนุงุฑูููู ุจุงููู - ููู ุงููุตูู: ูุนุฑููุง ูุง ูู ุญูู ุงูููุฏูู","publishedAt":"2022-10-27T09:00:31Z","duration":"PT54M36S","thumbnail":"https://i.ytimg.com/vi/iTTpAn-yNWI/mqdefault.jpg","viewCount":"2654","playlistId":"PLEkQk5xrP-tmNuYT8JAh6clwa4krsgkNo","playlistName":"ุดุฑุญ ูุชุงุจ ุงูููุชููุญุงุช ุงูููุณุฑูููุฉ ูู ุนูุงุฆุฏ ุงูุฃููููุฉ ุงูููุญูููุฏูููุฉ","category":"ูุชููุน"},{"id":"GaCtERIPIxM","title":"5- ุชูููุฉ ููุฏูุฉ ูุชุงุจ ุฑูุงุถ ุงูุตุงูุญูู ูุชุนููู ุงูุดุงุฑุญ ุนูููุง - ุดุฑุญ ุฏููู ุงููุงูุญูู ุฃ.ุฏ. ูุณุฑู ุฌุจุฑ","publishedAt":"2021-01-17T08:33:35Z","duration":"PT38M","thumbnail":"https://i.ytimg.com/vi/GaCtERIPIxM/mqdefault.jpg","viewCount":"2653","playlistId":"PLEkQk5xrP-tkc9DXvSLguqX5-FYp6ASR4","playlistName":"ุฏููู ุงููุงูุญูู ูุทุฑู ุฑูุงุถ ุงูุตุงูุญูู","category":"ูุชููุน"},{"id":"tFdeZhJMHJQ","title":"52- ููู ููุช ูููุงูู ูุนูููู ูููุงู - ุดุฑุญ ูุณูุฏ ุงูุฅูุงู ุฃุญูุฏ","publishedAt":"2023-12-15T06:30:13Z","duration":"PT38M","thumbnail":"https://i.ytimg.com/vi/tFdeZhJMHJQ/mqdefault.jpg","viewCount":"2650","playlistId":"PLEkQk5xrP-tkKprIuGrSdEuBSMsyg5We1","playlistName":"ุดุฑุญ ูุณูุฏ ุงูุฅูุงู ุฃุญูุฏ ุจู ุญูุจู","category":"ูุชููุน"},{"id":"wEs3bVMLc0k","title":"188- ุงูุฒูุฏ ูุงูุฑูุงุฆู","publishedAt":"2020-12-30T07:10:23Z","duration":"PT21M46S","thumbnail":"https://i.ytimg.com/vi/wEs3bVMLc0k/mqdefault.jpg","viewCount":"2650","playlistId":"PLEkQk5xrP-tmKNjtYLfhATC37QdIsTMe0","playlistName":"ุดุฑุญ ูุชุงุจ ุงููุคูุค ูุงููุฑุฌุงู ูููุง ุงุชูู ุนููู ุงูุดูุฎุงู ุฅูุงูุง ุงููุญุฏุซูู ุงูุจุฎุงุฑู ููุณูู. ุฃ.ุฏ. ูุณุฑู ุฌุจุฑ","category":"ุญุฏูุซ"},{"id":"SY3olpjRQwA","title":"โ ุงูุฑุณุงูุฉ ุงููุดูุฑูุฉ - ุงููุฌูุณ (81) ุจูุงุจู ุงูุฌูุฏ ูุงูุณุฎุงุก. ุฃ.ุฏ. ูุณุฑู ุฌุจุฑ","publishedAt":"2020-02-14T17:19:42Z","duration":"PT39M58S","thumbnail":"https://i.ytimg.com/vi/SY3olpjRQwA/mqdefault.jpg","viewCount":"2650","playlistId":"PLEkQk5xrP-tkHAGOwIKr4pc5ehhyQ5HMJ","playlistName":"ูุชุงุจ ุงูุฑุณุงูุฉ ุงููุดูุฑูุฉ (ุชุตูู) - ุฏ. ูุณุฑู ุฌุจุฑ","category":"ุชุตูู"},{"id":"KdTabLB6Wsc","title":"657- ูุถู ููุงู ุงูููู - ุดุฑุญ ุฏููู ุงููุงูุญูู","publishedAt":"2022-12-10T09:00:08Z","duration":"PT48M","thumbnail":"https://i.ytimg.com/vi/KdTabLB6Wsc/mqdefault.jpg","viewCount":"2641","playlistId":"PLEkQk5xrP-tkc9DXvSLguqX5-FYp6ASR4","playlistName":"ุฏููู ุงููุงูุญูู ูุทุฑู ุฑูุงุถ ุงูุตุงูุญูู","category":"ูุชููุน"},{"id":"voqzrF5N9RI","title":"18- \"ููุณ ุงูุณููููุฉู ุจุฃูู ูุง ุชููุทูุฑูุงโฆ\" - ุดุฑุญ ูุณูุฏ ุงูุฅูุงู ุงูุดุงูุนู ุฑุถู ุงููู ุนูู","publishedAt":"2021-08-22T06:07:28Z","duration":"PT52M43S","thumbnail":"https://i.ytimg.com/vi/voqzrF5N9RI/mqdefault.jpg","viewCount":"2639","playlistId":"PLEkQk5xrP-tlDtaqY0qhNXAiZ19gaGzKI","playlistName":"ุดุฑุญ ูุณูุฏ ุงูุฅูุงู ูุญูุฏ ุจู ุฅุฏุฑูุณ ุงูุดุงูุนูู ุฑุถู ุงููู ุชุนุงูู ุนูู","category":"ููู"},{"id":"-xJQy6t2gX4","title":"19- ุณุจุญุงู ุงููุงุญุฏ: ุงููุนุฑูู ูุจู ุงูุญุฏูุฏ ููุจู ุงูุญุฑูู - ุนููุฏุฉู ุงูุนุงุฑูููู ุจุงููู ูุฃูููุงุก ุงููู ุงูุตุงูุญูู","publishedAt":"2022-12-21T09:00:00Z","duration":"PT49M14S","thumbnail":"https://i.ytimg.com/vi/-xJQy6t2gX4/mqdefault.jpg","viewCount":"2636","playlistId":"PLEkQk5xrP-tmNuYT8JAh6clwa4krsgkNo","playlistName":"ุดุฑุญ ูุชุงุจ ุงูููุชููุญุงุช ุงูููุณุฑูููุฉ ูู ุนูุงุฆุฏ ุงูุฃููููุฉ ุงูููุญูููุฏูููุฉ","category":"ูุชููุน"},{"id":"gURr9YYmYqY","title":"ููู ุชุฎุชุงุฑ ูุชููุฑู ุจูู ุงูุญู ูุงูุจุงุทูุ","publishedAt":"2021-04-30T19:15:00Z","duration":"PT57M22S","thumbnail":"https://i.ytimg.com/vi/gURr9YYmYqY/mqdefault.jpg","viewCount":"2635","playlistId":"PLEkQk5xrP-tm8ZIu74nTOZN9KJUJu416J","playlistName":"ููุงุทุน ููููููุฉ (ููุณุฑูููุงุช) ุฃ.ุฏ. ูุณุฑู ุฌุจุฑ","category":"ูุชููุน"},{"id":"8XAXQL2rZgQ","title":"ุงููุดุฑูุน ุงูุฅุณูุงูู ุจูู ุงูุญูููุฉ ูุงูุฎุฑุงูุฉ","publishedAt":"2015-05-25T21:05:17Z","duration":"PT16M9S","thumbnail":"https://i.ytimg.com/vi/8XAXQL2rZgQ/mqdefault.jpg","viewCount":"2631","playlistId":"PLEkQk5xrP-tl5sZd_31jJw-5LldLW46Dv","playlistName":"ูุชุงุจ ุงูุญู ุงููุจูู ูู ุงูุฑุฏ ุนูู ูู ุชุทุงูู ุนูู ุงูุฏูู","category":"ุฑุฏูุฏ"},{"id":"y_ewIfPxZPM","title":"ุดุฑุญ ูุชุงุจ ูุชุญ ุงููุฑูุจ ุงููุฌูุจ ยซููุงูุถ ุงููุถูุกยป ุฏ. ูุณุฑู ุฌุจุฑ","publishedAt":"2014-12-12T21:40:25Z","duration":"PT54M29S","thumbnail":"https://i.ytimg.com/vi/y_ewIfPxZPM/mqdefault.jpg","viewCount":"2629","playlistId":"PLEkQk5xrP-tlyOgfNBZTZgoATzVW4mI20","playlistName":"ูุชุงุจ ูุชุญ ุงููุฑูุจ ุงููุฌูุจ (ุนูู ุงูููู ุงูุดุงูุนู)","category":"ููู"},{"id":"i8pWwpYlbDo","title":"ูุง ุงููุฑู ุจูู ุงูุฑุฌุงุก ูุงูุฑุบุจุฉ ูุงูุฑุถุงุ","publishedAt":"2023-03-04T18:00:29Z","duration":"PT20M50S","thumbnail":"https://i.ytimg.com/vi/i8pWwpYlbDo/mqdefault.jpg","viewCount":"2628","playlistId":"PLEkQk5xrP-tm8ZIu74nTOZN9KJUJu416J","playlistName":"ููุงุทุน ููููููุฉ (ููุณุฑูููุงุช) ุฃ.ุฏ. ูุณุฑู ุฌุจุฑ","category":"ูุชููุน"},{"id":"espUFSDm1WU","title":"ุฏูููู ุจูุฌููุฏ ุขุซุงุฑู ุนูู ูุฌููุฏ ุฃุณูุงุฆูุูุจูุฌููุฏ ุฃุณูุงุฆู ุนูู ุซูุจูุช ุฃูุตุงููุ ูุจุซูุจูุช ุฃูุตุงูู ุนูู ูุฌูุฏ ุฐุงุชู...","publishedAt":"2018-01-26T19:46:57Z","duration":"PT19M3S","thumbnail":"https://i.ytimg.com/vi/espUFSDm1WU/mqdefault.jpg","viewCount":"2628","playlistId":"PLEkQk5xrP-tkI_meE148wc7V7XHlB0WPb","playlistName":"ูู ุงูุญูู ุงูุนุทุงุฆูุฉ  ุฏ. ูุณุฑู ุฌุจุฑ","category":"ูุชููุน"},{"id":"Gd1zGjR4kRw","title":"ูููุฉ ูุถููุฉ ุงูุฏูุชูุฑ ูุณุฑู ุฑุดุฏู ุงูุณูุฏ ุฌุจุฑ ุงูุญุณูู ุจูุถููุฉ ุงูุดูุฎ ุฅุณูุงุนูู ุตุงุฏู ุงูุนุฏูู","publishedAt":"2014-02-26T16:42:07Z","duration":"PT15M10S","thumbnail":"https://i.ytimg.com/vi/Gd1zGjR4kRw/mqdefault.jpg","viewCount":"2627","playlistId":"PLEkQk5xrP-tnGIBX_2vhkIRBBnEr76KDk","playlistName":"ุงุญุชูุงู ูุถููุฉ ุงูุดูุฎ ุฅุณูุงุนูู ุตุงุฏู ุงูุนุฏูู","category":"ูุชููุน"},{"id":"c_r77XELPb4","title":"49- ูุง ูู ุงููุชูุฉ ูููู ุฃุชุญูู ุจูุงุ | ุดุฑุญ ููุงุฒู ุงูุณุงุฆุฑูู","publishedAt":"2024-10-13T16:30:08Z","duration":"PT36M56S","thumbnail":"https://i.ytimg.com/vi/c_r77XELPb4/mqdefault.jpg","viewCount":"2625","playlistId":"PLEkQk5xrP-tmiUfQ-2Tsn7QIak4EsvaZW","playlistName":"ูุชุงุจ ุงูุชูุณูุฑ ุงููุนูู ุจุดุฑุญ ูุนุงูู ููุงุฒู ุงูุณุงุฆุฑูู (ุชุตูู) - ุฏ.ูุณุฑู ุฌุจุฑ","category":"ุชุตูู"},{"id":"cLJqraG5Lr8","title":"43- ุญูู ุงูุดุฑุจ ูุงุฆูุง | ูุตู ุงููููุจูู ๏ทบ - ุดุฑุญ ูุณูุฏ ุงูุฅูุงู ุฃุญูุฏ","publishedAt":"2023-11-26T06:15:01Z","duration":"PT39M52S","thumbnail":"https://i.ytimg.com/vi/cLJqraG5Lr8/mqdefault.jpg","viewCount":"2625","playlistId":"PLEkQk5xrP-tkKprIuGrSdEuBSMsyg5We1","playlistName":"ุดุฑุญ ูุณูุฏ ุงูุฅูุงู ุฃุญูุฏ ุจู ุญูุจู","category":"ูุชููุน"},{"id":"By_zFZce_ak","title":"ุงูุฎุดูุน ุนูุฏ ูุฑุงุกุฉ ุงููุฑุขู | ุฃ.ุฏ. ูุณุฑู ุฌุจุฑ","publishedAt":"2021-05-02T15:30:02Z","duration":"PT23M54S","thumbnail":"https://i.ytimg.com/vi/By_zFZce_ak/mqdefault.jpg","viewCount":"2625","playlistId":"PLEkQk5xrP-tnl7vb7KeAoPd5ZlqKKW8KV","playlistName":"ุดุฑุญ ูุชุงุจ ุจูุฌุฉ ุงููููุณ ุฃ.ุฏ . ูุณุฑู ุฌุจุฑ","category":"ูุชููุน"},{"id":"w55ovO15ioU","title":"40- ูู ูุง ุชุฑูุฏ ูุนุฑูุชู ุนู ุงูุทูุงุฑุฉ | ุดุฑุญ ูุฎุชุตุฑ ุงููุชูุญุงุช ุงููููุฉ","publishedAt":"2025-04-19T19:30:18Z","duration":"PT52M22S","thumbnail":"https://i.ytimg.com/vi/w55ovO15ioU/mqdefault.jpg","viewCount":"2619","playlistId":"PLEkQk5xrP-tnpkdZki6rPTtMak1bnI5g-","playlistName":"ุดุฑุญ ูุชุงุจ ูุฎุชุตุฑ ุงููุชูุญุงุช ุงููููุฉ ุงููุณูู ููุงูุญ ุงูุฃููุงุฑ ุงููุฏุณูุฉ","category":"ูุชููุน"},{"id":"kDUO_tbx_1o","title":"ููู ุชุชุนุฑู ุนูู ุฑูุญุงููุฉ ุงููุจู ๏ทบุ","publishedAt":"2025-11-02T17:01:09Z","duration":"PT16M10S","thumbnail":"https://i.ytimg.com/vi/kDUO_tbx_1o/mqdefault.jpg","viewCount":"2618","playlistId":"PLEkQk5xrP-tm8ZIu74nTOZN9KJUJu416J","playlistName":"ููุงุทุน ููููููุฉ (ููุณุฑูููุงุช) ุฃ.ุฏ. ูุณุฑู ุฌุจุฑ","category":"ูุชููุน"},{"id":"lBU6JH59B8k","title":"ุฒูุฌู ูุนุงูู ุฃูู ุจุทุฑููุฉ ุณูุฆุฉ ููุฑูุถ ูุฑุงุนุงุชู ููุง ,, ููุงุฐุง ุฃูุนู ูุนูุ","publishedAt":"2024-12-05T19:23:59Z","duration":"PT9M4S","thumbnail":"https://i.ytimg.com/vi/lBU6JH59B8k/mqdefault.jpg","viewCount":"2612","playlistId":"PLEkQk5xrP-tkGXuZ9atE3k_7it12rUPTs","playlistName":"ุฃุณุฆูุฉ ุงููุชุงุจุนูู","category":"ูุชููุน"},{"id":"jA2euhnOKsc","title":"ุฑุถู ุงูููู ุนููู ูุฑุถูุง ุนูู","publishedAt":"2020-06-25T20:13:50Z","duration":"PT5M20S","thumbnail":"https://i.ytimg.com/vi/jA2euhnOKsc/mqdefault.jpg","viewCount":"2612","playlistId":"PLEkQk5xrP-tm8ZIu74nTOZN9KJUJu416J","playlistName":"ููุงุทุน ููููููุฉ (ููุณุฑูููุงุช) ุฃ.ุฏ. ูุณุฑู ุฌุจุฑ","category":"ูุชููุน"},{"id":"L1r9Y-Cdpks","title":"522- ุญูุณูุจู - ููุงุฏู: ูุง ุงููุฑูู ุจููููุงุ - ุดุฑุญ ุงูุจุฑูุงู ูู ุนููู ุงููุฑุขู","publishedAt":"2022-06-05T05:00:07Z","duration":"PT31M46S","thumbnail":"https://i.ytimg.com/vi/L1r9Y-Cdpks/mqdefault.jpg","viewCount":"2611","playlistId":"PLEkQk5xrP-tnW3iBL7HkKziOFCFZbTlf0","playlistName":"ุดุฑุญ ุงูุจุฑูุงู ูู ุนููู ุงููุฑุขู - ุฃ.ุฏ. ูุณุฑู ุฌุจุฑ","category":"ุชูุณูุฑ"},{"id":"4cQBTbsNE6s","title":"19- ุฅููู ุงูููู ูุชุจู ุงูุญุณููุงุชู ูุงูุณูููููุฆูุงุชู ุซููู ุจูููููู ุฐูู...\" ุดุฑุญ ูุชุงุจ ุฏููู ุงููุงูุญูู.","publishedAt":"2021-02-15T07:12:59Z","duration":"PT31M6S","thumbnail":"https://i.ytimg.com/vi/4cQBTbsNE6s/mqdefault.jpg","viewCount":"2609","playlistId":"PLEkQk5xrP-tkc9DXvSLguqX5-FYp6ASR4","playlistName":"ุฏููู ุงููุงูุญูู ูุทุฑู ุฑูุงุถ ุงูุตุงูุญูู","category":"ูุชููุน"},{"id":"tf3jGZ9szeI","title":"ุฃุณุฑุงุฑ ุญูู ูุนุฌุฒุฉ ุงูุฅุณุฑุงุก ูุงููุนุฑุงุฌ |๐ุฌุงูุฉ ุงููุณุทู - ุฅูุฏูููุณูุง ูค","publishedAt":"2023-02-27T18:00:25Z","duration":"PT25M38S","thumbnail":"https://i.ytimg.com/vi/tf3jGZ9szeI/mqdefault.jpg","viewCount":"2607","playlistId":"PLEkQk5xrP-tm8ZIu74nTOZN9KJUJu416J","playlistName":"ููุงุทุน ููููููุฉ (ููุณุฑูููุงุช) ุฃ.ุฏ. ูุณุฑู ุฌุจุฑ","category":"ูุชููุน"}],"total":7675,"page":92,"pageSize":24,"totalPages":320}