{"items":[{"id":"qRCPwFBaGl0","title":"لاتمدنَّ يدك إلى الأخذ من الخلائق إلا أن ترى أنَّ المعطي فيهم مولاك فإذا كنت كذلك فخذ ما وافقك العلم","publishedAt":"2017-08-24T14:31:29Z","duration":"PT8M6S","thumbnail":"https://i.ytimg.com/vi/qRCPwFBaGl0/mqdefault.jpg","viewCount":"699","playlistId":"PLEkQk5xrP-tkI_meE148wc7V7XHlB0WPb","playlistName":"من الحكم العطائية  د. يسري جبر","category":"متنوع"},{"id":"a3uoEvWWVNo","title":"قراءة القرآن (من آية ٢٣٥ سورة البقرة)","publishedAt":"2016-05-19T02:24:13Z","duration":"PT18M23S","thumbnail":"https://i.ytimg.com/vi/a3uoEvWWVNo/mqdefault.jpg","viewCount":"699","playlistId":"PLEkQk5xrP-tnmTYsyW6xNdyfhPq0Bhrhj","playlistName":"مقرأة الفجر - القُرْآنُ الكَرِيمُ - خَتْمَةُ التَّدَبُّرِ  أ.د. يسري جبر","category":"متنوع"},{"id":"-y3riLwaGjI","title":"245- الاختزال: أمثلة حذف أكثر من كلمة - شرح الإتقان في علوم القرآن","publishedAt":"2024-06-30T05:00:00Z","duration":"PT17M32S","thumbnail":"https://i.ytimg.com/vi/-y3riLwaGjI/mqdefault.jpg","viewCount":"698","playlistId":"PLEkQk5xrP-tlPw10KGJKagu7zm4Ry2Tge","playlistName":"شرح الإتقان في علوم القرآن","category":"تفسير"},{"id":"bVDO0y5fWi4","title":"212- أقسام سور القرآن باعتبار الناسخ والمنسوخ (2) - شرح الإتقان في علوم القرآن","publishedAt":"2024-02-22T08:06:53Z","duration":"PT34M28S","thumbnail":"https://i.ytimg.com/vi/bVDO0y5fWi4/mqdefault.jpg","viewCount":"698","playlistId":"PLEkQk5xrP-tlPw10KGJKagu7zm4Ry2Tge","playlistName":"شرح الإتقان في علوم القرآن","category":"تفسير"},{"id":"40NVO7BucX4","title":"شرح البرهان في علوم القرآن - النوع ٥ - الفصل ٢ : ما جاء على حرفين","publishedAt":"2019-09-16T21:58:30Z","duration":"PT13M31S","thumbnail":"https://i.ytimg.com/vi/40NVO7BucX4/mqdefault.jpg","viewCount":"698","playlistId":"PLEkQk5xrP-tnW3iBL7HkKziOFCFZbTlf0","playlistName":"شرح البرهان في علوم القرآن - أ.د. يسري جبر","category":"تفسير"},{"id":"YAMEiy2aes0","title":"برنامج - عصمة الأنبياء - الحلقة السادسة عشر - شبهات حول نبي الله شعيب - @alerthTV","publishedAt":"2019-03-22T20:30:02Z","duration":"PT25M8S","thumbnail":"https://i.ytimg.com/vi/YAMEiy2aes0/mqdefault.jpg","viewCount":"698","playlistId":"PLEkQk5xrP-tnBp9yUT_R2vtqSPOlcyAZe","playlistName":"برنامج - عصمة الأنبياء","category":"متنوع"},{"id":"x67Qd5fWX8g","title":"شرح صحيح البخاري كتاب التفسير فى سورة البقرة من باب ٤٢","publishedAt":"2018-03-12T14:03:17Z","duration":"PT40M34S","thumbnail":"https://i.ytimg.com/vi/x67Qd5fWX8g/mqdefault.jpg","viewCount":"698","playlistId":"PLEkQk5xrP-tlEerGoLa1AFy-2XvQ-sovv","playlistName":"شرح صحيح البخاري - أ.د. يسري جبر (كاملا)","category":"حديث"},{"id":"nG-qPU4ndLY","title":"شرح فتح القريب المجيب - كتاب أحكام الأيمان والنذور","publishedAt":"2017-01-07T14:49:02Z","duration":"PT31M35S","thumbnail":"https://i.ytimg.com/vi/nG-qPU4ndLY/mqdefault.jpg","viewCount":"698","playlistId":"PLEkQk5xrP-tlyOgfNBZTZgoATzVW4mI20","playlistName":"كتاب فتح القريب المجيب (علم الفقه الشافعي)","category":"فقه"},{"id":"Ou3IA85HpBo","title":"38- حكم المسح على الخف للمسافر | شرح سنن الدار قطني رضي الله عنه","publishedAt":"2024-06-08T09:00:30Z","duration":"PT41M9S","thumbnail":"https://i.ytimg.com/vi/Ou3IA85HpBo/mqdefault.jpg","viewCount":"696","playlistId":"PLEkQk5xrP-tk_MCBZ706ORCw6gFtFyaGj","playlistName":"شرح سنن الإمام الدارقطني","category":"متنوع"},{"id":"1FYbAtLbLXM","title":"١٤٠ حديث عز المؤمن بطاعة الله ورسوله  د. يسري جبر","publishedAt":"2018-05-19T15:51:10Z","duration":"PT30M53S","thumbnail":"https://i.ytimg.com/vi/1FYbAtLbLXM/mqdefault.jpg","viewCount":"696","playlistId":"PLEkQk5xrP-tnl7vb7KeAoPd5ZlqKKW8KV","playlistName":"شرح كتاب بهجة النفوس أ.د . يسرى جبر","category":"متنوع"},{"id":"H7pgAZFuwFw","title":"شرح صحيح البخاري - كتاب الجهاد والسير من باب ٤","publishedAt":"2017-07-27T21:48:03Z","duration":"PT27M1S","thumbnail":"https://i.ytimg.com/vi/H7pgAZFuwFw/mqdefault.jpg","viewCount":"696","playlistId":"PLEkQk5xrP-tlEerGoLa1AFy-2XvQ-sovv","playlistName":"شرح صحيح البخاري - أ.د. يسري جبر (كاملا)","category":"حديث"},{"id":"TRgwY_MFu5Q","title":"شرح صحيح البخاري كتاب الطب من باب ٧","publishedAt":"2018-08-04T21:58:44Z","duration":"PT41M14S","thumbnail":"https://i.ytimg.com/vi/TRgwY_MFu5Q/mqdefault.jpg","viewCount":"695","playlistId":"PLEkQk5xrP-tlEerGoLa1AFy-2XvQ-sovv","playlistName":"شرح صحيح البخاري - أ.د. يسري جبر (كاملا)","category":"حديث"},{"id":"yFQ_N4zYwfg","title":"قراءة القرآن (من آية ٢٥٨ سورة البقرة)","publishedAt":"2016-05-27T02:29:50Z","duration":"PT21M20S","thumbnail":"https://i.ytimg.com/vi/yFQ_N4zYwfg/mqdefault.jpg","viewCount":"695","playlistId":"PLEkQk5xrP-tnmTYsyW6xNdyfhPq0Bhrhj","playlistName":"مقرأة الفجر - القُرْآنُ الكَرِيمُ - خَتْمَةُ التَّدَبُّرِ  أ.د. يسري جبر","category":"متنوع"},{"id":"H2nSdSiza7c","title":"ختام شرح كتاب الشمائل المحمدية للإمام أبى عيسى الترمذى رضى الله عنه - المجلس الحادى عشر","publishedAt":"2014-11-13T16:15:08Z","duration":"PT1H20M3S","thumbnail":"https://i.ytimg.com/vi/H2nSdSiza7c/mqdefault.jpg","viewCount":"695","playlistId":"PLEkQk5xrP-tm74ioQU4BIuXLs8a9babvA","playlistName":"شرح كتاب الشمائل المحمدية للإمام الترمذى","category":"سيرة"},{"id":"2MWpjd80-FU","title":"57- ماذا تقول في الركوع والسجود؟ | شرح سنن الإمام الدار قطني","publishedAt":"2025-06-28T09:00:55Z","duration":"PT43M14S","thumbnail":"https://i.ytimg.com/vi/2MWpjd80-FU/mqdefault.jpg","viewCount":"694","playlistId":"PLEkQk5xrP-tk_MCBZ706ORCw6gFtFyaGj","playlistName":"شرح سنن الإمام الدارقطني","category":"متنوع"},{"id":"YamautdzMbw","title":"141- حكم مَن كتم عِلمَه وغَشَّ الناس - شرح مسند الإمام أحمد رضي الله تعالى عنه","publishedAt":"2024-12-04T06:47:32Z","duration":"PT34M33S","thumbnail":"https://i.ytimg.com/vi/YamautdzMbw/mqdefault.jpg","viewCount":"694","playlistId":"PLEkQk5xrP-tkKprIuGrSdEuBSMsyg5We1","playlistName":"شرح مسند الإمام أحمد بن حنبل","category":"متنوع"},{"id":"iQONgheQ31Q","title":"278- استحباب الذهاب إلى العيد وعيادة المريض والحج والغزو والجنازة ونحوها","publishedAt":"2022-07-10T20:35:00Z","duration":"PT40M1S","thumbnail":"https://i.ytimg.com/vi/iQONgheQ31Q/mqdefault.jpg","viewCount":"694","playlistId":"PLEkQk5xrP-tkc9DXvSLguqX5-FYp6ASR4","playlistName":"دليل الفالحين لطرق رياض الصالحين","category":"متنوع"},{"id":"z4xrd6GEgzY","title":"114- شرح اللؤلؤ والمرجان كتاب الجهاد من الباب الرابع والثلاثين","publishedAt":"2020-04-04T07:00:17Z","duration":"PT35M16S","thumbnail":"https://i.ytimg.com/vi/z4xrd6GEgzY/mqdefault.jpg","viewCount":"694","playlistId":"PLEkQk5xrP-tmKNjtYLfhATC37QdIsTMe0","playlistName":"شرح كتاب اللؤلؤ والمرجان فيما اتفق عليه الشيخان إماما المحدثين البخاري ومسلم. أ.د. يسري جبر","category":"حديث"},{"id":"NVOxYuxVB3A","title":"شرح صحيح البخاري - كتاب العتق من باب ٨","publishedAt":"2017-06-01T22:14:32Z","duration":"PT46M55S","thumbnail":"https://i.ytimg.com/vi/NVOxYuxVB3A/mqdefault.jpg","viewCount":"694","playlistId":"PLEkQk5xrP-tlEerGoLa1AFy-2XvQ-sovv","playlistName":"شرح صحيح البخاري - أ.د. يسري جبر (كاملا)","category":"حديث"},{"id":"8K1hZUKDDFI","title":"سورة التوبة آية 7","publishedAt":"2017-03-30T07:06:21Z","duration":"PT14M55S","thumbnail":"https://i.ytimg.com/vi/8K1hZUKDDFI/mqdefault.jpg","viewCount":"694","playlistId":"PLEkQk5xrP-tnmTYsyW6xNdyfhPq0Bhrhj","playlistName":"مقرأة الفجر - القُرْآنُ الكَرِيمُ - خَتْمَةُ التَّدَبُّرِ  أ.د. يسري جبر","category":"متنوع"},{"id":"DV9MHAvwaTI","title":"شرح صحيح البخاري   كتاب الحج من باب ٨٢","publishedAt":"2017-03-14T07:27:31Z","duration":"PT34M47S","thumbnail":"https://i.ytimg.com/vi/DV9MHAvwaTI/mqdefault.jpg","viewCount":"694","playlistId":"PLEkQk5xrP-tlEerGoLa1AFy-2XvQ-sovv","playlistName":"شرح صحيح البخاري - أ.د. يسري جبر (كاملا)","category":"حديث"},{"id":"aN-VwbZJ49s","title":"81- تحسين الصوت بالقراءة - آداب تلاوة القرآن(5)- شرح الإتقان في علوم القرآن","publishedAt":"2023-05-27T05:00:01Z","duration":"PT23M27S","thumbnail":"https://i.ytimg.com/vi/aN-VwbZJ49s/mqdefault.jpg","viewCount":"693","playlistId":"PLEkQk5xrP-tlPw10KGJKagu7zm4Ry2Tge","playlistName":"شرح الإتقان في علوم القرآن","category":"تفسير"},{"id":"FAD5QhKCoas","title":"المُقَابَلَة - شرح البرهان في علوم القرآن","publishedAt":"2022-02-25T20:18:42Z","duration":"PT12M59S","thumbnail":"https://i.ytimg.com/vi/FAD5QhKCoas/mqdefault.jpg","viewCount":"693","playlistId":"PLEkQk5xrP-tnW3iBL7HkKziOFCFZbTlf0","playlistName":"شرح البرهان في علوم القرآن - أ.د. يسري جبر","category":"تفسير"},{"id":"SoIIMxybv6w","title":"يَا أَيُّهَا الَّذِينَ آمَنُوا اتَّقُوا اللَّهَ وَكُونُوا مَعَ الصَّادِقِينَ - أ. د. يسري جبر","publishedAt":"2019-02-10T19:47:19Z","duration":"PT33M27S","thumbnail":"https://i.ytimg.com/vi/SoIIMxybv6w/mqdefault.jpg","viewCount":"693","playlistId":"PLEkQk5xrP-tlArtGpeLWaqNM7h7IDeAVC","playlistName":"خطب الجمعة أ.د. يسري جبر","category":"خطب"}],"total":7675,"page":187,"pageSize":24,"totalPages":320}