{"items":[{"id":"AfdLeQWjTw4","title":"561- حروف المعاني(22): الحرف التاسع عشر (الآن) - شرح البرهان في علوم القرآن","publishedAt":"2022-09-20T06:00:02Z","duration":"PT25M52S","thumbnail":"https://i.ytimg.com/vi/AfdLeQWjTw4/mqdefault.jpg","viewCount":"537","playlistId":"PLEkQk5xrP-tnW3iBL7HkKziOFCFZbTlf0","playlistName":"شرح البرهان في علوم القرآن - أ.د. يسري جبر","category":"تفسير"},{"id":"8U618HXooP0","title":"شرح البرهان في علوم القرآن - النوع ٢٨ - هل في القرآن شيء أفضل من شيء؟","publishedAt":"2020-01-29T11:57:36Z","duration":"PT24M15S","thumbnail":"https://i.ytimg.com/vi/8U618HXooP0/mqdefault.jpg","viewCount":"537","playlistId":"PLEkQk5xrP-tnW3iBL7HkKziOFCFZbTlf0","playlistName":"شرح البرهان في علوم القرآن - أ.د. يسري جبر","category":"تفسير"},{"id":"6PbZGIGzuPg","title":"مقرأة سورة الغاشية من أولها","publishedAt":"2019-07-17T05:22:35Z","duration":"PT26M27S","thumbnail":"https://i.ytimg.com/vi/6PbZGIGzuPg/mqdefault.jpg","viewCount":"537","playlistId":"PLEkQk5xrP-tnmTYsyW6xNdyfhPq0Bhrhj","playlistName":"مقرأة الفجر - القُرْآنُ الكَرِيمُ - خَتْمَةُ التَّدَبُّرِ  أ.د. يسري جبر","category":"متنوع"},{"id":"2qdWr4sl9d8","title":"مقرأة سورة الشورى من آية ٢٧","publishedAt":"2018-12-03T09:34:33Z","duration":"PT21M11S","thumbnail":"https://i.ytimg.com/vi/2qdWr4sl9d8/mqdefault.jpg","viewCount":"537","playlistId":"PLEkQk5xrP-tnmTYsyW6xNdyfhPq0Bhrhj","playlistName":"مقرأة الفجر - القُرْآنُ الكَرِيمُ - خَتْمَةُ التَّدَبُّرِ  أ.د. يسري جبر","category":"متنوع"},{"id":"slhPxFCfpjI","title":"شرح صحيح البخاري كتاب الطب من باب ٣٥","publishedAt":"2018-08-09T11:08:51Z","duration":"PT41M16S","thumbnail":"https://i.ytimg.com/vi/slhPxFCfpjI/mqdefault.jpg","viewCount":"537","playlistId":"PLEkQk5xrP-tlEerGoLa1AFy-2XvQ-sovv","playlistName":"شرح صحيح البخاري - أ.د. يسري جبر (كاملا)","category":"حديث"},{"id":"PWOo9Bo90sA","title":"شرح صحيح البخاري   كتاب مناقب الأنصار من باب ٤٢","publishedAt":"2017-12-11T12:14:55Z","duration":"PT28M57S","thumbnail":"https://i.ytimg.com/vi/PWOo9Bo90sA/mqdefault.jpg","viewCount":"537","playlistId":"PLEkQk5xrP-tlEerGoLa1AFy-2XvQ-sovv","playlistName":"شرح صحيح البخاري - أ.د. يسري جبر (كاملا)","category":"حديث"},{"id":"DuJJz7k30lQ","title":"تواضع النبي صلى الله عليه وسلم | اعرف نبيك","publishedAt":"2015-09-02T15:27:46Z","duration":"PT6M18S","thumbnail":"https://i.ytimg.com/vi/DuJJz7k30lQ/mqdefault.jpg","viewCount":"537","playlistId":"PLEkQk5xrP-tl6Mu_Mz3QMUSv5T6XBH-Dg","playlistName":"برنامج اعرف نبيك","category":"متنوع"},{"id":"3fQxgDsPU3w","title":"361- فضل ليلة القدر وبيان أرجى لياليها - شرح دليل الفالحين","publishedAt":"2022-12-16T09:00:02Z","duration":"PT24M51S","thumbnail":"https://i.ytimg.com/vi/3fQxgDsPU3w/mqdefault.jpg","viewCount":"536","playlistId":"PLEkQk5xrP-tkc9DXvSLguqX5-FYp6ASR4","playlistName":"دليل الفالحين لطرق رياض الصالحين","category":"متنوع"},{"id":"YuUNYB56gtg","title":"50- حكم إفطار المرأة الحامل إذا خافت على ولدها","publishedAt":"2022-09-19T06:00:07Z","duration":"PT42M24S","thumbnail":"https://i.ytimg.com/vi/YuUNYB56gtg/mqdefault.jpg","viewCount":"536","playlistId":"PLEkQk5xrP-tlDtaqY0qhNXAiZ19gaGzKI","playlistName":"شرح مسند الإمام محمد بن إدريس الشافعيّ رضي الله تعالى عنه","category":"فقه"},{"id":"oxNQXVy4ZEo","title":"483- قاعدةٌ نَحَويَّة: نون الجَمْع - شرح البرهان في علوم القرآن","publishedAt":"2022-03-26T05:13:42Z","duration":"PT9M43S","thumbnail":"https://i.ytimg.com/vi/oxNQXVy4ZEo/mqdefault.jpg","viewCount":"536","playlistId":"PLEkQk5xrP-tnW3iBL7HkKziOFCFZbTlf0","playlistName":"شرح البرهان في علوم القرآن - أ.د. يسري جبر","category":"تفسير"},{"id":"U9aac_WRUrM","title":"الحروف الموضوعة للاستفهام ثلاثة","publishedAt":"2020-11-26T09:01:55Z","duration":"PT11M42S","thumbnail":"https://i.ytimg.com/vi/U9aac_WRUrM/mqdefault.jpg","viewCount":"536","playlistId":"PLEkQk5xrP-tnW3iBL7HkKziOFCFZbTlf0","playlistName":"شرح البرهان في علوم القرآن - أ.د. يسري جبر","category":"تفسير"},{"id":"TEwshJF1JJw","title":"مقرأة سورة القيامة من أولها","publishedAt":"2019-06-02T21:53:21Z","duration":"PT12M55S","thumbnail":"https://i.ytimg.com/vi/TEwshJF1JJw/mqdefault.jpg","viewCount":"536","playlistId":"PLEkQk5xrP-tnmTYsyW6xNdyfhPq0Bhrhj","playlistName":"مقرأة الفجر - القُرْآنُ الكَرِيمُ - خَتْمَةُ التَّدَبُّرِ  أ.د. يسري جبر","category":"متنوع"},{"id":"xWh9kcJ2MAs","title":"مقرأة الفجر من سورة الحجر آية ١","publishedAt":"2017-08-05T14:14:59Z","duration":"PT18M39S","thumbnail":"https://i.ytimg.com/vi/xWh9kcJ2MAs/mqdefault.jpg","viewCount":"536","playlistId":"PLEkQk5xrP-tnmTYsyW6xNdyfhPq0Bhrhj","playlistName":"مقرأة الفجر - القُرْآنُ الكَرِيمُ - خَتْمَةُ التَّدَبُّرِ  أ.د. يسري جبر","category":"متنوع"},{"id":"lKc8hCSCc5k","title":"سورة النساء آية 36","publishedAt":"2016-08-21T07:39:58Z","duration":"PT23M12S","thumbnail":"https://i.ytimg.com/vi/lKc8hCSCc5k/mqdefault.jpg","viewCount":"536","playlistId":"PLEkQk5xrP-tnmTYsyW6xNdyfhPq0Bhrhj","playlistName":"مقرأة الفجر - القُرْآنُ الكَرِيمُ - خَتْمَةُ التَّدَبُّرِ  أ.د. يسري جبر","category":"متنوع"},{"id":"KB0zJnrYeGM","title":"170- ابتسم النبي ﷺ ورضي عن أدب الصحابة معه ﷺ - شرح مسند الإمام أحمد رضي الله تعالى عنه","publishedAt":"2025-09-28T09:00:25Z","duration":"PT14M16S","thumbnail":"https://i.ytimg.com/vi/KB0zJnrYeGM/mqdefault.jpg","viewCount":"535","playlistId":"PLEkQk5xrP-tkKprIuGrSdEuBSMsyg5We1","playlistName":"شرح مسند الإمام أحمد بن حنبل","category":"متنوع"},{"id":"oX9sAWyJaCA","title":"سورة آل عمران آية 164","publishedAt":"2019-09-29T07:11:11Z","duration":"PT16M32S","thumbnail":"https://i.ytimg.com/vi/oX9sAWyJaCA/mqdefault.jpg","viewCount":"535","playlistId":"PLEkQk5xrP-tnmTYsyW6xNdyfhPq0Bhrhj","playlistName":"مقرأة الفجر - القُرْآنُ الكَرِيمُ - خَتْمَةُ التَّدَبُّرِ  أ.د. يسري جبر","category":"متنوع"},{"id":"1bXzwfeMp0E","title":"حول صلاة خسوف القمر    أ.د. يسري جبر","publishedAt":"2019-01-19T18:25:52Z","duration":"PT35M7S","thumbnail":"https://i.ytimg.com/vi/1bXzwfeMp0E/mqdefault.jpg","viewCount":"535","playlistId":"PLEkQk5xrP-tlArtGpeLWaqNM7h7IDeAVC","playlistName":"خطب الجمعة أ.د. يسري جبر","category":"خطب"},{"id":"zUuPnZ9HkK4","title":"شرح صحيح البخاري كتاب الحدود من أوله","publishedAt":"2018-11-26T19:04:32Z","duration":"PT37M18S","thumbnail":"https://i.ytimg.com/vi/zUuPnZ9HkK4/mqdefault.jpg","viewCount":"535","playlistId":"PLEkQk5xrP-tlEerGoLa1AFy-2XvQ-sovv","playlistName":"شرح صحيح البخاري - أ.د. يسري جبر (كاملا)","category":"حديث"},{"id":"AuD1IrxeHe8","title":"شرح صحيح البخاري كتاب الفرائض من باب ٤","publishedAt":"2018-11-22T19:01:58Z","duration":"PT37M9S","thumbnail":"https://i.ytimg.com/vi/AuD1IrxeHe8/mqdefault.jpg","viewCount":"535","playlistId":"PLEkQk5xrP-tlEerGoLa1AFy-2XvQ-sovv","playlistName":"شرح صحيح البخاري - أ.د. يسري جبر (كاملا)","category":"حديث"},{"id":"qtmT9nEU0Zs","title":"شرح صحيح البخاري كتاب الطلاق من باب 11","publishedAt":"2018-06-17T04:18:43Z","duration":"PT32M51S","thumbnail":"https://i.ytimg.com/vi/qtmT9nEU0Zs/mqdefault.jpg","viewCount":"535","playlistId":"PLEkQk5xrP-tlEerGoLa1AFy-2XvQ-sovv","playlistName":"شرح صحيح البخاري - أ.د. يسري جبر (كاملا)","category":"حديث"},{"id":"kW6uAxtqdjc","title":"شرح صحيح البخاري كتاب النكاح من باب ٩٧","publishedAt":"2018-06-09T19:24:48Z","duration":"PT26M58S","thumbnail":"https://i.ytimg.com/vi/kW6uAxtqdjc/mqdefault.jpg","viewCount":"535","playlistId":"PLEkQk5xrP-tlEerGoLa1AFy-2XvQ-sovv","playlistName":"شرح صحيح البخاري - أ.د. يسري جبر (كاملا)","category":"حديث"},{"id":"V-g2le4Guuk","title":"شرح صحيح البخاري - كتاب الجهاد والسير من باب ١٢٨","publishedAt":"2017-08-15T14:28:38Z","duration":"PT36M20S","thumbnail":"https://i.ytimg.com/vi/V-g2le4Guuk/mqdefault.jpg","viewCount":"535","playlistId":"PLEkQk5xrP-tlEerGoLa1AFy-2XvQ-sovv","playlistName":"شرح صحيح البخاري - أ.د. يسري جبر (كاملا)","category":"حديث"},{"id":"tfW3UOZFcOQ","title":"شرح صحيح البخاري - كتاب الشهادات من باب ٣٠","publishedAt":"2017-06-30T20:08:18Z","duration":"PT21M38S","thumbnail":"https://i.ytimg.com/vi/tfW3UOZFcOQ/mqdefault.jpg","viewCount":"535","playlistId":"PLEkQk5xrP-tlEerGoLa1AFy-2XvQ-sovv","playlistName":"شرح صحيح البخاري - أ.د. يسري جبر (كاملا)","category":"حديث"},{"id":"WUgm144jWVs","title":"شرح صحيح البخاري - كتاب الشهادات من باب ١٢","publishedAt":"2017-06-23T17:19:10Z","duration":"PT15M45S","thumbnail":"https://i.ytimg.com/vi/WUgm144jWVs/mqdefault.jpg","viewCount":"535","playlistId":"PLEkQk5xrP-tlEerGoLa1AFy-2XvQ-sovv","playlistName":"شرح صحيح البخاري - أ.د. يسري جبر (كاملا)","category":"حديث"}],"total":7675,"page":217,"pageSize":24,"totalPages":320}