{"items":[{"id":"XVZs0GKGVm0","title":"كيفية صلاة الكسوف والخسوف","publishedAt":"2022-05-15T20:49:26Z","duration":"PT11M12S","thumbnail":"https://i.ytimg.com/vi/XVZs0GKGVm0/mqdefault.jpg","viewCount":"15096","playlistId":"PLEkQk5xrP-tm8ZIu74nTOZN9KJUJu416J","playlistName":"مقاطع مُهمَّة (يُسريَّات) أ.د. يسري جبر","category":"متنوع"},{"id":"kW-x03FbiMU","title":"مَنْ نازعك على دُنْيَا، اتركْها له وقلْ سَلَامٌ","publishedAt":"2022-03-09T18:22:08Z","duration":"PT12M8S","thumbnail":"https://i.ytimg.com/vi/kW-x03FbiMU/mqdefault.jpg","viewCount":"15093","playlistId":"PLEkQk5xrP-tm8ZIu74nTOZN9KJUJu416J","playlistName":"مقاطع مُهمَّة (يُسريَّات) أ.د. يسري جبر","category":"متنوع"},{"id":"fW-r7sAAuYE","title":"الرسالة القشيرية - المجلس (115) بَابُ كرامات الأولياء ٨ | أ.د. يسري جبر","publishedAt":"2022-03-10T19:22:56Z","duration":"PT51M17S","thumbnail":"https://i.ytimg.com/vi/fW-r7sAAuYE/mqdefault.jpg","viewCount":"15048","playlistId":"PLEkQk5xrP-tkHAGOwIKr4pc5ehhyQ5HMJ","playlistName":"كتاب الرسالة القشيرية (تصوف) - د. يسري جبر","category":"تصوف"},{"id":"Ua8QIzJYdEQ","title":"عندي اضطرابات نفسية بسبب طلاق أهلي وإهمالهم ,, فماذا أفعل؟","publishedAt":"2025-01-20T19:10:38Z","duration":"PT9M35S","thumbnail":"https://i.ytimg.com/vi/Ua8QIzJYdEQ/mqdefault.jpg","viewCount":"15032","playlistId":"PLEkQk5xrP-tkGXuZ9atE3k_7it12rUPTs","playlistName":"أسئلة المتابعين","category":"متنوع"},{"id":"HSuJ9KHa4aM","title":"شرح كتاب نوراليقين في سيرة سيد المرسلين - المجلس 33 ( الحجاب ) د.يسري جبر","publishedAt":"2017-12-18T09:03:50Z","duration":"PT50M10S","thumbnail":"https://i.ytimg.com/vi/HSuJ9KHa4aM/mqdefault.jpg","viewCount":"14996","playlistId":"PLEkQk5xrP-tl2t4NQx1IhKnAJCMzF0Nli","playlistName":"شرح كتاب نور اليقين في سيرة سيد المرسلين   د. يسري جبر","category":"سيرة"},{"id":"vvSPqIBaCFc","title":"كيف نرد على من يقول أن الله في السماء؟","publishedAt":"2023-10-04T16:00:51Z","duration":"PT9M53S","thumbnail":"https://i.ytimg.com/vi/vvSPqIBaCFc/mqdefault.jpg","viewCount":"14957","playlistId":"PLEkQk5xrP-tkGXuZ9atE3k_7it12rUPTs","playlistName":"أسئلة المتابعين","category":"متنوع"},{"id":"3LstD2f4nWg","title":"أنا مش عارفة أتغلب على نفسي الأمارة بالسوء في رمضان ,, فماذا أفعل؟","publishedAt":"2024-03-21T18:00:01Z","duration":"PT8M15S","thumbnail":"https://i.ytimg.com/vi/3LstD2f4nWg/mqdefault.jpg","viewCount":"14954","playlistId":"PLEkQk5xrP-tkGXuZ9atE3k_7it12rUPTs","playlistName":"أسئلة المتابعين","category":"متنوع"},{"id":"teWBVrhJnZk","title":"الموت في القرآن والسنة  د. يسري جبر","publishedAt":"2017-01-07T18:38:24Z","duration":"PT44M37S","thumbnail":"https://i.ytimg.com/vi/teWBVrhJnZk/mqdefault.jpg","viewCount":"14929","playlistId":"PLEkQk5xrP-tlArtGpeLWaqNM7h7IDeAVC","playlistName":"خطب الجمعة أ.د. يسري جبر","category":"خطب"},{"id":"drF67sIkXZM","title":"كيف تروض نفسك؟","publishedAt":"2022-11-17T18:00:16Z","duration":"PT9M6S","thumbnail":"https://i.ytimg.com/vi/drF67sIkXZM/mqdefault.jpg","viewCount":"14914","playlistId":"PLEkQk5xrP-tm8ZIu74nTOZN9KJUJu416J","playlistName":"مقاطع مُهمَّة (يُسريَّات) أ.د. يسري جبر","category":"متنوع"},{"id":"H5bJlVXBJlA","title":"كيف تحمي نفسك من السحر؟","publishedAt":"2022-10-17T18:00:13Z","duration":"PT8M16S","thumbnail":"https://i.ytimg.com/vi/H5bJlVXBJlA/mqdefault.jpg","viewCount":"14889","playlistId":"PLEkQk5xrP-tkGXuZ9atE3k_7it12rUPTs","playlistName":"أسئلة المتابعين","category":"متنوع"},{"id":"Un8iNnd50jk","title":"شرح كتاب نوراليقين في سيرة سيد المرسلين - المجلس 32 ( تكملة غزوة بني قريظة ) د.يسري جبر","publishedAt":"2017-12-10T12:58:35Z","duration":"PT50M51S","thumbnail":"https://i.ytimg.com/vi/Un8iNnd50jk/mqdefault.jpg","viewCount":"14732","playlistId":"PLEkQk5xrP-tl2t4NQx1IhKnAJCMzF0Nli","playlistName":"شرح كتاب نور اليقين في سيرة سيد المرسلين   د. يسري جبر","category":"سيرة"},{"id":"AWk6HJgyQmM","title":"كيف تختم القرآن ولا تنساه؟","publishedAt":"2020-06-10T16:10:59Z","duration":"PT3M17S","thumbnail":"https://i.ytimg.com/vi/AWk6HJgyQmM/mqdefault.jpg","viewCount":"14642","playlistId":"PLEkQk5xrP-tm8ZIu74nTOZN9KJUJu416J","playlistName":"مقاطع مُهمَّة (يُسريَّات) أ.د. يسري جبر","category":"متنوع"},{"id":"WQz5smOu7tI","title":"معنى التصوف في الإسلام | مع الناس","publishedAt":"2016-04-26T21:51:00Z","duration":"PT7M8S","thumbnail":"https://i.ytimg.com/vi/WQz5smOu7tI/mqdefault.jpg","viewCount":"14615","playlistId":"PLEkQk5xrP-tmJzNvLntpzW0uPanPzxA0c","playlistName":"لقاءات ومحاضرات","category":"متنوع"},{"id":"NmFkdXwWMMQ","title":"10- الفرق بين إلهام الولي ووحي النبي | من هم المُحَدَّثون؟ | شرح مختصر الفتوحات المكية","publishedAt":"2024-03-04T11:40:16Z","duration":"PT50M47S","thumbnail":"https://i.ytimg.com/vi/NmFkdXwWMMQ/mqdefault.jpg","viewCount":"14607","playlistId":"PLEkQk5xrP-tnpkdZki6rPTtMak1bnI5g-","playlistName":"شرح كتاب مختصر الفتوحات المكية المسمى لواقح الأنوار القدسية","category":"متنوع"},{"id":"EVY6phJvXOw","title":"شرح كتاب نوراليقين في سيرة سيد المرسلين - المجلس التاسع والعشرون ( حديث الإفك ) د.يسري جبر","publishedAt":"2017-11-14T12:32:22Z","duration":"PT50M20S","thumbnail":"https://i.ytimg.com/vi/EVY6phJvXOw/mqdefault.jpg","viewCount":"14593","playlistId":"PLEkQk5xrP-tl2t4NQx1IhKnAJCMzF0Nli","playlistName":"شرح كتاب نور اليقين في سيرة سيد المرسلين   د. يسري جبر","category":"سيرة"},{"id":"MfMF0U8wc2A","title":"نبذة عن السيدة فاطمة الزهراء البتول في ذكرى مولدها رضي الله عنها وعليها السلام   د. يسري جبر","publishedAt":"2017-03-18T14:53:17Z","duration":"PT40M53S","thumbnail":"https://i.ytimg.com/vi/MfMF0U8wc2A/mqdefault.jpg","viewCount":"14562","playlistId":"PLEkQk5xrP-tlArtGpeLWaqNM7h7IDeAVC","playlistName":"خطب الجمعة أ.د. يسري جبر","category":"خطب"},{"id":"TFWDRfZR2Tk","title":"شرح كتاب الرسالة القشيرية - المجلس السادس - الفصل الأول (3)","publishedAt":"2017-12-22T14:24:00Z","duration":"PT1H17M44S","thumbnail":"https://i.ytimg.com/vi/TFWDRfZR2Tk/mqdefault.jpg","viewCount":"14559","playlistId":"PLEkQk5xrP-tkHAGOwIKr4pc5ehhyQ5HMJ","playlistName":"كتاب الرسالة القشيرية (تصوف) - د. يسري جبر","category":"تصوف"},{"id":"Rp6VE2mzY6E","title":"حول الحقيقة المحمدية","publishedAt":"2021-03-01T19:06:12Z","duration":"PT9M9S","thumbnail":"https://i.ytimg.com/vi/Rp6VE2mzY6E/mqdefault.jpg","viewCount":"14545","playlistId":"PLEkQk5xrP-tlArtGpeLWaqNM7h7IDeAVC","playlistName":"خطب الجمعة أ.د. يسري جبر","category":"خطب"},{"id":"WdFc0sTqEMk","title":"كيف أطلب العلم عن بعد؟","publishedAt":"2021-09-02T19:30:04Z","duration":"PT11M49S","thumbnail":"https://i.ytimg.com/vi/WdFc0sTqEMk/mqdefault.jpg","viewCount":"14441","playlistId":"PLEkQk5xrP-tkGXuZ9atE3k_7it12rUPTs","playlistName":"أسئلة المتابعين","category":"متنوع"},{"id":"L2QGmJBTAew","title":"أفضل ذكر للصائم في رمضان","publishedAt":"2021-04-16T19:15:00Z","duration":"PT13M46S","thumbnail":"https://i.ytimg.com/vi/L2QGmJBTAew/mqdefault.jpg","viewCount":"14430","playlistId":"PLEkQk5xrP-tlArtGpeLWaqNM7h7IDeAVC","playlistName":"خطب الجمعة أ.د. يسري جبر","category":"خطب"},{"id":"kFcihqDJtjs","title":"بَشَرٌ لَا كَالبَشَرِ ﷺ   أ.د. يسري جبر","publishedAt":"2019-11-20T17:10:17Z","duration":"PT1H10M11S","thumbnail":"https://i.ytimg.com/vi/kFcihqDJtjs/mqdefault.jpg","viewCount":"14373","playlistId":"PLEkQk5xrP-tmJzNvLntpzW0uPanPzxA0c","playlistName":"لقاءات ومحاضرات","category":"متنوع"},{"id":"jnT8vWurdyc","title":"كيف أتخلص من الكسل وفقدان الشغف؟","publishedAt":"2022-03-11T19:48:50Z","duration":"PT8M20S","thumbnail":"https://i.ytimg.com/vi/jnT8vWurdyc/mqdefault.jpg","viewCount":"14332","playlistId":"PLEkQk5xrP-tkGXuZ9atE3k_7it12rUPTs","playlistName":"أسئلة المتابعين","category":"متنوع"},{"id":"E-DZkZUL39A","title":"شرح منازل السائرين - المجلس (2) المقدمة ٢ | أ.د. يسري جبر","publishedAt":"2022-07-20T19:00:02Z","duration":"PT1H1M59S","thumbnail":"https://i.ytimg.com/vi/E-DZkZUL39A/mqdefault.jpg","viewCount":"14285","playlistId":"PLEkQk5xrP-tmiUfQ-2Tsn7QIak4EsvaZW","playlistName":"كتاب التيسير المعين بشرح معاني منازل السائرين (تصوف) - د.يسري جبر","category":"تصوف"},{"id":"B9mA5zW-OAY","title":"عالم هندي يتحدى مشايخ الوهابية! | مجالس الاعتكاف","publishedAt":"2025-03-22T10:00:10Z","duration":"PT33M28S","thumbnail":"https://i.ytimg.com/vi/B9mA5zW-OAY/mqdefault.jpg","viewCount":"14228","playlistId":"PLEkQk5xrP-tly7ti7Qb_lS7xjUg_fwlNP","playlistName":"شرح كتاب الدولة المكية بالمادة الغيبية","category":"متنوع"}],"total":7675,"page":20,"pageSize":24,"totalPages":320}