{"items":[{"id":"Ot7c1LgCy-U","title":"( 115 ) حديث تحليل نكاح المبتوتة لمطلقها الأول","publishedAt":"2016-06-18T16:52:01Z","duration":"PT29M8S","thumbnail":"https://i.ytimg.com/vi/Ot7c1LgCy-U/mqdefault.jpg","viewCount":"584","playlistId":"PLEkQk5xrP-tnl7vb7KeAoPd5ZlqKKW8KV","playlistName":"شرح كتاب بهجة النفوس أ.د . يسرى جبر","category":"متنوع"},{"id":"G3VvgUl2Bng","title":"حَولَ مُعْجِزَةِالإِسْرَاءِ والمِعْرَاج د.يسري جبر","publishedAt":"2016-04-30T06:54:41Z","duration":"PT47M8S","thumbnail":"https://i.ytimg.com/vi/G3VvgUl2Bng/mqdefault.jpg","viewCount":"584","playlistId":"PLEkQk5xrP-tlArtGpeLWaqNM7h7IDeAVC","playlistName":"خطب الجمعة أ.د. يسري جبر","category":"خطب"},{"id":"MlUhmkv9gZg","title":"117- شرح اللؤلؤ والمرجان كتاب الإمارة من أوله","publishedAt":"2020-04-11T20:00:02Z","duration":"PT18M37S","thumbnail":"https://i.ytimg.com/vi/MlUhmkv9gZg/mqdefault.jpg","viewCount":"583","playlistId":"PLEkQk5xrP-tmKNjtYLfhATC37QdIsTMe0","playlistName":"شرح كتاب اللؤلؤ والمرجان فيما اتفق عليه الشيخان إماما المحدثين البخاري ومسلم. أ.د. يسري جبر","category":"حديث"},{"id":"7hPXXzjtWJM","title":"شرح صحيح البخاري كتاب التفسير فى سورة حم (الأحقاف ) من باب ١","publishedAt":"2018-04-20T18:08:08Z","duration":"PT44M46S","thumbnail":"https://i.ytimg.com/vi/7hPXXzjtWJM/mqdefault.jpg","viewCount":"583","playlistId":"PLEkQk5xrP-tlEerGoLa1AFy-2XvQ-sovv","playlistName":"شرح صحيح البخاري - أ.د. يسري جبر (كاملا)","category":"حديث"},{"id":"t9ZX0BfqjDI","title":"المجلس الثامن عشر من الحديث (١٦٠) حديث إسراء النبي صلى الله عليه وآله وسلم ومعراجه أ. د. يسري جبر","publishedAt":"2019-05-13T15:44:52Z","duration":"PT31M49S","thumbnail":"https://i.ytimg.com/vi/t9ZX0BfqjDI/mqdefault.jpg","viewCount":"582","playlistId":"PLEkQk5xrP-tnl7vb7KeAoPd5ZlqKKW8KV","playlistName":"شرح كتاب بهجة النفوس أ.د . يسرى جبر","category":"متنوع"},{"id":"3VZnsE3uqgg","title":"شرح صحيح البخاري - كتاب المغازي تكملة  باب ٥٥","publishedAt":"2018-02-20T20:25:16Z","duration":"PT33M19S","thumbnail":"https://i.ytimg.com/vi/3VZnsE3uqgg/mqdefault.jpg","viewCount":"582","playlistId":"PLEkQk5xrP-tlEerGoLa1AFy-2XvQ-sovv","playlistName":"شرح صحيح البخاري - أ.د. يسري جبر (كاملا)","category":"حديث"},{"id":"w7IOmfMEKGw","title":"شرح صحيح البخاري - كتاب الجزية والموادعة من باب ٩","publishedAt":"2017-09-08T22:03:42Z","duration":"PT38M2S","thumbnail":"https://i.ytimg.com/vi/w7IOmfMEKGw/mqdefault.jpg","viewCount":"582","playlistId":"PLEkQk5xrP-tlEerGoLa1AFy-2XvQ-sovv","playlistName":"شرح صحيح البخاري - أ.د. يسري جبر (كاملا)","category":"حديث"},{"id":"W5k4JloVfAk","title":"( 130 ) حديث لا هجرة بعد الفتح - د. يسري جبر","publishedAt":"2017-06-14T10:33:10Z","duration":"PT29M56S","thumbnail":"https://i.ytimg.com/vi/W5k4JloVfAk/mqdefault.jpg","viewCount":"582","playlistId":"PLEkQk5xrP-tnl7vb7KeAoPd5ZlqKKW8KV","playlistName":"شرح كتاب بهجة النفوس أ.د . يسرى جبر","category":"متنوع"},{"id":"tR0eMdoBvKw","title":"سورة النساء آية 5","publishedAt":"2016-08-10T05:59:30Z","duration":"PT10M46S","thumbnail":"https://i.ytimg.com/vi/tR0eMdoBvKw/mqdefault.jpg","viewCount":"582","playlistId":"PLEkQk5xrP-tnmTYsyW6xNdyfhPq0Bhrhj","playlistName":"مقرأة الفجر - القُرْآنُ الكَرِيمُ - خَتْمَةُ التَّدَبُّرِ  أ.د. يسري جبر","category":"متنوع"},{"id":"-b0IkCYaHI4","title":"قراءة القرآن (من آية ١٤ سورة آل عمران)","publishedAt":"2016-06-06T23:27:27Z","duration":"PT16M56S","thumbnail":"https://i.ytimg.com/vi/-b0IkCYaHI4/mqdefault.jpg","viewCount":"582","playlistId":"PLEkQk5xrP-tnmTYsyW6xNdyfhPq0Bhrhj","playlistName":"مقرأة الفجر - القُرْآنُ الكَرِيمُ - خَتْمَةُ التَّدَبُّرِ  أ.د. يسري جبر","category":"متنوع"},{"id":"8fZvypl2xKE","title":"237- الإيجاز الجامع - شرح الإتقان في علوم القرآن","publishedAt":"2024-05-21T08:34:28Z","duration":"PT23M18S","thumbnail":"https://i.ytimg.com/vi/8fZvypl2xKE/mqdefault.jpg","viewCount":"581","playlistId":"PLEkQk5xrP-tlPw10KGJKagu7zm4Ry2Tge","playlistName":"شرح الإتقان في علوم القرآن","category":"تفسير"},{"id":"3a1DhC3QgWU","title":"شرح صحيح البخاري - كتاب الشهادات من باب ٥","publishedAt":"2017-06-21T18:34:54Z","duration":"PT20M47S","thumbnail":"https://i.ytimg.com/vi/3a1DhC3QgWU/mqdefault.jpg","viewCount":"581","playlistId":"PLEkQk5xrP-tlEerGoLa1AFy-2XvQ-sovv","playlistName":"شرح صحيح البخاري - أ.د. يسري جبر (كاملا)","category":"حديث"},{"id":"NODOQThT5oQ","title":"شرح صحيح البخاري - كتاب المكاتب","publishedAt":"2017-06-15T11:52:56Z","duration":"PT29M50S","thumbnail":"https://i.ytimg.com/vi/NODOQThT5oQ/mqdefault.jpg","viewCount":"581","playlistId":"PLEkQk5xrP-tlEerGoLa1AFy-2XvQ-sovv","playlistName":"شرح صحيح البخاري - أ.د. يسري جبر (كاملا)","category":"حديث"},{"id":"LDy1ZQIbEOg","title":"شرح صحيح البخاري - كتاب العتق من باب ١٥","publishedAt":"2017-06-14T11:54:22Z","duration":"PT32M47S","thumbnail":"https://i.ytimg.com/vi/LDy1ZQIbEOg/mqdefault.jpg","viewCount":"581","playlistId":"PLEkQk5xrP-tlEerGoLa1AFy-2XvQ-sovv","playlistName":"شرح صحيح البخاري - أ.د. يسري جبر (كاملا)","category":"حديث"},{"id":"0qg9itl3xTs","title":"سورة النساء آية 32","publishedAt":"2016-08-20T06:28:12Z","duration":"PT24M6S","thumbnail":"https://i.ytimg.com/vi/0qg9itl3xTs/mqdefault.jpg","viewCount":"581","playlistId":"PLEkQk5xrP-tnmTYsyW6xNdyfhPq0Bhrhj","playlistName":"مقرأة الفجر - القُرْآنُ الكَرِيمُ - خَتْمَةُ التَّدَبُّرِ  أ.د. يسري جبر","category":"متنوع"},{"id":"QimJT_ua9so","title":"483- حكم استعمال آنية الذهب الفضة في الأكل والشرب والطهارة وسائر وجوه الاستعمال - شرح دليل الفالحين","publishedAt":"2023-06-22T08:59:00Z","duration":"PT21M12S","thumbnail":"https://i.ytimg.com/vi/QimJT_ua9so/mqdefault.jpg","viewCount":"580","playlistId":"PLEkQk5xrP-tkc9DXvSLguqX5-FYp6ASR4","playlistName":"دليل الفالحين لطرق رياض الصالحين","category":"متنوع"},{"id":"v3ZlEcoy2b4","title":"90- غريب القرآن(5) - ما جاء في سورة النبأ - شرح الإتقان في علوم القرآن","publishedAt":"2023-06-03T05:00:31Z","duration":"PT25M31S","thumbnail":"https://i.ytimg.com/vi/v3ZlEcoy2b4/mqdefault.jpg","viewCount":"580","playlistId":"PLEkQk5xrP-tlPw10KGJKagu7zm4Ry2Tge","playlistName":"شرح الإتقان في علوم القرآن","category":"تفسير"},{"id":"cOD40Y2-sS8","title":"366- حكم مَن فَرَّقَ بيْنَ الصَّلَاةِ والزَّكَاةِ - شرح دليل الفالحين","publishedAt":"2022-12-26T09:00:16Z","duration":"PT34M35S","thumbnail":"https://i.ytimg.com/vi/cOD40Y2-sS8/mqdefault.jpg","viewCount":"580","playlistId":"PLEkQk5xrP-tkc9DXvSLguqX5-FYp6ASR4","playlistName":"دليل الفالحين لطرق رياض الصالحين","category":"متنوع"},{"id":"rW_g-i5Nepc","title":"33- شرح اللؤلؤ والمرجان كتاب المساجد ومواضع الصلاة من باب ٢٦","publishedAt":"2020-01-16T02:43:23Z","duration":"PT29M29S","thumbnail":"https://i.ytimg.com/vi/rW_g-i5Nepc/mqdefault.jpg","viewCount":"580","playlistId":"PLEkQk5xrP-tmKNjtYLfhATC37QdIsTMe0","playlistName":"شرح كتاب اللؤلؤ والمرجان فيما اتفق عليه الشيخان إماما المحدثين البخاري ومسلم. أ.د. يسري جبر","category":"حديث"},{"id":"ZjD3NuRycZE","title":"مقرأة سورة ق من آية ١٢","publishedAt":"2019-01-31T11:08:32Z","duration":"PT12M8S","thumbnail":"https://i.ytimg.com/vi/ZjD3NuRycZE/mqdefault.jpg","viewCount":"580","playlistId":"PLEkQk5xrP-tnmTYsyW6xNdyfhPq0Bhrhj","playlistName":"مقرأة الفجر - القُرْآنُ الكَرِيمُ - خَتْمَةُ التَّدَبُّرِ  أ.د. يسري جبر","category":"متنوع"},{"id":"fM8mWdrE4cQ","title":"شرح صحيح البخاري كتاب الدعوات من باب ٥","publishedAt":"2018-10-03T21:37:35Z","duration":"PT35M51S","thumbnail":"https://i.ytimg.com/vi/fM8mWdrE4cQ/mqdefault.jpg","viewCount":"580","playlistId":"PLEkQk5xrP-tlEerGoLa1AFy-2XvQ-sovv","playlistName":"شرح صحيح البخاري - أ.د. يسري جبر (كاملا)","category":"حديث"},{"id":"0UDjgHM18Ug","title":"255- التتميم - التكميل - الاستقصاء  - شرح الإتقان في علوم القرآن","publishedAt":"2024-09-20T06:29:56Z","duration":"PT27M14S","thumbnail":"https://i.ytimg.com/vi/0UDjgHM18Ug/mqdefault.jpg","viewCount":"579","playlistId":"PLEkQk5xrP-tlPw10KGJKagu7zm4Ry2Tge","playlistName":"شرح الإتقان في علوم القرآن","category":"تفسير"},{"id":"7Rqx7TXComc","title":"شرح البرهان في علوم القرآن - النوع ١١ - القول في القراءات السبع ٤","publishedAt":"2019-10-24T10:17:44Z","duration":"PT17M14S","thumbnail":"https://i.ytimg.com/vi/7Rqx7TXComc/mqdefault.jpg","viewCount":"579","playlistId":"PLEkQk5xrP-tnW3iBL7HkKziOFCFZbTlf0","playlistName":"شرح البرهان في علوم القرآن - أ.د. يسري جبر","category":"تفسير"},{"id":"uxVty-pri_c","title":"شرح صحيح البخاري كتاب الأدب من باب ٦٩","publishedAt":"2018-09-09T19:22:54Z","duration":"PT38M46S","thumbnail":"https://i.ytimg.com/vi/uxVty-pri_c/mqdefault.jpg","viewCount":"579","playlistId":"PLEkQk5xrP-tlEerGoLa1AFy-2XvQ-sovv","playlistName":"شرح صحيح البخاري - أ.د. يسري جبر (كاملا)","category":"حديث"}],"total":7675,"page":206,"pageSize":24,"totalPages":320}