{"items":[{"id":"QPyt_W26M0E","title":"الرد على تساؤلات الوهابية","publishedAt":"2021-08-26T17:15:01Z","duration":"PT12M42S","thumbnail":"https://i.ytimg.com/vi/QPyt_W26M0E/mqdefault.jpg","viewCount":"56152","playlistId":"PLEkQk5xrP-tkGXuZ9atE3k_7it12rUPTs","playlistName":"أسئلة المتابعين","category":"متنوع"},{"id":"dNfOGexBKiM","title":"ما أهمية العهد الصوفي في الكتاب والسنة؟","publishedAt":"2021-02-18T18:15:00Z","duration":"PT10M56S","thumbnail":"https://i.ytimg.com/vi/dNfOGexBKiM/mqdefault.jpg","viewCount":"55928","playlistId":"PLEkQk5xrP-tm8ZIu74nTOZN9KJUJu416J","playlistName":"مقاطع مُهمَّة (يُسريَّات) أ.د. يسري جبر","category":"متنوع"},{"id":"Fl-ZS6ZByZc","title":"كيف تكون من الصوفية؟ | ومن هو الصوفي؟","publishedAt":"2022-06-16T18:01:00Z","duration":"PT14M2S","thumbnail":"https://i.ytimg.com/vi/Fl-ZS6ZByZc/mqdefault.jpg","viewCount":"55522","playlistId":"PLEkQk5xrP-tm8ZIu74nTOZN9KJUJu416J","playlistName":"مقاطع مُهمَّة (يُسريَّات) أ.د. يسري جبر","category":"متنوع"},{"id":"N-MInFVrhPw","title":"الرد على من يشكك في عقيدة د.يسري جبر!","publishedAt":"2023-06-23T19:58:20Z","duration":"PT20M55S","thumbnail":"https://i.ytimg.com/vi/N-MInFVrhPw/mqdefault.jpg","viewCount":"54835","playlistId":"PLEkQk5xrP-tkGXuZ9atE3k_7it12rUPTs","playlistName":"أسئلة المتابعين","category":"متنوع"},{"id":"ewayINKQNns","title":"هل الله موجود في السماء؟","publishedAt":"2021-08-19T18:00:22Z","duration":"PT11M34S","thumbnail":"https://i.ytimg.com/vi/ewayINKQNns/mqdefault.jpg","viewCount":"54647","playlistId":"PLEkQk5xrP-tm8ZIu74nTOZN9KJUJu416J","playlistName":"مقاطع مُهمَّة (يُسريَّات) أ.د. يسري جبر","category":"متنوع"},{"id":"tQZ7ndCfiko","title":"نبذة عن عالم الخيال - د. يسري جبر","publishedAt":"2014-06-28T16:31:14Z","duration":"PT24M13S","thumbnail":"https://i.ytimg.com/vi/tQZ7ndCfiko/mqdefault.jpg","viewCount":"54408","playlistId":"PLEkQk5xrP-tm8ZIu74nTOZN9KJUJu416J","playlistName":"مقاطع مُهمَّة (يُسريَّات) أ.د. يسري جبر","category":"متنوع"},{"id":"XAD_FP-wuI4","title":"حكم ختان الإناث","publishedAt":"2021-03-30T20:00:06Z","duration":"PT8M23S","thumbnail":"https://i.ytimg.com/vi/XAD_FP-wuI4/mqdefault.jpg","viewCount":"54399","playlistId":"PLEkQk5xrP-tm8ZIu74nTOZN9KJUJu416J","playlistName":"مقاطع مُهمَّة (يُسريَّات) أ.د. يسري جبر","category":"متنوع"},{"id":"Wzc6TGj3HSU","title":"حُبُّ النَّبِِّى وَكَثْرةِ الصَلاةِ عليه تَنْزِعُ الدُنْيا مِنَ القُلُوبِ  د . يسرى جبر","publishedAt":"2016-01-10T20:50:51Z","duration":"PT4M38S","thumbnail":"https://i.ytimg.com/vi/Wzc6TGj3HSU/mqdefault.jpg","viewCount":"54277","playlistId":"PLEkQk5xrP-tm8ZIu74nTOZN9KJUJu416J","playlistName":"مقاطع مُهمَّة (يُسريَّات) أ.د. يسري جبر","category":"متنوع"},{"id":"ff0cuGAVzVk","title":"المجلس الأول من شرح الخريدة البهية","publishedAt":"2013-07-31T16:40:04Z","duration":"PT1H7M20S","thumbnail":"https://i.ytimg.com/vi/ff0cuGAVzVk/mqdefault.jpg","viewCount":"53953","playlistId":"PLEkQk5xrP-tnI6h_R1hvYgrrstFAJCvv9","playlistName":"شرح الخريدة البهية د. يسري جبر","category":"متنوع"},{"id":"SnlA-XRi4A8","title":"سبب دارستي للعلوم الدينية,, ونصيحة للمريدين في أول الطريق","publishedAt":"2021-07-09T18:45:01Z","duration":"PT15M38S","thumbnail":"https://i.ytimg.com/vi/SnlA-XRi4A8/mqdefault.jpg","viewCount":"53803","playlistId":"PLEkQk5xrP-tl6tFiMFGUucCTvLgnWyAfz","playlistName":"حياة الأستاذ الدكتور يسري جبر","category":"متنوع"},{"id":"nB6o_sEg9x8","title":"كيفية علاج الأمراض النفسية؟","publishedAt":"2023-02-11T18:00:19Z","duration":"PT11M37S","thumbnail":"https://i.ytimg.com/vi/nB6o_sEg9x8/mqdefault.jpg","viewCount":"53416","playlistId":"PLEkQk5xrP-tm8ZIu74nTOZN9KJUJu416J","playlistName":"مقاطع مُهمَّة (يُسريَّات) أ.د. يسري جبر","category":"متنوع"},{"id":"nyY4R9M_djs","title":"كتاب نوراليقين في سيرة سيد المرسلين المجلس الثاني زواج سيدنا عبد الله بسيدتنا آمنة وحملها د.يسري جبر","publishedAt":"2017-03-12T16:03:14Z","duration":"PT41M7S","thumbnail":"https://i.ytimg.com/vi/nyY4R9M_djs/mqdefault.jpg","viewCount":"53244","playlistId":"PLEkQk5xrP-tl2t4NQx1IhKnAJCMzF0Nli","playlistName":"شرح كتاب نور اليقين في سيرة سيد المرسلين   د. يسري جبر","category":"سيرة"},{"id":"pIVc5d95zvA","title":"كيف تتغلب على شهوة النفس؟","publishedAt":"2021-08-28T17:15:00Z","duration":"PT12M31S","thumbnail":"https://i.ytimg.com/vi/pIVc5d95zvA/mqdefault.jpg","viewCount":"53135","playlistId":"PLEkQk5xrP-tkGXuZ9atE3k_7it12rUPTs","playlistName":"أسئلة المتابعين","category":"متنوع"},{"id":"Mmx1MpNzyqs","title":"مقتطفات من الصلاة الكبرى لسيدي عبد القادر الجيلاني رضي الله عنه  أ.د. يسري جبر","publishedAt":"2019-10-20T19:33:31Z","duration":"PT35M22S","thumbnail":"https://i.ytimg.com/vi/Mmx1MpNzyqs/mqdefault.jpg","viewCount":"52998","playlistId":"PLEkQk5xrP-tknLQLcWmVVpecUHkbu7cHh","playlistName":"شرح صلوات مختارة على النبي صلى الله عليه وآله وسلم  أ.د. يسري جبر","category":"سيرة"},{"id":"YbRrrUckaVQ","title":"نَظْرَةُ النَّبِىِ صَلَّى اللهُ عَلَيهِ وآلِهِ وسَلِّم ( قَلَّ مَنْ نَبَّه عَلَيهَا ) - د. يسري جبر","publishedAt":"2015-03-08T20:42:05Z","duration":"PT9M26S","thumbnail":"https://i.ytimg.com/vi/YbRrrUckaVQ/mqdefault.jpg","viewCount":"51865","playlistId":"PLEkQk5xrP-tm8ZIu74nTOZN9KJUJu416J","playlistName":"مقاطع مُهمَّة (يُسريَّات) أ.د. يسري جبر","category":"متنوع"},{"id":"YAhNfWG06Ns","title":"كيف تعرف الشيخ المربي؟","publishedAt":"2023-08-27T18:00:23Z","duration":"PT1H10M2S","thumbnail":"https://i.ytimg.com/vi/YAhNfWG06Ns/mqdefault.jpg","viewCount":"51668","playlistId":"PLEkQk5xrP-tmJzNvLntpzW0uPanPzxA0c","playlistName":"لقاءات ومحاضرات","category":"متنوع"},{"id":"CU-0zkB4MzE","title":"وصف النبي صل الله عليه وسلم","publishedAt":"2012-05-27T07:53:47Z","duration":"PT2H22M28S","thumbnail":"https://i.ytimg.com/vi/CU-0zkB4MzE/mqdefault.jpg","viewCount":"51437","playlistId":"PLEkQk5xrP-tmJzNvLntpzW0uPanPzxA0c","playlistName":"لقاءات ومحاضرات","category":"متنوع"},{"id":"AyO5UXRtjSY","title":"هل والدي النبي ﷺ في الجنة أم في النار؟","publishedAt":"2021-02-24T19:38:31Z","duration":"PT10M32S","thumbnail":"https://i.ytimg.com/vi/AyO5UXRtjSY/mqdefault.jpg","viewCount":"51368","playlistId":"PLEkQk5xrP-tm8ZIu74nTOZN9KJUJu416J","playlistName":"مقاطع مُهمَّة (يُسريَّات) أ.د. يسري جبر","category":"متنوع"},{"id":"ruOT_pUF4wY","title":"هل رؤية النبي ﷺ يقظة ممكنة أم هلاوس؟","publishedAt":"2021-09-18T17:44:36Z","duration":"PT10M17S","thumbnail":"https://i.ytimg.com/vi/ruOT_pUF4wY/mqdefault.jpg","viewCount":"49530","playlistId":"PLEkQk5xrP-tkGXuZ9atE3k_7it12rUPTs","playlistName":"أسئلة المتابعين","category":"متنوع"},{"id":"Z5QPSibhzwk","title":"ما موقفك من معاوية بن أبي سفيان؟","publishedAt":"2021-08-30T19:08:43Z","duration":"PT11M40S","thumbnail":"https://i.ytimg.com/vi/Z5QPSibhzwk/mqdefault.jpg","viewCount":"49077","playlistId":"PLEkQk5xrP-tm8ZIu74nTOZN9KJUJu416J","playlistName":"مقاطع مُهمَّة (يُسريَّات) أ.د. يسري جبر","category":"متنوع"},{"id":"TUAdVewPxjk","title":"شرح كتاب دلائل الخيرات - المجلس الرابع | أ.د. يسري جبر","publishedAt":"2019-03-12T18:06:50Z","duration":"PT49M24S","thumbnail":"https://i.ytimg.com/vi/TUAdVewPxjk/mqdefault.jpg","viewCount":"48862","playlistId":"PLEkQk5xrP-tlAzcbIpuqjdFICW-knvTlR","playlistName":"شرح كتاب دلائل الخيرات وشوارق الأنوار","category":"متنوع"},{"id":"40Q6141zbDw","title":"ماذا بعد الموت؟","publishedAt":"2022-10-26T18:00:00Z","duration":"PT21M9S","thumbnail":"https://i.ytimg.com/vi/40Q6141zbDw/mqdefault.jpg","viewCount":"48574","playlistId":"PLEkQk5xrP-tlArtGpeLWaqNM7h7IDeAVC","playlistName":"خطب الجمعة أ.د. يسري جبر","category":"خطب"},{"id":"RokkzmzA5sQ","title":"ما تعليقك على صورة د.أسامة الأزهري المنتشرة؟ | دفاعًا عن علماء الأزهر","publishedAt":"2023-05-13T18:00:06Z","duration":"PT19M33S","thumbnail":"https://i.ytimg.com/vi/RokkzmzA5sQ/mqdefault.jpg","viewCount":"48075","playlistId":"PLEkQk5xrP-tm8ZIu74nTOZN9KJUJu416J","playlistName":"مقاطع مُهمَّة (يُسريَّات) أ.د. يسري جبر","category":"متنوع"},{"id":"src2EZoJt88","title":"!مشاكل العلاقات الزوجية,,  للكبار فقط","publishedAt":"2023-02-09T18:00:32Z","duration":"PT11M51S","thumbnail":"https://i.ytimg.com/vi/src2EZoJt88/mqdefault.jpg","viewCount":"47933","playlistId":"PLEkQk5xrP-tkGXuZ9atE3k_7it12rUPTs","playlistName":"أسئلة المتابعين","category":"متنوع"}],"total":7675,"page":4,"pageSize":24,"totalPages":320}