{"items":[{"id":"DRSvdDSVgcQ","title":"كم كان عمر النبي صلى الله عليه وسلم | اعرف نبيك","publishedAt":"2015-10-07T17:06:58Z","duration":"PT6M19S","thumbnail":"https://i.ytimg.com/vi/DRSvdDSVgcQ/mqdefault.jpg","viewCount":"70057","playlistId":"PLEkQk5xrP-tl6Mu_Mz3QMUSv5T6XBH-Dg","playlistName":"برنامج اعرف نبيك","category":"متنوع"},{"id":"b6MNH1ekDuk","title":"الفتوحات الربانية حول المعانى القرآنية - د. يسري جبر","publishedAt":"2014-09-29T19:49:21Z","duration":"PT24M20S","thumbnail":"https://i.ytimg.com/vi/b6MNH1ekDuk/mqdefault.jpg","viewCount":"68911","playlistId":"PLEkQk5xrP-tm8ZIu74nTOZN9KJUJu416J","playlistName":"مقاطع مُهمَّة (يُسريَّات) أ.د. يسري جبر","category":"متنوع"},{"id":"zBD-D5Oz8gg","title":"سيدي أبو الحسن الشاذلي | أ.د. يسري جبر","publishedAt":"2021-06-28T21:15:01Z","duration":"PT17M57S","thumbnail":"https://i.ytimg.com/vi/zBD-D5Oz8gg/mqdefault.jpg","viewCount":"68516","playlistId":"PLEkQk5xrP-tm8ZIu74nTOZN9KJUJu416J","playlistName":"مقاطع مُهمَّة (يُسريَّات) أ.د. يسري جبر","category":"متنوع"},{"id":"vX4QPFODldw","title":"كيف تحمي نفسك من الأفكار الوهابية؟","publishedAt":"2021-02-04T19:30:03Z","duration":"PT12M56S","thumbnail":"https://i.ytimg.com/vi/vX4QPFODldw/mqdefault.jpg","viewCount":"67457","playlistId":"PLEkQk5xrP-tm8ZIu74nTOZN9KJUJu416J","playlistName":"مقاطع مُهمَّة (يُسريَّات) أ.د. يسري جبر","category":"متنوع"},{"id":"TcqnEzDjyks","title":"قصة الدعاء اللي غير حياتي!","publishedAt":"2024-08-28T18:00:45Z","duration":"PT8M59S","thumbnail":"https://i.ytimg.com/vi/TcqnEzDjyks/mqdefault.jpg","viewCount":"67072","playlistId":"PLEkQk5xrP-tm8ZIu74nTOZN9KJUJu416J","playlistName":"مقاطع مُهمَّة (يُسريَّات) أ.د. يسري جبر","category":"متنوع"},{"id":"ChJ-PfHp0YE","title":"شرح كتاب الرسالة القشيرية - (المجلس الأول) د. يسري جبر","publishedAt":"2017-11-10T07:17:24Z","duration":"PT53M14S","thumbnail":"https://i.ytimg.com/vi/ChJ-PfHp0YE/mqdefault.jpg","viewCount":"65249","playlistId":"PLEkQk5xrP-tkHAGOwIKr4pc5ehhyQ5HMJ","playlistName":"كتاب الرسالة القشيرية (تصوف) - د. يسري جبر","category":"تصوف"},{"id":"6nQTGIbHX74","title":"تجارب حياتية من حياة الدكتور يسري جبر","publishedAt":"2021-06-09T19:14:36Z","duration":"PT16M36S","thumbnail":"https://i.ytimg.com/vi/6nQTGIbHX74/mqdefault.jpg","viewCount":"65157","playlistId":"PLEkQk5xrP-tm8ZIu74nTOZN9KJUJu416J","playlistName":"مقاطع مُهمَّة (يُسريَّات) أ.د. يسري جبر","category":"متنوع"},{"id":"e6-ZwqpmqJ0","title":"هل يجوز الترحم على غير المسلمين؟","publishedAt":"2022-05-13T19:00:39Z","duration":"PT15M57S","thumbnail":"https://i.ytimg.com/vi/e6-ZwqpmqJ0/mqdefault.jpg","viewCount":"64998","playlistId":"PLEkQk5xrP-tm8ZIu74nTOZN9KJUJu416J","playlistName":"مقاطع مُهمَّة (يُسريَّات) أ.د. يسري جبر","category":"متنوع"},{"id":"KQ0gxvXO5tE","title":"كيف أتخلص من الوسواس؟","publishedAt":"2021-02-16T20:20:37Z","duration":"PT13M31S","thumbnail":"https://i.ytimg.com/vi/KQ0gxvXO5tE/mqdefault.jpg","viewCount":"64975","playlistId":"PLEkQk5xrP-tm8ZIu74nTOZN9KJUJu416J","playlistName":"مقاطع مُهمَّة (يُسريَّات) أ.د. يسري جبر","category":"متنوع"},{"id":"cll9vq-m3yE","title":"ما معنى الجذب ومن هم المجاذيب؟","publishedAt":"2022-09-10T18:00:24Z","duration":"PT8M17S","thumbnail":"https://i.ytimg.com/vi/cll9vq-m3yE/mqdefault.jpg","viewCount":"64491","playlistId":"PLEkQk5xrP-tkGXuZ9atE3k_7it12rUPTs","playlistName":"أسئلة المتابعين","category":"متنوع"},{"id":"OsWCSlTvyD8","title":"كيف تفوض الأمر لله؟","publishedAt":"2020-10-11T18:35:57Z","duration":"PT14M26S","thumbnail":"https://i.ytimg.com/vi/OsWCSlTvyD8/mqdefault.jpg","viewCount":"63676","playlistId":"PLEkQk5xrP-tm8ZIu74nTOZN9KJUJu416J","playlistName":"مقاطع مُهمَّة (يُسريَّات) أ.د. يسري جبر","category":"متنوع"},{"id":"Bq_WZLu0kis","title":"قصة عَبَسَ وَتَوَلَّى وهل أعرض النَّبيّ ﷺ عن الأعمى؟","publishedAt":"2022-10-04T18:00:04Z","duration":"PT15M1S","thumbnail":"https://i.ytimg.com/vi/Bq_WZLu0kis/mqdefault.jpg","viewCount":"62977","playlistId":"PLEkQk5xrP-tlArtGpeLWaqNM7h7IDeAVC","playlistName":"خطب الجمعة أ.د. يسري جبر","category":"خطب"},{"id":"Jos96dmiEfk","title":"نبذة عن السيدة نفيسة رضي الله تعالى عنها    د. يسري جبر","publishedAt":"2017-03-12T15:30:28Z","duration":"PT29M9S","thumbnail":"https://i.ytimg.com/vi/Jos96dmiEfk/mqdefault.jpg","viewCount":"62466","playlistId":"PLEkQk5xrP-tlArtGpeLWaqNM7h7IDeAVC","playlistName":"خطب الجمعة أ.د. يسري جبر","category":"خطب"},{"id":"E_-X0XtbSpg","title":"كيف قابلت السيد عبد الله الصديق الغماري  والدكتور على جمعة؟","publishedAt":"2021-02-17T19:20:01Z","duration":"PT12M5S","thumbnail":"https://i.ytimg.com/vi/E_-X0XtbSpg/mqdefault.jpg","viewCount":"61871","playlistId":"PLEkQk5xrP-tm8ZIu74nTOZN9KJUJu416J","playlistName":"مقاطع مُهمَّة (يُسريَّات) أ.د. يسري جبر","category":"متنوع"},{"id":"b792bfIjD3I","title":"ما الحكمة التي خلقنا من أجلها؟","publishedAt":"2021-11-12T17:48:20Z","duration":"PT52M58S","thumbnail":"https://i.ytimg.com/vi/b792bfIjD3I/mqdefault.jpg","viewCount":"61302","playlistId":"PLEkQk5xrP-tlArtGpeLWaqNM7h7IDeAVC","playlistName":"خطب الجمعة أ.د. يسري جبر","category":"خطب"},{"id":"0cujUKajvNM","title":"أنا مش بعرف أكمل حاجة لأخرها وبفقد الأمل ,, فماذا أفعل؟","publishedAt":"2024-03-17T14:00:01Z","duration":"PT16M32S","thumbnail":"https://i.ytimg.com/vi/0cujUKajvNM/mqdefault.jpg","viewCount":"60142","playlistId":"PLEkQk5xrP-tm8ZIu74nTOZN9KJUJu416J","playlistName":"مقاطع مُهمَّة (يُسريَّات) أ.د. يسري جبر","category":"متنوع"},{"id":"DNe2ohGlRUo","title":"ما معنى كلمة مدد وغوث؟","publishedAt":"2015-04-25T19:31:25Z","duration":"PT13M56S","thumbnail":"https://i.ytimg.com/vi/DNe2ohGlRUo/mqdefault.jpg","viewCount":"59334","playlistId":"PLEkQk5xrP-tm8ZIu74nTOZN9KJUJu416J","playlistName":"مقاطع مُهمَّة (يُسريَّات) أ.د. يسري جبر","category":"متنوع"},{"id":"k0hRCESyyv4","title":"أنا بنت وتأخر زواجي فماذا أفعل وهل يوجد للبنت سعي في الزواج؟","publishedAt":"2024-03-14T18:00:30Z","duration":"PT13M8S","thumbnail":"https://i.ytimg.com/vi/k0hRCESyyv4/mqdefault.jpg","viewCount":"59077","playlistId":"PLEkQk5xrP-tkGXuZ9atE3k_7it12rUPTs","playlistName":"أسئلة المتابعين","category":"متنوع"},{"id":"Ehq4E3yreVg","title":"الأعمال المستحبة في شهر رجب","publishedAt":"2021-02-22T19:26:45Z","duration":"PT14M26S","thumbnail":"https://i.ytimg.com/vi/Ehq4E3yreVg/mqdefault.jpg","viewCount":"58808","playlistId":"PLEkQk5xrP-tlArtGpeLWaqNM7h7IDeAVC","playlistName":"خطب الجمعة أ.د. يسري جبر","category":"خطب"},{"id":"-lJG7_cho3o","title":"حكم زيارة الأضرحة والتبرك بها","publishedAt":"2021-07-26T19:30:01Z","duration":"PT12M9S","thumbnail":"https://i.ytimg.com/vi/-lJG7_cho3o/mqdefault.jpg","viewCount":"58333","playlistId":"PLEkQk5xrP-tm8ZIu74nTOZN9KJUJu416J","playlistName":"مقاطع مُهمَّة (يُسريَّات) أ.د. يسري جبر","category":"متنوع"},{"id":"FFJ8em6oCCk","title":"هل يَعْرِفُ الوَلِيُّ نَفْسَهُ  أ.د. يسري جبر","publishedAt":"2020-03-22T20:29:47Z","duration":"PT2M49S","thumbnail":"https://i.ytimg.com/vi/FFJ8em6oCCk/mqdefault.jpg","viewCount":"57306","playlistId":"PLEkQk5xrP-tm8ZIu74nTOZN9KJUJu416J","playlistName":"مقاطع مُهمَّة (يُسريَّات) أ.د. يسري جبر","category":"متنوع"},{"id":"8fyqx28hTW8","title":"لماذا يخبر الأولياء كراماتهم للناس؟","publishedAt":"2021-06-12T19:45:51Z","duration":"PT8M30S","thumbnail":"https://i.ytimg.com/vi/8fyqx28hTW8/mqdefault.jpg","viewCount":"57127","playlistId":"PLEkQk5xrP-tm8ZIu74nTOZN9KJUJu416J","playlistName":"مقاطع مُهمَّة (يُسريَّات) أ.د. يسري جبر","category":"متنوع"},{"id":"YbDIkHPa_4M","title":"شرح الصلاة النورانية لسيدي أحمد البدوي رضي الله عنه  أ.د. يسري جبر","publishedAt":"2019-09-08T17:44:30Z","duration":"PT18M1S","thumbnail":"https://i.ytimg.com/vi/YbDIkHPa_4M/mqdefault.jpg","viewCount":"56865","playlistId":"PLEkQk5xrP-tm8ZIu74nTOZN9KJUJu416J","playlistName":"مقاطع مُهمَّة (يُسريَّات) أ.د. يسري جبر","category":"متنوع"},{"id":"Gn-iak3IctI","title":"الرسالة القشيرية - المجلس (108) بَابُ كرامات الأولياء | أ.د. يسري جبر","publishedAt":"2022-01-18T18:43:35Z","duration":"PT45M22S","thumbnail":"https://i.ytimg.com/vi/Gn-iak3IctI/mqdefault.jpg","viewCount":"56430","playlistId":"PLEkQk5xrP-tkHAGOwIKr4pc5ehhyQ5HMJ","playlistName":"كتاب الرسالة القشيرية (تصوف) - د. يسري جبر","category":"تصوف"}],"total":7675,"page":3,"pageSize":24,"totalPages":320}