{"items":[{"id":"WxvDO8OsOQ4","title":"شرح صحيح البخاري كتاب المرضی من أوله","publishedAt":"2018-07-30T14:17:34Z","duration":"PT38M35S","thumbnail":"https://i.ytimg.com/vi/WxvDO8OsOQ4/mqdefault.jpg","viewCount":"513","playlistId":"PLEkQk5xrP-tlEerGoLa1AFy-2XvQ-sovv","playlistName":"شرح صحيح البخاري - أ.د. يسري جبر (كاملا)","category":"حديث"},{"id":"C9kseowR5E4","title":"شرح صحيح البخاري كتاب الأطعمة من باب ٣١","publishedAt":"2018-07-10T18:14:35Z","duration":"PT41M35S","thumbnail":"https://i.ytimg.com/vi/C9kseowR5E4/mqdefault.jpg","viewCount":"513","playlistId":"PLEkQk5xrP-tlEerGoLa1AFy-2XvQ-sovv","playlistName":"شرح صحيح البخاري - أ.د. يسري جبر (كاملا)","category":"حديث"},{"id":"pCndKHYjuzA","title":"شرح صحيح البخاري كتاب التفسير فى سورة القمر من باب ١","publishedAt":"2018-04-23T22:59:46Z","duration":"PT35M45S","thumbnail":"https://i.ytimg.com/vi/pCndKHYjuzA/mqdefault.jpg","viewCount":"513","playlistId":"PLEkQk5xrP-tlEerGoLa1AFy-2XvQ-sovv","playlistName":"شرح صحيح البخاري - أ.د. يسري جبر (كاملا)","category":"حديث"},{"id":"vU9OHGBsBJk","title":"شرح صحيح البخاري   كتاب المغازي من باب ٣٣","publishedAt":"2018-02-01T20:32:41Z","duration":"PT24M48S","thumbnail":"https://i.ytimg.com/vi/vU9OHGBsBJk/mqdefault.jpg","viewCount":"513","playlistId":"PLEkQk5xrP-tlEerGoLa1AFy-2XvQ-sovv","playlistName":"شرح صحيح البخاري - أ.د. يسري جبر (كاملا)","category":"حديث"},{"id":"16piMK-7szY","title":"شرح صحيح البخاري- كتاب أحاديث الأنبياء من باب ٥٣","publishedAt":"2017-10-19T16:13:21Z","duration":"PT27M39S","thumbnail":"https://i.ytimg.com/vi/16piMK-7szY/mqdefault.jpg","viewCount":"513","playlistId":"PLEkQk5xrP-tlEerGoLa1AFy-2XvQ-sovv","playlistName":"شرح صحيح البخاري - أ.د. يسري جبر (كاملا)","category":"حديث"},{"id":"_nIizd6DFzA","title":"سورة المائدة آية 101","publishedAt":"2016-11-23T12:47:36Z","duration":"PT14M4S","thumbnail":"https://i.ytimg.com/vi/_nIizd6DFzA/mqdefault.jpg","viewCount":"513","playlistId":"PLEkQk5xrP-tnmTYsyW6xNdyfhPq0Bhrhj","playlistName":"مقرأة الفجر - القُرْآنُ الكَرِيمُ - خَتْمَةُ التَّدَبُّرِ  أ.د. يسري جبر","category":"متنوع"},{"id":"Aiz-CnAREB8","title":"31- مَا تَجِبُ فِيهِ الزَّكَاةُ كتاب الزكاة ك الموطأ د يسري جبر الأزهري","publishedAt":"2016-10-26T10:57:12Z","duration":"PT1H12M20S","thumbnail":"https://i.ytimg.com/vi/Aiz-CnAREB8/mqdefault.jpg","viewCount":"513","playlistId":"PLEkQk5xrP-tnC6BRuqMjyO-484iqXeg0o","playlistName":"شرح كتاب الموطأ للإمام مالك","category":"متنوع"},{"id":"O3C02pfagF4","title":"الإحتفال بذكرى سيّد الأكوان صلى الله عليه وآله وسلم","publishedAt":"2015-01-03T07:15:05Z","duration":"PT42M1S","thumbnail":"https://i.ytimg.com/vi/O3C02pfagF4/mqdefault.jpg","viewCount":"513","playlistId":"PLEkQk5xrP-tlArtGpeLWaqNM7h7IDeAVC","playlistName":"خطب الجمعة أ.د. يسري جبر","category":"خطب"},{"id":"SVVCja6gGMM","title":"378- فريضة الحجّ - شرح دليل الفالحين","publishedAt":"2023-01-09T09:00:12Z","duration":"PT31M59S","thumbnail":"https://i.ytimg.com/vi/SVVCja6gGMM/mqdefault.jpg","viewCount":"512","playlistId":"PLEkQk5xrP-tkc9DXvSLguqX5-FYp6ASR4","playlistName":"دليل الفالحين لطرق رياض الصالحين","category":"متنوع"},{"id":"lM09dY-rIvo","title":"قواعد في النفي - شرح البرهان في علوم القرآن","publishedAt":"2022-01-07T23:01:20Z","duration":"PT16M32S","thumbnail":"https://i.ytimg.com/vi/lM09dY-rIvo/mqdefault.jpg","viewCount":"512","playlistId":"PLEkQk5xrP-tnW3iBL7HkKziOFCFZbTlf0","playlistName":"شرح البرهان في علوم القرآن - أ.د. يسري جبر","category":"تفسير"},{"id":"Tp8UQxNwci8","title":"مراعاة الإفراد - تكملة أنواع التقديم والتأخير(17) - شرح البرهان في علوم القرآن -","publishedAt":"2021-10-14T06:18:02Z","duration":"PT30M39S","thumbnail":"https://i.ytimg.com/vi/Tp8UQxNwci8/mqdefault.jpg","viewCount":"512","playlistId":"PLEkQk5xrP-tnW3iBL7HkKziOFCFZbTlf0","playlistName":"شرح البرهان في علوم القرآن - أ.د. يسري جبر","category":"تفسير"},{"id":"pDX15C9DmsU","title":"بدل البعض من كل، بدل الاشتمال - شرح البرهان في علوم القرآن.","publishedAt":"2021-03-04T07:06:20Z","duration":"PT26M51S","thumbnail":"https://i.ytimg.com/vi/pDX15C9DmsU/mqdefault.jpg","viewCount":"512","playlistId":"PLEkQk5xrP-tnW3iBL7HkKziOFCFZbTlf0","playlistName":"شرح البرهان في علوم القرآن - أ.د. يسري جبر","category":"تفسير"},{"id":"b_N96Tzhcl8","title":"سورة الذاريات من آية ٣٨","publishedAt":"2019-02-06T13:17:39Z","duration":"PT19M11S","thumbnail":"https://i.ytimg.com/vi/b_N96Tzhcl8/mqdefault.jpg","viewCount":"512","playlistId":"PLEkQk5xrP-tnmTYsyW6xNdyfhPq0Bhrhj","playlistName":"مقرأة الفجر - القُرْآنُ الكَرِيمُ - خَتْمَةُ التَّدَبُّرِ  أ.د. يسري جبر","category":"متنوع"},{"id":"6ga3JGviNNM","title":"شرح صحيح البخاري كتاب الدعوات من باب ١١","publishedAt":"2018-10-04T17:18:07Z","duration":"PT36M19S","thumbnail":"https://i.ytimg.com/vi/6ga3JGviNNM/mqdefault.jpg","viewCount":"512","playlistId":"PLEkQk5xrP-tlEerGoLa1AFy-2XvQ-sovv","playlistName":"شرح صحيح البخاري - أ.د. يسري جبر (كاملا)","category":"حديث"},{"id":"IttDs2ibA9I","title":"شرح صحيح البخاري كتاب الاستئذان من باب ٤٤","publishedAt":"2018-10-01T09:32:56Z","duration":"PT49M43S","thumbnail":"https://i.ytimg.com/vi/IttDs2ibA9I/mqdefault.jpg","viewCount":"512","playlistId":"PLEkQk5xrP-tlEerGoLa1AFy-2XvQ-sovv","playlistName":"شرح صحيح البخاري - أ.د. يسري جبر (كاملا)","category":"حديث"},{"id":"uaTC-EGJbWo","title":"شرح صحيح البخاري كتاب الأدب من باب ٩٤","publishedAt":"2018-09-17T09:13:17Z","duration":"PT43M2S","thumbnail":"https://i.ytimg.com/vi/uaTC-EGJbWo/mqdefault.jpg","viewCount":"512","playlistId":"PLEkQk5xrP-tlEerGoLa1AFy-2XvQ-sovv","playlistName":"شرح صحيح البخاري - أ.د. يسري جبر (كاملا)","category":"حديث"},{"id":"qeUrgGYLeQY","title":"شرح صحيح البخاري كتاب النفقات من باب ٥","publishedAt":"2018-07-01T23:09:41Z","duration":"PT39M5S","thumbnail":"https://i.ytimg.com/vi/qeUrgGYLeQY/mqdefault.jpg","viewCount":"512","playlistId":"PLEkQk5xrP-tlEerGoLa1AFy-2XvQ-sovv","playlistName":"شرح صحيح البخاري - أ.د. يسري جبر (كاملا)","category":"حديث"},{"id":"eHPz-SBT-0c","title":"شرح صحيح البخاري   كتاب المغازي من باب ٣٢","publishedAt":"2018-01-31T13:43:49Z","duration":"PT22M31S","thumbnail":"https://i.ytimg.com/vi/eHPz-SBT-0c/mqdefault.jpg","viewCount":"512","playlistId":"PLEkQk5xrP-tlEerGoLa1AFy-2XvQ-sovv","playlistName":"شرح صحيح البخاري - أ.د. يسري جبر (كاملا)","category":"حديث"},{"id":"848OtqTdwBg","title":"شرح صحيح البخاري - كتاب الوصايا من باب ٥","publishedAt":"2017-07-17T14:20:12Z","duration":"PT21M54S","thumbnail":"https://i.ytimg.com/vi/848OtqTdwBg/mqdefault.jpg","viewCount":"512","playlistId":"PLEkQk5xrP-tlEerGoLa1AFy-2XvQ-sovv","playlistName":"شرح صحيح البخاري - أ.د. يسري جبر (كاملا)","category":"حديث"},{"id":"iSlclklb_XI","title":"قراءة القرآن (من آية 53 سورة النور)","publishedAt":"2015-06-27T02:58:27Z","duration":"PT11M46S","thumbnail":"https://i.ytimg.com/vi/iSlclklb_XI/mqdefault.jpg","viewCount":"512","playlistId":"PLEkQk5xrP-tnUSUj0uyJhA-kwNC7Gkx_j","playlistName":"مقرأة الفجر - بداية من سورة الإسراء حتى سورة الناس","category":"تفسير"},{"id":"ILcRMYz4PZs","title":"مقرأة سورة نوح من آية ٣١","publishedAt":"2019-05-20T15:57:47Z","duration":"PT26M34S","thumbnail":"https://i.ytimg.com/vi/ILcRMYz4PZs/mqdefault.jpg","viewCount":"511","playlistId":"PLEkQk5xrP-tnmTYsyW6xNdyfhPq0Bhrhj","playlistName":"مقرأة الفجر - القُرْآنُ الكَرِيمُ - خَتْمَةُ التَّدَبُّرِ  أ.د. يسري جبر","category":"متنوع"},{"id":"dvxougby87g","title":"شرح صحيح البخاري كتاب الرقاق من باب ٤٧","publishedAt":"2018-11-03T07:38:06Z","duration":"PT33M5S","thumbnail":"https://i.ytimg.com/vi/dvxougby87g/mqdefault.jpg","viewCount":"511","playlistId":"PLEkQk5xrP-tlEerGoLa1AFy-2XvQ-sovv","playlistName":"شرح صحيح البخاري - أ.د. يسري جبر (كاملا)","category":"حديث"},{"id":"oOSHMar9iPI","title":"مقرأة سورة يس من آية ٤٦","publishedAt":"2018-09-05T11:16:43Z","duration":"PT13M41S","thumbnail":"https://i.ytimg.com/vi/oOSHMar9iPI/mqdefault.jpg","viewCount":"511","playlistId":"PLEkQk5xrP-tnmTYsyW6xNdyfhPq0Bhrhj","playlistName":"مقرأة الفجر - القُرْآنُ الكَرِيمُ - خَتْمَةُ التَّدَبُّرِ  أ.د. يسري جبر","category":"متنوع"},{"id":"JoGOCfJF_Us","title":"شرح صحيح البخاري كتاب التفسير فى سورة الملك من أولها","publishedAt":"2018-04-26T19:47:13Z","duration":"PT31M49S","thumbnail":"https://i.ytimg.com/vi/JoGOCfJF_Us/mqdefault.jpg","viewCount":"511","playlistId":"PLEkQk5xrP-tlEerGoLa1AFy-2XvQ-sovv","playlistName":"شرح صحيح البخاري - أ.د. يسري جبر (كاملا)","category":"حديث"}],"total":7675,"page":223,"pageSize":24,"totalPages":320}