{"items":[{"id":"6vU5bUDsT-M","title":"شرح صحيح الإمام البخاري رضي الله تعالى عنه - كتابُِ الأَحْكَامِ أ.د. يسري جبر","publishedAt":"2019-07-03T15:17:08Z","duration":"PT36M33S","thumbnail":"https://i.ytimg.com/vi/6vU5bUDsT-M/mqdefault.jpg","viewCount":"313","playlistId":"PLEkQk5xrP-tmJuzaj4GWRenFoFx9gdbFX","playlistName":"شرح كتاب صحيح الإمام البخاري رضي الله تعالى عنه   أ.د. يسرى جبر","category":"حديث"},{"id":"wIXKjiKopdg","title":"مقرأة سورة الأحزاب من ٱية ٢٢","publishedAt":"2018-07-22T17:11:53Z","duration":"PT16M11S","thumbnail":"https://i.ytimg.com/vi/wIXKjiKopdg/mqdefault.jpg","viewCount":"313","playlistId":"PLEkQk5xrP-tnmTYsyW6xNdyfhPq0Bhrhj","playlistName":"مقرأة الفجر - القُرْآنُ الكَرِيمُ - خَتْمَةُ التَّدَبُّرِ  أ.د. يسري جبر","category":"متنوع"},{"id":"yFe5mYdDp8o","title":"مقرأة سورة العنكبوت من آية ١٢","publishedAt":"2018-06-05T11:14:17Z","duration":"PT8M51S","thumbnail":"https://i.ytimg.com/vi/yFe5mYdDp8o/mqdefault.jpg","viewCount":"313","playlistId":"PLEkQk5xrP-tnmTYsyW6xNdyfhPq0Bhrhj","playlistName":"مقرأة الفجر - القُرْآنُ الكَرِيمُ - خَتْمَةُ التَّدَبُّرِ  أ.د. يسري جبر","category":"متنوع"},{"id":"WbJvR8L-IWg","title":"مقرأة سورة النحل من آية ٣٨","publishedAt":"2017-08-21T11:12:25Z","duration":"PT11M32S","thumbnail":"https://i.ytimg.com/vi/WbJvR8L-IWg/mqdefault.jpg","viewCount":"313","playlistId":"PLEkQk5xrP-tnmTYsyW6xNdyfhPq0Bhrhj","playlistName":"مقرأة الفجر - القُرْآنُ الكَرِيمُ - خَتْمَةُ التَّدَبُّرِ  أ.د. يسري جبر","category":"متنوع"},{"id":"t19-GmvQqCU","title":"شرح كتاب الأذكار من كلام سيد الأبرار للإمام النووى رضى الله عنه - المجلس الثاني والأربعون","publishedAt":"2016-06-04T19:22:46Z","duration":"PT12M22S","thumbnail":"https://i.ytimg.com/vi/t19-GmvQqCU/mqdefault.jpg","viewCount":"313","playlistId":"PLEkQk5xrP-tkWS57Ubysh0ifJR8dmuEtE","playlistName":"شرح كتاب الأذكار للإمام النووي د. يسرى جبر","category":"حديث"},{"id":"Zssc6IS69n0","title":"شرح سنن الدارمي كتاب الصوم من باب ١٨","publishedAt":"2019-06-16T00:04:47Z","duration":"PT22M47S","thumbnail":"https://i.ytimg.com/vi/Zssc6IS69n0/mqdefault.jpg","viewCount":"312","playlistId":"PLEkQk5xrP-tmAg-FuWjY057X_h5NmGmAa","playlistName":"شرح سنن الدارمي - أ.د. يسري جبر (كاملا)","category":"متنوع"},{"id":"rNNsflSrUfQ","title":"شرح سنن الدارمي كتاب الطهارة من باب ٩٩","publishedAt":"2019-04-18T11:42:03Z","duration":"PT27M10S","thumbnail":"https://i.ytimg.com/vi/rNNsflSrUfQ/mqdefault.jpg","viewCount":"312","playlistId":"PLEkQk5xrP-tmAg-FuWjY057X_h5NmGmAa","playlistName":"شرح سنن الدارمي - أ.د. يسري جبر (كاملا)","category":"متنوع"},{"id":"U1NuJAFeA2s","title":"مقرأة سورة سبأ من آية ٤٧","publishedAt":"2018-08-18T14:11:22Z","duration":"PT27M34S","thumbnail":"https://i.ytimg.com/vi/U1NuJAFeA2s/mqdefault.jpg","viewCount":"312","playlistId":"PLEkQk5xrP-tnmTYsyW6xNdyfhPq0Bhrhj","playlistName":"مقرأة الفجر - القُرْآنُ الكَرِيمُ - خَتْمَةُ التَّدَبُّرِ  أ.د. يسري جبر","category":"متنوع"},{"id":"7mWMrimsXsQ","title":"مقرأة سورة هود من آية ٩٦","publishedAt":"2017-06-19T11:26:24Z","duration":"PT27M8S","thumbnail":"https://i.ytimg.com/vi/7mWMrimsXsQ/mqdefault.jpg","viewCount":"312","playlistId":"PLEkQk5xrP-tnmTYsyW6xNdyfhPq0Bhrhj","playlistName":"مقرأة الفجر - القُرْآنُ الكَرِيمُ - خَتْمَةُ التَّدَبُّرِ  أ.د. يسري جبر","category":"متنوع"},{"id":"k8-FJVaoYWQ","title":"شرح البرهان في علوم القرآن - النوع ٢٩ - فصل في ختم القرأن","publishedAt":"2020-02-10T06:00:06Z","duration":"PT17M46S","thumbnail":"https://i.ytimg.com/vi/k8-FJVaoYWQ/mqdefault.jpg","viewCount":"311","playlistId":"PLEkQk5xrP-tnW3iBL7HkKziOFCFZbTlf0","playlistName":"شرح البرهان في علوم القرآن - أ.د. يسري جبر","category":"تفسير"},{"id":"q6SLdv55ilQ","title":"شرح البرهان في علوم القرآن - النوع ٢٥ - علم مرسوم الخط (الناقص وأقسامه : حذف الألف)","publishedAt":"2020-01-15T09:59:04Z","duration":"PT21M29S","thumbnail":"https://i.ytimg.com/vi/q6SLdv55ilQ/mqdefault.jpg","viewCount":"311","playlistId":"PLEkQk5xrP-tnW3iBL7HkKziOFCFZbTlf0","playlistName":"شرح البرهان في علوم القرآن - أ.د. يسري جبر","category":"تفسير"},{"id":"H2OOtAjS1Gs","title":"شرح صحيح الإمام البخاري رضي الله تعالى عنه - كتابُ التَّمَنِّي أ.د. يسري جبر","publishedAt":"2019-10-22T09:11:41Z","duration":"PT30M19S","thumbnail":"https://i.ytimg.com/vi/H2OOtAjS1Gs/mqdefault.jpg","viewCount":"311","playlistId":"PLEkQk5xrP-tmJuzaj4GWRenFoFx9gdbFX","playlistName":"شرح كتاب صحيح الإمام البخاري رضي الله تعالى عنه   أ.د. يسرى جبر","category":"حديث"},{"id":"zQdjh27Zob0","title":"شرح سنن الدارمي كتاب الحدود من باب ٧","publishedAt":"2019-08-17T17:09:43Z","duration":"PT30M41S","thumbnail":"https://i.ytimg.com/vi/zQdjh27Zob0/mqdefault.jpg","viewCount":"311","playlistId":"PLEkQk5xrP-tmAg-FuWjY057X_h5NmGmAa","playlistName":"شرح سنن الدارمي - أ.د. يسري جبر (كاملا)","category":"متنوع"},{"id":"HgUT6BttMSk","title":"شرح سنن الدارمي كتاب الصلاة من باب ١٧٥","publishedAt":"2019-05-23T00:08:24Z","duration":"PT20M19S","thumbnail":"https://i.ytimg.com/vi/HgUT6BttMSk/mqdefault.jpg","viewCount":"311","playlistId":"PLEkQk5xrP-tmAg-FuWjY057X_h5NmGmAa","playlistName":"شرح سنن الدارمي - أ.د. يسري جبر (كاملا)","category":"متنوع"},{"id":"S8bT9NjqUak","title":"مقرأة سورة الأحزاب من ٱية ١٨","publishedAt":"2018-07-21T14:04:35Z","duration":"PT12M44S","thumbnail":"https://i.ytimg.com/vi/S8bT9NjqUak/mqdefault.jpg","viewCount":"311","playlistId":"PLEkQk5xrP-tnmTYsyW6xNdyfhPq0Bhrhj","playlistName":"مقرأة الفجر - القُرْآنُ الكَرِيمُ - خَتْمَةُ التَّدَبُّرِ  أ.د. يسري جبر","category":"متنوع"},{"id":"Q12lbrR8AuQ","title":"مقرأة سورة الروم من آية ١١","publishedAt":"2018-06-18T12:41:54Z","duration":"PT18M54S","thumbnail":"https://i.ytimg.com/vi/Q12lbrR8AuQ/mqdefault.jpg","viewCount":"311","playlistId":"PLEkQk5xrP-tnmTYsyW6xNdyfhPq0Bhrhj","playlistName":"مقرأة الفجر - القُرْآنُ الكَرِيمُ - خَتْمَةُ التَّدَبُّرِ  أ.د. يسري جبر","category":"متنوع"},{"id":"kvTsNcnr7YA","title":"مقرأة سورة إبراهيم من آية ١٠","publishedAt":"2017-07-29T16:28:45Z","duration":"PT16M47S","thumbnail":"https://i.ytimg.com/vi/kvTsNcnr7YA/mqdefault.jpg","viewCount":"311","playlistId":"PLEkQk5xrP-tnmTYsyW6xNdyfhPq0Bhrhj","playlistName":"مقرأة الفجر - القُرْآنُ الكَرِيمُ - خَتْمَةُ التَّدَبُّرِ  أ.د. يسري جبر","category":"متنوع"},{"id":"3p9VtRcaJ3U","title":"مقرأة سورة يونس من آية ٢٦","publishedAt":"2017-05-12T06:11:49Z","duration":"PT14M13S","thumbnail":"https://i.ytimg.com/vi/3p9VtRcaJ3U/mqdefault.jpg","viewCount":"311","playlistId":"PLEkQk5xrP-tnmTYsyW6xNdyfhPq0Bhrhj","playlistName":"مقرأة الفجر - القُرْآنُ الكَرِيمُ - خَتْمَةُ التَّدَبُّرِ  أ.د. يسري جبر","category":"متنوع"},{"id":"fexKlLJd5Hs","title":"603- (لا) الزائدة - شرح البرهان في علوم القرآن","publishedAt":"2022-11-25T05:00:16Z","duration":"PT24M45S","thumbnail":"https://i.ytimg.com/vi/fexKlLJd5Hs/mqdefault.jpg","viewCount":"310","playlistId":"PLEkQk5xrP-tnW3iBL7HkKziOFCFZbTlf0","playlistName":"شرح البرهان في علوم القرآن - أ.د. يسري جبر","category":"تفسير"},{"id":"QSJcd4taPE0","title":"شرح سنن الدارمي كتاب الصلاة من باب ٧٠","publishedAt":"2019-05-08T00:31:57Z","duration":"PT35M9S","thumbnail":"https://i.ytimg.com/vi/QSJcd4taPE0/mqdefault.jpg","viewCount":"310","playlistId":"PLEkQk5xrP-tmAg-FuWjY057X_h5NmGmAa","playlistName":"شرح سنن الدارمي - أ.د. يسري جبر (كاملا)","category":"متنوع"},{"id":"jUj0EXLPezE","title":"مقرأة سورة الشورى من آية ٤٤","publishedAt":"2018-12-08T12:44:26Z","duration":"PT19M9S","thumbnail":"https://i.ytimg.com/vi/jUj0EXLPezE/mqdefault.jpg","viewCount":"310","playlistId":"PLEkQk5xrP-tnmTYsyW6xNdyfhPq0Bhrhj","playlistName":"مقرأة الفجر - القُرْآنُ الكَرِيمُ - خَتْمَةُ التَّدَبُّرِ  أ.د. يسري جبر","category":"متنوع"},{"id":"iFMZeOTfkMU","title":"مقرأة سورة العنكبوت من آية ٦٥","publishedAt":"2018-06-15T08:34:43Z","duration":"PT11M55S","thumbnail":"https://i.ytimg.com/vi/iFMZeOTfkMU/mqdefault.jpg","viewCount":"310","playlistId":"PLEkQk5xrP-tnmTYsyW6xNdyfhPq0Bhrhj","playlistName":"مقرأة الفجر - القُرْآنُ الكَرِيمُ - خَتْمَةُ التَّدَبُّرِ  أ.د. يسري جبر","category":"متنوع"},{"id":"zgb_e44hkL0","title":"مقرأة سورة النور من آية ١٩","publishedAt":"2018-03-12T11:17:21Z","duration":"PT12M31S","thumbnail":"https://i.ytimg.com/vi/zgb_e44hkL0/mqdefault.jpg","viewCount":"310","playlistId":"PLEkQk5xrP-tnmTYsyW6xNdyfhPq0Bhrhj","playlistName":"مقرأة الفجر - القُرْآنُ الكَرِيمُ - خَتْمَةُ التَّدَبُّرِ  أ.د. يسري جبر","category":"متنوع"},{"id":"YQuTBcWnImQ","title":"شرح صحيح الإمام البخاري رضي الله عنه -  كتاب الرقاق (بابٌ في الأمل وطوله) المجلس الثاني د.يسري جبر","publishedAt":"2017-08-01T02:33:53Z","duration":"PT1H13M49S","thumbnail":"https://i.ytimg.com/vi/YQuTBcWnImQ/mqdefault.jpg","viewCount":"310","playlistId":"PLEkQk5xrP-tmJuzaj4GWRenFoFx9gdbFX","playlistName":"شرح كتاب صحيح الإمام البخاري رضي الله تعالى عنه   أ.د. يسرى جبر","category":"حديث"}],"total":7675,"page":282,"pageSize":24,"totalPages":320}