{"items":[{"id":"ex2Z-NtJ2Lc","title":"شرح صحيح البخاري كتاب الحيل من أوله","publishedAt":"2018-12-16T20:09:09Z","duration":"PT39M42S","thumbnail":"https://i.ytimg.com/vi/ex2Z-NtJ2Lc/mqdefault.jpg","viewCount":"664","playlistId":"PLEkQk5xrP-tlEerGoLa1AFy-2XvQ-sovv","playlistName":"شرح صحيح البخاري - أ.د. يسري جبر (كاملا)","category":"حديث"},{"id":"dmoCTi5A1xg","title":"15- التَّرْغِيبِ فِى الصَّلاَةِ فِى رَمَضَانَ ك الصلاة فى رمضان ك الموطأ د يسري جبر الأزهري","publishedAt":"2016-05-23T12:17:24Z","duration":"PT57M14S","thumbnail":"https://i.ytimg.com/vi/dmoCTi5A1xg/mqdefault.jpg","viewCount":"663","playlistId":"PLEkQk5xrP-tnC6BRuqMjyO-484iqXeg0o","playlistName":"شرح كتاب الموطأ للإمام مالك","category":"متنوع"},{"id":"_g4WM0wK4q0","title":"133- غزوة أحد - شرح مسند الإمام أحمد رضي الله تعالى عنه","publishedAt":"2024-11-01T06:00:17Z","duration":"PT24M54S","thumbnail":"https://i.ytimg.com/vi/_g4WM0wK4q0/mqdefault.jpg","viewCount":"662","playlistId":"PLEkQk5xrP-tkKprIuGrSdEuBSMsyg5We1","playlistName":"شرح مسند الإمام أحمد بن حنبل","category":"متنوع"},{"id":"30Ys_kL72Cc","title":"186- قاعدة أخرى في التعريف والتنكير - شرح الإتقان في علوم القرآن","publishedAt":"2023-12-20T07:13:00Z","duration":"PT35M11S","thumbnail":"https://i.ytimg.com/vi/30Ys_kL72Cc/mqdefault.jpg","viewCount":"662","playlistId":"PLEkQk5xrP-tlPw10KGJKagu7zm4Ry2Tge","playlistName":"شرح الإتقان في علوم القرآن","category":"تفسير"},{"id":"l8qrtDigB_s","title":"شرح صحيح البخاري- كتاب المناقب من باب ٣","publishedAt":"2017-10-26T15:54:54Z","duration":"PT33M55S","thumbnail":"https://i.ytimg.com/vi/l8qrtDigB_s/mqdefault.jpg","viewCount":"662","playlistId":"PLEkQk5xrP-tlEerGoLa1AFy-2XvQ-sovv","playlistName":"شرح صحيح البخاري - أ.د. يسري جبر (كاملا)","category":"حديث"},{"id":"k5zL5BEDL_o","title":"الإسلام ثمانية أسهم | اعرف نبيك في رمضان","publishedAt":"2016-06-14T19:42:55Z","duration":"PT7M6S","thumbnail":"https://i.ytimg.com/vi/k5zL5BEDL_o/mqdefault.jpg","viewCount":"662","playlistId":"PLEkQk5xrP-tmhJ_gpAAFyOpEsHp0_VAJ-","playlistName":"برنامج اعرف نبيك في رمضان","category":"متنوع"},{"id":"35UQI5PuvPU","title":"224- فصلٌ في أنواع مختلف في عدها من المجاز - شرح الإتقان في علوم القرآن","publishedAt":"2024-04-15T06:00:01Z","duration":"PT25M17S","thumbnail":"https://i.ytimg.com/vi/35UQI5PuvPU/mqdefault.jpg","viewCount":"661","playlistId":"PLEkQk5xrP-tlPw10KGJKagu7zm4Ry2Tge","playlistName":"شرح الإتقان في علوم القرآن","category":"تفسير"},{"id":"VfxBPxsM44Y","title":"149- معنى (كاد) - شرح الإتقان في علوم القرآن","publishedAt":"2023-09-16T05:15:01Z","duration":"PT11M1S","thumbnail":"https://i.ytimg.com/vi/VfxBPxsM44Y/mqdefault.jpg","viewCount":"661","playlistId":"PLEkQk5xrP-tlPw10KGJKagu7zm4Ry2Tge","playlistName":"شرح الإتقان في علوم القرآن","category":"تفسير"},{"id":"I-m5QAPwBtA","title":"318- فضلُ مَن ماتَ له أولادٌ صِغار - شرح دليل الفالحين","publishedAt":"2022-10-24T09:00:17Z","duration":"PT43M10S","thumbnail":"https://i.ytimg.com/vi/I-m5QAPwBtA/mqdefault.jpg","viewCount":"661","playlistId":"PLEkQk5xrP-tkc9DXvSLguqX5-FYp6ASR4","playlistName":"دليل الفالحين لطرق رياض الصالحين","category":"متنوع"},{"id":"teN58emlNpo","title":"138- الإنفاقُ ممّا يُحِبُّ ومِنَ الجيِّد - شرح دليل الفالحين","publishedAt":"2021-10-10T05:59:16Z","duration":"PT40M59S","thumbnail":"https://i.ytimg.com/vi/teN58emlNpo/mqdefault.jpg","viewCount":"661","playlistId":"PLEkQk5xrP-tkc9DXvSLguqX5-FYp6ASR4","playlistName":"دليل الفالحين لطرق رياض الصالحين","category":"متنوع"},{"id":"NIY_HRzbT70","title":"شرح سنن الدارمي كتاب فضائل القرآن من أوله","publishedAt":"2019-11-18T04:01:47Z","duration":"PT36M6S","thumbnail":"https://i.ytimg.com/vi/NIY_HRzbT70/mqdefault.jpg","viewCount":"661","playlistId":"PLEkQk5xrP-tmAg-FuWjY057X_h5NmGmAa","playlistName":"شرح سنن الدارمي - أ.د. يسري جبر (كاملا)","category":"متنوع"},{"id":"1mLMR9GbjiI","title":"مقرأة سورة الأحزاب من أولها","publishedAt":"2018-07-16T11:19:03Z","duration":"PT16M58S","thumbnail":"https://i.ytimg.com/vi/1mLMR9GbjiI/mqdefault.jpg","viewCount":"661","playlistId":"PLEkQk5xrP-tnmTYsyW6xNdyfhPq0Bhrhj","playlistName":"مقرأة الفجر - القُرْآنُ الكَرِيمُ - خَتْمَةُ التَّدَبُّرِ  أ.د. يسري جبر","category":"متنوع"},{"id":"eyUD0GfPsnU","title":"شرح صحيح البخاري كتاب فضائل القرآن من باب ٤","publishedAt":"2018-05-07T12:13:28Z","duration":"PT27M43S","thumbnail":"https://i.ytimg.com/vi/eyUD0GfPsnU/mqdefault.jpg","viewCount":"660","playlistId":"PLEkQk5xrP-tlEerGoLa1AFy-2XvQ-sovv","playlistName":"شرح صحيح البخاري - أ.د. يسري جبر (كاملا)","category":"حديث"},{"id":"z58G2WlBeXU","title":"مقرأة سورة الحج من آية ٦٦","publishedAt":"2018-02-16T07:23:50Z","duration":"PT12M18S","thumbnail":"https://i.ytimg.com/vi/z58G2WlBeXU/mqdefault.jpg","viewCount":"660","playlistId":"PLEkQk5xrP-tnmTYsyW6xNdyfhPq0Bhrhj","playlistName":"مقرأة الفجر - القُرْآنُ الكَرِيمُ - خَتْمَةُ التَّدَبُّرِ  أ.د. يسري جبر","category":"متنوع"},{"id":"w0_sMITcKC4","title":"163- النهي عن قتل أربع من الدواب - شرح مسند الإمام أحمد رضي الله تعالى عنه","publishedAt":"2025-07-20T08:01:09Z","duration":"PT32M41S","thumbnail":"https://i.ytimg.com/vi/w0_sMITcKC4/mqdefault.jpg","viewCount":"659","playlistId":"PLEkQk5xrP-tkKprIuGrSdEuBSMsyg5We1","playlistName":"شرح مسند الإمام أحمد بن حنبل","category":"متنوع"},{"id":"YIIELKp66TE","title":"235- ما الفرق بين الحصر والاختصاص؟ - شرح الإتقان في علوم القرآن","publishedAt":"2024-05-13T05:00:16Z","duration":"PT28M25S","thumbnail":"https://i.ytimg.com/vi/YIIELKp66TE/mqdefault.jpg","viewCount":"659","playlistId":"PLEkQk5xrP-tlPw10KGJKagu7zm4Ry2Tge","playlistName":"شرح الإتقان في علوم القرآن","category":"تفسير"},{"id":"ABR3jd9fEQE","title":"218- المنطوق والمفهوم - شرح الإتقان في علوم القرآن","publishedAt":"2024-03-19T06:30:04Z","duration":"PT41M19S","thumbnail":"https://i.ytimg.com/vi/ABR3jd9fEQE/mqdefault.jpg","viewCount":"659","playlistId":"PLEkQk5xrP-tlPw10KGJKagu7zm4Ry2Tge","playlistName":"شرح الإتقان في علوم القرآن","category":"تفسير"},{"id":"LemzuVdlzMs","title":"189- قاعدةٌ: مقابلة الجمع بالجمع - شرح الإتقان في علوم القرآن","publishedAt":"2023-12-26T07:00:12Z","duration":"PT40M17S","thumbnail":"https://i.ytimg.com/vi/LemzuVdlzMs/mqdefault.jpg","viewCount":"659","playlistId":"PLEkQk5xrP-tlPw10KGJKagu7zm4Ry2Tge","playlistName":"شرح الإتقان في علوم القرآن","category":"تفسير"},{"id":"Jufj905UDFo","title":"117- معاني كلمة (إذ) - شرح الإتقان في علوم القرآن","publishedAt":"2023-07-04T05:00:06Z","duration":"PT32M5S","thumbnail":"https://i.ytimg.com/vi/Jufj905UDFo/mqdefault.jpg","viewCount":"659","playlistId":"PLEkQk5xrP-tlPw10KGJKagu7zm4Ry2Tge","playlistName":"شرح الإتقان في علوم القرآن","category":"تفسير"},{"id":"t3QMgKf4JqU","title":"390- سِياحةَ أُمَّتي الجِهادُ في سبيلِ اللَّه عزَّ وجلَّ - شرح دليل الفالحين","publishedAt":"2023-01-24T05:00:31Z","duration":"PT36M46S","thumbnail":"https://i.ytimg.com/vi/t3QMgKf4JqU/mqdefault.jpg","viewCount":"659","playlistId":"PLEkQk5xrP-tkc9DXvSLguqX5-FYp6ASR4","playlistName":"دليل الفالحين لطرق رياض الصالحين","category":"متنوع"},{"id":"K7foAwLzvBw","title":"شرح صحيح البخاري - كتاب الشروط من باب ١٤","publishedAt":"2017-07-08T17:37:10Z","duration":"PT45M9S","thumbnail":"https://i.ytimg.com/vi/K7foAwLzvBw/mqdefault.jpg","viewCount":"659","playlistId":"PLEkQk5xrP-tlEerGoLa1AFy-2XvQ-sovv","playlistName":"شرح صحيح البخاري - أ.د. يسري جبر (كاملا)","category":"حديث"},{"id":"z6IJJSEC5Is","title":"( 123 ) حديث صلح الحديبية د. يسري جبر","publishedAt":"2017-06-05T15:03:52Z","duration":"PT34M10S","thumbnail":"https://i.ytimg.com/vi/z6IJJSEC5Is/mqdefault.jpg","viewCount":"659","playlistId":"PLEkQk5xrP-tnl7vb7KeAoPd5ZlqKKW8KV","playlistName":"شرح كتاب بهجة النفوس أ.د . يسرى جبر","category":"متنوع"},{"id":"2R9O5XVyJBU","title":"سورة الأعراف آية ١٠","publishedAt":"2017-02-03T15:29:36Z","duration":"PT28M48S","thumbnail":"https://i.ytimg.com/vi/2R9O5XVyJBU/mqdefault.jpg","viewCount":"659","playlistId":"PLEkQk5xrP-tnmTYsyW6xNdyfhPq0Bhrhj","playlistName":"مقرأة الفجر - القُرْآنُ الكَرِيمُ - خَتْمَةُ التَّدَبُّرِ  أ.د. يسري جبر","category":"متنوع"},{"id":"X1NUbcJD5co","title":"مقرأة سورة الفجر من آية ١٥","publishedAt":"2019-07-18T11:03:08Z","duration":"PT23M1S","thumbnail":"https://i.ytimg.com/vi/X1NUbcJD5co/mqdefault.jpg","viewCount":"658","playlistId":"PLEkQk5xrP-tnmTYsyW6xNdyfhPq0Bhrhj","playlistName":"مقرأة الفجر - القُرْآنُ الكَرِيمُ - خَتْمَةُ التَّدَبُّرِ  أ.د. يسري جبر","category":"متنوع"}],"total":7675,"page":192,"pageSize":24,"totalPages":320}