{"items":[{"id":"4hecIOB6pwI","title":"مجيب قبل الطلب مفضال بلا سبب","publishedAt":"2020-06-06T16:19:03Z","duration":"PT8M39S","thumbnail":"https://i.ytimg.com/vi/4hecIOB6pwI/mqdefault.jpg","viewCount":"4551","playlistId":"PLEkQk5xrP-tm8ZIu74nTOZN9KJUJu416J","playlistName":"مقاطع مُهمَّة (يُسريَّات) أ.د. يسري جبر","category":"متنوع"},{"id":"d98S_olywI8","title":"لماذا لم يحرم الإسلام العبودية والرق؟","publishedAt":"2023-09-09T18:00:27Z","duration":"PT13M30S","thumbnail":"https://i.ytimg.com/vi/d98S_olywI8/mqdefault.jpg","viewCount":"4546","playlistId":"PLEkQk5xrP-tkGXuZ9atE3k_7it12rUPTs","playlistName":"أسئلة المتابعين","category":"متنوع"},{"id":"yrSddJG4EQk","title":"الرسالة القشيرية - المجلس (62)  بابُ التَّوَكُّلِ (3). أ.د. يسري جبر","publishedAt":"2019-10-16T09:03:52Z","duration":"PT38M16S","thumbnail":"https://i.ytimg.com/vi/yrSddJG4EQk/mqdefault.jpg","viewCount":"4544","playlistId":"PLEkQk5xrP-tkHAGOwIKr4pc5ehhyQ5HMJ","playlistName":"كتاب الرسالة القشيرية (تصوف) - د. يسري جبر","category":"تصوف"},{"id":"_OUf57PGHJ8","title":"لا تُلهِك التجليات عن المتجلِّي","publishedAt":"2020-08-29T19:13:28Z","duration":"PT8M38S","thumbnail":"https://i.ytimg.com/vi/_OUf57PGHJ8/mqdefault.jpg","viewCount":"4540","playlistId":"PLEkQk5xrP-tm8ZIu74nTOZN9KJUJu416J","playlistName":"مقاطع مُهمَّة (يُسريَّات) أ.د. يسري جبر","category":"متنوع"},{"id":"n7PiFcmZqlc","title":"كيف تعالج تأجيلك للتوبة والمواظبة على العبادات؟","publishedAt":"2022-10-24T18:41:08Z","duration":"PT8M16S","thumbnail":"https://i.ytimg.com/vi/n7PiFcmZqlc/mqdefault.jpg","viewCount":"4535","playlistId":"PLEkQk5xrP-tm8ZIu74nTOZN9KJUJu416J","playlistName":"مقاطع مُهمَّة (يُسريَّات) أ.د. يسري جبر","category":"متنوع"},{"id":"MyGfEzryW0Y","title":"كيف تحج وأنت في بلدك","publishedAt":"2021-07-18T19:09:01Z","duration":"PT38M30S","thumbnail":"https://i.ytimg.com/vi/MyGfEzryW0Y/mqdefault.jpg","viewCount":"4530","playlistId":"PLEkQk5xrP-tlArtGpeLWaqNM7h7IDeAVC","playlistName":"خطب الجمعة أ.د. يسري جبر","category":"خطب"},{"id":"BchcO_TubYA","title":"لكل شاب مقبل على الزواج ,, دي الحاجات اللي لازم تعرفها!","publishedAt":"2025-07-23T18:15:00Z","duration":"PT15M32S","thumbnail":"https://i.ytimg.com/vi/BchcO_TubYA/mqdefault.jpg","viewCount":"4527","playlistId":"PLEkQk5xrP-tkGXuZ9atE3k_7it12rUPTs","playlistName":"أسئلة المتابعين","category":"متنوع"},{"id":"HI1QCks0ex0","title":"فضل يوم عاشوراء والدعاء فيه","publishedAt":"2024-07-16T12:30:06Z","duration":"PT43M30S","thumbnail":"https://i.ytimg.com/vi/HI1QCks0ex0/mqdefault.jpg","viewCount":"4519","playlistId":"PLEkQk5xrP-tlArtGpeLWaqNM7h7IDeAVC","playlistName":"خطب الجمعة أ.د. يسري جبر","category":"خطب"},{"id":"klrmD8BaOvs","title":"وَسِعكَ الكونُ من حيثُ جسمانيَّتُك، ولم يسعْكَ من حيثُ رُوحَانيَّتُك.","publishedAt":"2018-01-23T16:32:16Z","duration":"PT10M30S","thumbnail":"https://i.ytimg.com/vi/klrmD8BaOvs/mqdefault.jpg","viewCount":"4516","playlistId":"PLEkQk5xrP-tkI_meE148wc7V7XHlB0WPb","playlistName":"من الحكم العطائية  د. يسري جبر","category":"متنوع"},{"id":"zlbLpJdzNz4","title":"شرح القصيدة المنفرجة لابن النحوي رضى الله عنه  - المجلس الثالث - د. يسري جبر","publishedAt":"2015-07-11T10:30:11Z","duration":"PT50M19S","thumbnail":"https://i.ytimg.com/vi/zlbLpJdzNz4/mqdefault.jpg","viewCount":"4515","playlistId":"PLEkQk5xrP-tna48sTO8GZ77fBCf3PgzNc","playlistName":"شرح القصيدة المنفرجة لابن النحوي - د. يسري جبر","category":"متنوع"},{"id":"9otLnR0igz8","title":"بدع التفاسير في سورة يس و ص","publishedAt":"2022-09-16T18:00:05Z","duration":"PT10M18S","thumbnail":"https://i.ytimg.com/vi/9otLnR0igz8/mqdefault.jpg","viewCount":"4510","playlistId":"PLEkQk5xrP-tkSGrPLMt1BEmJ54cGWYgtp","playlistName":"كتابُ بِدَعِ التَفَاسِيرِ - أ.د. يسري جبر","category":"متنوع"},{"id":"r7B3o6yqND0","title":"الفُتوّة","publishedAt":"2021-11-01T04:24:42Z","duration":"PT7M33S","thumbnail":"https://i.ytimg.com/vi/r7B3o6yqND0/mqdefault.jpg","viewCount":"4507","playlistId":"PLEkQk5xrP-tm8ZIu74nTOZN9KJUJu416J","playlistName":"مقاطع مُهمَّة (يُسريَّات) أ.د. يسري جبر","category":"متنوع"},{"id":"CrTwIClUFLo","title":"48- كيف أتخلص من الكبر؟ وما هو التواضع؟ | شرح منازل السائرين","publishedAt":"2024-08-21T17:00:21Z","duration":"PT41M11S","thumbnail":"https://i.ytimg.com/vi/CrTwIClUFLo/mqdefault.jpg","viewCount":"4505","playlistId":"PLEkQk5xrP-tmiUfQ-2Tsn7QIak4EsvaZW","playlistName":"كتاب التيسير المعين بشرح معاني منازل السائرين (تصوف) - د.يسري جبر","category":"تصوف"},{"id":"iWyjc5YeK4g","title":"10- ما من نَفَسٍ تبديه إلا وله قدر فيك يمضيه | شرح الحكم العطائية","publishedAt":"2024-12-17T17:25:59Z","duration":"PT42M59S","thumbnail":"https://i.ytimg.com/vi/iWyjc5YeK4g/mqdefault.jpg","viewCount":"4501","playlistId":"PLEkQk5xrP-tmf5ToOwmW-q0JwxkapbrMN","playlistName":"شرح كتاب إرشاد البرية إلى بعض معاني الحكم العطائية","category":"متنوع"},{"id":"rsWyl_6xSbI","title":"شجرةُ الأصل النُّورانيَّة","publishedAt":"2020-12-26T17:59:09Z","duration":"PT8M1S","thumbnail":"https://i.ytimg.com/vi/rsWyl_6xSbI/mqdefault.jpg","viewCount":"4501","playlistId":"PLEkQk5xrP-tlArtGpeLWaqNM7h7IDeAVC","playlistName":"خطب الجمعة أ.د. يسري جبر","category":"خطب"},{"id":"17vS4zlF6bY","title":"9- كيف تكون أعمالك خالية من رعونات النفس؟ | شرح الحكم العطائية","publishedAt":"2024-12-12T17:09:51Z","duration":"PT43M22S","thumbnail":"https://i.ytimg.com/vi/17vS4zlF6bY/mqdefault.jpg","viewCount":"4495","playlistId":"PLEkQk5xrP-tmf5ToOwmW-q0JwxkapbrMN","playlistName":"شرح كتاب إرشاد البرية إلى بعض معاني الحكم العطائية","category":"متنوع"},{"id":"QRhR543s3_o","title":"ما معنى محمد رسول الله؟","publishedAt":"2022-11-15T18:00:21Z","duration":"PT16M30S","thumbnail":"https://i.ytimg.com/vi/QRhR543s3_o/mqdefault.jpg","viewCount":"4492","playlistId":"PLEkQk5xrP-tlArtGpeLWaqNM7h7IDeAVC","playlistName":"خطب الجمعة أ.د. يسري جبر","category":"خطب"},{"id":"9ze0FdI-ofk","title":"كيف تنزع حب الدنيا والتعلق بها من قلبك؟","publishedAt":"2025-11-03T19:06:35Z","duration":"PT11M26S","thumbnail":"https://i.ytimg.com/vi/9ze0FdI-ofk/mqdefault.jpg","viewCount":"4491","playlistId":"PLEkQk5xrP-tm8ZIu74nTOZN9KJUJu416J","playlistName":"مقاطع مُهمَّة (يُسريَّات) أ.د. يسري جبر","category":"متنوع"},{"id":"FRurDNaA0tE","title":"كيفية قراءة رسول الله للقرآن | اعرف نبيك","publishedAt":"2015-08-20T16:46:10Z","duration":"PT6M6S","thumbnail":"https://i.ytimg.com/vi/FRurDNaA0tE/mqdefault.jpg","viewCount":"4489","playlistId":"PLEkQk5xrP-tl6Mu_Mz3QMUSv5T6XBH-Dg","playlistName":"برنامج اعرف نبيك","category":"متنوع"},{"id":"_Or-T1DpjqE","title":"شهادة الزور من أكبر الكبائر| اعرف نبيك","publishedAt":"2015-05-27T15:07:42Z","duration":"PT4M2S","thumbnail":"https://i.ytimg.com/vi/_Or-T1DpjqE/mqdefault.jpg","viewCount":"4478","playlistId":"PLEkQk5xrP-tl6Mu_Mz3QMUSv5T6XBH-Dg","playlistName":"برنامج اعرف نبيك","category":"متنوع"},{"id":"KNPUIfA8tWc","title":"شرح منازل السائرين - المجلس (28) باب المراقبة | أ.د. يسري جبر","publishedAt":"2023-08-09T18:00:14Z","duration":"PT32M8S","thumbnail":"https://i.ytimg.com/vi/KNPUIfA8tWc/mqdefault.jpg","viewCount":"4475","playlistId":"PLEkQk5xrP-tmiUfQ-2Tsn7QIak4EsvaZW","playlistName":"كتاب التيسير المعين بشرح معاني منازل السائرين (تصوف) - د.يسري جبر","category":"تصوف"},{"id":"013WOM4gGJw","title":"كيف تدرك محاسن الأخلاق - د. يسري جبر","publishedAt":"2014-12-22T13:33:53Z","duration":"PT7M56S","thumbnail":"https://i.ytimg.com/vi/013WOM4gGJw/mqdefault.jpg","viewCount":"4471","playlistId":"PLEkQk5xrP-tm8ZIu74nTOZN9KJUJu416J","playlistName":"مقاطع مُهمَّة (يُسريَّات) أ.د. يسري جبر","category":"متنوع"},{"id":"5-HoeEJT9zU","title":"كيف تكون طبيعة العلاقة بين الشيخ والمريد؟","publishedAt":"2024-07-14T17:40:53Z","duration":"PT8M42S","thumbnail":"https://i.ytimg.com/vi/5-HoeEJT9zU/mqdefault.jpg","viewCount":"4470","playlistId":"PLEkQk5xrP-tkGXuZ9atE3k_7it12rUPTs","playlistName":"أسئلة المتابعين","category":"متنوع"},{"id":"me1E-5FDq6Y","title":"فضل قراءة سورة الكهف يوم الجمعة","publishedAt":"2023-03-03T18:00:21Z","duration":"PT44M10S","thumbnail":"https://i.ytimg.com/vi/me1E-5FDq6Y/mqdefault.jpg","viewCount":"4467","playlistId":"PLEkQk5xrP-tm8ZIu74nTOZN9KJUJu416J","playlistName":"مقاطع مُهمَّة (يُسريَّات) أ.د. يسري جبر","category":"متنوع"}],"total":7675,"page":66,"pageSize":24,"totalPages":320}