{"items":[{"id":"1pf6Ld7AKBE","title":"كان رسول الله دائم البِشر| اعرف نبيك","publishedAt":"2015-09-16T15:43:55Z","duration":"PT6M17S","thumbnail":"https://i.ytimg.com/vi/1pf6Ld7AKBE/mqdefault.jpg","viewCount":"382","playlistId":"PLEkQk5xrP-tl6Mu_Mz3QMUSv5T6XBH-Dg","playlistName":"برنامج اعرف نبيك","category":"متنوع"},{"id":"u5OMLeXpBOM","title":"كان رسول الله في عون الناس  | اعرف نبيك","publishedAt":"2015-09-16T15:57:10Z","duration":"PT8M32S","thumbnail":"https://i.ytimg.com/vi/u5OMLeXpBOM/mqdefault.jpg","viewCount":"217","playlistId":"PLEkQk5xrP-tl6Mu_Mz3QMUSv5T6XBH-Dg","playlistName":"برنامج اعرف نبيك","category":"متنوع"},{"id":"LOXm5-5wka8","title":"أخلاق رسول الله في مجالسه | اعرف نبيك","publishedAt":"2015-09-16T16:06:15Z","duration":"PT10M5S","thumbnail":"https://i.ytimg.com/vi/LOXm5-5wka8/mqdefault.jpg","viewCount":"400","playlistId":"PLEkQk5xrP-tl6Mu_Mz3QMUSv5T6XBH-Dg","playlistName":"برنامج اعرف نبيك","category":"متنوع"},{"id":"LH9ROs9fdHQ","title":"عطاء رسول الله للناس | اعرف نبيك","publishedAt":"2015-09-17T14:56:48Z","duration":"PT7M30S","thumbnail":"https://i.ytimg.com/vi/LH9ROs9fdHQ/mqdefault.jpg","viewCount":"397","playlistId":"PLEkQk5xrP-tl6Mu_Mz3QMUSv5T6XBH-Dg","playlistName":"برنامج اعرف نبيك","category":"متنوع"},{"id":"3NrEb_MbMgw","title":"حياء رسول الله | اعرف نبيك","publishedAt":"2015-09-17T15:21:01Z","duration":"PT8M55S","thumbnail":"https://i.ytimg.com/vi/3NrEb_MbMgw/mqdefault.jpg","viewCount":"1491","playlistId":"PLEkQk5xrP-tl6Mu_Mz3QMUSv5T6XBH-Dg","playlistName":"برنامج اعرف نبيك","category":"متنوع"},{"id":"NQC0IXjyjMU","title":"أسماء النبي المخصوصة و المذكورة في الكتب السماوية | اعرف نبيك","publishedAt":"2015-09-24T15:40:49Z","duration":"PT5M47S","thumbnail":"https://i.ytimg.com/vi/NQC0IXjyjMU/mqdefault.jpg","viewCount":"2282","playlistId":"PLEkQk5xrP-tl6Mu_Mz3QMUSv5T6XBH-Dg","playlistName":"برنامج اعرف نبيك","category":"متنوع"},{"id":"pllDAWBOaEw","title":"أسماء سيدنا النبي صلى الله عليه وسلم | اعرف نبيك","publishedAt":"2015-09-30T16:37:45Z","duration":"PT6M36S","thumbnail":"https://i.ytimg.com/vi/pllDAWBOaEw/mqdefault.jpg","viewCount":"10644","playlistId":"PLEkQk5xrP-tl6Mu_Mz3QMUSv5T6XBH-Dg","playlistName":"برنامج اعرف نبيك","category":"متنوع"},{"id":"C5llbKSmr-0","title":"ما معنى اسم النبي محمد (الماحي) | اعرف نبيك","publishedAt":"2015-09-30T16:43:52Z","duration":"PT7M24S","thumbnail":"https://i.ytimg.com/vi/C5llbKSmr-0/mqdefault.jpg","viewCount":"7229","playlistId":"PLEkQk5xrP-tl6Mu_Mz3QMUSv5T6XBH-Dg","playlistName":"برنامج اعرف نبيك","category":"متنوع"},{"id":"cJ-sP-aa_Gw","title":"كيف عاش النبي ثلاثون يوما بدون طعام | اعرف نبيك","publishedAt":"2015-10-07T17:06:57Z","duration":"PT5M8S","thumbnail":"https://i.ytimg.com/vi/cJ-sP-aa_Gw/mqdefault.jpg","viewCount":"1110","playlistId":"PLEkQk5xrP-tl6Mu_Mz3QMUSv5T6XBH-Dg","playlistName":"برنامج اعرف نبيك","category":"متنوع"},{"id":"DRSvdDSVgcQ","title":"كم كان عمر النبي صلى الله عليه وسلم | اعرف نبيك","publishedAt":"2015-10-07T17:06:58Z","duration":"PT6M19S","thumbnail":"https://i.ytimg.com/vi/DRSvdDSVgcQ/mqdefault.jpg","viewCount":"70056","playlistId":"PLEkQk5xrP-tl6Mu_Mz3QMUSv5T6XBH-Dg","playlistName":"برنامج اعرف نبيك","category":"متنوع"},{"id":"QusDjxVTmH4","title":"فضل الحمد لله على قلة الرزق | اعرف نبيك","publishedAt":"2015-10-07T17:06:58Z","duration":"PT7M23S","thumbnail":"https://i.ytimg.com/vi/QusDjxVTmH4/mqdefault.jpg","viewCount":"2435","playlistId":"PLEkQk5xrP-tl6Mu_Mz3QMUSv5T6XBH-Dg","playlistName":"برنامج اعرف نبيك","category":"متنوع"},{"id":"bgdkfGLs05E","title":"وصف خاتم النبي صلى الله عليه وسلم | اعرف نبيك","publishedAt":"2015-10-14T17:24:31Z","duration":"PT8M38S","thumbnail":"https://i.ytimg.com/vi/bgdkfGLs05E/mqdefault.jpg","viewCount":"23276","playlistId":"PLEkQk5xrP-tl6Mu_Mz3QMUSv5T6XBH-Dg","playlistName":"برنامج اعرف نبيك","category":"متنوع"},{"id":"mFu029ijKgI","title":"لماذا نلبس الحذاء من اليمين الى اليسار ؟ | اعرف نبيك","publishedAt":"2015-10-14T17:24:33Z","duration":"PT7M52S","thumbnail":"https://i.ytimg.com/vi/mFu029ijKgI/mqdefault.jpg","viewCount":"2211","playlistId":"PLEkQk5xrP-tl6Mu_Mz3QMUSv5T6XBH-Dg","playlistName":"برنامج اعرف نبيك","category":"متنوع"},{"id":"I7y9UqYsOp8","title":"كيف كان النبي يلبس الخاتم ولماذا ترك الخاتم الذهب | اعرف نبيك","publishedAt":"2015-10-14T17:24:33Z","duration":"PT6M11S","thumbnail":"https://i.ytimg.com/vi/I7y9UqYsOp8/mqdefault.jpg","viewCount":"10207","playlistId":"PLEkQk5xrP-tl6Mu_Mz3QMUSv5T6XBH-Dg","playlistName":"برنامج اعرف نبيك","category":"متنوع"},{"id":"ix-zkhdA1SQ","title":"الإعجاز  العلمي في لعق الأصابع بعد الأكل | اعرف نبيك","publishedAt":"2015-10-15T16:02:10Z","duration":"PT5M19S","thumbnail":"https://i.ytimg.com/vi/ix-zkhdA1SQ/mqdefault.jpg","viewCount":"11726","playlistId":"PLEkQk5xrP-tl6Mu_Mz3QMUSv5T6XBH-Dg","playlistName":"برنامج اعرف نبيك","category":"متنوع"},{"id":"bdxhyB49r74","title":"هل مات النبي وهو راضٍ عن أمته؟| اعرف نبيك","publishedAt":"2015-11-18T14:46:05Z","duration":"PT1M27S","thumbnail":"https://i.ytimg.com/vi/bdxhyB49r74/mqdefault.jpg","viewCount":"461","playlistId":"PLEkQk5xrP-tl6Mu_Mz3QMUSv5T6XBH-Dg","playlistName":"برنامج اعرف نبيك","category":"متنوع"},{"id":"YezFGRehBlc","title":"كيف نتعامل مع الأحلام | اعرف نبيك","publishedAt":"2015-11-19T17:05:08Z","duration":"PT6M33S","thumbnail":"https://i.ytimg.com/vi/YezFGRehBlc/mqdefault.jpg","viewCount":"544","playlistId":"PLEkQk5xrP-tl6Mu_Mz3QMUSv5T6XBH-Dg","playlistName":"برنامج اعرف نبيك","category":"متنوع"},{"id":"bNs5JAakqQY","title":"الأنبياء لا يورثون | اعرف نبيك","publishedAt":"2015-11-19T17:05:08Z","duration":"PT5M58S","thumbnail":"https://i.ytimg.com/vi/bNs5JAakqQY/mqdefault.jpg","viewCount":"1636","playlistId":"PLEkQk5xrP-tl6Mu_Mz3QMUSv5T6XBH-Dg","playlistName":"برنامج اعرف نبيك","category":"متنوع"}],"total":66,"page":3,"pageSize":24,"totalPages":3}