{"items":[{"id":"75zg76wlrbQ","title":"107- شرح اللؤلؤ والمرجان كتاب الأقضية من أوله","publishedAt":"2020-03-28T07:00:00Z","duration":"PT35M34S","thumbnail":"https://i.ytimg.com/vi/75zg76wlrbQ/mqdefault.jpg","viewCount":"375","playlistId":"PLEkQk5xrP-tmKNjtYLfhATC37QdIsTMe0","playlistName":"شرح كتاب اللؤلؤ والمرجان فيما اتفق عليه الشيخان إماما المحدثين البخاري ومسلم. أ.د. يسري جبر","category":"حديث"},{"id":"DJ4b_g4kcIg","title":"108- شرح اللؤلؤ والمرجان كتاب اللقطة من أوله","publishedAt":"2020-03-29T07:00:05Z","duration":"PT21M27S","thumbnail":"https://i.ytimg.com/vi/DJ4b_g4kcIg/mqdefault.jpg","viewCount":"448","playlistId":"PLEkQk5xrP-tmKNjtYLfhATC37QdIsTMe0","playlistName":"شرح كتاب اللؤلؤ والمرجان فيما اتفق عليه الشيخان إماما المحدثين البخاري ومسلم. أ.د. يسري جبر","category":"حديث"},{"id":"KzAHwxQlkUU","title":"109- شرح اللؤلؤ والمرجان كتاب الجهاد من أوله","publishedAt":"2020-03-30T07:00:03Z","duration":"PT26M55S","thumbnail":"https://i.ytimg.com/vi/KzAHwxQlkUU/mqdefault.jpg","viewCount":"478","playlistId":"PLEkQk5xrP-tmKNjtYLfhATC37QdIsTMe0","playlistName":"شرح كتاب اللؤلؤ والمرجان فيما اتفق عليه الشيخان إماما المحدثين البخاري ومسلم. أ.د. يسري جبر","category":"حديث"},{"id":"fuWZQ_tWWmI","title":"110- شرح اللؤلؤ والمرجان كتاب الجهاد من الباب الثاني عشر","publishedAt":"2020-03-31T07:30:02Z","duration":"PT32M41S","thumbnail":"https://i.ytimg.com/vi/fuWZQ_tWWmI/mqdefault.jpg","viewCount":"437","playlistId":"PLEkQk5xrP-tmKNjtYLfhATC37QdIsTMe0","playlistName":"شرح كتاب اللؤلؤ والمرجان فيما اتفق عليه الشيخان إماما المحدثين البخاري ومسلم. أ.د. يسري جبر","category":"حديث"},{"id":"rVuA8e4xpWc","title":"111- شرح اللؤلؤ والمرجان كتاب الجهاد من الباب السادس عشر","publishedAt":"2020-04-01T07:00:15Z","duration":"PT20M24S","thumbnail":"https://i.ytimg.com/vi/rVuA8e4xpWc/mqdefault.jpg","viewCount":"477","playlistId":"PLEkQk5xrP-tmKNjtYLfhATC37QdIsTMe0","playlistName":"شرح كتاب اللؤلؤ والمرجان فيما اتفق عليه الشيخان إماما المحدثين البخاري ومسلم. أ.د. يسري جبر","category":"حديث"},{"id":"4ThZhyElqUQ","title":"112- شرح اللؤلؤ والمرجان كتاب الجهاد من الباب التاسع عشر","publishedAt":"2020-04-02T11:00:00Z","duration":"PT33M47S","thumbnail":"https://i.ytimg.com/vi/4ThZhyElqUQ/mqdefault.jpg","viewCount":"365","playlistId":"PLEkQk5xrP-tmKNjtYLfhATC37QdIsTMe0","playlistName":"شرح كتاب اللؤلؤ والمرجان فيما اتفق عليه الشيخان إماما المحدثين البخاري ومسلم. أ.د. يسري جبر","category":"حديث"},{"id":"uvAInfSXIDk","title":"113- شرح اللؤلؤ والمرجان كتاب الجهاد من الباب السادس والعشرين","publishedAt":"2020-04-03T07:00:18Z","duration":"PT22M19S","thumbnail":"https://i.ytimg.com/vi/uvAInfSXIDk/mqdefault.jpg","viewCount":"386","playlistId":"PLEkQk5xrP-tmKNjtYLfhATC37QdIsTMe0","playlistName":"شرح كتاب اللؤلؤ والمرجان فيما اتفق عليه الشيخان إماما المحدثين البخاري ومسلم. أ.د. يسري جبر","category":"حديث"},{"id":"z4xrd6GEgzY","title":"114- شرح اللؤلؤ والمرجان كتاب الجهاد من الباب الرابع والثلاثين","publishedAt":"2020-04-04T07:00:17Z","duration":"PT35M16S","thumbnail":"https://i.ytimg.com/vi/z4xrd6GEgzY/mqdefault.jpg","viewCount":"694","playlistId":"PLEkQk5xrP-tmKNjtYLfhATC37QdIsTMe0","playlistName":"شرح كتاب اللؤلؤ والمرجان فيما اتفق عليه الشيخان إماما المحدثين البخاري ومسلم. أ.د. يسري جبر","category":"حديث"},{"id":"UNTq8SNphPQ","title":"115- شرح اللؤلؤ والمرجان كتاب الجهاد من الباب الأربعين","publishedAt":"2020-04-07T08:45:25Z","duration":"PT23M13S","thumbnail":"https://i.ytimg.com/vi/UNTq8SNphPQ/mqdefault.jpg","viewCount":"472","playlistId":"PLEkQk5xrP-tmKNjtYLfhATC37QdIsTMe0","playlistName":"شرح كتاب اللؤلؤ والمرجان فيما اتفق عليه الشيخان إماما المحدثين البخاري ومسلم. أ.د. يسري جبر","category":"حديث"},{"id":"zwzBPUPFAgM","title":"116- شرح اللؤلؤ والمرجان كتاب الجهاد من الباب الثالث والأربعين","publishedAt":"2020-04-09T07:00:12Z","duration":"PT30M16S","thumbnail":"https://i.ytimg.com/vi/zwzBPUPFAgM/mqdefault.jpg","viewCount":"518","playlistId":"PLEkQk5xrP-tmKNjtYLfhATC37QdIsTMe0","playlistName":"شرح كتاب اللؤلؤ والمرجان فيما اتفق عليه الشيخان إماما المحدثين البخاري ومسلم. أ.د. يسري جبر","category":"حديث"},{"id":"MlUhmkv9gZg","title":"117- شرح اللؤلؤ والمرجان كتاب الإمارة من أوله","publishedAt":"2020-04-11T20:00:02Z","duration":"PT18M37S","thumbnail":"https://i.ytimg.com/vi/MlUhmkv9gZg/mqdefault.jpg","viewCount":"583","playlistId":"PLEkQk5xrP-tmKNjtYLfhATC37QdIsTMe0","playlistName":"شرح كتاب اللؤلؤ والمرجان فيما اتفق عليه الشيخان إماما المحدثين البخاري ومسلم. أ.د. يسري جبر","category":"حديث"},{"id":"d9dKEuEZYlE","title":"118- شرح اللؤلؤ والمرجان كتاب الإمارة من الباب السادس","publishedAt":"2020-04-12T20:45:01Z","duration":"PT26M5S","thumbnail":"https://i.ytimg.com/vi/d9dKEuEZYlE/mqdefault.jpg","viewCount":"445","playlistId":"PLEkQk5xrP-tmKNjtYLfhATC37QdIsTMe0","playlistName":"شرح كتاب اللؤلؤ والمرجان فيما اتفق عليه الشيخان إماما المحدثين البخاري ومسلم. أ.د. يسري جبر","category":"حديث"},{"id":"dSaldtINQ7w","title":"119- شرح اللؤلؤ والمرجان كتاب الإمارة من الباب الثالث عشر","publishedAt":"2020-04-13T11:00:18Z","duration":"PT23M14S","thumbnail":"https://i.ytimg.com/vi/dSaldtINQ7w/mqdefault.jpg","viewCount":"462","playlistId":"PLEkQk5xrP-tmKNjtYLfhATC37QdIsTMe0","playlistName":"شرح كتاب اللؤلؤ والمرجان فيما اتفق عليه الشيخان إماما المحدثين البخاري ومسلم. أ.د. يسري جبر","category":"حديث"},{"id":"74WpHbXK0dE","title":"120- شرح اللؤلؤ والمرجان كتاب الإمارة من الباب الرابع والعشرين","publishedAt":"2020-04-15T16:45:00Z","duration":"PT25M14S","thumbnail":"https://i.ytimg.com/vi/74WpHbXK0dE/mqdefault.jpg","viewCount":"417","playlistId":"PLEkQk5xrP-tmKNjtYLfhATC37QdIsTMe0","playlistName":"شرح كتاب اللؤلؤ والمرجان فيما اتفق عليه الشيخان إماما المحدثين البخاري ومسلم. أ.د. يسري جبر","category":"حديث"},{"id":"wY-wX3LbVsM","title":"121- شرح اللؤلؤ والمرجان كتاب الإمارة من الباب الأربعين","publishedAt":"2020-04-21T20:05:54Z","duration":"PT37M41S","thumbnail":"https://i.ytimg.com/vi/wY-wX3LbVsM/mqdefault.jpg","viewCount":"577","playlistId":"PLEkQk5xrP-tmKNjtYLfhATC37QdIsTMe0","playlistName":"شرح كتاب اللؤلؤ والمرجان فيما اتفق عليه الشيخان إماما المحدثين البخاري ومسلم. أ.د. يسري جبر","category":"حديث"},{"id":"25p4sXsKT4k","title":"122- كتاب الصيد والذبائح","publishedAt":"2020-08-31T11:01:24Z","duration":"PT39M4S","thumbnail":"https://i.ytimg.com/vi/25p4sXsKT4k/mqdefault.jpg","viewCount":"547","playlistId":"PLEkQk5xrP-tmKNjtYLfhATC37QdIsTMe0","playlistName":"شرح كتاب اللؤلؤ والمرجان فيما اتفق عليه الشيخان إماما المحدثين البخاري ومسلم. أ.د. يسري جبر","category":"حديث"},{"id":"Lv5_cPZ1yFM","title":"123- كتاب الأضاحي","publishedAt":"2020-09-01T05:36:35Z","duration":"PT22M57S","thumbnail":"https://i.ytimg.com/vi/Lv5_cPZ1yFM/mqdefault.jpg","viewCount":"413","playlistId":"PLEkQk5xrP-tmKNjtYLfhATC37QdIsTMe0","playlistName":"شرح كتاب اللؤلؤ والمرجان فيما اتفق عليه الشيخان إماما المحدثين البخاري ومسلم. أ.د. يسري جبر","category":"حديث"},{"id":"_fOn2gh2HlU","title":"124- شرح اللؤلؤ والمرجان كتاب الأشربة من أوله","publishedAt":"2020-09-02T20:45:29Z","duration":"PT28M14S","thumbnail":"https://i.ytimg.com/vi/_fOn2gh2HlU/mqdefault.jpg","viewCount":"565","playlistId":"PLEkQk5xrP-tmKNjtYLfhATC37QdIsTMe0","playlistName":"شرح كتاب اللؤلؤ والمرجان فيما اتفق عليه الشيخان إماما المحدثين البخاري ومسلم. أ.د. يسري جبر","category":"حديث"},{"id":"k0pfkL32AvM","title":"125- باب إباحة النبيذ الذي لم يشتد ولم يصر مُسكرًا","publishedAt":"2020-09-05T05:19:53Z","duration":"PT24M57S","thumbnail":"https://i.ytimg.com/vi/k0pfkL32AvM/mqdefault.jpg","viewCount":"963","playlistId":"PLEkQk5xrP-tmKNjtYLfhATC37QdIsTMe0","playlistName":"شرح كتاب اللؤلؤ والمرجان فيما اتفق عليه الشيخان إماما المحدثين البخاري ومسلم. أ.د. يسري جبر","category":"حديث"},{"id":"vNRtNmkF6Vs","title":"126- استحباب إدارة الماء واللبن ونحوهما عن يمين المبتدي","publishedAt":"2020-09-06T05:02:30Z","duration":"PT21M52S","thumbnail":"https://i.ytimg.com/vi/vNRtNmkF6Vs/mqdefault.jpg","viewCount":"715","playlistId":"PLEkQk5xrP-tmKNjtYLfhATC37QdIsTMe0","playlistName":"شرح كتاب اللؤلؤ والمرجان فيما اتفق عليه الشيخان إماما المحدثين البخاري ومسلم. أ.د. يسري جبر","category":"حديث"},{"id":"1P_6R_beDFM","title":"127- جواز أكل المَرَق واستحباب أكل اليقطين","publishedAt":"2020-09-07T05:22:40Z","duration":"PT32M23S","thumbnail":"https://i.ytimg.com/vi/1P_6R_beDFM/mqdefault.jpg","viewCount":"977","playlistId":"PLEkQk5xrP-tmKNjtYLfhATC37QdIsTMe0","playlistName":"شرح كتاب اللؤلؤ والمرجان فيما اتفق عليه الشيخان إماما المحدثين البخاري ومسلم. أ.د. يسري جبر","category":"حديث"},{"id":"8BIRS5JuOyU","title":"128- تحريم استعمال أواني الذهب والفضة في الشرب وغيره على الرجال والنساء","publishedAt":"2020-09-09T10:39:40Z","duration":"PT29M47S","thumbnail":"https://i.ytimg.com/vi/8BIRS5JuOyU/mqdefault.jpg","viewCount":"565","playlistId":"PLEkQk5xrP-tmKNjtYLfhATC37QdIsTMe0","playlistName":"شرح كتاب اللؤلؤ والمرجان فيما اتفق عليه الشيخان إماما المحدثين البخاري ومسلم. أ.د. يسري جبر","category":"حديث"},{"id":"2cIhPkDiFDU","title":"129- بابٌ في طرح خاتم الذهب","publishedAt":"2020-09-10T11:57:55Z","duration":"PT33M10S","thumbnail":"https://i.ytimg.com/vi/2cIhPkDiFDU/mqdefault.jpg","viewCount":"973","playlistId":"PLEkQk5xrP-tmKNjtYLfhATC37QdIsTMe0","playlistName":"شرح كتاب اللؤلؤ والمرجان فيما اتفق عليه الشيخان إماما المحدثين البخاري ومسلم. أ.د. يسري جبر","category":"حديث"},{"id":"H-8oRSC3SqQ","title":"130- باب جواز وسْم الحيوان غير الْآدَمِيِّ في غَيْرِ الوجْه، وندْبه في نَعَم الزَّكاة وَالْجِزْيَة","publishedAt":"2020-09-13T12:37:20Z","duration":"PT27M17S","thumbnail":"https://i.ytimg.com/vi/H-8oRSC3SqQ/mqdefault.jpg","viewCount":"593","playlistId":"PLEkQk5xrP-tmKNjtYLfhATC37QdIsTMe0","playlistName":"شرح كتاب اللؤلؤ والمرجان فيما اتفق عليه الشيخان إماما المحدثين البخاري ومسلم. أ.د. يسري جبر","category":"حديث"}],"total":1218,"page":46,"pageSize":24,"totalPages":51}