{"items":[{"id":"tQ4rjeceWxU","title":"صحيح الإمام البخاري رضي الله عنه -كتاب الرقاق باب صفة الجنة والنار (14) د.يسري جبر","publishedAt":"2017-10-04T04:17:44Z","duration":"PT46M25S","thumbnail":"https://i.ytimg.com/vi/tQ4rjeceWxU/mqdefault.jpg","viewCount":"189","playlistId":"PLEkQk5xrP-tmJuzaj4GWRenFoFx9gdbFX","playlistName":"شرح كتاب صحيح الإمام البخاري رضي الله تعالى عنه   أ.د. يسرى جبر","category":"حديث"},{"id":"EWc6smakHKY","title":"شرح صحيح البخاري - كتاب أحاديث الأنبياء من باب ١٤","publishedAt":"2017-10-04T18:37:13Z","duration":"PT29M15S","thumbnail":"https://i.ytimg.com/vi/EWc6smakHKY/mqdefault.jpg","viewCount":"753","playlistId":"PLEkQk5xrP-tlEerGoLa1AFy-2XvQ-sovv","playlistName":"شرح صحيح البخاري - أ.د. يسري جبر (كاملا)","category":"حديث"},{"id":"78NiZ2XRVhI","title":"شرح صحيح البخاري - كتاب أحاديث الأنبياء من باب ٢٠","publishedAt":"2017-10-05T21:15:24Z","duration":"PT45M11S","thumbnail":"https://i.ytimg.com/vi/78NiZ2XRVhI/mqdefault.jpg","viewCount":"777","playlistId":"PLEkQk5xrP-tlEerGoLa1AFy-2XvQ-sovv","playlistName":"شرح صحيح البخاري - أ.د. يسري جبر (كاملا)","category":"حديث"},{"id":"dNh2DlYh5I8","title":"صحيح الإمام البخاري رضي الله عنه -كتاب الرقاق باب صفة الجنة والنار (المجلس الأخير) د.يسري جبر","publishedAt":"2017-10-06T04:16:05Z","duration":"PT1H5M3S","thumbnail":"https://i.ytimg.com/vi/dNh2DlYh5I8/mqdefault.jpg","viewCount":"318","playlistId":"PLEkQk5xrP-tmJuzaj4GWRenFoFx9gdbFX","playlistName":"شرح كتاب صحيح الإمام البخاري رضي الله تعالى عنه   أ.د. يسرى جبر","category":"حديث"},{"id":"9CR_4loMFmQ","title":"شرح صحيح البخاري - كتاب أحاديث الأنبياء من باب ٢٣","publishedAt":"2017-10-08T21:55:32Z","duration":"PT36M47S","thumbnail":"https://i.ytimg.com/vi/9CR_4loMFmQ/mqdefault.jpg","viewCount":"652","playlistId":"PLEkQk5xrP-tlEerGoLa1AFy-2XvQ-sovv","playlistName":"شرح صحيح البخاري - أ.د. يسري جبر (كاملا)","category":"حديث"},{"id":"CuSmFlKmEFA","title":"شرح صحيح البخاري - كتاب أحاديث الأنبياء من باب ٢٧","publishedAt":"2017-10-09T14:10:20Z","duration":"PT31M14S","thumbnail":"https://i.ytimg.com/vi/CuSmFlKmEFA/mqdefault.jpg","viewCount":"621","playlistId":"PLEkQk5xrP-tlEerGoLa1AFy-2XvQ-sovv","playlistName":"شرح صحيح البخاري - أ.د. يسري جبر (كاملا)","category":"حديث"},{"id":"SCmDbZpZ_pw","title":"صحيح الإمام البخاري رضي الله عنه -كتاب القدر (1) د.يسري جبر","publishedAt":"2017-10-10T12:30:17Z","duration":"PT34M1S","thumbnail":"https://i.ytimg.com/vi/SCmDbZpZ_pw/mqdefault.jpg","viewCount":"1480","playlistId":"PLEkQk5xrP-tmJuzaj4GWRenFoFx9gdbFX","playlistName":"شرح كتاب صحيح الإمام البخاري رضي الله تعالى عنه   أ.د. يسرى جبر","category":"حديث"},{"id":"vtbD9F7N4ME","title":"شرح صحيح البخاري - كتاب أحاديث الأنبياء من باب ٢٩","publishedAt":"2017-10-10T16:59:17Z","duration":"PT35M20S","thumbnail":"https://i.ytimg.com/vi/vtbD9F7N4ME/mqdefault.jpg","viewCount":"606","playlistId":"PLEkQk5xrP-tlEerGoLa1AFy-2XvQ-sovv","playlistName":"شرح صحيح البخاري - أ.د. يسري جبر (كاملا)","category":"حديث"},{"id":"SJy2x1fGIrM","title":"شرح صحيح البخاري - كتاب أحاديث الأنبياء من باب ٣١","publishedAt":"2017-10-11T18:15:39Z","duration":"PT39M29S","thumbnail":"https://i.ytimg.com/vi/SJy2x1fGIrM/mqdefault.jpg","viewCount":"630","playlistId":"PLEkQk5xrP-tlEerGoLa1AFy-2XvQ-sovv","playlistName":"شرح صحيح البخاري - أ.د. يسري جبر (كاملا)","category":"حديث"},{"id":"IdhIhH_wjik","title":"شرح صحيح البخاري - كتاب أحاديث الأنبياء من باب ٣٧","publishedAt":"2017-10-12T20:20:20Z","duration":"PT35M41S","thumbnail":"https://i.ytimg.com/vi/IdhIhH_wjik/mqdefault.jpg","viewCount":"590","playlistId":"PLEkQk5xrP-tlEerGoLa1AFy-2XvQ-sovv","playlistName":"شرح صحيح البخاري - أ.د. يسري جبر (كاملا)","category":"حديث"},{"id":"WD2xPNnPyvo","title":"صحيح الإمام البخاري رضي الله عنه -كتاب القدر (2) د.يسري جبر","publishedAt":"2017-10-14T01:26:26Z","duration":"PT1H5M59S","thumbnail":"https://i.ytimg.com/vi/WD2xPNnPyvo/mqdefault.jpg","viewCount":"510","playlistId":"PLEkQk5xrP-tmJuzaj4GWRenFoFx9gdbFX","playlistName":"شرح كتاب صحيح الإمام البخاري رضي الله تعالى عنه   أ.د. يسرى جبر","category":"حديث"},{"id":"9d8FTyzfT_k","title":"شرح صحيح البخاري - كتاب أحاديث الأنبياء من باب ٤٠","publishedAt":"2017-10-15T06:08:30Z","duration":"PT31M44S","thumbnail":"https://i.ytimg.com/vi/9d8FTyzfT_k/mqdefault.jpg","viewCount":"621","playlistId":"PLEkQk5xrP-tlEerGoLa1AFy-2XvQ-sovv","playlistName":"شرح صحيح البخاري - أ.د. يسري جبر (كاملا)","category":"حديث"},{"id":"S_hQZJVxsyw","title":"شرح صحيح البخاري- كتاب أحاديث الأنبياء من باب ٤٢","publishedAt":"2017-10-16T16:12:04Z","duration":"PT35M32S","thumbnail":"https://i.ytimg.com/vi/S_hQZJVxsyw/mqdefault.jpg","viewCount":"595","playlistId":"PLEkQk5xrP-tlEerGoLa1AFy-2XvQ-sovv","playlistName":"شرح صحيح البخاري - أ.د. يسري جبر (كاملا)","category":"حديث"},{"id":"464bz-z1cnc","title":"شرح صحيح البخاري- كتاب أحاديث الأنبياء من باب ٤٤","publishedAt":"2017-10-17T13:36:00Z","duration":"PT37M59S","thumbnail":"https://i.ytimg.com/vi/464bz-z1cnc/mqdefault.jpg","viewCount":"607","playlistId":"PLEkQk5xrP-tlEerGoLa1AFy-2XvQ-sovv","playlistName":"شرح صحيح البخاري - أ.د. يسري جبر (كاملا)","category":"حديث"},{"id":"chP2nD7F5gE","title":"شرح صحيح البخاري- كتاب أحاديث الأنبياء من باب ٥٠","publishedAt":"2017-10-18T14:03:40Z","duration":"PT51M17S","thumbnail":"https://i.ytimg.com/vi/chP2nD7F5gE/mqdefault.jpg","viewCount":"729","playlistId":"PLEkQk5xrP-tlEerGoLa1AFy-2XvQ-sovv","playlistName":"شرح صحيح البخاري - أ.د. يسري جبر (كاملا)","category":"حديث"},{"id":"16piMK-7szY","title":"شرح صحيح البخاري- كتاب أحاديث الأنبياء من باب ٥٣","publishedAt":"2017-10-19T16:13:21Z","duration":"PT27M39S","thumbnail":"https://i.ytimg.com/vi/16piMK-7szY/mqdefault.jpg","viewCount":"513","playlistId":"PLEkQk5xrP-tlEerGoLa1AFy-2XvQ-sovv","playlistName":"شرح صحيح البخاري - أ.د. يسري جبر (كاملا)","category":"حديث"},{"id":"GendwVRzR_g","title":"شرح صحيح البخاري- كتاب أحاديث الأنبياء من باب ٥٤","publishedAt":"2017-10-20T18:31:30Z","duration":"PT40M2S","thumbnail":"https://i.ytimg.com/vi/GendwVRzR_g/mqdefault.jpg","viewCount":"566","playlistId":"PLEkQk5xrP-tlEerGoLa1AFy-2XvQ-sovv","playlistName":"شرح صحيح البخاري - أ.د. يسري جبر (كاملا)","category":"حديث"},{"id":"u08PMvEH9cU","title":"صحيح الإمام البخاري رضي الله عنه -كتاب القدر (3) د.يسري جبر","publishedAt":"2017-10-21T08:13:02Z","duration":"PT33M31S","thumbnail":"https://i.ytimg.com/vi/u08PMvEH9cU/mqdefault.jpg","viewCount":"251","playlistId":"PLEkQk5xrP-tmJuzaj4GWRenFoFx9gdbFX","playlistName":"شرح كتاب صحيح الإمام البخاري رضي الله تعالى عنه   أ.د. يسرى جبر","category":"حديث"},{"id":"lzHb2ecr8Ak","title":"صحيح الإمام البخاري رضي الله عنه -كتاب القدر (4) د.يسري جبر","publishedAt":"2017-10-21T08:13:06Z","duration":"PT50M14S","thumbnail":"https://i.ytimg.com/vi/lzHb2ecr8Ak/mqdefault.jpg","viewCount":"262","playlistId":"PLEkQk5xrP-tmJuzaj4GWRenFoFx9gdbFX","playlistName":"شرح كتاب صحيح الإمام البخاري رضي الله تعالى عنه   أ.د. يسرى جبر","category":"حديث"},{"id":"WV5hpZadPU4","title":"شرح صحيح البخاري- كتاب أحاديث الأنبياء تكملة باب ٥٧ من حديث علي بن عبد الله","publishedAt":"2017-10-25T12:48:30Z","duration":"PT29M34S","thumbnail":"https://i.ytimg.com/vi/WV5hpZadPU4/mqdefault.jpg","viewCount":"565","playlistId":"PLEkQk5xrP-tlEerGoLa1AFy-2XvQ-sovv","playlistName":"شرح صحيح البخاري - أ.د. يسري جبر (كاملا)","category":"حديث"},{"id":"NMPcFRjzUps","title":"شرح صحيح البخاري- كتاب المناقب من أوله","publishedAt":"2017-10-25T23:59:41Z","duration":"PT31M52S","thumbnail":"https://i.ytimg.com/vi/NMPcFRjzUps/mqdefault.jpg","viewCount":"1036","playlistId":"PLEkQk5xrP-tlEerGoLa1AFy-2XvQ-sovv","playlistName":"شرح صحيح البخاري - أ.د. يسري جبر (كاملا)","category":"حديث"},{"id":"l8qrtDigB_s","title":"شرح صحيح البخاري- كتاب المناقب من باب ٣","publishedAt":"2017-10-26T15:54:54Z","duration":"PT33M55S","thumbnail":"https://i.ytimg.com/vi/l8qrtDigB_s/mqdefault.jpg","viewCount":"662","playlistId":"PLEkQk5xrP-tlEerGoLa1AFy-2XvQ-sovv","playlistName":"شرح صحيح البخاري - أ.د. يسري جبر (كاملا)","category":"حديث"},{"id":"9jFfmNYDhf8","title":"شرح صحيح البخاري- كتاب المناقب من باب 9","publishedAt":"2017-10-27T18:06:17Z","duration":"PT37M3S","thumbnail":"https://i.ytimg.com/vi/9jFfmNYDhf8/mqdefault.jpg","viewCount":"755","playlistId":"PLEkQk5xrP-tlEerGoLa1AFy-2XvQ-sovv","playlistName":"شرح صحيح البخاري - أ.د. يسري جبر (كاملا)","category":"حديث"},{"id":"xyHoQKBe0p4","title":"صحيح الإمام البخاري رضي الله عنه - كتاب الأيمان والنذور (تكملة باب كيف كانت يمين النبي) د.يسري جبر","publishedAt":"2017-10-28T07:11:55Z","duration":"PT29M5S","thumbnail":"https://i.ytimg.com/vi/xyHoQKBe0p4/mqdefault.jpg","viewCount":"106","playlistId":"PLEkQk5xrP-tmJuzaj4GWRenFoFx9gdbFX","playlistName":"شرح كتاب صحيح الإمام البخاري رضي الله تعالى عنه   أ.د. يسرى جبر","category":"حديث"}],"total":1218,"page":22,"pageSize":24,"totalPages":51}