{"items":[{"id":"UN1GAwvbTSc","title":"شرح صحيح البخاري كتاب الرقاق من باب ١٩","publishedAt":"2018-10-25T10:00:02Z","duration":"PT32M36S","thumbnail":"https://i.ytimg.com/vi/UN1GAwvbTSc/mqdefault.jpg","viewCount":"566","playlistId":"PLEkQk5xrP-tlEerGoLa1AFy-2XvQ-sovv","playlistName":"شرح صحيح البخاري - أ.د. يسري جبر (كاملا)","category":"حديث"},{"id":"wlKwfcNocoo","title":"شرح صحيح الإمام البخاري رضي الله تعالى عنه - كتاب الحِيَل. د. يسري جبر","publishedAt":"2018-10-27T13:51:41Z","duration":"PT36M","thumbnail":"https://i.ytimg.com/vi/wlKwfcNocoo/mqdefault.jpg","viewCount":"282","playlistId":"PLEkQk5xrP-tmJuzaj4GWRenFoFx9gdbFX","playlistName":"شرح كتاب صحيح الإمام البخاري رضي الله تعالى عنه   أ.د. يسرى جبر","category":"حديث"},{"id":"nktXsga_24U","title":"شرح صحيح البخاري كتاب الرقاق من باب ٣٠","publishedAt":"2018-10-28T12:45:15Z","duration":"PT37M55S","thumbnail":"https://i.ytimg.com/vi/nktXsga_24U/mqdefault.jpg","viewCount":"565","playlistId":"PLEkQk5xrP-tlEerGoLa1AFy-2XvQ-sovv","playlistName":"شرح صحيح البخاري - أ.د. يسري جبر (كاملا)","category":"حديث"},{"id":"NUgR9jVoi2M","title":"شرح صحيح البخاري كتاب الرقاق من باب ٣٦","publishedAt":"2018-10-30T09:53:37Z","duration":"PT35M55S","thumbnail":"https://i.ytimg.com/vi/NUgR9jVoi2M/mqdefault.jpg","viewCount":"485","playlistId":"PLEkQk5xrP-tlEerGoLa1AFy-2XvQ-sovv","playlistName":"شرح صحيح البخاري - أ.د. يسري جبر (كاملا)","category":"حديث"},{"id":"etNPJsW_blQ","title":"شرح صحيح الإمام البخاري رضي الله تعالى عنه - ختام كتاب الحِيَل  د. يسري جبر","publishedAt":"2018-10-30T17:29:24Z","duration":"PT35M27S","thumbnail":"https://i.ytimg.com/vi/etNPJsW_blQ/mqdefault.jpg","viewCount":"105","playlistId":"PLEkQk5xrP-tmJuzaj4GWRenFoFx9gdbFX","playlistName":"شرح كتاب صحيح الإمام البخاري رضي الله تعالى عنه   أ.د. يسرى جبر","category":"حديث"},{"id":"rKt-h9tS0Js","title":"شرح صحيح البخاري كتاب الرقاق من باب ٤١","publishedAt":"2018-10-31T12:05:33Z","duration":"PT31M42S","thumbnail":"https://i.ytimg.com/vi/rKt-h9tS0Js/mqdefault.jpg","viewCount":"441","playlistId":"PLEkQk5xrP-tlEerGoLa1AFy-2XvQ-sovv","playlistName":"شرح صحيح البخاري - أ.د. يسري جبر (كاملا)","category":"حديث"},{"id":"dxRonZbvO4A","title":"شرح صحيح البخاري كتاب الرقاق من باب ٤٤","publishedAt":"2018-11-01T20:06:19Z","duration":"PT32M23S","thumbnail":"https://i.ytimg.com/vi/dxRonZbvO4A/mqdefault.jpg","viewCount":"481","playlistId":"PLEkQk5xrP-tlEerGoLa1AFy-2XvQ-sovv","playlistName":"شرح صحيح البخاري - أ.د. يسري جبر (كاملا)","category":"حديث"},{"id":"dvxougby87g","title":"شرح صحيح البخاري كتاب الرقاق من باب ٤٧","publishedAt":"2018-11-03T07:38:06Z","duration":"PT33M5S","thumbnail":"https://i.ytimg.com/vi/dvxougby87g/mqdefault.jpg","viewCount":"511","playlistId":"PLEkQk5xrP-tlEerGoLa1AFy-2XvQ-sovv","playlistName":"شرح صحيح البخاري - أ.د. يسري جبر (كاملا)","category":"حديث"},{"id":"WXuREW2Kqhk","title":"شرح صحيح البخاري كتاب الرقاق من باب ٥١","publishedAt":"2018-11-04T17:39:29Z","duration":"PT48M49S","thumbnail":"https://i.ytimg.com/vi/WXuREW2Kqhk/mqdefault.jpg","viewCount":"546","playlistId":"PLEkQk5xrP-tlEerGoLa1AFy-2XvQ-sovv","playlistName":"شرح صحيح البخاري - أ.د. يسري جبر (كاملا)","category":"حديث"},{"id":"FxT5T6Fd9GA","title":"شرح صحيح البخاري كتاب الرقاق من باب ٥٣","publishedAt":"2018-11-06T08:05:41Z","duration":"PT33M2S","thumbnail":"https://i.ytimg.com/vi/FxT5T6Fd9GA/mqdefault.jpg","viewCount":"479","playlistId":"PLEkQk5xrP-tlEerGoLa1AFy-2XvQ-sovv","playlistName":"شرح صحيح البخاري - أ.د. يسري جبر (كاملا)","category":"حديث"},{"id":"JLI-9ThjkPc","title":"شرح صحيح الإمام البخاري رضي الله تعالى عنه - كتاب التعبير  د. يسري جبر","publishedAt":"2018-11-06T20:11:06Z","duration":"PT31M9S","thumbnail":"https://i.ytimg.com/vi/JLI-9ThjkPc/mqdefault.jpg","viewCount":"208","playlistId":"PLEkQk5xrP-tmJuzaj4GWRenFoFx9gdbFX","playlistName":"شرح كتاب صحيح الإمام البخاري رضي الله تعالى عنه   أ.د. يسرى جبر","category":"حديث"},{"id":"-G6o03CiKJY","title":"شرح صحيح البخاري كتاب القدر من أوله","publishedAt":"2018-11-07T14:11:48Z","duration":"PT36M23S","thumbnail":"https://i.ytimg.com/vi/-G6o03CiKJY/mqdefault.jpg","viewCount":"875","playlistId":"PLEkQk5xrP-tlEerGoLa1AFy-2XvQ-sovv","playlistName":"شرح صحيح البخاري - أ.د. يسري جبر (كاملا)","category":"حديث"},{"id":"RRhSrkVxAbA","title":"شرح صحيح البخاري كتاب القدر من باب ٦","publishedAt":"2018-11-08T17:25:18Z","duration":"PT41M41S","thumbnail":"https://i.ytimg.com/vi/RRhSrkVxAbA/mqdefault.jpg","viewCount":"687","playlistId":"PLEkQk5xrP-tlEerGoLa1AFy-2XvQ-sovv","playlistName":"شرح صحيح البخاري - أ.د. يسري جبر (كاملا)","category":"حديث"},{"id":"7NkqtKAf-DY","title":"شرح صحيح البخاري كتاب الأيمان والنذور من أوله","publishedAt":"2018-11-10T14:25:23Z","duration":"PT32M55S","thumbnail":"https://i.ytimg.com/vi/7NkqtKAf-DY/mqdefault.jpg","viewCount":"592","playlistId":"PLEkQk5xrP-tlEerGoLa1AFy-2XvQ-sovv","playlistName":"شرح صحيح البخاري - أ.د. يسري جبر (كاملا)","category":"حديث"},{"id":"MLNVUgkGYdk","title":"شرح صحيح البخاري كتاب الأيمان والنذور من باب ٣","publishedAt":"2018-11-11T16:45:54Z","duration":"PT37M40S","thumbnail":"https://i.ytimg.com/vi/MLNVUgkGYdk/mqdefault.jpg","viewCount":"449","playlistId":"PLEkQk5xrP-tlEerGoLa1AFy-2XvQ-sovv","playlistName":"شرح صحيح البخاري - أ.د. يسري جبر (كاملا)","category":"حديث"},{"id":"IeMyIT5sH_4","title":"شرح صحيح البخاري كتاب الأيمان والنذور من باب ٥","publishedAt":"2018-11-12T14:47:45Z","duration":"PT36M50S","thumbnail":"https://i.ytimg.com/vi/IeMyIT5sH_4/mqdefault.jpg","viewCount":"435","playlistId":"PLEkQk5xrP-tlEerGoLa1AFy-2XvQ-sovv","playlistName":"شرح صحيح البخاري - أ.د. يسري جبر (كاملا)","category":"حديث"},{"id":"4yNDZJRfRK4","title":"شرح صحيح البخاري كتاب الأيمان والنذور من باب ١١","publishedAt":"2018-11-13T21:20:59Z","duration":"PT24M45S","thumbnail":"https://i.ytimg.com/vi/4yNDZJRfRK4/mqdefault.jpg","viewCount":"389","playlistId":"PLEkQk5xrP-tlEerGoLa1AFy-2XvQ-sovv","playlistName":"شرح صحيح البخاري - أ.د. يسري جبر (كاملا)","category":"حديث"},{"id":"txYh2x50SIM","title":"شرح صحيح البخاري كتاب الأيمان والنذور من باب ١٥","publishedAt":"2018-11-14T20:02:41Z","duration":"PT28M26S","thumbnail":"https://i.ytimg.com/vi/txYh2x50SIM/mqdefault.jpg","viewCount":"385","playlistId":"PLEkQk5xrP-tlEerGoLa1AFy-2XvQ-sovv","playlistName":"شرح صحيح البخاري - أ.د. يسري جبر (كاملا)","category":"حديث"},{"id":"kd4C9piLp5M","title":"شرح صحيح البخاري كتاب الأيمان والنذور من باب ١٧","publishedAt":"2018-11-15T15:39:33Z","duration":"PT33M51S","thumbnail":"https://i.ytimg.com/vi/kd4C9piLp5M/mqdefault.jpg","viewCount":"450","playlistId":"PLEkQk5xrP-tlEerGoLa1AFy-2XvQ-sovv","playlistName":"شرح صحيح البخاري - أ.د. يسري جبر (كاملا)","category":"حديث"},{"id":"C3Li883IOt8","title":"شرح صحيح البخاري كتاب الأيمان والنذور من باب ٢٢","publishedAt":"2018-11-18T08:56:41Z","duration":"PT41M10S","thumbnail":"https://i.ytimg.com/vi/C3Li883IOt8/mqdefault.jpg","viewCount":"427","playlistId":"PLEkQk5xrP-tlEerGoLa1AFy-2XvQ-sovv","playlistName":"شرح صحيح البخاري - أ.د. يسري جبر (كاملا)","category":"حديث"},{"id":"AVCuUAWuzGs","title":"شرح صحيح البخاري كتاب الأيمان والنذور من باب ٢٩","publishedAt":"2018-11-19T09:16:10Z","duration":"PT21M56S","thumbnail":"https://i.ytimg.com/vi/AVCuUAWuzGs/mqdefault.jpg","viewCount":"369","playlistId":"PLEkQk5xrP-tlEerGoLa1AFy-2XvQ-sovv","playlistName":"شرح صحيح البخاري - أ.د. يسري جبر (كاملا)","category":"حديث"},{"id":"_nET-sJo2ng","title":"شرح صحيح البخاري كتاب كفارات الأيمان من أوله","publishedAt":"2018-11-20T16:48:22Z","duration":"PT48M26S","thumbnail":"https://i.ytimg.com/vi/_nET-sJo2ng/mqdefault.jpg","viewCount":"533","playlistId":"PLEkQk5xrP-tlEerGoLa1AFy-2XvQ-sovv","playlistName":"شرح صحيح البخاري - أ.د. يسري جبر (كاملا)","category":"حديث"},{"id":"6Z4NPC2Au0k","title":"شرح صحيح البخاري كتاب كفارات الفرائض من أوله","publishedAt":"2018-11-21T19:28:58Z","duration":"PT40M45S","thumbnail":"https://i.ytimg.com/vi/6Z4NPC2Au0k/mqdefault.jpg","viewCount":"498","playlistId":"PLEkQk5xrP-tlEerGoLa1AFy-2XvQ-sovv","playlistName":"شرح صحيح البخاري - أ.د. يسري جبر (كاملا)","category":"حديث"},{"id":"AuD1IrxeHe8","title":"شرح صحيح البخاري كتاب الفرائض من باب ٤","publishedAt":"2018-11-22T19:01:58Z","duration":"PT37M9S","thumbnail":"https://i.ytimg.com/vi/AuD1IrxeHe8/mqdefault.jpg","viewCount":"535","playlistId":"PLEkQk5xrP-tlEerGoLa1AFy-2XvQ-sovv","playlistName":"شرح صحيح البخاري - أ.د. يسري جبر (كاملا)","category":"حديث"}],"total":1218,"page":36,"pageSize":24,"totalPages":51}