{"items":[{"id":"P1trZLBPyb4","title":"شرح صحيح البخاري ( كتاب العلم مجلس ١٠ )","publishedAt":"2016-08-25T23:43:37Z","duration":"PT35M59S","thumbnail":"https://i.ytimg.com/vi/P1trZLBPyb4/mqdefault.jpg","viewCount":"1865","playlistId":"PLEkQk5xrP-tlEerGoLa1AFy-2XvQ-sovv","playlistName":"شرح صحيح البخاري - أ.د. يسري جبر (كاملا)","category":"حديث"},{"id":"DRWGLExHJoo","title":"شرح صحيح البخاري ( كتاب الوضوء  مجلس ١ )","publishedAt":"2016-08-26T07:35:20Z","duration":"PT38M6S","thumbnail":"https://i.ytimg.com/vi/DRWGLExHJoo/mqdefault.jpg","viewCount":"3389","playlistId":"PLEkQk5xrP-tlEerGoLa1AFy-2XvQ-sovv","playlistName":"شرح صحيح البخاري - أ.د. يسري جبر (كاملا)","category":"حديث"},{"id":"7urOOs4zKsg","title":"شرح صحيح البخاري ( كتاب الوضوء مجلس ٢ )","publishedAt":"2016-08-28T00:06:22Z","duration":"PT42M44S","thumbnail":"https://i.ytimg.com/vi/7urOOs4zKsg/mqdefault.jpg","viewCount":"2270","playlistId":"PLEkQk5xrP-tlEerGoLa1AFy-2XvQ-sovv","playlistName":"شرح صحيح البخاري - أ.د. يسري جبر (كاملا)","category":"حديث"},{"id":"Kod8fNmErss","title":"شرح صحيح البخاري ( كتاب الوضوء مجلس ٣ )","publishedAt":"2016-08-29T00:14:27Z","duration":"PT42M24S","thumbnail":"https://i.ytimg.com/vi/Kod8fNmErss/mqdefault.jpg","viewCount":"2077","playlistId":"PLEkQk5xrP-tlEerGoLa1AFy-2XvQ-sovv","playlistName":"شرح صحيح البخاري - أ.د. يسري جبر (كاملا)","category":"حديث"},{"id":"rqt6FMZrD4Q","title":"شرح صحيح البخاري ( كتاب الوضوء مجلس 4 )","publishedAt":"2016-08-29T04:47:41Z","duration":"PT40M26S","thumbnail":"https://i.ytimg.com/vi/rqt6FMZrD4Q/mqdefault.jpg","viewCount":"1866","playlistId":"PLEkQk5xrP-tlEerGoLa1AFy-2XvQ-sovv","playlistName":"شرح صحيح البخاري - أ.د. يسري جبر (كاملا)","category":"حديث"},{"id":"RlQr_L46ftc","title":"شرح صحيح البخاري ( كتاب الوضوء مجلس ٥ )","publishedAt":"2016-08-30T20:26:35Z","duration":"PT41M59S","thumbnail":"https://i.ytimg.com/vi/RlQr_L46ftc/mqdefault.jpg","viewCount":"1779","playlistId":"PLEkQk5xrP-tlEerGoLa1AFy-2XvQ-sovv","playlistName":"شرح صحيح البخاري - أ.د. يسري جبر (كاملا)","category":"حديث"},{"id":"z7JQq3dYJEc","title":"شرح صحيح البخاري ( كتاب الوضوء مجلس ٦ )","publishedAt":"2016-08-31T06:36:54Z","duration":"PT40M48S","thumbnail":"https://i.ytimg.com/vi/z7JQq3dYJEc/mqdefault.jpg","viewCount":"1668","playlistId":"PLEkQk5xrP-tlEerGoLa1AFy-2XvQ-sovv","playlistName":"شرح صحيح البخاري - أ.د. يسري جبر (كاملا)","category":"حديث"},{"id":"nsuhiA5uEvY","title":"صحيح الإمام البخاري رضي الله عنه - كتاب الطب المجلس السابع  د. يسري جبر","publishedAt":"2016-08-31T19:24:32Z","duration":"PT40M45S","thumbnail":"https://i.ytimg.com/vi/nsuhiA5uEvY/mqdefault.jpg","viewCount":"122","playlistId":"PLEkQk5xrP-tmJuzaj4GWRenFoFx9gdbFX","playlistName":"شرح كتاب صحيح الإمام البخاري رضي الله تعالى عنه   أ.د. يسرى جبر","category":"حديث"},{"id":"EfpdbN8aPAk","title":"شرح صحيح البخاري ( كتاب الوضوء مجلس ٧ )","publishedAt":"2016-09-02T00:01:34Z","duration":"PT35M17S","thumbnail":"https://i.ytimg.com/vi/EfpdbN8aPAk/mqdefault.jpg","viewCount":"1592","playlistId":"PLEkQk5xrP-tlEerGoLa1AFy-2XvQ-sovv","playlistName":"شرح صحيح البخاري - أ.د. يسري جبر (كاملا)","category":"حديث"},{"id":"df1OhgBz3vY","title":"شرح صحيح البخاري ( كتاب الوضوء مجلس ٨ )","publishedAt":"2016-09-02T08:07:24Z","duration":"PT31M51S","thumbnail":"https://i.ytimg.com/vi/df1OhgBz3vY/mqdefault.jpg","viewCount":"1483","playlistId":"PLEkQk5xrP-tlEerGoLa1AFy-2XvQ-sovv","playlistName":"شرح صحيح البخاري - أ.د. يسري جبر (كاملا)","category":"حديث"},{"id":"4BSbP3GBfRE","title":"شرح صحيح البخاري (  اخر مجلس في كتاب الوضوء مجلس ١٠ )","publishedAt":"2016-09-04T23:47:30Z","duration":"PT49M8S","thumbnail":"https://i.ytimg.com/vi/4BSbP3GBfRE/mqdefault.jpg","viewCount":"1661","playlistId":"PLEkQk5xrP-tlEerGoLa1AFy-2XvQ-sovv","playlistName":"شرح صحيح البخاري - أ.د. يسري جبر (كاملا)","category":"حديث"},{"id":"c-wlcNnDy_I","title":"شرح صحيح البخاري ( كتاب الوضوء مجلس ٩ )","publishedAt":"2016-09-05T01:13:25Z","duration":"PT31M28S","thumbnail":"https://i.ytimg.com/vi/c-wlcNnDy_I/mqdefault.jpg","viewCount":"1476","playlistId":"PLEkQk5xrP-tlEerGoLa1AFy-2XvQ-sovv","playlistName":"شرح صحيح البخاري - أ.د. يسري جبر (كاملا)","category":"حديث"},{"id":"7XoxDECMb5k","title":"صحيح الإمام البخاري رضي الله عنه - كتاب الطب المجلس التاسع  د. يسري جبر","publishedAt":"2016-09-05T02:45:09Z","duration":"PT41M37S","thumbnail":"https://i.ytimg.com/vi/7XoxDECMb5k/mqdefault.jpg","viewCount":"154","playlistId":"PLEkQk5xrP-tmJuzaj4GWRenFoFx9gdbFX","playlistName":"شرح كتاب صحيح الإمام البخاري رضي الله تعالى عنه   أ.د. يسرى جبر","category":"حديث"},{"id":"o68TC9Z37s0","title":"شرح صحيح البخاري (  كتاب الغسل مجلس ١ )","publishedAt":"2016-09-05T06:41:46Z","duration":"PT33M11S","thumbnail":"https://i.ytimg.com/vi/o68TC9Z37s0/mqdefault.jpg","viewCount":"1936","playlistId":"PLEkQk5xrP-tlEerGoLa1AFy-2XvQ-sovv","playlistName":"شرح صحيح البخاري - أ.د. يسري جبر (كاملا)","category":"حديث"},{"id":"v-OgQiEL9co","title":"شرح صحيح البخاري ( كتاب الغسل مجلس ٢ )","publishedAt":"2016-09-16T05:17:36Z","duration":"PT32M36S","thumbnail":"https://i.ytimg.com/vi/v-OgQiEL9co/mqdefault.jpg","viewCount":"1869","playlistId":"PLEkQk5xrP-tlEerGoLa1AFy-2XvQ-sovv","playlistName":"شرح صحيح البخاري - أ.د. يسري جبر (كاملا)","category":"حديث"},{"id":"z6Dyl2GX49Y","title":"شرح صحيح البخاري ( كتاب الغسل مجلس ٤ )","publishedAt":"2016-09-18T06:22:06Z","duration":"PT24M29S","thumbnail":"https://i.ytimg.com/vi/z6Dyl2GX49Y/mqdefault.jpg","viewCount":"1309","playlistId":"PLEkQk5xrP-tlEerGoLa1AFy-2XvQ-sovv","playlistName":"شرح صحيح البخاري - أ.د. يسري جبر (كاملا)","category":"حديث"},{"id":"c6_Bycnks2Q","title":"شرح صحيح البخاري ( كتاب الحيض مجلس ١ )","publishedAt":"2016-09-19T07:06:18Z","duration":"PT35M18S","thumbnail":"https://i.ytimg.com/vi/c6_Bycnks2Q/mqdefault.jpg","viewCount":"1832","playlistId":"PLEkQk5xrP-tlEerGoLa1AFy-2XvQ-sovv","playlistName":"شرح صحيح البخاري - أ.د. يسري جبر (كاملا)","category":"حديث"},{"id":"6PKdTmx5F9Q","title":"شرح صحيح البخاري ( كتاب الحيض مجلس ٢ )","publishedAt":"2016-09-20T06:51:40Z","duration":"PT36M38S","thumbnail":"https://i.ytimg.com/vi/6PKdTmx5F9Q/mqdefault.jpg","viewCount":"1454","playlistId":"PLEkQk5xrP-tlEerGoLa1AFy-2XvQ-sovv","playlistName":"شرح صحيح البخاري - أ.د. يسري جبر (كاملا)","category":"حديث"},{"id":"SHZa9RaHlJs","title":"شرح صحيح البخاري ( كتاب الحيض مجلس ٣ )","publishedAt":"2016-09-24T04:06:38Z","duration":"PT33M4S","thumbnail":"https://i.ytimg.com/vi/SHZa9RaHlJs/mqdefault.jpg","viewCount":"1357","playlistId":"PLEkQk5xrP-tlEerGoLa1AFy-2XvQ-sovv","playlistName":"شرح صحيح البخاري - أ.د. يسري جبر (كاملا)","category":"حديث"},{"id":"sQwUFYy1g2M","title":"صحيح الإمام البخاري رضي الله عنه - كتاب اللباس المجلس الثاني د. يسري جبر","publishedAt":"2016-09-26T14:34:31Z","duration":"PT27M32S","thumbnail":"https://i.ytimg.com/vi/sQwUFYy1g2M/mqdefault.jpg","viewCount":"181","playlistId":"PLEkQk5xrP-tmJuzaj4GWRenFoFx9gdbFX","playlistName":"شرح كتاب صحيح الإمام البخاري رضي الله تعالى عنه   أ.د. يسرى جبر","category":"حديث"},{"id":"CEAYhTd9e2s","title":"صحيح الإمام البخاري رضي الله عنه - كتاب اللباس المجلس الثالث د. يسري جبر","publishedAt":"2016-09-26T19:20:12Z","duration":"PT1H1M33S","thumbnail":"https://i.ytimg.com/vi/CEAYhTd9e2s/mqdefault.jpg","viewCount":"156","playlistId":"PLEkQk5xrP-tmJuzaj4GWRenFoFx9gdbFX","playlistName":"شرح كتاب صحيح الإمام البخاري رضي الله تعالى عنه   أ.د. يسرى جبر","category":"حديث"},{"id":"t1D843XFFfw","title":"شرح صحيح البخاري ( كتاب الحيض مجلس ٤ )","publishedAt":"2016-09-27T20:33:44Z","duration":"PT36M3S","thumbnail":"https://i.ytimg.com/vi/t1D843XFFfw/mqdefault.jpg","viewCount":"1215","playlistId":"PLEkQk5xrP-tlEerGoLa1AFy-2XvQ-sovv","playlistName":"شرح صحيح البخاري - أ.د. يسري جبر (كاملا)","category":"حديث"},{"id":"HPTIGsxh6CU","title":"شرح صحيح البخاري ( كتاب التيمم مجلس ١ )","publishedAt":"2016-09-27T20:45:55Z","duration":"PT30M59S","thumbnail":"https://i.ytimg.com/vi/HPTIGsxh6CU/mqdefault.jpg","viewCount":"1407","playlistId":"PLEkQk5xrP-tlEerGoLa1AFy-2XvQ-sovv","playlistName":"شرح صحيح البخاري - أ.د. يسري جبر (كاملا)","category":"حديث"},{"id":"Thv3-oMW5xY","title":"شرح صحيح البخاري ( كتاب التيمم مجلس ٢ )","publishedAt":"2016-09-27T20:47:10Z","duration":"PT45M20S","thumbnail":"https://i.ytimg.com/vi/Thv3-oMW5xY/mqdefault.jpg","viewCount":"1346","playlistId":"PLEkQk5xrP-tlEerGoLa1AFy-2XvQ-sovv","playlistName":"شرح صحيح البخاري - أ.د. يسري جبر (كاملا)","category":"حديث"}],"total":1218,"page":7,"pageSize":24,"totalPages":51}