{"items":[{"id":"4r9QReW8aBY","title":"222- حُكمُ مَا أُخِذَ بسَيفِ الحَيَاء - شرح دليل الفالحين","publishedAt":"2022-03-29T20:57:35Z","duration":"PT1H11M58S","thumbnail":"https://i.ytimg.com/vi/4r9QReW8aBY/mqdefault.jpg","viewCount":"1542","playlistId":"PLEkQk5xrP-tkc9DXvSLguqX5-FYp6ASR4","playlistName":"دليل الفالحين لطرق رياض الصالحين","category":"متنوع"},{"id":"lOcCFJqLM-0","title":"35- بابُ الصَّبر:الحديثُ الأول \"...والحمدُ للهِ تملأُ الميزانَ...\" شرح دليل الفالحين","publishedAt":"2021-03-27T05:49:09Z","duration":"PT33M36S","thumbnail":"https://i.ytimg.com/vi/lOcCFJqLM-0/mqdefault.jpg","viewCount":"1539","playlistId":"PLEkQk5xrP-tkc9DXvSLguqX5-FYp6ASR4","playlistName":"دليل الفالحين لطرق رياض الصالحين","category":"متنوع"},{"id":"awXcOjBhuBM","title":"220- قَدْ أفْلَحَ مَن أَسْلَمَ، ورُزِقَ كَفَافًا، وقَنَّعَهُ اللَّهُ بما آتَاهُ - شرح دليل الفالحين","publishedAt":"2022-03-24T21:54:53Z","duration":"PT35M49S","thumbnail":"https://i.ytimg.com/vi/awXcOjBhuBM/mqdefault.jpg","viewCount":"1537","playlistId":"PLEkQk5xrP-tkc9DXvSLguqX5-FYp6ASR4","playlistName":"دليل الفالحين لطرق رياض الصالحين","category":"متنوع"},{"id":"LDN50RPJ6zc","title":"324- الدُّعاءُ المُستجاب - شرح دليل الفالحين","publishedAt":"2022-11-02T09:00:08Z","duration":"PT40M7S","thumbnail":"https://i.ytimg.com/vi/LDN50RPJ6zc/mqdefault.jpg","viewCount":"1535","playlistId":"PLEkQk5xrP-tkc9DXvSLguqX5-FYp6ASR4","playlistName":"دليل الفالحين لطرق رياض الصالحين","category":"متنوع"},{"id":"K6H1ytWqfAE","title":"123- فضل ضعفة المسلمين والفقراء والخاملين - شرح دليل الفالحين","publishedAt":"2021-09-07T08:00:55Z","duration":"PT28M15S","thumbnail":"https://i.ytimg.com/vi/K6H1ytWqfAE/mqdefault.jpg","viewCount":"1531","playlistId":"PLEkQk5xrP-tkc9DXvSLguqX5-FYp6ASR4","playlistName":"دليل الفالحين لطرق رياض الصالحين","category":"متنوع"},{"id":"LI2-uglktIk","title":"115-\"إنِّي لأقوم إلى الصَّلاة وأريدُ أن أطوِّل فيها فأسمع بُكاءَ الطفل فأتجوَّز …\" شرح دليل الفالحين","publishedAt":"2021-08-20T06:03:17Z","duration":"PT39M2S","thumbnail":"https://i.ytimg.com/vi/LI2-uglktIk/mqdefault.jpg","viewCount":"1527","playlistId":"PLEkQk5xrP-tkc9DXvSLguqX5-FYp6ASR4","playlistName":"دليل الفالحين لطرق رياض الصالحين","category":"متنوع"},{"id":"RRKT42AObHI","title":"64- المبادرة إلى الخيرات\"بادروا بالأعمال الصالحة…\" شرح دليل الفالحين","publishedAt":"2021-05-21T22:34:26Z","duration":"PT39M30S","thumbnail":"https://i.ytimg.com/vi/RRKT42AObHI/mqdefault.jpg","viewCount":"1523","playlistId":"PLEkQk5xrP-tkc9DXvSLguqX5-FYp6ASR4","playlistName":"دليل الفالحين لطرق رياض الصالحين","category":"متنوع"},{"id":"MBv8B6U3GHY","title":"175- الإعجاز النبوي - شرح دليل الفالحين","publishedAt":"2021-12-27T07:33:08Z","duration":"PT36M53S","thumbnail":"https://i.ytimg.com/vi/MBv8B6U3GHY/mqdefault.jpg","viewCount":"1499","playlistId":"PLEkQk5xrP-tkc9DXvSLguqX5-FYp6ASR4","playlistName":"دليل الفالحين لطرق رياض الصالحين","category":"متنوع"},{"id":"4bTOjmR2pBs","title":"277- الاستخارة والمشاورة - شرح دليل الفالحين","publishedAt":"2022-07-09T05:00:02Z","duration":"PT37M22S","thumbnail":"https://i.ytimg.com/vi/4bTOjmR2pBs/mqdefault.jpg","viewCount":"1495","playlistId":"PLEkQk5xrP-tkc9DXvSLguqX5-FYp6ASR4","playlistName":"دليل الفالحين لطرق رياض الصالحين","category":"متنوع"},{"id":"yfk0m1yx60w","title":"76- \"…لا تَحْقِرَنَّ مِنَ المَعروفِ شيئًا، ولو أنْ تَلْقَى أخاكَ بوَجْهٍ طَلْقٍ\" شرح دليل الفالحين","publishedAt":"2021-06-10T05:36:59Z","duration":"PT40M43S","thumbnail":"https://i.ytimg.com/vi/yfk0m1yx60w/mqdefault.jpg","viewCount":"1493","playlistId":"PLEkQk5xrP-tkc9DXvSLguqX5-FYp6ASR4","playlistName":"دليل الفالحين لطرق رياض الصالحين","category":"متنوع"},{"id":"qQAGwLjEFb0","title":"190- فَضْلُ الرَّجَاء - شرح دليل الفالحين","publishedAt":"2022-01-26T07:04:38Z","duration":"PT39M58S","thumbnail":"https://i.ytimg.com/vi/qQAGwLjEFb0/mqdefault.jpg","viewCount":"1488","playlistId":"PLEkQk5xrP-tkc9DXvSLguqX5-FYp6ASR4","playlistName":"دليل الفالحين لطرق رياض الصالحين","category":"متنوع"},{"id":"12fpvY9C46E","title":"260- كُلُّكُمْ رَاعٍ وكُلُّكُمْ مَسْؤُولٌ عن رَعِيَّتِهِ - شرح دليل الفالحين","publishedAt":"2022-06-02T05:00:00Z","duration":"PT59M4S","thumbnail":"https://i.ytimg.com/vi/12fpvY9C46E/mqdefault.jpg","viewCount":"1486","playlistId":"PLEkQk5xrP-tkc9DXvSLguqX5-FYp6ASR4","playlistName":"دليل الفالحين لطرق رياض الصالحين","category":"متنوع"},{"id":"AT8HX3INHKQ","title":"221- اليَدُ العُلْيَا خَيْرٌ مِنَ اليَدِ السُّفْلَى، وابْدَأْ بمَن تَعُولُ - شرح دليل الفالحين","publishedAt":"2022-03-25T20:44:54Z","duration":"PT37M14S","thumbnail":"https://i.ytimg.com/vi/AT8HX3INHKQ/mqdefault.jpg","viewCount":"1484","playlistId":"PLEkQk5xrP-tkc9DXvSLguqX5-FYp6ASR4","playlistName":"دليل الفالحين لطرق رياض الصالحين","category":"متنوع"},{"id":"N4f7WiaYjNI","title":"191- الجَمْعُ بَينَ الخَوفِ والرَّجَاء - شرح دليل الفالحين","publishedAt":"2022-01-28T07:55:24Z","duration":"PT39M35S","thumbnail":"https://i.ytimg.com/vi/N4f7WiaYjNI/mqdefault.jpg","viewCount":"1482","playlistId":"PLEkQk5xrP-tkc9DXvSLguqX5-FYp6ASR4","playlistName":"دليل الفالحين لطرق رياض الصالحين","category":"متنوع"},{"id":"h_QSbQuRe7E","title":"488- بيان الأماكن التي لا يدخلها الدجال - شرح دليل الفالحين","publishedAt":"2023-06-29T08:59:00Z","duration":"PT26M4S","thumbnail":"https://i.ytimg.com/vi/h_QSbQuRe7E/mqdefault.jpg","viewCount":"1476","playlistId":"PLEkQk5xrP-tkc9DXvSLguqX5-FYp6ASR4","playlistName":"دليل الفالحين لطرق رياض الصالحين","category":"متنوع"},{"id":"-V7AJoSJJlE","title":"298- باب الرُّؤْيَا - شرح دليل الفالحين","publishedAt":"2022-09-06T08:09:33Z","duration":"PT50M27S","thumbnail":"https://i.ytimg.com/vi/-V7AJoSJJlE/mqdefault.jpg","viewCount":"1474","playlistId":"PLEkQk5xrP-tkc9DXvSLguqX5-FYp6ASR4","playlistName":"دليل الفالحين لطرق رياض الصالحين","category":"متنوع"},{"id":"DdBFIEjWU2s","title":"122- الإصلاح بين الناس - شرح دليل الفالحين","publishedAt":"2021-09-05T06:13:09Z","duration":"PT45M27S","thumbnail":"https://i.ytimg.com/vi/DdBFIEjWU2s/mqdefault.jpg","viewCount":"1470","playlistId":"PLEkQk5xrP-tkc9DXvSLguqX5-FYp6ASR4","playlistName":"دليل الفالحين لطرق رياض الصالحين","category":"متنوع"},{"id":"4w-utGfQa2w","title":"36- باب الصَّبر:الحديث الثاني\"أنَّ ناسًا من الأنصارِ سألوا رسولَ الله ﷺ فأعطاهم...\"شرح دليل الفالحين","publishedAt":"2021-03-29T05:13:28Z","duration":"PT33M46S","thumbnail":"https://i.ytimg.com/vi/4w-utGfQa2w/mqdefault.jpg","viewCount":"1467","playlistId":"PLEkQk5xrP-tkc9DXvSLguqX5-FYp6ASR4","playlistName":"دليل الفالحين لطرق رياض الصالحين","category":"متنوع"},{"id":"cIpcCFQwEUU","title":"408- أَلَا أُنَبِّئُكم بِخَيْرِ أعمالِكُم، وأَزْكاها عِندَ مَلِيكِكُم، وأَرفعِها في دَرَجاتِكُم…","publishedAt":"2023-03-07T05:00:15Z","duration":"PT36M11S","thumbnail":"https://i.ytimg.com/vi/cIpcCFQwEUU/mqdefault.jpg","viewCount":"1466","playlistId":"PLEkQk5xrP-tkc9DXvSLguqX5-FYp6ASR4","playlistName":"دليل الفالحين لطرق رياض الصالحين","category":"متنوع"},{"id":"2Y5Wz5gzYco","title":"460- حكم قراءة الفنجان والكفَّ وغيرهما - شرح دليل الفالحين","publishedAt":"2023-05-29T18:00:01Z","duration":"PT42M47S","thumbnail":"https://i.ytimg.com/vi/2Y5Wz5gzYco/mqdefault.jpg","viewCount":"1465","playlistId":"PLEkQk5xrP-tkc9DXvSLguqX5-FYp6ASR4","playlistName":"دليل الفالحين لطرق رياض الصالحين","category":"متنوع"},{"id":"unnpxJqWAnQ","title":"80-\"كانَ رَجُلٌ لا أَعْلَمُ رَجُلًا أَبْعَدَ مِنَ المَسْجِدِ منه،…\" شرح دليل الفالحين","publishedAt":"2021-06-19T06:27:38Z","duration":"PT35M23S","thumbnail":"https://i.ytimg.com/vi/unnpxJqWAnQ/mqdefault.jpg","viewCount":"1465","playlistId":"PLEkQk5xrP-tkc9DXvSLguqX5-FYp6ASR4","playlistName":"دليل الفالحين لطرق رياض الصالحين","category":"متنوع"},{"id":"bvGLzj4ugBM","title":"269- المحافظة على ما اعتاده من الخير - شرح دليل الفالحين","publishedAt":"2022-06-17T05:00:11Z","duration":"PT37M2S","thumbnail":"https://i.ytimg.com/vi/bvGLzj4ugBM/mqdefault.jpg","viewCount":"1464","playlistId":"PLEkQk5xrP-tkc9DXvSLguqX5-FYp6ASR4","playlistName":"دليل الفالحين لطرق رياض الصالحين","category":"متنوع"},{"id":"rssnj0vsf_c","title":"167- \"إنَّ اللهَ تعالى يقولُ: أين المُتحَابُّون بجَلالي؟…\" شرح دليل الفالحين","publishedAt":"2021-12-12T07:19:39Z","duration":"PT28M22S","thumbnail":"https://i.ytimg.com/vi/rssnj0vsf_c/mqdefault.jpg","viewCount":"1464","playlistId":"PLEkQk5xrP-tkc9DXvSLguqX5-FYp6ASR4","playlistName":"دليل الفالحين لطرق رياض الصالحين","category":"متنوع"},{"id":"amKntmImocQ","title":"114- \"قدمَ ناسٌ منَ الأعرابِ على النَّبيِّ ﷺ فقالوا أتُقبِّلون صبيانَكم…\" -  شرح دليل الفالحين","publishedAt":"2021-08-18T05:54:17Z","duration":"PT54M12S","thumbnail":"https://i.ytimg.com/vi/amKntmImocQ/mqdefault.jpg","viewCount":"1462","playlistId":"PLEkQk5xrP-tkc9DXvSLguqX5-FYp6ASR4","playlistName":"دليل الفالحين لطرق رياض الصالحين","category":"متنوع"}],"total":504,"page":8,"pageSize":24,"totalPages":21}