{"items":[{"id":"PseDI6dXZ3w","title":"188- \"…أنَّ رَجُلًا أصابَ مِن امْرَأَةٍ قُبْلَةً، فأتَى النَّبيَّ ﷺ فأخْبَرَهُ…\"- شرح دليل الفالحين","publishedAt":"2022-01-21T07:21:23Z","duration":"PT56M38S","thumbnail":"https://i.ytimg.com/vi/PseDI6dXZ3w/mqdefault.jpg","viewCount":"2556","playlistId":"PLEkQk5xrP-tkc9DXvSLguqX5-FYp6ASR4","playlistName":"دليل الفالحين لطرق رياض الصالحين","category":"متنوع"},{"id":"QPNKkWfOd0A","title":"185- \"…إذا أَذْنَبَ عَبْدٌ ذَنْبًا، فَقالَ: اللَّهُمَّ اغْفِرْ لي ذَنْبِي…\" شرح دليل الفالحين","publishedAt":"2022-01-15T07:04:24Z","duration":"PT28M2S","thumbnail":"https://i.ytimg.com/vi/QPNKkWfOd0A/mqdefault.jpg","viewCount":"2547","playlistId":"PLEkQk5xrP-tkc9DXvSLguqX5-FYp6ASR4","playlistName":"دليل الفالحين لطرق رياض الصالحين","category":"متنوع"},{"id":"K1XTIztOjt0","title":"108-  “مَنْ ظَلَم قِيدَ شِبْرٍ مِن الأرْضِ؛ طُوِّقَهُ مِن سَبْعِ أَرَضِين” - شرح دليل الفالحين","publishedAt":"2021-08-05T07:06:28Z","duration":"PT1H8M45S","thumbnail":"https://i.ytimg.com/vi/K1XTIztOjt0/mqdefault.jpg","viewCount":"2530","playlistId":"PLEkQk5xrP-tkc9DXvSLguqX5-FYp6ASR4","playlistName":"دليل الفالحين لطرق رياض الصالحين","category":"متنوع"},{"id":"rYfW9-b08iM","title":"218- الحِرصُ على إطعامِ الطَّعام | بَرَكَةُ النَّبيّ ﷺ في إطعام القوم حتى شبِعوا - شرح دليل الفالحين","publishedAt":"2022-03-17T07:58:26Z","duration":"PT44M52S","thumbnail":"https://i.ytimg.com/vi/rYfW9-b08iM/mqdefault.jpg","viewCount":"2510","playlistId":"PLEkQk5xrP-tkc9DXvSLguqX5-FYp6ASR4","playlistName":"دليل الفالحين لطرق رياض الصالحين","category":"متنوع"},{"id":"BK9nuOBoaM0","title":"245- التواضع وخفض الجناح - شرح دليل الفالحين","publishedAt":"2022-05-11T19:30:00Z","duration":"PT43M53S","thumbnail":"https://i.ytimg.com/vi/BK9nuOBoaM0/mqdefault.jpg","viewCount":"2469","playlistId":"PLEkQk5xrP-tkc9DXvSLguqX5-FYp6ASR4","playlistName":"دليل الفالحين لطرق رياض الصالحين","category":"متنوع"},{"id":"v9mIDwo3id8","title":"186- \"…يا مُعاذُ، هل تدري ما حقُّ اللهِ على عِباده؟ وما حقُّ العباد علَى الله؟…\"  شرح دليل الفالحين","publishedAt":"2022-01-17T06:51:27Z","duration":"PT35M28S","thumbnail":"https://i.ytimg.com/vi/v9mIDwo3id8/mqdefault.jpg","viewCount":"2403","playlistId":"PLEkQk5xrP-tkc9DXvSLguqX5-FYp6ASR4","playlistName":"دليل الفالحين لطرق رياض الصالحين","category":"متنوع"},{"id":"t93UPfaqU3I","title":"178- \"ما منكم من أحدٍ إلا سيُكلِّمُه ربُّهُ ليس بينه وبينه تَرجمانُ…\" - شرح دليل الفالحين","publishedAt":"2022-01-02T20:43:22Z","duration":"PT31M6S","thumbnail":"https://i.ytimg.com/vi/t93UPfaqU3I/mqdefault.jpg","viewCount":"2401","playlistId":"PLEkQk5xrP-tkc9DXvSLguqX5-FYp6ASR4","playlistName":"دليل الفالحين لطرق رياض الصالحين","category":"متنوع"},{"id":"KzlBISW8xUg","title":"78- \"لقَدْ رَأَيْتُ رَجُلًا يَتَقَلَّبُ في الجَنَّةِ،…\" شرح دليل الفالحين","publishedAt":"2021-06-15T05:50:29Z","duration":"PT39M22S","thumbnail":"https://i.ytimg.com/vi/KzlBISW8xUg/mqdefault.jpg","viewCount":"2398","playlistId":"PLEkQk5xrP-tkc9DXvSLguqX5-FYp6ASR4","playlistName":"دليل الفالحين لطرق رياض الصالحين","category":"متنوع"},{"id":"jeaA5-_K2ns","title":"24- “إن الله تعالى يبسط يده بالليل ليتوب مسيء النهار، ويبسط يده بالنهار ليتوب مسيء الليل..","publishedAt":"2021-03-02T09:01:42Z","duration":"PT32M55S","thumbnail":"https://i.ytimg.com/vi/jeaA5-_K2ns/mqdefault.jpg","viewCount":"2393","playlistId":"PLEkQk5xrP-tkc9DXvSLguqX5-FYp6ASR4","playlistName":"دليل الفالحين لطرق رياض الصالحين","category":"متنوع"},{"id":"vYIVPvQikMc","title":"204- قال رجلٌ للنَّبيّ ﷺ:يا رسول الله، والله إنّي لأُحبُّك،فقال: انظر ماذا تقول!- شرح دليل الفالحين","publishedAt":"2022-02-20T06:38:31Z","duration":"PT38M38S","thumbnail":"https://i.ytimg.com/vi/vYIVPvQikMc/mqdefault.jpg","viewCount":"2390","playlistId":"PLEkQk5xrP-tkc9DXvSLguqX5-FYp6ASR4","playlistName":"دليل الفالحين لطرق رياض الصالحين","category":"متنوع"},{"id":"SDuzaiKL3Vs","title":"244- فضلُ الاختلاط بالناس - شرح دليل الفالحين","publishedAt":"2022-05-10T05:15:00Z","duration":"PT31M8S","thumbnail":"https://i.ytimg.com/vi/SDuzaiKL3Vs/mqdefault.jpg","viewCount":"2387","playlistId":"PLEkQk5xrP-tkc9DXvSLguqX5-FYp6ASR4","playlistName":"دليل الفالحين لطرق رياض الصالحين","category":"متنوع"},{"id":"-74Ub3yHZjk","title":"49-“بينما نحنُ جلوسُ عندَ رسول الله ﷺ ذات يوم ...”الحديث (1) باب المراقبة - شرح دليل الفالحين","publishedAt":"2021-04-24T04:57:33Z","duration":"PT39M5S","thumbnail":"https://i.ytimg.com/vi/-74Ub3yHZjk/mqdefault.jpg","viewCount":"2367","playlistId":"PLEkQk5xrP-tkc9DXvSLguqX5-FYp6ASR4","playlistName":"دليل الفالحين لطرق رياض الصالحين","category":"متنوع"},{"id":"oM1EoPQGyL0","title":"403- فضل قول: لا إلهَ إلَّا اللهُ وَحْدَه لا شريكَ له، له المُلْكُ وله الحمْدُ وهو على كل شيء قدير","publishedAt":"2023-02-23T05:00:31Z","duration":"PT26M32S","thumbnail":"https://i.ytimg.com/vi/oM1EoPQGyL0/mqdefault.jpg","viewCount":"2360","playlistId":"PLEkQk5xrP-tkc9DXvSLguqX5-FYp6ASR4","playlistName":"دليل الفالحين لطرق رياض الصالحين","category":"متنوع"},{"id":"hBckKH9fMXY","title":"23- باب التوبة الحديث الأول: والله إني لأستغفر الله وأتوب إليه في اليوم أكثر من سبعين مرة.","publishedAt":"2021-02-27T07:01:22Z","duration":"PT35M50S","thumbnail":"https://i.ytimg.com/vi/hBckKH9fMXY/mqdefault.jpg","viewCount":"2359","playlistId":"PLEkQk5xrP-tkc9DXvSLguqX5-FYp6ASR4","playlistName":"دليل الفالحين لطرق رياض الصالحين","category":"متنوع"},{"id":"XzLJ0uEIuVU","title":"6- تكملة مقدمة كتاب رياض الصالحين وتعليق الشارح عليها - شرح دليل الفالحين أ.د. يسري جبر","publishedAt":"2021-01-19T07:46:35Z","duration":"PT39M9S","thumbnail":"https://i.ytimg.com/vi/XzLJ0uEIuVU/mqdefault.jpg","viewCount":"2332","playlistId":"PLEkQk5xrP-tkc9DXvSLguqX5-FYp6ASR4","playlistName":"دليل الفالحين لطرق رياض الصالحين","category":"متنوع"},{"id":"gvotAd7Gqt0","title":"498- خُطبة النَّبيّ ﷺ التي استمرت من الفجر  إلى المغرب - شرح دليل الفالحين","publishedAt":"2023-07-10T08:59:00Z","duration":"PT22M14S","thumbnail":"https://i.ytimg.com/vi/gvotAd7Gqt0/mqdefault.jpg","viewCount":"2302","playlistId":"PLEkQk5xrP-tkc9DXvSLguqX5-FYp6ASR4","playlistName":"دليل الفالحين لطرق رياض الصالحين","category":"متنوع"},{"id":"L7moyWmnYQg","title":"135- حقُّ الزَّوج على المرأة - شرح دليل الفالحين","publishedAt":"2021-10-03T05:52:48Z","duration":"PT42M57S","thumbnail":"https://i.ytimg.com/vi/L7moyWmnYQg/mqdefault.jpg","viewCount":"2297","playlistId":"PLEkQk5xrP-tkc9DXvSLguqX5-FYp6ASR4","playlistName":"دليل الفالحين لطرق رياض الصالحين","category":"متنوع"},{"id":"b_PpZUo2eQI","title":"69- \"…فأعِنِّي علَى نَفْسِكَ بكَثْرَةِ السُّجُودِ...\" الحديث (12) شرح دليل الفالحين","publishedAt":"2021-05-28T05:00:34Z","duration":"PT36M41S","thumbnail":"https://i.ytimg.com/vi/b_PpZUo2eQI/mqdefault.jpg","viewCount":"2293","playlistId":"PLEkQk5xrP-tkc9DXvSLguqX5-FYp6ASR4","playlistName":"دليل الفالحين لطرق رياض الصالحين","category":"متنوع"},{"id":"m_ut3k4JK8Q","title":"105- \"لَمَّا وقَفَ الزُّبَيْرُ يَومَ الجَمَلِ دَعَانِي، فَقُمْتُ إلى جَنْبِهِ…\" شرح دليل الفالحين","publishedAt":"2021-07-30T05:18:32Z","duration":"PT42M56S","thumbnail":"https://i.ytimg.com/vi/m_ut3k4JK8Q/mqdefault.jpg","viewCount":"2278","playlistId":"PLEkQk5xrP-tkc9DXvSLguqX5-FYp6ASR4","playlistName":"دليل الفالحين لطرق رياض الصالحين","category":"متنوع"},{"id":"XoaJT7MnFaw","title":"34- باب الثالث: باب الصبر - شرح دليل الفالحين لطُرُق رياض الصالحين","publishedAt":"2021-03-25T07:34:49Z","duration":"PT31M6S","thumbnail":"https://i.ytimg.com/vi/XoaJT7MnFaw/mqdefault.jpg","viewCount":"2262","playlistId":"PLEkQk5xrP-tkc9DXvSLguqX5-FYp6ASR4","playlistName":"دليل الفالحين لطرق رياض الصالحين","category":"متنوع"},{"id":"nXZCxT-MepQ","title":"217- تَكثيرُ الطَّعامِ ببَرَكَتِه ﷺ | الفرقُ بينَ الكَرامةِ والمُعجزة - شرح دليل الفالحين","publishedAt":"2022-03-15T06:03:32Z","duration":"PT1H11M53S","thumbnail":"https://i.ytimg.com/vi/nXZCxT-MepQ/mqdefault.jpg","viewCount":"2249","playlistId":"PLEkQk5xrP-tkc9DXvSLguqX5-FYp6ASR4","playlistName":"دليل الفالحين لطرق رياض الصالحين","category":"متنوع"},{"id":"_RKFjfZ8XsI","title":"405- فضل التسبيح والتحميد والتكبير بعد صلاة الفريضة - شرح دليل الفالحين","publishedAt":"2023-02-27T05:00:30Z","duration":"PT46M2S","thumbnail":"https://i.ytimg.com/vi/_RKFjfZ8XsI/mqdefault.jpg","viewCount":"2199","playlistId":"PLEkQk5xrP-tkc9DXvSLguqX5-FYp6ASR4","playlistName":"دليل الفالحين لطرق رياض الصالحين","category":"متنوع"},{"id":"FtAsTAu8iKU","title":"126- \"…لمْ يتكلّمْ في المهْد إلَّا ثلاثةٌ عِيسى ابنُ مَرْيمَ، وصاحِبُ جُرَيْجٍ…\" - شرح دليل الفاتحين","publishedAt":"2021-09-13T06:07:13Z","duration":"PT48M1S","thumbnail":"https://i.ytimg.com/vi/FtAsTAu8iKU/mqdefault.jpg","viewCount":"2197","playlistId":"PLEkQk5xrP-tkc9DXvSLguqX5-FYp6ASR4","playlistName":"دليل الفالحين لطرق رياض الصالحين","category":"متنوع"},{"id":"bGYPZ0-XSBU","title":"247- حكم لعق الأصابع بعد الطعام - شرح دليل الفالحين","publishedAt":"2022-05-16T05:00:12Z","duration":"PT29M41S","thumbnail":"https://i.ytimg.com/vi/bGYPZ0-XSBU/mqdefault.jpg","viewCount":"2185","playlistId":"PLEkQk5xrP-tkc9DXvSLguqX5-FYp6ASR4","playlistName":"دليل الفالحين لطرق رياض الصالحين","category":"متنوع"}],"total":504,"page":3,"pageSize":24,"totalPages":21}