{"items":[{"id":"NP5tJTNcp30","title":"23- لماذا يحاسبنا اللهُ على أعمالنا؟.. وقد قال سبحانه\"وَاللَّهُ خَلَقَكُمْ وَمَا تَعْمَلُونَ\"","publishedAt":"2023-01-12T09:00:22Z","duration":"PT45M24S","thumbnail":"https://i.ytimg.com/vi/NP5tJTNcp30/mqdefault.jpg","viewCount":"2031","playlistId":"PLEkQk5xrP-tmNuYT8JAh6clwa4krsgkNo","playlistName":"شرح كتاب الفُتُوحات اليُسريَّة في عقائد الأُمَّة المُحمَّديَّة","category":"متنوع"},{"id":"3m6GBFWg9eM","title":"16- السَّمْعِيَّات: وَيَلْزَمُ الإِيمَانُ بالحِسَابِ   وَالحَشْرِ وَالعِقَابِ وَالثَّوابِ","publishedAt":"2022-10-03T06:15:00Z","duration":"PT1H18M56S","thumbnail":"https://i.ytimg.com/vi/3m6GBFWg9eM/mqdefault.jpg","viewCount":"2020","playlistId":"PLEkQk5xrP-tmNuYT8JAh6clwa4krsgkNo","playlistName":"شرح كتاب الفُتُوحات اليُسريَّة في عقائد الأُمَّة المُحمَّديَّة","category":"متنوع"}],"total":26,"page":2,"pageSize":24,"totalPages":2}