{"items":[{"id":"YEqZK5ghh50","title":"(16) سيدنا أبو الحسين أحمد بن أبي الحواري رضي الله عنه   د. يسري جبر","publishedAt":"2018-04-18T19:10:25Z","duration":"PT6M22S","thumbnail":"https://i.ytimg.com/vi/YEqZK5ghh50/mqdefault.jpg","viewCount":"1072","playlistId":"PLEkQk5xrP-tmmI87XkWepRdTpisz2Lfgr","playlistName":"باب في ذكر مشايخ هذه الطريقة من شرح كتاب الرسالة القشيرية","category":"تصوف"},{"id":"WowVnzCkAJA","title":"(21) سيدنا أبو السَّري منصور بن عمَّار رضي الله عنه  د. يسري جبر","publishedAt":"2018-04-27T20:19:39Z","duration":"PT7M33S","thumbnail":"https://i.ytimg.com/vi/WowVnzCkAJA/mqdefault.jpg","viewCount":"1062","playlistId":"PLEkQk5xrP-tmmI87XkWepRdTpisz2Lfgr","playlistName":"باب في ذكر مشايخ هذه الطريقة من شرح كتاب الرسالة القشيرية","category":"تصوف"},{"id":"Wk0ICRr__gM","title":"(38) سيدنا أبو عبد الله محمد بن إسماعيل المغربي رضي الله عنه  د. يسري جبر","publishedAt":"2018-09-17T18:53:25Z","duration":"PT3M58S","thumbnail":"https://i.ytimg.com/vi/Wk0ICRr__gM/mqdefault.jpg","viewCount":"1000","playlistId":"PLEkQk5xrP-tmmI87XkWepRdTpisz2Lfgr","playlistName":"باب في ذكر مشايخ هذه الطريقة من شرح كتاب الرسالة القشيرية","category":"تصوف"},{"id":"Sj-K59hAt6c","title":"(17) سيدنا أبو حفص عمر بن مسلمة الحداد رضي الله عنه  د. يسري جبر","publishedAt":"2018-04-18T19:53:56Z","duration":"PT6M8S","thumbnail":"https://i.ytimg.com/vi/Sj-K59hAt6c/mqdefault.jpg","viewCount":"945","playlistId":"PLEkQk5xrP-tmmI87XkWepRdTpisz2Lfgr","playlistName":"باب في ذكر مشايخ هذه الطريقة من شرح كتاب الرسالة القشيرية","category":"تصوف"},{"id":"dDiYjktIBYM","title":"(36) سيدنا أبو بكر محمد بن عمر الوراق الترمذي رضي الله عنه  د. يسري جبر","publishedAt":"2018-09-16T18:54:58Z","duration":"PT6M19S","thumbnail":"https://i.ytimg.com/vi/dDiYjktIBYM/mqdefault.jpg","viewCount":"925","playlistId":"PLEkQk5xrP-tmmI87XkWepRdTpisz2Lfgr","playlistName":"باب في ذكر مشايخ هذه الطريقة من شرح كتاب الرسالة القشيرية","category":"تصوف"},{"id":"NU9aYVNRL00","title":"(27) سيدنا أبو محمد رُوَيمْ بن أحمد رضي الله عنه  د. يسري جبر","publishedAt":"2018-05-11T18:07:11Z","duration":"PT9M39S","thumbnail":"https://i.ytimg.com/vi/NU9aYVNRL00/mqdefault.jpg","viewCount":"914","playlistId":"PLEkQk5xrP-tmmI87XkWepRdTpisz2Lfgr","playlistName":"باب في ذكر مشايخ هذه الطريقة من شرح كتاب الرسالة القشيرية","category":"تصوف"},{"id":"QbgEegLUZP4","title":"(37) سيدنا أبو سعيد أحمد بن عيسى الخرَّاز رضي الله عنه  د. يسري جبر","publishedAt":"2018-09-16T19:29:26Z","duration":"PT4M21S","thumbnail":"https://i.ytimg.com/vi/QbgEegLUZP4/mqdefault.jpg","viewCount":"912","playlistId":"PLEkQk5xrP-tmmI87XkWepRdTpisz2Lfgr","playlistName":"باب في ذكر مشايخ هذه الطريقة من شرح كتاب الرسالة القشيرية","category":"تصوف"},{"id":"31j4zpqjIHI","title":"(20) سيدنا أبو علي أحمد بن عاصم الأنطاكي رضي الله عنه  د. يسري جبر","publishedAt":"2018-04-26T19:57:12Z","duration":"PT6M55S","thumbnail":"https://i.ytimg.com/vi/31j4zpqjIHI/mqdefault.jpg","viewCount":"888","playlistId":"PLEkQk5xrP-tmmI87XkWepRdTpisz2Lfgr","playlistName":"باب في ذكر مشايخ هذه الطريقة من شرح كتاب الرسالة القشيرية","category":"تصوف"},{"id":"ez-Zi4IXAeM","title":"(33) سيدنا أبو الفوارس شاه بن شجاع الكِرْمَاني رضي الله عنه د. يسري جبر","publishedAt":"2018-09-04T18:42:03Z","duration":"PT4M58S","thumbnail":"https://i.ytimg.com/vi/ez-Zi4IXAeM/mqdefault.jpg","viewCount":"867","playlistId":"PLEkQk5xrP-tmmI87XkWepRdTpisz2Lfgr","playlistName":"باب في ذكر مشايخ هذه الطريقة من شرح كتاب الرسالة القشيرية","category":"تصوف"},{"id":"ZqhjJR7qIss","title":"(29) سيدنا أبو بكر أحمد بن نصر الزقَّاق الكبير رضي الله عنه د. يسري جبر","publishedAt":"2018-08-05T19:16:01Z","duration":"PT7M53S","thumbnail":"https://i.ytimg.com/vi/ZqhjJR7qIss/mqdefault.jpg","viewCount":"824","playlistId":"PLEkQk5xrP-tmmI87XkWepRdTpisz2Lfgr","playlistName":"باب في ذكر مشايخ هذه الطريقة من شرح كتاب الرسالة القشيرية","category":"تصوف"},{"id":"PG2ihpFDd5Y","title":"(35) سيدنا أبو عبد الله محمد بن علي الترمذي رضي الله عنه  د. يسري جبر","publishedAt":"2018-09-12T19:25:08Z","duration":"PT3M53S","thumbnail":"https://i.ytimg.com/vi/PG2ihpFDd5Y/mqdefault.jpg","viewCount":"823","playlistId":"PLEkQk5xrP-tmmI87XkWepRdTpisz2Lfgr","playlistName":"باب في ذكر مشايخ هذه الطريقة من شرح كتاب الرسالة القشيرية","category":"تصوف"},{"id":"lF_stBts0ak","title":"(32) سيدنا أبو عُبيد البُسْرِي رضي الله عنه د. يسري جبر","publishedAt":"2018-08-07T18:32:37Z","duration":"PT4M47S","thumbnail":"https://i.ytimg.com/vi/lF_stBts0ak/mqdefault.jpg","viewCount":"788","playlistId":"PLEkQk5xrP-tmmI87XkWepRdTpisz2Lfgr","playlistName":"باب في ذكر مشايخ هذه الطريقة من شرح كتاب الرسالة القشيرية","category":"تصوف"},{"id":"HVw3NnS29vo","title":"(28) سيدنا أبو عبد الله محمد بن الفضل البَلْخي رضي الله عنه د. يسري جبر","publishedAt":"2018-05-12T19:35:48Z","duration":"PT8M53S","thumbnail":"https://i.ytimg.com/vi/HVw3NnS29vo/mqdefault.jpg","viewCount":"744","playlistId":"PLEkQk5xrP-tmmI87XkWepRdTpisz2Lfgr","playlistName":"باب في ذكر مشايخ هذه الطريقة من شرح كتاب الرسالة القشيرية","category":"تصوف"},{"id":"ZLD0aV80_pg","title":"(26) سيدنا أبو عبد الله أحمد بن يحيى الجلاء رضي الله عنه   د. يسري جبر","publishedAt":"2018-05-06T19:40:36Z","duration":"PT8M29S","thumbnail":"https://i.ytimg.com/vi/ZLD0aV80_pg/mqdefault.jpg","viewCount":"734","playlistId":"PLEkQk5xrP-tmmI87XkWepRdTpisz2Lfgr","playlistName":"باب في ذكر مشايخ هذه الطريقة من شرح كتاب الرسالة القشيرية","category":"تصوف"},{"id":"p0pLIwS4Kw8","title":"(30) سيدنا أبو عبد الله عمرو بن عثمان المكي رضي الله عنه د. يسري جبر","publishedAt":"2018-08-06T14:24:14Z","duration":"PT13M38S","thumbnail":"https://i.ytimg.com/vi/p0pLIwS4Kw8/mqdefault.jpg","viewCount":"700","playlistId":"PLEkQk5xrP-tmmI87XkWepRdTpisz2Lfgr","playlistName":"باب في ذكر مشايخ هذه الطريقة من شرح كتاب الرسالة القشيرية","category":"تصوف"}],"total":39,"page":2,"pageSize":24,"totalPages":2}