{"items":[{"id":"LRa29t_36lo","title":"489- الدجَّال ليس به خفاء، يجيء من قِبل المشرق فيدعو إلى الدين فيُتبع ويظهر - شرح دليل الفالحين","publishedAt":"2023-06-30T08:59:01Z","duration":"PT31M58S","thumbnail":"https://i.ytimg.com/vi/LRa29t_36lo/mqdefault.jpg","viewCount":"2080","playlistId":"PLEkQk5xrP-tkc9DXvSLguqX5-FYp6ASR4","playlistName":"دليل الفالحين لطرق رياض الصالحين","category":"متنوع"},{"id":"h_QSbQuRe7E","title":"488- بيان الأماكن التي لا يدخلها الدجال - شرح دليل الفالحين","publishedAt":"2023-06-29T08:59:00Z","duration":"PT26M4S","thumbnail":"https://i.ytimg.com/vi/h_QSbQuRe7E/mqdefault.jpg","viewCount":"1476","playlistId":"PLEkQk5xrP-tkc9DXvSLguqX5-FYp6ASR4","playlistName":"دليل الفالحين لطرق رياض الصالحين","category":"متنوع"},{"id":"5mIUdTgSeaM","title":"487- بيان ما يخرج مع الدجال وكيفية النجاة منه - شرح دليل الفالحين","publishedAt":"2023-06-27T08:59:00Z","duration":"PT30M16S","thumbnail":"https://i.ytimg.com/vi/5mIUdTgSeaM/mqdefault.jpg","viewCount":"1317","playlistId":"PLEkQk5xrP-tkc9DXvSLguqX5-FYp6ASR4","playlistName":"دليل الفالحين لطرق رياض الصالحين","category":"متنوع"},{"id":"A8MdPi7Rj30","title":"486- بيان فتنة الدجال وما يظهر على يديه من شبهات - شرح دليل الفالحين","publishedAt":"2023-06-26T08:59:00Z","duration":"PT1H10M36S","thumbnail":"https://i.ytimg.com/vi/A8MdPi7Rj30/mqdefault.jpg","viewCount":"1754","playlistId":"PLEkQk5xrP-tkc9DXvSLguqX5-FYp6ASR4","playlistName":"دليل الفالحين لطرق رياض الصالحين","category":"متنوع"},{"id":"IuXnwF1lISg","title":"485- حكم انتساب الإنسان إلى غير أبيه وتولِّيه إلى غير مواليه - شرح دليل الفالحين","publishedAt":"2023-06-24T18:00:07Z","duration":"PT38M2S","thumbnail":"https://i.ytimg.com/vi/IuXnwF1lISg/mqdefault.jpg","viewCount":"430","playlistId":"PLEkQk5xrP-tkc9DXvSLguqX5-FYp6ASR4","playlistName":"دليل الفالحين لطرق رياض الصالحين","category":"متنوع"},{"id":"e5hVuL8SbJg","title":"484- حكم صمت يوم إلى الليل - شرح دليل الفالحين","publishedAt":"2023-06-24T08:59:00Z","duration":"PT22M47S","thumbnail":"https://i.ytimg.com/vi/e5hVuL8SbJg/mqdefault.jpg","viewCount":"1138","playlistId":"PLEkQk5xrP-tkc9DXvSLguqX5-FYp6ASR4","playlistName":"دليل الفالحين لطرق رياض الصالحين","category":"متنوع"},{"id":"N-MInFVrhPw","title":"الرد على من يشكك في عقيدة د.يسري جبر!","publishedAt":"2023-06-23T19:58:20Z","duration":"PT20M55S","thumbnail":"https://i.ytimg.com/vi/N-MInFVrhPw/mqdefault.jpg","viewCount":"54835","playlistId":"PLEkQk5xrP-tkGXuZ9atE3k_7it12rUPTs","playlistName":"أسئلة المتابعين","category":"متنوع"},{"id":"QimJT_ua9so","title":"483- حكم استعمال آنية الذهب الفضة في الأكل والشرب والطهارة وسائر وجوه الاستعمال - شرح دليل الفالحين","publishedAt":"2023-06-22T08:59:00Z","duration":"PT21M12S","thumbnail":"https://i.ytimg.com/vi/QimJT_ua9so/mqdefault.jpg","viewCount":"580","playlistId":"PLEkQk5xrP-tkc9DXvSLguqX5-FYp6ASR4","playlistName":"دليل الفالحين لطرق رياض الصالحين","category":"متنوع"},{"id":"ORTSxon2-Kg","title":"482- التغليظ في تحريم السحر - شرح دليل الفالحين","publishedAt":"2023-06-21T08:59:00Z","duration":"PT21M15S","thumbnail":"https://i.ytimg.com/vi/ORTSxon2-Kg/mqdefault.jpg","viewCount":"996","playlistId":"PLEkQk5xrP-tkc9DXvSLguqX5-FYp6ASR4","playlistName":"دليل الفالحين لطرق رياض الصالحين","category":"متنوع"},{"id":"yu9MkjpP78M","title":"481- كراهة الخروج من بلد وقع فيها الوباء فِرارا منه وكراهة القدوم عليه - شرح دليل الفالحين","publishedAt":"2023-06-20T08:59:00Z","duration":"PT26M39S","thumbnail":"https://i.ytimg.com/vi/yu9MkjpP78M/mqdefault.jpg","viewCount":"432","playlistId":"PLEkQk5xrP-tkc9DXvSLguqX5-FYp6ASR4","playlistName":"دليل الفالحين لطرق رياض الصالحين","category":"متنوع"},{"id":"CWUJACdZZVY","title":"480- حكم رد الريحان وسائر أنواع الطِيب بغير عذر - شرح دليل الفالحين","publishedAt":"2023-06-19T08:59:00Z","duration":"PT25M13S","thumbnail":"https://i.ytimg.com/vi/CWUJACdZZVY/mqdefault.jpg","viewCount":"704","playlistId":"PLEkQk5xrP-tkc9DXvSLguqX5-FYp6ASR4","playlistName":"دليل الفالحين لطرق رياض الصالحين","category":"متنوع"},{"id":"o56FohOjQpE","title":"479- النهي عن إضاعة المال في غير وجوهِه التي أَذِنَ الشرعُ فيها - شرح دليل الفالحين","publishedAt":"2023-06-18T08:59:00Z","duration":"PT32M27S","thumbnail":"https://i.ytimg.com/vi/o56FohOjQpE/mqdefault.jpg","viewCount":"1331","playlistId":"PLEkQk5xrP-tkc9DXvSLguqX5-FYp6ASR4","playlistName":"دليل الفالحين لطرق رياض الصالحين","category":"متنوع"},{"id":"HndA14EuBr0","title":"478- حكم إحداد المرأة على ميت فوق ثلاثة أيام - شرح دليل الفالحين","publishedAt":"2023-06-17T08:59:00Z","duration":"PT26M31S","thumbnail":"https://i.ytimg.com/vi/HndA14EuBr0/mqdefault.jpg","viewCount":"670","playlistId":"PLEkQk5xrP-tkc9DXvSLguqX5-FYp6ASR4","playlistName":"دليل الفالحين لطرق رياض الصالحين","category":"متنوع"},{"id":"dL6BnYKEmo4","title":"477- حكم تفضيل الوالد بعضَ أولادِه على بعضٍ في الهِبة - شرح دليل الفالحين","publishedAt":"2023-06-16T08:59:00Z","duration":"PT24M45S","thumbnail":"https://i.ytimg.com/vi/dL6BnYKEmo4/mqdefault.jpg","viewCount":"945","playlistId":"PLEkQk5xrP-tkc9DXvSLguqX5-FYp6ASR4","playlistName":"دليل الفالحين لطرق رياض الصالحين","category":"متنوع"},{"id":"1SIRJhzv-Hw","title":"هل يجب إكراه الطفل الأعسر على استخدام اليد اليمنى؟","publishedAt":"2023-06-14T18:00:00Z","duration":"PT9M26S","thumbnail":"https://i.ytimg.com/vi/1SIRJhzv-Hw/mqdefault.jpg","viewCount":"5781","playlistId":"PLEkQk5xrP-tkGXuZ9atE3k_7it12rUPTs","playlistName":"أسئلة المتابعين","category":"متنوع"},{"id":"yHGwAtHOj3o","title":"476- حكم الشفاعة في الحدود - شرح دليل الفالحين","publishedAt":"2023-06-13T08:59:00Z","duration":"PT26M31S","thumbnail":"https://i.ytimg.com/vi/yHGwAtHOj3o/mqdefault.jpg","viewCount":"632","playlistId":"PLEkQk5xrP-tkc9DXvSLguqX5-FYp6ASR4","playlistName":"دليل الفالحين لطرق رياض الصالحين","category":"متنوع"},{"id":"bmMcueZWujM","title":"خايف أموت على معصية أو بدون قول الشهادة,, أعمل ايه؟؟","publishedAt":"2023-06-12T18:00:15Z","duration":"PT8M53S","thumbnail":"https://i.ytimg.com/vi/bmMcueZWujM/mqdefault.jpg","viewCount":"8283","playlistId":"PLEkQk5xrP-tkGXuZ9atE3k_7it12rUPTs","playlistName":"أسئلة المتابعين","category":"متنوع"},{"id":"amnN1zIodDM","title":"475- حكم الجلوس على القبر - شرح دليل الفالحين","publishedAt":"2023-06-12T08:59:00Z","duration":"PT18M50S","thumbnail":"https://i.ytimg.com/vi/amnN1zIodDM/mqdefault.jpg","viewCount":"829","playlistId":"PLEkQk5xrP-tkc9DXvSLguqX5-FYp6ASR4","playlistName":"دليل الفالحين لطرق رياض الصالحين","category":"متنوع"},{"id":"0f3RsekIQUw","title":"474- حكم صَلاةِ النَّافِلةِ إذا أُقيمتْ صَلاةُ الفَريضة - شرح دليل الفالحين","publishedAt":"2023-06-11T18:00:00Z","duration":"PT33M14S","thumbnail":"https://i.ytimg.com/vi/0f3RsekIQUw/mqdefault.jpg","viewCount":"600","playlistId":"PLEkQk5xrP-tkc9DXvSLguqX5-FYp6ASR4","playlistName":"دليل الفالحين لطرق رياض الصالحين","category":"متنوع"},{"id":"ffNSEyndCfk","title":"473- حكم الصلاة بحضرة الطعام حال الجوع أو مدافعة الأخبثين - شرح دليل الفالحين","publishedAt":"2023-06-11T08:59:00Z","duration":"PT42M54S","thumbnail":"https://i.ytimg.com/vi/ffNSEyndCfk/mqdefault.jpg","viewCount":"827","playlistId":"PLEkQk5xrP-tkc9DXvSLguqX5-FYp6ASR4","playlistName":"دليل الفالحين لطرق رياض الصالحين","category":"متنوع"},{"id":"KrSmjKzMypk","title":"11- الوضوء وفضل التسمية عند الوضوء - كتاب الطهارة - شرح سنن الدار قطني","publishedAt":"2023-06-10T08:59:00Z","duration":"PT34M12S","thumbnail":"https://i.ytimg.com/vi/KrSmjKzMypk/mqdefault.jpg","viewCount":"1328","playlistId":"PLEkQk5xrP-tk_MCBZ706ORCw6gFtFyaGj","playlistName":"شرح سنن الإمام الدارقطني","category":"متنوع"},{"id":"S_BFWpcaum4","title":"ماذا حدث في رحلة إنجلترا؟","publishedAt":"2023-06-09T18:15:29Z","duration":"PT8M10S","thumbnail":"https://i.ytimg.com/vi/S_BFWpcaum4/mqdefault.jpg","viewCount":"9799","playlistId":"PLEkQk5xrP-tm8ZIu74nTOZN9KJUJu416J","playlistName":"مقاطع مُهمَّة (يُسريَّات) أ.د. يسري جبر","category":"متنوع"},{"id":"AszaBuyebXU","title":"472- حكم السهر بعد العِشاء الآخرة - شرح دليل الفالحين","publishedAt":"2023-06-09T08:59:00Z","duration":"PT42M16S","thumbnail":"https://i.ytimg.com/vi/AszaBuyebXU/mqdefault.jpg","viewCount":"1341","playlistId":"PLEkQk5xrP-tkc9DXvSLguqX5-FYp6ASR4","playlistName":"دليل الفالحين لطرق رياض الصالحين","category":"متنوع"},{"id":"STe23jnJQdc","title":"ما سر زيادة الرزق؟","publishedAt":"2023-06-08T17:00:26Z","duration":"PT8M10S","thumbnail":"https://i.ytimg.com/vi/STe23jnJQdc/mqdefault.jpg","viewCount":"11388","playlistId":"PLEkQk5xrP-tm8ZIu74nTOZN9KJUJu416J","playlistName":"مقاطع مُهمَّة (يُسريَّات) أ.د. يسري جبر","category":"متنوع"}],"total":4129,"page":32,"pageSize":24,"totalPages":173}