{"items":[{"id":"NQC0IXjyjMU","title":"أسماء النبي المخصوصة و المذكورة في الكتب السماوية | اعرف نبيك","publishedAt":"2015-09-24T15:40:49Z","duration":"PT5M47S","thumbnail":"https://i.ytimg.com/vi/NQC0IXjyjMU/mqdefault.jpg","viewCount":"2285","playlistId":"PLEkQk5xrP-tl6Mu_Mz3QMUSv5T6XBH-Dg","playlistName":"برنامج اعرف نبيك","category":"متنوع"},{"id":"3NrEb_MbMgw","title":"حياء رسول الله | اعرف نبيك","publishedAt":"2015-09-17T15:21:01Z","duration":"PT8M55S","thumbnail":"https://i.ytimg.com/vi/3NrEb_MbMgw/mqdefault.jpg","viewCount":"1492","playlistId":"PLEkQk5xrP-tl6Mu_Mz3QMUSv5T6XBH-Dg","playlistName":"برنامج اعرف نبيك","category":"متنوع"},{"id":"LH9ROs9fdHQ","title":"عطاء رسول الله للناس | اعرف نبيك","publishedAt":"2015-09-17T14:56:48Z","duration":"PT7M30S","thumbnail":"https://i.ytimg.com/vi/LH9ROs9fdHQ/mqdefault.jpg","viewCount":"397","playlistId":"PLEkQk5xrP-tl6Mu_Mz3QMUSv5T6XBH-Dg","playlistName":"برنامج اعرف نبيك","category":"متنوع"},{"id":"LOXm5-5wka8","title":"أخلاق رسول الله في مجالسه | اعرف نبيك","publishedAt":"2015-09-16T16:06:15Z","duration":"PT10M5S","thumbnail":"https://i.ytimg.com/vi/LOXm5-5wka8/mqdefault.jpg","viewCount":"400","playlistId":"PLEkQk5xrP-tl6Mu_Mz3QMUSv5T6XBH-Dg","playlistName":"برنامج اعرف نبيك","category":"متنوع"},{"id":"u5OMLeXpBOM","title":"كان رسول الله في عون الناس  | اعرف نبيك","publishedAt":"2015-09-16T15:57:10Z","duration":"PT8M32S","thumbnail":"https://i.ytimg.com/vi/u5OMLeXpBOM/mqdefault.jpg","viewCount":"217","playlistId":"PLEkQk5xrP-tl6Mu_Mz3QMUSv5T6XBH-Dg","playlistName":"برنامج اعرف نبيك","category":"متنوع"},{"id":"1pf6Ld7AKBE","title":"كان رسول الله دائم البِشر| اعرف نبيك","publishedAt":"2015-09-16T15:43:55Z","duration":"PT6M17S","thumbnail":"https://i.ytimg.com/vi/1pf6Ld7AKBE/mqdefault.jpg","viewCount":"382","playlistId":"PLEkQk5xrP-tl6Mu_Mz3QMUSv5T6XBH-Dg","playlistName":"برنامج اعرف نبيك","category":"متنوع"},{"id":"_eQz42acSwM","title":"تعامل النبي مع الأشياء برفق | اعرف نبيك","publishedAt":"2015-09-10T16:13:24Z","duration":"PT6M","thumbnail":"https://i.ytimg.com/vi/_eQz42acSwM/mqdefault.jpg","viewCount":"260","playlistId":"PLEkQk5xrP-tl6Mu_Mz3QMUSv5T6XBH-Dg","playlistName":"برنامج اعرف نبيك","category":"متنوع"},{"id":"r_djy_X8A2E","title":"طريقة نصح رسول الله للناس | اعرف نبيك","publishedAt":"2015-09-09T16:31:17Z","duration":"PT9M50S","thumbnail":"https://i.ytimg.com/vi/r_djy_X8A2E/mqdefault.jpg","viewCount":"640","playlistId":"PLEkQk5xrP-tl6Mu_Mz3QMUSv5T6XBH-Dg","playlistName":"برنامج اعرف نبيك","category":"متنوع"},{"id":"a6ggS5qjRkA","title":"كيف كان رسول الله أحسن الناس خُلقاً | اعرف نبيك","publishedAt":"2015-09-09T16:23:04Z","duration":"PT7M40S","thumbnail":"https://i.ytimg.com/vi/a6ggS5qjRkA/mqdefault.jpg","viewCount":"596","playlistId":"PLEkQk5xrP-tl6Mu_Mz3QMUSv5T6XBH-Dg","playlistName":"برنامج اعرف نبيك","category":"متنوع"},{"id":"kXAGiCfTGq0","title":"خُلق رسول الله صلى الله عليه وسلم | اعرف نبيك","publishedAt":"2015-09-09T16:16:56Z","duration":"PT6M34S","thumbnail":"https://i.ytimg.com/vi/kXAGiCfTGq0/mqdefault.jpg","viewCount":"250","playlistId":"PLEkQk5xrP-tl6Mu_Mz3QMUSv5T6XBH-Dg","playlistName":"برنامج اعرف نبيك","category":"متنوع"},{"id":"hcuuu2cwAJw","title":"تبرك الصحابة بماء وضوء رسول الله | اعرف نبيك","publishedAt":"2015-09-03T16:09:48Z","duration":"PT5M12S","thumbnail":"https://i.ytimg.com/vi/hcuuu2cwAJw/mqdefault.jpg","viewCount":"2087","playlistId":"PLEkQk5xrP-tl6Mu_Mz3QMUSv5T6XBH-Dg","playlistName":"برنامج اعرف نبيك","category":"متنوع"},{"id":"9rY-Nyn1ISw","title":"عطف النبي صلى الله عليه  وسلم علي الفقراء | اعرف نبيك","publishedAt":"2015-09-03T16:04:11Z","duration":"PT7M18S","thumbnail":"https://i.ytimg.com/vi/9rY-Nyn1ISw/mqdefault.jpg","viewCount":"1040","playlistId":"PLEkQk5xrP-tl6Mu_Mz3QMUSv5T6XBH-Dg","playlistName":"برنامج اعرف نبيك","category":"متنوع"},{"id":"3LpnEb24Czo","title":"مجلس رسول الله صلى الله عليه وسلم | اعرف نبيك","publishedAt":"2015-09-03T15:52:41Z","duration":"PT5M18S","thumbnail":"https://i.ytimg.com/vi/3LpnEb24Czo/mqdefault.jpg","viewCount":"282","playlistId":"PLEkQk5xrP-tl6Mu_Mz3QMUSv5T6XBH-Dg","playlistName":"برنامج اعرف نبيك","category":"متنوع"},{"id":"DuJJz7k30lQ","title":"تواضع النبي صلى الله عليه وسلم | اعرف نبيك","publishedAt":"2015-09-02T15:27:46Z","duration":"PT6M18S","thumbnail":"https://i.ytimg.com/vi/DuJJz7k30lQ/mqdefault.jpg","viewCount":"537","playlistId":"PLEkQk5xrP-tl6Mu_Mz3QMUSv5T6XBH-Dg","playlistName":"برنامج اعرف نبيك","category":"متنوع"},{"id":"YMoOdu6NY1s","title":"تواضع رسول الله صلى الله عليه وسلم | اعرف نبيك","publishedAt":"2015-08-27T16:07:14Z","duration":"PT7M28S","thumbnail":"https://i.ytimg.com/vi/YMoOdu6NY1s/mqdefault.jpg","viewCount":"286","playlistId":"PLEkQk5xrP-tl6Mu_Mz3QMUSv5T6XBH-Dg","playlistName":"برنامج اعرف نبيك","category":"متنوع"},{"id":"sO1Q9FdKLWc","title":"تواضع رسول الله | اعرف نبيك","publishedAt":"2015-08-27T15:31:58Z","duration":"PT6M56S","thumbnail":"https://i.ytimg.com/vi/sO1Q9FdKLWc/mqdefault.jpg","viewCount":"538","playlistId":"PLEkQk5xrP-tl6Mu_Mz3QMUSv5T6XBH-Dg","playlistName":"برنامج اعرف نبيك","category":"متنوع"},{"id":"GhjsVLLOEnk","title":"شرح كتاب الأشربة من سنن الترمذي - المجلس الثالث","publishedAt":"2015-08-27T05:11:22Z","duration":"PT27M40S","thumbnail":"https://i.ytimg.com/vi/GhjsVLLOEnk/mqdefault.jpg","viewCount":"170","playlistId":"PLEkQk5xrP-tnu6of679SvxdVx0qSrJzmb","playlistName":"شرح سنن الإمام الترمذي رضى الله عنه د. يسري جبر","category":"متنوع"},{"id":"iz3d0vMtV2M","title":"بكاء النبي صلى الله عليه وسلم عند وفاة  أخوه في الرضاعة | اعرف نبيك","publishedAt":"2015-08-26T15:30:37Z","duration":"PT9M18S","thumbnail":"https://i.ytimg.com/vi/iz3d0vMtV2M/mqdefault.jpg","viewCount":"2399","playlistId":"PLEkQk5xrP-tl6Mu_Mz3QMUSv5T6XBH-Dg","playlistName":"برنامج اعرف نبيك","category":"متنوع"},{"id":"11jz1O1G7K8","title":"بكاء النبي صلى الله عليه وسلم عند وفاة ابنه إبراهيم | اعرف نبيك","publishedAt":"2015-08-26T15:22:06Z","duration":"PT7M6S","thumbnail":"https://i.ytimg.com/vi/11jz1O1G7K8/mqdefault.jpg","viewCount":"9036","playlistId":"PLEkQk5xrP-tl6Mu_Mz3QMUSv5T6XBH-Dg","playlistName":"برنامج اعرف نبيك","category":"متنوع"},{"id":"BK-LYYCCnzo","title":"شرح كتاب الأشربة من سنن الترمذي - المجلس الثاني","publishedAt":"2015-08-26T05:02:15Z","duration":"PT31M","thumbnail":"https://i.ytimg.com/vi/BK-LYYCCnzo/mqdefault.jpg","viewCount":"137","playlistId":"PLEkQk5xrP-tnu6of679SvxdVx0qSrJzmb","playlistName":"شرح سنن الإمام الترمذي رضى الله عنه د. يسري جبر","category":"متنوع"},{"id":"ABUprosReE4","title":"شرح كتاب الأشربة من سنن الترمذي - المجلس الأول","publishedAt":"2015-08-25T04:54:00Z","duration":"PT28M","thumbnail":"https://i.ytimg.com/vi/ABUprosReE4/mqdefault.jpg","viewCount":"131","playlistId":"PLEkQk5xrP-tnu6of679SvxdVx0qSrJzmb","playlistName":"شرح سنن الإمام الترمذي رضى الله عنه د. يسري جبر","category":"متنوع"},{"id":"Fwiqbr1Fbks","title":"شرح كتاب الأطعمة من سنن الترمذي - المجلس الثامن","publishedAt":"2015-08-24T04:39:16Z","duration":"PT27M47S","thumbnail":"https://i.ytimg.com/vi/Fwiqbr1Fbks/mqdefault.jpg","viewCount":"147","playlistId":"PLEkQk5xrP-tnu6of679SvxdVx0qSrJzmb","playlistName":"شرح سنن الإمام الترمذي رضى الله عنه د. يسري جبر","category":"متنوع"},{"id":"1Rfndz7VdRI","title":"منازل السائرين للإمام الهروى المجلس الثالث والخمسون قسم الحقائق أبواب الحياة والقبض والبسط","publishedAt":"2015-08-23T02:04:17Z","duration":"PT1H9M32S","thumbnail":"https://i.ytimg.com/vi/1Rfndz7VdRI/mqdefault.jpg","viewCount":"1302","playlistId":"PLEkQk5xrP-tnLYi_5_tSRVBwqcs7ISV7Y","playlistName":"شرح كتاب منازل السائرين للإمام الهروي","category":"متنوع"},{"id":"03hsNTI7N8c","title":"منازل السائرين للإمام الهروى المجلس الثانى والخمسون قسم الحقائق أبواب المكاشفة والمشاهدة والمعاينة","publishedAt":"2015-08-22T18:27:26Z","duration":"PT1H3M27S","thumbnail":"https://i.ytimg.com/vi/03hsNTI7N8c/mqdefault.jpg","viewCount":"2105","playlistId":"PLEkQk5xrP-tnLYi_5_tSRVBwqcs7ISV7Y","playlistName":"شرح كتاب منازل السائرين للإمام الهروي","category":"متنوع"}],"total":4129,"page":162,"pageSize":24,"totalPages":173}