{"items":[{"id":"9-HI-Z8BZoY","title":"53-“يا غُلامُ إنِّي أعلِّمُكَ كلِماتٍ...”الحديث (3) باب المراقبة - شرح دليل الفالحين","publishedAt":"2021-05-04T05:26:34Z","duration":"PT38M52S","thumbnail":"https://i.ytimg.com/vi/9-HI-Z8BZoY/mqdefault.jpg","viewCount":"1826","playlistId":"PLEkQk5xrP-tkc9DXvSLguqX5-FYp6ASR4","playlistName":"دليل الفالحين لطرق رياض الصالحين","category":"متنوع"},{"id":"0-0ySEMzpnk","title":"كيف تتجنب الوقوع في الزنا؟ | أ.د. يسري جبر","publishedAt":"2021-05-03T16:00:00Z","duration":"PT29M38S","thumbnail":"https://i.ytimg.com/vi/0-0ySEMzpnk/mqdefault.jpg","viewCount":"5142","playlistId":"PLEkQk5xrP-tnl7vb7KeAoPd5ZlqKKW8KV","playlistName":"شرح كتاب بهجة النفوس أ.د . يسرى جبر","category":"متنوع"},{"id":"By_zFZce_ak","title":"الخشوع عند قراءة القرآن | أ.د. يسري جبر","publishedAt":"2021-05-02T15:30:02Z","duration":"PT23M54S","thumbnail":"https://i.ytimg.com/vi/By_zFZce_ak/mqdefault.jpg","viewCount":"2625","playlistId":"PLEkQk5xrP-tnl7vb7KeAoPd5ZlqKKW8KV","playlistName":"شرح كتاب بهجة النفوس أ.د . يسرى جبر","category":"متنوع"},{"id":"MltTrtDHX2Y","title":"فضل قراءة القرآن للراكب | أ.د. يسري جبر","publishedAt":"2021-05-01T15:30:02Z","duration":"PT26M19S","thumbnail":"https://i.ytimg.com/vi/MltTrtDHX2Y/mqdefault.jpg","viewCount":"1361","playlistId":"PLEkQk5xrP-tnl7vb7KeAoPd5ZlqKKW8KV","playlistName":"شرح كتاب بهجة النفوس أ.د . يسرى جبر","category":"متنوع"},{"id":"1MhPmuB0k1s","title":"52-“اتق اللهَ حيثما كنت، وأتْبع السيئةَ الحسنةَ تمحها...”الحديث (2) باب المراقبة - شرح دليل الفالحين","publishedAt":"2021-05-01T05:06:04Z","duration":"PT27M28S","thumbnail":"https://i.ytimg.com/vi/1MhPmuB0k1s/mqdefault.jpg","viewCount":"2152","playlistId":"PLEkQk5xrP-tkc9DXvSLguqX5-FYp6ASR4","playlistName":"دليل الفالحين لطرق رياض الصالحين","category":"متنوع"},{"id":"gURr9YYmYqY","title":"كيف تختار وتُفرق بين الحق والباطل؟","publishedAt":"2021-04-30T19:15:00Z","duration":"PT57M22S","thumbnail":"https://i.ytimg.com/vi/gURr9YYmYqY/mqdefault.jpg","viewCount":"2635","playlistId":"PLEkQk5xrP-tm8ZIu74nTOZN9KJUJu416J","playlistName":"مقاطع مُهمَّة (يُسريَّات) أ.د. يسري جبر","category":"متنوع"},{"id":"LZYCvxWGVL4","title":"التحصن بالقرآن عند النوم | أ.د. يسري جبر","publishedAt":"2021-04-30T15:30:02Z","duration":"PT36M31S","thumbnail":"https://i.ytimg.com/vi/LZYCvxWGVL4/mqdefault.jpg","viewCount":"5742","playlistId":"PLEkQk5xrP-tnl7vb7KeAoPd5ZlqKKW8KV","playlistName":"شرح كتاب بهجة النفوس أ.د . يسرى جبر","category":"متنوع"},{"id":"Ouj_6l-0Xkg","title":"فضل أخر سورة البقرة | أ.د. يسري جبر","publishedAt":"2021-04-29T14:05:00Z","duration":"PT23M3S","thumbnail":"https://i.ytimg.com/vi/Ouj_6l-0Xkg/mqdefault.jpg","viewCount":"4105","playlistId":"PLEkQk5xrP-tnl7vb7KeAoPd5ZlqKKW8KV","playlistName":"شرح كتاب بهجة النفوس أ.د . يسرى جبر","category":"متنوع"},{"id":"DRj3YPNaFHE","title":"تفسير قوله تعالى \"أَمَّن يُجِيبُ الْمُضْطَرَّ إِذَا دَعَاه\"","publishedAt":"2021-04-28T19:15:01Z","duration":"PT25M25S","thumbnail":"https://i.ytimg.com/vi/DRj3YPNaFHE/mqdefault.jpg","viewCount":"4337","playlistId":"PLEkQk5xrP-tkSGrPLMt1BEmJ54cGWYgtp","playlistName":"كتابُ بِدَعِ التَفَاسِيرِ - أ.د. يسري جبر","category":"متنوع"},{"id":"j1e3OkzaAs0","title":"فضل قراءة وحفظ القرآن | أ.د. يسري جبر","publishedAt":"2021-04-28T16:37:19Z","duration":"PT30M4S","thumbnail":"https://i.ytimg.com/vi/j1e3OkzaAs0/mqdefault.jpg","viewCount":"11308","playlistId":"PLEkQk5xrP-tnl7vb7KeAoPd5ZlqKKW8KV","playlistName":"شرح كتاب بهجة النفوس أ.د . يسرى جبر","category":"متنوع"},{"id":"M8waa0-WG_M","title":"51- أمَارات الساعة“...قال فأخبرني عن الساعة ...”تكملة الحديث (1) باب المراقبة - شرح دليل الفالحين","publishedAt":"2021-04-28T05:37:51Z","duration":"PT26M43S","thumbnail":"https://i.ytimg.com/vi/M8waa0-WG_M/mqdefault.jpg","viewCount":"1149","playlistId":"PLEkQk5xrP-tkc9DXvSLguqX5-FYp6ASR4","playlistName":"دليل الفالحين لطرق رياض الصالحين","category":"متنوع"},{"id":"SQBaqy9eM-g","title":"معنى قوله ﷺ \"أنا من حسين\"","publishedAt":"2021-04-27T19:15:01Z","duration":"PT4M34S","thumbnail":"https://i.ytimg.com/vi/SQBaqy9eM-g/mqdefault.jpg","viewCount":"5397","playlistId":"PLEkQk5xrP-tm8ZIu74nTOZN9KJUJu416J","playlistName":"مقاطع مُهمَّة (يُسريَّات) أ.د. يسري جبر","category":"متنوع"},{"id":"XbN2BwG1PSw","title":"طاعة الأمير لا تكون إلا في معروف | أ.د. يسري جبر","publishedAt":"2021-04-27T17:00:10Z","duration":"PT34M15S","thumbnail":"https://i.ytimg.com/vi/XbN2BwG1PSw/mqdefault.jpg","viewCount":"881","playlistId":"PLEkQk5xrP-tnl7vb7KeAoPd5ZlqKKW8KV","playlistName":"شرح كتاب بهجة النفوس أ.د . يسرى جبر","category":"متنوع"},{"id":"EVPC1IlCME8","title":"أحكام الربا بين الماضي والحاضر | أ.د. يسري جبر","publishedAt":"2021-04-26T15:30:01Z","duration":"PT28M55S","thumbnail":"https://i.ytimg.com/vi/EVPC1IlCME8/mqdefault.jpg","viewCount":"10473","playlistId":"PLEkQk5xrP-tnl7vb7KeAoPd5ZlqKKW8KV","playlistName":"شرح كتاب بهجة النفوس أ.د . يسرى جبر","category":"متنوع"},{"id":"C3-uNaIaYvM","title":"50- “...قال جبريلُ: فأخبرني عن الإيمان ...”تكملة الحديث (1) باب المراقبة - شرح دليل الفالحين","publishedAt":"2021-04-26T05:18:12Z","duration":"PT35M3S","thumbnail":"https://i.ytimg.com/vi/C3-uNaIaYvM/mqdefault.jpg","viewCount":"1027","playlistId":"PLEkQk5xrP-tkc9DXvSLguqX5-FYp6ASR4","playlistName":"دليل الفالحين لطرق رياض الصالحين","category":"متنوع"},{"id":"7g-nmlwrXn8","title":"التصوف يحمي من التطرف","publishedAt":"2021-04-25T19:15:00Z","duration":"PT29M32S","thumbnail":"https://i.ytimg.com/vi/7g-nmlwrXn8/mqdefault.jpg","viewCount":"5189","playlistId":"PLEkQk5xrP-tm8ZIu74nTOZN9KJUJu416J","playlistName":"مقاطع مُهمَّة (يُسريَّات) أ.د. يسري جبر","category":"متنوع"},{"id":"khpoOIh5BC4","title":"معجزة بركة النبي ﷺ | أ.د. يسري جبر","publishedAt":"2021-04-25T16:00:29Z","duration":"PT29M59S","thumbnail":"https://i.ytimg.com/vi/khpoOIh5BC4/mqdefault.jpg","viewCount":"4430","playlistId":"PLEkQk5xrP-tnl7vb7KeAoPd5ZlqKKW8KV","playlistName":"شرح كتاب بهجة النفوس أ.د . يسرى جبر","category":"متنوع"},{"id":"oR7jNJZWdb4","title":"جمال اختيارات النبي ﷺ | أ.د. يسري جبر","publishedAt":"2021-04-24T16:00:33Z","duration":"PT39M38S","thumbnail":"https://i.ytimg.com/vi/oR7jNJZWdb4/mqdefault.jpg","viewCount":"2337","playlistId":"PLEkQk5xrP-tnl7vb7KeAoPd5ZlqKKW8KV","playlistName":"شرح كتاب بهجة النفوس أ.د . يسرى جبر","category":"متنوع"},{"id":"-74Ub3yHZjk","title":"49-“بينما نحنُ جلوسُ عندَ رسول الله ﷺ ذات يوم ...”الحديث (1) باب المراقبة - شرح دليل الفالحين","publishedAt":"2021-04-24T04:57:33Z","duration":"PT39M5S","thumbnail":"https://i.ytimg.com/vi/-74Ub3yHZjk/mqdefault.jpg","viewCount":"2367","playlistId":"PLEkQk5xrP-tkc9DXvSLguqX5-FYp6ASR4","playlistName":"دليل الفالحين لطرق رياض الصالحين","category":"متنوع"},{"id":"cR2bTxvbyBc","title":"سِرُّ تعلُّق المصريين بالأضرحة والمقامات","publishedAt":"2021-04-23T19:15:02Z","duration":"PT29M16S","thumbnail":"https://i.ytimg.com/vi/cR2bTxvbyBc/mqdefault.jpg","viewCount":"10552","playlistId":"PLEkQk5xrP-tm8ZIu74nTOZN9KJUJu416J","playlistName":"مقاطع مُهمَّة (يُسريَّات) أ.د. يسري جبر","category":"متنوع"},{"id":"r2rxgrXEOvc","title":"الفرق بين الشفاعة و\"الواسطة\" | أ.د. يسري جبر","publishedAt":"2021-04-23T15:30:04Z","duration":"PT32M37S","thumbnail":"https://i.ytimg.com/vi/r2rxgrXEOvc/mqdefault.jpg","viewCount":"1948","playlistId":"PLEkQk5xrP-tnl7vb7KeAoPd5ZlqKKW8KV","playlistName":"شرح كتاب بهجة النفوس أ.د . يسرى جبر","category":"متنوع"},{"id":"JkcWGILVvpc","title":"هل كل مسلم عاصي يجب أن يهجر؟","publishedAt":"2021-04-22T19:49:18Z","duration":"PT47M8S","thumbnail":"https://i.ytimg.com/vi/JkcWGILVvpc/mqdefault.jpg","viewCount":"1348","playlistId":"PLEkQk5xrP-tnAJa3yfebXD7wNC_ECfZNt","playlistName":"كتاب النفحة الذكية في أن الهجر بدعة شركية","category":"متنوع"},{"id":"z7RX4EquMbc","title":"فضل الصبر على الوباء | أ.د. يسري جبر","publishedAt":"2021-04-22T17:01:10Z","duration":"PT21M14S","thumbnail":"https://i.ytimg.com/vi/z7RX4EquMbc/mqdefault.jpg","viewCount":"949","playlistId":"PLEkQk5xrP-tnl7vb7KeAoPd5ZlqKKW8KV","playlistName":"شرح كتاب بهجة النفوس أ.د . يسرى جبر","category":"متنوع"},{"id":"jjeETr-F3KE","title":"48-“أَخْبَرَنِي أبو سُفْيَانَ، أنَّ هِرَقْلَ قَالَ له ...”الحديث (3) باب الصِّدق - شرح دليل الفالحين","publishedAt":"2021-04-22T05:54:01Z","duration":"PT37M29S","thumbnail":"https://i.ytimg.com/vi/jjeETr-F3KE/mqdefault.jpg","viewCount":"1045","playlistId":"PLEkQk5xrP-tkc9DXvSLguqX5-FYp6ASR4","playlistName":"دليل الفالحين لطرق رياض الصالحين","category":"متنوع"}],"total":4129,"page":69,"pageSize":24,"totalPages":173}