{"items":[{"id":"yIxXFnoYOqY","title":"سورة النساء آية 95","publishedAt":"2016-09-05T06:06:34Z","duration":"PT10M22S","thumbnail":"https://i.ytimg.com/vi/yIxXFnoYOqY/mqdefault.jpg","viewCount":"403","playlistId":"PLEkQk5xrP-tnmTYsyW6xNdyfhPq0Bhrhj","playlistName":"مقرأة الفجر - القُرْآنُ الكَرِيمُ - خَتْمَةُ التَّدَبُّرِ  أ.د. يسري جبر","category":"متنوع"},{"id":"dNeB4-2weG4","title":"سورة النساء آية 93","publishedAt":"2016-09-04T19:44:16Z","duration":"PT12M42S","thumbnail":"https://i.ytimg.com/vi/dNeB4-2weG4/mqdefault.jpg","viewCount":"374","playlistId":"PLEkQk5xrP-tnmTYsyW6xNdyfhPq0Bhrhj","playlistName":"مقرأة الفجر - القُرْآنُ الكَرِيمُ - خَتْمَةُ التَّدَبُّرِ  أ.د. يسري جبر","category":"متنوع"},{"id":"BExiEJM-Xkg","title":"24- كتاب العيدين ك الموطأ د يسري جبر الأزهري  بمضيفة الشيخ سعيد الدح","publishedAt":"2016-09-04T14:58:57Z","duration":"PT47M28S","thumbnail":"https://i.ytimg.com/vi/BExiEJM-Xkg/mqdefault.jpg","viewCount":"515","playlistId":"PLEkQk5xrP-tnC6BRuqMjyO-484iqXeg0o","playlistName":"شرح كتاب الموطأ للإمام مالك","category":"متنوع"},{"id":"7h1_RYPFVgg","title":"سورة النساء آية 88","publishedAt":"2016-09-02T07:37:20Z","duration":"PT10M54S","thumbnail":"https://i.ytimg.com/vi/7h1_RYPFVgg/mqdefault.jpg","viewCount":"453","playlistId":"PLEkQk5xrP-tnmTYsyW6xNdyfhPq0Bhrhj","playlistName":"مقرأة الفجر - القُرْآنُ الكَرِيمُ - خَتْمَةُ التَّدَبُّرِ  أ.د. يسري جبر","category":"متنوع"},{"id":"1iYV2zhdV8M","title":"سورة النساء آية 81","publishedAt":"2016-09-02T00:01:05Z","duration":"PT27M19S","thumbnail":"https://i.ytimg.com/vi/1iYV2zhdV8M/mqdefault.jpg","viewCount":"486","playlistId":"PLEkQk5xrP-tnmTYsyW6xNdyfhPq0Bhrhj","playlistName":"مقرأة الفجر - القُرْآنُ الكَرِيمُ - خَتْمَةُ التَّدَبُّرِ  أ.د. يسري جبر","category":"متنوع"},{"id":"PYuPHg4uwuw","title":"سورة النساء أية 77","publishedAt":"2016-08-31T06:10:26Z","duration":"PT22M9S","thumbnail":"https://i.ytimg.com/vi/PYuPHg4uwuw/mqdefault.jpg","viewCount":"520","playlistId":"PLEkQk5xrP-tnmTYsyW6xNdyfhPq0Bhrhj","playlistName":"مقرأة الفجر - القُرْآنُ الكَرِيمُ - خَتْمَةُ التَّدَبُّرِ  أ.د. يسري جبر","category":"متنوع"},{"id":"dKTq64PdPnQ","title":"سورة النساء آية 65","publishedAt":"2016-08-28T20:24:58Z","duration":"PT10M49S","thumbnail":"https://i.ytimg.com/vi/dKTq64PdPnQ/mqdefault.jpg","viewCount":"469","playlistId":"PLEkQk5xrP-tnmTYsyW6xNdyfhPq0Bhrhj","playlistName":"مقرأة الفجر - القُرْآنُ الكَرِيمُ - خَتْمَةُ التَّدَبُّرِ  أ.د. يسري جبر","category":"متنوع"},{"id":"d5MDxnH0CQw","title":"سورة النساء آية 60","publishedAt":"2016-08-27T21:07:17Z","duration":"PT18M11S","thumbnail":"https://i.ytimg.com/vi/d5MDxnH0CQw/mqdefault.jpg","viewCount":"566","playlistId":"PLEkQk5xrP-tnmTYsyW6xNdyfhPq0Bhrhj","playlistName":"مقرأة الفجر - القُرْآنُ الكَرِيمُ - خَتْمَةُ التَّدَبُّرِ  أ.د. يسري جبر","category":"متنوع"},{"id":"iICWvhmaPPU","title":"سورة النساء آية 58","publishedAt":"2016-08-26T06:46:14Z","duration":"PT10M","thumbnail":"https://i.ytimg.com/vi/iICWvhmaPPU/mqdefault.jpg","viewCount":"466","playlistId":"PLEkQk5xrP-tnmTYsyW6xNdyfhPq0Bhrhj","playlistName":"مقرأة الفجر - القُرْآنُ الكَرِيمُ - خَتْمَةُ التَّدَبُّرِ  أ.د. يسري جبر","category":"متنوع"},{"id":"OEcih4VUw-A","title":"23- جَامِعِ الصَّلاَةِ ك قصرالصلاة فى السفر ك الموطأ د يسري جبر الأزهري بمضيفة الشيخ سعيد الدح","publishedAt":"2016-08-25T23:36:03Z","duration":"PT49M45S","thumbnail":"https://i.ytimg.com/vi/OEcih4VUw-A/mqdefault.jpg","viewCount":"541","playlistId":"PLEkQk5xrP-tnC6BRuqMjyO-484iqXeg0o","playlistName":"شرح كتاب الموطأ للإمام مالك","category":"متنوع"},{"id":"3JLbublbSKo","title":"سورة النساء آية 48","publishedAt":"2016-08-24T12:02:29Z","duration":"PT15M44S","thumbnail":"https://i.ytimg.com/vi/3JLbublbSKo/mqdefault.jpg","viewCount":"455","playlistId":"PLEkQk5xrP-tnmTYsyW6xNdyfhPq0Bhrhj","playlistName":"مقرأة الفجر - القُرْآنُ الكَرِيمُ - خَتْمَةُ التَّدَبُّرِ  أ.د. يسري جبر","category":"متنوع"},{"id":"hSjTqo3nqlE","title":"22- مَا جَاءَ فِى الصَّلاَةِ عَلَى النَّبِىِّ صلى الله عليه وسلم ك الصلاة ك الموطأ د يسري جبر","publishedAt":"2016-08-23T21:34:46Z","duration":"PT49M26S","thumbnail":"https://i.ytimg.com/vi/hSjTqo3nqlE/mqdefault.jpg","viewCount":"3325","playlistId":"PLEkQk5xrP-tnC6BRuqMjyO-484iqXeg0o","playlistName":"شرح كتاب الموطأ للإمام مالك","category":"متنوع"},{"id":"ZsgSM4d6Qts","title":"سورة النساء آية 44","publishedAt":"2016-08-23T06:44:21Z","duration":"PT20M47S","thumbnail":"https://i.ytimg.com/vi/ZsgSM4d6Qts/mqdefault.jpg","viewCount":"479","playlistId":"PLEkQk5xrP-tnmTYsyW6xNdyfhPq0Bhrhj","playlistName":"مقرأة الفجر - القُرْآنُ الكَرِيمُ - خَتْمَةُ التَّدَبُّرِ  أ.د. يسري جبر","category":"متنوع"},{"id":"s_8Dy6cHKoM","title":"سورة النساء آية 43","publishedAt":"2016-08-22T07:40:54Z","duration":"PT32M52S","thumbnail":"https://i.ytimg.com/vi/s_8Dy6cHKoM/mqdefault.jpg","viewCount":"510","playlistId":"PLEkQk5xrP-tnmTYsyW6xNdyfhPq0Bhrhj","playlistName":"مقرأة الفجر - القُرْآنُ الكَرِيمُ - خَتْمَةُ التَّدَبُّرِ  أ.د. يسري جبر","category":"متنوع"},{"id":"lKc8hCSCc5k","title":"سورة النساء آية 36","publishedAt":"2016-08-21T07:39:58Z","duration":"PT23M12S","thumbnail":"https://i.ytimg.com/vi/lKc8hCSCc5k/mqdefault.jpg","viewCount":"536","playlistId":"PLEkQk5xrP-tnmTYsyW6xNdyfhPq0Bhrhj","playlistName":"مقرأة الفجر - القُرْآنُ الكَرِيمُ - خَتْمَةُ التَّدَبُّرِ  أ.د. يسري جبر","category":"متنوع"},{"id":"0qg9itl3xTs","title":"سورة النساء آية 32","publishedAt":"2016-08-20T06:28:12Z","duration":"PT24M6S","thumbnail":"https://i.ytimg.com/vi/0qg9itl3xTs/mqdefault.jpg","viewCount":"581","playlistId":"PLEkQk5xrP-tnmTYsyW6xNdyfhPq0Bhrhj","playlistName":"مقرأة الفجر - القُرْآنُ الكَرِيمُ - خَتْمَةُ التَّدَبُّرِ  أ.د. يسري جبر","category":"متنوع"},{"id":"LlxH1Z-qUzE","title":"سورة النساء آية 29","publishedAt":"2016-08-19T15:29:07Z","duration":"PT18M40S","thumbnail":"https://i.ytimg.com/vi/LlxH1Z-qUzE/mqdefault.jpg","viewCount":"509","playlistId":"PLEkQk5xrP-tnmTYsyW6xNdyfhPq0Bhrhj","playlistName":"مقرأة الفجر - القُرْآنُ الكَرِيمُ - خَتْمَةُ التَّدَبُّرِ  أ.د. يسري جبر","category":"متنوع"},{"id":"zfREUOXGE80","title":"سورة النساء آية 25","publishedAt":"2016-08-18T07:14:16Z","duration":"PT26M14S","thumbnail":"https://i.ytimg.com/vi/zfREUOXGE80/mqdefault.jpg","viewCount":"546","playlistId":"PLEkQk5xrP-tnmTYsyW6xNdyfhPq0Bhrhj","playlistName":"مقرأة الفجر - القُرْآنُ الكَرِيمُ - خَتْمَةُ التَّدَبُّرِ  أ.د. يسري جبر","category":"متنوع"},{"id":"A24_NLpMrk4","title":"سورة النساء آية 24","publishedAt":"2016-08-17T05:56:13Z","duration":"PT10M7S","thumbnail":"https://i.ytimg.com/vi/A24_NLpMrk4/mqdefault.jpg","viewCount":"563","playlistId":"PLEkQk5xrP-tnmTYsyW6xNdyfhPq0Bhrhj","playlistName":"مقرأة الفجر - القُرْآنُ الكَرِيمُ - خَتْمَةُ التَّدَبُّرِ  أ.د. يسري جبر","category":"متنوع"},{"id":"3ldOGvtcppw","title":"21- الْقُنُوتِ فِى الصُّبْحِ ك قصرالصلاة فى السفر ك الموطأ د يسري جبر الأزهري","publishedAt":"2016-08-16T13:09:36Z","duration":"PT44M6S","thumbnail":"https://i.ytimg.com/vi/3ldOGvtcppw/mqdefault.jpg","viewCount":"576","playlistId":"PLEkQk5xrP-tnC6BRuqMjyO-484iqXeg0o","playlistName":"شرح كتاب الموطأ للإمام مالك","category":"متنوع"},{"id":"jKf1b-gG6VY","title":"سورة النساء آية 23","publishedAt":"2016-08-16T06:25:23Z","duration":"PT13M26S","thumbnail":"https://i.ytimg.com/vi/jKf1b-gG6VY/mqdefault.jpg","viewCount":"509","playlistId":"PLEkQk5xrP-tnmTYsyW6xNdyfhPq0Bhrhj","playlistName":"مقرأة الفجر - القُرْآنُ الكَرِيمُ - خَتْمَةُ التَّدَبُّرِ  أ.د. يسري جبر","category":"متنوع"},{"id":"q1c9cQS43Bk","title":"سورة النساء آية 19","publishedAt":"2016-08-15T09:11:06Z","duration":"PT21M","thumbnail":"https://i.ytimg.com/vi/q1c9cQS43Bk/mqdefault.jpg","viewCount":"639","playlistId":"PLEkQk5xrP-tnmTYsyW6xNdyfhPq0Bhrhj","playlistName":"مقرأة الفجر - القُرْآنُ الكَرِيمُ - خَتْمَةُ التَّدَبُّرِ  أ.د. يسري جبر","category":"متنوع"},{"id":"hPKw48nzJxU","title":"سورة النساء آية 13","publishedAt":"2016-08-14T06:15:28Z","duration":"PT13M27S","thumbnail":"https://i.ytimg.com/vi/hPKw48nzJxU/mqdefault.jpg","viewCount":"553","playlistId":"PLEkQk5xrP-tnmTYsyW6xNdyfhPq0Bhrhj","playlistName":"مقرأة الفجر - القُرْآنُ الكَرِيمُ - خَتْمَةُ التَّدَبُّرِ  أ.د. يسري جبر","category":"متنوع"},{"id":"q2c2DHJNO6M","title":"سورة النساء آية 12","publishedAt":"2016-08-13T06:03:45Z","duration":"PT12M13S","thumbnail":"https://i.ytimg.com/vi/q2c2DHJNO6M/mqdefault.jpg","viewCount":"475","playlistId":"PLEkQk5xrP-tnmTYsyW6xNdyfhPq0Bhrhj","playlistName":"مقرأة الفجر - القُرْآنُ الكَرِيمُ - خَتْمَةُ التَّدَبُّرِ  أ.د. يسري جبر","category":"متنوع"}],"total":4129,"page":145,"pageSize":24,"totalPages":173}