{"items":[{"id":"Hx19thMT_Fc","title":"شرح سنن الدارمي كتاب الحدود من باب ١٢","publishedAt":"2019-08-18T09:41:13Z","duration":"PT27M7S","thumbnail":"https://i.ytimg.com/vi/Hx19thMT_Fc/mqdefault.jpg","viewCount":"228","playlistId":"PLEkQk5xrP-tmAg-FuWjY057X_h5NmGmAa","playlistName":"شرح سنن الدارمي - أ.د. يسري جبر (كاملا)","category":"متنوع"},{"id":"rUn5bwp14Yc","title":"مقرأة سورة الناس من أولها","publishedAt":"2019-08-17T22:07:10Z","duration":"PT26M56S","thumbnail":"https://i.ytimg.com/vi/rUn5bwp14Yc/mqdefault.jpg","viewCount":"2269","playlistId":"PLEkQk5xrP-tnmTYsyW6xNdyfhPq0Bhrhj","playlistName":"مقرأة الفجر - القُرْآنُ الكَرِيمُ - خَتْمَةُ التَّدَبُّرِ  أ.د. يسري جبر","category":"متنوع"},{"id":"zQdjh27Zob0","title":"شرح سنن الدارمي كتاب الحدود من باب ٧","publishedAt":"2019-08-17T17:09:43Z","duration":"PT30M41S","thumbnail":"https://i.ytimg.com/vi/zQdjh27Zob0/mqdefault.jpg","viewCount":"311","playlistId":"PLEkQk5xrP-tmAg-FuWjY057X_h5NmGmAa","playlistName":"شرح سنن الدارمي - أ.د. يسري جبر (كاملا)","category":"متنوع"},{"id":"O8A484glFRM","title":"مقرأة سورة الفلق من أولها","publishedAt":"2019-08-17T11:23:10Z","duration":"PT14M22S","thumbnail":"https://i.ytimg.com/vi/O8A484glFRM/mqdefault.jpg","viewCount":"1294","playlistId":"PLEkQk5xrP-tnmTYsyW6xNdyfhPq0Bhrhj","playlistName":"مقرأة الفجر - القُرْآنُ الكَرِيمُ - خَتْمَةُ التَّدَبُّرِ  أ.د. يسري جبر","category":"متنوع"},{"id":"xR3ma_nKRcc","title":"شرح سنن الدارمي كتاب الحدود من أوله","publishedAt":"2019-08-16T22:02:28Z","duration":"PT34M38S","thumbnail":"https://i.ytimg.com/vi/xR3ma_nKRcc/mqdefault.jpg","viewCount":"413","playlistId":"PLEkQk5xrP-tmAg-FuWjY057X_h5NmGmAa","playlistName":"شرح سنن الدارمي - أ.د. يسري جبر (كاملا)","category":"متنوع"},{"id":"n3WrpYSmDis","title":"مقرأة سورة الإخلاص من أولها","publishedAt":"2019-08-16T16:23:50Z","duration":"PT13M22S","thumbnail":"https://i.ytimg.com/vi/n3WrpYSmDis/mqdefault.jpg","viewCount":"1838","playlistId":"PLEkQk5xrP-tnmTYsyW6xNdyfhPq0Bhrhj","playlistName":"مقرأة الفجر - القُرْآنُ الكَرِيمُ - خَتْمَةُ التَّدَبُّرِ  أ.د. يسري جبر","category":"متنوع"},{"id":"o9xlJwtCjBs","title":"شرح سنن الدارمي كتاب الطلا‎ق من باب ١٢","publishedAt":"2019-08-16T11:34:54Z","duration":"PT36M14S","thumbnail":"https://i.ytimg.com/vi/o9xlJwtCjBs/mqdefault.jpg","viewCount":"376","playlistId":"PLEkQk5xrP-tmAg-FuWjY057X_h5NmGmAa","playlistName":"شرح سنن الدارمي - أ.د. يسري جبر (كاملا)","category":"متنوع"},{"id":"1LW1kCy2McA","title":"مقرأة سورة المسد من أولها","publishedAt":"2019-08-16T04:14:58Z","duration":"PT20M6S","thumbnail":"https://i.ytimg.com/vi/1LW1kCy2McA/mqdefault.jpg","viewCount":"901","playlistId":"PLEkQk5xrP-tnmTYsyW6xNdyfhPq0Bhrhj","playlistName":"مقرأة الفجر - القُرْآنُ الكَرِيمُ - خَتْمَةُ التَّدَبُّرِ  أ.د. يسري جبر","category":"متنوع"},{"id":"kiEcQlsN10k","title":"شرح سنن الدارمي كتاب الطلا‎ق من باب ٧","publishedAt":"2019-08-15T16:34:40Z","duration":"PT35M52S","thumbnail":"https://i.ytimg.com/vi/kiEcQlsN10k/mqdefault.jpg","viewCount":"337","playlistId":"PLEkQk5xrP-tmAg-FuWjY057X_h5NmGmAa","playlistName":"شرح سنن الدارمي - أ.د. يسري جبر (كاملا)","category":"متنوع"},{"id":"jXLBGkeyk5Y","title":"مقرأة سورة النصر من أولها","publishedAt":"2019-08-15T10:21:57Z","duration":"PT5M2S","thumbnail":"https://i.ytimg.com/vi/jXLBGkeyk5Y/mqdefault.jpg","viewCount":"641","playlistId":"PLEkQk5xrP-tnmTYsyW6xNdyfhPq0Bhrhj","playlistName":"مقرأة الفجر - القُرْآنُ الكَرِيمُ - خَتْمَةُ التَّدَبُّرِ  أ.د. يسري جبر","category":"متنوع"},{"id":"YDPjh_hySJQ","title":"شرح سنن الدارمي كتاب الطلا‎ق من أوله","publishedAt":"2019-08-15T04:17:16Z","duration":"PT32M34S","thumbnail":"https://i.ytimg.com/vi/YDPjh_hySJQ/mqdefault.jpg","viewCount":"276","playlistId":"PLEkQk5xrP-tmAg-FuWjY057X_h5NmGmAa","playlistName":"شرح سنن الدارمي - أ.د. يسري جبر (كاملا)","category":"متنوع"},{"id":"MLh50WimpSI","title":"مقرأة سورة الكافرون من أولها","publishedAt":"2019-08-14T22:36:21Z","duration":"PT5M42S","thumbnail":"https://i.ytimg.com/vi/MLh50WimpSI/mqdefault.jpg","viewCount":"546","playlistId":"PLEkQk5xrP-tnmTYsyW6xNdyfhPq0Bhrhj","playlistName":"مقرأة الفجر - القُرْآنُ الكَرِيمُ - خَتْمَةُ التَّدَبُّرِ  أ.د. يسري جبر","category":"متنوع"},{"id":"jB6msMShj90","title":"شرح سنن الدارمي كتاب النكاح من باب ٥١","publishedAt":"2019-08-14T14:09:38Z","duration":"PT42M10S","thumbnail":"https://i.ytimg.com/vi/jB6msMShj90/mqdefault.jpg","viewCount":"407","playlistId":"PLEkQk5xrP-tmAg-FuWjY057X_h5NmGmAa","playlistName":"شرح سنن الدارمي - أ.د. يسري جبر (كاملا)","category":"متنوع"},{"id":"KlXupWwB9PM","title":"مقرأة سورة الكوثر من أولها","publishedAt":"2019-08-14T08:12:21Z","duration":"PT7M48S","thumbnail":"https://i.ytimg.com/vi/KlXupWwB9PM/mqdefault.jpg","viewCount":"928","playlistId":"PLEkQk5xrP-tnmTYsyW6xNdyfhPq0Bhrhj","playlistName":"مقرأة الفجر - القُرْآنُ الكَرِيمُ - خَتْمَةُ التَّدَبُّرِ  أ.د. يسري جبر","category":"متنوع"},{"id":"brbBhkuLyoA","title":"شرح سنن الدارمي كتاب النكاح من باب ٤٨","publishedAt":"2019-08-13T19:41:06Z","duration":"PT33M18S","thumbnail":"https://i.ytimg.com/vi/brbBhkuLyoA/mqdefault.jpg","viewCount":"452","playlistId":"PLEkQk5xrP-tmAg-FuWjY057X_h5NmGmAa","playlistName":"شرح سنن الدارمي - أ.د. يسري جبر (كاملا)","category":"متنوع"},{"id":"tzytPbeXfpk","title":"مقرأة سورة الماعون من أولها","publishedAt":"2019-08-13T11:07:32Z","duration":"PT17M8S","thumbnail":"https://i.ytimg.com/vi/tzytPbeXfpk/mqdefault.jpg","viewCount":"722","playlistId":"PLEkQk5xrP-tnmTYsyW6xNdyfhPq0Bhrhj","playlistName":"مقرأة الفجر - القُرْآنُ الكَرِيمُ - خَتْمَةُ التَّدَبُّرِ  أ.د. يسري جبر","category":"متنوع"},{"id":"cVHc8mbJmAA","title":"شرح سنن الدارمي كتاب النكاح من باب ٤١","publishedAt":"2019-08-12T18:54:26Z","duration":"PT29M1S","thumbnail":"https://i.ytimg.com/vi/cVHc8mbJmAA/mqdefault.jpg","viewCount":"412","playlistId":"PLEkQk5xrP-tmAg-FuWjY057X_h5NmGmAa","playlistName":"شرح سنن الدارمي - أ.د. يسري جبر (كاملا)","category":"متنوع"},{"id":"b_EIyU_-FLs","title":"مقرأة سورة قريش من أولها","publishedAt":"2019-08-11T20:25:20Z","duration":"PT7M33S","thumbnail":"https://i.ytimg.com/vi/b_EIyU_-FLs/mqdefault.jpg","viewCount":"717","playlistId":"PLEkQk5xrP-tnmTYsyW6xNdyfhPq0Bhrhj","playlistName":"مقرأة الفجر - القُرْآنُ الكَرِيمُ - خَتْمَةُ التَّدَبُّرِ  أ.د. يسري جبر","category":"متنوع"},{"id":"-uTb_ermtF0","title":"شرح سنن الدارمي كتاب النكاح من باب ٣٦","publishedAt":"2019-08-11T08:51:06Z","duration":"PT33M43S","thumbnail":"https://i.ytimg.com/vi/-uTb_ermtF0/mqdefault.jpg","viewCount":"470","playlistId":"PLEkQk5xrP-tmAg-FuWjY057X_h5NmGmAa","playlistName":"شرح سنن الدارمي - أ.د. يسري جبر (كاملا)","category":"متنوع"},{"id":"KH1Q4a_avD4","title":"مقرأة سورة الفيل من أولها","publishedAt":"2019-08-10T21:27:07Z","duration":"PT9M45S","thumbnail":"https://i.ytimg.com/vi/KH1Q4a_avD4/mqdefault.jpg","viewCount":"634","playlistId":"PLEkQk5xrP-tnmTYsyW6xNdyfhPq0Bhrhj","playlistName":"مقرأة الفجر - القُرْآنُ الكَرِيمُ - خَتْمَةُ التَّدَبُّرِ  أ.د. يسري جبر","category":"متنوع"},{"id":"NPECoa1QDg0","title":"شرح سنن الدارمي كتاب النكاح من باب ٢٩","publishedAt":"2019-08-10T09:10:01Z","duration":"PT35M1S","thumbnail":"https://i.ytimg.com/vi/NPECoa1QDg0/mqdefault.jpg","viewCount":"455","playlistId":"PLEkQk5xrP-tmAg-FuWjY057X_h5NmGmAa","playlistName":"شرح سنن الدارمي - أ.د. يسري جبر (كاملا)","category":"متنوع"},{"id":"8cM-G7bs2LU","title":"قراءة الأربعين النووية في الروضة الشريفة","publishedAt":"2019-08-09T10:12:00Z","duration":"PT57M54S","thumbnail":"https://i.ytimg.com/vi/8cM-G7bs2LU/mqdefault.jpg","viewCount":"1842","playlistId":"PLEkQk5xrP-tmJzNvLntpzW0uPanPzxA0c","playlistName":"لقاءات ومحاضرات","category":"متنوع"},{"id":"eyDe4Uk3u8I","title":"مقرأة سورة الهمزة من أولها","publishedAt":"2019-08-08T20:49:18Z","duration":"PT14M48S","thumbnail":"https://i.ytimg.com/vi/eyDe4Uk3u8I/mqdefault.jpg","viewCount":"673","playlistId":"PLEkQk5xrP-tnmTYsyW6xNdyfhPq0Bhrhj","playlistName":"مقرأة الفجر - القُرْآنُ الكَرِيمُ - خَتْمَةُ التَّدَبُّرِ  أ.د. يسري جبر","category":"متنوع"},{"id":"zlkMF1kR5yM","title":"شرح سنن الدارمي كتاب النكاح من باب ١٨","publishedAt":"2019-08-08T09:24:31Z","duration":"PT41M27S","thumbnail":"https://i.ytimg.com/vi/zlkMF1kR5yM/mqdefault.jpg","viewCount":"439","playlistId":"PLEkQk5xrP-tmAg-FuWjY057X_h5NmGmAa","playlistName":"شرح سنن الدارمي - أ.د. يسري جبر (كاملا)","category":"متنوع"}],"total":4129,"page":90,"pageSize":24,"totalPages":173}