{"items":[{"id":"QVU5NxccDD8","title":"369- مَن أنفق زوجين في سبيل الله، نُوديَ مِن أبواب الجَنَّة يا عبد الله هذا خير - شرح دليل الفالحين","publishedAt":"2022-12-30T05:00:09Z","duration":"PT38M14S","thumbnail":"https://i.ytimg.com/vi/QVU5NxccDD8/mqdefault.jpg","viewCount":"945","playlistId":"PLEkQk5xrP-tkc9DXvSLguqX5-FYp6ASR4","playlistName":"دليل الفالحين لطرق رياض الصالحين","category":"متنوع"},{"id":"kFTcJSBojCo","title":"هل يوجد ربا في فوائد البنوك,, وما هي أنواع الربا؟","publishedAt":"2022-12-29T18:00:14Z","duration":"PT10M23S","thumbnail":"https://i.ytimg.com/vi/kFTcJSBojCo/mqdefault.jpg","viewCount":"113490","playlistId":"PLEkQk5xrP-tm8ZIu74nTOZN9KJUJu416J","playlistName":"مقاطع مُهمَّة (يُسريَّات) أ.د. يسري جبر","category":"متنوع"},{"id":"HrsmnAu0AQ8","title":"368- وجوب صوم رمضان وبيان فضل الصيام وما يتعلق به - شرح دليل الفالحين","publishedAt":"2022-12-28T09:00:13Z","duration":"PT31M25S","thumbnail":"https://i.ytimg.com/vi/HrsmnAu0AQ8/mqdefault.jpg","viewCount":"475","playlistId":"PLEkQk5xrP-tkc9DXvSLguqX5-FYp6ASR4","playlistName":"دليل الفالحين لطرق رياض الصالحين","category":"متنوع"},{"id":"dH-EFGpI7zQ","title":"367- حكم كَنز المال وعدم إنفاقه - شرح دليل الفالحين","publishedAt":"2022-12-27T09:00:29Z","duration":"PT46M28S","thumbnail":"https://i.ytimg.com/vi/dH-EFGpI7zQ/mqdefault.jpg","viewCount":"982","playlistId":"PLEkQk5xrP-tkc9DXvSLguqX5-FYp6ASR4","playlistName":"دليل الفالحين لطرق رياض الصالحين","category":"متنوع"},{"id":"cOD40Y2-sS8","title":"366- حكم مَن فَرَّقَ بيْنَ الصَّلَاةِ والزَّكَاةِ - شرح دليل الفالحين","publishedAt":"2022-12-26T09:00:16Z","duration":"PT34M35S","thumbnail":"https://i.ytimg.com/vi/cOD40Y2-sS8/mqdefault.jpg","viewCount":"580","playlistId":"PLEkQk5xrP-tkc9DXvSLguqX5-FYp6ASR4","playlistName":"دليل الفالحين لطرق رياض الصالحين","category":"متنوع"},{"id":"ItFaqA6nMdA","title":"كيفية علاج النسيان وعدم التركيز؟","publishedAt":"2022-12-24T18:00:13Z","duration":"PT8M4S","thumbnail":"https://i.ytimg.com/vi/ItFaqA6nMdA/mqdefault.jpg","viewCount":"44480","playlistId":"PLEkQk5xrP-tkGXuZ9atE3k_7it12rUPTs","playlistName":"أسئلة المتابعين","category":"متنوع"},{"id":"BwjP_qlAnuw","title":"3- الفرق بين الماء إذا تغير بمجاور أو بمخالط، ومعنى التطهير بالمكاثرة","publishedAt":"2022-12-24T09:00:06Z","duration":"PT39M43S","thumbnail":"https://i.ytimg.com/vi/BwjP_qlAnuw/mqdefault.jpg","viewCount":"1012","playlistId":"PLEkQk5xrP-tk_MCBZ706ORCw6gFtFyaGj","playlistName":"شرح سنن الإمام الدارقطني","category":"متنوع"},{"id":"MFVceomZljc","title":"هل علم الفراسة وقراءة الوجوه حرام؟","publishedAt":"2022-12-23T18:00:07Z","duration":"PT11M18S","thumbnail":"https://i.ytimg.com/vi/MFVceomZljc/mqdefault.jpg","viewCount":"20916","playlistId":"PLEkQk5xrP-tkGXuZ9atE3k_7it12rUPTs","playlistName":"أسئلة المتابعين","category":"متنوع"},{"id":"OeIPEpQz5eQ","title":"365- \"..فأعْلِمهم أنَّ اللَّهَ افْترض عليهم صدقة في أموالهم تُؤخذ مِن أغنيائِهم وتُردّ على فقرائهِم\"","publishedAt":"2022-12-23T09:00:12Z","duration":"PT34M59S","thumbnail":"https://i.ytimg.com/vi/OeIPEpQz5eQ/mqdefault.jpg","viewCount":"676","playlistId":"PLEkQk5xrP-tkc9DXvSLguqX5-FYp6ASR4","playlistName":"دليل الفالحين لطرق رياض الصالحين","category":"متنوع"},{"id":"z25MTs3bX3o","title":"20- معرفة الله عزَّ وجلَّ - عقيدةُ العارفينَ بالله وأولياء الله الصالحين.","publishedAt":"2022-12-22T09:00:35Z","duration":"PT58M59S","thumbnail":"https://i.ytimg.com/vi/z25MTs3bX3o/mqdefault.jpg","viewCount":"9618","playlistId":"PLEkQk5xrP-tmNuYT8JAh6clwa4krsgkNo","playlistName":"شرح كتاب الفُتُوحات اليُسريَّة في عقائد الأُمَّة المُحمَّديَّة","category":"متنوع"},{"id":"-xJQy6t2gX4","title":"19- سبحان الواحد: المعروف قبل الحدود وقبل الحروف - عقيدةُ العارفينَ بالله وأولياء الله الصالحين","publishedAt":"2022-12-21T09:00:00Z","duration":"PT49M14S","thumbnail":"https://i.ytimg.com/vi/-xJQy6t2gX4/mqdefault.jpg","viewCount":"2636","playlistId":"PLEkQk5xrP-tmNuYT8JAh6clwa4krsgkNo","playlistName":"شرح كتاب الفُتُوحات اليُسريَّة في عقائد الأُمَّة المُحمَّديَّة","category":"متنوع"},{"id":"wQKAFZJ0WbA","title":"هل يطلع الله بعض الأولياء علي الغيب؟","publishedAt":"2022-12-20T18:03:09Z","duration":"PT11M54S","thumbnail":"https://i.ytimg.com/vi/wQKAFZJ0WbA/mqdefault.jpg","viewCount":"32289","playlistId":"PLEkQk5xrP-tkGXuZ9atE3k_7it12rUPTs","playlistName":"أسئلة المتابعين","category":"متنوع"},{"id":"_egWf4sU7eM","title":"364- حكم قطع عبادة التَّطَوُّعِ بعد الشروع فيها - شرح دليل الفالحين","publishedAt":"2022-12-20T09:00:27Z","duration":"PT20M12S","thumbnail":"https://i.ytimg.com/vi/_egWf4sU7eM/mqdefault.jpg","viewCount":"810","playlistId":"PLEkQk5xrP-tkc9DXvSLguqX5-FYp6ASR4","playlistName":"دليل الفالحين لطرق رياض الصالحين","category":"متنوع"},{"id":"BCJlzN4z2XU","title":"كيفية حل المشاكل الزوجية؟","publishedAt":"2022-12-19T18:00:04Z","duration":"PT8M11S","thumbnail":"https://i.ytimg.com/vi/BCJlzN4z2XU/mqdefault.jpg","viewCount":"6366","playlistId":"PLEkQk5xrP-tkGXuZ9atE3k_7it12rUPTs","playlistName":"أسئلة المتابعين","category":"متنوع"},{"id":"Psni2eCWPZA","title":"363- تأكيد وجوب الزَّكاة وبيان فضلها وما يتعلق بها - شرح دليل الفالحين","publishedAt":"2022-12-19T09:00:08Z","duration":"PT24M36S","thumbnail":"https://i.ytimg.com/vi/Psni2eCWPZA/mqdefault.jpg","viewCount":"537","playlistId":"PLEkQk5xrP-tkc9DXvSLguqX5-FYp6ASR4","playlistName":"دليل الفالحين لطرق رياض الصالحين","category":"متنوع"},{"id":"-HRGSANQekM","title":"362- فضل السِّواك وخِصال الفِطرة - شرح دليل الفالحين","publishedAt":"2022-12-18T09:00:00Z","duration":"PT1H12M36S","thumbnail":"https://i.ytimg.com/vi/-HRGSANQekM/mqdefault.jpg","viewCount":"738","playlistId":"PLEkQk5xrP-tkc9DXvSLguqX5-FYp6ASR4","playlistName":"دليل الفالحين لطرق رياض الصالحين","category":"متنوع"},{"id":"R69gCmC-Jb0","title":"هل فوائد شهادات الاستثمار حلال؟","publishedAt":"2022-12-17T18:00:14Z","duration":"PT10M30S","thumbnail":"https://i.ytimg.com/vi/R69gCmC-Jb0/mqdefault.jpg","viewCount":"9102","playlistId":"PLEkQk5xrP-tkGXuZ9atE3k_7it12rUPTs","playlistName":"أسئلة المتابعين","category":"متنوع"},{"id":"gZE_sXu56nE","title":"2-  مقدار الماء الذي لا يحمل النجاسة - كتاب الطهارة","publishedAt":"2022-12-17T09:00:32Z","duration":"PT38M8S","thumbnail":"https://i.ytimg.com/vi/gZE_sXu56nE/mqdefault.jpg","viewCount":"1599","playlistId":"PLEkQk5xrP-tk_MCBZ706ORCw6gFtFyaGj","playlistName":"شرح سنن الإمام الدارقطني","category":"متنوع"},{"id":"3fQxgDsPU3w","title":"361- فضل ليلة القدر وبيان أرجى لياليها - شرح دليل الفالحين","publishedAt":"2022-12-16T09:00:02Z","duration":"PT24M51S","thumbnail":"https://i.ytimg.com/vi/3fQxgDsPU3w/mqdefault.jpg","viewCount":"536","playlistId":"PLEkQk5xrP-tkc9DXvSLguqX5-FYp6ASR4","playlistName":"دليل الفالحين لطرق رياض الصالحين","category":"متنوع"},{"id":"f7Zue7A_lL4","title":"360- استحباب قيام رمضان - شرح دليل الفالحين","publishedAt":"2022-12-14T09:00:31Z","duration":"PT34M40S","thumbnail":"https://i.ytimg.com/vi/f7Zue7A_lL4/mqdefault.jpg","viewCount":"550","playlistId":"PLEkQk5xrP-tkc9DXvSLguqX5-FYp6ASR4","playlistName":"دليل الفالحين لطرق رياض الصالحين","category":"متنوع"},{"id":"K19cBqBmRi8","title":"359- سُئِلَ رَسُولُ اللهِ ﷺ: أَيُّ الصَّلَاةِ أَفْضَلُ؟ قالَ: طُولُ القُنُوتِ - شرح دليل الفالحين","publishedAt":"2022-12-13T09:00:08Z","duration":"PT29M58S","thumbnail":"https://i.ytimg.com/vi/K19cBqBmRi8/mqdefault.jpg","viewCount":"1150","playlistId":"PLEkQk5xrP-tkc9DXvSLguqX5-FYp6ASR4","playlistName":"دليل الفالحين لطرق رياض الصالحين","category":"متنوع"},{"id":"f9_4jXTsP40","title":"ما سبب الوقوف عند ذكر لفظ الجلالة الله؟","publishedAt":"2022-12-12T18:00:26Z","duration":"PT8M39S","thumbnail":"https://i.ytimg.com/vi/f9_4jXTsP40/mqdefault.jpg","viewCount":"16435","playlistId":"PLEkQk5xrP-tkGXuZ9atE3k_7it12rUPTs","playlistName":"أسئلة المتابعين","category":"متنوع"},{"id":"onW4R1kN04g","title":"358- صلاة الليل مثنى مثنى - شرح دليل الفالحين","publishedAt":"2022-12-11T18:10:00Z","duration":"PT47M16S","thumbnail":"https://i.ytimg.com/vi/onW4R1kN04g/mqdefault.jpg","viewCount":"1191","playlistId":"PLEkQk5xrP-tkc9DXvSLguqX5-FYp6ASR4","playlistName":"دليل الفالحين لطرق رياض الصالحين","category":"متنوع"},{"id":"Rv9YqHD52mo","title":"1- المقدمة ـ كتاب الطهارة - شرح سنن الدار قطني رضي الله عنه","publishedAt":"2022-12-11T09:00:11Z","duration":"PT40M49S","thumbnail":"https://i.ytimg.com/vi/Rv9YqHD52mo/mqdefault.jpg","viewCount":"4093","playlistId":"PLEkQk5xrP-tk_MCBZ706ORCw6gFtFyaGj","playlistName":"شرح سنن الإمام الدارقطني","category":"متنوع"}],"total":4129,"page":42,"pageSize":24,"totalPages":173}