{"items":[{"id":"312ztm9HUV0","title":"مقرأة سورة الشورى من آية ٢٣","publishedAt":"2018-12-02T09:20:55Z","duration":"PT15M18S","thumbnail":"https://i.ytimg.com/vi/312ztm9HUV0/mqdefault.jpg","viewCount":"273","playlistId":"PLEkQk5xrP-tnmTYsyW6xNdyfhPq0Bhrhj","playlistName":"مقرأة الفجر - القُرْآنُ الكَرِيمُ - خَتْمَةُ التَّدَبُّرِ  أ.د. يسري جبر","category":"متنوع"},{"id":"SXDx3gcCpGk","title":"مقرأة سورة الشورى من آية ١٦","publishedAt":"2018-12-01T10:04:54Z","duration":"PT18M57S","thumbnail":"https://i.ytimg.com/vi/SXDx3gcCpGk/mqdefault.jpg","viewCount":"294","playlistId":"PLEkQk5xrP-tnmTYsyW6xNdyfhPq0Bhrhj","playlistName":"مقرأة الفجر - القُرْآنُ الكَرِيمُ - خَتْمَةُ التَّدَبُّرِ  أ.د. يسري جبر","category":"متنوع"},{"id":"LxA9vNq0e0E","title":"مقرأة سورة الشورى من آية ١٣","publishedAt":"2018-11-30T05:13:10Z","duration":"PT15M7S","thumbnail":"https://i.ytimg.com/vi/LxA9vNq0e0E/mqdefault.jpg","viewCount":"323","playlistId":"PLEkQk5xrP-tnmTYsyW6xNdyfhPq0Bhrhj","playlistName":"مقرأة الفجر - القُرْآنُ الكَرِيمُ - خَتْمَةُ التَّدَبُّرِ  أ.د. يسري جبر","category":"متنوع"},{"id":"mpLvNLpY-PE","title":"مقرأة سورة الشورى من آية ٩","publishedAt":"2018-11-29T19:33:52Z","duration":"PT25M31S","thumbnail":"https://i.ytimg.com/vi/mpLvNLpY-PE/mqdefault.jpg","viewCount":"553","playlistId":"PLEkQk5xrP-tnmTYsyW6xNdyfhPq0Bhrhj","playlistName":"مقرأة الفجر - القُرْآنُ الكَرِيمُ - خَتْمَةُ التَّدَبُّرِ  أ.د. يسري جبر","category":"متنوع"},{"id":"DCo__NwlWgM","title":"مقرأة سورة الشورى من أولها","publishedAt":"2018-11-28T14:34:53Z","duration":"PT22M45S","thumbnail":"https://i.ytimg.com/vi/DCo__NwlWgM/mqdefault.jpg","viewCount":"1222","playlistId":"PLEkQk5xrP-tnmTYsyW6xNdyfhPq0Bhrhj","playlistName":"مقرأة الفجر - القُرْآنُ الكَرِيمُ - خَتْمَةُ التَّدَبُّرِ  أ.د. يسري جبر","category":"متنوع"},{"id":"DQHCnfSPUkw","title":"الندوة الطبية مع د. يسري جبر","publishedAt":"2018-11-28T09:55:02Z","duration":"PT38M26S","thumbnail":"https://i.ytimg.com/vi/DQHCnfSPUkw/mqdefault.jpg","viewCount":"1008","playlistId":"PLEkQk5xrP-tmJzNvLntpzW0uPanPzxA0c","playlistName":"لقاءات ومحاضرات","category":"متنوع"},{"id":"Dx1W462bAMA","title":"مقرأة سورة فصلت من آية ٤٥","publishedAt":"2018-11-27T10:03:01Z","duration":"PT31M50S","thumbnail":"https://i.ytimg.com/vi/Dx1W462bAMA/mqdefault.jpg","viewCount":"345","playlistId":"PLEkQk5xrP-tnmTYsyW6xNdyfhPq0Bhrhj","playlistName":"مقرأة الفجر - القُرْآنُ الكَرِيمُ - خَتْمَةُ التَّدَبُّرِ  أ.د. يسري جبر","category":"متنوع"},{"id":"1gQzccNaCDs","title":"مقرأة سورة فصلت من آية ٤٠","publishedAt":"2018-11-26T09:12:33Z","duration":"PT22M51S","thumbnail":"https://i.ytimg.com/vi/1gQzccNaCDs/mqdefault.jpg","viewCount":"342","playlistId":"PLEkQk5xrP-tnmTYsyW6xNdyfhPq0Bhrhj","playlistName":"مقرأة الفجر - القُرْآنُ الكَرِيمُ - خَتْمَةُ التَّدَبُّرِ  أ.د. يسري جبر","category":"متنوع"},{"id":"8AN3osxIX8E","title":"مقرأة سورة فصلت من آية ٣٧","publishedAt":"2018-11-25T09:28:54Z","duration":"PT9M34S","thumbnail":"https://i.ytimg.com/vi/8AN3osxIX8E/mqdefault.jpg","viewCount":"246","playlistId":"PLEkQk5xrP-tnmTYsyW6xNdyfhPq0Bhrhj","playlistName":"مقرأة الفجر - القُرْآنُ الكَرِيمُ - خَتْمَةُ التَّدَبُّرِ  أ.د. يسري جبر","category":"متنوع"},{"id":"rED44puGedw","title":"مقرأة سورة فصلت من آية ٣٠","publishedAt":"2018-11-24T15:39:22Z","duration":"PT13M8S","thumbnail":"https://i.ytimg.com/vi/rED44puGedw/mqdefault.jpg","viewCount":"254","playlistId":"PLEkQk5xrP-tnmTYsyW6xNdyfhPq0Bhrhj","playlistName":"مقرأة الفجر - القُرْآنُ الكَرِيمُ - خَتْمَةُ التَّدَبُّرِ  أ.د. يسري جبر","category":"متنوع"},{"id":"I4wgwonEYCw","title":"مقرأة سورة فصلت من آية ٢٦","publishedAt":"2018-11-23T16:40:04Z","duration":"PT16M13S","thumbnail":"https://i.ytimg.com/vi/I4wgwonEYCw/mqdefault.jpg","viewCount":"316","playlistId":"PLEkQk5xrP-tnmTYsyW6xNdyfhPq0Bhrhj","playlistName":"مقرأة الفجر - القُرْآنُ الكَرِيمُ - خَتْمَةُ التَّدَبُّرِ  أ.د. يسري جبر","category":"متنوع"},{"id":"XMrv0w0VK4A","title":"مقرأة سورة فصلت من آية ١٩","publishedAt":"2018-11-22T10:01:25Z","duration":"PT13M41S","thumbnail":"https://i.ytimg.com/vi/XMrv0w0VK4A/mqdefault.jpg","viewCount":"273","playlistId":"PLEkQk5xrP-tnmTYsyW6xNdyfhPq0Bhrhj","playlistName":"مقرأة الفجر - القُرْآنُ الكَرِيمُ - خَتْمَةُ التَّدَبُّرِ  أ.د. يسري جبر","category":"متنوع"},{"id":"ot1jJmxiXTE","title":"مقرأة سورة فصلت من آية ١٣","publishedAt":"2018-11-21T15:14:42Z","duration":"PT18M23S","thumbnail":"https://i.ytimg.com/vi/ot1jJmxiXTE/mqdefault.jpg","viewCount":"343","playlistId":"PLEkQk5xrP-tnmTYsyW6xNdyfhPq0Bhrhj","playlistName":"مقرأة الفجر - القُرْآنُ الكَرِيمُ - خَتْمَةُ التَّدَبُّرِ  أ.د. يسري جبر","category":"متنوع"},{"id":"Yv-MF6WMvqI","title":"مقرأة سورة فصلت من آية ٩","publishedAt":"2018-11-20T07:09:50Z","duration":"PT14M3S","thumbnail":"https://i.ytimg.com/vi/Yv-MF6WMvqI/mqdefault.jpg","viewCount":"440","playlistId":"PLEkQk5xrP-tnmTYsyW6xNdyfhPq0Bhrhj","playlistName":"مقرأة الفجر - القُرْآنُ الكَرِيمُ - خَتْمَةُ التَّدَبُّرِ  أ.د. يسري جبر","category":"متنوع"},{"id":"7YTAsBDAXbs","title":"مقرأة سورة فصلت من أولها","publishedAt":"2018-11-18T17:33:59Z","duration":"PT19M29S","thumbnail":"https://i.ytimg.com/vi/7YTAsBDAXbs/mqdefault.jpg","viewCount":"623","playlistId":"PLEkQk5xrP-tnmTYsyW6xNdyfhPq0Bhrhj","playlistName":"مقرأة الفجر - القُرْآنُ الكَرِيمُ - خَتْمَةُ التَّدَبُّرِ  أ.د. يسري جبر","category":"متنوع"},{"id":"2FK6y-hO-1c","title":"مقرأة سورة غافر من آية ٧٩","publishedAt":"2018-11-17T15:21:45Z","duration":"PT20M48S","thumbnail":"https://i.ytimg.com/vi/2FK6y-hO-1c/mqdefault.jpg","viewCount":"347","playlistId":"PLEkQk5xrP-tnmTYsyW6xNdyfhPq0Bhrhj","playlistName":"مقرأة الفجر - القُرْآنُ الكَرِيمُ - خَتْمَةُ التَّدَبُّرِ  أ.د. يسري جبر","category":"متنوع"},{"id":"3TFZz2BDT5M","title":"مقرأة سورة غافر من آية ٧١","publishedAt":"2018-11-15T07:04:27Z","duration":"PT29M30S","thumbnail":"https://i.ytimg.com/vi/3TFZz2BDT5M/mqdefault.jpg","viewCount":"381","playlistId":"PLEkQk5xrP-tnmTYsyW6xNdyfhPq0Bhrhj","playlistName":"مقرأة الفجر - القُرْآنُ الكَرِيمُ - خَتْمَةُ التَّدَبُّرِ  أ.د. يسري جبر","category":"متنوع"},{"id":"QsELJCl-ZLw","title":"مقرأة سورة غافر من آية ٦٦","publishedAt":"2018-11-14T06:23:43Z","duration":"PT21M","thumbnail":"https://i.ytimg.com/vi/QsELJCl-ZLw/mqdefault.jpg","viewCount":"273","playlistId":"PLEkQk5xrP-tnmTYsyW6xNdyfhPq0Bhrhj","playlistName":"مقرأة الفجر - القُرْآنُ الكَرِيمُ - خَتْمَةُ التَّدَبُّرِ  أ.د. يسري جبر","category":"متنوع"},{"id":"TF5ZRX-X33c","title":"مقرأة سورة غافر من آية ٥٦","publishedAt":"2018-11-13T06:12:53Z","duration":"PT34M14S","thumbnail":"https://i.ytimg.com/vi/TF5ZRX-X33c/mqdefault.jpg","viewCount":"398","playlistId":"PLEkQk5xrP-tnmTYsyW6xNdyfhPq0Bhrhj","playlistName":"مقرأة الفجر - القُرْآنُ الكَرِيمُ - خَتْمَةُ التَّدَبُّرِ  أ.د. يسري جبر","category":"متنوع"},{"id":"4LUG3PoXl5s","title":"مقرأة سورة غافر من آية ٤٩","publishedAt":"2018-11-12T10:15:15Z","duration":"PT14M39S","thumbnail":"https://i.ytimg.com/vi/4LUG3PoXl5s/mqdefault.jpg","viewCount":"334","playlistId":"PLEkQk5xrP-tnmTYsyW6xNdyfhPq0Bhrhj","playlistName":"مقرأة الفجر - القُرْآنُ الكَرِيمُ - خَتْمَةُ التَّدَبُّرِ  أ.د. يسري جبر","category":"متنوع"},{"id":"v7s5Uo6s6Go","title":"مقرأة سورة غافر من آية 41","publishedAt":"2018-11-11T08:32:01Z","duration":"PT25M15S","thumbnail":"https://i.ytimg.com/vi/v7s5Uo6s6Go/mqdefault.jpg","viewCount":"370","playlistId":"PLEkQk5xrP-tnmTYsyW6xNdyfhPq0Bhrhj","playlistName":"مقرأة الفجر - القُرْآنُ الكَرِيمُ - خَتْمَةُ التَّدَبُّرِ  أ.د. يسري جبر","category":"متنوع"},{"id":"9E_-YKIusIA","title":"مقرأة سورة غافر من آية ٣٥","publishedAt":"2018-11-09T09:06:28Z","duration":"PT22M20S","thumbnail":"https://i.ytimg.com/vi/9E_-YKIusIA/mqdefault.jpg","viewCount":"637","playlistId":"PLEkQk5xrP-tnmTYsyW6xNdyfhPq0Bhrhj","playlistName":"مقرأة الفجر - القُرْآنُ الكَرِيمُ - خَتْمَةُ التَّدَبُّرِ  أ.د. يسري جبر","category":"متنوع"},{"id":"uF_7lpDdKmw","title":"مقرأة سورة غافر من آية ٢٩","publishedAt":"2018-11-08T09:01:18Z","duration":"PT18M3S","thumbnail":"https://i.ytimg.com/vi/uF_7lpDdKmw/mqdefault.jpg","viewCount":"294","playlistId":"PLEkQk5xrP-tnmTYsyW6xNdyfhPq0Bhrhj","playlistName":"مقرأة الفجر - القُرْآنُ الكَرِيمُ - خَتْمَةُ التَّدَبُّرِ  أ.د. يسري جبر","category":"متنوع"},{"id":"xwIw0D4gzmo","title":"مقرأة سورة غافر من آية ٢٣","publishedAt":"2018-11-06T18:41:17Z","duration":"PT24M47S","thumbnail":"https://i.ytimg.com/vi/xwIw0D4gzmo/mqdefault.jpg","viewCount":"400","playlistId":"PLEkQk5xrP-tnmTYsyW6xNdyfhPq0Bhrhj","playlistName":"مقرأة الفجر - القُرْآنُ الكَرِيمُ - خَتْمَةُ التَّدَبُّرِ  أ.د. يسري جبر","category":"متنوع"}],"total":4129,"page":107,"pageSize":24,"totalPages":173}