{"items":[{"id":"H9606UBw_HE","title":"شرح القصيدة المنفرجة لابن النحوي رضى الله عنه - المجلس الرابع - د. يسري جبر","publishedAt":"2015-07-11T20:12:42Z","duration":"PT47M","thumbnail":"https://i.ytimg.com/vi/H9606UBw_HE/mqdefault.jpg","viewCount":"2870","playlistId":"PLEkQk5xrP-tna48sTO8GZ77fBCf3PgzNc","playlistName":"شرح القصيدة المنفرجة لابن النحوي - د. يسري جبر","category":"متنوع"},{"id":"zlbLpJdzNz4","title":"شرح القصيدة المنفرجة لابن النحوي رضى الله عنه  - المجلس الثالث - د. يسري جبر","publishedAt":"2015-07-11T10:30:11Z","duration":"PT50M19S","thumbnail":"https://i.ytimg.com/vi/zlbLpJdzNz4/mqdefault.jpg","viewCount":"4515","playlistId":"PLEkQk5xrP-tna48sTO8GZ77fBCf3PgzNc","playlistName":"شرح القصيدة المنفرجة لابن النحوي - د. يسري جبر","category":"متنوع"},{"id":"3gAn3YxxTVQ","title":"شرح كتاب النذور و الأيمان من سنن الترمذى - المجلس الثالث","publishedAt":"2015-07-11T04:06:16Z","duration":"PT29M46S","thumbnail":"https://i.ytimg.com/vi/3gAn3YxxTVQ/mqdefault.jpg","viewCount":"148","playlistId":"PLEkQk5xrP-tnu6of679SvxdVx0qSrJzmb","playlistName":"شرح سنن الإمام الترمذي رضى الله عنه د. يسري جبر","category":"متنوع"},{"id":"lyU3MUatGjQ","title":"شرح كتاب النذور و الأيمان من سنن الترمذى - المجلس الثاني","publishedAt":"2015-07-10T04:04:46Z","duration":"PT24M15S","thumbnail":"https://i.ytimg.com/vi/lyU3MUatGjQ/mqdefault.jpg","viewCount":"103","playlistId":"PLEkQk5xrP-tnu6of679SvxdVx0qSrJzmb","playlistName":"شرح سنن الإمام الترمذي رضى الله عنه د. يسري جبر","category":"متنوع"},{"id":"0EOglmbFD74","title":"شرح كتاب النذور و الأيمان  من سنن الترمذى - المجلس الأول","publishedAt":"2015-07-09T04:03:41Z","duration":"PT19M55S","thumbnail":"https://i.ytimg.com/vi/0EOglmbFD74/mqdefault.jpg","viewCount":"240","playlistId":"PLEkQk5xrP-tnu6of679SvxdVx0qSrJzmb","playlistName":"شرح سنن الإمام الترمذي رضى الله عنه د. يسري جبر","category":"متنوع"},{"id":"4BS4OHGo6bo","title":"شرح كتاب الأضاحي من سنن الترمذى - المجلس الرابع","publishedAt":"2015-07-08T03:58:02Z","duration":"PT28M50S","thumbnail":"https://i.ytimg.com/vi/4BS4OHGo6bo/mqdefault.jpg","viewCount":"106","playlistId":"PLEkQk5xrP-tnu6of679SvxdVx0qSrJzmb","playlistName":"شرح سنن الإمام الترمذي رضى الله عنه د. يسري جبر","category":"متنوع"},{"id":"W0pNZpGBrMU","title":"شرح كتاب الأضاحي من سنن الترمذى - المجلس الثالث","publishedAt":"2015-07-07T04:05:53Z","duration":"PT37M26S","thumbnail":"https://i.ytimg.com/vi/W0pNZpGBrMU/mqdefault.jpg","viewCount":"122","playlistId":"PLEkQk5xrP-tnu6of679SvxdVx0qSrJzmb","playlistName":"شرح سنن الإمام الترمذي رضى الله عنه د. يسري جبر","category":"متنوع"},{"id":"o4Nj_5TdcD8","title":"شرح كتاب الأضاحي من سنن الترمذى - المجلس الثاني","publishedAt":"2015-07-06T03:31:41Z","duration":"PT17M10S","thumbnail":"https://i.ytimg.com/vi/o4Nj_5TdcD8/mqdefault.jpg","viewCount":"98","playlistId":"PLEkQk5xrP-tnu6of679SvxdVx0qSrJzmb","playlistName":"شرح سنن الإمام الترمذي رضى الله عنه د. يسري جبر","category":"متنوع"},{"id":"_MUB1zykZDI","title":"( 103) حَدِيثُ الإِستِقَامَةِ عَلَى حُدُودِ اللهِ والنَّهْي عَنِ المُنكَرِ - المجلس الثانى","publishedAt":"2015-07-06T00:42:23Z","duration":"PT21M8S","thumbnail":"https://i.ytimg.com/vi/_MUB1zykZDI/mqdefault.jpg","viewCount":"197","playlistId":"PLEkQk5xrP-tnl7vb7KeAoPd5ZlqKKW8KV","playlistName":"شرح كتاب بهجة النفوس أ.د . يسرى جبر","category":"متنوع"},{"id":"R70ykF-dQYE","title":"( 103 ) حَدِيثُ الإِستِقَامَةِ عَلَى حُدُودِ اللهِ والنَّهْي عَنِ المُنكَرِ - المجلس الأول","publishedAt":"2015-07-06T00:29:57Z","duration":"PT28M7S","thumbnail":"https://i.ytimg.com/vi/R70ykF-dQYE/mqdefault.jpg","viewCount":"279","playlistId":"PLEkQk5xrP-tnl7vb7KeAoPd5ZlqKKW8KV","playlistName":"شرح كتاب بهجة النفوس أ.د . يسرى جبر","category":"متنوع"},{"id":"JvGAIWV-eBo","title":"شرح كتاب الأضاحي من سنن الترمذى - المجلس الأول","publishedAt":"2015-07-05T04:02:24Z","duration":"PT34M40S","thumbnail":"https://i.ytimg.com/vi/JvGAIWV-eBo/mqdefault.jpg","viewCount":"291","playlistId":"PLEkQk5xrP-tnu6of679SvxdVx0qSrJzmb","playlistName":"شرح سنن الإمام الترمذي رضى الله عنه د. يسري جبر","category":"متنوع"},{"id":"aJJ8Z8Rd6I4","title":"أَثَرُ الصَوْتِ عَلَى الإِدْرَاكِ وَعَلَى الوجُودِ . د. يسرى جبر","publishedAt":"2015-07-04T13:06:22Z","duration":"PT24M42S","thumbnail":"https://i.ytimg.com/vi/aJJ8Z8Rd6I4/mqdefault.jpg","viewCount":"10410","playlistId":"PLEkQk5xrP-tm8ZIu74nTOZN9KJUJu416J","playlistName":"مقاطع مُهمَّة (يُسريَّات) أ.د. يسري جبر","category":"متنوع"},{"id":"pEyHP2CwAv8","title":"شرح كتاب الصيد والذبائح من سنن الترمذي - المجلس الرابع","publishedAt":"2015-07-04T03:40:45Z","duration":"PT24M16S","thumbnail":"https://i.ytimg.com/vi/pEyHP2CwAv8/mqdefault.jpg","viewCount":"110","playlistId":"PLEkQk5xrP-tnu6of679SvxdVx0qSrJzmb","playlistName":"شرح سنن الإمام الترمذي رضى الله عنه د. يسري جبر","category":"متنوع"},{"id":"h0lI5ycS4CQ","title":"شرح كتاب الصيد والذبائح من سنن الترمذي - المجلس الثالث","publishedAt":"2015-07-03T04:11:51Z","duration":"PT30M56S","thumbnail":"https://i.ytimg.com/vi/h0lI5ycS4CQ/mqdefault.jpg","viewCount":"292","playlistId":"PLEkQk5xrP-tnu6of679SvxdVx0qSrJzmb","playlistName":"شرح سنن الإمام الترمذي رضى الله عنه د. يسري جبر","category":"متنوع"},{"id":"lSekhXk7Eoo","title":"الفَرْقُ بَينَ الشَريعَةِ وَالطَرِيقَةِ وَ الحَقِيقَةِ - د.يسرى جبر","publishedAt":"2015-07-02T18:51:40Z","duration":"PT14M22S","thumbnail":"https://i.ytimg.com/vi/lSekhXk7Eoo/mqdefault.jpg","viewCount":"23121","playlistId":"PLEkQk5xrP-tm8ZIu74nTOZN9KJUJu416J","playlistName":"مقاطع مُهمَّة (يُسريَّات) أ.د. يسري جبر","category":"متنوع"},{"id":"v_xZr2jY9BI","title":"سُقُوطُ المَشُورَةِ عِندَ الضَرُورَةِ - د. يسرى جبر","publishedAt":"2015-07-02T17:20:56Z","duration":"PT3M8S","thumbnail":"https://i.ytimg.com/vi/v_xZr2jY9BI/mqdefault.jpg","viewCount":"4398","playlistId":"PLEkQk5xrP-tm8ZIu74nTOZN9KJUJu416J","playlistName":"مقاطع مُهمَّة (يُسريَّات) أ.د. يسري جبر","category":"متنوع"},{"id":"8sN7EQe0tW4","title":"شرح كتاب الصيد والذبائح من سنن الترمذي - المجلس الثاني","publishedAt":"2015-07-02T04:11:36Z","duration":"PT26M51S","thumbnail":"https://i.ytimg.com/vi/8sN7EQe0tW4/mqdefault.jpg","viewCount":"140","playlistId":"PLEkQk5xrP-tnu6of679SvxdVx0qSrJzmb","playlistName":"شرح سنن الإمام الترمذي رضى الله عنه د. يسري جبر","category":"متنوع"},{"id":"uLDRb4XTsqs","title":"مِنْ عَجَائِبِ التَوبَةِ أَنَّهَا تُغَيِّرِ المَاضِى  د. يسرى جبر","publishedAt":"2015-07-01T17:45:47Z","duration":"PT7M6S","thumbnail":"https://i.ytimg.com/vi/uLDRb4XTsqs/mqdefault.jpg","viewCount":"12414","playlistId":"PLEkQk5xrP-tm8ZIu74nTOZN9KJUJu416J","playlistName":"مقاطع مُهمَّة (يُسريَّات) أ.د. يسري جبر","category":"متنوع"},{"id":"fMq_bAY5Ulk","title":"شرح كتاب الصيد والذبائح من سنن الترمذي - المجلس الأول","publishedAt":"2015-07-01T03:54:58Z","duration":"PT17M15S","thumbnail":"https://i.ytimg.com/vi/fMq_bAY5Ulk/mqdefault.jpg","viewCount":"229","playlistId":"PLEkQk5xrP-tnu6of679SvxdVx0qSrJzmb","playlistName":"شرح سنن الإمام الترمذي رضى الله عنه د. يسري جبر","category":"متنوع"},{"id":"f-DMF628Qi0","title":"شرح كتاب الحدود من سنن الترمذي - المجلس الثامن","publishedAt":"2015-06-30T05:34:53Z","duration":"PT22M13S","thumbnail":"https://i.ytimg.com/vi/f-DMF628Qi0/mqdefault.jpg","viewCount":"2091","playlistId":"PLEkQk5xrP-tnu6of679SvxdVx0qSrJzmb","playlistName":"شرح سنن الإمام الترمذي رضى الله عنه د. يسري جبر","category":"متنوع"},{"id":"kUDFezul3v0","title":"شرح كتاب الحدود من سنن الترمذي - المجلس الثامن","publishedAt":"2015-06-30T04:39:13Z","duration":"PT14M24S","thumbnail":"https://i.ytimg.com/vi/kUDFezul3v0/mqdefault.jpg","viewCount":"90","playlistId":"PLEkQk5xrP-tnu6of679SvxdVx0qSrJzmb","playlistName":"شرح سنن الإمام الترمذي رضى الله عنه د. يسري جبر","category":"متنوع"},{"id":"2yg9hm3opac","title":"شرح كتاب الحدود من سنن الترمذي - المجلس السابع","publishedAt":"2015-06-29T04:14:30Z","duration":"PT24M17S","thumbnail":"https://i.ytimg.com/vi/2yg9hm3opac/mqdefault.jpg","viewCount":"105","playlistId":"PLEkQk5xrP-tnu6of679SvxdVx0qSrJzmb","playlistName":"شرح سنن الإمام الترمذي رضى الله عنه د. يسري جبر","category":"متنوع"},{"id":"MqJxV5cvt0k","title":"سُهُولِةِ الوِلايَةِ وَالعِلْمِ وَالإِجِازِةِ عَن بُعْد","publishedAt":"2015-06-28T18:03:01Z","duration":"PT4M53S","thumbnail":"https://i.ytimg.com/vi/MqJxV5cvt0k/mqdefault.jpg","viewCount":"9217","playlistId":"PLEkQk5xrP-tm8ZIu74nTOZN9KJUJu416J","playlistName":"مقاطع مُهمَّة (يُسريَّات) أ.د. يسري جبر","category":"متنوع"},{"id":"tICuPDrgKdE","title":"شرح كتاب الحدود من سنن الترمذي - المجلس السادس","publishedAt":"2015-06-28T03:29:56Z","duration":"PT23M6S","thumbnail":"https://i.ytimg.com/vi/tICuPDrgKdE/mqdefault.jpg","viewCount":"116","playlistId":"PLEkQk5xrP-tnu6of679SvxdVx0qSrJzmb","playlistName":"شرح سنن الإمام الترمذي رضى الله عنه د. يسري جبر","category":"متنوع"}],"total":4129,"page":165,"pageSize":24,"totalPages":173}