{"items":[{"id":"IqvBqUyUjnQ","title":"448- النهي عن تناجي اثنين دون الثالث بغير إذنه إلا لحاجة - شرح دليل الفالحين","publishedAt":"2023-05-17T08:59:00Z","duration":"PT27M36S","thumbnail":"https://i.ytimg.com/vi/IqvBqUyUjnQ/mqdefault.jpg","viewCount":"553","playlistId":"PLEkQk5xrP-tkc9DXvSLguqX5-FYp6ASR4","playlistName":"دليل الفالحين لطرق رياض الصالحين","category":"متنوع"},{"id":"vxjkKV3QykU","title":"زوجي بيضربني دايما بدون سبب فماذا أفعل؟","publishedAt":"2023-05-16T18:00:23Z","duration":"PT8M14S","thumbnail":"https://i.ytimg.com/vi/vxjkKV3QykU/mqdefault.jpg","viewCount":"6351","playlistId":"PLEkQk5xrP-tkGXuZ9atE3k_7it12rUPTs","playlistName":"أسئلة المتابعين","category":"متنوع"},{"id":"vjplyEesiYw","title":"477- تحريم الهِجران بين المسلمين فوق ثلاثة أيام إلا لبدعة في المهجور أو تظاهرٍ بفسقٍ أو نحو ذلك","publishedAt":"2023-05-16T05:00:20Z","duration":"PT37M10S","thumbnail":"https://i.ytimg.com/vi/vjplyEesiYw/mqdefault.jpg","viewCount":"1122","playlistId":"PLEkQk5xrP-tkc9DXvSLguqX5-FYp6ASR4","playlistName":"دليل الفالحين لطرق رياض الصالحين","category":"متنوع"},{"id":"Kfe7F-xhSP8","title":"446- النهي عن المَنِّ بالعَطِيَّة ونحوه - شرح دليل الفالحين","publishedAt":"2023-05-14T08:59:00Z","duration":"PT22M18S","thumbnail":"https://i.ytimg.com/vi/Kfe7F-xhSP8/mqdefault.jpg","viewCount":"835","playlistId":"PLEkQk5xrP-tkc9DXvSLguqX5-FYp6ASR4","playlistName":"دليل الفالحين لطرق رياض الصالحين","category":"متنوع"},{"id":"RokkzmzA5sQ","title":"ما تعليقك على صورة د.أسامة الأزهري المنتشرة؟ | دفاعًا عن علماء الأزهر","publishedAt":"2023-05-13T18:00:06Z","duration":"PT19M33S","thumbnail":"https://i.ytimg.com/vi/RokkzmzA5sQ/mqdefault.jpg","viewCount":"48075","playlistId":"PLEkQk5xrP-tm8ZIu74nTOZN9KJUJu416J","playlistName":"مقاطع مُهمَّة (يُسريَّات) أ.د. يسري جبر","category":"متنوع"},{"id":"5AKGJgehBjs","title":"445- النهي عن الغِشِّ والخِداع - شرح دليل الفالحين","publishedAt":"2023-05-12T18:00:02Z","duration":"PT30M36S","thumbnail":"https://i.ytimg.com/vi/5AKGJgehBjs/mqdefault.jpg","viewCount":"720","playlistId":"PLEkQk5xrP-tkc9DXvSLguqX5-FYp6ASR4","playlistName":"دليل الفالحين لطرق رياض الصالحين","category":"متنوع"},{"id":"yRkchM1lzHc","title":"444- تحريم احتقار المسلمين - شرح دليل الفالحين","publishedAt":"2023-05-12T08:59:00Z","duration":"PT24M34S","thumbnail":"https://i.ytimg.com/vi/yRkchM1lzHc/mqdefault.jpg","viewCount":"767","playlistId":"PLEkQk5xrP-tkc9DXvSLguqX5-FYp6ASR4","playlistName":"دليل الفالحين لطرق رياض الصالحين","category":"متنوع"},{"id":"BIeZ_JixEAU","title":"443- النَّهي عن التجسُّس والتَّسَمُّع لكلام من يكره استماعه - شرح دليل الفالحين","publishedAt":"2023-05-11T18:00:07Z","duration":"PT36M27S","thumbnail":"https://i.ytimg.com/vi/BIeZ_JixEAU/mqdefault.jpg","viewCount":"818","playlistId":"PLEkQk5xrP-tkc9DXvSLguqX5-FYp6ASR4","playlistName":"دليل الفالحين لطرق رياض الصالحين","category":"متنوع"},{"id":"Tp5_aDEyb5o","title":"442- تحريم سَبِّ الأموات بغير حَقٍّ ومصلحةٍ شرعيَّة - شرح دليل الفالحين","publishedAt":"2023-05-09T18:00:09Z","duration":"PT32M53S","thumbnail":"https://i.ytimg.com/vi/Tp5_aDEyb5o/mqdefault.jpg","viewCount":"728","playlistId":"PLEkQk5xrP-tkc9DXvSLguqX5-FYp6ASR4","playlistName":"دليل الفالحين لطرق رياض الصالحين","category":"متنوع"},{"id":"rGV-OgzEKu4","title":"441- تحريم سَبِّ المسلم بغير حَق - شرح دليل الفالحين","publishedAt":"2023-05-09T08:59:00Z","duration":"PT23M45S","thumbnail":"https://i.ytimg.com/vi/rGV-OgzEKu4/mqdefault.jpg","viewCount":"644","playlistId":"PLEkQk5xrP-tkc9DXvSLguqX5-FYp6ASR4","playlistName":"دليل الفالحين لطرق رياض الصالحين","category":"متنوع"},{"id":"lGsp2sMsbAY","title":"440- جواز لَعْن أصحاب المعاصي غير المُعَيَّنين - شرح دليل الفالحين","publishedAt":"2023-05-08T09:01:00Z","duration":"PT28M56S","thumbnail":"https://i.ytimg.com/vi/lGsp2sMsbAY/mqdefault.jpg","viewCount":"1030","playlistId":"PLEkQk5xrP-tkc9DXvSLguqX5-FYp6ASR4","playlistName":"دليل الفالحين لطرق رياض الصالحين","category":"متنوع"},{"id":"_Tg-w-oud34","title":"439- غِلَظ تحريمِ شهادةِ الزور - شرح دليل الفالحين","publishedAt":"2023-05-07T18:00:12Z","duration":"PT42M4S","thumbnail":"https://i.ytimg.com/vi/_Tg-w-oud34/mqdefault.jpg","viewCount":"645","playlistId":"PLEkQk5xrP-tkc9DXvSLguqX5-FYp6ASR4","playlistName":"دليل الفالحين لطرق رياض الصالحين","category":"متنوع"},{"id":"gRGr5UZ2ka8","title":"438- بيان ما يجوز من الكذب - شرح دليل الفالحين","publishedAt":"2023-05-07T05:00:15Z","duration":"PT37M3S","thumbnail":"https://i.ytimg.com/vi/gRGr5UZ2ka8/mqdefault.jpg","viewCount":"820","playlistId":"PLEkQk5xrP-tkc9DXvSLguqX5-FYp6ASR4","playlistName":"دليل الفالحين لطرق رياض الصالحين","category":"متنوع"},{"id":"q9mRaihGHEI","title":"437- الرواية الثانية لحديث رؤيا النَّبيّ ﷺ - شرح دليل الفالحين","publishedAt":"2023-05-06T05:00:18Z","duration":"PT36M22S","thumbnail":"https://i.ytimg.com/vi/q9mRaihGHEI/mqdefault.jpg","viewCount":"781","playlistId":"PLEkQk5xrP-tkc9DXvSLguqX5-FYp6ASR4","playlistName":"دليل الفالحين لطرق رياض الصالحين","category":"متنوع"},{"id":"KbQnZN5x2-g","title":"توصية ورجاء وأمر لجميع المتابعين","publishedAt":"2023-05-05T20:13:22Z","duration":"PT10M29S","thumbnail":"https://i.ytimg.com/vi/KbQnZN5x2-g/mqdefault.jpg","viewCount":"24580","playlistId":"PLEkQk5xrP-tm8ZIu74nTOZN9KJUJu416J","playlistName":"مقاطع مُهمَّة (يُسريَّات) أ.د. يسري جبر","category":"متنوع"},{"id":"MlipHcMahps","title":"436- تكملة حديث رؤيا النَّبيّ ﷺ - شرح دليل الفالحين","publishedAt":"2023-05-05T05:00:18Z","duration":"PT27M9S","thumbnail":"https://i.ytimg.com/vi/MlipHcMahps/mqdefault.jpg","viewCount":"827","playlistId":"PLEkQk5xrP-tkc9DXvSLguqX5-FYp6ASR4","playlistName":"دليل الفالحين لطرق رياض الصالحين","category":"متنوع"},{"id":"NjjQfl9Q6fU","title":"435- كيف تكونُ الرؤْيا صادقة، وحديث\" هلْ رَأَى أحَدٌ مِنكُم مِن رُؤْيا\" - شرح دليل الفالحين","publishedAt":"2023-05-04T08:59:00Z","duration":"PT37M38S","thumbnail":"https://i.ytimg.com/vi/NjjQfl9Q6fU/mqdefault.jpg","viewCount":"2046","playlistId":"PLEkQk5xrP-tkc9DXvSLguqX5-FYp6ASR4","playlistName":"دليل الفالحين لطرق رياض الصالحين","category":"متنوع"},{"id":"5Hp8nVZ8Qrk","title":"434- تحريم الكذب - شرح دليل الفالحين","publishedAt":"2023-05-03T08:59:00Z","duration":"PT22M2S","thumbnail":"https://i.ytimg.com/vi/5Hp8nVZ8Qrk/mqdefault.jpg","viewCount":"1192","playlistId":"PLEkQk5xrP-tkc9DXvSLguqX5-FYp6ASR4","playlistName":"دليل الفالحين لطرق رياض الصالحين","category":"متنوع"},{"id":"LfmuOL4WzBg","title":"433- تحريم النميمة - شرح دليل الفالحين","publishedAt":"2023-05-02T08:59:00Z","duration":"PT30M16S","thumbnail":"https://i.ytimg.com/vi/LfmuOL4WzBg/mqdefault.jpg","viewCount":"1089","playlistId":"PLEkQk5xrP-tkc9DXvSLguqX5-FYp6ASR4","playlistName":"دليل الفالحين لطرق رياض الصالحين","category":"متنوع"},{"id":"DqGGVU_haTc","title":"ليه الست دايما بتتألم في حياتها؟","publishedAt":"2023-05-01T18:00:09Z","duration":"PT16M34S","thumbnail":"https://i.ytimg.com/vi/DqGGVU_haTc/mqdefault.jpg","viewCount":"30145","playlistId":"PLEkQk5xrP-tm8ZIu74nTOZN9KJUJu416J","playlistName":"مقاطع مُهمَّة (يُسريَّات) أ.د. يسري جبر","category":"متنوع"},{"id":"uFA1ut--7D8","title":"كيف أتعامل مع عدم نجاح أولادي في الدراسة؟","publishedAt":"2023-04-30T18:00:31Z","duration":"PT8M41S","thumbnail":"https://i.ytimg.com/vi/uFA1ut--7D8/mqdefault.jpg","viewCount":"11817","playlistId":"PLEkQk5xrP-tm8ZIu74nTOZN9KJUJu416J","playlistName":"مقاطع مُهمَّة (يُسريَّات) أ.د. يسري جبر","category":"متنوع"},{"id":"AXeiUnJfTWQ","title":"432- ما يُباحُ مِن الغِيبة - شرح دليل الفالحين","publishedAt":"2023-04-30T08:59:00Z","duration":"PT18M49S","thumbnail":"https://i.ytimg.com/vi/AXeiUnJfTWQ/mqdefault.jpg","viewCount":"1064","playlistId":"PLEkQk5xrP-tkc9DXvSLguqX5-FYp6ASR4","playlistName":"دليل الفالحين لطرق رياض الصالحين","category":"متنوع"},{"id":"23d8DcjrnjE","title":"ما حكم الزواج في السر؟","publishedAt":"2023-04-29T18:00:00Z","duration":"PT8M22S","thumbnail":"https://i.ytimg.com/vi/23d8DcjrnjE/mqdefault.jpg","viewCount":"15643","playlistId":"PLEkQk5xrP-tm8ZIu74nTOZN9KJUJu416J","playlistName":"مقاطع مُهمَّة (يُسريَّات) أ.د. يسري جبر","category":"متنوع"},{"id":"zv0FDnPP7Ak","title":"الرد على اعتراضات بعض المتابعين في الفترة الأخيرة","publishedAt":"2023-04-28T18:41:19Z","duration":"PT26M24S","thumbnail":"https://i.ytimg.com/vi/zv0FDnPP7Ak/mqdefault.jpg","viewCount":"47476","playlistId":"PLEkQk5xrP-tkGXuZ9atE3k_7it12rUPTs","playlistName":"أسئلة المتابعين","category":"متنوع"}],"total":4129,"page":34,"pageSize":24,"totalPages":173}