{"items":[{"id":"c3gNlBB1uw4","title":"173- \"أَقتَلْتَهُ بَعْدَمَا قالَ لَا إِلهَ إِلَّا الله؟!\" - شرح دليل الفالحين","publishedAt":"2021-12-24T20:16:23Z","duration":"PT31M52S","thumbnail":"https://i.ytimg.com/vi/c3gNlBB1uw4/mqdefault.jpg","viewCount":"986","playlistId":"PLEkQk5xrP-tkc9DXvSLguqX5-FYp6ASR4","playlistName":"دليل الفالحين لطرق رياض الصالحين","category":"متنوع"},{"id":"Z5S2aNTe1pI","title":"قوة الاستماع","publishedAt":"2021-12-23T19:12:14Z","duration":"PT12M41S","thumbnail":"https://i.ytimg.com/vi/Z5S2aNTe1pI/mqdefault.jpg","viewCount":"6463","playlistId":"PLEkQk5xrP-tm8ZIu74nTOZN9KJUJu416J","playlistName":"مقاطع مُهمَّة (يُسريَّات) أ.د. يسري جبر","category":"متنوع"},{"id":"-Lvb-_Hb81M","title":"172- إجراءُ أحكام الناس على الظاهر وسرائرهم إلى الله تعالى - شرح دليل الفالحين","publishedAt":"2021-12-23T07:09:28Z","duration":"PT42M44S","thumbnail":"https://i.ytimg.com/vi/-Lvb-_Hb81M/mqdefault.jpg","viewCount":"1628","playlistId":"PLEkQk5xrP-tkc9DXvSLguqX5-FYp6ASR4","playlistName":"دليل الفالحين لطرق رياض الصالحين","category":"متنوع"},{"id":"KFv79lGeFQ8","title":"ما هي عقوبة القتل؟","publishedAt":"2021-12-22T17:30:06Z","duration":"PT10M45S","thumbnail":"https://i.ytimg.com/vi/KFv79lGeFQ8/mqdefault.jpg","viewCount":"2495","playlistId":"PLEkQk5xrP-tkGXuZ9atE3k_7it12rUPTs","playlistName":"أسئلة المتابعين","category":"متنوع"},{"id":"FI4KwtZFxrA","title":"171- التحذير من إيذاء الصالحين والضعفاء والمساكين - شرح دليل الفالحين","publishedAt":"2021-12-21T07:55:45Z","duration":"PT21M42S","thumbnail":"https://i.ytimg.com/vi/FI4KwtZFxrA/mqdefault.jpg","viewCount":"3107","playlistId":"PLEkQk5xrP-tkc9DXvSLguqX5-FYp6ASR4","playlistName":"دليل الفالحين لطرق رياض الصالحين","category":"متنوع"},{"id":"NUCPQsX0QT0","title":"هل يمكننا رؤية الجن؟","publishedAt":"2021-12-20T17:30:01Z","duration":"PT10M12S","thumbnail":"https://i.ytimg.com/vi/NUCPQsX0QT0/mqdefault.jpg","viewCount":"109051","playlistId":"PLEkQk5xrP-tkGXuZ9atE3k_7it12rUPTs","playlistName":"أسئلة المتابعين","category":"متنوع"},{"id":"jiyyeRyZhD8","title":"ما سر حديث \"العلماء ورثة الانبياء\"؟","publishedAt":"2021-12-19T18:00:13Z","duration":"PT12M8S","thumbnail":"https://i.ytimg.com/vi/jiyyeRyZhD8/mqdefault.jpg","viewCount":"7703","playlistId":"PLEkQk5xrP-tkGXuZ9atE3k_7it12rUPTs","playlistName":"أسئلة المتابعين","category":"متنوع"},{"id":"QQ2J31qxlHw","title":"170- إِذا أحبَّ اللَّهُ العبدَ نادى جِبْرِيل: إنَّ اللَّهَ يُحبُّ فلانًا فأحْببه - شرح دليل الفالحين","publishedAt":"2021-12-19T07:23:02Z","duration":"PT27M24S","thumbnail":"https://i.ytimg.com/vi/QQ2J31qxlHw/mqdefault.jpg","viewCount":"1926","playlistId":"PLEkQk5xrP-tkc9DXvSLguqX5-FYp6ASR4","playlistName":"دليل الفالحين لطرق رياض الصالحين","category":"متنوع"},{"id":"feJdVubaISQ","title":"169- علاماتُ حُبِّ الله تعالى العبدَ والحَثِّ على التَّخلُّق بها - شرح دليل الفالحين","publishedAt":"2021-12-17T19:34:22Z","duration":"PT40M4S","thumbnail":"https://i.ytimg.com/vi/feJdVubaISQ/mqdefault.jpg","viewCount":"4108","playlistId":"PLEkQk5xrP-tkc9DXvSLguqX5-FYp6ASR4","playlistName":"دليل الفالحين لطرق رياض الصالحين","category":"متنوع"},{"id":"7gdXTIjoOPA","title":"متى يفتح الله على المريد؟","publishedAt":"2021-12-15T15:45:01Z","duration":"PT9M12S","thumbnail":"https://i.ytimg.com/vi/7gdXTIjoOPA/mqdefault.jpg","viewCount":"29815","playlistId":"PLEkQk5xrP-tm8ZIu74nTOZN9KJUJu416J","playlistName":"مقاطع مُهمَّة (يُسريَّات) أ.د. يسري جبر","category":"متنوع"},{"id":"-u6O--y7hSc","title":"168- \"…وجبت محبَّتي للمُتحابِّين فيَّ ، والمُتجالسين فيَّ…\" شرح دليل الفالحين","publishedAt":"2021-12-15T06:47:17Z","duration":"PT34M50S","thumbnail":"https://i.ytimg.com/vi/-u6O--y7hSc/mqdefault.jpg","viewCount":"1176","playlistId":"PLEkQk5xrP-tkc9DXvSLguqX5-FYp6ASR4","playlistName":"دليل الفالحين لطرق رياض الصالحين","category":"متنوع"},{"id":"eCrEyu-Y4KE","title":"1- الفُتُوحات اليُسريَّة في عقائد الأُمَّة المُحمَّديَّة - المُقدِّمة","publishedAt":"2021-12-14T07:25:41Z","duration":"PT57M45S","thumbnail":"https://i.ytimg.com/vi/eCrEyu-Y4KE/mqdefault.jpg","viewCount":"23560","playlistId":"PLEkQk5xrP-tmNuYT8JAh6clwa4krsgkNo","playlistName":"شرح كتاب الفُتُوحات اليُسريَّة في عقائد الأُمَّة المُحمَّديَّة","category":"متنوع"},{"id":"rCMlvvldiMs","title":"كيف نفهم حديث \"رأيتُ ربِّي في أحسنِ صورة\" بغير تشبيه؟","publishedAt":"2021-12-13T17:30:04Z","duration":"PT8M39S","thumbnail":"https://i.ytimg.com/vi/rCMlvvldiMs/mqdefault.jpg","viewCount":"9615","playlistId":"PLEkQk5xrP-tkGXuZ9atE3k_7it12rUPTs","playlistName":"أسئلة المتابعين","category":"متنوع"},{"id":"p0yfvThd-68","title":"كيف أسيطر على شهوتي؟","publishedAt":"2021-12-12T17:15:00Z","duration":"PT8M53S","thumbnail":"https://i.ytimg.com/vi/p0yfvThd-68/mqdefault.jpg","viewCount":"13282","playlistId":"PLEkQk5xrP-tkGXuZ9atE3k_7it12rUPTs","playlistName":"أسئلة المتابعين","category":"متنوع"},{"id":"rssnj0vsf_c","title":"167- \"إنَّ اللهَ تعالى يقولُ: أين المُتحَابُّون بجَلالي؟…\" شرح دليل الفالحين","publishedAt":"2021-12-12T07:19:39Z","duration":"PT28M22S","thumbnail":"https://i.ytimg.com/vi/rssnj0vsf_c/mqdefault.jpg","viewCount":"1464","playlistId":"PLEkQk5xrP-tkc9DXvSLguqX5-FYp6ASR4","playlistName":"دليل الفالحين لطرق رياض الصالحين","category":"متنوع"},{"id":"gpFMv41opr4","title":"166- \"سَبْعَةٌ يُظِلُّهُمُ اللَّهُ في ظِلِّهِ، يَومَ لا ظِلَّ إِلَّا ظِلُّهُ…\" - شرح دليل الفالحين","publishedAt":"2021-12-08T20:39:37Z","duration":"PT44M48S","thumbnail":"https://i.ytimg.com/vi/gpFMv41opr4/mqdefault.jpg","viewCount":"1291","playlistId":"PLEkQk5xrP-tkc9DXvSLguqX5-FYp6ASR4","playlistName":"دليل الفالحين لطرق رياض الصالحين","category":"متنوع"},{"id":"_qy5rsOD0Wg","title":"165- الحُبُّ في الله والحَثُّ عليه - شرح دليل الفالحين","publishedAt":"2021-12-08T06:46:29Z","duration":"PT28M57S","thumbnail":"https://i.ytimg.com/vi/_qy5rsOD0Wg/mqdefault.jpg","viewCount":"1346","playlistId":"PLEkQk5xrP-tkc9DXvSLguqX5-FYp6ASR4","playlistName":"دليل الفالحين لطرق رياض الصالحين","category":"متنوع"},{"id":"S6Iw7WYVx2Q","title":"كم تكون نفقة الزوجة بعد الطلاق؟","publishedAt":"2021-12-07T18:48:43Z","duration":"PT8M1S","thumbnail":"https://i.ytimg.com/vi/S6Iw7WYVx2Q/mqdefault.jpg","viewCount":"12403","playlistId":"PLEkQk5xrP-tm8ZIu74nTOZN9KJUJu416J","playlistName":"مقاطع مُهمَّة (يُسريَّات) أ.د. يسري جبر","category":"متنوع"},{"id":"-spUMEnoxm0","title":"164-  \"…لاَ تَنْسَنَا يَا أُخَيَّ مِنْ دُعَائِكَ…\" - شرح دليل الفالحين","publishedAt":"2021-12-06T19:58:09Z","duration":"PT22M9S","thumbnail":"https://i.ytimg.com/vi/-spUMEnoxm0/mqdefault.jpg","viewCount":"1015","playlistId":"PLEkQk5xrP-tkc9DXvSLguqX5-FYp6ASR4","playlistName":"دليل الفالحين لطرق رياض الصالحين","category":"متنوع"},{"id":"47TxVnmEEAg","title":"ما أهمية الأذكار الصوفية والرد على من ينكرها؟","publishedAt":"2021-12-05T18:45:53Z","duration":"PT14M41S","thumbnail":"https://i.ytimg.com/vi/47TxVnmEEAg/mqdefault.jpg","viewCount":"28529","playlistId":"PLEkQk5xrP-tm8ZIu74nTOZN9KJUJu416J","playlistName":"مقاطع مُهمَّة (يُسريَّات) أ.د. يسري جبر","category":"متنوع"},{"id":"OOC84Do31RM","title":"163-\"…يَأْتي علَيْكُم أُوَيْسُ بنُ عَامِرٍ مع أَمْدَادِ أَهْلِ اليَمَنِ…\" - شرح دليل الفالحين","publishedAt":"2021-12-05T06:54:44Z","duration":"PT40M8S","thumbnail":"https://i.ytimg.com/vi/OOC84Do31RM/mqdefault.jpg","viewCount":"2035","playlistId":"PLEkQk5xrP-tkc9DXvSLguqX5-FYp6ASR4","playlistName":"دليل الفالحين لطرق رياض الصالحين","category":"متنوع"},{"id":"0HmHl1_GvyE","title":"كيف أسامح من ظلمني؟","publishedAt":"2021-12-04T18:56:16Z","duration":"PT8M35S","thumbnail":"https://i.ytimg.com/vi/0HmHl1_GvyE/mqdefault.jpg","viewCount":"5465","playlistId":"PLEkQk5xrP-tkGXuZ9atE3k_7it12rUPTs","playlistName":"أسئلة المتابعين","category":"متنوع"},{"id":"3EUuj_xrTi8","title":"162- \"…أنتَ مع مَن أَحببتَ\" شرح دليل الفالحين","publishedAt":"2021-12-03T20:14:34Z","duration":"PT19M15S","thumbnail":"https://i.ytimg.com/vi/3EUuj_xrTi8/mqdefault.jpg","viewCount":"1437","playlistId":"PLEkQk5xrP-tkc9DXvSLguqX5-FYp6ASR4","playlistName":"دليل الفالحين لطرق رياض الصالحين","category":"متنوع"},{"id":"PDTbWiOrBMU","title":"161- \"تُنْكَحُ الْمَرْأَةُ لِأَرْبَعٍ  …\" - شرح دليل الفالحين","publishedAt":"2021-12-01T22:40:15Z","duration":"PT33M45S","thumbnail":"https://i.ytimg.com/vi/PDTbWiOrBMU/mqdefault.jpg","viewCount":"1753","playlistId":"PLEkQk5xrP-tkc9DXvSLguqX5-FYp6ASR4","playlistName":"دليل الفالحين لطرق رياض الصالحين","category":"متنوع"}],"total":4129,"page":59,"pageSize":24,"totalPages":173}