{"items":[{"id":"crm8u38YLrI","title":"شرح سنن الدارمي كتاب الفرائض من باب ٦","publishedAt":"2019-10-10T18:41:05Z","duration":"PT30M","thumbnail":"https://i.ytimg.com/vi/crm8u38YLrI/mqdefault.jpg","viewCount":"362","playlistId":"PLEkQk5xrP-tmAg-FuWjY057X_h5NmGmAa","playlistName":"شرح سنن الدارمي - أ.د. يسري جبر (كاملا)","category":"متنوع"},{"id":"LSn60rJEbUI","title":"شرح سنن الدارمي كتاب الفرائض من أوله","publishedAt":"2019-10-09T11:10:35Z","duration":"PT41M20S","thumbnail":"https://i.ytimg.com/vi/LSn60rJEbUI/mqdefault.jpg","viewCount":"402","playlistId":"PLEkQk5xrP-tmAg-FuWjY057X_h5NmGmAa","playlistName":"شرح سنن الدارمي - أ.د. يسري جبر (كاملا)","category":"متنوع"},{"id":"nPdD1_P5ce4","title":"شرح سنن الدارمي كتاب الرقاق من باب ١٠٠","publishedAt":"2019-10-08T11:56:16Z","duration":"PT38M49S","thumbnail":"https://i.ytimg.com/vi/nPdD1_P5ce4/mqdefault.jpg","viewCount":"422","playlistId":"PLEkQk5xrP-tmAg-FuWjY057X_h5NmGmAa","playlistName":"شرح سنن الدارمي - أ.د. يسري جبر (كاملا)","category":"متنوع"},{"id":"Q6A7xK5YmC4","title":"شرح سنن الدارمي كتاب الرقاق من باب ٨١","publishedAt":"2019-10-06T10:46:59Z","duration":"PT39M39S","thumbnail":"https://i.ytimg.com/vi/Q6A7xK5YmC4/mqdefault.jpg","viewCount":"402","playlistId":"PLEkQk5xrP-tmAg-FuWjY057X_h5NmGmAa","playlistName":"شرح سنن الدارمي - أ.د. يسري جبر (كاملا)","category":"متنوع"},{"id":"ZUQmyGEbd2g","title":"شرح سنن الدارمي كتاب الرقاق من باب ٧٢","publishedAt":"2019-10-05T17:40:28Z","duration":"PT27M38S","thumbnail":"https://i.ytimg.com/vi/ZUQmyGEbd2g/mqdefault.jpg","viewCount":"449","playlistId":"PLEkQk5xrP-tmAg-FuWjY057X_h5NmGmAa","playlistName":"شرح سنن الدارمي - أ.د. يسري جبر (كاملا)","category":"متنوع"},{"id":"AYviZseVQuI","title":"شرح سنن الدارمي كتاب الرقاق من باب ٦١","publishedAt":"2019-10-04T22:39:40Z","duration":"PT28M47S","thumbnail":"https://i.ytimg.com/vi/AYviZseVQuI/mqdefault.jpg","viewCount":"395","playlistId":"PLEkQk5xrP-tmAg-FuWjY057X_h5NmGmAa","playlistName":"شرح سنن الدارمي - أ.د. يسري جبر (كاملا)","category":"متنوع"},{"id":"doBBE703GgA","title":"شرح سنن الدارمي كتاب الرقاق من باب ٤٥","publishedAt":"2019-10-03T19:32:04Z","duration":"PT26M50S","thumbnail":"https://i.ytimg.com/vi/doBBE703GgA/mqdefault.jpg","viewCount":"376","playlistId":"PLEkQk5xrP-tmAg-FuWjY057X_h5NmGmAa","playlistName":"شرح سنن الدارمي - أ.د. يسري جبر (كاملا)","category":"متنوع"},{"id":"H5NXIFze9uw","title":"شرح سنن الدارمي كتاب الرقاق من باب ٣٤","publishedAt":"2019-10-02T12:38:27Z","duration":"PT31M38S","thumbnail":"https://i.ytimg.com/vi/H5NXIFze9uw/mqdefault.jpg","viewCount":"419","playlistId":"PLEkQk5xrP-tmAg-FuWjY057X_h5NmGmAa","playlistName":"شرح سنن الدارمي - أ.د. يسري جبر (كاملا)","category":"متنوع"},{"id":"yfPMx-hUlY0","title":"يَا غَادِيًا نَحْوَ الحَبِيبِ عَسَاكَ *** بَلِّغْ سَلَامِي إَذَا وَصَلْتَ هُنَاكَ","publishedAt":"2019-10-01T19:32:28Z","duration":"PT5M6S","thumbnail":"https://i.ytimg.com/vi/yfPMx-hUlY0/mqdefault.jpg","viewCount":"2315","playlistId":"PLEkQk5xrP-tlB8lmbwjAKR8KRgiykGKhb","playlistName":"حضرات يسرية ومدائح نبوية","category":"متنوع"},{"id":"eZ3gGI7IIGw","title":"شرح سنن الدارمي كتاب الرقاق من باب ٢٥","publishedAt":"2019-10-01T16:34:58Z","duration":"PT20M38S","thumbnail":"https://i.ytimg.com/vi/eZ3gGI7IIGw/mqdefault.jpg","viewCount":"256","playlistId":"PLEkQk5xrP-tmAg-FuWjY057X_h5NmGmAa","playlistName":"شرح سنن الدارمي - أ.د. يسري جبر (كاملا)","category":"متنوع"},{"id":"Rafv9Q3Evsc","title":"مقرأة سورة الزمر من آية ٥٣","publishedAt":"2019-10-01T10:51:51Z","duration":"PT27M39S","thumbnail":"https://i.ytimg.com/vi/Rafv9Q3Evsc/mqdefault.jpg","viewCount":"448","playlistId":"PLEkQk5xrP-tnmTYsyW6xNdyfhPq0Bhrhj","playlistName":"مقرأة الفجر - القُرْآنُ الكَرِيمُ - خَتْمَةُ التَّدَبُّرِ  أ.د. يسري جبر","category":"متنوع"},{"id":"UZaK2MHjWwI","title":"مقرأة سورة الحج من آية ١٧","publishedAt":"2019-10-01T08:04:33Z","duration":"PT13M25S","thumbnail":"https://i.ytimg.com/vi/UZaK2MHjWwI/mqdefault.jpg","viewCount":"262","playlistId":"PLEkQk5xrP-tnmTYsyW6xNdyfhPq0Bhrhj","playlistName":"مقرأة الفجر - القُرْآنُ الكَرِيمُ - خَتْمَةُ التَّدَبُّرِ  أ.د. يسري جبر","category":"متنوع"},{"id":"hKOpItHTXIM","title":"بِدَعُ التَفَاسِيرِ - مقدمة الكتاب المجلس الثاني .  أ.د. يسري جبر","publishedAt":"2019-09-30T15:08:27Z","duration":"PT17M13S","thumbnail":"https://i.ytimg.com/vi/hKOpItHTXIM/mqdefault.jpg","viewCount":"2058","playlistId":"PLEkQk5xrP-tkSGrPLMt1BEmJ54cGWYgtp","playlistName":"كتابُ بِدَعِ التَفَاسِيرِ - أ.د. يسري جبر","category":"متنوع"},{"id":"EplDav_y20M","title":"سورة النساء  آية ١٧٠","publishedAt":"2019-09-30T14:19:29Z","duration":"PT12M29S","thumbnail":"https://i.ytimg.com/vi/EplDav_y20M/mqdefault.jpg","viewCount":"309","playlistId":"PLEkQk5xrP-tnmTYsyW6xNdyfhPq0Bhrhj","playlistName":"مقرأة الفجر - القُرْآنُ الكَرِيمُ - خَتْمَةُ التَّدَبُّرِ  أ.د. يسري جبر","category":"متنوع"},{"id":"nzGojMHYwt4","title":"مقرأة سورة النساء من آية ١٠٠","publishedAt":"2019-09-30T09:03:41Z","duration":"PT10M11S","thumbnail":"https://i.ytimg.com/vi/nzGojMHYwt4/mqdefault.jpg","viewCount":"399","playlistId":"PLEkQk5xrP-tnmTYsyW6xNdyfhPq0Bhrhj","playlistName":"مقرأة الفجر - القُرْآنُ الكَرِيمُ - خَتْمَةُ التَّدَبُّرِ  أ.د. يسري جبر","category":"متنوع"},{"id":"zOa9SzFUb0g","title":"مقرأة سورة النساء من آية ٩٢","publishedAt":"2019-09-29T20:35:00Z","duration":"PT22M12S","thumbnail":"https://i.ytimg.com/vi/zOa9SzFUb0g/mqdefault.jpg","viewCount":"372","playlistId":"PLEkQk5xrP-tnmTYsyW6xNdyfhPq0Bhrhj","playlistName":"مقرأة الفجر - القُرْآنُ الكَرِيمُ - خَتْمَةُ التَّدَبُّرِ  أ.د. يسري جبر","category":"متنوع"},{"id":"zLuozWdvBOQ","title":"بِدَعُ التَفَاسِيرِ - مقدمة الكتاب المجلس الأول .  أ.د. يسري جبر","publishedAt":"2019-09-29T16:48:46Z","duration":"PT37M20S","thumbnail":"https://i.ytimg.com/vi/zLuozWdvBOQ/mqdefault.jpg","viewCount":"5612","playlistId":"PLEkQk5xrP-tkSGrPLMt1BEmJ54cGWYgtp","playlistName":"كتابُ بِدَعِ التَفَاسِيرِ - أ.د. يسري جبر","category":"متنوع"},{"id":"Kd36cPLDSUU","title":"سورة النساء آية 71","publishedAt":"2019-09-29T16:24:56Z","duration":"PT7M59S","thumbnail":"https://i.ytimg.com/vi/Kd36cPLDSUU/mqdefault.jpg","viewCount":"912","playlistId":"PLEkQk5xrP-tnmTYsyW6xNdyfhPq0Bhrhj","playlistName":"مقرأة الفجر - القُرْآنُ الكَرِيمُ - خَتْمَةُ التَّدَبُّرِ  أ.د. يسري جبر","category":"متنوع"},{"id":"ntzprsD4_ZI","title":"سورة النساء آية 51","publishedAt":"2019-09-29T10:37:19Z","duration":"PT20M48S","thumbnail":"https://i.ytimg.com/vi/ntzprsD4_ZI/mqdefault.jpg","viewCount":"371","playlistId":"PLEkQk5xrP-tnmTYsyW6xNdyfhPq0Bhrhj","playlistName":"مقرأة الفجر - القُرْآنُ الكَرِيمُ - خَتْمَةُ التَّدَبُّرِ  أ.د. يسري جبر","category":"متنوع"},{"id":"oX9sAWyJaCA","title":"سورة آل عمران آية 164","publishedAt":"2019-09-29T07:11:11Z","duration":"PT16M32S","thumbnail":"https://i.ytimg.com/vi/oX9sAWyJaCA/mqdefault.jpg","viewCount":"535","playlistId":"PLEkQk5xrP-tnmTYsyW6xNdyfhPq0Bhrhj","playlistName":"مقرأة الفجر - القُرْآنُ الكَرِيمُ - خَتْمَةُ التَّدَبُّرِ  أ.د. يسري جبر","category":"متنوع"},{"id":"yDMGSKwy_Kw","title":"مقرأة سورة آل عمران من آية ١٥٩","publishedAt":"2019-09-29T00:56:58Z","duration":"PT9M29S","thumbnail":"https://i.ytimg.com/vi/yDMGSKwy_Kw/mqdefault.jpg","viewCount":"727","playlistId":"PLEkQk5xrP-tnmTYsyW6xNdyfhPq0Bhrhj","playlistName":"مقرأة الفجر - القُرْآنُ الكَرِيمُ - خَتْمَةُ التَّدَبُّرِ  أ.د. يسري جبر","category":"متنوع"},{"id":"sKUcBXudafk","title":"مقرأة سورة آل عمران من آية ١٥٥","publishedAt":"2019-09-28T22:34:36Z","duration":"PT13M7S","thumbnail":"https://i.ytimg.com/vi/sKUcBXudafk/mqdefault.jpg","viewCount":"433","playlistId":"PLEkQk5xrP-tnmTYsyW6xNdyfhPq0Bhrhj","playlistName":"مقرأة الفجر - القُرْآنُ الكَرِيمُ - خَتْمَةُ التَّدَبُّرِ  أ.د. يسري جبر","category":"متنوع"},{"id":"9n_dU6x9qa0","title":"مقرأة سورة آل عمران من آية ١٥٣","publishedAt":"2019-09-28T16:48:11Z","duration":"PT13M18S","thumbnail":"https://i.ytimg.com/vi/9n_dU6x9qa0/mqdefault.jpg","viewCount":"412","playlistId":"PLEkQk5xrP-tnmTYsyW6xNdyfhPq0Bhrhj","playlistName":"مقرأة الفجر - القُرْآنُ الكَرِيمُ - خَتْمَةُ التَّدَبُّرِ  أ.د. يسري جبر","category":"متنوع"},{"id":"dz8ZvlBKKlU","title":"مقرأة سورة آل عمران من آية ١٤٩","publishedAt":"2019-09-28T11:24:21Z","duration":"PT16M10S","thumbnail":"https://i.ytimg.com/vi/dz8ZvlBKKlU/mqdefault.jpg","viewCount":"456","playlistId":"PLEkQk5xrP-tnmTYsyW6xNdyfhPq0Bhrhj","playlistName":"مقرأة الفجر - القُرْآنُ الكَرِيمُ - خَتْمَةُ التَّدَبُّرِ  أ.د. يسري جبر","category":"متنوع"}],"total":4129,"page":87,"pageSize":24,"totalPages":173}