{"items":[{"id":"_LOxIBY3d_g","title":"لمَّا عَلِمَ الحقُّ منك وجودَ المَلل ، لوَّن لك الطاعات .","publishedAt":"2017-01-22T18:33:11Z","duration":"PT9M56S","thumbnail":"https://i.ytimg.com/vi/_LOxIBY3d_g/mqdefault.jpg","viewCount":"2063","playlistId":"PLEkQk5xrP-tkI_meE148wc7V7XHlB0WPb","playlistName":"من الحكم العطائية  د. يسري جبر","category":"متنوع"},{"id":"M61EeeacpvQ","title":"علم منك أنك لا تصبر عنه ، فأشهدك ما برز منه","publishedAt":"2017-01-18T18:46:51Z","duration":"PT5M9S","thumbnail":"https://i.ytimg.com/vi/M61EeeacpvQ/mqdefault.jpg","viewCount":"1792","playlistId":"PLEkQk5xrP-tkI_meE148wc7V7XHlB0WPb","playlistName":"من الحكم العطائية  د. يسري جبر","category":"متنوع"},{"id":"3ZPrwr-dtM4","title":"شرح صلاة المُتَرَدِّي   د. يسري جبر","publishedAt":"2017-01-18T17:32:18Z","duration":"PT17M47S","thumbnail":"https://i.ytimg.com/vi/3ZPrwr-dtM4/mqdefault.jpg","viewCount":"9211","playlistId":"PLEkQk5xrP-tm8ZIu74nTOZN9KJUJu416J","playlistName":"مقاطع مُهمَّة (يُسريَّات) أ.د. يسري جبر","category":"متنوع"},{"id":"qPCPOpkPdjw","title":"سورة الأنعام آية 158","publishedAt":"2017-01-14T18:23:21Z","duration":"PT43M31S","thumbnail":"https://i.ytimg.com/vi/qPCPOpkPdjw/mqdefault.jpg","viewCount":"493","playlistId":"PLEkQk5xrP-tnmTYsyW6xNdyfhPq0Bhrhj","playlistName":"مقرأة الفجر - القُرْآنُ الكَرِيمُ - خَتْمَةُ التَّدَبُّرِ  أ.د. يسري جبر","category":"متنوع"},{"id":"BwHjmGGVhbc","title":"أمرك في هذه الدار بالنظر في مُكَوَّنَاته وسيكشف لك في تلك الدار عن كمال ذاته.","publishedAt":"2017-01-13T16:20:24Z","duration":"PT5M48S","thumbnail":"https://i.ytimg.com/vi/BwHjmGGVhbc/mqdefault.jpg","viewCount":"1649","playlistId":"PLEkQk5xrP-tkI_meE148wc7V7XHlB0WPb","playlistName":"من الحكم العطائية  د. يسري جبر","category":"متنوع"},{"id":"CgQ_yXtUPeQ","title":"سورة الأنعام آية 151","publishedAt":"2017-01-12T20:12:46Z","duration":"PT35M21S","thumbnail":"https://i.ytimg.com/vi/CgQ_yXtUPeQ/mqdefault.jpg","viewCount":"567","playlistId":"PLEkQk5xrP-tnmTYsyW6xNdyfhPq0Bhrhj","playlistName":"مقرأة الفجر - القُرْآنُ الكَرِيمُ - خَتْمَةُ التَّدَبُّرِ  أ.د. يسري جبر","category":"متنوع"},{"id":"aZloXSJvnRY","title":"سورة الأنعام آية 146","publishedAt":"2017-01-11T07:21:08Z","duration":"PT30M13S","thumbnail":"https://i.ytimg.com/vi/aZloXSJvnRY/mqdefault.jpg","viewCount":"525","playlistId":"PLEkQk5xrP-tnmTYsyW6xNdyfhPq0Bhrhj","playlistName":"مقرأة الفجر - القُرْآنُ الكَرِيمُ - خَتْمَةُ التَّدَبُّرِ  أ.د. يسري جبر","category":"متنوع"},{"id":"KoPPNzEB6fU","title":"شرح الصلاة الأنموذجية د. يسري جبر","publishedAt":"2017-01-10T18:56:58Z","duration":"PT8M17S","thumbnail":"https://i.ytimg.com/vi/KoPPNzEB6fU/mqdefault.jpg","viewCount":"12879","playlistId":"PLEkQk5xrP-tm8ZIu74nTOZN9KJUJu416J","playlistName":"مقاطع مُهمَّة (يُسريَّات) أ.د. يسري جبر","category":"متنوع"},{"id":"TnT1V6HJGiU","title":"سورة الأنعام آية 143","publishedAt":"2017-01-10T05:35:11Z","duration":"PT21M38S","thumbnail":"https://i.ytimg.com/vi/TnT1V6HJGiU/mqdefault.jpg","viewCount":"425","playlistId":"PLEkQk5xrP-tnmTYsyW6xNdyfhPq0Bhrhj","playlistName":"مقرأة الفجر - القُرْآنُ الكَرِيمُ - خَتْمَةُ التَّدَبُّرِ  أ.د. يسري جبر","category":"متنوع"},{"id":"OOxZEQWGOI4","title":"سورة الأنعام آية 141","publishedAt":"2017-01-08T09:34:25Z","duration":"PT19M8S","thumbnail":"https://i.ytimg.com/vi/OOxZEQWGOI4/mqdefault.jpg","viewCount":"434","playlistId":"PLEkQk5xrP-tnmTYsyW6xNdyfhPq0Bhrhj","playlistName":"مقرأة الفجر - القُرْآنُ الكَرِيمُ - خَتْمَةُ التَّدَبُّرِ  أ.د. يسري جبر","category":"متنوع"},{"id":"XQ3Ff5aliJ4","title":"سورة الأنعام آية 136","publishedAt":"2017-01-06T15:28:13Z","duration":"PT23M38S","thumbnail":"https://i.ytimg.com/vi/XQ3Ff5aliJ4/mqdefault.jpg","viewCount":"449","playlistId":"PLEkQk5xrP-tnmTYsyW6xNdyfhPq0Bhrhj","playlistName":"مقرأة الفجر - القُرْآنُ الكَرِيمُ - خَتْمَةُ التَّدَبُّرِ  أ.د. يسري جبر","category":"متنوع"},{"id":"9Hhz-HiEMhg","title":"الغافل إذا أصبح ينظر ماذا يفعل والعاقل ينظر ماذا يفعل الله به","publishedAt":"2017-01-05T21:27:38Z","duration":"PT18M36S","thumbnail":"https://i.ytimg.com/vi/9Hhz-HiEMhg/mqdefault.jpg","viewCount":"8178","playlistId":"PLEkQk5xrP-tkI_meE148wc7V7XHlB0WPb","playlistName":"من الحكم العطائية  د. يسري جبر","category":"متنوع"},{"id":"wLHbVgg5JhI","title":"سورة الأنعام آية 130","publishedAt":"2017-01-05T03:34:30Z","duration":"PT23M52S","thumbnail":"https://i.ytimg.com/vi/wLHbVgg5JhI/mqdefault.jpg","viewCount":"737","playlistId":"PLEkQk5xrP-tnmTYsyW6xNdyfhPq0Bhrhj","playlistName":"مقرأة الفجر - القُرْآنُ الكَرِيمُ - خَتْمَةُ التَّدَبُّرِ  أ.د. يسري جبر","category":"متنوع"},{"id":"HG_dJvs3208","title":"سورة الأنعام آية 127","publishedAt":"2017-01-04T03:18:15Z","duration":"PT18M49S","thumbnail":"https://i.ytimg.com/vi/HG_dJvs3208/mqdefault.jpg","viewCount":"388","playlistId":"PLEkQk5xrP-tnmTYsyW6xNdyfhPq0Bhrhj","playlistName":"مقرأة الفجر - القُرْآنُ الكَرِيمُ - خَتْمَةُ التَّدَبُّرِ  أ.د. يسري جبر","category":"متنوع"},{"id":"-5JznzO6CUI","title":"38- صِيَامِ الَّذِى يَقْتُلُ خَطَأً أَوْ يَتَظَاهَرُ كتاب الصيام ك الموطأ د يسري جبر الأزهري","publishedAt":"2017-01-02T12:24:37Z","duration":"PT57M39S","thumbnail":"https://i.ytimg.com/vi/-5JznzO6CUI/mqdefault.jpg","viewCount":"360","playlistId":"PLEkQk5xrP-tnC6BRuqMjyO-484iqXeg0o","playlistName":"شرح كتاب الموطأ للإمام مالك","category":"متنوع"},{"id":"hflQHUhfRQ0","title":"سورة الأنعام آية 125","publishedAt":"2017-01-02T08:24:44Z","duration":"PT19M","thumbnail":"https://i.ytimg.com/vi/hflQHUhfRQ0/mqdefault.jpg","viewCount":"383","playlistId":"PLEkQk5xrP-tnmTYsyW6xNdyfhPq0Bhrhj","playlistName":"مقرأة الفجر - القُرْآنُ الكَرِيمُ - خَتْمَةُ التَّدَبُّرِ  أ.د. يسري جبر","category":"متنوع"},{"id":"U-w37G5N84I","title":"مقرأة سورة الأنعام من آية ١٢٣","publishedAt":"2017-01-01T07:26:51Z","duration":"PT19M58S","thumbnail":"https://i.ytimg.com/vi/U-w37G5N84I/mqdefault.jpg","viewCount":"425","playlistId":"PLEkQk5xrP-tnmTYsyW6xNdyfhPq0Bhrhj","playlistName":"مقرأة الفجر - القُرْآنُ الكَرِيمُ - خَتْمَةُ التَّدَبُّرِ  أ.د. يسري جبر","category":"متنوع"},{"id":"TSk_gANCWPM","title":"سورة الأنعام آية 116","publishedAt":"2016-12-30T13:24:11Z","duration":"PT22M56S","thumbnail":"https://i.ytimg.com/vi/TSk_gANCWPM/mqdefault.jpg","viewCount":"444","playlistId":"PLEkQk5xrP-tnmTYsyW6xNdyfhPq0Bhrhj","playlistName":"مقرأة الفجر - القُرْآنُ الكَرِيمُ - خَتْمَةُ التَّدَبُّرِ  أ.د. يسري جبر","category":"متنوع"},{"id":"1bQUxIXsmEs","title":"مقرأة سورة الأنعام من آية ١١١","publishedAt":"2016-12-29T07:39:23Z","duration":"PT25M11S","thumbnail":"https://i.ytimg.com/vi/1bQUxIXsmEs/mqdefault.jpg","viewCount":"460","playlistId":"PLEkQk5xrP-tnmTYsyW6xNdyfhPq0Bhrhj","playlistName":"مقرأة الفجر - القُرْآنُ الكَرِيمُ - خَتْمَةُ التَّدَبُّرِ  أ.د. يسري جبر","category":"متنوع"},{"id":"8evYo7s2lYk","title":"مقرأة سورة الأنعام من آية 106","publishedAt":"2016-12-28T11:44:40Z","duration":"PT26M39S","thumbnail":"https://i.ytimg.com/vi/8evYo7s2lYk/mqdefault.jpg","viewCount":"449","playlistId":"PLEkQk5xrP-tnmTYsyW6xNdyfhPq0Bhrhj","playlistName":"مقرأة الفجر - القُرْآنُ الكَرِيمُ - خَتْمَةُ التَّدَبُّرِ  أ.د. يسري جبر","category":"متنوع"},{"id":"96DO2v2tLdE","title":"سورة الأنعام آية 103","publishedAt":"2016-12-27T07:35:25Z","duration":"PT25M31S","thumbnail":"https://i.ytimg.com/vi/96DO2v2tLdE/mqdefault.jpg","viewCount":"414","playlistId":"PLEkQk5xrP-tnmTYsyW6xNdyfhPq0Bhrhj","playlistName":"مقرأة الفجر - القُرْآنُ الكَرِيمُ - خَتْمَةُ التَّدَبُّرِ  أ.د. يسري جبر","category":"متنوع"},{"id":"BcROrvlAO30","title":"مقرأة سورة الأنعام من آية ٩٩","publishedAt":"2016-12-26T07:00:28Z","duration":"PT25M42S","thumbnail":"https://i.ytimg.com/vi/BcROrvlAO30/mqdefault.jpg","viewCount":"901","playlistId":"PLEkQk5xrP-tnmTYsyW6xNdyfhPq0Bhrhj","playlistName":"مقرأة الفجر - القُرْآنُ الكَرِيمُ - خَتْمَةُ التَّدَبُّرِ  أ.د. يسري جبر","category":"متنوع"},{"id":"u4qsu0Bs7Js","title":"سورة الأنعام آية 95","publishedAt":"2016-12-25T17:14:17Z","duration":"PT17M39S","thumbnail":"https://i.ytimg.com/vi/u4qsu0Bs7Js/mqdefault.jpg","viewCount":"388","playlistId":"PLEkQk5xrP-tnmTYsyW6xNdyfhPq0Bhrhj","playlistName":"مقرأة الفجر - القُرْآنُ الكَرِيمُ - خَتْمَةُ التَّدَبُّرِ  أ.د. يسري جبر","category":"متنوع"},{"id":"kRKj6k9kEZ8","title":"37- الرُّخْصَةِ فِى الْقُبْلَةِ لِلصَّائِمِ كتاب الصيام ك الموطأ د يسري جبر الأزهري","publishedAt":"2016-12-24T13:12:14Z","duration":"PT1H9M47S","thumbnail":"https://i.ytimg.com/vi/kRKj6k9kEZ8/mqdefault.jpg","viewCount":"447","playlistId":"PLEkQk5xrP-tnC6BRuqMjyO-484iqXeg0o","playlistName":"شرح كتاب الموطأ للإمام مالك","category":"متنوع"}],"total":4129,"page":139,"pageSize":24,"totalPages":173}