{"items":[{"id":"42X5gMIOdaU","title":"شرح كتاب الأذكار من كلام سيد الأبرار للإمام النووى رضى الله عنه - المجلس الخمسون","publishedAt":"2016-12-21T06:43:31Z","duration":"PT14M25S","thumbnail":"https://i.ytimg.com/vi/42X5gMIOdaU/mqdefault.jpg","viewCount":"1260","playlistId":"PLEkQk5xrP-tkWS57Ubysh0ifJR8dmuEtE","playlistName":"شرح كتاب الأذكار للإمام النووي د. يسرى جبر","category":"حديث"}],"total":49,"page":3,"pageSize":24,"totalPages":3}