{"items":[{"id":"F26vx0wFNa8","title":"شرح منازل السائرين - المجلس (45) باب الإيثار | أ.د. يسري جبر","publishedAt":"2024-05-23T17:00:14Z","duration":"PT46M28S","thumbnail":"https://i.ytimg.com/vi/F26vx0wFNa8/mqdefault.jpg","viewCount":"3519","playlistId":"PLEkQk5xrP-tmiUfQ-2Tsn7QIak4EsvaZW","playlistName":"كتاب التيسير المعين بشرح معاني منازل السائرين (تصوف) - د.يسري جبر","category":"تصوف"},{"id":"MbfuLctly6Q","title":"شرح منازل السائرين - المجلس (44) باب الصدق | أ.د. يسري جبر","publishedAt":"2024-05-16T17:15:00Z","duration":"PT40M54S","thumbnail":"https://i.ytimg.com/vi/MbfuLctly6Q/mqdefault.jpg","viewCount":"4266","playlistId":"PLEkQk5xrP-tmiUfQ-2Tsn7QIak4EsvaZW","playlistName":"كتاب التيسير المعين بشرح معاني منازل السائرين (تصوف) - د.يسري جبر","category":"تصوف"},{"id":"VXjzV2eAV60","title":"شرح منازل السائرين - المجلس (47) درجات باب الخُلُق | أ.د. يسري جبر","publishedAt":"2024-07-24T17:56:04Z","duration":"PT35M37S","thumbnail":"https://i.ytimg.com/vi/VXjzV2eAV60/mqdefault.jpg","viewCount":"2603","playlistId":"PLEkQk5xrP-tmiUfQ-2Tsn7QIak4EsvaZW","playlistName":"كتاب التيسير المعين بشرح معاني منازل السائرين (تصوف) - د.يسري جبر","category":"تصوف"},{"id":"umeQUL53_3A","title":"شرح منازل السائرين - المجلس (43) باب الحياء | أ.د. يسري جبر","publishedAt":"2024-05-09T17:35:37Z","duration":"PT45M33S","thumbnail":"https://i.ytimg.com/vi/umeQUL53_3A/mqdefault.jpg","viewCount":"4376","playlistId":"PLEkQk5xrP-tmiUfQ-2Tsn7QIak4EsvaZW","playlistName":"كتاب التيسير المعين بشرح معاني منازل السائرين (تصوف) - د.يسري جبر","category":"تصوف"},{"id":"92Y1dBpr-lI","title":"شرح منازل السائرين - المجلس (42) باب الشكر | أ.د. يسري جبر","publishedAt":"2024-05-01T19:15:32Z","duration":"PT42M32S","thumbnail":"https://i.ytimg.com/vi/92Y1dBpr-lI/mqdefault.jpg","viewCount":"5617","playlistId":"PLEkQk5xrP-tmiUfQ-2Tsn7QIak4EsvaZW","playlistName":"كتاب التيسير المعين بشرح معاني منازل السائرين (تصوف) - د.يسري جبر","category":"تصوف"},{"id":"Yy1JynmJfxg","title":"شرح منازل السائرين - المجلس (41) باب الرضا | أ.د. يسري جبر","publishedAt":"2024-04-24T18:33:49Z","duration":"PT40M47S","thumbnail":"https://i.ytimg.com/vi/Yy1JynmJfxg/mqdefault.jpg","viewCount":"7150","playlistId":"PLEkQk5xrP-tmiUfQ-2Tsn7QIak4EsvaZW","playlistName":"كتاب التيسير المعين بشرح معاني منازل السائرين (تصوف) - د.يسري جبر","category":"تصوف"},{"id":"RBKyv3Kyi2I","title":"شرح منازل السائرين - المجلس (40) درجات باب الصبر | أ.د. يسري جبر","publishedAt":"2024-04-17T17:59:55Z","duration":"PT42M21S","thumbnail":"https://i.ytimg.com/vi/RBKyv3Kyi2I/mqdefault.jpg","viewCount":"6513","playlistId":"PLEkQk5xrP-tmiUfQ-2Tsn7QIak4EsvaZW","playlistName":"كتاب التيسير المعين بشرح معاني منازل السائرين (تصوف) - د.يسري جبر","category":"تصوف"},{"id":"cqHkFBMYqow","title":"53- كيف تكون مريدا إلى الله وتقوي إرادتك على الطاعات؟ | شرح منازل السائرين","publishedAt":"2024-12-04T15:36:19Z","duration":"PT39M1S","thumbnail":"https://i.ytimg.com/vi/cqHkFBMYqow/mqdefault.jpg","viewCount":"5618","playlistId":"PLEkQk5xrP-tmiUfQ-2Tsn7QIak4EsvaZW","playlistName":"كتاب التيسير المعين بشرح معاني منازل السائرين (تصوف) - د.يسري جبر","category":"تصوف"},{"id":"oCqYo1t7-Bk","title":"شرح منازل السائرين - المجلس (39) مقدمة باب الصبر | أ.د. يسري جبر","publishedAt":"2024-03-06T18:00:35Z","duration":"PT37M18S","thumbnail":"https://i.ytimg.com/vi/oCqYo1t7-Bk/mqdefault.jpg","viewCount":"4387","playlistId":"PLEkQk5xrP-tmiUfQ-2Tsn7QIak4EsvaZW","playlistName":"كتاب التيسير المعين بشرح معاني منازل السائرين (تصوف) - د.يسري جبر","category":"تصوف"},{"id":"yk-tOpadu58","title":"شرح منازل السائرين - المجلس (38) باب التسليم | أ.د. يسري جبر","publishedAt":"2024-02-28T18:30:47Z","duration":"PT48M11S","thumbnail":"https://i.ytimg.com/vi/yk-tOpadu58/mqdefault.jpg","viewCount":"11038","playlistId":"PLEkQk5xrP-tmiUfQ-2Tsn7QIak4EsvaZW","playlistName":"كتاب التيسير المعين بشرح معاني منازل السائرين (تصوف) - د.يسري جبر","category":"تصوف"},{"id":"jFFSWh5Of4U","title":"شرح منازل السائرين - المجلس (37) باب الثقة | أ.د. يسري جبر","publishedAt":"2024-02-20T18:00:27Z","duration":"PT32M40S","thumbnail":"https://i.ytimg.com/vi/jFFSWh5Of4U/mqdefault.jpg","viewCount":"7059","playlistId":"PLEkQk5xrP-tmiUfQ-2Tsn7QIak4EsvaZW","playlistName":"كتاب التيسير المعين بشرح معاني منازل السائرين (تصوف) - د.يسري جبر","category":"تصوف"},{"id":"BrxVyn4uKL0","title":"شرح منازل السائرين - المجلس (36) باب التفويض | أ.د. يسري جبر","publishedAt":"2024-02-08T18:30:11Z","duration":"PT34M15S","thumbnail":"https://i.ytimg.com/vi/BrxVyn4uKL0/mqdefault.jpg","viewCount":"8794","playlistId":"PLEkQk5xrP-tmiUfQ-2Tsn7QIak4EsvaZW","playlistName":"كتاب التيسير المعين بشرح معاني منازل السائرين (تصوف) - د.يسري جبر","category":"تصوف"},{"id":"3KrrGv-MTvE","title":"شرح منازل السائرين - المجلس (35) درجات باب التوكل | أ.د. يسري جبر","publishedAt":"2024-01-30T18:00:01Z","duration":"PT42M37S","thumbnail":"https://i.ytimg.com/vi/3KrrGv-MTvE/mqdefault.jpg","viewCount":"6115","playlistId":"PLEkQk5xrP-tmiUfQ-2Tsn7QIak4EsvaZW","playlistName":"كتاب التيسير المعين بشرح معاني منازل السائرين (تصوف) - د.يسري جبر","category":"تصوف"},{"id":"ZupozzbtSjM","title":"شرح منازل السائرين - المجلس (34) باب التوكل | أ.د. يسري جبر","publishedAt":"2024-01-22T19:09:34Z","duration":"PT37M13S","thumbnail":"https://i.ytimg.com/vi/ZupozzbtSjM/mqdefault.jpg","viewCount":"6057","playlistId":"PLEkQk5xrP-tmiUfQ-2Tsn7QIak4EsvaZW","playlistName":"كتاب التيسير المعين بشرح معاني منازل السائرين (تصوف) - د.يسري جبر","category":"تصوف"},{"id":"PITBHDG_Ezw","title":"شرح منازل السائرين - المجلس (33) مقدمة باب التوكل | أ.د. يسري جبر","publishedAt":"2024-01-17T18:26:50Z","duration":"PT34M35S","thumbnail":"https://i.ytimg.com/vi/PITBHDG_Ezw/mqdefault.jpg","viewCount":"7531","playlistId":"PLEkQk5xrP-tmiUfQ-2Tsn7QIak4EsvaZW","playlistName":"كتاب التيسير المعين بشرح معاني منازل السائرين (تصوف) - د.يسري جبر","category":"تصوف"},{"id":"T1WYQ-f7Wuc","title":"شرح منازل السائرين - المجلس (32) باب الاستقامة | أ.د. يسري جبر","publishedAt":"2024-01-03T18:36:21Z","duration":"PT46M21S","thumbnail":"https://i.ytimg.com/vi/T1WYQ-f7Wuc/mqdefault.jpg","viewCount":"6395","playlistId":"PLEkQk5xrP-tmiUfQ-2Tsn7QIak4EsvaZW","playlistName":"كتاب التيسير المعين بشرح معاني منازل السائرين (تصوف) - د.يسري جبر","category":"تصوف"},{"id":"vZxPkKkQUvU","title":"شرح منازل السائرين - المجلس (31) باب التهذيب | أ.د. يسري جبر","publishedAt":"2023-12-21T18:00:34Z","duration":"PT58M56S","thumbnail":"https://i.ytimg.com/vi/vZxPkKkQUvU/mqdefault.jpg","viewCount":"4953","playlistId":"PLEkQk5xrP-tmiUfQ-2Tsn7QIak4EsvaZW","playlistName":"كتاب التيسير المعين بشرح معاني منازل السائرين (تصوف) - د.يسري جبر","category":"تصوف"},{"id":"DrR83TvgiRA","title":"شرح منازل السائرين - المجلس (30) باب الإخلاص | أ.د. يسري جبر","publishedAt":"2023-10-03T17:30:02Z","duration":"PT25M46S","thumbnail":"https://i.ytimg.com/vi/DrR83TvgiRA/mqdefault.jpg","viewCount":"4952","playlistId":"PLEkQk5xrP-tmiUfQ-2Tsn7QIak4EsvaZW","playlistName":"كتاب التيسير المعين بشرح معاني منازل السائرين (تصوف) - د.يسري جبر","category":"تصوف"},{"id":"4HqGkhaxq_0","title":"شرح منازل السائرين - المجلس (29) باب الحرمة | أ.د. يسري جبر","publishedAt":"2023-08-22T18:00:02Z","duration":"PT41M53S","thumbnail":"https://i.ytimg.com/vi/4HqGkhaxq_0/mqdefault.jpg","viewCount":"5333","playlistId":"PLEkQk5xrP-tmiUfQ-2Tsn7QIak4EsvaZW","playlistName":"كتاب التيسير المعين بشرح معاني منازل السائرين (تصوف) - د.يسري جبر","category":"تصوف"},{"id":"KNPUIfA8tWc","title":"شرح منازل السائرين - المجلس (28) باب المراقبة | أ.د. يسري جبر","publishedAt":"2023-08-09T18:00:14Z","duration":"PT32M8S","thumbnail":"https://i.ytimg.com/vi/KNPUIfA8tWc/mqdefault.jpg","viewCount":"4468","playlistId":"PLEkQk5xrP-tmiUfQ-2Tsn7QIak4EsvaZW","playlistName":"كتاب التيسير المعين بشرح معاني منازل السائرين (تصوف) - د.يسري جبر","category":"تصوف"},{"id":"75M4uDbnamQ","title":"68- كيف تشعر بالطمأنينة وراحة البال في حياتك؟ | شرح منازل السائرين","publishedAt":"2025-09-16T17:45:20Z","duration":"PT35M59S","thumbnail":"https://i.ytimg.com/vi/75M4uDbnamQ/mqdefault.jpg","viewCount":"10342","playlistId":"PLEkQk5xrP-tmiUfQ-2Tsn7QIak4EsvaZW","playlistName":"كتاب التيسير المعين بشرح معاني منازل السائرين (تصوف) - د.يسري جبر","category":"تصوف"}],"total":69,"page":3,"pageSize":24,"totalPages":3}