{"items":[{"id":"KcBRO97P7Cg","title":"64- ما هي فراسة المؤمن وهل الفراسة من علم الغيب؟ | شرح منازل السائرين","publishedAt":"2025-07-16T18:50:24Z","duration":"PT34M26S","thumbnail":"https://i.ytimg.com/vi/KcBRO97P7Cg/mqdefault.jpg","viewCount":"6219","playlistId":"PLEkQk5xrP-tmiUfQ-2Tsn7QIak4EsvaZW","playlistName":"كتاب التيسير المعين بشرح معاني منازل السائرين (تصوف) - د.يسري جبر","category":"تصوف"},{"id":"EmV3I5kk4CE","title":"شرح منازل السائرين - المجلس (17) باب الحزن | أ.د. يسري جبر","publishedAt":"2022-12-07T18:00:07Z","duration":"PT43M4S","thumbnail":"https://i.ytimg.com/vi/EmV3I5kk4CE/mqdefault.jpg","viewCount":"8718","playlistId":"PLEkQk5xrP-tmiUfQ-2Tsn7QIak4EsvaZW","playlistName":"كتاب التيسير المعين بشرح معاني منازل السائرين (تصوف) - د.يسري جبر","category":"تصوف"},{"id":"_imgPh80E2o","title":"63- كيف تكون من أصحاب البصيرة؟ | شرح منازل السائرين","publishedAt":"2025-07-08T18:59:13Z","duration":"PT27M5S","thumbnail":"https://i.ytimg.com/vi/_imgPh80E2o/mqdefault.jpg","viewCount":"7567","playlistId":"PLEkQk5xrP-tmiUfQ-2Tsn7QIak4EsvaZW","playlistName":"كتاب التيسير المعين بشرح معاني منازل السائرين (تصوف) - د.يسري جبر","category":"تصوف"},{"id":"TfKVUZKhQ0o","title":"69- ما مفاتيح علو الهمة عند المسلم؟ | شرح منازل السائرين","publishedAt":"2025-10-30T18:00:27Z","duration":"PT29M34S","thumbnail":"https://i.ytimg.com/vi/TfKVUZKhQ0o/mqdefault.jpg","viewCount":"3387","playlistId":"PLEkQk5xrP-tmiUfQ-2Tsn7QIak4EsvaZW","playlistName":"كتاب التيسير المعين بشرح معاني منازل السائرين (تصوف) - د.يسري جبر","category":"تصوف"},{"id":"DrR83TvgiRA","title":"شرح منازل السائرين - المجلس (30) باب الإخلاص | أ.د. يسري جبر","publishedAt":"2023-10-03T17:30:02Z","duration":"PT25M46S","thumbnail":"https://i.ytimg.com/vi/DrR83TvgiRA/mqdefault.jpg","viewCount":"4952","playlistId":"PLEkQk5xrP-tmiUfQ-2Tsn7QIak4EsvaZW","playlistName":"كتاب التيسير المعين بشرح معاني منازل السائرين (تصوف) - د.يسري جبر","category":"تصوف"},{"id":"3mvDWiHMrz0","title":"شرح منازل السائرين - المجلس (26) باب الرغبة | أ.د. يسري جبر","publishedAt":"2023-02-15T18:00:01Z","duration":"PT47M34S","thumbnail":"https://i.ytimg.com/vi/3mvDWiHMrz0/mqdefault.jpg","viewCount":"5005","playlistId":"PLEkQk5xrP-tmiUfQ-2Tsn7QIak4EsvaZW","playlistName":"كتاب التيسير المعين بشرح معاني منازل السائرين (تصوف) - د.يسري جبر","category":"تصوف"},{"id":"JvK2pKt8b1g","title":"شرح منازل السائرين - المجلس (21) باب الإخبات | أ.د. يسري جبر","publishedAt":"2023-01-04T18:00:07Z","duration":"PT50M14S","thumbnail":"https://i.ytimg.com/vi/JvK2pKt8b1g/mqdefault.jpg","viewCount":"5213","playlistId":"PLEkQk5xrP-tmiUfQ-2Tsn7QIak4EsvaZW","playlistName":"كتاب التيسير المعين بشرح معاني منازل السائرين (تصوف) - د.يسري جبر","category":"تصوف"},{"id":"GxC3BwxuV4w","title":"شرح منازل السائرين - المجلس (25) باب الرجاء | أ.د. يسري جبر","publishedAt":"2023-02-08T18:00:11Z","duration":"PT45M56S","thumbnail":"https://i.ytimg.com/vi/GxC3BwxuV4w/mqdefault.jpg","viewCount":"5956","playlistId":"PLEkQk5xrP-tmiUfQ-2Tsn7QIak4EsvaZW","playlistName":"كتاب التيسير المعين بشرح معاني منازل السائرين (تصوف) - د.يسري جبر","category":"تصوف"},{"id":"OjOHb09p8h0","title":"59- متى يعصمك الله من الذنوب والمعاصي؟ | شرح منازل السائرين","publishedAt":"2025-04-22T19:01:17Z","duration":"PT38M","thumbnail":"https://i.ytimg.com/vi/OjOHb09p8h0/mqdefault.jpg","viewCount":"8375","playlistId":"PLEkQk5xrP-tmiUfQ-2Tsn7QIak4EsvaZW","playlistName":"كتاب التيسير المعين بشرح معاني منازل السائرين (تصوف) - د.يسري جبر","category":"تصوف"},{"id":"qKwaxuW3dtY","title":"شرح منازل السائرين - المجلس (19) باب الإشفاق | أ.د. يسري جبر","publishedAt":"2022-12-21T18:00:46Z","duration":"PT38M54S","thumbnail":"https://i.ytimg.com/vi/qKwaxuW3dtY/mqdefault.jpg","viewCount":"4692","playlistId":"PLEkQk5xrP-tmiUfQ-2Tsn7QIak4EsvaZW","playlistName":"كتاب التيسير المعين بشرح معاني منازل السائرين (تصوف) - د.يسري جبر","category":"تصوف"},{"id":"c_r77XELPb4","title":"49- ما هي الفتوة وكيف أتحقق بها؟ | شرح منازل السائرين","publishedAt":"2024-10-13T16:30:08Z","duration":"PT36M56S","thumbnail":"https://i.ytimg.com/vi/c_r77XELPb4/mqdefault.jpg","viewCount":"2608","playlistId":"PLEkQk5xrP-tmiUfQ-2Tsn7QIak4EsvaZW","playlistName":"كتاب التيسير المعين بشرح معاني منازل السائرين (تصوف) - د.يسري جبر","category":"تصوف"},{"id":"92Y1dBpr-lI","title":"شرح منازل السائرين - المجلس (42) باب الشكر | أ.د. يسري جبر","publishedAt":"2024-05-01T19:15:32Z","duration":"PT42M32S","thumbnail":"https://i.ytimg.com/vi/92Y1dBpr-lI/mqdefault.jpg","viewCount":"5617","playlistId":"PLEkQk5xrP-tmiUfQ-2Tsn7QIak4EsvaZW","playlistName":"كتاب التيسير المعين بشرح معاني منازل السائرين (تصوف) - د.يسري جبر","category":"تصوف"},{"id":"ltm-Woc9o48","title":"56- طريقك إلى الأنس بالله | شرح منازل السائرين","publishedAt":"2024-12-24T19:56:46Z","duration":"PT31M42S","thumbnail":"https://i.ytimg.com/vi/ltm-Woc9o48/mqdefault.jpg","viewCount":"12559","playlistId":"PLEkQk5xrP-tmiUfQ-2Tsn7QIak4EsvaZW","playlistName":"كتاب التيسير المعين بشرح معاني منازل السائرين (تصوف) - د.يسري جبر","category":"تصوف"},{"id":"azIr7HPfFSk","title":"55- ما الفرق بين علم اليقين وعين اليقين وحق اليقين؟ | شرح منازل السائرين","publishedAt":"2024-12-19T19:18:16Z","duration":"PT36M57S","thumbnail":"https://i.ytimg.com/vi/azIr7HPfFSk/mqdefault.jpg","viewCount":"3525","playlistId":"PLEkQk5xrP-tmiUfQ-2Tsn7QIak4EsvaZW","playlistName":"كتاب التيسير المعين بشرح معاني منازل السائرين (تصوف) - د.يسري جبر","category":"تصوف"},{"id":"ZtK14qsxJS0","title":"54- كيف تتعلم الأدب في طريقك إلى الله؟ | شرح منازل السائرين","publishedAt":"2024-12-11T16:13:47Z","duration":"PT27M46S","thumbnail":"https://i.ytimg.com/vi/ZtK14qsxJS0/mqdefault.jpg","viewCount":"3605","playlistId":"PLEkQk5xrP-tmiUfQ-2Tsn7QIak4EsvaZW","playlistName":"كتاب التيسير المعين بشرح معاني منازل السائرين (تصوف) - د.يسري جبر","category":"تصوف"},{"id":"F26vx0wFNa8","title":"شرح منازل السائرين - المجلس (45) باب الإيثار | أ.د. يسري جبر","publishedAt":"2024-05-23T17:00:14Z","duration":"PT46M28S","thumbnail":"https://i.ytimg.com/vi/F26vx0wFNa8/mqdefault.jpg","viewCount":"3519","playlistId":"PLEkQk5xrP-tmiUfQ-2Tsn7QIak4EsvaZW","playlistName":"كتاب التيسير المعين بشرح معاني منازل السائرين (تصوف) - د.يسري جبر","category":"تصوف"},{"id":"MbfuLctly6Q","title":"شرح منازل السائرين - المجلس (44) باب الصدق | أ.د. يسري جبر","publishedAt":"2024-05-16T17:15:00Z","duration":"PT40M54S","thumbnail":"https://i.ytimg.com/vi/MbfuLctly6Q/mqdefault.jpg","viewCount":"4266","playlistId":"PLEkQk5xrP-tmiUfQ-2Tsn7QIak4EsvaZW","playlistName":"كتاب التيسير المعين بشرح معاني منازل السائرين (تصوف) - د.يسري جبر","category":"تصوف"},{"id":"BHMmoT24NBY","title":"شرح منازل السائرين - المجلس (24) باب التبتل | أ.د. يسري جبر","publishedAt":"2023-01-25T18:00:04Z","duration":"PT41M7S","thumbnail":"https://i.ytimg.com/vi/BHMmoT24NBY/mqdefault.jpg","viewCount":"5296","playlistId":"PLEkQk5xrP-tmiUfQ-2Tsn7QIak4EsvaZW","playlistName":"كتاب التيسير المعين بشرح معاني منازل السائرين (تصوف) - د.يسري جبر","category":"تصوف"},{"id":"CrTwIClUFLo","title":"48- كيف أتخلص من الكبر؟ وما هو التواضع؟ | شرح منازل السائرين","publishedAt":"2024-08-21T17:00:21Z","duration":"PT41M11S","thumbnail":"https://i.ytimg.com/vi/CrTwIClUFLo/mqdefault.jpg","viewCount":"4491","playlistId":"PLEkQk5xrP-tmiUfQ-2Tsn7QIak4EsvaZW","playlistName":"كتاب التيسير المعين بشرح معاني منازل السائرين (تصوف) - د.يسري جبر","category":"تصوف"},{"id":"KYd54QZZKdY","title":"67- متى ينزل الله السكينة على قلبك؟ | شرح منازل السائرين","publishedAt":"2025-09-03T19:00:13Z","duration":"PT30M36S","thumbnail":"https://i.ytimg.com/vi/KYd54QZZKdY/mqdefault.jpg","viewCount":"9985","playlistId":"PLEkQk5xrP-tmiUfQ-2Tsn7QIak4EsvaZW","playlistName":"كتاب التيسير المعين بشرح معاني منازل السائرين (تصوف) - د.يسري جبر","category":"تصوف"},{"id":"Ttss3vs7dUY","title":"شرح منازل السائرين - المجلس (1) المقدمة | أ.د. يسري جبر","publishedAt":"2022-07-04T18:00:17Z","duration":"PT54M7S","thumbnail":"https://i.ytimg.com/vi/Ttss3vs7dUY/mqdefault.jpg","viewCount":"34483","playlistId":"PLEkQk5xrP-tmiUfQ-2Tsn7QIak4EsvaZW","playlistName":"كتاب التيسير المعين بشرح معاني منازل السائرين (تصوف) - د.يسري جبر","category":"تصوف"},{"id":"fGgqn2a8uZU","title":"شرح منازل السائرين - المجلس (8) باب الإنابةِ والتَّفَكُّرِ | أ.د. يسري جبر","publishedAt":"2022-09-14T18:00:31Z","duration":"PT51M28S","thumbnail":"https://i.ytimg.com/vi/fGgqn2a8uZU/mqdefault.jpg","viewCount":"10832","playlistId":"PLEkQk5xrP-tmiUfQ-2Tsn7QIak4EsvaZW","playlistName":"كتاب التيسير المعين بشرح معاني منازل السائرين (تصوف) - د.يسري جبر","category":"تصوف"},{"id":"lpP6DRNmKhM","title":"50- الانبساط والدلال في الطريق إلى الله | شرح منازل السائرين","publishedAt":"2024-10-30T13:31:59Z","duration":"PT39M54S","thumbnail":"https://i.ytimg.com/vi/lpP6DRNmKhM/mqdefault.jpg","viewCount":"6320","playlistId":"PLEkQk5xrP-tmiUfQ-2Tsn7QIak4EsvaZW","playlistName":"كتاب التيسير المعين بشرح معاني منازل السائرين (تصوف) - د.يسري جبر","category":"تصوف"},{"id":"4HqGkhaxq_0","title":"شرح منازل السائرين - المجلس (29) باب الحرمة | أ.د. يسري جبر","publishedAt":"2023-08-22T18:00:02Z","duration":"PT41M53S","thumbnail":"https://i.ytimg.com/vi/4HqGkhaxq_0/mqdefault.jpg","viewCount":"5333","playlistId":"PLEkQk5xrP-tmiUfQ-2Tsn7QIak4EsvaZW","playlistName":"كتاب التيسير المعين بشرح معاني منازل السائرين (تصوف) - د.يسري جبر","category":"تصوف"}],"total":69,"page":1,"pageSize":24,"totalPages":3}