{"items":[{"id":"6799skftxlM","title":"شرح سنن الدارمي كتاب البيوع من باب ٥١","publishedAt":"2019-09-16T12:06:52Z","duration":"PT27M33S","thumbnail":"https://i.ytimg.com/vi/6799skftxlM/mqdefault.jpg","viewCount":"234","playlistId":"PLEkQk5xrP-tmAg-FuWjY057X_h5NmGmAa","playlistName":"شرح سنن الدارمي - أ.د. يسري جبر (كاملا)","category":"متنوع"},{"id":"FXhXyhsnpKg","title":"شرح سنن الدارمي كتاب البيوع من باب ٤٦","publishedAt":"2019-09-15T04:52:53Z","duration":"PT19M13S","thumbnail":"https://i.ytimg.com/vi/FXhXyhsnpKg/mqdefault.jpg","viewCount":"240","playlistId":"PLEkQk5xrP-tmAg-FuWjY057X_h5NmGmAa","playlistName":"شرح سنن الدارمي - أ.د. يسري جبر (كاملا)","category":"متنوع"},{"id":"VKMVZofF96s","title":"شرح سنن الدارمي - المقدمة - ٢٤","publishedAt":"2019-03-15T02:00:06Z","duration":"PT34M32S","thumbnail":"https://i.ytimg.com/vi/VKMVZofF96s/mqdefault.jpg","viewCount":"562","playlistId":"PLEkQk5xrP-tmAg-FuWjY057X_h5NmGmAa","playlistName":"شرح سنن الدارمي - أ.د. يسري جبر (كاملا)","category":"متنوع"},{"id":"NdpzqBRS1_U","title":"شرح سنن الدارمي - المقدمة - ٢٣","publishedAt":"2019-03-13T12:59:08Z","duration":"PT34M19S","thumbnail":"https://i.ytimg.com/vi/NdpzqBRS1_U/mqdefault.jpg","viewCount":"573","playlistId":"PLEkQk5xrP-tmAg-FuWjY057X_h5NmGmAa","playlistName":"شرح سنن الدارمي - أ.د. يسري جبر (كاملا)","category":"متنوع"},{"id":"OK-frGmHD5c","title":"شرح سنن الدارمي - المقدمة - ٢٢","publishedAt":"2019-03-12T12:12:02Z","duration":"PT31M53S","thumbnail":"https://i.ytimg.com/vi/OK-frGmHD5c/mqdefault.jpg","viewCount":"594","playlistId":"PLEkQk5xrP-tmAg-FuWjY057X_h5NmGmAa","playlistName":"شرح سنن الدارمي - أ.د. يسري جبر (كاملا)","category":"متنوع"},{"id":"ZsOfW06xI_A","title":"شرح سنن الدارمي - المقدمة - ٢١","publishedAt":"2019-03-10T21:59:25Z","duration":"PT14M31S","thumbnail":"https://i.ytimg.com/vi/ZsOfW06xI_A/mqdefault.jpg","viewCount":"561","playlistId":"PLEkQk5xrP-tmAg-FuWjY057X_h5NmGmAa","playlistName":"شرح سنن الدارمي - أ.د. يسري جبر (كاملا)","category":"متنوع"},{"id":"5dZTMc5f8gc","title":"شرح سنن الدارمي - المقدمة - ٢٠","publishedAt":"2019-03-09T20:53:57Z","duration":"PT35M23S","thumbnail":"https://i.ytimg.com/vi/5dZTMc5f8gc/mqdefault.jpg","viewCount":"773","playlistId":"PLEkQk5xrP-tmAg-FuWjY057X_h5NmGmAa","playlistName":"شرح سنن الدارمي - أ.د. يسري جبر (كاملا)","category":"متنوع"},{"id":"c8VA6QEABTA","title":"شرح سنن الدارمي - المقدمة  -  ١٨","publishedAt":"2019-03-07T21:06:40Z","duration":"PT44M37S","thumbnail":"https://i.ytimg.com/vi/c8VA6QEABTA/mqdefault.jpg","viewCount":"816","playlistId":"PLEkQk5xrP-tmAg-FuWjY057X_h5NmGmAa","playlistName":"شرح سنن الدارمي - أ.د. يسري جبر (كاملا)","category":"متنوع"},{"id":"y1q7ZKxTP7E","title":"شرح سنن الدارمي - المقدمة -  ١٦","publishedAt":"2019-03-06T22:34:46Z","duration":"PT42M33S","thumbnail":"https://i.ytimg.com/vi/y1q7ZKxTP7E/mqdefault.jpg","viewCount":"809","playlistId":"PLEkQk5xrP-tmAg-FuWjY057X_h5NmGmAa","playlistName":"شرح سنن الدارمي - أ.د. يسري جبر (كاملا)","category":"متنوع"},{"id":"XLMIHyDP3cM","title":"شرح سنن الدارمي - المقدمة - ١٤ - تكملة","publishedAt":"2019-03-05T20:34:37Z","duration":"PT37M56S","thumbnail":"https://i.ytimg.com/vi/XLMIHyDP3cM/mqdefault.jpg","viewCount":"760","playlistId":"PLEkQk5xrP-tmAg-FuWjY057X_h5NmGmAa","playlistName":"شرح سنن الدارمي - أ.د. يسري جبر (كاملا)","category":"متنوع"},{"id":"rhdAhbVORQI","title":"شرح سنن الدارمي كتاب المناسك من باب ١٦","publishedAt":"2019-07-02T21:20:01Z","duration":"PT27M36S","thumbnail":"https://i.ytimg.com/vi/rhdAhbVORQI/mqdefault.jpg","viewCount":"341","playlistId":"PLEkQk5xrP-tmAg-FuWjY057X_h5NmGmAa","playlistName":"شرح سنن الدارمي - أ.د. يسري جبر (كاملا)","category":"متنوع"},{"id":"31Z8AFpwIEs","title":"شرح سنن الدارمي كتاب المناسك من باب ١٠","publishedAt":"2019-07-01T22:49:14Z","duration":"PT28M1S","thumbnail":"https://i.ytimg.com/vi/31Z8AFpwIEs/mqdefault.jpg","viewCount":"303","playlistId":"PLEkQk5xrP-tmAg-FuWjY057X_h5NmGmAa","playlistName":"شرح سنن الدارمي - أ.د. يسري جبر (كاملا)","category":"متنوع"},{"id":"pGjXHEDhSY8","title":"شرح سنن الدارمي كتاب المناسك من باب ٥","publishedAt":"2019-06-30T20:13:51Z","duration":"PT24M40S","thumbnail":"https://i.ytimg.com/vi/pGjXHEDhSY8/mqdefault.jpg","viewCount":"330","playlistId":"PLEkQk5xrP-tmAg-FuWjY057X_h5NmGmAa","playlistName":"شرح سنن الدارمي - أ.د. يسري جبر (كاملا)","category":"متنوع"},{"id":"OKabsHZZmuo","title":"شرح سنن الدارمي كتاب البيوع من باب ٤١","publishedAt":"2019-09-14T10:17:00Z","duration":"PT31M12S","thumbnail":"https://i.ytimg.com/vi/OKabsHZZmuo/mqdefault.jpg","viewCount":"278","playlistId":"PLEkQk5xrP-tmAg-FuWjY057X_h5NmGmAa","playlistName":"شرح سنن الدارمي - أ.د. يسري جبر (كاملا)","category":"متنوع"},{"id":"6X68pT8v5ys","title":"شرح سنن الدارمي كتاب البيوع من باب ٣٦","publishedAt":"2019-09-13T17:22:46Z","duration":"PT32M17S","thumbnail":"https://i.ytimg.com/vi/6X68pT8v5ys/mqdefault.jpg","viewCount":"275","playlistId":"PLEkQk5xrP-tmAg-FuWjY057X_h5NmGmAa","playlistName":"شرح سنن الدارمي - أ.د. يسري جبر (كاملا)","category":"متنوع"},{"id":"LBvW_ZCXew8","title":"شرح سنن الدارمي كتاب البيوع من باب ٢٩","publishedAt":"2019-09-12T21:43:57Z","duration":"PT21M6S","thumbnail":"https://i.ytimg.com/vi/LBvW_ZCXew8/mqdefault.jpg","viewCount":"287","playlistId":"PLEkQk5xrP-tmAg-FuWjY057X_h5NmGmAa","playlistName":"شرح سنن الدارمي - أ.د. يسري جبر (كاملا)","category":"متنوع"},{"id":"LBdshoALR3Y","title":"شرح سنن الدارمي كتاب البيوع من باب ٢٣","publishedAt":"2019-09-09T12:55:27Z","duration":"PT27M13S","thumbnail":"https://i.ytimg.com/vi/LBdshoALR3Y/mqdefault.jpg","viewCount":"331","playlistId":"PLEkQk5xrP-tmAg-FuWjY057X_h5NmGmAa","playlistName":"شرح سنن الدارمي - أ.د. يسري جبر (كاملا)","category":"متنوع"},{"id":"C_BObk_c9ts","title":"شرح سنن الدارمي كتاب الصلاة من باب ١٤٥","publishedAt":"2019-05-18T22:02:41Z","duration":"PT31M44S","thumbnail":"https://i.ytimg.com/vi/C_BObk_c9ts/mqdefault.jpg","viewCount":"376","playlistId":"PLEkQk5xrP-tmAg-FuWjY057X_h5NmGmAa","playlistName":"شرح سنن الدارمي - أ.د. يسري جبر (كاملا)","category":"متنوع"},{"id":"V4HJWuV_87Y","title":"شرح سنن الدارمي كتاب البيوع من باب ١٧","publishedAt":"2019-09-07T16:41:43Z","duration":"PT24M29S","thumbnail":"https://i.ytimg.com/vi/V4HJWuV_87Y/mqdefault.jpg","viewCount":"256","playlistId":"PLEkQk5xrP-tmAg-FuWjY057X_h5NmGmAa","playlistName":"شرح سنن الدارمي - أ.د. يسري جبر (كاملا)","category":"متنوع"},{"id":"L2sJdkKMmZo","title":"شرح سنن الدارمي كتاب البيوع من باب ١٠","publishedAt":"2019-09-05T19:23:38Z","duration":"PT30M35S","thumbnail":"https://i.ytimg.com/vi/L2sJdkKMmZo/mqdefault.jpg","viewCount":"416","playlistId":"PLEkQk5xrP-tmAg-FuWjY057X_h5NmGmAa","playlistName":"شرح سنن الدارمي - أ.د. يسري جبر (كاملا)","category":"متنوع"},{"id":"L2GnMzxzn4E","title":"شرح سنن الدارمي كتاب البيوع من أوله","publishedAt":"2019-09-04T17:02:28Z","duration":"PT26M15S","thumbnail":"https://i.ytimg.com/vi/L2GnMzxzn4E/mqdefault.jpg","viewCount":"400","playlistId":"PLEkQk5xrP-tmAg-FuWjY057X_h5NmGmAa","playlistName":"شرح سنن الدارمي - أ.د. يسري جبر (كاملا)","category":"متنوع"},{"id":"pdviOOwDXCE","title":"شرح سنن الدارمي كتاب السير من باب ٧٢","publishedAt":"2019-09-03T16:50:28Z","duration":"PT29M50S","thumbnail":"https://i.ytimg.com/vi/pdviOOwDXCE/mqdefault.jpg","viewCount":"444","playlistId":"PLEkQk5xrP-tmAg-FuWjY057X_h5NmGmAa","playlistName":"شرح سنن الدارمي - أ.د. يسري جبر (كاملا)","category":"متنوع"},{"id":"aeeMgTSDJa0","title":"شرح سنن الدارمي كتاب السير من باب ٦٧","publishedAt":"2019-09-02T14:56:29Z","duration":"PT22M42S","thumbnail":"https://i.ytimg.com/vi/aeeMgTSDJa0/mqdefault.jpg","viewCount":"354","playlistId":"PLEkQk5xrP-tmAg-FuWjY057X_h5NmGmAa","playlistName":"شرح سنن الدارمي - أ.د. يسري جبر (كاملا)","category":"متنوع"},{"id":"wdV0BO6RxCM","title":"شرح سنن الدارمي كتاب السير من باب ٥٥","publishedAt":"2019-09-01T16:34:31Z","duration":"PT41M27S","thumbnail":"https://i.ytimg.com/vi/wdV0BO6RxCM/mqdefault.jpg","viewCount":"385","playlistId":"PLEkQk5xrP-tmAg-FuWjY057X_h5NmGmAa","playlistName":"شرح سنن الدارمي - أ.د. يسري جبر (كاملا)","category":"متنوع"}],"total":213,"page":4,"pageSize":24,"totalPages":9}