{"items":[{"id":"phHduOxJyd0","title":"شرح سنن الدارمي كتاب الطهارة من باب ١٠٣","publishedAt":"2019-04-19T09:55:42Z","duration":"PT38M50S","thumbnail":"https://i.ytimg.com/vi/phHduOxJyd0/mqdefault.jpg","viewCount":"366","playlistId":"PLEkQk5xrP-tmAg-FuWjY057X_h5NmGmAa","playlistName":"شرح سنن الدارمي - أ.د. يسري جبر (كاملا)","category":"متنوع"},{"id":"rNNsflSrUfQ","title":"شرح سنن الدارمي كتاب الطهارة من باب ٩٩","publishedAt":"2019-04-18T11:42:03Z","duration":"PT27M10S","thumbnail":"https://i.ytimg.com/vi/rNNsflSrUfQ/mqdefault.jpg","viewCount":"312","playlistId":"PLEkQk5xrP-tmAg-FuWjY057X_h5NmGmAa","playlistName":"شرح سنن الدارمي - أ.د. يسري جبر (كاملا)","category":"متنوع"},{"id":"Qv0kBapwHAc","title":"شرح سنن الدارمي كتاب الطهارة من باب ١١٥","publishedAt":"2019-04-24T21:43:59Z","duration":"PT31M54S","thumbnail":"https://i.ytimg.com/vi/Qv0kBapwHAc/mqdefault.jpg","viewCount":"335","playlistId":"PLEkQk5xrP-tmAg-FuWjY057X_h5NmGmAa","playlistName":"شرح سنن الدارمي - أ.د. يسري جبر (كاملا)","category":"متنوع"},{"id":"Q-W0uDLm4n0","title":"شرح سنن الدارمي كتاب الطهارة من باب ١١٣","publishedAt":"2019-04-23T22:37:29Z","duration":"PT29M1S","thumbnail":"https://i.ytimg.com/vi/Q-W0uDLm4n0/mqdefault.jpg","viewCount":"373","playlistId":"PLEkQk5xrP-tmAg-FuWjY057X_h5NmGmAa","playlistName":"شرح سنن الدارمي - أ.د. يسري جبر (كاملا)","category":"متنوع"},{"id":"gj2H3uDSqW8","title":"شرح سنن الدارمي كتاب الطهارة من باب ١١٠","publishedAt":"2019-04-22T08:09:53Z","duration":"PT24M3S","thumbnail":"https://i.ytimg.com/vi/gj2H3uDSqW8/mqdefault.jpg","viewCount":"324","playlistId":"PLEkQk5xrP-tmAg-FuWjY057X_h5NmGmAa","playlistName":"شرح سنن الدارمي - أ.د. يسري جبر (كاملا)","category":"متنوع"},{"id":"oCI00d5ho1g","title":"شرح سنن الدارمي كتاب الطهارة من باب ١٠٩","publishedAt":"2019-04-21T09:53:44Z","duration":"PT30M17S","thumbnail":"https://i.ytimg.com/vi/oCI00d5ho1g/mqdefault.jpg","viewCount":"348","playlistId":"PLEkQk5xrP-tmAg-FuWjY057X_h5NmGmAa","playlistName":"شرح سنن الدارمي - أ.د. يسري جبر (كاملا)","category":"متنوع"},{"id":"nPdD1_P5ce4","title":"شرح سنن الدارمي كتاب الرقاق من باب ١٠٠","publishedAt":"2019-10-08T11:56:16Z","duration":"PT38M49S","thumbnail":"https://i.ytimg.com/vi/nPdD1_P5ce4/mqdefault.jpg","viewCount":"422","playlistId":"PLEkQk5xrP-tmAg-FuWjY057X_h5NmGmAa","playlistName":"شرح سنن الدارمي - أ.د. يسري جبر (كاملا)","category":"متنوع"},{"id":"Q6A7xK5YmC4","title":"شرح سنن الدارمي كتاب الرقاق من باب ٨١","publishedAt":"2019-10-06T10:46:59Z","duration":"PT39M39S","thumbnail":"https://i.ytimg.com/vi/Q6A7xK5YmC4/mqdefault.jpg","viewCount":"402","playlistId":"PLEkQk5xrP-tmAg-FuWjY057X_h5NmGmAa","playlistName":"شرح سنن الدارمي - أ.د. يسري جبر (كاملا)","category":"متنوع"},{"id":"5-zldDhkndM","title":"شرح سنن الدارمي - المقدمة - ٤٨","publishedAt":"2019-03-30T21:47:12Z","duration":"PT31M11S","thumbnail":"https://i.ytimg.com/vi/5-zldDhkndM/mqdefault.jpg","viewCount":"486","playlistId":"PLEkQk5xrP-tmAg-FuWjY057X_h5NmGmAa","playlistName":"شرح سنن الدارمي - أ.د. يسري جبر (كاملا)","category":"متنوع"},{"id":"y-hWgtYoeHs","title":"شرح سنن الدارمي - المقدمة - ٤٦","publishedAt":"2019-03-28T20:59:52Z","duration":"PT41M49S","thumbnail":"https://i.ytimg.com/vi/y-hWgtYoeHs/mqdefault.jpg","viewCount":"516","playlistId":"PLEkQk5xrP-tmAg-FuWjY057X_h5NmGmAa","playlistName":"شرح سنن الدارمي - أ.د. يسري جبر (كاملا)","category":"متنوع"},{"id":"C2uwRPxpMCE","title":"شرح سنن الدارمي - المقدمة - ٤٤","publishedAt":"2019-03-27T22:38:54Z","duration":"PT40M58S","thumbnail":"https://i.ytimg.com/vi/C2uwRPxpMCE/mqdefault.jpg","viewCount":"527","playlistId":"PLEkQk5xrP-tmAg-FuWjY057X_h5NmGmAa","playlistName":"شرح سنن الدارمي - أ.د. يسري جبر (كاملا)","category":"متنوع"},{"id":"aUoBTBL7dqc","title":"شرح سنن الدارمي - المقدمة - ٤٣","publishedAt":"2019-03-26T21:53:48Z","duration":"PT37M19S","thumbnail":"https://i.ytimg.com/vi/aUoBTBL7dqc/mqdefault.jpg","viewCount":"466","playlistId":"PLEkQk5xrP-tmAg-FuWjY057X_h5NmGmAa","playlistName":"شرح سنن الدارمي - أ.د. يسري جبر (كاملا)","category":"متنوع"},{"id":"ZUQmyGEbd2g","title":"شرح سنن الدارمي كتاب الرقاق من باب ٧٢","publishedAt":"2019-10-05T17:40:28Z","duration":"PT27M38S","thumbnail":"https://i.ytimg.com/vi/ZUQmyGEbd2g/mqdefault.jpg","viewCount":"449","playlistId":"PLEkQk5xrP-tmAg-FuWjY057X_h5NmGmAa","playlistName":"شرح سنن الدارمي - أ.د. يسري جبر (كاملا)","category":"متنوع"},{"id":"AYviZseVQuI","title":"شرح سنن الدارمي كتاب الرقاق من باب ٦١","publishedAt":"2019-10-04T22:39:40Z","duration":"PT28M47S","thumbnail":"https://i.ytimg.com/vi/AYviZseVQuI/mqdefault.jpg","viewCount":"395","playlistId":"PLEkQk5xrP-tmAg-FuWjY057X_h5NmGmAa","playlistName":"شرح سنن الدارمي - أ.د. يسري جبر (كاملا)","category":"متنوع"},{"id":"doBBE703GgA","title":"شرح سنن الدارمي كتاب الرقاق من باب ٤٥","publishedAt":"2019-10-03T19:32:04Z","duration":"PT26M50S","thumbnail":"https://i.ytimg.com/vi/doBBE703GgA/mqdefault.jpg","viewCount":"376","playlistId":"PLEkQk5xrP-tmAg-FuWjY057X_h5NmGmAa","playlistName":"شرح سنن الدارمي - أ.د. يسري جبر (كاملا)","category":"متنوع"},{"id":"H5NXIFze9uw","title":"شرح سنن الدارمي كتاب الرقاق من باب ٣٤","publishedAt":"2019-10-02T12:38:27Z","duration":"PT31M38S","thumbnail":"https://i.ytimg.com/vi/H5NXIFze9uw/mqdefault.jpg","viewCount":"419","playlistId":"PLEkQk5xrP-tmAg-FuWjY057X_h5NmGmAa","playlistName":"شرح سنن الدارمي - أ.د. يسري جبر (كاملا)","category":"متنوع"},{"id":"t9mTetOZFa8","title":"شرح سنن الدارمي كتاب الرقاق من باب ١٣","publishedAt":"2019-09-26T16:31:44Z","duration":"PT32M35S","thumbnail":"https://i.ytimg.com/vi/t9mTetOZFa8/mqdefault.jpg","viewCount":"351","playlistId":"PLEkQk5xrP-tmAg-FuWjY057X_h5NmGmAa","playlistName":"شرح سنن الدارمي - أ.د. يسري جبر (كاملا)","category":"متنوع"},{"id":"QZ0fpv4jb-U","title":"شرح سنن الدارمي كتاب الرقاق من أوله","publishedAt":"2019-09-25T19:17:51Z","duration":"PT25M41S","thumbnail":"https://i.ytimg.com/vi/QZ0fpv4jb-U/mqdefault.jpg","viewCount":"414","playlistId":"PLEkQk5xrP-tmAg-FuWjY057X_h5NmGmAa","playlistName":"شرح سنن الدارمي - أ.د. يسري جبر (كاملا)","category":"متنوع"},{"id":"R9Cc1w3C750","title":"شرح سنن الدارمي كتاب الاستئذان من باب ٥١","publishedAt":"2019-09-24T10:04:05Z","duration":"PT40M1S","thumbnail":"https://i.ytimg.com/vi/R9Cc1w3C750/mqdefault.jpg","viewCount":"313","playlistId":"PLEkQk5xrP-tmAg-FuWjY057X_h5NmGmAa","playlistName":"شرح سنن الدارمي - أ.د. يسري جبر (كاملا)","category":"متنوع"},{"id":"QgPoLetAUvQ","title":"شرح سنن الدارمي كتاب الاستئذان من باب ٤٠","publishedAt":"2019-09-23T10:38:39Z","duration":"PT22M41S","thumbnail":"https://i.ytimg.com/vi/QgPoLetAUvQ/mqdefault.jpg","viewCount":"326","playlistId":"PLEkQk5xrP-tmAg-FuWjY057X_h5NmGmAa","playlistName":"شرح سنن الدارمي - أ.د. يسري جبر (كاملا)","category":"متنوع"},{"id":"QJZt7KcPlBw","title":"شرح سنن الدارمي كتاب الاستئذان من باب ٢٢","publishedAt":"2019-09-21T23:38:20Z","duration":"PT30M50S","thumbnail":"https://i.ytimg.com/vi/QJZt7KcPlBw/mqdefault.jpg","viewCount":"382","playlistId":"PLEkQk5xrP-tmAg-FuWjY057X_h5NmGmAa","playlistName":"شرح سنن الدارمي - أ.د. يسري جبر (كاملا)","category":"متنوع"},{"id":"xR3ma_nKRcc","title":"شرح سنن الدارمي كتاب الحدود من أوله","publishedAt":"2019-08-16T22:02:28Z","duration":"PT34M38S","thumbnail":"https://i.ytimg.com/vi/xR3ma_nKRcc/mqdefault.jpg","viewCount":"413","playlistId":"PLEkQk5xrP-tmAg-FuWjY057X_h5NmGmAa","playlistName":"شرح سنن الدارمي - أ.د. يسري جبر (كاملا)","category":"متنوع"},{"id":"o9xlJwtCjBs","title":"شرح سنن الدارمي كتاب الطلا‎ق من باب ١٢","publishedAt":"2019-08-16T11:34:54Z","duration":"PT36M14S","thumbnail":"https://i.ytimg.com/vi/o9xlJwtCjBs/mqdefault.jpg","viewCount":"376","playlistId":"PLEkQk5xrP-tmAg-FuWjY057X_h5NmGmAa","playlistName":"شرح سنن الدارمي - أ.د. يسري جبر (كاملا)","category":"متنوع"},{"id":"Ct_X7EWiXBE","title":"ختام شرح سنن الإمام الدارمي رضي الله تعالى عنه - أ.د. يسري جبر","publishedAt":"2019-11-26T19:34:21Z","duration":"PT30M28S","thumbnail":"https://i.ytimg.com/vi/Ct_X7EWiXBE/mqdefault.jpg","viewCount":"789","playlistId":"PLEkQk5xrP-tmAg-FuWjY057X_h5NmGmAa","playlistName":"شرح سنن الدارمي - أ.د. يسري جبر (كاملا)","category":"متنوع"}],"total":213,"page":6,"pageSize":24,"totalPages":9}