{"items":[{"id":"PdKggC7CrZA","title":"شرح سنن الدارمي كتاب فضائل القرآن من باب ٢٠","publishedAt":"2019-12-14T13:59:41Z","duration":"PT29M3S","thumbnail":"https://i.ytimg.com/vi/PdKggC7CrZA/mqdefault.jpg","viewCount":"217","playlistId":"PLEkQk5xrP-tmAg-FuWjY057X_h5NmGmAa","playlistName":"شرح سنن الدارمي - أ.د. يسري جبر (كاملا)","category":"متنوع"},{"id":"MzypiQQAc6Q","title":"شرح سنن الدارمي كتاب فضائل القرآن من باب ١٧","publishedAt":"2019-12-13T19:04:07Z","duration":"PT21M57S","thumbnail":"https://i.ytimg.com/vi/MzypiQQAc6Q/mqdefault.jpg","viewCount":"288","playlistId":"PLEkQk5xrP-tmAg-FuWjY057X_h5NmGmAa","playlistName":"شرح سنن الدارمي - أ.د. يسري جبر (كاملا)","category":"متنوع"},{"id":"q2uMreJAfhw","title":"شرح سنن الدارمي كتاب فضائل القرآن من باب ١٤","publishedAt":"2019-12-12T19:32:06Z","duration":"PT36M4S","thumbnail":"https://i.ytimg.com/vi/q2uMreJAfhw/mqdefault.jpg","viewCount":"283","playlistId":"PLEkQk5xrP-tmAg-FuWjY057X_h5NmGmAa","playlistName":"شرح سنن الدارمي - أ.د. يسري جبر (كاملا)","category":"متنوع"},{"id":"WT8_yi6bbVs","title":"شرح سنن الدارمي كتاب فضائل القرآن من باب ٧","publishedAt":"2019-12-12T11:31:41Z","duration":"PT27M32S","thumbnail":"https://i.ytimg.com/vi/WT8_yi6bbVs/mqdefault.jpg","viewCount":"273","playlistId":"PLEkQk5xrP-tmAg-FuWjY057X_h5NmGmAa","playlistName":"شرح سنن الدارمي - أ.د. يسري جبر (كاملا)","category":"متنوع"},{"id":"le1zh-ErAcw","title":"شرح سنن الدارمي كتاب فضائل القرآن من باب ٢","publishedAt":"2019-12-11T09:25:43Z","duration":"PT30M8S","thumbnail":"https://i.ytimg.com/vi/le1zh-ErAcw/mqdefault.jpg","viewCount":"215","playlistId":"PLEkQk5xrP-tmAg-FuWjY057X_h5NmGmAa","playlistName":"شرح سنن الدارمي - أ.د. يسري جبر (كاملا)","category":"متنوع"},{"id":"SyRUO8cj_CA","title":"شرح سنن الدارمي كتاب الصلاة من باب ٢١٤","publishedAt":"2019-06-03T11:06:48Z","duration":"PT20M2S","thumbnail":"https://i.ytimg.com/vi/SyRUO8cj_CA/mqdefault.jpg","viewCount":"230","playlistId":"PLEkQk5xrP-tmAg-FuWjY057X_h5NmGmAa","playlistName":"شرح سنن الدارمي - أ.د. يسري جبر (كاملا)","category":"متنوع"},{"id":"BjaAD2v27zo","title":"شرح سنن الدارمي كتاب الصلاة من باب ٢٠٨","publishedAt":"2019-06-02T09:06:04Z","duration":"PT21M21S","thumbnail":"https://i.ytimg.com/vi/BjaAD2v27zo/mqdefault.jpg","viewCount":"210","playlistId":"PLEkQk5xrP-tmAg-FuWjY057X_h5NmGmAa","playlistName":"شرح سنن الدارمي - أ.د. يسري جبر (كاملا)","category":"متنوع"},{"id":"ByflCtaYfr4","title":"شرح سنن الدارمي كتاب الصلاة من باب ٢٠٢","publishedAt":"2019-05-30T09:43:25Z","duration":"PT22M4S","thumbnail":"https://i.ytimg.com/vi/ByflCtaYfr4/mqdefault.jpg","viewCount":"222","playlistId":"PLEkQk5xrP-tmAg-FuWjY057X_h5NmGmAa","playlistName":"شرح سنن الدارمي - أ.د. يسري جبر (كاملا)","category":"متنوع"},{"id":"diLQ0r96swE","title":"شرح سنن الدارمي كتاب الصلاة من باب ١٩٦","publishedAt":"2019-05-29T14:02:38Z","duration":"PT19M37S","thumbnail":"https://i.ytimg.com/vi/diLQ0r96swE/mqdefault.jpg","viewCount":"259","playlistId":"PLEkQk5xrP-tmAg-FuWjY057X_h5NmGmAa","playlistName":"شرح سنن الدارمي - أ.د. يسري جبر (كاملا)","category":"متنوع"},{"id":"foilnS9aHEs","title":"شرح سنن الدارمي كتاب الصلاة من باب ١٩٠","publishedAt":"2019-05-28T02:27:14Z","duration":"PT27M8S","thumbnail":"https://i.ytimg.com/vi/foilnS9aHEs/mqdefault.jpg","viewCount":"292","playlistId":"PLEkQk5xrP-tmAg-FuWjY057X_h5NmGmAa","playlistName":"شرح سنن الدارمي - أ.د. يسري جبر (كاملا)","category":"متنوع"},{"id":"VKMVZofF96s","title":"شرح سنن الدارمي - المقدمة - ٢٤","publishedAt":"2019-03-15T02:00:06Z","duration":"PT34M32S","thumbnail":"https://i.ytimg.com/vi/VKMVZofF96s/mqdefault.jpg","viewCount":"562","playlistId":"PLEkQk5xrP-tmAg-FuWjY057X_h5NmGmAa","playlistName":"شرح سنن الدارمي - أ.د. يسري جبر (كاملا)","category":"متنوع"},{"id":"NdpzqBRS1_U","title":"شرح سنن الدارمي - المقدمة - ٢٣","publishedAt":"2019-03-13T12:59:08Z","duration":"PT34M19S","thumbnail":"https://i.ytimg.com/vi/NdpzqBRS1_U/mqdefault.jpg","viewCount":"573","playlistId":"PLEkQk5xrP-tmAg-FuWjY057X_h5NmGmAa","playlistName":"شرح سنن الدارمي - أ.د. يسري جبر (كاملا)","category":"متنوع"},{"id":"OK-frGmHD5c","title":"شرح سنن الدارمي - المقدمة - ٢٢","publishedAt":"2019-03-12T12:12:02Z","duration":"PT31M53S","thumbnail":"https://i.ytimg.com/vi/OK-frGmHD5c/mqdefault.jpg","viewCount":"594","playlistId":"PLEkQk5xrP-tmAg-FuWjY057X_h5NmGmAa","playlistName":"شرح سنن الدارمي - أ.د. يسري جبر (كاملا)","category":"متنوع"},{"id":"ZsOfW06xI_A","title":"شرح سنن الدارمي - المقدمة - ٢١","publishedAt":"2019-03-10T21:59:25Z","duration":"PT14M31S","thumbnail":"https://i.ytimg.com/vi/ZsOfW06xI_A/mqdefault.jpg","viewCount":"561","playlistId":"PLEkQk5xrP-tmAg-FuWjY057X_h5NmGmAa","playlistName":"شرح سنن الدارمي - أ.د. يسري جبر (كاملا)","category":"متنوع"},{"id":"5dZTMc5f8gc","title":"شرح سنن الدارمي - المقدمة - ٢٠","publishedAt":"2019-03-09T20:53:57Z","duration":"PT35M23S","thumbnail":"https://i.ytimg.com/vi/5dZTMc5f8gc/mqdefault.jpg","viewCount":"773","playlistId":"PLEkQk5xrP-tmAg-FuWjY057X_h5NmGmAa","playlistName":"شرح سنن الدارمي - أ.د. يسري جبر (كاملا)","category":"متنوع"},{"id":"c8VA6QEABTA","title":"شرح سنن الدارمي - المقدمة  -  ١٨","publishedAt":"2019-03-07T21:06:40Z","duration":"PT44M37S","thumbnail":"https://i.ytimg.com/vi/c8VA6QEABTA/mqdefault.jpg","viewCount":"816","playlistId":"PLEkQk5xrP-tmAg-FuWjY057X_h5NmGmAa","playlistName":"شرح سنن الدارمي - أ.د. يسري جبر (كاملا)","category":"متنوع"},{"id":"y1q7ZKxTP7E","title":"شرح سنن الدارمي - المقدمة -  ١٦","publishedAt":"2019-03-06T22:34:46Z","duration":"PT42M33S","thumbnail":"https://i.ytimg.com/vi/y1q7ZKxTP7E/mqdefault.jpg","viewCount":"809","playlistId":"PLEkQk5xrP-tmAg-FuWjY057X_h5NmGmAa","playlistName":"شرح سنن الدارمي - أ.د. يسري جبر (كاملا)","category":"متنوع"},{"id":"XLMIHyDP3cM","title":"شرح سنن الدارمي - المقدمة - ١٤ - تكملة","publishedAt":"2019-03-05T20:34:37Z","duration":"PT37M56S","thumbnail":"https://i.ytimg.com/vi/XLMIHyDP3cM/mqdefault.jpg","viewCount":"760","playlistId":"PLEkQk5xrP-tmAg-FuWjY057X_h5NmGmAa","playlistName":"شرح سنن الدارمي - أ.د. يسري جبر (كاملا)","category":"متنوع"},{"id":"wPinO7rUc1I","title":"شرح سنن الدارمي كتاب الصلاة من باب ٨٤","publishedAt":"2019-05-09T20:13:28Z","duration":"PT45M9S","thumbnail":"https://i.ytimg.com/vi/wPinO7rUc1I/mqdefault.jpg","viewCount":"382","playlistId":"PLEkQk5xrP-tmAg-FuWjY057X_h5NmGmAa","playlistName":"شرح سنن الدارمي - أ.د. يسري جبر (كاملا)","category":"متنوع"},{"id":"1ZV6wZYPH4w","title":"شرح سنن الدارمي كتاب الصلاة من باب ٧٦","publishedAt":"2019-05-08T21:24:03Z","duration":"PT36M53S","thumbnail":"https://i.ytimg.com/vi/1ZV6wZYPH4w/mqdefault.jpg","viewCount":"386","playlistId":"PLEkQk5xrP-tmAg-FuWjY057X_h5NmGmAa","playlistName":"شرح سنن الدارمي - أ.د. يسري جبر (كاملا)","category":"متنوع"},{"id":"QSJcd4taPE0","title":"شرح سنن الدارمي كتاب الصلاة من باب ٧٠","publishedAt":"2019-05-08T00:31:57Z","duration":"PT35M9S","thumbnail":"https://i.ytimg.com/vi/QSJcd4taPE0/mqdefault.jpg","viewCount":"309","playlistId":"PLEkQk5xrP-tmAg-FuWjY057X_h5NmGmAa","playlistName":"شرح سنن الدارمي - أ.د. يسري جبر (كاملا)","category":"متنوع"},{"id":"tcQ4j3p1gXg","title":"شرح سنن الدارمي كتاب الصلاة من باب ٦٢","publishedAt":"2019-05-07T01:11:20Z","duration":"PT25M50S","thumbnail":"https://i.ytimg.com/vi/tcQ4j3p1gXg/mqdefault.jpg","viewCount":"377","playlistId":"PLEkQk5xrP-tmAg-FuWjY057X_h5NmGmAa","playlistName":"شرح سنن الدارمي - أ.د. يسري جبر (كاملا)","category":"متنوع"},{"id":"aqrim-TDPGk","title":"شرح سنن الدارمي كتاب الصلاة من باب ٥٤","publishedAt":"2019-05-05T08:53:12Z","duration":"PT31M7S","thumbnail":"https://i.ytimg.com/vi/aqrim-TDPGk/mqdefault.jpg","viewCount":"328","playlistId":"PLEkQk5xrP-tmAg-FuWjY057X_h5NmGmAa","playlistName":"شرح سنن الدارمي - أ.د. يسري جبر (كاملا)","category":"متنوع"},{"id":"UnmB4kSv71M","title":"شرح سنن الدارمي كتاب الصلاة من باب ٤٥","publishedAt":"2019-05-04T12:28:15Z","duration":"PT35M59S","thumbnail":"https://i.ytimg.com/vi/UnmB4kSv71M/mqdefault.jpg","viewCount":"349","playlistId":"PLEkQk5xrP-tmAg-FuWjY057X_h5NmGmAa","playlistName":"شرح سنن الدارمي - أ.د. يسري جبر (كاملا)","category":"متنوع"}],"total":213,"page":1,"pageSize":24,"totalPages":9}