{"items":[{"id":"KBBXL48wLrk","title":"كيف نفهم مخالفة النَّبيّ ﷺ لنفسه؟","publishedAt":"2022-07-30T18:00:05Z","duration":"PT8M49S","thumbnail":"https://i.ytimg.com/vi/KBBXL48wLrk/mqdefault.jpg","viewCount":"3946","playlistId":"PLEkQk5xrP-tkGXuZ9atE3k_7it12rUPTs","playlistName":"أسئلة المتابعين","category":"متنوع"},{"id":"rbRMPe1GVmg","title":"هل لمس المرأة ينقض الوضوء؟","publishedAt":"2022-07-28T19:59:23Z","duration":"PT14M7S","thumbnail":"https://i.ytimg.com/vi/rbRMPe1GVmg/mqdefault.jpg","viewCount":"13717","playlistId":"PLEkQk5xrP-tkGXuZ9atE3k_7it12rUPTs","playlistName":"أسئلة المتابعين","category":"متنوع"},{"id":"keCxWAGj1TE","title":"كيف أتعرف على الله؟","publishedAt":"2022-07-21T18:39:51Z","duration":"PT8M18S","thumbnail":"https://i.ytimg.com/vi/keCxWAGj1TE/mqdefault.jpg","viewCount":"5611","playlistId":"PLEkQk5xrP-tkGXuZ9atE3k_7it12rUPTs","playlistName":"أسئلة المتابعين","category":"متنوع"},{"id":"PAGQvpIMdLY","title":"هل يجوز الزواج من غير المسلمة؟","publishedAt":"2022-07-18T19:00:21Z","duration":"PT9M19S","thumbnail":"https://i.ytimg.com/vi/PAGQvpIMdLY/mqdefault.jpg","viewCount":"5352","playlistId":"PLEkQk5xrP-tkGXuZ9atE3k_7it12rUPTs","playlistName":"أسئلة المتابعين","category":"متنوع"},{"id":"WclSUB4iS8A","title":"هل التعصب الديني يؤدي إلى التطرف؟","publishedAt":"2022-06-29T18:36:35Z","duration":"PT9M19S","thumbnail":"https://i.ytimg.com/vi/WclSUB4iS8A/mqdefault.jpg","viewCount":"4553","playlistId":"PLEkQk5xrP-tkGXuZ9atE3k_7it12rUPTs","playlistName":"أسئلة المتابعين","category":"متنوع"},{"id":"CjE0SEir3Ak","title":"كيف تعالج الاكتئاب؟","publishedAt":"2022-06-28T19:00:03Z","duration":"PT9M11S","thumbnail":"https://i.ytimg.com/vi/CjE0SEir3Ak/mqdefault.jpg","viewCount":"73457","playlistId":"PLEkQk5xrP-tkGXuZ9atE3k_7it12rUPTs","playlistName":"أسئلة المتابعين","category":"متنوع"},{"id":"HMGWfzLIkv8","title":"ما هي أوصاف قطب الزمان؟","publishedAt":"2022-06-24T19:00:00Z","duration":"PT15M17S","thumbnail":"https://i.ytimg.com/vi/HMGWfzLIkv8/mqdefault.jpg","viewCount":"70305","playlistId":"PLEkQk5xrP-tkGXuZ9atE3k_7it12rUPTs","playlistName":"أسئلة المتابعين","category":"متنوع"},{"id":"k79Xmot4NoY","title":"بعد الطلاق,, كيف تتعامل مع أولادك؟","publishedAt":"2022-06-04T19:00:16Z","duration":"PT9M35S","thumbnail":"https://i.ytimg.com/vi/k79Xmot4NoY/mqdefault.jpg","viewCount":"3749","playlistId":"PLEkQk5xrP-tkGXuZ9atE3k_7it12rUPTs","playlistName":"أسئلة المتابعين","category":"متنوع"},{"id":"80TONMGzeFo","title":"من هو الصوفي وما هو العهد؟","publishedAt":"2022-05-09T18:00:02Z","duration":"PT10M19S","thumbnail":"https://i.ytimg.com/vi/80TONMGzeFo/mqdefault.jpg","viewCount":"23355","playlistId":"PLEkQk5xrP-tkGXuZ9atE3k_7it12rUPTs","playlistName":"أسئلة المتابعين","category":"متنوع"},{"id":"x9ewQtN9FiM","title":"كيف تتخلص من العادة السرية بشكل نهائي؟","publishedAt":"2022-05-07T18:00:30Z","duration":"PT8M37S","thumbnail":"https://i.ytimg.com/vi/x9ewQtN9FiM/mqdefault.jpg","viewCount":"41376","playlistId":"PLEkQk5xrP-tkGXuZ9atE3k_7it12rUPTs","playlistName":"أسئلة المتابعين","category":"متنوع"},{"id":"J3_wF-RQMt8","title":"هل يجوز زيارة الموتى في العيد؟","publishedAt":"2022-05-01T19:30:01Z","duration":"PT8M4S","thumbnail":"https://i.ytimg.com/vi/J3_wF-RQMt8/mqdefault.jpg","viewCount":"6695","playlistId":"PLEkQk5xrP-tkGXuZ9atE3k_7it12rUPTs","playlistName":"أسئلة المتابعين","category":"متنوع"},{"id":"yk9jx6N3xW4","title":"هل قانون الإيجار القديم في مصر جائز شرعًا؟","publishedAt":"2022-04-24T19:30:02Z","duration":"PT12M4S","thumbnail":"https://i.ytimg.com/vi/yk9jx6N3xW4/mqdefault.jpg","viewCount":"7270","playlistId":"PLEkQk5xrP-tkGXuZ9atE3k_7it12rUPTs","playlistName":"أسئلة المتابعين","category":"متنوع"},{"id":"i3iDnuYvqEs","title":"هل يوجد أولياء لهم اتصال بالجن؟","publishedAt":"2022-04-19T19:30:07Z","duration":"PT8M8S","thumbnail":"https://i.ytimg.com/vi/i3iDnuYvqEs/mqdefault.jpg","viewCount":"191140","playlistId":"PLEkQk5xrP-tkGXuZ9atE3k_7it12rUPTs","playlistName":"أسئلة المتابعين","category":"متنوع"},{"id":"_SzeWlOI_XQ","title":"هل يجوز أن أمسك يد خطيبتي لتلبيس الدبلة؟","publishedAt":"2022-04-15T19:30:06Z","duration":"PT9M5S","thumbnail":"https://i.ytimg.com/vi/_SzeWlOI_XQ/mqdefault.jpg","viewCount":"5523","playlistId":"PLEkQk5xrP-tkGXuZ9atE3k_7it12rUPTs","playlistName":"أسئلة المتابعين","category":"متنوع"},{"id":"jnBYc2Llks8","title":"هل المدافن في مصر توافق الشريعة الإسلامية؟","publishedAt":"2022-04-13T19:30:05Z","duration":"PT12M51S","thumbnail":"https://i.ytimg.com/vi/jnBYc2Llks8/mqdefault.jpg","viewCount":"18344","playlistId":"PLEkQk5xrP-tkGXuZ9atE3k_7it12rUPTs","playlistName":"أسئلة المتابعين","category":"متنوع"},{"id":"j1I1u5-vCFE","title":"لماذا يتم إزالة بعض المساجد في مصر؟","publishedAt":"2022-04-09T19:30:16Z","duration":"PT8M1S","thumbnail":"https://i.ytimg.com/vi/j1I1u5-vCFE/mqdefault.jpg","viewCount":"5460","playlistId":"PLEkQk5xrP-tkGXuZ9atE3k_7it12rUPTs","playlistName":"أسئلة المتابعين","category":"متنوع"},{"id":"RuKY1iYlYmw","title":"هل الملائكة أفضل أم البشر؟","publishedAt":"2022-04-06T19:30:01Z","duration":"PT9M12S","thumbnail":"https://i.ytimg.com/vi/RuKY1iYlYmw/mqdefault.jpg","viewCount":"3566","playlistId":"PLEkQk5xrP-tkGXuZ9atE3k_7it12rUPTs","playlistName":"أسئلة المتابعين","category":"متنوع"},{"id":"UfHp_kGmFiE","title":"هل الحركة والتمايل أثناء الذكر حرام؟","publishedAt":"2022-04-05T19:30:03Z","duration":"PT11M57S","thumbnail":"https://i.ytimg.com/vi/UfHp_kGmFiE/mqdefault.jpg","viewCount":"7494","playlistId":"PLEkQk5xrP-tkGXuZ9atE3k_7it12rUPTs","playlistName":"أسئلة المتابعين","category":"متنوع"},{"id":"jXDlHtqHlWM","title":"هل الدعاء يغير القدر؟","publishedAt":"2022-03-19T19:16:37Z","duration":"PT9M10S","thumbnail":"https://i.ytimg.com/vi/jXDlHtqHlWM/mqdefault.jpg","viewCount":"11317","playlistId":"PLEkQk5xrP-tkGXuZ9atE3k_7it12rUPTs","playlistName":"أسئلة المتابعين","category":"متنوع"},{"id":"_PGpy7-onW4","title":"هل حركات المولوية أثناء الذكر جائزة؟","publishedAt":"2022-03-15T19:03:53Z","duration":"PT12M29S","thumbnail":"https://i.ytimg.com/vi/_PGpy7-onW4/mqdefault.jpg","viewCount":"13373","playlistId":"PLEkQk5xrP-tkGXuZ9atE3k_7it12rUPTs","playlistName":"أسئلة المتابعين","category":"متنوع"},{"id":"XMIB7dao-uk","title":"هل النبي ﷺ يعرف حقيقته الروحانية؟","publishedAt":"2022-03-13T18:08:49Z","duration":"PT10M47S","thumbnail":"https://i.ytimg.com/vi/XMIB7dao-uk/mqdefault.jpg","viewCount":"9962","playlistId":"PLEkQk5xrP-tkGXuZ9atE3k_7it12rUPTs","playlistName":"أسئلة المتابعين","category":"متنوع"},{"id":"c8RGFwlvfl8","title":"كيف قابلت الدكتور علي جمعة؟","publishedAt":"2022-03-12T19:24:04Z","duration":"PT9M36S","thumbnail":"https://i.ytimg.com/vi/c8RGFwlvfl8/mqdefault.jpg","viewCount":"13845","playlistId":"PLEkQk5xrP-tkGXuZ9atE3k_7it12rUPTs","playlistName":"أسئلة المتابعين","category":"متنوع"},{"id":"jnT8vWurdyc","title":"كيف أتخلص من الكسل وفقدان الشغف؟","publishedAt":"2022-03-11T19:48:50Z","duration":"PT8M20S","thumbnail":"https://i.ytimg.com/vi/jnT8vWurdyc/mqdefault.jpg","viewCount":"14332","playlistId":"PLEkQk5xrP-tkGXuZ9atE3k_7it12rUPTs","playlistName":"أسئلة المتابعين","category":"متنوع"},{"id":"R_G_AASR8ik","title":"والدي وهابي وأنا أزهري ,, كيف أتعامل معه؟","publishedAt":"2022-03-03T18:47:17Z","duration":"PT9M26S","thumbnail":"https://i.ytimg.com/vi/R_G_AASR8ik/mqdefault.jpg","viewCount":"11670","playlistId":"PLEkQk5xrP-tkGXuZ9atE3k_7it12rUPTs","playlistName":"أسئلة المتابعين","category":"متنوع"}],"total":335,"page":11,"pageSize":24,"totalPages":14}