{"items":[{"id":"Ua8QIzJYdEQ","title":"عندي اضطرابات نفسية بسبب طلاق أهلي وإهمالهم ,, فماذا أفعل؟","publishedAt":"2025-01-20T19:10:38Z","duration":"PT9M35S","thumbnail":"https://i.ytimg.com/vi/Ua8QIzJYdEQ/mqdefault.jpg","viewCount":"15032","playlistId":"PLEkQk5xrP-tkGXuZ9atE3k_7it12rUPTs","playlistName":"أسئلة المتابعين","category":"متنوع"},{"id":"EV0pZkb481g","title":"هل يجوز قراءة القرآن للميت وهل ينتفع بثواب القراءة؟","publishedAt":"2025-01-18T18:43:58Z","duration":"PT8M57S","thumbnail":"https://i.ytimg.com/vi/EV0pZkb481g/mqdefault.jpg","viewCount":"3951","playlistId":"PLEkQk5xrP-tkGXuZ9atE3k_7it12rUPTs","playlistName":"أسئلة المتابعين","category":"متنوع"},{"id":"UH1CTlxExu4","title":"عندي ماضي سيئ وتبت من ذنوبي لكن عندي فتور في الطاعة فماذا أفعل؟","publishedAt":"2025-01-14T19:25:44Z","duration":"PT9M43S","thumbnail":"https://i.ytimg.com/vi/UH1CTlxExu4/mqdefault.jpg","viewCount":"4616","playlistId":"PLEkQk5xrP-tkGXuZ9atE3k_7it12rUPTs","playlistName":"أسئلة المتابعين","category":"متنوع"},{"id":"JEb5opEDcgg","title":"أنا متقدملي طبيب ومستواه المادي قليل ,, فماذا أفعل؟","publishedAt":"2025-01-13T20:23:03Z","duration":"PT12M51S","thumbnail":"https://i.ytimg.com/vi/JEb5opEDcgg/mqdefault.jpg","viewCount":"4571","playlistId":"PLEkQk5xrP-tkGXuZ9atE3k_7it12rUPTs","playlistName":"أسئلة المتابعين","category":"متنوع"},{"id":"XGzysKP40no","title":"أنا متقدملي شاب للزواج وأهلي مقتنعين بيه وأنا لا أريده فماذا أفعل؟","publishedAt":"2025-01-09T17:00:39Z","duration":"PT8M24S","thumbnail":"https://i.ytimg.com/vi/XGzysKP40no/mqdefault.jpg","viewCount":"2864","playlistId":"PLEkQk5xrP-tkGXuZ9atE3k_7it12rUPTs","playlistName":"أسئلة المتابعين","category":"متنوع"},{"id":"Oipjv23535I","title":"هل تجوز الصدقة على المسيحيين وهل يجوز مشاركتهم؟","publishedAt":"2025-01-08T18:23:30Z","duration":"PT8M25S","thumbnail":"https://i.ytimg.com/vi/Oipjv23535I/mqdefault.jpg","viewCount":"2344","playlistId":"PLEkQk5xrP-tkGXuZ9atE3k_7it12rUPTs","playlistName":"أسئلة المتابعين","category":"متنوع"},{"id":"5A6tiKMYm7s","title":"أنا بعاني من جلد الذات واللوم المتواصل لنفسي فماذا أفعل؟","publishedAt":"2025-01-06T18:42:06Z","duration":"PT9M48S","thumbnail":"https://i.ytimg.com/vi/5A6tiKMYm7s/mqdefault.jpg","viewCount":"8149","playlistId":"PLEkQk5xrP-tkGXuZ9atE3k_7it12rUPTs","playlistName":"أسئلة المتابعين","category":"متنوع"},{"id":"b5W3rlSjJio","title":"هل يجوز تهنئة المسيحيين بأعيادهم؟","publishedAt":"2024-12-25T17:00:37Z","duration":"PT9M44S","thumbnail":"https://i.ytimg.com/vi/b5W3rlSjJio/mqdefault.jpg","viewCount":"8829","playlistId":"PLEkQk5xrP-tkGXuZ9atE3k_7it12rUPTs","playlistName":"أسئلة المتابعين","category":"متنوع"},{"id":"f5-woAoqv0A","title":"عندي وسواس في إيماني ,, فماذا أفعل؟","publishedAt":"2024-12-21T18:32:11Z","duration":"PT8M39S","thumbnail":"https://i.ytimg.com/vi/f5-woAoqv0A/mqdefault.jpg","viewCount":"3038","playlistId":"PLEkQk5xrP-tkGXuZ9atE3k_7it12rUPTs","playlistName":"أسئلة المتابعين","category":"متنوع"},{"id":"rZsMVqK5ZaM","title":"اكتشفت ان زوجي بيخوني بعد 25 سنة جواز ,, أعمل ايه؟؟","publishedAt":"2024-12-16T18:59:55Z","duration":"PT10M22S","thumbnail":"https://i.ytimg.com/vi/rZsMVqK5ZaM/mqdefault.jpg","viewCount":"4040","playlistId":"PLEkQk5xrP-tkGXuZ9atE3k_7it12rUPTs","playlistName":"أسئلة المتابعين","category":"متنوع"},{"id":"-ZjZOCRijVs","title":"كيفية تعامل الأزواج مع زوجاتهم في هذا الزمان؟","publishedAt":"2024-12-10T18:15:00Z","duration":"PT9M29S","thumbnail":"https://i.ytimg.com/vi/-ZjZOCRijVs/mqdefault.jpg","viewCount":"3625","playlistId":"PLEkQk5xrP-tkGXuZ9atE3k_7it12rUPTs","playlistName":"أسئلة المتابعين","category":"متنوع"},{"id":"B9-jYxqSK_4","title":"حياتي كلها مشاكل وصعوبات ,, فماذا أفعل؟","publishedAt":"2024-12-09T18:56:42Z","duration":"PT8M37S","thumbnail":"https://i.ytimg.com/vi/B9-jYxqSK_4/mqdefault.jpg","viewCount":"6165","playlistId":"PLEkQk5xrP-tkGXuZ9atE3k_7it12rUPTs","playlistName":"أسئلة المتابعين","category":"متنوع"},{"id":"lBU6JH59B8k","title":"زوجي يعامل أمي بطريقة سيئة ويرفض مراعاتي لها ,, فماذا أفعل معه؟","publishedAt":"2024-12-05T19:23:59Z","duration":"PT9M4S","thumbnail":"https://i.ytimg.com/vi/lBU6JH59B8k/mqdefault.jpg","viewCount":"2612","playlistId":"PLEkQk5xrP-tkGXuZ9atE3k_7it12rUPTs","playlistName":"أسئلة المتابعين","category":"متنوع"},{"id":"LfYUg_LyhCU","title":"هل يمكننا رؤية الله يوم القيامة وهل رأى النبي ربه؟","publishedAt":"2024-12-03T18:21:30Z","duration":"PT11M50S","thumbnail":"https://i.ytimg.com/vi/LfYUg_LyhCU/mqdefault.jpg","viewCount":"2757","playlistId":"PLEkQk5xrP-tkGXuZ9atE3k_7it12rUPTs","playlistName":"أسئلة المتابعين","category":"متنوع"},{"id":"UFmzj_ZtQiY","title":"هل يجوز للمرأة الزواج بدون علم أهلها؟","publishedAt":"2024-11-11T18:27:01Z","duration":"PT11M32S","thumbnail":"https://i.ytimg.com/vi/UFmzj_ZtQiY/mqdefault.jpg","viewCount":"3302","playlistId":"PLEkQk5xrP-tkGXuZ9atE3k_7it12rUPTs","playlistName":"أسئلة المتابعين","category":"متنوع"},{"id":"cUm5WW0_o4M","title":"هل تفسير وفهم القرآن أفضل من الحفظ بدون فهم؟","publishedAt":"2024-11-09T18:06:38Z","duration":"PT10M57S","thumbnail":"https://i.ytimg.com/vi/cUm5WW0_o4M/mqdefault.jpg","viewCount":"4627","playlistId":"PLEkQk5xrP-tkGXuZ9atE3k_7it12rUPTs","playlistName":"أسئلة المتابعين","category":"متنوع"},{"id":"3uXvn2lb3ps","title":"أنا لا أستطيع المواظبة على الذكر فماذا أفعل؟","publishedAt":"2024-11-04T17:18:24Z","duration":"PT8M3S","thumbnail":"https://i.ytimg.com/vi/3uXvn2lb3ps/mqdefault.jpg","viewCount":"12341","playlistId":"PLEkQk5xrP-tkGXuZ9atE3k_7it12rUPTs","playlistName":"أسئلة المتابعين","category":"متنوع"},{"id":"8RzgvuLcmiE","title":"هل يجوز للزوج منع زوجته من العمل ,, طلبت منها ورفضت فماذا أفعل؟","publishedAt":"2024-10-28T18:01:18Z","duration":"PT12M13S","thumbnail":"https://i.ytimg.com/vi/8RzgvuLcmiE/mqdefault.jpg","viewCount":"5588","playlistId":"PLEkQk5xrP-tkGXuZ9atE3k_7it12rUPTs","playlistName":"أسئلة المتابعين","category":"متنوع"},{"id":"ap0GJNBKY6o","title":"عندي مشاكل مع أمي وأخواتي وصلت إلى الكراهية فماذا أفعل؟","publishedAt":"2024-10-26T17:30:26Z","duration":"PT11M1S","thumbnail":"https://i.ytimg.com/vi/ap0GJNBKY6o/mqdefault.jpg","viewCount":"5369","playlistId":"PLEkQk5xrP-tkGXuZ9atE3k_7it12rUPTs","playlistName":"أسئلة المتابعين","category":"متنوع"},{"id":"ej2a8xb3GdA","title":"أحاول مقاومة الكسل في الطاعات والخشوع في الصلاة ولا أستطيع ,, فماذا أفعل؟","publishedAt":"2024-10-21T17:45:07Z","duration":"PT8M32S","thumbnail":"https://i.ytimg.com/vi/ej2a8xb3GdA/mqdefault.jpg","viewCount":"7305","playlistId":"PLEkQk5xrP-tkGXuZ9atE3k_7it12rUPTs","playlistName":"أسئلة المتابعين","category":"متنوع"},{"id":"kspnInSvjT0","title":"ما الفرق بين الجن والشياطين والعفاريت؟","publishedAt":"2024-10-20T17:40:28Z","duration":"PT11M26S","thumbnail":"https://i.ytimg.com/vi/kspnInSvjT0/mqdefault.jpg","viewCount":"8045","playlistId":"PLEkQk5xrP-tkGXuZ9atE3k_7it12rUPTs","playlistName":"أسئلة المتابعين","category":"متنوع"},{"id":"Lten4oCzDJs","title":"زوجي تزوج عليا ولا يقوم بالنفقة ,, هل يجوز عدم طاعته؟","publishedAt":"2024-10-12T16:15:08Z","duration":"PT10M22S","thumbnail":"https://i.ytimg.com/vi/Lten4oCzDJs/mqdefault.jpg","viewCount":"2313","playlistId":"PLEkQk5xrP-tkGXuZ9atE3k_7it12rUPTs","playlistName":"أسئلة المتابعين","category":"متنوع"},{"id":"J8EodLW5IVI","title":"ما هي العلوم الشرعية التي يجب على كل مسلم تعلمها؟","publishedAt":"2024-09-26T18:05:51Z","duration":"PT9M42S","thumbnail":"https://i.ytimg.com/vi/J8EodLW5IVI/mqdefault.jpg","viewCount":"3257","playlistId":"PLEkQk5xrP-tkGXuZ9atE3k_7it12rUPTs","playlistName":"أسئلة المتابعين","category":"متنوع"},{"id":"L5o21wnPllE","title":"أنا شاب بحاول أبطل العادة السرية ومش قادر ,, أعمل ايه؟","publishedAt":"2024-09-24T15:42:17Z","duration":"PT11M41S","thumbnail":"https://i.ytimg.com/vi/L5o21wnPllE/mqdefault.jpg","viewCount":"12583","playlistId":"PLEkQk5xrP-tkGXuZ9atE3k_7it12rUPTs","playlistName":"أسئلة المتابعين","category":"متنوع"}],"total":335,"page":3,"pageSize":24,"totalPages":14}