{"items":[{"id":"UFnwMC7Bz8A","title":"شرح صلاة جوهرة الكمال لسيدي أحمد التيجاني رضي الله عنه","publishedAt":"2023-07-01T17:59:09Z","duration":"PT22M39S","thumbnail":"https://i.ytimg.com/vi/UFnwMC7Bz8A/mqdefault.jpg","viewCount":"46876","playlistId":"PLEkQk5xrP-tkFEtMu56Xb9U9FCZBTXiLf","playlistName":"شرح صلوات الأولياء على خاتم الأنبياء ﷺ","category":"صلوات"},{"id":"G66PJ--vR_E","title":"12- سِرُّ ولاية سيدي محيي الدين بن عربي -رضي الله عنه- وشرح الصلاة المُحمَّديَّة","publishedAt":"2022-07-25T05:30:03Z","duration":"PT28M19S","thumbnail":"https://i.ytimg.com/vi/G66PJ--vR_E/mqdefault.jpg","viewCount":"36571","playlistId":"PLEkQk5xrP-tkFEtMu56Xb9U9FCZBTXiLf","playlistName":"شرح صلوات الأولياء على خاتم الأنبياء ﷺ","category":"صلوات"},{"id":"WFmNe7PueCw","title":"15- المعارف الذوقية في الوظيفة الصديقية: شرح الصلاة المشيشية","publishedAt":"2022-08-03T05:45:00Z","duration":"PT43M37S","thumbnail":"https://i.ytimg.com/vi/WFmNe7PueCw/mqdefault.jpg","viewCount":"11950","playlistId":"PLEkQk5xrP-tkFEtMu56Xb9U9FCZBTXiLf","playlistName":"شرح صلوات الأولياء على خاتم الأنبياء ﷺ","category":"صلوات"},{"id":"bGLiAy-nWDA","title":"14- نبذة عن سيّدي إبراهيم الدسوقيّ رضي الله عنه وشرح الصلاة الذاتيَّة","publishedAt":"2022-07-31T05:30:12Z","duration":"PT42M43S","thumbnail":"https://i.ytimg.com/vi/bGLiAy-nWDA/mqdefault.jpg","viewCount":"8640","playlistId":"PLEkQk5xrP-tkFEtMu56Xb9U9FCZBTXiLf","playlistName":"شرح صلوات الأولياء على خاتم الأنبياء ﷺ","category":"صلوات"},{"id":"w6q08egUJIc","title":"1- فضائل الصلاة على النَّبيّ ﷺ - شرح صلوات الأولياء","publishedAt":"2022-07-08T05:00:33Z","duration":"PT8M10S","thumbnail":"https://i.ytimg.com/vi/w6q08egUJIc/mqdefault.jpg","viewCount":"7124","playlistId":"PLEkQk5xrP-tkFEtMu56Xb9U9FCZBTXiLf","playlistName":"شرح صلوات الأولياء على خاتم الأنبياء ﷺ","category":"صلوات"},{"id":"nKf2aqOkBRc","title":"19- معنى المَلَكُوتِ و الجَبَرُوتِ","publishedAt":"2022-08-23T06:35:00Z","duration":"PT20M8S","thumbnail":"https://i.ytimg.com/vi/nKf2aqOkBRc/mqdefault.jpg","viewCount":"7014","playlistId":"PLEkQk5xrP-tkFEtMu56Xb9U9FCZBTXiLf","playlistName":"شرح صلوات الأولياء على خاتم الأنبياء ﷺ","category":"صلوات"},{"id":"Mf2UkU-KWok","title":"13- مناقب سيدي أحمد البدويّ -رضي الله عنه- وشرح الصَّلاة النُّورانيَّة","publishedAt":"2022-07-28T05:15:00Z","duration":"PT20M10S","thumbnail":"https://i.ytimg.com/vi/Mf2UkU-KWok/mqdefault.jpg","viewCount":"6282","playlistId":"PLEkQk5xrP-tkFEtMu56Xb9U9FCZBTXiLf","playlistName":"شرح صلوات الأولياء على خاتم الأنبياء ﷺ","category":"صلوات"},{"id":"Capx0Q6dLhc","title":"8- الصيغة العَليَّة لسيِّدِنا عليّ رَضي اللَّهُ عنه وكَرَّمَ اللَّهُ وجهه وعليه السَّلام","publishedAt":"2022-07-19T05:45:00Z","duration":"PT30M16S","thumbnail":"https://i.ytimg.com/vi/Capx0Q6dLhc/mqdefault.jpg","viewCount":"5951","playlistId":"PLEkQk5xrP-tkFEtMu56Xb9U9FCZBTXiLf","playlistName":"شرح صلوات الأولياء على خاتم الأنبياء ﷺ","category":"صلوات"},{"id":"SWuEhD5RkhI","title":"2- مَن صَلَّى عَليَّ في كتابٍ لم تزل الملائكةُ تصلِّي عليه ما دامَ اسمي في ذلك الكتاب","publishedAt":"2022-07-11T05:15:00Z","duration":"PT25M18S","thumbnail":"https://i.ytimg.com/vi/SWuEhD5RkhI/mqdefault.jpg","viewCount":"5205","playlistId":"PLEkQk5xrP-tkFEtMu56Xb9U9FCZBTXiLf","playlistName":"شرح صلوات الأولياء على خاتم الأنبياء ﷺ","category":"صلوات"},{"id":"vLAyRCvoZ4w","title":"3- لا يُؤْمِنُ أحدُكم حتى أكونَ أحبَّ إليه من ولدِهِ ووالدِهِ والناسِ أجمعينَ","publishedAt":"2022-07-12T06:57:00Z","duration":"PT13M38S","thumbnail":"https://i.ytimg.com/vi/vLAyRCvoZ4w/mqdefault.jpg","viewCount":"4843","playlistId":"PLEkQk5xrP-tkFEtMu56Xb9U9FCZBTXiLf","playlistName":"شرح صلوات الأولياء على خاتم الأنبياء ﷺ","category":"صلوات"},{"id":"bfgp_piBbcE","title":"9- مقتطفات من الصلاة الكبرى لسيدي عبد القادر الجيلاني رضي الله عنه","publishedAt":"2022-07-20T05:00:30Z","duration":"PT30M5S","thumbnail":"https://i.ytimg.com/vi/bfgp_piBbcE/mqdefault.jpg","viewCount":"3804","playlistId":"PLEkQk5xrP-tkFEtMu56Xb9U9FCZBTXiLf","playlistName":"شرح صلوات الأولياء على خاتم الأنبياء ﷺ","category":"صلوات"},{"id":"wSPhuB322wk","title":"17- الدليلُ على أنَّ النَّبيَّ ﷺ هو أَوَّل الموجودات ظُهورًا","publishedAt":"2022-08-10T05:45:01Z","duration":"PT13M28S","thumbnail":"https://i.ytimg.com/vi/wSPhuB322wk/mqdefault.jpg","viewCount":"3514","playlistId":"PLEkQk5xrP-tkFEtMu56Xb9U9FCZBTXiLf","playlistName":"شرح صلوات الأولياء على خاتم الأنبياء ﷺ","category":"صلوات"},{"id":"NeIAYJuOyf8","title":"11- صلاةُ الأُنس لسيدي أحمد الرفاعي رضي الله عنه","publishedAt":"2022-07-22T05:05:00Z","duration":"PT32M19S","thumbnail":"https://i.ytimg.com/vi/NeIAYJuOyf8/mqdefault.jpg","viewCount":"3376","playlistId":"PLEkQk5xrP-tkFEtMu56Xb9U9FCZBTXiLf","playlistName":"شرح صلوات الأولياء على خاتم الأنبياء ﷺ","category":"صلوات"},{"id":"Sk2laAh_K0k","title":"16- المعارف الذوقية في الوظيفة الصديقية: شرح الصلاة المشيشية (2)","publishedAt":"2022-08-06T05:47:00Z","duration":"PT13M22S","thumbnail":"https://i.ytimg.com/vi/Sk2laAh_K0k/mqdefault.jpg","viewCount":"3312","playlistId":"PLEkQk5xrP-tkFEtMu56Xb9U9FCZBTXiLf","playlistName":"شرح صلوات الأولياء على خاتم الأنبياء ﷺ","category":"صلوات"},{"id":"WnOQKX68zsg","title":"1- صلوات اليوم الأول - صلوات الأسماء الحسنى، شرح الصلوات اليسرية على خير البرية ﷺ","publishedAt":"2025-02-25T07:00:30Z","duration":"PT12M24S","thumbnail":"https://i.ytimg.com/vi/WnOQKX68zsg/mqdefault.jpg","viewCount":"3049","playlistId":"PLEkQk5xrP-tk92TNE3xhWCFNr9VshA9Zj","playlistName":"الصلوات اليسرية على خير البرية ﷺ","category":"صلوات"},{"id":"zKOYD1TMt8M","title":"10- اللَّهُمَّ صَلِّ وَسَلِّمْ عَلَى سَيِّدِنَا مُحَمَّد النُّورِ الأَبْلَج والبَهَاء الأَبْهَج","publishedAt":"2022-07-21T05:30:09Z","duration":"PT31M48S","thumbnail":"https://i.ytimg.com/vi/zKOYD1TMt8M/mqdefault.jpg","viewCount":"2688","playlistId":"PLEkQk5xrP-tkFEtMu56Xb9U9FCZBTXiLf","playlistName":"شرح صلوات الأولياء على خاتم الأنبياء ﷺ","category":"صلوات"},{"id":"bJQB0E9qa0E","title":"4- أسماءُ النَّبيّ ﷺ | كَثْرَةُ الأسماء تدُلُّ على شرف المُسمَّى ﷺ","publishedAt":"2022-07-14T04:00:26Z","duration":"PT13M44S","thumbnail":"https://i.ytimg.com/vi/bJQB0E9qa0E/mqdefault.jpg","viewCount":"2671","playlistId":"PLEkQk5xrP-tkFEtMu56Xb9U9FCZBTXiLf","playlistName":"شرح صلوات الأولياء على خاتم الأنبياء ﷺ","category":"صلوات"},{"id":"YECDsaJDAgo","title":"6- أسماءُ النَّبيّ ﷺ |  سَيّدُنَا مَهْدِيٌّ ﷺ","publishedAt":"2022-07-17T04:00:16Z","duration":"PT20M5S","thumbnail":"https://i.ytimg.com/vi/YECDsaJDAgo/mqdefault.jpg","viewCount":"2534","playlistId":"PLEkQk5xrP-tkFEtMu56Xb9U9FCZBTXiLf","playlistName":"شرح صلوات الأولياء على خاتم الأنبياء ﷺ","category":"صلوات"},{"id":"97dLjrAY_kc","title":"5- أسماءُ النَّبيّ ﷺ |  سيدنا مُدَّثِّر ﷺ","publishedAt":"2022-07-15T04:00:08Z","duration":"PT13M44S","thumbnail":"https://i.ytimg.com/vi/97dLjrAY_kc/mqdefault.jpg","viewCount":"2342","playlistId":"PLEkQk5xrP-tkFEtMu56Xb9U9FCZBTXiLf","playlistName":"شرح صلوات الأولياء على خاتم الأنبياء ﷺ","category":"صلوات"},{"id":"yRNA99lDuXQ","title":"18- معنى(وتَنزَّلت علومُ آدَمَ)،(بتَجلّي وعلَّمكَ ما لم تكُن تعلمُ، وكان فضلُ الله عليك عظيمًا)","publishedAt":"2022-08-20T05:35:00Z","duration":"PT14M56S","thumbnail":"https://i.ytimg.com/vi/yRNA99lDuXQ/mqdefault.jpg","viewCount":"2263","playlistId":"PLEkQk5xrP-tkFEtMu56Xb9U9FCZBTXiLf","playlistName":"شرح صلوات الأولياء على خاتم الأنبياء ﷺ","category":"صلوات"},{"id":"Q8-ZA8otpfU","title":"20- معنى (صلاةً) كاملةً (تليقُ بك) من حيث أُلُوهِيَّتُكَ، صادرةً (منك) من حيث رُبُوبِيَّتُك","publishedAt":"2022-08-24T20:55:01Z","duration":"PT12M17S","thumbnail":"https://i.ytimg.com/vi/Q8-ZA8otpfU/mqdefault.jpg","viewCount":"2199","playlistId":"PLEkQk5xrP-tkFEtMu56Xb9U9FCZBTXiLf","playlistName":"شرح صلوات الأولياء على خاتم الأنبياء ﷺ","category":"صلوات"},{"id":"esRT6wJvvk0","title":"2- صلوات اليوم الثاني - صلوات الأسماء الحسنى، شرح الصلوات اليسرية على خير البرية ﷺ","publishedAt":"2025-02-26T07:00:21Z","duration":"PT16M26S","thumbnail":"https://i.ytimg.com/vi/esRT6wJvvk0/mqdefault.jpg","viewCount":"1974","playlistId":"PLEkQk5xrP-tk92TNE3xhWCFNr9VshA9Zj","playlistName":"الصلوات اليسرية على خير البرية ﷺ","category":"صلوات"},{"id":"dY4-3G9QE-I","title":"6- صلوات اليوم السادس - صلوات الأسماء الحسنى، شرح الصلوات اليسرية على خير البرية ﷺ","publishedAt":"2025-03-02T06:15:02Z","duration":"PT12M32S","thumbnail":"https://i.ytimg.com/vi/dY4-3G9QE-I/mqdefault.jpg","viewCount":"1743","playlistId":"PLEkQk5xrP-tk92TNE3xhWCFNr9VshA9Zj","playlistName":"الصلوات اليسرية على خير البرية ﷺ","category":"صلوات"},{"id":"5dLsIVN3TUY","title":"7- أسماءُ النَّبيّ ﷺ | سَيّدُنَا مُختار ﷺ","publishedAt":"2022-07-18T04:30:01Z","duration":"PT38M6S","thumbnail":"https://i.ytimg.com/vi/5dLsIVN3TUY/mqdefault.jpg","viewCount":"1660","playlistId":"PLEkQk5xrP-tkFEtMu56Xb9U9FCZBTXiLf","playlistName":"شرح صلوات الأولياء على خاتم الأنبياء ﷺ","category":"صلوات"}],"total":27,"page":1,"pageSize":24,"totalPages":2}