{"items":[{"id":"RjQy80Zy8N4","title":"شرح كتاب الطب من سنن الترمذي - المجلس الثانى","publishedAt":"2015-12-02T02:14:06Z","duration":"PT36M34S","thumbnail":"https://i.ytimg.com/vi/RjQy80Zy8N4/mqdefault.jpg","viewCount":"186","playlistId":"PLEkQk5xrP-tnu6of679SvxdVx0qSrJzmb","playlistName":"شرح سنن الإمام الترمذي رضى الله عنه د. يسري جبر","category":"متنوع"},{"id":"ERTvSJ2qALE","title":"شرح كتاب الطب من سنن الترمذي - المجلس اللثالث","publishedAt":"2015-12-02T02:14:06Z","duration":"PT33M27S","thumbnail":"https://i.ytimg.com/vi/ERTvSJ2qALE/mqdefault.jpg","viewCount":"143","playlistId":"PLEkQk5xrP-tnu6of679SvxdVx0qSrJzmb","playlistName":"شرح سنن الإمام الترمذي رضى الله عنه د. يسري جبر","category":"متنوع"},{"id":"ai_n_-naebE","title":"شرح كتاب الطب من سنن الترمذي - المجلس الأول","publishedAt":"2015-11-26T05:54:20Z","duration":"PT36M40S","thumbnail":"https://i.ytimg.com/vi/ai_n_-naebE/mqdefault.jpg","viewCount":"343","playlistId":"PLEkQk5xrP-tnu6of679SvxdVx0qSrJzmb","playlistName":"شرح سنن الإمام الترمذي رضى الله عنه د. يسري جبر","category":"متنوع"},{"id":"1xCIegh5o7w","title":"شرح كتاب البر والصلة من سنن الترمذي - المجلس الثاني","publishedAt":"2015-11-07T05:35:25Z","duration":"PT29M41S","thumbnail":"https://i.ytimg.com/vi/1xCIegh5o7w/mqdefault.jpg","viewCount":"274","playlistId":"PLEkQk5xrP-tnu6of679SvxdVx0qSrJzmb","playlistName":"شرح سنن الإمام الترمذي رضى الله عنه د. يسري جبر","category":"متنوع"},{"id":"mlxTkBgaI9w","title":"شرح كتاب البيوع من سنن الترمذي - المجلس الرابع عشر","publishedAt":"2015-06-06T04:04:15Z","duration":"PT35M1S","thumbnail":"https://i.ytimg.com/vi/mlxTkBgaI9w/mqdefault.jpg","viewCount":"136","playlistId":"PLEkQk5xrP-tnu6of679SvxdVx0qSrJzmb","playlistName":"شرح سنن الإمام الترمذي رضى الله عنه د. يسري جبر","category":"متنوع"},{"id":"LG7lfH5rstE","title":"شرح كتاب البيوع من سنن الترمذي - المجلس الثالث عشر","publishedAt":"2015-06-05T06:03:22Z","duration":"PT36M52S","thumbnail":"https://i.ytimg.com/vi/LG7lfH5rstE/mqdefault.jpg","viewCount":"201","playlistId":"PLEkQk5xrP-tnu6of679SvxdVx0qSrJzmb","playlistName":"شرح سنن الإمام الترمذي رضى الله عنه د. يسري جبر","category":"متنوع"},{"id":"9_LxN5tSOIs","title":"شرح كتاب البيوع من سنن الترمذي - المجلس الثاني عشر","publishedAt":"2015-06-04T04:16:15Z","duration":"PT36M29S","thumbnail":"https://i.ytimg.com/vi/9_LxN5tSOIs/mqdefault.jpg","viewCount":"123","playlistId":"PLEkQk5xrP-tnu6of679SvxdVx0qSrJzmb","playlistName":"شرح سنن الإمام الترمذي رضى الله عنه د. يسري جبر","category":"متنوع"},{"id":"ptXuM5H8Q1M","title":"شرح كتاب الحدود من سنن الترمذي - المجلس الثاني","publishedAt":"2015-06-24T03:52:29Z","duration":"PT31M37S","thumbnail":"https://i.ytimg.com/vi/ptXuM5H8Q1M/mqdefault.jpg","viewCount":"142","playlistId":"PLEkQk5xrP-tnu6of679SvxdVx0qSrJzmb","playlistName":"شرح سنن الإمام الترمذي رضى الله عنه د. يسري جبر","category":"متنوع"},{"id":"TjPXA_7zf2c","title":"شرح كتاب الديات من سنن الترمذي - المجلس الخامس","publishedAt":"2015-06-22T03:38:08Z","duration":"PT31M1S","thumbnail":"https://i.ytimg.com/vi/TjPXA_7zf2c/mqdefault.jpg","viewCount":"93","playlistId":"PLEkQk5xrP-tnu6of679SvxdVx0qSrJzmb","playlistName":"شرح سنن الإمام الترمذي رضى الله عنه د. يسري جبر","category":"متنوع"},{"id":"5fq-q45Du_s","title":"شرح كتاب الديات من سنن الترمذي - المجلس الرابع","publishedAt":"2015-06-21T03:47:14Z","duration":"PT34M56S","thumbnail":"https://i.ytimg.com/vi/5fq-q45Du_s/mqdefault.jpg","viewCount":"97","playlistId":"PLEkQk5xrP-tnu6of679SvxdVx0qSrJzmb","playlistName":"شرح سنن الإمام الترمذي رضى الله عنه د. يسري جبر","category":"متنوع"},{"id":"9Oo5EawPSBg","title":"شرح كتاب الديات من سنن الترمذي - المجلس الثالث","publishedAt":"2015-06-20T03:36:40Z","duration":"PT35M11S","thumbnail":"https://i.ytimg.com/vi/9Oo5EawPSBg/mqdefault.jpg","viewCount":"103","playlistId":"PLEkQk5xrP-tnu6of679SvxdVx0qSrJzmb","playlistName":"شرح سنن الإمام الترمذي رضى الله عنه د. يسري جبر","category":"متنوع"},{"id":"Z9rmxgcbEAI","title":"شرح كتاب الديات من سنن الترمذي - المجلس الثاني","publishedAt":"2015-06-19T04:07:20Z","duration":"PT34M51S","thumbnail":"https://i.ytimg.com/vi/Z9rmxgcbEAI/mqdefault.jpg","viewCount":"136","playlistId":"PLEkQk5xrP-tnu6of679SvxdVx0qSrJzmb","playlistName":"شرح سنن الإمام الترمذي رضى الله عنه د. يسري جبر","category":"متنوع"},{"id":"EXFW6KKG55o","title":"شرح كتاب الأحكام من سنن الترمذي - المجلس العاشر","publishedAt":"2015-06-17T03:56:38Z","duration":"PT47M36S","thumbnail":"https://i.ytimg.com/vi/EXFW6KKG55o/mqdefault.jpg","viewCount":"121","playlistId":"PLEkQk5xrP-tnu6of679SvxdVx0qSrJzmb","playlistName":"شرح سنن الإمام الترمذي رضى الله عنه د. يسري جبر","category":"متنوع"},{"id":"W8DUIzF8Y-c","title":"شرح كتاب الأحكام من سنن الترمذي - المجلس التاسع","publishedAt":"2015-06-16T03:50:01Z","duration":"PT36M5S","thumbnail":"https://i.ytimg.com/vi/W8DUIzF8Y-c/mqdefault.jpg","viewCount":"123","playlistId":"PLEkQk5xrP-tnu6of679SvxdVx0qSrJzmb","playlistName":"شرح سنن الإمام الترمذي رضى الله عنه د. يسري جبر","category":"متنوع"},{"id":"6Wf0JS_bos8","title":"شرح كتاب الأحكام من سنن الترمذي - المجلس الثامن","publishedAt":"2015-06-15T03:43:59Z","duration":"PT24M51S","thumbnail":"https://i.ytimg.com/vi/6Wf0JS_bos8/mqdefault.jpg","viewCount":"111","playlistId":"PLEkQk5xrP-tnu6of679SvxdVx0qSrJzmb","playlistName":"شرح سنن الإمام الترمذي رضى الله عنه د. يسري جبر","category":"متنوع"},{"id":"S2T56OJPy38","title":"شرح كتاب الأحكام من سنن الترمذي - المجلس السابع","publishedAt":"2015-06-14T04:14:05Z","duration":"PT30M46S","thumbnail":"https://i.ytimg.com/vi/S2T56OJPy38/mqdefault.jpg","viewCount":"116","playlistId":"PLEkQk5xrP-tnu6of679SvxdVx0qSrJzmb","playlistName":"شرح سنن الإمام الترمذي رضى الله عنه د. يسري جبر","category":"متنوع"},{"id":"d0_8UuUQWSs","title":"شرح كتاب البر والصلة من سنن الترمذي - المجلس الأول","publishedAt":"2015-11-06T06:02:05Z","duration":"PT33M11S","thumbnail":"https://i.ytimg.com/vi/d0_8UuUQWSs/mqdefault.jpg","viewCount":"289","playlistId":"PLEkQk5xrP-tnu6of679SvxdVx0qSrJzmb","playlistName":"شرح سنن الإمام الترمذي رضى الله عنه د. يسري جبر","category":"متنوع"},{"id":"N9udXmhA7yA","title":"شرح كتاب الأحكام من سنن الترمذي - المجلس السادس","publishedAt":"2015-06-13T04:08:19Z","duration":"PT32M39S","thumbnail":"https://i.ytimg.com/vi/N9udXmhA7yA/mqdefault.jpg","viewCount":"118","playlistId":"PLEkQk5xrP-tnu6of679SvxdVx0qSrJzmb","playlistName":"شرح سنن الإمام الترمذي رضى الله عنه د. يسري جبر","category":"متنوع"},{"id":"qsFtjiofItc","title":"شرح كتاب الأحكام من سنن الترمذي - المجلس الخامس","publishedAt":"2015-06-12T04:10:07Z","duration":"PT27M22S","thumbnail":"https://i.ytimg.com/vi/qsFtjiofItc/mqdefault.jpg","viewCount":"141","playlistId":"PLEkQk5xrP-tnu6of679SvxdVx0qSrJzmb","playlistName":"شرح سنن الإمام الترمذي رضى الله عنه د. يسري جبر","category":"متنوع"},{"id":"Izcq5DX-rpY","title":"شرح كتاب الأدب من سنن الترمذي - المجلس العاشر","publishedAt":"2016-03-17T11:13:46Z","duration":"PT44M21S","thumbnail":"https://i.ytimg.com/vi/Izcq5DX-rpY/mqdefault.jpg","viewCount":"113","playlistId":"PLEkQk5xrP-tnu6of679SvxdVx0qSrJzmb","playlistName":"شرح سنن الإمام الترمذي رضى الله عنه د. يسري جبر","category":"متنوع"},{"id":"_7dFHKyOUfY","title":"شرح كتاب الأدب من سنن الترمذي - المجلس التاسع","publishedAt":"2016-03-16T11:34:54Z","duration":"PT45M22S","thumbnail":"https://i.ytimg.com/vi/_7dFHKyOUfY/mqdefault.jpg","viewCount":"119","playlistId":"PLEkQk5xrP-tnu6of679SvxdVx0qSrJzmb","playlistName":"شرح سنن الإمام الترمذي رضى الله عنه د. يسري جبر","category":"متنوع"},{"id":"mWvkmqav1As","title":"شرح كتاب الأدب من سنن الترمذي - المجلس السابع","publishedAt":"2016-03-16T03:39:56Z","duration":"PT35M49S","thumbnail":"https://i.ytimg.com/vi/mWvkmqav1As/mqdefault.jpg","viewCount":"95","playlistId":"PLEkQk5xrP-tnu6of679SvxdVx0qSrJzmb","playlistName":"شرح سنن الإمام الترمذي رضى الله عنه د. يسري جبر","category":"متنوع"},{"id":"q08VoPOvBXQ","title":"شرح كتاب الأدب من سنن الترمذي - المجلس الثامن","publishedAt":"2016-03-16T03:39:48Z","duration":"PT39M12S","thumbnail":"https://i.ytimg.com/vi/q08VoPOvBXQ/mqdefault.jpg","viewCount":"96","playlistId":"PLEkQk5xrP-tnu6of679SvxdVx0qSrJzmb","playlistName":"شرح سنن الإمام الترمذي رضى الله عنه د. يسري جبر","category":"متنوع"},{"id":"wtAFSlQ3Pts","title":"شرح كتاب الأحكام من سنن الترمذي - المجلس  الرابع","publishedAt":"2015-06-11T04:14:32Z","duration":"PT27M46S","thumbnail":"https://i.ytimg.com/vi/wtAFSlQ3Pts/mqdefault.jpg","viewCount":"301","playlistId":"PLEkQk5xrP-tnu6of679SvxdVx0qSrJzmb","playlistName":"شرح سنن الإمام الترمذي رضى الله عنه د. يسري جبر","category":"متنوع"}],"total":244,"page":7,"pageSize":24,"totalPages":11}