{"items":[{"id":"_SFHD3_hcH0","title":"شرح كتاب البيوع من سنن الترمذي - المجلس الخامس عشر","publishedAt":"2015-06-07T03:48:34Z","duration":"PT31M26S","thumbnail":"https://i.ytimg.com/vi/_SFHD3_hcH0/mqdefault.jpg","viewCount":"132","playlistId":"PLEkQk5xrP-tnu6of679SvxdVx0qSrJzmb","playlistName":"شرح سنن الإمام الترمذي رضى الله عنه د. يسري جبر","category":"متنوع"},{"id":"mlxTkBgaI9w","title":"شرح كتاب البيوع من سنن الترمذي - المجلس الرابع عشر","publishedAt":"2015-06-06T04:04:15Z","duration":"PT35M1S","thumbnail":"https://i.ytimg.com/vi/mlxTkBgaI9w/mqdefault.jpg","viewCount":"136","playlistId":"PLEkQk5xrP-tnu6of679SvxdVx0qSrJzmb","playlistName":"شرح سنن الإمام الترمذي رضى الله عنه د. يسري جبر","category":"متنوع"},{"id":"LG7lfH5rstE","title":"شرح كتاب البيوع من سنن الترمذي - المجلس الثالث عشر","publishedAt":"2015-06-05T06:03:22Z","duration":"PT36M52S","thumbnail":"https://i.ytimg.com/vi/LG7lfH5rstE/mqdefault.jpg","viewCount":"201","playlistId":"PLEkQk5xrP-tnu6of679SvxdVx0qSrJzmb","playlistName":"شرح سنن الإمام الترمذي رضى الله عنه د. يسري جبر","category":"متنوع"},{"id":"9_LxN5tSOIs","title":"شرح كتاب البيوع من سنن الترمذي - المجلس الثاني عشر","publishedAt":"2015-06-04T04:16:15Z","duration":"PT36M29S","thumbnail":"https://i.ytimg.com/vi/9_LxN5tSOIs/mqdefault.jpg","viewCount":"123","playlistId":"PLEkQk5xrP-tnu6of679SvxdVx0qSrJzmb","playlistName":"شرح سنن الإمام الترمذي رضى الله عنه د. يسري جبر","category":"متنوع"},{"id":"2B19tJhmVfw","title":"شرح كتاب البيوع من سنن الترمذي - المجلس الحادي عشر","publishedAt":"2015-06-03T03:55:17Z","duration":"PT33M51S","thumbnail":"https://i.ytimg.com/vi/2B19tJhmVfw/mqdefault.jpg","viewCount":"129","playlistId":"PLEkQk5xrP-tnu6of679SvxdVx0qSrJzmb","playlistName":"شرح سنن الإمام الترمذي رضى الله عنه د. يسري جبر","category":"متنوع"},{"id":"2viSeZlC2NU","title":"شرح كتاب البيوع من سنن سنن الترمذي - المجلس العاشر","publishedAt":"2015-06-02T04:10:17Z","duration":"PT42M6S","thumbnail":"https://i.ytimg.com/vi/2viSeZlC2NU/mqdefault.jpg","viewCount":"134","playlistId":"PLEkQk5xrP-tnu6of679SvxdVx0qSrJzmb","playlistName":"شرح سنن الإمام الترمذي رضى الله عنه د. يسري جبر","category":"متنوع"},{"id":"rWxK1cJPsfg","title":"شرح كتاب البيوع من سنن الترمذي - المجلس التاسع","publishedAt":"2015-06-01T03:52:38Z","duration":"PT31M11S","thumbnail":"https://i.ytimg.com/vi/rWxK1cJPsfg/mqdefault.jpg","viewCount":"124","playlistId":"PLEkQk5xrP-tnu6of679SvxdVx0qSrJzmb","playlistName":"شرح سنن الإمام الترمذي رضى الله عنه د. يسري جبر","category":"متنوع"},{"id":"OBzhC-YLg2I","title":"شرح كتاب البيوع من سنن الترمذي - المجلس الثامن","publishedAt":"2015-05-31T04:10:29Z","duration":"PT41M29S","thumbnail":"https://i.ytimg.com/vi/OBzhC-YLg2I/mqdefault.jpg","viewCount":"162","playlistId":"PLEkQk5xrP-tnu6of679SvxdVx0qSrJzmb","playlistName":"شرح سنن الإمام الترمذي رضى الله عنه د. يسري جبر","category":"متنوع"},{"id":"CWn1_KVdnVM","title":"شرح كتاب البيوع من سنن الترمذي - المجلس السابع","publishedAt":"2015-05-30T03:51:09Z","duration":"PT32M31S","thumbnail":"https://i.ytimg.com/vi/CWn1_KVdnVM/mqdefault.jpg","viewCount":"197","playlistId":"PLEkQk5xrP-tnu6of679SvxdVx0qSrJzmb","playlistName":"شرح سنن الإمام الترمذي رضى الله عنه د. يسري جبر","category":"متنوع"},{"id":"YO0sxIIHqvg","title":"شرح كتاب البيوع من سنن الترمذي - المجلس السادس","publishedAt":"2015-05-29T04:12:20Z","duration":"PT32M15S","thumbnail":"https://i.ytimg.com/vi/YO0sxIIHqvg/mqdefault.jpg","viewCount":"216","playlistId":"PLEkQk5xrP-tnu6of679SvxdVx0qSrJzmb","playlistName":"شرح سنن الإمام الترمذي رضى الله عنه د. يسري جبر","category":"متنوع"},{"id":"iF-nEJtDIY8","title":"شرح كتاب البيوع من سنن الترمذي - المجلس الخامس","publishedAt":"2015-05-28T04:02:52Z","duration":"PT38M32S","thumbnail":"https://i.ytimg.com/vi/iF-nEJtDIY8/mqdefault.jpg","viewCount":"231","playlistId":"PLEkQk5xrP-tnu6of679SvxdVx0qSrJzmb","playlistName":"شرح سنن الإمام الترمذي رضى الله عنه د. يسري جبر","category":"متنوع"},{"id":"Cbf-nWWQH2E","title":"شرح كتاب البيوع من سنن الترمذي - المجلس الرابع","publishedAt":"2015-05-27T03:57:21Z","duration":"PT44M6S","thumbnail":"https://i.ytimg.com/vi/Cbf-nWWQH2E/mqdefault.jpg","viewCount":"244","playlistId":"PLEkQk5xrP-tnu6of679SvxdVx0qSrJzmb","playlistName":"شرح سنن الإمام الترمذي رضى الله عنه د. يسري جبر","category":"متنوع"},{"id":"zMpeibBmtvw","title":"شرح كتاب  البيوع من سنن الترمذي - المجلس الثالث","publishedAt":"2015-05-26T03:59:17Z","duration":"PT40M27S","thumbnail":"https://i.ytimg.com/vi/zMpeibBmtvw/mqdefault.jpg","viewCount":"642","playlistId":"PLEkQk5xrP-tnu6of679SvxdVx0qSrJzmb","playlistName":"شرح سنن الإمام الترمذي رضى الله عنه د. يسري جبر","category":"متنوع"},{"id":"XHXMDCEw4Jo","title":"شرح كتاب البيوع من سنن الترمذي - المجلس الثاني","publishedAt":"2015-05-26T02:21:19Z","duration":"PT42M28S","thumbnail":"https://i.ytimg.com/vi/XHXMDCEw4Jo/mqdefault.jpg","viewCount":"576","playlistId":"PLEkQk5xrP-tnu6of679SvxdVx0qSrJzmb","playlistName":"شرح سنن الإمام الترمذي رضى الله عنه د. يسري جبر","category":"متنوع"},{"id":"QYfCE0L5xxE","title":"شرح كتاب البيوع من سنن الإمام الترمذي - المجلس الأول","publishedAt":"2015-05-24T03:59:01Z","duration":"PT40M10S","thumbnail":"https://i.ytimg.com/vi/QYfCE0L5xxE/mqdefault.jpg","viewCount":"2901","playlistId":"PLEkQk5xrP-tnu6of679SvxdVx0qSrJzmb","playlistName":"شرح سنن الإمام الترمذي رضى الله عنه د. يسري جبر","category":"متنوع"},{"id":"YoTHV4ObHhs","title":"شرح كتاب المناقب من سنن الترمذي - المجلس الثاني والعشرون","publishedAt":"2016-07-16T18:07:58Z","duration":"PT21M56S","thumbnail":"https://i.ytimg.com/vi/YoTHV4ObHhs/mqdefault.jpg","viewCount":"397","playlistId":"PLEkQk5xrP-tnu6of679SvxdVx0qSrJzmb","playlistName":"شرح سنن الإمام الترمذي رضى الله عنه د. يسري جبر","category":"متنوع"},{"id":"Eta6cvFIKKY","title":"شرح كتاب المناقب من سنن الترمذي - المجلس الحادي والعشرون","publishedAt":"2016-07-14T15:21:42Z","duration":"PT13M18S","thumbnail":"https://i.ytimg.com/vi/Eta6cvFIKKY/mqdefault.jpg","viewCount":"141","playlistId":"PLEkQk5xrP-tnu6of679SvxdVx0qSrJzmb","playlistName":"شرح سنن الإمام الترمذي رضى الله عنه د. يسري جبر","category":"متنوع"},{"id":"UYKvYBNBkUQ","title":"شرح كتاب المناقب من سنن الترمذي - المجلس العشرون","publishedAt":"2016-07-14T13:05:05Z","duration":"PT14M3S","thumbnail":"https://i.ytimg.com/vi/UYKvYBNBkUQ/mqdefault.jpg","viewCount":"109","playlistId":"PLEkQk5xrP-tnu6of679SvxdVx0qSrJzmb","playlistName":"شرح سنن الإمام الترمذي رضى الله عنه د. يسري جبر","category":"متنوع"},{"id":"jcxOn-nolD4","title":"شرح كتاب المناقب من سنن الترمذي - المجلس الثامن عشر","publishedAt":"2016-07-14T10:42:09Z","duration":"PT14M34S","thumbnail":"https://i.ytimg.com/vi/jcxOn-nolD4/mqdefault.jpg","viewCount":"104","playlistId":"PLEkQk5xrP-tnu6of679SvxdVx0qSrJzmb","playlistName":"شرح سنن الإمام الترمذي رضى الله عنه د. يسري جبر","category":"متنوع"},{"id":"f7MWKf4pDrE","title":"شرح كتاب المناقب من سنن الترمذي - المجلس التاسع عشر","publishedAt":"2016-07-14T10:41:21Z","duration":"PT12M33S","thumbnail":"https://i.ytimg.com/vi/f7MWKf4pDrE/mqdefault.jpg","viewCount":"94","playlistId":"PLEkQk5xrP-tnu6of679SvxdVx0qSrJzmb","playlistName":"شرح سنن الإمام الترمذي رضى الله عنه د. يسري جبر","category":"متنوع"},{"id":"ZsDW_Ot1sMs","title":"شرح كتاب المناقب من سنن الترمذي - المجلس السابع عشر","publishedAt":"2016-07-12T07:03:46Z","duration":"PT13M8S","thumbnail":"https://i.ytimg.com/vi/ZsDW_Ot1sMs/mqdefault.jpg","viewCount":"110","playlistId":"PLEkQk5xrP-tnu6of679SvxdVx0qSrJzmb","playlistName":"شرح سنن الإمام الترمذي رضى الله عنه د. يسري جبر","category":"متنوع"},{"id":"iZli3a-8oyY","title":"شرح كتاب المناقب من سنن الترمذي - المجلس السادس عشر","publishedAt":"2016-07-12T03:26:50Z","duration":"PT11M1S","thumbnail":"https://i.ytimg.com/vi/iZli3a-8oyY/mqdefault.jpg","viewCount":"105","playlistId":"PLEkQk5xrP-tnu6of679SvxdVx0qSrJzmb","playlistName":"شرح سنن الإمام الترمذي رضى الله عنه د. يسري جبر","category":"متنوع"},{"id":"KHxnkeG7UJk","title":"شرح كتاب المناقب من سنن الترمذي - المجلس الخامس عشر","publishedAt":"2016-07-11T21:32:00Z","duration":"PT12M44S","thumbnail":"https://i.ytimg.com/vi/KHxnkeG7UJk/mqdefault.jpg","viewCount":"110","playlistId":"PLEkQk5xrP-tnu6of679SvxdVx0qSrJzmb","playlistName":"شرح سنن الإمام الترمذي رضى الله عنه د. يسري جبر","category":"متنوع"},{"id":"kYxziUzTpq4","title":"شرح كتاب المناقب من سنن الترمذي - المجلس الرابع عشر","publishedAt":"2016-07-11T19:08:10Z","duration":"PT21M10S","thumbnail":"https://i.ytimg.com/vi/kYxziUzTpq4/mqdefault.jpg","viewCount":"120","playlistId":"PLEkQk5xrP-tnu6of679SvxdVx0qSrJzmb","playlistName":"شرح سنن الإمام الترمذي رضى الله عنه د. يسري جبر","category":"متنوع"}],"total":244,"page":10,"pageSize":24,"totalPages":11}