{"items":[{"id":"yGu1QiqvE_4","title":"شرح كتاب الفتن من سنن الترمذي - المجلس السادس","publishedAt":"2015-12-19T07:19:53Z","duration":"PT35M44S","thumbnail":"https://i.ytimg.com/vi/yGu1QiqvE_4/mqdefault.jpg","viewCount":"246","playlistId":"PLEkQk5xrP-tnu6of679SvxdVx0qSrJzmb","playlistName":"شرح سنن الإمام الترمذي رضى الله عنه د. يسري جبر","category":"متنوع"},{"id":"5JxLw_FWs-Q","title":"شرح كتاب الفتن من سنن الترمذي - المجلس الخامس","publishedAt":"2015-12-18T06:13:38Z","duration":"PT33M31S","thumbnail":"https://i.ytimg.com/vi/5JxLw_FWs-Q/mqdefault.jpg","viewCount":"275","playlistId":"PLEkQk5xrP-tnu6of679SvxdVx0qSrJzmb","playlistName":"شرح سنن الإمام الترمذي رضى الله عنه د. يسري جبر","category":"متنوع"},{"id":"JGEC1BfaXr4","title":"شرح كتاب الفتن من سنن الترمذي - المجلس الرابع","publishedAt":"2015-12-17T06:04:39Z","duration":"PT36M45S","thumbnail":"https://i.ytimg.com/vi/JGEC1BfaXr4/mqdefault.jpg","viewCount":"304","playlistId":"PLEkQk5xrP-tnu6of679SvxdVx0qSrJzmb","playlistName":"شرح سنن الإمام الترمذي رضى الله عنه د. يسري جبر","category":"متنوع"},{"id":"VlRlM7mdYvU","title":"شرح كتاب الفتن من سنن الترمذي - المجلس الثالث","publishedAt":"2015-12-16T05:59:55Z","duration":"PT33M36S","thumbnail":"https://i.ytimg.com/vi/VlRlM7mdYvU/mqdefault.jpg","viewCount":"286","playlistId":"PLEkQk5xrP-tnu6of679SvxdVx0qSrJzmb","playlistName":"شرح سنن الإمام الترمذي رضى الله عنه د. يسري جبر","category":"متنوع"}],"total":244,"page":11,"pageSize":24,"totalPages":11}