{"items":[{"id":"MGb4gIy4UQE","title":"الرسالة القشيرية - المجلس الحادي و العشرون - باب في ذكر مشايخ هذه الطريقة - المجلس الثالث عشر","publishedAt":"2018-07-05T19:01:28Z","duration":"PT46M10S","thumbnail":"https://i.ytimg.com/vi/MGb4gIy4UQE/mqdefault.jpg","viewCount":"5427","playlistId":"PLEkQk5xrP-tkHAGOwIKr4pc5ehhyQ5HMJ","playlistName":"كتاب الرسالة القشيرية (تصوف) - د. يسري جبر","category":"تصوف"},{"id":"0vmPcyLaQfg","title":"الرسالة القشيرية - المجلس الثاني و العشرون - باب في ذكر مشايخ هذه الطريقة - المجلس الرابع عشر","publishedAt":"2018-07-12T14:57:34Z","duration":"PT1H4M4S","thumbnail":"https://i.ytimg.com/vi/0vmPcyLaQfg/mqdefault.jpg","viewCount":"6187","playlistId":"PLEkQk5xrP-tkHAGOwIKr4pc5ehhyQ5HMJ","playlistName":"كتاب الرسالة القشيرية (تصوف) - د. يسري جبر","category":"تصوف"},{"id":"KgukMU92Tr8","title":"الرسالة القشيرية-المجلس الثالث و العشرون- باب في تفسير ألفاظ تدور بين هذه الطائفة وبيان ما يشكل منها","publishedAt":"2018-07-19T18:35:04Z","duration":"PT50M11S","thumbnail":"https://i.ytimg.com/vi/KgukMU92Tr8/mqdefault.jpg","viewCount":"7282","playlistId":"PLEkQk5xrP-tkHAGOwIKr4pc5ehhyQ5HMJ","playlistName":"كتاب الرسالة القشيرية (تصوف) - د. يسري جبر","category":"تصوف"},{"id":"jyCHT46yJEw","title":"الرسالة القشيرية - المجلس الرابع و العشرون- (المقام - الحال)","publishedAt":"2018-07-26T02:41:35Z","duration":"PT48M6S","thumbnail":"https://i.ytimg.com/vi/jyCHT46yJEw/mqdefault.jpg","viewCount":"8888","playlistId":"PLEkQk5xrP-tkHAGOwIKr4pc5ehhyQ5HMJ","playlistName":"كتاب الرسالة القشيرية (تصوف) - د. يسري جبر","category":"تصوف"},{"id":"bO4CroQih0Q","title":"الرسالة القشيرية - المجلس الخامس و العشرون - (القبض والبسط - الهيبة والأُنس).","publishedAt":"2018-08-02T10:19:47Z","duration":"PT52M47S","thumbnail":"https://i.ytimg.com/vi/bO4CroQih0Q/mqdefault.jpg","viewCount":"12436","playlistId":"PLEkQk5xrP-tkHAGOwIKr4pc5ehhyQ5HMJ","playlistName":"كتاب الرسالة القشيرية (تصوف) - د. يسري جبر","category":"تصوف"},{"id":"ZqhjJR7qIss","title":"(29) سيدنا أبو بكر أحمد بن نصر الزقَّاق الكبير رضي الله عنه د. يسري جبر","publishedAt":"2018-08-05T19:16:01Z","duration":"PT7M53S","thumbnail":"https://i.ytimg.com/vi/ZqhjJR7qIss/mqdefault.jpg","viewCount":"824","playlistId":"PLEkQk5xrP-tmmI87XkWepRdTpisz2Lfgr","playlistName":"باب في ذكر مشايخ هذه الطريقة من شرح كتاب الرسالة القشيرية","category":"تصوف"},{"id":"p0pLIwS4Kw8","title":"(30) سيدنا أبو عبد الله عمرو بن عثمان المكي رضي الله عنه د. يسري جبر","publishedAt":"2018-08-06T14:24:14Z","duration":"PT13M38S","thumbnail":"https://i.ytimg.com/vi/p0pLIwS4Kw8/mqdefault.jpg","viewCount":"700","playlistId":"PLEkQk5xrP-tmmI87XkWepRdTpisz2Lfgr","playlistName":"باب في ذكر مشايخ هذه الطريقة من شرح كتاب الرسالة القشيرية","category":"تصوف"},{"id":"7yPDTl4cEGE","title":"(31) سيدنا سُمنون بن حمزة رضي الله عنه د. يسري جبر","publishedAt":"2018-08-06T14:49:32Z","duration":"PT8M","thumbnail":"https://i.ytimg.com/vi/7yPDTl4cEGE/mqdefault.jpg","viewCount":"1329","playlistId":"PLEkQk5xrP-tmmI87XkWepRdTpisz2Lfgr","playlistName":"باب في ذكر مشايخ هذه الطريقة من شرح كتاب الرسالة القشيرية","category":"تصوف"},{"id":"lF_stBts0ak","title":"(32) سيدنا أبو عُبيد البُسْرِي رضي الله عنه د. يسري جبر","publishedAt":"2018-08-07T18:32:37Z","duration":"PT4M47S","thumbnail":"https://i.ytimg.com/vi/lF_stBts0ak/mqdefault.jpg","viewCount":"788","playlistId":"PLEkQk5xrP-tmmI87XkWepRdTpisz2Lfgr","playlistName":"باب في ذكر مشايخ هذه الطريقة من شرح كتاب الرسالة القشيرية","category":"تصوف"},{"id":"WI-85HOTOOY","title":"الرسالة القشيرية - المجلس السادس و العشرون - (التواجد والوجد والوجود).","publishedAt":"2018-08-09T05:34:32Z","duration":"PT50M52S","thumbnail":"https://i.ytimg.com/vi/WI-85HOTOOY/mqdefault.jpg","viewCount":"7993","playlistId":"PLEkQk5xrP-tkHAGOwIKr4pc5ehhyQ5HMJ","playlistName":"كتاب الرسالة القشيرية (تصوف) - د. يسري جبر","category":"تصوف"},{"id":"D9yI-C0lICg","title":"الرسالة القشيرية - المجلس السابع و العشرون - (الجمع والفرق وجمع الجمع).","publishedAt":"2018-08-16T06:49:49Z","duration":"PT40M8S","thumbnail":"https://i.ytimg.com/vi/D9yI-C0lICg/mqdefault.jpg","viewCount":"7068","playlistId":"PLEkQk5xrP-tkHAGOwIKr4pc5ehhyQ5HMJ","playlistName":"كتاب الرسالة القشيرية (تصوف) - د. يسري جبر","category":"تصوف"},{"id":"ez-Zi4IXAeM","title":"(33) سيدنا أبو الفوارس شاه بن شجاع الكِرْمَاني رضي الله عنه د. يسري جبر","publishedAt":"2018-09-04T18:42:03Z","duration":"PT4M58S","thumbnail":"https://i.ytimg.com/vi/ez-Zi4IXAeM/mqdefault.jpg","viewCount":"867","playlistId":"PLEkQk5xrP-tmmI87XkWepRdTpisz2Lfgr","playlistName":"باب في ذكر مشايخ هذه الطريقة من شرح كتاب الرسالة القشيرية","category":"تصوف"},{"id":"afiKh1Tcz7Y","title":"(34) سيدنا يوسف بن الحسين رضي الله عنه   د. يسري جبر","publishedAt":"2018-09-04T19:13:51Z","duration":"PT8M24S","thumbnail":"https://i.ytimg.com/vi/afiKh1Tcz7Y/mqdefault.jpg","viewCount":"1450","playlistId":"PLEkQk5xrP-tmmI87XkWepRdTpisz2Lfgr","playlistName":"باب في ذكر مشايخ هذه الطريقة من شرح كتاب الرسالة القشيرية","category":"تصوف"},{"id":"e3hibHMurc0","title":"الرسالة القشيرية - المجلس الثامن و العشرون - الفناء والبقاء.","publishedAt":"2018-09-11T18:20:32Z","duration":"PT1H3M31S","thumbnail":"https://i.ytimg.com/vi/e3hibHMurc0/mqdefault.jpg","viewCount":"10706","playlistId":"PLEkQk5xrP-tkHAGOwIKr4pc5ehhyQ5HMJ","playlistName":"كتاب الرسالة القشيرية (تصوف) - د. يسري جبر","category":"تصوف"},{"id":"PG2ihpFDd5Y","title":"(35) سيدنا أبو عبد الله محمد بن علي الترمذي رضي الله عنه  د. يسري جبر","publishedAt":"2018-09-12T19:25:08Z","duration":"PT3M53S","thumbnail":"https://i.ytimg.com/vi/PG2ihpFDd5Y/mqdefault.jpg","viewCount":"823","playlistId":"PLEkQk5xrP-tmmI87XkWepRdTpisz2Lfgr","playlistName":"باب في ذكر مشايخ هذه الطريقة من شرح كتاب الرسالة القشيرية","category":"تصوف"},{"id":"dDiYjktIBYM","title":"(36) سيدنا أبو بكر محمد بن عمر الوراق الترمذي رضي الله عنه  د. يسري جبر","publishedAt":"2018-09-16T18:54:58Z","duration":"PT6M19S","thumbnail":"https://i.ytimg.com/vi/dDiYjktIBYM/mqdefault.jpg","viewCount":"925","playlistId":"PLEkQk5xrP-tmmI87XkWepRdTpisz2Lfgr","playlistName":"باب في ذكر مشايخ هذه الطريقة من شرح كتاب الرسالة القشيرية","category":"تصوف"},{"id":"QbgEegLUZP4","title":"(37) سيدنا أبو سعيد أحمد بن عيسى الخرَّاز رضي الله عنه  د. يسري جبر","publishedAt":"2018-09-16T19:29:26Z","duration":"PT4M21S","thumbnail":"https://i.ytimg.com/vi/QbgEegLUZP4/mqdefault.jpg","viewCount":"912","playlistId":"PLEkQk5xrP-tmmI87XkWepRdTpisz2Lfgr","playlistName":"باب في ذكر مشايخ هذه الطريقة من شرح كتاب الرسالة القشيرية","category":"تصوف"},{"id":"Wk0ICRr__gM","title":"(38) سيدنا أبو عبد الله محمد بن إسماعيل المغربي رضي الله عنه  د. يسري جبر","publishedAt":"2018-09-17T18:53:25Z","duration":"PT3M58S","thumbnail":"https://i.ytimg.com/vi/Wk0ICRr__gM/mqdefault.jpg","viewCount":"1000","playlistId":"PLEkQk5xrP-tmmI87XkWepRdTpisz2Lfgr","playlistName":"باب في ذكر مشايخ هذه الطريقة من شرح كتاب الرسالة القشيرية","category":"تصوف"},{"id":"qBrzlXWuESo","title":"الرسالة القشيرية المجلس التاسع و العشرون (الغَيْبَةُ والحُضُور)     د. يسري جبر","publishedAt":"2018-09-21T20:43:29Z","duration":"PT30M52S","thumbnail":"https://i.ytimg.com/vi/qBrzlXWuESo/mqdefault.jpg","viewCount":"5750","playlistId":"PLEkQk5xrP-tkHAGOwIKr4pc5ehhyQ5HMJ","playlistName":"كتاب الرسالة القشيرية (تصوف) - د. يسري جبر","category":"تصوف"},{"id":"09ENj-0GgiQ","title":"الرسالة القشيرية المجلس الثلاثون (الصَحْو والسُكْر - الذَوق والشُرب) د. يسري جبر","publishedAt":"2018-10-06T17:29:22Z","duration":"PT45M31S","thumbnail":"https://i.ytimg.com/vi/09ENj-0GgiQ/mqdefault.jpg","viewCount":"6969","playlistId":"PLEkQk5xrP-tkHAGOwIKr4pc5ehhyQ5HMJ","playlistName":"كتاب الرسالة القشيرية (تصوف) - د. يسري جبر","category":"تصوف"},{"id":"AbSn28cTTrg","title":"الرسالة القشيرية المجلس الواحد و الثلاثون ( المحو والإثبات - السَتر والتجلِّي ) د. يسري جبر","publishedAt":"2018-10-12T19:53:52Z","duration":"PT45M26S","thumbnail":"https://i.ytimg.com/vi/AbSn28cTTrg/mqdefault.jpg","viewCount":"6270","playlistId":"PLEkQk5xrP-tkHAGOwIKr4pc5ehhyQ5HMJ","playlistName":"كتاب الرسالة القشيرية (تصوف) - د. يسري جبر","category":"تصوف"},{"id":"heU8B1Fw5bU","title":"الرسالة القشيرية المجلس الثاني و الثلاثون (المحاضرة والمكاشفة والمشاهدة).د. يسري جبر","publishedAt":"2018-10-18T15:18:30Z","duration":"PT49M42S","thumbnail":"https://i.ytimg.com/vi/heU8B1Fw5bU/mqdefault.jpg","viewCount":"9686","playlistId":"PLEkQk5xrP-tkHAGOwIKr4pc5ehhyQ5HMJ","playlistName":"كتاب الرسالة القشيرية (تصوف) - د. يسري جبر","category":"تصوف"},{"id":"ft3nkyFDqdo","title":"الرسالة القشيرية المجلس الرابع و الثلاثون (القرب والبعد - الشريعة والحقيقة) د. يسري جبر","publishedAt":"2018-11-01T15:23:43Z","duration":"PT50M33S","thumbnail":"https://i.ytimg.com/vi/ft3nkyFDqdo/mqdefault.jpg","viewCount":"8275","playlistId":"PLEkQk5xrP-tkHAGOwIKr4pc5ehhyQ5HMJ","playlistName":"كتاب الرسالة القشيرية (تصوف) - د. يسري جبر","category":"تصوف"},{"id":"66EEx6lgD4U","title":"الرسالة القشيرية المجلس الخامس و الثلاثون (النَّفَس - الخواطر) د. يسري جبر","publishedAt":"2018-11-09T16:28:15Z","duration":"PT41M43S","thumbnail":"https://i.ytimg.com/vi/66EEx6lgD4U/mqdefault.jpg","viewCount":"7627","playlistId":"PLEkQk5xrP-tkHAGOwIKr4pc5ehhyQ5HMJ","playlistName":"كتاب الرسالة القشيرية (تصوف) - د. يسري جبر","category":"تصوف"}],"total":241,"page":3,"pageSize":24,"totalPages":11}