{"items":[{"id":"Nkyzqw4jpnI","title":"الرسالة القشيرية المجلس الثالث و الثلاثون (البواده والهجوم - التلوين والتمكين) د. يسري جبر","publishedAt":"2018-11-25T16:13:15Z","duration":"PT42M51S","thumbnail":"https://i.ytimg.com/vi/Nkyzqw4jpnI/mqdefault.jpg","viewCount":"5532","playlistId":"PLEkQk5xrP-tkHAGOwIKr4pc5ehhyQ5HMJ","playlistName":"كتاب الرسالة القشيرية (تصوف) - د. يسري جبر","category":"تصوف"},{"id":"se41rUHZgbs","title":"الرسالة القشيرية المجلس السادس والثلاثون(علم اليقين وعين اليقين وحق اليقين-الوارد-الشاهد)د. يسري جبر","publishedAt":"2018-11-25T17:15:58Z","duration":"PT48M30S","thumbnail":"https://i.ytimg.com/vi/se41rUHZgbs/mqdefault.jpg","viewCount":"5610","playlistId":"PLEkQk5xrP-tkHAGOwIKr4pc5ehhyQ5HMJ","playlistName":"كتاب الرسالة القشيرية (تصوف) - د. يسري جبر","category":"تصوف"},{"id":"krSDFCigd6o","title":"الرسالة القشيرية المجلس السابع و الثلاثون(النَّفْس والروح والسرّ) د. يسري جبر","publishedAt":"2018-11-25T18:34:55Z","duration":"PT1H12M15S","thumbnail":"https://i.ytimg.com/vi/krSDFCigd6o/mqdefault.jpg","viewCount":"12402","playlistId":"PLEkQk5xrP-tkHAGOwIKr4pc5ehhyQ5HMJ","playlistName":"كتاب الرسالة القشيرية (تصوف) - د. يسري جبر","category":"تصوف"},{"id":"9aPofSxJj50","title":"الرسالة القشيرية المجلس الثامن و الثلاثون (باب التوبة) د. يسري جبر","publishedAt":"2018-11-30T17:49:56Z","duration":"PT45M7S","thumbnail":"https://i.ytimg.com/vi/9aPofSxJj50/mqdefault.jpg","viewCount":"7672","playlistId":"PLEkQk5xrP-tkHAGOwIKr4pc5ehhyQ5HMJ","playlistName":"كتاب الرسالة القشيرية (تصوف) - د. يسري جبر","category":"تصوف"},{"id":"qhXt6JNx2ZY","title":"الرسالة القشيرية المجلس التاسع و الثلاثون - تكملة باب التوبة (2)   أ.د. يسري جبر","publishedAt":"2018-12-13T15:49:15Z","duration":"PT45M46S","thumbnail":"https://i.ytimg.com/vi/qhXt6JNx2ZY/mqdefault.jpg","viewCount":"4781","playlistId":"PLEkQk5xrP-tkHAGOwIKr4pc5ehhyQ5HMJ","playlistName":"كتاب الرسالة القشيرية (تصوف) - د. يسري جبر","category":"تصوف"},{"id":"afrhNKw1aRU","title":"الرسالة القشيرية المجلس الأربعون - تكملة باب التوبة (3)   أ.د. يسري جبر","publishedAt":"2018-12-13T17:58:47Z","duration":"PT30M41S","thumbnail":"https://i.ytimg.com/vi/afrhNKw1aRU/mqdefault.jpg","viewCount":"4070","playlistId":"PLEkQk5xrP-tkHAGOwIKr4pc5ehhyQ5HMJ","playlistName":"كتاب الرسالة القشيرية (تصوف) - د. يسري جبر","category":"تصوف"},{"id":"ze2jjrdP-6s","title":"الرسالة القشيرية المجلس الواحد و الأربعون - باب المجاهدة  أ.د. يسري جبر","publishedAt":"2018-12-23T17:08:14Z","duration":"PT42M48S","thumbnail":"https://i.ytimg.com/vi/ze2jjrdP-6s/mqdefault.jpg","viewCount":"8677","playlistId":"PLEkQk5xrP-tkHAGOwIKr4pc5ehhyQ5HMJ","playlistName":"كتاب الرسالة القشيرية (تصوف) - د. يسري جبر","category":"تصوف"},{"id":"AvdJPtXhyOI","title":"الرسالة القشيرية المجلس الثاني و الأربعون - تكملة باب المجاهدة (2)  أ.د. يسري جبر","publishedAt":"2018-12-28T19:55:17Z","duration":"PT53M6S","thumbnail":"https://i.ytimg.com/vi/AvdJPtXhyOI/mqdefault.jpg","viewCount":"6305","playlistId":"PLEkQk5xrP-tkHAGOwIKr4pc5ehhyQ5HMJ","playlistName":"كتاب الرسالة القشيرية (تصوف) - د. يسري جبر","category":"تصوف"},{"id":"NXXHP15HAvk","title":"الرسالة القشيرية المجلس الثالث والأربعون - تكملة باب المجاهدة (3) . أ.د. يسري جبر","publishedAt":"2019-01-22T18:22:05Z","duration":"PT47M32S","thumbnail":"https://i.ytimg.com/vi/NXXHP15HAvk/mqdefault.jpg","viewCount":"4582","playlistId":"PLEkQk5xrP-tkHAGOwIKr4pc5ehhyQ5HMJ","playlistName":"كتاب الرسالة القشيرية (تصوف) - د. يسري جبر","category":"تصوف"},{"id":"zHMnMo2-FnY","title":"الرسالة القشيرية المجلس الرابع والأربعون - باب الخلوة والعزلة.  أ.د. يسري جبر","publishedAt":"2019-01-22T18:34:04Z","duration":"PT59M32S","thumbnail":"https://i.ytimg.com/vi/zHMnMo2-FnY/mqdefault.jpg","viewCount":"12621","playlistId":"PLEkQk5xrP-tkHAGOwIKr4pc5ehhyQ5HMJ","playlistName":"كتاب الرسالة القشيرية (تصوف) - د. يسري جبر","category":"تصوف"},{"id":"ez6smYMpgnA","title":"الرسالة القشيرية المجلس الخامس والأربعون - باب التقوى.   أ.د. يسري جبر","publishedAt":"2019-01-22T19:19:48Z","duration":"PT54M14S","thumbnail":"https://i.ytimg.com/vi/ez6smYMpgnA/mqdefault.jpg","viewCount":"6529","playlistId":"PLEkQk5xrP-tkHAGOwIKr4pc5ehhyQ5HMJ","playlistName":"كتاب الرسالة القشيرية (تصوف) - د. يسري جبر","category":"تصوف"},{"id":"5HVPVJs--OM","title":"الرسالة القشيرية المجلس السادس والأربعون - باب الورع - أ.د. يسري جبر","publishedAt":"2019-01-29T07:21:46Z","duration":"PT1H11M52S","thumbnail":"https://i.ytimg.com/vi/5HVPVJs--OM/mqdefault.jpg","viewCount":"6110","playlistId":"PLEkQk5xrP-tkHAGOwIKr4pc5ehhyQ5HMJ","playlistName":"كتاب الرسالة القشيرية (تصوف) - د. يسري جبر","category":"تصوف"},{"id":"Q9DfXCqScn8","title":"الرسالة القشيرية - المجلس السابع والأربعون - باب الزهد - أ.د. يسري جبر","publishedAt":"2019-02-02T14:23:37Z","duration":"PT49M24S","thumbnail":"https://i.ytimg.com/vi/Q9DfXCqScn8/mqdefault.jpg","viewCount":"5199","playlistId":"PLEkQk5xrP-tkHAGOwIKr4pc5ehhyQ5HMJ","playlistName":"كتاب الرسالة القشيرية (تصوف) - د. يسري جبر","category":"تصوف"},{"id":"vxhbzGROpgw","title":"الرسالة القشيرية - المجلس الثامن والأربعون - تكملة باب الزهد - أ.د. يسري جبر","publishedAt":"2019-02-09T18:24:36Z","duration":"PT42M35S","thumbnail":"https://i.ytimg.com/vi/vxhbzGROpgw/mqdefault.jpg","viewCount":"3785","playlistId":"PLEkQk5xrP-tkHAGOwIKr4pc5ehhyQ5HMJ","playlistName":"كتاب الرسالة القشيرية (تصوف) - د. يسري جبر","category":"تصوف"},{"id":"kAwsLwlB92U","title":"الرسالة القشيرية - المجلس التاسع والأربعون - باب الصمت - أ.د. يسري جبر","publishedAt":"2019-02-15T14:52:26Z","duration":"PT52M49S","thumbnail":"https://i.ytimg.com/vi/kAwsLwlB92U/mqdefault.jpg","viewCount":"9801","playlistId":"PLEkQk5xrP-tkHAGOwIKr4pc5ehhyQ5HMJ","playlistName":"كتاب الرسالة القشيرية (تصوف) - د. يسري جبر","category":"تصوف"},{"id":"4qKENDf3XPE","title":"الرسالة القشيرية - المجلس (50) تكملة باب الصمت - باب الخوف أ.د. يسري جبر","publishedAt":"2019-03-13T15:23:36Z","duration":"PT53M34S","thumbnail":"https://i.ytimg.com/vi/4qKENDf3XPE/mqdefault.jpg","viewCount":"7952","playlistId":"PLEkQk5xrP-tkHAGOwIKr4pc5ehhyQ5HMJ","playlistName":"كتاب الرسالة القشيرية (تصوف) - د. يسري جبر","category":"تصوف"},{"id":"piBaPADC8Co","title":"الرسالة القشيرية - المجلس (51) تكملة باب الخوف  أ.د. يسري جبر","publishedAt":"2019-03-13T20:37:18Z","duration":"PT34M52S","thumbnail":"https://i.ytimg.com/vi/piBaPADC8Co/mqdefault.jpg","viewCount":"3530","playlistId":"PLEkQk5xrP-tkHAGOwIKr4pc5ehhyQ5HMJ","playlistName":"كتاب الرسالة القشيرية (تصوف) - د. يسري جبر","category":"تصوف"},{"id":"ad-ap9WFU0s","title":"الرسالة القشيرية - المجلس (52)  باب الرجاء   أ.د. يسري جبر","publishedAt":"2019-03-14T17:58:28Z","duration":"PT45M4S","thumbnail":"https://i.ytimg.com/vi/ad-ap9WFU0s/mqdefault.jpg","viewCount":"4079","playlistId":"PLEkQk5xrP-tkHAGOwIKr4pc5ehhyQ5HMJ","playlistName":"كتاب الرسالة القشيرية (تصوف) - د. يسري جبر","category":"تصوف"},{"id":"bI56egvcr_s","title":"الرسالة القشيرية - المجلس (53) تكملة ما جاء في باب الرجاء    أ.د. يسري جبر","publishedAt":"2019-03-23T17:56:45Z","duration":"PT41M37S","thumbnail":"https://i.ytimg.com/vi/bI56egvcr_s/mqdefault.jpg","viewCount":"3733","playlistId":"PLEkQk5xrP-tkHAGOwIKr4pc5ehhyQ5HMJ","playlistName":"كتاب الرسالة القشيرية (تصوف) - د. يسري جبر","category":"تصوف"},{"id":"-2c1UfiRNVY","title":"الرسالة القشيرية - المجلس (54) باب الحُزن وباب الجوع وترك الشهوة  أ.د. يسري جبر","publishedAt":"2019-03-30T09:23:41Z","duration":"PT1H9M8S","thumbnail":"https://i.ytimg.com/vi/-2c1UfiRNVY/mqdefault.jpg","viewCount":"11098","playlistId":"PLEkQk5xrP-tkHAGOwIKr4pc5ehhyQ5HMJ","playlistName":"كتاب الرسالة القشيرية (تصوف) - د. يسري جبر","category":"تصوف"},{"id":"Qfm5Qotpb48","title":"الرسالة القشيرية - المجلس (55) بابُ الخُشُوعِ وَالتَّوَاضِعِ. أ.د. يسري جبر","publishedAt":"2019-06-29T16:11:01Z","duration":"PT54M36S","thumbnail":"https://i.ytimg.com/vi/Qfm5Qotpb48/mqdefault.jpg","viewCount":"6816","playlistId":"PLEkQk5xrP-tkHAGOwIKr4pc5ehhyQ5HMJ","playlistName":"كتاب الرسالة القشيرية (تصوف) - د. يسري جبر","category":"تصوف"},{"id":"C5FwsPz8rdA","title":"الرسالة القشيرية - المجلس (56) تكملةُ بابِ الخُشُوعِ وَالتَّوَاضِعِ. أ.د. يسري جبر","publishedAt":"2019-07-04T18:43:33Z","duration":"PT54M57S","thumbnail":"https://i.ytimg.com/vi/C5FwsPz8rdA/mqdefault.jpg","viewCount":"4406","playlistId":"PLEkQk5xrP-tkHAGOwIKr4pc5ehhyQ5HMJ","playlistName":"كتاب الرسالة القشيرية (تصوف) - د. يسري جبر","category":"تصوف"},{"id":"xRVV4p4QVTI","title":"الرسالة القشيرية - المجلس (57) بابُ مُخَالَفٍةِ النَّفْسِ وَذِكْرِ عُيُوبِهَا. أ.د. يسري جبر","publishedAt":"2019-07-16T18:44:58Z","duration":"PT40M17S","thumbnail":"https://i.ytimg.com/vi/xRVV4p4QVTI/mqdefault.jpg","viewCount":"5910","playlistId":"PLEkQk5xrP-tkHAGOwIKr4pc5ehhyQ5HMJ","playlistName":"كتاب الرسالة القشيرية (تصوف) - د. يسري جبر","category":"تصوف"},{"id":"XQZHYD3kKDY","title":"الرسالة القشيرية - المجلس (58) بابُ الحَسَدِ وبابُ الغِيبَة أ.د. يسري جبر","publishedAt":"2019-07-20T19:09:20Z","duration":"PT47M30S","thumbnail":"https://i.ytimg.com/vi/XQZHYD3kKDY/mqdefault.jpg","viewCount":"6754","playlistId":"PLEkQk5xrP-tkHAGOwIKr4pc5ehhyQ5HMJ","playlistName":"كتاب الرسالة القشيرية (تصوف) - د. يسري جبر","category":"تصوف"}],"total":241,"page":4,"pageSize":24,"totalPages":11}