{"items":[{"id":"vaGOHWJ-UDo","title":"الرسالة القشيرية - المجلس (59) بابُ القَنَاعَة. أ.د. يسري جبر","publishedAt":"2019-07-27T17:26:28Z","duration":"PT50M44S","thumbnail":"https://i.ytimg.com/vi/vaGOHWJ-UDo/mqdefault.jpg","viewCount":"5262","playlistId":"PLEkQk5xrP-tkHAGOwIKr4pc5ehhyQ5HMJ","playlistName":"كتاب الرسالة القشيرية (تصوف) - د. يسري جبر","category":"تصوف"},{"id":"1y8T7IVVWO8","title":"الرسالة القشيرية - المجلس (60)  بابُ التَّوَكُّلِ. أ.د. يسري جبر","publishedAt":"2019-08-06T01:05:45Z","duration":"PT48M58S","thumbnail":"https://i.ytimg.com/vi/1y8T7IVVWO8/mqdefault.jpg","viewCount":"8301","playlistId":"PLEkQk5xrP-tkHAGOwIKr4pc5ehhyQ5HMJ","playlistName":"كتاب الرسالة القشيرية (تصوف) - د. يسري جبر","category":"تصوف"},{"id":"Dl7xXGox7Z8","title":"الرسالة القشيرية - المجلس (61)  بابُ التَّوَكُّلِ (2). أ.د. يسري جبر","publishedAt":"2019-09-28T12:37:55Z","duration":"PT53M3S","thumbnail":"https://i.ytimg.com/vi/Dl7xXGox7Z8/mqdefault.jpg","viewCount":"5164","playlistId":"PLEkQk5xrP-tkHAGOwIKr4pc5ehhyQ5HMJ","playlistName":"كتاب الرسالة القشيرية (تصوف) - د. يسري جبر","category":"تصوف"},{"id":"yrSddJG4EQk","title":"الرسالة القشيرية - المجلس (62)  بابُ التَّوَكُّلِ (3). أ.د. يسري جبر","publishedAt":"2019-10-16T09:03:52Z","duration":"PT38M16S","thumbnail":"https://i.ytimg.com/vi/yrSddJG4EQk/mqdefault.jpg","viewCount":"4542","playlistId":"PLEkQk5xrP-tkHAGOwIKr4pc5ehhyQ5HMJ","playlistName":"كتاب الرسالة القشيرية (تصوف) - د. يسري جبر","category":"تصوف"},{"id":"3-5jBY9HDSo","title":"الرسالة القشيرية - المجلس (63)  بابُ الشُكْرِ . أ.د. يسري جبر","publishedAt":"2019-10-16T21:32:27Z","duration":"PT53M48S","thumbnail":"https://i.ytimg.com/vi/3-5jBY9HDSo/mqdefault.jpg","viewCount":"6043","playlistId":"PLEkQk5xrP-tkHAGOwIKr4pc5ehhyQ5HMJ","playlistName":"كتاب الرسالة القشيرية (تصوف) - د. يسري جبر","category":"تصوف"},{"id":"M1YrBhXPXAc","title":"الرسالة القشيرية - المجلس (64)  بابُ الْيَقِينِ. أ.د. يسري جبر","publishedAt":"2019-10-17T15:05:43Z","duration":"PT1H8M21S","thumbnail":"https://i.ytimg.com/vi/M1YrBhXPXAc/mqdefault.jpg","viewCount":"15443","playlistId":"PLEkQk5xrP-tkHAGOwIKr4pc5ehhyQ5HMJ","playlistName":"كتاب الرسالة القشيرية (تصوف) - د. يسري جبر","category":"تصوف"},{"id":"YuIjUO-_AZ4","title":"الرسالة القشيرية - المجلس (66)  بَابُ المُرَاقَبَةِ. أ.د. يسري جبر","publishedAt":"2019-10-17T23:59:39Z","duration":"PT43M51S","thumbnail":"https://i.ytimg.com/vi/YuIjUO-_AZ4/mqdefault.jpg","viewCount":"5860","playlistId":"PLEkQk5xrP-tkHAGOwIKr4pc5ehhyQ5HMJ","playlistName":"كتاب الرسالة القشيرية (تصوف) - د. يسري جبر","category":"تصوف"},{"id":"i1d_1BoDpDk","title":"الرسالة القشيرية - المجلس (67)  بَابُ الرِضَا . أ.د. يسري جبر","publishedAt":"2019-10-27T07:48:38Z","duration":"PT1H24S","thumbnail":"https://i.ytimg.com/vi/i1d_1BoDpDk/mqdefault.jpg","viewCount":"10054","playlistId":"PLEkQk5xrP-tkHAGOwIKr4pc5ehhyQ5HMJ","playlistName":"كتاب الرسالة القشيرية (تصوف) - د. يسري جبر","category":"تصوف"},{"id":"k4PlA5feqY4","title":"الرسالة القشيرية - المجلس (68)  بَابُ العُبُودِّيَةِ. أ.د. يسري جبر","publishedAt":"2019-10-31T17:19:39Z","duration":"PT49M34S","thumbnail":"https://i.ytimg.com/vi/k4PlA5feqY4/mqdefault.jpg","viewCount":"5919","playlistId":"PLEkQk5xrP-tkHAGOwIKr4pc5ehhyQ5HMJ","playlistName":"كتاب الرسالة القشيرية (تصوف) - د. يسري جبر","category":"تصوف"},{"id":"Y2FURtG0sJM","title":"الرسالة القشيرية - المجلس (69) بَابُ الإِرَادَةِ. أ.د. يسري جبر","publishedAt":"2019-11-08T08:37:43Z","duration":"PT55M20S","thumbnail":"https://i.ytimg.com/vi/Y2FURtG0sJM/mqdefault.jpg","viewCount":"6699","playlistId":"PLEkQk5xrP-tkHAGOwIKr4pc5ehhyQ5HMJ","playlistName":"كتاب الرسالة القشيرية (تصوف) - د. يسري جبر","category":"تصوف"},{"id":"8pkV4CSR1Bc","title":"الرسالة القشيرية - المجلس (70) بَابُ الاسْتِقَامَةِ. أ.د. يسري جبر","publishedAt":"2019-11-15T22:57:55Z","duration":"PT36M41S","thumbnail":"https://i.ytimg.com/vi/8pkV4CSR1Bc/mqdefault.jpg","viewCount":"4756","playlistId":"PLEkQk5xrP-tkHAGOwIKr4pc5ehhyQ5HMJ","playlistName":"كتاب الرسالة القشيرية (تصوف) - د. يسري جبر","category":"تصوف"},{"id":"1tdDdzOfpSk","title":"الرسالة القشيرية - المجلس (71) بَابُ الإخْلَاصِ. أ.د. يسري جبر","publishedAt":"2019-11-28T22:11:47Z","duration":"PT54M47S","thumbnail":"https://i.ytimg.com/vi/1tdDdzOfpSk/mqdefault.jpg","viewCount":"8337","playlistId":"PLEkQk5xrP-tkHAGOwIKr4pc5ehhyQ5HMJ","playlistName":"كتاب الرسالة القشيرية (تصوف) - د. يسري جبر","category":"تصوف"},{"id":"jQ0vXlXaEVg","title":"الرسالة القشيرية - المجلس (72) بَابُ الصدق . أ.د. يسري جبر","publishedAt":"2019-12-06T13:44:35Z","duration":"PT48M39S","thumbnail":"https://i.ytimg.com/vi/jQ0vXlXaEVg/mqdefault.jpg","viewCount":"4899","playlistId":"PLEkQk5xrP-tkHAGOwIKr4pc5ehhyQ5HMJ","playlistName":"كتاب الرسالة القشيرية (تصوف) - د. يسري جبر","category":"تصوف"},{"id":"XDyyGeafT7c","title":"الرسالة القشيرية - المجلس (73) بَابُ الحياء . أ.د. يسري جبر","publishedAt":"2019-12-12T18:28:20Z","duration":"PT50M35S","thumbnail":"https://i.ytimg.com/vi/XDyyGeafT7c/mqdefault.jpg","viewCount":"3612","playlistId":"PLEkQk5xrP-tkHAGOwIKr4pc5ehhyQ5HMJ","playlistName":"كتاب الرسالة القشيرية (تصوف) - د. يسري جبر","category":"تصوف"},{"id":"E-NaKylk46k","title":"الرسالة القشيرية - المجلس (74) بَابُ الحرية . أ.د. يسري جبر","publishedAt":"2019-12-22T18:57:39Z","duration":"PT37M42S","thumbnail":"https://i.ytimg.com/vi/E-NaKylk46k/mqdefault.jpg","viewCount":"3161","playlistId":"PLEkQk5xrP-tkHAGOwIKr4pc5ehhyQ5HMJ","playlistName":"كتاب الرسالة القشيرية (تصوف) - د. يسري جبر","category":"تصوف"},{"id":"7eAX-Q0lqdY","title":"الرسالة القشيرية - المجلس (75) بَابُ الذِكْرِ. أ.د. يسري جبر","publishedAt":"2019-12-30T17:59:33Z","duration":"PT45M19S","thumbnail":"https://i.ytimg.com/vi/7eAX-Q0lqdY/mqdefault.jpg","viewCount":"6695","playlistId":"PLEkQk5xrP-tkHAGOwIKr4pc5ehhyQ5HMJ","playlistName":"كتاب الرسالة القشيرية (تصوف) - د. يسري جبر","category":"تصوف"},{"id":"Ef9JY5SlOq4","title":"الرسالة القشيرية - المجلس (76) بَابُ الفُتُوَّةِ. أ.د. يسري جبر","publishedAt":"2020-01-07T17:21:26Z","duration":"PT42M32S","thumbnail":"https://i.ytimg.com/vi/Ef9JY5SlOq4/mqdefault.jpg","viewCount":"3286","playlistId":"PLEkQk5xrP-tkHAGOwIKr4pc5ehhyQ5HMJ","playlistName":"كتاب الرسالة القشيرية (تصوف) - د. يسري جبر","category":"تصوف"},{"id":"E65b4xNCFUY","title":"الرسالة القشيرية - المجلس (77) بَابُ الفُتُوَّةِ ۲. أ.د. يسري جبر","publishedAt":"2020-01-12T17:53:33Z","duration":"PT32M48S","thumbnail":"https://i.ytimg.com/vi/E65b4xNCFUY/mqdefault.jpg","viewCount":"2358","playlistId":"PLEkQk5xrP-tkHAGOwIKr4pc5ehhyQ5HMJ","playlistName":"كتاب الرسالة القشيرية (تصوف) - د. يسري جبر","category":"تصوف"},{"id":"t_dq16zmdyc","title":"الرسالة القشيرية - المجلس (65)  بابُ الصَّبْر . أ.د. يسري جبر","publishedAt":"2020-01-20T17:44:22Z","duration":"PT51M14S","thumbnail":"https://i.ytimg.com/vi/t_dq16zmdyc/mqdefault.jpg","viewCount":"6339","playlistId":"PLEkQk5xrP-tkHAGOwIKr4pc5ehhyQ5HMJ","playlistName":"كتاب الرسالة القشيرية (تصوف) - د. يسري جبر","category":"تصوف"},{"id":"6Pbb6Kah5nE","title":"الرسالة القشيرية - المجلس (78) بَابُ ‎الفِرَاسَةِ. أ.د. يسري جبر","publishedAt":"2020-01-22T18:32:54Z","duration":"PT50M45S","thumbnail":"https://i.ytimg.com/vi/6Pbb6Kah5nE/mqdefault.jpg","viewCount":"4383","playlistId":"PLEkQk5xrP-tkHAGOwIKr4pc5ehhyQ5HMJ","playlistName":"كتاب الرسالة القشيرية (تصوف) - د. يسري جبر","category":"تصوف"},{"id":"7yfZ_aSM8Rw","title":"‎ الرسالة القشيرية - المجلس (79) بَابُ الفِرَاسَةِ ٢. أ.د. يسري جبر","publishedAt":"2020-01-26T21:21:36Z","duration":"PT50M9S","thumbnail":"https://i.ytimg.com/vi/7yfZ_aSM8Rw/mqdefault.jpg","viewCount":"3458","playlistId":"PLEkQk5xrP-tkHAGOwIKr4pc5ehhyQ5HMJ","playlistName":"كتاب الرسالة القشيرية (تصوف) - د. يسري جبر","category":"تصوف"},{"id":"uLzOg-3RNjU","title":"‎ الرسالة القشيرية - المجلس (80) بَابُ الخُلُق. أ.د. يسري جبر","publishedAt":"2020-02-05T22:17:52Z","duration":"PT59M15S","thumbnail":"https://i.ytimg.com/vi/uLzOg-3RNjU/mqdefault.jpg","viewCount":"3863","playlistId":"PLEkQk5xrP-tkHAGOwIKr4pc5ehhyQ5HMJ","playlistName":"كتاب الرسالة القشيرية (تصوف) - د. يسري جبر","category":"تصوف"},{"id":"SY3olpjRQwA","title":"‎ الرسالة القشيرية - المجلس (81) بَابُ الجود والسخاء. أ.د. يسري جبر","publishedAt":"2020-02-14T17:19:42Z","duration":"PT39M58S","thumbnail":"https://i.ytimg.com/vi/SY3olpjRQwA/mqdefault.jpg","viewCount":"2648","playlistId":"PLEkQk5xrP-tkHAGOwIKr4pc5ehhyQ5HMJ","playlistName":"كتاب الرسالة القشيرية (تصوف) - د. يسري جبر","category":"تصوف"},{"id":"HJljPiEB6dQ","title":"‎الرسالة القشيرية - المجلس (82) بَابُ الجود والسخاء ٢ . أ.د. يسري جبر","publishedAt":"2020-02-19T13:55:20Z","duration":"PT39M14S","thumbnail":"https://i.ytimg.com/vi/HJljPiEB6dQ/mqdefault.jpg","viewCount":"2286","playlistId":"PLEkQk5xrP-tkHAGOwIKr4pc5ehhyQ5HMJ","playlistName":"كتاب الرسالة القشيرية (تصوف) - د. يسري جبر","category":"تصوف"}],"total":241,"page":5,"pageSize":24,"totalPages":11}