{"items":[{"id":"UPNuWGar_wA","title":"الرد على من ينكر زيارة الأولياء","publishedAt":"2023-08-06T18:00:25Z","duration":"PT8M10S","thumbnail":"https://i.ytimg.com/vi/UPNuWGar_wA/mqdefault.jpg","viewCount":"10766","playlistId":"PLEkQk5xrP-tlArtGpeLWaqNM7h7IDeAVC","playlistName":"خطب الجمعة أ.د. يسري جبر","category":"خطب"},{"id":"MxNkPl4XFBs","title":"لطائف ومعاني حول أسماء الله الحسنى","publishedAt":"2023-08-08T18:00:11Z","duration":"PT11M14S","thumbnail":"https://i.ytimg.com/vi/MxNkPl4XFBs/mqdefault.jpg","viewCount":"6004","playlistId":"PLEkQk5xrP-tlArtGpeLWaqNM7h7IDeAVC","playlistName":"خطب الجمعة أ.د. يسري جبر","category":"خطب"},{"id":"flithzVV4bY","title":"هو ليه ربنا مش بيستجيب دعائي؟","publishedAt":"2023-08-10T18:00:27Z","duration":"PT8M35S","thumbnail":"https://i.ytimg.com/vi/flithzVV4bY/mqdefault.jpg","viewCount":"5861","playlistId":"PLEkQk5xrP-tlArtGpeLWaqNM7h7IDeAVC","playlistName":"خطب الجمعة أ.د. يسري جبر","category":"خطب"},{"id":"lnvHPkID2v8","title":"فصاحة وبلاغة النبي ﷺ","publishedAt":"2023-08-11T18:00:23Z","duration":"PT12M24S","thumbnail":"https://i.ytimg.com/vi/lnvHPkID2v8/mqdefault.jpg","viewCount":"3579","playlistId":"PLEkQk5xrP-tlArtGpeLWaqNM7h7IDeAVC","playlistName":"خطب الجمعة أ.د. يسري جبر","category":"خطب"},{"id":"iNXnV0l76Oo","title":"كيف تتغلب على شهوة نفسك؟","publishedAt":"2023-08-15T18:00:18Z","duration":"PT17M15S","thumbnail":"https://i.ytimg.com/vi/iNXnV0l76Oo/mqdefault.jpg","viewCount":"37588","playlistId":"PLEkQk5xrP-tlArtGpeLWaqNM7h7IDeAVC","playlistName":"خطب الجمعة أ.د. يسري جبر","category":"خطب"},{"id":"eoVmAJPeGN0","title":"أين الله ﷻ؟","publishedAt":"2023-08-17T17:00:22Z","duration":"PT8M5S","thumbnail":"https://i.ytimg.com/vi/eoVmAJPeGN0/mqdefault.jpg","viewCount":"10763","playlistId":"PLEkQk5xrP-tlArtGpeLWaqNM7h7IDeAVC","playlistName":"خطب الجمعة أ.د. يسري جبر","category":"خطب"},{"id":"zXxEuotW1JE","title":"كيف تختار أصحابك؟","publishedAt":"2023-08-19T18:00:34Z","duration":"PT11M36S","thumbnail":"https://i.ytimg.com/vi/zXxEuotW1JE/mqdefault.jpg","viewCount":"5662","playlistId":"PLEkQk5xrP-tlArtGpeLWaqNM7h7IDeAVC","playlistName":"خطب الجمعة أ.د. يسري جبر","category":"خطب"},{"id":"ClHXmEFzmqM","title":"تعرف على قدر النبي ﷺ","publishedAt":"2023-09-21T17:00:07Z","duration":"PT24M55S","thumbnail":"https://i.ytimg.com/vi/ClHXmEFzmqM/mqdefault.jpg","viewCount":"17512","playlistId":"PLEkQk5xrP-tlArtGpeLWaqNM7h7IDeAVC","playlistName":"خطب الجمعة أ.د. يسري جبر","category":"خطب"},{"id":"2J2GMs8DrLo","title":"ما وقع من علامات ليلة مولد النبي ﷺ","publishedAt":"2023-09-26T18:25:49Z","duration":"PT19M34S","thumbnail":"https://i.ytimg.com/vi/2J2GMs8DrLo/mqdefault.jpg","viewCount":"13641","playlistId":"PLEkQk5xrP-tlArtGpeLWaqNM7h7IDeAVC","playlistName":"خطب الجمعة أ.د. يسري جبر","category":"خطب"},{"id":"c1r4o7ANOLU","title":"لماذا نحتفل بمولد النبي ﷺ وهل الاحتفال بدعة؟","publishedAt":"2023-09-27T13:00:30Z","duration":"PT21M27S","thumbnail":"https://i.ytimg.com/vi/c1r4o7ANOLU/mqdefault.jpg","viewCount":"11992","playlistId":"PLEkQk5xrP-tlArtGpeLWaqNM7h7IDeAVC","playlistName":"خطب الجمعة أ.د. يسري جبر","category":"خطب"},{"id":"9Eua1uSocMI","title":"كيف ولد رسول الله ﷺ؟","publishedAt":"2023-09-30T17:00:05Z","duration":"PT14M10S","thumbnail":"https://i.ytimg.com/vi/9Eua1uSocMI/mqdefault.jpg","viewCount":"3477","playlistId":"PLEkQk5xrP-tlArtGpeLWaqNM7h7IDeAVC","playlistName":"خطب الجمعة أ.د. يسري جبر","category":"خطب"},{"id":"VvqxRutWilc","title":"ألا إن نصر الله قريب","publishedAt":"2023-10-13T17:00:20Z","duration":"PT8M12S","thumbnail":"https://i.ytimg.com/vi/VvqxRutWilc/mqdefault.jpg","viewCount":"17122","playlistId":"PLEkQk5xrP-tlArtGpeLWaqNM7h7IDeAVC","playlistName":"خطب الجمعة أ.د. يسري جبر","category":"خطب"},{"id":"04tR9_i3HqY","title":"متى سيأتي نصر الله؟","publishedAt":"2023-10-24T18:19:39Z","duration":"PT21M3S","thumbnail":"https://i.ytimg.com/vi/04tR9_i3HqY/mqdefault.jpg","viewCount":"31762","playlistId":"PLEkQk5xrP-tlArtGpeLWaqNM7h7IDeAVC","playlistName":"خطب الجمعة أ.د. يسري جبر","category":"خطب"},{"id":"51jKF42OSy0","title":"سبب ضعف دول المسلمين وعدم المشاركة للدفاع عن أرضهم","publishedAt":"2023-10-29T19:30:10Z","duration":"PT14M44S","thumbnail":"https://i.ytimg.com/vi/51jKF42OSy0/mqdefault.jpg","viewCount":"21432","playlistId":"PLEkQk5xrP-tlArtGpeLWaqNM7h7IDeAVC","playlistName":"خطب الجمعة أ.د. يسري جبر","category":"خطب"},{"id":"T4FQxRbzElc","title":"كيف يكون لكل منا دور إيجابي في الأزمة الحالية؟","publishedAt":"2023-10-31T18:16:51Z","duration":"PT19M1S","thumbnail":"https://i.ytimg.com/vi/T4FQxRbzElc/mqdefault.jpg","viewCount":"8039","playlistId":"PLEkQk5xrP-tlArtGpeLWaqNM7h7IDeAVC","playlistName":"خطب الجمعة أ.د. يسري جبر","category":"خطب"},{"id":"MHd2NiFCRZ4","title":"ماذا فعل النبي ﷺ قبل الفتح الإسلامي؟","publishedAt":"2023-11-02T16:14:20Z","duration":"PT8M32S","thumbnail":"https://i.ytimg.com/vi/MHd2NiFCRZ4/mqdefault.jpg","viewCount":"5080","playlistId":"PLEkQk5xrP-tlArtGpeLWaqNM7h7IDeAVC","playlistName":"خطب الجمعة أ.د. يسري جبر","category":"خطب"},{"id":"_bmO4pymJNw","title":"اعرف تاريخ الي/هود مع المسلمين","publishedAt":"2023-11-07T18:30:23Z","duration":"PT8M21S","thumbnail":"https://i.ytimg.com/vi/_bmO4pymJNw/mqdefault.jpg","viewCount":"11913","playlistId":"PLEkQk5xrP-tlArtGpeLWaqNM7h7IDeAVC","playlistName":"خطب الجمعة أ.د. يسري جبر","category":"خطب"},{"id":"tNb4U7UsYV4","title":"كيف يكون لنا دور في نصرة القضية الفلس/طينية؟","publishedAt":"2023-11-09T19:36:25Z","duration":"PT19M45S","thumbnail":"https://i.ytimg.com/vi/tNb4U7UsYV4/mqdefault.jpg","viewCount":"5455","playlistId":"PLEkQk5xrP-tlArtGpeLWaqNM7h7IDeAVC","playlistName":"خطب الجمعة أ.د. يسري جبر","category":"خطب"},{"id":"0nZSI5WzoSs","title":"ضعف العرب وصبر ورباط أهل غ/زة","publishedAt":"2023-11-13T19:07:23Z","duration":"PT9M40S","thumbnail":"https://i.ytimg.com/vi/0nZSI5WzoSs/mqdefault.jpg","viewCount":"15136","playlistId":"PLEkQk5xrP-tlArtGpeLWaqNM7h7IDeAVC","playlistName":"خطب الجمعة أ.د. يسري جبر","category":"خطب"},{"id":"Me01EjpIVQs","title":"هل خلقنا الله مستضعفين في هذه الدنيا؟","publishedAt":"2023-12-07T18:18:10Z","duration":"PT15M58S","thumbnail":"https://i.ytimg.com/vi/Me01EjpIVQs/mqdefault.jpg","viewCount":"7502","playlistId":"PLEkQk5xrP-tlArtGpeLWaqNM7h7IDeAVC","playlistName":"خطب الجمعة أ.د. يسري جبر","category":"خطب"},{"id":"EKr1fgpPClw","title":"ما هي أفضل الأعمال فى شهر رجب؟","publishedAt":"2024-01-14T18:16:08Z","duration":"PT17M42S","thumbnail":"https://i.ytimg.com/vi/EKr1fgpPClw/mqdefault.jpg","viewCount":"37665","playlistId":"PLEkQk5xrP-tlArtGpeLWaqNM7h7IDeAVC","playlistName":"خطب الجمعة أ.د. يسري جبر","category":"خطب"},{"id":"Wx5kIUig-Ig","title":"فضائل العبادة في شهر رجب","publishedAt":"2024-01-15T18:36:12Z","duration":"PT16M6S","thumbnail":"https://i.ytimg.com/vi/Wx5kIUig-Ig/mqdefault.jpg","viewCount":"7153","playlistId":"PLEkQk5xrP-tlArtGpeLWaqNM7h7IDeAVC","playlistName":"خطب الجمعة أ.د. يسري جبر","category":"خطب"},{"id":"eJQhLeiS5eY","title":"ما هي أفضل الأعمال في شهر شعبان؟","publishedAt":"2024-02-11T18:12:36Z","duration":"PT13M54S","thumbnail":"https://i.ytimg.com/vi/eJQhLeiS5eY/mqdefault.jpg","viewCount":"18908","playlistId":"PLEkQk5xrP-tlArtGpeLWaqNM7h7IDeAVC","playlistName":"خطب الجمعة أ.د. يسري جبر","category":"خطب"},{"id":"ncXuedCSSv4","title":"ماذا أفعل في ليلة النصف من شعبان؟","publishedAt":"2024-02-23T18:17:50Z","duration":"PT16M59S","thumbnail":"https://i.ytimg.com/vi/ncXuedCSSv4/mqdefault.jpg","viewCount":"43784","playlistId":"PLEkQk5xrP-tlArtGpeLWaqNM7h7IDeAVC","playlistName":"خطب الجمعة أ.د. يسري جبر","category":"خطب"}],"total":660,"page":21,"pageSize":24,"totalPages":28}