{"items":[{"id":"VRb3zaddWO4","title":"الرد على الشبهات التي تقول أن الله عاتب النبي ﷺ","publishedAt":"2021-05-04T19:15:01Z","duration":"PT9M20S","thumbnail":"https://i.ytimg.com/vi/VRb3zaddWO4/mqdefault.jpg","viewCount":"2907","playlistId":"PLEkQk5xrP-tlArtGpeLWaqNM7h7IDeAVC","playlistName":"خطب الجمعة أ.د. يسري جبر","category":"خطب"},{"id":"11KopA3e2JA","title":"بَشَرٌ لَا كَالبَشَرِ ﷺ | أ.د. يسري جبر","publishedAt":"2021-05-09T19:18:03Z","duration":"PT11M39S","thumbnail":"https://i.ytimg.com/vi/11KopA3e2JA/mqdefault.jpg","viewCount":"2482","playlistId":"PLEkQk5xrP-tlArtGpeLWaqNM7h7IDeAVC","playlistName":"خطب الجمعة أ.د. يسري جبر","category":"خطب"},{"id":"JxS1ZPwqjzw","title":"نصرة المسجد الأقصى وفلسطين","publishedAt":"2021-05-14T15:00:01Z","duration":"PT12M48S","thumbnail":"https://i.ytimg.com/vi/JxS1ZPwqjzw/mqdefault.jpg","viewCount":"14227","playlistId":"PLEkQk5xrP-tlArtGpeLWaqNM7h7IDeAVC","playlistName":"خطب الجمعة أ.د. يسري جبر","category":"خطب"},{"id":"Pcc84dbqfqI","title":"أجمل ما خلق الله | أ.د. يسري جبر","publishedAt":"2021-05-25T17:15:00Z","duration":"PT15M36S","thumbnail":"https://i.ytimg.com/vi/Pcc84dbqfqI/mqdefault.jpg","viewCount":"3157","playlistId":"PLEkQk5xrP-tlArtGpeLWaqNM7h7IDeAVC","playlistName":"خطب الجمعة أ.د. يسري جبر","category":"خطب"},{"id":"JVmgulWA6Mg","title":"كيف تنجو في زمن الفتن؟","publishedAt":"2021-05-26T19:39:40Z","duration":"PT12M7S","thumbnail":"https://i.ytimg.com/vi/JVmgulWA6Mg/mqdefault.jpg","viewCount":"7644","playlistId":"PLEkQk5xrP-tlArtGpeLWaqNM7h7IDeAVC","playlistName":"خطب الجمعة أ.د. يسري جبر","category":"خطب"},{"id":"adfsmtnrOqA","title":"حول الكمالات المحمدية","publishedAt":"2021-05-27T18:00:01Z","duration":"PT38M2S","thumbnail":"https://i.ytimg.com/vi/adfsmtnrOqA/mqdefault.jpg","viewCount":"5541","playlistId":"PLEkQk5xrP-tlArtGpeLWaqNM7h7IDeAVC","playlistName":"خطب الجمعة أ.د. يسري جبر","category":"خطب"},{"id":"lba-csfMZ7k","title":"كيف أكون عبدًا شكورًا؟","publishedAt":"2021-06-02T17:15:00Z","duration":"PT10M4S","thumbnail":"https://i.ytimg.com/vi/lba-csfMZ7k/mqdefault.jpg","viewCount":"5581","playlistId":"PLEkQk5xrP-tlArtGpeLWaqNM7h7IDeAVC","playlistName":"خطب الجمعة أ.د. يسري جبر","category":"خطب"},{"id":"aAO1RtPm704","title":"شكر النعم | أ.د. يسري جبر","publishedAt":"2021-06-03T17:15:01Z","duration":"PT9M17S","thumbnail":"https://i.ytimg.com/vi/aAO1RtPm704/mqdefault.jpg","viewCount":"3031","playlistId":"PLEkQk5xrP-tlArtGpeLWaqNM7h7IDeAVC","playlistName":"خطب الجمعة أ.د. يسري جبر","category":"خطب"},{"id":"jAIQTavYE48","title":"طُرُقُ شُكْر الله على نِعَمِه","publishedAt":"2021-06-07T12:14:41Z","duration":"PT36M24S","thumbnail":"https://i.ytimg.com/vi/jAIQTavYE48/mqdefault.jpg","viewCount":"5545","playlistId":"PLEkQk5xrP-tlArtGpeLWaqNM7h7IDeAVC","playlistName":"خطب الجمعة أ.د. يسري جبر","category":"خطب"},{"id":"Ywn5QSY1now","title":"أين الله؟ | أ.د. يسري جبر","publishedAt":"2021-06-07T20:00:05Z","duration":"PT15M5S","thumbnail":"https://i.ytimg.com/vi/Ywn5QSY1now/mqdefault.jpg","viewCount":"9066","playlistId":"PLEkQk5xrP-tlArtGpeLWaqNM7h7IDeAVC","playlistName":"خطب الجمعة أ.د. يسري جبر","category":"خطب"},{"id":"BWQvsS_HXiA","title":"كيف تكون وارثا محمديا؟","publishedAt":"2021-06-08T19:15:01Z","duration":"PT10M50S","thumbnail":"https://i.ytimg.com/vi/BWQvsS_HXiA/mqdefault.jpg","viewCount":"7699","playlistId":"PLEkQk5xrP-tlArtGpeLWaqNM7h7IDeAVC","playlistName":"خطب الجمعة أ.د. يسري جبر","category":"خطب"},{"id":"f0dYluUCjxs","title":"تجليات الله في الأكوان | أ.د. يسري جبر","publishedAt":"2021-06-12T14:00:30Z","duration":"PT34M44S","thumbnail":"https://i.ytimg.com/vi/f0dYluUCjxs/mqdefault.jpg","viewCount":"8266","playlistId":"PLEkQk5xrP-tlArtGpeLWaqNM7h7IDeAVC","playlistName":"خطب الجمعة أ.د. يسري جبر","category":"خطب"},{"id":"yTOOXtcp9NA","title":"هل للصدقة أوجه غير المال؟","publishedAt":"2021-06-15T18:46:35Z","duration":"PT18M58S","thumbnail":"https://i.ytimg.com/vi/yTOOXtcp9NA/mqdefault.jpg","viewCount":"3747","playlistId":"PLEkQk5xrP-tlArtGpeLWaqNM7h7IDeAVC","playlistName":"خطب الجمعة أ.د. يسري جبر","category":"خطب"},{"id":"g5TcudoYi6o","title":"أفضل الأعمال في الأشهر الحرم","publishedAt":"2021-06-25T18:14:21Z","duration":"PT12M15S","thumbnail":"https://i.ytimg.com/vi/g5TcudoYi6o/mqdefault.jpg","viewCount":"5218","playlistId":"PLEkQk5xrP-tlArtGpeLWaqNM7h7IDeAVC","playlistName":"خطب الجمعة أ.د. يسري جبر","category":"خطب"},{"id":"pexvPXkfAS0","title":"خطر الوهابية على المسلمين","publishedAt":"2021-06-28T19:02:10Z","duration":"PT15M14S","thumbnail":"https://i.ytimg.com/vi/pexvPXkfAS0/mqdefault.jpg","viewCount":"118541","playlistId":"PLEkQk5xrP-tlArtGpeLWaqNM7h7IDeAVC","playlistName":"خطب الجمعة أ.د. يسري جبر","category":"خطب"},{"id":"VQCqBxVdHjE","title":"لماذا خرج الوهابية عن أهل السنة والجماعة؟","publishedAt":"2021-06-29T20:15:01Z","duration":"PT14M35S","thumbnail":"https://i.ytimg.com/vi/VQCqBxVdHjE/mqdefault.jpg","viewCount":"35303","playlistId":"PLEkQk5xrP-tlArtGpeLWaqNM7h7IDeAVC","playlistName":"خطب الجمعة أ.د. يسري جبر","category":"خطب"},{"id":"RjNj9q4sASQ","title":"خطورة الوهابية","publishedAt":"2021-07-02T18:59:16Z","duration":"PT48M17S","thumbnail":"https://i.ytimg.com/vi/RjNj9q4sASQ/mqdefault.jpg","viewCount":"20972","playlistId":"PLEkQk5xrP-tlArtGpeLWaqNM7h7IDeAVC","playlistName":"خطب الجمعة أ.د. يسري جبر","category":"خطب"},{"id":"wbzjTfg7zlk","title":"العِلْمُ النافع","publishedAt":"2021-07-05T19:29:13Z","duration":"PT48M42S","thumbnail":"https://i.ytimg.com/vi/wbzjTfg7zlk/mqdefault.jpg","viewCount":"2352","playlistId":"PLEkQk5xrP-tlArtGpeLWaqNM7h7IDeAVC","playlistName":"خطب الجمعة أ.د. يسري جبر","category":"خطب"},{"id":"dNF5OkVznDE","title":"فضل العشر الأوائل من ذي الحجة","publishedAt":"2021-07-10T19:14:53Z","duration":"PT35M36S","thumbnail":"https://i.ytimg.com/vi/dNF5OkVznDE/mqdefault.jpg","viewCount":"16827","playlistId":"PLEkQk5xrP-tlArtGpeLWaqNM7h7IDeAVC","playlistName":"خطب الجمعة أ.د. يسري جبر","category":"خطب"},{"id":"MyGfEzryW0Y","title":"كيف تحج وأنت في بلدك","publishedAt":"2021-07-18T19:09:01Z","duration":"PT38M30S","thumbnail":"https://i.ytimg.com/vi/MyGfEzryW0Y/mqdefault.jpg","viewCount":"4530","playlistId":"PLEkQk5xrP-tlArtGpeLWaqNM7h7IDeAVC","playlistName":"خطب الجمعة أ.د. يسري جبر","category":"خطب"},{"id":"UMACzUN7sPk","title":"شروط الأضحية | أ.د. يسري جبر","publishedAt":"2021-07-20T06:14:42Z","duration":"PT9M9S","thumbnail":"https://i.ytimg.com/vi/UMACzUN7sPk/mqdefault.jpg","viewCount":"2000","playlistId":"PLEkQk5xrP-tlArtGpeLWaqNM7h7IDeAVC","playlistName":"خطب الجمعة أ.د. يسري جبر","category":"خطب"},{"id":"R-ES8PJfQWA","title":"خطورة إهدار المال العام","publishedAt":"2021-08-02T17:30:02Z","duration":"PT14M12S","thumbnail":"https://i.ytimg.com/vi/R-ES8PJfQWA/mqdefault.jpg","viewCount":"2025","playlistId":"PLEkQk5xrP-tlArtGpeLWaqNM7h7IDeAVC","playlistName":"خطب الجمعة أ.د. يسري جبر","category":"خطب"},{"id":"1H6P1PcCum8","title":"كيف تكون أمينًا ؟","publishedAt":"2021-08-03T17:57:59Z","duration":"PT46M57S","thumbnail":"https://i.ytimg.com/vi/1H6P1PcCum8/mqdefault.jpg","viewCount":"2825","playlistId":"PLEkQk5xrP-tlArtGpeLWaqNM7h7IDeAVC","playlistName":"خطب الجمعة أ.د. يسري جبر","category":"خطب"},{"id":"nNzFnitMP8g","title":"كيف نستقبل العام الهجري الجديد؟","publishedAt":"2021-08-09T18:30:36Z","duration":"PT16M5S","thumbnail":"https://i.ytimg.com/vi/nNzFnitMP8g/mqdefault.jpg","viewCount":"5182","playlistId":"PLEkQk5xrP-tlArtGpeLWaqNM7h7IDeAVC","playlistName":"خطب الجمعة أ.د. يسري جبر","category":"خطب"}],"total":660,"page":13,"pageSize":24,"totalPages":28}