{"items":[{"id":"wZRIqF2hnWk","title":"كيف تتخلق بأخلاق رمضان طول العام؟","publishedAt":"2022-05-03T18:30:45Z","duration":"PT21M37S","thumbnail":"https://i.ytimg.com/vi/wZRIqF2hnWk/mqdefault.jpg","viewCount":"3649","playlistId":"PLEkQk5xrP-tlArtGpeLWaqNM7h7IDeAVC","playlistName":"خطب الجمعة أ.د. يسري جبر","category":"خطب"},{"id":"zAe9TVd_JJc","title":"فضل زيارة مقامات الأولياء","publishedAt":"2022-05-18T18:00:31Z","duration":"PT11M57S","thumbnail":"https://i.ytimg.com/vi/zAe9TVd_JJc/mqdefault.jpg","viewCount":"11558","playlistId":"PLEkQk5xrP-tlArtGpeLWaqNM7h7IDeAVC","playlistName":"خطب الجمعة أ.د. يسري جبر","category":"خطب"},{"id":"YwklgBzyCLo","title":"كيف تحمي نفسك من المجاذيب؟","publishedAt":"2022-05-19T18:00:16Z","duration":"PT14M42S","thumbnail":"https://i.ytimg.com/vi/YwklgBzyCLo/mqdefault.jpg","viewCount":"40961","playlistId":"PLEkQk5xrP-tlArtGpeLWaqNM7h7IDeAVC","playlistName":"خطب الجمعة أ.د. يسري جبر","category":"خطب"},{"id":"wnlfNj73q7Y","title":"هل يرحم الله الكافر بعد موته؟","publishedAt":"2022-05-22T18:44:17Z","duration":"PT16M45S","thumbnail":"https://i.ytimg.com/vi/wnlfNj73q7Y/mqdefault.jpg","viewCount":"5413","playlistId":"PLEkQk5xrP-tlArtGpeLWaqNM7h7IDeAVC","playlistName":"خطب الجمعة أ.د. يسري جبر","category":"خطب"},{"id":"EE4g65A8yeM","title":"ما هو علاج السحر ,, وكيف تحمي نفسك منه؟","publishedAt":"2022-05-23T18:00:03Z","duration":"PT16M46S","thumbnail":"https://i.ytimg.com/vi/EE4g65A8yeM/mqdefault.jpg","viewCount":"32355","playlistId":"PLEkQk5xrP-tlArtGpeLWaqNM7h7IDeAVC","playlistName":"خطب الجمعة أ.د. يسري جبر","category":"خطب"},{"id":"PJDzapqud1g","title":"رحمة النبي ﷺ بالأكوان","publishedAt":"2022-05-24T19:30:02Z","duration":"PT13M8S","thumbnail":"https://i.ytimg.com/vi/PJDzapqud1g/mqdefault.jpg","viewCount":"5214","playlistId":"PLEkQk5xrP-tlArtGpeLWaqNM7h7IDeAVC","playlistName":"خطب الجمعة أ.د. يسري جبر","category":"خطب"},{"id":"WvStWLfjX2M","title":"الإنسان بين الوجود والعدم","publishedAt":"2022-06-14T18:53:01Z","duration":"PT8M41S","thumbnail":"https://i.ytimg.com/vi/WvStWLfjX2M/mqdefault.jpg","viewCount":"4662","playlistId":"PLEkQk5xrP-tlArtGpeLWaqNM7h7IDeAVC","playlistName":"خطب الجمعة أ.د. يسري جبر","category":"خطب"},{"id":"wlF7CCO0wGk","title":"النظافة من الإيمان","publishedAt":"2022-06-15T18:00:31Z","duration":"PT19M12S","thumbnail":"https://i.ytimg.com/vi/wlF7CCO0wGk/mqdefault.jpg","viewCount":"2477","playlistId":"PLEkQk5xrP-tlArtGpeLWaqNM7h7IDeAVC","playlistName":"خطب الجمعة أ.د. يسري جبر","category":"خطب"},{"id":"684VYcPo-OI","title":"كيف تأخذ بالأسباب ولا تعتمد عليها؟","publishedAt":"2022-06-25T18:02:19Z","duration":"PT20M26S","thumbnail":"https://i.ytimg.com/vi/684VYcPo-OI/mqdefault.jpg","viewCount":"21524","playlistId":"PLEkQk5xrP-tlArtGpeLWaqNM7h7IDeAVC","playlistName":"خطب الجمعة أ.د. يسري جبر","category":"خطب"},{"id":"0uHE47sv9C4","title":"كيف أخذ النبي ﷺ بالأسباب في حياته؟","publishedAt":"2022-06-26T19:15:00Z","duration":"PT21M9S","thumbnail":"https://i.ytimg.com/vi/0uHE47sv9C4/mqdefault.jpg","viewCount":"4999","playlistId":"PLEkQk5xrP-tlArtGpeLWaqNM7h7IDeAVC","playlistName":"خطب الجمعة أ.د. يسري جبر","category":"خطب"},{"id":"P-1t5ileEr8","title":"كيف تغتنم العشر الأوائل من ذي الحجة؟","publishedAt":"2022-07-01T18:42:39Z","duration":"PT8M57S","thumbnail":"https://i.ytimg.com/vi/P-1t5ileEr8/mqdefault.jpg","viewCount":"9775","playlistId":"PLEkQk5xrP-tlArtGpeLWaqNM7h7IDeAVC","playlistName":"خطب الجمعة أ.د. يسري جبر","category":"خطب"},{"id":"HJZItqls2KY","title":"كيف حج النبي ﷺ حجة الوداع؟","publishedAt":"2022-07-07T19:06:05Z","duration":"PT17M26S","thumbnail":"https://i.ytimg.com/vi/HJZItqls2KY/mqdefault.jpg","viewCount":"2346","playlistId":"PLEkQk5xrP-tlArtGpeLWaqNM7h7IDeAVC","playlistName":"خطب الجمعة أ.د. يسري جبر","category":"خطب"},{"id":"V0lwc232yM0","title":"هل يوجد سبب لكل ما هو حرام؟","publishedAt":"2022-07-11T19:05:44Z","duration":"PT11M4S","thumbnail":"https://i.ytimg.com/vi/V0lwc232yM0/mqdefault.jpg","viewCount":"4285","playlistId":"PLEkQk5xrP-tlArtGpeLWaqNM7h7IDeAVC","playlistName":"خطب الجمعة أ.د. يسري جبر","category":"خطب"},{"id":"bwRpwUHINJk","title":"أهمية تعليم معجزات النَّبيّ ﷺ لأبنائك","publishedAt":"2022-07-12T19:30:02Z","duration":"PT20M9S","thumbnail":"https://i.ytimg.com/vi/bwRpwUHINJk/mqdefault.jpg","viewCount":"4271","playlistId":"PLEkQk5xrP-tlArtGpeLWaqNM7h7IDeAVC","playlistName":"خطب الجمعة أ.د. يسري جبر","category":"خطب"},{"id":"JhsnLAftlLk","title":"كيف تتحلى بأخلاق النَّبيّ ﷺ؟","publishedAt":"2022-07-13T18:15:35Z","duration":"PT11M41S","thumbnail":"https://i.ytimg.com/vi/JhsnLAftlLk/mqdefault.jpg","viewCount":"5227","playlistId":"PLEkQk5xrP-tlArtGpeLWaqNM7h7IDeAVC","playlistName":"خطب الجمعة أ.د. يسري جبر","category":"خطب"},{"id":"UKaZqDFyv9g","title":"كيف تدرك حقيقة العبودية؟","publishedAt":"2022-07-24T18:47:54Z","duration":"PT14M10S","thumbnail":"https://i.ytimg.com/vi/UKaZqDFyv9g/mqdefault.jpg","viewCount":"5240","playlistId":"PLEkQk5xrP-tlArtGpeLWaqNM7h7IDeAVC","playlistName":"خطب الجمعة أ.د. يسري جبر","category":"خطب"},{"id":"1SMFYxB1sFY","title":"كيف أرضى بقضاء الله وقدره؟","publishedAt":"2022-07-25T18:29:03Z","duration":"PT18M3S","thumbnail":"https://i.ytimg.com/vi/1SMFYxB1sFY/mqdefault.jpg","viewCount":"12788","playlistId":"PLEkQk5xrP-tlArtGpeLWaqNM7h7IDeAVC","playlistName":"خطب الجمعة أ.د. يسري جبر","category":"خطب"},{"id":"Cp52bNb9dYk","title":"الراحمون يرحمهم الرحمن | أ.د. يسري جبر","publishedAt":"2022-07-26T18:46:23Z","duration":"PT11M49S","thumbnail":"https://i.ytimg.com/vi/Cp52bNb9dYk/mqdefault.jpg","viewCount":"4164","playlistId":"PLEkQk5xrP-tlArtGpeLWaqNM7h7IDeAVC","playlistName":"خطب الجمعة أ.د. يسري جبر","category":"خطب"},{"id":"3nYfGE1q5Ug","title":"قصة هجرة النَّبيّ ﷺ من مكة للمدينة","publishedAt":"2022-07-29T18:00:01Z","duration":"PT11M59S","thumbnail":"https://i.ytimg.com/vi/3nYfGE1q5Ug/mqdefault.jpg","viewCount":"4123","playlistId":"PLEkQk5xrP-tlArtGpeLWaqNM7h7IDeAVC","playlistName":"خطب الجمعة أ.د. يسري جبر","category":"خطب"},{"id":"-DzBC-lY75s","title":"كيف تحقق النَّبيّ ﷺ بالعبودية لله؟","publishedAt":"2022-07-31T18:00:00Z","duration":"PT9M57S","thumbnail":"https://i.ytimg.com/vi/-DzBC-lY75s/mqdefault.jpg","viewCount":"1707","playlistId":"PLEkQk5xrP-tlArtGpeLWaqNM7h7IDeAVC","playlistName":"خطب الجمعة أ.د. يسري جبر","category":"خطب"},{"id":"NAakoKdEQ28","title":"كيف تفهم آيات القرآن الكريم؟","publishedAt":"2022-08-03T18:00:19Z","duration":"PT8M27S","thumbnail":"https://i.ytimg.com/vi/NAakoKdEQ28/mqdefault.jpg","viewCount":"2679","playlistId":"PLEkQk5xrP-tlArtGpeLWaqNM7h7IDeAVC","playlistName":"خطب الجمعة أ.د. يسري جبر","category":"خطب"},{"id":"nu84NO3MeS4","title":"هل يجوز قول سيدنا محمد في الأذان والتشهد؟","publishedAt":"2022-08-06T18:00:30Z","duration":"PT17M21S","thumbnail":"https://i.ytimg.com/vi/nu84NO3MeS4/mqdefault.jpg","viewCount":"8260","playlistId":"PLEkQk5xrP-tlArtGpeLWaqNM7h7IDeAVC","playlistName":"خطب الجمعة أ.د. يسري جبر","category":"خطب"},{"id":"h0XKLFbHvPE","title":"قدرةُ الله عَزَّ وجَلَّ | أ.د. يسري جبر","publishedAt":"2022-08-14T18:00:22Z","duration":"PT8M25S","thumbnail":"https://i.ytimg.com/vi/h0XKLFbHvPE/mqdefault.jpg","viewCount":"3764","playlistId":"PLEkQk5xrP-tlArtGpeLWaqNM7h7IDeAVC","playlistName":"خطب الجمعة أ.د. يسري جبر","category":"خطب"},{"id":"UHZ6pvU2sUY","title":"نور الوجود والسبب في كل موجود ﷺ","publishedAt":"2022-08-15T18:00:12Z","duration":"PT24M42S","thumbnail":"https://i.ytimg.com/vi/UHZ6pvU2sUY/mqdefault.jpg","viewCount":"6655","playlistId":"PLEkQk5xrP-tlArtGpeLWaqNM7h7IDeAVC","playlistName":"خطب الجمعة أ.د. يسري جبر","category":"خطب"}],"total":660,"page":16,"pageSize":24,"totalPages":28}