{"items":[{"id":"PyXKrsYiqfM","title":"الحَدَاثةُ وأثرها في الواقع المُعَاش     د. يسري جبر","publishedAt":"2017-05-05T19:40:05Z","duration":"PT47M24S","thumbnail":"https://i.ytimg.com/vi/PyXKrsYiqfM/mqdefault.jpg","viewCount":"1828","playlistId":"PLEkQk5xrP-tlArtGpeLWaqNM7h7IDeAVC","playlistName":"خطب الجمعة أ.د. يسري جبر","category":"خطب"},{"id":"t1vG-qLjrTk","title":"تحويل القِبلة     د. يسري جبر","publishedAt":"2017-05-12T19:29:15Z","duration":"PT35M25S","thumbnail":"https://i.ytimg.com/vi/t1vG-qLjrTk/mqdefault.jpg","viewCount":"765","playlistId":"PLEkQk5xrP-tlArtGpeLWaqNM7h7IDeAVC","playlistName":"خطب الجمعة أ.د. يسري جبر","category":"خطب"},{"id":"NgvjZq-weU4","title":"الاستعداد لرمضان      د. يسري جبر","publishedAt":"2017-05-22T19:25:48Z","duration":"PT28M5S","thumbnail":"https://i.ytimg.com/vi/NgvjZq-weU4/mqdefault.jpg","viewCount":"3009","playlistId":"PLEkQk5xrP-tlArtGpeLWaqNM7h7IDeAVC","playlistName":"خطب الجمعة أ.د. يسري جبر","category":"خطب"},{"id":"4EwFl5PgBrI","title":"البُشرى بقُدوم شهر رمضان د.يسري جبر","publishedAt":"2017-05-27T17:40:49Z","duration":"PT45M51S","thumbnail":"https://i.ytimg.com/vi/4EwFl5PgBrI/mqdefault.jpg","viewCount":"1797","playlistId":"PLEkQk5xrP-tlArtGpeLWaqNM7h7IDeAVC","playlistName":"خطب الجمعة أ.د. يسري جبر","category":"خطب"},{"id":"isdm9697-AY","title":"رمضانيات  د.يسري جبر","publishedAt":"2017-06-06T17:12:48Z","duration":"PT39M48S","thumbnail":"https://i.ytimg.com/vi/isdm9697-AY/mqdefault.jpg","viewCount":"682","playlistId":"PLEkQk5xrP-tlArtGpeLWaqNM7h7IDeAVC","playlistName":"خطب الجمعة أ.د. يسري جبر","category":"خطب"},{"id":"aDzIOQcMyWE","title":"منوعات رمضانية   د. يسري جبر","publishedAt":"2017-06-10T17:45:11Z","duration":"PT35M56S","thumbnail":"https://i.ytimg.com/vi/aDzIOQcMyWE/mqdefault.jpg","viewCount":"645","playlistId":"PLEkQk5xrP-tlArtGpeLWaqNM7h7IDeAVC","playlistName":"خطب الجمعة أ.د. يسري جبر","category":"خطب"},{"id":"QX-tHl1_ftI","title":"حَولَ لَيلةِ القَدْرِ  د. يسري جبر","publishedAt":"2017-06-17T09:40:10Z","duration":"PT34M23S","thumbnail":"https://i.ytimg.com/vi/QX-tHl1_ftI/mqdefault.jpg","viewCount":"3313","playlistId":"PLEkQk5xrP-tlArtGpeLWaqNM7h7IDeAVC","playlistName":"خطب الجمعة أ.د. يسري جبر","category":"خطب"},{"id":"GrxCAi8AJDY","title":"حول ختام رمضان وزكاة الفطر","publishedAt":"2017-06-29T16:10:12Z","duration":"PT40M53S","thumbnail":"https://i.ytimg.com/vi/GrxCAi8AJDY/mqdefault.jpg","viewCount":"271","playlistId":"PLEkQk5xrP-tlArtGpeLWaqNM7h7IDeAVC","playlistName":"خطب الجمعة أ.د. يسري جبر","category":"خطب"},{"id":"QkZVa75skdA","title":"اتق الله حيثما كنت   د. يسري جبر","publishedAt":"2017-07-09T19:11:41Z","duration":"PT42M36S","thumbnail":"https://i.ytimg.com/vi/QkZVa75skdA/mqdefault.jpg","viewCount":"1192","playlistId":"PLEkQk5xrP-tlArtGpeLWaqNM7h7IDeAVC","playlistName":"خطب الجمعة أ.د. يسري جبر","category":"خطب"},{"id":"khA9Xs9gU8Y","title":"آداب الأشهر الحُرُم  د. يسري جبر","publishedAt":"2017-07-29T16:41:53Z","duration":"PT24M30S","thumbnail":"https://i.ytimg.com/vi/khA9Xs9gU8Y/mqdefault.jpg","viewCount":"423","playlistId":"PLEkQk5xrP-tlArtGpeLWaqNM7h7IDeAVC","playlistName":"خطب الجمعة أ.د. يسري جبر","category":"خطب"},{"id":"6xumJjZdSiU","title":"حول الحج   د.يسري جبر","publishedAt":"2017-08-05T19:24:15Z","duration":"PT42M8S","thumbnail":"https://i.ytimg.com/vi/6xumJjZdSiU/mqdefault.jpg","viewCount":"969","playlistId":"PLEkQk5xrP-tlArtGpeLWaqNM7h7IDeAVC","playlistName":"خطب الجمعة أ.د. يسري جبر","category":"خطب"},{"id":"ySL0oiHv6hw","title":"الحَجُّ أَشْهُرٌ مَعْلُومَات    د.يسري جبر","publishedAt":"2017-08-13T19:04:38Z","duration":"PT35M18S","thumbnail":"https://i.ytimg.com/vi/ySL0oiHv6hw/mqdefault.jpg","viewCount":"368","playlistId":"PLEkQk5xrP-tlArtGpeLWaqNM7h7IDeAVC","playlistName":"خطب الجمعة أ.د. يسري جبر","category":"خطب"},{"id":"kk3I_DS5Igs","title":"ما من أَيام الْعملُ الصَّالح فيهِا أَحبُّ إِلى اللَّه من هذه الأيام يعني أيام العشرِ د.يسري جبر","publishedAt":"2017-08-29T16:59:26Z","duration":"PT40M50S","thumbnail":"https://i.ytimg.com/vi/kk3I_DS5Igs/mqdefault.jpg","viewCount":"428","playlistId":"PLEkQk5xrP-tlArtGpeLWaqNM7h7IDeAVC","playlistName":"خطب الجمعة أ.د. يسري جبر","category":"خطب"},{"id":"lnckMw50eeg","title":"إنَّ الله كتب الإحسان على كل شيء    د.يسري جبر","publishedAt":"2017-09-03T18:17:41Z","duration":"PT38M16S","thumbnail":"https://i.ytimg.com/vi/lnckMw50eeg/mqdefault.jpg","viewCount":"700","playlistId":"PLEkQk5xrP-tlArtGpeLWaqNM7h7IDeAVC","playlistName":"خطب الجمعة أ.د. يسري جبر","category":"خطب"},{"id":"AiNTTgPLNgk","title":"وَلَا تَسُبُّوا الَّذِينَ يَدْعُونَ مِن دُونِ اللَّهِ فَيَسُبُّوا اللَّهَ عَدْوًا بِغَيْرِ عِلْمٍ","publishedAt":"2017-09-08T21:07:51Z","duration":"PT33M3S","thumbnail":"https://i.ytimg.com/vi/AiNTTgPLNgk/mqdefault.jpg","viewCount":"405","playlistId":"PLEkQk5xrP-tlArtGpeLWaqNM7h7IDeAVC","playlistName":"خطب الجمعة أ.د. يسري جبر","category":"خطب"},{"id":"Iz13ivQDXfw","title":"كيفية تطبيق الإسلام في المراحل الزمنية المختلفة","publishedAt":"2017-09-24T20:06:25Z","duration":"PT36M46S","thumbnail":"https://i.ytimg.com/vi/Iz13ivQDXfw/mqdefault.jpg","viewCount":"457","playlistId":"PLEkQk5xrP-tlArtGpeLWaqNM7h7IDeAVC","playlistName":"خطب الجمعة أ.د. يسري جبر","category":"خطب"},{"id":"WaiUe1Mk7D8","title":"حول الهجرة وفتنة الأسرة المعاصرة د.يسري جبر","publishedAt":"2017-10-02T19:52:50Z","duration":"PT41M51S","thumbnail":"https://i.ytimg.com/vi/WaiUe1Mk7D8/mqdefault.jpg","viewCount":"965","playlistId":"PLEkQk5xrP-tlArtGpeLWaqNM7h7IDeAVC","playlistName":"خطب الجمعة أ.د. يسري جبر","category":"خطب"},{"id":"deVcBZYmPC0","title":"نصائح حول اختيار المدرسة في مصر","publishedAt":"2017-10-07T13:53:04Z","duration":"PT30M32S","thumbnail":"https://i.ytimg.com/vi/deVcBZYmPC0/mqdefault.jpg","viewCount":"493","playlistId":"PLEkQk5xrP-tlArtGpeLWaqNM7h7IDeAVC","playlistName":"خطب الجمعة أ.د. يسري جبر","category":"خطب"},{"id":"qvn2amnc0SI","title":"حول تربية الأولاد في الإسلام","publishedAt":"2017-10-14T10:09:31Z","duration":"PT41M19S","thumbnail":"https://i.ytimg.com/vi/qvn2amnc0SI/mqdefault.jpg","viewCount":"1202","playlistId":"PLEkQk5xrP-tlArtGpeLWaqNM7h7IDeAVC","playlistName":"خطب الجمعة أ.د. يسري جبر","category":"خطب"},{"id":"wzUPm8jihYo","title":"حول القطب سيدي إبراهيم الدسوقي","publishedAt":"2017-10-21T07:10:14Z","duration":"PT42M32S","thumbnail":"https://i.ytimg.com/vi/wzUPm8jihYo/mqdefault.jpg","viewCount":"111128","playlistId":"PLEkQk5xrP-tlArtGpeLWaqNM7h7IDeAVC","playlistName":"خطب الجمعة أ.د. يسري جبر","category":"خطب"},{"id":"iY9fuOJp2O0","title":"حول التوكل والتفويض والثقة والتسليم","publishedAt":"2017-10-29T14:02:02Z","duration":"PT34M20S","thumbnail":"https://i.ytimg.com/vi/iY9fuOJp2O0/mqdefault.jpg","viewCount":"26753","playlistId":"PLEkQk5xrP-tlArtGpeLWaqNM7h7IDeAVC","playlistName":"خطب الجمعة أ.د. يسري جبر","category":"خطب"},{"id":"XRZu3PJAfiY","title":"منظور الحب في الإسلام","publishedAt":"2017-11-06T04:39:03Z","duration":"PT36M42S","thumbnail":"https://i.ytimg.com/vi/XRZu3PJAfiY/mqdefault.jpg","viewCount":"786","playlistId":"PLEkQk5xrP-tlArtGpeLWaqNM7h7IDeAVC","playlistName":"خطب الجمعة أ.د. يسري جبر","category":"خطب"},{"id":"beCyefqZ_v0","title":"الوفاء بالعهد","publishedAt":"2017-11-13T21:06:42Z","duration":"PT40M4S","thumbnail":"https://i.ytimg.com/vi/beCyefqZ_v0/mqdefault.jpg","viewCount":"384","playlistId":"PLEkQk5xrP-tlArtGpeLWaqNM7h7IDeAVC","playlistName":"خطب الجمعة أ.د. يسري جبر","category":"خطب"},{"id":"6Brrs_Kkto4","title":"إسلام الوجه لله","publishedAt":"2017-11-21T13:40:59Z","duration":"PT39M59S","thumbnail":"https://i.ytimg.com/vi/6Brrs_Kkto4/mqdefault.jpg","viewCount":"375","playlistId":"PLEkQk5xrP-tlArtGpeLWaqNM7h7IDeAVC","playlistName":"خطب الجمعة أ.د. يسري جبر","category":"خطب"}],"total":660,"page":5,"pageSize":24,"totalPages":28}