{"items":[{"id":"us1XfuP0hpU","title":"خطبة الجمعة - الفوائد اليسرية فى الهجرة النبوية","publishedAt":"2014-11-01T18:15:21Z","duration":"PT36M30S","thumbnail":"https://i.ytimg.com/vi/us1XfuP0hpU/mqdefault.jpg","viewCount":"693","playlistId":"PLEkQk5xrP-tlArtGpeLWaqNM7h7IDeAVC","playlistName":"خطب الجمعة أ.د. يسري جبر","category":"خطب"},{"id":"PRQBzMA7Rfo","title":"ذكرى عاشوراء وماحدث فى كربلاء","publishedAt":"2014-11-12T13:42:38Z","duration":"PT39M54S","thumbnail":"https://i.ytimg.com/vi/PRQBzMA7Rfo/mqdefault.jpg","viewCount":"1549","playlistId":"PLEkQk5xrP-tlArtGpeLWaqNM7h7IDeAVC","playlistName":"خطب الجمعة أ.د. يسري جبر","category":"خطب"},{"id":"YZuas-t1cJI","title":"( وسَارعوا إِلى مَغفِرةٍ مِن ربِّكم )","publishedAt":"2014-11-15T20:49:00Z","duration":"PT36M5S","thumbnail":"https://i.ytimg.com/vi/YZuas-t1cJI/mqdefault.jpg","viewCount":"1046","playlistId":"PLEkQk5xrP-tlArtGpeLWaqNM7h7IDeAVC","playlistName":"خطب الجمعة أ.د. يسري جبر","category":"خطب"},{"id":"4FNwzK8YdIU","title":"الفرق بين الجسد والروح والنفس وما هى أنواع النفوس","publishedAt":"2014-11-25T17:12:28Z","duration":"PT31M52S","thumbnail":"https://i.ytimg.com/vi/4FNwzK8YdIU/mqdefault.jpg","viewCount":"5948","playlistId":"PLEkQk5xrP-tlArtGpeLWaqNM7h7IDeAVC","playlistName":"خطب الجمعة أ.د. يسري جبر","category":"خطب"},{"id":"TNeDkG9QdR4","title":"آداب التعامل مع القرآن الكريم","publishedAt":"2014-11-29T19:34:04Z","duration":"PT40M14S","thumbnail":"https://i.ytimg.com/vi/TNeDkG9QdR4/mqdefault.jpg","viewCount":"1100","playlistId":"PLEkQk5xrP-tlArtGpeLWaqNM7h7IDeAVC","playlistName":"خطب الجمعة أ.د. يسري جبر","category":"خطب"},{"id":"TbvQkBK5wwk","title":"مِن العبادات المهجورة","publishedAt":"2014-12-12T18:02:10Z","duration":"PT30M22S","thumbnail":"https://i.ytimg.com/vi/TbvQkBK5wwk/mqdefault.jpg","viewCount":"975","playlistId":"PLEkQk5xrP-tlArtGpeLWaqNM7h7IDeAVC","playlistName":"خطب الجمعة أ.د. يسري جبر","category":"خطب"},{"id":"Gi0ml7zkSv0","title":"من العبادات المهجورة 2","publishedAt":"2014-12-19T20:09:20Z","duration":"PT41M48S","thumbnail":"https://i.ytimg.com/vi/Gi0ml7zkSv0/mqdefault.jpg","viewCount":"717","playlistId":"PLEkQk5xrP-tlArtGpeLWaqNM7h7IDeAVC","playlistName":"خطب الجمعة أ.د. يسري جبر","category":"خطب"},{"id":"O3C02pfagF4","title":"الإحتفال بذكرى سيّد الأكوان صلى الله عليه وآله وسلم","publishedAt":"2015-01-03T07:15:05Z","duration":"PT42M1S","thumbnail":"https://i.ytimg.com/vi/O3C02pfagF4/mqdefault.jpg","viewCount":"513","playlistId":"PLEkQk5xrP-tlArtGpeLWaqNM7h7IDeAVC","playlistName":"خطب الجمعة أ.د. يسري جبر","category":"خطب"},{"id":"p1PUxEr9iJg","title":"وصفُ النبّى صلّى الله عليه وآله وسلّم","publishedAt":"2015-01-09T19:16:35Z","duration":"PT40M28S","thumbnail":"https://i.ytimg.com/vi/p1PUxEr9iJg/mqdefault.jpg","viewCount":"571","playlistId":"PLEkQk5xrP-tlArtGpeLWaqNM7h7IDeAVC","playlistName":"خطب الجمعة أ.د. يسري جبر","category":"خطب"},{"id":"BUyje5Zs5zQ","title":"مَنْ مِثْلُهُ ؟ صلّى اللهُ عليه وآله وسلّم","publishedAt":"2015-01-17T17:26:43Z","duration":"PT34M20S","thumbnail":"https://i.ytimg.com/vi/BUyje5Zs5zQ/mqdefault.jpg","viewCount":"535","playlistId":"PLEkQk5xrP-tlArtGpeLWaqNM7h7IDeAVC","playlistName":"خطب الجمعة أ.د. يسري جبر","category":"خطب"},{"id":"HTdbUDXV1DA","title":"الصِراع بَيْنَ العِلْمِ والثَقَافة","publishedAt":"2015-01-24T17:55:09Z","duration":"PT51M4S","thumbnail":"https://i.ytimg.com/vi/HTdbUDXV1DA/mqdefault.jpg","viewCount":"601","playlistId":"PLEkQk5xrP-tlArtGpeLWaqNM7h7IDeAVC","playlistName":"خطب الجمعة أ.د. يسري جبر","category":"خطب"},{"id":"-GQMzwDEoac","title":"من العبادات المهجورة 3","publishedAt":"2015-01-30T20:25:19Z","duration":"PT24M9S","thumbnail":"https://i.ytimg.com/vi/-GQMzwDEoac/mqdefault.jpg","viewCount":"821","playlistId":"PLEkQk5xrP-tlArtGpeLWaqNM7h7IDeAVC","playlistName":"خطب الجمعة أ.د. يسري جبر","category":"خطب"},{"id":"X12LVGqh1ss","title":"مِنَ العِبَادَاتِ المَهْجُورَةِ 4","publishedAt":"2015-02-06T18:55:46Z","duration":"PT29M7S","thumbnail":"https://i.ytimg.com/vi/X12LVGqh1ss/mqdefault.jpg","viewCount":"310","playlistId":"PLEkQk5xrP-tlArtGpeLWaqNM7h7IDeAVC","playlistName":"خطب الجمعة أ.د. يسري جبر","category":"خطب"},{"id":"zu2SqvhbKIk","title":"إِنَّمَا يُوفَّى الصَّابِرونَ أَجْرَهُم بِغَيرِ حِسَاب","publishedAt":"2015-02-14T17:44:49Z","duration":"PT32M45S","thumbnail":"https://i.ytimg.com/vi/zu2SqvhbKIk/mqdefault.jpg","viewCount":"297","playlistId":"PLEkQk5xrP-tlArtGpeLWaqNM7h7IDeAVC","playlistName":"خطب الجمعة أ.د. يسري جبر","category":"خطب"},{"id":"g6PiBkrizM4","title":"المُرادُ مِنَ البَلاءِ هُوَ الصَّبْرُ وَالمُصَابَرَةُ وَالمُرَابَطَةُ","publishedAt":"2015-02-20T21:34:44Z","duration":"PT23M11S","thumbnail":"https://i.ytimg.com/vi/g6PiBkrizM4/mqdefault.jpg","viewCount":"714","playlistId":"PLEkQk5xrP-tlArtGpeLWaqNM7h7IDeAVC","playlistName":"خطب الجمعة أ.د. يسري جبر","category":"خطب"},{"id":"AQrV5wFKjb4","title":"كَفَى بِالمَرْءِ إِثْمًا أَن يُضَيِّعَ مَن يَقُوت","publishedAt":"2015-03-07T19:24:49Z","duration":"PT38M31S","thumbnail":"https://i.ytimg.com/vi/AQrV5wFKjb4/mqdefault.jpg","viewCount":"685","playlistId":"PLEkQk5xrP-tlArtGpeLWaqNM7h7IDeAVC","playlistName":"خطب الجمعة أ.د. يسري جبر","category":"خطب"},{"id":"avDW585674o","title":"١- حول ظاهرة الكسوف وكيفية صلاتها ٢- الفرق بين الجهاد فى الله والجهاد فى سبيل الله","publishedAt":"2015-03-21T03:19:07Z","duration":"PT34M50S","thumbnail":"https://i.ytimg.com/vi/avDW585674o/mqdefault.jpg","viewCount":"138","playlistId":"PLEkQk5xrP-tlArtGpeLWaqNM7h7IDeAVC","playlistName":"خطب الجمعة أ.د. يسري جبر","category":"خطب"},{"id":"LW77HqEydys","title":"كن مع الله د. يسري جبر","publishedAt":"2015-04-02T21:31:58Z","duration":"PT16M38S","thumbnail":"https://i.ytimg.com/vi/LW77HqEydys/mqdefault.jpg","viewCount":"540","playlistId":"PLEkQk5xrP-tlArtGpeLWaqNM7h7IDeAVC","playlistName":"خطب الجمعة أ.د. يسري جبر","category":"خطب"},{"id":"1eYYCSazEO0","title":"خُطُورَةُ التَّأَلِّى عَلَى الله  د. يسرى جبر","publishedAt":"2015-04-04T14:30:24Z","duration":"PT43M41S","thumbnail":"https://i.ytimg.com/vi/1eYYCSazEO0/mqdefault.jpg","viewCount":"444","playlistId":"PLEkQk5xrP-tlArtGpeLWaqNM7h7IDeAVC","playlistName":"خطب الجمعة أ.د. يسري جبر","category":"خطب"},{"id":"9ysgXZsUVec","title":"مولد سيدة نساء العالمين الزهراء فاطمة البتول رضى الله تعالى عنها وعليها السلام","publishedAt":"2015-04-11T04:53:00Z","duration":"PT37M21S","thumbnail":"https://i.ytimg.com/vi/9ysgXZsUVec/mqdefault.jpg","viewCount":"908","playlistId":"PLEkQk5xrP-tlArtGpeLWaqNM7h7IDeAVC","playlistName":"خطب الجمعة أ.د. يسري جبر","category":"خطب"},{"id":"JOIhcrICNNQ","title":"ذِكْرَى مَولِدِ النَّبِىِّ صَلَّى اللهُ عَلَيهِ وَآلِهِ وَسَلَّمَ بالتاريخ الميلادى","publishedAt":"2015-04-18T19:51:02Z","duration":"PT35M46S","thumbnail":"https://i.ytimg.com/vi/JOIhcrICNNQ/mqdefault.jpg","viewCount":"1306","playlistId":"PLEkQk5xrP-tlArtGpeLWaqNM7h7IDeAVC","playlistName":"خطب الجمعة أ.د. يسري جبر","category":"خطب"},{"id":"tJAa4oqz9yI","title":"أفَلا يَتَدَبَّرُونَ القُراءَنَ وَلَوكَانَ مِن عِندِ غَيرِ اللهِ لَوَجَدُوافِيهِ اخۡتِلَافَا كَثيرًا","publishedAt":"2015-04-24T21:14:44Z","duration":"PT40M14S","thumbnail":"https://i.ytimg.com/vi/tJAa4oqz9yI/mqdefault.jpg","viewCount":"240","playlistId":"PLEkQk5xrP-tlArtGpeLWaqNM7h7IDeAVC","playlistName":"خطب الجمعة أ.د. يسري جبر","category":"خطب"},{"id":"Wh23wLKvEKA","title":"العقل بين الاعتراض والانقياد د. يسري جبر","publishedAt":"2015-05-02T18:26:12Z","duration":"PT38M8S","thumbnail":"https://i.ytimg.com/vi/Wh23wLKvEKA/mqdefault.jpg","viewCount":"443","playlistId":"PLEkQk5xrP-tlArtGpeLWaqNM7h7IDeAVC","playlistName":"خطب الجمعة أ.د. يسري جبر","category":"خطب"},{"id":"V0TXJhBLbdw","title":"ثُمَّ لَا يَجِدُواْ فِيٓ أَنفُسِهِمۡ حَرَجٗا مِّمَّا قَضَيۡتَ وَيُسَلِّمُواْ تَسۡلِيمٗا د.يسري جبر","publishedAt":"2015-05-08T20:56:27Z","duration":"PT37M44S","thumbnail":"https://i.ytimg.com/vi/V0TXJhBLbdw/mqdefault.jpg","viewCount":"252","playlistId":"PLEkQk5xrP-tlArtGpeLWaqNM7h7IDeAVC","playlistName":"خطب الجمعة أ.د. يسري جبر","category":"خطب"}],"total":660,"page":1,"pageSize":24,"totalPages":28}