{"items":[{"id":"wtAFSlQ3Pts","title":"شرح كتاب الأحكام من سنن الترمذي - المجلس  الرابع","publishedAt":"2015-06-11T04:14:32Z","duration":"PT27M46S","thumbnail":"https://i.ytimg.com/vi/wtAFSlQ3Pts/mqdefault.jpg","viewCount":"301","playlistId":"PLEkQk5xrP-tnu6of679SvxdVx0qSrJzmb","playlistName":"شرح سنن الإمام الترمذي رضى الله عنه د. يسري جبر","category":"متنوع"},{"id":"cSTrZiWLa2c","title":"شرح كتاب الأحكام من سنن الترمذي - المجلس الثاني","publishedAt":"2015-06-09T03:53:03Z","duration":"PT34M12S","thumbnail":"https://i.ytimg.com/vi/cSTrZiWLa2c/mqdefault.jpg","viewCount":"301","playlistId":"PLEkQk5xrP-tnu6of679SvxdVx0qSrJzmb","playlistName":"شرح سنن الإمام الترمذي رضى الله عنه د. يسري جبر","category":"متنوع"},{"id":"XFS70b5ax0g","title":"مقرأة سورة المؤمنون آية ٢٣","publishedAt":"2018-02-23T08:34:27Z","duration":"PT22M41S","thumbnail":"https://i.ytimg.com/vi/XFS70b5ax0g/mqdefault.jpg","viewCount":"301","playlistId":"PLEkQk5xrP-tnmTYsyW6xNdyfhPq0Bhrhj","playlistName":"مقرأة الفجر - القُرْآنُ الكَرِيمُ - خَتْمَةُ التَّدَبُّرِ  أ.د. يسري جبر","category":"متنوع"},{"id":"euievgGixKA","title":"شرح كتاب الدعوات من سنن الترمذي - المجلس الأول","publishedAt":"2016-05-14T01:33:39Z","duration":"PT44M33S","thumbnail":"https://i.ytimg.com/vi/euievgGixKA/mqdefault.jpg","viewCount":"301","playlistId":"PLEkQk5xrP-tnu6of679SvxdVx0qSrJzmb","playlistName":"شرح سنن الإمام الترمذي رضى الله عنه د. يسري جبر","category":"متنوع"},{"id":"RNcdBqpXmUU","title":"شرح سنن الدارمي كتاب الأضاحي من أوله","publishedAt":"2019-07-18T07:58:41Z","duration":"PT33M43S","thumbnail":"https://i.ytimg.com/vi/RNcdBqpXmUU/mqdefault.jpg","viewCount":"301","playlistId":"PLEkQk5xrP-tmAg-FuWjY057X_h5NmGmAa","playlistName":"شرح سنن الدارمي - أ.د. يسري جبر (كاملا)","category":"متنوع"},{"id":"EJ8w38iAtIw","title":"شرح سنن الدارمي كتاب الديات من باب ٥","publishedAt":"2019-08-21T18:16:43Z","duration":"PT32M58S","thumbnail":"https://i.ytimg.com/vi/EJ8w38iAtIw/mqdefault.jpg","viewCount":"300","playlistId":"PLEkQk5xrP-tmAg-FuWjY057X_h5NmGmAa","playlistName":"شرح سنن الدارمي - أ.د. يسري جبر (كاملا)","category":"متنوع"},{"id":"QnfCt6oO-nc","title":"مقرأة سورة يونس من آية ٤١","publishedAt":"2017-05-15T11:14:58Z","duration":"PT10M47S","thumbnail":"https://i.ytimg.com/vi/QnfCt6oO-nc/mqdefault.jpg","viewCount":"300","playlistId":"PLEkQk5xrP-tnmTYsyW6xNdyfhPq0Bhrhj","playlistName":"مقرأة الفجر - القُرْآنُ الكَرِيمُ - خَتْمَةُ التَّدَبُّرِ  أ.د. يسري جبر","category":"متنوع"},{"id":"33O5Jia5knY","title":"( 101 ) حَدِيثُ النَّهْىِ عَنِ الجُلُوسِ عَلَى الطَرِيقِ","publishedAt":"2015-10-30T11:01:54Z","duration":"PT35M52S","thumbnail":"https://i.ytimg.com/vi/33O5Jia5knY/mqdefault.jpg","viewCount":"300","playlistId":"PLEkQk5xrP-tnl7vb7KeAoPd5ZlqKKW8KV","playlistName":"شرح كتاب بهجة النفوس أ.د . يسرى جبر","category":"متنوع"},{"id":"h2yxVqfII_o","title":"مقرأة سورة النمل من آية ٢٧","publishedAt":"2018-04-29T09:41:54Z","duration":"PT14M34S","thumbnail":"https://i.ytimg.com/vi/h2yxVqfII_o/mqdefault.jpg","viewCount":"299","playlistId":"PLEkQk5xrP-tnmTYsyW6xNdyfhPq0Bhrhj","playlistName":"مقرأة الفجر - القُرْآنُ الكَرِيمُ - خَتْمَةُ التَّدَبُّرِ  أ.د. يسري جبر","category":"متنوع"},{"id":"60MU5WDs8nE","title":"سورة التوبة آية 75","publishedAt":"2017-04-26T08:21:39Z","duration":"PT10M38S","thumbnail":"https://i.ytimg.com/vi/60MU5WDs8nE/mqdefault.jpg","viewCount":"299","playlistId":"PLEkQk5xrP-tnmTYsyW6xNdyfhPq0Bhrhj","playlistName":"مقرأة الفجر - القُرْآنُ الكَرِيمُ - خَتْمَةُ التَّدَبُّرِ  أ.د. يسري جبر","category":"متنوع"},{"id":"TbgqklcWsBE","title":"( 119 ) حديث الإفك وبراءة السيدة عائشة أم المؤمنين منه - المجلس الثالث عشر د. يسري جبر","publishedAt":"2017-05-27T15:35:01Z","duration":"PT36M3S","thumbnail":"https://i.ytimg.com/vi/TbgqklcWsBE/mqdefault.jpg","viewCount":"299","playlistId":"PLEkQk5xrP-tnl7vb7KeAoPd5ZlqKKW8KV","playlistName":"شرح كتاب بهجة النفوس أ.د . يسرى جبر","category":"متنوع"},{"id":"wyyyj1S9iUc","title":"سورة التوبة آية 34","publishedAt":"2017-04-15T07:59:11Z","duration":"PT12M30S","thumbnail":"https://i.ytimg.com/vi/wyyyj1S9iUc/mqdefault.jpg","viewCount":"299","playlistId":"PLEkQk5xrP-tnmTYsyW6xNdyfhPq0Bhrhj","playlistName":"مقرأة الفجر - القُرْآنُ الكَرِيمُ - خَتْمَةُ التَّدَبُّرِ  أ.د. يسري جبر","category":"متنوع"},{"id":"LCfQ_k2m28c","title":"56- باب مَا يُنْهَى عَنْهُ مِنَ الضَّحَايَا ك الموطأ د يسري جبر الأزهري","publishedAt":"2017-09-14T13:43:27Z","duration":"PT1H5M43S","thumbnail":"https://i.ytimg.com/vi/LCfQ_k2m28c/mqdefault.jpg","viewCount":"299","playlistId":"PLEkQk5xrP-tnC6BRuqMjyO-484iqXeg0o","playlistName":"شرح كتاب الموطأ للإمام مالك","category":"متنوع"},{"id":"Of_ayaiPjL4","title":"مقرأة سورة الصافات من آية ١١٤","publishedAt":"2018-09-23T08:18:33Z","duration":"PT19M49S","thumbnail":"https://i.ytimg.com/vi/Of_ayaiPjL4/mqdefault.jpg","viewCount":"299","playlistId":"PLEkQk5xrP-tnmTYsyW6xNdyfhPq0Bhrhj","playlistName":"مقرأة الفجر - القُرْآنُ الكَرِيمُ - خَتْمَةُ التَّدَبُّرِ  أ.د. يسري جبر","category":"متنوع"},{"id":"pG-HnaU66yA","title":"61- باب مَا جَاءَ فِى الْخِطْبَةِ ك الموطأ د يسري جبر الأزهري","publishedAt":"2018-06-09T11:24:41Z","duration":"PT53M48S","thumbnail":"https://i.ytimg.com/vi/pG-HnaU66yA/mqdefault.jpg","viewCount":"299","playlistId":"PLEkQk5xrP-tnC6BRuqMjyO-484iqXeg0o","playlistName":"شرح كتاب الموطأ للإمام مالك","category":"متنوع"},{"id":"2qrutPwgxMw","title":"مقرأة سورة القصص من آية ٨٣","publishedAt":"2018-06-02T11:05:25Z","duration":"PT21M36S","thumbnail":"https://i.ytimg.com/vi/2qrutPwgxMw/mqdefault.jpg","viewCount":"299","playlistId":"PLEkQk5xrP-tnmTYsyW6xNdyfhPq0Bhrhj","playlistName":"مقرأة الفجر - القُرْآنُ الكَرِيمُ - خَتْمَةُ التَّدَبُّرِ  أ.د. يسري جبر","category":"متنوع"},{"id":"ZJ3Qe-y0AzA","title":"مقرأة سورة الرعد من آية ٣٢","publishedAt":"2017-07-23T09:28:50Z","duration":"PT13M50S","thumbnail":"https://i.ytimg.com/vi/ZJ3Qe-y0AzA/mqdefault.jpg","viewCount":"298","playlistId":"PLEkQk5xrP-tnmTYsyW6xNdyfhPq0Bhrhj","playlistName":"مقرأة الفجر - القُرْآنُ الكَرِيمُ - خَتْمَةُ التَّدَبُّرِ  أ.د. يسري جبر","category":"متنوع"},{"id":"iYTJ1saNEWI","title":"مقرأة سورة هود من آية ١٠٦","publishedAt":"2017-06-18T08:07:10Z","duration":"PT18M59S","thumbnail":"https://i.ytimg.com/vi/iYTJ1saNEWI/mqdefault.jpg","viewCount":"298","playlistId":"PLEkQk5xrP-tnmTYsyW6xNdyfhPq0Bhrhj","playlistName":"مقرأة الفجر - القُرْآنُ الكَرِيمُ - خَتْمَةُ التَّدَبُّرِ  أ.د. يسري جبر","category":"متنوع"},{"id":"JE2viEmMdks","title":"مقرأة سورة الأنبياء من آية ٨٣","publishedAt":"2017-12-21T09:23:34Z","duration":"PT18M15S","thumbnail":"https://i.ytimg.com/vi/JE2viEmMdks/mqdefault.jpg","viewCount":"298","playlistId":"PLEkQk5xrP-tnmTYsyW6xNdyfhPq0Bhrhj","playlistName":"مقرأة الفجر - القُرْآنُ الكَرِيمُ - خَتْمَةُ التَّدَبُّرِ  أ.د. يسري جبر","category":"متنوع"},{"id":"Mtw_ccajJR4","title":"مقرأة سورة النور من آية ٢٢","publishedAt":"2018-03-13T10:16:47Z","duration":"PT10M21S","thumbnail":"https://i.ytimg.com/vi/Mtw_ccajJR4/mqdefault.jpg","viewCount":"297","playlistId":"PLEkQk5xrP-tnmTYsyW6xNdyfhPq0Bhrhj","playlistName":"مقرأة الفجر - القُرْآنُ الكَرِيمُ - خَتْمَةُ التَّدَبُّرِ  أ.د. يسري جبر","category":"متنوع"},{"id":"JeCJUOtZd9A","title":"مقرأة سورة النور من آية ٤١","publishedAt":"2018-03-20T14:45:48Z","duration":"PT17M17S","thumbnail":"https://i.ytimg.com/vi/JeCJUOtZd9A/mqdefault.jpg","viewCount":"297","playlistId":"PLEkQk5xrP-tnmTYsyW6xNdyfhPq0Bhrhj","playlistName":"مقرأة الفجر - القُرْآنُ الكَرِيمُ - خَتْمَةُ التَّدَبُّرِ  أ.د. يسري جبر","category":"متنوع"},{"id":"gYyPcCSOjZg","title":"شرح سنن الدارمي كتاب الاستئذان من باب ١٣","publishedAt":"2019-09-20T09:32:50Z","duration":"PT31M27S","thumbnail":"https://i.ytimg.com/vi/gYyPcCSOjZg/mqdefault.jpg","viewCount":"296","playlistId":"PLEkQk5xrP-tmAg-FuWjY057X_h5NmGmAa","playlistName":"شرح سنن الدارمي - أ.د. يسري جبر (كاملا)","category":"متنوع"},{"id":"ZlCr8L0q7XQ","title":"مقرأة سورة الحج من آية ٢٩","publishedAt":"2018-02-01T13:07:12Z","duration":"PT18M53S","thumbnail":"https://i.ytimg.com/vi/ZlCr8L0q7XQ/mqdefault.jpg","viewCount":"296","playlistId":"PLEkQk5xrP-tnmTYsyW6xNdyfhPq0Bhrhj","playlistName":"مقرأة الفجر - القُرْآنُ الكَرِيمُ - خَتْمَةُ التَّدَبُّرِ  أ.د. يسري جبر","category":"متنوع"},{"id":"audZ7vD6c-0","title":"شرح كتاب صفة الجنة من سنن الترمذي - المجلس الأول","publishedAt":"2016-01-27T08:12:32Z","duration":"PT22M45S","thumbnail":"https://i.ytimg.com/vi/audZ7vD6c-0/mqdefault.jpg","viewCount":"296","playlistId":"PLEkQk5xrP-tnu6of679SvxdVx0qSrJzmb","playlistName":"شرح سنن الإمام الترمذي رضى الله عنه د. يسري جبر","category":"متنوع"}],"total":4126,"page":152,"pageSize":24,"totalPages":172}