{"items":[{"id":"699MRxYfARY","title":"مقرأة سورة النور من آية ٥٣","publishedAt":"2018-03-23T08:02:54Z","duration":"PT17M55S","thumbnail":"https://i.ytimg.com/vi/699MRxYfARY/mqdefault.jpg","viewCount":"252","playlistId":"PLEkQk5xrP-tnmTYsyW6xNdyfhPq0Bhrhj","playlistName":"مقرأة الفجر - القُرْآنُ الكَرِيمُ - خَتْمَةُ التَّدَبُّرِ  أ.د. يسري جبر","category":"متنوع"},{"id":"rED44puGedw","title":"مقرأة سورة فصلت من آية ٣٠","publishedAt":"2018-11-24T15:39:22Z","duration":"PT13M8S","thumbnail":"https://i.ytimg.com/vi/rED44puGedw/mqdefault.jpg","viewCount":"251","playlistId":"PLEkQk5xrP-tnmTYsyW6xNdyfhPq0Bhrhj","playlistName":"مقرأة الفجر - القُرْآنُ الكَرِيمُ - خَتْمَةُ التَّدَبُّرِ  أ.د. يسري جبر","category":"متنوع"},{"id":"4qMHQC2wWxQ","title":"مقرأة سورة القصص من آية ٧٦","publishedAt":"2018-06-01T18:47:06Z","duration":"PT16M43S","thumbnail":"https://i.ytimg.com/vi/4qMHQC2wWxQ/mqdefault.jpg","viewCount":"251","playlistId":"PLEkQk5xrP-tnmTYsyW6xNdyfhPq0Bhrhj","playlistName":"مقرأة الفجر - القُرْآنُ الكَرِيمُ - خَتْمَةُ التَّدَبُّرِ  أ.د. يسري جبر","category":"متنوع"},{"id":"p6tyWmZ0Ddo","title":"مقرأة سورة الفرقان من آية ٢٧","publishedAt":"2018-03-31T08:11:25Z","duration":"PT7M14S","thumbnail":"https://i.ytimg.com/vi/p6tyWmZ0Ddo/mqdefault.jpg","viewCount":"251","playlistId":"PLEkQk5xrP-tnmTYsyW6xNdyfhPq0Bhrhj","playlistName":"مقرأة الفجر - القُرْآنُ الكَرِيمُ - خَتْمَةُ التَّدَبُّرِ  أ.د. يسري جبر","category":"متنوع"},{"id":"kXAGiCfTGq0","title":"خُلق رسول الله صلى الله عليه وسلم | اعرف نبيك","publishedAt":"2015-09-09T16:16:56Z","duration":"PT6M34S","thumbnail":"https://i.ytimg.com/vi/kXAGiCfTGq0/mqdefault.jpg","viewCount":"250","playlistId":"PLEkQk5xrP-tl6Mu_Mz3QMUSv5T6XBH-Dg","playlistName":"برنامج اعرف نبيك","category":"متنوع"},{"id":"_KFF4a_b3sY","title":"شرح سنن الدارمي كتاب فضائل القرآن من باب ٢٥","publishedAt":"2019-12-15T00:01:13Z","duration":"PT16M9S","thumbnail":"https://i.ytimg.com/vi/_KFF4a_b3sY/mqdefault.jpg","viewCount":"249","playlistId":"PLEkQk5xrP-tmAg-FuWjY057X_h5NmGmAa","playlistName":"شرح سنن الدارمي - أ.د. يسري جبر (كاملا)","category":"متنوع"},{"id":"hQ9Is2iayUw","title":"( 119 ) حديث الإفك وبراءة السيدة عائشة أم المؤمنين منه - المجلس الرابع","publishedAt":"2016-07-04T17:36:43Z","duration":"PT30M32S","thumbnail":"https://i.ytimg.com/vi/hQ9Is2iayUw/mqdefault.jpg","viewCount":"248","playlistId":"PLEkQk5xrP-tnl7vb7KeAoPd5ZlqKKW8KV","playlistName":"شرح كتاب بهجة النفوس أ.د . يسرى جبر","category":"متنوع"},{"id":"f0LxsT8kCzc","title":"مقرأة سورة الزخرف من آية ٤٠","publishedAt":"2018-12-16T11:09:15Z","duration":"PT9M38S","thumbnail":"https://i.ytimg.com/vi/f0LxsT8kCzc/mqdefault.jpg","viewCount":"248","playlistId":"PLEkQk5xrP-tnmTYsyW6xNdyfhPq0Bhrhj","playlistName":"مقرأة الفجر - القُرْآنُ الكَرِيمُ - خَتْمَةُ التَّدَبُّرِ  أ.د. يسري جبر","category":"متنوع"},{"id":"xMe_l2e5z6U","title":"مقرأة سورة الروم من آية ٤٦","publishedAt":"2018-06-25T10:53:30Z","duration":"PT11M44S","thumbnail":"https://i.ytimg.com/vi/xMe_l2e5z6U/mqdefault.jpg","viewCount":"248","playlistId":"PLEkQk5xrP-tnmTYsyW6xNdyfhPq0Bhrhj","playlistName":"مقرأة الفجر - القُرْآنُ الكَرِيمُ - خَتْمَةُ التَّدَبُّرِ  أ.د. يسري جبر","category":"متنوع"},{"id":"yvkvlM1aLuk","title":"مقرأة سورة العنكبوت من آية ٤٦","publishedAt":"2018-06-11T07:24:19Z","duration":"PT23M27S","thumbnail":"https://i.ytimg.com/vi/yvkvlM1aLuk/mqdefault.jpg","viewCount":"247","playlistId":"PLEkQk5xrP-tnmTYsyW6xNdyfhPq0Bhrhj","playlistName":"مقرأة الفجر - القُرْآنُ الكَرِيمُ - خَتْمَةُ التَّدَبُّرِ  أ.د. يسري جبر","category":"متنوع"},{"id":"WS36N7yxZQQ","title":"مقرأة سورة الفرقان من آية ٢١","publishedAt":"2018-03-30T15:07:20Z","duration":"PT11M18S","thumbnail":"https://i.ytimg.com/vi/WS36N7yxZQQ/mqdefault.jpg","viewCount":"246","playlistId":"PLEkQk5xrP-tnmTYsyW6xNdyfhPq0Bhrhj","playlistName":"مقرأة الفجر - القُرْآنُ الكَرِيمُ - خَتْمَةُ التَّدَبُّرِ  أ.د. يسري جبر","category":"متنوع"},{"id":"yGu1QiqvE_4","title":"شرح كتاب الفتن من سنن الترمذي - المجلس السادس","publishedAt":"2015-12-19T07:19:53Z","duration":"PT35M44S","thumbnail":"https://i.ytimg.com/vi/yGu1QiqvE_4/mqdefault.jpg","viewCount":"246","playlistId":"PLEkQk5xrP-tnu6of679SvxdVx0qSrJzmb","playlistName":"شرح سنن الإمام الترمذي رضى الله عنه د. يسري جبر","category":"متنوع"},{"id":"8AN3osxIX8E","title":"مقرأة سورة فصلت من آية ٣٧","publishedAt":"2018-11-25T09:28:54Z","duration":"PT9M34S","thumbnail":"https://i.ytimg.com/vi/8AN3osxIX8E/mqdefault.jpg","viewCount":"245","playlistId":"PLEkQk5xrP-tnmTYsyW6xNdyfhPq0Bhrhj","playlistName":"مقرأة الفجر - القُرْآنُ الكَرِيمُ - خَتْمَةُ التَّدَبُّرِ  أ.د. يسري جبر","category":"متنوع"},{"id":"xUL19H_3bFY","title":"شرح سنن الدارمي كتاب الفرائض من باب ٤٦","publishedAt":"2019-10-29T23:15:18Z","duration":"PT30M15S","thumbnail":"https://i.ytimg.com/vi/xUL19H_3bFY/mqdefault.jpg","viewCount":"245","playlistId":"PLEkQk5xrP-tmAg-FuWjY057X_h5NmGmAa","playlistName":"شرح سنن الدارمي - أ.د. يسري جبر (كاملا)","category":"متنوع"},{"id":"eH8uekDI6MU","title":"80- باب الْحُكْرَةِ وَالتَّرَبُّصِ ك الموطأ د يسري جبر الأزهري","publishedAt":"2018-09-29T13:29:04Z","duration":"PT47M23S","thumbnail":"https://i.ytimg.com/vi/eH8uekDI6MU/mqdefault.jpg","viewCount":"245","playlistId":"PLEkQk5xrP-tnC6BRuqMjyO-484iqXeg0o","playlistName":"شرح كتاب الموطأ للإمام مالك","category":"متنوع"},{"id":"VBJnawCzUVs","title":"شرح كتاب السِّيَرمن سنن الترمذى - المجلس الأول","publishedAt":"2015-07-12T04:08:12Z","duration":"PT23M35S","thumbnail":"https://i.ytimg.com/vi/VBJnawCzUVs/mqdefault.jpg","viewCount":"245","playlistId":"PLEkQk5xrP-tnu6of679SvxdVx0qSrJzmb","playlistName":"شرح سنن الإمام الترمذي رضى الله عنه د. يسري جبر","category":"متنوع"},{"id":"fZ4KctCHYuU","title":"64- باب مَا جَاءَ فِى الإِحْصَانِ ك الموطأ د يسري جبر الأزهري","publishedAt":"2018-07-03T16:29:24Z","duration":"PT51M28S","thumbnail":"https://i.ytimg.com/vi/fZ4KctCHYuU/mqdefault.jpg","viewCount":"244","playlistId":"PLEkQk5xrP-tnC6BRuqMjyO-484iqXeg0o","playlistName":"شرح كتاب الموطأ للإمام مالك","category":"متنوع"},{"id":"Cbf-nWWQH2E","title":"شرح كتاب البيوع من سنن الترمذي - المجلس الرابع","publishedAt":"2015-05-27T03:57:21Z","duration":"PT44M6S","thumbnail":"https://i.ytimg.com/vi/Cbf-nWWQH2E/mqdefault.jpg","viewCount":"244","playlistId":"PLEkQk5xrP-tnu6of679SvxdVx0qSrJzmb","playlistName":"شرح سنن الإمام الترمذي رضى الله عنه د. يسري جبر","category":"متنوع"},{"id":"Lp3JXbJO2x4","title":"شرح سنن الدارمي كتاب الفرائض من باب ٣٢","publishedAt":"2019-10-23T21:44:53Z","duration":"PT28M24S","thumbnail":"https://i.ytimg.com/vi/Lp3JXbJO2x4/mqdefault.jpg","viewCount":"243","playlistId":"PLEkQk5xrP-tmAg-FuWjY057X_h5NmGmAa","playlistName":"شرح سنن الدارمي - أ.د. يسري جبر (كاملا)","category":"متنوع"},{"id":"z3rPc5cHxWk","title":"60- باب مِيرَاثِ الْجَدَّةِ ك الموطأ د يسري جبر الأزهري","publishedAt":"2017-09-20T12:47:10Z","duration":"PT54M9S","thumbnail":"https://i.ytimg.com/vi/z3rPc5cHxWk/mqdefault.jpg","viewCount":"243","playlistId":"PLEkQk5xrP-tnC6BRuqMjyO-484iqXeg0o","playlistName":"شرح كتاب الموطأ للإمام مالك","category":"متنوع"},{"id":"iW4if3uBVZU","title":"مقرأة سورة سبأ من آية ٣٤","publishedAt":"2018-08-13T07:55:16Z","duration":"PT9M30S","thumbnail":"https://i.ytimg.com/vi/iW4if3uBVZU/mqdefault.jpg","viewCount":"243","playlistId":"PLEkQk5xrP-tnmTYsyW6xNdyfhPq0Bhrhj","playlistName":"مقرأة الفجر - القُرْآنُ الكَرِيمُ - خَتْمَةُ التَّدَبُّرِ  أ.د. يسري جبر","category":"متنوع"},{"id":"LOP7RFzpJPc","title":"شرح كتاب الرؤيا من سنن الترمذي - المجلس الثاني","publishedAt":"2015-12-31T06:19:23Z","duration":"PT38M41S","thumbnail":"https://i.ytimg.com/vi/LOP7RFzpJPc/mqdefault.jpg","viewCount":"243","playlistId":"PLEkQk5xrP-tnu6of679SvxdVx0qSrJzmb","playlistName":"شرح سنن الإمام الترمذي رضى الله عنه د. يسري جبر","category":"متنوع"},{"id":"88LJFTh6RoY","title":"مقرأة سورة المؤمنون آية ٤٢","publishedAt":"2018-02-25T09:50:49Z","duration":"PT17M34S","thumbnail":"https://i.ytimg.com/vi/88LJFTh6RoY/mqdefault.jpg","viewCount":"242","playlistId":"PLEkQk5xrP-tnmTYsyW6xNdyfhPq0Bhrhj","playlistName":"مقرأة الفجر - القُرْآنُ الكَرِيمُ - خَتْمَةُ التَّدَبُّرِ  أ.د. يسري جبر","category":"متنوع"},{"id":"_IMG9fYX3p4","title":"شرح سنن الدارمي كتاب الفرائض من باب ٥٠","publishedAt":"2019-10-30T22:32:15Z","duration":"PT28M","thumbnail":"https://i.ytimg.com/vi/_IMG9fYX3p4/mqdefault.jpg","viewCount":"242","playlistId":"PLEkQk5xrP-tmAg-FuWjY057X_h5NmGmAa","playlistName":"شرح سنن الدارمي - أ.د. يسري جبر (كاملا)","category":"متنوع"}],"total":4126,"page":159,"pageSize":24,"totalPages":172}