{"items":[{"id":"OYqohOOP1lA","title":"شرح كتاب الطب من سنن الترمذي - المجلس السادس","publishedAt":"2015-12-07T01:51:15Z","duration":"PT33M7S","thumbnail":"https://i.ytimg.com/vi/OYqohOOP1lA/mqdefault.jpg","viewCount":"110","playlistId":"PLEkQk5xrP-tnu6of679SvxdVx0qSrJzmb","playlistName":"شرح سنن الإمام الترمذي رضى الله عنه د. يسري جبر","category":"متنوع"},{"id":"105bBH9M1_k","title":"شرح كتاب تفسير القرآن من سنن الترمذي - المجلس التاسع عشر","publishedAt":"2016-04-26T02:56:36Z","duration":"PT31M39S","thumbnail":"https://i.ytimg.com/vi/105bBH9M1_k/mqdefault.jpg","viewCount":"110","playlistId":"PLEkQk5xrP-tnu6of679SvxdVx0qSrJzmb","playlistName":"شرح سنن الإمام الترمذي رضى الله عنه د. يسري جبر","category":"متنوع"},{"id":"iu0hkM4OH3E","title":"شرح كتاب الأدب من سنن الترمذي - المجلس الثاني","publishedAt":"2016-03-10T13:10:46Z","duration":"PT41M16S","thumbnail":"https://i.ytimg.com/vi/iu0hkM4OH3E/mqdefault.jpg","viewCount":"110","playlistId":"PLEkQk5xrP-tnu6of679SvxdVx0qSrJzmb","playlistName":"شرح سنن الإمام الترمذي رضى الله عنه د. يسري جبر","category":"متنوع"},{"id":"pEyHP2CwAv8","title":"شرح كتاب الصيد والذبائح من سنن الترمذي - المجلس الرابع","publishedAt":"2015-07-04T03:40:45Z","duration":"PT24M16S","thumbnail":"https://i.ytimg.com/vi/pEyHP2CwAv8/mqdefault.jpg","viewCount":"110","playlistId":"PLEkQk5xrP-tnu6of679SvxdVx0qSrJzmb","playlistName":"شرح سنن الإمام الترمذي رضى الله عنه د. يسري جبر","category":"متنوع"},{"id":"ZsDW_Ot1sMs","title":"شرح كتاب المناقب من سنن الترمذي - المجلس السابع عشر","publishedAt":"2016-07-12T07:03:46Z","duration":"PT13M8S","thumbnail":"https://i.ytimg.com/vi/ZsDW_Ot1sMs/mqdefault.jpg","viewCount":"110","playlistId":"PLEkQk5xrP-tnu6of679SvxdVx0qSrJzmb","playlistName":"شرح سنن الإمام الترمذي رضى الله عنه د. يسري جبر","category":"متنوع"},{"id":"KHxnkeG7UJk","title":"شرح كتاب المناقب من سنن الترمذي - المجلس الخامس عشر","publishedAt":"2016-07-11T21:32:00Z","duration":"PT12M44S","thumbnail":"https://i.ytimg.com/vi/KHxnkeG7UJk/mqdefault.jpg","viewCount":"110","playlistId":"PLEkQk5xrP-tnu6of679SvxdVx0qSrJzmb","playlistName":"شرح سنن الإمام الترمذي رضى الله عنه د. يسري جبر","category":"متنوع"},{"id":"S3CbrdI-BlA","title":"شرح كتاب الأطعمة من سنن الترمذي - المجلس السادس","publishedAt":"2015-08-22T07:21:22Z","duration":"PT36M46S","thumbnail":"https://i.ytimg.com/vi/S3CbrdI-BlA/mqdefault.jpg","viewCount":"109","playlistId":"PLEkQk5xrP-tnu6of679SvxdVx0qSrJzmb","playlistName":"شرح سنن الإمام الترمذي رضى الله عنه د. يسري جبر","category":"متنوع"},{"id":"UYKvYBNBkUQ","title":"شرح كتاب المناقب من سنن الترمذي - المجلس العشرون","publishedAt":"2016-07-14T13:05:05Z","duration":"PT14M3S","thumbnail":"https://i.ytimg.com/vi/UYKvYBNBkUQ/mqdefault.jpg","viewCount":"109","playlistId":"PLEkQk5xrP-tnu6of679SvxdVx0qSrJzmb","playlistName":"شرح سنن الإمام الترمذي رضى الله عنه د. يسري جبر","category":"متنوع"},{"id":"WA_Lg-AnOK8","title":"شرح كتاب الأطعمة من جامع الترمذي - المجلس الثالث","publishedAt":"2015-08-19T04:40:23Z","duration":"PT32M30S","thumbnail":"https://i.ytimg.com/vi/WA_Lg-AnOK8/mqdefault.jpg","viewCount":"108","playlistId":"PLEkQk5xrP-tnu6of679SvxdVx0qSrJzmb","playlistName":"شرح سنن الإمام الترمذي رضى الله عنه د. يسري جبر","category":"متنوع"},{"id":"mmdI2jCrPas","title":"شرح كتاب الدعوات من سنن الترمذي - المجلس الثامن","publishedAt":"2016-05-24T01:30:43Z","duration":"PT26M1S","thumbnail":"https://i.ytimg.com/vi/mmdI2jCrPas/mqdefault.jpg","viewCount":"108","playlistId":"PLEkQk5xrP-tnu6of679SvxdVx0qSrJzmb","playlistName":"شرح سنن الإمام الترمذي رضى الله عنه د. يسري جبر","category":"متنوع"},{"id":"OuPo0ewQxt0","title":"شرح كتاب الإيمان من سنن الترمذي - المجلس الخامس","publishedAt":"2016-02-28T08:38:20Z","duration":"PT34M26S","thumbnail":"https://i.ytimg.com/vi/OuPo0ewQxt0/mqdefault.jpg","viewCount":"108","playlistId":"PLEkQk5xrP-tnu6of679SvxdVx0qSrJzmb","playlistName":"شرح سنن الإمام الترمذي رضى الله عنه د. يسري جبر","category":"متنوع"},{"id":"pWHOOnqFKiw","title":"شرح كتاب العلم من سنن الترمذي - المجلس الرابع","publishedAt":"2016-03-05T10:17:52Z","duration":"PT39M35S","thumbnail":"https://i.ytimg.com/vi/pWHOOnqFKiw/mqdefault.jpg","viewCount":"107","playlistId":"PLEkQk5xrP-tnu6of679SvxdVx0qSrJzmb","playlistName":"شرح سنن الإمام الترمذي رضى الله عنه د. يسري جبر","category":"متنوع"},{"id":"tmaJJEO8uzE","title":"شرح كتاب الحدود من سنن الترمذي - المجلس الخامس","publishedAt":"2015-06-27T05:07:47Z","duration":"PT18M58S","thumbnail":"https://i.ytimg.com/vi/tmaJJEO8uzE/mqdefault.jpg","viewCount":"106","playlistId":"PLEkQk5xrP-tnu6of679SvxdVx0qSrJzmb","playlistName":"شرح سنن الإمام الترمذي رضى الله عنه د. يسري جبر","category":"متنوع"},{"id":"2WtAPi-hUuI","title":"شرح كتاب الاستئذان والآداب من سنن الترمذي - المجلس الثالث","publishedAt":"2016-03-07T12:58:10Z","duration":"PT33M57S","thumbnail":"https://i.ytimg.com/vi/2WtAPi-hUuI/mqdefault.jpg","viewCount":"106","playlistId":"PLEkQk5xrP-tnu6of679SvxdVx0qSrJzmb","playlistName":"شرح سنن الإمام الترمذي رضى الله عنه د. يسري جبر","category":"متنوع"},{"id":"KE4ER6eV3SY","title":"شرح كتاب تفسير القرآن من سنن الترمذي - المجلس التاسع والعشرون","publishedAt":"2016-05-06T09:25:48Z","duration":"PT30M39S","thumbnail":"https://i.ytimg.com/vi/KE4ER6eV3SY/mqdefault.jpg","viewCount":"106","playlistId":"PLEkQk5xrP-tnu6of679SvxdVx0qSrJzmb","playlistName":"شرح سنن الإمام الترمذي رضى الله عنه د. يسري جبر","category":"متنوع"},{"id":"4BS4OHGo6bo","title":"شرح كتاب الأضاحي من سنن الترمذى - المجلس الرابع","publishedAt":"2015-07-08T03:58:02Z","duration":"PT28M50S","thumbnail":"https://i.ytimg.com/vi/4BS4OHGo6bo/mqdefault.jpg","viewCount":"106","playlistId":"PLEkQk5xrP-tnu6of679SvxdVx0qSrJzmb","playlistName":"شرح سنن الإمام الترمذي رضى الله عنه د. يسري جبر","category":"متنوع"},{"id":"2yg9hm3opac","title":"شرح كتاب الحدود من سنن الترمذي - المجلس السابع","publishedAt":"2015-06-29T04:14:30Z","duration":"PT24M17S","thumbnail":"https://i.ytimg.com/vi/2yg9hm3opac/mqdefault.jpg","viewCount":"105","playlistId":"PLEkQk5xrP-tnu6of679SvxdVx0qSrJzmb","playlistName":"شرح سنن الإمام الترمذي رضى الله عنه د. يسري جبر","category":"متنوع"},{"id":"iZli3a-8oyY","title":"شرح كتاب المناقب من سنن الترمذي - المجلس السادس عشر","publishedAt":"2016-07-12T03:26:50Z","duration":"PT11M1S","thumbnail":"https://i.ytimg.com/vi/iZli3a-8oyY/mqdefault.jpg","viewCount":"105","playlistId":"PLEkQk5xrP-tnu6of679SvxdVx0qSrJzmb","playlistName":"شرح سنن الإمام الترمذي رضى الله عنه د. يسري جبر","category":"متنوع"},{"id":"jcxOn-nolD4","title":"شرح كتاب المناقب من سنن الترمذي - المجلس الثامن عشر","publishedAt":"2016-07-14T10:42:09Z","duration":"PT14M34S","thumbnail":"https://i.ytimg.com/vi/jcxOn-nolD4/mqdefault.jpg","viewCount":"104","playlistId":"PLEkQk5xrP-tnu6of679SvxdVx0qSrJzmb","playlistName":"شرح سنن الإمام الترمذي رضى الله عنه د. يسري جبر","category":"متنوع"},{"id":"GPk3yn2gqEU","title":"شرح كتاب تفسير القرآن من سنن الترمذي - المجلس الثلاثون","publishedAt":"2016-05-08T02:35:51Z","duration":"PT30M26S","thumbnail":"https://i.ytimg.com/vi/GPk3yn2gqEU/mqdefault.jpg","viewCount":"104","playlistId":"PLEkQk5xrP-tnu6of679SvxdVx0qSrJzmb","playlistName":"شرح سنن الإمام الترمذي رضى الله عنه د. يسري جبر","category":"متنوع"},{"id":"xq1uZ4-K30s","title":"شرح كتاب الإيمان من سنن الترمذي - المجلس الرابع","publishedAt":"2016-02-28T06:20:57Z","duration":"PT41M20S","thumbnail":"https://i.ytimg.com/vi/xq1uZ4-K30s/mqdefault.jpg","viewCount":"104","playlistId":"PLEkQk5xrP-tnu6of679SvxdVx0qSrJzmb","playlistName":"شرح سنن الإمام الترمذي رضى الله عنه د. يسري جبر","category":"متنوع"},{"id":"9Oo5EawPSBg","title":"شرح كتاب الديات من سنن الترمذي - المجلس الثالث","publishedAt":"2015-06-20T03:36:40Z","duration":"PT35M11S","thumbnail":"https://i.ytimg.com/vi/9Oo5EawPSBg/mqdefault.jpg","viewCount":"103","playlistId":"PLEkQk5xrP-tnu6of679SvxdVx0qSrJzmb","playlistName":"شرح سنن الإمام الترمذي رضى الله عنه د. يسري جبر","category":"متنوع"},{"id":"lyU3MUatGjQ","title":"شرح كتاب النذور و الأيمان من سنن الترمذى - المجلس الثاني","publishedAt":"2015-07-10T04:04:46Z","duration":"PT24M15S","thumbnail":"https://i.ytimg.com/vi/lyU3MUatGjQ/mqdefault.jpg","viewCount":"103","playlistId":"PLEkQk5xrP-tnu6of679SvxdVx0qSrJzmb","playlistName":"شرح سنن الإمام الترمذي رضى الله عنه د. يسري جبر","category":"متنوع"},{"id":"zBxkZNoQeoA","title":"شرح كتاب تفسير القرآن من سنن الترمذي - المجلس السادس عشر","publishedAt":"2016-04-22T18:23:29Z","duration":"PT37M50S","thumbnail":"https://i.ytimg.com/vi/zBxkZNoQeoA/mqdefault.jpg","viewCount":"102","playlistId":"PLEkQk5xrP-tnu6of679SvxdVx0qSrJzmb","playlistName":"شرح سنن الإمام الترمذي رضى الله عنه د. يسري جبر","category":"متنوع"}],"total":4126,"page":170,"pageSize":24,"totalPages":172}