{"items":[{"id":"fr_V0eLOtrs","title":"375- فضل الصَّوم وغيره في العشر الأُوَل من ذي الحجََة - شرح دليل الفالحين","publishedAt":"2023-01-04T09:00:20Z","duration":"PT26M44S","thumbnail":"https://i.ytimg.com/vi/fr_V0eLOtrs/mqdefault.jpg","viewCount":"577","playlistId":"PLEkQk5xrP-tkc9DXvSLguqX5-FYp6ASR4","playlistName":"دليل الفالحين لطرق رياض الصالحين","category":"متنوع"},{"id":"5Q43KNbneEg","title":"314- استحباب تكثير المصلين على الجنازة، وجعل صفوفهم ثلاثة ثلاثة فأكثر","publishedAt":"2022-10-20T07:30:01Z","duration":"PT49M7S","thumbnail":"https://i.ytimg.com/vi/5Q43KNbneEg/mqdefault.jpg","viewCount":"576","playlistId":"PLEkQk5xrP-tkc9DXvSLguqX5-FYp6ASR4","playlistName":"دليل الفالحين لطرق رياض الصالحين","category":"متنوع"},{"id":"XHXMDCEw4Jo","title":"شرح كتاب البيوع من سنن الترمذي - المجلس الثاني","publishedAt":"2015-05-26T02:21:19Z","duration":"PT42M28S","thumbnail":"https://i.ytimg.com/vi/XHXMDCEw4Jo/mqdefault.jpg","viewCount":"576","playlistId":"PLEkQk5xrP-tnu6of679SvxdVx0qSrJzmb","playlistName":"شرح سنن الإمام الترمذي رضى الله عنه د. يسري جبر","category":"متنوع"},{"id":"DVEyjaY3Kk0","title":"لا تدهشك واردات النعم عن القيام بحقوق شكرك، فإن ذلك مما يحطُّ من وجود قدرك","publishedAt":"2017-09-05T18:38:27Z","duration":"PT12M8S","thumbnail":"https://i.ytimg.com/vi/DVEyjaY3Kk0/mqdefault.jpg","viewCount":"575","playlistId":"PLEkQk5xrP-tkI_meE148wc7V7XHlB0WPb","playlistName":"من الحكم العطائية  د. يسري جبر","category":"متنوع"},{"id":"3ldOGvtcppw","title":"21- الْقُنُوتِ فِى الصُّبْحِ ك قصرالصلاة فى السفر ك الموطأ د يسري جبر الأزهري","publishedAt":"2016-08-16T13:09:36Z","duration":"PT44M6S","thumbnail":"https://i.ytimg.com/vi/3ldOGvtcppw/mqdefault.jpg","viewCount":"574","playlistId":"PLEkQk5xrP-tnC6BRuqMjyO-484iqXeg0o","playlistName":"شرح كتاب الموطأ للإمام مالك","category":"متنوع"},{"id":"C2xmMMs_Ue4","title":"مقرأة سورة الطلاق من أولها","publishedAt":"2019-04-21T23:43:21Z","duration":"PT25M38S","thumbnail":"https://i.ytimg.com/vi/C2xmMMs_Ue4/mqdefault.jpg","viewCount":"574","playlistId":"PLEkQk5xrP-tnmTYsyW6xNdyfhPq0Bhrhj","playlistName":"مقرأة الفجر - القُرْآنُ الكَرِيمُ - خَتْمَةُ التَّدَبُّرِ  أ.د. يسري جبر","category":"متنوع"},{"id":"wlyd2QhPrLM","title":"مقرأة سورة الكهف من آية ١٣","publishedAt":"2017-10-16T10:10:48Z","duration":"PT16M35S","thumbnail":"https://i.ytimg.com/vi/wlyd2QhPrLM/mqdefault.jpg","viewCount":"574","playlistId":"PLEkQk5xrP-tnmTYsyW6xNdyfhPq0Bhrhj","playlistName":"مقرأة الفجر - القُرْآنُ الكَرِيمُ - خَتْمَةُ التَّدَبُّرِ  أ.د. يسري جبر","category":"متنوع"},{"id":"NdpzqBRS1_U","title":"شرح سنن الدارمي - المقدمة - ٢٣","publishedAt":"2019-03-13T12:59:08Z","duration":"PT34M19S","thumbnail":"https://i.ytimg.com/vi/NdpzqBRS1_U/mqdefault.jpg","viewCount":"573","playlistId":"PLEkQk5xrP-tmAg-FuWjY057X_h5NmGmAa","playlistName":"شرح سنن الدارمي - أ.د. يسري جبر (كاملا)","category":"متنوع"},{"id":"PD1XQ4bKVIY","title":"مقرأة سورة الكهف من آية ٩٩","publishedAt":"2017-11-02T11:44:32Z","duration":"PT36M30S","thumbnail":"https://i.ytimg.com/vi/PD1XQ4bKVIY/mqdefault.jpg","viewCount":"573","playlistId":"PLEkQk5xrP-tnmTYsyW6xNdyfhPq0Bhrhj","playlistName":"مقرأة الفجر - القُرْآنُ الكَرِيمُ - خَتْمَةُ التَّدَبُّرِ  أ.د. يسري جبر","category":"متنوع"},{"id":"ii0lHBFfWT4","title":"61- فوائد النسيان وماذا يفعل الإمام إذا صلى بالناس وهو على غير وضوء؟ | شرح سنن الإمام الدارقطني","publishedAt":"2025-08-09T10:08:37Z","duration":"PT45M15S","thumbnail":"https://i.ytimg.com/vi/ii0lHBFfWT4/mqdefault.jpg","viewCount":"572","playlistId":"PLEkQk5xrP-tk_MCBZ706ORCw6gFtFyaGj","playlistName":"شرح سنن الإمام الدارقطني","category":"متنوع"},{"id":"lD42HbToNwY","title":"مقرأة سورة الذاريات من أولها","publishedAt":"2019-02-03T12:27:53Z","duration":"PT14M58S","thumbnail":"https://i.ytimg.com/vi/lD42HbToNwY/mqdefault.jpg","viewCount":"572","playlistId":"PLEkQk5xrP-tnmTYsyW6xNdyfhPq0Bhrhj","playlistName":"مقرأة الفجر - القُرْآنُ الكَرِيمُ - خَتْمَةُ التَّدَبُّرِ  أ.د. يسري جبر","category":"متنوع"},{"id":"BtKxNSB2vkE","title":"سورة الأنعام آية 55","publishedAt":"2016-12-08T06:36:18Z","duration":"PT8M34S","thumbnail":"https://i.ytimg.com/vi/BtKxNSB2vkE/mqdefault.jpg","viewCount":"572","playlistId":"PLEkQk5xrP-tnmTYsyW6xNdyfhPq0Bhrhj","playlistName":"مقرأة الفجر - القُرْآنُ الكَرِيمُ - خَتْمَةُ التَّدَبُّرِ  أ.د. يسري جبر","category":"متنوع"},{"id":"pDklDG2ir5c","title":"45- كيفية تحديد وقت صلاة العصر | شرح سنن الدار قطني رضي الله عنه","publishedAt":"2024-10-26T08:45:06Z","duration":"PT48M44S","thumbnail":"https://i.ytimg.com/vi/pDklDG2ir5c/mqdefault.jpg","viewCount":"571","playlistId":"PLEkQk5xrP-tk_MCBZ706ORCw6gFtFyaGj","playlistName":"شرح سنن الإمام الدارقطني","category":"متنوع"},{"id":"dDX_akFojEY","title":"182- دليل جواز الذكر وختام الصلاة جهرًا جماعة - شرح مسند الإمام أحمد رضي الله تعالى عنه","publishedAt":"2025-11-17T10:01:06Z","duration":"PT20M19S","thumbnail":"https://i.ytimg.com/vi/dDX_akFojEY/mqdefault.jpg","viewCount":"570","playlistId":"PLEkQk5xrP-tkKprIuGrSdEuBSMsyg5We1","playlistName":"شرح مسند الإمام أحمد بن حنبل","category":"متنوع"},{"id":"NVtVSlEOlgA","title":"166- الفرق بين المسانيد والسنن - شرح مسند الإمام أحمد رضي الله تعالى عنه","publishedAt":"2025-08-13T09:20:40Z","duration":"PT24M14S","thumbnail":"https://i.ytimg.com/vi/NVtVSlEOlgA/mqdefault.jpg","viewCount":"570","playlistId":"PLEkQk5xrP-tkKprIuGrSdEuBSMsyg5We1","playlistName":"شرح مسند الإمام أحمد بن حنبل","category":"متنوع"},{"id":"fhY-FerYCBw","title":"مقرأة سورة العنكبوت من آية ٢٦","publishedAt":"2018-06-08T17:12:07Z","duration":"PT23M9S","thumbnail":"https://i.ytimg.com/vi/fhY-FerYCBw/mqdefault.jpg","viewCount":"570","playlistId":"PLEkQk5xrP-tnmTYsyW6xNdyfhPq0Bhrhj","playlistName":"مقرأة الفجر - القُرْآنُ الكَرِيمُ - خَتْمَةُ التَّدَبُّرِ  أ.د. يسري جبر","category":"متنوع"},{"id":"9P5VM9dVHco","title":"سورة يونس آية 99","publishedAt":"2017-05-25T12:13:36Z","duration":"PT23M20S","thumbnail":"https://i.ytimg.com/vi/9P5VM9dVHco/mqdefault.jpg","viewCount":"570","playlistId":"PLEkQk5xrP-tnmTYsyW6xNdyfhPq0Bhrhj","playlistName":"مقرأة الفجر - القُرْآنُ الكَرِيمُ - خَتْمَةُ التَّدَبُّرِ  أ.د. يسري جبر","category":"متنوع"},{"id":"Z8k_Ro0ENWQ","title":"شروط الصيام مع د. يسري جبر | اعرف نبيك في رمضان","publishedAt":"2016-06-22T20:19:40Z","duration":"PT10M47S","thumbnail":"https://i.ytimg.com/vi/Z8k_Ro0ENWQ/mqdefault.jpg","viewCount":"569","playlistId":"PLEkQk5xrP-tmhJ_gpAAFyOpEsHp0_VAJ-","playlistName":"برنامج اعرف نبيك في رمضان","category":"متنوع"},{"id":"UvIf8Fj5Vxo","title":"شرح سنن الدارمي - المقدمة - ٣١","publishedAt":"2019-03-20T23:19:31Z","duration":"PT44M54S","thumbnail":"https://i.ytimg.com/vi/UvIf8Fj5Vxo/mqdefault.jpg","viewCount":"569","playlistId":"PLEkQk5xrP-tmAg-FuWjY057X_h5NmGmAa","playlistName":"شرح سنن الدارمي - أ.د. يسري جبر (كاملا)","category":"متنوع"},{"id":"M0HCle-v4Po","title":"63-  تعمل ايه لو عندك وسواس قهري في الصلاة؟ | شرح سنن الإمام الدارقطني","publishedAt":"2025-08-23T09:00:25Z","duration":"PT36M16S","thumbnail":"https://i.ytimg.com/vi/M0HCle-v4Po/mqdefault.jpg","viewCount":"568","playlistId":"PLEkQk5xrP-tk_MCBZ706ORCw6gFtFyaGj","playlistName":"شرح سنن الإمام الدارقطني","category":"متنوع"},{"id":"zhL2k0i4Da0","title":"463- تحريم اتخاذ الكلب إلا لصيد أو ماشية أو زرع  - شرح دليل الفالحين","publishedAt":"2023-06-01T18:00:19Z","duration":"PT22M29S","thumbnail":"https://i.ytimg.com/vi/zhL2k0i4Da0/mqdefault.jpg","viewCount":"567","playlistId":"PLEkQk5xrP-tkc9DXvSLguqX5-FYp6ASR4","playlistName":"دليل الفالحين لطرق رياض الصالحين","category":"متنوع"},{"id":"J6rsqpvApE0","title":"62- النسيان في الصلاة وأحكام سجود السهو | شرح سنن الإمام الدار قطني","publishedAt":"2025-08-17T04:00:19Z","duration":"PT51M45S","thumbnail":"https://i.ytimg.com/vi/J6rsqpvApE0/mqdefault.jpg","viewCount":"567","playlistId":"PLEkQk5xrP-tk_MCBZ706ORCw6gFtFyaGj","playlistName":"شرح سنن الإمام الدارقطني","category":"متنوع"},{"id":"WlHhNpyDXZM","title":"سورة الأعراف آية 107","publishedAt":"2017-02-22T14:42:02Z","duration":"PT29M55S","thumbnail":"https://i.ytimg.com/vi/WlHhNpyDXZM/mqdefault.jpg","viewCount":"567","playlistId":"PLEkQk5xrP-tnmTYsyW6xNdyfhPq0Bhrhj","playlistName":"مقرأة الفجر - القُرْآنُ الكَرِيمُ - خَتْمَةُ التَّدَبُّرِ  أ.د. يسري جبر","category":"متنوع"},{"id":"CgQ_yXtUPeQ","title":"سورة الأنعام آية 151","publishedAt":"2017-01-12T20:12:46Z","duration":"PT35M21S","thumbnail":"https://i.ytimg.com/vi/CgQ_yXtUPeQ/mqdefault.jpg","viewCount":"567","playlistId":"PLEkQk5xrP-tnmTYsyW6xNdyfhPq0Bhrhj","playlistName":"مقرأة الفجر - القُرْآنُ الكَرِيمُ - خَتْمَةُ التَّدَبُّرِ  أ.د. يسري جبر","category":"متنوع"}],"total":4126,"page":115,"pageSize":24,"totalPages":172}