{"items":[{"id":"-nvAlp44Vqc","title":"المرأة الحائض وحكم مجالستها بين الإسلام واليهودية  اعرف نبيك","publishedAt":"2015-05-06T15:29:07Z","duration":"PT2M42S","thumbnail":"https://i.ytimg.com/vi/-nvAlp44Vqc/mqdefault.jpg","viewCount":"1108","playlistId":"PLEkQk5xrP-tl6Mu_Mz3QMUSv5T6XBH-Dg","playlistName":"برنامج اعرف نبيك","category":"متنوع"},{"id":"n9h14uMd-_o","title":"قراءة القرآن (من آية ١٦٦ سورة البقرة)","publishedAt":"2016-05-05T02:45:27Z","duration":"PT25M","thumbnail":"https://i.ytimg.com/vi/n9h14uMd-_o/mqdefault.jpg","viewCount":"1108","playlistId":"PLEkQk5xrP-tnmTYsyW6xNdyfhPq0Bhrhj","playlistName":"مقرأة الفجر - القُرْآنُ الكَرِيمُ - خَتْمَةُ التَّدَبُّرِ  أ.د. يسري جبر","category":"متنوع"},{"id":"37iKSTBX5a4","title":"ما هي بدع التفاسير في جزء عم؟","publishedAt":"2024-08-02T06:00:01Z","duration":"PT22M23S","thumbnail":"https://i.ytimg.com/vi/37iKSTBX5a4/mqdefault.jpg","viewCount":"1107","playlistId":"PLEkQk5xrP-tkSGrPLMt1BEmJ54cGWYgtp","playlistName":"كتابُ بِدَعِ التَفَاسِيرِ - أ.د. يسري جبر","category":"متنوع"},{"id":"CvIHb1o6ILY","title":"حِفْظُ حُرْمَةِ المُسْلِم.  أ.د. يسري جبر","publishedAt":"2020-03-25T18:20:11Z","duration":"PT1M19S","thumbnail":"https://i.ytimg.com/vi/CvIHb1o6ILY/mqdefault.jpg","viewCount":"1106","playlistId":"PLEkQk5xrP-tm8ZIu74nTOZN9KJUJu416J","playlistName":"مقاطع مُهمَّة (يُسريَّات) أ.د. يسري جبر","category":"متنوع"},{"id":"ZMisdo1HiSg","title":"43-\"لما كان يوم حُنينٍ آثر رسولُ اللهِ ﷺ ناسا في القسمة...\" الحديث( 18)باب الصّبر- شرح دليل الفالحين","publishedAt":"2021-04-11T06:06:16Z","duration":"PT27M59S","thumbnail":"https://i.ytimg.com/vi/ZMisdo1HiSg/mqdefault.jpg","viewCount":"1105","playlistId":"PLEkQk5xrP-tkc9DXvSLguqX5-FYp6ASR4","playlistName":"دليل الفالحين لطرق رياض الصالحين","category":"متنوع"},{"id":"1vtHQ_oS4jM","title":"139- \"أخذ الحسنُ بن عليّ -رضي اللهُ عنهما- تمرةً من تَمْر الصدقة فجعلها في فِيِه…\" شرح دليل الفالحين","publishedAt":"2021-10-12T06:41:15Z","duration":"PT53M3S","thumbnail":"https://i.ytimg.com/vi/1vtHQ_oS4jM/mqdefault.jpg","viewCount":"1104","playlistId":"PLEkQk5xrP-tkc9DXvSLguqX5-FYp6ASR4","playlistName":"دليل الفالحين لطرق رياض الصالحين","category":"متنوع"},{"id":"QV6ecc2M6QY","title":"شرح كتاب بهجة النفوس - المجلس الرابع عشر","publishedAt":"2020-05-06T20:00:12Z","duration":"PT44M46S","thumbnail":"https://i.ytimg.com/vi/QV6ecc2M6QY/mqdefault.jpg","viewCount":"1104","playlistId":"PLEkQk5xrP-tlyEB2iywk4VchTQROnBrU6","playlistName":"بهجة النفوس من أوله  أ.د. يسري جبر","category":"متنوع"},{"id":"s6dWohKhwmg","title":"229- مَثَلُ البَخِيلِ والمُنْفِق كَمَثَلِ رَجُلَين عَليهِما جُبَّتَان مِنْ حَديد - شرح دليل الفالحين","publishedAt":"2022-04-07T06:35:42Z","duration":"PT51M7S","thumbnail":"https://i.ytimg.com/vi/s6dWohKhwmg/mqdefault.jpg","viewCount":"1103","playlistId":"PLEkQk5xrP-tkc9DXvSLguqX5-FYp6ASR4","playlistName":"دليل الفالحين لطرق رياض الصالحين","category":"متنوع"},{"id":"uRHpuAMeTaU","title":"36- ما هو الصعيد الطيب الذي يصح به التيمم؟ | شرح سنن الدار قطني رضي الله عنه","publishedAt":"2024-05-25T09:01:00Z","duration":"PT43M22S","thumbnail":"https://i.ytimg.com/vi/uRHpuAMeTaU/mqdefault.jpg","viewCount":"1101","playlistId":"PLEkQk5xrP-tk_MCBZ706ORCw6gFtFyaGj","playlistName":"شرح سنن الإمام الدارقطني","category":"متنوع"},{"id":"JC7eXAehPh8","title":"حكم الحلف بغير الله | مجالس رمضانية","publishedAt":"2023-04-10T15:00:12Z","duration":"PT25M28S","thumbnail":"https://i.ytimg.com/vi/JC7eXAehPh8/mqdefault.jpg","viewCount":"1100","playlistId":"PLEkQk5xrP-tnl7vb7KeAoPd5ZlqKKW8KV","playlistName":"شرح كتاب بهجة النفوس أ.د . يسرى جبر","category":"متنوع"},{"id":"oF4qtXFuhjA","title":"مقرأة سورة الجن من أولها","publishedAt":"2019-05-21T08:13:11Z","duration":"PT23M31S","thumbnail":"https://i.ytimg.com/vi/oF4qtXFuhjA/mqdefault.jpg","viewCount":"1099","playlistId":"PLEkQk5xrP-tnmTYsyW6xNdyfhPq0Bhrhj","playlistName":"مقرأة الفجر - القُرْآنُ الكَرِيمُ - خَتْمَةُ التَّدَبُّرِ  أ.د. يسري جبر","category":"متنوع"},{"id":"RMbMg2igu_s","title":"النهي عن قتل الحيوان صبرًا | أ.د. يسري جبر","publishedAt":"2022-04-02T15:30:04Z","duration":"PT37M34S","thumbnail":"https://i.ytimg.com/vi/RMbMg2igu_s/mqdefault.jpg","viewCount":"1098","playlistId":"PLEkQk5xrP-tnl7vb7KeAoPd5ZlqKKW8KV","playlistName":"شرح كتاب بهجة النفوس أ.د . يسرى جبر","category":"متنوع"},{"id":"EhGePsqjb6U","title":"56- باب التقوى - شرح دليل الفالحين","publishedAt":"2021-05-10T05:56:20Z","duration":"PT28M43S","thumbnail":"https://i.ytimg.com/vi/EhGePsqjb6U/mqdefault.jpg","viewCount":"1098","playlistId":"PLEkQk5xrP-tkc9DXvSLguqX5-FYp6ASR4","playlistName":"دليل الفالحين لطرق رياض الصالحين","category":"متنوع"},{"id":"rejKMd9gEIA","title":"101- حكم مَن انشغل بالنافلة عن الفريضة - شرح مسند الإمام أحمد رضي الله تعالى عنه","publishedAt":"2024-05-05T09:00:39Z","duration":"PT39M18S","thumbnail":"https://i.ytimg.com/vi/rejKMd9gEIA/mqdefault.jpg","viewCount":"1097","playlistId":"PLEkQk5xrP-tkKprIuGrSdEuBSMsyg5We1","playlistName":"شرح مسند الإمام أحمد بن حنبل","category":"متنوع"},{"id":"mhgJnelXzaU","title":"272- إكرامُ الضيف - شرح دليل الفالحين","publishedAt":"2022-06-24T05:00:19Z","duration":"PT45M12S","thumbnail":"https://i.ytimg.com/vi/mhgJnelXzaU/mqdefault.jpg","viewCount":"1097","playlistId":"PLEkQk5xrP-tkc9DXvSLguqX5-FYp6ASR4","playlistName":"دليل الفالحين لطرق رياض الصالحين","category":"متنوع"},{"id":"U8ck67nOfnQ","title":"مقرأة سورة الإسراء من آية ٢٦","publishedAt":"2017-09-19T10:49:41Z","duration":"PT17M13S","thumbnail":"https://i.ytimg.com/vi/U8ck67nOfnQ/mqdefault.jpg","viewCount":"1095","playlistId":"PLEkQk5xrP-tnmTYsyW6xNdyfhPq0Bhrhj","playlistName":"مقرأة الفجر - القُرْآنُ الكَرِيمُ - خَتْمَةُ التَّدَبُّرِ  أ.د. يسري جبر","category":"متنوع"},{"id":"XyPGFgGdEwQ","title":"تمكُّنُ حلاوةِ الهَوَى من القلبِ هُوَ الدَّاءُ العُضَالُ (2)","publishedAt":"2017-09-06T20:01:56Z","duration":"PT30M37S","thumbnail":"https://i.ytimg.com/vi/XyPGFgGdEwQ/mqdefault.jpg","viewCount":"1095","playlistId":"PLEkQk5xrP-tkI_meE148wc7V7XHlB0WPb","playlistName":"من الحكم العطائية  د. يسري جبر","category":"متنوع"},{"id":"1XztYItae-c","title":"46- “قدم عُيينة بنُ حصْن فنزل على ابن اخيه...”الحديث ( 27) باب الصّبر - شرح دليل الفالحين","publishedAt":"2021-04-18T06:22:34Z","duration":"PT45M50S","thumbnail":"https://i.ytimg.com/vi/1XztYItae-c/mqdefault.jpg","viewCount":"1095","playlistId":"PLEkQk5xrP-tkc9DXvSLguqX5-FYp6ASR4","playlistName":"دليل الفالحين لطرق رياض الصالحين","category":"متنوع"},{"id":"XRmvg83MDzY","title":"منازل السائرين للإمام الهروى المجلس الرابع والخمسون قسم الحقائق بابُ السُّكْر وبابُ الصَّحْو","publishedAt":"2015-11-06T07:07:42Z","duration":"PT1H1M23S","thumbnail":"https://i.ytimg.com/vi/XRmvg83MDzY/mqdefault.jpg","viewCount":"1095","playlistId":"PLEkQk5xrP-tnLYi_5_tSRVBwqcs7ISV7Y","playlistName":"شرح كتاب منازل السائرين للإمام الهروي","category":"متنوع"},{"id":"Pf1PpHL74ic","title":"255 - بَال أَعْرَابيٌّ في المسجِد، فَقَامَ النَّاسُ إِلَيْه لِيَقَعُوا فِيهِ - شرح دليل الفالحين","publishedAt":"2022-05-27T20:45:00Z","duration":"PT31M38S","thumbnail":"https://i.ytimg.com/vi/Pf1PpHL74ic/mqdefault.jpg","viewCount":"1092","playlistId":"PLEkQk5xrP-tkc9DXvSLguqX5-FYp6ASR4","playlistName":"دليل الفالحين لطرق رياض الصالحين","category":"متنوع"},{"id":"sInKHEjFiSQ","title":"54- ما هي أركان الصلاة وسننها؟ | شرح مختصر الفتوحات المكية","publishedAt":"2025-11-16T19:15:57Z","duration":"PT41M15S","thumbnail":"https://i.ytimg.com/vi/sInKHEjFiSQ/mqdefault.jpg","viewCount":"1092","playlistId":"PLEkQk5xrP-tnpkdZki6rPTtMak1bnI5g-","playlistName":"شرح كتاب مختصر الفتوحات المكية المسمى لواقح الأنوار القدسية","category":"متنوع"},{"id":"ICKO9i8lVFs","title":"بِدَعُ التَفَاسِيرِ - المجلس الحادي عشر.  أ.د. يسري جبر","publishedAt":"2020-02-18T16:01:24Z","duration":"PT17M47S","thumbnail":"https://i.ytimg.com/vi/ICKO9i8lVFs/mqdefault.jpg","viewCount":"1090","playlistId":"PLEkQk5xrP-tkSGrPLMt1BEmJ54cGWYgtp","playlistName":"كتابُ بِدَعِ التَفَاسِيرِ - أ.د. يسري جبر","category":"متنوع"},{"id":"LfmuOL4WzBg","title":"433- تحريم النميمة - شرح دليل الفالحين","publishedAt":"2023-05-02T08:59:00Z","duration":"PT30M16S","thumbnail":"https://i.ytimg.com/vi/LfmuOL4WzBg/mqdefault.jpg","viewCount":"1089","playlistId":"PLEkQk5xrP-tkc9DXvSLguqX5-FYp6ASR4","playlistName":"دليل الفالحين لطرق رياض الصالحين","category":"متنوع"},{"id":"WjB6tZkpCHw","title":"سنن الصيام مع د. يسري جبر | اعرف نبيك في رمضان","publishedAt":"2016-06-13T22:07:27Z","duration":"PT8M1S","thumbnail":"https://i.ytimg.com/vi/WjB6tZkpCHw/mqdefault.jpg","viewCount":"1088","playlistId":"PLEkQk5xrP-tmhJ_gpAAFyOpEsHp0_VAJ-","playlistName":"برنامج اعرف نبيك في رمضان","category":"متنوع"}],"total":4126,"page":90,"pageSize":24,"totalPages":172}