{"items":[{"id":"2XFtrvIZg_A","title":"29- باب التوبة: الحديث التاسع (2) شرح دليل الفالحين لطُرُق رياض الصالحين","publishedAt":"2021-03-15T06:25:13Z","duration":"PT48M14S","thumbnail":"https://i.ytimg.com/vi/2XFtrvIZg_A/mqdefault.jpg","viewCount":"1301","playlistId":"PLEkQk5xrP-tkc9DXvSLguqX5-FYp6ASR4","playlistName":"دليل الفالحين لطرق رياض الصالحين","category":"متنوع"},{"id":"LJ8HDvJsAVc","title":"اختراعات إسلامية","publishedAt":"2020-09-23T19:39:11Z","duration":"PT12M1S","thumbnail":"https://i.ytimg.com/vi/LJ8HDvJsAVc/mqdefault.jpg","viewCount":"1300","playlistId":"PLEkQk5xrP-tm8ZIu74nTOZN9KJUJu416J","playlistName":"مقاطع مُهمَّة (يُسريَّات) أ.د. يسري جبر","category":"متنوع"},{"id":"bn-z6v7C9h4","title":"125- \"…أنَّ امْرَأَةً سَوْدَاءَ كَانَتْ تَقُمُّ المَسْجِدَ، أَوْ شَابًّا…\" - شرح دليل الفالحين","publishedAt":"2021-09-11T07:25:59Z","duration":"PT32M30S","thumbnail":"https://i.ytimg.com/vi/bn-z6v7C9h4/mqdefault.jpg","viewCount":"1299","playlistId":"PLEkQk5xrP-tkc9DXvSLguqX5-FYp6ASR4","playlistName":"دليل الفالحين لطرق رياض الصالحين","category":"متنوع"},{"id":"is4X2R6VqJU","title":"112- \"أتَدْرُون مَن المُفْلِسُ؟ قالوا: المُفْلِسُ فِينا مَن لا دِرْهمَ له …” شرح دليل الفالحين","publishedAt":"2021-08-13T20:28:19Z","duration":"PT42M2S","thumbnail":"https://i.ytimg.com/vi/is4X2R6VqJU/mqdefault.jpg","viewCount":"1298","playlistId":"PLEkQk5xrP-tkc9DXvSLguqX5-FYp6ASR4","playlistName":"دليل الفالحين لطرق رياض الصالحين","category":"متنوع"},{"id":"m650j4HSECo","title":"١٤٣ حديث قتال المشركين حتى يعلنوا بكلمة التوحيد د. يسري جبر","publishedAt":"2018-05-20T23:12:35Z","duration":"PT27M6S","thumbnail":"https://i.ytimg.com/vi/m650j4HSECo/mqdefault.jpg","viewCount":"1295","playlistId":"PLEkQk5xrP-tnl7vb7KeAoPd5ZlqKKW8KV","playlistName":"شرح كتاب بهجة النفوس أ.د . يسرى جبر","category":"متنوع"},{"id":"O8A484glFRM","title":"مقرأة سورة الفلق من أولها","publishedAt":"2019-08-17T11:23:10Z","duration":"PT14M22S","thumbnail":"https://i.ytimg.com/vi/O8A484glFRM/mqdefault.jpg","viewCount":"1294","playlistId":"PLEkQk5xrP-tnmTYsyW6xNdyfhPq0Bhrhj","playlistName":"مقرأة الفجر - القُرْآنُ الكَرِيمُ - خَتْمَةُ التَّدَبُّرِ  أ.د. يسري جبر","category":"متنوع"},{"id":"AfdehqiYnIQ","title":"هل صلاة الجمعة تسقط فرض الظهر؟ | مجالس رمضانية","publishedAt":"2025-03-10T15:00:19Z","duration":"PT25M7S","thumbnail":"https://i.ytimg.com/vi/AfdehqiYnIQ/mqdefault.jpg","viewCount":"1294","playlistId":"PLEkQk5xrP-tkeI_WVPfuoTJO46aVkpaz0","playlistName":"شرح كتاب ميزان الاعتدال لحفظ الدين والأحوال","category":"متنوع"},{"id":"FMAKJQ04twM","title":"330- قولُهُ تعالى \"قُلْ هُوَ اللَّهُ أَحَدٌ\" - شرح دليل الفالحين","publishedAt":"2022-11-09T09:00:12Z","duration":"PT52M11S","thumbnail":"https://i.ytimg.com/vi/FMAKJQ04twM/mqdefault.jpg","viewCount":"1293","playlistId":"PLEkQk5xrP-tkc9DXvSLguqX5-FYp6ASR4","playlistName":"دليل الفالحين لطرق رياض الصالحين","category":"متنوع"},{"id":"gpFMv41opr4","title":"166- \"سَبْعَةٌ يُظِلُّهُمُ اللَّهُ في ظِلِّهِ، يَومَ لا ظِلَّ إِلَّا ظِلُّهُ…\" - شرح دليل الفالحين","publishedAt":"2021-12-08T20:39:37Z","duration":"PT44M48S","thumbnail":"https://i.ytimg.com/vi/gpFMv41opr4/mqdefault.jpg","viewCount":"1291","playlistId":"PLEkQk5xrP-tkc9DXvSLguqX5-FYp6ASR4","playlistName":"دليل الفالحين لطرق رياض الصالحين","category":"متنوع"},{"id":"BpTk-nqD5o0","title":"شرح كتاب منازل السائرين للإمام الهروى المجلس الثامن والأربعون قسم الولايات باب اللحظ وباب الوقت","publishedAt":"2015-05-11T18:48:32Z","duration":"PT1H23M35S","thumbnail":"https://i.ytimg.com/vi/BpTk-nqD5o0/mqdefault.jpg","viewCount":"1291","playlistId":"PLEkQk5xrP-tnLYi_5_tSRVBwqcs7ISV7Y","playlistName":"شرح كتاب منازل السائرين للإمام الهروي","category":"متنوع"},{"id":"AwPhe_RiduM","title":"شرح كتاب منازل السائرين للإمام الهروى - المجلس الثانى والثلاثون - قسم الأخلاق باب الانبساط","publishedAt":"2014-12-29T05:48:06Z","duration":"PT54M59S","thumbnail":"https://i.ytimg.com/vi/AwPhe_RiduM/mqdefault.jpg","viewCount":"1291","playlistId":"PLEkQk5xrP-tnLYi_5_tSRVBwqcs7ISV7Y","playlistName":"شرح كتاب منازل السائرين للإمام الهروي","category":"متنوع"},{"id":"f8MnWWm_d6M","title":"شرح كتاب منازل السائرين للإمام الهروى - المجلس الثلاثون - قسم الأخلاق باب التواضع","publishedAt":"2014-12-15T04:08:04Z","duration":"PT56M44S","thumbnail":"https://i.ytimg.com/vi/f8MnWWm_d6M/mqdefault.jpg","viewCount":"1290","playlistId":"PLEkQk5xrP-tnLYi_5_tSRVBwqcs7ISV7Y","playlistName":"شرح كتاب منازل السائرين للإمام الهروي","category":"متنوع"},{"id":"hIsTir9Nvqc","title":"23- كيفية الفصل في الأمور الشائكة| فضل الوضوء ثلاثًا - شرح مسند الإمام أحمد","publishedAt":"2023-09-30T05:55:41Z","duration":"PT28M25S","thumbnail":"https://i.ytimg.com/vi/hIsTir9Nvqc/mqdefault.jpg","viewCount":"1288","playlistId":"PLEkQk5xrP-tkKprIuGrSdEuBSMsyg5We1","playlistName":"شرح مسند الإمام أحمد بن حنبل","category":"متنوع"},{"id":"RWDGIVV2WEE","title":"496- أسباب قبول الدعاء - شرح دليل الفالحين","publishedAt":"2023-07-08T08:59:00Z","duration":"PT39M30S","thumbnail":"https://i.ytimg.com/vi/RWDGIVV2WEE/mqdefault.jpg","viewCount":"1287","playlistId":"PLEkQk5xrP-tkc9DXvSLguqX5-FYp6ASR4","playlistName":"دليل الفالحين لطرق رياض الصالحين","category":"متنوع"},{"id":"OH2ttoy9BvM","title":"مقرأة سورة طه من أولها","publishedAt":"2017-11-21T17:30:33Z","duration":"PT18M16S","thumbnail":"https://i.ytimg.com/vi/OH2ttoy9BvM/mqdefault.jpg","viewCount":"1285","playlistId":"PLEkQk5xrP-tnmTYsyW6xNdyfhPq0Bhrhj","playlistName":"مقرأة الفجر - القُرْآنُ الكَرِيمُ - خَتْمَةُ التَّدَبُّرِ  أ.د. يسري جبر","category":"متنوع"},{"id":"BmdpWORsIxM","title":"7- هل تجب الزكاة في الخيل؟ - شرح مسند الإمام أحمد","publishedAt":"2023-08-01T08:59:00Z","duration":"PT40M19S","thumbnail":"https://i.ytimg.com/vi/BmdpWORsIxM/mqdefault.jpg","viewCount":"1284","playlistId":"PLEkQk5xrP-tkKprIuGrSdEuBSMsyg5We1","playlistName":"شرح مسند الإمام أحمد بن حنبل","category":"متنوع"},{"id":"bH82nK-KlDg","title":"9- ختام قراءة وشرح كتاب الشمائل المحمَّديَّة للإمام الترمذيّ رضي الله عنه","publishedAt":"2021-03-08T20:42:41Z","duration":"PT36M45S","thumbnail":"https://i.ytimg.com/vi/bH82nK-KlDg/mqdefault.jpg","viewCount":"1283","playlistId":"PLEkQk5xrP-tkCtkJ_fVpP3CmkJhWYYZtt","playlistName":"قراءةُ كتابِ الشَّمَائِلِ المُحَمَّدِيَّة للإِمام التِّرمذيّ رضي الله عن","category":"متنوع"},{"id":"x0mpjK8d-ks","title":"شرح كتاب بهجة النفوس - المجلس الحادي عشر","publishedAt":"2020-05-03T20:00:12Z","duration":"PT48M6S","thumbnail":"https://i.ytimg.com/vi/x0mpjK8d-ks/mqdefault.jpg","viewCount":"1282","playlistId":"PLEkQk5xrP-tlyEB2iywk4VchTQROnBrU6","playlistName":"بهجة النفوس من أوله  أ.د. يسري جبر","category":"متنوع"},{"id":"O-LmscaGPnI","title":"23- ما ورد في طهارة المَنيّ وحكمه رطبًا ويابسًا | وماذا يصنع الجنب إذا أراد أن يأكل أو يشرب أو ينام","publishedAt":"2023-12-02T10:18:25Z","duration":"PT39M18S","thumbnail":"https://i.ytimg.com/vi/O-LmscaGPnI/mqdefault.jpg","viewCount":"1281","playlistId":"PLEkQk5xrP-tk_MCBZ706ORCw6gFtFyaGj","playlistName":"شرح سنن الإمام الدارقطني","category":"متنوع"},{"id":"2DBRj-NLF6I","title":"106- تكملة الحديث\"لَمَّا وقَفَ الزُّبَيْرُ يَومَ الجَمَلِ دَعَانِي، فَقُمْتُ إلى…\" شرح دليل الفالحين","publishedAt":"2021-08-01T05:38:56Z","duration":"PT56M49S","thumbnail":"https://i.ytimg.com/vi/2DBRj-NLF6I/mqdefault.jpg","viewCount":"1280","playlistId":"PLEkQk5xrP-tkc9DXvSLguqX5-FYp6ASR4","playlistName":"دليل الفالحين لطرق رياض الصالحين","category":"متنوع"},{"id":"TAYOeidkm8A","title":"430- تحريم سماع الغِيبة - شرح دليل الفالحين","publishedAt":"2023-04-27T09:00:28Z","duration":"PT15M45S","thumbnail":"https://i.ytimg.com/vi/TAYOeidkm8A/mqdefault.jpg","viewCount":"1277","playlistId":"PLEkQk5xrP-tkc9DXvSLguqX5-FYp6ASR4","playlistName":"دليل الفالحين لطرق رياض الصالحين","category":"متنوع"},{"id":"qliN3VJqTdA","title":"تفسير قوله تعالى \"شهد عليهم سمعهم وأبصارهم وجلودهم\"","publishedAt":"2024-07-23T07:48:21Z","duration":"PT17M17S","thumbnail":"https://i.ytimg.com/vi/qliN3VJqTdA/mqdefault.jpg","viewCount":"1273","playlistId":"PLEkQk5xrP-tkSGrPLMt1BEmJ54cGWYgtp","playlistName":"كتابُ بِدَعِ التَفَاسِيرِ - أ.د. يسري جبر","category":"متنوع"},{"id":"njVvchfbS4Q","title":"31- حكم تقديم الوصية على الدين - شرح مسند الإمام أحمد","publishedAt":"2023-10-20T05:30:12Z","duration":"PT28M14S","thumbnail":"https://i.ytimg.com/vi/njVvchfbS4Q/mqdefault.jpg","viewCount":"1273","playlistId":"PLEkQk5xrP-tkKprIuGrSdEuBSMsyg5We1","playlistName":"شرح مسند الإمام أحمد بن حنبل","category":"متنوع"},{"id":"W2liq5jAA0I","title":"205- يَدْخُلُ الفُقراءُ الجَنَّةَ قَبلَ الأغْنِيَاءِ بِخَمْسِمِائَةِ عَامٍ - شرح دليل الفالحين","publishedAt":"2022-02-22T05:15:37Z","duration":"PT41M45S","thumbnail":"https://i.ytimg.com/vi/W2liq5jAA0I/mqdefault.jpg","viewCount":"1271","playlistId":"PLEkQk5xrP-tkc9DXvSLguqX5-FYp6ASR4","playlistName":"دليل الفالحين لطرق رياض الصالحين","category":"متنوع"}],"total":4126,"page":83,"pageSize":24,"totalPages":172}