{"items":[{"id":"Sud5BTJ7liY","title":"كيف تصبح غنيا؟","publishedAt":"2021-01-12T18:42:48Z","duration":"PT12M10S","thumbnail":"https://i.ytimg.com/vi/Sud5BTJ7liY/mqdefault.jpg","viewCount":"91637","playlistId":"PLEkQk5xrP-tm8ZIu74nTOZN9KJUJu416J","playlistName":"مقاطع مُهمَّة (يُسريَّات) أ.د. يسري جبر","category":"متنوع"},{"id":"QyHUvUqET74","title":"1- بداية الفتح الربَّاني - شرح مختصر الفُتُوحَات المَكْيَّة","publishedAt":"2023-12-25T11:00:19Z","duration":"PT1H2M11S","thumbnail":"https://i.ytimg.com/vi/QyHUvUqET74/mqdefault.jpg","viewCount":"90299","playlistId":"PLEkQk5xrP-tnpkdZki6rPTtMak1bnI5g-","playlistName":"شرح كتاب مختصر الفتوحات المكية المسمى لواقح الأنوار القدسية","category":"متنوع"},{"id":"wC-rrnchtBo","title":"معنى مدد يا مولانا ياحسين؟","publishedAt":"2020-12-22T18:32:54Z","duration":"PT11M17S","thumbnail":"https://i.ytimg.com/vi/wC-rrnchtBo/mqdefault.jpg","viewCount":"85818","playlistId":"PLEkQk5xrP-tm8ZIu74nTOZN9KJUJu416J","playlistName":"مقاطع مُهمَّة (يُسريَّات) أ.د. يسري جبر","category":"متنوع"},{"id":"oXWiNMaIVSY","title":"هل السحر خرافة ؟","publishedAt":"2021-01-19T18:49:49Z","duration":"PT9M13S","thumbnail":"https://i.ytimg.com/vi/oXWiNMaIVSY/mqdefault.jpg","viewCount":"84467","playlistId":"PLEkQk5xrP-tm8ZIu74nTOZN9KJUJu416J","playlistName":"مقاطع مُهمَّة (يُسريَّات) أ.د. يسري جبر","category":"متنوع"},{"id":"yffaCPgAW_c","title":"ظاهرة خسوف القمر وكيفية صلاة الخسوف؟","publishedAt":"2025-09-07T09:15:13Z","duration":"PT12M45S","thumbnail":"https://i.ytimg.com/vi/yffaCPgAW_c/mqdefault.jpg","viewCount":"82769","playlistId":"PLEkQk5xrP-tm8ZIu74nTOZN9KJUJu416J","playlistName":"مقاطع مُهمَّة (يُسريَّات) أ.د. يسري جبر","category":"متنوع"},{"id":"PI0Qfb465FM","title":"شرح الحزب الكبير- المجلس الأول   د.يسري جبر","publishedAt":"2017-06-20T04:32:13Z","duration":"PT44M27S","thumbnail":"https://i.ytimg.com/vi/PI0Qfb465FM/mqdefault.jpg","viewCount":"76786","playlistId":"PLEkQk5xrP-tlm5F9ID5I_--LMV7PcWjp_","playlistName":"شرح الحزب الكبير لسيدى أبي الحسن الشاذلي د.يسري جبر","category":"متنوع"},{"id":"v6P-uoulDMc","title":"شرح كتاب دلائل الخيرات - المجلس الثالث | أ.د. يسري جبر","publishedAt":"2019-02-24T19:22:07Z","duration":"PT49M35S","thumbnail":"https://i.ytimg.com/vi/v6P-uoulDMc/mqdefault.jpg","viewCount":"73949","playlistId":"PLEkQk5xrP-tlAzcbIpuqjdFICW-knvTlR","playlistName":"شرح كتاب دلائل الخيرات وشوارق الأنوار","category":"متنوع"},{"id":"CjE0SEir3Ak","title":"كيف تعالج الاكتئاب؟","publishedAt":"2022-06-28T19:00:03Z","duration":"PT9M11S","thumbnail":"https://i.ytimg.com/vi/CjE0SEir3Ak/mqdefault.jpg","viewCount":"73423","playlistId":"PLEkQk5xrP-tkGXuZ9atE3k_7it12rUPTs","playlistName":"أسئلة المتابعين","category":"متنوع"},{"id":"Tt1IHeksHvI","title":"كيف تتوكل على الله حق التوكل؟","publishedAt":"2022-05-12T19:00:15Z","duration":"PT17M15S","thumbnail":"https://i.ytimg.com/vi/Tt1IHeksHvI/mqdefault.jpg","viewCount":"72075","playlistId":"PLEkQk5xrP-tm8ZIu74nTOZN9KJUJu416J","playlistName":"مقاطع مُهمَّة (يُسريَّات) أ.د. يسري جبر","category":"متنوع"},{"id":"ji80dtxpRoM","title":"ازاي ربنا يوفقني في حياتي وهل التوفيق حظ أم اجتهاد؟","publishedAt":"2024-03-02T18:18:52Z","duration":"PT14M24S","thumbnail":"https://i.ytimg.com/vi/ji80dtxpRoM/mqdefault.jpg","viewCount":"70362","playlistId":"PLEkQk5xrP-tkGXuZ9atE3k_7it12rUPTs","playlistName":"أسئلة المتابعين","category":"متنوع"},{"id":"HMGWfzLIkv8","title":"ما هي أوصاف قطب الزمان؟","publishedAt":"2022-06-24T19:00:00Z","duration":"PT15M17S","thumbnail":"https://i.ytimg.com/vi/HMGWfzLIkv8/mqdefault.jpg","viewCount":"70233","playlistId":"PLEkQk5xrP-tkGXuZ9atE3k_7it12rUPTs","playlistName":"أسئلة المتابعين","category":"متنوع"},{"id":"DRSvdDSVgcQ","title":"كم كان عمر النبي صلى الله عليه وسلم | اعرف نبيك","publishedAt":"2015-10-07T17:06:58Z","duration":"PT6M19S","thumbnail":"https://i.ytimg.com/vi/DRSvdDSVgcQ/mqdefault.jpg","viewCount":"70056","playlistId":"PLEkQk5xrP-tl6Mu_Mz3QMUSv5T6XBH-Dg","playlistName":"برنامج اعرف نبيك","category":"متنوع"},{"id":"b6MNH1ekDuk","title":"الفتوحات الربانية حول المعانى القرآنية - د. يسري جبر","publishedAt":"2014-09-29T19:49:21Z","duration":"PT24M20S","thumbnail":"https://i.ytimg.com/vi/b6MNH1ekDuk/mqdefault.jpg","viewCount":"68905","playlistId":"PLEkQk5xrP-tm8ZIu74nTOZN9KJUJu416J","playlistName":"مقاطع مُهمَّة (يُسريَّات) أ.د. يسري جبر","category":"متنوع"},{"id":"zBD-D5Oz8gg","title":"سيدي أبو الحسن الشاذلي | أ.د. يسري جبر","publishedAt":"2021-06-28T21:15:01Z","duration":"PT17M57S","thumbnail":"https://i.ytimg.com/vi/zBD-D5Oz8gg/mqdefault.jpg","viewCount":"68481","playlistId":"PLEkQk5xrP-tm8ZIu74nTOZN9KJUJu416J","playlistName":"مقاطع مُهمَّة (يُسريَّات) أ.د. يسري جبر","category":"متنوع"},{"id":"vX4QPFODldw","title":"كيف تحمي نفسك من الأفكار الوهابية؟","publishedAt":"2021-02-04T19:30:03Z","duration":"PT12M56S","thumbnail":"https://i.ytimg.com/vi/vX4QPFODldw/mqdefault.jpg","viewCount":"67436","playlistId":"PLEkQk5xrP-tm8ZIu74nTOZN9KJUJu416J","playlistName":"مقاطع مُهمَّة (يُسريَّات) أ.د. يسري جبر","category":"متنوع"},{"id":"TcqnEzDjyks","title":"قصة الدعاء اللي غير حياتي!","publishedAt":"2024-08-28T18:00:45Z","duration":"PT8M59S","thumbnail":"https://i.ytimg.com/vi/TcqnEzDjyks/mqdefault.jpg","viewCount":"67060","playlistId":"PLEkQk5xrP-tm8ZIu74nTOZN9KJUJu416J","playlistName":"مقاطع مُهمَّة (يُسريَّات) أ.د. يسري جبر","category":"متنوع"},{"id":"6nQTGIbHX74","title":"تجارب حياتية من حياة الدكتور يسري جبر","publishedAt":"2021-06-09T19:14:36Z","duration":"PT16M36S","thumbnail":"https://i.ytimg.com/vi/6nQTGIbHX74/mqdefault.jpg","viewCount":"65129","playlistId":"PLEkQk5xrP-tm8ZIu74nTOZN9KJUJu416J","playlistName":"مقاطع مُهمَّة (يُسريَّات) أ.د. يسري جبر","category":"متنوع"},{"id":"e6-ZwqpmqJ0","title":"هل يجوز الترحم على غير المسلمين؟","publishedAt":"2022-05-13T19:00:39Z","duration":"PT15M57S","thumbnail":"https://i.ytimg.com/vi/e6-ZwqpmqJ0/mqdefault.jpg","viewCount":"64981","playlistId":"PLEkQk5xrP-tm8ZIu74nTOZN9KJUJu416J","playlistName":"مقاطع مُهمَّة (يُسريَّات) أ.د. يسري جبر","category":"متنوع"},{"id":"KQ0gxvXO5tE","title":"كيف أتخلص من الوسواس؟","publishedAt":"2021-02-16T20:20:37Z","duration":"PT13M31S","thumbnail":"https://i.ytimg.com/vi/KQ0gxvXO5tE/mqdefault.jpg","viewCount":"64965","playlistId":"PLEkQk5xrP-tm8ZIu74nTOZN9KJUJu416J","playlistName":"مقاطع مُهمَّة (يُسريَّات) أ.د. يسري جبر","category":"متنوع"},{"id":"cll9vq-m3yE","title":"ما معنى الجذب ومن هم المجاذيب؟","publishedAt":"2022-09-10T18:00:24Z","duration":"PT8M17S","thumbnail":"https://i.ytimg.com/vi/cll9vq-m3yE/mqdefault.jpg","viewCount":"64458","playlistId":"PLEkQk5xrP-tkGXuZ9atE3k_7it12rUPTs","playlistName":"أسئلة المتابعين","category":"متنوع"},{"id":"OsWCSlTvyD8","title":"كيف تفوض الأمر لله؟","publishedAt":"2020-10-11T18:35:57Z","duration":"PT14M26S","thumbnail":"https://i.ytimg.com/vi/OsWCSlTvyD8/mqdefault.jpg","viewCount":"63649","playlistId":"PLEkQk5xrP-tm8ZIu74nTOZN9KJUJu416J","playlistName":"مقاطع مُهمَّة (يُسريَّات) أ.د. يسري جبر","category":"متنوع"},{"id":"E_-X0XtbSpg","title":"كيف قابلت السيد عبد الله الصديق الغماري  والدكتور على جمعة؟","publishedAt":"2021-02-17T19:20:01Z","duration":"PT12M5S","thumbnail":"https://i.ytimg.com/vi/E_-X0XtbSpg/mqdefault.jpg","viewCount":"61844","playlistId":"PLEkQk5xrP-tm8ZIu74nTOZN9KJUJu416J","playlistName":"مقاطع مُهمَّة (يُسريَّات) أ.د. يسري جبر","category":"متنوع"},{"id":"0cujUKajvNM","title":"أنا مش بعرف أكمل حاجة لأخرها وبفقد الأمل ,, فماذا أفعل؟","publishedAt":"2024-03-17T14:00:01Z","duration":"PT16M32S","thumbnail":"https://i.ytimg.com/vi/0cujUKajvNM/mqdefault.jpg","viewCount":"60127","playlistId":"PLEkQk5xrP-tm8ZIu74nTOZN9KJUJu416J","playlistName":"مقاطع مُهمَّة (يُسريَّات) أ.د. يسري جبر","category":"متنوع"},{"id":"DNe2ohGlRUo","title":"ما معنى كلمة مدد وغوث؟","publishedAt":"2015-04-25T19:31:25Z","duration":"PT13M56S","thumbnail":"https://i.ytimg.com/vi/DNe2ohGlRUo/mqdefault.jpg","viewCount":"59333","playlistId":"PLEkQk5xrP-tm8ZIu74nTOZN9KJUJu416J","playlistName":"مقاطع مُهمَّة (يُسريَّات) أ.د. يسري جبر","category":"متنوع"}],"total":4126,"page":2,"pageSize":24,"totalPages":172}