{"items":[{"id":"jajlXeX8Ru8","title":"مقرأة سورة الأحزاب من ٱية ٦","publishedAt":"2018-07-17T10:55:52Z","duration":"PT19M41S","thumbnail":"https://i.ytimg.com/vi/jajlXeX8Ru8/mqdefault.jpg","viewCount":"378","playlistId":"PLEkQk5xrP-tnmTYsyW6xNdyfhPq0Bhrhj","playlistName":"مقرأة الفجر - القُرْآنُ الكَرِيمُ - خَتْمَةُ التَّدَبُّرِ  أ.د. يسري جبر","category":"متنوع"},{"id":"H2oDHuTxp_g","title":"مقرأة سورة النور من آية ٢٦","publishedAt":"2018-03-14T10:29:58Z","duration":"PT16M4S","thumbnail":"https://i.ytimg.com/vi/H2oDHuTxp_g/mqdefault.jpg","viewCount":"378","playlistId":"PLEkQk5xrP-tnmTYsyW6xNdyfhPq0Bhrhj","playlistName":"مقرأة الفجر - القُرْآنُ الكَرِيمُ - خَتْمَةُ التَّدَبُّرِ  أ.د. يسري جبر","category":"متنوع"},{"id":"LWwfZs2aLDU","title":"مقرأة سورة الإسراء من آية ٤٥","publishedAt":"2017-09-26T11:40:13Z","duration":"PT18M6S","thumbnail":"https://i.ytimg.com/vi/LWwfZs2aLDU/mqdefault.jpg","viewCount":"378","playlistId":"PLEkQk5xrP-tnmTYsyW6xNdyfhPq0Bhrhj","playlistName":"مقرأة الفجر - القُرْآنُ الكَرِيمُ - خَتْمَةُ التَّدَبُّرِ  أ.د. يسري جبر","category":"متنوع"},{"id":"lJgn5cawZvU","title":"سورة هود آية 18","publishedAt":"2017-06-01T21:32:17Z","duration":"PT19M47S","thumbnail":"https://i.ytimg.com/vi/lJgn5cawZvU/mqdefault.jpg","viewCount":"378","playlistId":"PLEkQk5xrP-tnmTYsyW6xNdyfhPq0Bhrhj","playlistName":"مقرأة الفجر - القُرْآنُ الكَرِيمُ - خَتْمَةُ التَّدَبُّرِ  أ.د. يسري جبر","category":"متنوع"},{"id":"J56cnXiKkfQ","title":"سورة المائدة آية 82","publishedAt":"2016-11-20T15:23:00Z","duration":"PT12M44S","thumbnail":"https://i.ytimg.com/vi/J56cnXiKkfQ/mqdefault.jpg","viewCount":"378","playlistId":"PLEkQk5xrP-tnmTYsyW6xNdyfhPq0Bhrhj","playlistName":"مقرأة الفجر - القُرْآنُ الكَرِيمُ - خَتْمَةُ التَّدَبُّرِ  أ.د. يسري جبر","category":"متنوع"},{"id":"aal6JoVDDmM","title":"سورة النساء آية 163","publishedAt":"2016-10-01T21:03:22Z","duration":"PT13M30S","thumbnail":"https://i.ytimg.com/vi/aal6JoVDDmM/mqdefault.jpg","viewCount":"378","playlistId":"PLEkQk5xrP-tnmTYsyW6xNdyfhPq0Bhrhj","playlistName":"مقرأة الفجر - القُرْآنُ الكَرِيمُ - خَتْمَةُ التَّدَبُّرِ  أ.د. يسري جبر","category":"متنوع"},{"id":"FGmwrsRljPo","title":"مقرأة سورة الزمر من آية ٢٢","publishedAt":"2018-10-20T17:01:29Z","duration":"PT28M25S","thumbnail":"https://i.ytimg.com/vi/FGmwrsRljPo/mqdefault.jpg","viewCount":"377","playlistId":"PLEkQk5xrP-tnmTYsyW6xNdyfhPq0Bhrhj","playlistName":"مقرأة الفجر - القُرْآنُ الكَرِيمُ - خَتْمَةُ التَّدَبُّرِ  أ.د. يسري جبر","category":"متنوع"},{"id":"us7EOK5uat0","title":"١٤٩ حديث زيادة الأجر د. يسري جبر","publishedAt":"2018-05-28T17:19:32Z","duration":"PT31M42S","thumbnail":"https://i.ytimg.com/vi/us7EOK5uat0/mqdefault.jpg","viewCount":"377","playlistId":"PLEkQk5xrP-tnl7vb7KeAoPd5ZlqKKW8KV","playlistName":"شرح كتاب بهجة النفوس أ.د . يسرى جبر","category":"متنوع"},{"id":"RDRY0uDxQ_4","title":"سورة المائدة آية 48","publishedAt":"2016-11-11T11:05:40Z","duration":"PT15M18S","thumbnail":"https://i.ytimg.com/vi/RDRY0uDxQ_4/mqdefault.jpg","viewCount":"377","playlistId":"PLEkQk5xrP-tnmTYsyW6xNdyfhPq0Bhrhj","playlistName":"مقرأة الفجر - القُرْآنُ الكَرِيمُ - خَتْمَةُ التَّدَبُّرِ  أ.د. يسري جبر","category":"متنوع"},{"id":"cRH2BwXS7UQ","title":"مقرأة سورة المطففين من آية ١٨","publishedAt":"2019-07-04T10:15:49Z","duration":"PT9M55S","thumbnail":"https://i.ytimg.com/vi/cRH2BwXS7UQ/mqdefault.jpg","viewCount":"377","playlistId":"PLEkQk5xrP-tnmTYsyW6xNdyfhPq0Bhrhj","playlistName":"مقرأة الفجر - القُرْآنُ الكَرِيمُ - خَتْمَةُ التَّدَبُّرِ  أ.د. يسري جبر","category":"متنوع"},{"id":"tcQ4j3p1gXg","title":"شرح سنن الدارمي كتاب الصلاة من باب ٦٢","publishedAt":"2019-05-07T01:11:20Z","duration":"PT25M50S","thumbnail":"https://i.ytimg.com/vi/tcQ4j3p1gXg/mqdefault.jpg","viewCount":"377","playlistId":"PLEkQk5xrP-tmAg-FuWjY057X_h5NmGmAa","playlistName":"شرح سنن الدارمي - أ.د. يسري جبر (كاملا)","category":"متنوع"},{"id":"sNF8V8SgKVk","title":"شرح سنن الدارمي كتاب الطهارة من باب ٦٥","publishedAt":"2019-04-10T20:37:29Z","duration":"PT45M31S","thumbnail":"https://i.ytimg.com/vi/sNF8V8SgKVk/mqdefault.jpg","viewCount":"377","playlistId":"PLEkQk5xrP-tmAg-FuWjY057X_h5NmGmAa","playlistName":"شرح سنن الدارمي - أ.د. يسري جبر (كاملا)","category":"متنوع"},{"id":"A9fXp2e-LM4","title":"مقرأة سورة الممتحنة من آية ٤","publishedAt":"2019-04-05T07:57:34Z","duration":"PT13M35S","thumbnail":"https://i.ytimg.com/vi/A9fXp2e-LM4/mqdefault.jpg","viewCount":"377","playlistId":"PLEkQk5xrP-tnmTYsyW6xNdyfhPq0Bhrhj","playlistName":"مقرأة الفجر - القُرْآنُ الكَرِيمُ - خَتْمَةُ التَّدَبُّرِ  أ.د. يسري جبر","category":"متنوع"},{"id":"doBBE703GgA","title":"شرح سنن الدارمي كتاب الرقاق من باب ٤٥","publishedAt":"2019-10-03T19:32:04Z","duration":"PT26M50S","thumbnail":"https://i.ytimg.com/vi/doBBE703GgA/mqdefault.jpg","viewCount":"376","playlistId":"PLEkQk5xrP-tmAg-FuWjY057X_h5NmGmAa","playlistName":"شرح سنن الدارمي - أ.د. يسري جبر (كاملا)","category":"متنوع"},{"id":"o9xlJwtCjBs","title":"شرح سنن الدارمي كتاب الطلا‎ق من باب ١٢","publishedAt":"2019-08-16T11:34:54Z","duration":"PT36M14S","thumbnail":"https://i.ytimg.com/vi/o9xlJwtCjBs/mqdefault.jpg","viewCount":"376","playlistId":"PLEkQk5xrP-tmAg-FuWjY057X_h5NmGmAa","playlistName":"شرح سنن الدارمي - أ.د. يسري جبر (كاملا)","category":"متنوع"},{"id":"F_6T-tx5L_A","title":"شرح سنن الدارمي كتاب المناسك من باب ٥٧","publishedAt":"2019-07-12T07:41:32Z","duration":"PT34M8S","thumbnail":"https://i.ytimg.com/vi/F_6T-tx5L_A/mqdefault.jpg","viewCount":"376","playlistId":"PLEkQk5xrP-tmAg-FuWjY057X_h5NmGmAa","playlistName":"شرح سنن الدارمي - أ.د. يسري جبر (كاملا)","category":"متنوع"},{"id":"C_BObk_c9ts","title":"شرح سنن الدارمي كتاب الصلاة من باب ١٤٥","publishedAt":"2019-05-18T22:02:41Z","duration":"PT31M44S","thumbnail":"https://i.ytimg.com/vi/C_BObk_c9ts/mqdefault.jpg","viewCount":"376","playlistId":"PLEkQk5xrP-tmAg-FuWjY057X_h5NmGmAa","playlistName":"شرح سنن الدارمي - أ.د. يسري جبر (كاملا)","category":"متنوع"},{"id":"q-ERu8gq0Mk","title":"مقرأة سورة الأحزاب من ٱية ٥١","publishedAt":"2018-07-31T09:47:21Z","duration":"PT24M8S","thumbnail":"https://i.ytimg.com/vi/q-ERu8gq0Mk/mqdefault.jpg","viewCount":"375","playlistId":"PLEkQk5xrP-tnmTYsyW6xNdyfhPq0Bhrhj","playlistName":"مقرأة الفجر - القُرْآنُ الكَرِيمُ - خَتْمَةُ التَّدَبُّرِ  أ.د. يسري جبر","category":"متنوع"},{"id":"vbytXmL-EMw","title":"سورة الأنفال آية 45","publishedAt":"2017-03-24T07:42:46Z","duration":"PT15M6S","thumbnail":"https://i.ytimg.com/vi/vbytXmL-EMw/mqdefault.jpg","viewCount":"375","playlistId":"PLEkQk5xrP-tnmTYsyW6xNdyfhPq0Bhrhj","playlistName":"مقرأة الفجر - القُرْآنُ الكَرِيمُ - خَتْمَةُ التَّدَبُّرِ  أ.د. يسري جبر","category":"متنوع"},{"id":"NroXBc11i6c","title":"سورة الأعراف آية 187","publishedAt":"2017-03-07T17:22:25Z","duration":"PT10M29S","thumbnail":"https://i.ytimg.com/vi/NroXBc11i6c/mqdefault.jpg","viewCount":"375","playlistId":"PLEkQk5xrP-tnmTYsyW6xNdyfhPq0Bhrhj","playlistName":"مقرأة الفجر - القُرْآنُ الكَرِيمُ - خَتْمَةُ التَّدَبُّرِ  أ.د. يسري جبر","category":"متنوع"},{"id":"_aKGlsGHx98","title":"مقرأة سورة الأعراف من آية ١٤٥","publishedAt":"2017-02-28T09:46:12Z","duration":"PT18M4S","thumbnail":"https://i.ytimg.com/vi/_aKGlsGHx98/mqdefault.jpg","viewCount":"375","playlistId":"PLEkQk5xrP-tnmTYsyW6xNdyfhPq0Bhrhj","playlistName":"مقرأة الفجر - القُرْآنُ الكَرِيمُ - خَتْمَةُ التَّدَبُّرِ  أ.د. يسري جبر","category":"متنوع"},{"id":"OQGgCevvwao","title":"شرح سنن الدارمي كتاب الطهارة من باب ٩٨","publishedAt":"2019-04-17T09:24:37Z","duration":"PT35M22S","thumbnail":"https://i.ytimg.com/vi/OQGgCevvwao/mqdefault.jpg","viewCount":"375","playlistId":"PLEkQk5xrP-tmAg-FuWjY057X_h5NmGmAa","playlistName":"شرح سنن الدارمي - أ.د. يسري جبر (كاملا)","category":"متنوع"},{"id":"Cal-8hu-oGg","title":"مقرأة سورة الفتح من آية ١٨","publishedAt":"2019-01-21T16:15:34Z","duration":"PT14M25S","thumbnail":"https://i.ytimg.com/vi/Cal-8hu-oGg/mqdefault.jpg","viewCount":"374","playlistId":"PLEkQk5xrP-tnmTYsyW6xNdyfhPq0Bhrhj","playlistName":"مقرأة الفجر - القُرْآنُ الكَرِيمُ - خَتْمَةُ التَّدَبُّرِ  أ.د. يسري جبر","category":"متنوع"},{"id":"Y2SDL6twmT0","title":"مقرأة سورة الزمر من آية ٣٢","publishedAt":"2018-10-22T08:23:50Z","duration":"PT27M5S","thumbnail":"https://i.ytimg.com/vi/Y2SDL6twmT0/mqdefault.jpg","viewCount":"374","playlistId":"PLEkQk5xrP-tnmTYsyW6xNdyfhPq0Bhrhj","playlistName":"مقرأة الفجر - القُرْآنُ الكَرِيمُ - خَتْمَةُ التَّدَبُّرِ  أ.د. يسري جبر","category":"متنوع"}],"total":4126,"page":138,"pageSize":24,"totalPages":172}