{"items":[{"id":"k5zL5BEDL_o","title":"الإسلام ثمانية أسهم | اعرف نبيك في رمضان","publishedAt":"2016-06-14T19:42:55Z","duration":"PT7M6S","thumbnail":"https://i.ytimg.com/vi/k5zL5BEDL_o/mqdefault.jpg","viewCount":"662","playlistId":"PLEkQk5xrP-tmhJ_gpAAFyOpEsHp0_VAJ-","playlistName":"برنامج اعرف نبيك في رمضان","category":"متنوع"},{"id":"I-m5QAPwBtA","title":"318- فضلُ مَن ماتَ له أولادٌ صِغار - شرح دليل الفالحين","publishedAt":"2022-10-24T09:00:17Z","duration":"PT43M10S","thumbnail":"https://i.ytimg.com/vi/I-m5QAPwBtA/mqdefault.jpg","viewCount":"661","playlistId":"PLEkQk5xrP-tkc9DXvSLguqX5-FYp6ASR4","playlistName":"دليل الفالحين لطرق رياض الصالحين","category":"متنوع"},{"id":"1mLMR9GbjiI","title":"مقرأة سورة الأحزاب من أولها","publishedAt":"2018-07-16T11:19:03Z","duration":"PT16M58S","thumbnail":"https://i.ytimg.com/vi/1mLMR9GbjiI/mqdefault.jpg","viewCount":"660","playlistId":"PLEkQk5xrP-tnmTYsyW6xNdyfhPq0Bhrhj","playlistName":"مقرأة الفجر - القُرْآنُ الكَرِيمُ - خَتْمَةُ التَّدَبُّرِ  أ.د. يسري جبر","category":"متنوع"},{"id":"teN58emlNpo","title":"138- الإنفاقُ ممّا يُحِبُّ ومِنَ الجيِّد - شرح دليل الفالحين","publishedAt":"2021-10-10T05:59:16Z","duration":"PT40M59S","thumbnail":"https://i.ytimg.com/vi/teN58emlNpo/mqdefault.jpg","viewCount":"660","playlistId":"PLEkQk5xrP-tkc9DXvSLguqX5-FYp6ASR4","playlistName":"دليل الفالحين لطرق رياض الصالحين","category":"متنوع"},{"id":"NIY_HRzbT70","title":"شرح سنن الدارمي كتاب فضائل القرآن من أوله","publishedAt":"2019-11-18T04:01:47Z","duration":"PT36M6S","thumbnail":"https://i.ytimg.com/vi/NIY_HRzbT70/mqdefault.jpg","viewCount":"660","playlistId":"PLEkQk5xrP-tmAg-FuWjY057X_h5NmGmAa","playlistName":"شرح سنن الدارمي - أ.د. يسري جبر (كاملا)","category":"متنوع"},{"id":"z58G2WlBeXU","title":"مقرأة سورة الحج من آية ٦٦","publishedAt":"2018-02-16T07:23:50Z","duration":"PT12M18S","thumbnail":"https://i.ytimg.com/vi/z58G2WlBeXU/mqdefault.jpg","viewCount":"660","playlistId":"PLEkQk5xrP-tnmTYsyW6xNdyfhPq0Bhrhj","playlistName":"مقرأة الفجر - القُرْآنُ الكَرِيمُ - خَتْمَةُ التَّدَبُّرِ  أ.د. يسري جبر","category":"متنوع"},{"id":"t3QMgKf4JqU","title":"390- سِياحةَ أُمَّتي الجِهادُ في سبيلِ اللَّه عزَّ وجلَّ - شرح دليل الفالحين","publishedAt":"2023-01-24T05:00:31Z","duration":"PT36M46S","thumbnail":"https://i.ytimg.com/vi/t3QMgKf4JqU/mqdefault.jpg","viewCount":"659","playlistId":"PLEkQk5xrP-tkc9DXvSLguqX5-FYp6ASR4","playlistName":"دليل الفالحين لطرق رياض الصالحين","category":"متنوع"},{"id":"z6IJJSEC5Is","title":"( 123 ) حديث صلح الحديبية د. يسري جبر","publishedAt":"2017-06-05T15:03:52Z","duration":"PT34M10S","thumbnail":"https://i.ytimg.com/vi/z6IJJSEC5Is/mqdefault.jpg","viewCount":"659","playlistId":"PLEkQk5xrP-tnl7vb7KeAoPd5ZlqKKW8KV","playlistName":"شرح كتاب بهجة النفوس أ.د . يسرى جبر","category":"متنوع"},{"id":"HvJYkR_yAFw","title":"مقرأة سورة الحديد من آية ٢٠","publishedAt":"2019-03-22T22:00:18Z","duration":"PT27M36S","thumbnail":"https://i.ytimg.com/vi/HvJYkR_yAFw/mqdefault.jpg","viewCount":"658","playlistId":"PLEkQk5xrP-tnmTYsyW6xNdyfhPq0Bhrhj","playlistName":"مقرأة الفجر - القُرْآنُ الكَرِيمُ - خَتْمَةُ التَّدَبُّرِ  أ.د. يسري جبر","category":"متنوع"},{"id":"_g4WM0wK4q0","title":"133- غزوة أحد - شرح مسند الإمام أحمد رضي الله تعالى عنه","publishedAt":"2024-11-01T06:00:17Z","duration":"PT24M54S","thumbnail":"https://i.ytimg.com/vi/_g4WM0wK4q0/mqdefault.jpg","viewCount":"658","playlistId":"PLEkQk5xrP-tkKprIuGrSdEuBSMsyg5We1","playlistName":"شرح مسند الإمام أحمد بن حنبل","category":"متنوع"},{"id":"2R9O5XVyJBU","title":"سورة الأعراف آية ١٠","publishedAt":"2017-02-03T15:29:36Z","duration":"PT28M48S","thumbnail":"https://i.ytimg.com/vi/2R9O5XVyJBU/mqdefault.jpg","viewCount":"658","playlistId":"PLEkQk5xrP-tnmTYsyW6xNdyfhPq0Bhrhj","playlistName":"مقرأة الفجر - القُرْآنُ الكَرِيمُ - خَتْمَةُ التَّدَبُّرِ  أ.د. يسري جبر","category":"متنوع"},{"id":"w0_sMITcKC4","title":"163- النهي عن قتل أربع من الدواب - شرح مسند الإمام أحمد رضي الله تعالى عنه","publishedAt":"2025-07-20T08:01:09Z","duration":"PT32M41S","thumbnail":"https://i.ytimg.com/vi/w0_sMITcKC4/mqdefault.jpg","viewCount":"657","playlistId":"PLEkQk5xrP-tkKprIuGrSdEuBSMsyg5We1","playlistName":"شرح مسند الإمام أحمد بن حنبل","category":"متنوع"},{"id":"X1NUbcJD5co","title":"مقرأة سورة الفجر من آية ١٥","publishedAt":"2019-07-18T11:03:08Z","duration":"PT23M1S","thumbnail":"https://i.ytimg.com/vi/X1NUbcJD5co/mqdefault.jpg","viewCount":"657","playlistId":"PLEkQk5xrP-tnmTYsyW6xNdyfhPq0Bhrhj","playlistName":"مقرأة الفجر - القُرْآنُ الكَرِيمُ - خَتْمَةُ التَّدَبُّرِ  أ.د. يسري جبر","category":"متنوع"},{"id":"JK5PQmx9WgA","title":"( 121 ) حديث لا تصدقوا أهل الكتاب المجلس الأول - د. يسري جبر","publishedAt":"2017-06-01T03:11:25Z","duration":"PT27M30S","thumbnail":"https://i.ytimg.com/vi/JK5PQmx9WgA/mqdefault.jpg","viewCount":"656","playlistId":"PLEkQk5xrP-tnl7vb7KeAoPd5ZlqKKW8KV","playlistName":"شرح كتاب بهجة النفوس أ.د . يسرى جبر","category":"متنوع"},{"id":"2hoN_QcWj9c","title":"سورة المائدة آية 2","publishedAt":"2016-10-03T08:00:15Z","duration":"PT24M7S","thumbnail":"https://i.ytimg.com/vi/2hoN_QcWj9c/mqdefault.jpg","viewCount":"655","playlistId":"PLEkQk5xrP-tnmTYsyW6xNdyfhPq0Bhrhj","playlistName":"مقرأة الفجر - القُرْآنُ الكَرِيمُ - خَتْمَةُ التَّدَبُّرِ  أ.د. يسري جبر","category":"متنوع"},{"id":"bFEitKMkogQ","title":"58- شروط صحة الصلاة | شرح سنن الإمام الدار قطني","publishedAt":"2025-07-12T09:09:22Z","duration":"PT33M43S","thumbnail":"https://i.ytimg.com/vi/bFEitKMkogQ/mqdefault.jpg","viewCount":"652","playlistId":"PLEkQk5xrP-tk_MCBZ706ORCw6gFtFyaGj","playlistName":"شرح سنن الإمام الدارقطني","category":"متنوع"},{"id":"_D7EdKk_wvs","title":"167- حكم الصلاة عن الميت وقراءة القرآن له - شرح مسند الإمام أحمد رضي الله تعالى عنه","publishedAt":"2025-08-19T09:00:56Z","duration":"PT17M37S","thumbnail":"https://i.ytimg.com/vi/_D7EdKk_wvs/mqdefault.jpg","viewCount":"651","playlistId":"PLEkQk5xrP-tkKprIuGrSdEuBSMsyg5We1","playlistName":"شرح مسند الإمام أحمد بن حنبل","category":"متنوع"},{"id":"StQcVVNh7H0","title":"مقرأة سورة الكهف من آية ٢٣","publishedAt":"2017-10-18T10:16:00Z","duration":"PT13M58S","thumbnail":"https://i.ytimg.com/vi/StQcVVNh7H0/mqdefault.jpg","viewCount":"649","playlistId":"PLEkQk5xrP-tnmTYsyW6xNdyfhPq0Bhrhj","playlistName":"مقرأة الفجر - القُرْآنُ الكَرِيمُ - خَتْمَةُ التَّدَبُّرِ  أ.د. يسري جبر","category":"متنوع"},{"id":"IGLMWDkdUSs","title":"323- تكبير المسافر إِذَا صعد الثنايا وشبهها، وتسبيحه إِذَا هبط الأودية - شرح دليل الفالحين","publishedAt":"2022-11-01T09:00:17Z","duration":"PT31M56S","thumbnail":"https://i.ytimg.com/vi/IGLMWDkdUSs/mqdefault.jpg","viewCount":"649","playlistId":"PLEkQk5xrP-tkc9DXvSLguqX5-FYp6ASR4","playlistName":"دليل الفالحين لطرق رياض الصالحين","category":"متنوع"},{"id":"ldw-S7O-9bI","title":"24- حكم بول الصبي والصبية مالم يأكلا الطعام","publishedAt":"2023-12-09T09:46:26Z","duration":"PT23M20S","thumbnail":"https://i.ytimg.com/vi/ldw-S7O-9bI/mqdefault.jpg","viewCount":"649","playlistId":"PLEkQk5xrP-tk_MCBZ706ORCw6gFtFyaGj","playlistName":"شرح سنن الإمام الدارقطني","category":"متنوع"},{"id":"0xM3QUqDU_M","title":"48- حكم إعادة الصلاة في جماعة | صفة الجماعة ومن أحق بالإمامة - شرح سنن الإمام الدار قطني","publishedAt":"2024-12-15T06:30:00Z","duration":"PT36M31S","thumbnail":"https://i.ytimg.com/vi/0xM3QUqDU_M/mqdefault.jpg","viewCount":"649","playlistId":"PLEkQk5xrP-tk_MCBZ706ORCw6gFtFyaGj","playlistName":"شرح سنن الإمام الدارقطني","category":"متنوع"},{"id":"iF37vfbCdmw","title":"342- الحثُّ على حضور الجماعة في الصُّبحِ والعِشاء - شرح دليل الفالحين","publishedAt":"2022-11-24T09:00:20Z","duration":"PT43M22S","thumbnail":"https://i.ytimg.com/vi/iF37vfbCdmw/mqdefault.jpg","viewCount":"648","playlistId":"PLEkQk5xrP-tkc9DXvSLguqX5-FYp6ASR4","playlistName":"دليل الفالحين لطرق رياض الصالحين","category":"متنوع"},{"id":"GJ7EHZGN5qs","title":"468- العفو عن لغو اليمين وأنَّه لا كفَّارة فيه - شرح دليل الفالحين","publishedAt":"2023-06-05T08:59:00Z","duration":"PT33M27S","thumbnail":"https://i.ytimg.com/vi/GJ7EHZGN5qs/mqdefault.jpg","viewCount":"647","playlistId":"PLEkQk5xrP-tkc9DXvSLguqX5-FYp6ASR4","playlistName":"دليل الفالحين لطرق رياض الصالحين","category":"متنوع"},{"id":"LxGQfi9Tql8","title":"350- استحباب جعل النوافل في البيت سواء الراتبة وغيرها - شرح دليل الفالحين","publishedAt":"2022-12-02T09:00:10Z","duration":"PT30M21S","thumbnail":"https://i.ytimg.com/vi/LxGQfi9Tql8/mqdefault.jpg","viewCount":"646","playlistId":"PLEkQk5xrP-tkc9DXvSLguqX5-FYp6ASR4","playlistName":"دليل الفالحين لطرق رياض الصالحين","category":"متنوع"}],"total":4126,"page":110,"pageSize":24,"totalPages":172}