{"items":[{"id":"FPiMRiEKhU0","title":"ما الفرق بين الذنوب والسيئات؟","publishedAt":"2024-09-22T18:15:45Z","duration":"PT15M35S","thumbnail":"https://i.ytimg.com/vi/FPiMRiEKhU0/mqdefault.jpg","viewCount":"3340","playlistId":"PLEkQk5xrP-tnZyxWbCSqTSMV9BJLUL-zN","playlistName":"شرح كتاب تنوير البصيرة ببيان علامات الكبيرة","category":"متنوع"},{"id":"apcCdnNfaMU","title":"سر إفطار النبي ﷺ علي التمر | أ.د. يسري جبر","publishedAt":"2021-05-10T16:00:02Z","duration":"PT34M39S","thumbnail":"https://i.ytimg.com/vi/apcCdnNfaMU/mqdefault.jpg","viewCount":"3336","playlistId":"PLEkQk5xrP-tnl7vb7KeAoPd5ZlqKKW8KV","playlistName":"شرح كتاب بهجة النفوس أ.د . يسرى جبر","category":"متنوع"},{"id":"HDDAdr-eQHo","title":"متى يجوز الخروج على الحاكم؟ | مجالس رمضانية","publishedAt":"2024-03-16T14:00:13Z","duration":"PT31M27S","thumbnail":"https://i.ytimg.com/vi/HDDAdr-eQHo/mqdefault.jpg","viewCount":"3333","playlistId":"PLEkQk5xrP-tnl7vb7KeAoPd5ZlqKKW8KV","playlistName":"شرح كتاب بهجة النفوس أ.د . يسرى جبر","category":"متنوع"},{"id":"AnaQAgRVkY0","title":"الرد على من ينكر أن النبيﷺ هو أول خلق الله!","publishedAt":"2025-05-11T17:00:11Z","duration":"PT9M38S","thumbnail":"https://i.ytimg.com/vi/AnaQAgRVkY0/mqdefault.jpg","viewCount":"3330","playlistId":"PLEkQk5xrP-tkGXuZ9atE3k_7it12rUPTs","playlistName":"أسئلة المتابعين","category":"متنوع"},{"id":"x9LBWk6J3DI","title":"12- \"ومن كانت هجرته لدنيا يصيبها..\" تكملة شرح حديث\"إنَّما الأعمال بالنيّات، وإنَما لكل امرئٍ ما نوى\"","publishedAt":"2021-01-31T08:02:39Z","duration":"PT47M39S","thumbnail":"https://i.ytimg.com/vi/x9LBWk6J3DI/mqdefault.jpg","viewCount":"3328","playlistId":"PLEkQk5xrP-tkc9DXvSLguqX5-FYp6ASR4","playlistName":"دليل الفالحين لطرق رياض الصالحين","category":"متنوع"},{"id":"Vnk_h3viEmE","title":"فبذلك فليفرحوا - فضل سيدنا محمد وتعظيمه في القلوب - د. يسري جبر - @alerthTV","publishedAt":"2016-03-01T10:40:01Z","duration":"PT4M19S","thumbnail":"https://i.ytimg.com/vi/Vnk_h3viEmE/mqdefault.jpg","viewCount":"3327","playlistId":"PLEkQk5xrP-tmJzNvLntpzW0uPanPzxA0c","playlistName":"لقاءات ومحاضرات","category":"متنوع"},{"id":"xUw_OcMmidA","title":"رحمة الله بعباده | أ.د. يسري جبر","publishedAt":"2022-04-28T15:30:07Z","duration":"PT33M36S","thumbnail":"https://i.ytimg.com/vi/xUw_OcMmidA/mqdefault.jpg","viewCount":"3324","playlistId":"PLEkQk5xrP-tnl7vb7KeAoPd5ZlqKKW8KV","playlistName":"شرح كتاب بهجة النفوس أ.د . يسرى جبر","category":"متنوع"},{"id":"hSjTqo3nqlE","title":"22- مَا جَاءَ فِى الصَّلاَةِ عَلَى النَّبِىِّ صلى الله عليه وسلم ك الصلاة ك الموطأ د يسري جبر","publishedAt":"2016-08-23T21:34:46Z","duration":"PT49M26S","thumbnail":"https://i.ytimg.com/vi/hSjTqo3nqlE/mqdefault.jpg","viewCount":"3323","playlistId":"PLEkQk5xrP-tnC6BRuqMjyO-484iqXeg0o","playlistName":"شرح كتاب الموطأ للإمام مالك","category":"متنوع"},{"id":"UJBzeJptj9Q","title":"لا تركن لزائل","publishedAt":"2020-08-30T20:04:09Z","duration":"PT6M14S","thumbnail":"https://i.ytimg.com/vi/UJBzeJptj9Q/mqdefault.jpg","viewCount":"3319","playlistId":"PLEkQk5xrP-tm8ZIu74nTOZN9KJUJu416J","playlistName":"مقاطع مُهمَّة (يُسريَّات) أ.د. يسري جبر","category":"متنوع"},{"id":"8mWRmSnlMAU","title":"الاحتفال بالمولد النبوي الشريف ١٤٤١هـ - إنشاد جمال أنور وفرقته.","publishedAt":"2019-11-19T18:19:10Z","duration":"PT35M45S","thumbnail":"https://i.ytimg.com/vi/8mWRmSnlMAU/mqdefault.jpg","viewCount":"3317","playlistId":"PLEkQk5xrP-tlB8lmbwjAKR8KRgiykGKhb","playlistName":"حضرات يسرية ومدائح نبوية","category":"متنوع"},{"id":"UFmzj_ZtQiY","title":"هل يجوز للمرأة الزواج بدون علم أهلها؟","publishedAt":"2024-11-11T18:27:01Z","duration":"PT11M32S","thumbnail":"https://i.ytimg.com/vi/UFmzj_ZtQiY/mqdefault.jpg","viewCount":"3300","playlistId":"PLEkQk5xrP-tkGXuZ9atE3k_7it12rUPTs","playlistName":"أسئلة المتابعين","category":"متنوع"},{"id":"mJ7XSAUfek0","title":"شرح كتاب بهجة النفوس - المجلس الثالث","publishedAt":"2020-04-25T20:00:29Z","duration":"PT36M58S","thumbnail":"https://i.ytimg.com/vi/mJ7XSAUfek0/mqdefault.jpg","viewCount":"3298","playlistId":"PLEkQk5xrP-tlyEB2iywk4VchTQROnBrU6","playlistName":"بهجة النفوس من أوله  أ.د. يسري جبر","category":"متنوع"},{"id":"84QcRRSifKo","title":"ما حكم حضور حفلات الإنشاد الديني؟","publishedAt":"2024-07-09T17:23:45Z","duration":"PT8M43S","thumbnail":"https://i.ytimg.com/vi/84QcRRSifKo/mqdefault.jpg","viewCount":"3290","playlistId":"PLEkQk5xrP-tm8ZIu74nTOZN9KJUJu416J","playlistName":"مقاطع مُهمَّة (يُسريَّات) أ.د. يسري جبر","category":"متنوع"},{"id":"bAB9Xbm3RI0","title":"ليلة القدر (1) مع د. يسري جبر | اعرف نبيك في رمضان","publishedAt":"2016-07-01T19:44:06Z","duration":"PT7M49S","thumbnail":"https://i.ytimg.com/vi/bAB9Xbm3RI0/mqdefault.jpg","viewCount":"3288","playlistId":"PLEkQk5xrP-tmhJ_gpAAFyOpEsHp0_VAJ-","playlistName":"برنامج اعرف نبيك في رمضان","category":"متنوع"},{"id":"WBcW2MWxt8k","title":"ما الفرق بين الإلحاد والكفر؟ | مجالس رمضانية","publishedAt":"2024-04-05T14:30:09Z","duration":"PT43M7S","thumbnail":"https://i.ytimg.com/vi/WBcW2MWxt8k/mqdefault.jpg","viewCount":"3282","playlistId":"PLEkQk5xrP-tkeI_WVPfuoTJO46aVkpaz0","playlistName":"شرح كتاب ميزان الاعتدال لحفظ الدين والأحوال","category":"متنوع"},{"id":"UHoHsaANsvE","title":"هل يجوز العمل في السياحة؟","publishedAt":"2022-08-05T18:00:12Z","duration":"PT9M10S","thumbnail":"https://i.ytimg.com/vi/UHoHsaANsvE/mqdefault.jpg","viewCount":"3282","playlistId":"PLEkQk5xrP-tkGXuZ9atE3k_7it12rUPTs","playlistName":"أسئلة المتابعين","category":"متنوع"},{"id":"Mbil34s6r0g","title":"ربما وقفت القلوب مع الأنوار، كما حُجبت النفوس بكثائف الأغيار.","publishedAt":"2017-03-29T19:36:54Z","duration":"PT6M7S","thumbnail":"https://i.ytimg.com/vi/Mbil34s6r0g/mqdefault.jpg","viewCount":"3273","playlistId":"PLEkQk5xrP-tkI_meE148wc7V7XHlB0WPb","playlistName":"من الحكم العطائية  د. يسري جبر","category":"متنوع"},{"id":"XexJ-gpXc4M","title":"مديري عنده جنون عظمة فكيف أتعامل معه؟","publishedAt":"2025-08-14T18:00:25Z","duration":"PT10M3S","thumbnail":"https://i.ytimg.com/vi/XexJ-gpXc4M/mqdefault.jpg","viewCount":"3272","playlistId":"PLEkQk5xrP-tm8ZIu74nTOZN9KJUJu416J","playlistName":"مقاطع مُهمَّة (يُسريَّات) أ.د. يسري جبر","category":"متنوع"},{"id":"liICWeY-shI","title":"ما هي البدعة وما الفرق بين البدع السيئة والحسنة؟","publishedAt":"2025-02-17T17:31:10Z","duration":"PT17M","thumbnail":"https://i.ytimg.com/vi/liICWeY-shI/mqdefault.jpg","viewCount":"3267","playlistId":"PLEkQk5xrP-tkGXuZ9atE3k_7it12rUPTs","playlistName":"أسئلة المتابعين","category":"متنوع"},{"id":"OoVkrr1yUtg","title":"إذا أرادَ أن يُظهِرَ فضلَه عليك خَلَقَ ونَسَبَ إليك","publishedAt":"2017-01-29T12:34:01Z","duration":"PT9M47S","thumbnail":"https://i.ytimg.com/vi/OoVkrr1yUtg/mqdefault.jpg","viewCount":"3267","playlistId":"PLEkQk5xrP-tkI_meE148wc7V7XHlB0WPb","playlistName":"من الحكم العطائية  د. يسري جبر","category":"متنوع"},{"id":"pmOVzUJ9xQA","title":"97- \"مَنْ رأى منكم مُنكراً فلْيُغيِّرْه بيده، فإن لم يستطِعْ فبلسانه…\" شرح دليل الفالحين","publishedAt":"2021-07-13T05:24:44Z","duration":"PT39M20S","thumbnail":"https://i.ytimg.com/vi/pmOVzUJ9xQA/mqdefault.jpg","viewCount":"3265","playlistId":"PLEkQk5xrP-tkc9DXvSLguqX5-FYp6ASR4","playlistName":"دليل الفالحين لطرق رياض الصالحين","category":"متنوع"},{"id":"09LMmxUqrXA","title":"هل يجوز كتابة اسمي على سجادة الصلاة؟","publishedAt":"2025-04-16T18:00:00Z","duration":"PT8M58S","thumbnail":"https://i.ytimg.com/vi/09LMmxUqrXA/mqdefault.jpg","viewCount":"3264","playlistId":"PLEkQk5xrP-tkGXuZ9atE3k_7it12rUPTs","playlistName":"أسئلة المتابعين","category":"متنوع"},{"id":"E9jcw0QG59s","title":"وَكَيْفَ تَكْفُرُونَ وَأَنتُمْ تُتْلَىٰ عَلَيْكُمْ آيَاتُ اللَّهِ وَفِيكُمْ رَسُولُهُ","publishedAt":"2020-06-22T20:22:03Z","duration":"PT9M32S","thumbnail":"https://i.ytimg.com/vi/E9jcw0QG59s/mqdefault.jpg","viewCount":"3256","playlistId":"PLEkQk5xrP-tm8ZIu74nTOZN9KJUJu416J","playlistName":"مقاطع مُهمَّة (يُسريَّات) أ.د. يسري جبر","category":"متنوع"},{"id":"D6rQj6nl7sw","title":"39- \"كان مَلِكٌ فيمَن كان قَبلَكُم، وكان له ساحِرٌ..\" الحديث السادس: باب الصَّبر - شرح دليل الفالحين","publishedAt":"2021-04-03T07:08:21Z","duration":"PT50M23S","thumbnail":"https://i.ytimg.com/vi/D6rQj6nl7sw/mqdefault.jpg","viewCount":"3253","playlistId":"PLEkQk5xrP-tkc9DXvSLguqX5-FYp6ASR4","playlistName":"دليل الفالحين لطرق رياض الصالحين","category":"متنوع"}],"total":4126,"page":49,"pageSize":24,"totalPages":172}