{"items":[{"id":"MiyNG2bO44Q","title":"( 128 ) حديث جواز اتخاذ الخادم للرجل الصالح - د. يسري جبر","publishedAt":"2017-06-12T05:51:42Z","duration":"PT27M42S","thumbnail":"https://i.ytimg.com/vi/MiyNG2bO44Q/mqdefault.jpg","viewCount":"720","playlistId":"PLEkQk5xrP-tnl7vb7KeAoPd5ZlqKKW8KV","playlistName":"شرح كتاب بهجة النفوس أ.د . يسرى جبر","category":"متنوع"},{"id":"owAspWqx_1M","title":"المجلس الحادي عشر (١٦٠) حديث الإسراء والمعراج بنبينا صلى الله عليه وآله وسلم  أ. د. يسري جبر","publishedAt":"2019-05-06T15:50:55Z","duration":"PT30M24S","thumbnail":"https://i.ytimg.com/vi/owAspWqx_1M/mqdefault.jpg","viewCount":"719","playlistId":"PLEkQk5xrP-tnl7vb7KeAoPd5ZlqKKW8KV","playlistName":"شرح كتاب بهجة النفوس أ.د . يسرى جبر","category":"متنوع"},{"id":"b_EIyU_-FLs","title":"مقرأة سورة قريش من أولها","publishedAt":"2019-08-11T20:25:20Z","duration":"PT7M33S","thumbnail":"https://i.ytimg.com/vi/b_EIyU_-FLs/mqdefault.jpg","viewCount":"717","playlistId":"PLEkQk5xrP-tnmTYsyW6xNdyfhPq0Bhrhj","playlistName":"مقرأة الفجر - القُرْآنُ الكَرِيمُ - خَتْمَةُ التَّدَبُّرِ  أ.د. يسري جبر","category":"متنوع"},{"id":"8YrqcbsRqcU","title":"هل يجوز الانتفاع بجلود الحيوانات؟ | أ.د. يسري جبر","publishedAt":"2022-04-04T15:30:03Z","duration":"PT32M47S","thumbnail":"https://i.ytimg.com/vi/8YrqcbsRqcU/mqdefault.jpg","viewCount":"715","playlistId":"PLEkQk5xrP-tnl7vb7KeAoPd5ZlqKKW8KV","playlistName":"شرح كتاب بهجة النفوس أ.د . يسرى جبر","category":"متنوع"},{"id":"Rg4DgrDFuBg","title":"حكم من مات وعليه صيام | اعرف نبيك في رمضان","publishedAt":"2016-06-30T19:48:28Z","duration":"PT8M32S","thumbnail":"https://i.ytimg.com/vi/Rg4DgrDFuBg/mqdefault.jpg","viewCount":"712","playlistId":"PLEkQk5xrP-tmhJ_gpAAFyOpEsHp0_VAJ-","playlistName":"برنامج اعرف نبيك في رمضان","category":"متنوع"},{"id":"BZpI2EwGoC4","title":"10- حديث الإسراء والمعراج بنبينا صلى الله عليه وآله وسلم (المجلس العاشر). د. يسري جبر","publishedAt":"2018-06-29T09:14:15Z","duration":"PT34M48S","thumbnail":"https://i.ytimg.com/vi/BZpI2EwGoC4/mqdefault.jpg","viewCount":"711","playlistId":"PLEkQk5xrP-tnl7vb7KeAoPd5ZlqKKW8KV","playlistName":"شرح كتاب بهجة النفوس أ.د . يسرى جبر","category":"متنوع"},{"id":"sEck0NDKy_c","title":"قراءة القرآن (من آية ٢٦ سورة آل عمران)","publishedAt":"2016-06-09T05:44:54Z","duration":"PT14M14S","thumbnail":"https://i.ytimg.com/vi/sEck0NDKy_c/mqdefault.jpg","viewCount":"709","playlistId":"PLEkQk5xrP-tnmTYsyW6xNdyfhPq0Bhrhj","playlistName":"مقرأة الفجر - القُرْآنُ الكَرِيمُ - خَتْمَةُ التَّدَبُّرِ  أ.د. يسري جبر","category":"متنوع"},{"id":"q9uwRPZEJ9Y","title":"قراءة القرآن (من آية ٢٥٦ سورة البقرة)","publishedAt":"2016-05-26T02:21:52Z","duration":"PT21M22S","thumbnail":"https://i.ytimg.com/vi/q9uwRPZEJ9Y/mqdefault.jpg","viewCount":"708","playlistId":"PLEkQk5xrP-tnmTYsyW6xNdyfhPq0Bhrhj","playlistName":"مقرأة الفجر - القُرْآنُ الكَرِيمُ - خَتْمَةُ التَّدَبُّرِ  أ.د. يسري جبر","category":"متنوع"},{"id":"Kv-d34BUL_Y","title":"برنامج - عصمة الأنبياء - الحلقة الرابعة والعشرون -شبهة تحذير آيات من القرآن الموجهة له - @alerthTV","publishedAt":"2019-04-07T16:59:31Z","duration":"PT26M23S","thumbnail":"https://i.ytimg.com/vi/Kv-d34BUL_Y/mqdefault.jpg","viewCount":"708","playlistId":"PLEkQk5xrP-tnBp9yUT_R2vtqSPOlcyAZe","playlistName":"برنامج - عصمة الأنبياء","category":"متنوع"},{"id":"D0G1WWbU41A","title":"قراءة القرآن (من آية ٢٣٣ سورة البقرة)","publishedAt":"2016-05-18T02:33:32Z","duration":"PT20M27S","thumbnail":"https://i.ytimg.com/vi/D0G1WWbU41A/mqdefault.jpg","viewCount":"707","playlistId":"PLEkQk5xrP-tnmTYsyW6xNdyfhPq0Bhrhj","playlistName":"مقرأة الفجر - القُرْآنُ الكَرِيمُ - خَتْمَةُ التَّدَبُّرِ  أ.د. يسري جبر","category":"متنوع"},{"id":"53xt4ik_X0Q","title":"قراءة القرآن (من آية ١٠ سورة آل عمران)","publishedAt":"2016-06-05T20:09:14Z","duration":"PT8M47S","thumbnail":"https://i.ytimg.com/vi/53xt4ik_X0Q/mqdefault.jpg","viewCount":"706","playlistId":"PLEkQk5xrP-tnmTYsyW6xNdyfhPq0Bhrhj","playlistName":"مقرأة الفجر - القُرْآنُ الكَرِيمُ - خَتْمَةُ التَّدَبُّرِ  أ.د. يسري جبر","category":"متنوع"},{"id":"YQReGr1S2J8","title":"سورة المائدة آية 1","publishedAt":"2016-10-02T07:17:41Z","duration":"PT18M34S","thumbnail":"https://i.ytimg.com/vi/YQReGr1S2J8/mqdefault.jpg","viewCount":"705","playlistId":"PLEkQk5xrP-tnmTYsyW6xNdyfhPq0Bhrhj","playlistName":"مقرأة الفجر - القُرْآنُ الكَرِيمُ - خَتْمَةُ التَّدَبُّرِ  أ.د. يسري جبر","category":"متنوع"},{"id":"CWUJACdZZVY","title":"480- حكم رد الريحان وسائر أنواع الطِيب بغير عذر - شرح دليل الفالحين","publishedAt":"2023-06-19T08:59:00Z","duration":"PT25M13S","thumbnail":"https://i.ytimg.com/vi/CWUJACdZZVY/mqdefault.jpg","viewCount":"704","playlistId":"PLEkQk5xrP-tkc9DXvSLguqX5-FYp6ASR4","playlistName":"دليل الفالحين لطرق رياض الصالحين","category":"متنوع"},{"id":"cgQT-reecD4","title":"مقرأة سورة النبأ من آية ١٧","publishedAt":"2019-06-12T09:49:15Z","duration":"PT17M9S","thumbnail":"https://i.ytimg.com/vi/cgQT-reecD4/mqdefault.jpg","viewCount":"704","playlistId":"PLEkQk5xrP-tnmTYsyW6xNdyfhPq0Bhrhj","playlistName":"مقرأة الفجر - القُرْآنُ الكَرِيمُ - خَتْمَةُ التَّدَبُّرِ  أ.د. يسري جبر","category":"متنوع"},{"id":"0XvEAinEK4A","title":"466- حكم الحَلِف بمخلوقٍ كالنَّبيّ والكعبة والملائكة والسماء والآباء والحياة - شرح دليل الفالحين","publishedAt":"2023-06-03T18:00:00Z","duration":"PT15M24S","thumbnail":"https://i.ytimg.com/vi/0XvEAinEK4A/mqdefault.jpg","viewCount":"703","playlistId":"PLEkQk5xrP-tkc9DXvSLguqX5-FYp6ASR4","playlistName":"دليل الفالحين لطرق رياض الصالحين","category":"متنوع"},{"id":"YH_lk_77LdY","title":"301- آدَابُ السَّلَام - شرح دليل الفالحين","publishedAt":"2022-09-16T06:00:09Z","duration":"PT33M15S","thumbnail":"https://i.ytimg.com/vi/YH_lk_77LdY/mqdefault.jpg","viewCount":"702","playlistId":"PLEkQk5xrP-tkc9DXvSLguqX5-FYp6ASR4","playlistName":"دليل الفالحين لطرق رياض الصالحين","category":"متنوع"},{"id":"BLBzaiokySM","title":"شرح سنن الدارمي - المقدمة - ٢٩","publishedAt":"2019-03-19T21:38:43Z","duration":"PT40M8S","thumbnail":"https://i.ytimg.com/vi/BLBzaiokySM/mqdefault.jpg","viewCount":"701","playlistId":"PLEkQk5xrP-tmAg-FuWjY057X_h5NmGmAa","playlistName":"شرح سنن الدارمي - أ.د. يسري جبر (كاملا)","category":"متنوع"},{"id":"JkHf5ZvMJkk","title":"340- فضلُ انتظار الصَّلاة - شرح دليل الفالحين","publishedAt":"2022-11-23T05:00:05Z","duration":"PT20M17S","thumbnail":"https://i.ytimg.com/vi/JkHf5ZvMJkk/mqdefault.jpg","viewCount":"701","playlistId":"PLEkQk5xrP-tkc9DXvSLguqX5-FYp6ASR4","playlistName":"دليل الفالحين لطرق رياض الصالحين","category":"متنوع"},{"id":"rI8HCHV_pmk","title":"160- كيف نفهم النهي عن كسب الحجام وعلاقته بأجر الطبيب - شرح مسند الإمام أحمد رضي الله تعالى عنه","publishedAt":"2025-04-28T09:01:09Z","duration":"PT18M2S","thumbnail":"https://i.ytimg.com/vi/rI8HCHV_pmk/mqdefault.jpg","viewCount":"701","playlistId":"PLEkQk5xrP-tkKprIuGrSdEuBSMsyg5We1","playlistName":"شرح مسند الإمام أحمد بن حنبل","category":"متنوع"},{"id":"bQYAnR77B_A","title":"66- ماذا تفعل إذا ضاع عليك وقت الصلاة؟ وأحكام قصر الصلاة وجمعها | شرح سنن الإمام الدارقطني","publishedAt":"2025-10-25T09:00:55Z","duration":"PT38M58S","thumbnail":"https://i.ytimg.com/vi/bQYAnR77B_A/mqdefault.jpg","viewCount":"700","playlistId":"PLEkQk5xrP-tk_MCBZ706ORCw6gFtFyaGj","playlistName":"شرح سنن الإمام الدارقطني","category":"متنوع"},{"id":"X4-AhQm1TDE","title":"قراءة القرآن (من آية ٤٨ سورة آل عمران)","publishedAt":"2016-06-13T09:30:10Z","duration":"PT12M8S","thumbnail":"https://i.ytimg.com/vi/X4-AhQm1TDE/mqdefault.jpg","viewCount":"700","playlistId":"PLEkQk5xrP-tnmTYsyW6xNdyfhPq0Bhrhj","playlistName":"مقرأة الفجر - القُرْآنُ الكَرِيمُ - خَتْمَةُ التَّدَبُّرِ  أ.د. يسري جبر","category":"متنوع"},{"id":"xpgCW6Zz_hw","title":"قيمة الإنسان في الشرع الشريف","publishedAt":"2014-05-01T12:03:57Z","duration":"PT1H39M42S","thumbnail":"https://i.ytimg.com/vi/xpgCW6Zz_hw/mqdefault.jpg","viewCount":"700","playlistId":"PLEkQk5xrP-tmJzNvLntpzW0uPanPzxA0c","playlistName":"لقاءات ومحاضرات","category":"متنوع"},{"id":"fdmLv_wY86g","title":"325- استحبابُ تعجيل المسافر الرجوع إلى أهله إذا قضى حاجته - شرح دليل الفالحين","publishedAt":"2022-11-03T09:00:30Z","duration":"PT31M57S","thumbnail":"https://i.ytimg.com/vi/fdmLv_wY86g/mqdefault.jpg","viewCount":"700","playlistId":"PLEkQk5xrP-tkc9DXvSLguqX5-FYp6ASR4","playlistName":"دليل الفالحين لطرق رياض الصالحين","category":"متنوع"},{"id":"49OhbQ35Rkc","title":"386- اللَّهُمَّ، بَلِّغْ عَنَّا نَبِيَّنَا أنَّا قدْ لَقِينَاكَ فَرَضِينَا عَنْكَ، وَرَضِيتَ عَنَّا","publishedAt":"2023-01-19T09:00:02Z","duration":"PT41M32S","thumbnail":"https://i.ytimg.com/vi/49OhbQ35Rkc/mqdefault.jpg","viewCount":"700","playlistId":"PLEkQk5xrP-tkc9DXvSLguqX5-FYp6ASR4","playlistName":"دليل الفالحين لطرق رياض الصالحين","category":"متنوع"}],"total":4126,"page":107,"pageSize":24,"totalPages":172}