{"items":[{"id":"WYsDduOnUbQ","title":"مقرأة سورة الإسراء من آية ٦٠","publishedAt":"2017-09-30T09:41:02Z","duration":"PT8M39S","thumbnail":"https://i.ytimg.com/vi/WYsDduOnUbQ/mqdefault.jpg","viewCount":"343","playlistId":"PLEkQk5xrP-tnmTYsyW6xNdyfhPq0Bhrhj","playlistName":"مقرأة الفجر - القُرْآنُ الكَرِيمُ - خَتْمَةُ التَّدَبُّرِ  أ.د. يسري جبر","category":"متنوع"},{"id":"7ZGdaKznX54","title":"مقرأة سورة النحل من آية ١٢٠","publishedAt":"2017-09-12T12:39:10Z","duration":"PT21M11S","thumbnail":"https://i.ytimg.com/vi/7ZGdaKznX54/mqdefault.jpg","viewCount":"343","playlistId":"PLEkQk5xrP-tnmTYsyW6xNdyfhPq0Bhrhj","playlistName":"مقرأة الفجر - القُرْآنُ الكَرِيمُ - خَتْمَةُ التَّدَبُّرِ  أ.د. يسري جبر","category":"متنوع"},{"id":"cgd18-iFGGw","title":"46- بِنَاءِ الْكَعْبَةِ كتاب الحج ك الموطأ د يسري جبر الأزهري  بمضيفة الشيخ سعيد الدح","publishedAt":"2017-03-26T22:47:23Z","duration":"PT59M10S","thumbnail":"https://i.ytimg.com/vi/cgd18-iFGGw/mqdefault.jpg","viewCount":"343","playlistId":"PLEkQk5xrP-tnC6BRuqMjyO-484iqXeg0o","playlistName":"شرح كتاب الموطأ للإمام مالك","category":"متنوع"},{"id":"ItHP6HFV-r8","title":"مقرأة سورة الأنفال من آية ٤١","publishedAt":"2017-03-23T06:34:42Z","duration":"PT26M36S","thumbnail":"https://i.ytimg.com/vi/ItHP6HFV-r8/mqdefault.jpg","viewCount":"343","playlistId":"PLEkQk5xrP-tnmTYsyW6xNdyfhPq0Bhrhj","playlistName":"مقرأة الفجر - القُرْآنُ الكَرِيمُ - خَتْمَةُ التَّدَبُّرِ  أ.د. يسري جبر","category":"متنوع"},{"id":"ai_n_-naebE","title":"شرح كتاب الطب من سنن الترمذي - المجلس الأول","publishedAt":"2015-11-26T05:54:20Z","duration":"PT36M40S","thumbnail":"https://i.ytimg.com/vi/ai_n_-naebE/mqdefault.jpg","viewCount":"343","playlistId":"PLEkQk5xrP-tnu6of679SvxdVx0qSrJzmb","playlistName":"شرح سنن الإمام الترمذي رضى الله عنه د. يسري جبر","category":"متنوع"},{"id":"N7LbI1FJZRQ","title":"مقرأة سورة الزمر من آية ٣٩","publishedAt":"2018-10-23T12:44:21Z","duration":"PT26M35S","thumbnail":"https://i.ytimg.com/vi/N7LbI1FJZRQ/mqdefault.jpg","viewCount":"343","playlistId":"PLEkQk5xrP-tnmTYsyW6xNdyfhPq0Bhrhj","playlistName":"مقرأة الفجر - القُرْآنُ الكَرِيمُ - خَتْمَةُ التَّدَبُّرِ  أ.د. يسري جبر","category":"متنوع"},{"id":"-91GoJh1GS0","title":"شرح سنن الدارمي كتاب المناسك من باب ٤٣","publishedAt":"2019-07-09T18:12:10Z","duration":"PT32M50S","thumbnail":"https://i.ytimg.com/vi/-91GoJh1GS0/mqdefault.jpg","viewCount":"342","playlistId":"PLEkQk5xrP-tmAg-FuWjY057X_h5NmGmAa","playlistName":"شرح سنن الدارمي - أ.د. يسري جبر (كاملا)","category":"متنوع"},{"id":"8BUNyjLmRKY","title":"مقرأة سورة العنكبوت من آية ٢٠","publishedAt":"2018-06-07T07:56:58Z","duration":"PT14M47S","thumbnail":"https://i.ytimg.com/vi/8BUNyjLmRKY/mqdefault.jpg","viewCount":"342","playlistId":"PLEkQk5xrP-tnmTYsyW6xNdyfhPq0Bhrhj","playlistName":"مقرأة الفجر - القُرْآنُ الكَرِيمُ - خَتْمَةُ التَّدَبُّرِ  أ.د. يسري جبر","category":"متنوع"},{"id":"0rIyTQpfN-k","title":"مقرأة سورة القصص من آية ٥٨","publishedAt":"2018-05-28T23:09:04Z","duration":"PT10M31S","thumbnail":"https://i.ytimg.com/vi/0rIyTQpfN-k/mqdefault.jpg","viewCount":"342","playlistId":"PLEkQk5xrP-tnmTYsyW6xNdyfhPq0Bhrhj","playlistName":"مقرأة الفجر - القُرْآنُ الكَرِيمُ - خَتْمَةُ التَّدَبُّرِ  أ.د. يسري جبر","category":"متنوع"},{"id":"ot1jJmxiXTE","title":"مقرأة سورة فصلت من آية ١٣","publishedAt":"2018-11-21T15:14:42Z","duration":"PT18M23S","thumbnail":"https://i.ytimg.com/vi/ot1jJmxiXTE/mqdefault.jpg","viewCount":"342","playlistId":"PLEkQk5xrP-tnmTYsyW6xNdyfhPq0Bhrhj","playlistName":"مقرأة الفجر - القُرْآنُ الكَرِيمُ - خَتْمَةُ التَّدَبُّرِ  أ.د. يسري جبر","category":"متنوع"},{"id":"1gQzccNaCDs","title":"مقرأة سورة فصلت من آية ٤٠","publishedAt":"2018-11-26T09:12:33Z","duration":"PT22M51S","thumbnail":"https://i.ytimg.com/vi/1gQzccNaCDs/mqdefault.jpg","viewCount":"341","playlistId":"PLEkQk5xrP-tnmTYsyW6xNdyfhPq0Bhrhj","playlistName":"مقرأة الفجر - القُرْآنُ الكَرِيمُ - خَتْمَةُ التَّدَبُّرِ  أ.د. يسري جبر","category":"متنوع"},{"id":"rhdAhbVORQI","title":"شرح سنن الدارمي كتاب المناسك من باب ١٦","publishedAt":"2019-07-02T21:20:01Z","duration":"PT27M36S","thumbnail":"https://i.ytimg.com/vi/rhdAhbVORQI/mqdefault.jpg","viewCount":"341","playlistId":"PLEkQk5xrP-tmAg-FuWjY057X_h5NmGmAa","playlistName":"شرح سنن الدارمي - أ.د. يسري جبر (كاملا)","category":"متنوع"},{"id":"988NJsRVRgk","title":"شرح سنن الدارمي كتاب الصوم من باب ٢٤","publishedAt":"2019-06-16T23:38:45Z","duration":"PT21M42S","thumbnail":"https://i.ytimg.com/vi/988NJsRVRgk/mqdefault.jpg","viewCount":"341","playlistId":"PLEkQk5xrP-tmAg-FuWjY057X_h5NmGmAa","playlistName":"شرح سنن الدارمي - أ.د. يسري جبر (كاملا)","category":"متنوع"},{"id":"qaiiBOZj0I8","title":"مقرأة سورة المؤمنون آية ١٢","publishedAt":"2018-02-21T11:23:57Z","duration":"PT12M22S","thumbnail":"https://i.ytimg.com/vi/qaiiBOZj0I8/mqdefault.jpg","viewCount":"341","playlistId":"PLEkQk5xrP-tnmTYsyW6xNdyfhPq0Bhrhj","playlistName":"مقرأة الفجر - القُرْآنُ الكَرِيمُ - خَتْمَةُ التَّدَبُّرِ  أ.د. يسري جبر","category":"متنوع"},{"id":"XVb6PqIzOhw","title":"مقرأة سورة الحج من آية ٥٢","publishedAt":"2018-02-11T09:56:03Z","duration":"PT19M38S","thumbnail":"https://i.ytimg.com/vi/XVb6PqIzOhw/mqdefault.jpg","viewCount":"341","playlistId":"PLEkQk5xrP-tnmTYsyW6xNdyfhPq0Bhrhj","playlistName":"مقرأة الفجر - القُرْآنُ الكَرِيمُ - خَتْمَةُ التَّدَبُّرِ  أ.د. يسري جبر","category":"متنوع"},{"id":"j264rD3oDeo","title":"مقرأة سورة الحج من آية ٤١","publishedAt":"2018-02-05T13:45:48Z","duration":"PT18M42S","thumbnail":"https://i.ytimg.com/vi/j264rD3oDeo/mqdefault.jpg","viewCount":"341","playlistId":"PLEkQk5xrP-tnmTYsyW6xNdyfhPq0Bhrhj","playlistName":"مقرأة الفجر - القُرْآنُ الكَرِيمُ - خَتْمَةُ التَّدَبُّرِ  أ.د. يسري جبر","category":"متنوع"},{"id":"KdFDgZE5GnI","title":"مقرأة سورة طه من آية ٨٩","publishedAt":"2017-12-06T08:40:25Z","duration":"PT22M10S","thumbnail":"https://i.ytimg.com/vi/KdFDgZE5GnI/mqdefault.jpg","viewCount":"341","playlistId":"PLEkQk5xrP-tnmTYsyW6xNdyfhPq0Bhrhj","playlistName":"مقرأة الفجر - القُرْآنُ الكَرِيمُ - خَتْمَةُ التَّدَبُّرِ  أ.د. يسري جبر","category":"متنوع"},{"id":"diKF5bR-HwI","title":"44- مَا لاَ يَجِبُ فِيهِ التَّمَتُّعُ كتاب الحج ك الموطأ د يسري جبر الأزهري","publishedAt":"2017-03-02T16:44:05Z","duration":"PT1H11M41S","thumbnail":"https://i.ytimg.com/vi/diKF5bR-HwI/mqdefault.jpg","viewCount":"341","playlistId":"PLEkQk5xrP-tnC6BRuqMjyO-484iqXeg0o","playlistName":"شرح كتاب الموطأ للإمام مالك","category":"متنوع"},{"id":"nLBtDlbljfI","title":"39- فِدْيَةِ مَنْ أَفْطَرَ فِى رَمَضَانَ مِنْ عِلَّةٍ كتاب الصيام ك الموطأ د يسري جبر الأزهري","publishedAt":"2017-01-26T02:19:15Z","duration":"PT58M28S","thumbnail":"https://i.ytimg.com/vi/nLBtDlbljfI/mqdefault.jpg","viewCount":"341","playlistId":"PLEkQk5xrP-tnC6BRuqMjyO-484iqXeg0o","playlistName":"شرح كتاب الموطأ للإمام مالك","category":"متنوع"},{"id":"n2ubrpIpR9c","title":"مقرأة سورة العنكبوت من آية ١٦","publishedAt":"2018-06-06T10:09:30Z","duration":"PT16M9S","thumbnail":"https://i.ytimg.com/vi/n2ubrpIpR9c/mqdefault.jpg","viewCount":"340","playlistId":"PLEkQk5xrP-tnmTYsyW6xNdyfhPq0Bhrhj","playlistName":"مقرأة الفجر - القُرْآنُ الكَرِيمُ - خَتْمَةُ التَّدَبُّرِ  أ.د. يسري جبر","category":"متنوع"},{"id":"DnpAV4JcAZI","title":"مقرأة سورة الإسراء من آية ١٨","publishedAt":"2017-09-17T07:43:59Z","duration":"PT12M9S","thumbnail":"https://i.ytimg.com/vi/DnpAV4JcAZI/mqdefault.jpg","viewCount":"340","playlistId":"PLEkQk5xrP-tnmTYsyW6xNdyfhPq0Bhrhj","playlistName":"مقرأة الفجر - القُرْآنُ الكَرِيمُ - خَتْمَةُ التَّدَبُّرِ  أ.د. يسري جبر","category":"متنوع"},{"id":"lv050bJwBDM","title":"شرح سنن الدارمي كتاب النذور والأيمان من أوله","publishedAt":"2019-08-19T16:26:00Z","duration":"PT24M31S","thumbnail":"https://i.ytimg.com/vi/lv050bJwBDM/mqdefault.jpg","viewCount":"339","playlistId":"PLEkQk5xrP-tmAg-FuWjY057X_h5NmGmAa","playlistName":"شرح سنن الدارمي - أ.د. يسري جبر (كاملا)","category":"متنوع"},{"id":"Xy1R5-h7TLY","title":"مقرأة سورة الروم من آية ١٩","publishedAt":"2018-06-19T13:37:45Z","duration":"PT19M18S","thumbnail":"https://i.ytimg.com/vi/Xy1R5-h7TLY/mqdefault.jpg","viewCount":"339","playlistId":"PLEkQk5xrP-tnmTYsyW6xNdyfhPq0Bhrhj","playlistName":"مقرأة الفجر - القُرْآنُ الكَرِيمُ - خَتْمَةُ التَّدَبُّرِ  أ.د. يسري جبر","category":"متنوع"},{"id":"2ofBcqT8qnQ","title":"سورة الأنفال آية 70","publishedAt":"2017-03-28T04:41:51Z","duration":"PT12M15S","thumbnail":"https://i.ytimg.com/vi/2ofBcqT8qnQ/mqdefault.jpg","viewCount":"339","playlistId":"PLEkQk5xrP-tnmTYsyW6xNdyfhPq0Bhrhj","playlistName":"مقرأة الفجر - القُرْآنُ الكَرِيمُ - خَتْمَةُ التَّدَبُّرِ  أ.د. يسري جبر","category":"متنوع"}],"total":4126,"page":145,"pageSize":24,"totalPages":172}