{"items":[{"id":"3y3lm9c0EJg","title":"321- آدَابُ السَّيرِ والنِّزول والمَبيت والنَّومِ في السَّفر - شرح دليل الفالحين","publishedAt":"2022-10-29T05:00:01Z","duration":"PT1H6M4S","thumbnail":"https://i.ytimg.com/vi/3y3lm9c0EJg/mqdefault.jpg","viewCount":"632","playlistId":"PLEkQk5xrP-tkc9DXvSLguqX5-FYp6ASR4","playlistName":"دليل الفالحين لطرق رياض الصالحين","category":"متنوع"},{"id":"HW43CPZ1nOk","title":"حديث (١٧٤) التداوي من الحُمَّى بالماء  أ.د. يسري جبر","publishedAt":"2019-05-28T13:59:41Z","duration":"PT25M10S","thumbnail":"https://i.ytimg.com/vi/HW43CPZ1nOk/mqdefault.jpg","viewCount":"630","playlistId":"PLEkQk5xrP-tnl7vb7KeAoPd5ZlqKKW8KV","playlistName":"شرح كتاب بهجة النفوس أ.د . يسرى جبر","category":"متنوع"},{"id":"qax-pwEppCk","title":"قراءة وتفسير سورة المائدة آية 6","publishedAt":"2016-10-27T03:55:02Z","duration":"PT33M58S","thumbnail":"https://i.ytimg.com/vi/qax-pwEppCk/mqdefault.jpg","viewCount":"629","playlistId":"PLEkQk5xrP-tnmTYsyW6xNdyfhPq0Bhrhj","playlistName":"مقرأة الفجر - القُرْآنُ الكَرِيمُ - خَتْمَةُ التَّدَبُّرِ  أ.د. يسري جبر","category":"متنوع"},{"id":"H2G2Goa0cXQ","title":"20- التَّشْدِيدِ فِى أَنْ يَمُرَّ أَحَدٌ بَيْنَ يَدَىِ الْمُصَلِّى ك قصرالصلاة ك الموطأ د يسري جبر","publishedAt":"2016-08-12T12:41:40Z","duration":"PT56M32S","thumbnail":"https://i.ytimg.com/vi/H2G2Goa0cXQ/mqdefault.jpg","viewCount":"629","playlistId":"PLEkQk5xrP-tnC6BRuqMjyO-484iqXeg0o","playlistName":"شرح كتاب الموطأ للإمام مالك","category":"متنوع"},{"id":"Uie1YHnFFRY","title":"سورة النساء آية 11","publishedAt":"2016-08-12T17:47:12Z","duration":"PT14M15S","thumbnail":"https://i.ytimg.com/vi/Uie1YHnFFRY/mqdefault.jpg","viewCount":"626","playlistId":"PLEkQk5xrP-tnmTYsyW6xNdyfhPq0Bhrhj","playlistName":"مقرأة الفجر - القُرْآنُ الكَرِيمُ - خَتْمَةُ التَّدَبُّرِ  أ.د. يسري جبر","category":"متنوع"},{"id":"3nNyT-qmqZI","title":"شرح سنن الدارمي - المقدمة - ٢٧","publishedAt":"2019-03-18T22:45:01Z","duration":"PT48M16S","thumbnail":"https://i.ytimg.com/vi/3nNyT-qmqZI/mqdefault.jpg","viewCount":"626","playlistId":"PLEkQk5xrP-tmAg-FuWjY057X_h5NmGmAa","playlistName":"شرح سنن الدارمي - أ.د. يسري جبر (كاملا)","category":"متنوع"},{"id":"HZoHMo26tsQ","title":"16- فَضْلِ صَلاَةِ الْجَمَاعَةِ عَلَى صَلاَةِ الْفَذِّ ك صلاة الجماعة ك الموطأ د يسري جبر الأزهري","publishedAt":"2016-05-28T02:05:39Z","duration":"PT42M9S","thumbnail":"https://i.ytimg.com/vi/HZoHMo26tsQ/mqdefault.jpg","viewCount":"624","playlistId":"PLEkQk5xrP-tnC6BRuqMjyO-484iqXeg0o","playlistName":"شرح كتاب الموطأ للإمام مالك","category":"متنوع"},{"id":"cblB5BSWDxU","title":"سورة الأنفال من أولها","publishedAt":"2017-03-15T08:36:33Z","duration":"PT20M21S","thumbnail":"https://i.ytimg.com/vi/cblB5BSWDxU/mqdefault.jpg","viewCount":"624","playlistId":"PLEkQk5xrP-tnmTYsyW6xNdyfhPq0Bhrhj","playlistName":"مقرأة الفجر - القُرْآنُ الكَرِيمُ - خَتْمَةُ التَّدَبُّرِ  أ.د. يسري جبر","category":"متنوع"},{"id":"iMvlu2b4wIM","title":"116- حكم بيع الطعام قبل أن يُستوفى - شرح مسند الإمام أحمد رضي الله تعالى عنه","publishedAt":"2024-07-14T05:00:22Z","duration":"PT33M45S","thumbnail":"https://i.ytimg.com/vi/iMvlu2b4wIM/mqdefault.jpg","viewCount":"624","playlistId":"PLEkQk5xrP-tkKprIuGrSdEuBSMsyg5We1","playlistName":"شرح مسند الإمام أحمد بن حنبل","category":"متنوع"},{"id":"kRgerExYEvg","title":"46-  كيفية تحديد مواقيت الصلاة | شرح سنن الدار قطني رضي الله عنه","publishedAt":"2024-11-30T09:00:50Z","duration":"PT39M38S","thumbnail":"https://i.ytimg.com/vi/kRgerExYEvg/mqdefault.jpg","viewCount":"623","playlistId":"PLEkQk5xrP-tk_MCBZ706ORCw6gFtFyaGj","playlistName":"شرح سنن الإمام الدارقطني","category":"متنوع"},{"id":"7YTAsBDAXbs","title":"مقرأة سورة فصلت من أولها","publishedAt":"2018-11-18T17:33:59Z","duration":"PT19M29S","thumbnail":"https://i.ytimg.com/vi/7YTAsBDAXbs/mqdefault.jpg","viewCount":"622","playlistId":"PLEkQk5xrP-tnmTYsyW6xNdyfhPq0Bhrhj","playlistName":"مقرأة الفجر - القُرْآنُ الكَرِيمُ - خَتْمَةُ التَّدَبُّرِ  أ.د. يسري جبر","category":"متنوع"},{"id":"l3s6uf0cNvE","title":"310- استحباب تلقين المُحتضَر  - شرح دليل الفالحين","publishedAt":"2022-10-14T09:00:29Z","duration":"PT32M52S","thumbnail":"https://i.ytimg.com/vi/l3s6uf0cNvE/mqdefault.jpg","viewCount":"622","playlistId":"PLEkQk5xrP-tkc9DXvSLguqX5-FYp6ASR4","playlistName":"دليل الفالحين لطرق رياض الصالحين","category":"متنوع"},{"id":"KXOuJ6omo0M","title":"19- صَلاَةِ الْمُسَافِرِ مَا لَمْ يُجْمِعْ مُكْثًا ك قصرالصلاة فى السفر ك الموطأ د يسري جبر الأزهري","publishedAt":"2016-06-05T23:21:41Z","duration":"PT40M","thumbnail":"https://i.ytimg.com/vi/KXOuJ6omo0M/mqdefault.jpg","viewCount":"621","playlistId":"PLEkQk5xrP-tnC6BRuqMjyO-484iqXeg0o","playlistName":"شرح كتاب الموطأ للإمام مالك","category":"متنوع"},{"id":"26ugz_e0NT8","title":"مقرأة سورة النمل من أولها","publishedAt":"2018-04-25T11:11:27Z","duration":"PT34M18S","thumbnail":"https://i.ytimg.com/vi/26ugz_e0NT8/mqdefault.jpg","viewCount":"620","playlistId":"PLEkQk5xrP-tnmTYsyW6xNdyfhPq0Bhrhj","playlistName":"مقرأة الفجر - القُرْآنُ الكَرِيمُ - خَتْمَةُ التَّدَبُّرِ  أ.د. يسري جبر","category":"متنوع"},{"id":"VpJQVYgKlPc","title":"308- استحبابُ سؤالِ أهلِ المريضِ عن حاله - شرح دليل الفالحين","publishedAt":"2022-10-12T07:30:03Z","duration":"PT39M40S","thumbnail":"https://i.ytimg.com/vi/VpJQVYgKlPc/mqdefault.jpg","viewCount":"620","playlistId":"PLEkQk5xrP-tkc9DXvSLguqX5-FYp6ASR4","playlistName":"دليل الفالحين لطرق رياض الصالحين","category":"متنوع"},{"id":"KwT7gBsV69A","title":"مقرأة سورة العاديات من أولها","publishedAt":"2019-08-04T21:27:57Z","duration":"PT10M48S","thumbnail":"https://i.ytimg.com/vi/KwT7gBsV69A/mqdefault.jpg","viewCount":"619","playlistId":"PLEkQk5xrP-tnmTYsyW6xNdyfhPq0Bhrhj","playlistName":"مقرأة الفجر - القُرْآنُ الكَرِيمُ - خَتْمَةُ التَّدَبُّرِ  أ.د. يسري جبر","category":"متنوع"},{"id":"lgGemPfsWSc","title":"مقرأة سورة الإسراء من آية ٤","publishedAt":"2017-09-14T09:07:18Z","duration":"PT15M31S","thumbnail":"https://i.ytimg.com/vi/lgGemPfsWSc/mqdefault.jpg","viewCount":"618","playlistId":"PLEkQk5xrP-tnmTYsyW6xNdyfhPq0Bhrhj","playlistName":"مقرأة الفجر - القُرْآنُ الكَرِيمُ - خَتْمَةُ التَّدَبُّرِ  أ.د. يسري جبر","category":"متنوع"},{"id":"4bhZbzefTKE","title":"مقرأة  سورة النحل من أولها","publishedAt":"2017-08-14T11:01:42Z","duration":"PT30M17S","thumbnail":"https://i.ytimg.com/vi/4bhZbzefTKE/mqdefault.jpg","viewCount":"617","playlistId":"PLEkQk5xrP-tnmTYsyW6xNdyfhPq0Bhrhj","playlistName":"مقرأة الفجر - القُرْآنُ الكَرِيمُ - خَتْمَةُ التَّدَبُّرِ  أ.د. يسري جبر","category":"متنوع"},{"id":"tcOFrmq0v9M","title":"مقطع من احتفال المولد 2013 - د. يسري رشدي","publishedAt":"2013-04-24T11:49:31Z","duration":"PT1M6S","thumbnail":"https://i.ytimg.com/vi/tcOFrmq0v9M/mqdefault.jpg","viewCount":"617","playlistId":"PLEkQk5xrP-tm8ZIu74nTOZN9KJUJu416J","playlistName":"مقاطع مُهمَّة (يُسريَّات) أ.د. يسري جبر","category":"متنوع"},{"id":"tKGe7OheOts","title":"143- معنى لبَّيك اللَّهُمَّ لبَّيك - شرح مسند الإمام أحمد رضي الله تعالى عنه","publishedAt":"2024-12-10T06:15:02Z","duration":"PT16M37S","thumbnail":"https://i.ytimg.com/vi/tKGe7OheOts/mqdefault.jpg","viewCount":"615","playlistId":"PLEkQk5xrP-tkKprIuGrSdEuBSMsyg5We1","playlistName":"شرح مسند الإمام أحمد بن حنبل","category":"متنوع"},{"id":"5kJ8TmyU9po","title":"شرح سنن الدارمي كتاب النكاح من أوله","publishedAt":"2019-08-05T11:20:27Z","duration":"PT45M5S","thumbnail":"https://i.ytimg.com/vi/5kJ8TmyU9po/mqdefault.jpg","viewCount":"613","playlistId":"PLEkQk5xrP-tmAg-FuWjY057X_h5NmGmAa","playlistName":"شرح سنن الدارمي - أ.د. يسري جبر (كاملا)","category":"متنوع"},{"id":"KkIx-fFCmN0","title":"مقرأة سورة الانفطار من أولها","publishedAt":"2019-07-02T09:32:07Z","duration":"PT21M5S","thumbnail":"https://i.ytimg.com/vi/KkIx-fFCmN0/mqdefault.jpg","viewCount":"612","playlistId":"PLEkQk5xrP-tnmTYsyW6xNdyfhPq0Bhrhj","playlistName":"مقرأة الفجر - القُرْآنُ الكَرِيمُ - خَتْمَةُ التَّدَبُّرِ  أ.د. يسري جبر","category":"متنوع"},{"id":"qoia0SLiqxk","title":"مقرأة سورة غافر من آية ١٨","publishedAt":"2018-11-05T20:28:39Z","duration":"PT16M33S","thumbnail":"https://i.ytimg.com/vi/qoia0SLiqxk/mqdefault.jpg","viewCount":"611","playlistId":"PLEkQk5xrP-tnmTYsyW6xNdyfhPq0Bhrhj","playlistName":"مقرأة الفجر - القُرْآنُ الكَرِيمُ - خَتْمَةُ التَّدَبُّرِ  أ.د. يسري جبر","category":"متنوع"},{"id":"dfXCTdf2Sq4","title":"130- حكم أداء العمرة في أشهر الحج - شرح مسند الإمام أحمد رضي الله تعالى عنه","publishedAt":"2024-10-25T06:00:19Z","duration":"PT35M33S","thumbnail":"https://i.ytimg.com/vi/dfXCTdf2Sq4/mqdefault.jpg","viewCount":"611","playlistId":"PLEkQk5xrP-tkKprIuGrSdEuBSMsyg5We1","playlistName":"شرح مسند الإمام أحمد بن حنبل","category":"متنوع"}],"total":4126,"page":112,"pageSize":24,"totalPages":172}