{"items":[{"id":"w3_PAKsd_I4","title":"مقرأة سورة الجمعة من آية ٥","publishedAt":"2019-04-11T10:57:05Z","duration":"PT7M26S","thumbnail":"https://i.ytimg.com/vi/w3_PAKsd_I4/mqdefault.jpg","viewCount":"283","playlistId":"PLEkQk5xrP-tnmTYsyW6xNdyfhPq0Bhrhj","playlistName":"مقرأة الفجر - القُرْآنُ الكَرِيمُ - خَتْمَةُ التَّدَبُّرِ  أ.د. يسري جبر","category":"متنوع"},{"id":"gEoxcuyQWWA","title":"55- كتاب النذور والأيمان ك الموطأ د يسري جبر الأزهري","publishedAt":"2017-08-13T08:08:48Z","duration":"PT1H4M12S","thumbnail":"https://i.ytimg.com/vi/gEoxcuyQWWA/mqdefault.jpg","viewCount":"283","playlistId":"PLEkQk5xrP-tnC6BRuqMjyO-484iqXeg0o","playlistName":"شرح كتاب الموطأ للإمام مالك","category":"متنوع"},{"id":"6CSqqijtFk0","title":"45- أَمْرِ الصَّيْدِ فِى الْحَرَمِ كتاب الحج د يسري جبر الأزهري د يسري جبر الأزهري","publishedAt":"2017-03-08T22:37:38Z","duration":"PT1H2M37S","thumbnail":"https://i.ytimg.com/vi/6CSqqijtFk0/mqdefault.jpg","viewCount":"283","playlistId":"PLEkQk5xrP-tnC6BRuqMjyO-484iqXeg0o","playlistName":"شرح كتاب الموطأ للإمام مالك","category":"متنوع"},{"id":"_G2tuhOxE2I","title":"شرح سنن الدارمي كتاب المناسك من باب ٢٢","publishedAt":"2019-07-03T21:56:40Z","duration":"PT25M20S","thumbnail":"https://i.ytimg.com/vi/_G2tuhOxE2I/mqdefault.jpg","viewCount":"282","playlistId":"PLEkQk5xrP-tmAg-FuWjY057X_h5NmGmAa","playlistName":"شرح سنن الدارمي - أ.د. يسري جبر (كاملا)","category":"متنوع"},{"id":"3LpnEb24Czo","title":"مجلس رسول الله صلى الله عليه وسلم | اعرف نبيك","publishedAt":"2015-09-03T15:52:41Z","duration":"PT5M18S","thumbnail":"https://i.ytimg.com/vi/3LpnEb24Czo/mqdefault.jpg","viewCount":"282","playlistId":"PLEkQk5xrP-tl6Mu_Mz3QMUSv5T6XBH-Dg","playlistName":"برنامج اعرف نبيك","category":"متنوع"},{"id":"1qhauR5Ruo8","title":"مقرأة سورة مريم من آية ٧٧","publishedAt":"2017-11-21T14:41:16Z","duration":"PT12M19S","thumbnail":"https://i.ytimg.com/vi/1qhauR5Ruo8/mqdefault.jpg","viewCount":"281","playlistId":"PLEkQk5xrP-tnmTYsyW6xNdyfhPq0Bhrhj","playlistName":"مقرأة الفجر - القُرْآنُ الكَرِيمُ - خَتْمَةُ التَّدَبُّرِ  أ.د. يسري جبر","category":"متنوع"},{"id":"paRowm0KjOY","title":"مقرأة سورة هود من آية ٥٠","publishedAt":"2017-06-15T09:36:31Z","duration":"PT19M16S","thumbnail":"https://i.ytimg.com/vi/paRowm0KjOY/mqdefault.jpg","viewCount":"281","playlistId":"PLEkQk5xrP-tnmTYsyW6xNdyfhPq0Bhrhj","playlistName":"مقرأة الفجر - القُرْآنُ الكَرِيمُ - خَتْمَةُ التَّدَبُّرِ  أ.د. يسري جبر","category":"متنوع"},{"id":"whevjXwhZvA","title":"شرح سنن الدارمي كتاب الجهاد من باب ٢٣","publishedAt":"2019-08-26T16:23:03Z","duration":"PT15M30S","thumbnail":"https://i.ytimg.com/vi/whevjXwhZvA/mqdefault.jpg","viewCount":"280","playlistId":"PLEkQk5xrP-tmAg-FuWjY057X_h5NmGmAa","playlistName":"شرح سنن الدارمي - أ.د. يسري جبر (كاملا)","category":"متنوع"},{"id":"3PTKI75OPcA","title":"مقرأة سورة الأنبياء من آية ٤٤","publishedAt":"2017-12-16T16:44:54Z","duration":"PT21M38S","thumbnail":"https://i.ytimg.com/vi/3PTKI75OPcA/mqdefault.jpg","viewCount":"280","playlistId":"PLEkQk5xrP-tnmTYsyW6xNdyfhPq0Bhrhj","playlistName":"مقرأة الفجر - القُرْآنُ الكَرِيمُ - خَتْمَةُ التَّدَبُّرِ  أ.د. يسري جبر","category":"متنوع"},{"id":"tZAdcSoNin0","title":"مقرأة سورة النحل من آية ٨٤","publishedAt":"2017-08-31T11:54:26Z","duration":"PT13M10S","thumbnail":"https://i.ytimg.com/vi/tZAdcSoNin0/mqdefault.jpg","viewCount":"280","playlistId":"PLEkQk5xrP-tnmTYsyW6xNdyfhPq0Bhrhj","playlistName":"مقرأة الفجر - القُرْآنُ الكَرِيمُ - خَتْمَةُ التَّدَبُّرِ  أ.د. يسري جبر","category":"متنوع"},{"id":"lA3IWmRBNME","title":"62- باب مَا جَاءَ فِى الصَّدَاقِ وَالْحِبَاءِ ك الموطأ د يسري جبر الأزهري","publishedAt":"2018-06-14T14:06:19Z","duration":"PT47M37S","thumbnail":"https://i.ytimg.com/vi/lA3IWmRBNME/mqdefault.jpg","viewCount":"279","playlistId":"PLEkQk5xrP-tnC6BRuqMjyO-484iqXeg0o","playlistName":"شرح كتاب الموطأ للإمام مالك","category":"متنوع"},{"id":"CGPnBbDUS5w","title":"مقرأة سورة النور من آية ٤٥","publishedAt":"2018-03-21T07:45:00Z","duration":"PT12M33S","thumbnail":"https://i.ytimg.com/vi/CGPnBbDUS5w/mqdefault.jpg","viewCount":"279","playlistId":"PLEkQk5xrP-tnmTYsyW6xNdyfhPq0Bhrhj","playlistName":"مقرأة الفجر - القُرْآنُ الكَرِيمُ - خَتْمَةُ التَّدَبُّرِ  أ.د. يسري جبر","category":"متنوع"},{"id":"OePqo0_bp54","title":"مقرأة سورة النحل من آية ٧٥","publishedAt":"2017-08-29T14:48:13Z","duration":"PT11M39S","thumbnail":"https://i.ytimg.com/vi/OePqo0_bp54/mqdefault.jpg","viewCount":"279","playlistId":"PLEkQk5xrP-tnmTYsyW6xNdyfhPq0Bhrhj","playlistName":"مقرأة الفجر - القُرْآنُ الكَرِيمُ - خَتْمَةُ التَّدَبُّرِ  أ.د. يسري جبر","category":"متنوع"},{"id":"1wMZyhy8AgY","title":"سورة التوبة آية 93","publishedAt":"2017-04-29T11:46:15Z","duration":"PT8M46S","thumbnail":"https://i.ytimg.com/vi/1wMZyhy8AgY/mqdefault.jpg","viewCount":"279","playlistId":"PLEkQk5xrP-tnmTYsyW6xNdyfhPq0Bhrhj","playlistName":"مقرأة الفجر - القُرْآنُ الكَرِيمُ - خَتْمَةُ التَّدَبُّرِ  أ.د. يسري جبر","category":"متنوع"},{"id":"R70ykF-dQYE","title":"( 103 ) حَدِيثُ الإِستِقَامَةِ عَلَى حُدُودِ اللهِ والنَّهْي عَنِ المُنكَرِ - المجلس الأول","publishedAt":"2015-07-06T00:29:57Z","duration":"PT28M7S","thumbnail":"https://i.ytimg.com/vi/R70ykF-dQYE/mqdefault.jpg","viewCount":"279","playlistId":"PLEkQk5xrP-tnl7vb7KeAoPd5ZlqKKW8KV","playlistName":"شرح كتاب بهجة النفوس أ.د . يسرى جبر","category":"متنوع"},{"id":"OKabsHZZmuo","title":"شرح سنن الدارمي كتاب البيوع من باب ٤١","publishedAt":"2019-09-14T10:17:00Z","duration":"PT31M12S","thumbnail":"https://i.ytimg.com/vi/OKabsHZZmuo/mqdefault.jpg","viewCount":"278","playlistId":"PLEkQk5xrP-tmAg-FuWjY057X_h5NmGmAa","playlistName":"شرح سنن الدارمي - أ.د. يسري جبر (كاملا)","category":"متنوع"},{"id":"Gxji7ipgfUc","title":"مقرأة سورة الروم من آية ٤٠","publishedAt":"2018-06-24T07:26:29Z","duration":"PT17M27S","thumbnail":"https://i.ytimg.com/vi/Gxji7ipgfUc/mqdefault.jpg","viewCount":"278","playlistId":"PLEkQk5xrP-tnmTYsyW6xNdyfhPq0Bhrhj","playlistName":"مقرأة الفجر - القُرْآنُ الكَرِيمُ - خَتْمَةُ التَّدَبُّرِ  أ.د. يسري جبر","category":"متنوع"},{"id":"OZ6uRIRngak","title":"مقرأة سورة العنكبوت من آية ٥٠","publishedAt":"2018-06-12T10:23:22Z","duration":"PT8M55S","thumbnail":"https://i.ytimg.com/vi/OZ6uRIRngak/mqdefault.jpg","viewCount":"278","playlistId":"PLEkQk5xrP-tnmTYsyW6xNdyfhPq0Bhrhj","playlistName":"مقرأة الفجر - القُرْآنُ الكَرِيمُ - خَتْمَةُ التَّدَبُّرِ  أ.د. يسري جبر","category":"متنوع"},{"id":"R58L01WSWhI","title":"مقرأة سورة النحل من آية ٦٨","publishedAt":"2017-08-27T07:22:14Z","duration":"PT12M18S","thumbnail":"https://i.ytimg.com/vi/R58L01WSWhI/mqdefault.jpg","viewCount":"278","playlistId":"PLEkQk5xrP-tnmTYsyW6xNdyfhPq0Bhrhj","playlistName":"مقرأة الفجر - القُرْآنُ الكَرِيمُ - خَتْمَةُ التَّدَبُّرِ  أ.د. يسري جبر","category":"متنوع"},{"id":"j6uVNYh3G84","title":"مقرأة سورة النور من آية ٣٢","publishedAt":"2018-03-16T08:23:39Z","duration":"PT16M7S","thumbnail":"https://i.ytimg.com/vi/j6uVNYh3G84/mqdefault.jpg","viewCount":"277","playlistId":"PLEkQk5xrP-tnmTYsyW6xNdyfhPq0Bhrhj","playlistName":"مقرأة الفجر - القُرْآنُ الكَرِيمُ - خَتْمَةُ التَّدَبُّرِ  أ.د. يسري جبر","category":"متنوع"},{"id":"4pZ3yNC5nwo","title":"74- باب مَا جَاءَ فِى بَيْعِ الْعُرْبَانِ ك الموطأ د يسري جبر الأزهري","publishedAt":"2018-08-29T16:08:54Z","duration":"PT44M36S","thumbnail":"https://i.ytimg.com/vi/4pZ3yNC5nwo/mqdefault.jpg","viewCount":"277","playlistId":"PLEkQk5xrP-tnC6BRuqMjyO-484iqXeg0o","playlistName":"شرح كتاب الموطأ للإمام مالك","category":"متنوع"},{"id":"YDPjh_hySJQ","title":"شرح سنن الدارمي كتاب الطلا‎ق من أوله","publishedAt":"2019-08-15T04:17:16Z","duration":"PT32M34S","thumbnail":"https://i.ytimg.com/vi/YDPjh_hySJQ/mqdefault.jpg","viewCount":"276","playlistId":"PLEkQk5xrP-tmAg-FuWjY057X_h5NmGmAa","playlistName":"شرح سنن الدارمي - أ.د. يسري جبر (كاملا)","category":"متنوع"},{"id":"ab0I8CcznfE","title":"حديث (١٧٩) حديثُ مَنْ أَتَى أَهْلَهُ فَلْيُسَمِّ اللَّهَ .  أ.د. يسري جبر","publishedAt":"2019-06-02T11:52:55Z","duration":"PT20M52S","thumbnail":"https://i.ytimg.com/vi/ab0I8CcznfE/mqdefault.jpg","viewCount":"276","playlistId":"PLEkQk5xrP-tnl7vb7KeAoPd5ZlqKKW8KV","playlistName":"شرح كتاب بهجة النفوس أ.د . يسرى جبر","category":"متنوع"},{"id":"oSJeWLWea9M","title":"50- تَقْدِيمِ النِّسَاءِ وَالصِّبْيَانِ كتاب الحج ك الموطأ د يسري جبر الأزهري","publishedAt":"2017-05-21T22:16:36Z","duration":"PT57M53S","thumbnail":"https://i.ytimg.com/vi/oSJeWLWea9M/mqdefault.jpg","viewCount":"276","playlistId":"PLEkQk5xrP-tnC6BRuqMjyO-484iqXeg0o","playlistName":"شرح كتاب الموطأ للإمام مالك","category":"متنوع"}],"total":4126,"page":155,"pageSize":24,"totalPages":172}