{"items":[{"id":"NAqzD0Pzksw","title":"سورة النساء آية 136","publishedAt":"2016-09-29T20:22:30Z","duration":"PT30M4S","thumbnail":"https://i.ytimg.com/vi/NAqzD0Pzksw/mqdefault.jpg","viewCount":"419","playlistId":"PLEkQk5xrP-tnmTYsyW6xNdyfhPq0Bhrhj","playlistName":"مقرأة الفجر - القُرْآنُ الكَرِيمُ - خَتْمَةُ التَّدَبُّرِ  أ.د. يسري جبر","category":"متنوع"},{"id":"H5NXIFze9uw","title":"شرح سنن الدارمي كتاب الرقاق من باب ٣٤","publishedAt":"2019-10-02T12:38:27Z","duration":"PT31M38S","thumbnail":"https://i.ytimg.com/vi/H5NXIFze9uw/mqdefault.jpg","viewCount":"419","playlistId":"PLEkQk5xrP-tmAg-FuWjY057X_h5NmGmAa","playlistName":"شرح سنن الدارمي - أ.د. يسري جبر (كاملا)","category":"متنوع"},{"id":"GMiP-k3Adeg","title":"( 94 ) حدِيثُ البَيِّعَانِ بِالخِيَارِ مَا لَمْ يَتَفَرَّقَا","publishedAt":"2015-10-04T20:28:01Z","duration":"PT47M11S","thumbnail":"https://i.ytimg.com/vi/GMiP-k3Adeg/mqdefault.jpg","viewCount":"418","playlistId":"PLEkQk5xrP-tnl7vb7KeAoPd5ZlqKKW8KV","playlistName":"شرح كتاب بهجة النفوس أ.د . يسرى جبر","category":"متنوع"},{"id":"6r8uyslfhnI","title":"سورة المائدة آية 35","publishedAt":"2016-11-04T11:14:22Z","duration":"PT22M51S","thumbnail":"https://i.ytimg.com/vi/6r8uyslfhnI/mqdefault.jpg","viewCount":"418","playlistId":"PLEkQk5xrP-tnmTYsyW6xNdyfhPq0Bhrhj","playlistName":"مقرأة الفجر - القُرْآنُ الكَرِيمُ - خَتْمَةُ التَّدَبُّرِ  أ.د. يسري جبر","category":"متنوع"},{"id":"cN7ntqC4OOM","title":"سورة المائدة آية 14","publishedAt":"2016-10-30T04:05:04Z","duration":"PT12M24S","thumbnail":"https://i.ytimg.com/vi/cN7ntqC4OOM/mqdefault.jpg","viewCount":"418","playlistId":"PLEkQk5xrP-tnmTYsyW6xNdyfhPq0Bhrhj","playlistName":"مقرأة الفجر - القُرْآنُ الكَرِيمُ - خَتْمَةُ التَّدَبُّرِ  أ.د. يسري جبر","category":"متنوع"},{"id":"oArLZ7lMwNg","title":"شرح سنن الدارمي - المقدمة - ٣٥","publishedAt":"2019-03-23T21:49:09Z","duration":"PT27M22S","thumbnail":"https://i.ytimg.com/vi/oArLZ7lMwNg/mqdefault.jpg","viewCount":"418","playlistId":"PLEkQk5xrP-tmAg-FuWjY057X_h5NmGmAa","playlistName":"شرح سنن الدارمي - أ.د. يسري جبر (كاملا)","category":"متنوع"},{"id":"yzMG6-MUH-Q","title":"مقرأة سورة آل عمران من آية ١٢١","publishedAt":"2019-09-27T10:54:45Z","duration":"PT14M13S","thumbnail":"https://i.ytimg.com/vi/yzMG6-MUH-Q/mqdefault.jpg","viewCount":"417","playlistId":"PLEkQk5xrP-tnmTYsyW6xNdyfhPq0Bhrhj","playlistName":"مقرأة الفجر - القُرْآنُ الكَرِيمُ - خَتْمَةُ التَّدَبُّرِ  أ.د. يسري جبر","category":"متنوع"},{"id":"UqyNQdg7G7s","title":"سورة الأعراف آية 56","publishedAt":"2017-02-13T07:40:14Z","duration":"PT15M40S","thumbnail":"https://i.ytimg.com/vi/UqyNQdg7G7s/mqdefault.jpg","viewCount":"417","playlistId":"PLEkQk5xrP-tnmTYsyW6xNdyfhPq0Bhrhj","playlistName":"مقرأة الفجر - القُرْآنُ الكَرِيمُ - خَتْمَةُ التَّدَبُّرِ  أ.د. يسري جبر","category":"متنوع"},{"id":"P8l-RNMEK2I","title":"شرح سنن الدارمي كتاب الحدود من باب ١٥","publishedAt":"2019-08-18T17:34:32Z","duration":"PT30M56S","thumbnail":"https://i.ytimg.com/vi/P8l-RNMEK2I/mqdefault.jpg","viewCount":"417","playlistId":"PLEkQk5xrP-tmAg-FuWjY057X_h5NmGmAa","playlistName":"شرح سنن الدارمي - أ.د. يسري جبر (كاملا)","category":"متنوع"},{"id":"noNbftcMAL0","title":"سورة المائدة آية 41","publishedAt":"2016-11-04T12:01:44Z","duration":"PT9M17S","thumbnail":"https://i.ytimg.com/vi/noNbftcMAL0/mqdefault.jpg","viewCount":"416","playlistId":"PLEkQk5xrP-tnmTYsyW6xNdyfhPq0Bhrhj","playlistName":"مقرأة الفجر - القُرْآنُ الكَرِيمُ - خَتْمَةُ التَّدَبُّرِ  أ.د. يسري جبر","category":"متنوع"},{"id":"L2sJdkKMmZo","title":"شرح سنن الدارمي كتاب البيوع من باب ١٠","publishedAt":"2019-09-05T19:23:38Z","duration":"PT30M35S","thumbnail":"https://i.ytimg.com/vi/L2sJdkKMmZo/mqdefault.jpg","viewCount":"416","playlistId":"PLEkQk5xrP-tmAg-FuWjY057X_h5NmGmAa","playlistName":"شرح سنن الدارمي - أ.د. يسري جبر (كاملا)","category":"متنوع"},{"id":"HsHOsoyRGVA","title":"شرح سنن الدارمي كتاب الصلاة من باب ١١٧","publishedAt":"2019-05-14T22:05:22Z","duration":"PT39M18S","thumbnail":"https://i.ytimg.com/vi/HsHOsoyRGVA/mqdefault.jpg","viewCount":"416","playlistId":"PLEkQk5xrP-tmAg-FuWjY057X_h5NmGmAa","playlistName":"شرح سنن الدارمي - أ.د. يسري جبر (كاملا)","category":"متنوع"},{"id":"JRBV6Y6nvaM","title":"مقرأة سورة المرسلات من آية ١٦","publishedAt":"2019-06-09T10:18:22Z","duration":"PT12M35S","thumbnail":"https://i.ytimg.com/vi/JRBV6Y6nvaM/mqdefault.jpg","viewCount":"416","playlistId":"PLEkQk5xrP-tnmTYsyW6xNdyfhPq0Bhrhj","playlistName":"مقرأة الفجر - القُرْآنُ الكَرِيمُ - خَتْمَةُ التَّدَبُّرِ  أ.د. يسري جبر","category":"متنوع"},{"id":"Al3omlFF96s","title":"مقرأة سورة الحاقة من أولها","publishedAt":"2019-05-08T09:45:11Z","duration":"PT11M30S","thumbnail":"https://i.ytimg.com/vi/Al3omlFF96s/mqdefault.jpg","viewCount":"416","playlistId":"PLEkQk5xrP-tnmTYsyW6xNdyfhPq0Bhrhj","playlistName":"مقرأة الفجر - القُرْآنُ الكَرِيمُ - خَتْمَةُ التَّدَبُّرِ  أ.د. يسري جبر","category":"متنوع"},{"id":"jvCzYZx72gk","title":"مقرأة سورة الزمر من آية ٩","publishedAt":"2018-10-13T04:47:28Z","duration":"PT20M28S","thumbnail":"https://i.ytimg.com/vi/jvCzYZx72gk/mqdefault.jpg","viewCount":"416","playlistId":"PLEkQk5xrP-tnmTYsyW6xNdyfhPq0Bhrhj","playlistName":"مقرأة الفجر - القُرْآنُ الكَرِيمُ - خَتْمَةُ التَّدَبُّرِ  أ.د. يسري جبر","category":"متنوع"},{"id":"e2VGG0CXBII","title":"مقرأة سورة الفرقان من آية ٤","publishedAt":"2018-03-27T06:05:59Z","duration":"PT21M27S","thumbnail":"https://i.ytimg.com/vi/e2VGG0CXBII/mqdefault.jpg","viewCount":"415","playlistId":"PLEkQk5xrP-tnmTYsyW6xNdyfhPq0Bhrhj","playlistName":"مقرأة الفجر - القُرْآنُ الكَرِيمُ - خَتْمَةُ التَّدَبُّرِ  أ.د. يسري جبر","category":"متنوع"},{"id":"QZ0fpv4jb-U","title":"شرح سنن الدارمي كتاب الرقاق من أوله","publishedAt":"2019-09-25T19:17:51Z","duration":"PT25M41S","thumbnail":"https://i.ytimg.com/vi/QZ0fpv4jb-U/mqdefault.jpg","viewCount":"414","playlistId":"PLEkQk5xrP-tmAg-FuWjY057X_h5NmGmAa","playlistName":"شرح سنن الدارمي - أ.د. يسري جبر (كاملا)","category":"متنوع"},{"id":"96DO2v2tLdE","title":"سورة الأنعام آية 103","publishedAt":"2016-12-27T07:35:25Z","duration":"PT25M31S","thumbnail":"https://i.ytimg.com/vi/96DO2v2tLdE/mqdefault.jpg","viewCount":"414","playlistId":"PLEkQk5xrP-tnmTYsyW6xNdyfhPq0Bhrhj","playlistName":"مقرأة الفجر - القُرْآنُ الكَرِيمُ - خَتْمَةُ التَّدَبُّرِ  أ.د. يسري جبر","category":"متنوع"},{"id":"wSiKKza_smE","title":"مقرأة سورة الفتح من آية ٢٧","publishedAt":"2019-01-23T20:59:00Z","duration":"PT16M25S","thumbnail":"https://i.ytimg.com/vi/wSiKKza_smE/mqdefault.jpg","viewCount":"414","playlistId":"PLEkQk5xrP-tnmTYsyW6xNdyfhPq0Bhrhj","playlistName":"مقرأة الفجر - القُرْآنُ الكَرِيمُ - خَتْمَةُ التَّدَبُّرِ  أ.د. يسري جبر","category":"متنوع"},{"id":"xComs7CTY-w","title":"380- حكم الحجِّ عن الغير - شرح دليل الفالحين","publishedAt":"2023-01-12T05:10:00Z","duration":"PT30M48S","thumbnail":"https://i.ytimg.com/vi/xComs7CTY-w/mqdefault.jpg","viewCount":"414","playlistId":"PLEkQk5xrP-tkc9DXvSLguqX5-FYp6ASR4","playlistName":"دليل الفالحين لطرق رياض الصالحين","category":"متنوع"},{"id":"IG7Thany_JA","title":"مقرأة سورة الحديد من آية ١٦","publishedAt":"2019-03-21T13:24:57Z","duration":"PT21M40S","thumbnail":"https://i.ytimg.com/vi/IG7Thany_JA/mqdefault.jpg","viewCount":"414","playlistId":"PLEkQk5xrP-tnmTYsyW6xNdyfhPq0Bhrhj","playlistName":"مقرأة الفجر - القُرْآنُ الكَرِيمُ - خَتْمَةُ التَّدَبُّرِ  أ.د. يسري جبر","category":"متنوع"},{"id":"xR3ma_nKRcc","title":"شرح سنن الدارمي كتاب الحدود من أوله","publishedAt":"2019-08-16T22:02:28Z","duration":"PT34M38S","thumbnail":"https://i.ytimg.com/vi/xR3ma_nKRcc/mqdefault.jpg","viewCount":"413","playlistId":"PLEkQk5xrP-tmAg-FuWjY057X_h5NmGmAa","playlistName":"شرح سنن الدارمي - أ.د. يسري جبر (كاملا)","category":"متنوع"},{"id":"b8GJ0kD132w","title":"مقرأة سورة الطور من آية ١٧","publishedAt":"2019-02-10T14:26:55Z","duration":"PT18M16S","thumbnail":"https://i.ytimg.com/vi/b8GJ0kD132w/mqdefault.jpg","viewCount":"413","playlistId":"PLEkQk5xrP-tnmTYsyW6xNdyfhPq0Bhrhj","playlistName":"مقرأة الفجر - القُرْآنُ الكَرِيمُ - خَتْمَةُ التَّدَبُّرِ  أ.د. يسري جبر","category":"متنوع"},{"id":"kSCYTZ-Alv0","title":"سورة الأنفال آية 50","publishedAt":"2017-03-25T07:07:14Z","duration":"PT18M23S","thumbnail":"https://i.ytimg.com/vi/kSCYTZ-Alv0/mqdefault.jpg","viewCount":"413","playlistId":"PLEkQk5xrP-tnmTYsyW6xNdyfhPq0Bhrhj","playlistName":"مقرأة الفجر - القُرْآنُ الكَرِيمُ - خَتْمَةُ التَّدَبُّرِ  أ.د. يسري جبر","category":"متنوع"}],"total":4126,"page":131,"pageSize":24,"totalPages":172}