{"items":[{"id":"FtYYqopfTzk","title":"355- فضل التبكير إلى صلاة الجمعة وساعة الإجابة فيها - شرح دليل الفالحين","publishedAt":"2022-12-08T09:00:05Z","duration":"PT38M28S","thumbnail":"https://i.ytimg.com/vi/FtYYqopfTzk/mqdefault.jpg","viewCount":"732","playlistId":"PLEkQk5xrP-tkc9DXvSLguqX5-FYp6ASR4","playlistName":"دليل الفالحين لطرق رياض الصالحين","category":"متنوع"},{"id":"2wadLsWWlsk","title":"422- بركة الطعام في منزل سيدنا أبي بكر _رضيَ اللهُ عنه_ وفيه كَرامةٌ ظاهرةٌ له _رضي الله عنه_","publishedAt":"2023-04-04T05:25:00Z","duration":"PT27M5S","thumbnail":"https://i.ytimg.com/vi/2wadLsWWlsk/mqdefault.jpg","viewCount":"732","playlistId":"PLEkQk5xrP-tkc9DXvSLguqX5-FYp6ASR4","playlistName":"دليل الفالحين لطرق رياض الصالحين","category":"متنوع"},{"id":"KF7vbjl0LKU","title":"آداب طالب العلم","publishedAt":"2015-12-10T20:21:09Z","duration":"PT1H9M40S","thumbnail":"https://i.ytimg.com/vi/KF7vbjl0LKU/mqdefault.jpg","viewCount":"731","playlistId":"PLEkQk5xrP-tmJzNvLntpzW0uPanPzxA0c","playlistName":"لقاءات ومحاضرات","category":"متنوع"},{"id":"ZI4rGOleVGw","title":"قراءة القرآن (من آية ٢٧٢ سورة البقرة)","publishedAt":"2016-05-30T19:21:32Z","duration":"PT28M45S","thumbnail":"https://i.ytimg.com/vi/ZI4rGOleVGw/mqdefault.jpg","viewCount":"730","playlistId":"PLEkQk5xrP-tnmTYsyW6xNdyfhPq0Bhrhj","playlistName":"مقرأة الفجر - القُرْآنُ الكَرِيمُ - خَتْمَةُ التَّدَبُّرِ  أ.د. يسري جبر","category":"متنوع"},{"id":"d1YN2LhvZec","title":"قراءة القرآن (من آية ٢٥٣ سورة البقرة)","publishedAt":"2016-05-25T02:39:50Z","duration":"PT17M48S","thumbnail":"https://i.ytimg.com/vi/d1YN2LhvZec/mqdefault.jpg","viewCount":"730","playlistId":"PLEkQk5xrP-tnmTYsyW6xNdyfhPq0Bhrhj","playlistName":"مقرأة الفجر - القُرْآنُ الكَرِيمُ - خَتْمَةُ التَّدَبُّرِ  أ.د. يسري جبر","category":"متنوع"},{"id":"s5lG9TPPodE","title":"مقرأة سورة الجن من آية ١٦","publishedAt":"2019-05-22T08:12:40Z","duration":"PT27M8S","thumbnail":"https://i.ytimg.com/vi/s5lG9TPPodE/mqdefault.jpg","viewCount":"730","playlistId":"PLEkQk5xrP-tnmTYsyW6xNdyfhPq0Bhrhj","playlistName":"مقرأة الفجر - القُرْآنُ الكَرِيمُ - خَتْمَةُ التَّدَبُّرِ  أ.د. يسري جبر","category":"متنوع"},{"id":"Z3IvLJnfUdQ","title":"(١٤۸) حديث تحريم الخلوة بالمرآة الأجنبية د. يسري جبر","publishedAt":"2018-05-26T16:21:05Z","duration":"PT21M47S","thumbnail":"https://i.ytimg.com/vi/Z3IvLJnfUdQ/mqdefault.jpg","viewCount":"730","playlistId":"PLEkQk5xrP-tnl7vb7KeAoPd5ZlqKKW8KV","playlistName":"شرح كتاب بهجة النفوس أ.د . يسرى جبر","category":"متنوع"},{"id":"OGk41KT-19s","title":"389- من أنفقَ نفقةً في سبيلِ اللَّهِ كتبت لَهُ بسبعمائةِ ضعفٍ","publishedAt":"2023-01-23T09:00:11Z","duration":"PT33M34S","thumbnail":"https://i.ytimg.com/vi/OGk41KT-19s/mqdefault.jpg","viewCount":"730","playlistId":"PLEkQk5xrP-tkc9DXvSLguqX5-FYp6ASR4","playlistName":"دليل الفالحين لطرق رياض الصالحين","category":"متنوع"},{"id":"RlXYLV-yBD8","title":"230- النَّهْي عن البُخلِ والشُّح - شرح دليل الفالحين","publishedAt":"2022-04-09T05:37:31Z","duration":"PT21M29S","thumbnail":"https://i.ytimg.com/vi/RlXYLV-yBD8/mqdefault.jpg","viewCount":"729","playlistId":"PLEkQk5xrP-tkc9DXvSLguqX5-FYp6ASR4","playlistName":"دليل الفالحين لطرق رياض الصالحين","category":"متنوع"},{"id":"x_dGxQL1ozY","title":"9- حديث الإسراء والمعراج بنبينا صلى الله عليه وآله وسلم (المجلس التاسع). د. يسري جبر","publishedAt":"2018-06-28T10:00:39Z","duration":"PT36M48S","thumbnail":"https://i.ytimg.com/vi/x_dGxQL1ozY/mqdefault.jpg","viewCount":"729","playlistId":"PLEkQk5xrP-tnl7vb7KeAoPd5ZlqKKW8KV","playlistName":"شرح كتاب بهجة النفوس أ.د . يسرى جبر","category":"متنوع"},{"id":"Tp5_aDEyb5o","title":"442- تحريم سَبِّ الأموات بغير حَقٍّ ومصلحةٍ شرعيَّة - شرح دليل الفالحين","publishedAt":"2023-05-09T18:00:09Z","duration":"PT32M53S","thumbnail":"https://i.ytimg.com/vi/Tp5_aDEyb5o/mqdefault.jpg","viewCount":"728","playlistId":"PLEkQk5xrP-tkc9DXvSLguqX5-FYp6ASR4","playlistName":"دليل الفالحين لطرق رياض الصالحين","category":"متنوع"},{"id":"yWaRhIJFc70","title":"ما حكم لبس الحرير؟ | أ.د. يسري جبر","publishedAt":"2022-04-22T15:30:11Z","duration":"PT25M38S","thumbnail":"https://i.ytimg.com/vi/yWaRhIJFc70/mqdefault.jpg","viewCount":"726","playlistId":"PLEkQk5xrP-tnl7vb7KeAoPd5ZlqKKW8KV","playlistName":"شرح كتاب بهجة النفوس أ.د . يسرى جبر","category":"متنوع"},{"id":"yDMGSKwy_Kw","title":"مقرأة سورة آل عمران من آية ١٥٩","publishedAt":"2019-09-29T00:56:58Z","duration":"PT9M29S","thumbnail":"https://i.ytimg.com/vi/yDMGSKwy_Kw/mqdefault.jpg","viewCount":"726","playlistId":"PLEkQk5xrP-tnmTYsyW6xNdyfhPq0Bhrhj","playlistName":"مقرأة الفجر - القُرْآنُ الكَرِيمُ - خَتْمَةُ التَّدَبُّرِ  أ.د. يسري جبر","category":"متنوع"},{"id":"YYsZvj-afbU","title":"( 138 ) حديث درجات النية في ربط الخيل  د. يسري جبر","publishedAt":"2018-05-17T09:31:52Z","duration":"PT22M38S","thumbnail":"https://i.ytimg.com/vi/YYsZvj-afbU/mqdefault.jpg","viewCount":"726","playlistId":"PLEkQk5xrP-tnl7vb7KeAoPd5ZlqKKW8KV","playlistName":"شرح كتاب بهجة النفوس أ.د . يسرى جبر","category":"متنوع"},{"id":"IDErcP3LwXE","title":"34- حكم التيمم مع وجود الماء - كتاب الطهارة - شرح سنن الإمام الدار قطني رضي الله عنه","publishedAt":"2024-04-27T10:00:14Z","duration":"PT36M7S","thumbnail":"https://i.ytimg.com/vi/IDErcP3LwXE/mqdefault.jpg","viewCount":"725","playlistId":"PLEkQk5xrP-tk_MCBZ706ORCw6gFtFyaGj","playlistName":"شرح سنن الإمام الدارقطني","category":"متنوع"},{"id":"_3AxasItDAs","title":"88- نبذة عن سيدنا زيد بن خارجة رضي اللهُ تعالى عنهما - شرح مسند الإمام أحمد رضي الله تعالى عنه","publishedAt":"2024-03-23T07:00:29Z","duration":"PT12M46S","thumbnail":"https://i.ytimg.com/vi/_3AxasItDAs/mqdefault.jpg","viewCount":"725","playlistId":"PLEkQk5xrP-tkKprIuGrSdEuBSMsyg5We1","playlistName":"شرح مسند الإمام أحمد بن حنبل","category":"متنوع"},{"id":"SG9Dxhixqlg","title":"مقرأة سورة التين من أولها","publishedAt":"2019-07-28T11:28:41Z","duration":"PT14M38S","thumbnail":"https://i.ytimg.com/vi/SG9Dxhixqlg/mqdefault.jpg","viewCount":"724","playlistId":"PLEkQk5xrP-tnmTYsyW6xNdyfhPq0Bhrhj","playlistName":"مقرأة الفجر - القُرْآنُ الكَرِيمُ - خَتْمَةُ التَّدَبُّرِ  أ.د. يسري جبر","category":"متنوع"},{"id":"ultmvdZPdL4","title":"مقرأة سورة إبراهيم من أولها","publishedAt":"2017-07-26T12:47:01Z","duration":"PT29M39S","thumbnail":"https://i.ytimg.com/vi/ultmvdZPdL4/mqdefault.jpg","viewCount":"723","playlistId":"PLEkQk5xrP-tnmTYsyW6xNdyfhPq0Bhrhj","playlistName":"مقرأة الفجر - القُرْآنُ الكَرِيمُ - خَتْمَةُ التَّدَبُّرِ  أ.د. يسري جبر","category":"متنوع"},{"id":"_zxdEDjvbKM","title":"181- كيف نحبب أبناءنا في التعليم؟ - شرح مسند الإمام أحمد رضي الله تعالى عنه","publishedAt":"2025-11-07T05:41:17Z","duration":"PT33M42S","thumbnail":"https://i.ytimg.com/vi/_zxdEDjvbKM/mqdefault.jpg","viewCount":"723","playlistId":"PLEkQk5xrP-tkKprIuGrSdEuBSMsyg5We1","playlistName":"شرح مسند الإمام أحمد بن حنبل","category":"متنوع"},{"id":"G34DS04K8f8","title":"40- أحكام الاستحاضة | شرح سنن الدار قطني رضي الله عنه","publishedAt":"2024-07-27T06:00:06Z","duration":"PT41M25S","thumbnail":"https://i.ytimg.com/vi/G34DS04K8f8/mqdefault.jpg","viewCount":"723","playlistId":"PLEkQk5xrP-tk_MCBZ706ORCw6gFtFyaGj","playlistName":"شرح سنن الإمام الدارقطني","category":"متنوع"},{"id":"tzytPbeXfpk","title":"مقرأة سورة الماعون من أولها","publishedAt":"2019-08-13T11:07:32Z","duration":"PT17M8S","thumbnail":"https://i.ytimg.com/vi/tzytPbeXfpk/mqdefault.jpg","viewCount":"722","playlistId":"PLEkQk5xrP-tnmTYsyW6xNdyfhPq0Bhrhj","playlistName":"مقرأة الفجر - القُرْآنُ الكَرِيمُ - خَتْمَةُ التَّدَبُّرِ  أ.د. يسري جبر","category":"متنوع"},{"id":"4yKOJZsH_No","title":"373- أهمية حفظ اللسان والجوارح للصائم وغيره - شرح دليل الفالحين","publishedAt":"2023-01-02T09:00:03Z","duration":"PT34M18S","thumbnail":"https://i.ytimg.com/vi/4yKOJZsH_No/mqdefault.jpg","viewCount":"722","playlistId":"PLEkQk5xrP-tkc9DXvSLguqX5-FYp6ASR4","playlistName":"دليل الفالحين لطرق رياض الصالحين","category":"متنوع"},{"id":"h2xW-LC0OAM","title":"134- درء الحدود بالشبهات - شرح مسند الإمام أحمد رضي الله تعالى عنه","publishedAt":"2024-11-03T06:00:21Z","duration":"PT36M23S","thumbnail":"https://i.ytimg.com/vi/h2xW-LC0OAM/mqdefault.jpg","viewCount":"721","playlistId":"PLEkQk5xrP-tkKprIuGrSdEuBSMsyg5We1","playlistName":"شرح مسند الإمام أحمد بن حنبل","category":"متنوع"},{"id":"5AKGJgehBjs","title":"445- النهي عن الغِشِّ والخِداع - شرح دليل الفالحين","publishedAt":"2023-05-12T18:00:02Z","duration":"PT30M36S","thumbnail":"https://i.ytimg.com/vi/5AKGJgehBjs/mqdefault.jpg","viewCount":"720","playlistId":"PLEkQk5xrP-tkc9DXvSLguqX5-FYp6ASR4","playlistName":"دليل الفالحين لطرق رياض الصالحين","category":"متنوع"}],"total":4126,"page":106,"pageSize":24,"totalPages":172}