{"items":[{"id":"-3s56-myjks","title":"شرح كتاب منازل السائرين - المجلس الخامس عشر - قسم المعاملات - باب الرعاية وباب المراقبة","publishedAt":"2014-08-12T09:08:55Z","duration":"PT1H28M19S","thumbnail":"https://i.ytimg.com/vi/-3s56-myjks/mqdefault.jpg","viewCount":"3140","playlistId":"PLEkQk5xrP-tnLYi_5_tSRVBwqcs7ISV7Y","playlistName":"شرح كتاب منازل السائرين للإمام الهروي","category":"متنوع"},{"id":"vxzAXSbLdGM","title":"شرح كتاب منازل السائرين للإمام الهروى - المجلس العاشر - قسم الأبواب - ( باب الحزن والخوف )","publishedAt":"2014-05-06T19:34:13Z","duration":"PT1H2M58S","thumbnail":"https://i.ytimg.com/vi/vxzAXSbLdGM/mqdefault.jpg","viewCount":"3136","playlistId":"PLEkQk5xrP-tnLYi_5_tSRVBwqcs7ISV7Y","playlistName":"شرح كتاب منازل السائرين للإمام الهروي","category":"متنوع"},{"id":"isLOpYw_7-c","title":"3- سَعة رحمة الله تعالى للخائفين منه وإثباتُ الشّفاعة للنَّبيّ ﷺ يوم القيامة - شرح مسند الإمام أحمد","publishedAt":"2023-07-27T08:59:00Z","duration":"PT43M12S","thumbnail":"https://i.ytimg.com/vi/isLOpYw_7-c/mqdefault.jpg","viewCount":"3130","playlistId":"PLEkQk5xrP-tkKprIuGrSdEuBSMsyg5We1","playlistName":"شرح مسند الإمام أحمد بن حنبل","category":"متنوع"},{"id":"GHWlfN_BXhk","title":"هل من حقي الدعاء على من ظلمني؟","publishedAt":"2025-07-25T17:15:01Z","duration":"PT8M29S","thumbnail":"https://i.ytimg.com/vi/GHWlfN_BXhk/mqdefault.jpg","viewCount":"3129","playlistId":"PLEkQk5xrP-tkGXuZ9atE3k_7it12rUPTs","playlistName":"أسئلة المتابعين","category":"متنوع"},{"id":"6BJEf2stOas","title":"الانقطاع إليه بالكلية","publishedAt":"2020-08-12T15:53:04Z","duration":"PT4M8S","thumbnail":"https://i.ytimg.com/vi/6BJEf2stOas/mqdefault.jpg","viewCount":"3124","playlistId":"PLEkQk5xrP-tm8ZIu74nTOZN9KJUJu416J","playlistName":"مقاطع مُهمَّة (يُسريَّات) أ.د. يسري جبر","category":"متنوع"},{"id":"5mxh723UBrA","title":"التوسل والوسيلة","publishedAt":"2020-08-03T19:41:57Z","duration":"PT5M25S","thumbnail":"https://i.ytimg.com/vi/5mxh723UBrA/mqdefault.jpg","viewCount":"3123","playlistId":"PLEkQk5xrP-tm8ZIu74nTOZN9KJUJu416J","playlistName":"مقاطع مُهمَّة (يُسريَّات) أ.د. يسري جبر","category":"متنوع"},{"id":"Vek-lIS0DUI","title":"كيف تدعو الناس إلى الخير؟ | وحكم من لا يستطيع الأمر بالمعروف","publishedAt":"2023-01-01T18:00:08Z","duration":"PT12M6S","thumbnail":"https://i.ytimg.com/vi/Vek-lIS0DUI/mqdefault.jpg","viewCount":"3122","playlistId":"PLEkQk5xrP-tkGXuZ9atE3k_7it12rUPTs","playlistName":"أسئلة المتابعين","category":"متنوع"},{"id":"tfPf3HH5jiQ","title":"219- لَيسَ الغِنَى عن كَثْرةِ العَرَضِ ولَكِنَّ الغِنَى غِنَى النَّفْسِ - شرح دليل الفالحين","publishedAt":"2022-03-24T07:36:06Z","duration":"PT39M51S","thumbnail":"https://i.ytimg.com/vi/tfPf3HH5jiQ/mqdefault.jpg","viewCount":"3117","playlistId":"PLEkQk5xrP-tkc9DXvSLguqX5-FYp6ASR4","playlistName":"دليل الفالحين لطرق رياض الصالحين","category":"متنوع"},{"id":"OH4aafWfeAw","title":"الخلود في الجنة والنار | مجالس رمضانية","publishedAt":"2023-04-17T19:00:09Z","duration":"PT22M16S","thumbnail":"https://i.ytimg.com/vi/OH4aafWfeAw/mqdefault.jpg","viewCount":"3112","playlistId":"PLEkQk5xrP-tnl7vb7KeAoPd5ZlqKKW8KV","playlistName":"شرح كتاب بهجة النفوس أ.د . يسرى جبر","category":"متنوع"},{"id":"w9lZBWRdT_A","title":"أنواع الحياء","publishedAt":"2020-07-08T19:44:08Z","duration":"PT10M40S","thumbnail":"https://i.ytimg.com/vi/w9lZBWRdT_A/mqdefault.jpg","viewCount":"3112","playlistId":"PLEkQk5xrP-tm8ZIu74nTOZN9KJUJu416J","playlistName":"مقاطع مُهمَّة (يُسريَّات) أ.د. يسري جبر","category":"متنوع"},{"id":"FI4KwtZFxrA","title":"171- التحذير من إيذاء الصالحين والضعفاء والمساكين - شرح دليل الفالحين","publishedAt":"2021-12-21T07:55:45Z","duration":"PT21M42S","thumbnail":"https://i.ytimg.com/vi/FI4KwtZFxrA/mqdefault.jpg","viewCount":"3107","playlistId":"PLEkQk5xrP-tkc9DXvSLguqX5-FYp6ASR4","playlistName":"دليل الفالحين لطرق رياض الصالحين","category":"متنوع"},{"id":"qp3t4apduPU","title":"لماذا يعم العذاب الصالح والفاسد في الدنيا؟ | مجالس رمضانية","publishedAt":"2024-03-20T14:00:42Z","duration":"PT26M13S","thumbnail":"https://i.ytimg.com/vi/qp3t4apduPU/mqdefault.jpg","viewCount":"3099","playlistId":"PLEkQk5xrP-tnl7vb7KeAoPd5ZlqKKW8KV","playlistName":"شرح كتاب بهجة النفوس أ.د . يسرى جبر","category":"متنوع"},{"id":"m2p8nGotswU","title":"6- لا يَدخُلُ الجنَّةَ سيِّئُ المَلَكَة - شرح مسند الإمام أحمد","publishedAt":"2023-07-31T08:59:00Z","duration":"PT27M33S","thumbnail":"https://i.ytimg.com/vi/m2p8nGotswU/mqdefault.jpg","viewCount":"3095","playlistId":"PLEkQk5xrP-tkKprIuGrSdEuBSMsyg5We1","playlistName":"شرح مسند الإمام أحمد بن حنبل","category":"متنوع"},{"id":"QOEoFAUGRY4","title":"هل النبي ﷺ بشر مثلنا؟ وما الفرق بين روحانيته وبشريته؟","publishedAt":"2025-07-20T18:00:31Z","duration":"PT20M4S","thumbnail":"https://i.ytimg.com/vi/QOEoFAUGRY4/mqdefault.jpg","viewCount":"3093","playlistId":"PLEkQk5xrP-tmJzNvLntpzW0uPanPzxA0c","playlistName":"لقاءات ومحاضرات","category":"متنوع"},{"id":"fj2TwQl5cX8","title":"ما الفرق بين الحكمة والقدرة؟ | مجالس رمضانية","publishedAt":"2024-03-25T14:00:27Z","duration":"PT24M46S","thumbnail":"https://i.ytimg.com/vi/fj2TwQl5cX8/mqdefault.jpg","viewCount":"3081","playlistId":"PLEkQk5xrP-tnl7vb7KeAoPd5ZlqKKW8KV","playlistName":"شرح كتاب بهجة النفوس أ.د . يسرى جبر","category":"متنوع"},{"id":"Njek90-MJNY","title":"21- مفهوم التوحيد - عقيدة العارفين بالله وأولياء الله الصالحين","publishedAt":"2022-12-30T09:00:11Z","duration":"PT44M48S","thumbnail":"https://i.ytimg.com/vi/Njek90-MJNY/mqdefault.jpg","viewCount":"3069","playlistId":"PLEkQk5xrP-tmNuYT8JAh6clwa4krsgkNo","playlistName":"شرح كتاب الفُتُوحات اليُسريَّة في عقائد الأُمَّة المُحمَّديَّة","category":"متنوع"},{"id":"pUPdIk-6GCY","title":"119- فضلُ قضاء حوائج المسلمين - شرح دليل الفالحين","publishedAt":"2021-08-29T07:27:41Z","duration":"PT52M31S","thumbnail":"https://i.ytimg.com/vi/pUPdIk-6GCY/mqdefault.jpg","viewCount":"3068","playlistId":"PLEkQk5xrP-tkc9DXvSLguqX5-FYp6ASR4","playlistName":"دليل الفالحين لطرق رياض الصالحين","category":"متنوع"},{"id":"u_kY-Q6xlFY","title":"الجمال كله    د. يسري جبر","publishedAt":"2017-05-27T15:06:39Z","duration":"PT1M45S","thumbnail":"https://i.ytimg.com/vi/u_kY-Q6xlFY/mqdefault.jpg","viewCount":"3064","playlistId":"PLEkQk5xrP-tm8ZIu74nTOZN9KJUJu416J","playlistName":"مقاطع مُهمَّة (يُسريَّات) أ.د. يسري جبر","category":"متنوع"},{"id":"rVv0GKCcV2o","title":"من اطَّلع على أسرار العباد، ولم يتخلق بالرحمة الإلهية كان اطِّلاعه فتنة عليه وسببا لجرِّ الوبال إليه","publishedAt":"2017-04-16T21:20:04Z","duration":"PT7M41S","thumbnail":"https://i.ytimg.com/vi/rVv0GKCcV2o/mqdefault.jpg","viewCount":"3060","playlistId":"PLEkQk5xrP-tkI_meE148wc7V7XHlB0WPb","playlistName":"من الحكم العطائية  د. يسري جبر","category":"متنوع"},{"id":"HVQacylpFCA","title":"ما هي حدود فترة كتب الكتاب ,, وما العمل إذا حدثت الدخلة في هذه الفترة؟","publishedAt":"2024-09-19T18:54:47Z","duration":"PT8M1S","thumbnail":"https://i.ytimg.com/vi/HVQacylpFCA/mqdefault.jpg","viewCount":"3056","playlistId":"PLEkQk5xrP-tkGXuZ9atE3k_7it12rUPTs","playlistName":"أسئلة المتابعين","category":"متنوع"},{"id":"m61Fc3qJB6w","title":"60- \"لو أنكم تتوكّلون على الله حقَّ توكُّله؛ لرزقكم…\"الحديث(6)اليقين والتَّوكُّل - شرح دليل الفالحين","publishedAt":"2021-05-17T05:37:23Z","duration":"PT38M37S","thumbnail":"https://i.ytimg.com/vi/m61Fc3qJB6w/mqdefault.jpg","viewCount":"3053","playlistId":"PLEkQk5xrP-tkc9DXvSLguqX5-FYp6ASR4","playlistName":"دليل الفالحين لطرق رياض الصالحين","category":"متنوع"},{"id":"VbG120MA-F4","title":"سنن بسيطة تبني لك بيتا في الجنة | مجالس رمضانية","publishedAt":"2025-03-02T15:00:39Z","duration":"PT21M47S","thumbnail":"https://i.ytimg.com/vi/VbG120MA-F4/mqdefault.jpg","viewCount":"3052","playlistId":"PLEkQk5xrP-tkeI_WVPfuoTJO46aVkpaz0","playlistName":"شرح كتاب ميزان الاعتدال لحفظ الدين والأحوال","category":"متنوع"},{"id":"vboGILHsZI0","title":"12- صِفاتُ المعاني: عِلْمُهُ المُحِيطُ بِالأَشْيَاءِ *** حَيَاتُهُ وَقُدْرَةٌ إِرَادَةٌ…","publishedAt":"2022-08-18T05:56:00Z","duration":"PT1H8M26S","thumbnail":"https://i.ytimg.com/vi/vboGILHsZI0/mqdefault.jpg","viewCount":"3051","playlistId":"PLEkQk5xrP-tmNuYT8JAh6clwa4krsgkNo","playlistName":"شرح كتاب الفُتُوحات اليُسريَّة في عقائد الأُمَّة المُحمَّديَّة","category":"متنوع"},{"id":"34dCHXROPDM","title":"رَضِىَ بالله ربًّا","publishedAt":"2020-08-14T10:30:10Z","duration":"PT39M16S","thumbnail":"https://i.ytimg.com/vi/34dCHXROPDM/mqdefault.jpg","viewCount":"3047","playlistId":"PLEkQk5xrP-tm8ZIu74nTOZN9KJUJu416J","playlistName":"مقاطع مُهمَّة (يُسريَّات) أ.د. يسري جبر","category":"متنوع"}],"total":4129,"page":51,"pageSize":24,"totalPages":173}