{"items":[{"id":"50gnniZqpXc","title":"بمدح المصطفى تحيا القلوب","publishedAt":"2021-11-21T17:32:44Z","duration":"PT15M33S","thumbnail":"https://i.ytimg.com/vi/50gnniZqpXc/mqdefault.jpg","viewCount":"3660","playlistId":"PLEkQk5xrP-tlB8lmbwjAKR8KRgiykGKhb","playlistName":"حضرات يسرية ومدائح نبوية","category":"متنوع"},{"id":"bfhdfavFz9I","title":"هل يجوز العمل في مجال المحاماة ومجال طب التجميل؟","publishedAt":"2024-03-23T18:00:15Z","duration":"PT9M19S","thumbnail":"https://i.ytimg.com/vi/bfhdfavFz9I/mqdefault.jpg","viewCount":"3659","playlistId":"PLEkQk5xrP-tkGXuZ9atE3k_7it12rUPTs","playlistName":"أسئلة المتابعين","category":"متنوع"},{"id":"DiptGJ5AI5E","title":"مقام العبودية - د.يسري جبر","publishedAt":"2014-12-19T20:47:59Z","duration":"PT4M15S","thumbnail":"https://i.ytimg.com/vi/DiptGJ5AI5E/mqdefault.jpg","viewCount":"3654","playlistId":"PLEkQk5xrP-tm8ZIu74nTOZN9KJUJu416J","playlistName":"مقاطع مُهمَّة (يُسريَّات) أ.د. يسري جبر","category":"متنوع"},{"id":"6Ms3PfF8D6U","title":"تهذيب الأخلاق بالعلم الشرعي","publishedAt":"2020-07-12T20:44:33Z","duration":"PT10M28S","thumbnail":"https://i.ytimg.com/vi/6Ms3PfF8D6U/mqdefault.jpg","viewCount":"3647","playlistId":"PLEkQk5xrP-tm8ZIu74nTOZN9KJUJu416J","playlistName":"مقاطع مُهمَّة (يُسريَّات) أ.د. يسري جبر","category":"متنوع"},{"id":"uqzZHeTsvjo","title":"25- حقيقة القُرْب إلى الله عزَّ وجلَّ - شرح عقيدة العارفين","publishedAt":"2023-02-03T05:00:23Z","duration":"PT48M14S","thumbnail":"https://i.ytimg.com/vi/uqzZHeTsvjo/mqdefault.jpg","viewCount":"3645","playlistId":"PLEkQk5xrP-tmNuYT8JAh6clwa4krsgkNo","playlistName":"شرح كتاب الفُتُوحات اليُسريَّة في عقائد الأُمَّة المُحمَّديَّة","category":"متنوع"},{"id":"Ah8Gc0tiarI","title":"هل تعرف قدر نبيك ﷺ؟ | مجالس رمضانية","publishedAt":"2024-04-05T11:00:08Z","duration":"PT31M43S","thumbnail":"https://i.ytimg.com/vi/Ah8Gc0tiarI/mqdefault.jpg","viewCount":"3642","playlistId":"PLEkQk5xrP-tkeI_WVPfuoTJO46aVkpaz0","playlistName":"شرح كتاب ميزان الاعتدال لحفظ الدين والأحوال","category":"متنوع"},{"id":"1xZituGy8GA","title":"2- حديث الإسراء والمعراج بنبينا صلى الله عليه وآله وسلم ( المجلس الثاني ).   أ.د. يسري جبر","publishedAt":"2018-06-06T23:52:17Z","duration":"PT28M23S","thumbnail":"https://i.ytimg.com/vi/1xZituGy8GA/mqdefault.jpg","viewCount":"3631","playlistId":"PLEkQk5xrP-tnl7vb7KeAoPd5ZlqKKW8KV","playlistName":"شرح كتاب بهجة النفوس أ.د . يسرى جبر","category":"متنوع"},{"id":"-ZjZOCRijVs","title":"كيفية تعامل الأزواج مع زوجاتهم في هذا الزمان؟","publishedAt":"2024-12-10T18:15:00Z","duration":"PT9M29S","thumbnail":"https://i.ytimg.com/vi/-ZjZOCRijVs/mqdefault.jpg","viewCount":"3623","playlistId":"PLEkQk5xrP-tkGXuZ9atE3k_7it12rUPTs","playlistName":"أسئلة المتابعين","category":"متنوع"},{"id":"uHbn2gUaycg","title":"الموتُ للمُؤمِنِ نِعْمَةٌ وكَرَامَةٌ    أ.د.يسري جبر","publishedAt":"2019-12-29T16:27:18Z","duration":"PT2M10S","thumbnail":"https://i.ytimg.com/vi/uHbn2gUaycg/mqdefault.jpg","viewCount":"3612","playlistId":"PLEkQk5xrP-tm8ZIu74nTOZN9KJUJu416J","playlistName":"مقاطع مُهمَّة (يُسريَّات) أ.د. يسري جبر","category":"متنوع"},{"id":"IyP_aLxDD_U","title":"قيامي للعزيزعليَّ فـرض و ترك الفرض ما هو مستقيم عجبت لمن له عقل و فهم يرى هذا الجمـــال فلا يقوم  .","publishedAt":"2015-12-23T09:52:19Z","duration":"PT26M9S","thumbnail":"https://i.ytimg.com/vi/IyP_aLxDD_U/mqdefault.jpg","viewCount":"3612","playlistId":"PLEkQk5xrP-tlJd4vTDfdmzoQf4xWWKMby","playlistName":"الاحتفال بالمولد النبوى الشريف 1437 - 1438","category":"متنوع"},{"id":"kcYJPYvnrLM","title":"قمرٌ سيدنا النَّبيّ ﷺ","publishedAt":"2022-01-10T18:34:25Z","duration":"PT10M31S","thumbnail":"https://i.ytimg.com/vi/kcYJPYvnrLM/mqdefault.jpg","viewCount":"3608","playlistId":"PLEkQk5xrP-tlB8lmbwjAKR8KRgiykGKhb","playlistName":"حضرات يسرية ومدائح نبوية","category":"متنوع"},{"id":"Kav3HT7LGCk","title":"برنامج - عصمة الأنبياء - الحلقة الرابعة - سيدنا آدم ( شبهة وعصى أدم فغوى ) - @alerthTV","publishedAt":"2016-05-08T07:10:33Z","duration":"PT26M31S","thumbnail":"https://i.ytimg.com/vi/Kav3HT7LGCk/mqdefault.jpg","viewCount":"3607","playlistId":"PLEkQk5xrP-tnBp9yUT_R2vtqSPOlcyAZe","playlistName":"برنامج - عصمة الأنبياء","category":"متنوع"},{"id":"PlqXtXH8HqE","title":"الرد على من ينكر واسطة النبي ﷺ في الأكوان!","publishedAt":"2024-08-31T18:00:08Z","duration":"PT8M57S","thumbnail":"https://i.ytimg.com/vi/PlqXtXH8HqE/mqdefault.jpg","viewCount":"3597","playlistId":"PLEkQk5xrP-tkGXuZ9atE3k_7it12rUPTs","playlistName":"أسئلة المتابعين","category":"متنوع"},{"id":"WAZkiaUFIxE","title":"زيارة سيد الشهداء سيدنا حمزة وشهداء أحد رضوان الله عليهم أجمعين.","publishedAt":"2020-03-14T18:39:40Z","duration":"PT1M38S","thumbnail":"https://i.ytimg.com/vi/WAZkiaUFIxE/mqdefault.jpg","viewCount":"3568","playlistId":"PLEkQk5xrP-tm8ZIu74nTOZN9KJUJu416J","playlistName":"مقاطع مُهمَّة (يُسريَّات) أ.د. يسري جبر","category":"متنوع"},{"id":"BNjZqXwrDyo","title":"136- \"إذا دعا الرَّجلُ زوجتَهُ لحاجتِهِ فلتأتِهِ وإن كانت على التَّنُّورِ\" - شرح دليل الفالحين","publishedAt":"2021-10-04T06:19:30Z","duration":"PT36M2S","thumbnail":"https://i.ytimg.com/vi/BNjZqXwrDyo/mqdefault.jpg","viewCount":"3566","playlistId":"PLEkQk5xrP-tkc9DXvSLguqX5-FYp6ASR4","playlistName":"دليل الفالحين لطرق رياض الصالحين","category":"متنوع"},{"id":"RuKY1iYlYmw","title":"هل الملائكة أفضل أم البشر؟","publishedAt":"2022-04-06T19:30:01Z","duration":"PT9M12S","thumbnail":"https://i.ytimg.com/vi/RuKY1iYlYmw/mqdefault.jpg","viewCount":"3566","playlistId":"PLEkQk5xrP-tkGXuZ9atE3k_7it12rUPTs","playlistName":"أسئلة المتابعين","category":"متنوع"},{"id":"86hLlqUpA0U","title":"متى يكون الكذب مباحًا في الإسلام؟","publishedAt":"2025-02-02T19:40:16Z","duration":"PT12M44S","thumbnail":"https://i.ytimg.com/vi/86hLlqUpA0U/mqdefault.jpg","viewCount":"3563","playlistId":"PLEkQk5xrP-tkGXuZ9atE3k_7it12rUPTs","playlistName":"أسئلة المتابعين","category":"متنوع"},{"id":"t2pYiELIY8U","title":"لو أنك لا تصل إليه إلا بعد فناء مساويك ، ومحو دعاويك ، لم تصل إليه أبدا.","publishedAt":"2016-10-18T19:30:13Z","duration":"PT6M23S","thumbnail":"https://i.ytimg.com/vi/t2pYiELIY8U/mqdefault.jpg","viewCount":"3554","playlistId":"PLEkQk5xrP-tkI_meE148wc7V7XHlB0WPb","playlistName":"من الحكم العطائية  د. يسري جبر","category":"متنوع"},{"id":"IkJp5BAXg50","title":"28- كيف تفهم حكمة الله في المنع والعطاء؟ | شرح الحكم العطائية","publishedAt":"2025-11-17T18:30:32Z","duration":"PT49M27S","thumbnail":"https://i.ytimg.com/vi/IkJp5BAXg50/mqdefault.jpg","viewCount":"3551","playlistId":"PLEkQk5xrP-tmf5ToOwmW-q0JwxkapbrMN","playlistName":"شرح كتاب إرشاد البرية إلى بعض معاني الحكم العطائية","category":"متنوع"},{"id":"0IdotzWdclE","title":"كيف تُدافع عن نبيك ﷺ؟","publishedAt":"2021-11-13T18:00:01Z","duration":"PT11M20S","thumbnail":"https://i.ytimg.com/vi/0IdotzWdclE/mqdefault.jpg","viewCount":"3544","playlistId":"PLEkQk5xrP-tm8ZIu74nTOZN9KJUJu416J","playlistName":"مقاطع مُهمَّة (يُسريَّات) أ.د. يسري جبر","category":"متنوع"},{"id":"0XVn-u7YZBk","title":"مَرْحَبًا شَعْبَان.  أ.د. يسري جبر","publishedAt":"2020-03-29T15:06:11Z","duration":"PT10M24S","thumbnail":"https://i.ytimg.com/vi/0XVn-u7YZBk/mqdefault.jpg","viewCount":"3532","playlistId":"PLEkQk5xrP-tm8ZIu74nTOZN9KJUJu416J","playlistName":"مقاطع مُهمَّة (يُسريَّات) أ.د. يسري جبر","category":"متنوع"},{"id":"uOGT8w9tOp8","title":"تعريف الحب","publishedAt":"2019-11-03T17:21:33Z","duration":"PT3M49S","thumbnail":"https://i.ytimg.com/vi/uOGT8w9tOp8/mqdefault.jpg","viewCount":"3514","playlistId":"PLEkQk5xrP-tm8ZIu74nTOZN9KJUJu416J","playlistName":"مقاطع مُهمَّة (يُسريَّات) أ.د. يسري جبر","category":"متنوع"},{"id":"rBAhWWgFFrk","title":"26- ما الفرق بين أحوال القبض والبسط؟ | شرح الحكم العطائية","publishedAt":"2025-08-23T18:15:10Z","duration":"PT35M33S","thumbnail":"https://i.ytimg.com/vi/rBAhWWgFFrk/mqdefault.jpg","viewCount":"3511","playlistId":"PLEkQk5xrP-tmf5ToOwmW-q0JwxkapbrMN","playlistName":"شرح كتاب إرشاد البرية إلى بعض معاني الحكم العطائية","category":"متنوع"},{"id":"cInXJeOy7Ow","title":"سُورة البقرة آية 26","publishedAt":"2016-04-18T03:15:14Z","duration":"PT27M17S","thumbnail":"https://i.ytimg.com/vi/cInXJeOy7Ow/mqdefault.jpg","viewCount":"3501","playlistId":"PLEkQk5xrP-tnmTYsyW6xNdyfhPq0Bhrhj","playlistName":"مقرأة الفجر - القُرْآنُ الكَرِيمُ - خَتْمَةُ التَّدَبُّرِ  أ.د. يسري جبر","category":"متنوع"}],"total":4126,"page":47,"pageSize":24,"totalPages":172}