{"items":[{"id":"kN_zf3FSzB0","title":"مقرأة سورة الإسراء من آية ٥٢","publishedAt":"2017-09-27T09:26:50Z","duration":"PT18M22S","thumbnail":"https://i.ytimg.com/vi/kN_zf3FSzB0/mqdefault.jpg","viewCount":"338","playlistId":"PLEkQk5xrP-tnmTYsyW6xNdyfhPq0Bhrhj","playlistName":"مقرأة الفجر - القُرْآنُ الكَرِيمُ - خَتْمَةُ التَّدَبُّرِ  أ.د. يسري جبر","category":"متنوع"},{"id":"jAwz2Nbi0lk","title":"مقرأة سورة الصافات من آية ٦٢","publishedAt":"2018-09-18T23:09:59Z","duration":"PT18M31S","thumbnail":"https://i.ytimg.com/vi/jAwz2Nbi0lk/mqdefault.jpg","viewCount":"337","playlistId":"PLEkQk5xrP-tnmTYsyW6xNdyfhPq0Bhrhj","playlistName":"مقرأة الفجر - القُرْآنُ الكَرِيمُ - خَتْمَةُ التَّدَبُّرِ  أ.د. يسري جبر","category":"متنوع"},{"id":"kiEcQlsN10k","title":"شرح سنن الدارمي كتاب الطلا‎ق من باب ٧","publishedAt":"2019-08-15T16:34:40Z","duration":"PT35M52S","thumbnail":"https://i.ytimg.com/vi/kiEcQlsN10k/mqdefault.jpg","viewCount":"337","playlistId":"PLEkQk5xrP-tmAg-FuWjY057X_h5NmGmAa","playlistName":"شرح سنن الدارمي - أ.د. يسري جبر (كاملا)","category":"متنوع"},{"id":"4xICkXjxtkA","title":"برنامج - عصمة الأنبياء - الحلقة الثانية والعشرون - شبهات حول نبي الله موسى( 3) - @alerthTV","publishedAt":"2019-03-27T07:00:02Z","duration":"PT28M7S","thumbnail":"https://i.ytimg.com/vi/4xICkXjxtkA/mqdefault.jpg","viewCount":"337","playlistId":"PLEkQk5xrP-tnBp9yUT_R2vtqSPOlcyAZe","playlistName":"برنامج - عصمة الأنبياء","category":"متنوع"},{"id":"QgOGSaYn98M","title":"مقرأة سورة القصص من آية ١٢","publishedAt":"2018-05-15T17:58:30Z","duration":"PT7M49S","thumbnail":"https://i.ytimg.com/vi/QgOGSaYn98M/mqdefault.jpg","viewCount":"336","playlistId":"PLEkQk5xrP-tnmTYsyW6xNdyfhPq0Bhrhj","playlistName":"مقرأة الفجر - القُرْآنُ الكَرِيمُ - خَتْمَةُ التَّدَبُّرِ  أ.د. يسري جبر","category":"متنوع"},{"id":"FyDGelPU0jw","title":"مقرأة سورة النور من آية ٦","publishedAt":"2018-03-10T14:08:56Z","duration":"PT17M24S","thumbnail":"https://i.ytimg.com/vi/FyDGelPU0jw/mqdefault.jpg","viewCount":"336","playlistId":"PLEkQk5xrP-tnmTYsyW6xNdyfhPq0Bhrhj","playlistName":"مقرأة الفجر - القُرْآنُ الكَرِيمُ - خَتْمَةُ التَّدَبُّرِ  أ.د. يسري جبر","category":"متنوع"},{"id":"OEULsP7y7Pc","title":"مقرأة سورة النحل من آية ٥١","publishedAt":"2017-08-23T10:38:31Z","duration":"PT12M6S","thumbnail":"https://i.ytimg.com/vi/OEULsP7y7Pc/mqdefault.jpg","viewCount":"336","playlistId":"PLEkQk5xrP-tnmTYsyW6xNdyfhPq0Bhrhj","playlistName":"مقرأة الفجر - القُرْآنُ الكَرِيمُ - خَتْمَةُ التَّدَبُّرِ  أ.د. يسري جبر","category":"متنوع"},{"id":"btlw_8-P-P0","title":"مقرأة سورة النور من آية 58","publishedAt":"2018-03-24T06:32:06Z","duration":"PT15M8S","thumbnail":"https://i.ytimg.com/vi/btlw_8-P-P0/mqdefault.jpg","viewCount":"335","playlistId":"PLEkQk5xrP-tnmTYsyW6xNdyfhPq0Bhrhj","playlistName":"مقرأة الفجر - القُرْآنُ الكَرِيمُ - خَتْمَةُ التَّدَبُّرِ  أ.د. يسري جبر","category":"متنوع"},{"id":"ZXDdTv1-LsE","title":"مقرأة سورة الإسراء من آية ٩٥","publishedAt":"2017-10-10T11:11:47Z","duration":"PT21M38S","thumbnail":"https://i.ytimg.com/vi/ZXDdTv1-LsE/mqdefault.jpg","viewCount":"335","playlistId":"PLEkQk5xrP-tnmTYsyW6xNdyfhPq0Bhrhj","playlistName":"مقرأة الفجر - القُرْآنُ الكَرِيمُ - خَتْمَةُ التَّدَبُّرِ  أ.د. يسري جبر","category":"متنوع"},{"id":"Qv0kBapwHAc","title":"شرح سنن الدارمي كتاب الطهارة من باب ١١٥","publishedAt":"2019-04-24T21:43:59Z","duration":"PT31M54S","thumbnail":"https://i.ytimg.com/vi/Qv0kBapwHAc/mqdefault.jpg","viewCount":"335","playlistId":"PLEkQk5xrP-tmAg-FuWjY057X_h5NmGmAa","playlistName":"شرح سنن الدارمي - أ.د. يسري جبر (كاملا)","category":"متنوع"},{"id":"q4q85xnRZBQ","title":"مقرأة سورة فاطر من آية ٢٥","publishedAt":"2018-08-25T09:26:13Z","duration":"PT13M4S","thumbnail":"https://i.ytimg.com/vi/q4q85xnRZBQ/mqdefault.jpg","viewCount":"334","playlistId":"PLEkQk5xrP-tnmTYsyW6xNdyfhPq0Bhrhj","playlistName":"مقرأة الفجر - القُرْآنُ الكَرِيمُ - خَتْمَةُ التَّدَبُّرِ  أ.د. يسري جبر","category":"متنوع"},{"id":"JUm9kgg1vmQ","title":"مقرأة سورة القصص من آية ٥١","publishedAt":"2018-05-23T09:38:00Z","duration":"PT23M46S","thumbnail":"https://i.ytimg.com/vi/JUm9kgg1vmQ/mqdefault.jpg","viewCount":"334","playlistId":"PLEkQk5xrP-tnmTYsyW6xNdyfhPq0Bhrhj","playlistName":"مقرأة الفجر - القُرْآنُ الكَرِيمُ - خَتْمَةُ التَّدَبُّرِ  أ.د. يسري جبر","category":"متنوع"},{"id":"4bPRopDlU6o","title":"مقرأة سورة النمل من آية ٥٤","publishedAt":"2018-05-02T09:10:27Z","duration":"PT28M6S","thumbnail":"https://i.ytimg.com/vi/4bPRopDlU6o/mqdefault.jpg","viewCount":"334","playlistId":"PLEkQk5xrP-tnmTYsyW6xNdyfhPq0Bhrhj","playlistName":"مقرأة الفجر - القُرْآنُ الكَرِيمُ - خَتْمَةُ التَّدَبُّرِ  أ.د. يسري جبر","category":"متنوع"},{"id":"m8IJ6bW7gMw","title":"( 119 ) حديث الإفك وبراءة السيدة عائشة أم المؤمنين منه - المجلس الثاني","publishedAt":"2016-06-23T14:44:52Z","duration":"PT31M1S","thumbnail":"https://i.ytimg.com/vi/m8IJ6bW7gMw/mqdefault.jpg","viewCount":"334","playlistId":"PLEkQk5xrP-tnl7vb7KeAoPd5ZlqKKW8KV","playlistName":"شرح كتاب بهجة النفوس أ.د . يسرى جبر","category":"متنوع"},{"id":"JwtNikjaMZ4","title":"شرح سنن الدارمي كتاب الصلاة من باب ٩٩","publishedAt":"2019-05-12T22:37:49Z","duration":"PT35M52S","thumbnail":"https://i.ytimg.com/vi/JwtNikjaMZ4/mqdefault.jpg","viewCount":"334","playlistId":"PLEkQk5xrP-tmAg-FuWjY057X_h5NmGmAa","playlistName":"شرح سنن الدارمي - أ.د. يسري جبر (كاملا)","category":"متنوع"},{"id":"4LUG3PoXl5s","title":"مقرأة سورة غافر من آية ٤٩","publishedAt":"2018-11-12T10:15:15Z","duration":"PT14M39S","thumbnail":"https://i.ytimg.com/vi/4LUG3PoXl5s/mqdefault.jpg","viewCount":"333","playlistId":"PLEkQk5xrP-tnmTYsyW6xNdyfhPq0Bhrhj","playlistName":"مقرأة الفجر - القُرْآنُ الكَرِيمُ - خَتْمَةُ التَّدَبُّرِ  أ.د. يسري جبر","category":"متنوع"},{"id":"1GZQF2AYIa0","title":"مقرأة سورة النور من آية ٤","publishedAt":"2018-03-09T16:47:22Z","duration":"PT7M41S","thumbnail":"https://i.ytimg.com/vi/1GZQF2AYIa0/mqdefault.jpg","viewCount":"333","playlistId":"PLEkQk5xrP-tnmTYsyW6xNdyfhPq0Bhrhj","playlistName":"مقرأة الفجر - القُرْآنُ الكَرِيمُ - خَتْمَةُ التَّدَبُّرِ  أ.د. يسري جبر","category":"متنوع"},{"id":"w2WnSOIEpIw","title":"مقرأة سورة هود من آية ٦١","publishedAt":"2017-06-15T15:22:34Z","duration":"PT24M54S","thumbnail":"https://i.ytimg.com/vi/w2WnSOIEpIw/mqdefault.jpg","viewCount":"333","playlistId":"PLEkQk5xrP-tnmTYsyW6xNdyfhPq0Bhrhj","playlistName":"مقرأة الفجر - القُرْآنُ الكَرِيمُ - خَتْمَةُ التَّدَبُّرِ  أ.د. يسري جبر","category":"متنوع"},{"id":"MwUUR4-x-B8","title":"مقرأة سورة التوبة من آية ١٠١","publishedAt":"2017-05-01T10:49:58Z","duration":"PT17M46S","thumbnail":"https://i.ytimg.com/vi/MwUUR4-x-B8/mqdefault.jpg","viewCount":"333","playlistId":"PLEkQk5xrP-tnmTYsyW6xNdyfhPq0Bhrhj","playlistName":"مقرأة الفجر - القُرْآنُ الكَرِيمُ - خَتْمَةُ التَّدَبُّرِ  أ.د. يسري جبر","category":"متنوع"},{"id":"5H7PFClJnGE","title":"شرح سنن الدارمي كتاب الصوم من باب ٧","publishedAt":"2019-06-13T21:41:17Z","duration":"PT25M31S","thumbnail":"https://i.ytimg.com/vi/5H7PFClJnGE/mqdefault.jpg","viewCount":"333","playlistId":"PLEkQk5xrP-tmAg-FuWjY057X_h5NmGmAa","playlistName":"شرح سنن الدارمي - أ.د. يسري جبر (كاملا)","category":"متنوع"},{"id":"dflODl0A_5A","title":"مقرأة سورة المعارج من آية ٣٥","publishedAt":"2019-05-16T10:10:20Z","duration":"PT17M30S","thumbnail":"https://i.ytimg.com/vi/dflODl0A_5A/mqdefault.jpg","viewCount":"333","playlistId":"PLEkQk5xrP-tnmTYsyW6xNdyfhPq0Bhrhj","playlistName":"مقرأة الفجر - القُرْآنُ الكَرِيمُ - خَتْمَةُ التَّدَبُّرِ  أ.د. يسري جبر","category":"متنوع"},{"id":"O2rmXxG03lI","title":"مقرأة سورة الأحزاب من ٱية ٤٠","publishedAt":"2018-07-26T20:49:37Z","duration":"PT11M38S","thumbnail":"https://i.ytimg.com/vi/O2rmXxG03lI/mqdefault.jpg","viewCount":"332","playlistId":"PLEkQk5xrP-tnmTYsyW6xNdyfhPq0Bhrhj","playlistName":"مقرأة الفجر - القُرْآنُ الكَرِيمُ - خَتْمَةُ التَّدَبُّرِ  أ.د. يسري جبر","category":"متنوع"},{"id":"_fD79t8g4Cw","title":"مقرأة سورة المؤمنون آية ١٧","publishedAt":"2018-02-22T08:24:40Z","duration":"PT26M32S","thumbnail":"https://i.ytimg.com/vi/_fD79t8g4Cw/mqdefault.jpg","viewCount":"332","playlistId":"PLEkQk5xrP-tnmTYsyW6xNdyfhPq0Bhrhj","playlistName":"مقرأة الفجر - القُرْآنُ الكَرِيمُ - خَتْمَةُ التَّدَبُّرِ  أ.د. يسري جبر","category":"متنوع"},{"id":"sQgivjziTV0","title":"مقرأة سورة الأنبياء من آية ٥١","publishedAt":"2017-12-17T08:39:52Z","duration":"PT21M4S","thumbnail":"https://i.ytimg.com/vi/sQgivjziTV0/mqdefault.jpg","viewCount":"332","playlistId":"PLEkQk5xrP-tnmTYsyW6xNdyfhPq0Bhrhj","playlistName":"مقرأة الفجر - القُرْآنُ الكَرِيمُ - خَتْمَةُ التَّدَبُّرِ  أ.د. يسري جبر","category":"متنوع"}],"total":4126,"page":146,"pageSize":24,"totalPages":172}