{"items":[{"id":"N8Dn2TDH8UU","title":"الابتلاء عقوبة أم محبة؟","publishedAt":"2024-03-17T20:00:11Z","duration":"PT8M4S","thumbnail":"https://i.ytimg.com/vi/N8Dn2TDH8UU/mqdefault.jpg","viewCount":"5830","playlistId":"PLEkQk5xrP-tm8ZIu74nTOZN9KJUJu416J","playlistName":"مقاطع مُهمَّة (يُسريَّات) أ.د. يسري جبر","category":"متنوع"},{"id":"YTX7be3sk_4","title":"هل أدعي ربنا بكل حاجة حتى لو كانت مستحيلة؟","publishedAt":"2025-08-04T18:15:02Z","duration":"PT9M11S","thumbnail":"https://i.ytimg.com/vi/YTX7be3sk_4/mqdefault.jpg","viewCount":"5818","playlistId":"PLEkQk5xrP-tkGXuZ9atE3k_7it12rUPTs","playlistName":"أسئلة المتابعين","category":"متنوع"},{"id":"bjHRqCXh0B0","title":"المجلس الثامن من شرح الخريدة البهية","publishedAt":"2014-09-16T18:34:25Z","duration":"PT1H6M10S","thumbnail":"https://i.ytimg.com/vi/bjHRqCXh0B0/mqdefault.jpg","viewCount":"5811","playlistId":"PLEkQk5xrP-tnI6h_R1hvYgrrstFAJCvv9","playlistName":"شرح الخريدة البهية د. يسري جبر","category":"متنوع"},{"id":"ZEnet_2ZIYI","title":"كيف أعرف نتيجة صلاة الاستخارة؟","publishedAt":"2024-04-15T19:00:23Z","duration":"PT8M7S","thumbnail":"https://i.ytimg.com/vi/ZEnet_2ZIYI/mqdefault.jpg","viewCount":"5805","playlistId":"PLEkQk5xrP-tkGXuZ9atE3k_7it12rUPTs","playlistName":"أسئلة المتابعين","category":"متنوع"},{"id":"Z6pJ_lAUdPc","title":"هل يجوز قول سيدنا ومولانا محمد في الآذان والتشهد؟","publishedAt":"2022-11-25T18:00:19Z","duration":"PT9M19S","thumbnail":"https://i.ytimg.com/vi/Z6pJ_lAUdPc/mqdefault.jpg","viewCount":"5800","playlistId":"PLEkQk5xrP-tm8ZIu74nTOZN9KJUJu416J","playlistName":"مقاطع مُهمَّة (يُسريَّات) أ.د. يسري جبر","category":"متنوع"},{"id":"Tkdx2-5O8f8","title":"هل ذكر الله أفضل من الجهاد؟ | وما أنواع الذكر؟","publishedAt":"2024-07-19T18:37:04Z","duration":"PT8M14S","thumbnail":"https://i.ytimg.com/vi/Tkdx2-5O8f8/mqdefault.jpg","viewCount":"5778","playlistId":"PLEkQk5xrP-tkGXuZ9atE3k_7it12rUPTs","playlistName":"أسئلة المتابعين","category":"متنوع"},{"id":"1SIRJhzv-Hw","title":"هل يجب إكراه الطفل الأعسر على استخدام اليد اليمنى؟","publishedAt":"2023-06-14T18:00:00Z","duration":"PT9M26S","thumbnail":"https://i.ytimg.com/vi/1SIRJhzv-Hw/mqdefault.jpg","viewCount":"5778","playlistId":"PLEkQk5xrP-tkGXuZ9atE3k_7it12rUPTs","playlistName":"أسئلة المتابعين","category":"متنوع"},{"id":"ISHynL4au0o","title":"الرضا بالإقامة عين الكرامة     د. يسري جبر","publishedAt":"2017-08-11T08:25:04Z","duration":"PT2M55S","thumbnail":"https://i.ytimg.com/vi/ISHynL4au0o/mqdefault.jpg","viewCount":"5774","playlistId":"PLEkQk5xrP-tm8ZIu74nTOZN9KJUJu416J","playlistName":"مقاطع مُهمَّة (يُسريَّات) أ.د. يسري جبر","category":"متنوع"},{"id":"D4v6bKWSPBA","title":"هل يجوز تقبيل الإبهامين عند سماع الشهادة؟","publishedAt":"2023-07-25T18:00:05Z","duration":"PT9M10S","thumbnail":"https://i.ytimg.com/vi/D4v6bKWSPBA/mqdefault.jpg","viewCount":"5768","playlistId":"PLEkQk5xrP-tkGXuZ9atE3k_7it12rUPTs","playlistName":"أسئلة المتابعين","category":"متنوع"},{"id":"6TJpUv8Sa_s","title":"أعمل ايه علشان أشوف النبي ﷺ في المنام؟","publishedAt":"2023-12-19T18:00:09Z","duration":"PT9M13S","thumbnail":"https://i.ytimg.com/vi/6TJpUv8Sa_s/mqdefault.jpg","viewCount":"5761","playlistId":"PLEkQk5xrP-tkGXuZ9atE3k_7it12rUPTs","playlistName":"أسئلة المتابعين","category":"متنوع"},{"id":"LZYCvxWGVL4","title":"التحصن بالقرآن عند النوم | أ.د. يسري جبر","publishedAt":"2021-04-30T15:30:02Z","duration":"PT36M31S","thumbnail":"https://i.ytimg.com/vi/LZYCvxWGVL4/mqdefault.jpg","viewCount":"5742","playlistId":"PLEkQk5xrP-tnl7vb7KeAoPd5ZlqKKW8KV","playlistName":"شرح كتاب بهجة النفوس أ.د . يسرى جبر","category":"متنوع"},{"id":"XMxejr7KHog","title":"4- عددُ الرُّسُل المَذْكُورينَ في القرآن","publishedAt":"2022-01-23T17:44:22Z","duration":"PT1H6M25S","thumbnail":"https://i.ytimg.com/vi/XMxejr7KHog/mqdefault.jpg","viewCount":"5739","playlistId":"PLEkQk5xrP-tmNuYT8JAh6clwa4krsgkNo","playlistName":"شرح كتاب الفُتُوحات اليُسريَّة في عقائد الأُمَّة المُحمَّديَّة","category":"متنوع"},{"id":"xAu7S8YVp2Q","title":"الرد على من يُطالب بتطبيق الختان","publishedAt":"2021-04-07T19:26:54Z","duration":"PT13M16S","thumbnail":"https://i.ytimg.com/vi/xAu7S8YVp2Q/mqdefault.jpg","viewCount":"5739","playlistId":"PLEkQk5xrP-tm8ZIu74nTOZN9KJUJu416J","playlistName":"مقاطع مُهمَّة (يُسريَّات) أ.د. يسري جبر","category":"متنوع"},{"id":"_GFmTze0voc","title":"كيف جمعت بين العلم الشرعي والدنيوي؟","publishedAt":"2024-05-15T17:00:26Z","duration":"PT9M29S","thumbnail":"https://i.ytimg.com/vi/_GFmTze0voc/mqdefault.jpg","viewCount":"5738","playlistId":"PLEkQk5xrP-tl6tFiMFGUucCTvLgnWyAfz","playlistName":"حياة الأستاذ الدكتور يسري جبر","category":"متنوع"},{"id":"mo4FfmJHXJo","title":"الخِذْلَانُ أَنْ تتفَرَّغَ مِنَ الشَوَاغِلِ ثمَّ لا تتوجَّه إِليه  أ.د. يسري جبر","publishedAt":"2020-03-30T15:19:03Z","duration":"PT6M29S","thumbnail":"https://i.ytimg.com/vi/mo4FfmJHXJo/mqdefault.jpg","viewCount":"5737","playlistId":"PLEkQk5xrP-tkI_meE148wc7V7XHlB0WPb","playlistName":"من الحكم العطائية  د. يسري جبر","category":"متنوع"},{"id":"hEC3l0V7KIc","title":"وُصُولك إلى الله وُصُولك إلى العِلْم به، وإلا .. فجلَّ ربُّنا أن يتَّصل به شيء، أو يتَّصل هو بشيء.","publishedAt":"2017-12-31T21:02:22Z","duration":"PT13M16S","thumbnail":"https://i.ytimg.com/vi/hEC3l0V7KIc/mqdefault.jpg","viewCount":"5726","playlistId":"PLEkQk5xrP-tkI_meE148wc7V7XHlB0WPb","playlistName":"من الحكم العطائية  د. يسري جبر","category":"متنوع"},{"id":"-k7mdV2BmH0","title":"الزهراءُ البتول قُرَّةُ عين الرسول ﷺ","publishedAt":"2021-02-08T19:38:07Z","duration":"PT9M49S","thumbnail":"https://i.ytimg.com/vi/-k7mdV2BmH0/mqdefault.jpg","viewCount":"5726","playlistId":"PLEkQk5xrP-tm8ZIu74nTOZN9KJUJu416J","playlistName":"مقاطع مُهمَّة (يُسريَّات) أ.د. يسري جبر","category":"متنوع"},{"id":"O6K43GyDds0","title":"اللهُ يَشْهَدُ وَالمَلَائِكُ تَشْهَدُ  أَنَّ الَّذِي حَازَ الْجَمَالَ سَيِّدُنَا مُحَمَّدٌ ﷺ","publishedAt":"2019-09-20T18:45:24Z","duration":"PT8M33S","thumbnail":"https://i.ytimg.com/vi/O6K43GyDds0/mqdefault.jpg","viewCount":"5715","playlistId":"PLEkQk5xrP-tlB8lmbwjAKR8KRgiykGKhb","playlistName":"حضرات يسرية ومدائح نبوية","category":"متنوع"},{"id":"rOeSsJpxGjA","title":"كيف أفنى في شيخي وأجعله قدوتي؟","publishedAt":"2022-12-04T18:00:27Z","duration":"PT8M4S","thumbnail":"https://i.ytimg.com/vi/rOeSsJpxGjA/mqdefault.jpg","viewCount":"5707","playlistId":"PLEkQk5xrP-tkGXuZ9atE3k_7it12rUPTs","playlistName":"أسئلة المتابعين","category":"متنوع"},{"id":"XVGvSEfr5WU","title":"تعرف على عجائب الصدقة واثرها في حياتك | مجالس رمضانية","publishedAt":"2025-03-16T15:30:09Z","duration":"PT26M21S","thumbnail":"https://i.ytimg.com/vi/XVGvSEfr5WU/mqdefault.jpg","viewCount":"5694","playlistId":"PLEkQk5xrP-tkeI_WVPfuoTJO46aVkpaz0","playlistName":"شرح كتاب ميزان الاعتدال لحفظ الدين والأحوال","category":"متنوع"},{"id":"C3VjF0AmXYs","title":"11- لماذا يتحقق مطلبك مع الله ويصعب بالاعتماد على نفسك؟ | شرح الحكم العطائية","publishedAt":"2024-12-26T18:25:35Z","duration":"PT48M51S","thumbnail":"https://i.ytimg.com/vi/C3VjF0AmXYs/mqdefault.jpg","viewCount":"5687","playlistId":"PLEkQk5xrP-tmf5ToOwmW-q0JwxkapbrMN","playlistName":"شرح كتاب إرشاد البرية إلى بعض معاني الحكم العطائية","category":"متنوع"},{"id":"_7VRVE8hcZc","title":"مَنْ هُمُ الأَولِيَاء د. يسري جبر","publishedAt":"2016-07-23T19:12:25Z","duration":"PT13M33S","thumbnail":"https://i.ytimg.com/vi/_7VRVE8hcZc/mqdefault.jpg","viewCount":"5667","playlistId":"PLEkQk5xrP-tm8ZIu74nTOZN9KJUJu416J","playlistName":"مقاطع مُهمَّة (يُسريَّات) أ.د. يسري جبر","category":"متنوع"},{"id":"Mo7k-9_JDQQ","title":"ما هو التصوف؟","publishedAt":"2020-12-23T17:45:00Z","duration":"PT11M59S","thumbnail":"https://i.ytimg.com/vi/Mo7k-9_JDQQ/mqdefault.jpg","viewCount":"5665","playlistId":"PLEkQk5xrP-tm8ZIu74nTOZN9KJUJu416J","playlistName":"مقاطع مُهمَّة (يُسريَّات) أ.د. يسري جبر","category":"متنوع"},{"id":"QNdboWJfuqE","title":"كيف أتعامل مع القرين وأتغلب عليه؟","publishedAt":"2025-05-01T20:00:21Z","duration":"PT9M9S","thumbnail":"https://i.ytimg.com/vi/QNdboWJfuqE/mqdefault.jpg","viewCount":"5661","playlistId":"PLEkQk5xrP-tkGXuZ9atE3k_7it12rUPTs","playlistName":"أسئلة المتابعين","category":"متنوع"}],"total":4126,"page":33,"pageSize":24,"totalPages":172}