{"items":[{"id":"AYviZseVQuI","title":"شرح سنن الدارمي كتاب الرقاق من باب ٦١","publishedAt":"2019-10-04T22:39:40Z","duration":"PT28M47S","thumbnail":"https://i.ytimg.com/vi/AYviZseVQuI/mqdefault.jpg","viewCount":"395","playlistId":"PLEkQk5xrP-tmAg-FuWjY057X_h5NmGmAa","playlistName":"شرح سنن الدارمي - أ.د. يسري جبر (كاملا)","category":"متنوع"},{"id":"lPFaqCAH4dc","title":"سورة الأعراف آية 163","publishedAt":"2017-03-05T03:44:55Z","duration":"PT16M46S","thumbnail":"https://i.ytimg.com/vi/lPFaqCAH4dc/mqdefault.jpg","viewCount":"395","playlistId":"PLEkQk5xrP-tnmTYsyW6xNdyfhPq0Bhrhj","playlistName":"مقرأة الفجر - القُرْآنُ الكَرِيمُ - خَتْمَةُ التَّدَبُّرِ  أ.د. يسري جبر","category":"متنوع"},{"id":"H9Zpf5MRxXM","title":"مقرأة سورة غافر من آية ١٠","publishedAt":"2018-11-04T10:17:06Z","duration":"PT18M49S","thumbnail":"https://i.ytimg.com/vi/H9Zpf5MRxXM/mqdefault.jpg","viewCount":"394","playlistId":"PLEkQk5xrP-tnmTYsyW6xNdyfhPq0Bhrhj","playlistName":"مقرأة الفجر - القُرْآنُ الكَرِيمُ - خَتْمَةُ التَّدَبُّرِ  أ.د. يسري جبر","category":"متنوع"},{"id":"b4OVwarMgsA","title":"مقرأة سورة الممتحنة من آية ١٠","publishedAt":"2019-04-07T07:30:06Z","duration":"PT20M44S","thumbnail":"https://i.ytimg.com/vi/b4OVwarMgsA/mqdefault.jpg","viewCount":"394","playlistId":"PLEkQk5xrP-tnmTYsyW6xNdyfhPq0Bhrhj","playlistName":"مقرأة الفجر - القُرْآنُ الكَرِيمُ - خَتْمَةُ التَّدَبُّرِ  أ.د. يسري جبر","category":"متنوع"},{"id":"TA6Igaosi5U","title":"مقرأة سورة الأحقاف من آية ١١","publishedAt":"2019-01-05T12:39:05Z","duration":"PT10M3S","thumbnail":"https://i.ytimg.com/vi/TA6Igaosi5U/mqdefault.jpg","viewCount":"394","playlistId":"PLEkQk5xrP-tnmTYsyW6xNdyfhPq0Bhrhj","playlistName":"مقرأة الفجر - القُرْآنُ الكَرِيمُ - خَتْمَةُ التَّدَبُّرِ  أ.د. يسري جبر","category":"متنوع"},{"id":"dJVstHxgVc4","title":"سورة الأعراف آية 150","publishedAt":"2017-03-01T13:43:51Z","duration":"PT20M28S","thumbnail":"https://i.ytimg.com/vi/dJVstHxgVc4/mqdefault.jpg","viewCount":"394","playlistId":"PLEkQk5xrP-tnmTYsyW6xNdyfhPq0Bhrhj","playlistName":"مقرأة الفجر - القُرْآنُ الكَرِيمُ - خَتْمَةُ التَّدَبُّرِ  أ.د. يسري جبر","category":"متنوع"},{"id":"RMy3f8aLBTU","title":"مقرأة سورة النحل من آية ٦٢","publishedAt":"2017-08-25T14:39:54Z","duration":"PT23M31S","thumbnail":"https://i.ytimg.com/vi/RMy3f8aLBTU/mqdefault.jpg","viewCount":"393","playlistId":"PLEkQk5xrP-tnmTYsyW6xNdyfhPq0Bhrhj","playlistName":"مقرأة الفجر - القُرْآنُ الكَرِيمُ - خَتْمَةُ التَّدَبُّرِ  أ.د. يسري جبر","category":"متنوع"},{"id":"vEKmvdwvycU","title":"سورة الأعراف آية 156","publishedAt":"2017-03-02T10:19:58Z","duration":"PT19M58S","thumbnail":"https://i.ytimg.com/vi/vEKmvdwvycU/mqdefault.jpg","viewCount":"393","playlistId":"PLEkQk5xrP-tnmTYsyW6xNdyfhPq0Bhrhj","playlistName":"مقرأة الفجر - القُرْآنُ الكَرِيمُ - خَتْمَةُ التَّدَبُّرِ  أ.د. يسري جبر","category":"متنوع"},{"id":"7HLRwtHfvvc","title":"مقرأة سورة الزخرف من آية ١٥","publishedAt":"2018-12-13T18:42:44Z","duration":"PT30M8S","thumbnail":"https://i.ytimg.com/vi/7HLRwtHfvvc/mqdefault.jpg","viewCount":"393","playlistId":"PLEkQk5xrP-tnmTYsyW6xNdyfhPq0Bhrhj","playlistName":"مقرأة الفجر - القُرْآنُ الكَرِيمُ - خَتْمَةُ التَّدَبُّرِ  أ.د. يسري جبر","category":"متنوع"},{"id":"s-TEi3-e4Ls","title":"سورة المائدة آية 17","publishedAt":"2016-10-31T03:42:51Z","duration":"PT11M58S","thumbnail":"https://i.ytimg.com/vi/s-TEi3-e4Ls/mqdefault.jpg","viewCount":"393","playlistId":"PLEkQk5xrP-tnmTYsyW6xNdyfhPq0Bhrhj","playlistName":"مقرأة الفجر - القُرْآنُ الكَرِيمُ - خَتْمَةُ التَّدَبُّرِ  أ.د. يسري جبر","category":"متنوع"},{"id":"VTjQHFUM48U","title":"سورة النساء آية 127","publishedAt":"2016-09-27T20:46:31Z","duration":"PT22M54S","thumbnail":"https://i.ytimg.com/vi/VTjQHFUM48U/mqdefault.jpg","viewCount":"393","playlistId":"PLEkQk5xrP-tnmTYsyW6xNdyfhPq0Bhrhj","playlistName":"مقرأة الفجر - القُرْآنُ الكَرِيمُ - خَتْمَةُ التَّدَبُّرِ  أ.د. يسري جبر","category":"متنوع"},{"id":"PUB_gC8J17s","title":"مقرأة سورة الأنفال من آية ٥٩","publishedAt":"2017-03-26T07:32:58Z","duration":"PT19M48S","thumbnail":"https://i.ytimg.com/vi/PUB_gC8J17s/mqdefault.jpg","viewCount":"392","playlistId":"PLEkQk5xrP-tnmTYsyW6xNdyfhPq0Bhrhj","playlistName":"مقرأة الفجر - القُرْآنُ الكَرِيمُ - خَتْمَةُ التَّدَبُّرِ  أ.د. يسري جبر","category":"متنوع"},{"id":"ob2YvEW_VFc","title":"سورة الأنفال آية 27","publishedAt":"2017-03-20T11:11:32Z","duration":"PT13M34S","thumbnail":"https://i.ytimg.com/vi/ob2YvEW_VFc/mqdefault.jpg","viewCount":"392","playlistId":"PLEkQk5xrP-tnmTYsyW6xNdyfhPq0Bhrhj","playlistName":"مقرأة الفجر - القُرْآنُ الكَرِيمُ - خَتْمَةُ التَّدَبُّرِ  أ.د. يسري جبر","category":"متنوع"},{"id":"EluNH_Wu-8o","title":"مقرأة سورة الحجرات من آية ٩","publishedAt":"2019-01-26T20:49:51Z","duration":"PT9M38S","thumbnail":"https://i.ytimg.com/vi/EluNH_Wu-8o/mqdefault.jpg","viewCount":"391","playlistId":"PLEkQk5xrP-tnmTYsyW6xNdyfhPq0Bhrhj","playlistName":"مقرأة الفجر - القُرْآنُ الكَرِيمُ - خَتْمَةُ التَّدَبُّرِ  أ.د. يسري جبر","category":"متنوع"},{"id":"l8P92lgw2mY","title":"مقرأة سورة الإنسان من آية ٢٢","publishedAt":"2019-06-07T10:49:34Z","duration":"PT10M58S","thumbnail":"https://i.ytimg.com/vi/l8P92lgw2mY/mqdefault.jpg","viewCount":"391","playlistId":"PLEkQk5xrP-tnmTYsyW6xNdyfhPq0Bhrhj","playlistName":"مقرأة الفجر - القُرْآنُ الكَرِيمُ - خَتْمَةُ التَّدَبُّرِ  أ.د. يسري جبر","category":"متنوع"},{"id":"Xw7euEtbmUo","title":"شرح سنن الدارمي كتاب الصلاة من باب ١٤٠","publishedAt":"2019-05-16T23:20:55Z","duration":"PT31M23S","thumbnail":"https://i.ytimg.com/vi/Xw7euEtbmUo/mqdefault.jpg","viewCount":"391","playlistId":"PLEkQk5xrP-tmAg-FuWjY057X_h5NmGmAa","playlistName":"شرح سنن الدارمي - أ.د. يسري جبر (كاملا)","category":"متنوع"},{"id":"Ib4cDYL-XuY","title":"مقرأة سورة يس من آية ٧١","publishedAt":"2018-09-10T11:04:54Z","duration":"PT9M35S","thumbnail":"https://i.ytimg.com/vi/Ib4cDYL-XuY/mqdefault.jpg","viewCount":"391","playlistId":"PLEkQk5xrP-tnmTYsyW6xNdyfhPq0Bhrhj","playlistName":"مقرأة الفجر - القُرْآنُ الكَرِيمُ - خَتْمَةُ التَّدَبُّرِ  أ.د. يسري جبر","category":"متنوع"},{"id":"pnKDpfvCCBM","title":"مقرأة سورة محمد من آية ٧","publishedAt":"2019-01-12T13:32:14Z","duration":"PT16M22S","thumbnail":"https://i.ytimg.com/vi/pnKDpfvCCBM/mqdefault.jpg","viewCount":"391","playlistId":"PLEkQk5xrP-tnmTYsyW6xNdyfhPq0Bhrhj","playlistName":"مقرأة الفجر - القُرْآنُ الكَرِيمُ - خَتْمَةُ التَّدَبُّرِ  أ.د. يسري جبر","category":"متنوع"},{"id":"nAB6o_8mwCw","title":"سورة الأنعام آية 6","publishedAt":"2016-11-29T07:06:15Z","duration":"PT13M23S","thumbnail":"https://i.ytimg.com/vi/nAB6o_8mwCw/mqdefault.jpg","viewCount":"391","playlistId":"PLEkQk5xrP-tnmTYsyW6xNdyfhPq0Bhrhj","playlistName":"مقرأة الفجر - القُرْآنُ الكَرِيمُ - خَتْمَةُ التَّدَبُّرِ  أ.د. يسري جبر","category":"متنوع"},{"id":"5_JS6ho7JFI","title":"مقرأة سورة الزمر من آية ٤٣","publishedAt":"2018-10-25T00:08:40Z","duration":"PT26M58S","thumbnail":"https://i.ytimg.com/vi/5_JS6ho7JFI/mqdefault.jpg","viewCount":"391","playlistId":"PLEkQk5xrP-tnmTYsyW6xNdyfhPq0Bhrhj","playlistName":"مقرأة الفجر - القُرْآنُ الكَرِيمُ - خَتْمَةُ التَّدَبُّرِ  أ.د. يسري جبر","category":"متنوع"},{"id":"GE3NDnDqN1M","title":"مقرأة سورة فاطر من آية 15","publishedAt":"2018-08-24T09:08:50Z","duration":"PT29M58S","thumbnail":"https://i.ytimg.com/vi/GE3NDnDqN1M/mqdefault.jpg","viewCount":"391","playlistId":"PLEkQk5xrP-tnmTYsyW6xNdyfhPq0Bhrhj","playlistName":"مقرأة الفجر - القُرْآنُ الكَرِيمُ - خَتْمَةُ التَّدَبُّرِ  أ.د. يسري جبر","category":"متنوع"},{"id":"255-dzXOh8A","title":"شرح سنن الدارمي كتاب الأشربة من باب ٢٠","publishedAt":"2019-08-01T17:23:30Z","duration":"PT26M39S","thumbnail":"https://i.ytimg.com/vi/255-dzXOh8A/mqdefault.jpg","viewCount":"390","playlistId":"PLEkQk5xrP-tmAg-FuWjY057X_h5NmGmAa","playlistName":"شرح سنن الدارمي - أ.د. يسري جبر (كاملا)","category":"متنوع"},{"id":"BYSi7uLGskI","title":"مقرأة سورة يس من آية ٦٠","publishedAt":"2018-09-08T17:48:17Z","duration":"PT7M24S","thumbnail":"https://i.ytimg.com/vi/BYSi7uLGskI/mqdefault.jpg","viewCount":"390","playlistId":"PLEkQk5xrP-tnmTYsyW6xNdyfhPq0Bhrhj","playlistName":"مقرأة الفجر - القُرْآنُ الكَرِيمُ - خَتْمَةُ التَّدَبُّرِ  أ.د. يسري جبر","category":"متنوع"},{"id":"bjq8JioDK1A","title":"( 120 ) حديث يمين الغموس -  د. يسري جبر","publishedAt":"2017-05-31T01:44:16Z","duration":"PT22M30S","thumbnail":"https://i.ytimg.com/vi/bjq8JioDK1A/mqdefault.jpg","viewCount":"390","playlistId":"PLEkQk5xrP-tnl7vb7KeAoPd5ZlqKKW8KV","playlistName":"شرح كتاب بهجة النفوس أ.د . يسرى جبر","category":"متنوع"}],"total":4126,"page":135,"pageSize":24,"totalPages":172}