{"items":[{"id":"yOq1HYENF1o","title":"101- \"إنَّ أولَ ما دخل النَّقْصُ على بني إسرائيلَ أنه كان الرجلُ يَلْقَى الرجلَ…\" شرح دليل الفالحين","publishedAt":"2021-07-22T06:40:02Z","duration":"PT52M26S","thumbnail":"https://i.ytimg.com/vi/yOq1HYENF1o/mqdefault.jpg","viewCount":"2914","playlistId":"PLEkQk5xrP-tkc9DXvSLguqX5-FYp6ASR4","playlistName":"دليل الفالحين لطرق رياض الصالحين","category":"متنوع"},{"id":"PqV8gkNIgFM","title":"أهلي مش ملتزمين ومش عارف أنصحهم ازاي؟","publishedAt":"2023-07-27T18:00:42Z","duration":"PT8M2S","thumbnail":"https://i.ytimg.com/vi/PqV8gkNIgFM/mqdefault.jpg","viewCount":"2904","playlistId":"PLEkQk5xrP-tkGXuZ9atE3k_7it12rUPTs","playlistName":"أسئلة المتابعين","category":"متنوع"},{"id":"KNEzTwkVLXI","title":"501- فضل الاستغفار - شرح دليل الفالحين","publishedAt":"2023-07-21T05:00:20Z","duration":"PT39M3S","thumbnail":"https://i.ytimg.com/vi/KNEzTwkVLXI/mqdefault.jpg","viewCount":"2903","playlistId":"PLEkQk5xrP-tkc9DXvSLguqX5-FYp6ASR4","playlistName":"دليل الفالحين لطرق رياض الصالحين","category":"متنوع"},{"id":"QYfCE0L5xxE","title":"شرح كتاب البيوع من سنن الإمام الترمذي - المجلس الأول","publishedAt":"2015-05-24T03:59:01Z","duration":"PT40M10S","thumbnail":"https://i.ytimg.com/vi/QYfCE0L5xxE/mqdefault.jpg","viewCount":"2901","playlistId":"PLEkQk5xrP-tnu6of679SvxdVx0qSrJzmb","playlistName":"شرح سنن الإمام الترمذي رضى الله عنه د. يسري جبر","category":"متنوع"},{"id":"5qJaJxrl2v8","title":"كيف تستمد علو الهمة من شيخك؟","publishedAt":"2025-08-29T18:00:11Z","duration":"PT27M50S","thumbnail":"https://i.ytimg.com/vi/5qJaJxrl2v8/mqdefault.jpg","viewCount":"2900","playlistId":"PLEkQk5xrP-tmsEDdkkXMM1ca2-AquQYad","playlistName":"شرح كتاب مدارج الحقيقة في الرابطة عند أهل الطريقة","category":"متنوع"},{"id":"YDHLR3FCygU","title":"فوائد النمل للبشرية. د.يسري جبر","publishedAt":"2020-01-14T18:59:49Z","duration":"PT2M47S","thumbnail":"https://i.ytimg.com/vi/YDHLR3FCygU/mqdefault.jpg","viewCount":"2897","playlistId":"PLEkQk5xrP-tm8ZIu74nTOZN9KJUJu416J","playlistName":"مقاطع مُهمَّة (يُسريَّات) أ.د. يسري جبر","category":"متنوع"},{"id":"0PPb_j11iqY","title":"التشهد والصلاة الإبراهيمية | مجالس رمضانية","publishedAt":"2023-04-07T15:00:02Z","duration":"PT48M41S","thumbnail":"https://i.ytimg.com/vi/0PPb_j11iqY/mqdefault.jpg","viewCount":"2894","playlistId":"PLEkQk5xrP-tnl7vb7KeAoPd5ZlqKKW8KV","playlistName":"شرح كتاب بهجة النفوس أ.د . يسرى جبر","category":"متنوع"},{"id":"MDDfUdtkOkM","title":"ما الشأن وجود الطلب ، إنما الشأن أن ترزق حسن الأدب","publishedAt":"2017-02-04T19:23:09Z","duration":"PT14M38S","thumbnail":"https://i.ytimg.com/vi/MDDfUdtkOkM/mqdefault.jpg","viewCount":"2887","playlistId":"PLEkQk5xrP-tkI_meE148wc7V7XHlB0WPb","playlistName":"من الحكم العطائية  د. يسري جبر","category":"متنوع"},{"id":"7Rk05HRFRK0","title":"ما هي شروط الأضحية؟","publishedAt":"2022-07-08T19:30:01Z","duration":"PT9M9S","thumbnail":"https://i.ytimg.com/vi/7Rk05HRFRK0/mqdefault.jpg","viewCount":"2878","playlistId":"PLEkQk5xrP-tm8ZIu74nTOZN9KJUJu416J","playlistName":"مقاطع مُهمَّة (يُسريَّات) أ.د. يسري جبر","category":"متنوع"},{"id":"otIDeLITdno","title":"9- الخريدة البهيَّة - الوُجود والقِدَم","publishedAt":"2022-06-23T21:17:48Z","duration":"PT56M7S","thumbnail":"https://i.ytimg.com/vi/otIDeLITdno/mqdefault.jpg","viewCount":"2877","playlistId":"PLEkQk5xrP-tmNuYT8JAh6clwa4krsgkNo","playlistName":"شرح كتاب الفُتُوحات اليُسريَّة في عقائد الأُمَّة المُحمَّديَّة","category":"متنوع"},{"id":"H9606UBw_HE","title":"شرح القصيدة المنفرجة لابن النحوي رضى الله عنه - المجلس الرابع - د. يسري جبر","publishedAt":"2015-07-11T20:12:42Z","duration":"PT47M","thumbnail":"https://i.ytimg.com/vi/H9606UBw_HE/mqdefault.jpg","viewCount":"2870","playlistId":"PLEkQk5xrP-tna48sTO8GZ77fBCf3PgzNc","playlistName":"شرح القصيدة المنفرجة لابن النحوي - د. يسري جبر","category":"متنوع"},{"id":"tNklFASI9F0","title":"دوامُ الحذر مصحوبًا بالرحمة","publishedAt":"2020-07-24T19:47:33Z","duration":"PT8M27S","thumbnail":"https://i.ytimg.com/vi/tNklFASI9F0/mqdefault.jpg","viewCount":"2869","playlistId":"PLEkQk5xrP-tm8ZIu74nTOZN9KJUJu416J","playlistName":"مقاطع مُهمَّة (يُسريَّات) أ.د. يسري جبر","category":"متنوع"},{"id":"Jo_W8bVAAhY","title":"ماذا أقول عند زيارة النبي ﷺ وما آداب الزيارة؟","publishedAt":"2025-08-13T18:00:31Z","duration":"PT9M43S","thumbnail":"https://i.ytimg.com/vi/Jo_W8bVAAhY/mqdefault.jpg","viewCount":"2869","playlistId":"PLEkQk5xrP-tm8ZIu74nTOZN9KJUJu416J","playlistName":"مقاطع مُهمَّة (يُسريَّات) أ.د. يسري جبر","category":"متنوع"},{"id":"5vnp581FDgs","title":"ما هي درجات أهل التقوى؟ | مجالس رمضانية","publishedAt":"2024-04-07T11:00:06Z","duration":"PT26M16S","thumbnail":"https://i.ytimg.com/vi/5vnp581FDgs/mqdefault.jpg","viewCount":"2869","playlistId":"PLEkQk5xrP-tkeI_WVPfuoTJO46aVkpaz0","playlistName":"شرح كتاب ميزان الاعتدال لحفظ الدين والأحوال","category":"متنوع"},{"id":"EjetYixsl_I","title":"إذا عَلِمتَ أنَّ الشيطانَ لا يَغفلُ عنك، فلا تَغفلْ أنت عَمَّنْ ناصيتُكَ بيده.","publishedAt":"2018-01-17T20:05:24Z","duration":"PT9M37S","thumbnail":"https://i.ytimg.com/vi/EjetYixsl_I/mqdefault.jpg","viewCount":"2868","playlistId":"PLEkQk5xrP-tkI_meE148wc7V7XHlB0WPb","playlistName":"من الحكم العطائية  د. يسري جبر","category":"متنوع"},{"id":"yeOpCGrN8iA","title":"أنا كنت في ثانوية عامة ونفسي أدخل كلية الطب بماذا تنصحني؟","publishedAt":"2024-08-01T18:14:00Z","duration":"PT8M12S","thumbnail":"https://i.ytimg.com/vi/yeOpCGrN8iA/mqdefault.jpg","viewCount":"2867","playlistId":"PLEkQk5xrP-tkGXuZ9atE3k_7it12rUPTs","playlistName":"أسئلة المتابعين","category":"متنوع"},{"id":"I23b1aOz5dw","title":"161- بركة دعوة الصالحين - شرح مسند الإمام أحمد رضي الله تعالى عنه","publishedAt":"2025-06-10T05:00:15Z","duration":"PT33M58S","thumbnail":"https://i.ytimg.com/vi/I23b1aOz5dw/mqdefault.jpg","viewCount":"2866","playlistId":"PLEkQk5xrP-tkKprIuGrSdEuBSMsyg5We1","playlistName":"شرح مسند الإمام أحمد بن حنبل","category":"متنوع"},{"id":"4C1q83iP6Uw","title":"أسماءُ النَّبيّ ﷺ","publishedAt":"2020-11-06T19:01:17Z","duration":"PT19M55S","thumbnail":"https://i.ytimg.com/vi/4C1q83iP6Uw/mqdefault.jpg","viewCount":"2865","playlistId":"PLEkQk5xrP-tm8ZIu74nTOZN9KJUJu416J","playlistName":"مقاطع مُهمَّة (يُسريَّات) أ.د. يسري جبر","category":"متنوع"},{"id":"XGzysKP40no","title":"أنا متقدملي شاب للزواج وأهلي مقتنعين بيه وأنا لا أريده فماذا أفعل؟","publishedAt":"2025-01-09T17:00:39Z","duration":"PT8M24S","thumbnail":"https://i.ytimg.com/vi/XGzysKP40no/mqdefault.jpg","viewCount":"2863","playlistId":"PLEkQk5xrP-tkGXuZ9atE3k_7it12rUPTs","playlistName":"أسئلة المتابعين","category":"متنوع"},{"id":"2ne44ojG5tY","title":"195- فضلُ الزُّهْدِ في الدنيا والحَثُّ على التَّقلُّلِ منها وفضلُ الفقر - شرح دليل الفالحين","publishedAt":"2022-02-04T07:10:07Z","duration":"PT54M7S","thumbnail":"https://i.ytimg.com/vi/2ne44ojG5tY/mqdefault.jpg","viewCount":"2863","playlistId":"PLEkQk5xrP-tkc9DXvSLguqX5-FYp6ASR4","playlistName":"دليل الفالحين لطرق رياض الصالحين","category":"متنوع"},{"id":"JBCm-4CFPq8","title":"201- حُبُّ الدنيا وكثرةُ المال - شرح دليل الفالحين","publishedAt":"2022-02-13T22:39:01Z","duration":"PT27M57S","thumbnail":"https://i.ytimg.com/vi/JBCm-4CFPq8/mqdefault.jpg","viewCount":"2860","playlistId":"PLEkQk5xrP-tkc9DXvSLguqX5-FYp6ASR4","playlistName":"دليل الفالحين لطرق رياض الصالحين","category":"متنوع"},{"id":"Dzb4BXd5X80","title":"فضل تربية البنات | أ.د. يسري جبر","publishedAt":"2022-04-27T19:30:02Z","duration":"PT43M17S","thumbnail":"https://i.ytimg.com/vi/Dzb4BXd5X80/mqdefault.jpg","viewCount":"2860","playlistId":"PLEkQk5xrP-tnl7vb7KeAoPd5ZlqKKW8KV","playlistName":"شرح كتاب بهجة النفوس أ.د . يسرى جبر","category":"متنوع"},{"id":"nvksZcamCp4","title":"ما هي أسباب الخلود فى النار؟","publishedAt":"2024-11-05T18:37:43Z","duration":"PT16M13S","thumbnail":"https://i.ytimg.com/vi/nvksZcamCp4/mqdefault.jpg","viewCount":"2855","playlistId":"PLEkQk5xrP-tnZyxWbCSqTSMV9BJLUL-zN","playlistName":"شرح كتاب تنوير البصيرة ببيان علامات الكبيرة","category":"متنوع"},{"id":"_nHc48neKOs","title":"ازاي تشوف النبي ﷺ في المنام؟","publishedAt":"2025-11-12T19:30:12Z","duration":"PT8M23S","thumbnail":"https://i.ytimg.com/vi/_nHc48neKOs/mqdefault.jpg","viewCount":"2855","playlistId":"PLEkQk5xrP-tm8ZIu74nTOZN9KJUJu416J","playlistName":"مقاطع مُهمَّة (يُسريَّات) أ.د. يسري جبر","category":"متنوع"}],"total":4126,"page":53,"pageSize":24,"totalPages":172}