{"items":[{"id":"d5MDxnH0CQw","title":"سورة النساء آية 60","publishedAt":"2016-08-27T21:07:17Z","duration":"PT18M11S","thumbnail":"https://i.ytimg.com/vi/d5MDxnH0CQw/mqdefault.jpg","viewCount":"566","playlistId":"PLEkQk5xrP-tnmTYsyW6xNdyfhPq0Bhrhj","playlistName":"مقرأة الفجر - القُرْآنُ الكَرِيمُ - خَتْمَةُ التَّدَبُّرِ  أ.د. يسري جبر","category":"متنوع"},{"id":"i6uUppTAxTY","title":"393- فضل المملوك الذي يؤدي حقَّ الله وحقَّ مواليه - شرح دليل الفالحين","publishedAt":"2023-01-26T09:00:33Z","duration":"PT34M12S","thumbnail":"https://i.ytimg.com/vi/i6uUppTAxTY/mqdefault.jpg","viewCount":"566","playlistId":"PLEkQk5xrP-tkc9DXvSLguqX5-FYp6ASR4","playlistName":"دليل الفالحين لطرق رياض الصالحين","category":"متنوع"},{"id":"QzkKoD0W3t4","title":"مقرأة سورة ص من آية ٩","publishedAt":"2018-09-30T22:44:09Z","duration":"PT19M14S","thumbnail":"https://i.ytimg.com/vi/QzkKoD0W3t4/mqdefault.jpg","viewCount":"566","playlistId":"PLEkQk5xrP-tnmTYsyW6xNdyfhPq0Bhrhj","playlistName":"مقرأة الفجر - القُرْآنُ الكَرِيمُ - خَتْمَةُ التَّدَبُّرِ  أ.د. يسري جبر","category":"متنوع"},{"id":"VmwXdgGlES0","title":"مقرأة سورة التكوير من آية ١٥","publishedAt":"2019-07-01T10:52:46Z","duration":"PT17M27S","thumbnail":"https://i.ytimg.com/vi/VmwXdgGlES0/mqdefault.jpg","viewCount":"565","playlistId":"PLEkQk5xrP-tnmTYsyW6xNdyfhPq0Bhrhj","playlistName":"مقرأة الفجر - القُرْآنُ الكَرِيمُ - خَتْمَةُ التَّدَبُّرِ  أ.د. يسري جبر","category":"متنوع"},{"id":"agDSuJhOiCI","title":"391- حُكمُ غُسْلِ الشَّهيدِ وتَكْفينه والصَّلاة عليه وثوابه في الآخرة - شرح دليل الفالحين","publishedAt":"2023-01-24T09:00:02Z","duration":"PT37M55S","thumbnail":"https://i.ytimg.com/vi/agDSuJhOiCI/mqdefault.jpg","viewCount":"564","playlistId":"PLEkQk5xrP-tkc9DXvSLguqX5-FYp6ASR4","playlistName":"دليل الفالحين لطرق رياض الصالحين","category":"متنوع"},{"id":"GkVufY-TVyA","title":"41-  هل يجوز الصلاة والصيام والطواف في فترة الاستحاضة؟ | شرح سنن الدار قطني رضي الله عنه","publishedAt":"2024-08-10T09:00:18Z","duration":"PT48M50S","thumbnail":"https://i.ytimg.com/vi/GkVufY-TVyA/mqdefault.jpg","viewCount":"562","playlistId":"PLEkQk5xrP-tk_MCBZ706ORCw6gFtFyaGj","playlistName":"شرح سنن الإمام الدارقطني","category":"متنوع"},{"id":"VKMVZofF96s","title":"شرح سنن الدارمي - المقدمة - ٢٤","publishedAt":"2019-03-15T02:00:06Z","duration":"PT34M32S","thumbnail":"https://i.ytimg.com/vi/VKMVZofF96s/mqdefault.jpg","viewCount":"562","playlistId":"PLEkQk5xrP-tmAg-FuWjY057X_h5NmGmAa","playlistName":"شرح سنن الدارمي - أ.د. يسري جبر (كاملا)","category":"متنوع"},{"id":"obPxWLo6yP0","title":"مقرأة سورة الأنبياء من أولها","publishedAt":"2017-12-10T15:53:17Z","duration":"PT13M28S","thumbnail":"https://i.ytimg.com/vi/obPxWLo6yP0/mqdefault.jpg","viewCount":"561","playlistId":"PLEkQk5xrP-tnmTYsyW6xNdyfhPq0Bhrhj","playlistName":"مقرأة الفجر - القُرْآنُ الكَرِيمُ - خَتْمَةُ التَّدَبُّرِ  أ.د. يسري جبر","category":"متنوع"},{"id":"ZsOfW06xI_A","title":"شرح سنن الدارمي - المقدمة - ٢١","publishedAt":"2019-03-10T21:59:25Z","duration":"PT14M31S","thumbnail":"https://i.ytimg.com/vi/ZsOfW06xI_A/mqdefault.jpg","viewCount":"561","playlistId":"PLEkQk5xrP-tmAg-FuWjY057X_h5NmGmAa","playlistName":"شرح سنن الدارمي - أ.د. يسري جبر (كاملا)","category":"متنوع"},{"id":"pQxGOdHWZyg","title":"قراءة القرآن (من آية ١٠٣ سورة آل عمران)","publishedAt":"2016-07-18T08:09:20Z","duration":"PT13M55S","thumbnail":"https://i.ytimg.com/vi/pQxGOdHWZyg/mqdefault.jpg","viewCount":"560","playlistId":"PLEkQk5xrP-tnmTYsyW6xNdyfhPq0Bhrhj","playlistName":"مقرأة الفجر - القُرْآنُ الكَرِيمُ - خَتْمَةُ التَّدَبُّرِ  أ.د. يسري جبر","category":"متنوع"},{"id":"A24_NLpMrk4","title":"سورة النساء آية 24","publishedAt":"2016-08-17T05:56:13Z","duration":"PT10M7S","thumbnail":"https://i.ytimg.com/vi/A24_NLpMrk4/mqdefault.jpg","viewCount":"560","playlistId":"PLEkQk5xrP-tnmTYsyW6xNdyfhPq0Bhrhj","playlistName":"مقرأة الفجر - القُرْآنُ الكَرِيمُ - خَتْمَةُ التَّدَبُّرِ  أ.د. يسري جبر","category":"متنوع"},{"id":"-oK1LdYvAKQ","title":"مقرأة سورة الحجرات من آية ١٣","publishedAt":"2019-01-28T23:12:30Z","duration":"PT21M59S","thumbnail":"https://i.ytimg.com/vi/-oK1LdYvAKQ/mqdefault.jpg","viewCount":"560","playlistId":"PLEkQk5xrP-tnmTYsyW6xNdyfhPq0Bhrhj","playlistName":"مقرأة الفجر - القُرْآنُ الكَرِيمُ - خَتْمَةُ التَّدَبُّرِ  أ.د. يسري جبر","category":"متنوع"},{"id":"4bguiPdOXaQ","title":"قراءة القرآن (من آية ٢٦٣ سورة البقرة)","publishedAt":"2016-05-29T01:37:56Z","duration":"PT10M43S","thumbnail":"https://i.ytimg.com/vi/4bguiPdOXaQ/mqdefault.jpg","viewCount":"558","playlistId":"PLEkQk5xrP-tnmTYsyW6xNdyfhPq0Bhrhj","playlistName":"مقرأة الفجر - القُرْآنُ الكَرِيمُ - خَتْمَةُ التَّدَبُّرِ  أ.د. يسري جبر","category":"متنوع"},{"id":"TItYQljN3bY","title":"قراءة القرآن (من آية ٢٦١ سورة البقرة)","publishedAt":"2016-05-28T18:31:13Z","duration":"PT15M48S","thumbnail":"https://i.ytimg.com/vi/TItYQljN3bY/mqdefault.jpg","viewCount":"558","playlistId":"PLEkQk5xrP-tnmTYsyW6xNdyfhPq0Bhrhj","playlistName":"مقرأة الفجر - القُرْآنُ الكَرِيمُ - خَتْمَةُ التَّدَبُّرِ  أ.د. يسري جبر","category":"متنوع"},{"id":"rZDXggAnM9M","title":"13- مَا يَفْعَلُ مَنْ رَفَعَ رَأْسَهُ قَبْلَ الإِمَامِ ك الصلاة ك الموطأ د يسري جبر الأزهري","publishedAt":"2016-05-16T10:55:23Z","duration":"PT44M37S","thumbnail":"https://i.ytimg.com/vi/rZDXggAnM9M/mqdefault.jpg","viewCount":"558","playlistId":"PLEkQk5xrP-tnC6BRuqMjyO-484iqXeg0o","playlistName":"شرح كتاب الموطأ للإمام مالك","category":"متنوع"},{"id":"rv9s9Qom2FY","title":"قراءة القرآن (من آية ٨٦ سورة آل عمران)","publishedAt":"2016-07-14T10:40:40Z","duration":"PT12M33S","thumbnail":"https://i.ytimg.com/vi/rv9s9Qom2FY/mqdefault.jpg","viewCount":"557","playlistId":"PLEkQk5xrP-tnmTYsyW6xNdyfhPq0Bhrhj","playlistName":"مقرأة الفجر - القُرْآنُ الكَرِيمُ - خَتْمَةُ التَّدَبُّرِ  أ.د. يسري جبر","category":"متنوع"},{"id":"8l2KmpDZ2k8","title":"مقرأة سورة آل عمران من آية ١٣٠","publishedAt":"2019-09-27T15:16:38Z","duration":"PT29M32S","thumbnail":"https://i.ytimg.com/vi/8l2KmpDZ2k8/mqdefault.jpg","viewCount":"555","playlistId":"PLEkQk5xrP-tnmTYsyW6xNdyfhPq0Bhrhj","playlistName":"مقرأة الفجر - القُرْآنُ الكَرِيمُ - خَتْمَةُ التَّدَبُّرِ  أ.د. يسري جبر","category":"متنوع"},{"id":"CyGleXILhBc","title":"قيد الطاعات بأنواع الأوقات، كي لا يمنعك عنها وجود التسويف، ووسع الوقت عليك، كي تبقى لك حصة الاختيار.","publishedAt":"2017-08-29T19:34:54Z","duration":"PT6M16S","thumbnail":"https://i.ytimg.com/vi/CyGleXILhBc/mqdefault.jpg","viewCount":"553","playlistId":"PLEkQk5xrP-tkI_meE148wc7V7XHlB0WPb","playlistName":"من الحكم العطائية  د. يسري جبر","category":"متنوع"},{"id":"9H3kKVTVByc","title":"مقرأة سورة يوسف من آية ٣٠","publishedAt":"2017-06-26T07:59:46Z","duration":"PT17M45S","thumbnail":"https://i.ytimg.com/vi/9H3kKVTVByc/mqdefault.jpg","viewCount":"553","playlistId":"PLEkQk5xrP-tnmTYsyW6xNdyfhPq0Bhrhj","playlistName":"مقرأة الفجر - القُرْآنُ الكَرِيمُ - خَتْمَةُ التَّدَبُّرِ  أ.د. يسري جبر","category":"متنوع"},{"id":"mpLvNLpY-PE","title":"مقرأة سورة الشورى من آية ٩","publishedAt":"2018-11-29T19:33:52Z","duration":"PT25M31S","thumbnail":"https://i.ytimg.com/vi/mpLvNLpY-PE/mqdefault.jpg","viewCount":"553","playlistId":"PLEkQk5xrP-tnmTYsyW6xNdyfhPq0Bhrhj","playlistName":"مقرأة الفجر - القُرْآنُ الكَرِيمُ - خَتْمَةُ التَّدَبُّرِ  أ.د. يسري جبر","category":"متنوع"},{"id":"0kAvg0NJE5U","title":"سورة الأنعام  آية 13","publishedAt":"2016-11-30T03:18:15Z","duration":"PT16M46S","thumbnail":"https://i.ytimg.com/vi/0kAvg0NJE5U/mqdefault.jpg","viewCount":"553","playlistId":"PLEkQk5xrP-tnmTYsyW6xNdyfhPq0Bhrhj","playlistName":"مقرأة الفجر - القُرْآنُ الكَرِيمُ - خَتْمَةُ التَّدَبُّرِ  أ.د. يسري جبر","category":"متنوع"},{"id":"IqvBqUyUjnQ","title":"448- النهي عن تناجي اثنين دون الثالث بغير إذنه إلا لحاجة - شرح دليل الفالحين","publishedAt":"2023-05-17T08:59:00Z","duration":"PT27M36S","thumbnail":"https://i.ytimg.com/vi/IqvBqUyUjnQ/mqdefault.jpg","viewCount":"553","playlistId":"PLEkQk5xrP-tkc9DXvSLguqX5-FYp6ASR4","playlistName":"دليل الفالحين لطرق رياض الصالحين","category":"متنوع"},{"id":"hPKw48nzJxU","title":"سورة النساء آية 13","publishedAt":"2016-08-14T06:15:28Z","duration":"PT13M27S","thumbnail":"https://i.ytimg.com/vi/hPKw48nzJxU/mqdefault.jpg","viewCount":"553","playlistId":"PLEkQk5xrP-tnmTYsyW6xNdyfhPq0Bhrhj","playlistName":"مقرأة الفجر - القُرْآنُ الكَرِيمُ - خَتْمَةُ التَّدَبُّرِ  أ.د. يسري جبر","category":"متنوع"},{"id":"m_EKiNRJdwc","title":"قراءة القرآن (من آية ٦٢ سورة آل عمران)","publishedAt":"2016-07-11T17:15:12Z","duration":"PT16M25S","thumbnail":"https://i.ytimg.com/vi/m_EKiNRJdwc/mqdefault.jpg","viewCount":"552","playlistId":"PLEkQk5xrP-tnmTYsyW6xNdyfhPq0Bhrhj","playlistName":"مقرأة الفجر - القُرْآنُ الكَرِيمُ - خَتْمَةُ التَّدَبُّرِ  أ.د. يسري جبر","category":"متنوع"}],"total":4126,"page":116,"pageSize":24,"totalPages":172}