{"items":[{"id":"ej2a8xb3GdA","title":"Ø£Ø­Ø§ÙˆÙ„ Ù…Ù‚Ø§ÙˆÙ…Ø© Ø§Ù„ÙƒØ³Ù„ ÙÙŠ Ø§Ù„Ø·Ø§Ø¹Ø§Øª ÙˆØ§Ù„Ø®Ø´ÙˆØ¹ ÙÙŠ Ø§Ù„ØµÙ„Ø§Ø© ÙˆÙ„Ø§ Ø£Ø³ØªØ·ÙŠØ¹ ,, ÙÙ…Ø§Ø°Ø§ Ø£ÙØ¹Ù„ØŸ","publishedAt":"2024-10-21T17:45:07Z","duration":"PT8M32S","thumbnail":"https://i.ytimg.com/vi/ej2a8xb3GdA/mqdefault.jpg","viewCount":"7298","playlistId":"PLEkQk5xrP-tkGXuZ9atE3k_7it12rUPTs","playlistName":"Ø£Ø³Ø¦Ù„Ø© Ø§Ù„Ù…ØªØ§Ø¨Ø¹ÙŠÙ†","category":"Ù…ØªÙ†ÙˆØ¹"},{"id":"WD67TPh8AN4","title":"Ø´Ø±Ø­ ÙƒØªØ§Ø¨ Ø¯Ù„Ø§Ø¦Ù„ Ø§Ù„Ø®ÙŠØ±Ø§Øª - Ø§Ù„Ù…Ø¬Ù„Ø³ Ø§Ù„ØªØ§Ø³Ø¹ Ø¹Ø´Ø±. Ø£.Ø¯. ÙŠØ³Ø±ÙŠ Ø¬Ø¨Ø±","publishedAt":"2020-02-08T12:41:02Z","duration":"PT21M18S","thumbnail":"https://i.ytimg.com/vi/WD67TPh8AN4/mqdefault.jpg","viewCount":"7287","playlistId":"PLEkQk5xrP-tlAzcbIpuqjdFICW-knvTlR","playlistName":"Ø´Ø±Ø­ ÙƒØªØ§Ø¨ Ø¯Ù„Ø§Ø¦Ù„ Ø§Ù„Ø®ÙŠØ±Ø§Øª ÙˆØ´ÙˆØ§Ø±Ù‚ Ø§Ù„Ø£Ù†ÙˆØ§Ø±","category":"Ù…ØªÙ†ÙˆØ¹"},{"id":"yk9jx6N3xW4","title":"Ù‡Ù„ Ù‚Ø§Ù†ÙˆÙ† Ø§Ù„Ø¥ÙŠØ¬Ø§Ø± Ø§Ù„Ù‚Ø¯ÙŠÙ… ÙÙŠ Ù…ØµØ± Ø¬Ø§Ø¦Ø² Ø´Ø±Ø¹Ù‹Ø§ØŸ","publishedAt":"2022-04-24T19:30:02Z","duration":"PT12M4S","thumbnail":"https://i.ytimg.com/vi/yk9jx6N3xW4/mqdefault.jpg","viewCount":"7269","playlistId":"PLEkQk5xrP-tkGXuZ9atE3k_7it12rUPTs","playlistName":"Ø£Ø³Ø¦Ù„Ø© Ø§Ù„Ù…ØªØ§Ø¨Ø¹ÙŠÙ†","category":"Ù…ØªÙ†ÙˆØ¹"},{"id":"8DBEEvVl5Jo","title":"Ø§Ù„Ø±Ø¶Ø§ Ø¨Ø§Ù„Ø¥Ù‚Ø§Ù…Ø© Ø¹ÙŠÙ† Ø§Ù„ÙƒØ±Ø§Ù…Ø©","publishedAt":"2023-03-07T18:00:06Z","duration":"PT23M54S","thumbnail":"https://i.ytimg.com/vi/8DBEEvVl5Jo/mqdefault.jpg","viewCount":"7262","playlistId":"PLEkQk5xrP-tm8ZIu74nTOZN9KJUJu416J","playlistName":"Ù…Ù‚Ø§Ø·Ø¹ Ù…ÙÙ‡Ù…ÙÙ‘Ø© (ÙŠÙØ³Ø±ÙŠÙ‘ÙØ§Øª) Ø£.Ø¯. ÙŠØ³Ø±ÙŠ Ø¬Ø¨Ø±","category":"Ù…ØªÙ†ÙˆØ¹"},{"id":"MVUXEIvWZfc","title":"Ù…Ù‚Ø§Ù…Ù Ø§Ù„ÙÙØ±Ù’Ù‚Ù ÙˆÙ…Ù‚Ø§Ù…Ù Ø§Ù„Ø¬ÙÙ…Ù’Ø¹Ù","publishedAt":"2016-10-31T13:20:31Z","duration":"PT13M2S","thumbnail":"https://i.ytimg.com/vi/MVUXEIvWZfc/mqdefault.jpg","viewCount":"7253","playlistId":"PLEkQk5xrP-tkI_meE148wc7V7XHlB0WPb","playlistName":"Ù…Ù† Ø§Ù„Ø­ÙƒÙ… Ø§Ù„Ø¹Ø·Ø§Ø¦ÙŠØ©  Ø¯. ÙŠØ³Ø±ÙŠ Ø¬Ø¨Ø±","category":"Ù…ØªÙ†ÙˆØ¹"},{"id":"q_VjYYSPxwE","title":"23- Ù‡Ù„ Ø§Ù„Ø³Ø­Ø± ÙŠØºÙŠØ± Ø§Ù„Ø­Ù‚Ø§Ø¦Ù‚ØŸ | ÙƒÙŠÙÙŠØ© ÙÙ‡Ù… Ù…Ø¹Ø§Ù†ÙŠ Ø§Ù„Ù‚Ø±Ø¢Ù† | Ø´Ø±Ø­ Ù…Ø®ØªØµØ± Ø§Ù„ÙØªÙˆØ­Ø§Øª Ø§Ù„Ù…ÙƒÙŠØ©","publishedAt":"2024-06-25T16:58:07Z","duration":"PT48M51S","thumbnail":"https://i.ytimg.com/vi/q_VjYYSPxwE/mqdefault.jpg","viewCount":"7236","playlistId":"PLEkQk5xrP-tnpkdZki6rPTtMak1bnI5g-","playlistName":"Ø´Ø±Ø­ ÙƒØªØ§Ø¨ Ù…Ø®ØªØµØ± Ø§Ù„ÙØªÙˆØ­Ø§Øª Ø§Ù„Ù…ÙƒÙŠØ© Ø§Ù„Ù…Ø³Ù…Ù‰ Ù„ÙˆØ§Ù‚Ø­ Ø§Ù„Ø£Ù†ÙˆØ§Ø± Ø§Ù„Ù‚Ø¯Ø³ÙŠØ©","category":"Ù…ØªÙ†ÙˆØ¹"},{"id":"3qzkoSkw6PI","title":"Ù…Ø§ Ù‡ÙŠ Ø¹Ù„Ø§Ù…Ø§Øª Ø§Ù„Ø³Ø§Ø¹Ø© Ø§Ù„ØªÙŠ Ø¸Ù‡Ø±ØªØŸ | Ù…Ø¬Ø§Ù„Ø³ Ø±Ù…Ø¶Ø§Ù†ÙŠØ©","publishedAt":"2024-03-18T14:00:04Z","duration":"PT39M30S","thumbnail":"https://i.ytimg.com/vi/3qzkoSkw6PI/mqdefault.jpg","viewCount":"7230","playlistId":"PLEkQk5xrP-tnl7vb7KeAoPd5ZlqKKW8KV","playlistName":"Ø´Ø±Ø­ ÙƒØªØ§Ø¨ Ø¨Ù‡Ø¬Ø© Ø§Ù„Ù†ÙÙˆØ³ Ø£.Ø¯ . ÙŠØ³Ø±Ù‰ Ø¬Ø¨Ø±","category":"Ù…ØªÙ†ÙˆØ¹"},{"id":"C5llbKSmr-0","title":"Ù…Ø§ Ù…Ø¹Ù†Ù‰ Ø§Ø³Ù… Ø§Ù„Ù†Ø¨ÙŠ Ù…Ø­Ù…Ø¯ (Ø§Ù„Ù…Ø§Ø­ÙŠ) | Ø§Ø¹Ø±Ù Ù†Ø¨ÙŠÙƒ","publishedAt":"2015-09-30T16:43:52Z","duration":"PT7M24S","thumbnail":"https://i.ytimg.com/vi/C5llbKSmr-0/mqdefault.jpg","viewCount":"7229","playlistId":"PLEkQk5xrP-tl6Mu_Mz3QMUSv5T6XBH-Dg","playlistName":"Ø¨Ø±Ù†Ø§Ù…Ø¬ Ø§Ø¹Ø±Ù Ù†Ø¨ÙŠÙƒ","category":"Ù…ØªÙ†ÙˆØ¹"},{"id":"N9-EZFbAZS8","title":"Ø­ÙŠØ§Ø© Ø§Ù„Ø¯ÙƒØªÙˆØ± ÙŠØ³Ø±ÙŠ Ø¬Ø¨Ø± | Ø§Ù„Ø­Ù„Ù‚Ø© Ø§Ù„Ø«Ø§Ù„Ø«Ø©","publishedAt":"2020-12-21T18:15:02Z","duration":"PT11M55S","thumbnail":"https://i.ytimg.com/vi/N9-EZFbAZS8/mqdefault.jpg","viewCount":"7223","playlistId":"PLEkQk5xrP-tl6tFiMFGUucCTvLgnWyAfz","playlistName":"Ø­ÙŠØ§Ø© Ø§Ù„Ø£Ø³ØªØ§Ø° Ø§Ù„Ø¯ÙƒØªÙˆØ± ÙŠØ³Ø±ÙŠ Ø¬Ø¨Ø±","category":"Ù…ØªÙ†ÙˆØ¹"},{"id":"QcWx6hn7EFo","title":"Ø£Ù†Ø§ Ù…Ù‚Ø¨Ù„ Ø¹Ù„Ù‰ Ø§Ù„Ø²ÙˆØ§Ø¬ ,, ÙƒÙŠÙ Ø£Ø¹Ø§Ù„Ø¬ Ù‚Ø³ÙˆØ© Ø·Ø¨Ø§Ø¹ÙŠØŸ","publishedAt":"2022-12-10T18:00:14Z","duration":"PT9M42S","thumbnail":"https://i.ytimg.com/vi/QcWx6hn7EFo/mqdefault.jpg","viewCount":"7222","playlistId":"PLEkQk5xrP-tkGXuZ9atE3k_7it12rUPTs","playlistName":"Ø£Ø³Ø¦Ù„Ø© Ø§Ù„Ù…ØªØ§Ø¨Ø¹ÙŠÙ†","category":"Ù…ØªÙ†ÙˆØ¹"},{"id":"xSCgQog0aVc","title":"Ø§Ù„Ù…Ø­Ø¨ Ù„Ø§ ÙŠÙ†ØµØ±Ù Ø¹Ù† Ø§Ù„Ø¨Ø§Ø¨","publishedAt":"2020-09-06T19:35:12Z","duration":"PT13M33S","thumbnail":"https://i.ytimg.com/vi/xSCgQog0aVc/mqdefault.jpg","viewCount":"7220","playlistId":"PLEkQk5xrP-tm8ZIu74nTOZN9KJUJu416J","playlistName":"Ù…Ù‚Ø§Ø·Ø¹ Ù…ÙÙ‡Ù…ÙÙ‘Ø© (ÙŠÙØ³Ø±ÙŠÙ‘ÙØ§Øª) Ø£.Ø¯. ÙŠØ³Ø±ÙŠ Ø¬Ø¨Ø±","category":"Ù…ØªÙ†ÙˆØ¹"},{"id":"TXui8ynCwuI","title":"Ù…Ø§ Ø§Ù„Ù…Ø¹Ø§ØµÙŠ Ø§Ù„ØªÙŠ ØªØ±ØªÙƒØ¨Ù‡Ø§ ÙÙŠ Ø­ÙŠØ§ØªÙƒ Ø§Ù„ÙŠÙˆÙ…ÙŠØ© ÙˆÙ„Ø§ ØªØ¹Ø±Ù Ø£Ù†Ù‡Ø§ Ù…Ù† Ø§Ù„ÙƒØ¨Ø§Ø¦Ø±ØŸ","publishedAt":"2024-12-29T20:02:17Z","duration":"PT32M52S","thumbnail":"https://i.ytimg.com/vi/TXui8ynCwuI/mqdefault.jpg","viewCount":"7212","playlistId":"PLEkQk5xrP-tnZyxWbCSqTSMV9BJLUL-zN","playlistName":"Ø´Ø±Ø­ ÙƒØªØ§Ø¨ ØªÙ†ÙˆÙŠØ± Ø§Ù„Ø¨ØµÙŠØ±Ø© Ø¨Ø¨ÙŠØ§Ù† Ø¹Ù„Ø§Ù…Ø§Øª Ø§Ù„ÙƒØ¨ÙŠØ±Ø©","category":"Ù…ØªÙ†ÙˆØ¹"},{"id":"cCo9Ltd5t2c","title":"Ø²ÙˆØ¬ÙŠ ØªØ²ÙˆØ¬ Ø¹Ù„ÙŠØ§ ÙÙ‡Ù„ Ù…Ù† Ø­Ù‚ÙŠ Ø·Ù„Ø¨ Ø§Ù„Ø·Ù„Ø§Ù‚ Ø§Ù… Ù…Ø§Ø°Ø§ Ø£ÙØ¹Ù„ØŸ","publishedAt":"2024-05-12T18:15:11Z","duration":"PT8M7S","thumbnail":"https://i.ytimg.com/vi/cCo9Ltd5t2c/mqdefault.jpg","viewCount":"7197","playlistId":"PLEkQk5xrP-tkGXuZ9atE3k_7it12rUPTs","playlistName":"Ø£Ø³Ø¦Ù„Ø© Ø§Ù„Ù…ØªØ§Ø¨Ø¹ÙŠÙ†","category":"Ù…ØªÙ†ÙˆØ¹"},{"id":"jDNpVpfckUA","title":"Ù‚ØµØµ ÙˆØ°ÙƒØ±ÙŠØ§Øª ÙÙŠ Ø­ÙŠØ§Ø© Ø¯.ÙŠØ³Ø±ÙŠ Ø¬Ø¨Ø±","publishedAt":"2024-06-21T17:42:16Z","duration":"PT1H11M50S","thumbnail":"https://i.ytimg.com/vi/jDNpVpfckUA/mqdefault.jpg","viewCount":"7185","playlistId":"PLEkQk5xrP-tmJzNvLntpzW0uPanPzxA0c","playlistName":"Ù„Ù‚Ø§Ø¡Ø§Øª ÙˆÙ…Ø­Ø§Ø¶Ø±Ø§Øª","category":"Ù…ØªÙ†ÙˆØ¹"},{"id":"Um52xE8wevA","title":"36- Ø±Ø­Ù„Ø© Ø¥Ù„Ù‰ ÙŠÙˆÙ… Ø§Ù„Ù‚ÙŠØ§Ù…Ø© ÙˆÙ…Ø§Ø°Ø§ Ø³ÙŠØ­Ø¯Ø« Ø¨Ø§Ù„ØªÙØµÙŠÙ„ØŸ | Ø´Ø±Ø­ Ù…Ø®ØªØµØ± Ø§Ù„ÙØªÙˆØ­Ø§Øª Ø§Ù„Ù…ÙƒÙŠØ©","publishedAt":"2024-12-28T18:21:31Z","duration":"PT50M29S","thumbnail":"https://i.ytimg.com/vi/Um52xE8wevA/mqdefault.jpg","viewCount":"7172","playlistId":"PLEkQk5xrP-tnpkdZki6rPTtMak1bnI5g-","playlistName":"Ø´Ø±Ø­ ÙƒØªØ§Ø¨ Ù…Ø®ØªØµØ± Ø§Ù„ÙØªÙˆØ­Ø§Øª Ø§Ù„Ù…ÙƒÙŠØ© Ø§Ù„Ù…Ø³Ù…Ù‰ Ù„ÙˆØ§Ù‚Ø­ Ø§Ù„Ø£Ù†ÙˆØ§Ø± Ø§Ù„Ù‚Ø¯Ø³ÙŠØ©","category":"Ù…ØªÙ†ÙˆØ¹"},{"id":"8hsWqSOyHcE","title":"Ù…ÙˆØª Ø§Ù„Ø´Ø¨Ø§Ø¨ Ø§Ù„Ù…ÙØ§Ø¬Ø¦!","publishedAt":"2020-11-22T17:45:00Z","duration":"PT2M48S","thumbnail":"https://i.ytimg.com/vi/8hsWqSOyHcE/mqdefault.jpg","viewCount":"7171","playlistId":"PLEkQk5xrP-tm8ZIu74nTOZN9KJUJu416J","playlistName":"Ù…Ù‚Ø§Ø·Ø¹ Ù…ÙÙ‡Ù…ÙÙ‘Ø© (ÙŠÙØ³Ø±ÙŠÙ‘ÙØ§Øª) Ø£.Ø¯. ÙŠØ³Ø±ÙŠ Ø¬Ø¨Ø±","category":"Ù…ØªÙ†ÙˆØ¹"},{"id":"9EwKnJEFt4w","title":"ÙÙØ±Ù‘ÙØºÙ’ Ù‚ÙÙ„Ù’Ø¨ÙÙƒÙ Ù…Ù†Ù Ø§Ù„Ø£ØºÙ’ÙŠØ§Ø±ÙØŒ ÙŠÙÙ…Ù’Ù„Ø£Ù’ Ø¨Ø§Ù„Ù…Ø¹ÙØ§Ø±ÙÙÙ ÙˆØ§Ù„Ø£Ø³Ù’Ø±Ø§Ø±Ù.","publishedAt":"2017-12-25T19:29:11Z","duration":"PT7M23S","thumbnail":"https://i.ytimg.com/vi/9EwKnJEFt4w/mqdefault.jpg","viewCount":"7162","playlistId":"PLEkQk5xrP-tkI_meE148wc7V7XHlB0WPb","playlistName":"Ù…Ù† Ø§Ù„Ø­ÙƒÙ… Ø§Ù„Ø¹Ø·Ø§Ø¦ÙŠØ©  Ø¯. ÙŠØ³Ø±ÙŠ Ø¬Ø¨Ø±","category":"Ù…ØªÙ†ÙˆØ¹"},{"id":"sSY8ClWOiJg","title":"Ø§Ù„Ù…Ø¯Ø¯ Ø¹Ù„Ù‰ Ù‚Ø¯Ø± Ø§Ù„Ù‡ÙÙ…Ù‘ÙØ©","publishedAt":"2020-08-22T19:13:58Z","duration":"PT6M19S","thumbnail":"https://i.ytimg.com/vi/sSY8ClWOiJg/mqdefault.jpg","viewCount":"7160","playlistId":"PLEkQk5xrP-tm8ZIu74nTOZN9KJUJu416J","playlistName":"Ù…Ù‚Ø§Ø·Ø¹ Ù…ÙÙ‡Ù…ÙÙ‘Ø© (ÙŠÙØ³Ø±ÙŠÙ‘ÙØ§Øª) Ø£.Ø¯. ÙŠØ³Ø±ÙŠ Ø¬Ø¨Ø±","category":"Ù…ØªÙ†ÙˆØ¹"},{"id":"4tEeWmnJlr0","title":"Ù„ÙŠÙ‡ Ø¨ØªØ´Ø±Ø¨ Ùˆ ØªØ¯ÙŠ Ø§Ù„Ù„ÙŠ Ø¨ØªØ´Ø±Ø¨Ù‡ Ù„Ø¨Ø§Ù‚ÙŠ Ø§Ù„Ø­Ø¶ÙˆØ±ØŸ | Ø§Ù„Ø±Ø¯ Ø¹Ù„Ù‰ Ø§Ù„Ù…ØªØ§Ø¨Ø¹ÙŠÙ†","publishedAt":"2024-03-18T18:00:03Z","duration":"PT10M22S","thumbnail":"https://i.ytimg.com/vi/4tEeWmnJlr0/mqdefault.jpg","viewCount":"7137","playlistId":"PLEkQk5xrP-tkGXuZ9atE3k_7it12rUPTs","playlistName":"Ø£Ø³Ø¦Ù„Ø© Ø§Ù„Ù…ØªØ§Ø¨Ø¹ÙŠÙ†","category":"Ù…ØªÙ†ÙˆØ¹"},{"id":"Ex0CFchshOw","title":"29- Ø´Ø±Ø­ ÙˆØ­Ø¯Ø© Ø§Ù„ÙˆØ¬ÙˆØ¯ Ø¹Ù†Ø¯ Ø§Ù„ØµÙˆÙÙŠØ© | Ø´Ø±Ø­ Ù…Ø®ØªØµØ± Ø§Ù„ÙØªÙˆØ­Ø§Øª Ø§Ù„Ù…ÙƒÙŠØ©","publishedAt":"2024-08-11T17:00:09Z","duration":"PT43M32S","thumbnail":"https://i.ytimg.com/vi/Ex0CFchshOw/mqdefault.jpg","viewCount":"7132","playlistId":"PLEkQk5xrP-tnpkdZki6rPTtMak1bnI5g-","playlistName":"Ø´Ø±Ø­ ÙƒØªØ§Ø¨ Ù…Ø®ØªØµØ± Ø§Ù„ÙØªÙˆØ­Ø§Øª Ø§Ù„Ù…ÙƒÙŠØ© Ø§Ù„Ù…Ø³Ù…Ù‰ Ù„ÙˆØ§Ù‚Ø­ Ø§Ù„Ø£Ù†ÙˆØ§Ø± Ø§Ù„Ù‚Ø¯Ø³ÙŠØ©","category":"Ù…ØªÙ†ÙˆØ¹"},{"id":"QCeU2KXNRHk","title":"Ø¥Ø­ÙŠØ§Ø¡ Ù„ÙŠÙ„Ø© Ø§Ù„Ø¥Ø³Ø±Ø§Ø¡ ÙˆØ§Ù„Ù…Ø¹Ø±Ø§Ø¬ | Ù…Ù† Ù„ÙŠØ§Ù„ÙŠ Ø§Ù„Ù…Ø¯ÙŠÙ†Ø© Ø§Ù„Ù…Ù†ÙˆØ±Ø© Ù¢ğŸ“","publishedAt":"2023-02-18T18:00:13Z","duration":"PT1H3M10S","thumbnail":"https://i.ytimg.com/vi/QCeU2KXNRHk/mqdefault.jpg","viewCount":"7111","playlistId":"PLEkQk5xrP-tm8ZIu74nTOZN9KJUJu416J","playlistName":"Ù…Ù‚Ø§Ø·Ø¹ Ù…ÙÙ‡Ù…ÙÙ‘Ø© (ÙŠÙØ³Ø±ÙŠÙ‘ÙØ§Øª) Ø£.Ø¯. ÙŠØ³Ø±ÙŠ Ø¬Ø¨Ø±","category":"Ù…ØªÙ†ÙˆØ¹"},{"id":"-nQr7nvjyqU","title":"Ø§Ù„ÙƒØªØ¨ Ø§Ù„ØªÙŠ ÙŠÙ†ØµØ­ Ø¨Ù‚Ø±Ø§Ø¡ØªÙ‡Ø§ Ù„Ù†ØªØ®Ù„Ù‚ Ø¨Ø£Ø®Ù„Ø§Ù‚ Ø§Ù„Ù…Ø­Ù…Ø¯ÙŠØ©","publishedAt":"2014-09-11T07:09:15Z","duration":"PT3M51S","thumbnail":"https://i.ytimg.com/vi/-nQr7nvjyqU/mqdefault.jpg","viewCount":"7102","playlistId":"PLEkQk5xrP-tm8ZIu74nTOZN9KJUJu416J","playlistName":"Ù…Ù‚Ø§Ø·Ø¹ Ù…ÙÙ‡Ù…ÙÙ‘Ø© (ÙŠÙØ³Ø±ÙŠÙ‘ÙØ§Øª) Ø£.Ø¯. ÙŠØ³Ø±ÙŠ Ø¬Ø¨Ø±","category":"Ù…ØªÙ†ÙˆØ¹"},{"id":"9SUG3wQ5RbE","title":"Ø§Ù„Ù„Ù‚Ù… ØªØ¯ÙØ¹ Ø§Ù„Ù†Ù‚Ù…","publishedAt":"2020-09-18T19:02:02Z","duration":"PT3M20S","thumbnail":"https://i.ytimg.com/vi/9SUG3wQ5RbE/mqdefault.jpg","viewCount":"7095","playlistId":"PLEkQk5xrP-tm8ZIu74nTOZN9KJUJu416J","playlistName":"Ù…Ù‚Ø§Ø·Ø¹ Ù…ÙÙ‡Ù…ÙÙ‘Ø© (ÙŠÙØ³Ø±ÙŠÙ‘ÙØ§Øª) Ø£.Ø¯. ÙŠØ³Ø±ÙŠ Ø¬Ø¨Ø±","category":"Ù…ØªÙ†ÙˆØ¹"},{"id":"hFgqQx0sHng","title":"Ø£Ù†Ø§ Ù…Ø¹Ù†Ø¯ÙŠØ´ Ø¨Ø±ÙƒØ© ÙÙŠ Ø§Ù„ÙˆÙ‚Øª ÙˆØ§Ù„Ù…Ø§Ù„ ,, ÙÙ…Ø§Ø°Ø§ Ø£ÙØ¹Ù„ØŸ","publishedAt":"2025-02-25T19:41:54Z","duration":"PT12M22S","thumbnail":"https://i.ytimg.com/vi/hFgqQx0sHng/mqdefault.jpg","viewCount":"7078","playlistId":"PLEkQk5xrP-tkGXuZ9atE3k_7it12rUPTs","playlistName":"Ø£Ø³Ø¦Ù„Ø© Ø§Ù„Ù…ØªØ§Ø¨Ø¹ÙŠÙ†","category":"Ù…ØªÙ†ÙˆØ¹"}],"total":4126,"page":27,"pageSize":24,"totalPages":172}