{"items":[{"id":"H1PsRetjd1o","title":"حزب البحر لسيدي أبي الحسن الشاذلي رضي الله تعالى عنه  د. يسري جبر","publishedAt":"2018-08-25T16:55:39Z","duration":"PT5M53S","thumbnail":"https://i.ytimg.com/vi/H1PsRetjd1o/mqdefault.jpg","viewCount":"17877","playlistId":"PLEkQk5xrP-tk3OeVFoMfKhOhyINnlPeYZ","playlistName":"الحَضْرَةُ الصِّدِّيقِيَّة والأوْرَاد","category":"متنوع"},{"id":"ZpdVljC8Mk4","title":"ازاي أصلي بخشوع في رمضان؟","publishedAt":"2024-03-11T18:00:16Z","duration":"PT29M30S","thumbnail":"https://i.ytimg.com/vi/ZpdVljC8Mk4/mqdefault.jpg","viewCount":"17820","playlistId":"PLEkQk5xrP-tm8ZIu74nTOZN9KJUJu416J","playlistName":"مقاطع مُهمَّة (يُسريَّات) أ.د. يسري جبر","category":"متنوع"},{"id":"KFWJj3jaHnY","title":"فضل ليلة النصف من شعبان","publishedAt":"2025-02-11T18:31:48Z","duration":"PT18M31S","thumbnail":"https://i.ytimg.com/vi/KFWJj3jaHnY/mqdefault.jpg","viewCount":"17814","playlistId":"PLEkQk5xrP-tm8ZIu74nTOZN9KJUJu416J","playlistName":"مقاطع مُهمَّة (يُسريَّات) أ.د. يسري جبر","category":"متنوع"},{"id":"arI260x6zZc","title":"24- كيف يتجلى الله على الأولياء؟ | شرح مختصر الفتوحات المكية","publishedAt":"2024-06-30T18:00:02Z","duration":"PT48M19S","thumbnail":"https://i.ytimg.com/vi/arI260x6zZc/mqdefault.jpg","viewCount":"17692","playlistId":"PLEkQk5xrP-tnpkdZki6rPTtMak1bnI5g-","playlistName":"شرح كتاب مختصر الفتوحات المكية المسمى لواقح الأنوار القدسية","category":"متنوع"},{"id":"d59ySTT9NFA","title":"الحزب الكبير \"حزب البر\" لسيدي أبي الحسن الشاذلي رضي الله تعالى عنه  د. يسري جبر","publishedAt":"2018-08-27T20:30:43Z","duration":"PT21M33S","thumbnail":"https://i.ytimg.com/vi/d59ySTT9NFA/mqdefault.jpg","viewCount":"17653","playlistId":"PLEkQk5xrP-tk3OeVFoMfKhOhyINnlPeYZ","playlistName":"الحَضْرَةُ الصِّدِّيقِيَّة والأوْرَاد","category":"متنوع"},{"id":"q4wVPB8WPgg","title":"كيفية علاج فتور الهمة في العبادة؟","publishedAt":"2023-04-06T19:00:30Z","duration":"PT8M11S","thumbnail":"https://i.ytimg.com/vi/q4wVPB8WPgg/mqdefault.jpg","viewCount":"17633","playlistId":"PLEkQk5xrP-tkGXuZ9atE3k_7it12rUPTs","playlistName":"أسئلة المتابعين","category":"متنوع"},{"id":"0uuWh8fHq_Q","title":"ساعة الإجابة في يوم الجمعة   د. يسري جبر","publishedAt":"2017-07-28T09:02:54Z","duration":"PT7M43S","thumbnail":"https://i.ytimg.com/vi/0uuWh8fHq_Q/mqdefault.jpg","viewCount":"17554","playlistId":"PLEkQk5xrP-tm8ZIu74nTOZN9KJUJu416J","playlistName":"مقاطع مُهمَّة (يُسريَّات) أ.د. يسري جبر","category":"متنوع"},{"id":"Z33PcQo_C5M","title":"حياة الدكتور يسري جبر | الحلقة الأولى","publishedAt":"2020-12-13T18:37:54Z","duration":"PT13M4S","thumbnail":"https://i.ytimg.com/vi/Z33PcQo_C5M/mqdefault.jpg","viewCount":"17552","playlistId":"PLEkQk5xrP-tl6tFiMFGUucCTvLgnWyAfz","playlistName":"حياة الأستاذ الدكتور يسري جبر","category":"متنوع"},{"id":"RJM4RK4I-Kg","title":"لا أستطيع الاستيقاظ لصلاة الفجر فماذا أفعل؟","publishedAt":"2024-02-22T19:25:45Z","duration":"PT8M51S","thumbnail":"https://i.ytimg.com/vi/RJM4RK4I-Kg/mqdefault.jpg","viewCount":"17532","playlistId":"PLEkQk5xrP-tkGXuZ9atE3k_7it12rUPTs","playlistName":"أسئلة المتابعين","category":"متنوع"},{"id":"B8PoYKgrXpo","title":"الفرق بين الاستغاثة والتوسل,, وكيفية التعامل مع الأهل الرافضين للتصوف؟","publishedAt":"2021-07-31T17:30:01Z","duration":"PT11M14S","thumbnail":"https://i.ytimg.com/vi/B8PoYKgrXpo/mqdefault.jpg","viewCount":"17481","playlistId":"PLEkQk5xrP-tkGXuZ9atE3k_7it12rUPTs","playlistName":"أسئلة المتابعين","category":"متنوع"},{"id":"PgSdfJ9DHV8","title":"المقصود بالمُلك والملكوت والجبروت | اعرف نبيك","publishedAt":"2015-08-05T15:19:21Z","duration":"PT2M7S","thumbnail":"https://i.ytimg.com/vi/PgSdfJ9DHV8/mqdefault.jpg","viewCount":"17407","playlistId":"PLEkQk5xrP-tl6Mu_Mz3QMUSv5T6XBH-Dg","playlistName":"برنامج اعرف نبيك","category":"متنوع"},{"id":"MfimGAhT5_0","title":"ما تقسير أن النبيﷺ هو أول خلق الله؟","publishedAt":"2022-11-01T18:00:15Z","duration":"PT15M24S","thumbnail":"https://i.ytimg.com/vi/MfimGAhT5_0/mqdefault.jpg","viewCount":"17401","playlistId":"PLEkQk5xrP-tkGXuZ9atE3k_7it12rUPTs","playlistName":"أسئلة المتابعين","category":"متنوع"},{"id":"Ih6fnet2q74","title":"ألا لا إيمان لمن لا محبة له","publishedAt":"2020-11-02T20:18:55Z","duration":"PT29M","thumbnail":"https://i.ytimg.com/vi/Ih6fnet2q74/mqdefault.jpg","viewCount":"17355","playlistId":"PLEkQk5xrP-tm8ZIu74nTOZN9KJUJu416J","playlistName":"مقاطع مُهمَّة (يُسريَّات) أ.د. يسري جبر","category":"متنوع"},{"id":"tAfVIjts4LY","title":"هل التدخين حرام؟؟","publishedAt":"2021-09-03T19:09:43Z","duration":"PT8M46S","thumbnail":"https://i.ytimg.com/vi/tAfVIjts4LY/mqdefault.jpg","viewCount":"17276","playlistId":"PLEkQk5xrP-tkGXuZ9atE3k_7it12rUPTs","playlistName":"أسئلة المتابعين","category":"متنوع"},{"id":"imqcgdYGiWg","title":"كيف نفهم كلام الأولياء؟","publishedAt":"2021-09-27T18:30:26Z","duration":"PT15M12S","thumbnail":"https://i.ytimg.com/vi/imqcgdYGiWg/mqdefault.jpg","viewCount":"17216","playlistId":"PLEkQk5xrP-tkGXuZ9atE3k_7it12rUPTs","playlistName":"أسئلة المتابعين","category":"متنوع"},{"id":"mCj-KBYtjqk","title":"الفرق بين الأحدية والواحدية والتوحيد والفرق بين الألوهية والربوبية - د. يسري جبر","publishedAt":"2014-12-19T19:48:48Z","duration":"PT5M43S","thumbnail":"https://i.ytimg.com/vi/mCj-KBYtjqk/mqdefault.jpg","viewCount":"17196","playlistId":"PLEkQk5xrP-tm8ZIu74nTOZN9KJUJu416J","playlistName":"مقاطع مُهمَّة (يُسريَّات) أ.د. يسري جبر","category":"متنوع"},{"id":"0X-pDoaXoa0","title":"بَشَرٌ لَا كَالبَشَرِ ﷺ   أ د  يسري جبر","publishedAt":"2020-04-20T19:02:10Z","duration":"PT1H10M11S","thumbnail":"https://i.ytimg.com/vi/0X-pDoaXoa0/mqdefault.jpg","viewCount":"17166","playlistId":"PLEkQk5xrP-tlnvX_MSpJzq0sTimnumdYK","playlistName":"كيف تعرفُ نبيّك؟","category":"متنوع"},{"id":"3cbuCyplB2k","title":"حكم تربية الكلب في البيت؟","publishedAt":"2021-01-07T17:45:02Z","duration":"PT10M59S","thumbnail":"https://i.ytimg.com/vi/3cbuCyplB2k/mqdefault.jpg","viewCount":"17128","playlistId":"PLEkQk5xrP-tkGXuZ9atE3k_7it12rUPTs","playlistName":"أسئلة المتابعين","category":"متنوع"},{"id":"d-Pkin5JZdg","title":"شرح كتاب منازل السائرين للإمام الهروى - المجلس الرابع - باب التوبة","publishedAt":"2015-12-30T14:04:06Z","duration":"PT1H47M39S","thumbnail":"https://i.ytimg.com/vi/d-Pkin5JZdg/mqdefault.jpg","viewCount":"16991","playlistId":"PLEkQk5xrP-tnLYi_5_tSRVBwqcs7ISV7Y","playlistName":"شرح كتاب منازل السائرين للإمام الهروي","category":"متنوع"},{"id":"CI-mQAoCp80","title":"ربما أطلعك على غيب ملكوته، وحجب عنك الاستشراف على أسرار العباد.","publishedAt":"2017-04-16T11:45:28Z","duration":"PT19M39S","thumbnail":"https://i.ytimg.com/vi/CI-mQAoCp80/mqdefault.jpg","viewCount":"16955","playlistId":"PLEkQk5xrP-tkI_meE148wc7V7XHlB0WPb","playlistName":"من الحكم العطائية  د. يسري جبر","category":"متنوع"},{"id":"Z7N8NTGlGQM","title":"الرد على من ينكر حديث المصافحة والمشابكة","publishedAt":"2022-07-06T19:15:23Z","duration":"PT8M48S","thumbnail":"https://i.ytimg.com/vi/Z7N8NTGlGQM/mqdefault.jpg","viewCount":"16775","playlistId":"PLEkQk5xrP-tm8ZIu74nTOZN9KJUJu416J","playlistName":"مقاطع مُهمَّة (يُسريَّات) أ.د. يسري جبر","category":"متنوع"},{"id":"_nPFnPflZZE","title":"ما هو أسلوب التربية الصحيحة للأبناء؟","publishedAt":"2021-02-03T18:56:44Z","duration":"PT13M30S","thumbnail":"https://i.ytimg.com/vi/_nPFnPflZZE/mqdefault.jpg","viewCount":"16713","playlistId":"PLEkQk5xrP-tm8ZIu74nTOZN9KJUJu416J","playlistName":"مقاطع مُهمَّة (يُسريَّات) أ.د. يسري جبر","category":"متنوع"},{"id":"mxBSRzEeFxs","title":"ازاي تتحرر من إدمان التليفون والسوشيال ميديا؟","publishedAt":"2025-03-08T18:30:42Z","duration":"PT8M51S","thumbnail":"https://i.ytimg.com/vi/mxBSRzEeFxs/mqdefault.jpg","viewCount":"16708","playlistId":"PLEkQk5xrP-tm8ZIu74nTOZN9KJUJu416J","playlistName":"مقاطع مُهمَّة (يُسريَّات) أ.د. يسري جبر","category":"متنوع"},{"id":"OBh1XwJJuv8","title":"كيف تعرف أولياء الله الصالحين؟","publishedAt":"2024-10-17T18:46:19Z","duration":"PT18M36S","thumbnail":"https://i.ytimg.com/vi/OBh1XwJJuv8/mqdefault.jpg","viewCount":"16532","playlistId":"PLEkQk5xrP-tm8ZIu74nTOZN9KJUJu416J","playlistName":"مقاطع مُهمَّة (يُسريَّات) أ.د. يسري جبر","category":"متنوع"}],"total":4126,"page":11,"pageSize":24,"totalPages":172}