{"items":[{"id":"0BvcNpTwxPI","title":"114- حكم مَن اتُّهِمَ زُورًا - شرح مسند الإمام أحمد رضي الله تعالى عنه","publishedAt":"2024-06-29T07:03:44Z","duration":"PT36M36S","thumbnail":"https://i.ytimg.com/vi/0BvcNpTwxPI/mqdefault.jpg","viewCount":"935","playlistId":"PLEkQk5xrP-tkKprIuGrSdEuBSMsyg5We1","playlistName":"شرح مسند الإمام أحمد بن حنبل","category":"متنوع"},{"id":"BByzeuce25M","title":"131- كيف تتعامل مع مديرك إذا كلَّفك بشيء أخطأ فيه؟ - شرح مسند الإمام أحمد رضي الله تعالى عنه","publishedAt":"2024-10-28T06:00:06Z","duration":"PT39M11S","thumbnail":"https://i.ytimg.com/vi/BByzeuce25M/mqdefault.jpg","viewCount":"934","playlistId":"PLEkQk5xrP-tkKprIuGrSdEuBSMsyg5We1","playlistName":"شرح مسند الإمام أحمد بن حنبل","category":"متنوع"},{"id":"LwyujWYPJ7g","title":"سورة النساء من أولها","publishedAt":"2016-08-08T06:40:27Z","duration":"PT19M53S","thumbnail":"https://i.ytimg.com/vi/LwyujWYPJ7g/mqdefault.jpg","viewCount":"933","playlistId":"PLEkQk5xrP-tnmTYsyW6xNdyfhPq0Bhrhj","playlistName":"مقرأة الفجر - القُرْآنُ الكَرِيمُ - خَتْمَةُ التَّدَبُّرِ  أ.د. يسري جبر","category":"متنوع"},{"id":"nj7BC7Pwpeo","title":"فضل الإنفاق في سبيل الله | مجالس رمضانية","publishedAt":"2025-03-29T10:00:57Z","duration":"PT38M5S","thumbnail":"https://i.ytimg.com/vi/nj7BC7Pwpeo/mqdefault.jpg","viewCount":"933","playlistId":"PLEkQk5xrP-tkeI_WVPfuoTJO46aVkpaz0","playlistName":"شرح كتاب ميزان الاعتدال لحفظ الدين والأحوال","category":"متنوع"},{"id":"bUWXQ-XGysA","title":"102- لا هجرةَ بعد الفتح، ولكنْ جهادٌ ونيَّةٌ - شرح مسند الإمام أحمد رضي الله تعالى عنه","publishedAt":"2024-05-07T05:15:02Z","duration":"PT25M2S","thumbnail":"https://i.ytimg.com/vi/bUWXQ-XGysA/mqdefault.jpg","viewCount":"931","playlistId":"PLEkQk5xrP-tkKprIuGrSdEuBSMsyg5We1","playlistName":"شرح مسند الإمام أحمد بن حنبل","category":"متنوع"},{"id":"KlXupWwB9PM","title":"مقرأة سورة الكوثر من أولها","publishedAt":"2019-08-14T08:12:21Z","duration":"PT7M48S","thumbnail":"https://i.ytimg.com/vi/KlXupWwB9PM/mqdefault.jpg","viewCount":"928","playlistId":"PLEkQk5xrP-tnmTYsyW6xNdyfhPq0Bhrhj","playlistName":"مقرأة الفجر - القُرْآنُ الكَرِيمُ - خَتْمَةُ التَّدَبُّرِ  أ.د. يسري جبر","category":"متنوع"},{"id":"Z64XqjEubmM","title":"(١٧٣) حديثُ عِظَمِ شَجَرِ الجَنَّةِ.  أ.د. يسري جبر","publishedAt":"2019-05-26T13:22:09Z","duration":"PT16M44S","thumbnail":"https://i.ytimg.com/vi/Z64XqjEubmM/mqdefault.jpg","viewCount":"928","playlistId":"PLEkQk5xrP-tnl7vb7KeAoPd5ZlqKKW8KV","playlistName":"شرح كتاب بهجة النفوس أ.د . يسرى جبر","category":"متنوع"},{"id":"CLRy0GEzAmc","title":"111-أهمية تقديم الصلاة على الخطبة يوم العيد - شرح مسند الإمام أحمد رضي الله تعالى عنه","publishedAt":"2024-06-17T06:00:09Z","duration":"PT21M31S","thumbnail":"https://i.ytimg.com/vi/CLRy0GEzAmc/mqdefault.jpg","viewCount":"926","playlistId":"PLEkQk5xrP-tkKprIuGrSdEuBSMsyg5We1","playlistName":"شرح مسند الإمام أحمد بن حنبل","category":"متنوع"},{"id":"ejS0WCOzkAo","title":"كيف يرفع الصيام درجات المؤمن في الجنة؟ | مجالس رمضانية","publishedAt":"2025-03-25T15:00:58Z","duration":"PT15M51S","thumbnail":"https://i.ytimg.com/vi/ejS0WCOzkAo/mqdefault.jpg","viewCount":"924","playlistId":"PLEkQk5xrP-tkeI_WVPfuoTJO46aVkpaz0","playlistName":"شرح كتاب ميزان الاعتدال لحفظ الدين والأحوال","category":"متنوع"},{"id":"GOmk9ZfjBNE","title":"40- متى تبدأ مدة المسح على الخفين؟ - شرح مسند الإمام أحمد","publishedAt":"2023-11-18T06:41:14Z","duration":"PT19M37S","thumbnail":"https://i.ytimg.com/vi/GOmk9ZfjBNE/mqdefault.jpg","viewCount":"923","playlistId":"PLEkQk5xrP-tkKprIuGrSdEuBSMsyg5We1","playlistName":"شرح مسند الإمام أحمد بن حنبل","category":"متنوع"},{"id":"b4Tf9hBk65s","title":"كما لايحب العمل المشترك كذلك لايحب القلب المشترك،العمل المشترك لا يقبله،والقلب المشترك لايُقبل عليه.","publishedAt":"2017-12-17T12:00:19Z","duration":"PT7M54S","thumbnail":"https://i.ytimg.com/vi/b4Tf9hBk65s/mqdefault.jpg","viewCount":"919","playlistId":"PLEkQk5xrP-tkI_meE148wc7V7XHlB0WPb","playlistName":"من الحكم العطائية  د. يسري جبر","category":"متنوع"},{"id":"FKHBcXk8psQ","title":"وَصِيَّةُ النَّبيّ ﷺ للأُمَّة ۳ | أ.د. يسري جبر","publishedAt":"2022-04-10T17:14:15Z","duration":"PT23M14S","thumbnail":"https://i.ytimg.com/vi/FKHBcXk8psQ/mqdefault.jpg","viewCount":"918","playlistId":"PLEkQk5xrP-tnl7vb7KeAoPd5ZlqKKW8KV","playlistName":"شرح كتاب بهجة النفوس أ.د . يسرى جبر","category":"متنوع"},{"id":"df6OH5zhl6g","title":"12- حكم ثبوت الهلال بشهادة الواحد| حكم المسح على الخفّين|بيان ما يجوز من اللباس والنهي عن ثوب الشهرة","publishedAt":"2023-08-08T05:00:30Z","duration":"PT41M35S","thumbnail":"https://i.ytimg.com/vi/df6OH5zhl6g/mqdefault.jpg","viewCount":"918","playlistId":"PLEkQk5xrP-tkKprIuGrSdEuBSMsyg5We1","playlistName":"شرح مسند الإمام أحمد بن حنبل","category":"متنوع"},{"id":"NPuPePQnnbY","title":"294- النهي عن افتراش جلود النمور والركوب عليها - شرح دليل الفالحين","publishedAt":"2022-08-30T18:30:32Z","duration":"PT35M32S","thumbnail":"https://i.ytimg.com/vi/NPuPePQnnbY/mqdefault.jpg","viewCount":"918","playlistId":"PLEkQk5xrP-tkc9DXvSLguqX5-FYp6ASR4","playlistName":"دليل الفالحين لطرق رياض الصالحين","category":"متنوع"},{"id":"FIXSlMa9hyo","title":"هَدي سيدنا محمد فى ارتداء الحذاء | اعرف نبيك","publishedAt":"2015-05-20T15:42:49Z","duration":"PT46S","thumbnail":"https://i.ytimg.com/vi/FIXSlMa9hyo/mqdefault.jpg","viewCount":"915","playlistId":"PLEkQk5xrP-tl6Mu_Mz3QMUSv5T6XBH-Dg","playlistName":"برنامج اعرف نبيك","category":"متنوع"},{"id":"gTsSdKJHofk","title":"( 133 ) حديث حفر الخندق في غزوة الأحزاب د. يسري جبر","publishedAt":"2017-06-18T13:55:36Z","duration":"PT19M14S","thumbnail":"https://i.ytimg.com/vi/gTsSdKJHofk/mqdefault.jpg","viewCount":"914","playlistId":"PLEkQk5xrP-tnl7vb7KeAoPd5ZlqKKW8KV","playlistName":"شرح كتاب بهجة النفوس أ.د . يسرى جبر","category":"متنوع"},{"id":"kLyuLkiIm3w","title":"300- كَيْفِيَّةُ السَّلَامِ - شرح دليل الفالحين","publishedAt":"2022-09-11T06:15:02Z","duration":"PT47M22S","thumbnail":"https://i.ytimg.com/vi/kLyuLkiIm3w/mqdefault.jpg","viewCount":"913","playlistId":"PLEkQk5xrP-tkc9DXvSLguqX5-FYp6ASR4","playlistName":"دليل الفالحين لطرق رياض الصالحين","category":"متنوع"},{"id":"Kd36cPLDSUU","title":"سورة النساء آية 71","publishedAt":"2019-09-29T16:24:56Z","duration":"PT7M59S","thumbnail":"https://i.ytimg.com/vi/Kd36cPLDSUU/mqdefault.jpg","viewCount":"912","playlistId":"PLEkQk5xrP-tnmTYsyW6xNdyfhPq0Bhrhj","playlistName":"مقرأة الفجر - القُرْآنُ الكَرِيمُ - خَتْمَةُ التَّدَبُّرِ  أ.د. يسري جبر","category":"متنوع"},{"id":"eLGwJOCNeHA","title":"183- {وَعَلَّمَكَ مَا لَمْ تَكُن تَعْلَمُ ۚ وَكَانَ فَضْلُ اللَّهِ عَلَيْكَ عَظِيمًا}","publishedAt":"2025-11-19T10:01:12Z","duration":"PT24M19S","thumbnail":"https://i.ytimg.com/vi/eLGwJOCNeHA/mqdefault.jpg","viewCount":"911","playlistId":"PLEkQk5xrP-tkKprIuGrSdEuBSMsyg5We1","playlistName":"شرح مسند الإمام أحمد بن حنبل","category":"متنوع"},{"id":"l5EizyX18D4","title":"356- استحباب سجود الشكر عند حدوث نعمة ظاهرة أو اندفاع بلية ظاهرة - شرح دليل الفالحين","publishedAt":"2022-12-09T09:00:23Z","duration":"PT20M7S","thumbnail":"https://i.ytimg.com/vi/l5EizyX18D4/mqdefault.jpg","viewCount":"909","playlistId":"PLEkQk5xrP-tkc9DXvSLguqX5-FYp6ASR4","playlistName":"دليل الفالحين لطرق رياض الصالحين","category":"متنوع"},{"id":"VDNc2ygrUKA","title":"( 129 ) حديث أفضل الأعمال - د. يسري جبر","publishedAt":"2017-06-13T14:56:48Z","duration":"PT23M11S","thumbnail":"https://i.ytimg.com/vi/VDNc2ygrUKA/mqdefault.jpg","viewCount":"909","playlistId":"PLEkQk5xrP-tnl7vb7KeAoPd5ZlqKKW8KV","playlistName":"شرح كتاب بهجة النفوس أ.د . يسرى جبر","category":"متنوع"},{"id":"DSzTYgrkalE","title":"من أكرمك فإنما أكرم فيك جميل ستره","publishedAt":"2016-10-21T19:16:23Z","duration":"PT4M18S","thumbnail":"https://i.ytimg.com/vi/DSzTYgrkalE/mqdefault.jpg","viewCount":"908","playlistId":"PLEkQk5xrP-tkI_meE148wc7V7XHlB0WPb","playlistName":"من الحكم العطائية  د. يسري جبر","category":"متنوع"},{"id":"Wytq_i_MY3Y","title":"503- بيان ما أعدَّ اللهُ تعالى للمؤمنين في الجنة - شرح دليل الفالحين","publishedAt":"2023-07-22T08:59:00Z","duration":"PT37M29S","thumbnail":"https://i.ytimg.com/vi/Wytq_i_MY3Y/mqdefault.jpg","viewCount":"907","playlistId":"PLEkQk5xrP-tkc9DXvSLguqX5-FYp6ASR4","playlistName":"دليل الفالحين لطرق رياض الصالحين","category":"متنوع"},{"id":"dlHMxsKOAfY","title":"280- آدابُ الطعام: التَّسْمِيَةُ في أوَّلهِ والحَمْدُ في آخرِه - شرح دليل الفالحين","publishedAt":"2022-07-26T06:35:00Z","duration":"PT50M36S","thumbnail":"https://i.ytimg.com/vi/dlHMxsKOAfY/mqdefault.jpg","viewCount":"904","playlistId":"PLEkQk5xrP-tkc9DXvSLguqX5-FYp6ASR4","playlistName":"دليل الفالحين لطرق رياض الصالحين","category":"متنوع"}],"total":4126,"page":97,"pageSize":24,"totalPages":172}