{"items":[{"id":"xwX4vcjJnZc","title":"كم كان عمر السيدة عائشة عندما تزوجها النبي ﷺ؟","publishedAt":"2022-07-02T18:00:32Z","duration":"PT10M25S","thumbnail":"https://i.ytimg.com/vi/xwX4vcjJnZc/mqdefault.jpg","viewCount":"10051","playlistId":"PLEkQk5xrP-tm8ZIu74nTOZN9KJUJu416J","playlistName":"مقاطع مُهمَّة (يُسريَّات) أ.د. يسري جبر","category":"متنوع"},{"id":"IrTiv5kIVQA","title":"كيف تتخلص من التشاؤم؟ | أ.د. يسري جبر","publishedAt":"2022-04-19T15:30:05Z","duration":"PT50M31S","thumbnail":"https://i.ytimg.com/vi/IrTiv5kIVQA/mqdefault.jpg","viewCount":"10038","playlistId":"PLEkQk5xrP-tnl7vb7KeAoPd5ZlqKKW8KV","playlistName":"شرح كتاب بهجة النفوس أ.د . يسرى جبر","category":"متنوع"},{"id":"XMIB7dao-uk","title":"هل النبي ﷺ يعرف حقيقته الروحانية؟","publishedAt":"2022-03-13T18:08:49Z","duration":"PT10M47S","thumbnail":"https://i.ytimg.com/vi/XMIB7dao-uk/mqdefault.jpg","viewCount":"9962","playlistId":"PLEkQk5xrP-tkGXuZ9atE3k_7it12rUPTs","playlistName":"أسئلة المتابعين","category":"متنوع"},{"id":"1Ko55Cj2zOE","title":"فضل ليلة النصف من شعبان","publishedAt":"2023-03-06T15:00:02Z","duration":"PT18M31S","thumbnail":"https://i.ytimg.com/vi/1Ko55Cj2zOE/mqdefault.jpg","viewCount":"9936","playlistId":"PLEkQk5xrP-tm8ZIu74nTOZN9KJUJu416J","playlistName":"مقاطع مُهمَّة (يُسريَّات) أ.د. يسري جبر","category":"متنوع"},{"id":"efkpSUwxdL4","title":"الحُبُّ يَدْفَعُكَ إِلَى زِيَارَةِ النَّبِىِّ صَلَّى اللهُ عَلَيهِ وَآلِهِ وسلَّم - د. يسري جبر","publishedAt":"2015-03-12T16:20:03Z","duration":"PT5M12S","thumbnail":"https://i.ytimg.com/vi/efkpSUwxdL4/mqdefault.jpg","viewCount":"9906","playlistId":"PLEkQk5xrP-tm8ZIu74nTOZN9KJUJu416J","playlistName":"مقاطع مُهمَّة (يُسريَّات) أ.د. يسري جبر","category":"متنوع"},{"id":"nb5JccA9g7s","title":"فضل الصلاة على النبي ﷺ","publishedAt":"2023-03-10T18:00:22Z","duration":"PT10M12S","thumbnail":"https://i.ytimg.com/vi/nb5JccA9g7s/mqdefault.jpg","viewCount":"9870","playlistId":"PLEkQk5xrP-tm8ZIu74nTOZN9KJUJu416J","playlistName":"مقاطع مُهمَّة (يُسريَّات) أ.د. يسري جبر","category":"متنوع"},{"id":"PXq-SjgWVbE","title":"العارفُ لا يزول اضطرارُه ، ولا يكون مع غير الله قرارُه .","publishedAt":"2016-11-20T20:06:03Z","duration":"PT21M20S","thumbnail":"https://i.ytimg.com/vi/PXq-SjgWVbE/mqdefault.jpg","viewCount":"9851","playlistId":"PLEkQk5xrP-tkI_meE148wc7V7XHlB0WPb","playlistName":"من الحكم العطائية  د. يسري جبر","category":"متنوع"},{"id":"RpBTb-KUdEM","title":"الرد على التساؤلات الوهابية","publishedAt":"2021-10-05T17:26:53Z","duration":"PT9M47S","thumbnail":"https://i.ytimg.com/vi/RpBTb-KUdEM/mqdefault.jpg","viewCount":"9820","playlistId":"PLEkQk5xrP-tkGXuZ9atE3k_7it12rUPTs","playlistName":"أسئلة المتابعين","category":"متنوع"},{"id":"3V64Hr4hja8","title":"رُبَّما فتح لك باب الطاعة ، وما فتح لك باب القبول ورُبَّما قضى عليك بالذنب ، فكان سببا في الوصول .","publishedAt":"2016-11-10T18:25:44Z","duration":"PT10M30S","thumbnail":"https://i.ytimg.com/vi/3V64Hr4hja8/mqdefault.jpg","viewCount":"9807","playlistId":"PLEkQk5xrP-tkI_meE148wc7V7XHlB0WPb","playlistName":"من الحكم العطائية  د. يسري جبر","category":"متنوع"},{"id":"S_BFWpcaum4","title":"ماذا حدث في رحلة إنجلترا؟","publishedAt":"2023-06-09T18:15:29Z","duration":"PT8M10S","thumbnail":"https://i.ytimg.com/vi/S_BFWpcaum4/mqdefault.jpg","viewCount":"9799","playlistId":"PLEkQk5xrP-tm8ZIu74nTOZN9KJUJu416J","playlistName":"مقاطع مُهمَّة (يُسريَّات) أ.د. يسري جبر","category":"متنوع"},{"id":"NgmFKhvv57k","title":"38- أسرار لا إله إلا الله | شرح مختصر الفتوحات المكية","publishedAt":"2025-01-12T16:02:35Z","duration":"PT41M8S","thumbnail":"https://i.ytimg.com/vi/NgmFKhvv57k/mqdefault.jpg","viewCount":"9765","playlistId":"PLEkQk5xrP-tnpkdZki6rPTtMak1bnI5g-","playlistName":"شرح كتاب مختصر الفتوحات المكية المسمى لواقح الأنوار القدسية","category":"متنوع"},{"id":"_mUhkbQ7bTI","title":"الصيغة العَليَّة لسيِّدِنا عليّ رَضي اللَّهُ عنه وكَرَّمَ اللَّهُ وجهه وعليه السَّلام  أ.د. يسري جبر","publishedAt":"2019-04-10T15:23:50Z","duration":"PT21M2S","thumbnail":"https://i.ytimg.com/vi/_mUhkbQ7bTI/mqdefault.jpg","viewCount":"9736","playlistId":"PLEkQk5xrP-tm8ZIu74nTOZN9KJUJu416J","playlistName":"مقاطع مُهمَّة (يُسريَّات) أ.د. يسري جبر","category":"متنوع"},{"id":"7NemxkkhjVE","title":"كيف تتوكل على الله حق التوكل؟ | أ.د. يسري جبر","publishedAt":"2022-04-15T15:30:01Z","duration":"PT37M54S","thumbnail":"https://i.ytimg.com/vi/7NemxkkhjVE/mqdefault.jpg","viewCount":"9718","playlistId":"PLEkQk5xrP-tnl7vb7KeAoPd5ZlqKKW8KV","playlistName":"شرح كتاب بهجة النفوس أ.د . يسرى جبر","category":"متنوع"},{"id":"zXwrMtgitOQ","title":"كيف حققت النجاح في دراستك وعملك؟","publishedAt":"2023-01-10T18:15:11Z","duration":"PT8M25S","thumbnail":"https://i.ytimg.com/vi/zXwrMtgitOQ/mqdefault.jpg","viewCount":"9698","playlistId":"PLEkQk5xrP-tkGXuZ9atE3k_7it12rUPTs","playlistName":"أسئلة المتابعين","category":"متنوع"},{"id":"EPn80Gucc9s","title":"أنا زهقان وتعبان وحاسس أني مش مستمتع بالحياة ,, فماذا أفعل؟","publishedAt":"2023-08-02T18:00:09Z","duration":"PT10M15S","thumbnail":"https://i.ytimg.com/vi/EPn80Gucc9s/mqdefault.jpg","viewCount":"9696","playlistId":"PLEkQk5xrP-tkGXuZ9atE3k_7it12rUPTs","playlistName":"أسئلة المتابعين","category":"متنوع"},{"id":"b2M0ADuF9ak","title":"هل ترك السيد البدوي الصلاة؟","publishedAt":"2025-10-25T19:25:18Z","duration":"PT8M3S","thumbnail":"https://i.ytimg.com/vi/b2M0ADuF9ak/mqdefault.jpg","viewCount":"9643","playlistId":"PLEkQk5xrP-tm8ZIu74nTOZN9KJUJu416J","playlistName":"مقاطع مُهمَّة (يُسريَّات) أ.د. يسري جبر","category":"متنوع"},{"id":"uOtVSkWQqb8","title":"حياة الدكتور يسري جبر | الحلقة الثانية","publishedAt":"2020-12-17T18:24:16Z","duration":"PT15M6S","thumbnail":"https://i.ytimg.com/vi/uOtVSkWQqb8/mqdefault.jpg","viewCount":"9622","playlistId":"PLEkQk5xrP-tl6tFiMFGUucCTvLgnWyAfz","playlistName":"حياة الأستاذ الدكتور يسري جبر","category":"متنوع"},{"id":"rCMlvvldiMs","title":"كيف نفهم حديث \"رأيتُ ربِّي في أحسنِ صورة\" بغير تشبيه؟","publishedAt":"2021-12-13T17:30:04Z","duration":"PT8M39S","thumbnail":"https://i.ytimg.com/vi/rCMlvvldiMs/mqdefault.jpg","viewCount":"9614","playlistId":"PLEkQk5xrP-tkGXuZ9atE3k_7it12rUPTs","playlistName":"أسئلة المتابعين","category":"متنوع"},{"id":"z25MTs3bX3o","title":"20- معرفة الله عزَّ وجلَّ - عقيدةُ العارفينَ بالله وأولياء الله الصالحين.","publishedAt":"2022-12-22T09:00:35Z","duration":"PT58M59S","thumbnail":"https://i.ytimg.com/vi/z25MTs3bX3o/mqdefault.jpg","viewCount":"9602","playlistId":"PLEkQk5xrP-tmNuYT8JAh6clwa4krsgkNo","playlistName":"شرح كتاب الفُتُوحات اليُسريَّة في عقائد الأُمَّة المُحمَّديَّة","category":"متنوع"},{"id":"82LMOD-EAlk","title":"الرضا بالموجود وعدم طلب المفقود","publishedAt":"2020-10-02T20:11:34Z","duration":"PT17M8S","thumbnail":"https://i.ytimg.com/vi/82LMOD-EAlk/mqdefault.jpg","viewCount":"9561","playlistId":"PLEkQk5xrP-tm8ZIu74nTOZN9KJUJu416J","playlistName":"مقاطع مُهمَّة (يُسريَّات) أ.د. يسري جبر","category":"متنوع"},{"id":"nnqczT6gBbw","title":"ما حكم الزواج العُرفيّ؟","publishedAt":"2021-04-01T15:15:03Z","duration":"PT8M40S","thumbnail":"https://i.ytimg.com/vi/nnqczT6gBbw/mqdefault.jpg","viewCount":"9558","playlistId":"PLEkQk5xrP-tm8ZIu74nTOZN9KJUJu416J","playlistName":"مقاطع مُهمَّة (يُسريَّات) أ.د. يسري جبر","category":"متنوع"},{"id":"l3wvWFxAW8I","title":"وِرْد ما بعد عصر الجمعة - الصلاة على النبي صلى الله عليه وآله وسلم ( 80 مرة )  د. يسري جبر","publishedAt":"2018-05-18T02:02:26Z","duration":"PT7M32S","thumbnail":"https://i.ytimg.com/vi/l3wvWFxAW8I/mqdefault.jpg","viewCount":"9549","playlistId":"PLEkQk5xrP-tk3OeVFoMfKhOhyINnlPeYZ","playlistName":"الحَضْرَةُ الصِّدِّيقِيَّة والأوْرَاد","category":"متنوع"},{"id":"x5ojFfZH_xc","title":"كيف أتغلب على ضعف الهمة والفتور في العبادة؟","publishedAt":"2025-07-01T18:12:59Z","duration":"PT12M22S","thumbnail":"https://i.ytimg.com/vi/x5ojFfZH_xc/mqdefault.jpg","viewCount":"9547","playlistId":"PLEkQk5xrP-tkGXuZ9atE3k_7it12rUPTs","playlistName":"أسئلة المتابعين","category":"متنوع"},{"id":"FfmepGpEq3Y","title":"صفات الأولياء | مجالس رمضانية","publishedAt":"2024-04-06T11:00:21Z","duration":"PT34M59S","thumbnail":"https://i.ytimg.com/vi/FfmepGpEq3Y/mqdefault.jpg","viewCount":"9536","playlistId":"PLEkQk5xrP-tkeI_WVPfuoTJO46aVkpaz0","playlistName":"شرح كتاب ميزان الاعتدال لحفظ الدين والأحوال","category":"متنوع"}],"total":4126,"page":20,"pageSize":24,"totalPages":172}