{"items":[{"id":"rMqs5UZ6ZzE","title":"ما هي صفات الشخص البخيل وكيفية علاجه؟ | مجالس رمضانية","publishedAt":"2025-03-19T15:01:17Z","duration":"PT26M50S","thumbnail":"https://i.ytimg.com/vi/rMqs5UZ6ZzE/mqdefault.jpg","viewCount":"2109","playlistId":"PLEkQk5xrP-tkeI_WVPfuoTJO46aVkpaz0","playlistName":"شرح كتاب ميزان الاعتدال لحفظ الدين والأحوال","category":"متنوع"},{"id":"wOf59LACOXc","title":"63- \"…التَّفكُّر في عظيم مخلوقات الله تعالى وفناء الدنيا…\" شرح دليل الفالحين","publishedAt":"2021-05-20T20:38:19Z","duration":"PT30M34S","thumbnail":"https://i.ytimg.com/vi/wOf59LACOXc/mqdefault.jpg","viewCount":"2108","playlistId":"PLEkQk5xrP-tkc9DXvSLguqX5-FYp6ASR4","playlistName":"دليل الفالحين لطرق رياض الصالحين","category":"متنوع"},{"id":"4ZO0KUqNgR0","title":"آداب شرب الماء في الإسلام | أ.د. يسري جبر","publishedAt":"2022-04-13T15:30:00Z","duration":"PT39M47S","thumbnail":"https://i.ytimg.com/vi/4ZO0KUqNgR0/mqdefault.jpg","viewCount":"2108","playlistId":"PLEkQk5xrP-tnl7vb7KeAoPd5ZlqKKW8KV","playlistName":"شرح كتاب بهجة النفوس أ.د . يسرى جبر","category":"متنوع"},{"id":"03hsNTI7N8c","title":"منازل السائرين للإمام الهروى المجلس الثانى والخمسون قسم الحقائق أبواب المكاشفة والمشاهدة والمعاينة","publishedAt":"2015-08-22T18:27:26Z","duration":"PT1H3M27S","thumbnail":"https://i.ytimg.com/vi/03hsNTI7N8c/mqdefault.jpg","viewCount":"2105","playlistId":"PLEkQk5xrP-tnLYi_5_tSRVBwqcs7ISV7Y","playlistName":"شرح كتاب منازل السائرين للإمام الهروي","category":"متنوع"},{"id":"up4OJY804H0","title":"329- الحث على سور وآيات مخصوصة - شرح دليل الفالحين","publishedAt":"2022-11-08T09:00:28Z","duration":"PT47M29S","thumbnail":"https://i.ytimg.com/vi/up4OJY804H0/mqdefault.jpg","viewCount":"2102","playlistId":"PLEkQk5xrP-tkc9DXvSLguqX5-FYp6ASR4","playlistName":"دليل الفالحين لطرق رياض الصالحين","category":"متنوع"},{"id":"32_8sYnJAlU","title":"253- أنا زعيمٌ ببيتٍ في رَبَضِ الجنةِ لمَن تَرَكَ المِراءَ وإن كان مُحِقًّا - شرح دليل الفالحين","publishedAt":"2022-05-25T05:35:00Z","duration":"PT37M58S","thumbnail":"https://i.ytimg.com/vi/32_8sYnJAlU/mqdefault.jpg","viewCount":"2095","playlistId":"PLEkQk5xrP-tkc9DXvSLguqX5-FYp6ASR4","playlistName":"دليل الفالحين لطرق رياض الصالحين","category":"متنوع"},{"id":"lPSYxFtVYpQ","title":"21- شروط التوبة\"1\"- شرح كتاب دليل الفالحين.","publishedAt":"2021-02-21T06:53:56Z","duration":"PT28M42S","thumbnail":"https://i.ytimg.com/vi/lPSYxFtVYpQ/mqdefault.jpg","viewCount":"2094","playlistId":"PLEkQk5xrP-tkc9DXvSLguqX5-FYp6ASR4","playlistName":"دليل الفالحين لطرق رياض الصالحين","category":"متنوع"},{"id":"LHnsGYx_cVA","title":"حَمَلَةُ العَرْشِ. أ.د.يسري جبر","publishedAt":"2019-12-31T14:30:18Z","duration":"PT1M15S","thumbnail":"https://i.ytimg.com/vi/LHnsGYx_cVA/mqdefault.jpg","viewCount":"2093","playlistId":"PLEkQk5xrP-tm8ZIu74nTOZN9KJUJu416J","playlistName":"مقاطع مُهمَّة (يُسريَّات) أ.د. يسري جبر","category":"متنوع"},{"id":"pZYeUl2IWek","title":"أبويا عايزني مهندس وأنا حلمي أكون دكتور! | نصيحة للوالدين المتحكمين في حياة أبنائهم","publishedAt":"2024-03-19T18:00:25Z","duration":"PT10M47S","thumbnail":"https://i.ytimg.com/vi/pZYeUl2IWek/mqdefault.jpg","viewCount":"2093","playlistId":"PLEkQk5xrP-tm8ZIu74nTOZN9KJUJu416J","playlistName":"مقاطع مُهمَّة (يُسريَّات) أ.د. يسري جبر","category":"متنوع"},{"id":"f-DMF628Qi0","title":"شرح كتاب الحدود من سنن الترمذي - المجلس الثامن","publishedAt":"2015-06-30T05:34:53Z","duration":"PT22M13S","thumbnail":"https://i.ytimg.com/vi/f-DMF628Qi0/mqdefault.jpg","viewCount":"2090","playlistId":"PLEkQk5xrP-tnu6of679SvxdVx0qSrJzmb","playlistName":"شرح سنن الإمام الترمذي رضى الله عنه د. يسري جبر","category":"متنوع"},{"id":"jabxIZiuSUo","title":"38- خطورة الجهل بالدين والاستبداد بالرأي - شرح مسند الإمام أحمد","publishedAt":"2023-11-14T06:30:17Z","duration":"PT38M28S","thumbnail":"https://i.ytimg.com/vi/jabxIZiuSUo/mqdefault.jpg","viewCount":"2089","playlistId":"PLEkQk5xrP-tkKprIuGrSdEuBSMsyg5We1","playlistName":"شرح مسند الإمام أحمد بن حنبل","category":"متنوع"},{"id":"hcuuu2cwAJw","title":"تبرك الصحابة بماء وضوء رسول الله | اعرف نبيك","publishedAt":"2015-09-03T16:09:48Z","duration":"PT5M12S","thumbnail":"https://i.ytimg.com/vi/hcuuu2cwAJw/mqdefault.jpg","viewCount":"2086","playlistId":"PLEkQk5xrP-tl6Mu_Mz3QMUSv5T6XBH-Dg","playlistName":"برنامج اعرف نبيك","category":"متنوع"},{"id":"YSVQE9CmOro","title":"401- كيفية الصلاة على سيدنا رسول الله ﷺ  - شرح دليل الفالحين","publishedAt":"2023-02-19T09:01:00Z","duration":"PT33M50S","thumbnail":"https://i.ytimg.com/vi/YSVQE9CmOro/mqdefault.jpg","viewCount":"2081","playlistId":"PLEkQk5xrP-tkc9DXvSLguqX5-FYp6ASR4","playlistName":"دليل الفالحين لطرق رياض الصالحين","category":"متنوع"},{"id":"aCAWh3m8mJ8","title":"أنواع الصدقات | مجالس رمضانية","publishedAt":"2023-03-28T15:00:00Z","duration":"PT41M57S","thumbnail":"https://i.ytimg.com/vi/aCAWh3m8mJ8/mqdefault.jpg","viewCount":"2081","playlistId":"PLEkQk5xrP-tnl7vb7KeAoPd5ZlqKKW8KV","playlistName":"شرح كتاب بهجة النفوس أ.د . يسرى جبر","category":"متنوع"},{"id":"aOp-sIduhmc","title":"كلمة وإجازة أ.د.يسري جبر في ختام مجالس قراءة صحيح البخاري | إندونيسيا","publishedAt":"2025-02-10T18:30:06Z","duration":"PT15M40S","thumbnail":"https://i.ytimg.com/vi/aOp-sIduhmc/mqdefault.jpg","viewCount":"2080","playlistId":"PLEkQk5xrP-tmJzNvLntpzW0uPanPzxA0c","playlistName":"لقاءات ومحاضرات","category":"متنوع"},{"id":"LRa29t_36lo","title":"489- الدجَّال ليس به خفاء، يجيء من قِبل المشرق فيدعو إلى الدين فيُتبع ويظهر - شرح دليل الفالحين","publishedAt":"2023-06-30T08:59:01Z","duration":"PT31M58S","thumbnail":"https://i.ytimg.com/vi/LRa29t_36lo/mqdefault.jpg","viewCount":"2080","playlistId":"PLEkQk5xrP-tkc9DXvSLguqX5-FYp6ASR4","playlistName":"دليل الفالحين لطرق رياض الصالحين","category":"متنوع"},{"id":"1DS6ELyIges","title":"257- العفو والإعراض عن الجاهلين - شرح دليل الفالحين","publishedAt":"2022-05-29T19:40:01Z","duration":"PT44M1S","thumbnail":"https://i.ytimg.com/vi/1DS6ELyIges/mqdefault.jpg","viewCount":"2072","playlistId":"PLEkQk5xrP-tkc9DXvSLguqX5-FYp6ASR4","playlistName":"دليل الفالحين لطرق رياض الصالحين","category":"متنوع"},{"id":"_LOxIBY3d_g","title":"لمَّا عَلِمَ الحقُّ منك وجودَ المَلل ، لوَّن لك الطاعات .","publishedAt":"2017-01-22T18:33:11Z","duration":"PT9M56S","thumbnail":"https://i.ytimg.com/vi/_LOxIBY3d_g/mqdefault.jpg","viewCount":"2063","playlistId":"PLEkQk5xrP-tkI_meE148wc7V7XHlB0WPb","playlistName":"من الحكم العطائية  د. يسري جبر","category":"متنوع"},{"id":"-zCrbPcyzF0","title":"4- حديث الإسراء والمعراج بنبينا صلى الله عليه وآله وسلم (المجلس الرابع).   أ.د. يسري جبر","publishedAt":"2018-06-08T11:52:46Z","duration":"PT33M5S","thumbnail":"https://i.ytimg.com/vi/-zCrbPcyzF0/mqdefault.jpg","viewCount":"2062","playlistId":"PLEkQk5xrP-tnl7vb7KeAoPd5ZlqKKW8KV","playlistName":"شرح كتاب بهجة النفوس أ.د . يسرى جبر","category":"متنوع"},{"id":"l03g5gmAZL4","title":"الشكر","publishedAt":"2020-06-26T21:04:05Z","duration":"PT7M4S","thumbnail":"https://i.ytimg.com/vi/l03g5gmAZL4/mqdefault.jpg","viewCount":"2061","playlistId":"PLEkQk5xrP-tm8ZIu74nTOZN9KJUJu416J","playlistName":"مقاطع مُهمَّة (يُسريَّات) أ.د. يسري جبر","category":"متنوع"},{"id":"hKOpItHTXIM","title":"بِدَعُ التَفَاسِيرِ - مقدمة الكتاب المجلس الثاني .  أ.د. يسري جبر","publishedAt":"2019-09-30T15:08:27Z","duration":"PT17M13S","thumbnail":"https://i.ytimg.com/vi/hKOpItHTXIM/mqdefault.jpg","viewCount":"2058","playlistId":"PLEkQk5xrP-tkSGrPLMt1BEmJ54cGWYgtp","playlistName":"كتابُ بِدَعِ التَفَاسِيرِ - أ.د. يسري جبر","category":"متنوع"},{"id":"Rhpj7NWr1Kw","title":"برنامج - عصمة الأنبياء - الحلقة 12 - سيدنا يوسف : شبهات حول \" ولقد همت به وهم بها \" - @alerthTV","publishedAt":"2016-05-28T07:28:58Z","duration":"PT25M10S","thumbnail":"https://i.ytimg.com/vi/Rhpj7NWr1Kw/mqdefault.jpg","viewCount":"2057","playlistId":"PLEkQk5xrP-tnBp9yUT_R2vtqSPOlcyAZe","playlistName":"برنامج - عصمة الأنبياء","category":"متنوع"},{"id":"VwyF9qFoF_A","title":"44- كل ما تريد معرفته عن الطهارة والاغتسال | شرح مختصر الفتوحات المكية","publishedAt":"2025-05-24T18:07:48Z","duration":"PT52M39S","thumbnail":"https://i.ytimg.com/vi/VwyF9qFoF_A/mqdefault.jpg","viewCount":"2052","playlistId":"PLEkQk5xrP-tnpkdZki6rPTtMak1bnI5g-","playlistName":"شرح كتاب مختصر الفتوحات المكية المسمى لواقح الأنوار القدسية","category":"متنوع"},{"id":"NjjQfl9Q6fU","title":"435- كيف تكونُ الرؤْيا صادقة، وحديث\" هلْ رَأَى أحَدٌ مِنكُم مِن رُؤْيا\" - شرح دليل الفالحين","publishedAt":"2023-05-04T08:59:00Z","duration":"PT37M38S","thumbnail":"https://i.ytimg.com/vi/NjjQfl9Q6fU/mqdefault.jpg","viewCount":"2046","playlistId":"PLEkQk5xrP-tkc9DXvSLguqX5-FYp6ASR4","playlistName":"دليل الفالحين لطرق رياض الصالحين","category":"متنوع"}],"total":4126,"page":64,"pageSize":24,"totalPages":172}