{"items":[{"id":"UnmB4kSv71M","title":"شرح سنن الدارمي كتاب الصلاة من باب ٤٥","publishedAt":"2019-05-04T12:28:15Z","duration":"PT35M59S","thumbnail":"https://i.ytimg.com/vi/UnmB4kSv71M/mqdefault.jpg","viewCount":"349","playlistId":"PLEkQk5xrP-tmAg-FuWjY057X_h5NmGmAa","playlistName":"شرح سنن الدارمي - أ.د. يسري جبر (كاملا)","category":"متنوع"},{"id":"og3sZwIvz8I","title":"مقرأة سورة الشعراء من آية ١٧٦","publishedAt":"2018-04-20T15:03:53Z","duration":"PT18M41S","thumbnail":"https://i.ytimg.com/vi/og3sZwIvz8I/mqdefault.jpg","viewCount":"348","playlistId":"PLEkQk5xrP-tnmTYsyW6xNdyfhPq0Bhrhj","playlistName":"مقرأة الفجر - القُرْآنُ الكَرِيمُ - خَتْمَةُ التَّدَبُّرِ  أ.د. يسري جبر","category":"متنوع"},{"id":"mSaEHCPDt18","title":"مقرأة سورة النور من آية ٤٧","publishedAt":"2018-03-22T04:07:43Z","duration":"PT20M27S","thumbnail":"https://i.ytimg.com/vi/mSaEHCPDt18/mqdefault.jpg","viewCount":"348","playlistId":"PLEkQk5xrP-tnmTYsyW6xNdyfhPq0Bhrhj","playlistName":"مقرأة الفجر - القُرْآنُ الكَرِيمُ - خَتْمَةُ التَّدَبُّرِ  أ.د. يسري جبر","category":"متنوع"},{"id":"ctQeeLxiqa8","title":"شرح سنن الدارمي كتاب الصوم من باب ٣٣","publishedAt":"2019-06-18T01:42:44Z","duration":"PT21M57S","thumbnail":"https://i.ytimg.com/vi/ctQeeLxiqa8/mqdefault.jpg","viewCount":"348","playlistId":"PLEkQk5xrP-tmAg-FuWjY057X_h5NmGmAa","playlistName":"شرح سنن الدارمي - أ.د. يسري جبر (كاملا)","category":"متنوع"},{"id":"5F7Lb1oVpXs","title":"( 98 ) حَدِيثُ جَوازِ الرُقَى وَالأَجْرِ عَلَيهَا  - المجلس الأول","publishedAt":"2015-10-12T18:24:51Z","duration":"PT28M48S","thumbnail":"https://i.ytimg.com/vi/5F7Lb1oVpXs/mqdefault.jpg","viewCount":"348","playlistId":"PLEkQk5xrP-tnl7vb7KeAoPd5ZlqKKW8KV","playlistName":"شرح كتاب بهجة النفوس أ.د . يسرى جبر","category":"متنوع"},{"id":"TZeYWHNQZmk","title":"سورة النساء آية 123","publishedAt":"2016-09-27T20:45:09Z","duration":"PT16M48S","thumbnail":"https://i.ytimg.com/vi/TZeYWHNQZmk/mqdefault.jpg","viewCount":"348","playlistId":"PLEkQk5xrP-tnmTYsyW6xNdyfhPq0Bhrhj","playlistName":"مقرأة الفجر - القُرْآنُ الكَرِيمُ - خَتْمَةُ التَّدَبُّرِ  أ.د. يسري جبر","category":"متنوع"},{"id":"oCI00d5ho1g","title":"شرح سنن الدارمي كتاب الطهارة من باب ١٠٩","publishedAt":"2019-04-21T09:53:44Z","duration":"PT30M17S","thumbnail":"https://i.ytimg.com/vi/oCI00d5ho1g/mqdefault.jpg","viewCount":"348","playlistId":"PLEkQk5xrP-tmAg-FuWjY057X_h5NmGmAa","playlistName":"شرح سنن الدارمي - أ.د. يسري جبر (كاملا)","category":"متنوع"},{"id":"GHPe2K_UPi0","title":"مقرأة سورة الإسراء من آية ٧٦","publishedAt":"2017-10-04T13:40:17Z","duration":"PT19M16S","thumbnail":"https://i.ytimg.com/vi/GHPe2K_UPi0/mqdefault.jpg","viewCount":"348","playlistId":"PLEkQk5xrP-tnmTYsyW6xNdyfhPq0Bhrhj","playlistName":"مقرأة الفجر - القُرْآنُ الكَرِيمُ - خَتْمَةُ التَّدَبُّرِ  أ.د. يسري جبر","category":"متنوع"},{"id":"p2Bplg012aw","title":"مقرأة سورة الإسراء من آية ٥٦","publishedAt":"2017-09-28T10:20:03Z","duration":"PT12M27S","thumbnail":"https://i.ytimg.com/vi/p2Bplg012aw/mqdefault.jpg","viewCount":"348","playlistId":"PLEkQk5xrP-tnmTYsyW6xNdyfhPq0Bhrhj","playlistName":"مقرأة الفجر - القُرْآنُ الكَرِيمُ - خَتْمَةُ التَّدَبُّرِ  أ.د. يسري جبر","category":"متنوع"},{"id":"WJbYrPlDcHU","title":"سورة الأعراف آية 44","publishedAt":"2017-02-10T08:30:55Z","duration":"PT15M4S","thumbnail":"https://i.ytimg.com/vi/WJbYrPlDcHU/mqdefault.jpg","viewCount":"347","playlistId":"PLEkQk5xrP-tnmTYsyW6xNdyfhPq0Bhrhj","playlistName":"مقرأة الفجر - القُرْآنُ الكَرِيمُ - خَتْمَةُ التَّدَبُّرِ  أ.د. يسري جبر","category":"متنوع"},{"id":"GWdZHnGYqnU","title":"مقرأة سورة النمل من آية ٢٠","publishedAt":"2018-04-28T08:50:58Z","duration":"PT24M22S","thumbnail":"https://i.ytimg.com/vi/GWdZHnGYqnU/mqdefault.jpg","viewCount":"347","playlistId":"PLEkQk5xrP-tnmTYsyW6xNdyfhPq0Bhrhj","playlistName":"مقرأة الفجر - القُرْآنُ الكَرِيمُ - خَتْمَةُ التَّدَبُّرِ  أ.د. يسري جبر","category":"متنوع"},{"id":"C3sdRTAxiJg","title":"مقرأة سورة يونس من آية ٢٢","publishedAt":"2017-05-11T12:36:17Z","duration":"PT14M6S","thumbnail":"https://i.ytimg.com/vi/C3sdRTAxiJg/mqdefault.jpg","viewCount":"347","playlistId":"PLEkQk5xrP-tnmTYsyW6xNdyfhPq0Bhrhj","playlistName":"مقرأة الفجر - القُرْآنُ الكَرِيمُ - خَتْمَةُ التَّدَبُّرِ  أ.د. يسري جبر","category":"متنوع"},{"id":"eSfHwUAVjG8","title":"178- متى يصام يوم عرفة وأيام التشريق بلا كراهة؟ - شرح مسند الإمام أحمد رضي الله تعالى عنه","publishedAt":"2025-10-30T04:30:23Z","duration":"PT35M23S","thumbnail":"https://i.ytimg.com/vi/eSfHwUAVjG8/mqdefault.jpg","viewCount":"347","playlistId":"PLEkQk5xrP-tkKprIuGrSdEuBSMsyg5We1","playlistName":"شرح مسند الإمام أحمد بن حنبل","category":"متنوع"},{"id":"E8D0pN_HPmg","title":"مقرأة سورة الأعراف من آية ١٨٠","publishedAt":"2017-03-09T08:07:10Z","duration":"PT21M50S","thumbnail":"https://i.ytimg.com/vi/E8D0pN_HPmg/mqdefault.jpg","viewCount":"347","playlistId":"PLEkQk5xrP-tnmTYsyW6xNdyfhPq0Bhrhj","playlistName":"مقرأة الفجر - القُرْآنُ الكَرِيمُ - خَتْمَةُ التَّدَبُّرِ  أ.د. يسري جبر","category":"متنوع"},{"id":"2FK6y-hO-1c","title":"مقرأة سورة غافر من آية ٧٩","publishedAt":"2018-11-17T15:21:45Z","duration":"PT20M48S","thumbnail":"https://i.ytimg.com/vi/2FK6y-hO-1c/mqdefault.jpg","viewCount":"347","playlistId":"PLEkQk5xrP-tnmTYsyW6xNdyfhPq0Bhrhj","playlistName":"مقرأة الفجر - القُرْآنُ الكَرِيمُ - خَتْمَةُ التَّدَبُّرِ  أ.د. يسري جبر","category":"متنوع"},{"id":"dZ6HtKUOE6k","title":"مقرأة سورة التغابن من آية ١١","publishedAt":"2019-04-19T20:29:59Z","duration":"PT5M51S","thumbnail":"https://i.ytimg.com/vi/dZ6HtKUOE6k/mqdefault.jpg","viewCount":"347","playlistId":"PLEkQk5xrP-tnmTYsyW6xNdyfhPq0Bhrhj","playlistName":"مقرأة الفجر - القُرْآنُ الكَرِيمُ - خَتْمَةُ التَّدَبُّرِ  أ.د. يسري جبر","category":"متنوع"},{"id":"JB2qBpxn44w","title":"مقرأة سورة المؤمنون آية ٥٧","publishedAt":"2018-02-27T14:05:38Z","duration":"PT9M59S","thumbnail":"https://i.ytimg.com/vi/JB2qBpxn44w/mqdefault.jpg","viewCount":"346","playlistId":"PLEkQk5xrP-tnmTYsyW6xNdyfhPq0Bhrhj","playlistName":"مقرأة الفجر - القُرْآنُ الكَرِيمُ - خَتْمَةُ التَّدَبُّرِ  أ.د. يسري جبر","category":"متنوع"},{"id":"sV-OOQl1xlk","title":"سورة الأعراف آية 94","publishedAt":"2017-02-19T15:47:05Z","duration":"PT19M19S","thumbnail":"https://i.ytimg.com/vi/sV-OOQl1xlk/mqdefault.jpg","viewCount":"345","playlistId":"PLEkQk5xrP-tnmTYsyW6xNdyfhPq0Bhrhj","playlistName":"مقرأة الفجر - القُرْآنُ الكَرِيمُ - خَتْمَةُ التَّدَبُّرِ  أ.د. يسري جبر","category":"متنوع"},{"id":"vklltpx4W20","title":"مقرأة سورة الشعراء من آية ١٩٢","publishedAt":"2018-04-21T06:34:18Z","duration":"PT20M54S","thumbnail":"https://i.ytimg.com/vi/vklltpx4W20/mqdefault.jpg","viewCount":"345","playlistId":"PLEkQk5xrP-tnmTYsyW6xNdyfhPq0Bhrhj","playlistName":"مقرأة الفجر - القُرْآنُ الكَرِيمُ - خَتْمَةُ التَّدَبُّرِ  أ.د. يسري جبر","category":"متنوع"},{"id":"gg8zPRt-EX4","title":"مقرأة سورة النمل من آية ٧٠","publishedAt":"2018-05-06T13:51:26Z","duration":"PT28M58S","thumbnail":"https://i.ytimg.com/vi/gg8zPRt-EX4/mqdefault.jpg","viewCount":"344","playlistId":"PLEkQk5xrP-tnmTYsyW6xNdyfhPq0Bhrhj","playlistName":"مقرأة الفجر - القُرْآنُ الكَرِيمُ - خَتْمَةُ التَّدَبُّرِ  أ.د. يسري جبر","category":"متنوع"},{"id":"Dx1W462bAMA","title":"مقرأة سورة فصلت من آية ٤٥","publishedAt":"2018-11-27T10:03:01Z","duration":"PT31M50S","thumbnail":"https://i.ytimg.com/vi/Dx1W462bAMA/mqdefault.jpg","viewCount":"344","playlistId":"PLEkQk5xrP-tnmTYsyW6xNdyfhPq0Bhrhj","playlistName":"مقرأة الفجر - القُرْآنُ الكَرِيمُ - خَتْمَةُ التَّدَبُّرِ  أ.د. يسري جبر","category":"متنوع"},{"id":"F7jrQT5yUZY","title":"مقرأة سورة الأحزاب من ٱية ٩","publishedAt":"2018-07-18T11:33:19Z","duration":"PT20M5S","thumbnail":"https://i.ytimg.com/vi/F7jrQT5yUZY/mqdefault.jpg","viewCount":"343","playlistId":"PLEkQk5xrP-tnmTYsyW6xNdyfhPq0Bhrhj","playlistName":"مقرأة الفجر - القُرْآنُ الكَرِيمُ - خَتْمَةُ التَّدَبُّرِ  أ.د. يسري جبر","category":"متنوع"},{"id":"_pzm_bID0w4","title":"مقرأة سورة النور من آية ٦١","publishedAt":"2018-03-25T03:17:05Z","duration":"PT28M59S","thumbnail":"https://i.ytimg.com/vi/_pzm_bID0w4/mqdefault.jpg","viewCount":"343","playlistId":"PLEkQk5xrP-tnmTYsyW6xNdyfhPq0Bhrhj","playlistName":"مقرأة الفجر - القُرْآنُ الكَرِيمُ - خَتْمَةُ التَّدَبُّرِ  أ.د. يسري جبر","category":"متنوع"},{"id":"cgd18-iFGGw","title":"46- بِنَاءِ الْكَعْبَةِ كتاب الحج ك الموطأ د يسري جبر الأزهري  بمضيفة الشيخ سعيد الدح","publishedAt":"2017-03-26T22:47:23Z","duration":"PT59M10S","thumbnail":"https://i.ytimg.com/vi/cgd18-iFGGw/mqdefault.jpg","viewCount":"343","playlistId":"PLEkQk5xrP-tnC6BRuqMjyO-484iqXeg0o","playlistName":"شرح كتاب الموطأ للإمام مالك","category":"متنوع"}],"total":4126,"page":144,"pageSize":24,"totalPages":172}