{"items":[{"id":"JLiJyDcukuM","title":"منازل السائرين للإمام الهروى المجلس الواحد والخمسون قسم الولايات أبواب الغربة والغرق والغيبة والتمكن","publishedAt":"2015-06-01T13:26:40Z","duration":"PT55M27S","thumbnail":"https://i.ytimg.com/vi/JLiJyDcukuM/mqdefault.jpg","viewCount":"1329","playlistId":"PLEkQk5xrP-tnLYi_5_tSRVBwqcs7ISV7Y","playlistName":"شرح كتاب منازل السائرين للإمام الهروي","category":"متنوع"},{"id":"KrSmjKzMypk","title":"11- الوضوء وفضل التسمية عند الوضوء - كتاب الطهارة - شرح سنن الدار قطني","publishedAt":"2023-06-10T08:59:00Z","duration":"PT34M12S","thumbnail":"https://i.ytimg.com/vi/KrSmjKzMypk/mqdefault.jpg","viewCount":"1328","playlistId":"PLEkQk5xrP-tk_MCBZ706ORCw6gFtFyaGj","playlistName":"شرح سنن الإمام الدارقطني","category":"متنوع"},{"id":"u7kbmtc0IvA","title":"شرح كتاب منازل السائرين للإمام الهروى - المجلس الحادى و الثلاثون - قسم الأخلاق باب الفُتوّة","publishedAt":"2014-12-22T04:09:04Z","duration":"PT59M17S","thumbnail":"https://i.ytimg.com/vi/u7kbmtc0IvA/mqdefault.jpg","viewCount":"1326","playlistId":"PLEkQk5xrP-tnLYi_5_tSRVBwqcs7ISV7Y","playlistName":"شرح كتاب منازل السائرين للإمام الهروي","category":"متنوع"},{"id":"HPLAvQ2uNq8","title":"شرح كتاب منازل السائرين للإمام الهروى - المجلس السابع والعشرون - قسم الأخلاق باب الصدق","publishedAt":"2014-11-25T20:13:28Z","duration":"PT53M24S","thumbnail":"https://i.ytimg.com/vi/HPLAvQ2uNq8/mqdefault.jpg","viewCount":"1326","playlistId":"PLEkQk5xrP-tnLYi_5_tSRVBwqcs7ISV7Y","playlistName":"شرح كتاب منازل السائرين للإمام الهروي","category":"متنوع"},{"id":"1fbpJI6LrlA","title":"22- معنى السبع الطّوال والمَثَانِي والمِئِين - شرح مسند الإمام أحمد","publishedAt":"2023-09-27T05:15:00Z","duration":"PT43M11S","thumbnail":"https://i.ytimg.com/vi/1fbpJI6LrlA/mqdefault.jpg","viewCount":"1326","playlistId":"PLEkQk5xrP-tkKprIuGrSdEuBSMsyg5We1","playlistName":"شرح مسند الإمام أحمد بن حنبل","category":"متنوع"},{"id":"99WSA0n0NBg","title":"84- نبذة عن سيدنا عبد الرحمن بن عوف الزهري أحد العشرة المبشرين بالجنة رضي اللهُ تعالى عنه","publishedAt":"2024-03-06T06:30:01Z","duration":"PT32M8S","thumbnail":"https://i.ytimg.com/vi/99WSA0n0NBg/mqdefault.jpg","viewCount":"1322","playlistId":"PLEkQk5xrP-tkKprIuGrSdEuBSMsyg5We1","playlistName":"شرح مسند الإمام أحمد بن حنبل","category":"متنوع"},{"id":"5mIUdTgSeaM","title":"487- بيان ما يخرج مع الدجال وكيفية النجاة منه - شرح دليل الفالحين","publishedAt":"2023-06-27T08:59:00Z","duration":"PT30M16S","thumbnail":"https://i.ytimg.com/vi/5mIUdTgSeaM/mqdefault.jpg","viewCount":"1317","playlistId":"PLEkQk5xrP-tkc9DXvSLguqX5-FYp6ASR4","playlistName":"دليل الفالحين لطرق رياض الصالحين","category":"متنوع"},{"id":"XzlIsALlONU","title":"49- أهمية المحافظة على الصلاة الوسطى - شرح مسند الإمام أحمد","publishedAt":"2023-12-10T07:27:02Z","duration":"PT33M58S","thumbnail":"https://i.ytimg.com/vi/XzlIsALlONU/mqdefault.jpg","viewCount":"1316","playlistId":"PLEkQk5xrP-tkKprIuGrSdEuBSMsyg5We1","playlistName":"شرح مسند الإمام أحمد بن حنبل","category":"متنوع"},{"id":"tx2mKmAZDHU","title":"إذا التبس عليك أمران فانظر أثْقلهما على النفس فاتَّبعْه، فإنه لا يثقل عليها إلا ما كان حقا.","publishedAt":"2017-08-27T20:36:36Z","duration":"PT8M16S","thumbnail":"https://i.ytimg.com/vi/tx2mKmAZDHU/mqdefault.jpg","viewCount":"1313","playlistId":"PLEkQk5xrP-tkI_meE148wc7V7XHlB0WPb","playlistName":"من الحكم العطائية  د. يسري جبر","category":"متنوع"},{"id":"AFV3vtHciQo","title":"354- فضل يوم الجمعة والصلاة على النبي ﷺ فيه - شرح دليل الفالحين","publishedAt":"2022-12-07T09:00:03Z","duration":"PT40M1S","thumbnail":"https://i.ytimg.com/vi/AFV3vtHciQo/mqdefault.jpg","viewCount":"1313","playlistId":"PLEkQk5xrP-tkc9DXvSLguqX5-FYp6ASR4","playlistName":"دليل الفالحين لطرق رياض الصالحين","category":"متنوع"},{"id":"9OHGGWWYKSc","title":"من استغرب أن ينقذه الله من شهواته، وأن يخرجه من وجود غفلته، فقد استعجز القدرة الإلهية","publishedAt":"2017-09-02T11:49:12Z","duration":"PT9M27S","thumbnail":"https://i.ytimg.com/vi/9OHGGWWYKSc/mqdefault.jpg","viewCount":"1310","playlistId":"PLEkQk5xrP-tkI_meE148wc7V7XHlB0WPb","playlistName":"من الحكم العطائية  د. يسري جبر","category":"متنوع"},{"id":"-naQ4Xe9EFc","title":"273- استحباب التبشير والتهنئة بالخير - شرح دليل الفالحين","publishedAt":"2022-06-27T05:00:00Z","duration":"PT54M13S","thumbnail":"https://i.ytimg.com/vi/-naQ4Xe9EFc/mqdefault.jpg","viewCount":"1310","playlistId":"PLEkQk5xrP-tkc9DXvSLguqX5-FYp6ASR4","playlistName":"دليل الفالحين لطرق رياض الصالحين","category":"متنوع"},{"id":"MX6m6o4g5qw","title":"177- «لو تَعْلَمُونَ ما أَعْلَمُ، لَضَحِكْتُمْ قَلِيلًا وَلَبَكَيْتُمْ كَثِيرًا»  شرح دليل الفالحين","publishedAt":"2021-12-31T19:03:05Z","duration":"PT22M51S","thumbnail":"https://i.ytimg.com/vi/MX6m6o4g5qw/mqdefault.jpg","viewCount":"1310","playlistId":"PLEkQk5xrP-tkc9DXvSLguqX5-FYp6ASR4","playlistName":"دليل الفالحين لطرق رياض الصالحين","category":"متنوع"},{"id":"fSn0P7m-hzE","title":"( 127 ) حديث جواز الصدقة عن الميت و وصول ثوابها اليه  - د. يسري جبر","publishedAt":"2017-06-11T19:27:46Z","duration":"PT26M56S","thumbnail":"https://i.ytimg.com/vi/fSn0P7m-hzE/mqdefault.jpg","viewCount":"1309","playlistId":"PLEkQk5xrP-tnl7vb7KeAoPd5ZlqKKW8KV","playlistName":"شرح كتاب بهجة النفوس أ.د . يسرى جبر","category":"متنوع"},{"id":"pbGqBWrgzg4","title":"متى كنت إذا أُعطيت بسطك العطاء،وإذا مُنعت قبضك المنع،فاستدِل بذلك على طفوليتك، وعدم صدقك في عبوديتك","publishedAt":"2017-03-11T19:05:16Z","duration":"PT10M50S","thumbnail":"https://i.ytimg.com/vi/pbGqBWrgzg4/mqdefault.jpg","viewCount":"1309","playlistId":"PLEkQk5xrP-tkI_meE148wc7V7XHlB0WPb","playlistName":"من الحكم العطائية  د. يسري جبر","category":"متنوع"},{"id":"jkXtWErymgY","title":"157- “… إنَّ من إجلال الله تعالى إكرامَ ذي الشيبة المسلم…\" شرح دليل الفالحين","publishedAt":"2021-11-24T06:33:54Z","duration":"PT32M4S","thumbnail":"https://i.ytimg.com/vi/jkXtWErymgY/mqdefault.jpg","viewCount":"1309","playlistId":"PLEkQk5xrP-tkc9DXvSLguqX5-FYp6ASR4","playlistName":"دليل الفالحين لطرق رياض الصالحين","category":"متنوع"},{"id":"Mp5SWSxZLBQ","title":"هل يجوز عقد الزواج عن طريق الانترنت؟","publishedAt":"2025-03-02T18:30:17Z","duration":"PT8M58S","thumbnail":"https://i.ytimg.com/vi/Mp5SWSxZLBQ/mqdefault.jpg","viewCount":"1308","playlistId":"PLEkQk5xrP-tkGXuZ9atE3k_7it12rUPTs","playlistName":"أسئلة المتابعين","category":"متنوع"},{"id":"m9tWJoVXv7I","title":"225- الكَرَم والجُود والإنفاق في وجُوهِ الخيرِ ثقة بالله تعالى - شرح دليل الفالحين","publishedAt":"2022-04-01T05:52:38Z","duration":"PT28M11S","thumbnail":"https://i.ytimg.com/vi/m9tWJoVXv7I/mqdefault.jpg","viewCount":"1307","playlistId":"PLEkQk5xrP-tkc9DXvSLguqX5-FYp6ASR4","playlistName":"دليل الفالحين لطرق رياض الصالحين","category":"متنوع"},{"id":"nVxtTO4dfGw","title":"60- أسرار الصلاة الإبراهيمية وهل يجوز أن نقول سيدنا محمد في التشهد؟ | شرح سنن الإمام الدار قطني","publishedAt":"2025-08-02T09:01:08Z","duration":"PT44M56S","thumbnail":"https://i.ytimg.com/vi/nVxtTO4dfGw/mqdefault.jpg","viewCount":"1305","playlistId":"PLEkQk5xrP-tk_MCBZ706ORCw6gFtFyaGj","playlistName":"شرح سنن الإمام الدارقطني","category":"متنوع"},{"id":"d9EB-i_-mfY","title":"131- \"اللَّهمَّ إنِّي أحرِّجُ حقَّ الضَّعيفينِ : اليتيمِ ، والمرأَةِ\" - شرح دليل الفالحين","publishedAt":"2021-09-24T06:05:50Z","duration":"PT32M59S","thumbnail":"https://i.ytimg.com/vi/d9EB-i_-mfY/mqdefault.jpg","viewCount":"1304","playlistId":"PLEkQk5xrP-tkc9DXvSLguqX5-FYp6ASR4","playlistName":"دليل الفالحين لطرق رياض الصالحين","category":"متنوع"},{"id":"ZaEOCOb2MXw","title":"28- باب التوبة: الحديث التاسع - شرح دليل الفالحين لطُرُق رياض الصالحين","publishedAt":"2021-03-12T06:51:28Z","duration":"PT23M","thumbnail":"https://i.ytimg.com/vi/ZaEOCOb2MXw/mqdefault.jpg","viewCount":"1303","playlistId":"PLEkQk5xrP-tkc9DXvSLguqX5-FYp6ASR4","playlistName":"دليل الفالحين لطرق رياض الصالحين","category":"متنوع"},{"id":"sc5fvYbgFZg","title":"5- حديث الإسراء والمعراج بنبينا صلى الله عليه وآله وسلم (المجلس الخامس).   أ.د. يسري جبر","publishedAt":"2018-06-10T17:21:15Z","duration":"PT22M47S","thumbnail":"https://i.ytimg.com/vi/sc5fvYbgFZg/mqdefault.jpg","viewCount":"1302","playlistId":"PLEkQk5xrP-tnl7vb7KeAoPd5ZlqKKW8KV","playlistName":"شرح كتاب بهجة النفوس أ.د . يسرى جبر","category":"متنوع"},{"id":"1Rfndz7VdRI","title":"منازل السائرين للإمام الهروى المجلس الثالث والخمسون قسم الحقائق أبواب الحياة والقبض والبسط","publishedAt":"2015-08-23T02:04:17Z","duration":"PT1H9M32S","thumbnail":"https://i.ytimg.com/vi/1Rfndz7VdRI/mqdefault.jpg","viewCount":"1302","playlistId":"PLEkQk5xrP-tnLYi_5_tSRVBwqcs7ISV7Y","playlistName":"شرح كتاب منازل السائرين للإمام الهروي","category":"متنوع"},{"id":"REhzhW6Ac4E","title":"57- خُطورة الكذبِ في الرُّؤيا وعُقوبته - شرح مسند الإمام أحمد","publishedAt":"2023-12-25T07:00:08Z","duration":"PT36M32S","thumbnail":"https://i.ytimg.com/vi/REhzhW6Ac4E/mqdefault.jpg","viewCount":"1301","playlistId":"PLEkQk5xrP-tkKprIuGrSdEuBSMsyg5We1","playlistName":"شرح مسند الإمام أحمد بن حنبل","category":"متنوع"}],"total":4126,"page":82,"pageSize":24,"totalPages":172}