{"items":[{"id":"sAUxljXEkcg","title":"ÙØ¶Ù„ ØµÙ„Ø© Ø§Ù„Ø±Ø­Ù… | Ø£.Ø¯. ÙŠØ³Ø±ÙŠ Ø¬Ø¨Ø±","publishedAt":"2022-04-26T15:30:11Z","duration":"PT41M3S","thumbnail":"https://i.ytimg.com/vi/sAUxljXEkcg/mqdefault.jpg","viewCount":"2586","playlistId":"PLEkQk5xrP-tnl7vb7KeAoPd5ZlqKKW8KV","playlistName":"Ø´Ø±Ø­ ÙƒØªØ§Ø¨ Ø¨Ù‡Ø¬Ø© Ø§Ù„Ù†ÙÙˆØ³ Ø£.Ø¯ . ÙŠØ³Ø±Ù‰ Ø¬Ø¨Ø±","category":"Ù…ØªÙ†ÙˆØ¹"},{"id":"w9IaE_Cj1yo","title":"203- Â«Ù„ÙŠØ³ Ù„Ø§Ø¨Ù† Ø¢Ø¯Ù… Ø­Ù‚Ù‘ÙŒ ÙÙŠ Ø³ÙÙˆÙ‰ Ù‡Ø°Ù‡ Ø§Ù„Ø®ÙØµØ§Ù„: Ø¨ÙŠØªÙŒ ÙŠØ³ÙƒÙ†ÙÙ‡ØŒ ÙˆØ«ÙˆØ¨ÙŒ ÙŠÙÙˆØ§Ø±ÙŠ Ø¹ÙˆØ±ØªÙÙ‡â€¦Â» Ø´Ø±Ø­ Ø¯Ù„ÙŠÙ„ Ø§Ù„ÙØ§Ù„Ø­ÙŠÙ†","publishedAt":"2022-02-18T07:04:48Z","duration":"PT35M9S","thumbnail":"https://i.ytimg.com/vi/w9IaE_Cj1yo/mqdefault.jpg","viewCount":"2584","playlistId":"PLEkQk5xrP-tkc9DXvSLguqX5-FYp6ASR4","playlistName":"Ø¯Ù„ÙŠÙ„ Ø§Ù„ÙØ§Ù„Ø­ÙŠÙ† Ù„Ø·Ø±Ù‚ Ø±ÙŠØ§Ø¶ Ø§Ù„ØµØ§Ù„Ø­ÙŠÙ†","category":"Ù…ØªÙ†ÙˆØ¹"},{"id":"IzgdyjQQJ5s","title":"Ø¸Ù‡Ø± Ø§Ù„ÙØ³Ø§Ø¯ ÙÙ‰ Ø§Ù„Ø¨Ø± ÙˆØ§Ù„Ø¨Ø­Ø± Ø¨Ù…Ø§ ÙƒØ³Ø¨Øª Ø£ÙŠØ¯Ù‰ Ø§Ù„Ù†Ø§Ø³","publishedAt":"2014-10-03T19:26:38Z","duration":"PT36M57S","thumbnail":"https://i.ytimg.com/vi/IzgdyjQQJ5s/mqdefault.jpg","viewCount":"2580","playlistId":"PLEkQk5xrP-tm8ZIu74nTOZN9KJUJu416J","playlistName":"Ù…Ù‚Ø§Ø·Ø¹ Ù…ÙÙ‡Ù…ÙÙ‘Ø© (ÙŠÙØ³Ø±ÙŠÙ‘ÙØ§Øª) Ø£.Ø¯. ÙŠØ³Ø±ÙŠ Ø¬Ø¨Ø±","category":"Ù…ØªÙ†ÙˆØ¹"},{"id":"0xvKxu6V9Es","title":"ÙƒÙŠÙ ØªØµØ¨Ø± Ø¹Ù„Ù‰ Ø§Ù„Ø¨Ù„Ø§Ø¡ ÙƒÙ…Ø§ ØµØ¨Ø± Ø¢Ù„ Ø§Ù„Ø¨ÙŠØªØŸ","publishedAt":"2025-10-21T18:45:54Z","duration":"PT16M13S","thumbnail":"https://i.ytimg.com/vi/0xvKxu6V9Es/mqdefault.jpg","viewCount":"2577","playlistId":"PLEkQk5xrP-tm8ZIu74nTOZN9KJUJu416J","playlistName":"Ù…Ù‚Ø§Ø·Ø¹ Ù…ÙÙ‡Ù…ÙÙ‘Ø© (ÙŠÙØ³Ø±ÙŠÙ‘ÙØ§Øª) Ø£.Ø¯. ÙŠØ³Ø±ÙŠ Ø¬Ø¨Ø±","category":"Ù…ØªÙ†ÙˆØ¹"},{"id":"8m6QREa2mms","title":"2012-02-19 Ø£Ø­ØªÙØ§Ù„ Ø¯  ÙŠØ³Ø±ÙŠ Ø¬Ø¨Ø± Ø¨Ø§Ù„Ù…ÙˆÙ„Ø¯ Ø¨Ø§Ù„Ø¨Ø¯Ø±Ø´ÙŠÙ†.avi","publishedAt":"2012-03-11T04:23:29Z","duration":"PT2H26M15S","thumbnail":"https://i.ytimg.com/vi/8m6QREa2mms/mqdefault.jpg","viewCount":"2575","playlistId":"PLEkQk5xrP-tmJzNvLntpzW0uPanPzxA0c","playlistName":"Ù„Ù‚Ø§Ø¡Ø§Øª ÙˆÙ…Ø­Ø§Ø¶Ø±Ø§Øª","category":"Ù…ØªÙ†ÙˆØ¹"},{"id":"9ljYf5Ixyko","title":"ØµÙÙ„Ù‘ÙÙˆØ§ Ø¹ÙÙ„ÙÙŠÙ‡Ù ÙˆÙØ¹ÙÙ„ÙÙ‰ Ø¢Ù„ÙÙ‡Ù  Ø£.Ø¯. ÙŠØ³Ø±ÙŠ Ø¬Ø¨Ø±","publishedAt":"2020-04-05T12:42:03Z","duration":"PT1M9S","thumbnail":"https://i.ytimg.com/vi/9ljYf5Ixyko/mqdefault.jpg","viewCount":"2574","playlistId":"PLEkQk5xrP-tm8ZIu74nTOZN9KJUJu416J","playlistName":"Ù…Ù‚Ø§Ø·Ø¹ Ù…ÙÙ‡Ù…ÙÙ‘Ø© (ÙŠÙØ³Ø±ÙŠÙ‘ÙØ§Øª) Ø£.Ø¯. ÙŠØ³Ø±ÙŠ Ø¬Ø¨Ø±","category":"Ù…ØªÙ†ÙˆØ¹"},{"id":"mnA8zaMPkJs","title":"Ù‡Ù„ ÙŠÙˆØ¬Ø¯ ÙƒØ¨Ø§Ø¦Ø± ØºÙŠØ± Ø§Ù„Ø³Ø¨Ø¹ Ø§Ù„Ù…ÙˆØ¨Ù‚Ø§ØªØŸ","publishedAt":"2024-10-09T19:40:35Z","duration":"PT23M54S","thumbnail":"https://i.ytimg.com/vi/mnA8zaMPkJs/mqdefault.jpg","viewCount":"2561","playlistId":"PLEkQk5xrP-tnZyxWbCSqTSMV9BJLUL-zN","playlistName":"Ø´Ø±Ø­ ÙƒØªØ§Ø¨ ØªÙ†ÙˆÙŠØ± Ø§Ù„Ø¨ØµÙŠØ±Ø© Ø¨Ø¨ÙŠØ§Ù† Ø¹Ù„Ø§Ù…Ø§Øª Ø§Ù„ÙƒØ¨ÙŠØ±Ø©","category":"Ù…ØªÙ†ÙˆØ¹"},{"id":"jLytC9QaPv4","title":"ÙƒÙ„Ù…Ø© ÙØ¶ÙŠÙ„Ø© Ø§Ù„Ø¯ÙƒØªÙˆØ± ÙŠØ³Ø±ÙŠ Ø¬Ø¨Ø± ÙÙŠ Ù…Ø¤ØªÙ…Ø± Ø§Ù„ØªØµÙˆÙ Ø§Ù„Ø¹Ø§Ù„Ù…ÙŠ Ø§Ù„Ø³Ø§Ø¨Ø¹ ÙÙ‰ Ù…Ù‚Ø¯ÙŠØ´Ùˆ 1/2","publishedAt":"2018-04-13T11:42:59Z","duration":"PT16M47S","thumbnail":"https://i.ytimg.com/vi/jLytC9QaPv4/mqdefault.jpg","viewCount":"2557","playlistId":"PLEkQk5xrP-tm8ZIu74nTOZN9KJUJu416J","playlistName":"Ù…Ù‚Ø§Ø·Ø¹ Ù…ÙÙ‡Ù…ÙÙ‘Ø© (ÙŠÙØ³Ø±ÙŠÙ‘ÙØ§Øª) Ø£.Ø¯. ÙŠØ³Ø±ÙŠ Ø¬Ø¨Ø±","category":"Ù…ØªÙ†ÙˆØ¹"},{"id":"BkKAWhaXU-c","title":"ÙØ¶Ù„ Ø§Ù„ØµÙ„Ø§Ø© ÙÙŠ Ø§Ù„Ù…Ø³Ø¬Ø¯ Ø§Ù„Ù†Ø¨ÙˆÙŠ | Ø§Ø¹Ø±Ù Ù†Ø¨ÙŠÙƒ","publishedAt":"2015-06-11T14:45:57Z","duration":"PT1M47S","thumbnail":"https://i.ytimg.com/vi/BkKAWhaXU-c/mqdefault.jpg","viewCount":"2556","playlistId":"PLEkQk5xrP-tl6Mu_Mz3QMUSv5T6XBH-Dg","playlistName":"Ø¨Ø±Ù†Ø§Ù…Ø¬ Ø§Ø¹Ø±Ù Ù†Ø¨ÙŠÙƒ","category":"Ù…ØªÙ†ÙˆØ¹"},{"id":"PseDI6dXZ3w","title":"188- \"â€¦Ø£Ù†Ù‘Ù Ø±ÙØ¬ÙÙ„Ù‹Ø§ Ø£ØµØ§Ø¨Ù Ù…ÙÙ† Ø§Ù…Ù’Ø±ÙØ£ÙØ©Ù Ù‚ÙØ¨Ù’Ù„ÙØ©Ù‹ØŒ ÙØ£ØªÙÙ‰ Ø§Ù„Ù†Ù‘ÙØ¨ÙŠÙ‘Ù ï·º ÙØ£Ø®Ù’Ø¨ÙØ±ÙÙ‡Ùâ€¦\"- Ø´Ø±Ø­ Ø¯Ù„ÙŠÙ„ Ø§Ù„ÙØ§Ù„Ø­ÙŠÙ†","publishedAt":"2022-01-21T07:21:23Z","duration":"PT56M38S","thumbnail":"https://i.ytimg.com/vi/PseDI6dXZ3w/mqdefault.jpg","viewCount":"2556","playlistId":"PLEkQk5xrP-tkc9DXvSLguqX5-FYp6ASR4","playlistName":"Ø¯Ù„ÙŠÙ„ Ø§Ù„ÙØ§Ù„Ø­ÙŠÙ† Ù„Ø·Ø±Ù‚ Ø±ÙŠØ§Ø¶ Ø§Ù„ØµØ§Ù„Ø­ÙŠÙ†","category":"Ù…ØªÙ†ÙˆØ¹"},{"id":"QPNKkWfOd0A","title":"185- \"â€¦Ø¥Ø°Ø§ Ø£ÙØ°Ù’Ù†ÙØ¨Ù Ø¹ÙØ¨Ù’Ø¯ÙŒ Ø°ÙÙ†Ù’Ø¨Ù‹Ø§ØŒ ÙÙÙ‚Ø§Ù„Ù: Ø§Ù„Ù„Ù‘ÙÙ‡ÙÙ…Ù‘Ù Ø§ØºÙ’ÙÙØ±Ù’ Ù„ÙŠ Ø°ÙÙ†Ù’Ø¨ÙÙŠâ€¦\" Ø´Ø±Ø­ Ø¯Ù„ÙŠÙ„ Ø§Ù„ÙØ§Ù„Ø­ÙŠÙ†","publishedAt":"2022-01-15T07:04:24Z","duration":"PT28M2S","thumbnail":"https://i.ytimg.com/vi/QPNKkWfOd0A/mqdefault.jpg","viewCount":"2545","playlistId":"PLEkQk5xrP-tkc9DXvSLguqX5-FYp6ASR4","playlistName":"Ø¯Ù„ÙŠÙ„ Ø§Ù„ÙØ§Ù„Ø­ÙŠÙ† Ù„Ø·Ø±Ù‚ Ø±ÙŠØ§Ø¶ Ø§Ù„ØµØ§Ù„Ø­ÙŠÙ†","category":"Ù…ØªÙ†ÙˆØ¹"},{"id":"5myVDsmu5oE","title":"1- Ø´Ø±Ø­ Ù…Ù†Ø¸ÙˆÙ…Ø© Ù…Ù†Ø¬ÙŠØ© Ø§Ù„Ø¹Ø¨ÙŠØ¯ ÙÙŠ Ø¹Ù„Ù… Ø§Ù„ØªÙˆØ­ÙŠØ¯","publishedAt":"2022-09-13T05:15:00Z","duration":"PT27M25S","thumbnail":"https://i.ytimg.com/vi/5myVDsmu5oE/mqdefault.jpg","viewCount":"2539","playlistId":"PLEkQk5xrP-tk3OeVFoMfKhOhyINnlPeYZ","playlistName":"Ø§Ù„Ø­ÙØ¶Ù’Ø±ÙØ©Ù Ø§Ù„ØµÙ‘ÙØ¯Ù‘ÙÙŠÙ‚ÙÙŠÙ‘ÙØ© ÙˆØ§Ù„Ø£ÙˆÙ’Ø±ÙØ§Ø¯","category":"Ù…ØªÙ†ÙˆØ¹"},{"id":"EwMLwB5ho2s","title":"98- Ù‡Ù„ Ø§Ù„Ù†Ø¬ÙˆÙ… ÙŠÙØ¹Ø±Ù Ø¨Ù‡Ø§ Ø¹Ù„Ù… Ø§Ù„ØºÙŠØ¨ØŸ - Ø´Ø±Ø­ Ù…Ø³Ù†Ø¯ Ø§Ù„Ø¥Ù…Ø§Ù… Ø£Ø­Ù…Ø¯ Ø±Ø¶ÙŠ Ø§Ù„Ù„Ù‡ ØªØ¹Ø§Ù„Ù‰ Ø¹Ù†Ù‡","publishedAt":"2024-04-30T05:45:00Z","duration":"PT30M18S","thumbnail":"https://i.ytimg.com/vi/EwMLwB5ho2s/mqdefault.jpg","viewCount":"2537","playlistId":"PLEkQk5xrP-tkKprIuGrSdEuBSMsyg5We1","playlistName":"Ø´Ø±Ø­ Ù…Ø³Ù†Ø¯ Ø§Ù„Ø¥Ù…Ø§Ù… Ø£Ø­Ù…Ø¯ Ø¨Ù† Ø­Ù†Ø¨Ù„","category":"Ù…ØªÙ†ÙˆØ¹"},{"id":"GIajV8B-55k","title":"14- ÙˆÙ…ÙÙ† ÙŠÙ‚ÙÙ„Ù’ ÙÙØ¹Ù’Ù„Ù Ø§Ù„ØµÙ‘ÙÙ„Ø§Ø­Ù ÙˆÙØ¬ÙØ¨ÙØ§ *** Ø¹Ù„Ù‰ Ø§Ù„Ø¥ÙÙ„ÙÙ‡ Ù‚ÙØ¯Ù’ Ø£ÙØ³ÙØ§Ø¡Ù Ø§Ù„Ø£ÙØ¯ÙØ¨ÙØ§ - Ø´Ø±Ø­ Ø§Ù„Ø®Ø±ÙŠØ¯Ø© Ø§Ù„Ø¨Ù‡ÙŠÙ‘Ø©","publishedAt":"2022-09-14T06:00:08Z","duration":"PT59M39S","thumbnail":"https://i.ytimg.com/vi/GIajV8B-55k/mqdefault.jpg","viewCount":"2534","playlistId":"PLEkQk5xrP-tmNuYT8JAh6clwa4krsgkNo","playlistName":"Ø´Ø±Ø­ ÙƒØªØ§Ø¨ Ø§Ù„ÙÙØªÙÙˆØ­Ø§Øª Ø§Ù„ÙŠÙØ³Ø±ÙŠÙÙ‘Ø© ÙÙŠ Ø¹Ù‚Ø§Ø¦Ø¯ Ø§Ù„Ø£ÙÙ…ÙÙ‘Ø© Ø§Ù„Ù…ÙØ­Ù…ÙÙ‘Ø¯ÙŠÙÙ‘Ø©","category":"Ù…ØªÙ†ÙˆØ¹"},{"id":"2SjtW_v-vBw","title":"Ø§Ù„Ø¬Ù…Ø¹ Ø¨ÙŠÙ† Ø­Ø¯ÙŠØ« (Ø¹Ø±Ø¶ Ø§Ù„Ø£Ø¹Ù…Ø§Ù„ ÙˆØ­Ø¯ÙŠØ« Ø£ÙˆÙ„Ø§ ØªØ¯Ø±ÙŠ Ù…Ø§ Ø£Ø­Ø¯Ø«ÙˆØ§ Ø¨Ø¹Ø¯Ùƒ) Ù…ÙˆÙ„Ø§Ù†Ø§ Ø¯. ÙŠØ³Ø±ÙŠ Ø¬Ø¨Ø±","publishedAt":"2014-12-06T08:10:18Z","duration":"PT4M35S","thumbnail":"https://i.ytimg.com/vi/2SjtW_v-vBw/mqdefault.jpg","viewCount":"2532","playlistId":"PLEkQk5xrP-tm8ZIu74nTOZN9KJUJu416J","playlistName":"Ù…Ù‚Ø§Ø·Ø¹ Ù…ÙÙ‡Ù…ÙÙ‘Ø© (ÙŠÙØ³Ø±ÙŠÙ‘ÙØ§Øª) Ø£.Ø¯. ÙŠØ³Ø±ÙŠ Ø¬Ø¨Ø±","category":"Ù…ØªÙ†ÙˆØ¹"},{"id":"K1XTIztOjt0","title":"108-  â€œÙ…ÙÙ†Ù’ Ø¸ÙÙ„ÙÙ… Ù‚ÙÙŠØ¯Ù Ø´ÙØ¨Ù’Ø±Ù Ù…ÙÙ† Ø§Ù„Ø£Ø±Ù’Ø¶ÙØ› Ø·ÙÙˆÙ‘ÙÙ‚ÙÙ‡Ù Ù…ÙÙ† Ø³ÙØ¨Ù’Ø¹Ù Ø£ÙØ±ÙØ¶ÙÙŠÙ†â€ - Ø´Ø±Ø­ Ø¯Ù„ÙŠÙ„ Ø§Ù„ÙØ§Ù„Ø­ÙŠÙ†","publishedAt":"2021-08-05T07:06:28Z","duration":"PT1H8M45S","thumbnail":"https://i.ytimg.com/vi/K1XTIztOjt0/mqdefault.jpg","viewCount":"2530","playlistId":"PLEkQk5xrP-tkc9DXvSLguqX5-FYp6ASR4","playlistName":"Ø¯Ù„ÙŠÙ„ Ø§Ù„ÙØ§Ù„Ø­ÙŠÙ† Ù„Ø·Ø±Ù‚ Ø±ÙŠØ§Ø¶ Ø§Ù„ØµØ§Ù„Ø­ÙŠÙ†","category":"Ù…ØªÙ†ÙˆØ¹"},{"id":"9jBkLKy6Y-s","title":"5- Ø³ÙÙ„ÙˆØ§ Ø§Ù„Ù„ÙÙ‘Ù‡Ù Ø§Ù„Ø¹ÙÙˆÙ ÙˆØ§Ù„Ø¹Ø§ÙÙŠØ©Ù - Ø´Ø±Ø­ Ù…Ø³Ù†Ø¯ Ø§Ù„Ø¥Ù…Ø§Ù… Ø£Ø­Ù…Ø¯","publishedAt":"2023-07-30T08:59:00Z","duration":"PT41M10S","thumbnail":"https://i.ytimg.com/vi/9jBkLKy6Y-s/mqdefault.jpg","viewCount":"2528","playlistId":"PLEkQk5xrP-tkKprIuGrSdEuBSMsyg5We1","playlistName":"Ø´Ø±Ø­ Ù…Ø³Ù†Ø¯ Ø§Ù„Ø¥Ù…Ø§Ù… Ø£Ø­Ù…Ø¯ Ø¨Ù† Ø­Ù†Ø¨Ù„","category":"Ù…ØªÙ†ÙˆØ¹"},{"id":"QJ_bcw_HMNI","title":"139- ÙƒÙŠÙ ÙŠÙƒÙˆÙ† Ù†Ø´Ø§Ø·Ùƒ Ø§Ù„ÙŠÙˆÙ…ÙŠ Ù…Ø¹ ØªØºÙŠØ± Ø§Ù„Ø£Ø­ÙˆØ§Ù„ØŸ - Ø´Ø±Ø­ Ù…Ø³Ù†Ø¯ Ø§Ù„Ø¥Ù…Ø§Ù… Ø£Ø­Ù…Ø¯ Ø±Ø¶ÙŠ Ø§Ù„Ù„Ù‡ ØªØ¹Ø§Ù„Ù‰ Ø¹Ù†Ù‡","publishedAt":"2024-11-21T06:00:22Z","duration":"PT30M6S","thumbnail":"https://i.ytimg.com/vi/QJ_bcw_HMNI/mqdefault.jpg","viewCount":"2525","playlistId":"PLEkQk5xrP-tkKprIuGrSdEuBSMsyg5We1","playlistName":"Ø´Ø±Ø­ Ù…Ø³Ù†Ø¯ Ø§Ù„Ø¥Ù…Ø§Ù… Ø£Ø­Ù…Ø¯ Ø¨Ù† Ø­Ù†Ø¨Ù„","category":"Ù…ØªÙ†ÙˆØ¹"},{"id":"IJValUpcEjc","title":"Ø¹Ù†Ø§ÙŠØªÙÙ‡ ÙÙŠÙƒ Ù„Ø§ Ù„Ø´ÙŠØ¡ Ù…Ù†ÙƒØŒ ÙˆØ£ÙŠÙ† ÙƒÙ†Øª Ø­ÙŠÙ† ÙˆØ§Ø¬Ù‡ØªÙ’Ùƒ Ø¹Ù†Ø§ÙŠØªÙÙ‡ØŒ ÙˆÙ‚Ø§Ø¨Ù„ØªÙ’Ùƒ Ø±Ø¹Ø§ÙŠØªÙÙ‡","publishedAt":"2017-05-04T19:50:50Z","duration":"PT4M57S","thumbnail":"https://i.ytimg.com/vi/IJValUpcEjc/mqdefault.jpg","viewCount":"2521","playlistId":"PLEkQk5xrP-tkI_meE148wc7V7XHlB0WPb","playlistName":"Ù…Ù† Ø§Ù„Ø­ÙƒÙ… Ø§Ù„Ø¹Ø·Ø§Ø¦ÙŠØ©  Ø¯. ÙŠØ³Ø±ÙŠ Ø¬Ø¨Ø±","category":"Ù…ØªÙ†ÙˆØ¹"},{"id":"tqd3ltVk50Q","title":"Ù…Ø§ Ø­ÙƒÙ… Ù…Ø®Ø§Ù„ÙØ© Ø§Ù„Ù‚Ø§Ù†ÙˆÙ† Ø£Ùˆ Ø§Ù„ØªØ­Ø§ÙŠÙ„ Ø¹Ù„ÙŠÙ‡ØŸ","publishedAt":"2024-06-03T17:43:38Z","duration":"PT8M7S","thumbnail":"https://i.ytimg.com/vi/tqd3ltVk50Q/mqdefault.jpg","viewCount":"2518","playlistId":"PLEkQk5xrP-tkGXuZ9atE3k_7it12rUPTs","playlistName":"Ø£Ø³Ø¦Ù„Ø© Ø§Ù„Ù…ØªØ§Ø¨Ø¹ÙŠÙ†","category":"Ù…ØªÙ†ÙˆØ¹"},{"id":"Q8XDe2l1ZBE","title":"Ø´Ø±Ø­ ÙƒØªØ§Ø¨ Ø¨Ù‡Ø¬Ø© Ø§Ù„Ù†ÙÙˆØ³ - Ø§Ù„Ù…Ø¬Ù„Ø³ Ø§Ù„Ø®Ø§Ù…Ø³","publishedAt":"2020-04-27T20:30:10Z","duration":"PT50M3S","thumbnail":"https://i.ytimg.com/vi/Q8XDe2l1ZBE/mqdefault.jpg","viewCount":"2517","playlistId":"PLEkQk5xrP-tlyEB2iywk4VchTQROnBrU6","playlistName":"Ø¨Ù‡Ø¬Ø© Ø§Ù„Ù†ÙÙˆØ³ Ù…Ù† Ø£ÙˆÙ„Ù‡  Ø£.Ø¯. ÙŠØ³Ø±ÙŠ Ø¬Ø¨Ø±","category":"Ù…ØªÙ†ÙˆØ¹"},{"id":"rYfW9-b08iM","title":"218- Ø§Ù„Ø­ÙØ±ØµÙ Ø¹Ù„Ù‰ Ø¥Ø·Ø¹Ø§Ù…Ù Ø§Ù„Ø·Ù‘ÙØ¹Ø§Ù… | Ø¨ÙØ±ÙÙƒÙØ©Ù Ø§Ù„Ù†Ù‘ÙØ¨ÙŠÙ‘ ï·º ÙÙŠ Ø¥Ø·Ø¹Ø§Ù… Ø§Ù„Ù‚ÙˆÙ… Ø­ØªÙ‰ Ø´Ø¨ÙØ¹ÙˆØ§ - Ø´Ø±Ø­ Ø¯Ù„ÙŠÙ„ Ø§Ù„ÙØ§Ù„Ø­ÙŠÙ†","publishedAt":"2022-03-17T07:58:26Z","duration":"PT44M52S","thumbnail":"https://i.ytimg.com/vi/rYfW9-b08iM/mqdefault.jpg","viewCount":"2510","playlistId":"PLEkQk5xrP-tkc9DXvSLguqX5-FYp6ASR4","playlistName":"Ø¯Ù„ÙŠÙ„ Ø§Ù„ÙØ§Ù„Ø­ÙŠÙ† Ù„Ø·Ø±Ù‚ Ø±ÙŠØ§Ø¶ Ø§Ù„ØµØ§Ù„Ø­ÙŠÙ†","category":"Ù…ØªÙ†ÙˆØ¹"},{"id":"IJFBj4cQyZU","title":"Ù…Ø¬Ù„Ø³ Ù…Ø±ÙƒØ² ÙƒØ§Ù…Ø¨Ø±ÙŠØ¯Ø¬ Ø§Ù„Ù‚Ø±Ø¢Ù†ÙŠ | Ø§Ù†Ø¬Ù„ØªØ±Ø§ğŸ“","publishedAt":"2025-05-31T18:17:55Z","duration":"PT21M36S","thumbnail":"https://i.ytimg.com/vi/IJFBj4cQyZU/mqdefault.jpg","viewCount":"2507","playlistId":"PLEkQk5xrP-tm8ZIu74nTOZN9KJUJu416J","playlistName":"Ù…Ù‚Ø§Ø·Ø¹ Ù…ÙÙ‡Ù…ÙÙ‘Ø© (ÙŠÙØ³Ø±ÙŠÙ‘ÙØ§Øª) Ø£.Ø¯. ÙŠØ³Ø±ÙŠ Ø¬Ø¨Ø±","category":"Ù…ØªÙ†ÙˆØ¹"},{"id":"oy4G-AxSdiA","title":"Ø§Ù„ØµØ±Ø§Ø· Ø¹Ù„Ù‰ Ù…ØªÙ† Ø¬Ù‡Ù†Ù…","publishedAt":"2020-12-05T17:45:02Z","duration":"PT4M44S","thumbnail":"https://i.ytimg.com/vi/oy4G-AxSdiA/mqdefault.jpg","viewCount":"2506","playlistId":"PLEkQk5xrP-tm8ZIu74nTOZN9KJUJu416J","playlistName":"Ù…Ù‚Ø§Ø·Ø¹ Ù…ÙÙ‡Ù…ÙÙ‘Ø© (ÙŠÙØ³Ø±ÙŠÙ‘ÙØ§Øª) Ø£.Ø¯. ÙŠØ³Ø±ÙŠ Ø¬Ø¨Ø±","category":"Ù…ØªÙ†ÙˆØ¹"}],"total":4126,"page":57,"pageSize":24,"totalPages":172}