{"items":[{"id":"U9gsf5B7Shw","title":"لماذا خص الله الصيام بأجر من عنده؟ | مجالس رمضانية","publishedAt":"2025-03-22T15:00:37Z","duration":"PT24M13S","thumbnail":"https://i.ytimg.com/vi/U9gsf5B7Shw/mqdefault.jpg","viewCount":"1574","playlistId":"PLEkQk5xrP-tkeI_WVPfuoTJO46aVkpaz0","playlistName":"شرح كتاب ميزان الاعتدال لحفظ الدين والأحوال","category":"متنوع"},{"id":"VZwKzEC2SHQ","title":"117- دعاء الكرب - شرح مسند الإمام أحمد رضي الله تعالى عنه","publishedAt":"2024-07-18T05:30:11Z","duration":"PT33M39S","thumbnail":"https://i.ytimg.com/vi/VZwKzEC2SHQ/mqdefault.jpg","viewCount":"1573","playlistId":"PLEkQk5xrP-tkKprIuGrSdEuBSMsyg5We1","playlistName":"شرح مسند الإمام أحمد بن حنبل","category":"متنوع"},{"id":"XQoyyGJDbJs","title":"274- التبشيرُ بالجَنَّة - شرح دليل الفالحين","publishedAt":"2022-06-30T05:30:06Z","duration":"PT50M22S","thumbnail":"https://i.ytimg.com/vi/XQoyyGJDbJs/mqdefault.jpg","viewCount":"1572","playlistId":"PLEkQk5xrP-tkc9DXvSLguqX5-FYp6ASR4","playlistName":"دليل الفالحين لطرق رياض الصالحين","category":"متنوع"},{"id":"2dYcFCF3Y8k","title":"142- بِرُّ الوالدَيْن وصِلةُ الأرحام - شرح دليل الفالحين","publishedAt":"2021-10-16T07:20:55Z","duration":"PT39M43S","thumbnail":"https://i.ytimg.com/vi/2dYcFCF3Y8k/mqdefault.jpg","viewCount":"1572","playlistId":"PLEkQk5xrP-tkc9DXvSLguqX5-FYp6ASR4","playlistName":"دليل الفالحين لطرق رياض الصالحين","category":"متنوع"},{"id":"MN2qJCne5qg","title":"القصيدة المُضرية في الصلاة على خير البرية  للإمام البوصيري رضي الله تعالى عنه   د. يسري جبر","publishedAt":"2018-09-01T19:00:35Z","duration":"PT5M41S","thumbnail":"https://i.ytimg.com/vi/MN2qJCne5qg/mqdefault.jpg","viewCount":"1571","playlistId":"PLEkQk5xrP-tk3OeVFoMfKhOhyINnlPeYZ","playlistName":"الحَضْرَةُ الصِّدِّيقِيَّة والأوْرَاد","category":"متنوع"},{"id":"AiM7mSyJLZg","title":"46- الفرق بين المَني والمذي والودي | صفات الخوارج - شرح مسند الإمام أحمد","publishedAt":"2023-12-03T06:47:10Z","duration":"PT36M35S","thumbnail":"https://i.ytimg.com/vi/AiM7mSyJLZg/mqdefault.jpg","viewCount":"1570","playlistId":"PLEkQk5xrP-tkKprIuGrSdEuBSMsyg5We1","playlistName":"شرح مسند الإمام أحمد بن حنبل","category":"متنوع"},{"id":"Rcvi2VP8Fkg","title":"404- لماذا نستغفر بعد الصلاة؟ وما هي الأذكار التي تُقال بعدها؟ - شرح دليل الفالحين","publishedAt":"2023-02-25T05:00:08Z","duration":"PT39M43S","thumbnail":"https://i.ytimg.com/vi/Rcvi2VP8Fkg/mqdefault.jpg","viewCount":"1570","playlistId":"PLEkQk5xrP-tkc9DXvSLguqX5-FYp6ASR4","playlistName":"دليل الفالحين لطرق رياض الصالحين","category":"متنوع"},{"id":"ayLCEef7Bx4","title":"من علامة إقامة الحق لك في الشيء: إدامته إياك فيه مع حصول النتائج","publishedAt":"2017-06-12T17:26:11Z","duration":"PT3M48S","thumbnail":"https://i.ytimg.com/vi/ayLCEef7Bx4/mqdefault.jpg","viewCount":"1566","playlistId":"PLEkQk5xrP-tkI_meE148wc7V7XHlB0WPb","playlistName":"من الحكم العطائية  د. يسري جبر","category":"متنوع"},{"id":"MKdIgzJaUBY","title":"شرح كتاب منازل السائرين للإمام الهروى المجلس الخمسون قسم الولايات باب السر وباب النَفَس","publishedAt":"2015-05-26T04:11:17Z","duration":"PT1H15M22S","thumbnail":"https://i.ytimg.com/vi/MKdIgzJaUBY/mqdefault.jpg","viewCount":"1563","playlistId":"PLEkQk5xrP-tnLYi_5_tSRVBwqcs7ISV7Y","playlistName":"شرح كتاب منازل السائرين للإمام الهروي","category":"متنوع"},{"id":"HU1n6pC0Ydk","title":"إدخار الطعام | أ.د. يسري جبر","publishedAt":"2021-05-07T16:00:07Z","duration":"PT25M28S","thumbnail":"https://i.ytimg.com/vi/HU1n6pC0Ydk/mqdefault.jpg","viewCount":"1562","playlistId":"PLEkQk5xrP-tnl7vb7KeAoPd5ZlqKKW8KV","playlistName":"شرح كتاب بهجة النفوس أ.د . يسرى جبر","category":"متنوع"},{"id":"vd7YLbbuSmo","title":"182- \"…ما من عبدٍ يشهدُ أنَّ لا إله إلَّا اللَّه، وأنَّ مُحَمَّدا عبدُه ورسولُه…\"- شرح دليل الفالحين","publishedAt":"2022-01-09T06:53:27Z","duration":"PT31M20S","thumbnail":"https://i.ytimg.com/vi/vd7YLbbuSmo/mqdefault.jpg","viewCount":"1561","playlistId":"PLEkQk5xrP-tkc9DXvSLguqX5-FYp6ASR4","playlistName":"دليل الفالحين لطرق رياض الصالحين","category":"متنوع"},{"id":"1j88-rC7GkA","title":"45- الحث على أفضل القربات وأحسنها والمبادرة إليها - شرح مسند الإمام أحمد","publishedAt":"2023-11-30T06:44:14Z","duration":"PT33M44S","thumbnail":"https://i.ytimg.com/vi/1j88-rC7GkA/mqdefault.jpg","viewCount":"1559","playlistId":"PLEkQk5xrP-tkKprIuGrSdEuBSMsyg5We1","playlistName":"شرح مسند الإمام أحمد بن حنبل","category":"متنوع"},{"id":"YY7eepGCvuY","title":"66- التحذير مما نهى عنه النَّبيّ ﷺ وأهمية ما أمر به ﷺ - شرح مسند الإمام أحمد رضي الله عنه","publishedAt":"2024-01-22T06:30:16Z","duration":"PT27M50S","thumbnail":"https://i.ytimg.com/vi/YY7eepGCvuY/mqdefault.jpg","viewCount":"1556","playlistId":"PLEkQk5xrP-tkKprIuGrSdEuBSMsyg5We1","playlistName":"شرح مسند الإمام أحمد بن حنبل","category":"متنوع"},{"id":"b8JiPUEFrjA","title":"251 - حُسْنُ الخُلُق - شرح دليل الفالحين","publishedAt":"2022-05-21T19:50:00Z","duration":"PT35M54S","thumbnail":"https://i.ytimg.com/vi/b8JiPUEFrjA/mqdefault.jpg","viewCount":"1554","playlistId":"PLEkQk5xrP-tkc9DXvSLguqX5-FYp6ASR4","playlistName":"دليل الفالحين لطرق رياض الصالحين","category":"متنوع"},{"id":"5ElBDTlku-Y","title":"226- ما من يومٍ يُصبحُ العبادُ فيه إلا وملَكانِ ينزلانِ ، فيقولُ أحدُهما…\" - شرح دليل الفالحين","publishedAt":"2022-04-02T05:17:01Z","duration":"PT31M28S","thumbnail":"https://i.ytimg.com/vi/5ElBDTlku-Y/mqdefault.jpg","viewCount":"1552","playlistId":"PLEkQk5xrP-tkc9DXvSLguqX5-FYp6ASR4","playlistName":"دليل الفالحين لطرق رياض الصالحين","category":"متنوع"},{"id":"in7kclKxrrw","title":"134- …\"ما حقُّ زَوجةِ أحدِنا علَيهِ ؟ ، قالَ : أن تُطْعِمَها إذا طَعِمْتَ…\" شرح دليل الفالحين","publishedAt":"2021-09-30T20:03:25Z","duration":"PT37M24S","thumbnail":"https://i.ytimg.com/vi/in7kclKxrrw/mqdefault.jpg","viewCount":"1548","playlistId":"PLEkQk5xrP-tkc9DXvSLguqX5-FYp6ASR4","playlistName":"دليل الفالحين لطرق رياض الصالحين","category":"متنوع"},{"id":"4r9QReW8aBY","title":"222- حُكمُ مَا أُخِذَ بسَيفِ الحَيَاء - شرح دليل الفالحين","publishedAt":"2022-03-29T20:57:35Z","duration":"PT1H11M58S","thumbnail":"https://i.ytimg.com/vi/4r9QReW8aBY/mqdefault.jpg","viewCount":"1542","playlistId":"PLEkQk5xrP-tkc9DXvSLguqX5-FYp6ASR4","playlistName":"دليل الفالحين لطرق رياض الصالحين","category":"متنوع"},{"id":"lOcCFJqLM-0","title":"35- بابُ الصَّبر:الحديثُ الأول \"...والحمدُ للهِ تملأُ الميزانَ...\" شرح دليل الفالحين","publishedAt":"2021-03-27T05:49:09Z","duration":"PT33M36S","thumbnail":"https://i.ytimg.com/vi/lOcCFJqLM-0/mqdefault.jpg","viewCount":"1539","playlistId":"PLEkQk5xrP-tkc9DXvSLguqX5-FYp6ASR4","playlistName":"دليل الفالحين لطرق رياض الصالحين","category":"متنوع"},{"id":"awXcOjBhuBM","title":"220- قَدْ أفْلَحَ مَن أَسْلَمَ، ورُزِقَ كَفَافًا، وقَنَّعَهُ اللَّهُ بما آتَاهُ - شرح دليل الفالحين","publishedAt":"2022-03-24T21:54:53Z","duration":"PT35M49S","thumbnail":"https://i.ytimg.com/vi/awXcOjBhuBM/mqdefault.jpg","viewCount":"1537","playlistId":"PLEkQk5xrP-tkc9DXvSLguqX5-FYp6ASR4","playlistName":"دليل الفالحين لطرق رياض الصالحين","category":"متنوع"},{"id":"xxBDI0Ftv18","title":"لُغَتُنَا الجَمِيلَةُ. أ.د. يسري جبر","publishedAt":"2019-11-17T18:49:51Z","duration":"PT3M50S","thumbnail":"https://i.ytimg.com/vi/xxBDI0Ftv18/mqdefault.jpg","viewCount":"1537","playlistId":"PLEkQk5xrP-tm8ZIu74nTOZN9KJUJu416J","playlistName":"مقاطع مُهمَّة (يُسريَّات) أ.د. يسري جبر","category":"متنوع"},{"id":"LDN50RPJ6zc","title":"324- الدُّعاءُ المُستجاب - شرح دليل الفالحين","publishedAt":"2022-11-02T09:00:08Z","duration":"PT40M7S","thumbnail":"https://i.ytimg.com/vi/LDN50RPJ6zc/mqdefault.jpg","viewCount":"1535","playlistId":"PLEkQk5xrP-tkc9DXvSLguqX5-FYp6ASR4","playlistName":"دليل الفالحين لطرق رياض الصالحين","category":"متنوع"},{"id":"K6H1ytWqfAE","title":"123- فضل ضعفة المسلمين والفقراء والخاملين - شرح دليل الفالحين","publishedAt":"2021-09-07T08:00:55Z","duration":"PT28M15S","thumbnail":"https://i.ytimg.com/vi/K6H1ytWqfAE/mqdefault.jpg","viewCount":"1531","playlistId":"PLEkQk5xrP-tkc9DXvSLguqX5-FYp6ASR4","playlistName":"دليل الفالحين لطرق رياض الصالحين","category":"متنوع"},{"id":"LI2-uglktIk","title":"115-\"إنِّي لأقوم إلى الصَّلاة وأريدُ أن أطوِّل فيها فأسمع بُكاءَ الطفل فأتجوَّز …\" شرح دليل الفالحين","publishedAt":"2021-08-20T06:03:17Z","duration":"PT39M2S","thumbnail":"https://i.ytimg.com/vi/LI2-uglktIk/mqdefault.jpg","viewCount":"1527","playlistId":"PLEkQk5xrP-tkc9DXvSLguqX5-FYp6ASR4","playlistName":"دليل الفالحين لطرق رياض الصالحين","category":"متنوع"},{"id":"BYRnQjGt_LU","title":"شرح كتاب منازل السائرين للإمام الهروى - المجلس الخامس والثلاثون قسم الأُصول باب اليقين وباب الأنس","publishedAt":"2016-01-07T17:20:12Z","duration":"PT1H34M47S","thumbnail":"https://i.ytimg.com/vi/BYRnQjGt_LU/mqdefault.jpg","viewCount":"1526","playlistId":"PLEkQk5xrP-tnLYi_5_tSRVBwqcs7ISV7Y","playlistName":"شرح كتاب منازل السائرين للإمام الهروي","category":"متنوع"}],"total":4129,"page":75,"pageSize":24,"totalPages":173}