{"items":[{"id":"QgPoLetAUvQ","title":"شرح سنن الدارمي كتاب الاستئذان من باب ٤٠","publishedAt":"2019-09-23T10:38:39Z","duration":"PT22M41S","thumbnail":"https://i.ytimg.com/vi/QgPoLetAUvQ/mqdefault.jpg","viewCount":"326","playlistId":"PLEkQk5xrP-tmAg-FuWjY057X_h5NmGmAa","playlistName":"شرح سنن الدارمي - أ.د. يسري جبر (كاملا)","category":"متنوع"},{"id":"0w5gqtXvYCY","title":"شرح سنن الدارمي كتاب الأضاحي من باب ١٠","publishedAt":"2019-07-21T16:00:42Z","duration":"PT30M11S","thumbnail":"https://i.ytimg.com/vi/0w5gqtXvYCY/mqdefault.jpg","viewCount":"326","playlistId":"PLEkQk5xrP-tmAg-FuWjY057X_h5NmGmAa","playlistName":"شرح سنن الدارمي - أ.د. يسري جبر (كاملا)","category":"متنوع"},{"id":"KZ_mWOAnHEM","title":"مقرأة سورة محمد من آية ٢٥","publishedAt":"2019-01-15T15:11:57Z","duration":"PT13M8S","thumbnail":"https://i.ytimg.com/vi/KZ_mWOAnHEM/mqdefault.jpg","viewCount":"325","playlistId":"PLEkQk5xrP-tnmTYsyW6xNdyfhPq0Bhrhj","playlistName":"مقرأة الفجر - القُرْآنُ الكَرِيمُ - خَتْمَةُ التَّدَبُّرِ  أ.د. يسري جبر","category":"متنوع"},{"id":"i4VvgPBq378","title":"شرح سنن الدارمي كتاب الصوم من باب ١٤","publishedAt":"2019-06-14T20:11:06Z","duration":"PT22M10S","thumbnail":"https://i.ytimg.com/vi/i4VvgPBq378/mqdefault.jpg","viewCount":"325","playlistId":"PLEkQk5xrP-tmAg-FuWjY057X_h5NmGmAa","playlistName":"شرح سنن الدارمي - أ.د. يسري جبر (كاملا)","category":"متنوع"},{"id":"nOrvdE8aC44","title":"مقرأة سورة العنكبوت من آية ٨","publishedAt":"2018-06-04T07:49:15Z","duration":"PT13M53S","thumbnail":"https://i.ytimg.com/vi/nOrvdE8aC44/mqdefault.jpg","viewCount":"325","playlistId":"PLEkQk5xrP-tnmTYsyW6xNdyfhPq0Bhrhj","playlistName":"مقرأة الفجر - القُرْآنُ الكَرِيمُ - خَتْمَةُ التَّدَبُّرِ  أ.د. يسري جبر","category":"متنوع"},{"id":"dqnaQGeIS1Q","title":"مقرأة سورة يونس من آية ٥٣","publishedAt":"2017-05-17T12:41:24Z","duration":"PT14M15S","thumbnail":"https://i.ytimg.com/vi/dqnaQGeIS1Q/mqdefault.jpg","viewCount":"325","playlistId":"PLEkQk5xrP-tnmTYsyW6xNdyfhPq0Bhrhj","playlistName":"مقرأة الفجر - القُرْآنُ الكَرِيمُ - خَتْمَةُ التَّدَبُّرِ  أ.د. يسري جبر","category":"متنوع"},{"id":"lqkR5amBXkE","title":"مقرأة سورة سبأ من آية ٣٨","publishedAt":"2018-08-14T10:23:39Z","duration":"PT10M52S","thumbnail":"https://i.ytimg.com/vi/lqkR5amBXkE/mqdefault.jpg","viewCount":"324","playlistId":"PLEkQk5xrP-tnmTYsyW6xNdyfhPq0Bhrhj","playlistName":"مقرأة الفجر - القُرْآنُ الكَرِيمُ - خَتْمَةُ التَّدَبُّرِ  أ.د. يسري جبر","category":"متنوع"},{"id":"kHPMbySmr3Y","title":"شرح سنن الدارمي كتاب السير من باب ٤٠","publishedAt":"2019-08-31T17:13:33Z","duration":"PT24M","thumbnail":"https://i.ytimg.com/vi/kHPMbySmr3Y/mqdefault.jpg","viewCount":"324","playlistId":"PLEkQk5xrP-tmAg-FuWjY057X_h5NmGmAa","playlistName":"شرح سنن الدارمي - أ.د. يسري جبر (كاملا)","category":"متنوع"},{"id":"gj2H3uDSqW8","title":"شرح سنن الدارمي كتاب الطهارة من باب ١١٠","publishedAt":"2019-04-22T08:09:53Z","duration":"PT24M3S","thumbnail":"https://i.ytimg.com/vi/gj2H3uDSqW8/mqdefault.jpg","viewCount":"324","playlistId":"PLEkQk5xrP-tmAg-FuWjY057X_h5NmGmAa","playlistName":"شرح سنن الدارمي - أ.د. يسري جبر (كاملا)","category":"متنوع"},{"id":"r1NbVXxl93c","title":"مقرأة سورة الإسراء من آية ٨٦","publishedAt":"2017-10-09T11:03:59Z","duration":"PT19M10S","thumbnail":"https://i.ytimg.com/vi/r1NbVXxl93c/mqdefault.jpg","viewCount":"323","playlistId":"PLEkQk5xrP-tnmTYsyW6xNdyfhPq0Bhrhj","playlistName":"مقرأة الفجر - القُرْآنُ الكَرِيمُ - خَتْمَةُ التَّدَبُّرِ  أ.د. يسري جبر","category":"متنوع"},{"id":"LxA9vNq0e0E","title":"مقرأة سورة الشورى من آية ١٣","publishedAt":"2018-11-30T05:13:10Z","duration":"PT15M7S","thumbnail":"https://i.ytimg.com/vi/LxA9vNq0e0E/mqdefault.jpg","viewCount":"323","playlistId":"PLEkQk5xrP-tnmTYsyW6xNdyfhPq0Bhrhj","playlistName":"مقرأة الفجر - القُرْآنُ الكَرِيمُ - خَتْمَةُ التَّدَبُّرِ  أ.د. يسري جبر","category":"متنوع"},{"id":"EtWmLO8P11g","title":"شرح سنن الدارمي كتاب الزكاة من باب ٤","publishedAt":"2019-06-06T22:28:26Z","duration":"PT35M1S","thumbnail":"https://i.ytimg.com/vi/EtWmLO8P11g/mqdefault.jpg","viewCount":"322","playlistId":"PLEkQk5xrP-tmAg-FuWjY057X_h5NmGmAa","playlistName":"شرح سنن الدارمي - أ.د. يسري جبر (كاملا)","category":"متنوع"},{"id":"PfbFCdnlFeI","title":"حديث (١٧٨) حديثُ فَضَائِلِ رَمَضَانَ.    أ.د. يسري جبر","publishedAt":"2019-06-01T11:20:17Z","duration":"PT14M15S","thumbnail":"https://i.ytimg.com/vi/PfbFCdnlFeI/mqdefault.jpg","viewCount":"322","playlistId":"PLEkQk5xrP-tnl7vb7KeAoPd5ZlqKKW8KV","playlistName":"شرح كتاب بهجة النفوس أ.د . يسرى جبر","category":"متنوع"},{"id":"zPKnLh6ch78","title":"مقرأة سورة النمل من آية ١٥","publishedAt":"2018-04-27T07:48:13Z","duration":"PT23M6S","thumbnail":"https://i.ytimg.com/vi/zPKnLh6ch78/mqdefault.jpg","viewCount":"322","playlistId":"PLEkQk5xrP-tnmTYsyW6xNdyfhPq0Bhrhj","playlistName":"مقرأة الفجر - القُرْآنُ الكَرِيمُ - خَتْمَةُ التَّدَبُّرِ  أ.د. يسري جبر","category":"متنوع"},{"id":"rfmjpK64kJ0","title":"مقرأة سورة الفرقان من أولها","publishedAt":"2018-03-26T04:35:54Z","duration":"PT12M33S","thumbnail":"https://i.ytimg.com/vi/rfmjpK64kJ0/mqdefault.jpg","viewCount":"322","playlistId":"PLEkQk5xrP-tnmTYsyW6xNdyfhPq0Bhrhj","playlistName":"مقرأة الفجر - القُرْآنُ الكَرِيمُ - خَتْمَةُ التَّدَبُّرِ  أ.د. يسري جبر","category":"متنوع"},{"id":"WjN2AdiPOGM","title":"مقرأة سورة المؤمنون آية ٦٣","publishedAt":"2018-02-28T20:22:31Z","duration":"PT13M2S","thumbnail":"https://i.ytimg.com/vi/WjN2AdiPOGM/mqdefault.jpg","viewCount":"322","playlistId":"PLEkQk5xrP-tnmTYsyW6xNdyfhPq0Bhrhj","playlistName":"مقرأة الفجر - القُرْآنُ الكَرِيمُ - خَتْمَةُ التَّدَبُّرِ  أ.د. يسري جبر","category":"متنوع"},{"id":"nLnWgQ_PlKE","title":"مقرأة سورة الزخرف من آية ٥٦","publishedAt":"2018-12-18T12:09:07Z","duration":"PT17M18S","thumbnail":"https://i.ytimg.com/vi/nLnWgQ_PlKE/mqdefault.jpg","viewCount":"322","playlistId":"PLEkQk5xrP-tnmTYsyW6xNdyfhPq0Bhrhj","playlistName":"مقرأة الفجر - القُرْآنُ الكَرِيمُ - خَتْمَةُ التَّدَبُّرِ  أ.د. يسري جبر","category":"متنوع"},{"id":"wrvGOGE6RUs","title":"مقرأة سورة يونس من آية ١٧","publishedAt":"2017-05-10T11:02:34Z","duration":"PT10M57S","thumbnail":"https://i.ytimg.com/vi/wrvGOGE6RUs/mqdefault.jpg","viewCount":"322","playlistId":"PLEkQk5xrP-tnmTYsyW6xNdyfhPq0Bhrhj","playlistName":"مقرأة الفجر - القُرْآنُ الكَرِيمُ - خَتْمَةُ التَّدَبُّرِ  أ.د. يسري جبر","category":"متنوع"},{"id":"l1pcWX4DUkk","title":"43- إِهْلاَلِ أَهْلِ مَكَّةَ وَمَنْ بِهَا مِنْ غَيْرِهِمْ  كتاب الحج ك الموطأ د يسري جبر الأزهري","publishedAt":"2017-02-24T23:54:13Z","duration":"PT59M30S","thumbnail":"https://i.ytimg.com/vi/l1pcWX4DUkk/mqdefault.jpg","viewCount":"322","playlistId":"PLEkQk5xrP-tnC6BRuqMjyO-484iqXeg0o","playlistName":"شرح كتاب الموطأ للإمام مالك","category":"متنوع"},{"id":"Ya2cgmrzZBQ","title":"سورة المائدة آية 97","publishedAt":"2016-11-23T06:58:58Z","duration":"PT7M59S","thumbnail":"https://i.ytimg.com/vi/Ya2cgmrzZBQ/mqdefault.jpg","viewCount":"322","playlistId":"PLEkQk5xrP-tnmTYsyW6xNdyfhPq0Bhrhj","playlistName":"مقرأة الفجر - القُرْآنُ الكَرِيمُ - خَتْمَةُ التَّدَبُّرِ  أ.د. يسري جبر","category":"متنوع"},{"id":"pL9cFTSRKPQ","title":"( 119 ) حديث الإفك وبراءة السيدة عائشة أم المؤمنين منه - المجلس الرابع عشر د. يسري جبر","publishedAt":"2017-05-28T14:15:59Z","duration":"PT39M23S","thumbnail":"https://i.ytimg.com/vi/pL9cFTSRKPQ/mqdefault.jpg","viewCount":"321","playlistId":"PLEkQk5xrP-tnl7vb7KeAoPd5ZlqKKW8KV","playlistName":"شرح كتاب بهجة النفوس أ.د . يسرى جبر","category":"متنوع"},{"id":"-_y0GstqaL8","title":"35- مَا لاَ زَكَاةَ فِيهِ مِنَ الْفَوَاكِهِ وَالْقَضْبِ وَالْبُقُولِ كتاب الزكاة ك الموطأ د يسري جبر","publishedAt":"2016-12-02T12:15:06Z","duration":"PT1H6M55S","thumbnail":"https://i.ytimg.com/vi/-_y0GstqaL8/mqdefault.jpg","viewCount":"321","playlistId":"PLEkQk5xrP-tnC6BRuqMjyO-484iqXeg0o","playlistName":"شرح كتاب الموطأ للإمام مالك","category":"متنوع"},{"id":"5fGwp3iUsyc","title":"مقرأة سورة السجدة من آية ٦","publishedAt":"2018-07-11T10:59:42Z","duration":"PT7M33S","thumbnail":"https://i.ytimg.com/vi/5fGwp3iUsyc/mqdefault.jpg","viewCount":"320","playlistId":"PLEkQk5xrP-tnmTYsyW6xNdyfhPq0Bhrhj","playlistName":"مقرأة الفجر - القُرْآنُ الكَرِيمُ - خَتْمَةُ التَّدَبُّرِ  أ.د. يسري جبر","category":"متنوع"},{"id":"yn5_0MR1pTw","title":"مقرأة سورة الإسراء من آية ٤١","publishedAt":"2017-09-25T13:12:42Z","duration":"PT12M58S","thumbnail":"https://i.ytimg.com/vi/yn5_0MR1pTw/mqdefault.jpg","viewCount":"320","playlistId":"PLEkQk5xrP-tnmTYsyW6xNdyfhPq0Bhrhj","playlistName":"مقرأة الفجر - القُرْآنُ الكَرِيمُ - خَتْمَةُ التَّدَبُّرِ  أ.د. يسري جبر","category":"متنوع"}],"total":4126,"page":148,"pageSize":24,"totalPages":172}