{"items":[{"id":"JNzxRMMp-J0","title":"شرح كتاب الدعوات من سنن الترمذي - المجلس السابع عشر","publishedAt":"2016-06-01T19:23:58Z","duration":"PT39M22S","thumbnail":"https://i.ytimg.com/vi/JNzxRMMp-J0/mqdefault.jpg","viewCount":"128","playlistId":"PLEkQk5xrP-tnu6of679SvxdVx0qSrJzmb","playlistName":"شرح سنن الإمام الترمذي رضى الله عنه د. يسري جبر","category":"متنوع"},{"id":"uVsZICF2jKk","title":"شرح كتاب تفسير القرآن من سنن الترمذي - المجلس العاشر","publishedAt":"2016-04-17T05:17:31Z","duration":"PT38M14S","thumbnail":"https://i.ytimg.com/vi/uVsZICF2jKk/mqdefault.jpg","viewCount":"127","playlistId":"PLEkQk5xrP-tnu6of679SvxdVx0qSrJzmb","playlistName":"شرح سنن الإمام الترمذي رضى الله عنه د. يسري جبر","category":"متنوع"},{"id":"TgOV5aBVP4M","title":"شرح كتاب المناقب من سنن الترمذي - المجلس التاسع","publishedAt":"2016-06-10T08:18:44Z","duration":"PT16M44S","thumbnail":"https://i.ytimg.com/vi/TgOV5aBVP4M/mqdefault.jpg","viewCount":"127","playlistId":"PLEkQk5xrP-tnu6of679SvxdVx0qSrJzmb","playlistName":"شرح سنن الإمام الترمذي رضى الله عنه د. يسري جبر","category":"متنوع"},{"id":"OTSt55Cr8dc","title":"شرح كتاب الزهد من سنن الترمذي - المجلس السابع","publishedAt":"2016-01-08T07:44:57Z","duration":"PT36M48S","thumbnail":"https://i.ytimg.com/vi/OTSt55Cr8dc/mqdefault.jpg","viewCount":"127","playlistId":"PLEkQk5xrP-tnu6of679SvxdVx0qSrJzmb","playlistName":"شرح سنن الإمام الترمذي رضى الله عنه د. يسري جبر","category":"متنوع"},{"id":"LHCOOta-gJ0","title":"شرح كتاب الدعوات من سنن الترمذي - المجلس الثاني عشر","publishedAt":"2016-05-28T02:19:28Z","duration":"PT37M31S","thumbnail":"https://i.ytimg.com/vi/LHCOOta-gJ0/mqdefault.jpg","viewCount":"127","playlistId":"PLEkQk5xrP-tnu6of679SvxdVx0qSrJzmb","playlistName":"شرح سنن الإمام الترمذي رضى الله عنه د. يسري جبر","category":"متنوع"},{"id":"csarGmK-76k","title":"شرح كتاب المناقب من سنن الترمذي - المجلس الخامس","publishedAt":"2016-06-06T18:25:02Z","duration":"PT31M40S","thumbnail":"https://i.ytimg.com/vi/csarGmK-76k/mqdefault.jpg","viewCount":"126","playlistId":"PLEkQk5xrP-tnu6of679SvxdVx0qSrJzmb","playlistName":"شرح سنن الإمام الترمذي رضى الله عنه د. يسري جبر","category":"متنوع"},{"id":"dGDQ3RMvTA0","title":"شرح كتاب تفسير القرآن من سنن الترمذي - المجلس السادس والثلاثون","publishedAt":"2016-05-13T01:28:43Z","duration":"PT47M3S","thumbnail":"https://i.ytimg.com/vi/dGDQ3RMvTA0/mqdefault.jpg","viewCount":"124","playlistId":"PLEkQk5xrP-tnu6of679SvxdVx0qSrJzmb","playlistName":"شرح سنن الإمام الترمذي رضى الله عنه د. يسري جبر","category":"متنوع"},{"id":"rWxK1cJPsfg","title":"شرح كتاب البيوع من سنن الترمذي - المجلس التاسع","publishedAt":"2015-06-01T03:52:38Z","duration":"PT31M11S","thumbnail":"https://i.ytimg.com/vi/rWxK1cJPsfg/mqdefault.jpg","viewCount":"124","playlistId":"PLEkQk5xrP-tnu6of679SvxdVx0qSrJzmb","playlistName":"شرح سنن الإمام الترمذي رضى الله عنه د. يسري جبر","category":"متنوع"},{"id":"hMk84T_HTtk","title":"شرح كتاب تفسير القرآن من سنن الترمذي - المجلس الثامن والعشرون","publishedAt":"2016-05-05T02:46:27Z","duration":"PT36M52S","thumbnail":"https://i.ytimg.com/vi/hMk84T_HTtk/mqdefault.jpg","viewCount":"124","playlistId":"PLEkQk5xrP-tnu6of679SvxdVx0qSrJzmb","playlistName":"شرح سنن الإمام الترمذي رضى الله عنه د. يسري جبر","category":"متنوع"},{"id":"lwgVDtbc54c","title":"شرح كتاب المناقب من سنن الترمذي - المجلس الرابع","publishedAt":"2016-06-06T01:07:51Z","duration":"PT28M42S","thumbnail":"https://i.ytimg.com/vi/lwgVDtbc54c/mqdefault.jpg","viewCount":"124","playlistId":"PLEkQk5xrP-tnu6of679SvxdVx0qSrJzmb","playlistName":"شرح سنن الإمام الترمذي رضى الله عنه د. يسري جبر","category":"متنوع"},{"id":"FVY7FWl0scE","title":"شرح كتاب الدعوات من سنن الترمذي - المجلس التاسع","publishedAt":"2016-05-25T02:43:20Z","duration":"PT38M33S","thumbnail":"https://i.ytimg.com/vi/FVY7FWl0scE/mqdefault.jpg","viewCount":"124","playlistId":"PLEkQk5xrP-tnu6of679SvxdVx0qSrJzmb","playlistName":"شرح سنن الإمام الترمذي رضى الله عنه د. يسري جبر","category":"متنوع"},{"id":"6skQEfrdF8o","title":"شرح كتاب الدعوات من سنن الترمذي - المجلس السابع","publishedAt":"2016-05-23T04:13:14Z","duration":"PT47M36S","thumbnail":"https://i.ytimg.com/vi/6skQEfrdF8o/mqdefault.jpg","viewCount":"123","playlistId":"PLEkQk5xrP-tnu6of679SvxdVx0qSrJzmb","playlistName":"شرح سنن الإمام الترمذي رضى الله عنه د. يسري جبر","category":"متنوع"},{"id":"Q2iFdHcpt58","title":"شرح كتاب الدعوات من سنن الترمذي - المجلس الثالث","publishedAt":"2016-05-15T12:16:24Z","duration":"PT22M22S","thumbnail":"https://i.ytimg.com/vi/Q2iFdHcpt58/mqdefault.jpg","viewCount":"123","playlistId":"PLEkQk5xrP-tnu6of679SvxdVx0qSrJzmb","playlistName":"شرح سنن الإمام الترمذي رضى الله عنه د. يسري جبر","category":"متنوع"},{"id":"9_LxN5tSOIs","title":"شرح كتاب البيوع من سنن الترمذي - المجلس الثاني عشر","publishedAt":"2015-06-04T04:16:15Z","duration":"PT36M29S","thumbnail":"https://i.ytimg.com/vi/9_LxN5tSOIs/mqdefault.jpg","viewCount":"123","playlistId":"PLEkQk5xrP-tnu6of679SvxdVx0qSrJzmb","playlistName":"شرح سنن الإمام الترمذي رضى الله عنه د. يسري جبر","category":"متنوع"},{"id":"W8DUIzF8Y-c","title":"شرح كتاب الأحكام من سنن الترمذي - المجلس التاسع","publishedAt":"2015-06-16T03:50:01Z","duration":"PT36M5S","thumbnail":"https://i.ytimg.com/vi/W8DUIzF8Y-c/mqdefault.jpg","viewCount":"123","playlistId":"PLEkQk5xrP-tnu6of679SvxdVx0qSrJzmb","playlistName":"شرح سنن الإمام الترمذي رضى الله عنه د. يسري جبر","category":"متنوع"},{"id":"yS8JcMa5gxc","title":"شرح كتاب الأدب من سنن الترمذي - المجلس الثالث","publishedAt":"2016-03-10T13:33:45Z","duration":"PT44M11S","thumbnail":"https://i.ytimg.com/vi/yS8JcMa5gxc/mqdefault.jpg","viewCount":"122","playlistId":"PLEkQk5xrP-tnu6of679SvxdVx0qSrJzmb","playlistName":"شرح سنن الإمام الترمذي رضى الله عنه د. يسري جبر","category":"متنوع"},{"id":"qnfeDU1eHpU","title":"شرح كتاب تفسير القرآن من سنن الترمذي - المجلس التاسع","publishedAt":"2016-04-16T20:06:16Z","duration":"PT31M7S","thumbnail":"https://i.ytimg.com/vi/qnfeDU1eHpU/mqdefault.jpg","viewCount":"122","playlistId":"PLEkQk5xrP-tnu6of679SvxdVx0qSrJzmb","playlistName":"شرح سنن الإمام الترمذي رضى الله عنه د. يسري جبر","category":"متنوع"},{"id":"W0pNZpGBrMU","title":"شرح كتاب الأضاحي من سنن الترمذى - المجلس الثالث","publishedAt":"2015-07-07T04:05:53Z","duration":"PT37M26S","thumbnail":"https://i.ytimg.com/vi/W0pNZpGBrMU/mqdefault.jpg","viewCount":"122","playlistId":"PLEkQk5xrP-tnu6of679SvxdVx0qSrJzmb","playlistName":"شرح سنن الإمام الترمذي رضى الله عنه د. يسري جبر","category":"متنوع"},{"id":"EgGyjDadW7c","title":"شرح كتاب الأطعمة من جامع الترمذي - المجلس الرابع","publishedAt":"2015-08-20T04:52:46Z","duration":"PT33M26S","thumbnail":"https://i.ytimg.com/vi/EgGyjDadW7c/mqdefault.jpg","viewCount":"121","playlistId":"PLEkQk5xrP-tnu6of679SvxdVx0qSrJzmb","playlistName":"شرح سنن الإمام الترمذي رضى الله عنه د. يسري جبر","category":"متنوع"},{"id":"EXFW6KKG55o","title":"شرح كتاب الأحكام من سنن الترمذي - المجلس العاشر","publishedAt":"2015-06-17T03:56:38Z","duration":"PT47M36S","thumbnail":"https://i.ytimg.com/vi/EXFW6KKG55o/mqdefault.jpg","viewCount":"121","playlistId":"PLEkQk5xrP-tnu6of679SvxdVx0qSrJzmb","playlistName":"شرح سنن الإمام الترمذي رضى الله عنه د. يسري جبر","category":"متنوع"},{"id":"ErDaH0sLaBI","title":"شرح كتاب الدعوات من سنن الترمذي - المجلس الثامن عشر","publishedAt":"2016-06-02T02:48:10Z","duration":"PT22M35S","thumbnail":"https://i.ytimg.com/vi/ErDaH0sLaBI/mqdefault.jpg","viewCount":"121","playlistId":"PLEkQk5xrP-tnu6of679SvxdVx0qSrJzmb","playlistName":"شرح سنن الإمام الترمذي رضى الله عنه د. يسري جبر","category":"متنوع"},{"id":"FAP8ZcQj5nA","title":"شرح كتاب تفسير القرآن من سنن الترمذي - المجلس الحادي عشر","publishedAt":"2016-04-19T01:54:58Z","duration":"PT35M21S","thumbnail":"https://i.ytimg.com/vi/FAP8ZcQj5nA/mqdefault.jpg","viewCount":"120","playlistId":"PLEkQk5xrP-tnu6of679SvxdVx0qSrJzmb","playlistName":"شرح سنن الإمام الترمذي رضى الله عنه د. يسري جبر","category":"متنوع"},{"id":"yRzUtqnlXpM","title":"شرح كتاب الفرائض من سنن الترمذي - المجلس الثاني","publishedAt":"2015-12-09T04:02:44Z","duration":"PT30M31S","thumbnail":"https://i.ytimg.com/vi/yRzUtqnlXpM/mqdefault.jpg","viewCount":"120","playlistId":"PLEkQk5xrP-tnu6of679SvxdVx0qSrJzmb","playlistName":"شرح سنن الإمام الترمذي رضى الله عنه د. يسري جبر","category":"متنوع"},{"id":"kYxziUzTpq4","title":"شرح كتاب المناقب من سنن الترمذي - المجلس الرابع عشر","publishedAt":"2016-07-11T19:08:10Z","duration":"PT21M10S","thumbnail":"https://i.ytimg.com/vi/kYxziUzTpq4/mqdefault.jpg","viewCount":"120","playlistId":"PLEkQk5xrP-tnu6of679SvxdVx0qSrJzmb","playlistName":"شرح سنن الإمام الترمذي رضى الله عنه د. يسري جبر","category":"متنوع"}],"total":4126,"page":168,"pageSize":24,"totalPages":172}