{"items":[{"id":"jaIm_-TWkBk","title":"شرح كتاب دلائل الخيرات - المجلس الثامن عشر. أ.د. يسري جبر","publishedAt":"2020-01-30T16:55:29Z","duration":"PT34M26S","thumbnail":"https://i.ytimg.com/vi/jaIm_-TWkBk/mqdefault.jpg","viewCount":"10516","playlistId":"PLEkQk5xrP-tlAzcbIpuqjdFICW-knvTlR","playlistName":"شرح كتاب دلائل الخيرات وشوارق الأنوار","category":"متنوع"},{"id":"ao1M19t3oFg","title":"كيف يكون لي رابطة روحية مع الشيخ؟","publishedAt":"2024-04-22T18:00:03Z","duration":"PT8M11S","thumbnail":"https://i.ytimg.com/vi/ao1M19t3oFg/mqdefault.jpg","viewCount":"10505","playlistId":"PLEkQk5xrP-tl6tFiMFGUucCTvLgnWyAfz","playlistName":"حياة الأستاذ الدكتور يسري جبر","category":"متنوع"},{"id":"EVPC1IlCME8","title":"أحكام الربا بين الماضي والحاضر | أ.د. يسري جبر","publishedAt":"2021-04-26T15:30:01Z","duration":"PT28M55S","thumbnail":"https://i.ytimg.com/vi/EVPC1IlCME8/mqdefault.jpg","viewCount":"10467","playlistId":"PLEkQk5xrP-tnl7vb7KeAoPd5ZlqKKW8KV","playlistName":"شرح كتاب بهجة النفوس أ.د . يسرى جبر","category":"متنوع"},{"id":"OKmF_iOm-JA","title":"شرح كتاب دلائل الخيرات - المجلس الحادي عشر. أ.د. يسري جبر","publishedAt":"2019-12-02T16:45:31Z","duration":"PT13M31S","thumbnail":"https://i.ytimg.com/vi/OKmF_iOm-JA/mqdefault.jpg","viewCount":"10451","playlistId":"PLEkQk5xrP-tlAzcbIpuqjdFICW-knvTlR","playlistName":"شرح كتاب دلائل الخيرات وشوارق الأنوار","category":"متنوع"},{"id":"yoMApCrOtT0","title":"هل يجب أخذ الإذن عند الذكر؟","publishedAt":"2021-06-23T17:58:22Z","duration":"PT10M33S","thumbnail":"https://i.ytimg.com/vi/yoMApCrOtT0/mqdefault.jpg","viewCount":"10414","playlistId":"PLEkQk5xrP-tm8ZIu74nTOZN9KJUJu416J","playlistName":"مقاطع مُهمَّة (يُسريَّات) أ.د. يسري جبر","category":"متنوع"},{"id":"Rt-hWXj8tX8","title":"22- أحوال الصالحين وأهل الله | شرح مختصر الفتوحات المكية","publishedAt":"2024-06-18T17:10:18Z","duration":"PT56M37S","thumbnail":"https://i.ytimg.com/vi/Rt-hWXj8tX8/mqdefault.jpg","viewCount":"10410","playlistId":"PLEkQk5xrP-tnpkdZki6rPTtMak1bnI5g-","playlistName":"شرح كتاب مختصر الفتوحات المكية المسمى لواقح الأنوار القدسية","category":"متنوع"},{"id":"aJJ8Z8Rd6I4","title":"أَثَرُ الصَوْتِ عَلَى الإِدْرَاكِ وَعَلَى الوجُودِ . د. يسرى جبر","publishedAt":"2015-07-04T13:06:22Z","duration":"PT24M42S","thumbnail":"https://i.ytimg.com/vi/aJJ8Z8Rd6I4/mqdefault.jpg","viewCount":"10410","playlistId":"PLEkQk5xrP-tm8ZIu74nTOZN9KJUJu416J","playlistName":"مقاطع مُهمَّة (يُسريَّات) أ.د. يسري جبر","category":"متنوع"},{"id":"5a3_Q17u3Ks","title":"من السنن المهجورة في التربية   د. يسري جبر","publishedAt":"2018-05-20T18:05:12Z","duration":"PT6M44S","thumbnail":"https://i.ytimg.com/vi/5a3_Q17u3Ks/mqdefault.jpg","viewCount":"10374","playlistId":"PLEkQk5xrP-tm8ZIu74nTOZN9KJUJu416J","playlistName":"مقاطع مُهمَّة (يُسريَّات) أ.د. يسري جبر","category":"متنوع"},{"id":"xmCCsRP-JkE","title":"12- هل رحمة الله تشمل غير المسلمين؟ | شرح مختصر الفتوحات المكية","publishedAt":"2024-03-28T18:00:26Z","duration":"PT53M27S","thumbnail":"https://i.ytimg.com/vi/xmCCsRP-JkE/mqdefault.jpg","viewCount":"10366","playlistId":"PLEkQk5xrP-tnpkdZki6rPTtMak1bnI5g-","playlistName":"شرح كتاب مختصر الفتوحات المكية المسمى لواقح الأنوار القدسية","category":"متنوع"},{"id":"5v5qH7o0-dg","title":"هل يمكن للمريد الدخول في طريقتين؟","publishedAt":"2022-02-11T18:00:29Z","duration":"PT11M55S","thumbnail":"https://i.ytimg.com/vi/5v5qH7o0-dg/mqdefault.jpg","viewCount":"10345","playlistId":"PLEkQk5xrP-tkGXuZ9atE3k_7it12rUPTs","playlistName":"أسئلة المتابعين","category":"متنوع"},{"id":"P7GEy823OZ0","title":"حصاد 2023","publishedAt":"2023-12-30T18:38:41Z","duration":"PT31M13S","thumbnail":"https://i.ytimg.com/vi/P7GEy823OZ0/mqdefault.jpg","viewCount":"10323","playlistId":"PLEkQk5xrP-tm8ZIu74nTOZN9KJUJu416J","playlistName":"مقاطع مُهمَّة (يُسريَّات) أ.د. يسري جبر","category":"متنوع"},{"id":"-zpF6IDpihs","title":"لكل من فقد عزيزًا على قلبه ​| نصائح مهمة","publishedAt":"2021-06-04T19:27:05Z","duration":"PT12M24S","thumbnail":"https://i.ytimg.com/vi/-zpF6IDpihs/mqdefault.jpg","viewCount":"10300","playlistId":"PLEkQk5xrP-tm8ZIu74nTOZN9KJUJu416J","playlistName":"مقاطع مُهمَّة (يُسريَّات) أ.د. يسري جبر","category":"متنوع"},{"id":"Gx2FLVypVC4","title":"أسرار ومعاني حول الحقيقة المحمدية","publishedAt":"2023-03-02T18:00:11Z","duration":"PT22M30S","thumbnail":"https://i.ytimg.com/vi/Gx2FLVypVC4/mqdefault.jpg","viewCount":"10259","playlistId":"PLEkQk5xrP-tm8ZIu74nTOZN9KJUJu416J","playlistName":"مقاطع مُهمَّة (يُسريَّات) أ.د. يسري جبر","category":"متنوع"},{"id":"D-gyJ81l7TY","title":"كيف نربي أولادنا تربية صحيحة؟","publishedAt":"2022-10-23T18:00:05Z","duration":"PT15M29S","thumbnail":"https://i.ytimg.com/vi/D-gyJ81l7TY/mqdefault.jpg","viewCount":"10247","playlistId":"PLEkQk5xrP-tm8ZIu74nTOZN9KJUJu416J","playlistName":"مقاطع مُهمَّة (يُسريَّات) أ.د. يسري جبر","category":"متنوع"},{"id":"wjtTla1-PZU","title":"ما سر الأحلام والرؤى التي تتحقق؟ | مجالس رمضانية","publishedAt":"2024-03-15T14:00:48Z","duration":"PT37M42S","thumbnail":"https://i.ytimg.com/vi/wjtTla1-PZU/mqdefault.jpg","viewCount":"10234","playlistId":"PLEkQk5xrP-tnl7vb7KeAoPd5ZlqKKW8KV","playlistName":"شرح كتاب بهجة النفوس أ.د . يسرى جبر","category":"متنوع"},{"id":"Me9e5ZwM_pA","title":"المجلس الخامس من شرح الخريدة البهية","publishedAt":"2013-08-04T16:23:14Z","duration":"PT1H1M43S","thumbnail":"https://i.ytimg.com/vi/Me9e5ZwM_pA/mqdefault.jpg","viewCount":"10226","playlistId":"PLEkQk5xrP-tnI6h_R1hvYgrrstFAJCvv9","playlistName":"شرح الخريدة البهية د. يسري جبر","category":"متنوع"},{"id":"Yj5Lr0WKzDY","title":"أحوال القلب فضل من الله","publishedAt":"2020-09-30T19:26:11Z","duration":"PT13M29S","thumbnail":"https://i.ytimg.com/vi/Yj5Lr0WKzDY/mqdefault.jpg","viewCount":"10210","playlistId":"PLEkQk5xrP-tm8ZIu74nTOZN9KJUJu416J","playlistName":"مقاطع مُهمَّة (يُسريَّات) أ.د. يسري جبر","category":"متنوع"},{"id":"I7y9UqYsOp8","title":"كيف كان النبي يلبس الخاتم ولماذا ترك الخاتم الذهب | اعرف نبيك","publishedAt":"2015-10-14T17:24:33Z","duration":"PT6M11S","thumbnail":"https://i.ytimg.com/vi/I7y9UqYsOp8/mqdefault.jpg","viewCount":"10207","playlistId":"PLEkQk5xrP-tl6Mu_Mz3QMUSv5T6XBH-Dg","playlistName":"برنامج اعرف نبيك","category":"متنوع"},{"id":"Wp62SXYw8Vk","title":"هل يمكن رؤية النبي ﷺ في اليقظة؟ | مجالس رمضانية","publishedAt":"2024-03-09T14:30:10Z","duration":"PT40M43S","thumbnail":"https://i.ytimg.com/vi/Wp62SXYw8Vk/mqdefault.jpg","viewCount":"10142","playlistId":"PLEkQk5xrP-tnl7vb7KeAoPd5ZlqKKW8KV","playlistName":"شرح كتاب بهجة النفوس أ.د . يسرى جبر","category":"متنوع"},{"id":"datzEoo9P64","title":"فضل وكنوز الصلاة على النبي ﷺ","publishedAt":"2025-11-08T17:01:05Z","duration":"PT28M54S","thumbnail":"https://i.ytimg.com/vi/datzEoo9P64/mqdefault.jpg","viewCount":"10131","playlistId":"PLEkQk5xrP-tm8ZIu74nTOZN9KJUJu416J","playlistName":"مقاطع مُهمَّة (يُسريَّات) أ.د. يسري جبر","category":"متنوع"},{"id":"py_52YiKAuM","title":"المجلس السادس من شرح الخريدة البهية","publishedAt":"2013-08-06T13:03:41Z","duration":"PT1H4M28S","thumbnail":"https://i.ytimg.com/vi/py_52YiKAuM/mqdefault.jpg","viewCount":"10113","playlistId":"PLEkQk5xrP-tnI6h_R1hvYgrrstFAJCvv9","playlistName":"شرح الخريدة البهية د. يسري جبر","category":"متنوع"},{"id":"ZL61f4qHYi0","title":"لا يُعلم قدْر أنوارِ القلوب والأسرار إلا في غيب الملكوت كما لا تظهر أنوار السماء إلا في شهادة المُلك","publishedAt":"2018-01-28T17:48:32Z","duration":"PT15M51S","thumbnail":"https://i.ytimg.com/vi/ZL61f4qHYi0/mqdefault.jpg","viewCount":"10107","playlistId":"PLEkQk5xrP-tkI_meE148wc7V7XHlB0WPb","playlistName":"من الحكم العطائية  د. يسري جبر","category":"متنوع"},{"id":"Ih4MhsxX6JE","title":"ستر أنوار السرائر بكثائف الظواهر، إجلالا لها أن تبتذل بوجود الإظهار،...","publishedAt":"2017-04-01T15:52:35Z","duration":"PT22M9S","thumbnail":"https://i.ytimg.com/vi/Ih4MhsxX6JE/mqdefault.jpg","viewCount":"10072","playlistId":"PLEkQk5xrP-tkI_meE148wc7V7XHlB0WPb","playlistName":"من الحكم العطائية  د. يسري جبر","category":"متنوع"},{"id":"xiduAzr6oEo","title":"سُورة البقرة من أوَّلِها","publishedAt":"2016-04-16T20:03:59Z","duration":"PT40M25S","thumbnail":"https://i.ytimg.com/vi/xiduAzr6oEo/mqdefault.jpg","viewCount":"10064","playlistId":"PLEkQk5xrP-tnmTYsyW6xNdyfhPq0Bhrhj","playlistName":"مقرأة الفجر - القُرْآنُ الكَرِيمُ - خَتْمَةُ التَّدَبُّرِ  أ.د. يسري جبر","category":"متنوع"}],"total":4126,"page":19,"pageSize":24,"totalPages":172}