{"items":[{"id":"iTTpAn-yNWI","title":"18- ุนููุฏุฉู ุงูุนุงุฑูููู ุจุงููู - ููู ุงููุตูู: ูุนุฑููุง ูุง ูู ุญูู ุงูููุฏูู","publishedAt":"2022-10-27T09:00:31Z","duration":"PT54M36S","thumbnail":"https://i.ytimg.com/vi/iTTpAn-yNWI/mqdefault.jpg","viewCount":"2653","playlistId":"PLEkQk5xrP-tmNuYT8JAh6clwa4krsgkNo","playlistName":"ุดุฑุญ ูุชุงุจ ุงูููุชููุญุงุช ุงูููุณุฑูููุฉ ูู ุนูุงุฆุฏ ุงูุฃููููุฉ ุงูููุญูููุฏูููุฉ","category":"ูุชููุน"},{"id":"GaCtERIPIxM","title":"5- ุชูููุฉ ููุฏูุฉ ูุชุงุจ ุฑูุงุถ ุงูุตุงูุญูู ูุชุนููู ุงูุดุงุฑุญ ุนูููุง - ุดุฑุญ ุฏููู ุงููุงูุญูู ุฃ.ุฏ. ูุณุฑู ุฌุจุฑ","publishedAt":"2021-01-17T08:33:35Z","duration":"PT38M","thumbnail":"https://i.ytimg.com/vi/GaCtERIPIxM/mqdefault.jpg","viewCount":"2653","playlistId":"PLEkQk5xrP-tkc9DXvSLguqX5-FYp6ASR4","playlistName":"ุฏููู ุงููุงูุญูู ูุทุฑู ุฑูุงุถ ุงูุตุงูุญูู","category":"ูุชููุน"},{"id":"EbVsoJv5eaw","title":"26- ูุนุงูู ุงูุฃุณูุงุก ูุงูุตูุงุช | ุฎุชุงู ุดุฑุญ ูุชุงุจ ุงูููุชููุญุงุช ุงูููุณุฑูููุฉ ูู ุนูุงุฆุฏ ุงูุฃููููุฉ ุงูููุญูููุฏูููุฉ","publishedAt":"2023-02-05T05:00:05Z","duration":"PT48M31S","thumbnail":"https://i.ytimg.com/vi/EbVsoJv5eaw/mqdefault.jpg","viewCount":"2652","playlistId":"PLEkQk5xrP-tmNuYT8JAh6clwa4krsgkNo","playlistName":"ุดุฑุญ ูุชุงุจ ุงูููุชููุญุงุช ุงูููุณุฑูููุฉ ูู ุนูุงุฆุฏ ุงูุฃููููุฉ ุงูููุญูููุฏูููุฉ","category":"ูุชููุน"},{"id":"tFdeZhJMHJQ","title":"52- ููู ููุช ูููุงูู ูุนูููู ูููุงู - ุดุฑุญ ูุณูุฏ ุงูุฅูุงู ุฃุญูุฏ","publishedAt":"2023-12-15T06:30:13Z","duration":"PT38M","thumbnail":"https://i.ytimg.com/vi/tFdeZhJMHJQ/mqdefault.jpg","viewCount":"2650","playlistId":"PLEkQk5xrP-tkKprIuGrSdEuBSMsyg5We1","playlistName":"ุดุฑุญ ูุณูุฏ ุงูุฅูุงู ุฃุญูุฏ ุจู ุญูุจู","category":"ูุชููุน"},{"id":"KdTabLB6Wsc","title":"657- ูุถู ููุงู ุงูููู - ุดุฑุญ ุฏููู ุงููุงูุญูู","publishedAt":"2022-12-10T09:00:08Z","duration":"PT48M","thumbnail":"https://i.ytimg.com/vi/KdTabLB6Wsc/mqdefault.jpg","viewCount":"2639","playlistId":"PLEkQk5xrP-tkc9DXvSLguqX5-FYp6ASR4","playlistName":"ุฏููู ุงููุงูุญูู ูุทุฑู ุฑูุงุถ ุงูุตุงูุญูู","category":"ูุชููุน"},{"id":"obWIJXaJmvo","title":"ูุง ุญูู ุชุฌุณุณ ุงูุฒูุฌุฉ ุนูู ูุงุชู ุฒูุฌูุงุ","publishedAt":"2025-09-01T19:00:46Z","duration":"PT9M30S","thumbnail":"https://i.ytimg.com/vi/obWIJXaJmvo/mqdefault.jpg","viewCount":"2638","playlistId":"PLEkQk5xrP-tkGXuZ9atE3k_7it12rUPTs","playlistName":"ุฃุณุฆูุฉ ุงููุชุงุจุนูู","category":"ูุชููุน"},{"id":"-xJQy6t2gX4","title":"19- ุณุจุญุงู ุงููุงุญุฏ: ุงููุนุฑูู ูุจู ุงูุญุฏูุฏ ููุจู ุงูุญุฑูู - ุนููุฏุฉู ุงูุนุงุฑูููู ุจุงููู ูุฃูููุงุก ุงููู ุงูุตุงูุญูู","publishedAt":"2022-12-21T09:00:00Z","duration":"PT49M14S","thumbnail":"https://i.ytimg.com/vi/-xJQy6t2gX4/mqdefault.jpg","viewCount":"2635","playlistId":"PLEkQk5xrP-tmNuYT8JAh6clwa4krsgkNo","playlistName":"ุดุฑุญ ูุชุงุจ ุงูููุชููุญุงุช ุงูููุณุฑูููุฉ ูู ุนูุงุฆุฏ ุงูุฃููููุฉ ุงูููุญูููุฏูููุฉ","category":"ูุชููุน"},{"id":"gURr9YYmYqY","title":"ููู ุชุฎุชุงุฑ ูุชููุฑู ุจูู ุงูุญู ูุงูุจุงุทูุ","publishedAt":"2021-04-30T19:15:00Z","duration":"PT57M22S","thumbnail":"https://i.ytimg.com/vi/gURr9YYmYqY/mqdefault.jpg","viewCount":"2635","playlistId":"PLEkQk5xrP-tm8ZIu74nTOZN9KJUJu416J","playlistName":"ููุงุทุน ููููููุฉ (ููุณุฑูููุงุช) ุฃ.ุฏ. ูุณุฑู ุฌุจุฑ","category":"ูุชููุน"},{"id":"i8pWwpYlbDo","title":"ูุง ุงููุฑู ุจูู ุงูุฑุฌุงุก ูุงูุฑุบุจุฉ ูุงูุฑุถุงุ","publishedAt":"2023-03-04T18:00:29Z","duration":"PT20M50S","thumbnail":"https://i.ytimg.com/vi/i8pWwpYlbDo/mqdefault.jpg","viewCount":"2628","playlistId":"PLEkQk5xrP-tm8ZIu74nTOZN9KJUJu416J","playlistName":"ููุงุทุน ููููููุฉ (ููุณุฑูููุงุช) ุฃ.ุฏ. ูุณุฑู ุฌุจุฑ","category":"ูุชููุน"},{"id":"espUFSDm1WU","title":"ุฏูููู ุจูุฌููุฏ ุขุซุงุฑู ุนูู ูุฌููุฏ ุฃุณูุงุฆูุูุจูุฌููุฏ ุฃุณูุงุฆู ุนูู ุซูุจูุช ุฃูุตุงููุ ูุจุซูุจูุช ุฃูุตุงูู ุนูู ูุฌูุฏ ุฐุงุชู...","publishedAt":"2018-01-26T19:46:57Z","duration":"PT19M3S","thumbnail":"https://i.ytimg.com/vi/espUFSDm1WU/mqdefault.jpg","viewCount":"2628","playlistId":"PLEkQk5xrP-tkI_meE148wc7V7XHlB0WPb","playlistName":"ูู ุงูุญูู ุงูุนุทุงุฆูุฉ  ุฏ. ูุณุฑู ุฌุจุฑ","category":"ูุชููุน"},{"id":"Gd1zGjR4kRw","title":"ูููุฉ ูุถููุฉ ุงูุฏูุชูุฑ ูุณุฑู ุฑุดุฏู ุงูุณูุฏ ุฌุจุฑ ุงูุญุณูู ุจูุถููุฉ ุงูุดูุฎ ุฅุณูุงุนูู ุตุงุฏู ุงูุนุฏูู","publishedAt":"2014-02-26T16:42:07Z","duration":"PT15M10S","thumbnail":"https://i.ytimg.com/vi/Gd1zGjR4kRw/mqdefault.jpg","viewCount":"2627","playlistId":"PLEkQk5xrP-tnGIBX_2vhkIRBBnEr76KDk","playlistName":"ุงุญุชูุงู ูุถููุฉ ุงูุดูุฎ ุฅุณูุงุนูู ุตุงุฏู ุงูุนุฏูู","category":"ูุชููุน"},{"id":"By_zFZce_ak","title":"ุงูุฎุดูุน ุนูุฏ ูุฑุงุกุฉ ุงููุฑุขู | ุฃ.ุฏ. ูุณุฑู ุฌุจุฑ","publishedAt":"2021-05-02T15:30:02Z","duration":"PT23M54S","thumbnail":"https://i.ytimg.com/vi/By_zFZce_ak/mqdefault.jpg","viewCount":"2625","playlistId":"PLEkQk5xrP-tnl7vb7KeAoPd5ZlqKKW8KV","playlistName":"ุดุฑุญ ูุชุงุจ ุจูุฌุฉ ุงููููุณ ุฃ.ุฏ . ูุณุฑู ุฌุจุฑ","category":"ูุชููุน"},{"id":"cLJqraG5Lr8","title":"43- ุญูู ุงูุดุฑุจ ูุงุฆูุง | ูุตู ุงููููุจูู ๏ทบ - ุดุฑุญ ูุณูุฏ ุงูุฅูุงู ุฃุญูุฏ","publishedAt":"2023-11-26T06:15:01Z","duration":"PT39M52S","thumbnail":"https://i.ytimg.com/vi/cLJqraG5Lr8/mqdefault.jpg","viewCount":"2625","playlistId":"PLEkQk5xrP-tkKprIuGrSdEuBSMsyg5We1","playlistName":"ุดุฑุญ ูุณูุฏ ุงูุฅูุงู ุฃุญูุฏ ุจู ุญูุจู","category":"ูุชููุน"},{"id":"w55ovO15ioU","title":"40- ูู ูุง ุชุฑูุฏ ูุนุฑูุชู ุนู ุงูุทูุงุฑุฉ | ุดุฑุญ ูุฎุชุตุฑ ุงููุชูุญุงุช ุงููููุฉ","publishedAt":"2025-04-19T19:30:18Z","duration":"PT52M22S","thumbnail":"https://i.ytimg.com/vi/w55ovO15ioU/mqdefault.jpg","viewCount":"2619","playlistId":"PLEkQk5xrP-tnpkdZki6rPTtMak1bnI5g-","playlistName":"ุดุฑุญ ูุชุงุจ ูุฎุชุตุฑ ุงููุชูุญุงุช ุงููููุฉ ุงููุณูู ููุงูุญ ุงูุฃููุงุฑ ุงููุฏุณูุฉ","category":"ูุชููุน"},{"id":"jA2euhnOKsc","title":"ุฑุถู ุงูููู ุนููู ูุฑุถูุง ุนูู","publishedAt":"2020-06-25T20:13:50Z","duration":"PT5M20S","thumbnail":"https://i.ytimg.com/vi/jA2euhnOKsc/mqdefault.jpg","viewCount":"2612","playlistId":"PLEkQk5xrP-tm8ZIu74nTOZN9KJUJu416J","playlistName":"ููุงุทุน ููููููุฉ (ููุณุฑูููุงุช) ุฃ.ุฏ. ูุณุฑู ุฌุจุฑ","category":"ูุชููุน"},{"id":"lBU6JH59B8k","title":"ุฒูุฌู ูุนุงูู ุฃูู ุจุทุฑููุฉ ุณูุฆุฉ ููุฑูุถ ูุฑุงุนุงุชู ููุง ,, ููุงุฐุง ุฃูุนู ูุนูุ","publishedAt":"2024-12-05T19:23:59Z","duration":"PT9M4S","thumbnail":"https://i.ytimg.com/vi/lBU6JH59B8k/mqdefault.jpg","viewCount":"2610","playlistId":"PLEkQk5xrP-tkGXuZ9atE3k_7it12rUPTs","playlistName":"ุฃุณุฆูุฉ ุงููุชุงุจุนูู","category":"ูุชููุน"},{"id":"kDUO_tbx_1o","title":"ููู ุชุชุนุฑู ุนูู ุฑูุญุงููุฉ ุงููุจู ๏ทบุ","publishedAt":"2025-11-02T17:01:09Z","duration":"PT16M10S","thumbnail":"https://i.ytimg.com/vi/kDUO_tbx_1o/mqdefault.jpg","viewCount":"2609","playlistId":"PLEkQk5xrP-tm8ZIu74nTOZN9KJUJu416J","playlistName":"ููุงุทุน ููููููุฉ (ููุณุฑูููุงุช) ุฃ.ุฏ. ูุณุฑู ุฌุจุฑ","category":"ูุชููุน"},{"id":"tf3jGZ9szeI","title":"ุฃุณุฑุงุฑ ุญูู ูุนุฌุฒุฉ ุงูุฅุณุฑุงุก ูุงููุนุฑุงุฌ |๐ุฌุงูุฉ ุงููุณุทู - ุฅูุฏูููุณูุง ูค","publishedAt":"2023-02-27T18:00:25Z","duration":"PT25M38S","thumbnail":"https://i.ytimg.com/vi/tf3jGZ9szeI/mqdefault.jpg","viewCount":"2607","playlistId":"PLEkQk5xrP-tm8ZIu74nTOZN9KJUJu416J","playlistName":"ููุงุทุน ููููููุฉ (ููุณุฑูููุงุช) ุฃ.ุฏ. ูุณุฑู ุฌุจุฑ","category":"ูุชููุน"},{"id":"TReuUR3gAZw","title":"ุงููุฑุน","publishedAt":"2020-08-07T18:53:00Z","duration":"PT10M20S","thumbnail":"https://i.ytimg.com/vi/TReuUR3gAZw/mqdefault.jpg","viewCount":"2605","playlistId":"PLEkQk5xrP-tm8ZIu74nTOZN9KJUJu416J","playlistName":"ููุงุทุน ููููููุฉ (ููุณุฑูููุงุช) ุฃ.ุฏ. ูุณุฑู ุฌุจุฑ","category":"ูุชููุน"},{"id":"4cQBTbsNE6s","title":"19- ุฅููู ุงูููู ูุชุจู ุงูุญุณููุงุชู ูุงูุณูููููุฆูุงุชู ุซููู ุจูููููู ุฐูู...\" ุดุฑุญ ูุชุงุจ ุฏููู ุงููุงูุญูู.","publishedAt":"2021-02-15T07:12:59Z","duration":"PT31M6S","thumbnail":"https://i.ytimg.com/vi/4cQBTbsNE6s/mqdefault.jpg","viewCount":"2604","playlistId":"PLEkQk5xrP-tkc9DXvSLguqX5-FYp6ASR4","playlistName":"ุฏููู ุงููุงูุญูู ูุทุฑู ุฑูุงุถ ุงูุตุงูุญูู","category":"ูุชููุน"},{"id":"06Ry9VJCvhM","title":"13- ููููุงูููู ููุงูุณููููุนู ููุงูุฅูุจูุตูุงุฑู *** ูููููู ุงูุฅููููู ุงูููุงุนููู ุงูููุฎูุชูุงุฑู","publishedAt":"2022-08-28T19:45:00Z","duration":"PT52M38S","thumbnail":"https://i.ytimg.com/vi/06Ry9VJCvhM/mqdefault.jpg","viewCount":"2602","playlistId":"PLEkQk5xrP-tmNuYT8JAh6clwa4krsgkNo","playlistName":"ุดุฑุญ ูุชุงุจ ุงูููุชููุญุงุช ุงูููุณุฑูููุฉ ูู ุนูุงุฆุฏ ุงูุฃููููุฉ ุงูููุญูููุฏูููุฉ","category":"ูุชููุน"},{"id":"HCU7lYSfVc4","title":"ุดุฑุญ ุงูุฎุฑูุฏุฉ ุงูุจููุฉ ูู ุนูู ุงูุชูุญูุฏ | ุฌุงูุฑุชุง - ุฅูุฏูููุณูุง ฒ๐","publishedAt":"2023-02-25T18:00:14Z","duration":"PT1H4M18S","thumbnail":"https://i.ytimg.com/vi/HCU7lYSfVc4/mqdefault.jpg","viewCount":"2597","playlistId":"PLEkQk5xrP-tm8ZIu74nTOZN9KJUJu416J","playlistName":"ููุงุทุน ููููููุฉ (ููุณุฑูููุงุช) ุฃ.ุฏ. ูุณุฑู ุฌุจุฑ","category":"ูุชููุน"},{"id":"Pvo0QfveC6I","title":"49- ุฃุณุฑุงุฑ ุงูุณุฌูุฏ ูุฃูุฑุจ ูุญุธุฉ ุจููู ูุจูู ุงููู | ุดุฑุญ ูุฎุชุตุฑ ุงููุชูุญุงุช ุงููููุฉ","publishedAt":"2025-07-26T18:10:03Z","duration":"PT32M14S","thumbnail":"https://i.ytimg.com/vi/Pvo0QfveC6I/mqdefault.jpg","viewCount":"2593","playlistId":"PLEkQk5xrP-tnpkdZki6rPTtMak1bnI5g-","playlistName":"ุดุฑุญ ูุชุงุจ ูุฎุชุตุฑ ุงููุชูุญุงุช ุงููููุฉ ุงููุณูู ููุงูุญ ุงูุฃููุงุฑ ุงููุฏุณูุฉ","category":"ูุชููุน"},{"id":"doT9cgDG4EQ","title":"42-\"ูููู ููุฑูุฏู ุงูููููู ุจููู ุฎูููุฑูุงุ ููุตูุจู ูููููู\" ุงูุญุฏูุซ( 15) ุจุงุจ ุงูุตููุจุฑ - ุดุฑุญ ุฏููู ุงููุงูุญูู","publishedAt":"2021-04-09T05:21:45Z","duration":"PT33M8S","thumbnail":"https://i.ytimg.com/vi/doT9cgDG4EQ/mqdefault.jpg","viewCount":"2592","playlistId":"PLEkQk5xrP-tkc9DXvSLguqX5-FYp6ASR4","playlistName":"ุฏููู ุงููุงูุญูู ูุทุฑู ุฑูุงุถ ุงูุตุงูุญูู","category":"ูุชููุน"}],"total":4126,"page":56,"pageSize":24,"totalPages":172}