{"items":[{"id":"J8EodLW5IVI","title":"ما هي العلوم الشرعية التي يجب على كل مسلم تعلمها؟","publishedAt":"2024-09-26T18:05:51Z","duration":"PT9M42S","thumbnail":"https://i.ytimg.com/vi/J8EodLW5IVI/mqdefault.jpg","viewCount":"3251","playlistId":"PLEkQk5xrP-tkGXuZ9atE3k_7it12rUPTs","playlistName":"أسئلة المتابعين","category":"متنوع"},{"id":"8iZTE7jVcPU","title":"192- فَضْلُ البُكَاءِ مِن خَشية الله تعالى وشَوقًا إليه - شرح دليل الفالحين","publishedAt":"2022-01-30T06:40:32Z","duration":"PT38M11S","thumbnail":"https://i.ytimg.com/vi/8iZTE7jVcPU/mqdefault.jpg","viewCount":"3242","playlistId":"PLEkQk5xrP-tkc9DXvSLguqX5-FYp6ASR4","playlistName":"دليل الفالحين لطرق رياض الصالحين","category":"متنوع"},{"id":"qhv3QzLo3Us","title":"بين كتفيه علامة خاتم الرسل الكرام صلى الله عليه وآله وسلم","publishedAt":"2014-11-03T20:05:45Z","duration":"PT5M3S","thumbnail":"https://i.ytimg.com/vi/qhv3QzLo3Us/mqdefault.jpg","viewCount":"3242","playlistId":"PLEkQk5xrP-tlB8lmbwjAKR8KRgiykGKhb","playlistName":"حضرات يسرية ومدائح نبوية","category":"متنوع"},{"id":"PU5gOn6TEUU","title":"ما هي أفضل طريقة لصلاة السنن والنوافل؟","publishedAt":"2024-08-17T17:26:26Z","duration":"PT9M32S","thumbnail":"https://i.ytimg.com/vi/PU5gOn6TEUU/mqdefault.jpg","viewCount":"3237","playlistId":"PLEkQk5xrP-tkGXuZ9atE3k_7it12rUPTs","playlistName":"أسئلة المتابعين","category":"متنوع"},{"id":"2Y0QGnJH6HA","title":"اعمل ايه لو اكتشفت إن زوجتي بتخوني مع شخص آخر؟","publishedAt":"2025-11-26T19:30:00Z","duration":"PT10M11S","thumbnail":"https://i.ytimg.com/vi/2Y0QGnJH6HA/mqdefault.jpg","viewCount":"3236","playlistId":"PLEkQk5xrP-tkGXuZ9atE3k_7it12rUPTs","playlistName":"أسئلة المتابعين","category":"متنوع"},{"id":"QIh4PIS6LTc","title":"2- كتاب وقوت الصلاة وَصَلَّى اللَّهُ عَلَى سَيِّدِنَا مُحَمَّدٍ الموطأ للإمام مالك د- يسري جبر","publishedAt":"2016-03-07T11:00:00Z","duration":"PT1H18M21S","thumbnail":"https://i.ytimg.com/vi/QIh4PIS6LTc/mqdefault.jpg","viewCount":"3235","playlistId":"PLEkQk5xrP-tnC6BRuqMjyO-484iqXeg0o","playlistName":"شرح كتاب الموطأ للإمام مالك","category":"متنوع"},{"id":"EQHsoM2ljmA","title":"آداب الطريقة","publishedAt":"2020-09-12T14:44:11Z","duration":"PT14M18S","thumbnail":"https://i.ytimg.com/vi/EQHsoM2ljmA/mqdefault.jpg","viewCount":"3224","playlistId":"PLEkQk5xrP-tm8ZIu74nTOZN9KJUJu416J","playlistName":"مقاطع مُهمَّة (يُسريَّات) أ.د. يسري جبر","category":"متنوع"},{"id":"n-OmJwLgg4E","title":"احتفالية السادة النجدية الجعافرة بمولد العارف بالله سيدي عليان النجدي رضي الله عنه","publishedAt":"2019-09-15T18:55:58Z","duration":"PT1H15M24S","thumbnail":"https://i.ytimg.com/vi/n-OmJwLgg4E/mqdefault.jpg","viewCount":"3214","playlistId":"PLEkQk5xrP-tmJzNvLntpzW0uPanPzxA0c","playlistName":"لقاءات ومحاضرات","category":"متنوع"},{"id":"jt5L1_r9wXk","title":"كمال الرضا","publishedAt":"2020-09-02T18:37:53Z","duration":"PT5M15S","thumbnail":"https://i.ytimg.com/vi/jt5L1_r9wXk/mqdefault.jpg","viewCount":"3212","playlistId":"PLEkQk5xrP-tm8ZIu74nTOZN9KJUJu416J","playlistName":"مقاطع مُهمَّة (يُسريَّات) أ.د. يسري جبر","category":"متنوع"},{"id":"1yL5ic2o33Y","title":"تفسير قوله تعالى\"وَيُنَزِّلُ مِنَ السَّمَاءِ مِنْ جِبَالٍ فِيهَا مِنْ بَرَد\"","publishedAt":"2021-09-17T17:00:01Z","duration":"PT7M21S","thumbnail":"https://i.ytimg.com/vi/1yL5ic2o33Y/mqdefault.jpg","viewCount":"3210","playlistId":"PLEkQk5xrP-tkSGrPLMt1BEmJ54cGWYgtp","playlistName":"كتابُ بِدَعِ التَفَاسِيرِ - أ.د. يسري جبر","category":"متنوع"},{"id":"YyhD84LMmKU","title":"تفسير قوله تعالى \"كُنتُمْ خَيْرَ أُمَّةٍ أُخْرِجَتْ لِلنَّاس\"","publishedAt":"2022-01-19T17:30:03Z","duration":"PT25M3S","thumbnail":"https://i.ytimg.com/vi/YyhD84LMmKU/mqdefault.jpg","viewCount":"3200","playlistId":"PLEkQk5xrP-tkGXuZ9atE3k_7it12rUPTs","playlistName":"أسئلة المتابعين","category":"متنوع"},{"id":"ag0ALoymNqM","title":"قُطْبُ الأَقْطَابِ بصوت الشيخ / عبد الله الجاوي.","publishedAt":"2019-10-13T18:28:12Z","duration":"PT9M48S","thumbnail":"https://i.ytimg.com/vi/ag0ALoymNqM/mqdefault.jpg","viewCount":"3200","playlistId":"PLEkQk5xrP-tlB8lmbwjAKR8KRgiykGKhb","playlistName":"حضرات يسرية ومدائح نبوية","category":"متنوع"},{"id":"9ZQWSd0l9xs","title":"41- بعض خصائص النبيّ ﷺ - شرح مسند الإمام أحمد","publishedAt":"2023-11-20T06:30:04Z","duration":"PT40M6S","thumbnail":"https://i.ytimg.com/vi/9ZQWSd0l9xs/mqdefault.jpg","viewCount":"3195","playlistId":"PLEkQk5xrP-tkKprIuGrSdEuBSMsyg5We1","playlistName":"شرح مسند الإمام أحمد بن حنبل","category":"متنوع"},{"id":"FyFW-cXltQc","title":"برنامج - عصمة الأنبياء - الحلقة الثانية - عصمة الأنبياء في الأمور التشريعية - @alerthTV","publishedAt":"2016-05-06T16:36:28Z","duration":"PT26M19S","thumbnail":"https://i.ytimg.com/vi/FyFW-cXltQc/mqdefault.jpg","viewCount":"3193","playlistId":"PLEkQk5xrP-tnBp9yUT_R2vtqSPOlcyAZe","playlistName":"برنامج - عصمة الأنبياء","category":"متنوع"},{"id":"ZhzJtpZqr7Q","title":"20- \"انطلق ثلاثة نفر ممن كان قبلكم حتى آواهم المبيت إلى غار فدخلوه..\" شرح كتاب دليل الفالحين.","publishedAt":"2021-02-18T08:15:23Z","duration":"PT44M16S","thumbnail":"https://i.ytimg.com/vi/ZhzJtpZqr7Q/mqdefault.jpg","viewCount":"3186","playlistId":"PLEkQk5xrP-tkc9DXvSLguqX5-FYp6ASR4","playlistName":"دليل الفالحين لطرق رياض الصالحين","category":"متنوع"},{"id":"Z6hL97JKP68","title":"مطلبُ العارفين من الله الصدقُ في العُبُوديَّة ، والقيامُ بحقوق الرُّبُوبَِّية","publishedAt":"2016-11-01T19:51:09Z","duration":"PT5M55S","thumbnail":"https://i.ytimg.com/vi/Z6hL97JKP68/mqdefault.jpg","viewCount":"3186","playlistId":"PLEkQk5xrP-tkI_meE148wc7V7XHlB0WPb","playlistName":"من الحكم العطائية  د. يسري جبر","category":"متنوع"},{"id":"gM6XmKdZLHo","title":"كيف تحفظ قلبك من شبهات العقيدة؟","publishedAt":"2025-10-29T20:00:49Z","duration":"PT27M48S","thumbnail":"https://i.ytimg.com/vi/gM6XmKdZLHo/mqdefault.jpg","viewCount":"3176","playlistId":"PLEkQk5xrP-tm8ZIu74nTOZN9KJUJu416J","playlistName":"مقاطع مُهمَّة (يُسريَّات) أ.د. يسري جبر","category":"متنوع"},{"id":"4R9Wen0nti0","title":"109- “استعمل النبيُّ ﷺ رجلًا من الأزد يُقال له: ابْنُ اللُّتْبِيَّة على الصَّدقة”- شرح دليل الفالحين","publishedAt":"2021-08-07T05:58:04Z","duration":"PT41M49S","thumbnail":"https://i.ytimg.com/vi/4R9Wen0nti0/mqdefault.jpg","viewCount":"3175","playlistId":"PLEkQk5xrP-tkc9DXvSLguqX5-FYp6ASR4","playlistName":"دليل الفالحين لطرق رياض الصالحين","category":"متنوع"},{"id":"pfxgW_qrWXM","title":"الرد على من ينكر خصوصية النبي ﷺ | مجالس الاعتكاف","publishedAt":"2025-03-24T10:01:04Z","duration":"PT35M21S","thumbnail":"https://i.ytimg.com/vi/pfxgW_qrWXM/mqdefault.jpg","viewCount":"3166","playlistId":"PLEkQk5xrP-tly7ti7Qb_lS7xjUg_fwlNP","playlistName":"شرح كتاب الدولة المكية بالمادة الغيبية","category":"متنوع"},{"id":"IJinhSJm9OY","title":"هل ترك الصلاة عمداً من الكبائر؟","publishedAt":"2024-10-29T18:49:54Z","duration":"PT13M46S","thumbnail":"https://i.ytimg.com/vi/IJinhSJm9OY/mqdefault.jpg","viewCount":"3164","playlistId":"PLEkQk5xrP-tnZyxWbCSqTSMV9BJLUL-zN","playlistName":"شرح كتاب تنوير البصيرة ببيان علامات الكبيرة","category":"متنوع"},{"id":"alonyedcX60","title":"تفسير قوله تعالى \"ما منعك أن تسجد لما خلقت بيدي\" وقوله \"والسموات مطويات بيمينه\"","publishedAt":"2024-07-21T06:00:01Z","duration":"PT19M50S","thumbnail":"https://i.ytimg.com/vi/alonyedcX60/mqdefault.jpg","viewCount":"3163","playlistId":"PLEkQk5xrP-tkSGrPLMt1BEmJ54cGWYgtp","playlistName":"كتابُ بِدَعِ التَفَاسِيرِ - أ.د. يسري جبر","category":"متنوع"},{"id":"W6pzic_c628","title":"عدم النظر للعبادة","publishedAt":"2020-08-26T19:25:32Z","duration":"PT8M33S","thumbnail":"https://i.ytimg.com/vi/W6pzic_c628/mqdefault.jpg","viewCount":"3162","playlistId":"PLEkQk5xrP-tm8ZIu74nTOZN9KJUJu416J","playlistName":"مقاطع مُهمَّة (يُسريَّات) أ.د. يسري جبر","category":"متنوع"},{"id":"reHM9dqXlZE","title":"تَوَلَّوا وَّأَعْيُنُهُمْ تَفِيضُ مِنَ الدَّمْعِ حَزَنًا","publishedAt":"2020-07-19T20:36:18Z","duration":"PT7M50S","thumbnail":"https://i.ytimg.com/vi/reHM9dqXlZE/mqdefault.jpg","viewCount":"3157","playlistId":"PLEkQk5xrP-tm8ZIu74nTOZN9KJUJu416J","playlistName":"مقاطع مُهمَّة (يُسريَّات) أ.د. يسري جبر","category":"متنوع"},{"id":"Z6iymmJuf_A","title":"معايا مدخرات في شهادات بنكية ودولارات ,, ازاي أحسب زكاتهم؟","publishedAt":"2024-04-02T18:00:15Z","duration":"PT11M5S","thumbnail":"https://i.ytimg.com/vi/Z6iymmJuf_A/mqdefault.jpg","viewCount":"3144","playlistId":"PLEkQk5xrP-tkGXuZ9atE3k_7it12rUPTs","playlistName":"أسئلة المتابعين","category":"متنوع"}],"total":4126,"page":50,"pageSize":24,"totalPages":172}