{"items":[{"id":"mFnlrDkileo","title":"ما هي آداب المجلس؟ | مجالس رمضانية","publishedAt":"2023-04-09T15:00:27Z","duration":"PT43M55S","thumbnail":"https://i.ytimg.com/vi/mFnlrDkileo/mqdefault.jpg","viewCount":"1389","playlistId":"PLEkQk5xrP-tnl7vb7KeAoPd5ZlqKKW8KV","playlistName":"شرح كتاب بهجة النفوس أ.د . يسرى جبر","category":"متنوع"},{"id":"W2SKx_D3J3M","title":"عبادة النبي صلى الله عليه وسلم | اعرف نبيك","publishedAt":"2015-08-12T15:22:43Z","duration":"PT6M39S","thumbnail":"https://i.ytimg.com/vi/W2SKx_D3J3M/mqdefault.jpg","viewCount":"1386","playlistId":"PLEkQk5xrP-tl6Mu_Mz3QMUSv5T6XBH-Dg","playlistName":"برنامج اعرف نبيك","category":"متنوع"},{"id":"eGrw4EbH3Ms","title":"شرح كتاب بهجة النفوس - المجلس الثامن","publishedAt":"2020-04-30T23:00:12Z","duration":"PT44M56S","thumbnail":"https://i.ytimg.com/vi/eGrw4EbH3Ms/mqdefault.jpg","viewCount":"1383","playlistId":"PLEkQk5xrP-tlyEB2iywk4VchTQROnBrU6","playlistName":"بهجة النفوس من أوله  أ.د. يسري جبر","category":"متنوع"},{"id":"oXwH0K9yDtE","title":"9- فضائل وآداب - شرح مسند الإمام أحمد","publishedAt":"2023-08-04T05:00:19Z","duration":"PT45M22S","thumbnail":"https://i.ytimg.com/vi/oXwH0K9yDtE/mqdefault.jpg","viewCount":"1383","playlistId":"PLEkQk5xrP-tkKprIuGrSdEuBSMsyg5We1","playlistName":"شرح مسند الإمام أحمد بن حنبل","category":"متنوع"},{"id":"WgVGHBkT7Vs","title":"92- نبذة عن سيدنا العباس بن عبد المطلب رضي الله تعالى عنه - شرح مسند الإمام أحمد رضي الله تعالى عنه","publishedAt":"2024-04-11T07:00:11Z","duration":"PT34M1S","thumbnail":"https://i.ytimg.com/vi/WgVGHBkT7Vs/mqdefault.jpg","viewCount":"1382","playlistId":"PLEkQk5xrP-tkKprIuGrSdEuBSMsyg5We1","playlistName":"شرح مسند الإمام أحمد بن حنبل","category":"متنوع"},{"id":"cpFkM74nI5g","title":"فضل وثواب صلاة الجماعة | مجالس رمضانية","publishedAt":"2025-03-09T15:00:50Z","duration":"PT18M55S","thumbnail":"https://i.ytimg.com/vi/cpFkM74nI5g/mqdefault.jpg","viewCount":"1382","playlistId":"PLEkQk5xrP-tkeI_WVPfuoTJO46aVkpaz0","playlistName":"شرح كتاب ميزان الاعتدال لحفظ الدين والأحوال","category":"متنوع"},{"id":"WNIlb2FT_hQ","title":"13- كيف كان سيدنا رسول الله ﷺ يتوضأ - كتاب الطَّهارة - شرح سنن الإمام الدار قطني رضي الله عنه","publishedAt":"2023-08-20T05:00:12Z","duration":"PT41M6S","thumbnail":"https://i.ytimg.com/vi/WNIlb2FT_hQ/mqdefault.jpg","viewCount":"1379","playlistId":"PLEkQk5xrP-tk_MCBZ706ORCw6gFtFyaGj","playlistName":"شرح سنن الإمام الدارقطني","category":"متنوع"},{"id":"-2B16tVPk8E","title":"209- \"ولقد رأَيْتُنِي سابع سبعة مع رسول الله ﷺ ما لنا طعامٌ إلَّا ورقُ الشَّجر\" - شرح دليل الفالحين","publishedAt":"2022-02-26T07:22:03Z","duration":"PT49M58S","thumbnail":"https://i.ytimg.com/vi/-2B16tVPk8E/mqdefault.jpg","viewCount":"1378","playlistId":"PLEkQk5xrP-tkc9DXvSLguqX5-FYp6ASR4","playlistName":"دليل الفالحين لطرق رياض الصالحين","category":"متنوع"},{"id":"w2beme_Zol8","title":"شرح كتاب بهجة النفوس - المجلس السابع","publishedAt":"2020-04-29T20:00:09Z","duration":"PT39M12S","thumbnail":"https://i.ytimg.com/vi/w2beme_Zol8/mqdefault.jpg","viewCount":"1375","playlistId":"PLEkQk5xrP-tlyEB2iywk4VchTQROnBrU6","playlistName":"بهجة النفوس من أوله  أ.د. يسري جبر","category":"متنوع"},{"id":"krK02-HIa7k","title":"246- رحمةُ النَّبيّ ﷺ بالأطفال والصبيان والإماء - شرح دليل الفالحين","publishedAt":"2022-05-13T05:15:01Z","duration":"PT32M20S","thumbnail":"https://i.ytimg.com/vi/krK02-HIa7k/mqdefault.jpg","viewCount":"1372","playlistId":"PLEkQk5xrP-tkc9DXvSLguqX5-FYp6ASR4","playlistName":"دليل الفالحين لطرق رياض الصالحين","category":"متنوع"},{"id":"Zp9yIAEArgI","title":"263- اسمعوا وأطيعوا فإنّما عليهم ما حُمّّلوا ، وعليكُم ما حُمّلتُم - شرح دليل الفالحين","publishedAt":"2022-06-08T05:15:02Z","duration":"PT45M48S","thumbnail":"https://i.ytimg.com/vi/Zp9yIAEArgI/mqdefault.jpg","viewCount":"1370","playlistId":"PLEkQk5xrP-tkc9DXvSLguqX5-FYp6ASR4","playlistName":"دليل الفالحين لطرق رياض الصالحين","category":"متنوع"},{"id":"y0LkCZb7gwg","title":"115- مَن استعاذ بالله فأعيذوه، ومَن سألكم بوجه الله فأعطوه | ما معنى العُمرى؟","publishedAt":"2024-07-08T08:00:37Z","duration":"PT43M48S","thumbnail":"https://i.ytimg.com/vi/y0LkCZb7gwg/mqdefault.jpg","viewCount":"1366","playlistId":"PLEkQk5xrP-tkKprIuGrSdEuBSMsyg5We1","playlistName":"شرح مسند الإمام أحمد بن حنبل","category":"متنوع"},{"id":"Lkpahq5GGYc","title":"295- آدَابُ النَّومِ - شرح دليل الفالحين","publishedAt":"2022-09-01T06:30:06Z","duration":"PT35M13S","thumbnail":"https://i.ytimg.com/vi/Lkpahq5GGYc/mqdefault.jpg","viewCount":"1362","playlistId":"PLEkQk5xrP-tkc9DXvSLguqX5-FYp6ASR4","playlistName":"دليل الفالحين لطرق رياض الصالحين","category":"متنوع"},{"id":"6VJbtwl_exk","title":"كُلُّ كَلامٍ يَبرُزُ وَعَليهِ كِسْوَةُ القَلبِ الذي مِنهُ بَرَزَ","publishedAt":"2017-08-11T08:50:57Z","duration":"PT10M26S","thumbnail":"https://i.ytimg.com/vi/6VJbtwl_exk/mqdefault.jpg","viewCount":"1361","playlistId":"PLEkQk5xrP-tkI_meE148wc7V7XHlB0WPb","playlistName":"من الحكم العطائية  د. يسري جبر","category":"متنوع"},{"id":"MltTrtDHX2Y","title":"فضل قراءة القرآن للراكب | أ.د. يسري جبر","publishedAt":"2021-05-01T15:30:02Z","duration":"PT26M19S","thumbnail":"https://i.ytimg.com/vi/MltTrtDHX2Y/mqdefault.jpg","viewCount":"1361","playlistId":"PLEkQk5xrP-tnl7vb7KeAoPd5ZlqKKW8KV","playlistName":"شرح كتاب بهجة النفوس أ.د . يسرى جبر","category":"متنوع"},{"id":"DoHqhPp6TrM","title":"سورة البقرة آية 87","publishedAt":"2016-04-25T21:08:37Z","duration":"PT8M54S","thumbnail":"https://i.ytimg.com/vi/DoHqhPp6TrM/mqdefault.jpg","viewCount":"1360","playlistId":"PLEkQk5xrP-tnmTYsyW6xNdyfhPq0Bhrhj","playlistName":"مقرأة الفجر - القُرْآنُ الكَرِيمُ - خَتْمَةُ التَّدَبُّرِ  أ.د. يسري جبر","category":"متنوع"},{"id":"dad8UGb_Ksw","title":"42- حكم الدعاء لمن مات على الشرك - شرح مسند الإمام أحمد","publishedAt":"2023-11-24T07:15:02Z","duration":"PT33M12S","thumbnail":"https://i.ytimg.com/vi/dad8UGb_Ksw/mqdefault.jpg","viewCount":"1358","playlistId":"PLEkQk5xrP-tkKprIuGrSdEuBSMsyg5We1","playlistName":"شرح مسند الإمام أحمد بن حنبل","category":"متنوع"},{"id":"Y3ujOpFYD8w","title":"81- دعاء النَّبيّ ﷺ للمدينة بضعفي ما بمكَّة من البركة - شرح مسند الإمام أحمد رضي الله عنه","publishedAt":"2024-02-26T06:53:31Z","duration":"PT31M19S","thumbnail":"https://i.ytimg.com/vi/Y3ujOpFYD8w/mqdefault.jpg","viewCount":"1356","playlistId":"PLEkQk5xrP-tkKprIuGrSdEuBSMsyg5We1","playlistName":"شرح مسند الإمام أحمد بن حنبل","category":"متنوع"},{"id":"t-imnyib9gw","title":"بِدَعُ التَفَاسِيرِ - المجلس السابع عشر. أ.د. يسري جبر","publishedAt":"2020-10-15T19:00:15Z","duration":"PT13M47S","thumbnail":"https://i.ytimg.com/vi/t-imnyib9gw/mqdefault.jpg","viewCount":"1352","playlistId":"PLEkQk5xrP-tkSGrPLMt1BEmJ54cGWYgtp","playlistName":"كتابُ بِدَعِ التَفَاسِيرِ - أ.د. يسري جبر","category":"متنوع"},{"id":"nfJdEzln6BA","title":"70- نبذة عن سيدنا طلحة بن عبيد الله رضي الله عنه أحد العشرة المبشرين بالجنة - شرح مسند الإمام أحمد","publishedAt":"2024-02-01T06:30:29Z","duration":"PT37M10S","thumbnail":"https://i.ytimg.com/vi/nfJdEzln6BA/mqdefault.jpg","viewCount":"1351","playlistId":"PLEkQk5xrP-tkKprIuGrSdEuBSMsyg5We1","playlistName":"شرح مسند الإمام أحمد بن حنبل","category":"متنوع"},{"id":"fq5F5b2VG-0","title":"13- حكم العزل وأسبابه | حكم الحلف بغير الله - شرح مسند الإمام أحمد","publishedAt":"2023-08-08T08:59:00Z","duration":"PT46M52S","thumbnail":"https://i.ytimg.com/vi/fq5F5b2VG-0/mqdefault.jpg","viewCount":"1351","playlistId":"PLEkQk5xrP-tkKprIuGrSdEuBSMsyg5We1","playlistName":"شرح مسند الإمام أحمد بن حنبل","category":"متنوع"},{"id":"Qa41-lgfvXU","title":"156- \"…لِيَلِنِي مِنكُم أُولو الأحْلَامِ والنُّهَى…\" - شرح دليل الفالحين","publishedAt":"2021-11-22T06:08:50Z","duration":"PT22M45S","thumbnail":"https://i.ytimg.com/vi/Qa41-lgfvXU/mqdefault.jpg","viewCount":"1350","playlistId":"PLEkQk5xrP-tkc9DXvSLguqX5-FYp6ASR4","playlistName":"دليل الفالحين لطرق رياض الصالحين","category":"متنوع"},{"id":"aRC1umZVGlM","title":"53- فضل وثواب صلاة الجماعة | شرح مختصر الفتوحات المكية","publishedAt":"2025-10-19T17:15:00Z","duration":"PT37M","thumbnail":"https://i.ytimg.com/vi/aRC1umZVGlM/mqdefault.jpg","viewCount":"1350","playlistId":"PLEkQk5xrP-tnpkdZki6rPTtMak1bnI5g-","playlistName":"شرح كتاب مختصر الفتوحات المكية المسمى لواقح الأنوار القدسية","category":"متنوع"},{"id":"iiUVDXCWvvQ","title":"حَدِيث (١٨٥)\"أحب الصيام إلى الله صيام داود..\" | أ.د. يسري جبر","publishedAt":"2021-04-15T15:15:01Z","duration":"PT37M59S","thumbnail":"https://i.ytimg.com/vi/iiUVDXCWvvQ/mqdefault.jpg","viewCount":"1349","playlistId":"PLEkQk5xrP-tnl7vb7KeAoPd5ZlqKKW8KV","playlistName":"شرح كتاب بهجة النفوس أ.د . يسرى جبر","category":"متنوع"}],"total":4126,"page":80,"pageSize":24,"totalPages":172}