{"items":[{"id":"iOAeskBcDEc","title":"مقرأة سورة ص من آية ٤١","publishedAt":"2018-10-04T11:12:14Z","duration":"PT18M26S","thumbnail":"https://i.ytimg.com/vi/iOAeskBcDEc/mqdefault.jpg","viewCount":"610","playlistId":"PLEkQk5xrP-tnmTYsyW6xNdyfhPq0Bhrhj","playlistName":"مقرأة الفجر - القُرْآنُ الكَرِيمُ - خَتْمَةُ التَّدَبُّرِ  أ.د. يسري جبر","category":"متنوع"},{"id":"QT7K2TMCgyY","title":"121- هل حجَّ النَّبيّ ﷺ مفردا أم متمتعا أم قارنا؟ ومتى تبدأ التلبية؟","publishedAt":"2024-08-25T06:38:30Z","duration":"PT33M2S","thumbnail":"https://i.ytimg.com/vi/QT7K2TMCgyY/mqdefault.jpg","viewCount":"610","playlistId":"PLEkQk5xrP-tkKprIuGrSdEuBSMsyg5We1","playlistName":"شرح مسند الإمام أحمد بن حنبل","category":"متنوع"},{"id":"MzlujKISOB4","title":"315- ما يُقرأ في الصَّلاة على الجنازة - شرح دليل الفالحين","publishedAt":"2022-10-21T07:30:06Z","duration":"PT41M13S","thumbnail":"https://i.ytimg.com/vi/MzlujKISOB4/mqdefault.jpg","viewCount":"608","playlistId":"PLEkQk5xrP-tkc9DXvSLguqX5-FYp6ASR4","playlistName":"دليل الفالحين لطرق رياض الصالحين","category":"متنوع"},{"id":"syZOSGJVw3U","title":"مقرأة سورة يس من آية ٦٦","publishedAt":"2018-09-09T09:45:17Z","duration":"PT19M39S","thumbnail":"https://i.ytimg.com/vi/syZOSGJVw3U/mqdefault.jpg","viewCount":"608","playlistId":"PLEkQk5xrP-tnmTYsyW6xNdyfhPq0Bhrhj","playlistName":"مقرأة الفجر - القُرْآنُ الكَرِيمُ - خَتْمَةُ التَّدَبُّرِ  أ.د. يسري جبر","category":"متنوع"},{"id":"KcNohBHdveo","title":"مقرأة سورة الواقعة من آية ٧٥","publishedAt":"2019-03-17T10:53:11Z","duration":"PT26M31S","thumbnail":"https://i.ytimg.com/vi/KcNohBHdveo/mqdefault.jpg","viewCount":"607","playlistId":"PLEkQk5xrP-tnmTYsyW6xNdyfhPq0Bhrhj","playlistName":"مقرأة الفجر - القُرْآنُ الكَرِيمُ - خَتْمَةُ التَّدَبُّرِ  أ.د. يسري جبر","category":"متنوع"},{"id":"r-BJwj9TITI","title":"175- الدين النصيحة - شرح مسند الإمام أحمد رضي الله تعالى عنه","publishedAt":"2025-10-19T09:01:15Z","duration":"PT37M55S","thumbnail":"https://i.ytimg.com/vi/r-BJwj9TITI/mqdefault.jpg","viewCount":"606","playlistId":"PLEkQk5xrP-tkKprIuGrSdEuBSMsyg5We1","playlistName":"شرح مسند الإمام أحمد بن حنبل","category":"متنوع"},{"id":"mpqPuEWdx08","title":"مقرأة سورة الملك من آية ١٣","publishedAt":"2019-05-02T21:56:13Z","duration":"PT21M55S","thumbnail":"https://i.ytimg.com/vi/mpqPuEWdx08/mqdefault.jpg","viewCount":"606","playlistId":"PLEkQk5xrP-tnmTYsyW6xNdyfhPq0Bhrhj","playlistName":"مقرأة الفجر - القُرْآنُ الكَرِيمُ - خَتْمَةُ التَّدَبُّرِ  أ.د. يسري جبر","category":"متنوع"},{"id":"fjcjgln7vM8","title":"مقرأة سورة الكهف من آية ١٩","publishedAt":"2017-10-17T09:12:27Z","duration":"PT27M","thumbnail":"https://i.ytimg.com/vi/fjcjgln7vM8/mqdefault.jpg","viewCount":"606","playlistId":"PLEkQk5xrP-tnmTYsyW6xNdyfhPq0Bhrhj","playlistName":"مقرأة الفجر - القُرْآنُ الكَرِيمُ - خَتْمَةُ التَّدَبُّرِ  أ.د. يسري جبر","category":"متنوع"},{"id":"RLHWEByGVoM","title":"341- فضلُ صلاةِ الجماعة - شرح دليل الفالحين","publishedAt":"2022-11-23T09:00:12Z","duration":"PT54M51S","thumbnail":"https://i.ytimg.com/vi/RLHWEByGVoM/mqdefault.jpg","viewCount":"605","playlistId":"PLEkQk5xrP-tkc9DXvSLguqX5-FYp6ASR4","playlistName":"دليل الفالحين لطرق رياض الصالحين","category":"متنوع"},{"id":"8Xnz3exag6U","title":"461- النهي عن التَّطَيُّر - شرح دليل الفالحين","publishedAt":"2023-05-30T18:00:04Z","duration":"PT22M15S","thumbnail":"https://i.ytimg.com/vi/8Xnz3exag6U/mqdefault.jpg","viewCount":"605","playlistId":"PLEkQk5xrP-tkc9DXvSLguqX5-FYp6ASR4","playlistName":"دليل الفالحين لطرق رياض الصالحين","category":"متنوع"},{"id":"xlJTUnVYBLM","title":"174- ما معنى الركاز؟ | كيفية التصرف في الكنز المدفون - شرح مسند الإمام أحمد رضي الله عنه","publishedAt":"2025-10-16T09:01:35Z","duration":"PT35M33S","thumbnail":"https://i.ytimg.com/vi/xlJTUnVYBLM/mqdefault.jpg","viewCount":"603","playlistId":"PLEkQk5xrP-tkKprIuGrSdEuBSMsyg5We1","playlistName":"شرح مسند الإمام أحمد بن حنبل","category":"متنوع"},{"id":"fT13ER_ktCA","title":"مقرأة سورة التكاثر من أولها","publishedAt":"2019-08-06T19:33:38Z","duration":"PT10M47S","thumbnail":"https://i.ytimg.com/vi/fT13ER_ktCA/mqdefault.jpg","viewCount":"603","playlistId":"PLEkQk5xrP-tnmTYsyW6xNdyfhPq0Bhrhj","playlistName":"مقرأة الفجر - القُرْآنُ الكَرِيمُ - خَتْمَةُ التَّدَبُّرِ  أ.د. يسري جبر","category":"متنوع"},{"id":"6F_C2W7wC0M","title":"322- إعانة الرفيق - شرح دليل الفالحين","publishedAt":"2022-10-30T09:00:05Z","duration":"PT51M41S","thumbnail":"https://i.ytimg.com/vi/6F_C2W7wC0M/mqdefault.jpg","viewCount":"602","playlistId":"PLEkQk5xrP-tkc9DXvSLguqX5-FYp6ASR4","playlistName":"دليل الفالحين لطرق رياض الصالحين","category":"متنوع"},{"id":"0f3RsekIQUw","title":"474- حكم صَلاةِ النَّافِلةِ إذا أُقيمتْ صَلاةُ الفَريضة - شرح دليل الفالحين","publishedAt":"2023-06-11T18:00:00Z","duration":"PT33M14S","thumbnail":"https://i.ytimg.com/vi/0f3RsekIQUw/mqdefault.jpg","viewCount":"600","playlistId":"PLEkQk5xrP-tkc9DXvSLguqX5-FYp6ASR4","playlistName":"دليل الفالحين لطرق رياض الصالحين","category":"متنوع"},{"id":"nltVpcSXYMk","title":"84- باب مَا جَاءَ فِى الْقِرَاضِ شرح الموطأ د يسري جبر","publishedAt":"2018-10-09T14:15:56Z","duration":"PT48M33S","thumbnail":"https://i.ytimg.com/vi/nltVpcSXYMk/mqdefault.jpg","viewCount":"600","playlistId":"PLEkQk5xrP-tnC6BRuqMjyO-484iqXeg0o","playlistName":"شرح كتاب الموطأ للإمام مالك","category":"متنوع"},{"id":"-_0fel8_IZ0","title":"مقرأة سورة المؤمنون آية ٣١","publishedAt":"2018-02-24T12:18:41Z","duration":"PT19M21S","thumbnail":"https://i.ytimg.com/vi/-_0fel8_IZ0/mqdefault.jpg","viewCount":"600","playlistId":"PLEkQk5xrP-tnmTYsyW6xNdyfhPq0Bhrhj","playlistName":"مقرأة الفجر - القُرْآنُ الكَرِيمُ - خَتْمَةُ التَّدَبُّرِ  أ.د. يسري جبر","category":"متنوع"},{"id":"C7LXjZXwb78","title":"344- فضل الصف الأول - شرح دليل الفالحين","publishedAt":"2022-11-27T09:00:07Z","duration":"PT47M2S","thumbnail":"https://i.ytimg.com/vi/C7LXjZXwb78/mqdefault.jpg","viewCount":"599","playlistId":"PLEkQk5xrP-tkc9DXvSLguqX5-FYp6ASR4","playlistName":"دليل الفالحين لطرق رياض الصالحين","category":"متنوع"},{"id":"OzySIHNWEu0","title":"مقرأة سورة التحريم من أولها","publishedAt":"2019-04-25T22:50:20Z","duration":"PT16M57S","thumbnail":"https://i.ytimg.com/vi/OzySIHNWEu0/mqdefault.jpg","viewCount":"599","playlistId":"PLEkQk5xrP-tnmTYsyW6xNdyfhPq0Bhrhj","playlistName":"مقرأة الفجر - القُرْآنُ الكَرِيمُ - خَتْمَةُ التَّدَبُّرِ  أ.د. يسري جبر","category":"متنوع"},{"id":"uZRZREYBpsc","title":"65-  كيف يصلي المريض؟ وكيفية قضاء الصلاة الفائتة | شرح سنن الإمام الدارقطني","publishedAt":"2025-10-18T10:01:36Z","duration":"PT33M58S","thumbnail":"https://i.ytimg.com/vi/uZRZREYBpsc/mqdefault.jpg","viewCount":"598","playlistId":"PLEkQk5xrP-tk_MCBZ706ORCw6gFtFyaGj","playlistName":"شرح سنن الإمام الدارقطني","category":"متنوع"},{"id":"mwxF3IvL23w","title":"مقرأة سورة الملك من آية ٢٢","publishedAt":"2019-05-03T21:28:46Z","duration":"PT23M38S","thumbnail":"https://i.ytimg.com/vi/mwxF3IvL23w/mqdefault.jpg","viewCount":"598","playlistId":"PLEkQk5xrP-tnmTYsyW6xNdyfhPq0Bhrhj","playlistName":"مقرأة الفجر - القُرْآنُ الكَرِيمُ - خَتْمَةُ التَّدَبُّرِ  أ.د. يسري جبر","category":"متنوع"},{"id":"YbfVYHtoNzM","title":"مقرأة سورة يوسف من آية ٦٨","publishedAt":"2017-07-04T08:29:14Z","duration":"PT25M44S","thumbnail":"https://i.ytimg.com/vi/YbfVYHtoNzM/mqdefault.jpg","viewCount":"598","playlistId":"PLEkQk5xrP-tnmTYsyW6xNdyfhPq0Bhrhj","playlistName":"مقرأة الفجر - القُرْآنُ الكَرِيمُ - خَتْمَةُ التَّدَبُّرِ  أ.د. يسري جبر","category":"متنوع"},{"id":"VveO29qI8cY","title":"قراءة القرآن (من آية ٢١ سورة آل عمران)","publishedAt":"2016-06-08T18:50:21Z","duration":"PT8M37S","thumbnail":"https://i.ytimg.com/vi/VveO29qI8cY/mqdefault.jpg","viewCount":"598","playlistId":"PLEkQk5xrP-tnmTYsyW6xNdyfhPq0Bhrhj","playlistName":"مقرأة الفجر - القُرْآنُ الكَرِيمُ - خَتْمَةُ التَّدَبُّرِ  أ.د. يسري جبر","category":"متنوع"},{"id":"a6ggS5qjRkA","title":"كيف كان رسول الله أحسن الناس خُلقاً | اعرف نبيك","publishedAt":"2015-09-09T16:23:04Z","duration":"PT7M40S","thumbnail":"https://i.ytimg.com/vi/a6ggS5qjRkA/mqdefault.jpg","viewCount":"595","playlistId":"PLEkQk5xrP-tl6Mu_Mz3QMUSv5T6XBH-Dg","playlistName":"برنامج اعرف نبيك","category":"متنوع"},{"id":"OK-frGmHD5c","title":"شرح سنن الدارمي - المقدمة - ٢٢","publishedAt":"2019-03-12T12:12:02Z","duration":"PT31M53S","thumbnail":"https://i.ytimg.com/vi/OK-frGmHD5c/mqdefault.jpg","viewCount":"594","playlistId":"PLEkQk5xrP-tmAg-FuWjY057X_h5NmGmAa","playlistName":"شرح سنن الدارمي - أ.د. يسري جبر (كاملا)","category":"متنوع"}],"total":4126,"page":113,"pageSize":24,"totalPages":172}