{"items":[{"id":"iICWvhmaPPU","title":"سورة النساء آية 58","publishedAt":"2016-08-26T06:46:14Z","duration":"PT10M","thumbnail":"https://i.ytimg.com/vi/iICWvhmaPPU/mqdefault.jpg","viewCount":"465","playlistId":"PLEkQk5xrP-tnmTYsyW6xNdyfhPq0Bhrhj","playlistName":"مقرأة الفجر - القُرْآنُ الكَرِيمُ - خَتْمَةُ التَّدَبُّرِ  أ.د. يسري جبر","category":"متنوع"},{"id":"7i5x8JAMm8k","title":"سورة المائدة آية 51","publishedAt":"2016-11-11T12:46:56Z","duration":"PT14M58S","thumbnail":"https://i.ytimg.com/vi/7i5x8JAMm8k/mqdefault.jpg","viewCount":"464","playlistId":"PLEkQk5xrP-tnmTYsyW6xNdyfhPq0Bhrhj","playlistName":"مقرأة الفجر - القُرْآنُ الكَرِيمُ - خَتْمَةُ التَّدَبُّرِ  أ.د. يسري جبر","category":"متنوع"},{"id":"H0-a9qjLT6Q","title":"مقرأة سورة الحجر من آية ٢٦","publishedAt":"2017-08-08T09:20:11Z","duration":"PT38M22S","thumbnail":"https://i.ytimg.com/vi/H0-a9qjLT6Q/mqdefault.jpg","viewCount":"464","playlistId":"PLEkQk5xrP-tnmTYsyW6xNdyfhPq0Bhrhj","playlistName":"مقرأة الفجر - القُرْآنُ الكَرِيمُ - خَتْمَةُ التَّدَبُّرِ  أ.د. يسري جبر","category":"متنوع"},{"id":"AqhaW43TrzE","title":"مقرأة سورة آل عمران من آية ١٣٥","publishedAt":"2019-09-27T16:48:46Z","duration":"PT8M58S","thumbnail":"https://i.ytimg.com/vi/AqhaW43TrzE/mqdefault.jpg","viewCount":"463","playlistId":"PLEkQk5xrP-tnmTYsyW6xNdyfhPq0Bhrhj","playlistName":"مقرأة الفجر - القُرْآنُ الكَرِيمُ - خَتْمَةُ التَّدَبُّرِ  أ.د. يسري جبر","category":"متنوع"},{"id":"zrXAvhKCE1o","title":"464- النهي عن البصاق في المسجد والأمر بإزالته منه إذا وُجد فيه والأمر بتنزيه المسجد عن الأقذار","publishedAt":"2023-06-02T08:59:00Z","duration":"PT32M32S","thumbnail":"https://i.ytimg.com/vi/zrXAvhKCE1o/mqdefault.jpg","viewCount":"463","playlistId":"PLEkQk5xrP-tkc9DXvSLguqX5-FYp6ASR4","playlistName":"دليل الفالحين لطرق رياض الصالحين","category":"متنوع"},{"id":"M3JU5ghnsXo","title":"سورة الأنعام آية 50","publishedAt":"2016-12-07T07:33:25Z","duration":"PT31M16S","thumbnail":"https://i.ytimg.com/vi/M3JU5ghnsXo/mqdefault.jpg","viewCount":"463","playlistId":"PLEkQk5xrP-tnmTYsyW6xNdyfhPq0Bhrhj","playlistName":"مقرأة الفجر - القُرْآنُ الكَرِيمُ - خَتْمَةُ التَّدَبُّرِ  أ.د. يسري جبر","category":"متنوع"},{"id":"uCOvjH3NjFQ","title":"377- فضل مَن فطَّر صائمًا - شرح دليل الفالحين","publishedAt":"2023-01-08T09:00:26Z","duration":"PT21M22S","thumbnail":"https://i.ytimg.com/vi/uCOvjH3NjFQ/mqdefault.jpg","viewCount":"463","playlistId":"PLEkQk5xrP-tkc9DXvSLguqX5-FYp6ASR4","playlistName":"دليل الفالحين لطرق رياض الصالحين","category":"متنوع"},{"id":"t6i_6MBVjns","title":"شرح سنن الدارمي - المقدمة - ٥٧","publishedAt":"2019-04-02T21:11:35Z","duration":"PT40M24S","thumbnail":"https://i.ytimg.com/vi/t6i_6MBVjns/mqdefault.jpg","viewCount":"463","playlistId":"PLEkQk5xrP-tmAg-FuWjY057X_h5NmGmAa","playlistName":"شرح سنن الدارمي - أ.د. يسري جبر (كاملا)","category":"متنوع"},{"id":"7vuqDXNfm4I","title":"مقرأة سورة الرعد من آية ٥","publishedAt":"2017-07-17T11:03:43Z","duration":"PT16M39S","thumbnail":"https://i.ytimg.com/vi/7vuqDXNfm4I/mqdefault.jpg","viewCount":"462","playlistId":"PLEkQk5xrP-tnmTYsyW6xNdyfhPq0Bhrhj","playlistName":"مقرأة الفجر - القُرْآنُ الكَرِيمُ - خَتْمَةُ التَّدَبُّرِ  أ.د. يسري جبر","category":"متنوع"},{"id":"bdxhyB49r74","title":"هل مات النبي وهو راضٍ عن أمته؟| اعرف نبيك","publishedAt":"2015-11-18T14:46:05Z","duration":"PT1M27S","thumbnail":"https://i.ytimg.com/vi/bdxhyB49r74/mqdefault.jpg","viewCount":"461","playlistId":"PLEkQk5xrP-tl6Mu_Mz3QMUSv5T6XBH-Dg","playlistName":"برنامج اعرف نبيك","category":"متنوع"},{"id":"AkU2mBAl2tQ","title":"( 119 ) حديث الإفك وبراءة السيدة عائشة أم المؤمنين منه","publishedAt":"2016-06-22T16:38:01Z","duration":"PT27M57S","thumbnail":"https://i.ytimg.com/vi/AkU2mBAl2tQ/mqdefault.jpg","viewCount":"460","playlistId":"PLEkQk5xrP-tnl7vb7KeAoPd5ZlqKKW8KV","playlistName":"شرح كتاب بهجة النفوس أ.د . يسرى جبر","category":"متنوع"},{"id":"8wlh8Qshu48","title":"حل الإشكال في حديث عاشوراء | اعرف نبيك في رمضان","publishedAt":"2016-06-21T19:43:41Z","duration":"PT6M48S","thumbnail":"https://i.ytimg.com/vi/8wlh8Qshu48/mqdefault.jpg","viewCount":"460","playlistId":"PLEkQk5xrP-tmhJ_gpAAFyOpEsHp0_VAJ-","playlistName":"برنامج اعرف نبيك في رمضان","category":"متنوع"},{"id":"1bQUxIXsmEs","title":"مقرأة سورة الأنعام من آية ١١١","publishedAt":"2016-12-29T07:39:23Z","duration":"PT25M11S","thumbnail":"https://i.ytimg.com/vi/1bQUxIXsmEs/mqdefault.jpg","viewCount":"460","playlistId":"PLEkQk5xrP-tnmTYsyW6xNdyfhPq0Bhrhj","playlistName":"مقرأة الفجر - القُرْآنُ الكَرِيمُ - خَتْمَةُ التَّدَبُّرِ  أ.د. يسري جبر","category":"متنوع"},{"id":"KDZ5Uyo5kN4","title":"سورة التوبة آية 28","publishedAt":"2017-04-11T15:30:09Z","duration":"PT20M54S","thumbnail":"https://i.ytimg.com/vi/KDZ5Uyo5kN4/mqdefault.jpg","viewCount":"460","playlistId":"PLEkQk5xrP-tnmTYsyW6xNdyfhPq0Bhrhj","playlistName":"مقرأة الفجر - القُرْآنُ الكَرِيمُ - خَتْمَةُ التَّدَبُّرِ  أ.د. يسري جبر","category":"متنوع"},{"id":"PMsJ7ehzTKc","title":"25- كتاب صلاة الخوف والكسوف ك الموطأ د يسري جبر الأزهري بمضيفة الشيخ سعيد الدح","publishedAt":"2016-09-12T14:57:43Z","duration":"PT53M47S","thumbnail":"https://i.ytimg.com/vi/PMsJ7ehzTKc/mqdefault.jpg","viewCount":"459","playlistId":"PLEkQk5xrP-tnC6BRuqMjyO-484iqXeg0o","playlistName":"شرح كتاب الموطأ للإمام مالك","category":"متنوع"},{"id":"461Vp2JucNg","title":"١٥٢ حديث قتل الكافر والمرتد وإن التجأ إلى الحرم. د. يسري جبر","publishedAt":"2018-05-30T13:07:49Z","duration":"PT30M31S","thumbnail":"https://i.ytimg.com/vi/461Vp2JucNg/mqdefault.jpg","viewCount":"459","playlistId":"PLEkQk5xrP-tnl7vb7KeAoPd5ZlqKKW8KV","playlistName":"شرح كتاب بهجة النفوس أ.د . يسرى جبر","category":"متنوع"},{"id":"WacME9oLiqs","title":"شرح كتاب الفتن من سنن الترمذي - المجلس الأول","publishedAt":"2015-12-14T06:28:03Z","duration":"PT26M23S","thumbnail":"https://i.ytimg.com/vi/WacME9oLiqs/mqdefault.jpg","viewCount":"459","playlistId":"PLEkQk5xrP-tnu6of679SvxdVx0qSrJzmb","playlistName":"شرح سنن الإمام الترمذي رضى الله عنه د. يسري جبر","category":"متنوع"},{"id":"0m1IR4ffrs8","title":"شرح سنن الدارمي كتاب الأطعمة من أوله","publishedAt":"2019-07-24T22:38:27Z","duration":"PT27M22S","thumbnail":"https://i.ytimg.com/vi/0m1IR4ffrs8/mqdefault.jpg","viewCount":"458","playlistId":"PLEkQk5xrP-tmAg-FuWjY057X_h5NmGmAa","playlistName":"شرح سنن الدارمي - أ.د. يسري جبر (كاملا)","category":"متنوع"},{"id":"dUuBo8qAnPY","title":"مقرأة سورة الرعد من آية ٨","publishedAt":"2017-07-18T08:58:01Z","duration":"PT15M20S","thumbnail":"https://i.ytimg.com/vi/dUuBo8qAnPY/mqdefault.jpg","viewCount":"458","playlistId":"PLEkQk5xrP-tnmTYsyW6xNdyfhPq0Bhrhj","playlistName":"مقرأة الفجر - القُرْآنُ الكَرِيمُ - خَتْمَةُ التَّدَبُّرِ  أ.د. يسري جبر","category":"متنوع"},{"id":"NUMTJJVQtMg","title":"129- حكم صيام يوم عرفة للحاج - شرح مسند الإمام أحمد رضي الله تعالى عنه","publishedAt":"2024-10-20T06:00:12Z","duration":"PT22M27S","thumbnail":"https://i.ytimg.com/vi/NUMTJJVQtMg/mqdefault.jpg","viewCount":"457","playlistId":"PLEkQk5xrP-tkKprIuGrSdEuBSMsyg5We1","playlistName":"شرح مسند الإمام أحمد بن حنبل","category":"متنوع"},{"id":"xlXNq7POmE8","title":"شرح سنن الدارمي كتاب الصلاة من باب ٢٢","publishedAt":"2019-04-29T13:32:36Z","duration":"PT33M9S","thumbnail":"https://i.ytimg.com/vi/xlXNq7POmE8/mqdefault.jpg","viewCount":"457","playlistId":"PLEkQk5xrP-tmAg-FuWjY057X_h5NmGmAa","playlistName":"شرح سنن الدارمي - أ.د. يسري جبر (كاملا)","category":"متنوع"},{"id":"dz8ZvlBKKlU","title":"مقرأة سورة آل عمران من آية ١٤٩","publishedAt":"2019-09-28T11:24:21Z","duration":"PT16M10S","thumbnail":"https://i.ytimg.com/vi/dz8ZvlBKKlU/mqdefault.jpg","viewCount":"456","playlistId":"PLEkQk5xrP-tnmTYsyW6xNdyfhPq0Bhrhj","playlistName":"مقرأة الفجر - القُرْآنُ الكَرِيمُ - خَتْمَةُ التَّدَبُّرِ  أ.د. يسري جبر","category":"متنوع"},{"id":"IkVszKGW9As","title":"مقرأة سورة الحجرات من آية ٣","publishedAt":"2019-01-25T21:36:41Z","duration":"PT16M40S","thumbnail":"https://i.ytimg.com/vi/IkVszKGW9As/mqdefault.jpg","viewCount":"456","playlistId":"PLEkQk5xrP-tnmTYsyW6xNdyfhPq0Bhrhj","playlistName":"مقرأة الفجر - القُرْآنُ الكَرِيمُ - خَتْمَةُ التَّدَبُّرِ  أ.د. يسري جبر","category":"متنوع"},{"id":"nmAl0cu3k30","title":"مقرأة سورة إبراهيم من آية ٥","publishedAt":"2017-07-27T13:55:39Z","duration":"PT29M49S","thumbnail":"https://i.ytimg.com/vi/nmAl0cu3k30/mqdefault.jpg","viewCount":"456","playlistId":"PLEkQk5xrP-tnmTYsyW6xNdyfhPq0Bhrhj","playlistName":"مقرأة الفجر - القُرْآنُ الكَرِيمُ - خَتْمَةُ التَّدَبُّرِ  أ.د. يسري جبر","category":"متنوع"}],"total":4126,"page":125,"pageSize":24,"totalPages":172}