{"items":[{"id":"9zlafNifljE","title":"كيفية حل الخلافات الزوجية؟","publishedAt":"2025-05-10T18:00:14Z","duration":"PT13M30S","thumbnail":"https://i.ytimg.com/vi/9zlafNifljE/mqdefault.jpg","viewCount":"50","playlistId":"PLEkQk5xrP-tkGXuZ9atE3k_7it12rUPTs","playlistName":"أسئلة المتابعين","category":"متنوع"}],"total":4129,"page":173,"pageSize":24,"totalPages":173}