{"items":[{"id":"t9V6UFjk7F4","title":"حَدِيث (١٨٦)\"أول مسجد وضع للصلاة\" | أ.د. يسري جبر","publishedAt":"2021-04-16T15:30:04Z","duration":"PT14M8S","thumbnail":"https://i.ytimg.com/vi/t9V6UFjk7F4/mqdefault.jpg","viewCount":"505","playlistId":"PLEkQk5xrP-tnl7vb7KeAoPd5ZlqKKW8KV","playlistName":"شرح كتاب بهجة النفوس أ.د . يسرى جبر","category":"متنوع"},{"id":"nFb5rwB0uFA","title":"مقرأة سورة الحديد من آية ٢٦","publishedAt":"2019-03-24T11:27:09Z","duration":"PT16M5S","thumbnail":"https://i.ytimg.com/vi/nFb5rwB0uFA/mqdefault.jpg","viewCount":"505","playlistId":"PLEkQk5xrP-tnmTYsyW6xNdyfhPq0Bhrhj","playlistName":"مقرأة الفجر - القُرْآنُ الكَرِيمُ - خَتْمَةُ التَّدَبُّرِ  أ.د. يسري جبر","category":"متنوع"},{"id":"aFkrYBsv6EY","title":"شرح سنن الدارمي - المقدمة - ٢٥","publishedAt":"2019-03-17T23:24:16Z","duration":"PT27M27S","thumbnail":"https://i.ytimg.com/vi/aFkrYBsv6EY/mqdefault.jpg","viewCount":"505","playlistId":"PLEkQk5xrP-tmAg-FuWjY057X_h5NmGmAa","playlistName":"شرح سنن الدارمي - أ.د. يسري جبر (كاملا)","category":"متنوع"},{"id":"hVk67GdjVmI","title":"مقرأة سورة ص من آية ٢٧","publishedAt":"2018-10-03T10:51:56Z","duration":"PT25M54S","thumbnail":"https://i.ytimg.com/vi/hVk67GdjVmI/mqdefault.jpg","viewCount":"505","playlistId":"PLEkQk5xrP-tnmTYsyW6xNdyfhPq0Bhrhj","playlistName":"مقرأة الفجر - القُرْآنُ الكَرِيمُ - خَتْمَةُ التَّدَبُّرِ  أ.د. يسري جبر","category":"متنوع"},{"id":"3KPycNKqFAc","title":"مقرأة سورة يوسف من آية ٨٨","publishedAt":"2017-07-06T10:58:01Z","duration":"PT17M50S","thumbnail":"https://i.ytimg.com/vi/3KPycNKqFAc/mqdefault.jpg","viewCount":"504","playlistId":"PLEkQk5xrP-tnmTYsyW6xNdyfhPq0Bhrhj","playlistName":"مقرأة الفجر - القُرْآنُ الكَرِيمُ - خَتْمَةُ التَّدَبُّرِ  أ.د. يسري جبر","category":"متنوع"},{"id":"3fluTVksOtQ","title":"قراءة القرآن (من آية ٦٩ سورة آل عمران)","publishedAt":"2016-07-11T21:31:33Z","duration":"PT13M38S","thumbnail":"https://i.ytimg.com/vi/3fluTVksOtQ/mqdefault.jpg","viewCount":"503","playlistId":"PLEkQk5xrP-tnmTYsyW6xNdyfhPq0Bhrhj","playlistName":"مقرأة الفجر - القُرْآنُ الكَرِيمُ - خَتْمَةُ التَّدَبُّرِ  أ.د. يسري جبر","category":"متنوع"},{"id":"hAR9ZNiSC88","title":"سورة الأعراف آية 80","publishedAt":"2017-02-17T07:50:40Z","duration":"PT28M44S","thumbnail":"https://i.ytimg.com/vi/hAR9ZNiSC88/mqdefault.jpg","viewCount":"502","playlistId":"PLEkQk5xrP-tnmTYsyW6xNdyfhPq0Bhrhj","playlistName":"مقرأة الفجر - القُرْآنُ الكَرِيمُ - خَتْمَةُ التَّدَبُّرِ  أ.د. يسري جبر","category":"متنوع"},{"id":"xO7rR76-7v4","title":"مقرأة سورة الصافات من آية ١٤٩","publishedAt":"2018-09-26T09:35:10Z","duration":"PT28M51S","thumbnail":"https://i.ytimg.com/vi/xO7rR76-7v4/mqdefault.jpg","viewCount":"502","playlistId":"PLEkQk5xrP-tnmTYsyW6xNdyfhPq0Bhrhj","playlistName":"مقرأة الفجر - القُرْآنُ الكَرِيمُ - خَتْمَةُ التَّدَبُّرِ  أ.د. يسري جبر","category":"متنوع"},{"id":"LsvXZTKwXMg","title":"مقرأة سورة القارعة من أولها","publishedAt":"2019-08-05T16:59:28Z","duration":"PT10M49S","thumbnail":"https://i.ytimg.com/vi/LsvXZTKwXMg/mqdefault.jpg","viewCount":"501","playlistId":"PLEkQk5xrP-tnmTYsyW6xNdyfhPq0Bhrhj","playlistName":"مقرأة الفجر - القُرْآنُ الكَرِيمُ - خَتْمَةُ التَّدَبُّرِ  أ.د. يسري جبر","category":"متنوع"},{"id":"d7E4OaEFAKQ","title":"المجلس الثالث عشر من الحديث (١٦٠) حديث إسراء النبي صلى الله عليه وآله وسلم ومعراجه أ. د. يسري جبر","publishedAt":"2019-05-08T17:18:26Z","duration":"PT26M17S","thumbnail":"https://i.ytimg.com/vi/d7E4OaEFAKQ/mqdefault.jpg","viewCount":"501","playlistId":"PLEkQk5xrP-tnl7vb7KeAoPd5ZlqKKW8KV","playlistName":"شرح كتاب بهجة النفوس أ.د . يسرى جبر","category":"متنوع"},{"id":"H07ObVnqsK4","title":"مقرأة سورة النور من آية ٣٠","publishedAt":"2018-03-15T10:41:50Z","duration":"PT36M36S","thumbnail":"https://i.ytimg.com/vi/H07ObVnqsK4/mqdefault.jpg","viewCount":"501","playlistId":"PLEkQk5xrP-tnmTYsyW6xNdyfhPq0Bhrhj","playlistName":"مقرأة الفجر - القُرْآنُ الكَرِيمُ - خَتْمَةُ التَّدَبُّرِ  أ.د. يسري جبر","category":"متنوع"},{"id":"r0EiEZa89XE","title":"392- فضلُ العِتْقِ - شرح دليل الفالحين","publishedAt":"2023-01-25T09:00:35Z","duration":"PT42M5S","thumbnail":"https://i.ytimg.com/vi/r0EiEZa89XE/mqdefault.jpg","viewCount":"498","playlistId":"PLEkQk5xrP-tkc9DXvSLguqX5-FYp6ASR4","playlistName":"دليل الفالحين لطرق رياض الصالحين","category":"متنوع"},{"id":"OVoU8BZlp9Q","title":"حديث (١٧٥) حديثُ عِظَم حَرِّ نَارِ جَهَنَّمَ .  أ.د. يسري جبر","publishedAt":"2019-05-29T09:50:53Z","duration":"PT15M25S","thumbnail":"https://i.ytimg.com/vi/OVoU8BZlp9Q/mqdefault.jpg","viewCount":"498","playlistId":"PLEkQk5xrP-tnl7vb7KeAoPd5ZlqKKW8KV","playlistName":"شرح كتاب بهجة النفوس أ.د . يسرى جبر","category":"متنوع"},{"id":"9s1gGfm6p3c","title":"كان سيدنا محمد يقوم يصلي حتى تنتفخ قدماه | اعرف نبيك","publishedAt":"2015-07-30T15:06:41Z","duration":"PT1M56S","thumbnail":"https://i.ytimg.com/vi/9s1gGfm6p3c/mqdefault.jpg","viewCount":"498","playlistId":"PLEkQk5xrP-tl6Mu_Mz3QMUSv5T6XBH-Dg","playlistName":"برنامج اعرف نبيك","category":"متنوع"},{"id":"ARv7jSYnKUA","title":"مقرأة سورة مريم من آية ٧٣","publishedAt":"2017-11-21T13:46:59Z","duration":"PT11M13S","thumbnail":"https://i.ytimg.com/vi/ARv7jSYnKUA/mqdefault.jpg","viewCount":"497","playlistId":"PLEkQk5xrP-tnmTYsyW6xNdyfhPq0Bhrhj","playlistName":"مقرأة الفجر - القُرْآنُ الكَرِيمُ - خَتْمَةُ التَّدَبُّرِ  أ.د. يسري جبر","category":"متنوع"},{"id":"loUzDnqV9zw","title":"سورة التوبة آية 20","publishedAt":"2017-04-08T21:28:31Z","duration":"PT22M19S","thumbnail":"https://i.ytimg.com/vi/loUzDnqV9zw/mqdefault.jpg","viewCount":"496","playlistId":"PLEkQk5xrP-tnmTYsyW6xNdyfhPq0Bhrhj","playlistName":"مقرأة الفجر - القُرْآنُ الكَرِيمُ - خَتْمَةُ التَّدَبُّرِ  أ.د. يسري جبر","category":"متنوع"},{"id":"7yFAVlNDbtU","title":"قراءة وتفسير سورة المائدة من آية ٨","publishedAt":"2016-10-28T12:36:31Z","duration":"PT23M39S","thumbnail":"https://i.ytimg.com/vi/7yFAVlNDbtU/mqdefault.jpg","viewCount":"496","playlistId":"PLEkQk5xrP-tnmTYsyW6xNdyfhPq0Bhrhj","playlistName":"مقرأة الفجر - القُرْآنُ الكَرِيمُ - خَتْمَةُ التَّدَبُّرِ  أ.د. يسري جبر","category":"متنوع"},{"id":"jkOLT2bTGEY","title":"المجلس السابع عشر من الحديث (١٦٠) حديث إسراء النبي صلى الله عليه وآله وسلم ومعراجه أ. د. يسري جبر","publishedAt":"2019-05-12T14:34:13Z","duration":"PT28M14S","thumbnail":"https://i.ytimg.com/vi/jkOLT2bTGEY/mqdefault.jpg","viewCount":"495","playlistId":"PLEkQk5xrP-tnl7vb7KeAoPd5ZlqKKW8KV","playlistName":"شرح كتاب بهجة النفوس أ.د . يسرى جبر","category":"متنوع"},{"id":"RchZXC9ApwA","title":"مقرأة سورة الكهف من آية ٧٩","publishedAt":"2017-10-31T16:30:49Z","duration":"PT28M8S","thumbnail":"https://i.ytimg.com/vi/RchZXC9ApwA/mqdefault.jpg","viewCount":"495","playlistId":"PLEkQk5xrP-tnmTYsyW6xNdyfhPq0Bhrhj","playlistName":"مقرأة الفجر - القُرْآنُ الكَرِيمُ - خَتْمَةُ التَّدَبُّرِ  أ.د. يسري جبر","category":"متنوع"},{"id":"1UWBir43fCs","title":"مقرأة سورة يوسف من آية ٤٣","publishedAt":"2017-06-29T13:50:38Z","duration":"PT20M10S","thumbnail":"https://i.ytimg.com/vi/1UWBir43fCs/mqdefault.jpg","viewCount":"495","playlistId":"PLEkQk5xrP-tnmTYsyW6xNdyfhPq0Bhrhj","playlistName":"مقرأة الفجر - القُرْآنُ الكَرِيمُ - خَتْمَةُ التَّدَبُّرِ  أ.د. يسري جبر","category":"متنوع"},{"id":"lzDDc5YsYls","title":"سورة الأنفال آية 64","publishedAt":"2017-03-27T06:10:24Z","duration":"PT23M18S","thumbnail":"https://i.ytimg.com/vi/lzDDc5YsYls/mqdefault.jpg","viewCount":"495","playlistId":"PLEkQk5xrP-tnmTYsyW6xNdyfhPq0Bhrhj","playlistName":"مقرأة الفجر - القُرْآنُ الكَرِيمُ - خَتْمَةُ التَّدَبُّرِ  أ.د. يسري جبر","category":"متنوع"},{"id":"ymfaihOL1yI","title":"مقرأة سورة النازعات من آية ٢٧","publishedAt":"2019-06-16T14:32:26Z","duration":"PT6M27S","thumbnail":"https://i.ytimg.com/vi/ymfaihOL1yI/mqdefault.jpg","viewCount":"494","playlistId":"PLEkQk5xrP-tnmTYsyW6xNdyfhPq0Bhrhj","playlistName":"مقرأة الفجر - القُرْآنُ الكَرِيمُ - خَتْمَةُ التَّدَبُّرِ  أ.د. يسري جبر","category":"متنوع"},{"id":"AEkT5QWmsfs","title":"قراءة وتفسير القرآن (من آية ١٨١ سورة آل عمران)","publishedAt":"2016-08-04T05:54:33Z","duration":"PT14M54S","thumbnail":"https://i.ytimg.com/vi/AEkT5QWmsfs/mqdefault.jpg","viewCount":"493","playlistId":"PLEkQk5xrP-tnmTYsyW6xNdyfhPq0Bhrhj","playlistName":"مقرأة الفجر - القُرْآنُ الكَرِيمُ - خَتْمَةُ التَّدَبُّرِ  أ.د. يسري جبر","category":"متنوع"},{"id":"LD4jCfFWUWs","title":"قرأة سورة الحجرات من أولها","publishedAt":"2019-01-24T20:36:59Z","duration":"PT12M49S","thumbnail":"https://i.ytimg.com/vi/LD4jCfFWUWs/mqdefault.jpg","viewCount":"493","playlistId":"PLEkQk5xrP-tnmTYsyW6xNdyfhPq0Bhrhj","playlistName":"مقرأة الفجر - القُرْآنُ الكَرِيمُ - خَتْمَةُ التَّدَبُّرِ  أ.د. يسري جبر","category":"متنوع"}],"total":4126,"page":121,"pageSize":24,"totalPages":172}