{"items":[{"id":"6VaWAn6QuLU","title":"شرح كتاب صفة القيامة والرقائق والورع من سنن الترمذي - المجلس الأول","publishedAt":"2016-01-16T20:32:03Z","duration":"PT34M51S","thumbnail":"https://i.ytimg.com/vi/6VaWAn6QuLU/mqdefault.jpg","viewCount":"276","playlistId":"PLEkQk5xrP-tnu6of679SvxdVx0qSrJzmb","playlistName":"شرح سنن الإمام الترمذي رضى الله عنه د. يسري جبر","category":"متنوع"},{"id":"YDPjh_hySJQ","title":"شرح سنن الدارمي كتاب الطلا‎ق من أوله","publishedAt":"2019-08-15T04:17:16Z","duration":"PT32M34S","thumbnail":"https://i.ytimg.com/vi/YDPjh_hySJQ/mqdefault.jpg","viewCount":"276","playlistId":"PLEkQk5xrP-tmAg-FuWjY057X_h5NmGmAa","playlistName":"شرح سنن الدارمي - أ.د. يسري جبر (كاملا)","category":"متنوع"},{"id":"c7npLI_Udho","title":"مقرأة سورة الحج من آية ٤٧","publishedAt":"2018-02-09T20:30:07Z","duration":"PT19M40S","thumbnail":"https://i.ytimg.com/vi/c7npLI_Udho/mqdefault.jpg","viewCount":"275","playlistId":"PLEkQk5xrP-tnmTYsyW6xNdyfhPq0Bhrhj","playlistName":"مقرأة الفجر - القُرْآنُ الكَرِيمُ - خَتْمَةُ التَّدَبُّرِ  أ.د. يسري جبر","category":"متنوع"},{"id":"6X68pT8v5ys","title":"شرح سنن الدارمي كتاب البيوع من باب ٣٦","publishedAt":"2019-09-13T17:22:46Z","duration":"PT32M17S","thumbnail":"https://i.ytimg.com/vi/6X68pT8v5ys/mqdefault.jpg","viewCount":"275","playlistId":"PLEkQk5xrP-tmAg-FuWjY057X_h5NmGmAa","playlistName":"شرح سنن الدارمي - أ.د. يسري جبر (كاملا)","category":"متنوع"},{"id":"MfECRZkpA3k","title":"مقرأة سورة الفرقان من آية ٥٣","publishedAt":"2018-04-04T10:24:42Z","duration":"PT24M19S","thumbnail":"https://i.ytimg.com/vi/MfECRZkpA3k/mqdefault.jpg","viewCount":"275","playlistId":"PLEkQk5xrP-tnmTYsyW6xNdyfhPq0Bhrhj","playlistName":"مقرأة الفجر - القُرْآنُ الكَرِيمُ - خَتْمَةُ التَّدَبُّرِ  أ.د. يسري جبر","category":"متنوع"},{"id":"5JxLw_FWs-Q","title":"شرح كتاب الفتن من سنن الترمذي - المجلس الخامس","publishedAt":"2015-12-18T06:13:38Z","duration":"PT33M31S","thumbnail":"https://i.ytimg.com/vi/5JxLw_FWs-Q/mqdefault.jpg","viewCount":"275","playlistId":"PLEkQk5xrP-tnu6of679SvxdVx0qSrJzmb","playlistName":"شرح سنن الإمام الترمذي رضى الله عنه د. يسري جبر","category":"متنوع"},{"id":"1xCIegh5o7w","title":"شرح كتاب البر والصلة من سنن الترمذي - المجلس الثاني","publishedAt":"2015-11-07T05:35:25Z","duration":"PT29M41S","thumbnail":"https://i.ytimg.com/vi/1xCIegh5o7w/mqdefault.jpg","viewCount":"274","playlistId":"PLEkQk5xrP-tnu6of679SvxdVx0qSrJzmb","playlistName":"شرح سنن الإمام الترمذي رضى الله عنه د. يسري جبر","category":"متنوع"},{"id":"tgYuJdhSLXI","title":"مقرأة سورة الحاقة من آية ٢٥","publishedAt":"2019-05-12T10:30:06Z","duration":"PT14M11S","thumbnail":"https://i.ytimg.com/vi/tgYuJdhSLXI/mqdefault.jpg","viewCount":"274","playlistId":"PLEkQk5xrP-tnmTYsyW6xNdyfhPq0Bhrhj","playlistName":"مقرأة الفجر - القُرْآنُ الكَرِيمُ - خَتْمَةُ التَّدَبُّرِ  أ.د. يسري جبر","category":"متنوع"},{"id":"jtprMouzjwg","title":"( 119 ) حديث الإفك وبراءة السيدة عائشة أم المؤمنين منه - المجلس الخامس عشر د. يسري جبر","publishedAt":"2017-05-29T04:40:29Z","duration":"PT33M48S","thumbnail":"https://i.ytimg.com/vi/jtprMouzjwg/mqdefault.jpg","viewCount":"274","playlistId":"PLEkQk5xrP-tnl7vb7KeAoPd5ZlqKKW8KV","playlistName":"شرح كتاب بهجة النفوس أ.د . يسرى جبر","category":"متنوع"},{"id":"kVAZagR6_i8","title":"مقرأة سورة التوبة من آية ١١٦","publishedAt":"2017-05-04T09:21:09Z","duration":"PT14M19S","thumbnail":"https://i.ytimg.com/vi/kVAZagR6_i8/mqdefault.jpg","viewCount":"274","playlistId":"PLEkQk5xrP-tnmTYsyW6xNdyfhPq0Bhrhj","playlistName":"مقرأة الفجر - القُرْآنُ الكَرِيمُ - خَتْمَةُ التَّدَبُّرِ  أ.د. يسري جبر","category":"متنوع"},{"id":"aUszkX_EqCU","title":"مقرأة سورة الشورى من آية ٣٦","publishedAt":"2018-12-05T11:43:24Z","duration":"PT28M8S","thumbnail":"https://i.ytimg.com/vi/aUszkX_EqCU/mqdefault.jpg","viewCount":"274","playlistId":"PLEkQk5xrP-tnmTYsyW6xNdyfhPq0Bhrhj","playlistName":"مقرأة الفجر - القُرْآنُ الكَرِيمُ - خَتْمَةُ التَّدَبُّرِ  أ.د. يسري جبر","category":"متنوع"},{"id":"WT8_yi6bbVs","title":"شرح سنن الدارمي كتاب فضائل القرآن من باب ٧","publishedAt":"2019-12-12T11:31:41Z","duration":"PT27M32S","thumbnail":"https://i.ytimg.com/vi/WT8_yi6bbVs/mqdefault.jpg","viewCount":"273","playlistId":"PLEkQk5xrP-tmAg-FuWjY057X_h5NmGmAa","playlistName":"شرح سنن الدارمي - أ.د. يسري جبر (كاملا)","category":"متنوع"},{"id":"gypxA0mdFNA","title":"شرح سنن الدارمي كتاب الفرائض من باب ٢٩","publishedAt":"2019-10-21T09:21:13Z","duration":"PT27M49S","thumbnail":"https://i.ytimg.com/vi/gypxA0mdFNA/mqdefault.jpg","viewCount":"273","playlistId":"PLEkQk5xrP-tmAg-FuWjY057X_h5NmGmAa","playlistName":"شرح سنن الدارمي - أ.د. يسري جبر (كاملا)","category":"متنوع"},{"id":"312ztm9HUV0","title":"مقرأة سورة الشورى من آية ٢٣","publishedAt":"2018-12-02T09:20:55Z","duration":"PT15M18S","thumbnail":"https://i.ytimg.com/vi/312ztm9HUV0/mqdefault.jpg","viewCount":"273","playlistId":"PLEkQk5xrP-tnmTYsyW6xNdyfhPq0Bhrhj","playlistName":"مقرأة الفجر - القُرْآنُ الكَرِيمُ - خَتْمَةُ التَّدَبُّرِ  أ.د. يسري جبر","category":"متنوع"},{"id":"W0x8mZ-VnT0","title":"65- باب مَا جَاءَ فِى الْبَتَّةِ  ك الموطأ د يسري جبر الأزهري","publishedAt":"2018-07-11T11:03:37Z","duration":"PT46M34S","thumbnail":"https://i.ytimg.com/vi/W0x8mZ-VnT0/mqdefault.jpg","viewCount":"272","playlistId":"PLEkQk5xrP-tnC6BRuqMjyO-484iqXeg0o","playlistName":"شرح كتاب الموطأ للإمام مالك","category":"متنوع"},{"id":"9u12O0ga7XM","title":"مقرأة سورة لقمان من آية ٣٣","publishedAt":"2018-07-09T13:41:50Z","duration":"PT17M7S","thumbnail":"https://i.ytimg.com/vi/9u12O0ga7XM/mqdefault.jpg","viewCount":"272","playlistId":"PLEkQk5xrP-tnmTYsyW6xNdyfhPq0Bhrhj","playlistName":"مقرأة الفجر - القُرْآنُ الكَرِيمُ - خَتْمَةُ التَّدَبُّرِ  أ.د. يسري جبر","category":"متنوع"},{"id":"XMrv0w0VK4A","title":"مقرأة سورة فصلت من آية ١٩","publishedAt":"2018-11-22T10:01:25Z","duration":"PT13M41S","thumbnail":"https://i.ytimg.com/vi/XMrv0w0VK4A/mqdefault.jpg","viewCount":"272","playlistId":"PLEkQk5xrP-tnmTYsyW6xNdyfhPq0Bhrhj","playlistName":"مقرأة الفجر - القُرْآنُ الكَرِيمُ - خَتْمَةُ التَّدَبُّرِ  أ.د. يسري جبر","category":"متنوع"},{"id":"QsELJCl-ZLw","title":"مقرأة سورة غافر من آية ٦٦","publishedAt":"2018-11-14T06:23:43Z","duration":"PT21M","thumbnail":"https://i.ytimg.com/vi/QsELJCl-ZLw/mqdefault.jpg","viewCount":"272","playlistId":"PLEkQk5xrP-tnmTYsyW6xNdyfhPq0Bhrhj","playlistName":"مقرأة الفجر - القُرْآنُ الكَرِيمُ - خَتْمَةُ التَّدَبُّرِ  أ.د. يسري جبر","category":"متنوع"},{"id":"jmVdmPB7M8Q","title":"شرح سنن الدارمي كتاب الجهاد من باب ٣٤","publishedAt":"2019-08-27T22:26:42Z","duration":"PT21M6S","thumbnail":"https://i.ytimg.com/vi/jmVdmPB7M8Q/mqdefault.jpg","viewCount":"272","playlistId":"PLEkQk5xrP-tmAg-FuWjY057X_h5NmGmAa","playlistName":"شرح سنن الدارمي - أ.د. يسري جبر (كاملا)","category":"متنوع"},{"id":"9NcFRqHV8uM","title":"شرح سنن الدارمي كتاب الفرائض من باب ٥٤","publishedAt":"2019-10-31T22:52:56Z","duration":"PT24M42S","thumbnail":"https://i.ytimg.com/vi/9NcFRqHV8uM/mqdefault.jpg","viewCount":"272","playlistId":"PLEkQk5xrP-tmAg-FuWjY057X_h5NmGmAa","playlistName":"شرح سنن الدارمي - أ.د. يسري جبر (كاملا)","category":"متنوع"},{"id":"GTh7J3SjP-Y","title":"شرح سنن الدارمي كتاب البيوع من باب ٥٩","publishedAt":"2019-09-17T10:44:42Z","duration":"PT27M29S","thumbnail":"https://i.ytimg.com/vi/GTh7J3SjP-Y/mqdefault.jpg","viewCount":"272","playlistId":"PLEkQk5xrP-tmAg-FuWjY057X_h5NmGmAa","playlistName":"شرح سنن الدارمي - أ.د. يسري جبر (كاملا)","category":"متنوع"},{"id":"RaPiUvUaBGQ","title":"شرح سنن الدارمي كتاب المناسك من باب ٦٢","publishedAt":"2019-07-14T22:01:58Z","duration":"PT27M50S","thumbnail":"https://i.ytimg.com/vi/RaPiUvUaBGQ/mqdefault.jpg","viewCount":"271","playlistId":"PLEkQk5xrP-tmAg-FuWjY057X_h5NmGmAa","playlistName":"شرح سنن الدارمي - أ.د. يسري جبر (كاملا)","category":"متنوع"},{"id":"4_F4P2pfyog","title":"شرح سنن الدارمي كتاب الزكاة من باب ١١","publishedAt":"2019-06-07T22:59:00Z","duration":"PT24M52S","thumbnail":"https://i.ytimg.com/vi/4_F4P2pfyog/mqdefault.jpg","viewCount":"270","playlistId":"PLEkQk5xrP-tmAg-FuWjY057X_h5NmGmAa","playlistName":"شرح سنن الدارمي - أ.د. يسري جبر (كاملا)","category":"متنوع"},{"id":"-_etqhr3f7k","title":"مقرأة سورة الجاثية من آية ٧","publishedAt":"2018-12-28T08:15:51Z","duration":"PT13M40S","thumbnail":"https://i.ytimg.com/vi/-_etqhr3f7k/mqdefault.jpg","viewCount":"270","playlistId":"PLEkQk5xrP-tnmTYsyW6xNdyfhPq0Bhrhj","playlistName":"مقرأة الفجر - القُرْآنُ الكَرِيمُ - خَتْمَةُ التَّدَبُّرِ  أ.د. يسري جبر","category":"متنوع"}],"total":4126,"page":156,"pageSize":24,"totalPages":172}