{"items":[{"id":"ayahNSE-mkE","title":"هل الأذان الثاني يوم الجمعة بدعة؟","publishedAt":"2022-10-18T18:00:03Z","duration":"PT10M31S","thumbnail":"https://i.ytimg.com/vi/ayahNSE-mkE/mqdefault.jpg","viewCount":"2729","playlistId":"PLEkQk5xrP-tkGXuZ9atE3k_7it12rUPTs","playlistName":"أسئلة المتابعين","category":"متنوع"},{"id":"GERlVJajvL8","title":"خدمة المريض. أ.د. يسري جبر","publishedAt":"2020-01-13T18:05:31Z","duration":"PT1M35S","thumbnail":"https://i.ytimg.com/vi/GERlVJajvL8/mqdefault.jpg","viewCount":"2728","playlistId":"PLEkQk5xrP-tm8ZIu74nTOZN9KJUJu416J","playlistName":"مقاطع مُهمَّة (يُسريَّات) أ.د. يسري جبر","category":"متنوع"},{"id":"G9nBAqXWc5c","title":"27- \"كان فيمن كان قبلكم رجلٌ قتل تسعة وتسعين نفسًا، فسأل عن أعلم أهل الأرض..\" - شرح دليل الفالحين","publishedAt":"2021-03-10T07:53:52Z","duration":"PT35M14S","thumbnail":"https://i.ytimg.com/vi/G9nBAqXWc5c/mqdefault.jpg","viewCount":"2728","playlistId":"PLEkQk5xrP-tkc9DXvSLguqX5-FYp6ASR4","playlistName":"دليل الفالحين لطرق رياض الصالحين","category":"متنوع"},{"id":"nVN9BTbjeyY","title":"ما هى أنواع الذكر؟ | مجالس رمضانية","publishedAt":"2023-04-13T10:00:39Z","duration":"PT29M3S","thumbnail":"https://i.ytimg.com/vi/nVN9BTbjeyY/mqdefault.jpg","viewCount":"2726","playlistId":"PLEkQk5xrP-tnl7vb7KeAoPd5ZlqKKW8KV","playlistName":"شرح كتاب بهجة النفوس أ.د . يسرى جبر","category":"متنوع"},{"id":"4zIM3ztRors","title":"12- حديث الوضوء بالنبيذ ليلة الجِنّ وبيان لقاء النَّبيّ ﷺ بهم والمكان الذي قابلهم فيه","publishedAt":"2023-08-12T18:00:06Z","duration":"PT41M33S","thumbnail":"https://i.ytimg.com/vi/4zIM3ztRors/mqdefault.jpg","viewCount":"2726","playlistId":"PLEkQk5xrP-tk_MCBZ706ORCw6gFtFyaGj","playlistName":"شرح سنن الإمام الدارقطني","category":"متنوع"},{"id":"dEnzTJIuS5Q","title":"برحمتك نستغيث","publishedAt":"2019-11-10T10:48:52Z","duration":"PT2M19S","thumbnail":"https://i.ytimg.com/vi/dEnzTJIuS5Q/mqdefault.jpg","viewCount":"2717","playlistId":"PLEkQk5xrP-tm8ZIu74nTOZN9KJUJu416J","playlistName":"مقاطع مُهمَّة (يُسريَّات) أ.د. يسري جبر","category":"متنوع"},{"id":"6DEEQ3TRD_Q","title":"27- معنى أحوال القبض والبسط عند الصوفية | شرح الحكم العطائية","publishedAt":"2025-10-22T18:15:00Z","duration":"PT32M19S","thumbnail":"https://i.ytimg.com/vi/6DEEQ3TRD_Q/mqdefault.jpg","viewCount":"2716","playlistId":"PLEkQk5xrP-tmf5ToOwmW-q0JwxkapbrMN","playlistName":"شرح كتاب إرشاد البرية إلى بعض معاني الحكم العطائية","category":"متنوع"},{"id":"Tg7vmnfmG5A","title":"206- فَضْلُ الجُوعِ وخُشُونَةِ العَيشِ والاقتِصَارِ على القليل… - شرح دليل الفالحين","publishedAt":"2022-02-23T04:46:44Z","duration":"PT47M35S","thumbnail":"https://i.ytimg.com/vi/Tg7vmnfmG5A/mqdefault.jpg","viewCount":"2716","playlistId":"PLEkQk5xrP-tkc9DXvSLguqX5-FYp6ASR4","playlistName":"دليل الفالحين لطرق رياض الصالحين","category":"متنوع"},{"id":"DQQliif0UvQ","title":"أنا عامل عملية فكيف أغتسل للصلاة؟ | كيفية التيمم","publishedAt":"2023-10-05T18:00:06Z","duration":"PT11M32S","thumbnail":"https://i.ytimg.com/vi/DQQliif0UvQ/mqdefault.jpg","viewCount":"2715","playlistId":"PLEkQk5xrP-tkGXuZ9atE3k_7it12rUPTs","playlistName":"أسئلة المتابعين","category":"متنوع"},{"id":"8qNA1oHfAD8","title":"110- صفات الدجال - شرح مسند الإمام أحمد رضي الله تعالى عنه","publishedAt":"2024-06-02T05:30:03Z","duration":"PT56M57S","thumbnail":"https://i.ytimg.com/vi/8qNA1oHfAD8/mqdefault.jpg","viewCount":"2710","playlistId":"PLEkQk5xrP-tkKprIuGrSdEuBSMsyg5We1","playlistName":"شرح مسند الإمام أحمد بن حنبل","category":"متنوع"},{"id":"8l2ilTtbFe8","title":"كيف كان يصلي النبي صلى الله عليه وسلم  السنن الراتبة |  اعرف نبيك","publishedAt":"2015-08-12T15:17:25Z","duration":"PT5M20S","thumbnail":"https://i.ytimg.com/vi/8l2ilTtbFe8/mqdefault.jpg","viewCount":"2707","playlistId":"PLEkQk5xrP-tl6Mu_Mz3QMUSv5T6XBH-Dg","playlistName":"برنامج اعرف نبيك","category":"متنوع"},{"id":"hR3D2RMPe7k","title":"الاحتفال بالمولد النبوي الشريف ١٤٤١هـ - مديح د. عباس نبيل","publishedAt":"2019-11-21T14:43:08Z","duration":"PT6M22S","thumbnail":"https://i.ytimg.com/vi/hR3D2RMPe7k/mqdefault.jpg","viewCount":"2705","playlistId":"PLEkQk5xrP-tlB8lmbwjAKR8KRgiykGKhb","playlistName":"حضرات يسرية ومدائح نبوية","category":"متنوع"},{"id":"n_v3dvJl3Ek","title":"كيف تبدأ طلب العلم الشرعي خطوة بخطوة؟","publishedAt":"2025-07-28T18:15:08Z","duration":"PT8M22S","thumbnail":"https://i.ytimg.com/vi/n_v3dvJl3Ek/mqdefault.jpg","viewCount":"2705","playlistId":"PLEkQk5xrP-tkGXuZ9atE3k_7it12rUPTs","playlistName":"أسئلة المتابعين","category":"متنوع"},{"id":"UMp5dZuYqV8","title":"249- لا يَدْخُلُ الجَنَّةَ مَن في قَلْبِهِ مِثْقالُ ذَرَّةٍ مِن كِبْرٍ  - شرح دليل الفالحين","publishedAt":"2022-05-19T05:15:00Z","duration":"PT54M42S","thumbnail":"https://i.ytimg.com/vi/UMp5dZuYqV8/mqdefault.jpg","viewCount":"2701","playlistId":"PLEkQk5xrP-tkc9DXvSLguqX5-FYp6ASR4","playlistName":"دليل الفالحين لطرق رياض الصالحين","category":"متنوع"},{"id":"u277qhLcb48","title":"15- كيف نفهم الآيات التي يتنافى ظاهرها مع عصمة الأنبياء","publishedAt":"2022-09-25T06:15:04Z","duration":"PT1H5M19S","thumbnail":"https://i.ytimg.com/vi/u277qhLcb48/mqdefault.jpg","viewCount":"2699","playlistId":"PLEkQk5xrP-tmNuYT8JAh6clwa4krsgkNo","playlistName":"شرح كتاب الفُتُوحات اليُسريَّة في عقائد الأُمَّة المُحمَّديَّة","category":"متنوع"},{"id":"Rh_3VCZRwqg","title":"414- الدعاء أَمْ تفويض الأمر إلى الله تعالى - شرح دليل الفالحين","publishedAt":"2023-03-19T05:00:18Z","duration":"PT31M6S","thumbnail":"https://i.ytimg.com/vi/Rh_3VCZRwqg/mqdefault.jpg","viewCount":"2696","playlistId":"PLEkQk5xrP-tkc9DXvSLguqX5-FYp6ASR4","playlistName":"دليل الفالحين لطرق رياض الصالحين","category":"متنوع"},{"id":"_5WkkB8ejWM","title":"كيف تعيش على سنة النبيﷺ في حياتك؟","publishedAt":"2024-11-26T17:00:14Z","duration":"PT15M49S","thumbnail":"https://i.ytimg.com/vi/_5WkkB8ejWM/mqdefault.jpg","viewCount":"2690","playlistId":"PLEkQk5xrP-tmJzNvLntpzW0uPanPzxA0c","playlistName":"لقاءات ومحاضرات","category":"متنوع"},{"id":"ybQgycYhdA4","title":"السَّلامَةُ مِنَ الدُنْيَا بِتَرْكِهَا لا بِأَخْذِهَا    د. يسرى جبر","publishedAt":"2015-07-21T09:57:40Z","duration":"PT15M8S","thumbnail":"https://i.ytimg.com/vi/ybQgycYhdA4/mqdefault.jpg","viewCount":"2684","playlistId":"PLEkQk5xrP-tm8ZIu74nTOZN9KJUJu416J","playlistName":"مقاطع مُهمَّة (يُسريَّات) أ.د. يسري جبر","category":"متنوع"},{"id":"Xo8ex05XQSY","title":"15- كيف نفهم الربا وما هي الأجناس الربوية؟|هل يُعذََب الميت بنياحة غيره عليه؟- شرح مسند الإمام أحمد","publishedAt":"2023-08-12T05:00:31Z","duration":"PT28M43S","thumbnail":"https://i.ytimg.com/vi/Xo8ex05XQSY/mqdefault.jpg","viewCount":"2681","playlistId":"PLEkQk5xrP-tkKprIuGrSdEuBSMsyg5We1","playlistName":"شرح مسند الإمام أحمد بن حنبل","category":"متنوع"},{"id":"5hECAoOzTM0","title":"ازاي أتغلب على نفسي الأمارة بالسوء؟","publishedAt":"2025-08-20T17:00:17Z","duration":"PT8M49S","thumbnail":"https://i.ytimg.com/vi/5hECAoOzTM0/mqdefault.jpg","viewCount":"2680","playlistId":"PLEkQk5xrP-tkGXuZ9atE3k_7it12rUPTs","playlistName":"أسئلة المتابعين","category":"متنوع"},{"id":"7YGgfff8XdA","title":"١٤٥ حديث صدقات أعضاء بدن الإنسان د. يسري جبر","publishedAt":"2018-05-23T01:47:38Z","duration":"PT38M50S","thumbnail":"https://i.ytimg.com/vi/7YGgfff8XdA/mqdefault.jpg","viewCount":"2679","playlistId":"PLEkQk5xrP-tnl7vb7KeAoPd5ZlqKKW8KV","playlistName":"شرح كتاب بهجة النفوس أ.د . يسرى جبر","category":"متنوع"},{"id":"hXPeVcAuL_4","title":"104- \"يجمع اللهُ - تبارك وتعالى - الناسَ فيقوم المؤمنون حتى تُزْلَفَ لهم الجنَّة…\" شرح دليل الفالحين","publishedAt":"2021-07-28T05:23:58Z","duration":"PT1H2M35S","thumbnail":"https://i.ytimg.com/vi/hXPeVcAuL_4/mqdefault.jpg","viewCount":"2678","playlistId":"PLEkQk5xrP-tkc9DXvSLguqX5-FYp6ASR4","playlistName":"دليل الفالحين لطرق رياض الصالحين","category":"متنوع"},{"id":"BiuKZcjVeiQ","title":"200- كُنْ في الدُّنيا كَأنَّكَ غَريبٌ أو عَابِر سَبيلٍ - شرح دليل الفالحين","publishedAt":"2022-02-12T19:32:23Z","duration":"PT32M40S","thumbnail":"https://i.ytimg.com/vi/BiuKZcjVeiQ/mqdefault.jpg","viewCount":"2672","playlistId":"PLEkQk5xrP-tkc9DXvSLguqX5-FYp6ASR4","playlistName":"دليل الفالحين لطرق رياض الصالحين","category":"متنوع"},{"id":"FGzmm9lPeR0","title":"إطعام الطعام مفتاح لدخول الجنة! | مجالس رمضانية","publishedAt":"2025-03-17T15:30:04Z","duration":"PT45M8S","thumbnail":"https://i.ytimg.com/vi/FGzmm9lPeR0/mqdefault.jpg","viewCount":"2671","playlistId":"PLEkQk5xrP-tkeI_WVPfuoTJO46aVkpaz0","playlistName":"شرح كتاب ميزان الاعتدال لحفظ الدين والأحوال","category":"متنوع"}],"total":4126,"page":55,"pageSize":24,"totalPages":172}