{"items":[{"id":"OyGQldnzDDk","title":"( 124 ) حديث جواز الوصية في الثلث - المجلس الثاني - د. يسري جبر","publishedAt":"2017-06-07T13:31:37Z","duration":"PT35M35S","thumbnail":"https://i.ytimg.com/vi/OyGQldnzDDk/mqdefault.jpg","viewCount":"202","playlistId":"PLEkQk5xrP-tnl7vb7KeAoPd5ZlqKKW8KV","playlistName":"شرح كتاب بهجة النفوس أ.د . يسرى جبر","category":"متنوع"},{"id":"LG7lfH5rstE","title":"شرح كتاب البيوع من سنن الترمذي - المجلس الثالث عشر","publishedAt":"2015-06-05T06:03:22Z","duration":"PT36M52S","thumbnail":"https://i.ytimg.com/vi/LG7lfH5rstE/mqdefault.jpg","viewCount":"201","playlistId":"PLEkQk5xrP-tnu6of679SvxdVx0qSrJzmb","playlistName":"شرح سنن الإمام الترمذي رضى الله عنه د. يسري جبر","category":"متنوع"},{"id":"8cI5GlgzRHk","title":"شرح كتاب الزهد من سنن الترمذي - المجلس الثاني","publishedAt":"2016-01-03T06:08:01Z","duration":"PT31M41S","thumbnail":"https://i.ytimg.com/vi/8cI5GlgzRHk/mqdefault.jpg","viewCount":"200","playlistId":"PLEkQk5xrP-tnu6of679SvxdVx0qSrJzmb","playlistName":"شرح سنن الإمام الترمذي رضى الله عنه د. يسري جبر","category":"متنوع"},{"id":"2ytl_nlCFl0","title":"عبد النبى - عبد الرسول - عبد المصطفى","publishedAt":"2015-12-28T06:04:16Z","duration":"PT5M43S","thumbnail":"https://i.ytimg.com/vi/2ytl_nlCFl0/mqdefault.jpg","viewCount":"198","playlistId":"PLEkQk5xrP-tlJd4vTDfdmzoQf4xWWKMby","playlistName":"الاحتفال بالمولد النبوى الشريف 1437 - 1438","category":"متنوع"},{"id":"_MUB1zykZDI","title":"( 103) حَدِيثُ الإِستِقَامَةِ عَلَى حُدُودِ اللهِ والنَّهْي عَنِ المُنكَرِ - المجلس الثانى","publishedAt":"2015-07-06T00:42:23Z","duration":"PT21M8S","thumbnail":"https://i.ytimg.com/vi/_MUB1zykZDI/mqdefault.jpg","viewCount":"197","playlistId":"PLEkQk5xrP-tnl7vb7KeAoPd5ZlqKKW8KV","playlistName":"شرح كتاب بهجة النفوس أ.د . يسرى جبر","category":"متنوع"},{"id":"CWn1_KVdnVM","title":"شرح كتاب البيوع من سنن الترمذي - المجلس السابع","publishedAt":"2015-05-30T03:51:09Z","duration":"PT32M31S","thumbnail":"https://i.ytimg.com/vi/CWn1_KVdnVM/mqdefault.jpg","viewCount":"197","playlistId":"PLEkQk5xrP-tnu6of679SvxdVx0qSrJzmb","playlistName":"شرح سنن الإمام الترمذي رضى الله عنه د. يسري جبر","category":"متنوع"},{"id":"QrLysP0MXyI","title":"شرح كتاب صفة جهنم من سنن الترمذي - المجلس الثاني","publishedAt":"2016-02-23T08:29:50Z","duration":"PT44M15S","thumbnail":"https://i.ytimg.com/vi/QrLysP0MXyI/mqdefault.jpg","viewCount":"196","playlistId":"PLEkQk5xrP-tnu6of679SvxdVx0qSrJzmb","playlistName":"شرح سنن الإمام الترمذي رضى الله عنه د. يسري جبر","category":"متنوع"},{"id":"4ErNdFE51NQ","title":"شرح كتاب الأحكام من سنن الترمذي - المجلس الأول","publishedAt":"2015-06-09T02:33:36Z","duration":"PT29M39S","thumbnail":"https://i.ytimg.com/vi/4ErNdFE51NQ/mqdefault.jpg","viewCount":"195","playlistId":"PLEkQk5xrP-tnu6of679SvxdVx0qSrJzmb","playlistName":"شرح سنن الإمام الترمذي رضى الله عنه د. يسري جبر","category":"متنوع"},{"id":"qISR3J_Vycw","title":"شرح كتاب صفة الجنة من سنن الترمذي - المجلس الخامس","publishedAt":"2016-02-01T04:38:55Z","duration":"PT37M11S","thumbnail":"https://i.ytimg.com/vi/qISR3J_Vycw/mqdefault.jpg","viewCount":"195","playlistId":"PLEkQk5xrP-tnu6of679SvxdVx0qSrJzmb","playlistName":"شرح سنن الإمام الترمذي رضى الله عنه د. يسري جبر","category":"متنوع"},{"id":"5vL9ArZpU8k","title":"شرح كتاب صفة القيامة والرقائق والورع من سنن الترمذي - المجلس السادس","publishedAt":"2016-01-21T10:20:22Z","duration":"PT36M52S","thumbnail":"https://i.ytimg.com/vi/5vL9ArZpU8k/mqdefault.jpg","viewCount":"194","playlistId":"PLEkQk5xrP-tnu6of679SvxdVx0qSrJzmb","playlistName":"شرح سنن الإمام الترمذي رضى الله عنه د. يسري جبر","category":"متنوع"},{"id":"y2q6_UK_8_Q","title":"شرح كتاب الفتن من سنن الترمذي - المجلس الثالث عشر","publishedAt":"2015-12-28T06:02:47Z","duration":"PT42M37S","thumbnail":"https://i.ytimg.com/vi/y2q6_UK_8_Q/mqdefault.jpg","viewCount":"194","playlistId":"PLEkQk5xrP-tnu6of679SvxdVx0qSrJzmb","playlistName":"شرح سنن الإمام الترمذي رضى الله عنه د. يسري جبر","category":"متنوع"},{"id":"eoXOm7Iaj7E","title":"شرح كتاب الفتن من سنن الترمذي - المجلس العاشر","publishedAt":"2015-12-27T04:38:02Z","duration":"PT36M51S","thumbnail":"https://i.ytimg.com/vi/eoXOm7Iaj7E/mqdefault.jpg","viewCount":"192","playlistId":"PLEkQk5xrP-tnu6of679SvxdVx0qSrJzmb","playlistName":"شرح سنن الإمام الترمذي رضى الله عنه د. يسري جبر","category":"متنوع"},{"id":"9GjTZc9L-kM","title":"شرح سنن الدارمي كتاب الفرائض من باب ٤٢","publishedAt":"2019-10-28T10:58:45Z","duration":"PT31M29S","thumbnail":"https://i.ytimg.com/vi/9GjTZc9L-kM/mqdefault.jpg","viewCount":"191","playlistId":"PLEkQk5xrP-tmAg-FuWjY057X_h5NmGmAa","playlistName":"شرح سنن الدارمي - أ.د. يسري جبر (كاملا)","category":"متنوع"},{"id":"Cckpe7UDRxs","title":"شرح كتاب المناقب من سنن الترمذي - المجلس الثاني","publishedAt":"2016-06-03T14:05:49Z","duration":"PT48M59S","thumbnail":"https://i.ytimg.com/vi/Cckpe7UDRxs/mqdefault.jpg","viewCount":"190","playlistId":"PLEkQk5xrP-tnu6of679SvxdVx0qSrJzmb","playlistName":"شرح سنن الإمام الترمذي رضى الله عنه د. يسري جبر","category":"متنوع"},{"id":"OFYQgwV0dFA","title":"73- باب مَا جَاءَ فِى الإِحْدَادِ ك الموطأ د يسري جبر الأزهري","publishedAt":"2018-08-27T11:56:54Z","duration":"PT1H54S","thumbnail":"https://i.ytimg.com/vi/OFYQgwV0dFA/mqdefault.jpg","viewCount":"189","playlistId":"PLEkQk5xrP-tnC6BRuqMjyO-484iqXeg0o","playlistName":"شرح كتاب الموطأ للإمام مالك","category":"متنوع"},{"id":"6TOTLEYwxuQ","title":"شرح كتاب تفسير القرآن من سنن الترمذي - المجلس الثاني","publishedAt":"2016-04-06T02:39:52Z","duration":"PT49M30S","thumbnail":"https://i.ytimg.com/vi/6TOTLEYwxuQ/mqdefault.jpg","viewCount":"189","playlistId":"PLEkQk5xrP-tnu6of679SvxdVx0qSrJzmb","playlistName":"شرح سنن الإمام الترمذي رضى الله عنه د. يسري جبر","category":"متنوع"},{"id":"lHYTWF1Ypk8","title":"شرح كتاب الزهد من سنن الترمذي - المجلس الخامس","publishedAt":"2016-01-06T06:17:06Z","duration":"PT37M59S","thumbnail":"https://i.ytimg.com/vi/lHYTWF1Ypk8/mqdefault.jpg","viewCount":"188","playlistId":"PLEkQk5xrP-tnu6of679SvxdVx0qSrJzmb","playlistName":"شرح سنن الإمام الترمذي رضى الله عنه د. يسري جبر","category":"متنوع"},{"id":"0SLkebx0EVM","title":"( 132 ) حديث الشهادة بالطاعون - المجلس الثاني  د. يسري جبر","publishedAt":"2017-06-17T08:54:32Z","duration":"PT26M17S","thumbnail":"https://i.ytimg.com/vi/0SLkebx0EVM/mqdefault.jpg","viewCount":"187","playlistId":"PLEkQk5xrP-tnl7vb7KeAoPd5ZlqKKW8KV","playlistName":"شرح كتاب بهجة النفوس أ.د . يسرى جبر","category":"متنوع"},{"id":"oHspDPc7bkE","title":"شرح كتاب القراءات من سنن الترمذي - المجلس الأول","publishedAt":"2016-04-03T03:16:59Z","duration":"PT33M1S","thumbnail":"https://i.ytimg.com/vi/oHspDPc7bkE/mqdefault.jpg","viewCount":"186","playlistId":"PLEkQk5xrP-tnu6of679SvxdVx0qSrJzmb","playlistName":"شرح سنن الإمام الترمذي رضى الله عنه د. يسري جبر","category":"متنوع"},{"id":"6o4Q4-q5pXg","title":"67- باب مَا جَاءَ فِى الْخِيَارِ  ك الموطأ د يسري جبر الأزهري","publishedAt":"2018-07-20T11:30:51Z","duration":"PT49M10S","thumbnail":"https://i.ytimg.com/vi/6o4Q4-q5pXg/mqdefault.jpg","viewCount":"186","playlistId":"PLEkQk5xrP-tnC6BRuqMjyO-484iqXeg0o","playlistName":"شرح كتاب الموطأ للإمام مالك","category":"متنوع"},{"id":"kNDSLY2jtBY","title":"شرح كتاب القدر من سنن الترمذي - المجلس الثالث","publishedAt":"2015-12-12T06:05:15Z","duration":"PT41M51S","thumbnail":"https://i.ytimg.com/vi/kNDSLY2jtBY/mqdefault.jpg","viewCount":"186","playlistId":"PLEkQk5xrP-tnu6of679SvxdVx0qSrJzmb","playlistName":"شرح سنن الإمام الترمذي رضى الله عنه د. يسري جبر","category":"متنوع"},{"id":"viLCUlYrSas","title":"شرح كتاب الزهد من سنن الترمذي - المجلس الرابع","publishedAt":"2016-01-05T06:03:10Z","duration":"PT31M51S","thumbnail":"https://i.ytimg.com/vi/viLCUlYrSas/mqdefault.jpg","viewCount":"186","playlistId":"PLEkQk5xrP-tnu6of679SvxdVx0qSrJzmb","playlistName":"شرح سنن الإمام الترمذي رضى الله عنه د. يسري جبر","category":"متنوع"},{"id":"RjQy80Zy8N4","title":"شرح كتاب الطب من سنن الترمذي - المجلس الثانى","publishedAt":"2015-12-02T02:14:06Z","duration":"PT36M34S","thumbnail":"https://i.ytimg.com/vi/RjQy80Zy8N4/mqdefault.jpg","viewCount":"186","playlistId":"PLEkQk5xrP-tnu6of679SvxdVx0qSrJzmb","playlistName":"شرح سنن الإمام الترمذي رضى الله عنه د. يسري جبر","category":"متنوع"},{"id":"LhmeUT7x9M0","title":"( 119 ) حديث الإفك وبراءة السيدة عائشة أم المؤمنين منه - المجلس الثامن","publishedAt":"2016-07-20T16:09:02Z","duration":"PT21M53S","thumbnail":"https://i.ytimg.com/vi/LhmeUT7x9M0/mqdefault.jpg","viewCount":"185","playlistId":"PLEkQk5xrP-tnl7vb7KeAoPd5ZlqKKW8KV","playlistName":"شرح كتاب بهجة النفوس أ.د . يسرى جبر","category":"متنوع"}],"total":4126,"page":164,"pageSize":24,"totalPages":172}