{"items":[{"id":"r_Z2dDWx3Eo","title":"ما هي علامات ظهور المهدي المنتظر؟","publishedAt":"2022-02-26T17:00:35Z","duration":"PT10M39S","thumbnail":"https://i.ytimg.com/vi/r_Z2dDWx3Eo/mqdefault.jpg","viewCount":"15475","playlistId":"PLEkQk5xrP-tkGXuZ9atE3k_7it12rUPTs","playlistName":"أسئلة المتابعين","category":"متنوع"},{"id":"enUITTKkDSE","title":"كيف أعرف أنني ترقيت في طريق التصوف؟","publishedAt":"2022-08-01T18:00:15Z","duration":"PT8M43S","thumbnail":"https://i.ytimg.com/vi/enUITTKkDSE/mqdefault.jpg","viewCount":"15385","playlistId":"PLEkQk5xrP-tkGXuZ9atE3k_7it12rUPTs","playlistName":"أسئلة المتابعين","category":"متنوع"},{"id":"RC64W9LvysY","title":"كيف تُخرق لك العوائد وأنت لم تخرق من نفسك العوائد","publishedAt":"2016-10-17T17:55:47Z","duration":"PT12M37S","thumbnail":"https://i.ytimg.com/vi/RC64W9LvysY/mqdefault.jpg","viewCount":"15377","playlistId":"PLEkQk5xrP-tkI_meE148wc7V7XHlB0WPb","playlistName":"من الحكم العطائية  د. يسري جبر","category":"متنوع"},{"id":"AsFKJEv0V1o","title":"المجلس الثالث من شرح الخريدة البهية","publishedAt":"2013-08-03T11:30:54Z","duration":"PT1H2M25S","thumbnail":"https://i.ytimg.com/vi/AsFKJEv0V1o/mqdefault.jpg","viewCount":"15293","playlistId":"PLEkQk5xrP-tnI6h_R1hvYgrrstFAJCvv9","playlistName":"شرح الخريدة البهية د. يسري جبر","category":"متنوع"},{"id":"KqNM0sFvcQ8","title":"شرح كتاب دلائل الخيرات - المجلس الثاني عشر. أ.د. يسري جبر","publishedAt":"2019-12-10T19:48:07Z","duration":"PT42M25S","thumbnail":"https://i.ytimg.com/vi/KqNM0sFvcQ8/mqdefault.jpg","viewCount":"15257","playlistId":"PLEkQk5xrP-tlAzcbIpuqjdFICW-knvTlR","playlistName":"شرح كتاب دلائل الخيرات وشوارق الأنوار","category":"متنوع"},{"id":"aQkJbpvjju4","title":"ازاي اتعامل مع الناس المؤذية في حياتي؟","publishedAt":"2023-12-24T18:00:02Z","duration":"PT10M15S","thumbnail":"https://i.ytimg.com/vi/aQkJbpvjju4/mqdefault.jpg","viewCount":"15209","playlistId":"PLEkQk5xrP-tkGXuZ9atE3k_7it12rUPTs","playlistName":"أسئلة المتابعين","category":"متنوع"},{"id":"lkz-VovZldQ","title":"كيف أبتعد عن الشهوات والمعاصي؟","publishedAt":"2023-02-06T18:00:22Z","duration":"PT8M1S","thumbnail":"https://i.ytimg.com/vi/lkz-VovZldQ/mqdefault.jpg","viewCount":"15096","playlistId":"PLEkQk5xrP-tkGXuZ9atE3k_7it12rUPTs","playlistName":"أسئلة المتابعين","category":"متنوع"},{"id":"XVZs0GKGVm0","title":"كيفية صلاة الكسوف والخسوف","publishedAt":"2022-05-15T20:49:26Z","duration":"PT11M12S","thumbnail":"https://i.ytimg.com/vi/XVZs0GKGVm0/mqdefault.jpg","viewCount":"15096","playlistId":"PLEkQk5xrP-tm8ZIu74nTOZN9KJUJu416J","playlistName":"مقاطع مُهمَّة (يُسريَّات) أ.د. يسري جبر","category":"متنوع"},{"id":"kW-x03FbiMU","title":"مَنْ نازعك على دُنْيَا، اتركْها له وقلْ سَلَامٌ","publishedAt":"2022-03-09T18:22:08Z","duration":"PT12M8S","thumbnail":"https://i.ytimg.com/vi/kW-x03FbiMU/mqdefault.jpg","viewCount":"15090","playlistId":"PLEkQk5xrP-tm8ZIu74nTOZN9KJUJu416J","playlistName":"مقاطع مُهمَّة (يُسريَّات) أ.د. يسري جبر","category":"متنوع"},{"id":"Ua8QIzJYdEQ","title":"عندي اضطرابات نفسية بسبب طلاق أهلي وإهمالهم ,, فماذا أفعل؟","publishedAt":"2025-01-20T19:10:38Z","duration":"PT9M35S","thumbnail":"https://i.ytimg.com/vi/Ua8QIzJYdEQ/mqdefault.jpg","viewCount":"15001","playlistId":"PLEkQk5xrP-tkGXuZ9atE3k_7it12rUPTs","playlistName":"أسئلة المتابعين","category":"متنوع"},{"id":"3LstD2f4nWg","title":"أنا مش عارفة أتغلب على نفسي الأمارة بالسوء في رمضان ,, فماذا أفعل؟","publishedAt":"2024-03-21T18:00:01Z","duration":"PT8M15S","thumbnail":"https://i.ytimg.com/vi/3LstD2f4nWg/mqdefault.jpg","viewCount":"14954","playlistId":"PLEkQk5xrP-tkGXuZ9atE3k_7it12rUPTs","playlistName":"أسئلة المتابعين","category":"متنوع"},{"id":"vvSPqIBaCFc","title":"كيف نرد على من يقول أن الله في السماء؟","publishedAt":"2023-10-04T16:00:51Z","duration":"PT9M53S","thumbnail":"https://i.ytimg.com/vi/vvSPqIBaCFc/mqdefault.jpg","viewCount":"14941","playlistId":"PLEkQk5xrP-tkGXuZ9atE3k_7it12rUPTs","playlistName":"أسئلة المتابعين","category":"متنوع"},{"id":"drF67sIkXZM","title":"كيف تروض نفسك؟","publishedAt":"2022-11-17T18:00:16Z","duration":"PT9M6S","thumbnail":"https://i.ytimg.com/vi/drF67sIkXZM/mqdefault.jpg","viewCount":"14911","playlistId":"PLEkQk5xrP-tm8ZIu74nTOZN9KJUJu416J","playlistName":"مقاطع مُهمَّة (يُسريَّات) أ.د. يسري جبر","category":"متنوع"},{"id":"H5bJlVXBJlA","title":"كيف تحمي نفسك من السحر؟","publishedAt":"2022-10-17T18:00:13Z","duration":"PT8M16S","thumbnail":"https://i.ytimg.com/vi/H5bJlVXBJlA/mqdefault.jpg","viewCount":"14879","playlistId":"PLEkQk5xrP-tkGXuZ9atE3k_7it12rUPTs","playlistName":"أسئلة المتابعين","category":"متنوع"},{"id":"AWk6HJgyQmM","title":"كيف تختم القرآن ولا تنساه؟","publishedAt":"2020-06-10T16:10:59Z","duration":"PT3M17S","thumbnail":"https://i.ytimg.com/vi/AWk6HJgyQmM/mqdefault.jpg","viewCount":"14641","playlistId":"PLEkQk5xrP-tm8ZIu74nTOZN9KJUJu416J","playlistName":"مقاطع مُهمَّة (يُسريَّات) أ.د. يسري جبر","category":"متنوع"},{"id":"WQz5smOu7tI","title":"معنى التصوف في الإسلام | مع الناس","publishedAt":"2016-04-26T21:51:00Z","duration":"PT7M8S","thumbnail":"https://i.ytimg.com/vi/WQz5smOu7tI/mqdefault.jpg","viewCount":"14614","playlistId":"PLEkQk5xrP-tmJzNvLntpzW0uPanPzxA0c","playlistName":"لقاءات ومحاضرات","category":"متنوع"},{"id":"NmFkdXwWMMQ","title":"10- الفرق بين إلهام الولي ووحي النبي | من هم المُحَدَّثون؟ | شرح مختصر الفتوحات المكية","publishedAt":"2024-03-04T11:40:16Z","duration":"PT50M47S","thumbnail":"https://i.ytimg.com/vi/NmFkdXwWMMQ/mqdefault.jpg","viewCount":"14590","playlistId":"PLEkQk5xrP-tnpkdZki6rPTtMak1bnI5g-","playlistName":"شرح كتاب مختصر الفتوحات المكية المسمى لواقح الأنوار القدسية","category":"متنوع"},{"id":"WdFc0sTqEMk","title":"كيف أطلب العلم عن بعد؟","publishedAt":"2021-09-02T19:30:04Z","duration":"PT11M49S","thumbnail":"https://i.ytimg.com/vi/WdFc0sTqEMk/mqdefault.jpg","viewCount":"14436","playlistId":"PLEkQk5xrP-tkGXuZ9atE3k_7it12rUPTs","playlistName":"أسئلة المتابعين","category":"متنوع"},{"id":"kFcihqDJtjs","title":"بَشَرٌ لَا كَالبَشَرِ ﷺ   أ.د. يسري جبر","publishedAt":"2019-11-20T17:10:17Z","duration":"PT1H10M11S","thumbnail":"https://i.ytimg.com/vi/kFcihqDJtjs/mqdefault.jpg","viewCount":"14370","playlistId":"PLEkQk5xrP-tmJzNvLntpzW0uPanPzxA0c","playlistName":"لقاءات ومحاضرات","category":"متنوع"},{"id":"jnT8vWurdyc","title":"كيف أتخلص من الكسل وفقدان الشغف؟","publishedAt":"2022-03-11T19:48:50Z","duration":"PT8M20S","thumbnail":"https://i.ytimg.com/vi/jnT8vWurdyc/mqdefault.jpg","viewCount":"14325","playlistId":"PLEkQk5xrP-tkGXuZ9atE3k_7it12rUPTs","playlistName":"أسئلة المتابعين","category":"متنوع"},{"id":"B9mA5zW-OAY","title":"عالم هندي يتحدى مشايخ الوهابية! | مجالس الاعتكاف","publishedAt":"2025-03-22T10:00:10Z","duration":"PT33M28S","thumbnail":"https://i.ytimg.com/vi/B9mA5zW-OAY/mqdefault.jpg","viewCount":"14189","playlistId":"PLEkQk5xrP-tly7ti7Qb_lS7xjUg_fwlNP","playlistName":"شرح كتاب الدولة المكية بالمادة الغيبية","category":"متنوع"},{"id":"ZlyVxXzsVp8","title":"متى آلَمَكَ عدمُ إقبال الناس عليك، أو توجُّهُهم بالذَّمّ إليك، فارجِعْ إلى عِلْم اللهِ فيك..","publishedAt":"2018-02-26T18:25:47Z","duration":"PT12M34S","thumbnail":"https://i.ytimg.com/vi/ZlyVxXzsVp8/mqdefault.jpg","viewCount":"14133","playlistId":"PLEkQk5xrP-tkI_meE148wc7V7XHlB0WPb","playlistName":"من الحكم العطائية  د. يسري جبر","category":"متنوع"},{"id":"vNfOVDzQEgE","title":"شرح كتاب دلائل الخيرات - المجلس السادس عشر. أ.د. يسري جبر","publishedAt":"2020-01-17T19:23:59Z","duration":"PT51M6S","thumbnail":"https://i.ytimg.com/vi/vNfOVDzQEgE/mqdefault.jpg","viewCount":"14093","playlistId":"PLEkQk5xrP-tlAzcbIpuqjdFICW-knvTlR","playlistName":"شرح كتاب دلائل الخيرات وشوارق الأنوار","category":"متنوع"},{"id":"JzPDbOB1Y34","title":"ازاي أتعامل مع خطيبتي قبل الزواج؟ | ما هي قصة زواجك؟","publishedAt":"2024-04-16T18:00:16Z","duration":"PT11M18S","thumbnail":"https://i.ytimg.com/vi/JzPDbOB1Y34/mqdefault.jpg","viewCount":"14066","playlistId":"PLEkQk5xrP-tl6tFiMFGUucCTvLgnWyAfz","playlistName":"حياة الأستاذ الدكتور يسري جبر","category":"متنوع"}],"total":4126,"page":13,"pageSize":24,"totalPages":172}