{"items":[{"id":"4xYCAPEPOxY","title":"154- إكرامُ أهل بيت رسول ﷺ وبيان فضلهم - شرح دليل الفالحين","publishedAt":"2021-11-07T06:06:58Z","duration":"PT51M45S","thumbnail":"https://i.ytimg.com/vi/4xYCAPEPOxY/mqdefault.jpg","viewCount":"4226","playlistId":"PLEkQk5xrP-tkc9DXvSLguqX5-FYp6ASR4","playlistName":"دليل الفالحين لطرق رياض الصالحين","category":"متنوع"},{"id":"ypfag30SCQM","title":"ماذا حدث يوم وفاة النبي ﷺ؟","publishedAt":"2023-02-28T18:03:26Z","duration":"PT43M35S","thumbnail":"https://i.ytimg.com/vi/ypfag30SCQM/mqdefault.jpg","viewCount":"4218","playlistId":"PLEkQk5xrP-tm8ZIu74nTOZN9KJUJu416J","playlistName":"مقاطع مُهمَّة (يُسريَّات) أ.د. يسري جبر","category":"متنوع"},{"id":"8lG1Wo7iEHg","title":"عجائب صنائع المعروف | مجالس رمضانية","publishedAt":"2023-03-29T15:00:09Z","duration":"PT50M5S","thumbnail":"https://i.ytimg.com/vi/8lG1Wo7iEHg/mqdefault.jpg","viewCount":"4216","playlistId":"PLEkQk5xrP-tnl7vb7KeAoPd5ZlqKKW8KV","playlistName":"شرح كتاب بهجة النفوس أ.د . يسرى جبر","category":"متنوع"},{"id":"kREQDe3-xYU","title":"هل يجب هجر المؤمن العاصي؟","publishedAt":"2021-02-11T18:17:58Z","duration":"PT30M35S","thumbnail":"https://i.ytimg.com/vi/kREQDe3-xYU/mqdefault.jpg","viewCount":"4215","playlistId":"PLEkQk5xrP-tnAJa3yfebXD7wNC_ECfZNt","playlistName":"كتاب النفحة الذكية في أن الهجر بدعة شركية","category":"متنوع"},{"id":"U04iX88xkfk","title":"44- إنَّ الله يحب العبد المفتَّن التَّواب - شرح مسند الإمام أحمد","publishedAt":"2023-11-28T06:39:37Z","duration":"PT37M57S","thumbnail":"https://i.ytimg.com/vi/U04iX88xkfk/mqdefault.jpg","viewCount":"4209","playlistId":"PLEkQk5xrP-tkKprIuGrSdEuBSMsyg5We1","playlistName":"شرح مسند الإمام أحمد بن حنبل","category":"متنوع"},{"id":"h-3PzNg4uXM","title":"يَا مُغِيثُ أَغِثْنَا   أ.د. يسري جبر","publishedAt":"2020-03-24T16:04:21Z","duration":"PT2M24S","thumbnail":"https://i.ytimg.com/vi/h-3PzNg4uXM/mqdefault.jpg","viewCount":"4202","playlistId":"PLEkQk5xrP-tm8ZIu74nTOZN9KJUJu416J","playlistName":"مقاطع مُهمَّة (يُسريَّات) أ.د. يسري جبر","category":"متنوع"},{"id":"G8kp4t6C-LU","title":"13- الحديث الثاني\" يغزو جيشٌ الكعبة...\" شرح كتاب دليل الفالحين لطرق رياض الصالحين","publishedAt":"2021-02-02T07:03:47Z","duration":"PT22M6S","thumbnail":"https://i.ytimg.com/vi/G8kp4t6C-LU/mqdefault.jpg","viewCount":"4185","playlistId":"PLEkQk5xrP-tkc9DXvSLguqX5-FYp6ASR4","playlistName":"دليل الفالحين لطرق رياض الصالحين","category":"متنوع"},{"id":"qFsFHCPLp04","title":"هل يجوز ترك العلاج والصبر على المرض؟","publishedAt":"2021-08-11T17:15:01Z","duration":"PT10M23S","thumbnail":"https://i.ytimg.com/vi/qFsFHCPLp04/mqdefault.jpg","viewCount":"4185","playlistId":"PLEkQk5xrP-tkGXuZ9atE3k_7it12rUPTs","playlistName":"أسئلة المتابعين","category":"متنوع"},{"id":"mYbre9dYCCA","title":"وصايا نبوية تحميك من الأمراض","publishedAt":"2025-03-13T19:00:40Z","duration":"PT9M49S","thumbnail":"https://i.ytimg.com/vi/mYbre9dYCCA/mqdefault.jpg","viewCount":"4179","playlistId":"PLEkQk5xrP-tm8ZIu74nTOZN9KJUJu416J","playlistName":"مقاطع مُهمَّة (يُسريَّات) أ.د. يسري جبر","category":"متنوع"},{"id":"gSrvVHl4Xpc","title":"عواقب الألفاظ الخبيثة | مجالس رمضانية","publishedAt":"2023-04-01T15:00:22Z","duration":"PT47M3S","thumbnail":"https://i.ytimg.com/vi/gSrvVHl4Xpc/mqdefault.jpg","viewCount":"4178","playlistId":"PLEkQk5xrP-tnl7vb7KeAoPd5ZlqKKW8KV","playlistName":"شرح كتاب بهجة النفوس أ.د . يسرى جبر","category":"متنوع"},{"id":"g143o-Y2gDA","title":"هل صلاة التراويح بدعة؟","publishedAt":"2021-04-14T19:15:01Z","duration":"PT10M","thumbnail":"https://i.ytimg.com/vi/g143o-Y2gDA/mqdefault.jpg","viewCount":"4175","playlistId":"PLEkQk5xrP-tm8ZIu74nTOZN9KJUJu416J","playlistName":"مقاطع مُهمَّة (يُسريَّات) أ.د. يسري جبر","category":"متنوع"},{"id":"_uGA8Aet6-U","title":"قدسية عقد الزواج وسر نجاحه","publishedAt":"2022-09-01T19:00:24Z","duration":"PT20M35S","thumbnail":"https://i.ytimg.com/vi/_uGA8Aet6-U/mqdefault.jpg","viewCount":"4172","playlistId":"PLEkQk5xrP-tm8ZIu74nTOZN9KJUJu416J","playlistName":"مقاطع مُهمَّة (يُسريَّات) أ.د. يسري جبر","category":"متنوع"},{"id":"6pMzIkmm4FA","title":"72- الحث على الازدياد من الخير في أواخر العمر - شرح دليل الفالحين","publishedAt":"2021-06-01T22:06:05Z","duration":"PT32M11S","thumbnail":"https://i.ytimg.com/vi/6pMzIkmm4FA/mqdefault.jpg","viewCount":"4164","playlistId":"PLEkQk5xrP-tkc9DXvSLguqX5-FYp6ASR4","playlistName":"دليل الفالحين لطرق رياض الصالحين","category":"متنوع"},{"id":"eGxq68inTeQ","title":"كيف تحافظ على عبادتك","publishedAt":"2020-08-25T19:43:45Z","duration":"PT5M39S","thumbnail":"https://i.ytimg.com/vi/eGxq68inTeQ/mqdefault.jpg","viewCount":"4160","playlistId":"PLEkQk5xrP-tm8ZIu74nTOZN9KJUJu416J","playlistName":"مقاطع مُهمَّة (يُسريَّات) أ.د. يسري جبر","category":"متنوع"},{"id":"L5RFsLNrvoM","title":"19- ما هو الوارد وكيف يتعامل المريد مع الواردات؟ | شرح الحكم العطائية","publishedAt":"2025-05-18T19:24:31Z","duration":"PT49M53S","thumbnail":"https://i.ytimg.com/vi/L5RFsLNrvoM/mqdefault.jpg","viewCount":"4155","playlistId":"PLEkQk5xrP-tmf5ToOwmW-q0JwxkapbrMN","playlistName":"شرح كتاب إرشاد البرية إلى بعض معاني الحكم العطائية","category":"متنوع"},{"id":"PbjtpNGFLdo","title":"خطر الإلحاد وكيفية الحماية منه؟","publishedAt":"2021-07-16T19:00:07Z","duration":"PT10M19S","thumbnail":"https://i.ytimg.com/vi/PbjtpNGFLdo/mqdefault.jpg","viewCount":"4151","playlistId":"PLEkQk5xrP-tkGXuZ9atE3k_7it12rUPTs","playlistName":"أسئلة المتابعين","category":"متنوع"},{"id":"QugBXFuHYEM","title":"حصاد 2022","publishedAt":"2022-12-31T18:01:33Z","duration":"PT14M26S","thumbnail":"https://i.ytimg.com/vi/QugBXFuHYEM/mqdefault.jpg","viewCount":"4149","playlistId":"PLEkQk5xrP-tm8ZIu74nTOZN9KJUJu416J","playlistName":"مقاطع مُهمَّة (يُسريَّات) أ.د. يسري جبر","category":"متنوع"},{"id":"vepwwHVCV00","title":"أمي تمنعني من نصيبي في الميراث ,, فماذا أفعل؟","publishedAt":"2023-09-02T18:00:55Z","duration":"PT8M15S","thumbnail":"https://i.ytimg.com/vi/vepwwHVCV00/mqdefault.jpg","viewCount":"4147","playlistId":"PLEkQk5xrP-tkGXuZ9atE3k_7it12rUPTs","playlistName":"أسئلة المتابعين","category":"متنوع"},{"id":"b9Fw381fdkg","title":"القصيدة المنفرجة  للإمام الغزالي والقصيدة المنفرجة لابن النحوي رضي الله تعالى عنهما.  د. يسري جبر","publishedAt":"2018-09-03T19:22:25Z","duration":"PT7M32S","thumbnail":"https://i.ytimg.com/vi/b9Fw381fdkg/mqdefault.jpg","viewCount":"4146","playlistId":"PLEkQk5xrP-tk3OeVFoMfKhOhyINnlPeYZ","playlistName":"الحَضْرَةُ الصِّدِّيقِيَّة والأوْرَاد","category":"متنوع"},{"id":"p4P6hqktAOQ","title":"أنا من أهوى ومن أهوى أنا","publishedAt":"2016-07-07T12:39:37Z","duration":"PT1M9S","thumbnail":"https://i.ytimg.com/vi/p4P6hqktAOQ/mqdefault.jpg","viewCount":"4142","playlistId":"PLEkQk5xrP-tm8ZIu74nTOZN9KJUJu416J","playlistName":"مقاطع مُهمَّة (يُسريَّات) أ.د. يسري جبر","category":"متنوع"},{"id":"jV2tRzRYU1g","title":"شرح كتاب منازل السائرين للإمام الهروى - المجلس الثامن - باب الاعتصام","publishedAt":"2016-01-04T05:34:39Z","duration":"PT1H22M19S","thumbnail":"https://i.ytimg.com/vi/jV2tRzRYU1g/mqdefault.jpg","viewCount":"4139","playlistId":"PLEkQk5xrP-tnLYi_5_tSRVBwqcs7ISV7Y","playlistName":"شرح كتاب منازل السائرين للإمام الهروي","category":"متنوع"},{"id":"xyZKY-ki9qE","title":"ثمرة مجالس الاحتفال بالمولد النبوى الشريف - د. يسري جبر","publishedAt":"2014-04-20T02:52:55Z","duration":"PT5M11S","thumbnail":"https://i.ytimg.com/vi/xyZKY-ki9qE/mqdefault.jpg","viewCount":"4136","playlistId":"PLEkQk5xrP-tm8ZIu74nTOZN9KJUJu416J","playlistName":"مقاطع مُهمَّة (يُسريَّات) أ.د. يسري جبر","category":"متنوع"},{"id":"im2HysUhoVU","title":"التخلي والتحلي والتجلي","publishedAt":"2020-09-14T18:39:28Z","duration":"PT3M37S","thumbnail":"https://i.ytimg.com/vi/im2HysUhoVU/mqdefault.jpg","viewCount":"4135","playlistId":"PLEkQk5xrP-tm8ZIu74nTOZN9KJUJu416J","playlistName":"مقاطع مُهمَّة (يُسريَّات) أ.د. يسري جبر","category":"متنوع"},{"id":"cHbV-w27-SE","title":"كيف أتعامل مع الأولياء والمشايخ وما هي آداب زيارتهم؟","publishedAt":"2024-08-27T17:07:52Z","duration":"PT8M42S","thumbnail":"https://i.ytimg.com/vi/cHbV-w27-SE/mqdefault.jpg","viewCount":"4130","playlistId":"PLEkQk5xrP-tm8ZIu74nTOZN9KJUJu416J","playlistName":"مقاطع مُهمَّة (يُسريَّات) أ.د. يسري جبر","category":"متنوع"}],"total":4126,"page":42,"pageSize":24,"totalPages":172}