{"items":[{"id":"4uF3Y6CODEk","title":"قصة سيدنا يوسف وتفسير قوله تعالى \"وَلَقَدْ هَمَّتْ بِهِ وَهَمَّ بِهَا”","publishedAt":"2021-05-31T17:00:15Z","duration":"PT17M8S","thumbnail":"https://i.ytimg.com/vi/4uF3Y6CODEk/mqdefault.jpg","viewCount":"5232","playlistId":"PLEkQk5xrP-tkSGrPLMt1BEmJ54cGWYgtp","playlistName":"كتابُ بِدَعِ التَفَاسِيرِ - أ.د. يسري جبر","category":"متنوع"},{"id":"CRV3qAPP5CA","title":"أريد الزواج مرة أخرى وخايف من عدم العدل بين الزوجتين ,, ماذا أفعل؟","publishedAt":"2024-04-01T18:00:05Z","duration":"PT9M57S","thumbnail":"https://i.ytimg.com/vi/CRV3qAPP5CA/mqdefault.jpg","viewCount":"5225","playlistId":"PLEkQk5xrP-tkGXuZ9atE3k_7it12rUPTs","playlistName":"أسئلة المتابعين","category":"متنوع"},{"id":"P4gNRrBwFyQ","title":"كيف تداوم على الطاعة","publishedAt":"2020-08-31T19:47:31Z","duration":"PT7M14S","thumbnail":"https://i.ytimg.com/vi/P4gNRrBwFyQ/mqdefault.jpg","viewCount":"5221","playlistId":"PLEkQk5xrP-tm8ZIu74nTOZN9KJUJu416J","playlistName":"مقاطع مُهمَّة (يُسريَّات) أ.د. يسري جبر","category":"متنوع"},{"id":"Qll_nH7zXz0","title":"كيف يكون لك دور في نهضة الإسلام؟","publishedAt":"2021-11-28T18:00:08Z","duration":"PT10M49S","thumbnail":"https://i.ytimg.com/vi/Qll_nH7zXz0/mqdefault.jpg","viewCount":"5218","playlistId":"PLEkQk5xrP-tkGXuZ9atE3k_7it12rUPTs","playlistName":"أسئلة المتابعين","category":"متنوع"},{"id":"bMzpYqzlLaw","title":"كيف تكون من أهل التقوى؟ | مجالس رمضانية","publishedAt":"2024-04-06T14:30:19Z","duration":"PT28M47S","thumbnail":"https://i.ytimg.com/vi/bMzpYqzlLaw/mqdefault.jpg","viewCount":"5217","playlistId":"PLEkQk5xrP-tkeI_WVPfuoTJO46aVkpaz0","playlistName":"شرح كتاب ميزان الاعتدال لحفظ الدين والأحوال","category":"متنوع"},{"id":"ghZcLmhMQsA","title":"وَرَعُ المُريد","publishedAt":"2020-08-08T18:17:28Z","duration":"PT7M36S","thumbnail":"https://i.ytimg.com/vi/ghZcLmhMQsA/mqdefault.jpg","viewCount":"5215","playlistId":"PLEkQk5xrP-tm8ZIu74nTOZN9KJUJu416J","playlistName":"مقاطع مُهمَّة (يُسريَّات) أ.د. يسري جبر","category":"متنوع"},{"id":"6ZAlOj3Dcqo","title":"التواضع","publishedAt":"2020-06-01T16:53:38Z","duration":"PT15M29S","thumbnail":"https://i.ytimg.com/vi/6ZAlOj3Dcqo/mqdefault.jpg","viewCount":"5213","playlistId":"PLEkQk5xrP-tm8ZIu74nTOZN9KJUJu416J","playlistName":"مقاطع مُهمَّة (يُسريَّات) أ.د. يسري جبر","category":"متنوع"},{"id":"2X7fNyCiEYQ","title":"2- التعريفُ بالشيخ ‎محمد بن علَّان صاحب كتاب دليل الفالحين أ.د. يسري جبر","publishedAt":"2021-01-11T07:18:11Z","duration":"PT24M17S","thumbnail":"https://i.ytimg.com/vi/2X7fNyCiEYQ/mqdefault.jpg","viewCount":"5212","playlistId":"PLEkQk5xrP-tkc9DXvSLguqX5-FYp6ASR4","playlistName":"دليل الفالحين لطرق رياض الصالحين","category":"متنوع"},{"id":"nae-53zn434","title":"كيف أجد فرص عمل مناسبة؟","publishedAt":"2021-07-27T19:39:00Z","duration":"PT11M51S","thumbnail":"https://i.ytimg.com/vi/nae-53zn434/mqdefault.jpg","viewCount":"5207","playlistId":"PLEkQk5xrP-tkGXuZ9atE3k_7it12rUPTs","playlistName":"أسئلة المتابعين","category":"متنوع"},{"id":"f8n5hyiCB-c","title":"هل يجوز نية صلاة الجماعة بالجن المسلمين؟","publishedAt":"2023-02-07T18:00:30Z","duration":"PT8M2S","thumbnail":"https://i.ytimg.com/vi/f8n5hyiCB-c/mqdefault.jpg","viewCount":"5196","playlistId":"PLEkQk5xrP-tkGXuZ9atE3k_7it12rUPTs","playlistName":"أسئلة المتابعين","category":"متنوع"},{"id":"7g-nmlwrXn8","title":"التصوف يحمي من التطرف","publishedAt":"2021-04-25T19:15:00Z","duration":"PT29M32S","thumbnail":"https://i.ytimg.com/vi/7g-nmlwrXn8/mqdefault.jpg","viewCount":"5187","playlistId":"PLEkQk5xrP-tm8ZIu74nTOZN9KJUJu416J","playlistName":"مقاطع مُهمَّة (يُسريَّات) أ.د. يسري جبر","category":"متنوع"},{"id":"rkH57eZ12RM","title":"14- ‏أين كان الله قبل خلق الأكوان؟ | شرح الحكم العطائية","publishedAt":"2025-01-16T18:29:51Z","duration":"PT56M59S","thumbnail":"https://i.ytimg.com/vi/rkH57eZ12RM/mqdefault.jpg","viewCount":"5170","playlistId":"PLEkQk5xrP-tmf5ToOwmW-q0JwxkapbrMN","playlistName":"شرح كتاب إرشاد البرية إلى بعض معاني الحكم العطائية","category":"متنوع"},{"id":"FBl0r5I1FMY","title":"كيف تحسن خلقك؟","publishedAt":"2020-12-18T19:12:46Z","duration":"PT9M59S","thumbnail":"https://i.ytimg.com/vi/FBl0r5I1FMY/mqdefault.jpg","viewCount":"5156","playlistId":"PLEkQk5xrP-tm8ZIu74nTOZN9KJUJu416J","playlistName":"مقاطع مُهمَّة (يُسريَّات) أ.د. يسري جبر","category":"متنوع"},{"id":"0-0ySEMzpnk","title":"كيف تتجنب الوقوع في الزنا؟ | أ.د. يسري جبر","publishedAt":"2021-05-03T16:00:00Z","duration":"PT29M38S","thumbnail":"https://i.ytimg.com/vi/0-0ySEMzpnk/mqdefault.jpg","viewCount":"5140","playlistId":"PLEkQk5xrP-tnl7vb7KeAoPd5ZlqKKW8KV","playlistName":"شرح كتاب بهجة النفوس أ.د . يسرى جبر","category":"متنوع"},{"id":"YSIpCuZC9TY","title":"أنا مقبل على الزواج وأخاف من المشاكل الزوجية الكثيرة فماذا أفعل؟","publishedAt":"2023-01-03T18:00:12Z","duration":"PT8M6S","thumbnail":"https://i.ytimg.com/vi/YSIpCuZC9TY/mqdefault.jpg","viewCount":"5117","playlistId":"PLEkQk5xrP-tkGXuZ9atE3k_7it12rUPTs","playlistName":"أسئلة المتابعين","category":"متنوع"},{"id":"ULS0o6o5-Gs","title":"كيف تتبرأ من العِلل؟","publishedAt":"2020-10-18T19:10:21Z","duration":"PT14M36S","thumbnail":"https://i.ytimg.com/vi/ULS0o6o5-Gs/mqdefault.jpg","viewCount":"5112","playlistId":"PLEkQk5xrP-tm8ZIu74nTOZN9KJUJu416J","playlistName":"مقاطع مُهمَّة (يُسريَّات) أ.د. يسري جبر","category":"متنوع"},{"id":"D4_g1jCHH4M","title":"أوانُ لِينِ القلوب","publishedAt":"2020-08-01T19:43:14Z","duration":"PT7M3S","thumbnail":"https://i.ytimg.com/vi/D4_g1jCHH4M/mqdefault.jpg","viewCount":"5110","playlistId":"PLEkQk5xrP-tm8ZIu74nTOZN9KJUJu416J","playlistName":"مقاطع مُهمَّة (يُسريَّات) أ.د. يسري جبر","category":"متنوع"},{"id":"rxW92d_pP4k","title":"شهود الحقيقة","publishedAt":"2020-08-23T20:54:30Z","duration":"PT13M16S","thumbnail":"https://i.ytimg.com/vi/rxW92d_pP4k/mqdefault.jpg","viewCount":"5098","playlistId":"PLEkQk5xrP-tm8ZIu74nTOZN9KJUJu416J","playlistName":"مقاطع مُهمَّة (يُسريَّات) أ.د. يسري جبر","category":"متنوع"},{"id":"j0oQ6DQKqPs","title":"منازل السائرين للإمام الهروى المجلس السابع والخمسون قسم النهايات بَابُ الفناء و باب البقاء","publishedAt":"2015-12-03T16:39:00Z","duration":"PT53M45S","thumbnail":"https://i.ytimg.com/vi/j0oQ6DQKqPs/mqdefault.jpg","viewCount":"5085","playlistId":"PLEkQk5xrP-tnLYi_5_tSRVBwqcs7ISV7Y","playlistName":"شرح كتاب منازل السائرين للإمام الهروي","category":"متنوع"},{"id":"G-MNSB0sM2k","title":"24- معنى أوحال التوحيد وكيف نتحقق بقول لا حول ولا قوة إلّا بالله؟ - شرح عقيدة العارفين","publishedAt":"2023-01-28T05:00:06Z","duration":"PT52M59S","thumbnail":"https://i.ytimg.com/vi/G-MNSB0sM2k/mqdefault.jpg","viewCount":"5085","playlistId":"PLEkQk5xrP-tmNuYT8JAh6clwa4krsgkNo","playlistName":"شرح كتاب الفُتُوحات اليُسريَّة في عقائد الأُمَّة المُحمَّديَّة","category":"متنوع"},{"id":"tZ24xySBMWc","title":"عبادة تجعلك مستعدًا لدخول الجنة في أي لحظة! | مجالس رمضانية","publishedAt":"2025-03-04T15:01:22Z","duration":"PT22M32S","thumbnail":"https://i.ytimg.com/vi/tZ24xySBMWc/mqdefault.jpg","viewCount":"5063","playlistId":"PLEkQk5xrP-tkeI_WVPfuoTJO46aVkpaz0","playlistName":"شرح كتاب ميزان الاعتدال لحفظ الدين والأحوال","category":"متنوع"},{"id":"LFRKIcc8bWQ","title":"إذا أردت أن يفتح لك باب الرجاء،فاشهد ما منه إليك.وإذا أردت أن يفتح لك باب الخوف،فاشهد ما منك إليه","publishedAt":"2017-03-17T20:42:25Z","duration":"PT13M33S","thumbnail":"https://i.ytimg.com/vi/LFRKIcc8bWQ/mqdefault.jpg","viewCount":"5045","playlistId":"PLEkQk5xrP-tkI_meE148wc7V7XHlB0WPb","playlistName":"من الحكم العطائية  د. يسري جبر","category":"متنوع"},{"id":"h7kjVm0k38Q","title":"حَيٌّ قَيُّوم","publishedAt":"2020-10-01T19:32:00Z","duration":"PT9M58S","thumbnail":"https://i.ytimg.com/vi/h7kjVm0k38Q/mqdefault.jpg","viewCount":"5037","playlistId":"PLEkQk5xrP-tm8ZIu74nTOZN9KJUJu416J","playlistName":"مقاطع مُهمَّة (يُسريَّات) أ.د. يسري جبر","category":"متنوع"},{"id":"vafyNpRgbEc","title":"كلمة أ.د. يسري جبر في مدينة بولو | تركيا","publishedAt":"2023-08-03T08:59:00Z","duration":"PT14M3S","thumbnail":"https://i.ytimg.com/vi/vafyNpRgbEc/mqdefault.jpg","viewCount":"5033","playlistId":"PLEkQk5xrP-tmJzNvLntpzW0uPanPzxA0c","playlistName":"لقاءات ومحاضرات","category":"متنوع"}],"total":4126,"page":36,"pageSize":24,"totalPages":172}