{"items":[{"id":"aeeMgTSDJa0","title":"شرح سنن الدارمي كتاب السير من باب ٦٧","publishedAt":"2019-09-02T14:56:29Z","duration":"PT22M42S","thumbnail":"https://i.ytimg.com/vi/aeeMgTSDJa0/mqdefault.jpg","viewCount":"354","playlistId":"PLEkQk5xrP-tmAg-FuWjY057X_h5NmGmAa","playlistName":"شرح سنن الدارمي - أ.د. يسري جبر (كاملا)","category":"متنوع"},{"id":"6r65SeO6hhU","title":"مقرأة سورة الحجر من آية ٦١","publishedAt":"2017-08-11T15:35:56Z","duration":"PT18M24S","thumbnail":"https://i.ytimg.com/vi/6r65SeO6hhU/mqdefault.jpg","viewCount":"353","playlistId":"PLEkQk5xrP-tnmTYsyW6xNdyfhPq0Bhrhj","playlistName":"مقرأة الفجر - القُرْآنُ الكَرِيمُ - خَتْمَةُ التَّدَبُّرِ  أ.د. يسري جبر","category":"متنوع"},{"id":"RdSPqUC-AGI","title":"مقرأة سورة الإسراء من آية ٦٦","publishedAt":"2017-10-02T09:26:48Z","duration":"PT21M22S","thumbnail":"https://i.ytimg.com/vi/RdSPqUC-AGI/mqdefault.jpg","viewCount":"353","playlistId":"PLEkQk5xrP-tnmTYsyW6xNdyfhPq0Bhrhj","playlistName":"مقرأة الفجر - القُرْآنُ الكَرِيمُ - خَتْمَةُ التَّدَبُّرِ  أ.د. يسري جبر","category":"متنوع"},{"id":"wPjKixB0_2Q","title":"مقرأة سورة الطلاق آية ٨","publishedAt":"2019-04-24T08:08:42Z","duration":"PT13M54S","thumbnail":"https://i.ytimg.com/vi/wPjKixB0_2Q/mqdefault.jpg","viewCount":"352","playlistId":"PLEkQk5xrP-tnmTYsyW6xNdyfhPq0Bhrhj","playlistName":"مقرأة الفجر - القُرْآنُ الكَرِيمُ - خَتْمَةُ التَّدَبُّرِ  أ.د. يسري جبر","category":"متنوع"},{"id":"_2ZMA4ecZAs","title":"سورة الأعراف آية 194","publishedAt":"2017-03-13T07:17:20Z","duration":"PT16M48S","thumbnail":"https://i.ytimg.com/vi/_2ZMA4ecZAs/mqdefault.jpg","viewCount":"352","playlistId":"PLEkQk5xrP-tnmTYsyW6xNdyfhPq0Bhrhj","playlistName":"مقرأة الفجر - القُرْآنُ الكَرِيمُ - خَتْمَةُ التَّدَبُّرِ  أ.د. يسري جبر","category":"متنوع"},{"id":"yMt1QIZym8A","title":"سورة الأعراف آية 175","publishedAt":"2017-03-08T08:38:44Z","duration":"PT16M25S","thumbnail":"https://i.ytimg.com/vi/yMt1QIZym8A/mqdefault.jpg","viewCount":"352","playlistId":"PLEkQk5xrP-tnmTYsyW6xNdyfhPq0Bhrhj","playlistName":"مقرأة الفجر - القُرْآنُ الكَرِيمُ - خَتْمَةُ التَّدَبُّرِ  أ.د. يسري جبر","category":"متنوع"},{"id":"vnEg2XMGjao","title":"42- مَوَاقِيتِ الإِهْلاَلِ كتاب الحج ك الموطأ د يسري جبر الأزهري","publishedAt":"2017-02-21T00:48:41Z","duration":"PT1H19M49S","thumbnail":"https://i.ytimg.com/vi/vnEg2XMGjao/mqdefault.jpg","viewCount":"352","playlistId":"PLEkQk5xrP-tnC6BRuqMjyO-484iqXeg0o","playlistName":"شرح كتاب الموطأ للإمام مالك","category":"متنوع"},{"id":"7OeK1c63w0s","title":"مقرأة سورة الحج من آية ٢٥","publishedAt":"2018-01-31T09:57:21Z","duration":"PT29M7S","thumbnail":"https://i.ytimg.com/vi/7OeK1c63w0s/mqdefault.jpg","viewCount":"351","playlistId":"PLEkQk5xrP-tnmTYsyW6xNdyfhPq0Bhrhj","playlistName":"مقرأة الفجر - القُرْآنُ الكَرِيمُ - خَتْمَةُ التَّدَبُّرِ  أ.د. يسري جبر","category":"متنوع"},{"id":"C33y-dfrd7Y","title":"مقرأة سورة الحج من آية ٥","publishedAt":"2018-01-01T13:55:48Z","duration":"PT16M34S","thumbnail":"https://i.ytimg.com/vi/C33y-dfrd7Y/mqdefault.jpg","viewCount":"351","playlistId":"PLEkQk5xrP-tnmTYsyW6xNdyfhPq0Bhrhj","playlistName":"مقرأة الفجر - القُرْآنُ الكَرِيمُ - خَتْمَةُ التَّدَبُّرِ  أ.د. يسري جبر","category":"متنوع"},{"id":"z6iTLPy5004","title":"مقرأة سورة الزمر من آية ٦٠","publishedAt":"2018-10-29T09:37:55Z","duration":"PT13M11S","thumbnail":"https://i.ytimg.com/vi/z6iTLPy5004/mqdefault.jpg","viewCount":"351","playlistId":"PLEkQk5xrP-tnmTYsyW6xNdyfhPq0Bhrhj","playlistName":"مقرأة الفجر - القُرْآنُ الكَرِيمُ - خَتْمَةُ التَّدَبُّرِ  أ.د. يسري جبر","category":"متنوع"},{"id":"mH7Asvbi1d8","title":"مقرأة سورة الزمر من آية ٤٩","publishedAt":"2018-10-27T12:28:46Z","duration":"PT10M27S","thumbnail":"https://i.ytimg.com/vi/mH7Asvbi1d8/mqdefault.jpg","viewCount":"351","playlistId":"PLEkQk5xrP-tnmTYsyW6xNdyfhPq0Bhrhj","playlistName":"مقرأة الفجر - القُرْآنُ الكَرِيمُ - خَتْمَةُ التَّدَبُّرِ  أ.د. يسري جبر","category":"متنوع"},{"id":"W1Pjepxb17M","title":"سورة النساء آية 102","publishedAt":"2016-09-18T06:07:54Z","duration":"PT10M7S","thumbnail":"https://i.ytimg.com/vi/W1Pjepxb17M/mqdefault.jpg","viewCount":"351","playlistId":"PLEkQk5xrP-tnmTYsyW6xNdyfhPq0Bhrhj","playlistName":"مقرأة الفجر - القُرْآنُ الكَرِيمُ - خَتْمَةُ التَّدَبُّرِ  أ.د. يسري جبر","category":"متنوع"},{"id":"t9mTetOZFa8","title":"شرح سنن الدارمي كتاب الرقاق من باب ١٣","publishedAt":"2019-09-26T16:31:44Z","duration":"PT32M35S","thumbnail":"https://i.ytimg.com/vi/t9mTetOZFa8/mqdefault.jpg","viewCount":"351","playlistId":"PLEkQk5xrP-tmAg-FuWjY057X_h5NmGmAa","playlistName":"شرح سنن الدارمي - أ.د. يسري جبر (كاملا)","category":"متنوع"},{"id":"qBD1eRIOG0g","title":"مقرأة سورة لقمان من آية ٢٠","publishedAt":"2018-07-04T10:37:44Z","duration":"PT25M29S","thumbnail":"https://i.ytimg.com/vi/qBD1eRIOG0g/mqdefault.jpg","viewCount":"351","playlistId":"PLEkQk5xrP-tnmTYsyW6xNdyfhPq0Bhrhj","playlistName":"مقرأة الفجر - القُرْآنُ الكَرِيمُ - خَتْمَةُ التَّدَبُّرِ  أ.د. يسري جبر","category":"متنوع"},{"id":"5n6eipCCG2w","title":"شرح سنن الدارمي كتاب السير من باب ١١","publishedAt":"2019-08-29T21:59:53Z","duration":"PT28M53S","thumbnail":"https://i.ytimg.com/vi/5n6eipCCG2w/mqdefault.jpg","viewCount":"351","playlistId":"PLEkQk5xrP-tmAg-FuWjY057X_h5NmGmAa","playlistName":"شرح سنن الدارمي - أ.د. يسري جبر (كاملا)","category":"متنوع"},{"id":"vrvplf6AoDI","title":"شرح سنن الدارمي كتاب المناسك من باب ٢٧","publishedAt":"2019-07-04T20:46:06Z","duration":"PT25M","thumbnail":"https://i.ytimg.com/vi/vrvplf6AoDI/mqdefault.jpg","viewCount":"350","playlistId":"PLEkQk5xrP-tmAg-FuWjY057X_h5NmGmAa","playlistName":"شرح سنن الدارمي - أ.د. يسري جبر (كاملا)","category":"متنوع"},{"id":"DdeN58uCwc8","title":"مقرأة سورة الأحقاف من آية ١٥","publishedAt":"2019-01-06T11:41:43Z","duration":"PT25M5S","thumbnail":"https://i.ytimg.com/vi/DdeN58uCwc8/mqdefault.jpg","viewCount":"350","playlistId":"PLEkQk5xrP-tnmTYsyW6xNdyfhPq0Bhrhj","playlistName":"مقرأة الفجر - القُرْآنُ الكَرِيمُ - خَتْمَةُ التَّدَبُّرِ  أ.د. يسري جبر","category":"متنوع"},{"id":"Da2b1UHv_n4","title":"شرح سنن الدارمي كتاب الطهارة من باب ٨٥","publishedAt":"2019-04-13T03:56:40Z","duration":"PT33M36S","thumbnail":"https://i.ytimg.com/vi/Da2b1UHv_n4/mqdefault.jpg","viewCount":"350","playlistId":"PLEkQk5xrP-tmAg-FuWjY057X_h5NmGmAa","playlistName":"شرح سنن الدارمي - أ.د. يسري جبر (كاملا)","category":"متنوع"},{"id":"KwG5ytvOL2U","title":"سورة المائدة آية 109","publishedAt":"2016-11-25T06:31:10Z","duration":"PT17M10S","thumbnail":"https://i.ytimg.com/vi/KwG5ytvOL2U/mqdefault.jpg","viewCount":"350","playlistId":"PLEkQk5xrP-tnmTYsyW6xNdyfhPq0Bhrhj","playlistName":"مقرأة الفجر - القُرْآنُ الكَرِيمُ - خَتْمَةُ التَّدَبُّرِ  أ.د. يسري جبر","category":"متنوع"},{"id":"5qkLlf_sL_s","title":"مقرأة سورة لقمان من آية ٢٥","publishedAt":"2018-07-05T10:25:10Z","duration":"PT19M31S","thumbnail":"https://i.ytimg.com/vi/5qkLlf_sL_s/mqdefault.jpg","viewCount":"350","playlistId":"PLEkQk5xrP-tnmTYsyW6xNdyfhPq0Bhrhj","playlistName":"مقرأة الفجر - القُرْآنُ الكَرِيمُ - خَتْمَةُ التَّدَبُّرِ  أ.د. يسري جبر","category":"متنوع"},{"id":"N00xK6bRlA8","title":"مقرأة سورة الأحقاف من آية ١٧","publishedAt":"2019-01-07T09:29:15Z","duration":"PT15M59S","thumbnail":"https://i.ytimg.com/vi/N00xK6bRlA8/mqdefault.jpg","viewCount":"350","playlistId":"PLEkQk5xrP-tnmTYsyW6xNdyfhPq0Bhrhj","playlistName":"مقرأة الفجر - القُرْآنُ الكَرِيمُ - خَتْمَةُ التَّدَبُّرِ  أ.د. يسري جبر","category":"متنوع"},{"id":"UnmB4kSv71M","title":"شرح سنن الدارمي كتاب الصلاة من باب ٤٥","publishedAt":"2019-05-04T12:28:15Z","duration":"PT35M59S","thumbnail":"https://i.ytimg.com/vi/UnmB4kSv71M/mqdefault.jpg","viewCount":"349","playlistId":"PLEkQk5xrP-tmAg-FuWjY057X_h5NmGmAa","playlistName":"شرح سنن الدارمي - أ.د. يسري جبر (كاملا)","category":"متنوع"},{"id":"aPJZYDmnrqw","title":"سورة هود آية 12","publishedAt":"2017-06-01T21:30:18Z","duration":"PT12M12S","thumbnail":"https://i.ytimg.com/vi/aPJZYDmnrqw/mqdefault.jpg","viewCount":"349","playlistId":"PLEkQk5xrP-tnmTYsyW6xNdyfhPq0Bhrhj","playlistName":"مقرأة الفجر - القُرْآنُ الكَرِيمُ - خَتْمَةُ التَّدَبُّرِ  أ.د. يسري جبر","category":"متنوع"},{"id":"m-KCFnCASNg","title":"مقرأة سورة التوبة من آية ٣٩","publishedAt":"2017-04-16T21:39:35Z","duration":"PT19M55S","thumbnail":"https://i.ytimg.com/vi/m-KCFnCASNg/mqdefault.jpg","viewCount":"349","playlistId":"PLEkQk5xrP-tnmTYsyW6xNdyfhPq0Bhrhj","playlistName":"مقرأة الفجر - القُرْآنُ الكَرِيمُ - خَتْمَةُ التَّدَبُّرِ  أ.د. يسري جبر","category":"متنوع"}],"total":4126,"page":143,"pageSize":24,"totalPages":172}