{"items":[{"id":"gpZ8ROtB2Bs","title":"397- مَن دَعا إلى هُدًى، كانَ له مِنَ الأجْرِ مِثْلُ أُجُورِ مَن تَبِعَهُ… - شرح دليل الفالحين","publishedAt":"2023-02-11T05:00:30Z","duration":"PT33M46S","thumbnail":"https://i.ytimg.com/vi/gpZ8ROtB2Bs/mqdefault.jpg","viewCount":"1005","playlistId":"PLEkQk5xrP-tkc9DXvSLguqX5-FYp6ASR4","playlistName":"دليل الفالحين لطرق رياض الصالحين","category":"متنوع"},{"id":"50RqYjBw1vQ","title":"264- النهي عن سؤال الإمارة - شرح دليل الفالحين","publishedAt":"2022-06-10T05:03:00Z","duration":"PT38M36S","thumbnail":"https://i.ytimg.com/vi/50RqYjBw1vQ/mqdefault.jpg","viewCount":"1004","playlistId":"PLEkQk5xrP-tkc9DXvSLguqX5-FYp6ASR4","playlistName":"دليل الفالحين لطرق رياض الصالحين","category":"متنوع"},{"id":"4sISodcxK0Y","title":"إنَّمَا جَعَلَها مَحَلًّا للأَغْيَار ومَعْدِنًا لوجُودِ الأكْدَار.. تزْهيدًا لكَ فيها.","publishedAt":"2018-03-30T18:43:47Z","duration":"PT3M38S","thumbnail":"https://i.ytimg.com/vi/4sISodcxK0Y/mqdefault.jpg","viewCount":"1003","playlistId":"PLEkQk5xrP-tkI_meE148wc7V7XHlB0WPb","playlistName":"من الحكم العطائية  د. يسري جبر","category":"متنوع"},{"id":"snzMJoq9JZk","title":"423- لقَدْ كان فيما قبْلَكُم مِن الأُممِ ناسٌ مُحَدَّثُونَ، فإنْ يَكُ في أُمَّتي أحدٌ فإنَّه عُمَرُ.","publishedAt":"2023-04-06T05:00:21Z","duration":"PT33M35S","thumbnail":"https://i.ytimg.com/vi/snzMJoq9JZk/mqdefault.jpg","viewCount":"1001","playlistId":"PLEkQk5xrP-tkc9DXvSLguqX5-FYp6ASR4","playlistName":"دليل الفالحين لطرق رياض الصالحين","category":"متنوع"},{"id":"lKDaQNlvAF0","title":"قراءة القرآن (من آية ١٨٠ سورة البقرة)","publishedAt":"2016-05-08T02:34:05Z","duration":"PT18M47S","thumbnail":"https://i.ytimg.com/vi/lKDaQNlvAF0/mqdefault.jpg","viewCount":"997","playlistId":"PLEkQk5xrP-tnmTYsyW6xNdyfhPq0Bhrhj","playlistName":"مقرأة الفجر - القُرْآنُ الكَرِيمُ - خَتْمَةُ التَّدَبُّرِ  أ.د. يسري جبر","category":"متنوع"},{"id":"q3wo9L5DMlg","title":"118- حكم النوم أثناء السجود - شرح مسند الإمام أحمد رضي الله تعالى عنه","publishedAt":"2024-07-29T06:00:21Z","duration":"PT25M26S","thumbnail":"https://i.ytimg.com/vi/q3wo9L5DMlg/mqdefault.jpg","viewCount":"996","playlistId":"PLEkQk5xrP-tkKprIuGrSdEuBSMsyg5We1","playlistName":"شرح مسند الإمام أحمد بن حنبل","category":"متنوع"},{"id":"-0chXj_fmWs","title":"152- آداب النوم - شرح مسند الإمام أحمد رضي الله تعالى عنه","publishedAt":"2025-02-16T07:11:05Z","duration":"PT14M","thumbnail":"https://i.ytimg.com/vi/-0chXj_fmWs/mqdefault.jpg","viewCount":"996","playlistId":"PLEkQk5xrP-tkKprIuGrSdEuBSMsyg5We1","playlistName":"شرح مسند الإمام أحمد بن حنبل","category":"متنوع"},{"id":"ExS-dVFLC00","title":"400- ما هي أفضل عبادة تطوع بعد الفريضة؟","publishedAt":"2023-02-17T09:00:11Z","duration":"PT45M17S","thumbnail":"https://i.ytimg.com/vi/ExS-dVFLC00/mqdefault.jpg","viewCount":"996","playlistId":"PLEkQk5xrP-tkc9DXvSLguqX5-FYp6ASR4","playlistName":"دليل الفالحين لطرق رياض الصالحين","category":"متنوع"},{"id":"ORTSxon2-Kg","title":"482- التغليظ في تحريم السحر - شرح دليل الفالحين","publishedAt":"2023-06-21T08:59:00Z","duration":"PT21M15S","thumbnail":"https://i.ytimg.com/vi/ORTSxon2-Kg/mqdefault.jpg","viewCount":"996","playlistId":"PLEkQk5xrP-tkc9DXvSLguqX5-FYp6ASR4","playlistName":"دليل الفالحين لطرق رياض الصالحين","category":"متنوع"},{"id":"jkRZGGodmqw","title":"مقرأة سورة النبأ من أولها","publishedAt":"2019-06-11T12:16:36Z","duration":"PT12M35S","thumbnail":"https://i.ytimg.com/vi/jkRZGGodmqw/mqdefault.jpg","viewCount":"996","playlistId":"PLEkQk5xrP-tnmTYsyW6xNdyfhPq0Bhrhj","playlistName":"مقرأة الفجر - القُرْآنُ الكَرِيمُ - خَتْمَةُ التَّدَبُّرِ  أ.د. يسري جبر","category":"متنوع"},{"id":"vb_eSE-5JFI","title":"شرح كتاب منازل السائرين للإمام الهروى المجلس السابع والأربعون قسم الأَحوال باب البرق وباب الذوق","publishedAt":"2015-05-04T19:26:05Z","duration":"PT45M28S","thumbnail":"https://i.ytimg.com/vi/vb_eSE-5JFI/mqdefault.jpg","viewCount":"995","playlistId":"PLEkQk5xrP-tnLYi_5_tSRVBwqcs7ISV7Y","playlistName":"شرح كتاب منازل السائرين للإمام الهروي","category":"متنوع"},{"id":"s_pkd3y5nnc","title":"412- بيان ما يُقال إذا أمسيْت وإذا أصبحْت وإذا أخذْت مضجعك - شرح دليل الفالحين","publishedAt":"2023-03-15T05:35:00Z","duration":"PT30M18S","thumbnail":"https://i.ytimg.com/vi/s_pkd3y5nnc/mqdefault.jpg","viewCount":"995","playlistId":"PLEkQk5xrP-tkc9DXvSLguqX5-FYp6ASR4","playlistName":"دليل الفالحين لطرق رياض الصالحين","category":"متنوع"},{"id":"4_hJ4AuNboc","title":"مقرأة سورة الأحقاف من أولها","publishedAt":"2019-01-02T11:59:13Z","duration":"PT14M27S","thumbnail":"https://i.ytimg.com/vi/4_hJ4AuNboc/mqdefault.jpg","viewCount":"993","playlistId":"PLEkQk5xrP-tnmTYsyW6xNdyfhPq0Bhrhj","playlistName":"مقرأة الفجر - القُرْآنُ الكَرِيمُ - خَتْمَةُ التَّدَبُّرِ  أ.د. يسري جبر","category":"متنوع"},{"id":"zEWirUxs1_8","title":"128- ملاطفة اليتيم والبنات وسائر الضعفة والمساكين والمنكسرين، والإحسان إليهم… - شرح دليل الفالحين","publishedAt":"2021-09-17T06:48:04Z","duration":"PT49M3S","thumbnail":"https://i.ytimg.com/vi/zEWirUxs1_8/mqdefault.jpg","viewCount":"992","playlistId":"PLEkQk5xrP-tkc9DXvSLguqX5-FYp6ASR4","playlistName":"دليل الفالحين لطرق رياض الصالحين","category":"متنوع"},{"id":"DgzgYNbdxl8","title":"189- وقت الزوال ومعنى ظل الزوال - شرح دليل الفالحين","publishedAt":"2022-01-23T08:14:23Z","duration":"PT51M22S","thumbnail":"https://i.ytimg.com/vi/DgzgYNbdxl8/mqdefault.jpg","viewCount":"991","playlistId":"PLEkQk5xrP-tkc9DXvSLguqX5-FYp6ASR4","playlistName":"دليل الفالحين لطرق رياض الصالحين","category":"متنوع"},{"id":"w7SapB2Q7nU","title":"462- حكم تصوير الحيوان واتخاذ الصورة في حائط وغيره - شرح دليل الفالحين","publishedAt":"2023-05-31T08:59:00Z","duration":"PT35M45S","thumbnail":"https://i.ytimg.com/vi/w7SapB2Q7nU/mqdefault.jpg","viewCount":"990","playlistId":"PLEkQk5xrP-tkc9DXvSLguqX5-FYp6ASR4","playlistName":"دليل الفالحين لطرق رياض الصالحين","category":"متنوع"},{"id":"jWjULSVPM_M","title":"هل هجر المسلم من العقوبات الشرعية؟ (2)","publishedAt":"2021-03-06T20:29:04Z","duration":"PT24M2S","thumbnail":"https://i.ytimg.com/vi/jWjULSVPM_M/mqdefault.jpg","viewCount":"988","playlistId":"PLEkQk5xrP-tnAJa3yfebXD7wNC_ECfZNt","playlistName":"كتاب النفحة الذكية في أن الهجر بدعة شركية","category":"متنوع"},{"id":"c3gNlBB1uw4","title":"173- \"أَقتَلْتَهُ بَعْدَمَا قالَ لَا إِلهَ إِلَّا الله؟!\" - شرح دليل الفالحين","publishedAt":"2021-12-24T20:16:23Z","duration":"PT31M52S","thumbnail":"https://i.ytimg.com/vi/c3gNlBB1uw4/mqdefault.jpg","viewCount":"986","playlistId":"PLEkQk5xrP-tkc9DXvSLguqX5-FYp6ASR4","playlistName":"دليل الفالحين لطرق رياض الصالحين","category":"متنوع"},{"id":"eSd8Ufb2MPc","title":"7- الرُّخْصَةِ فِى تَرْكِ الْوُضُوءِ مِنَ الْمَذْىِ ك الطهارة ك الموطأ د يسري جبر الأزهري بمضيفةالدح","publishedAt":"2016-04-11T11:08:34Z","duration":"PT1H10M57S","thumbnail":"https://i.ytimg.com/vi/eSd8Ufb2MPc/mqdefault.jpg","viewCount":"986","playlistId":"PLEkQk5xrP-tnC6BRuqMjyO-484iqXeg0o","playlistName":"شرح كتاب الموطأ للإمام مالك","category":"متنوع"},{"id":"1BT7MwWyWwY","title":"62- حكم التلقين في الحَدّ | إدّخار لحم الأضحية - شرح مسند الإمام أحمد رضي الله عنه","publishedAt":"2024-01-06T07:00:02Z","duration":"PT35M52S","thumbnail":"https://i.ytimg.com/vi/1BT7MwWyWwY/mqdefault.jpg","viewCount":"985","playlistId":"PLEkQk5xrP-tkKprIuGrSdEuBSMsyg5We1","playlistName":"شرح مسند الإمام أحمد بن حنبل","category":"متنوع"},{"id":"dH-EFGpI7zQ","title":"367- حكم كَنز المال وعدم إنفاقه - شرح دليل الفالحين","publishedAt":"2022-12-27T09:00:29Z","duration":"PT46M28S","thumbnail":"https://i.ytimg.com/vi/dH-EFGpI7zQ/mqdefault.jpg","viewCount":"982","playlistId":"PLEkQk5xrP-tkc9DXvSLguqX5-FYp6ASR4","playlistName":"دليل الفالحين لطرق رياض الصالحين","category":"متنوع"},{"id":"3bdL4EeDuNM","title":"351- الحث على صلاة الوتر  وبيان أنه سنة مؤكدة وبيان وقته - شرح دليل الفالحين","publishedAt":"2022-12-04T09:00:03Z","duration":"PT24M23S","thumbnail":"https://i.ytimg.com/vi/3bdL4EeDuNM/mqdefault.jpg","viewCount":"982","playlistId":"PLEkQk5xrP-tkc9DXvSLguqX5-FYp6ASR4","playlistName":"دليل الفالحين لطرق رياض الصالحين","category":"متنوع"},{"id":"LJ71eZ-Wydc","title":"302- سَلَامُ الرَّجُلِ عَلَى زَوجَتِه - شرح دليل الفالحين","publishedAt":"2022-09-21T06:00:04Z","duration":"PT36M24S","thumbnail":"https://i.ytimg.com/vi/LJ71eZ-Wydc/mqdefault.jpg","viewCount":"981","playlistId":"PLEkQk5xrP-tkc9DXvSLguqX5-FYp6ASR4","playlistName":"دليل الفالحين لطرق رياض الصالحين","category":"متنوع"},{"id":"fcttccFvhqQ","title":"417-  اللهمّ لك أسلمت وبك آمنت وعليك توكلت وإليك أنبت وبك خاصمت أعوذ بعزّتك لا إله إلا أنت أن تُضلني","publishedAt":"2023-03-25T05:00:14Z","duration":"PT35M30S","thumbnail":"https://i.ytimg.com/vi/fcttccFvhqQ/mqdefault.jpg","viewCount":"980","playlistId":"PLEkQk5xrP-tkc9DXvSLguqX5-FYp6ASR4","playlistName":"دليل الفالحين لطرق رياض الصالحين","category":"متنوع"}],"total":4126,"page":94,"pageSize":24,"totalPages":172}