{"items":[{"id":"p6sHKV2mag0","title":"كيف يحمي المريد نفسه من الأوهام؟","publishedAt":"2021-09-09T17:20:31Z","duration":"PT9M3S","thumbnail":"https://i.ytimg.com/vi/p6sHKV2mag0/mqdefault.jpg","viewCount":"7666","playlistId":"PLEkQk5xrP-tkGXuZ9atE3k_7it12rUPTs","playlistName":"أسئلة المتابعين","category":"متنوع"},{"id":"k3fD7GxUVAw","title":"مجلس اللطيفية بصوت د.يسري جبر","publishedAt":"2024-06-23T18:09:40Z","duration":"PT26M25S","thumbnail":"https://i.ytimg.com/vi/k3fD7GxUVAw/mqdefault.jpg","viewCount":"7640","playlistId":"PLEkQk5xrP-tk3OeVFoMfKhOhyINnlPeYZ","playlistName":"الحَضْرَةُ الصِّدِّيقِيَّة والأوْرَاد","category":"متنوع"},{"id":"zSL-WBrEQyM","title":"8- الإخلاص وإحضار النية في جميع الأعمال... شرح دليل الفالحين أ.د. يسري جبر","publishedAt":"2021-01-24T06:56:29Z","duration":"PT29M28S","thumbnail":"https://i.ytimg.com/vi/zSL-WBrEQyM/mqdefault.jpg","viewCount":"7633","playlistId":"PLEkQk5xrP-tkc9DXvSLguqX5-FYp6ASR4","playlistName":"دليل الفالحين لطرق رياض الصالحين","category":"متنوع"},{"id":"TuCF_rNotiA","title":"اعرف صفات نبيك الخِلقية | اعرف نبيك","publishedAt":"2015-04-29T14:32:20Z","duration":"PT6M46S","thumbnail":"https://i.ytimg.com/vi/TuCF_rNotiA/mqdefault.jpg","viewCount":"7618","playlistId":"PLEkQk5xrP-tl6Mu_Mz3QMUSv5T6XBH-Dg","playlistName":"برنامج اعرف نبيك","category":"متنوع"},{"id":"l-4zTknWZTs","title":"ما هي حدود الاختلاط بين الرجال والنساء؟","publishedAt":"2023-12-10T19:35:47Z","duration":"PT10M10S","thumbnail":"https://i.ytimg.com/vi/l-4zTknWZTs/mqdefault.jpg","viewCount":"7573","playlistId":"PLEkQk5xrP-tkGXuZ9atE3k_7it12rUPTs","playlistName":"أسئلة المتابعين","category":"متنوع"},{"id":"Ia4eh8MNbQA","title":"أريد تناول المهدّئات.. بماذا تنصحني؟","publishedAt":"2021-09-05T17:37:14Z","duration":"PT9M23S","thumbnail":"https://i.ytimg.com/vi/Ia4eh8MNbQA/mqdefault.jpg","viewCount":"7561","playlistId":"PLEkQk5xrP-tkGXuZ9atE3k_7it12rUPTs","playlistName":"أسئلة المتابعين","category":"متنوع"},{"id":"dp6AbrUDgzo","title":"صلوات اليوم الرابع أ.د. يسري جبر","publishedAt":"2016-03-26T19:21:39Z","duration":"PT16M42S","thumbnail":"https://i.ytimg.com/vi/dp6AbrUDgzo/mqdefault.jpg","viewCount":"7544","playlistId":"PLEkQk5xrP-tmuP5s2o33O9gAOC4ACxsma","playlistName":"صَلَواتُ الأَسْمَاءِ الْحُسْنَى شَرْحُ الصَّلَواتِ الْيُسْرِيَّةِ عَلَى خَيرِ الْبَرِيَّةِ  أ.د. يسرى جبر","category":"متنوع"},{"id":"AMbH7EOODCk","title":"أسرار وحكايات في ذكرى ميلاد الدكتور يسري جبر","publishedAt":"2024-09-23T19:00:18Z","duration":"PT22M2S","thumbnail":"https://i.ytimg.com/vi/AMbH7EOODCk/mqdefault.jpg","viewCount":"7499","playlistId":"PLEkQk5xrP-tl6tFiMFGUucCTvLgnWyAfz","playlistName":"حياة الأستاذ الدكتور يسري جبر","category":"متنوع"},{"id":"UfHp_kGmFiE","title":"هل الحركة والتمايل أثناء الذكر حرام؟","publishedAt":"2022-04-05T19:30:03Z","duration":"PT11M57S","thumbnail":"https://i.ytimg.com/vi/UfHp_kGmFiE/mqdefault.jpg","viewCount":"7487","playlistId":"PLEkQk5xrP-tkGXuZ9atE3k_7it12rUPTs","playlistName":"أسئلة المتابعين","category":"متنوع"},{"id":"YyO-HUnFH4M","title":"كلمة فضيلة الدكتور يسري جبر في الملتقى العالمي الثاني عشر للتصوف بالمغرب","publishedAt":"2017-11-30T12:21:12Z","duration":"PT22M44S","thumbnail":"https://i.ytimg.com/vi/YyO-HUnFH4M/mqdefault.jpg","viewCount":"7486","playlistId":"PLEkQk5xrP-tm8ZIu74nTOZN9KJUJu416J","playlistName":"مقاطع مُهمَّة (يُسريَّات) أ.د. يسري جبر","category":"متنوع"},{"id":"2mclCySzFC0","title":"الفرق بين المحبة والخلة والعشق  د. يسري جبر","publishedAt":"2016-07-18T16:56:04Z","duration":"PT8M50S","thumbnail":"https://i.ytimg.com/vi/2mclCySzFC0/mqdefault.jpg","viewCount":"7483","playlistId":"PLEkQk5xrP-tm8ZIu74nTOZN9KJUJu416J","playlistName":"مقاطع مُهمَّة (يُسريَّات) أ.د. يسري جبر","category":"متنوع"},{"id":"zyp96vONxfw","title":"ما هي مفاتيح الغيب؟ | مجالس رمضانية","publishedAt":"2024-03-23T14:00:50Z","duration":"PT44M30S","thumbnail":"https://i.ytimg.com/vi/zyp96vONxfw/mqdefault.jpg","viewCount":"7475","playlistId":"PLEkQk5xrP-tnl7vb7KeAoPd5ZlqKKW8KV","playlistName":"شرح كتاب بهجة النفوس أ.د . يسرى جبر","category":"متنوع"},{"id":"wvpz5_ltsFE","title":"الحقائقُ تَرِدُ في حَالِ التَّجَلِّي مُجْمَلَةً وبعْدَ الوَعْي يكونُ البيانُ","publishedAt":"2018-01-02T18:50:17Z","duration":"PT13M30S","thumbnail":"https://i.ytimg.com/vi/wvpz5_ltsFE/mqdefault.jpg","viewCount":"7453","playlistId":"PLEkQk5xrP-tkI_meE148wc7V7XHlB0WPb","playlistName":"من الحكم العطائية  د. يسري جبر","category":"متنوع"},{"id":"BuTAVhNxaoU","title":"الجراحة بين الحلاق والطبيب!","publishedAt":"2021-01-06T18:35:22Z","duration":"PT8M1S","thumbnail":"https://i.ytimg.com/vi/BuTAVhNxaoU/mqdefault.jpg","viewCount":"7417","playlistId":"PLEkQk5xrP-tm8ZIu74nTOZN9KJUJu416J","playlistName":"مقاطع مُهمَّة (يُسريَّات) أ.د. يسري جبر","category":"متنوع"},{"id":"MbHZ4_nfSvY","title":"شرح صحيح البخاري_ كتاب (بدء الخلق) «حديث الذبابة» ورد الشبهات حولها د. يسري جبر","publishedAt":"2014-08-25T01:39:24Z","duration":"PT1H16M17S","thumbnail":"https://i.ytimg.com/vi/MbHZ4_nfSvY/mqdefault.jpg","viewCount":"7408","playlistId":"PLEkQk5xrP-tm8ZIu74nTOZN9KJUJu416J","playlistName":"مقاطع مُهمَّة (يُسريَّات) أ.د. يسري جبر","category":"متنوع"},{"id":"YEsbag9lF-I","title":"9- شرح حديث \"إِنَّمَا الأَعْمَالُ بِالنِّيَّاتِ، وَإِنَّمَا لِكُلِّ امْرِئٍ مَا نَوَى\"","publishedAt":"2021-01-25T19:44:22Z","duration":"PT37M38S","thumbnail":"https://i.ytimg.com/vi/YEsbag9lF-I/mqdefault.jpg","viewCount":"7393","playlistId":"PLEkQk5xrP-tkc9DXvSLguqX5-FYp6ASR4","playlistName":"دليل الفالحين لطرق رياض الصالحين","category":"متنوع"},{"id":"ONgO4xybcok","title":"بَرَكَةُ النَّبيّ ﷺ في لمس الأشياء","publishedAt":"2022-07-14T18:30:20Z","duration":"PT8M34S","thumbnail":"https://i.ytimg.com/vi/ONgO4xybcok/mqdefault.jpg","viewCount":"7365","playlistId":"PLEkQk5xrP-tm8ZIu74nTOZN9KJUJu416J","playlistName":"مقاطع مُهمَّة (يُسريَّات) أ.د. يسري جبر","category":"متنوع"},{"id":"QefZZTur1Uo","title":"ما معنى قراءة الفاتحة لسيدنا محمد ﷺ؟","publishedAt":"2022-08-25T18:00:15Z","duration":"PT10M17S","thumbnail":"https://i.ytimg.com/vi/QefZZTur1Uo/mqdefault.jpg","viewCount":"7344","playlistId":"PLEkQk5xrP-tkGXuZ9atE3k_7it12rUPTs","playlistName":"أسئلة المتابعين","category":"متنوع"},{"id":"KMzAi84kip4","title":"هل الذكر الجماعي سنة | وما هي الأعمال التي تجنبنا المعاصي؟","publishedAt":"2022-07-17T19:19:31Z","duration":"PT9M35S","thumbnail":"https://i.ytimg.com/vi/KMzAi84kip4/mqdefault.jpg","viewCount":"7338","playlistId":"PLEkQk5xrP-tm8ZIu74nTOZN9KJUJu416J","playlistName":"مقاطع مُهمَّة (يُسريَّات) أ.د. يسري جبر","category":"متنوع"},{"id":"SfeyYKP50bM","title":"هل رؤية النبي ﷺ يقظة حقيقة أم هلاوس؟","publishedAt":"2022-08-02T18:00:16Z","duration":"PT14M10S","thumbnail":"https://i.ytimg.com/vi/SfeyYKP50bM/mqdefault.jpg","viewCount":"7333","playlistId":"PLEkQk5xrP-tkGXuZ9atE3k_7it12rUPTs","playlistName":"أسئلة المتابعين","category":"متنوع"},{"id":"U71VggsKTME","title":"كيف أتخلص من جلد الذات؟","publishedAt":"2021-07-28T17:30:04Z","duration":"PT9M31S","thumbnail":"https://i.ytimg.com/vi/U71VggsKTME/mqdefault.jpg","viewCount":"7330","playlistId":"PLEkQk5xrP-tkGXuZ9atE3k_7it12rUPTs","playlistName":"أسئلة المتابعين","category":"متنوع"},{"id":"8zD_j4FtYyQ","title":"5 أسرار لا يعلمها إلا الله! | مجالس الاعتكاف","publishedAt":"2025-03-27T10:00:08Z","duration":"PT37M11S","thumbnail":"https://i.ytimg.com/vi/8zD_j4FtYyQ/mqdefault.jpg","viewCount":"7317","playlistId":"PLEkQk5xrP-tly7ti7Qb_lS7xjUg_fwlNP","playlistName":"شرح كتاب الدولة المكية بالمادة الغيبية","category":"متنوع"},{"id":"EtEcpp2v2Gs","title":"التصوف ودوره في مواجهة الوباء والمحن","publishedAt":"2021-08-12T06:13:59Z","duration":"PT29M34S","thumbnail":"https://i.ytimg.com/vi/EtEcpp2v2Gs/mqdefault.jpg","viewCount":"7310","playlistId":"PLEkQk5xrP-tm8ZIu74nTOZN9KJUJu416J","playlistName":"مقاطع مُهمَّة (يُسريَّات) أ.د. يسري جبر","category":"متنوع"},{"id":"G-CW9KsFhYM","title":"الصِيغَةُ النَّبَوِيَّةُ الشَّرِيفَةُ    أ.د. يسري جبر","publishedAt":"2019-04-11T20:14:55Z","duration":"PT2M18S","thumbnail":"https://i.ytimg.com/vi/G-CW9KsFhYM/mqdefault.jpg","viewCount":"7301","playlistId":"PLEkQk5xrP-tm8ZIu74nTOZN9KJUJu416J","playlistName":"مقاطع مُهمَّة (يُسريَّات) أ.د. يسري جبر","category":"متنوع"}],"total":4126,"page":26,"pageSize":24,"totalPages":172}