{"items":[{"id":"PKX9JiV8b6E","title":"سورة البقرة آية 60","publishedAt":"2016-04-22T09:22:24Z","duration":"PT22M23S","thumbnail":"https://i.ytimg.com/vi/PKX9JiV8b6E/mqdefault.jpg","viewCount":"1828","playlistId":"PLEkQk5xrP-tnmTYsyW6xNdyfhPq0Bhrhj","playlistName":"مقرأة الفجر - القُرْآنُ الكَرِيمُ - خَتْمَةُ التَّدَبُّرِ  أ.د. يسري جبر","category":"متنوع"},{"id":"lvouV9rqZxU","title":"شرح سنن الدارمي - المقدمة - ٢","publishedAt":"2019-02-24T21:33:38Z","duration":"PT31M53S","thumbnail":"https://i.ytimg.com/vi/lvouV9rqZxU/mqdefault.jpg","viewCount":"1827","playlistId":"PLEkQk5xrP-tmAg-FuWjY057X_h5NmGmAa","playlistName":"شرح سنن الدارمي - أ.د. يسري جبر (كاملا)","category":"متنوع"},{"id":"9-HI-Z8BZoY","title":"53-“يا غُلامُ إنِّي أعلِّمُكَ كلِماتٍ...”الحديث (3) باب المراقبة - شرح دليل الفالحين","publishedAt":"2021-05-04T05:26:34Z","duration":"PT38M52S","thumbnail":"https://i.ytimg.com/vi/9-HI-Z8BZoY/mqdefault.jpg","viewCount":"1826","playlistId":"PLEkQk5xrP-tkc9DXvSLguqX5-FYp6ASR4","playlistName":"دليل الفالحين لطرق رياض الصالحين","category":"متنوع"},{"id":"73cvSO9zuYA","title":"402- فضل الذكر والحث عليه - شرح دليل الفالحين","publishedAt":"2023-02-21T05:00:05Z","duration":"PT28M10S","thumbnail":"https://i.ytimg.com/vi/73cvSO9zuYA/mqdefault.jpg","viewCount":"1825","playlistId":"PLEkQk5xrP-tkc9DXvSLguqX5-FYp6ASR4","playlistName":"دليل الفالحين لطرق رياض الصالحين","category":"متنوع"},{"id":"LXzCSzDrgvY","title":"ما حكم التوسل بالأولياء والصالحين؟","publishedAt":"2025-11-15T17:15:01Z","duration":"PT10M31S","thumbnail":"https://i.ytimg.com/vi/LXzCSzDrgvY/mqdefault.jpg","viewCount":"1824","playlistId":"PLEkQk5xrP-tm8ZIu74nTOZN9KJUJu416J","playlistName":"مقاطع مُهمَّة (يُسريَّات) أ.د. يسري جبر","category":"متنوع"},{"id":"BfeOA6kv8RY","title":"32- حكم المذي وكيفية التطهر منه - شرح مسند الإمام أحمد","publishedAt":"2023-10-23T05:30:02Z","duration":"PT34M18S","thumbnail":"https://i.ytimg.com/vi/BfeOA6kv8RY/mqdefault.jpg","viewCount":"1820","playlistId":"PLEkQk5xrP-tkKprIuGrSdEuBSMsyg5We1","playlistName":"شرح مسند الإمام أحمد بن حنبل","category":"متنوع"},{"id":"jjYy9_fxIwM","title":"42- ما الفرق بين طهارة الظاهر والباطن؟ | شرح مختصر الفتوحات المكية","publishedAt":"2025-05-12T17:00:56Z","duration":"PT42M43S","thumbnail":"https://i.ytimg.com/vi/jjYy9_fxIwM/mqdefault.jpg","viewCount":"1819","playlistId":"PLEkQk5xrP-tnpkdZki6rPTtMak1bnI5g-","playlistName":"شرح كتاب مختصر الفتوحات المكية المسمى لواقح الأنوار القدسية","category":"متنوع"},{"id":"ARhaIBJD_tk","title":"4- صِفةُ وُضوء رسول الله ﷺ عند الطعام - قراءة كتاب الشمائل المحمَّديَّة للإمام الترمذيّ رضي الله عنه","publishedAt":"2021-02-22T07:19:08Z","duration":"PT54M41S","thumbnail":"https://i.ytimg.com/vi/ARhaIBJD_tk/mqdefault.jpg","viewCount":"1818","playlistId":"PLEkQk5xrP-tkCtkJ_fVpP3CmkJhWYYZtt","playlistName":"قراءةُ كتابِ الشَّمَائِلِ المُحَمَّدِيَّة للإِمام التِّرمذيّ رضي الله عن","category":"متنوع"},{"id":"1oy7XySUk-0","title":"شرح كتاب منازل السائرين للإمام الهروى - المجلس الثاني والعشرون - باب التسليم","publishedAt":"2014-09-22T10:36:50Z","duration":"PT1H9M","thumbnail":"https://i.ytimg.com/vi/1oy7XySUk-0/mqdefault.jpg","viewCount":"1813","playlistId":"PLEkQk5xrP-tnLYi_5_tSRVBwqcs7ISV7Y","playlistName":"شرح كتاب منازل السائرين للإمام الهروي","category":"متنوع"},{"id":"HqFzyGYs44o","title":"الصلاةُ طَهارةٌ ( طُُهرةٌ ) للقلوب من أدناس الذنوب، واستفتاحٌ لِبَابِ الغُيوب","publishedAt":"2017-01-25T17:28:27Z","duration":"PT12M31S","thumbnail":"https://i.ytimg.com/vi/HqFzyGYs44o/mqdefault.jpg","viewCount":"1808","playlistId":"PLEkQk5xrP-tkI_meE148wc7V7XHlB0WPb","playlistName":"من الحكم العطائية  د. يسري جبر","category":"متنوع"},{"id":"sexPT-WHAcE","title":"276- استأذنتُ النَّبيَّ ﷺ في العُمْرَةِ فأَذِن وقال لا تنسانا يا أُخَيَّ من دعائِك…","publishedAt":"2022-07-06T05:15:02Z","duration":"PT27M36S","thumbnail":"https://i.ytimg.com/vi/sexPT-WHAcE/mqdefault.jpg","viewCount":"1807","playlistId":"PLEkQk5xrP-tkc9DXvSLguqX5-FYp6ASR4","playlistName":"دليل الفالحين لطرق رياض الصالحين","category":"متنوع"},{"id":"RXa4VbAx1JA","title":"409- فضل حِلَقِ الذِكر والندب على ملازمتها والنهي عن مفارقتها لغير عذر - شرح دليل الفالحين","publishedAt":"2023-03-09T05:00:16Z","duration":"PT30M5S","thumbnail":"https://i.ytimg.com/vi/RXa4VbAx1JA/mqdefault.jpg","viewCount":"1806","playlistId":"PLEkQk5xrP-tkc9DXvSLguqX5-FYp6ASR4","playlistName":"دليل الفالحين لطرق رياض الصالحين","category":"متنوع"},{"id":"LfkyMo-raBw","title":"68- \"…حُجِبَتِ النَّارُ بالشَّهَواتِ، وحُجِبَتِ الجَنَّةُ بالمَكارِهِ.\" الحديث (7) شرح دليل الفالحين","publishedAt":"2021-05-26T05:08:44Z","duration":"PT41M21S","thumbnail":"https://i.ytimg.com/vi/LfkyMo-raBw/mqdefault.jpg","viewCount":"1803","playlistId":"PLEkQk5xrP-tkc9DXvSLguqX5-FYp6ASR4","playlistName":"دليل الفالحين لطرق رياض الصالحين","category":"متنوع"},{"id":"z5lzUf6iEr4","title":"ما هي آداب طالب العلم؟","publishedAt":"2023-03-11T18:00:32Z","duration":"PT31M38S","thumbnail":"https://i.ytimg.com/vi/z5lzUf6iEr4/mqdefault.jpg","viewCount":"1799","playlistId":"PLEkQk5xrP-tm8ZIu74nTOZN9KJUJu416J","playlistName":"مقاطع مُهمَّة (يُسريَّات) أ.د. يسري جبر","category":"متنوع"},{"id":"3QpWeDl64fw","title":"كيف تختم رمضان بأعلى درجات الصوم؟ | مجالس رمضانية","publishedAt":"2025-03-23T15:00:04Z","duration":"PT17M3S","thumbnail":"https://i.ytimg.com/vi/3QpWeDl64fw/mqdefault.jpg","viewCount":"1799","playlistId":"PLEkQk5xrP-tkeI_WVPfuoTJO46aVkpaz0","playlistName":"شرح كتاب ميزان الاعتدال لحفظ الدين والأحوال","category":"متنوع"},{"id":"nYvPp5YnRMc","title":"215- كان رسولُ اللَّه ﷺ يبيتُ اللَّيالي المتتابعة طاويًا وأهلُه لا يجدون عَشاءً - شرح دليل الفالحين","publishedAt":"2022-03-08T19:00:48Z","duration":"PT30M54S","thumbnail":"https://i.ytimg.com/vi/nYvPp5YnRMc/mqdefault.jpg","viewCount":"1797","playlistId":"PLEkQk5xrP-tkc9DXvSLguqX5-FYp6ASR4","playlistName":"دليل الفالحين لطرق رياض الصالحين","category":"متنوع"},{"id":"JsFBGOcW0U0","title":"99- \"إنَّه يُسْتَعْمَلُ علَيْكُم أُمَراءُ، فَتَعْرِفُونَ وتُنْكِرُونَ…\" شرح دليل الفالحين","publishedAt":"2021-07-17T05:21:18Z","duration":"PT48M52S","thumbnail":"https://i.ytimg.com/vi/JsFBGOcW0U0/mqdefault.jpg","viewCount":"1796","playlistId":"PLEkQk5xrP-tkc9DXvSLguqX5-FYp6ASR4","playlistName":"دليل الفالحين لطرق رياض الصالحين","category":"متنوع"},{"id":"M61EeeacpvQ","title":"علم منك أنك لا تصبر عنه ، فأشهدك ما برز منه","publishedAt":"2017-01-18T18:46:51Z","duration":"PT5M9S","thumbnail":"https://i.ytimg.com/vi/M61EeeacpvQ/mqdefault.jpg","viewCount":"1792","playlistId":"PLEkQk5xrP-tkI_meE148wc7V7XHlB0WPb","playlistName":"من الحكم العطائية  د. يسري جبر","category":"متنوع"},{"id":"DtzVyjmeyqQ","title":"إضافة يسرية للخصائص النبوية","publishedAt":"2020-09-24T17:59:45Z","duration":"PT2M26S","thumbnail":"https://i.ytimg.com/vi/DtzVyjmeyqQ/mqdefault.jpg","viewCount":"1791","playlistId":"PLEkQk5xrP-tm8ZIu74nTOZN9KJUJu416J","playlistName":"مقاطع مُهمَّة (يُسريَّات) أ.د. يسري جبر","category":"متنوع"},{"id":"RwMvKq1Wt7Q","title":"241- البِرُّ حُسنُ الخُلُق، والإِثْمُ ما حاك في صدرك ، وكرهت أن يطلع عليه الناس - شرح دليل الفالحين","publishedAt":"2022-04-30T05:00:10Z","duration":"PT46M21S","thumbnail":"https://i.ytimg.com/vi/RwMvKq1Wt7Q/mqdefault.jpg","viewCount":"1789","playlistId":"PLEkQk5xrP-tkc9DXvSLguqX5-FYp6ASR4","playlistName":"دليل الفالحين لطرق رياض الصالحين","category":"متنوع"},{"id":"ZF2L7Qm3VV4","title":"11- هل يجوز السمر بعد العشاء؟ | وما معنى الكَلَالَة؟ - شرح مسند الإمام أحمد","publishedAt":"2023-08-05T08:59:00Z","duration":"PT46M57S","thumbnail":"https://i.ytimg.com/vi/ZF2L7Qm3VV4/mqdefault.jpg","viewCount":"1784","playlistId":"PLEkQk5xrP-tkKprIuGrSdEuBSMsyg5We1","playlistName":"شرح مسند الإمام أحمد بن حنبل","category":"متنوع"},{"id":"l5m5hVx_Ihs","title":"216- ألا تسمعون؟ ألا تسمعون؟ إنَّ البَذَاذَةَ من الإيمان - شرح دليل الفالحين","publishedAt":"2022-03-12T05:29:39Z","duration":"PT52M59S","thumbnail":"https://i.ytimg.com/vi/l5m5hVx_Ihs/mqdefault.jpg","viewCount":"1784","playlistId":"PLEkQk5xrP-tkc9DXvSLguqX5-FYp6ASR4","playlistName":"دليل الفالحين لطرق رياض الصالحين","category":"متنوع"},{"id":"TlOWXiKWM44","title":"120- الشفاعة - شرح دليل الفالحين","publishedAt":"2021-09-01T05:44:36Z","duration":"PT30M32S","thumbnail":"https://i.ytimg.com/vi/TlOWXiKWM44/mqdefault.jpg","viewCount":"1775","playlistId":"PLEkQk5xrP-tkc9DXvSLguqX5-FYp6ASR4","playlistName":"دليل الفالحين لطرق رياض الصالحين","category":"متنوع"},{"id":"GpUp-pkPcUw","title":"متى أعطاك،أشهدك بِرَّه،ومتى منعك،أشهدك قهره، فهو في كل ذلك مُتعِّرف إليك،ومُقبِل بوجود لطفه عليك","publishedAt":"2016-11-08T20:23:18Z","duration":"PT6M9S","thumbnail":"https://i.ytimg.com/vi/GpUp-pkPcUw/mqdefault.jpg","viewCount":"1775","playlistId":"PLEkQk5xrP-tkI_meE148wc7V7XHlB0WPb","playlistName":"من الحكم العطائية  د. يسري جبر","category":"متنوع"}],"total":4126,"page":69,"pageSize":24,"totalPages":172}