{"items":[{"id":"El0t78_Zcyk","title":"283- النَّهْي عن القِرَانِ بين التمْرتين ونحوِهما… - شرح دليل الفالحين","publishedAt":"2022-08-01T05:15:00Z","duration":"PT37M40S","thumbnail":"https://i.ytimg.com/vi/El0t78_Zcyk/mqdefault.jpg","viewCount":"885","playlistId":"PLEkQk5xrP-tkc9DXvSLguqX5-FYp6ASR4","playlistName":"دليل الفالحين لطرق رياض الصالحين","category":"متنوع"},{"id":"AG4gtOCro08","title":"306-  عيادة المريض وتشييع الميت والصلاة عليه وحضور دفنه والمكث عند قبره بعد دفنه - شرح دليل الفالحين","publishedAt":"2022-10-06T06:20:00Z","duration":"PT56M12S","thumbnail":"https://i.ytimg.com/vi/AG4gtOCro08/mqdefault.jpg","viewCount":"884","playlistId":"PLEkQk5xrP-tkc9DXvSLguqX5-FYp6ASR4","playlistName":"دليل الفالحين لطرق رياض الصالحين","category":"متنوع"},{"id":"LvcFYlEl1kE","title":"مقرأة سورة الشعراء من آية ١٠","publishedAt":"2018-04-10T09:00:43Z","duration":"PT25M54S","thumbnail":"https://i.ytimg.com/vi/LvcFYlEl1kE/mqdefault.jpg","viewCount":"884","playlistId":"PLEkQk5xrP-tnmTYsyW6xNdyfhPq0Bhrhj","playlistName":"مقرأة الفجر - القُرْآنُ الكَرِيمُ - خَتْمَةُ التَّدَبُّرِ  أ.د. يسري جبر","category":"متنوع"},{"id":"JBgNNE7tNzI","title":"491- الترغيب في إخراج الصدقة قبل ألَّا يوجد مَن يقبلها - شرح دليل الفالحين","publishedAt":"2023-07-02T08:59:00Z","duration":"PT37M33S","thumbnail":"https://i.ytimg.com/vi/JBgNNE7tNzI/mqdefault.jpg","viewCount":"883","playlistId":"PLEkQk5xrP-tkc9DXvSLguqX5-FYp6ASR4","playlistName":"دليل الفالحين لطرق رياض الصالحين","category":"متنوع"},{"id":"a5KoLQ9IGQI","title":"333- فضلُ الوُضُوء - شرح دليل الفالحين","publishedAt":"2022-11-13T09:00:00Z","duration":"PT54M37S","thumbnail":"https://i.ytimg.com/vi/a5KoLQ9IGQI/mqdefault.jpg","viewCount":"882","playlistId":"PLEkQk5xrP-tkc9DXvSLguqX5-FYp6ASR4","playlistName":"دليل الفالحين لطرق رياض الصالحين","category":"متنوع"},{"id":"5499_-C2v8Y","title":"ما حكم سب الأموات؟ | مجالس رمضانية","publishedAt":"2023-04-14T10:00:04Z","duration":"PT30M31S","thumbnail":"https://i.ytimg.com/vi/5499_-C2v8Y/mqdefault.jpg","viewCount":"882","playlistId":"PLEkQk5xrP-tnl7vb7KeAoPd5ZlqKKW8KV","playlistName":"شرح كتاب بهجة النفوس أ.د . يسرى جبر","category":"متنوع"},{"id":"XbN2BwG1PSw","title":"طاعة الأمير لا تكون إلا في معروف | أ.د. يسري جبر","publishedAt":"2021-04-27T17:00:10Z","duration":"PT34M15S","thumbnail":"https://i.ytimg.com/vi/XbN2BwG1PSw/mqdefault.jpg","viewCount":"881","playlistId":"PLEkQk5xrP-tnl7vb7KeAoPd5ZlqKKW8KV","playlistName":"شرح كتاب بهجة النفوس أ.د . يسرى جبر","category":"متنوع"},{"id":"axD6GeZDzf8","title":"87- نبذة عن سيدنا عبد الرحمن بن أبي بكر رضي اللهُ تعالى عنه - شرح مسند الإمام أحمد رضي","publishedAt":"2024-03-20T06:30:01Z","duration":"PT24M25S","thumbnail":"https://i.ytimg.com/vi/axD6GeZDzf8/mqdefault.jpg","viewCount":"879","playlistId":"PLEkQk5xrP-tkKprIuGrSdEuBSMsyg5We1","playlistName":"شرح مسند الإمام أحمد بن حنبل","category":"متنوع"},{"id":"Zr_H7F1VvgY","title":"كلمة أ.د. يسري جبر احتفالًا بالمولد النبوي الشريف","publishedAt":"2025-09-13T18:30:53Z","duration":"PT31M54S","thumbnail":"https://i.ytimg.com/vi/Zr_H7F1VvgY/mqdefault.jpg","viewCount":"879","playlistId":"PLEkQk5xrP-tm8ZIu74nTOZN9KJUJu416J","playlistName":"مقاطع مُهمَّة (يُسريَّات) أ.د. يسري جبر","category":"متنوع"},{"id":"IEMeAi05nFs","title":"مكانة المدينة المنورة في الإسلام | اعرف نبيك","publishedAt":"2015-06-11T14:38:17Z","duration":"PT1M19S","thumbnail":"https://i.ytimg.com/vi/IEMeAi05nFs/mqdefault.jpg","viewCount":"877","playlistId":"PLEkQk5xrP-tl6Mu_Mz3QMUSv5T6XBH-Dg","playlistName":"برنامج اعرف نبيك","category":"متنوع"},{"id":"MOp0mR1GmeI","title":"بِدَعُ التَفَاسِيرِ - المجلس التاسع.  أ.د. يسري جبر","publishedAt":"2019-12-18T07:56:56Z","duration":"PT6M39S","thumbnail":"https://i.ytimg.com/vi/MOp0mR1GmeI/mqdefault.jpg","viewCount":"875","playlistId":"PLEkQk5xrP-tkSGrPLMt1BEmJ54cGWYgtp","playlistName":"كتابُ بِدَعِ التَفَاسِيرِ - أ.د. يسري جبر","category":"متنوع"},{"id":"tnHKmWpNpUU","title":"قراءة القرآن (من آية ٧ سورة آل عمران)","publishedAt":"2016-06-04T06:50:11Z","duration":"PT16M41S","thumbnail":"https://i.ytimg.com/vi/tnHKmWpNpUU/mqdefault.jpg","viewCount":"874","playlistId":"PLEkQk5xrP-tnmTYsyW6xNdyfhPq0Bhrhj","playlistName":"مقرأة الفجر - القُرْآنُ الكَرِيمُ - خَتْمَةُ التَّدَبُّرِ  أ.د. يسري جبر","category":"متنوع"},{"id":"4ZHK0yVkFoI","title":"مراحل فرضية الصيام (1) | اعرف نبيك في رمضان","publishedAt":"2016-06-15T20:50:57Z","duration":"PT6M","thumbnail":"https://i.ytimg.com/vi/4ZHK0yVkFoI/mqdefault.jpg","viewCount":"874","playlistId":"PLEkQk5xrP-tmhJ_gpAAFyOpEsHp0_VAJ-","playlistName":"برنامج اعرف نبيك في رمضان","category":"متنوع"},{"id":"E1m2qi8HdzU","title":"136- كيفية دفن الميت والفرق بين الشق واللحد - شرح مسند الإمام أحمد رضي الله تعالى عنه","publishedAt":"2024-11-08T06:41:08Z","duration":"PT40M10S","thumbnail":"https://i.ytimg.com/vi/E1m2qi8HdzU/mqdefault.jpg","viewCount":"873","playlistId":"PLEkQk5xrP-tkKprIuGrSdEuBSMsyg5We1","playlistName":"شرح مسند الإمام أحمد بن حنبل","category":"متنوع"},{"id":"D05e7li9Wlg","title":"317- الصَّدقة عن الميت والدُّعاء له - شرح دليل الفالحين","publishedAt":"2022-10-23T09:00:05Z","duration":"PT33M1S","thumbnail":"https://i.ytimg.com/vi/D05e7li9Wlg/mqdefault.jpg","viewCount":"872","playlistId":"PLEkQk5xrP-tkc9DXvSLguqX5-FYp6ASR4","playlistName":"دليل الفالحين لطرق رياض الصالحين","category":"متنوع"},{"id":"b1flEIwMp6s","title":"8- باب فِى التَّيَمُّمِ ك الطهارة ك الموطأ د يسري جبر الأزهري بمضيفة الشيخ سعيد الدح","publishedAt":"2016-04-14T11:51:21Z","duration":"PT47M32S","thumbnail":"https://i.ytimg.com/vi/b1flEIwMp6s/mqdefault.jpg","viewCount":"872","playlistId":"PLEkQk5xrP-tnC6BRuqMjyO-484iqXeg0o","playlistName":"شرح كتاب الموطأ للإمام مالك","category":"متنوع"},{"id":"1-lck3JcIEg","title":"الزهاد إذا مدحواانقبضوا،لشهودهم الثناء من الخلق والعارفون إذا مدحواانبسطوالشهودهم ذلك من الملِك الحق","publishedAt":"2017-03-09T21:18:54Z","duration":"PT10M32S","thumbnail":"https://i.ytimg.com/vi/1-lck3JcIEg/mqdefault.jpg","viewCount":"872","playlistId":"PLEkQk5xrP-tkI_meE148wc7V7XHlB0WPb","playlistName":"من الحكم العطائية  د. يسري جبر","category":"متنوع"},{"id":"QAA1n1HMyxc","title":"برنامج - عصمة الأنبياء - الحلقة الخامسة عشر - شبهات حول نبي الله موسى - @alerthTV","publishedAt":"2019-03-21T13:45:01Z","duration":"PT26M39S","thumbnail":"https://i.ytimg.com/vi/QAA1n1HMyxc/mqdefault.jpg","viewCount":"871","playlistId":"PLEkQk5xrP-tnBp9yUT_R2vtqSPOlcyAZe","playlistName":"برنامج - عصمة الأنبياء","category":"متنوع"},{"id":"hLHHJIhtkz0","title":"452- تحريم الرياء  - شرح دليل الفالحين","publishedAt":"2023-05-22T05:00:20Z","duration":"PT32M1S","thumbnail":"https://i.ytimg.com/vi/hLHHJIhtkz0/mqdefault.jpg","viewCount":"870","playlistId":"PLEkQk5xrP-tkc9DXvSLguqX5-FYp6ASR4","playlistName":"دليل الفالحين لطرق رياض الصالحين","category":"متنوع"},{"id":"Dln6vfh_RSk","title":"18- فضل الوضوء واستيعاب جميع القدم بالماء - كتاب الطهارة","publishedAt":"2023-10-28T07:19:33Z","duration":"PT25M54S","thumbnail":"https://i.ytimg.com/vi/Dln6vfh_RSk/mqdefault.jpg","viewCount":"869","playlistId":"PLEkQk5xrP-tk_MCBZ706ORCw6gFtFyaGj","playlistName":"شرح سنن الإمام الدارقطني","category":"متنوع"},{"id":"eNzJtu0jJLs","title":"مقرأة سورة النور من آية ٣٥","publishedAt":"2018-03-17T13:05:36Z","duration":"PT17M42S","thumbnail":"https://i.ytimg.com/vi/eNzJtu0jJLs/mqdefault.jpg","viewCount":"868","playlistId":"PLEkQk5xrP-tnmTYsyW6xNdyfhPq0Bhrhj","playlistName":"مقرأة الفجر - القُرْآنُ الكَرِيمُ - خَتْمَةُ التَّدَبُّرِ  أ.د. يسري جبر","category":"متنوع"},{"id":"dhdbOJeYsTI","title":"برنامج - عصمة الأنبياء - الحلقة العشرون -شبهات حول نبي الله موسى (4)- @alerthTV","publishedAt":"2019-04-07T17:02:21Z","duration":"PT26M4S","thumbnail":"https://i.ytimg.com/vi/dhdbOJeYsTI/mqdefault.jpg","viewCount":"867","playlistId":"PLEkQk5xrP-tnBp9yUT_R2vtqSPOlcyAZe","playlistName":"برنامج - عصمة الأنبياء","category":"متنوع"},{"id":"fmJrLpj0u4A","title":"( 121 ) حديث لا تصدقوا أهل الكتاب المجلس الثاني - د. يسري جبر","publishedAt":"2017-06-02T07:47:31Z","duration":"PT31M33S","thumbnail":"https://i.ytimg.com/vi/fmJrLpj0u4A/mqdefault.jpg","viewCount":"867","playlistId":"PLEkQk5xrP-tnl7vb7KeAoPd5ZlqKKW8KV","playlistName":"شرح كتاب بهجة النفوس أ.د . يسرى جبر","category":"متنوع"},{"id":"f3wuMIbUItQ","title":"برنامج - عصمة الأنبياء - الحلقة السابعة عشر - شبهات حول نبي الله موسى (2) - @alerthTV","publishedAt":"2019-03-16T17:14:47Z","duration":"PT27M21S","thumbnail":"https://i.ytimg.com/vi/f3wuMIbUItQ/mqdefault.jpg","viewCount":"866","playlistId":"PLEkQk5xrP-tnBp9yUT_R2vtqSPOlcyAZe","playlistName":"برنامج - عصمة الأنبياء","category":"متنوع"}],"total":4126,"page":99,"pageSize":24,"totalPages":172}