{"items":[{"id":"IbsKXdWdd9Q","title":"180- رؤية النبي ﷺ في المنام - شرح مسند الإمام أحمد رضي الله تعالى عنه","publishedAt":"2025-11-05T05:36:34Z","duration":"PT26M4S","thumbnail":"https://i.ytimg.com/vi/IbsKXdWdd9Q/mqdefault.jpg","viewCount":"1652","playlistId":"PLEkQk5xrP-tkKprIuGrSdEuBSMsyg5We1","playlistName":"شرح مسند الإمام أحمد بن حنبل","category":"متنوع"},{"id":"ziMc7KdSBLA","title":"55-“الكَيِّسُ مَن دان نفسَه وعمِل لما بعدَ الموتِ ...”الحديث(7) باب المراقبة - شرح دليل الفالحين","publishedAt":"2021-05-08T05:53:48Z","duration":"PT16M50S","thumbnail":"https://i.ytimg.com/vi/ziMc7KdSBLA/mqdefault.jpg","viewCount":"1650","playlistId":"PLEkQk5xrP-tkc9DXvSLguqX5-FYp6ASR4","playlistName":"دليل الفالحين لطرق رياض الصالحين","category":"متنوع"},{"id":"BwHjmGGVhbc","title":"أمرك في هذه الدار بالنظر في مُكَوَّنَاته وسيكشف لك في تلك الدار عن كمال ذاته.","publishedAt":"2017-01-13T16:20:24Z","duration":"PT5M48S","thumbnail":"https://i.ytimg.com/vi/BwHjmGGVhbc/mqdefault.jpg","viewCount":"1649","playlistId":"PLEkQk5xrP-tkI_meE148wc7V7XHlB0WPb","playlistName":"من الحكم العطائية  د. يسري جبر","category":"متنوع"},{"id":"s2NVfWbgmJ4","title":"45- هل يجوز الخروج عن الإجماع؟ | شرح مختصر الفتوحات المكية","publishedAt":"2025-06-30T18:30:36Z","duration":"PT48M54S","thumbnail":"https://i.ytimg.com/vi/s2NVfWbgmJ4/mqdefault.jpg","viewCount":"1646","playlistId":"PLEkQk5xrP-tnpkdZki6rPTtMak1bnI5g-","playlistName":"شرح كتاب مختصر الفتوحات المكية المسمى لواقح الأنوار القدسية","category":"متنوع"},{"id":"QWdIKxTW6Bs","title":"184- \"الله أرْحَمُ بعِبَادِهِ مِن هذِه بوَلَدِهَا\" - شرح دليل الفالحين","publishedAt":"2022-01-13T07:48:03Z","duration":"PT39M1S","thumbnail":"https://i.ytimg.com/vi/QWdIKxTW6Bs/mqdefault.jpg","viewCount":"1646","playlistId":"PLEkQk5xrP-tkc9DXvSLguqX5-FYp6ASR4","playlistName":"دليل الفالحين لطرق رياض الصالحين","category":"متنوع"},{"id":"P6xYfPpYZmw","title":"النَّبيُّ الجامعُ ﷺ","publishedAt":"2020-10-10T19:21:48Z","duration":"PT8M31S","thumbnail":"https://i.ytimg.com/vi/P6xYfPpYZmw/mqdefault.jpg","viewCount":"1646","playlistId":"PLEkQk5xrP-tm8ZIu74nTOZN9KJUJu416J","playlistName":"مقاطع مُهمَّة (يُسريَّات) أ.د. يسري جبر","category":"متنوع"},{"id":"yb6IFXoHLeE","title":"يا إمام الرسل يا سندى","publishedAt":"2014-11-01T20:32:55Z","duration":"PT4M56S","thumbnail":"https://i.ytimg.com/vi/yb6IFXoHLeE/mqdefault.jpg","viewCount":"1645","playlistId":"PLEkQk5xrP-tlB8lmbwjAKR8KRgiykGKhb","playlistName":"حضرات يسرية ومدائح نبوية","category":"متنوع"},{"id":"tAHfGIRCxCA","title":"407- سبق المُفَرِّدون قالوا وما المُفَرِّدون يا رسولَ الله قال الذَّاكرون اللهَ كثيرًا والذَّاكرات.","publishedAt":"2023-03-05T05:00:19Z","duration":"PT32M3S","thumbnail":"https://i.ytimg.com/vi/tAHfGIRCxCA/mqdefault.jpg","viewCount":"1644","playlistId":"PLEkQk5xrP-tkc9DXvSLguqX5-FYp6ASR4","playlistName":"دليل الفالحين لطرق رياض الصالحين","category":"متنوع"},{"id":"ajeUdxt6bFM","title":"207- \"…خَرَجَ رَسولُ الله ﷺ منَ  الدُّنْيا ولَمْ يَشْبَعْ من خُبْزِ الشَّعِير\" شرح دليل الفالحين","publishedAt":"2022-02-23T20:41:41Z","duration":"PT32M36S","thumbnail":"https://i.ytimg.com/vi/ajeUdxt6bFM/mqdefault.jpg","viewCount":"1644","playlistId":"PLEkQk5xrP-tkc9DXvSLguqX5-FYp6ASR4","playlistName":"دليل الفالحين لطرق رياض الصالحين","category":"متنوع"},{"id":"hMtLsl09v-o","title":"هل يجب الصلاة على المبتدع والعاصي؟","publishedAt":"2021-03-19T19:56:20Z","duration":"PT10M55S","thumbnail":"https://i.ytimg.com/vi/hMtLsl09v-o/mqdefault.jpg","viewCount":"1642","playlistId":"PLEkQk5xrP-tnAJa3yfebXD7wNC_ECfZNt","playlistName":"كتاب النفحة الذكية في أن الهجر بدعة شركية","category":"متنوع"},{"id":"bNs5JAakqQY","title":"الأنبياء لا يورثون | اعرف نبيك","publishedAt":"2015-11-19T17:05:08Z","duration":"PT5M58S","thumbnail":"https://i.ytimg.com/vi/bNs5JAakqQY/mqdefault.jpg","viewCount":"1636","playlistId":"PLEkQk5xrP-tl6Mu_Mz3QMUSv5T6XBH-Dg","playlistName":"برنامج اعرف نبيك","category":"متنوع"},{"id":"_k535ZGB_kk","title":"179- لا تسأل الناس شيئا ولو يسيرا - شرح مسند الإمام أحمد رضي الله تعالى عنه","publishedAt":"2025-11-03T05:30:15Z","duration":"PT26M52S","thumbnail":"https://i.ytimg.com/vi/_k535ZGB_kk/mqdefault.jpg","viewCount":"1636","playlistId":"PLEkQk5xrP-tkKprIuGrSdEuBSMsyg5We1","playlistName":"شرح مسند الإمام أحمد بن حنبل","category":"متنوع"},{"id":"bM02sBArJwA","title":"73- \"… سُبْحَانَكَ رَبَّنَا وبِحَمْدِكَ، اللهمَّ اغْفِرْ لِي\" - شرح دليل الفالحين","publishedAt":"2021-06-04T05:31:31Z","duration":"PT23M16S","thumbnail":"https://i.ytimg.com/vi/bM02sBArJwA/mqdefault.jpg","viewCount":"1633","playlistId":"PLEkQk5xrP-tkc9DXvSLguqX5-FYp6ASR4","playlistName":"دليل الفالحين لطرق رياض الصالحين","category":"متنوع"},{"id":"0PfOAKwaAYo","title":"198- إنَّ الأكثرين هُمُ الأَقَلُّونَ يومَ القيامة إلّا مَن قال هكذا وهكذا وهكذا… - شرح دليل الفالحين","publishedAt":"2022-02-09T22:25:21Z","duration":"PT30M38S","thumbnail":"https://i.ytimg.com/vi/0PfOAKwaAYo/mqdefault.jpg","viewCount":"1633","playlistId":"PLEkQk5xrP-tkc9DXvSLguqX5-FYp6ASR4","playlistName":"دليل الفالحين لطرق رياض الصالحين","category":"متنوع"},{"id":"3ldxdXs_d1o","title":"من سنن النبيﷺ في النظافة | أ.د. يسري جبر","publishedAt":"2021-05-11T17:00:02Z","duration":"PT31M12S","thumbnail":"https://i.ytimg.com/vi/3ldxdXs_d1o/mqdefault.jpg","viewCount":"1632","playlistId":"PLEkQk5xrP-tnl7vb7KeAoPd5ZlqKKW8KV","playlistName":"شرح كتاب بهجة النفوس أ.د . يسرى جبر","category":"متنوع"},{"id":"qMpT7hziZoY","title":"مجموعة صلوات مختارة على النبي صلى الله عليه وآله وسلم  د. يسري جبر","publishedAt":"2018-08-27T20:03:03Z","duration":"PT9M48S","thumbnail":"https://i.ytimg.com/vi/qMpT7hziZoY/mqdefault.jpg","viewCount":"1631","playlistId":"PLEkQk5xrP-tk3OeVFoMfKhOhyINnlPeYZ","playlistName":"الحَضْرَةُ الصِّدِّيقِيَّة والأوْرَاد","category":"متنوع"},{"id":"23ZGzo3sN-g","title":"مساعدة الرجل لزوجته | أ.د. يسري جبر","publishedAt":"2021-05-08T16:00:02Z","duration":"PT25M46S","thumbnail":"https://i.ytimg.com/vi/23ZGzo3sN-g/mqdefault.jpg","viewCount":"1630","playlistId":"PLEkQk5xrP-tnl7vb7KeAoPd5ZlqKKW8KV","playlistName":"شرح كتاب بهجة النفوس أ.د . يسرى جبر","category":"متنوع"},{"id":"OTAm7FrAOrk","title":"352- فضل صلاة الضحى وبيان أقلها وأكثرها وأوسطها والحث على المحافظة عليها - شرح دليل الفالحين","publishedAt":"2022-12-05T09:00:18Z","duration":"PT40M58S","thumbnail":"https://i.ytimg.com/vi/OTAm7FrAOrk/mqdefault.jpg","viewCount":"1628","playlistId":"PLEkQk5xrP-tkc9DXvSLguqX5-FYp6ASR4","playlistName":"دليل الفالحين لطرق رياض الصالحين","category":"متنوع"},{"id":"-Lvb-_Hb81M","title":"172- إجراءُ أحكام الناس على الظاهر وسرائرهم إلى الله تعالى - شرح دليل الفالحين","publishedAt":"2021-12-23T07:09:28Z","duration":"PT42M44S","thumbnail":"https://i.ytimg.com/vi/-Lvb-_Hb81M/mqdefault.jpg","viewCount":"1628","playlistId":"PLEkQk5xrP-tkc9DXvSLguqX5-FYp6ASR4","playlistName":"دليل الفالحين لطرق رياض الصالحين","category":"متنوع"},{"id":"Dd9XqIRSybE","title":"3- النَّوْمِ عَنِ الصَّلاَةِ ك وقوت الصلاة ك الموطأ د- يسري جبر الأزهري","publishedAt":"2016-03-30T11:21:23Z","duration":"PT19M51S","thumbnail":"https://i.ytimg.com/vi/Dd9XqIRSybE/mqdefault.jpg","viewCount":"1625","playlistId":"PLEkQk5xrP-tnC6BRuqMjyO-484iqXeg0o","playlistName":"شرح كتاب الموطأ للإمام مالك","category":"متنوع"},{"id":"eorN97_foIs","title":"برنامج - عصمة الأنبياء - الحلقة التاسعة - سيدنا إبراهيم : شبهة ( استغفاره لأبيه ) - @alerthTV","publishedAt":"2016-05-18T11:19:16Z","duration":"PT23M38S","thumbnail":"https://i.ytimg.com/vi/eorN97_foIs/mqdefault.jpg","viewCount":"1620","playlistId":"PLEkQk5xrP-tnBp9yUT_R2vtqSPOlcyAZe","playlistName":"برنامج - عصمة الأنبياء","category":"متنوع"},{"id":"gnvcVzXicrc","title":"174- الخوف - شرح دليل الفالحين","publishedAt":"2021-12-25T20:15:13Z","duration":"PT50M40S","thumbnail":"https://i.ytimg.com/vi/gnvcVzXicrc/mqdefault.jpg","viewCount":"1618","playlistId":"PLEkQk5xrP-tkc9DXvSLguqX5-FYp6ASR4","playlistName":"دليل الفالحين لطرق رياض الصالحين","category":"متنوع"},{"id":"MwKFESYF3GU","title":"فرح المؤمن عند لقاء ربه | مجالس رمضانية","publishedAt":"2023-04-13T15:00:12Z","duration":"PT27M45S","thumbnail":"https://i.ytimg.com/vi/MwKFESYF3GU/mqdefault.jpg","viewCount":"1617","playlistId":"PLEkQk5xrP-tnl7vb7KeAoPd5ZlqKKW8KV","playlistName":"شرح كتاب بهجة النفوس أ.د . يسرى جبر","category":"متنوع"},{"id":"H1MX-NYG64Y","title":"4- النَّهْىِ عَنِ الصَّلاَةِ بِالْهَاجِرَةِ ك وقوت الصلاة ك الموطأ د- يسري جبرالأزهري بمضيفة الدح","publishedAt":"2016-03-31T22:40:50Z","duration":"PT46M56S","thumbnail":"https://i.ytimg.com/vi/H1MX-NYG64Y/mqdefault.jpg","viewCount":"1614","playlistId":"PLEkQk5xrP-tnC6BRuqMjyO-484iqXeg0o","playlistName":"شرح كتاب الموطأ للإمام مالك","category":"متنوع"}],"total":4126,"page":73,"pageSize":24,"totalPages":172}