{"items":[{"id":"BL5KYx-Pstg","title":"202- لو كانت الدُّنيا تعدلُ عند الله جناحَ بعوضةٍ ما سقى كافرًا منها شرْبةَ ماء - شرح دليل الفالحين","publishedAt":"2022-02-15T07:01:57Z","duration":"PT41M11S","thumbnail":"https://i.ytimg.com/vi/BL5KYx-Pstg/mqdefault.jpg","viewCount":"1740","playlistId":"PLEkQk5xrP-tkc9DXvSLguqX5-FYp6ASR4","playlistName":"دليل الفالحين لطرق رياض الصالحين","category":"متنوع"},{"id":"IniGToUyha8","title":"420- كرامات الأولياء وفضلهم - شرح دليل الفالحين","publishedAt":"2023-03-31T05:00:07Z","duration":"PT31M25S","thumbnail":"https://i.ytimg.com/vi/IniGToUyha8/mqdefault.jpg","viewCount":"1740","playlistId":"PLEkQk5xrP-tkc9DXvSLguqX5-FYp6ASR4","playlistName":"دليل الفالحين لطرق رياض الصالحين","category":"متنوع"},{"id":"u_h6yoe-Q8U","title":"لماذا خلقنا الله ولماذا أمرنا بعبادته؟","publishedAt":"2025-11-04T21:00:58Z","duration":"PT26M17S","thumbnail":"https://i.ytimg.com/vi/u_h6yoe-Q8U/mqdefault.jpg","viewCount":"1731","playlistId":"PLEkQk5xrP-tm8ZIu74nTOZN9KJUJu416J","playlistName":"مقاطع مُهمَّة (يُسريَّات) أ.د. يسري جبر","category":"متنوع"},{"id":"GYsXFRn5Gg0","title":"3- ما جاء في خُبْزِ رسُول الله ﷺ - قراءة كتاب الشمائل المحمَّديَّة للإمام الترمذيّ رضي الله عنه","publishedAt":"2021-02-19T07:49:46Z","duration":"PT32M3S","thumbnail":"https://i.ytimg.com/vi/GYsXFRn5Gg0/mqdefault.jpg","viewCount":"1724","playlistId":"PLEkQk5xrP-tkCtkJ_fVpP3CmkJhWYYZtt","playlistName":"قراءةُ كتابِ الشَّمَائِلِ المُحَمَّدِيَّة للإِمام التِّرمذيّ رضي الله عن","category":"متنوع"},{"id":"6e3akMZ5kXM","title":"96- نبذة عن سيدنا عبد الله بن عباس رضي اللهُ تعالى عنهما - شرح مسند الإمام أحمد رضي الله تعالى عنه","publishedAt":"2024-04-21T06:00:02Z","duration":"PT36M55S","thumbnail":"https://i.ytimg.com/vi/6e3akMZ5kXM/mqdefault.jpg","viewCount":"1721","playlistId":"PLEkQk5xrP-tkKprIuGrSdEuBSMsyg5We1","playlistName":"شرح مسند الإمام أحمد بن حنبل","category":"متنوع"},{"id":"0azIKLnrWSU","title":"14- حكم السمر بعد العشاء لأمر هام | ما الحكمة من تقبيل الحجر الأسود؟","publishedAt":"2023-08-11T05:11:51Z","duration":"PT38M47S","thumbnail":"https://i.ytimg.com/vi/0azIKLnrWSU/mqdefault.jpg","viewCount":"1719","playlistId":"PLEkQk5xrP-tkKprIuGrSdEuBSMsyg5We1","playlistName":"شرح مسند الإمام أحمد بن حنبل","category":"متنوع"},{"id":"FDDEAbszbhI","title":"6- صِفةُ نوم رسول الله ﷺ - قراءة كتاب الشمائل المحمَّديَّة للإمام الترمذيّ رضي الله عنه","publishedAt":"2021-02-28T08:23:21Z","duration":"PT44M41S","thumbnail":"https://i.ytimg.com/vi/FDDEAbszbhI/mqdefault.jpg","viewCount":"1716","playlistId":"PLEkQk5xrP-tkCtkJ_fVpP3CmkJhWYYZtt","playlistName":"قراءةُ كتابِ الشَّمَائِلِ المُحَمَّدِيَّة للإِمام التِّرمذيّ رضي الله عن","category":"متنوع"},{"id":"gR_T3WwL7Xk","title":"الأنانية وحب الذات - د. يسري جبر","publishedAt":"2016-04-30T01:37:32Z","duration":"PT40M53S","thumbnail":"https://i.ytimg.com/vi/gR_T3WwL7Xk/mqdefault.jpg","viewCount":"1716","playlistId":"PLEkQk5xrP-tmJzNvLntpzW0uPanPzxA0c","playlistName":"لقاءات ومحاضرات","category":"متنوع"},{"id":"4bF2TSaCJNk","title":"91- بابٌ في النَّهْي عن البِدَعِ ومُحْدَثَاتِ الأُمُور - شرح دليل الفالحين","publishedAt":"2021-07-06T05:37:39Z","duration":"PT34M17S","thumbnail":"https://i.ytimg.com/vi/4bF2TSaCJNk/mqdefault.jpg","viewCount":"1715","playlistId":"PLEkQk5xrP-tkc9DXvSLguqX5-FYp6ASR4","playlistName":"دليل الفالحين لطرق رياض الصالحين","category":"متنوع"},{"id":"jbDE57q0nvw","title":"حقُّ الحياء","publishedAt":"2020-07-09T19:52:53Z","duration":"PT5M35S","thumbnail":"https://i.ytimg.com/vi/jbDE57q0nvw/mqdefault.jpg","viewCount":"1713","playlistId":"PLEkQk5xrP-tm8ZIu74nTOZN9KJUJu416J","playlistName":"مقاطع مُهمَّة (يُسريَّات) أ.د. يسري جبر","category":"متنوع"},{"id":"_p7ynQ7XlM4","title":"116-\"المسلم أخو المسلم، لا يخونه، ولا يكذبه، ولا يخذله، كل المسلم على المسلم حرام…\"شرح دليل الفالحين","publishedAt":"2021-08-23T05:55:42Z","duration":"PT53M8S","thumbnail":"https://i.ytimg.com/vi/_p7ynQ7XlM4/mqdefault.jpg","viewCount":"1713","playlistId":"PLEkQk5xrP-tkc9DXvSLguqX5-FYp6ASR4","playlistName":"دليل الفالحين لطرق رياض الصالحين","category":"متنوع"},{"id":"YWi9EJdROWU","title":"سُورة البقرة آية 67","publishedAt":"2016-04-22T20:22:40Z","duration":"PT25M8S","thumbnail":"https://i.ytimg.com/vi/YWi9EJdROWU/mqdefault.jpg","viewCount":"1709","playlistId":"PLEkQk5xrP-tnmTYsyW6xNdyfhPq0Bhrhj","playlistName":"مقرأة الفجر - القُرْآنُ الكَرِيمُ - خَتْمَةُ التَّدَبُّرِ  أ.د. يسري جبر","category":"متنوع"},{"id":"rEPdGBI_7A4","title":"عقوبة الغدر والخيانة | مجالس رمضانية","publishedAt":"2023-03-31T15:00:41Z","duration":"PT39M27S","thumbnail":"https://i.ytimg.com/vi/rEPdGBI_7A4/mqdefault.jpg","viewCount":"1706","playlistId":"PLEkQk5xrP-tnl7vb7KeAoPd5ZlqKKW8KV","playlistName":"شرح كتاب بهجة النفوس أ.د . يسرى جبر","category":"متنوع"},{"id":"KFU0kQzKB2k","title":"لولا جميلُ ستره ، لم يكن عملٌ أهلا للقبول","publishedAt":"2016-10-20T18:05:14Z","duration":"PT12M39S","thumbnail":"https://i.ytimg.com/vi/KFU0kQzKB2k/mqdefault.jpg","viewCount":"1704","playlistId":"PLEkQk5xrP-tkI_meE148wc7V7XHlB0WPb","playlistName":"من الحكم العطائية  د. يسري جبر","category":"متنوع"},{"id":"6R2zuV0fBW8","title":"256- إنَّ الله كتبَ الإحْسَانَ على كلِّ شيءٍ - شرح دليل الفالحين","publishedAt":"2022-05-28T19:15:00Z","duration":"PT41M47S","thumbnail":"https://i.ytimg.com/vi/6R2zuV0fBW8/mqdefault.jpg","viewCount":"1704","playlistId":"PLEkQk5xrP-tkc9DXvSLguqX5-FYp6ASR4","playlistName":"دليل الفالحين لطرق رياض الصالحين","category":"متنوع"},{"id":"dBkzbNYqqIE","title":"فتنة الأهل والمال وكفارتها","publishedAt":"2014-05-04T06:03:46Z","duration":"PT35M57S","thumbnail":"https://i.ytimg.com/vi/dBkzbNYqqIE/mqdefault.jpg","viewCount":"1699","playlistId":"PLEkQk5xrP-tm8ZIu74nTOZN9KJUJu416J","playlistName":"مقاطع مُهمَّة (يُسريَّات) أ.د. يسري جبر","category":"متنوع"},{"id":"BtF-RJicc28","title":"كلمة أ.د. يسري جبر في مولد مولانا الإمام الحسين رضي الله عنه وعليه السلام.","publishedAt":"2019-01-24T17:38:12Z","duration":"PT43M","thumbnail":"https://i.ytimg.com/vi/BtF-RJicc28/mqdefault.jpg","viewCount":"1696","playlistId":"PLEkQk5xrP-tm8ZIu74nTOZN9KJUJu416J","playlistName":"مقاطع مُهمَّة (يُسريَّات) أ.د. يسري جبر","category":"متنوع"},{"id":"iEJWoGoUe2I","title":"111- “مَن اسْتَعْمَلْنَاهُ منكُمْ علَى عَمَل، فَكَتَمَنَا مِخْيَطاً فَمَا فوقهُ…”- شرح دليل الفالحين","publishedAt":"2021-08-12T19:51:23Z","duration":"PT46M40S","thumbnail":"https://i.ytimg.com/vi/iEJWoGoUe2I/mqdefault.jpg","viewCount":"1695","playlistId":"PLEkQk5xrP-tkc9DXvSLguqX5-FYp6ASR4","playlistName":"دليل الفالحين لطرق رياض الصالحين","category":"متنوع"},{"id":"rdh1PafqiQ4","title":"كلمة الدكتور حسين عبد المجيد","publishedAt":"2018-09-30T15:25:03Z","duration":"PT3M20S","thumbnail":"https://i.ytimg.com/vi/rdh1PafqiQ4/mqdefault.jpg","viewCount":"1695","playlistId":"PLEkQk5xrP-tnzc5Igd5ZE8_G2H6afJ4L5","playlistName":"مجالس رحلة سيدي أبي الحسن الشاذلي رضي الله تعالى عنه.","category":"متنوع"},{"id":"xJBxtAA3cTU","title":"57-\"إنَّ الدُّنيا حُلْوَةٌ خَضِرةٌ، وإنَّ اللَّهَ مُسْتَخلِفُكم فيها…\"باب التقوى - شرح دليل الفالحين","publishedAt":"2021-05-12T05:09:10Z","duration":"PT25M51S","thumbnail":"https://i.ytimg.com/vi/xJBxtAA3cTU/mqdefault.jpg","viewCount":"1694","playlistId":"PLEkQk5xrP-tkc9DXvSLguqX5-FYp6ASR4","playlistName":"دليل الفالحين لطرق رياض الصالحين","category":"متنوع"},{"id":"ggVGv9o53EU","title":"24- إذا اشتريتَ فاكْتلْ وإذا بعتَ فكِلْ| دعاء الحفظ من الضُّرّ - شرح مسند الإمام أحمد","publishedAt":"2023-10-02T05:27:31Z","duration":"PT44M5S","thumbnail":"https://i.ytimg.com/vi/ggVGv9o53EU/mqdefault.jpg","viewCount":"1691","playlistId":"PLEkQk5xrP-tkKprIuGrSdEuBSMsyg5We1","playlistName":"شرح مسند الإمام أحمد بن حنبل","category":"متنوع"},{"id":"c-oIPf0_vn0","title":"برنامج - عصمة الأنبياء - الحلقة الحادية عشر - شبهات حول سيدنا يعقوب وأبنائه -  @alerthTV","publishedAt":"2016-05-21T11:15:05Z","duration":"PT24M9S","thumbnail":"https://i.ytimg.com/vi/c-oIPf0_vn0/mqdefault.jpg","viewCount":"1691","playlistId":"PLEkQk5xrP-tnBp9yUT_R2vtqSPOlcyAZe","playlistName":"برنامج - عصمة الأنبياء","category":"متنوع"},{"id":"BoFyOZODmT4","title":"38- هل البكاء ضد الصَّبر؟ من بابُ الصَّبر: الحديثُ الخامس - شرح دليل الفالحين","publishedAt":"2021-04-01T05:50:08Z","duration":"PT35M33S","thumbnail":"https://i.ytimg.com/vi/BoFyOZODmT4/mqdefault.jpg","viewCount":"1690","playlistId":"PLEkQk5xrP-tkc9DXvSLguqX5-FYp6ASR4","playlistName":"دليل الفالحين لطرق رياض الصالحين","category":"متنوع"},{"id":"xEawa2h8jhM","title":"استشرافك أن يعلم الخلق بخصوصيتك، دليلٌ على عدم صدقك في عبوديتك.","publishedAt":"2017-04-25T09:37:54Z","duration":"PT7M13S","thumbnail":"https://i.ytimg.com/vi/xEawa2h8jhM/mqdefault.jpg","viewCount":"1689","playlistId":"PLEkQk5xrP-tkI_meE148wc7V7XHlB0WPb","playlistName":"من الحكم العطائية  د. يسري جبر","category":"متنوع"}],"total":4126,"page":71,"pageSize":24,"totalPages":172}