{"items":[{"id":"klrmD8BaOvs","title":"ÙˆÙØ³ÙØ¹ÙƒÙ Ø§Ù„ÙƒÙˆÙ†Ù Ù…Ù† Ø­ÙŠØ«Ù Ø¬Ø³Ù…Ø§Ù†ÙŠÙ‘ÙØªÙÙƒØŒ ÙˆÙ„Ù… ÙŠØ³Ø¹Ù’ÙƒÙ Ù…Ù† Ø­ÙŠØ«Ù Ø±ÙÙˆØ­ÙØ§Ù†ÙŠÙ‘ÙØªÙÙƒ.","publishedAt":"2018-01-23T16:32:16Z","duration":"PT10M30S","thumbnail":"https://i.ytimg.com/vi/klrmD8BaOvs/mqdefault.jpg","viewCount":"4516","playlistId":"PLEkQk5xrP-tkI_meE148wc7V7XHlB0WPb","playlistName":"Ù…Ù† Ø§Ù„Ø­ÙƒÙ… Ø§Ù„Ø¹Ø·Ø§Ø¦ÙŠØ©  Ø¯. ÙŠØ³Ø±ÙŠ Ø¬Ø¨Ø±","category":"Ù…ØªÙ†ÙˆØ¹"},{"id":"zlbLpJdzNz4","title":"Ø´Ø±Ø­ Ø§Ù„Ù‚ØµÙŠØ¯Ø© Ø§Ù„Ù…Ù†ÙØ±Ø¬Ø© Ù„Ø§Ø¨Ù† Ø§Ù„Ù†Ø­ÙˆÙŠ Ø±Ø¶Ù‰ Ø§Ù„Ù„Ù‡ Ø¹Ù†Ù‡  - Ø§Ù„Ù…Ø¬Ù„Ø³ Ø§Ù„Ø«Ø§Ù„Ø« - Ø¯. ÙŠØ³Ø±ÙŠ Ø¬Ø¨Ø±","publishedAt":"2015-07-11T10:30:11Z","duration":"PT50M19S","thumbnail":"https://i.ytimg.com/vi/zlbLpJdzNz4/mqdefault.jpg","viewCount":"4511","playlistId":"PLEkQk5xrP-tna48sTO8GZ77fBCf3PgzNc","playlistName":"Ø´Ø±Ø­ Ø§Ù„Ù‚ØµÙŠØ¯Ø© Ø§Ù„Ù…Ù†ÙØ±Ø¬Ø© Ù„Ø§Ø¨Ù† Ø§Ù„Ù†Ø­ÙˆÙŠ - Ø¯. ÙŠØ³Ø±ÙŠ Ø¬Ø¨Ø±","category":"Ù…ØªÙ†ÙˆØ¹"},{"id":"9otLnR0igz8","title":"Ø¨Ø¯Ø¹ Ø§Ù„ØªÙØ§Ø³ÙŠØ± ÙÙŠ Ø³ÙˆØ±Ø© ÙŠØ³ Ùˆ Øµ","publishedAt":"2022-09-16T18:00:05Z","duration":"PT10M18S","thumbnail":"https://i.ytimg.com/vi/9otLnR0igz8/mqdefault.jpg","viewCount":"4510","playlistId":"PLEkQk5xrP-tkSGrPLMt1BEmJ54cGWYgtp","playlistName":"ÙƒØªØ§Ø¨Ù Ø¨ÙØ¯ÙØ¹Ù Ø§Ù„ØªÙÙÙØ§Ø³ÙÙŠØ±Ù - Ø£.Ø¯. ÙŠØ³Ø±ÙŠ Ø¬Ø¨Ø±","category":"Ù…ØªÙ†ÙˆØ¹"},{"id":"r7B3o6yqND0","title":"Ø§Ù„ÙÙØªÙˆÙ‘Ø©","publishedAt":"2021-11-01T04:24:42Z","duration":"PT7M33S","thumbnail":"https://i.ytimg.com/vi/r7B3o6yqND0/mqdefault.jpg","viewCount":"4507","playlistId":"PLEkQk5xrP-tm8ZIu74nTOZN9KJUJu416J","playlistName":"Ù…Ù‚Ø§Ø·Ø¹ Ù…ÙÙ‡Ù…ÙÙ‘Ø© (ÙŠÙØ³Ø±ÙŠÙ‘ÙØ§Øª) Ø£.Ø¯. ÙŠØ³Ø±ÙŠ Ø¬Ø¨Ø±","category":"Ù…ØªÙ†ÙˆØ¹"},{"id":"17vS4zlF6bY","title":"9- ÙƒÙŠÙ ØªÙƒÙˆÙ† Ø£Ø¹Ù…Ø§Ù„Ùƒ Ø®Ø§Ù„ÙŠØ© Ù…Ù† Ø±Ø¹ÙˆÙ†Ø§Øª Ø§Ù„Ù†ÙØ³ØŸ | Ø´Ø±Ø­ Ø§Ù„Ø­ÙƒÙ… Ø§Ù„Ø¹Ø·Ø§Ø¦ÙŠØ©","publishedAt":"2024-12-12T17:09:51Z","duration":"PT43M22S","thumbnail":"https://i.ytimg.com/vi/17vS4zlF6bY/mqdefault.jpg","viewCount":"4493","playlistId":"PLEkQk5xrP-tmf5ToOwmW-q0JwxkapbrMN","playlistName":"Ø´Ø±Ø­ ÙƒØªØ§Ø¨ Ø¥Ø±Ø´Ø§Ø¯ Ø§Ù„Ø¨Ø±ÙŠØ© Ø¥Ù„Ù‰ Ø¨Ø¹Ø¶ Ù…Ø¹Ø§Ù†ÙŠ Ø§Ù„Ø­ÙƒÙ… Ø§Ù„Ø¹Ø·Ø§Ø¦ÙŠØ©","category":"Ù…ØªÙ†ÙˆØ¹"},{"id":"iWyjc5YeK4g","title":"10- Ù…Ø§ Ù…Ù† Ù†ÙÙÙØ³Ù ØªØ¨Ø¯ÙŠÙ‡ Ø¥Ù„Ø§ ÙˆÙ„Ù‡ Ù‚Ø¯Ø± ÙÙŠÙƒ ÙŠÙ…Ø¶ÙŠÙ‡ | Ø´Ø±Ø­ Ø§Ù„Ø­ÙƒÙ… Ø§Ù„Ø¹Ø·Ø§Ø¦ÙŠØ©","publishedAt":"2024-12-17T17:25:59Z","duration":"PT42M59S","thumbnail":"https://i.ytimg.com/vi/iWyjc5YeK4g/mqdefault.jpg","viewCount":"4491","playlistId":"PLEkQk5xrP-tmf5ToOwmW-q0JwxkapbrMN","playlistName":"Ø´Ø±Ø­ ÙƒØªØ§Ø¨ Ø¥Ø±Ø´Ø§Ø¯ Ø§Ù„Ø¨Ø±ÙŠØ© Ø¥Ù„Ù‰ Ø¨Ø¹Ø¶ Ù…Ø¹Ø§Ù†ÙŠ Ø§Ù„Ø­ÙƒÙ… Ø§Ù„Ø¹Ø·Ø§Ø¦ÙŠØ©","category":"Ù…ØªÙ†ÙˆØ¹"},{"id":"FRurDNaA0tE","title":"ÙƒÙŠÙÙŠØ© Ù‚Ø±Ø§Ø¡Ø© Ø±Ø³ÙˆÙ„ Ø§Ù„Ù„Ù‡ Ù„Ù„Ù‚Ø±Ø¢Ù† | Ø§Ø¹Ø±Ù Ù†Ø¨ÙŠÙƒ","publishedAt":"2015-08-20T16:46:10Z","duration":"PT6M6S","thumbnail":"https://i.ytimg.com/vi/FRurDNaA0tE/mqdefault.jpg","viewCount":"4489","playlistId":"PLEkQk5xrP-tl6Mu_Mz3QMUSv5T6XBH-Dg","playlistName":"Ø¨Ø±Ù†Ø§Ù…Ø¬ Ø§Ø¹Ø±Ù Ù†Ø¨ÙŠÙƒ","category":"Ù…ØªÙ†ÙˆØ¹"},{"id":"9ze0FdI-ofk","title":"ÙƒÙŠÙ ØªÙ†Ø²Ø¹ Ø­Ø¨ Ø§Ù„Ø¯Ù†ÙŠØ§ ÙˆØ§Ù„ØªØ¹Ù„Ù‚ Ø¨Ù‡Ø§ Ù…Ù† Ù‚Ù„Ø¨ÙƒØŸ","publishedAt":"2025-11-03T19:06:35Z","duration":"PT11M26S","thumbnail":"https://i.ytimg.com/vi/9ze0FdI-ofk/mqdefault.jpg","viewCount":"4481","playlistId":"PLEkQk5xrP-tm8ZIu74nTOZN9KJUJu416J","playlistName":"Ù…Ù‚Ø§Ø·Ø¹ Ù…ÙÙ‡Ù…ÙÙ‘Ø© (ÙŠÙØ³Ø±ÙŠÙ‘ÙØ§Øª) Ø£.Ø¯. ÙŠØ³Ø±ÙŠ Ø¬Ø¨Ø±","category":"Ù…ØªÙ†ÙˆØ¹"},{"id":"_Or-T1DpjqE","title":"Ø´Ù‡Ø§Ø¯Ø© Ø§Ù„Ø²ÙˆØ± Ù…Ù† Ø£ÙƒØ¨Ø± Ø§Ù„ÙƒØ¨Ø§Ø¦Ø±| Ø§Ø¹Ø±Ù Ù†Ø¨ÙŠÙƒ","publishedAt":"2015-05-27T15:07:42Z","duration":"PT4M2S","thumbnail":"https://i.ytimg.com/vi/_Or-T1DpjqE/mqdefault.jpg","viewCount":"4477","playlistId":"PLEkQk5xrP-tl6Mu_Mz3QMUSv5T6XBH-Dg","playlistName":"Ø¨Ø±Ù†Ø§Ù…Ø¬ Ø§Ø¹Ø±Ù Ù†Ø¨ÙŠÙƒ","category":"Ù…ØªÙ†ÙˆØ¹"},{"id":"013WOM4gGJw","title":"ÙƒÙŠÙ ØªØ¯Ø±Ùƒ Ù…Ø­Ø§Ø³Ù† Ø§Ù„Ø£Ø®Ù„Ø§Ù‚ - Ø¯. ÙŠØ³Ø±ÙŠ Ø¬Ø¨Ø±","publishedAt":"2014-12-22T13:33:53Z","duration":"PT7M56S","thumbnail":"https://i.ytimg.com/vi/013WOM4gGJw/mqdefault.jpg","viewCount":"4470","playlistId":"PLEkQk5xrP-tm8ZIu74nTOZN9KJUJu416J","playlistName":"Ù…Ù‚Ø§Ø·Ø¹ Ù…ÙÙ‡Ù…ÙÙ‘Ø© (ÙŠÙØ³Ø±ÙŠÙ‘ÙØ§Øª) Ø£.Ø¯. ÙŠØ³Ø±ÙŠ Ø¬Ø¨Ø±","category":"Ù…ØªÙ†ÙˆØ¹"},{"id":"5-HoeEJT9zU","title":"ÙƒÙŠÙ ØªÙƒÙˆÙ† Ø·Ø¨ÙŠØ¹Ø© Ø§Ù„Ø¹Ù„Ø§Ù‚Ø© Ø¨ÙŠÙ† Ø§Ù„Ø´ÙŠØ® ÙˆØ§Ù„Ù…Ø±ÙŠØ¯ØŸ","publishedAt":"2024-07-14T17:40:53Z","duration":"PT8M42S","thumbnail":"https://i.ytimg.com/vi/5-HoeEJT9zU/mqdefault.jpg","viewCount":"4468","playlistId":"PLEkQk5xrP-tkGXuZ9atE3k_7it12rUPTs","playlistName":"Ø£Ø³Ø¦Ù„Ø© Ø§Ù„Ù…ØªØ§Ø¨Ø¹ÙŠÙ†","category":"Ù…ØªÙ†ÙˆØ¹"},{"id":"me1E-5FDq6Y","title":"ÙØ¶Ù„ Ù‚Ø±Ø§Ø¡Ø© Ø³ÙˆØ±Ø© Ø§Ù„ÙƒÙ‡Ù ÙŠÙˆÙ… Ø§Ù„Ø¬Ù…Ø¹Ø©","publishedAt":"2023-03-03T18:00:21Z","duration":"PT44M10S","thumbnail":"https://i.ytimg.com/vi/me1E-5FDq6Y/mqdefault.jpg","viewCount":"4467","playlistId":"PLEkQk5xrP-tm8ZIu74nTOZN9KJUJu416J","playlistName":"Ù…Ù‚Ø§Ø·Ø¹ Ù…ÙÙ‡Ù…ÙÙ‘Ø© (ÙŠÙØ³Ø±ÙŠÙ‘ÙØ§Øª) Ø£.Ø¯. ÙŠØ³Ø±ÙŠ Ø¬Ø¨Ø±","category":"Ù…ØªÙ†ÙˆØ¹"},{"id":"3ZMeX3Gbb88","title":"Ø´Ø±Ø­ Ù…Ù†Ø¸ÙˆÙ…Ø© Ø¹Ù‚ÙŠØ¯Ø© Ø§Ù„Ø¹ÙˆØ§Ù… | Ø¬Ø§ÙƒØ±ØªØ§ - Ø¥Ù†Ø¯ÙˆÙ†ÙŠØ³ÙŠØ§ Ù¡ğŸ“","publishedAt":"2023-02-24T18:00:02Z","duration":"PT1H5M32S","thumbnail":"https://i.ytimg.com/vi/3ZMeX3Gbb88/mqdefault.jpg","viewCount":"4459","playlistId":"PLEkQk5xrP-tm8ZIu74nTOZN9KJUJu416J","playlistName":"Ù…Ù‚Ø§Ø·Ø¹ Ù…ÙÙ‡Ù…ÙÙ‘Ø© (ÙŠÙØ³Ø±ÙŠÙ‘ÙØ§Øª) Ø£.Ø¯. ÙŠØ³Ø±ÙŠ Ø¬Ø¨Ø±","category":"Ù…ØªÙ†ÙˆØ¹"},{"id":"jEMc1lQzJMM","title":"Ù…Ø§Ø°Ø§ ØªÙØ¹Ù„ ÙÙŠ Ø²Ù…Ù† Ø§Ù„ÙØªÙ†Ø©","publishedAt":"2014-09-08T17:14:16Z","duration":"PT17M16S","thumbnail":"https://i.ytimg.com/vi/jEMc1lQzJMM/mqdefault.jpg","viewCount":"4456","playlistId":"PLEkQk5xrP-tm8ZIu74nTOZN9KJUJu416J","playlistName":"Ù…Ù‚Ø§Ø·Ø¹ Ù…ÙÙ‡Ù…ÙÙ‘Ø© (ÙŠÙØ³Ø±ÙŠÙ‘ÙØ§Øª) Ø£.Ø¯. ÙŠØ³Ø±ÙŠ Ø¬Ø¨Ø±","category":"Ù…ØªÙ†ÙˆØ¹"},{"id":"mHCd5M4ULto","title":"Ù„ÙˆÙ„Ø§ Ù…ÙŠØ§Ø¯ÙŠÙ† Ø§Ù„Ù†ÙÙˆØ³ØŒ Ù…Ø§ ØªØ­Ù‚Ù‘ÙÙ‚ Ø³ÙŠØ± Ø§Ù„Ø³Ø§Ø¦Ø±ÙŠÙ†..Ø¥Ø° Ù„Ø§ Ù…Ø³Ø§ÙØ© Ø¨ÙŠÙ†Ùƒ ÙˆØ¨ÙŠÙ†Ù‡ Ø­ØªÙ‰ ØªØ·ÙˆÙŠÙ‡Ø§ Ø±Ø­Ù„ØªÙƒ...","publishedAt":"2018-01-19T12:48:46Z","duration":"PT11M56S","thumbnail":"https://i.ytimg.com/vi/mHCd5M4ULto/mqdefault.jpg","viewCount":"4437","playlistId":"PLEkQk5xrP-tkI_meE148wc7V7XHlB0WPb","playlistName":"Ù…Ù† Ø§Ù„Ø­ÙƒÙ… Ø§Ù„Ø¹Ø·Ø§Ø¦ÙŠØ©  Ø¯. ÙŠØ³Ø±ÙŠ Ø¬Ø¨Ø±","category":"Ù…ØªÙ†ÙˆØ¹"},{"id":"HXk-_L37xhI","title":"ÙˆÙ„Ø§Ø¯ÙŠ Ø±Ø§ÙØ¶ÙŠÙ† Ø²ÙˆØ§Ø¬ÙŠ Ø¨Ø¹Ø¯ Ù…ÙˆØª Ø£Ù…Ù‡Ù… ÙÙ…Ø§Ø°Ø§ Ø£ÙØ¹Ù„ Ù…Ø¹Ù‡Ù…ØŸ","publishedAt":"2025-05-05T19:00:27Z","duration":"PT9M59S","thumbnail":"https://i.ytimg.com/vi/HXk-_L37xhI/mqdefault.jpg","viewCount":"4435","playlistId":"PLEkQk5xrP-tkGXuZ9atE3k_7it12rUPTs","playlistName":"Ø£Ø³Ø¦Ù„Ø© Ø§Ù„Ù…ØªØ§Ø¨Ø¹ÙŠÙ†","category":"Ù…ØªÙ†ÙˆØ¹"},{"id":"khpoOIh5BC4","title":"Ù…Ø¹Ø¬Ø²Ø© Ø¨Ø±ÙƒØ© Ø§Ù„Ù†Ø¨ÙŠ ï·º | Ø£.Ø¯. ÙŠØ³Ø±ÙŠ Ø¬Ø¨Ø±","publishedAt":"2021-04-25T16:00:29Z","duration":"PT29M59S","thumbnail":"https://i.ytimg.com/vi/khpoOIh5BC4/mqdefault.jpg","viewCount":"4430","playlistId":"PLEkQk5xrP-tnl7vb7KeAoPd5ZlqKKW8KV","playlistName":"Ø´Ø±Ø­ ÙƒØªØ§Ø¨ Ø¨Ù‡Ø¬Ø© Ø§Ù„Ù†ÙÙˆØ³ Ø£.Ø¯ . ÙŠØ³Ø±Ù‰ Ø¬Ø¨Ø±","category":"Ù…ØªÙ†ÙˆØ¹"},{"id":"_UHrQz6evBo","title":"Ø§Ù„Ø¹Ø§Ø±ÙÙˆÙ† Ø¥Ø°Ø§ Ø¨ÙØ³ÙØ·ÙˆØ§ ØŒ Ø£Ø®ÙˆÙÙ Ù…Ù†Ù‡Ù… Ø¥Ø°Ø§ Ù‚ÙØ¨ÙØ¶ÙˆØ§ ØŒ ÙˆÙ„Ø§ ÙŠÙ‚Ù Ø¹Ù„Ù‰ Ø­Ø¯ÙˆØ¯ Ø§Ù„Ø£Ø¯Ø¨ ÙÙŠ Ø§Ù„Ø¨Ø³Ø· Ø¥Ù„Ø§ Ù‚Ù„ÙŠÙ„","publishedAt":"2016-11-03T12:28:16Z","duration":"PT14M22S","thumbnail":"https://i.ytimg.com/vi/_UHrQz6evBo/mqdefault.jpg","viewCount":"4415","playlistId":"PLEkQk5xrP-tkI_meE148wc7V7XHlB0WPb","playlistName":"Ù…Ù† Ø§Ù„Ø­ÙƒÙ… Ø§Ù„Ø¹Ø·Ø§Ø¦ÙŠØ©  Ø¯. ÙŠØ³Ø±ÙŠ Ø¬Ø¨Ø±","category":"Ù…ØªÙ†ÙˆØ¹"},{"id":"GTFZOl6TJ3g","title":"Ù‚Ø¨ÙˆÙ„ Ø§Ù„Ø¹Ø¨Ø§Ø¯Ø§Øª | Ù…Ø¬Ø§Ù„Ø³ Ø±Ù…Ø¶Ø§Ù†ÙŠØ©","publishedAt":"2024-04-09T18:00:06Z","duration":"PT41M43S","thumbnail":"https://i.ytimg.com/vi/GTFZOl6TJ3g/mqdefault.jpg","viewCount":"4414","playlistId":"PLEkQk5xrP-tkeI_WVPfuoTJO46aVkpaz0","playlistName":"Ø´Ø±Ø­ ÙƒØªØ§Ø¨ Ù…ÙŠØ²Ø§Ù† Ø§Ù„Ø§Ø¹ØªØ¯Ø§Ù„ Ù„Ø­ÙØ¸ Ø§Ù„Ø¯ÙŠÙ† ÙˆØ§Ù„Ø£Ø­ÙˆØ§Ù„","category":"Ù…ØªÙ†ÙˆØ¹"},{"id":"Sqa5bv7YfuY","title":"Ù…Ø§ Ø­ÙƒÙ… Ù‚Ø±Ø§Ø¡Ø© Ø§Ù„Ù‚Ø±Ø¢Ù† Ø¨Ø¯ÙˆÙ† ØªØ¬ÙˆÙŠØ¯ØŸ","publishedAt":"2024-09-10T18:23:28Z","duration":"PT8M52S","thumbnail":"https://i.ytimg.com/vi/Sqa5bv7YfuY/mqdefault.jpg","viewCount":"4401","playlistId":"PLEkQk5xrP-tkGXuZ9atE3k_7it12rUPTs","playlistName":"Ø£Ø³Ø¦Ù„Ø© Ø§Ù„Ù…ØªØ§Ø¨Ø¹ÙŠÙ†","category":"Ù…ØªÙ†ÙˆØ¹"},{"id":"BDr0PAj_rVo","title":"Ø£Ø­ÙƒØ§Ù… Ø§Ù„Ø±Ø¶Ø§Ø¹Ø©","publishedAt":"2020-11-27T17:50:18Z","duration":"PT9M12S","thumbnail":"https://i.ytimg.com/vi/BDr0PAj_rVo/mqdefault.jpg","viewCount":"4401","playlistId":"PLEkQk5xrP-tm8ZIu74nTOZN9KJUJu416J","playlistName":"Ù…Ù‚Ø§Ø·Ø¹ Ù…ÙÙ‡Ù…ÙÙ‘Ø© (ÙŠÙØ³Ø±ÙŠÙ‘ÙØ§Øª) Ø£.Ø¯. ÙŠØ³Ø±ÙŠ Ø¬Ø¨Ø±","category":"Ù…ØªÙ†ÙˆØ¹"},{"id":"v_xZr2jY9BI","title":"Ø³ÙÙ‚ÙÙˆØ·Ù Ø§Ù„Ù…ÙØ´ÙÙˆØ±ÙØ©Ù Ø¹ÙÙ†Ø¯Ù Ø§Ù„Ø¶ÙØ±ÙÙˆØ±ÙØ©Ù - Ø¯. ÙŠØ³Ø±Ù‰ Ø¬Ø¨Ø±","publishedAt":"2015-07-02T17:20:56Z","duration":"PT3M8S","thumbnail":"https://i.ytimg.com/vi/v_xZr2jY9BI/mqdefault.jpg","viewCount":"4396","playlistId":"PLEkQk5xrP-tm8ZIu74nTOZN9KJUJu416J","playlistName":"Ù…Ù‚Ø§Ø·Ø¹ Ù…ÙÙ‡Ù…ÙÙ‘Ø© (ÙŠÙØ³Ø±ÙŠÙ‘ÙØ§Øª) Ø£.Ø¯. ÙŠØ³Ø±ÙŠ Ø¬Ø¨Ø±","category":"Ù…ØªÙ†ÙˆØ¹"},{"id":"KzLxA6qk_Wg","title":"Ù…Ø§ Ø§Ù„Ø­ÙƒÙ…Ø© Ù…Ù† Ø¥Ø¹Ø·Ø§Ø¡ Ø§Ù„Ù…Ø§Ù„ Ù„Ù„ÙÙ‚Ø±Ø§Ø¡ Ø¨Ø¹Ø¯ Ø§Ù„ØªØ¹Ø¨ ÙÙŠ ØªØ­ØµÙŠÙ„Ù‡ Ù…Ø¹ Ø¹Ø¯Ù… Ø³Ø¹ÙŠ Ø§Ù„ÙÙ‚ÙŠØ± Ù„Ù„Ø¹Ù…Ù„ Ù„ØªØ­ØµÙŠÙ„ Ø§Ù„Ù…Ø§Ù„ØŸ","publishedAt":"2023-01-09T18:00:10Z","duration":"PT8M59S","thumbnail":"https://i.ytimg.com/vi/KzLxA6qk_Wg/mqdefault.jpg","viewCount":"4384","playlistId":"PLEkQk5xrP-tkGXuZ9atE3k_7it12rUPTs","playlistName":"Ø£Ø³Ø¦Ù„Ø© Ø§Ù„Ù…ØªØ§Ø¨Ø¹ÙŠÙ†","category":"Ù…ØªÙ†ÙˆØ¹"},{"id":"XABiNkbidxA","title":"Ù„Ù…Ø§Ø°Ø§ ÙŠØ®ÙÙŠ Ø¨Ø¹Ø¶ Ø§Ù„Ù…Ø´Ø§ÙŠØ® Ø¹Ù‚ÙŠØ¯ØªÙ‡Ù… Ø§Ù„Ø£Ø´Ø¹Ø±ÙŠØ©ØŸ","publishedAt":"2024-07-22T18:35:49Z","duration":"PT8M40S","thumbnail":"https://i.ytimg.com/vi/XABiNkbidxA/mqdefault.jpg","viewCount":"4383","playlistId":"PLEkQk5xrP-tkGXuZ9atE3k_7it12rUPTs","playlistName":"Ø£Ø³Ø¦Ù„Ø© Ø§Ù„Ù…ØªØ§Ø¨Ø¹ÙŠÙ†","category":"Ù…ØªÙ†ÙˆØ¹"}],"total":4126,"page":40,"pageSize":24,"totalPages":172}