{"items":[{"id":"HHWYvGOwKBc","title":"لذة المعارف والترقّي","publishedAt":"2020-12-04T18:05:55Z","duration":"PT4M32S","thumbnail":"https://i.ytimg.com/vi/HHWYvGOwKBc/mqdefault.jpg","viewCount":"5653","playlistId":"PLEkQk5xrP-tm8ZIu74nTOZN9KJUJu416J","playlistName":"مقاطع مُهمَّة (يُسريَّات) أ.د. يسري جبر","category":"متنوع"},{"id":"bydtfcr2Hzc","title":"هل يجوز ابتغاء الوسيلة للتقرب إلى الله؟","publishedAt":"2022-09-18T18:23:29Z","duration":"PT9M36S","thumbnail":"https://i.ytimg.com/vi/bydtfcr2Hzc/mqdefault.jpg","viewCount":"5653","playlistId":"PLEkQk5xrP-tkGXuZ9atE3k_7it12rUPTs","playlistName":"أسئلة المتابعين","category":"متنوع"},{"id":"k4SPJuVTP6Q","title":"17- عقيدةُ العارفينَ بالله","publishedAt":"2022-10-17T07:30:06Z","duration":"PT39M7S","thumbnail":"https://i.ytimg.com/vi/k4SPJuVTP6Q/mqdefault.jpg","viewCount":"5640","playlistId":"PLEkQk5xrP-tmNuYT8JAh6clwa4krsgkNo","playlistName":"شرح كتاب الفُتُوحات اليُسريَّة في عقائد الأُمَّة المُحمَّديَّة","category":"متنوع"},{"id":"alwuaUGFbvA","title":"انتظارُ الفرجِ عبادة","publishedAt":"2020-12-14T18:23:12Z","duration":"PT12M32S","thumbnail":"https://i.ytimg.com/vi/alwuaUGFbvA/mqdefault.jpg","viewCount":"5630","playlistId":"PLEkQk5xrP-tm8ZIu74nTOZN9KJUJu416J","playlistName":"مقاطع مُهمَّة (يُسريَّات) أ.د. يسري جبر","category":"متنوع"},{"id":"rDtAll8Hky8","title":"11-  حقيقةُ النيَّة - شرح حديث\"إِنَّمَا الأَعْمَالُ بِالنِّيَّات، وإِنَّمَا لكُلِّ امْرِئٍ ما نَوَى\"","publishedAt":"2021-01-29T07:01:02Z","duration":"PT37M54S","thumbnail":"https://i.ytimg.com/vi/rDtAll8Hky8/mqdefault.jpg","viewCount":"5627","playlistId":"PLEkQk5xrP-tkc9DXvSLguqX5-FYp6ASR4","playlistName":"دليل الفالحين لطرق رياض الصالحين","category":"متنوع"},{"id":"zLuozWdvBOQ","title":"بِدَعُ التَفَاسِيرِ - مقدمة الكتاب المجلس الأول .  أ.د. يسري جبر","publishedAt":"2019-09-29T16:48:46Z","duration":"PT37M20S","thumbnail":"https://i.ytimg.com/vi/zLuozWdvBOQ/mqdefault.jpg","viewCount":"5611","playlistId":"PLEkQk5xrP-tkSGrPLMt1BEmJ54cGWYgtp","playlistName":"كتابُ بِدَعِ التَفَاسِيرِ - أ.د. يسري جبر","category":"متنوع"},{"id":"keCxWAGj1TE","title":"كيف أتعرف على الله؟","publishedAt":"2022-07-21T18:39:51Z","duration":"PT8M18S","thumbnail":"https://i.ytimg.com/vi/keCxWAGj1TE/mqdefault.jpg","viewCount":"5604","playlistId":"PLEkQk5xrP-tkGXuZ9atE3k_7it12rUPTs","playlistName":"أسئلة المتابعين","category":"متنوع"},{"id":"c0KaIgF_v7Q","title":"243- استحباب العُزْلة عند فساد الزمان - شرح دليل الفالحين","publishedAt":"2022-05-08T20:00:05Z","duration":"PT47M55S","thumbnail":"https://i.ytimg.com/vi/c0KaIgF_v7Q/mqdefault.jpg","viewCount":"5597","playlistId":"PLEkQk5xrP-tkc9DXvSLguqX5-FYp6ASR4","playlistName":"دليل الفالحين لطرق رياض الصالحين","category":"متنوع"},{"id":"jiwuRtfDl9k","title":"أدّبوا أولادكم على ثلاث خصال حبّ نبيّكم وحب آل بيته وتلاوة القرآن - د. يسري جبر","publishedAt":"2014-11-02T18:57:18Z","duration":"PT19M21S","thumbnail":"https://i.ytimg.com/vi/jiwuRtfDl9k/mqdefault.jpg","viewCount":"5596","playlistId":"PLEkQk5xrP-tmJzNvLntpzW0uPanPzxA0c","playlistName":"لقاءات ومحاضرات","category":"متنوع"},{"id":"8RzgvuLcmiE","title":"هل يجوز للزوج منع زوجته من العمل ,, طلبت منها ورفضت فماذا أفعل؟","publishedAt":"2024-10-28T18:01:18Z","duration":"PT12M13S","thumbnail":"https://i.ytimg.com/vi/8RzgvuLcmiE/mqdefault.jpg","viewCount":"5587","playlistId":"PLEkQk5xrP-tkGXuZ9atE3k_7it12rUPTs","playlistName":"أسئلة المتابعين","category":"متنوع"},{"id":"CcyMlHQiZhU","title":"6- الخَرِيدَةُ البَهِيَّةُ - المُقَدِّمَة","publishedAt":"2022-02-21T19:14:30Z","duration":"PT1H12M43S","thumbnail":"https://i.ytimg.com/vi/CcyMlHQiZhU/mqdefault.jpg","viewCount":"5581","playlistId":"PLEkQk5xrP-tmNuYT8JAh6clwa4krsgkNo","playlistName":"شرح كتاب الفُتُوحات اليُسريَّة في عقائد الأُمَّة المُحمَّديَّة","category":"متنوع"},{"id":"1f_SLVVefyQ","title":"هل يجوز تحديد نسل الجنين وتجميد البويضات؟","publishedAt":"2023-12-26T18:00:00Z","duration":"PT8M59S","thumbnail":"https://i.ytimg.com/vi/1f_SLVVefyQ/mqdefault.jpg","viewCount":"5562","playlistId":"PLEkQk5xrP-tkGXuZ9atE3k_7it12rUPTs","playlistName":"أسئلة المتابعين","category":"متنوع"},{"id":"0m347AXFgBA","title":"مَنْ أَثْبَتَ لِنَفْسِهِ تَوَاضُعًا فَهُو المُتَكَبِّرُ حَقًّا..","publishedAt":"2018-03-01T19:26:59Z","duration":"PT11M11S","thumbnail":"https://i.ytimg.com/vi/0m347AXFgBA/mqdefault.jpg","viewCount":"5556","playlistId":"PLEkQk5xrP-tkI_meE148wc7V7XHlB0WPb","playlistName":"من الحكم العطائية  د. يسري جبر","category":"متنوع"},{"id":"GjLSqCCVmC8","title":"هل حاول النَّبىُّ ﷺ الانتحار؟!","publishedAt":"2022-02-20T18:30:00Z","duration":"PT9M48S","thumbnail":"https://i.ytimg.com/vi/GjLSqCCVmC8/mqdefault.jpg","viewCount":"5532","playlistId":"PLEkQk5xrP-tkGXuZ9atE3k_7it12rUPTs","playlistName":"أسئلة المتابعين","category":"متنوع"},{"id":"_SzeWlOI_XQ","title":"هل يجوز أن أمسك يد خطيبتي لتلبيس الدبلة؟","publishedAt":"2022-04-15T19:30:06Z","duration":"PT9M5S","thumbnail":"https://i.ytimg.com/vi/_SzeWlOI_XQ/mqdefault.jpg","viewCount":"5521","playlistId":"PLEkQk5xrP-tkGXuZ9atE3k_7it12rUPTs","playlistName":"أسئلة المتابعين","category":"متنوع"},{"id":"6TYZBlGBFYg","title":"كيف أحسن ظني بالله وهو لا يستجيب دعائي؟","publishedAt":"2024-08-19T17:16:51Z","duration":"PT8M4S","thumbnail":"https://i.ytimg.com/vi/6TYZBlGBFYg/mqdefault.jpg","viewCount":"5507","playlistId":"PLEkQk5xrP-tkGXuZ9atE3k_7it12rUPTs","playlistName":"أسئلة المتابعين","category":"متنوع"},{"id":"Od2TPaU5a-c","title":"إذا أردت وُرود المواهب عليك، صَحِّحِ الفقر والفاقةَ لديك (إِنَّمَا الصَّدَقَاتُ لِلْفُقَرَاءِ)","publishedAt":"2017-05-31T16:01:35Z","duration":"PT7M44S","thumbnail":"https://i.ytimg.com/vi/Od2TPaU5a-c/mqdefault.jpg","viewCount":"5501","playlistId":"PLEkQk5xrP-tkI_meE148wc7V7XHlB0WPb","playlistName":"من الحكم العطائية  د. يسري جبر","category":"متنوع"},{"id":"uiGmck7v7ww","title":"أحاول الإحسان إلى أمي ولكنها تسيء معاملتي فماذا أفعل؟","publishedAt":"2023-07-31T18:01:35Z","duration":"PT8M19S","thumbnail":"https://i.ytimg.com/vi/uiGmck7v7ww/mqdefault.jpg","viewCount":"5499","playlistId":"PLEkQk5xrP-tkGXuZ9atE3k_7it12rUPTs","playlistName":"أسئلة المتابعين","category":"متنوع"},{"id":"j9AC5gMrF1Y","title":"هل يجوز التبرع بالأعضاء بعد الوفاة؟","publishedAt":"2022-10-01T18:00:14Z","duration":"PT10M9S","thumbnail":"https://i.ytimg.com/vi/j9AC5gMrF1Y/mqdefault.jpg","viewCount":"5474","playlistId":"PLEkQk5xrP-tkGXuZ9atE3k_7it12rUPTs","playlistName":"أسئلة المتابعين","category":"متنوع"},{"id":"0S1R9I9LhZU","title":"12- حقيقة الكشف وهل للمريد أن يطلب الكشف؟ | شرح الحكم العطائية","publishedAt":"2025-01-02T20:00:00Z","duration":"PT52M42S","thumbnail":"https://i.ytimg.com/vi/0S1R9I9LhZU/mqdefault.jpg","viewCount":"5471","playlistId":"PLEkQk5xrP-tmf5ToOwmW-q0JwxkapbrMN","playlistName":"شرح كتاب إرشاد البرية إلى بعض معاني الحكم العطائية","category":"متنوع"},{"id":"zUrxrVrd3BY","title":"كيف يتصل قلب المريد بالشيخ؟ | سر الرابطة في طريق التصوف","publishedAt":"2025-08-22T18:01:02Z","duration":"PT28M35S","thumbnail":"https://i.ytimg.com/vi/zUrxrVrd3BY/mqdefault.jpg","viewCount":"5469","playlistId":"PLEkQk5xrP-tmsEDdkkXMM1ca2-AquQYad","playlistName":"شرح كتاب مدارج الحقيقة في الرابطة عند أهل الطريقة","category":"متنوع"},{"id":"0HmHl1_GvyE","title":"كيف أسامح من ظلمني؟","publishedAt":"2021-12-04T18:56:16Z","duration":"PT8M35S","thumbnail":"https://i.ytimg.com/vi/0HmHl1_GvyE/mqdefault.jpg","viewCount":"5465","playlistId":"PLEkQk5xrP-tkGXuZ9atE3k_7it12rUPTs","playlistName":"أسئلة المتابعين","category":"متنوع"},{"id":"-WAmZ3WTEQE","title":"الحبة السوداء شفاء من كل داء","publishedAt":"2020-06-11T21:14:11Z","duration":"PT12M18S","thumbnail":"https://i.ytimg.com/vi/-WAmZ3WTEQE/mqdefault.jpg","viewCount":"5461","playlistId":"PLEkQk5xrP-tm8ZIu74nTOZN9KJUJu416J","playlistName":"مقاطع مُهمَّة (يُسريَّات) أ.د. يسري جبر","category":"متنوع"},{"id":"j1I1u5-vCFE","title":"لماذا يتم إزالة بعض المساجد في مصر؟","publishedAt":"2022-04-09T19:30:16Z","duration":"PT8M1S","thumbnail":"https://i.ytimg.com/vi/j1I1u5-vCFE/mqdefault.jpg","viewCount":"5457","playlistId":"PLEkQk5xrP-tkGXuZ9atE3k_7it12rUPTs","playlistName":"أسئلة المتابعين","category":"متنوع"}],"total":4126,"page":34,"pageSize":24,"totalPages":172}