{"items":[{"id":"Rv9YqHD52mo","title":"1- المقدمة ـ كتاب الطهارة - شرح سنن الدار قطني رضي الله عنه","publishedAt":"2022-12-11T09:00:11Z","duration":"PT40M49S","thumbnail":"https://i.ytimg.com/vi/Rv9YqHD52mo/mqdefault.jpg","viewCount":"4093","playlistId":"PLEkQk5xrP-tk_MCBZ706ORCw6gFtFyaGj","playlistName":"شرح سنن الإمام الدارقطني","category":"متنوع"},{"id":"4zIM3ztRors","title":"12- حديث الوضوء بالنبيذ ليلة الجِنّ وبيان لقاء النَّبيّ ﷺ بهم والمكان الذي قابلهم فيه","publishedAt":"2023-08-12T18:00:06Z","duration":"PT41M33S","thumbnail":"https://i.ytimg.com/vi/4zIM3ztRors/mqdefault.jpg","viewCount":"2726","playlistId":"PLEkQk5xrP-tk_MCBZ706ORCw6gFtFyaGj","playlistName":"شرح سنن الإمام الدارقطني","category":"متنوع"},{"id":"X9IA-dm_mB8","title":"56- كيف تعالج آلام الظهر بالسنة النبوية؟ | شرح سنن الإمام الدار قطني","publishedAt":"2025-05-17T09:00:57Z","duration":"PT41M54S","thumbnail":"https://i.ytimg.com/vi/X9IA-dm_mB8/mqdefault.jpg","viewCount":"2008","playlistId":"PLEkQk5xrP-tk_MCBZ706ORCw6gFtFyaGj","playlistName":"شرح سنن الإمام الدارقطني","category":"متنوع"},{"id":"Z6JqR7food4","title":"22- حكم قراءة القرآن ومس المصحف على غير طهارة","publishedAt":"2023-11-25T09:00:33Z","duration":"PT29M19S","thumbnail":"https://i.ytimg.com/vi/Z6JqR7food4/mqdefault.jpg","viewCount":"1924","playlistId":"PLEkQk5xrP-tk_MCBZ706ORCw6gFtFyaGj","playlistName":"شرح سنن الإمام الدارقطني","category":"متنوع"},{"id":"gZE_sXu56nE","title":"2-  مقدار الماء الذي لا يحمل النجاسة - كتاب الطهارة","publishedAt":"2022-12-17T09:00:32Z","duration":"PT38M8S","thumbnail":"https://i.ytimg.com/vi/gZE_sXu56nE/mqdefault.jpg","viewCount":"1599","playlistId":"PLEkQk5xrP-tk_MCBZ706ORCw6gFtFyaGj","playlistName":"شرح سنن الإمام الدارقطني","category":"متنوع"},{"id":"3iRgP2lxE4U","title":"14- حكم غسل أعضاء الوضوء مرة وهل الترتيب واجب - كتاب الطَّهارة","publishedAt":"2023-08-27T05:00:01Z","duration":"PT43M41S","thumbnail":"https://i.ytimg.com/vi/3iRgP2lxE4U/mqdefault.jpg","viewCount":"1588","playlistId":"PLEkQk5xrP-tk_MCBZ706ORCw6gFtFyaGj","playlistName":"شرح سنن الإمام الدارقطني","category":"متنوع"},{"id":"Js_7UeK_XTg","title":"25- مخاطبةُ النَّاسِ على قَدْرِ عُقولِهم|ما ينقض الوضوء من الملامسة والقُبلة","publishedAt":"2023-12-16T09:15:00Z","duration":"PT32M40S","thumbnail":"https://i.ytimg.com/vi/Js_7UeK_XTg/mqdefault.jpg","viewCount":"1583","playlistId":"PLEkQk5xrP-tk_MCBZ706ORCw6gFtFyaGj","playlistName":"شرح سنن الإمام الدارقطني","category":"متنوع"},{"id":"ZJwOb9wze_U","title":"27- حكم وضوء مَن مَسَّ عورته - شرح سنن الإمام الدار قطني","publishedAt":"2023-12-30T09:15:01Z","duration":"PT37M55S","thumbnail":"https://i.ytimg.com/vi/ZJwOb9wze_U/mqdefault.jpg","viewCount":"1461","playlistId":"PLEkQk5xrP-tk_MCBZ706ORCw6gFtFyaGj","playlistName":"شرح سنن الإمام الدارقطني","category":"متنوع"},{"id":"ymmcp_HVnwo","title":"20- كيفية علاج الوسواس في الوضوء | موجبات الغسل","publishedAt":"2023-11-11T08:37:39Z","duration":"PT31M42S","thumbnail":"https://i.ytimg.com/vi/ymmcp_HVnwo/mqdefault.jpg","viewCount":"1448","playlistId":"PLEkQk5xrP-tk_MCBZ706ORCw6gFtFyaGj","playlistName":"شرح سنن الإمام الدارقطني","category":"متنوع"},{"id":"Ha0wyTTI0GA","title":"32- هل الضحك داخل الصلاة يبطلها وينقض الوضوء؟ | شرح سنن الإمام الدار قطني رضي الله عنه","publishedAt":"2024-03-02T09:00:11Z","duration":"PT40M1S","thumbnail":"https://i.ytimg.com/vi/Ha0wyTTI0GA/mqdefault.jpg","viewCount":"1407","playlistId":"PLEkQk5xrP-tk_MCBZ706ORCw6gFtFyaGj","playlistName":"شرح سنن الإمام الدارقطني","category":"متنوع"},{"id":"WNIlb2FT_hQ","title":"13- كيف كان سيدنا رسول الله ﷺ يتوضأ - كتاب الطَّهارة - شرح سنن الإمام الدار قطني رضي الله عنه","publishedAt":"2023-08-20T05:00:12Z","duration":"PT41M6S","thumbnail":"https://i.ytimg.com/vi/WNIlb2FT_hQ/mqdefault.jpg","viewCount":"1379","playlistId":"PLEkQk5xrP-tk_MCBZ706ORCw6gFtFyaGj","playlistName":"شرح سنن الإمام الدارقطني","category":"متنوع"},{"id":"00CZWi2sW9A","title":"15- فضل الوضوء ثلاثًا | بيان قدْر الماء المستخدم في الوضوء والغسل - كتاب الطَّهارة","publishedAt":"2023-09-02T09:10:00Z","duration":"PT40M53S","thumbnail":"https://i.ytimg.com/vi/00CZWi2sW9A/mqdefault.jpg","viewCount":"1337","playlistId":"PLEkQk5xrP-tk_MCBZ706ORCw6gFtFyaGj","playlistName":"شرح سنن الإمام الدارقطني","category":"متنوع"},{"id":"KrSmjKzMypk","title":"11- الوضوء وفضل التسمية عند الوضوء - كتاب الطهارة - شرح سنن الدار قطني","publishedAt":"2023-06-10T08:59:00Z","duration":"PT34M12S","thumbnail":"https://i.ytimg.com/vi/KrSmjKzMypk/mqdefault.jpg","viewCount":"1328","playlistId":"PLEkQk5xrP-tk_MCBZ706ORCw6gFtFyaGj","playlistName":"شرح سنن الإمام الدارقطني","category":"متنوع"},{"id":"nVxtTO4dfGw","title":"60- أسرار الصلاة الإبراهيمية وهل يجوز أن نقول سيدنا محمد في التشهد؟ | شرح سنن الإمام الدار قطني","publishedAt":"2025-08-02T09:01:08Z","duration":"PT44M56S","thumbnail":"https://i.ytimg.com/vi/nVxtTO4dfGw/mqdefault.jpg","viewCount":"1305","playlistId":"PLEkQk5xrP-tk_MCBZ706ORCw6gFtFyaGj","playlistName":"شرح سنن الإمام الدارقطني","category":"متنوع"},{"id":"O-LmscaGPnI","title":"23- ما ورد في طهارة المَنيّ وحكمه رطبًا ويابسًا | وماذا يصنع الجنب إذا أراد أن يأكل أو يشرب أو ينام","publishedAt":"2023-12-02T10:18:25Z","duration":"PT39M18S","thumbnail":"https://i.ytimg.com/vi/O-LmscaGPnI/mqdefault.jpg","viewCount":"1281","playlistId":"PLEkQk5xrP-tk_MCBZ706ORCw6gFtFyaGj","playlistName":"شرح سنن الإمام الدارقطني","category":"متنوع"},{"id":"g6NYNwPRAs4","title":"30- حكم القيء للصائم | من نام وهو ساجد | القهقهة في الصلاة - شرح سنن الإمام الدار قطني رضي الله عنه","publishedAt":"2024-01-20T09:19:30Z","duration":"PT35M14S","thumbnail":"https://i.ytimg.com/vi/g6NYNwPRAs4/mqdefault.jpg","viewCount":"1263","playlistId":"PLEkQk5xrP-tk_MCBZ706ORCw6gFtFyaGj","playlistName":"شرح سنن الإمام الدارقطني","category":"متنوع"},{"id":"HFeGIvnJilo","title":"37- أهمية النية في طلب العلم وسائر العبادات | شرح سنن الدار قطني رضي الله عنه","publishedAt":"2024-06-01T09:00:18Z","duration":"PT44M34S","thumbnail":"https://i.ytimg.com/vi/HFeGIvnJilo/mqdefault.jpg","viewCount":"1260","playlistId":"PLEkQk5xrP-tk_MCBZ706ORCw6gFtFyaGj","playlistName":"شرح سنن الإمام الدارقطني","category":"متنوع"},{"id":"eynk7pNOi6k","title":"55- أثر صحبة الصالحين في القلب | شرح سنن الإمام الدار قطني","publishedAt":"2025-05-10T09:01:03Z","duration":"PT38M57S","thumbnail":"https://i.ytimg.com/vi/eynk7pNOi6k/mqdefault.jpg","viewCount":"1164","playlistId":"PLEkQk5xrP-tk_MCBZ706ORCw6gFtFyaGj","playlistName":"شرح سنن الإمام الدارقطني","category":"متنوع"},{"id":"LxFnI_3V45k","title":"16- ويلٌ للأعقاب من النار | حكم تخليل الأصابع في الوضوء - شرح سنن الإمام الدار قطني","publishedAt":"2023-10-14T05:15:00Z","duration":"PT39M36S","thumbnail":"https://i.ytimg.com/vi/LxFnI_3V45k/mqdefault.jpg","viewCount":"1159","playlistId":"PLEkQk5xrP-tk_MCBZ706ORCw6gFtFyaGj","playlistName":"شرح سنن الإمام الدارقطني","category":"متنوع"},{"id":"D30_A61OeA4","title":"9-  فضل السِّواك وحكم استقبال القِبلة عند قضاء الحاجة في الخلاء أو البنيان - كتاب الطهارة","publishedAt":"2023-02-04T09:00:06Z","duration":"PT47M59S","thumbnail":"https://i.ytimg.com/vi/D30_A61OeA4/mqdefault.jpg","viewCount":"1159","playlistId":"PLEkQk5xrP-tk_MCBZ706ORCw6gFtFyaGj","playlistName":"شرح سنن الإمام الدارقطني","category":"متنوع"},{"id":"2pK89mNneqk","title":"26- هل تقبيل الزوجة ينقض الوضوء؟","publishedAt":"2023-12-23T09:30:02Z","duration":"PT33M32S","thumbnail":"https://i.ytimg.com/vi/2pK89mNneqk/mqdefault.jpg","viewCount":"1154","playlistId":"PLEkQk5xrP-tk_MCBZ706ORCw6gFtFyaGj","playlistName":"شرح سنن الإمام الدارقطني","category":"متنوع"},{"id":"uRHpuAMeTaU","title":"36- ما هو الصعيد الطيب الذي يصح به التيمم؟ | شرح سنن الدار قطني رضي الله عنه","publishedAt":"2024-05-25T09:01:00Z","duration":"PT43M22S","thumbnail":"https://i.ytimg.com/vi/uRHpuAMeTaU/mqdefault.jpg","viewCount":"1101","playlistId":"PLEkQk5xrP-tk_MCBZ706ORCw6gFtFyaGj","playlistName":"شرح سنن الإمام الدارقطني","category":"متنوع"},{"id":"U3d7afVg1gM","title":"8- إخلاص النية، وحكم الاغتسال في الماء الدائم، وحكم استعمال الرجل فضل وضوء المرأة، وآداب الاستنجاء.","publishedAt":"2023-01-28T09:00:13Z","duration":"PT49M24S","thumbnail":"https://i.ytimg.com/vi/U3d7afVg1gM/mqdefault.jpg","viewCount":"1079","playlistId":"PLEkQk5xrP-tk_MCBZ706ORCw6gFtFyaGj","playlistName":"شرح سنن الإمام الدارقطني","category":"متنوع"},{"id":"h2SNtfXmCzM","title":"10- حكم ولوغ الكلب في الإناء وسؤر القطة - سنن الإمام الدار قطني رضي الله عنه","publishedAt":"2023-05-20T08:59:00Z","duration":"PT48M32S","thumbnail":"https://i.ytimg.com/vi/h2SNtfXmCzM/mqdefault.jpg","viewCount":"1052","playlistId":"PLEkQk5xrP-tk_MCBZ706ORCw6gFtFyaGj","playlistName":"شرح سنن الإمام الدارقطني","category":"متنوع"}],"total":70,"page":1,"pageSize":24,"totalPages":3}