{"items":[{"id":"TUbtSVFKhHc","title":"شرح صلوات سيدى أحمد الدردير رضي الله عنه - حرف الباء","publishedAt":"2013-12-29T21:49:18Z","duration":"PT12M43S","thumbnail":"https://i.ytimg.com/vi/TUbtSVFKhHc/mqdefault.jpg","viewCount":"1572","playlistId":"PLEkQk5xrP-tlXZQuhEiJGJka1QcRw7fbW","playlistName":"شرح الصلوات الدرديرية لسيدي أحمد الدردير رضي الله عنه","category":"ردود"},{"id":"DecPcbYzTvo","title":"شرح صلوات سيدى أحمد الدردير رضي الله عنه- حرف الهمزة","publishedAt":"2013-12-25T19:07:11Z","duration":"PT26M52S","thumbnail":"https://i.ytimg.com/vi/DecPcbYzTvo/mqdefault.jpg","viewCount":"5777","playlistId":"PLEkQk5xrP-tlXZQuhEiJGJka1QcRw7fbW","playlistName":"شرح الصلوات الدرديرية لسيدي أحمد الدردير رضي الله عنه","category":"ردود"},{"id":"xhfq3sjKjRk","title":"لولا الأنبياء لما اهتديت | ردا على الفيديو المقتطع لسيدي أبو الحسن الشاذلي","publishedAt":"2024-03-13T12:11:53Z","duration":"PT1M35S","thumbnail":"https://i.ytimg.com/vi/xhfq3sjKjRk/mqdefault.jpg","viewCount":"318","playlistId":"PLEkQk5xrP-tlG4r6Zxis5AqEnE9aNyJdV","playlistName":"الرد على المعترضين على د. يسري جبر","category":"ردود"},{"id":"OMTO_tj99fs","title":"ردا على الفيديو المقتطع (العبد رب والرب عبد)","publishedAt":"2024-03-11T15:38:22Z","duration":"PT3M14S","thumbnail":"https://i.ytimg.com/vi/OMTO_tj99fs/mqdefault.jpg","viewCount":"736","playlistId":"PLEkQk5xrP-tlG4r6Zxis5AqEnE9aNyJdV","playlistName":"الرد على المعترضين على د. يسري جبر","category":"ردود"},{"id":"w0m1xpt7jfc","title":"لو قال النبي لا تحتفلوا بيوم مولدي لاحتفلنا! هل أخطأ د. يسري جبر؟| وعي","publishedAt":"2023-05-29T18:59:29Z","duration":"PT2M4S","thumbnail":"https://i.ytimg.com/vi/w0m1xpt7jfc/mqdefault.jpg","viewCount":"7181","playlistId":"PLEkQk5xrP-tlG4r6Zxis5AqEnE9aNyJdV","playlistName":"الرد على المعترضين على د. يسري جبر","category":"ردود"}],"total":29,"page":2,"pageSize":24,"totalPages":2}