{"items":[{"id":"i6uUppTAxTY","title":"393- فضل المملوك الذي يؤدي حقَّ الله وحقَّ مواليه - شرح دليل الفالحين","publishedAt":"2023-01-26T09:00:33Z","duration":"PT34M12S","thumbnail":"https://i.ytimg.com/vi/i6uUppTAxTY/mqdefault.jpg","viewCount":"566","playlistId":"PLEkQk5xrP-tkc9DXvSLguqX5-FYp6ASR4","playlistName":"دليل الفالحين لطرق رياض الصالحين","category":"متنوع"},{"id":"agDSuJhOiCI","title":"391- حُكمُ غُسْلِ الشَّهيدِ وتَكْفينه والصَّلاة عليه وثوابه في الآخرة - شرح دليل الفالحين","publishedAt":"2023-01-24T09:00:02Z","duration":"PT37M55S","thumbnail":"https://i.ytimg.com/vi/agDSuJhOiCI/mqdefault.jpg","viewCount":"564","playlistId":"PLEkQk5xrP-tkc9DXvSLguqX5-FYp6ASR4","playlistName":"دليل الفالحين لطرق رياض الصالحين","category":"متنوع"},{"id":"IqvBqUyUjnQ","title":"448- النهي عن تناجي اثنين دون الثالث بغير إذنه إلا لحاجة - شرح دليل الفالحين","publishedAt":"2023-05-17T08:59:00Z","duration":"PT27M36S","thumbnail":"https://i.ytimg.com/vi/IqvBqUyUjnQ/mqdefault.jpg","viewCount":"553","playlistId":"PLEkQk5xrP-tkc9DXvSLguqX5-FYp6ASR4","playlistName":"دليل الفالحين لطرق رياض الصالحين","category":"متنوع"},{"id":"71u5Z4nB8SM","title":"470- حكم مَنْ يعتقد أنَّ النُّجومَ سَببٌ في نُزولِ المطرِ - شرح دليل الفالحين","publishedAt":"2023-06-07T08:59:01Z","duration":"PT38M11S","thumbnail":"https://i.ytimg.com/vi/71u5Z4nB8SM/mqdefault.jpg","viewCount":"550","playlistId":"PLEkQk5xrP-tkc9DXvSLguqX5-FYp6ASR4","playlistName":"دليل الفالحين لطرق رياض الصالحين","category":"متنوع"},{"id":"f7Zue7A_lL4","title":"360- استحباب قيام رمضان - شرح دليل الفالحين","publishedAt":"2022-12-14T09:00:31Z","duration":"PT34M40S","thumbnail":"https://i.ytimg.com/vi/f7Zue7A_lL4/mqdefault.jpg","viewCount":"550","playlistId":"PLEkQk5xrP-tkc9DXvSLguqX5-FYp6ASR4","playlistName":"دليل الفالحين لطرق رياض الصالحين","category":"متنوع"},{"id":"LgmQuNrMkJw","title":"458- كراهية الاستنجاء باليمين - شرح دليل الفالحين","publishedAt":"2023-05-28T08:59:00Z","duration":"PT23M6S","thumbnail":"https://i.ytimg.com/vi/LgmQuNrMkJw/mqdefault.jpg","viewCount":"542","playlistId":"PLEkQk5xrP-tkc9DXvSLguqX5-FYp6ASR4","playlistName":"دليل الفالحين لطرق رياض الصالحين","category":"متنوع"},{"id":"Psni2eCWPZA","title":"363- تأكيد وجوب الزَّكاة وبيان فضلها وما يتعلق بها - شرح دليل الفالحين","publishedAt":"2022-12-19T09:00:08Z","duration":"PT24M36S","thumbnail":"https://i.ytimg.com/vi/Psni2eCWPZA/mqdefault.jpg","viewCount":"537","playlistId":"PLEkQk5xrP-tkc9DXvSLguqX5-FYp6ASR4","playlistName":"دليل الفالحين لطرق رياض الصالحين","category":"متنوع"},{"id":"3fQxgDsPU3w","title":"361- فضل ليلة القدر وبيان أرجى لياليها - شرح دليل الفالحين","publishedAt":"2022-12-16T09:00:02Z","duration":"PT24M51S","thumbnail":"https://i.ytimg.com/vi/3fQxgDsPU3w/mqdefault.jpg","viewCount":"536","playlistId":"PLEkQk5xrP-tkc9DXvSLguqX5-FYp6ASR4","playlistName":"دليل الفالحين لطرق رياض الصالحين","category":"متنوع"},{"id":"SVVCja6gGMM","title":"378- فريضة الحجّ - شرح دليل الفالحين","publishedAt":"2023-01-09T09:00:12Z","duration":"PT31M59S","thumbnail":"https://i.ytimg.com/vi/SVVCja6gGMM/mqdefault.jpg","viewCount":"512","playlistId":"PLEkQk5xrP-tkc9DXvSLguqX5-FYp6ASR4","playlistName":"دليل الفالحين لطرق رياض الصالحين","category":"متنوع"},{"id":"r0EiEZa89XE","title":"392- فضلُ العِتْقِ - شرح دليل الفالحين","publishedAt":"2023-01-25T09:00:35Z","duration":"PT42M5S","thumbnail":"https://i.ytimg.com/vi/r0EiEZa89XE/mqdefault.jpg","viewCount":"498","playlistId":"PLEkQk5xrP-tkc9DXvSLguqX5-FYp6ASR4","playlistName":"دليل الفالحين لطرق رياض الصالحين","category":"متنوع"},{"id":"h0XzWiCo-q0","title":"309- جواز قول المريض أنا وَجِع أو شديد الوَجَع - شرح دليل الفالحين","publishedAt":"2022-10-13T05:00:10Z","duration":"PT40M55S","thumbnail":"https://i.ytimg.com/vi/h0XzWiCo-q0/mqdefault.jpg","viewCount":"490","playlistId":"PLEkQk5xrP-tkc9DXvSLguqX5-FYp6ASR4","playlistName":"دليل الفالحين لطرق رياض الصالحين","category":"متنوع"},{"id":"yM3Lapj0z8k","title":"371- فضل السَّحور - شرح دليل الفالحين","publishedAt":"2023-01-01T09:00:33Z","duration":"PT30M49S","thumbnail":"https://i.ytimg.com/vi/yM3Lapj0z8k/mqdefault.jpg","viewCount":"486","playlistId":"PLEkQk5xrP-tkc9DXvSLguqX5-FYp6ASR4","playlistName":"دليل الفالحين لطرق رياض الصالحين","category":"متنوع"},{"id":"4vDNRIsha1w","title":"316- تعجيل قضاء الدَّينِ عن الميت والمبادرة إلى تجهيزه إلا أن يموتَ فجأةً، فيُترك حتى يُتيقن موتُه","publishedAt":"2022-10-22T05:00:05Z","duration":"PT41M51S","thumbnail":"https://i.ytimg.com/vi/4vDNRIsha1w/mqdefault.jpg","viewCount":"479","playlistId":"PLEkQk5xrP-tkc9DXvSLguqX5-FYp6ASR4","playlistName":"دليل الفالحين لطرق رياض الصالحين","category":"متنوع"},{"id":"LE3CNLvaGNY","title":"379- إنَّ اللهَ قَدْ فَرِضَ عَليكُمُ الحجُّ فحُجُّوا - شرح دليل الفالحين","publishedAt":"2023-01-10T05:00:14Z","duration":"PT24M14S","thumbnail":"https://i.ytimg.com/vi/LE3CNLvaGNY/mqdefault.jpg","viewCount":"476","playlistId":"PLEkQk5xrP-tkc9DXvSLguqX5-FYp6ASR4","playlistName":"دليل الفالحين لطرق رياض الصالحين","category":"متنوع"},{"id":"HrsmnAu0AQ8","title":"368- وجوب صوم رمضان وبيان فضل الصيام وما يتعلق به - شرح دليل الفالحين","publishedAt":"2022-12-28T09:00:13Z","duration":"PT31M25S","thumbnail":"https://i.ytimg.com/vi/HrsmnAu0AQ8/mqdefault.jpg","viewCount":"475","playlistId":"PLEkQk5xrP-tkc9DXvSLguqX5-FYp6ASR4","playlistName":"دليل الفالحين لطرق رياض الصالحين","category":"متنوع"},{"id":"cf8gemAJQXw","title":"320- استحباب طلب الرِفْقَة في السفر - شرح دليل الفالحين","publishedAt":"2022-10-28T09:00:21Z","duration":"PT32M44S","thumbnail":"https://i.ytimg.com/vi/cf8gemAJQXw/mqdefault.jpg","viewCount":"475","playlistId":"PLEkQk5xrP-tkc9DXvSLguqX5-FYp6ASR4","playlistName":"دليل الفالحين لطرق رياض الصالحين","category":"متنوع"},{"id":"GqtMoo-Wxg8","title":"372- فضل تعجيل الفِطر وما يُفطِر عليه وما يقوله بعد إفطاره - شرح دليل الفالحين","publishedAt":"2023-01-02T05:00:10Z","duration":"PT49M59S","thumbnail":"https://i.ytimg.com/vi/GqtMoo-Wxg8/mqdefault.jpg","viewCount":"471","playlistId":"PLEkQk5xrP-tkc9DXvSLguqX5-FYp6ASR4","playlistName":"دليل الفالحين لطرق رياض الصالحين","category":"متنوع"},{"id":"uCOvjH3NjFQ","title":"377- فضل مَن فطَّر صائمًا - شرح دليل الفالحين","publishedAt":"2023-01-08T09:00:26Z","duration":"PT21M22S","thumbnail":"https://i.ytimg.com/vi/uCOvjH3NjFQ/mqdefault.jpg","viewCount":"463","playlistId":"PLEkQk5xrP-tkc9DXvSLguqX5-FYp6ASR4","playlistName":"دليل الفالحين لطرق رياض الصالحين","category":"متنوع"},{"id":"zrXAvhKCE1o","title":"464- النهي عن البصاق في المسجد والأمر بإزالته منه إذا وُجد فيه والأمر بتنزيه المسجد عن الأقذار","publishedAt":"2023-06-02T08:59:00Z","duration":"PT32M32S","thumbnail":"https://i.ytimg.com/vi/zrXAvhKCE1o/mqdefault.jpg","viewCount":"463","playlistId":"PLEkQk5xrP-tkc9DXvSLguqX5-FYp6ASR4","playlistName":"دليل الفالحين لطرق رياض الصالحين","category":"متنوع"},{"id":"yu9MkjpP78M","title":"481- كراهة الخروج من بلد وقع فيها الوباء فِرارا منه وكراهة القدوم عليه - شرح دليل الفالحين","publishedAt":"2023-06-20T08:59:00Z","duration":"PT26M39S","thumbnail":"https://i.ytimg.com/vi/yu9MkjpP78M/mqdefault.jpg","viewCount":"432","playlistId":"PLEkQk5xrP-tkc9DXvSLguqX5-FYp6ASR4","playlistName":"دليل الفالحين لطرق رياض الصالحين","category":"متنوع"},{"id":"IuXnwF1lISg","title":"485- حكم انتساب الإنسان إلى غير أبيه وتولِّيه إلى غير مواليه - شرح دليل الفالحين","publishedAt":"2023-06-24T18:00:07Z","duration":"PT38M2S","thumbnail":"https://i.ytimg.com/vi/IuXnwF1lISg/mqdefault.jpg","viewCount":"430","playlistId":"PLEkQk5xrP-tkc9DXvSLguqX5-FYp6ASR4","playlistName":"دليل الفالحين لطرق رياض الصالحين","category":"متنوع"},{"id":"xComs7CTY-w","title":"380- حكم الحجِّ عن الغير - شرح دليل الفالحين","publishedAt":"2023-01-12T05:10:00Z","duration":"PT30M48S","thumbnail":"https://i.ytimg.com/vi/xComs7CTY-w/mqdefault.jpg","viewCount":"414","playlistId":"PLEkQk5xrP-tkc9DXvSLguqX5-FYp6ASR4","playlistName":"دليل الفالحين لطرق رياض الصالحين","category":"متنوع"},{"id":"tOZ9tSFqYyU","title":"467- تغليظ تحريم اليمين الكاذبة عمدًا - شرح دليل الفالحين","publishedAt":"2023-06-04T18:00:19Z","duration":"PT30M37S","thumbnail":"https://i.ytimg.com/vi/tOZ9tSFqYyU/mqdefault.jpg","viewCount":"383","playlistId":"PLEkQk5xrP-tkc9DXvSLguqX5-FYp6ASR4","playlistName":"دليل الفالحين لطرق رياض الصالحين","category":"متنوع"},{"id":"e_Q6Qbk30Cw","title":"313- الصََلاةُ على الميت وتشْيِيعه وحضورِ دفنِه وكراهة اتِّباع النساءِ الجنائزَ","publishedAt":"2022-10-19T05:00:27Z","duration":"PT40M28S","thumbnail":"https://i.ytimg.com/vi/e_Q6Qbk30Cw/mqdefault.jpg","viewCount":"276","playlistId":"PLEkQk5xrP-tkc9DXvSLguqX5-FYp6ASR4","playlistName":"دليل الفالحين لطرق رياض الصالحين","category":"متنوع"}],"total":504,"page":21,"pageSize":24,"totalPages":21}