{"items":[{"id":"YwKNWESlTng","title":"456- النهي عن التَّشَبُّه بالشيطان والكفار - شرح دليل الفالحين","publishedAt":"2023-05-26T08:59:00Z","duration":"PT37M9S","thumbnail":"https://i.ytimg.com/vi/YwKNWESlTng/mqdefault.jpg","viewCount":"830","playlistId":"PLEkQk5xrP-tkc9DXvSLguqX5-FYp6ASR4","playlistName":"دليل الفالحين لطرق رياض الصالحين","category":"متنوع"},{"id":"amnN1zIodDM","title":"475- حكم الجلوس على القبر - شرح دليل الفالحين","publishedAt":"2023-06-12T08:59:00Z","duration":"PT18M50S","thumbnail":"https://i.ytimg.com/vi/amnN1zIodDM/mqdefault.jpg","viewCount":"829","playlistId":"PLEkQk5xrP-tkc9DXvSLguqX5-FYp6ASR4","playlistName":"دليل الفالحين لطرق رياض الصالحين","category":"متنوع"},{"id":"ffNSEyndCfk","title":"473- حكم الصلاة بحضرة الطعام حال الجوع أو مدافعة الأخبثين - شرح دليل الفالحين","publishedAt":"2023-06-11T08:59:00Z","duration":"PT42M54S","thumbnail":"https://i.ytimg.com/vi/ffNSEyndCfk/mqdefault.jpg","viewCount":"827","playlistId":"PLEkQk5xrP-tkc9DXvSLguqX5-FYp6ASR4","playlistName":"دليل الفالحين لطرق رياض الصالحين","category":"متنوع"},{"id":"MlipHcMahps","title":"436- تكملة حديث رؤيا النَّبيّ ﷺ - شرح دليل الفالحين","publishedAt":"2023-05-05T05:00:18Z","duration":"PT27M9S","thumbnail":"https://i.ytimg.com/vi/MlipHcMahps/mqdefault.jpg","viewCount":"827","playlistId":"PLEkQk5xrP-tkc9DXvSLguqX5-FYp6ASR4","playlistName":"دليل الفالحين لطرق رياض الصالحين","category":"متنوع"},{"id":"Yq1Uuy7fKJU","title":"495- بُشْرَى المُؤْمِن برحمة الله ورضوانه وجَنَّته - شرح دليل الفالحين","publishedAt":"2023-07-07T08:59:00Z","duration":"PT55M6S","thumbnail":"https://i.ytimg.com/vi/Yq1Uuy7fKJU/mqdefault.jpg","viewCount":"820","playlistId":"PLEkQk5xrP-tkc9DXvSLguqX5-FYp6ASR4","playlistName":"دليل الفالحين لطرق رياض الصالحين","category":"متنوع"},{"id":"gRGr5UZ2ka8","title":"438- بيان ما يجوز من الكذب - شرح دليل الفالحين","publishedAt":"2023-05-07T05:00:15Z","duration":"PT37M3S","thumbnail":"https://i.ytimg.com/vi/gRGr5UZ2ka8/mqdefault.jpg","viewCount":"820","playlistId":"PLEkQk5xrP-tkc9DXvSLguqX5-FYp6ASR4","playlistName":"دليل الفالحين لطرق رياض الصالحين","category":"متنوع"},{"id":"BIeZ_JixEAU","title":"443- النَّهي عن التجسُّس والتَّسَمُّع لكلام من يكره استماعه - شرح دليل الفالحين","publishedAt":"2023-05-11T18:00:07Z","duration":"PT36M27S","thumbnail":"https://i.ytimg.com/vi/BIeZ_JixEAU/mqdefault.jpg","viewCount":"818","playlistId":"PLEkQk5xrP-tkc9DXvSLguqX5-FYp6ASR4","playlistName":"دليل الفالحين لطرق رياض الصالحين","category":"متنوع"},{"id":"dJmcI68Nz-0","title":"336- \"…فَمَنْ سَأَلَ لِيَ الوَسِيلَةَ حَلَّتْ لَهُ الشَّفَاعَة\" - شرح دليل الفالحين","publishedAt":"2022-11-17T09:00:17Z","duration":"PT46M32S","thumbnail":"https://i.ytimg.com/vi/dJmcI68Nz-0/mqdefault.jpg","viewCount":"812","playlistId":"PLEkQk5xrP-tkc9DXvSLguqX5-FYp6ASR4","playlistName":"دليل الفالحين لطرق رياض الصالحين","category":"متنوع"},{"id":"_egWf4sU7eM","title":"364- حكم قطع عبادة التَّطَوُّعِ بعد الشروع فيها - شرح دليل الفالحين","publishedAt":"2022-12-20T09:00:27Z","duration":"PT20M12S","thumbnail":"https://i.ytimg.com/vi/_egWf4sU7eM/mqdefault.jpg","viewCount":"810","playlistId":"PLEkQk5xrP-tkc9DXvSLguqX5-FYp6ASR4","playlistName":"دليل الفالحين لطرق رياض الصالحين","category":"متنوع"},{"id":"Vw7zOW8Pifg","title":"450- حكم الرجوع في الهِبة أو الصدقة - شرح دليل الفالحين","publishedAt":"2023-05-19T08:59:00Z","duration":"PT25M40S","thumbnail":"https://i.ytimg.com/vi/Vw7zOW8Pifg/mqdefault.jpg","viewCount":"803","playlistId":"PLEkQk5xrP-tkc9DXvSLguqX5-FYp6ASR4","playlistName":"دليل الفالحين لطرق رياض الصالحين","category":"متنوع"},{"id":"dOCmnLHZLbM","title":"293- استحبابُ تركِ التَّرفُّعِ في اللباسِ تواضُعًا - شرح دليل الفالحين","publishedAt":"2022-08-30T06:15:03Z","duration":"PT51M14S","thumbnail":"https://i.ytimg.com/vi/dOCmnLHZLbM/mqdefault.jpg","viewCount":"801","playlistId":"PLEkQk5xrP-tkc9DXvSLguqX5-FYp6ASR4","playlistName":"دليل الفالحين لطرق رياض الصالحين","category":"متنوع"},{"id":"9vinIDSmd8I","title":"526- أَوَّلُ مَن سنَّ ركعتَي الشَّهادة - شرح دليل الفالحين","publishedAt":"2023-04-25T18:00:03Z","duration":"PT31M51S","thumbnail":"https://i.ytimg.com/vi/9vinIDSmd8I/mqdefault.jpg","viewCount":"799","playlistId":"PLEkQk5xrP-tkc9DXvSLguqX5-FYp6ASR4","playlistName":"دليل الفالحين لطرق رياض الصالحين","category":"متنوع"},{"id":"xabAto0zmZs","title":"299- فَضْلُ السَّلامِ والأَمْرُ بِه - شرح دليل الفالحين","publishedAt":"2022-09-08T06:00:13Z","duration":"PT49M52S","thumbnail":"https://i.ytimg.com/vi/xabAto0zmZs/mqdefault.jpg","viewCount":"798","playlistId":"PLEkQk5xrP-tkc9DXvSLguqX5-FYp6ASR4","playlistName":"دليل الفالحين لطرق رياض الصالحين","category":"متنوع"},{"id":"txiPVGj-VQo","title":"451- تغليظ تحريم الرِّبا - شرح دليل الفالحين","publishedAt":"2023-05-21T05:00:32Z","duration":"PT31M47S","thumbnail":"https://i.ytimg.com/vi/txiPVGj-VQo/mqdefault.jpg","viewCount":"794","playlistId":"PLEkQk5xrP-tkc9DXvSLguqX5-FYp6ASR4","playlistName":"دليل الفالحين لطرق رياض الصالحين","category":"متنوع"},{"id":"n5hfC83ihPE","title":"396- فضل العِلم - شرح دليل الفالحين","publishedAt":"2023-02-09T05:00:31Z","duration":"PT32M7S","thumbnail":"https://i.ytimg.com/vi/n5hfC83ihPE/mqdefault.jpg","viewCount":"794","playlistId":"PLEkQk5xrP-tkc9DXvSLguqX5-FYp6ASR4","playlistName":"دليل الفالحين لطرق رياض الصالحين","category":"متنوع"},{"id":"XjUfwiInODA","title":"457- تحريم وصل الشعر والوَشْم والوَشْر  - شرح دليل الفالحين","publishedAt":"2023-05-27T08:59:00Z","duration":"PT35M24S","thumbnail":"https://i.ytimg.com/vi/XjUfwiInODA/mqdefault.jpg","viewCount":"794","playlistId":"PLEkQk5xrP-tkc9DXvSLguqX5-FYp6ASR4","playlistName":"دليل الفالحين لطرق رياض الصالحين","category":"متنوع"},{"id":"IC6sD9lwZVQ","title":"288- استحباب كون ساقي القوم آخرهم شُربًا - شرح دليل الفالحين","publishedAt":"2022-08-18T18:45:01Z","duration":"PT35M14S","thumbnail":"https://i.ytimg.com/vi/IC6sD9lwZVQ/mqdefault.jpg","viewCount":"789","playlistId":"PLEkQk5xrP-tkc9DXvSLguqX5-FYp6ASR4","playlistName":"دليل الفالحين لطرق رياض الصالحين","category":"متنوع"},{"id":"sOWGLHoLFZA","title":"152- \"أَبَرُّ البِرِّ أنْ يَصِلَ الرَّجُلُ وُدَّ أبِيهِ\" - شرح دليل الفالحين","publishedAt":"2021-10-31T18:31:31Z","duration":"PT44M47S","thumbnail":"https://i.ytimg.com/vi/sOWGLHoLFZA/mqdefault.jpg","viewCount":"788","playlistId":"PLEkQk5xrP-tkc9DXvSLguqX5-FYp6ASR4","playlistName":"دليل الفالحين لطرق رياض الصالحين","category":"متنوع"},{"id":"CnGUP3-ekF4","title":"233- التَّنَافُسُ في أمُور الآخرة والإكثار مِمَّا يُتَبَرَّكُ به - شرح دليل الفالحين","publishedAt":"2022-04-15T05:00:03Z","duration":"PT25M1S","thumbnail":"https://i.ytimg.com/vi/CnGUP3-ekF4/mqdefault.jpg","viewCount":"785","playlistId":"PLEkQk5xrP-tkc9DXvSLguqX5-FYp6ASR4","playlistName":"دليل الفالحين لطرق رياض الصالحين","category":"متنوع"},{"id":"9cwZLLgjYz4","title":"231- الإيثارُ والمُوَاسَاة - شرح دليل الفالحين","publishedAt":"2022-04-11T05:56:25Z","duration":"PT29M27S","thumbnail":"https://i.ytimg.com/vi/9cwZLLgjYz4/mqdefault.jpg","viewCount":"785","playlistId":"PLEkQk5xrP-tkc9DXvSLguqX5-FYp6ASR4","playlistName":"دليل الفالحين لطرق رياض الصالحين","category":"متنوع"},{"id":"q9mRaihGHEI","title":"437- الرواية الثانية لحديث رؤيا النَّبيّ ﷺ - شرح دليل الفالحين","publishedAt":"2023-05-06T05:00:18Z","duration":"PT36M22S","thumbnail":"https://i.ytimg.com/vi/q9mRaihGHEI/mqdefault.jpg","viewCount":"781","playlistId":"PLEkQk5xrP-tkc9DXvSLguqX5-FYp6ASR4","playlistName":"دليل الفالحين لطرق رياض الصالحين","category":"متنوع"},{"id":"HGx2xWKGdHw","title":"279- كانَ رسولُ الله ﷺ يُعْجِبُهُ التَّيَمُّنُ في شَأْنِهِ كُلِّهِ - شرح دليل الفالحين","publishedAt":"2022-07-23T05:20:00Z","duration":"PT26M51S","thumbnail":"https://i.ytimg.com/vi/HGx2xWKGdHw/mqdefault.jpg","viewCount":"779","playlistId":"PLEkQk5xrP-tkc9DXvSLguqX5-FYp6ASR4","playlistName":"دليل الفالحين لطرق رياض الصالحين","category":"متنوع"},{"id":"6C9ILSEKLG8","title":"275- وداع الصاحب ووصيته عند فراقه لسفر  أو غيره والدعاء له وطلب الدعاء منه - شرح دليل الفالحين","publishedAt":"2022-07-03T05:00:03Z","duration":"PT31M41S","thumbnail":"https://i.ytimg.com/vi/6C9ILSEKLG8/mqdefault.jpg","viewCount":"778","playlistId":"PLEkQk5xrP-tkc9DXvSLguqX5-FYp6ASR4","playlistName":"دليل الفالحين لطرق رياض الصالحين","category":"متنوع"},{"id":"S-LMcv_3lpk","title":"394- فضل السماحة في البيع والشراء والأخذ والعطاء وحُسن القضاء والتقاضي - شرح دليل الفالحين","publishedAt":"2023-01-27T09:00:14Z","duration":"PT19M44S","thumbnail":"https://i.ytimg.com/vi/S-LMcv_3lpk/mqdefault.jpg","viewCount":"777","playlistId":"PLEkQk5xrP-tkc9DXvSLguqX5-FYp6ASR4","playlistName":"دليل الفالحين لطرق رياض الصالحين","category":"متنوع"}],"total":504,"page":17,"pageSize":24,"totalPages":21}