{"items":[{"id":"QLDMN4qdwfM","title":"239- كراهية تمنِّي الموت - شرح دليل الفالحين","publishedAt":"2022-04-27T05:00:13Z","duration":"PT38M20S","thumbnail":"https://i.ytimg.com/vi/QLDMN4qdwfM/mqdefault.jpg","viewCount":"1185","playlistId":"PLEkQk5xrP-tkc9DXvSLguqX5-FYp6ASR4","playlistName":"دليل الفالحين لطرق رياض الصالحين","category":"متنوع"},{"id":"romDRslqrNI","title":"137- النفقة على العِيال - شرح دليل الفالحين","publishedAt":"2021-10-06T06:06:49Z","duration":"PT1H2M52S","thumbnail":"https://i.ytimg.com/vi/romDRslqrNI/mqdefault.jpg","viewCount":"1179","playlistId":"PLEkQk5xrP-tkc9DXvSLguqX5-FYp6ASR4","playlistName":"دليل الفالحين لطرق رياض الصالحين","category":"متنوع"},{"id":"A5tNEKJlQEo","title":"319- استحباب الخروج يومَ الخميس واستحبابه أوَّلَ النَّهار - شرح دليل الفالحين","publishedAt":"2022-10-25T09:00:05Z","duration":"PT16M55S","thumbnail":"https://i.ytimg.com/vi/A5tNEKJlQEo/mqdefault.jpg","viewCount":"1177","playlistId":"PLEkQk5xrP-tkc9DXvSLguqX5-FYp6ASR4","playlistName":"دليل الفالحين لطرق رياض الصالحين","category":"متنوع"},{"id":"zeHojbUzmaQ","title":"347- تخفيف ركعتي الفجر  وبيان ما يُقرأ فيهما وبيان وقتهما - شرح دليل الفالحين","publishedAt":"2022-11-29T09:00:39Z","duration":"PT33M36S","thumbnail":"https://i.ytimg.com/vi/zeHojbUzmaQ/mqdefault.jpg","viewCount":"1175","playlistId":"PLEkQk5xrP-tkc9DXvSLguqX5-FYp6ASR4","playlistName":"دليل الفالحين لطرق رياض الصالحين","category":"متنوع"},{"id":"-u6O--y7hSc","title":"168- \"…وجبت محبَّتي للمُتحابِّين فيَّ ، والمُتجالسين فيَّ…\" شرح دليل الفالحين","publishedAt":"2021-12-15T06:47:17Z","duration":"PT34M50S","thumbnail":"https://i.ytimg.com/vi/-u6O--y7hSc/mqdefault.jpg","viewCount":"1174","playlistId":"PLEkQk5xrP-tkc9DXvSLguqX5-FYp6ASR4","playlistName":"دليل الفالحين لطرق رياض الصالحين","category":"متنوع"},{"id":"1DK_7A-ceZQ","title":"148- وصية النَّبيّ ﷺ بأهل مصر - شرح دليل الفالحين","publishedAt":"2021-10-25T20:28:37Z","duration":"PT48M52S","thumbnail":"https://i.ytimg.com/vi/1DK_7A-ceZQ/mqdefault.jpg","viewCount":"1171","playlistId":"PLEkQk5xrP-tkc9DXvSLguqX5-FYp6ASR4","playlistName":"دليل الفالحين لطرق رياض الصالحين","category":"متنوع"},{"id":"3hWHPkHzuHY","title":"113- تعظيم حرمات المسلمين وبيان حقوقهم والشفقة عليهم ورحمتهم -  شرح دليل الفالحين","publishedAt":"2021-08-15T06:08:49Z","duration":"PT51M41S","thumbnail":"https://i.ytimg.com/vi/3hWHPkHzuHY/mqdefault.jpg","viewCount":"1164","playlistId":"PLEkQk5xrP-tkc9DXvSLguqX5-FYp6ASR4","playlistName":"دليل الفالحين لطرق رياض الصالحين","category":"متنوع"},{"id":"UwtlTXhbySc","title":"84- \"لا صام مَن صام الأبد\" - شرح دليل الفالحين","publishedAt":"2021-06-27T05:49:46Z","duration":"PT44M6S","thumbnail":"https://i.ytimg.com/vi/UwtlTXhbySc/mqdefault.jpg","viewCount":"1163","playlistId":"PLEkQk5xrP-tkc9DXvSLguqX5-FYp6ASR4","playlistName":"دليل الفالحين لطرق رياض الصالحين","category":"متنوع"},{"id":"iWlqf7-arTg","title":"146- \"…أَنَّهَا أَعْتَقَتْ ولِيدَةً ولَمْ تَسْتَأْذِنِ النَّبيَّ ﷺ…\" - شرح دليل الفالحين","publishedAt":"2021-10-23T06:26:02Z","duration":"PT30M30S","thumbnail":"https://i.ytimg.com/vi/iWlqf7-arTg/mqdefault.jpg","viewCount":"1163","playlistId":"PLEkQk5xrP-tkc9DXvSLguqX5-FYp6ASR4","playlistName":"دليل الفالحين لطرق رياض الصالحين","category":"متنوع"},{"id":"iROGHTNUlZ4","title":"32- باب التوبة: الحديث التاسع (5) شرح دليل الفالحين لطُرُق رياض الصالحين","publishedAt":"2021-03-21T07:10:44Z","duration":"PT37M46S","thumbnail":"https://i.ytimg.com/vi/iROGHTNUlZ4/mqdefault.jpg","viewCount":"1158","playlistId":"PLEkQk5xrP-tkc9DXvSLguqX5-FYp6ASR4","playlistName":"دليل الفالحين لطرق رياض الصالحين","category":"متنوع"},{"id":"K19cBqBmRi8","title":"359- سُئِلَ رَسُولُ اللهِ ﷺ: أَيُّ الصَّلَاةِ أَفْضَلُ؟ قالَ: طُولُ القُنُوتِ - شرح دليل الفالحين","publishedAt":"2022-12-13T09:00:08Z","duration":"PT29M58S","thumbnail":"https://i.ytimg.com/vi/K19cBqBmRi8/mqdefault.jpg","viewCount":"1150","playlistId":"PLEkQk5xrP-tkc9DXvSLguqX5-FYp6ASR4","playlistName":"دليل الفالحين لطرق رياض الصالحين","category":"متنوع"},{"id":"M8waa0-WG_M","title":"51- أمَارات الساعة“...قال فأخبرني عن الساعة ...”تكملة الحديث (1) باب المراقبة - شرح دليل الفالحين","publishedAt":"2021-04-28T05:37:51Z","duration":"PT26M43S","thumbnail":"https://i.ytimg.com/vi/M8waa0-WG_M/mqdefault.jpg","viewCount":"1149","playlistId":"PLEkQk5xrP-tkc9DXvSLguqX5-FYp6ASR4","playlistName":"دليل الفالحين لطرق رياض الصالحين","category":"متنوع"},{"id":"72NzRMIBJi4","title":"428- ما يوجِب رضوان الله تعالى وما يوجِب سخطه - شرح دليل الفالحين","publishedAt":"2023-04-26T09:00:04Z","duration":"PT26M15S","thumbnail":"https://i.ytimg.com/vi/72NzRMIBJi4/mqdefault.jpg","viewCount":"1146","playlistId":"PLEkQk5xrP-tkc9DXvSLguqX5-FYp6ASR4","playlistName":"دليل الفالحين لطرق رياض الصالحين","category":"متنوع"},{"id":"_JZPKzdDn6s","title":"102- تغليظ عقوبة من أمر بمعروف أو نهى عن منكر وخالف قوله فِعله - شرح دليل الفالحين","publishedAt":"2021-07-23T20:45:13Z","duration":"PT23M52S","thumbnail":"https://i.ytimg.com/vi/_JZPKzdDn6s/mqdefault.jpg","viewCount":"1145","playlistId":"PLEkQk5xrP-tkc9DXvSLguqX5-FYp6ASR4","playlistName":"دليل الفالحين لطرق رياض الصالحين","category":"متنوع"},{"id":"mmJR9adHT98","title":"103- الأمر بأداء الأمانة - شرح دليل الفالحين","publishedAt":"2021-07-25T05:25:35Z","duration":"PT43M28S","thumbnail":"https://i.ytimg.com/vi/mmJR9adHT98/mqdefault.jpg","viewCount":"1138","playlistId":"PLEkQk5xrP-tkc9DXvSLguqX5-FYp6ASR4","playlistName":"دليل الفالحين لطرق رياض الصالحين","category":"متنوع"},{"id":"uBaiacOIKdU","title":"427- تحريم الغِيبة والأمر بحفظ اللسان - شرح دليل الفالحين","publishedAt":"2023-04-26T05:00:32Z","duration":"PT36M45S","thumbnail":"https://i.ytimg.com/vi/uBaiacOIKdU/mqdefault.jpg","viewCount":"1138","playlistId":"PLEkQk5xrP-tkc9DXvSLguqX5-FYp6ASR4","playlistName":"دليل الفالحين لطرق رياض الصالحين","category":"متنوع"},{"id":"Wu28YRkd7OM","title":"45- “ليسَ الشَّديدُ بالصُّرَعَةِ...”الحديث ( 22) باب الصّبر - شرح دليل الفالحين","publishedAt":"2021-04-16T06:30:13Z","duration":"PT35M45S","thumbnail":"https://i.ytimg.com/vi/Wu28YRkd7OM/mqdefault.jpg","viewCount":"1138","playlistId":"PLEkQk5xrP-tkc9DXvSLguqX5-FYp6ASR4","playlistName":"دليل الفالحين لطرق رياض الصالحين","category":"متنوع"},{"id":"e5hVuL8SbJg","title":"484- حكم صمت يوم إلى الليل - شرح دليل الفالحين","publishedAt":"2023-06-24T08:59:00Z","duration":"PT22M47S","thumbnail":"https://i.ytimg.com/vi/e5hVuL8SbJg/mqdefault.jpg","viewCount":"1138","playlistId":"PLEkQk5xrP-tkc9DXvSLguqX5-FYp6ASR4","playlistName":"دليل الفالحين لطرق رياض الصالحين","category":"متنوع"},{"id":"b_65benHTUA","title":"124- \"احْتَجَّتِ الجنَّة والنَّار، فقالت النَّار: فيَّ الجبَّارون والمُتَكَبِّرون…\"شرح دليل الفالحين","publishedAt":"2021-09-09T06:35:11Z","duration":"PT44M6S","thumbnail":"https://i.ytimg.com/vi/b_65benHTUA/mqdefault.jpg","viewCount":"1136","playlistId":"PLEkQk5xrP-tkc9DXvSLguqX5-FYp6ASR4","playlistName":"دليل الفالحين لطرق رياض الصالحين","category":"متنوع"},{"id":"dLhuQLb2vns","title":"261- الوالي العادل - شرح دليل الفالحين","publishedAt":"2022-06-04T05:15:00Z","duration":"PT37M9S","thumbnail":"https://i.ytimg.com/vi/dLhuQLb2vns/mqdefault.jpg","viewCount":"1136","playlistId":"PLEkQk5xrP-tkc9DXvSLguqX5-FYp6ASR4","playlistName":"دليل الفالحين لطرق رياض الصالحين","category":"متنوع"},{"id":"EhRF8fKyRnQ","title":"297- آدابُ المجلس والجليس - شرح دليل الفالحين","publishedAt":"2022-09-04T06:20:00Z","duration":"PT1H1M21S","thumbnail":"https://i.ytimg.com/vi/EhRF8fKyRnQ/mqdefault.jpg","viewCount":"1134","playlistId":"PLEkQk5xrP-tkc9DXvSLguqX5-FYp6ASR4","playlistName":"دليل الفالحين لطرق رياض الصالحين","category":"متنوع"},{"id":"bph_Ez2eSJs","title":"238- استحبابُ زِيَارةِ القبورِ للرِّجالِ ومَا يَقُولُه الزَّائرُ - شرح دليل الفالحين","publishedAt":"2022-04-25T05:00:08Z","duration":"PT49M24S","thumbnail":"https://i.ytimg.com/vi/bph_Ez2eSJs/mqdefault.jpg","viewCount":"1128","playlistId":"PLEkQk5xrP-tkc9DXvSLguqX5-FYp6ASR4","playlistName":"دليل الفالحين لطرق رياض الصالحين","category":"متنوع"},{"id":"QZ9hMnyBu-8","title":"194- مُرُوا أبَا بَكْرٍ فَلْيُصَلِّ بالنَّاسِ…\" شرح دليل الفالحين","publishedAt":"2022-02-02T07:02:48Z","duration":"PT34M16S","thumbnail":"https://i.ytimg.com/vi/QZ9hMnyBu-8/mqdefault.jpg","viewCount":"1127","playlistId":"PLEkQk5xrP-tkc9DXvSLguqX5-FYp6ASR4","playlistName":"دليل الفالحين لطرق رياض الصالحين","category":"متنوع"},{"id":"5mhTZ4lK7iQ","title":"410- لا يَقْعُدُ قَومٌ يذْكُرون اللَّهَ عزَّ وجلَّ إِلّا حفَّتْهمُ الملَائكةُ، وغشيَتْهمُ الرَّحْمةُ","publishedAt":"2023-03-11T05:00:02Z","duration":"PT26M22S","thumbnail":"https://i.ytimg.com/vi/5mhTZ4lK7iQ/mqdefault.jpg","viewCount":"1127","playlistId":"PLEkQk5xrP-tkc9DXvSLguqX5-FYp6ASR4","playlistName":"دليل الفالحين لطرق رياض الصالحين","category":"متنوع"}],"total":504,"page":12,"pageSize":24,"totalPages":21}