{"items":[{"id":"fCa_pu465-Q","title":"1- التعريفُ بالإمام النوويّ - شرح كتاب دليل الفالحين أ.د يسري جبر","publishedAt":"2021-01-09T09:10:21Z","duration":"PT39M16S","thumbnail":"https://i.ytimg.com/vi/fCa_pu465-Q/mqdefault.jpg","viewCount":"13514","playlistId":"PLEkQk5xrP-tkc9DXvSLguqX5-FYp6ASR4","playlistName":"دليل الفالحين لطرق رياض الصالحين","category":"متنوع"},{"id":"zSL-WBrEQyM","title":"8- الإخلاص وإحضار النية في جميع الأعمال... شرح دليل الفالحين أ.د. يسري جبر","publishedAt":"2021-01-24T06:56:29Z","duration":"PT29M28S","thumbnail":"https://i.ytimg.com/vi/zSL-WBrEQyM/mqdefault.jpg","viewCount":"7633","playlistId":"PLEkQk5xrP-tkc9DXvSLguqX5-FYp6ASR4","playlistName":"دليل الفالحين لطرق رياض الصالحين","category":"متنوع"},{"id":"YEsbag9lF-I","title":"9- شرح حديث \"إِنَّمَا الأَعْمَالُ بِالنِّيَّاتِ، وَإِنَّمَا لِكُلِّ امْرِئٍ مَا نَوَى\"","publishedAt":"2021-01-25T19:44:22Z","duration":"PT37M38S","thumbnail":"https://i.ytimg.com/vi/YEsbag9lF-I/mqdefault.jpg","viewCount":"7393","playlistId":"PLEkQk5xrP-tkc9DXvSLguqX5-FYp6ASR4","playlistName":"دليل الفالحين لطرق رياض الصالحين","category":"متنوع"},{"id":"pqCQuGhTUaM","title":"66- المُجَاهَدة\"إنَّ اللهَ تعالى قال: مَن عادى لي وليًّا، فقد آذنتُه بالحرب…\" شرح دليل الفالحين","publishedAt":"2021-05-23T19:31:13Z","duration":"PT39M40S","thumbnail":"https://i.ytimg.com/vi/pqCQuGhTUaM/mqdefault.jpg","viewCount":"6690","playlistId":"PLEkQk5xrP-tkc9DXvSLguqX5-FYp6ASR4","playlistName":"دليل الفالحين لطرق رياض الصالحين","category":"متنوع"},{"id":"8BYUdSpPYl8","title":"3- مقدمة كتاب رياض الصالحين  للإمام النوويّ رضي الله عنه أ.د. يسري جبر","publishedAt":"2021-01-13T08:56:27Z","duration":"PT37M48S","thumbnail":"https://i.ytimg.com/vi/8BYUdSpPYl8/mqdefault.jpg","viewCount":"6527","playlistId":"PLEkQk5xrP-tkc9DXvSLguqX5-FYp6ASR4","playlistName":"دليل الفالحين لطرق رياض الصالحين","category":"متنوع"},{"id":"rDtAll8Hky8","title":"11-  حقيقةُ النيَّة - شرح حديث\"إِنَّمَا الأَعْمَالُ بِالنِّيَّات، وإِنَّمَا لكُلِّ امْرِئٍ ما نَوَى\"","publishedAt":"2021-01-29T07:01:02Z","duration":"PT37M54S","thumbnail":"https://i.ytimg.com/vi/rDtAll8Hky8/mqdefault.jpg","viewCount":"5627","playlistId":"PLEkQk5xrP-tkc9DXvSLguqX5-FYp6ASR4","playlistName":"دليل الفالحين لطرق رياض الصالحين","category":"متنوع"},{"id":"c0KaIgF_v7Q","title":"243- استحباب العُزْلة عند فساد الزمان - شرح دليل الفالحين","publishedAt":"2022-05-08T20:00:05Z","duration":"PT47M55S","thumbnail":"https://i.ytimg.com/vi/c0KaIgF_v7Q/mqdefault.jpg","viewCount":"5597","playlistId":"PLEkQk5xrP-tkc9DXvSLguqX5-FYp6ASR4","playlistName":"دليل الفالحين لطرق رياض الصالحين","category":"متنوع"},{"id":"sQVNfOyWcOY","title":"17- \"إنَّ الله تعالى لا ينظر إلى أجسامكم ولا إلى صوركم ولكن ينظر إلى قلوبكم\" شرح كتاب دليل الفالحين","publishedAt":"2021-02-10T08:57:36Z","duration":"PT39M53S","thumbnail":"https://i.ytimg.com/vi/sQVNfOyWcOY/mqdefault.jpg","viewCount":"5270","playlistId":"PLEkQk5xrP-tkc9DXvSLguqX5-FYp6ASR4","playlistName":"دليل الفالحين لطرق رياض الصالحين","category":"متنوع"},{"id":"2X7fNyCiEYQ","title":"2- التعريفُ بالشيخ ‎محمد بن علَّان صاحب كتاب دليل الفالحين أ.د. يسري جبر","publishedAt":"2021-01-11T07:18:11Z","duration":"PT24M17S","thumbnail":"https://i.ytimg.com/vi/2X7fNyCiEYQ/mqdefault.jpg","viewCount":"5212","playlistId":"PLEkQk5xrP-tkc9DXvSLguqX5-FYp6ASR4","playlistName":"دليل الفالحين لطرق رياض الصالحين","category":"متنوع"},{"id":"Eb__BTXrsQU","title":"242- حكم مَن تزوج أخته من الرضاع وأنجب منها - شرح دليل الفالحين","publishedAt":"2022-05-07T05:00:04Z","duration":"PT39M7S","thumbnail":"https://i.ytimg.com/vi/Eb__BTXrsQU/mqdefault.jpg","viewCount":"4308","playlistId":"PLEkQk5xrP-tkc9DXvSLguqX5-FYp6ASR4","playlistName":"دليل الفالحين لطرق رياض الصالحين","category":"متنوع"},{"id":"4xYCAPEPOxY","title":"154- إكرامُ أهل بيت رسول ﷺ وبيان فضلهم - شرح دليل الفالحين","publishedAt":"2021-11-07T06:06:58Z","duration":"PT51M45S","thumbnail":"https://i.ytimg.com/vi/4xYCAPEPOxY/mqdefault.jpg","viewCount":"4226","playlistId":"PLEkQk5xrP-tkc9DXvSLguqX5-FYp6ASR4","playlistName":"دليل الفالحين لطرق رياض الصالحين","category":"متنوع"},{"id":"G8kp4t6C-LU","title":"13- الحديث الثاني\" يغزو جيشٌ الكعبة...\" شرح كتاب دليل الفالحين لطرق رياض الصالحين","publishedAt":"2021-02-02T07:03:47Z","duration":"PT22M6S","thumbnail":"https://i.ytimg.com/vi/G8kp4t6C-LU/mqdefault.jpg","viewCount":"4185","playlistId":"PLEkQk5xrP-tkc9DXvSLguqX5-FYp6ASR4","playlistName":"دليل الفالحين لطرق رياض الصالحين","category":"متنوع"},{"id":"6pMzIkmm4FA","title":"72- الحث على الازدياد من الخير في أواخر العمر - شرح دليل الفالحين","publishedAt":"2021-06-01T22:06:05Z","duration":"PT32M11S","thumbnail":"https://i.ytimg.com/vi/6pMzIkmm4FA/mqdefault.jpg","viewCount":"4164","playlistId":"PLEkQk5xrP-tkc9DXvSLguqX5-FYp6ASR4","playlistName":"دليل الفالحين لطرق رياض الصالحين","category":"متنوع"},{"id":"feJdVubaISQ","title":"169- علاماتُ حُبِّ الله تعالى العبدَ والحَثِّ على التَّخلُّق بها - شرح دليل الفالحين","publishedAt":"2021-12-17T19:34:22Z","duration":"PT40M4S","thumbnail":"https://i.ytimg.com/vi/feJdVubaISQ/mqdefault.jpg","viewCount":"4108","playlistId":"PLEkQk5xrP-tkc9DXvSLguqX5-FYp6ASR4","playlistName":"دليل الفالحين لطرق رياض الصالحين","category":"متنوع"},{"id":"AwX-7jv6qkE","title":"110- “إنَّ الزَّمانَ قد استدار كهيئتِه يومَ خَلَق اللهُ السَّمواتِ والأرض…”- شرح دليل الفالحين","publishedAt":"2021-08-10T06:01:08Z","duration":"PT59M4S","thumbnail":"https://i.ytimg.com/vi/AwX-7jv6qkE/mqdefault.jpg","viewCount":"3734","playlistId":"PLEkQk5xrP-tkc9DXvSLguqX5-FYp6ASR4","playlistName":"دليل الفالحين لطرق رياض الصالحين","category":"متنوع"},{"id":"xzKO3VhESMY","title":"252- ما من شيءٍ أثقلُ في موازين  المؤمنِ يومَ القيامةِ من حُسْنِ الخُلُق - شرح دليل الفالحين","publishedAt":"2022-05-23T05:15:01Z","duration":"PT18M12S","thumbnail":"https://i.ytimg.com/vi/xzKO3VhESMY/mqdefault.jpg","viewCount":"3662","playlistId":"PLEkQk5xrP-tkc9DXvSLguqX5-FYp6ASR4","playlistName":"دليل الفالحين لطرق رياض الصالحين","category":"متنوع"},{"id":"BNjZqXwrDyo","title":"136- \"إذا دعا الرَّجلُ زوجتَهُ لحاجتِهِ فلتأتِهِ وإن كانت على التَّنُّورِ\" - شرح دليل الفالحين","publishedAt":"2021-10-04T06:19:30Z","duration":"PT36M2S","thumbnail":"https://i.ytimg.com/vi/BNjZqXwrDyo/mqdefault.jpg","viewCount":"3566","playlistId":"PLEkQk5xrP-tkc9DXvSLguqX5-FYp6ASR4","playlistName":"دليل الفالحين لطرق رياض الصالحين","category":"متنوع"},{"id":"l_TvV12zKTI","title":"4- تكملة مقدمة كتاب رياض الصالحين وتعليق الشارح عليها - شرح دليل الفالحين أ.د. يسري جبر","publishedAt":"2021-01-15T07:52:06Z","duration":"PT40M41S","thumbnail":"https://i.ytimg.com/vi/l_TvV12zKTI/mqdefault.jpg","viewCount":"3492","playlistId":"PLEkQk5xrP-tkc9DXvSLguqX5-FYp6ASR4","playlistName":"دليل الفالحين لطرق رياض الصالحين","category":"متنوع"},{"id":"BXq8WyWC94Q","title":"10- تكملة شرح حديث \"إِنَّمَا الأَعْمَالُ بِالنِّيَّاتِ، وَإِنَّمَا لِكُلِّ امْرِئٍ مَا نَوَى\"","publishedAt":"2021-01-27T07:14:19Z","duration":"PT32M10S","thumbnail":"https://i.ytimg.com/vi/BXq8WyWC94Q/mqdefault.jpg","viewCount":"3460","playlistId":"PLEkQk5xrP-tkc9DXvSLguqX5-FYp6ASR4","playlistName":"دليل الفالحين لطرق رياض الصالحين","category":"متنوع"},{"id":"xYydgq0Wgn0","title":"22- شروط التوبة”2” \"عجائب التوبة تشمل الماضي والحاضر والمستقبل\" شرح كتاب دليل الفالحين.","publishedAt":"2021-02-24T09:08:38Z","duration":"PT35M40S","thumbnail":"https://i.ytimg.com/vi/xYydgq0Wgn0/mqdefault.jpg","viewCount":"3431","playlistId":"PLEkQk5xrP-tkc9DXvSLguqX5-FYp6ASR4","playlistName":"دليل الفالحين لطرق رياض الصالحين","category":"متنوع"},{"id":"k52w4U53VgM","title":"87- \"وعَظَنَا رسولُ الله ﷺ مَوْعظَةً وجِلَتْ منها القلوبُ، وذَرَفَت منها العيونُ…\" شرح دليل الفالحين","publishedAt":"2021-07-01T18:04:48Z","duration":"PT36M59S","thumbnail":"https://i.ytimg.com/vi/k52w4U53VgM/mqdefault.jpg","viewCount":"3412","playlistId":"PLEkQk5xrP-tkc9DXvSLguqX5-FYp6ASR4","playlistName":"دليل الفالحين لطرق رياض الصالحين","category":"متنوع"},{"id":"x9LBWk6J3DI","title":"12- \"ومن كانت هجرته لدنيا يصيبها..\" تكملة شرح حديث\"إنَّما الأعمال بالنيّات، وإنَما لكل امرئٍ ما نوى\"","publishedAt":"2021-01-31T08:02:39Z","duration":"PT47M39S","thumbnail":"https://i.ytimg.com/vi/x9LBWk6J3DI/mqdefault.jpg","viewCount":"3328","playlistId":"PLEkQk5xrP-tkc9DXvSLguqX5-FYp6ASR4","playlistName":"دليل الفالحين لطرق رياض الصالحين","category":"متنوع"},{"id":"pmOVzUJ9xQA","title":"97- \"مَنْ رأى منكم مُنكراً فلْيُغيِّرْه بيده، فإن لم يستطِعْ فبلسانه…\" شرح دليل الفالحين","publishedAt":"2021-07-13T05:24:44Z","duration":"PT39M20S","thumbnail":"https://i.ytimg.com/vi/pmOVzUJ9xQA/mqdefault.jpg","viewCount":"3265","playlistId":"PLEkQk5xrP-tkc9DXvSLguqX5-FYp6ASR4","playlistName":"دليل الفالحين لطرق رياض الصالحين","category":"متنوع"},{"id":"D6rQj6nl7sw","title":"39- \"كان مَلِكٌ فيمَن كان قَبلَكُم، وكان له ساحِرٌ..\" الحديث السادس: باب الصَّبر - شرح دليل الفالحين","publishedAt":"2021-04-03T07:08:21Z","duration":"PT50M23S","thumbnail":"https://i.ytimg.com/vi/D6rQj6nl7sw/mqdefault.jpg","viewCount":"3253","playlistId":"PLEkQk5xrP-tkc9DXvSLguqX5-FYp6ASR4","playlistName":"دليل الفالحين لطرق رياض الصالحين","category":"متنوع"}],"total":504,"page":1,"pageSize":24,"totalPages":21}