{"items":[{"id":"kerz91oNWmE","title":"25 - المسحُ على الخُفَّين - شرح دليل الفالحين","publishedAt":"2021-03-05T07:48:46Z","duration":"PT38M5S","thumbnail":"https://i.ytimg.com/vi/kerz91oNWmE/mqdefault.jpg","viewCount":"1664","playlistId":"PLEkQk5xrP-tkc9DXvSLguqX5-FYp6ASR4","playlistName":"دليل الفالحين لطرق رياض الصالحين","category":"متنوع"},{"id":"uJcXc8cv9Y8","title":"26 - المسح على الخُفَّين (2) - شرح دليل الفالحين","publishedAt":"2021-03-08T07:03:31Z","duration":"PT29M22S","thumbnail":"https://i.ytimg.com/vi/uJcXc8cv9Y8/mqdefault.jpg","viewCount":"1251","playlistId":"PLEkQk5xrP-tkc9DXvSLguqX5-FYp6ASR4","playlistName":"دليل الفالحين لطرق رياض الصالحين","category":"متنوع"},{"id":"G9nBAqXWc5c","title":"27- \"كان فيمن كان قبلكم رجلٌ قتل تسعة وتسعين نفسًا، فسأل عن أعلم أهل الأرض..\" - شرح دليل الفالحين","publishedAt":"2021-03-10T07:53:52Z","duration":"PT35M14S","thumbnail":"https://i.ytimg.com/vi/G9nBAqXWc5c/mqdefault.jpg","viewCount":"2728","playlistId":"PLEkQk5xrP-tkc9DXvSLguqX5-FYp6ASR4","playlistName":"دليل الفالحين لطرق رياض الصالحين","category":"متنوع"},{"id":"ZaEOCOb2MXw","title":"28- باب التوبة: الحديث التاسع - شرح دليل الفالحين لطُرُق رياض الصالحين","publishedAt":"2021-03-12T06:51:28Z","duration":"PT23M","thumbnail":"https://i.ytimg.com/vi/ZaEOCOb2MXw/mqdefault.jpg","viewCount":"1303","playlistId":"PLEkQk5xrP-tkc9DXvSLguqX5-FYp6ASR4","playlistName":"دليل الفالحين لطرق رياض الصالحين","category":"متنوع"},{"id":"2XFtrvIZg_A","title":"29- باب التوبة: الحديث التاسع (2) شرح دليل الفالحين لطُرُق رياض الصالحين","publishedAt":"2021-03-15T06:25:13Z","duration":"PT48M14S","thumbnail":"https://i.ytimg.com/vi/2XFtrvIZg_A/mqdefault.jpg","viewCount":"1301","playlistId":"PLEkQk5xrP-tkc9DXvSLguqX5-FYp6ASR4","playlistName":"دليل الفالحين لطرق رياض الصالحين","category":"متنوع"},{"id":"jWvaIDImBFY","title":"30- باب التوبة: الحديث التاسع (3) شرح دليل الفالحين لطُرُق رياض الصالحين","publishedAt":"2021-03-17T08:28:02Z","duration":"PT41M53S","thumbnail":"https://i.ytimg.com/vi/jWvaIDImBFY/mqdefault.jpg","viewCount":"1412","playlistId":"PLEkQk5xrP-tkc9DXvSLguqX5-FYp6ASR4","playlistName":"دليل الفالحين لطرق رياض الصالحين","category":"متنوع"},{"id":"A6iwn2_5NWc","title":"31- باب التوبة: الحديث التاسع (4) شرح دليل الفالحين لطُرُق رياض الصالحين","publishedAt":"2021-03-19T07:15:17Z","duration":"PT41M32S","thumbnail":"https://i.ytimg.com/vi/A6iwn2_5NWc/mqdefault.jpg","viewCount":"1218","playlistId":"PLEkQk5xrP-tkc9DXvSLguqX5-FYp6ASR4","playlistName":"دليل الفالحين لطرق رياض الصالحين","category":"متنوع"},{"id":"iROGHTNUlZ4","title":"32- باب التوبة: الحديث التاسع (5) شرح دليل الفالحين لطُرُق رياض الصالحين","publishedAt":"2021-03-21T07:10:44Z","duration":"PT37M46S","thumbnail":"https://i.ytimg.com/vi/iROGHTNUlZ4/mqdefault.jpg","viewCount":"1158","playlistId":"PLEkQk5xrP-tkc9DXvSLguqX5-FYp6ASR4","playlistName":"دليل الفالحين لطرق رياض الصالحين","category":"متنوع"},{"id":"xIe0VWe0i6o","title":"33- باب التوبة: الحديث العاشر - شرح دليل الفالحين لطُرُق رياض الصالحين","publishedAt":"2021-03-22T20:43:11Z","duration":"PT31M10S","thumbnail":"https://i.ytimg.com/vi/xIe0VWe0i6o/mqdefault.jpg","viewCount":"1202","playlistId":"PLEkQk5xrP-tkc9DXvSLguqX5-FYp6ASR4","playlistName":"دليل الفالحين لطرق رياض الصالحين","category":"متنوع"},{"id":"XoaJT7MnFaw","title":"34- باب الثالث: باب الصبر - شرح دليل الفالحين لطُرُق رياض الصالحين","publishedAt":"2021-03-25T07:34:49Z","duration":"PT31M6S","thumbnail":"https://i.ytimg.com/vi/XoaJT7MnFaw/mqdefault.jpg","viewCount":"2261","playlistId":"PLEkQk5xrP-tkc9DXvSLguqX5-FYp6ASR4","playlistName":"دليل الفالحين لطرق رياض الصالحين","category":"متنوع"},{"id":"lOcCFJqLM-0","title":"35- بابُ الصَّبر:الحديثُ الأول \"...والحمدُ للهِ تملأُ الميزانَ...\" شرح دليل الفالحين","publishedAt":"2021-03-27T05:49:09Z","duration":"PT33M36S","thumbnail":"https://i.ytimg.com/vi/lOcCFJqLM-0/mqdefault.jpg","viewCount":"1533","playlistId":"PLEkQk5xrP-tkc9DXvSLguqX5-FYp6ASR4","playlistName":"دليل الفالحين لطرق رياض الصالحين","category":"متنوع"},{"id":"4w-utGfQa2w","title":"36- باب الصَّبر:الحديث الثاني\"أنَّ ناسًا من الأنصارِ سألوا رسولَ الله ﷺ فأعطاهم...\"شرح دليل الفالحين","publishedAt":"2021-03-29T05:13:28Z","duration":"PT33M46S","thumbnail":"https://i.ytimg.com/vi/4w-utGfQa2w/mqdefault.jpg","viewCount":"1458","playlistId":"PLEkQk5xrP-tkc9DXvSLguqX5-FYp6ASR4","playlistName":"دليل الفالحين لطرق رياض الصالحين","category":"متنوع"},{"id":"k7W8mMw6LdM","title":"37- بابُ الصَّبر: الحديثُ الرابع\"..ليسَ علَى أبِيكِ كَرْبٌ بَعْدَ اليَومِ..\"شرح دليل الفالحين","publishedAt":"2021-03-31T05:54:07Z","duration":"PT22M55S","thumbnail":"https://i.ytimg.com/vi/k7W8mMw6LdM/mqdefault.jpg","viewCount":"1046","playlistId":"PLEkQk5xrP-tkc9DXvSLguqX5-FYp6ASR4","playlistName":"دليل الفالحين لطرق رياض الصالحين","category":"متنوع"},{"id":"BoFyOZODmT4","title":"38- هل البكاء ضد الصَّبر؟ من بابُ الصَّبر: الحديثُ الخامس - شرح دليل الفالحين","publishedAt":"2021-04-01T05:50:08Z","duration":"PT35M33S","thumbnail":"https://i.ytimg.com/vi/BoFyOZODmT4/mqdefault.jpg","viewCount":"1690","playlistId":"PLEkQk5xrP-tkc9DXvSLguqX5-FYp6ASR4","playlistName":"دليل الفالحين لطرق رياض الصالحين","category":"متنوع"},{"id":"D6rQj6nl7sw","title":"39- \"كان مَلِكٌ فيمَن كان قَبلَكُم، وكان له ساحِرٌ..\" الحديث السادس: باب الصَّبر - شرح دليل الفالحين","publishedAt":"2021-04-03T07:08:21Z","duration":"PT50M23S","thumbnail":"https://i.ytimg.com/vi/D6rQj6nl7sw/mqdefault.jpg","viewCount":"3253","playlistId":"PLEkQk5xrP-tkc9DXvSLguqX5-FYp6ASR4","playlistName":"دليل الفالحين لطرق رياض الصالحين","category":"متنوع"},{"id":"RontIqQsLqQ","title":"40- \"مرَّ النبيُّ ﷺ بامرأة تبكي عند قبر...\"الحديث السابع: باب الصَّبر - شرح دليل الفالحين","publishedAt":"2021-04-05T06:28:26Z","duration":"PT29M24S","thumbnail":"https://i.ytimg.com/vi/RontIqQsLqQ/mqdefault.jpg","viewCount":"1754","playlistId":"PLEkQk5xrP-tkc9DXvSLguqX5-FYp6ASR4","playlistName":"دليل الفالحين لطرق رياض الصالحين","category":"متنوع"},{"id":"vxvxKEgo7sU","title":"41- \"...ألا أُرِيكَ امْرَأَةً من أهل الجنَّة؟ قلتُ: بلى...\"الحديث(11)باب الصَّبر - شرح دليل الفالحين","publishedAt":"2021-04-07T06:21:32Z","duration":"PT37M22S","thumbnail":"https://i.ytimg.com/vi/vxvxKEgo7sU/mqdefault.jpg","viewCount":"1880","playlistId":"PLEkQk5xrP-tkc9DXvSLguqX5-FYp6ASR4","playlistName":"دليل الفالحين لطرق رياض الصالحين","category":"متنوع"},{"id":"doT9cgDG4EQ","title":"42-\"مَنْ يُرِدِ اللَّهُ بِهِ خَيْرًا، يُصِبْ مِنْهُ\" الحديث( 15) باب الصَّبر - شرح دليل الفالحين","publishedAt":"2021-04-09T05:21:45Z","duration":"PT33M8S","thumbnail":"https://i.ytimg.com/vi/doT9cgDG4EQ/mqdefault.jpg","viewCount":"2592","playlistId":"PLEkQk5xrP-tkc9DXvSLguqX5-FYp6ASR4","playlistName":"دليل الفالحين لطرق رياض الصالحين","category":"متنوع"},{"id":"ZMisdo1HiSg","title":"43-\"لما كان يوم حُنينٍ آثر رسولُ اللهِ ﷺ ناسا في القسمة...\" الحديث( 18)باب الصّبر- شرح دليل الفالحين","publishedAt":"2021-04-11T06:06:16Z","duration":"PT27M59S","thumbnail":"https://i.ytimg.com/vi/ZMisdo1HiSg/mqdefault.jpg","viewCount":"1105","playlistId":"PLEkQk5xrP-tkc9DXvSLguqX5-FYp6ASR4","playlistName":"دليل الفالحين لطرق رياض الصالحين","category":"متنوع"},{"id":"N4kDK7LaPgY","title":"44-“كان ابن لأبي طلحة يشتكي فخرج أبو طلحة فقُبض الصَّبي...”الحديث( 21)باب الصّبر - شرح دليل الفالحين","publishedAt":"2021-04-14T07:04:43Z","duration":"PT37M43S","thumbnail":"https://i.ytimg.com/vi/N4kDK7LaPgY/mqdefault.jpg","viewCount":"1606","playlistId":"PLEkQk5xrP-tkc9DXvSLguqX5-FYp6ASR4","playlistName":"دليل الفالحين لطرق رياض الصالحين","category":"متنوع"},{"id":"Wu28YRkd7OM","title":"45- “ليسَ الشَّديدُ بالصُّرَعَةِ...”الحديث ( 22) باب الصّبر - شرح دليل الفالحين","publishedAt":"2021-04-16T06:30:13Z","duration":"PT35M45S","thumbnail":"https://i.ytimg.com/vi/Wu28YRkd7OM/mqdefault.jpg","viewCount":"1138","playlistId":"PLEkQk5xrP-tkc9DXvSLguqX5-FYp6ASR4","playlistName":"دليل الفالحين لطرق رياض الصالحين","category":"متنوع"},{"id":"1XztYItae-c","title":"46- “قدم عُيينة بنُ حصْن فنزل على ابن اخيه...”الحديث ( 27) باب الصّبر - شرح دليل الفالحين","publishedAt":"2021-04-18T06:22:34Z","duration":"PT45M50S","thumbnail":"https://i.ytimg.com/vi/1XztYItae-c/mqdefault.jpg","viewCount":"1095","playlistId":"PLEkQk5xrP-tkc9DXvSLguqX5-FYp6ASR4","playlistName":"دليل الفالحين لطرق رياض الصالحين","category":"متنوع"},{"id":"QFn-nQinP1w","title":"47-“إنَّ الصِّدقَ يَهدي إلى البِرِّ ...”الحديث (١) باب الصِّدق - شرح دليل الفالحين","publishedAt":"2021-04-20T06:00:04Z","duration":"PT35M3S","thumbnail":"https://i.ytimg.com/vi/QFn-nQinP1w/mqdefault.jpg","viewCount":"1405","playlistId":"PLEkQk5xrP-tkc9DXvSLguqX5-FYp6ASR4","playlistName":"دليل الفالحين لطرق رياض الصالحين","category":"متنوع"},{"id":"jjeETr-F3KE","title":"48-“أَخْبَرَنِي أبو سُفْيَانَ، أنَّ هِرَقْلَ قَالَ له ...”الحديث (3) باب الصِّدق - شرح دليل الفالحين","publishedAt":"2021-04-22T05:54:01Z","duration":"PT37M29S","thumbnail":"https://i.ytimg.com/vi/jjeETr-F3KE/mqdefault.jpg","viewCount":"1041","playlistId":"PLEkQk5xrP-tkc9DXvSLguqX5-FYp6ASR4","playlistName":"دليل الفالحين لطرق رياض الصالحين","category":"متنوع"}],"total":504,"page":2,"pageSize":24,"totalPages":21}