{"items":[{"id":"bM02sBArJwA","title":"73- \"… سُبْحَانَكَ رَبَّنَا وبِحَمْدِكَ، اللهمَّ اغْفِرْ لِي\" - شرح دليل الفالحين","publishedAt":"2021-06-04T05:31:31Z","duration":"PT23M16S","thumbnail":"https://i.ytimg.com/vi/bM02sBArJwA/mqdefault.jpg","viewCount":"1633","playlistId":"PLEkQk5xrP-tkc9DXvSLguqX5-FYp6ASR4","playlistName":"دليل الفالحين لطرق رياض الصالحين","category":"متنوع"},{"id":"GzpjyJIuX6o","title":"74- بيان كثرة طُرُق الخير\"…أيُّ الأعمالِ أفْضَلُ ؟…\" شرح دليل الفالحين","publishedAt":"2021-06-06T07:27:18Z","duration":"PT34M3S","thumbnail":"https://i.ytimg.com/vi/GzpjyJIuX6o/mqdefault.jpg","viewCount":"1659","playlistId":"PLEkQk5xrP-tkc9DXvSLguqX5-FYp6ASR4","playlistName":"دليل الفالحين لطرق رياض الصالحين","category":"متنوع"},{"id":"5Ia_Dhcpr5Q","title":"75- \"يُصْبِحُ على كُلِّ سُلامَى من أحدكُمْ صدَقَةٌ، فكُلُّ تَسْبِيحَةٍ صدَقَةٌ، …\" شرح دليل الفالحين","publishedAt":"2021-06-08T07:01:06Z","duration":"PT35M13S","thumbnail":"https://i.ytimg.com/vi/5Ia_Dhcpr5Q/mqdefault.jpg","viewCount":"1192","playlistId":"PLEkQk5xrP-tkc9DXvSLguqX5-FYp6ASR4","playlistName":"دليل الفالحين لطرق رياض الصالحين","category":"متنوع"},{"id":"yfk0m1yx60w","title":"76- \"…لا تَحْقِرَنَّ مِنَ المَعروفِ شيئًا، ولو أنْ تَلْقَى أخاكَ بوَجْهٍ طَلْقٍ\" شرح دليل الفالحين","publishedAt":"2021-06-10T05:36:59Z","duration":"PT40M43S","thumbnail":"https://i.ytimg.com/vi/yfk0m1yx60w/mqdefault.jpg","viewCount":"1492","playlistId":"PLEkQk5xrP-tkc9DXvSLguqX5-FYp6ASR4","playlistName":"دليل الفالحين لطرق رياض الصالحين","category":"متنوع"},{"id":"-Hr0QDUCE1w","title":"77- \"الإِيمانُ بضْعٌ وسَبْعُونَ، أوْ بضْعٌ وسِتُّونَ، شُعْبَةً،…\" شرح دليل الفالحين","publishedAt":"2021-06-13T05:31:27Z","duration":"PT45M32S","thumbnail":"https://i.ytimg.com/vi/-Hr0QDUCE1w/mqdefault.jpg","viewCount":"1655","playlistId":"PLEkQk5xrP-tkc9DXvSLguqX5-FYp6ASR4","playlistName":"دليل الفالحين لطرق رياض الصالحين","category":"متنوع"},{"id":"KzlBISW8xUg","title":"78- \"لقَدْ رَأَيْتُ رَجُلًا يَتَقَلَّبُ في الجَنَّةِ،…\" شرح دليل الفالحين","publishedAt":"2021-06-15T05:50:29Z","duration":"PT39M22S","thumbnail":"https://i.ytimg.com/vi/KzlBISW8xUg/mqdefault.jpg","viewCount":"2398","playlistId":"PLEkQk5xrP-tkc9DXvSLguqX5-FYp6ASR4","playlistName":"دليل الفالحين لطرق رياض الصالحين","category":"متنوع"},{"id":"ZbgApBtAxyY","title":"79-\"أَلا أدُلُّكُمْ علَى ما يَمْحُو اللهُ به الخَطايا، ويَرْفَعُ به الدَّرَجاتِ؟…\" شرح دليل الفالحين","publishedAt":"2021-06-17T05:36:23Z","duration":"PT33M26S","thumbnail":"https://i.ytimg.com/vi/ZbgApBtAxyY/mqdefault.jpg","viewCount":"3045","playlistId":"PLEkQk5xrP-tkc9DXvSLguqX5-FYp6ASR4","playlistName":"دليل الفالحين لطرق رياض الصالحين","category":"متنوع"},{"id":"unnpxJqWAnQ","title":"80-\"كانَ رَجُلٌ لا أَعْلَمُ رَجُلًا أَبْعَدَ مِنَ المَسْجِدِ منه،…\" شرح دليل الفالحين","publishedAt":"2021-06-19T06:27:38Z","duration":"PT35M23S","thumbnail":"https://i.ytimg.com/vi/unnpxJqWAnQ/mqdefault.jpg","viewCount":"1465","playlistId":"PLEkQk5xrP-tkc9DXvSLguqX5-FYp6ASR4","playlistName":"دليل الفالحين لطرق رياض الصالحين","category":"متنوع"},{"id":"I9Fz8qNs0Rk","title":"81- الاقتصاد في العبادة - شرح دليل الفالحين","publishedAt":"2021-06-20T22:12:37Z","duration":"PT34M5S","thumbnail":"https://i.ytimg.com/vi/I9Fz8qNs0Rk/mqdefault.jpg","viewCount":"1593","playlistId":"PLEkQk5xrP-tkc9DXvSLguqX5-FYp6ASR4","playlistName":"دليل الفالحين لطرق رياض الصالحين","category":"متنوع"},{"id":"rFnjA0wgwK8","title":"82- \"هَلَكَ المُتَنَطِّعُونَ\" قَالَهَا ثلاثًا - شرح دليل الفالحين","publishedAt":"2021-06-22T06:45:24Z","duration":"PT31M43S","thumbnail":"https://i.ytimg.com/vi/rFnjA0wgwK8/mqdefault.jpg","viewCount":"1921","playlistId":"PLEkQk5xrP-tkc9DXvSLguqX5-FYp6ASR4","playlistName":"دليل الفالحين لطرق رياض الصالحين","category":"متنوع"},{"id":"LnaLUJ33M_w","title":"83- \"آخى النَّبيُّ ﷺ بين سلمان وأبي الدَّرداء، فزار سلمانُ أبا الدَّرداء…،\" - شرح دليل الفالحين","publishedAt":"2021-06-25T07:51:01Z","duration":"PT52M8S","thumbnail":"https://i.ytimg.com/vi/LnaLUJ33M_w/mqdefault.jpg","viewCount":"1406","playlistId":"PLEkQk5xrP-tkc9DXvSLguqX5-FYp6ASR4","playlistName":"دليل الفالحين لطرق رياض الصالحين","category":"متنوع"},{"id":"UwtlTXhbySc","title":"84- \"لا صام مَن صام الأبد\" - شرح دليل الفالحين","publishedAt":"2021-06-27T05:49:46Z","duration":"PT44M6S","thumbnail":"https://i.ytimg.com/vi/UwtlTXhbySc/mqdefault.jpg","viewCount":"1163","playlistId":"PLEkQk5xrP-tkc9DXvSLguqX5-FYp6ASR4","playlistName":"دليل الفالحين لطرق رياض الصالحين","category":"متنوع"},{"id":"qlua6Idnp2Y","title":"85- المحافظة على الأعمال - شرح دليل الفالحين","publishedAt":"2021-06-29T08:39:15Z","duration":"PT28M52S","thumbnail":"https://i.ytimg.com/vi/qlua6Idnp2Y/mqdefault.jpg","viewCount":"1217","playlistId":"PLEkQk5xrP-tkc9DXvSLguqX5-FYp6ASR4","playlistName":"دليل الفالحين لطرق رياض الصالحين","category":"متنوع"},{"id":"Yf2S7BIPbAY","title":"86- المحافظةُ على السُّنَّة وآدابها \"دَعُونِي مَا تَرَكْتُكُم…\" شرح دليل الفالحين","publishedAt":"2021-06-30T19:49:49Z","duration":"PT37M29S","thumbnail":"https://i.ytimg.com/vi/Yf2S7BIPbAY/mqdefault.jpg","viewCount":"1741","playlistId":"PLEkQk5xrP-tkc9DXvSLguqX5-FYp6ASR4","playlistName":"دليل الفالحين لطرق رياض الصالحين","category":"متنوع"},{"id":"k52w4U53VgM","title":"87- \"وعَظَنَا رسولُ الله ﷺ مَوْعظَةً وجِلَتْ منها القلوبُ، وذَرَفَت منها العيونُ…\" شرح دليل الفالحين","publishedAt":"2021-07-01T18:04:48Z","duration":"PT36M59S","thumbnail":"https://i.ytimg.com/vi/k52w4U53VgM/mqdefault.jpg","viewCount":"3412","playlistId":"PLEkQk5xrP-tkc9DXvSLguqX5-FYp6ASR4","playlistName":"دليل الفالحين لطرق رياض الصالحين","category":"متنوع"},{"id":"WGW5zN9INfM","title":"88- \"أنَّ رَجُلًا أَكَلَ عِنْدَ رَسولِ اللهِ ﷺ بشِمَالِه، فَقال: كُلْ بيَمِينِكَ…\" شرح دليل الفالحين","publishedAt":"2021-07-03T09:47:01Z","duration":"PT52M24S","thumbnail":"https://i.ytimg.com/vi/WGW5zN9INfM/mqdefault.jpg","viewCount":"1349","playlistId":"PLEkQk5xrP-tkc9DXvSLguqX5-FYp6ASR4","playlistName":"دليل الفالحين لطرق رياض الصالحين","category":"متنوع"},{"id":"s-4U9bcnU8g","title":"89- \"مثلي ومثلُكم كمثلِ رجلٍ أوقدَ نارًا ، فجعل الفراشُ ، والجنادِبُ يقعْنَ فيها…\" شرح دليل الفالحين","publishedAt":"2021-07-04T05:32:54Z","duration":"PT49M39S","thumbnail":"https://i.ytimg.com/vi/s-4U9bcnU8g/mqdefault.jpg","viewCount":"1748","playlistId":"PLEkQk5xrP-tkc9DXvSLguqX5-FYp6ASR4","playlistName":"دليل الفالحين لطرق رياض الصالحين","category":"متنوع"},{"id":"hSbijMb06cA","title":"90- بابٌ في وُجُوبِ الانقيادِ لحُكْمِ الله تَعالَى… - شرح دليل الفالحين","publishedAt":"2021-07-04T20:44:05Z","duration":"PT48M30S","thumbnail":"https://i.ytimg.com/vi/hSbijMb06cA/mqdefault.jpg","viewCount":"1334","playlistId":"PLEkQk5xrP-tkc9DXvSLguqX5-FYp6ASR4","playlistName":"دليل الفالحين لطرق رياض الصالحين","category":"متنوع"},{"id":"4bF2TSaCJNk","title":"91- بابٌ في النَّهْي عن البِدَعِ ومُحْدَثَاتِ الأُمُور - شرح دليل الفالحين","publishedAt":"2021-07-06T05:37:39Z","duration":"PT34M17S","thumbnail":"https://i.ytimg.com/vi/4bF2TSaCJNk/mqdefault.jpg","viewCount":"1715","playlistId":"PLEkQk5xrP-tkc9DXvSLguqX5-FYp6ASR4","playlistName":"دليل الفالحين لطرق رياض الصالحين","category":"متنوع"},{"id":"pQgC8c-o6h8","title":"92- مَنْ سَنَّ سُنَّةً حَسَنةً أو سَيِّئةً - شرح دليل الفالحين","publishedAt":"2021-07-06T19:49:49Z","duration":"PT45M42S","thumbnail":"https://i.ytimg.com/vi/pQgC8c-o6h8/mqdefault.jpg","viewCount":"1599","playlistId":"PLEkQk5xrP-tkc9DXvSLguqX5-FYp6ASR4","playlistName":"دليل الفالحين لطرق رياض الصالحين","category":"متنوع"},{"id":"xLCfweLKY8U","title":"93- الدلالة على خير والدعاء إلى هدى أو ضلالة - شرح دليل الفالحين","publishedAt":"2021-07-07T13:27:22Z","duration":"PT44M15S","thumbnail":"https://i.ytimg.com/vi/xLCfweLKY8U/mqdefault.jpg","viewCount":"1214","playlistId":"PLEkQk5xrP-tkc9DXvSLguqX5-FYp6ASR4","playlistName":"دليل الفالحين لطرق رياض الصالحين","category":"متنوع"},{"id":"4GbYMUQMH3c","title":"94- التعاون على البِرِّ والتَّقْوى - شرح دليل الفالحين","publishedAt":"2021-07-08T05:32:35Z","duration":"PT45M15S","thumbnail":"https://i.ytimg.com/vi/4GbYMUQMH3c/mqdefault.jpg","viewCount":"1066","playlistId":"PLEkQk5xrP-tkc9DXvSLguqX5-FYp6ASR4","playlistName":"دليل الفالحين لطرق رياض الصالحين","category":"متنوع"},{"id":"4PeYKM2TPdE","title":"95- \"الدِّينُ النَّصِيحَة…\" - شرح دليل الفالحين","publishedAt":"2021-07-09T05:21:50Z","duration":"PT31M38S","thumbnail":"https://i.ytimg.com/vi/4PeYKM2TPdE/mqdefault.jpg","viewCount":"1228","playlistId":"PLEkQk5xrP-tkc9DXvSLguqX5-FYp6ASR4","playlistName":"دليل الفالحين لطرق رياض الصالحين","category":"متنوع"},{"id":"X5TsaZIfvDI","title":"96- الأمر بالمعروف والنهي عن المنكر - شرح دليل الفالحين","publishedAt":"2021-07-11T06:49:33Z","duration":"PT17M38S","thumbnail":"https://i.ytimg.com/vi/X5TsaZIfvDI/mqdefault.jpg","viewCount":"1022","playlistId":"PLEkQk5xrP-tkc9DXvSLguqX5-FYp6ASR4","playlistName":"دليل الفالحين لطرق رياض الصالحين","category":"متنوع"}],"total":504,"page":4,"pageSize":24,"totalPages":21}