{"items":[{"id":"feJdVubaISQ","title":"169- علاماتُ حُبِّ الله تعالى العبدَ والحَثِّ على التَّخلُّق بها - شرح دليل الفالحين","publishedAt":"2021-12-17T19:34:22Z","duration":"PT40M4S","thumbnail":"https://i.ytimg.com/vi/feJdVubaISQ/mqdefault.jpg","viewCount":"4108","playlistId":"PLEkQk5xrP-tkc9DXvSLguqX5-FYp6ASR4","playlistName":"دليل الفالحين لطرق رياض الصالحين","category":"متنوع"},{"id":"QQ2J31qxlHw","title":"170- إِذا أحبَّ اللَّهُ العبدَ نادى جِبْرِيل: إنَّ اللَّهَ يُحبُّ فلانًا فأحْببه - شرح دليل الفالحين","publishedAt":"2021-12-19T07:23:02Z","duration":"PT27M24S","thumbnail":"https://i.ytimg.com/vi/QQ2J31qxlHw/mqdefault.jpg","viewCount":"1926","playlistId":"PLEkQk5xrP-tkc9DXvSLguqX5-FYp6ASR4","playlistName":"دليل الفالحين لطرق رياض الصالحين","category":"متنوع"},{"id":"FI4KwtZFxrA","title":"171- التحذير من إيذاء الصالحين والضعفاء والمساكين - شرح دليل الفالحين","publishedAt":"2021-12-21T07:55:45Z","duration":"PT21M42S","thumbnail":"https://i.ytimg.com/vi/FI4KwtZFxrA/mqdefault.jpg","viewCount":"3107","playlistId":"PLEkQk5xrP-tkc9DXvSLguqX5-FYp6ASR4","playlistName":"دليل الفالحين لطرق رياض الصالحين","category":"متنوع"},{"id":"-Lvb-_Hb81M","title":"172- إجراءُ أحكام الناس على الظاهر وسرائرهم إلى الله تعالى - شرح دليل الفالحين","publishedAt":"2021-12-23T07:09:28Z","duration":"PT42M44S","thumbnail":"https://i.ytimg.com/vi/-Lvb-_Hb81M/mqdefault.jpg","viewCount":"1628","playlistId":"PLEkQk5xrP-tkc9DXvSLguqX5-FYp6ASR4","playlistName":"دليل الفالحين لطرق رياض الصالحين","category":"متنوع"},{"id":"c3gNlBB1uw4","title":"173- \"أَقتَلْتَهُ بَعْدَمَا قالَ لَا إِلهَ إِلَّا الله؟!\" - شرح دليل الفالحين","publishedAt":"2021-12-24T20:16:23Z","duration":"PT31M52S","thumbnail":"https://i.ytimg.com/vi/c3gNlBB1uw4/mqdefault.jpg","viewCount":"986","playlistId":"PLEkQk5xrP-tkc9DXvSLguqX5-FYp6ASR4","playlistName":"دليل الفالحين لطرق رياض الصالحين","category":"متنوع"},{"id":"gnvcVzXicrc","title":"174- الخوف - شرح دليل الفالحين","publishedAt":"2021-12-25T20:15:13Z","duration":"PT50M40S","thumbnail":"https://i.ytimg.com/vi/gnvcVzXicrc/mqdefault.jpg","viewCount":"1618","playlistId":"PLEkQk5xrP-tkc9DXvSLguqX5-FYp6ASR4","playlistName":"دليل الفالحين لطرق رياض الصالحين","category":"متنوع"},{"id":"MBv8B6U3GHY","title":"175- الإعجاز النبوي - شرح دليل الفالحين","publishedAt":"2021-12-27T07:33:08Z","duration":"PT36M53S","thumbnail":"https://i.ytimg.com/vi/MBv8B6U3GHY/mqdefault.jpg","viewCount":"1499","playlistId":"PLEkQk5xrP-tkc9DXvSLguqX5-FYp6ASR4","playlistName":"دليل الفالحين لطرق رياض الصالحين","category":"متنوع"},{"id":"qLj8_AGU5NQ","title":"176- \"يُؤْتَى بجَهَنَّمَ يَومَئذٍ لها سَبْعُونَ ألْفَ زِِمَامٍ…\" - شرح دليل الفالحين","publishedAt":"2021-12-29T20:24:02Z","duration":"PT23M41S","thumbnail":"https://i.ytimg.com/vi/qLj8_AGU5NQ/mqdefault.jpg","viewCount":"1191","playlistId":"PLEkQk5xrP-tkc9DXvSLguqX5-FYp6ASR4","playlistName":"دليل الفالحين لطرق رياض الصالحين","category":"متنوع"},{"id":"MX6m6o4g5qw","title":"177- «لو تَعْلَمُونَ ما أَعْلَمُ، لَضَحِكْتُمْ قَلِيلًا وَلَبَكَيْتُمْ كَثِيرًا»  شرح دليل الفالحين","publishedAt":"2021-12-31T19:03:05Z","duration":"PT22M51S","thumbnail":"https://i.ytimg.com/vi/MX6m6o4g5qw/mqdefault.jpg","viewCount":"1310","playlistId":"PLEkQk5xrP-tkc9DXvSLguqX5-FYp6ASR4","playlistName":"دليل الفالحين لطرق رياض الصالحين","category":"متنوع"},{"id":"t93UPfaqU3I","title":"178- \"ما منكم من أحدٍ إلا سيُكلِّمُه ربُّهُ ليس بينه وبينه تَرجمانُ…\" - شرح دليل الفالحين","publishedAt":"2022-01-02T20:43:22Z","duration":"PT31M6S","thumbnail":"https://i.ytimg.com/vi/t93UPfaqU3I/mqdefault.jpg","viewCount":"2401","playlistId":"PLEkQk5xrP-tkc9DXvSLguqX5-FYp6ASR4","playlistName":"دليل الفالحين لطرق رياض الصالحين","category":"متنوع"},{"id":"PYCxDDbeB2s","title":"179- لا تَزولُ قَدَمَا عبْدٍ يومَ القيامة، حتَّى يُسألَ عن عُمُرِه؛ فيمَ أفناه؟ - شرح دليل الفالحين","publishedAt":"2022-01-03T20:34:57Z","duration":"PT33M30S","thumbnail":"https://i.ytimg.com/vi/PYCxDDbeB2s/mqdefault.jpg","viewCount":"1342","playlistId":"PLEkQk5xrP-tkc9DXvSLguqX5-FYp6ASR4","playlistName":"دليل الفالحين لطرق رياض الصالحين","category":"متنوع"},{"id":"WUlw4JmDJSE","title":"180- الرَّجَاء - شرح دليل الفالحين","publishedAt":"2022-01-06T07:19:37Z","duration":"PT43M59S","thumbnail":"https://i.ytimg.com/vi/WUlw4JmDJSE/mqdefault.jpg","viewCount":"1448","playlistId":"PLEkQk5xrP-tkc9DXvSLguqX5-FYp6ASR4","playlistName":"دليل الفالحين لطرق رياض الصالحين","category":"متنوع"},{"id":"5lxv0_XPxjk","title":"181- \"…وَمَن تَقَرَّبَ مِنِّي شِبْرًا تَقَرَّبْتُ منه ذِرَاعًا…\" شرح دليل الفالحين","publishedAt":"2022-01-08T08:26:49Z","duration":"PT32M54S","thumbnail":"https://i.ytimg.com/vi/5lxv0_XPxjk/mqdefault.jpg","viewCount":"1979","playlistId":"PLEkQk5xrP-tkc9DXvSLguqX5-FYp6ASR4","playlistName":"دليل الفالحين لطرق رياض الصالحين","category":"متنوع"},{"id":"vd7YLbbuSmo","title":"182- \"…ما من عبدٍ يشهدُ أنَّ لا إله إلَّا اللَّه، وأنَّ مُحَمَّدا عبدُه ورسولُه…\"- شرح دليل الفالحين","publishedAt":"2022-01-09T06:53:27Z","duration":"PT31M20S","thumbnail":"https://i.ytimg.com/vi/vd7YLbbuSmo/mqdefault.jpg","viewCount":"1561","playlistId":"PLEkQk5xrP-tkc9DXvSLguqX5-FYp6ASR4","playlistName":"دليل الفالحين لطرق رياض الصالحين","category":"متنوع"},{"id":"F4lNTIPmyqw","title":"183- \"…أين تُحِبُّ أنْ أُصَلِّيَ من بيتِك؟…\" - شرح دليل الفالحين","publishedAt":"2022-01-11T07:20:23Z","duration":"PT43M34S","thumbnail":"https://i.ytimg.com/vi/F4lNTIPmyqw/mqdefault.jpg","viewCount":"1904","playlistId":"PLEkQk5xrP-tkc9DXvSLguqX5-FYp6ASR4","playlistName":"دليل الفالحين لطرق رياض الصالحين","category":"متنوع"},{"id":"QWdIKxTW6Bs","title":"184- \"الله أرْحَمُ بعِبَادِهِ مِن هذِه بوَلَدِهَا\" - شرح دليل الفالحين","publishedAt":"2022-01-13T07:48:03Z","duration":"PT39M1S","thumbnail":"https://i.ytimg.com/vi/QWdIKxTW6Bs/mqdefault.jpg","viewCount":"1647","playlistId":"PLEkQk5xrP-tkc9DXvSLguqX5-FYp6ASR4","playlistName":"دليل الفالحين لطرق رياض الصالحين","category":"متنوع"},{"id":"QPNKkWfOd0A","title":"185- \"…إذا أَذْنَبَ عَبْدٌ ذَنْبًا، فَقالَ: اللَّهُمَّ اغْفِرْ لي ذَنْبِي…\" شرح دليل الفالحين","publishedAt":"2022-01-15T07:04:24Z","duration":"PT28M2S","thumbnail":"https://i.ytimg.com/vi/QPNKkWfOd0A/mqdefault.jpg","viewCount":"2547","playlistId":"PLEkQk5xrP-tkc9DXvSLguqX5-FYp6ASR4","playlistName":"دليل الفالحين لطرق رياض الصالحين","category":"متنوع"},{"id":"v9mIDwo3id8","title":"186- \"…يا مُعاذُ، هل تدري ما حقُّ اللهِ على عِباده؟ وما حقُّ العباد علَى الله؟…\"  شرح دليل الفالحين","publishedAt":"2022-01-17T06:51:27Z","duration":"PT35M28S","thumbnail":"https://i.ytimg.com/vi/v9mIDwo3id8/mqdefault.jpg","viewCount":"2403","playlistId":"PLEkQk5xrP-tkc9DXvSLguqX5-FYp6ASR4","playlistName":"دليل الفالحين لطرق رياض الصالحين","category":"متنوع"},{"id":"k4d7oyb61_o","title":"187- \"أتَرْضَوْنَ أنْ تَكُونُوا رُبُعَ أهْلِ الجَنَّةِ؟ قُلْنَا: نَعَمْ…\" شرح دليل الفالحين","publishedAt":"2022-01-19T07:12:23Z","duration":"PT23M25S","thumbnail":"https://i.ytimg.com/vi/k4d7oyb61_o/mqdefault.jpg","viewCount":"1918","playlistId":"PLEkQk5xrP-tkc9DXvSLguqX5-FYp6ASR4","playlistName":"دليل الفالحين لطرق رياض الصالحين","category":"متنوع"},{"id":"PseDI6dXZ3w","title":"188- \"…أنَّ رَجُلًا أصابَ مِن امْرَأَةٍ قُبْلَةً، فأتَى النَّبيَّ ﷺ فأخْبَرَهُ…\"- شرح دليل الفالحين","publishedAt":"2022-01-21T07:21:23Z","duration":"PT56M38S","thumbnail":"https://i.ytimg.com/vi/PseDI6dXZ3w/mqdefault.jpg","viewCount":"2556","playlistId":"PLEkQk5xrP-tkc9DXvSLguqX5-FYp6ASR4","playlistName":"دليل الفالحين لطرق رياض الصالحين","category":"متنوع"},{"id":"DgzgYNbdxl8","title":"189- وقت الزوال ومعنى ظل الزوال - شرح دليل الفالحين","publishedAt":"2022-01-23T08:14:23Z","duration":"PT51M22S","thumbnail":"https://i.ytimg.com/vi/DgzgYNbdxl8/mqdefault.jpg","viewCount":"991","playlistId":"PLEkQk5xrP-tkc9DXvSLguqX5-FYp6ASR4","playlistName":"دليل الفالحين لطرق رياض الصالحين","category":"متنوع"},{"id":"qQAGwLjEFb0","title":"190- فَضْلُ الرَّجَاء - شرح دليل الفالحين","publishedAt":"2022-01-26T07:04:38Z","duration":"PT39M58S","thumbnail":"https://i.ytimg.com/vi/qQAGwLjEFb0/mqdefault.jpg","viewCount":"1488","playlistId":"PLEkQk5xrP-tkc9DXvSLguqX5-FYp6ASR4","playlistName":"دليل الفالحين لطرق رياض الصالحين","category":"متنوع"},{"id":"N4f7WiaYjNI","title":"191- الجَمْعُ بَينَ الخَوفِ والرَّجَاء - شرح دليل الفالحين","publishedAt":"2022-01-28T07:55:24Z","duration":"PT39M35S","thumbnail":"https://i.ytimg.com/vi/N4f7WiaYjNI/mqdefault.jpg","viewCount":"1482","playlistId":"PLEkQk5xrP-tkc9DXvSLguqX5-FYp6ASR4","playlistName":"دليل الفالحين لطرق رياض الصالحين","category":"متنوع"},{"id":"8iZTE7jVcPU","title":"192- فَضْلُ البُكَاءِ مِن خَشية الله تعالى وشَوقًا إليه - شرح دليل الفالحين","publishedAt":"2022-01-30T06:40:32Z","duration":"PT38M11S","thumbnail":"https://i.ytimg.com/vi/8iZTE7jVcPU/mqdefault.jpg","viewCount":"3242","playlistId":"PLEkQk5xrP-tkc9DXvSLguqX5-FYp6ASR4","playlistName":"دليل الفالحين لطرق رياض الصالحين","category":"متنوع"}],"total":504,"page":8,"pageSize":24,"totalPages":21}