{"items":[{"id":"c15i8XK78jE","title":"387- من سألَ اللَّهَ الشَّهادةَ بصدق بلَّغَه اللَّهُ منازلَ الشُّهداءِ وإن ماتَ علَى فراشِه","publishedAt":"2023-01-20T09:00:19Z","duration":"PT36M53S","thumbnail":"https://i.ytimg.com/vi/c15i8XK78jE/mqdefault.jpg","viewCount":"747","playlistId":"PLEkQk5xrP-tkc9DXvSLguqX5-FYp6ASR4","playlistName":"دليل الفالحين لطرق رياض الصالحين","category":"متنوع"},{"id":"9sl2CRzn2aI","title":"388- فضل الصدقة في سبيل الله - شرح دليل الفالحين","publishedAt":"2023-01-22T09:00:05Z","duration":"PT36M29S","thumbnail":"https://i.ytimg.com/vi/9sl2CRzn2aI/mqdefault.jpg","viewCount":"962","playlistId":"PLEkQk5xrP-tkc9DXvSLguqX5-FYp6ASR4","playlistName":"دليل الفالحين لطرق رياض الصالحين","category":"متنوع"},{"id":"OGk41KT-19s","title":"389- من أنفقَ نفقةً في سبيلِ اللَّهِ كتبت لَهُ بسبعمائةِ ضعفٍ","publishedAt":"2023-01-23T09:00:11Z","duration":"PT33M34S","thumbnail":"https://i.ytimg.com/vi/OGk41KT-19s/mqdefault.jpg","viewCount":"730","playlistId":"PLEkQk5xrP-tkc9DXvSLguqX5-FYp6ASR4","playlistName":"دليل الفالحين لطرق رياض الصالحين","category":"متنوع"},{"id":"t3QMgKf4JqU","title":"390- سِياحةَ أُمَّتي الجِهادُ في سبيلِ اللَّه عزَّ وجلَّ - شرح دليل الفالحين","publishedAt":"2023-01-24T05:00:31Z","duration":"PT36M46S","thumbnail":"https://i.ytimg.com/vi/t3QMgKf4JqU/mqdefault.jpg","viewCount":"659","playlistId":"PLEkQk5xrP-tkc9DXvSLguqX5-FYp6ASR4","playlistName":"دليل الفالحين لطرق رياض الصالحين","category":"متنوع"},{"id":"agDSuJhOiCI","title":"391- حُكمُ غُسْلِ الشَّهيدِ وتَكْفينه والصَّلاة عليه وثوابه في الآخرة - شرح دليل الفالحين","publishedAt":"2023-01-24T09:00:02Z","duration":"PT37M55S","thumbnail":"https://i.ytimg.com/vi/agDSuJhOiCI/mqdefault.jpg","viewCount":"564","playlistId":"PLEkQk5xrP-tkc9DXvSLguqX5-FYp6ASR4","playlistName":"دليل الفالحين لطرق رياض الصالحين","category":"متنوع"},{"id":"r0EiEZa89XE","title":"392- فضلُ العِتْقِ - شرح دليل الفالحين","publishedAt":"2023-01-25T09:00:35Z","duration":"PT42M5S","thumbnail":"https://i.ytimg.com/vi/r0EiEZa89XE/mqdefault.jpg","viewCount":"498","playlistId":"PLEkQk5xrP-tkc9DXvSLguqX5-FYp6ASR4","playlistName":"دليل الفالحين لطرق رياض الصالحين","category":"متنوع"},{"id":"i6uUppTAxTY","title":"393- فضل المملوك الذي يؤدي حقَّ الله وحقَّ مواليه - شرح دليل الفالحين","publishedAt":"2023-01-26T09:00:33Z","duration":"PT34M12S","thumbnail":"https://i.ytimg.com/vi/i6uUppTAxTY/mqdefault.jpg","viewCount":"566","playlistId":"PLEkQk5xrP-tkc9DXvSLguqX5-FYp6ASR4","playlistName":"دليل الفالحين لطرق رياض الصالحين","category":"متنوع"},{"id":"S-LMcv_3lpk","title":"394- فضل السماحة في البيع والشراء والأخذ والعطاء وحُسن القضاء والتقاضي - شرح دليل الفالحين","publishedAt":"2023-01-27T09:00:14Z","duration":"PT19M44S","thumbnail":"https://i.ytimg.com/vi/S-LMcv_3lpk/mqdefault.jpg","viewCount":"777","playlistId":"PLEkQk5xrP-tkc9DXvSLguqX5-FYp6ASR4","playlistName":"دليل الفالحين لطرق رياض الصالحين","category":"متنوع"},{"id":"cquYRt1P3uE","title":"395- فضل إنظار المعسر ومعرفة متى تكون السُّنَّةُ أفضل من الواجب في الثواب؟ - شرح دليل الفالحين","publishedAt":"2023-02-07T09:00:21Z","duration":"PT34M37S","thumbnail":"https://i.ytimg.com/vi/cquYRt1P3uE/mqdefault.jpg","viewCount":"890","playlistId":"PLEkQk5xrP-tkc9DXvSLguqX5-FYp6ASR4","playlistName":"دليل الفالحين لطرق رياض الصالحين","category":"متنوع"},{"id":"n5hfC83ihPE","title":"396- فضل العِلم - شرح دليل الفالحين","publishedAt":"2023-02-09T05:00:31Z","duration":"PT32M7S","thumbnail":"https://i.ytimg.com/vi/n5hfC83ihPE/mqdefault.jpg","viewCount":"794","playlistId":"PLEkQk5xrP-tkc9DXvSLguqX5-FYp6ASR4","playlistName":"دليل الفالحين لطرق رياض الصالحين","category":"متنوع"},{"id":"gpZ8ROtB2Bs","title":"397- مَن دَعا إلى هُدًى، كانَ له مِنَ الأجْرِ مِثْلُ أُجُورِ مَن تَبِعَهُ… - شرح دليل الفالحين","publishedAt":"2023-02-11T05:00:30Z","duration":"PT33M46S","thumbnail":"https://i.ytimg.com/vi/gpZ8ROtB2Bs/mqdefault.jpg","viewCount":"1005","playlistId":"PLEkQk5xrP-tkc9DXvSLguqX5-FYp6ASR4","playlistName":"دليل الفالحين لطرق رياض الصالحين","category":"متنوع"},{"id":"PLlsvJDnDwg","title":"398- نَضَّرَ اللهُ امرأً سمِعَ منَّا شيئًا فبلَّغَهُ كما سمِعَهُ، فرُبَّ مُبَلَّغٍ أوْعَى من سامِعٍ","publishedAt":"2023-02-13T05:00:10Z","duration":"PT26M9S","thumbnail":"https://i.ytimg.com/vi/PLlsvJDnDwg/mqdefault.jpg","viewCount":"958","playlistId":"PLEkQk5xrP-tkc9DXvSLguqX5-FYp6ASR4","playlistName":"دليل الفالحين لطرق رياض الصالحين","category":"متنوع"},{"id":"UJ2akb-5UU4","title":"399- الفرق بين الحمد والشكر - شرح دليل الفالحين","publishedAt":"2023-02-15T05:00:17Z","duration":"PT39M2S","thumbnail":"https://i.ytimg.com/vi/UJ2akb-5UU4/mqdefault.jpg","viewCount":"1671","playlistId":"PLEkQk5xrP-tkc9DXvSLguqX5-FYp6ASR4","playlistName":"دليل الفالحين لطرق رياض الصالحين","category":"متنوع"},{"id":"ExS-dVFLC00","title":"400- ما هي أفضل عبادة تطوع بعد الفريضة؟","publishedAt":"2023-02-17T09:00:11Z","duration":"PT45M17S","thumbnail":"https://i.ytimg.com/vi/ExS-dVFLC00/mqdefault.jpg","viewCount":"999","playlistId":"PLEkQk5xrP-tkc9DXvSLguqX5-FYp6ASR4","playlistName":"دليل الفالحين لطرق رياض الصالحين","category":"متنوع"},{"id":"YSVQE9CmOro","title":"401- كيفية الصلاة على سيدنا رسول الله ﷺ  - شرح دليل الفالحين","publishedAt":"2023-02-19T09:01:00Z","duration":"PT33M50S","thumbnail":"https://i.ytimg.com/vi/YSVQE9CmOro/mqdefault.jpg","viewCount":"2083","playlistId":"PLEkQk5xrP-tkc9DXvSLguqX5-FYp6ASR4","playlistName":"دليل الفالحين لطرق رياض الصالحين","category":"متنوع"},{"id":"73cvSO9zuYA","title":"402- فضل الذكر والحث عليه - شرح دليل الفالحين","publishedAt":"2023-02-21T05:00:05Z","duration":"PT28M10S","thumbnail":"https://i.ytimg.com/vi/73cvSO9zuYA/mqdefault.jpg","viewCount":"1825","playlistId":"PLEkQk5xrP-tkc9DXvSLguqX5-FYp6ASR4","playlistName":"دليل الفالحين لطرق رياض الصالحين","category":"متنوع"},{"id":"oM1EoPQGyL0","title":"403- فضل قول: لا إلهَ إلَّا اللهُ وَحْدَه لا شريكَ له، له المُلْكُ وله الحمْدُ وهو على كل شيء قدير","publishedAt":"2023-02-23T05:00:31Z","duration":"PT26M32S","thumbnail":"https://i.ytimg.com/vi/oM1EoPQGyL0/mqdefault.jpg","viewCount":"2360","playlistId":"PLEkQk5xrP-tkc9DXvSLguqX5-FYp6ASR4","playlistName":"دليل الفالحين لطرق رياض الصالحين","category":"متنوع"},{"id":"Rcvi2VP8Fkg","title":"404- لماذا نستغفر بعد الصلاة؟ وما هي الأذكار التي تُقال بعدها؟ - شرح دليل الفالحين","publishedAt":"2023-02-25T05:00:08Z","duration":"PT39M43S","thumbnail":"https://i.ytimg.com/vi/Rcvi2VP8Fkg/mqdefault.jpg","viewCount":"1570","playlistId":"PLEkQk5xrP-tkc9DXvSLguqX5-FYp6ASR4","playlistName":"دليل الفالحين لطرق رياض الصالحين","category":"متنوع"},{"id":"_RKFjfZ8XsI","title":"405- فضل التسبيح والتحميد والتكبير بعد صلاة الفريضة - شرح دليل الفالحين","publishedAt":"2023-02-27T05:00:30Z","duration":"PT46M2S","thumbnail":"https://i.ytimg.com/vi/_RKFjfZ8XsI/mqdefault.jpg","viewCount":"2199","playlistId":"PLEkQk5xrP-tkc9DXvSLguqX5-FYp6ASR4","playlistName":"دليل الفالحين لطرق رياض الصالحين","category":"متنوع"},{"id":"J7nUoGwzsgk","title":"405- أَقْرَبُ ما يَكونُ العَبْدُ مِن رَبِّهِ، وهو ساجِدٌ، فأكْثِرُوا الدُّعاءَ - شرح دليل الفالحين","publishedAt":"2023-03-01T05:00:13Z","duration":"PT49M51S","thumbnail":"https://i.ytimg.com/vi/J7nUoGwzsgk/mqdefault.jpg","viewCount":"1772","playlistId":"PLEkQk5xrP-tkc9DXvSLguqX5-FYp6ASR4","playlistName":"دليل الفالحين لطرق رياض الصالحين","category":"متنوع"},{"id":"swPrt6iPmAs","title":"406- مَثَلُ الذي يَذْكُرُ رَبَّهُ والذي لا يَذْكُرُ رَبَّهُ، مَثَلُ الحَيِّ والمَيِّتِ.","publishedAt":"2023-03-03T05:00:23Z","duration":"PT32M42S","thumbnail":"https://i.ytimg.com/vi/swPrt6iPmAs/mqdefault.jpg","viewCount":"1260","playlistId":"PLEkQk5xrP-tkc9DXvSLguqX5-FYp6ASR4","playlistName":"دليل الفالحين لطرق رياض الصالحين","category":"متنوع"},{"id":"tAHfGIRCxCA","title":"407- سبق المُفَرِّدون قالوا وما المُفَرِّدون يا رسولَ الله قال الذَّاكرون اللهَ كثيرًا والذَّاكرات.","publishedAt":"2023-03-05T05:00:19Z","duration":"PT32M3S","thumbnail":"https://i.ytimg.com/vi/tAHfGIRCxCA/mqdefault.jpg","viewCount":"1644","playlistId":"PLEkQk5xrP-tkc9DXvSLguqX5-FYp6ASR4","playlistName":"دليل الفالحين لطرق رياض الصالحين","category":"متنوع"},{"id":"cIpcCFQwEUU","title":"408- أَلَا أُنَبِّئُكم بِخَيْرِ أعمالِكُم، وأَزْكاها عِندَ مَلِيكِكُم، وأَرفعِها في دَرَجاتِكُم…","publishedAt":"2023-03-07T05:00:15Z","duration":"PT36M11S","thumbnail":"https://i.ytimg.com/vi/cIpcCFQwEUU/mqdefault.jpg","viewCount":"1466","playlistId":"PLEkQk5xrP-tkc9DXvSLguqX5-FYp6ASR4","playlistName":"دليل الفالحين لطرق رياض الصالحين","category":"متنوع"},{"id":"RXa4VbAx1JA","title":"409- فضل حِلَقِ الذِكر والندب على ملازمتها والنهي عن مفارقتها لغير عذر - شرح دليل الفالحين","publishedAt":"2023-03-09T05:00:16Z","duration":"PT30M5S","thumbnail":"https://i.ytimg.com/vi/RXa4VbAx1JA/mqdefault.jpg","viewCount":"1806","playlistId":"PLEkQk5xrP-tkc9DXvSLguqX5-FYp6ASR4","playlistName":"دليل الفالحين لطرق رياض الصالحين","category":"متنوع"}],"total":504,"page":17,"pageSize":24,"totalPages":21}