{"items":[{"id":"CKw7IZmCoWI","title":"193- تَجَلِّي صِفَاتُ الجَلَالِ والجَمَالِ مَعًا - شرح دليل الفالحين","publishedAt":"2022-01-31T21:05:55Z","duration":"PT28M22S","thumbnail":"https://i.ytimg.com/vi/CKw7IZmCoWI/mqdefault.jpg","viewCount":"2159","playlistId":"PLEkQk5xrP-tkc9DXvSLguqX5-FYp6ASR4","playlistName":"دليل الفالحين لطرق رياض الصالحين","category":"متنوع"},{"id":"QZ9hMnyBu-8","title":"194- مُرُوا أبَا بَكْرٍ فَلْيُصَلِّ بالنَّاسِ…\" شرح دليل الفالحين","publishedAt":"2022-02-02T07:02:48Z","duration":"PT34M16S","thumbnail":"https://i.ytimg.com/vi/QZ9hMnyBu-8/mqdefault.jpg","viewCount":"1127","playlistId":"PLEkQk5xrP-tkc9DXvSLguqX5-FYp6ASR4","playlistName":"دليل الفالحين لطرق رياض الصالحين","category":"متنوع"},{"id":"2ne44ojG5tY","title":"195- فضلُ الزُّهْدِ في الدنيا والحَثُّ على التَّقلُّلِ منها وفضلُ الفقر - شرح دليل الفالحين","publishedAt":"2022-02-04T07:10:07Z","duration":"PT54M7S","thumbnail":"https://i.ytimg.com/vi/2ne44ojG5tY/mqdefault.jpg","viewCount":"2863","playlistId":"PLEkQk5xrP-tkc9DXvSLguqX5-FYp6ASR4","playlistName":"دليل الفالحين لطرق رياض الصالحين","category":"متنوع"},{"id":"wnObsaWKTkU","title":"196- أبْشِرُوا وأمِّلُوا ما يَسُرُّكُمْ، فَوَالله ما الفقْرَ أخْشَى عليكُم - شرح دليل الفالحين","publishedAt":"2022-02-06T07:09:37Z","duration":"PT47M8S","thumbnail":"https://i.ytimg.com/vi/wnObsaWKTkU/mqdefault.jpg","viewCount":"1590","playlistId":"PLEkQk5xrP-tkc9DXvSLguqX5-FYp6ASR4","playlistName":"دليل الفالحين لطرق رياض الصالحين","category":"متنوع"},{"id":"1SowLd7CC0M","title":"197- يُؤْتَى بأَنْعَمِ أهْلِ الدُّنْيا مِن أهْلِ النَّارِ يَومَ القِيامَةِ… - شرح دليل الفالحين","publishedAt":"2022-02-08T07:00:37Z","duration":"PT44M50S","thumbnail":"https://i.ytimg.com/vi/1SowLd7CC0M/mqdefault.jpg","viewCount":"1214","playlistId":"PLEkQk5xrP-tkc9DXvSLguqX5-FYp6ASR4","playlistName":"دليل الفالحين لطرق رياض الصالحين","category":"متنوع"},{"id":"0PfOAKwaAYo","title":"198- إنَّ الأكثرين هُمُ الأَقَلُّونَ يومَ القيامة إلّا مَن قال هكذا وهكذا وهكذا… - شرح دليل الفالحين","publishedAt":"2022-02-09T22:25:21Z","duration":"PT30M38S","thumbnail":"https://i.ytimg.com/vi/0PfOAKwaAYo/mqdefault.jpg","viewCount":"1633","playlistId":"PLEkQk5xrP-tkc9DXvSLguqX5-FYp6ASR4","playlistName":"دليل الفالحين لطرق رياض الصالحين","category":"متنوع"},{"id":"5kQprcyNI2s","title":"199- انظُرُوا إلى مَن أسفلَ منكم، ولا تَنظُرُوا إلى مَن هو فوقَكم… - شرح دليل الفالحين","publishedAt":"2022-02-11T07:02:42Z","duration":"PT45M16S","thumbnail":"https://i.ytimg.com/vi/5kQprcyNI2s/mqdefault.jpg","viewCount":"1750","playlistId":"PLEkQk5xrP-tkc9DXvSLguqX5-FYp6ASR4","playlistName":"دليل الفالحين لطرق رياض الصالحين","category":"متنوع"},{"id":"BiuKZcjVeiQ","title":"200- كُنْ في الدُّنيا كَأنَّكَ غَريبٌ أو عَابِر سَبيلٍ - شرح دليل الفالحين","publishedAt":"2022-02-12T19:32:23Z","duration":"PT32M40S","thumbnail":"https://i.ytimg.com/vi/BiuKZcjVeiQ/mqdefault.jpg","viewCount":"2672","playlistId":"PLEkQk5xrP-tkc9DXvSLguqX5-FYp6ASR4","playlistName":"دليل الفالحين لطرق رياض الصالحين","category":"متنوع"},{"id":"JBCm-4CFPq8","title":"201- حُبُّ الدنيا وكثرةُ المال - شرح دليل الفالحين","publishedAt":"2022-02-13T22:39:01Z","duration":"PT27M57S","thumbnail":"https://i.ytimg.com/vi/JBCm-4CFPq8/mqdefault.jpg","viewCount":"2860","playlistId":"PLEkQk5xrP-tkc9DXvSLguqX5-FYp6ASR4","playlistName":"دليل الفالحين لطرق رياض الصالحين","category":"متنوع"},{"id":"BL5KYx-Pstg","title":"202- لو كانت الدُّنيا تعدلُ عند الله جناحَ بعوضةٍ ما سقى كافرًا منها شرْبةَ ماء - شرح دليل الفالحين","publishedAt":"2022-02-15T07:01:57Z","duration":"PT41M11S","thumbnail":"https://i.ytimg.com/vi/BL5KYx-Pstg/mqdefault.jpg","viewCount":"1740","playlistId":"PLEkQk5xrP-tkc9DXvSLguqX5-FYp6ASR4","playlistName":"دليل الفالحين لطرق رياض الصالحين","category":"متنوع"},{"id":"w9IaE_Cj1yo","title":"203- «ليس لابن آدم حقٌّ في سِوى هذه الخِصال: بيتٌ يسكنُه، وثوبٌ يُواري عورتَه…» شرح دليل الفالحين","publishedAt":"2022-02-18T07:04:48Z","duration":"PT35M9S","thumbnail":"https://i.ytimg.com/vi/w9IaE_Cj1yo/mqdefault.jpg","viewCount":"2584","playlistId":"PLEkQk5xrP-tkc9DXvSLguqX5-FYp6ASR4","playlistName":"دليل الفالحين لطرق رياض الصالحين","category":"متنوع"},{"id":"vYIVPvQikMc","title":"204- قال رجلٌ للنَّبيّ ﷺ:يا رسول الله، والله إنّي لأُحبُّك،فقال: انظر ماذا تقول!- شرح دليل الفالحين","publishedAt":"2022-02-20T06:38:31Z","duration":"PT38M38S","thumbnail":"https://i.ytimg.com/vi/vYIVPvQikMc/mqdefault.jpg","viewCount":"2390","playlistId":"PLEkQk5xrP-tkc9DXvSLguqX5-FYp6ASR4","playlistName":"دليل الفالحين لطرق رياض الصالحين","category":"متنوع"},{"id":"W2liq5jAA0I","title":"205- يَدْخُلُ الفُقراءُ الجَنَّةَ قَبلَ الأغْنِيَاءِ بِخَمْسِمِائَةِ عَامٍ - شرح دليل الفالحين","publishedAt":"2022-02-22T05:15:37Z","duration":"PT41M45S","thumbnail":"https://i.ytimg.com/vi/W2liq5jAA0I/mqdefault.jpg","viewCount":"1271","playlistId":"PLEkQk5xrP-tkc9DXvSLguqX5-FYp6ASR4","playlistName":"دليل الفالحين لطرق رياض الصالحين","category":"متنوع"},{"id":"Tg7vmnfmG5A","title":"206- فَضْلُ الجُوعِ وخُشُونَةِ العَيشِ والاقتِصَارِ على القليل… - شرح دليل الفالحين","publishedAt":"2022-02-23T04:46:44Z","duration":"PT47M35S","thumbnail":"https://i.ytimg.com/vi/Tg7vmnfmG5A/mqdefault.jpg","viewCount":"2716","playlistId":"PLEkQk5xrP-tkc9DXvSLguqX5-FYp6ASR4","playlistName":"دليل الفالحين لطرق رياض الصالحين","category":"متنوع"},{"id":"ajeUdxt6bFM","title":"207- \"…خَرَجَ رَسولُ الله ﷺ منَ  الدُّنْيا ولَمْ يَشْبَعْ من خُبْزِ الشَّعِير\" شرح دليل الفالحين","publishedAt":"2022-02-23T20:41:41Z","duration":"PT32M36S","thumbnail":"https://i.ytimg.com/vi/ajeUdxt6bFM/mqdefault.jpg","viewCount":"1644","playlistId":"PLEkQk5xrP-tkc9DXvSLguqX5-FYp6ASR4","playlistName":"دليل الفالحين لطرق رياض الصالحين","category":"متنوع"},{"id":"ji0L57sQ-AE","title":"208- والَّذِي نَفْسِي بيَدِهِ، لَتُسْأَلُنَّ عن هذا النَّعِيمِ يومَ القِيَامَةِ - شرح دليل الفالحين","publishedAt":"2022-02-25T06:45:27Z","duration":"PT38M41S","thumbnail":"https://i.ytimg.com/vi/ji0L57sQ-AE/mqdefault.jpg","viewCount":"1255","playlistId":"PLEkQk5xrP-tkc9DXvSLguqX5-FYp6ASR4","playlistName":"دليل الفالحين لطرق رياض الصالحين","category":"متنوع"},{"id":"-2B16tVPk8E","title":"209- \"ولقد رأَيْتُنِي سابع سبعة مع رسول الله ﷺ ما لنا طعامٌ إلَّا ورقُ الشَّجر\" - شرح دليل الفالحين","publishedAt":"2022-02-26T07:22:03Z","duration":"PT49M58S","thumbnail":"https://i.ytimg.com/vi/-2B16tVPk8E/mqdefault.jpg","viewCount":"1378","playlistId":"PLEkQk5xrP-tkc9DXvSLguqX5-FYp6ASR4","playlistName":"دليل الفالحين لطرق رياض الصالحين","category":"متنوع"},{"id":"OYeQUyijxUU","title":"210- \"…أخرجت إلينا عائشةُ كساءً وإزارًا غليظًا، قالت: قُبض رسولُ الله ﷺ في هذين\" - شرح دليل الفالحين","publishedAt":"2022-02-28T07:39:04Z","duration":"PT22M5S","thumbnail":"https://i.ytimg.com/vi/OYeQUyijxUU/mqdefault.jpg","viewCount":"1032","playlistId":"PLEkQk5xrP-tkc9DXvSLguqX5-FYp6ASR4","playlistName":"دليل الفالحين لطرق رياض الصالحين","category":"متنوع"},{"id":"qnYLySjfe1c","title":"211- \"…والذي بَعَثَكَ بالحَقِّ لَا أَجِدُ لَهُ مَسْلَكًا\" - شرح دليل الفالحين","publishedAt":"2022-03-02T07:00:17Z","duration":"PT40M57S","thumbnail":"https://i.ytimg.com/vi/qnYLySjfe1c/mqdefault.jpg","viewCount":"1116","playlistId":"PLEkQk5xrP-tkc9DXvSLguqX5-FYp6ASR4","playlistName":"دليل الفالحين لطرق رياض الصالحين","category":"متنوع"},{"id":"ZdHivtwyvDw","title":"212- شِدَّةُ المُعَانَاةِ مِن الجُوعِ - شرح دليل الفالحين","publishedAt":"2022-03-03T06:47:40Z","duration":"PT30M46S","thumbnail":"https://i.ytimg.com/vi/ZdHivtwyvDw/mqdefault.jpg","viewCount":"1406","playlistId":"PLEkQk5xrP-tkc9DXvSLguqX5-FYp6ASR4","playlistName":"دليل الفالحين لطرق رياض الصالحين","category":"متنوع"},{"id":"B4TPa9WffK0","title":"213- ما أصبحَ لِآلِ مُحَمَّدٍ ﷺ إلَّا صَاعٌ ولا أمسى وإنَّهم لَتسْعَةُ أبيات\" - شرح دليل الفالحين","publishedAt":"2022-03-05T07:24:09Z","duration":"PT27M56S","thumbnail":"https://i.ytimg.com/vi/B4TPa9WffK0/mqdefault.jpg","viewCount":"1268","playlistId":"PLEkQk5xrP-tkc9DXvSLguqX5-FYp6ASR4","playlistName":"دليل الفالحين لطرق رياض الصالحين","category":"متنوع"},{"id":"N1dRQRXTMko","title":"214- \"خَيْرُكُمْ قَرْنِي، ثُمَّ الَّذينَ يَلُونَهُم، ثُمَّ الَّذينَ يَلُونَهُم…\" - شرح دليل الفالحين","publishedAt":"2022-03-07T19:29:40Z","duration":"PT33M3S","thumbnail":"https://i.ytimg.com/vi/N1dRQRXTMko/mqdefault.jpg","viewCount":"1236","playlistId":"PLEkQk5xrP-tkc9DXvSLguqX5-FYp6ASR4","playlistName":"دليل الفالحين لطرق رياض الصالحين","category":"متنوع"},{"id":"nYvPp5YnRMc","title":"215- كان رسولُ اللَّه ﷺ يبيتُ اللَّيالي المتتابعة طاويًا وأهلُه لا يجدون عَشاءً - شرح دليل الفالحين","publishedAt":"2022-03-08T19:00:48Z","duration":"PT30M54S","thumbnail":"https://i.ytimg.com/vi/nYvPp5YnRMc/mqdefault.jpg","viewCount":"1797","playlistId":"PLEkQk5xrP-tkc9DXvSLguqX5-FYp6ASR4","playlistName":"دليل الفالحين لطرق رياض الصالحين","category":"متنوع"},{"id":"l5m5hVx_Ihs","title":"216- ألا تسمعون؟ ألا تسمعون؟ إنَّ البَذَاذَةَ من الإيمان - شرح دليل الفالحين","publishedAt":"2022-03-12T05:29:39Z","duration":"PT52M59S","thumbnail":"https://i.ytimg.com/vi/l5m5hVx_Ihs/mqdefault.jpg","viewCount":"1784","playlistId":"PLEkQk5xrP-tkc9DXvSLguqX5-FYp6ASR4","playlistName":"دليل الفالحين لطرق رياض الصالحين","category":"متنوع"}],"total":504,"page":9,"pageSize":24,"totalPages":21}