{"items":[{"id":"Zhw4TePuyDc","title":"290- حكم لبس العمامة السوداء - شرح دليل الفالحين","publishedAt":"2022-08-24T05:30:10Z","duration":"PT34M3S","thumbnail":"https://i.ytimg.com/vi/Zhw4TePuyDc/mqdefault.jpg","viewCount":"1224","playlistId":"PLEkQk5xrP-tkc9DXvSLguqX5-FYp6ASR4","playlistName":"دليل الفالحين لطرق رياض الصالحين","category":"متنوع"},{"id":"QAy9qvNTUvo","title":"291- استحباب القميص - شرح دليل الفالحين","publishedAt":"2022-08-27T18:15:03Z","duration":"PT52M41S","thumbnail":"https://i.ytimg.com/vi/QAy9qvNTUvo/mqdefault.jpg","viewCount":"1082","playlistId":"PLEkQk5xrP-tkc9DXvSLguqX5-FYp6ASR4","playlistName":"دليل الفالحين لطرق رياض الصالحين","category":"متنوع"},{"id":"OCb270j89o4","title":"292- صفة طُول القَميصِ والكُمِّ والإزارِ وطرفِ العِمَامةِ… - شرح دليل الفالحين","publishedAt":"2022-08-29T06:15:00Z","duration":"PT57M27S","thumbnail":"https://i.ytimg.com/vi/OCb270j89o4/mqdefault.jpg","viewCount":"1043","playlistId":"PLEkQk5xrP-tkc9DXvSLguqX5-FYp6ASR4","playlistName":"دليل الفالحين لطرق رياض الصالحين","category":"متنوع"},{"id":"dOCmnLHZLbM","title":"293- استحبابُ تركِ التَّرفُّعِ في اللباسِ تواضُعًا - شرح دليل الفالحين","publishedAt":"2022-08-30T06:15:03Z","duration":"PT51M14S","thumbnail":"https://i.ytimg.com/vi/dOCmnLHZLbM/mqdefault.jpg","viewCount":"801","playlistId":"PLEkQk5xrP-tkc9DXvSLguqX5-FYp6ASR4","playlistName":"دليل الفالحين لطرق رياض الصالحين","category":"متنوع"},{"id":"NPuPePQnnbY","title":"294- النهي عن افتراش جلود النمور والركوب عليها - شرح دليل الفالحين","publishedAt":"2022-08-30T18:30:32Z","duration":"PT35M32S","thumbnail":"https://i.ytimg.com/vi/NPuPePQnnbY/mqdefault.jpg","viewCount":"918","playlistId":"PLEkQk5xrP-tkc9DXvSLguqX5-FYp6ASR4","playlistName":"دليل الفالحين لطرق رياض الصالحين","category":"متنوع"},{"id":"Lkpahq5GGYc","title":"295- آدَابُ النَّومِ - شرح دليل الفالحين","publishedAt":"2022-09-01T06:30:06Z","duration":"PT35M13S","thumbnail":"https://i.ytimg.com/vi/Lkpahq5GGYc/mqdefault.jpg","viewCount":"1362","playlistId":"PLEkQk5xrP-tkc9DXvSLguqX5-FYp6ASR4","playlistName":"دليل الفالحين لطرق رياض الصالحين","category":"متنوع"},{"id":"4rLIylIeJLY","title":"296- آدابُ النَّومِ وهَيْئَتهِ (2) - شرح دليل الفالحين","publishedAt":"2022-09-02T19:20:00Z","duration":"PT51M53S","thumbnail":"https://i.ytimg.com/vi/4rLIylIeJLY/mqdefault.jpg","viewCount":"1112","playlistId":"PLEkQk5xrP-tkc9DXvSLguqX5-FYp6ASR4","playlistName":"دليل الفالحين لطرق رياض الصالحين","category":"متنوع"},{"id":"EhRF8fKyRnQ","title":"297- آدابُ المجلس والجليس - شرح دليل الفالحين","publishedAt":"2022-09-04T06:20:00Z","duration":"PT1H1M21S","thumbnail":"https://i.ytimg.com/vi/EhRF8fKyRnQ/mqdefault.jpg","viewCount":"1134","playlistId":"PLEkQk5xrP-tkc9DXvSLguqX5-FYp6ASR4","playlistName":"دليل الفالحين لطرق رياض الصالحين","category":"متنوع"},{"id":"-V7AJoSJJlE","title":"298- باب الرُّؤْيَا - شرح دليل الفالحين","publishedAt":"2022-09-06T08:09:33Z","duration":"PT50M27S","thumbnail":"https://i.ytimg.com/vi/-V7AJoSJJlE/mqdefault.jpg","viewCount":"1474","playlistId":"PLEkQk5xrP-tkc9DXvSLguqX5-FYp6ASR4","playlistName":"دليل الفالحين لطرق رياض الصالحين","category":"متنوع"},{"id":"xabAto0zmZs","title":"299- فَضْلُ السَّلامِ والأَمْرُ بِه - شرح دليل الفالحين","publishedAt":"2022-09-08T06:00:13Z","duration":"PT49M52S","thumbnail":"https://i.ytimg.com/vi/xabAto0zmZs/mqdefault.jpg","viewCount":"798","playlistId":"PLEkQk5xrP-tkc9DXvSLguqX5-FYp6ASR4","playlistName":"دليل الفالحين لطرق رياض الصالحين","category":"متنوع"},{"id":"kLyuLkiIm3w","title":"300- كَيْفِيَّةُ السَّلَامِ - شرح دليل الفالحين","publishedAt":"2022-09-11T06:15:02Z","duration":"PT47M22S","thumbnail":"https://i.ytimg.com/vi/kLyuLkiIm3w/mqdefault.jpg","viewCount":"913","playlistId":"PLEkQk5xrP-tkc9DXvSLguqX5-FYp6ASR4","playlistName":"دليل الفالحين لطرق رياض الصالحين","category":"متنوع"},{"id":"YH_lk_77LdY","title":"301- آدَابُ السَّلَام - شرح دليل الفالحين","publishedAt":"2022-09-16T06:00:09Z","duration":"PT33M15S","thumbnail":"https://i.ytimg.com/vi/YH_lk_77LdY/mqdefault.jpg","viewCount":"702","playlistId":"PLEkQk5xrP-tkc9DXvSLguqX5-FYp6ASR4","playlistName":"دليل الفالحين لطرق رياض الصالحين","category":"متنوع"},{"id":"LJ71eZ-Wydc","title":"302- سَلَامُ الرَّجُلِ عَلَى زَوجَتِه - شرح دليل الفالحين","publishedAt":"2022-09-21T06:00:04Z","duration":"PT36M24S","thumbnail":"https://i.ytimg.com/vi/LJ71eZ-Wydc/mqdefault.jpg","viewCount":"981","playlistId":"PLEkQk5xrP-tkc9DXvSLguqX5-FYp6ASR4","playlistName":"دليل الفالحين لطرق رياض الصالحين","category":"متنوع"},{"id":"w25kENEBpL0","title":"303- الاستئذان وآدابه - شرح دليل الفالحين","publishedAt":"2022-09-23T06:15:02Z","duration":"PT40M38S","thumbnail":"https://i.ytimg.com/vi/w25kENEBpL0/mqdefault.jpg","viewCount":"644","playlistId":"PLEkQk5xrP-tkc9DXvSLguqX5-FYp6ASR4","playlistName":"دليل الفالحين لطرق رياض الصالحين","category":"متنوع"},{"id":"lhL435018M8","title":"304- آداب التشميت والعطاس والتثاؤب - شرح دليل الفالحين","publishedAt":"2022-09-28T06:00:11Z","duration":"PT47M45S","thumbnail":"https://i.ytimg.com/vi/lhL435018M8/mqdefault.jpg","viewCount":"769","playlistId":"PLEkQk5xrP-tkc9DXvSLguqX5-FYp6ASR4","playlistName":"دليل الفالحين لطرق رياض الصالحين","category":"متنوع"},{"id":"fBVMdZFF53w","title":"305- استحباب المصافحة، وبشاشة الوجه عند اللقاء، وتقبيل يد الرجل الصالح… - شرح دليل الفالحين","publishedAt":"2022-09-30T06:30:12Z","duration":"PT40M47S","thumbnail":"https://i.ytimg.com/vi/fBVMdZFF53w/mqdefault.jpg","viewCount":"902","playlistId":"PLEkQk5xrP-tkc9DXvSLguqX5-FYp6ASR4","playlistName":"دليل الفالحين لطرق رياض الصالحين","category":"متنوع"},{"id":"AG4gtOCro08","title":"306-  عيادة المريض وتشييع الميت والصلاة عليه وحضور دفنه والمكث عند قبره بعد دفنه - شرح دليل الفالحين","publishedAt":"2022-10-06T06:20:00Z","duration":"PT56M12S","thumbnail":"https://i.ytimg.com/vi/AG4gtOCro08/mqdefault.jpg","viewCount":"884","playlistId":"PLEkQk5xrP-tkc9DXvSLguqX5-FYp6ASR4","playlistName":"دليل الفالحين لطرق رياض الصالحين","category":"متنوع"},{"id":"5UA4JekI60U","title":"307- بِسمِ اللهِ تُرْبَةُ أرْضِنَا بِرِيقَةِ بَعْضِنَا يُشْفَى بِهِ سَقِيمُنَا بإذْنِ رَبِّنَا.","publishedAt":"2022-10-11T05:45:00Z","duration":"PT1H1M8S","thumbnail":"https://i.ytimg.com/vi/5UA4JekI60U/mqdefault.jpg","viewCount":"1970","playlistId":"PLEkQk5xrP-tkc9DXvSLguqX5-FYp6ASR4","playlistName":"دليل الفالحين لطرق رياض الصالحين","category":"متنوع"},{"id":"VpJQVYgKlPc","title":"308- استحبابُ سؤالِ أهلِ المريضِ عن حاله - شرح دليل الفالحين","publishedAt":"2022-10-12T07:30:03Z","duration":"PT39M40S","thumbnail":"https://i.ytimg.com/vi/VpJQVYgKlPc/mqdefault.jpg","viewCount":"620","playlistId":"PLEkQk5xrP-tkc9DXvSLguqX5-FYp6ASR4","playlistName":"دليل الفالحين لطرق رياض الصالحين","category":"متنوع"},{"id":"h0XzWiCo-q0","title":"309- جواز قول المريض أنا وَجِع أو شديد الوَجَع - شرح دليل الفالحين","publishedAt":"2022-10-13T05:00:10Z","duration":"PT40M55S","thumbnail":"https://i.ytimg.com/vi/h0XzWiCo-q0/mqdefault.jpg","viewCount":"490","playlistId":"PLEkQk5xrP-tkc9DXvSLguqX5-FYp6ASR4","playlistName":"دليل الفالحين لطرق رياض الصالحين","category":"متنوع"},{"id":"l3s6uf0cNvE","title":"310- استحباب تلقين المُحتضَر  - شرح دليل الفالحين","publishedAt":"2022-10-14T09:00:29Z","duration":"PT32M52S","thumbnail":"https://i.ytimg.com/vi/l3s6uf0cNvE/mqdefault.jpg","viewCount":"622","playlistId":"PLEkQk5xrP-tkc9DXvSLguqX5-FYp6ASR4","playlistName":"دليل الفالحين لطرق رياض الصالحين","category":"متنوع"},{"id":"5V4qxrlfQvE","title":"311- ما يُقالُ عندَ الميت وما يقُولُه مَن مات له ميت - شرح دليل الفالحين","publishedAt":"2022-10-16T09:00:03Z","duration":"PT37M24S","thumbnail":"https://i.ytimg.com/vi/5V4qxrlfQvE/mqdefault.jpg","viewCount":"756","playlistId":"PLEkQk5xrP-tkc9DXvSLguqX5-FYp6ASR4","playlistName":"دليل الفالحين لطرق رياض الصالحين","category":"متنوع"},{"id":"c6LnBCBE4MM","title":"312- حكمُ البُكاءِ على الميت - شرح دليل الفالحين","publishedAt":"2022-10-18T07:30:04Z","duration":"PT38M2S","thumbnail":"https://i.ytimg.com/vi/c6LnBCBE4MM/mqdefault.jpg","viewCount":"690","playlistId":"PLEkQk5xrP-tkc9DXvSLguqX5-FYp6ASR4","playlistName":"دليل الفالحين لطرق رياض الصالحين","category":"متنوع"},{"id":"e_Q6Qbk30Cw","title":"313- الصََلاةُ على الميت وتشْيِيعه وحضورِ دفنِه وكراهة اتِّباع النساءِ الجنائزَ","publishedAt":"2022-10-19T05:00:27Z","duration":"PT40M28S","thumbnail":"https://i.ytimg.com/vi/e_Q6Qbk30Cw/mqdefault.jpg","viewCount":"276","playlistId":"PLEkQk5xrP-tkc9DXvSLguqX5-FYp6ASR4","playlistName":"دليل الفالحين لطرق رياض الصالحين","category":"متنوع"}],"total":504,"page":13,"pageSize":24,"totalPages":21}