{"items":[{"id":"3Y9Yfx1VwTE","title":"تكملة أنواع التقديم والتأخير (6) (السَّبْق) - شرح البرهان في علوم القرآن","publishedAt":"2021-09-20T12:13:53Z","duration":"PT8M33S","thumbnail":"https://i.ytimg.com/vi/3Y9Yfx1VwTE/mqdefault.jpg","viewCount":"362","playlistId":"PLEkQk5xrP-tnW3iBL7HkKziOFCFZbTlf0","playlistName":"شرح البرهان في علوم القرآن - أ.د. يسري جبر","category":"تفسير"},{"id":"dXUjcbNiL7g","title":"169- معنى ( وَيْكَأَنَّ - ويل - يا )- شرح الإتقان في علوم القرآن","publishedAt":"2023-11-08T06:30:18Z","duration":"PT32M19S","thumbnail":"https://i.ytimg.com/vi/dXUjcbNiL7g/mqdefault.jpg","viewCount":"977","playlistId":"PLEkQk5xrP-tlPw10KGJKagu7zm4Ry2Tge","playlistName":"شرح الإتقان في علوم القرآن","category":"تفسير"},{"id":"nIR65ixxlWs","title":"168- حرف ( الواو ) - شرح الإتقان في علوم القرآن","publishedAt":"2023-11-06T06:15:02Z","duration":"PT44M32S","thumbnail":"https://i.ytimg.com/vi/nIR65ixxlWs/mqdefault.jpg","viewCount":"847","playlistId":"PLEkQk5xrP-tlPw10KGJKagu7zm4Ry2Tge","playlistName":"شرح الإتقان في علوم القرآن","category":"تفسير"},{"id":"H_Tb4BU05_0","title":"167- معنى (الهاء - ها - هات - هل - هلُمَّ - هنا - هيت - هيهات)  - شرح الإتقان في علوم القرآن","publishedAt":"2023-11-02T06:15:00Z","duration":"PT30M17S","thumbnail":"https://i.ytimg.com/vi/H_Tb4BU05_0/mqdefault.jpg","viewCount":"622","playlistId":"PLEkQk5xrP-tlPw10KGJKagu7zm4Ry2Tge","playlistName":"شرح الإتقان في علوم القرآن","category":"تفسير"},{"id":"Lxu2BfJCmAo","title":"إطلاق الفعل والمراد مقاربته ومشارفته لا حقيقته","publishedAt":"2020-10-28T08:08:43Z","duration":"PT14M31S","thumbnail":"https://i.ytimg.com/vi/Lxu2BfJCmAo/mqdefault.jpg","viewCount":"468","playlistId":"PLEkQk5xrP-tnW3iBL7HkKziOFCFZbTlf0","playlistName":"شرح البرهان في علوم القرآن - أ.د. يسري جبر","category":"تفسير"},{"id":"hpMhmuvpWUY","title":"‎بقية النوع 21: إقامة صيغة مقام أخرى","publishedAt":"2020-10-26T08:02:02Z","duration":"PT18M10S","thumbnail":"https://i.ytimg.com/vi/hpMhmuvpWUY/mqdefault.jpg","viewCount":"552","playlistId":"PLEkQk5xrP-tnW3iBL7HkKziOFCFZbTlf0","playlistName":"شرح البرهان في علوم القرآن - أ.د. يسري جبر","category":"تفسير"},{"id":"L5wSgUSAARE","title":"إقامة صيغة مقام أخرى","publishedAt":"2020-10-24T07:43:53Z","duration":"PT10M36S","thumbnail":"https://i.ytimg.com/vi/L5wSgUSAARE/mqdefault.jpg","viewCount":"603","playlistId":"PLEkQk5xrP-tnW3iBL7HkKziOFCFZbTlf0","playlistName":"شرح البرهان في علوم القرآن - أ.د. يسري جبر","category":"تفسير"},{"id":"X0RaKu8W9Uw","title":"إطلاق اسم المحلِّ على الحال","publishedAt":"2020-10-22T19:19:13Z","duration":"PT19M45S","thumbnail":"https://i.ytimg.com/vi/X0RaKu8W9Uw/mqdefault.jpg","viewCount":"597","playlistId":"PLEkQk5xrP-tnW3iBL7HkKziOFCFZbTlf0","playlistName":"شرح البرهان في علوم القرآن - أ.د. يسري جبر","category":"تفسير"},{"id":"f6jHnt6yQu4","title":"تَسْمِيَةُ الشَّيْءِ بِمَا يَؤُولُ إِلَيْهِ","publishedAt":"2020-10-21T21:32:28Z","duration":"PT20M11S","thumbnail":"https://i.ytimg.com/vi/f6jHnt6yQu4/mqdefault.jpg","viewCount":"751","playlistId":"PLEkQk5xrP-tnW3iBL7HkKziOFCFZbTlf0","playlistName":"شرح البرهان في علوم القرآن - أ.د. يسري جبر","category":"تفسير"},{"id":"W8Mzr--ONDQ","title":"إطلاق الجَمْع وإرادة المُثَنَّى","publishedAt":"2020-10-19T06:59:43Z","duration":"PT18M49S","thumbnail":"https://i.ytimg.com/vi/W8Mzr--ONDQ/mqdefault.jpg","viewCount":"475","playlistId":"PLEkQk5xrP-tnW3iBL7HkKziOFCFZbTlf0","playlistName":"شرح البرهان في علوم القرآن - أ.د. يسري جبر","category":"تفسير"},{"id":"kxpv0svl3HY","title":"إطلاق اسم المطلق على المُقيَّد","publishedAt":"2020-10-17T08:23:20Z","duration":"PT23M50S","thumbnail":"https://i.ytimg.com/vi/kxpv0svl3HY/mqdefault.jpg","viewCount":"546","playlistId":"PLEkQk5xrP-tnW3iBL7HkKziOFCFZbTlf0","playlistName":"شرح البرهان في علوم القرآن - أ.د. يسري جبر","category":"تفسير"},{"id":"VE5q-6Cgq7w","title":"تقديم المكان على الزمان - تكملة أسباب التقديم والتأخير - شرح البرهان في علوم القرآن","publishedAt":"2021-09-18T09:23:36Z","duration":"PT15M31S","thumbnail":"https://i.ytimg.com/vi/VE5q-6Cgq7w/mqdefault.jpg","viewCount":"929","playlistId":"PLEkQk5xrP-tnW3iBL7HkKziOFCFZbTlf0","playlistName":"شرح البرهان في علوم القرآن - أ.د. يسري جبر","category":"تفسير"},{"id":"-4jQR2BXCoA","title":"شرح البرهان في علوم القرآن - النوع ٣٣ - في معرفة جدله","publishedAt":"2020-02-24T06:00:00Z","duration":"PT29M48S","thumbnail":"https://i.ytimg.com/vi/-4jQR2BXCoA/mqdefault.jpg","viewCount":"348","playlistId":"PLEkQk5xrP-tnW3iBL7HkKziOFCFZbTlf0","playlistName":"شرح البرهان في علوم القرآن - أ.د. يسري جبر","category":"تفسير"},{"id":"sZTyE71s-Hs","title":"شرح البرهان في علوم القرآن - النوع ٣٢ - فصل في الحكم على الشيء مقيدا بصفة","publishedAt":"2020-02-23T06:00:06Z","duration":"PT26M5S","thumbnail":"https://i.ytimg.com/vi/sZTyE71s-Hs/mqdefault.jpg","viewCount":"335","playlistId":"PLEkQk5xrP-tnW3iBL7HkKziOFCFZbTlf0","playlistName":"شرح البرهان في علوم القرآن - أ.د. يسري جبر","category":"تفسير"},{"id":"5IEAJk1XxRU","title":"شرح البرهان في علوم القرآن - النوع ٣٢ - فصل الأحكام المستنبطة من تنبيه الخطاب","publishedAt":"2020-02-22T06:00:00Z","duration":"PT28M29S","thumbnail":"https://i.ytimg.com/vi/5IEAJk1XxRU/mqdefault.jpg","viewCount":"327","playlistId":"PLEkQk5xrP-tnW3iBL7HkKziOFCFZbTlf0","playlistName":"شرح البرهان في علوم القرآن - أ.د. يسري جبر","category":"تفسير"},{"id":"LcNzTtoXedI","title":"شرح البرهان في علوم القرآن - النوع ٣٢ - قاعدة في العموم والخصوص","publishedAt":"2020-02-21T06:00:04Z","duration":"PT8M31S","thumbnail":"https://i.ytimg.com/vi/LcNzTtoXedI/mqdefault.jpg","viewCount":"379","playlistId":"PLEkQk5xrP-tnW3iBL7HkKziOFCFZbTlf0","playlistName":"شرح البرهان في علوم القرآن - أ.د. يسري جبر","category":"تفسير"},{"id":"mnUM_yvqkZY","title":"شرح البرهان في علوم القرآن - النوع ٣٢ - فائدة","publishedAt":"2020-02-20T06:00:06Z","duration":"PT22M46S","thumbnail":"https://i.ytimg.com/vi/mnUM_yvqkZY/mqdefault.jpg","viewCount":"380","playlistId":"PLEkQk5xrP-tnW3iBL7HkKziOFCFZbTlf0","playlistName":"شرح البرهان في علوم القرآن - أ.د. يسري جبر","category":"تفسير"},{"id":"Vh0liiEid5w","title":"شرح البرهان في علوم القرآن - النوع ٣٢ - فصل","publishedAt":"2020-02-19T06:00:07Z","duration":"PT32M20S","thumbnail":"https://i.ytimg.com/vi/Vh0liiEid5w/mqdefault.jpg","viewCount":"313","playlistId":"PLEkQk5xrP-tnW3iBL7HkKziOFCFZbTlf0","playlistName":"شرح البرهان في علوم القرآن - أ.د. يسري جبر","category":"تفسير"},{"id":"kCI3vajfcUA","title":"شرح البرهان في علوم القرآن - النوع ٣٢ - فائدة في ضرورة معرفة المفسر قواعد أصول الفقه","publishedAt":"2020-02-18T06:00:04Z","duration":"PT31M59S","thumbnail":"https://i.ytimg.com/vi/kCI3vajfcUA/mqdefault.jpg","viewCount":"383","playlistId":"PLEkQk5xrP-tnW3iBL7HkKziOFCFZbTlf0","playlistName":"شرح البرهان في علوم القرآن - أ.د. يسري جبر","category":"تفسير"},{"id":"ddZCuxWbjjI","title":"137- معنى (ثُمَ - ثَمَّ) - شرح الإتقان في علوم القرآن","publishedAt":"2023-07-30T05:00:30Z","duration":"PT29M18S","thumbnail":"https://i.ytimg.com/vi/ddZCuxWbjjI/mqdefault.jpg","viewCount":"434","playlistId":"PLEkQk5xrP-tlPw10KGJKagu7zm4Ry2Tge","playlistName":"شرح الإتقان في علوم القرآن","category":"تفسير"},{"id":"TLf7kcuVY5Q","title":"136- معنى (بِئْسَ) - شرح الإتقان في علوم القرآن","publishedAt":"2023-07-29T05:00:12Z","duration":"PT24M17S","thumbnail":"https://i.ytimg.com/vi/TLf7kcuVY5Q/mqdefault.jpg","viewCount":"428","playlistId":"PLEkQk5xrP-tlPw10KGJKagu7zm4Ry2Tge","playlistName":"شرح الإتقان في علوم القرآن","category":"تفسير"},{"id":"idZXYuT1Uhw","title":"135- معنى (بَلْ) - شرح الإتقان في علوم القرآن","publishedAt":"2023-07-28T05:00:17Z","duration":"PT11M32S","thumbnail":"https://i.ytimg.com/vi/idZXYuT1Uhw/mqdefault.jpg","viewCount":"387","playlistId":"PLEkQk5xrP-tlPw10KGJKagu7zm4Ry2Tge","playlistName":"شرح الإتقان في علوم القرآن","category":"تفسير"},{"id":"5LvIc8b0cIc","title":"134- معاني حرف الباء - شرح الإتقان في علوم القرآن","publishedAt":"2023-07-27T05:00:02Z","duration":"PT22M38S","thumbnail":"https://i.ytimg.com/vi/5LvIc8b0cIc/mqdefault.jpg","viewCount":"641","playlistId":"PLEkQk5xrP-tlPw10KGJKagu7zm4Ry2Tge","playlistName":"شرح الإتقان في علوم القرآن","category":"تفسير"},{"id":"CrsPPr6SyeI","title":"133- معاني (إِيَّا - أَيَّانَ - أَيْنَ) - شرح الإتقان في علوم القرآن","publishedAt":"2023-07-26T05:00:08Z","duration":"PT18M35S","thumbnail":"https://i.ytimg.com/vi/CrsPPr6SyeI/mqdefault.jpg","viewCount":"377","playlistId":"PLEkQk5xrP-tlPw10KGJKagu7zm4Ry2Tge","playlistName":"شرح الإتقان في علوم القرآن","category":"تفسير"}],"total":1096,"page":14,"pageSize":24,"totalPages":46}