{"items":[{"id":"ZxWXS_K6Aaw","title":"شرح البرهان في علوم القرآن - النوع ٤١ - تنبيه: في كلام الصوفية في تفسير القرآن","publishedAt":"2020-04-21T20:05:05Z","duration":"PT33M20S","thumbnail":"https://i.ytimg.com/vi/ZxWXS_K6Aaw/mqdefault.jpg","viewCount":"711","playlistId":"PLEkQk5xrP-tnW3iBL7HkKziOFCFZbTlf0","playlistName":"شرح البرهان في علوم القرآن - أ.د. يسري جبر","category":"تفسير"},{"id":"XhvPk_4S3Mg","title":"شرح البرهان في علوم القرآن - النوع ١١ - القول في القراءات السبع ٥","publishedAt":"2019-10-25T19:12:13Z","duration":"PT23M27S","thumbnail":"https://i.ytimg.com/vi/XhvPk_4S3Mg/mqdefault.jpg","viewCount":"614","playlistId":"PLEkQk5xrP-tnW3iBL7HkKziOFCFZbTlf0","playlistName":"شرح البرهان في علوم القرآن - أ.د. يسري جبر","category":"تفسير"},{"id":"2NGSPb14hNs","title":"34- معنى نزول القرآن على سبعة أحرف (3) الوجه العاشر - شرح الإتقان في علوم القرآن","publishedAt":"2023-03-08T05:30:00Z","duration":"PT27M21S","thumbnail":"https://i.ytimg.com/vi/2NGSPb14hNs/mqdefault.jpg","viewCount":"1329","playlistId":"PLEkQk5xrP-tlPw10KGJKagu7zm4Ry2Tge","playlistName":"شرح الإتقان في علوم القرآن","category":"تفسير"},{"id":"Tie5cFqjiJw","title":"قراءة القرآن (من أول سورة الأنبياء)","publishedAt":"2015-06-13T03:33:29Z","duration":"PT18M30S","thumbnail":"https://i.ytimg.com/vi/Tie5cFqjiJw/mqdefault.jpg","viewCount":"136","playlistId":"PLEkQk5xrP-tnUSUj0uyJhA-kwNC7Gkx_j","playlistName":"مقرأة الفجر - بداية من سورة الإسراء حتى سورة الناس","category":"تفسير"},{"id":"ubub00A5zXI","title":"596- الحرف 56: (اللام) - شرح البرهان في علوم القرآن","publishedAt":"2022-11-15T05:00:24Z","duration":"PT18M54S","thumbnail":"https://i.ytimg.com/vi/ubub00A5zXI/mqdefault.jpg","viewCount":"347","playlistId":"PLEkQk5xrP-tnW3iBL7HkKziOFCFZbTlf0","playlistName":"شرح البرهان في علوم القرآن - أ.د. يسري جبر","category":"تفسير"},{"id":"R2lIl9T_HGE","title":"595- (كيف) للاستفهام عن الحال - شرح البرهان في علوم القرآن","publishedAt":"2022-11-14T05:05:00Z","duration":"PT9M57S","thumbnail":"https://i.ytimg.com/vi/R2lIl9T_HGE/mqdefault.jpg","viewCount":"332","playlistId":"PLEkQk5xrP-tnW3iBL7HkKziOFCFZbTlf0","playlistName":"شرح البرهان في علوم القرآن - أ.د. يسري جبر","category":"تفسير"},{"id":"gele3K_THt8","title":"594- كلمة (كَمْ) وأنواعها - شرح البرهان في علوم القرآن","publishedAt":"2022-11-13T05:05:00Z","duration":"PT12M38S","thumbnail":"https://i.ytimg.com/vi/gele3K_THt8/mqdefault.jpg","viewCount":"332","playlistId":"PLEkQk5xrP-tnW3iBL7HkKziOFCFZbTlf0","playlistName":"شرح البرهان في علوم القرآن - أ.د. يسري جبر","category":"تفسير"},{"id":"XNF5eO5CbIc","title":"571- حروف المعاني(32): الحرف(31) حيث - شرح البرهان في علوم القرآن","publishedAt":"2022-10-16T05:00:11Z","duration":"PT17M14S","thumbnail":"https://i.ytimg.com/vi/XNF5eO5CbIc/mqdefault.jpg","viewCount":"504","playlistId":"PLEkQk5xrP-tnW3iBL7HkKziOFCFZbTlf0","playlistName":"شرح البرهان في علوم القرآن - أ.د. يسري جبر","category":"تفسير"},{"id":"B0Bv9KObf4U","title":"546- استعمالات (إذا): قد تأتي زائدة - شرح البرهان في علوم القرآن","publishedAt":"2022-08-14T05:30:02Z","duration":"PT22M16S","thumbnail":"https://i.ytimg.com/vi/B0Bv9KObf4U/mqdefault.jpg","viewCount":"437","playlistId":"PLEkQk5xrP-tnW3iBL7HkKziOFCFZbTlf0","playlistName":"شرح البرهان في علوم القرآن - أ.د. يسري جبر","category":"تفسير"},{"id":"bWF_qbBtnxs","title":"545- أوجه الاختلاف بين (إذا) و (إن) - شرح البرهان في علوم القرآن","publishedAt":"2022-08-09T06:00:18Z","duration":"PT18M55S","thumbnail":"https://i.ytimg.com/vi/bWF_qbBtnxs/mqdefault.jpg","viewCount":"489","playlistId":"PLEkQk5xrP-tnW3iBL7HkKziOFCFZbTlf0","playlistName":"شرح البرهان في علوم القرآن - أ.د. يسري جبر","category":"تفسير"},{"id":"sxbs47oMkWg","title":"544- الفرق بين (إذا) و (إن) - شرح البرهان في علوم القرآن","publishedAt":"2022-08-05T05:15:01Z","duration":"PT28M32S","thumbnail":"https://i.ytimg.com/vi/sxbs47oMkWg/mqdefault.jpg","viewCount":"523","playlistId":"PLEkQk5xrP-tnW3iBL7HkKziOFCFZbTlf0","playlistName":"شرح البرهان في علوم القرآن - أ.د. يسري جبر","category":"تفسير"},{"id":"K8sDg7MqF1Y","title":"543- (إذا) ظرفٌ لِما يُستقبل من الزمان - شرح البرهان في علوم القرآن","publishedAt":"2022-08-02T05:15:00Z","duration":"PT18M32S","thumbnail":"https://i.ytimg.com/vi/K8sDg7MqF1Y/mqdefault.jpg","viewCount":"553","playlistId":"PLEkQk5xrP-tnW3iBL7HkKziOFCFZbTlf0","playlistName":"شرح البرهان في علوم القرآن - أ.د. يسري جبر","category":"تفسير"},{"id":"pQyG_yJA16o","title":"542- حروف المعاني: حرف إذا (3) فائدة - شرح البرهان في علوم القرآن","publishedAt":"2022-07-30T05:16:01Z","duration":"PT30M22S","thumbnail":"https://i.ytimg.com/vi/pQyG_yJA16o/mqdefault.jpg","viewCount":"509","playlistId":"PLEkQk5xrP-tnW3iBL7HkKziOFCFZbTlf0","playlistName":"شرح البرهان في علوم القرآن - أ.د. يسري جبر","category":"تفسير"},{"id":"6By00-2MLHc","title":"ختام شرح كتاب الإشارات الزروقيّة علی الآيات القرآنية - المجلس الثامن","publishedAt":"2018-07-01T09:02:07Z","duration":"PT59M17S","thumbnail":"https://i.ytimg.com/vi/6By00-2MLHc/mqdefault.jpg","viewCount":"826","playlistId":"PLEkQk5xrP-tl1OLT5J2vthcf9QHpjNkWx","playlistName":"شرح كتاب الإشارات الزروقيّة علی الآيات القرآنية  د. يسري جبر","category":"تفسير"},{"id":"hsPp16Dgsxw","title":"شرح كتاب الإشارات الزروقيّة علی الآيات القرآنية - المجلس السابع","publishedAt":"2018-06-29T09:13:28Z","duration":"PT1H3M38S","thumbnail":"https://i.ytimg.com/vi/hsPp16Dgsxw/mqdefault.jpg","viewCount":"891","playlistId":"PLEkQk5xrP-tl1OLT5J2vthcf9QHpjNkWx","playlistName":"شرح كتاب الإشارات الزروقيّة علی الآيات القرآنية  د. يسري جبر","category":"تفسير"},{"id":"FKebcgEeWfs","title":"263- بدائع القرآن - شرح الإتقان في علوم القرآن","publishedAt":"2024-10-31T06:00:06Z","duration":"PT37M39S","thumbnail":"https://i.ytimg.com/vi/FKebcgEeWfs/mqdefault.jpg","viewCount":"682","playlistId":"PLEkQk5xrP-tlPw10KGJKagu7zm4Ry2Tge","playlistName":"شرح الإتقان في علوم القرآن","category":"تفسير"},{"id":"NU9Z4qDmSYc","title":"262- التَّمَنِّي - شرح الإتقان في علوم القرآن","publishedAt":"2024-10-29T06:00:21Z","duration":"PT22M1S","thumbnail":"https://i.ytimg.com/vi/NU9Z4qDmSYc/mqdefault.jpg","viewCount":"545","playlistId":"PLEkQk5xrP-tlPw10KGJKagu7zm4Ry2Tge","playlistName":"شرح الإتقان في علوم القرآن","category":"تفسير"},{"id":"7JBGPJZWYkc","title":"261- الأمر - شرح الإتقان في علوم القرآن","publishedAt":"2024-10-27T06:00:04Z","duration":"PT18M47S","thumbnail":"https://i.ytimg.com/vi/7JBGPJZWYkc/mqdefault.jpg","viewCount":"450","playlistId":"PLEkQk5xrP-tlPw10KGJKagu7zm4Ry2Tge","playlistName":"شرح الإتقان في علوم القرآن","category":"تفسير"},{"id":"xSX2yEs6O6Q","title":"شرح كتاب الإشارات الزروقيّة علی الآيات القرآنية - المجلس السادس","publishedAt":"2018-06-29T09:13:02Z","duration":"PT40M25S","thumbnail":"https://i.ytimg.com/vi/xSX2yEs6O6Q/mqdefault.jpg","viewCount":"1007","playlistId":"PLEkQk5xrP-tl1OLT5J2vthcf9QHpjNkWx","playlistName":"شرح كتاب الإشارات الزروقيّة علی الآيات القرآنية  د. يسري جبر","category":"تفسير"},{"id":"0eE-goJ9pwY","title":"شرح كتاب الإشارات الزروقيّة علی الآيات القرآنية - المجلس الخامس","publishedAt":"2018-06-28T09:27:56Z","duration":"PT35M54S","thumbnail":"https://i.ytimg.com/vi/0eE-goJ9pwY/mqdefault.jpg","viewCount":"939","playlistId":"PLEkQk5xrP-tl1OLT5J2vthcf9QHpjNkWx","playlistName":"شرح كتاب الإشارات الزروقيّة علی الآيات القرآنية  د. يسري جبر","category":"تفسير"},{"id":"ibAR_99gbTI","title":"شرح كتاب الإشارات الزروقيّة علی الآيات القرآنية - المجلس الأول","publishedAt":"2018-06-28T04:03:04Z","duration":"PT35M20S","thumbnail":"https://i.ytimg.com/vi/ibAR_99gbTI/mqdefault.jpg","viewCount":"5050","playlistId":"PLEkQk5xrP-tl1OLT5J2vthcf9QHpjNkWx","playlistName":"شرح كتاب الإشارات الزروقيّة علی الآيات القرآنية  د. يسري جبر","category":"تفسير"},{"id":"4aIH8XByiSc","title":"شرح البرهان في علوم القرآن - النوع ٣ - فصل في ضابط الفواصل","publishedAt":"2019-09-06T18:35:41Z","duration":"PT34M11S","thumbnail":"https://i.ytimg.com/vi/4aIH8XByiSc/mqdefault.jpg","viewCount":"1196","playlistId":"PLEkQk5xrP-tnW3iBL7HkKziOFCFZbTlf0","playlistName":"شرح البرهان في علوم القرآن - أ.د. يسري جبر","category":"تفسير"},{"id":"Z1tkoFSKcDo","title":"شرح البرهان في علوم القرآن - النوع ٣ - ائتلاف الفواصل مع ما يدل عليه الكلام ٤","publishedAt":"2019-09-05T10:15:12Z","duration":"PT29M11S","thumbnail":"https://i.ytimg.com/vi/Z1tkoFSKcDo/mqdefault.jpg","viewCount":"1482","playlistId":"PLEkQk5xrP-tnW3iBL7HkKziOFCFZbTlf0","playlistName":"شرح البرهان في علوم القرآن - أ.د. يسري جبر","category":"تفسير"},{"id":"D26faSFPW9s","title":"89- غريب القرآن(4)- ما جاء في سورة سبأ - شرح الإتقان في علوم القرآن","publishedAt":"2023-06-02T05:00:10Z","duration":"PT31M3S","thumbnail":"https://i.ytimg.com/vi/D26faSFPW9s/mqdefault.jpg","viewCount":"630","playlistId":"PLEkQk5xrP-tlPw10KGJKagu7zm4Ry2Tge","playlistName":"شرح الإتقان في علوم القرآن","category":"تفسير"}],"total":1096,"page":13,"pageSize":24,"totalPages":46}