{"items":[{"id":"-4jQR2BXCoA","title":"شرح البرهان في علوم القرآن - النوع ٣٣ - في معرفة جدله","publishedAt":"2020-02-24T06:00:00Z","duration":"PT29M48S","thumbnail":"https://i.ytimg.com/vi/-4jQR2BXCoA/mqdefault.jpg","viewCount":"348","playlistId":"PLEkQk5xrP-tnW3iBL7HkKziOFCFZbTlf0","playlistName":"شرح البرهان في علوم القرآن - أ.د. يسري جبر","category":"تفسير"},{"id":"sZTyE71s-Hs","title":"شرح البرهان في علوم القرآن - النوع ٣٢ - فصل في الحكم على الشيء مقيدا بصفة","publishedAt":"2020-02-23T06:00:06Z","duration":"PT26M5S","thumbnail":"https://i.ytimg.com/vi/sZTyE71s-Hs/mqdefault.jpg","viewCount":"335","playlistId":"PLEkQk5xrP-tnW3iBL7HkKziOFCFZbTlf0","playlistName":"شرح البرهان في علوم القرآن - أ.د. يسري جبر","category":"تفسير"},{"id":"5IEAJk1XxRU","title":"شرح البرهان في علوم القرآن - النوع ٣٢ - فصل الأحكام المستنبطة من تنبيه الخطاب","publishedAt":"2020-02-22T06:00:00Z","duration":"PT28M29S","thumbnail":"https://i.ytimg.com/vi/5IEAJk1XxRU/mqdefault.jpg","viewCount":"327","playlistId":"PLEkQk5xrP-tnW3iBL7HkKziOFCFZbTlf0","playlistName":"شرح البرهان في علوم القرآن - أ.د. يسري جبر","category":"تفسير"},{"id":"LcNzTtoXedI","title":"شرح البرهان في علوم القرآن - النوع ٣٢ - قاعدة في العموم والخصوص","publishedAt":"2020-02-21T06:00:04Z","duration":"PT8M31S","thumbnail":"https://i.ytimg.com/vi/LcNzTtoXedI/mqdefault.jpg","viewCount":"379","playlistId":"PLEkQk5xrP-tnW3iBL7HkKziOFCFZbTlf0","playlistName":"شرح البرهان في علوم القرآن - أ.د. يسري جبر","category":"تفسير"},{"id":"mnUM_yvqkZY","title":"شرح البرهان في علوم القرآن - النوع ٣٢ - فائدة","publishedAt":"2020-02-20T06:00:06Z","duration":"PT22M46S","thumbnail":"https://i.ytimg.com/vi/mnUM_yvqkZY/mqdefault.jpg","viewCount":"380","playlistId":"PLEkQk5xrP-tnW3iBL7HkKziOFCFZbTlf0","playlistName":"شرح البرهان في علوم القرآن - أ.د. يسري جبر","category":"تفسير"},{"id":"Vh0liiEid5w","title":"شرح البرهان في علوم القرآن - النوع ٣٢ - فصل","publishedAt":"2020-02-19T06:00:07Z","duration":"PT32M20S","thumbnail":"https://i.ytimg.com/vi/Vh0liiEid5w/mqdefault.jpg","viewCount":"313","playlistId":"PLEkQk5xrP-tnW3iBL7HkKziOFCFZbTlf0","playlistName":"شرح البرهان في علوم القرآن - أ.د. يسري جبر","category":"تفسير"},{"id":"kCI3vajfcUA","title":"شرح البرهان في علوم القرآن - النوع ٣٢ - فائدة في ضرورة معرفة المفسر قواعد أصول الفقه","publishedAt":"2020-02-18T06:00:04Z","duration":"PT31M59S","thumbnail":"https://i.ytimg.com/vi/kCI3vajfcUA/mqdefault.jpg","viewCount":"383","playlistId":"PLEkQk5xrP-tnW3iBL7HkKziOFCFZbTlf0","playlistName":"شرح البرهان في علوم القرآن - أ.د. يسري جبر","category":"تفسير"},{"id":"-FLkP4vXyU8","title":"529- معنى ألفاظ (شَعَرَ - عَسَى - لعل) والفرق بينهم - شرح البرهان في علوم القرآن","publishedAt":"2022-06-16T05:20:00Z","duration":"PT21M58S","thumbnail":"https://i.ytimg.com/vi/-FLkP4vXyU8/mqdefault.jpg","viewCount":"766","playlistId":"PLEkQk5xrP-tnW3iBL7HkKziOFCFZbTlf0","playlistName":"شرح البرهان في علوم القرآن - أ.د. يسري جبر","category":"تفسير"},{"id":"_BxkOgWZUTg","title":"شرح البرهان في علوم القرآن - النوع ١٣ - في بيان جمعه ومن حفظه من الصحابة رضي الله عنهم","publishedAt":"2019-10-30T09:21:04Z","duration":"PT18M9S","thumbnail":"https://i.ytimg.com/vi/_BxkOgWZUTg/mqdefault.jpg","viewCount":"525","playlistId":"PLEkQk5xrP-tnW3iBL7HkKziOFCFZbTlf0","playlistName":"شرح البرهان في علوم القرآن - أ.د. يسري جبر","category":"تفسير"},{"id":"mDUHPw-uHWQ","title":"شرح البرهان في علوم القرآن - النوع ١٢ - في كيفية إنزاله ٢","publishedAt":"2019-10-29T12:03:18Z","duration":"PT16M53S","thumbnail":"https://i.ytimg.com/vi/mDUHPw-uHWQ/mqdefault.jpg","viewCount":"554","playlistId":"PLEkQk5xrP-tnW3iBL7HkKziOFCFZbTlf0","playlistName":"شرح البرهان في علوم القرآن - أ.د. يسري جبر","category":"تفسير"},{"id":"4Rinfc3wK1k","title":"شرح البرهان في علوم القرآن - النوع ١٢ - في كيفية إنزاله","publishedAt":"2019-10-27T15:23:07Z","duration":"PT17M32S","thumbnail":"https://i.ytimg.com/vi/4Rinfc3wK1k/mqdefault.jpg","viewCount":"538","playlistId":"PLEkQk5xrP-tnW3iBL7HkKziOFCFZbTlf0","playlistName":"شرح البرهان في علوم القرآن - أ.د. يسري جبر","category":"تفسير"},{"id":"vytCYGy7nHM","title":"القِسمُ (28) من التوكيد: التعليل (3) \"أن والفعل المستقبل بعدها\" شرح البرهان في علوم القرآن","publishedAt":"2021-06-05T07:47:38Z","duration":"PT30M12S","thumbnail":"https://i.ytimg.com/vi/vytCYGy7nHM/mqdefault.jpg","viewCount":"406","playlistId":"PLEkQk5xrP-tnW3iBL7HkKziOFCFZbTlf0","playlistName":"شرح البرهان في علوم القرآن - أ.د. يسري جبر","category":"تفسير"},{"id":"8NLMoRdobI8","title":"قراءة القرآن (من أول سورة النمل)","publishedAt":"2015-07-05T03:26:00Z","duration":"PT18M52S","thumbnail":"https://i.ytimg.com/vi/8NLMoRdobI8/mqdefault.jpg","viewCount":"94","playlistId":"PLEkQk5xrP-tnUSUj0uyJhA-kwNC7Gkx_j","playlistName":"مقرأة الفجر - بداية من سورة الإسراء حتى سورة الناس","category":"تفسير"},{"id":"DSIFsa1Nzlw","title":"قراءة القرآن (من آية 176 سورة الشعراء)","publishedAt":"2015-07-04T03:12:43Z","duration":"PT14M32S","thumbnail":"https://i.ytimg.com/vi/DSIFsa1Nzlw/mqdefault.jpg","viewCount":"983","playlistId":"PLEkQk5xrP-tnUSUj0uyJhA-kwNC7Gkx_j","playlistName":"مقرأة الفجر - بداية من سورة الإسراء حتى سورة الناس","category":"تفسير"},{"id":"3v9rTKhKnbM","title":"619- (ما) الشَرطيَّة - شرح البرهان في علوم القرآن","publishedAt":"2022-12-13T05:00:04Z","duration":"PT31M33S","thumbnail":"https://i.ytimg.com/vi/3v9rTKhKnbM/mqdefault.jpg","viewCount":"281","playlistId":"PLEkQk5xrP-tnW3iBL7HkKziOFCFZbTlf0","playlistName":"شرح البرهان في علوم القرآن - أ.د. يسري جبر","category":"تفسير"},{"id":"NuPqmeTmyZs","title":"618- معنى (ما) - شرح البرهان في علوم القرآن","publishedAt":"2022-12-11T05:00:09Z","duration":"PT37M19S","thumbnail":"https://i.ytimg.com/vi/NuPqmeTmyZs/mqdefault.jpg","viewCount":"391","playlistId":"PLEkQk5xrP-tnW3iBL7HkKziOFCFZbTlf0","playlistName":"شرح البرهان في علوم القرآن - أ.د. يسري جبر","category":"تفسير"},{"id":"ZxWXS_K6Aaw","title":"شرح البرهان في علوم القرآن - النوع ٤١ - تنبيه: في كلام الصوفية في تفسير القرآن","publishedAt":"2020-04-21T20:05:05Z","duration":"PT33M20S","thumbnail":"https://i.ytimg.com/vi/ZxWXS_K6Aaw/mqdefault.jpg","viewCount":"711","playlistId":"PLEkQk5xrP-tnW3iBL7HkKziOFCFZbTlf0","playlistName":"شرح البرهان في علوم القرآن - أ.د. يسري جبر","category":"تفسير"},{"id":"XhvPk_4S3Mg","title":"شرح البرهان في علوم القرآن - النوع ١١ - القول في القراءات السبع ٥","publishedAt":"2019-10-25T19:12:13Z","duration":"PT23M27S","thumbnail":"https://i.ytimg.com/vi/XhvPk_4S3Mg/mqdefault.jpg","viewCount":"614","playlistId":"PLEkQk5xrP-tnW3iBL7HkKziOFCFZbTlf0","playlistName":"شرح البرهان في علوم القرآن - أ.د. يسري جبر","category":"تفسير"},{"id":"7Rqx7TXComc","title":"شرح البرهان في علوم القرآن - النوع ١١ - القول في القراءات السبع ٤","publishedAt":"2019-10-24T10:17:44Z","duration":"PT17M14S","thumbnail":"https://i.ytimg.com/vi/7Rqx7TXComc/mqdefault.jpg","viewCount":"579","playlistId":"PLEkQk5xrP-tnW3iBL7HkKziOFCFZbTlf0","playlistName":"شرح البرهان في علوم القرآن - أ.د. يسري جبر","category":"تفسير"},{"id":"nQ623bZ2WCA","title":"شرح البرهان في علوم القرآن - النوع ١١ - القول في القراءات السبع ٣","publishedAt":"2019-10-23T10:44:38Z","duration":"PT11M11S","thumbnail":"https://i.ytimg.com/vi/nQ623bZ2WCA/mqdefault.jpg","viewCount":"592","playlistId":"PLEkQk5xrP-tnW3iBL7HkKziOFCFZbTlf0","playlistName":"شرح البرهان في علوم القرآن - أ.د. يسري جبر","category":"تفسير"},{"id":"KtYCg9atNZQ","title":"شرح البرهان في علوم القرآن - النوع ١١ - القول في القراءات السبع ٢","publishedAt":"2019-10-22T12:00:15Z","duration":"PT17M29S","thumbnail":"https://i.ytimg.com/vi/KtYCg9atNZQ/mqdefault.jpg","viewCount":"561","playlistId":"PLEkQk5xrP-tnW3iBL7HkKziOFCFZbTlf0","playlistName":"شرح البرهان في علوم القرآن - أ.د. يسري جبر","category":"تفسير"},{"id":"x5PmvLeKSP4","title":"شرح البرهان في علوم القرآن - النوع ١١ - القول في القراءات السبع","publishedAt":"2019-10-20T14:58:02Z","duration":"PT20M26S","thumbnail":"https://i.ytimg.com/vi/x5PmvLeKSP4/mqdefault.jpg","viewCount":"666","playlistId":"PLEkQk5xrP-tnW3iBL7HkKziOFCFZbTlf0","playlistName":"شرح البرهان في علوم القرآن - أ.د. يسري جبر","category":"تفسير"},{"id":"79YDjzIyYuU","title":"شرح البرهان في علوم القرآن - النوع ١١ - معرفة على كم لغة","publishedAt":"2019-10-17T15:07:35Z","duration":"PT15M33S","thumbnail":"https://i.ytimg.com/vi/79YDjzIyYuU/mqdefault.jpg","viewCount":"563","playlistId":"PLEkQk5xrP-tnW3iBL7HkKziOFCFZbTlf0","playlistName":"شرح البرهان في علوم القرآن - أ.د. يسري جبر","category":"تفسير"},{"id":"ppamWGHHnqk","title":"شرح البرهان في علوم القرآن - النوع ١٠ - معرفة أول ما نزل من القرآن وآخر ما نزل","publishedAt":"2019-10-15T10:06:18Z","duration":"PT27M50S","thumbnail":"https://i.ytimg.com/vi/ppamWGHHnqk/mqdefault.jpg","viewCount":"1016","playlistId":"PLEkQk5xrP-tnW3iBL7HkKziOFCFZbTlf0","playlistName":"شرح البرهان في علوم القرآن - أ.د. يسري جبر","category":"تفسير"}],"total":1096,"page":45,"pageSize":24,"totalPages":46}