{"items":[{"id":"0JRg6SQrOaU","title":"197- فصلٌ: من الْمُتَشَابه آيَاتُ الصِّفات  - شرح الإتقان في علوم القرآن","publishedAt":"2024-01-15T06:46:40Z","duration":"PT41M55S","thumbnail":"https://i.ytimg.com/vi/0JRg6SQrOaU/mqdefault.jpg","viewCount":"1030","playlistId":"PLEkQk5xrP-tlPw10KGJKagu7zm4Ry2Tge","playlistName":"شرح الإتقان في علوم القرآن","category":"تفسير"},{"id":"04oSNE6RipI","title":"195- المحكم والمتشابه - شرح الإتقان في علوم القرآن","publishedAt":"2024-01-09T06:15:00Z","duration":"PT52M17S","thumbnail":"https://i.ytimg.com/vi/04oSNE6RipI/mqdefault.jpg","viewCount":"1344","playlistId":"PLEkQk5xrP-tlPw10KGJKagu7zm4Ry2Tge","playlistName":"شرح الإتقان في علوم القرآن","category":"تفسير"},{"id":"H_f1SuulmcY","title":"305- المبهم من أسماء الأعلام في الآيات القرآنية - شرح الإتقان في علوم القرآن","publishedAt":"2025-10-15T09:00:23Z","duration":"PT26M21S","thumbnail":"https://i.ytimg.com/vi/H_f1SuulmcY/mqdefault.jpg","viewCount":"425","playlistId":"PLEkQk5xrP-tlPw10KGJKagu7zm4Ry2Tge","playlistName":"شرح الإتقان في علوم القرآن","category":"تفسير"},{"id":"KSKt7LB9vnI","title":"304- المبهمات في القرآن - شرح الإتقان في علوم القرآن","publishedAt":"2025-10-13T05:07:30Z","duration":"PT24M17S","thumbnail":"https://i.ytimg.com/vi/KSKt7LB9vnI/mqdefault.jpg","viewCount":"442","playlistId":"PLEkQk5xrP-tlPw10KGJKagu7zm4Ry2Tge","playlistName":"شرح الإتقان في علوم القرآن","category":"تفسير"},{"id":"RvL1maGsP1s","title":"303- أسباب الإبهام في القرآن - شرح الإتقان في علوم القرآن","publishedAt":"2025-10-09T09:00:47Z","duration":"PT25M37S","thumbnail":"https://i.ytimg.com/vi/RvL1maGsP1s/mqdefault.jpg","viewCount":"242","playlistId":"PLEkQk5xrP-tlPw10KGJKagu7zm4Ry2Tge","playlistName":"شرح الإتقان في علوم القرآن","category":"تفسير"},{"id":"7S4-4RtsFIk","title":"أسباب الالتفات: السبب الثالث - شرح البرهان في علوم القرآن","publishedAt":"2021-11-29T06:55:14Z","duration":"PT12M23S","thumbnail":"https://i.ytimg.com/vi/7S4-4RtsFIk/mqdefault.jpg","viewCount":"578","playlistId":"PLEkQk5xrP-tnW3iBL7HkKziOFCFZbTlf0","playlistName":"شرح البرهان في علوم القرآن - أ.د. يسري جبر","category":"تفسير"},{"id":"Fe2k2MF8ktQ","title":"الالتفات: البحث الثالث: أسباب الالتفات - شرح البرهان في علوم القرآن","publishedAt":"2021-11-27T08:04:32Z","duration":"PT28M10S","thumbnail":"https://i.ytimg.com/vi/Fe2k2MF8ktQ/mqdefault.jpg","viewCount":"768","playlistId":"PLEkQk5xrP-tnW3iBL7HkKziOFCFZbTlf0","playlistName":"شرح البرهان في علوم القرآن - أ.د. يسري جبر","category":"تفسير"},{"id":"q1k9zxhuQi0","title":"شرح البرهان في علوم القرآن - النوع ٢٢ - معرفة اختلاف الألفاظ بزيادة أو نقص أو تغيير ٢","publishedAt":"2019-12-20T05:06:30Z","duration":"PT31M39S","thumbnail":"https://i.ytimg.com/vi/q1k9zxhuQi0/mqdefault.jpg","viewCount":"561","playlistId":"PLEkQk5xrP-tnW3iBL7HkKziOFCFZbTlf0","playlistName":"شرح البرهان في علوم القرآن - أ.د. يسري جبر","category":"تفسير"},{"id":"jth7Sv2z-Ek","title":"شرح البرهان في علوم القرآن - النوع ٢٢ - معرفة اختلاف الألفاظ بزيادة أو نقص أو تغيير","publishedAt":"2019-12-19T17:18:30Z","duration":"PT32M28S","thumbnail":"https://i.ytimg.com/vi/jth7Sv2z-Ek/mqdefault.jpg","viewCount":"435","playlistId":"PLEkQk5xrP-tnW3iBL7HkKziOFCFZbTlf0","playlistName":"شرح البرهان في علوم القرآن - أ.د. يسري جبر","category":"تفسير"},{"id":"sIooT4zDpTU","title":"شرح البرهان في علوم القرآن - النوع ٢٢ - معرفة اختلاف الألفاظ بزيادة أو نقص أو تغيير ٥","publishedAt":"2019-12-19T04:30:28Z","duration":"PT26M30S","thumbnail":"https://i.ytimg.com/vi/sIooT4zDpTU/mqdefault.jpg","viewCount":"241","playlistId":"PLEkQk5xrP-tnW3iBL7HkKziOFCFZbTlf0","playlistName":"شرح البرهان في علوم القرآن - أ.د. يسري جبر","category":"تفسير"},{"id":"Y7OAseB02BM","title":"شرح البرهان في علوم القرآن - النوع ٢١ - معرفة كون اللفظ والتركيب أحسن وأفصح ٣","publishedAt":"2019-12-18T18:57:44Z","duration":"PT23M30S","thumbnail":"https://i.ytimg.com/vi/Y7OAseB02BM/mqdefault.jpg","viewCount":"445","playlistId":"PLEkQk5xrP-tnW3iBL7HkKziOFCFZbTlf0","playlistName":"شرح البرهان في علوم القرآن - أ.د. يسري جبر","category":"تفسير"},{"id":"5hoZp86N-0g","title":"شرح البرهان في علوم القرآن - النوع ٢١ - معرفة كون اللفظ والتركيب أحسن وأفصح ٢","publishedAt":"2019-12-17T19:02:36Z","duration":"PT17M28S","thumbnail":"https://i.ytimg.com/vi/5hoZp86N-0g/mqdefault.jpg","viewCount":"433","playlistId":"PLEkQk5xrP-tnW3iBL7HkKziOFCFZbTlf0","playlistName":"شرح البرهان في علوم القرآن - أ.د. يسري جبر","category":"تفسير"},{"id":"PfJY0jiuc_g","title":"القِسمُ الثاني: الصِّفَة تأتي لأسباب: ثالثًا: الثالث لتعيينه للجنسية - شرح البرهان في علوم القرآن","publishedAt":"2021-02-01T07:08:31Z","duration":"PT18M56S","thumbnail":"https://i.ytimg.com/vi/PfJY0jiuc_g/mqdefault.jpg","viewCount":"574","playlistId":"PLEkQk5xrP-tnW3iBL7HkKziOFCFZbTlf0","playlistName":"شرح البرهان في علوم القرآن - أ.د. يسري جبر","category":"تفسير"},{"id":"ac0ZcYl7wTg","title":"الاختزال (41) أقسام الإيجاز - شرح البرهان في علوم القرآن","publishedAt":"2021-09-08T05:45:03Z","duration":"PT32M47S","thumbnail":"https://i.ytimg.com/vi/ac0ZcYl7wTg/mqdefault.jpg","viewCount":"439","playlistId":"PLEkQk5xrP-tnW3iBL7HkKziOFCFZbTlf0","playlistName":"شرح البرهان في علوم القرآن - أ.د. يسري جبر","category":"تفسير"},{"id":"3xLE5MSPPZc","title":"الاختزال (40) الإيجاز في بعض الأمثلة القرآنية - شرح البرهان في علوم القرآن","publishedAt":"2021-09-06T19:26:10Z","duration":"PT29M15S","thumbnail":"https://i.ytimg.com/vi/3xLE5MSPPZc/mqdefault.jpg","viewCount":"732","playlistId":"PLEkQk5xrP-tnW3iBL7HkKziOFCFZbTlf0","playlistName":"شرح البرهان في علوم القرآن - أ.د. يسري جبر","category":"تفسير"},{"id":"S2cZG3nMz6A","title":"278- فواصل الآي (4) التمكين - شرح الإتقان في علوم القرآن","publishedAt":"2025-01-05T07:15:01Z","duration":"PT40M1S","thumbnail":"https://i.ytimg.com/vi/S2cZG3nMz6A/mqdefault.jpg","viewCount":"538","playlistId":"PLEkQk5xrP-tlPw10KGJKagu7zm4Ry2Tge","playlistName":"شرح الإتقان في علوم القرآن","category":"تفسير"},{"id":"DH7SxBQEhXA","title":"216-فصلٌ في أسباب الاختلاف - شرح الإتقان في علوم القرآن","publishedAt":"2024-03-07T06:30:04Z","duration":"PT32M35S","thumbnail":"https://i.ytimg.com/vi/DH7SxBQEhXA/mqdefault.jpg","viewCount":"722","playlistId":"PLEkQk5xrP-tlPw10KGJKagu7zm4Ry2Tge","playlistName":"شرح الإتقان في علوم القرآن","category":"تفسير"},{"id":"xwCptz17uow","title":"107- الألفاظ الواردة في القرآن التي لها معاني في لغات أخرى - شرح الإتقان في علوم القرآن","publishedAt":"2023-06-21T05:01:00Z","duration":"PT24M46S","thumbnail":"https://i.ytimg.com/vi/xwCptz17uow/mqdefault.jpg","viewCount":"849","playlistId":"PLEkQk5xrP-tlPw10KGJKagu7zm4Ry2Tge","playlistName":"شرح الإتقان في علوم القرآن","category":"تفسير"},{"id":"Q9yHbRYhFZY","title":"105- ما وقع في القرآن بغير لغة الحجاز (4) - شرح الإتقان في علوم القرآن","publishedAt":"2023-06-19T05:00:12Z","duration":"PT18M57S","thumbnail":"https://i.ytimg.com/vi/Q9yHbRYhFZY/mqdefault.jpg","viewCount":"411","playlistId":"PLEkQk5xrP-tlPw10KGJKagu7zm4Ry2Tge","playlistName":"شرح الإتقان في علوم القرآن","category":"تفسير"},{"id":"vablJh7kcLg","title":"قراءة القرآن (من أول سورة التحريم)","publishedAt":"2016-01-27T07:16:01Z","duration":"PT20M45S","thumbnail":"https://i.ytimg.com/vi/vablJh7kcLg/mqdefault.jpg","viewCount":"120","playlistId":"PLEkQk5xrP-tnUSUj0uyJhA-kwNC7Gkx_j","playlistName":"مقرأة الفجر - بداية من سورة الإسراء حتى سورة الناس","category":"تفسير"},{"id":"DDfiWgM8_os","title":"قراءة القرآن (من أول سورة الطلاق)","publishedAt":"2016-01-25T09:25:25Z","duration":"PT30M41S","thumbnail":"https://i.ytimg.com/vi/DDfiWgM8_os/mqdefault.jpg","viewCount":"80","playlistId":"PLEkQk5xrP-tnUSUj0uyJhA-kwNC7Gkx_j","playlistName":"مقرأة الفجر - بداية من سورة الإسراء حتى سورة الناس","category":"تفسير"},{"id":"HNMWALLByAI","title":"قراءة القرآن (من أول سورة التغابن)","publishedAt":"2016-01-25T07:13:58Z","duration":"PT22M26S","thumbnail":"https://i.ytimg.com/vi/HNMWALLByAI/mqdefault.jpg","viewCount":"83","playlistId":"PLEkQk5xrP-tnUSUj0uyJhA-kwNC7Gkx_j","playlistName":"مقرأة الفجر - بداية من سورة الإسراء حتى سورة الناس","category":"تفسير"},{"id":"XmePbgiaUvw","title":"قراءة القرآن (من أول سورة المنافقون)","publishedAt":"2016-01-23T22:41:46Z","duration":"PT12M25S","thumbnail":"https://i.ytimg.com/vi/XmePbgiaUvw/mqdefault.jpg","viewCount":"76","playlistId":"PLEkQk5xrP-tnUSUj0uyJhA-kwNC7Gkx_j","playlistName":"مقرأة الفجر - بداية من سورة الإسراء حتى سورة الناس","category":"تفسير"},{"id":"XrFDwHQrOyY","title":"302- أسماء البلاد والأمكنة - شرح الإتقان في علوم القرآن","publishedAt":"2025-09-29T09:00:48Z","duration":"PT25M5S","thumbnail":"https://i.ytimg.com/vi/XrFDwHQrOyY/mqdefault.jpg","viewCount":"413","playlistId":"PLEkQk5xrP-tlPw10KGJKagu7zm4Ry2Tge","playlistName":"شرح الإتقان في علوم القرآن","category":"تفسير"}],"total":1096,"page":42,"pageSize":24,"totalPages":46}