{"items":[{"id":"TXswahghWeQ","title":"التضمين: تنبيهات - شرح البرهان في علوم القرآن","publishedAt":"2021-12-06T06:34:51Z","duration":"PT35M16S","thumbnail":"https://i.ytimg.com/vi/TXswahghWeQ/mqdefault.jpg","viewCount":"680","playlistId":"PLEkQk5xrP-tnW3iBL7HkKziOFCFZbTlf0","playlistName":"شرح البرهان في علوم القرآن - أ.د. يسري جبر","category":"تفسير"},{"id":"D00bifiICAY","title":"الأسلوب الثالث عشر: التضمين - شرح البرهان في علوم القرآن","publishedAt":"2021-12-04T06:46:11Z","duration":"PT45M41S","thumbnail":"https://i.ytimg.com/vi/D00bifiICAY/mqdefault.jpg","viewCount":"588","playlistId":"PLEkQk5xrP-tnW3iBL7HkKziOFCFZbTlf0","playlistName":"شرح البرهان في علوم القرآن - أ.د. يسري جبر","category":"تفسير"},{"id":"gRIS6tve4i4","title":"7- تكملة بيان السور المختلَف فيها بين المكّي والمدني - شرح الإتقان في علوم القرآن","publishedAt":"2023-01-14T05:00:27Z","duration":"PT29M41S","thumbnail":"https://i.ytimg.com/vi/gRIS6tve4i4/mqdefault.jpg","viewCount":"1462","playlistId":"PLEkQk5xrP-tlPw10KGJKagu7zm4Ry2Tge","playlistName":"شرح الإتقان في علوم القرآن","category":"تفسير"},{"id":"aqN_Tq5Rh7g","title":"6- بيان السور المختلَف فيها بين المكّي والمدني - شرح الإتقان في علوم القرآن","publishedAt":"2023-01-13T05:00:01Z","duration":"PT34M10S","thumbnail":"https://i.ytimg.com/vi/aqN_Tq5Rh7g/mqdefault.jpg","viewCount":"1888","playlistId":"PLEkQk5xrP-tlPw10KGJKagu7zm4Ry2Tge","playlistName":"شرح الإتقان في علوم القرآن","category":"تفسير"},{"id":"RTjCQyqbnsA","title":"الاختزال (24) حذف جواب القَسَم - شرح البرهان في علوم القرآن","publishedAt":"2021-08-02T05:31:15Z","duration":"PT11M37S","thumbnail":"https://i.ytimg.com/vi/RTjCQyqbnsA/mqdefault.jpg","viewCount":"424","playlistId":"PLEkQk5xrP-tnW3iBL7HkKziOFCFZbTlf0","playlistName":"شرح البرهان في علوم القرآن - أ.د. يسري جبر","category":"تفسير"},{"id":"7Ud8CZZILIk","title":"الاختزال (23) حذف جواب الشرط (4) أمثلة - شرح البرهان في علوم القرآن","publishedAt":"2021-07-31T05:07:30Z","duration":"PT16M39S","thumbnail":"https://i.ytimg.com/vi/7Ud8CZZILIk/mqdefault.jpg","viewCount":"396","playlistId":"PLEkQk5xrP-tnW3iBL7HkKziOFCFZbTlf0","playlistName":"شرح البرهان في علوم القرآن - أ.د. يسري جبر","category":"تفسير"},{"id":"iv7DgxgG_sA","title":"الاختزال (22) حذف جواب الشرط (3) أمثلة - شرح البرهان في علوم القرآن","publishedAt":"2021-07-29T05:24:33Z","duration":"PT15M41S","thumbnail":"https://i.ytimg.com/vi/iv7DgxgG_sA/mqdefault.jpg","viewCount":"382","playlistId":"PLEkQk5xrP-tnW3iBL7HkKziOFCFZbTlf0","playlistName":"شرح البرهان في علوم القرآن - أ.د. يسري جبر","category":"تفسير"},{"id":"ARot-1pDBtM","title":"الاختزال (21) حذف جواب الشرط (2) أمثلة - شرح البرهان في علوم القرآن","publishedAt":"2021-07-27T05:33:36Z","duration":"PT14M14S","thumbnail":"https://i.ytimg.com/vi/ARot-1pDBtM/mqdefault.jpg","viewCount":"327","playlistId":"PLEkQk5xrP-tnW3iBL7HkKziOFCFZbTlf0","playlistName":"شرح البرهان في علوم القرآن - أ.د. يسري جبر","category":"تفسير"},{"id":"JEGBKhdXG6Q","title":"67- أحكام التلاوة: الإدغام والإظهار والإخفاء والإقلاب - شرح الإتقان في علوم القرآن","publishedAt":"2023-05-10T05:00:05Z","duration":"PT29M55S","thumbnail":"https://i.ytimg.com/vi/JEGBKhdXG6Q/mqdefault.jpg","viewCount":"986","playlistId":"PLEkQk5xrP-tlPw10KGJKagu7zm4Ry2Tge","playlistName":"شرح الإتقان في علوم القرآن","category":"تفسير"},{"id":"q0TrtDXrV4Q","title":"66- مواضع الإِمالة - شرح الإتقان في علوم القرآن","publishedAt":"2023-05-09T05:00:18Z","duration":"PT23M54S","thumbnail":"https://i.ytimg.com/vi/q0TrtDXrV4Q/mqdefault.jpg","viewCount":"540","playlistId":"PLEkQk5xrP-tlPw10KGJKagu7zm4Ry2Tge","playlistName":"شرح الإتقان في علوم القرآن","category":"تفسير"},{"id":"icPjRY-frAM","title":"الأسلوب الخامس: المُدْرَج - البرهان في علوم القرآن","publishedAt":"2021-10-26T19:03:27Z","duration":"PT27M27S","thumbnail":"https://i.ytimg.com/vi/icPjRY-frAM/mqdefault.jpg","viewCount":"518","playlistId":"PLEkQk5xrP-tnW3iBL7HkKziOFCFZbTlf0","playlistName":"شرح البرهان في علوم القرآن - أ.د. يسري جبر","category":"تفسير"},{"id":"otp-gCH9W6Y","title":"النوع الثاني: قلب المعطوف - البرهان في علوم القرآن","publishedAt":"2021-10-26T03:44:55Z","duration":"PT7M28S","thumbnail":"https://i.ytimg.com/vi/otp-gCH9W6Y/mqdefault.jpg","viewCount":"481","playlistId":"PLEkQk5xrP-tnW3iBL7HkKziOFCFZbTlf0","playlistName":"شرح البرهان في علوم القرآن - أ.د. يسري جبر","category":"تفسير"},{"id":"qZdCJ3o50o4","title":"الاختزال (20) حذف جواب الشرط - شرح البرهان في علوم القرآن","publishedAt":"2021-07-24T05:59:22Z","duration":"PT21M24S","thumbnail":"https://i.ytimg.com/vi/qZdCJ3o50o4/mqdefault.jpg","viewCount":"540","playlistId":"PLEkQk5xrP-tnW3iBL7HkKziOFCFZbTlf0","playlistName":"شرح البرهان في علوم القرآن - أ.د. يسري جبر","category":"تفسير"},{"id":"m9vRv8KjWaw","title":"الاختزال (19) حذف الشرط - شرح البرهان في علوم القرآن","publishedAt":"2021-07-23T04:32:04Z","duration":"PT13M6S","thumbnail":"https://i.ytimg.com/vi/m9vRv8KjWaw/mqdefault.jpg","viewCount":"418","playlistId":"PLEkQk5xrP-tnW3iBL7HkKziOFCFZbTlf0","playlistName":"شرح البرهان في علوم القرآن - أ.د. يسري جبر","category":"تفسير"},{"id":"ETjuh9eKIOU","title":"قراءة القرآن ( من أول سورة سبإ )","publishedAt":"2015-08-12T03:57:26Z","duration":"PT21M10S","thumbnail":"https://i.ytimg.com/vi/ETjuh9eKIOU/mqdefault.jpg","viewCount":"152","playlistId":"PLEkQk5xrP-tnUSUj0uyJhA-kwNC7Gkx_j","playlistName":"مقرأة الفجر - بداية من سورة الإسراء حتى سورة الناس","category":"تفسير"},{"id":"e71G9EWqdtU","title":"قراءة القرآن (من آية 53 في سورة الأحزاب)","publishedAt":"2015-08-11T03:51:47Z","duration":"PT22M21S","thumbnail":"https://i.ytimg.com/vi/e71G9EWqdtU/mqdefault.jpg","viewCount":"813","playlistId":"PLEkQk5xrP-tnUSUj0uyJhA-kwNC7Gkx_j","playlistName":"مقرأة الفجر - بداية من سورة الإسراء حتى سورة الناس","category":"تفسير"},{"id":"nmTRYHuGSx4","title":"قراءة القرآن (من آية 45 سورة الأحزاب)","publishedAt":"2015-08-10T03:31:00Z","duration":"PT7M32S","thumbnail":"https://i.ytimg.com/vi/nmTRYHuGSx4/mqdefault.jpg","viewCount":"116","playlistId":"PLEkQk5xrP-tnUSUj0uyJhA-kwNC7Gkx_j","playlistName":"مقرأة الفجر - بداية من سورة الإسراء حتى سورة الناس","category":"تفسير"},{"id":"GKu4ua4yu5U","title":"قراءة القرآن (من آية 35 سورة الأحزاب)","publishedAt":"2015-08-09T03:35:54Z","duration":"PT11M11S","thumbnail":"https://i.ytimg.com/vi/GKu4ua4yu5U/mqdefault.jpg","viewCount":"93","playlistId":"PLEkQk5xrP-tnUSUj0uyJhA-kwNC7Gkx_j","playlistName":"مقرأة الفجر - بداية من سورة الإسراء حتى سورة الناس","category":"تفسير"},{"id":"w2EJEXQbqlg","title":"قراءة القرآن (من آية 25 سورة الأحزاب)","publishedAt":"2015-08-08T04:00:52Z","duration":"PT29M46S","thumbnail":"https://i.ytimg.com/vi/w2EJEXQbqlg/mqdefault.jpg","viewCount":"823","playlistId":"PLEkQk5xrP-tnUSUj0uyJhA-kwNC7Gkx_j","playlistName":"مقرأة الفجر - بداية من سورة الإسراء حتى سورة الناس","category":"تفسير"},{"id":"tQ2mTUIcrNw","title":"قراءة القرآن (من آية 18 سورة الأحزاب)","publishedAt":"2015-08-07T03:55:26Z","duration":"PT9M26S","thumbnail":"https://i.ytimg.com/vi/tQ2mTUIcrNw/mqdefault.jpg","viewCount":"80","playlistId":"PLEkQk5xrP-tnUSUj0uyJhA-kwNC7Gkx_j","playlistName":"مقرأة الفجر - بداية من سورة الإسراء حتى سورة الناس","category":"تفسير"},{"id":"Rl2tiLPLG18","title":"قراءة القرآن (من آية 9 سورة الأحزاب)","publishedAt":"2015-08-06T03:56:57Z","duration":"PT7M11S","thumbnail":"https://i.ytimg.com/vi/Rl2tiLPLG18/mqdefault.jpg","viewCount":"138","playlistId":"PLEkQk5xrP-tnUSUj0uyJhA-kwNC7Gkx_j","playlistName":"مقرأة الفجر - بداية من سورة الإسراء حتى سورة الناس","category":"تفسير"},{"id":"F1nPq0zg8b4","title":"قراءة القرآن (من أول سورة الأحزاب)","publishedAt":"2015-08-05T03:39:04Z","duration":"PT8M36S","thumbnail":"https://i.ytimg.com/vi/F1nPq0zg8b4/mqdefault.jpg","viewCount":"88","playlistId":"PLEkQk5xrP-tnUSUj0uyJhA-kwNC7Gkx_j","playlistName":"مقرأة الفجر - بداية من سورة الإسراء حتى سورة الناس","category":"تفسير"},{"id":"elqE64oawtU","title":"قراءة القرآن (من آية 16 سورة السجدة)","publishedAt":"2015-08-04T03:40:02Z","duration":"PT11M21S","thumbnail":"https://i.ytimg.com/vi/elqE64oawtU/mqdefault.jpg","viewCount":"234","playlistId":"PLEkQk5xrP-tnUSUj0uyJhA-kwNC7Gkx_j","playlistName":"مقرأة الفجر - بداية من سورة الإسراء حتى سورة الناس","category":"تفسير"},{"id":"isY0HRRZBHc","title":"قراءة القرآن (من أول سورة السجدة)","publishedAt":"2015-08-03T03:42:01Z","duration":"PT20M49S","thumbnail":"https://i.ytimg.com/vi/isY0HRRZBHc/mqdefault.jpg","viewCount":"192","playlistId":"PLEkQk5xrP-tnUSUj0uyJhA-kwNC7Gkx_j","playlistName":"مقرأة الفجر - بداية من سورة الإسراء حتى سورة الناس","category":"تفسير"}],"total":1096,"page":35,"pageSize":24,"totalPages":46}