{"items":[{"id":"2ja2-Q9i3Xg","title":"الاستفهام والمراد به الإنشاء","publishedAt":"2020-11-23T08:27:52Z","duration":"PT19M19S","thumbnail":"https://i.ytimg.com/vi/2ja2-Q9i3Xg/mqdefault.jpg","viewCount":"466","playlistId":"PLEkQk5xrP-tnW3iBL7HkKziOFCFZbTlf0","playlistName":"شرح البرهان في علوم القرآن - أ.د. يسري جبر","category":"تفسير"},{"id":"R3XYTt1oLHU","title":"وُجوه أنواع استفهام التقرير","publishedAt":"2020-11-21T08:39:33Z","duration":"PT17M53S","thumbnail":"https://i.ytimg.com/vi/R3XYTt1oLHU/mqdefault.jpg","viewCount":"643","playlistId":"PLEkQk5xrP-tnW3iBL7HkKziOFCFZbTlf0","playlistName":"شرح البرهان في علوم القرآن - أ.د. يسري جبر","category":"تفسير"},{"id":"X2Rsyh1KIPc","title":"الاستفهام التقريري","publishedAt":"2020-11-19T06:56:55Z","duration":"PT13M49S","thumbnail":"https://i.ytimg.com/vi/X2Rsyh1KIPc/mqdefault.jpg","viewCount":"804","playlistId":"PLEkQk5xrP-tnW3iBL7HkKziOFCFZbTlf0","playlistName":"شرح البرهان في علوم القرآن - أ.د. يسري جبر","category":"تفسير"},{"id":"NQ55dllsx5E","title":"الاستفهام الإنكاري","publishedAt":"2020-11-17T06:26:40Z","duration":"PT14M39S","thumbnail":"https://i.ytimg.com/vi/NQ55dllsx5E/mqdefault.jpg","viewCount":"1201","playlistId":"PLEkQk5xrP-tnW3iBL7HkKziOFCFZbTlf0","playlistName":"شرح البرهان في علوم القرآن - أ.د. يسري جبر","category":"تفسير"},{"id":"CGYgvyVUXb8","title":"بقية النوع 45: في أقسام معنى الكلام - الاستخبار","publishedAt":"2020-11-14T06:14:41Z","duration":"PT13M55S","thumbnail":"https://i.ytimg.com/vi/CGYgvyVUXb8/mqdefault.jpg","viewCount":"566","playlistId":"PLEkQk5xrP-tnW3iBL7HkKziOFCFZbTlf0","playlistName":"شرح البرهان في علوم القرآن - أ.د. يسري جبر","category":"تفسير"},{"id":"o2FRmCIUSv0","title":"بقية النوع 45: في أقسام معنى الكلام - المعنى التاسع: الترجَّي","publishedAt":"2020-11-12T07:04:48Z","duration":"PT11M45S","thumbnail":"https://i.ytimg.com/vi/o2FRmCIUSv0/mqdefault.jpg","viewCount":"536","playlistId":"PLEkQk5xrP-tnW3iBL7HkKziOFCFZbTlf0","playlistName":"شرح البرهان في علوم القرآن - أ.د. يسري جبر","category":"تفسير"},{"id":"KXD9LOM4zQc","title":"بقية النوع 45: في أقسام معنى الكلام - ومنها الأمر","publishedAt":"2020-11-11T07:32:10Z","duration":"PT10M40S","thumbnail":"https://i.ytimg.com/vi/KXD9LOM4zQc/mqdefault.jpg","viewCount":"463","playlistId":"PLEkQk5xrP-tnW3iBL7HkKziOFCFZbTlf0","playlistName":"شرح البرهان في علوم القرآن - أ.د. يسري جبر","category":"تفسير"},{"id":"PRj71dLYS5U","title":"أقسام معنى الكلام","publishedAt":"2020-11-09T07:32:34Z","duration":"PT23M6S","thumbnail":"https://i.ytimg.com/vi/PRj71dLYS5U/mqdefault.jpg","viewCount":"964","playlistId":"PLEkQk5xrP-tnW3iBL7HkKziOFCFZbTlf0","playlistName":"شرح البرهان في علوم القرآن - أ.د. يسري جبر","category":"تفسير"},{"id":"6ShKnFboCpE","title":"التعريض والتلويح - بقية النوع 44: في الكنايات والتعريض في  القرآن","publishedAt":"2020-11-07T06:09:19Z","duration":"PT27M37S","thumbnail":"https://i.ytimg.com/vi/6ShKnFboCpE/mqdefault.jpg","viewCount":"1042","playlistId":"PLEkQk5xrP-tnW3iBL7HkKziOFCFZbTlf0","playlistName":"شرح البرهان في علوم القرآن - أ.د. يسري جبر","category":"تفسير"},{"id":"v02LF8Rir-I","title":"النوع الخامس: تحسين اللفظ بقية النوع 44: في الكنايات والتعريض في القرآن","publishedAt":"2020-11-05T07:06:07Z","duration":"PT30M27S","thumbnail":"https://i.ytimg.com/vi/v02LF8Rir-I/mqdefault.jpg","viewCount":"497","playlistId":"PLEkQk5xrP-tnW3iBL7HkKziOFCFZbTlf0","playlistName":"شرح البرهان في علوم القرآن - أ.د. يسري جبر","category":"تفسير"},{"id":"PITok4dC9bU","title":"232- الحصر والاختصاص - شرح الإتقان في علوم القرآن","publishedAt":"2024-05-06T05:00:24Z","duration":"PT30M2S","thumbnail":"https://i.ytimg.com/vi/PITok4dC9bU/mqdefault.jpg","viewCount":"641","playlistId":"PLEkQk5xrP-tlPw10KGJKagu7zm4Ry2Tge","playlistName":"شرح الإتقان في علوم القرآن","category":"تفسير"},{"id":"fEtJ8dGapuk","title":"231- من أنواع البديع التي تشبه الكناية (الإرداف) - شرح الإتقان في علوم القرآن","publishedAt":"2024-05-04T04:45:48Z","duration":"PT23M27S","thumbnail":"https://i.ytimg.com/vi/fEtJ8dGapuk/mqdefault.jpg","viewCount":"587","playlistId":"PLEkQk5xrP-tlPw10KGJKagu7zm4Ry2Tge","playlistName":"شرح الإتقان في علوم القرآن","category":"تفسير"},{"id":"mPIenwnTlFc","title":"230- الكناية والتعريض - شرح الإتقان في علوم القرآن","publishedAt":"2024-05-02T05:17:03Z","duration":"PT28M22S","thumbnail":"https://i.ytimg.com/vi/mPIenwnTlFc/mqdefault.jpg","viewCount":"596","playlistId":"PLEkQk5xrP-tlPw10KGJKagu7zm4Ry2Tge","playlistName":"شرح الإتقان في علوم القرآن","category":"تفسير"},{"id":"EPg9NyJf0r8","title":"بقية ما جاء في الكنايات والتعريض في القرآن - رابعها: أن يَفحُش ذِكْرُه في السَّمع","publishedAt":"2020-11-03T05:59:01Z","duration":"PT20M39S","thumbnail":"https://i.ytimg.com/vi/EPg9NyJf0r8/mqdefault.jpg","viewCount":"521","playlistId":"PLEkQk5xrP-tnW3iBL7HkKziOFCFZbTlf0","playlistName":"شرح البرهان في علوم القرآن - أ.د. يسري جبر","category":"تفسير"},{"id":"ap2M93t-bgo","title":"الكِنايات والتعريض في القرآن","publishedAt":"2020-11-01T05:52:29Z","duration":"PT20M44S","thumbnail":"https://i.ytimg.com/vi/ap2M93t-bgo/mqdefault.jpg","viewCount":"631","playlistId":"PLEkQk5xrP-tnW3iBL7HkKziOFCFZbTlf0","playlistName":"شرح البرهان في علوم القرآن - أ.د. يسري جبر","category":"تفسير"},{"id":"PKBJbEfg3-Y","title":"إطلاق الأمر بالشيء للمتلبس به والمراد دوامه","publishedAt":"2020-10-30T06:04:01Z","duration":"PT16M44S","thumbnail":"https://i.ytimg.com/vi/PKBJbEfg3-Y/mqdefault.jpg","viewCount":"639","playlistId":"PLEkQk5xrP-tnW3iBL7HkKziOFCFZbTlf0","playlistName":"شرح البرهان في علوم القرآن - أ.د. يسري جبر","category":"تفسير"},{"id":"23yPXZBqlQ4","title":"63- كيفية الوقْفِ على أواخر الكَلِم - شرح الإتقان في علوم القرآن","publishedAt":"2023-05-06T08:59:00Z","duration":"PT25M52S","thumbnail":"https://i.ytimg.com/vi/23yPXZBqlQ4/mqdefault.jpg","viewCount":"787","playlistId":"PLEkQk5xrP-tlPw10KGJKagu7zm4Ry2Tge","playlistName":"شرح الإتقان في علوم القرآن","category":"تفسير"},{"id":"CLCxWABo5Og","title":"62- معرفة الوقف والابتداء (5) ضوابط - شرح الإتقان في علوم القرآن","publishedAt":"2023-05-05T08:59:00Z","duration":"PT35M12S","thumbnail":"https://i.ytimg.com/vi/CLCxWABo5Og/mqdefault.jpg","viewCount":"743","playlistId":"PLEkQk5xrP-tlPw10KGJKagu7zm4Ry2Tge","playlistName":"شرح الإتقان في علوم القرآن","category":"تفسير"},{"id":"XaNzcYZPLNc","title":"61- معرفة الوقف والابتداء (4) - شرح الإتقان في علوم القرآن","publishedAt":"2023-05-04T18:00:19Z","duration":"PT34M58S","thumbnail":"https://i.ytimg.com/vi/XaNzcYZPLNc/mqdefault.jpg","viewCount":"679","playlistId":"PLEkQk5xrP-tlPw10KGJKagu7zm4Ry2Tge","playlistName":"شرح الإتقان في علوم القرآن","category":"تفسير"},{"id":"1IdR2AaCdz4","title":"60- معرفة الوقف والابتداء (3) - شرح الإتقان في علوم القرآن","publishedAt":"2023-05-04T05:00:00Z","duration":"PT28M49S","thumbnail":"https://i.ytimg.com/vi/1IdR2AaCdz4/mqdefault.jpg","viewCount":"744","playlistId":"PLEkQk5xrP-tlPw10KGJKagu7zm4Ry2Tge","playlistName":"شرح الإتقان في علوم القرآن","category":"تفسير"},{"id":"wk61jD-2RY8","title":"539- حروف المعاني: حرف الجواب(إذًا) - شرح البرهان في علوم القرآن","publishedAt":"2022-07-13T05:00:20Z","duration":"PT28M10S","thumbnail":"https://i.ytimg.com/vi/wk61jD-2RY8/mqdefault.jpg","viewCount":"653","playlistId":"PLEkQk5xrP-tnW3iBL7HkKziOFCFZbTlf0","playlistName":"شرح البرهان في علوم القرآن - أ.د. يسري جبر","category":"تفسير"},{"id":"8LXhPrnkS5Q","title":"538- حروف المعاني: ضرورة تقدُّم الاستفهام على حرف العطف (أم) - شرح البرهان في علوم القرآن","publishedAt":"2022-07-10T05:00:01Z","duration":"PT12M29S","thumbnail":"https://i.ytimg.com/vi/8LXhPrnkS5Q/mqdefault.jpg","viewCount":"514","playlistId":"PLEkQk5xrP-tnW3iBL7HkKziOFCFZbTlf0","playlistName":"شرح البرهان في علوم القرآن - أ.د. يسري جبر","category":"تفسير"},{"id":"QK_3DxDUgok","title":"شرح البرهان في علوم القرآن - النوع ٢١ - معرفة كون اللفظ والتركيب أحسن وأفصح","publishedAt":"2019-12-17T08:48:48Z","duration":"PT28M51S","thumbnail":"https://i.ytimg.com/vi/QK_3DxDUgok/mqdefault.jpg","viewCount":"599","playlistId":"PLEkQk5xrP-tnW3iBL7HkKziOFCFZbTlf0","playlistName":"شرح البرهان في علوم القرآن - أ.د. يسري جبر","category":"تفسير"},{"id":"56YLLwVww1s","title":"شرح البرهان في علوم القرآن - النوع ٢٠ - معرفة الأحكام من جهة أفرادها وتركيبها ٣","publishedAt":"2019-12-15T19:25:48Z","duration":"PT17M56S","thumbnail":"https://i.ytimg.com/vi/56YLLwVww1s/mqdefault.jpg","viewCount":"515","playlistId":"PLEkQk5xrP-tnW3iBL7HkKziOFCFZbTlf0","playlistName":"شرح البرهان في علوم القرآن - أ.د. يسري جبر","category":"تفسير"}],"total":1096,"page":33,"pageSize":24,"totalPages":46}