{"items":[{"id":"B5wCgK5aWwM","title":"شرح البرهان في علوم القرآن - النوع ٤١ - فصل: أصل الوقوف على معني القرآن التدبر","publishedAt":"2020-09-02T20:45:01Z","duration":"PT15M27S","thumbnail":"https://i.ytimg.com/vi/B5wCgK5aWwM/mqdefault.jpg","viewCount":"577","playlistId":"PLEkQk5xrP-tnW3iBL7HkKziOFCFZbTlf0","playlistName":"شرح البرهان في علوم القرآن - أ.د. يسري جبر","category":"تفسير"},{"id":"P29ETR39fV4","title":"النحت - شرح كتاب البرهان في علوم القرآن","publishedAt":"2022-01-02T06:33:05Z","duration":"PT8M15S","thumbnail":"https://i.ytimg.com/vi/P29ETR39fV4/mqdefault.jpg","viewCount":"741","playlistId":"PLEkQk5xrP-tnW3iBL7HkKziOFCFZbTlf0","playlistName":"شرح البرهان في علوم القرآن - أ.د. يسري جبر","category":"تفسير"},{"id":"vAjTbTzaUJ0","title":"تقسيم طَرَفَي التشبيه: المُشَبَّه والمُشَبَّه به - شرح البرهان في علوم القرآن","publishedAt":"2022-01-31T06:53:29Z","duration":"PT22M18S","thumbnail":"https://i.ytimg.com/vi/vAjTbTzaUJ0/mqdefault.jpg","viewCount":"780","playlistId":"PLEkQk5xrP-tnW3iBL7HkKziOFCFZbTlf0","playlistName":"شرح البرهان في علوم القرآن - أ.د. يسري جبر","category":"تفسير"},{"id":"xMmluhaWOxQ","title":"أقسام التشبيه - شرح البرهان في علوم القرآن","publishedAt":"2022-01-29T06:54:09Z","duration":"PT21M38S","thumbnail":"https://i.ytimg.com/vi/xMmluhaWOxQ/mqdefault.jpg","viewCount":"765","playlistId":"PLEkQk5xrP-tnW3iBL7HkKziOFCFZbTlf0","playlistName":"شرح البرهان في علوم القرآن - أ.د. يسري جبر","category":"تفسير"},{"id":"x-jE0rrNEgc","title":"بدل البعض من كل، بدل الاشتمال (2) شرح البرهان في علوم القرآن.","publishedAt":"2021-03-07T06:30:08Z","duration":"PT10M3S","thumbnail":"https://i.ytimg.com/vi/x-jE0rrNEgc/mqdefault.jpg","viewCount":"526","playlistId":"PLEkQk5xrP-tnW3iBL7HkKziOFCFZbTlf0","playlistName":"شرح البرهان في علوم القرآن - أ.د. يسري جبر","category":"تفسير"},{"id":"pDX15C9DmsU","title":"بدل البعض من كل، بدل الاشتمال - شرح البرهان في علوم القرآن.","publishedAt":"2021-03-04T07:06:20Z","duration":"PT26M51S","thumbnail":"https://i.ytimg.com/vi/pDX15C9DmsU/mqdefault.jpg","viewCount":"512","playlistId":"PLEkQk5xrP-tnW3iBL7HkKziOFCFZbTlf0","playlistName":"شرح البرهان في علوم القرآن - أ.د. يسري جبر","category":"تفسير"},{"id":"vLMMfgXnK2g","title":"شرح البرهان في علوم القرآن - النوع ٣٨ - تنبيه في أن معرفة مقامات الكلام لا تدرك إلا بالذوق","publishedAt":"2020-03-29T07:00:11Z","duration":"PT19M53S","thumbnail":"https://i.ytimg.com/vi/vLMMfgXnK2g/mqdefault.jpg","viewCount":"342","playlistId":"PLEkQk5xrP-tnW3iBL7HkKziOFCFZbTlf0","playlistName":"شرح البرهان في علوم القرآن - أ.د. يسري جبر","category":"تفسير"},{"id":"TIILTQu0YL8","title":"284- مناسبة الآيات والسور (3) - شرح الإتقان في علوم القرآن","publishedAt":"2025-02-22T07:00:27Z","duration":"PT24M33S","thumbnail":"https://i.ytimg.com/vi/TIILTQu0YL8/mqdefault.jpg","viewCount":"482","playlistId":"PLEkQk5xrP-tlPw10KGJKagu7zm4Ry2Tge","playlistName":"شرح الإتقان في علوم القرآن","category":"تفسير"},{"id":"WO5YASeibK0","title":"القسم الثالث من التوكيد: البَدَل - شرح البرهان في علوم القرآن","publishedAt":"2021-03-01T07:49:03Z","duration":"PT15M55S","thumbnail":"https://i.ytimg.com/vi/WO5YASeibK0/mqdefault.jpg","viewCount":"425","playlistId":"PLEkQk5xrP-tnW3iBL7HkKziOFCFZbTlf0","playlistName":"شرح البرهان في علوم القرآن - أ.د. يسري جبر","category":"تفسير"},{"id":"psnVo3DnjEs","title":"10- فوائد تتعلق بالصفة \"وصف الجمع بالمفرد\"شرح البرهان في علوم القرآن","publishedAt":"2021-02-26T08:44:15Z","duration":"PT17M43S","thumbnail":"https://i.ytimg.com/vi/psnVo3DnjEs/mqdefault.jpg","viewCount":"486","playlistId":"PLEkQk5xrP-tnW3iBL7HkKziOFCFZbTlf0","playlistName":"شرح البرهان في علوم القرآن - أ.د. يسري جبر","category":"تفسير"},{"id":"kZTOUfz5OS4","title":"9- فوائد تتعلق بالصفة \"فصل الجمل في مجال المدح والذم أبلغ من جعلها نمطا واحدا\"البرهان في علوم القرآن","publishedAt":"2021-02-23T08:23:39Z","duration":"PT24M7S","thumbnail":"https://i.ytimg.com/vi/kZTOUfz5OS4/mqdefault.jpg","viewCount":"524","playlistId":"PLEkQk5xrP-tnW3iBL7HkKziOFCFZbTlf0","playlistName":"شرح البرهان في علوم القرآن - أ.د. يسري جبر","category":"تفسير"},{"id":"B02IOW3PCSM","title":"8- فوائد تتعلق بالصفة\" تكرار النعوت لواحد\" شرح البرهان في علوم القرآن","publishedAt":"2021-02-20T08:21:20Z","duration":"PT9M47S","thumbnail":"https://i.ytimg.com/vi/B02IOW3PCSM/mqdefault.jpg","viewCount":"488","playlistId":"PLEkQk5xrP-tnW3iBL7HkKziOFCFZbTlf0","playlistName":"شرح البرهان في علوم القرآن - أ.د. يسري جبر","category":"تفسير"},{"id":"F2olww8HJY8","title":"18- تكملة معرفة أول ما نزل من القرآن - شرح الإتقان في علوم القران","publishedAt":"2023-01-27T05:00:13Z","duration":"PT30M17S","thumbnail":"https://i.ytimg.com/vi/F2olww8HJY8/mqdefault.jpg","viewCount":"1125","playlistId":"PLEkQk5xrP-tlPw10KGJKagu7zm4Ry2Tge","playlistName":"شرح الإتقان في علوم القرآن","category":"تفسير"},{"id":"DtPTIW3Oz9Y","title":"17- معرفة أول ما نزل من القرآن - شرح الإتقان في علوم القرآن","publishedAt":"2023-01-26T05:00:07Z","duration":"PT30M14S","thumbnail":"https://i.ytimg.com/vi/DtPTIW3Oz9Y/mqdefault.jpg","viewCount":"1252","playlistId":"PLEkQk5xrP-tlPw10KGJKagu7zm4Ry2Tge","playlistName":"شرح الإتقان في علوم القرآن","category":"تفسير"},{"id":"u_gkDSBBat8","title":"16- النَّوْعُ الرَّابِعُ: الصَّيْفِيُّ وَ الشِّتَائِي - شرح الإتقان في علوم القرآن","publishedAt":"2023-01-25T05:00:31Z","duration":"PT22M55S","thumbnail":"https://i.ytimg.com/vi/u_gkDSBBat8/mqdefault.jpg","viewCount":"917","playlistId":"PLEkQk5xrP-tlPw10KGJKagu7zm4Ry2Tge","playlistName":"شرح الإتقان في علوم القرآن","category":"تفسير"},{"id":"wk61jD-2RY8","title":"539- حروف المعاني: حرف الجواب(إذًا) - شرح البرهان في علوم القرآن","publishedAt":"2022-07-13T05:00:20Z","duration":"PT28M10S","thumbnail":"https://i.ytimg.com/vi/wk61jD-2RY8/mqdefault.jpg","viewCount":"653","playlistId":"PLEkQk5xrP-tnW3iBL7HkKziOFCFZbTlf0","playlistName":"شرح البرهان في علوم القرآن - أ.د. يسري جبر","category":"تفسير"},{"id":"HD4LXSDLsmA","title":"7- فوائد تتعلق بالصفة\" اجتماع التابع والمتبوع\" شرح البرهان في علوم القرآن","publishedAt":"2021-02-17T07:18:08Z","duration":"PT14M52S","thumbnail":"https://i.ytimg.com/vi/HD4LXSDLsmA/mqdefault.jpg","viewCount":"568","playlistId":"PLEkQk5xrP-tnW3iBL7HkKziOFCFZbTlf0","playlistName":"شرح البرهان في علوم القرآن - أ.د. يسري جبر","category":"تفسير"},{"id":"PgrMb_LKmGA","title":"51- بيان مَن جمع القرآن ومَن اشتهر بإقرائه - شرح الإتقان في علوم القرآن","publishedAt":"2023-04-15T10:01:00Z","duration":"PT25M48S","thumbnail":"https://i.ytimg.com/vi/PgrMb_LKmGA/mqdefault.jpg","viewCount":"691","playlistId":"PLEkQk5xrP-tlPw10KGJKagu7zm4Ry2Tge","playlistName":"شرح الإتقان في علوم القرآن","category":"تفسير"},{"id":"GKAcv-UkpbA","title":"الظاهر والمُؤول","publishedAt":"2020-09-14T06:06:52Z","duration":"PT26M53S","thumbnail":"https://i.ytimg.com/vi/GKAcv-UkpbA/mqdefault.jpg","viewCount":"808","playlistId":"PLEkQk5xrP-tnW3iBL7HkKziOFCFZbTlf0","playlistName":"شرح البرهان في علوم القرآن - أ.د. يسري جبر","category":"تفسير"},{"id":"wxFDxsr8k7k","title":"معرفة النزول","publishedAt":"2020-09-13T05:45:10Z","duration":"PT24M35S","thumbnail":"https://i.ytimg.com/vi/wxFDxsr8k7k/mqdefault.jpg","viewCount":"1195","playlistId":"PLEkQk5xrP-tnW3iBL7HkKziOFCFZbTlf0","playlistName":"شرح البرهان في علوم القرآن - أ.د. يسري جبر","category":"تفسير"},{"id":"6MZnt3KVkYg","title":"6- فوائد تتعلق بالصفة - شرح البرهان في علوم القرآن","publishedAt":"2021-02-14T07:16:42Z","duration":"PT15M41S","thumbnail":"https://i.ytimg.com/vi/6MZnt3KVkYg/mqdefault.jpg","viewCount":"464","playlistId":"PLEkQk5xrP-tnW3iBL7HkKziOFCFZbTlf0","playlistName":"شرح البرهان في علوم القرآن - أ.د. يسري جبر","category":"تفسير"},{"id":"cCk15XjGkMA","title":"قراءة القرآن (من أول سورة القصص)","publishedAt":"2015-07-09T03:41:42Z","duration":"PT10M21S","thumbnail":"https://i.ytimg.com/vi/cCk15XjGkMA/mqdefault.jpg","viewCount":"101","playlistId":"PLEkQk5xrP-tnUSUj0uyJhA-kwNC7Gkx_j","playlistName":"مقرأة الفجر - بداية من سورة الإسراء حتى سورة الناس","category":"تفسير"},{"id":"S9oMaEPPFkY","title":"قراءة القرآن (من آية 59 سورة النمل)","publishedAt":"2015-07-07T03:22:10Z","duration":"PT13M11S","thumbnail":"https://i.ytimg.com/vi/S9oMaEPPFkY/mqdefault.jpg","viewCount":"135","playlistId":"PLEkQk5xrP-tnUSUj0uyJhA-kwNC7Gkx_j","playlistName":"مقرأة الفجر - بداية من سورة الإسراء حتى سورة الناس","category":"تفسير"},{"id":"-4X2GhKTBeA","title":"قراءة القرآن (من آية 27 سورة النمل)","publishedAt":"2015-07-06T03:13:34Z","duration":"PT14M51S","thumbnail":"https://i.ytimg.com/vi/-4X2GhKTBeA/mqdefault.jpg","viewCount":"206","playlistId":"PLEkQk5xrP-tnUSUj0uyJhA-kwNC7Gkx_j","playlistName":"مقرأة الفجر - بداية من سورة الإسراء حتى سورة الناس","category":"تفسير"}],"total":1096,"page":19,"pageSize":24,"totalPages":46}