{"items":[{"id":"x3rdlLsbJ7I","title":"القِسمُ (15) من التوكيد: الزيادة في بنية الكلمة - شرح البرهان في علوم القرآن","publishedAt":"2021-05-02T05:05:38Z","duration":"PT10M31S","thumbnail":"https://i.ytimg.com/vi/x3rdlLsbJ7I/mqdefault.jpg","viewCount":"292","playlistId":"PLEkQk5xrP-tnW3iBL7HkKziOFCFZbTlf0","playlistName":"شرح البرهان في علوم القرآن - أ.د. يسري جبر","category":"تفسير"},{"id":"yEtaYmtIxZM","title":"547- معنى حرف (إذ) - شرح البرهان في علوم القرآن","publishedAt":"2022-08-16T05:35:00Z","duration":"PT18M58S","thumbnail":"https://i.ytimg.com/vi/yEtaYmtIxZM/mqdefault.jpg","viewCount":"613","playlistId":"PLEkQk5xrP-tnW3iBL7HkKziOFCFZbTlf0","playlistName":"شرح البرهان في علوم القرآن - أ.د. يسري جبر","category":"تفسير"},{"id":"3Y9Yfx1VwTE","title":"تكملة أنواع التقديم والتأخير (6) (السَّبْق) - شرح البرهان في علوم القرآن","publishedAt":"2021-09-20T12:13:53Z","duration":"PT8M33S","thumbnail":"https://i.ytimg.com/vi/3Y9Yfx1VwTE/mqdefault.jpg","viewCount":"362","playlistId":"PLEkQk5xrP-tnW3iBL7HkKziOFCFZbTlf0","playlistName":"شرح البرهان في علوم القرآن - أ.د. يسري جبر","category":"تفسير"},{"id":"H8lmWiXxv_Y","title":"72- أحكام التلاوة (6) - المدّ العارض للسكون - شرح الإتقان في علوم القرآن","publishedAt":"2023-05-15T08:59:00Z","duration":"PT20M41S","thumbnail":"https://i.ytimg.com/vi/H8lmWiXxv_Y/mqdefault.jpg","viewCount":"732","playlistId":"PLEkQk5xrP-tlPw10KGJKagu7zm4Ry2Tge","playlistName":"شرح الإتقان في علوم القرآن","category":"تفسير"},{"id":"u3ZOCOHH1XQ","title":"71- أحكام التلاوة (5): بيان المَدِّ والقَصْر - شرح الإتقان في علوم القرآن","publishedAt":"2023-05-14T05:00:31Z","duration":"PT25M6S","thumbnail":"https://i.ytimg.com/vi/u3ZOCOHH1XQ/mqdefault.jpg","viewCount":"605","playlistId":"PLEkQk5xrP-tlPw10KGJKagu7zm4Ry2Tge","playlistName":"شرح الإتقان في علوم القرآن","category":"تفسير"},{"id":"mXRpRor9QFI","title":"70- أحكام التلاوة (4): الإدغام والإظهار والإخفاء والإقلاب - شرح الإتقان في علوم القرآن","publishedAt":"2023-05-13T05:00:31Z","duration":"PT25M57S","thumbnail":"https://i.ytimg.com/vi/mXRpRor9QFI/mqdefault.jpg","viewCount":"621","playlistId":"PLEkQk5xrP-tlPw10KGJKagu7zm4Ry2Tge","playlistName":"شرح الإتقان في علوم القرآن","category":"تفسير"},{"id":"feXotZwEkqI","title":"69- أحكام التلاوة (3): الإدغام والإظهار والإخفاء والإقلاب - شرح الإتقان في علوم القرآن","publishedAt":"2023-05-12T05:00:27Z","duration":"PT13M32S","thumbnail":"https://i.ytimg.com/vi/feXotZwEkqI/mqdefault.jpg","viewCount":"505","playlistId":"PLEkQk5xrP-tlPw10KGJKagu7zm4Ry2Tge","playlistName":"شرح الإتقان في علوم القرآن","category":"تفسير"},{"id":"y0k5D7v9AlE","title":"68- أحكام التلاوة (2): الإدغام والإظهار والإخفاء والإقلاب - شرح الإتقان في علوم القرآن","publishedAt":"2023-05-11T05:30:12Z","duration":"PT11M5S","thumbnail":"https://i.ytimg.com/vi/y0k5D7v9AlE/mqdefault.jpg","viewCount":"689","playlistId":"PLEkQk5xrP-tlPw10KGJKagu7zm4Ry2Tge","playlistName":"شرح الإتقان في علوم القرآن","category":"تفسير"},{"id":"g1xZJ2NniWQ","title":"شرح البرهان في علوم القرآن - النوع ٤١ - معرفة تقسيره وتأويله","publishedAt":"2020-04-04T07:00:11Z","duration":"PT16M27S","thumbnail":"https://i.ytimg.com/vi/g1xZJ2NniWQ/mqdefault.jpg","viewCount":"421","playlistId":"PLEkQk5xrP-tnW3iBL7HkKziOFCFZbTlf0","playlistName":"شرح البرهان في علوم القرآن - أ.د. يسري جبر","category":"تفسير"},{"id":"JRIvmiKCq4o","title":"39- أسماءُ السِوَر .. هل هي توقيفيَّة؟ - شرح الإتقان في علوم القرآن","publishedAt":"2023-03-18T05:00:10Z","duration":"PT16M40S","thumbnail":"https://i.ytimg.com/vi/JRIvmiKCq4o/mqdefault.jpg","viewCount":"1119","playlistId":"PLEkQk5xrP-tlPw10KGJKagu7zm4Ry2Tge","playlistName":"شرح الإتقان في علوم القرآن","category":"تفسير"},{"id":"iiJWxiHLImA","title":"38- سور القرآن الكريم التي لها أكثر من اسم - شرح الإتقان في علوم القرآن","publishedAt":"2023-03-16T05:00:13Z","duration":"PT21M7S","thumbnail":"https://i.ytimg.com/vi/iiJWxiHLImA/mqdefault.jpg","viewCount":"1472","playlistId":"PLEkQk5xrP-tlPw10KGJKagu7zm4Ry2Tge","playlistName":"شرح الإتقان في علوم القرآن","category":"تفسير"},{"id":"y8Z-aep8lKw","title":"37- سبب جمع القرآن الكريم وتسميته بالمصحف - شرح الإتقان في علوم القرآن","publishedAt":"2023-03-14T05:00:23Z","duration":"PT38M26S","thumbnail":"https://i.ytimg.com/vi/y8Z-aep8lKw/mqdefault.jpg","viewCount":"1360","playlistId":"PLEkQk5xrP-tlPw10KGJKagu7zm4Ry2Tge","playlistName":"شرح الإتقان في علوم القرآن","category":"تفسير"},{"id":"vpkKDpfer1I","title":"36- أسماء القرآن الكريم وأسماء سوره - شرح الإتقان في علوم القرآن","publishedAt":"2023-03-12T05:00:25Z","duration":"PT29M19S","thumbnail":"https://i.ytimg.com/vi/vpkKDpfer1I/mqdefault.jpg","viewCount":"1254","playlistId":"PLEkQk5xrP-tlPw10KGJKagu7zm4Ry2Tge","playlistName":"شرح الإتقان في علوم القرآن","category":"تفسير"},{"id":"Kx69ypSgZus","title":"35- معنى نزول القرآن على سبعة أحرف (4) ومعرفة الأَوْلى من أقوال العلماء","publishedAt":"2023-03-10T05:00:12Z","duration":"PT17M7S","thumbnail":"https://i.ytimg.com/vi/Kx69ypSgZus/mqdefault.jpg","viewCount":"1241","playlistId":"PLEkQk5xrP-tlPw10KGJKagu7zm4Ry2Tge","playlistName":"شرح الإتقان في علوم القرآن","category":"تفسير"},{"id":"b7w7fLZQK-Y","title":"أدوات التأكيد\"مؤكِّدات الجُمَل الإسميَّة\" شرح البرهان في علوم القرآن أ.د. يسري جبر","publishedAt":"2021-01-16T07:00:26Z","duration":"PT11M26S","thumbnail":"https://i.ytimg.com/vi/b7w7fLZQK-Y/mqdefault.jpg","viewCount":"516","playlistId":"PLEkQk5xrP-tnW3iBL7HkKziOFCFZbTlf0","playlistName":"شرح البرهان في علوم القرآن - أ.د. يسري جبر","category":"تفسير"},{"id":"y_f6GSuLpEg","title":"هل الأَوْلَى\"التأكيد بالمصدر أو الفعل\"؟ شرح البرهان في علوم القرآن أ.د. يسري جبر","publishedAt":"2021-01-14T08:23:12Z","duration":"PT29M6S","thumbnail":"https://i.ytimg.com/vi/y_f6GSuLpEg/mqdefault.jpg","viewCount":"556","playlistId":"PLEkQk5xrP-tnW3iBL7HkKziOFCFZbTlf0","playlistName":"شرح البرهان في علوم القرآن - أ.د. يسري جبر","category":"تفسير"},{"id":"hQ8OzlKnlxY","title":"التأكيد لمعنى الجملة - شرح البرهان في علوم القرآن أ.د. يسري جبر","publishedAt":"2021-01-12T07:29:54Z","duration":"PT8M48S","thumbnail":"https://i.ytimg.com/vi/hQ8OzlKnlxY/mqdefault.jpg","viewCount":"499","playlistId":"PLEkQk5xrP-tnW3iBL7HkKziOFCFZbTlf0","playlistName":"شرح البرهان في علوم القرآن - أ.د. يسري جبر","category":"تفسير"},{"id":"m6e_FoLP7V4","title":"توكيد الفعل بمصدره - شرح البرهان في علوم القرآن أ.د. يسري جبر","publishedAt":"2021-01-10T07:17:28Z","duration":"PT11M15S","thumbnail":"https://i.ytimg.com/vi/m6e_FoLP7V4/mqdefault.jpg","viewCount":"588","playlistId":"PLEkQk5xrP-tnW3iBL7HkKziOFCFZbTlf0","playlistName":"شرح البرهان في علوم القرآن - أ.د. يسري جبر","category":"تفسير"},{"id":"2NGSPb14hNs","title":"34- معنى نزول القرآن على سبعة أحرف (3) الوجه العاشر - شرح الإتقان في علوم القرآن","publishedAt":"2023-03-08T05:30:00Z","duration":"PT27M21S","thumbnail":"https://i.ytimg.com/vi/2NGSPb14hNs/mqdefault.jpg","viewCount":"1329","playlistId":"PLEkQk5xrP-tlPw10KGJKagu7zm4Ry2Tge","playlistName":"شرح الإتقان في علوم القرآن","category":"تفسير"},{"id":"Tie5cFqjiJw","title":"قراءة القرآن (من أول سورة الأنبياء)","publishedAt":"2015-06-13T03:33:29Z","duration":"PT18M30S","thumbnail":"https://i.ytimg.com/vi/Tie5cFqjiJw/mqdefault.jpg","viewCount":"136","playlistId":"PLEkQk5xrP-tnUSUj0uyJhA-kwNC7Gkx_j","playlistName":"مقرأة الفجر - بداية من سورة الإسراء حتى سورة الناس","category":"تفسير"},{"id":"ubub00A5zXI","title":"596- الحرف 56: (اللام) - شرح البرهان في علوم القرآن","publishedAt":"2022-11-15T05:00:24Z","duration":"PT18M54S","thumbnail":"https://i.ytimg.com/vi/ubub00A5zXI/mqdefault.jpg","viewCount":"347","playlistId":"PLEkQk5xrP-tnW3iBL7HkKziOFCFZbTlf0","playlistName":"شرح البرهان في علوم القرآن - أ.د. يسري جبر","category":"تفسير"},{"id":"R2lIl9T_HGE","title":"595- (كيف) للاستفهام عن الحال - شرح البرهان في علوم القرآن","publishedAt":"2022-11-14T05:05:00Z","duration":"PT9M57S","thumbnail":"https://i.ytimg.com/vi/R2lIl9T_HGE/mqdefault.jpg","viewCount":"332","playlistId":"PLEkQk5xrP-tnW3iBL7HkKziOFCFZbTlf0","playlistName":"شرح البرهان في علوم القرآن - أ.د. يسري جبر","category":"تفسير"},{"id":"gele3K_THt8","title":"594- كلمة (كَمْ) وأنواعها - شرح البرهان في علوم القرآن","publishedAt":"2022-11-13T05:05:00Z","duration":"PT12M38S","thumbnail":"https://i.ytimg.com/vi/gele3K_THt8/mqdefault.jpg","viewCount":"332","playlistId":"PLEkQk5xrP-tnW3iBL7HkKziOFCFZbTlf0","playlistName":"شرح البرهان في علوم القرآن - أ.د. يسري جبر","category":"تفسير"},{"id":"n7fmobcCccQ","title":"قراءة القرآن (من أول سورة الشمس)","publishedAt":"2016-03-17T08:40:59Z","duration":"PT8M7S","thumbnail":"https://i.ytimg.com/vi/n7fmobcCccQ/mqdefault.jpg","viewCount":"80","playlistId":"PLEkQk5xrP-tnUSUj0uyJhA-kwNC7Gkx_j","playlistName":"مقرأة الفجر - بداية من سورة الإسراء حتى سورة الناس","category":"تفسير"}],"total":1096,"page":18,"pageSize":24,"totalPages":46}