{"items":[{"id":"HMoZBgZOBXw","title":"293- العلوم المستنبطة من القرآن (3) - شرح الإتقان في علوم القرآن","publishedAt":"2025-07-19T05:00:15Z","duration":"PT12M18S","thumbnail":"https://i.ytimg.com/vi/HMoZBgZOBXw/mqdefault.jpg","viewCount":"380","playlistId":"PLEkQk5xrP-tlPw10KGJKagu7zm4Ry2Tge","playlistName":"شرح الإتقان في علوم القرآن","category":"تفسير"},{"id":"Zx5av_tDfEs","title":"292- العلوم المستنبطة من القرآن (2) - شرح الإتقان في علوم القرآن","publishedAt":"2025-07-17T09:03:32Z","duration":"PT24M48S","thumbnail":"https://i.ytimg.com/vi/Zx5av_tDfEs/mqdefault.jpg","viewCount":"317","playlistId":"PLEkQk5xrP-tlPw10KGJKagu7zm4Ry2Tge","playlistName":"شرح الإتقان في علوم القرآن","category":"تفسير"},{"id":"Byp2xcpc3RA","title":"شرح البرهان في علوم القرآن - النوع ٢٤ - فصل ملخص في تقسيمات الوقف","publishedAt":"2020-01-06T06:37:59Z","duration":"PT20M45S","thumbnail":"https://i.ytimg.com/vi/Byp2xcpc3RA/mqdefault.jpg","viewCount":"426","playlistId":"PLEkQk5xrP-tnW3iBL7HkKziOFCFZbTlf0","playlistName":"شرح البرهان في علوم القرآن - أ.د. يسري جبر","category":"تفسير"},{"id":"4q-bpfhBqIs","title":"شرح البرهان في علوم القرآن - النوع ٢٤ - مسألة","publishedAt":"2020-01-05T08:40:13Z","duration":"PT13M50S","thumbnail":"https://i.ytimg.com/vi/4q-bpfhBqIs/mqdefault.jpg","viewCount":"344","playlistId":"PLEkQk5xrP-tnW3iBL7HkKziOFCFZbTlf0","playlistName":"شرح البرهان في علوم القرآن - أ.د. يسري جبر","category":"تفسير"},{"id":"-j1DCef2Cgs","title":"شرح البرهان في علوم القرآن - النوع ٢٤ - معرفة الوقف والابتداء ٤","publishedAt":"2020-01-04T22:16:09Z","duration":"PT23M17S","thumbnail":"https://i.ytimg.com/vi/-j1DCef2Cgs/mqdefault.jpg","viewCount":"413","playlistId":"PLEkQk5xrP-tnW3iBL7HkKziOFCFZbTlf0","playlistName":"شرح البرهان في علوم القرآن - أ.د. يسري جبر","category":"تفسير"},{"id":"qRSP_1TVZks","title":"شرح البرهان في علوم القرآن - النوع ٢٤ - معرفة الوقف والابتداء ٣","publishedAt":"2020-01-04T08:16:07Z","duration":"PT18M56S","thumbnail":"https://i.ytimg.com/vi/qRSP_1TVZks/mqdefault.jpg","viewCount":"421","playlistId":"PLEkQk5xrP-tnW3iBL7HkKziOFCFZbTlf0","playlistName":"شرح البرهان في علوم القرآن - أ.د. يسري جبر","category":"تفسير"},{"id":"AN-bbuVhwqE","title":"شرح البرهان في علوم القرآن - النوع ٢٤ - معرفة الوقف والابتداء ٢","publishedAt":"2020-01-03T07:55:50Z","duration":"PT20M56S","thumbnail":"https://i.ytimg.com/vi/AN-bbuVhwqE/mqdefault.jpg","viewCount":"448","playlistId":"PLEkQk5xrP-tnW3iBL7HkKziOFCFZbTlf0","playlistName":"شرح البرهان في علوم القرآن - أ.د. يسري جبر","category":"تفسير"},{"id":"NeF4Kl2nmBM","title":"قراءة القرآن (من آية 111 سورة طه)","publishedAt":"2015-06-12T03:39:38Z","duration":"PT21M11S","thumbnail":"https://i.ytimg.com/vi/NeF4Kl2nmBM/mqdefault.jpg","viewCount":"1402","playlistId":"PLEkQk5xrP-tnUSUj0uyJhA-kwNC7Gkx_j","playlistName":"مقرأة الفجر - بداية من سورة الإسراء حتى سورة الناس","category":"تفسير"},{"id":"YcR5PovE0Lw","title":"قراءة القرآن (من آية 83 سورة طه)","publishedAt":"2015-06-11T03:34:56Z","duration":"PT16M36S","thumbnail":"https://i.ytimg.com/vi/YcR5PovE0Lw/mqdefault.jpg","viewCount":"221","playlistId":"PLEkQk5xrP-tnUSUj0uyJhA-kwNC7Gkx_j","playlistName":"مقرأة الفجر - بداية من سورة الإسراء حتى سورة الناس","category":"تفسير"},{"id":"x3jZNP1hBQA","title":"قراءة القرآن (من آية 55 سورة طه)","publishedAt":"2015-06-10T03:34:18Z","duration":"PT28M46S","thumbnail":"https://i.ytimg.com/vi/x3jZNP1hBQA/mqdefault.jpg","viewCount":"263","playlistId":"PLEkQk5xrP-tnUSUj0uyJhA-kwNC7Gkx_j","playlistName":"مقرأة الفجر - بداية من سورة الإسراء حتى سورة الناس","category":"تفسير"},{"id":"hOyCe--Syjc","title":"شرح البرهان في علوم القرآن - النوع ٢٥ - علم مرسوم الخط (الناقص وأقسامه : حذف الياء)","publishedAt":"2020-01-16T21:48:31Z","duration":"PT19M44S","thumbnail":"https://i.ytimg.com/vi/hOyCe--Syjc/mqdefault.jpg","viewCount":"383","playlistId":"PLEkQk5xrP-tnW3iBL7HkKziOFCFZbTlf0","playlistName":"شرح البرهان في علوم القرآن - أ.د. يسري جبر","category":"تفسير"},{"id":"0IvpX0RiSsc","title":"شرح البرهان في علوم القرآن - النوع ٢٥ - علم مرسوم الخط (الناقص وأقسامه : حذف الياء ٢)","publishedAt":"2020-01-16T21:48:31Z","duration":"PT7M49S","thumbnail":"https://i.ytimg.com/vi/0IvpX0RiSsc/mqdefault.jpg","viewCount":"273","playlistId":"PLEkQk5xrP-tnW3iBL7HkKziOFCFZbTlf0","playlistName":"شرح البرهان في علوم القرآن - أ.د. يسري جبر","category":"تفسير"},{"id":"WcHfdOEcckE","title":"شرح البرهان في علوم القرآن - النوع ٢٥ - علم مرسوم الخط (الناقص وأقسامه  : حذف الواو)","publishedAt":"2020-01-16T02:43:28Z","duration":"PT9M59S","thumbnail":"https://i.ytimg.com/vi/WcHfdOEcckE/mqdefault.jpg","viewCount":"243","playlistId":"PLEkQk5xrP-tnW3iBL7HkKziOFCFZbTlf0","playlistName":"شرح البرهان في علوم القرآن - أ.د. يسري جبر","category":"تفسير"},{"id":"Ouzw6GLDpk0","title":"شرح البرهان في علوم القرآن - النوع ٢٥ - علم مرسوم الخط (الناقص وأقسامه : حذف الألف ٣)","publishedAt":"2020-01-16T02:43:16Z","duration":"PT16M36S","thumbnail":"https://i.ytimg.com/vi/Ouzw6GLDpk0/mqdefault.jpg","viewCount":"336","playlistId":"PLEkQk5xrP-tnW3iBL7HkKziOFCFZbTlf0","playlistName":"شرح البرهان في علوم القرآن - أ.د. يسري جبر","category":"تفسير"},{"id":"q6SLdv55ilQ","title":"شرح البرهان في علوم القرآن - النوع ٢٥ - علم مرسوم الخط (الناقص وأقسامه : حذف الألف)","publishedAt":"2020-01-15T09:59:04Z","duration":"PT21M29S","thumbnail":"https://i.ytimg.com/vi/q6SLdv55ilQ/mqdefault.jpg","viewCount":"309","playlistId":"PLEkQk5xrP-tnW3iBL7HkKziOFCFZbTlf0","playlistName":"شرح البرهان في علوم القرآن - أ.د. يسري جبر","category":"تفسير"},{"id":"Au7FilvU6AY","title":"شرح البرهان في علوم القرآن - النوع ٢٥ - علم مرسوم الخط (الناقص وأقسامه : حذف الألف ٢)","publishedAt":"2020-01-15T09:59:03Z","duration":"PT13M10S","thumbnail":"https://i.ytimg.com/vi/Au7FilvU6AY/mqdefault.jpg","viewCount":"334","playlistId":"PLEkQk5xrP-tnW3iBL7HkKziOFCFZbTlf0","playlistName":"شرح البرهان في علوم القرآن - أ.د. يسري جبر","category":"تفسير"},{"id":"_EtxvP6hQt4","title":"190- الفرق بين (مَدَّ - أمَدَّ) - شرح الإتقان في علوم القرآن","publishedAt":"2023-12-28T07:00:45Z","duration":"PT25M45S","thumbnail":"https://i.ytimg.com/vi/_EtxvP6hQt4/mqdefault.jpg","viewCount":"871","playlistId":"PLEkQk5xrP-tlPw10KGJKagu7zm4Ry2Tge","playlistName":"شرح الإتقان في علوم القرآن","category":"تفسير"},{"id":"LemzuVdlzMs","title":"189- قاعدةٌ: مقابلة الجمع بالجمع - شرح الإتقان في علوم القرآن","publishedAt":"2023-12-26T07:00:12Z","duration":"PT40M17S","thumbnail":"https://i.ytimg.com/vi/LemzuVdlzMs/mqdefault.jpg","viewCount":"659","playlistId":"PLEkQk5xrP-tlPw10KGJKagu7zm4Ry2Tge","playlistName":"شرح الإتقان في علوم القرآن","category":"تفسير"},{"id":"oOiuyJObduo","title":"188- قاعدةٌ: الفرق بين (بررة - أبرار ، إخوة - إخوان) - شرح الإتقان في علوم القرآن","publishedAt":"2023-12-24T07:07:38Z","duration":"PT28M34S","thumbnail":"https://i.ytimg.com/vi/oOiuyJObduo/mqdefault.jpg","viewCount":"612","playlistId":"PLEkQk5xrP-tlPw10KGJKagu7zm4Ry2Tge","playlistName":"شرح الإتقان في علوم القرآن","category":"تفسير"},{"id":"hP8iemeWsMA","title":"التَّعَدُّدِيَّة - شرح البرهان في علوم القرآن","publishedAt":"2022-03-06T06:48:01Z","duration":"PT26M28S","thumbnail":"https://i.ytimg.com/vi/hP8iemeWsMA/mqdefault.jpg","viewCount":"907","playlistId":"PLEkQk5xrP-tnW3iBL7HkKziOFCFZbTlf0","playlistName":"شرح البرهان في علوم القرآن - أ.د. يسري جبر","category":"تفسير"},{"id":"G2k7fylg2Ho","title":"التَّقْسِيم - شرح البرهان في علوم القرآن","publishedAt":"2022-03-04T06:46:15Z","duration":"PT38M42S","thumbnail":"https://i.ytimg.com/vi/G2k7fylg2Ho/mqdefault.jpg","viewCount":"627","playlistId":"PLEkQk5xrP-tnW3iBL7HkKziOFCFZbTlf0","playlistName":"شرح البرهان في علوم القرآن - أ.د. يسري جبر","category":"تفسير"},{"id":"xfnaxmvKCk4","title":"إلْجَامُ الخَصْمِ بالحُجَّة - شرح البرهان في علوم القرآن","publishedAt":"2022-03-02T21:48:38Z","duration":"PT19M6S","thumbnail":"https://i.ytimg.com/vi/xfnaxmvKCk4/mqdefault.jpg","viewCount":"1170","playlistId":"PLEkQk5xrP-tnW3iBL7HkKziOFCFZbTlf0","playlistName":"شرح البرهان في علوم القرآن - أ.د. يسري جبر","category":"تفسير"},{"id":"WPul-cwfbIQ","title":"تَقْسِيمٌ مِن مقابلة اثْنَين باثْنَين - شرح البرهان في علوم القرآن","publishedAt":"2022-03-01T06:30:07Z","duration":"PT25M53S","thumbnail":"https://i.ytimg.com/vi/WPul-cwfbIQ/mqdefault.jpg","viewCount":"646","playlistId":"PLEkQk5xrP-tnW3iBL7HkKziOFCFZbTlf0","playlistName":"شرح البرهان في علوم القرآن - أ.د. يسري جبر","category":"تفسير"},{"id":"nlhz8-ywhto","title":"أنواعُ المُقَابَلَة - شرح البرهان في علوم القرآن","publishedAt":"2022-02-27T06:32:42Z","duration":"PT27M47S","thumbnail":"https://i.ytimg.com/vi/nlhz8-ywhto/mqdefault.jpg","viewCount":"926","playlistId":"PLEkQk5xrP-tnW3iBL7HkKziOFCFZbTlf0","playlistName":"شرح البرهان في علوم القرآن - أ.د. يسري جبر","category":"تفسير"}],"total":1096,"page":38,"pageSize":24,"totalPages":46}