{"items":[{"id":"LkW2DYbGAgc","title":"74- كيف تَتَلَقَّى القرآن وتَتَعَلَّمه؟ - شرح الإتقان في علوم القرآن","publishedAt":"2023-05-18T05:00:10Z","duration":"PT25M51S","thumbnail":"https://i.ytimg.com/vi/LkW2DYbGAgc/mqdefault.jpg","viewCount":"1497","playlistId":"PLEkQk5xrP-tlPw10KGJKagu7zm4Ry2Tge","playlistName":"شرح الإتقان في علوم القرآن","category":"تفسير"},{"id":"WMSEf896z4w","title":"73- أحكام التلاوة (7) تخفيف الهمز - شرح الإتقان في علوم القرآن","publishedAt":"2023-05-17T05:00:22Z","duration":"PT26M52S","thumbnail":"https://i.ytimg.com/vi/WMSEf896z4w/mqdefault.jpg","viewCount":"543","playlistId":"PLEkQk5xrP-tlPw10KGJKagu7zm4Ry2Tge","playlistName":"شرح الإتقان في علوم القرآن","category":"تفسير"},{"id":"H8lmWiXxv_Y","title":"72- أحكام التلاوة (6) - المدّ العارض للسكون - شرح الإتقان في علوم القرآن","publishedAt":"2023-05-15T08:59:00Z","duration":"PT20M41S","thumbnail":"https://i.ytimg.com/vi/H8lmWiXxv_Y/mqdefault.jpg","viewCount":"732","playlistId":"PLEkQk5xrP-tlPw10KGJKagu7zm4Ry2Tge","playlistName":"شرح الإتقان في علوم القرآن","category":"تفسير"},{"id":"u3ZOCOHH1XQ","title":"71- أحكام التلاوة (5): بيان المَدِّ والقَصْر - شرح الإتقان في علوم القرآن","publishedAt":"2023-05-14T05:00:31Z","duration":"PT25M6S","thumbnail":"https://i.ytimg.com/vi/u3ZOCOHH1XQ/mqdefault.jpg","viewCount":"605","playlistId":"PLEkQk5xrP-tlPw10KGJKagu7zm4Ry2Tge","playlistName":"شرح الإتقان في علوم القرآن","category":"تفسير"},{"id":"mXRpRor9QFI","title":"70- أحكام التلاوة (4): الإدغام والإظهار والإخفاء والإقلاب - شرح الإتقان في علوم القرآن","publishedAt":"2023-05-13T05:00:31Z","duration":"PT25M57S","thumbnail":"https://i.ytimg.com/vi/mXRpRor9QFI/mqdefault.jpg","viewCount":"621","playlistId":"PLEkQk5xrP-tlPw10KGJKagu7zm4Ry2Tge","playlistName":"شرح الإتقان في علوم القرآن","category":"تفسير"},{"id":"feXotZwEkqI","title":"69- أحكام التلاوة (3): الإدغام والإظهار والإخفاء والإقلاب - شرح الإتقان في علوم القرآن","publishedAt":"2023-05-12T05:00:27Z","duration":"PT13M32S","thumbnail":"https://i.ytimg.com/vi/feXotZwEkqI/mqdefault.jpg","viewCount":"505","playlistId":"PLEkQk5xrP-tlPw10KGJKagu7zm4Ry2Tge","playlistName":"شرح الإتقان في علوم القرآن","category":"تفسير"},{"id":"y0k5D7v9AlE","title":"68- أحكام التلاوة (2): الإدغام والإظهار والإخفاء والإقلاب - شرح الإتقان في علوم القرآن","publishedAt":"2023-05-11T05:30:12Z","duration":"PT11M5S","thumbnail":"https://i.ytimg.com/vi/y0k5D7v9AlE/mqdefault.jpg","viewCount":"689","playlistId":"PLEkQk5xrP-tlPw10KGJKagu7zm4Ry2Tge","playlistName":"شرح الإتقان في علوم القرآن","category":"تفسير"},{"id":"JEGBKhdXG6Q","title":"67- أحكام التلاوة: الإدغام والإظهار والإخفاء والإقلاب - شرح الإتقان في علوم القرآن","publishedAt":"2023-05-10T05:00:05Z","duration":"PT29M55S","thumbnail":"https://i.ytimg.com/vi/JEGBKhdXG6Q/mqdefault.jpg","viewCount":"986","playlistId":"PLEkQk5xrP-tlPw10KGJKagu7zm4Ry2Tge","playlistName":"شرح الإتقان في علوم القرآن","category":"تفسير"},{"id":"q0TrtDXrV4Q","title":"66- مواضع الإِمالة - شرح الإتقان في علوم القرآن","publishedAt":"2023-05-09T05:00:18Z","duration":"PT23M54S","thumbnail":"https://i.ytimg.com/vi/q0TrtDXrV4Q/mqdefault.jpg","viewCount":"540","playlistId":"PLEkQk5xrP-tlPw10KGJKagu7zm4Ry2Tge","playlistName":"شرح الإتقان في علوم القرآن","category":"تفسير"},{"id":"Zj90Pt0deOc","title":"65- الإمالة والفتح وما بينهما - شرح الإتقان في علوم القرآن","publishedAt":"2023-05-08T05:01:07Z","duration":"PT28M7S","thumbnail":"https://i.ytimg.com/vi/Zj90Pt0deOc/mqdefault.jpg","viewCount":"706","playlistId":"PLEkQk5xrP-tlPw10KGJKagu7zm4Ry2Tge","playlistName":"شرح الإتقان في علوم القرآن","category":"تفسير"},{"id":"1U0wt6NOFGU","title":"64- بيان الموصول لَفْظًا المفصول مَعْنًى - شرح الإتقان في علوم القرآن","publishedAt":"2023-05-07T08:59:00Z","duration":"PT24M56S","thumbnail":"https://i.ytimg.com/vi/1U0wt6NOFGU/mqdefault.jpg","viewCount":"734","playlistId":"PLEkQk5xrP-tlPw10KGJKagu7zm4Ry2Tge","playlistName":"شرح الإتقان في علوم القرآن","category":"تفسير"},{"id":"8xophfKbppw","title":"2- فوائد تتعلق بالصفة -الخامسة: قد يحتمل اللفظ كثيرا من الأسباب السابقة - شرح البرهان في علوم القرآن","publishedAt":"2021-02-05T06:58:11Z","duration":"PT9M10S","thumbnail":"https://i.ytimg.com/vi/8xophfKbppw/mqdefault.jpg","viewCount":"504","playlistId":"PLEkQk5xrP-tnW3iBL7HkKziOFCFZbTlf0","playlistName":"شرح البرهان في علوم القرآن - أ.د. يسري جبر","category":"تفسير"},{"id":"CFjS1AtiWDU","title":"1- فوائد تتعلق بالصِّفة - الأول: الصّفة العامة لا تأتي بعد الصفة الخاصة - شرح البرهان في علوم القرآن","publishedAt":"2021-02-03T06:55:02Z","duration":"PT23M42S","thumbnail":"https://i.ytimg.com/vi/CFjS1AtiWDU/mqdefault.jpg","viewCount":"652","playlistId":"PLEkQk5xrP-tnW3iBL7HkKziOFCFZbTlf0","playlistName":"شرح البرهان في علوم القرآن - أ.د. يسري جبر","category":"تفسير"},{"id":"itPmGHa8GU0","title":"الالتفات: البحث الخامس: نقل الكلام إلى غيره - شرح البرهان في علوم القرآن","publishedAt":"2021-12-03T07:00:36Z","duration":"PT32M14S","thumbnail":"https://i.ytimg.com/vi/itPmGHa8GU0/mqdefault.jpg","viewCount":"702","playlistId":"PLEkQk5xrP-tnW3iBL7HkKziOFCFZbTlf0","playlistName":"شرح البرهان في علوم القرآن - أ.د. يسري جبر","category":"تفسير"},{"id":"8nsVHJJbQGg","title":"البحث الرابع: شرط الالتفات - شرح البرهان في علوم القرآن","publishedAt":"2021-12-01T06:45:33Z","duration":"PT15M15S","thumbnail":"https://i.ytimg.com/vi/8nsVHJJbQGg/mqdefault.jpg","viewCount":"617","playlistId":"PLEkQk5xrP-tnW3iBL7HkKziOFCFZbTlf0","playlistName":"شرح البرهان في علوم القرآن - أ.د. يسري جبر","category":"تفسير"},{"id":"7S4-4RtsFIk","title":"أسباب الالتفات: السبب الثالث - شرح البرهان في علوم القرآن","publishedAt":"2021-11-29T06:55:14Z","duration":"PT12M23S","thumbnail":"https://i.ytimg.com/vi/7S4-4RtsFIk/mqdefault.jpg","viewCount":"578","playlistId":"PLEkQk5xrP-tnW3iBL7HkKziOFCFZbTlf0","playlistName":"شرح البرهان في علوم القرآن - أ.د. يسري جبر","category":"تفسير"},{"id":"Fe2k2MF8ktQ","title":"الالتفات: البحث الثالث: أسباب الالتفات - شرح البرهان في علوم القرآن","publishedAt":"2021-11-27T08:04:32Z","duration":"PT28M10S","thumbnail":"https://i.ytimg.com/vi/Fe2k2MF8ktQ/mqdefault.jpg","viewCount":"768","playlistId":"PLEkQk5xrP-tnW3iBL7HkKziOFCFZbTlf0","playlistName":"شرح البرهان في علوم القرآن - أ.د. يسري جبر","category":"تفسير"},{"id":"q1k9zxhuQi0","title":"شرح البرهان في علوم القرآن - النوع ٢٢ - معرفة اختلاف الألفاظ بزيادة أو نقص أو تغيير ٢","publishedAt":"2019-12-20T05:06:30Z","duration":"PT31M39S","thumbnail":"https://i.ytimg.com/vi/q1k9zxhuQi0/mqdefault.jpg","viewCount":"561","playlistId":"PLEkQk5xrP-tnW3iBL7HkKziOFCFZbTlf0","playlistName":"شرح البرهان في علوم القرآن - أ.د. يسري جبر","category":"تفسير"},{"id":"jth7Sv2z-Ek","title":"شرح البرهان في علوم القرآن - النوع ٢٢ - معرفة اختلاف الألفاظ بزيادة أو نقص أو تغيير","publishedAt":"2019-12-19T17:18:30Z","duration":"PT32M28S","thumbnail":"https://i.ytimg.com/vi/jth7Sv2z-Ek/mqdefault.jpg","viewCount":"435","playlistId":"PLEkQk5xrP-tnW3iBL7HkKziOFCFZbTlf0","playlistName":"شرح البرهان في علوم القرآن - أ.د. يسري جبر","category":"تفسير"},{"id":"sIooT4zDpTU","title":"شرح البرهان في علوم القرآن - النوع ٢٢ - معرفة اختلاف الألفاظ بزيادة أو نقص أو تغيير ٥","publishedAt":"2019-12-19T04:30:28Z","duration":"PT26M30S","thumbnail":"https://i.ytimg.com/vi/sIooT4zDpTU/mqdefault.jpg","viewCount":"241","playlistId":"PLEkQk5xrP-tnW3iBL7HkKziOFCFZbTlf0","playlistName":"شرح البرهان في علوم القرآن - أ.د. يسري جبر","category":"تفسير"},{"id":"Y7OAseB02BM","title":"شرح البرهان في علوم القرآن - النوع ٢١ - معرفة كون اللفظ والتركيب أحسن وأفصح ٣","publishedAt":"2019-12-18T18:57:44Z","duration":"PT23M30S","thumbnail":"https://i.ytimg.com/vi/Y7OAseB02BM/mqdefault.jpg","viewCount":"445","playlistId":"PLEkQk5xrP-tnW3iBL7HkKziOFCFZbTlf0","playlistName":"شرح البرهان في علوم القرآن - أ.د. يسري جبر","category":"تفسير"},{"id":"5hoZp86N-0g","title":"شرح البرهان في علوم القرآن - النوع ٢١ - معرفة كون اللفظ والتركيب أحسن وأفصح ٢","publishedAt":"2019-12-17T19:02:36Z","duration":"PT17M28S","thumbnail":"https://i.ytimg.com/vi/5hoZp86N-0g/mqdefault.jpg","viewCount":"433","playlistId":"PLEkQk5xrP-tnW3iBL7HkKziOFCFZbTlf0","playlistName":"شرح البرهان في علوم القرآن - أ.د. يسري جبر","category":"تفسير"},{"id":"PfJY0jiuc_g","title":"القِسمُ الثاني: الصِّفَة تأتي لأسباب: ثالثًا: الثالث لتعيينه للجنسية - شرح البرهان في علوم القرآن","publishedAt":"2021-02-01T07:08:31Z","duration":"PT18M56S","thumbnail":"https://i.ytimg.com/vi/PfJY0jiuc_g/mqdefault.jpg","viewCount":"574","playlistId":"PLEkQk5xrP-tnW3iBL7HkKziOFCFZbTlf0","playlistName":"شرح البرهان في علوم القرآن - أ.د. يسري جبر","category":"تفسير"},{"id":"a_XYxyRN0Dc","title":"القسم الثاني: الصِّفة تأتي لأسباب: أولا: المدح والثناء، شرح البرهان في علوم القرآن","publishedAt":"2021-01-30T07:00:51Z","duration":"PT14M11S","thumbnail":"https://i.ytimg.com/vi/a_XYxyRN0Dc/mqdefault.jpg","viewCount":"517","playlistId":"PLEkQk5xrP-tnW3iBL7HkKziOFCFZbTlf0","playlistName":"شرح البرهان في علوم القرآن - أ.د. يسري جبر","category":"تفسير"}],"total":1096,"page":25,"pageSize":24,"totalPages":46}