{"items":[{"id":"a_bHt1ugnoM","title":"585- حروف المعاني(46): الحرف (46)(الكاف) - شرح البرهان في علوم القرآن","publishedAt":"2022-11-02T05:00:02Z","duration":"PT19M27S","thumbnail":"https://i.ytimg.com/vi/a_bHt1ugnoM/mqdefault.jpg","viewCount":"387","playlistId":"PLEkQk5xrP-tnW3iBL7HkKziOFCFZbTlf0","playlistName":"شرح البرهان في علوم القرآن - أ.د. يسري جبر","category":"تفسير"},{"id":"nHUn5AwLvCk","title":"584- الحرف (45)(قَدْ) يستخدم في التقليل - شرح البرهان في علوم القرآن","publishedAt":"2022-11-01T05:00:20Z","duration":"PT11M34S","thumbnail":"https://i.ytimg.com/vi/nHUn5AwLvCk/mqdefault.jpg","viewCount":"317","playlistId":"PLEkQk5xrP-tnW3iBL7HkKziOFCFZbTlf0","playlistName":"شرح البرهان في علوم القرآن - أ.د. يسري جبر","category":"تفسير"},{"id":"ph5lWotLVYU","title":"583- حروف المعاني(44): الحرف (45) (قَدْ) - شرح البرهان في علوم القرآن","publishedAt":"2022-10-31T05:00:32Z","duration":"PT24M18S","thumbnail":"https://i.ytimg.com/vi/ph5lWotLVYU/mqdefault.jpg","viewCount":"303","playlistId":"PLEkQk5xrP-tnW3iBL7HkKziOFCFZbTlf0","playlistName":"شرح البرهان في علوم القرآن - أ.د. يسري جبر","category":"تفسير"},{"id":"ATDBu82kBi4","title":"582- حروف المعاني(43): الحرف (44) (في) - شرح البرهان في علوم القرآن","publishedAt":"2022-10-30T05:00:04Z","duration":"PT26M34S","thumbnail":"https://i.ytimg.com/vi/ATDBu82kBi4/mqdefault.jpg","viewCount":"351","playlistId":"PLEkQk5xrP-tnW3iBL7HkKziOFCFZbTlf0","playlistName":"شرح البرهان في علوم القرآن - أ.د. يسري جبر","category":"تفسير"},{"id":"7rqGib48tH4","title":"581- حروف المعاني(42): 3) تكملة حرف (الفاء)","publishedAt":"2022-10-28T05:00:03Z","duration":"PT29M39S","thumbnail":"https://i.ytimg.com/vi/7rqGib48tH4/mqdefault.jpg","viewCount":"359","playlistId":"PLEkQk5xrP-tnW3iBL7HkKziOFCFZbTlf0","playlistName":"شرح البرهان في علوم القرآن - أ.د. يسري جبر","category":"تفسير"},{"id":"lcoLDF2RbvI","title":"580- حروف المعاني(41): تكملة حرف (الفاء)","publishedAt":"2022-10-27T05:15:03Z","duration":"PT17M6S","thumbnail":"https://i.ytimg.com/vi/lcoLDF2RbvI/mqdefault.jpg","viewCount":"379","playlistId":"PLEkQk5xrP-tnW3iBL7HkKziOFCFZbTlf0","playlistName":"شرح البرهان في علوم القرآن - أ.د. يسري جبر","category":"تفسير"},{"id":"kGEA566Om8w","title":"291- العلوم المستنبطة من القرآن - شرح الإتقان في علوم القرآن","publishedAt":"2025-04-29T09:01:07Z","duration":"PT16M23S","thumbnail":"https://i.ytimg.com/vi/kGEA566Om8w/mqdefault.jpg","viewCount":"690","playlistId":"PLEkQk5xrP-tlPw10KGJKagu7zm4Ry2Tge","playlistName":"شرح الإتقان في علوم القرآن","category":"تفسير"},{"id":"QkRs5opMBeI","title":"481- الأبرار | البَرَرَة ما الفرقُ بينهما؟ - شرح البرهان في علوم القرآن","publishedAt":"2022-03-23T07:28:32Z","duration":"PT13M21S","thumbnail":"https://i.ytimg.com/vi/QkRs5opMBeI/mqdefault.jpg","viewCount":"1182","playlistId":"PLEkQk5xrP-tnW3iBL7HkKziOFCFZbTlf0","playlistName":"شرح البرهان في علوم القرآن - أ.د. يسري جبر","category":"تفسير"},{"id":"YYs26aamPAU","title":"480- مجيءُ المَشرِق والمغرب في القرآن(بالجمع-التثنية-الإفراد) فما الفرق؟ شرح البرهان في علوم القرآن","publishedAt":"2022-03-20T06:30:14Z","duration":"PT24M19S","thumbnail":"https://i.ytimg.com/vi/YYs26aamPAU/mqdefault.jpg","viewCount":"932","playlistId":"PLEkQk5xrP-tnW3iBL7HkKziOFCFZbTlf0","playlistName":"شرح البرهان في علوم القرآن - أ.د. يسري جبر","category":"تفسير"},{"id":"R9YBm2RYmFI","title":"579- حروف المعاني(40): الحرف 42: (غير)  -شرح البرهان في علوم القرآن","publishedAt":"2022-10-26T05:15:00Z","duration":"PT38M3S","thumbnail":"https://i.ytimg.com/vi/R9YBm2RYmFI/mqdefault.jpg","viewCount":"449","playlistId":"PLEkQk5xrP-tnW3iBL7HkKziOFCFZbTlf0","playlistName":"شرح البرهان في علوم القرآن - أ.د. يسري جبر","category":"تفسير"},{"id":"KxpIycXXevw","title":"578- حروف المعاني(39): الحرف 41: (عند) - شرح البرهان في علوم القرآن","publishedAt":"2022-10-25T05:00:06Z","duration":"PT11M45S","thumbnail":"https://i.ytimg.com/vi/KxpIycXXevw/mqdefault.jpg","viewCount":"355","playlistId":"PLEkQk5xrP-tnW3iBL7HkKziOFCFZbTlf0","playlistName":"شرح البرهان في علوم القرآن - أ.د. يسري جبر","category":"تفسير"},{"id":"TuLdLmPd6k8","title":"577- حروف المعاني(38): الحرف 40: عسى - شرح البرهان في علوم القرآن","publishedAt":"2022-10-24T05:00:10Z","duration":"PT14M29S","thumbnail":"https://i.ytimg.com/vi/TuLdLmPd6k8/mqdefault.jpg","viewCount":"363","playlistId":"PLEkQk5xrP-tnW3iBL7HkKziOFCFZbTlf0","playlistName":"شرح البرهان في علوم القرآن - أ.د. يسري جبر","category":"تفسير"},{"id":"zSqyN8ZUCg8","title":"576- حروف المعاني(37): الحرف 39: عن - شرح البرهان في علوم القرآن","publishedAt":"2022-10-23T05:00:20Z","duration":"PT16M33S","thumbnail":"https://i.ytimg.com/vi/zSqyN8ZUCg8/mqdefault.jpg","viewCount":"338","playlistId":"PLEkQk5xrP-tnW3iBL7HkKziOFCFZbTlf0","playlistName":"شرح البرهان في علوم القرآن - أ.د. يسري جبر","category":"تفسير"},{"id":"F8T27X9Y558","title":"575- حروف المعاني(36): الحرف 38: على - شرح البرهان في علوم القرآن","publishedAt":"2022-10-21T05:00:11Z","duration":"PT15M14S","thumbnail":"https://i.ytimg.com/vi/F8T27X9Y558/mqdefault.jpg","viewCount":"320","playlistId":"PLEkQk5xrP-tnW3iBL7HkKziOFCFZbTlf0","playlistName":"شرح البرهان في علوم القرآن - أ.د. يسري جبر","category":"تفسير"},{"id":"9zrEYDUZCb8","title":"574- حروف المعاني(35): الحرف 37: سَوفَ - شرح البرهان في علوم القرآن","publishedAt":"2022-10-20T05:00:04Z","duration":"PT20M3S","thumbnail":"https://i.ytimg.com/vi/9zrEYDUZCb8/mqdefault.jpg","viewCount":"434","playlistId":"PLEkQk5xrP-tnW3iBL7HkKziOFCFZbTlf0","playlistName":"شرح البرهان في علوم القرآن - أ.د. يسري جبر","category":"تفسير"},{"id":"ncIm7uh_BmU","title":"573- حروف المعاني(34): رُوَيْد - شرح البرهان في علوم القرآن","publishedAt":"2022-10-19T05:10:00Z","duration":"PT12M45S","thumbnail":"https://i.ytimg.com/vi/ncIm7uh_BmU/mqdefault.jpg","viewCount":"230","playlistId":"PLEkQk5xrP-tnW3iBL7HkKziOFCFZbTlf0","playlistName":"شرح البرهان في علوم القرآن - أ.د. يسري جبر","category":"تفسير"},{"id":"8-Wq3QoLuKU","title":"572- حروف المعاني(33): ذو - ذات - شرح البرهان في علوم القرآن","publishedAt":"2022-10-18T05:00:04Z","duration":"PT21M22S","thumbnail":"https://i.ytimg.com/vi/8-Wq3QoLuKU/mqdefault.jpg","viewCount":"326","playlistId":"PLEkQk5xrP-tnW3iBL7HkKziOFCFZbTlf0","playlistName":"شرح البرهان في علوم القرآن - أ.د. يسري جبر","category":"تفسير"},{"id":"XNF5eO5CbIc","title":"571- حروف المعاني(32): الحرف(31) حيث - شرح البرهان في علوم القرآن","publishedAt":"2022-10-16T05:00:11Z","duration":"PT17M14S","thumbnail":"https://i.ytimg.com/vi/XNF5eO5CbIc/mqdefault.jpg","viewCount":"504","playlistId":"PLEkQk5xrP-tnW3iBL7HkKziOFCFZbTlf0","playlistName":"شرح البرهان في علوم القرآن - أ.د. يسري جبر","category":"تفسير"},{"id":"F2Oi-6InmV0","title":"570- حروف المعاني(31):(29)(حاشا) - شرح البرهان في علوم القرآن","publishedAt":"2022-10-15T05:00:09Z","duration":"PT30M2S","thumbnail":"https://i.ytimg.com/vi/F2Oi-6InmV0/mqdefault.jpg","viewCount":"389","playlistId":"PLEkQk5xrP-tnW3iBL7HkKziOFCFZbTlf0","playlistName":"شرح البرهان في علوم القرآن - أ.د. يسري جبر","category":"تفسير"},{"id":"aQRMw5s094Q","title":"569- حروف المعاني(30): الحرف(28) (ثَمَّ) - شرح البرهان في علوم القرآن","publishedAt":"2022-10-14T05:00:01Z","duration":"PT6M18S","thumbnail":"https://i.ytimg.com/vi/aQRMw5s094Q/mqdefault.jpg","viewCount":"321","playlistId":"PLEkQk5xrP-tnW3iBL7HkKziOFCFZbTlf0","playlistName":"شرح البرهان في علوم القرآن - أ.د. يسري جبر","category":"تفسير"},{"id":"twPrE5RKKd8","title":"568- حروف المعاني(29): الحرف(27) (ثُمَّ) - شرح البرهان في علوم القرآن","publishedAt":"2022-10-12T21:00:23Z","duration":"PT17M58S","thumbnail":"https://i.ytimg.com/vi/twPrE5RKKd8/mqdefault.jpg","viewCount":"350","playlistId":"PLEkQk5xrP-tnW3iBL7HkKziOFCFZbTlf0","playlistName":"شرح البرهان في علوم القرآن - أ.د. يسري جبر","category":"تفسير"},{"id":"Bf5Lb6nPMBY","title":"567- حروف المعاني(28): الحرف(26) (بلى) تنبيهات","publishedAt":"2022-10-12T05:30:02Z","duration":"PT34M6S","thumbnail":"https://i.ytimg.com/vi/Bf5Lb6nPMBY/mqdefault.jpg","viewCount":"382","playlistId":"PLEkQk5xrP-tnW3iBL7HkKziOFCFZbTlf0","playlistName":"شرح البرهان في علوم القرآن - أ.د. يسري جبر","category":"تفسير"},{"id":"PgrMb_LKmGA","title":"51- بيان مَن جمع القرآن ومَن اشتهر بإقرائه - شرح الإتقان في علوم القرآن","publishedAt":"2023-04-15T10:01:00Z","duration":"PT25M48S","thumbnail":"https://i.ytimg.com/vi/PgrMb_LKmGA/mqdefault.jpg","viewCount":"691","playlistId":"PLEkQk5xrP-tlPw10KGJKagu7zm4Ry2Tge","playlistName":"شرح الإتقان في علوم القرآن","category":"تفسير"},{"id":"GKAcv-UkpbA","title":"الظاهر والمُؤول","publishedAt":"2020-09-14T06:06:52Z","duration":"PT26M53S","thumbnail":"https://i.ytimg.com/vi/GKAcv-UkpbA/mqdefault.jpg","viewCount":"808","playlistId":"PLEkQk5xrP-tnW3iBL7HkKziOFCFZbTlf0","playlistName":"شرح البرهان في علوم القرآن - أ.د. يسري جبر","category":"تفسير"}],"total":1096,"page":17,"pageSize":24,"totalPages":46}