{"items":[{"id":"gmVusj_fz2U","title":"القِسمُ التاسع من التوكيد: وضع الظاهر موضع المُضْمَر - شرح البرهان في علوم القرآن","publishedAt":"2021-03-22T07:09:05Z","duration":"PT16M23S","thumbnail":"https://i.ytimg.com/vi/gmVusj_fz2U/mqdefault.jpg","viewCount":"523","playlistId":"PLEkQk5xrP-tnW3iBL7HkKziOFCFZbTlf0","playlistName":"شرح البرهان في علوم القرآن - أ.د. يسري جبر","category":"تفسير"},{"id":"JGlMRn1XN6s","title":"القِسمُ الثامن من التوكيد: الإيضاح بعد الإبهام - شرح البرهان في علوم القرآن","publishedAt":"2021-03-20T09:05:23Z","duration":"PT27M20S","thumbnail":"https://i.ytimg.com/vi/JGlMRn1XN6s/mqdefault.jpg","viewCount":"436","playlistId":"PLEkQk5xrP-tnW3iBL7HkKziOFCFZbTlf0","playlistName":"شرح البرهان في علوم القرآن - أ.د. يسري جبر","category":"تفسير"},{"id":"OmeS26EQ1kM","title":"شرح البرهان في علوم القرآن - النوع ٤٠ - في بيان معاضدة السنة للقرآن ٤","publishedAt":"2020-04-03T07:00:06Z","duration":"PT27M22S","thumbnail":"https://i.ytimg.com/vi/OmeS26EQ1kM/mqdefault.jpg","viewCount":"330","playlistId":"PLEkQk5xrP-tnW3iBL7HkKziOFCFZbTlf0","playlistName":"شرح البرهان في علوم القرآن - أ.د. يسري جبر","category":"تفسير"},{"id":"ugtvb3hQPgU","title":"شرح البرهان في علوم القرآن - النوع ٤٠ - في بيان معاضدة السنة للقرآن ٣","publishedAt":"2020-04-02T11:00:22Z","duration":"PT23M22S","thumbnail":"https://i.ytimg.com/vi/ugtvb3hQPgU/mqdefault.jpg","viewCount":"429","playlistId":"PLEkQk5xrP-tnW3iBL7HkKziOFCFZbTlf0","playlistName":"شرح البرهان في علوم القرآن - أ.د. يسري جبر","category":"تفسير"},{"id":"gjW0xlvRHYw","title":"شرح البرهان في علوم القرآن - النوع ٤٠ - في بيان معاضدة السنة للقرآن ٢","publishedAt":"2020-04-01T07:00:12Z","duration":"PT36M2S","thumbnail":"https://i.ytimg.com/vi/gjW0xlvRHYw/mqdefault.jpg","viewCount":"420","playlistId":"PLEkQk5xrP-tnW3iBL7HkKziOFCFZbTlf0","playlistName":"شرح البرهان في علوم القرآن - أ.د. يسري جبر","category":"تفسير"},{"id":"OJbk4Ilq8VM","title":"شرح البرهان في علوم القرآن - النوع ٤٠ - في بيان معاضدة السنة للقرآن","publishedAt":"2020-03-31T07:30:04Z","duration":"PT21M17S","thumbnail":"https://i.ytimg.com/vi/OJbk4Ilq8VM/mqdefault.jpg","viewCount":"303","playlistId":"PLEkQk5xrP-tnW3iBL7HkKziOFCFZbTlf0","playlistName":"شرح البرهان في علوم القرآن - أ.د. يسري جبر","category":"تفسير"},{"id":"q6I2Aw7Z8uA","title":"شرح البرهان في علوم القرآن - النوع ٣٩ - فصل","publishedAt":"2020-03-30T07:00:24Z","duration":"PT11M22S","thumbnail":"https://i.ytimg.com/vi/q6I2Aw7Z8uA/mqdefault.jpg","viewCount":"308","playlistId":"PLEkQk5xrP-tnW3iBL7HkKziOFCFZbTlf0","playlistName":"شرح البرهان في علوم القرآن - أ.د. يسري جبر","category":"تفسير"},{"id":"PKBJbEfg3-Y","title":"إطلاق الأمر بالشيء للمتلبس به والمراد دوامه","publishedAt":"2020-10-30T06:04:01Z","duration":"PT16M44S","thumbnail":"https://i.ytimg.com/vi/PKBJbEfg3-Y/mqdefault.jpg","viewCount":"639","playlistId":"PLEkQk5xrP-tnW3iBL7HkKziOFCFZbTlf0","playlistName":"شرح البرهان في علوم القرآن - أ.د. يسري جبر","category":"تفسير"},{"id":"vLMMfgXnK2g","title":"شرح البرهان في علوم القرآن - النوع ٣٨ - تنبيه في أن معرفة مقامات الكلام لا تدرك إلا بالذوق","publishedAt":"2020-03-29T07:00:11Z","duration":"PT19M53S","thumbnail":"https://i.ytimg.com/vi/vLMMfgXnK2g/mqdefault.jpg","viewCount":"342","playlistId":"PLEkQk5xrP-tnW3iBL7HkKziOFCFZbTlf0","playlistName":"شرح البرهان في علوم القرآن - أ.د. يسري جبر","category":"تفسير"},{"id":"TIILTQu0YL8","title":"284- مناسبة الآيات والسور (3) - شرح الإتقان في علوم القرآن","publishedAt":"2025-02-22T07:00:27Z","duration":"PT24M33S","thumbnail":"https://i.ytimg.com/vi/TIILTQu0YL8/mqdefault.jpg","viewCount":"482","playlistId":"PLEkQk5xrP-tlPw10KGJKagu7zm4Ry2Tge","playlistName":"شرح الإتقان في علوم القرآن","category":"تفسير"},{"id":"6QuzlytaGao","title":"شرح البرهان في علوم القرآن - النوع ٣٤ - التنبيه الثالث في تقسيم القرآن على ضروب من وجه آخر","publishedAt":"2020-02-29T06:00:00Z","duration":"PT35M2S","thumbnail":"https://i.ytimg.com/vi/6QuzlytaGao/mqdefault.jpg","viewCount":"375","playlistId":"PLEkQk5xrP-tnW3iBL7HkKziOFCFZbTlf0","playlistName":"شرح البرهان في علوم القرآن - أ.د. يسري جبر","category":"تفسير"},{"id":"xmmX2aw4Beo","title":"شرح البرهان في علوم القرآن - النوع ٣٤ - التنبيه الثاني في ضروب النسخ في القرآن ٢","publishedAt":"2020-02-28T06:00:13Z","duration":"PT40M","thumbnail":"https://i.ytimg.com/vi/xmmX2aw4Beo/mqdefault.jpg","viewCount":"352","playlistId":"PLEkQk5xrP-tnW3iBL7HkKziOFCFZbTlf0","playlistName":"شرح البرهان في علوم القرآن - أ.د. يسري جبر","category":"تفسير"},{"id":"iCZiHyv2XFY","title":"شرح البرهان في علوم القرآن - النوع ٣٤ - التنبيه الثاني في ضروب النسخ في القرآن","publishedAt":"2020-02-27T06:00:11Z","duration":"PT16M55S","thumbnail":"https://i.ytimg.com/vi/iCZiHyv2XFY/mqdefault.jpg","viewCount":"312","playlistId":"PLEkQk5xrP-tnW3iBL7HkKziOFCFZbTlf0","playlistName":"شرح البرهان في علوم القرآن - أ.د. يسري جبر","category":"تفسير"},{"id":"pMjt2FNM3pw","title":"شرح البرهان في علوم القرآن - النوع ٣٤ - مسألة في جواز النسخ بالكتاب","publishedAt":"2020-02-26T06:00:08Z","duration":"PT28M10S","thumbnail":"https://i.ytimg.com/vi/pMjt2FNM3pw/mqdefault.jpg","viewCount":"367","playlistId":"PLEkQk5xrP-tnW3iBL7HkKziOFCFZbTlf0","playlistName":"شرح البرهان في علوم القرآن - أ.د. يسري جبر","category":"تفسير"},{"id":"PN9SE60UBTE","title":"شرح البرهان في علوم القرآن - النوع ٣٤ - معرفة ناسخه من منسوخه","publishedAt":"2020-02-25T06:00:08Z","duration":"PT26M38S","thumbnail":"https://i.ytimg.com/vi/PN9SE60UBTE/mqdefault.jpg","viewCount":"412","playlistId":"PLEkQk5xrP-tnW3iBL7HkKziOFCFZbTlf0","playlistName":"شرح البرهان في علوم القرآن - أ.د. يسري جبر","category":"تفسير"},{"id":"D9hmxJG40mk","title":"164- معنى (ماذا) - شرح الإتقان في علوم القرآن","publishedAt":"2023-10-24T05:45:00Z","duration":"PT25M28S","thumbnail":"https://i.ytimg.com/vi/D9hmxJG40mk/mqdefault.jpg","viewCount":"877","playlistId":"PLEkQk5xrP-tlPw10KGJKagu7zm4Ry2Tge","playlistName":"شرح الإتقان في علوم القرآن","category":"تفسير"},{"id":"Yh306frLCr0","title":"163- معنى (ما) - شرح الإتقان في علوم القرآن","publishedAt":"2023-10-22T05:30:08Z","duration":"PT24M36S","thumbnail":"https://i.ytimg.com/vi/Yh306frLCr0/mqdefault.jpg","viewCount":"794","playlistId":"PLEkQk5xrP-tlPw10KGJKagu7zm4Ry2Tge","playlistName":"شرح الإتقان في علوم القرآن","category":"تفسير"},{"id":"RCqwGssFptA","title":"162- معنى (ليت - ليس)- شرح الإتقان في علوم القرآن","publishedAt":"2023-10-19T05:30:07Z","duration":"PT35M38S","thumbnail":"https://i.ytimg.com/vi/RCqwGssFptA/mqdefault.jpg","viewCount":"788","playlistId":"PLEkQk5xrP-tlPw10KGJKagu7zm4Ry2Tge","playlistName":"شرح الإتقان في علوم القرآن","category":"تفسير"},{"id":"9Sn5_0ji1hY","title":"161- معنى (لولا - لوما) - شرح الإتقان في علوم القرآن","publishedAt":"2023-10-17T05:15:00Z","duration":"PT15M30S","thumbnail":"https://i.ytimg.com/vi/9Sn5_0ji1hY/mqdefault.jpg","viewCount":"866","playlistId":"PLEkQk5xrP-tlPw10KGJKagu7zm4Ry2Tge","playlistName":"شرح الإتقان في علوم القرآن","category":"تفسير"},{"id":"QuahGy6o3CA","title":"160- معنى (لو) - شرح الإتقان في علوم القرآن","publishedAt":"2023-10-15T05:15:00Z","duration":"PT33M","thumbnail":"https://i.ytimg.com/vi/QuahGy6o3CA/mqdefault.jpg","viewCount":"691","playlistId":"PLEkQk5xrP-tlPw10KGJKagu7zm4Ry2Tge","playlistName":"شرح الإتقان في علوم القرآن","category":"تفسير"},{"id":"JRIvmiKCq4o","title":"39- أسماءُ السِوَر .. هل هي توقيفيَّة؟ - شرح الإتقان في علوم القرآن","publishedAt":"2023-03-18T05:00:10Z","duration":"PT16M40S","thumbnail":"https://i.ytimg.com/vi/JRIvmiKCq4o/mqdefault.jpg","viewCount":"1119","playlistId":"PLEkQk5xrP-tlPw10KGJKagu7zm4Ry2Tge","playlistName":"شرح الإتقان في علوم القرآن","category":"تفسير"},{"id":"iiJWxiHLImA","title":"38- سور القرآن الكريم التي لها أكثر من اسم - شرح الإتقان في علوم القرآن","publishedAt":"2023-03-16T05:00:13Z","duration":"PT21M7S","thumbnail":"https://i.ytimg.com/vi/iiJWxiHLImA/mqdefault.jpg","viewCount":"1472","playlistId":"PLEkQk5xrP-tlPw10KGJKagu7zm4Ry2Tge","playlistName":"شرح الإتقان في علوم القرآن","category":"تفسير"},{"id":"y8Z-aep8lKw","title":"37- سبب جمع القرآن الكريم وتسميته بالمصحف - شرح الإتقان في علوم القرآن","publishedAt":"2023-03-14T05:00:23Z","duration":"PT38M26S","thumbnail":"https://i.ytimg.com/vi/y8Z-aep8lKw/mqdefault.jpg","viewCount":"1360","playlistId":"PLEkQk5xrP-tlPw10KGJKagu7zm4Ry2Tge","playlistName":"شرح الإتقان في علوم القرآن","category":"تفسير"},{"id":"vpkKDpfer1I","title":"36- أسماء القرآن الكريم وأسماء سوره - شرح الإتقان في علوم القرآن","publishedAt":"2023-03-12T05:00:25Z","duration":"PT29M19S","thumbnail":"https://i.ytimg.com/vi/vpkKDpfer1I/mqdefault.jpg","viewCount":"1254","playlistId":"PLEkQk5xrP-tlPw10KGJKagu7zm4Ry2Tge","playlistName":"شرح الإتقان في علوم القرآن","category":"تفسير"}],"total":1096,"page":2,"pageSize":24,"totalPages":46}