{"items":[{"id":"nlhz8-ywhto","title":"أنواعُ المُقَابَلَة - شرح البرهان في علوم القرآن","publishedAt":"2022-02-27T06:32:42Z","duration":"PT27M47S","thumbnail":"https://i.ytimg.com/vi/nlhz8-ywhto/mqdefault.jpg","viewCount":"926","playlistId":"PLEkQk5xrP-tnW3iBL7HkKziOFCFZbTlf0","playlistName":"شرح البرهان في علوم القرآن - أ.د. يسري جبر","category":"تفسير"},{"id":"FAD5QhKCoas","title":"المُقَابَلَة - شرح البرهان في علوم القرآن","publishedAt":"2022-02-25T20:18:42Z","duration":"PT12M59S","thumbnail":"https://i.ytimg.com/vi/FAD5QhKCoas/mqdefault.jpg","viewCount":"693","playlistId":"PLEkQk5xrP-tnW3iBL7HkKziOFCFZbTlf0","playlistName":"شرح البرهان في علوم القرآن - أ.د. يسري جبر","category":"تفسير"},{"id":"a1YhsTYPWTQ","title":"الطِّبَاق (الجَمْعُ بينَ المُتَضَادَّين مع مراعاة التقابل) - شرح البرهان في علوم القرآن","publishedAt":"2022-02-24T07:05:01Z","duration":"PT11M42S","thumbnail":"https://i.ytimg.com/vi/a1YhsTYPWTQ/mqdefault.jpg","viewCount":"551","playlistId":"PLEkQk5xrP-tnW3iBL7HkKziOFCFZbTlf0","playlistName":"شرح البرهان في علوم القرآن - أ.د. يسري جبر","category":"تفسير"},{"id":"4MOVey1KE8A","title":"الجِنَاسُ مِنَ المَحَاسِنِ اللّفْظِيَّةِ لا المَعنَويَّة - شرح البرهان في علوم القرآن","publishedAt":"2022-02-23T11:10:23Z","duration":"PT15M58S","thumbnail":"https://i.ytimg.com/vi/4MOVey1KE8A/mqdefault.jpg","viewCount":"470","playlistId":"PLEkQk5xrP-tnW3iBL7HkKziOFCFZbTlf0","playlistName":"شرح البرهان في علوم القرآن - أ.د. يسري جبر","category":"تفسير"},{"id":"1Ndwo804J84","title":"قراءة القرآن (من أول سورة طه)","publishedAt":"2015-06-09T03:15:23Z","duration":"PT17M15S","thumbnail":"https://i.ytimg.com/vi/1Ndwo804J84/mqdefault.jpg","viewCount":"248","playlistId":"PLEkQk5xrP-tnUSUj0uyJhA-kwNC7Gkx_j","playlistName":"مقرأة الفجر - بداية من سورة الإسراء حتى سورة الناس","category":"تفسير"},{"id":"e3EhNjMisnw","title":"قراءة القرآن (من سورة مريم آية 75)","publishedAt":"2015-06-08T03:17:36Z","duration":"PT13M46S","thumbnail":"https://i.ytimg.com/vi/e3EhNjMisnw/mqdefault.jpg","viewCount":"200","playlistId":"PLEkQk5xrP-tnUSUj0uyJhA-kwNC7Gkx_j","playlistName":"مقرأة الفجر - بداية من سورة الإسراء حتى سورة الناس","category":"تفسير"},{"id":"6at8mUK9wPo","title":"شرح البرهان في علوم القرآن - النوع ٤١ - أقسام التفسير","publishedAt":"2020-04-13T11:00:02Z","duration":"PT22M20S","thumbnail":"https://i.ytimg.com/vi/6at8mUK9wPo/mqdefault.jpg","viewCount":"317","playlistId":"PLEkQk5xrP-tnW3iBL7HkKziOFCFZbTlf0","playlistName":"شرح البرهان في علوم القرآن - أ.د. يسري جبر","category":"تفسير"},{"id":"1JjibY2bdCo","title":"شرح البرهان في علوم القرآن - النوع ٤١ - تنبيه : فيما يجب أن يلاحظ عند نقل أقووال المفسرين","publishedAt":"2020-04-12T20:45:00Z","duration":"PT24M11S","thumbnail":"https://i.ytimg.com/vi/1JjibY2bdCo/mqdefault.jpg","viewCount":"283","playlistId":"PLEkQk5xrP-tnW3iBL7HkKziOFCFZbTlf0","playlistName":"شرح البرهان في علوم القرآن - أ.د. يسري جبر","category":"تفسير"},{"id":"o3O-3DobkVA","title":"شرح البرهان في علوم القرآن - النوع ٤١ - فصل في أمهات مآخذ التفسير للناظر في القرآن","publishedAt":"2020-04-10T19:00:11Z","duration":"PT29M22S","thumbnail":"https://i.ytimg.com/vi/o3O-3DobkVA/mqdefault.jpg","viewCount":"439","playlistId":"PLEkQk5xrP-tnW3iBL7HkKziOFCFZbTlf0","playlistName":"شرح البرهان في علوم القرآن - أ.د. يسري جبر","category":"تفسير"},{"id":"WTf2wHrG35M","title":"شرح البرهان في علوم القرآن - النوع ٤١ - فصل في حاجة المفسر إلى الفهم والتبحر في العلوم","publishedAt":"2020-04-08T07:00:31Z","duration":"PT14M52S","thumbnail":"https://i.ytimg.com/vi/WTf2wHrG35M/mqdefault.jpg","viewCount":"492","playlistId":"PLEkQk5xrP-tnW3iBL7HkKziOFCFZbTlf0","playlistName":"شرح البرهان في علوم القرآن - أ.د. يسري جبر","category":"تفسير"},{"id":"3lRkNIu_B7o","title":"شرح البرهان في علوم القرآن - النوع ٤١ - الفرق بين التفسير والتأويل","publishedAt":"2020-04-06T12:05:18Z","duration":"PT33M3S","thumbnail":"https://i.ytimg.com/vi/3lRkNIu_B7o/mqdefault.jpg","viewCount":"751","playlistId":"PLEkQk5xrP-tnW3iBL7HkKziOFCFZbTlf0","playlistName":"شرح البرهان في علوم القرآن - أ.د. يسري جبر","category":"تفسير"},{"id":"KXD9LOM4zQc","title":"بقية النوع 45: في أقسام معنى الكلام - ومنها الأمر","publishedAt":"2020-11-11T07:32:10Z","duration":"PT10M40S","thumbnail":"https://i.ytimg.com/vi/KXD9LOM4zQc/mqdefault.jpg","viewCount":"463","playlistId":"PLEkQk5xrP-tnW3iBL7HkKziOFCFZbTlf0","playlistName":"شرح البرهان في علوم القرآن - أ.د. يسري جبر","category":"تفسير"},{"id":"PRj71dLYS5U","title":"أقسام معنى الكلام","publishedAt":"2020-11-09T07:32:34Z","duration":"PT23M6S","thumbnail":"https://i.ytimg.com/vi/PRj71dLYS5U/mqdefault.jpg","viewCount":"964","playlistId":"PLEkQk5xrP-tnW3iBL7HkKziOFCFZbTlf0","playlistName":"شرح البرهان في علوم القرآن - أ.د. يسري جبر","category":"تفسير"},{"id":"6ShKnFboCpE","title":"التعريض والتلويح - بقية النوع 44: في الكنايات والتعريض في  القرآن","publishedAt":"2020-11-07T06:09:19Z","duration":"PT27M37S","thumbnail":"https://i.ytimg.com/vi/6ShKnFboCpE/mqdefault.jpg","viewCount":"1042","playlistId":"PLEkQk5xrP-tnW3iBL7HkKziOFCFZbTlf0","playlistName":"شرح البرهان في علوم القرآن - أ.د. يسري جبر","category":"تفسير"},{"id":"v02LF8Rir-I","title":"النوع الخامس: تحسين اللفظ بقية النوع 44: في الكنايات والتعريض في القرآن","publishedAt":"2020-11-05T07:06:07Z","duration":"PT30M27S","thumbnail":"https://i.ytimg.com/vi/v02LF8Rir-I/mqdefault.jpg","viewCount":"497","playlistId":"PLEkQk5xrP-tnW3iBL7HkKziOFCFZbTlf0","playlistName":"شرح البرهان في علوم القرآن - أ.د. يسري جبر","category":"تفسير"},{"id":"PITok4dC9bU","title":"232- الحصر والاختصاص - شرح الإتقان في علوم القرآن","publishedAt":"2024-05-06T05:00:24Z","duration":"PT30M2S","thumbnail":"https://i.ytimg.com/vi/PITok4dC9bU/mqdefault.jpg","viewCount":"641","playlistId":"PLEkQk5xrP-tlPw10KGJKagu7zm4Ry2Tge","playlistName":"شرح الإتقان في علوم القرآن","category":"تفسير"},{"id":"fEtJ8dGapuk","title":"231- من أنواع البديع التي تشبه الكناية (الإرداف) - شرح الإتقان في علوم القرآن","publishedAt":"2024-05-04T04:45:48Z","duration":"PT23M27S","thumbnail":"https://i.ytimg.com/vi/fEtJ8dGapuk/mqdefault.jpg","viewCount":"587","playlistId":"PLEkQk5xrP-tlPw10KGJKagu7zm4Ry2Tge","playlistName":"شرح الإتقان في علوم القرآن","category":"تفسير"},{"id":"g1xZJ2NniWQ","title":"شرح البرهان في علوم القرآن - النوع ٤١ - معرفة تقسيره وتأويله","publishedAt":"2020-04-04T07:00:11Z","duration":"PT16M27S","thumbnail":"https://i.ytimg.com/vi/g1xZJ2NniWQ/mqdefault.jpg","viewCount":"421","playlistId":"PLEkQk5xrP-tnW3iBL7HkKziOFCFZbTlf0","playlistName":"شرح البرهان في علوم القرآن - أ.د. يسري جبر","category":"تفسير"},{"id":"yTv3SUZkpcM","title":"259- الاستفهام - شرح الإتقان في علوم القرآن","publishedAt":"2024-10-14T06:00:28Z","duration":"PT30M17S","thumbnail":"https://i.ytimg.com/vi/yTv3SUZkpcM/mqdefault.jpg","viewCount":"644","playlistId":"PLEkQk5xrP-tlPw10KGJKagu7zm4Ry2Tge","playlistName":"شرح الإتقان في علوم القرآن","category":"تفسير"},{"id":"J8zQie_asK4","title":"258- نفي الاستطاعة - شرح الإتقان في علوم القرآن","publishedAt":"2024-10-13T06:00:16Z","duration":"PT19M37S","thumbnail":"https://i.ytimg.com/vi/J8zQie_asK4/mqdefault.jpg","viewCount":"443","playlistId":"PLEkQk5xrP-tlPw10KGJKagu7zm4Ry2Tge","playlistName":"شرح الإتقان في علوم القرآن","category":"تفسير"},{"id":"VIqAqDEXbN8","title":"92- غريب القرآن (7)  - شرح الإتقان في علوم القرآن","publishedAt":"2023-06-04T08:59:00Z","duration":"PT20M44S","thumbnail":"https://i.ytimg.com/vi/VIqAqDEXbN8/mqdefault.jpg","viewCount":"458","playlistId":"PLEkQk5xrP-tlPw10KGJKagu7zm4Ry2Tge","playlistName":"شرح الإتقان في علوم القرآن","category":"تفسير"},{"id":"yjugINYEkc0","title":"91- غريب القرآن (6) - شرح الإتقان في علوم القرآن","publishedAt":"2023-06-04T05:00:32Z","duration":"PT23M33S","thumbnail":"https://i.ytimg.com/vi/yjugINYEkc0/mqdefault.jpg","viewCount":"502","playlistId":"PLEkQk5xrP-tlPw10KGJKagu7zm4Ry2Tge","playlistName":"شرح الإتقان في علوم القرآن","category":"تفسير"},{"id":"v3ZlEcoy2b4","title":"90- غريب القرآن(5) - ما جاء في سورة النبأ - شرح الإتقان في علوم القرآن","publishedAt":"2023-06-03T05:00:31Z","duration":"PT25M31S","thumbnail":"https://i.ytimg.com/vi/v3ZlEcoy2b4/mqdefault.jpg","viewCount":"580","playlistId":"PLEkQk5xrP-tlPw10KGJKagu7zm4Ry2Tge","playlistName":"شرح الإتقان في علوم القرآن","category":"تفسير"},{"id":"D26faSFPW9s","title":"89- غريب القرآن(4)- ما جاء في سورة سبأ - شرح الإتقان في علوم القرآن","publishedAt":"2023-06-02T05:00:10Z","duration":"PT31M3S","thumbnail":"https://i.ytimg.com/vi/D26faSFPW9s/mqdefault.jpg","viewCount":"630","playlistId":"PLEkQk5xrP-tlPw10KGJKagu7zm4Ry2Tge","playlistName":"شرح الإتقان في علوم القرآن","category":"تفسير"}],"total":1096,"page":8,"pageSize":24,"totalPages":46}