{"items":[{"id":"0eE-goJ9pwY","title":"شرح كتاب الإشارات الزروقيّة علی الآيات القرآنية - المجلس الخامس","publishedAt":"2018-06-28T09:27:56Z","duration":"PT35M54S","thumbnail":"https://i.ytimg.com/vi/0eE-goJ9pwY/mqdefault.jpg","viewCount":"939","playlistId":"PLEkQk5xrP-tl1OLT5J2vthcf9QHpjNkWx","playlistName":"شرح كتاب الإشارات الزروقيّة علی الآيات القرآنية  د. يسري جبر","category":"تفسير"},{"id":"ibAR_99gbTI","title":"شرح كتاب الإشارات الزروقيّة علی الآيات القرآنية - المجلس الأول","publishedAt":"2018-06-28T04:03:04Z","duration":"PT35M20S","thumbnail":"https://i.ytimg.com/vi/ibAR_99gbTI/mqdefault.jpg","viewCount":"5050","playlistId":"PLEkQk5xrP-tl1OLT5J2vthcf9QHpjNkWx","playlistName":"شرح كتاب الإشارات الزروقيّة علی الآيات القرآنية  د. يسري جبر","category":"تفسير"},{"id":"4aIH8XByiSc","title":"شرح البرهان في علوم القرآن - النوع ٣ - فصل في ضابط الفواصل","publishedAt":"2019-09-06T18:35:41Z","duration":"PT34M11S","thumbnail":"https://i.ytimg.com/vi/4aIH8XByiSc/mqdefault.jpg","viewCount":"1196","playlistId":"PLEkQk5xrP-tnW3iBL7HkKziOFCFZbTlf0","playlistName":"شرح البرهان في علوم القرآن - أ.د. يسري جبر","category":"تفسير"},{"id":"Z1tkoFSKcDo","title":"شرح البرهان في علوم القرآن - النوع ٣ - ائتلاف الفواصل مع ما يدل عليه الكلام ٤","publishedAt":"2019-09-05T10:15:12Z","duration":"PT29M11S","thumbnail":"https://i.ytimg.com/vi/Z1tkoFSKcDo/mqdefault.jpg","viewCount":"1482","playlistId":"PLEkQk5xrP-tnW3iBL7HkKziOFCFZbTlf0","playlistName":"شرح البرهان في علوم القرآن - أ.د. يسري جبر","category":"تفسير"},{"id":"D26faSFPW9s","title":"89- غريب القرآن(4)- ما جاء في سورة سبأ - شرح الإتقان في علوم القرآن","publishedAt":"2023-06-02T05:00:10Z","duration":"PT31M3S","thumbnail":"https://i.ytimg.com/vi/D26faSFPW9s/mqdefault.jpg","viewCount":"630","playlistId":"PLEkQk5xrP-tlPw10KGJKagu7zm4Ry2Tge","playlistName":"شرح الإتقان في علوم القرآن","category":"تفسير"},{"id":"CG8E5sjgl1E","title":"88- غريب القرآن(3) - ما جاء في سورة إبراهيم عليه السلام - شرح الإتقان في علوم","publishedAt":"2023-06-01T05:00:04Z","duration":"PT37M45S","thumbnail":"https://i.ytimg.com/vi/CG8E5sjgl1E/mqdefault.jpg","viewCount":"955","playlistId":"PLEkQk5xrP-tlPw10KGJKagu7zm4Ry2Tge","playlistName":"شرح الإتقان في علوم القرآن","category":"تفسير"},{"id":"-SfhdEmr1Hw","title":"87- غريب القرآن (2) - ما جاء في سورة النساء وما بعدها - شرح الإتقان في علوم القرآن","publishedAt":"2023-05-31T05:00:00Z","duration":"PT28M29S","thumbnail":"https://i.ytimg.com/vi/-SfhdEmr1Hw/mqdefault.jpg","viewCount":"767","playlistId":"PLEkQk5xrP-tlPw10KGJKagu7zm4Ry2Tge","playlistName":"شرح الإتقان في علوم القرآن","category":"تفسير"},{"id":"_c2jNOXMRN8","title":"86- غريب القرآن - شرح الإتقان في علوم القرآن","publishedAt":"2023-05-30T08:59:00Z","duration":"PT17M59S","thumbnail":"https://i.ytimg.com/vi/_c2jNOXMRN8/mqdefault.jpg","viewCount":"730","playlistId":"PLEkQk5xrP-tlPw10KGJKagu7zm4Ry2Tge","playlistName":"شرح الإتقان في علوم القرآن","category":"تفسير"},{"id":"8JxPxc_NBDw","title":"القِسمُ التاسع من التوكيد: وضع الظاهر موضع المُضْمَر (6) شرح البرهان في علوم القرآن","publishedAt":"2021-03-31T18:10:55Z","duration":"PT30M59S","thumbnail":"https://i.ytimg.com/vi/8JxPxc_NBDw/mqdefault.jpg","viewCount":"305","playlistId":"PLEkQk5xrP-tnW3iBL7HkKziOFCFZbTlf0","playlistName":"شرح البرهان في علوم القرآن - أ.د. يسري جبر","category":"تفسير"},{"id":"9um22N8G8-4","title":"القِسمُ التاسع من التوكيد: وضع الظاهر موضع المُضْمَر (5) شرح البرهان في علوم القرآن","publishedAt":"2021-03-30T06:33:15Z","duration":"PT13M27S","thumbnail":"https://i.ytimg.com/vi/9um22N8G8-4/mqdefault.jpg","viewCount":"345","playlistId":"PLEkQk5xrP-tnW3iBL7HkKziOFCFZbTlf0","playlistName":"شرح البرهان في علوم القرآن - أ.د. يسري جبر","category":"تفسير"},{"id":"OmeS26EQ1kM","title":"شرح البرهان في علوم القرآن - النوع ٤٠ - في بيان معاضدة السنة للقرآن ٤","publishedAt":"2020-04-03T07:00:06Z","duration":"PT27M22S","thumbnail":"https://i.ytimg.com/vi/OmeS26EQ1kM/mqdefault.jpg","viewCount":"330","playlistId":"PLEkQk5xrP-tnW3iBL7HkKziOFCFZbTlf0","playlistName":"شرح البرهان في علوم القرآن - أ.د. يسري جبر","category":"تفسير"},{"id":"ugtvb3hQPgU","title":"شرح البرهان في علوم القرآن - النوع ٤٠ - في بيان معاضدة السنة للقرآن ٣","publishedAt":"2020-04-02T11:00:22Z","duration":"PT23M22S","thumbnail":"https://i.ytimg.com/vi/ugtvb3hQPgU/mqdefault.jpg","viewCount":"429","playlistId":"PLEkQk5xrP-tnW3iBL7HkKziOFCFZbTlf0","playlistName":"شرح البرهان في علوم القرآن - أ.د. يسري جبر","category":"تفسير"},{"id":"gjW0xlvRHYw","title":"شرح البرهان في علوم القرآن - النوع ٤٠ - في بيان معاضدة السنة للقرآن ٢","publishedAt":"2020-04-01T07:00:12Z","duration":"PT36M2S","thumbnail":"https://i.ytimg.com/vi/gjW0xlvRHYw/mqdefault.jpg","viewCount":"420","playlistId":"PLEkQk5xrP-tnW3iBL7HkKziOFCFZbTlf0","playlistName":"شرح البرهان في علوم القرآن - أ.د. يسري جبر","category":"تفسير"},{"id":"ybKFY_B6ISk","title":"560- حروف المعاني(21): الحرف السابع عشر (إِمَّا) - شرح البرهان في علوم القرآن","publishedAt":"2022-09-15T06:00:15Z","duration":"PT16M51S","thumbnail":"https://i.ytimg.com/vi/ybKFY_B6ISk/mqdefault.jpg","viewCount":"568","playlistId":"PLEkQk5xrP-tnW3iBL7HkKziOFCFZbTlf0","playlistName":"شرح البرهان في علوم القرآن - أ.د. يسري جبر","category":"تفسير"},{"id":"V5MBNI5Nock","title":"التشبيه - شرح البرهان في علوم القرآن","publishedAt":"2022-01-27T08:15:33Z","duration":"PT15M26S","thumbnail":"https://i.ytimg.com/vi/V5MBNI5Nock/mqdefault.jpg","viewCount":"648","playlistId":"PLEkQk5xrP-tnW3iBL7HkKziOFCFZbTlf0","playlistName":"شرح البرهان في علوم القرآن - أ.د. يسري جبر","category":"تفسير"},{"id":"ve3zJnOoH3g","title":"التَّوَسُّع - شرح البرهان في علوم القرآن","publishedAt":"2022-01-25T06:48:48Z","duration":"PT6M18S","thumbnail":"https://i.ytimg.com/vi/ve3zJnOoH3g/mqdefault.jpg","viewCount":"765","playlistId":"PLEkQk5xrP-tnW3iBL7HkKziOFCFZbTlf0","playlistName":"شرح البرهان في علوم القرآن - أ.د. يسري جبر","category":"تفسير"},{"id":"Y7bCRw9vHUU","title":"273- صيغة المبالغة - شرح الإتقان في علوم القرآن","publishedAt":"2024-12-09T06:15:01Z","duration":"PT38M13S","thumbnail":"https://i.ytimg.com/vi/Y7bCRw9vHUU/mqdefault.jpg","viewCount":"455","playlistId":"PLEkQk5xrP-tlPw10KGJKagu7zm4Ry2Tge","playlistName":"شرح الإتقان في علوم القرآن","category":"تفسير"},{"id":"3pXJmMJVRd4","title":"272- الفرائد - شرح الإتقان في علوم القرآن","publishedAt":"2024-12-05T07:14:00Z","duration":"PT37M9S","thumbnail":"https://i.ytimg.com/vi/3pXJmMJVRd4/mqdefault.jpg","viewCount":"650","playlistId":"PLEkQk5xrP-tlPw10KGJKagu7zm4Ry2Tge","playlistName":"شرح الإتقان في علوم القرآن","category":"تفسير"},{"id":"IPjS22uiDXQ","title":"541- حروف المعاني: حرف إذا (2) - شرح البرهان في علوم القرآن","publishedAt":"2022-07-27T05:30:03Z","duration":"PT29M51S","thumbnail":"https://i.ytimg.com/vi/IPjS22uiDXQ/mqdefault.jpg","viewCount":"552","playlistId":"PLEkQk5xrP-tnW3iBL7HkKziOFCFZbTlf0","playlistName":"شرح البرهان في علوم القرآن - أ.د. يسري جبر","category":"تفسير"},{"id":"sAZ9prjXYco","title":"565- حروف المعاني(26): الحرف(25) (بل) - شرح البرهان في علوم القرآن","publishedAt":"2022-10-05T06:15:02Z","duration":"PT16M39S","thumbnail":"https://i.ytimg.com/vi/sAZ9prjXYco/mqdefault.jpg","viewCount":"497","playlistId":"PLEkQk5xrP-tnW3iBL7HkKziOFCFZbTlf0","playlistName":"شرح البرهان في علوم القرآن - أ.د. يسري جبر","category":"تفسير"},{"id":"Hyv032b85NM","title":"المفعول المطلق","publishedAt":"2021-01-08T06:51:33Z","duration":"PT23M33S","thumbnail":"https://i.ytimg.com/vi/Hyv032b85NM/mqdefault.jpg","viewCount":"828","playlistId":"PLEkQk5xrP-tnW3iBL7HkKziOFCFZbTlf0","playlistName":"شرح البرهان في علوم القرآن - أ.د. يسري جبر","category":"تفسير"},{"id":"rFTULbT-u3I","title":"540- حروف المعاني: حرف إذا - شرح البرهان في علوم القرآن","publishedAt":"2022-07-24T05:15:02Z","duration":"PT14M11S","thumbnail":"https://i.ytimg.com/vi/rFTULbT-u3I/mqdefault.jpg","viewCount":"441","playlistId":"PLEkQk5xrP-tnW3iBL7HkKziOFCFZbTlf0","playlistName":"شرح البرهان في علوم القرآن - أ.د. يسري جبر","category":"تفسير"},{"id":"JNnwvDmCYkI","title":"التَّجْنِيس (تَشَابُه في المَبْنَى واختلاف في المعنى) - شرح البرهان في علوم القرآن","publishedAt":"2022-02-22T11:31:39Z","duration":"PT14M2S","thumbnail":"https://i.ytimg.com/vi/JNnwvDmCYkI/mqdefault.jpg","viewCount":"513","playlistId":"PLEkQk5xrP-tnW3iBL7HkKziOFCFZbTlf0","playlistName":"شرح البرهان في علوم القرآن - أ.د. يسري جبر","category":"تفسير"},{"id":"unOIv9E6-CM","title":"التَّجْرِيد - شرح البرهان في علوم القرآن","publishedAt":"2022-02-21T11:10:19Z","duration":"PT11M24S","thumbnail":"https://i.ytimg.com/vi/unOIv9E6-CM/mqdefault.jpg","viewCount":"600","playlistId":"PLEkQk5xrP-tnW3iBL7HkKziOFCFZbTlf0","playlistName":"شرح البرهان في علوم القرآن - أ.د. يسري جبر","category":"تفسير"}],"total":1096,"page":22,"pageSize":24,"totalPages":46}