{"items":[{"id":"1kanSe9bSpI","title":"قراءة القرآن ( من آية 40 سورة سبإ)","publishedAt":"2015-08-15T03:42:42Z","duration":"PT15M17S","thumbnail":"https://i.ytimg.com/vi/1kanSe9bSpI/mqdefault.jpg","viewCount":"103","playlistId":"PLEkQk5xrP-tnUSUj0uyJhA-kwNC7Gkx_j","playlistName":"مقرأة الفجر - بداية من سورة الإسراء حتى سورة الناس","category":"تفسير"},{"id":"8Ish7wfJXb8","title":"248- التكرير ومن فوائده التقرير - شرح الإتقان في علوم القرآن","publishedAt":"2024-07-24T07:39:14Z","duration":"PT26M28S","thumbnail":"https://i.ytimg.com/vi/8Ish7wfJXb8/mqdefault.jpg","viewCount":"510","playlistId":"PLEkQk5xrP-tlPw10KGJKagu7zm4Ry2Tge","playlistName":"شرح الإتقان في علوم القرآن","category":"تفسير"},{"id":"AzHxoOSHkec","title":"قراءة القرآن (من أول سورة عبس)","publishedAt":"2016-03-07T11:32:05Z","duration":"PT23M29S","thumbnail":"https://i.ytimg.com/vi/AzHxoOSHkec/mqdefault.jpg","viewCount":"223","playlistId":"PLEkQk5xrP-tnUSUj0uyJhA-kwNC7Gkx_j","playlistName":"مقرأة الفجر - بداية من سورة الإسراء حتى سورة الناس","category":"تفسير"},{"id":"vo22AQYmH5g","title":"قراءة القرآن (من أول سورة النازعات)","publishedAt":"2016-03-05T10:55:23Z","duration":"PT31M30S","thumbnail":"https://i.ytimg.com/vi/vo22AQYmH5g/mqdefault.jpg","viewCount":"106","playlistId":"PLEkQk5xrP-tnUSUj0uyJhA-kwNC7Gkx_j","playlistName":"مقرأة الفجر - بداية من سورة الإسراء حتى سورة الناس","category":"تفسير"},{"id":"4Jz37mBQVPg","title":"قراءة القرآن ( من أول سورة النبأ )","publishedAt":"2016-03-05T10:18:06Z","duration":"PT14M14S","thumbnail":"https://i.ytimg.com/vi/4Jz37mBQVPg/mqdefault.jpg","viewCount":"134","playlistId":"PLEkQk5xrP-tnUSUj0uyJhA-kwNC7Gkx_j","playlistName":"مقرأة الفجر - بداية من سورة الإسراء حتى سورة الناس","category":"تفسير"},{"id":"hLUxHbxakuw","title":"قراءة القرآن (من أول سورة المرسلات)","publishedAt":"2016-03-05T10:17:18Z","duration":"PT22M19S","thumbnail":"https://i.ytimg.com/vi/hLUxHbxakuw/mqdefault.jpg","viewCount":"76","playlistId":"PLEkQk5xrP-tnUSUj0uyJhA-kwNC7Gkx_j","playlistName":"مقرأة الفجر - بداية من سورة الإسراء حتى سورة الناس","category":"تفسير"},{"id":"a1YhsTYPWTQ","title":"الطِّبَاق (الجَمْعُ بينَ المُتَضَادَّين مع مراعاة التقابل) - شرح البرهان في علوم القرآن","publishedAt":"2022-02-24T07:05:01Z","duration":"PT11M42S","thumbnail":"https://i.ytimg.com/vi/a1YhsTYPWTQ/mqdefault.jpg","viewCount":"551","playlistId":"PLEkQk5xrP-tnW3iBL7HkKziOFCFZbTlf0","playlistName":"شرح البرهان في علوم القرآن - أ.د. يسري جبر","category":"تفسير"},{"id":"4MOVey1KE8A","title":"الجِنَاسُ مِنَ المَحَاسِنِ اللّفْظِيَّةِ لا المَعنَويَّة - شرح البرهان في علوم القرآن","publishedAt":"2022-02-23T11:10:23Z","duration":"PT15M58S","thumbnail":"https://i.ytimg.com/vi/4MOVey1KE8A/mqdefault.jpg","viewCount":"470","playlistId":"PLEkQk5xrP-tnW3iBL7HkKziOFCFZbTlf0","playlistName":"شرح البرهان في علوم القرآن - أ.د. يسري جبر","category":"تفسير"},{"id":"1Ndwo804J84","title":"قراءة القرآن (من أول سورة طه)","publishedAt":"2015-06-09T03:15:23Z","duration":"PT17M15S","thumbnail":"https://i.ytimg.com/vi/1Ndwo804J84/mqdefault.jpg","viewCount":"248","playlistId":"PLEkQk5xrP-tnUSUj0uyJhA-kwNC7Gkx_j","playlistName":"مقرأة الفجر - بداية من سورة الإسراء حتى سورة الناس","category":"تفسير"},{"id":"e3EhNjMisnw","title":"قراءة القرآن (من سورة مريم آية 75)","publishedAt":"2015-06-08T03:17:36Z","duration":"PT13M46S","thumbnail":"https://i.ytimg.com/vi/e3EhNjMisnw/mqdefault.jpg","viewCount":"200","playlistId":"PLEkQk5xrP-tnUSUj0uyJhA-kwNC7Gkx_j","playlistName":"مقرأة الفجر - بداية من سورة الإسراء حتى سورة الناس","category":"تفسير"},{"id":"6at8mUK9wPo","title":"شرح البرهان في علوم القرآن - النوع ٤١ - أقسام التفسير","publishedAt":"2020-04-13T11:00:02Z","duration":"PT22M20S","thumbnail":"https://i.ytimg.com/vi/6at8mUK9wPo/mqdefault.jpg","viewCount":"317","playlistId":"PLEkQk5xrP-tnW3iBL7HkKziOFCFZbTlf0","playlistName":"شرح البرهان في علوم القرآن - أ.د. يسري جبر","category":"تفسير"},{"id":"1JjibY2bdCo","title":"شرح البرهان في علوم القرآن - النوع ٤١ - تنبيه : فيما يجب أن يلاحظ عند نقل أقووال المفسرين","publishedAt":"2020-04-12T20:45:00Z","duration":"PT24M11S","thumbnail":"https://i.ytimg.com/vi/1JjibY2bdCo/mqdefault.jpg","viewCount":"283","playlistId":"PLEkQk5xrP-tnW3iBL7HkKziOFCFZbTlf0","playlistName":"شرح البرهان في علوم القرآن - أ.د. يسري جبر","category":"تفسير"},{"id":"o3O-3DobkVA","title":"شرح البرهان في علوم القرآن - النوع ٤١ - فصل في أمهات مآخذ التفسير للناظر في القرآن","publishedAt":"2020-04-10T19:00:11Z","duration":"PT29M22S","thumbnail":"https://i.ytimg.com/vi/o3O-3DobkVA/mqdefault.jpg","viewCount":"439","playlistId":"PLEkQk5xrP-tnW3iBL7HkKziOFCFZbTlf0","playlistName":"شرح البرهان في علوم القرآن - أ.د. يسري جبر","category":"تفسير"},{"id":"HpRyWJkxFJ8","title":"قراءة القرآن (من أول سورة الإنسان)","publishedAt":"2016-03-02T07:20:27Z","duration":"PT25M5S","thumbnail":"https://i.ytimg.com/vi/HpRyWJkxFJ8/mqdefault.jpg","viewCount":"88","playlistId":"PLEkQk5xrP-tnUSUj0uyJhA-kwNC7Gkx_j","playlistName":"مقرأة الفجر - بداية من سورة الإسراء حتى سورة الناس","category":"تفسير"},{"id":"fgihPinq3Fk","title":"قراءة القرآن (من أول سورة القيامة)","publishedAt":"2016-03-01T08:39:35Z","duration":"PT22M1S","thumbnail":"https://i.ytimg.com/vi/fgihPinq3Fk/mqdefault.jpg","viewCount":"98","playlistId":"PLEkQk5xrP-tnUSUj0uyJhA-kwNC7Gkx_j","playlistName":"مقرأة الفجر - بداية من سورة الإسراء حتى سورة الناس","category":"تفسير"},{"id":"UOIs7Rt8UNA","title":"قراءة القرآن (من أول سورة المدثر)","publishedAt":"2016-02-29T08:47:20Z","duration":"PT31M54S","thumbnail":"https://i.ytimg.com/vi/UOIs7Rt8UNA/mqdefault.jpg","viewCount":"92","playlistId":"PLEkQk5xrP-tnUSUj0uyJhA-kwNC7Gkx_j","playlistName":"مقرأة الفجر - بداية من سورة الإسراء حتى سورة الناس","category":"تفسير"},{"id":"cKNaL6TiSw4","title":"قراءة القرآن (من أول سورة المزمل)","publishedAt":"2016-02-28T09:23:47Z","duration":"PT21M48S","thumbnail":"https://i.ytimg.com/vi/cKNaL6TiSw4/mqdefault.jpg","viewCount":"91","playlistId":"PLEkQk5xrP-tnUSUj0uyJhA-kwNC7Gkx_j","playlistName":"مقرأة الفجر - بداية من سورة الإسراء حتى سورة الناس","category":"تفسير"},{"id":"grcUwcD3oCk","title":"قراءة القرآن (من أول سورة الجن)","publishedAt":"2016-02-28T07:27:00Z","duration":"PT25M8S","thumbnail":"https://i.ytimg.com/vi/grcUwcD3oCk/mqdefault.jpg","viewCount":"158","playlistId":"PLEkQk5xrP-tnUSUj0uyJhA-kwNC7Gkx_j","playlistName":"مقرأة الفجر - بداية من سورة الإسراء حتى سورة الناس","category":"تفسير"},{"id":"bnX9WLFsnIg","title":"مقدمة سورة الجن","publishedAt":"2016-02-27T06:52:52Z","duration":"PT22M50S","thumbnail":"https://i.ytimg.com/vi/bnX9WLFsnIg/mqdefault.jpg","viewCount":"320","playlistId":"PLEkQk5xrP-tnUSUj0uyJhA-kwNC7Gkx_j","playlistName":"مقرأة الفجر - بداية من سورة الإسراء حتى سورة الناس","category":"تفسير"},{"id":"O8vkKv_I_sg","title":"قراءة القرآن (من أول سورة نوح)","publishedAt":"2016-02-25T07:47:49Z","duration":"PT26M54S","thumbnail":"https://i.ytimg.com/vi/O8vkKv_I_sg/mqdefault.jpg","viewCount":"111","playlistId":"PLEkQk5xrP-tnUSUj0uyJhA-kwNC7Gkx_j","playlistName":"مقرأة الفجر - بداية من سورة الإسراء حتى سورة الناس","category":"تفسير"},{"id":"GzNjiiVVvPU","title":"قراءة القرآن (من آية ٢٩ سورة المعارج)","publishedAt":"2016-02-24T07:24:02Z","duration":"PT17M59S","thumbnail":"https://i.ytimg.com/vi/GzNjiiVVvPU/mqdefault.jpg","viewCount":"122","playlistId":"PLEkQk5xrP-tnUSUj0uyJhA-kwNC7Gkx_j","playlistName":"مقرأة الفجر - بداية من سورة الإسراء حتى سورة الناس","category":"تفسير"},{"id":"Ldfz5DS8Ch0","title":"قراءة القرآن (من أول سورة المعارج)","publishedAt":"2016-02-23T09:49:02Z","duration":"PT27M58S","thumbnail":"https://i.ytimg.com/vi/Ldfz5DS8Ch0/mqdefault.jpg","viewCount":"105","playlistId":"PLEkQk5xrP-tnUSUj0uyJhA-kwNC7Gkx_j","playlistName":"مقرأة الفجر - بداية من سورة الإسراء حتى سورة الناس","category":"تفسير"},{"id":"a0jpFmNRz5A","title":"150- معنى (كان) - شرح الإتقان في علوم القرآن","publishedAt":"2023-09-18T05:00:00Z","duration":"PT26M22S","thumbnail":"https://i.ytimg.com/vi/a0jpFmNRz5A/mqdefault.jpg","viewCount":"922","playlistId":"PLEkQk5xrP-tlPw10KGJKagu7zm4Ry2Tge","playlistName":"شرح الإتقان في علوم القرآن","category":"تفسير"},{"id":"VfxBPxsM44Y","title":"149- معنى (كاد) - شرح الإتقان في علوم القرآن","publishedAt":"2023-09-16T05:15:01Z","duration":"PT11M1S","thumbnail":"https://i.ytimg.com/vi/VfxBPxsM44Y/mqdefault.jpg","viewCount":"661","playlistId":"PLEkQk5xrP-tlPw10KGJKagu7zm4Ry2Tge","playlistName":"شرح الإتقان في علوم القرآن","category":"تفسير"}],"total":1096,"page":40,"pageSize":24,"totalPages":46}