{"items":[{"id":"-18-DqX_fSY","title":"شرح البرهان في علوم القرآن - النوع ٢٥ - علم مرسوم الخط (الزائد وأقسامه ٢)","publishedAt":"2020-01-14T02:03:49Z","duration":"PT12M2S","thumbnail":"https://i.ytimg.com/vi/-18-DqX_fSY/mqdefault.jpg","viewCount":"325","playlistId":"PLEkQk5xrP-tnW3iBL7HkKziOFCFZbTlf0","playlistName":"شرح البرهان في علوم القرآن - أ.د. يسري جبر","category":"تفسير"},{"id":"Vmj5pQxCo10","title":"شرح البرهان في علوم القرآن - النوع ٢٥ - علم مرسوم الخط (الزائد وأقسامه)","publishedAt":"2020-01-13T08:37:11Z","duration":"PT17M3S","thumbnail":"https://i.ytimg.com/vi/Vmj5pQxCo10/mqdefault.jpg","viewCount":"392","playlistId":"PLEkQk5xrP-tnW3iBL7HkKziOFCFZbTlf0","playlistName":"شرح البرهان في علوم القرآن - أ.د. يسري جبر","category":"تفسير"},{"id":"KUqCse5xql0","title":"شرح البرهان في علوم القرآن - النوع ٢٥ - علم مرسوم الخط ٢","publishedAt":"2020-01-10T07:29:35Z","duration":"PT24M4S","thumbnail":"https://i.ytimg.com/vi/KUqCse5xql0/mqdefault.jpg","viewCount":"486","playlistId":"PLEkQk5xrP-tnW3iBL7HkKziOFCFZbTlf0","playlistName":"شرح البرهان في علوم القرآن - أ.د. يسري جبر","category":"تفسير"},{"id":"9FHOOlPhE8g","title":"شرح البرهان في علوم القرآن - النوع ٢٥ - علم مرسوم الخط","publishedAt":"2020-01-09T15:31:34Z","duration":"PT33M49S","thumbnail":"https://i.ytimg.com/vi/9FHOOlPhE8g/mqdefault.jpg","viewCount":"635","playlistId":"PLEkQk5xrP-tnW3iBL7HkKziOFCFZbTlf0","playlistName":"شرح البرهان في علوم القرآن - أ.د. يسري جبر","category":"تفسير"},{"id":"xb-H2RqI9j0","title":"شرح البرهان في علوم القرآن - النوع ٢٤ - الكلام على \"بلى\"","publishedAt":"2020-01-09T07:09:18Z","duration":"PT23M58S","thumbnail":"https://i.ytimg.com/vi/xb-H2RqI9j0/mqdefault.jpg","viewCount":"387","playlistId":"PLEkQk5xrP-tnW3iBL7HkKziOFCFZbTlf0","playlistName":"شرح البرهان في علوم القرآن - أ.د. يسري جبر","category":"تفسير"},{"id":"_bJUq8mDhbA","title":"شرح البرهان في علوم القرآن - النوع ٢٤ - فصل في الكلام على \"كلّا\" في القرآن","publishedAt":"2020-01-08T19:28:21Z","duration":"PT21M43S","thumbnail":"https://i.ytimg.com/vi/_bJUq8mDhbA/mqdefault.jpg","viewCount":"473","playlistId":"PLEkQk5xrP-tnW3iBL7HkKziOFCFZbTlf0","playlistName":"شرح البرهان في علوم القرآن - أ.د. يسري جبر","category":"تفسير"},{"id":"yv29BH87_Bg","title":"شرح البرهان في علوم القرآن - النوع ٢٤ - فصل ملخص في تقسيمات الوقف ٢","publishedAt":"2020-01-07T07:48:29Z","duration":"PT21M15S","thumbnail":"https://i.ytimg.com/vi/yv29BH87_Bg/mqdefault.jpg","viewCount":"474","playlistId":"PLEkQk5xrP-tnW3iBL7HkKziOFCFZbTlf0","playlistName":"شرح البرهان في علوم القرآن - أ.د. يسري جبر","category":"تفسير"},{"id":"FKebcgEeWfs","title":"263- بدائع القرآن - شرح الإتقان في علوم القرآن","publishedAt":"2024-10-31T06:00:06Z","duration":"PT37M39S","thumbnail":"https://i.ytimg.com/vi/FKebcgEeWfs/mqdefault.jpg","viewCount":"682","playlistId":"PLEkQk5xrP-tlPw10KGJKagu7zm4Ry2Tge","playlistName":"شرح الإتقان في علوم القرآن","category":"تفسير"},{"id":"NU9Z4qDmSYc","title":"262- التَّمَنِّي - شرح الإتقان في علوم القرآن","publishedAt":"2024-10-29T06:00:21Z","duration":"PT22M1S","thumbnail":"https://i.ytimg.com/vi/NU9Z4qDmSYc/mqdefault.jpg","viewCount":"545","playlistId":"PLEkQk5xrP-tlPw10KGJKagu7zm4Ry2Tge","playlistName":"شرح الإتقان في علوم القرآن","category":"تفسير"},{"id":"7JBGPJZWYkc","title":"261- الأمر - شرح الإتقان في علوم القرآن","publishedAt":"2024-10-27T06:00:04Z","duration":"PT18M47S","thumbnail":"https://i.ytimg.com/vi/7JBGPJZWYkc/mqdefault.jpg","viewCount":"450","playlistId":"PLEkQk5xrP-tlPw10KGJKagu7zm4Ry2Tge","playlistName":"شرح الإتقان في علوم القرآن","category":"تفسير"},{"id":"dXUjcbNiL7g","title":"169- معنى ( وَيْكَأَنَّ - ويل - يا )- شرح الإتقان في علوم القرآن","publishedAt":"2023-11-08T06:30:18Z","duration":"PT32M19S","thumbnail":"https://i.ytimg.com/vi/dXUjcbNiL7g/mqdefault.jpg","viewCount":"977","playlistId":"PLEkQk5xrP-tlPw10KGJKagu7zm4Ry2Tge","playlistName":"شرح الإتقان في علوم القرآن","category":"تفسير"},{"id":"nIR65ixxlWs","title":"168- حرف ( الواو ) - شرح الإتقان في علوم القرآن","publishedAt":"2023-11-06T06:15:02Z","duration":"PT44M32S","thumbnail":"https://i.ytimg.com/vi/nIR65ixxlWs/mqdefault.jpg","viewCount":"847","playlistId":"PLEkQk5xrP-tlPw10KGJKagu7zm4Ry2Tge","playlistName":"شرح الإتقان في علوم القرآن","category":"تفسير"},{"id":"H_Tb4BU05_0","title":"167- معنى (الهاء - ها - هات - هل - هلُمَّ - هنا - هيت - هيهات)  - شرح الإتقان في علوم القرآن","publishedAt":"2023-11-02T06:15:00Z","duration":"PT30M17S","thumbnail":"https://i.ytimg.com/vi/H_Tb4BU05_0/mqdefault.jpg","viewCount":"622","playlistId":"PLEkQk5xrP-tlPw10KGJKagu7zm4Ry2Tge","playlistName":"شرح الإتقان في علوم القرآن","category":"تفسير"},{"id":"ucPXzF_kODQ","title":"أدوات التوكيد - ضمير الفصل - شرح البرهان في علوم القرآن أ.د. يسري جبر","publishedAt":"2021-01-20T08:14:56Z","duration":"PT13M42S","thumbnail":"https://i.ytimg.com/vi/ucPXzF_kODQ/mqdefault.jpg","viewCount":"449","playlistId":"PLEkQk5xrP-tnW3iBL7HkKziOFCFZbTlf0","playlistName":"شرح البرهان في علوم القرآن - أ.د. يسري جبر","category":"تفسير"},{"id":"kFzV8BytyGY","title":"45- السبع الطوال - شرح الإتقان في علوم القرآن","publishedAt":"2023-03-30T05:00:30Z","duration":"PT27M13S","thumbnail":"https://i.ytimg.com/vi/kFzV8BytyGY/mqdefault.jpg","viewCount":"897","playlistId":"PLEkQk5xrP-tlPw10KGJKagu7zm4Ry2Tge","playlistName":"شرح الإتقان في علوم القرآن","category":"تفسير"},{"id":"PiIlkrXU_IM","title":"598- وظائف (اللام) العاملة: تؤثر في حركة إعراب ما بعدها إمَّا (بالنصب أو الجر أو الجزم).","publishedAt":"2022-11-18T05:00:23Z","duration":"PT21M43S","thumbnail":"https://i.ytimg.com/vi/PiIlkrXU_IM/mqdefault.jpg","viewCount":"394","playlistId":"PLEkQk5xrP-tnW3iBL7HkKziOFCFZbTlf0","playlistName":"شرح البرهان في علوم القرآن - أ.د. يسري جبر","category":"تفسير"},{"id":"pkqfB5A7M4k","title":"597- لام التوكيد - شرح البرهان في علوم القرآن","publishedAt":"2022-11-16T05:00:31Z","duration":"PT25M40S","thumbnail":"https://i.ytimg.com/vi/pkqfB5A7M4k/mqdefault.jpg","viewCount":"425","playlistId":"PLEkQk5xrP-tnW3iBL7HkKziOFCFZbTlf0","playlistName":"شرح البرهان في علوم القرآن - أ.د. يسري جبر","category":"تفسير"},{"id":"HDLaPbwVPZU","title":"32- معنى نزول القرآن على سبعة أحرف - المسألة الثالثة - الجزء الأول - شرح الإتقان في علوم القرآن","publishedAt":"2023-03-04T05:00:16Z","duration":"PT20M16S","thumbnail":"https://i.ytimg.com/vi/HDLaPbwVPZU/mqdefault.jpg","viewCount":"1920","playlistId":"PLEkQk5xrP-tlPw10KGJKagu7zm4Ry2Tge","playlistName":"شرح الإتقان في علوم القرآن","category":"تفسير"},{"id":"iX0t0y5hF5k","title":"31- كيفيات نزول الوحي على سيدنا رسول الله ﷺ - الجزء الأول - شرح الإتقان في علوم القرآن","publishedAt":"2023-03-02T05:00:30Z","duration":"PT19M32S","thumbnail":"https://i.ytimg.com/vi/iX0t0y5hF5k/mqdefault.jpg","viewCount":"1558","playlistId":"PLEkQk5xrP-tlPw10KGJKagu7zm4Ry2Tge","playlistName":"شرح الإتقان في علوم القرآن","category":"تفسير"},{"id":"NMu0jr8rZ7E","title":"30- النَّوْعُ السادس عشر: تكملة ما جاء في كيفية إنزاله - شرح الإتقان في علوم القرآن","publishedAt":"2023-02-28T04:59:42Z","duration":"PT29M36S","thumbnail":"https://i.ytimg.com/vi/NMu0jr8rZ7E/mqdefault.jpg","viewCount":"1085","playlistId":"PLEkQk5xrP-tlPw10KGJKagu7zm4Ry2Tge","playlistName":"شرح الإتقان في علوم القرآن","category":"تفسير"},{"id":"HqmzJoGnuTM","title":"29- النَّوْعُ السادس عشر: كيفية إنزاله وفيه مسائل: المسألة الأولى - الجزء الأول","publishedAt":"2023-02-26T05:00:07Z","duration":"PT26M23S","thumbnail":"https://i.ytimg.com/vi/HqmzJoGnuTM/mqdefault.jpg","viewCount":"1291","playlistId":"PLEkQk5xrP-tlPw10KGJKagu7zm4Ry2Tge","playlistName":"شرح الإتقان في علوم القرآن","category":"تفسير"},{"id":"BQjMjGdxdX8","title":"28- النَّوْعُ الخامس عشر: ما أُنزل منه على بعض الأنبياء وما لم ينزل منه على أحد قبل النَّبيّ ﷺ","publishedAt":"2023-02-24T05:00:03Z","duration":"PT25M21S","thumbnail":"https://i.ytimg.com/vi/BQjMjGdxdX8/mqdefault.jpg","viewCount":"1213","playlistId":"PLEkQk5xrP-tlPw10KGJKagu7zm4Ry2Tge","playlistName":"شرح الإتقان في علوم القرآن","category":"تفسير"},{"id":"p32jNsuSVHY","title":"27- النَّوعُ الثالث عشر: ما نزل مُفَرَّقًا وما نزل جمعًا - شرح الإتقان في علوم القرآن","publishedAt":"2023-02-22T05:00:32Z","duration":"PT29M40S","thumbnail":"https://i.ytimg.com/vi/p32jNsuSVHY/mqdefault.jpg","viewCount":"1042","playlistId":"PLEkQk5xrP-tlPw10KGJKagu7zm4Ry2Tge","playlistName":"شرح الإتقان في علوم القرآن","category":"تفسير"},{"id":"O2V_swiaTqM","title":"26- النَّوْعُ الحادي عشر: ما تكرر نزوله - الجزء الأول - شرح الإتقان في علوم القرآن","publishedAt":"2023-02-20T05:00:09Z","duration":"PT31M54S","thumbnail":"https://i.ytimg.com/vi/O2V_swiaTqM/mqdefault.jpg","viewCount":"1169","playlistId":"PLEkQk5xrP-tlPw10KGJKagu7zm4Ry2Tge","playlistName":"شرح الإتقان في علوم القرآن","category":"تفسير"}],"total":1096,"page":16,"pageSize":24,"totalPages":46}