{"items":[{"id":"1d18XFNr7h4","title":"قراءة القرآن من سورة الكهف (من آية 75)","publishedAt":"2015-06-05T03:35:11Z","duration":"PT16M15S","thumbnail":"https://i.ytimg.com/vi/1d18XFNr7h4/mqdefault.jpg","viewCount":"206","playlistId":"PLEkQk5xrP-tnUSUj0uyJhA-kwNC7Gkx_j","playlistName":"مقرأة الفجر - بداية من سورة الإسراء حتى سورة الناس","category":"تفسير"},{"id":"II38cbs27AY","title":"قراءة القرآن من سورة الكهف (من آية 51)","publishedAt":"2015-06-04T03:37:28Z","duration":"PT18M6S","thumbnail":"https://i.ytimg.com/vi/II38cbs27AY/mqdefault.jpg","viewCount":"234","playlistId":"PLEkQk5xrP-tnUSUj0uyJhA-kwNC7Gkx_j","playlistName":"مقرأة الفجر - بداية من سورة الإسراء حتى سورة الناس","category":"تفسير"},{"id":"W5aUbcbYxsQ","title":"555- حروف المعاني(16): حرف (إلى) - شرح البرهان في علوم القرآن","publishedAt":"2022-09-02T06:00:09Z","duration":"PT37M54S","thumbnail":"https://i.ytimg.com/vi/W5aUbcbYxsQ/mqdefault.jpg","viewCount":"513","playlistId":"PLEkQk5xrP-tnW3iBL7HkKziOFCFZbTlf0","playlistName":"شرح البرهان في علوم القرآن - أ.د. يسري جبر","category":"تفسير"},{"id":"CehsctTYBZc","title":"554- حروف المعاني(15): حرف(إِنَّ) - شرح البرهان في علوم القرآن","publishedAt":"2022-08-31T18:15:00Z","duration":"PT29M18S","thumbnail":"https://i.ytimg.com/vi/CehsctTYBZc/mqdefault.jpg","viewCount":"715","playlistId":"PLEkQk5xrP-tnW3iBL7HkKziOFCFZbTlf0","playlistName":"شرح البرهان في علوم القرآن - أ.د. يسري جبر","category":"تفسير"},{"id":"hkPKs8bT_dM","title":"553- حروف المعاني(14):  حرف(أن) قد يأتي بمعنى(أي)","publishedAt":"2022-08-31T05:45:00Z","duration":"PT29M51S","thumbnail":"https://i.ytimg.com/vi/hkPKs8bT_dM/mqdefault.jpg","viewCount":"545","playlistId":"PLEkQk5xrP-tnW3iBL7HkKziOFCFZbTlf0","playlistName":"شرح البرهان في علوم القرآن - أ.د. يسري جبر","category":"تفسير"},{"id":"9AAqLlITJwA","title":"552- حروف المعاني(13): حرف(أن) - شرح البرهان في علوم القرآن","publishedAt":"2022-08-29T20:40:02Z","duration":"PT15M1S","thumbnail":"https://i.ytimg.com/vi/9AAqLlITJwA/mqdefault.jpg","viewCount":"521","playlistId":"PLEkQk5xrP-tnW3iBL7HkKziOFCFZbTlf0","playlistName":"شرح البرهان في علوم القرآن - أ.د. يسري جبر","category":"تفسير"},{"id":"t1TXJAgi_RQ","title":"601- (لا) النَّافية - شرح البرهان في علوم القرآن","publishedAt":"2022-11-22T05:00:33Z","duration":"PT25M59S","thumbnail":"https://i.ytimg.com/vi/t1TXJAgi_RQ/mqdefault.jpg","viewCount":"482","playlistId":"PLEkQk5xrP-tnW3iBL7HkKziOFCFZbTlf0","playlistName":"شرح البرهان في علوم القرآن - أ.د. يسري جبر","category":"تفسير"},{"id":"BWBrooI3GEU","title":"600- اللام الجازمة: لام (الأمر أو الطلب) شرح البرهان في علوم القرآن","publishedAt":"2022-11-21T05:00:09Z","duration":"PT18M15S","thumbnail":"https://i.ytimg.com/vi/BWBrooI3GEU/mqdefault.jpg","viewCount":"404","playlistId":"PLEkQk5xrP-tnW3iBL7HkKziOFCFZbTlf0","playlistName":"شرح البرهان في علوم القرآن - أ.د. يسري جبر","category":"تفسير"},{"id":"lvad8wMaRCg","title":"599- اللام الناصبة: لام كي - اللام النافية - شرح البرهان في علوم القرآن","publishedAt":"2022-11-20T05:00:21Z","duration":"PT32M29S","thumbnail":"https://i.ytimg.com/vi/lvad8wMaRCg/mqdefault.jpg","viewCount":"467","playlistId":"PLEkQk5xrP-tnW3iBL7HkKziOFCFZbTlf0","playlistName":"شرح البرهان في علوم القرآن - أ.د. يسري جبر","category":"تفسير"},{"id":"N97dGVBGmic","title":"شرح البرهان في علوم القرآن - النوع ٢٥ - علم مرسوم الخط (الزائد وأقسامه ٣)","publishedAt":"2020-01-14T11:35:08Z","duration":"PT16M54S","thumbnail":"https://i.ytimg.com/vi/N97dGVBGmic/mqdefault.jpg","viewCount":"396","playlistId":"PLEkQk5xrP-tnW3iBL7HkKziOFCFZbTlf0","playlistName":"شرح البرهان في علوم القرآن - أ.د. يسري جبر","category":"تفسير"},{"id":"-18-DqX_fSY","title":"شرح البرهان في علوم القرآن - النوع ٢٥ - علم مرسوم الخط (الزائد وأقسامه ٢)","publishedAt":"2020-01-14T02:03:49Z","duration":"PT12M2S","thumbnail":"https://i.ytimg.com/vi/-18-DqX_fSY/mqdefault.jpg","viewCount":"325","playlistId":"PLEkQk5xrP-tnW3iBL7HkKziOFCFZbTlf0","playlistName":"شرح البرهان في علوم القرآن - أ.د. يسري جبر","category":"تفسير"},{"id":"Vmj5pQxCo10","title":"شرح البرهان في علوم القرآن - النوع ٢٥ - علم مرسوم الخط (الزائد وأقسامه)","publishedAt":"2020-01-13T08:37:11Z","duration":"PT17M3S","thumbnail":"https://i.ytimg.com/vi/Vmj5pQxCo10/mqdefault.jpg","viewCount":"392","playlistId":"PLEkQk5xrP-tnW3iBL7HkKziOFCFZbTlf0","playlistName":"شرح البرهان في علوم القرآن - أ.د. يسري جبر","category":"تفسير"},{"id":"KUqCse5xql0","title":"شرح البرهان في علوم القرآن - النوع ٢٥ - علم مرسوم الخط ٢","publishedAt":"2020-01-10T07:29:35Z","duration":"PT24M4S","thumbnail":"https://i.ytimg.com/vi/KUqCse5xql0/mqdefault.jpg","viewCount":"486","playlistId":"PLEkQk5xrP-tnW3iBL7HkKziOFCFZbTlf0","playlistName":"شرح البرهان في علوم القرآن - أ.د. يسري جبر","category":"تفسير"},{"id":"9FHOOlPhE8g","title":"شرح البرهان في علوم القرآن - النوع ٢٥ - علم مرسوم الخط","publishedAt":"2020-01-09T15:31:34Z","duration":"PT33M49S","thumbnail":"https://i.ytimg.com/vi/9FHOOlPhE8g/mqdefault.jpg","viewCount":"635","playlistId":"PLEkQk5xrP-tnW3iBL7HkKziOFCFZbTlf0","playlistName":"شرح البرهان في علوم القرآن - أ.د. يسري جبر","category":"تفسير"},{"id":"xb-H2RqI9j0","title":"شرح البرهان في علوم القرآن - النوع ٢٤ - الكلام على \"بلى\"","publishedAt":"2020-01-09T07:09:18Z","duration":"PT23M58S","thumbnail":"https://i.ytimg.com/vi/xb-H2RqI9j0/mqdefault.jpg","viewCount":"387","playlistId":"PLEkQk5xrP-tnW3iBL7HkKziOFCFZbTlf0","playlistName":"شرح البرهان في علوم القرآن - أ.د. يسري جبر","category":"تفسير"},{"id":"_bJUq8mDhbA","title":"شرح البرهان في علوم القرآن - النوع ٢٤ - فصل في الكلام على \"كلّا\" في القرآن","publishedAt":"2020-01-08T19:28:21Z","duration":"PT21M43S","thumbnail":"https://i.ytimg.com/vi/_bJUq8mDhbA/mqdefault.jpg","viewCount":"473","playlistId":"PLEkQk5xrP-tnW3iBL7HkKziOFCFZbTlf0","playlistName":"شرح البرهان في علوم القرآن - أ.د. يسري جبر","category":"تفسير"},{"id":"yv29BH87_Bg","title":"شرح البرهان في علوم القرآن - النوع ٢٤ - فصل ملخص في تقسيمات الوقف ٢","publishedAt":"2020-01-07T07:48:29Z","duration":"PT21M15S","thumbnail":"https://i.ytimg.com/vi/yv29BH87_Bg/mqdefault.jpg","viewCount":"474","playlistId":"PLEkQk5xrP-tnW3iBL7HkKziOFCFZbTlf0","playlistName":"شرح البرهان في علوم القرآن - أ.د. يسري جبر","category":"تفسير"},{"id":"dXUjcbNiL7g","title":"169- معنى ( وَيْكَأَنَّ - ويل - يا )- شرح الإتقان في علوم القرآن","publishedAt":"2023-11-08T06:30:18Z","duration":"PT32M19S","thumbnail":"https://i.ytimg.com/vi/dXUjcbNiL7g/mqdefault.jpg","viewCount":"977","playlistId":"PLEkQk5xrP-tlPw10KGJKagu7zm4Ry2Tge","playlistName":"شرح الإتقان في علوم القرآن","category":"تفسير"},{"id":"nIR65ixxlWs","title":"168- حرف ( الواو ) - شرح الإتقان في علوم القرآن","publishedAt":"2023-11-06T06:15:02Z","duration":"PT44M32S","thumbnail":"https://i.ytimg.com/vi/nIR65ixxlWs/mqdefault.jpg","viewCount":"847","playlistId":"PLEkQk5xrP-tlPw10KGJKagu7zm4Ry2Tge","playlistName":"شرح الإتقان في علوم القرآن","category":"تفسير"},{"id":"H_Tb4BU05_0","title":"167- معنى (الهاء - ها - هات - هل - هلُمَّ - هنا - هيت - هيهات)  - شرح الإتقان في علوم القرآن","publishedAt":"2023-11-02T06:15:00Z","duration":"PT30M17S","thumbnail":"https://i.ytimg.com/vi/H_Tb4BU05_0/mqdefault.jpg","viewCount":"622","playlistId":"PLEkQk5xrP-tlPw10KGJKagu7zm4Ry2Tge","playlistName":"شرح الإتقان في علوم القرآن","category":"تفسير"},{"id":"ucPXzF_kODQ","title":"أدوات التوكيد - ضمير الفصل - شرح البرهان في علوم القرآن أ.د. يسري جبر","publishedAt":"2021-01-20T08:14:56Z","duration":"PT13M42S","thumbnail":"https://i.ytimg.com/vi/ucPXzF_kODQ/mqdefault.jpg","viewCount":"449","playlistId":"PLEkQk5xrP-tnW3iBL7HkKziOFCFZbTlf0","playlistName":"شرح البرهان في علوم القرآن - أ.د. يسري جبر","category":"تفسير"},{"id":"kFzV8BytyGY","title":"45- السبع الطوال - شرح الإتقان في علوم القرآن","publishedAt":"2023-03-30T05:00:30Z","duration":"PT27M13S","thumbnail":"https://i.ytimg.com/vi/kFzV8BytyGY/mqdefault.jpg","viewCount":"897","playlistId":"PLEkQk5xrP-tlPw10KGJKagu7zm4Ry2Tge","playlistName":"شرح الإتقان في علوم القرآن","category":"تفسير"},{"id":"PiIlkrXU_IM","title":"598- وظائف (اللام) العاملة: تؤثر في حركة إعراب ما بعدها إمَّا (بالنصب أو الجر أو الجزم).","publishedAt":"2022-11-18T05:00:23Z","duration":"PT21M43S","thumbnail":"https://i.ytimg.com/vi/PiIlkrXU_IM/mqdefault.jpg","viewCount":"394","playlistId":"PLEkQk5xrP-tnW3iBL7HkKziOFCFZbTlf0","playlistName":"شرح البرهان في علوم القرآن - أ.د. يسري جبر","category":"تفسير"},{"id":"pkqfB5A7M4k","title":"597- لام التوكيد - شرح البرهان في علوم القرآن","publishedAt":"2022-11-16T05:00:31Z","duration":"PT25M40S","thumbnail":"https://i.ytimg.com/vi/pkqfB5A7M4k/mqdefault.jpg","viewCount":"425","playlistId":"PLEkQk5xrP-tnW3iBL7HkKziOFCFZbTlf0","playlistName":"شرح البرهان في علوم القرآن - أ.د. يسري جبر","category":"تفسير"}],"total":1096,"page":27,"pageSize":24,"totalPages":46}