{"items":[{"id":"pTgW4c9zZb4","title":"244- الاختزال: أمثلة حذف الفعل وحذف الحرف - شرح الإتقان في علوم القرآن","publishedAt":"2024-06-23T09:06:27Z","duration":"PT38M19S","thumbnail":"https://i.ytimg.com/vi/pTgW4c9zZb4/mqdefault.jpg","viewCount":"614","playlistId":"PLEkQk5xrP-tlPw10KGJKagu7zm4Ry2Tge","playlistName":"شرح الإتقان في علوم القرآن","category":"تفسير"},{"id":"VzJItUUEEmw","title":"243-النوع الرابع من أنواع الحذف: الاختزال - شرح الإتقان في علوم القرآن","publishedAt":"2024-06-20T05:00:14Z","duration":"PT35M25S","thumbnail":"https://i.ytimg.com/vi/VzJItUUEEmw/mqdefault.jpg","viewCount":"756","playlistId":"PLEkQk5xrP-tlPw10KGJKagu7zm4Ry2Tge","playlistName":"شرح الإتقان في علوم القرآن","category":"تفسير"},{"id":"zZoIi8U8C_8","title":"25- النَّوْعُ العاشر: فيما أُنزِل من القرآن على لسان بعض الصحابة - الجزء الأول","publishedAt":"2023-02-18T05:00:27Z","duration":"PT18M44S","thumbnail":"https://i.ytimg.com/vi/zZoIi8U8C_8/mqdefault.jpg","viewCount":"980","playlistId":"PLEkQk5xrP-tlPw10KGJKagu7zm4Ry2Tge","playlistName":"شرح الإتقان في علوم القرآن","category":"تفسير"},{"id":"xoXfqq_jOCY","title":"24- النَّوْعُ التاسع: معرفة سبب النزول(5) المسألة الخامسة: الحالة السادسة - الجزء الأول","publishedAt":"2023-02-16T05:00:34Z","duration":"PT32M13S","thumbnail":"https://i.ytimg.com/vi/xoXfqq_jOCY/mqdefault.jpg","viewCount":"1068","playlistId":"PLEkQk5xrP-tlPw10KGJKagu7zm4Ry2Tge","playlistName":"شرح الإتقان في علوم القرآن","category":"تفسير"},{"id":"bHNraVVvB_8","title":"4- معرفة ما نزل من القرآن بمكّة - شرح الإتقان في علوم القرآن","publishedAt":"2023-01-09T05:00:23Z","duration":"PT22M1S","thumbnail":"https://i.ytimg.com/vi/bHNraVVvB_8/mqdefault.jpg","viewCount":"2658","playlistId":"PLEkQk5xrP-tlPw10KGJKagu7zm4Ry2Tge","playlistName":"شرح الإتقان في علوم القرآن","category":"تفسير"},{"id":"LcATst9bpZs","title":"3- النوع الأول في معرفة المَكّي والمَدَني  - شرح الإتقان في علوم القرآن","publishedAt":"2023-01-08T05:00:13Z","duration":"PT28M8S","thumbnail":"https://i.ytimg.com/vi/LcATst9bpZs/mqdefault.jpg","viewCount":"4199","playlistId":"PLEkQk5xrP-tlPw10KGJKagu7zm4Ry2Tge","playlistName":"شرح الإتقان في علوم القرآن","category":"تفسير"},{"id":"ABig3duE9G8","title":"قراءة القرآن (من أول سورة العلق)","publishedAt":"2016-03-31T02:18:26Z","duration":"PT24M17S","thumbnail":"https://i.ytimg.com/vi/ABig3duE9G8/mqdefault.jpg","viewCount":"148","playlistId":"PLEkQk5xrP-tnUSUj0uyJhA-kwNC7Gkx_j","playlistName":"مقرأة الفجر - بداية من سورة الإسراء حتى سورة الناس","category":"تفسير"},{"id":"m47XfuEIIV4","title":"قراءة القرآن (من أول سورة التين)","publishedAt":"2016-03-30T02:22:02Z","duration":"PT22M40S","thumbnail":"https://i.ytimg.com/vi/m47XfuEIIV4/mqdefault.jpg","viewCount":"123","playlistId":"PLEkQk5xrP-tnUSUj0uyJhA-kwNC7Gkx_j","playlistName":"مقرأة الفجر - بداية من سورة الإسراء حتى سورة الناس","category":"تفسير"},{"id":"hR-5OhNPmys","title":"قراءة القرآن (من أول سورة الشرح)","publishedAt":"2016-03-29T02:20:55Z","duration":"PT25M20S","thumbnail":"https://i.ytimg.com/vi/hR-5OhNPmys/mqdefault.jpg","viewCount":"173","playlistId":"PLEkQk5xrP-tnUSUj0uyJhA-kwNC7Gkx_j","playlistName":"مقرأة الفجر - بداية من سورة الإسراء حتى سورة الناس","category":"تفسير"},{"id":"RyfCQUhIrSI","title":"قراءة القرآن (من أول سورة الضحى)","publishedAt":"2016-03-28T02:25:12Z","duration":"PT27M48S","thumbnail":"https://i.ytimg.com/vi/RyfCQUhIrSI/mqdefault.jpg","viewCount":"446","playlistId":"PLEkQk5xrP-tnUSUj0uyJhA-kwNC7Gkx_j","playlistName":"مقرأة الفجر - بداية من سورة الإسراء حتى سورة الناس","category":"تفسير"},{"id":"pO3kb8IABnc","title":"قراءة القرآن (من أول سورة الليل)","publishedAt":"2016-03-26T21:33:45Z","duration":"PT12M32S","thumbnail":"https://i.ytimg.com/vi/pO3kb8IABnc/mqdefault.jpg","viewCount":"96","playlistId":"PLEkQk5xrP-tnUSUj0uyJhA-kwNC7Gkx_j","playlistName":"مقرأة الفجر - بداية من سورة الإسراء حتى سورة الناس","category":"تفسير"},{"id":"z0DLSxxQYRU","title":"2- المقدمة أول ما يقرأ القارئ وآخر ما يكتبه الكاتب - شرح الإتقان في علوم القرآن","publishedAt":"2023-01-07T05:00:23Z","duration":"PT23M58S","thumbnail":"https://i.ytimg.com/vi/z0DLSxxQYRU/mqdefault.jpg","viewCount":"4717","playlistId":"PLEkQk5xrP-tlPw10KGJKagu7zm4Ry2Tge","playlistName":"شرح الإتقان في علوم القرآن","category":"تفسير"},{"id":"YmzXzUH0DQw","title":"نُبْذةٌ عن الإمام السيوطي رضي الله عنه | فهرس الكتاب - شرح الإتقان في علوم القرآن","publishedAt":"2023-01-06T05:00:25Z","duration":"PT36M56S","thumbnail":"https://i.ytimg.com/vi/YmzXzUH0DQw/mqdefault.jpg","viewCount":"17653","playlistId":"PLEkQk5xrP-tlPw10KGJKagu7zm4Ry2Tge","playlistName":"شرح الإتقان في علوم القرآن","category":"تفسير"},{"id":"hyRbi5dSFk0","title":"636- وَيْكَأَنَّ - ختام شرح كتاب البرهان في علوم القرآن","publishedAt":"2023-01-05T05:00:23Z","duration":"PT40M43S","thumbnail":"https://i.ytimg.com/vi/hyRbi5dSFk0/mqdefault.jpg","viewCount":"644","playlistId":"PLEkQk5xrP-tnW3iBL7HkKziOFCFZbTlf0","playlistName":"شرح البرهان في علوم القرآن - أ.د. يسري جبر","category":"تفسير"},{"id":"RUhkkKleBE8","title":"635- واو الثمانية - شرح البرهان في علوم القرآن","publishedAt":"2023-01-04T05:00:15Z","duration":"PT21M53S","thumbnail":"https://i.ytimg.com/vi/RUhkkKleBE8/mqdefault.jpg","viewCount":"453","playlistId":"PLEkQk5xrP-tnW3iBL7HkKziOFCFZbTlf0","playlistName":"شرح البرهان في علوم القرآن - أ.د. يسري جبر","category":"تفسير"},{"id":"ubhG5fOLXR0","title":"634- الواو العاملة وغير العاملة - شرح البرهان في علوم القرآن","publishedAt":"2023-01-03T05:00:19Z","duration":"PT35M30S","thumbnail":"https://i.ytimg.com/vi/ubhG5fOLXR0/mqdefault.jpg","viewCount":"400","playlistId":"PLEkQk5xrP-tnW3iBL7HkKziOFCFZbTlf0","playlistName":"شرح البرهان في علوم القرآن - أ.د. يسري جبر","category":"تفسير"},{"id":"5vp9Pd7AaiY","title":"23- النَّوعُ التاسع: معرفة سبب النزول(4) المسألة الخامسة - الجزء الأول - شرح الإتقان في علوم القرآن","publishedAt":"2023-02-14T05:00:02Z","duration":"PT28M18S","thumbnail":"https://i.ytimg.com/vi/5vp9Pd7AaiY/mqdefault.jpg","viewCount":"1148","playlistId":"PLEkQk5xrP-tlPw10KGJKagu7zm4Ry2Tge","playlistName":"شرح الإتقان في علوم القرآن","category":"تفسير"},{"id":"usWW9h4Rn4k","title":"22- النَّوعُ التاسع: معرفة سبب النزول (3) المسألة الثالثة - الجزء الأول - شرح الإتقان في علوم القرآن","publishedAt":"2023-02-12T05:00:26Z","duration":"PT36M12S","thumbnail":"https://i.ytimg.com/vi/usWW9h4Rn4k/mqdefault.jpg","viewCount":"1203","playlistId":"PLEkQk5xrP-tlPw10KGJKagu7zm4Ry2Tge","playlistName":"شرح الإتقان في علوم القرآن","category":"تفسير"},{"id":"mrP6Zv6W_lw","title":"شرح البرهان في علوم القرآن - النوع ٥ - علم المتشابه ٢","publishedAt":"2019-09-13T21:45:16Z","duration":"PT17M28S","thumbnail":"https://i.ytimg.com/vi/mrP6Zv6W_lw/mqdefault.jpg","viewCount":"865","playlistId":"PLEkQk5xrP-tnW3iBL7HkKziOFCFZbTlf0","playlistName":"شرح البرهان في علوم القرآن - أ.د. يسري جبر","category":"تفسير"},{"id":"e8YXRha7vrY","title":"شرح البرهان في علوم القرآن - النوع ٥ - علم المتشابه","publishedAt":"2019-09-13T09:09:09Z","duration":"PT34M52S","thumbnail":"https://i.ytimg.com/vi/e8YXRha7vrY/mqdefault.jpg","viewCount":"1487","playlistId":"PLEkQk5xrP-tnW3iBL7HkKziOFCFZbTlf0","playlistName":"شرح البرهان في علوم القرآن - أ.د. يسري جبر","category":"تفسير"},{"id":"-jk5TkUJvpI","title":"شرح البرهان في علوم القرآن - النوع ٤ - في جمع الوجوه والنظائر ٢","publishedAt":"2019-09-12T14:12:47Z","duration":"PT21M35S","thumbnail":"https://i.ytimg.com/vi/-jk5TkUJvpI/mqdefault.jpg","viewCount":"1177","playlistId":"PLEkQk5xrP-tnW3iBL7HkKziOFCFZbTlf0","playlistName":"شرح البرهان في علوم القرآن - أ.د. يسري جبر","category":"تفسير"},{"id":"AbG5EGdS6RY","title":"شرح البرهان في علوم القرآن - النوع ٤ - في جمع الوجوه والنظائر","publishedAt":"2019-09-08T10:46:28Z","duration":"PT19M6S","thumbnail":"https://i.ytimg.com/vi/AbG5EGdS6RY/mqdefault.jpg","viewCount":"1193","playlistId":"PLEkQk5xrP-tnW3iBL7HkKziOFCFZbTlf0","playlistName":"شرح البرهان في علوم القرآن - أ.د. يسري جبر","category":"تفسير"},{"id":"mqIArPebHXc","title":"4- فوائد تتعلق بالصفة - شرح البرهان في علوم القرآن","publishedAt":"2021-02-09T07:10:07Z","duration":"PT22M47S","thumbnail":"https://i.ytimg.com/vi/mqIArPebHXc/mqdefault.jpg","viewCount":"523","playlistId":"PLEkQk5xrP-tnW3iBL7HkKziOFCFZbTlf0","playlistName":"شرح البرهان في علوم القرآن - أ.د. يسري جبر","category":"تفسير"},{"id":"k94su8XDI4I","title":"3- فوائد تتعلق بالصفة -الخامسة: قد يحتمل اللفظ كثيرا من الأسباب السابقة - شرح البرهان في علوم القرآن","publishedAt":"2021-02-07T07:31:49Z","duration":"PT21M54S","thumbnail":"https://i.ytimg.com/vi/k94su8XDI4I/mqdefault.jpg","viewCount":"497","playlistId":"PLEkQk5xrP-tnW3iBL7HkKziOFCFZbTlf0","playlistName":"شرح البرهان في علوم القرآن - أ.د. يسري جبر","category":"تفسير"}],"total":1096,"page":21,"pageSize":24,"totalPages":46}