{"items":[{"id":"NW8dEusdEM0","title":"496- الخِطابُ بالشيء عن اعتقاد المُخَاطَبِ دون ما في نفْس الأمر - شرح البرهان في علوم القرآن","publishedAt":"2022-04-20T05:00:16Z","duration":"PT23M25S","thumbnail":"https://i.ytimg.com/vi/NW8dEusdEM0/mqdefault.jpg","viewCount":"534","playlistId":"PLEkQk5xrP-tnW3iBL7HkKziOFCFZbTlf0","playlistName":"شرح البرهان في علوم القرآن - أ.د. يسري جبر","category":"تفسير"},{"id":"VUlH7Dqm9pk","title":"الاختزال (11) الغرض من حذف المفعول (2) - شرح البرهان في علوم القرآن","publishedAt":"2021-07-07T22:08:28Z","duration":"PT15M11S","thumbnail":"https://i.ytimg.com/vi/VUlH7Dqm9pk/mqdefault.jpg","viewCount":"314","playlistId":"PLEkQk5xrP-tnW3iBL7HkKziOFCFZbTlf0","playlistName":"شرح البرهان في علوم القرآن - أ.د. يسري جبر","category":"تفسير"},{"id":"aKj_DJDZWgc","title":"الاختزال (10) حذف المفعول - شرح البرهان في علوم القرآن","publishedAt":"2021-07-07T05:27:07Z","duration":"PT7M24S","thumbnail":"https://i.ytimg.com/vi/aKj_DJDZWgc/mqdefault.jpg","viewCount":"309","playlistId":"PLEkQk5xrP-tnW3iBL7HkKziOFCFZbTlf0","playlistName":"شرح البرهان في علوم القرآن - أ.د. يسري جبر","category":"تفسير"},{"id":"3TXhb5m542g","title":"الاختزال (9) حذف المخصوص في باب ( نِعْمَ وبِئْسَ ) شرح البرهان في علوم القرآن","publishedAt":"2021-07-06T12:50:11Z","duration":"PT21M45S","thumbnail":"https://i.ytimg.com/vi/3TXhb5m542g/mqdefault.jpg","viewCount":"267","playlistId":"PLEkQk5xrP-tnW3iBL7HkKziOFCFZbTlf0","playlistName":"شرح البرهان في علوم القرآن - أ.د. يسري جبر","category":"تفسير"},{"id":"7PTZsVBKZBQ","title":"الاختزال (8) حذف المعطوف عليه - شرح البرهان في علوم القرآن","publishedAt":"2021-07-05T05:40:18Z","duration":"PT11M48S","thumbnail":"https://i.ytimg.com/vi/7PTZsVBKZBQ/mqdefault.jpg","viewCount":"329","playlistId":"PLEkQk5xrP-tnW3iBL7HkKziOFCFZbTlf0","playlistName":"شرح البرهان في علوم القرآن - أ.د. يسري جبر","category":"تفسير"},{"id":"gUC0pF4PEQA","title":"الاختزال (7) حذف الموصوف - شرح البرهان في علوم القرآن","publishedAt":"2021-07-04T13:32:55Z","duration":"PT13M58S","thumbnail":"https://i.ytimg.com/vi/gUC0pF4PEQA/mqdefault.jpg","viewCount":"371","playlistId":"PLEkQk5xrP-tnW3iBL7HkKziOFCFZbTlf0","playlistName":"شرح البرهان في علوم القرآن - أ.د. يسري جبر","category":"تفسير"},{"id":"rhAvct19W8c","title":"الاختزال (6) حذف المضاف إليه - شرح البرهان في علوم القرآن","publishedAt":"2021-07-03T18:17:28Z","duration":"PT13M26S","thumbnail":"https://i.ytimg.com/vi/rhAvct19W8c/mqdefault.jpg","viewCount":"336","playlistId":"PLEkQk5xrP-tnW3iBL7HkKziOFCFZbTlf0","playlistName":"شرح البرهان في علوم القرآن - أ.د. يسري جبر","category":"تفسير"},{"id":"enwGDNQCSmA","title":"الاختزال(5)حذف المضاف وإقامة المضاف إليه مقامه(أمثلة) شرح البرهان في علوم القرآن","publishedAt":"2021-07-02T07:01:31Z","duration":"PT21M12S","thumbnail":"https://i.ytimg.com/vi/enwGDNQCSmA/mqdefault.jpg","viewCount":"389","playlistId":"PLEkQk5xrP-tnW3iBL7HkKziOFCFZbTlf0","playlistName":"شرح البرهان في علوم القرآن - أ.د. يسري جبر","category":"تفسير"},{"id":"K3VA1dWGVAo","title":"الأسلوب الثاني: الحذف(13):أقسام الحذف\"الثامن:الاختزال(4) حذف المضاف وإقامة… - البرهان في علوم القرآن","publishedAt":"2021-07-01T08:26:56Z","duration":"PT21M12S","thumbnail":"https://i.ytimg.com/vi/K3VA1dWGVAo/mqdefault.jpg","viewCount":"434","playlistId":"PLEkQk5xrP-tnW3iBL7HkKziOFCFZbTlf0","playlistName":"شرح البرهان في علوم القرآن - أ.د. يسري جبر","category":"تفسير"},{"id":"TH17_FIfZY4","title":"الأسلوب الثاني الحذف(12)أقسام الحذف: الثامن:الاختزال(3)حذف الفاعل - شرح البرهان في علوم القرآن","publishedAt":"2021-06-30T07:59:17Z","duration":"PT17M41S","thumbnail":"https://i.ytimg.com/vi/TH17_FIfZY4/mqdefault.jpg","viewCount":"304","playlistId":"PLEkQk5xrP-tnW3iBL7HkKziOFCFZbTlf0","playlistName":"شرح البرهان في علوم القرآن - أ.د. يسري جبر","category":"تفسير"},{"id":"B4pRCELbeaE","title":"50- معرفة حُفَّاظ القرآن الكريم ورُواته - شرح الإتقان في علوم القرآن","publishedAt":"2023-04-09T05:30:02Z","duration":"PT30M41S","thumbnail":"https://i.ytimg.com/vi/B4pRCELbeaE/mqdefault.jpg","viewCount":"946","playlistId":"PLEkQk5xrP-tlPw10KGJKagu7zm4Ry2Tge","playlistName":"شرح الإتقان في علوم القرآن","category":"تفسير"},{"id":"5EhUxRL8xts","title":"49- هل البسملة آية من الفاتحة؟ - شرح الاتقان في علوم القران","publishedAt":"2023-04-07T05:00:03Z","duration":"PT27M13S","thumbnail":"https://i.ytimg.com/vi/5EhUxRL8xts/mqdefault.jpg","viewCount":"1091","playlistId":"PLEkQk5xrP-tlPw10KGJKagu7zm4Ry2Tge","playlistName":"شرح الإتقان في علوم القرآن","category":"تفسير"},{"id":"F2olww8HJY8","title":"18- تكملة معرفة أول ما نزل من القرآن - شرح الإتقان في علوم القران","publishedAt":"2023-01-27T05:00:13Z","duration":"PT30M17S","thumbnail":"https://i.ytimg.com/vi/F2olww8HJY8/mqdefault.jpg","viewCount":"1125","playlistId":"PLEkQk5xrP-tlPw10KGJKagu7zm4Ry2Tge","playlistName":"شرح الإتقان في علوم القرآن","category":"تفسير"},{"id":"DtPTIW3Oz9Y","title":"17- معرفة أول ما نزل من القرآن - شرح الإتقان في علوم القرآن","publishedAt":"2023-01-26T05:00:07Z","duration":"PT30M14S","thumbnail":"https://i.ytimg.com/vi/DtPTIW3Oz9Y/mqdefault.jpg","viewCount":"1252","playlistId":"PLEkQk5xrP-tlPw10KGJKagu7zm4Ry2Tge","playlistName":"شرح الإتقان في علوم القرآن","category":"تفسير"},{"id":"u_gkDSBBat8","title":"16- النَّوْعُ الرَّابِعُ: الصَّيْفِيُّ وَ الشِّتَائِي - شرح الإتقان في علوم القرآن","publishedAt":"2023-01-25T05:00:31Z","duration":"PT22M55S","thumbnail":"https://i.ytimg.com/vi/u_gkDSBBat8/mqdefault.jpg","viewCount":"917","playlistId":"PLEkQk5xrP-tlPw10KGJKagu7zm4Ry2Tge","playlistName":"شرح الإتقان في علوم القرآن","category":"تفسير"},{"id":"c_nlTC1SR0U","title":"القِسمُ (14) من التوكيد: فوائد التَّكرار: الفائدة السابعة (3) - شرح البرهان في علوم القرآن","publishedAt":"2021-04-30T04:41:38Z","duration":"PT29M38S","thumbnail":"https://i.ytimg.com/vi/c_nlTC1SR0U/mqdefault.jpg","viewCount":"330","playlistId":"PLEkQk5xrP-tnW3iBL7HkKziOFCFZbTlf0","playlistName":"شرح البرهان في علوم القرآن - أ.د. يسري جبر","category":"تفسير"},{"id":"pC_RgBvh0II","title":"القِسمُ (14) من التوكيد: فوائد التَّكرار: الفائدة السابعة (2) - شرح البرهان في علوم القرآن","publishedAt":"2021-04-27T05:25:36Z","duration":"PT29M29S","thumbnail":"https://i.ytimg.com/vi/pC_RgBvh0II/mqdefault.jpg","viewCount":"369","playlistId":"PLEkQk5xrP-tnW3iBL7HkKziOFCFZbTlf0","playlistName":"شرح البرهان في علوم القرآن - أ.د. يسري جبر","category":"تفسير"},{"id":"gHPzP8-tifs","title":"القِسمُ (14) من التوكيد: فوائد التَّكرار: الفائدة السابعة - شرح البرهان في علوم القرآن","publishedAt":"2021-04-25T05:49:11Z","duration":"PT25M17S","thumbnail":"https://i.ytimg.com/vi/gHPzP8-tifs/mqdefault.jpg","viewCount":"384","playlistId":"PLEkQk5xrP-tnW3iBL7HkKziOFCFZbTlf0","playlistName":"شرح البرهان في علوم القرآن - أ.د. يسري جبر","category":"تفسير"},{"id":"sVJqXR7usj0","title":"القِسمُ (14) من التوكيد: فوائد التَّكرار: الفائدة الخامسة - شرح البرهان في علوم القرآن","publishedAt":"2021-04-23T04:18:33Z","duration":"PT22M7S","thumbnail":"https://i.ytimg.com/vi/sVJqXR7usj0/mqdefault.jpg","viewCount":"341","playlistId":"PLEkQk5xrP-tnW3iBL7HkKziOFCFZbTlf0","playlistName":"شرح البرهان في علوم القرآن - أ.د. يسري جبر","category":"تفسير"},{"id":"0nMWsPpDvmM","title":"252- الإيضاح بعد الإبهام - شرح الإتقان في علوم القرآن","publishedAt":"2024-08-26T06:30:01Z","duration":"PT16M45S","thumbnail":"https://i.ytimg.com/vi/0nMWsPpDvmM/mqdefault.jpg","viewCount":"489","playlistId":"PLEkQk5xrP-tlPw10KGJKagu7zm4Ry2Tge","playlistName":"شرح الإتقان في علوم القرآن","category":"تفسير"},{"id":"vjlOe0oCqBY","title":"251- الإطناب بالبدل - شرح الإتقان في علوم القرآن","publishedAt":"2024-08-15T06:30:18Z","duration":"PT43M55S","thumbnail":"https://i.ytimg.com/vi/vjlOe0oCqBY/mqdefault.jpg","viewCount":"484","playlistId":"PLEkQk5xrP-tlPw10KGJKagu7zm4Ry2Tge","playlistName":"شرح الإتقان في علوم القرآن","category":"تفسير"},{"id":"HIOn5GxoLoc","title":"20- النَّوْعُ التاسع: معرفة سبب النزول - شرح الإتقان في علوم القرآن","publishedAt":"2023-02-08T05:00:11Z","duration":"PT30M23S","thumbnail":"https://i.ytimg.com/vi/HIOn5GxoLoc/mqdefault.jpg","viewCount":"1441","playlistId":"PLEkQk5xrP-tlPw10KGJKagu7zm4Ry2Tge","playlistName":"شرح الإتقان في علوم القرآن","category":"تفسير"},{"id":"8SunTfxgvPM","title":"19- النَّوْعُ الثامن: معرفة آخر ما نزل من القرآن - شرح الإتقان في علوم القرآن","publishedAt":"2023-02-07T05:00:06Z","duration":"PT27M23S","thumbnail":"https://i.ytimg.com/vi/8SunTfxgvPM/mqdefault.jpg","viewCount":"1115","playlistId":"PLEkQk5xrP-tlPw10KGJKagu7zm4Ry2Tge","playlistName":"شرح الإتقان في علوم القرآن","category":"تفسير"},{"id":"R0fx5tHgDM0","title":"الاختزال (36) حذف الحرف (4) حذف ( لو ) - شرح البرهان في علوم القرآن","publishedAt":"2021-08-28T06:21:25Z","duration":"PT15M22S","thumbnail":"https://i.ytimg.com/vi/R0fx5tHgDM0/mqdefault.jpg","viewCount":"382","playlistId":"PLEkQk5xrP-tnW3iBL7HkKziOFCFZbTlf0","playlistName":"شرح البرهان في علوم القرآن - أ.د. يسري جبر","category":"تفسير"}],"total":1096,"page":32,"pageSize":24,"totalPages":46}