{"items":[{"id":"QSdxCQ8zpw8","title":"شرح البرهان في علوم القرآن - النوع ٢٥ - علم مرسوم الخط (فصل في مد التاء وقبضها ٢)","publishedAt":"2020-01-20T07:35:05Z","duration":"PT11M35S","thumbnail":"https://i.ytimg.com/vi/QSdxCQ8zpw8/mqdefault.jpg","viewCount":"278","playlistId":"PLEkQk5xrP-tnW3iBL7HkKziOFCFZbTlf0","playlistName":"شرح البرهان في علوم القرآن - أ.د. يسري جبر","category":"تفسير"},{"id":"oUyJKnzF294","title":"217- المطلق والمقيد - شرح الإتقان في علوم القرآن","publishedAt":"2024-03-14T06:30:23Z","duration":"PT27M32S","thumbnail":"https://i.ytimg.com/vi/oUyJKnzF294/mqdefault.jpg","viewCount":"940","playlistId":"PLEkQk5xrP-tlPw10KGJKagu7zm4Ry2Tge","playlistName":"شرح الإتقان في علوم القرآن","category":"تفسير"},{"id":"Y7bCRw9vHUU","title":"273- صيغة المبالغة - شرح الإتقان في علوم القرآن","publishedAt":"2024-12-09T06:15:01Z","duration":"PT38M13S","thumbnail":"https://i.ytimg.com/vi/Y7bCRw9vHUU/mqdefault.jpg","viewCount":"455","playlistId":"PLEkQk5xrP-tlPw10KGJKagu7zm4Ry2Tge","playlistName":"شرح الإتقان في علوم القرآن","category":"تفسير"},{"id":"3pXJmMJVRd4","title":"272- الفرائد - شرح الإتقان في علوم القرآن","publishedAt":"2024-12-05T07:14:00Z","duration":"PT37M9S","thumbnail":"https://i.ytimg.com/vi/3pXJmMJVRd4/mqdefault.jpg","viewCount":"650","playlistId":"PLEkQk5xrP-tlPw10KGJKagu7zm4Ry2Tge","playlistName":"شرح الإتقان في علوم القرآن","category":"تفسير"},{"id":"MAmVVyrZ_j0","title":"271- أسلوب الجمع - شرح الإتقان في علوم القرآن","publishedAt":"2024-11-30T05:00:22Z","duration":"PT20M33S","thumbnail":"https://i.ytimg.com/vi/MAmVVyrZ_j0/mqdefault.jpg","viewCount":"493","playlistId":"PLEkQk5xrP-tlPw10KGJKagu7zm4Ry2Tge","playlistName":"شرح الإتقان في علوم القرآن","category":"تفسير"},{"id":"vLMMfgXnK2g","title":"شرح البرهان في علوم القرآن - النوع ٣٨ - تنبيه في أن معرفة مقامات الكلام لا تدرك إلا بالذوق","publishedAt":"2020-03-29T07:00:11Z","duration":"PT19M53S","thumbnail":"https://i.ytimg.com/vi/vLMMfgXnK2g/mqdefault.jpg","viewCount":"342","playlistId":"PLEkQk5xrP-tnW3iBL7HkKziOFCFZbTlf0","playlistName":"شرح البرهان في علوم القرآن - أ.د. يسري جبر","category":"تفسير"},{"id":"TIILTQu0YL8","title":"284- مناسبة الآيات والسور (3) - شرح الإتقان في علوم القرآن","publishedAt":"2025-02-22T07:00:27Z","duration":"PT24M33S","thumbnail":"https://i.ytimg.com/vi/TIILTQu0YL8/mqdefault.jpg","viewCount":"482","playlistId":"PLEkQk5xrP-tlPw10KGJKagu7zm4Ry2Tge","playlistName":"شرح الإتقان في علوم القرآن","category":"تفسير"},{"id":"9Wc-N5_6zRU","title":"487- قاعدة في الضمائر (قد يُذكر شيئان ويُعاد الضمير على أحدهما) - شرح البرهان في علوم القرآن","publishedAt":"2022-03-29T06:41:41Z","duration":"PT13M51S","thumbnail":"https://i.ytimg.com/vi/9Wc-N5_6zRU/mqdefault.jpg","viewCount":"508","playlistId":"PLEkQk5xrP-tnW3iBL7HkKziOFCFZbTlf0","playlistName":"شرح البرهان في علوم القرآن - أ.د. يسري جبر","category":"تفسير"},{"id":"OSGj5u05cP0","title":"486- قاعدة في الضمائر (ألَّا يعود على مذكور، ولا معلوم بالسياق، أو غيره)- شرح البرهان في علوم القرآن","publishedAt":"2022-03-28T06:12:24Z","duration":"PT6M34S","thumbnail":"https://i.ytimg.com/vi/OSGj5u05cP0/mqdefault.jpg","viewCount":"578","playlistId":"PLEkQk5xrP-tnW3iBL7HkKziOFCFZbTlf0","playlistName":"شرح البرهان في علوم القرآن - أ.د. يسري جبر","category":"تفسير"},{"id":"IvdHEYZx_mg","title":"485- قاعدة في الضمائر (أن يدل عليه بالالتزام) - شرح البرهان في علوم القرآن","publishedAt":"2022-03-27T21:41:24Z","duration":"PT20M41S","thumbnail":"https://i.ytimg.com/vi/IvdHEYZx_mg/mqdefault.jpg","viewCount":"517","playlistId":"PLEkQk5xrP-tnW3iBL7HkKziOFCFZbTlf0","playlistName":"شرح البرهان في علوم القرآن - أ.د. يسري جبر","category":"تفسير"},{"id":"pHGhJjbTm-M","title":"484- قاعدةٌ في الضمائر وأسباب استعمالها - شرح البرهان في علوم القرآن","publishedAt":"2022-03-26T19:52:05Z","duration":"PT14M4S","thumbnail":"https://i.ytimg.com/vi/pHGhJjbTm-M/mqdefault.jpg","viewCount":"651","playlistId":"PLEkQk5xrP-tnW3iBL7HkKziOFCFZbTlf0","playlistName":"شرح البرهان في علوم القرآن - أ.د. يسري جبر","category":"تفسير"},{"id":"oxNQXVy4ZEo","title":"483- قاعدةٌ نَحَويَّة: نون الجَمْع - شرح البرهان في علوم القرآن","publishedAt":"2022-03-26T05:13:42Z","duration":"PT9M43S","thumbnail":"https://i.ytimg.com/vi/oxNQXVy4ZEo/mqdefault.jpg","viewCount":"536","playlistId":"PLEkQk5xrP-tnW3iBL7HkKziOFCFZbTlf0","playlistName":"شرح البرهان في علوم القرآن - أ.د. يسري جبر","category":"تفسير"},{"id":"D4zpPmTtucA","title":"482- أكواب وأباريق | كأس ما الفرق بينهما؟ - شرح البرهان في علوم القرآن","publishedAt":"2022-03-25T05:57:57Z","duration":"PT30M29S","thumbnail":"https://i.ytimg.com/vi/D4zpPmTtucA/mqdefault.jpg","viewCount":"1157","playlistId":"PLEkQk5xrP-tnW3iBL7HkKziOFCFZbTlf0","playlistName":"شرح البرهان في علوم القرآن - أ.د. يسري جبر","category":"تفسير"},{"id":"zYGmb9UTPIE","title":"تكملة أنواع التقديم والتأخير (11) - شرح البرهان في علوم القرآن","publishedAt":"2021-10-01T11:11:57Z","duration":"PT8M27S","thumbnail":"https://i.ytimg.com/vi/zYGmb9UTPIE/mqdefault.jpg","viewCount":"327","playlistId":"PLEkQk5xrP-tnW3iBL7HkKziOFCFZbTlf0","playlistName":"شرح البرهان في علوم القرآن - أ.د. يسري جبر","category":"تفسير"},{"id":"0vMX5T_VLKo","title":"تكملة أنواع التقديم والتأخير (10) - شرح البرهان في علوم القرآن","publishedAt":"2021-09-30T10:40:31Z","duration":"PT35M8S","thumbnail":"https://i.ytimg.com/vi/0vMX5T_VLKo/mqdefault.jpg","viewCount":"686","playlistId":"PLEkQk5xrP-tnW3iBL7HkKziOFCFZbTlf0","playlistName":"شرح البرهان في علوم القرآن - أ.د. يسري جبر","category":"تفسير"},{"id":"_8QDcedEryU","title":"492- قاعدة فيما يتعلق بالسؤال والجواب - شرح البرهان في علوم القرآن","publishedAt":"2022-04-11T21:05:50Z","duration":"PT29M36S","thumbnail":"https://i.ytimg.com/vi/_8QDcedEryU/mqdefault.jpg","viewCount":"514","playlistId":"PLEkQk5xrP-tnW3iBL7HkKziOFCFZbTlf0","playlistName":"شرح البرهان في علوم القرآن - أ.د. يسري جبر","category":"تفسير"},{"id":"gfiASBjXw28","title":"491- قاعدة: إِذَا عَطَفَ بِـ: (أَوْ) وَجَبَ إِفْرَادُ الضَّمِيرِ - شرح البرهان في علوم القرآن","publishedAt":"2022-04-10T06:00:16Z","duration":"PT14M23S","thumbnail":"https://i.ytimg.com/vi/gfiASBjXw28/mqdefault.jpg","viewCount":"675","playlistId":"PLEkQk5xrP-tnW3iBL7HkKziOFCFZbTlf0","playlistName":"شرح البرهان في علوم القرآن - أ.د. يسري جبر","category":"تفسير"},{"id":"IYCnaPkPI14","title":"الأسلوب الثاني:الحذف(11) أقسام الحذف: النوع الثامن:الاختزال(2)حذف الخبر - شرح البرهان في علوم القرآن","publishedAt":"2021-06-28T06:30:10Z","duration":"PT29M17S","thumbnail":"https://i.ytimg.com/vi/IYCnaPkPI14/mqdefault.jpg","viewCount":"394","playlistId":"PLEkQk5xrP-tnW3iBL7HkKziOFCFZbTlf0","playlistName":"شرح البرهان في علوم القرآن - أ.د. يسري جبر","category":"تفسير"},{"id":"N6jwjmXOIqs","title":"الأسلوب الثاني: الحذف(10)\"أقسام الحذف\" النوع الثامن\"الاختزال\" - شرح البرهان في علوم القرآن","publishedAt":"2021-06-26T06:33:38Z","duration":"PT12M40S","thumbnail":"https://i.ytimg.com/vi/N6jwjmXOIqs/mqdefault.jpg","viewCount":"403","playlistId":"PLEkQk5xrP-tnW3iBL7HkKziOFCFZbTlf0","playlistName":"شرح البرهان في علوم القرآن - أ.د. يسري جبر","category":"تفسير"},{"id":"oa3PFwEC17s","title":"300- الأسماء والكنى والألقاب في القرآن الكريم | سيدنا شعيب عليه السلام - شرح الإتقان في علوم القرآن","publishedAt":"2025-09-18T04:15:02Z","duration":"PT39M30S","thumbnail":"https://i.ytimg.com/vi/oa3PFwEC17s/mqdefault.jpg","viewCount":"737","playlistId":"PLEkQk5xrP-tlPw10KGJKagu7zm4Ry2Tge","playlistName":"شرح الإتقان في علوم القرآن","category":"تفسير"},{"id":"hSqDFaZkQT8","title":"131- معنى (أَو) - شرح الإتقان في علوم القرآن","publishedAt":"2023-07-24T05:00:21Z","duration":"PT19M34S","thumbnail":"https://i.ytimg.com/vi/hSqDFaZkQT8/mqdefault.jpg","viewCount":"386","playlistId":"PLEkQk5xrP-tlPw10KGJKagu7zm4Ry2Tge","playlistName":"شرح الإتقان في علوم القرآن","category":"تفسير"},{"id":"S0tXaCGG008","title":"130- معنى (أَنَّىٰ) - شرح الإتقان في علوم القرآن","publishedAt":"2023-07-23T05:00:11Z","duration":"PT5M4S","thumbnail":"https://i.ytimg.com/vi/S0tXaCGG008/mqdefault.jpg","viewCount":"400","playlistId":"PLEkQk5xrP-tlPw10KGJKagu7zm4Ry2Tge","playlistName":"شرح الإتقان في علوم القرآن","category":"تفسير"},{"id":"5uSYed_xqHo","title":"شرح البرهان في علوم القرآن - النوع ٣٥ - فائدة في القول في الاختلاف والتناقض","publishedAt":"2020-03-04T06:00:00Z","duration":"PT24M42S","thumbnail":"https://i.ytimg.com/vi/5uSYed_xqHo/mqdefault.jpg","viewCount":"466","playlistId":"PLEkQk5xrP-tnW3iBL7HkKziOFCFZbTlf0","playlistName":"شرح البرهان في علوم القرآن - أ.د. يسري جبر","category":"تفسير"},{"id":"LyQ69vIpyD4","title":"شرح البرهان في علوم القرآن - النوع ٣٥ - فصل في القول عند تعارض آي القرآن والآثار","publishedAt":"2020-03-03T06:00:02Z","duration":"PT19M10S","thumbnail":"https://i.ytimg.com/vi/LyQ69vIpyD4/mqdefault.jpg","viewCount":"389","playlistId":"PLEkQk5xrP-tnW3iBL7HkKziOFCFZbTlf0","playlistName":"شرح البرهان في علوم القرآن - أ.د. يسري جبر","category":"تفسير"}],"total":1096,"page":26,"pageSize":24,"totalPages":46}