{"items":[{"id":"98ALDIa7u9A","title":"15- النوع الثالث في معرفة النهاري والليلي - شرح الإتقان في علوم القرآن","publishedAt":"2023-01-22T05:00:03Z","duration":"PT30M17S","thumbnail":"https://i.ytimg.com/vi/98ALDIa7u9A/mqdefault.jpg","viewCount":"1136","playlistId":"PLEkQk5xrP-tlPw10KGJKagu7zm4Ry2Tge","playlistName":"شرح الإتقان في علوم القرآن","category":"تفسير"},{"id":"xuQwTAJsz00","title":"14- معرفة ما نزل في السفر - شرح الإتقان في علوم القرآن","publishedAt":"2023-01-21T05:00:19Z","duration":"PT22M8S","thumbnail":"https://i.ytimg.com/vi/xuQwTAJsz00/mqdefault.jpg","viewCount":"1043","playlistId":"PLEkQk5xrP-tlPw10KGJKagu7zm4Ry2Tge","playlistName":"شرح الإتقان في علوم القرآن","category":"تفسير"},{"id":"zcjd5Cr6JhE","title":"13- النوع الثاني في معرفة الحضري والسفري - شرح الإتقان في علوم القرآن","publishedAt":"2023-01-20T05:25:00Z","duration":"PT30M26S","thumbnail":"https://i.ytimg.com/vi/zcjd5Cr6JhE/mqdefault.jpg","viewCount":"1148","playlistId":"PLEkQk5xrP-tlPw10KGJKagu7zm4Ry2Tge","playlistName":"شرح الإتقان في علوم القرآن","category":"تفسير"},{"id":"2ja2-Q9i3Xg","title":"الاستفهام والمراد به الإنشاء","publishedAt":"2020-11-23T08:27:52Z","duration":"PT19M19S","thumbnail":"https://i.ytimg.com/vi/2ja2-Q9i3Xg/mqdefault.jpg","viewCount":"466","playlistId":"PLEkQk5xrP-tnW3iBL7HkKziOFCFZbTlf0","playlistName":"شرح البرهان في علوم القرآن - أ.د. يسري جبر","category":"تفسير"},{"id":"R3XYTt1oLHU","title":"وُجوه أنواع استفهام التقرير","publishedAt":"2020-11-21T08:39:33Z","duration":"PT17M53S","thumbnail":"https://i.ytimg.com/vi/R3XYTt1oLHU/mqdefault.jpg","viewCount":"643","playlistId":"PLEkQk5xrP-tnW3iBL7HkKziOFCFZbTlf0","playlistName":"شرح البرهان في علوم القرآن - أ.د. يسري جبر","category":"تفسير"},{"id":"X2Rsyh1KIPc","title":"الاستفهام التقريري","publishedAt":"2020-11-19T06:56:55Z","duration":"PT13M49S","thumbnail":"https://i.ytimg.com/vi/X2Rsyh1KIPc/mqdefault.jpg","viewCount":"804","playlistId":"PLEkQk5xrP-tnW3iBL7HkKziOFCFZbTlf0","playlistName":"شرح البرهان في علوم القرآن - أ.د. يسري جبر","category":"تفسير"},{"id":"NQ55dllsx5E","title":"الاستفهام الإنكاري","publishedAt":"2020-11-17T06:26:40Z","duration":"PT14M39S","thumbnail":"https://i.ytimg.com/vi/NQ55dllsx5E/mqdefault.jpg","viewCount":"1201","playlistId":"PLEkQk5xrP-tnW3iBL7HkKziOFCFZbTlf0","playlistName":"شرح البرهان في علوم القرآن - أ.د. يسري جبر","category":"تفسير"},{"id":"CGYgvyVUXb8","title":"بقية النوع 45: في أقسام معنى الكلام - الاستخبار","publishedAt":"2020-11-14T06:14:41Z","duration":"PT13M55S","thumbnail":"https://i.ytimg.com/vi/CGYgvyVUXb8/mqdefault.jpg","viewCount":"566","playlistId":"PLEkQk5xrP-tnW3iBL7HkKziOFCFZbTlf0","playlistName":"شرح البرهان في علوم القرآن - أ.د. يسري جبر","category":"تفسير"},{"id":"RwgWCkawn58","title":"42- الجمع الثالث للقرآن - شرح الإتقان في علوم القرآن","publishedAt":"2023-03-24T05:00:07Z","duration":"PT25M56S","thumbnail":"https://i.ytimg.com/vi/RwgWCkawn58/mqdefault.jpg","viewCount":"772","playlistId":"PLEkQk5xrP-tlPw10KGJKagu7zm4Ry2Tge","playlistName":"شرح الإتقان في علوم القرآن","category":"تفسير"},{"id":"9IrxTy6yG5M","title":"41- جمع القرآن وترتيبه - شرح الإتقان في علوم القرآن","publishedAt":"2023-03-22T05:00:02Z","duration":"PT31M24S","thumbnail":"https://i.ytimg.com/vi/9IrxTy6yG5M/mqdefault.jpg","viewCount":"1104","playlistId":"PLEkQk5xrP-tlPw10KGJKagu7zm4Ry2Tge","playlistName":"شرح الإتقان في علوم القرآن","category":"تفسير"},{"id":"x1nlLZsBNdE","title":"الاختزال (14) حذف المفعول (5) تنبيهات - شرح البرهان في علوم القرآن","publishedAt":"2021-07-12T05:46:43Z","duration":"PT36M56S","thumbnail":"https://i.ytimg.com/vi/x1nlLZsBNdE/mqdefault.jpg","viewCount":"488","playlistId":"PLEkQk5xrP-tnW3iBL7HkKziOFCFZbTlf0","playlistName":"شرح البرهان في علوم القرآن - أ.د. يسري جبر","category":"تفسير"},{"id":"D_qBmQFUy98","title":"الاختزال (13) حذف المفعول (4) - شرح البرهان في علوم القرآن","publishedAt":"2021-07-10T05:20:50Z","duration":"PT14M25S","thumbnail":"https://i.ytimg.com/vi/D_qBmQFUy98/mqdefault.jpg","viewCount":"326","playlistId":"PLEkQk5xrP-tnW3iBL7HkKziOFCFZbTlf0","playlistName":"شرح البرهان في علوم القرآن - أ.د. يسري جبر","category":"تفسير"},{"id":"ByglztZpnGA","title":"الاختزال (12) الغرض من حذف المفعول (3) - شرح البرهان في علوم القرآن","publishedAt":"2021-07-08T16:17:54Z","duration":"PT17M39S","thumbnail":"https://i.ytimg.com/vi/ByglztZpnGA/mqdefault.jpg","viewCount":"343","playlistId":"PLEkQk5xrP-tnW3iBL7HkKziOFCFZbTlf0","playlistName":"شرح البرهان في علوم القرآن - أ.د. يسري جبر","category":"تفسير"},{"id":"LkW2DYbGAgc","title":"74- كيف تَتَلَقَّى القرآن وتَتَعَلَّمه؟ - شرح الإتقان في علوم القرآن","publishedAt":"2023-05-18T05:00:10Z","duration":"PT25M51S","thumbnail":"https://i.ytimg.com/vi/LkW2DYbGAgc/mqdefault.jpg","viewCount":"1497","playlistId":"PLEkQk5xrP-tlPw10KGJKagu7zm4Ry2Tge","playlistName":"شرح الإتقان في علوم القرآن","category":"تفسير"},{"id":"kNRc4VBNiwA","title":"الاختزال (37) حذف الحرف (5) فائدة في حذف الجارّ - شرح البرهان في علوم القرآن","publishedAt":"2021-08-31T05:40:50Z","duration":"PT37M12S","thumbnail":"https://i.ytimg.com/vi/kNRc4VBNiwA/mqdefault.jpg","viewCount":"479","playlistId":"PLEkQk5xrP-tnW3iBL7HkKziOFCFZbTlf0","playlistName":"شرح البرهان في علوم القرآن - أ.د. يسري جبر","category":"تفسير"},{"id":"WMSEf896z4w","title":"73- أحكام التلاوة (7) تخفيف الهمز - شرح الإتقان في علوم القرآن","publishedAt":"2023-05-17T05:00:22Z","duration":"PT26M52S","thumbnail":"https://i.ytimg.com/vi/WMSEf896z4w/mqdefault.jpg","viewCount":"543","playlistId":"PLEkQk5xrP-tlPw10KGJKagu7zm4Ry2Tge","playlistName":"شرح الإتقان في علوم القرآن","category":"تفسير"},{"id":"lPqxFjqkTx8","title":"شرح البرهان في علوم القرآن - النوع ٣٥ - فصل في القول عند تعارض الآي","publishedAt":"2020-03-02T06:00:04Z","duration":"PT28M2S","thumbnail":"https://i.ytimg.com/vi/lPqxFjqkTx8/mqdefault.jpg","viewCount":"452","playlistId":"PLEkQk5xrP-tnW3iBL7HkKziOFCFZbTlf0","playlistName":"شرح البرهان في علوم القرآن - أ.د. يسري جبر","category":"تفسير"},{"id":"HKoQ9vnnJ-k","title":"شرح البرهان في علوم القرآن - النوع ٣٥ - معرفة موهم المختلف","publishedAt":"2020-03-01T06:00:04Z","duration":"PT18M59S","thumbnail":"https://i.ytimg.com/vi/HKoQ9vnnJ-k/mqdefault.jpg","viewCount":"528","playlistId":"PLEkQk5xrP-tnW3iBL7HkKziOFCFZbTlf0","playlistName":"شرح البرهان في علوم القرآن - أ.د. يسري جبر","category":"تفسير"},{"id":"gvA1FpHDsZA","title":"الأسلوب السابع: الاختصاص - شرح البرهان في علوم القرآن","publishedAt":"2021-10-28T04:15:03Z","duration":"PT8M20S","thumbnail":"https://i.ytimg.com/vi/gvA1FpHDsZA/mqdefault.jpg","viewCount":"468","playlistId":"PLEkQk5xrP-tnW3iBL7HkKziOFCFZbTlf0","playlistName":"شرح البرهان في علوم القرآن - أ.د. يسري جبر","category":"تفسير"},{"id":"PVZvC44C79w","title":"279- فواصل الآي (5) التصدير - شرح الإتقان في علوم القرآن","publishedAt":"2025-01-08T06:30:10Z","duration":"PT35M31S","thumbnail":"https://i.ytimg.com/vi/PVZvC44C79w/mqdefault.jpg","viewCount":"495","playlistId":"PLEkQk5xrP-tlPw10KGJKagu7zm4Ry2Tge","playlistName":"شرح الإتقان في علوم القرآن","category":"تفسير"},{"id":"o2FRmCIUSv0","title":"بقية النوع 45: في أقسام معنى الكلام - المعنى التاسع: الترجَّي","publishedAt":"2020-11-12T07:04:48Z","duration":"PT11M45S","thumbnail":"https://i.ytimg.com/vi/o2FRmCIUSv0/mqdefault.jpg","viewCount":"536","playlistId":"PLEkQk5xrP-tnW3iBL7HkKziOFCFZbTlf0","playlistName":"شرح البرهان في علوم القرآن - أ.د. يسري جبر","category":"تفسير"},{"id":"q6SLdv55ilQ","title":"شرح البرهان في علوم القرآن - النوع ٢٥ - علم مرسوم الخط (الناقص وأقسامه : حذف الألف)","publishedAt":"2020-01-15T09:59:04Z","duration":"PT21M29S","thumbnail":"https://i.ytimg.com/vi/q6SLdv55ilQ/mqdefault.jpg","viewCount":"309","playlistId":"PLEkQk5xrP-tnW3iBL7HkKziOFCFZbTlf0","playlistName":"شرح البرهان في علوم القرآن - أ.د. يسري جبر","category":"تفسير"},{"id":"Au7FilvU6AY","title":"شرح البرهان في علوم القرآن - النوع ٢٥ - علم مرسوم الخط (الناقص وأقسامه : حذف الألف ٢)","publishedAt":"2020-01-15T09:59:03Z","duration":"PT13M10S","thumbnail":"https://i.ytimg.com/vi/Au7FilvU6AY/mqdefault.jpg","viewCount":"334","playlistId":"PLEkQk5xrP-tnW3iBL7HkKziOFCFZbTlf0","playlistName":"شرح البرهان في علوم القرآن - أ.د. يسري جبر","category":"تفسير"},{"id":"_EtxvP6hQt4","title":"190- الفرق بين (مَدَّ - أمَدَّ) - شرح الإتقان في علوم القرآن","publishedAt":"2023-12-28T07:00:45Z","duration":"PT25M45S","thumbnail":"https://i.ytimg.com/vi/_EtxvP6hQt4/mqdefault.jpg","viewCount":"871","playlistId":"PLEkQk5xrP-tlPw10KGJKagu7zm4Ry2Tge","playlistName":"شرح الإتقان في علوم القرآن","category":"تفسير"}],"total":1096,"page":23,"pageSize":24,"totalPages":46}