{"items":[{"id":"CtTnSgLK-iY","title":"أسباب التقديم والتأخير - شرح البرهان في علوم القرآن","publishedAt":"2021-09-12T05:43:44Z","duration":"PT20M10S","thumbnail":"https://i.ytimg.com/vi/CtTnSgLK-iY/mqdefault.jpg","viewCount":"676","playlistId":"PLEkQk5xrP-tnW3iBL7HkKziOFCFZbTlf0","playlistName":"شرح البرهان في علوم القرآن - أ.د. يسري جبر","category":"تفسير"},{"id":"0iyuK9Wog4E","title":"أسلوب التقديم والتأخير - شرح البرهان في علوم القرآن","publishedAt":"2021-09-10T06:06:06Z","duration":"PT12M22S","thumbnail":"https://i.ytimg.com/vi/0iyuK9Wog4E/mqdefault.jpg","viewCount":"673","playlistId":"PLEkQk5xrP-tnW3iBL7HkKziOFCFZbTlf0","playlistName":"شرح البرهان في علوم القرآن - أ.د. يسري جبر","category":"تفسير"},{"id":"gvA1FpHDsZA","title":"الأسلوب السابع: الاختصاص - شرح البرهان في علوم القرآن","publishedAt":"2021-10-28T04:15:03Z","duration":"PT8M20S","thumbnail":"https://i.ytimg.com/vi/gvA1FpHDsZA/mqdefault.jpg","viewCount":"468","playlistId":"PLEkQk5xrP-tnW3iBL7HkKziOFCFZbTlf0","playlistName":"شرح البرهان في علوم القرآن - أ.د. يسري جبر","category":"تفسير"},{"id":"PVZvC44C79w","title":"279- فواصل الآي (5) التصدير - شرح الإتقان في علوم القرآن","publishedAt":"2025-01-08T06:30:10Z","duration":"PT35M31S","thumbnail":"https://i.ytimg.com/vi/PVZvC44C79w/mqdefault.jpg","viewCount":"495","playlistId":"PLEkQk5xrP-tlPw10KGJKagu7zm4Ry2Tge","playlistName":"شرح الإتقان في علوم القرآن","category":"تفسير"},{"id":"S2cZG3nMz6A","title":"278- فواصل الآي (4) التمكين - شرح الإتقان في علوم القرآن","publishedAt":"2025-01-05T07:15:01Z","duration":"PT40M1S","thumbnail":"https://i.ytimg.com/vi/S2cZG3nMz6A/mqdefault.jpg","viewCount":"538","playlistId":"PLEkQk5xrP-tlPw10KGJKagu7zm4Ry2Tge","playlistName":"شرح الإتقان في علوم القرآن","category":"تفسير"},{"id":"icPjRY-frAM","title":"الأسلوب الخامس: المُدْرَج - البرهان في علوم القرآن","publishedAt":"2021-10-26T19:03:27Z","duration":"PT27M27S","thumbnail":"https://i.ytimg.com/vi/icPjRY-frAM/mqdefault.jpg","viewCount":"518","playlistId":"PLEkQk5xrP-tnW3iBL7HkKziOFCFZbTlf0","playlistName":"شرح البرهان في علوم القرآن - أ.د. يسري جبر","category":"تفسير"},{"id":"otp-gCH9W6Y","title":"النوع الثاني: قلب المعطوف - البرهان في علوم القرآن","publishedAt":"2021-10-26T03:44:55Z","duration":"PT7M28S","thumbnail":"https://i.ytimg.com/vi/otp-gCH9W6Y/mqdefault.jpg","viewCount":"481","playlistId":"PLEkQk5xrP-tnW3iBL7HkKziOFCFZbTlf0","playlistName":"شرح البرهان في علوم القرآن - أ.د. يسري جبر","category":"تفسير"},{"id":"SZy3jhELfQQ","title":"الأسلوب الرابع: القلب - البرهان في علوم القرآن","publishedAt":"2021-10-24T06:19:38Z","duration":"PT32M8S","thumbnail":"https://i.ytimg.com/vi/SZy3jhELfQQ/mqdefault.jpg","viewCount":"730","playlistId":"PLEkQk5xrP-tnW3iBL7HkKziOFCFZbTlf0","playlistName":"شرح البرهان في علوم القرآن - أ.د. يسري جبر","category":"تفسير"},{"id":"M0I_qUoZCTI","title":"أمثلة ما قُدّم في آية وأُخّر في أخرى(2) - تكملة أنواع التقديم والتأخير(22) البرهان في علوم القرآن","publishedAt":"2021-10-22T04:07:01Z","duration":"PT17M43S","thumbnail":"https://i.ytimg.com/vi/M0I_qUoZCTI/mqdefault.jpg","viewCount":"482","playlistId":"PLEkQk5xrP-tnW3iBL7HkKziOFCFZbTlf0","playlistName":"شرح البرهان في علوم القرآن - أ.د. يسري جبر","category":"تفسير"},{"id":"U3mRjAGfc1I","title":"النوع الثالث: ما قُدّم في آية وأُخّر في أخرى تكملة أنواع التقديم والتأخير(21) البرهان في علوم القرآن","publishedAt":"2021-10-20T10:25:27Z","duration":"PT26M59S","thumbnail":"https://i.ytimg.com/vi/U3mRjAGfc1I/mqdefault.jpg","viewCount":"415","playlistId":"PLEkQk5xrP-tnW3iBL7HkKziOFCFZbTlf0","playlistName":"شرح البرهان في علوم القرآن - أ.د. يسري جبر","category":"تفسير"},{"id":"LnORgwmHjHs","title":"النوع الثاني مما قُدِّم ورتبته التأخير(٢)تكملة أنواع التقديم والتأخير(20)شرح البرهان في علوم القرآن","publishedAt":"2021-10-19T03:30:31Z","duration":"PT25M40S","thumbnail":"https://i.ytimg.com/vi/LnORgwmHjHs/mqdefault.jpg","viewCount":"404","playlistId":"PLEkQk5xrP-tnW3iBL7HkKziOFCFZbTlf0","playlistName":"شرح البرهان في علوم القرآن - أ.د. يسري جبر","category":"تفسير"},{"id":"Q9ohcGaFF6o","title":"النوع الثاني مما قدّم والنية به التأخير - تكملة أنواع التقديم والتأخير(19)شرح البرهان في علوم القرآن","publishedAt":"2021-10-17T21:52:35Z","duration":"PT17M44S","thumbnail":"https://i.ytimg.com/vi/Q9ohcGaFF6o/mqdefault.jpg","viewCount":"369","playlistId":"PLEkQk5xrP-tnW3iBL7HkKziOFCFZbTlf0","playlistName":"شرح البرهان في علوم القرآن - أ.د. يسري جبر","category":"تفسير"},{"id":"ZxWXS_K6Aaw","title":"شرح البرهان في علوم القرآن - النوع ٤١ - تنبيه: في كلام الصوفية في تفسير القرآن","publishedAt":"2020-04-21T20:05:05Z","duration":"PT33M20S","thumbnail":"https://i.ytimg.com/vi/ZxWXS_K6Aaw/mqdefault.jpg","viewCount":"711","playlistId":"PLEkQk5xrP-tnW3iBL7HkKziOFCFZbTlf0","playlistName":"شرح البرهان في علوم القرآن - أ.د. يسري جبر","category":"تفسير"},{"id":"zZoIi8U8C_8","title":"25- النَّوْعُ العاشر: فيما أُنزِل من القرآن على لسان بعض الصحابة - الجزء الأول","publishedAt":"2023-02-18T05:00:27Z","duration":"PT18M44S","thumbnail":"https://i.ytimg.com/vi/zZoIi8U8C_8/mqdefault.jpg","viewCount":"980","playlistId":"PLEkQk5xrP-tlPw10KGJKagu7zm4Ry2Tge","playlistName":"شرح الإتقان في علوم القرآن","category":"تفسير"},{"id":"xoXfqq_jOCY","title":"24- النَّوْعُ التاسع: معرفة سبب النزول(5) المسألة الخامسة: الحالة السادسة - الجزء الأول","publishedAt":"2023-02-16T05:00:34Z","duration":"PT32M13S","thumbnail":"https://i.ytimg.com/vi/xoXfqq_jOCY/mqdefault.jpg","viewCount":"1068","playlistId":"PLEkQk5xrP-tlPw10KGJKagu7zm4Ry2Tge","playlistName":"شرح الإتقان في علوم القرآن","category":"تفسير"},{"id":"5vp9Pd7AaiY","title":"23- النَّوعُ التاسع: معرفة سبب النزول(4) المسألة الخامسة - الجزء الأول - شرح الإتقان في علوم القرآن","publishedAt":"2023-02-14T05:00:02Z","duration":"PT28M18S","thumbnail":"https://i.ytimg.com/vi/5vp9Pd7AaiY/mqdefault.jpg","viewCount":"1148","playlistId":"PLEkQk5xrP-tlPw10KGJKagu7zm4Ry2Tge","playlistName":"شرح الإتقان في علوم القرآن","category":"تفسير"},{"id":"usWW9h4Rn4k","title":"22- النَّوعُ التاسع: معرفة سبب النزول (3) المسألة الثالثة - الجزء الأول - شرح الإتقان في علوم القرآن","publishedAt":"2023-02-12T05:00:26Z","duration":"PT36M12S","thumbnail":"https://i.ytimg.com/vi/usWW9h4Rn4k/mqdefault.jpg","viewCount":"1203","playlistId":"PLEkQk5xrP-tlPw10KGJKagu7zm4Ry2Tge","playlistName":"شرح الإتقان في علوم القرآن","category":"تفسير"},{"id":"g79y1FJ2yJU","title":"21- النَّوْعُ التاسع: معرفة سبب النزول (2) - شرح الإتقان في علوم القرآن","publishedAt":"2023-02-10T05:00:30Z","duration":"PT20M28S","thumbnail":"https://i.ytimg.com/vi/g79y1FJ2yJU/mqdefault.jpg","viewCount":"1163","playlistId":"PLEkQk5xrP-tlPw10KGJKagu7zm4Ry2Tge","playlistName":"شرح الإتقان في علوم القرآن","category":"تفسير"},{"id":"UFyqiig3M6E","title":"290- كيف نُحصل سعادة الدارين؟ - شرح الإتقان في علوم القرآن","publishedAt":"2025-04-21T10:00:42Z","duration":"PT38M26S","thumbnail":"https://i.ytimg.com/vi/UFyqiig3M6E/mqdefault.jpg","viewCount":"1658","playlistId":"PLEkQk5xrP-tlPw10KGJKagu7zm4Ry2Tge","playlistName":"شرح الإتقان في علوم القرآن","category":"تفسير"},{"id":"PiNzn06dS30","title":"289- لا تنقضي عجائبه ولا يشبع منه العلماء - شرح الإتقان في علوم القرآن","publishedAt":"2025-04-10T10:00:39Z","duration":"PT31M18S","thumbnail":"https://i.ytimg.com/vi/PiNzn06dS30/mqdefault.jpg","viewCount":"1839","playlistId":"PLEkQk5xrP-tlPw10KGJKagu7zm4Ry2Tge","playlistName":"شرح الإتقان في علوم القرآن","category":"تفسير"},{"id":"zUBmspEmWLA","title":"288- مراتب تأليف الكلام - شرح الإتقان في علوم القرآن","publishedAt":"2025-04-08T10:01:21Z","duration":"PT33M2S","thumbnail":"https://i.ytimg.com/vi/zUBmspEmWLA/mqdefault.jpg","viewCount":"901","playlistId":"PLEkQk5xrP-tlPw10KGJKagu7zm4Ry2Tge","playlistName":"شرح الإتقان في علوم القرآن","category":"تفسير"},{"id":"inSQz3TTLMU","title":"287- بعض وجوه الإعجاز في القرآن الكريم - شرح الإتقان في علوم القرآن","publishedAt":"2025-04-05T15:00:57Z","duration":"PT21M8S","thumbnail":"https://i.ytimg.com/vi/inSQz3TTLMU/mqdefault.jpg","viewCount":"1109","playlistId":"PLEkQk5xrP-tlPw10KGJKagu7zm4Ry2Tge","playlistName":"شرح الإتقان في علوم القرآن","category":"تفسير"},{"id":"pm0KzmOrNQs","title":"286- خوارق العادات وأنواعها - شرح الإتقان في علوم القرآن","publishedAt":"2025-04-03T10:01:13Z","duration":"PT28M","thumbnail":"https://i.ytimg.com/vi/pm0KzmOrNQs/mqdefault.jpg","viewCount":"2276","playlistId":"PLEkQk5xrP-tlPw10KGJKagu7zm4Ry2Tge","playlistName":"شرح الإتقان في علوم القرآن","category":"تفسير"},{"id":"TBDGuzDXH2s","title":"285- ما جاء في الآيات المشتبهات - شرح الإتقان في علوم القرآن","publishedAt":"2025-04-01T10:00:40Z","duration":"PT36M22S","thumbnail":"https://i.ytimg.com/vi/TBDGuzDXH2s/mqdefault.jpg","viewCount":"1139","playlistId":"PLEkQk5xrP-tlPw10KGJKagu7zm4Ry2Tge","playlistName":"شرح الإتقان في علوم القرآن","category":"تفسير"}],"total":1096,"page":20,"pageSize":24,"totalPages":46}