{"items":[{"id":"hg6B9wZhML8","title":"خطاب العام والمراد الخصوص","publishedAt":"2020-09-22T21:09:20Z","duration":"PT25M53S","thumbnail":"https://i.ytimg.com/vi/hg6B9wZhML8/mqdefault.jpg","viewCount":"767","playlistId":"PLEkQk5xrP-tnW3iBL7HkKziOFCFZbTlf0","playlistName":"شرح البرهان في علوم القرآن - أ.د. يسري جبر","category":"تفسير"},{"id":"16Fsol2KX7U","title":"وُجوه المخاطبات والخطاب في القرآن","publishedAt":"2020-09-21T05:40:13Z","duration":"PT25M38S","thumbnail":"https://i.ytimg.com/vi/16Fsol2KX7U/mqdefault.jpg","viewCount":"1002","playlistId":"PLEkQk5xrP-tnW3iBL7HkKziOFCFZbTlf0","playlistName":"شرح البرهان في علوم القرآن - أ.د. يسري جبر","category":"تفسير"},{"id":"tyNalDBqpMs","title":"ما ورد فيه مبيِّنًا للإجمال","publishedAt":"2020-09-19T05:19:00Z","duration":"PT23M45S","thumbnail":"https://i.ytimg.com/vi/tyNalDBqpMs/mqdefault.jpg","viewCount":"578","playlistId":"PLEkQk5xrP-tnW3iBL7HkKziOFCFZbTlf0","playlistName":"شرح البرهان في علوم القرآن - أ.د. يسري جبر","category":"تفسير"},{"id":"VyWku3LdvT0","title":"مواقع الوقف والابتداء","publishedAt":"2020-09-17T05:39:10Z","duration":"PT20M16S","thumbnail":"https://i.ytimg.com/vi/VyWku3LdvT0/mqdefault.jpg","viewCount":"843","playlistId":"PLEkQk5xrP-tnW3iBL7HkKziOFCFZbTlf0","playlistName":"شرح البرهان في علوم القرآن - أ.د. يسري جبر","category":"تفسير"},{"id":"ZHoSjp5cLrc","title":"فصلٌ في الإجمال ظاهرا وأسبابه","publishedAt":"2020-09-16T07:55:35Z","duration":"PT32M23S","thumbnail":"https://i.ytimg.com/vi/ZHoSjp5cLrc/mqdefault.jpg","viewCount":"677","playlistId":"PLEkQk5xrP-tnW3iBL7HkKziOFCFZbTlf0","playlistName":"شرح البرهان في علوم القرآن - أ.د. يسري جبر","category":"تفسير"},{"id":"JPKw_XbZyr4","title":"اشتراك اللفظ بين حقيقتين أو حقيقة ومجاز","publishedAt":"2020-09-15T05:43:38Z","duration":"PT31M16S","thumbnail":"https://i.ytimg.com/vi/JPKw_XbZyr4/mqdefault.jpg","viewCount":"797","playlistId":"PLEkQk5xrP-tnW3iBL7HkKziOFCFZbTlf0","playlistName":"شرح البرهان في علوم القرآن - أ.د. يسري جبر","category":"تفسير"},{"id":"GKAcv-UkpbA","title":"الظاهر والمُؤول","publishedAt":"2020-09-14T06:06:52Z","duration":"PT26M53S","thumbnail":"https://i.ytimg.com/vi/GKAcv-UkpbA/mqdefault.jpg","viewCount":"808","playlistId":"PLEkQk5xrP-tnW3iBL7HkKziOFCFZbTlf0","playlistName":"شرح البرهان في علوم القرآن - أ.د. يسري جبر","category":"تفسير"},{"id":"wxFDxsr8k7k","title":"معرفة النزول","publishedAt":"2020-09-13T05:45:10Z","duration":"PT24M35S","thumbnail":"https://i.ytimg.com/vi/wxFDxsr8k7k/mqdefault.jpg","viewCount":"1196","playlistId":"PLEkQk5xrP-tnW3iBL7HkKziOFCFZbTlf0","playlistName":"شرح البرهان في علوم القرآن - أ.د. يسري جبر","category":"تفسير"},{"id":"u74HH6Ek8Dg","title":"فصلٌ في ذِكر الأمور التي تعين على المعنى عند الإشكال","publishedAt":"2020-09-10T05:12:57Z","duration":"PT21M48S","thumbnail":"https://i.ytimg.com/vi/u74HH6Ek8Dg/mqdefault.jpg","viewCount":"829","playlistId":"PLEkQk5xrP-tnW3iBL7HkKziOFCFZbTlf0","playlistName":"شرح البرهان في علوم القرآن - أ.د. يسري جبر","category":"تفسير"},{"id":"lF3pKF1bpHQ","title":"قد يكون اللفظ مقتضيا لأمر ويُحمل على غيره","publishedAt":"2020-09-09T05:12:11Z","duration":"PT18M7S","thumbnail":"https://i.ytimg.com/vi/lF3pKF1bpHQ/mqdefault.jpg","viewCount":"791","playlistId":"PLEkQk5xrP-tnW3iBL7HkKziOFCFZbTlf0","playlistName":"شرح البرهان في علوم القرآن - أ.د. يسري جبر","category":"تفسير"},{"id":"Zf2pmsOPh2E","title":"تكملة المُجْمل والمُبيَّن","publishedAt":"2020-09-07T05:22:28Z","duration":"PT16M36S","thumbnail":"https://i.ytimg.com/vi/Zf2pmsOPh2E/mqdefault.jpg","viewCount":"373","playlistId":"PLEkQk5xrP-tnW3iBL7HkKziOFCFZbTlf0","playlistName":"شرح البرهان في علوم القرآن - أ.د. يسري جبر","category":"تفسير"},{"id":"eehR9LwZmHI","title":"المُجْمَلُ والمُبَيَّن","publishedAt":"2020-09-06T05:02:19Z","duration":"PT26M29S","thumbnail":"https://i.ytimg.com/vi/eehR9LwZmHI/mqdefault.jpg","viewCount":"913","playlistId":"PLEkQk5xrP-tnW3iBL7HkKziOFCFZbTlf0","playlistName":"شرح البرهان في علوم القرآن - أ.د. يسري جبر","category":"تفسير"},{"id":"ajENrVFYcqo","title":"تقسيم القرآن إلى ما هو بيِّن بنفسه، وإلى ما ليس بيِّن بنفسه فيحتاج إلى بيان","publishedAt":"2020-09-05T05:20:16Z","duration":"PT20M32S","thumbnail":"https://i.ytimg.com/vi/ajENrVFYcqo/mqdefault.jpg","viewCount":"1010","playlistId":"PLEkQk5xrP-tnW3iBL7HkKziOFCFZbTlf0","playlistName":"شرح البرهان في علوم القرآن - أ.د. يسري جبر","category":"تفسير"},{"id":"B5wCgK5aWwM","title":"شرح البرهان في علوم القرآن - النوع ٤١ - فصل: أصل الوقوف على معني القرآن التدبر","publishedAt":"2020-09-02T20:45:01Z","duration":"PT15M27S","thumbnail":"https://i.ytimg.com/vi/B5wCgK5aWwM/mqdefault.jpg","viewCount":"577","playlistId":"PLEkQk5xrP-tnW3iBL7HkKziOFCFZbTlf0","playlistName":"شرح البرهان في علوم القرآن - أ.د. يسري جبر","category":"تفسير"},{"id":"OsaaxPP2-LM","title":"البرهان في علوم القرآن - فصل في تقسيم التأويل","publishedAt":"2020-09-01T05:36:23Z","duration":"PT22M57S","thumbnail":"https://i.ytimg.com/vi/OsaaxPP2-LM/mqdefault.jpg","viewCount":"458","playlistId":"PLEkQk5xrP-tnW3iBL7HkKziOFCFZbTlf0","playlistName":"شرح البرهان في علوم القرآن - أ.د. يسري جبر","category":"تفسير"},{"id":"VDYqD2aTgxs","title":"البرهان في علوم القرآن النوع ٤١","publishedAt":"2020-08-31T11:01:30Z","duration":"PT22M57S","thumbnail":"https://i.ytimg.com/vi/VDYqD2aTgxs/mqdefault.jpg","viewCount":"478","playlistId":"PLEkQk5xrP-tnW3iBL7HkKziOFCFZbTlf0","playlistName":"شرح البرهان في علوم القرآن - أ.د. يسري جبر","category":"تفسير"},{"id":"ZxWXS_K6Aaw","title":"شرح البرهان في علوم القرآن - النوع ٤١ - تنبيه: في كلام الصوفية في تفسير القرآن","publishedAt":"2020-04-21T20:05:05Z","duration":"PT33M20S","thumbnail":"https://i.ytimg.com/vi/ZxWXS_K6Aaw/mqdefault.jpg","viewCount":"711","playlistId":"PLEkQk5xrP-tnW3iBL7HkKziOFCFZbTlf0","playlistName":"شرح البرهان في علوم القرآن - أ.د. يسري جبر","category":"تفسير"},{"id":"ZvEgmKssHz4","title":"شرح البرهان في علوم القرآن - النوع ٤١ - أقسام التفسير ٢","publishedAt":"2020-04-15T16:45:00Z","duration":"PT31M28S","thumbnail":"https://i.ytimg.com/vi/ZvEgmKssHz4/mqdefault.jpg","viewCount":"438","playlistId":"PLEkQk5xrP-tnW3iBL7HkKziOFCFZbTlf0","playlistName":"شرح البرهان في علوم القرآن - أ.د. يسري جبر","category":"تفسير"},{"id":"6at8mUK9wPo","title":"شرح البرهان في علوم القرآن - النوع ٤١ - أقسام التفسير","publishedAt":"2020-04-13T11:00:02Z","duration":"PT22M20S","thumbnail":"https://i.ytimg.com/vi/6at8mUK9wPo/mqdefault.jpg","viewCount":"317","playlistId":"PLEkQk5xrP-tnW3iBL7HkKziOFCFZbTlf0","playlistName":"شرح البرهان في علوم القرآن - أ.د. يسري جبر","category":"تفسير"},{"id":"1JjibY2bdCo","title":"شرح البرهان في علوم القرآن - النوع ٤١ - تنبيه : فيما يجب أن يلاحظ عند نقل أقووال المفسرين","publishedAt":"2020-04-12T20:45:00Z","duration":"PT24M11S","thumbnail":"https://i.ytimg.com/vi/1JjibY2bdCo/mqdefault.jpg","viewCount":"283","playlistId":"PLEkQk5xrP-tnW3iBL7HkKziOFCFZbTlf0","playlistName":"شرح البرهان في علوم القرآن - أ.د. يسري جبر","category":"تفسير"},{"id":"o3O-3DobkVA","title":"شرح البرهان في علوم القرآن - النوع ٤١ - فصل في أمهات مآخذ التفسير للناظر في القرآن","publishedAt":"2020-04-10T19:00:11Z","duration":"PT29M22S","thumbnail":"https://i.ytimg.com/vi/o3O-3DobkVA/mqdefault.jpg","viewCount":"439","playlistId":"PLEkQk5xrP-tnW3iBL7HkKziOFCFZbTlf0","playlistName":"شرح البرهان في علوم القرآن - أ.د. يسري جبر","category":"تفسير"},{"id":"WTf2wHrG35M","title":"شرح البرهان في علوم القرآن - النوع ٤١ - فصل في حاجة المفسر إلى الفهم والتبحر في العلوم","publishedAt":"2020-04-08T07:00:31Z","duration":"PT14M52S","thumbnail":"https://i.ytimg.com/vi/WTf2wHrG35M/mqdefault.jpg","viewCount":"492","playlistId":"PLEkQk5xrP-tnW3iBL7HkKziOFCFZbTlf0","playlistName":"شرح البرهان في علوم القرآن - أ.د. يسري جبر","category":"تفسير"},{"id":"3lRkNIu_B7o","title":"شرح البرهان في علوم القرآن - النوع ٤١ - الفرق بين التفسير والتأويل","publishedAt":"2020-04-06T12:05:18Z","duration":"PT33M3S","thumbnail":"https://i.ytimg.com/vi/3lRkNIu_B7o/mqdefault.jpg","viewCount":"752","playlistId":"PLEkQk5xrP-tnW3iBL7HkKziOFCFZbTlf0","playlistName":"شرح البرهان في علوم القرآن - أ.د. يسري جبر","category":"تفسير"},{"id":"g1xZJ2NniWQ","title":"شرح البرهان في علوم القرآن - النوع ٤١ - معرفة تقسيره وتأويله","publishedAt":"2020-04-04T07:00:11Z","duration":"PT16M27S","thumbnail":"https://i.ytimg.com/vi/g1xZJ2NniWQ/mqdefault.jpg","viewCount":"421","playlistId":"PLEkQk5xrP-tnW3iBL7HkKziOFCFZbTlf0","playlistName":"شرح البرهان في علوم القرآن - أ.د. يسري جبر","category":"تفسير"}],"total":1097,"page":32,"pageSize":24,"totalPages":46}