{"items":[{"id":"LcATst9bpZs","title":"3- النوع الأول في معرفة المَكّي والمَدَني  - شرح الإتقان في علوم القرآن","publishedAt":"2023-01-08T05:00:13Z","duration":"PT28M8S","thumbnail":"https://i.ytimg.com/vi/LcATst9bpZs/mqdefault.jpg","viewCount":"4204","playlistId":"PLEkQk5xrP-tlPw10KGJKagu7zm4Ry2Tge","playlistName":"شرح الإتقان في علوم القرآن","category":"تفسير"},{"id":"z0DLSxxQYRU","title":"2- المقدمة أول ما يقرأ القارئ وآخر ما يكتبه الكاتب - شرح الإتقان في علوم القرآن","publishedAt":"2023-01-07T05:00:23Z","duration":"PT23M58S","thumbnail":"https://i.ytimg.com/vi/z0DLSxxQYRU/mqdefault.jpg","viewCount":"4720","playlistId":"PLEkQk5xrP-tlPw10KGJKagu7zm4Ry2Tge","playlistName":"شرح الإتقان في علوم القرآن","category":"تفسير"},{"id":"YmzXzUH0DQw","title":"نُبْذةٌ عن الإمام السيوطي رضي الله عنه | فهرس الكتاب - شرح الإتقان في علوم القرآن","publishedAt":"2023-01-06T05:00:25Z","duration":"PT36M56S","thumbnail":"https://i.ytimg.com/vi/YmzXzUH0DQw/mqdefault.jpg","viewCount":"17669","playlistId":"PLEkQk5xrP-tlPw10KGJKagu7zm4Ry2Tge","playlistName":"شرح الإتقان في علوم القرآن","category":"تفسير"},{"id":"hyRbi5dSFk0","title":"636- وَيْكَأَنَّ - ختام شرح كتاب البرهان في علوم القرآن","publishedAt":"2023-01-05T05:00:23Z","duration":"PT40M43S","thumbnail":"https://i.ytimg.com/vi/hyRbi5dSFk0/mqdefault.jpg","viewCount":"644","playlistId":"PLEkQk5xrP-tnW3iBL7HkKziOFCFZbTlf0","playlistName":"شرح البرهان في علوم القرآن - أ.د. يسري جبر","category":"تفسير"},{"id":"RUhkkKleBE8","title":"635- واو الثمانية - شرح البرهان في علوم القرآن","publishedAt":"2023-01-04T05:00:15Z","duration":"PT21M53S","thumbnail":"https://i.ytimg.com/vi/RUhkkKleBE8/mqdefault.jpg","viewCount":"453","playlistId":"PLEkQk5xrP-tnW3iBL7HkKziOFCFZbTlf0","playlistName":"شرح البرهان في علوم القرآن - أ.د. يسري جبر","category":"تفسير"},{"id":"ubhG5fOLXR0","title":"634- الواو العاملة وغير العاملة - شرح البرهان في علوم القرآن","publishedAt":"2023-01-03T05:00:19Z","duration":"PT35M30S","thumbnail":"https://i.ytimg.com/vi/ubhG5fOLXR0/mqdefault.jpg","viewCount":"400","playlistId":"PLEkQk5xrP-tnW3iBL7HkKziOFCFZbTlf0","playlistName":"شرح البرهان في علوم القرآن - أ.د. يسري جبر","category":"تفسير"},{"id":"Eu8cVrHAv84","title":"633- حرف (الواو) - شرح البرهان في علوم القرآن","publishedAt":"2023-01-01T05:00:06Z","duration":"PT16M48S","thumbnail":"https://i.ytimg.com/vi/Eu8cVrHAv84/mqdefault.jpg","viewCount":"398","playlistId":"PLEkQk5xrP-tnW3iBL7HkKziOFCFZbTlf0","playlistName":"شرح البرهان في علوم القرآن - أ.د. يسري جبر","category":"تفسير"},{"id":"Z9LKzeFY8RU","title":"632 - حرف (هل - هيهات) - شرح البرهان في علوم القرآن","publishedAt":"2022-12-29T05:00:13Z","duration":"PT22M53S","thumbnail":"https://i.ytimg.com/vi/Z9LKzeFY8RU/mqdefault.jpg","viewCount":"395","playlistId":"PLEkQk5xrP-tnW3iBL7HkKziOFCFZbTlf0","playlistName":"شرح البرهان في علوم القرآن - أ.د. يسري جبر","category":"تفسير"},{"id":"PP3STaZONnM","title":"631- حرف (الهاء - ها) - شرح دليل الفالحين","publishedAt":"2022-12-28T05:00:09Z","duration":"PT19M4S","thumbnail":"https://i.ytimg.com/vi/PP3STaZONnM/mqdefault.jpg","viewCount":"326","playlistId":"PLEkQk5xrP-tnW3iBL7HkKziOFCFZbTlf0","playlistName":"شرح البرهان في علوم القرآن - أ.د. يسري جبر","category":"تفسير"},{"id":"zmKl9wPiN5s","title":"630- حرف (النون) - شرح البرهان في علوم القرآن","publishedAt":"2022-12-27T05:00:31Z","duration":"PT18M2S","thumbnail":"https://i.ytimg.com/vi/zmKl9wPiN5s/mqdefault.jpg","viewCount":"378","playlistId":"PLEkQk5xrP-tnW3iBL7HkKziOFCFZbTlf0","playlistName":"شرح البرهان في علوم القرآن - أ.د. يسري جبر","category":"تفسير"},{"id":"dMkxLTzt2W8","title":"629- حرف (مع) - شرح البرهان في علوم القرآن","publishedAt":"2022-12-26T05:00:10Z","duration":"PT24M19S","thumbnail":"https://i.ytimg.com/vi/dMkxLTzt2W8/mqdefault.jpg","viewCount":"270","playlistId":"PLEkQk5xrP-tnW3iBL7HkKziOFCFZbTlf0","playlistName":"شرح البرهان في علوم القرآن - أ.د. يسري جبر","category":"تفسير"},{"id":"nMT1j-dZqK8","title":"628- (مِن) الزائدة - شرح البرهان في علوم القرآن","publishedAt":"2022-12-25T05:00:30Z","duration":"PT32M43S","thumbnail":"https://i.ytimg.com/vi/nMT1j-dZqK8/mqdefault.jpg","viewCount":"464","playlistId":"PLEkQk5xrP-tnW3iBL7HkKziOFCFZbTlf0","playlistName":"شرح البرهان في علوم القرآن - أ.د. يسري جبر","category":"تفسير"},{"id":"y5cRL1FeUuE","title":"627- حرف (مِن) بمعنى البدل - شرح البرهان في علوم القرآن","publishedAt":"2022-12-24T05:00:20Z","duration":"PT12M9S","thumbnail":"https://i.ytimg.com/vi/y5cRL1FeUuE/mqdefault.jpg","viewCount":"257","playlistId":"PLEkQk5xrP-tnW3iBL7HkKziOFCFZbTlf0","playlistName":"شرح البرهان في علوم القرآن - أ.د. يسري جبر","category":"تفسير"},{"id":"MY6_tqTho3o","title":"626- حرف (مِن) لبيان الجنس - شرح البرهان في علوم القرآن","publishedAt":"2022-12-23T05:00:09Z","duration":"PT18M37S","thumbnail":"https://i.ytimg.com/vi/MY6_tqTho3o/mqdefault.jpg","viewCount":"381","playlistId":"PLEkQk5xrP-tnW3iBL7HkKziOFCFZbTlf0","playlistName":"شرح البرهان في علوم القرآن - أ.د. يسري جبر","category":"تفسير"},{"id":"5BVxH2qwFCg","title":"625- حرف (مِن) - شرح البرهان في علوم القرآن","publishedAt":"2022-12-21T05:00:02Z","duration":"PT12M54S","thumbnail":"https://i.ytimg.com/vi/5BVxH2qwFCg/mqdefault.jpg","viewCount":"275","playlistId":"PLEkQk5xrP-tnW3iBL7HkKziOFCFZbTlf0","playlistName":"شرح البرهان في علوم القرآن - أ.د. يسري جبر","category":"تفسير"},{"id":"X30uhbyaUB8","title":"624- (مَن) - شرح البرهان في علوم القرآن","publishedAt":"2022-12-20T05:00:22Z","duration":"PT42M10S","thumbnail":"https://i.ytimg.com/vi/X30uhbyaUB8/mqdefault.jpg","viewCount":"420","playlistId":"PLEkQk5xrP-tnW3iBL7HkKziOFCFZbTlf0","playlistName":"شرح البرهان في علوم القرآن - أ.د. يسري جبر","category":"تفسير"},{"id":"8IAEyUpgzB0","title":"623- (ما) الحَرفِيَّة: المُؤَكِّدَة لِلَّفْظِ - شرح البرهان في علوم القرآن","publishedAt":"2022-12-19T05:15:00Z","duration":"PT34M52S","thumbnail":"https://i.ytimg.com/vi/8IAEyUpgzB0/mqdefault.jpg","viewCount":"368","playlistId":"PLEkQk5xrP-tnW3iBL7HkKziOFCFZbTlf0","playlistName":"شرح البرهان في علوم القرآن - أ.د. يسري جبر","category":"تفسير"},{"id":"i_MMK3iwz3o","title":"622- (ما) المصدرية  - شرح البرهان في علوم القرآن","publishedAt":"2022-12-18T05:00:22Z","duration":"PT19M58S","thumbnail":"https://i.ytimg.com/vi/i_MMK3iwz3o/mqdefault.jpg","viewCount":"384","playlistId":"PLEkQk5xrP-tnW3iBL7HkKziOFCFZbTlf0","playlistName":"شرح البرهان في علوم القرآن - أ.د. يسري جبر","category":"تفسير"},{"id":"4NE4abxP-lk","title":"621- (ما) النافية - شرح البرهان في علوم القرآن","publishedAt":"2022-12-17T05:00:02Z","duration":"PT33M1S","thumbnail":"https://i.ytimg.com/vi/4NE4abxP-lk/mqdefault.jpg","viewCount":"344","playlistId":"PLEkQk5xrP-tnW3iBL7HkKziOFCFZbTlf0","playlistName":"شرح البرهان في علوم القرآن - أ.د. يسري جبر","category":"تفسير"},{"id":"ouUmL-Dxhp8","title":"620- معنى(ما): تَعجُّبِيَّة - نكرة بمعنى شيء - نكرة بغير صِفةٍ ولا صِلة - شرح البرهان في علوم القرآن","publishedAt":"2022-12-16T05:00:32Z","duration":"PT21M56S","thumbnail":"https://i.ytimg.com/vi/ouUmL-Dxhp8/mqdefault.jpg","viewCount":"415","playlistId":"PLEkQk5xrP-tnW3iBL7HkKziOFCFZbTlf0","playlistName":"شرح البرهان في علوم القرآن - أ.د. يسري جبر","category":"تفسير"},{"id":"3v9rTKhKnbM","title":"619- (ما) الشَرطيَّة - شرح البرهان في علوم القرآن","publishedAt":"2022-12-13T05:00:04Z","duration":"PT31M33S","thumbnail":"https://i.ytimg.com/vi/3v9rTKhKnbM/mqdefault.jpg","viewCount":"281","playlistId":"PLEkQk5xrP-tnW3iBL7HkKziOFCFZbTlf0","playlistName":"شرح البرهان في علوم القرآن - أ.د. يسري جبر","category":"تفسير"},{"id":"NuPqmeTmyZs","title":"618- معنى (ما) - شرح البرهان في علوم القرآن","publishedAt":"2022-12-11T05:00:09Z","duration":"PT37M19S","thumbnail":"https://i.ytimg.com/vi/NuPqmeTmyZs/mqdefault.jpg","viewCount":"391","playlistId":"PLEkQk5xrP-tnW3iBL7HkKziOFCFZbTlf0","playlistName":"شرح البرهان في علوم القرآن - أ.د. يسري جبر","category":"تفسير"},{"id":"3xCu8wPbjVs","title":"617- (لَيْسَ - لَدُنْ) - شرح البرهان في علوم القرآن","publishedAt":"2022-12-10T05:00:02Z","duration":"PT18M54S","thumbnail":"https://i.ytimg.com/vi/3xCu8wPbjVs/mqdefault.jpg","viewCount":"347","playlistId":"PLEkQk5xrP-tnW3iBL7HkKziOFCFZbTlf0","playlistName":"شرح البرهان في علوم القرآن - أ.د. يسري جبر","category":"تفسير"},{"id":"uJ_NQAAhnr0","title":"616- حرف (لَعَلَّ) - شرح البرهان في علوم القرآن","publishedAt":"2022-12-09T05:00:17Z","duration":"PT30M28S","thumbnail":"https://i.ytimg.com/vi/uJ_NQAAhnr0/mqdefault.jpg","viewCount":"272","playlistId":"PLEkQk5xrP-tnW3iBL7HkKziOFCFZbTlf0","playlistName":"شرح البرهان في علوم القرآن - أ.د. يسري جبر","category":"تفسير"}],"total":1097,"page":14,"pageSize":24,"totalPages":46}