{"items":[{"id":"L1TNLagUaVw","title":"519- أحكام بعض الألفاظ التي يكثر دورانها في القرآن - شرح البرهان في علوم القرآن","publishedAt":"2022-05-31T05:05:00Z","duration":"PT41M52S","thumbnail":"https://i.ytimg.com/vi/L1TNLagUaVw/mqdefault.jpg","viewCount":"1219","playlistId":"PLEkQk5xrP-tnW3iBL7HkKziOFCFZbTlf0","playlistName":"شرح البرهان في علوم القرآن - أ.د. يسري جبر","category":"تفسير"},{"id":"3zj2SKUI6yU","title":"518- العَدد: اسم الفاعل المشتق من العدد له استعمالان - شرح البرهان في علوم القرآن","publishedAt":"2022-05-30T05:15:00Z","duration":"PT25M15S","thumbnail":"https://i.ytimg.com/vi/3zj2SKUI6yU/mqdefault.jpg","viewCount":"729","playlistId":"PLEkQk5xrP-tnW3iBL7HkKziOFCFZbTlf0","playlistName":"شرح البرهان في علوم القرآن - أ.د. يسري جبر","category":"تفسير"},{"id":"layJ_uS1O6o","title":"517- عطف الشيء على نفسه، عطف بغير أداة عطف، عطف على المضمر إن كان منفصلًا مرفوعًا","publishedAt":"2022-05-29T05:15:00Z","duration":"PT32M26S","thumbnail":"https://i.ytimg.com/vi/layJ_uS1O6o/mqdefault.jpg","viewCount":"937","playlistId":"PLEkQk5xrP-tnW3iBL7HkKziOFCFZbTlf0","playlistName":"شرح البرهان في علوم القرآن - أ.د. يسري جبر","category":"تفسير"},{"id":"01n9qlovxDw","title":"516- أقسام العطف باعتبار المعطوف: عطف على اللفظ وعطف على الموضع وعطف على التوهم","publishedAt":"2022-05-28T07:05:00Z","duration":"PT33M14S","thumbnail":"https://i.ytimg.com/vi/01n9qlovxDw/mqdefault.jpg","viewCount":"1149","playlistId":"PLEkQk5xrP-tnW3iBL7HkKziOFCFZbTlf0","playlistName":"شرح البرهان في علوم القرآن - أ.د. يسري جبر","category":"تفسير"},{"id":"cdDSmW2rCZg","title":"515- عطفُ الاسمِ على الاسم - شرح البرهان في علوم القرآن","publishedAt":"2022-05-27T05:15:00Z","duration":"PT31M39S","thumbnail":"https://i.ytimg.com/vi/cdDSmW2rCZg/mqdefault.jpg","viewCount":"638","playlistId":"PLEkQk5xrP-tnW3iBL7HkKziOFCFZbTlf0","playlistName":"شرح البرهان في علوم القرآن - أ.د. يسري جبر","category":"تفسير"},{"id":"4E9R26UW5PM","title":"514- العطف: أحوال الجملة - شرح البرهان في علوم القرآن","publishedAt":"2022-05-26T05:46:00Z","duration":"PT34M15S","thumbnail":"https://i.ytimg.com/vi/4E9R26UW5PM/mqdefault.jpg","viewCount":"549","playlistId":"PLEkQk5xrP-tnW3iBL7HkKziOFCFZbTlf0","playlistName":"شرح البرهان في علوم القرآن - أ.د. يسري جبر","category":"تفسير"},{"id":"u7j2LCXjYNE","title":"513- العطف - شرح البرهان في علوم القرآن","publishedAt":"2022-05-24T05:15:05Z","duration":"PT45M15S","thumbnail":"https://i.ytimg.com/vi/u7j2LCXjYNE/mqdefault.jpg","viewCount":"1646","playlistId":"PLEkQk5xrP-tnW3iBL7HkKziOFCFZbTlf0","playlistName":"شرح البرهان في علوم القرآن - أ.د. يسري جبر","category":"تفسير"},{"id":"nSoP1Io4Ud8","title":"512- قاعدة: إذا ذكر الاسمُ مرتين: 3- أن يكون الأول نكرة والثاني معرفة   - شرح البرهان في علوم القرآن","publishedAt":"2022-05-22T05:15:02Z","duration":"PT17M16S","thumbnail":"https://i.ytimg.com/vi/nSoP1Io4Ud8/mqdefault.jpg","viewCount":"1225","playlistId":"PLEkQk5xrP-tnW3iBL7HkKziOFCFZbTlf0","playlistName":"شرح البرهان في علوم القرآن - أ.د. يسري جبر","category":"تفسير"},{"id":"V31NqQSrRpE","title":"511- قاعدة فيما إذا ذُكِرَ الاسمُ مرتين: 2- أن يكونا نَكِرَتَيْن - شرح البرهان في علوم القرآن","publishedAt":"2022-05-21T05:15:00Z","duration":"PT18M23S","thumbnail":"https://i.ytimg.com/vi/V31NqQSrRpE/mqdefault.jpg","viewCount":"740","playlistId":"PLEkQk5xrP-tnW3iBL7HkKziOFCFZbTlf0","playlistName":"شرح البرهان في علوم القرآن - أ.د. يسري جبر","category":"تفسير"},{"id":"5arkjNhQQhE","title":"510- قاعدة فيما إذا ذكر الاسم مرتين: 1- أن يكونا مُعَرَّفتين - شرح البرهان في علوم القرآن","publishedAt":"2022-05-20T05:15:00Z","duration":"PT37M19S","thumbnail":"https://i.ytimg.com/vi/5arkjNhQQhE/mqdefault.jpg","viewCount":"2813","playlistId":"PLEkQk5xrP-tnW3iBL7HkKziOFCFZbTlf0","playlistName":"شرح البرهان في علوم القرآن - أ.د. يسري جبر","category":"تفسير"},{"id":"mo2_M7MNYrA","title":"509- أسبابُ التنكير - شرح البرهان في علوم القرآن","publishedAt":"2022-05-18T05:10:00Z","duration":"PT25M32S","thumbnail":"https://i.ytimg.com/vi/mo2_M7MNYrA/mqdefault.jpg","viewCount":"830","playlistId":"PLEkQk5xrP-tnW3iBL7HkKziOFCFZbTlf0","playlistName":"شرح البرهان في علوم القرآن - أ.د. يسري جبر","category":"تفسير"},{"id":"peYjM5vfghg","title":"508- التعريف والتنكير - شرح البرهان في علوم القرآن","publishedAt":"2022-05-15T07:15:03Z","duration":"PT52M10S","thumbnail":"https://i.ytimg.com/vi/peYjM5vfghg/mqdefault.jpg","viewCount":"887","playlistId":"PLEkQk5xrP-tnW3iBL7HkKziOFCFZbTlf0","playlistName":"شرح البرهان في علوم القرآن - أ.د. يسري جبر","category":"تفسير"},{"id":"2xSsN31zq7M","title":"507- الفرق بين الإتيان والإعطاء - شرح البرهان في علوم القرآن","publishedAt":"2022-05-14T05:45:01Z","duration":"PT15M21S","thumbnail":"https://i.ytimg.com/vi/2xSsN31zq7M/mqdefault.jpg","viewCount":"2895","playlistId":"PLEkQk5xrP-tnW3iBL7HkKziOFCFZbTlf0","playlistName":"شرح البرهان في علوم القرآن - أ.د. يسري جبر","category":"تفسير"},{"id":"GrLD0quxYK8","title":"506- الفرق بين القعود والجلوس وبين التمام والكمال وبين الضياء والنور","publishedAt":"2022-05-12T05:00:05Z","duration":"PT24M25S","thumbnail":"https://i.ytimg.com/vi/GrLD0quxYK8/mqdefault.jpg","viewCount":"1314","playlistId":"PLEkQk5xrP-tnW3iBL7HkKziOFCFZbTlf0","playlistName":"شرح البرهان في علوم القرآن - أ.د. يسري جبر","category":"تفسير"},{"id":"OZVl8gk-vO8","title":"505- الفَرْقُ بين الخَطْفِ والتَّخَطُّف - شرح البرهان في علوم القرآن","publishedAt":"2022-05-11T05:00:13Z","duration":"PT16M29S","thumbnail":"https://i.ytimg.com/vi/OZVl8gk-vO8/mqdefault.jpg","viewCount":"1092","playlistId":"PLEkQk5xrP-tnW3iBL7HkKziOFCFZbTlf0","playlistName":"شرح البرهان في علوم القرآن - أ.د. يسري جبر","category":"تفسير"},{"id":"oBzr_W8VMwI","title":"504- ألفاظ يُظن بها الترادف وليست منه","publishedAt":"2022-05-09T06:00:17Z","duration":"PT21M54S","thumbnail":"https://i.ytimg.com/vi/oBzr_W8VMwI/mqdefault.jpg","viewCount":"1772","playlistId":"PLEkQk5xrP-tnW3iBL7HkKziOFCFZbTlf0","playlistName":"شرح البرهان في علوم القرآن - أ.د. يسري جبر","category":"تفسير"},{"id":"B3Z-7x7eG6M","title":"503- النَّفي بين الْكَلَامَيْنِ يفيد الإخبار  - شرح البرهان في علوم القرآن","publishedAt":"2022-05-08T05:00:02Z","duration":"PT30M9S","thumbnail":"https://i.ytimg.com/vi/B3Z-7x7eG6M/mqdefault.jpg","viewCount":"881","playlistId":"PLEkQk5xrP-tnW3iBL7HkKziOFCFZbTlf0","playlistName":"شرح البرهان في علوم القرآن - أ.د. يسري جبر","category":"تفسير"},{"id":"HUk5RSTNxu0","title":"502-قاعدة في قوله تعالى: فَمَنْ أَظْلَمُ مِمَّنِ افْتَرَىٰ عَلَى اللَّهِ كَذِبًا","publishedAt":"2022-05-01T05:00:04Z","duration":"PT23M13S","thumbnail":"https://i.ytimg.com/vi/HUk5RSTNxu0/mqdefault.jpg","viewCount":"671","playlistId":"PLEkQk5xrP-tnW3iBL7HkKziOFCFZbTlf0","playlistName":"شرح البرهان في علوم القرآن - أ.د. يسري جبر","category":"تفسير"},{"id":"Ni7lzltRKtM","title":"501- قاعدة في قوله تعالى: مَن فِي السَّمَاوَاتِ وَالْأَرْضِ - شرح البرهان في علوم القرآن","publishedAt":"2022-04-29T19:30:01Z","duration":"PT10M13S","thumbnail":"https://i.ytimg.com/vi/Ni7lzltRKtM/mqdefault.jpg","viewCount":"843","playlistId":"PLEkQk5xrP-tnW3iBL7HkKziOFCFZbTlf0","playlistName":"شرح البرهان في علوم القرآن - أ.د. يسري جبر","category":"تفسير"},{"id":"BzNpLoLU1zs","title":"500- مُضْمَرُ الفعل كمظهره في إفادة الحدوث - شرح البرهان في علوم القرآن","publishedAt":"2022-04-28T05:00:04Z","duration":"PT29M8S","thumbnail":"https://i.ytimg.com/vi/BzNpLoLU1zs/mqdefault.jpg","viewCount":"542","playlistId":"PLEkQk5xrP-tnW3iBL7HkKziOFCFZbTlf0","playlistName":"شرح البرهان في علوم القرآن - أ.د. يسري جبر","category":"تفسير"},{"id":"OnfS0_-P-Z4","title":"499- الفَرقُ بينَ الخِطَابِ بالاسمِ والفعل - شرح البرهان في علوم القرآن","publishedAt":"2022-04-26T05:00:08Z","duration":"PT32M32S","thumbnail":"https://i.ytimg.com/vi/OnfS0_-P-Z4/mqdefault.jpg","viewCount":"990","playlistId":"PLEkQk5xrP-tnW3iBL7HkKziOFCFZbTlf0","playlistName":"شرح البرهان في علوم القرآن - أ.د. يسري جبر","category":"تفسير"},{"id":"A3IfUUVLSjs","title":"498- ذِكْرُ الرَّحْمَةِ والعَذَابِ في القُرآن - شرح البرهان في علوم القرآن","publishedAt":"2022-04-24T05:00:06Z","duration":"PT26M24S","thumbnail":"https://i.ytimg.com/vi/A3IfUUVLSjs/mqdefault.jpg","viewCount":"657","playlistId":"PLEkQk5xrP-tnW3iBL7HkKziOFCFZbTlf0","playlistName":"شرح البرهان في علوم القرآن - أ.د. يسري جبر","category":"تفسير"},{"id":"pKFPKntkImw","title":"497- التَّأدُّبُ في الخِطَابِ بإضَافَةِ الخَيرِ إلى الله - شرح البرهان في علوم القرآن","publishedAt":"2022-04-22T05:00:30Z","duration":"PT35M38S","thumbnail":"https://i.ytimg.com/vi/pKFPKntkImw/mqdefault.jpg","viewCount":"745","playlistId":"PLEkQk5xrP-tnW3iBL7HkKziOFCFZbTlf0","playlistName":"شرح البرهان في علوم القرآن - أ.د. يسري جبر","category":"تفسير"},{"id":"NW8dEusdEM0","title":"496- الخِطابُ بالشيء عن اعتقاد المُخَاطَبِ دون ما في نفْس الأمر - شرح البرهان في علوم القرآن","publishedAt":"2022-04-20T05:00:16Z","duration":"PT23M25S","thumbnail":"https://i.ytimg.com/vi/NW8dEusdEM0/mqdefault.jpg","viewCount":"534","playlistId":"PLEkQk5xrP-tnW3iBL7HkKziOFCFZbTlf0","playlistName":"شرح البرهان في علوم القرآن - أ.د. يسري جبر","category":"تفسير"}],"total":1097,"page":19,"pageSize":24,"totalPages":46}