{"items":[{"id":"b4Tf9hBk65s","title":"كما لايحب العمل المشترك كذلك لايحب القلب المشترك،العمل المشترك لا يقبله،والقلب المشترك لايُقبل عليه.","publishedAt":"2017-12-17T12:00:19Z","duration":"PT7M54S","thumbnail":"https://i.ytimg.com/vi/b4Tf9hBk65s/mqdefault.jpg","viewCount":"919","playlistId":"PLEkQk5xrP-tkI_meE148wc7V7XHlB0WPb","playlistName":"من الحكم العطائية  د. يسري جبر","category":"متنوع"},{"id":"DSzTYgrkalE","title":"من أكرمك فإنما أكرم فيك جميل ستره","publishedAt":"2016-10-21T19:16:23Z","duration":"PT4M18S","thumbnail":"https://i.ytimg.com/vi/DSzTYgrkalE/mqdefault.jpg","viewCount":"908","playlistId":"PLEkQk5xrP-tkI_meE148wc7V7XHlB0WPb","playlistName":"من الحكم العطائية  د. يسري جبر","category":"متنوع"},{"id":"fHKOYKEMmFo","title":"من علامة اتباع الهوى: المسارعة إلى نوافل الخيرات، والتكاسل عن القيام بحقوق الواجبات","publishedAt":"2017-08-28T21:37:42Z","duration":"PT13M4S","thumbnail":"https://i.ytimg.com/vi/fHKOYKEMmFo/mqdefault.jpg","viewCount":"896","playlistId":"PLEkQk5xrP-tkI_meE148wc7V7XHlB0WPb","playlistName":"من الحكم العطائية  د. يسري جبر","category":"متنوع"},{"id":"1-lck3JcIEg","title":"الزهاد إذا مدحواانقبضوا،لشهودهم الثناء من الخلق والعارفون إذا مدحواانبسطوالشهودهم ذلك من الملِك الحق","publishedAt":"2017-03-09T21:18:54Z","duration":"PT10M32S","thumbnail":"https://i.ytimg.com/vi/1-lck3JcIEg/mqdefault.jpg","viewCount":"872","playlistId":"PLEkQk5xrP-tkI_meE148wc7V7XHlB0WPb","playlistName":"من الحكم العطائية  د. يسري جبر","category":"متنوع"},{"id":"c4i0LY3IO60","title":"مَنْ لم يعرف قدر النعم بوجدانها، عرفها بوجود فقدانها","publishedAt":"2017-09-03T18:43:55Z","duration":"PT10M21S","thumbnail":"https://i.ytimg.com/vi/c4i0LY3IO60/mqdefault.jpg","viewCount":"831","playlistId":"PLEkQk5xrP-tkI_meE148wc7V7XHlB0WPb","playlistName":"من الحكم العطائية  د. يسري جبر","category":"متنوع"},{"id":"wk0WXIhTrXo","title":"لا يُخْرِجُكَ عَنِ الوَصْفِ إلَّا شُهُودُ الوَصْفِ .","publishedAt":"2018-03-03T18:42:05Z","duration":"PT8M46S","thumbnail":"https://i.ytimg.com/vi/wk0WXIhTrXo/mqdefault.jpg","viewCount":"827","playlistId":"PLEkQk5xrP-tkI_meE148wc7V7XHlB0WPb","playlistName":"من الحكم العطائية  د. يسري جبر","category":"متنوع"},{"id":"UZQGZepBD7s","title":"عباراتهم إما لفيضان وجد أو لقصد هداية مُريد فالأول حال:السالكين والثاني:حال أرباب المُكنة والمتحققين","publishedAt":"2017-08-14T20:37:37Z","duration":"PT19M24S","thumbnail":"https://i.ytimg.com/vi/UZQGZepBD7s/mqdefault.jpg","viewCount":"827","playlistId":"PLEkQk5xrP-tkI_meE148wc7V7XHlB0WPb","playlistName":"من الحكم العطائية  د. يسري جبر","category":"متنوع"},{"id":"rtgSoi3fPas","title":"حقوق في الأوقات يمكن قضاؤها، وحقوق الأوقات لا يمكن قضاؤها ...","publishedAt":"2017-12-27T19:54:31Z","duration":"PT3M41S","thumbnail":"https://i.ytimg.com/vi/rtgSoi3fPas/mqdefault.jpg","viewCount":"825","playlistId":"PLEkQk5xrP-tkI_meE148wc7V7XHlB0WPb","playlistName":"من الحكم العطائية  د. يسري جبر","category":"متنوع"},{"id":"X23xO2VwvfI","title":"الناسُ يْمدحونك لِمَا يظُنُّون فيك فكُنْ أنت ذامَّا لنفسِك لِمَا تعلمُه منها","publishedAt":"2017-03-04T19:05:56Z","duration":"PT7M13S","thumbnail":"https://i.ytimg.com/vi/X23xO2VwvfI/mqdefault.jpg","viewCount":"796","playlistId":"PLEkQk5xrP-tkI_meE148wc7V7XHlB0WPb","playlistName":"من الحكم العطائية  د. يسري جبر","category":"متنوع"},{"id":"4fQwbmamtZg","title":"العِلمُ إنْ قَارَنَتْهُ الخَشْيَةُ .. فَلَكَ، وَإِلَّا فَعَلَيكَ.","publishedAt":"2018-02-24T18:04:10Z","duration":"PT10M29S","thumbnail":"https://i.ytimg.com/vi/4fQwbmamtZg/mqdefault.jpg","viewCount":"781","playlistId":"PLEkQk5xrP-tkI_meE148wc7V7XHlB0WPb","playlistName":"من الحكم العطائية  د. يسري جبر","category":"متنوع"},{"id":"caqARrutwrY","title":"أظهر كل شيء ، لأنه الباطن . وطوى وجود كل شيء ، لأنه الظاهر .","publishedAt":"2017-02-23T18:03:58Z","duration":"PT5M16S","thumbnail":"https://i.ytimg.com/vi/caqARrutwrY/mqdefault.jpg","viewCount":"781","playlistId":"PLEkQk5xrP-tkI_meE148wc7V7XHlB0WPb","playlistName":"من الحكم العطائية  د. يسري جبر","category":"متنوع"},{"id":"qRCPwFBaGl0","title":"لاتمدنَّ يدك إلى الأخذ من الخلائق إلا أن ترى أنَّ المعطي فيهم مولاك فإذا كنت كذلك فخذ ما وافقك العلم","publishedAt":"2017-08-24T14:31:29Z","duration":"PT8M6S","thumbnail":"https://i.ytimg.com/vi/qRCPwFBaGl0/mqdefault.jpg","viewCount":"699","playlistId":"PLEkQk5xrP-tkI_meE148wc7V7XHlB0WPb","playlistName":"من الحكم العطائية  د. يسري جبر","category":"متنوع"},{"id":"Aqh-5osgNV0","title":"أوجب عليك وجود خدمته، وما أوجب عليك في الحقيقة إلا دخول جنته.","publishedAt":"2017-09-01T20:50:44Z","duration":"PT9M17S","thumbnail":"https://i.ytimg.com/vi/Aqh-5osgNV0/mqdefault.jpg","viewCount":"672","playlistId":"PLEkQk5xrP-tkI_meE148wc7V7XHlB0WPb","playlistName":"من الحكم العطائية  د. يسري جبر","category":"متنوع"},{"id":"DVEyjaY3Kk0","title":"لا تدهشك واردات النعم عن القيام بحقوق شكرك، فإن ذلك مما يحطُّ من وجود قدرك","publishedAt":"2017-09-05T18:38:27Z","duration":"PT12M8S","thumbnail":"https://i.ytimg.com/vi/DVEyjaY3Kk0/mqdefault.jpg","viewCount":"576","playlistId":"PLEkQk5xrP-tkI_meE148wc7V7XHlB0WPb","playlistName":"من الحكم العطائية  د. يسري جبر","category":"متنوع"},{"id":"CyGleXILhBc","title":"قيد الطاعات بأنواع الأوقات، كي لا يمنعك عنها وجود التسويف، ووسع الوقت عليك، كي تبقى لك حصة الاختيار.","publishedAt":"2017-08-29T19:34:54Z","duration":"PT6M16S","thumbnail":"https://i.ytimg.com/vi/CyGleXILhBc/mqdefault.jpg","viewCount":"553","playlistId":"PLEkQk5xrP-tkI_meE148wc7V7XHlB0WPb","playlistName":"من الحكم العطائية  د. يسري جبر","category":"متنوع"},{"id":"UVquw7Xbllg","title":"علم قلة نهوض العباد إلى معاملته، فأوجب عليهم وجود طاعته، فساقهم إليه بسلاسل الإيجاب","publishedAt":"2017-09-01T19:10:43Z","duration":"PT4M45S","thumbnail":"https://i.ytimg.com/vi/UVquw7Xbllg/mqdefault.jpg","viewCount":"511","playlistId":"PLEkQk5xrP-tkI_meE148wc7V7XHlB0WPb","playlistName":"من الحكم العطائية  د. يسري جبر","category":"متنوع"}],"total":136,"page":6,"pageSize":24,"totalPages":6}