{"items":[{"id":"mHCd5M4ULto","title":"لولا ميادين النفوس، ما تحقَّق سير السائرين..إذ لا مسافة بينك وبينه حتى تطويها رحلتك...","publishedAt":"2018-01-19T12:48:46Z","duration":"PT11M56S","thumbnail":"https://i.ytimg.com/vi/mHCd5M4ULto/mqdefault.jpg","viewCount":"4437","playlistId":"PLEkQk5xrP-tkI_meE148wc7V7XHlB0WPb","playlistName":"من الحكم العطائية  د. يسري جبر","category":"متنوع"},{"id":"_UHrQz6evBo","title":"العارفون إذا بُسِطوا ، أخوفُ منهم إذا قُبِضوا ، ولا يقف على حدود الأدب في البسط إلا قليل","publishedAt":"2016-11-03T12:28:16Z","duration":"PT14M22S","thumbnail":"https://i.ytimg.com/vi/_UHrQz6evBo/mqdefault.jpg","viewCount":"4415","playlistId":"PLEkQk5xrP-tkI_meE148wc7V7XHlB0WPb","playlistName":"من الحكم العطائية  د. يسري جبر","category":"متنوع"},{"id":"unonb1Dud7k","title":"الفاقاتُ بُسُطُ المَوَاهِبِ","publishedAt":"2017-05-28T17:22:28Z","duration":"PT8M12S","thumbnail":"https://i.ytimg.com/vi/unonb1Dud7k/mqdefault.jpg","viewCount":"3956","playlistId":"PLEkQk5xrP-tkI_meE148wc7V7XHlB0WPb","playlistName":"من الحكم العطائية  د. يسري جبر","category":"متنوع"},{"id":"6eaacO4vqJ4","title":"عَلِم أنَّ العباد يتشوفون إلى ظهور سر العناية ، فقال \" يَخْتَصُّ بِرَحْمَتِهِ مَن يَشَاءُ \"","publishedAt":"2017-05-07T21:31:34Z","duration":"PT5M50S","thumbnail":"https://i.ytimg.com/vi/6eaacO4vqJ4/mqdefault.jpg","viewCount":"3823","playlistId":"PLEkQk5xrP-tkI_meE148wc7V7XHlB0WPb","playlistName":"من الحكم العطائية  د. يسري جبر","category":"متنوع"},{"id":"ySU6WYBdxpA","title":"كن بأوصاف ربوبيته متعلقا وبأوصاف عبوديتك متحققا","publishedAt":"2016-10-16T17:54:18Z","duration":"PT18M28S","thumbnail":"https://i.ytimg.com/vi/ySU6WYBdxpA/mqdefault.jpg","viewCount":"3817","playlistId":"PLEkQk5xrP-tkI_meE148wc7V7XHlB0WPb","playlistName":"من الحكم العطائية  د. يسري جبر","category":"متنوع"},{"id":"t2pYiELIY8U","title":"لو أنك لا تصل إليه إلا بعد فناء مساويك ، ومحو دعاويك ، لم تصل إليه أبدا.","publishedAt":"2016-10-18T19:30:13Z","duration":"PT6M23S","thumbnail":"https://i.ytimg.com/vi/t2pYiELIY8U/mqdefault.jpg","viewCount":"3554","playlistId":"PLEkQk5xrP-tkI_meE148wc7V7XHlB0WPb","playlistName":"من الحكم العطائية  د. يسري جبر","category":"متنوع"},{"id":"9HmXrpCR8aI","title":"لا يُخافُ عليك أن تلتبس الطُّرُقُ عليك ، وإنما يُخافُ عليك من غَلَبَةِ الهوى عليك","publishedAt":"2016-12-07T18:42:10Z","duration":"PT6M21S","thumbnail":"https://i.ytimg.com/vi/9HmXrpCR8aI/mqdefault.jpg","viewCount":"3449","playlistId":"PLEkQk5xrP-tkI_meE148wc7V7XHlB0WPb","playlistName":"من الحكم العطائية  د. يسري جبر","category":"متنوع"},{"id":"Mbil34s6r0g","title":"ربما وقفت القلوب مع الأنوار، كما حُجبت النفوس بكثائف الأغيار.","publishedAt":"2017-03-29T19:36:54Z","duration":"PT6M7S","thumbnail":"https://i.ytimg.com/vi/Mbil34s6r0g/mqdefault.jpg","viewCount":"3273","playlistId":"PLEkQk5xrP-tkI_meE148wc7V7XHlB0WPb","playlistName":"من الحكم العطائية  د. يسري جبر","category":"متنوع"},{"id":"OoVkrr1yUtg","title":"إذا أرادَ أن يُظهِرَ فضلَه عليك خَلَقَ ونَسَبَ إليك","publishedAt":"2017-01-29T12:34:01Z","duration":"PT9M47S","thumbnail":"https://i.ytimg.com/vi/OoVkrr1yUtg/mqdefault.jpg","viewCount":"3267","playlistId":"PLEkQk5xrP-tkI_meE148wc7V7XHlB0WPb","playlistName":"من الحكم العطائية  د. يسري جبر","category":"متنوع"},{"id":"Z6hL97JKP68","title":"مطلبُ العارفين من الله الصدقُ في العُبُوديَّة ، والقيامُ بحقوق الرُّبُوبَِّية","publishedAt":"2016-11-01T19:51:09Z","duration":"PT5M55S","thumbnail":"https://i.ytimg.com/vi/Z6hL97JKP68/mqdefault.jpg","viewCount":"3186","playlistId":"PLEkQk5xrP-tkI_meE148wc7V7XHlB0WPb","playlistName":"من الحكم العطائية  د. يسري جبر","category":"متنوع"},{"id":"rVv0GKCcV2o","title":"من اطَّلع على أسرار العباد، ولم يتخلق بالرحمة الإلهية كان اطِّلاعه فتنة عليه وسببا لجرِّ الوبال إليه","publishedAt":"2017-04-16T21:20:04Z","duration":"PT7M41S","thumbnail":"https://i.ytimg.com/vi/rVv0GKCcV2o/mqdefault.jpg","viewCount":"3060","playlistId":"PLEkQk5xrP-tkI_meE148wc7V7XHlB0WPb","playlistName":"من الحكم العطائية  د. يسري جبر","category":"متنوع"},{"id":"7uXYl9WdnzA","title":"مَن عبّر من بساط إحسانه، أصمتته الإساءة، ومَن عبّر من بساط إحسان الله إليه، لم يصمت إذا أساء","publishedAt":"2017-06-13T15:32:09Z","duration":"PT11M35S","thumbnail":"https://i.ytimg.com/vi/7uXYl9WdnzA/mqdefault.jpg","viewCount":"2973","playlistId":"PLEkQk5xrP-tkI_meE148wc7V7XHlB0WPb","playlistName":"من الحكم العطائية  د. يسري جبر","category":"متنوع"},{"id":"MDDfUdtkOkM","title":"ما الشأن وجود الطلب ، إنما الشأن أن ترزق حسن الأدب","publishedAt":"2017-02-04T19:23:09Z","duration":"PT14M38S","thumbnail":"https://i.ytimg.com/vi/MDDfUdtkOkM/mqdefault.jpg","viewCount":"2887","playlistId":"PLEkQk5xrP-tkI_meE148wc7V7XHlB0WPb","playlistName":"من الحكم العطائية  د. يسري جبر","category":"متنوع"},{"id":"EjetYixsl_I","title":"إذا عَلِمتَ أنَّ الشيطانَ لا يَغفلُ عنك، فلا تَغفلْ أنت عَمَّنْ ناصيتُكَ بيده.","publishedAt":"2018-01-17T20:05:24Z","duration":"PT9M37S","thumbnail":"https://i.ytimg.com/vi/EjetYixsl_I/mqdefault.jpg","viewCount":"2868","playlistId":"PLEkQk5xrP-tkI_meE148wc7V7XHlB0WPb","playlistName":"من الحكم العطائية  د. يسري جبر","category":"متنوع"},{"id":"3bobscuD7ns","title":"حظ النفس في المعصية ظاهر جليّ، وحظها في الطاعة باطن خفيّ، ومداوة ما يخفى صعب علاجه","publishedAt":"2017-04-17T20:24:43Z","duration":"PT6M28S","thumbnail":"https://i.ytimg.com/vi/3bobscuD7ns/mqdefault.jpg","viewCount":"2801","playlistId":"PLEkQk5xrP-tkI_meE148wc7V7XHlB0WPb","playlistName":"من الحكم العطائية  د. يسري جبر","category":"متنوع"},{"id":"J1MNCtwkSNM","title":"نور مستودع في القلوب، مدده من النور الوارد من خزائن الغيوب .","publishedAt":"2017-03-27T18:08:50Z","duration":"PT15M22S","thumbnail":"https://i.ytimg.com/vi/J1MNCtwkSNM/mqdefault.jpg","viewCount":"2781","playlistId":"PLEkQk5xrP-tkI_meE148wc7V7XHlB0WPb","playlistName":"من الحكم العطائية  د. يسري جبر","category":"متنوع"},{"id":"espUFSDm1WU","title":"دَلَّ بوجُود آثاره على وجُود أسمائه،وبوجُود أسمائه على ثُبوت أوصافه، وبثُبوت أوصافه على وجود ذاته...","publishedAt":"2018-01-26T19:46:57Z","duration":"PT19M3S","thumbnail":"https://i.ytimg.com/vi/espUFSDm1WU/mqdefault.jpg","viewCount":"2628","playlistId":"PLEkQk5xrP-tkI_meE148wc7V7XHlB0WPb","playlistName":"من الحكم العطائية  د. يسري جبر","category":"متنوع"},{"id":"IJValUpcEjc","title":"عنايتُه فيك لا لشيء منك، وأين كنت حين واجهتْك عنايتُه، وقابلتْك رعايتُه","publishedAt":"2017-05-04T19:50:50Z","duration":"PT4M57S","thumbnail":"https://i.ytimg.com/vi/IJValUpcEjc/mqdefault.jpg","viewCount":"2521","playlistId":"PLEkQk5xrP-tkI_meE148wc7V7XHlB0WPb","playlistName":"من الحكم العطائية  د. يسري جبر","category":"متنوع"},{"id":"tIxD5NdK7IQ","title":"نعمتان ما خرج موجود عنهما ، ولابدَّ لكل مُكوَّن منهما : نعمة الإيجاد ، ونعمة الإمداد .","publishedAt":"2016-11-11T20:13:21Z","duration":"PT20M32S","thumbnail":"https://i.ytimg.com/vi/tIxD5NdK7IQ/mqdefault.jpg","viewCount":"2498","playlistId":"PLEkQk5xrP-tkI_meE148wc7V7XHlB0WPb","playlistName":"من الحكم العطائية  د. يسري جبر","category":"متنوع"},{"id":"c5-5ciqYJ5w","title":"خير أوقاتك : وقت تشهد فيه وجود فاقتك ، وتُردُّ فيه إلى وجود ذِلَّتك","publishedAt":"2016-11-12T19:22:17Z","duration":"PT12M35S","thumbnail":"https://i.ytimg.com/vi/c5-5ciqYJ5w/mqdefault.jpg","viewCount":"2485","playlistId":"PLEkQk5xrP-tkI_meE148wc7V7XHlB0WPb","playlistName":"من الحكم العطائية  د. يسري جبر","category":"متنوع"},{"id":"rSkTilbDMnw","title":"مَنْ ظنَّ انفكاك لُطفه عن قَدَره ، فذلك لقصور نَظَرِه .","publishedAt":"2016-12-04T19:43:29Z","duration":"PT7M7S","thumbnail":"https://i.ytimg.com/vi/rSkTilbDMnw/mqdefault.jpg","viewCount":"2452","playlistId":"PLEkQk5xrP-tkI_meE148wc7V7XHlB0WPb","playlistName":"من الحكم العطائية  د. يسري جبر","category":"متنوع"},{"id":"fPDgfktnfH4","title":"الكائنُ في الكَونِ ولم تُفْتح له ميادينُ الغُيوبِ، مَسْجونٌ بمُحيطاته، ومَحْصُورٌ في هَيكل ذاتِه.","publishedAt":"2018-01-24T18:40:47Z","duration":"PT7M36S","thumbnail":"https://i.ytimg.com/vi/fPDgfktnfH4/mqdefault.jpg","viewCount":"2449","playlistId":"PLEkQk5xrP-tkI_meE148wc7V7XHlB0WPb","playlistName":"من الحكم العطائية  د. يسري جبر","category":"متنوع"},{"id":"pEx57SzKRdQ","title":"تمكُّنُ حلاوةِ الهَوَى من القلبِ هُوَ الدَّاءُ العُضَالُ (1)","publishedAt":"2017-09-06T20:01:27Z","duration":"PT15M44S","thumbnail":"https://i.ytimg.com/vi/pEx57SzKRdQ/mqdefault.jpg","viewCount":"2441","playlistId":"PLEkQk5xrP-tkI_meE148wc7V7XHlB0WPb","playlistName":"من الحكم العطائية  د. يسري جبر","category":"متنوع"},{"id":"O3I3NWmLqbc","title":"الرَّجَاءُ مَا قارنَه عَمَلٌ ، وإلَّا .. فهُو أُمْنِيَةٌ !","publishedAt":"2016-11-01T18:50:37Z","duration":"PT4M26S","thumbnail":"https://i.ytimg.com/vi/O3I3NWmLqbc/mqdefault.jpg","viewCount":"2409","playlistId":"PLEkQk5xrP-tkI_meE148wc7V7XHlB0WPb","playlistName":"من الحكم العطائية  د. يسري جبر","category":"متنوع"}],"total":136,"page":3,"pageSize":24,"totalPages":6}