{"items":[{"id":"gDn0c4Rw1bk","title":"مَا فَاتَ مِنْ عُمُرِكَ لا عِوضَ لَه، وما حَصَلَ لَكَ مِنْه لا قِيمَةَ لَه.","publishedAt":"2017-12-29T18:05:34Z","duration":"PT7M15S","thumbnail":"https://i.ytimg.com/vi/gDn0c4Rw1bk/mqdefault.jpg","viewCount":"2404","playlistId":"PLEkQk5xrP-tkI_meE148wc7V7XHlB0WPb","playlistName":"من الحكم العطائية  د. يسري جبر","category":"متنوع"},{"id":"FQny9E1h8K4","title":"إذا وقع منك ذنب ، فلا يكن سببا يؤيسك من حصول الاستقامة مع ربك فقد يكون ذلك آخر ذنب قُدِّر عليك","publishedAt":"2017-03-15T18:05:39Z","duration":"PT5M30S","thumbnail":"https://i.ytimg.com/vi/FQny9E1h8K4/mqdefault.jpg","viewCount":"2360","playlistId":"PLEkQk5xrP-tkI_meE148wc7V7XHlB0WPb","playlistName":"من الحكم العطائية  د. يسري جبر","category":"متنوع"},{"id":"H_75jgY9bCg","title":"الأكوان ظاهرها غِرَّة ، وباطنها عِبرة ، فالنفس تنظر إلى ظاهرغِرَّتها ، والقلب ينظر إلى باطن عِبرتها","publishedAt":"2016-11-03T18:52:13Z","duration":"PT6M2S","thumbnail":"https://i.ytimg.com/vi/H_75jgY9bCg/mqdefault.jpg","viewCount":"2295","playlistId":"PLEkQk5xrP-tkI_meE148wc7V7XHlB0WPb","playlistName":"من الحكم العطائية  د. يسري جبر","category":"متنوع"},{"id":"BwWck1TNEpE","title":"إنْ رغَّبتْكَ البداياتُ، زَهَّدتْكَ النِّهَاياتُ، إنْ دعَاكَ إليها ظاهرٌ، نهَاكَ إليها باطنٌ.","publishedAt":"2018-02-10T17:15:08Z","duration":"PT11M34S","thumbnail":"https://i.ytimg.com/vi/BwWck1TNEpE/mqdefault.jpg","viewCount":"2236","playlistId":"PLEkQk5xrP-tkI_meE148wc7V7XHlB0WPb","playlistName":"من الحكم العطائية  د. يسري جبر","category":"متنوع"},{"id":"UaK-Rc1Q-oQ","title":"العطاءُ من الخَلْق حِرْمَان ، والمَنْعُ من اللهِ عَزَّ وجَلَّ إحْسانٌ","publishedAt":"2016-11-05T19:02:55Z","duration":"PT3M33S","thumbnail":"https://i.ytimg.com/vi/UaK-Rc1Q-oQ/mqdefault.jpg","viewCount":"2211","playlistId":"PLEkQk5xrP-tkI_meE148wc7V7XHlB0WPb","playlistName":"من الحكم العطائية  د. يسري جبر","category":"متنوع"},{"id":"OjYVsBKJ_P8","title":"إنْ أرَدْتَ أن يكونَ لكَ عِزٌ لا يَفنى ، فلا تسْتَعِزَّنَّ بعِزِّ يَفنى","publishedAt":"2016-11-04T18:44:21Z","duration":"PT2M37S","thumbnail":"https://i.ytimg.com/vi/OjYVsBKJ_P8/mqdefault.jpg","viewCount":"2168","playlistId":"PLEkQk5xrP-tkI_meE148wc7V7XHlB0WPb","playlistName":"من الحكم العطائية  د. يسري جبر","category":"متنوع"},{"id":"hwrU3zHLo10","title":"ربما دخل الرياء عليك من حيث لا ينظر الخلق إليك.","publishedAt":"2017-04-22T18:21:40Z","duration":"PT5M46S","thumbnail":"https://i.ytimg.com/vi/hwrU3zHLo10/mqdefault.jpg","viewCount":"2137","playlistId":"PLEkQk5xrP-tkI_meE148wc7V7XHlB0WPb","playlistName":"من الحكم العطائية  د. يسري جبر","category":"متنوع"},{"id":"_LOxIBY3d_g","title":"لمَّا عَلِمَ الحقُّ منك وجودَ المَلل ، لوَّن لك الطاعات .","publishedAt":"2017-01-22T18:33:11Z","duration":"PT9M56S","thumbnail":"https://i.ytimg.com/vi/_LOxIBY3d_g/mqdefault.jpg","viewCount":"2063","playlistId":"PLEkQk5xrP-tkI_meE148wc7V7XHlB0WPb","playlistName":"من الحكم العطائية  د. يسري جبر","category":"متنوع"},{"id":"ItAtmB3FDYA","title":"لا تُطالِبْ ربَّك بتأخر مطلبك ، ولكن طالِبْ نفسك بتأخر أدبك","publishedAt":"2016-12-09T18:15:45Z","duration":"PT2M55S","thumbnail":"https://i.ytimg.com/vi/ItAtmB3FDYA/mqdefault.jpg","viewCount":"2022","playlistId":"PLEkQk5xrP-tkI_meE148wc7V7XHlB0WPb","playlistName":"من الحكم العطائية  د. يسري جبر","category":"متنوع"},{"id":"zsIWM_YF09A","title":"مَنْ عَبَدَه لشيء يرجوه منه ، أو ليدفع بطاعته وُرُود العقوبة عنه ، فما قام بحق أوصافه .","publishedAt":"2016-11-07T19:31:45Z","duration":"PT4M46S","thumbnail":"https://i.ytimg.com/vi/zsIWM_YF09A/mqdefault.jpg","viewCount":"1951","playlistId":"PLEkQk5xrP-tkI_meE148wc7V7XHlB0WPb","playlistName":"من الحكم العطائية  د. يسري جبر","category":"متنوع"},{"id":"dyraKTlanww","title":"جعلكَ في العالم المتوسِّط بين مُلْكِه ومَلكُوته لِيُعْلِمَكَ جلالةَ قدْرِكَ بين مخلوقاته...","publishedAt":"2018-03-08T18:58:31Z","duration":"PT9M26S","thumbnail":"https://i.ytimg.com/vi/dyraKTlanww/mqdefault.jpg","viewCount":"1950","playlistId":"PLEkQk5xrP-tkI_meE148wc7V7XHlB0WPb","playlistName":"من الحكم العطائية  د. يسري جبر","category":"متنوع"},{"id":"NstftfJUVR8","title":"الستر على قسمين : ستر عن المعصية ، وستر فيها","publishedAt":"2016-10-21T19:12:53Z","duration":"PT4M13S","thumbnail":"https://i.ytimg.com/vi/NstftfJUVR8/mqdefault.jpg","viewCount":"1886","playlistId":"PLEkQk5xrP-tkI_meE148wc7V7XHlB0WPb","playlistName":"من الحكم العطائية  د. يسري جبر","category":"متنوع"},{"id":"zK2MY5jT7PQ","title":"ليُخفف ألم البلاء عنك عِلْمُك بأنه سبحانه وتعالى هو المُبْلِي لك","publishedAt":"2016-11-30T17:41:13Z","duration":"PT1M38S","thumbnail":"https://i.ytimg.com/vi/zK2MY5jT7PQ/mqdefault.jpg","viewCount":"1844","playlistId":"PLEkQk5xrP-tkI_meE148wc7V7XHlB0WPb","playlistName":"من الحكم العطائية  د. يسري جبر","category":"متنوع"},{"id":"HqFzyGYs44o","title":"الصلاةُ طَهارةٌ ( طُُهرةٌ ) للقلوب من أدناس الذنوب، واستفتاحٌ لِبَابِ الغُيوب","publishedAt":"2017-01-25T17:28:27Z","duration":"PT12M31S","thumbnail":"https://i.ytimg.com/vi/HqFzyGYs44o/mqdefault.jpg","viewCount":"1808","playlistId":"PLEkQk5xrP-tkI_meE148wc7V7XHlB0WPb","playlistName":"من الحكم العطائية  د. يسري جبر","category":"متنوع"},{"id":"M61EeeacpvQ","title":"علم منك أنك لا تصبر عنه ، فأشهدك ما برز منه","publishedAt":"2017-01-18T18:46:51Z","duration":"PT5M9S","thumbnail":"https://i.ytimg.com/vi/M61EeeacpvQ/mqdefault.jpg","viewCount":"1792","playlistId":"PLEkQk5xrP-tkI_meE148wc7V7XHlB0WPb","playlistName":"من الحكم العطائية  د. يسري جبر","category":"متنوع"},{"id":"GpUp-pkPcUw","title":"متى أعطاك،أشهدك بِرَّه،ومتى منعك،أشهدك قهره، فهو في كل ذلك مُتعِّرف إليك،ومُقبِل بوجود لطفه عليك","publishedAt":"2016-11-08T20:23:18Z","duration":"PT6M9S","thumbnail":"https://i.ytimg.com/vi/GpUp-pkPcUw/mqdefault.jpg","viewCount":"1775","playlistId":"PLEkQk5xrP-tkI_meE148wc7V7XHlB0WPb","playlistName":"من الحكم العطائية  د. يسري جبر","category":"متنوع"},{"id":"ZgMX1BQvWoQ","title":"كفى من جزائه إياك على الطاعة أن رضيك لها أهل","publishedAt":"2016-11-06T20:48:54Z","duration":"PT2M49S","thumbnail":"https://i.ytimg.com/vi/ZgMX1BQvWoQ/mqdefault.jpg","viewCount":"1768","playlistId":"PLEkQk5xrP-tkI_meE148wc7V7XHlB0WPb","playlistName":"من الحكم العطائية  د. يسري جبر","category":"متنوع"},{"id":"KFU0kQzKB2k","title":"لولا جميلُ ستره ، لم يكن عملٌ أهلا للقبول","publishedAt":"2016-10-20T18:05:14Z","duration":"PT12M39S","thumbnail":"https://i.ytimg.com/vi/KFU0kQzKB2k/mqdefault.jpg","viewCount":"1704","playlistId":"PLEkQk5xrP-tkI_meE148wc7V7XHlB0WPb","playlistName":"من الحكم العطائية  د. يسري جبر","category":"متنوع"},{"id":"xEawa2h8jhM","title":"استشرافك أن يعلم الخلق بخصوصيتك، دليلٌ على عدم صدقك في عبوديتك.","publishedAt":"2017-04-25T09:37:54Z","duration":"PT7M13S","thumbnail":"https://i.ytimg.com/vi/xEawa2h8jhM/mqdefault.jpg","viewCount":"1689","playlistId":"PLEkQk5xrP-tkI_meE148wc7V7XHlB0WPb","playlistName":"من الحكم العطائية  د. يسري جبر","category":"متنوع"},{"id":"1L6hZffZvus","title":"كيف يكون طلبك اللاحق سببا في عطائه السابق","publishedAt":"2017-05-04T15:42:38Z","duration":"PT8M34S","thumbnail":"https://i.ytimg.com/vi/1L6hZffZvus/mqdefault.jpg","viewCount":"1663","playlistId":"PLEkQk5xrP-tkI_meE148wc7V7XHlB0WPb","playlistName":"من الحكم العطائية  د. يسري جبر","category":"متنوع"},{"id":"BwHjmGGVhbc","title":"أمرك في هذه الدار بالنظر في مُكَوَّنَاته وسيكشف لك في تلك الدار عن كمال ذاته.","publishedAt":"2017-01-13T16:20:24Z","duration":"PT5M48S","thumbnail":"https://i.ytimg.com/vi/BwHjmGGVhbc/mqdefault.jpg","viewCount":"1649","playlistId":"PLEkQk5xrP-tkI_meE148wc7V7XHlB0WPb","playlistName":"من الحكم العطائية  د. يسري جبر","category":"متنوع"},{"id":"1C7lHWXYR2Q","title":"أجهل الناس مَنْ ترك يقين ما عنده لظن ما عند الناس","publishedAt":"2017-03-08T19:14:24Z","duration":"PT6M34S","thumbnail":"https://i.ytimg.com/vi/1C7lHWXYR2Q/mqdefault.jpg","viewCount":"1585","playlistId":"PLEkQk5xrP-tkI_meE148wc7V7XHlB0WPb","playlistName":"من الحكم العطائية  د. يسري جبر","category":"متنوع"},{"id":"ayLCEef7Bx4","title":"من علامة إقامة الحق لك في الشيء: إدامته إياك فيه مع حصول النتائج","publishedAt":"2017-06-12T17:26:11Z","duration":"PT3M48S","thumbnail":"https://i.ytimg.com/vi/ayLCEef7Bx4/mqdefault.jpg","viewCount":"1566","playlistId":"PLEkQk5xrP-tkI_meE148wc7V7XHlB0WPb","playlistName":"من الحكم العطائية  د. يسري جبر","category":"متنوع"},{"id":"Ap-AbZMnu5g","title":"لا نهاية لِمَذَامِّكَ إنْ أرْجَعَكَ إليك ، ولا تفْرُغ مَدائِحُك إنْ أظهر جُودَه عليك .","publishedAt":"2017-02-01T17:37:53Z","duration":"PT4M58S","thumbnail":"https://i.ytimg.com/vi/Ap-AbZMnu5g/mqdefault.jpg","viewCount":"1475","playlistId":"PLEkQk5xrP-tkI_meE148wc7V7XHlB0WPb","playlistName":"من الحكم العطائية  د. يسري جبر","category":"متنوع"}],"total":136,"page":4,"pageSize":24,"totalPages":6}