{"items":[{"id":"m3IhFqf1t-E","title":"83- شرح اللؤلؤ والمرجان كتاب الرضاع من الباب الثالث عشر","publishedAt":"2020-03-02T06:00:04Z","duration":"PT26M10S","thumbnail":"https://i.ytimg.com/vi/m3IhFqf1t-E/mqdefault.jpg","viewCount":"424","playlistId":"PLEkQk5xrP-tmKNjtYLfhATC37QdIsTMe0","playlistName":"شرح كتاب اللؤلؤ والمرجان فيما اتفق عليه الشيخان إماما المحدثين البخاري ومسلم. أ.د. يسري جبر","category":"حديث"},{"id":"m_AOIep7lyc","title":"84- شرح اللؤلؤ والمرجان كتاب الطلاق من أوله","publishedAt":"2020-03-03T06:00:05Z","duration":"PT29M18S","thumbnail":"https://i.ytimg.com/vi/m_AOIep7lyc/mqdefault.jpg","viewCount":"476","playlistId":"PLEkQk5xrP-tmKNjtYLfhATC37QdIsTMe0","playlistName":"شرح كتاب اللؤلؤ والمرجان فيما اتفق عليه الشيخان إماما المحدثين البخاري ومسلم. أ.د. يسري جبر","category":"حديث"},{"id":"PPBkI5OI1tk","title":"85- شرح اللؤلؤ والمرجان كتاب الطلاق من الباب الرابع","publishedAt":"2020-03-04T06:00:05Z","duration":"PT30M37S","thumbnail":"https://i.ytimg.com/vi/PPBkI5OI1tk/mqdefault.jpg","viewCount":"414","playlistId":"PLEkQk5xrP-tmKNjtYLfhATC37QdIsTMe0","playlistName":"شرح كتاب اللؤلؤ والمرجان فيما اتفق عليه الشيخان إماما المحدثين البخاري ومسلم. أ.د. يسري جبر","category":"حديث"},{"id":"PFe9d2xe_ps","title":"86- شرح اللؤلؤ والمرجان كتاب الطلاق من الباب السادس","publishedAt":"2020-03-05T06:00:02Z","duration":"PT21M8S","thumbnail":"https://i.ytimg.com/vi/PFe9d2xe_ps/mqdefault.jpg","viewCount":"301","playlistId":"PLEkQk5xrP-tmKNjtYLfhATC37QdIsTMe0","playlistName":"شرح كتاب اللؤلؤ والمرجان فيما اتفق عليه الشيخان إماما المحدثين البخاري ومسلم. أ.د. يسري جبر","category":"حديث"},{"id":"iX7gPmBkoVE","title":"87- شرح اللؤلؤ والمرجان كتاب اللعان من أوله","publishedAt":"2020-03-06T06:00:05Z","duration":"PT21M38S","thumbnail":"https://i.ytimg.com/vi/iX7gPmBkoVE/mqdefault.jpg","viewCount":"421","playlistId":"PLEkQk5xrP-tmKNjtYLfhATC37QdIsTMe0","playlistName":"شرح كتاب اللؤلؤ والمرجان فيما اتفق عليه الشيخان إماما المحدثين البخاري ومسلم. أ.د. يسري جبر","category":"حديث"},{"id":"9GHZGwNm3hY","title":"88- شرح اللؤلؤ والمرجان كتاب العتق من أوله","publishedAt":"2020-03-07T06:00:00Z","duration":"PT21M45S","thumbnail":"https://i.ytimg.com/vi/9GHZGwNm3hY/mqdefault.jpg","viewCount":"327","playlistId":"PLEkQk5xrP-tmKNjtYLfhATC37QdIsTMe0","playlistName":"شرح كتاب اللؤلؤ والمرجان فيما اتفق عليه الشيخان إماما المحدثين البخاري ومسلم. أ.د. يسري جبر","category":"حديث"},{"id":"FPWSXrI8aI0","title":"89- شرح اللؤلؤ والمرجان كتاب البيوع من أوله","publishedAt":"2020-03-08T06:00:04Z","duration":"PT34M50S","thumbnail":"https://i.ytimg.com/vi/FPWSXrI8aI0/mqdefault.jpg","viewCount":"381","playlistId":"PLEkQk5xrP-tmKNjtYLfhATC37QdIsTMe0","playlistName":"شرح كتاب اللؤلؤ والمرجان فيما اتفق عليه الشيخان إماما المحدثين البخاري ومسلم. أ.د. يسري جبر","category":"حديث"},{"id":"ShqOOS6lmDU","title":"90- شرح اللؤلؤ والمرجان كتاب البيوع من الباب العاشر","publishedAt":"2020-03-09T06:00:04Z","duration":"PT32M16S","thumbnail":"https://i.ytimg.com/vi/ShqOOS6lmDU/mqdefault.jpg","viewCount":"370","playlistId":"PLEkQk5xrP-tmKNjtYLfhATC37QdIsTMe0","playlistName":"شرح كتاب اللؤلؤ والمرجان فيما اتفق عليه الشيخان إماما المحدثين البخاري ومسلم. أ.د. يسري جبر","category":"حديث"},{"id":"YlIPeNKqzWg","title":"91- شرح اللؤلؤ والمرجان كتاب البيوع من الباب السادس عشر","publishedAt":"2020-03-10T06:00:03Z","duration":"PT17M24S","thumbnail":"https://i.ytimg.com/vi/YlIPeNKqzWg/mqdefault.jpg","viewCount":"394","playlistId":"PLEkQk5xrP-tmKNjtYLfhATC37QdIsTMe0","playlistName":"شرح كتاب اللؤلؤ والمرجان فيما اتفق عليه الشيخان إماما المحدثين البخاري ومسلم. أ.د. يسري جبر","category":"حديث"},{"id":"VkyrAxdu9N0","title":"92- شرح اللؤلؤ والمرجان كتاب المساقاة من أوله","publishedAt":"2020-03-11T09:15:00Z","duration":"PT25M4S","thumbnail":"https://i.ytimg.com/vi/VkyrAxdu9N0/mqdefault.jpg","viewCount":"379","playlistId":"PLEkQk5xrP-tmKNjtYLfhATC37QdIsTMe0","playlistName":"شرح كتاب اللؤلؤ والمرجان فيما اتفق عليه الشيخان إماما المحدثين البخاري ومسلم. أ.د. يسري جبر","category":"حديث"},{"id":"2djKqtLo_YY","title":"93- شرح اللؤلؤ والمرجان كتاب المساقاة من الباب السابع","publishedAt":"2020-03-12T06:30:00Z","duration":"PT32M5S","thumbnail":"https://i.ytimg.com/vi/2djKqtLo_YY/mqdefault.jpg","viewCount":"415","playlistId":"PLEkQk5xrP-tmKNjtYLfhATC37QdIsTMe0","playlistName":"شرح كتاب اللؤلؤ والمرجان فيما اتفق عليه الشيخان إماما المحدثين البخاري ومسلم. أ.د. يسري جبر","category":"حديث"},{"id":"eWj6gNTS5x0","title":"94- شرح اللؤلؤ والمرجان كتاب المساقاة من الباب الرابع عشر","publishedAt":"2020-03-13T06:30:04Z","duration":"PT28M28S","thumbnail":"https://i.ytimg.com/vi/eWj6gNTS5x0/mqdefault.jpg","viewCount":"404","playlistId":"PLEkQk5xrP-tmKNjtYLfhATC37QdIsTMe0","playlistName":"شرح كتاب اللؤلؤ والمرجان فيما اتفق عليه الشيخان إماما المحدثين البخاري ومسلم. أ.د. يسري جبر","category":"حديث"},{"id":"wqXmx4k5CV0","title":"95- شرح اللؤلؤ والمرجان كتاب المساقاة من الباب العشرين","publishedAt":"2020-03-14T06:30:00Z","duration":"PT30M8S","thumbnail":"https://i.ytimg.com/vi/wqXmx4k5CV0/mqdefault.jpg","viewCount":"351","playlistId":"PLEkQk5xrP-tmKNjtYLfhATC37QdIsTMe0","playlistName":"شرح كتاب اللؤلؤ والمرجان فيما اتفق عليه الشيخان إماما المحدثين البخاري ومسلم. أ.د. يسري جبر","category":"حديث"},{"id":"MBT1k4LR2Sc","title":"96- شرح اللؤلؤ والمرجان كتاب المساقاة من الباب الثامن و العشرين","publishedAt":"2020-03-15T06:30:04Z","duration":"PT16M35S","thumbnail":"https://i.ytimg.com/vi/MBT1k4LR2Sc/mqdefault.jpg","viewCount":"379","playlistId":"PLEkQk5xrP-tmKNjtYLfhATC37QdIsTMe0","playlistName":"شرح كتاب اللؤلؤ والمرجان فيما اتفق عليه الشيخان إماما المحدثين البخاري ومسلم. أ.د. يسري جبر","category":"حديث"},{"id":"64PZg2D2pX0","title":"97- شرح اللؤلؤ والمرجان كتاب الفرائض من أوله","publishedAt":"2020-03-16T08:30:01Z","duration":"PT16M39S","thumbnail":"https://i.ytimg.com/vi/64PZg2D2pX0/mqdefault.jpg","viewCount":"367","playlistId":"PLEkQk5xrP-tmKNjtYLfhATC37QdIsTMe0","playlistName":"شرح كتاب اللؤلؤ والمرجان فيما اتفق عليه الشيخان إماما المحدثين البخاري ومسلم. أ.د. يسري جبر","category":"حديث"},{"id":"mnvV6ENNNBk","title":"98- شرح اللؤلؤ والمرجان كتاب الهبات من أوله","publishedAt":"2020-03-17T06:30:00Z","duration":"PT17M20S","thumbnail":"https://i.ytimg.com/vi/mnvV6ENNNBk/mqdefault.jpg","viewCount":"343","playlistId":"PLEkQk5xrP-tmKNjtYLfhATC37QdIsTMe0","playlistName":"شرح كتاب اللؤلؤ والمرجان فيما اتفق عليه الشيخان إماما المحدثين البخاري ومسلم. أ.د. يسري جبر","category":"حديث"},{"id":"krrRrkXsXI8","title":"99- شرح اللؤلؤ والمرجان كتاب الوصية من أوله","publishedAt":"2020-03-18T06:30:03Z","duration":"PT21M46S","thumbnail":"https://i.ytimg.com/vi/krrRrkXsXI8/mqdefault.jpg","viewCount":"426","playlistId":"PLEkQk5xrP-tmKNjtYLfhATC37QdIsTMe0","playlistName":"شرح كتاب اللؤلؤ والمرجان فيما اتفق عليه الشيخان إماما المحدثين البخاري ومسلم. أ.د. يسري جبر","category":"حديث"},{"id":"nmjoqSDX5Y0","title":"100- شرح اللؤلؤ والمرجان كتاب النذر من أوله","publishedAt":"2020-03-19T06:30:03Z","duration":"PT11M58S","thumbnail":"https://i.ytimg.com/vi/nmjoqSDX5Y0/mqdefault.jpg","viewCount":"392","playlistId":"PLEkQk5xrP-tmKNjtYLfhATC37QdIsTMe0","playlistName":"شرح كتاب اللؤلؤ والمرجان فيما اتفق عليه الشيخان إماما المحدثين البخاري ومسلم. أ.د. يسري جبر","category":"حديث"},{"id":"lARtl2O1Sck","title":"101- شرح اللؤلؤ والمرجان كتاب الأيمان من أوله","publishedAt":"2020-03-20T06:30:04Z","duration":"PT22M24S","thumbnail":"https://i.ytimg.com/vi/lARtl2O1Sck/mqdefault.jpg","viewCount":"421","playlistId":"PLEkQk5xrP-tmKNjtYLfhATC37QdIsTMe0","playlistName":"شرح كتاب اللؤلؤ والمرجان فيما اتفق عليه الشيخان إماما المحدثين البخاري ومسلم. أ.د. يسري جبر","category":"حديث"},{"id":"wCjlzJNWujs","title":"102- شرح اللؤلؤ والمرجان كتاب الأيمان من الباب السادس","publishedAt":"2020-03-22T08:30:06Z","duration":"PT24M50S","thumbnail":"https://i.ytimg.com/vi/wCjlzJNWujs/mqdefault.jpg","viewCount":"391","playlistId":"PLEkQk5xrP-tmKNjtYLfhATC37QdIsTMe0","playlistName":"شرح كتاب اللؤلؤ والمرجان فيما اتفق عليه الشيخان إماما المحدثين البخاري ومسلم. أ.د. يسري جبر","category":"حديث"},{"id":"Id79wDNvRfQ","title":"103- شرح اللؤلؤ والمرجان كتاب القسامة من أوله","publishedAt":"2020-03-23T07:00:04Z","duration":"PT31M3S","thumbnail":"https://i.ytimg.com/vi/Id79wDNvRfQ/mqdefault.jpg","viewCount":"381","playlistId":"PLEkQk5xrP-tmKNjtYLfhATC37QdIsTMe0","playlistName":"شرح كتاب اللؤلؤ والمرجان فيما اتفق عليه الشيخان إماما المحدثين البخاري ومسلم. أ.د. يسري جبر","category":"حديث"},{"id":"CyYO_mymJfw","title":"104- شرح اللؤلؤ والمرجان كتاب القسامة من الباب الخامس","publishedAt":"2020-03-24T07:00:03Z","duration":"PT22M38S","thumbnail":"https://i.ytimg.com/vi/CyYO_mymJfw/mqdefault.jpg","viewCount":"421","playlistId":"PLEkQk5xrP-tmKNjtYLfhATC37QdIsTMe0","playlistName":"شرح كتاب اللؤلؤ والمرجان فيما اتفق عليه الشيخان إماما المحدثين البخاري ومسلم. أ.د. يسري جبر","category":"حديث"},{"id":"E9V7ntw8LI8","title":"105- شرح اللؤلؤ والمرجان كتاب الحدود من أوله","publishedAt":"2020-03-25T06:00:02Z","duration":"PT37M10S","thumbnail":"https://i.ytimg.com/vi/E9V7ntw8LI8/mqdefault.jpg","viewCount":"451","playlistId":"PLEkQk5xrP-tmKNjtYLfhATC37QdIsTMe0","playlistName":"شرح كتاب اللؤلؤ والمرجان فيما اتفق عليه الشيخان إماما المحدثين البخاري ومسلم. أ.د. يسري جبر","category":"حديث"},{"id":"nseu6xUHhaM","title":"106- شرح اللؤلؤ والمرجان كتاب الحدود من الباب السادس","publishedAt":"2020-03-26T07:00:22Z","duration":"PT28M49S","thumbnail":"https://i.ytimg.com/vi/nseu6xUHhaM/mqdefault.jpg","viewCount":"578","playlistId":"PLEkQk5xrP-tmKNjtYLfhATC37QdIsTMe0","playlistName":"شرح كتاب اللؤلؤ والمرجان فيما اتفق عليه الشيخان إماما المحدثين البخاري ومسلم. أ.د. يسري جبر","category":"حديث"}],"total":1218,"page":45,"pageSize":24,"totalPages":51}