{"items":[{"id":"TqT7SnqOe64","title":"شرح صحيح البخاري كتاب الأذان من باب ١١٨","publishedAt":"2016-11-24T13:40:22Z","duration":"PT38M30S","thumbnail":"https://i.ytimg.com/vi/TqT7SnqOe64/mqdefault.jpg","viewCount":"1070","playlistId":"PLEkQk5xrP-tlEerGoLa1AFy-2XvQ-sovv","playlistName":"شرح صحيح البخاري - أ.د. يسري جبر (كاملا)","category":"حديث"},{"id":"TNOq6TrqDv0","title":"شرح صحيح البخاري كتاب الأذان من باب ١٢٩","publishedAt":"2016-11-25T06:39:22Z","duration":"PT35M37S","thumbnail":"https://i.ytimg.com/vi/TNOq6TrqDv0/mqdefault.jpg","viewCount":"939","playlistId":"PLEkQk5xrP-tlEerGoLa1AFy-2XvQ-sovv","playlistName":"شرح صحيح البخاري - أ.د. يسري جبر (كاملا)","category":"حديث"},{"id":"YDZ8pHDGkz0","title":"شرح صحيح البخاري كتاب الأذان من باب ١٤٩","publishedAt":"2016-11-25T15:56:40Z","duration":"PT32M4S","thumbnail":"https://i.ytimg.com/vi/YDZ8pHDGkz0/mqdefault.jpg","viewCount":"905","playlistId":"PLEkQk5xrP-tlEerGoLa1AFy-2XvQ-sovv","playlistName":"شرح صحيح البخاري - أ.د. يسري جبر (كاملا)","category":"حديث"},{"id":"qacPF_9evGs","title":"شرح صحيح البخاري كتاب الأذان من باب 136","publishedAt":"2016-11-26T11:39:20Z","duration":"PT37M22S","thumbnail":"https://i.ytimg.com/vi/qacPF_9evGs/mqdefault.jpg","viewCount":"978","playlistId":"PLEkQk5xrP-tlEerGoLa1AFy-2XvQ-sovv","playlistName":"شرح صحيح البخاري - أ.د. يسري جبر (كاملا)","category":"حديث"},{"id":"YpCFKUDkFJ4","title":"شرح صحيح البخاري كتاب الأذان من باب ١٥٥","publishedAt":"2016-11-28T11:29:47Z","duration":"PT32M16S","thumbnail":"https://i.ytimg.com/vi/YpCFKUDkFJ4/mqdefault.jpg","viewCount":"926","playlistId":"PLEkQk5xrP-tlEerGoLa1AFy-2XvQ-sovv","playlistName":"شرح صحيح البخاري - أ.د. يسري جبر (كاملا)","category":"حديث"},{"id":"2ESx65E6zFI","title":"صحيح الإمام البخاري رضي الله عنه - كتاب الأدب - المجلس الثالث د. يسري جبر","publishedAt":"2016-11-28T19:45:20Z","duration":"PT25M3S","thumbnail":"https://i.ytimg.com/vi/2ESx65E6zFI/mqdefault.jpg","viewCount":"158","playlistId":"PLEkQk5xrP-tmJuzaj4GWRenFoFx9gdbFX","playlistName":"شرح كتاب صحيح الإمام البخاري رضي الله تعالى عنه   أ.د. يسرى جبر","category":"حديث"},{"id":"lxyXBTAB2xs","title":"شرح صحيح البخاري كتاب الأذان من باب ١٦١","publishedAt":"2016-11-29T07:30:28Z","duration":"PT32M9S","thumbnail":"https://i.ytimg.com/vi/lxyXBTAB2xs/mqdefault.jpg","viewCount":"857","playlistId":"PLEkQk5xrP-tlEerGoLa1AFy-2XvQ-sovv","playlistName":"شرح صحيح البخاري - أ.د. يسري جبر (كاملا)","category":"حديث"},{"id":"cVSyL4c1t_o","title":"شرح صحيح البخاري كتاب الجمعة من أوله","publishedAt":"2016-11-30T03:19:52Z","duration":"PT46M35S","thumbnail":"https://i.ytimg.com/vi/cVSyL4c1t_o/mqdefault.jpg","viewCount":"1282","playlistId":"PLEkQk5xrP-tlEerGoLa1AFy-2XvQ-sovv","playlistName":"شرح صحيح البخاري - أ.د. يسري جبر (كاملا)","category":"حديث"},{"id":"AL95aG4UJuI","title":"شرح صحيح البخاري كتاب الجمعة من باب ١٠","publishedAt":"2016-12-01T07:50:57Z","duration":"PT40M28S","thumbnail":"https://i.ytimg.com/vi/AL95aG4UJuI/mqdefault.jpg","viewCount":"1114","playlistId":"PLEkQk5xrP-tlEerGoLa1AFy-2XvQ-sovv","playlistName":"شرح صحيح البخاري - أ.د. يسري جبر (كاملا)","category":"حديث"},{"id":"7k7E5eASIkM","title":"شرح صحيح البخاري كتاب الجمعة من باب ١٦","publishedAt":"2016-12-02T08:31:49Z","duration":"PT37M15S","thumbnail":"https://i.ytimg.com/vi/7k7E5eASIkM/mqdefault.jpg","viewCount":"998","playlistId":"PLEkQk5xrP-tlEerGoLa1AFy-2XvQ-sovv","playlistName":"شرح صحيح البخاري - أ.د. يسري جبر (كاملا)","category":"حديث"},{"id":"lXpk5Scf4tA","title":"شرح صحيح البخاري كتاب الجمعة من باب ٢٦","publishedAt":"2016-12-03T06:45:47Z","duration":"PT39M40S","thumbnail":"https://i.ytimg.com/vi/lXpk5Scf4tA/mqdefault.jpg","viewCount":"994","playlistId":"PLEkQk5xrP-tlEerGoLa1AFy-2XvQ-sovv","playlistName":"شرح صحيح البخاري - أ.د. يسري جبر (كاملا)","category":"حديث"},{"id":"U-L7MbuueaI","title":"شرح صحيح البخاري كتاب الجمعة من باب ٣٠","publishedAt":"2016-12-04T06:27:09Z","duration":"PT38M9S","thumbnail":"https://i.ytimg.com/vi/U-L7MbuueaI/mqdefault.jpg","viewCount":"974","playlistId":"PLEkQk5xrP-tlEerGoLa1AFy-2XvQ-sovv","playlistName":"شرح صحيح البخاري - أ.د. يسري جبر (كاملا)","category":"حديث"},{"id":"Uvhx4_BUyCg","title":"صحيح الإمام البخاري رضي الله عنه - كتاب الأدب - المجلس الرابع    د. يسري جبر","publishedAt":"2016-12-04T18:06:31Z","duration":"PT50M11S","thumbnail":"https://i.ytimg.com/vi/Uvhx4_BUyCg/mqdefault.jpg","viewCount":"181","playlistId":"PLEkQk5xrP-tmJuzaj4GWRenFoFx9gdbFX","playlistName":"شرح كتاب صحيح الإمام البخاري رضي الله تعالى عنه   أ.د. يسرى جبر","category":"حديث"},{"id":"ekR_RKDRpH0","title":"شرح صحيح البخاري كتاب الخوف من أوله","publishedAt":"2016-12-05T06:36:30Z","duration":"PT35M55S","thumbnail":"https://i.ytimg.com/vi/ekR_RKDRpH0/mqdefault.jpg","viewCount":"1065","playlistId":"PLEkQk5xrP-tlEerGoLa1AFy-2XvQ-sovv","playlistName":"شرح صحيح البخاري - أ.د. يسري جبر (كاملا)","category":"حديث"},{"id":"ikPCcfrtmqI","title":"شرح صحيح البخاري كتاب العِيدَين من أوله","publishedAt":"2016-12-06T07:55:44Z","duration":"PT39M20S","thumbnail":"https://i.ytimg.com/vi/ikPCcfrtmqI/mqdefault.jpg","viewCount":"1062","playlistId":"PLEkQk5xrP-tlEerGoLa1AFy-2XvQ-sovv","playlistName":"شرح صحيح البخاري - أ.د. يسري جبر (كاملا)","category":"حديث"},{"id":"rycqbk0Pr_c","title":"شرح صحيح البخاري كتاب العِيدَين من باب ٩","publishedAt":"2016-12-07T08:10:28Z","duration":"PT35M43S","thumbnail":"https://i.ytimg.com/vi/rycqbk0Pr_c/mqdefault.jpg","viewCount":"972","playlistId":"PLEkQk5xrP-tlEerGoLa1AFy-2XvQ-sovv","playlistName":"شرح صحيح البخاري - أ.د. يسري جبر (كاملا)","category":"حديث"},{"id":"VkFZqsb0L74","title":"صحيح الإمام البخاري رضي الله عنه - كتاب الأدب - المجلس الخامس  د. يسري جبر","publishedAt":"2016-12-07T14:29:04Z","duration":"PT50M32S","thumbnail":"https://i.ytimg.com/vi/VkFZqsb0L74/mqdefault.jpg","viewCount":"194","playlistId":"PLEkQk5xrP-tmJuzaj4GWRenFoFx9gdbFX","playlistName":"شرح كتاب صحيح الإمام البخاري رضي الله تعالى عنه   أ.د. يسرى جبر","category":"حديث"},{"id":"B474MyWjLL0","title":"شرح صحيح البخاري كتاب الوتر من أوله","publishedAt":"2016-12-08T07:43:04Z","duration":"PT27M28S","thumbnail":"https://i.ytimg.com/vi/B474MyWjLL0/mqdefault.jpg","viewCount":"1047","playlistId":"PLEkQk5xrP-tlEerGoLa1AFy-2XvQ-sovv","playlistName":"شرح صحيح البخاري - أ.د. يسري جبر (كاملا)","category":"حديث"},{"id":"fiuvX-iPD-Q","title":"شرح صحيح البخاري كتاب الاستسقاء من أوله","publishedAt":"2016-12-10T04:24:20Z","duration":"PT38M38S","thumbnail":"https://i.ytimg.com/vi/fiuvX-iPD-Q/mqdefault.jpg","viewCount":"925","playlistId":"PLEkQk5xrP-tlEerGoLa1AFy-2XvQ-sovv","playlistName":"شرح صحيح البخاري - أ.د. يسري جبر (كاملا)","category":"حديث"},{"id":"3X18YWr5E5A","title":"شرح صحيح البخاري كتاب الاستسقاء من باب ١٠","publishedAt":"2016-12-11T05:12:20Z","duration":"PT32M52S","thumbnail":"https://i.ytimg.com/vi/3X18YWr5E5A/mqdefault.jpg","viewCount":"826","playlistId":"PLEkQk5xrP-tlEerGoLa1AFy-2XvQ-sovv","playlistName":"شرح صحيح البخاري - أ.د. يسري جبر (كاملا)","category":"حديث"},{"id":"nu25Dn0t4j4","title":"شرح صحيح البخاري كتاب الاستسقاء من باب ٢٠","publishedAt":"2016-12-12T18:27:36Z","duration":"PT19M9S","thumbnail":"https://i.ytimg.com/vi/nu25Dn0t4j4/mqdefault.jpg","viewCount":"811","playlistId":"PLEkQk5xrP-tlEerGoLa1AFy-2XvQ-sovv","playlistName":"شرح صحيح البخاري - أ.د. يسري جبر (كاملا)","category":"حديث"},{"id":"dyYEtAoHxKE","title":"شرح كتاب الأذكار من كلام سيد الأبرار للإمام النووى رضى الله عنه - المجلس الرابع والأربعون","publishedAt":"2016-12-14T11:35:39Z","duration":"PT4M16S","thumbnail":"https://i.ytimg.com/vi/dyYEtAoHxKE/mqdefault.jpg","viewCount":"253","playlistId":"PLEkQk5xrP-tkWS57Ubysh0ifJR8dmuEtE","playlistName":"شرح كتاب الأذكار للإمام النووي د. يسرى جبر","category":"حديث"},{"id":"ov-oPgG_B-M","title":"شرح كتاب الأذكار من كلام سيد الأبرار للإمام النووى رضى الله عنه - المجلس الخامس والأربعون","publishedAt":"2016-12-15T04:17:30Z","duration":"PT7M6S","thumbnail":"https://i.ytimg.com/vi/ov-oPgG_B-M/mqdefault.jpg","viewCount":"272","playlistId":"PLEkQk5xrP-tkWS57Ubysh0ifJR8dmuEtE","playlistName":"شرح كتاب الأذكار للإمام النووي د. يسرى جبر","category":"حديث"},{"id":"taqLKvkZ_Cg","title":"شرح كتاب الأذكار من كلام سيد الأبرار للإمام النووى رضى الله عنه - المجلس السادس والأربعون","publishedAt":"2016-12-16T04:43:34Z","duration":"PT6M55S","thumbnail":"https://i.ytimg.com/vi/taqLKvkZ_Cg/mqdefault.jpg","viewCount":"320","playlistId":"PLEkQk5xrP-tkWS57Ubysh0ifJR8dmuEtE","playlistName":"شرح كتاب الأذكار للإمام النووي د. يسرى جبر","category":"حديث"}],"total":1218,"page":10,"pageSize":24,"totalPages":51}