{"items":[{"id":"prxP1s1qths","title":"شرح صحيح البخاري كتاب الاستئذان من باب ١١","publishedAt":"2018-09-24T20:16:45Z","duration":"PT37M28S","thumbnail":"https://i.ytimg.com/vi/prxP1s1qths/mqdefault.jpg","viewCount":"450","playlistId":"PLEkQk5xrP-tlEerGoLa1AFy-2XvQ-sovv","playlistName":"شرح صحيح البخاري - أ.د. يسري جبر (كاملا)","category":"حديث"},{"id":"qlrMdbpODUY","title":"شرح صحيح البخاري كتاب الاستئذان من باب ٢٢","publishedAt":"2018-09-25T22:02:53Z","duration":"PT34M31S","thumbnail":"https://i.ytimg.com/vi/qlrMdbpODUY/mqdefault.jpg","viewCount":"485","playlistId":"PLEkQk5xrP-tlEerGoLa1AFy-2XvQ-sovv","playlistName":"شرح صحيح البخاري - أ.د. يسري جبر (كاملا)","category":"حديث"},{"id":"Tt8lVi9qZ7g","title":"شرح صحيح الإمام البخاري رضي الله تعالى عنه - كتاب الحِيَل ( باب في الصلاة)  د. يسري جبر","publishedAt":"2018-09-26T17:28:03Z","duration":"PT43M14S","thumbnail":"https://i.ytimg.com/vi/Tt8lVi9qZ7g/mqdefault.jpg","viewCount":"156","playlistId":"PLEkQk5xrP-tmJuzaj4GWRenFoFx9gdbFX","playlistName":"شرح كتاب صحيح الإمام البخاري رضي الله تعالى عنه   أ.د. يسرى جبر","category":"حديث"},{"id":"pdCNIoz8GN0","title":"شرح صحيح البخاري كتاب الاستئذان من باب ٣١","publishedAt":"2018-09-26T17:57:35Z","duration":"PT29M22S","thumbnail":"https://i.ytimg.com/vi/pdCNIoz8GN0/mqdefault.jpg","viewCount":"650","playlistId":"PLEkQk5xrP-tlEerGoLa1AFy-2XvQ-sovv","playlistName":"شرح صحيح البخاري - أ.د. يسري جبر (كاملا)","category":"حديث"},{"id":"fNQ8kGbcf5o","title":"شرح صحيح البخاري كتاب الاستئذان من باب ٤٠","publishedAt":"2018-09-29T11:27:54Z","duration":"PT32M40S","thumbnail":"https://i.ytimg.com/vi/fNQ8kGbcf5o/mqdefault.jpg","viewCount":"458","playlistId":"PLEkQk5xrP-tlEerGoLa1AFy-2XvQ-sovv","playlistName":"شرح صحيح البخاري - أ.د. يسري جبر (كاملا)","category":"حديث"},{"id":"IttDs2ibA9I","title":"شرح صحيح البخاري كتاب الاستئذان من باب ٤٤","publishedAt":"2018-10-01T09:32:56Z","duration":"PT49M43S","thumbnail":"https://i.ytimg.com/vi/IttDs2ibA9I/mqdefault.jpg","viewCount":"511","playlistId":"PLEkQk5xrP-tlEerGoLa1AFy-2XvQ-sovv","playlistName":"شرح صحيح البخاري - أ.د. يسري جبر (كاملا)","category":"حديث"},{"id":"lrSFCRZDlmc","title":"شرح صحيح البخاري كتاب الدعوات من أوله","publishedAt":"2018-10-02T10:18:09Z","duration":"PT16M46S","thumbnail":"https://i.ytimg.com/vi/lrSFCRZDlmc/mqdefault.jpg","viewCount":"935","playlistId":"PLEkQk5xrP-tlEerGoLa1AFy-2XvQ-sovv","playlistName":"شرح صحيح البخاري - أ.د. يسري جبر (كاملا)","category":"حديث"},{"id":"fM8mWdrE4cQ","title":"شرح صحيح البخاري كتاب الدعوات من باب ٥","publishedAt":"2018-10-03T21:37:35Z","duration":"PT35M51S","thumbnail":"https://i.ytimg.com/vi/fM8mWdrE4cQ/mqdefault.jpg","viewCount":"579","playlistId":"PLEkQk5xrP-tlEerGoLa1AFy-2XvQ-sovv","playlistName":"شرح صحيح البخاري - أ.د. يسري جبر (كاملا)","category":"حديث"},{"id":"6ga3JGviNNM","title":"شرح صحيح البخاري كتاب الدعوات من باب ١١","publishedAt":"2018-10-04T17:18:07Z","duration":"PT36M19S","thumbnail":"https://i.ytimg.com/vi/6ga3JGviNNM/mqdefault.jpg","viewCount":"511","playlistId":"PLEkQk5xrP-tlEerGoLa1AFy-2XvQ-sovv","playlistName":"شرح صحيح البخاري - أ.د. يسري جبر (كاملا)","category":"حديث"},{"id":"N_hR593tSks","title":"شرح صحيح البخاري كتاب الدعوات من باب ١٨","publishedAt":"2018-10-06T06:31:33Z","duration":"PT38M9S","thumbnail":"https://i.ytimg.com/vi/N_hR593tSks/mqdefault.jpg","viewCount":"576","playlistId":"PLEkQk5xrP-tlEerGoLa1AFy-2XvQ-sovv","playlistName":"شرح صحيح البخاري - أ.د. يسري جبر (كاملا)","category":"حديث"},{"id":"kRUFNiOrzMw","title":"شرح صحيح البخاري كتاب الدعوات من باب ٢٨","publishedAt":"2018-10-07T14:17:40Z","duration":"PT36M23S","thumbnail":"https://i.ytimg.com/vi/kRUFNiOrzMw/mqdefault.jpg","viewCount":"498","playlistId":"PLEkQk5xrP-tlEerGoLa1AFy-2XvQ-sovv","playlistName":"شرح صحيح البخاري - أ.د. يسري جبر (كاملا)","category":"حديث"},{"id":"b_a-aj6veCI","title":"شرح صحيح البخاري كتاب الدعوات من باب ٣٣","publishedAt":"2018-10-08T21:45:35Z","duration":"PT20M25S","thumbnail":"https://i.ytimg.com/vi/b_a-aj6veCI/mqdefault.jpg","viewCount":"457","playlistId":"PLEkQk5xrP-tlEerGoLa1AFy-2XvQ-sovv","playlistName":"شرح صحيح البخاري - أ.د. يسري جبر (كاملا)","category":"حديث"},{"id":"DgvoEYR-w1g","title":"شرح صحيح البخاري كتاب الدعوات من باب ٣٨","publishedAt":"2018-10-09T17:13:13Z","duration":"PT23M33S","thumbnail":"https://i.ytimg.com/vi/DgvoEYR-w1g/mqdefault.jpg","viewCount":"416","playlistId":"PLEkQk5xrP-tlEerGoLa1AFy-2XvQ-sovv","playlistName":"شرح صحيح البخاري - أ.د. يسري جبر (كاملا)","category":"حديث"},{"id":"_x8V1crAwCY","title":"شرح صحيح الإمام البخاري رضي الله تعالى عنه - كتاب الحِيَل.  د. يسري جبر","publishedAt":"2018-10-09T17:46:05Z","duration":"PT37M22S","thumbnail":"https://i.ytimg.com/vi/_x8V1crAwCY/mqdefault.jpg","viewCount":"290","playlistId":"PLEkQk5xrP-tmJuzaj4GWRenFoFx9gdbFX","playlistName":"شرح كتاب صحيح الإمام البخاري رضي الله تعالى عنه   أ.د. يسرى جبر","category":"حديث"},{"id":"6ou70ssly2Q","title":"شرح صحيح البخاري كتاب الدعوات من باب ٤٨","publishedAt":"2018-10-12T21:04:25Z","duration":"PT33M30S","thumbnail":"https://i.ytimg.com/vi/6ou70ssly2Q/mqdefault.jpg","viewCount":"459","playlistId":"PLEkQk5xrP-tlEerGoLa1AFy-2XvQ-sovv","playlistName":"شرح صحيح البخاري - أ.د. يسري جبر (كاملا)","category":"حديث"},{"id":"Afui6Xk9l44","title":"شرح صحيح البخاري كتاب الدعوات من باب ٥٦","publishedAt":"2018-10-14T08:46:55Z","duration":"PT36M38S","thumbnail":"https://i.ytimg.com/vi/Afui6Xk9l44/mqdefault.jpg","viewCount":"461","playlistId":"PLEkQk5xrP-tlEerGoLa1AFy-2XvQ-sovv","playlistName":"شرح صحيح البخاري - أ.د. يسري جبر (كاملا)","category":"حديث"},{"id":"un8jAfjM9qs","title":"شرح صحيح البخاري كتاب الدعوات من باب ٦٤","publishedAt":"2018-10-15T12:39:08Z","duration":"PT41M","thumbnail":"https://i.ytimg.com/vi/un8jAfjM9qs/mqdefault.jpg","viewCount":"560","playlistId":"PLEkQk5xrP-tlEerGoLa1AFy-2XvQ-sovv","playlistName":"شرح صحيح البخاري - أ.د. يسري جبر (كاملا)","category":"حديث"},{"id":"2pRhbRL9DQI","title":"شرح صحيح البخاري كتاب الرقاق من أوله","publishedAt":"2018-10-17T13:08:20Z","duration":"PT30M51S","thumbnail":"https://i.ytimg.com/vi/2pRhbRL9DQI/mqdefault.jpg","viewCount":"730","playlistId":"PLEkQk5xrP-tlEerGoLa1AFy-2XvQ-sovv","playlistName":"شرح صحيح البخاري - أ.د. يسري جبر (كاملا)","category":"حديث"},{"id":"NrXZl71HD_E","title":"شرح صحيح الإمام البخاري رضي الله تعالى عنه - كتاب الحِيَل.  د. يسري جبر","publishedAt":"2018-10-17T19:56:05Z","duration":"PT30M47S","thumbnail":"https://i.ytimg.com/vi/NrXZl71HD_E/mqdefault.jpg","viewCount":"251","playlistId":"PLEkQk5xrP-tmJuzaj4GWRenFoFx9gdbFX","playlistName":"شرح كتاب صحيح الإمام البخاري رضي الله تعالى عنه   أ.د. يسرى جبر","category":"حديث"},{"id":"FBENCXar6Vg","title":"شرح صحيح البخاري كتاب الرقاق من باب ٣","publishedAt":"2018-10-18T12:44:20Z","duration":"PT22M48S","thumbnail":"https://i.ytimg.com/vi/FBENCXar6Vg/mqdefault.jpg","viewCount":"456","playlistId":"PLEkQk5xrP-tlEerGoLa1AFy-2XvQ-sovv","playlistName":"شرح صحيح البخاري - أ.د. يسري جبر (كاملا)","category":"حديث"},{"id":"p7ZzmILwE-I","title":"شرح صحيح البخاري كتاب الرقاق من باب ٦","publishedAt":"2018-10-19T12:57:48Z","duration":"PT40M58S","thumbnail":"https://i.ytimg.com/vi/p7ZzmILwE-I/mqdefault.jpg","viewCount":"585","playlistId":"PLEkQk5xrP-tlEerGoLa1AFy-2XvQ-sovv","playlistName":"شرح صحيح البخاري - أ.د. يسري جبر (كاملا)","category":"حديث"},{"id":"lJG1pwhTEu8","title":"شرح صحيح البخاري كتاب الرقاق من باب ١٠","publishedAt":"2018-10-20T17:01:50Z","duration":"PT31M2S","thumbnail":"https://i.ytimg.com/vi/lJG1pwhTEu8/mqdefault.jpg","viewCount":"508","playlistId":"PLEkQk5xrP-tlEerGoLa1AFy-2XvQ-sovv","playlistName":"شرح صحيح البخاري - أ.د. يسري جبر (كاملا)","category":"حديث"},{"id":"rahWcQkKgIU","title":"شرح صحيح البخاري كتاب الرقاق من باب ١٧","publishedAt":"2018-10-22T20:22:14Z","duration":"PT43M53S","thumbnail":"https://i.ytimg.com/vi/rahWcQkKgIU/mqdefault.jpg","viewCount":"619","playlistId":"PLEkQk5xrP-tlEerGoLa1AFy-2XvQ-sovv","playlistName":"شرح صحيح البخاري - أ.د. يسري جبر (كاملا)","category":"حديث"},{"id":"k28OEB-6fd0","title":"شرح صحيح البخاري كتاب الرقاق من باب ١٨","publishedAt":"2018-10-24T11:56:57Z","duration":"PT30M46S","thumbnail":"https://i.ytimg.com/vi/k28OEB-6fd0/mqdefault.jpg","viewCount":"487","playlistId":"PLEkQk5xrP-tlEerGoLa1AFy-2XvQ-sovv","playlistName":"شرح صحيح البخاري - أ.د. يسري جبر (كاملا)","category":"حديث"}],"total":1218,"page":35,"pageSize":24,"totalPages":51}