{"items":[{"id":"Fw61kmmsS8Q","title":"شرح صحيح البخاري كتاب التفسير فى سورة براءة من باب ٨","publishedAt":"2018-03-28T07:38:31Z","duration":"PT35M18S","thumbnail":"https://i.ytimg.com/vi/Fw61kmmsS8Q/mqdefault.jpg","viewCount":"487","playlistId":"PLEkQk5xrP-tlEerGoLa1AFy-2XvQ-sovv","playlistName":"شرح صحيح البخاري - أ.د. يسري جبر (كاملا)","category":"حديث"},{"id":"5trtK0OAQJA","title":"شرح صحيح البخاري كتاب التفسير فى سورة براءة من باب ١٤","publishedAt":"2018-03-29T09:30:26Z","duration":"PT35M59S","thumbnail":"https://i.ytimg.com/vi/5trtK0OAQJA/mqdefault.jpg","viewCount":"453","playlistId":"PLEkQk5xrP-tlEerGoLa1AFy-2XvQ-sovv","playlistName":"شرح صحيح البخاري - أ.د. يسري جبر (كاملا)","category":"حديث"},{"id":"D7kE8QWxxug","title":"صحيح الإمام البخاري رضي الله عنه - كتاب الحدود (باب نَفْي أَهْل المَعَاصِي وَالمُخَنَّثِن)د.يسري جبر","publishedAt":"2018-03-30T05:49:26Z","duration":"PT33M48S","thumbnail":"https://i.ytimg.com/vi/D7kE8QWxxug/mqdefault.jpg","viewCount":"128","playlistId":"PLEkQk5xrP-tmJuzaj4GWRenFoFx9gdbFX","playlistName":"شرح كتاب صحيح الإمام البخاري رضي الله تعالى عنه   أ.د. يسرى جبر","category":"حديث"},{"id":"mlMmU3jh_1s","title":"صحيح الإمام البخاري رضي الله عنه - كتاب الحدود ( باب كّمِ التَّعْزِيرُ والأَدَبُ ؟ ) د.يسري جبر","publishedAt":"2018-03-30T05:50:38Z","duration":"PT43M29S","thumbnail":"https://i.ytimg.com/vi/mlMmU3jh_1s/mqdefault.jpg","viewCount":"148","playlistId":"PLEkQk5xrP-tmJuzaj4GWRenFoFx9gdbFX","playlistName":"شرح كتاب صحيح الإمام البخاري رضي الله تعالى عنه   أ.د. يسرى جبر","category":"حديث"},{"id":"FUNGQAslrZo","title":"شرح صحيح البخاري كتاب التفسير فى سورة يونس","publishedAt":"2018-03-30T08:45:33Z","duration":"PT39M53S","thumbnail":"https://i.ytimg.com/vi/FUNGQAslrZo/mqdefault.jpg","viewCount":"446","playlistId":"PLEkQk5xrP-tlEerGoLa1AFy-2XvQ-sovv","playlistName":"شرح صحيح البخاري - أ.د. يسري جبر (كاملا)","category":"حديث"},{"id":"DIcoGTKw3WY","title":"شرح صحيح البخاري كتاب التفسير فى سورة يوسف من باب ١","publishedAt":"2018-03-31T08:11:52Z","duration":"PT33M12S","thumbnail":"https://i.ytimg.com/vi/DIcoGTKw3WY/mqdefault.jpg","viewCount":"593","playlistId":"PLEkQk5xrP-tlEerGoLa1AFy-2XvQ-sovv","playlistName":"شرح صحيح البخاري - أ.د. يسري جبر (كاملا)","category":"حديث"},{"id":"ZTMaT768tz0","title":"شرح صحيح البخاري كتاب التفسير فى سورة الرعد من أولها","publishedAt":"2018-04-01T08:37:08Z","duration":"PT31M51S","thumbnail":"https://i.ytimg.com/vi/ZTMaT768tz0/mqdefault.jpg","viewCount":"545","playlistId":"PLEkQk5xrP-tlEerGoLa1AFy-2XvQ-sovv","playlistName":"شرح صحيح البخاري - أ.د. يسري جبر (كاملا)","category":"حديث"},{"id":"2bu51_cSZ7E","title":"صحيح الإمام البخاري رضي الله عنه - كتاب الديَاتِ  د.يسري جبر","publishedAt":"2018-04-01T20:53:03Z","duration":"PT37M21S","thumbnail":"https://i.ytimg.com/vi/2bu51_cSZ7E/mqdefault.jpg","viewCount":"100","playlistId":"PLEkQk5xrP-tmJuzaj4GWRenFoFx9gdbFX","playlistName":"شرح كتاب صحيح الإمام البخاري رضي الله تعالى عنه   أ.د. يسرى جبر","category":"حديث"},{"id":"uL1LCtVcZLE","title":"شرح صحيح البخاري كتاب التفسير فى سورتي الحجر والنحل","publishedAt":"2018-04-02T07:07:03Z","duration":"PT43M7S","thumbnail":"https://i.ytimg.com/vi/uL1LCtVcZLE/mqdefault.jpg","viewCount":"462","playlistId":"PLEkQk5xrP-tlEerGoLa1AFy-2XvQ-sovv","playlistName":"شرح صحيح البخاري - أ.د. يسري جبر (كاملا)","category":"حديث"},{"id":"3vIxTq5G06A","title":"شرح صحيح البخاري كتاب التفسير فى سورة بني إسرائيل (الإسراء) من باب ١","publishedAt":"2018-04-03T08:47:57Z","duration":"PT29M20S","thumbnail":"https://i.ytimg.com/vi/3vIxTq5G06A/mqdefault.jpg","viewCount":"632","playlistId":"PLEkQk5xrP-tlEerGoLa1AFy-2XvQ-sovv","playlistName":"شرح صحيح البخاري - أ.د. يسري جبر (كاملا)","category":"حديث"},{"id":"WbmGfjp4T-8","title":"شرح صحيح البخاري كتاب التفسير فى سورة بني إسرائيل (الإسراء) من باب ٥","publishedAt":"2018-04-04T17:34:12Z","duration":"PT26M40S","thumbnail":"https://i.ytimg.com/vi/WbmGfjp4T-8/mqdefault.jpg","viewCount":"496","playlistId":"PLEkQk5xrP-tlEerGoLa1AFy-2XvQ-sovv","playlistName":"شرح صحيح البخاري - أ.د. يسري جبر (كاملا)","category":"حديث"},{"id":"EQHy0QROTX8","title":"شرح صحيح البخاري كتاب التفسير فى سورة الكهف من باب اول","publishedAt":"2018-04-05T15:56:57Z","duration":"PT37M20S","thumbnail":"https://i.ytimg.com/vi/EQHy0QROTX8/mqdefault.jpg","viewCount":"987","playlistId":"PLEkQk5xrP-tlEerGoLa1AFy-2XvQ-sovv","playlistName":"شرح صحيح البخاري - أ.د. يسري جبر (كاملا)","category":"حديث"},{"id":"P3mwTvWhSl8","title":"شرح صحيح البخاري كتاب التفسير فى سورة الكهف من باب ٣","publishedAt":"2018-04-06T11:31:47Z","duration":"PT33M38S","thumbnail":"https://i.ytimg.com/vi/P3mwTvWhSl8/mqdefault.jpg","viewCount":"558","playlistId":"PLEkQk5xrP-tlEerGoLa1AFy-2XvQ-sovv","playlistName":"شرح صحيح البخاري - أ.د. يسري جبر (كاملا)","category":"حديث"},{"id":"cJaZC8-6wHw","title":"شرح صحيح البخاري كتاب التفسير فى سورتي مريم وطه","publishedAt":"2018-04-07T14:07:06Z","duration":"PT35M53S","thumbnail":"https://i.ytimg.com/vi/cJaZC8-6wHw/mqdefault.jpg","viewCount":"688","playlistId":"PLEkQk5xrP-tlEerGoLa1AFy-2XvQ-sovv","playlistName":"شرح صحيح البخاري - أ.د. يسري جبر (كاملا)","category":"حديث"},{"id":"wqeBDPSAEQM","title":"صحيح الإمام البخاري رضي الله عنه - كتاب الدِّيات المجلس الثاني ( د.يسري جبر)","publishedAt":"2018-04-08T16:51:47Z","duration":"PT32M1S","thumbnail":"https://i.ytimg.com/vi/wqeBDPSAEQM/mqdefault.jpg","viewCount":"137","playlistId":"PLEkQk5xrP-tmJuzaj4GWRenFoFx9gdbFX","playlistName":"شرح كتاب صحيح الإمام البخاري رضي الله تعالى عنه   أ.د. يسرى جبر","category":"حديث"},{"id":"-Sz1_D5W7AU","title":"شرح صحيح البخاري كتاب التفسير فى سورتي الأنبياء والمؤمنين","publishedAt":"2018-04-08T18:51:40Z","duration":"PT39M49S","thumbnail":"https://i.ytimg.com/vi/-Sz1_D5W7AU/mqdefault.jpg","viewCount":"507","playlistId":"PLEkQk5xrP-tlEerGoLa1AFy-2XvQ-sovv","playlistName":"شرح صحيح البخاري - أ.د. يسري جبر (كاملا)","category":"حديث"},{"id":"ApZIj_RYXUM","title":"شرح صحيح البخاري كتاب التفسير فى سورة النمل من باب ١","publishedAt":"2018-04-09T11:26:28Z","duration":"PT32M9S","thumbnail":"https://i.ytimg.com/vi/ApZIj_RYXUM/mqdefault.jpg","viewCount":"443","playlistId":"PLEkQk5xrP-tlEerGoLa1AFy-2XvQ-sovv","playlistName":"شرح صحيح البخاري - أ.د. يسري جبر (كاملا)","category":"حديث"},{"id":"3wevqeLssxI","title":"شرح صحيح البخاري كتاب التفسير فى سورة الفرقان من باب ١","publishedAt":"2018-04-09T11:26:41Z","duration":"PT43M51S","thumbnail":"https://i.ytimg.com/vi/3wevqeLssxI/mqdefault.jpg","viewCount":"519","playlistId":"PLEkQk5xrP-tlEerGoLa1AFy-2XvQ-sovv","playlistName":"شرح صحيح البخاري - أ.د. يسري جبر (كاملا)","category":"حديث"},{"id":"wae1P_GWUyE","title":"شرح صحيح البخاري كتاب التفسير فى سورة النور من باب ٧","publishedAt":"2018-04-09T11:26:44Z","duration":"PT32M56S","thumbnail":"https://i.ytimg.com/vi/wae1P_GWUyE/mqdefault.jpg","viewCount":"418","playlistId":"PLEkQk5xrP-tlEerGoLa1AFy-2XvQ-sovv","playlistName":"شرح صحيح البخاري - أ.د. يسري جبر (كاملا)","category":"حديث"},{"id":"KeKOVqDCfBo","title":"شرح صحيح البخاري كتاب التفسير فى سورة النور من باب أول","publishedAt":"2018-04-09T15:55:31Z","duration":"PT31M24S","thumbnail":"https://i.ytimg.com/vi/KeKOVqDCfBo/mqdefault.jpg","viewCount":"784","playlistId":"PLEkQk5xrP-tlEerGoLa1AFy-2XvQ-sovv","playlistName":"شرح صحيح البخاري - أ.د. يسري جبر (كاملا)","category":"حديث"},{"id":"ex1UWoxSSGg","title":"شرح صحيح البخاري كتاب التفسير فى سورة النور من باب ٥","publishedAt":"2018-04-10T16:17:01Z","duration":"PT37M20S","thumbnail":"https://i.ytimg.com/vi/ex1UWoxSSGg/mqdefault.jpg","viewCount":"564","playlistId":"PLEkQk5xrP-tlEerGoLa1AFy-2XvQ-sovv","playlistName":"شرح صحيح البخاري - أ.د. يسري جبر (كاملا)","category":"حديث"},{"id":"_byP_iI8xBs","title":"شرح صحيح البخاري كتاب التفسير فى سورة لقمان من باب ١","publishedAt":"2018-04-14T20:29:16Z","duration":"PT40M24S","thumbnail":"https://i.ytimg.com/vi/_byP_iI8xBs/mqdefault.jpg","viewCount":"505","playlistId":"PLEkQk5xrP-tlEerGoLa1AFy-2XvQ-sovv","playlistName":"شرح صحيح البخاري - أ.د. يسري جبر (كاملا)","category":"حديث"},{"id":"DafnZToo39k","title":"شرح صحيح البخاري كتاب التفسير فى سورة الاحزاب من باب ٧","publishedAt":"2018-04-15T18:33:31Z","duration":"PT42M27S","thumbnail":"https://i.ytimg.com/vi/DafnZToo39k/mqdefault.jpg","viewCount":"591","playlistId":"PLEkQk5xrP-tlEerGoLa1AFy-2XvQ-sovv","playlistName":"شرح صحيح البخاري - أ.د. يسري جبر (كاملا)","category":"حديث"},{"id":"7BaxMqnXRgs","title":"شرح صحيح البخاري كتاب التفسير فى سورة السبأ من باب ١","publishedAt":"2018-04-16T19:16:21Z","duration":"PT40M47S","thumbnail":"https://i.ytimg.com/vi/7BaxMqnXRgs/mqdefault.jpg","viewCount":"559","playlistId":"PLEkQk5xrP-tlEerGoLa1AFy-2XvQ-sovv","playlistName":"شرح صحيح البخاري - أ.د. يسري جبر (كاملا)","category":"حديث"}],"total":1218,"page":28,"pageSize":24,"totalPages":51}