{"items":[{"id":"hwVYfccwWuI","title":"شرح صحيح البخاري كتاب مواقيت الصلاة من باب ٢٢","publishedAt":"2016-11-04T11:14:29Z","duration":"PT35M14S","thumbnail":"https://i.ytimg.com/vi/hwVYfccwWuI/mqdefault.jpg","viewCount":"1161","playlistId":"PLEkQk5xrP-tlEerGoLa1AFy-2XvQ-sovv","playlistName":"شرح صحيح البخاري - أ.د. يسري جبر (كاملا)","category":"حديث"},{"id":"zSwfFihyuGk","title":"شرح صحيح البخاري كتاب مواقيت الصلاة من باب ٣٢","publishedAt":"2016-11-05T05:36:39Z","duration":"PT36M3S","thumbnail":"https://i.ytimg.com/vi/zSwfFihyuGk/mqdefault.jpg","viewCount":"1154","playlistId":"PLEkQk5xrP-tlEerGoLa1AFy-2XvQ-sovv","playlistName":"شرح صحيح البخاري - أ.د. يسري جبر (كاملا)","category":"حديث"},{"id":"clUWDYt-S5Q","title":"صحيح الإمام البخاري رضي الله عنه كتاب اللباس ( باب إعْفَاءِ اللِّحى ) المجلس الثامن. د. يسري جبر","publishedAt":"2016-11-06T14:03:06Z","duration":"PT44M","thumbnail":"https://i.ytimg.com/vi/clUWDYt-S5Q/mqdefault.jpg","viewCount":"785","playlistId":"PLEkQk5xrP-tmJuzaj4GWRenFoFx9gdbFX","playlistName":"شرح كتاب صحيح الإمام البخاري رضي الله تعالى عنه   أ.د. يسرى جبر","category":"حديث"},{"id":"p3al_tWSuRs","title":"صحيح الإمام البخاري رضي الله عنه كتاب اللباس ( باب الجعد ) المجلس التاسع. د. يسري جبر","publishedAt":"2016-11-07T19:10:23Z","duration":"PT50M10S","thumbnail":"https://i.ytimg.com/vi/p3al_tWSuRs/mqdefault.jpg","viewCount":"168","playlistId":"PLEkQk5xrP-tmJuzaj4GWRenFoFx9gdbFX","playlistName":"شرح كتاب صحيح الإمام البخاري رضي الله تعالى عنه   أ.د. يسرى جبر","category":"حديث"},{"id":"FSWo8xGC_m0","title":"شرح صحيح البخاري كتاب مواقيت الصلاة من باب ٣٩","publishedAt":"2016-11-10T04:29:40Z","duration":"PT23M45S","thumbnail":"https://i.ytimg.com/vi/FSWo8xGC_m0/mqdefault.jpg","viewCount":"1050","playlistId":"PLEkQk5xrP-tlEerGoLa1AFy-2XvQ-sovv","playlistName":"شرح صحيح البخاري - أ.د. يسري جبر (كاملا)","category":"حديث"},{"id":"5bSRn-sbZ_o","title":"شرح صحيح البخاري كتاب الأذان من باب ١","publishedAt":"2016-11-11T04:08:27Z","duration":"PT38M30S","thumbnail":"https://i.ytimg.com/vi/5bSRn-sbZ_o/mqdefault.jpg","viewCount":"1456","playlistId":"PLEkQk5xrP-tlEerGoLa1AFy-2XvQ-sovv","playlistName":"شرح صحيح البخاري - أ.د. يسري جبر (كاملا)","category":"حديث"},{"id":"S1F0yZJ6iqA","title":"شرح صحيح البخاري كتاب الأذان من باب ٩","publishedAt":"2016-11-11T11:08:24Z","duration":"PT36M9S","thumbnail":"https://i.ytimg.com/vi/S1F0yZJ6iqA/mqdefault.jpg","viewCount":"1208","playlistId":"PLEkQk5xrP-tlEerGoLa1AFy-2XvQ-sovv","playlistName":"شرح صحيح البخاري - أ.د. يسري جبر (كاملا)","category":"حديث"},{"id":"2T5XlckgRhs","title":"شرح صحيح البخاري كتاب الأذان من باب ١٨","publishedAt":"2016-11-11T12:48:34Z","duration":"PT34M51S","thumbnail":"https://i.ytimg.com/vi/2T5XlckgRhs/mqdefault.jpg","viewCount":"1121","playlistId":"PLEkQk5xrP-tlEerGoLa1AFy-2XvQ-sovv","playlistName":"شرح صحيح البخاري - أ.د. يسري جبر (كاملا)","category":"حديث"},{"id":"cIX4q76Kpsg","title":"شرح صحيح البخاري كتاب الأذان من باب ٢٩","publishedAt":"2016-11-12T04:01:26Z","duration":"PT34M14S","thumbnail":"https://i.ytimg.com/vi/cIX4q76Kpsg/mqdefault.jpg","viewCount":"1052","playlistId":"PLEkQk5xrP-tlEerGoLa1AFy-2XvQ-sovv","playlistName":"شرح صحيح البخاري - أ.د. يسري جبر (كاملا)","category":"حديث"},{"id":"DVgjlhg2Qow","title":"شرح صحيح البخاري كتاب الأذان من باب ٣٦","publishedAt":"2016-11-12T05:43:20Z","duration":"PT43M48S","thumbnail":"https://i.ytimg.com/vi/DVgjlhg2Qow/mqdefault.jpg","viewCount":"1245","playlistId":"PLEkQk5xrP-tlEerGoLa1AFy-2XvQ-sovv","playlistName":"شرح صحيح البخاري - أ.د. يسري جبر (كاملا)","category":"حديث"},{"id":"hIzsXxns7a8","title":"صحيح الإمام البخاري رضي الله عنه - كتاب اللباس باب الطيب في الرأس واللحية المجلس العاشر. د. يسري جبر","publishedAt":"2016-11-13T13:52:13Z","duration":"PT44M47S","thumbnail":"https://i.ytimg.com/vi/hIzsXxns7a8/mqdefault.jpg","viewCount":"216","playlistId":"PLEkQk5xrP-tmJuzaj4GWRenFoFx9gdbFX","playlistName":"شرح كتاب صحيح الإمام البخاري رضي الله تعالى عنه   أ.د. يسرى جبر","category":"حديث"},{"id":"Wsag8A-Y0cQ","title":"شرح صحيح البخاري كتاب الأذان من باب ٣٨","publishedAt":"2016-11-15T05:54:34Z","duration":"PT30M23S","thumbnail":"https://i.ytimg.com/vi/Wsag8A-Y0cQ/mqdefault.jpg","viewCount":"850","playlistId":"PLEkQk5xrP-tlEerGoLa1AFy-2XvQ-sovv","playlistName":"شرح صحيح البخاري - أ.د. يسري جبر (كاملا)","category":"حديث"},{"id":"Xx_Vj3bQbWU","title":"شرح صحيح البخاري كتاب الأذان من باب ٤٢","publishedAt":"2016-11-16T04:01:58Z","duration":"PT28M58S","thumbnail":"https://i.ytimg.com/vi/Xx_Vj3bQbWU/mqdefault.jpg","viewCount":"1027","playlistId":"PLEkQk5xrP-tlEerGoLa1AFy-2XvQ-sovv","playlistName":"شرح صحيح البخاري - أ.د. يسري جبر (كاملا)","category":"حديث"},{"id":"oCdKFfbiz2c","title":"شرح صحيح البخاري كتاب الأذان من باب ٤٨","publishedAt":"2016-11-16T05:52:07Z","duration":"PT32M53S","thumbnail":"https://i.ytimg.com/vi/oCdKFfbiz2c/mqdefault.jpg","viewCount":"1027","playlistId":"PLEkQk5xrP-tlEerGoLa1AFy-2XvQ-sovv","playlistName":"شرح صحيح البخاري - أ.د. يسري جبر (كاملا)","category":"حديث"},{"id":"7dMJPTwag4s","title":"صحيح الإمام البخاري رضي الله عنه - كتاب اللباس باب المتنمصات - المجلس الحادي عشر. د. يسري جبر","publishedAt":"2016-11-16T15:55:20Z","duration":"PT1H14M47S","thumbnail":"https://i.ytimg.com/vi/7dMJPTwag4s/mqdefault.jpg","viewCount":"448","playlistId":"PLEkQk5xrP-tmJuzaj4GWRenFoFx9gdbFX","playlistName":"شرح كتاب صحيح الإمام البخاري رضي الله تعالى عنه   أ.د. يسرى جبر","category":"حديث"},{"id":"cRZVp6DJZcs","title":"شرح صحيح البخاري كتاب الأذان من باب ٥٢","publishedAt":"2016-11-20T12:14:37Z","duration":"PT38M11S","thumbnail":"https://i.ytimg.com/vi/cRZVp6DJZcs/mqdefault.jpg","viewCount":"1040","playlistId":"PLEkQk5xrP-tlEerGoLa1AFy-2XvQ-sovv","playlistName":"شرح صحيح البخاري - أ.د. يسري جبر (كاملا)","category":"حديث"},{"id":"p5dBQneVqvw","title":"صحيح الإمام البخاري رضي الله عنه - كتاب الأدب - المجلس الأول. د. يسري جبر","publishedAt":"2016-11-20T15:08:34Z","duration":"PT50M54S","thumbnail":"https://i.ytimg.com/vi/p5dBQneVqvw/mqdefault.jpg","viewCount":"298","playlistId":"PLEkQk5xrP-tmJuzaj4GWRenFoFx9gdbFX","playlistName":"شرح كتاب صحيح الإمام البخاري رضي الله تعالى عنه   أ.د. يسرى جبر","category":"حديث"},{"id":"NJlIPRLOQSQ","title":"شرح صحيح البخاري كتاب الأذان من باب ٦١","publishedAt":"2016-11-20T19:19:23Z","duration":"PT41M57S","thumbnail":"https://i.ytimg.com/vi/NJlIPRLOQSQ/mqdefault.jpg","viewCount":"1072","playlistId":"PLEkQk5xrP-tlEerGoLa1AFy-2XvQ-sovv","playlistName":"شرح صحيح البخاري - أ.د. يسري جبر (كاملا)","category":"حديث"},{"id":"xJWjoC_vy0s","title":"شرح صحيح البخاري كتاب الأذان من باب ٧٠","publishedAt":"2016-11-21T13:54:53Z","duration":"PT32M18S","thumbnail":"https://i.ytimg.com/vi/xJWjoC_vy0s/mqdefault.jpg","viewCount":"1024","playlistId":"PLEkQk5xrP-tlEerGoLa1AFy-2XvQ-sovv","playlistName":"شرح صحيح البخاري - أ.د. يسري جبر (كاملا)","category":"حديث"},{"id":"VLXaUJnOBKg","title":"صحيح الإمام البخاري رضي الله عنه - كتاب الأدب - باب عقوق الوالدين - المجلس الثاني د. يسري جبر","publishedAt":"2016-11-21T19:02:42Z","duration":"PT42M43S","thumbnail":"https://i.ytimg.com/vi/VLXaUJnOBKg/mqdefault.jpg","viewCount":"283","playlistId":"PLEkQk5xrP-tmJuzaj4GWRenFoFx9gdbFX","playlistName":"شرح كتاب صحيح الإمام البخاري رضي الله تعالى عنه   أ.د. يسرى جبر","category":"حديث"},{"id":"faMnNlJ1CYw","title":"شرح صحيح البخاري كتاب الأذان من باب 83","publishedAt":"2016-11-22T06:43:54Z","duration":"PT30M54S","thumbnail":"https://i.ytimg.com/vi/faMnNlJ1CYw/mqdefault.jpg","viewCount":"1008","playlistId":"PLEkQk5xrP-tlEerGoLa1AFy-2XvQ-sovv","playlistName":"شرح صحيح البخاري - أ.د. يسري جبر (كاملا)","category":"حديث"},{"id":"gugi20yXffM","title":"شرح صحيح البخاري كتاب الأذان من باب ٩١","publishedAt":"2016-11-22T19:43:00Z","duration":"PT25M49S","thumbnail":"https://i.ytimg.com/vi/gugi20yXffM/mqdefault.jpg","viewCount":"1165","playlistId":"PLEkQk5xrP-tlEerGoLa1AFy-2XvQ-sovv","playlistName":"شرح صحيح البخاري - أ.د. يسري جبر (كاملا)","category":"حديث"},{"id":"lz8Ir2PFcY0","title":"شرح صحيح البخاري كتاب الأذان من باب ٩٦","publishedAt":"2016-11-23T07:12:34Z","duration":"PT31M12S","thumbnail":"https://i.ytimg.com/vi/lz8Ir2PFcY0/mqdefault.jpg","viewCount":"928","playlistId":"PLEkQk5xrP-tlEerGoLa1AFy-2XvQ-sovv","playlistName":"شرح صحيح البخاري - أ.د. يسري جبر (كاملا)","category":"حديث"},{"id":"13fXq0uaxiI","title":"شرح صحيح البخاري كتاب الأذان من باب ١٠٦","publishedAt":"2016-11-23T14:42:30Z","duration":"PT38M40S","thumbnail":"https://i.ytimg.com/vi/13fXq0uaxiI/mqdefault.jpg","viewCount":"1050","playlistId":"PLEkQk5xrP-tlEerGoLa1AFy-2XvQ-sovv","playlistName":"شرح صحيح البخاري - أ.د. يسري جبر (كاملا)","category":"حديث"}],"total":1218,"page":9,"pageSize":24,"totalPages":51}