{"items":[{"id":"t00c9BLKdbI","title":"178- بابُ صفة القيامة والجنَّة والنَّار","publishedAt":"2020-12-09T07:17:37Z","duration":"PT16M42S","thumbnail":"https://i.ytimg.com/vi/t00c9BLKdbI/mqdefault.jpg","viewCount":"1746","playlistId":"PLEkQk5xrP-tmKNjtYLfhATC37QdIsTMe0","playlistName":"شرح كتاب اللؤلؤ والمرجان فيما اتفق عليه الشيخان إماما المحدثين البخاري ومسلم. أ.د. يسري جبر","category":"حديث"},{"id":"Ss9bnLrR7Tk","title":"179- نُزل أهل الجنَّة","publishedAt":"2020-12-10T19:10:33Z","duration":"PT24M12S","thumbnail":"https://i.ytimg.com/vi/Ss9bnLrR7Tk/mqdefault.jpg","viewCount":"4217","playlistId":"PLEkQk5xrP-tmKNjtYLfhATC37QdIsTMe0","playlistName":"شرح كتاب اللؤلؤ والمرجان فيما اتفق عليه الشيخان إماما المحدثين البخاري ومسلم. أ.د. يسري جبر","category":"حديث"},{"id":"thV07ZFFFPk","title":"180-  الدُّخَان","publishedAt":"2020-12-12T07:16:25Z","duration":"PT32M18S","thumbnail":"https://i.ytimg.com/vi/thV07ZFFFPk/mqdefault.jpg","viewCount":"4180","playlistId":"PLEkQk5xrP-tmKNjtYLfhATC37QdIsTMe0","playlistName":"شرح كتاب اللؤلؤ والمرجان فيما اتفق عليه الشيخان إماما المحدثين البخاري ومسلم. أ.د. يسري جبر","category":"حديث"},{"id":"14ne4ZptCQc","title":"181- الجَنَّةُ وصِفَةُ نعيمِها وأهلِهِا","publishedAt":"2020-12-13T06:51:00Z","duration":"PT24M14S","thumbnail":"https://i.ytimg.com/vi/14ne4ZptCQc/mqdefault.jpg","viewCount":"5484","playlistId":"PLEkQk5xrP-tmKNjtYLfhATC37QdIsTMe0","playlistName":"شرح كتاب اللؤلؤ والمرجان فيما اتفق عليه الشيخان إماما المحدثين البخاري ومسلم. أ.د. يسري جبر","category":"حديث"},{"id":"YV4bYer9FVs","title":"182- النَّارُ يدخلها الجبَّارون والجنَّةُ يدخلها الضُّعفاء","publishedAt":"2020-12-15T07:26:40Z","duration":"PT35M14S","thumbnail":"https://i.ytimg.com/vi/YV4bYer9FVs/mqdefault.jpg","viewCount":"3617","playlistId":"PLEkQk5xrP-tmKNjtYLfhATC37QdIsTMe0","playlistName":"شرح كتاب اللؤلؤ والمرجان فيما اتفق عليه الشيخان إماما المحدثين البخاري ومسلم. أ.د. يسري جبر","category":"حديث"},{"id":"9ndQjYhvwSo","title":"183- صِفةُ يوم القيامة","publishedAt":"2020-12-17T06:49:33Z","duration":"PT15M53S","thumbnail":"https://i.ytimg.com/vi/9ndQjYhvwSo/mqdefault.jpg","viewCount":"4440","playlistId":"PLEkQk5xrP-tmKNjtYLfhATC37QdIsTMe0","playlistName":"شرح كتاب اللؤلؤ والمرجان فيما اتفق عليه الشيخان إماما المحدثين البخاري ومسلم. أ.د. يسري جبر","category":"حديث"},{"id":"MmoYzYxjCTM","title":"184- اقترابُ الفِتنِ وفَتْحُ رَدْم يأجوج ومأجوج","publishedAt":"2020-12-20T08:00:40Z","duration":"PT22M5S","thumbnail":"https://i.ytimg.com/vi/MmoYzYxjCTM/mqdefault.jpg","viewCount":"34781","playlistId":"PLEkQk5xrP-tmKNjtYLfhATC37QdIsTMe0","playlistName":"شرح كتاب اللؤلؤ والمرجان فيما اتفق عليه الشيخان إماما المحدثين البخاري ومسلم. أ.د. يسري جبر","category":"حديث"},{"id":"-xBRjPW30c0","title":"الأربعون النووية - المجلس الثاني -  الحديث العاشر","publishedAt":"2020-12-22T07:49:23Z","duration":"PT1H2M39S","thumbnail":"https://i.ytimg.com/vi/-xBRjPW30c0/mqdefault.jpg","viewCount":"2312","playlistId":"PLEkQk5xrP-tmHtx4cjd_IK-SgBg00N_ZN","playlistName":"الأربعون النووية","category":"حديث"},{"id":"o1q-V0LbRw4","title":"الأربعون النووية - المجلس الثالث والأخير - الحديث الحادي والثلاثون","publishedAt":"2020-12-23T07:58:03Z","duration":"PT50M22S","thumbnail":"https://i.ytimg.com/vi/o1q-V0LbRw4/mqdefault.jpg","viewCount":"1436","playlistId":"PLEkQk5xrP-tmHtx4cjd_IK-SgBg00N_ZN","playlistName":"الأربعون النووية","category":"حديث"},{"id":"UvbPAfOoxHk","title":"185- الفِتنُ وأشراطُ الساعة - إذا تواجه المسلمان بسيفيهما","publishedAt":"2020-12-24T08:07:25Z","duration":"PT34M37S","thumbnail":"https://i.ytimg.com/vi/UvbPAfOoxHk/mqdefault.jpg","viewCount":"5848","playlistId":"PLEkQk5xrP-tmKNjtYLfhATC37QdIsTMe0","playlistName":"شرح كتاب اللؤلؤ والمرجان فيما اتفق عليه الشيخان إماما المحدثين البخاري ومسلم. أ.د. يسري جبر","category":"حديث"},{"id":"46TLxRmrX_o","title":"186- لا تقومُ الساعة حتى يمر الرجلُ بقبر الرجلِ فيتمنَّى أن يكون مكان الميت من البلاء","publishedAt":"2020-12-26T09:21:57Z","duration":"PT15M3S","thumbnail":"https://i.ytimg.com/vi/46TLxRmrX_o/mqdefault.jpg","viewCount":"4767","playlistId":"PLEkQk5xrP-tmKNjtYLfhATC37QdIsTMe0","playlistName":"شرح كتاب اللؤلؤ والمرجان فيما اتفق عليه الشيخان إماما المحدثين البخاري ومسلم. أ.د. يسري جبر","category":"حديث"},{"id":"H5bHZLn9B3g","title":"187- كتابُ الفتن وأشراط الساعة - باب ابن صياد","publishedAt":"2020-12-28T07:05:20Z","duration":"PT27M10S","thumbnail":"https://i.ytimg.com/vi/H5bHZLn9B3g/mqdefault.jpg","viewCount":"5088","playlistId":"PLEkQk5xrP-tmKNjtYLfhATC37QdIsTMe0","playlistName":"شرح كتاب اللؤلؤ والمرجان فيما اتفق عليه الشيخان إماما المحدثين البخاري ومسلم. أ.د. يسري جبر","category":"حديث"},{"id":"wEs3bVMLc0k","title":"188- الزهد والرقائق","publishedAt":"2020-12-30T07:10:23Z","duration":"PT21M46S","thumbnail":"https://i.ytimg.com/vi/wEs3bVMLc0k/mqdefault.jpg","viewCount":"2650","playlistId":"PLEkQk5xrP-tmKNjtYLfhATC37QdIsTMe0","playlistName":"شرح كتاب اللؤلؤ والمرجان فيما اتفق عليه الشيخان إماما المحدثين البخاري ومسلم. أ.د. يسري جبر","category":"حديث"},{"id":"rq_zns87MtM","title":"189- إنِّي لأولُ العربِ رَمَى بسهمٍ في سبيل الله - حديث سعد بن أبي وقَّاص رضي الله عنه","publishedAt":"2021-01-01T07:50:37Z","duration":"PT24M","thumbnail":"https://i.ytimg.com/vi/rq_zns87MtM/mqdefault.jpg","viewCount":"1612","playlistId":"PLEkQk5xrP-tmKNjtYLfhATC37QdIsTMe0","playlistName":"شرح كتاب اللؤلؤ والمرجان فيما اتفق عليه الشيخان إماما المحدثين البخاري ومسلم. أ.د. يسري جبر","category":"حديث"},{"id":"VPhNneUqwuM","title":"190- حِفظُ اللسان","publishedAt":"2021-01-03T07:18:25Z","duration":"PT29M26S","thumbnail":"https://i.ytimg.com/vi/VPhNneUqwuM/mqdefault.jpg","viewCount":"5501","playlistId":"PLEkQk5xrP-tmKNjtYLfhATC37QdIsTMe0","playlistName":"شرح كتاب اللؤلؤ والمرجان فيما اتفق عليه الشيخان إماما المحدثين البخاري ومسلم. أ.د. يسري جبر","category":"حديث"},{"id":"2L8wvB9NQEk","title":"191- لا يُلْدَغُ المؤمنُ مِن جُحرٍ مرتين","publishedAt":"2021-01-05T07:11:13Z","duration":"PT23M3S","thumbnail":"https://i.ytimg.com/vi/2L8wvB9NQEk/mqdefault.jpg","viewCount":"4411","playlistId":"PLEkQk5xrP-tmKNjtYLfhATC37QdIsTMe0","playlistName":"شرح كتاب اللؤلؤ والمرجان فيما اتفق عليه الشيخان إماما المحدثين البخاري ومسلم. أ.د. يسري جبر","category":"حديث"},{"id":"_VEQi7cRP9M","title":"ختامُ شرح كتاب اللؤلؤ والمرجان - كتابُ التفسير","publishedAt":"2021-01-07T08:03:35Z","duration":"PT34M32S","thumbnail":"https://i.ytimg.com/vi/_VEQi7cRP9M/mqdefault.jpg","viewCount":"2211","playlistId":"PLEkQk5xrP-tmKNjtYLfhATC37QdIsTMe0","playlistName":"شرح كتاب اللؤلؤ والمرجان فيما اتفق عليه الشيخان إماما المحدثين البخاري ومسلم. أ.د. يسري جبر","category":"حديث"},{"id":"85U5x-QopCc","title":"\"باب قول الله تعالى\"وَهُوَ الَّذِي خَلَقَ السَّمَاوَاتِ وَالْأَرْضَ بِالْحَقِّ","publishedAt":"2022-06-19T05:00:01Z","duration":"PT51M51S","thumbnail":"https://i.ytimg.com/vi/85U5x-QopCc/mqdefault.jpg","viewCount":"2955","playlistId":"PLEkQk5xrP-tmJuzaj4GWRenFoFx9gdbFX","playlistName":"شرح كتاب صحيح الإمام البخاري رضي الله تعالى عنه   أ.د. يسرى جبر","category":"حديث"},{"id":"M6lZ_zWxT5k","title":"قوله تعالى \"وَكَانَ ٱللَّهُ سَمِیعَۢا بَصِيرًا\"","publishedAt":"2022-06-25T05:00:07Z","duration":"PT42M31S","thumbnail":"https://i.ytimg.com/vi/M6lZ_zWxT5k/mqdefault.jpg","viewCount":"2006","playlistId":"PLEkQk5xrP-tmJuzaj4GWRenFoFx9gdbFX","playlistName":"شرح كتاب صحيح الإمام البخاري رضي الله تعالى عنه   أ.د. يسرى جبر","category":"حديث"},{"id":"fW_0xDoRH-8","title":"السؤال بأسماء الله تعالى والاستعاذة بها","publishedAt":"2022-06-28T05:00:15Z","duration":"PT49M8S","thumbnail":"https://i.ytimg.com/vi/fW_0xDoRH-8/mqdefault.jpg","viewCount":"5414","playlistId":"PLEkQk5xrP-tmJuzaj4GWRenFoFx9gdbFX","playlistName":"شرح كتاب صحيح الإمام البخاري رضي الله تعالى عنه   أ.د. يسرى جبر","category":"حديث"},{"id":"rR_hsUk18Vk","title":"قوله تعالى \"كُلُّ شَيْءٍ هَالِكٌ إِلَّا وَجْهَهُ\" - كتاب التوحيد - شرح صحيح الإمام البخاري","publishedAt":"2022-07-04T05:00:17Z","duration":"PT44M10S","thumbnail":"https://i.ytimg.com/vi/rR_hsUk18Vk/mqdefault.jpg","viewCount":"5376","playlistId":"PLEkQk5xrP-tmJuzaj4GWRenFoFx9gdbFX","playlistName":"شرح كتاب صحيح الإمام البخاري رضي الله تعالى عنه   أ.د. يسرى جبر","category":"حديث"},{"id":"cpXRgoJCOos","title":"تأمُّلات ونفحات في حديث الشَّفاعة","publishedAt":"2022-07-16T08:05:00Z","duration":"PT41M15S","thumbnail":"https://i.ytimg.com/vi/cpXRgoJCOos/mqdefault.jpg","viewCount":"2701","playlistId":"PLEkQk5xrP-tmJuzaj4GWRenFoFx9gdbFX","playlistName":"شرح كتاب صحيح الإمام البخاري رضي الله تعالى عنه   أ.د. يسرى جبر","category":"حديث"},{"id":"G0bL7KIcM0Y","title":"608- قولُه تعالى \"لِمَا خَلَقْتُ بِيَدَيَّ\" شرح صحيح الإمام البخاري رضي الله عنه","publishedAt":"2022-08-13T05:30:02Z","duration":"PT49M19S","thumbnail":"https://i.ytimg.com/vi/G0bL7KIcM0Y/mqdefault.jpg","viewCount":"2421","playlistId":"PLEkQk5xrP-tmJuzaj4GWRenFoFx9gdbFX","playlistName":"شرح كتاب صحيح الإمام البخاري رضي الله تعالى عنه   أ.د. يسرى جبر","category":"حديث"},{"id":"Y7VZhDWCmp4","title":"609- قوله تعالى\"وَكَانَ عَرْشُهُ عَلَى الْمَاءِ\" -  شرح صحيح الإمام البخاري رضي الله تعالى عنه","publishedAt":"2022-08-19T19:15:01Z","duration":"PT40M28S","thumbnail":"https://i.ytimg.com/vi/Y7VZhDWCmp4/mqdefault.jpg","viewCount":"5058","playlistId":"PLEkQk5xrP-tmJuzaj4GWRenFoFx9gdbFX","playlistName":"شرح كتاب صحيح الإمام البخاري رضي الله تعالى عنه   أ.د. يسرى جبر","category":"حديث"}],"total":1218,"page":49,"pageSize":24,"totalPages":51}