{"items":[{"id":"bjbM2e97ZAE","title":"القِسمُ التاسع من التوكيد: وضع الظاهر موضع المُضْمَر (2) شرح البرهان في علوم القرآن","publishedAt":"2021-03-23T07:10:02Z","duration":"PT16M55S","thumbnail":"https://i.ytimg.com/vi/bjbM2e97ZAE/mqdefault.jpg","viewCount":"439","playlistId":"PLEkQk5xrP-tnW3iBL7HkKziOFCFZbTlf0","playlistName":"شرح البرهان في علوم القرآن - أ.د. يسري جبر","category":"تفسير"},{"id":"DDbVfHOdmWQ","title":"القِسمُ التاسع من التوكيد: وضع الظاهر موضع المُضْمَر (3) شرح البرهان في علوم القرآن","publishedAt":"2021-03-26T06:00:34Z","duration":"PT23M24S","thumbnail":"https://i.ytimg.com/vi/DDbVfHOdmWQ/mqdefault.jpg","viewCount":"492","playlistId":"PLEkQk5xrP-tnW3iBL7HkKziOFCFZbTlf0","playlistName":"شرح البرهان في علوم القرآن - أ.د. يسري جبر","category":"تفسير"},{"id":"KpQpYxnVtYs","title":"القِسمُ التاسع من التوكيد: وضع الظاهر موضع المُضْمَر (4) شرح البرهان في علوم القرآن","publishedAt":"2021-03-28T06:33:45Z","duration":"PT22M40S","thumbnail":"https://i.ytimg.com/vi/KpQpYxnVtYs/mqdefault.jpg","viewCount":"363","playlistId":"PLEkQk5xrP-tnW3iBL7HkKziOFCFZbTlf0","playlistName":"شرح البرهان في علوم القرآن - أ.د. يسري جبر","category":"تفسير"},{"id":"9um22N8G8-4","title":"القِسمُ التاسع من التوكيد: وضع الظاهر موضع المُضْمَر (5) شرح البرهان في علوم القرآن","publishedAt":"2021-03-30T06:33:15Z","duration":"PT13M27S","thumbnail":"https://i.ytimg.com/vi/9um22N8G8-4/mqdefault.jpg","viewCount":"345","playlistId":"PLEkQk5xrP-tnW3iBL7HkKziOFCFZbTlf0","playlistName":"شرح البرهان في علوم القرآن - أ.د. يسري جبر","category":"تفسير"},{"id":"8JxPxc_NBDw","title":"القِسمُ التاسع من التوكيد: وضع الظاهر موضع المُضْمَر (6) شرح البرهان في علوم القرآن","publishedAt":"2021-03-31T18:10:55Z","duration":"PT30M59S","thumbnail":"https://i.ytimg.com/vi/8JxPxc_NBDw/mqdefault.jpg","viewCount":"305","playlistId":"PLEkQk5xrP-tnW3iBL7HkKziOFCFZbTlf0","playlistName":"شرح البرهان في علوم القرآن - أ.د. يسري جبر","category":"تفسير"},{"id":"ym8xh9P-WeE","title":"القِسمُ التاسع من التوكيد: وضع الظاهر موضع المُضْمَر (7) شرح البرهان في علوم القرآن","publishedAt":"2021-04-02T05:47:21Z","duration":"PT18M29S","thumbnail":"https://i.ytimg.com/vi/ym8xh9P-WeE/mqdefault.jpg","viewCount":"329","playlistId":"PLEkQk5xrP-tnW3iBL7HkKziOFCFZbTlf0","playlistName":"شرح البرهان في علوم القرآن - أ.د. يسري جبر","category":"تفسير"},{"id":"0iYDD98tujE","title":"القِسمُ العاشرُ من التوكيد: صِيَغُ المبالغة - شرح البرهان في علوم القرآن","publishedAt":"2021-04-04T06:00:33Z","duration":"PT23M44S","thumbnail":"https://i.ytimg.com/vi/0iYDD98tujE/mqdefault.jpg","viewCount":"382","playlistId":"PLEkQk5xrP-tnW3iBL7HkKziOFCFZbTlf0","playlistName":"شرح البرهان في علوم القرآن - أ.د. يسري جبر","category":"تفسير"},{"id":"SJy5Egc-WPk","title":"القِسمُ العاشرُ من التوكيد: صِيَغُ المبالغة (2) \"تنبيهات\" شرح البرهان في علوم القرآن","publishedAt":"2021-04-06T06:05:26Z","duration":"PT19M2S","thumbnail":"https://i.ytimg.com/vi/SJy5Egc-WPk/mqdefault.jpg","viewCount":"333","playlistId":"PLEkQk5xrP-tnW3iBL7HkKziOFCFZbTlf0","playlistName":"شرح البرهان في علوم القرآن - أ.د. يسري جبر","category":"تفسير"},{"id":"MbmCdVTezpg","title":"القِسمُ العاشرُ من التوكيد: صِيَغُ المبالغة (3) \"ما جاء على صيغة فعيل\" شرح البرهان في علوم القرآن","publishedAt":"2021-04-08T06:06:47Z","duration":"PT26M24S","thumbnail":"https://i.ytimg.com/vi/MbmCdVTezpg/mqdefault.jpg","viewCount":"401","playlistId":"PLEkQk5xrP-tnW3iBL7HkKziOFCFZbTlf0","playlistName":"شرح البرهان في علوم القرآن - أ.د. يسري جبر","category":"تفسير"},{"id":"0xeUTwp0bwo","title":"القِسمُ العاشرُ من التوكيد: صِيَغُ المبالغة (4) \"ما جاء على صيغة فعول\" شرح البرهان في علوم القرآن","publishedAt":"2021-04-10T06:56:17Z","duration":"PT15M5S","thumbnail":"https://i.ytimg.com/vi/0xeUTwp0bwo/mqdefault.jpg","viewCount":"326","playlistId":"PLEkQk5xrP-tnW3iBL7HkKziOFCFZbTlf0","playlistName":"شرح البرهان في علوم القرآن - أ.د. يسري جبر","category":"تفسير"},{"id":"ZpsG8Chws8c","title":"القِسمُ الحادي عشر من التوكيد: المثنَّى وإرادة الواحد - شرح البرهان في علوم القرآن","publishedAt":"2021-04-12T06:05:18Z","duration":"PT16M27S","thumbnail":"https://i.ytimg.com/vi/ZpsG8Chws8c/mqdefault.jpg","viewCount":"341","playlistId":"PLEkQk5xrP-tnW3iBL7HkKziOFCFZbTlf0","playlistName":"شرح البرهان في علوم القرآن - أ.د. يسري جبر","category":"تفسير"},{"id":"NI_xXXP2lv4","title":"القِسمُ (12) من التوكيد: إطلاق الجَمْع وإرادة الواحد - شرح البرهان في علوم القرآن","publishedAt":"2021-04-15T06:44:13Z","duration":"PT11M51S","thumbnail":"https://i.ytimg.com/vi/NI_xXXP2lv4/mqdefault.jpg","viewCount":"275","playlistId":"PLEkQk5xrP-tnW3iBL7HkKziOFCFZbTlf0","playlistName":"شرح البرهان في علوم القرآن - أ.د. يسري جبر","category":"تفسير"},{"id":"vx6JDIzZxmM","title":"القِسمُ (14) من التوكيد: التَّكرار على وجه التأكيد - شرح البرهان في علوم القرآن","publishedAt":"2021-04-17T05:17:37Z","duration":"PT13M10S","thumbnail":"https://i.ytimg.com/vi/vx6JDIzZxmM/mqdefault.jpg","viewCount":"215","playlistId":"PLEkQk5xrP-tnW3iBL7HkKziOFCFZbTlf0","playlistName":"شرح البرهان في علوم القرآن - أ.د. يسري جبر","category":"تفسير"},{"id":"tcDD9Mj5ng8","title":"القِسمُ (14) من التوكيد: فوائد التَّكرار  - شرح البرهان في علوم القرآن","publishedAt":"2021-04-19T05:40:08Z","duration":"PT8M59S","thumbnail":"https://i.ytimg.com/vi/tcDD9Mj5ng8/mqdefault.jpg","viewCount":"280","playlistId":"PLEkQk5xrP-tnW3iBL7HkKziOFCFZbTlf0","playlistName":"شرح البرهان في علوم القرآن - أ.د. يسري جبر","category":"تفسير"},{"id":"xcbaEBW8Dxk","title":"القِسمُ (14) من التوكيد: فوائد التَّكرار: الفائدة الثالثة - شرح البرهان في علوم القرآن","publishedAt":"2021-04-21T05:50:01Z","duration":"PT21M39S","thumbnail":"https://i.ytimg.com/vi/xcbaEBW8Dxk/mqdefault.jpg","viewCount":"389","playlistId":"PLEkQk5xrP-tnW3iBL7HkKziOFCFZbTlf0","playlistName":"شرح البرهان في علوم القرآن - أ.د. يسري جبر","category":"تفسير"},{"id":"sVJqXR7usj0","title":"القِسمُ (14) من التوكيد: فوائد التَّكرار: الفائدة الخامسة - شرح البرهان في علوم القرآن","publishedAt":"2021-04-23T04:18:33Z","duration":"PT22M7S","thumbnail":"https://i.ytimg.com/vi/sVJqXR7usj0/mqdefault.jpg","viewCount":"341","playlistId":"PLEkQk5xrP-tnW3iBL7HkKziOFCFZbTlf0","playlistName":"شرح البرهان في علوم القرآن - أ.د. يسري جبر","category":"تفسير"},{"id":"gHPzP8-tifs","title":"القِسمُ (14) من التوكيد: فوائد التَّكرار: الفائدة السابعة - شرح البرهان في علوم القرآن","publishedAt":"2021-04-25T05:49:11Z","duration":"PT25M17S","thumbnail":"https://i.ytimg.com/vi/gHPzP8-tifs/mqdefault.jpg","viewCount":"384","playlistId":"PLEkQk5xrP-tnW3iBL7HkKziOFCFZbTlf0","playlistName":"شرح البرهان في علوم القرآن - أ.د. يسري جبر","category":"تفسير"},{"id":"pC_RgBvh0II","title":"القِسمُ (14) من التوكيد: فوائد التَّكرار: الفائدة السابعة (2) - شرح البرهان في علوم القرآن","publishedAt":"2021-04-27T05:25:36Z","duration":"PT29M29S","thumbnail":"https://i.ytimg.com/vi/pC_RgBvh0II/mqdefault.jpg","viewCount":"369","playlistId":"PLEkQk5xrP-tnW3iBL7HkKziOFCFZbTlf0","playlistName":"شرح البرهان في علوم القرآن - أ.د. يسري جبر","category":"تفسير"},{"id":"c_nlTC1SR0U","title":"القِسمُ (14) من التوكيد: فوائد التَّكرار: الفائدة السابعة (3) - شرح البرهان في علوم القرآن","publishedAt":"2021-04-30T04:41:38Z","duration":"PT29M38S","thumbnail":"https://i.ytimg.com/vi/c_nlTC1SR0U/mqdefault.jpg","viewCount":"330","playlistId":"PLEkQk5xrP-tnW3iBL7HkKziOFCFZbTlf0","playlistName":"شرح البرهان في علوم القرآن - أ.د. يسري جبر","category":"تفسير"},{"id":"x3rdlLsbJ7I","title":"القِسمُ (15) من التوكيد: الزيادة في بنية الكلمة - شرح البرهان في علوم القرآن","publishedAt":"2021-05-02T05:05:38Z","duration":"PT10M31S","thumbnail":"https://i.ytimg.com/vi/x3rdlLsbJ7I/mqdefault.jpg","viewCount":"292","playlistId":"PLEkQk5xrP-tnW3iBL7HkKziOFCFZbTlf0","playlistName":"شرح البرهان في علوم القرآن - أ.د. يسري جبر","category":"تفسير"},{"id":"-w8PGQdje-Q","title":"القِسمُ (16) من التوكيد: التفسير - شرح البرهان في علوم القرآن","publishedAt":"2021-05-05T06:12:47Z","duration":"PT18M14S","thumbnail":"https://i.ytimg.com/vi/-w8PGQdje-Q/mqdefault.jpg","viewCount":"289","playlistId":"PLEkQk5xrP-tnW3iBL7HkKziOFCFZbTlf0","playlistName":"شرح البرهان في علوم القرآن - أ.د. يسري جبر","category":"تفسير"},{"id":"q3UoMCgEDmA","title":"القِسمُ (18) من التوكيد: القَسَم - شرح البرهان في علوم القرآن","publishedAt":"2021-05-07T05:29:24Z","duration":"PT17M40S","thumbnail":"https://i.ytimg.com/vi/q3UoMCgEDmA/mqdefault.jpg","viewCount":"232","playlistId":"PLEkQk5xrP-tnW3iBL7HkKziOFCFZbTlf0","playlistName":"شرح البرهان في علوم القرآن - أ.د. يسري جبر","category":"تفسير"},{"id":"rs0Ax6AACdY","title":"القِسمُ (18) من التوكيد: القَسَم \"الفائدة الأولى\"- شرح البرهان في علوم القرآن","publishedAt":"2021-05-08T06:10:05Z","duration":"PT11M21S","thumbnail":"https://i.ytimg.com/vi/rs0Ax6AACdY/mqdefault.jpg","viewCount":"152","playlistId":"PLEkQk5xrP-tnW3iBL7HkKziOFCFZbTlf0","playlistName":"شرح البرهان في علوم القرآن - أ.د. يسري جبر","category":"تفسير"},{"id":"D4YAqDrwuWg","title":"القِسمُ (19) من التوكيد: إبراز الكلام في صورة المستحيل…\"- شرح البرهان في علوم القرآن","publishedAt":"2021-05-11T06:30:56Z","duration":"PT10M31S","thumbnail":"https://i.ytimg.com/vi/D4YAqDrwuWg/mqdefault.jpg","viewCount":"165","playlistId":"PLEkQk5xrP-tnW3iBL7HkKziOFCFZbTlf0","playlistName":"شرح البرهان في علوم القرآن - أ.د. يسري جبر","category":"تفسير"}],"total":631,"page":13,"pageSize":24,"totalPages":27}