{"items":[{"id":"7Rqx7TXComc","title":"شرح البرهان في علوم القرآن - النوع ١١ - القول في القراءات السبع ٤","publishedAt":"2019-10-24T10:17:44Z","duration":"PT17M14S","thumbnail":"https://i.ytimg.com/vi/7Rqx7TXComc/mqdefault.jpg","viewCount":"579","playlistId":"PLEkQk5xrP-tnW3iBL7HkKziOFCFZbTlf0","playlistName":"شرح البرهان في علوم القرآن - أ.د. يسري جبر","category":"تفسير"},{"id":"XhvPk_4S3Mg","title":"شرح البرهان في علوم القرآن - النوع ١١ - القول في القراءات السبع ٥","publishedAt":"2019-10-25T19:12:13Z","duration":"PT23M27S","thumbnail":"https://i.ytimg.com/vi/XhvPk_4S3Mg/mqdefault.jpg","viewCount":"614","playlistId":"PLEkQk5xrP-tnW3iBL7HkKziOFCFZbTlf0","playlistName":"شرح البرهان في علوم القرآن - أ.د. يسري جبر","category":"تفسير"},{"id":"4Rinfc3wK1k","title":"شرح البرهان في علوم القرآن - النوع ١٢ - في كيفية إنزاله","publishedAt":"2019-10-27T15:23:07Z","duration":"PT17M32S","thumbnail":"https://i.ytimg.com/vi/4Rinfc3wK1k/mqdefault.jpg","viewCount":"538","playlistId":"PLEkQk5xrP-tnW3iBL7HkKziOFCFZbTlf0","playlistName":"شرح البرهان في علوم القرآن - أ.د. يسري جبر","category":"تفسير"},{"id":"mDUHPw-uHWQ","title":"شرح البرهان في علوم القرآن - النوع ١٢ - في كيفية إنزاله ٢","publishedAt":"2019-10-29T12:03:18Z","duration":"PT16M53S","thumbnail":"https://i.ytimg.com/vi/mDUHPw-uHWQ/mqdefault.jpg","viewCount":"554","playlistId":"PLEkQk5xrP-tnW3iBL7HkKziOFCFZbTlf0","playlistName":"شرح البرهان في علوم القرآن - أ.د. يسري جبر","category":"تفسير"},{"id":"_BxkOgWZUTg","title":"شرح البرهان في علوم القرآن - النوع ١٣ - في بيان جمعه ومن حفظه من الصحابة رضي الله عنهم","publishedAt":"2019-10-30T09:21:04Z","duration":"PT18M9S","thumbnail":"https://i.ytimg.com/vi/_BxkOgWZUTg/mqdefault.jpg","viewCount":"525","playlistId":"PLEkQk5xrP-tnW3iBL7HkKziOFCFZbTlf0","playlistName":"شرح البرهان في علوم القرآن - أ.د. يسري جبر","category":"تفسير"},{"id":"Q3kUqqtTSxw","title":"شرح البرهان في علوم القرآن - النوع ١٣ - نسخ القرآن في المصاحف","publishedAt":"2019-10-31T10:47:41Z","duration":"PT24M28S","thumbnail":"https://i.ytimg.com/vi/Q3kUqqtTSxw/mqdefault.jpg","viewCount":"615","playlistId":"PLEkQk5xrP-tnW3iBL7HkKziOFCFZbTlf0","playlistName":"شرح البرهان في علوم القرآن - أ.د. يسري جبر","category":"تفسير"},{"id":"VB_q2bL5-bg","title":"شرح البرهان في علوم القرآن - النوع ١٣ - نسخ القرآن في المصاحف ٢","publishedAt":"2019-11-01T22:21:21Z","duration":"PT19M26S","thumbnail":"https://i.ytimg.com/vi/VB_q2bL5-bg/mqdefault.jpg","viewCount":"597","playlistId":"PLEkQk5xrP-tnW3iBL7HkKziOFCFZbTlf0","playlistName":"شرح البرهان في علوم القرآن - أ.د. يسري جبر","category":"تفسير"},{"id":"I3AQ4jO8dJ4","title":"شرح البرهان في علوم القرآن - النوع ١٤ - معرفة تقسيمه بحسب سوره وترتيب السور والآيات وعددها","publishedAt":"2019-11-02T23:27:34Z","duration":"PT16M44S","thumbnail":"https://i.ytimg.com/vi/I3AQ4jO8dJ4/mqdefault.jpg","viewCount":"617","playlistId":"PLEkQk5xrP-tnW3iBL7HkKziOFCFZbTlf0","playlistName":"شرح البرهان في علوم القرآن - أ.د. يسري جبر","category":"تفسير"},{"id":"7XsLARdn0yY","title":"شرح البرهان في علوم القرآن - النوع ١٤ - معرفة تقسيمه بحسب سوره وترتيب السور والآيات وعددها ٢","publishedAt":"2019-11-04T11:44:05Z","duration":"PT21M14S","thumbnail":"https://i.ytimg.com/vi/7XsLARdn0yY/mqdefault.jpg","viewCount":"520","playlistId":"PLEkQk5xrP-tnW3iBL7HkKziOFCFZbTlf0","playlistName":"شرح البرهان في علوم القرآن - أ.د. يسري جبر","category":"تفسير"},{"id":"2igd6_jKtAc","title":"شرح البرهان في علوم القرآن - النوع ١٤ - فصل أتصاف القرآن ثمانية","publishedAt":"2019-11-06T11:23:14Z","duration":"PT19M28S","thumbnail":"https://i.ytimg.com/vi/2igd6_jKtAc/mqdefault.jpg","viewCount":"569","playlistId":"PLEkQk5xrP-tnW3iBL7HkKziOFCFZbTlf0","playlistName":"شرح البرهان في علوم القرآن - أ.د. يسري جبر","category":"تفسير"},{"id":"0zg8j2hMgEw","title":"شرح البرهان في علوم القرآن - النوع ١٤ - فصل أتصاف القرآن ثمانية ٢","publishedAt":"2019-11-07T22:16:04Z","duration":"PT22M32S","thumbnail":"https://i.ytimg.com/vi/0zg8j2hMgEw/mqdefault.jpg","viewCount":"529","playlistId":"PLEkQk5xrP-tnW3iBL7HkKziOFCFZbTlf0","playlistName":"شرح البرهان في علوم القرآن - أ.د. يسري جبر","category":"تفسير"},{"id":"rZB5Kr0rtGw","title":"شرح البرهان في علوم القرآن - النوع ١٤ - تنبيه : ترتيب وضع السور في المصحف","publishedAt":"2019-11-13T14:45:14Z","duration":"PT13M12S","thumbnail":"https://i.ytimg.com/vi/rZB5Kr0rtGw/mqdefault.jpg","viewCount":"685","playlistId":"PLEkQk5xrP-tnW3iBL7HkKziOFCFZbTlf0","playlistName":"شرح البرهان في علوم القرآن - أ.د. يسري جبر","category":"تفسير"},{"id":"WzAHB9whH40","title":"شرح البرهان في علوم القرآن - النوع النوع  ١٩ - معرفة التصريف","publishedAt":"2019-11-27T04:53:22Z","duration":"PT16M24S","thumbnail":"https://i.ytimg.com/vi/WzAHB9whH40/mqdefault.jpg","viewCount":"548","playlistId":"PLEkQk5xrP-tnW3iBL7HkKziOFCFZbTlf0","playlistName":"شرح البرهان في علوم القرآن - أ.د. يسري جبر","category":"تفسير"},{"id":"clLhwptuPaY","title":"شرح البرهان في علوم القرآن - النوع ٢٠ - معرفة الأحكام من جهة أفرادها وتركيبها","publishedAt":"2019-11-27T12:16:00Z","duration":"PT33M47S","thumbnail":"https://i.ytimg.com/vi/clLhwptuPaY/mqdefault.jpg","viewCount":"799","playlistId":"PLEkQk5xrP-tnW3iBL7HkKziOFCFZbTlf0","playlistName":"شرح البرهان في علوم القرآن - أ.د. يسري جبر","category":"تفسير"},{"id":"Rix0NdBRPrU","title":"شرح البرهان في علوم القرآن - النوع ٢٠ - معرفة الأحكام من جهة أفرادها وتركيبها ٢","publishedAt":"2019-11-28T10:44:32Z","duration":"PT20M57S","thumbnail":"https://i.ytimg.com/vi/Rix0NdBRPrU/mqdefault.jpg","viewCount":"606","playlistId":"PLEkQk5xrP-tnW3iBL7HkKziOFCFZbTlf0","playlistName":"شرح البرهان في علوم القرآن - أ.د. يسري جبر","category":"تفسير"},{"id":"OJc4-jJN7Jk","title":"شرح البرهان في علوم القرآن - النوع ١٤ - فائدة : سبب سقوط البسملة أول براءة","publishedAt":"2019-12-10T14:23:38Z","duration":"PT14M41S","thumbnail":"https://i.ytimg.com/vi/OJc4-jJN7Jk/mqdefault.jpg","viewCount":"611","playlistId":"PLEkQk5xrP-tnW3iBL7HkKziOFCFZbTlf0","playlistName":"شرح البرهان في علوم القرآن - أ.د. يسري جبر","category":"تفسير"},{"id":"47AHUwlM-2M","title":"شرح البرهان في علوم القرآن - النوع ١٤ - فائدة : في بيان معنى الآية لغة واصطلاحا","publishedAt":"2019-12-10T18:54:09Z","duration":"PT31M26S","thumbnail":"https://i.ytimg.com/vi/47AHUwlM-2M/mqdefault.jpg","viewCount":"510","playlistId":"PLEkQk5xrP-tnW3iBL7HkKziOFCFZbTlf0","playlistName":"شرح البرهان في علوم القرآن - أ.د. يسري جبر","category":"تفسير"},{"id":"7PDkFSxkJpQ","title":"شرح البرهان في علوم القرآن - النوع ١٤ - خاتمة : في تعدد أسماء السور","publishedAt":"2019-12-11T12:43:08Z","duration":"PT15M47S","thumbnail":"https://i.ytimg.com/vi/7PDkFSxkJpQ/mqdefault.jpg","viewCount":"426","playlistId":"PLEkQk5xrP-tnW3iBL7HkKziOFCFZbTlf0","playlistName":"شرح البرهان في علوم القرآن - أ.د. يسري جبر","category":"تفسير"},{"id":"zMP5BeFhhO0","title":"شرح البرهان في علوم القرآن - النوع ١٥ - معرفة أسمائه واشتقاتها","publishedAt":"2019-12-12T14:19:03Z","duration":"PT11M48S","thumbnail":"https://i.ytimg.com/vi/zMP5BeFhhO0/mqdefault.jpg","viewCount":"437","playlistId":"PLEkQk5xrP-tnW3iBL7HkKziOFCFZbTlf0","playlistName":"شرح البرهان في علوم القرآن - أ.د. يسري جبر","category":"تفسير"},{"id":"BbrO6iWDPNE","title":"شرح البرهان في علوم القرآن - النوع ١٥ - تفسير هذه الأسامي","publishedAt":"2019-12-13T15:25:48Z","duration":"PT22M5S","thumbnail":"https://i.ytimg.com/vi/BbrO6iWDPNE/mqdefault.jpg","viewCount":"549","playlistId":"PLEkQk5xrP-tnW3iBL7HkKziOFCFZbTlf0","playlistName":"شرح البرهان في علوم القرآن - أ.د. يسري جبر","category":"تفسير"},{"id":"DKu4ERI9jIE","title":"شرح البرهان في علوم القرآن - النوع ١٦ - معرفة ما وقع فيه من غير لغة أهل الحجاز","publishedAt":"2019-12-14T09:06:28Z","duration":"PT18M41S","thumbnail":"https://i.ytimg.com/vi/DKu4ERI9jIE/mqdefault.jpg","viewCount":"484","playlistId":"PLEkQk5xrP-tnW3iBL7HkKziOFCFZbTlf0","playlistName":"شرح البرهان في علوم القرآن - أ.د. يسري جبر","category":"تفسير"},{"id":"z0_BY0JhUXs","title":"شرح البرهان في علوم القرآن - النوع ١٧ - معرفة ما فيه من غير لغة العرب","publishedAt":"2019-12-14T18:54:03Z","duration":"PT22M36S","thumbnail":"https://i.ytimg.com/vi/z0_BY0JhUXs/mqdefault.jpg","viewCount":"599","playlistId":"PLEkQk5xrP-tnW3iBL7HkKziOFCFZbTlf0","playlistName":"شرح البرهان في علوم القرآن - أ.د. يسري جبر","category":"تفسير"},{"id":"_7zDn6D_HTw","title":"شرح البرهان في علوم القرآن - النوع ١٨ - معرفة غريبه","publishedAt":"2019-12-15T08:41:56Z","duration":"PT35M47S","thumbnail":"https://i.ytimg.com/vi/_7zDn6D_HTw/mqdefault.jpg","viewCount":"770","playlistId":"PLEkQk5xrP-tnW3iBL7HkKziOFCFZbTlf0","playlistName":"شرح البرهان في علوم القرآن - أ.د. يسري جبر","category":"تفسير"},{"id":"cSIUpWDTRFw","title":"شرح البرهان في علوم القرآن - النوع ٢٠ - معرفة الأحكام من جهة أفرادها وتركيبها ٤","publishedAt":"2019-12-15T17:44:35Z","duration":"PT24M46S","thumbnail":"https://i.ytimg.com/vi/cSIUpWDTRFw/mqdefault.jpg","viewCount":"443","playlistId":"PLEkQk5xrP-tnW3iBL7HkKziOFCFZbTlf0","playlistName":"شرح البرهان في علوم القرآن - أ.د. يسري جبر","category":"تفسير"}],"total":631,"page":3,"pageSize":24,"totalPages":27}