{"items":[{"id":"iCZiHyv2XFY","title":"شرح البرهان في علوم القرآن - النوع ٣٤ - التنبيه الثاني في ضروب النسخ في القرآن","publishedAt":"2020-02-27T06:00:11Z","duration":"PT16M55S","thumbnail":"https://i.ytimg.com/vi/iCZiHyv2XFY/mqdefault.jpg","viewCount":"312","playlistId":"PLEkQk5xrP-tnW3iBL7HkKziOFCFZbTlf0","playlistName":"شرح البرهان في علوم القرآن - أ.د. يسري جبر","category":"تفسير"},{"id":"xmmX2aw4Beo","title":"شرح البرهان في علوم القرآن - النوع ٣٤ - التنبيه الثاني في ضروب النسخ في القرآن ٢","publishedAt":"2020-02-28T06:00:13Z","duration":"PT40M","thumbnail":"https://i.ytimg.com/vi/xmmX2aw4Beo/mqdefault.jpg","viewCount":"352","playlistId":"PLEkQk5xrP-tnW3iBL7HkKziOFCFZbTlf0","playlistName":"شرح البرهان في علوم القرآن - أ.د. يسري جبر","category":"تفسير"},{"id":"6QuzlytaGao","title":"شرح البرهان في علوم القرآن - النوع ٣٤ - التنبيه الثالث في تقسيم القرآن على ضروب من وجه آخر","publishedAt":"2020-02-29T06:00:00Z","duration":"PT35M2S","thumbnail":"https://i.ytimg.com/vi/6QuzlytaGao/mqdefault.jpg","viewCount":"375","playlistId":"PLEkQk5xrP-tnW3iBL7HkKziOFCFZbTlf0","playlistName":"شرح البرهان في علوم القرآن - أ.د. يسري جبر","category":"تفسير"},{"id":"HKoQ9vnnJ-k","title":"شرح البرهان في علوم القرآن - النوع ٣٥ - معرفة موهم المختلف","publishedAt":"2020-03-01T06:00:04Z","duration":"PT18M59S","thumbnail":"https://i.ytimg.com/vi/HKoQ9vnnJ-k/mqdefault.jpg","viewCount":"528","playlistId":"PLEkQk5xrP-tnW3iBL7HkKziOFCFZbTlf0","playlistName":"شرح البرهان في علوم القرآن - أ.د. يسري جبر","category":"تفسير"},{"id":"lPqxFjqkTx8","title":"شرح البرهان في علوم القرآن - النوع ٣٥ - فصل في القول عند تعارض الآي","publishedAt":"2020-03-02T06:00:04Z","duration":"PT28M2S","thumbnail":"https://i.ytimg.com/vi/lPqxFjqkTx8/mqdefault.jpg","viewCount":"452","playlistId":"PLEkQk5xrP-tnW3iBL7HkKziOFCFZbTlf0","playlistName":"شرح البرهان في علوم القرآن - أ.د. يسري جبر","category":"تفسير"},{"id":"LyQ69vIpyD4","title":"شرح البرهان في علوم القرآن - النوع ٣٥ - فصل في القول عند تعارض آي القرآن والآثار","publishedAt":"2020-03-03T06:00:02Z","duration":"PT19M10S","thumbnail":"https://i.ytimg.com/vi/LyQ69vIpyD4/mqdefault.jpg","viewCount":"389","playlistId":"PLEkQk5xrP-tnW3iBL7HkKziOFCFZbTlf0","playlistName":"شرح البرهان في علوم القرآن - أ.د. يسري جبر","category":"تفسير"},{"id":"5uSYed_xqHo","title":"شرح البرهان في علوم القرآن - النوع ٣٥ - فائدة في القول في الاختلاف والتناقض","publishedAt":"2020-03-04T06:00:00Z","duration":"PT24M42S","thumbnail":"https://i.ytimg.com/vi/5uSYed_xqHo/mqdefault.jpg","viewCount":"466","playlistId":"PLEkQk5xrP-tnW3iBL7HkKziOFCFZbTlf0","playlistName":"شرح البرهان في علوم القرآن - أ.د. يسري جبر","category":"تفسير"},{"id":"bcaLDzw3D4w","title":"شرح البرهان في علوم القرآن - النوع ٣٥ - فصل في الأسباب الموهمة الاختلاف ٢","publishedAt":"2020-03-05T06:00:03Z","duration":"PT18M36S","thumbnail":"https://i.ytimg.com/vi/bcaLDzw3D4w/mqdefault.jpg","viewCount":"443","playlistId":"PLEkQk5xrP-tnW3iBL7HkKziOFCFZbTlf0","playlistName":"شرح البرهان في علوم القرآن - أ.د. يسري جبر","category":"تفسير"},{"id":"GX6drwwZb84","title":"شرح البرهان في علوم القرآن - النوع ٣٥ - فصل في الأسباب الموهمة الاختلاف ٣","publishedAt":"2020-03-06T06:00:04Z","duration":"PT12M49S","thumbnail":"https://i.ytimg.com/vi/GX6drwwZb84/mqdefault.jpg","viewCount":"249","playlistId":"PLEkQk5xrP-tnW3iBL7HkKziOFCFZbTlf0","playlistName":"شرح البرهان في علوم القرآن - أ.د. يسري جبر","category":"تفسير"},{"id":"FxdYHsAoYSs","title":"شرح البرهان في علوم القرآن - النوع ٣٥ - فصل في الأسباب الموهمة الاختلاف ٤","publishedAt":"2020-03-07T06:00:02Z","duration":"PT25M49S","thumbnail":"https://i.ytimg.com/vi/FxdYHsAoYSs/mqdefault.jpg","viewCount":"425","playlistId":"PLEkQk5xrP-tnW3iBL7HkKziOFCFZbTlf0","playlistName":"شرح البرهان في علوم القرآن - أ.د. يسري جبر","category":"تفسير"},{"id":"OiPEZaQ9LZ0","title":"شرح البرهان في علوم القرآن - النوع ٣٥ - فصل في الإجابة عن بعض الاستشكالات","publishedAt":"2020-03-08T06:00:04Z","duration":"PT17M54S","thumbnail":"https://i.ytimg.com/vi/OiPEZaQ9LZ0/mqdefault.jpg","viewCount":"424","playlistId":"PLEkQk5xrP-tnW3iBL7HkKziOFCFZbTlf0","playlistName":"شرح البرهان في علوم القرآن - أ.د. يسري جبر","category":"تفسير"},{"id":"V0aS9gymQas","title":"شرح البرهان في علوم القرآن - النوع ٣٦ -   معرفة المحكم من المتشابه","publishedAt":"2020-03-09T06:00:03Z","duration":"PT15M51S","thumbnail":"https://i.ytimg.com/vi/V0aS9gymQas/mqdefault.jpg","viewCount":"575","playlistId":"PLEkQk5xrP-tnW3iBL7HkKziOFCFZbTlf0","playlistName":"شرح البرهان في علوم القرآن - أ.د. يسري جبر","category":"تفسير"},{"id":"BM1xm5u_7-Q","title":"شرح البرهان في علوم القرآن - النوع ٣٦ - تفريعات","publishedAt":"2020-03-10T06:00:00Z","duration":"PT26M22S","thumbnail":"https://i.ytimg.com/vi/BM1xm5u_7-Q/mqdefault.jpg","viewCount":"389","playlistId":"PLEkQk5xrP-tnW3iBL7HkKziOFCFZbTlf0","playlistName":"شرح البرهان في علوم القرآن - أ.د. يسري جبر","category":"تفسير"},{"id":"q_YJ7u0p7RU","title":"شرح البرهان في علوم القرآن - النوع ٣٦ - تفريعات ٢","publishedAt":"2020-03-11T09:15:00Z","duration":"PT22M54S","thumbnail":"https://i.ytimg.com/vi/q_YJ7u0p7RU/mqdefault.jpg","viewCount":"392","playlistId":"PLEkQk5xrP-tnW3iBL7HkKziOFCFZbTlf0","playlistName":"شرح البرهان في علوم القرآن - أ.د. يسري جبر","category":"تفسير"},{"id":"Nq-xg-MA3Cc","title":"شرح البرهان في علوم القرآن - النوع ٣٧ - في حكم الآيات المتشابهات الواردة في الصفات","publishedAt":"2020-03-12T06:30:00Z","duration":"PT31M28S","thumbnail":"https://i.ytimg.com/vi/Nq-xg-MA3Cc/mqdefault.jpg","viewCount":"381","playlistId":"PLEkQk5xrP-tnW3iBL7HkKziOFCFZbTlf0","playlistName":"شرح البرهان في علوم القرآن - أ.د. يسري جبر","category":"تفسير"},{"id":"H8uH_MDxJ0Q","title":"شرح البرهان في علوم القرآن - النوع ٣٧ - في حكم الآيات المتشابهات الواردة في الصفات ٢","publishedAt":"2020-03-13T06:30:01Z","duration":"PT34M36S","thumbnail":"https://i.ytimg.com/vi/H8uH_MDxJ0Q/mqdefault.jpg","viewCount":"341","playlistId":"PLEkQk5xrP-tnW3iBL7HkKziOFCFZbTlf0","playlistName":"شرح البرهان في علوم القرآن - أ.د. يسري جبر","category":"تفسير"},{"id":"TiG-Nm-6x0U","title":"شرح البرهان في علوم القرآن - النوع ٣٧ - في حكم الآيات المتشابهات الواردة في الصفات ٣","publishedAt":"2020-03-14T06:30:00Z","duration":"PT13M54S","thumbnail":"https://i.ytimg.com/vi/TiG-Nm-6x0U/mqdefault.jpg","viewCount":"333","playlistId":"PLEkQk5xrP-tnW3iBL7HkKziOFCFZbTlf0","playlistName":"شرح البرهان في علوم القرآن - أ.د. يسري جبر","category":"تفسير"},{"id":"Ut-0_GbczB0","title":"شرح البرهان في علوم القرآن - النوع ٣٧ - في حكم الآيات المتشابهات الواردة في الصفات ٤","publishedAt":"2020-03-15T06:30:00Z","duration":"PT29M1S","thumbnail":"https://i.ytimg.com/vi/Ut-0_GbczB0/mqdefault.jpg","viewCount":"350","playlistId":"PLEkQk5xrP-tnW3iBL7HkKziOFCFZbTlf0","playlistName":"شرح البرهان في علوم القرآن - أ.د. يسري جبر","category":"تفسير"},{"id":"l2K_SCHZUd0","title":"شرح البرهان في علوم القرآن - النوع ٣٨ - معرفة إعجازه","publishedAt":"2020-03-16T08:30:04Z","duration":"PT41M57S","thumbnail":"https://i.ytimg.com/vi/l2K_SCHZUd0/mqdefault.jpg","viewCount":"451","playlistId":"PLEkQk5xrP-tnW3iBL7HkKziOFCFZbTlf0","playlistName":"شرح البرهان في علوم القرآن - أ.د. يسري جبر","category":"تفسير"},{"id":"CJXPkyTNjQ0","title":"شرح البرهان في علوم القرآن - النوع ٣٨ - بيان الأقوال المختلفة في وجوه الإعجاز","publishedAt":"2020-03-17T06:30:02Z","duration":"PT19M59S","thumbnail":"https://i.ytimg.com/vi/CJXPkyTNjQ0/mqdefault.jpg","viewCount":"362","playlistId":"PLEkQk5xrP-tnW3iBL7HkKziOFCFZbTlf0","playlistName":"شرح البرهان في علوم القرآن - أ.د. يسري جبر","category":"تفسير"},{"id":"60AdSiRU3lE","title":"شرح البرهان في علوم القرآن - النوع ٣٨ - بيان الأقوال المختلفة في وجوه الإعجاز ٢","publishedAt":"2020-03-18T06:30:00Z","duration":"PT19M9S","thumbnail":"https://i.ytimg.com/vi/60AdSiRU3lE/mqdefault.jpg","viewCount":"268","playlistId":"PLEkQk5xrP-tnW3iBL7HkKziOFCFZbTlf0","playlistName":"شرح البرهان في علوم القرآن - أ.د. يسري جبر","category":"تفسير"},{"id":"k6MxZ6jVEQ8","title":"شرح البرهان في علوم القرآن - النوع ٣٨ - بيان الأقوال المختلفة في وجوه الإعجاز ٣","publishedAt":"2020-03-19T06:30:00Z","duration":"PT28M17S","thumbnail":"https://i.ytimg.com/vi/k6MxZ6jVEQ8/mqdefault.jpg","viewCount":"259","playlistId":"PLEkQk5xrP-tnW3iBL7HkKziOFCFZbTlf0","playlistName":"شرح البرهان في علوم القرآن - أ.د. يسري جبر","category":"تفسير"},{"id":"KwLA3aDqJX4","title":"شرح البرهان في علوم القرآن - النوع ٣٨ - بيان الأقوال المختلفة في وجوه الإعجاز ٤","publishedAt":"2020-03-20T06:30:01Z","duration":"PT20M31S","thumbnail":"https://i.ytimg.com/vi/KwLA3aDqJX4/mqdefault.jpg","viewCount":"321","playlistId":"PLEkQk5xrP-tnW3iBL7HkKziOFCFZbTlf0","playlistName":"شرح البرهان في علوم القرآن - أ.د. يسري جبر","category":"تفسير"},{"id":"PjjUJ6Csbew","title":"شرح البرهان في علوم القرآن - النوع ٣٨ - بيان الأقوال المختلفة في وجوه الإعجاز ٥","publishedAt":"2020-03-22T08:30:02Z","duration":"PT11M33S","thumbnail":"https://i.ytimg.com/vi/PjjUJ6Csbew/mqdefault.jpg","viewCount":"317","playlistId":"PLEkQk5xrP-tnW3iBL7HkKziOFCFZbTlf0","playlistName":"شرح البرهان في علوم القرآن - أ.د. يسري جبر","category":"تفسير"}],"total":631,"page":7,"pageSize":24,"totalPages":27}