{"items":[{"id":"5arkjNhQQhE","title":"510- قاعدة فيما إذا ذكر الاسم مرتين: 1- أن يكونا مُعَرَّفتين - شرح البرهان في علوم القرآن","publishedAt":"2022-05-20T05:15:00Z","duration":"PT37M19S","thumbnail":"https://i.ytimg.com/vi/5arkjNhQQhE/mqdefault.jpg","viewCount":"2813","playlistId":"PLEkQk5xrP-tnW3iBL7HkKziOFCFZbTlf0","playlistName":"شرح البرهان في علوم القرآن - أ.د. يسري جبر","category":"تفسير"},{"id":"V31NqQSrRpE","title":"511- قاعدة فيما إذا ذُكِرَ الاسمُ مرتين: 2- أن يكونا نَكِرَتَيْن - شرح البرهان في علوم القرآن","publishedAt":"2022-05-21T05:15:00Z","duration":"PT18M23S","thumbnail":"https://i.ytimg.com/vi/V31NqQSrRpE/mqdefault.jpg","viewCount":"740","playlistId":"PLEkQk5xrP-tnW3iBL7HkKziOFCFZbTlf0","playlistName":"شرح البرهان في علوم القرآن - أ.د. يسري جبر","category":"تفسير"},{"id":"nSoP1Io4Ud8","title":"512- قاعدة: إذا ذكر الاسمُ مرتين: 3- أن يكون الأول نكرة والثاني معرفة   - شرح البرهان في علوم القرآن","publishedAt":"2022-05-22T05:15:02Z","duration":"PT17M16S","thumbnail":"https://i.ytimg.com/vi/nSoP1Io4Ud8/mqdefault.jpg","viewCount":"1225","playlistId":"PLEkQk5xrP-tnW3iBL7HkKziOFCFZbTlf0","playlistName":"شرح البرهان في علوم القرآن - أ.د. يسري جبر","category":"تفسير"},{"id":"u7j2LCXjYNE","title":"513- العطف - شرح البرهان في علوم القرآن","publishedAt":"2022-05-24T05:15:05Z","duration":"PT45M15S","thumbnail":"https://i.ytimg.com/vi/u7j2LCXjYNE/mqdefault.jpg","viewCount":"1646","playlistId":"PLEkQk5xrP-tnW3iBL7HkKziOFCFZbTlf0","playlistName":"شرح البرهان في علوم القرآن - أ.د. يسري جبر","category":"تفسير"},{"id":"4E9R26UW5PM","title":"514- العطف: أحوال الجملة - شرح البرهان في علوم القرآن","publishedAt":"2022-05-26T05:46:00Z","duration":"PT34M15S","thumbnail":"https://i.ytimg.com/vi/4E9R26UW5PM/mqdefault.jpg","viewCount":"549","playlistId":"PLEkQk5xrP-tnW3iBL7HkKziOFCFZbTlf0","playlistName":"شرح البرهان في علوم القرآن - أ.د. يسري جبر","category":"تفسير"},{"id":"cdDSmW2rCZg","title":"515- عطفُ الاسمِ على الاسم - شرح البرهان في علوم القرآن","publishedAt":"2022-05-27T05:15:00Z","duration":"PT31M39S","thumbnail":"https://i.ytimg.com/vi/cdDSmW2rCZg/mqdefault.jpg","viewCount":"638","playlistId":"PLEkQk5xrP-tnW3iBL7HkKziOFCFZbTlf0","playlistName":"شرح البرهان في علوم القرآن - أ.د. يسري جبر","category":"تفسير"},{"id":"01n9qlovxDw","title":"516- أقسام العطف باعتبار المعطوف: عطف على اللفظ وعطف على الموضع وعطف على التوهم","publishedAt":"2022-05-28T07:05:00Z","duration":"PT33M14S","thumbnail":"https://i.ytimg.com/vi/01n9qlovxDw/mqdefault.jpg","viewCount":"1149","playlistId":"PLEkQk5xrP-tnW3iBL7HkKziOFCFZbTlf0","playlistName":"شرح البرهان في علوم القرآن - أ.د. يسري جبر","category":"تفسير"},{"id":"layJ_uS1O6o","title":"517- عطف الشيء على نفسه، عطف بغير أداة عطف، عطف على المضمر إن كان منفصلًا مرفوعًا","publishedAt":"2022-05-29T05:15:00Z","duration":"PT32M26S","thumbnail":"https://i.ytimg.com/vi/layJ_uS1O6o/mqdefault.jpg","viewCount":"937","playlistId":"PLEkQk5xrP-tnW3iBL7HkKziOFCFZbTlf0","playlistName":"شرح البرهان في علوم القرآن - أ.د. يسري جبر","category":"تفسير"},{"id":"3zj2SKUI6yU","title":"518- العَدد: اسم الفاعل المشتق من العدد له استعمالان - شرح البرهان في علوم القرآن","publishedAt":"2022-05-30T05:15:00Z","duration":"PT25M15S","thumbnail":"https://i.ytimg.com/vi/3zj2SKUI6yU/mqdefault.jpg","viewCount":"729","playlistId":"PLEkQk5xrP-tnW3iBL7HkKziOFCFZbTlf0","playlistName":"شرح البرهان في علوم القرآن - أ.د. يسري جبر","category":"تفسير"},{"id":"L1TNLagUaVw","title":"519- أحكام بعض الألفاظ التي يكثر دورانها في القرآن - شرح البرهان في علوم القرآن","publishedAt":"2022-05-31T05:05:00Z","duration":"PT41M52S","thumbnail":"https://i.ytimg.com/vi/L1TNLagUaVw/mqdefault.jpg","viewCount":"1219","playlistId":"PLEkQk5xrP-tnW3iBL7HkKziOFCFZbTlf0","playlistName":"شرح البرهان في علوم القرآن - أ.د. يسري جبر","category":"تفسير"},{"id":"37Zui8ESMjs","title":"520- جَعَلَ - خَلَقَ: ما الفرق بينهما؟ - شرح البرهان في علوم القرآن","publishedAt":"2022-06-01T17:00:02Z","duration":"PT29M16S","thumbnail":"https://i.ytimg.com/vi/37Zui8ESMjs/mqdefault.jpg","viewCount":"2695","playlistId":"PLEkQk5xrP-tnW3iBL7HkKziOFCFZbTlf0","playlistName":"شرح البرهان في علوم القرآن - أ.د. يسري جبر","category":"تفسير"},{"id":"T3XoeuahtC4","title":"521- قوله تعالى \"إِنَّا جَعَلْنَٰهُ قُرْءَٰنًا عَرَبِيًّا\" - شرح البرهان في علوم القرآن","publishedAt":"2022-06-03T05:00:17Z","duration":"PT30M7S","thumbnail":"https://i.ytimg.com/vi/T3XoeuahtC4/mqdefault.jpg","viewCount":"947","playlistId":"PLEkQk5xrP-tnW3iBL7HkKziOFCFZbTlf0","playlistName":"شرح البرهان في علوم القرآن - أ.د. يسري جبر","category":"تفسير"},{"id":"L1r9Y-Cdpks","title":"522- حَسِبَ - كَادَ: ما الفرقُ بينهما؟ - شرح البرهان في علوم القرآن","publishedAt":"2022-06-05T05:00:07Z","duration":"PT31M46S","thumbnail":"https://i.ytimg.com/vi/L1r9Y-Cdpks/mqdefault.jpg","viewCount":"2611","playlistId":"PLEkQk5xrP-tnW3iBL7HkKziOFCFZbTlf0","playlistName":"شرح البرهان في علوم القرآن - أ.د. يسري جبر","category":"تفسير"},{"id":"sETJKUDWDwU","title":"523- فعل المطاوعة - شرح البرهان في علوم القرآن","publishedAt":"2022-06-07T05:00:15Z","duration":"PT39M52S","thumbnail":"https://i.ytimg.com/vi/sETJKUDWDwU/mqdefault.jpg","viewCount":"871","playlistId":"PLEkQk5xrP-tnW3iBL7HkKziOFCFZbTlf0","playlistName":"شرح البرهان في علوم القرآن - أ.د. يسري جبر","category":"تفسير"},{"id":"tcC6JiboM50","title":"524- قوله تعالى \"وَلَقَدْ آتَيْنَا دَاوُودَ وَسُلَيْمَانَ عِلْمًا ۖ وَقَالَا الْحَمْدُ لِلَّهِ\"","publishedAt":"2022-06-09T05:00:32Z","duration":"PT16M53S","thumbnail":"https://i.ytimg.com/vi/tcC6JiboM50/mqdefault.jpg","viewCount":"1798","playlistId":"PLEkQk5xrP-tnW3iBL7HkKziOFCFZbTlf0","playlistName":"شرح البرهان في علوم القرآن - أ.د. يسري جبر","category":"تفسير"},{"id":"RpWavFexljo","title":"525- احتمال الفعل للجزم والنصب - شرح البرهان في علوم القرآن","publishedAt":"2022-06-10T19:55:00Z","duration":"PT27M51S","thumbnail":"https://i.ytimg.com/vi/RpWavFexljo/mqdefault.jpg","viewCount":"483","playlistId":"PLEkQk5xrP-tnW3iBL7HkKziOFCFZbTlf0","playlistName":"شرح البرهان في علوم القرآن - أ.د. يسري جبر","category":"تفسير"},{"id":"qllVGopiLpk","title":"526- معنى كلمة \"رأى\" - شرح البرهان في علوم القران","publishedAt":"2022-06-11T19:45:01Z","duration":"PT33M54S","thumbnail":"https://i.ytimg.com/vi/qllVGopiLpk/mqdefault.jpg","viewCount":"740","playlistId":"PLEkQk5xrP-tnW3iBL7HkKziOFCFZbTlf0","playlistName":"شرح البرهان في علوم القرآن - أ.د. يسري جبر","category":"تفسير"},{"id":"Ab0FPvaMGR0","title":"527- معنى كلمة \"أرأيت\" - شرح البرهان في علوم القرآن","publishedAt":"2022-06-12T20:50:00Z","duration":"PT16M52S","thumbnail":"https://i.ytimg.com/vi/Ab0FPvaMGR0/mqdefault.jpg","viewCount":"821","playlistId":"PLEkQk5xrP-tnW3iBL7HkKziOFCFZbTlf0","playlistName":"شرح البرهان في علوم القرآن - أ.د. يسري جبر","category":"تفسير"},{"id":"JWYVVqqn-o0","title":"528- الفرق بين اليقين والظن والشك والوهم والجهل - شرح البرهان في علوم القرآن","publishedAt":"2022-06-14T06:20:00Z","duration":"PT29M7S","thumbnail":"https://i.ytimg.com/vi/JWYVVqqn-o0/mqdefault.jpg","viewCount":"2452","playlistId":"PLEkQk5xrP-tnW3iBL7HkKziOFCFZbTlf0","playlistName":"شرح البرهان في علوم القرآن - أ.د. يسري جبر","category":"تفسير"},{"id":"-FLkP4vXyU8","title":"529- معنى ألفاظ (شَعَرَ - عَسَى - لعل) والفرق بينهم - شرح البرهان في علوم القرآن","publishedAt":"2022-06-16T05:20:00Z","duration":"PT21M58S","thumbnail":"https://i.ytimg.com/vi/-FLkP4vXyU8/mqdefault.jpg","viewCount":"766","playlistId":"PLEkQk5xrP-tnW3iBL7HkKziOFCFZbTlf0","playlistName":"شرح البرهان في علوم القرآن - أ.د. يسري جبر","category":"تفسير"},{"id":"MXwmZWk53GE","title":"530- معنى كلمة \"اتَّخَذَ\" - شرح البرهان في علوم القرآن","publishedAt":"2022-06-18T05:05:00Z","duration":"PT17M49S","thumbnail":"https://i.ytimg.com/vi/MXwmZWk53GE/mqdefault.jpg","viewCount":"961","playlistId":"PLEkQk5xrP-tnW3iBL7HkKziOFCFZbTlf0","playlistName":"شرح البرهان في علوم القرآن - أ.د. يسري جبر","category":"تفسير"},{"id":"-S3Oq6ZE6lU","title":"531- معنى كلمة \"سأل\" - شرح دليل الفالحين","publishedAt":"2022-06-21T05:00:00Z","duration":"PT8M59S","thumbnail":"https://i.ytimg.com/vi/-S3Oq6ZE6lU/mqdefault.jpg","viewCount":"948","playlistId":"PLEkQk5xrP-tnW3iBL7HkKziOFCFZbTlf0","playlistName":"شرح البرهان في علوم القرآن - أ.د. يسري جبر","category":"تفسير"},{"id":"C-t-GNx_J8s","title":"532- معنى كلمة \"وَعَدَ\" - شرح كتاب البرهان في علوم القرآن","publishedAt":"2022-06-23T05:15:01Z","duration":"PT13M58S","thumbnail":"https://i.ytimg.com/vi/C-t-GNx_J8s/mqdefault.jpg","viewCount":"713","playlistId":"PLEkQk5xrP-tnW3iBL7HkKziOFCFZbTlf0","playlistName":"شرح البرهان في علوم القرآن - أ.د. يسري جبر","category":"تفسير"},{"id":"6O819dWuY1U","title":"533- معنى كلمة \"وَدَّ\" - شرح كتاب البرهان في علوم القرآن","publishedAt":"2022-06-26T05:00:05Z","duration":"PT16M56S","thumbnail":"https://i.ytimg.com/vi/6O819dWuY1U/mqdefault.jpg","viewCount":"1010","playlistId":"PLEkQk5xrP-tnW3iBL7HkKziOFCFZbTlf0","playlistName":"شرح البرهان في علوم القرآن - أ.د. يسري جبر","category":"تفسير"}],"total":631,"page":22,"pageSize":24,"totalPages":27}