{"items":[{"id":"-SmPC2JUTTI","title":"شرح كتاب نوراليقين في سيرة سيد المرسلين - المجلس الثامن ( الجهر بالتبليغ )   د.يسري جبر","publishedAt":"2017-04-29T15:37:30Z","duration":"PT46M51S","thumbnail":"https://i.ytimg.com/vi/-SmPC2JUTTI/mqdefault.jpg","viewCount":"33819","playlistId":"PLEkQk5xrP-tl2t4NQx1IhKnAJCMzF0Nli","playlistName":"شرح كتاب نور اليقين في سيرة سيد المرسلين   د. يسري جبر","category":"سيرة"},{"id":"ZqXy5udEjbQ","title":"شرح كتاب نوراليقين في سيرة سيد المرسلين - المجلس السابع -  فترة الوحي  د.يسري جبر","publishedAt":"2017-04-22T15:09:19Z","duration":"PT1H2M56S","thumbnail":"https://i.ytimg.com/vi/ZqXy5udEjbQ/mqdefault.jpg","viewCount":"43357","playlistId":"PLEkQk5xrP-tl2t4NQx1IhKnAJCMzF0Nli","playlistName":"شرح كتاب نور اليقين في سيرة سيد المرسلين   د. يسري جبر","category":"سيرة"},{"id":"yx_2bjGCMng","title":"عِقد اللول من سيرة الزهراء البتول رضي الله تعالى عنها وعليها السلام - المجلس االثالث د. يسري جبر","publishedAt":"2017-04-16T20:45:02Z","duration":"PT26M8S","thumbnail":"https://i.ytimg.com/vi/yx_2bjGCMng/mqdefault.jpg","viewCount":"650","playlistId":"PLEkQk5xrP-tkxpL07FfuZbVfwJKhAVbcE","playlistName":"عِقد اللول من سيرة الزهراء البتول رضي الله عنها وعليها السلام  د . يسري جبر","category":"سيرة"},{"id":"SPqazVh8jD8","title":"كتاب نوراليقين في سيرة سيد المرسلين - المجلس السادس حركة الأفكار قبل البعثة. د.يسري جبر","publishedAt":"2017-04-15T18:26:51Z","duration":"PT50M37S","thumbnail":"https://i.ytimg.com/vi/SPqazVh8jD8/mqdefault.jpg","viewCount":"40310","playlistId":"PLEkQk5xrP-tl2t4NQx1IhKnAJCMzF0Nli","playlistName":"شرح كتاب نور اليقين في سيرة سيد المرسلين   د. يسري جبر","category":"سيرة"},{"id":"zKty3avlyX0","title":"نوراليقين في سيرة سيد المرسلين - المجلس الخامس- معيشته صلى الله عليه وآله وسلم قبل البعثة د.يسري جبر","publishedAt":"2017-04-11T18:35:54Z","duration":"PT47M38S","thumbnail":"https://i.ytimg.com/vi/zKty3avlyX0/mqdefault.jpg","viewCount":"43107","playlistId":"PLEkQk5xrP-tl2t4NQx1IhKnAJCMzF0Nli","playlistName":"شرح كتاب نور اليقين في سيرة سيد المرسلين   د. يسري جبر","category":"سيرة"}],"total":101,"page":5,"pageSize":24,"totalPages":5}