{"items":[{"id":"rQUUpObEzno","title":"شرح كتاب نوراليقين في سيرة سيد المرسلين - المجلس الخامس والعشرون ( تكملة غزوة أحد ) د.يسري جبر","publishedAt":"2017-10-14T21:27:54Z","duration":"PT49M53S","thumbnail":"https://i.ytimg.com/vi/rQUUpObEzno/mqdefault.jpg","viewCount":"18000","playlistId":"PLEkQk5xrP-tl2t4NQx1IhKnAJCMzF0Nli","playlistName":"شرح كتاب نور اليقين في سيرة سيد المرسلين   د. يسري جبر","category":"سيرة"},{"id":"1y7I348rWYY","title":"شرح كتاب نور اليقين في سيرة سيد المرسلين - المجلس 58 (وُفُود بني فزارة) د.يسري جبر","publishedAt":"2018-08-18T07:33:40Z","duration":"PT51M25S","thumbnail":"https://i.ytimg.com/vi/1y7I348rWYY/mqdefault.jpg","viewCount":"10386","playlistId":"PLEkQk5xrP-tl2t4NQx1IhKnAJCMzF0Nli","playlistName":"شرح كتاب نور اليقين في سيرة سيد المرسلين   د. يسري جبر","category":"سيرة"},{"id":"LIrqLXtHRJ4","title":"مجموعة الشمائل المحمدية - كتاب أسماء النبي صلى الله عليه وآله وسلم وكناه - المجلس الثاني","publishedAt":"2017-10-13T19:24:40Z","duration":"PT54M51S","thumbnail":"https://i.ytimg.com/vi/LIrqLXtHRJ4/mqdefault.jpg","viewCount":"897","playlistId":"PLEkQk5xrP-tloQiuCfhC2DE160-EZBhdz","playlistName":"مجموعة الشمائل المحمدية","category":"سيرة"},{"id":"p6OiFZ4PMFo","title":"شرح كتاب نوراليقين في سيرة سيد المرسلين - المجلس الرابع والعشرون ( غزوة السويق ) د.يسري جبر","publishedAt":"2017-10-07T22:22:12Z","duration":"PT50M14S","thumbnail":"https://i.ytimg.com/vi/p6OiFZ4PMFo/mqdefault.jpg","viewCount":"18921","playlistId":"PLEkQk5xrP-tl2t4NQx1IhKnAJCMzF0Nli","playlistName":"شرح كتاب نور اليقين في سيرة سيد المرسلين   د. يسري جبر","category":"سيرة"},{"id":"hXsB_2rL4zY","title":"كتاب نوراليقين في سيرة سيد المرسلين للشيخ الخضري رحمه الله - المجلس 40 (تكملة غزوة خيبر) د.يسري جبر","publishedAt":"2018-03-01T03:02:27Z","duration":"PT49M3S","thumbnail":"https://i.ytimg.com/vi/hXsB_2rL4zY/mqdefault.jpg","viewCount":"13305","playlistId":"PLEkQk5xrP-tl2t4NQx1IhKnAJCMzF0Nli","playlistName":"شرح كتاب نور اليقين في سيرة سيد المرسلين   د. يسري جبر","category":"سيرة"},{"id":"5_8pytDAbJI","title":"شرح كتاب نور اليقين في سيرة سيد المرسلين - المجلس 54 ( تكملةُ حَجَّةِ الوَدَاع 2) د.يسري جبر","publishedAt":"2018-07-22T17:42:20Z","duration":"PT49M56S","thumbnail":"https://i.ytimg.com/vi/5_8pytDAbJI/mqdefault.jpg","viewCount":"9561","playlistId":"PLEkQk5xrP-tl2t4NQx1IhKnAJCMzF0Nli","playlistName":"شرح كتاب نور اليقين في سيرة سيد المرسلين   د. يسري جبر","category":"سيرة"},{"id":"MpxKS_JmpJU","title":"شرح كتاب الشمائل المحمدية للإمام أبى عيسى الترمذى رضى الله عنه - المجلس الخامس","publishedAt":"2014-11-07T18:03:24Z","duration":"PT1H42M28S","thumbnail":"https://i.ytimg.com/vi/MpxKS_JmpJU/mqdefault.jpg","viewCount":"863","playlistId":"PLEkQk5xrP-tm74ioQU4BIuXLs8a9babvA","playlistName":"شرح كتاب الشمائل المحمدية للإمام الترمذى","category":"سيرة"},{"id":"0F0xaJ7rTik","title":"شرح كتاب الشمائل المحمدية للإمام أبى عيسى الترمذى رضى الله عنه - المجلس الرابع","publishedAt":"2014-11-07T04:39:32Z","duration":"PT1H15M24S","thumbnail":"https://i.ytimg.com/vi/0F0xaJ7rTik/mqdefault.jpg","viewCount":"1008","playlistId":"PLEkQk5xrP-tm74ioQU4BIuXLs8a9babvA","playlistName":"شرح كتاب الشمائل المحمدية للإمام الترمذى","category":"سيرة"},{"id":"mY7XLuwDm2U","title":"شرح كتاب الشمائل المحمدية للإمام أبى عيسى الترمذى رضى الله عنه - المجلس الثالث","publishedAt":"2014-11-06T04:25:15Z","duration":"PT1H23M5S","thumbnail":"https://i.ytimg.com/vi/mY7XLuwDm2U/mqdefault.jpg","viewCount":"1372","playlistId":"PLEkQk5xrP-tm74ioQU4BIuXLs8a9babvA","playlistName":"شرح كتاب الشمائل المحمدية للإمام الترمذى","category":"سيرة"},{"id":"JPd9RxQfhWY","title":"شرح كتاب الشمائل المحمدية للإمام أبى عيسى الترمذى رضى الله عنه - المجلس الثاني","publishedAt":"2014-11-05T14:07:46Z","duration":"PT1H17M25S","thumbnail":"https://i.ytimg.com/vi/JPd9RxQfhWY/mqdefault.jpg","viewCount":"3508","playlistId":"PLEkQk5xrP-tm74ioQU4BIuXLs8a9babvA","playlistName":"شرح كتاب الشمائل المحمدية للإمام الترمذى","category":"سيرة"},{"id":"0n6VmP3CN-o","title":"شرح كتاب الشمائل المحمدية للإمام أبى عيسى الترمذى رضى الله عنه - المجلس الأول","publishedAt":"2014-11-02T20:40:58Z","duration":"PT48M47S","thumbnail":"https://i.ytimg.com/vi/0n6VmP3CN-o/mqdefault.jpg","viewCount":"8462","playlistId":"PLEkQk5xrP-tm74ioQU4BIuXLs8a9babvA","playlistName":"شرح كتاب الشمائل المحمدية للإمام الترمذى","category":"سيرة"},{"id":"-cwWf0kyKdY","title":"شرح كتاب نور اليقين في سيرة سيد المرسلين - المجلس 53 ( تكملةُ حَجَّةِ الوَدَاع) د.يسري جبر","publishedAt":"2018-07-16T07:49:33Z","duration":"PT53M20S","thumbnail":"https://i.ytimg.com/vi/-cwWf0kyKdY/mqdefault.jpg","viewCount":"10938","playlistId":"PLEkQk5xrP-tl2t4NQx1IhKnAJCMzF0Nli","playlistName":"شرح كتاب نور اليقين في سيرة سيد المرسلين   د. يسري جبر","category":"سيرة"},{"id":"jmsH_a_L9Oo","title":"شرح صلاة الأُنسِ لسيدي أحمد الرفاعي رضي الله تعالى عنه    أ.د. يسري جبر","publishedAt":"2019-10-28T12:59:13Z","duration":"PT35M3S","thumbnail":"https://i.ytimg.com/vi/jmsH_a_L9Oo/mqdefault.jpg","viewCount":"17217","playlistId":"PLEkQk5xrP-tknLQLcWmVVpecUHkbu7cHh","playlistName":"شرح صلوات مختارة على النبي صلى الله عليه وآله وسلم  أ.د. يسري جبر","category":"سيرة"},{"id":"2AjCXXPoxlU","title":"مقتطفات من الصلاة الكبرى لسيدي عبد القادر الجيلاني رضي الله عنه - الجزء الثاني.  أ.د. يسري جبر","publishedAt":"2019-10-26T19:02:34Z","duration":"PT8M9S","thumbnail":"https://i.ytimg.com/vi/2AjCXXPoxlU/mqdefault.jpg","viewCount":"2403","playlistId":"PLEkQk5xrP-tknLQLcWmVVpecUHkbu7cHh","playlistName":"شرح صلوات مختارة على النبي صلى الله عليه وآله وسلم  أ.د. يسري جبر","category":"سيرة"},{"id":"Mmx1MpNzyqs","title":"مقتطفات من الصلاة الكبرى لسيدي عبد القادر الجيلاني رضي الله عنه  أ.د. يسري جبر","publishedAt":"2019-10-20T19:33:31Z","duration":"PT35M22S","thumbnail":"https://i.ytimg.com/vi/Mmx1MpNzyqs/mqdefault.jpg","viewCount":"52990","playlistId":"PLEkQk5xrP-tknLQLcWmVVpecUHkbu7cHh","playlistName":"شرح صلوات مختارة على النبي صلى الله عليه وآله وسلم  أ.د. يسري جبر","category":"سيرة"},{"id":"fUeV8Kh1f3A","title":"شرح الصلاة الياقوتية لسيدي الشيخ محمد بن مسعود الفاسي رضي الله تعالى عنه.  أ.د. يسري جبر","publishedAt":"2019-10-15T20:08:22Z","duration":"PT26M38S","thumbnail":"https://i.ytimg.com/vi/fUeV8Kh1f3A/mqdefault.jpg","viewCount":"8849","playlistId":"PLEkQk5xrP-tknLQLcWmVVpecUHkbu7cHh","playlistName":"شرح صلوات مختارة على النبي صلى الله عليه وآله وسلم  أ.د. يسري جبر","category":"سيرة"},{"id":"5EBnGtL-GCM","title":"شرح صلاة القاسم لسيدي أبي الفيض محمد بن عبد الكبير الكِتَّانِي رضي الله عنه . أ.د. يسري جبر","publishedAt":"2019-10-07T10:41:47Z","duration":"PT27M16S","thumbnail":"https://i.ytimg.com/vi/5EBnGtL-GCM/mqdefault.jpg","viewCount":"7539","playlistId":"PLEkQk5xrP-tknLQLcWmVVpecUHkbu7cHh","playlistName":"شرح صلوات مختارة على النبي صلى الله عليه وآله وسلم  أ.د. يسري جبر","category":"سيرة"},{"id":"hDfOntbBmYo","title":"شرح الصلاة الأنموذجية لسيدي محمد بن عبد الكبير الكتاني رضي الله عنه  أ.د. يسري جبر","publishedAt":"2019-09-28T14:21:28Z","duration":"PT11M19S","thumbnail":"https://i.ytimg.com/vi/hDfOntbBmYo/mqdefault.jpg","viewCount":"5953","playlistId":"PLEkQk5xrP-tknLQLcWmVVpecUHkbu7cHh","playlistName":"شرح صلوات مختارة على النبي صلى الله عليه وآله وسلم  أ.د. يسري جبر","category":"سيرة"},{"id":"0QuXMiUkjQA","title":"شرح كتاب نور اليقين في سيرة سيد المرسلين للشيخ الخضري رحمه الله (المجلس63) د.يسري جبر","publishedAt":"2018-10-30T17:05:37Z","duration":"PT49M14S","thumbnail":"https://i.ytimg.com/vi/0QuXMiUkjQA/mqdefault.jpg","viewCount":"8867","playlistId":"PLEkQk5xrP-tl2t4NQx1IhKnAJCMzF0Nli","playlistName":"شرح كتاب نور اليقين في سيرة سيد المرسلين   د. يسري جبر","category":"سيرة"},{"id":"pdNWDfJNCmY","title":"شرح كتاب نور اليقين في سيرة سيد المرسلين - المجلس 50 (تكملة غزوة تبوك) د.يسري جبر","publishedAt":"2018-06-10T17:15:25Z","duration":"PT50M49S","thumbnail":"https://i.ytimg.com/vi/pdNWDfJNCmY/mqdefault.jpg","viewCount":"11846","playlistId":"PLEkQk5xrP-tl2t4NQx1IhKnAJCMzF0Nli","playlistName":"شرح كتاب نور اليقين في سيرة سيد المرسلين   د. يسري جبر","category":"سيرة"},{"id":"TqGubjazrzc","title":"شرح كتاب نور اليقين في سيرة سيد المرسلين - المجلس 49 (السنة التاسعة) د.يسري جبر","publishedAt":"2018-06-02T00:15:30Z","duration":"PT51M1S","thumbnail":"https://i.ytimg.com/vi/TqGubjazrzc/mqdefault.jpg","viewCount":"11550","playlistId":"PLEkQk5xrP-tl2t4NQx1IhKnAJCMzF0Nli","playlistName":"شرح كتاب نور اليقين في سيرة سيد المرسلين   د. يسري جبر","category":"سيرة"},{"id":"m7RKK5AgjXU","title":"شرح كتاب نور اليقين في سيرة سيد المرسلين - المجلس 48 (وفود هوازن)  د.يسري جبر","publishedAt":"2018-05-27T19:22:10Z","duration":"PT49M26S","thumbnail":"https://i.ytimg.com/vi/m7RKK5AgjXU/mqdefault.jpg","viewCount":"11281","playlistId":"PLEkQk5xrP-tl2t4NQx1IhKnAJCMzF0Nli","playlistName":"شرح كتاب نور اليقين في سيرة سيد المرسلين   د. يسري جبر","category":"سيرة"},{"id":"kBvroNUsuls","title":"شرح كتاب نوراليقين في سيرة سيد المرسلين - المجلس 39 (كتاب المنذر بن ساوى) د.يسري جبر","publishedAt":"2018-02-19T03:28:55Z","duration":"PT51M10S","thumbnail":"https://i.ytimg.com/vi/kBvroNUsuls/mqdefault.jpg","viewCount":"13480","playlistId":"PLEkQk5xrP-tl2t4NQx1IhKnAJCMzF0Nli","playlistName":"شرح كتاب نور اليقين في سيرة سيد المرسلين   د. يسري جبر","category":"سيرة"},{"id":"hemA1xNg_II","title":"شرح كتاب نور اليقين في سيرة سيد المرسلين للشيخ الخضري رحمه الله (المجلس62) د.يسري جبر","publishedAt":"2018-10-21T17:28:47Z","duration":"PT46M3S","thumbnail":"https://i.ytimg.com/vi/hemA1xNg_II/mqdefault.jpg","viewCount":"8359","playlistId":"PLEkQk5xrP-tl2t4NQx1IhKnAJCMzF0Nli","playlistName":"شرح كتاب نور اليقين في سيرة سيد المرسلين   د. يسري جبر","category":"سيرة"}],"total":101,"page":3,"pageSize":24,"totalPages":5}