{"items":[{"id":"dgZiY6i-Inw","title":"شرح صحيح البخاري كتاب التوحيد من باب ١٧","publishedAt":"2019-02-04T00:34:18Z","duration":"PT30M4S","thumbnail":"https://i.ytimg.com/vi/dgZiY6i-Inw/mqdefault.jpg","viewCount":"491","playlistId":"PLEkQk5xrP-tlEerGoLa1AFy-2XvQ-sovv","playlistName":"شرح صحيح البخاري - أ.د. يسري جبر (كاملا)","category":"حديث"},{"id":"bdGIZTTEQXs","title":"شرح صحيح البخاري كتاب التوحيد من باب ١٣","publishedAt":"2019-02-02T21:34:05Z","duration":"PT31M6S","thumbnail":"https://i.ytimg.com/vi/bdGIZTTEQXs/mqdefault.jpg","viewCount":"613","playlistId":"PLEkQk5xrP-tlEerGoLa1AFy-2XvQ-sovv","playlistName":"شرح صحيح البخاري - أ.د. يسري جبر (كاملا)","category":"حديث"},{"id":"t1D843XFFfw","title":"شرح صحيح البخاري ( كتاب الحيض مجلس ٤ )","publishedAt":"2016-09-27T20:33:44Z","duration":"PT36M3S","thumbnail":"https://i.ytimg.com/vi/t1D843XFFfw/mqdefault.jpg","viewCount":"1215","playlistId":"PLEkQk5xrP-tlEerGoLa1AFy-2XvQ-sovv","playlistName":"شرح صحيح البخاري - أ.د. يسري جبر (كاملا)","category":"حديث"},{"id":"h5hdM7gT3dg","title":"شرح صحيح البخاري كتاب الأحكام من باب ٢١","publishedAt":"2019-01-10T21:35:24Z","duration":"PT27M18S","thumbnail":"https://i.ytimg.com/vi/h5hdM7gT3dg/mqdefault.jpg","viewCount":"443","playlistId":"PLEkQk5xrP-tlEerGoLa1AFy-2XvQ-sovv","playlistName":"شرح صحيح البخاري - أ.د. يسري جبر (كاملا)","category":"حديث"},{"id":"eQo-rSw2zDc","title":"شرح صحيح البخاري كتاب الأحكام من باب ١٦","publishedAt":"2019-01-09T22:17:16Z","duration":"PT27M21S","thumbnail":"https://i.ytimg.com/vi/eQo-rSw2zDc/mqdefault.jpg","viewCount":"397","playlistId":"PLEkQk5xrP-tlEerGoLa1AFy-2XvQ-sovv","playlistName":"شرح صحيح البخاري - أ.د. يسري جبر (كاملا)","category":"حديث"},{"id":"d3rBqG_XA9k","title":"شرح صحيح البخاري كتاب الأحكام من باب ١١","publishedAt":"2019-01-08T21:25:27Z","duration":"PT40M53S","thumbnail":"https://i.ytimg.com/vi/d3rBqG_XA9k/mqdefault.jpg","viewCount":"446","playlistId":"PLEkQk5xrP-tlEerGoLa1AFy-2XvQ-sovv","playlistName":"شرح صحيح البخاري - أ.د. يسري جبر (كاملا)","category":"حديث"},{"id":"mHNDPM2PCnc","title":"شرح صحيح البخاري كتاب الأحكام من باب ٤","publishedAt":"2019-01-07T19:34:02Z","duration":"PT40M39S","thumbnail":"https://i.ytimg.com/vi/mHNDPM2PCnc/mqdefault.jpg","viewCount":"426","playlistId":"PLEkQk5xrP-tlEerGoLa1AFy-2XvQ-sovv","playlistName":"شرح صحيح البخاري - أ.د. يسري جبر (كاملا)","category":"حديث"},{"id":"arRAZ_97Weo","title":"شرح صحيح البخاري كتاب الأحكام من أوله","publishedAt":"2019-01-06T21:23:24Z","duration":"PT34M47S","thumbnail":"https://i.ytimg.com/vi/arRAZ_97Weo/mqdefault.jpg","viewCount":"501","playlistId":"PLEkQk5xrP-tlEerGoLa1AFy-2XvQ-sovv","playlistName":"شرح صحيح البخاري - أ.د. يسري جبر (كاملا)","category":"حديث"},{"id":"WV5hpZadPU4","title":"شرح صحيح البخاري- كتاب أحاديث الأنبياء تكملة باب ٥٧ من حديث علي بن عبد الله","publishedAt":"2017-10-25T12:48:30Z","duration":"PT29M34S","thumbnail":"https://i.ytimg.com/vi/WV5hpZadPU4/mqdefault.jpg","viewCount":"565","playlistId":"PLEkQk5xrP-tlEerGoLa1AFy-2XvQ-sovv","playlistName":"شرح صحيح البخاري - أ.د. يسري جبر (كاملا)","category":"حديث"},{"id":"SHZa9RaHlJs","title":"شرح صحيح البخاري ( كتاب الحيض مجلس ٣ )","publishedAt":"2016-09-24T04:06:38Z","duration":"PT33M4S","thumbnail":"https://i.ytimg.com/vi/SHZa9RaHlJs/mqdefault.jpg","viewCount":"1357","playlistId":"PLEkQk5xrP-tlEerGoLa1AFy-2XvQ-sovv","playlistName":"شرح صحيح البخاري - أ.د. يسري جبر (كاملا)","category":"حديث"},{"id":"6PKdTmx5F9Q","title":"شرح صحيح البخاري ( كتاب الحيض مجلس ٢ )","publishedAt":"2016-09-20T06:51:40Z","duration":"PT36M38S","thumbnail":"https://i.ytimg.com/vi/6PKdTmx5F9Q/mqdefault.jpg","viewCount":"1453","playlistId":"PLEkQk5xrP-tlEerGoLa1AFy-2XvQ-sovv","playlistName":"شرح صحيح البخاري - أ.د. يسري جبر (كاملا)","category":"حديث"},{"id":"c6_Bycnks2Q","title":"شرح صحيح البخاري ( كتاب الحيض مجلس ١ )","publishedAt":"2016-09-19T07:06:18Z","duration":"PT35M18S","thumbnail":"https://i.ytimg.com/vi/c6_Bycnks2Q/mqdefault.jpg","viewCount":"1833","playlistId":"PLEkQk5xrP-tlEerGoLa1AFy-2XvQ-sovv","playlistName":"شرح صحيح البخاري - أ.د. يسري جبر (كاملا)","category":"حديث"},{"id":"z6Dyl2GX49Y","title":"شرح صحيح البخاري ( كتاب الغسل مجلس ٤ )","publishedAt":"2016-09-18T06:22:06Z","duration":"PT24M29S","thumbnail":"https://i.ytimg.com/vi/z6Dyl2GX49Y/mqdefault.jpg","viewCount":"1307","playlistId":"PLEkQk5xrP-tlEerGoLa1AFy-2XvQ-sovv","playlistName":"شرح صحيح البخاري - أ.د. يسري جبر (كاملا)","category":"حديث"},{"id":"GendwVRzR_g","title":"شرح صحيح البخاري- كتاب أحاديث الأنبياء من باب ٥٤","publishedAt":"2017-10-20T18:31:30Z","duration":"PT40M2S","thumbnail":"https://i.ytimg.com/vi/GendwVRzR_g/mqdefault.jpg","viewCount":"566","playlistId":"PLEkQk5xrP-tlEerGoLa1AFy-2XvQ-sovv","playlistName":"شرح صحيح البخاري - أ.د. يسري جبر (كاملا)","category":"حديث"},{"id":"16piMK-7szY","title":"شرح صحيح البخاري- كتاب أحاديث الأنبياء من باب ٥٣","publishedAt":"2017-10-19T16:13:21Z","duration":"PT27M39S","thumbnail":"https://i.ytimg.com/vi/16piMK-7szY/mqdefault.jpg","viewCount":"513","playlistId":"PLEkQk5xrP-tlEerGoLa1AFy-2XvQ-sovv","playlistName":"شرح صحيح البخاري - أ.د. يسري جبر (كاملا)","category":"حديث"},{"id":"naz6VXIxK6M","title":"شرح صحيح البخاري   كتاب الزكاة من باب ٦٤","publishedAt":"2017-02-24T15:20:52Z","duration":"PT41M49S","thumbnail":"https://i.ytimg.com/vi/naz6VXIxK6M/mqdefault.jpg","viewCount":"883","playlistId":"PLEkQk5xrP-tlEerGoLa1AFy-2XvQ-sovv","playlistName":"شرح صحيح البخاري - أ.د. يسري جبر (كاملا)","category":"حديث"},{"id":"kl9ltSKZ5e8","title":"شرح صحيح البخاري   كتاب الزكاة من باب ٥٨","publishedAt":"2017-02-23T20:37:43Z","duration":"PT29M21S","thumbnail":"https://i.ytimg.com/vi/kl9ltSKZ5e8/mqdefault.jpg","viewCount":"813","playlistId":"PLEkQk5xrP-tlEerGoLa1AFy-2XvQ-sovv","playlistName":"شرح صحيح البخاري - أ.د. يسري جبر (كاملا)","category":"حديث"},{"id":"3ehU_5_-Dck","title":"شرح صحيح البخاري كتاب التوحيد من باب ٧","publishedAt":"2019-02-01T22:46:42Z","duration":"PT33M32S","thumbnail":"https://i.ytimg.com/vi/3ehU_5_-Dck/mqdefault.jpg","viewCount":"704","playlistId":"PLEkQk5xrP-tlEerGoLa1AFy-2XvQ-sovv","playlistName":"شرح صحيح البخاري - أ.د. يسري جبر (كاملا)","category":"حديث"},{"id":"mMgWOLUcW38","title":"شرح صحيح البخاري كتاب التوحيد من أوله","publishedAt":"2019-01-31T22:04:03Z","duration":"PT32M28S","thumbnail":"https://i.ytimg.com/vi/mMgWOLUcW38/mqdefault.jpg","viewCount":"1041","playlistId":"PLEkQk5xrP-tlEerGoLa1AFy-2XvQ-sovv","playlistName":"شرح صحيح البخاري - أ.د. يسري جبر (كاملا)","category":"حديث"},{"id":"bvjgkIR-iWw","title":"شرح صحيح البخاري كتاب الإعتصام بالكتاب والسنة من باب 26","publishedAt":"2019-01-30T21:34:29Z","duration":"PT36M5S","thumbnail":"https://i.ytimg.com/vi/bvjgkIR-iWw/mqdefault.jpg","viewCount":"465","playlistId":"PLEkQk5xrP-tlEerGoLa1AFy-2XvQ-sovv","playlistName":"شرح صحيح البخاري - أ.د. يسري جبر (كاملا)","category":"حديث"},{"id":"8MJqX8fPofs","title":"شرح صحيح البخاري كتاب الإعتصام بالكتاب والسنة من باب ٢٥","publishedAt":"2019-01-29T17:09:57Z","duration":"PT35M16S","thumbnail":"https://i.ytimg.com/vi/8MJqX8fPofs/mqdefault.jpg","viewCount":"360","playlistId":"PLEkQk5xrP-tlEerGoLa1AFy-2XvQ-sovv","playlistName":"شرح صحيح البخاري - أ.د. يسري جبر (كاملا)","category":"حديث"},{"id":"957Hx8iZwys","title":"شرح صحيح البخاري كتاب الإعتصام بالكتاب والسنة من باب ١٨","publishedAt":"2019-01-28T10:30:15Z","duration":"PT28M8S","thumbnail":"https://i.ytimg.com/vi/957Hx8iZwys/mqdefault.jpg","viewCount":"333","playlistId":"PLEkQk5xrP-tlEerGoLa1AFy-2XvQ-sovv","playlistName":"شرح صحيح البخاري - أ.د. يسري جبر (كاملا)","category":"حديث"},{"id":"pOy9FggdIFY","title":"شرح صحيح البخاري كتاب الإعتصام بالكتاب والسنة من باب ١٦","publishedAt":"2019-01-27T11:41:31Z","duration":"PT44M9S","thumbnail":"https://i.ytimg.com/vi/pOy9FggdIFY/mqdefault.jpg","viewCount":"509","playlistId":"PLEkQk5xrP-tlEerGoLa1AFy-2XvQ-sovv","playlistName":"شرح صحيح البخاري - أ.د. يسري جبر (كاملا)","category":"حديث"},{"id":"WJS0IWce0ZE","title":"شرح صحيح البخاري كتاب الإعتصام بالكتاب والسنة من باب ١٢","publishedAt":"2019-01-26T12:54:18Z","duration":"PT26M6S","thumbnail":"https://i.ytimg.com/vi/WJS0IWce0ZE/mqdefault.jpg","viewCount":"366","playlistId":"PLEkQk5xrP-tlEerGoLa1AFy-2XvQ-sovv","playlistName":"شرح صحيح البخاري - أ.د. يسري جبر (كاملا)","category":"حديث"}],"total":719,"page":11,"pageSize":24,"totalPages":30}