{"items":[{"id":"5ujkhwYJuJo","title":"شرح صحيح البخاري كتاب التفسير فى سورة البلد من أولها","publishedAt":"2018-05-01T10:51:05Z","duration":"PT40M28S","thumbnail":"https://i.ytimg.com/vi/5ujkhwYJuJo/mqdefault.jpg","viewCount":"503","playlistId":"PLEkQk5xrP-tlEerGoLa1AFy-2XvQ-sovv","playlistName":"شرح صحيح البخاري - أ.د. يسري جبر (كاملا)","category":"حديث"},{"id":"8qKrTDf6xDQ","title":"شرح صحيح البخاري كتاب التفسير فى سورة (والمرسلات) من أولها","publishedAt":"2018-04-30T20:30:30Z","duration":"PT37M8S","thumbnail":"https://i.ytimg.com/vi/8qKrTDf6xDQ/mqdefault.jpg","viewCount":"434","playlistId":"PLEkQk5xrP-tlEerGoLa1AFy-2XvQ-sovv","playlistName":"شرح صحيح البخاري - أ.د. يسري جبر (كاملا)","category":"حديث"},{"id":"ausVGJFjynY","title":"شرح صحيح البخاري كتاب التفسير فى سورة المدثر من أولها","publishedAt":"2018-04-29T17:00:23Z","duration":"PT34M23S","thumbnail":"https://i.ytimg.com/vi/ausVGJFjynY/mqdefault.jpg","viewCount":"752","playlistId":"PLEkQk5xrP-tlEerGoLa1AFy-2XvQ-sovv","playlistName":"شرح صحيح البخاري - أ.د. يسري جبر (كاملا)","category":"حديث"},{"id":"bNfoAWFPZds","title":"شرح صحيح البخاري كتاب التفسير فى سورة التغابن من أولها","publishedAt":"2018-04-27T20:13:46Z","duration":"PT45M43S","thumbnail":"https://i.ytimg.com/vi/bNfoAWFPZds/mqdefault.jpg","viewCount":"483","playlistId":"PLEkQk5xrP-tlEerGoLa1AFy-2XvQ-sovv","playlistName":"شرح صحيح البخاري - أ.د. يسري جبر (كاملا)","category":"حديث"},{"id":"3dvsg0NjsBI","title":"شرح صحيح البخاري - كتاب فرض الخمس من باب ٩","publishedAt":"2017-08-29T22:03:45Z","duration":"PT37M16S","thumbnail":"https://i.ytimg.com/vi/3dvsg0NjsBI/mqdefault.jpg","viewCount":"599","playlistId":"PLEkQk5xrP-tlEerGoLa1AFy-2XvQ-sovv","playlistName":"شرح صحيح البخاري - أ.د. يسري جبر (كاملا)","category":"حديث"},{"id":"5SyhqpiqEO4","title":"شرح صحيح البخاري كتاب استتابة المرتدين والمعاندين وقتالهم من باب ٣","publishedAt":"2018-12-11T22:19:36Z","duration":"PT34M18S","thumbnail":"https://i.ytimg.com/vi/5SyhqpiqEO4/mqdefault.jpg","viewCount":"419","playlistId":"PLEkQk5xrP-tlEerGoLa1AFy-2XvQ-sovv","playlistName":"شرح صحيح البخاري - أ.د. يسري جبر (كاملا)","category":"حديث"},{"id":"PgZRqc33qzc","title":"شرح صحيح البخاري كتاب استتابة المرتدين والمعاندين وقتالهم من أوله","publishedAt":"2018-12-10T21:13:59Z","duration":"PT33M39S","thumbnail":"https://i.ytimg.com/vi/PgZRqc33qzc/mqdefault.jpg","viewCount":"523","playlistId":"PLEkQk5xrP-tlEerGoLa1AFy-2XvQ-sovv","playlistName":"شرح صحيح البخاري - أ.د. يسري جبر (كاملا)","category":"حديث"},{"id":"lnoee392018","title":"شرح صحيح البخاري كتاب الديات من باب ٢٧","publishedAt":"2018-12-09T22:30:46Z","duration":"PT42M14S","thumbnail":"https://i.ytimg.com/vi/lnoee392018/mqdefault.jpg","viewCount":"436","playlistId":"PLEkQk5xrP-tlEerGoLa1AFy-2XvQ-sovv","playlistName":"شرح صحيح البخاري - أ.د. يسري جبر (كاملا)","category":"حديث"},{"id":"HVIvT01Kx4w","title":"شرح صحيح البخاري كتاب الديات من باب ٢٣","publishedAt":"2018-12-08T15:46:27Z","duration":"PT37M30S","thumbnail":"https://i.ytimg.com/vi/HVIvT01Kx4w/mqdefault.jpg","viewCount":"427","playlistId":"PLEkQk5xrP-tlEerGoLa1AFy-2XvQ-sovv","playlistName":"شرح صحيح البخاري - أ.د. يسري جبر (كاملا)","category":"حديث"},{"id":"CtwBW2FEPtM","title":"شرح صحيح البخاري - كتاب الجزية والموادعة من أوله","publishedAt":"2017-09-02T10:32:05Z","duration":"PT27M22S","thumbnail":"https://i.ytimg.com/vi/CtwBW2FEPtM/mqdefault.jpg","viewCount":"598","playlistId":"PLEkQk5xrP-tlEerGoLa1AFy-2XvQ-sovv","playlistName":"شرح صحيح البخاري - أ.د. يسري جبر (كاملا)","category":"حديث"},{"id":"Fl8c1dnc9lo","title":"شرح صحيح البخاري - كتاب فرض الخمس من باب ١٧","publishedAt":"2017-08-31T16:46:47Z","duration":"PT46M2S","thumbnail":"https://i.ytimg.com/vi/Fl8c1dnc9lo/mqdefault.jpg","viewCount":"627","playlistId":"PLEkQk5xrP-tlEerGoLa1AFy-2XvQ-sovv","playlistName":"شرح صحيح البخاري - أ.د. يسري جبر (كاملا)","category":"حديث"},{"id":"ret0vxAsBzk","title":"شرح صحيح البخاري - كتاب فرض الخمس من باب ١٤","publishedAt":"2017-08-30T16:30:03Z","duration":"PT29M52S","thumbnail":"https://i.ytimg.com/vi/ret0vxAsBzk/mqdefault.jpg","viewCount":"527","playlistId":"PLEkQk5xrP-tlEerGoLa1AFy-2XvQ-sovv","playlistName":"شرح صحيح البخاري - أ.د. يسري جبر (كاملا)","category":"حديث"},{"id":"h5hdM7gT3dg","title":"شرح صحيح البخاري كتاب الأحكام من باب ٢١","publishedAt":"2019-01-10T21:35:24Z","duration":"PT27M18S","thumbnail":"https://i.ytimg.com/vi/h5hdM7gT3dg/mqdefault.jpg","viewCount":"443","playlistId":"PLEkQk5xrP-tlEerGoLa1AFy-2XvQ-sovv","playlistName":"شرح صحيح البخاري - أ.د. يسري جبر (كاملا)","category":"حديث"},{"id":"eQo-rSw2zDc","title":"شرح صحيح البخاري كتاب الأحكام من باب ١٦","publishedAt":"2019-01-09T22:17:16Z","duration":"PT27M21S","thumbnail":"https://i.ytimg.com/vi/eQo-rSw2zDc/mqdefault.jpg","viewCount":"397","playlistId":"PLEkQk5xrP-tlEerGoLa1AFy-2XvQ-sovv","playlistName":"شرح صحيح البخاري - أ.د. يسري جبر (كاملا)","category":"حديث"},{"id":"swv3vHMNqb8","title":"شرح صحيح البخاري - كتاب الكفالة","publishedAt":"2017-05-11T15:03:25Z","duration":"PT44M1S","thumbnail":"https://i.ytimg.com/vi/swv3vHMNqb8/mqdefault.jpg","viewCount":"801","playlistId":"PLEkQk5xrP-tlEerGoLa1AFy-2XvQ-sovv","playlistName":"شرح صحيح البخاري - أ.د. يسري جبر (كاملا)","category":"حديث"},{"id":"zivoDSFavIs","title":"شرح صحيح البخاري - كتاب الحوالات","publishedAt":"2017-05-10T19:19:25Z","duration":"PT31M25S","thumbnail":"https://i.ytimg.com/vi/zivoDSFavIs/mqdefault.jpg","viewCount":"835","playlistId":"PLEkQk5xrP-tlEerGoLa1AFy-2XvQ-sovv","playlistName":"شرح صحيح البخاري - أ.د. يسري جبر (كاملا)","category":"حديث"},{"id":"dVSqDo99WFE","title":"شرح صحيح البخاري - كتاب الإجارة من باب ٨","publishedAt":"2017-05-09T12:11:36Z","duration":"PT44M2S","thumbnail":"https://i.ytimg.com/vi/dVSqDo99WFE/mqdefault.jpg","viewCount":"833","playlistId":"PLEkQk5xrP-tlEerGoLa1AFy-2XvQ-sovv","playlistName":"شرح صحيح البخاري - أ.د. يسري جبر (كاملا)","category":"حديث"},{"id":"dgZiY6i-Inw","title":"شرح صحيح البخاري كتاب التوحيد من باب ١٧","publishedAt":"2019-02-04T00:34:18Z","duration":"PT30M4S","thumbnail":"https://i.ytimg.com/vi/dgZiY6i-Inw/mqdefault.jpg","viewCount":"491","playlistId":"PLEkQk5xrP-tlEerGoLa1AFy-2XvQ-sovv","playlistName":"شرح صحيح البخاري - أ.د. يسري جبر (كاملا)","category":"حديث"},{"id":"bdGIZTTEQXs","title":"شرح صحيح البخاري كتاب التوحيد من باب ١٣","publishedAt":"2019-02-02T21:34:05Z","duration":"PT31M6S","thumbnail":"https://i.ytimg.com/vi/bdGIZTTEQXs/mqdefault.jpg","viewCount":"613","playlistId":"PLEkQk5xrP-tlEerGoLa1AFy-2XvQ-sovv","playlistName":"شرح صحيح البخاري - أ.د. يسري جبر (كاملا)","category":"حديث"},{"id":"lHGBEHX4rA4","title":"شرح صحيح البخاري كتاب مواقيت الصلاة من باب ١١","publishedAt":"2016-11-03T04:38:38Z","duration":"PT25M27S","thumbnail":"https://i.ytimg.com/vi/lHGBEHX4rA4/mqdefault.jpg","viewCount":"1289","playlistId":"PLEkQk5xrP-tlEerGoLa1AFy-2XvQ-sovv","playlistName":"شرح صحيح البخاري - أ.د. يسري جبر (كاملا)","category":"حديث"},{"id":"a8FR5Ouqal4","title":"شرح صحيح البخاري كتاب مواقيت الصلاة من باب ٤","publishedAt":"2016-11-01T05:43:56Z","duration":"PT36M53S","thumbnail":"https://i.ytimg.com/vi/a8FR5Ouqal4/mqdefault.jpg","viewCount":"1440","playlistId":"PLEkQk5xrP-tlEerGoLa1AFy-2XvQ-sovv","playlistName":"شرح صحيح البخاري - أ.د. يسري جبر (كاملا)","category":"حديث"},{"id":"vIl9lR2l2Rk","title":"شرح صحيح البخاري كتاب التفسير فى سورة الجمعة والمنافقون من أولها","publishedAt":"2018-04-26T20:13:10Z","duration":"PT41M19S","thumbnail":"https://i.ytimg.com/vi/vIl9lR2l2Rk/mqdefault.jpg","viewCount":"479","playlistId":"PLEkQk5xrP-tlEerGoLa1AFy-2XvQ-sovv","playlistName":"شرح صحيح البخاري - أ.د. يسري جبر (كاملا)","category":"حديث"},{"id":"JoGOCfJF_Us","title":"شرح صحيح البخاري كتاب التفسير فى سورة الملك من أولها","publishedAt":"2018-04-26T19:47:13Z","duration":"PT31M49S","thumbnail":"https://i.ytimg.com/vi/JoGOCfJF_Us/mqdefault.jpg","viewCount":"510","playlistId":"PLEkQk5xrP-tlEerGoLa1AFy-2XvQ-sovv","playlistName":"شرح صحيح البخاري - أ.د. يسري جبر (كاملا)","category":"حديث"},{"id":"JgZDECSj1gs","title":"ختام شرح صحيح البخاري كتاب التوحيد من باب ٥٦","publishedAt":"2019-02-22T09:34:06Z","duration":"PT45M13S","thumbnail":"https://i.ytimg.com/vi/JgZDECSj1gs/mqdefault.jpg","viewCount":"1693","playlistId":"PLEkQk5xrP-tlEerGoLa1AFy-2XvQ-sovv","playlistName":"شرح صحيح البخاري - أ.د. يسري جبر (كاملا)","category":"حديث"}],"total":719,"page":18,"pageSize":24,"totalPages":30}