{"items":[{"id":"pOy9FggdIFY","title":"شرح صحيح البخاري كتاب الإعتصام بالكتاب والسنة من باب ١٦","publishedAt":"2019-01-27T11:41:31Z","duration":"PT44M9S","thumbnail":"https://i.ytimg.com/vi/pOy9FggdIFY/mqdefault.jpg","viewCount":"509","playlistId":"PLEkQk5xrP-tlEerGoLa1AFy-2XvQ-sovv","playlistName":"شرح صحيح البخاري - أ.د. يسري جبر (كاملا)","category":"حديث"},{"id":"WJS0IWce0ZE","title":"شرح صحيح البخاري كتاب الإعتصام بالكتاب والسنة من باب ١٢","publishedAt":"2019-01-26T12:54:18Z","duration":"PT26M6S","thumbnail":"https://i.ytimg.com/vi/WJS0IWce0ZE/mqdefault.jpg","viewCount":"366","playlistId":"PLEkQk5xrP-tlEerGoLa1AFy-2XvQ-sovv","playlistName":"شرح صحيح البخاري - أ.د. يسري جبر (كاملا)","category":"حديث"},{"id":"zIyPEtPuXyE","title":"شرح صحيح البخاري كتاب الاعتصام بالكتاب والسنة من باب ٧","publishedAt":"2019-01-25T14:55:37Z","duration":"PT29M25S","thumbnail":"https://i.ytimg.com/vi/zIyPEtPuXyE/mqdefault.jpg","viewCount":"481","playlistId":"PLEkQk5xrP-tlEerGoLa1AFy-2XvQ-sovv","playlistName":"شرح صحيح البخاري - أ.د. يسري جبر (كاملا)","category":"حديث"},{"id":"1v7wTgtxi8I","title":"شرح صحيح البخاري كتاب الأطعمة من باب ٩","publishedAt":"2018-07-04T15:45:25Z","duration":"PT32M11S","thumbnail":"https://i.ytimg.com/vi/1v7wTgtxi8I/mqdefault.jpg","viewCount":"505","playlistId":"PLEkQk5xrP-tlEerGoLa1AFy-2XvQ-sovv","playlistName":"شرح صحيح البخاري - أ.د. يسري جبر (كاملا)","category":"حديث"},{"id":"8gXZTE9jkvw","title":"شرح صحيح البخاري كتاب الأطعمة من باب ٦","publishedAt":"2018-07-03T21:55:31Z","duration":"PT36M18S","thumbnail":"https://i.ytimg.com/vi/8gXZTE9jkvw/mqdefault.jpg","viewCount":"557","playlistId":"PLEkQk5xrP-tlEerGoLa1AFy-2XvQ-sovv","playlistName":"شرح صحيح البخاري - أ.د. يسري جبر (كاملا)","category":"حديث"},{"id":"mJpsuK477k0","title":"شرح صحيح البخاري كتاب الأطعمة من أوله","publishedAt":"2018-07-03T00:16:30Z","duration":"PT30M36S","thumbnail":"https://i.ytimg.com/vi/mJpsuK477k0/mqdefault.jpg","viewCount":"759","playlistId":"PLEkQk5xrP-tlEerGoLa1AFy-2XvQ-sovv","playlistName":"شرح صحيح البخاري - أ.د. يسري جبر (كاملا)","category":"حديث"},{"id":"qeUrgGYLeQY","title":"شرح صحيح البخاري كتاب النفقات من باب ٥","publishedAt":"2018-07-01T23:09:41Z","duration":"PT39M5S","thumbnail":"https://i.ytimg.com/vi/qeUrgGYLeQY/mqdefault.jpg","viewCount":"512","playlistId":"PLEkQk5xrP-tlEerGoLa1AFy-2XvQ-sovv","playlistName":"شرح صحيح البخاري - أ.د. يسري جبر (كاملا)","category":"حديث"},{"id":"II3nmqxdDdA","title":"شرح صحيح البخاري كتاب النفقات من أوله","publishedAt":"2018-06-30T22:19:20Z","duration":"PT29M35S","thumbnail":"https://i.ytimg.com/vi/II3nmqxdDdA/mqdefault.jpg","viewCount":"532","playlistId":"PLEkQk5xrP-tlEerGoLa1AFy-2XvQ-sovv","playlistName":"شرح صحيح البخاري - أ.د. يسري جبر (كاملا)","category":"حديث"},{"id":"6LUgPDaPmIQ","title":"شرح صحيح البخاري كتاب الطلا‎ق من باب ٤٩","publishedAt":"2018-06-28T20:18:16Z","duration":"PT33M55S","thumbnail":"https://i.ytimg.com/vi/6LUgPDaPmIQ/mqdefault.jpg","viewCount":"358","playlistId":"PLEkQk5xrP-tlEerGoLa1AFy-2XvQ-sovv","playlistName":"شرح صحيح البخاري - أ.د. يسري جبر (كاملا)","category":"حديث"},{"id":"wtsZL-eocQg","title":"شرح صحيح البخاري كتاب الأضاحي من باب ٩","publishedAt":"2018-07-24T08:46:39Z","duration":"PT32M44S","thumbnail":"https://i.ytimg.com/vi/wtsZL-eocQg/mqdefault.jpg","viewCount":"478","playlistId":"PLEkQk5xrP-tlEerGoLa1AFy-2XvQ-sovv","playlistName":"شرح صحيح البخاري - أ.د. يسري جبر (كاملا)","category":"حديث"},{"id":"OroUt00-bOo","title":"شرح صحيح البخاري كتاب الأضاحي من أوله","publishedAt":"2018-07-23T07:24:45Z","duration":"PT39M29S","thumbnail":"https://i.ytimg.com/vi/OroUt00-bOo/mqdefault.jpg","viewCount":"620","playlistId":"PLEkQk5xrP-tlEerGoLa1AFy-2XvQ-sovv","playlistName":"شرح صحيح البخاري - أ.د. يسري جبر (كاملا)","category":"حديث"},{"id":"zkjw4BeAmIc","title":"شرح صحيح البخاري كتاب الذبائح والصيد من باب ٢٩","publishedAt":"2018-07-21T19:28:52Z","duration":"PT36M13S","thumbnail":"https://i.ytimg.com/vi/zkjw4BeAmIc/mqdefault.jpg","viewCount":"416","playlistId":"PLEkQk5xrP-tlEerGoLa1AFy-2XvQ-sovv","playlistName":"شرح صحيح البخاري - أ.د. يسري جبر (كاملا)","category":"حديث"},{"id":"L3DCeEf9hOM","title":"شرح صحيح البخاري كتاب الذبائح والصيد من باب ٢٥","publishedAt":"2018-07-19T21:02:46Z","duration":"PT38M11S","thumbnail":"https://i.ytimg.com/vi/L3DCeEf9hOM/mqdefault.jpg","viewCount":"463","playlistId":"PLEkQk5xrP-tlEerGoLa1AFy-2XvQ-sovv","playlistName":"شرح صحيح البخاري - أ.د. يسري جبر (كاملا)","category":"حديث"},{"id":"pdWEQbgdQ1U","title":"شرح صحيح البخاري كتاب الذبائح والصيد من باب ١٦","publishedAt":"2018-07-18T15:41:56Z","duration":"PT33M35S","thumbnail":"https://i.ytimg.com/vi/pdWEQbgdQ1U/mqdefault.jpg","viewCount":"395","playlistId":"PLEkQk5xrP-tlEerGoLa1AFy-2XvQ-sovv","playlistName":"شرح صحيح البخاري - أ.د. يسري جبر (كاملا)","category":"حديث"},{"id":"Kqt8nxfytrI","title":"شرح صحيح البخاري كتاب الذبائح والصيد من باب ١٢","publishedAt":"2018-07-17T23:24:55Z","duration":"PT37M35S","thumbnail":"https://i.ytimg.com/vi/Kqt8nxfytrI/mqdefault.jpg","viewCount":"440","playlistId":"PLEkQk5xrP-tlEerGoLa1AFy-2XvQ-sovv","playlistName":"شرح صحيح البخاري - أ.د. يسري جبر (كاملا)","category":"حديث"},{"id":"kVr8LkgpGW8","title":"شرح صحيح البخاري كتاب الذبائح والصيد من باب ٥","publishedAt":"2018-07-16T23:46:17Z","duration":"PT35M11S","thumbnail":"https://i.ytimg.com/vi/kVr8LkgpGW8/mqdefault.jpg","viewCount":"429","playlistId":"PLEkQk5xrP-tlEerGoLa1AFy-2XvQ-sovv","playlistName":"شرح صحيح البخاري - أ.د. يسري جبر (كاملا)","category":"حديث"},{"id":"n20n6cPIGCw","title":"شرح صحيح البخاري - كتاب الجهاد والسير من باب ١١٦","publishedAt":"2017-08-13T14:16:56Z","duration":"PT31M3S","thumbnail":"https://i.ytimg.com/vi/n20n6cPIGCw/mqdefault.jpg","viewCount":"478","playlistId":"PLEkQk5xrP-tlEerGoLa1AFy-2XvQ-sovv","playlistName":"شرح صحيح البخاري - أ.د. يسري جبر (كاملا)","category":"حديث"},{"id":"usiFg4DEPIs","title":"شرح صحيح البخاري - كتاب الجهاد والسير من باب ١١٠","publishedAt":"2017-08-12T20:05:01Z","duration":"PT39M6S","thumbnail":"https://i.ytimg.com/vi/usiFg4DEPIs/mqdefault.jpg","viewCount":"584","playlistId":"PLEkQk5xrP-tlEerGoLa1AFy-2XvQ-sovv","playlistName":"شرح صحيح البخاري - أ.د. يسري جبر (كاملا)","category":"حديث"},{"id":"VO26l2sLBss","title":"شرح صحيح البخاري - كتاب الجهاد والسير من باب ١٠٣","publishedAt":"2017-08-11T20:44:57Z","duration":"PT19M50S","thumbnail":"https://i.ytimg.com/vi/VO26l2sLBss/mqdefault.jpg","viewCount":"488","playlistId":"PLEkQk5xrP-tlEerGoLa1AFy-2XvQ-sovv","playlistName":"شرح صحيح البخاري - أ.د. يسري جبر (كاملا)","category":"حديث"},{"id":"geMxDUHmBCM","title":"شرح صحيح البخاري كتاب الطلا‎ق من باب ٤٥","publishedAt":"2018-06-27T16:08:29Z","duration":"PT22M44S","thumbnail":"https://i.ytimg.com/vi/geMxDUHmBCM/mqdefault.jpg","viewCount":"356","playlistId":"PLEkQk5xrP-tlEerGoLa1AFy-2XvQ-sovv","playlistName":"شرح صحيح البخاري - أ.د. يسري جبر (كاملا)","category":"حديث"},{"id":"oS_bpGQIwVM","title":"شرح صحيح البخاري كتاب الطلا‎ق من باب ٤٢","publishedAt":"2018-06-26T17:34:46Z","duration":"PT18M6S","thumbnail":"https://i.ytimg.com/vi/oS_bpGQIwVM/mqdefault.jpg","viewCount":"356","playlistId":"PLEkQk5xrP-tlEerGoLa1AFy-2XvQ-sovv","playlistName":"شرح صحيح البخاري - أ.د. يسري جبر (كاملا)","category":"حديث"},{"id":"HLNAFCL__hY","title":"شرح صحيح البخاري كتاب الطلا‎ق من باب ٤٠","publishedAt":"2018-06-25T20:40:47Z","duration":"PT18M53S","thumbnail":"https://i.ytimg.com/vi/HLNAFCL__hY/mqdefault.jpg","viewCount":"390","playlistId":"PLEkQk5xrP-tlEerGoLa1AFy-2XvQ-sovv","playlistName":"شرح صحيح البخاري - أ.د. يسري جبر (كاملا)","category":"حديث"},{"id":"6y8ac29qrus","title":"شرح صحيح البخاري كتاب الطلا‎ق من باب ٣٣","publishedAt":"2018-06-24T21:44:50Z","duration":"PT20M26S","thumbnail":"https://i.ytimg.com/vi/6y8ac29qrus/mqdefault.jpg","viewCount":"369","playlistId":"PLEkQk5xrP-tlEerGoLa1AFy-2XvQ-sovv","playlistName":"شرح صحيح البخاري - أ.د. يسري جبر (كاملا)","category":"حديث"},{"id":"N57BQkPDl1w","title":"شرح صحيح البخاري كتاب الطلا‎ق من باب ٢٨","publishedAt":"2018-06-23T18:40:11Z","duration":"PT24M28S","thumbnail":"https://i.ytimg.com/vi/N57BQkPDl1w/mqdefault.jpg","viewCount":"390","playlistId":"PLEkQk5xrP-tlEerGoLa1AFy-2XvQ-sovv","playlistName":"شرح صحيح البخاري - أ.د. يسري جبر (كاملا)","category":"حديث"}],"total":719,"page":5,"pageSize":24,"totalPages":30}