{"items":[{"id":"hPubxcYsmeo","title":"شرح صحيح البخاري - كتاب المغازي تكملة باب ٣١","publishedAt":"2018-01-30T13:36:23Z","duration":"PT42M9S","thumbnail":"https://i.ytimg.com/vi/hPubxcYsmeo/mqdefault.jpg","viewCount":"569","playlistId":"PLEkQk5xrP-tlEerGoLa1AFy-2XvQ-sovv","playlistName":"شرح صحيح البخاري - أ.د. يسري جبر (كاملا)","category":"حديث"},{"id":"sHlNd3XNfWo","title":"شرح صحيح البخاري   كتاب المغازي من باب ٣٠","publishedAt":"2018-01-24T00:01:27Z","duration":"PT44M1S","thumbnail":"https://i.ytimg.com/vi/sHlNd3XNfWo/mqdefault.jpg","viewCount":"706","playlistId":"PLEkQk5xrP-tlEerGoLa1AFy-2XvQ-sovv","playlistName":"شرح صحيح البخاري - أ.د. يسري جبر (كاملا)","category":"حديث"},{"id":"3zUH5xLUHHQ","title":"شرح صحيح البخاري   كتاب المغازي من باب ٢٤","publishedAt":"2018-01-18T08:55:48Z","duration":"PT27M22S","thumbnail":"https://i.ytimg.com/vi/3zUH5xLUHHQ/mqdefault.jpg","viewCount":"598","playlistId":"PLEkQk5xrP-tlEerGoLa1AFy-2XvQ-sovv","playlistName":"شرح صحيح البخاري - أ.د. يسري جبر (كاملا)","category":"حديث"},{"id":"54ex6_9iyKg","title":"شرح صحيح البخاري   كتاب المغازي من باب ١٩","publishedAt":"2018-01-15T05:21:40Z","duration":"PT38M55S","thumbnail":"https://i.ytimg.com/vi/54ex6_9iyKg/mqdefault.jpg","viewCount":"594","playlistId":"PLEkQk5xrP-tlEerGoLa1AFy-2XvQ-sovv","playlistName":"شرح صحيح البخاري - أ.د. يسري جبر (كاملا)","category":"حديث"},{"id":"d3rBqG_XA9k","title":"شرح صحيح البخاري كتاب الأحكام من باب ١١","publishedAt":"2019-01-08T21:25:27Z","duration":"PT40M53S","thumbnail":"https://i.ytimg.com/vi/d3rBqG_XA9k/mqdefault.jpg","viewCount":"446","playlistId":"PLEkQk5xrP-tlEerGoLa1AFy-2XvQ-sovv","playlistName":"شرح صحيح البخاري - أ.د. يسري جبر (كاملا)","category":"حديث"},{"id":"mHNDPM2PCnc","title":"شرح صحيح البخاري كتاب الأحكام من باب ٤","publishedAt":"2019-01-07T19:34:02Z","duration":"PT40M39S","thumbnail":"https://i.ytimg.com/vi/mHNDPM2PCnc/mqdefault.jpg","viewCount":"426","playlistId":"PLEkQk5xrP-tlEerGoLa1AFy-2XvQ-sovv","playlistName":"شرح صحيح البخاري - أ.د. يسري جبر (كاملا)","category":"حديث"},{"id":"arRAZ_97Weo","title":"شرح صحيح البخاري كتاب الأحكام من أوله","publishedAt":"2019-01-06T21:23:24Z","duration":"PT34M47S","thumbnail":"https://i.ytimg.com/vi/arRAZ_97Weo/mqdefault.jpg","viewCount":"501","playlistId":"PLEkQk5xrP-tlEerGoLa1AFy-2XvQ-sovv","playlistName":"شرح صحيح البخاري - أ.د. يسري جبر (كاملا)","category":"حديث"},{"id":"WV5hpZadPU4","title":"شرح صحيح البخاري- كتاب أحاديث الأنبياء تكملة باب ٥٧ من حديث علي بن عبد الله","publishedAt":"2017-10-25T12:48:30Z","duration":"PT29M34S","thumbnail":"https://i.ytimg.com/vi/WV5hpZadPU4/mqdefault.jpg","viewCount":"565","playlistId":"PLEkQk5xrP-tlEerGoLa1AFy-2XvQ-sovv","playlistName":"شرح صحيح البخاري - أ.د. يسري جبر (كاملا)","category":"حديث"},{"id":"SHZa9RaHlJs","title":"شرح صحيح البخاري ( كتاب الحيض مجلس ٣ )","publishedAt":"2016-09-24T04:06:38Z","duration":"PT33M4S","thumbnail":"https://i.ytimg.com/vi/SHZa9RaHlJs/mqdefault.jpg","viewCount":"1357","playlistId":"PLEkQk5xrP-tlEerGoLa1AFy-2XvQ-sovv","playlistName":"شرح صحيح البخاري - أ.د. يسري جبر (كاملا)","category":"حديث"},{"id":"6PKdTmx5F9Q","title":"شرح صحيح البخاري ( كتاب الحيض مجلس ٢ )","publishedAt":"2016-09-20T06:51:40Z","duration":"PT36M38S","thumbnail":"https://i.ytimg.com/vi/6PKdTmx5F9Q/mqdefault.jpg","viewCount":"1453","playlistId":"PLEkQk5xrP-tlEerGoLa1AFy-2XvQ-sovv","playlistName":"شرح صحيح البخاري - أ.د. يسري جبر (كاملا)","category":"حديث"},{"id":"1_A6Dl9G0rA","title":"شرح صحيح البخاري كتاب التفسير فى سورة النساء من أولها","publishedAt":"2018-03-17T14:20:40Z","duration":"PT28M32S","thumbnail":"https://i.ytimg.com/vi/1_A6Dl9G0rA/mqdefault.jpg","viewCount":"613","playlistId":"PLEkQk5xrP-tlEerGoLa1AFy-2XvQ-sovv","playlistName":"شرح صحيح البخاري - أ.د. يسري جبر (كاملا)","category":"حديث"},{"id":"G3JjYqf7kOM","title":"شرح صحيح البخاري كتاب التفسير فى سورة آل عمران من باب ١٠","publishedAt":"2018-03-16T16:48:04Z","duration":"PT36M9S","thumbnail":"https://i.ytimg.com/vi/G3JjYqf7kOM/mqdefault.jpg","viewCount":"569","playlistId":"PLEkQk5xrP-tlEerGoLa1AFy-2XvQ-sovv","playlistName":"شرح صحيح البخاري - أ.د. يسري جبر (كاملا)","category":"حديث"},{"id":"6GPqZLEtvDs","title":"شرح صحيح البخاري كتاب التفسير فى سورة آل عمران من باب ٥","publishedAt":"2018-03-15T14:40:08Z","duration":"PT22M51S","thumbnail":"https://i.ytimg.com/vi/6GPqZLEtvDs/mqdefault.jpg","viewCount":"491","playlistId":"PLEkQk5xrP-tlEerGoLa1AFy-2XvQ-sovv","playlistName":"شرح صحيح البخاري - أ.د. يسري جبر (كاملا)","category":"حديث"},{"id":"Se7U0i6BziE","title":"شرح صحيح البخاري كتاب التفسير فى سورة آل عمران من باب ٤","publishedAt":"2018-03-14T14:51:36Z","duration":"PT22M17S","thumbnail":"https://i.ytimg.com/vi/Se7U0i6BziE/mqdefault.jpg","viewCount":"479","playlistId":"PLEkQk5xrP-tlEerGoLa1AFy-2XvQ-sovv","playlistName":"شرح صحيح البخاري - أ.د. يسري جبر (كاملا)","category":"حديث"},{"id":"5QzGXbNfr5E","title":"شرح صحيح البخاري كتاب التفسير فى سورة آل عمران من أوله","publishedAt":"2018-03-13T12:39:45Z","duration":"PT26M21S","thumbnail":"https://i.ytimg.com/vi/5QzGXbNfr5E/mqdefault.jpg","viewCount":"599","playlistId":"PLEkQk5xrP-tlEerGoLa1AFy-2XvQ-sovv","playlistName":"شرح صحيح البخاري - أ.د. يسري جبر (كاملا)","category":"حديث"},{"id":"x67Qd5fWX8g","title":"شرح صحيح البخاري كتاب التفسير فى سورة البقرة من باب ٤٢","publishedAt":"2018-03-12T14:03:17Z","duration":"PT40M34S","thumbnail":"https://i.ytimg.com/vi/x67Qd5fWX8g/mqdefault.jpg","viewCount":"698","playlistId":"PLEkQk5xrP-tlEerGoLa1AFy-2XvQ-sovv","playlistName":"شرح صحيح البخاري - أ.د. يسري جبر (كاملا)","category":"حديث"},{"id":"wu0rnGuRB1E","title":"شرح صحيح البخاري كتاب الحدود من باب ٩","publishedAt":"2018-11-27T15:54:24Z","duration":"PT27M56S","thumbnail":"https://i.ytimg.com/vi/wu0rnGuRB1E/mqdefault.jpg","viewCount":"387","playlistId":"PLEkQk5xrP-tlEerGoLa1AFy-2XvQ-sovv","playlistName":"شرح صحيح البخاري - أ.د. يسري جبر (كاملا)","category":"حديث"},{"id":"zUuPnZ9HkK4","title":"شرح صحيح البخاري كتاب الحدود من أوله","publishedAt":"2018-11-26T19:04:32Z","duration":"PT37M18S","thumbnail":"https://i.ytimg.com/vi/zUuPnZ9HkK4/mqdefault.jpg","viewCount":"535","playlistId":"PLEkQk5xrP-tlEerGoLa1AFy-2XvQ-sovv","playlistName":"شرح صحيح البخاري - أ.د. يسري جبر (كاملا)","category":"حديث"},{"id":"9loWimxeq4g","title":"شرح صحيح البخاري - كتاب سجود القرآن من أوله","publishedAt":"2016-12-21T09:13:02Z","duration":"PT33M33S","thumbnail":"https://i.ytimg.com/vi/9loWimxeq4g/mqdefault.jpg","viewCount":"1032","playlistId":"PLEkQk5xrP-tlEerGoLa1AFy-2XvQ-sovv","playlistName":"شرح صحيح البخاري - أ.د. يسري جبر (كاملا)","category":"حديث"},{"id":"VwtWtKg-OKg","title":"وشرح صحيح البخاري - كتاب الكسوف من باب ١٠","publishedAt":"2016-12-20T12:53:23Z","duration":"PT27M28S","thumbnail":"https://i.ytimg.com/vi/VwtWtKg-OKg/mqdefault.jpg","viewCount":"728","playlistId":"PLEkQk5xrP-tlEerGoLa1AFy-2XvQ-sovv","playlistName":"شرح صحيح البخاري - أ.د. يسري جبر (كاملا)","category":"حديث"},{"id":"VPKR4Nx3GyY","title":"شرح صحيح البخاري - كتاب الكسوف من أوله","publishedAt":"2016-12-19T08:49:51Z","duration":"PT44M27S","thumbnail":"https://i.ytimg.com/vi/VPKR4Nx3GyY/mqdefault.jpg","viewCount":"930","playlistId":"PLEkQk5xrP-tlEerGoLa1AFy-2XvQ-sovv","playlistName":"شرح صحيح البخاري - أ.د. يسري جبر (كاملا)","category":"حديث"},{"id":"Q4JeorQcmmU","title":"شرح صحيح البخاري كتاب الطلاق من باب 18","publishedAt":"2018-06-19T22:48:27Z","duration":"PT28M8S","thumbnail":"https://i.ytimg.com/vi/Q4JeorQcmmU/mqdefault.jpg","viewCount":"447","playlistId":"PLEkQk5xrP-tlEerGoLa1AFy-2XvQ-sovv","playlistName":"شرح صحيح البخاري - أ.د. يسري جبر (كاملا)","category":"حديث"},{"id":"ax3RrD76TaI","title":"شرح صحيح البخاري كتاب الطلاق من باب 14","publishedAt":"2018-06-19T04:57:15Z","duration":"PT13M51S","thumbnail":"https://i.ytimg.com/vi/ax3RrD76TaI/mqdefault.jpg","viewCount":"323","playlistId":"PLEkQk5xrP-tlEerGoLa1AFy-2XvQ-sovv","playlistName":"شرح صحيح البخاري - أ.د. يسري جبر (كاملا)","category":"حديث"},{"id":"kpZXwW5dnS8","title":"شرح صحيح البخاري -  كتاب المغازي من باب ١٨","publishedAt":"2018-01-01T13:57:35Z","duration":"PT35M8S","thumbnail":"https://i.ytimg.com/vi/kpZXwW5dnS8/mqdefault.jpg","viewCount":"551","playlistId":"PLEkQk5xrP-tlEerGoLa1AFy-2XvQ-sovv","playlistName":"شرح صحيح البخاري - أ.د. يسري جبر (كاملا)","category":"حديث"}],"total":719,"page":22,"pageSize":24,"totalPages":30}