{"items":[{"id":"PcfPUOvVSG8","title":"شرح صحيح البخاري - كتاب التهجد من باب ٣٣","publishedAt":"2016-12-29T11:25:43Z","duration":"PT28M45S","thumbnail":"https://i.ytimg.com/vi/PcfPUOvVSG8/mqdefault.jpg","viewCount":"895","playlistId":"PLEkQk5xrP-tlEerGoLa1AFy-2XvQ-sovv","playlistName":"شرح صحيح البخاري - أ.د. يسري جبر (كاملا)","category":"حديث"},{"id":"onnYAvLh9uA","title":"شرح صحيح البخاري - كتاب التهجد من باب ٢٣","publishedAt":"2016-12-28T15:49:37Z","duration":"PT35M54S","thumbnail":"https://i.ytimg.com/vi/onnYAvLh9uA/mqdefault.jpg","viewCount":"911","playlistId":"PLEkQk5xrP-tlEerGoLa1AFy-2XvQ-sovv","playlistName":"شرح صحيح البخاري - أ.د. يسري جبر (كاملا)","category":"حديث"},{"id":"q0lREIF_zws","title":"شرح صحيح البخاري - كتاب التهجد من باب ١٤","publishedAt":"2016-12-27T12:09:54Z","duration":"PT38M38S","thumbnail":"https://i.ytimg.com/vi/q0lREIF_zws/mqdefault.jpg","viewCount":"984","playlistId":"PLEkQk5xrP-tlEerGoLa1AFy-2XvQ-sovv","playlistName":"شرح صحيح البخاري - أ.د. يسري جبر (كاملا)","category":"حديث"},{"id":"b2B-vIrOoNE","title":"شرح صحيح البخاري كتاب الطلاق من أوله","publishedAt":"2018-06-13T19:14:53Z","duration":"PT32M50S","thumbnail":"https://i.ytimg.com/vi/b2B-vIrOoNE/mqdefault.jpg","viewCount":"908","playlistId":"PLEkQk5xrP-tlEerGoLa1AFy-2XvQ-sovv","playlistName":"شرح صحيح البخاري - أ.د. يسري جبر (كاملا)","category":"حديث"},{"id":"SaetOACGeVw","title":"شرح صحيح البخاري كتاب النكاح من باب ١١٩","publishedAt":"2018-06-12T16:02:48Z","duration":"PT28M21S","thumbnail":"https://i.ytimg.com/vi/SaetOACGeVw/mqdefault.jpg","viewCount":"484","playlistId":"PLEkQk5xrP-tlEerGoLa1AFy-2XvQ-sovv","playlistName":"شرح صحيح البخاري - أ.د. يسري جبر (كاملا)","category":"حديث"},{"id":"el4iI0BkQ8k","title":"شرح صحيح البخاري كتاب النكاح من باب ١١٢","publishedAt":"2018-06-11T15:50:06Z","duration":"PT23M14S","thumbnail":"https://i.ytimg.com/vi/el4iI0BkQ8k/mqdefault.jpg","viewCount":"611","playlistId":"PLEkQk5xrP-tlEerGoLa1AFy-2XvQ-sovv","playlistName":"شرح صحيح البخاري - أ.د. يسري جبر (كاملا)","category":"حديث"},{"id":"c10gBnxag_0","title":"شرح صحيح البخاري كتاب النكاح من باب ١٠٧","publishedAt":"2018-06-10T20:04:32Z","duration":"PT27M54S","thumbnail":"https://i.ytimg.com/vi/c10gBnxag_0/mqdefault.jpg","viewCount":"473","playlistId":"PLEkQk5xrP-tlEerGoLa1AFy-2XvQ-sovv","playlistName":"شرح صحيح البخاري - أ.د. يسري جبر (كاملا)","category":"حديث"},{"id":"kW6uAxtqdjc","title":"شرح صحيح البخاري كتاب النكاح من باب ٩٧","publishedAt":"2018-06-09T19:24:48Z","duration":"PT26M58S","thumbnail":"https://i.ytimg.com/vi/kW6uAxtqdjc/mqdefault.jpg","viewCount":"535","playlistId":"PLEkQk5xrP-tlEerGoLa1AFy-2XvQ-sovv","playlistName":"شرح صحيح البخاري - أ.د. يسري جبر (كاملا)","category":"حديث"},{"id":"lx9WolMVEWg","title":"شرح صحيح البخاري كتاب التوحيد من باب ٣٣","publishedAt":"2019-02-10T20:09:51Z","duration":"PT41M10S","thumbnail":"https://i.ytimg.com/vi/lx9WolMVEWg/mqdefault.jpg","viewCount":"557","playlistId":"PLEkQk5xrP-tlEerGoLa1AFy-2XvQ-sovv","playlistName":"شرح صحيح البخاري - أ.د. يسري جبر (كاملا)","category":"حديث"},{"id":"A_TH1At0s4E","title":"شرح صحيح البخاري كتاب التوحيد تكملة من باب ٣١","publishedAt":"2019-02-09T13:06:30Z","duration":"PT37M17S","thumbnail":"https://i.ytimg.com/vi/A_TH1At0s4E/mqdefault.jpg","viewCount":"503","playlistId":"PLEkQk5xrP-tlEerGoLa1AFy-2XvQ-sovv","playlistName":"شرح صحيح البخاري - أ.د. يسري جبر (كاملا)","category":"حديث"},{"id":"ex1UWoxSSGg","title":"شرح صحيح البخاري كتاب التفسير فى سورة النور من باب ٥","publishedAt":"2018-04-10T16:17:01Z","duration":"PT37M20S","thumbnail":"https://i.ytimg.com/vi/ex1UWoxSSGg/mqdefault.jpg","viewCount":"564","playlistId":"PLEkQk5xrP-tlEerGoLa1AFy-2XvQ-sovv","playlistName":"شرح صحيح البخاري - أ.د. يسري جبر (كاملا)","category":"حديث"},{"id":"KeKOVqDCfBo","title":"شرح صحيح البخاري كتاب التفسير فى سورة النور من باب أول","publishedAt":"2018-04-09T15:55:31Z","duration":"PT31M24S","thumbnail":"https://i.ytimg.com/vi/KeKOVqDCfBo/mqdefault.jpg","viewCount":"784","playlistId":"PLEkQk5xrP-tlEerGoLa1AFy-2XvQ-sovv","playlistName":"شرح صحيح البخاري - أ.د. يسري جبر (كاملا)","category":"حديث"},{"id":"wae1P_GWUyE","title":"شرح صحيح البخاري كتاب التفسير فى سورة النور من باب ٧","publishedAt":"2018-04-09T11:26:44Z","duration":"PT32M56S","thumbnail":"https://i.ytimg.com/vi/wae1P_GWUyE/mqdefault.jpg","viewCount":"418","playlistId":"PLEkQk5xrP-tlEerGoLa1AFy-2XvQ-sovv","playlistName":"شرح صحيح البخاري - أ.د. يسري جبر (كاملا)","category":"حديث"},{"id":"3wevqeLssxI","title":"شرح صحيح البخاري كتاب التفسير فى سورة الفرقان من باب ١","publishedAt":"2018-04-09T11:26:41Z","duration":"PT43M51S","thumbnail":"https://i.ytimg.com/vi/3wevqeLssxI/mqdefault.jpg","viewCount":"519","playlistId":"PLEkQk5xrP-tlEerGoLa1AFy-2XvQ-sovv","playlistName":"شرح صحيح البخاري - أ.د. يسري جبر (كاملا)","category":"حديث"},{"id":"D-_GsBLOomM","title":"شرح صحيح البخاري - كتاب المغازي من باب ٣٨","publishedAt":"2018-02-08T16:25:24Z","duration":"PT27M33S","thumbnail":"https://i.ytimg.com/vi/D-_GsBLOomM/mqdefault.jpg","viewCount":"598","playlistId":"PLEkQk5xrP-tlEerGoLa1AFy-2XvQ-sovv","playlistName":"شرح صحيح البخاري - أ.د. يسري جبر (كاملا)","category":"حديث"},{"id":"hU678XKkbJw","title":"شرح صحيح البخاري - كتاب المغازي تكملة باب ٣٧","publishedAt":"2018-02-06T21:12:01Z","duration":"PT43M20S","thumbnail":"https://i.ytimg.com/vi/hU678XKkbJw/mqdefault.jpg","viewCount":"600","playlistId":"PLEkQk5xrP-tlEerGoLa1AFy-2XvQ-sovv","playlistName":"شرح صحيح البخاري - أ.د. يسري جبر (كاملا)","category":"حديث"},{"id":"g1U4uPSRER0","title":"شرح صحيح البخاري كتاب الإعتصام بالكتاب والسنة من باب ٦","publishedAt":"2019-01-24T12:09:42Z","duration":"PT40M27S","thumbnail":"https://i.ytimg.com/vi/g1U4uPSRER0/mqdefault.jpg","viewCount":"418","playlistId":"PLEkQk5xrP-tlEerGoLa1AFy-2XvQ-sovv","playlistName":"شرح صحيح البخاري - أ.د. يسري جبر (كاملا)","category":"حديث"},{"id":"zA40fsFy6iI","title":"شرح صحيح البخاري كتاب الإعتصام بالكتاب والسنة من باب ٤","publishedAt":"2019-01-23T09:57:34Z","duration":"PT32M11S","thumbnail":"https://i.ytimg.com/vi/zA40fsFy6iI/mqdefault.jpg","viewCount":"469","playlistId":"PLEkQk5xrP-tlEerGoLa1AFy-2XvQ-sovv","playlistName":"شرح صحيح البخاري - أ.د. يسري جبر (كاملا)","category":"حديث"},{"id":"-GXpYosplMU","title":"شرح صحيح البخاري كتاب التوحيد من باب ٢٦","publishedAt":"2019-02-07T22:30:02Z","duration":"PT33M26S","thumbnail":"https://i.ytimg.com/vi/-GXpYosplMU/mqdefault.jpg","viewCount":"563","playlistId":"PLEkQk5xrP-tlEerGoLa1AFy-2XvQ-sovv","playlistName":"شرح صحيح البخاري - أ.د. يسري جبر (كاملا)","category":"حديث"},{"id":"ysSEgy1oKG8","title":"شرح صحيح البخاري  كتاب التوحيد تكملة باب ٢٤","publishedAt":"2019-02-06T21:46:00Z","duration":"PT31M10S","thumbnail":"https://i.ytimg.com/vi/ysSEgy1oKG8/mqdefault.jpg","viewCount":"514","playlistId":"PLEkQk5xrP-tlEerGoLa1AFy-2XvQ-sovv","playlistName":"شرح صحيح البخاري - أ.د. يسري جبر (كاملا)","category":"حديث"},{"id":"SiLsew9_3sk","title":"شرح صحيح البخاري كتاب التوحيد من باب ٢٤","publishedAt":"2019-02-05T22:06:37Z","duration":"PT48M41S","thumbnail":"https://i.ytimg.com/vi/SiLsew9_3sk/mqdefault.jpg","viewCount":"640","playlistId":"PLEkQk5xrP-tlEerGoLa1AFy-2XvQ-sovv","playlistName":"شرح صحيح البخاري - أ.د. يسري جبر (كاملا)","category":"حديث"},{"id":"9SxNws9tyvE","title":"شرح صحيح البخاري كتاب التوحيد من باب ٢٠","publishedAt":"2019-02-04T21:04:14Z","duration":"PT39M35S","thumbnail":"https://i.ytimg.com/vi/9SxNws9tyvE/mqdefault.jpg","viewCount":"550","playlistId":"PLEkQk5xrP-tlEerGoLa1AFy-2XvQ-sovv","playlistName":"شرح صحيح البخاري - أ.د. يسري جبر (كاملا)","category":"حديث"},{"id":"Ck74Z8PhS5I","title":"شرح صحيح البخاري كتاب النكاح من باب ٨٩","publishedAt":"2018-06-09T04:46:23Z","duration":"PT31M45S","thumbnail":"https://i.ytimg.com/vi/Ck74Z8PhS5I/mqdefault.jpg","viewCount":"493","playlistId":"PLEkQk5xrP-tlEerGoLa1AFy-2XvQ-sovv","playlistName":"شرح صحيح البخاري - أ.د. يسري جبر (كاملا)","category":"حديث"},{"id":"Xxv1_g1ruGk","title":"شرح صحيح البخاري كتاب النكاح من باب ٨٤","publishedAt":"2018-06-07T19:10:24Z","duration":"PT31M25S","thumbnail":"https://i.ytimg.com/vi/Xxv1_g1ruGk/mqdefault.jpg","viewCount":"571","playlistId":"PLEkQk5xrP-tlEerGoLa1AFy-2XvQ-sovv","playlistName":"شرح صحيح البخاري - أ.د. يسري جبر (كاملا)","category":"حديث"}],"total":719,"page":17,"pageSize":24,"totalPages":30}