{"items":[{"id":"7BaxMqnXRgs","title":"شرح صحيح البخاري كتاب التفسير فى سورة السبأ من باب ١","publishedAt":"2018-04-16T19:16:21Z","duration":"PT40M47S","thumbnail":"https://i.ytimg.com/vi/7BaxMqnXRgs/mqdefault.jpg","viewCount":"559","playlistId":"PLEkQk5xrP-tlEerGoLa1AFy-2XvQ-sovv","playlistName":"شرح صحيح البخاري - أ.د. يسري جبر (كاملا)","category":"حديث"},{"id":"DafnZToo39k","title":"شرح صحيح البخاري كتاب التفسير فى سورة الاحزاب من باب ٧","publishedAt":"2018-04-15T18:33:31Z","duration":"PT42M27S","thumbnail":"https://i.ytimg.com/vi/DafnZToo39k/mqdefault.jpg","viewCount":"591","playlistId":"PLEkQk5xrP-tlEerGoLa1AFy-2XvQ-sovv","playlistName":"شرح صحيح البخاري - أ.د. يسري جبر (كاملا)","category":"حديث"},{"id":"Thv3-oMW5xY","title":"شرح صحيح البخاري ( كتاب التيمم مجلس ٢ )","publishedAt":"2016-09-27T20:47:10Z","duration":"PT45M20S","thumbnail":"https://i.ytimg.com/vi/Thv3-oMW5xY/mqdefault.jpg","viewCount":"1346","playlistId":"PLEkQk5xrP-tlEerGoLa1AFy-2XvQ-sovv","playlistName":"شرح صحيح البخاري - أ.د. يسري جبر (كاملا)","category":"حديث"},{"id":"HPTIGsxh6CU","title":"شرح صحيح البخاري ( كتاب التيمم مجلس ١ )","publishedAt":"2016-09-27T20:45:55Z","duration":"PT30M59S","thumbnail":"https://i.ytimg.com/vi/HPTIGsxh6CU/mqdefault.jpg","viewCount":"1407","playlistId":"PLEkQk5xrP-tlEerGoLa1AFy-2XvQ-sovv","playlistName":"شرح صحيح البخاري - أ.د. يسري جبر (كاملا)","category":"حديث"},{"id":"TaebrLzX5MI","title":"شرح صحيح البخاري ( كتاب الصلاة مجلس ٩)","publishedAt":"2016-10-04T08:22:23Z","duration":"PT30M26S","thumbnail":"https://i.ytimg.com/vi/TaebrLzX5MI/mqdefault.jpg","viewCount":"1429","playlistId":"PLEkQk5xrP-tlEerGoLa1AFy-2XvQ-sovv","playlistName":"شرح صحيح البخاري - أ.د. يسري جبر (كاملا)","category":"حديث"},{"id":"ewn6tgGqYCA","title":"شرح صحيح البخاري ( كتاب الصلاة مجلس ٨)","publishedAt":"2016-10-03T08:00:52Z","duration":"PT22M9S","thumbnail":"https://i.ytimg.com/vi/ewn6tgGqYCA/mqdefault.jpg","viewCount":"1238","playlistId":"PLEkQk5xrP-tlEerGoLa1AFy-2XvQ-sovv","playlistName":"شرح صحيح البخاري - أ.د. يسري جبر (كاملا)","category":"حديث"},{"id":"aW8RRE8KM10","title":"شرح صحيح البخاري ( كتاب الصلاة مجلس ٧)","publishedAt":"2016-10-02T07:40:30Z","duration":"PT35M48S","thumbnail":"https://i.ytimg.com/vi/aW8RRE8KM10/mqdefault.jpg","viewCount":"1452","playlistId":"PLEkQk5xrP-tlEerGoLa1AFy-2XvQ-sovv","playlistName":"شرح صحيح البخاري - أ.د. يسري جبر (كاملا)","category":"حديث"},{"id":"fNQ8kGbcf5o","title":"شرح صحيح البخاري كتاب الاستئذان من باب ٤٠","publishedAt":"2018-09-29T11:27:54Z","duration":"PT32M40S","thumbnail":"https://i.ytimg.com/vi/fNQ8kGbcf5o/mqdefault.jpg","viewCount":"458","playlistId":"PLEkQk5xrP-tlEerGoLa1AFy-2XvQ-sovv","playlistName":"شرح صحيح البخاري - أ.د. يسري جبر (كاملا)","category":"حديث"},{"id":"k5CgwoOgq4Y","title":"شرح صحيح البخاري كتاب النكاح من باب ٥","publishedAt":"2018-05-19T09:00:53Z","duration":"PT39M45S","thumbnail":"https://i.ytimg.com/vi/k5CgwoOgq4Y/mqdefault.jpg","viewCount":"958","playlistId":"PLEkQk5xrP-tlEerGoLa1AFy-2XvQ-sovv","playlistName":"شرح صحيح البخاري - أ.د. يسري جبر (كاملا)","category":"حديث"},{"id":"JUtGrH49VMY","title":"شرح صحيح البخاري كتاب النكاح من أوله","publishedAt":"2018-05-18T15:31:16Z","duration":"PT34M46S","thumbnail":"https://i.ytimg.com/vi/JUtGrH49VMY/mqdefault.jpg","viewCount":"3228","playlistId":"PLEkQk5xrP-tlEerGoLa1AFy-2XvQ-sovv","playlistName":"شرح صحيح البخاري - أ.د. يسري جبر (كاملا)","category":"حديث"},{"id":"gf5GUX8A1tM","title":"شرح صحيح البخاري -  كتاب المغازي تكملة باب ١٢ المجلس الثاني","publishedAt":"2017-12-27T13:04:06Z","duration":"PT33M35S","thumbnail":"https://i.ytimg.com/vi/gf5GUX8A1tM/mqdefault.jpg","viewCount":"592","playlistId":"PLEkQk5xrP-tlEerGoLa1AFy-2XvQ-sovv","playlistName":"شرح صحيح البخاري - أ.د. يسري جبر (كاملا)","category":"حديث"},{"id":"nQZnhEST5qw","title":"شرح صحيح البخاري -  كتاب المغازي تكملة باب ١٢","publishedAt":"2017-12-27T03:21:19Z","duration":"PT31M35S","thumbnail":"https://i.ytimg.com/vi/nQZnhEST5qw/mqdefault.jpg","viewCount":"599","playlistId":"PLEkQk5xrP-tlEerGoLa1AFy-2XvQ-sovv","playlistName":"شرح صحيح البخاري - أ.د. يسري جبر (كاملا)","category":"حديث"},{"id":"c6_Bycnks2Q","title":"شرح صحيح البخاري ( كتاب الحيض مجلس ١ )","publishedAt":"2016-09-19T07:06:18Z","duration":"PT35M18S","thumbnail":"https://i.ytimg.com/vi/c6_Bycnks2Q/mqdefault.jpg","viewCount":"1833","playlistId":"PLEkQk5xrP-tlEerGoLa1AFy-2XvQ-sovv","playlistName":"شرح صحيح البخاري - أ.د. يسري جبر (كاملا)","category":"حديث"},{"id":"z6Dyl2GX49Y","title":"شرح صحيح البخاري ( كتاب الغسل مجلس ٤ )","publishedAt":"2016-09-18T06:22:06Z","duration":"PT24M29S","thumbnail":"https://i.ytimg.com/vi/z6Dyl2GX49Y/mqdefault.jpg","viewCount":"1307","playlistId":"PLEkQk5xrP-tlEerGoLa1AFy-2XvQ-sovv","playlistName":"شرح صحيح البخاري - أ.د. يسري جبر (كاملا)","category":"حديث"},{"id":"jpqqMylCbJE","title":"شرح صحيح البخاري - كتاب الشركة من باب ٦","publishedAt":"2017-06-01T21:31:25Z","duration":"PT45M12S","thumbnail":"https://i.ytimg.com/vi/jpqqMylCbJE/mqdefault.jpg","viewCount":"724","playlistId":"PLEkQk5xrP-tlEerGoLa1AFy-2XvQ-sovv","playlistName":"شرح صحيح البخاري - أ.د. يسري جبر (كاملا)","category":"حديث"},{"id":"XPAP9YFeEfg","title":"شرح صحيح البخاري - كتاب الشركة من أوله","publishedAt":"2017-06-01T21:29:11Z","duration":"PT36M52S","thumbnail":"https://i.ytimg.com/vi/XPAP9YFeEfg/mqdefault.jpg","viewCount":"840","playlistId":"PLEkQk5xrP-tlEerGoLa1AFy-2XvQ-sovv","playlistName":"شرح صحيح البخاري - أ.د. يسري جبر (كاملا)","category":"حديث"},{"id":"-R0IlfovUZ8","title":"شرح صحيح البخاري كتاب المحاربين من أهل الكفر والردة من باب ١٧","publishedAt":"2018-11-30T15:12:29Z","duration":"PT35M39S","thumbnail":"https://i.ytimg.com/vi/-R0IlfovUZ8/mqdefault.jpg","viewCount":"422","playlistId":"PLEkQk5xrP-tlEerGoLa1AFy-2XvQ-sovv","playlistName":"شرح صحيح البخاري - أ.د. يسري جبر (كاملا)","category":"حديث"},{"id":"kZTnzBYvDAQ","title":"شرح صحيح البخاري كتاب المحاربين من أهل الكفر والردة من باب ٧","publishedAt":"2018-11-29T20:50:24Z","duration":"PT32M","thumbnail":"https://i.ytimg.com/vi/kZTnzBYvDAQ/mqdefault.jpg","viewCount":"397","playlistId":"PLEkQk5xrP-tlEerGoLa1AFy-2XvQ-sovv","playlistName":"شرح صحيح البخاري - أ.د. يسري جبر (كاملا)","category":"حديث"},{"id":"2EP5dtEfF0o","title":"شرح صحيح البخاري كتاب المحاربين من أهل الكفر والردة من أوله","publishedAt":"2018-11-29T12:26:41Z","duration":"PT34M56S","thumbnail":"https://i.ytimg.com/vi/2EP5dtEfF0o/mqdefault.jpg","viewCount":"431","playlistId":"PLEkQk5xrP-tlEerGoLa1AFy-2XvQ-sovv","playlistName":"شرح صحيح البخاري - أ.د. يسري جبر (كاملا)","category":"حديث"},{"id":"_byP_iI8xBs","title":"شرح صحيح البخاري كتاب التفسير فى سورة لقمان من باب ١","publishedAt":"2018-04-14T20:29:16Z","duration":"PT40M24S","thumbnail":"https://i.ytimg.com/vi/_byP_iI8xBs/mqdefault.jpg","viewCount":"505","playlistId":"PLEkQk5xrP-tlEerGoLa1AFy-2XvQ-sovv","playlistName":"شرح صحيح البخاري - أ.د. يسري جبر (كاملا)","category":"حديث"},{"id":"g4M-v5xrXBM","title":"شرح صحيح البخاري - كتاب المغازي تكملة باب ٣٦","publishedAt":"2018-02-04T17:31:55Z","duration":"PT35M17S","thumbnail":"https://i.ytimg.com/vi/g4M-v5xrXBM/mqdefault.jpg","viewCount":"539","playlistId":"PLEkQk5xrP-tlEerGoLa1AFy-2XvQ-sovv","playlistName":"شرح صحيح البخاري - أ.د. يسري جبر (كاملا)","category":"حديث"},{"id":"aMvULLMhEO0","title":"شرح صحيح البخاري - كتاب المغازي من باب ٣٤","publishedAt":"2018-02-03T16:50:01Z","duration":"PT37M28S","thumbnail":"https://i.ytimg.com/vi/aMvULLMhEO0/mqdefault.jpg","viewCount":"550","playlistId":"PLEkQk5xrP-tlEerGoLa1AFy-2XvQ-sovv","playlistName":"شرح صحيح البخاري - أ.د. يسري جبر (كاملا)","category":"حديث"},{"id":"vU9OHGBsBJk","title":"شرح صحيح البخاري   كتاب المغازي من باب ٣٣","publishedAt":"2018-02-01T20:32:41Z","duration":"PT24M48S","thumbnail":"https://i.ytimg.com/vi/vU9OHGBsBJk/mqdefault.jpg","viewCount":"513","playlistId":"PLEkQk5xrP-tlEerGoLa1AFy-2XvQ-sovv","playlistName":"شرح صحيح البخاري - أ.د. يسري جبر (كاملا)","category":"حديث"},{"id":"eHPz-SBT-0c","title":"شرح صحيح البخاري   كتاب المغازي من باب ٣٢","publishedAt":"2018-01-31T13:43:49Z","duration":"PT22M31S","thumbnail":"https://i.ytimg.com/vi/eHPz-SBT-0c/mqdefault.jpg","viewCount":"512","playlistId":"PLEkQk5xrP-tlEerGoLa1AFy-2XvQ-sovv","playlistName":"شرح صحيح البخاري - أ.د. يسري جبر (كاملا)","category":"حديث"}],"total":719,"page":21,"pageSize":24,"totalPages":30}