{"items":[{"id":"z6Dyl2GX49Y","title":"شرح صحيح البخاري ( كتاب الغسل مجلس ٤ )","publishedAt":"2016-09-18T06:22:06Z","duration":"PT24M29S","thumbnail":"https://i.ytimg.com/vi/z6Dyl2GX49Y/mqdefault.jpg","viewCount":"1307","playlistId":"PLEkQk5xrP-tlEerGoLa1AFy-2XvQ-sovv","playlistName":"شرح صحيح البخاري - أ.د. يسري جبر (كاملا)","category":"حديث"},{"id":"i3CId7ps0Ks","title":"شرح صحيح البخاري   كتاب الزكاة من باب ٥٥","publishedAt":"2017-02-22T19:30:38Z","duration":"PT32M37S","thumbnail":"https://i.ytimg.com/vi/i3CId7ps0Ks/mqdefault.jpg","viewCount":"867","playlistId":"PLEkQk5xrP-tlEerGoLa1AFy-2XvQ-sovv","playlistName":"شرح صحيح البخاري - أ.د. يسري جبر (كاملا)","category":"حديث"},{"id":"BKGhfPPo9Go","title":"شرح صحيح البخاري   كتاب الزكاة من باب ٥١","publishedAt":"2017-02-21T15:14:10Z","duration":"PT47M56S","thumbnail":"https://i.ytimg.com/vi/BKGhfPPo9Go/mqdefault.jpg","viewCount":"961","playlistId":"PLEkQk5xrP-tlEerGoLa1AFy-2XvQ-sovv","playlistName":"شرح صحيح البخاري - أ.د. يسري جبر (كاملا)","category":"حديث"},{"id":"v-OgQiEL9co","title":"شرح صحيح البخاري ( كتاب الغسل مجلس ٢ )","publishedAt":"2016-09-16T05:17:36Z","duration":"PT32M36S","thumbnail":"https://i.ytimg.com/vi/v-OgQiEL9co/mqdefault.jpg","viewCount":"1868","playlistId":"PLEkQk5xrP-tlEerGoLa1AFy-2XvQ-sovv","playlistName":"شرح صحيح البخاري - أ.د. يسري جبر (كاملا)","category":"حديث"},{"id":"o68TC9Z37s0","title":"شرح صحيح البخاري (  كتاب الغسل مجلس ١ )","publishedAt":"2016-09-05T06:41:46Z","duration":"PT33M11S","thumbnail":"https://i.ytimg.com/vi/o68TC9Z37s0/mqdefault.jpg","viewCount":"1935","playlistId":"PLEkQk5xrP-tlEerGoLa1AFy-2XvQ-sovv","playlistName":"شرح صحيح البخاري - أ.د. يسري جبر (كاملا)","category":"حديث"},{"id":"c-wlcNnDy_I","title":"شرح صحيح البخاري ( كتاب الوضوء مجلس ٩ )","publishedAt":"2016-09-05T01:13:25Z","duration":"PT31M28S","thumbnail":"https://i.ytimg.com/vi/c-wlcNnDy_I/mqdefault.jpg","viewCount":"1475","playlistId":"PLEkQk5xrP-tlEerGoLa1AFy-2XvQ-sovv","playlistName":"شرح صحيح البخاري - أ.د. يسري جبر (كاملا)","category":"حديث"},{"id":"4BSbP3GBfRE","title":"شرح صحيح البخاري (  اخر مجلس في كتاب الوضوء مجلس ١٠ )","publishedAt":"2016-09-04T23:47:30Z","duration":"PT49M8S","thumbnail":"https://i.ytimg.com/vi/4BSbP3GBfRE/mqdefault.jpg","viewCount":"1661","playlistId":"PLEkQk5xrP-tlEerGoLa1AFy-2XvQ-sovv","playlistName":"شرح صحيح البخاري - أ.د. يسري جبر (كاملا)","category":"حديث"},{"id":"df1OhgBz3vY","title":"شرح صحيح البخاري ( كتاب الوضوء مجلس ٨ )","publishedAt":"2016-09-02T08:07:24Z","duration":"PT31M51S","thumbnail":"https://i.ytimg.com/vi/df1OhgBz3vY/mqdefault.jpg","viewCount":"1481","playlistId":"PLEkQk5xrP-tlEerGoLa1AFy-2XvQ-sovv","playlistName":"شرح صحيح البخاري - أ.د. يسري جبر (كاملا)","category":"حديث"},{"id":"EfpdbN8aPAk","title":"شرح صحيح البخاري ( كتاب الوضوء مجلس ٧ )","publishedAt":"2016-09-02T00:01:34Z","duration":"PT35M17S","thumbnail":"https://i.ytimg.com/vi/EfpdbN8aPAk/mqdefault.jpg","viewCount":"1592","playlistId":"PLEkQk5xrP-tlEerGoLa1AFy-2XvQ-sovv","playlistName":"شرح صحيح البخاري - أ.د. يسري جبر (كاملا)","category":"حديث"},{"id":"kRUFNiOrzMw","title":"شرح صحيح البخاري كتاب الدعوات من باب ٢٨","publishedAt":"2018-10-07T14:17:40Z","duration":"PT36M23S","thumbnail":"https://i.ytimg.com/vi/kRUFNiOrzMw/mqdefault.jpg","viewCount":"498","playlistId":"PLEkQk5xrP-tlEerGoLa1AFy-2XvQ-sovv","playlistName":"شرح صحيح البخاري - أ.د. يسري جبر (كاملا)","category":"حديث"},{"id":"N_hR593tSks","title":"شرح صحيح البخاري كتاب الدعوات من باب ١٨","publishedAt":"2018-10-06T06:31:33Z","duration":"PT38M9S","thumbnail":"https://i.ytimg.com/vi/N_hR593tSks/mqdefault.jpg","viewCount":"576","playlistId":"PLEkQk5xrP-tlEerGoLa1AFy-2XvQ-sovv","playlistName":"شرح صحيح البخاري - أ.د. يسري جبر (كاملا)","category":"حديث"},{"id":"6ga3JGviNNM","title":"شرح صحيح البخاري كتاب الدعوات من باب ١١","publishedAt":"2018-10-04T17:18:07Z","duration":"PT36M19S","thumbnail":"https://i.ytimg.com/vi/6ga3JGviNNM/mqdefault.jpg","viewCount":"511","playlistId":"PLEkQk5xrP-tlEerGoLa1AFy-2XvQ-sovv","playlistName":"شرح صحيح البخاري - أ.د. يسري جبر (كاملا)","category":"حديث"},{"id":"fM8mWdrE4cQ","title":"شرح صحيح البخاري كتاب الدعوات من باب ٥","publishedAt":"2018-10-03T21:37:35Z","duration":"PT35M51S","thumbnail":"https://i.ytimg.com/vi/fM8mWdrE4cQ/mqdefault.jpg","viewCount":"579","playlistId":"PLEkQk5xrP-tlEerGoLa1AFy-2XvQ-sovv","playlistName":"شرح صحيح البخاري - أ.د. يسري جبر (كاملا)","category":"حديث"},{"id":"lrSFCRZDlmc","title":"شرح صحيح البخاري كتاب الدعوات من أوله","publishedAt":"2018-10-02T10:18:09Z","duration":"PT16M46S","thumbnail":"https://i.ytimg.com/vi/lrSFCRZDlmc/mqdefault.jpg","viewCount":"935","playlistId":"PLEkQk5xrP-tlEerGoLa1AFy-2XvQ-sovv","playlistName":"شرح صحيح البخاري - أ.د. يسري جبر (كاملا)","category":"حديث"},{"id":"IttDs2ibA9I","title":"شرح صحيح البخاري كتاب الاستئذان من باب ٤٤","publishedAt":"2018-10-01T09:32:56Z","duration":"PT49M43S","thumbnail":"https://i.ytimg.com/vi/IttDs2ibA9I/mqdefault.jpg","viewCount":"511","playlistId":"PLEkQk5xrP-tlEerGoLa1AFy-2XvQ-sovv","playlistName":"شرح صحيح البخاري - أ.د. يسري جبر (كاملا)","category":"حديث"},{"id":"fNQ8kGbcf5o","title":"شرح صحيح البخاري كتاب الاستئذان من باب ٤٠","publishedAt":"2018-09-29T11:27:54Z","duration":"PT32M40S","thumbnail":"https://i.ytimg.com/vi/fNQ8kGbcf5o/mqdefault.jpg","viewCount":"458","playlistId":"PLEkQk5xrP-tlEerGoLa1AFy-2XvQ-sovv","playlistName":"شرح صحيح البخاري - أ.د. يسري جبر (كاملا)","category":"حديث"},{"id":"pdCNIoz8GN0","title":"شرح صحيح البخاري كتاب الاستئذان من باب ٣١","publishedAt":"2018-09-26T17:57:35Z","duration":"PT29M22S","thumbnail":"https://i.ytimg.com/vi/pdCNIoz8GN0/mqdefault.jpg","viewCount":"650","playlistId":"PLEkQk5xrP-tlEerGoLa1AFy-2XvQ-sovv","playlistName":"شرح صحيح البخاري - أ.د. يسري جبر (كاملا)","category":"حديث"},{"id":"ex2Z-NtJ2Lc","title":"شرح صحيح البخاري كتاب الحيل من أوله","publishedAt":"2018-12-16T20:09:09Z","duration":"PT39M42S","thumbnail":"https://i.ytimg.com/vi/ex2Z-NtJ2Lc/mqdefault.jpg","viewCount":"664","playlistId":"PLEkQk5xrP-tlEerGoLa1AFy-2XvQ-sovv","playlistName":"شرح صحيح البخاري - أ.د. يسري جبر (كاملا)","category":"حديث"},{"id":"1Gdubkvp2wQ","title":"شرح صحيح البخاري كتاب الإكراه من باب ٣","publishedAt":"2018-12-15T21:19:54Z","duration":"PT45M58S","thumbnail":"https://i.ytimg.com/vi/1Gdubkvp2wQ/mqdefault.jpg","viewCount":"412","playlistId":"PLEkQk5xrP-tlEerGoLa1AFy-2XvQ-sovv","playlistName":"شرح صحيح البخاري - أ.د. يسري جبر (كاملا)","category":"حديث"},{"id":"B4-t9x50IIk","title":"شرح صحيح البخاري كتاب الإكراه من أوله","publishedAt":"2018-12-14T17:34:49Z","duration":"PT21M55S","thumbnail":"https://i.ytimg.com/vi/B4-t9x50IIk/mqdefault.jpg","viewCount":"393","playlistId":"PLEkQk5xrP-tlEerGoLa1AFy-2XvQ-sovv","playlistName":"شرح صحيح البخاري - أ.د. يسري جبر (كاملا)","category":"حديث"},{"id":"6CRZsmUdKEs","title":"شرح صحيح البخاري كتاب استتابة المرتدين والمعاندين وقتالهم من باب ٨","publishedAt":"2018-12-13T21:36:03Z","duration":"PT23M42S","thumbnail":"https://i.ytimg.com/vi/6CRZsmUdKEs/mqdefault.jpg","viewCount":"316","playlistId":"PLEkQk5xrP-tlEerGoLa1AFy-2XvQ-sovv","playlistName":"شرح صحيح البخاري - أ.د. يسري جبر (كاملا)","category":"حديث"},{"id":"z7JQq3dYJEc","title":"شرح صحيح البخاري ( كتاب الوضوء مجلس ٦ )","publishedAt":"2016-08-31T06:36:54Z","duration":"PT40M48S","thumbnail":"https://i.ytimg.com/vi/z7JQq3dYJEc/mqdefault.jpg","viewCount":"1668","playlistId":"PLEkQk5xrP-tlEerGoLa1AFy-2XvQ-sovv","playlistName":"شرح صحيح البخاري - أ.د. يسري جبر (كاملا)","category":"حديث"},{"id":"RlQr_L46ftc","title":"شرح صحيح البخاري ( كتاب الوضوء مجلس ٥ )","publishedAt":"2016-08-30T20:26:35Z","duration":"PT41M59S","thumbnail":"https://i.ytimg.com/vi/RlQr_L46ftc/mqdefault.jpg","viewCount":"1780","playlistId":"PLEkQk5xrP-tlEerGoLa1AFy-2XvQ-sovv","playlistName":"شرح صحيح البخاري - أ.د. يسري جبر (كاملا)","category":"حديث"},{"id":"rqt6FMZrD4Q","title":"شرح صحيح البخاري ( كتاب الوضوء مجلس 4 )","publishedAt":"2016-08-29T04:47:41Z","duration":"PT40M26S","thumbnail":"https://i.ytimg.com/vi/rqt6FMZrD4Q/mqdefault.jpg","viewCount":"1866","playlistId":"PLEkQk5xrP-tlEerGoLa1AFy-2XvQ-sovv","playlistName":"شرح صحيح البخاري - أ.د. يسري جبر (كاملا)","category":"حديث"}],"total":719,"page":2,"pageSize":24,"totalPages":30}