{"items":[{"id":"XE7akJS72Mg","title":"شرح صحيح البخاري ( كتاب الصلاة مجلس ٥ )","publishedAt":"2016-10-01T10:16:33Z","duration":"PT41M56S","thumbnail":"https://i.ytimg.com/vi/XE7akJS72Mg/mqdefault.jpg","viewCount":"1639","playlistId":"PLEkQk5xrP-tlEerGoLa1AFy-2XvQ-sovv","playlistName":"شرح صحيح البخاري - أ.د. يسري جبر (كاملا)","category":"حديث"},{"id":"ZokRgARTiL0","title":"شرح صحيح البخاري ( كتاب الصلاة مجلس ٦)","publishedAt":"2016-10-01T10:16:10Z","duration":"PT35M11S","thumbnail":"https://i.ytimg.com/vi/ZokRgARTiL0/mqdefault.jpg","viewCount":"1421","playlistId":"PLEkQk5xrP-tlEerGoLa1AFy-2XvQ-sovv","playlistName":"شرح صحيح البخاري - أ.د. يسري جبر (كاملا)","category":"حديث"},{"id":"gcLQFvwhc9o","title":"شرح صحيح البخاري ( كتاب الصلاة مجلس ٤ )","publishedAt":"2016-10-01T08:57:42Z","duration":"PT31M47S","thumbnail":"https://i.ytimg.com/vi/gcLQFvwhc9o/mqdefault.jpg","viewCount":"1437","playlistId":"PLEkQk5xrP-tlEerGoLa1AFy-2XvQ-sovv","playlistName":"شرح صحيح البخاري - أ.د. يسري جبر (كاملا)","category":"حديث"},{"id":"ZUjl-GAXLMc","title":"شرح صحيح البخاري - كتاب الجهاد والسير من باب ٩","publishedAt":"2017-07-28T20:47:05Z","duration":"PT35M45S","thumbnail":"https://i.ytimg.com/vi/ZUjl-GAXLMc/mqdefault.jpg","viewCount":"673","playlistId":"PLEkQk5xrP-tlEerGoLa1AFy-2XvQ-sovv","playlistName":"شرح صحيح البخاري - أ.د. يسري جبر (كاملا)","category":"حديث"},{"id":"H7pgAZFuwFw","title":"شرح صحيح البخاري - كتاب الجهاد والسير من باب ٤","publishedAt":"2017-07-27T21:48:03Z","duration":"PT27M1S","thumbnail":"https://i.ytimg.com/vi/H7pgAZFuwFw/mqdefault.jpg","viewCount":"696","playlistId":"PLEkQk5xrP-tlEerGoLa1AFy-2XvQ-sovv","playlistName":"شرح صحيح البخاري - أ.د. يسري جبر (كاملا)","category":"حديث"},{"id":"gzdNfQxn4JU","title":"شرح صحيح البخاري - كتاب العمرة من باب ١٠","publishedAt":"2017-03-22T20:45:45Z","duration":"PT36M57S","thumbnail":"https://i.ytimg.com/vi/gzdNfQxn4JU/mqdefault.jpg","viewCount":"930","playlistId":"PLEkQk5xrP-tlEerGoLa1AFy-2XvQ-sovv","playlistName":"شرح صحيح البخاري - أ.د. يسري جبر (كاملا)","category":"حديث"},{"id":"N_dldZk8df8","title":"شرح صحيح البخاري -  كتاب العمرة من أوله","publishedAt":"2017-03-21T16:24:07Z","duration":"PT34M48S","thumbnail":"https://i.ytimg.com/vi/N_dldZk8df8/mqdefault.jpg","viewCount":"1641","playlistId":"PLEkQk5xrP-tlEerGoLa1AFy-2XvQ-sovv","playlistName":"شرح صحيح البخاري - أ.د. يسري جبر (كاملا)","category":"حديث"},{"id":"cQ9r8bEM7yI","title":"شرح صحيح البخاري -  كتاب الحج من باب ١٤٥","publishedAt":"2017-03-20T16:07:10Z","duration":"PT34M50S","thumbnail":"https://i.ytimg.com/vi/cQ9r8bEM7yI/mqdefault.jpg","viewCount":"673","playlistId":"PLEkQk5xrP-tlEerGoLa1AFy-2XvQ-sovv","playlistName":"شرح صحيح البخاري - أ.د. يسري جبر (كاملا)","category":"حديث"},{"id":"WXuREW2Kqhk","title":"شرح صحيح البخاري كتاب الرقاق من باب ٥١","publishedAt":"2018-11-04T17:39:29Z","duration":"PT48M49S","thumbnail":"https://i.ytimg.com/vi/WXuREW2Kqhk/mqdefault.jpg","viewCount":"546","playlistId":"PLEkQk5xrP-tlEerGoLa1AFy-2XvQ-sovv","playlistName":"شرح صحيح البخاري - أ.د. يسري جبر (كاملا)","category":"حديث"},{"id":"dvxougby87g","title":"شرح صحيح البخاري كتاب الرقاق من باب ٤٧","publishedAt":"2018-11-03T07:38:06Z","duration":"PT33M5S","thumbnail":"https://i.ytimg.com/vi/dvxougby87g/mqdefault.jpg","viewCount":"511","playlistId":"PLEkQk5xrP-tlEerGoLa1AFy-2XvQ-sovv","playlistName":"شرح صحيح البخاري - أ.د. يسري جبر (كاملا)","category":"حديث"},{"id":"rx0LhdO3ewY","title":"شرح صحيح البخاري كتاب اللباس من أوله","publishedAt":"2018-08-12T20:13:25Z","duration":"PT35M10S","thumbnail":"https://i.ytimg.com/vi/rx0LhdO3ewY/mqdefault.jpg","viewCount":"892","playlistId":"PLEkQk5xrP-tlEerGoLa1AFy-2XvQ-sovv","playlistName":"شرح صحيح البخاري - أ.د. يسري جبر (كاملا)","category":"حديث"},{"id":"sRtNGcVaoVc","title":"شرح صحيح البخاري كتاب الطب من باب ٤٩","publishedAt":"2018-08-11T17:38:02Z","duration":"PT47M30S","thumbnail":"https://i.ytimg.com/vi/sRtNGcVaoVc/mqdefault.jpg","viewCount":"668","playlistId":"PLEkQk5xrP-tlEerGoLa1AFy-2XvQ-sovv","playlistName":"شرح صحيح البخاري - أ.د. يسري جبر (كاملا)","category":"حديث"},{"id":"THfFRQkHhJ8","title":"شرح صحيح البخاري كتاب الطب من باب ٤٤","publishedAt":"2018-08-10T07:29:42Z","duration":"PT39M28S","thumbnail":"https://i.ytimg.com/vi/THfFRQkHhJ8/mqdefault.jpg","viewCount":"529","playlistId":"PLEkQk5xrP-tlEerGoLa1AFy-2XvQ-sovv","playlistName":"شرح صحيح البخاري - أ.د. يسري جبر (كاملا)","category":"حديث"},{"id":"slhPxFCfpjI","title":"شرح صحيح البخاري كتاب الطب من باب ٣٥","publishedAt":"2018-08-09T11:08:51Z","duration":"PT41M16S","thumbnail":"https://i.ytimg.com/vi/slhPxFCfpjI/mqdefault.jpg","viewCount":"537","playlistId":"PLEkQk5xrP-tlEerGoLa1AFy-2XvQ-sovv","playlistName":"شرح صحيح البخاري - أ.د. يسري جبر (كاملا)","category":"حديث"},{"id":"dxRonZbvO4A","title":"شرح صحيح البخاري كتاب الرقاق من باب ٤٤","publishedAt":"2018-11-01T20:06:19Z","duration":"PT32M23S","thumbnail":"https://i.ytimg.com/vi/dxRonZbvO4A/mqdefault.jpg","viewCount":"481","playlistId":"PLEkQk5xrP-tlEerGoLa1AFy-2XvQ-sovv","playlistName":"شرح صحيح البخاري - أ.د. يسري جبر (كاملا)","category":"حديث"},{"id":"rKt-h9tS0Js","title":"شرح صحيح البخاري كتاب الرقاق من باب ٤١","publishedAt":"2018-10-31T12:05:33Z","duration":"PT31M42S","thumbnail":"https://i.ytimg.com/vi/rKt-h9tS0Js/mqdefault.jpg","viewCount":"441","playlistId":"PLEkQk5xrP-tlEerGoLa1AFy-2XvQ-sovv","playlistName":"شرح صحيح البخاري - أ.د. يسري جبر (كاملا)","category":"حديث"},{"id":"CMQ-plazkC0","title":"شرح صحيح البخاري كتاب الطب من باب ٣٠","publishedAt":"2018-08-07T17:21:42Z","duration":"PT31M56S","thumbnail":"https://i.ytimg.com/vi/CMQ-plazkC0/mqdefault.jpg","viewCount":"589","playlistId":"PLEkQk5xrP-tlEerGoLa1AFy-2XvQ-sovv","playlistName":"شرح صحيح البخاري - أ.د. يسري جبر (كاملا)","category":"حديث"},{"id":"BDhFY6GNZPE","title":"شرح صحيح البخاري كتاب الحيل من باب ١٤","publishedAt":"2018-12-19T21:06:15Z","duration":"PT34M46S","thumbnail":"https://i.ytimg.com/vi/BDhFY6GNZPE/mqdefault.jpg","viewCount":"394","playlistId":"PLEkQk5xrP-tlEerGoLa1AFy-2XvQ-sovv","playlistName":"شرح صحيح البخاري - أ.د. يسري جبر (كاملا)","category":"حديث"},{"id":"b057IdMVr3U","title":"شرح صحيح البخاري كتاب الفتن من أوله","publishedAt":"2018-12-28T12:22:48Z","duration":"PT34M57S","thumbnail":"https://i.ytimg.com/vi/b057IdMVr3U/mqdefault.jpg","viewCount":"2124","playlistId":"PLEkQk5xrP-tlEerGoLa1AFy-2XvQ-sovv","playlistName":"شرح صحيح البخاري - أ.د. يسري جبر (كاملا)","category":"حديث"},{"id":"KDefv3e8Bxc","title":"شرح صحيح البخاري كتاب التعبير من باب ٤٠","publishedAt":"2018-12-27T20:16:27Z","duration":"PT42M25S","thumbnail":"https://i.ytimg.com/vi/KDefv3e8Bxc/mqdefault.jpg","viewCount":"537","playlistId":"PLEkQk5xrP-tlEerGoLa1AFy-2XvQ-sovv","playlistName":"شرح صحيح البخاري - أ.د. يسري جبر (كاملا)","category":"حديث"},{"id":"m4xa2pTClXI","title":"شرح صحيح البخاري كتاب التعبير من باب ٣٠","publishedAt":"2018-12-26T20:44:51Z","duration":"PT35M52S","thumbnail":"https://i.ytimg.com/vi/m4xa2pTClXI/mqdefault.jpg","viewCount":"462","playlistId":"PLEkQk5xrP-tlEerGoLa1AFy-2XvQ-sovv","playlistName":"شرح صحيح البخاري - أ.د. يسري جبر (كاملا)","category":"حديث"},{"id":"xA8Mvr63a24","title":"شرح صحيح البخاري - كتاب الجهاد والسير من باب ٦٢","publishedAt":"2017-08-05T20:36:02Z","duration":"PT31M30S","thumbnail":"https://i.ytimg.com/vi/xA8Mvr63a24/mqdefault.jpg","viewCount":"615","playlistId":"PLEkQk5xrP-tlEerGoLa1AFy-2XvQ-sovv","playlistName":"شرح صحيح البخاري - أ.د. يسري جبر (كاملا)","category":"حديث"},{"id":"a_DcxaEJmXI","title":"شرح صحيح البخاري - كتاب الجهاد والسير من باب ٥٢","publishedAt":"2017-08-04T18:11:02Z","duration":"PT25M55S","thumbnail":"https://i.ytimg.com/vi/a_DcxaEJmXI/mqdefault.jpg","viewCount":"563","playlistId":"PLEkQk5xrP-tlEerGoLa1AFy-2XvQ-sovv","playlistName":"شرح صحيح البخاري - أ.د. يسري جبر (كاملا)","category":"حديث"},{"id":"atiziCDik_A","title":"شرح صحيح البخاري - كتاب الجهاد والسير من باب ٤٣","publishedAt":"2017-08-03T21:58:05Z","duration":"PT36M35S","thumbnail":"https://i.ytimg.com/vi/atiziCDik_A/mqdefault.jpg","viewCount":"561","playlistId":"PLEkQk5xrP-tlEerGoLa1AFy-2XvQ-sovv","playlistName":"شرح صحيح البخاري - أ.د. يسري جبر (كاملا)","category":"حديث"}],"total":719,"page":14,"pageSize":24,"totalPages":30}