{"items":[{"id":"Ktx50mtQyts","title":"شرح صحيح البخاري كتاب التفسير فى سورة البقرة من باب ٣٥","publishedAt":"2018-03-11T17:24:59Z","duration":"PT32M54S","thumbnail":"https://i.ytimg.com/vi/Ktx50mtQyts/mqdefault.jpg","viewCount":"523","playlistId":"PLEkQk5xrP-tlEerGoLa1AFy-2XvQ-sovv","playlistName":"شرح صحيح البخاري - أ.د. يسري جبر (كاملا)","category":"حديث"},{"id":"ab3EDes-CTM","title":"شرح صحيح البخاري كتاب التفسير فى سورة البقرة من باب ٢٨","publishedAt":"2018-03-10T19:10:19Z","duration":"PT38M5S","thumbnail":"https://i.ytimg.com/vi/ab3EDes-CTM/mqdefault.jpg","viewCount":"683","playlistId":"PLEkQk5xrP-tlEerGoLa1AFy-2XvQ-sovv","playlistName":"شرح صحيح البخاري - أ.د. يسري جبر (كاملا)","category":"حديث"},{"id":"EbzjYc69d1o","title":"شرح صحيح البخاري كتاب التفسير فى سورة البقرة من باب ٢٢","publishedAt":"2018-03-09T20:19:49Z","duration":"PT36M6S","thumbnail":"https://i.ytimg.com/vi/EbzjYc69d1o/mqdefault.jpg","viewCount":"600","playlistId":"PLEkQk5xrP-tlEerGoLa1AFy-2XvQ-sovv","playlistName":"شرح صحيح البخاري - أ.د. يسري جبر (كاملا)","category":"حديث"},{"id":"yMSycaopzzM","title":"شرح صحيح البخاري كتاب التفسير فى سورة البقرة من باب ١١","publishedAt":"2018-03-08T21:49:46Z","duration":"PT31M30S","thumbnail":"https://i.ytimg.com/vi/yMSycaopzzM/mqdefault.jpg","viewCount":"601","playlistId":"PLEkQk5xrP-tlEerGoLa1AFy-2XvQ-sovv","playlistName":"شرح صحيح البخاري - أ.د. يسري جبر (كاملا)","category":"حديث"},{"id":"sfoMMNBQQxg","title":"شرح صحيح البخاري كتاب التفسير من سورة البقرة من باب ٧","publishedAt":"2018-03-07T11:31:14Z","duration":"PT24M39S","thumbnail":"https://i.ytimg.com/vi/sfoMMNBQQxg/mqdefault.jpg","viewCount":"652","playlistId":"PLEkQk5xrP-tlEerGoLa1AFy-2XvQ-sovv","playlistName":"شرح صحيح البخاري - أ.د. يسري جبر (كاملا)","category":"حديث"},{"id":"R4WRvDMeGxw","title":"شرح صحيح البخاري كتاب التفسير من سورة البقرة من أوله","publishedAt":"2018-03-06T14:12:18Z","duration":"PT29M57S","thumbnail":"https://i.ytimg.com/vi/R4WRvDMeGxw/mqdefault.jpg","viewCount":"1331","playlistId":"PLEkQk5xrP-tlEerGoLa1AFy-2XvQ-sovv","playlistName":"شرح صحيح البخاري - أ.د. يسري جبر (كاملا)","category":"حديث"},{"id":"45Rc-vqz2zg","title":"شرح صحيح البخاري - كتاب الزكاة من أوله","publishedAt":"2017-02-12T14:27:38Z","duration":"PT30M54S","thumbnail":"https://i.ytimg.com/vi/45Rc-vqz2zg/mqdefault.jpg","viewCount":"1388","playlistId":"PLEkQk5xrP-tlEerGoLa1AFy-2XvQ-sovv","playlistName":"شرح صحيح البخاري - أ.د. يسري جبر (كاملا)","category":"حديث"},{"id":"TbQiQd9fhsw","title":"شرح صحيح البخاري - كتاب الجنائز من باب ٩٤","publishedAt":"2017-02-11T13:18:52Z","duration":"PT49M3S","thumbnail":"https://i.ytimg.com/vi/TbQiQd9fhsw/mqdefault.jpg","viewCount":"1056","playlistId":"PLEkQk5xrP-tlEerGoLa1AFy-2XvQ-sovv","playlistName":"شرح صحيح البخاري - أ.د. يسري جبر (كاملا)","category":"حديث"},{"id":"46U9EXFBTWk","title":"شرح صحيح البخاري - كتاب الجنائز من باب ٩١","publishedAt":"2017-02-10T09:48:31Z","duration":"PT34M12S","thumbnail":"https://i.ytimg.com/vi/46U9EXFBTWk/mqdefault.jpg","viewCount":"898","playlistId":"PLEkQk5xrP-tlEerGoLa1AFy-2XvQ-sovv","playlistName":"شرح صحيح البخاري - أ.د. يسري جبر (كاملا)","category":"حديث"},{"id":"IHAhoIUrFkQ","title":"شرح صحيح البخاري - كتاب الجنائز من باب ٨٥","publishedAt":"2017-02-09T12:29:37Z","duration":"PT33M20S","thumbnail":"https://i.ytimg.com/vi/IHAhoIUrFkQ/mqdefault.jpg","viewCount":"885","playlistId":"PLEkQk5xrP-tlEerGoLa1AFy-2XvQ-sovv","playlistName":"شرح صحيح البخاري - أ.د. يسري جبر (كاملا)","category":"حديث"},{"id":"KA8YF_zKOA8","title":"شرح صحيح البخاري - كتاب الجنائز من باب 80","publishedAt":"2017-02-08T08:11:32Z","duration":"PT40M42S","thumbnail":"https://i.ytimg.com/vi/KA8YF_zKOA8/mqdefault.jpg","viewCount":"874","playlistId":"PLEkQk5xrP-tlEerGoLa1AFy-2XvQ-sovv","playlistName":"شرح صحيح البخاري - أ.د. يسري جبر (كاملا)","category":"حديث"},{"id":"vR0i1GLOjQI","title":"شرح صحيح البخاري - كتاب الجنائز من باب ٧٧","publishedAt":"2017-02-07T08:30:48Z","duration":"PT40M26S","thumbnail":"https://i.ytimg.com/vi/vR0i1GLOjQI/mqdefault.jpg","viewCount":"865","playlistId":"PLEkQk5xrP-tlEerGoLa1AFy-2XvQ-sovv","playlistName":"شرح صحيح البخاري - أ.د. يسري جبر (كاملا)","category":"حديث"},{"id":"UC_y1o7ExQs","title":"شرح صحيح البخاري - كتاب الجنائز من باب ٦٨","publishedAt":"2017-02-06T12:43:33Z","duration":"PT44M56S","thumbnail":"https://i.ytimg.com/vi/UC_y1o7ExQs/mqdefault.jpg","viewCount":"956","playlistId":"PLEkQk5xrP-tlEerGoLa1AFy-2XvQ-sovv","playlistName":"شرح صحيح البخاري - أ.د. يسري جبر (كاملا)","category":"حديث"},{"id":"9xSRgs4ZjW0","title":"شرح صحيح البخاري - كتاب الجنائز من باب ٥٧","publishedAt":"2017-02-05T07:03:03Z","duration":"PT22M10S","thumbnail":"https://i.ytimg.com/vi/9xSRgs4ZjW0/mqdefault.jpg","viewCount":"885","playlistId":"PLEkQk5xrP-tlEerGoLa1AFy-2XvQ-sovv","playlistName":"شرح صحيح البخاري - أ.د. يسري جبر (كاملا)","category":"حديث"},{"id":"L7kNkVUy__A","title":"شرح صحيح البخاري - كتاب الجنائز من باب ٤٩","publishedAt":"2017-02-04T04:56:40Z","duration":"PT25M48S","thumbnail":"https://i.ytimg.com/vi/L7kNkVUy__A/mqdefault.jpg","viewCount":"751","playlistId":"PLEkQk5xrP-tlEerGoLa1AFy-2XvQ-sovv","playlistName":"شرح صحيح البخاري - أ.د. يسري جبر (كاملا)","category":"حديث"},{"id":"CxJdmAp6L5Y","title":"شرح صحيح البخاري كتاب التفسير فى سورة النساء من باب ١١","publishedAt":"2018-03-19T13:18:09Z","duration":"PT30M37S","thumbnail":"https://i.ytimg.com/vi/CxJdmAp6L5Y/mqdefault.jpg","viewCount":"486","playlistId":"PLEkQk5xrP-tlEerGoLa1AFy-2XvQ-sovv","playlistName":"شرح صحيح البخاري - أ.د. يسري جبر (كاملا)","category":"حديث"},{"id":"IMmPGxH6fls","title":"شرح صحيح البخاري كتاب التفسير فى سورة النساء من باب ٤","publishedAt":"2018-03-18T08:28:25Z","duration":"PT34M11S","thumbnail":"https://i.ytimg.com/vi/IMmPGxH6fls/mqdefault.jpg","viewCount":"496","playlistId":"PLEkQk5xrP-tlEerGoLa1AFy-2XvQ-sovv","playlistName":"شرح صحيح البخاري - أ.د. يسري جبر (كاملا)","category":"حديث"},{"id":"vzbwgqt_K24","title":"شرح صحيح البخاري- كتاب فضائل الصحابة من باب ٤","publishedAt":"2017-11-09T17:48:23Z","duration":"PT36M58S","thumbnail":"https://i.ytimg.com/vi/vzbwgqt_K24/mqdefault.jpg","viewCount":"730","playlistId":"PLEkQk5xrP-tlEerGoLa1AFy-2XvQ-sovv","playlistName":"شرح صحيح البخاري - أ.د. يسري جبر (كاملا)","category":"حديث"},{"id":"Yry7Udiy2ms","title":"شرح صحيح البخاري- كتاب فضائل الصحابة من أوله","publishedAt":"2017-11-08T13:27:14Z","duration":"PT46M3S","thumbnail":"https://i.ytimg.com/vi/Yry7Udiy2ms/mqdefault.jpg","viewCount":"1090","playlistId":"PLEkQk5xrP-tlEerGoLa1AFy-2XvQ-sovv","playlistName":"شرح صحيح البخاري - أ.د. يسري جبر (كاملا)","category":"حديث"},{"id":"4xcMw0xqpg4","title":"شرح صحيح البخاري- كتاب المناقب من باب ٢٧","publishedAt":"2017-11-05T21:05:00Z","duration":"PT31M41S","thumbnail":"https://i.ytimg.com/vi/4xcMw0xqpg4/mqdefault.jpg","viewCount":"587","playlistId":"PLEkQk5xrP-tlEerGoLa1AFy-2XvQ-sovv","playlistName":"شرح صحيح البخاري - أ.د. يسري جبر (كاملا)","category":"حديث"},{"id":"IOUFAy3DgiY","title":"شرح صحيح البخاري- كتاب المناقب تكملة باب ٢٦ المجلس السادس","publishedAt":"2017-11-04T13:36:48Z","duration":"PT29M52S","thumbnail":"https://i.ytimg.com/vi/IOUFAy3DgiY/mqdefault.jpg","viewCount":"547","playlistId":"PLEkQk5xrP-tlEerGoLa1AFy-2XvQ-sovv","playlistName":"شرح صحيح البخاري - أ.د. يسري جبر (كاملا)","category":"حديث"},{"id":"uFRDlzfIxbs","title":"شرح صحيح البخاري- كتاب المناقب تكملة باب ٢٦ المجلس الخامس","publishedAt":"2017-11-03T19:11:41Z","duration":"PT38M29S","thumbnail":"https://i.ytimg.com/vi/uFRDlzfIxbs/mqdefault.jpg","viewCount":"608","playlistId":"PLEkQk5xrP-tlEerGoLa1AFy-2XvQ-sovv","playlistName":"شرح صحيح البخاري - أ.د. يسري جبر (كاملا)","category":"حديث"},{"id":"s_NJBM7w9cY","title":"شرح صحيح البخاري- كتاب المناقب تكملة باب ٢٦ المجلس الرابع","publishedAt":"2017-11-03T10:54:11Z","duration":"PT35M3S","thumbnail":"https://i.ytimg.com/vi/s_NJBM7w9cY/mqdefault.jpg","viewCount":"592","playlistId":"PLEkQk5xrP-tlEerGoLa1AFy-2XvQ-sovv","playlistName":"شرح صحيح البخاري - أ.د. يسري جبر (كاملا)","category":"حديث"},{"id":"jJnYgI8iUoQ","title":"شرح صحيح البخاري- كتاب المناقب تكملة باب ٢٦ المجلس الثالث","publishedAt":"2017-11-02T15:56:14Z","duration":"PT24M30S","thumbnail":"https://i.ytimg.com/vi/jJnYgI8iUoQ/mqdefault.jpg","viewCount":"507","playlistId":"PLEkQk5xrP-tlEerGoLa1AFy-2XvQ-sovv","playlistName":"شرح صحيح البخاري - أ.د. يسري جبر (كاملا)","category":"حديث"}],"total":719,"page":3,"pageSize":24,"totalPages":30}