{"items":[{"id":"HPTIGsxh6CU","title":"شرح صحيح البخاري ( كتاب التيمم مجلس ١ )","publishedAt":"2016-09-27T20:45:55Z","duration":"PT30M59S","thumbnail":"https://i.ytimg.com/vi/HPTIGsxh6CU/mqdefault.jpg","viewCount":"1407","playlistId":"PLEkQk5xrP-tlEerGoLa1AFy-2XvQ-sovv","playlistName":"شرح صحيح البخاري - أ.د. يسري جبر (كاملا)","category":"حديث"},{"id":"t1D843XFFfw","title":"شرح صحيح البخاري ( كتاب الحيض مجلس ٤ )","publishedAt":"2016-09-27T20:33:44Z","duration":"PT36M3S","thumbnail":"https://i.ytimg.com/vi/t1D843XFFfw/mqdefault.jpg","viewCount":"1215","playlistId":"PLEkQk5xrP-tlEerGoLa1AFy-2XvQ-sovv","playlistName":"شرح صحيح البخاري - أ.د. يسري جبر (كاملا)","category":"حديث"},{"id":"h5hdM7gT3dg","title":"شرح صحيح البخاري كتاب الأحكام من باب ٢١","publishedAt":"2019-01-10T21:35:24Z","duration":"PT27M18S","thumbnail":"https://i.ytimg.com/vi/h5hdM7gT3dg/mqdefault.jpg","viewCount":"443","playlistId":"PLEkQk5xrP-tlEerGoLa1AFy-2XvQ-sovv","playlistName":"شرح صحيح البخاري - أ.د. يسري جبر (كاملا)","category":"حديث"},{"id":"eQo-rSw2zDc","title":"شرح صحيح البخاري كتاب الأحكام من باب ١٦","publishedAt":"2019-01-09T22:17:16Z","duration":"PT27M21S","thumbnail":"https://i.ytimg.com/vi/eQo-rSw2zDc/mqdefault.jpg","viewCount":"397","playlistId":"PLEkQk5xrP-tlEerGoLa1AFy-2XvQ-sovv","playlistName":"شرح صحيح البخاري - أ.د. يسري جبر (كاملا)","category":"حديث"},{"id":"d3rBqG_XA9k","title":"شرح صحيح البخاري كتاب الأحكام من باب ١١","publishedAt":"2019-01-08T21:25:27Z","duration":"PT40M53S","thumbnail":"https://i.ytimg.com/vi/d3rBqG_XA9k/mqdefault.jpg","viewCount":"446","playlistId":"PLEkQk5xrP-tlEerGoLa1AFy-2XvQ-sovv","playlistName":"شرح صحيح البخاري - أ.د. يسري جبر (كاملا)","category":"حديث"},{"id":"mHNDPM2PCnc","title":"شرح صحيح البخاري كتاب الأحكام من باب ٤","publishedAt":"2019-01-07T19:34:02Z","duration":"PT40M39S","thumbnail":"https://i.ytimg.com/vi/mHNDPM2PCnc/mqdefault.jpg","viewCount":"426","playlistId":"PLEkQk5xrP-tlEerGoLa1AFy-2XvQ-sovv","playlistName":"شرح صحيح البخاري - أ.د. يسري جبر (كاملا)","category":"حديث"},{"id":"arRAZ_97Weo","title":"شرح صحيح البخاري كتاب الأحكام من أوله","publishedAt":"2019-01-06T21:23:24Z","duration":"PT34M47S","thumbnail":"https://i.ytimg.com/vi/arRAZ_97Weo/mqdefault.jpg","viewCount":"501","playlistId":"PLEkQk5xrP-tlEerGoLa1AFy-2XvQ-sovv","playlistName":"شرح صحيح البخاري - أ.د. يسري جبر (كاملا)","category":"حديث"},{"id":"WV5hpZadPU4","title":"شرح صحيح البخاري- كتاب أحاديث الأنبياء تكملة باب ٥٧ من حديث علي بن عبد الله","publishedAt":"2017-10-25T12:48:30Z","duration":"PT29M34S","thumbnail":"https://i.ytimg.com/vi/WV5hpZadPU4/mqdefault.jpg","viewCount":"565","playlistId":"PLEkQk5xrP-tlEerGoLa1AFy-2XvQ-sovv","playlistName":"شرح صحيح البخاري - أ.د. يسري جبر (كاملا)","category":"حديث"},{"id":"GendwVRzR_g","title":"شرح صحيح البخاري- كتاب أحاديث الأنبياء من باب ٥٤","publishedAt":"2017-10-20T18:31:30Z","duration":"PT40M2S","thumbnail":"https://i.ytimg.com/vi/GendwVRzR_g/mqdefault.jpg","viewCount":"566","playlistId":"PLEkQk5xrP-tlEerGoLa1AFy-2XvQ-sovv","playlistName":"شرح صحيح البخاري - أ.د. يسري جبر (كاملا)","category":"حديث"},{"id":"16piMK-7szY","title":"شرح صحيح البخاري- كتاب أحاديث الأنبياء من باب ٥٣","publishedAt":"2017-10-19T16:13:21Z","duration":"PT27M39S","thumbnail":"https://i.ytimg.com/vi/16piMK-7szY/mqdefault.jpg","viewCount":"513","playlistId":"PLEkQk5xrP-tlEerGoLa1AFy-2XvQ-sovv","playlistName":"شرح صحيح البخاري - أ.د. يسري جبر (كاملا)","category":"حديث"},{"id":"_GizlSBp5DE","title":"شرح صحيح البخاري - كتاب الجهاد والسير من باب ٩٩","publishedAt":"2017-08-10T22:00:36Z","duration":"PT40M59S","thumbnail":"https://i.ytimg.com/vi/_GizlSBp5DE/mqdefault.jpg","viewCount":"552","playlistId":"PLEkQk5xrP-tlEerGoLa1AFy-2XvQ-sovv","playlistName":"شرح صحيح البخاري - أ.د. يسري جبر (كاملا)","category":"حديث"},{"id":"e_ZVqBWt7i4","title":"شرح صحيح البخاري - كتاب الجهاد والسير من باب ٩٢","publishedAt":"2017-08-09T19:30:43Z","duration":"PT35M59S","thumbnail":"https://i.ytimg.com/vi/e_ZVqBWt7i4/mqdefault.jpg","viewCount":"610","playlistId":"PLEkQk5xrP-tlEerGoLa1AFy-2XvQ-sovv","playlistName":"شرح صحيح البخاري - أ.د. يسري جبر (كاملا)","category":"حديث"},{"id":"qBm0IBNaxq0","title":"شرح صحيح البخاري - كتاب الجهاد والسير من باب ٨٣","publishedAt":"2017-08-08T16:00:27Z","duration":"PT30M1S","thumbnail":"https://i.ytimg.com/vi/qBm0IBNaxq0/mqdefault.jpg","viewCount":"575","playlistId":"PLEkQk5xrP-tlEerGoLa1AFy-2XvQ-sovv","playlistName":"شرح صحيح البخاري - أ.د. يسري جبر (كاملا)","category":"حديث"},{"id":"St5Dr3Li9Ys","title":"شرح صحيح البخاري - كتاب الجهاد والسير من باب ٧٦","publishedAt":"2017-08-07T21:14:01Z","duration":"PT34M24S","thumbnail":"https://i.ytimg.com/vi/St5Dr3Li9Ys/mqdefault.jpg","viewCount":"540","playlistId":"PLEkQk5xrP-tlEerGoLa1AFy-2XvQ-sovv","playlistName":"شرح صحيح البخاري - أ.د. يسري جبر (كاملا)","category":"حديث"},{"id":"Ya2HUxv3M24","title":"شرح صحيح البخاري - كتاب الجهاد والسير من باب ٧١","publishedAt":"2017-08-06T13:40:46Z","duration":"PT24M19S","thumbnail":"https://i.ytimg.com/vi/Ya2HUxv3M24/mqdefault.jpg","viewCount":"518","playlistId":"PLEkQk5xrP-tlEerGoLa1AFy-2XvQ-sovv","playlistName":"شرح صحيح البخاري - أ.د. يسري جبر (كاملا)","category":"حديث"},{"id":"kzJr4I0UFLg","title":"شرح صحيح البخاري كتاب الفتن من باب ٢٧","publishedAt":"2019-01-05T18:28:53Z","duration":"PT39M50S","thumbnail":"https://i.ytimg.com/vi/kzJr4I0UFLg/mqdefault.jpg","viewCount":"870","playlistId":"PLEkQk5xrP-tlEerGoLa1AFy-2XvQ-sovv","playlistName":"شرح صحيح البخاري - أ.د. يسري جبر (كاملا)","category":"حديث"},{"id":"ISFAFflOiVg","title":"شرح صحيح البخاري كتاب الفتن من باب ٢٢","publishedAt":"2019-01-04T09:18:25Z","duration":"PT29M48S","thumbnail":"https://i.ytimg.com/vi/ISFAFflOiVg/mqdefault.jpg","viewCount":"705","playlistId":"PLEkQk5xrP-tlEerGoLa1AFy-2XvQ-sovv","playlistName":"شرح صحيح البخاري - أ.د. يسري جبر (كاملا)","category":"حديث"},{"id":"40f988d2itw","title":"شرح صحيح البخاري كتاب الفتن من باب ١٨","publishedAt":"2019-01-03T09:36:52Z","duration":"PT40M26S","thumbnail":"https://i.ytimg.com/vi/40f988d2itw/mqdefault.jpg","viewCount":"867","playlistId":"PLEkQk5xrP-tlEerGoLa1AFy-2XvQ-sovv","playlistName":"شرح صحيح البخاري - أ.د. يسري جبر (كاملا)","category":"حديث"},{"id":"wdbWM9I45_c","title":"شرح صحيح البخاري كتاب الفتن من باب ١٥","publishedAt":"2019-01-01T22:07:47Z","duration":"PT30M18S","thumbnail":"https://i.ytimg.com/vi/wdbWM9I45_c/mqdefault.jpg","viewCount":"820","playlistId":"PLEkQk5xrP-tlEerGoLa1AFy-2XvQ-sovv","playlistName":"شرح صحيح البخاري - أ.د. يسري جبر (كاملا)","category":"حديث"},{"id":"5LfCEeXGNOs","title":"شرح صحيح البخاري كتاب الفتن من باب ١٠","publishedAt":"2018-12-31T21:18:36Z","duration":"PT36M22S","thumbnail":"https://i.ytimg.com/vi/5LfCEeXGNOs/mqdefault.jpg","viewCount":"821","playlistId":"PLEkQk5xrP-tlEerGoLa1AFy-2XvQ-sovv","playlistName":"شرح صحيح البخاري - أ.د. يسري جبر (كاملا)","category":"حديث"},{"id":"chP2nD7F5gE","title":"شرح صحيح البخاري- كتاب أحاديث الأنبياء من باب ٥٠","publishedAt":"2017-10-18T14:03:40Z","duration":"PT51M17S","thumbnail":"https://i.ytimg.com/vi/chP2nD7F5gE/mqdefault.jpg","viewCount":"728","playlistId":"PLEkQk5xrP-tlEerGoLa1AFy-2XvQ-sovv","playlistName":"شرح صحيح البخاري - أ.د. يسري جبر (كاملا)","category":"حديث"},{"id":"464bz-z1cnc","title":"شرح صحيح البخاري- كتاب أحاديث الأنبياء من باب ٤٤","publishedAt":"2017-10-17T13:36:00Z","duration":"PT37M59S","thumbnail":"https://i.ytimg.com/vi/464bz-z1cnc/mqdefault.jpg","viewCount":"607","playlistId":"PLEkQk5xrP-tlEerGoLa1AFy-2XvQ-sovv","playlistName":"شرح صحيح البخاري - أ.د. يسري جبر (كاملا)","category":"حديث"},{"id":"S_hQZJVxsyw","title":"شرح صحيح البخاري- كتاب أحاديث الأنبياء من باب ٤٢","publishedAt":"2017-10-16T16:12:04Z","duration":"PT35M32S","thumbnail":"https://i.ytimg.com/vi/S_hQZJVxsyw/mqdefault.jpg","viewCount":"595","playlistId":"PLEkQk5xrP-tlEerGoLa1AFy-2XvQ-sovv","playlistName":"شرح صحيح البخاري - أ.د. يسري جبر (كاملا)","category":"حديث"},{"id":"9d8FTyzfT_k","title":"شرح صحيح البخاري - كتاب أحاديث الأنبياء من باب ٤٠","publishedAt":"2017-10-15T06:08:30Z","duration":"PT31M44S","thumbnail":"https://i.ytimg.com/vi/9d8FTyzfT_k/mqdefault.jpg","viewCount":"621","playlistId":"PLEkQk5xrP-tlEerGoLa1AFy-2XvQ-sovv","playlistName":"شرح صحيح البخاري - أ.د. يسري جبر (كاملا)","category":"حديث"}],"total":719,"page":10,"pageSize":24,"totalPages":30}