{"items":[{"id":"x67Qd5fWX8g","title":"شرح صحيح البخاري كتاب التفسير فى سورة البقرة من باب ٤٢","publishedAt":"2018-03-12T14:03:17Z","duration":"PT40M34S","thumbnail":"https://i.ytimg.com/vi/x67Qd5fWX8g/mqdefault.jpg","viewCount":"698","playlistId":"PLEkQk5xrP-tlEerGoLa1AFy-2XvQ-sovv","playlistName":"شرح صحيح البخاري - أ.د. يسري جبر (كاملا)","category":"حديث"},{"id":"H7pgAZFuwFw","title":"شرح صحيح البخاري - كتاب الجهاد والسير من باب ٤","publishedAt":"2017-07-27T21:48:03Z","duration":"PT27M1S","thumbnail":"https://i.ytimg.com/vi/H7pgAZFuwFw/mqdefault.jpg","viewCount":"696","playlistId":"PLEkQk5xrP-tlEerGoLa1AFy-2XvQ-sovv","playlistName":"شرح صحيح البخاري - أ.د. يسري جبر (كاملا)","category":"حديث"},{"id":"NVOxYuxVB3A","title":"شرح صحيح البخاري - كتاب العتق من باب ٨","publishedAt":"2017-06-01T22:14:32Z","duration":"PT46M55S","thumbnail":"https://i.ytimg.com/vi/NVOxYuxVB3A/mqdefault.jpg","viewCount":"693","playlistId":"PLEkQk5xrP-tlEerGoLa1AFy-2XvQ-sovv","playlistName":"شرح صحيح البخاري - أ.د. يسري جبر (كاملا)","category":"حديث"},{"id":"TRgwY_MFu5Q","title":"شرح صحيح البخاري كتاب الطب من باب ٧","publishedAt":"2018-08-04T21:58:44Z","duration":"PT41M14S","thumbnail":"https://i.ytimg.com/vi/TRgwY_MFu5Q/mqdefault.jpg","viewCount":"692","playlistId":"PLEkQk5xrP-tlEerGoLa1AFy-2XvQ-sovv","playlistName":"شرح صحيح البخاري - أ.د. يسري جبر (كاملا)","category":"حديث"},{"id":"DV9MHAvwaTI","title":"شرح صحيح البخاري   كتاب الحج من باب ٨٢","publishedAt":"2017-03-14T07:27:31Z","duration":"PT34M47S","thumbnail":"https://i.ytimg.com/vi/DV9MHAvwaTI/mqdefault.jpg","viewCount":"692","playlistId":"PLEkQk5xrP-tlEerGoLa1AFy-2XvQ-sovv","playlistName":"شرح صحيح البخاري - أ.د. يسري جبر (كاملا)","category":"حديث"},{"id":"2riqLXCHbao","title":"شرح صحيح البخاري - كتاب فرض الخمس من باب ٢","publishedAt":"2017-08-27T16:23:39Z","duration":"PT48M45S","thumbnail":"https://i.ytimg.com/vi/2riqLXCHbao/mqdefault.jpg","viewCount":"690","playlistId":"PLEkQk5xrP-tlEerGoLa1AFy-2XvQ-sovv","playlistName":"شرح صحيح البخاري - أ.د. يسري جبر (كاملا)","category":"حديث"},{"id":"cJaZC8-6wHw","title":"شرح صحيح البخاري كتاب التفسير فى سورتي مريم وطه","publishedAt":"2018-04-07T14:07:06Z","duration":"PT35M53S","thumbnail":"https://i.ytimg.com/vi/cJaZC8-6wHw/mqdefault.jpg","viewCount":"688","playlistId":"PLEkQk5xrP-tlEerGoLa1AFy-2XvQ-sovv","playlistName":"شرح صحيح البخاري - أ.د. يسري جبر (كاملا)","category":"حديث"},{"id":"RRhSrkVxAbA","title":"شرح صحيح البخاري كتاب القدر من باب ٦","publishedAt":"2018-11-08T17:25:18Z","duration":"PT41M41S","thumbnail":"https://i.ytimg.com/vi/RRhSrkVxAbA/mqdefault.jpg","viewCount":"687","playlistId":"PLEkQk5xrP-tlEerGoLa1AFy-2XvQ-sovv","playlistName":"شرح صحيح البخاري - أ.د. يسري جبر (كاملا)","category":"حديث"},{"id":"qgSqRhTaoIE","title":"شرح صحيح البخاري - كتاب أحاديث الأنبياء تكملة باب ١٢","publishedAt":"2017-10-03T23:50:38Z","duration":"PT44M9S","thumbnail":"https://i.ytimg.com/vi/qgSqRhTaoIE/mqdefault.jpg","viewCount":"687","playlistId":"PLEkQk5xrP-tlEerGoLa1AFy-2XvQ-sovv","playlistName":"شرح صحيح البخاري - أ.د. يسري جبر (كاملا)","category":"حديث"},{"id":"ab3EDes-CTM","title":"شرح صحيح البخاري كتاب التفسير فى سورة البقرة من باب ٢٨","publishedAt":"2018-03-10T19:10:19Z","duration":"PT38M5S","thumbnail":"https://i.ytimg.com/vi/ab3EDes-CTM/mqdefault.jpg","viewCount":"683","playlistId":"PLEkQk5xrP-tlEerGoLa1AFy-2XvQ-sovv","playlistName":"شرح صحيح البخاري - أ.د. يسري جبر (كاملا)","category":"حديث"},{"id":"JHkHuicf_gE","title":"شرح صحيح البخاري كتاب النكاح من باب ٢٥","publishedAt":"2018-05-28T15:47:49Z","duration":"PT28M36S","thumbnail":"https://i.ytimg.com/vi/JHkHuicf_gE/mqdefault.jpg","viewCount":"683","playlistId":"PLEkQk5xrP-tlEerGoLa1AFy-2XvQ-sovv","playlistName":"شرح صحيح البخاري - أ.د. يسري جبر (كاملا)","category":"حديث"},{"id":"Ij35OiWc6EI","title":"شرح صحيح البخاري - كتاب الوكالة من باب ٩","publishedAt":"2017-05-13T18:49:53Z","duration":"PT35M59S","thumbnail":"https://i.ytimg.com/vi/Ij35OiWc6EI/mqdefault.jpg","viewCount":"683","playlistId":"PLEkQk5xrP-tlEerGoLa1AFy-2XvQ-sovv","playlistName":"شرح صحيح البخاري - أ.د. يسري جبر (كاملا)","category":"حديث"},{"id":"gM4dDALBW-s","title":"شرح صحيح البخاري -  كتاب الحج من باب ١٢٧","publishedAt":"2017-03-18T13:55:44Z","duration":"PT29M35S","thumbnail":"https://i.ytimg.com/vi/gM4dDALBW-s/mqdefault.jpg","viewCount":"681","playlistId":"PLEkQk5xrP-tlEerGoLa1AFy-2XvQ-sovv","playlistName":"شرح صحيح البخاري - أ.د. يسري جبر (كاملا)","category":"حديث"},{"id":"HSrUszoWypQ","title":"شرح صحيح البخاري - كتاب الصلح من أوله","publishedAt":"2017-07-01T20:36:03Z","duration":"PT20M40S","thumbnail":"https://i.ytimg.com/vi/HSrUszoWypQ/mqdefault.jpg","viewCount":"681","playlistId":"PLEkQk5xrP-tlEerGoLa1AFy-2XvQ-sovv","playlistName":"شرح صحيح البخاري - أ.د. يسري جبر (كاملا)","category":"حديث"},{"id":"nvTDu3CZtpU","title":"شرح صحيح البخاري كتاب النكاح من باب ١١","publishedAt":"2018-05-20T18:54:43Z","duration":"PT33M15S","thumbnail":"https://i.ytimg.com/vi/nvTDu3CZtpU/mqdefault.jpg","viewCount":"681","playlistId":"PLEkQk5xrP-tlEerGoLa1AFy-2XvQ-sovv","playlistName":"شرح صحيح البخاري - أ.د. يسري جبر (كاملا)","category":"حديث"},{"id":"W0Q0FJdqus8","title":"شرح صحيح البخاري - كتاب بدء الخلق من باب ٨","publishedAt":"2017-09-15T16:04:09Z","duration":"PT41M21S","thumbnail":"https://i.ytimg.com/vi/W0Q0FJdqus8/mqdefault.jpg","viewCount":"680","playlistId":"PLEkQk5xrP-tlEerGoLa1AFy-2XvQ-sovv","playlistName":"شرح صحيح البخاري - أ.د. يسري جبر (كاملا)","category":"حديث"},{"id":"pRA3dAxfJHw","title":"شرح صحيح البخاري- كتاب المناقب من باب ٢٤","publishedAt":"2017-10-30T18:29:07Z","duration":"PT45M51S","thumbnail":"https://i.ytimg.com/vi/pRA3dAxfJHw/mqdefault.jpg","viewCount":"679","playlistId":"PLEkQk5xrP-tlEerGoLa1AFy-2XvQ-sovv","playlistName":"شرح صحيح البخاري - أ.د. يسري جبر (كاملا)","category":"حديث"},{"id":"VruZSFaM-64","title":"شرح صحيح البخاري -  كتاب الاعتكاف من باب ١١","publishedAt":"2017-04-19T19:34:41Z","duration":"PT21M13S","thumbnail":"https://i.ytimg.com/vi/VruZSFaM-64/mqdefault.jpg","viewCount":"679","playlistId":"PLEkQk5xrP-tlEerGoLa1AFy-2XvQ-sovv","playlistName":"شرح صحيح البخاري - أ.د. يسري جبر (كاملا)","category":"حديث"},{"id":"mQkMbozSV7A","title":"شرح صحيح البخاري - كتاب الهبة من أوله","publishedAt":"2017-06-15T17:11:13Z","duration":"PT31M55S","thumbnail":"https://i.ytimg.com/vi/mQkMbozSV7A/mqdefault.jpg","viewCount":"677","playlistId":"PLEkQk5xrP-tlEerGoLa1AFy-2XvQ-sovv","playlistName":"شرح صحيح البخاري - أ.د. يسري جبر (كاملا)","category":"حديث"},{"id":"Am6w7NcpW8U","title":"شرح صحيح البخاري كتاب المغازي تكملة  باب ٨٥","publishedAt":"2018-03-04T18:38:59Z","duration":"PT51M45S","thumbnail":"https://i.ytimg.com/vi/Am6w7NcpW8U/mqdefault.jpg","viewCount":"674","playlistId":"PLEkQk5xrP-tlEerGoLa1AFy-2XvQ-sovv","playlistName":"شرح صحيح البخاري - أ.د. يسري جبر (كاملا)","category":"حديث"},{"id":"PINz53yx2ZI","title":"شرح صحيح البخاري كتاب الأدب من باب ١٢","publishedAt":"2018-08-27T20:46:01Z","duration":"PT32M7S","thumbnail":"https://i.ytimg.com/vi/PINz53yx2ZI/mqdefault.jpg","viewCount":"674","playlistId":"PLEkQk5xrP-tlEerGoLa1AFy-2XvQ-sovv","playlistName":"شرح صحيح البخاري - أ.د. يسري جبر (كاملا)","category":"حديث"},{"id":"ZUjl-GAXLMc","title":"شرح صحيح البخاري - كتاب الجهاد والسير من باب ٩","publishedAt":"2017-07-28T20:47:05Z","duration":"PT35M45S","thumbnail":"https://i.ytimg.com/vi/ZUjl-GAXLMc/mqdefault.jpg","viewCount":"673","playlistId":"PLEkQk5xrP-tlEerGoLa1AFy-2XvQ-sovv","playlistName":"شرح صحيح البخاري - أ.د. يسري جبر (كاملا)","category":"حديث"},{"id":"cQ9r8bEM7yI","title":"شرح صحيح البخاري -  كتاب الحج من باب ١٤٥","publishedAt":"2017-03-20T16:07:10Z","duration":"PT34M50S","thumbnail":"https://i.ytimg.com/vi/cQ9r8bEM7yI/mqdefault.jpg","viewCount":"673","playlistId":"PLEkQk5xrP-tlEerGoLa1AFy-2XvQ-sovv","playlistName":"شرح صحيح البخاري - أ.د. يسري جبر (كاملا)","category":"حديث"},{"id":"MiZt4W2QgjQ","title":"شرح صحيح البخاري - كتاب العتق من أوله","publishedAt":"2017-06-01T21:36:11Z","duration":"PT33M9S","thumbnail":"https://i.ytimg.com/vi/MiZt4W2QgjQ/mqdefault.jpg","viewCount":"672","playlistId":"PLEkQk5xrP-tlEerGoLa1AFy-2XvQ-sovv","playlistName":"شرح صحيح البخاري - أ.د. يسري جبر (كاملا)","category":"حديث"}],"total":719,"page":13,"pageSize":24,"totalPages":30}