{"items":[{"id":"GCip6dvHKEM","title":"شرح صحيح البخاري   كتاب مناقب الأنصار تكملة باب ٤٥","publishedAt":"2017-12-13T12:47:55Z","duration":"PT36M35S","thumbnail":"https://i.ytimg.com/vi/GCip6dvHKEM/mqdefault.jpg","viewCount":"544","playlistId":"PLEkQk5xrP-tlEerGoLa1AFy-2XvQ-sovv","playlistName":"شرح صحيح البخاري - أ.د. يسري جبر (كاملا)","category":"حديث"},{"id":"ryMxSvz04vE","title":"شرح صحيح البخاري كتاب الإعتصام بالكتاب والسنة من أوله","publishedAt":"2019-01-20T23:07:50Z","duration":"PT28M51S","thumbnail":"https://i.ytimg.com/vi/ryMxSvz04vE/mqdefault.jpg","viewCount":"544","playlistId":"PLEkQk5xrP-tlEerGoLa1AFy-2XvQ-sovv","playlistName":"شرح صحيح البخاري - أ.د. يسري جبر (كاملا)","category":"حديث"},{"id":"eYpNCzuJpjo","title":"شرح صحيح البخاري كتاب الأشربة من باب ٦","publishedAt":"2018-07-26T11:06:50Z","duration":"PT38M1S","thumbnail":"https://i.ytimg.com/vi/eYpNCzuJpjo/mqdefault.jpg","viewCount":"543","playlistId":"PLEkQk5xrP-tlEerGoLa1AFy-2XvQ-sovv","playlistName":"شرح صحيح البخاري - أ.د. يسري جبر (كاملا)","category":"حديث"},{"id":"zPTrmlHY7YE","title":"شرح صحيح البخاري - كتاب الجهاد والسير من باب ١٣","publishedAt":"2017-07-29T21:15:09Z","duration":"PT37M30S","thumbnail":"https://i.ytimg.com/vi/zPTrmlHY7YE/mqdefault.jpg","viewCount":"542","playlistId":"PLEkQk5xrP-tlEerGoLa1AFy-2XvQ-sovv","playlistName":"شرح صحيح البخاري - أ.د. يسري جبر (كاملا)","category":"حديث"},{"id":"St5Dr3Li9Ys","title":"شرح صحيح البخاري - كتاب الجهاد والسير من باب ٧٦","publishedAt":"2017-08-07T21:14:01Z","duration":"PT34M24S","thumbnail":"https://i.ytimg.com/vi/St5Dr3Li9Ys/mqdefault.jpg","viewCount":"540","playlistId":"PLEkQk5xrP-tlEerGoLa1AFy-2XvQ-sovv","playlistName":"شرح صحيح البخاري - أ.د. يسري جبر (كاملا)","category":"حديث"},{"id":"uB5AOi709C8","title":"شرح صحيح البخاري كتاب الأدب من باب ١١٦","publishedAt":"2018-09-21T23:53:44Z","duration":"PT41M39S","thumbnail":"https://i.ytimg.com/vi/uB5AOi709C8/mqdefault.jpg","viewCount":"540","playlistId":"PLEkQk5xrP-tlEerGoLa1AFy-2XvQ-sovv","playlistName":"شرح صحيح البخاري - أ.د. يسري جبر (كاملا)","category":"حديث"},{"id":"TytHaoWhYrs","title":"شرح صحيح البخاري كتاب التفسير فى سورة الطور من باب ١","publishedAt":"2018-04-22T20:00:19Z","duration":"PT31M34S","thumbnail":"https://i.ytimg.com/vi/TytHaoWhYrs/mqdefault.jpg","viewCount":"539","playlistId":"PLEkQk5xrP-tlEerGoLa1AFy-2XvQ-sovv","playlistName":"شرح صحيح البخاري - أ.د. يسري جبر (كاملا)","category":"حديث"},{"id":"geK_1gZB0_E","title":"شرح صحيح البخاري كتاب المغازي من باب ٨٠","publishedAt":"2018-03-02T20:15:39Z","duration":"PT42M3S","thumbnail":"https://i.ytimg.com/vi/geK_1gZB0_E/mqdefault.jpg","viewCount":"539","playlistId":"PLEkQk5xrP-tlEerGoLa1AFy-2XvQ-sovv","playlistName":"شرح صحيح البخاري - أ.د. يسري جبر (كاملا)","category":"حديث"},{"id":"g4M-v5xrXBM","title":"شرح صحيح البخاري - كتاب المغازي تكملة باب ٣٦","publishedAt":"2018-02-04T17:31:55Z","duration":"PT35M17S","thumbnail":"https://i.ytimg.com/vi/g4M-v5xrXBM/mqdefault.jpg","viewCount":"539","playlistId":"PLEkQk5xrP-tlEerGoLa1AFy-2XvQ-sovv","playlistName":"شرح صحيح البخاري - أ.د. يسري جبر (كاملا)","category":"حديث"},{"id":"SJhnsubNccU","title":"شرح صحيح البخاري   كتاب المغازي من باب ١٥","publishedAt":"2017-12-31T11:58:42Z","duration":"PT28M2S","thumbnail":"https://i.ytimg.com/vi/SJhnsubNccU/mqdefault.jpg","viewCount":"539","playlistId":"PLEkQk5xrP-tlEerGoLa1AFy-2XvQ-sovv","playlistName":"شرح صحيح البخاري - أ.د. يسري جبر (كاملا)","category":"حديث"},{"id":"RhZ_mE-TnBA","title":"شرح صحيح البخاري كتاب النكاح من باب ٦٩","publishedAt":"2018-06-05T16:22:46Z","duration":"PT47M57S","thumbnail":"https://i.ytimg.com/vi/RhZ_mE-TnBA/mqdefault.jpg","viewCount":"538","playlistId":"PLEkQk5xrP-tlEerGoLa1AFy-2XvQ-sovv","playlistName":"شرح صحيح البخاري - أ.د. يسري جبر (كاملا)","category":"حديث"},{"id":"KDefv3e8Bxc","title":"شرح صحيح البخاري كتاب التعبير من باب ٤٠","publishedAt":"2018-12-27T20:16:27Z","duration":"PT42M25S","thumbnail":"https://i.ytimg.com/vi/KDefv3e8Bxc/mqdefault.jpg","viewCount":"537","playlistId":"PLEkQk5xrP-tlEerGoLa1AFy-2XvQ-sovv","playlistName":"شرح صحيح البخاري - أ.د. يسري جبر (كاملا)","category":"حديث"},{"id":"slhPxFCfpjI","title":"شرح صحيح البخاري كتاب الطب من باب ٣٥","publishedAt":"2018-08-09T11:08:51Z","duration":"PT41M16S","thumbnail":"https://i.ytimg.com/vi/slhPxFCfpjI/mqdefault.jpg","viewCount":"537","playlistId":"PLEkQk5xrP-tlEerGoLa1AFy-2XvQ-sovv","playlistName":"شرح صحيح البخاري - أ.د. يسري جبر (كاملا)","category":"حديث"},{"id":"qtmT9nEU0Zs","title":"شرح صحيح البخاري كتاب الطلاق من باب 11","publishedAt":"2018-06-17T04:18:43Z","duration":"PT32M51S","thumbnail":"https://i.ytimg.com/vi/qtmT9nEU0Zs/mqdefault.jpg","viewCount":"535","playlistId":"PLEkQk5xrP-tlEerGoLa1AFy-2XvQ-sovv","playlistName":"شرح صحيح البخاري - أ.د. يسري جبر (كاملا)","category":"حديث"},{"id":"kW6uAxtqdjc","title":"شرح صحيح البخاري كتاب النكاح من باب ٩٧","publishedAt":"2018-06-09T19:24:48Z","duration":"PT26M58S","thumbnail":"https://i.ytimg.com/vi/kW6uAxtqdjc/mqdefault.jpg","viewCount":"535","playlistId":"PLEkQk5xrP-tlEerGoLa1AFy-2XvQ-sovv","playlistName":"شرح صحيح البخاري - أ.د. يسري جبر (كاملا)","category":"حديث"},{"id":"zUuPnZ9HkK4","title":"شرح صحيح البخاري كتاب الحدود من أوله","publishedAt":"2018-11-26T19:04:32Z","duration":"PT37M18S","thumbnail":"https://i.ytimg.com/vi/zUuPnZ9HkK4/mqdefault.jpg","viewCount":"535","playlistId":"PLEkQk5xrP-tlEerGoLa1AFy-2XvQ-sovv","playlistName":"شرح صحيح البخاري - أ.د. يسري جبر (كاملا)","category":"حديث"},{"id":"tfW3UOZFcOQ","title":"شرح صحيح البخاري - كتاب الشهادات من باب ٣٠","publishedAt":"2017-06-30T20:08:18Z","duration":"PT21M38S","thumbnail":"https://i.ytimg.com/vi/tfW3UOZFcOQ/mqdefault.jpg","viewCount":"535","playlistId":"PLEkQk5xrP-tlEerGoLa1AFy-2XvQ-sovv","playlistName":"شرح صحيح البخاري - أ.د. يسري جبر (كاملا)","category":"حديث"},{"id":"WUgm144jWVs","title":"شرح صحيح البخاري - كتاب الشهادات من باب ١٢","publishedAt":"2017-06-23T17:19:10Z","duration":"PT15M45S","thumbnail":"https://i.ytimg.com/vi/WUgm144jWVs/mqdefault.jpg","viewCount":"535","playlistId":"PLEkQk5xrP-tlEerGoLa1AFy-2XvQ-sovv","playlistName":"شرح صحيح البخاري - أ.د. يسري جبر (كاملا)","category":"حديث"},{"id":"PWOo9Bo90sA","title":"شرح صحيح البخاري   كتاب مناقب الأنصار من باب ٤٢","publishedAt":"2017-12-11T12:14:55Z","duration":"PT28M57S","thumbnail":"https://i.ytimg.com/vi/PWOo9Bo90sA/mqdefault.jpg","viewCount":"535","playlistId":"PLEkQk5xrP-tlEerGoLa1AFy-2XvQ-sovv","playlistName":"شرح صحيح البخاري - أ.د. يسري جبر (كاملا)","category":"حديث"},{"id":"AuD1IrxeHe8","title":"شرح صحيح البخاري كتاب الفرائض من باب ٤","publishedAt":"2018-11-22T19:01:58Z","duration":"PT37M9S","thumbnail":"https://i.ytimg.com/vi/AuD1IrxeHe8/mqdefault.jpg","viewCount":"535","playlistId":"PLEkQk5xrP-tlEerGoLa1AFy-2XvQ-sovv","playlistName":"شرح صحيح البخاري - أ.د. يسري جبر (كاملا)","category":"حديث"},{"id":"EfZOwovOcjE","title":"شرح صحيح البخاري - كتاب الوصايا من باب ١٣","publishedAt":"2017-07-19T15:16:45Z","duration":"PT22M59S","thumbnail":"https://i.ytimg.com/vi/EfZOwovOcjE/mqdefault.jpg","viewCount":"533","playlistId":"PLEkQk5xrP-tlEerGoLa1AFy-2XvQ-sovv","playlistName":"شرح صحيح البخاري - أ.د. يسري جبر (كاملا)","category":"حديث"},{"id":"r6Rt0DUvRsk","title":"شرح صحيح البخاري - كتاب الصلح من باب ٧","publishedAt":"2017-07-04T11:38:58Z","duration":"PT19M37S","thumbnail":"https://i.ytimg.com/vi/r6Rt0DUvRsk/mqdefault.jpg","viewCount":"533","playlistId":"PLEkQk5xrP-tlEerGoLa1AFy-2XvQ-sovv","playlistName":"شرح صحيح البخاري - أ.د. يسري جبر (كاملا)","category":"حديث"},{"id":"_nET-sJo2ng","title":"شرح صحيح البخاري كتاب كفارات الأيمان من أوله","publishedAt":"2018-11-20T16:48:22Z","duration":"PT48M26S","thumbnail":"https://i.ytimg.com/vi/_nET-sJo2ng/mqdefault.jpg","viewCount":"533","playlistId":"PLEkQk5xrP-tlEerGoLa1AFy-2XvQ-sovv","playlistName":"شرح صحيح البخاري - أ.د. يسري جبر (كاملا)","category":"حديث"},{"id":"V-g2le4Guuk","title":"شرح صحيح البخاري - كتاب الجهاد والسير من باب ١٢٨","publishedAt":"2017-08-15T14:28:38Z","duration":"PT36M20S","thumbnail":"https://i.ytimg.com/vi/V-g2le4Guuk/mqdefault.jpg","viewCount":"532","playlistId":"PLEkQk5xrP-tlEerGoLa1AFy-2XvQ-sovv","playlistName":"شرح صحيح البخاري - أ.د. يسري جبر (كاملا)","category":"حديث"}],"total":719,"page":21,"pageSize":24,"totalPages":30}