{"items":[{"id":"a8u9o-Hz6ig","title":"شرح صحيح البخاري - كتاب الوصايا من باب ٢٧","publishedAt":"2017-07-22T20:10:15Z","duration":"PT15M26S","thumbnail":"https://i.ytimg.com/vi/a8u9o-Hz6ig/mqdefault.jpg","viewCount":"460","playlistId":"PLEkQk5xrP-tlEerGoLa1AFy-2XvQ-sovv","playlistName":"شرح صحيح البخاري - أ.د. يسري جبر (كاملا)","category":"حديث"},{"id":"jtR5hLvWsDQ","title":"شرح صحيح البخاري  كتاب فضائل الصحابة من باب ١٨","publishedAt":"2017-11-21T18:37:33Z","duration":"PT29M14S","thumbnail":"https://i.ytimg.com/vi/jtR5hLvWsDQ/mqdefault.jpg","viewCount":"459","playlistId":"PLEkQk5xrP-tlEerGoLa1AFy-2XvQ-sovv","playlistName":"شرح صحيح البخاري - أ.د. يسري جبر (كاملا)","category":"حديث"},{"id":"cgvBOVTTcDQ","title":"شرح صحيح البخاري كتاب الأشربة من باب ١٣","publishedAt":"2018-07-28T13:08:14Z","duration":"PT34M38S","thumbnail":"https://i.ytimg.com/vi/cgvBOVTTcDQ/mqdefault.jpg","viewCount":"459","playlistId":"PLEkQk5xrP-tlEerGoLa1AFy-2XvQ-sovv","playlistName":"شرح صحيح البخاري - أ.د. يسري جبر (كاملا)","category":"حديث"},{"id":"6ou70ssly2Q","title":"شرح صحيح البخاري كتاب الدعوات من باب ٤٨","publishedAt":"2018-10-12T21:04:25Z","duration":"PT33M30S","thumbnail":"https://i.ytimg.com/vi/6ou70ssly2Q/mqdefault.jpg","viewCount":"459","playlistId":"PLEkQk5xrP-tlEerGoLa1AFy-2XvQ-sovv","playlistName":"شرح صحيح البخاري - أ.د. يسري جبر (كاملا)","category":"حديث"},{"id":"fNQ8kGbcf5o","title":"شرح صحيح البخاري كتاب الاستئذان من باب ٤٠","publishedAt":"2018-09-29T11:27:54Z","duration":"PT32M40S","thumbnail":"https://i.ytimg.com/vi/fNQ8kGbcf5o/mqdefault.jpg","viewCount":"458","playlistId":"PLEkQk5xrP-tlEerGoLa1AFy-2XvQ-sovv","playlistName":"شرح صحيح البخاري - أ.د. يسري جبر (كاملا)","category":"حديث"},{"id":"b_a-aj6veCI","title":"شرح صحيح البخاري كتاب الدعوات من باب ٣٣","publishedAt":"2018-10-08T21:45:35Z","duration":"PT20M25S","thumbnail":"https://i.ytimg.com/vi/b_a-aj6veCI/mqdefault.jpg","viewCount":"457","playlistId":"PLEkQk5xrP-tlEerGoLa1AFy-2XvQ-sovv","playlistName":"شرح صحيح البخاري - أ.د. يسري جبر (كاملا)","category":"حديث"},{"id":"HDhWzfv-hTQ","title":"شرح صحيح البخاري كتاب اللباس من باب 38","publishedAt":"2018-08-18T18:04:07Z","duration":"PT36M32S","thumbnail":"https://i.ytimg.com/vi/HDhWzfv-hTQ/mqdefault.jpg","viewCount":"456","playlistId":"PLEkQk5xrP-tlEerGoLa1AFy-2XvQ-sovv","playlistName":"شرح صحيح البخاري - أ.د. يسري جبر (كاملا)","category":"حديث"},{"id":"FBENCXar6Vg","title":"شرح صحيح البخاري كتاب الرقاق من باب ٣","publishedAt":"2018-10-18T12:44:20Z","duration":"PT22M48S","thumbnail":"https://i.ytimg.com/vi/FBENCXar6Vg/mqdefault.jpg","viewCount":"456","playlistId":"PLEkQk5xrP-tlEerGoLa1AFy-2XvQ-sovv","playlistName":"شرح صحيح البخاري - أ.د. يسري جبر (كاملا)","category":"حديث"},{"id":"bziuT30O9Bk","title":"شرح صحيح البخاري كتاب الديات من باب ٣","publishedAt":"2018-12-04T20:28:14Z","duration":"PT35M4S","thumbnail":"https://i.ytimg.com/vi/bziuT30O9Bk/mqdefault.jpg","viewCount":"456","playlistId":"PLEkQk5xrP-tlEerGoLa1AFy-2XvQ-sovv","playlistName":"شرح صحيح البخاري - أ.د. يسري جبر (كاملا)","category":"حديث"},{"id":"mEhuWJ3PV10","title":"شرح صحيح البخاري كتاب التفسير فى سورة المائدة من باب ٦","publishedAt":"2018-03-22T04:08:08Z","duration":"PT24M22S","thumbnail":"https://i.ytimg.com/vi/mEhuWJ3PV10/mqdefault.jpg","viewCount":"454","playlistId":"PLEkQk5xrP-tlEerGoLa1AFy-2XvQ-sovv","playlistName":"شرح صحيح البخاري - أ.د. يسري جبر (كاملا)","category":"حديث"},{"id":"eNgg_pQvlDc","title":"شرح صحيح البخاري   كتاب مناقب الأنصار من باب ٢١","publishedAt":"2017-12-05T17:24:21Z","duration":"PT20M42S","thumbnail":"https://i.ytimg.com/vi/eNgg_pQvlDc/mqdefault.jpg","viewCount":"453","playlistId":"PLEkQk5xrP-tlEerGoLa1AFy-2XvQ-sovv","playlistName":"شرح صحيح البخاري - أ.د. يسري جبر (كاملا)","category":"حديث"},{"id":"5trtK0OAQJA","title":"شرح صحيح البخاري كتاب التفسير فى سورة براءة من باب ١٤","publishedAt":"2018-03-29T09:30:26Z","duration":"PT35M59S","thumbnail":"https://i.ytimg.com/vi/5trtK0OAQJA/mqdefault.jpg","viewCount":"453","playlistId":"PLEkQk5xrP-tlEerGoLa1AFy-2XvQ-sovv","playlistName":"شرح صحيح البخاري - أ.د. يسري جبر (كاملا)","category":"حديث"},{"id":"axQxU9xBoVE","title":"شرح صحيح البخاري كتاب التعبير من باب ٢٢","publishedAt":"2018-12-25T21:05:42Z","duration":"PT27M30S","thumbnail":"https://i.ytimg.com/vi/axQxU9xBoVE/mqdefault.jpg","viewCount":"453","playlistId":"PLEkQk5xrP-tlEerGoLa1AFy-2XvQ-sovv","playlistName":"شرح صحيح البخاري - أ.د. يسري جبر (كاملا)","category":"حديث"},{"id":"eFgdw-AVZtU","title":"شرح صحيح البخاري   كتاب مناقب الأنصار من باب ٢٩","publishedAt":"2017-12-07T21:00:58Z","duration":"PT21M","thumbnail":"https://i.ytimg.com/vi/eFgdw-AVZtU/mqdefault.jpg","viewCount":"451","playlistId":"PLEkQk5xrP-tlEerGoLa1AFy-2XvQ-sovv","playlistName":"شرح صحيح البخاري - أ.د. يسري جبر (كاملا)","category":"حديث"},{"id":"kd4C9piLp5M","title":"شرح صحيح البخاري كتاب الأيمان والنذور من باب ١٧","publishedAt":"2018-11-15T15:39:33Z","duration":"PT33M51S","thumbnail":"https://i.ytimg.com/vi/kd4C9piLp5M/mqdefault.jpg","viewCount":"450","playlistId":"PLEkQk5xrP-tlEerGoLa1AFy-2XvQ-sovv","playlistName":"شرح صحيح البخاري - أ.د. يسري جبر (كاملا)","category":"حديث"},{"id":"prxP1s1qths","title":"شرح صحيح البخاري كتاب الاستئذان من باب ١١","publishedAt":"2018-09-24T20:16:45Z","duration":"PT37M28S","thumbnail":"https://i.ytimg.com/vi/prxP1s1qths/mqdefault.jpg","viewCount":"450","playlistId":"PLEkQk5xrP-tlEerGoLa1AFy-2XvQ-sovv","playlistName":"شرح صحيح البخاري - أ.د. يسري جبر (كاملا)","category":"حديث"},{"id":"411x7VE18bA","title":"شرح صحيح البخاري كتاب المغازي من باب ٧٤","publishedAt":"2018-02-28T21:29:21Z","duration":"PT28M22S","thumbnail":"https://i.ytimg.com/vi/411x7VE18bA/mqdefault.jpg","viewCount":"450","playlistId":"PLEkQk5xrP-tlEerGoLa1AFy-2XvQ-sovv","playlistName":"شرح صحيح البخاري - أ.د. يسري جبر (كاملا)","category":"حديث"},{"id":"PlYuCDiq-Ko","title":"شرح صحيح البخاري كتاب النكاح من باب ٣٧","publishedAt":"2018-06-01T14:24:39Z","duration":"PT32M20S","thumbnail":"https://i.ytimg.com/vi/PlYuCDiq-Ko/mqdefault.jpg","viewCount":"450","playlistId":"PLEkQk5xrP-tlEerGoLa1AFy-2XvQ-sovv","playlistName":"شرح صحيح البخاري - أ.د. يسري جبر (كاملا)","category":"حديث"},{"id":"MLNVUgkGYdk","title":"شرح صحيح البخاري كتاب الأيمان والنذور من باب ٣","publishedAt":"2018-11-11T16:45:54Z","duration":"PT37M40S","thumbnail":"https://i.ytimg.com/vi/MLNVUgkGYdk/mqdefault.jpg","viewCount":"449","playlistId":"PLEkQk5xrP-tlEerGoLa1AFy-2XvQ-sovv","playlistName":"شرح صحيح البخاري - أ.د. يسري جبر (كاملا)","category":"حديث"},{"id":"Q4JeorQcmmU","title":"شرح صحيح البخاري كتاب الطلاق من باب 18","publishedAt":"2018-06-19T22:48:27Z","duration":"PT28M8S","thumbnail":"https://i.ytimg.com/vi/Q4JeorQcmmU/mqdefault.jpg","viewCount":"447","playlistId":"PLEkQk5xrP-tlEerGoLa1AFy-2XvQ-sovv","playlistName":"شرح صحيح البخاري - أ.د. يسري جبر (كاملا)","category":"حديث"},{"id":"wyZL2ca4fwU","title":"شرح صحيح البخاري كتاب اللباس من باب ٦٥","publishedAt":"2018-08-21T20:39:44Z","duration":"PT35M26S","thumbnail":"https://i.ytimg.com/vi/wyZL2ca4fwU/mqdefault.jpg","viewCount":"447","playlistId":"PLEkQk5xrP-tlEerGoLa1AFy-2XvQ-sovv","playlistName":"شرح صحيح البخاري - أ.د. يسري جبر (كاملا)","category":"حديث"},{"id":"d3rBqG_XA9k","title":"شرح صحيح البخاري كتاب الأحكام من باب ١١","publishedAt":"2019-01-08T21:25:27Z","duration":"PT40M53S","thumbnail":"https://i.ytimg.com/vi/d3rBqG_XA9k/mqdefault.jpg","viewCount":"446","playlistId":"PLEkQk5xrP-tlEerGoLa1AFy-2XvQ-sovv","playlistName":"شرح صحيح البخاري - أ.د. يسري جبر (كاملا)","category":"حديث"},{"id":"FUNGQAslrZo","title":"شرح صحيح البخاري كتاب التفسير فى سورة يونس","publishedAt":"2018-03-30T08:45:33Z","duration":"PT39M53S","thumbnail":"https://i.ytimg.com/vi/FUNGQAslrZo/mqdefault.jpg","viewCount":"446","playlistId":"PLEkQk5xrP-tlEerGoLa1AFy-2XvQ-sovv","playlistName":"شرح صحيح البخاري - أ.د. يسري جبر (كاملا)","category":"حديث"},{"id":"h1QhIvGlvQc","title":"شرح صحيح البخاري كتاب اللباس من باب ٦٢","publishedAt":"2018-08-20T12:26:29Z","duration":"PT39M52S","thumbnail":"https://i.ytimg.com/vi/h1QhIvGlvQc/mqdefault.jpg","viewCount":"445","playlistId":"PLEkQk5xrP-tlEerGoLa1AFy-2XvQ-sovv","playlistName":"شرح صحيح البخاري - أ.د. يسري جبر (كاملا)","category":"حديث"}],"total":719,"page":27,"pageSize":24,"totalPages":30}