{"items":[{"id":"Ck74Z8PhS5I","title":"شرح صحيح البخاري كتاب النكاح من باب ٨٩","publishedAt":"2018-06-09T04:46:23Z","duration":"PT31M45S","thumbnail":"https://i.ytimg.com/vi/Ck74Z8PhS5I/mqdefault.jpg","viewCount":"493","playlistId":"PLEkQk5xrP-tlEerGoLa1AFy-2XvQ-sovv","playlistName":"شرح صحيح البخاري - أ.د. يسري جبر (كاملا)","category":"حديث"},{"id":"wWjxj3_7nM0","title":"شرح صحيح البخاري كتاب النكاح من باب ٦٥","publishedAt":"2018-06-04T15:29:36Z","duration":"PT26M40S","thumbnail":"https://i.ytimg.com/vi/wWjxj3_7nM0/mqdefault.jpg","viewCount":"492","playlistId":"PLEkQk5xrP-tlEerGoLa1AFy-2XvQ-sovv","playlistName":"شرح صحيح البخاري - أ.د. يسري جبر (كاملا)","category":"حديث"},{"id":"dgZiY6i-Inw","title":"شرح صحيح البخاري كتاب التوحيد من باب ١٧","publishedAt":"2019-02-04T00:34:18Z","duration":"PT30M4S","thumbnail":"https://i.ytimg.com/vi/dgZiY6i-Inw/mqdefault.jpg","viewCount":"491","playlistId":"PLEkQk5xrP-tlEerGoLa1AFy-2XvQ-sovv","playlistName":"شرح صحيح البخاري - أ.د. يسري جبر (كاملا)","category":"حديث"},{"id":"6GPqZLEtvDs","title":"شرح صحيح البخاري كتاب التفسير فى سورة آل عمران من باب ٥","publishedAt":"2018-03-15T14:40:08Z","duration":"PT22M51S","thumbnail":"https://i.ytimg.com/vi/6GPqZLEtvDs/mqdefault.jpg","viewCount":"491","playlistId":"PLEkQk5xrP-tlEerGoLa1AFy-2XvQ-sovv","playlistName":"شرح صحيح البخاري - أ.د. يسري جبر (كاملا)","category":"حديث"},{"id":"176OgdQAckc","title":"شرح صحيح البخاري   كتاب مناقب الأنصار من باب ٦","publishedAt":"2017-12-03T10:35:06Z","duration":"PT36M30S","thumbnail":"https://i.ytimg.com/vi/176OgdQAckc/mqdefault.jpg","viewCount":"491","playlistId":"PLEkQk5xrP-tlEerGoLa1AFy-2XvQ-sovv","playlistName":"شرح صحيح البخاري - أ.د. يسري جبر (كاملا)","category":"حديث"},{"id":"PFY3pbetPBg","title":"شرح صحيح البخاري كتاب التفسير فى سورة الأنعام من أولها","publishedAt":"2018-03-24T06:53:07Z","duration":"PT28M42S","thumbnail":"https://i.ytimg.com/vi/PFY3pbetPBg/mqdefault.jpg","viewCount":"489","playlistId":"PLEkQk5xrP-tlEerGoLa1AFy-2XvQ-sovv","playlistName":"شرح صحيح البخاري - أ.د. يسري جبر (كاملا)","category":"حديث"},{"id":"VO26l2sLBss","title":"شرح صحيح البخاري - كتاب الجهاد والسير من باب ١٠٣","publishedAt":"2017-08-11T20:44:57Z","duration":"PT19M50S","thumbnail":"https://i.ytimg.com/vi/VO26l2sLBss/mqdefault.jpg","viewCount":"488","playlistId":"PLEkQk5xrP-tlEerGoLa1AFy-2XvQ-sovv","playlistName":"شرح صحيح البخاري - أ.د. يسري جبر (كاملا)","category":"حديث"},{"id":"Fw61kmmsS8Q","title":"شرح صحيح البخاري كتاب التفسير فى سورة براءة من باب ٨","publishedAt":"2018-03-28T07:38:31Z","duration":"PT35M18S","thumbnail":"https://i.ytimg.com/vi/Fw61kmmsS8Q/mqdefault.jpg","viewCount":"487","playlistId":"PLEkQk5xrP-tlEerGoLa1AFy-2XvQ-sovv","playlistName":"شرح صحيح البخاري - أ.د. يسري جبر (كاملا)","category":"حديث"},{"id":"ApJMr2X6z2I","title":"شرح صحيح البخاري - كتاب المغازي من باب ٤٦","publishedAt":"2018-02-16T19:42:28Z","duration":"PT17M39S","thumbnail":"https://i.ytimg.com/vi/ApJMr2X6z2I/mqdefault.jpg","viewCount":"487","playlistId":"PLEkQk5xrP-tlEerGoLa1AFy-2XvQ-sovv","playlistName":"شرح صحيح البخاري - أ.د. يسري جبر (كاملا)","category":"حديث"},{"id":"k28OEB-6fd0","title":"شرح صحيح البخاري كتاب الرقاق من باب ١٨","publishedAt":"2018-10-24T11:56:57Z","duration":"PT30M46S","thumbnail":"https://i.ytimg.com/vi/k28OEB-6fd0/mqdefault.jpg","viewCount":"487","playlistId":"PLEkQk5xrP-tlEerGoLa1AFy-2XvQ-sovv","playlistName":"شرح صحيح البخاري - أ.د. يسري جبر (كاملا)","category":"حديث"},{"id":"CxJdmAp6L5Y","title":"شرح صحيح البخاري كتاب التفسير فى سورة النساء من باب ١١","publishedAt":"2018-03-19T13:18:09Z","duration":"PT30M37S","thumbnail":"https://i.ytimg.com/vi/CxJdmAp6L5Y/mqdefault.jpg","viewCount":"486","playlistId":"PLEkQk5xrP-tlEerGoLa1AFy-2XvQ-sovv","playlistName":"شرح صحيح البخاري - أ.د. يسري جبر (كاملا)","category":"حديث"},{"id":"F44CbPmkyEk","title":"شرح صحيح البخاري كتاب اللباس من باب ٦٩","publishedAt":"2018-08-22T18:29:57Z","duration":"PT31M45S","thumbnail":"https://i.ytimg.com/vi/F44CbPmkyEk/mqdefault.jpg","viewCount":"486","playlistId":"PLEkQk5xrP-tlEerGoLa1AFy-2XvQ-sovv","playlistName":"شرح صحيح البخاري - أ.د. يسري جبر (كاملا)","category":"حديث"},{"id":"pHF5D5gL3L4","title":"شرح صحيح البخاري كتاب فضائل القرآن من باب ٩","publishedAt":"2018-05-07T12:13:25Z","duration":"PT41M18S","thumbnail":"https://i.ytimg.com/vi/pHF5D5gL3L4/mqdefault.jpg","viewCount":"485","playlistId":"PLEkQk5xrP-tlEerGoLa1AFy-2XvQ-sovv","playlistName":"شرح صحيح البخاري - أ.د. يسري جبر (كاملا)","category":"حديث"},{"id":"GmVaTE01QOw","title":"شرح صحيح البخاري - كتاب الوصايا من باب ٣٢","publishedAt":"2017-07-23T21:12:38Z","duration":"PT15M25S","thumbnail":"https://i.ytimg.com/vi/GmVaTE01QOw/mqdefault.jpg","viewCount":"485","playlistId":"PLEkQk5xrP-tlEerGoLa1AFy-2XvQ-sovv","playlistName":"شرح صحيح البخاري - أ.د. يسري جبر (كاملا)","category":"حديث"},{"id":"NUgR9jVoi2M","title":"شرح صحيح البخاري كتاب الرقاق من باب ٣٦","publishedAt":"2018-10-30T09:53:37Z","duration":"PT35M55S","thumbnail":"https://i.ytimg.com/vi/NUgR9jVoi2M/mqdefault.jpg","viewCount":"485","playlistId":"PLEkQk5xrP-tlEerGoLa1AFy-2XvQ-sovv","playlistName":"شرح صحيح البخاري - أ.د. يسري جبر (كاملا)","category":"حديث"},{"id":"qlrMdbpODUY","title":"شرح صحيح البخاري كتاب الاستئذان من باب ٢٢","publishedAt":"2018-09-25T22:02:53Z","duration":"PT34M31S","thumbnail":"https://i.ytimg.com/vi/qlrMdbpODUY/mqdefault.jpg","viewCount":"485","playlistId":"PLEkQk5xrP-tlEerGoLa1AFy-2XvQ-sovv","playlistName":"شرح صحيح البخاري - أ.د. يسري جبر (كاملا)","category":"حديث"},{"id":"SaetOACGeVw","title":"شرح صحيح البخاري كتاب النكاح من باب ١١٩","publishedAt":"2018-06-12T16:02:48Z","duration":"PT28M21S","thumbnail":"https://i.ytimg.com/vi/SaetOACGeVw/mqdefault.jpg","viewCount":"484","playlistId":"PLEkQk5xrP-tlEerGoLa1AFy-2XvQ-sovv","playlistName":"شرح صحيح البخاري - أ.د. يسري جبر (كاملا)","category":"حديث"},{"id":"bNfoAWFPZds","title":"شرح صحيح البخاري كتاب التفسير فى سورة التغابن من أولها","publishedAt":"2018-04-27T20:13:46Z","duration":"PT45M43S","thumbnail":"https://i.ytimg.com/vi/bNfoAWFPZds/mqdefault.jpg","viewCount":"483","playlistId":"PLEkQk5xrP-tlEerGoLa1AFy-2XvQ-sovv","playlistName":"شرح صحيح البخاري - أ.د. يسري جبر (كاملا)","category":"حديث"},{"id":"IkUX-9tqfdo","title":"شرح صحيح البخاري - كتاب الجهاد والسير من باب ١٢٣","publishedAt":"2017-08-14T15:01:30Z","duration":"PT24M44S","thumbnail":"https://i.ytimg.com/vi/IkUX-9tqfdo/mqdefault.jpg","viewCount":"483","playlistId":"PLEkQk5xrP-tlEerGoLa1AFy-2XvQ-sovv","playlistName":"شرح صحيح البخاري - أ.د. يسري جبر (كاملا)","category":"حديث"},{"id":"zIyPEtPuXyE","title":"شرح صحيح البخاري كتاب الاعتصام بالكتاب والسنة من باب ٧","publishedAt":"2019-01-25T14:55:37Z","duration":"PT29M25S","thumbnail":"https://i.ytimg.com/vi/zIyPEtPuXyE/mqdefault.jpg","viewCount":"481","playlistId":"PLEkQk5xrP-tlEerGoLa1AFy-2XvQ-sovv","playlistName":"شرح صحيح البخاري - أ.د. يسري جبر (كاملا)","category":"حديث"},{"id":"dxRonZbvO4A","title":"شرح صحيح البخاري كتاب الرقاق من باب ٤٤","publishedAt":"2018-11-01T20:06:19Z","duration":"PT32M23S","thumbnail":"https://i.ytimg.com/vi/dxRonZbvO4A/mqdefault.jpg","viewCount":"481","playlistId":"PLEkQk5xrP-tlEerGoLa1AFy-2XvQ-sovv","playlistName":"شرح صحيح البخاري - أ.د. يسري جبر (كاملا)","category":"حديث"},{"id":"FxT5T6Fd9GA","title":"شرح صحيح البخاري كتاب الرقاق من باب ٥٣","publishedAt":"2018-11-06T08:05:41Z","duration":"PT33M2S","thumbnail":"https://i.ytimg.com/vi/FxT5T6Fd9GA/mqdefault.jpg","viewCount":"479","playlistId":"PLEkQk5xrP-tlEerGoLa1AFy-2XvQ-sovv","playlistName":"شرح صحيح البخاري - أ.د. يسري جبر (كاملا)","category":"حديث"},{"id":"vIl9lR2l2Rk","title":"شرح صحيح البخاري كتاب التفسير فى سورة الجمعة والمنافقون من أولها","publishedAt":"2018-04-26T20:13:10Z","duration":"PT41M19S","thumbnail":"https://i.ytimg.com/vi/vIl9lR2l2Rk/mqdefault.jpg","viewCount":"479","playlistId":"PLEkQk5xrP-tlEerGoLa1AFy-2XvQ-sovv","playlistName":"شرح صحيح البخاري - أ.د. يسري جبر (كاملا)","category":"حديث"},{"id":"Se7U0i6BziE","title":"شرح صحيح البخاري كتاب التفسير فى سورة آل عمران من باب ٤","publishedAt":"2018-03-14T14:51:36Z","duration":"PT22M17S","thumbnail":"https://i.ytimg.com/vi/Se7U0i6BziE/mqdefault.jpg","viewCount":"479","playlistId":"PLEkQk5xrP-tlEerGoLa1AFy-2XvQ-sovv","playlistName":"شرح صحيح البخاري - أ.د. يسري جبر (كاملا)","category":"حديث"}],"total":719,"page":25,"pageSize":24,"totalPages":30}