{"items":[{"id":"vzbwgqt_K24","title":"شرح صحيح البخاري- كتاب فضائل الصحابة من باب ٤","publishedAt":"2017-11-09T17:48:23Z","duration":"PT36M58S","thumbnail":"https://i.ytimg.com/vi/vzbwgqt_K24/mqdefault.jpg","viewCount":"730","playlistId":"PLEkQk5xrP-tlEerGoLa1AFy-2XvQ-sovv","playlistName":"شرح صحيح البخاري - أ.د. يسري جبر (كاملا)","category":"حديث"},{"id":"xmDzd5eYmIU","title":"شرح صحيح البخاري - كتاب الشهادات من أوله","publishedAt":"2017-06-20T17:14:58Z","duration":"PT34M59S","thumbnail":"https://i.ytimg.com/vi/xmDzd5eYmIU/mqdefault.jpg","viewCount":"729","playlistId":"PLEkQk5xrP-tlEerGoLa1AFy-2XvQ-sovv","playlistName":"شرح صحيح البخاري - أ.د. يسري جبر (كاملا)","category":"حديث"},{"id":"VwtWtKg-OKg","title":"وشرح صحيح البخاري - كتاب الكسوف من باب ١٠","publishedAt":"2016-12-20T12:53:23Z","duration":"PT27M28S","thumbnail":"https://i.ytimg.com/vi/VwtWtKg-OKg/mqdefault.jpg","viewCount":"728","playlistId":"PLEkQk5xrP-tlEerGoLa1AFy-2XvQ-sovv","playlistName":"شرح صحيح البخاري - أ.د. يسري جبر (كاملا)","category":"حديث"},{"id":"chP2nD7F5gE","title":"شرح صحيح البخاري- كتاب أحاديث الأنبياء من باب ٥٠","publishedAt":"2017-10-18T14:03:40Z","duration":"PT51M17S","thumbnail":"https://i.ytimg.com/vi/chP2nD7F5gE/mqdefault.jpg","viewCount":"728","playlistId":"PLEkQk5xrP-tlEerGoLa1AFy-2XvQ-sovv","playlistName":"شرح صحيح البخاري - أ.د. يسري جبر (كاملا)","category":"حديث"},{"id":"N4ZP7IvK_5A","title":"شرح صحيح البخاري - كتاب التقصير من باب ١٤","publishedAt":"2016-12-24T09:51:15Z","duration":"PT25M1S","thumbnail":"https://i.ytimg.com/vi/N4ZP7IvK_5A/mqdefault.jpg","viewCount":"727","playlistId":"PLEkQk5xrP-tlEerGoLa1AFy-2XvQ-sovv","playlistName":"شرح صحيح البخاري - أ.د. يسري جبر (كاملا)","category":"حديث"},{"id":"OeLIAp9m4uk","title":"شرح صحيح البخاري كتاب الأدب من باب ٢٨","publishedAt":"2018-08-29T23:05:36Z","duration":"PT33M28S","thumbnail":"https://i.ytimg.com/vi/OeLIAp9m4uk/mqdefault.jpg","viewCount":"727","playlistId":"PLEkQk5xrP-tlEerGoLa1AFy-2XvQ-sovv","playlistName":"شرح صحيح البخاري - أ.د. يسري جبر (كاملا)","category":"حديث"},{"id":"reIuNGAHkMM","title":"شرح صحيح البخاري كتاب الأدب من باب ٦","publishedAt":"2018-08-26T19:10:05Z","duration":"PT33M57S","thumbnail":"https://i.ytimg.com/vi/reIuNGAHkMM/mqdefault.jpg","viewCount":"727","playlistId":"PLEkQk5xrP-tlEerGoLa1AFy-2XvQ-sovv","playlistName":"شرح صحيح البخاري - أ.د. يسري جبر (كاملا)","category":"حديث"},{"id":"67QkcyGKbxw","title":"شرح صحيح البخاري -  كتاب الحج من باب ٦٣","publishedAt":"2017-03-09T19:36:36Z","duration":"PT32M","thumbnail":"https://i.ytimg.com/vi/67QkcyGKbxw/mqdefault.jpg","viewCount":"725","playlistId":"PLEkQk5xrP-tlEerGoLa1AFy-2XvQ-sovv","playlistName":"شرح صحيح البخاري - أ.د. يسري جبر (كاملا)","category":"حديث"},{"id":"jpqqMylCbJE","title":"شرح صحيح البخاري - كتاب الشركة من باب ٦","publishedAt":"2017-06-01T21:31:25Z","duration":"PT45M12S","thumbnail":"https://i.ytimg.com/vi/jpqqMylCbJE/mqdefault.jpg","viewCount":"724","playlistId":"PLEkQk5xrP-tlEerGoLa1AFy-2XvQ-sovv","playlistName":"شرح صحيح البخاري - أ.د. يسري جبر (كاملا)","category":"حديث"},{"id":"4INomfzRFGQ","title":"شرح صحيح البخاري - كتاب جزاء الصيد من باب  ٨","publishedAt":"2017-03-25T15:13:18Z","duration":"PT41M15S","thumbnail":"https://i.ytimg.com/vi/4INomfzRFGQ/mqdefault.jpg","viewCount":"724","playlistId":"PLEkQk5xrP-tlEerGoLa1AFy-2XvQ-sovv","playlistName":"شرح صحيح البخاري - أ.د. يسري جبر (كاملا)","category":"حديث"},{"id":"ELXbNrVFZ1A","title":"شرح صحيح البخاري  كتاب مناقب الأنصار من أوله","publishedAt":"2017-11-30T20:50:37Z","duration":"PT33M11S","thumbnail":"https://i.ytimg.com/vi/ELXbNrVFZ1A/mqdefault.jpg","viewCount":"724","playlistId":"PLEkQk5xrP-tlEerGoLa1AFy-2XvQ-sovv","playlistName":"شرح صحيح البخاري - أ.د. يسري جبر (كاملا)","category":"حديث"},{"id":"I5VDmxVLjDY","title":"شرح صحيح البخاري - كتاب الاستقراض من باب ١١","publishedAt":"2017-05-20T07:31:28Z","duration":"PT43M34S","thumbnail":"https://i.ytimg.com/vi/I5VDmxVLjDY/mqdefault.jpg","viewCount":"719","playlistId":"PLEkQk5xrP-tlEerGoLa1AFy-2XvQ-sovv","playlistName":"شرح صحيح البخاري - أ.د. يسري جبر (كاملا)","category":"حديث"},{"id":"XXClKh6ncI4","title":"شرح صحيح البخاري - كتاب الرهن","publishedAt":"2017-06-01T21:33:22Z","duration":"PT31M55S","thumbnail":"https://i.ytimg.com/vi/XXClKh6ncI4/mqdefault.jpg","viewCount":"717","playlistId":"PLEkQk5xrP-tlEerGoLa1AFy-2XvQ-sovv","playlistName":"شرح صحيح البخاري - أ.د. يسري جبر (كاملا)","category":"حديث"},{"id":"pOYGWCwK1zM","title":"شرح صحيح البخاري   كتاب الحج من باب ١٠٥","publishedAt":"2017-03-17T07:44:30Z","duration":"PT31M1S","thumbnail":"https://i.ytimg.com/vi/pOYGWCwK1zM/mqdefault.jpg","viewCount":"715","playlistId":"PLEkQk5xrP-tlEerGoLa1AFy-2XvQ-sovv","playlistName":"شرح صحيح البخاري - أ.د. يسري جبر (كاملا)","category":"حديث"},{"id":"DVhmUJQrWaY","title":"شرح صحيح البخاري -  كتاب الحج من باب ٩٩","publishedAt":"2017-03-16T03:55:37Z","duration":"PT31M18S","thumbnail":"https://i.ytimg.com/vi/DVhmUJQrWaY/mqdefault.jpg","viewCount":"714","playlistId":"PLEkQk5xrP-tlEerGoLa1AFy-2XvQ-sovv","playlistName":"شرح صحيح البخاري - أ.د. يسري جبر (كاملا)","category":"حديث"},{"id":"rzjtOryKZb0","title":"شرح صحيح البخاري- كتاب فضائل الصحابة تكملة  باب ٦ المجلس الثاني","publishedAt":"2017-11-10T20:55:33Z","duration":"PT40M42S","thumbnail":"https://i.ytimg.com/vi/rzjtOryKZb0/mqdefault.jpg","viewCount":"711","playlistId":"PLEkQk5xrP-tlEerGoLa1AFy-2XvQ-sovv","playlistName":"شرح صحيح البخاري - أ.د. يسري جبر (كاملا)","category":"حديث"},{"id":"WkXPYPsrGdQ","title":"شرح صحيح البخاري - كتاب الوصايا من أوله","publishedAt":"2017-07-10T17:24:15Z","duration":"PT24M4S","thumbnail":"https://i.ytimg.com/vi/WkXPYPsrGdQ/mqdefault.jpg","viewCount":"709","playlistId":"PLEkQk5xrP-tlEerGoLa1AFy-2XvQ-sovv","playlistName":"شرح صحيح البخاري - أ.د. يسري جبر (كاملا)","category":"حديث"},{"id":"BQ-hnZN1DlM","title":"شرح صحيح البخاري - كتاب المناقب تكملة باب ٢٦ المجلس الثاني","publishedAt":"2017-11-01T23:37:52Z","duration":"PT41M40S","thumbnail":"https://i.ytimg.com/vi/BQ-hnZN1DlM/mqdefault.jpg","viewCount":"708","playlistId":"PLEkQk5xrP-tlEerGoLa1AFy-2XvQ-sovv","playlistName":"شرح صحيح البخاري - أ.د. يسري جبر (كاملا)","category":"حديث"},{"id":"oO1H1QBi5lA","title":"شرح صحيح البخاري - كتاب الشهادات من باب ٢٢","publishedAt":"2017-06-28T19:24:41Z","duration":"PT33M46S","thumbnail":"https://i.ytimg.com/vi/oO1H1QBi5lA/mqdefault.jpg","viewCount":"707","playlistId":"PLEkQk5xrP-tlEerGoLa1AFy-2XvQ-sovv","playlistName":"شرح صحيح البخاري - أ.د. يسري جبر (كاملا)","category":"حديث"},{"id":"sHlNd3XNfWo","title":"شرح صحيح البخاري   كتاب المغازي من باب ٣٠","publishedAt":"2018-01-24T00:01:27Z","duration":"PT44M1S","thumbnail":"https://i.ytimg.com/vi/sHlNd3XNfWo/mqdefault.jpg","viewCount":"706","playlistId":"PLEkQk5xrP-tlEerGoLa1AFy-2XvQ-sovv","playlistName":"شرح صحيح البخاري - أ.د. يسري جبر (كاملا)","category":"حديث"},{"id":"ISFAFflOiVg","title":"شرح صحيح البخاري كتاب الفتن من باب ٢٢","publishedAt":"2019-01-04T09:18:25Z","duration":"PT29M48S","thumbnail":"https://i.ytimg.com/vi/ISFAFflOiVg/mqdefault.jpg","viewCount":"705","playlistId":"PLEkQk5xrP-tlEerGoLa1AFy-2XvQ-sovv","playlistName":"شرح صحيح البخاري - أ.د. يسري جبر (كاملا)","category":"حديث"},{"id":"GXNlrcJ3e4U","title":"شرح صحيح البخاري - كتاب المغازي من باب ٤٠","publishedAt":"2018-02-10T19:11:47Z","duration":"PT41M8S","thumbnail":"https://i.ytimg.com/vi/GXNlrcJ3e4U/mqdefault.jpg","viewCount":"704","playlistId":"PLEkQk5xrP-tlEerGoLa1AFy-2XvQ-sovv","playlistName":"شرح صحيح البخاري - أ.د. يسري جبر (كاملا)","category":"حديث"},{"id":"3ehU_5_-Dck","title":"شرح صحيح البخاري كتاب التوحيد من باب ٧","publishedAt":"2019-02-01T22:46:42Z","duration":"PT33M32S","thumbnail":"https://i.ytimg.com/vi/3ehU_5_-Dck/mqdefault.jpg","viewCount":"704","playlistId":"PLEkQk5xrP-tlEerGoLa1AFy-2XvQ-sovv","playlistName":"شرح صحيح البخاري - أ.د. يسري جبر (كاملا)","category":"حديث"},{"id":"MV4coTplpLY","title":"شرح صحيح البخاري - كتاب الاستقراض من أوله","publishedAt":"2017-05-18T19:58:42Z","duration":"PT31M31S","thumbnail":"https://i.ytimg.com/vi/MV4coTplpLY/mqdefault.jpg","viewCount":"700","playlistId":"PLEkQk5xrP-tlEerGoLa1AFy-2XvQ-sovv","playlistName":"شرح صحيح البخاري - أ.د. يسري جبر (كاملا)","category":"حديث"}],"total":719,"page":12,"pageSize":24,"totalPages":30}