{"items":[{"id":"8gXZTE9jkvw","title":"شرح صحيح البخاري كتاب الأطعمة من باب ٦","publishedAt":"2018-07-03T21:55:31Z","duration":"PT36M18S","thumbnail":"https://i.ytimg.com/vi/8gXZTE9jkvw/mqdefault.jpg","viewCount":"557","playlistId":"PLEkQk5xrP-tlEerGoLa1AFy-2XvQ-sovv","playlistName":"شرح صحيح البخاري - أ.د. يسري جبر (كاملا)","category":"حديث"},{"id":"bE_c1u4mBfs","title":"شرح صحيح البخاري كتاب أخبار الآحاد من أوله","publishedAt":"2019-01-19T21:28:18Z","duration":"PT42M27S","thumbnail":"https://i.ytimg.com/vi/bE_c1u4mBfs/mqdefault.jpg","viewCount":"556","playlistId":"PLEkQk5xrP-tlEerGoLa1AFy-2XvQ-sovv","playlistName":"شرح صحيح البخاري - أ.د. يسري جبر (كاملا)","category":"حديث"},{"id":"RdHnbGKnC3E","title":"شرح صحيح البخاري - كتاب الوصايا من باب ٩","publishedAt":"2017-07-18T15:26:57Z","duration":"PT23M38S","thumbnail":"https://i.ytimg.com/vi/RdHnbGKnC3E/mqdefault.jpg","viewCount":"554","playlistId":"PLEkQk5xrP-tlEerGoLa1AFy-2XvQ-sovv","playlistName":"شرح صحيح البخاري - أ.د. يسري جبر (كاملا)","category":"حديث"},{"id":"uuPYeWVPtKU","title":"شرح صحيح البخاري  كتاب فضائل الصحابة من باب ١٤","publishedAt":"2017-11-21T17:09:02Z","duration":"PT39M32S","thumbnail":"https://i.ytimg.com/vi/uuPYeWVPtKU/mqdefault.jpg","viewCount":"552","playlistId":"PLEkQk5xrP-tlEerGoLa1AFy-2XvQ-sovv","playlistName":"شرح صحيح البخاري - أ.د. يسري جبر (كاملا)","category":"حديث"},{"id":"_GizlSBp5DE","title":"شرح صحيح البخاري - كتاب الجهاد والسير من باب ٩٩","publishedAt":"2017-08-10T22:00:36Z","duration":"PT40M59S","thumbnail":"https://i.ytimg.com/vi/_GizlSBp5DE/mqdefault.jpg","viewCount":"552","playlistId":"PLEkQk5xrP-tlEerGoLa1AFy-2XvQ-sovv","playlistName":"شرح صحيح البخاري - أ.د. يسري جبر (كاملا)","category":"حديث"},{"id":"3cavBa9Cfac","title":"شرح صحيح البخاري كتاب الطلاق من باب 6","publishedAt":"2018-06-15T21:32:37Z","duration":"PT27M56S","thumbnail":"https://i.ytimg.com/vi/3cavBa9Cfac/mqdefault.jpg","viewCount":"551","playlistId":"PLEkQk5xrP-tlEerGoLa1AFy-2XvQ-sovv","playlistName":"شرح صحيح البخاري - أ.د. يسري جبر (كاملا)","category":"حديث"},{"id":"kpZXwW5dnS8","title":"شرح صحيح البخاري -  كتاب المغازي من باب ١٨","publishedAt":"2018-01-01T13:57:35Z","duration":"PT35M8S","thumbnail":"https://i.ytimg.com/vi/kpZXwW5dnS8/mqdefault.jpg","viewCount":"551","playlistId":"PLEkQk5xrP-tlEerGoLa1AFy-2XvQ-sovv","playlistName":"شرح صحيح البخاري - أ.د. يسري جبر (كاملا)","category":"حديث"},{"id":"l7mIBtxy7ug","title":"شرح صحيح البخاري- كتاب فضائل الصحابة تكملة باب ٧ المجلس الثاني","publishedAt":"2017-11-13T18:13:04Z","duration":"PT22M17S","thumbnail":"https://i.ytimg.com/vi/l7mIBtxy7ug/mqdefault.jpg","viewCount":"551","playlistId":"PLEkQk5xrP-tlEerGoLa1AFy-2XvQ-sovv","playlistName":"شرح صحيح البخاري - أ.د. يسري جبر (كاملا)","category":"حديث"},{"id":"SPBN46y5YvM","title":"شرح صحيح البخاري - كتاب الجهاد والسير من باب ١٧١","publishedAt":"2017-08-21T21:49:08Z","duration":"PT33M57S","thumbnail":"https://i.ytimg.com/vi/SPBN46y5YvM/mqdefault.jpg","viewCount":"550","playlistId":"PLEkQk5xrP-tlEerGoLa1AFy-2XvQ-sovv","playlistName":"شرح صحيح البخاري - أ.د. يسري جبر (كاملا)","category":"حديث"},{"id":"9SxNws9tyvE","title":"شرح صحيح البخاري كتاب التوحيد من باب ٢٠","publishedAt":"2019-02-04T21:04:14Z","duration":"PT39M35S","thumbnail":"https://i.ytimg.com/vi/9SxNws9tyvE/mqdefault.jpg","viewCount":"550","playlistId":"PLEkQk5xrP-tlEerGoLa1AFy-2XvQ-sovv","playlistName":"شرح صحيح البخاري - أ.د. يسري جبر (كاملا)","category":"حديث"},{"id":"aMvULLMhEO0","title":"شرح صحيح البخاري - كتاب المغازي من باب ٣٤","publishedAt":"2018-02-03T16:50:01Z","duration":"PT37M28S","thumbnail":"https://i.ytimg.com/vi/aMvULLMhEO0/mqdefault.jpg","viewCount":"550","playlistId":"PLEkQk5xrP-tlEerGoLa1AFy-2XvQ-sovv","playlistName":"شرح صحيح البخاري - أ.د. يسري جبر (كاملا)","category":"حديث"},{"id":"jFMlEI71i0U","title":"شرح صحيح البخاري - كتاب الجزية والموادعة من باب ١٧","publishedAt":"2017-09-09T21:15:18Z","duration":"PT42M44S","thumbnail":"https://i.ytimg.com/vi/jFMlEI71i0U/mqdefault.jpg","viewCount":"550","playlistId":"PLEkQk5xrP-tlEerGoLa1AFy-2XvQ-sovv","playlistName":"شرح صحيح البخاري - أ.د. يسري جبر (كاملا)","category":"حديث"},{"id":"tkjhgAEFZGk","title":"شرح صحيح البخاري كتاب التوحيد من باب ٣٨","publishedAt":"2019-02-12T22:46:31Z","duration":"PT41M12S","thumbnail":"https://i.ytimg.com/vi/tkjhgAEFZGk/mqdefault.jpg","viewCount":"549","playlistId":"PLEkQk5xrP-tlEerGoLa1AFy-2XvQ-sovv","playlistName":"شرح صحيح البخاري - أ.د. يسري جبر (كاملا)","category":"حديث"},{"id":"RN1_ki0kxj8","title":"شرح صحيح البخاري كتاب التفسير فى سورة براءة من أولها","publishedAt":"2018-03-27T06:14:03Z","duration":"PT30M56S","thumbnail":"https://i.ytimg.com/vi/RN1_ki0kxj8/mqdefault.jpg","viewCount":"548","playlistId":"PLEkQk5xrP-tlEerGoLa1AFy-2XvQ-sovv","playlistName":"شرح صحيح البخاري - أ.د. يسري جبر (كاملا)","category":"حديث"},{"id":"G0Ouyu9UwgQ","title":"شرح صحيح البخاري - كتاب المغازي من باب ٦٣","publishedAt":"2018-02-24T17:53:20Z","duration":"PT28M8S","thumbnail":"https://i.ytimg.com/vi/G0Ouyu9UwgQ/mqdefault.jpg","viewCount":"547","playlistId":"PLEkQk5xrP-tlEerGoLa1AFy-2XvQ-sovv","playlistName":"شرح صحيح البخاري - أ.د. يسري جبر (كاملا)","category":"حديث"},{"id":"IOUFAy3DgiY","title":"شرح صحيح البخاري- كتاب المناقب تكملة باب ٢٦ المجلس السادس","publishedAt":"2017-11-04T13:36:48Z","duration":"PT29M52S","thumbnail":"https://i.ytimg.com/vi/IOUFAy3DgiY/mqdefault.jpg","viewCount":"547","playlistId":"PLEkQk5xrP-tlEerGoLa1AFy-2XvQ-sovv","playlistName":"شرح صحيح البخاري - أ.د. يسري جبر (كاملا)","category":"حديث"},{"id":"WXuREW2Kqhk","title":"شرح صحيح البخاري كتاب الرقاق من باب ٥١","publishedAt":"2018-11-04T17:39:29Z","duration":"PT48M49S","thumbnail":"https://i.ytimg.com/vi/WXuREW2Kqhk/mqdefault.jpg","viewCount":"546","playlistId":"PLEkQk5xrP-tlEerGoLa1AFy-2XvQ-sovv","playlistName":"شرح صحيح البخاري - أ.د. يسري جبر (كاملا)","category":"حديث"},{"id":"E4wvg0xM2yc","title":"شرح صحيح البخاري - كتاب الجهاد والسير من باب ١٦٦","publishedAt":"2017-08-20T13:56:37Z","duration":"PT34M31S","thumbnail":"https://i.ytimg.com/vi/E4wvg0xM2yc/mqdefault.jpg","viewCount":"546","playlistId":"PLEkQk5xrP-tlEerGoLa1AFy-2XvQ-sovv","playlistName":"شرح صحيح البخاري - أ.د. يسري جبر (كاملا)","category":"حديث"},{"id":"3IZEfamhjl4","title":"شرح صحيح البخاري - كتاب الوصايا من باب ٣٥","publishedAt":"2017-07-24T19:28:41Z","duration":"PT23M8S","thumbnail":"https://i.ytimg.com/vi/3IZEfamhjl4/mqdefault.jpg","viewCount":"546","playlistId":"PLEkQk5xrP-tlEerGoLa1AFy-2XvQ-sovv","playlistName":"شرح صحيح البخاري - أ.د. يسري جبر (كاملا)","category":"حديث"},{"id":"uDTYSoQq4Kk","title":"شرح صحيح البخاري كتاب الأطعمة من باب ٤٩","publishedAt":"2018-07-12T23:09:30Z","duration":"PT39M47S","thumbnail":"https://i.ytimg.com/vi/uDTYSoQq4Kk/mqdefault.jpg","viewCount":"546","playlistId":"PLEkQk5xrP-tlEerGoLa1AFy-2XvQ-sovv","playlistName":"شرح صحيح البخاري - أ.د. يسري جبر (كاملا)","category":"حديث"},{"id":"m9WdF74qrMA","title":"شرح صحيح البخاري - كتاب الجهاد والسير من باب ١٥٧","publishedAt":"2017-08-19T13:39:51Z","duration":"PT38M29S","thumbnail":"https://i.ytimg.com/vi/m9WdF74qrMA/mqdefault.jpg","viewCount":"545","playlistId":"PLEkQk5xrP-tlEerGoLa1AFy-2XvQ-sovv","playlistName":"شرح صحيح البخاري - أ.د. يسري جبر (كاملا)","category":"حديث"},{"id":"ZTMaT768tz0","title":"شرح صحيح البخاري كتاب التفسير فى سورة الرعد من أولها","publishedAt":"2018-04-01T08:37:08Z","duration":"PT31M51S","thumbnail":"https://i.ytimg.com/vi/ZTMaT768tz0/mqdefault.jpg","viewCount":"545","playlistId":"PLEkQk5xrP-tlEerGoLa1AFy-2XvQ-sovv","playlistName":"شرح صحيح البخاري - أ.د. يسري جبر (كاملا)","category":"حديث"},{"id":"H9G6tEY2OUo","title":"شرح صحيح البخاري كتاب الاستئذان من باب ٣","publishedAt":"2018-09-23T16:03:58Z","duration":"PT42M9S","thumbnail":"https://i.ytimg.com/vi/H9G6tEY2OUo/mqdefault.jpg","viewCount":"545","playlistId":"PLEkQk5xrP-tlEerGoLa1AFy-2XvQ-sovv","playlistName":"شرح صحيح البخاري - أ.د. يسري جبر (كاملا)","category":"حديث"},{"id":"HkU_MnUCVXY","title":"شرح صحيح البخاري - كتاب الجهاد والسير من باب ١٩١","publishedAt":"2017-08-24T21:23:18Z","duration":"PT40M1S","thumbnail":"https://i.ytimg.com/vi/HkU_MnUCVXY/mqdefault.jpg","viewCount":"544","playlistId":"PLEkQk5xrP-tlEerGoLa1AFy-2XvQ-sovv","playlistName":"شرح صحيح البخاري - أ.د. يسري جبر (كاملا)","category":"حديث"}],"total":719,"page":20,"pageSize":24,"totalPages":30}