{"items":[{"id":"464bz-z1cnc","title":"شرح صحيح البخاري- كتاب أحاديث الأنبياء من باب ٤٤","publishedAt":"2017-10-17T13:36:00Z","duration":"PT37M59S","thumbnail":"https://i.ytimg.com/vi/464bz-z1cnc/mqdefault.jpg","viewCount":"607","playlistId":"PLEkQk5xrP-tlEerGoLa1AFy-2XvQ-sovv","playlistName":"شرح صحيح البخاري - أ.د. يسري جبر (كاملا)","category":"حديث"},{"id":"vtbD9F7N4ME","title":"شرح صحيح البخاري - كتاب أحاديث الأنبياء من باب ٢٩","publishedAt":"2017-10-10T16:59:17Z","duration":"PT35M20S","thumbnail":"https://i.ytimg.com/vi/vtbD9F7N4ME/mqdefault.jpg","viewCount":"606","playlistId":"PLEkQk5xrP-tlEerGoLa1AFy-2XvQ-sovv","playlistName":"شرح صحيح البخاري - أ.د. يسري جبر (كاملا)","category":"حديث"},{"id":"qPYn0ySYmjc","title":"شرح صحيح البخاري كتاب الطلاق من باب 4","publishedAt":"2018-06-14T16:00:38Z","duration":"PT27M3S","thumbnail":"https://i.ytimg.com/vi/qPYn0ySYmjc/mqdefault.jpg","viewCount":"604","playlistId":"PLEkQk5xrP-tlEerGoLa1AFy-2XvQ-sovv","playlistName":"شرح صحيح البخاري - أ.د. يسري جبر (كاملا)","category":"حديث"},{"id":"CTVY3hSlwps","title":"شرح صحيح البخاري كتاب المغازي من باب ٧٧","publishedAt":"2018-03-01T16:59:16Z","duration":"PT46M11S","thumbnail":"https://i.ytimg.com/vi/CTVY3hSlwps/mqdefault.jpg","viewCount":"603","playlistId":"PLEkQk5xrP-tlEerGoLa1AFy-2XvQ-sovv","playlistName":"شرح صحيح البخاري - أ.د. يسري جبر (كاملا)","category":"حديث"},{"id":"x3C9mrypK94","title":"شرح صحيح البخاري - كتاب المغازي تكملة باب ٤٠ المجلس الثاني","publishedAt":"2018-02-11T20:10:31Z","duration":"PT37M55S","thumbnail":"https://i.ytimg.com/vi/x3C9mrypK94/mqdefault.jpg","viewCount":"602","playlistId":"PLEkQk5xrP-tlEerGoLa1AFy-2XvQ-sovv","playlistName":"شرح صحيح البخاري - أ.د. يسري جبر (كاملا)","category":"حديث"},{"id":"cddWFC7FSeQ","title":"شرح صحيح البخاري - كتاب الشهادات من باب ١٥","publishedAt":"2017-06-24T22:31:51Z","duration":"PT33M58S","thumbnail":"https://i.ytimg.com/vi/cddWFC7FSeQ/mqdefault.jpg","viewCount":"602","playlistId":"PLEkQk5xrP-tlEerGoLa1AFy-2XvQ-sovv","playlistName":"شرح صحيح البخاري - أ.د. يسري جبر (كاملا)","category":"حديث"},{"id":"M-ME_odTNyQ","title":"شرح صحيح البخاري كتاب الأشربة من أوله","publishedAt":"2018-07-24T22:03:19Z","duration":"PT32M13S","thumbnail":"https://i.ytimg.com/vi/M-ME_odTNyQ/mqdefault.jpg","viewCount":"601","playlistId":"PLEkQk5xrP-tlEerGoLa1AFy-2XvQ-sovv","playlistName":"شرح صحيح البخاري - أ.د. يسري جبر (كاملا)","category":"حديث"},{"id":"yMSycaopzzM","title":"شرح صحيح البخاري كتاب التفسير فى سورة البقرة من باب ١١","publishedAt":"2018-03-08T21:49:46Z","duration":"PT31M30S","thumbnail":"https://i.ytimg.com/vi/yMSycaopzzM/mqdefault.jpg","viewCount":"601","playlistId":"PLEkQk5xrP-tlEerGoLa1AFy-2XvQ-sovv","playlistName":"شرح صحيح البخاري - أ.د. يسري جبر (كاملا)","category":"حديث"},{"id":"4ogFHJ11SY4","title":"شرح صحيح البخاري  كتاب فضائل الصحابة من باب ٢٨","publishedAt":"2017-11-25T06:54:15Z","duration":"PT36M18S","thumbnail":"https://i.ytimg.com/vi/4ogFHJ11SY4/mqdefault.jpg","viewCount":"601","playlistId":"PLEkQk5xrP-tlEerGoLa1AFy-2XvQ-sovv","playlistName":"شرح صحيح البخاري - أ.د. يسري جبر (كاملا)","category":"حديث"},{"id":"EbzjYc69d1o","title":"شرح صحيح البخاري كتاب التفسير فى سورة البقرة من باب ٢٢","publishedAt":"2018-03-09T20:19:49Z","duration":"PT36M6S","thumbnail":"https://i.ytimg.com/vi/EbzjYc69d1o/mqdefault.jpg","viewCount":"600","playlistId":"PLEkQk5xrP-tlEerGoLa1AFy-2XvQ-sovv","playlistName":"شرح صحيح البخاري - أ.د. يسري جبر (كاملا)","category":"حديث"},{"id":"hU678XKkbJw","title":"شرح صحيح البخاري - كتاب المغازي تكملة باب ٣٧","publishedAt":"2018-02-06T21:12:01Z","duration":"PT43M20S","thumbnail":"https://i.ytimg.com/vi/hU678XKkbJw/mqdefault.jpg","viewCount":"600","playlistId":"PLEkQk5xrP-tlEerGoLa1AFy-2XvQ-sovv","playlistName":"شرح صحيح البخاري - أ.د. يسري جبر (كاملا)","category":"حديث"},{"id":"3dvsg0NjsBI","title":"شرح صحيح البخاري - كتاب فرض الخمس من باب ٩","publishedAt":"2017-08-29T22:03:45Z","duration":"PT37M16S","thumbnail":"https://i.ytimg.com/vi/3dvsg0NjsBI/mqdefault.jpg","viewCount":"599","playlistId":"PLEkQk5xrP-tlEerGoLa1AFy-2XvQ-sovv","playlistName":"شرح صحيح البخاري - أ.د. يسري جبر (كاملا)","category":"حديث"},{"id":"nQZnhEST5qw","title":"شرح صحيح البخاري -  كتاب المغازي تكملة باب ١٢","publishedAt":"2017-12-27T03:21:19Z","duration":"PT31M35S","thumbnail":"https://i.ytimg.com/vi/nQZnhEST5qw/mqdefault.jpg","viewCount":"599","playlistId":"PLEkQk5xrP-tlEerGoLa1AFy-2XvQ-sovv","playlistName":"شرح صحيح البخاري - أ.د. يسري جبر (كاملا)","category":"حديث"},{"id":"5QzGXbNfr5E","title":"شرح صحيح البخاري كتاب التفسير فى سورة آل عمران من أوله","publishedAt":"2018-03-13T12:39:45Z","duration":"PT26M21S","thumbnail":"https://i.ytimg.com/vi/5QzGXbNfr5E/mqdefault.jpg","viewCount":"599","playlistId":"PLEkQk5xrP-tlEerGoLa1AFy-2XvQ-sovv","playlistName":"شرح صحيح البخاري - أ.د. يسري جبر (كاملا)","category":"حديث"},{"id":"CtwBW2FEPtM","title":"شرح صحيح البخاري - كتاب الجزية والموادعة من أوله","publishedAt":"2017-09-02T10:32:05Z","duration":"PT27M22S","thumbnail":"https://i.ytimg.com/vi/CtwBW2FEPtM/mqdefault.jpg","viewCount":"598","playlistId":"PLEkQk5xrP-tlEerGoLa1AFy-2XvQ-sovv","playlistName":"شرح صحيح البخاري - أ.د. يسري جبر (كاملا)","category":"حديث"},{"id":"6eC1gOHxKKU","title":"شرح صحيح البخاري- كتاب المناقب من باب ١٦","publishedAt":"2017-10-30T04:04:22Z","duration":"PT27M41S","thumbnail":"https://i.ytimg.com/vi/6eC1gOHxKKU/mqdefault.jpg","viewCount":"598","playlistId":"PLEkQk5xrP-tlEerGoLa1AFy-2XvQ-sovv","playlistName":"شرح صحيح البخاري - أ.د. يسري جبر (كاملا)","category":"حديث"},{"id":"nJ7fUp3Ptvs","title":"شرح صحيح البخاري - كتاب المغازي من باب ٦١","publishedAt":"2018-02-23T18:34:20Z","duration":"PT31M19S","thumbnail":"https://i.ytimg.com/vi/nJ7fUp3Ptvs/mqdefault.jpg","viewCount":"598","playlistId":"PLEkQk5xrP-tlEerGoLa1AFy-2XvQ-sovv","playlistName":"شرح صحيح البخاري - أ.د. يسري جبر (كاملا)","category":"حديث"},{"id":"D-_GsBLOomM","title":"شرح صحيح البخاري - كتاب المغازي من باب ٣٨","publishedAt":"2018-02-08T16:25:24Z","duration":"PT27M33S","thumbnail":"https://i.ytimg.com/vi/D-_GsBLOomM/mqdefault.jpg","viewCount":"598","playlistId":"PLEkQk5xrP-tlEerGoLa1AFy-2XvQ-sovv","playlistName":"شرح صحيح البخاري - أ.د. يسري جبر (كاملا)","category":"حديث"},{"id":"3zUH5xLUHHQ","title":"شرح صحيح البخاري   كتاب المغازي من باب ٢٤","publishedAt":"2018-01-18T08:55:48Z","duration":"PT27M22S","thumbnail":"https://i.ytimg.com/vi/3zUH5xLUHHQ/mqdefault.jpg","viewCount":"598","playlistId":"PLEkQk5xrP-tlEerGoLa1AFy-2XvQ-sovv","playlistName":"شرح صحيح البخاري - أ.د. يسري جبر (كاملا)","category":"حديث"},{"id":"Glic_keLDvQ","title":"شرح صحيح البخاري كتاب التفسير فى سورة الحجرات من باب ١","publishedAt":"2018-04-21T15:46:09Z","duration":"PT32M30S","thumbnail":"https://i.ytimg.com/vi/Glic_keLDvQ/mqdefault.jpg","viewCount":"597","playlistId":"PLEkQk5xrP-tlEerGoLa1AFy-2XvQ-sovv","playlistName":"شرح صحيح البخاري - أ.د. يسري جبر (كاملا)","category":"حديث"},{"id":"3OAQqJTYSkE","title":"شرح صحيح البخاري - كتاب الهبة من باب ٨","publishedAt":"2017-06-16T08:37:05Z","duration":"PT28M34S","thumbnail":"https://i.ytimg.com/vi/3OAQqJTYSkE/mqdefault.jpg","viewCount":"597","playlistId":"PLEkQk5xrP-tlEerGoLa1AFy-2XvQ-sovv","playlistName":"شرح صحيح البخاري - أ.د. يسري جبر (كاملا)","category":"حديث"},{"id":"OaHHcK0saLw","title":"شرح صحيح البخاري - كتاب المغازي من باب ٦","publishedAt":"2017-12-20T14:02:12Z","duration":"PT28M51S","thumbnail":"https://i.ytimg.com/vi/OaHHcK0saLw/mqdefault.jpg","viewCount":"597","playlistId":"PLEkQk5xrP-tlEerGoLa1AFy-2XvQ-sovv","playlistName":"شرح صحيح البخاري - أ.د. يسري جبر (كاملا)","category":"حديث"},{"id":"S_hQZJVxsyw","title":"شرح صحيح البخاري- كتاب أحاديث الأنبياء من باب ٤٢","publishedAt":"2017-10-16T16:12:04Z","duration":"PT35M32S","thumbnail":"https://i.ytimg.com/vi/S_hQZJVxsyw/mqdefault.jpg","viewCount":"595","playlistId":"PLEkQk5xrP-tlEerGoLa1AFy-2XvQ-sovv","playlistName":"شرح صحيح البخاري - أ.د. يسري جبر (كاملا)","category":"حديث"},{"id":"Xm8QRpInecM","title":"شرح صحيح البخاري -  كتاب المغازي تكملة باب ١٠","publishedAt":"2017-12-25T15:00:47Z","duration":"PT39M31S","thumbnail":"https://i.ytimg.com/vi/Xm8QRpInecM/mqdefault.jpg","viewCount":"594","playlistId":"PLEkQk5xrP-tlEerGoLa1AFy-2XvQ-sovv","playlistName":"شرح صحيح البخاري - أ.د. يسري جبر (كاملا)","category":"حديث"}],"total":719,"page":16,"pageSize":24,"totalPages":30}