{"items":[{"id":"vIl9lR2l2Rk","title":"شرح صحيح البخاري كتاب التفسير فى سورة الجمعة والمنافقون من أولها","publishedAt":"2018-04-26T20:13:10Z","duration":"PT41M19S","thumbnail":"https://i.ytimg.com/vi/vIl9lR2l2Rk/mqdefault.jpg","viewCount":"479","playlistId":"PLEkQk5xrP-tlEerGoLa1AFy-2XvQ-sovv","playlistName":"شرح صحيح البخاري - أ.د. يسري جبر (كاملا)","category":"حديث"},{"id":"Se7U0i6BziE","title":"شرح صحيح البخاري كتاب التفسير فى سورة آل عمران من باب ٤","publishedAt":"2018-03-14T14:51:36Z","duration":"PT22M17S","thumbnail":"https://i.ytimg.com/vi/Se7U0i6BziE/mqdefault.jpg","viewCount":"479","playlistId":"PLEkQk5xrP-tlEerGoLa1AFy-2XvQ-sovv","playlistName":"شرح صحيح البخاري - أ.د. يسري جبر (كاملا)","category":"حديث"},{"id":"wtsZL-eocQg","title":"شرح صحيح البخاري كتاب الأضاحي من باب ٩","publishedAt":"2018-07-24T08:46:39Z","duration":"PT32M44S","thumbnail":"https://i.ytimg.com/vi/wtsZL-eocQg/mqdefault.jpg","viewCount":"478","playlistId":"PLEkQk5xrP-tlEerGoLa1AFy-2XvQ-sovv","playlistName":"شرح صحيح البخاري - أ.د. يسري جبر (كاملا)","category":"حديث"},{"id":"n20n6cPIGCw","title":"شرح صحيح البخاري - كتاب الجهاد والسير من باب ١١٦","publishedAt":"2017-08-13T14:16:56Z","duration":"PT31M3S","thumbnail":"https://i.ytimg.com/vi/n20n6cPIGCw/mqdefault.jpg","viewCount":"478","playlistId":"PLEkQk5xrP-tlEerGoLa1AFy-2XvQ-sovv","playlistName":"شرح صحيح البخاري - أ.د. يسري جبر (كاملا)","category":"حديث"},{"id":"RbVGFpKoapk","title":"شرح صحيح البخاري   كتاب مناقب الأنصار من باب ٢٧","publishedAt":"2017-12-06T22:42:53Z","duration":"PT30M20S","thumbnail":"https://i.ytimg.com/vi/RbVGFpKoapk/mqdefault.jpg","viewCount":"477","playlistId":"PLEkQk5xrP-tlEerGoLa1AFy-2XvQ-sovv","playlistName":"شرح صحيح البخاري - أ.د. يسري جبر (كاملا)","category":"حديث"},{"id":"LoJQVcS6Mn4","title":"شرح صحيح البخاري كتاب التفسير فى سورة المؤمن (الغافر) من باب ١","publishedAt":"2018-04-18T20:02:13Z","duration":"PT33M43S","thumbnail":"https://i.ytimg.com/vi/LoJQVcS6Mn4/mqdefault.jpg","viewCount":"477","playlistId":"PLEkQk5xrP-tlEerGoLa1AFy-2XvQ-sovv","playlistName":"شرح صحيح البخاري - أ.د. يسري جبر (كاملا)","category":"حديث"},{"id":"28QW09XiAuo","title":"شرح صحيح البخاري   كتاب مناقب الأنصار تكملة باب ٤٥ المجلس الثالث","publishedAt":"2017-12-15T20:27:10Z","duration":"PT35M41S","thumbnail":"https://i.ytimg.com/vi/28QW09XiAuo/mqdefault.jpg","viewCount":"476","playlistId":"PLEkQk5xrP-tlEerGoLa1AFy-2XvQ-sovv","playlistName":"شرح صحيح البخاري - أ.د. يسري جبر (كاملا)","category":"حديث"},{"id":"uxb6wlr7Rvg","title":"شرح صحيح البخاري كتاب الأدب من باب ٨٦","publishedAt":"2018-09-13T19:00:41Z","duration":"PT17M28S","thumbnail":"https://i.ytimg.com/vi/uxb6wlr7Rvg/mqdefault.jpg","viewCount":"475","playlistId":"PLEkQk5xrP-tlEerGoLa1AFy-2XvQ-sovv","playlistName":"شرح صحيح البخاري - أ.د. يسري جبر (كاملا)","category":"حديث"},{"id":"edh3XB8WOMY","title":"شرح صحيح البخاري - كتاب المغازي تكملة باب ٥٨","publishedAt":"2018-02-22T14:50:08Z","duration":"PT23M23S","thumbnail":"https://i.ytimg.com/vi/edh3XB8WOMY/mqdefault.jpg","viewCount":"474","playlistId":"PLEkQk5xrP-tlEerGoLa1AFy-2XvQ-sovv","playlistName":"شرح صحيح البخاري - أ.د. يسري جبر (كاملا)","category":"حديث"},{"id":"TXIeMNS0ReI","title":"شرح صحيح البخاري   كتاب مناقب الأنصار من باب ٣٨","publishedAt":"2017-12-10T18:31:06Z","duration":"PT30M41S","thumbnail":"https://i.ytimg.com/vi/TXIeMNS0ReI/mqdefault.jpg","viewCount":"473","playlistId":"PLEkQk5xrP-tlEerGoLa1AFy-2XvQ-sovv","playlistName":"شرح صحيح البخاري - أ.د. يسري جبر (كاملا)","category":"حديث"},{"id":"c10gBnxag_0","title":"شرح صحيح البخاري كتاب النكاح من باب ١٠٧","publishedAt":"2018-06-10T20:04:32Z","duration":"PT27M54S","thumbnail":"https://i.ytimg.com/vi/c10gBnxag_0/mqdefault.jpg","viewCount":"473","playlistId":"PLEkQk5xrP-tlEerGoLa1AFy-2XvQ-sovv","playlistName":"شرح صحيح البخاري - أ.د. يسري جبر (كاملا)","category":"حديث"},{"id":"eaU57RPed9s","title":"شرح صحيح البخاري كتاب الأطعمة من باب ٤١","publishedAt":"2018-07-11T17:49:44Z","duration":"PT27M57S","thumbnail":"https://i.ytimg.com/vi/eaU57RPed9s/mqdefault.jpg","viewCount":"472","playlistId":"PLEkQk5xrP-tlEerGoLa1AFy-2XvQ-sovv","playlistName":"شرح صحيح البخاري - أ.د. يسري جبر (كاملا)","category":"حديث"},{"id":"ckJdkpdeEtY","title":"شرح صحيح البخاري كتاب الطب من باب ٢٤","publishedAt":"2018-08-06T13:57:08Z","duration":"PT24M5S","thumbnail":"https://i.ytimg.com/vi/ckJdkpdeEtY/mqdefault.jpg","viewCount":"471","playlistId":"PLEkQk5xrP-tlEerGoLa1AFy-2XvQ-sovv","playlistName":"شرح صحيح البخاري - أ.د. يسري جبر (كاملا)","category":"حديث"},{"id":"X9LFxvbJ-wc","title":"شرح صحيح البخاري كتاب الإعتصام بالكتاب والسنة من باب ٣","publishedAt":"2019-01-21T21:35:03Z","duration":"PT41M23S","thumbnail":"https://i.ytimg.com/vi/X9LFxvbJ-wc/mqdefault.jpg","viewCount":"469","playlistId":"PLEkQk5xrP-tlEerGoLa1AFy-2XvQ-sovv","playlistName":"شرح صحيح البخاري - أ.د. يسري جبر (كاملا)","category":"حديث"},{"id":"zA40fsFy6iI","title":"شرح صحيح البخاري كتاب الإعتصام بالكتاب والسنة من باب ٤","publishedAt":"2019-01-23T09:57:34Z","duration":"PT32M11S","thumbnail":"https://i.ytimg.com/vi/zA40fsFy6iI/mqdefault.jpg","viewCount":"469","playlistId":"PLEkQk5xrP-tlEerGoLa1AFy-2XvQ-sovv","playlistName":"شرح صحيح البخاري - أ.د. يسري جبر (كاملا)","category":"حديث"},{"id":"WEyyffSzl84","title":"شرح صحيح البخاري كتاب المغازي تكملة باب ٣٠","publishedAt":"2019-03-10T20:44:19Z","duration":"PT36M37S","thumbnail":"https://i.ytimg.com/vi/WEyyffSzl84/mqdefault.jpg","viewCount":"468","playlistId":"PLEkQk5xrP-tlEerGoLa1AFy-2XvQ-sovv","playlistName":"شرح صحيح البخاري - أ.د. يسري جبر (كاملا)","category":"حديث"},{"id":"b6J-wFw2ISc","title":"شرح صحيح البخاري كتاب اللباس من باب ٥٠","publishedAt":"2018-08-19T14:56:39Z","duration":"PT36M4S","thumbnail":"https://i.ytimg.com/vi/b6J-wFw2ISc/mqdefault.jpg","viewCount":"465","playlistId":"PLEkQk5xrP-tlEerGoLa1AFy-2XvQ-sovv","playlistName":"شرح صحيح البخاري - أ.د. يسري جبر (كاملا)","category":"حديث"},{"id":"bvjgkIR-iWw","title":"شرح صحيح البخاري كتاب الإعتصام بالكتاب والسنة من باب 26","publishedAt":"2019-01-30T21:34:29Z","duration":"PT36M5S","thumbnail":"https://i.ytimg.com/vi/bvjgkIR-iWw/mqdefault.jpg","viewCount":"465","playlistId":"PLEkQk5xrP-tlEerGoLa1AFy-2XvQ-sovv","playlistName":"شرح صحيح البخاري - أ.د. يسري جبر (كاملا)","category":"حديث"},{"id":"Y7J27KzDVaA","title":"شرح صحيح البخاري   كتاب مناقب الأنصار من باب ٣٢","publishedAt":"2017-12-08T11:09:14Z","duration":"PT26M20S","thumbnail":"https://i.ytimg.com/vi/Y7J27KzDVaA/mqdefault.jpg","viewCount":"464","playlistId":"PLEkQk5xrP-tlEerGoLa1AFy-2XvQ-sovv","playlistName":"شرح صحيح البخاري - أ.د. يسري جبر (كاملا)","category":"حديث"},{"id":"1j4sCioKH7I","title":"شرح صحيح البخاري كتاب الأشربة من باب ٢٣","publishedAt":"2018-07-29T20:26:52Z","duration":"PT29M41S","thumbnail":"https://i.ytimg.com/vi/1j4sCioKH7I/mqdefault.jpg","viewCount":"464","playlistId":"PLEkQk5xrP-tlEerGoLa1AFy-2XvQ-sovv","playlistName":"شرح صحيح البخاري - أ.د. يسري جبر (كاملا)","category":"حديث"},{"id":"L3DCeEf9hOM","title":"شرح صحيح البخاري كتاب الذبائح والصيد من باب ٢٥","publishedAt":"2018-07-19T21:02:46Z","duration":"PT38M11S","thumbnail":"https://i.ytimg.com/vi/L3DCeEf9hOM/mqdefault.jpg","viewCount":"463","playlistId":"PLEkQk5xrP-tlEerGoLa1AFy-2XvQ-sovv","playlistName":"شرح صحيح البخاري - أ.د. يسري جبر (كاملا)","category":"حديث"},{"id":"uL1LCtVcZLE","title":"شرح صحيح البخاري كتاب التفسير فى سورتي الحجر والنحل","publishedAt":"2018-04-02T07:07:03Z","duration":"PT43M7S","thumbnail":"https://i.ytimg.com/vi/uL1LCtVcZLE/mqdefault.jpg","viewCount":"462","playlistId":"PLEkQk5xrP-tlEerGoLa1AFy-2XvQ-sovv","playlistName":"شرح صحيح البخاري - أ.د. يسري جبر (كاملا)","category":"حديث"},{"id":"m4xa2pTClXI","title":"شرح صحيح البخاري كتاب التعبير من باب ٣٠","publishedAt":"2018-12-26T20:44:51Z","duration":"PT35M52S","thumbnail":"https://i.ytimg.com/vi/m4xa2pTClXI/mqdefault.jpg","viewCount":"462","playlistId":"PLEkQk5xrP-tlEerGoLa1AFy-2XvQ-sovv","playlistName":"شرح صحيح البخاري - أ.د. يسري جبر (كاملا)","category":"حديث"},{"id":"Afui6Xk9l44","title":"شرح صحيح البخاري كتاب الدعوات من باب ٥٦","publishedAt":"2018-10-14T08:46:55Z","duration":"PT36M38S","thumbnail":"https://i.ytimg.com/vi/Afui6Xk9l44/mqdefault.jpg","viewCount":"461","playlistId":"PLEkQk5xrP-tlEerGoLa1AFy-2XvQ-sovv","playlistName":"شرح صحيح البخاري - أ.د. يسري جبر (كاملا)","category":"حديث"}],"total":719,"page":26,"pageSize":24,"totalPages":30}