{"items":[{"id":"q0lREIF_zws","title":"شرح صحيح البخاري - كتاب التهجد من باب ١٤","publishedAt":"2016-12-27T12:09:54Z","duration":"PT38M38S","thumbnail":"https://i.ytimg.com/vi/q0lREIF_zws/mqdefault.jpg","viewCount":"984","playlistId":"PLEkQk5xrP-tlEerGoLa1AFy-2XvQ-sovv","playlistName":"شرح صحيح البخاري - أ.د. يسري جبر (كاملا)","category":"حديث"},{"id":"dVF9f0sleQk","title":"شرح صحيح البخاري - كتاب الجنائز من باب ٤٢","publishedAt":"2017-02-02T09:06:40Z","duration":"PT32M43S","thumbnail":"https://i.ytimg.com/vi/dVF9f0sleQk/mqdefault.jpg","viewCount":"982","playlistId":"PLEkQk5xrP-tlEerGoLa1AFy-2XvQ-sovv","playlistName":"شرح صحيح البخاري - أ.د. يسري جبر (كاملا)","category":"حديث"},{"id":"qacPF_9evGs","title":"شرح صحيح البخاري كتاب الأذان من باب 136","publishedAt":"2016-11-26T11:39:20Z","duration":"PT37M22S","thumbnail":"https://i.ytimg.com/vi/qacPF_9evGs/mqdefault.jpg","viewCount":"978","playlistId":"PLEkQk5xrP-tlEerGoLa1AFy-2XvQ-sovv","playlistName":"شرح صحيح البخاري - أ.د. يسري جبر (كاملا)","category":"حديث"},{"id":"U-L7MbuueaI","title":"شرح صحيح البخاري كتاب الجمعة من باب ٣٠","publishedAt":"2016-12-04T06:27:09Z","duration":"PT38M9S","thumbnail":"https://i.ytimg.com/vi/U-L7MbuueaI/mqdefault.jpg","viewCount":"974","playlistId":"PLEkQk5xrP-tlEerGoLa1AFy-2XvQ-sovv","playlistName":"شرح صحيح البخاري - أ.د. يسري جبر (كاملا)","category":"حديث"},{"id":"rycqbk0Pr_c","title":"شرح صحيح البخاري كتاب العِيدَين من باب ٩","publishedAt":"2016-12-07T08:10:28Z","duration":"PT35M43S","thumbnail":"https://i.ytimg.com/vi/rycqbk0Pr_c/mqdefault.jpg","viewCount":"972","playlistId":"PLEkQk5xrP-tlEerGoLa1AFy-2XvQ-sovv","playlistName":"شرح صحيح البخاري - أ.د. يسري جبر (كاملا)","category":"حديث"},{"id":"rPOs0vZ8Epc","title":"شرح صحيح البخاري   كتاب الحج من باب ١٧","publishedAt":"2017-03-01T19:10:08Z","duration":"PT38M49S","thumbnail":"https://i.ytimg.com/vi/rPOs0vZ8Epc/mqdefault.jpg","viewCount":"972","playlistId":"PLEkQk5xrP-tlEerGoLa1AFy-2XvQ-sovv","playlistName":"شرح صحيح البخاري - أ.د. يسري جبر (كاملا)","category":"حديث"},{"id":"BKGhfPPo9Go","title":"شرح صحيح البخاري   كتاب الزكاة من باب ٥١","publishedAt":"2017-02-21T15:14:10Z","duration":"PT47M56S","thumbnail":"https://i.ytimg.com/vi/BKGhfPPo9Go/mqdefault.jpg","viewCount":"961","playlistId":"PLEkQk5xrP-tlEerGoLa1AFy-2XvQ-sovv","playlistName":"شرح صحيح البخاري - أ.د. يسري جبر (كاملا)","category":"حديث"},{"id":"k5CgwoOgq4Y","title":"شرح صحيح البخاري كتاب النكاح من باب ٥","publishedAt":"2018-05-19T09:00:53Z","duration":"PT39M45S","thumbnail":"https://i.ytimg.com/vi/k5CgwoOgq4Y/mqdefault.jpg","viewCount":"958","playlistId":"PLEkQk5xrP-tlEerGoLa1AFy-2XvQ-sovv","playlistName":"شرح صحيح البخاري - أ.د. يسري جبر (كاملا)","category":"حديث"},{"id":"Tix9LHkJZoQ","title":"شرح صحيح البخاري - كتاب العمل في الصلا‎ة من باب ٧","publishedAt":"2017-01-02T12:30:44Z","duration":"PT47M3S","thumbnail":"https://i.ytimg.com/vi/Tix9LHkJZoQ/mqdefault.jpg","viewCount":"956","playlistId":"PLEkQk5xrP-tlEerGoLa1AFy-2XvQ-sovv","playlistName":"شرح صحيح البخاري - أ.د. يسري جبر (كاملا)","category":"حديث"},{"id":"UC_y1o7ExQs","title":"شرح صحيح البخاري - كتاب الجنائز من باب ٦٨","publishedAt":"2017-02-06T12:43:33Z","duration":"PT44M56S","thumbnail":"https://i.ytimg.com/vi/UC_y1o7ExQs/mqdefault.jpg","viewCount":"956","playlistId":"PLEkQk5xrP-tlEerGoLa1AFy-2XvQ-sovv","playlistName":"شرح صحيح البخاري - أ.د. يسري جبر (كاملا)","category":"حديث"},{"id":"-xaBcDnSWjY","title":"شرح صحيح البخاري كتاب الفتن من باب ٦","publishedAt":"2018-12-30T20:43:12Z","duration":"PT38M28S","thumbnail":"https://i.ytimg.com/vi/-xaBcDnSWjY/mqdefault.jpg","viewCount":"956","playlistId":"PLEkQk5xrP-tlEerGoLa1AFy-2XvQ-sovv","playlistName":"شرح صحيح البخاري - أ.د. يسري جبر (كاملا)","category":"حديث"},{"id":"fJXst5LJl3Y","title":"شرح صحيح البخاري - كتاب صلا‎ة التراويح","publishedAt":"2017-04-16T12:56:07Z","duration":"PT32M52S","thumbnail":"https://i.ytimg.com/vi/fJXst5LJl3Y/mqdefault.jpg","viewCount":"945","playlistId":"PLEkQk5xrP-tlEerGoLa1AFy-2XvQ-sovv","playlistName":"شرح صحيح البخاري - أ.د. يسري جبر (كاملا)","category":"حديث"},{"id":"xRtPVBFY9_o","title":"شرح صحيح البخاري   كتاب الحج من باب ٥","publishedAt":"2017-02-28T12:12:40Z","duration":"PT27M34S","thumbnail":"https://i.ytimg.com/vi/xRtPVBFY9_o/mqdefault.jpg","viewCount":"940","playlistId":"PLEkQk5xrP-tlEerGoLa1AFy-2XvQ-sovv","playlistName":"شرح صحيح البخاري - أ.د. يسري جبر (كاملا)","category":"حديث"},{"id":"TNOq6TrqDv0","title":"شرح صحيح البخاري كتاب الأذان من باب ١٢٩","publishedAt":"2016-11-25T06:39:22Z","duration":"PT35M37S","thumbnail":"https://i.ytimg.com/vi/TNOq6TrqDv0/mqdefault.jpg","viewCount":"939","playlistId":"PLEkQk5xrP-tlEerGoLa1AFy-2XvQ-sovv","playlistName":"شرح صحيح البخاري - أ.د. يسري جبر (كاملا)","category":"حديث"},{"id":"AcoaRgelAGA","title":"شرح صحيح البخاري -  كتاب الحج من باب ٣٣","publishedAt":"2017-03-04T14:16:07Z","duration":"PT43M36S","thumbnail":"https://i.ytimg.com/vi/AcoaRgelAGA/mqdefault.jpg","viewCount":"936","playlistId":"PLEkQk5xrP-tlEerGoLa1AFy-2XvQ-sovv","playlistName":"شرح صحيح البخاري - أ.د. يسري جبر (كاملا)","category":"حديث"},{"id":"lrSFCRZDlmc","title":"شرح صحيح البخاري كتاب الدعوات من أوله","publishedAt":"2018-10-02T10:18:09Z","duration":"PT16M46S","thumbnail":"https://i.ytimg.com/vi/lrSFCRZDlmc/mqdefault.jpg","viewCount":"935","playlistId":"PLEkQk5xrP-tlEerGoLa1AFy-2XvQ-sovv","playlistName":"شرح صحيح البخاري - أ.د. يسري جبر (كاملا)","category":"حديث"},{"id":"k62LIGPhFVM","title":"شرح صحيح البخاري - كتاب البيوع من باب ١٠١","publishedAt":"2017-05-05T20:33:48Z","duration":"PT44M59S","thumbnail":"https://i.ytimg.com/vi/k62LIGPhFVM/mqdefault.jpg","viewCount":"934","playlistId":"PLEkQk5xrP-tlEerGoLa1AFy-2XvQ-sovv","playlistName":"شرح صحيح البخاري - أ.د. يسري جبر (كاملا)","category":"حديث"},{"id":"VPKR4Nx3GyY","title":"شرح صحيح البخاري - كتاب الكسوف من أوله","publishedAt":"2016-12-19T08:49:51Z","duration":"PT44M27S","thumbnail":"https://i.ytimg.com/vi/VPKR4Nx3GyY/mqdefault.jpg","viewCount":"930","playlistId":"PLEkQk5xrP-tlEerGoLa1AFy-2XvQ-sovv","playlistName":"شرح صحيح البخاري - أ.د. يسري جبر (كاملا)","category":"حديث"},{"id":"gzdNfQxn4JU","title":"شرح صحيح البخاري - كتاب العمرة من باب ١٠","publishedAt":"2017-03-22T20:45:45Z","duration":"PT36M57S","thumbnail":"https://i.ytimg.com/vi/gzdNfQxn4JU/mqdefault.jpg","viewCount":"930","playlistId":"PLEkQk5xrP-tlEerGoLa1AFy-2XvQ-sovv","playlistName":"شرح صحيح البخاري - أ.د. يسري جبر (كاملا)","category":"حديث"},{"id":"lz8Ir2PFcY0","title":"شرح صحيح البخاري كتاب الأذان من باب ٩٦","publishedAt":"2016-11-23T07:12:34Z","duration":"PT31M12S","thumbnail":"https://i.ytimg.com/vi/lz8Ir2PFcY0/mqdefault.jpg","viewCount":"928","playlistId":"PLEkQk5xrP-tlEerGoLa1AFy-2XvQ-sovv","playlistName":"شرح صحيح البخاري - أ.د. يسري جبر (كاملا)","category":"حديث"},{"id":"7-b3fPy78Cw","title":"شرح صحيح البخاري - كتاب الزكاة من باب ٢٠","publishedAt":"2017-02-16T18:35:12Z","duration":"PT36M37S","thumbnail":"https://i.ytimg.com/vi/7-b3fPy78Cw/mqdefault.jpg","viewCount":"927","playlistId":"PLEkQk5xrP-tlEerGoLa1AFy-2XvQ-sovv","playlistName":"شرح صحيح البخاري - أ.د. يسري جبر (كاملا)","category":"حديث"},{"id":"YpCFKUDkFJ4","title":"شرح صحيح البخاري كتاب الأذان من باب ١٥٥","publishedAt":"2016-11-28T11:29:47Z","duration":"PT32M16S","thumbnail":"https://i.ytimg.com/vi/YpCFKUDkFJ4/mqdefault.jpg","viewCount":"926","playlistId":"PLEkQk5xrP-tlEerGoLa1AFy-2XvQ-sovv","playlistName":"شرح صحيح البخاري - أ.د. يسري جبر (كاملا)","category":"حديث"},{"id":"lQCjPq6flaU","title":"شرح صحيح البخاري - كتاب الزكاة من باب ١٧","publishedAt":"2017-02-15T20:05:44Z","duration":"PT41M21S","thumbnail":"https://i.ytimg.com/vi/lQCjPq6flaU/mqdefault.jpg","viewCount":"926","playlistId":"PLEkQk5xrP-tlEerGoLa1AFy-2XvQ-sovv","playlistName":"شرح صحيح البخاري - أ.د. يسري جبر (كاملا)","category":"حديث"},{"id":"fiuvX-iPD-Q","title":"شرح صحيح البخاري كتاب الاستسقاء من أوله","publishedAt":"2016-12-10T04:24:20Z","duration":"PT38M38S","thumbnail":"https://i.ytimg.com/vi/fiuvX-iPD-Q/mqdefault.jpg","viewCount":"925","playlistId":"PLEkQk5xrP-tlEerGoLa1AFy-2XvQ-sovv","playlistName":"شرح صحيح البخاري - أ.د. يسري جبر (كاملا)","category":"حديث"}],"total":719,"page":7,"pageSize":24,"totalPages":30}