{"items":[{"id":"54ex6_9iyKg","title":"شرح صحيح البخاري   كتاب المغازي من باب ١٩","publishedAt":"2018-01-15T05:21:40Z","duration":"PT38M55S","thumbnail":"https://i.ytimg.com/vi/54ex6_9iyKg/mqdefault.jpg","viewCount":"594","playlistId":"PLEkQk5xrP-tlEerGoLa1AFy-2XvQ-sovv","playlistName":"شرح صحيح البخاري - أ.د. يسري جبر (كاملا)","category":"حديث"},{"id":"DIcoGTKw3WY","title":"شرح صحيح البخاري كتاب التفسير فى سورة يوسف من باب ١","publishedAt":"2018-03-31T08:11:52Z","duration":"PT33M12S","thumbnail":"https://i.ytimg.com/vi/DIcoGTKw3WY/mqdefault.jpg","viewCount":"593","playlistId":"PLEkQk5xrP-tlEerGoLa1AFy-2XvQ-sovv","playlistName":"شرح صحيح البخاري - أ.د. يسري جبر (كاملا)","category":"حديث"},{"id":"s_NJBM7w9cY","title":"شرح صحيح البخاري- كتاب المناقب تكملة باب ٢٦ المجلس الرابع","publishedAt":"2017-11-03T10:54:11Z","duration":"PT35M3S","thumbnail":"https://i.ytimg.com/vi/s_NJBM7w9cY/mqdefault.jpg","viewCount":"592","playlistId":"PLEkQk5xrP-tlEerGoLa1AFy-2XvQ-sovv","playlistName":"شرح صحيح البخاري - أ.د. يسري جبر (كاملا)","category":"حديث"},{"id":"7NkqtKAf-DY","title":"شرح صحيح البخاري كتاب الأيمان والنذور من أوله","publishedAt":"2018-11-10T14:25:23Z","duration":"PT32M55S","thumbnail":"https://i.ytimg.com/vi/7NkqtKAf-DY/mqdefault.jpg","viewCount":"592","playlistId":"PLEkQk5xrP-tlEerGoLa1AFy-2XvQ-sovv","playlistName":"شرح صحيح البخاري - أ.د. يسري جبر (كاملا)","category":"حديث"},{"id":"rwT2PQ8dqcM","title":"شرح صحيح البخاري - كتاب المغازي من باب ٥٠","publishedAt":"2018-02-18T20:57:11Z","duration":"PT26M56S","thumbnail":"https://i.ytimg.com/vi/rwT2PQ8dqcM/mqdefault.jpg","viewCount":"592","playlistId":"PLEkQk5xrP-tlEerGoLa1AFy-2XvQ-sovv","playlistName":"شرح صحيح البخاري - أ.د. يسري جبر (كاملا)","category":"حديث"},{"id":"gf5GUX8A1tM","title":"شرح صحيح البخاري -  كتاب المغازي تكملة باب ١٢ المجلس الثاني","publishedAt":"2017-12-27T13:04:06Z","duration":"PT33M35S","thumbnail":"https://i.ytimg.com/vi/gf5GUX8A1tM/mqdefault.jpg","viewCount":"592","playlistId":"PLEkQk5xrP-tlEerGoLa1AFy-2XvQ-sovv","playlistName":"شرح صحيح البخاري - أ.د. يسري جبر (كاملا)","category":"حديث"},{"id":"wRGQliOb7PA","title":"شرح صحيح البخاري كتاب النكاح من باب ١٦","publishedAt":"2018-05-21T14:36:12Z","duration":"PT36M32S","thumbnail":"https://i.ytimg.com/vi/wRGQliOb7PA/mqdefault.jpg","viewCount":"592","playlistId":"PLEkQk5xrP-tlEerGoLa1AFy-2XvQ-sovv","playlistName":"شرح صحيح البخاري - أ.د. يسري جبر (كاملا)","category":"حديث"},{"id":"KGi98UGcKV8","title":"شرح صحيح البخاري كتاب النكاح من باب ١٨","publishedAt":"2018-05-20T23:13:58Z","duration":"PT44M15S","thumbnail":"https://i.ytimg.com/vi/KGi98UGcKV8/mqdefault.jpg","viewCount":"592","playlistId":"PLEkQk5xrP-tlEerGoLa1AFy-2XvQ-sovv","playlistName":"شرح صحيح البخاري - أ.د. يسري جبر (كاملا)","category":"حديث"},{"id":"DafnZToo39k","title":"شرح صحيح البخاري كتاب التفسير فى سورة الاحزاب من باب ٧","publishedAt":"2018-04-15T18:33:31Z","duration":"PT42M27S","thumbnail":"https://i.ytimg.com/vi/DafnZToo39k/mqdefault.jpg","viewCount":"591","playlistId":"PLEkQk5xrP-tlEerGoLa1AFy-2XvQ-sovv","playlistName":"شرح صحيح البخاري - أ.د. يسري جبر (كاملا)","category":"حديث"},{"id":"IdhIhH_wjik","title":"شرح صحيح البخاري - كتاب أحاديث الأنبياء من باب ٣٧","publishedAt":"2017-10-12T20:20:20Z","duration":"PT35M41S","thumbnail":"https://i.ytimg.com/vi/IdhIhH_wjik/mqdefault.jpg","viewCount":"590","playlistId":"PLEkQk5xrP-tlEerGoLa1AFy-2XvQ-sovv","playlistName":"شرح صحيح البخاري - أ.د. يسري جبر (كاملا)","category":"حديث"},{"id":"CMQ-plazkC0","title":"شرح صحيح البخاري كتاب الطب من باب ٣٠","publishedAt":"2018-08-07T17:21:42Z","duration":"PT31M56S","thumbnail":"https://i.ytimg.com/vi/CMQ-plazkC0/mqdefault.jpg","viewCount":"589","playlistId":"PLEkQk5xrP-tlEerGoLa1AFy-2XvQ-sovv","playlistName":"شرح صحيح البخاري - أ.د. يسري جبر (كاملا)","category":"حديث"},{"id":"RES1DPc0rKA","title":"شرح صحيح البخاري كتاب التعبير من باب ٩","publishedAt":"2018-12-23T19:52:41Z","duration":"PT42M48S","thumbnail":"https://i.ytimg.com/vi/RES1DPc0rKA/mqdefault.jpg","viewCount":"588","playlistId":"PLEkQk5xrP-tlEerGoLa1AFy-2XvQ-sovv","playlistName":"شرح صحيح البخاري - أ.د. يسري جبر (كاملا)","category":"حديث"},{"id":"4VgtA29dKvw","title":"شرح صحيح البخاري - كتاب الجهاد والسير من باب ١٤٢","publishedAt":"2017-08-17T16:34:31Z","duration":"PT42M10S","thumbnail":"https://i.ytimg.com/vi/4VgtA29dKvw/mqdefault.jpg","viewCount":"587","playlistId":"PLEkQk5xrP-tlEerGoLa1AFy-2XvQ-sovv","playlistName":"شرح صحيح البخاري - أ.د. يسري جبر (كاملا)","category":"حديث"},{"id":"4xcMw0xqpg4","title":"شرح صحيح البخاري- كتاب المناقب من باب ٢٧","publishedAt":"2017-11-05T21:05:00Z","duration":"PT31M41S","thumbnail":"https://i.ytimg.com/vi/4xcMw0xqpg4/mqdefault.jpg","viewCount":"587","playlistId":"PLEkQk5xrP-tlEerGoLa1AFy-2XvQ-sovv","playlistName":"شرح صحيح البخاري - أ.د. يسري جبر (كاملا)","category":"حديث"},{"id":"aMOgT9eewUE","title":"شرح صحيح البخاري كتاب المغازي من باب ٨٢","publishedAt":"2018-03-03T21:17:34Z","duration":"PT41M48S","thumbnail":"https://i.ytimg.com/vi/aMOgT9eewUE/mqdefault.jpg","viewCount":"586","playlistId":"PLEkQk5xrP-tlEerGoLa1AFy-2XvQ-sovv","playlistName":"شرح صحيح البخاري - أ.د. يسري جبر (كاملا)","category":"حديث"},{"id":"a4paMl7dujY","title":"شرح صحيح البخاري كتاب التوحيد من باب ٣٦","publishedAt":"2019-02-11T21:01:25Z","duration":"PT41M","thumbnail":"https://i.ytimg.com/vi/a4paMl7dujY/mqdefault.jpg","viewCount":"586","playlistId":"PLEkQk5xrP-tlEerGoLa1AFy-2XvQ-sovv","playlistName":"شرح صحيح البخاري - أ.د. يسري جبر (كاملا)","category":"حديث"},{"id":"egffhSvWTcQ","title":"شرح صحيح البخاري كتاب الأدب من باب ٩٩","publishedAt":"2018-09-19T08:04:46Z","duration":"PT32M24S","thumbnail":"https://i.ytimg.com/vi/egffhSvWTcQ/mqdefault.jpg","viewCount":"585","playlistId":"PLEkQk5xrP-tlEerGoLa1AFy-2XvQ-sovv","playlistName":"شرح صحيح البخاري - أ.د. يسري جبر (كاملا)","category":"حديث"},{"id":"Z5JqsZtnX5k","title":"شرح صحيح البخاري كتاب المغازي من باب ٦٨","publishedAt":"2018-02-26T14:32:40Z","duration":"PT33M37S","thumbnail":"https://i.ytimg.com/vi/Z5JqsZtnX5k/mqdefault.jpg","viewCount":"585","playlistId":"PLEkQk5xrP-tlEerGoLa1AFy-2XvQ-sovv","playlistName":"شرح صحيح البخاري - أ.د. يسري جبر (كاملا)","category":"حديث"},{"id":"53LJFgpyb9M","title":"شرح صحيح البخاري - كتاب الشروط من باب ٦","publishedAt":"2017-07-07T14:37:39Z","duration":"PT28M10S","thumbnail":"https://i.ytimg.com/vi/53LJFgpyb9M/mqdefault.jpg","viewCount":"585","playlistId":"PLEkQk5xrP-tlEerGoLa1AFy-2XvQ-sovv","playlistName":"شرح صحيح البخاري - أ.د. يسري جبر (كاملا)","category":"حديث"},{"id":"p7ZzmILwE-I","title":"شرح صحيح البخاري كتاب الرقاق من باب ٦","publishedAt":"2018-10-19T12:57:48Z","duration":"PT40M58S","thumbnail":"https://i.ytimg.com/vi/p7ZzmILwE-I/mqdefault.jpg","viewCount":"585","playlistId":"PLEkQk5xrP-tlEerGoLa1AFy-2XvQ-sovv","playlistName":"شرح صحيح البخاري - أ.د. يسري جبر (كاملا)","category":"حديث"},{"id":"usiFg4DEPIs","title":"شرح صحيح البخاري - كتاب الجهاد والسير من باب ١١٠","publishedAt":"2017-08-12T20:05:01Z","duration":"PT39M6S","thumbnail":"https://i.ytimg.com/vi/usiFg4DEPIs/mqdefault.jpg","viewCount":"584","playlistId":"PLEkQk5xrP-tlEerGoLa1AFy-2XvQ-sovv","playlistName":"شرح صحيح البخاري - أ.د. يسري جبر (كاملا)","category":"حديث"},{"id":"UtXweicB500","title":"شرح صحيح البخاري  كتاب فضائل الصحابة من باب ١٠","publishedAt":"2017-11-21T14:27:55Z","duration":"PT33M25S","thumbnail":"https://i.ytimg.com/vi/UtXweicB500/mqdefault.jpg","viewCount":"584","playlistId":"PLEkQk5xrP-tlEerGoLa1AFy-2XvQ-sovv","playlistName":"شرح صحيح البخاري - أ.د. يسري جبر (كاملا)","category":"حديث"},{"id":"nefz0MRGT6k","title":"شرح صحيح البخاري كتاب النكاح من باب ٢٧","publishedAt":"2018-05-29T10:48:14Z","duration":"PT34M37S","thumbnail":"https://i.ytimg.com/vi/nefz0MRGT6k/mqdefault.jpg","viewCount":"584","playlistId":"PLEkQk5xrP-tlEerGoLa1AFy-2XvQ-sovv","playlistName":"شرح صحيح البخاري - أ.د. يسري جبر (كاملا)","category":"حديث"},{"id":"w7IOmfMEKGw","title":"شرح صحيح البخاري - كتاب الجزية والموادعة من باب ٩","publishedAt":"2017-09-08T22:03:42Z","duration":"PT38M2S","thumbnail":"https://i.ytimg.com/vi/w7IOmfMEKGw/mqdefault.jpg","viewCount":"582","playlistId":"PLEkQk5xrP-tlEerGoLa1AFy-2XvQ-sovv","playlistName":"شرح صحيح البخاري - أ.د. يسري جبر (كاملا)","category":"حديث"}],"total":719,"page":17,"pageSize":24,"totalPages":30}