{"items":[{"id":"Ut43jJLoxxs","title":"شرح صحيح البخاري كتاب التفسير من سورة والعاديات","publishedAt":"2018-05-05T19:56:54Z","duration":"PT1H9S","thumbnail":"https://i.ytimg.com/vi/Ut43jJLoxxs/mqdefault.jpg","viewCount":"566","playlistId":"PLEkQk5xrP-tlEerGoLa1AFy-2XvQ-sovv","playlistName":"شرح صحيح البخاري - أ.د. يسري جبر (كاملا)","category":"حديث"},{"id":"UN1GAwvbTSc","title":"شرح صحيح البخاري كتاب الرقاق من باب ١٩","publishedAt":"2018-10-25T10:00:02Z","duration":"PT32M36S","thumbnail":"https://i.ytimg.com/vi/UN1GAwvbTSc/mqdefault.jpg","viewCount":"566","playlistId":"PLEkQk5xrP-tlEerGoLa1AFy-2XvQ-sovv","playlistName":"شرح صحيح البخاري - أ.د. يسري جبر (كاملا)","category":"حديث"},{"id":"GendwVRzR_g","title":"شرح صحيح البخاري- كتاب أحاديث الأنبياء من باب ٥٤","publishedAt":"2017-10-20T18:31:30Z","duration":"PT40M2S","thumbnail":"https://i.ytimg.com/vi/GendwVRzR_g/mqdefault.jpg","viewCount":"566","playlistId":"PLEkQk5xrP-tlEerGoLa1AFy-2XvQ-sovv","playlistName":"شرح صحيح البخاري - أ.د. يسري جبر (كاملا)","category":"حديث"},{"id":"Q5m-dYFVOBI","title":"شرح صحيح البخاري كتاب الأطعمة من باب ٢٧","publishedAt":"2018-07-09T22:12:23Z","duration":"PT37M55S","thumbnail":"https://i.ytimg.com/vi/Q5m-dYFVOBI/mqdefault.jpg","viewCount":"565","playlistId":"PLEkQk5xrP-tlEerGoLa1AFy-2XvQ-sovv","playlistName":"شرح صحيح البخاري - أ.د. يسري جبر (كاملا)","category":"حديث"},{"id":"Avlr32eebFg","title":"شرح صحيح البخاري كتاب الأدب من باب ٩٦","publishedAt":"2018-09-18T08:22:11Z","duration":"PT30M26S","thumbnail":"https://i.ytimg.com/vi/Avlr32eebFg/mqdefault.jpg","viewCount":"565","playlistId":"PLEkQk5xrP-tlEerGoLa1AFy-2XvQ-sovv","playlistName":"شرح صحيح البخاري - أ.د. يسري جبر (كاملا)","category":"حديث"},{"id":"nktXsga_24U","title":"شرح صحيح البخاري كتاب الرقاق من باب ٣٠","publishedAt":"2018-10-28T12:45:15Z","duration":"PT37M55S","thumbnail":"https://i.ytimg.com/vi/nktXsga_24U/mqdefault.jpg","viewCount":"565","playlistId":"PLEkQk5xrP-tlEerGoLa1AFy-2XvQ-sovv","playlistName":"شرح صحيح البخاري - أ.د. يسري جبر (كاملا)","category":"حديث"},{"id":"WV5hpZadPU4","title":"شرح صحيح البخاري- كتاب أحاديث الأنبياء تكملة باب ٥٧ من حديث علي بن عبد الله","publishedAt":"2017-10-25T12:48:30Z","duration":"PT29M34S","thumbnail":"https://i.ytimg.com/vi/WV5hpZadPU4/mqdefault.jpg","viewCount":"565","playlistId":"PLEkQk5xrP-tlEerGoLa1AFy-2XvQ-sovv","playlistName":"شرح صحيح البخاري - أ.د. يسري جبر (كاملا)","category":"حديث"},{"id":"ex1UWoxSSGg","title":"شرح صحيح البخاري كتاب التفسير فى سورة النور من باب ٥","publishedAt":"2018-04-10T16:17:01Z","duration":"PT37M20S","thumbnail":"https://i.ytimg.com/vi/ex1UWoxSSGg/mqdefault.jpg","viewCount":"564","playlistId":"PLEkQk5xrP-tlEerGoLa1AFy-2XvQ-sovv","playlistName":"شرح صحيح البخاري - أ.د. يسري جبر (كاملا)","category":"حديث"},{"id":"CblFwzKu9Ho","title":"شرح صحيح البخاري كتاب النكاح من باب ٨٣","publishedAt":"2018-06-06T16:13:38Z","duration":"PT37M2S","thumbnail":"https://i.ytimg.com/vi/CblFwzKu9Ho/mqdefault.jpg","viewCount":"564","playlistId":"PLEkQk5xrP-tlEerGoLa1AFy-2XvQ-sovv","playlistName":"شرح صحيح البخاري - أ.د. يسري جبر (كاملا)","category":"حديث"},{"id":"i1QeXZ53vyc","title":"شرح صحيح البخاري كتاب الأدب من باب ١٠٩","publishedAt":"2018-09-20T18:21:30Z","duration":"PT40M58S","thumbnail":"https://i.ytimg.com/vi/i1QeXZ53vyc/mqdefault.jpg","viewCount":"563","playlistId":"PLEkQk5xrP-tlEerGoLa1AFy-2XvQ-sovv","playlistName":"شرح صحيح البخاري - أ.د. يسري جبر (كاملا)","category":"حديث"},{"id":"a_DcxaEJmXI","title":"شرح صحيح البخاري - كتاب الجهاد والسير من باب ٥٢","publishedAt":"2017-08-04T18:11:02Z","duration":"PT25M55S","thumbnail":"https://i.ytimg.com/vi/a_DcxaEJmXI/mqdefault.jpg","viewCount":"563","playlistId":"PLEkQk5xrP-tlEerGoLa1AFy-2XvQ-sovv","playlistName":"شرح صحيح البخاري - أ.د. يسري جبر (كاملا)","category":"حديث"},{"id":"-GXpYosplMU","title":"شرح صحيح البخاري كتاب التوحيد من باب ٢٦","publishedAt":"2019-02-07T22:30:02Z","duration":"PT33M26S","thumbnail":"https://i.ytimg.com/vi/-GXpYosplMU/mqdefault.jpg","viewCount":"563","playlistId":"PLEkQk5xrP-tlEerGoLa1AFy-2XvQ-sovv","playlistName":"شرح صحيح البخاري - أ.د. يسري جبر (كاملا)","category":"حديث"},{"id":"rl91aq3PYeU","title":"شرح صحيح البخاري كتاب اللباس من باب ٧","publishedAt":"2018-08-13T20:42:58Z","duration":"PT40M6S","thumbnail":"https://i.ytimg.com/vi/rl91aq3PYeU/mqdefault.jpg","viewCount":"562","playlistId":"PLEkQk5xrP-tlEerGoLa1AFy-2XvQ-sovv","playlistName":"شرح صحيح البخاري - أ.د. يسري جبر (كاملا)","category":"حديث"},{"id":"YJhjvQfaIn8","title":"شرح صحيح البخاري كتاب الأدب من باب ٦٤","publishedAt":"2018-09-08T20:44:47Z","duration":"PT36M44S","thumbnail":"https://i.ytimg.com/vi/YJhjvQfaIn8/mqdefault.jpg","viewCount":"562","playlistId":"PLEkQk5xrP-tlEerGoLa1AFy-2XvQ-sovv","playlistName":"شرح صحيح البخاري - أ.د. يسري جبر (كاملا)","category":"حديث"},{"id":"atiziCDik_A","title":"شرح صحيح البخاري - كتاب الجهاد والسير من باب ٤٣","publishedAt":"2017-08-03T21:58:05Z","duration":"PT36M35S","thumbnail":"https://i.ytimg.com/vi/atiziCDik_A/mqdefault.jpg","viewCount":"561","playlistId":"PLEkQk5xrP-tlEerGoLa1AFy-2XvQ-sovv","playlistName":"شرح صحيح البخاري - أ.د. يسري جبر (كاملا)","category":"حديث"},{"id":"pZNV5StFnmk","title":"شرح صحيح البخاري كتاب الاستئذان من أوله","publishedAt":"2018-09-22T19:20:20Z","duration":"PT38M55S","thumbnail":"https://i.ytimg.com/vi/pZNV5StFnmk/mqdefault.jpg","viewCount":"560","playlistId":"PLEkQk5xrP-tlEerGoLa1AFy-2XvQ-sovv","playlistName":"شرح صحيح البخاري - أ.د. يسري جبر (كاملا)","category":"حديث"},{"id":"un8jAfjM9qs","title":"شرح صحيح البخاري كتاب الدعوات من باب ٦٤","publishedAt":"2018-10-15T12:39:08Z","duration":"PT41M","thumbnail":"https://i.ytimg.com/vi/un8jAfjM9qs/mqdefault.jpg","viewCount":"560","playlistId":"PLEkQk5xrP-tlEerGoLa1AFy-2XvQ-sovv","playlistName":"شرح صحيح البخاري - أ.د. يسري جبر (كاملا)","category":"حديث"},{"id":"MtoA8SIGk38","title":"شرح صحيح البخاري كتاب المغازي من باب ٦٥","publishedAt":"2018-02-25T15:25:58Z","duration":"PT26M7S","thumbnail":"https://i.ytimg.com/vi/MtoA8SIGk38/mqdefault.jpg","viewCount":"559","playlistId":"PLEkQk5xrP-tlEerGoLa1AFy-2XvQ-sovv","playlistName":"شرح صحيح البخاري - أ.د. يسري جبر (كاملا)","category":"حديث"},{"id":"tsN_JNLlLqQ","title":"شرح صحيح البخاري - كتاب الهبة من باب ٢٠","publishedAt":"2017-06-17T14:10:55Z","duration":"PT22M49S","thumbnail":"https://i.ytimg.com/vi/tsN_JNLlLqQ/mqdefault.jpg","viewCount":"559","playlistId":"PLEkQk5xrP-tlEerGoLa1AFy-2XvQ-sovv","playlistName":"شرح صحيح البخاري - أ.د. يسري جبر (كاملا)","category":"حديث"},{"id":"7BaxMqnXRgs","title":"شرح صحيح البخاري كتاب التفسير فى سورة السبأ من باب ١","publishedAt":"2018-04-16T19:16:21Z","duration":"PT40M47S","thumbnail":"https://i.ytimg.com/vi/7BaxMqnXRgs/mqdefault.jpg","viewCount":"559","playlistId":"PLEkQk5xrP-tlEerGoLa1AFy-2XvQ-sovv","playlistName":"شرح صحيح البخاري - أ.د. يسري جبر (كاملا)","category":"حديث"},{"id":"o1wNNmJx3t8","title":"شرح صحيح البخاري  كتاب فضائل الصحابة من باب ٢١","publishedAt":"2017-11-29T20:11:14Z","duration":"PT28M26S","thumbnail":"https://i.ytimg.com/vi/o1wNNmJx3t8/mqdefault.jpg","viewCount":"558","playlistId":"PLEkQk5xrP-tlEerGoLa1AFy-2XvQ-sovv","playlistName":"شرح صحيح البخاري - أ.د. يسري جبر (كاملا)","category":"حديث"},{"id":"P3mwTvWhSl8","title":"شرح صحيح البخاري كتاب التفسير فى سورة الكهف من باب ٣","publishedAt":"2018-04-06T11:31:47Z","duration":"PT33M38S","thumbnail":"https://i.ytimg.com/vi/P3mwTvWhSl8/mqdefault.jpg","viewCount":"558","playlistId":"PLEkQk5xrP-tlEerGoLa1AFy-2XvQ-sovv","playlistName":"شرح صحيح البخاري - أ.د. يسري جبر (كاملا)","category":"حديث"},{"id":"8gXZTE9jkvw","title":"شرح صحيح البخاري كتاب الأطعمة من باب ٦","publishedAt":"2018-07-03T21:55:31Z","duration":"PT36M18S","thumbnail":"https://i.ytimg.com/vi/8gXZTE9jkvw/mqdefault.jpg","viewCount":"557","playlistId":"PLEkQk5xrP-tlEerGoLa1AFy-2XvQ-sovv","playlistName":"شرح صحيح البخاري - أ.د. يسري جبر (كاملا)","category":"حديث"},{"id":"J5o3ymJqwXQ","title":"شرح صحيح البخاري - كتاب الجهاد والسير من باب ١٧٨","publishedAt":"2017-08-22T17:20:28Z","duration":"PT31M40S","thumbnail":"https://i.ytimg.com/vi/J5o3ymJqwXQ/mqdefault.jpg","viewCount":"557","playlistId":"PLEkQk5xrP-tlEerGoLa1AFy-2XvQ-sovv","playlistName":"شرح صحيح البخاري - أ.د. يسري جبر (كاملا)","category":"حديث"}],"total":719,"page":19,"pageSize":24,"totalPages":30}