{"items":[{"id":"XE7akJS72Mg","title":"شرح صحيح البخاري ( كتاب الصلاة مجلس ٥ )","publishedAt":"2016-10-01T10:16:33Z","duration":"PT41M56S","thumbnail":"https://i.ytimg.com/vi/XE7akJS72Mg/mqdefault.jpg","viewCount":"1639","playlistId":"PLEkQk5xrP-tlEerGoLa1AFy-2XvQ-sovv","playlistName":"شرح صحيح البخاري - أ.د. يسري جبر (كاملا)","category":"حديث"},{"id":"ZUS73C0TpM8","title":"شرح صحيح البخاري - كتاب الوكالة","publishedAt":"2017-05-12T08:42:02Z","duration":"PT40M38S","thumbnail":"https://i.ytimg.com/vi/ZUS73C0TpM8/mqdefault.jpg","viewCount":"1603","playlistId":"PLEkQk5xrP-tlEerGoLa1AFy-2XvQ-sovv","playlistName":"شرح صحيح البخاري - أ.د. يسري جبر (كاملا)","category":"حديث"},{"id":"EfpdbN8aPAk","title":"شرح صحيح البخاري ( كتاب الوضوء مجلس ٧ )","publishedAt":"2016-09-02T00:01:34Z","duration":"PT35M17S","thumbnail":"https://i.ytimg.com/vi/EfpdbN8aPAk/mqdefault.jpg","viewCount":"1592","playlistId":"PLEkQk5xrP-tlEerGoLa1AFy-2XvQ-sovv","playlistName":"شرح صحيح البخاري - أ.د. يسري جبر (كاملا)","category":"حديث"},{"id":"-Nqihz1iOug","title":"شرح صحيح البخاري ( كتاب الغسل مجلس ٣ )","publishedAt":"2016-09-29T19:53:36Z","duration":"PT35M37S","thumbnail":"https://i.ytimg.com/vi/-Nqihz1iOug/mqdefault.jpg","viewCount":"1504","playlistId":"PLEkQk5xrP-tlEerGoLa1AFy-2XvQ-sovv","playlistName":"شرح صحيح البخاري - أ.د. يسري جبر (كاملا)","category":"حديث"},{"id":"C7GAdCi2u1w","title":"شرح صحيح البخاري كتاب الأدب من أوله","publishedAt":"2018-08-25T22:21:30Z","duration":"PT37M48S","thumbnail":"https://i.ytimg.com/vi/C7GAdCi2u1w/mqdefault.jpg","viewCount":"1485","playlistId":"PLEkQk5xrP-tlEerGoLa1AFy-2XvQ-sovv","playlistName":"شرح صحيح البخاري - أ.د. يسري جبر (كاملا)","category":"حديث"},{"id":"df1OhgBz3vY","title":"شرح صحيح البخاري ( كتاب الوضوء مجلس ٨ )","publishedAt":"2016-09-02T08:07:24Z","duration":"PT31M51S","thumbnail":"https://i.ytimg.com/vi/df1OhgBz3vY/mqdefault.jpg","viewCount":"1481","playlistId":"PLEkQk5xrP-tlEerGoLa1AFy-2XvQ-sovv","playlistName":"شرح صحيح البخاري - أ.د. يسري جبر (كاملا)","category":"حديث"},{"id":"c-wlcNnDy_I","title":"شرح صحيح البخاري ( كتاب الوضوء مجلس ٩ )","publishedAt":"2016-09-05T01:13:25Z","duration":"PT31M28S","thumbnail":"https://i.ytimg.com/vi/c-wlcNnDy_I/mqdefault.jpg","viewCount":"1475","playlistId":"PLEkQk5xrP-tlEerGoLa1AFy-2XvQ-sovv","playlistName":"شرح صحيح البخاري - أ.د. يسري جبر (كاملا)","category":"حديث"},{"id":"QuWkqSNbMNI","title":"شرح صحيح البخاري - كتاب المغازي من أوله","publishedAt":"2017-12-19T16:41:59Z","duration":"PT32M29S","thumbnail":"https://i.ytimg.com/vi/QuWkqSNbMNI/mqdefault.jpg","viewCount":"1475","playlistId":"PLEkQk5xrP-tlEerGoLa1AFy-2XvQ-sovv","playlistName":"شرح صحيح البخاري - أ.د. يسري جبر (كاملا)","category":"حديث"},{"id":"5bSRn-sbZ_o","title":"شرح صحيح البخاري كتاب الأذان من باب ١","publishedAt":"2016-11-11T04:08:27Z","duration":"PT38M30S","thumbnail":"https://i.ytimg.com/vi/5bSRn-sbZ_o/mqdefault.jpg","viewCount":"1456","playlistId":"PLEkQk5xrP-tlEerGoLa1AFy-2XvQ-sovv","playlistName":"شرح صحيح البخاري - أ.د. يسري جبر (كاملا)","category":"حديث"},{"id":"9n_5eQL3ino","title":"شرح صحيح البخاري - كتاب الصلاة من باب 102","publishedAt":"2016-10-31T03:47:08Z","duration":"PT34M13S","thumbnail":"https://i.ytimg.com/vi/9n_5eQL3ino/mqdefault.jpg","viewCount":"1455","playlistId":"PLEkQk5xrP-tlEerGoLa1AFy-2XvQ-sovv","playlistName":"شرح صحيح البخاري - أ.د. يسري جبر (كاملا)","category":"حديث"},{"id":"6PKdTmx5F9Q","title":"شرح صحيح البخاري ( كتاب الحيض مجلس ٢ )","publishedAt":"2016-09-20T06:51:40Z","duration":"PT36M38S","thumbnail":"https://i.ytimg.com/vi/6PKdTmx5F9Q/mqdefault.jpg","viewCount":"1453","playlistId":"PLEkQk5xrP-tlEerGoLa1AFy-2XvQ-sovv","playlistName":"شرح صحيح البخاري - أ.د. يسري جبر (كاملا)","category":"حديث"},{"id":"aW8RRE8KM10","title":"شرح صحيح البخاري ( كتاب الصلاة مجلس ٧)","publishedAt":"2016-10-02T07:40:30Z","duration":"PT35M48S","thumbnail":"https://i.ytimg.com/vi/aW8RRE8KM10/mqdefault.jpg","viewCount":"1452","playlistId":"PLEkQk5xrP-tlEerGoLa1AFy-2XvQ-sovv","playlistName":"شرح صحيح البخاري - أ.د. يسري جبر (كاملا)","category":"حديث"},{"id":"a8FR5Ouqal4","title":"شرح صحيح البخاري كتاب مواقيت الصلاة من باب ٤","publishedAt":"2016-11-01T05:43:56Z","duration":"PT36M53S","thumbnail":"https://i.ytimg.com/vi/a8FR5Ouqal4/mqdefault.jpg","viewCount":"1440","playlistId":"PLEkQk5xrP-tlEerGoLa1AFy-2XvQ-sovv","playlistName":"شرح صحيح البخاري - أ.د. يسري جبر (كاملا)","category":"حديث"},{"id":"gcLQFvwhc9o","title":"شرح صحيح البخاري ( كتاب الصلاة مجلس ٤ )","publishedAt":"2016-10-01T08:57:42Z","duration":"PT31M47S","thumbnail":"https://i.ytimg.com/vi/gcLQFvwhc9o/mqdefault.jpg","viewCount":"1437","playlistId":"PLEkQk5xrP-tlEerGoLa1AFy-2XvQ-sovv","playlistName":"شرح صحيح البخاري - أ.د. يسري جبر (كاملا)","category":"حديث"},{"id":"TaebrLzX5MI","title":"شرح صحيح البخاري ( كتاب الصلاة مجلس ٩)","publishedAt":"2016-10-04T08:22:23Z","duration":"PT30M26S","thumbnail":"https://i.ytimg.com/vi/TaebrLzX5MI/mqdefault.jpg","viewCount":"1429","playlistId":"PLEkQk5xrP-tlEerGoLa1AFy-2XvQ-sovv","playlistName":"شرح صحيح البخاري - أ.د. يسري جبر (كاملا)","category":"حديث"},{"id":"A4FI_7e4bMA","title":"شرح صحيح البخاري ( كتاب الصلاة مجلس 10)","publishedAt":"2016-10-12T04:19:29Z","duration":"PT36M16S","thumbnail":"https://i.ytimg.com/vi/A4FI_7e4bMA/mqdefault.jpg","viewCount":"1425","playlistId":"PLEkQk5xrP-tlEerGoLa1AFy-2XvQ-sovv","playlistName":"شرح صحيح البخاري - أ.د. يسري جبر (كاملا)","category":"حديث"},{"id":"ZokRgARTiL0","title":"شرح صحيح البخاري ( كتاب الصلاة مجلس ٦)","publishedAt":"2016-10-01T10:16:10Z","duration":"PT35M11S","thumbnail":"https://i.ytimg.com/vi/ZokRgARTiL0/mqdefault.jpg","viewCount":"1421","playlistId":"PLEkQk5xrP-tlEerGoLa1AFy-2XvQ-sovv","playlistName":"شرح صحيح البخاري - أ.د. يسري جبر (كاملا)","category":"حديث"},{"id":"HPTIGsxh6CU","title":"شرح صحيح البخاري ( كتاب التيمم مجلس ١ )","publishedAt":"2016-09-27T20:45:55Z","duration":"PT30M59S","thumbnail":"https://i.ytimg.com/vi/HPTIGsxh6CU/mqdefault.jpg","viewCount":"1407","playlistId":"PLEkQk5xrP-tlEerGoLa1AFy-2XvQ-sovv","playlistName":"شرح صحيح البخاري - أ.د. يسري جبر (كاملا)","category":"حديث"},{"id":"45Rc-vqz2zg","title":"شرح صحيح البخاري - كتاب الزكاة من أوله","publishedAt":"2017-02-12T14:27:38Z","duration":"PT30M54S","thumbnail":"https://i.ytimg.com/vi/45Rc-vqz2zg/mqdefault.jpg","viewCount":"1388","playlistId":"PLEkQk5xrP-tlEerGoLa1AFy-2XvQ-sovv","playlistName":"شرح صحيح البخاري - أ.د. يسري جبر (كاملا)","category":"حديث"},{"id":"SHZa9RaHlJs","title":"شرح صحيح البخاري ( كتاب الحيض مجلس ٣ )","publishedAt":"2016-09-24T04:06:38Z","duration":"PT33M4S","thumbnail":"https://i.ytimg.com/vi/SHZa9RaHlJs/mqdefault.jpg","viewCount":"1357","playlistId":"PLEkQk5xrP-tlEerGoLa1AFy-2XvQ-sovv","playlistName":"شرح صحيح البخاري - أ.د. يسري جبر (كاملا)","category":"حديث"},{"id":"Thv3-oMW5xY","title":"شرح صحيح البخاري ( كتاب التيمم مجلس ٢ )","publishedAt":"2016-09-27T20:47:10Z","duration":"PT45M20S","thumbnail":"https://i.ytimg.com/vi/Thv3-oMW5xY/mqdefault.jpg","viewCount":"1346","playlistId":"PLEkQk5xrP-tlEerGoLa1AFy-2XvQ-sovv","playlistName":"شرح صحيح البخاري - أ.د. يسري جبر (كاملا)","category":"حديث"},{"id":"R4WRvDMeGxw","title":"شرح صحيح البخاري كتاب التفسير من سورة البقرة من أوله","publishedAt":"2018-03-06T14:12:18Z","duration":"PT29M57S","thumbnail":"https://i.ytimg.com/vi/R4WRvDMeGxw/mqdefault.jpg","viewCount":"1331","playlistId":"PLEkQk5xrP-tlEerGoLa1AFy-2XvQ-sovv","playlistName":"شرح صحيح البخاري - أ.د. يسري جبر (كاملا)","category":"حديث"},{"id":"LNAVUNEs96M","title":"شرح صحيح البخاري - كتاب التهجد من أوله","publishedAt":"2016-12-26T01:04:28Z","duration":"PT39M30S","thumbnail":"https://i.ytimg.com/vi/LNAVUNEs96M/mqdefault.jpg","viewCount":"1331","playlistId":"PLEkQk5xrP-tlEerGoLa1AFy-2XvQ-sovv","playlistName":"شرح صحيح البخاري - أ.د. يسري جبر (كاملا)","category":"حديث"},{"id":"mgBhGYZCGsw","title":"شرح صحيح البخاري - كتاب السهو","publishedAt":"2017-01-05T11:07:43Z","duration":"PT45M24S","thumbnail":"https://i.ytimg.com/vi/mgBhGYZCGsw/mqdefault.jpg","viewCount":"1323","playlistId":"PLEkQk5xrP-tlEerGoLa1AFy-2XvQ-sovv","playlistName":"شرح صحيح البخاري - أ.د. يسري جبر (كاملا)","category":"حديث"}],"total":719,"page":3,"pageSize":24,"totalPages":30}