{"items":[{"id":"s9Mtfnl3zGA","title":"شرح كتاب الأذكار من كلام سيد الأبرار للإمام النووى رضى الله عنه - المجلس الأول","publishedAt":"2014-11-19T17:05:52Z","duration":"PT18M44S","thumbnail":"https://i.ytimg.com/vi/s9Mtfnl3zGA/mqdefault.jpg","viewCount":"7413","playlistId":"PLEkQk5xrP-tkWS57Ubysh0ifJR8dmuEtE","playlistName":"شرح كتاب الأذكار للإمام النووي د. يسرى جبر","category":"حديث"},{"id":"Rf3MapC6WNw","title":"شرح كتاب الأذكار من كلام سيد الأبرار للإمام النووى رضى الله عنه - المجلس الثاني","publishedAt":"2014-11-21T18:21:52Z","duration":"PT25M55S","thumbnail":"https://i.ytimg.com/vi/Rf3MapC6WNw/mqdefault.jpg","viewCount":"2871","playlistId":"PLEkQk5xrP-tkWS57Ubysh0ifJR8dmuEtE","playlistName":"شرح كتاب الأذكار للإمام النووي د. يسرى جبر","category":"حديث"},{"id":"Wuy--7BHmd4","title":"شرح كتاب الأذكار من كلام سيد الأبرار للإمام النووى رضى الله عنه - المجلس الثالث","publishedAt":"2014-11-29T17:17:54Z","duration":"PT12M9S","thumbnail":"https://i.ytimg.com/vi/Wuy--7BHmd4/mqdefault.jpg","viewCount":"1496","playlistId":"PLEkQk5xrP-tkWS57Ubysh0ifJR8dmuEtE","playlistName":"شرح كتاب الأذكار للإمام النووي د. يسرى جبر","category":"حديث"},{"id":"JFCVB7zd1xM","title":"شرح كتاب الأذكار من كلام سيد الأبرار للإمام النووى رضى الله عنه - المجلس الرابع","publishedAt":"2014-12-05T18:42:15Z","duration":"PT25M6S","thumbnail":"https://i.ytimg.com/vi/JFCVB7zd1xM/mqdefault.jpg","viewCount":"1377","playlistId":"PLEkQk5xrP-tkWS57Ubysh0ifJR8dmuEtE","playlistName":"شرح كتاب الأذكار للإمام النووي د. يسرى جبر","category":"حديث"},{"id":"7PWrYhBBuXM","title":"شرح كتاب الأذكار من كلام سيد الأبرار للإمام النووى رضى الله عنه - المجلس الخامس","publishedAt":"2014-12-12T19:04:26Z","duration":"PT16M35S","thumbnail":"https://i.ytimg.com/vi/7PWrYhBBuXM/mqdefault.jpg","viewCount":"1042","playlistId":"PLEkQk5xrP-tkWS57Ubysh0ifJR8dmuEtE","playlistName":"شرح كتاب الأذكار للإمام النووي د. يسرى جبر","category":"حديث"},{"id":"dG5Vg_m9pfE","title":"شرح كتاب الأذكار من كلام سيد الأبرار للإمام النووى رضى الله عنه - المجلس السادس","publishedAt":"2014-12-27T19:00:33Z","duration":"PT15M24S","thumbnail":"https://i.ytimg.com/vi/dG5Vg_m9pfE/mqdefault.jpg","viewCount":"1104","playlistId":"PLEkQk5xrP-tkWS57Ubysh0ifJR8dmuEtE","playlistName":"شرح كتاب الأذكار للإمام النووي د. يسرى جبر","category":"حديث"},{"id":"ARnyRdYQYe8","title":"شرح كتاب الأذكار من كلام سيد الأبرار للإمام النووى رضى الله عنه - المجلس السابع","publishedAt":"2015-01-03T20:28:00Z","duration":"PT12M23S","thumbnail":"https://i.ytimg.com/vi/ARnyRdYQYe8/mqdefault.jpg","viewCount":"739","playlistId":"PLEkQk5xrP-tkWS57Ubysh0ifJR8dmuEtE","playlistName":"شرح كتاب الأذكار للإمام النووي د. يسرى جبر","category":"حديث"},{"id":"KUpUb9msULA","title":"شرح كتاب الأذكار من كلام سيد الأبرار للإمام النووى رضى الله عنه - المجلس الثامن","publishedAt":"2015-01-16T19:12:31Z","duration":"PT6M45S","thumbnail":"https://i.ytimg.com/vi/KUpUb9msULA/mqdefault.jpg","viewCount":"717","playlistId":"PLEkQk5xrP-tkWS57Ubysh0ifJR8dmuEtE","playlistName":"شرح كتاب الأذكار للإمام النووي د. يسرى جبر","category":"حديث"},{"id":"9dHYwR4D7o0","title":"شرح كتاب الأذكار من كلام سيد الأبرار للإمام النووى رضى الله عنه - المجلس التاسع","publishedAt":"2015-01-25T08:56:14Z","duration":"PT14M22S","thumbnail":"https://i.ytimg.com/vi/9dHYwR4D7o0/mqdefault.jpg","viewCount":"602","playlistId":"PLEkQk5xrP-tkWS57Ubysh0ifJR8dmuEtE","playlistName":"شرح كتاب الأذكار للإمام النووي د. يسرى جبر","category":"حديث"},{"id":"48prod1VoQE","title":"شرح كتاب الأذكار من كلام سيد الأبرار للإمام النووى رضى الله عنه - المجلس العاشر","publishedAt":"2015-01-30T19:59:39Z","duration":"PT21M56S","thumbnail":"https://i.ytimg.com/vi/48prod1VoQE/mqdefault.jpg","viewCount":"773","playlistId":"PLEkQk5xrP-tkWS57Ubysh0ifJR8dmuEtE","playlistName":"شرح كتاب الأذكار للإمام النووي د. يسرى جبر","category":"حديث"},{"id":"y_6Me76M6S8","title":"شرح كتاب الأذكار من كلام سيد الأبرار للإمام النووى رضى الله عنه - المجلس الحادى والثانى عشر","publishedAt":"2015-04-02T15:51:09Z","duration":"PT41M56S","thumbnail":"https://i.ytimg.com/vi/y_6Me76M6S8/mqdefault.jpg","viewCount":"754","playlistId":"PLEkQk5xrP-tkWS57Ubysh0ifJR8dmuEtE","playlistName":"شرح كتاب الأذكار للإمام النووي د. يسرى جبر","category":"حديث"},{"id":"ChNJX9lBXOY","title":"شرح كتاب الأذكار من كلام سيد الأبرار للإمام النووى رضى الله عنه - المجلس الثالث عشر","publishedAt":"2015-04-02T22:48:08Z","duration":"PT19M15S","thumbnail":"https://i.ytimg.com/vi/ChNJX9lBXOY/mqdefault.jpg","viewCount":"510","playlistId":"PLEkQk5xrP-tkWS57Ubysh0ifJR8dmuEtE","playlistName":"شرح كتاب الأذكار للإمام النووي د. يسرى جبر","category":"حديث"},{"id":"tIVXTzN_ThE","title":"شرح كتاب الأذكار من كلام سيد الأبرار للإمام النووى رضى الله عنه - المجلس الرابع عشر","publishedAt":"2015-04-10T20:08:43Z","duration":"PT6M8S","thumbnail":"https://i.ytimg.com/vi/tIVXTzN_ThE/mqdefault.jpg","viewCount":"413","playlistId":"PLEkQk5xrP-tkWS57Ubysh0ifJR8dmuEtE","playlistName":"شرح كتاب الأذكار للإمام النووي د. يسرى جبر","category":"حديث"},{"id":"Lp60RAi2zIk","title":"شرح كتاب الأذكار من كلام سيد الأبرار للإمام النووى رضى الله عنه - المجلس الخامس عشر","publishedAt":"2015-04-12T21:11:45Z","duration":"PT21M11S","thumbnail":"https://i.ytimg.com/vi/Lp60RAi2zIk/mqdefault.jpg","viewCount":"470","playlistId":"PLEkQk5xrP-tkWS57Ubysh0ifJR8dmuEtE","playlistName":"شرح كتاب الأذكار للإمام النووي د. يسرى جبر","category":"حديث"},{"id":"N635YYAR-o0","title":"شرح كتاب الأذكار من كلام سيد الأبرار للإمام النووى رضى الله عنه - المجلس السادس عشر","publishedAt":"2015-04-13T20:36:48Z","duration":"PT31M48S","thumbnail":"https://i.ytimg.com/vi/N635YYAR-o0/mqdefault.jpg","viewCount":"497","playlistId":"PLEkQk5xrP-tkWS57Ubysh0ifJR8dmuEtE","playlistName":"شرح كتاب الأذكار للإمام النووي د. يسرى جبر","category":"حديث"},{"id":"0d4qYqwfkRQ","title":"شرح كتاب الأذكار من كلام سيد الأبرار للإمام النووى رضى الله عنه - المجلس السابع عشر","publishedAt":"2015-04-21T17:49:56Z","duration":"PT33M26S","thumbnail":"https://i.ytimg.com/vi/0d4qYqwfkRQ/mqdefault.jpg","viewCount":"394","playlistId":"PLEkQk5xrP-tkWS57Ubysh0ifJR8dmuEtE","playlistName":"شرح كتاب الأذكار للإمام النووي د. يسرى جبر","category":"حديث"},{"id":"FpYK82crkAM","title":"شرح كتاب الأذكار من كلام سيد الأبرار للإمام النووى رضى الله عنه - المجلس الثامن عشر","publishedAt":"2015-04-22T16:03:52Z","duration":"PT32M11S","thumbnail":"https://i.ytimg.com/vi/FpYK82crkAM/mqdefault.jpg","viewCount":"372","playlistId":"PLEkQk5xrP-tkWS57Ubysh0ifJR8dmuEtE","playlistName":"شرح كتاب الأذكار للإمام النووي د. يسرى جبر","category":"حديث"},{"id":"Xc80oVchgp8","title":"شرح كتاب الأذكار من كلام سيد الأبرار للإمام النووى رضى الله عنه - المجلس التاسع عشر","publishedAt":"2015-04-22T21:19:17Z","duration":"PT25M39S","thumbnail":"https://i.ytimg.com/vi/Xc80oVchgp8/mqdefault.jpg","viewCount":"362","playlistId":"PLEkQk5xrP-tkWS57Ubysh0ifJR8dmuEtE","playlistName":"شرح كتاب الأذكار للإمام النووي د. يسرى جبر","category":"حديث"},{"id":"9DUqKpqRTAU","title":"شرح كتاب الأذكار من كلام سيد الأبرار للإمام النووى رضى الله عنه - المجلس العشرون","publishedAt":"2015-04-23T15:44:09Z","duration":"PT7M46S","thumbnail":"https://i.ytimg.com/vi/9DUqKpqRTAU/mqdefault.jpg","viewCount":"375","playlistId":"PLEkQk5xrP-tkWS57Ubysh0ifJR8dmuEtE","playlistName":"شرح كتاب الأذكار للإمام النووي د. يسرى جبر","category":"حديث"},{"id":"0DEUby0G55o","title":"شرح كتاب الأذكار من كلام سيد الأبرار للإمام النووى رضى الله عنه - المجلس الواحد والعشرون","publishedAt":"2015-04-25T19:10:36Z","duration":"PT19M10S","thumbnail":"https://i.ytimg.com/vi/0DEUby0G55o/mqdefault.jpg","viewCount":"343","playlistId":"PLEkQk5xrP-tkWS57Ubysh0ifJR8dmuEtE","playlistName":"شرح كتاب الأذكار للإمام النووي د. يسرى جبر","category":"حديث"},{"id":"_BIf3efuZmw","title":"شرح كتاب الأذكار من كلام سيد الأبرار للإمام النووى رضى الله عنه - المجلس الثانى والعشرون","publishedAt":"2015-04-29T20:17:53Z","duration":"PT13M2S","thumbnail":"https://i.ytimg.com/vi/_BIf3efuZmw/mqdefault.jpg","viewCount":"383","playlistId":"PLEkQk5xrP-tkWS57Ubysh0ifJR8dmuEtE","playlistName":"شرح كتاب الأذكار للإمام النووي د. يسرى جبر","category":"حديث"},{"id":"Rea3erpgeRM","title":"شرح كتاب الأذكار من كلام سيد الأبرار للإمام النووى رضى الله عنه - المجلس الثالث والعشرون","publishedAt":"2015-05-06T20:12:00Z","duration":"PT11M19S","thumbnail":"https://i.ytimg.com/vi/Rea3erpgeRM/mqdefault.jpg","viewCount":"296","playlistId":"PLEkQk5xrP-tkWS57Ubysh0ifJR8dmuEtE","playlistName":"شرح كتاب الأذكار للإمام النووي د. يسرى جبر","category":"حديث"},{"id":"6YKMJYuKwT0","title":"شرح كتاب الأذكار من كلام سيد الأبرار للإمام النووى رضى الله عنه - المجلس الرابع والعشرون","publishedAt":"2015-05-14T14:28:51Z","duration":"PT18M24S","thumbnail":"https://i.ytimg.com/vi/6YKMJYuKwT0/mqdefault.jpg","viewCount":"357","playlistId":"PLEkQk5xrP-tkWS57Ubysh0ifJR8dmuEtE","playlistName":"شرح كتاب الأذكار للإمام النووي د. يسرى جبر","category":"حديث"},{"id":"8G1969aVDl0","title":"شرح كتاب الأذكار من كلام سيد الأبرار للإمام النووى رضى الله عنه - المجلس الخامس والعشرون","publishedAt":"2015-05-20T19:04:16Z","duration":"PT13M4S","thumbnail":"https://i.ytimg.com/vi/8G1969aVDl0/mqdefault.jpg","viewCount":"359","playlistId":"PLEkQk5xrP-tkWS57Ubysh0ifJR8dmuEtE","playlistName":"شرح كتاب الأذكار للإمام النووي د. يسرى جبر","category":"حديث"}],"total":49,"page":1,"pageSize":24,"totalPages":3}