{"items":[{"id":"pH3vYlv4Aoc","title":"مقرأة سورة الرحمن من آية ٢٩","publishedAt":"2019-03-06T15:44:57Z","duration":"PT23M6S","thumbnail":"https://i.ytimg.com/vi/pH3vYlv4Aoc/mqdefault.jpg","viewCount":"788","playlistId":"PLEkQk5xrP-tnmTYsyW6xNdyfhPq0Bhrhj","playlistName":"مقرأة الفجر - القُرْآنُ الكَرِيمُ - خَتْمَةُ التَّدَبُّرِ  أ.د. يسري جبر","category":"متنوع"},{"id":"kdEV3T96KjY","title":"مقرأة سورة الرحمن من آية ١٤","publishedAt":"2019-03-05T15:12:02Z","duration":"PT15M37S","thumbnail":"https://i.ytimg.com/vi/kdEV3T96KjY/mqdefault.jpg","viewCount":"528","playlistId":"PLEkQk5xrP-tnmTYsyW6xNdyfhPq0Bhrhj","playlistName":"مقرأة الفجر - القُرْآنُ الكَرِيمُ - خَتْمَةُ التَّدَبُّرِ  أ.د. يسري جبر","category":"متنوع"},{"id":"GpcNFdHtC6M","title":"مقرأة سورة الرحمن من أولها","publishedAt":"2019-03-04T11:58:31Z","duration":"PT23M47S","thumbnail":"https://i.ytimg.com/vi/GpcNFdHtC6M/mqdefault.jpg","viewCount":"1258","playlistId":"PLEkQk5xrP-tnmTYsyW6xNdyfhPq0Bhrhj","playlistName":"مقرأة الفجر - القُرْآنُ الكَرِيمُ - خَتْمَةُ التَّدَبُّرِ  أ.د. يسري جبر","category":"متنوع"},{"id":"2TydmViv65o","title":"مقرأة سورة القمر من آية ٤١","publishedAt":"2019-03-03T11:02:37Z","duration":"PT12M5S","thumbnail":"https://i.ytimg.com/vi/2TydmViv65o/mqdefault.jpg","viewCount":"408","playlistId":"PLEkQk5xrP-tnmTYsyW6xNdyfhPq0Bhrhj","playlistName":"مقرأة الفجر - القُرْآنُ الكَرِيمُ - خَتْمَةُ التَّدَبُّرِ  أ.د. يسري جبر","category":"متنوع"},{"id":"JOAVJst_XR0","title":"مقرأة سورة القمر من آية ٣٣","publishedAt":"2019-03-02T19:50:32Z","duration":"PT13M3S","thumbnail":"https://i.ytimg.com/vi/JOAVJst_XR0/mqdefault.jpg","viewCount":"356","playlistId":"PLEkQk5xrP-tnmTYsyW6xNdyfhPq0Bhrhj","playlistName":"مقرأة الفجر - القُرْآنُ الكَرِيمُ - خَتْمَةُ التَّدَبُّرِ  أ.د. يسري جبر","category":"متنوع"},{"id":"0yAUEKO1wZw","title":"مقرأة سورة القمر من آية ١٨","publishedAt":"2019-02-28T20:11:36Z","duration":"PT7M22S","thumbnail":"https://i.ytimg.com/vi/0yAUEKO1wZw/mqdefault.jpg","viewCount":"307","playlistId":"PLEkQk5xrP-tnmTYsyW6xNdyfhPq0Bhrhj","playlistName":"مقرأة الفجر - القُرْآنُ الكَرِيمُ - خَتْمَةُ التَّدَبُّرِ  أ.د. يسري جبر","category":"متنوع"},{"id":"t_9RdBmMgzg","title":"مقرأة سورة القمر من آية ٢٣","publishedAt":"2019-02-28T11:22:54Z","duration":"PT11M28S","thumbnail":"https://i.ytimg.com/vi/t_9RdBmMgzg/mqdefault.jpg","viewCount":"371","playlistId":"PLEkQk5xrP-tnmTYsyW6xNdyfhPq0Bhrhj","playlistName":"مقرأة الفجر - القُرْآنُ الكَرِيمُ - خَتْمَةُ التَّدَبُّرِ  أ.د. يسري جبر","category":"متنوع"},{"id":"EFvGbpvrMP8","title":"مقرأة سورة القمر من آية ٩","publishedAt":"2019-02-26T17:24:29Z","duration":"PT16M48S","thumbnail":"https://i.ytimg.com/vi/EFvGbpvrMP8/mqdefault.jpg","viewCount":"380","playlistId":"PLEkQk5xrP-tnmTYsyW6xNdyfhPq0Bhrhj","playlistName":"مقرأة الفجر - القُرْآنُ الكَرِيمُ - خَتْمَةُ التَّدَبُّرِ  أ.د. يسري جبر","category":"متنوع"},{"id":"rrZOg_JNwFk","title":"مقرأة سورة القمر من أولها","publishedAt":"2019-02-25T14:04:16Z","duration":"PT14M51S","thumbnail":"https://i.ytimg.com/vi/rrZOg_JNwFk/mqdefault.jpg","viewCount":"1490","playlistId":"PLEkQk5xrP-tnmTYsyW6xNdyfhPq0Bhrhj","playlistName":"مقرأة الفجر - القُرْآنُ الكَرِيمُ - خَتْمَةُ التَّدَبُّرِ  أ.د. يسري جبر","category":"متنوع"},{"id":"H_ZzHsMAK-A","title":"مقرأة سورة النجم من آية ٤٩","publishedAt":"2019-02-24T20:28:15Z","duration":"PT8M27S","thumbnail":"https://i.ytimg.com/vi/H_ZzHsMAK-A/mqdefault.jpg","viewCount":"899","playlistId":"PLEkQk5xrP-tnmTYsyW6xNdyfhPq0Bhrhj","playlistName":"مقرأة الفجر - القُرْآنُ الكَرِيمُ - خَتْمَةُ التَّدَبُّرِ  أ.د. يسري جبر","category":"متنوع"},{"id":"84OWnJIezbs","title":"مقرأة سورة النجم من آية ٣٣","publishedAt":"2019-02-23T21:21:44Z","duration":"PT14M58S","thumbnail":"https://i.ytimg.com/vi/84OWnJIezbs/mqdefault.jpg","viewCount":"407","playlistId":"PLEkQk5xrP-tnmTYsyW6xNdyfhPq0Bhrhj","playlistName":"مقرأة الفجر - القُرْآنُ الكَرِيمُ - خَتْمَةُ التَّدَبُّرِ  أ.د. يسري جبر","category":"متنوع"},{"id":"QRWym7uSMMU","title":"مقرأة سورة النجم من آية ٣١","publishedAt":"2019-02-21T20:36:21Z","duration":"PT12M17S","thumbnail":"https://i.ytimg.com/vi/QRWym7uSMMU/mqdefault.jpg","viewCount":"372","playlistId":"PLEkQk5xrP-tnmTYsyW6xNdyfhPq0Bhrhj","playlistName":"مقرأة الفجر - القُرْآنُ الكَرِيمُ - خَتْمَةُ التَّدَبُّرِ  أ.د. يسري جبر","category":"متنوع"},{"id":"DPUinPBezm0","title":"مقرأة سورة النجم من آية ٢٦","publishedAt":"2019-02-16T17:37:37Z","duration":"PT14M48S","thumbnail":"https://i.ytimg.com/vi/DPUinPBezm0/mqdefault.jpg","viewCount":"469","playlistId":"PLEkQk5xrP-tnmTYsyW6xNdyfhPq0Bhrhj","playlistName":"مقرأة الفجر - القُرْآنُ الكَرِيمُ - خَتْمَةُ التَّدَبُّرِ  أ.د. يسري جبر","category":"متنوع"},{"id":"pSES5y_7PF4","title":"مقرأة سورة النجم من آية ١٩","publishedAt":"2019-02-14T14:40:32Z","duration":"PT11M52S","thumbnail":"https://i.ytimg.com/vi/pSES5y_7PF4/mqdefault.jpg","viewCount":"469","playlistId":"PLEkQk5xrP-tnmTYsyW6xNdyfhPq0Bhrhj","playlistName":"مقرأة الفجر - القُرْآنُ الكَرِيمُ - خَتْمَةُ التَّدَبُّرِ  أ.د. يسري جبر","category":"متنوع"},{"id":"N05XE_5fMfc","title":"مقرأة سورة النجم من أولها","publishedAt":"2019-02-13T12:14:12Z","duration":"PT15M31S","thumbnail":"https://i.ytimg.com/vi/N05XE_5fMfc/mqdefault.jpg","viewCount":"1967","playlistId":"PLEkQk5xrP-tnmTYsyW6xNdyfhPq0Bhrhj","playlistName":"مقرأة الفجر - القُرْآنُ الكَرِيمُ - خَتْمَةُ التَّدَبُّرِ  أ.د. يسري جبر","category":"متنوع"},{"id":"YABc_AZLhMs","title":"مقرأة سورة الطور من آية ٤٤","publishedAt":"2019-02-12T10:18:56Z","duration":"PT8M20S","thumbnail":"https://i.ytimg.com/vi/YABc_AZLhMs/mqdefault.jpg","viewCount":"444","playlistId":"PLEkQk5xrP-tnmTYsyW6xNdyfhPq0Bhrhj","playlistName":"مقرأة الفجر - القُرْآنُ الكَرِيمُ - خَتْمَةُ التَّدَبُّرِ  أ.د. يسري جبر","category":"متنوع"},{"id":"0Bgem5C-nTs","title":"مقرأة سورة الطور من آية 25","publishedAt":"2019-02-11T09:17:34Z","duration":"PT25M37S","thumbnail":"https://i.ytimg.com/vi/0Bgem5C-nTs/mqdefault.jpg","viewCount":"641","playlistId":"PLEkQk5xrP-tnmTYsyW6xNdyfhPq0Bhrhj","playlistName":"مقرأة الفجر - القُرْآنُ الكَرِيمُ - خَتْمَةُ التَّدَبُّرِ  أ.د. يسري جبر","category":"متنوع"},{"id":"eHOoa9XwZyE","title":"مقرأة سورة الروم من آية ٨","publishedAt":"2018-06-17T10:29:58Z","duration":"PT10M9S","thumbnail":"https://i.ytimg.com/vi/eHOoa9XwZyE/mqdefault.jpg","viewCount":"361","playlistId":"PLEkQk5xrP-tnmTYsyW6xNdyfhPq0Bhrhj","playlistName":"مقرأة الفجر - القُرْآنُ الكَرِيمُ - خَتْمَةُ التَّدَبُّرِ  أ.د. يسري جبر","category":"متنوع"},{"id":"S86l_9O42Vw","title":"مقرأة سورة الروم من أولها","publishedAt":"2018-06-16T09:54:29Z","duration":"PT12M15S","thumbnail":"https://i.ytimg.com/vi/S86l_9O42Vw/mqdefault.jpg","viewCount":"435","playlistId":"PLEkQk5xrP-tnmTYsyW6xNdyfhPq0Bhrhj","playlistName":"مقرأة الفجر - القُرْآنُ الكَرِيمُ - خَتْمَةُ التَّدَبُّرِ  أ.د. يسري جبر","category":"متنوع"},{"id":"iFMZeOTfkMU","title":"مقرأة سورة العنكبوت من آية ٦٥","publishedAt":"2018-06-15T08:34:43Z","duration":"PT11M55S","thumbnail":"https://i.ytimg.com/vi/iFMZeOTfkMU/mqdefault.jpg","viewCount":"310","playlistId":"PLEkQk5xrP-tnmTYsyW6xNdyfhPq0Bhrhj","playlistName":"مقرأة الفجر - القُرْآنُ الكَرِيمُ - خَتْمَةُ التَّدَبُّرِ  أ.د. يسري جبر","category":"متنوع"},{"id":"R9tZRebhhLc","title":"مقرأة سورة العنكبوت من آية ٥٨","publishedAt":"2018-06-14T09:58:56Z","duration":"PT23M54S","thumbnail":"https://i.ytimg.com/vi/R9tZRebhhLc/mqdefault.jpg","viewCount":"356","playlistId":"PLEkQk5xrP-tnmTYsyW6xNdyfhPq0Bhrhj","playlistName":"مقرأة الفجر - القُرْآنُ الكَرِيمُ - خَتْمَةُ التَّدَبُّرِ  أ.د. يسري جبر","category":"متنوع"},{"id":"GZ2FSEiy554","title":"مقرأة سورة العنكبوت من آية ٥٣","publishedAt":"2018-06-13T09:09:09Z","duration":"PT13M6S","thumbnail":"https://i.ytimg.com/vi/GZ2FSEiy554/mqdefault.jpg","viewCount":"288","playlistId":"PLEkQk5xrP-tnmTYsyW6xNdyfhPq0Bhrhj","playlistName":"مقرأة الفجر - القُرْآنُ الكَرِيمُ - خَتْمَةُ التَّدَبُّرِ  أ.د. يسري جبر","category":"متنوع"},{"id":"OZ6uRIRngak","title":"مقرأة سورة العنكبوت من آية ٥٠","publishedAt":"2018-06-12T10:23:22Z","duration":"PT8M55S","thumbnail":"https://i.ytimg.com/vi/OZ6uRIRngak/mqdefault.jpg","viewCount":"278","playlistId":"PLEkQk5xrP-tnmTYsyW6xNdyfhPq0Bhrhj","playlistName":"مقرأة الفجر - القُرْآنُ الكَرِيمُ - خَتْمَةُ التَّدَبُّرِ  أ.د. يسري جبر","category":"متنوع"},{"id":"yvkvlM1aLuk","title":"مقرأة سورة العنكبوت من آية ٤٦","publishedAt":"2018-06-11T07:24:19Z","duration":"PT23M27S","thumbnail":"https://i.ytimg.com/vi/yvkvlM1aLuk/mqdefault.jpg","viewCount":"247","playlistId":"PLEkQk5xrP-tnmTYsyW6xNdyfhPq0Bhrhj","playlistName":"مقرأة الفجر - القُرْآنُ الكَرِيمُ - خَتْمَةُ التَّدَبُّرِ  أ.د. يسري جبر","category":"متنوع"}],"total":942,"page":7,"pageSize":24,"totalPages":40}