{"items":[{"id":"kyEl__66xvE","title":"مقرأة سورة الحجر من آية ٧٧","publishedAt":"2017-08-12T15:15:25Z","duration":"PT14M32S","thumbnail":"https://i.ytimg.com/vi/kyEl__66xvE/mqdefault.jpg","viewCount":"435","playlistId":"PLEkQk5xrP-tnmTYsyW6xNdyfhPq0Bhrhj","playlistName":"مقرأة الفجر - القُرْآنُ الكَرِيمُ - خَتْمَةُ التَّدَبُّرِ  أ.د. يسري جبر","category":"متنوع"},{"id":"6r65SeO6hhU","title":"مقرأة سورة الحجر من آية ٦١","publishedAt":"2017-08-11T15:35:56Z","duration":"PT18M24S","thumbnail":"https://i.ytimg.com/vi/6r65SeO6hhU/mqdefault.jpg","viewCount":"353","playlistId":"PLEkQk5xrP-tnmTYsyW6xNdyfhPq0Bhrhj","playlistName":"مقرأة الفجر - القُرْآنُ الكَرِيمُ - خَتْمَةُ التَّدَبُّرِ  أ.د. يسري جبر","category":"متنوع"},{"id":"rLorJm7L2NI","title":"مقرأة سورة النمل من آية ٧","publishedAt":"2018-04-26T09:34:48Z","duration":"PT28M34S","thumbnail":"https://i.ytimg.com/vi/rLorJm7L2NI/mqdefault.jpg","viewCount":"424","playlistId":"PLEkQk5xrP-tnmTYsyW6xNdyfhPq0Bhrhj","playlistName":"مقرأة الفجر - القُرْآنُ الكَرِيمُ - خَتْمَةُ التَّدَبُّرِ  أ.د. يسري جبر","category":"متنوع"},{"id":"26ugz_e0NT8","title":"مقرأة سورة النمل من أولها","publishedAt":"2018-04-25T11:11:27Z","duration":"PT34M18S","thumbnail":"https://i.ytimg.com/vi/26ugz_e0NT8/mqdefault.jpg","viewCount":"620","playlistId":"PLEkQk5xrP-tnmTYsyW6xNdyfhPq0Bhrhj","playlistName":"مقرأة الفجر - القُرْآنُ الكَرِيمُ - خَتْمَةُ التَّدَبُّرِ  أ.د. يسري جبر","category":"متنوع"},{"id":"2aKdH7WwcPA","title":"مقرأة سورة الشعراء من آية 217","publishedAt":"2018-04-24T06:59:09Z","duration":"PT22M12S","thumbnail":"https://i.ytimg.com/vi/2aKdH7WwcPA/mqdefault.jpg","viewCount":"253","playlistId":"PLEkQk5xrP-tnmTYsyW6xNdyfhPq0Bhrhj","playlistName":"مقرأة الفجر - القُرْآنُ الكَرِيمُ - خَتْمَةُ التَّدَبُّرِ  أ.د. يسري جبر","category":"متنوع"},{"id":"hjx_mSC1iDs","title":"مقرأة سورة العنكبوت من آية ٤١","publishedAt":"2018-06-10T10:41:49Z","duration":"PT17M1S","thumbnail":"https://i.ytimg.com/vi/hjx_mSC1iDs/mqdefault.jpg","viewCount":"331","playlistId":"PLEkQk5xrP-tnmTYsyW6xNdyfhPq0Bhrhj","playlistName":"مقرأة الفجر - القُرْآنُ الكَرِيمُ - خَتْمَةُ التَّدَبُّرِ  أ.د. يسري جبر","category":"متنوع"},{"id":"b8GJ0kD132w","title":"مقرأة سورة الطور من آية ١٧","publishedAt":"2019-02-10T14:26:55Z","duration":"PT18M16S","thumbnail":"https://i.ytimg.com/vi/b8GJ0kD132w/mqdefault.jpg","viewCount":"413","playlistId":"PLEkQk5xrP-tnmTYsyW6xNdyfhPq0Bhrhj","playlistName":"مقرأة الفجر - القُرْآنُ الكَرِيمُ - خَتْمَةُ التَّدَبُّرِ  أ.د. يسري جبر","category":"متنوع"},{"id":"kVT5DgQ_g0o","title":"مقرأة سورة الطورمن أولها","publishedAt":"2019-02-08T21:35:09Z","duration":"PT13M51S","thumbnail":"https://i.ytimg.com/vi/kVT5DgQ_g0o/mqdefault.jpg","viewCount":"421","playlistId":"PLEkQk5xrP-tnmTYsyW6xNdyfhPq0Bhrhj","playlistName":"مقرأة الفجر - القُرْآنُ الكَرِيمُ - خَتْمَةُ التَّدَبُّرِ  أ.د. يسري جبر","category":"متنوع"},{"id":"LvcFYlEl1kE","title":"مقرأة سورة الشعراء من آية ١٠","publishedAt":"2018-04-10T09:00:43Z","duration":"PT25M54S","thumbnail":"https://i.ytimg.com/vi/LvcFYlEl1kE/mqdefault.jpg","viewCount":"884","playlistId":"PLEkQk5xrP-tnmTYsyW6xNdyfhPq0Bhrhj","playlistName":"مقرأة الفجر - القُرْآنُ الكَرِيمُ - خَتْمَةُ التَّدَبُّرِ  أ.د. يسري جبر","category":"متنوع"},{"id":"wQsw_Nhp8hY","title":"مقرأة سورة الشعراء من آية ٣٢","publishedAt":"2018-04-09T11:26:37Z","duration":"PT21M9S","thumbnail":"https://i.ytimg.com/vi/wQsw_Nhp8hY/mqdefault.jpg","viewCount":"212","playlistId":"PLEkQk5xrP-tnmTYsyW6xNdyfhPq0Bhrhj","playlistName":"مقرأة الفجر - القُرْآنُ الكَرِيمُ - خَتْمَةُ التَّدَبُّرِ  أ.د. يسري جبر","category":"متنوع"},{"id":"rKCn9ntzvsE","title":"مقرأة سورة الشعراء من آية ٢٣","publishedAt":"2018-04-09T11:26:34Z","duration":"PT18M44S","thumbnail":"https://i.ytimg.com/vi/rKCn9ntzvsE/mqdefault.jpg","viewCount":"232","playlistId":"PLEkQk5xrP-tnmTYsyW6xNdyfhPq0Bhrhj","playlistName":"مقرأة الفجر - القُرْآنُ الكَرِيمُ - خَتْمَةُ التَّدَبُّرِ  أ.د. يسري جبر","category":"متنوع"},{"id":"iUNOA2FgJ-U","title":"مقرأة سورة الشعراء من آية ٤٤","publishedAt":"2018-04-09T11:26:30Z","duration":"PT41M21S","thumbnail":"https://i.ytimg.com/vi/iUNOA2FgJ-U/mqdefault.jpg","viewCount":"237","playlistId":"PLEkQk5xrP-tnmTYsyW6xNdyfhPq0Bhrhj","playlistName":"مقرأة الفجر - القُرْآنُ الكَرِيمُ - خَتْمَةُ التَّدَبُّرِ  أ.د. يسري جبر","category":"متنوع"},{"id":"s4_2FraYEXQ","title":"مقرأة سورة عبس من آية ١٣","publishedAt":"2019-06-20T15:06:42Z","duration":"PT20M11S","thumbnail":"https://i.ytimg.com/vi/s4_2FraYEXQ/mqdefault.jpg","viewCount":"763","playlistId":"PLEkQk5xrP-tnmTYsyW6xNdyfhPq0Bhrhj","playlistName":"مقرأة الفجر - القُرْآنُ الكَرِيمُ - خَتْمَةُ التَّدَبُّرِ  أ.د. يسري جبر","category":"متنوع"},{"id":"ESiWL0gaAlk","title":"مقرأة سورة عبس من أولها","publishedAt":"2019-06-19T10:55:21Z","duration":"PT18M51S","thumbnail":"https://i.ytimg.com/vi/ESiWL0gaAlk/mqdefault.jpg","viewCount":"1910","playlistId":"PLEkQk5xrP-tnmTYsyW6xNdyfhPq0Bhrhj","playlistName":"مقرأة الفجر - القُرْآنُ الكَرِيمُ - خَتْمَةُ التَّدَبُّرِ  أ.د. يسري جبر","category":"متنوع"},{"id":"gfHyv3O5zlo","title":"مقرأة سورة النازعات من آية ٣٤","publishedAt":"2019-06-17T20:50:52Z","duration":"PT10M19S","thumbnail":"https://i.ytimg.com/vi/gfHyv3O5zlo/mqdefault.jpg","viewCount":"481","playlistId":"PLEkQk5xrP-tnmTYsyW6xNdyfhPq0Bhrhj","playlistName":"مقرأة الفجر - القُرْآنُ الكَرِيمُ - خَتْمَةُ التَّدَبُّرِ  أ.د. يسري جبر","category":"متنوع"},{"id":"ymfaihOL1yI","title":"مقرأة سورة النازعات من آية ٢٧","publishedAt":"2019-06-16T14:32:26Z","duration":"PT6M27S","thumbnail":"https://i.ytimg.com/vi/ymfaihOL1yI/mqdefault.jpg","viewCount":"494","playlistId":"PLEkQk5xrP-tnmTYsyW6xNdyfhPq0Bhrhj","playlistName":"مقرأة الفجر - القُرْآنُ الكَرِيمُ - خَتْمَةُ التَّدَبُّرِ  أ.د. يسري جبر","category":"متنوع"},{"id":"ZhMhaam8PSk","title":"مقرأة سورة النازعات من آية ١٥","publishedAt":"2019-06-15T09:22:21Z","duration":"PT9M57S","thumbnail":"https://i.ytimg.com/vi/ZhMhaam8PSk/mqdefault.jpg","viewCount":"683","playlistId":"PLEkQk5xrP-tnmTYsyW6xNdyfhPq0Bhrhj","playlistName":"مقرأة الفجر - القُرْآنُ الكَرِيمُ - خَتْمَةُ التَّدَبُّرِ  أ.د. يسري جبر","category":"متنوع"},{"id":"P6Xmq9Og32s","title":"مقرأة سورة النازعات من أولها","publishedAt":"2019-06-14T12:31:06Z","duration":"PT9M3S","thumbnail":"https://i.ytimg.com/vi/P6Xmq9Og32s/mqdefault.jpg","viewCount":"769","playlistId":"PLEkQk5xrP-tnmTYsyW6xNdyfhPq0Bhrhj","playlistName":"مقرأة الفجر - القُرْآنُ الكَرِيمُ - خَتْمَةُ التَّدَبُّرِ  أ.د. يسري جبر","category":"متنوع"},{"id":"_0tkbuZ8y5c","title":"مقرأة سورة الحج من آية ٤٦","publishedAt":"2018-02-08T09:32:35Z","duration":"PT27M10S","thumbnail":"https://i.ytimg.com/vi/_0tkbuZ8y5c/mqdefault.jpg","viewCount":"294","playlistId":"PLEkQk5xrP-tnmTYsyW6xNdyfhPq0Bhrhj","playlistName":"مقرأة الفجر - القُرْآنُ الكَرِيمُ - خَتْمَةُ التَّدَبُّرِ  أ.د. يسري جبر","category":"متنوع"},{"id":"LD4jCfFWUWs","title":"قرأة سورة الحجرات من أولها","publishedAt":"2019-01-24T20:36:59Z","duration":"PT12M49S","thumbnail":"https://i.ytimg.com/vi/LD4jCfFWUWs/mqdefault.jpg","viewCount":"493","playlistId":"PLEkQk5xrP-tnmTYsyW6xNdyfhPq0Bhrhj","playlistName":"مقرأة الفجر - القُرْآنُ الكَرِيمُ - خَتْمَةُ التَّدَبُّرِ  أ.د. يسري جبر","category":"متنوع"},{"id":"wSiKKza_smE","title":"مقرأة سورة الفتح من آية ٢٧","publishedAt":"2019-01-23T20:59:00Z","duration":"PT16M25S","thumbnail":"https://i.ytimg.com/vi/wSiKKza_smE/mqdefault.jpg","viewCount":"414","playlistId":"PLEkQk5xrP-tnmTYsyW6xNdyfhPq0Bhrhj","playlistName":"مقرأة الفجر - القُرْآنُ الكَرِيمُ - خَتْمَةُ التَّدَبُّرِ  أ.د. يسري جبر","category":"متنوع"},{"id":"KVg1O8kM6ds","title":"مقرأة سورة الذاريات من آية ٤٧","publishedAt":"2019-02-07T10:34:49Z","duration":"PT16M12S","thumbnail":"https://i.ytimg.com/vi/KVg1O8kM6ds/mqdefault.jpg","viewCount":"1200","playlistId":"PLEkQk5xrP-tnmTYsyW6xNdyfhPq0Bhrhj","playlistName":"مقرأة الفجر - القُرْآنُ الكَرِيمُ - خَتْمَةُ التَّدَبُّرِ  أ.د. يسري جبر","category":"متنوع"},{"id":"b_N96Tzhcl8","title":"سورة الذاريات من آية ٣٨","publishedAt":"2019-02-06T13:17:39Z","duration":"PT19M11S","thumbnail":"https://i.ytimg.com/vi/b_N96Tzhcl8/mqdefault.jpg","viewCount":"512","playlistId":"PLEkQk5xrP-tnmTYsyW6xNdyfhPq0Bhrhj","playlistName":"مقرأة الفجر - القُرْآنُ الكَرِيمُ - خَتْمَةُ التَّدَبُّرِ  أ.د. يسري جبر","category":"متنوع"},{"id":"qEqNXJ_iSBM","title":"مقرأة سورة الذاريات من آية ٢٤","publishedAt":"2019-02-05T11:20:42Z","duration":"PT21M47S","thumbnail":"https://i.ytimg.com/vi/qEqNXJ_iSBM/mqdefault.jpg","viewCount":"441","playlistId":"PLEkQk5xrP-tnmTYsyW6xNdyfhPq0Bhrhj","playlistName":"مقرأة الفجر - القُرْآنُ الكَرِيمُ - خَتْمَةُ التَّدَبُّرِ  أ.د. يسري جبر","category":"متنوع"}],"total":942,"page":28,"pageSize":24,"totalPages":40}