{"items":[{"id":"Yqwj10NsEpE","title":"مقرأة سورة الفتح من أولها","publishedAt":"2019-01-17T11:28:12Z","duration":"PT16M35S","thumbnail":"https://i.ytimg.com/vi/Yqwj10NsEpE/mqdefault.jpg","viewCount":"1408","playlistId":"PLEkQk5xrP-tnmTYsyW6xNdyfhPq0Bhrhj","playlistName":"مقرأة الفجر - القُرْآنُ الكَرِيمُ - خَتْمَةُ التَّدَبُّرِ  أ.د. يسري جبر","category":"متنوع"},{"id":"ZCXMg5ChUFQ","title":"مقرأة سورة محمد من آية ٣٣","publishedAt":"2019-01-16T15:04:28Z","duration":"PT19M29S","thumbnail":"https://i.ytimg.com/vi/ZCXMg5ChUFQ/mqdefault.jpg","viewCount":"315","playlistId":"PLEkQk5xrP-tnmTYsyW6xNdyfhPq0Bhrhj","playlistName":"مقرأة الفجر - القُرْآنُ الكَرِيمُ - خَتْمَةُ التَّدَبُّرِ  أ.د. يسري جبر","category":"متنوع"},{"id":"bBKZe7r2ZXo","title":"مقرأة سورة الحج من آية ٤٢","publishedAt":"2018-02-06T20:06:26Z","duration":"PT15M54S","thumbnail":"https://i.ytimg.com/vi/bBKZe7r2ZXo/mqdefault.jpg","viewCount":"239","playlistId":"PLEkQk5xrP-tnmTYsyW6xNdyfhPq0Bhrhj","playlistName":"مقرأة الفجر - القُرْآنُ الكَرِيمُ - خَتْمَةُ التَّدَبُّرِ  أ.د. يسري جبر","category":"متنوع"},{"id":"j264rD3oDeo","title":"مقرأة سورة الحج من آية ٤١","publishedAt":"2018-02-05T13:45:48Z","duration":"PT18M42S","thumbnail":"https://i.ytimg.com/vi/j264rD3oDeo/mqdefault.jpg","viewCount":"341","playlistId":"PLEkQk5xrP-tnmTYsyW6xNdyfhPq0Bhrhj","playlistName":"مقرأة الفجر - القُرْآنُ الكَرِيمُ - خَتْمَةُ التَّدَبُّرِ  أ.د. يسري جبر","category":"متنوع"},{"id":"7h1_RYPFVgg","title":"سورة النساء آية 88","publishedAt":"2016-09-02T07:37:20Z","duration":"PT10M54S","thumbnail":"https://i.ytimg.com/vi/7h1_RYPFVgg/mqdefault.jpg","viewCount":"453","playlistId":"PLEkQk5xrP-tnmTYsyW6xNdyfhPq0Bhrhj","playlistName":"مقرأة الفجر - القُرْآنُ الكَرِيمُ - خَتْمَةُ التَّدَبُّرِ  أ.د. يسري جبر","category":"متنوع"},{"id":"1iYV2zhdV8M","title":"سورة النساء آية 81","publishedAt":"2016-09-02T00:01:05Z","duration":"PT27M19S","thumbnail":"https://i.ytimg.com/vi/1iYV2zhdV8M/mqdefault.jpg","viewCount":"486","playlistId":"PLEkQk5xrP-tnmTYsyW6xNdyfhPq0Bhrhj","playlistName":"مقرأة الفجر - القُرْآنُ الكَرِيمُ - خَتْمَةُ التَّدَبُّرِ  أ.د. يسري جبر","category":"متنوع"},{"id":"gyPPnxZqVLE","title":"مقرأة سورة ص من آية 55","publishedAt":"2018-10-06T20:15:25Z","duration":"PT19M8S","thumbnail":"https://i.ytimg.com/vi/gyPPnxZqVLE/mqdefault.jpg","viewCount":"361","playlistId":"PLEkQk5xrP-tnmTYsyW6xNdyfhPq0Bhrhj","playlistName":"مقرأة الفجر - القُرْآنُ الكَرِيمُ - خَتْمَةُ التَّدَبُّرِ  أ.د. يسري جبر","category":"متنوع"},{"id":"grDs_z2qC_4","title":"مقرأة سورة ص من آية ٤٥","publishedAt":"2018-10-05T14:24:35Z","duration":"PT14M2S","thumbnail":"https://i.ytimg.com/vi/grDs_z2qC_4/mqdefault.jpg","viewCount":"408","playlistId":"PLEkQk5xrP-tnmTYsyW6xNdyfhPq0Bhrhj","playlistName":"مقرأة الفجر - القُرْآنُ الكَرِيمُ - خَتْمَةُ التَّدَبُّرِ  أ.د. يسري جبر","category":"متنوع"},{"id":"iOAeskBcDEc","title":"مقرأة سورة ص من آية ٤١","publishedAt":"2018-10-04T11:12:14Z","duration":"PT18M26S","thumbnail":"https://i.ytimg.com/vi/iOAeskBcDEc/mqdefault.jpg","viewCount":"610","playlistId":"PLEkQk5xrP-tnmTYsyW6xNdyfhPq0Bhrhj","playlistName":"مقرأة الفجر - القُرْآنُ الكَرِيمُ - خَتْمَةُ التَّدَبُّرِ  أ.د. يسري جبر","category":"متنوع"},{"id":"hVk67GdjVmI","title":"مقرأة سورة ص من آية ٢٧","publishedAt":"2018-10-03T10:51:56Z","duration":"PT25M54S","thumbnail":"https://i.ytimg.com/vi/hVk67GdjVmI/mqdefault.jpg","viewCount":"505","playlistId":"PLEkQk5xrP-tnmTYsyW6xNdyfhPq0Bhrhj","playlistName":"مقرأة الفجر - القُرْآنُ الكَرِيمُ - خَتْمَةُ التَّدَبُّرِ  أ.د. يسري جبر","category":"متنوع"},{"id":"4ETddfGONPk","title":"مقرأة سورة ص من آية٢١","publishedAt":"2018-10-01T21:45:30Z","duration":"PT28M5S","thumbnail":"https://i.ytimg.com/vi/4ETddfGONPk/mqdefault.jpg","viewCount":"636","playlistId":"PLEkQk5xrP-tnmTYsyW6xNdyfhPq0Bhrhj","playlistName":"مقرأة الفجر - القُرْآنُ الكَرِيمُ - خَتْمَةُ التَّدَبُّرِ  أ.د. يسري جبر","category":"متنوع"},{"id":"QzkKoD0W3t4","title":"مقرأة سورة ص من آية ٩","publishedAt":"2018-09-30T22:44:09Z","duration":"PT19M14S","thumbnail":"https://i.ytimg.com/vi/QzkKoD0W3t4/mqdefault.jpg","viewCount":"566","playlistId":"PLEkQk5xrP-tnmTYsyW6xNdyfhPq0Bhrhj","playlistName":"مقرأة الفجر - القُرْآنُ الكَرِيمُ - خَتْمَةُ التَّدَبُّرِ  أ.د. يسري جبر","category":"متنوع"},{"id":"7_VSx4GGMdU","title":"مقرأة سورة ص من أولها","publishedAt":"2018-09-27T12:05:50Z","duration":"PT22M5S","thumbnail":"https://i.ytimg.com/vi/7_VSx4GGMdU/mqdefault.jpg","viewCount":"857","playlistId":"PLEkQk5xrP-tnmTYsyW6xNdyfhPq0Bhrhj","playlistName":"مقرأة الفجر - القُرْآنُ الكَرِيمُ - خَتْمَةُ التَّدَبُّرِ  أ.د. يسري جبر","category":"متنوع"},{"id":"dYbeHJTA4xE","title":"مقرأة سورة القصص من آية ٢٩","publishedAt":"2018-05-20T14:31:33Z","duration":"PT37M2S","thumbnail":"https://i.ytimg.com/vi/dYbeHJTA4xE/mqdefault.jpg","viewCount":"370","playlistId":"PLEkQk5xrP-tnmTYsyW6xNdyfhPq0Bhrhj","playlistName":"مقرأة الفجر - القُرْآنُ الكَرِيمُ - خَتْمَةُ التَّدَبُّرِ  أ.د. يسري جبر","category":"متنوع"},{"id":"rCnLPwfTF7Y","title":"مقرأة سورة القصص من آية ٢٢","publishedAt":"2018-05-18T18:26:19Z","duration":"PT27M12S","thumbnail":"https://i.ytimg.com/vi/rCnLPwfTF7Y/mqdefault.jpg","viewCount":"483","playlistId":"PLEkQk5xrP-tnmTYsyW6xNdyfhPq0Bhrhj","playlistName":"مقرأة الفجر - القُرْآنُ الكَرِيمُ - خَتْمَةُ التَّدَبُّرِ  أ.د. يسري جبر","category":"متنوع"},{"id":"Sk3HN9HXsLw","title":"مقرأة سورة القصص من آية ١٥","publishedAt":"2018-05-17T18:32:33Z","duration":"PT15M23S","thumbnail":"https://i.ytimg.com/vi/Sk3HN9HXsLw/mqdefault.jpg","viewCount":"428","playlistId":"PLEkQk5xrP-tnmTYsyW6xNdyfhPq0Bhrhj","playlistName":"مقرأة الفجر - القُرْآنُ الكَرِيمُ - خَتْمَةُ التَّدَبُّرِ  أ.د. يسري جبر","category":"متنوع"},{"id":"SNh1g6tkTP4","title":"مقرأة سورة الأنبياء من آية ٩٢","publishedAt":"2017-12-27T11:54:07Z","duration":"PT13M51S","thumbnail":"https://i.ytimg.com/vi/SNh1g6tkTP4/mqdefault.jpg","viewCount":"232","playlistId":"PLEkQk5xrP-tnmTYsyW6xNdyfhPq0Bhrhj","playlistName":"مقرأة الفجر - القُرْآنُ الكَرِيمُ - خَتْمَةُ التَّدَبُّرِ  أ.د. يسري جبر","category":"متنوع"},{"id":"VUYBAnIxZME","title":"مقرأة سورة الأنبياء من آية ٨٩","publishedAt":"2017-12-27T00:55:41Z","duration":"PT14M36S","thumbnail":"https://i.ytimg.com/vi/VUYBAnIxZME/mqdefault.jpg","viewCount":"234","playlistId":"PLEkQk5xrP-tnmTYsyW6xNdyfhPq0Bhrhj","playlistName":"مقرأة الفجر - القُرْآنُ الكَرِيمُ - خَتْمَةُ التَّدَبُّرِ  أ.د. يسري جبر","category":"متنوع"},{"id":"DSC-gV5YwRg","title":"مقرأة سورة الأنبياء من آية ٨٧","publishedAt":"2017-12-25T13:52:15Z","duration":"PT12M3S","thumbnail":"https://i.ytimg.com/vi/DSC-gV5YwRg/mqdefault.jpg","viewCount":"242","playlistId":"PLEkQk5xrP-tnmTYsyW6xNdyfhPq0Bhrhj","playlistName":"مقرأة الفجر - القُرْآنُ الكَرِيمُ - خَتْمَةُ التَّدَبُّرِ  أ.د. يسري جبر","category":"متنوع"},{"id":"YWi9EJdROWU","title":"سُورة البقرة آية 67","publishedAt":"2016-04-22T20:22:40Z","duration":"PT25M8S","thumbnail":"https://i.ytimg.com/vi/YWi9EJdROWU/mqdefault.jpg","viewCount":"1709","playlistId":"PLEkQk5xrP-tnmTYsyW6xNdyfhPq0Bhrhj","playlistName":"مقرأة الفجر - القُرْآنُ الكَرِيمُ - خَتْمَةُ التَّدَبُّرِ  أ.د. يسري جبر","category":"متنوع"},{"id":"R3d3tdOB14w","title":"قراءة القرآن (من آية ٢٠٠ سورة البقرة)","publishedAt":"2016-05-12T04:32:20Z","duration":"PT5M56S","thumbnail":"https://i.ytimg.com/vi/R3d3tdOB14w/mqdefault.jpg","viewCount":"846","playlistId":"PLEkQk5xrP-tnmTYsyW6xNdyfhPq0Bhrhj","playlistName":"مقرأة الفجر - القُرْآنُ الكَرِيمُ - خَتْمَةُ التَّدَبُّرِ  أ.د. يسري جبر","category":"متنوع"},{"id":"oqUEoPYt9hg","title":"قراءة القرآن (من آية ١٩٦ سورة البقرة)","publishedAt":"2016-05-11T09:25:04Z","duration":"PT30M16S","thumbnail":"https://i.ytimg.com/vi/oqUEoPYt9hg/mqdefault.jpg","viewCount":"1024","playlistId":"PLEkQk5xrP-tnmTYsyW6xNdyfhPq0Bhrhj","playlistName":"مقرأة الفجر - القُرْآنُ الكَرِيمُ - خَتْمَةُ التَّدَبُّرِ  أ.د. يسري جبر","category":"متنوع"},{"id":"ANVyS4hTFRE","title":"قراءة القرآن (من آية ١٨٩ سورة البقرة)","publishedAt":"2016-05-09T02:38:33Z","duration":"PT18M44S","thumbnail":"https://i.ytimg.com/vi/ANVyS4hTFRE/mqdefault.jpg","viewCount":"887","playlistId":"PLEkQk5xrP-tnmTYsyW6xNdyfhPq0Bhrhj","playlistName":"مقرأة الفجر - القُرْآنُ الكَرِيمُ - خَتْمَةُ التَّدَبُّرِ  أ.د. يسري جبر","category":"متنوع"},{"id":"OSxokTcUDnc","title":"مقرأة سورة الجاثية من آية ٢٤","publishedAt":"2018-12-31T11:26:38Z","duration":"PT13M42S","thumbnail":"https://i.ytimg.com/vi/OSxokTcUDnc/mqdefault.jpg","viewCount":"290","playlistId":"PLEkQk5xrP-tnmTYsyW6xNdyfhPq0Bhrhj","playlistName":"مقرأة الفجر - القُرْآنُ الكَرِيمُ - خَتْمَةُ التَّدَبُّرِ  أ.د. يسري جبر","category":"متنوع"}],"total":942,"page":33,"pageSize":24,"totalPages":40}