{"items":[{"id":"EFnD0MCzuJ4","title":"سورة التوبة آية 55","publishedAt":"2017-04-20T10:28:46Z","duration":"PT31M11S","thumbnail":"https://i.ytimg.com/vi/EFnD0MCzuJ4/mqdefault.jpg","viewCount":"435","playlistId":"PLEkQk5xrP-tnmTYsyW6xNdyfhPq0Bhrhj","playlistName":"مقرأة الفجر - القُرْآنُ الكَرِيمُ - خَتْمَةُ التَّدَبُّرِ  أ.د. يسري جبر","category":"متنوع"},{"id":"134iWWWnPFg","title":"سورة التوبة آية 49","publishedAt":"2017-04-19T13:52:42Z","duration":"PT15M20S","thumbnail":"https://i.ytimg.com/vi/134iWWWnPFg/mqdefault.jpg","viewCount":"450","playlistId":"PLEkQk5xrP-tnmTYsyW6xNdyfhPq0Bhrhj","playlistName":"مقرأة الفجر - القُرْآنُ الكَرِيمُ - خَتْمَةُ التَّدَبُّرِ  أ.د. يسري جبر","category":"متنوع"},{"id":"NzJWZItc_zs","title":"سورة التوبة آية 43","publishedAt":"2017-04-18T11:58:48Z","duration":"PT24M24S","thumbnail":"https://i.ytimg.com/vi/NzJWZItc_zs/mqdefault.jpg","viewCount":"477","playlistId":"PLEkQk5xrP-tnmTYsyW6xNdyfhPq0Bhrhj","playlistName":"مقرأة الفجر - القُرْآنُ الكَرِيمُ - خَتْمَةُ التَّدَبُّرِ  أ.د. يسري جبر","category":"متنوع"},{"id":"m-KCFnCASNg","title":"مقرأة سورة التوبة من آية ٣٩","publishedAt":"2017-04-16T21:39:35Z","duration":"PT19M55S","thumbnail":"https://i.ytimg.com/vi/m-KCFnCASNg/mqdefault.jpg","viewCount":"349","playlistId":"PLEkQk5xrP-tnmTYsyW6xNdyfhPq0Bhrhj","playlistName":"مقرأة الفجر - القُرْآنُ الكَرِيمُ - خَتْمَةُ التَّدَبُّرِ  أ.د. يسري جبر","category":"متنوع"},{"id":"rToSXp9DG9c","title":"مقرأة سورة التوبة من آية ٣٦","publishedAt":"2017-04-16T12:42:55Z","duration":"PT23M37S","thumbnail":"https://i.ytimg.com/vi/rToSXp9DG9c/mqdefault.jpg","viewCount":"349","playlistId":"PLEkQk5xrP-tnmTYsyW6xNdyfhPq0Bhrhj","playlistName":"مقرأة الفجر - القُرْآنُ الكَرِيمُ - خَتْمَةُ التَّدَبُّرِ  أ.د. يسري جبر","category":"متنوع"},{"id":"wyyyj1S9iUc","title":"سورة التوبة آية 34","publishedAt":"2017-04-15T07:59:11Z","duration":"PT12M30S","thumbnail":"https://i.ytimg.com/vi/wyyyj1S9iUc/mqdefault.jpg","viewCount":"299","playlistId":"PLEkQk5xrP-tnmTYsyW6xNdyfhPq0Bhrhj","playlistName":"مقرأة الفجر - القُرْآنُ الكَرِيمُ - خَتْمَةُ التَّدَبُّرِ  أ.د. يسري جبر","category":"متنوع"},{"id":"5YJNASeHTSM","title":"سورة التوبة  آية 30","publishedAt":"2017-04-13T06:23:18Z","duration":"PT11M48S","thumbnail":"https://i.ytimg.com/vi/5YJNASeHTSM/mqdefault.jpg","viewCount":"385","playlistId":"PLEkQk5xrP-tnmTYsyW6xNdyfhPq0Bhrhj","playlistName":"مقرأة الفجر - القُرْآنُ الكَرِيمُ - خَتْمَةُ التَّدَبُّرِ  أ.د. يسري جبر","category":"متنوع"},{"id":"KDZ5Uyo5kN4","title":"سورة التوبة آية 28","publishedAt":"2017-04-11T15:30:09Z","duration":"PT20M54S","thumbnail":"https://i.ytimg.com/vi/KDZ5Uyo5kN4/mqdefault.jpg","viewCount":"460","playlistId":"PLEkQk5xrP-tnmTYsyW6xNdyfhPq0Bhrhj","playlistName":"مقرأة الفجر - القُرْآنُ الكَرِيمُ - خَتْمَةُ التَّدَبُّرِ  أ.د. يسري جبر","category":"متنوع"},{"id":"JE2viEmMdks","title":"مقرأة سورة الأنبياء من آية ٨٣","publishedAt":"2017-12-21T09:23:34Z","duration":"PT18M15S","thumbnail":"https://i.ytimg.com/vi/JE2viEmMdks/mqdefault.jpg","viewCount":"298","playlistId":"PLEkQk5xrP-tnmTYsyW6xNdyfhPq0Bhrhj","playlistName":"مقرأة الفجر - القُرْآنُ الكَرِيمُ - خَتْمَةُ التَّدَبُّرِ  أ.د. يسري جبر","category":"متنوع"},{"id":"D-4kllhcB-g","title":"مقرأة سورة الأنبياء من آية ٧٤","publishedAt":"2017-12-20T09:35:36Z","duration":"PT26M45S","thumbnail":"https://i.ytimg.com/vi/D-4kllhcB-g/mqdefault.jpg","viewCount":"318","playlistId":"PLEkQk5xrP-tnmTYsyW6xNdyfhPq0Bhrhj","playlistName":"مقرأة الفجر - القُرْآنُ الكَرِيمُ - خَتْمَةُ التَّدَبُّرِ  أ.د. يسري جبر","category":"متنوع"},{"id":"9e5fj6c6S90","title":"مقرأة سورة الأنبياء من آية ٦٨","publishedAt":"2017-12-19T09:51:18Z","duration":"PT8M41S","thumbnail":"https://i.ytimg.com/vi/9e5fj6c6S90/mqdefault.jpg","viewCount":"506","playlistId":"PLEkQk5xrP-tnmTYsyW6xNdyfhPq0Bhrhj","playlistName":"مقرأة الفجر - القُرْآنُ الكَرِيمُ - خَتْمَةُ التَّدَبُّرِ  أ.د. يسري جبر","category":"متنوع"},{"id":"nLnWgQ_PlKE","title":"مقرأة سورة الزخرف من آية ٥٦","publishedAt":"2018-12-18T12:09:07Z","duration":"PT17M18S","thumbnail":"https://i.ytimg.com/vi/nLnWgQ_PlKE/mqdefault.jpg","viewCount":"322","playlistId":"PLEkQk5xrP-tnmTYsyW6xNdyfhPq0Bhrhj","playlistName":"مقرأة الفجر - القُرْآنُ الكَرِيمُ - خَتْمَةُ التَّدَبُّرِ  أ.د. يسري جبر","category":"متنوع"},{"id":"92OVqgL0H8M","title":"مقرأة سورة الزخرف من آية ٤٦","publishedAt":"2018-12-17T12:16:02Z","duration":"PT28M35S","thumbnail":"https://i.ytimg.com/vi/92OVqgL0H8M/mqdefault.jpg","viewCount":"381","playlistId":"PLEkQk5xrP-tnmTYsyW6xNdyfhPq0Bhrhj","playlistName":"مقرأة الفجر - القُرْآنُ الكَرِيمُ - خَتْمَةُ التَّدَبُّرِ  أ.د. يسري جبر","category":"متنوع"},{"id":"YMmg_Ip7MX4","title":"مقرأة سورة يونس من آية ٣٧","publishedAt":"2017-05-14T10:21:29Z","duration":"PT16M27S","thumbnail":"https://i.ytimg.com/vi/YMmg_Ip7MX4/mqdefault.jpg","viewCount":"301","playlistId":"PLEkQk5xrP-tnmTYsyW6xNdyfhPq0Bhrhj","playlistName":"مقرأة الفجر - القُرْآنُ الكَرِيمُ - خَتْمَةُ التَّدَبُّرِ  أ.د. يسري جبر","category":"متنوع"},{"id":"lkRrTflVZOA","title":"مقرأة سورة يونس من آية ٣١","publishedAt":"2017-05-13T11:56:06Z","duration":"PT12M41S","thumbnail":"https://i.ytimg.com/vi/lkRrTflVZOA/mqdefault.jpg","viewCount":"287","playlistId":"PLEkQk5xrP-tnmTYsyW6xNdyfhPq0Bhrhj","playlistName":"مقرأة الفجر - القُرْآنُ الكَرِيمُ - خَتْمَةُ التَّدَبُّرِ  أ.د. يسري جبر","category":"متنوع"},{"id":"3p9VtRcaJ3U","title":"مقرأة سورة يونس من آية ٢٦","publishedAt":"2017-05-12T06:11:49Z","duration":"PT14M13S","thumbnail":"https://i.ytimg.com/vi/3p9VtRcaJ3U/mqdefault.jpg","viewCount":"311","playlistId":"PLEkQk5xrP-tnmTYsyW6xNdyfhPq0Bhrhj","playlistName":"مقرأة الفجر - القُرْآنُ الكَرِيمُ - خَتْمَةُ التَّدَبُّرِ  أ.د. يسري جبر","category":"متنوع"},{"id":"43RTwm4Myhw","title":"سورة المائدة آية 45","publishedAt":"2016-11-11T04:05:55Z","duration":"PT10M11S","thumbnail":"https://i.ytimg.com/vi/43RTwm4Myhw/mqdefault.jpg","viewCount":"361","playlistId":"PLEkQk5xrP-tnmTYsyW6xNdyfhPq0Bhrhj","playlistName":"مقرأة الفجر - القُرْآنُ الكَرِيمُ - خَتْمَةُ التَّدَبُّرِ  أ.د. يسري جبر","category":"متنوع"},{"id":"EwJN3qkmIs4","title":"سورة المائدة آية 42","publishedAt":"2016-11-10T04:24:06Z","duration":"PT18M41S","thumbnail":"https://i.ytimg.com/vi/EwJN3qkmIs4/mqdefault.jpg","viewCount":"390","playlistId":"PLEkQk5xrP-tnmTYsyW6xNdyfhPq0Bhrhj","playlistName":"مقرأة الفجر - القُرْآنُ الكَرِيمُ - خَتْمَةُ التَّدَبُّرِ  أ.د. يسري جبر","category":"متنوع"},{"id":"7Kpb9i5iLn8","title":"مقرأة سورة القصص من آية ٤٣","publishedAt":"2018-05-20T23:14:02Z","duration":"PT22M48S","thumbnail":"https://i.ytimg.com/vi/7Kpb9i5iLn8/mqdefault.jpg","viewCount":"290","playlistId":"PLEkQk5xrP-tnmTYsyW6xNdyfhPq0Bhrhj","playlistName":"مقرأة الفجر - القُرْآنُ الكَرِيمُ - خَتْمَةُ التَّدَبُّرِ  أ.د. يسري جبر","category":"متنوع"},{"id":"2uVNfTcY9nw","title":"مقرأة سورة الصافات من آية ٢٥","publishedAt":"2018-09-15T21:00:09Z","duration":"PT33M5S","thumbnail":"https://i.ytimg.com/vi/2uVNfTcY9nw/mqdefault.jpg","viewCount":"370","playlistId":"PLEkQk5xrP-tnmTYsyW6xNdyfhPq0Bhrhj","playlistName":"مقرأة الفجر - القُرْآنُ الكَرِيمُ - خَتْمَةُ التَّدَبُّرِ  أ.د. يسري جبر","category":"متنوع"},{"id":"w_TD5cHtdm0","title":"مقرأة سورة الصافات من آية ٢٠","publishedAt":"2018-09-14T17:20:49Z","duration":"PT30M36S","thumbnail":"https://i.ytimg.com/vi/w_TD5cHtdm0/mqdefault.jpg","viewCount":"467","playlistId":"PLEkQk5xrP-tnmTYsyW6xNdyfhPq0Bhrhj","playlistName":"مقرأة الفجر - القُرْآنُ الكَرِيمُ - خَتْمَةُ التَّدَبُّرِ  أ.د. يسري جبر","category":"متنوع"},{"id":"CFpNUdCxjpU","title":"مقرأة سورة الصافات من آية ١١","publishedAt":"2018-09-13T10:05:02Z","duration":"PT18M50S","thumbnail":"https://i.ytimg.com/vi/CFpNUdCxjpU/mqdefault.jpg","viewCount":"398","playlistId":"PLEkQk5xrP-tnmTYsyW6xNdyfhPq0Bhrhj","playlistName":"مقرأة الفجر - القُرْآنُ الكَرِيمُ - خَتْمَةُ التَّدَبُّرِ  أ.د. يسري جبر","category":"متنوع"},{"id":"GD2N2UiXGBg","title":"مقرأة سورة الصافات من أولها","publishedAt":"2018-09-12T10:44:13Z","duration":"PT11M57S","thumbnail":"https://i.ytimg.com/vi/GD2N2UiXGBg/mqdefault.jpg","viewCount":"440","playlistId":"PLEkQk5xrP-tnmTYsyW6xNdyfhPq0Bhrhj","playlistName":"مقرأة الفجر - القُرْآنُ الكَرِيمُ - خَتْمَةُ التَّدَبُّرِ  أ.د. يسري جبر","category":"متنوع"},{"id":"e6FtiGmBdpI","title":"مقرأة سورة يس من آية ٧٧","publishedAt":"2018-09-11T09:26:09Z","duration":"PT26M26S","thumbnail":"https://i.ytimg.com/vi/e6FtiGmBdpI/mqdefault.jpg","viewCount":"577","playlistId":"PLEkQk5xrP-tnmTYsyW6xNdyfhPq0Bhrhj","playlistName":"مقرأة الفجر - القُرْآنُ الكَرِيمُ - خَتْمَةُ التَّدَبُّرِ  أ.د. يسري جبر","category":"متنوع"}],"total":942,"page":6,"pageSize":24,"totalPages":40}