{"items":[{"id":"Co0fLk8cUkg","title":"سورة هود آية 6","publishedAt":"2017-06-01T21:28:07Z","duration":"PT15M28S","thumbnail":"https://i.ytimg.com/vi/Co0fLk8cUkg/mqdefault.jpg","viewCount":"396","playlistId":"PLEkQk5xrP-tnmTYsyW6xNdyfhPq0Bhrhj","playlistName":"مقرأة الفجر - القُرْآنُ الكَرِيمُ - خَتْمَةُ التَّدَبُّرِ  أ.د. يسري جبر","category":"متنوع"},{"id":"LxA9vNq0e0E","title":"مقرأة سورة الشورى من آية ١٣","publishedAt":"2018-11-30T05:13:10Z","duration":"PT15M7S","thumbnail":"https://i.ytimg.com/vi/LxA9vNq0e0E/mqdefault.jpg","viewCount":"323","playlistId":"PLEkQk5xrP-tnmTYsyW6xNdyfhPq0Bhrhj","playlistName":"مقرأة الفجر - القُرْآنُ الكَرِيمُ - خَتْمَةُ التَّدَبُّرِ  أ.د. يسري جبر","category":"متنوع"},{"id":"mpLvNLpY-PE","title":"مقرأة سورة الشورى من آية ٩","publishedAt":"2018-11-29T19:33:52Z","duration":"PT25M31S","thumbnail":"https://i.ytimg.com/vi/mpLvNLpY-PE/mqdefault.jpg","viewCount":"553","playlistId":"PLEkQk5xrP-tnmTYsyW6xNdyfhPq0Bhrhj","playlistName":"مقرأة الفجر - القُرْآنُ الكَرِيمُ - خَتْمَةُ التَّدَبُّرِ  أ.د. يسري جبر","category":"متنوع"},{"id":"DCo__NwlWgM","title":"مقرأة سورة الشورى من أولها","publishedAt":"2018-11-28T14:34:53Z","duration":"PT22M45S","thumbnail":"https://i.ytimg.com/vi/DCo__NwlWgM/mqdefault.jpg","viewCount":"1222","playlistId":"PLEkQk5xrP-tnmTYsyW6xNdyfhPq0Bhrhj","playlistName":"مقرأة الفجر - القُرْآنُ الكَرِيمُ - خَتْمَةُ التَّدَبُّرِ  أ.د. يسري جبر","category":"متنوع"},{"id":"Dx1W462bAMA","title":"مقرأة سورة فصلت من آية ٤٥","publishedAt":"2018-11-27T10:03:01Z","duration":"PT31M50S","thumbnail":"https://i.ytimg.com/vi/Dx1W462bAMA/mqdefault.jpg","viewCount":"344","playlistId":"PLEkQk5xrP-tnmTYsyW6xNdyfhPq0Bhrhj","playlistName":"مقرأة الفجر - القُرْآنُ الكَرِيمُ - خَتْمَةُ التَّدَبُّرِ  أ.د. يسري جبر","category":"متنوع"},{"id":"1gQzccNaCDs","title":"مقرأة سورة فصلت من آية ٤٠","publishedAt":"2018-11-26T09:12:33Z","duration":"PT22M51S","thumbnail":"https://i.ytimg.com/vi/1gQzccNaCDs/mqdefault.jpg","viewCount":"341","playlistId":"PLEkQk5xrP-tnmTYsyW6xNdyfhPq0Bhrhj","playlistName":"مقرأة الفجر - القُرْآنُ الكَرِيمُ - خَتْمَةُ التَّدَبُّرِ  أ.د. يسري جبر","category":"متنوع"},{"id":"sXOhFfkDSY4","title":"سورة الأنعام آية 75","publishedAt":"2016-12-21T07:59:11Z","duration":"PT17M9S","thumbnail":"https://i.ytimg.com/vi/sXOhFfkDSY4/mqdefault.jpg","viewCount":"449","playlistId":"PLEkQk5xrP-tnmTYsyW6xNdyfhPq0Bhrhj","playlistName":"مقرأة الفجر - القُرْآنُ الكَرِيمُ - خَتْمَةُ التَّدَبُّرِ  أ.د. يسري جبر","category":"متنوع"},{"id":"V71jhTeiNr4","title":"سورة الأنعام آية 74","publishedAt":"2016-12-20T12:14:12Z","duration":"PT26M30S","thumbnail":"https://i.ytimg.com/vi/V71jhTeiNr4/mqdefault.jpg","viewCount":"386","playlistId":"PLEkQk5xrP-tnmTYsyW6xNdyfhPq0Bhrhj","playlistName":"مقرأة الفجر - القُرْآنُ الكَرِيمُ - خَتْمَةُ التَّدَبُّرِ  أ.د. يسري جبر","category":"متنوع"},{"id":"MrBce30v608","title":"سورة الأنعام آية 71","publishedAt":"2016-12-19T06:46:40Z","duration":"PT12M12S","thumbnail":"https://i.ytimg.com/vi/MrBce30v608/mqdefault.jpg","viewCount":"514","playlistId":"PLEkQk5xrP-tnmTYsyW6xNdyfhPq0Bhrhj","playlistName":"مقرأة الفجر - القُرْآنُ الكَرِيمُ - خَتْمَةُ التَّدَبُّرِ  أ.د. يسري جبر","category":"متنوع"},{"id":"5Quu1qhnQ6M","title":"مقرأة سورة هود من أولها","publishedAt":"2017-05-26T17:24:04Z","duration":"PT16M18S","thumbnail":"https://i.ytimg.com/vi/5Quu1qhnQ6M/mqdefault.jpg","viewCount":"515","playlistId":"PLEkQk5xrP-tnmTYsyW6xNdyfhPq0Bhrhj","playlistName":"مقرأة الفجر - القُرْآنُ الكَرِيمُ - خَتْمَةُ التَّدَبُّرِ  أ.د. يسري جبر","category":"متنوع"},{"id":"9P5VM9dVHco","title":"سورة يونس آية 99","publishedAt":"2017-05-25T12:13:36Z","duration":"PT23M20S","thumbnail":"https://i.ytimg.com/vi/9P5VM9dVHco/mqdefault.jpg","viewCount":"570","playlistId":"PLEkQk5xrP-tnmTYsyW6xNdyfhPq0Bhrhj","playlistName":"مقرأة الفجر - القُرْآنُ الكَرِيمُ - خَتْمَةُ التَّدَبُّرِ  أ.د. يسري جبر","category":"متنوع"},{"id":"7ZqfJ7651_E","title":"مقرأة سورة يونس من آية ٩٠","publishedAt":"2017-05-24T12:05:57Z","duration":"PT22M47S","thumbnail":"https://i.ytimg.com/vi/7ZqfJ7651_E/mqdefault.jpg","viewCount":"430","playlistId":"PLEkQk5xrP-tnmTYsyW6xNdyfhPq0Bhrhj","playlistName":"مقرأة الفجر - القُرْآنُ الكَرِيمُ - خَتْمَةُ التَّدَبُّرِ  أ.د. يسري جبر","category":"متنوع"},{"id":"dE5US1_ZnDo","title":"مقرأة سورة مريم من آية ٦٦","publishedAt":"2017-11-15T21:55:47Z","duration":"PT12M51S","thumbnail":"https://i.ytimg.com/vi/dE5US1_ZnDo/mqdefault.jpg","viewCount":"358","playlistId":"PLEkQk5xrP-tnmTYsyW6xNdyfhPq0Bhrhj","playlistName":"مقرأة الفجر - القُرْآنُ الكَرِيمُ - خَتْمَةُ التَّدَبُّرِ  أ.د. يسري جبر","category":"متنوع"},{"id":"bhfIYdMUdmY","title":"مقرأة سورة مريم من آية ٥٩","publishedAt":"2017-11-12T11:44:17Z","duration":"PT14M9S","thumbnail":"https://i.ytimg.com/vi/bhfIYdMUdmY/mqdefault.jpg","viewCount":"402","playlistId":"PLEkQk5xrP-tnmTYsyW6xNdyfhPq0Bhrhj","playlistName":"مقرأة الفجر - القُرْآنُ الكَرِيمُ - خَتْمَةُ التَّدَبُّرِ  أ.د. يسري جبر","category":"متنوع"},{"id":"q56jxNjC4KM","title":"مقرأة سورة مريم من آية ٥١","publishedAt":"2017-11-10T11:38:11Z","duration":"PT13M54S","thumbnail":"https://i.ytimg.com/vi/q56jxNjC4KM/mqdefault.jpg","viewCount":"374","playlistId":"PLEkQk5xrP-tnmTYsyW6xNdyfhPq0Bhrhj","playlistName":"مقرأة الفجر - القُرْآنُ الكَرِيمُ - خَتْمَةُ التَّدَبُّرِ  أ.د. يسري جبر","category":"متنوع"},{"id":"xYEjrKJ45Yw","title":"مقرأة سورة يونس من آية ٨٣","publishedAt":"2017-05-23T07:26:27Z","duration":"PT23M10S","thumbnail":"https://i.ytimg.com/vi/xYEjrKJ45Yw/mqdefault.jpg","viewCount":"820","playlistId":"PLEkQk5xrP-tnmTYsyW6xNdyfhPq0Bhrhj","playlistName":"مقرأة الفجر - القُرْآنُ الكَرِيمُ - خَتْمَةُ التَّدَبُّرِ  أ.د. يسري جبر","category":"متنوع"},{"id":"I5RpuHNu-yc","title":"مقرأة سورة يونس من آية ٧١","publishedAt":"2017-05-20T13:19:30Z","duration":"PT19M40S","thumbnail":"https://i.ytimg.com/vi/I5RpuHNu-yc/mqdefault.jpg","viewCount":"291","playlistId":"PLEkQk5xrP-tnmTYsyW6xNdyfhPq0Bhrhj","playlistName":"مقرأة الفجر - القُرْآنُ الكَرِيمُ - خَتْمَةُ التَّدَبُّرِ  أ.د. يسري جبر","category":"متنوع"},{"id":"Fafg5VF3yvY","title":"مقرأة سورة يونس من آية ٦٦","publishedAt":"2017-05-19T08:46:22Z","duration":"PT16M13S","thumbnail":"https://i.ytimg.com/vi/Fafg5VF3yvY/mqdefault.jpg","viewCount":"362","playlistId":"PLEkQk5xrP-tnmTYsyW6xNdyfhPq0Bhrhj","playlistName":"مقرأة الفجر - القُرْآنُ الكَرِيمُ - خَتْمَةُ التَّدَبُّرِ  أ.د. يسري جبر","category":"متنوع"},{"id":"K_q6RpJZDw8","title":"مقرأة سورة يونس من آية ٦١","publishedAt":"2017-05-18T11:04:16Z","duration":"PT21M10S","thumbnail":"https://i.ytimg.com/vi/K_q6RpJZDw8/mqdefault.jpg","viewCount":"302","playlistId":"PLEkQk5xrP-tnmTYsyW6xNdyfhPq0Bhrhj","playlistName":"مقرأة الفجر - القُرْآنُ الكَرِيمُ - خَتْمَةُ التَّدَبُّرِ  أ.د. يسري جبر","category":"متنوع"},{"id":"dqnaQGeIS1Q","title":"مقرأة سورة يونس من آية ٥٣","publishedAt":"2017-05-17T12:41:24Z","duration":"PT14M15S","thumbnail":"https://i.ytimg.com/vi/dqnaQGeIS1Q/mqdefault.jpg","viewCount":"325","playlistId":"PLEkQk5xrP-tnmTYsyW6xNdyfhPq0Bhrhj","playlistName":"مقرأة الفجر - القُرْآنُ الكَرِيمُ - خَتْمَةُ التَّدَبُّرِ  أ.د. يسري جبر","category":"متنوع"},{"id":"vGSV4rz-g4I","title":"سورة يونس  آية 46","publishedAt":"2017-05-16T11:20:55Z","duration":"PT13M17S","thumbnail":"https://i.ytimg.com/vi/vGSV4rz-g4I/mqdefault.jpg","viewCount":"315","playlistId":"PLEkQk5xrP-tnmTYsyW6xNdyfhPq0Bhrhj","playlistName":"مقرأة الفجر - القُرْآنُ الكَرِيمُ - خَتْمَةُ التَّدَبُّرِ  أ.د. يسري جبر","category":"متنوع"},{"id":"QnfCt6oO-nc","title":"مقرأة سورة يونس من آية ٤١","publishedAt":"2017-05-15T11:14:58Z","duration":"PT10M47S","thumbnail":"https://i.ytimg.com/vi/QnfCt6oO-nc/mqdefault.jpg","viewCount":"300","playlistId":"PLEkQk5xrP-tnmTYsyW6xNdyfhPq0Bhrhj","playlistName":"مقرأة الفجر - القُرْآنُ الكَرِيمُ - خَتْمَةُ التَّدَبُّرِ  أ.د. يسري جبر","category":"متنوع"},{"id":"l8nh1QyxV2c","title":"مقرأة سورة الدخان من آية ٥١","publishedAt":"2018-12-26T12:12:45Z","duration":"PT14M5S","thumbnail":"https://i.ytimg.com/vi/l8nh1QyxV2c/mqdefault.jpg","viewCount":"304","playlistId":"PLEkQk5xrP-tnmTYsyW6xNdyfhPq0Bhrhj","playlistName":"مقرأة الفجر - القُرْآنُ الكَرِيمُ - خَتْمَةُ التَّدَبُّرِ  أ.د. يسري جبر","category":"متنوع"},{"id":"6K-LYgKtGDk","title":"مقرأة سورة الدخان من آية ٣٧","publishedAt":"2018-12-25T12:40:23Z","duration":"PT22M","thumbnail":"https://i.ytimg.com/vi/6K-LYgKtGDk/mqdefault.jpg","viewCount":"780","playlistId":"PLEkQk5xrP-tnmTYsyW6xNdyfhPq0Bhrhj","playlistName":"مقرأة الفجر - القُرْآنُ الكَرِيمُ - خَتْمَةُ التَّدَبُّرِ  أ.د. يسري جبر","category":"متنوع"}],"total":942,"page":17,"pageSize":24,"totalPages":40}