{"items":[{"id":"qPCPOpkPdjw","title":"سورة الأنعام آية 158","publishedAt":"2017-01-14T18:23:21Z","duration":"PT43M31S","thumbnail":"https://i.ytimg.com/vi/qPCPOpkPdjw/mqdefault.jpg","viewCount":"493","playlistId":"PLEkQk5xrP-tnmTYsyW6xNdyfhPq0Bhrhj","playlistName":"مقرأة الفجر - القُرْآنُ الكَرِيمُ - خَتْمَةُ التَّدَبُّرِ  أ.د. يسري جبر","category":"متنوع"},{"id":"B4DFBLRTaSo","title":"سورة النساء آية 6","publishedAt":"2016-08-12T15:46:07Z","duration":"PT13M13S","thumbnail":"https://i.ytimg.com/vi/B4DFBLRTaSo/mqdefault.jpg","viewCount":"588","playlistId":"PLEkQk5xrP-tnmTYsyW6xNdyfhPq0Bhrhj","playlistName":"مقرأة الفجر - القُرْآنُ الكَرِيمُ - خَتْمَةُ التَّدَبُّرِ  أ.د. يسري جبر","category":"متنوع"},{"id":"tR0eMdoBvKw","title":"سورة النساء آية 5","publishedAt":"2016-08-10T05:59:30Z","duration":"PT10M46S","thumbnail":"https://i.ytimg.com/vi/tR0eMdoBvKw/mqdefault.jpg","viewCount":"582","playlistId":"PLEkQk5xrP-tnmTYsyW6xNdyfhPq0Bhrhj","playlistName":"مقرأة الفجر - القُرْآنُ الكَرِيمُ - خَتْمَةُ التَّدَبُّرِ  أ.د. يسري جبر","category":"متنوع"},{"id":"7p7OF4HAnOU","title":"سورة النساء آية 2","publishedAt":"2016-08-09T05:47:57Z","duration":"PT12M56S","thumbnail":"https://i.ytimg.com/vi/7p7OF4HAnOU/mqdefault.jpg","viewCount":"746","playlistId":"PLEkQk5xrP-tnmTYsyW6xNdyfhPq0Bhrhj","playlistName":"مقرأة الفجر - القُرْآنُ الكَرِيمُ - خَتْمَةُ التَّدَبُّرِ  أ.د. يسري جبر","category":"متنوع"},{"id":"LwyujWYPJ7g","title":"سورة النساء من أولها","publishedAt":"2016-08-08T06:40:27Z","duration":"PT19M53S","thumbnail":"https://i.ytimg.com/vi/LwyujWYPJ7g/mqdefault.jpg","viewCount":"933","playlistId":"PLEkQk5xrP-tnmTYsyW6xNdyfhPq0Bhrhj","playlistName":"مقرأة الفجر - القُرْآنُ الكَرِيمُ - خَتْمَةُ التَّدَبُّرِ  أ.د. يسري جبر","category":"متنوع"},{"id":"q2c2DHJNO6M","title":"سورة النساء آية 12","publishedAt":"2016-08-13T06:03:45Z","duration":"PT12M13S","thumbnail":"https://i.ytimg.com/vi/q2c2DHJNO6M/mqdefault.jpg","viewCount":"475","playlistId":"PLEkQk5xrP-tnmTYsyW6xNdyfhPq0Bhrhj","playlistName":"مقرأة الفجر - القُرْآنُ الكَرِيمُ - خَتْمَةُ التَّدَبُّرِ  أ.د. يسري جبر","category":"متنوع"},{"id":"Uie1YHnFFRY","title":"سورة النساء آية 11","publishedAt":"2016-08-12T17:47:12Z","duration":"PT14M15S","thumbnail":"https://i.ytimg.com/vi/Uie1YHnFFRY/mqdefault.jpg","viewCount":"626","playlistId":"PLEkQk5xrP-tnmTYsyW6xNdyfhPq0Bhrhj","playlistName":"مقرأة الفجر - القُرْآنُ الكَرِيمُ - خَتْمَةُ التَّدَبُّرِ  أ.د. يسري جبر","category":"متنوع"},{"id":"-_0fel8_IZ0","title":"مقرأة سورة المؤمنون آية ٣١","publishedAt":"2018-02-24T12:18:41Z","duration":"PT19M21S","thumbnail":"https://i.ytimg.com/vi/-_0fel8_IZ0/mqdefault.jpg","viewCount":"600","playlistId":"PLEkQk5xrP-tnmTYsyW6xNdyfhPq0Bhrhj","playlistName":"مقرأة الفجر - القُرْآنُ الكَرِيمُ - خَتْمَةُ التَّدَبُّرِ  أ.د. يسري جبر","category":"متنوع"},{"id":"XFS70b5ax0g","title":"مقرأة سورة المؤمنون آية ٢٣","publishedAt":"2018-02-23T08:34:27Z","duration":"PT22M41S","thumbnail":"https://i.ytimg.com/vi/XFS70b5ax0g/mqdefault.jpg","viewCount":"301","playlistId":"PLEkQk5xrP-tnmTYsyW6xNdyfhPq0Bhrhj","playlistName":"مقرأة الفجر - القُرْآنُ الكَرِيمُ - خَتْمَةُ التَّدَبُّرِ  أ.د. يسري جبر","category":"متنوع"},{"id":"_fD79t8g4Cw","title":"مقرأة سورة المؤمنون آية ١٧","publishedAt":"2018-02-22T08:24:40Z","duration":"PT26M32S","thumbnail":"https://i.ytimg.com/vi/_fD79t8g4Cw/mqdefault.jpg","viewCount":"332","playlistId":"PLEkQk5xrP-tnmTYsyW6xNdyfhPq0Bhrhj","playlistName":"مقرأة الفجر - القُرْآنُ الكَرِيمُ - خَتْمَةُ التَّدَبُّرِ  أ.د. يسري جبر","category":"متنوع"},{"id":"qaiiBOZj0I8","title":"مقرأة سورة المؤمنون آية ١٢","publishedAt":"2018-02-21T11:23:57Z","duration":"PT12M22S","thumbnail":"https://i.ytimg.com/vi/qaiiBOZj0I8/mqdefault.jpg","viewCount":"341","playlistId":"PLEkQk5xrP-tnmTYsyW6xNdyfhPq0Bhrhj","playlistName":"مقرأة الفجر - القُرْآنُ الكَرِيمُ - خَتْمَةُ التَّدَبُّرِ  أ.د. يسري جبر","category":"متنوع"},{"id":"8gfExRyd9Jg","title":"مقرأة سورة المؤمنون من أولها","publishedAt":"2018-02-20T16:08:54Z","duration":"PT20M25S","thumbnail":"https://i.ytimg.com/vi/8gfExRyd9Jg/mqdefault.jpg","viewCount":"465","playlistId":"PLEkQk5xrP-tnmTYsyW6xNdyfhPq0Bhrhj","playlistName":"مقرأة الفجر - القُرْآنُ الكَرِيمُ - خَتْمَةُ التَّدَبُّرِ  أ.د. يسري جبر","category":"متنوع"},{"id":"KO0D6O_uZnY","title":"مقرأة سورة الحج من آية ٧٧","publishedAt":"2018-02-19T12:37:10Z","duration":"PT15M13S","thumbnail":"https://i.ytimg.com/vi/KO0D6O_uZnY/mqdefault.jpg","viewCount":"241","playlistId":"PLEkQk5xrP-tnmTYsyW6xNdyfhPq0Bhrhj","playlistName":"مقرأة الفجر - القُرْآنُ الكَرِيمُ - خَتْمَةُ التَّدَبُّرِ  أ.د. يسري جبر","category":"متنوع"},{"id":"YjZDoc9iQhA","title":"مقرأة سورة محمد من آية ١٣","publishedAt":"2019-01-13T10:06:36Z","duration":"PT19M4S","thumbnail":"https://i.ytimg.com/vi/YjZDoc9iQhA/mqdefault.jpg","viewCount":"407","playlistId":"PLEkQk5xrP-tnmTYsyW6xNdyfhPq0Bhrhj","playlistName":"مقرأة الفجر - القُرْآنُ الكَرِيمُ - خَتْمَةُ التَّدَبُّرِ  أ.د. يسري جبر","category":"متنوع"},{"id":"pnKDpfvCCBM","title":"مقرأة سورة محمد من آية ٧","publishedAt":"2019-01-12T13:32:14Z","duration":"PT16M22S","thumbnail":"https://i.ytimg.com/vi/pnKDpfvCCBM/mqdefault.jpg","viewCount":"391","playlistId":"PLEkQk5xrP-tnmTYsyW6xNdyfhPq0Bhrhj","playlistName":"مقرأة الفجر - القُرْآنُ الكَرِيمُ - خَتْمَةُ التَّدَبُّرِ  أ.د. يسري جبر","category":"متنوع"},{"id":"tHkESVnmUNA","title":"مقرأة سورة المؤمنون آية 102","publishedAt":"2018-03-06T10:05:03Z","duration":"PT23M58S","thumbnail":"https://i.ytimg.com/vi/tHkESVnmUNA/mqdefault.jpg","viewCount":"228","playlistId":"PLEkQk5xrP-tnmTYsyW6xNdyfhPq0Bhrhj","playlistName":"مقرأة الفجر - القُرْآنُ الكَرِيمُ - خَتْمَةُ التَّدَبُّرِ  أ.د. يسري جبر","category":"متنوع"},{"id":"l51ThP-N2_4","title":"مقرأة سورة المؤمنون آية ٩٧","publishedAt":"2018-03-05T07:26:52Z","duration":"PT18M47S","thumbnail":"https://i.ytimg.com/vi/l51ThP-N2_4/mqdefault.jpg","viewCount":"259","playlistId":"PLEkQk5xrP-tnmTYsyW6xNdyfhPq0Bhrhj","playlistName":"مقرأة الفجر - القُرْآنُ الكَرِيمُ - خَتْمَةُ التَّدَبُّرِ  أ.د. يسري جبر","category":"متنوع"},{"id":"sJfX0S8MbtQ","title":"مقرأة سورة النحل من آية ٩٢","publishedAt":"2017-09-02T15:22:14Z","duration":"PT16M14S","thumbnail":"https://i.ytimg.com/vi/sJfX0S8MbtQ/mqdefault.jpg","viewCount":"365","playlistId":"PLEkQk5xrP-tnmTYsyW6xNdyfhPq0Bhrhj","playlistName":"مقرأة الفجر - القُرْآنُ الكَرِيمُ - خَتْمَةُ التَّدَبُّرِ  أ.د. يسري جبر","category":"متنوع"},{"id":"S8bT9NjqUak","title":"مقرأة سورة الأحزاب من ٱية ١٨","publishedAt":"2018-07-21T14:04:35Z","duration":"PT12M44S","thumbnail":"https://i.ytimg.com/vi/S8bT9NjqUak/mqdefault.jpg","viewCount":"311","playlistId":"PLEkQk5xrP-tnmTYsyW6xNdyfhPq0Bhrhj","playlistName":"مقرأة الفجر - القُرْآنُ الكَرِيمُ - خَتْمَةُ التَّدَبُّرِ  أ.د. يسري جبر","category":"متنوع"},{"id":"uQfUnMbc03w","title":"مقرأة سورة الأحزاب من ٱية ١٤","publishedAt":"2018-07-19T08:28:44Z","duration":"PT5M23S","thumbnail":"https://i.ytimg.com/vi/uQfUnMbc03w/mqdefault.jpg","viewCount":"327","playlistId":"PLEkQk5xrP-tnmTYsyW6xNdyfhPq0Bhrhj","playlistName":"مقرأة الفجر - القُرْآنُ الكَرِيمُ - خَتْمَةُ التَّدَبُّرِ  أ.د. يسري جبر","category":"متنوع"},{"id":"F7jrQT5yUZY","title":"مقرأة سورة الأحزاب من ٱية ٩","publishedAt":"2018-07-18T11:33:19Z","duration":"PT20M5S","thumbnail":"https://i.ytimg.com/vi/F7jrQT5yUZY/mqdefault.jpg","viewCount":"343","playlistId":"PLEkQk5xrP-tnmTYsyW6xNdyfhPq0Bhrhj","playlistName":"مقرأة الفجر - القُرْآنُ الكَرِيمُ - خَتْمَةُ التَّدَبُّرِ  أ.د. يسري جبر","category":"متنوع"},{"id":"jajlXeX8Ru8","title":"مقرأة سورة الأحزاب من ٱية ٦","publishedAt":"2018-07-17T10:55:52Z","duration":"PT19M41S","thumbnail":"https://i.ytimg.com/vi/jajlXeX8Ru8/mqdefault.jpg","viewCount":"378","playlistId":"PLEkQk5xrP-tnmTYsyW6xNdyfhPq0Bhrhj","playlistName":"مقرأة الفجر - القُرْآنُ الكَرِيمُ - خَتْمَةُ التَّدَبُّرِ  أ.د. يسري جبر","category":"متنوع"},{"id":"1mLMR9GbjiI","title":"مقرأة سورة الأحزاب من أولها","publishedAt":"2018-07-16T11:19:03Z","duration":"PT16M58S","thumbnail":"https://i.ytimg.com/vi/1mLMR9GbjiI/mqdefault.jpg","viewCount":"660","playlistId":"PLEkQk5xrP-tnmTYsyW6xNdyfhPq0Bhrhj","playlistName":"مقرأة الفجر - القُرْآنُ الكَرِيمُ - خَتْمَةُ التَّدَبُّرِ  أ.د. يسري جبر","category":"متنوع"},{"id":"1LW1kCy2McA","title":"مقرأة سورة المسد من أولها","publishedAt":"2019-08-16T04:14:58Z","duration":"PT20M6S","thumbnail":"https://i.ytimg.com/vi/1LW1kCy2McA/mqdefault.jpg","viewCount":"900","playlistId":"PLEkQk5xrP-tnmTYsyW6xNdyfhPq0Bhrhj","playlistName":"مقرأة الفجر - القُرْآنُ الكَرِيمُ - خَتْمَةُ التَّدَبُّرِ  أ.د. يسري جبر","category":"متنوع"}],"total":942,"page":12,"pageSize":24,"totalPages":40}