{"items":[{"id":"aUszkX_EqCU","title":"مقرأة سورة الشورى من آية ٣٦","publishedAt":"2018-12-05T11:43:24Z","duration":"PT28M8S","thumbnail":"https://i.ytimg.com/vi/aUszkX_EqCU/mqdefault.jpg","viewCount":"274","playlistId":"PLEkQk5xrP-tnmTYsyW6xNdyfhPq0Bhrhj","playlistName":"مقرأة الفجر - القُرْآنُ الكَرِيمُ - خَتْمَةُ التَّدَبُّرِ  أ.د. يسري جبر","category":"متنوع"},{"id":"cN7ntqC4OOM","title":"سورة المائدة آية 14","publishedAt":"2016-10-30T04:05:04Z","duration":"PT12M24S","thumbnail":"https://i.ytimg.com/vi/cN7ntqC4OOM/mqdefault.jpg","viewCount":"418","playlistId":"PLEkQk5xrP-tnmTYsyW6xNdyfhPq0Bhrhj","playlistName":"مقرأة الفجر - القُرْآنُ الكَرِيمُ - خَتْمَةُ التَّدَبُّرِ  أ.د. يسري جبر","category":"متنوع"},{"id":"sJGsfUbVbdE","title":"سورة المائدة آية 12","publishedAt":"2016-10-29T03:42:56Z","duration":"PT10M52S","thumbnail":"https://i.ytimg.com/vi/sJGsfUbVbdE/mqdefault.jpg","viewCount":"384","playlistId":"PLEkQk5xrP-tnmTYsyW6xNdyfhPq0Bhrhj","playlistName":"مقرأة الفجر - القُرْآنُ الكَرِيمُ - خَتْمَةُ التَّدَبُّرِ  أ.د. يسري جبر","category":"متنوع"},{"id":"7yFAVlNDbtU","title":"قراءة وتفسير سورة المائدة من آية ٨","publishedAt":"2016-10-28T12:36:31Z","duration":"PT23M39S","thumbnail":"https://i.ytimg.com/vi/7yFAVlNDbtU/mqdefault.jpg","viewCount":"496","playlistId":"PLEkQk5xrP-tnmTYsyW6xNdyfhPq0Bhrhj","playlistName":"مقرأة الفجر - القُرْآنُ الكَرِيمُ - خَتْمَةُ التَّدَبُّرِ  أ.د. يسري جبر","category":"متنوع"},{"id":"qax-pwEppCk","title":"قراءة وتفسير سورة المائدة آية 6","publishedAt":"2016-10-27T03:55:02Z","duration":"PT33M58S","thumbnail":"https://i.ytimg.com/vi/qax-pwEppCk/mqdefault.jpg","viewCount":"629","playlistId":"PLEkQk5xrP-tnmTYsyW6xNdyfhPq0Bhrhj","playlistName":"مقرأة الفجر - القُرْآنُ الكَرِيمُ - خَتْمَةُ التَّدَبُّرِ  أ.د. يسري جبر","category":"متنوع"},{"id":"96882MYyTjs","title":"مقرأة سورة المجادلة من آية ٢٠","publishedAt":"2019-03-30T19:41:07Z","duration":"PT20M35S","thumbnail":"https://i.ytimg.com/vi/96882MYyTjs/mqdefault.jpg","viewCount":"428","playlistId":"PLEkQk5xrP-tnmTYsyW6xNdyfhPq0Bhrhj","playlistName":"مقرأة الفجر - القُرْآنُ الكَرِيمُ - خَتْمَةُ التَّدَبُّرِ  أ.د. يسري جبر","category":"متنوع"},{"id":"HDL6459NZbs","title":"مقرأة سورة المجادلة من آية ١٢","publishedAt":"2019-03-28T11:18:55Z","duration":"PT14M7S","thumbnail":"https://i.ytimg.com/vi/HDL6459NZbs/mqdefault.jpg","viewCount":"428","playlistId":"PLEkQk5xrP-tnmTYsyW6xNdyfhPq0Bhrhj","playlistName":"مقرأة الفجر - القُرْآنُ الكَرِيمُ - خَتْمَةُ التَّدَبُّرِ  أ.د. يسري جبر","category":"متنوع"},{"id":"mJlhoAGG47M","title":"مقرأة سورة المجادلة من آية ٩","publishedAt":"2019-03-27T13:34:18Z","duration":"PT14M19S","thumbnail":"https://i.ytimg.com/vi/mJlhoAGG47M/mqdefault.jpg","viewCount":"437","playlistId":"PLEkQk5xrP-tnmTYsyW6xNdyfhPq0Bhrhj","playlistName":"مقرأة الفجر - القُرْآنُ الكَرِيمُ - خَتْمَةُ التَّدَبُّرِ  أ.د. يسري جبر","category":"متنوع"},{"id":"lrXTgsuUy1Y","title":"مقرأة سورة النحل من آية ٧٩","publishedAt":"2017-08-30T11:52:40Z","duration":"PT17M1S","thumbnail":"https://i.ytimg.com/vi/lrXTgsuUy1Y/mqdefault.jpg","viewCount":"308","playlistId":"PLEkQk5xrP-tnmTYsyW6xNdyfhPq0Bhrhj","playlistName":"مقرأة الفجر - القُرْآنُ الكَرِيمُ - خَتْمَةُ التَّدَبُّرِ  أ.د. يسري جبر","category":"متنوع"},{"id":"OePqo0_bp54","title":"مقرأة سورة النحل من آية ٧٥","publishedAt":"2017-08-29T14:48:13Z","duration":"PT11M39S","thumbnail":"https://i.ytimg.com/vi/OePqo0_bp54/mqdefault.jpg","viewCount":"279","playlistId":"PLEkQk5xrP-tnmTYsyW6xNdyfhPq0Bhrhj","playlistName":"مقرأة الفجر - القُرْآنُ الكَرِيمُ - خَتْمَةُ التَّدَبُّرِ  أ.د. يسري جبر","category":"متنوع"},{"id":"QZ-e_zcTL_8","title":"مقرأة سورة الأحزاب من ٱية ٦٠","publishedAt":"2018-08-02T13:32:21Z","duration":"PT16M8S","thumbnail":"https://i.ytimg.com/vi/QZ-e_zcTL_8/mqdefault.jpg","viewCount":"236","playlistId":"PLEkQk5xrP-tnmTYsyW6xNdyfhPq0Bhrhj","playlistName":"مقرأة الفجر - القُرْآنُ الكَرِيمُ - خَتْمَةُ التَّدَبُّرِ  أ.د. يسري جبر","category":"متنوع"},{"id":"XMufhvG1HsQ","title":"مقرأة سورة الأحزاب من ٱية ٥٤","publishedAt":"2018-08-01T07:38:00Z","duration":"PT15M48S","thumbnail":"https://i.ytimg.com/vi/XMufhvG1HsQ/mqdefault.jpg","viewCount":"372","playlistId":"PLEkQk5xrP-tnmTYsyW6xNdyfhPq0Bhrhj","playlistName":"مقرأة الفجر - القُرْآنُ الكَرِيمُ - خَتْمَةُ التَّدَبُّرِ  أ.د. يسري جبر","category":"متنوع"},{"id":"q-ERu8gq0Mk","title":"مقرأة سورة الأحزاب من ٱية ٥١","publishedAt":"2018-07-31T09:47:21Z","duration":"PT24M8S","thumbnail":"https://i.ytimg.com/vi/q-ERu8gq0Mk/mqdefault.jpg","viewCount":"375","playlistId":"PLEkQk5xrP-tnmTYsyW6xNdyfhPq0Bhrhj","playlistName":"مقرأة الفجر - القُرْآنُ الكَرِيمُ - خَتْمَةُ التَّدَبُّرِ  أ.د. يسري جبر","category":"متنوع"},{"id":"3chapVyYzhU","title":"مقرأة سورة الأحزاب من ٱية ٤٩","publishedAt":"2018-07-30T07:42:30Z","duration":"PT13M59S","thumbnail":"https://i.ytimg.com/vi/3chapVyYzhU/mqdefault.jpg","viewCount":"315","playlistId":"PLEkQk5xrP-tnmTYsyW6xNdyfhPq0Bhrhj","playlistName":"مقرأة الفجر - القُرْآنُ الكَرِيمُ - خَتْمَةُ التَّدَبُّرِ  أ.د. يسري جبر","category":"متنوع"},{"id":"aB98Idiamws","title":"مقرأة سورة الأحزاب من ٱية ٤٥","publishedAt":"2018-07-29T08:13:53Z","duration":"PT10M52S","thumbnail":"https://i.ytimg.com/vi/aB98Idiamws/mqdefault.jpg","viewCount":"270","playlistId":"PLEkQk5xrP-tnmTYsyW6xNdyfhPq0Bhrhj","playlistName":"مقرأة الفجر - القُرْآنُ الكَرِيمُ - خَتْمَةُ التَّدَبُّرِ  أ.د. يسري جبر","category":"متنوع"},{"id":"O2rmXxG03lI","title":"مقرأة سورة الأحزاب من ٱية ٤٠","publishedAt":"2018-07-26T20:49:37Z","duration":"PT11M38S","thumbnail":"https://i.ytimg.com/vi/O2rmXxG03lI/mqdefault.jpg","viewCount":"332","playlistId":"PLEkQk5xrP-tnmTYsyW6xNdyfhPq0Bhrhj","playlistName":"مقرأة الفجر - القُرْآنُ الكَرِيمُ - خَتْمَةُ التَّدَبُّرِ  أ.د. يسري جبر","category":"متنوع"},{"id":"WqlAL73gRkc","title":"مقرأة سورة الأحزاب من ٱية ٣٥","publishedAt":"2018-07-25T15:08:53Z","duration":"PT19M1S","thumbnail":"https://i.ytimg.com/vi/WqlAL73gRkc/mqdefault.jpg","viewCount":"435","playlistId":"PLEkQk5xrP-tnmTYsyW6xNdyfhPq0Bhrhj","playlistName":"مقرأة الفجر - القُرْآنُ الكَرِيمُ - خَتْمَةُ التَّدَبُّرِ  أ.د. يسري جبر","category":"متنوع"},{"id":"Aghn8mPw_a0","title":"مقرأة سورة الأحزاب من ٱية ٣٢","publishedAt":"2018-07-24T17:26:08Z","duration":"PT17M16S","thumbnail":"https://i.ytimg.com/vi/Aghn8mPw_a0/mqdefault.jpg","viewCount":"308","playlistId":"PLEkQk5xrP-tnmTYsyW6xNdyfhPq0Bhrhj","playlistName":"مقرأة الفجر - القُرْآنُ الكَرِيمُ - خَتْمَةُ التَّدَبُّرِ  أ.د. يسري جبر","category":"متنوع"},{"id":"W2oUUPf7hIA","title":"مقرأة سورة سبأ من آية ٤٣","publishedAt":"2018-08-16T12:50:54Z","duration":"PT17M37S","thumbnail":"https://i.ytimg.com/vi/W2oUUPf7hIA/mqdefault.jpg","viewCount":"262","playlistId":"PLEkQk5xrP-tnmTYsyW6xNdyfhPq0Bhrhj","playlistName":"مقرأة الفجر - القُرْآنُ الكَرِيمُ - خَتْمَةُ التَّدَبُّرِ  أ.د. يسري جبر","category":"متنوع"},{"id":"Rr78Yel83iU","title":"مقرأة سورة سبأ من آية ٤٠","publishedAt":"2018-08-15T07:33:01Z","duration":"PT5M6S","thumbnail":"https://i.ytimg.com/vi/Rr78Yel83iU/mqdefault.jpg","viewCount":"210","playlistId":"PLEkQk5xrP-tnmTYsyW6xNdyfhPq0Bhrhj","playlistName":"مقرأة الفجر - القُرْآنُ الكَرِيمُ - خَتْمَةُ التَّدَبُّرِ  أ.د. يسري جبر","category":"متنوع"},{"id":"lqkR5amBXkE","title":"مقرأة سورة سبأ من آية ٣٨","publishedAt":"2018-08-14T10:23:39Z","duration":"PT10M52S","thumbnail":"https://i.ytimg.com/vi/lqkR5amBXkE/mqdefault.jpg","viewCount":"324","playlistId":"PLEkQk5xrP-tnmTYsyW6xNdyfhPq0Bhrhj","playlistName":"مقرأة الفجر - القُرْآنُ الكَرِيمُ - خَتْمَةُ التَّدَبُّرِ  أ.د. يسري جبر","category":"متنوع"},{"id":"iW4if3uBVZU","title":"مقرأة سورة سبأ من آية ٣٤","publishedAt":"2018-08-13T07:55:16Z","duration":"PT9M30S","thumbnail":"https://i.ytimg.com/vi/iW4if3uBVZU/mqdefault.jpg","viewCount":"243","playlistId":"PLEkQk5xrP-tnmTYsyW6xNdyfhPq0Bhrhj","playlistName":"مقرأة الفجر - القُرْآنُ الكَرِيمُ - خَتْمَةُ التَّدَبُّرِ  أ.د. يسري جبر","category":"متنوع"},{"id":"F9NfSmFeyq4","title":"مقرأة سورة المدثر من آية ٣١","publishedAt":"2019-05-29T23:05:20Z","duration":"PT4M30S","thumbnail":"https://i.ytimg.com/vi/F9NfSmFeyq4/mqdefault.jpg","viewCount":"532","playlistId":"PLEkQk5xrP-tnmTYsyW6xNdyfhPq0Bhrhj","playlistName":"مقرأة الفجر - القُرْآنُ الكَرِيمُ - خَتْمَةُ التَّدَبُّرِ  أ.د. يسري جبر","category":"متنوع"},{"id":"9BdpEBQvwj0","title":"مقرأة سورة المدثر من آية ١١","publishedAt":"2019-05-29T00:02:18Z","duration":"PT13M58S","thumbnail":"https://i.ytimg.com/vi/9BdpEBQvwj0/mqdefault.jpg","viewCount":"373","playlistId":"PLEkQk5xrP-tnmTYsyW6xNdyfhPq0Bhrhj","playlistName":"مقرأة الفجر - القُرْآنُ الكَرِيمُ - خَتْمَةُ التَّدَبُّرِ  أ.د. يسري جبر","category":"متنوع"}],"total":942,"page":10,"pageSize":24,"totalPages":40}