{"items":[{"id":"4eGboMvrqIc","title":"مقرأة سورة الزخرف من آية ٦","publishedAt":"2018-12-11T09:36:23Z","duration":"PT20M28S","thumbnail":"https://i.ytimg.com/vi/4eGboMvrqIc/mqdefault.jpg","viewCount":"365","playlistId":"PLEkQk5xrP-tnmTYsyW6xNdyfhPq0Bhrhj","playlistName":"مقرأة الفجر - القُرْآنُ الكَرِيمُ - خَتْمَةُ التَّدَبُّرِ  أ.د. يسري جبر","category":"متنوع"},{"id":"wRX_QHUQIGs","title":"مقرأة سورة الزخرف من أولها","publishedAt":"2018-12-10T13:15:12Z","duration":"PT31M37S","thumbnail":"https://i.ytimg.com/vi/wRX_QHUQIGs/mqdefault.jpg","viewCount":"357","playlistId":"PLEkQk5xrP-tnmTYsyW6xNdyfhPq0Bhrhj","playlistName":"مقرأة الفجر - القُرْآنُ الكَرِيمُ - خَتْمَةُ التَّدَبُّرِ  أ.د. يسري جبر","category":"متنوع"},{"id":"UpdDA1UDI1Q","title":"مقرأة سورة الشورى من آية ٤٩","publishedAt":"2018-12-09T11:51:07Z","duration":"PT18M42S","thumbnail":"https://i.ytimg.com/vi/UpdDA1UDI1Q/mqdefault.jpg","viewCount":"331","playlistId":"PLEkQk5xrP-tnmTYsyW6xNdyfhPq0Bhrhj","playlistName":"مقرأة الفجر - القُرْآنُ الكَرِيمُ - خَتْمَةُ التَّدَبُّرِ  أ.د. يسري جبر","category":"متنوع"},{"id":"jUj0EXLPezE","title":"مقرأة سورة الشورى من آية ٤٤","publishedAt":"2018-12-08T12:44:26Z","duration":"PT19M9S","thumbnail":"https://i.ytimg.com/vi/jUj0EXLPezE/mqdefault.jpg","viewCount":"310","playlistId":"PLEkQk5xrP-tnmTYsyW6xNdyfhPq0Bhrhj","playlistName":"مقرأة الفجر - القُرْآنُ الكَرِيمُ - خَتْمَةُ التَّدَبُّرِ  أ.د. يسري جبر","category":"متنوع"},{"id":"p9xEZnuIpEA","title":"مقرأة سورة آل عمران من آية ١٠٤","publishedAt":"2019-09-26T22:31:25Z","duration":"PT20M4S","thumbnail":"https://i.ytimg.com/vi/p9xEZnuIpEA/mqdefault.jpg","viewCount":"519","playlistId":"PLEkQk5xrP-tnmTYsyW6xNdyfhPq0Bhrhj","playlistName":"مقرأة الفجر - القُرْآنُ الكَرِيمُ - خَتْمَةُ التَّدَبُّرِ  أ.د. يسري جبر","category":"متنوع"},{"id":"DRYCh8pgOcw","title":"مقرأة سورة آل عمران من آية ٤٢","publishedAt":"2019-09-26T21:13:10Z","duration":"PT31M6S","thumbnail":"https://i.ytimg.com/vi/DRYCh8pgOcw/mqdefault.jpg","viewCount":"543","playlistId":"PLEkQk5xrP-tnmTYsyW6xNdyfhPq0Bhrhj","playlistName":"مقرأة الفجر - القُرْآنُ الكَرِيمُ - خَتْمَةُ التَّدَبُّرِ  أ.د. يسري جبر","category":"متنوع"},{"id":"8u63-0w2KwU","title":"سورة آل عمران آية 196","publishedAt":"2016-08-07T09:38:03Z","duration":"PT15M47S","thumbnail":"https://i.ytimg.com/vi/8u63-0w2KwU/mqdefault.jpg","viewCount":"437","playlistId":"PLEkQk5xrP-tnmTYsyW6xNdyfhPq0Bhrhj","playlistName":"مقرأة الفجر - القُرْآنُ الكَرِيمُ - خَتْمَةُ التَّدَبُّرِ  أ.د. يسري جبر","category":"متنوع"},{"id":"6MqaLpqcg04","title":"سورة آل عمران آية 190","publishedAt":"2016-08-06T07:53:36Z","duration":"PT22M30S","thumbnail":"https://i.ytimg.com/vi/6MqaLpqcg04/mqdefault.jpg","viewCount":"443","playlistId":"PLEkQk5xrP-tnmTYsyW6xNdyfhPq0Bhrhj","playlistName":"مقرأة الفجر - القُرْآنُ الكَرِيمُ - خَتْمَةُ التَّدَبُّرِ  أ.د. يسري جبر","category":"متنوع"},{"id":"znw3q_YGozE","title":"قراءة وتفسير القرآن (من آية  ١٨٦ سورة آل عمران)","publishedAt":"2016-08-06T06:15:52Z","duration":"PT17M58S","thumbnail":"https://i.ytimg.com/vi/znw3q_YGozE/mqdefault.jpg","viewCount":"402","playlistId":"PLEkQk5xrP-tnmTYsyW6xNdyfhPq0Bhrhj","playlistName":"مقرأة الفجر - القُرْآنُ الكَرِيمُ - خَتْمَةُ التَّدَبُّرِ  أ.د. يسري جبر","category":"متنوع"},{"id":"quLeWLNPWh0","title":"مقرأة سورة الحج من آية ٧٤","publishedAt":"2018-02-18T17:53:29Z","duration":"PT21M48S","thumbnail":"https://i.ytimg.com/vi/quLeWLNPWh0/mqdefault.jpg","viewCount":"266","playlistId":"PLEkQk5xrP-tnmTYsyW6xNdyfhPq0Bhrhj","playlistName":"مقرأة الفجر - القُرْآنُ الكَرِيمُ - خَتْمَةُ التَّدَبُّرِ  أ.د. يسري جبر","category":"متنوع"},{"id":"Fr8Xy1bgGmA","title":"مقرأة سورة الحج من آية ٧٢","publishedAt":"2018-02-17T11:51:33Z","duration":"PT23M20S","thumbnail":"https://i.ytimg.com/vi/Fr8Xy1bgGmA/mqdefault.jpg","viewCount":"257","playlistId":"PLEkQk5xrP-tnmTYsyW6xNdyfhPq0Bhrhj","playlistName":"مقرأة الفجر - القُرْآنُ الكَرِيمُ - خَتْمَةُ التَّدَبُّرِ  أ.د. يسري جبر","category":"متنوع"},{"id":"z58G2WlBeXU","title":"مقرأة سورة الحج من آية ٦٦","publishedAt":"2018-02-16T07:23:50Z","duration":"PT12M18S","thumbnail":"https://i.ytimg.com/vi/z58G2WlBeXU/mqdefault.jpg","viewCount":"660","playlistId":"PLEkQk5xrP-tnmTYsyW6xNdyfhPq0Bhrhj","playlistName":"مقرأة الفجر - القُرْآنُ الكَرِيمُ - خَتْمَةُ التَّدَبُّرِ  أ.د. يسري جبر","category":"متنوع"},{"id":"AEkT5QWmsfs","title":"قراءة وتفسير القرآن (من آية ١٨١ سورة آل عمران)","publishedAt":"2016-08-04T05:54:33Z","duration":"PT14M54S","thumbnail":"https://i.ytimg.com/vi/AEkT5QWmsfs/mqdefault.jpg","viewCount":"493","playlistId":"PLEkQk5xrP-tnmTYsyW6xNdyfhPq0Bhrhj","playlistName":"مقرأة الفجر - القُرْآنُ الكَرِيمُ - خَتْمَةُ التَّدَبُّرِ  أ.د. يسري جبر","category":"متنوع"},{"id":"CgQ_yXtUPeQ","title":"سورة الأنعام آية 151","publishedAt":"2017-01-12T20:12:46Z","duration":"PT35M21S","thumbnail":"https://i.ytimg.com/vi/CgQ_yXtUPeQ/mqdefault.jpg","viewCount":"567","playlistId":"PLEkQk5xrP-tnmTYsyW6xNdyfhPq0Bhrhj","playlistName":"مقرأة الفجر - القُرْآنُ الكَرِيمُ - خَتْمَةُ التَّدَبُّرِ  أ.د. يسري جبر","category":"متنوع"},{"id":"aZloXSJvnRY","title":"سورة الأنعام آية 146","publishedAt":"2017-01-11T07:21:08Z","duration":"PT30M13S","thumbnail":"https://i.ytimg.com/vi/aZloXSJvnRY/mqdefault.jpg","viewCount":"525","playlistId":"PLEkQk5xrP-tnmTYsyW6xNdyfhPq0Bhrhj","playlistName":"مقرأة الفجر - القُرْآنُ الكَرِيمُ - خَتْمَةُ التَّدَبُّرِ  أ.د. يسري جبر","category":"متنوع"},{"id":"TnT1V6HJGiU","title":"سورة الأنعام آية 143","publishedAt":"2017-01-10T05:35:11Z","duration":"PT21M38S","thumbnail":"https://i.ytimg.com/vi/TnT1V6HJGiU/mqdefault.jpg","viewCount":"425","playlistId":"PLEkQk5xrP-tnmTYsyW6xNdyfhPq0Bhrhj","playlistName":"مقرأة الفجر - القُرْآنُ الكَرِيمُ - خَتْمَةُ التَّدَبُّرِ  أ.د. يسري جبر","category":"متنوع"},{"id":"OOxZEQWGOI4","title":"سورة الأنعام آية 141","publishedAt":"2017-01-08T09:34:25Z","duration":"PT19M8S","thumbnail":"https://i.ytimg.com/vi/OOxZEQWGOI4/mqdefault.jpg","viewCount":"434","playlistId":"PLEkQk5xrP-tnmTYsyW6xNdyfhPq0Bhrhj","playlistName":"مقرأة الفجر - القُرْآنُ الكَرِيمُ - خَتْمَةُ التَّدَبُّرِ  أ.د. يسري جبر","category":"متنوع"},{"id":"G8AVAKp4Na0","title":"قراءة القرآن (من آية ٢٤٣ سورة البقرة)","publishedAt":"2016-05-23T20:11:11Z","duration":"PT31M15S","thumbnail":"https://i.ytimg.com/vi/G8AVAKp4Na0/mqdefault.jpg","viewCount":"789","playlistId":"PLEkQk5xrP-tnmTYsyW6xNdyfhPq0Bhrhj","playlistName":"مقرأة الفجر - القُرْآنُ الكَرِيمُ - خَتْمَةُ التَّدَبُّرِ  أ.د. يسري جبر","category":"متنوع"},{"id":"p5-0qpmsE_0","title":"قراءة القرآن (من آية ٢٣٨ سورة البقرة)","publishedAt":"2016-05-23T02:30:57Z","duration":"PT22M57S","thumbnail":"https://i.ytimg.com/vi/p5-0qpmsE_0/mqdefault.jpg","viewCount":"681","playlistId":"PLEkQk5xrP-tnmTYsyW6xNdyfhPq0Bhrhj","playlistName":"مقرأة الفجر - القُرْآنُ الكَرِيمُ - خَتْمَةُ التَّدَبُّرِ  أ.د. يسري جبر","category":"متنوع"},{"id":"a3uoEvWWVNo","title":"قراءة القرآن (من آية ٢٣٥ سورة البقرة)","publishedAt":"2016-05-19T02:24:13Z","duration":"PT18M23S","thumbnail":"https://i.ytimg.com/vi/a3uoEvWWVNo/mqdefault.jpg","viewCount":"697","playlistId":"PLEkQk5xrP-tnmTYsyW6xNdyfhPq0Bhrhj","playlistName":"مقرأة الفجر - القُرْآنُ الكَرِيمُ - خَتْمَةُ التَّدَبُّرِ  أ.د. يسري جبر","category":"متنوع"},{"id":"D0G1WWbU41A","title":"قراءة القرآن (من آية ٢٣٣ سورة البقرة)","publishedAt":"2016-05-18T02:33:32Z","duration":"PT20M27S","thumbnail":"https://i.ytimg.com/vi/D0G1WWbU41A/mqdefault.jpg","viewCount":"707","playlistId":"PLEkQk5xrP-tnmTYsyW6xNdyfhPq0Bhrhj","playlistName":"مقرأة الفجر - القُرْآنُ الكَرِيمُ - خَتْمَةُ التَّدَبُّرِ  أ.د. يسري جبر","category":"متنوع"},{"id":"VtBMUbXJNRU","title":"قراءة القرآن (من آية ٢٢٩ سورة البقرة)","publishedAt":"2016-05-17T02:39:53Z","duration":"PT23M22S","thumbnail":"https://i.ytimg.com/vi/VtBMUbXJNRU/mqdefault.jpg","viewCount":"795","playlistId":"PLEkQk5xrP-tnmTYsyW6xNdyfhPq0Bhrhj","playlistName":"مقرأة الفجر - القُرْآنُ الكَرِيمُ - خَتْمَةُ التَّدَبُّرِ  أ.د. يسري جبر","category":"متنوع"},{"id":"er-qekSnvCY","title":"قراءة القرآن (من آية ٢٢٤ سورة البقرة)","publishedAt":"2016-05-15T09:54:01Z","duration":"PT22M7S","thumbnail":"https://i.ytimg.com/vi/er-qekSnvCY/mqdefault.jpg","viewCount":"634","playlistId":"PLEkQk5xrP-tnmTYsyW6xNdyfhPq0Bhrhj","playlistName":"مقرأة الفجر - القُرْآنُ الكَرِيمُ - خَتْمَةُ التَّدَبُّرِ  أ.د. يسري جبر","category":"متنوع"},{"id":"XhNECFl4OJ8","title":"قراءة القرآن (من آية ٢٢٠ سورة البقرة)","publishedAt":"2016-05-14T21:55:54Z","duration":"PT18M41S","thumbnail":"https://i.ytimg.com/vi/XhNECFl4OJ8/mqdefault.jpg","viewCount":"812","playlistId":"PLEkQk5xrP-tnmTYsyW6xNdyfhPq0Bhrhj","playlistName":"مقرأة الفجر - القُرْآنُ الكَرِيمُ - خَتْمَةُ التَّدَبُّرِ  أ.د. يسري جبر","category":"متنوع"}],"total":942,"page":1,"pageSize":24,"totalPages":40}