{"items":[{"id":"HJKrIHb2B_Q","title":"مقرأة سورة الأحزاب من ٱية ٦٩","publishedAt":"2018-08-04T16:20:57Z","duration":"PT16M5S","thumbnail":"https://i.ytimg.com/vi/HJKrIHb2B_Q/mqdefault.jpg","viewCount":"303","playlistId":"PLEkQk5xrP-tnmTYsyW6xNdyfhPq0Bhrhj","playlistName":"مقرأة الفجر - القُرْآنُ الكَرِيمُ - خَتْمَةُ التَّدَبُّرِ  أ.د. يسري جبر","category":"متنوع"},{"id":"QZ-e_zcTL_8","title":"مقرأة سورة الأحزاب من ٱية ٦٠","publishedAt":"2018-08-02T13:32:21Z","duration":"PT16M8S","thumbnail":"https://i.ytimg.com/vi/QZ-e_zcTL_8/mqdefault.jpg","viewCount":"236","playlistId":"PLEkQk5xrP-tnmTYsyW6xNdyfhPq0Bhrhj","playlistName":"مقرأة الفجر - القُرْآنُ الكَرِيمُ - خَتْمَةُ التَّدَبُّرِ  أ.د. يسري جبر","category":"متنوع"},{"id":"XMufhvG1HsQ","title":"مقرأة سورة الأحزاب من ٱية ٥٤","publishedAt":"2018-08-01T07:38:00Z","duration":"PT15M48S","thumbnail":"https://i.ytimg.com/vi/XMufhvG1HsQ/mqdefault.jpg","viewCount":"372","playlistId":"PLEkQk5xrP-tnmTYsyW6xNdyfhPq0Bhrhj","playlistName":"مقرأة الفجر - القُرْآنُ الكَرِيمُ - خَتْمَةُ التَّدَبُّرِ  أ.د. يسري جبر","category":"متنوع"},{"id":"q-ERu8gq0Mk","title":"مقرأة سورة الأحزاب من ٱية ٥١","publishedAt":"2018-07-31T09:47:21Z","duration":"PT24M8S","thumbnail":"https://i.ytimg.com/vi/q-ERu8gq0Mk/mqdefault.jpg","viewCount":"375","playlistId":"PLEkQk5xrP-tnmTYsyW6xNdyfhPq0Bhrhj","playlistName":"مقرأة الفجر - القُرْآنُ الكَرِيمُ - خَتْمَةُ التَّدَبُّرِ  أ.د. يسري جبر","category":"متنوع"},{"id":"3chapVyYzhU","title":"مقرأة سورة الأحزاب من ٱية ٤٩","publishedAt":"2018-07-30T07:42:30Z","duration":"PT13M59S","thumbnail":"https://i.ytimg.com/vi/3chapVyYzhU/mqdefault.jpg","viewCount":"315","playlistId":"PLEkQk5xrP-tnmTYsyW6xNdyfhPq0Bhrhj","playlistName":"مقرأة الفجر - القُرْآنُ الكَرِيمُ - خَتْمَةُ التَّدَبُّرِ  أ.د. يسري جبر","category":"متنوع"},{"id":"aB98Idiamws","title":"مقرأة سورة الأحزاب من ٱية ٤٥","publishedAt":"2018-07-29T08:13:53Z","duration":"PT10M52S","thumbnail":"https://i.ytimg.com/vi/aB98Idiamws/mqdefault.jpg","viewCount":"270","playlistId":"PLEkQk5xrP-tnmTYsyW6xNdyfhPq0Bhrhj","playlistName":"مقرأة الفجر - القُرْآنُ الكَرِيمُ - خَتْمَةُ التَّدَبُّرِ  أ.د. يسري جبر","category":"متنوع"},{"id":"O2rmXxG03lI","title":"مقرأة سورة الأحزاب من ٱية ٤٠","publishedAt":"2018-07-26T20:49:37Z","duration":"PT11M38S","thumbnail":"https://i.ytimg.com/vi/O2rmXxG03lI/mqdefault.jpg","viewCount":"332","playlistId":"PLEkQk5xrP-tnmTYsyW6xNdyfhPq0Bhrhj","playlistName":"مقرأة الفجر - القُرْآنُ الكَرِيمُ - خَتْمَةُ التَّدَبُّرِ  أ.د. يسري جبر","category":"متنوع"},{"id":"WqlAL73gRkc","title":"مقرأة سورة الأحزاب من ٱية ٣٥","publishedAt":"2018-07-25T15:08:53Z","duration":"PT19M1S","thumbnail":"https://i.ytimg.com/vi/WqlAL73gRkc/mqdefault.jpg","viewCount":"435","playlistId":"PLEkQk5xrP-tnmTYsyW6xNdyfhPq0Bhrhj","playlistName":"مقرأة الفجر - القُرْآنُ الكَرِيمُ - خَتْمَةُ التَّدَبُّرِ  أ.د. يسري جبر","category":"متنوع"},{"id":"Aghn8mPw_a0","title":"مقرأة سورة الأحزاب من ٱية ٣٢","publishedAt":"2018-07-24T17:26:08Z","duration":"PT17M16S","thumbnail":"https://i.ytimg.com/vi/Aghn8mPw_a0/mqdefault.jpg","viewCount":"308","playlistId":"PLEkQk5xrP-tnmTYsyW6xNdyfhPq0Bhrhj","playlistName":"مقرأة الفجر - القُرْآنُ الكَرِيمُ - خَتْمَةُ التَّدَبُّرِ  أ.د. يسري جبر","category":"متنوع"},{"id":"GNDNouPIkOk","title":"قراءة القرآن (من آية ٥٢ سورة آل عمران)","publishedAt":"2016-06-14T20:13:53Z","duration":"PT19M16S","thumbnail":"https://i.ytimg.com/vi/GNDNouPIkOk/mqdefault.jpg","viewCount":"644","playlistId":"PLEkQk5xrP-tnmTYsyW6xNdyfhPq0Bhrhj","playlistName":"مقرأة الفجر - القُرْآنُ الكَرِيمُ - خَتْمَةُ التَّدَبُّرِ  أ.د. يسري جبر","category":"متنوع"},{"id":"X4-AhQm1TDE","title":"قراءة القرآن (من آية ٤٨ سورة آل عمران)","publishedAt":"2016-06-13T09:30:10Z","duration":"PT12M8S","thumbnail":"https://i.ytimg.com/vi/X4-AhQm1TDE/mqdefault.jpg","viewCount":"700","playlistId":"PLEkQk5xrP-tnmTYsyW6xNdyfhPq0Bhrhj","playlistName":"مقرأة الفجر - القُرْآنُ الكَرِيمُ - خَتْمَةُ التَّدَبُّرِ  أ.د. يسري جبر","category":"متنوع"},{"id":"QtYfmo4f5m8","title":"قراءة القرآن (من آية ٣٨ سورة آل عمران)","publishedAt":"2016-06-12T01:34:24Z","duration":"PT15M27S","thumbnail":"https://i.ytimg.com/vi/QtYfmo4f5m8/mqdefault.jpg","viewCount":"672","playlistId":"PLEkQk5xrP-tnmTYsyW6xNdyfhPq0Bhrhj","playlistName":"مقرأة الفجر - القُرْآنُ الكَرِيمُ - خَتْمَةُ التَّدَبُّرِ  أ.د. يسري جبر","category":"متنوع"},{"id":"0qg9itl3xTs","title":"سورة النساء آية 32","publishedAt":"2016-08-20T06:28:12Z","duration":"PT24M6S","thumbnail":"https://i.ytimg.com/vi/0qg9itl3xTs/mqdefault.jpg","viewCount":"580","playlistId":"PLEkQk5xrP-tnmTYsyW6xNdyfhPq0Bhrhj","playlistName":"مقرأة الفجر - القُرْآنُ الكَرِيمُ - خَتْمَةُ التَّدَبُّرِ  أ.د. يسري جبر","category":"متنوع"},{"id":"LlxH1Z-qUzE","title":"سورة النساء آية 29","publishedAt":"2016-08-19T15:29:07Z","duration":"PT18M40S","thumbnail":"https://i.ytimg.com/vi/LlxH1Z-qUzE/mqdefault.jpg","viewCount":"508","playlistId":"PLEkQk5xrP-tnmTYsyW6xNdyfhPq0Bhrhj","playlistName":"مقرأة الفجر - القُرْآنُ الكَرِيمُ - خَتْمَةُ التَّدَبُّرِ  أ.د. يسري جبر","category":"متنوع"},{"id":"zfREUOXGE80","title":"سورة النساء آية 25","publishedAt":"2016-08-18T07:14:16Z","duration":"PT26M14S","thumbnail":"https://i.ytimg.com/vi/zfREUOXGE80/mqdefault.jpg","viewCount":"546","playlistId":"PLEkQk5xrP-tnmTYsyW6xNdyfhPq0Bhrhj","playlistName":"مقرأة الفجر - القُرْآنُ الكَرِيمُ - خَتْمَةُ التَّدَبُّرِ  أ.د. يسري جبر","category":"متنوع"},{"id":"A24_NLpMrk4","title":"سورة النساء آية 24","publishedAt":"2016-08-17T05:56:13Z","duration":"PT10M7S","thumbnail":"https://i.ytimg.com/vi/A24_NLpMrk4/mqdefault.jpg","viewCount":"560","playlistId":"PLEkQk5xrP-tnmTYsyW6xNdyfhPq0Bhrhj","playlistName":"مقرأة الفجر - القُرْآنُ الكَرِيمُ - خَتْمَةُ التَّدَبُّرِ  أ.د. يسري جبر","category":"متنوع"},{"id":"jKf1b-gG6VY","title":"سورة النساء آية 23","publishedAt":"2016-08-16T06:25:23Z","duration":"PT13M26S","thumbnail":"https://i.ytimg.com/vi/jKf1b-gG6VY/mqdefault.jpg","viewCount":"508","playlistId":"PLEkQk5xrP-tnmTYsyW6xNdyfhPq0Bhrhj","playlistName":"مقرأة الفجر - القُرْآنُ الكَرِيمُ - خَتْمَةُ التَّدَبُّرِ  أ.د. يسري جبر","category":"متنوع"},{"id":"q1c9cQS43Bk","title":"سورة النساء آية 19","publishedAt":"2016-08-15T09:11:06Z","duration":"PT21M","thumbnail":"https://i.ytimg.com/vi/q1c9cQS43Bk/mqdefault.jpg","viewCount":"637","playlistId":"PLEkQk5xrP-tnmTYsyW6xNdyfhPq0Bhrhj","playlistName":"مقرأة الفجر - القُرْآنُ الكَرِيمُ - خَتْمَةُ التَّدَبُّرِ  أ.د. يسري جبر","category":"متنوع"},{"id":"hPKw48nzJxU","title":"سورة النساء آية 13","publishedAt":"2016-08-14T06:15:28Z","duration":"PT13M27S","thumbnail":"https://i.ytimg.com/vi/hPKw48nzJxU/mqdefault.jpg","viewCount":"553","playlistId":"PLEkQk5xrP-tnmTYsyW6xNdyfhPq0Bhrhj","playlistName":"مقرأة الفجر - القُرْآنُ الكَرِيمُ - خَتْمَةُ التَّدَبُّرِ  أ.د. يسري جبر","category":"متنوع"},{"id":"q2c2DHJNO6M","title":"سورة النساء آية 12","publishedAt":"2016-08-13T06:03:45Z","duration":"PT12M13S","thumbnail":"https://i.ytimg.com/vi/q2c2DHJNO6M/mqdefault.jpg","viewCount":"475","playlistId":"PLEkQk5xrP-tnmTYsyW6xNdyfhPq0Bhrhj","playlistName":"مقرأة الفجر - القُرْآنُ الكَرِيمُ - خَتْمَةُ التَّدَبُّرِ  أ.د. يسري جبر","category":"متنوع"},{"id":"Uie1YHnFFRY","title":"سورة النساء آية 11","publishedAt":"2016-08-12T17:47:12Z","duration":"PT14M15S","thumbnail":"https://i.ytimg.com/vi/Uie1YHnFFRY/mqdefault.jpg","viewCount":"626","playlistId":"PLEkQk5xrP-tnmTYsyW6xNdyfhPq0Bhrhj","playlistName":"مقرأة الفجر - القُرْآنُ الكَرِيمُ - خَتْمَةُ التَّدَبُّرِ  أ.د. يسري جبر","category":"متنوع"},{"id":"Rafv9Q3Evsc","title":"مقرأة سورة الزمر من آية ٥٣","publishedAt":"2019-10-01T10:51:51Z","duration":"PT27M39S","thumbnail":"https://i.ytimg.com/vi/Rafv9Q3Evsc/mqdefault.jpg","viewCount":"448","playlistId":"PLEkQk5xrP-tnmTYsyW6xNdyfhPq0Bhrhj","playlistName":"مقرأة الفجر - القُرْآنُ الكَرِيمُ - خَتْمَةُ التَّدَبُّرِ  أ.د. يسري جبر","category":"متنوع"},{"id":"UZaK2MHjWwI","title":"مقرأة سورة الحج من آية ١٧","publishedAt":"2019-10-01T08:04:33Z","duration":"PT13M25S","thumbnail":"https://i.ytimg.com/vi/UZaK2MHjWwI/mqdefault.jpg","viewCount":"261","playlistId":"PLEkQk5xrP-tnmTYsyW6xNdyfhPq0Bhrhj","playlistName":"مقرأة الفجر - القُرْآنُ الكَرِيمُ - خَتْمَةُ التَّدَبُّرِ  أ.د. يسري جبر","category":"متنوع"},{"id":"EplDav_y20M","title":"سورة النساء  آية ١٧٠","publishedAt":"2019-09-30T14:19:29Z","duration":"PT12M29S","thumbnail":"https://i.ytimg.com/vi/EplDav_y20M/mqdefault.jpg","viewCount":"309","playlistId":"PLEkQk5xrP-tnmTYsyW6xNdyfhPq0Bhrhj","playlistName":"مقرأة الفجر - القُرْآنُ الكَرِيمُ - خَتْمَةُ التَّدَبُّرِ  أ.د. يسري جبر","category":"متنوع"}],"total":942,"page":23,"pageSize":24,"totalPages":40}