{"items":[{"id":"jLoCeUSN97w","title":"مقرأة سورة النحل من آية ٢٤","publishedAt":"2017-08-18T06:08:16Z","duration":"PT17M15S","thumbnail":"https://i.ytimg.com/vi/jLoCeUSN97w/mqdefault.jpg","viewCount":"397","playlistId":"PLEkQk5xrP-tnmTYsyW6xNdyfhPq0Bhrhj","playlistName":"مقرأة الفجر - القُرْآنُ الكَرِيمُ - خَتْمَةُ التَّدَبُّرِ  أ.د. يسري جبر","category":"متنوع"},{"id":"zXE03CtYwII","title":"مقرأة سورة النحل من آية ١٩","publishedAt":"2017-08-17T10:04:43Z","duration":"PT14M54S","thumbnail":"https://i.ytimg.com/vi/zXE03CtYwII/mqdefault.jpg","viewCount":"389","playlistId":"PLEkQk5xrP-tnmTYsyW6xNdyfhPq0Bhrhj","playlistName":"مقرأة الفجر - القُرْآنُ الكَرِيمُ - خَتْمَةُ التَّدَبُّرِ  أ.د. يسري جبر","category":"متنوع"},{"id":"rDEjAIgyJkw","title":"مقرأة سورة النحل من آية ١٤","publishedAt":"2017-08-16T09:10:43Z","duration":"PT18M26S","thumbnail":"https://i.ytimg.com/vi/rDEjAIgyJkw/mqdefault.jpg","viewCount":"449","playlistId":"PLEkQk5xrP-tnmTYsyW6xNdyfhPq0Bhrhj","playlistName":"مقرأة الفجر - القُرْآنُ الكَرِيمُ - خَتْمَةُ التَّدَبُّرِ  أ.د. يسري جبر","category":"متنوع"},{"id":"zG7cxIarlZ8","title":"مقرأة سورة النحل من آية ١٠","publishedAt":"2017-08-15T12:48:05Z","duration":"PT22M7S","thumbnail":"https://i.ytimg.com/vi/zG7cxIarlZ8/mqdefault.jpg","viewCount":"509","playlistId":"PLEkQk5xrP-tnmTYsyW6xNdyfhPq0Bhrhj","playlistName":"مقرأة الفجر - القُرْآنُ الكَرِيمُ - خَتْمَةُ التَّدَبُّرِ  أ.د. يسري جبر","category":"متنوع"},{"id":"4bhZbzefTKE","title":"مقرأة  سورة النحل من أولها","publishedAt":"2017-08-14T11:01:42Z","duration":"PT30M17S","thumbnail":"https://i.ytimg.com/vi/4bhZbzefTKE/mqdefault.jpg","viewCount":"617","playlistId":"PLEkQk5xrP-tnmTYsyW6xNdyfhPq0Bhrhj","playlistName":"مقرأة الفجر - القُرْآنُ الكَرِيمُ - خَتْمَةُ التَّدَبُّرِ  أ.د. يسري جبر","category":"متنوع"},{"id":"lrXTgsuUy1Y","title":"مقرأة سورة النحل من آية ٧٩","publishedAt":"2017-08-30T11:52:40Z","duration":"PT17M1S","thumbnail":"https://i.ytimg.com/vi/lrXTgsuUy1Y/mqdefault.jpg","viewCount":"308","playlistId":"PLEkQk5xrP-tnmTYsyW6xNdyfhPq0Bhrhj","playlistName":"مقرأة الفجر - القُرْآنُ الكَرِيمُ - خَتْمَةُ التَّدَبُّرِ  أ.د. يسري جبر","category":"متنوع"},{"id":"OePqo0_bp54","title":"مقرأة سورة النحل من آية ٧٥","publishedAt":"2017-08-29T14:48:13Z","duration":"PT11M39S","thumbnail":"https://i.ytimg.com/vi/OePqo0_bp54/mqdefault.jpg","viewCount":"279","playlistId":"PLEkQk5xrP-tnmTYsyW6xNdyfhPq0Bhrhj","playlistName":"مقرأة الفجر - القُرْآنُ الكَرِيمُ - خَتْمَةُ التَّدَبُّرِ  أ.د. يسري جبر","category":"متنوع"},{"id":"BNlq1L5bH-s","title":"مقرأة سورة الواقعة من آية ٥٧","publishedAt":"2019-03-14T14:57:16Z","duration":"PT18M7S","thumbnail":"https://i.ytimg.com/vi/BNlq1L5bH-s/mqdefault.jpg","viewCount":"519","playlistId":"PLEkQk5xrP-tnmTYsyW6xNdyfhPq0Bhrhj","playlistName":"مقرأة الفجر - القُرْآنُ الكَرِيمُ - خَتْمَةُ التَّدَبُّرِ  أ.د. يسري جبر","category":"متنوع"},{"id":"12twet6A0b0","title":"مقرأة سورة الواقعة من آية ٤١","publishedAt":"2019-03-12T22:23:06Z","duration":"PT17M32S","thumbnail":"https://i.ytimg.com/vi/12twet6A0b0/mqdefault.jpg","viewCount":"530","playlistId":"PLEkQk5xrP-tnmTYsyW6xNdyfhPq0Bhrhj","playlistName":"مقرأة الفجر - القُرْآنُ الكَرِيمُ - خَتْمَةُ التَّدَبُّرِ  أ.د. يسري جبر","category":"متنوع"},{"id":"fxMj9M64A1E","title":"مقرأة سورة الواقعة من آية ٢٧","publishedAt":"2019-03-11T11:19:37Z","duration":"PT9M14S","thumbnail":"https://i.ytimg.com/vi/fxMj9M64A1E/mqdefault.jpg","viewCount":"508","playlistId":"PLEkQk5xrP-tnmTYsyW6xNdyfhPq0Bhrhj","playlistName":"مقرأة الفجر - القُرْآنُ الكَرِيمُ - خَتْمَةُ التَّدَبُّرِ  أ.د. يسري جبر","category":"متنوع"},{"id":"oaI9vynDnRs","title":"مقرأة سورة الواقعة من أولها","publishedAt":"2019-03-10T11:04:16Z","duration":"PT19M49S","thumbnail":"https://i.ytimg.com/vi/oaI9vynDnRs/mqdefault.jpg","viewCount":"2353","playlistId":"PLEkQk5xrP-tnmTYsyW6xNdyfhPq0Bhrhj","playlistName":"مقرأة الفجر - القُرْآنُ الكَرِيمُ - خَتْمَةُ التَّدَبُّرِ  أ.د. يسري جبر","category":"متنوع"},{"id":"RTEw4JleYgs","title":"مقرأة سورة الرحمن من آية ٦٢","publishedAt":"2019-03-09T16:55:55Z","duration":"PT12M37S","thumbnail":"https://i.ytimg.com/vi/RTEw4JleYgs/mqdefault.jpg","viewCount":"444","playlistId":"PLEkQk5xrP-tnmTYsyW6xNdyfhPq0Bhrhj","playlistName":"مقرأة الفجر - القُرْآنُ الكَرِيمُ - خَتْمَةُ التَّدَبُّرِ  أ.د. يسري جبر","category":"متنوع"},{"id":"rM1PZgrcDes","title":"مقرأة سورة الرحمن من آية ٤٦","publishedAt":"2019-03-07T10:49:52Z","duration":"PT10M11S","thumbnail":"https://i.ytimg.com/vi/rM1PZgrcDes/mqdefault.jpg","viewCount":"412","playlistId":"PLEkQk5xrP-tnmTYsyW6xNdyfhPq0Bhrhj","playlistName":"مقرأة الفجر - القُرْآنُ الكَرِيمُ - خَتْمَةُ التَّدَبُّرِ  أ.د. يسري جبر","category":"متنوع"},{"id":"pH3vYlv4Aoc","title":"مقرأة سورة الرحمن من آية ٢٩","publishedAt":"2019-03-06T15:44:57Z","duration":"PT23M6S","thumbnail":"https://i.ytimg.com/vi/pH3vYlv4Aoc/mqdefault.jpg","viewCount":"788","playlistId":"PLEkQk5xrP-tnmTYsyW6xNdyfhPq0Bhrhj","playlistName":"مقرأة الفجر - القُرْآنُ الكَرِيمُ - خَتْمَةُ التَّدَبُّرِ  أ.د. يسري جبر","category":"متنوع"},{"id":"FxlxLjpBglw","title":"قراءة القرآن (من آية ٧٩ سورة آل عمران)","publishedAt":"2016-07-12T07:06:21Z","duration":"PT12M9S","thumbnail":"https://i.ytimg.com/vi/FxlxLjpBglw/mqdefault.jpg","viewCount":"515","playlistId":"PLEkQk5xrP-tnmTYsyW6xNdyfhPq0Bhrhj","playlistName":"مقرأة الفجر - القُرْآنُ الكَرِيمُ - خَتْمَةُ التَّدَبُّرِ  أ.د. يسري جبر","category":"متنوع"},{"id":"J1juSDqHYRQ","title":"قراءة القرآن (من آية  ٧٥سورة آل عمران)","publishedAt":"2016-07-12T03:30:43Z","duration":"PT13M47S","thumbnail":"https://i.ytimg.com/vi/J1juSDqHYRQ/mqdefault.jpg","viewCount":"515","playlistId":"PLEkQk5xrP-tnmTYsyW6xNdyfhPq0Bhrhj","playlistName":"مقرأة الفجر - القُرْآنُ الكَرِيمُ - خَتْمَةُ التَّدَبُّرِ  أ.د. يسري جبر","category":"متنوع"},{"id":"3fluTVksOtQ","title":"قراءة القرآن (من آية ٦٩ سورة آل عمران)","publishedAt":"2016-07-11T21:31:33Z","duration":"PT13M38S","thumbnail":"https://i.ytimg.com/vi/3fluTVksOtQ/mqdefault.jpg","viewCount":"503","playlistId":"PLEkQk5xrP-tnmTYsyW6xNdyfhPq0Bhrhj","playlistName":"مقرأة الفجر - القُرْآنُ الكَرِيمُ - خَتْمَةُ التَّدَبُّرِ  أ.د. يسري جبر","category":"متنوع"},{"id":"m_EKiNRJdwc","title":"قراءة القرآن (من آية ٦٢ سورة آل عمران)","publishedAt":"2016-07-11T17:15:12Z","duration":"PT16M25S","thumbnail":"https://i.ytimg.com/vi/m_EKiNRJdwc/mqdefault.jpg","viewCount":"552","playlistId":"PLEkQk5xrP-tnmTYsyW6xNdyfhPq0Bhrhj","playlistName":"مقرأة الفجر - القُرْآنُ الكَرِيمُ - خَتْمَةُ التَّدَبُّرِ  أ.د. يسري جبر","category":"متنوع"},{"id":"B3Bgpe0ba5U","title":"مقرأة سورة الحج من آية ٦٣","publishedAt":"2018-02-15T14:42:29Z","duration":"PT21M3S","thumbnail":"https://i.ytimg.com/vi/B3Bgpe0ba5U/mqdefault.jpg","viewCount":"236","playlistId":"PLEkQk5xrP-tnmTYsyW6xNdyfhPq0Bhrhj","playlistName":"مقرأة الفجر - القُرْآنُ الكَرِيمُ - خَتْمَةُ التَّدَبُّرِ  أ.د. يسري جبر","category":"متنوع"},{"id":"sN7PTheVpd0","title":"مقرأة سورة الحج من آية ٦٠","publishedAt":"2018-02-13T20:20:17Z","duration":"PT12M19S","thumbnail":"https://i.ytimg.com/vi/sN7PTheVpd0/mqdefault.jpg","viewCount":"225","playlistId":"PLEkQk5xrP-tnmTYsyW6xNdyfhPq0Bhrhj","playlistName":"مقرأة الفجر - القُرْآنُ الكَرِيمُ - خَتْمَةُ التَّدَبُّرِ  أ.د. يسري جبر","category":"متنوع"},{"id":"FuageFiuQPE","title":"مقرأة سورة الحج من آية ٥٥","publishedAt":"2018-02-12T08:08:22Z","duration":"PT19M","thumbnail":"https://i.ytimg.com/vi/FuageFiuQPE/mqdefault.jpg","viewCount":"238","playlistId":"PLEkQk5xrP-tnmTYsyW6xNdyfhPq0Bhrhj","playlistName":"مقرأة الفجر - القُرْآنُ الكَرِيمُ - خَتْمَةُ التَّدَبُّرِ  أ.د. يسري جبر","category":"متنوع"},{"id":"XVb6PqIzOhw","title":"مقرأة سورة الحج من آية ٥٢","publishedAt":"2018-02-11T09:56:03Z","duration":"PT19M38S","thumbnail":"https://i.ytimg.com/vi/XVb6PqIzOhw/mqdefault.jpg","viewCount":"341","playlistId":"PLEkQk5xrP-tnmTYsyW6xNdyfhPq0Bhrhj","playlistName":"مقرأة الفجر - القُرْآنُ الكَرِيمُ - خَتْمَةُ التَّدَبُّرِ  أ.د. يسري جبر","category":"متنوع"},{"id":"c7npLI_Udho","title":"مقرأة سورة الحج من آية ٤٧","publishedAt":"2018-02-09T20:30:07Z","duration":"PT19M40S","thumbnail":"https://i.ytimg.com/vi/c7npLI_Udho/mqdefault.jpg","viewCount":"275","playlistId":"PLEkQk5xrP-tnmTYsyW6xNdyfhPq0Bhrhj","playlistName":"مقرأة الفجر - القُرْآنُ الكَرِيمُ - خَتْمَةُ التَّدَبُّرِ  أ.د. يسري جبر","category":"متنوع"},{"id":"W5c279DY37o","title":"مقرأة سورة المطففين من أولها","publishedAt":"2019-07-03T11:21:33Z","duration":"PT17M2S","thumbnail":"https://i.ytimg.com/vi/W5c279DY37o/mqdefault.jpg","viewCount":"673","playlistId":"PLEkQk5xrP-tnmTYsyW6xNdyfhPq0Bhrhj","playlistName":"مقرأة الفجر - القُرْآنُ الكَرِيمُ - خَتْمَةُ التَّدَبُّرِ  أ.د. يسري جبر","category":"متنوع"}],"total":942,"page":20,"pageSize":24,"totalPages":40}