{"items":[{"id":"PD1XQ4bKVIY","title":"مقرأة سورة الكهف من آية ٩٩","publishedAt":"2017-11-02T11:44:32Z","duration":"PT36M30S","thumbnail":"https://i.ytimg.com/vi/PD1XQ4bKVIY/mqdefault.jpg","viewCount":"573","playlistId":"PLEkQk5xrP-tnmTYsyW6xNdyfhPq0Bhrhj","playlistName":"مقرأة الفجر - القُرْآنُ الكَرِيمُ - خَتْمَةُ التَّدَبُّرِ  أ.د. يسري جبر","category":"متنوع"},{"id":"LU8pPhM05DI","title":"مقرأة سورة الكهف من آية ٧١","publishedAt":"2017-10-30T18:28:23Z","duration":"PT15M34S","thumbnail":"https://i.ytimg.com/vi/LU8pPhM05DI/mqdefault.jpg","viewCount":"423","playlistId":"PLEkQk5xrP-tnmTYsyW6xNdyfhPq0Bhrhj","playlistName":"مقرأة الفجر - القُرْآنُ الكَرِيمُ - خَتْمَةُ التَّدَبُّرِ  أ.د. يسري جبر","category":"متنوع"},{"id":"cvN9NLtfPuU","title":"مقرأة سورة الكهف من آية ٦٠","publishedAt":"2017-10-30T04:03:24Z","duration":"PT24M5S","thumbnail":"https://i.ytimg.com/vi/cvN9NLtfPuU/mqdefault.jpg","viewCount":"487","playlistId":"PLEkQk5xrP-tnmTYsyW6xNdyfhPq0Bhrhj","playlistName":"مقرأة الفجر - القُرْآنُ الكَرِيمُ - خَتْمَةُ التَّدَبُّرِ  أ.د. يسري جبر","category":"متنوع"},{"id":"l5T7MyrTu50","title":"مقرأة سورة الكهف من آية ٥٤","publishedAt":"2017-10-27T14:02:56Z","duration":"PT16M34S","thumbnail":"https://i.ytimg.com/vi/l5T7MyrTu50/mqdefault.jpg","viewCount":"515","playlistId":"PLEkQk5xrP-tnmTYsyW6xNdyfhPq0Bhrhj","playlistName":"مقرأة الفجر - القُرْآنُ الكَرِيمُ - خَتْمَةُ التَّدَبُّرِ  أ.د. يسري جبر","category":"متنوع"},{"id":"uiATWML_An8","title":"مقرأة سورة الكهف من آية ٨٣","publishedAt":"2017-11-01T20:55:05Z","duration":"PT30M15S","thumbnail":"https://i.ytimg.com/vi/uiATWML_An8/mqdefault.jpg","viewCount":"538","playlistId":"PLEkQk5xrP-tnmTYsyW6xNdyfhPq0Bhrhj","playlistName":"مقرأة الفجر - القُرْآنُ الكَرِيمُ - خَتْمَةُ التَّدَبُّرِ  أ.د. يسري جبر","category":"متنوع"},{"id":"RchZXC9ApwA","title":"مقرأة سورة الكهف من آية ٧٩","publishedAt":"2017-10-31T16:30:49Z","duration":"PT28M8S","thumbnail":"https://i.ytimg.com/vi/RchZXC9ApwA/mqdefault.jpg","viewCount":"495","playlistId":"PLEkQk5xrP-tnmTYsyW6xNdyfhPq0Bhrhj","playlistName":"مقرأة الفجر - القُرْآنُ الكَرِيمُ - خَتْمَةُ التَّدَبُّرِ  أ.د. يسري جبر","category":"متنوع"},{"id":"_pzm_bID0w4","title":"مقرأة سورة النور من آية ٦١","publishedAt":"2018-03-25T03:17:05Z","duration":"PT28M59S","thumbnail":"https://i.ytimg.com/vi/_pzm_bID0w4/mqdefault.jpg","viewCount":"343","playlistId":"PLEkQk5xrP-tnmTYsyW6xNdyfhPq0Bhrhj","playlistName":"مقرأة الفجر - القُرْآنُ الكَرِيمُ - خَتْمَةُ التَّدَبُّرِ  أ.د. يسري جبر","category":"متنوع"},{"id":"aal6JoVDDmM","title":"سورة النساء آية 163","publishedAt":"2016-10-01T21:03:22Z","duration":"PT13M30S","thumbnail":"https://i.ytimg.com/vi/aal6JoVDDmM/mqdefault.jpg","viewCount":"378","playlistId":"PLEkQk5xrP-tnmTYsyW6xNdyfhPq0Bhrhj","playlistName":"مقرأة الفجر - القُرْآنُ الكَرِيمُ - خَتْمَةُ التَّدَبُّرِ  أ.د. يسري جبر","category":"متنوع"},{"id":"qBD1eRIOG0g","title":"مقرأة سورة لقمان من آية ٢٠","publishedAt":"2018-07-04T10:37:44Z","duration":"PT25M29S","thumbnail":"https://i.ytimg.com/vi/qBD1eRIOG0g/mqdefault.jpg","viewCount":"351","playlistId":"PLEkQk5xrP-tnmTYsyW6xNdyfhPq0Bhrhj","playlistName":"مقرأة الفجر - القُرْآنُ الكَرِيمُ - خَتْمَةُ التَّدَبُّرِ  أ.د. يسري جبر","category":"متنوع"},{"id":"AD8t0he8Gr0","title":"مقرأة سورة لقمان من آية ١٦","publishedAt":"2018-07-03T11:51:22Z","duration":"PT30M35S","thumbnail":"https://i.ytimg.com/vi/AD8t0he8Gr0/mqdefault.jpg","viewCount":"408","playlistId":"PLEkQk5xrP-tnmTYsyW6xNdyfhPq0Bhrhj","playlistName":"مقرأة الفجر - القُرْآنُ الكَرِيمُ - خَتْمَةُ التَّدَبُّرِ  أ.د. يسري جبر","category":"متنوع"},{"id":"Yv-MF6WMvqI","title":"مقرأة سورة فصلت من آية ٩","publishedAt":"2018-11-20T07:09:50Z","duration":"PT14M3S","thumbnail":"https://i.ytimg.com/vi/Yv-MF6WMvqI/mqdefault.jpg","viewCount":"439","playlistId":"PLEkQk5xrP-tnmTYsyW6xNdyfhPq0Bhrhj","playlistName":"مقرأة الفجر - القُرْآنُ الكَرِيمُ - خَتْمَةُ التَّدَبُّرِ  أ.د. يسري جبر","category":"متنوع"},{"id":"Zvi31bTpItM","title":"مقرأة سورة التحريم من آية ٩","publishedAt":"2019-04-29T03:23:09Z","duration":"PT25M58S","thumbnail":"https://i.ytimg.com/vi/Zvi31bTpItM/mqdefault.jpg","viewCount":"407","playlistId":"PLEkQk5xrP-tnmTYsyW6xNdyfhPq0Bhrhj","playlistName":"مقرأة الفجر - القُرْآنُ الكَرِيمُ - خَتْمَةُ التَّدَبُّرِ  أ.د. يسري جبر","category":"متنوع"},{"id":"0Sx7_hiCM4E","title":"مقرأة سورة التحريم من آية ٧","publishedAt":"2019-04-27T17:51:21Z","duration":"PT17M20S","thumbnail":"https://i.ytimg.com/vi/0Sx7_hiCM4E/mqdefault.jpg","viewCount":"385","playlistId":"PLEkQk5xrP-tnmTYsyW6xNdyfhPq0Bhrhj","playlistName":"مقرأة الفجر - القُرْآنُ الكَرِيمُ - خَتْمَةُ التَّدَبُّرِ  أ.د. يسري جبر","category":"متنوع"},{"id":"DhwUAGwQHyU","title":"مقرأة سورة التحريم من آية ٤","publishedAt":"2019-04-26T21:27:45Z","duration":"PT18M2S","thumbnail":"https://i.ytimg.com/vi/DhwUAGwQHyU/mqdefault.jpg","viewCount":"476","playlistId":"PLEkQk5xrP-tnmTYsyW6xNdyfhPq0Bhrhj","playlistName":"مقرأة الفجر - القُرْآنُ الكَرِيمُ - خَتْمَةُ التَّدَبُّرِ  أ.د. يسري جبر","category":"متنوع"},{"id":"nDTLcZ7rvAk","title":"سورة النساء  آية 174","publishedAt":"2016-10-01T09:23:54Z","duration":"PT14M53S","thumbnail":"https://i.ytimg.com/vi/nDTLcZ7rvAk/mqdefault.jpg","viewCount":"484","playlistId":"PLEkQk5xrP-tnmTYsyW6xNdyfhPq0Bhrhj","playlistName":"مقرأة الفجر - القُرْآنُ الكَرِيمُ - خَتْمَةُ التَّدَبُّرِ  أ.د. يسري جبر","category":"متنوع"},{"id":"kvTsNcnr7YA","title":"مقرأة سورة إبراهيم من آية ١٠","publishedAt":"2017-07-29T16:28:45Z","duration":"PT16M47S","thumbnail":"https://i.ytimg.com/vi/kvTsNcnr7YA/mqdefault.jpg","viewCount":"311","playlistId":"PLEkQk5xrP-tnmTYsyW6xNdyfhPq0Bhrhj","playlistName":"مقرأة الفجر - القُرْآنُ الكَرِيمُ - خَتْمَةُ التَّدَبُّرِ  أ.د. يسري جبر","category":"متنوع"},{"id":"V1Sw1ndNFN4","title":"مقرأة سورة إبراهيم من آية ٧","publishedAt":"2017-07-28T07:04:10Z","duration":"PT16M32S","thumbnail":"https://i.ytimg.com/vi/V1Sw1ndNFN4/mqdefault.jpg","viewCount":"328","playlistId":"PLEkQk5xrP-tnmTYsyW6xNdyfhPq0Bhrhj","playlistName":"مقرأة الفجر - القُرْآنُ الكَرِيمُ - خَتْمَةُ التَّدَبُّرِ  أ.د. يسري جبر","category":"متنوع"},{"id":"nmAl0cu3k30","title":"مقرأة سورة إبراهيم من آية ٥","publishedAt":"2017-07-27T13:55:39Z","duration":"PT29M49S","thumbnail":"https://i.ytimg.com/vi/nmAl0cu3k30/mqdefault.jpg","viewCount":"456","playlistId":"PLEkQk5xrP-tnmTYsyW6xNdyfhPq0Bhrhj","playlistName":"مقرأة الفجر - القُرْآنُ الكَرِيمُ - خَتْمَةُ التَّدَبُّرِ  أ.د. يسري جبر","category":"متنوع"},{"id":"GowdPcIdNRs","title":"مقرأة سورة النحل من آية ٩٠","publishedAt":"2017-09-02T05:34:36Z","duration":"PT22M35S","thumbnail":"https://i.ytimg.com/vi/GowdPcIdNRs/mqdefault.jpg","viewCount":"330","playlistId":"PLEkQk5xrP-tnmTYsyW6xNdyfhPq0Bhrhj","playlistName":"مقرأة الفجر - القُرْآنُ الكَرِيمُ - خَتْمَةُ التَّدَبُّرِ  أ.د. يسري جبر","category":"متنوع"},{"id":"tZAdcSoNin0","title":"مقرأة سورة النحل من آية ٨٤","publishedAt":"2017-08-31T11:54:26Z","duration":"PT13M10S","thumbnail":"https://i.ytimg.com/vi/tZAdcSoNin0/mqdefault.jpg","viewCount":"280","playlistId":"PLEkQk5xrP-tnmTYsyW6xNdyfhPq0Bhrhj","playlistName":"مقرأة الفجر - القُرْآنُ الكَرِيمُ - خَتْمَةُ التَّدَبُّرِ  أ.د. يسري جبر","category":"متنوع"},{"id":"ItHP6HFV-r8","title":"مقرأة سورة الأنفال من آية ٤١","publishedAt":"2017-03-23T06:34:42Z","duration":"PT26M36S","thumbnail":"https://i.ytimg.com/vi/ItHP6HFV-r8/mqdefault.jpg","viewCount":"343","playlistId":"PLEkQk5xrP-tnmTYsyW6xNdyfhPq0Bhrhj","playlistName":"مقرأة الفجر - القُرْآنُ الكَرِيمُ - خَتْمَةُ التَّدَبُّرِ  أ.د. يسري جبر","category":"متنوع"},{"id":"tXLNjDM_z-I","title":"سورة الأنفال آية 36","publishedAt":"2017-03-22T08:09:02Z","duration":"PT14M43S","thumbnail":"https://i.ytimg.com/vi/tXLNjDM_z-I/mqdefault.jpg","viewCount":"398","playlistId":"PLEkQk5xrP-tnmTYsyW6xNdyfhPq0Bhrhj","playlistName":"مقرأة الفجر - القُرْآنُ الكَرِيمُ - خَتْمَةُ التَّدَبُّرِ  أ.د. يسري جبر","category":"متنوع"},{"id":"wq4iJq7vmDo","title":"سورة الأنفال آية 31","publishedAt":"2017-03-21T07:32:14Z","duration":"PT19M12S","thumbnail":"https://i.ytimg.com/vi/wq4iJq7vmDo/mqdefault.jpg","viewCount":"435","playlistId":"PLEkQk5xrP-tnmTYsyW6xNdyfhPq0Bhrhj","playlistName":"مقرأة الفجر - القُرْآنُ الكَرِيمُ - خَتْمَةُ التَّدَبُّرِ  أ.د. يسري جبر","category":"متنوع"},{"id":"H9Zpf5MRxXM","title":"مقرأة سورة غافر من آية ١٠","publishedAt":"2018-11-04T10:17:06Z","duration":"PT18M49S","thumbnail":"https://i.ytimg.com/vi/H9Zpf5MRxXM/mqdefault.jpg","viewCount":"394","playlistId":"PLEkQk5xrP-tnmTYsyW6xNdyfhPq0Bhrhj","playlistName":"مقرأة الفجر - القُرْآنُ الكَرِيمُ - خَتْمَةُ التَّدَبُّرِ  أ.د. يسري جبر","category":"متنوع"}],"total":942,"page":24,"pageSize":24,"totalPages":40}