{"items":[{"id":"eYw4bdId_8Y","title":"مقرأة سورة سبأ من آية ٢٢","publishedAt":"2018-08-11T13:05:51Z","duration":"PT19M41S","thumbnail":"https://i.ytimg.com/vi/eYw4bdId_8Y/mqdefault.jpg","viewCount":"293","playlistId":"PLEkQk5xrP-tnmTYsyW6xNdyfhPq0Bhrhj","playlistName":"مقرأة الفجر - القُرْآنُ الكَرِيمُ - خَتْمَةُ التَّدَبُّرِ  أ.د. يسري جبر","category":"متنوع"},{"id":"-8-iBegeqZg","title":"مقرأة سورة سبأ من آية ١٥","publishedAt":"2018-08-09T20:13:24Z","duration":"PT20M42S","thumbnail":"https://i.ytimg.com/vi/-8-iBegeqZg/mqdefault.jpg","viewCount":"356","playlistId":"PLEkQk5xrP-tnmTYsyW6xNdyfhPq0Bhrhj","playlistName":"مقرأة الفجر - القُرْآنُ الكَرِيمُ - خَتْمَةُ التَّدَبُّرِ  أ.د. يسري جبر","category":"متنوع"},{"id":"2V8Uk4wda7I","title":"مقرأة سورة غافر من آية ٥","publishedAt":"2018-11-02T18:06:07Z","duration":"PT17M26S","thumbnail":"https://i.ytimg.com/vi/2V8Uk4wda7I/mqdefault.jpg","viewCount":"428","playlistId":"PLEkQk5xrP-tnmTYsyW6xNdyfhPq0Bhrhj","playlistName":"مقرأة الفجر - القُرْآنُ الكَرِيمُ - خَتْمَةُ التَّدَبُّرِ  أ.د. يسري جبر","category":"متنوع"},{"id":"s6hDAUOJO_U","title":"مقرأة سورة غافر من أولها","publishedAt":"2018-11-01T06:43:36Z","duration":"PT20M7S","thumbnail":"https://i.ytimg.com/vi/s6hDAUOJO_U/mqdefault.jpg","viewCount":"1229","playlistId":"PLEkQk5xrP-tnmTYsyW6xNdyfhPq0Bhrhj","playlistName":"مقرأة الفجر - القُرْآنُ الكَرِيمُ - خَتْمَةُ التَّدَبُّرِ  أ.د. يسري جبر","category":"متنوع"},{"id":"004Su5QaV40","title":"مقرأة سورة الزمر من آية ٦٧","publishedAt":"2018-10-30T21:42:46Z","duration":"PT24M14S","thumbnail":"https://i.ytimg.com/vi/004Su5QaV40/mqdefault.jpg","viewCount":"381","playlistId":"PLEkQk5xrP-tnmTYsyW6xNdyfhPq0Bhrhj","playlistName":"مقرأة الفجر - القُرْآنُ الكَرِيمُ - خَتْمَةُ التَّدَبُّرِ  أ.د. يسري جبر","category":"متنوع"},{"id":"mDg7j5fU858","title":"مقرأة سورة سبأ من آية ١٣","publishedAt":"2018-08-08T13:31:26Z","duration":"PT15M59S","thumbnail":"https://i.ytimg.com/vi/mDg7j5fU858/mqdefault.jpg","viewCount":"523","playlistId":"PLEkQk5xrP-tnmTYsyW6xNdyfhPq0Bhrhj","playlistName":"مقرأة الفجر - القُرْآنُ الكَرِيمُ - خَتْمَةُ التَّدَبُّرِ  أ.د. يسري جبر","category":"متنوع"},{"id":"ar_F2osiXV4","title":"مقرأة سورة سبأ من آية ١٠","publishedAt":"2018-08-07T12:10:10Z","duration":"PT12M36S","thumbnail":"https://i.ytimg.com/vi/ar_F2osiXV4/mqdefault.jpg","viewCount":"356","playlistId":"PLEkQk5xrP-tnmTYsyW6xNdyfhPq0Bhrhj","playlistName":"مقرأة الفجر - القُرْآنُ الكَرِيمُ - خَتْمَةُ التَّدَبُّرِ  أ.د. يسري جبر","category":"متنوع"},{"id":"j5Ub4GZqFII","title":"مقرأة سورة الزخرف من آية ٦٣","publishedAt":"2018-12-19T10:37:45Z","duration":"PT18M45S","thumbnail":"https://i.ytimg.com/vi/j5Ub4GZqFII/mqdefault.jpg","viewCount":"327","playlistId":"PLEkQk5xrP-tnmTYsyW6xNdyfhPq0Bhrhj","playlistName":"مقرأة الفجر - القُرْآنُ الكَرِيمُ - خَتْمَةُ التَّدَبُّرِ  أ.د. يسري جبر","category":"متنوع"},{"id":"e4r1XJsEf7g","title":"مقرأة سورة الجاثية من آية ١٢","publishedAt":"2018-12-29T12:56:58Z","duration":"PT19M55S","thumbnail":"https://i.ytimg.com/vi/e4r1XJsEf7g/mqdefault.jpg","viewCount":"292","playlistId":"PLEkQk5xrP-tnmTYsyW6xNdyfhPq0Bhrhj","playlistName":"مقرأة الفجر - القُرْآنُ الكَرِيمُ - خَتْمَةُ التَّدَبُّرِ  أ.د. يسري جبر","category":"متنوع"},{"id":"-_etqhr3f7k","title":"مقرأة سورة الجاثية من آية ٧","publishedAt":"2018-12-28T08:15:51Z","duration":"PT13M40S","thumbnail":"https://i.ytimg.com/vi/-_etqhr3f7k/mqdefault.jpg","viewCount":"270","playlistId":"PLEkQk5xrP-tnmTYsyW6xNdyfhPq0Bhrhj","playlistName":"مقرأة الفجر - القُرْآنُ الكَرِيمُ - خَتْمَةُ التَّدَبُّرِ  أ.د. يسري جبر","category":"متنوع"},{"id":"_owxWqgFhSQ","title":"مقرأة سورة الجاثية من أولها","publishedAt":"2018-12-27T12:48:01Z","duration":"PT16M21S","thumbnail":"https://i.ytimg.com/vi/_owxWqgFhSQ/mqdefault.jpg","viewCount":"1120","playlistId":"PLEkQk5xrP-tnmTYsyW6xNdyfhPq0Bhrhj","playlistName":"مقرأة الفجر - القُرْآنُ الكَرِيمُ - خَتْمَةُ التَّدَبُّرِ  أ.د. يسري جبر","category":"متنوع"},{"id":"DjZKJv-AJrw","title":"مقرأة سورة الحجر من آية ١١","publishedAt":"2017-08-06T07:27:16Z","duration":"PT18M58S","thumbnail":"https://i.ytimg.com/vi/DjZKJv-AJrw/mqdefault.jpg","viewCount":"360","playlistId":"PLEkQk5xrP-tnmTYsyW6xNdyfhPq0Bhrhj","playlistName":"مقرأة الفجر - القُرْآنُ الكَرِيمُ - خَتْمَةُ التَّدَبُّرِ  أ.د. يسري جبر","category":"متنوع"},{"id":"xWh9kcJ2MAs","title":"مقرأة الفجر من سورة الحجر آية ١","publishedAt":"2017-08-05T14:14:59Z","duration":"PT18M39S","thumbnail":"https://i.ytimg.com/vi/xWh9kcJ2MAs/mqdefault.jpg","viewCount":"536","playlistId":"PLEkQk5xrP-tnmTYsyW6xNdyfhPq0Bhrhj","playlistName":"مقرأة الفجر - القُرْآنُ الكَرِيمُ - خَتْمَةُ التَّدَبُّرِ  أ.د. يسري جبر","category":"متنوع"},{"id":"PGAD8fe30xc","title":"مقرأة الفجر من سورة إبراهيم آية ٤٢","publishedAt":"2017-08-04T09:16:30Z","duration":"PT25M50S","thumbnail":"https://i.ytimg.com/vi/PGAD8fe30xc/mqdefault.jpg","viewCount":"355","playlistId":"PLEkQk5xrP-tnmTYsyW6xNdyfhPq0Bhrhj","playlistName":"مقرأة الفجر - القُرْآنُ الكَرِيمُ - خَتْمَةُ التَّدَبُّرِ  أ.د. يسري جبر","category":"متنوع"},{"id":"m0tgzHRUMRM","title":"مقرأة الفجر من سورة إبراهيم آية ٣٥","publishedAt":"2017-08-03T12:59:53Z","duration":"PT20M59S","thumbnail":"https://i.ytimg.com/vi/m0tgzHRUMRM/mqdefault.jpg","viewCount":"328","playlistId":"PLEkQk5xrP-tnmTYsyW6xNdyfhPq0Bhrhj","playlistName":"مقرأة الفجر - القُرْآنُ الكَرِيمُ - خَتْمَةُ التَّدَبُّرِ  أ.د. يسري جبر","category":"متنوع"},{"id":"Sj-DwVzbbCI","title":"مقرأة سورة القصص من آية ٣٦","publishedAt":"2018-05-17T18:24:53Z","duration":"PT27M32S","thumbnail":"https://i.ytimg.com/vi/Sj-DwVzbbCI/mqdefault.jpg","viewCount":"238","playlistId":"PLEkQk5xrP-tnmTYsyW6xNdyfhPq0Bhrhj","playlistName":"مقرأة الفجر - القُرْآنُ الكَرِيمُ - خَتْمَةُ التَّدَبُّرِ  أ.د. يسري جبر","category":"متنوع"},{"id":"QgOGSaYn98M","title":"مقرأة سورة القصص من آية ١٢","publishedAt":"2018-05-15T17:58:30Z","duration":"PT7M49S","thumbnail":"https://i.ytimg.com/vi/QgOGSaYn98M/mqdefault.jpg","viewCount":"336","playlistId":"PLEkQk5xrP-tnmTYsyW6xNdyfhPq0Bhrhj","playlistName":"مقرأة الفجر - القُرْآنُ الكَرِيمُ - خَتْمَةُ التَّدَبُّرِ  أ.د. يسري جبر","category":"متنوع"},{"id":"WlHhNpyDXZM","title":"سورة الأعراف آية 107","publishedAt":"2017-02-22T14:42:02Z","duration":"PT29M55S","thumbnail":"https://i.ytimg.com/vi/WlHhNpyDXZM/mqdefault.jpg","viewCount":"567","playlistId":"PLEkQk5xrP-tnmTYsyW6xNdyfhPq0Bhrhj","playlistName":"مقرأة الفجر - القُرْآنُ الكَرِيمُ - خَتْمَةُ التَّدَبُّرِ  أ.د. يسري جبر","category":"متنوع"},{"id":"WzKe6PRChQA","title":"سورة الأعراف آية 103","publishedAt":"2017-02-21T12:20:43Z","duration":"PT22M36S","thumbnail":"https://i.ytimg.com/vi/WzKe6PRChQA/mqdefault.jpg","viewCount":"439","playlistId":"PLEkQk5xrP-tnmTYsyW6xNdyfhPq0Bhrhj","playlistName":"مقرأة الفجر - القُرْآنُ الكَرِيمُ - خَتْمَةُ التَّدَبُّرِ  أ.د. يسري جبر","category":"متنوع"},{"id":"Mt4IYbY-ZHs","title":"مقرأة سورة المؤمنون آية ٨٩","publishedAt":"2018-03-04T13:13:58Z","duration":"PT12M16S","thumbnail":"https://i.ytimg.com/vi/Mt4IYbY-ZHs/mqdefault.jpg","viewCount":"232","playlistId":"PLEkQk5xrP-tnmTYsyW6xNdyfhPq0Bhrhj","playlistName":"مقرأة الفجر - القُرْآنُ الكَرِيمُ - خَتْمَةُ التَّدَبُّرِ  أ.د. يسري جبر","category":"متنوع"},{"id":"dZ5EIEuBW94","title":"مقرأة سورة المؤمنون آية 81","publishedAt":"2018-03-03T18:15:53Z","duration":"PT15M44S","thumbnail":"https://i.ytimg.com/vi/dZ5EIEuBW94/mqdefault.jpg","viewCount":"223","playlistId":"PLEkQk5xrP-tnmTYsyW6xNdyfhPq0Bhrhj","playlistName":"مقرأة الفجر - القُرْآنُ الكَرِيمُ - خَتْمَةُ التَّدَبُّرِ  أ.د. يسري جبر","category":"متنوع"},{"id":"jkqTqIk-3tw","title":"مقرأة سورة المؤمنون آية ٧٥","publishedAt":"2018-03-02T18:46:14Z","duration":"PT13M11S","thumbnail":"https://i.ytimg.com/vi/jkqTqIk-3tw/mqdefault.jpg","viewCount":"239","playlistId":"PLEkQk5xrP-tnmTYsyW6xNdyfhPq0Bhrhj","playlistName":"مقرأة الفجر - القُرْآنُ الكَرِيمُ - خَتْمَةُ التَّدَبُّرِ  أ.د. يسري جبر","category":"متنوع"},{"id":"ob2YvEW_VFc","title":"سورة الأنفال آية 27","publishedAt":"2017-03-20T11:11:32Z","duration":"PT13M34S","thumbnail":"https://i.ytimg.com/vi/ob2YvEW_VFc/mqdefault.jpg","viewCount":"392","playlistId":"PLEkQk5xrP-tnmTYsyW6xNdyfhPq0Bhrhj","playlistName":"مقرأة الفجر - القُرْآنُ الكَرِيمُ - خَتْمَةُ التَّدَبُّرِ  أ.د. يسري جبر","category":"متنوع"},{"id":"TRyw7Ue1hM4","title":"سورة الأنفال آية 24","publishedAt":"2017-03-19T07:06:40Z","duration":"PT13M23S","thumbnail":"https://i.ytimg.com/vi/TRyw7Ue1hM4/mqdefault.jpg","viewCount":"404","playlistId":"PLEkQk5xrP-tnmTYsyW6xNdyfhPq0Bhrhj","playlistName":"مقرأة الفجر - القُرْآنُ الكَرِيمُ - خَتْمَةُ التَّدَبُّرِ  أ.د. يسري جبر","category":"متنوع"}],"total":942,"page":9,"pageSize":24,"totalPages":40}