{"items":[{"id":"SXDx3gcCpGk","title":"مقرأة سورة الشورى من آية ١٦","publishedAt":"2018-12-01T10:04:54Z","duration":"PT18M57S","thumbnail":"https://i.ytimg.com/vi/SXDx3gcCpGk/mqdefault.jpg","viewCount":"294","playlistId":"PLEkQk5xrP-tnmTYsyW6xNdyfhPq0Bhrhj","playlistName":"مقرأة الفجر - القُرْآنُ الكَرِيمُ - خَتْمَةُ التَّدَبُّرِ  أ.د. يسري جبر","category":"متنوع"},{"id":"LxA9vNq0e0E","title":"مقرأة سورة الشورى من آية ١٣","publishedAt":"2018-11-30T05:13:10Z","duration":"PT15M7S","thumbnail":"https://i.ytimg.com/vi/LxA9vNq0e0E/mqdefault.jpg","viewCount":"323","playlistId":"PLEkQk5xrP-tnmTYsyW6xNdyfhPq0Bhrhj","playlistName":"مقرأة الفجر - القُرْآنُ الكَرِيمُ - خَتْمَةُ التَّدَبُّرِ  أ.د. يسري جبر","category":"متنوع"},{"id":"mpLvNLpY-PE","title":"مقرأة سورة الشورى من آية ٩","publishedAt":"2018-11-29T19:33:52Z","duration":"PT25M31S","thumbnail":"https://i.ytimg.com/vi/mpLvNLpY-PE/mqdefault.jpg","viewCount":"553","playlistId":"PLEkQk5xrP-tnmTYsyW6xNdyfhPq0Bhrhj","playlistName":"مقرأة الفجر - القُرْآنُ الكَرِيمُ - خَتْمَةُ التَّدَبُّرِ  أ.د. يسري جبر","category":"متنوع"},{"id":"DCo__NwlWgM","title":"مقرأة سورة الشورى من أولها","publishedAt":"2018-11-28T14:34:53Z","duration":"PT22M45S","thumbnail":"https://i.ytimg.com/vi/DCo__NwlWgM/mqdefault.jpg","viewCount":"1222","playlistId":"PLEkQk5xrP-tnmTYsyW6xNdyfhPq0Bhrhj","playlistName":"مقرأة الفجر - القُرْآنُ الكَرِيمُ - خَتْمَةُ التَّدَبُّرِ  أ.د. يسري جبر","category":"متنوع"},{"id":"Dx1W462bAMA","title":"مقرأة سورة فصلت من آية ٤٥","publishedAt":"2018-11-27T10:03:01Z","duration":"PT31M50S","thumbnail":"https://i.ytimg.com/vi/Dx1W462bAMA/mqdefault.jpg","viewCount":"344","playlistId":"PLEkQk5xrP-tnmTYsyW6xNdyfhPq0Bhrhj","playlistName":"مقرأة الفجر - القُرْآنُ الكَرِيمُ - خَتْمَةُ التَّدَبُّرِ  أ.د. يسري جبر","category":"متنوع"},{"id":"1gQzccNaCDs","title":"مقرأة سورة فصلت من آية ٤٠","publishedAt":"2018-11-26T09:12:33Z","duration":"PT22M51S","thumbnail":"https://i.ytimg.com/vi/1gQzccNaCDs/mqdefault.jpg","viewCount":"341","playlistId":"PLEkQk5xrP-tnmTYsyW6xNdyfhPq0Bhrhj","playlistName":"مقرأة الفجر - القُرْآنُ الكَرِيمُ - خَتْمَةُ التَّدَبُّرِ  أ.د. يسري جبر","category":"متنوع"},{"id":"sXOhFfkDSY4","title":"سورة الأنعام آية 75","publishedAt":"2016-12-21T07:59:11Z","duration":"PT17M9S","thumbnail":"https://i.ytimg.com/vi/sXOhFfkDSY4/mqdefault.jpg","viewCount":"449","playlistId":"PLEkQk5xrP-tnmTYsyW6xNdyfhPq0Bhrhj","playlistName":"مقرأة الفجر - القُرْآنُ الكَرِيمُ - خَتْمَةُ التَّدَبُّرِ  أ.د. يسري جبر","category":"متنوع"},{"id":"V71jhTeiNr4","title":"سورة الأنعام آية 74","publishedAt":"2016-12-20T12:14:12Z","duration":"PT26M30S","thumbnail":"https://i.ytimg.com/vi/V71jhTeiNr4/mqdefault.jpg","viewCount":"386","playlistId":"PLEkQk5xrP-tnmTYsyW6xNdyfhPq0Bhrhj","playlistName":"مقرأة الفجر - القُرْآنُ الكَرِيمُ - خَتْمَةُ التَّدَبُّرِ  أ.د. يسري جبر","category":"متنوع"},{"id":"MrBce30v608","title":"سورة الأنعام آية 71","publishedAt":"2016-12-19T06:46:40Z","duration":"PT12M12S","thumbnail":"https://i.ytimg.com/vi/MrBce30v608/mqdefault.jpg","viewCount":"514","playlistId":"PLEkQk5xrP-tnmTYsyW6xNdyfhPq0Bhrhj","playlistName":"مقرأة الفجر - القُرْآنُ الكَرِيمُ - خَتْمَةُ التَّدَبُّرِ  أ.د. يسري جبر","category":"متنوع"},{"id":"SMy1iSZIbDA","title":"سورة الأنعام آية 65","publishedAt":"2016-12-12T18:23:29Z","duration":"PT32M10S","thumbnail":"https://i.ytimg.com/vi/SMy1iSZIbDA/mqdefault.jpg","viewCount":"469","playlistId":"PLEkQk5xrP-tnmTYsyW6xNdyfhPq0Bhrhj","playlistName":"مقرأة الفجر - القُرْآنُ الكَرِيمُ - خَتْمَةُ التَّدَبُّرِ  أ.د. يسري جبر","category":"متنوع"},{"id":"CvfSA1PEXjM","title":"سورة الأنعام آية 63","publishedAt":"2016-12-11T04:46:33Z","duration":"PT12M54S","thumbnail":"https://i.ytimg.com/vi/CvfSA1PEXjM/mqdefault.jpg","viewCount":"387","playlistId":"PLEkQk5xrP-tnmTYsyW6xNdyfhPq0Bhrhj","playlistName":"مقرأة الفجر - القُرْآنُ الكَرِيمُ - خَتْمَةُ التَّدَبُّرِ  أ.د. يسري جبر","category":"متنوع"},{"id":"7cExjykkKng","title":"سورة الأنعام آية 59","publishedAt":"2016-12-10T04:23:13Z","duration":"PT13M27S","thumbnail":"https://i.ytimg.com/vi/7cExjykkKng/mqdefault.jpg","viewCount":"443","playlistId":"PLEkQk5xrP-tnmTYsyW6xNdyfhPq0Bhrhj","playlistName":"مقرأة الفجر - القُرْآنُ الكَرِيمُ - خَتْمَةُ التَّدَبُّرِ  أ.د. يسري جبر","category":"متنوع"},{"id":"sQgivjziTV0","title":"مقرأة سورة الأنبياء من آية ٥١","publishedAt":"2017-12-17T08:39:52Z","duration":"PT21M4S","thumbnail":"https://i.ytimg.com/vi/sQgivjziTV0/mqdefault.jpg","viewCount":"332","playlistId":"PLEkQk5xrP-tnmTYsyW6xNdyfhPq0Bhrhj","playlistName":"مقرأة الفجر - القُرْآنُ الكَرِيمُ - خَتْمَةُ التَّدَبُّرِ  أ.د. يسري جبر","category":"متنوع"},{"id":"3PTKI75OPcA","title":"مقرأة سورة الأنبياء من آية ٤٤","publishedAt":"2017-12-16T16:44:54Z","duration":"PT21M38S","thumbnail":"https://i.ytimg.com/vi/3PTKI75OPcA/mqdefault.jpg","viewCount":"280","playlistId":"PLEkQk5xrP-tnmTYsyW6xNdyfhPq0Bhrhj","playlistName":"مقرأة الفجر - القُرْآنُ الكَرِيمُ - خَتْمَةُ التَّدَبُّرِ  أ.د. يسري جبر","category":"متنوع"},{"id":"mgTKkM5ekak","title":"مقرأة سورة الأنبياء من آية ٣٥","publishedAt":"2017-12-15T19:10:51Z","duration":"PT25M56S","thumbnail":"https://i.ytimg.com/vi/mgTKkM5ekak/mqdefault.jpg","viewCount":"292","playlistId":"PLEkQk5xrP-tnmTYsyW6xNdyfhPq0Bhrhj","playlistName":"مقرأة الفجر - القُرْآنُ الكَرِيمُ - خَتْمَةُ التَّدَبُّرِ  أ.د. يسري جبر","category":"متنوع"},{"id":"hjrpdbTIEdQ","title":"مقرأة سورة الأنبياء من آية ٢٥","publishedAt":"2017-12-13T08:16:12Z","duration":"PT15M59S","thumbnail":"https://i.ytimg.com/vi/hjrpdbTIEdQ/mqdefault.jpg","viewCount":"364","playlistId":"PLEkQk5xrP-tnmTYsyW6xNdyfhPq0Bhrhj","playlistName":"مقرأة الفجر - القُرْآنُ الكَرِيمُ - خَتْمَةُ التَّدَبُّرِ  أ.د. يسري جبر","category":"متنوع"},{"id":"7Iyv9HUSq0Y","title":"مقرأة سورة الأنبياء من آية ١٦","publishedAt":"2017-12-12T09:12:06Z","duration":"PT13M44S","thumbnail":"https://i.ytimg.com/vi/7Iyv9HUSq0Y/mqdefault.jpg","viewCount":"292","playlistId":"PLEkQk5xrP-tnmTYsyW6xNdyfhPq0Bhrhj","playlistName":"مقرأة الفجر - القُرْآنُ الكَرِيمُ - خَتْمَةُ التَّدَبُّرِ  أ.د. يسري جبر","category":"متنوع"},{"id":"vWUvu7OavRI","title":"مقرأة سورة الأنبياء من آية ١٠","publishedAt":"2017-12-11T09:10:40Z","duration":"PT24M","thumbnail":"https://i.ytimg.com/vi/vWUvu7OavRI/mqdefault.jpg","viewCount":"360","playlistId":"PLEkQk5xrP-tnmTYsyW6xNdyfhPq0Bhrhj","playlistName":"مقرأة الفجر - القُرْآنُ الكَرِيمُ - خَتْمَةُ التَّدَبُّرِ  أ.د. يسري جبر","category":"متنوع"},{"id":"obPxWLo6yP0","title":"مقرأة سورة الأنبياء من أولها","publishedAt":"2017-12-10T15:53:17Z","duration":"PT13M28S","thumbnail":"https://i.ytimg.com/vi/obPxWLo6yP0/mqdefault.jpg","viewCount":"561","playlistId":"PLEkQk5xrP-tnmTYsyW6xNdyfhPq0Bhrhj","playlistName":"مقرأة الفجر - القُرْآنُ الكَرِيمُ - خَتْمَةُ التَّدَبُّرِ  أ.د. يسري جبر","category":"متنوع"},{"id":"3_ghjEI_sIk","title":"مقرأة سورة طه من آية ١٢٨","publishedAt":"2017-12-09T12:57:32Z","duration":"PT20M30S","thumbnail":"https://i.ytimg.com/vi/3_ghjEI_sIk/mqdefault.jpg","viewCount":"374","playlistId":"PLEkQk5xrP-tnmTYsyW6xNdyfhPq0Bhrhj","playlistName":"مقرأة الفجر - القُرْآنُ الكَرِيمُ - خَتْمَةُ التَّدَبُّرِ  أ.د. يسري جبر","category":"متنوع"},{"id":"ow6Idmbx-zE","title":"مقرأة سورة طه من آية ١١٥","publishedAt":"2017-12-08T08:04:33Z","duration":"PT30M9S","thumbnail":"https://i.ytimg.com/vi/ow6Idmbx-zE/mqdefault.jpg","viewCount":"386","playlistId":"PLEkQk5xrP-tnmTYsyW6xNdyfhPq0Bhrhj","playlistName":"مقرأة الفجر - القُرْآنُ الكَرِيمُ - خَتْمَةُ التَّدَبُّرِ  أ.د. يسري جبر","category":"متنوع"},{"id":"jQFLeNUE8FU","title":"مقرأة سورة طه من آية ١١٢","publishedAt":"2017-12-07T19:44:47Z","duration":"PT20M34S","thumbnail":"https://i.ytimg.com/vi/jQFLeNUE8FU/mqdefault.jpg","viewCount":"288","playlistId":"PLEkQk5xrP-tnmTYsyW6xNdyfhPq0Bhrhj","playlistName":"مقرأة الفجر - القُرْآنُ الكَرِيمُ - خَتْمَةُ التَّدَبُّرِ  أ.د. يسري جبر","category":"متنوع"},{"id":"BtKxNSB2vkE","title":"سورة الأنعام آية 55","publishedAt":"2016-12-08T06:36:18Z","duration":"PT8M34S","thumbnail":"https://i.ytimg.com/vi/BtKxNSB2vkE/mqdefault.jpg","viewCount":"572","playlistId":"PLEkQk5xrP-tnmTYsyW6xNdyfhPq0Bhrhj","playlistName":"مقرأة الفجر - القُرْآنُ الكَرِيمُ - خَتْمَةُ التَّدَبُّرِ  أ.د. يسري جبر","category":"متنوع"},{"id":"M3JU5ghnsXo","title":"سورة الأنعام آية 50","publishedAt":"2016-12-07T07:33:25Z","duration":"PT31M16S","thumbnail":"https://i.ytimg.com/vi/M3JU5ghnsXo/mqdefault.jpg","viewCount":"463","playlistId":"PLEkQk5xrP-tnmTYsyW6xNdyfhPq0Bhrhj","playlistName":"مقرأة الفجر - القُرْآنُ الكَرِيمُ - خَتْمَةُ التَّدَبُّرِ  أ.د. يسري جبر","category":"متنوع"}],"total":942,"page":32,"pageSize":24,"totalPages":40}