{"items":[{"id":"Q5LWMZfPsXA","title":"سورة النساء آية 101","publishedAt":"2016-09-29T19:52:40Z","duration":"PT16M15S","thumbnail":"https://i.ytimg.com/vi/Q5LWMZfPsXA/mqdefault.jpg","viewCount":"364","playlistId":"PLEkQk5xrP-tnmTYsyW6xNdyfhPq0Bhrhj","playlistName":"مقرأة الفجر - القُرْآنُ الكَرِيمُ - خَتْمَةُ التَّدَبُّرِ  أ.د. يسري جبر","category":"متنوع"},{"id":"1py6cHf2N6E","title":"سورة النساء آية 131","publishedAt":"2016-09-27T20:47:48Z","duration":"PT18M44S","thumbnail":"https://i.ytimg.com/vi/1py6cHf2N6E/mqdefault.jpg","viewCount":"385","playlistId":"PLEkQk5xrP-tnmTYsyW6xNdyfhPq0Bhrhj","playlistName":"مقرأة الفجر - القُرْآنُ الكَرِيمُ - خَتْمَةُ التَّدَبُّرِ  أ.د. يسري جبر","category":"متنوع"},{"id":"VTjQHFUM48U","title":"سورة النساء آية 127","publishedAt":"2016-09-27T20:46:31Z","duration":"PT22M54S","thumbnail":"https://i.ytimg.com/vi/VTjQHFUM48U/mqdefault.jpg","viewCount":"393","playlistId":"PLEkQk5xrP-tnmTYsyW6xNdyfhPq0Bhrhj","playlistName":"مقرأة الفجر - القُرْآنُ الكَرِيمُ - خَتْمَةُ التَّدَبُّرِ  أ.د. يسري جبر","category":"متنوع"},{"id":"TZeYWHNQZmk","title":"سورة النساء آية 123","publishedAt":"2016-09-27T20:45:09Z","duration":"PT16M48S","thumbnail":"https://i.ytimg.com/vi/TZeYWHNQZmk/mqdefault.jpg","viewCount":"348","playlistId":"PLEkQk5xrP-tnmTYsyW6xNdyfhPq0Bhrhj","playlistName":"مقرأة الفجر - القُرْآنُ الكَرِيمُ - خَتْمَةُ التَّدَبُّرِ  أ.د. يسري جبر","category":"متنوع"},{"id":"YxNoaSmKKds","title":"سورة الأعراف آية 159","publishedAt":"2017-03-04T11:13:24Z","duration":"PT28M42S","thumbnail":"https://i.ytimg.com/vi/YxNoaSmKKds/mqdefault.jpg","viewCount":"388","playlistId":"PLEkQk5xrP-tnmTYsyW6xNdyfhPq0Bhrhj","playlistName":"مقرأة الفجر - القُرْآنُ الكَرِيمُ - خَتْمَةُ التَّدَبُّرِ  أ.د. يسري جبر","category":"متنوع"},{"id":"vEKmvdwvycU","title":"سورة الأعراف آية 156","publishedAt":"2017-03-02T10:19:58Z","duration":"PT19M58S","thumbnail":"https://i.ytimg.com/vi/vEKmvdwvycU/mqdefault.jpg","viewCount":"393","playlistId":"PLEkQk5xrP-tnmTYsyW6xNdyfhPq0Bhrhj","playlistName":"مقرأة الفجر - القُرْآنُ الكَرِيمُ - خَتْمَةُ التَّدَبُّرِ  أ.د. يسري جبر","category":"متنوع"},{"id":"dJVstHxgVc4","title":"سورة الأعراف آية 150","publishedAt":"2017-03-01T13:43:51Z","duration":"PT20M28S","thumbnail":"https://i.ytimg.com/vi/dJVstHxgVc4/mqdefault.jpg","viewCount":"394","playlistId":"PLEkQk5xrP-tnmTYsyW6xNdyfhPq0Bhrhj","playlistName":"مقرأة الفجر - القُرْآنُ الكَرِيمُ - خَتْمَةُ التَّدَبُّرِ  أ.د. يسري جبر","category":"متنوع"},{"id":"_aKGlsGHx98","title":"مقرأة سورة الأعراف من آية ١٤٥","publishedAt":"2017-02-28T09:46:12Z","duration":"PT18M4S","thumbnail":"https://i.ytimg.com/vi/_aKGlsGHx98/mqdefault.jpg","viewCount":"375","playlistId":"PLEkQk5xrP-tnmTYsyW6xNdyfhPq0Bhrhj","playlistName":"مقرأة الفجر - القُرْآنُ الكَرِيمُ - خَتْمَةُ التَّدَبُّرِ  أ.د. يسري جبر","category":"متنوع"},{"id":"_pK7XUdaN5w","title":"سورة الأعراف آية 142","publishedAt":"2017-02-27T08:30:54Z","duration":"PT20M16S","thumbnail":"https://i.ytimg.com/vi/_pK7XUdaN5w/mqdefault.jpg","viewCount":"388","playlistId":"PLEkQk5xrP-tnmTYsyW6xNdyfhPq0Bhrhj","playlistName":"مقرأة الفجر - القُرْآنُ الكَرِيمُ - خَتْمَةُ التَّدَبُّرِ  أ.د. يسري جبر","category":"متنوع"},{"id":"4eGboMvrqIc","title":"مقرأة سورة الزخرف من آية ٦","publishedAt":"2018-12-11T09:36:23Z","duration":"PT20M28S","thumbnail":"https://i.ytimg.com/vi/4eGboMvrqIc/mqdefault.jpg","viewCount":"365","playlistId":"PLEkQk5xrP-tnmTYsyW6xNdyfhPq0Bhrhj","playlistName":"مقرأة الفجر - القُرْآنُ الكَرِيمُ - خَتْمَةُ التَّدَبُّرِ  أ.د. يسري جبر","category":"متنوع"},{"id":"wRX_QHUQIGs","title":"مقرأة سورة الزخرف من أولها","publishedAt":"2018-12-10T13:15:12Z","duration":"PT31M37S","thumbnail":"https://i.ytimg.com/vi/wRX_QHUQIGs/mqdefault.jpg","viewCount":"357","playlistId":"PLEkQk5xrP-tnmTYsyW6xNdyfhPq0Bhrhj","playlistName":"مقرأة الفجر - القُرْآنُ الكَرِيمُ - خَتْمَةُ التَّدَبُّرِ  أ.د. يسري جبر","category":"متنوع"},{"id":"UpdDA1UDI1Q","title":"مقرأة سورة الشورى من آية ٤٩","publishedAt":"2018-12-09T11:51:07Z","duration":"PT18M42S","thumbnail":"https://i.ytimg.com/vi/UpdDA1UDI1Q/mqdefault.jpg","viewCount":"331","playlistId":"PLEkQk5xrP-tnmTYsyW6xNdyfhPq0Bhrhj","playlistName":"مقرأة الفجر - القُرْآنُ الكَرِيمُ - خَتْمَةُ التَّدَبُّرِ  أ.د. يسري جبر","category":"متنوع"},{"id":"jUj0EXLPezE","title":"مقرأة سورة الشورى من آية ٤٤","publishedAt":"2018-12-08T12:44:26Z","duration":"PT19M9S","thumbnail":"https://i.ytimg.com/vi/jUj0EXLPezE/mqdefault.jpg","viewCount":"310","playlistId":"PLEkQk5xrP-tnmTYsyW6xNdyfhPq0Bhrhj","playlistName":"مقرأة الفجر - القُرْآنُ الكَرِيمُ - خَتْمَةُ التَّدَبُّرِ  أ.د. يسري جبر","category":"متنوع"},{"id":"CEEvX9I312Q","title":"مقرأة سورة الذاريات من آية ١٥","publishedAt":"2019-02-04T11:21:08Z","duration":"PT10M35S","thumbnail":"https://i.ytimg.com/vi/CEEvX9I312Q/mqdefault.jpg","viewCount":"455","playlistId":"PLEkQk5xrP-tnmTYsyW6xNdyfhPq0Bhrhj","playlistName":"مقرأة الفجر - القُرْآنُ الكَرِيمُ - خَتْمَةُ التَّدَبُّرِ  أ.د. يسري جبر","category":"متنوع"},{"id":"lD42HbToNwY","title":"مقرأة سورة الذاريات من أولها","publishedAt":"2019-02-03T12:27:53Z","duration":"PT14M58S","thumbnail":"https://i.ytimg.com/vi/lD42HbToNwY/mqdefault.jpg","viewCount":"572","playlistId":"PLEkQk5xrP-tnmTYsyW6xNdyfhPq0Bhrhj","playlistName":"مقرأة الفجر - القُرْآنُ الكَرِيمُ - خَتْمَةُ التَّدَبُّرِ  أ.د. يسري جبر","category":"متنوع"},{"id":"sr11rBEIrrQ","title":"مقرأة سورة ق من آية ٣٨","publishedAt":"2019-02-02T14:33:45Z","duration":"PT12M51S","thumbnail":"https://i.ytimg.com/vi/sr11rBEIrrQ/mqdefault.jpg","viewCount":"256","playlistId":"PLEkQk5xrP-tnmTYsyW6xNdyfhPq0Bhrhj","playlistName":"مقرأة الفجر - القُرْآنُ الكَرِيمُ - خَتْمَةُ التَّدَبُّرِ  أ.د. يسري جبر","category":"متنوع"},{"id":"xLaXE5fp3GU","title":"مقرأة سورة محمد من آية ٣","publishedAt":"2019-01-11T11:53:23Z","duration":"PT14M48S","thumbnail":"https://i.ytimg.com/vi/xLaXE5fp3GU/mqdefault.jpg","viewCount":"424","playlistId":"PLEkQk5xrP-tnmTYsyW6xNdyfhPq0Bhrhj","playlistName":"مقرأة الفجر - القُرْآنُ الكَرِيمُ - خَتْمَةُ التَّدَبُّرِ  أ.د. يسري جبر","category":"متنوع"},{"id":"SE0qGOyqDqA","title":"مقرأة سورة محمد من أولها","publishedAt":"2019-01-10T11:47:53Z","duration":"PT19M14S","thumbnail":"https://i.ytimg.com/vi/SE0qGOyqDqA/mqdefault.jpg","viewCount":"946","playlistId":"PLEkQk5xrP-tnmTYsyW6xNdyfhPq0Bhrhj","playlistName":"مقرأة الفجر - القُرْآنُ الكَرِيمُ - خَتْمَةُ التَّدَبُّرِ  أ.د. يسري جبر","category":"متنوع"},{"id":"gkncDxRl7Dw","title":"مقرأة سورة الأحقاف من آية ٢٩","publishedAt":"2019-01-09T11:33:54Z","duration":"PT22M48S","thumbnail":"https://i.ytimg.com/vi/gkncDxRl7Dw/mqdefault.jpg","viewCount":"366","playlistId":"PLEkQk5xrP-tnmTYsyW6xNdyfhPq0Bhrhj","playlistName":"مقرأة الفجر - القُرْآنُ الكَرِيمُ - خَتْمَةُ التَّدَبُّرِ  أ.د. يسري جبر","category":"متنوع"},{"id":"Ei1GJTV2TnY","title":"مقرأة سورة الأحقاف من آية ٢١","publishedAt":"2019-01-08T09:07:34Z","duration":"PT25M9S","thumbnail":"https://i.ytimg.com/vi/Ei1GJTV2TnY/mqdefault.jpg","viewCount":"379","playlistId":"PLEkQk5xrP-tnmTYsyW6xNdyfhPq0Bhrhj","playlistName":"مقرأة الفجر - القُرْآنُ الكَرِيمُ - خَتْمَةُ التَّدَبُّرِ  أ.د. يسري جبر","category":"متنوع"},{"id":"N00xK6bRlA8","title":"مقرأة سورة الأحقاف من آية ١٧","publishedAt":"2019-01-07T09:29:15Z","duration":"PT15M59S","thumbnail":"https://i.ytimg.com/vi/N00xK6bRlA8/mqdefault.jpg","viewCount":"350","playlistId":"PLEkQk5xrP-tnmTYsyW6xNdyfhPq0Bhrhj","playlistName":"مقرأة الفجر - القُرْآنُ الكَرِيمُ - خَتْمَةُ التَّدَبُّرِ  أ.د. يسري جبر","category":"متنوع"},{"id":"muMfdzaclnE","title":"مقرأة سورة الكهف من آية ٣٢","publishedAt":"2017-10-25T09:59:56Z","duration":"PT36M7S","thumbnail":"https://i.ytimg.com/vi/muMfdzaclnE/mqdefault.jpg","viewCount":"511","playlistId":"PLEkQk5xrP-tnmTYsyW6xNdyfhPq0Bhrhj","playlistName":"مقرأة الفجر - القُرْآنُ الكَرِيمُ - خَتْمَةُ التَّدَبُّرِ  أ.د. يسري جبر","category":"متنوع"},{"id":"bR1uQyRudgU","title":"سورة النساء آية 116","publishedAt":"2016-09-25T05:04:03Z","duration":"PT28M21S","thumbnail":"https://i.ytimg.com/vi/bR1uQyRudgU/mqdefault.jpg","viewCount":"446","playlistId":"PLEkQk5xrP-tnmTYsyW6xNdyfhPq0Bhrhj","playlistName":"مقرأة الفجر - القُرْآنُ الكَرِيمُ - خَتْمَةُ التَّدَبُّرِ  أ.د. يسري جبر","category":"متنوع"},{"id":"eoSl5idfOno","title":"سورة النساء آية 114","publishedAt":"2016-09-24T03:24:04Z","duration":"PT19M10S","thumbnail":"https://i.ytimg.com/vi/eoSl5idfOno/mqdefault.jpg","viewCount":"380","playlistId":"PLEkQk5xrP-tnmTYsyW6xNdyfhPq0Bhrhj","playlistName":"مقرأة الفجر - القُرْآنُ الكَرِيمُ - خَتْمَةُ التَّدَبُّرِ  أ.د. يسري جبر","category":"متنوع"}],"total":942,"page":13,"pageSize":24,"totalPages":40}