{"items":[{"id":"KbbSeinsJ1s","title":"مقرأة سورة الكهف من آية ٢٩","publishedAt":"2017-10-20T08:04:21Z","duration":"PT12M28S","thumbnail":"https://i.ytimg.com/vi/KbbSeinsJ1s/mqdefault.jpg","viewCount":"406","playlistId":"PLEkQk5xrP-tnmTYsyW6xNdyfhPq0Bhrhj","playlistName":"مقرأة الفجر - القُرْآنُ الكَرِيمُ - خَتْمَةُ التَّدَبُّرِ  أ.د. يسري جبر","category":"متنوع"},{"id":"V2Wvt7iaVS8","title":"مقرأة سورة الكهف من آية ٢٧","publishedAt":"2017-10-19T11:29:13Z","duration":"PT24M36S","thumbnail":"https://i.ytimg.com/vi/V2Wvt7iaVS8/mqdefault.jpg","viewCount":"448","playlistId":"PLEkQk5xrP-tnmTYsyW6xNdyfhPq0Bhrhj","playlistName":"مقرأة الفجر - القُرْآنُ الكَرِيمُ - خَتْمَةُ التَّدَبُّرِ  أ.د. يسري جبر","category":"متنوع"},{"id":"StQcVVNh7H0","title":"مقرأة سورة الكهف من آية ٢٣","publishedAt":"2017-10-18T10:16:00Z","duration":"PT13M58S","thumbnail":"https://i.ytimg.com/vi/StQcVVNh7H0/mqdefault.jpg","viewCount":"649","playlistId":"PLEkQk5xrP-tnmTYsyW6xNdyfhPq0Bhrhj","playlistName":"مقرأة الفجر - القُرْآنُ الكَرِيمُ - خَتْمَةُ التَّدَبُّرِ  أ.د. يسري جبر","category":"متنوع"},{"id":"fjcjgln7vM8","title":"مقرأة سورة الكهف من آية ١٩","publishedAt":"2017-10-17T09:12:27Z","duration":"PT27M","thumbnail":"https://i.ytimg.com/vi/fjcjgln7vM8/mqdefault.jpg","viewCount":"606","playlistId":"PLEkQk5xrP-tnmTYsyW6xNdyfhPq0Bhrhj","playlistName":"مقرأة الفجر - القُرْآنُ الكَرِيمُ - خَتْمَةُ التَّدَبُّرِ  أ.د. يسري جبر","category":"متنوع"},{"id":"wlyd2QhPrLM","title":"مقرأة سورة الكهف من آية ١٣","publishedAt":"2017-10-16T10:10:48Z","duration":"PT16M35S","thumbnail":"https://i.ytimg.com/vi/wlyd2QhPrLM/mqdefault.jpg","viewCount":"574","playlistId":"PLEkQk5xrP-tnmTYsyW6xNdyfhPq0Bhrhj","playlistName":"مقرأة الفجر - القُرْآنُ الكَرِيمُ - خَتْمَةُ التَّدَبُّرِ  أ.د. يسري جبر","category":"متنوع"},{"id":"bcJ12ZtYrn8","title":"مقرأة سورة الكهف من أية ٩","publishedAt":"2017-10-15T06:07:37Z","duration":"PT23M22S","thumbnail":"https://i.ytimg.com/vi/bcJ12ZtYrn8/mqdefault.jpg","viewCount":"684","playlistId":"PLEkQk5xrP-tnmTYsyW6xNdyfhPq0Bhrhj","playlistName":"مقرأة الفجر - القُرْآنُ الكَرِيمُ - خَتْمَةُ التَّدَبُّرِ  أ.د. يسري جبر","category":"متنوع"},{"id":"F0nH6JBwVcw","title":"مقرأة سورة الكهف من أولها","publishedAt":"2017-10-12T15:50:26Z","duration":"PT13M23S","thumbnail":"https://i.ytimg.com/vi/F0nH6JBwVcw/mqdefault.jpg","viewCount":"2363","playlistId":"PLEkQk5xrP-tnmTYsyW6xNdyfhPq0Bhrhj","playlistName":"مقرأة الفجر - القُرْآنُ الكَرِيمُ - خَتْمَةُ التَّدَبُّرِ  أ.د. يسري جبر","category":"متنوع"},{"id":"BeCumXntnuE","title":"مقرأة سورة الإسراء من آية ١٠١","publishedAt":"2017-10-11T12:03:40Z","duration":"PT29M22S","thumbnail":"https://i.ytimg.com/vi/BeCumXntnuE/mqdefault.jpg","viewCount":"359","playlistId":"PLEkQk5xrP-tnmTYsyW6xNdyfhPq0Bhrhj","playlistName":"مقرأة الفجر - القُرْآنُ الكَرِيمُ - خَتْمَةُ التَّدَبُّرِ  أ.د. يسري جبر","category":"متنوع"},{"id":"ZXDdTv1-LsE","title":"مقرأة سورة الإسراء من آية ٩٥","publishedAt":"2017-10-10T11:11:47Z","duration":"PT21M38S","thumbnail":"https://i.ytimg.com/vi/ZXDdTv1-LsE/mqdefault.jpg","viewCount":"335","playlistId":"PLEkQk5xrP-tnmTYsyW6xNdyfhPq0Bhrhj","playlistName":"مقرأة الفجر - القُرْآنُ الكَرِيمُ - خَتْمَةُ التَّدَبُّرِ  أ.د. يسري جبر","category":"متنوع"},{"id":"r1NbVXxl93c","title":"مقرأة سورة الإسراء من آية ٨٦","publishedAt":"2017-10-09T11:03:59Z","duration":"PT19M10S","thumbnail":"https://i.ytimg.com/vi/r1NbVXxl93c/mqdefault.jpg","viewCount":"323","playlistId":"PLEkQk5xrP-tnmTYsyW6xNdyfhPq0Bhrhj","playlistName":"مقرأة الفجر - القُرْآنُ الكَرِيمُ - خَتْمَةُ التَّدَبُّرِ  أ.د. يسري جبر","category":"متنوع"},{"id":"cYrw2CJGsy4","title":"مقرأة سورة الإسراء من آية ٨٣","publishedAt":"2017-10-08T10:44:28Z","duration":"PT15M47S","thumbnail":"https://i.ytimg.com/vi/cYrw2CJGsy4/mqdefault.jpg","viewCount":"400","playlistId":"PLEkQk5xrP-tnmTYsyW6xNdyfhPq0Bhrhj","playlistName":"مقرأة الفجر - القُرْآنُ الكَرِيمُ - خَتْمَةُ التَّدَبُّرِ  أ.د. يسري جبر","category":"متنوع"},{"id":"PYuPHg4uwuw","title":"سورة النساء أية 77","publishedAt":"2016-08-31T06:10:26Z","duration":"PT22M9S","thumbnail":"https://i.ytimg.com/vi/PYuPHg4uwuw/mqdefault.jpg","viewCount":"520","playlistId":"PLEkQk5xrP-tnmTYsyW6xNdyfhPq0Bhrhj","playlistName":"مقرأة الفجر - القُرْآنُ الكَرِيمُ - خَتْمَةُ التَّدَبُّرِ  أ.د. يسري جبر","category":"متنوع"},{"id":"dKTq64PdPnQ","title":"سورة النساء آية 65","publishedAt":"2016-08-28T20:24:58Z","duration":"PT10M49S","thumbnail":"https://i.ytimg.com/vi/dKTq64PdPnQ/mqdefault.jpg","viewCount":"469","playlistId":"PLEkQk5xrP-tnmTYsyW6xNdyfhPq0Bhrhj","playlistName":"مقرأة الفجر - القُرْآنُ الكَرِيمُ - خَتْمَةُ التَّدَبُّرِ  أ.د. يسري جبر","category":"متنوع"},{"id":"d5MDxnH0CQw","title":"سورة النساء آية 60","publishedAt":"2016-08-27T21:07:17Z","duration":"PT18M11S","thumbnail":"https://i.ytimg.com/vi/d5MDxnH0CQw/mqdefault.jpg","viewCount":"566","playlistId":"PLEkQk5xrP-tnmTYsyW6xNdyfhPq0Bhrhj","playlistName":"مقرأة الفجر - القُرْآنُ الكَرِيمُ - خَتْمَةُ التَّدَبُّرِ  أ.د. يسري جبر","category":"متنوع"},{"id":"iICWvhmaPPU","title":"سورة النساء آية 58","publishedAt":"2016-08-26T06:46:14Z","duration":"PT10M","thumbnail":"https://i.ytimg.com/vi/iICWvhmaPPU/mqdefault.jpg","viewCount":"465","playlistId":"PLEkQk5xrP-tnmTYsyW6xNdyfhPq0Bhrhj","playlistName":"مقرأة الفجر - القُرْآنُ الكَرِيمُ - خَتْمَةُ التَّدَبُّرِ  أ.د. يسري جبر","category":"متنوع"},{"id":"3JLbublbSKo","title":"سورة النساء آية 48","publishedAt":"2016-08-24T12:02:29Z","duration":"PT15M44S","thumbnail":"https://i.ytimg.com/vi/3JLbublbSKo/mqdefault.jpg","viewCount":"454","playlistId":"PLEkQk5xrP-tnmTYsyW6xNdyfhPq0Bhrhj","playlistName":"مقرأة الفجر - القُرْآنُ الكَرِيمُ - خَتْمَةُ التَّدَبُّرِ  أ.د. يسري جبر","category":"متنوع"},{"id":"ZsgSM4d6Qts","title":"سورة النساء آية 44","publishedAt":"2016-08-23T06:44:21Z","duration":"PT20M47S","thumbnail":"https://i.ytimg.com/vi/ZsgSM4d6Qts/mqdefault.jpg","viewCount":"479","playlistId":"PLEkQk5xrP-tnmTYsyW6xNdyfhPq0Bhrhj","playlistName":"مقرأة الفجر - القُرْآنُ الكَرِيمُ - خَتْمَةُ التَّدَبُّرِ  أ.د. يسري جبر","category":"متنوع"},{"id":"s_8Dy6cHKoM","title":"سورة النساء آية 43","publishedAt":"2016-08-22T07:40:54Z","duration":"PT32M52S","thumbnail":"https://i.ytimg.com/vi/s_8Dy6cHKoM/mqdefault.jpg","viewCount":"510","playlistId":"PLEkQk5xrP-tnmTYsyW6xNdyfhPq0Bhrhj","playlistName":"مقرأة الفجر - القُرْآنُ الكَرِيمُ - خَتْمَةُ التَّدَبُّرِ  أ.د. يسري جبر","category":"متنوع"},{"id":"lKc8hCSCc5k","title":"سورة النساء آية 36","publishedAt":"2016-08-21T07:39:58Z","duration":"PT23M12S","thumbnail":"https://i.ytimg.com/vi/lKc8hCSCc5k/mqdefault.jpg","viewCount":"533","playlistId":"PLEkQk5xrP-tnmTYsyW6xNdyfhPq0Bhrhj","playlistName":"مقرأة الفجر - القُرْآنُ الكَرِيمُ - خَتْمَةُ التَّدَبُّرِ  أ.د. يسري جبر","category":"متنوع"},{"id":"4rVTdVGeOc0","title":"مقرأة سورة الإسراء من آية ٨٠","publishedAt":"2017-10-05T13:44:00Z","duration":"PT7M","thumbnail":"https://i.ytimg.com/vi/4rVTdVGeOc0/mqdefault.jpg","viewCount":"468","playlistId":"PLEkQk5xrP-tnmTYsyW6xNdyfhPq0Bhrhj","playlistName":"مقرأة الفجر - القُرْآنُ الكَرِيمُ - خَتْمَةُ التَّدَبُّرِ  أ.د. يسري جبر","category":"متنوع"},{"id":"GHPe2K_UPi0","title":"مقرأة سورة الإسراء من آية ٧٦","publishedAt":"2017-10-04T13:40:17Z","duration":"PT19M16S","thumbnail":"https://i.ytimg.com/vi/GHPe2K_UPi0/mqdefault.jpg","viewCount":"348","playlistId":"PLEkQk5xrP-tnmTYsyW6xNdyfhPq0Bhrhj","playlistName":"مقرأة الفجر - القُرْآنُ الكَرِيمُ - خَتْمَةُ التَّدَبُّرِ  أ.د. يسري جبر","category":"متنوع"},{"id":"Zgq9gdt0i2g","title":"مقرأة سورة الإسراء من آية ٧٠","publishedAt":"2017-10-03T12:44:11Z","duration":"PT24M25S","thumbnail":"https://i.ytimg.com/vi/Zgq9gdt0i2g/mqdefault.jpg","viewCount":"493","playlistId":"PLEkQk5xrP-tnmTYsyW6xNdyfhPq0Bhrhj","playlistName":"مقرأة الفجر - القُرْآنُ الكَرِيمُ - خَتْمَةُ التَّدَبُّرِ  أ.د. يسري جبر","category":"متنوع"},{"id":"RdSPqUC-AGI","title":"مقرأة سورة الإسراء من آية ٦٦","publishedAt":"2017-10-02T09:26:48Z","duration":"PT21M22S","thumbnail":"https://i.ytimg.com/vi/RdSPqUC-AGI/mqdefault.jpg","viewCount":"353","playlistId":"PLEkQk5xrP-tnmTYsyW6xNdyfhPq0Bhrhj","playlistName":"مقرأة الفجر - القُرْآنُ الكَرِيمُ - خَتْمَةُ التَّدَبُّرِ  أ.د. يسري جبر","category":"متنوع"},{"id":"t9r8EeZB7ZM","title":"مقرأة سورة الإسراء من آية ٦١","publishedAt":"2017-10-01T09:48:35Z","duration":"PT32M27S","thumbnail":"https://i.ytimg.com/vi/t9r8EeZB7ZM/mqdefault.jpg","viewCount":"444","playlistId":"PLEkQk5xrP-tnmTYsyW6xNdyfhPq0Bhrhj","playlistName":"مقرأة الفجر - القُرْآنُ الكَرِيمُ - خَتْمَةُ التَّدَبُّرِ  أ.د. يسري جبر","category":"متنوع"}],"total":942,"page":22,"pageSize":24,"totalPages":40}