{"items":[{"id":"KH1Q4a_avD4","title":"مقرأة سورة الفيل من أولها","publishedAt":"2019-08-10T21:27:07Z","duration":"PT9M45S","thumbnail":"https://i.ytimg.com/vi/KH1Q4a_avD4/mqdefault.jpg","viewCount":"634","playlistId":"PLEkQk5xrP-tnmTYsyW6xNdyfhPq0Bhrhj","playlistName":"مقرأة الفجر - القُرْآنُ الكَرِيمُ - خَتْمَةُ التَّدَبُّرِ  أ.د. يسري جبر","category":"متنوع"},{"id":"eyDe4Uk3u8I","title":"مقرأة سورة الهمزة من أولها","publishedAt":"2019-08-08T20:49:18Z","duration":"PT14M48S","thumbnail":"https://i.ytimg.com/vi/eyDe4Uk3u8I/mqdefault.jpg","viewCount":"673","playlistId":"PLEkQk5xrP-tnmTYsyW6xNdyfhPq0Bhrhj","playlistName":"مقرأة الفجر - القُرْآنُ الكَرِيمُ - خَتْمَةُ التَّدَبُّرِ  أ.د. يسري جبر","category":"متنوع"},{"id":"hLhQ6BBIQjM","title":"مقرأة سورة العصر من أولها","publishedAt":"2019-08-07T20:29:02Z","duration":"PT11M28S","thumbnail":"https://i.ytimg.com/vi/hLhQ6BBIQjM/mqdefault.jpg","viewCount":"781","playlistId":"PLEkQk5xrP-tnmTYsyW6xNdyfhPq0Bhrhj","playlistName":"مقرأة الفجر - القُرْآنُ الكَرِيمُ - خَتْمَةُ التَّدَبُّرِ  أ.د. يسري جبر","category":"متنوع"},{"id":"fT13ER_ktCA","title":"مقرأة سورة التكاثر من أولها","publishedAt":"2019-08-06T19:33:38Z","duration":"PT10M47S","thumbnail":"https://i.ytimg.com/vi/fT13ER_ktCA/mqdefault.jpg","viewCount":"603","playlistId":"PLEkQk5xrP-tnmTYsyW6xNdyfhPq0Bhrhj","playlistName":"مقرأة الفجر - القُرْآنُ الكَرِيمُ - خَتْمَةُ التَّدَبُّرِ  أ.د. يسري جبر","category":"متنوع"},{"id":"LsvXZTKwXMg","title":"مقرأة سورة القارعة من أولها","publishedAt":"2019-08-05T16:59:28Z","duration":"PT10M49S","thumbnail":"https://i.ytimg.com/vi/LsvXZTKwXMg/mqdefault.jpg","viewCount":"501","playlistId":"PLEkQk5xrP-tnmTYsyW6xNdyfhPq0Bhrhj","playlistName":"مقرأة الفجر - القُرْآنُ الكَرِيمُ - خَتْمَةُ التَّدَبُّرِ  أ.د. يسري جبر","category":"متنوع"},{"id":"KwT7gBsV69A","title":"مقرأة سورة العاديات من أولها","publishedAt":"2019-08-04T21:27:57Z","duration":"PT10M48S","thumbnail":"https://i.ytimg.com/vi/KwT7gBsV69A/mqdefault.jpg","viewCount":"619","playlistId":"PLEkQk5xrP-tnmTYsyW6xNdyfhPq0Bhrhj","playlistName":"مقرأة الفجر - القُرْآنُ الكَرِيمُ - خَتْمَةُ التَّدَبُّرِ  أ.د. يسري جبر","category":"متنوع"},{"id":"tbma2gPMR9k","title":"مقرأة سورة الزلزلة من أولها","publishedAt":"2019-08-01T10:47:35Z","duration":"PT16M3S","thumbnail":"https://i.ytimg.com/vi/tbma2gPMR9k/mqdefault.jpg","viewCount":"749","playlistId":"PLEkQk5xrP-tnmTYsyW6xNdyfhPq0Bhrhj","playlistName":"مقرأة الفجر - القُرْآنُ الكَرِيمُ - خَتْمَةُ التَّدَبُّرِ  أ.د. يسري جبر","category":"متنوع"},{"id":"DehKzxyo_4I","title":"مقرأة سورة البينة من أولها","publishedAt":"2019-07-31T11:41:25Z","duration":"PT16M8S","thumbnail":"https://i.ytimg.com/vi/DehKzxyo_4I/mqdefault.jpg","viewCount":"644","playlistId":"PLEkQk5xrP-tnmTYsyW6xNdyfhPq0Bhrhj","playlistName":"مقرأة الفجر - القُرْآنُ الكَرِيمُ - خَتْمَةُ التَّدَبُّرِ  أ.د. يسري جبر","category":"متنوع"},{"id":"SpsGwq2D-ks","title":"مقرأة سورة القدر من أولها","publishedAt":"2019-07-30T09:33:35Z","duration":"PT11M26S","thumbnail":"https://i.ytimg.com/vi/SpsGwq2D-ks/mqdefault.jpg","viewCount":"677","playlistId":"PLEkQk5xrP-tnmTYsyW6xNdyfhPq0Bhrhj","playlistName":"مقرأة الفجر - القُرْآنُ الكَرِيمُ - خَتْمَةُ التَّدَبُّرِ  أ.د. يسري جبر","category":"متنوع"},{"id":"6ab8M6awrkk","title":"مقرأة سورة العلق من أولها","publishedAt":"2019-07-29T10:01:54Z","duration":"PT21M50S","thumbnail":"https://i.ytimg.com/vi/6ab8M6awrkk/mqdefault.jpg","viewCount":"1035","playlistId":"PLEkQk5xrP-tnmTYsyW6xNdyfhPq0Bhrhj","playlistName":"مقرأة الفجر - القُرْآنُ الكَرِيمُ - خَتْمَةُ التَّدَبُّرِ  أ.د. يسري جبر","category":"متنوع"},{"id":"SG9Dxhixqlg","title":"مقرأة سورة التين من أولها","publishedAt":"2019-07-28T11:28:41Z","duration":"PT14M38S","thumbnail":"https://i.ytimg.com/vi/SG9Dxhixqlg/mqdefault.jpg","viewCount":"724","playlistId":"PLEkQk5xrP-tnmTYsyW6xNdyfhPq0Bhrhj","playlistName":"مقرأة الفجر - القُرْآنُ الكَرِيمُ - خَتْمَةُ التَّدَبُّرِ  أ.د. يسري جبر","category":"متنوع"},{"id":"Srjp2NhG4LQ","title":"مقرأة سورة الشرح من أولها","publishedAt":"2019-07-25T10:46:57Z","duration":"PT20M22S","thumbnail":"https://i.ytimg.com/vi/Srjp2NhG4LQ/mqdefault.jpg","viewCount":"1433","playlistId":"PLEkQk5xrP-tnmTYsyW6xNdyfhPq0Bhrhj","playlistName":"مقرأة الفجر - القُرْآنُ الكَرِيمُ - خَتْمَةُ التَّدَبُّرِ  أ.د. يسري جبر","category":"متنوع"},{"id":"aEQsCHpYZ18","title":"مقرأة سورة الضحی من أولها","publishedAt":"2019-07-24T09:12:30Z","duration":"PT14M47S","thumbnail":"https://i.ytimg.com/vi/aEQsCHpYZ18/mqdefault.jpg","viewCount":"1119","playlistId":"PLEkQk5xrP-tnmTYsyW6xNdyfhPq0Bhrhj","playlistName":"مقرأة الفجر - القُرْآنُ الكَرِيمُ - خَتْمَةُ التَّدَبُّرِ  أ.د. يسري جبر","category":"متنوع"},{"id":"C3sdRTAxiJg","title":"مقرأة سورة يونس من آية ٢٢","publishedAt":"2017-05-11T12:36:17Z","duration":"PT14M6S","thumbnail":"https://i.ytimg.com/vi/C3sdRTAxiJg/mqdefault.jpg","viewCount":"347","playlistId":"PLEkQk5xrP-tnmTYsyW6xNdyfhPq0Bhrhj","playlistName":"مقرأة الفجر - القُرْآنُ الكَرِيمُ - خَتْمَةُ التَّدَبُّرِ  أ.د. يسري جبر","category":"متنوع"},{"id":"wrvGOGE6RUs","title":"مقرأة سورة يونس من آية ١٧","publishedAt":"2017-05-10T11:02:34Z","duration":"PT10M57S","thumbnail":"https://i.ytimg.com/vi/wrvGOGE6RUs/mqdefault.jpg","viewCount":"322","playlistId":"PLEkQk5xrP-tnmTYsyW6xNdyfhPq0Bhrhj","playlistName":"مقرأة الفجر - القُرْآنُ الكَرِيمُ - خَتْمَةُ التَّدَبُّرِ  أ.د. يسري جبر","category":"متنوع"},{"id":"ukRaBopcUCw","title":"مقرأة سورة يونس من آية ١١","publishedAt":"2017-05-09T06:05:59Z","duration":"PT31M55S","thumbnail":"https://i.ytimg.com/vi/ukRaBopcUCw/mqdefault.jpg","viewCount":"517","playlistId":"PLEkQk5xrP-tnmTYsyW6xNdyfhPq0Bhrhj","playlistName":"مقرأة الفجر - القُرْآنُ الكَرِيمُ - خَتْمَةُ التَّدَبُّرِ  أ.د. يسري جبر","category":"متنوع"},{"id":"IlAcE0Yr2iI","title":"مقرأة سورة الروم من آية ٥٢","publishedAt":"2018-06-27T10:48:36Z","duration":"PT27M41S","thumbnail":"https://i.ytimg.com/vi/IlAcE0Yr2iI/mqdefault.jpg","viewCount":"314","playlistId":"PLEkQk5xrP-tnmTYsyW6xNdyfhPq0Bhrhj","playlistName":"مقرأة الفجر - القُرْآنُ الكَرِيمُ - خَتْمَةُ التَّدَبُّرِ  أ.د. يسري جبر","category":"متنوع"},{"id":"fziLKGNb1_Q","title":"مقرأة سورة الروم من آية ٤٨","publishedAt":"2018-06-26T11:18:42Z","duration":"PT17M","thumbnail":"https://i.ytimg.com/vi/fziLKGNb1_Q/mqdefault.jpg","viewCount":"307","playlistId":"PLEkQk5xrP-tnmTYsyW6xNdyfhPq0Bhrhj","playlistName":"مقرأة الفجر - القُرْآنُ الكَرِيمُ - خَتْمَةُ التَّدَبُّرِ  أ.د. يسري جبر","category":"متنوع"},{"id":"xMe_l2e5z6U","title":"مقرأة سورة الروم من آية ٤٦","publishedAt":"2018-06-25T10:53:30Z","duration":"PT11M44S","thumbnail":"https://i.ytimg.com/vi/xMe_l2e5z6U/mqdefault.jpg","viewCount":"248","playlistId":"PLEkQk5xrP-tnmTYsyW6xNdyfhPq0Bhrhj","playlistName":"مقرأة الفجر - القُرْآنُ الكَرِيمُ - خَتْمَةُ التَّدَبُّرِ  أ.د. يسري جبر","category":"متنوع"},{"id":"05KjuCZDwPo","title":"مقرأة سورة طه من آية ١٧","publishedAt":"2017-11-24T13:01:59Z","duration":"PT12M30S","thumbnail":"https://i.ytimg.com/vi/05KjuCZDwPo/mqdefault.jpg","viewCount":"371","playlistId":"PLEkQk5xrP-tnmTYsyW6xNdyfhPq0Bhrhj","playlistName":"مقرأة الفجر - القُرْآنُ الكَرِيمُ - خَتْمَةُ التَّدَبُّرِ  أ.د. يسري جبر","category":"متنوع"},{"id":"hPQUWfbcQyM","title":"مقرأة سورة طه من آية ٩","publishedAt":"2017-11-21T19:11:45Z","duration":"PT17M55S","thumbnail":"https://i.ytimg.com/vi/hPQUWfbcQyM/mqdefault.jpg","viewCount":"467","playlistId":"PLEkQk5xrP-tnmTYsyW6xNdyfhPq0Bhrhj","playlistName":"مقرأة الفجر - القُرْآنُ الكَرِيمُ - خَتْمَةُ التَّدَبُّرِ  أ.د. يسري جبر","category":"متنوع"},{"id":"OH2ttoy9BvM","title":"مقرأة سورة طه من أولها","publishedAt":"2017-11-21T17:30:33Z","duration":"PT18M16S","thumbnail":"https://i.ytimg.com/vi/OH2ttoy9BvM/mqdefault.jpg","viewCount":"1285","playlistId":"PLEkQk5xrP-tnmTYsyW6xNdyfhPq0Bhrhj","playlistName":"مقرأة الفجر - القُرْآنُ الكَرِيمُ - خَتْمَةُ التَّدَبُّرِ  أ.د. يسري جبر","category":"متنوع"},{"id":"CEEvX9I312Q","title":"مقرأة سورة الذاريات من آية ١٥","publishedAt":"2019-02-04T11:21:08Z","duration":"PT10M35S","thumbnail":"https://i.ytimg.com/vi/CEEvX9I312Q/mqdefault.jpg","viewCount":"455","playlistId":"PLEkQk5xrP-tnmTYsyW6xNdyfhPq0Bhrhj","playlistName":"مقرأة الفجر - القُرْآنُ الكَرِيمُ - خَتْمَةُ التَّدَبُّرِ  أ.د. يسري جبر","category":"متنوع"},{"id":"lD42HbToNwY","title":"مقرأة سورة الذاريات من أولها","publishedAt":"2019-02-03T12:27:53Z","duration":"PT14M58S","thumbnail":"https://i.ytimg.com/vi/lD42HbToNwY/mqdefault.jpg","viewCount":"572","playlistId":"PLEkQk5xrP-tnmTYsyW6xNdyfhPq0Bhrhj","playlistName":"مقرأة الفجر - القُرْآنُ الكَرِيمُ - خَتْمَةُ التَّدَبُّرِ  أ.د. يسري جبر","category":"متنوع"}],"total":942,"page":30,"pageSize":24,"totalPages":40}