{"items":[{"id":"0Tj3gaZrc28","title":"شرح كتاب نوراليقين في سيرة سيد المرسلين - المجلس 35 ( سرية ) د.يسري جبر","publishedAt":"2017-12-30T19:11:05Z","duration":"PT47M","thumbnail":"https://i.ytimg.com/vi/0Tj3gaZrc28/mqdefault.jpg","viewCount":"13726","playlistId":"PLEkQk5xrP-tl2t4NQx1IhKnAJCMzF0Nli","playlistName":"شرح كتاب نور اليقين في سيرة سيد المرسلين   د. يسري جبر","category":"سيرة"},{"id":"mj4UYVvn8dA","title":"شرح كتاب نوراليقين في سيرة سيد المرسلين - المجلس 34 ( فرض الحج) د.يسري جبر","publishedAt":"2017-12-24T09:48:57Z","duration":"PT49M41S","thumbnail":"https://i.ytimg.com/vi/mj4UYVvn8dA/mqdefault.jpg","viewCount":"13723","playlistId":"PLEkQk5xrP-tl2t4NQx1IhKnAJCMzF0Nli","playlistName":"شرح كتاب نور اليقين في سيرة سيد المرسلين   د. يسري جبر","category":"سيرة"},{"id":"HSuJ9KHa4aM","title":"شرح كتاب نوراليقين في سيرة سيد المرسلين - المجلس 33 ( الحجاب ) د.يسري جبر","publishedAt":"2017-12-18T09:03:50Z","duration":"PT50M10S","thumbnail":"https://i.ytimg.com/vi/HSuJ9KHa4aM/mqdefault.jpg","viewCount":"14996","playlistId":"PLEkQk5xrP-tl2t4NQx1IhKnAJCMzF0Nli","playlistName":"شرح كتاب نور اليقين في سيرة سيد المرسلين   د. يسري جبر","category":"سيرة"},{"id":"Un8iNnd50jk","title":"شرح كتاب نوراليقين في سيرة سيد المرسلين - المجلس 32 ( تكملة غزوة بني قريظة ) د.يسري جبر","publishedAt":"2017-12-10T12:58:35Z","duration":"PT50M51S","thumbnail":"https://i.ytimg.com/vi/Un8iNnd50jk/mqdefault.jpg","viewCount":"14732","playlistId":"PLEkQk5xrP-tl2t4NQx1IhKnAJCMzF0Nli","playlistName":"شرح كتاب نور اليقين في سيرة سيد المرسلين   د. يسري جبر","category":"سيرة"},{"id":"vjuZHz7znUo","title":"شرح كتاب نوراليقين في سيرة سيد المرسلين - المجلس 31 ( تكملة غزوة الخندق ) د.يسري جبر","publishedAt":"2017-11-27T06:43:58Z","duration":"PT50M6S","thumbnail":"https://i.ytimg.com/vi/vjuZHz7znUo/mqdefault.jpg","viewCount":"15434","playlistId":"PLEkQk5xrP-tl2t4NQx1IhKnAJCMzF0Nli","playlistName":"شرح كتاب نور اليقين في سيرة سيد المرسلين   د. يسري جبر","category":"سيرة"},{"id":"9P0RCy9ds_w","title":"شرح كتاب نوراليقين في سيرة سيد المرسلين - المجلس الثلاثون ( غزوة الخندق ) د.يسري جبر","publishedAt":"2017-11-22T06:30:51Z","duration":"PT49M18S","thumbnail":"https://i.ytimg.com/vi/9P0RCy9ds_w/mqdefault.jpg","viewCount":"16966","playlistId":"PLEkQk5xrP-tl2t4NQx1IhKnAJCMzF0Nli","playlistName":"شرح كتاب نور اليقين في سيرة سيد المرسلين   د. يسري جبر","category":"سيرة"},{"id":"EVY6phJvXOw","title":"شرح كتاب نوراليقين في سيرة سيد المرسلين - المجلس التاسع والعشرون ( حديث الإفك ) د.يسري جبر","publishedAt":"2017-11-14T12:32:22Z","duration":"PT50M20S","thumbnail":"https://i.ytimg.com/vi/EVY6phJvXOw/mqdefault.jpg","viewCount":"14593","playlistId":"PLEkQk5xrP-tl2t4NQx1IhKnAJCMzF0Nli","playlistName":"شرح كتاب نور اليقين في سيرة سيد المرسلين   د. يسري جبر","category":"سيرة"},{"id":"Z45mk4FamSI","title":"شرح كتاب نوراليقين في سيرة سيد المرسلين - المجلس الثامن والعشرون ( غزوة بدر الآخرة ) د.يسري جبر","publishedAt":"2017-11-06T17:53:20Z","duration":"PT56M5S","thumbnail":"https://i.ytimg.com/vi/Z45mk4FamSI/mqdefault.jpg","viewCount":"16931","playlistId":"PLEkQk5xrP-tl2t4NQx1IhKnAJCMzF0Nli","playlistName":"شرح كتاب نور اليقين في سيرة سيد المرسلين   د. يسري جبر","category":"سيرة"},{"id":"nZmnqKhpPsE","title":"شرح كتاب نوراليقين في سيرة سيد المرسلين - المجلس السابع والعشرون ( سرية الرجيع ) د.يسري جبر","publishedAt":"2017-10-29T20:58:45Z","duration":"PT51M36S","thumbnail":"https://i.ytimg.com/vi/nZmnqKhpPsE/mqdefault.jpg","viewCount":"17036","playlistId":"PLEkQk5xrP-tl2t4NQx1IhKnAJCMzF0Nli","playlistName":"شرح كتاب نور اليقين في سيرة سيد المرسلين   د. يسري جبر","category":"سيرة"},{"id":"5pwRgp9NrdA","title":"شرح كتاب نوراليقين في سيرة سيد المرسلين - المجلس السادس والعشرون ( غزوة حمراء الأسد ) د.يسري جبر","publishedAt":"2017-10-24T20:23:18Z","duration":"PT46M11S","thumbnail":"https://i.ytimg.com/vi/5pwRgp9NrdA/mqdefault.jpg","viewCount":"16745","playlistId":"PLEkQk5xrP-tl2t4NQx1IhKnAJCMzF0Nli","playlistName":"شرح كتاب نور اليقين في سيرة سيد المرسلين   د. يسري جبر","category":"سيرة"},{"id":"rQUUpObEzno","title":"شرح كتاب نوراليقين في سيرة سيد المرسلين - المجلس الخامس والعشرون ( تكملة غزوة أحد ) د.يسري جبر","publishedAt":"2017-10-14T21:27:54Z","duration":"PT49M53S","thumbnail":"https://i.ytimg.com/vi/rQUUpObEzno/mqdefault.jpg","viewCount":"18032","playlistId":"PLEkQk5xrP-tl2t4NQx1IhKnAJCMzF0Nli","playlistName":"شرح كتاب نور اليقين في سيرة سيد المرسلين   د. يسري جبر","category":"سيرة"},{"id":"LIrqLXtHRJ4","title":"مجموعة الشمائل المحمدية - كتاب أسماء النبي صلى الله عليه وآله وسلم وكناه - المجلس الثاني","publishedAt":"2017-10-13T19:24:40Z","duration":"PT54M51S","thumbnail":"https://i.ytimg.com/vi/LIrqLXtHRJ4/mqdefault.jpg","viewCount":"897","playlistId":"PLEkQk5xrP-tloQiuCfhC2DE160-EZBhdz","playlistName":"مجموعة الشمائل المحمدية","category":"سيرة"},{"id":"p6OiFZ4PMFo","title":"شرح كتاب نوراليقين في سيرة سيد المرسلين - المجلس الرابع والعشرون ( غزوة السويق ) د.يسري جبر","publishedAt":"2017-10-07T22:22:12Z","duration":"PT50M14S","thumbnail":"https://i.ytimg.com/vi/p6OiFZ4PMFo/mqdefault.jpg","viewCount":"18947","playlistId":"PLEkQk5xrP-tl2t4NQx1IhKnAJCMzF0Nli","playlistName":"شرح كتاب نور اليقين في سيرة سيد المرسلين   د. يسري جبر","category":"سيرة"},{"id":"qE1vSdF9zEQ","title":"مجموعة الشمائل المحمدية - كتاب أسماء النبي صلى الله عليه وآله وسلم وكناه - المجلس الأول","publishedAt":"2017-10-07T10:29:27Z","duration":"PT36M32S","thumbnail":"https://i.ytimg.com/vi/qE1vSdF9zEQ/mqdefault.jpg","viewCount":"2254","playlistId":"PLEkQk5xrP-tloQiuCfhC2DE160-EZBhdz","playlistName":"مجموعة الشمائل المحمدية","category":"سيرة"},{"id":"aLhbS8MEvzA","title":"شرح كتاب نوراليقين في سيرة سيد المرسلين - المجلس الثالث والعشرون ( غزوة بدر الكبرى ) (3) د.يسري جبر","publishedAt":"2017-10-03T08:31:31Z","duration":"PT48M57S","thumbnail":"https://i.ytimg.com/vi/aLhbS8MEvzA/mqdefault.jpg","viewCount":"20335","playlistId":"PLEkQk5xrP-tl2t4NQx1IhKnAJCMzF0Nli","playlistName":"شرح كتاب نور اليقين في سيرة سيد المرسلين   د. يسري جبر","category":"سيرة"},{"id":"ff4j8YK-Ryw","title":"شرح كتاب نوراليقين في سيرة سيد المرسلين - المجلس الثاني والعشرون ( غزوة بدر الكبرى ) (2) د.يسري جبر","publishedAt":"2017-09-18T21:06:00Z","duration":"PT52M37S","thumbnail":"https://i.ytimg.com/vi/ff4j8YK-Ryw/mqdefault.jpg","viewCount":"21033","playlistId":"PLEkQk5xrP-tl2t4NQx1IhKnAJCMzF0Nli","playlistName":"شرح كتاب نور اليقين في سيرة سيد المرسلين   د. يسري جبر","category":"سيرة"},{"id":"0oem3UAm3n0","title":"شرح كتاب نوراليقين في سيرة سيد المرسلين - المجلس الواحد والعشرون ( غزوة بدر الكبرى ) د.يسري جبر","publishedAt":"2017-09-09T06:56:03Z","duration":"PT53M20S","thumbnail":"https://i.ytimg.com/vi/0oem3UAm3n0/mqdefault.jpg","viewCount":"23419","playlistId":"PLEkQk5xrP-tl2t4NQx1IhKnAJCMzF0Nli","playlistName":"شرح كتاب نور اليقين في سيرة سيد المرسلين   د. يسري جبر","category":"سيرة"},{"id":"SF9Mj2tfx6U","title":"شرح كتاب نوراليقين في سيرة سيد المرسلين - المجلس العشرون ( بدء القتال ) د.يسري جبر","publishedAt":"2017-08-28T21:16:39Z","duration":"PT1H3M12S","thumbnail":"https://i.ytimg.com/vi/SF9Mj2tfx6U/mqdefault.jpg","viewCount":"23468","playlistId":"PLEkQk5xrP-tl2t4NQx1IhKnAJCMzF0Nli","playlistName":"شرح كتاب نور اليقين في سيرة سيد المرسلين   د. يسري جبر","category":"سيرة"},{"id":"q1zQ1kPkxAA","title":"شرح كتاب نوراليقين في سيرة سيد المرسلين المجلس التاسع عشر ( معاهدة اليهود  ) د.يسري جبر","publishedAt":"2017-08-12T17:45:55Z","duration":"PT50M25S","thumbnail":"https://i.ytimg.com/vi/q1zQ1kPkxAA/mqdefault.jpg","viewCount":"23049","playlistId":"PLEkQk5xrP-tl2t4NQx1IhKnAJCMzF0Nli","playlistName":"شرح كتاب نور اليقين في سيرة سيد المرسلين   د. يسري جبر","category":"سيرة"},{"id":"AFyKaQ7rA-0","title":"شرح كتاب نوراليقين في سيرة سيد المرسلين المجلس الثامن عشر ( يهود المدينة ) د.يسري جبر","publishedAt":"2017-08-05T14:53:58Z","duration":"PT51M53S","thumbnail":"https://i.ytimg.com/vi/AFyKaQ7rA-0/mqdefault.jpg","viewCount":"22988","playlistId":"PLEkQk5xrP-tl2t4NQx1IhKnAJCMzF0Nli","playlistName":"شرح كتاب نور اليقين في سيرة سيد المرسلين   د. يسري جبر","category":"سيرة"},{"id":"cL8D6gAhMNs","title":"شرح كتاب نوراليقين في سيرة سيد المرسلين المجلس السابع عشر (السنة الأولى- بناء المسجد) د.يسري جبر","publishedAt":"2017-07-29T17:52:33Z","duration":"PT53M58S","thumbnail":"https://i.ytimg.com/vi/cL8D6gAhMNs/mqdefault.jpg","viewCount":"23450","playlistId":"PLEkQk5xrP-tl2t4NQx1IhKnAJCMzF0Nli","playlistName":"شرح كتاب نور اليقين في سيرة سيد المرسلين   د. يسري جبر","category":"سيرة"},{"id":"YilobH6thzs","title":"مقدمة شرح كتاب نور اليقين في سيرة سيد المرسلين ونسب النبي صلى الله عليه وآله وسلم د. يسري جبر","publishedAt":"2017-07-09T19:50:51Z","duration":"PT1H46S","thumbnail":"https://i.ytimg.com/vi/YilobH6thzs/mqdefault.jpg","viewCount":"43632","playlistId":"PLEkQk5xrP-tl2t4NQx1IhKnAJCMzF0Nli","playlistName":"شرح كتاب نور اليقين في سيرة سيد المرسلين   د. يسري جبر","category":"سيرة"},{"id":"GQlUmxMJx5U","title":"شرح كتاب نوراليقين في سيرة سيد المرسلين المجلس السادس عشر ( أول جمعة ) د.يسري جبر","publishedAt":"2017-06-28T03:35:08Z","duration":"PT38M48S","thumbnail":"https://i.ytimg.com/vi/GQlUmxMJx5U/mqdefault.jpg","viewCount":"21681","playlistId":"PLEkQk5xrP-tl2t4NQx1IhKnAJCMzF0Nli","playlistName":"شرح كتاب نور اليقين في سيرة سيد المرسلين   د. يسري جبر","category":"سيرة"},{"id":"LM2rBVIDIp0","title":"شرح كتاب نوراليقين في سيرة سيد المرسلين المجلس الخامس عشر ( النزول بقباء )  د.يسري جبر","publishedAt":"2017-06-17T15:54:53Z","duration":"PT40M34S","thumbnail":"https://i.ytimg.com/vi/LM2rBVIDIp0/mqdefault.jpg","viewCount":"24486","playlistId":"PLEkQk5xrP-tl2t4NQx1IhKnAJCMzF0Nli","playlistName":"شرح كتاب نور اليقين في سيرة سيد المرسلين   د. يسري جبر","category":"سيرة"}],"total":101,"page":3,"pageSize":24,"totalPages":5}