{"items":[{"id":"zJe0oIrj1xk","title":"المجاز الإفرادي وأقسامه","publishedAt":"2020-10-11T08:13:14Z","duration":"PT22M8S","thumbnail":"https://i.ytimg.com/vi/zJe0oIrj1xk/mqdefault.jpg","viewCount":"655","playlistId":"PLEkQk5xrP-tnW3iBL7HkKziOFCFZbTlf0","playlistName":"شرح البرهان في علوم القرآن - أ.د. يسري جبر","category":"تفسير"},{"id":"7mjUOsrsnXU","title":"تغليب الإسلام - شرح البرهان في علوم القرآن","publishedAt":"2021-11-06T20:58:53Z","duration":"PT30M30S","thumbnail":"https://i.ytimg.com/vi/7mjUOsrsnXU/mqdefault.jpg","viewCount":"655","playlistId":"PLEkQk5xrP-tnW3iBL7HkKziOFCFZbTlf0","playlistName":"شرح البرهان في علوم القرآن - أ.د. يسري جبر","category":"تفسير"},{"id":"wk61jD-2RY8","title":"539- حروف المعاني: حرف الجواب(إذًا) - شرح البرهان في علوم القرآن","publishedAt":"2022-07-13T05:00:20Z","duration":"PT28M10S","thumbnail":"https://i.ytimg.com/vi/wk61jD-2RY8/mqdefault.jpg","viewCount":"653","playlistId":"PLEkQk5xrP-tnW3iBL7HkKziOFCFZbTlf0","playlistName":"شرح البرهان في علوم القرآن - أ.د. يسري جبر","category":"تفسير"},{"id":"dE7p0KCLW7o","title":"وضعُ جَمْع القِلَّة موضع الكَثرة - شرح البرهان في علوم القرآن","publishedAt":"2021-12-11T07:10:36Z","duration":"PT24M49S","thumbnail":"https://i.ytimg.com/vi/dE7p0KCLW7o/mqdefault.jpg","viewCount":"653","playlistId":"PLEkQk5xrP-tnW3iBL7HkKziOFCFZbTlf0","playlistName":"شرح البرهان في علوم القرآن - أ.د. يسري جبر","category":"تفسير"},{"id":"CFjS1AtiWDU","title":"1- فوائد تتعلق بالصِّفة - الأول: الصّفة العامة لا تأتي بعد الصفة الخاصة - شرح البرهان في علوم القرآن","publishedAt":"2021-02-03T06:55:02Z","duration":"PT23M42S","thumbnail":"https://i.ytimg.com/vi/CFjS1AtiWDU/mqdefault.jpg","viewCount":"652","playlistId":"PLEkQk5xrP-tnW3iBL7HkKziOFCFZbTlf0","playlistName":"شرح البرهان في علوم القرآن - أ.د. يسري جبر","category":"تفسير"},{"id":"pHGhJjbTm-M","title":"484- قاعدةٌ في الضمائر وأسباب استعمالها - شرح البرهان في علوم القرآن","publishedAt":"2022-03-26T19:52:05Z","duration":"PT14M4S","thumbnail":"https://i.ytimg.com/vi/pHGhJjbTm-M/mqdefault.jpg","viewCount":"651","playlistId":"PLEkQk5xrP-tnW3iBL7HkKziOFCFZbTlf0","playlistName":"شرح البرهان في علوم القرآن - أ.د. يسري جبر","category":"تفسير"},{"id":"V5MBNI5Nock","title":"التشبيه - شرح البرهان في علوم القرآن","publishedAt":"2022-01-27T08:15:33Z","duration":"PT15M26S","thumbnail":"https://i.ytimg.com/vi/V5MBNI5Nock/mqdefault.jpg","viewCount":"648","playlistId":"PLEkQk5xrP-tnW3iBL7HkKziOFCFZbTlf0","playlistName":"شرح البرهان في علوم القرآن - أ.د. يسري جبر","category":"تفسير"},{"id":"WPul-cwfbIQ","title":"تَقْسِيمٌ مِن مقابلة اثْنَين باثْنَين - شرح البرهان في علوم القرآن","publishedAt":"2022-03-01T06:30:07Z","duration":"PT25M53S","thumbnail":"https://i.ytimg.com/vi/WPul-cwfbIQ/mqdefault.jpg","viewCount":"646","playlistId":"PLEkQk5xrP-tnW3iBL7HkKziOFCFZbTlf0","playlistName":"شرح البرهان في علوم القرآن - أ.د. يسري جبر","category":"تفسير"},{"id":"N-c-lp1KP3Q","title":"مُشَاكَلَةُ اللَّفْظِ لِلَّفْظِ - شرح البرهان في علوم القرآن","publishedAt":"2021-12-25T06:47:55Z","duration":"PT14M8S","thumbnail":"https://i.ytimg.com/vi/N-c-lp1KP3Q/mqdefault.jpg","viewCount":"644","playlistId":"PLEkQk5xrP-tnW3iBL7HkKziOFCFZbTlf0","playlistName":"شرح البرهان في علوم القرآن - أ.د. يسري جبر","category":"تفسير"},{"id":"hyRbi5dSFk0","title":"636- وَيْكَأَنَّ - ختام شرح كتاب البرهان في علوم القرآن","publishedAt":"2023-01-05T05:00:23Z","duration":"PT40M43S","thumbnail":"https://i.ytimg.com/vi/hyRbi5dSFk0/mqdefault.jpg","viewCount":"644","playlistId":"PLEkQk5xrP-tnW3iBL7HkKziOFCFZbTlf0","playlistName":"شرح البرهان في علوم القرآن - أ.د. يسري جبر","category":"تفسير"},{"id":"R3XYTt1oLHU","title":"وُجوه أنواع استفهام التقرير","publishedAt":"2020-11-21T08:39:33Z","duration":"PT17M53S","thumbnail":"https://i.ytimg.com/vi/R3XYTt1oLHU/mqdefault.jpg","viewCount":"643","playlistId":"PLEkQk5xrP-tnW3iBL7HkKziOFCFZbTlf0","playlistName":"شرح البرهان في علوم القرآن - أ.د. يسري جبر","category":"تفسير"},{"id":"PKBJbEfg3-Y","title":"إطلاق الأمر بالشيء للمتلبس به والمراد دوامه","publishedAt":"2020-10-30T06:04:01Z","duration":"PT16M44S","thumbnail":"https://i.ytimg.com/vi/PKBJbEfg3-Y/mqdefault.jpg","viewCount":"639","playlistId":"PLEkQk5xrP-tnW3iBL7HkKziOFCFZbTlf0","playlistName":"شرح البرهان في علوم القرآن - أ.د. يسري جبر","category":"تفسير"},{"id":"wrfCyekjfEc","title":"قواعدُ تتعلّقُ بالتشبيه (القاعدة الرابعة) شرح البرهان في علوم القرآن","publishedAt":"2022-02-05T06:46:01Z","duration":"PT16M10S","thumbnail":"https://i.ytimg.com/vi/wrfCyekjfEc/mqdefault.jpg","viewCount":"639","playlistId":"PLEkQk5xrP-tnW3iBL7HkKziOFCFZbTlf0","playlistName":"شرح البرهان في علوم القرآن - أ.د. يسري جبر","category":"تفسير"},{"id":"cdDSmW2rCZg","title":"515- عطفُ الاسمِ على الاسم - شرح البرهان في علوم القرآن","publishedAt":"2022-05-27T05:15:00Z","duration":"PT31M39S","thumbnail":"https://i.ytimg.com/vi/cdDSmW2rCZg/mqdefault.jpg","viewCount":"638","playlistId":"PLEkQk5xrP-tnW3iBL7HkKziOFCFZbTlf0","playlistName":"شرح البرهان في علوم القرآن - أ.د. يسري جبر","category":"تفسير"},{"id":"6GvRyf_MuNo","title":"الاستعارة - شرح البرهان في علوم القرآن","publishedAt":"2022-02-10T08:34:34Z","duration":"PT31M45S","thumbnail":"https://i.ytimg.com/vi/6GvRyf_MuNo/mqdefault.jpg","viewCount":"637","playlistId":"PLEkQk5xrP-tnW3iBL7HkKziOFCFZbTlf0","playlistName":"شرح البرهان في علوم القرآن - أ.د. يسري جبر","category":"تفسير"},{"id":"9FHOOlPhE8g","title":"شرح البرهان في علوم القرآن - النوع ٢٥ - علم مرسوم الخط","publishedAt":"2020-01-09T15:31:34Z","duration":"PT33M49S","thumbnail":"https://i.ytimg.com/vi/9FHOOlPhE8g/mqdefault.jpg","viewCount":"635","playlistId":"PLEkQk5xrP-tnW3iBL7HkKziOFCFZbTlf0","playlistName":"شرح البرهان في علوم القرآن - أ.د. يسري جبر","category":"تفسير"},{"id":"ap2M93t-bgo","title":"الكِنايات والتعريض في القرآن","publishedAt":"2020-11-01T05:52:29Z","duration":"PT20M44S","thumbnail":"https://i.ytimg.com/vi/ap2M93t-bgo/mqdefault.jpg","viewCount":"631","playlistId":"PLEkQk5xrP-tnW3iBL7HkKziOFCFZbTlf0","playlistName":"شرح البرهان في علوم القرآن - أ.د. يسري جبر","category":"تفسير"},{"id":"1qvBORU2Bb4","title":"قواعدُ تتعلّقُ بالتشبيه - شرح البرهان في علوم القرآن","publishedAt":"2022-02-03T07:37:25Z","duration":"PT15M2S","thumbnail":"https://i.ytimg.com/vi/1qvBORU2Bb4/mqdefault.jpg","viewCount":"629","playlistId":"PLEkQk5xrP-tnW3iBL7HkKziOFCFZbTlf0","playlistName":"شرح البرهان في علوم القرآن - أ.د. يسري جبر","category":"تفسير"},{"id":"uz918peQATg","title":"شرح البرهان في علوم القرآن - النوع ٥ - الفصل ٣ : ما جاء على ثلاثة أحرف","publishedAt":"2019-09-17T22:09:29Z","duration":"PT13M5S","thumbnail":"https://i.ytimg.com/vi/uz918peQATg/mqdefault.jpg","viewCount":"628","playlistId":"PLEkQk5xrP-tnW3iBL7HkKziOFCFZbTlf0","playlistName":"شرح البرهان في علوم القرآن - أ.د. يسري جبر","category":"تفسير"},{"id":"G2k7fylg2Ho","title":"التَّقْسِيم - شرح البرهان في علوم القرآن","publishedAt":"2022-03-04T06:46:15Z","duration":"PT38M42S","thumbnail":"https://i.ytimg.com/vi/G2k7fylg2Ho/mqdefault.jpg","viewCount":"627","playlistId":"PLEkQk5xrP-tnW3iBL7HkKziOFCFZbTlf0","playlistName":"شرح البرهان في علوم القرآن - أ.د. يسري جبر","category":"تفسير"},{"id":"LzIgvVP3ceU","title":"شرح البرهان في علوم القرآن - النوع ٩ - ذكر ما نزل من القرآن بمكة ثم ترتيبه","publishedAt":"2019-10-08T20:30:47Z","duration":"PT16M54S","thumbnail":"https://i.ytimg.com/vi/LzIgvVP3ceU/mqdefault.jpg","viewCount":"623","playlistId":"PLEkQk5xrP-tnW3iBL7HkKziOFCFZbTlf0","playlistName":"شرح البرهان في علوم القرآن - أ.د. يسري جبر","category":"تفسير"},{"id":"fyZwx_EWqTc","title":"مباحث في الاستعارة - شرح البرهان في علوم القرآن","publishedAt":"2022-02-12T07:42:56Z","duration":"PT18M59S","thumbnail":"https://i.ytimg.com/vi/fyZwx_EWqTc/mqdefault.jpg","viewCount":"619","playlistId":"PLEkQk5xrP-tnW3iBL7HkKziOFCFZbTlf0","playlistName":"شرح البرهان في علوم القرآن - أ.د. يسري جبر","category":"تفسير"},{"id":"wc-Qlz-1DIQ","title":"أقسام الاستعارة - شرح البرهان في علوم القرآن","publishedAt":"2022-02-14T19:35:35Z","duration":"PT13M40S","thumbnail":"https://i.ytimg.com/vi/wc-Qlz-1DIQ/mqdefault.jpg","viewCount":"618","playlistId":"PLEkQk5xrP-tnW3iBL7HkKziOFCFZbTlf0","playlistName":"شرح البرهان في علوم القرآن - أ.د. يسري جبر","category":"تفسير"},{"id":"I3AQ4jO8dJ4","title":"شرح البرهان في علوم القرآن - النوع ١٤ - معرفة تقسيمه بحسب سوره وترتيب السور والآيات وعددها","publishedAt":"2019-11-02T23:27:34Z","duration":"PT16M44S","thumbnail":"https://i.ytimg.com/vi/I3AQ4jO8dJ4/mqdefault.jpg","viewCount":"617","playlistId":"PLEkQk5xrP-tnW3iBL7HkKziOFCFZbTlf0","playlistName":"شرح البرهان في علوم القرآن - أ.د. يسري جبر","category":"تفسير"}],"total":631,"page":8,"pageSize":24,"totalPages":27}