{"items":[{"id":"enwGDNQCSmA","title":"الاختزال(5)حذف المضاف وإقامة المضاف إليه مقامه(أمثلة) شرح البرهان في علوم القرآن","publishedAt":"2021-07-02T07:01:31Z","duration":"PT21M12S","thumbnail":"https://i.ytimg.com/vi/enwGDNQCSmA/mqdefault.jpg","viewCount":"389","playlistId":"PLEkQk5xrP-tnW3iBL7HkKziOFCFZbTlf0","playlistName":"شرح البرهان في علوم القرآن - أ.د. يسري جبر","category":"تفسير"},{"id":"tVr3qzlagDI","title":"الاختزال (30) حذف الفعل (4)- شرح البرهان في علوم القرآن","publishedAt":"2021-08-14T07:05:09Z","duration":"PT12M1S","thumbnail":"https://i.ytimg.com/vi/tVr3qzlagDI/mqdefault.jpg","viewCount":"387","playlistId":"PLEkQk5xrP-tnW3iBL7HkKziOFCFZbTlf0","playlistName":"شرح البرهان في علوم القرآن - أ.د. يسري جبر","category":"تفسير"},{"id":"xb-H2RqI9j0","title":"شرح البرهان في علوم القرآن - النوع ٢٤ - الكلام على \"بلى\"","publishedAt":"2020-01-09T07:09:18Z","duration":"PT23M58S","thumbnail":"https://i.ytimg.com/vi/xb-H2RqI9j0/mqdefault.jpg","viewCount":"387","playlistId":"PLEkQk5xrP-tnW3iBL7HkKziOFCFZbTlf0","playlistName":"شرح البرهان في علوم القرآن - أ.د. يسري جبر","category":"تفسير"},{"id":"a_bHt1ugnoM","title":"585- حروف المعاني(46): الحرف (46)(الكاف) - شرح البرهان في علوم القرآن","publishedAt":"2022-11-02T05:00:02Z","duration":"PT19M27S","thumbnail":"https://i.ytimg.com/vi/a_bHt1ugnoM/mqdefault.jpg","viewCount":"387","playlistId":"PLEkQk5xrP-tnW3iBL7HkKziOFCFZbTlf0","playlistName":"شرح البرهان في علوم القرآن - أ.د. يسري جبر","category":"تفسير"},{"id":"i_MMK3iwz3o","title":"622- (ما) المصدرية  - شرح البرهان في علوم القرآن","publishedAt":"2022-12-18T05:00:22Z","duration":"PT19M58S","thumbnail":"https://i.ytimg.com/vi/i_MMK3iwz3o/mqdefault.jpg","viewCount":"384","playlistId":"PLEkQk5xrP-tnW3iBL7HkKziOFCFZbTlf0","playlistName":"شرح البرهان في علوم القرآن - أ.د. يسري جبر","category":"تفسير"},{"id":"gHPzP8-tifs","title":"القِسمُ (14) من التوكيد: فوائد التَّكرار: الفائدة السابعة - شرح البرهان في علوم القرآن","publishedAt":"2021-04-25T05:49:11Z","duration":"PT25M17S","thumbnail":"https://i.ytimg.com/vi/gHPzP8-tifs/mqdefault.jpg","viewCount":"384","playlistId":"PLEkQk5xrP-tnW3iBL7HkKziOFCFZbTlf0","playlistName":"شرح البرهان في علوم القرآن - أ.د. يسري جبر","category":"تفسير"},{"id":"kCI3vajfcUA","title":"شرح البرهان في علوم القرآن - النوع ٣٢ - فائدة في ضرورة معرفة المفسر قواعد أصول الفقه","publishedAt":"2020-02-18T06:00:04Z","duration":"PT31M59S","thumbnail":"https://i.ytimg.com/vi/kCI3vajfcUA/mqdefault.jpg","viewCount":"383","playlistId":"PLEkQk5xrP-tnW3iBL7HkKziOFCFZbTlf0","playlistName":"شرح البرهان في علوم القرآن - أ.د. يسري جبر","category":"تفسير"},{"id":"hOyCe--Syjc","title":"شرح البرهان في علوم القرآن - النوع ٢٥ - علم مرسوم الخط (الناقص وأقسامه : حذف الياء)","publishedAt":"2020-01-16T21:48:31Z","duration":"PT19M44S","thumbnail":"https://i.ytimg.com/vi/hOyCe--Syjc/mqdefault.jpg","viewCount":"383","playlistId":"PLEkQk5xrP-tnW3iBL7HkKziOFCFZbTlf0","playlistName":"شرح البرهان في علوم القرآن - أ.د. يسري جبر","category":"تفسير"},{"id":"6eVFQw3frnI","title":"مُشَاكَلَةُ اللَّفْظِ لِلْمَعْنَى (3) - شرح البرهان في علوم القرآن","publishedAt":"2021-12-31T07:02:38Z","duration":"PT14M","thumbnail":"https://i.ytimg.com/vi/6eVFQw3frnI/mqdefault.jpg","viewCount":"383","playlistId":"PLEkQk5xrP-tnW3iBL7HkKziOFCFZbTlf0","playlistName":"شرح البرهان في علوم القرآن - أ.د. يسري جبر","category":"تفسير"},{"id":"iv7DgxgG_sA","title":"الاختزال (22) حذف جواب الشرط (3) أمثلة - شرح البرهان في علوم القرآن","publishedAt":"2021-07-29T05:24:33Z","duration":"PT15M41S","thumbnail":"https://i.ytimg.com/vi/iv7DgxgG_sA/mqdefault.jpg","viewCount":"382","playlistId":"PLEkQk5xrP-tnW3iBL7HkKziOFCFZbTlf0","playlistName":"شرح البرهان في علوم القرآن - أ.د. يسري جبر","category":"تفسير"},{"id":"Bf5Lb6nPMBY","title":"567- حروف المعاني(28): الحرف(26) (بلى) تنبيهات","publishedAt":"2022-10-12T05:30:02Z","duration":"PT34M6S","thumbnail":"https://i.ytimg.com/vi/Bf5Lb6nPMBY/mqdefault.jpg","viewCount":"382","playlistId":"PLEkQk5xrP-tnW3iBL7HkKziOFCFZbTlf0","playlistName":"شرح البرهان في علوم القرآن - أ.د. يسري جبر","category":"تفسير"},{"id":"0iYDD98tujE","title":"القِسمُ العاشرُ من التوكيد: صِيَغُ المبالغة - شرح البرهان في علوم القرآن","publishedAt":"2021-04-04T06:00:33Z","duration":"PT23M44S","thumbnail":"https://i.ytimg.com/vi/0iYDD98tujE/mqdefault.jpg","viewCount":"382","playlistId":"PLEkQk5xrP-tnW3iBL7HkKziOFCFZbTlf0","playlistName":"شرح البرهان في علوم القرآن - أ.د. يسري جبر","category":"تفسير"},{"id":"R0fx5tHgDM0","title":"الاختزال (36) حذف الحرف (4) حذف ( لو ) - شرح البرهان في علوم القرآن","publishedAt":"2021-08-28T06:21:25Z","duration":"PT15M22S","thumbnail":"https://i.ytimg.com/vi/R0fx5tHgDM0/mqdefault.jpg","viewCount":"382","playlistId":"PLEkQk5xrP-tnW3iBL7HkKziOFCFZbTlf0","playlistName":"شرح البرهان في علوم القرآن - أ.د. يسري جبر","category":"تفسير"},{"id":"XGtCgytDwIM","title":"شرح البرهان في علوم القرآن - النوع ٣١ - معرفة الأمثال الكائنة فيه ٢","publishedAt":"2020-02-16T06:00:03Z","duration":"PT21M8S","thumbnail":"https://i.ytimg.com/vi/XGtCgytDwIM/mqdefault.jpg","viewCount":"381","playlistId":"PLEkQk5xrP-tnW3iBL7HkKziOFCFZbTlf0","playlistName":"شرح البرهان في علوم القرآن - أ.د. يسري جبر","category":"تفسير"},{"id":"Nq-xg-MA3Cc","title":"شرح البرهان في علوم القرآن - النوع ٣٧ - في حكم الآيات المتشابهات الواردة في الصفات","publishedAt":"2020-03-12T06:30:00Z","duration":"PT31M28S","thumbnail":"https://i.ytimg.com/vi/Nq-xg-MA3Cc/mqdefault.jpg","viewCount":"381","playlistId":"PLEkQk5xrP-tnW3iBL7HkKziOFCFZbTlf0","playlistName":"شرح البرهان في علوم القرآن - أ.د. يسري جبر","category":"تفسير"},{"id":"MY6_tqTho3o","title":"626- حرف (مِن) لبيان الجنس - شرح البرهان في علوم القرآن","publishedAt":"2022-12-23T05:00:09Z","duration":"PT18M37S","thumbnail":"https://i.ytimg.com/vi/MY6_tqTho3o/mqdefault.jpg","viewCount":"381","playlistId":"PLEkQk5xrP-tnW3iBL7HkKziOFCFZbTlf0","playlistName":"شرح البرهان في علوم القرآن - أ.د. يسري جبر","category":"تفسير"},{"id":"mnUM_yvqkZY","title":"شرح البرهان في علوم القرآن - النوع ٣٢ - فائدة","publishedAt":"2020-02-20T06:00:06Z","duration":"PT22M46S","thumbnail":"https://i.ytimg.com/vi/mnUM_yvqkZY/mqdefault.jpg","viewCount":"380","playlistId":"PLEkQk5xrP-tnW3iBL7HkKziOFCFZbTlf0","playlistName":"شرح البرهان في علوم القرآن - أ.د. يسري جبر","category":"تفسير"},{"id":"LcNzTtoXedI","title":"شرح البرهان في علوم القرآن - النوع ٣٢ - قاعدة في العموم والخصوص","publishedAt":"2020-02-21T06:00:04Z","duration":"PT8M31S","thumbnail":"https://i.ytimg.com/vi/LcNzTtoXedI/mqdefault.jpg","viewCount":"379","playlistId":"PLEkQk5xrP-tnW3iBL7HkKziOFCFZbTlf0","playlistName":"شرح البرهان في علوم القرآن - أ.د. يسري جبر","category":"تفسير"},{"id":"IWq_HOd0wLg","title":"القِسمُ (21) من التوكيد: المبالغة (فائدة) - شرح البرهان في علوم القرآن","publishedAt":"2021-05-16T19:21:28Z","duration":"PT18M35S","thumbnail":"https://i.ytimg.com/vi/IWq_HOd0wLg/mqdefault.jpg","viewCount":"379","playlistId":"PLEkQk5xrP-tnW3iBL7HkKziOFCFZbTlf0","playlistName":"شرح البرهان في علوم القرآن - أ.د. يسري جبر","category":"تفسير"},{"id":"lcoLDF2RbvI","title":"580- حروف المعاني(41): تكملة حرف (الفاء)","publishedAt":"2022-10-27T05:15:03Z","duration":"PT17M6S","thumbnail":"https://i.ytimg.com/vi/lcoLDF2RbvI/mqdefault.jpg","viewCount":"379","playlistId":"PLEkQk5xrP-tnW3iBL7HkKziOFCFZbTlf0","playlistName":"شرح البرهان في علوم القرآن - أ.د. يسري جبر","category":"تفسير"},{"id":"szWdTubAXao","title":"التنقُّل - تكملة أنواع التقديم والتأخير(16) - شرح البرهان في علوم القرآن -","publishedAt":"2021-10-12T19:44:48Z","duration":"PT14M27S","thumbnail":"https://i.ytimg.com/vi/szWdTubAXao/mqdefault.jpg","viewCount":"378","playlistId":"PLEkQk5xrP-tnW3iBL7HkKziOFCFZbTlf0","playlistName":"شرح البرهان في علوم القرآن - أ.د. يسري جبر","category":"تفسير"},{"id":"zmKl9wPiN5s","title":"630- حرف (النون) - شرح البرهان في علوم القرآن","publishedAt":"2022-12-27T05:00:31Z","duration":"PT18M2S","thumbnail":"https://i.ytimg.com/vi/zmKl9wPiN5s/mqdefault.jpg","viewCount":"378","playlistId":"PLEkQk5xrP-tnW3iBL7HkKziOFCFZbTlf0","playlistName":"شرح البرهان في علوم القرآن - أ.د. يسري جبر","category":"تفسير"},{"id":"8h28pHR2-YM","title":"590- المفردة (كل):تأتي: لأفراد التذكير، ومعناه بحسب ما يُضاف إليه - شرح البرهان في علوم القرآن","publishedAt":"2022-11-08T05:00:03Z","duration":"PT13M2S","thumbnail":"https://i.ytimg.com/vi/8h28pHR2-YM/mqdefault.jpg","viewCount":"378","playlistId":"PLEkQk5xrP-tnW3iBL7HkKziOFCFZbTlf0","playlistName":"شرح البرهان في علوم القرآن - أ.د. يسري جبر","category":"تفسير"},{"id":"lG8rudSOuRE","title":"الشَّرْط: القاعدة الخامسة: ومن أدوات الشرط (إن)","publishedAt":"2020-12-08T07:38:29Z","duration":"PT19M30S","thumbnail":"https://i.ytimg.com/vi/lG8rudSOuRE/mqdefault.jpg","viewCount":"376","playlistId":"PLEkQk5xrP-tnW3iBL7HkKziOFCFZbTlf0","playlistName":"شرح البرهان في علوم القرآن - أ.د. يسري جبر","category":"تفسير"}],"total":631,"page":20,"pageSize":24,"totalPages":27}