{"items":[{"id":"ubhG5fOLXR0","title":"634- الواو العاملة وغير العاملة - شرح البرهان في علوم القرآن","publishedAt":"2023-01-03T05:00:19Z","duration":"PT35M30S","thumbnail":"https://i.ytimg.com/vi/ubhG5fOLXR0/mqdefault.jpg","viewCount":"400","playlistId":"PLEkQk5xrP-tnW3iBL7HkKziOFCFZbTlf0","playlistName":"شرح البرهان في علوم القرآن - أ.د. يسري جبر","category":"تفسير"},{"id":"wKKrhGqeItE","title":"الاختزال (26) حذف القول - شرح البرهان في علوم القرآن","publishedAt":"2021-08-06T05:32:22Z","duration":"PT11M47S","thumbnail":"https://i.ytimg.com/vi/wKKrhGqeItE/mqdefault.jpg","viewCount":"399","playlistId":"PLEkQk5xrP-tnW3iBL7HkKziOFCFZbTlf0","playlistName":"شرح البرهان في علوم القرآن - أ.د. يسري جبر","category":"تفسير"},{"id":"mDqfzE2yHNw","title":"الأسلوب الثاني\"الحذف\"(4) أدلة الحذف -  شرح البرهان في علوم القرآن","publishedAt":"2021-06-14T05:52:24Z","duration":"PT30M13S","thumbnail":"https://i.ytimg.com/vi/mDqfzE2yHNw/mqdefault.jpg","viewCount":"399","playlistId":"PLEkQk5xrP-tnW3iBL7HkKziOFCFZbTlf0","playlistName":"شرح البرهان في علوم القرآن - أ.د. يسري جبر","category":"تفسير"},{"id":"Eu8cVrHAv84","title":"633- حرف (الواو) - شرح البرهان في علوم القرآن","publishedAt":"2023-01-01T05:00:06Z","duration":"PT16M48S","thumbnail":"https://i.ytimg.com/vi/Eu8cVrHAv84/mqdefault.jpg","viewCount":"398","playlistId":"PLEkQk5xrP-tnW3iBL7HkKziOFCFZbTlf0","playlistName":"شرح البرهان في علوم القرآن - أ.د. يسري جبر","category":"تفسير"},{"id":"Y_gKA57MQHg","title":"شرح البرهان في علوم القرآن - النوع ٣٢ - معرفة أحكامه","publishedAt":"2020-02-17T06:00:06Z","duration":"PT32M56S","thumbnail":"https://i.ytimg.com/vi/Y_gKA57MQHg/mqdefault.jpg","viewCount":"397","playlistId":"PLEkQk5xrP-tnW3iBL7HkKziOFCFZbTlf0","playlistName":"شرح البرهان في علوم القرآن - أ.د. يسري جبر","category":"تفسير"},{"id":"VSdKdAwUgDw","title":"شرح البرهان في علوم القرآن - النوع ٢٧ - معرفة خواصه","publishedAt":"2020-01-28T12:03:47Z","duration":"PT26M6S","thumbnail":"https://i.ytimg.com/vi/VSdKdAwUgDw/mqdefault.jpg","viewCount":"397","playlistId":"PLEkQk5xrP-tnW3iBL7HkKziOFCFZbTlf0","playlistName":"شرح البرهان في علوم القرآن - أ.د. يسري جبر","category":"تفسير"},{"id":"Ao84imTVcP8","title":"الأسلوب الثاني: الحذف(6)\"أقسام الحذف\" شرح البرهان في علوم القرآن","publishedAt":"2021-06-18T06:29:36Z","duration":"PT23M53S","thumbnail":"https://i.ytimg.com/vi/Ao84imTVcP8/mqdefault.jpg","viewCount":"397","playlistId":"PLEkQk5xrP-tnW3iBL7HkKziOFCFZbTlf0","playlistName":"شرح البرهان في علوم القرآن - أ.د. يسري جبر","category":"تفسير"},{"id":"N97dGVBGmic","title":"شرح البرهان في علوم القرآن - النوع ٢٥ - علم مرسوم الخط (الزائد وأقسامه ٣)","publishedAt":"2020-01-14T11:35:08Z","duration":"PT16M54S","thumbnail":"https://i.ytimg.com/vi/N97dGVBGmic/mqdefault.jpg","viewCount":"396","playlistId":"PLEkQk5xrP-tnW3iBL7HkKziOFCFZbTlf0","playlistName":"شرح البرهان في علوم القرآن - أ.د. يسري جبر","category":"تفسير"},{"id":"7Ud8CZZILIk","title":"الاختزال (23) حذف جواب الشرط (4) أمثلة - شرح البرهان في علوم القرآن","publishedAt":"2021-07-31T05:07:30Z","duration":"PT16M39S","thumbnail":"https://i.ytimg.com/vi/7Ud8CZZILIk/mqdefault.jpg","viewCount":"396","playlistId":"PLEkQk5xrP-tnW3iBL7HkKziOFCFZbTlf0","playlistName":"شرح البرهان في علوم القرآن - أ.د. يسري جبر","category":"تفسير"},{"id":"1T3Pzf-tfTc","title":"الأسلوب الثاني: الحذف(9)\"أقسام الحذف\" النوع السابع - شرح البرهان في علوم القرآن","publishedAt":"2021-06-24T06:04:28Z","duration":"PT43M5S","thumbnail":"https://i.ytimg.com/vi/1T3Pzf-tfTc/mqdefault.jpg","viewCount":"395","playlistId":"PLEkQk5xrP-tnW3iBL7HkKziOFCFZbTlf0","playlistName":"شرح البرهان في علوم القرآن - أ.د. يسري جبر","category":"تفسير"},{"id":"Z9LKzeFY8RU","title":"632 - حرف (هل - هيهات) - شرح البرهان في علوم القرآن","publishedAt":"2022-12-29T05:00:13Z","duration":"PT22M53S","thumbnail":"https://i.ytimg.com/vi/Z9LKzeFY8RU/mqdefault.jpg","viewCount":"395","playlistId":"PLEkQk5xrP-tnW3iBL7HkKziOFCFZbTlf0","playlistName":"شرح البرهان في علوم القرآن - أ.د. يسري جبر","category":"تفسير"},{"id":"IYCnaPkPI14","title":"الأسلوب الثاني:الحذف(11) أقسام الحذف: النوع الثامن:الاختزال(2)حذف الخبر - شرح البرهان في علوم القرآن","publishedAt":"2021-06-28T06:30:10Z","duration":"PT29M17S","thumbnail":"https://i.ytimg.com/vi/IYCnaPkPI14/mqdefault.jpg","viewCount":"394","playlistId":"PLEkQk5xrP-tnW3iBL7HkKziOFCFZbTlf0","playlistName":"شرح البرهان في علوم القرآن - أ.د. يسري جبر","category":"تفسير"},{"id":"PiIlkrXU_IM","title":"598- وظائف (اللام) العاملة: تؤثر في حركة إعراب ما بعدها إمَّا (بالنصب أو الجر أو الجزم).","publishedAt":"2022-11-18T05:00:23Z","duration":"PT21M43S","thumbnail":"https://i.ytimg.com/vi/PiIlkrXU_IM/mqdefault.jpg","viewCount":"394","playlistId":"PLEkQk5xrP-tnW3iBL7HkKziOFCFZbTlf0","playlistName":"شرح البرهان في علوم القرآن - أ.د. يسري جبر","category":"تفسير"},{"id":"MlS4ZzSjCI4","title":"الأسلوب الثاني\"الحذف\"(3) أدلة الحذف -  شرح البرهان في علوم القرآن","publishedAt":"2021-06-12T05:53:14Z","duration":"PT23M45S","thumbnail":"https://i.ytimg.com/vi/MlS4ZzSjCI4/mqdefault.jpg","viewCount":"393","playlistId":"PLEkQk5xrP-tnW3iBL7HkKziOFCFZbTlf0","playlistName":"شرح البرهان في علوم القرآن - أ.د. يسري جبر","category":"تفسير"},{"id":"q_YJ7u0p7RU","title":"شرح البرهان في علوم القرآن - النوع ٣٦ - تفريعات ٢","publishedAt":"2020-03-11T09:15:00Z","duration":"PT22M54S","thumbnail":"https://i.ytimg.com/vi/q_YJ7u0p7RU/mqdefault.jpg","viewCount":"392","playlistId":"PLEkQk5xrP-tnW3iBL7HkKziOFCFZbTlf0","playlistName":"شرح البرهان في علوم القرآن - أ.د. يسري جبر","category":"تفسير"},{"id":"Vmj5pQxCo10","title":"شرح البرهان في علوم القرآن - النوع ٢٥ - علم مرسوم الخط (الزائد وأقسامه)","publishedAt":"2020-01-13T08:37:11Z","duration":"PT17M3S","thumbnail":"https://i.ytimg.com/vi/Vmj5pQxCo10/mqdefault.jpg","viewCount":"392","playlistId":"PLEkQk5xrP-tnW3iBL7HkKziOFCFZbTlf0","playlistName":"شرح البرهان في علوم القرآن - أ.د. يسري جبر","category":"تفسير"},{"id":"NuPqmeTmyZs","title":"618- معنى (ما) - شرح البرهان في علوم القرآن","publishedAt":"2022-12-11T05:00:09Z","duration":"PT37M19S","thumbnail":"https://i.ytimg.com/vi/NuPqmeTmyZs/mqdefault.jpg","viewCount":"391","playlistId":"PLEkQk5xrP-tnW3iBL7HkKziOFCFZbTlf0","playlistName":"شرح البرهان في علوم القرآن - أ.د. يسري جبر","category":"تفسير"},{"id":"a7IjONRMArw","title":"588- حروف المعاني(49): المُفردة (52)(كل)","publishedAt":"2022-11-06T05:00:00Z","duration":"PT12M35S","thumbnail":"https://i.ytimg.com/vi/a7IjONRMArw/mqdefault.jpg","viewCount":"390","playlistId":"PLEkQk5xrP-tnW3iBL7HkKziOFCFZbTlf0","playlistName":"شرح البرهان في علوم القرآن - أ.د. يسري جبر","category":"تفسير"},{"id":"BM1xm5u_7-Q","title":"شرح البرهان في علوم القرآن - النوع ٣٦ - تفريعات","publishedAt":"2020-03-10T06:00:00Z","duration":"PT26M22S","thumbnail":"https://i.ytimg.com/vi/BM1xm5u_7-Q/mqdefault.jpg","viewCount":"389","playlistId":"PLEkQk5xrP-tnW3iBL7HkKziOFCFZbTlf0","playlistName":"شرح البرهان في علوم القرآن - أ.د. يسري جبر","category":"تفسير"},{"id":"LyQ69vIpyD4","title":"شرح البرهان في علوم القرآن - النوع ٣٥ - فصل في القول عند تعارض آي القرآن والآثار","publishedAt":"2020-03-03T06:00:02Z","duration":"PT19M10S","thumbnail":"https://i.ytimg.com/vi/LyQ69vIpyD4/mqdefault.jpg","viewCount":"389","playlistId":"PLEkQk5xrP-tnW3iBL7HkKziOFCFZbTlf0","playlistName":"شرح البرهان في علوم القرآن - أ.د. يسري جبر","category":"تفسير"},{"id":"hNJjriptGnY","title":"شرح البرهان في علوم القرآن - النوع ٢٢ - معرفة اختلاف الألفاظ بزيادة أو نقص أو تغيير ٦","publishedAt":"2019-12-28T08:15:19Z","duration":"PT14M14S","thumbnail":"https://i.ytimg.com/vi/hNJjriptGnY/mqdefault.jpg","viewCount":"389","playlistId":"PLEkQk5xrP-tnW3iBL7HkKziOFCFZbTlf0","playlistName":"شرح البرهان في علوم القرآن - أ.د. يسري جبر","category":"تفسير"},{"id":"enwGDNQCSmA","title":"الاختزال(5)حذف المضاف وإقامة المضاف إليه مقامه(أمثلة) شرح البرهان في علوم القرآن","publishedAt":"2021-07-02T07:01:31Z","duration":"PT21M12S","thumbnail":"https://i.ytimg.com/vi/enwGDNQCSmA/mqdefault.jpg","viewCount":"389","playlistId":"PLEkQk5xrP-tnW3iBL7HkKziOFCFZbTlf0","playlistName":"شرح البرهان في علوم القرآن - أ.د. يسري جبر","category":"تفسير"},{"id":"xcbaEBW8Dxk","title":"القِسمُ (14) من التوكيد: فوائد التَّكرار: الفائدة الثالثة - شرح البرهان في علوم القرآن","publishedAt":"2021-04-21T05:50:01Z","duration":"PT21M39S","thumbnail":"https://i.ytimg.com/vi/xcbaEBW8Dxk/mqdefault.jpg","viewCount":"389","playlistId":"PLEkQk5xrP-tnW3iBL7HkKziOFCFZbTlf0","playlistName":"شرح البرهان في علوم القرآن - أ.د. يسري جبر","category":"تفسير"},{"id":"YAqgsMOgs5o","title":"606-  حرف (لو) - شرح البرهان في علوم القرآن","publishedAt":"2022-11-29T05:05:00Z","duration":"PT30M11S","thumbnail":"https://i.ytimg.com/vi/YAqgsMOgs5o/mqdefault.jpg","viewCount":"389","playlistId":"PLEkQk5xrP-tnW3iBL7HkKziOFCFZbTlf0","playlistName":"شرح البرهان في علوم القرآن - أ.د. يسري جبر","category":"تفسير"}],"total":631,"page":19,"pageSize":24,"totalPages":27}