{"items":[{"id":"PjjUJ6Csbew","title":"شرح البرهان في علوم القرآن - النوع ٣٨ - بيان الأقوال المختلفة في وجوه الإعجاز ٥","publishedAt":"2020-03-22T08:30:02Z","duration":"PT11M33S","thumbnail":"https://i.ytimg.com/vi/PjjUJ6Csbew/mqdefault.jpg","viewCount":"317","playlistId":"PLEkQk5xrP-tnW3iBL7HkKziOFCFZbTlf0","playlistName":"شرح البرهان في علوم القرآن - أ.د. يسري جبر","category":"تفسير"},{"id":"nHUn5AwLvCk","title":"584- الحرف (45)(قَدْ) يستخدم في التقليل - شرح البرهان في علوم القرآن","publishedAt":"2022-11-01T05:00:20Z","duration":"PT11M34S","thumbnail":"https://i.ytimg.com/vi/nHUn5AwLvCk/mqdefault.jpg","viewCount":"317","playlistId":"PLEkQk5xrP-tnW3iBL7HkKziOFCFZbTlf0","playlistName":"شرح البرهان في علوم القرآن - أ.د. يسري جبر","category":"تفسير"},{"id":"2d00-DdFUs4","title":"الاختزال (34) حذف الحرف (2) حرف الواو - شرح البرهان في علوم القرآن","publishedAt":"2021-08-24T05:28:39Z","duration":"PT15M9S","thumbnail":"https://i.ytimg.com/vi/2d00-DdFUs4/mqdefault.jpg","viewCount":"315","playlistId":"PLEkQk5xrP-tnW3iBL7HkKziOFCFZbTlf0","playlistName":"شرح البرهان في علوم القرآن - أ.د. يسري جبر","category":"تفسير"},{"id":"VUlH7Dqm9pk","title":"الاختزال (11) الغرض من حذف المفعول (2) - شرح البرهان في علوم القرآن","publishedAt":"2021-07-07T22:08:28Z","duration":"PT15M11S","thumbnail":"https://i.ytimg.com/vi/VUlH7Dqm9pk/mqdefault.jpg","viewCount":"314","playlistId":"PLEkQk5xrP-tnW3iBL7HkKziOFCFZbTlf0","playlistName":"شرح البرهان في علوم القرآن - أ.د. يسري جبر","category":"تفسير"},{"id":"Hu9HFH-rtPU","title":"شرح البرهان في علوم القرآن - النوع ٢٩ - مسألة في استحباب الجهر بالقراءة","publishedAt":"2020-02-07T06:00:02Z","duration":"PT22M49S","thumbnail":"https://i.ytimg.com/vi/Hu9HFH-rtPU/mqdefault.jpg","viewCount":"314","playlistId":"PLEkQk5xrP-tnW3iBL7HkKziOFCFZbTlf0","playlistName":"شرح البرهان في علوم القرآن - أ.د. يسري جبر","category":"تفسير"},{"id":"Vh0liiEid5w","title":"شرح البرهان في علوم القرآن - النوع ٣٢ - فصل","publishedAt":"2020-02-19T06:00:07Z","duration":"PT32M20S","thumbnail":"https://i.ytimg.com/vi/Vh0liiEid5w/mqdefault.jpg","viewCount":"313","playlistId":"PLEkQk5xrP-tnW3iBL7HkKziOFCFZbTlf0","playlistName":"شرح البرهان في علوم القرآن - أ.د. يسري جبر","category":"تفسير"},{"id":"iCZiHyv2XFY","title":"شرح البرهان في علوم القرآن - النوع ٣٤ - التنبيه الثاني في ضروب النسخ في القرآن","publishedAt":"2020-02-27T06:00:11Z","duration":"PT16M55S","thumbnail":"https://i.ytimg.com/vi/iCZiHyv2XFY/mqdefault.jpg","viewCount":"312","playlistId":"PLEkQk5xrP-tnW3iBL7HkKziOFCFZbTlf0","playlistName":"شرح البرهان في علوم القرآن - أ.د. يسري جبر","category":"تفسير"},{"id":"k8-FJVaoYWQ","title":"شرح البرهان في علوم القرآن - النوع ٢٩ - فصل في ختم القرأن","publishedAt":"2020-02-10T06:00:06Z","duration":"PT17M46S","thumbnail":"https://i.ytimg.com/vi/k8-FJVaoYWQ/mqdefault.jpg","viewCount":"311","playlistId":"PLEkQk5xrP-tnW3iBL7HkKziOFCFZbTlf0","playlistName":"شرح البرهان في علوم القرآن - أ.د. يسري جبر","category":"تفسير"},{"id":"fexKlLJd5Hs","title":"603- (لا) الزائدة - شرح البرهان في علوم القرآن","publishedAt":"2022-11-25T05:00:16Z","duration":"PT24M45S","thumbnail":"https://i.ytimg.com/vi/fexKlLJd5Hs/mqdefault.jpg","viewCount":"310","playlistId":"PLEkQk5xrP-tnW3iBL7HkKziOFCFZbTlf0","playlistName":"شرح البرهان في علوم القرآن - أ.د. يسري جبر","category":"تفسير"},{"id":"aKj_DJDZWgc","title":"الاختزال (10) حذف المفعول - شرح البرهان في علوم القرآن","publishedAt":"2021-07-07T05:27:07Z","duration":"PT7M24S","thumbnail":"https://i.ytimg.com/vi/aKj_DJDZWgc/mqdefault.jpg","viewCount":"309","playlistId":"PLEkQk5xrP-tnW3iBL7HkKziOFCFZbTlf0","playlistName":"شرح البرهان في علوم القرآن - أ.د. يسري جبر","category":"تفسير"},{"id":"ThnrgkOPgRs","title":"شرح البرهان في علوم القرآن - النوع ٢٥ - علم مرسوم الخط (فصل في الفصل والوصل)","publishedAt":"2020-01-21T07:02:01Z","duration":"PT26M35S","thumbnail":"https://i.ytimg.com/vi/ThnrgkOPgRs/mqdefault.jpg","viewCount":"309","playlistId":"PLEkQk5xrP-tnW3iBL7HkKziOFCFZbTlf0","playlistName":"شرح البرهان في علوم القرآن - أ.د. يسري جبر","category":"تفسير"},{"id":"q6SLdv55ilQ","title":"شرح البرهان في علوم القرآن - النوع ٢٥ - علم مرسوم الخط (الناقص وأقسامه : حذف الألف)","publishedAt":"2020-01-15T09:59:04Z","duration":"PT21M29S","thumbnail":"https://i.ytimg.com/vi/q6SLdv55ilQ/mqdefault.jpg","viewCount":"309","playlistId":"PLEkQk5xrP-tnW3iBL7HkKziOFCFZbTlf0","playlistName":"شرح البرهان في علوم القرآن - أ.د. يسري جبر","category":"تفسير"},{"id":"q6I2Aw7Z8uA","title":"شرح البرهان في علوم القرآن - النوع ٣٩ - فصل","publishedAt":"2020-03-30T07:00:24Z","duration":"PT11M22S","thumbnail":"https://i.ytimg.com/vi/q6I2Aw7Z8uA/mqdefault.jpg","viewCount":"308","playlistId":"PLEkQk5xrP-tnW3iBL7HkKziOFCFZbTlf0","playlistName":"شرح البرهان في علوم القرآن - أ.د. يسري جبر","category":"تفسير"},{"id":"JuRfuHW5y3U","title":"شرح البرهان في علوم القرآن - النوع ٢٥ - علم مرسوم الخط (فصل فيما كتبت الألف فيه واوا...)","publishedAt":"2020-01-18T22:10:27Z","duration":"PT13M35S","thumbnail":"https://i.ytimg.com/vi/JuRfuHW5y3U/mqdefault.jpg","viewCount":"308","playlistId":"PLEkQk5xrP-tnW3iBL7HkKziOFCFZbTlf0","playlistName":"شرح البرهان في علوم القرآن - أ.د. يسري جبر","category":"تفسير"},{"id":"_z_aY7e6WnQ","title":"شرح البرهان في علوم القرآن - النوع ٣٨ - فصل في قدر المعجز من القرآن","publishedAt":"2020-03-23T07:00:08Z","duration":"PT17M21S","thumbnail":"https://i.ytimg.com/vi/_z_aY7e6WnQ/mqdefault.jpg","viewCount":"306","playlistId":"PLEkQk5xrP-tnW3iBL7HkKziOFCFZbTlf0","playlistName":"شرح البرهان في علوم القرآن - أ.د. يسري جبر","category":"تفسير"},{"id":"8JxPxc_NBDw","title":"القِسمُ التاسع من التوكيد: وضع الظاهر موضع المُضْمَر (6) شرح البرهان في علوم القرآن","publishedAt":"2021-03-31T18:10:55Z","duration":"PT30M59S","thumbnail":"https://i.ytimg.com/vi/8JxPxc_NBDw/mqdefault.jpg","viewCount":"305","playlistId":"PLEkQk5xrP-tnW3iBL7HkKziOFCFZbTlf0","playlistName":"شرح البرهان في علوم القرآن - أ.د. يسري جبر","category":"تفسير"},{"id":"TH17_FIfZY4","title":"الأسلوب الثاني الحذف(12)أقسام الحذف: الثامن:الاختزال(3)حذف الفاعل - شرح البرهان في علوم القرآن","publishedAt":"2021-06-30T07:59:17Z","duration":"PT17M41S","thumbnail":"https://i.ytimg.com/vi/TH17_FIfZY4/mqdefault.jpg","viewCount":"304","playlistId":"PLEkQk5xrP-tnW3iBL7HkKziOFCFZbTlf0","playlistName":"شرح البرهان في علوم القرآن - أ.د. يسري جبر","category":"تفسير"},{"id":"OJbk4Ilq8VM","title":"شرح البرهان في علوم القرآن - النوع ٤٠ - في بيان معاضدة السنة للقرآن","publishedAt":"2020-03-31T07:30:04Z","duration":"PT21M17S","thumbnail":"https://i.ytimg.com/vi/OJbk4Ilq8VM/mqdefault.jpg","viewCount":"303","playlistId":"PLEkQk5xrP-tnW3iBL7HkKziOFCFZbTlf0","playlistName":"شرح البرهان في علوم القرآن - أ.د. يسري جبر","category":"تفسير"},{"id":"ph5lWotLVYU","title":"583- حروف المعاني(44): الحرف (45) (قَدْ) - شرح البرهان في علوم القرآن","publishedAt":"2022-10-31T05:00:32Z","duration":"PT24M18S","thumbnail":"https://i.ytimg.com/vi/ph5lWotLVYU/mqdefault.jpg","viewCount":"303","playlistId":"PLEkQk5xrP-tnW3iBL7HkKziOFCFZbTlf0","playlistName":"شرح البرهان في علوم القرآن - أ.د. يسري جبر","category":"تفسير"},{"id":"TXIWLRJuHh0","title":"610- (لو) المصدرية - شرح البرهان في علوم القرآن","publishedAt":"2022-12-03T05:00:09Z","duration":"PT14M25S","thumbnail":"https://i.ytimg.com/vi/TXIWLRJuHh0/mqdefault.jpg","viewCount":"301","playlistId":"PLEkQk5xrP-tnW3iBL7HkKziOFCFZbTlf0","playlistName":"شرح البرهان في علوم القرآن - أ.د. يسري جبر","category":"تفسير"},{"id":"eIUWawgnsRA","title":"القِسمُ (26) من التوكيد: الزيادة (3) حروف الزيادة - شرح البرهان في علوم القرآن","publishedAt":"2021-05-24T06:57:08Z","duration":"PT13M36S","thumbnail":"https://i.ytimg.com/vi/eIUWawgnsRA/mqdefault.jpg","viewCount":"294","playlistId":"PLEkQk5xrP-tnW3iBL7HkKziOFCFZbTlf0","playlistName":"شرح البرهان في علوم القرآن - أ.د. يسري جبر","category":"تفسير"},{"id":"x3rdlLsbJ7I","title":"القِسمُ (15) من التوكيد: الزيادة في بنية الكلمة - شرح البرهان في علوم القرآن","publishedAt":"2021-05-02T05:05:38Z","duration":"PT10M31S","thumbnail":"https://i.ytimg.com/vi/x3rdlLsbJ7I/mqdefault.jpg","viewCount":"292","playlistId":"PLEkQk5xrP-tnW3iBL7HkKziOFCFZbTlf0","playlistName":"شرح البرهان في علوم القرآن - أ.د. يسري جبر","category":"تفسير"},{"id":"-w8PGQdje-Q","title":"القِسمُ (16) من التوكيد: التفسير - شرح البرهان في علوم القرآن","publishedAt":"2021-05-05T06:12:47Z","duration":"PT18M14S","thumbnail":"https://i.ytimg.com/vi/-w8PGQdje-Q/mqdefault.jpg","viewCount":"289","playlistId":"PLEkQk5xrP-tnW3iBL7HkKziOFCFZbTlf0","playlistName":"شرح البرهان في علوم القرآن - أ.د. يسري جبر","category":"تفسير"},{"id":"2o1ufN21RNY","title":"شرح البرهان في علوم القرآن - النوع ٣٠ - في أنه هل يجوز في التصانيف والرسائل والخطب استعمال...","publishedAt":"2020-02-14T06:00:00Z","duration":"PT23M58S","thumbnail":"https://i.ytimg.com/vi/2o1ufN21RNY/mqdefault.jpg","viewCount":"283","playlistId":"PLEkQk5xrP-tnW3iBL7HkKziOFCFZbTlf0","playlistName":"شرح البرهان في علوم القرآن - أ.د. يسري جبر","category":"تفسير"}],"total":631,"page":25,"pageSize":24,"totalPages":27}