{"items":[{"id":"tVRFnz_Ys5Y","title":"خطاب الجمع بلفظ الواحد","publishedAt":"2020-09-29T06:41:46Z","duration":"PT28M4S","thumbnail":"https://i.ytimg.com/vi/tVRFnz_Ys5Y/mqdefault.jpg","viewCount":"702","playlistId":"PLEkQk5xrP-tnW3iBL7HkKziOFCFZbTlf0","playlistName":"شرح البرهان في علوم القرآن - أ.د. يسري جبر","category":"تفسير"},{"id":"40NVO7BucX4","title":"شرح البرهان في علوم القرآن - النوع ٥ - الفصل ٢ : ما جاء على حرفين","publishedAt":"2019-09-16T21:58:30Z","duration":"PT13M31S","thumbnail":"https://i.ytimg.com/vi/40NVO7BucX4/mqdefault.jpg","viewCount":"698","playlistId":"PLEkQk5xrP-tnW3iBL7HkKziOFCFZbTlf0","playlistName":"شرح البرهان في علوم القرآن - أ.د. يسري جبر","category":"تفسير"},{"id":"FAD5QhKCoas","title":"المُقَابَلَة - شرح البرهان في علوم القرآن","publishedAt":"2022-02-25T20:18:42Z","duration":"PT12M59S","thumbnail":"https://i.ytimg.com/vi/FAD5QhKCoas/mqdefault.jpg","viewCount":"693","playlistId":"PLEkQk5xrP-tnW3iBL7HkKziOFCFZbTlf0","playlistName":"شرح البرهان في علوم القرآن - أ.د. يسري جبر","category":"تفسير"},{"id":"-3uKNiTQYZk","title":"(هاء) التنبيه - من أدوات التأكيد\"مؤكِّدات الجُمَل الإسميَّة\" شرح البرهان في علوم القرآن","publishedAt":"2021-01-26T08:18:03Z","duration":"PT18M14S","thumbnail":"https://i.ytimg.com/vi/-3uKNiTQYZk/mqdefault.jpg","viewCount":"690","playlistId":"PLEkQk5xrP-tnW3iBL7HkKziOFCFZbTlf0","playlistName":"شرح البرهان في علوم القرآن - أ.د. يسري جبر","category":"تفسير"},{"id":"LQA5nD65uOA","title":"تكملة الأسلوب العشرين - فَتُصْبِحُ الْأَرْضُ مُخْضَرَّةً ۗ - شرح البرهان في علوم القرآن","publishedAt":"2021-12-24T07:11:51Z","duration":"PT22M41S","thumbnail":"https://i.ytimg.com/vi/LQA5nD65uOA/mqdefault.jpg","viewCount":"686","playlistId":"PLEkQk5xrP-tnW3iBL7HkKziOFCFZbTlf0","playlistName":"شرح البرهان في علوم القرآن - أ.د. يسري جبر","category":"تفسير"},{"id":"0vMX5T_VLKo","title":"تكملة أنواع التقديم والتأخير (10) - شرح البرهان في علوم القرآن","publishedAt":"2021-09-30T10:40:31Z","duration":"PT35M8S","thumbnail":"https://i.ytimg.com/vi/0vMX5T_VLKo/mqdefault.jpg","viewCount":"686","playlistId":"PLEkQk5xrP-tnW3iBL7HkKziOFCFZbTlf0","playlistName":"شرح البرهان في علوم القرآن - أ.د. يسري جبر","category":"تفسير"},{"id":"rZB5Kr0rtGw","title":"شرح البرهان في علوم القرآن - النوع ١٤ - تنبيه : ترتيب وضع السور في المصحف","publishedAt":"2019-11-13T14:45:14Z","duration":"PT13M12S","thumbnail":"https://i.ytimg.com/vi/rZB5Kr0rtGw/mqdefault.jpg","viewCount":"685","playlistId":"PLEkQk5xrP-tnW3iBL7HkKziOFCFZbTlf0","playlistName":"شرح البرهان في علوم القرآن - أ.د. يسري جبر","category":"تفسير"},{"id":"_QF2cMnYOjM","title":"شرح البرهان في علوم القرآن - النوع ٢٩ - مسألة في حكم من يشرب شيئا كتب من القرآن","publishedAt":"2020-02-12T06:00:06Z","duration":"PT25M5S","thumbnail":"https://i.ytimg.com/vi/_QF2cMnYOjM/mqdefault.jpg","viewCount":"681","playlistId":"PLEkQk5xrP-tnW3iBL7HkKziOFCFZbTlf0","playlistName":"شرح البرهان في علوم القرآن - أ.د. يسري جبر","category":"تفسير"},{"id":"ga_FuqR4s-c","title":"وضعُ الطلب موضع الخبر  - شرح البرهان في علوم القرآن","publishedAt":"2021-12-09T06:02:30Z","duration":"PT28M6S","thumbnail":"https://i.ytimg.com/vi/ga_FuqR4s-c/mqdefault.jpg","viewCount":"681","playlistId":"PLEkQk5xrP-tnW3iBL7HkKziOFCFZbTlf0","playlistName":"شرح البرهان في علوم القرآن - أ.د. يسري جبر","category":"تفسير"},{"id":"TXswahghWeQ","title":"التضمين: تنبيهات - شرح البرهان في علوم القرآن","publishedAt":"2021-12-06T06:34:51Z","duration":"PT35M16S","thumbnail":"https://i.ytimg.com/vi/TXswahghWeQ/mqdefault.jpg","viewCount":"680","playlistId":"PLEkQk5xrP-tnW3iBL7HkKziOFCFZbTlf0","playlistName":"شرح البرهان في علوم القرآن - أ.د. يسري جبر","category":"تفسير"},{"id":"ZHoSjp5cLrc","title":"فصلٌ في الإجمال ظاهرا وأسبابه","publishedAt":"2020-09-16T07:55:35Z","duration":"PT32M23S","thumbnail":"https://i.ytimg.com/vi/ZHoSjp5cLrc/mqdefault.jpg","viewCount":"677","playlistId":"PLEkQk5xrP-tnW3iBL7HkKziOFCFZbTlf0","playlistName":"شرح البرهان في علوم القرآن - أ.د. يسري جبر","category":"تفسير"},{"id":"hmvKJrAbz4M","title":"حَذْفُ المُشَبَّه - شرح البرهان في علوم القرآن","publishedAt":"2022-02-09T06:41:14Z","duration":"PT20M4S","thumbnail":"https://i.ytimg.com/vi/hmvKJrAbz4M/mqdefault.jpg","viewCount":"677","playlistId":"PLEkQk5xrP-tnW3iBL7HkKziOFCFZbTlf0","playlistName":"شرح البرهان في علوم القرآن - أ.د. يسري جبر","category":"تفسير"},{"id":"CtTnSgLK-iY","title":"أسباب التقديم والتأخير - شرح البرهان في علوم القرآن","publishedAt":"2021-09-12T05:43:44Z","duration":"PT20M10S","thumbnail":"https://i.ytimg.com/vi/CtTnSgLK-iY/mqdefault.jpg","viewCount":"676","playlistId":"PLEkQk5xrP-tnW3iBL7HkKziOFCFZbTlf0","playlistName":"شرح البرهان في علوم القرآن - أ.د. يسري جبر","category":"تفسير"},{"id":"-o145U3wbKA","title":"536- حروف المعاني: حرف الهمزة - شرح البرهان في علوم القرآن","publishedAt":"2022-07-05T05:31:00Z","duration":"PT13M19S","thumbnail":"https://i.ytimg.com/vi/-o145U3wbKA/mqdefault.jpg","viewCount":"675","playlistId":"PLEkQk5xrP-tnW3iBL7HkKziOFCFZbTlf0","playlistName":"شرح البرهان في علوم القرآن - أ.د. يسري جبر","category":"تفسير"},{"id":"gfiASBjXw28","title":"491- قاعدة: إِذَا عَطَفَ بِـ: (أَوْ) وَجَبَ إِفْرَادُ الضَّمِيرِ - شرح البرهان في علوم القرآن","publishedAt":"2022-04-10T06:00:16Z","duration":"PT14M23S","thumbnail":"https://i.ytimg.com/vi/gfiASBjXw28/mqdefault.jpg","viewCount":"675","playlistId":"PLEkQk5xrP-tnW3iBL7HkKziOFCFZbTlf0","playlistName":"شرح البرهان في علوم القرآن - أ.د. يسري جبر","category":"تفسير"},{"id":"0iyuK9Wog4E","title":"أسلوب التقديم والتأخير - شرح البرهان في علوم القرآن","publishedAt":"2021-09-10T06:06:06Z","duration":"PT12M22S","thumbnail":"https://i.ytimg.com/vi/0iyuK9Wog4E/mqdefault.jpg","viewCount":"673","playlistId":"PLEkQk5xrP-tnW3iBL7HkKziOFCFZbTlf0","playlistName":"شرح البرهان في علوم القرآن - أ.د. يسري جبر","category":"تفسير"},{"id":"cxACcwSGwvU","title":"الاستعارة قِسْمٌ من أقسام المجاز - شرح البرهان في علوم القرآن","publishedAt":"2022-02-13T08:51:20Z","duration":"PT31M29S","thumbnail":"https://i.ytimg.com/vi/cxACcwSGwvU/mqdefault.jpg","viewCount":"671","playlistId":"PLEkQk5xrP-tnW3iBL7HkKziOFCFZbTlf0","playlistName":"شرح البرهان في علوم القرآن - أ.د. يسري جبر","category":"تفسير"},{"id":"HUk5RSTNxu0","title":"502-قاعدة في قوله تعالى: فَمَنْ أَظْلَمُ مِمَّنِ افْتَرَىٰ عَلَى اللَّهِ كَذِبًا","publishedAt":"2022-05-01T05:00:04Z","duration":"PT23M13S","thumbnail":"https://i.ytimg.com/vi/HUk5RSTNxu0/mqdefault.jpg","viewCount":"671","playlistId":"PLEkQk5xrP-tnW3iBL7HkKziOFCFZbTlf0","playlistName":"شرح البرهان في علوم القرآن - أ.د. يسري جبر","category":"تفسير"},{"id":"Kml7DpxTrB4","title":"شرح البرهان في علوم القرآن - النوع ٧ - فی أسرار الفواتح والسور - الاستفتاح بحروف التهجي ـ فصل","publishedAt":"2019-10-01T23:17:49Z","duration":"PT16M","thumbnail":"https://i.ytimg.com/vi/Kml7DpxTrB4/mqdefault.jpg","viewCount":"667","playlistId":"PLEkQk5xrP-tnW3iBL7HkKziOFCFZbTlf0","playlistName":"شرح البرهان في علوم القرآن - أ.د. يسري جبر","category":"تفسير"},{"id":"pW3YgO-K6Uk","title":"النَّفْي","publishedAt":"2020-12-25T06:57:12Z","duration":"PT14M13S","thumbnail":"https://i.ytimg.com/vi/pW3YgO-K6Uk/mqdefault.jpg","viewCount":"667","playlistId":"PLEkQk5xrP-tnW3iBL7HkKziOFCFZbTlf0","playlistName":"شرح البرهان في علوم القرآن - أ.د. يسري جبر","category":"تفسير"},{"id":"x5PmvLeKSP4","title":"شرح البرهان في علوم القرآن - النوع ١١ - القول في القراءات السبع","publishedAt":"2019-10-20T14:58:02Z","duration":"PT20M26S","thumbnail":"https://i.ytimg.com/vi/x5PmvLeKSP4/mqdefault.jpg","viewCount":"666","playlistId":"PLEkQk5xrP-tnW3iBL7HkKziOFCFZbTlf0","playlistName":"شرح البرهان في علوم القرآن - أ.د. يسري جبر","category":"تفسير"},{"id":"O9Ek_gfQtj0","title":"أنواع التقديم والتأخير - شرح البرهان في علوم القرآن","publishedAt":"2021-09-14T05:44:01Z","duration":"PT16M5S","thumbnail":"https://i.ytimg.com/vi/O9Ek_gfQtj0/mqdefault.jpg","viewCount":"664","playlistId":"PLEkQk5xrP-tnW3iBL7HkKziOFCFZbTlf0","playlistName":"شرح البرهان في علوم القرآن - أ.د. يسري جبر","category":"تفسير"},{"id":"i_QRnrFIIIk","title":"السَّبْق بالرتبة - تكملة أنواع التقديم والتأخير (8) - شرح البرهان في علوم القرآن","publishedAt":"2021-09-25T06:02:09Z","duration":"PT26M40S","thumbnail":"https://i.ytimg.com/vi/i_QRnrFIIIk/mqdefault.jpg","viewCount":"664","playlistId":"PLEkQk5xrP-tnW3iBL7HkKziOFCFZbTlf0","playlistName":"شرح البرهان في علوم القرآن - أ.د. يسري جبر","category":"تفسير"},{"id":"A3IfUUVLSjs","title":"498- ذِكْرُ الرَّحْمَةِ والعَذَابِ في القُرآن - شرح البرهان في علوم القرآن","publishedAt":"2022-04-24T05:00:06Z","duration":"PT26M24S","thumbnail":"https://i.ytimg.com/vi/A3IfUUVLSjs/mqdefault.jpg","viewCount":"657","playlistId":"PLEkQk5xrP-tnW3iBL7HkKziOFCFZbTlf0","playlistName":"شرح البرهان في علوم القرآن - أ.د. يسري جبر","category":"تفسير"}],"total":631,"page":7,"pageSize":24,"totalPages":27}