{"items":[{"id":"TmE2iwchEkc","title":"شرح البرهان في علوم القرآن - النوع ٢٨ - فصل في أي آية في القرآن أرجى","publishedAt":"2020-02-02T06:00:04Z","duration":"PT16M52S","thumbnail":"https://i.ytimg.com/vi/TmE2iwchEkc/mqdefault.jpg","viewCount":"417","playlistId":"PLEkQk5xrP-tnW3iBL7HkKziOFCFZbTlf0","playlistName":"شرح البرهان في علوم القرآن - أ.د. يسري جبر","category":"تفسير"},{"id":"X3SOlVBEbWk","title":"الشَّرْط: القاعدة الرابعة جواب الشرط أصله الفعل المستقبل","publishedAt":"2020-12-04T07:28:28Z","duration":"PT5M2S","thumbnail":"https://i.ytimg.com/vi/X3SOlVBEbWk/mqdefault.jpg","viewCount":"417","playlistId":"PLEkQk5xrP-tnW3iBL7HkKziOFCFZbTlf0","playlistName":"شرح البرهان في علوم القرآن - أ.د. يسري جبر","category":"تفسير"},{"id":"U3mRjAGfc1I","title":"النوع الثالث: ما قُدّم في آية وأُخّر في أخرى تكملة أنواع التقديم والتأخير(21) البرهان في علوم القرآن","publishedAt":"2021-10-20T10:25:27Z","duration":"PT26M59S","thumbnail":"https://i.ytimg.com/vi/U3mRjAGfc1I/mqdefault.jpg","viewCount":"415","playlistId":"PLEkQk5xrP-tnW3iBL7HkKziOFCFZbTlf0","playlistName":"شرح البرهان في علوم القرآن - أ.د. يسري جبر","category":"تفسير"},{"id":"ouUmL-Dxhp8","title":"620- معنى(ما): تَعجُّبِيَّة - نكرة بمعنى شيء - نكرة بغير صِفةٍ ولا صِلة - شرح البرهان في علوم القرآن","publishedAt":"2022-12-16T05:00:32Z","duration":"PT21M56S","thumbnail":"https://i.ytimg.com/vi/ouUmL-Dxhp8/mqdefault.jpg","viewCount":"415","playlistId":"PLEkQk5xrP-tnW3iBL7HkKziOFCFZbTlf0","playlistName":"شرح البرهان في علوم القرآن - أ.د. يسري جبر","category":"تفسير"},{"id":"Sv9zjKD-KsI","title":"شرح البرهان في علوم القرآن - النوع ٢٣ - معرفة توجيه القراءات وتبيين وجه ما ذهب إليه كل قارئ","publishedAt":"2020-01-01T09:07:23Z","duration":"PT28M10S","thumbnail":"https://i.ytimg.com/vi/Sv9zjKD-KsI/mqdefault.jpg","viewCount":"414","playlistId":"PLEkQk5xrP-tnW3iBL7HkKziOFCFZbTlf0","playlistName":"شرح البرهان في علوم القرآن - أ.د. يسري جبر","category":"تفسير"},{"id":"bxY_3XaRCyk","title":"شرح البرهان في علوم القرآن - النوع ٣١ - معرفة الأمثال الكائنة فيه","publishedAt":"2020-02-15T06:00:06Z","duration":"PT29M48S","thumbnail":"https://i.ytimg.com/vi/bxY_3XaRCyk/mqdefault.jpg","viewCount":"414","playlistId":"PLEkQk5xrP-tnW3iBL7HkKziOFCFZbTlf0","playlistName":"شرح البرهان في علوم القرآن - أ.د. يسري جبر","category":"تفسير"},{"id":"-j1DCef2Cgs","title":"شرح البرهان في علوم القرآن - النوع ٢٤ - معرفة الوقف والابتداء ٤","publishedAt":"2020-01-04T22:16:09Z","duration":"PT23M17S","thumbnail":"https://i.ytimg.com/vi/-j1DCef2Cgs/mqdefault.jpg","viewCount":"413","playlistId":"PLEkQk5xrP-tnW3iBL7HkKziOFCFZbTlf0","playlistName":"شرح البرهان في علوم القرآن - أ.د. يسري جبر","category":"تفسير"},{"id":"PN9SE60UBTE","title":"شرح البرهان في علوم القرآن - النوع ٣٤ - معرفة ناسخه من منسوخه","publishedAt":"2020-02-25T06:00:08Z","duration":"PT26M38S","thumbnail":"https://i.ytimg.com/vi/PN9SE60UBTE/mqdefault.jpg","viewCount":"412","playlistId":"PLEkQk5xrP-tnW3iBL7HkKziOFCFZbTlf0","playlistName":"شرح البرهان في علوم القرآن - أ.د. يسري جبر","category":"تفسير"},{"id":"TJmxjw8rW60","title":"الاختزال (18) حذف المنادَى - شرح البرهان في علوم القرآن","publishedAt":"2021-07-21T04:13:16Z","duration":"PT19M57S","thumbnail":"https://i.ytimg.com/vi/TJmxjw8rW60/mqdefault.jpg","viewCount":"411","playlistId":"PLEkQk5xrP-tnW3iBL7HkKziOFCFZbTlf0","playlistName":"شرح البرهان في علوم القرآن - أ.د. يسري جبر","category":"تفسير"},{"id":"Gs0JJw9LwLA","title":"الأسلوب الثاني: الحذف(5)\"بعض التنبيهات\" شرح البرهان في علوم القرآن","publishedAt":"2021-06-16T06:07:10Z","duration":"PT15M25S","thumbnail":"https://i.ytimg.com/vi/Gs0JJw9LwLA/mqdefault.jpg","viewCount":"409","playlistId":"PLEkQk5xrP-tnW3iBL7HkKziOFCFZbTlf0","playlistName":"شرح البرهان في علوم القرآن - أ.د. يسري جبر","category":"تفسير"},{"id":"Vjt35CJ2Njc","title":"القِسمُ الرابع من التوكيد: عطف البيان - شرح البرهان في علوم القرآن","publishedAt":"2021-03-11T07:35:13Z","duration":"PT22M14S","thumbnail":"https://i.ytimg.com/vi/Vjt35CJ2Njc/mqdefault.jpg","viewCount":"408","playlistId":"PLEkQk5xrP-tnW3iBL7HkKziOFCFZbTlf0","playlistName":"شرح البرهان في علوم القرآن - أ.د. يسري جبر","category":"تفسير"},{"id":"SXFI1bYjcdk","title":"تقسيم البدل(3) - شرح البرهان في علوم القرآن","publishedAt":"2021-03-09T07:18:49Z","duration":"PT28M14S","thumbnail":"https://i.ytimg.com/vi/SXFI1bYjcdk/mqdefault.jpg","viewCount":"407","playlistId":"PLEkQk5xrP-tnW3iBL7HkKziOFCFZbTlf0","playlistName":"شرح البرهان في علوم القرآن - أ.د. يسري جبر","category":"تفسير"},{"id":"Gb1xEY7_ooc","title":"614- حرف (لَمَا) - شرح البرهان في علوم القرآن","publishedAt":"2022-12-07T05:00:05Z","duration":"PT19M52S","thumbnail":"https://i.ytimg.com/vi/Gb1xEY7_ooc/mqdefault.jpg","viewCount":"407","playlistId":"PLEkQk5xrP-tnW3iBL7HkKziOFCFZbTlf0","playlistName":"شرح البرهان في علوم القرآن - أ.د. يسري جبر","category":"تفسير"},{"id":"YcO4842ejw0","title":"شرح البرهان في علوم القرآن - النوع ٢٩ - مسألة في أحكام تتعلق باحترام المصحف وتبجيله","publishedAt":"2020-02-13T06:00:06Z","duration":"PT27M10S","thumbnail":"https://i.ytimg.com/vi/YcO4842ejw0/mqdefault.jpg","viewCount":"406","playlistId":"PLEkQk5xrP-tnW3iBL7HkKziOFCFZbTlf0","playlistName":"شرح البرهان في علوم القرآن - أ.د. يسري جبر","category":"تفسير"},{"id":"vytCYGy7nHM","title":"القِسمُ (28) من التوكيد: التعليل (3) \"أن والفعل المستقبل بعدها\" شرح البرهان في علوم القرآن","publishedAt":"2021-06-05T07:47:38Z","duration":"PT30M12S","thumbnail":"https://i.ytimg.com/vi/vytCYGy7nHM/mqdefault.jpg","viewCount":"406","playlistId":"PLEkQk5xrP-tnW3iBL7HkKziOFCFZbTlf0","playlistName":"شرح البرهان في علوم القرآن - أ.د. يسري جبر","category":"تفسير"},{"id":"LnORgwmHjHs","title":"النوع الثاني مما قُدِّم ورتبته التأخير(٢)تكملة أنواع التقديم والتأخير(20)شرح البرهان في علوم القرآن","publishedAt":"2021-10-19T03:30:31Z","duration":"PT25M40S","thumbnail":"https://i.ytimg.com/vi/LnORgwmHjHs/mqdefault.jpg","viewCount":"404","playlistId":"PLEkQk5xrP-tnW3iBL7HkKziOFCFZbTlf0","playlistName":"شرح البرهان في علوم القرآن - أ.د. يسري جبر","category":"تفسير"},{"id":"zEbnArMtcB8","title":"الشَّرْط: القاعدة الخامسة: أدوات الشرط","publishedAt":"2020-12-06T06:52:45Z","duration":"PT13M1S","thumbnail":"https://i.ytimg.com/vi/zEbnArMtcB8/mqdefault.jpg","viewCount":"404","playlistId":"PLEkQk5xrP-tnW3iBL7HkKziOFCFZbTlf0","playlistName":"شرح البرهان في علوم القرآن - أ.د. يسري جبر","category":"تفسير"},{"id":"mfjob1pny-4","title":"الاختزال (33) حذف الحرف - شرح البرهان في علوم القرآن","publishedAt":"2021-08-21T06:21:05Z","duration":"PT22M37S","thumbnail":"https://i.ytimg.com/vi/mfjob1pny-4/mqdefault.jpg","viewCount":"404","playlistId":"PLEkQk5xrP-tnW3iBL7HkKziOFCFZbTlf0","playlistName":"شرح البرهان في علوم القرآن - أ.د. يسري جبر","category":"تفسير"},{"id":"1PPF33WRDto","title":"608- (لو) الامتناعية؛ وفيها عِدة مسائل - شرح البرهان في علوم القران","publishedAt":"2022-12-01T05:00:00Z","duration":"PT18M54S","thumbnail":"https://i.ytimg.com/vi/1PPF33WRDto/mqdefault.jpg","viewCount":"404","playlistId":"PLEkQk5xrP-tnW3iBL7HkKziOFCFZbTlf0","playlistName":"شرح البرهان في علوم القرآن - أ.د. يسري جبر","category":"تفسير"},{"id":"BWBrooI3GEU","title":"600- اللام الجازمة: لام (الأمر أو الطلب) شرح البرهان في علوم القرآن","publishedAt":"2022-11-21T05:00:09Z","duration":"PT18M15S","thumbnail":"https://i.ytimg.com/vi/BWBrooI3GEU/mqdefault.jpg","viewCount":"404","playlistId":"PLEkQk5xrP-tnW3iBL7HkKziOFCFZbTlf0","playlistName":"شرح البرهان في علوم القرآن - أ.د. يسري جبر","category":"تفسير"},{"id":"N6jwjmXOIqs","title":"الأسلوب الثاني: الحذف(10)\"أقسام الحذف\" النوع الثامن\"الاختزال\" - شرح البرهان في علوم القرآن","publishedAt":"2021-06-26T06:33:38Z","duration":"PT12M40S","thumbnail":"https://i.ytimg.com/vi/N6jwjmXOIqs/mqdefault.jpg","viewCount":"403","playlistId":"PLEkQk5xrP-tnW3iBL7HkKziOFCFZbTlf0","playlistName":"شرح البرهان في علوم القرآن - أ.د. يسري جبر","category":"تفسير"},{"id":"DVRaOd3GXgA","title":"شرح البرهان في علوم القرآن - النوع ٢٩ - فصل في كراهة قراءة القرآن بلا تدبر","publishedAt":"2020-02-05T06:00:04Z","duration":"PT26M55S","thumbnail":"https://i.ytimg.com/vi/DVRaOd3GXgA/mqdefault.jpg","viewCount":"403","playlistId":"PLEkQk5xrP-tnW3iBL7HkKziOFCFZbTlf0","playlistName":"شرح البرهان في علوم القرآن - أ.د. يسري جبر","category":"تفسير"},{"id":"MbmCdVTezpg","title":"القِسمُ العاشرُ من التوكيد: صِيَغُ المبالغة (3) \"ما جاء على صيغة فعيل\" شرح البرهان في علوم القرآن","publishedAt":"2021-04-08T06:06:47Z","duration":"PT26M24S","thumbnail":"https://i.ytimg.com/vi/MbmCdVTezpg/mqdefault.jpg","viewCount":"401","playlistId":"PLEkQk5xrP-tnW3iBL7HkKziOFCFZbTlf0","playlistName":"شرح البرهان في علوم القرآن - أ.د. يسري جبر","category":"تفسير"},{"id":"ubhG5fOLXR0","title":"634- الواو العاملة وغير العاملة - شرح البرهان في علوم القرآن","publishedAt":"2023-01-03T05:00:19Z","duration":"PT35M30S","thumbnail":"https://i.ytimg.com/vi/ubhG5fOLXR0/mqdefault.jpg","viewCount":"400","playlistId":"PLEkQk5xrP-tnW3iBL7HkKziOFCFZbTlf0","playlistName":"شرح البرهان في علوم القرآن - أ.د. يسري جبر","category":"تفسير"}],"total":631,"page":18,"pageSize":24,"totalPages":27}