{"items":[{"id":"_NMVMvqDm9w","title":"318- مرسوم الخط وآداب كتابته (2) - شرح الإتقان في علوم القرآن","publishedAt":"2025-12-01T21:20:27Z","duration":"PT28M9S","thumbnail":"https://i.ytimg.com/vi/_NMVMvqDm9w/mqdefault.jpg","viewCount":"328","playlistId":"PLEkQk5xrP-tlPw10KGJKagu7zm4Ry2Tge","playlistName":"شرح الإتقان في علوم القرآن","category":"تفسير"}],"total":313,"page":14,"pageSize":24,"totalPages":14}