{"items":[{"id":"HMoZBgZOBXw","title":"293- العلوم المستنبطة من القرآن (3) - شرح الإتقان في علوم القرآن","publishedAt":"2025-07-19T05:00:15Z","duration":"PT12M18S","thumbnail":"https://i.ytimg.com/vi/HMoZBgZOBXw/mqdefault.jpg","viewCount":"380","playlistId":"PLEkQk5xrP-tlPw10KGJKagu7zm4Ry2Tge","playlistName":"شرح الإتقان في علوم القرآن","category":"تفسير"},{"id":"3DJ-sj1lRns","title":"294- العلوم المستنبطة من القرآن (4) - شرح الإتقان في علوم القرآن","publishedAt":"2025-07-31T09:00:09Z","duration":"PT15M30S","thumbnail":"https://i.ytimg.com/vi/3DJ-sj1lRns/mqdefault.jpg","viewCount":"306","playlistId":"PLEkQk5xrP-tlPw10KGJKagu7zm4Ry2Tge","playlistName":"شرح الإتقان في علوم القرآن","category":"تفسير"},{"id":"sQZyqCii6Cg","title":"295- أنواع الأمثال في القرآن - شرح الإتقان في علوم القرآن","publishedAt":"2025-08-03T09:01:16Z","duration":"PT34M","thumbnail":"https://i.ytimg.com/vi/sQZyqCii6Cg/mqdefault.jpg","viewCount":"442","playlistId":"PLEkQk5xrP-tlPw10KGJKagu7zm4Ry2Tge","playlistName":"شرح الإتقان في علوم القرآن","category":"تفسير"},{"id":"oBXVCDjTANg","title":"296- أنواع القسم في القرآن - شرح الإتقان في علوم القرآن","publishedAt":"2025-08-11T09:01:16Z","duration":"PT31M11S","thumbnail":"https://i.ytimg.com/vi/oBXVCDjTANg/mqdefault.jpg","viewCount":"421","playlistId":"PLEkQk5xrP-tlPw10KGJKagu7zm4Ry2Tge","playlistName":"شرح الإتقان في علوم القرآن","category":"تفسير"},{"id":"iugsxL7i3fs","title":"297- جدل القرآن - شرح الإتقان في علوم القرآن","publishedAt":"2025-08-18T09:00:58Z","duration":"PT33M54S","thumbnail":"https://i.ytimg.com/vi/iugsxL7i3fs/mqdefault.jpg","viewCount":"401","playlistId":"PLEkQk5xrP-tlPw10KGJKagu7zm4Ry2Tge","playlistName":"شرح الإتقان في علوم القرآن","category":"تفسير"},{"id":"rKFW8Gg9b9A","title":"299- الأسماء والكنى والألقاب في القرآن الكريم - شرح الإتقان في علوم القرآن","publishedAt":"2025-09-02T09:01:22Z","duration":"PT30M33S","thumbnail":"https://i.ytimg.com/vi/rKFW8Gg9b9A/mqdefault.jpg","viewCount":"493","playlistId":"PLEkQk5xrP-tlPw10KGJKagu7zm4Ry2Tge","playlistName":"شرح الإتقان في علوم القرآن","category":"تفسير"},{"id":"oa3PFwEC17s","title":"300- الأسماء والكنى والألقاب في القرآن الكريم | سيدنا شعيب عليه السلام - شرح الإتقان في علوم القرآن","publishedAt":"2025-09-18T04:15:02Z","duration":"PT39M30S","thumbnail":"https://i.ytimg.com/vi/oa3PFwEC17s/mqdefault.jpg","viewCount":"737","playlistId":"PLEkQk5xrP-tlPw10KGJKagu7zm4Ry2Tge","playlistName":"شرح الإتقان في علوم القرآن","category":"تفسير"},{"id":"jbhf5ASDXcE","title":"301- أسماء الملائكة - شرح الإتقان في علوم القرآن","publishedAt":"2025-09-25T09:01:14Z","duration":"PT32M22S","thumbnail":"https://i.ytimg.com/vi/jbhf5ASDXcE/mqdefault.jpg","viewCount":"1021","playlistId":"PLEkQk5xrP-tlPw10KGJKagu7zm4Ry2Tge","playlistName":"شرح الإتقان في علوم القرآن","category":"تفسير"},{"id":"XrFDwHQrOyY","title":"302- أسماء البلاد والأمكنة - شرح الإتقان في علوم القرآن","publishedAt":"2025-09-29T09:00:48Z","duration":"PT25M5S","thumbnail":"https://i.ytimg.com/vi/XrFDwHQrOyY/mqdefault.jpg","viewCount":"413","playlistId":"PLEkQk5xrP-tlPw10KGJKagu7zm4Ry2Tge","playlistName":"شرح الإتقان في علوم القرآن","category":"تفسير"},{"id":"RvL1maGsP1s","title":"303- أسباب الإبهام في القرآن - شرح الإتقان في علوم القرآن","publishedAt":"2025-10-09T09:00:47Z","duration":"PT25M37S","thumbnail":"https://i.ytimg.com/vi/RvL1maGsP1s/mqdefault.jpg","viewCount":"242","playlistId":"PLEkQk5xrP-tlPw10KGJKagu7zm4Ry2Tge","playlistName":"شرح الإتقان في علوم القرآن","category":"تفسير"},{"id":"KSKt7LB9vnI","title":"304- المبهمات في القرآن - شرح الإتقان في علوم القرآن","publishedAt":"2025-10-13T05:07:30Z","duration":"PT24M17S","thumbnail":"https://i.ytimg.com/vi/KSKt7LB9vnI/mqdefault.jpg","viewCount":"442","playlistId":"PLEkQk5xrP-tlPw10KGJKagu7zm4Ry2Tge","playlistName":"شرح الإتقان في علوم القرآن","category":"تفسير"},{"id":"H_f1SuulmcY","title":"305- المبهم من أسماء الأعلام في الآيات القرآنية - شرح الإتقان في علوم القرآن","publishedAt":"2025-10-15T09:00:23Z","duration":"PT26M21S","thumbnail":"https://i.ytimg.com/vi/H_f1SuulmcY/mqdefault.jpg","viewCount":"425","playlistId":"PLEkQk5xrP-tlPw10KGJKagu7zm4Ry2Tge","playlistName":"شرح الإتقان في علوم القرآن","category":"تفسير"},{"id":"Ru-QUaf9J3k","title":"306- مبهمات الجموع الذين عرفت أسماء بعضهم - شرح الإتقان في علوم القرآن","publishedAt":"2025-10-17T09:00:50Z","duration":"PT14M14S","thumbnail":"https://i.ytimg.com/vi/Ru-QUaf9J3k/mqdefault.jpg","viewCount":"322","playlistId":"PLEkQk5xrP-tlPw10KGJKagu7zm4Ry2Tge","playlistName":"شرح الإتقان في علوم القرآن","category":"تفسير"},{"id":"_cPWNxZED0s","title":"307- مبهمات الجموع الذين عرفت أسماء بعضهم (2) - شرح الإتقان في علوم القرآن","publishedAt":"2025-10-21T09:00:49Z","duration":"PT24M46S","thumbnail":"https://i.ytimg.com/vi/_cPWNxZED0s/mqdefault.jpg","viewCount":"513","playlistId":"PLEkQk5xrP-tlPw10KGJKagu7zm4Ry2Tge","playlistName":"شرح الإتقان في علوم القرآن","category":"تفسير"},{"id":"LE5mEI2Kw1c","title":"308- فضائل القرآن - شرح الإتقان في علوم القرآن","publishedAt":"2025-10-26T09:00:34Z","duration":"PT22M54S","thumbnail":"https://i.ytimg.com/vi/LE5mEI2Kw1c/mqdefault.jpg","viewCount":"553","playlistId":"PLEkQk5xrP-tlPw10KGJKagu7zm4Ry2Tge","playlistName":"شرح الإتقان في علوم القرآن","category":"تفسير"},{"id":"Ln_Cv3GVOfA","title":"309- فضائل سور القرآن - شرح الإتقان في علوم القرآن","publishedAt":"2025-10-27T09:00:33Z","duration":"PT17M32S","thumbnail":"https://i.ytimg.com/vi/Ln_Cv3GVOfA/mqdefault.jpg","viewCount":"583","playlistId":"PLEkQk5xrP-tlPw10KGJKagu7zm4Ry2Tge","playlistName":"شرح الإتقان في علوم القرآن","category":"تفسير"},{"id":"i0N4pxZXBvI","title":"310- فضل سورة الدُّخان - شرح الإتقان في علوم القرآن","publishedAt":"2025-10-31T05:30:36Z","duration":"PT16M6S","thumbnail":"https://i.ytimg.com/vi/i0N4pxZXBvI/mqdefault.jpg","viewCount":"1101","playlistId":"PLEkQk5xrP-tlPw10KGJKagu7zm4Ry2Tge","playlistName":"شرح الإتقان في علوم القرآن","category":"تفسير"},{"id":"dwDd2yEtT4k","title":"311- أفضل القرآن وفاضله - شرح الإتقان في علوم القرآن","publishedAt":"2025-11-04T05:30:32Z","duration":"PT21M15S","thumbnail":"https://i.ytimg.com/vi/dwDd2yEtT4k/mqdefault.jpg","viewCount":"758","playlistId":"PLEkQk5xrP-tlPw10KGJKagu7zm4Ry2Tge","playlistName":"شرح الإتقان في علوم القرآن","category":"تفسير"},{"id":"N5IeEwxjjdc","title":"312- أفضل القرآن وفاضله (2) - شرح الإتقان في علوم القرآن","publishedAt":"2025-11-06T05:30:11Z","duration":"PT27M26S","thumbnail":"https://i.ytimg.com/vi/N5IeEwxjjdc/mqdefault.jpg","viewCount":"460","playlistId":"PLEkQk5xrP-tlPw10KGJKagu7zm4Ry2Tge","playlistName":"شرح الإتقان في علوم القرآن","category":"تفسير"},{"id":"c2C4MXxuoEY","title":"313- مفردات القرآن - شرح الإتقان في علوم القرآن","publishedAt":"2025-11-08T05:30:20Z","duration":"PT31M24S","thumbnail":"https://i.ytimg.com/vi/c2C4MXxuoEY/mqdefault.jpg","viewCount":"458","playlistId":"PLEkQk5xrP-tlPw10KGJKagu7zm4Ry2Tge","playlistName":"شرح الإتقان في علوم القرآن","category":"تفسير"},{"id":"cIjdLaqPLRw","title":"314- أشد آية في القرآن - شرح الإتقان في علوم القرآن","publishedAt":"2025-11-18T10:01:07Z","duration":"PT24M","thumbnail":"https://i.ytimg.com/vi/cIjdLaqPLRw/mqdefault.jpg","viewCount":"600","playlistId":"PLEkQk5xrP-tlPw10KGJKagu7zm4Ry2Tge","playlistName":"شرح الإتقان في علوم القرآن","category":"تفسير"},{"id":"tuhAnRYW9RE","title":"315- خواص القرآن - شرح الإتقان في علوم القرآن","publishedAt":"2025-11-20T10:01:42Z","duration":"PT33M51S","thumbnail":"https://i.ytimg.com/vi/tuhAnRYW9RE/mqdefault.jpg","viewCount":"438","playlistId":"PLEkQk5xrP-tlPw10KGJKagu7zm4Ry2Tge","playlistName":"شرح الإتقان في علوم القرآن","category":"تفسير"},{"id":"qSSJyr5f43Y","title":"316- خواص القرآن (2) - شرح الإتقان في علوم القرآن","publishedAt":"2025-11-22T10:01:26Z","duration":"PT23M55S","thumbnail":"https://i.ytimg.com/vi/qSSJyr5f43Y/mqdefault.jpg","viewCount":"312","playlistId":"PLEkQk5xrP-tlPw10KGJKagu7zm4Ry2Tge","playlistName":"شرح الإتقان في علوم القرآن","category":"تفسير"},{"id":"lXI2ZX16b8Q","title":"317- مرسوم الخط وآداب كتابته - شرح الإتقان في علوم القرآن","publishedAt":"2025-11-24T05:30:21Z","duration":"PT19M30S","thumbnail":"https://i.ytimg.com/vi/lXI2ZX16b8Q/mqdefault.jpg","viewCount":"359","playlistId":"PLEkQk5xrP-tlPw10KGJKagu7zm4Ry2Tge","playlistName":"شرح الإتقان في علوم القرآن","category":"تفسير"}],"total":313,"page":13,"pageSize":24,"totalPages":14}