{"items":[{"id":"ZCcAAPwyY_g","title":"هل يجوز المرور أمام المصلي؟ | أ.د. يسري جبر","publishedAt":"2022-04-20T15:30:05Z","duration":"PT37M16S","thumbnail":"https://i.ytimg.com/vi/ZCcAAPwyY_g/mqdefault.jpg","viewCount":"2030","playlistId":"PLEkQk5xrP-tnl7vb7KeAoPd5ZlqKKW8KV","playlistName":"شرح كتاب بهجة النفوس أ.د . يسرى جبر","category":"متنوع"},{"id":"1FYbAtLbLXM","title":"١٤٠ حديث عز المؤمن بطاعة الله ورسوله  د. يسري جبر","publishedAt":"2018-05-19T15:51:10Z","duration":"PT30M53S","thumbnail":"https://i.ytimg.com/vi/1FYbAtLbLXM/mqdefault.jpg","viewCount":"696","playlistId":"PLEkQk5xrP-tnl7vb7KeAoPd5ZlqKKW8KV","playlistName":"شرح كتاب بهجة النفوس أ.د . يسرى جبر","category":"متنوع"},{"id":"klXbysRaRLM","title":"( 139 ) حديث اللعب بآلات الحرب ومنع البيع والشراء في المساجد د. يسري جبر","publishedAt":"2018-05-18T08:14:28Z","duration":"PT39M55S","thumbnail":"https://i.ytimg.com/vi/klXbysRaRLM/mqdefault.jpg","viewCount":"242","playlistId":"PLEkQk5xrP-tnl7vb7KeAoPd5ZlqKKW8KV","playlistName":"شرح كتاب بهجة النفوس أ.د . يسرى جبر","category":"متنوع"},{"id":"IrTiv5kIVQA","title":"كيف تتخلص من التشاؤم؟ | أ.د. يسري جبر","publishedAt":"2022-04-19T15:30:05Z","duration":"PT50M31S","thumbnail":"https://i.ytimg.com/vi/IrTiv5kIVQA/mqdefault.jpg","viewCount":"10038","playlistId":"PLEkQk5xrP-tnl7vb7KeAoPd5ZlqKKW8KV","playlistName":"شرح كتاب بهجة النفوس أ.د . يسرى جبر","category":"متنوع"},{"id":"n2n0kNvPud8","title":"سنن النَّبيّ ﷺ في العلاج | أ.د. يسري جبر","publishedAt":"2022-04-18T15:30:16Z","duration":"PT29M38S","thumbnail":"https://i.ytimg.com/vi/n2n0kNvPud8/mqdefault.jpg","viewCount":"1840","playlistId":"PLEkQk5xrP-tnl7vb7KeAoPd5ZlqKKW8KV","playlistName":"شرح كتاب بهجة النفوس أ.د . يسرى جبر","category":"متنوع"},{"id":"JC7eXAehPh8","title":"حكم الحلف بغير الله | مجالس رمضانية","publishedAt":"2023-04-10T15:00:12Z","duration":"PT25M28S","thumbnail":"https://i.ytimg.com/vi/JC7eXAehPh8/mqdefault.jpg","viewCount":"1100","playlistId":"PLEkQk5xrP-tnl7vb7KeAoPd5ZlqKKW8KV","playlistName":"شرح كتاب بهجة النفوس أ.د . يسرى جبر","category":"متنوع"},{"id":"mFnlrDkileo","title":"ما هي آداب المجلس؟ | مجالس رمضانية","publishedAt":"2023-04-09T15:00:27Z","duration":"PT43M55S","thumbnail":"https://i.ytimg.com/vi/mFnlrDkileo/mqdefault.jpg","viewCount":"1389","playlistId":"PLEkQk5xrP-tnl7vb7KeAoPd5ZlqKKW8KV","playlistName":"شرح كتاب بهجة النفوس أ.د . يسرى جبر","category":"متنوع"},{"id":"7YGgfff8XdA","title":"١٤٥ حديث صدقات أعضاء بدن الإنسان د. يسري جبر","publishedAt":"2018-05-23T01:47:38Z","duration":"PT38M50S","thumbnail":"https://i.ytimg.com/vi/7YGgfff8XdA/mqdefault.jpg","viewCount":"2679","playlistId":"PLEkQk5xrP-tnl7vb7KeAoPd5ZlqKKW8KV","playlistName":"شرح كتاب بهجة النفوس أ.د . يسرى جبر","category":"متنوع"},{"id":"3ldxdXs_d1o","title":"من سنن النبيﷺ في النظافة | أ.د. يسري جبر","publishedAt":"2021-05-11T17:00:02Z","duration":"PT31M12S","thumbnail":"https://i.ytimg.com/vi/3ldxdXs_d1o/mqdefault.jpg","viewCount":"1632","playlistId":"PLEkQk5xrP-tnl7vb7KeAoPd5ZlqKKW8KV","playlistName":"شرح كتاب بهجة النفوس أ.د . يسرى جبر","category":"متنوع"},{"id":"apcCdnNfaMU","title":"سر إفطار النبي ﷺ علي التمر | أ.د. يسري جبر","publishedAt":"2021-05-10T16:00:02Z","duration":"PT34M39S","thumbnail":"https://i.ytimg.com/vi/apcCdnNfaMU/mqdefault.jpg","viewCount":"3336","playlistId":"PLEkQk5xrP-tnl7vb7KeAoPd5ZlqKKW8KV","playlistName":"شرح كتاب بهجة النفوس أ.د . يسرى جبر","category":"متنوع"},{"id":"6n4VJmM4RBE","title":"هل يجوز الأكل في أواني غير المسلمين؟ | أ.د. يسري جبر","publishedAt":"2021-05-12T17:05:15Z","duration":"PT27M46S","thumbnail":"https://i.ytimg.com/vi/6n4VJmM4RBE/mqdefault.jpg","viewCount":"2242","playlistId":"PLEkQk5xrP-tnl7vb7KeAoPd5ZlqKKW8KV","playlistName":"شرح كتاب بهجة النفوس أ.د . يسرى جبر","category":"متنوع"},{"id":"JK5PQmx9WgA","title":"( 121 ) حديث لا تصدقوا أهل الكتاب المجلس الأول - د. يسري جبر","publishedAt":"2017-06-01T03:11:25Z","duration":"PT27M30S","thumbnail":"https://i.ytimg.com/vi/JK5PQmx9WgA/mqdefault.jpg","viewCount":"656","playlistId":"PLEkQk5xrP-tnl7vb7KeAoPd5ZlqKKW8KV","playlistName":"شرح كتاب بهجة النفوس أ.د . يسرى جبر","category":"متنوع"},{"id":"bjq8JioDK1A","title":"( 120 ) حديث يمين الغموس -  د. يسري جبر","publishedAt":"2017-05-31T01:44:16Z","duration":"PT22M30S","thumbnail":"https://i.ytimg.com/vi/bjq8JioDK1A/mqdefault.jpg","viewCount":"390","playlistId":"PLEkQk5xrP-tnl7vb7KeAoPd5ZlqKKW8KV","playlistName":"شرح كتاب بهجة النفوس أ.د . يسرى جبر","category":"متنوع"},{"id":"RFlQUYEZSeI","title":"( 119 ) حديث الإفك وبراءة السيدة عائشة أم المؤمنين منه - المجلس السادس عشر والأخير د. يسري جبر","publishedAt":"2017-05-30T03:20:54Z","duration":"PT26M43S","thumbnail":"https://i.ytimg.com/vi/RFlQUYEZSeI/mqdefault.jpg","viewCount":"240","playlistId":"PLEkQk5xrP-tnl7vb7KeAoPd5ZlqKKW8KV","playlistName":"شرح كتاب بهجة النفوس أ.د . يسرى جبر","category":"متنوع"},{"id":"jtprMouzjwg","title":"( 119 ) حديث الإفك وبراءة السيدة عائشة أم المؤمنين منه - المجلس الخامس عشر د. يسري جبر","publishedAt":"2017-05-29T04:40:29Z","duration":"PT33M48S","thumbnail":"https://i.ytimg.com/vi/jtprMouzjwg/mqdefault.jpg","viewCount":"274","playlistId":"PLEkQk5xrP-tnl7vb7KeAoPd5ZlqKKW8KV","playlistName":"شرح كتاب بهجة النفوس أ.د . يسرى جبر","category":"متنوع"},{"id":"4lx6LArfXPE","title":"( 119 ) حديث الإفك وبراءة السيدة عائشة أم المؤمنين منه - المجلس الحادي عشر","publishedAt":"2017-05-24T22:07:15Z","duration":"PT34M16S","thumbnail":"https://i.ytimg.com/vi/4lx6LArfXPE/mqdefault.jpg","viewCount":"230","playlistId":"PLEkQk5xrP-tnl7vb7KeAoPd5ZlqKKW8KV","playlistName":"شرح كتاب بهجة النفوس أ.د . يسرى جبر","category":"متنوع"},{"id":"-IOfYBfyIM4","title":"( 119 ) حديث الإفك وبراءة السيدة عائشة أم المؤمنين منه - المجلس العاشر","publishedAt":"2017-05-24T18:03:10Z","duration":"PT20M59S","thumbnail":"https://i.ytimg.com/vi/-IOfYBfyIM4/mqdefault.jpg","viewCount":"205","playlistId":"PLEkQk5xrP-tnl7vb7KeAoPd5ZlqKKW8KV","playlistName":"شرح كتاب بهجة النفوس أ.د . يسرى جبر","category":"متنوع"},{"id":"HJdwhCnDcyI","title":"ما حكم سب الدهر؟ | مجالس رمضانية","publishedAt":"2023-04-02T15:08:08Z","duration":"PT46M42S","thumbnail":"https://i.ytimg.com/vi/HJdwhCnDcyI/mqdefault.jpg","viewCount":"1435","playlistId":"PLEkQk5xrP-tnl7vb7KeAoPd5ZlqKKW8KV","playlistName":"شرح كتاب بهجة النفوس أ.د . يسرى جبر","category":"متنوع"},{"id":"gSrvVHl4Xpc","title":"عواقب الألفاظ الخبيثة | مجالس رمضانية","publishedAt":"2023-04-01T15:00:22Z","duration":"PT47M3S","thumbnail":"https://i.ytimg.com/vi/gSrvVHl4Xpc/mqdefault.jpg","viewCount":"4178","playlistId":"PLEkQk5xrP-tnl7vb7KeAoPd5ZlqKKW8KV","playlistName":"شرح كتاب بهجة النفوس أ.د . يسرى جبر","category":"متنوع"},{"id":"-z7jK3GuRX4","title":"( 137 ) حديث عدم الاتكال علي العمل د. يسري جبر","publishedAt":"2017-07-02T15:35:47Z","duration":"PT25M59S","thumbnail":"https://i.ytimg.com/vi/-z7jK3GuRX4/mqdefault.jpg","viewCount":"954","playlistId":"PLEkQk5xrP-tnl7vb7KeAoPd5ZlqKKW8KV","playlistName":"شرح كتاب بهجة النفوس أ.د . يسرى جبر","category":"متنوع"},{"id":"_6ZuAxUt8Ps","title":"حديث (١٧٦) حديثُ إلقاء الرجل المتظاهر بالصلاح في النار   أ د  يسري جبر","publishedAt":"2019-05-29T12:54:04Z","duration":"PT24M10S","thumbnail":"https://i.ytimg.com/vi/_6ZuAxUt8Ps/mqdefault.jpg","viewCount":"407","playlistId":"PLEkQk5xrP-tnl7vb7KeAoPd5ZlqKKW8KV","playlistName":"شرح كتاب بهجة النفوس أ.د . يسرى جبر","category":"متنوع"},{"id":"OVoU8BZlp9Q","title":"حديث (١٧٥) حديثُ عِظَم حَرِّ نَارِ جَهَنَّمَ .  أ.د. يسري جبر","publishedAt":"2019-05-29T09:50:53Z","duration":"PT15M25S","thumbnail":"https://i.ytimg.com/vi/OVoU8BZlp9Q/mqdefault.jpg","viewCount":"498","playlistId":"PLEkQk5xrP-tnl7vb7KeAoPd5ZlqKKW8KV","playlistName":"شرح كتاب بهجة النفوس أ.د . يسرى جبر","category":"متنوع"},{"id":"HW43CPZ1nOk","title":"حديث (١٧٤) التداوي من الحُمَّى بالماء  أ.د. يسري جبر","publishedAt":"2019-05-28T13:59:41Z","duration":"PT25M10S","thumbnail":"https://i.ytimg.com/vi/HW43CPZ1nOk/mqdefault.jpg","viewCount":"630","playlistId":"PLEkQk5xrP-tnl7vb7KeAoPd5ZlqKKW8KV","playlistName":"شرح كتاب بهجة النفوس أ.د . يسرى جبر","category":"متنوع"},{"id":"44H46W09p6E","title":"وصف أرض المحشر يوم القيامة | مجالس رمضانية","publishedAt":"2023-04-14T15:00:06Z","duration":"PT36M5S","thumbnail":"https://i.ytimg.com/vi/44H46W09p6E/mqdefault.jpg","viewCount":"2838","playlistId":"PLEkQk5xrP-tnl7vb7KeAoPd5ZlqKKW8KV","playlistName":"شرح كتاب بهجة النفوس أ.د . يسرى جبر","category":"متنوع"}],"total":237,"page":8,"pageSize":24,"totalPages":10}