{"items":[{"id":"5F7Lb1oVpXs","title":"( 98 ) حَدِيثُ جَوازِ الرُقَى وَالأَجْرِ عَلَيهَا  - المجلس الأول","publishedAt":"2015-10-12T18:24:51Z","duration":"PT28M48S","thumbnail":"https://i.ytimg.com/vi/5F7Lb1oVpXs/mqdefault.jpg","viewCount":"348","playlistId":"PLEkQk5xrP-tnl7vb7KeAoPd5ZlqKKW8KV","playlistName":"شرح كتاب بهجة النفوس أ.د . يسرى جبر","category":"متنوع"},{"id":"fwDb3CpNu54","title":"( 97 ) حدِيثُ جَوازِ أَخْذِ الأَجْرِعلى كِتَابِ اللهِ عَزَّ وَجَلَّ","publishedAt":"2015-10-09T18:40:24Z","duration":"PT20M26S","thumbnail":"https://i.ytimg.com/vi/fwDb3CpNu54/mqdefault.jpg","viewCount":"293","playlistId":"PLEkQk5xrP-tnl7vb7KeAoPd5ZlqKKW8KV","playlistName":"شرح كتاب بهجة النفوس أ.د . يسرى جبر","category":"متنوع"},{"id":"D-sAkohRgo8","title":"( 96 ) حدِيثُ النَهْىِ عَنِ التَصوِيِرِ","publishedAt":"2015-10-06T17:44:04Z","duration":"PT35M28S","thumbnail":"https://i.ytimg.com/vi/D-sAkohRgo8/mqdefault.jpg","viewCount":"419","playlistId":"PLEkQk5xrP-tnl7vb7KeAoPd5ZlqKKW8KV","playlistName":"شرح كتاب بهجة النفوس أ.د . يسرى جبر","category":"متنوع"},{"id":"5e-v1yHxsUI","title":"( 95) حدِيثُ َجَوازِ أخْذِ الزوجَةِ ما يَكْفِيهَا ِمنْ مَالِ زَوجِهَا إِذَا كَانَ شَحِيحًا","publishedAt":"2015-10-05T22:34:54Z","duration":"PT33M1S","thumbnail":"https://i.ytimg.com/vi/5e-v1yHxsUI/mqdefault.jpg","viewCount":"310","playlistId":"PLEkQk5xrP-tnl7vb7KeAoPd5ZlqKKW8KV","playlistName":"شرح كتاب بهجة النفوس أ.د . يسرى جبر","category":"متنوع"},{"id":"GMiP-k3Adeg","title":"( 94 ) حدِيثُ البَيِّعَانِ بِالخِيَارِ مَا لَمْ يَتَفَرَّقَا","publishedAt":"2015-10-04T20:28:01Z","duration":"PT47M11S","thumbnail":"https://i.ytimg.com/vi/GMiP-k3Adeg/mqdefault.jpg","viewCount":"418","playlistId":"PLEkQk5xrP-tnl7vb7KeAoPd5ZlqKKW8KV","playlistName":"شرح كتاب بهجة النفوس أ.د . يسرى جبر","category":"متنوع"},{"id":"wq66SIv64e8","title":"درجات القرابة في الإسلام | مجالس رمضانية","publishedAt":"2023-04-19T15:00:48Z","duration":"PT43M52S","thumbnail":"https://i.ytimg.com/vi/wq66SIv64e8/mqdefault.jpg","viewCount":"1471","playlistId":"PLEkQk5xrP-tnl7vb7KeAoPd5ZlqKKW8KV","playlistName":"شرح كتاب بهجة النفوس أ.د . يسرى جبر","category":"متنوع"},{"id":"dMMpI0mO07M","title":"هل يجوز الانتفاع بجلد الميتة؟ | مجالس رمضانية","publishedAt":"2023-04-19T10:21:24Z","duration":"PT1H8M21S","thumbnail":"https://i.ytimg.com/vi/dMMpI0mO07M/mqdefault.jpg","viewCount":"742","playlistId":"PLEkQk5xrP-tnl7vb7KeAoPd5ZlqKKW8KV","playlistName":"شرح كتاب بهجة النفوس أ.د . يسرى جبر","category":"متنوع"},{"id":"ryIrH1GxkTU","title":"ما حكم من أكل ناسيا في الصيام؟ | مجالس رمضانية","publishedAt":"2023-04-18T15:00:39Z","duration":"PT43M17S","thumbnail":"https://i.ytimg.com/vi/ryIrH1GxkTU/mqdefault.jpg","viewCount":"775","playlistId":"PLEkQk5xrP-tnl7vb7KeAoPd5ZlqKKW8KV","playlistName":"شرح كتاب بهجة النفوس أ.د . يسرى جبر","category":"متنوع"},{"id":"9HqBYqbspFA","title":"ماذا سيحدث للكفار يوم القيامة؟ | مجالس رمضانية","publishedAt":"2023-04-18T10:00:09Z","duration":"PT38M52S","thumbnail":"https://i.ytimg.com/vi/9HqBYqbspFA/mqdefault.jpg","viewCount":"2175","playlistId":"PLEkQk5xrP-tnl7vb7KeAoPd5ZlqKKW8KV","playlistName":"شرح كتاب بهجة النفوس أ.د . يسرى جبر","category":"متنوع"},{"id":"oJXWL3IlZwc","title":"لماذا نهى النبي ﷺ عن النذر؟ | مجالس رمضانية","publishedAt":"2023-04-18T07:06:05Z","duration":"PT42M16S","thumbnail":"https://i.ytimg.com/vi/oJXWL3IlZwc/mqdefault.jpg","viewCount":"1062","playlistId":"PLEkQk5xrP-tnl7vb7KeAoPd5ZlqKKW8KV","playlistName":"شرح كتاب بهجة النفوس أ.د . يسرى جبر","category":"متنوع"},{"id":"OH4aafWfeAw","title":"الخلود في الجنة والنار | مجالس رمضانية","publishedAt":"2023-04-17T19:00:09Z","duration":"PT22M16S","thumbnail":"https://i.ytimg.com/vi/OH4aafWfeAw/mqdefault.jpg","viewCount":"3112","playlistId":"PLEkQk5xrP-tnl7vb7KeAoPd5ZlqKKW8KV","playlistName":"شرح كتاب بهجة النفوس أ.د . يسرى جبر","category":"متنوع"},{"id":"KxbpFG5SzyQ","title":"فضل الصدقة وأثرها على كل مسلم | مجالس رمضانية","publishedAt":"2023-04-16T15:00:22Z","duration":"PT41M19S","thumbnail":"https://i.ytimg.com/vi/KxbpFG5SzyQ/mqdefault.jpg","viewCount":"2745","playlistId":"PLEkQk5xrP-tnl7vb7KeAoPd5ZlqKKW8KV","playlistName":"شرح كتاب بهجة النفوس أ.د . يسرى جبر","category":"متنوع"},{"id":"DRknIVxS09M","title":"حال الناس يوم القيامة | مجالس رمضانية","publishedAt":"2023-04-16T10:00:08Z","duration":"PT31M45S","thumbnail":"https://i.ytimg.com/vi/DRknIVxS09M/mqdefault.jpg","viewCount":"2231","playlistId":"PLEkQk5xrP-tnl7vb7KeAoPd5ZlqKKW8KV","playlistName":"شرح كتاب بهجة النفوس أ.د . يسرى جبر","category":"متنوع"},{"id":"y2feOz9SxAA","title":"كيف سيكون شكل الناس يوم القيامة؟ | مجالس رمضانية","publishedAt":"2023-04-15T15:00:43Z","duration":"PT26M","thumbnail":"https://i.ytimg.com/vi/y2feOz9SxAA/mqdefault.jpg","viewCount":"4023","playlistId":"PLEkQk5xrP-tnl7vb7KeAoPd5ZlqKKW8KV","playlistName":"شرح كتاب بهجة النفوس أ.د . يسرى جبر","category":"متنوع"},{"id":"iOcBCD6W2PM","title":"( 93 ) حدِيثُ الحَثِّ عَلَى العَمَلِ وَفَضْلِ عَمَلِ اليَدِ - المجلس الثالث","publishedAt":"2015-10-03T18:16:33Z","duration":"PT34M53S","thumbnail":"https://i.ytimg.com/vi/iOcBCD6W2PM/mqdefault.jpg","viewCount":"410","playlistId":"PLEkQk5xrP-tnl7vb7KeAoPd5ZlqKKW8KV","playlistName":"شرح كتاب بهجة النفوس أ.د . يسرى جبر","category":"متنوع"},{"id":"mauoKrkzAOc","title":"( 93 ) حدِيثُ الحَثِّ عَلَى العَمَلِ وَفَضْلِ عَمَلِ اليَدِ - المجلس الثانى","publishedAt":"2015-10-02T20:12:03Z","duration":"PT44M44S","thumbnail":"https://i.ytimg.com/vi/mauoKrkzAOc/mqdefault.jpg","viewCount":"639","playlistId":"PLEkQk5xrP-tnl7vb7KeAoPd5ZlqKKW8KV","playlistName":"شرح كتاب بهجة النفوس أ.د . يسرى جبر","category":"متنوع"},{"id":"F3eMijvyf_Q","title":"( 93 ) حدِيثُ الحَثِّ عَلَى العَمَلِ وَفَضْلِ عَمَلِ اليَدِ  - المجلس الأول","publishedAt":"2015-10-01T19:14:43Z","duration":"PT34M59S","thumbnail":"https://i.ytimg.com/vi/F3eMijvyf_Q/mqdefault.jpg","viewCount":"2372","playlistId":"PLEkQk5xrP-tnl7vb7KeAoPd5ZlqKKW8KV","playlistName":"شرح كتاب بهجة النفوس أ.د . يسرى جبر","category":"متنوع"},{"id":"YDEu7kQkhy0","title":"( 119 ) حديث الإفك وبراءة السيدة عائشة أم المؤمنين منه - المجلس التاسع","publishedAt":"2016-07-23T18:43:08Z","duration":"PT33M15S","thumbnail":"https://i.ytimg.com/vi/YDEu7kQkhy0/mqdefault.jpg","viewCount":"222","playlistId":"PLEkQk5xrP-tnl7vb7KeAoPd5ZlqKKW8KV","playlistName":"شرح كتاب بهجة النفوس أ.د . يسرى جبر","category":"متنوع"},{"id":"LhmeUT7x9M0","title":"( 119 ) حديث الإفك وبراءة السيدة عائشة أم المؤمنين منه - المجلس الثامن","publishedAt":"2016-07-20T16:09:02Z","duration":"PT21M53S","thumbnail":"https://i.ytimg.com/vi/LhmeUT7x9M0/mqdefault.jpg","viewCount":"185","playlistId":"PLEkQk5xrP-tnl7vb7KeAoPd5ZlqKKW8KV","playlistName":"شرح كتاب بهجة النفوس أ.د . يسرى جبر","category":"متنوع"},{"id":"OWqh8cGea7M","title":"( 119 ) حديث الإفك وبراءة السيدة عائشة أم المؤمنين منه - المجلس السابع","publishedAt":"2016-07-18T15:58:00Z","duration":"PT24M59S","thumbnail":"https://i.ytimg.com/vi/OWqh8cGea7M/mqdefault.jpg","viewCount":"221","playlistId":"PLEkQk5xrP-tnl7vb7KeAoPd5ZlqKKW8KV","playlistName":"شرح كتاب بهجة النفوس أ.د . يسرى جبر","category":"متنوع"},{"id":"rZC9oBtYaJ0","title":"( 119 ) حديث الإفك وبراءة السيدة عائشة أم المؤمنين منه - المجلس السادس","publishedAt":"2016-07-12T20:29:41Z","duration":"PT20M14S","thumbnail":"https://i.ytimg.com/vi/rZC9oBtYaJ0/mqdefault.jpg","viewCount":"238","playlistId":"PLEkQk5xrP-tnl7vb7KeAoPd5ZlqKKW8KV","playlistName":"شرح كتاب بهجة النفوس أ.د . يسرى جبر","category":"متنوع"},{"id":"cfz3u-Ol8vM","title":"حَدِيث (١٨٣)\"مَنْ قالَ لا إلهَ إلاَّ اللَّه وحْدهُ لاَ شَرِيكَ له...\" | أ.د. يسري جبر","publishedAt":"2021-04-13T15:33:34Z","duration":"PT42M41S","thumbnail":"https://i.ytimg.com/vi/cfz3u-Ol8vM/mqdefault.jpg","viewCount":"11625","playlistId":"PLEkQk5xrP-tnl7vb7KeAoPd5ZlqKKW8KV","playlistName":"شرح كتاب بهجة النفوس أ.د . يسرى جبر","category":"متنوع"},{"id":"1KCg0rAEMWc","title":"ذكر الله تعالى على الطعام | أ.د. يسري جبر","publishedAt":"2021-05-09T15:30:30Z","duration":"PT38M7S","thumbnail":"https://i.ytimg.com/vi/1KCg0rAEMWc/mqdefault.jpg","viewCount":"1610","playlistId":"PLEkQk5xrP-tnl7vb7KeAoPd5ZlqKKW8KV","playlistName":"شرح كتاب بهجة النفوس أ.د . يسرى جبر","category":"متنوع"},{"id":"23ZGzo3sN-g","title":"مساعدة الرجل لزوجته | أ.د. يسري جبر","publishedAt":"2021-05-08T16:00:02Z","duration":"PT25M46S","thumbnail":"https://i.ytimg.com/vi/23ZGzo3sN-g/mqdefault.jpg","viewCount":"1630","playlistId":"PLEkQk5xrP-tnl7vb7KeAoPd5ZlqKKW8KV","playlistName":"شرح كتاب بهجة النفوس أ.د . يسرى جبر","category":"متنوع"}],"total":237,"page":1,"pageSize":24,"totalPages":10}