{"items":[{"id":"HU1n6pC0Ydk","title":"إدخار الطعام | أ.د. يسري جبر","publishedAt":"2021-05-07T16:00:07Z","duration":"PT25M28S","thumbnail":"https://i.ytimg.com/vi/HU1n6pC0Ydk/mqdefault.jpg","viewCount":"1562","playlistId":"PLEkQk5xrP-tnl7vb7KeAoPd5ZlqKKW8KV","playlistName":"شرح كتاب بهجة النفوس أ.د . يسرى جبر","category":"متنوع"},{"id":"8M26Evt_5Qw","title":"هل تجوز الشفاعة؟ | أ.د. يسري جبر","publishedAt":"2021-05-06T16:10:01Z","duration":"PT28M10S","thumbnail":"https://i.ytimg.com/vi/8M26Evt_5Qw/mqdefault.jpg","viewCount":"1210","playlistId":"PLEkQk5xrP-tnl7vb7KeAoPd5ZlqKKW8KV","playlistName":"شرح كتاب بهجة النفوس أ.د . يسرى جبر","category":"متنوع"},{"id":"IDe0AwsQcmQ","title":"كراهية التجسس بين الزوجين | أ.د. يسري جبر","publishedAt":"2021-05-05T16:09:42Z","duration":"PT26M25S","thumbnail":"https://i.ytimg.com/vi/IDe0AwsQcmQ/mqdefault.jpg","viewCount":"1851","playlistId":"PLEkQk5xrP-tnl7vb7KeAoPd5ZlqKKW8KV","playlistName":"شرح كتاب بهجة النفوس أ.د . يسرى جبر","category":"متنوع"},{"id":"I-0i20kPs0c","title":"جواز التحلل من الحج | أ.د. يسري جبر","publishedAt":"2021-05-04T16:00:16Z","duration":"PT37M58S","thumbnail":"https://i.ytimg.com/vi/I-0i20kPs0c/mqdefault.jpg","viewCount":"489","playlistId":"PLEkQk5xrP-tnl7vb7KeAoPd5ZlqKKW8KV","playlistName":"شرح كتاب بهجة النفوس أ.د . يسرى جبر","category":"متنوع"},{"id":"0-0ySEMzpnk","title":"كيف تتجنب الوقوع في الزنا؟ | أ.د. يسري جبر","publishedAt":"2021-05-03T16:00:00Z","duration":"PT29M38S","thumbnail":"https://i.ytimg.com/vi/0-0ySEMzpnk/mqdefault.jpg","viewCount":"5140","playlistId":"PLEkQk5xrP-tnl7vb7KeAoPd5ZlqKKW8KV","playlistName":"شرح كتاب بهجة النفوس أ.د . يسرى جبر","category":"متنوع"},{"id":"By_zFZce_ak","title":"الخشوع عند قراءة القرآن | أ.د. يسري جبر","publishedAt":"2021-05-02T15:30:02Z","duration":"PT23M54S","thumbnail":"https://i.ytimg.com/vi/By_zFZce_ak/mqdefault.jpg","viewCount":"2625","playlistId":"PLEkQk5xrP-tnl7vb7KeAoPd5ZlqKKW8KV","playlistName":"شرح كتاب بهجة النفوس أ.د . يسرى جبر","category":"متنوع"},{"id":"MltTrtDHX2Y","title":"فضل قراءة القرآن للراكب | أ.د. يسري جبر","publishedAt":"2021-05-01T15:30:02Z","duration":"PT26M19S","thumbnail":"https://i.ytimg.com/vi/MltTrtDHX2Y/mqdefault.jpg","viewCount":"1361","playlistId":"PLEkQk5xrP-tnl7vb7KeAoPd5ZlqKKW8KV","playlistName":"شرح كتاب بهجة النفوس أ.د . يسرى جبر","category":"متنوع"},{"id":"4Iw5D40aYtA","title":"توادد المؤمنين وتراحمهم | أ.د. يسري جبر","publishedAt":"2022-05-01T15:30:01Z","duration":"PT22M49S","thumbnail":"https://i.ytimg.com/vi/4Iw5D40aYtA/mqdefault.jpg","viewCount":"1117","playlistId":"PLEkQk5xrP-tnl7vb7KeAoPd5ZlqKKW8KV","playlistName":"شرح كتاب بهجة النفوس أ.د . يسرى جبر","category":"متنوع"},{"id":"Nt8p-g22i3E","title":"سعة رحمة الله تعالى بعباده | أ.د. يسري جبر","publishedAt":"2022-04-30T15:30:02Z","duration":"PT28M10S","thumbnail":"https://i.ytimg.com/vi/Nt8p-g22i3E/mqdefault.jpg","viewCount":"2934","playlistId":"PLEkQk5xrP-tnl7vb7KeAoPd5ZlqKKW8KV","playlistName":"شرح كتاب بهجة النفوس أ.د . يسرى جبر","category":"متنوع"},{"id":"-Wwa13CJUjs","title":"جواز التوسل بالنَّبيّ ﷺ | أ.د. يسري جبر","publishedAt":"2022-04-29T15:30:00Z","duration":"PT25M44S","thumbnail":"https://i.ytimg.com/vi/-Wwa13CJUjs/mqdefault.jpg","viewCount":"3660","playlistId":"PLEkQk5xrP-tnl7vb7KeAoPd5ZlqKKW8KV","playlistName":"شرح كتاب بهجة النفوس أ.د . يسرى جبر","category":"متنوع"},{"id":"xUw_OcMmidA","title":"رحمة الله بعباده | أ.د. يسري جبر","publishedAt":"2022-04-28T15:30:07Z","duration":"PT33M36S","thumbnail":"https://i.ytimg.com/vi/xUw_OcMmidA/mqdefault.jpg","viewCount":"3324","playlistId":"PLEkQk5xrP-tnl7vb7KeAoPd5ZlqKKW8KV","playlistName":"شرح كتاب بهجة النفوس أ.د . يسرى جبر","category":"متنوع"},{"id":"Dzb4BXd5X80","title":"فضل تربية البنات | أ.د. يسري جبر","publishedAt":"2022-04-27T19:30:02Z","duration":"PT43M17S","thumbnail":"https://i.ytimg.com/vi/Dzb4BXd5X80/mqdefault.jpg","viewCount":"2860","playlistId":"PLEkQk5xrP-tnl7vb7KeAoPd5ZlqKKW8KV","playlistName":"شرح كتاب بهجة النفوس أ.د . يسرى جبر","category":"متنوع"},{"id":"sAUxljXEkcg","title":"فضل صلة الرحم | أ.د. يسري جبر","publishedAt":"2022-04-26T15:30:11Z","duration":"PT41M3S","thumbnail":"https://i.ytimg.com/vi/sAUxljXEkcg/mqdefault.jpg","viewCount":"2586","playlistId":"PLEkQk5xrP-tnl7vb7KeAoPd5ZlqKKW8KV","playlistName":"شرح كتاب بهجة النفوس أ.د . يسرى جبر","category":"متنوع"},{"id":"T9vkqO3x4Bc","title":"فن إكرام الجار | مجالس رمضانية","publishedAt":"2023-03-25T15:00:31Z","duration":"PT42M42S","thumbnail":"https://i.ytimg.com/vi/T9vkqO3x4Bc/mqdefault.jpg","viewCount":"1250","playlistId":"PLEkQk5xrP-tnl7vb7KeAoPd5ZlqKKW8KV","playlistName":"شرح كتاب بهجة النفوس أ.د . يسرى جبر","category":"متنوع"},{"id":"YbMaLKA_yHg","title":"رحمة الله لمن يرحم عباده | مجالس رمضانية","publishedAt":"2023-03-24T15:00:23Z","duration":"PT35M55S","thumbnail":"https://i.ytimg.com/vi/YbMaLKA_yHg/mqdefault.jpg","viewCount":"1994","playlistId":"PLEkQk5xrP-tnl7vb7KeAoPd5ZlqKKW8KV","playlistName":"شرح كتاب بهجة النفوس أ.د . يسرى جبر","category":"متنوع"},{"id":"Bns7ny3WoQo","title":"وصايا النَّبيّ ﷺ لتعمير الأرض | مجالس رمضانية","publishedAt":"2023-03-23T15:01:20Z","duration":"PT1H4M24S","thumbnail":"https://i.ytimg.com/vi/Bns7ny3WoQo/mqdefault.jpg","viewCount":"2213","playlistId":"PLEkQk5xrP-tnl7vb7KeAoPd5ZlqKKW8KV","playlistName":"شرح كتاب بهجة النفوس أ.د . يسرى جبر","category":"متنوع"},{"id":"_6ZuAxUt8Ps","title":"حديث (١٧٦) حديثُ إلقاء الرجل المتظاهر بالصلاح في النار   أ د  يسري جبر","publishedAt":"2019-05-29T12:54:04Z","duration":"PT24M10S","thumbnail":"https://i.ytimg.com/vi/_6ZuAxUt8Ps/mqdefault.jpg","viewCount":"407","playlistId":"PLEkQk5xrP-tnl7vb7KeAoPd5ZlqKKW8KV","playlistName":"شرح كتاب بهجة النفوس أ.د . يسرى جبر","category":"متنوع"},{"id":"OVoU8BZlp9Q","title":"حديث (١٧٥) حديثُ عِظَم حَرِّ نَارِ جَهَنَّمَ .  أ.د. يسري جبر","publishedAt":"2019-05-29T09:50:53Z","duration":"PT15M25S","thumbnail":"https://i.ytimg.com/vi/OVoU8BZlp9Q/mqdefault.jpg","viewCount":"498","playlistId":"PLEkQk5xrP-tnl7vb7KeAoPd5ZlqKKW8KV","playlistName":"شرح كتاب بهجة النفوس أ.د . يسرى جبر","category":"متنوع"},{"id":"HW43CPZ1nOk","title":"حديث (١٧٤) التداوي من الحُمَّى بالماء  أ.د. يسري جبر","publishedAt":"2019-05-28T13:59:41Z","duration":"PT25M10S","thumbnail":"https://i.ytimg.com/vi/HW43CPZ1nOk/mqdefault.jpg","viewCount":"630","playlistId":"PLEkQk5xrP-tnl7vb7KeAoPd5ZlqKKW8KV","playlistName":"شرح كتاب بهجة النفوس أ.د . يسرى جبر","category":"متنوع"},{"id":"AkU2mBAl2tQ","title":"( 119 ) حديث الإفك وبراءة السيدة عائشة أم المؤمنين منه","publishedAt":"2016-06-22T16:38:01Z","duration":"PT27M57S","thumbnail":"https://i.ytimg.com/vi/AkU2mBAl2tQ/mqdefault.jpg","viewCount":"460","playlistId":"PLEkQk5xrP-tnl7vb7KeAoPd5ZlqKKW8KV","playlistName":"شرح كتاب بهجة النفوس أ.د . يسرى جبر","category":"متنوع"},{"id":"gE_wS0qe6-A","title":"( 118 ) حديث الثلاثة المعذبون","publishedAt":"2016-06-21T14:55:38Z","duration":"PT16M34S","thumbnail":"https://i.ytimg.com/vi/gE_wS0qe6-A/mqdefault.jpg","viewCount":"384","playlistId":"PLEkQk5xrP-tnl7vb7KeAoPd5ZlqKKW8KV","playlistName":"شرح كتاب بهجة النفوس أ.د . يسرى جبر","category":"متنوع"},{"id":"c05Dgol5t_o","title":"( 117 ) حديث النهي عن مدح الرجل في وجهه","publishedAt":"2016-06-20T16:37:23Z","duration":"PT33M11S","thumbnail":"https://i.ytimg.com/vi/c05Dgol5t_o/mqdefault.jpg","viewCount":"781","playlistId":"PLEkQk5xrP-tnl7vb7KeAoPd5ZlqKKW8KV","playlistName":"شرح كتاب بهجة النفوس أ.د . يسرى جبر","category":"متنوع"},{"id":"I0bYLcJbjac","title":"( 116 ) حديث يحرم من الرضاع ما يحرم من النسب","publishedAt":"2016-06-19T15:26:24Z","duration":"PT30M19S","thumbnail":"https://i.ytimg.com/vi/I0bYLcJbjac/mqdefault.jpg","viewCount":"941","playlistId":"PLEkQk5xrP-tnl7vb7KeAoPd5ZlqKKW8KV","playlistName":"شرح كتاب بهجة النفوس أ.د . يسرى جبر","category":"متنوع"},{"id":"Ot7c1LgCy-U","title":"( 115 ) حديث تحليل نكاح المبتوتة لمطلقها الأول","publishedAt":"2016-06-18T16:52:01Z","duration":"PT29M8S","thumbnail":"https://i.ytimg.com/vi/Ot7c1LgCy-U/mqdefault.jpg","viewCount":"584","playlistId":"PLEkQk5xrP-tnl7vb7KeAoPd5ZlqKKW8KV","playlistName":"شرح كتاب بهجة النفوس أ.د . يسرى جبر","category":"متنوع"}],"total":237,"page":3,"pageSize":24,"totalPages":10}