{"items":[{"id":"xNPi7qYCQqc","title":"تفسير شرب اللبن والخمر في المنام | مجالس رمضانية","publishedAt":"2024-03-11T14:00:49Z","duration":"PT27M19S","thumbnail":"https://i.ytimg.com/vi/xNPi7qYCQqc/mqdefault.jpg","viewCount":"2451","playlistId":"PLEkQk5xrP-tnl7vb7KeAoPd5ZlqKKW8KV","playlistName":"شرح كتاب بهجة النفوس أ.د . يسرى جبر","category":"متنوع"},{"id":"A686tGZkUuI","title":"الفرق بين العادة والعبادة | أ.د. يسري جبر","publishedAt":"2022-04-12T19:40:02Z","duration":"PT19M58S","thumbnail":"https://i.ytimg.com/vi/A686tGZkUuI/mqdefault.jpg","viewCount":"2437","playlistId":"PLEkQk5xrP-tnl7vb7KeAoPd5ZlqKKW8KV","playlistName":"شرح كتاب بهجة النفوس أ.د . يسرى جبر","category":"متنوع"},{"id":"rGKurQiTMHQ","title":"وَصِيَّةُ النَّبيّ ﷺ للأُمَّة ٤ والأخير | أ.د. يسري جبر","publishedAt":"2022-04-11T17:53:58Z","duration":"PT20M29S","thumbnail":"https://i.ytimg.com/vi/rGKurQiTMHQ/mqdefault.jpg","viewCount":"1171","playlistId":"PLEkQk5xrP-tnl7vb7KeAoPd5ZlqKKW8KV","playlistName":"شرح كتاب بهجة النفوس أ.د . يسرى جبر","category":"متنوع"},{"id":"FKHBcXk8psQ","title":"وَصِيَّةُ النَّبيّ ﷺ للأُمَّة ۳ | أ.د. يسري جبر","publishedAt":"2022-04-10T17:14:15Z","duration":"PT23M14S","thumbnail":"https://i.ytimg.com/vi/FKHBcXk8psQ/mqdefault.jpg","viewCount":"918","playlistId":"PLEkQk5xrP-tnl7vb7KeAoPd5ZlqKKW8KV","playlistName":"شرح كتاب بهجة النفوس أ.د . يسرى جبر","category":"متنوع"},{"id":"SfBTomMgGbI","title":"وَصِيَّةُ النَّبيّ ﷺ للأُمَّة ۲ | أ.د. يسري جبر","publishedAt":"2022-04-09T15:30:04Z","duration":"PT29M31S","thumbnail":"https://i.ytimg.com/vi/SfBTomMgGbI/mqdefault.jpg","viewCount":"1114","playlistId":"PLEkQk5xrP-tnl7vb7KeAoPd5ZlqKKW8KV","playlistName":"شرح كتاب بهجة النفوس أ.د . يسرى جبر","category":"متنوع"},{"id":"_hLidYq2PWI","title":"حقيقة رؤيا النبي ﷺ في المنام | مجالس رمضانية","publishedAt":"2024-03-10T14:00:22Z","duration":"PT30M50S","thumbnail":"https://i.ytimg.com/vi/_hLidYq2PWI/mqdefault.jpg","viewCount":"4120","playlistId":"PLEkQk5xrP-tnl7vb7KeAoPd5ZlqKKW8KV","playlistName":"شرح كتاب بهجة النفوس أ.د . يسرى جبر","category":"متنوع"},{"id":"Wp62SXYw8Vk","title":"هل يمكن رؤية النبي ﷺ في اليقظة؟ | مجالس رمضانية","publishedAt":"2024-03-09T14:30:10Z","duration":"PT40M43S","thumbnail":"https://i.ytimg.com/vi/Wp62SXYw8Vk/mqdefault.jpg","viewCount":"10142","playlistId":"PLEkQk5xrP-tnl7vb7KeAoPd5ZlqKKW8KV","playlistName":"شرح كتاب بهجة النفوس أ.د . يسرى جبر","category":"متنوع"},{"id":"3ldxdXs_d1o","title":"من سنن النبيﷺ في النظافة | أ.د. يسري جبر","publishedAt":"2021-05-11T17:00:02Z","duration":"PT31M12S","thumbnail":"https://i.ytimg.com/vi/3ldxdXs_d1o/mqdefault.jpg","viewCount":"1632","playlistId":"PLEkQk5xrP-tnl7vb7KeAoPd5ZlqKKW8KV","playlistName":"شرح كتاب بهجة النفوس أ.د . يسرى جبر","category":"متنوع"},{"id":"apcCdnNfaMU","title":"سر إفطار النبي ﷺ علي التمر | أ.د. يسري جبر","publishedAt":"2021-05-10T16:00:02Z","duration":"PT34M39S","thumbnail":"https://i.ytimg.com/vi/apcCdnNfaMU/mqdefault.jpg","viewCount":"3336","playlistId":"PLEkQk5xrP-tnl7vb7KeAoPd5ZlqKKW8KV","playlistName":"شرح كتاب بهجة النفوس أ.د . يسرى جبر","category":"متنوع"},{"id":"5s2wqdSh2-c","title":"وصايا النبي ﷺ لمواجهة الكورونا | أ.د. يسري جبر","publishedAt":"2021-04-21T17:06:51Z","duration":"PT34M2S","thumbnail":"https://i.ytimg.com/vi/5s2wqdSh2-c/mqdefault.jpg","viewCount":"1490","playlistId":"PLEkQk5xrP-tnl7vb7KeAoPd5ZlqKKW8KV","playlistName":"شرح كتاب بهجة النفوس أ.د . يسرى جبر","category":"متنوع"},{"id":"OgirG_I7Q5A","title":"من علامات أخر الزمان | أ.د. يسري جبر","publishedAt":"2021-04-20T17:12:40Z","duration":"PT27M45S","thumbnail":"https://i.ytimg.com/vi/OgirG_I7Q5A/mqdefault.jpg","viewCount":"6806","playlistId":"PLEkQk5xrP-tnl7vb7KeAoPd5ZlqKKW8KV","playlistName":"شرح كتاب بهجة النفوس أ.د . يسرى جبر","category":"متنوع"},{"id":"7N76rzFAE0k","title":"حَدِيث (١٨۹)\"الوفاء ببعية الأمراء\" | أ.د. يسري جبر","publishedAt":"2021-04-19T17:03:56Z","duration":"PT41M59S","thumbnail":"https://i.ytimg.com/vi/7N76rzFAE0k/mqdefault.jpg","viewCount":"801","playlistId":"PLEkQk5xrP-tnl7vb7KeAoPd5ZlqKKW8KV","playlistName":"شرح كتاب بهجة النفوس أ.د . يسرى جبر","category":"متنوع"},{"id":"ArDStHo64Yw","title":"حَدِيث (١٨٨)\"من أمر عند موته بحرق جسده...\" | أ.د. يسري جبر","publishedAt":"2021-04-18T15:30:02Z","duration":"PT12M56S","thumbnail":"https://i.ytimg.com/vi/ArDStHo64Yw/mqdefault.jpg","viewCount":"886","playlistId":"PLEkQk5xrP-tnl7vb7KeAoPd5ZlqKKW8KV","playlistName":"شرح كتاب بهجة النفوس أ.د . يسرى جبر","category":"متنوع"},{"id":"Z64XqjEubmM","title":"(١٧٣) حديثُ عِظَمِ شَجَرِ الجَنَّةِ.  أ.د. يسري جبر","publishedAt":"2019-05-26T13:22:09Z","duration":"PT16M44S","thumbnail":"https://i.ytimg.com/vi/Z64XqjEubmM/mqdefault.jpg","viewCount":"928","playlistId":"PLEkQk5xrP-tnl7vb7KeAoPd5ZlqKKW8KV","playlistName":"شرح كتاب بهجة النفوس أ.د . يسرى جبر","category":"متنوع"},{"id":"y0cv-flzt8s","title":"١٧٢) حديثُ أول زمرة تدخل الجنة. أ.د. يسري جبر)","publishedAt":"2019-05-25T17:04:40Z","duration":"PT22M6S","thumbnail":"https://i.ytimg.com/vi/y0cv-flzt8s/mqdefault.jpg","viewCount":"1762","playlistId":"PLEkQk5xrP-tnl7vb7KeAoPd5ZlqKKW8KV","playlistName":"شرح كتاب بهجة النفوس أ.د . يسرى جبر","category":"متنوع"},{"id":"mcz0PjPYyQU","title":"حديث (١٧١) بِشارتُه صلَّى اللهُ عليه وآله وسلَّم للفقراءِ بأنَّهم أكثرُ أهلِ الجنَّة. أ.د. يسري جبر","publishedAt":"2019-05-24T15:13:13Z","duration":"PT16M39S","thumbnail":"https://i.ytimg.com/vi/mcz0PjPYyQU/mqdefault.jpg","viewCount":"1123","playlistId":"PLEkQk5xrP-tnl7vb7KeAoPd5ZlqKKW8KV","playlistName":"شرح كتاب بهجة النفوس أ.د . يسرى جبر","category":"متنوع"},{"id":"NreH3C0CqcY","title":"حديث (١٧٠) الأَمر بِالاسْتِعَاذَةِ باللَّهِ تَعَالَى منَ الشَّيْطَانِ عند وَسْوَسَتِه. أ.د. يسري جبر","publishedAt":"2019-05-23T16:33:20Z","duration":"PT16M35S","thumbnail":"https://i.ytimg.com/vi/NreH3C0CqcY/mqdefault.jpg","viewCount":"815","playlistId":"PLEkQk5xrP-tnl7vb7KeAoPd5ZlqKKW8KV","playlistName":"شرح كتاب بهجة النفوس أ.د . يسرى جبر","category":"متنوع"},{"id":"rpb8vSZ-TrM","title":"حديث (١٦٩)  النَّهي عن الصَّلاةِ حينَ طُلوعِ الشَّمسِ وغُرُوبِها.   أ.د. يسري جبر","publishedAt":"2019-05-22T16:43:22Z","duration":"PT29M13S","thumbnail":"https://i.ytimg.com/vi/rpb8vSZ-TrM/mqdefault.jpg","viewCount":"736","playlistId":"PLEkQk5xrP-tnl7vb7KeAoPd5ZlqKKW8KV","playlistName":"شرح كتاب بهجة النفوس أ.د . يسرى جبر","category":"متنوع"},{"id":"ra_4H615x8o","title":"حديث (١٦٨) ذِكْرُ اسم الله تعالى عند إِرادة الجِماع.  أ.د. يسري جبر","publishedAt":"2019-05-21T16:40:33Z","duration":"PT20M54S","thumbnail":"https://i.ytimg.com/vi/ra_4H615x8o/mqdefault.jpg","viewCount":"1158","playlistId":"PLEkQk5xrP-tnl7vb7KeAoPd5ZlqKKW8KV","playlistName":"شرح كتاب بهجة النفوس أ.د . يسرى جبر","category":"متنوع"},{"id":"06mmAz78mDA","title":"حديث (١٦٧) عَقْدُ الشَّيطَانِ عَلَى رَأسِ النَّائِمِ.  أ.د. يسري جبر","publishedAt":"2019-05-20T16:38:49Z","duration":"PT23M42S","thumbnail":"https://i.ytimg.com/vi/06mmAz78mDA/mqdefault.jpg","viewCount":"1393","playlistId":"PLEkQk5xrP-tnl7vb7KeAoPd5ZlqKKW8KV","playlistName":"شرح كتاب بهجة النفوس أ.د . يسرى جبر","category":"متنوع"},{"id":"rEPdGBI_7A4","title":"عقوبة الغدر والخيانة | مجالس رمضانية","publishedAt":"2023-03-31T15:00:41Z","duration":"PT39M27S","thumbnail":"https://i.ytimg.com/vi/rEPdGBI_7A4/mqdefault.jpg","viewCount":"1706","playlistId":"PLEkQk5xrP-tnl7vb7KeAoPd5ZlqKKW8KV","playlistName":"شرح كتاب بهجة النفوس أ.د . يسرى جبر","category":"متنوع"},{"id":"hq4o9O4Lcv8","title":"حكم الاستماع للموسيقى والشعر | مجالس رمضانية","publishedAt":"2023-03-30T15:00:35Z","duration":"PT46M4S","thumbnail":"https://i.ytimg.com/vi/hq4o9O4Lcv8/mqdefault.jpg","viewCount":"1753","playlistId":"PLEkQk5xrP-tnl7vb7KeAoPd5ZlqKKW8KV","playlistName":"شرح كتاب بهجة النفوس أ.د . يسرى جبر","category":"متنوع"},{"id":"XfAHR2s_f6k","title":"حديث (١٦٥)  وُجُوبُ طَاعَةِ الزَّوجَةِ لِزَوجِهَا للفِرَاشِ.  أ.د. يسري جبر","publishedAt":"2019-05-18T17:13:15Z","duration":"PT16M53S","thumbnail":"https://i.ytimg.com/vi/XfAHR2s_f6k/mqdefault.jpg","viewCount":"2398","playlistId":"PLEkQk5xrP-tnl7vb7KeAoPd5ZlqKKW8KV","playlistName":"شرح كتاب بهجة النفوس أ.د . يسرى جبر","category":"متنوع"},{"id":"ki4VlgP4Urg","title":"حديث (١٦٦) عَرْضُ الجَنَّةِ أو النَّارِ عَلَى الِإنسَانِ حِينَ مَوتِهِ.  أ.د. يسري جبر","publishedAt":"2019-05-19T18:05:57Z","duration":"PT33M51S","thumbnail":"https://i.ytimg.com/vi/ki4VlgP4Urg/mqdefault.jpg","viewCount":"3673","playlistId":"PLEkQk5xrP-tnl7vb7KeAoPd5ZlqKKW8KV","playlistName":"شرح كتاب بهجة النفوس أ.د . يسرى جبر","category":"متنوع"}],"total":237,"page":4,"pageSize":24,"totalPages":10}