{"items":[{"id":"5499_-C2v8Y","title":"ما حكم سب الأموات؟ | مجالس رمضانية","publishedAt":"2023-04-14T10:00:04Z","duration":"PT30M31S","thumbnail":"https://i.ytimg.com/vi/5499_-C2v8Y/mqdefault.jpg","viewCount":"882","playlistId":"PLEkQk5xrP-tnl7vb7KeAoPd5ZlqKKW8KV","playlistName":"شرح كتاب بهجة النفوس أ.د . يسرى جبر","category":"متنوع"},{"id":"MwKFESYF3GU","title":"فرح المؤمن عند لقاء ربه | مجالس رمضانية","publishedAt":"2023-04-13T15:00:12Z","duration":"PT27M45S","thumbnail":"https://i.ytimg.com/vi/MwKFESYF3GU/mqdefault.jpg","viewCount":"1617","playlistId":"PLEkQk5xrP-tnl7vb7KeAoPd5ZlqKKW8KV","playlistName":"شرح كتاب بهجة النفوس أ.د . يسرى جبر","category":"متنوع"},{"id":"nVN9BTbjeyY","title":"ما هى أنواع الذكر؟ | مجالس رمضانية","publishedAt":"2023-04-13T10:00:39Z","duration":"PT29M3S","thumbnail":"https://i.ytimg.com/vi/nVN9BTbjeyY/mqdefault.jpg","viewCount":"2726","playlistId":"PLEkQk5xrP-tnl7vb7KeAoPd5ZlqKKW8KV","playlistName":"شرح كتاب بهجة النفوس أ.د . يسرى جبر","category":"متنوع"},{"id":"dHGpirZmLaU","title":"هل يفرح الله بتوبة عباده؟ | مجالس رمضانية","publishedAt":"2023-04-12T15:00:25Z","duration":"PT55M15S","thumbnail":"https://i.ytimg.com/vi/dHGpirZmLaU/mqdefault.jpg","viewCount":"1515","playlistId":"PLEkQk5xrP-tnl7vb7KeAoPd5ZlqKKW8KV","playlistName":"شرح كتاب بهجة النفوس أ.د . يسرى جبر","category":"متنوع"},{"id":"ubrQ4rC1gxI","title":"الخوف من الذنب | مجالس رمضانية","publishedAt":"2023-04-12T10:00:42Z","duration":"PT47M10S","thumbnail":"https://i.ytimg.com/vi/ubrQ4rC1gxI/mqdefault.jpg","viewCount":"2143","playlistId":"PLEkQk5xrP-tnl7vb7KeAoPd5ZlqKKW8KV","playlistName":"شرح كتاب بهجة النفوس أ.د . يسرى جبر","category":"متنوع"},{"id":"zcXO2fARutg","title":"شرح دعاء سيد الاستغفار | مجالس رمضانية","publishedAt":"2023-04-11T15:00:50Z","duration":"PT37M45S","thumbnail":"https://i.ytimg.com/vi/zcXO2fARutg/mqdefault.jpg","viewCount":"3779","playlistId":"PLEkQk5xrP-tnl7vb7KeAoPd5ZlqKKW8KV","playlistName":"شرح كتاب بهجة النفوس أ.د . يسرى جبر","category":"متنوع"},{"id":"pL9cFTSRKPQ","title":"( 119 ) حديث الإفك وبراءة السيدة عائشة أم المؤمنين منه - المجلس الرابع عشر د. يسري جبر","publishedAt":"2017-05-28T14:15:59Z","duration":"PT39M23S","thumbnail":"https://i.ytimg.com/vi/pL9cFTSRKPQ/mqdefault.jpg","viewCount":"321","playlistId":"PLEkQk5xrP-tnl7vb7KeAoPd5ZlqKKW8KV","playlistName":"شرح كتاب بهجة النفوس أ.د . يسرى جبر","category":"متنوع"},{"id":"TbgqklcWsBE","title":"( 119 ) حديث الإفك وبراءة السيدة عائشة أم المؤمنين منه - المجلس الثالث عشر د. يسري جبر","publishedAt":"2017-05-27T15:35:01Z","duration":"PT36M3S","thumbnail":"https://i.ytimg.com/vi/TbgqklcWsBE/mqdefault.jpg","viewCount":"299","playlistId":"PLEkQk5xrP-tnl7vb7KeAoPd5ZlqKKW8KV","playlistName":"شرح كتاب بهجة النفوس أ.د . يسرى جبر","category":"متنوع"},{"id":"7bMK5lHDHFA","title":"( 119 ) حديث الإفك وبراءة السيدة عائشة أم المؤمنين منه - المجلس الثاني عشر","publishedAt":"2017-05-25T17:54:22Z","duration":"PT28M26S","thumbnail":"https://i.ytimg.com/vi/7bMK5lHDHFA/mqdefault.jpg","viewCount":"217","playlistId":"PLEkQk5xrP-tnl7vb7KeAoPd5ZlqKKW8KV","playlistName":"شرح كتاب بهجة النفوس أ.د . يسرى جبر","category":"متنوع"},{"id":"LZYCvxWGVL4","title":"التحصن بالقرآن عند النوم | أ.د. يسري جبر","publishedAt":"2021-04-30T15:30:02Z","duration":"PT36M31S","thumbnail":"https://i.ytimg.com/vi/LZYCvxWGVL4/mqdefault.jpg","viewCount":"5742","playlistId":"PLEkQk5xrP-tnl7vb7KeAoPd5ZlqKKW8KV","playlistName":"شرح كتاب بهجة النفوس أ.د . يسرى جبر","category":"متنوع"},{"id":"Ouj_6l-0Xkg","title":"فضل أخر سورة البقرة | أ.د. يسري جبر","publishedAt":"2021-04-29T14:05:00Z","duration":"PT23M3S","thumbnail":"https://i.ytimg.com/vi/Ouj_6l-0Xkg/mqdefault.jpg","viewCount":"4105","playlistId":"PLEkQk5xrP-tnl7vb7KeAoPd5ZlqKKW8KV","playlistName":"شرح كتاب بهجة النفوس أ.د . يسرى جبر","category":"متنوع"},{"id":"j1e3OkzaAs0","title":"فضل قراءة وحفظ القرآن | أ.د. يسري جبر","publishedAt":"2021-04-28T16:37:19Z","duration":"PT30M4S","thumbnail":"https://i.ytimg.com/vi/j1e3OkzaAs0/mqdefault.jpg","viewCount":"11303","playlistId":"PLEkQk5xrP-tnl7vb7KeAoPd5ZlqKKW8KV","playlistName":"شرح كتاب بهجة النفوس أ.د . يسرى جبر","category":"متنوع"},{"id":"XbN2BwG1PSw","title":"طاعة الأمير لا تكون إلا في معروف | أ.د. يسري جبر","publishedAt":"2021-04-27T17:00:10Z","duration":"PT34M15S","thumbnail":"https://i.ytimg.com/vi/XbN2BwG1PSw/mqdefault.jpg","viewCount":"881","playlistId":"PLEkQk5xrP-tnl7vb7KeAoPd5ZlqKKW8KV","playlistName":"شرح كتاب بهجة النفوس أ.د . يسرى جبر","category":"متنوع"},{"id":"EVPC1IlCME8","title":"أحكام الربا بين الماضي والحاضر | أ.د. يسري جبر","publishedAt":"2021-04-26T15:30:01Z","duration":"PT28M55S","thumbnail":"https://i.ytimg.com/vi/EVPC1IlCME8/mqdefault.jpg","viewCount":"10467","playlistId":"PLEkQk5xrP-tnl7vb7KeAoPd5ZlqKKW8KV","playlistName":"شرح كتاب بهجة النفوس أ.د . يسرى جبر","category":"متنوع"},{"id":"khpoOIh5BC4","title":"معجزة بركة النبي ﷺ | أ.د. يسري جبر","publishedAt":"2021-04-25T16:00:29Z","duration":"PT29M59S","thumbnail":"https://i.ytimg.com/vi/khpoOIh5BC4/mqdefault.jpg","viewCount":"4430","playlistId":"PLEkQk5xrP-tnl7vb7KeAoPd5ZlqKKW8KV","playlistName":"شرح كتاب بهجة النفوس أ.د . يسرى جبر","category":"متنوع"},{"id":"oR7jNJZWdb4","title":"جمال اختيارات النبي ﷺ | أ.د. يسري جبر","publishedAt":"2021-04-24T16:00:33Z","duration":"PT39M38S","thumbnail":"https://i.ytimg.com/vi/oR7jNJZWdb4/mqdefault.jpg","viewCount":"2337","playlistId":"PLEkQk5xrP-tnl7vb7KeAoPd5ZlqKKW8KV","playlistName":"شرح كتاب بهجة النفوس أ.د . يسرى جبر","category":"متنوع"},{"id":"r2rxgrXEOvc","title":"الفرق بين الشفاعة و\"الواسطة\" | أ.د. يسري جبر","publishedAt":"2021-04-23T15:30:04Z","duration":"PT32M37S","thumbnail":"https://i.ytimg.com/vi/r2rxgrXEOvc/mqdefault.jpg","viewCount":"1948","playlistId":"PLEkQk5xrP-tnl7vb7KeAoPd5ZlqKKW8KV","playlistName":"شرح كتاب بهجة النفوس أ.د . يسرى جبر","category":"متنوع"},{"id":"z7RX4EquMbc","title":"فضل الصبر على الوباء | أ.د. يسري جبر","publishedAt":"2021-04-22T17:01:10Z","duration":"PT21M14S","thumbnail":"https://i.ytimg.com/vi/z7RX4EquMbc/mqdefault.jpg","viewCount":"949","playlistId":"PLEkQk5xrP-tnl7vb7KeAoPd5ZlqKKW8KV","playlistName":"شرح كتاب بهجة النفوس أ.د . يسرى جبر","category":"متنوع"},{"id":"qgz6OeXfblo","title":"١٤٤ حديث وعظ المجاهدين د. يسري جبر","publishedAt":"2018-05-21T02:51:47Z","duration":"PT39M","thumbnail":"https://i.ytimg.com/vi/qgz6OeXfblo/mqdefault.jpg","viewCount":"442","playlistId":"PLEkQk5xrP-tnl7vb7KeAoPd5ZlqKKW8KV","playlistName":"شرح كتاب بهجة النفوس أ.د . يسرى جبر","category":"متنوع"},{"id":"m650j4HSECo","title":"١٤٣ حديث قتال المشركين حتى يعلنوا بكلمة التوحيد د. يسري جبر","publishedAt":"2018-05-20T23:12:35Z","duration":"PT27M6S","thumbnail":"https://i.ytimg.com/vi/m650j4HSECo/mqdefault.jpg","viewCount":"1295","playlistId":"PLEkQk5xrP-tnl7vb7KeAoPd5ZlqKKW8KV","playlistName":"شرح كتاب بهجة النفوس أ.د . يسرى جبر","category":"متنوع"},{"id":"OpLZ-Sqt_CM","title":"١٤٢ حديث من أشراط الساعة  د. يسري جبر","publishedAt":"2018-05-20T23:09:57Z","duration":"PT14M44S","thumbnail":"https://i.ytimg.com/vi/OpLZ-Sqt_CM/mqdefault.jpg","viewCount":"6411","playlistId":"PLEkQk5xrP-tnl7vb7KeAoPd5ZlqKKW8KV","playlistName":"شرح كتاب بهجة النفوس أ.د . يسرى جبر","category":"متنوع"},{"id":"YDEu7kQkhy0","title":"( 119 ) حديث الإفك وبراءة السيدة عائشة أم المؤمنين منه - المجلس التاسع","publishedAt":"2016-07-23T18:43:08Z","duration":"PT33M15S","thumbnail":"https://i.ytimg.com/vi/YDEu7kQkhy0/mqdefault.jpg","viewCount":"222","playlistId":"PLEkQk5xrP-tnl7vb7KeAoPd5ZlqKKW8KV","playlistName":"شرح كتاب بهجة النفوس أ.د . يسرى جبر","category":"متنوع"},{"id":"LhmeUT7x9M0","title":"( 119 ) حديث الإفك وبراءة السيدة عائشة أم المؤمنين منه - المجلس الثامن","publishedAt":"2016-07-20T16:09:02Z","duration":"PT21M53S","thumbnail":"https://i.ytimg.com/vi/LhmeUT7x9M0/mqdefault.jpg","viewCount":"185","playlistId":"PLEkQk5xrP-tnl7vb7KeAoPd5ZlqKKW8KV","playlistName":"شرح كتاب بهجة النفوس أ.د . يسرى جبر","category":"متنوع"},{"id":"OWqh8cGea7M","title":"( 119 ) حديث الإفك وبراءة السيدة عائشة أم المؤمنين منه - المجلس السابع","publishedAt":"2016-07-18T15:58:00Z","duration":"PT24M59S","thumbnail":"https://i.ytimg.com/vi/OWqh8cGea7M/mqdefault.jpg","viewCount":"221","playlistId":"PLEkQk5xrP-tnl7vb7KeAoPd5ZlqKKW8KV","playlistName":"شرح كتاب بهجة النفوس أ.د . يسرى جبر","category":"متنوع"}],"total":237,"page":9,"pageSize":24,"totalPages":10}