{"items":[{"id":"PEuOSErirtg","title":"شرح كتاب فتح القريب المجيب كتاب الجنائز «فصل فيما يتعلق بالميت من غسله وتكفينه» د. يسري رشدي جبر","publishedAt":"2015-10-28T18:59:12Z","duration":"PT1H33M15S","thumbnail":"https://i.ytimg.com/vi/PEuOSErirtg/mqdefault.jpg","viewCount":"1343","playlistId":"PLEkQk5xrP-tlyOgfNBZTZgoATzVW4mI20","playlistName":"كتاب فتح القريب المجيب (علم الفقه الشافعي)","category":"فقه"},{"id":"H_zMY6_cO5Q","title":"شرح كتاب فتح القريب المجيب «باب أحكام صلاة الجمعة﻿» د. يسري رشدي جبر","publishedAt":"2015-10-31T18:26:01Z","duration":"PT1H26M36S","thumbnail":"https://i.ytimg.com/vi/H_zMY6_cO5Q/mqdefault.jpg","viewCount":"1624","playlistId":"PLEkQk5xrP-tlyOgfNBZTZgoATzVW4mI20","playlistName":"كتاب فتح القريب المجيب (علم الفقه الشافعي)","category":"فقه"},{"id":"ZEOhpdZ-FeA","title":"شرح كتاب فتح القريب المجيب كتاب أحكام الزكاة د. يسري رشدي جبر","publishedAt":"2015-11-01T21:11:35Z","duration":"PT45M29S","thumbnail":"https://i.ytimg.com/vi/ZEOhpdZ-FeA/mqdefault.jpg","viewCount":"2150","playlistId":"PLEkQk5xrP-tlyOgfNBZTZgoATzVW4mI20","playlistName":"كتاب فتح القريب المجيب (علم الفقه الشافعي)","category":"فقه"},{"id":"m9rDdmIfxK0","title":"شرح كتاب فتح القريب المجيب فصلٌ في نصاب الإبل د. يسري رشدي جبر","publishedAt":"2015-11-13T12:44:44Z","duration":"PT25M22S","thumbnail":"https://i.ytimg.com/vi/m9rDdmIfxK0/mqdefault.jpg","viewCount":"776","playlistId":"PLEkQk5xrP-tlyOgfNBZTZgoATzVW4mI20","playlistName":"كتاب فتح القريب المجيب (علم الفقه الشافعي)","category":"فقه"},{"id":"irwpD8Vkfsc","title":"شرح كتاب فتح القريب المجيب فصلٌ في نصاب الزروع د. يسري رشدي جبر","publishedAt":"2015-12-11T23:02:17Z","duration":"PT1H36M4S","thumbnail":"https://i.ytimg.com/vi/irwpD8Vkfsc/mqdefault.jpg","viewCount":"1154","playlistId":"PLEkQk5xrP-tlyOgfNBZTZgoATzVW4mI20","playlistName":"كتاب فتح القريب المجيب (علم الفقه الشافعي)","category":"فقه"},{"id":"QtYwmmUSD4M","title":"شرح كتاب فتح القريب المجيب كتاب أحكام الصيام د. يسري رشدي جبر","publishedAt":"2016-01-15T12:10:16Z","duration":"PT28M37S","thumbnail":"https://i.ytimg.com/vi/QtYwmmUSD4M/mqdefault.jpg","viewCount":"1964","playlistId":"PLEkQk5xrP-tlyOgfNBZTZgoATzVW4mI20","playlistName":"كتاب فتح القريب المجيب (علم الفقه الشافعي)","category":"فقه"},{"id":"cmI7idNnea4","title":"شرح كتاب فتح القريب ( فصل في أحكام الأطعمة )","publishedAt":"2016-11-14T04:30:57Z","duration":"PT32M56S","thumbnail":"https://i.ytimg.com/vi/cmI7idNnea4/mqdefault.jpg","viewCount":"436","playlistId":"PLEkQk5xrP-tlyOgfNBZTZgoATzVW4mI20","playlistName":"كتاب فتح القريب المجيب (علم الفقه الشافعي)","category":"فقه"},{"id":"ZF2fTn-o-_M","title":"شرح كتاب فتح القريب - فصل في أحكام الأضحية والعقيقة","publishedAt":"2016-11-26T16:35:21Z","duration":"PT49M10S","thumbnail":"https://i.ytimg.com/vi/ZF2fTn-o-_M/mqdefault.jpg","viewCount":"454","playlistId":"PLEkQk5xrP-tlyOgfNBZTZgoATzVW4mI20","playlistName":"كتاب فتح القريب المجيب (علم الفقه الشافعي)","category":"فقه"},{"id":"FzdnH4RYI-o","title":"شرح فتح القريب المجيب - كتاب أحكام السبق والرمي","publishedAt":"2016-12-21T18:26:02Z","duration":"PT24M29S","thumbnail":"https://i.ytimg.com/vi/FzdnH4RYI-o/mqdefault.jpg","viewCount":"404","playlistId":"PLEkQk5xrP-tlyOgfNBZTZgoATzVW4mI20","playlistName":"كتاب فتح القريب المجيب (علم الفقه الشافعي)","category":"فقه"},{"id":"nG-qPU4ndLY","title":"شرح فتح القريب المجيب - كتاب أحكام الأيمان والنذور","publishedAt":"2017-01-07T14:49:02Z","duration":"PT31M35S","thumbnail":"https://i.ytimg.com/vi/nG-qPU4ndLY/mqdefault.jpg","viewCount":"698","playlistId":"PLEkQk5xrP-tlyOgfNBZTZgoATzVW4mI20","playlistName":"كتاب فتح القريب المجيب (علم الفقه الشافعي)","category":"فقه"},{"id":"9h85yoU5wOs","title":"شرح فتح القريب المجيب كتاب أحكام الأقضية والشهادات - المجلس الأول","publishedAt":"2017-02-09T08:24:36Z","duration":"PT43M35S","thumbnail":"https://i.ytimg.com/vi/9h85yoU5wOs/mqdefault.jpg","viewCount":"603","playlistId":"PLEkQk5xrP-tlyOgfNBZTZgoATzVW4mI20","playlistName":"كتاب فتح القريب المجيب (علم الفقه الشافعي)","category":"فقه"},{"id":"XDIyKh7jElY","title":"شرح فتح القريب المجيب كتاب أحكام الأقضية والشهادات - المجلس الثاني","publishedAt":"2017-02-24T09:43:51Z","duration":"PT23M43S","thumbnail":"https://i.ytimg.com/vi/XDIyKh7jElY/mqdefault.jpg","viewCount":"642","playlistId":"PLEkQk5xrP-tlyOgfNBZTZgoATzVW4mI20","playlistName":"كتاب فتح القريب المجيب (علم الفقه الشافعي)","category":"فقه"},{"id":"q89Eu2j1Wqw","title":"شرح مسند الإمام محمد بن إدريس الشافعيّ رضي الله تعالى عنه - المجلس الأول  أ.د. يسري جبر","publishedAt":"2019-10-24T11:16:35Z","duration":"PT58M39S","thumbnail":"https://i.ytimg.com/vi/q89Eu2j1Wqw/mqdefault.jpg","viewCount":"5637","playlistId":"PLEkQk5xrP-tlDtaqY0qhNXAiZ19gaGzKI","playlistName":"شرح مسند الإمام محمد بن إدريس الشافعيّ رضي الله تعالى عنه","category":"فقه"},{"id":"s7to7tJ4U3g","title":"شرح مسند الإمام محمد بن إدريس الشافعيّ رضي الله تعالى عنه - المجلس الثاني  أ.د. يسري جبر","publishedAt":"2019-11-06T13:46:27Z","duration":"PT53M13S","thumbnail":"https://i.ytimg.com/vi/s7to7tJ4U3g/mqdefault.jpg","viewCount":"2066","playlistId":"PLEkQk5xrP-tlDtaqY0qhNXAiZ19gaGzKI","playlistName":"شرح مسند الإمام محمد بن إدريس الشافعيّ رضي الله تعالى عنه","category":"فقه"},{"id":"iEcIqReFzqE","title":"شرح مسند الإمام محمد بن إدريس الشافعيّ رضي الله تعالى عنه - المجلس الثالث    أ.د. يسري جبر","publishedAt":"2019-11-12T18:17:13Z","duration":"PT48M36S","thumbnail":"https://i.ytimg.com/vi/iEcIqReFzqE/mqdefault.jpg","viewCount":"1762","playlistId":"PLEkQk5xrP-tlDtaqY0qhNXAiZ19gaGzKI","playlistName":"شرح مسند الإمام محمد بن إدريس الشافعيّ رضي الله تعالى عنه","category":"فقه"},{"id":"KHdlJ-yJhhc","title":"شرح مسند الإمام محمد بن إدريس الشافعيّ رضي الله تعالى عنه - المجلس الرابع  أ.د. يسري جبر","publishedAt":"2019-11-21T04:51:46Z","duration":"PT46M57S","thumbnail":"https://i.ytimg.com/vi/KHdlJ-yJhhc/mqdefault.jpg","viewCount":"1504","playlistId":"PLEkQk5xrP-tlDtaqY0qhNXAiZ19gaGzKI","playlistName":"شرح مسند الإمام محمد بن إدريس الشافعيّ رضي الله تعالى عنه","category":"فقه"},{"id":"a0FMWMB15Iw","title":"شرح مسند الإمام محمد بن إدريس الشافعيّ رضي الله تعالى عنه - المجلس الخامس  أ.د. يسري جبر","publishedAt":"2019-12-04T18:40:46Z","duration":"PT48M25S","thumbnail":"https://i.ytimg.com/vi/a0FMWMB15Iw/mqdefault.jpg","viewCount":"1386","playlistId":"PLEkQk5xrP-tlDtaqY0qhNXAiZ19gaGzKI","playlistName":"شرح مسند الإمام محمد بن إدريس الشافعيّ رضي الله تعالى عنه","category":"فقه"},{"id":"QC5974HEMJA","title":"6- شرح مسند الإمام محمد بن إدريس الشافعيّ رضي الله تعالى عنه - المجلس السادس  أ.د. يسري جبر","publishedAt":"2019-12-11T14:34:02Z","duration":"PT58M8S","thumbnail":"https://i.ytimg.com/vi/QC5974HEMJA/mqdefault.jpg","viewCount":"1266","playlistId":"PLEkQk5xrP-tlDtaqY0qhNXAiZ19gaGzKI","playlistName":"شرح مسند الإمام محمد بن إدريس الشافعيّ رضي الله تعالى عنه","category":"فقه"},{"id":"50eTflHCQf4","title":"شرح مسند الإمام محمد بن إدريس الشافعيّ رضي الله تعالى عنه - المجلس السابع  أ.د. يسري جبر","publishedAt":"2019-12-22T12:00:12Z","duration":"PT51M56S","thumbnail":"https://i.ytimg.com/vi/50eTflHCQf4/mqdefault.jpg","viewCount":"991","playlistId":"PLEkQk5xrP-tlDtaqY0qhNXAiZ19gaGzKI","playlistName":"شرح مسند الإمام محمد بن إدريس الشافعيّ رضي الله تعالى عنه","category":"فقه"},{"id":"Ytrh34bdOOg","title":"شرح مسند الإمام محمد بن إدريس الشافعيّ رضي الله تعالى عنه - المجلس الثامن  أ.د. يسري جبر","publishedAt":"2020-01-11T13:07:43Z","duration":"PT58M17S","thumbnail":"https://i.ytimg.com/vi/Ytrh34bdOOg/mqdefault.jpg","viewCount":"926","playlistId":"PLEkQk5xrP-tlDtaqY0qhNXAiZ19gaGzKI","playlistName":"شرح مسند الإمام محمد بن إدريس الشافعيّ رضي الله تعالى عنه","category":"فقه"},{"id":"ajGpkbm2eH0","title":"شرح مسند الإمام محمد بن إدريس الشافعيّ رضي الله تعالى عنه - المجلس التاسع  أ.د. يسري جبر","publishedAt":"2020-01-12T08:51:47Z","duration":"PT59M29S","thumbnail":"https://i.ytimg.com/vi/ajGpkbm2eH0/mqdefault.jpg","viewCount":"884","playlistId":"PLEkQk5xrP-tlDtaqY0qhNXAiZ19gaGzKI","playlistName":"شرح مسند الإمام محمد بن إدريس الشافعيّ رضي الله تعالى عنه","category":"فقه"},{"id":"7YyfOSc_Jfc","title":"شرح مسند الإمام محمد بن إدريس الشافعيّ رضي الله تعالى عنه - المجلس العاشر  أ.د. يسري جبر","publishedAt":"2020-01-19T14:45:17Z","duration":"PT54M12S","thumbnail":"https://i.ytimg.com/vi/7YyfOSc_Jfc/mqdefault.jpg","viewCount":"827","playlistId":"PLEkQk5xrP-tlDtaqY0qhNXAiZ19gaGzKI","playlistName":"شرح مسند الإمام محمد بن إدريس الشافعيّ رضي الله تعالى عنه","category":"فقه"},{"id":"z-d-aDtPwn0","title":"شرح مسند الإمام محمد بن إدريس الشافعيّ رضي الله تعالى عنه - المجلس الحادي عشر  أ.د. يسري جبر","publishedAt":"2020-01-25T18:44:59Z","duration":"PT50M54S","thumbnail":"https://i.ytimg.com/vi/z-d-aDtPwn0/mqdefault.jpg","viewCount":"750","playlistId":"PLEkQk5xrP-tlDtaqY0qhNXAiZ19gaGzKI","playlistName":"شرح مسند الإمام محمد بن إدريس الشافعيّ رضي الله تعالى عنه","category":"فقه"},{"id":"_Y511U_2tEE","title":"شرح مسند الإمام محمد بن إدريس الشافعيّ رضي الله تعالى عنه - المجلس الثاني عشر  أ.د. يسري جبر","publishedAt":"2020-02-01T18:02:19Z","duration":"PT47M35S","thumbnail":"https://i.ytimg.com/vi/_Y511U_2tEE/mqdefault.jpg","viewCount":"770","playlistId":"PLEkQk5xrP-tlDtaqY0qhNXAiZ19gaGzKI","playlistName":"شرح مسند الإمام محمد بن إدريس الشافعيّ رضي الله تعالى عنه","category":"فقه"}],"total":144,"page":2,"pageSize":24,"totalPages":6}