{"items":[{"id":"PEuOSErirtg","title":"شرح كتاب فتح القريب المجيب كتاب الجنائز «فصل فيما يتعلق بالميت من غسله وتكفينه» د. يسري رشدي جبر","publishedAt":"2015-10-28T18:59:12Z","duration":"PT1H33M15S","thumbnail":"https://i.ytimg.com/vi/PEuOSErirtg/mqdefault.jpg","viewCount":"1343","playlistId":"PLEkQk5xrP-tlyOgfNBZTZgoATzVW4mI20","playlistName":"كتاب فتح القريب المجيب (علم الفقه الشافعي)","category":"فقه"},{"id":"H_zMY6_cO5Q","title":"شرح كتاب فتح القريب المجيب «باب أحكام صلاة الجمعة﻿» د. يسري رشدي جبر","publishedAt":"2015-10-31T18:26:01Z","duration":"PT1H26M36S","thumbnail":"https://i.ytimg.com/vi/H_zMY6_cO5Q/mqdefault.jpg","viewCount":"1624","playlistId":"PLEkQk5xrP-tlyOgfNBZTZgoATzVW4mI20","playlistName":"كتاب فتح القريب المجيب (علم الفقه الشافعي)","category":"فقه"},{"id":"ZEOhpdZ-FeA","title":"شرح كتاب فتح القريب المجيب كتاب أحكام الزكاة د. يسري رشدي جبر","publishedAt":"2015-11-01T21:11:35Z","duration":"PT45M29S","thumbnail":"https://i.ytimg.com/vi/ZEOhpdZ-FeA/mqdefault.jpg","viewCount":"2150","playlistId":"PLEkQk5xrP-tlyOgfNBZTZgoATzVW4mI20","playlistName":"كتاب فتح القريب المجيب (علم الفقه الشافعي)","category":"فقه"},{"id":"m9rDdmIfxK0","title":"شرح كتاب فتح القريب المجيب فصلٌ في نصاب الإبل د. يسري رشدي جبر","publishedAt":"2015-11-13T12:44:44Z","duration":"PT25M22S","thumbnail":"https://i.ytimg.com/vi/m9rDdmIfxK0/mqdefault.jpg","viewCount":"776","playlistId":"PLEkQk5xrP-tlyOgfNBZTZgoATzVW4mI20","playlistName":"كتاب فتح القريب المجيب (علم الفقه الشافعي)","category":"فقه"},{"id":"irwpD8Vkfsc","title":"شرح كتاب فتح القريب المجيب فصلٌ في نصاب الزروع د. يسري رشدي جبر","publishedAt":"2015-12-11T23:02:17Z","duration":"PT1H36M4S","thumbnail":"https://i.ytimg.com/vi/irwpD8Vkfsc/mqdefault.jpg","viewCount":"1154","playlistId":"PLEkQk5xrP-tlyOgfNBZTZgoATzVW4mI20","playlistName":"كتاب فتح القريب المجيب (علم الفقه الشافعي)","category":"فقه"},{"id":"QtYwmmUSD4M","title":"شرح كتاب فتح القريب المجيب كتاب أحكام الصيام د. يسري رشدي جبر","publishedAt":"2016-01-15T12:10:16Z","duration":"PT28M37S","thumbnail":"https://i.ytimg.com/vi/QtYwmmUSD4M/mqdefault.jpg","viewCount":"1964","playlistId":"PLEkQk5xrP-tlyOgfNBZTZgoATzVW4mI20","playlistName":"كتاب فتح القريب المجيب (علم الفقه الشافعي)","category":"فقه"},{"id":"cmI7idNnea4","title":"شرح كتاب فتح القريب ( فصل في أحكام الأطعمة )","publishedAt":"2016-11-14T04:30:57Z","duration":"PT32M56S","thumbnail":"https://i.ytimg.com/vi/cmI7idNnea4/mqdefault.jpg","viewCount":"436","playlistId":"PLEkQk5xrP-tlyOgfNBZTZgoATzVW4mI20","playlistName":"كتاب فتح القريب المجيب (علم الفقه الشافعي)","category":"فقه"},{"id":"ZF2fTn-o-_M","title":"شرح كتاب فتح القريب - فصل في أحكام الأضحية والعقيقة","publishedAt":"2016-11-26T16:35:21Z","duration":"PT49M10S","thumbnail":"https://i.ytimg.com/vi/ZF2fTn-o-_M/mqdefault.jpg","viewCount":"454","playlistId":"PLEkQk5xrP-tlyOgfNBZTZgoATzVW4mI20","playlistName":"كتاب فتح القريب المجيب (علم الفقه الشافعي)","category":"فقه"},{"id":"FzdnH4RYI-o","title":"شرح فتح القريب المجيب - كتاب أحكام السبق والرمي","publishedAt":"2016-12-21T18:26:02Z","duration":"PT24M29S","thumbnail":"https://i.ytimg.com/vi/FzdnH4RYI-o/mqdefault.jpg","viewCount":"404","playlistId":"PLEkQk5xrP-tlyOgfNBZTZgoATzVW4mI20","playlistName":"كتاب فتح القريب المجيب (علم الفقه الشافعي)","category":"فقه"},{"id":"nG-qPU4ndLY","title":"شرح فتح القريب المجيب - كتاب أحكام الأيمان والنذور","publishedAt":"2017-01-07T14:49:02Z","duration":"PT31M35S","thumbnail":"https://i.ytimg.com/vi/nG-qPU4ndLY/mqdefault.jpg","viewCount":"698","playlistId":"PLEkQk5xrP-tlyOgfNBZTZgoATzVW4mI20","playlistName":"كتاب فتح القريب المجيب (علم الفقه الشافعي)","category":"فقه"},{"id":"9h85yoU5wOs","title":"شرح فتح القريب المجيب كتاب أحكام الأقضية والشهادات - المجلس الأول","publishedAt":"2017-02-09T08:24:36Z","duration":"PT43M35S","thumbnail":"https://i.ytimg.com/vi/9h85yoU5wOs/mqdefault.jpg","viewCount":"603","playlistId":"PLEkQk5xrP-tlyOgfNBZTZgoATzVW4mI20","playlistName":"كتاب فتح القريب المجيب (علم الفقه الشافعي)","category":"فقه"},{"id":"XDIyKh7jElY","title":"شرح فتح القريب المجيب كتاب أحكام الأقضية والشهادات - المجلس الثاني","publishedAt":"2017-02-24T09:43:51Z","duration":"PT23M43S","thumbnail":"https://i.ytimg.com/vi/XDIyKh7jElY/mqdefault.jpg","viewCount":"643","playlistId":"PLEkQk5xrP-tlyOgfNBZTZgoATzVW4mI20","playlistName":"كتاب فتح القريب المجيب (علم الفقه الشافعي)","category":"فقه"}],"total":36,"page":2,"pageSize":24,"totalPages":2}