{"items":[{"id":"F44CbPmkyEk","title":"شرح صحيح البخاري كتاب اللباس من باب ٦٩","publishedAt":"2018-08-22T18:29:57Z","duration":"PT31M45S","thumbnail":"https://i.ytimg.com/vi/F44CbPmkyEk/mqdefault.jpg","viewCount":"486","playlistId":"PLEkQk5xrP-tlEerGoLa1AFy-2XvQ-sovv","playlistName":"شرح صحيح البخاري - أ.د. يسري جبر (كاملا)","category":"حديث"},{"id":"jsiNiU8jJxA","title":"59- شرح اللؤلؤ والمرجان كتاب الصيام من أوله","publishedAt":"2020-02-07T06:00:05Z","duration":"PT21M42S","thumbnail":"https://i.ytimg.com/vi/jsiNiU8jJxA/mqdefault.jpg","viewCount":"486","playlistId":"PLEkQk5xrP-tmKNjtYLfhATC37QdIsTMe0","playlistName":"شرح كتاب اللؤلؤ والمرجان فيما اتفق عليه الشيخان إماما المحدثين البخاري ومسلم. أ.د. يسري جبر","category":"حديث"},{"id":"GmVaTE01QOw","title":"شرح صحيح البخاري - كتاب الوصايا من باب ٣٢","publishedAt":"2017-07-23T21:12:38Z","duration":"PT15M25S","thumbnail":"https://i.ytimg.com/vi/GmVaTE01QOw/mqdefault.jpg","viewCount":"485","playlistId":"PLEkQk5xrP-tlEerGoLa1AFy-2XvQ-sovv","playlistName":"شرح صحيح البخاري - أ.د. يسري جبر (كاملا)","category":"حديث"},{"id":"NUgR9jVoi2M","title":"شرح صحيح البخاري كتاب الرقاق من باب ٣٦","publishedAt":"2018-10-30T09:53:37Z","duration":"PT35M55S","thumbnail":"https://i.ytimg.com/vi/NUgR9jVoi2M/mqdefault.jpg","viewCount":"485","playlistId":"PLEkQk5xrP-tlEerGoLa1AFy-2XvQ-sovv","playlistName":"شرح صحيح البخاري - أ.د. يسري جبر (كاملا)","category":"حديث"},{"id":"qlrMdbpODUY","title":"شرح صحيح البخاري كتاب الاستئذان من باب ٢٢","publishedAt":"2018-09-25T22:02:53Z","duration":"PT34M31S","thumbnail":"https://i.ytimg.com/vi/qlrMdbpODUY/mqdefault.jpg","viewCount":"485","playlistId":"PLEkQk5xrP-tlEerGoLa1AFy-2XvQ-sovv","playlistName":"شرح صحيح البخاري - أ.د. يسري جبر (كاملا)","category":"حديث"},{"id":"pHF5D5gL3L4","title":"شرح صحيح البخاري كتاب فضائل القرآن من باب ٩","publishedAt":"2018-05-07T12:13:25Z","duration":"PT41M18S","thumbnail":"https://i.ytimg.com/vi/pHF5D5gL3L4/mqdefault.jpg","viewCount":"485","playlistId":"PLEkQk5xrP-tlEerGoLa1AFy-2XvQ-sovv","playlistName":"شرح صحيح البخاري - أ.د. يسري جبر (كاملا)","category":"حديث"},{"id":"SaetOACGeVw","title":"شرح صحيح البخاري كتاب النكاح من باب ١١٩","publishedAt":"2018-06-12T16:02:48Z","duration":"PT28M21S","thumbnail":"https://i.ytimg.com/vi/SaetOACGeVw/mqdefault.jpg","viewCount":"484","playlistId":"PLEkQk5xrP-tlEerGoLa1AFy-2XvQ-sovv","playlistName":"شرح صحيح البخاري - أ.د. يسري جبر (كاملا)","category":"حديث"},{"id":"0Fbetlwe9lY","title":"شرح صحيح الإمام البخاري رضي الله تعالى عنه - كتابُِ أَخْبَارِ الآحَادِ  أ.د. يسري جبر","publishedAt":"2019-12-03T16:05:56Z","duration":"PT36M8S","thumbnail":"https://i.ytimg.com/vi/0Fbetlwe9lY/mqdefault.jpg","viewCount":"483","playlistId":"PLEkQk5xrP-tmJuzaj4GWRenFoFx9gdbFX","playlistName":"شرح كتاب صحيح الإمام البخاري رضي الله تعالى عنه   أ.د. يسرى جبر","category":"حديث"},{"id":"IkUX-9tqfdo","title":"شرح صحيح البخاري - كتاب الجهاد والسير من باب ١٢٣","publishedAt":"2017-08-14T15:01:30Z","duration":"PT24M44S","thumbnail":"https://i.ytimg.com/vi/IkUX-9tqfdo/mqdefault.jpg","viewCount":"483","playlistId":"PLEkQk5xrP-tlEerGoLa1AFy-2XvQ-sovv","playlistName":"شرح صحيح البخاري - أ.د. يسري جبر (كاملا)","category":"حديث"},{"id":"bNfoAWFPZds","title":"شرح صحيح البخاري كتاب التفسير فى سورة التغابن من أولها","publishedAt":"2018-04-27T20:13:46Z","duration":"PT45M43S","thumbnail":"https://i.ytimg.com/vi/bNfoAWFPZds/mqdefault.jpg","viewCount":"483","playlistId":"PLEkQk5xrP-tlEerGoLa1AFy-2XvQ-sovv","playlistName":"شرح صحيح البخاري - أ.د. يسري جبر (كاملا)","category":"حديث"},{"id":"dxRonZbvO4A","title":"شرح صحيح البخاري كتاب الرقاق من باب ٤٤","publishedAt":"2018-11-01T20:06:19Z","duration":"PT32M23S","thumbnail":"https://i.ytimg.com/vi/dxRonZbvO4A/mqdefault.jpg","viewCount":"481","playlistId":"PLEkQk5xrP-tlEerGoLa1AFy-2XvQ-sovv","playlistName":"شرح صحيح البخاري - أ.د. يسري جبر (كاملا)","category":"حديث"},{"id":"zIyPEtPuXyE","title":"شرح صحيح البخاري كتاب الاعتصام بالكتاب والسنة من باب ٧","publishedAt":"2019-01-25T14:55:37Z","duration":"PT29M25S","thumbnail":"https://i.ytimg.com/vi/zIyPEtPuXyE/mqdefault.jpg","viewCount":"481","playlistId":"PLEkQk5xrP-tlEerGoLa1AFy-2XvQ-sovv","playlistName":"شرح صحيح البخاري - أ.د. يسري جبر (كاملا)","category":"حديث"},{"id":"Se7U0i6BziE","title":"شرح صحيح البخاري كتاب التفسير فى سورة آل عمران من باب ٤","publishedAt":"2018-03-14T14:51:36Z","duration":"PT22M17S","thumbnail":"https://i.ytimg.com/vi/Se7U0i6BziE/mqdefault.jpg","viewCount":"479","playlistId":"PLEkQk5xrP-tlEerGoLa1AFy-2XvQ-sovv","playlistName":"شرح صحيح البخاري - أ.د. يسري جبر (كاملا)","category":"حديث"},{"id":"Gx_lETe_yKo","title":"شرح صحيح البخاري كتاب التعبير من باب ٦","publishedAt":"2018-12-22T21:31:05Z","duration":"PT21M18S","thumbnail":"https://i.ytimg.com/vi/Gx_lETe_yKo/mqdefault.jpg","viewCount":"479","playlistId":"PLEkQk5xrP-tlEerGoLa1AFy-2XvQ-sovv","playlistName":"شرح صحيح البخاري - أ.د. يسري جبر (كاملا)","category":"حديث"},{"id":"FxT5T6Fd9GA","title":"شرح صحيح البخاري كتاب الرقاق من باب ٥٣","publishedAt":"2018-11-06T08:05:41Z","duration":"PT33M2S","thumbnail":"https://i.ytimg.com/vi/FxT5T6Fd9GA/mqdefault.jpg","viewCount":"479","playlistId":"PLEkQk5xrP-tlEerGoLa1AFy-2XvQ-sovv","playlistName":"شرح صحيح البخاري - أ.د. يسري جبر (كاملا)","category":"حديث"},{"id":"nqqDIkv0Jf4","title":"شرح صحيح البخاري - كتاب الجزية والموادعة من باب ٤","publishedAt":"2017-09-05T17:30:43Z","duration":"PT31M17S","thumbnail":"https://i.ytimg.com/vi/nqqDIkv0Jf4/mqdefault.jpg","viewCount":"479","playlistId":"PLEkQk5xrP-tlEerGoLa1AFy-2XvQ-sovv","playlistName":"شرح صحيح البخاري - أ.د. يسري جبر (كاملا)","category":"حديث"},{"id":"vIl9lR2l2Rk","title":"شرح صحيح البخاري كتاب التفسير فى سورة الجمعة والمنافقون من أولها","publishedAt":"2018-04-26T20:13:10Z","duration":"PT41M19S","thumbnail":"https://i.ytimg.com/vi/vIl9lR2l2Rk/mqdefault.jpg","viewCount":"479","playlistId":"PLEkQk5xrP-tlEerGoLa1AFy-2XvQ-sovv","playlistName":"شرح صحيح البخاري - أ.د. يسري جبر (كاملا)","category":"حديث"},{"id":"KzAHwxQlkUU","title":"109- شرح اللؤلؤ والمرجان كتاب الجهاد من أوله","publishedAt":"2020-03-30T07:00:03Z","duration":"PT26M55S","thumbnail":"https://i.ytimg.com/vi/KzAHwxQlkUU/mqdefault.jpg","viewCount":"478","playlistId":"PLEkQk5xrP-tmKNjtYLfhATC37QdIsTMe0","playlistName":"شرح كتاب اللؤلؤ والمرجان فيما اتفق عليه الشيخان إماما المحدثين البخاري ومسلم. أ.د. يسري جبر","category":"حديث"},{"id":"uEr6jY_N1Vo","title":"77- شرح اللؤلؤ والمرجان كتاب النكاح من أوله","publishedAt":"2020-02-25T06:00:18Z","duration":"PT22M41S","thumbnail":"https://i.ytimg.com/vi/uEr6jY_N1Vo/mqdefault.jpg","viewCount":"478","playlistId":"PLEkQk5xrP-tmKNjtYLfhATC37QdIsTMe0","playlistName":"شرح كتاب اللؤلؤ والمرجان فيما اتفق عليه الشيخان إماما المحدثين البخاري ومسلم. أ.د. يسري جبر","category":"حديث"},{"id":"wbCAxoQZUW0","title":"56- شرح اللؤلؤ والمرجان كتاب الزكاة من الباب الثاني والثلاثين","publishedAt":"2020-02-05T06:00:06Z","duration":"PT32M2S","thumbnail":"https://i.ytimg.com/vi/wbCAxoQZUW0/mqdefault.jpg","viewCount":"478","playlistId":"PLEkQk5xrP-tmKNjtYLfhATC37QdIsTMe0","playlistName":"شرح كتاب اللؤلؤ والمرجان فيما اتفق عليه الشيخان إماما المحدثين البخاري ومسلم. أ.د. يسري جبر","category":"حديث"},{"id":"_pbuqKYfqxM","title":"‎شرح صحيح الإمام البخاري رضي الله تعالى عنه - كتابُ الاعتصَامِ بالكِتابِ والسُّنَّةِ. أ.د. يسري جبر","publishedAt":"2020-01-06T20:02:45Z","duration":"PT49M11S","thumbnail":"https://i.ytimg.com/vi/_pbuqKYfqxM/mqdefault.jpg","viewCount":"478","playlistId":"PLEkQk5xrP-tmJuzaj4GWRenFoFx9gdbFX","playlistName":"شرح كتاب صحيح الإمام البخاري رضي الله تعالى عنه   أ.د. يسرى جبر","category":"حديث"},{"id":"wtsZL-eocQg","title":"شرح صحيح البخاري كتاب الأضاحي من باب ٩","publishedAt":"2018-07-24T08:46:39Z","duration":"PT32M44S","thumbnail":"https://i.ytimg.com/vi/wtsZL-eocQg/mqdefault.jpg","viewCount":"478","playlistId":"PLEkQk5xrP-tlEerGoLa1AFy-2XvQ-sovv","playlistName":"شرح صحيح البخاري - أ.د. يسري جبر (كاملا)","category":"حديث"},{"id":"n20n6cPIGCw","title":"شرح صحيح البخاري - كتاب الجهاد والسير من باب ١١٦","publishedAt":"2017-08-13T14:16:56Z","duration":"PT31M3S","thumbnail":"https://i.ytimg.com/vi/n20n6cPIGCw/mqdefault.jpg","viewCount":"478","playlistId":"PLEkQk5xrP-tlEerGoLa1AFy-2XvQ-sovv","playlistName":"شرح صحيح البخاري - أ.د. يسري جبر (كاملا)","category":"حديث"},{"id":"wveajyk_x_0","title":"54- شرح اللؤلؤ والمرجان كتاب الزكاة من الباب السادس عشر","publishedAt":"2020-02-03T06:00:08Z","duration":"PT27M18S","thumbnail":"https://i.ytimg.com/vi/wveajyk_x_0/mqdefault.jpg","viewCount":"477","playlistId":"PLEkQk5xrP-tmKNjtYLfhATC37QdIsTMe0","playlistName":"شرح كتاب اللؤلؤ والمرجان فيما اتفق عليه الشيخان إماما المحدثين البخاري ومسلم. أ.د. يسري جبر","category":"حديث"}],"total":1218,"page":34,"pageSize":24,"totalPages":51}