{"items":[{"id":"6YKMJYuKwT0","title":"شرح كتاب الأذكار من كلام سيد الأبرار للإمام النووى رضى الله عنه - المجلس الرابع والعشرون","publishedAt":"2015-05-14T14:28:51Z","duration":"PT18M24S","thumbnail":"https://i.ytimg.com/vi/6YKMJYuKwT0/mqdefault.jpg","viewCount":"357","playlistId":"PLEkQk5xrP-tkWS57Ubysh0ifJR8dmuEtE","playlistName":"شرح كتاب الأذكار للإمام النووي د. يسرى جبر","category":"حديث"},{"id":"IVlNJELGUNA","title":"48- شرح اللؤلؤ والمرجان كتاب صلاة الكسوف من باب ٣","publishedAt":"2020-01-27T22:03:30Z","duration":"PT21M37S","thumbnail":"https://i.ytimg.com/vi/IVlNJELGUNA/mqdefault.jpg","viewCount":"357","playlistId":"PLEkQk5xrP-tmKNjtYLfhATC37QdIsTMe0","playlistName":"شرح كتاب اللؤلؤ والمرجان فيما اتفق عليه الشيخان إماما المحدثين البخاري ومسلم. أ.د. يسري جبر","category":"حديث"},{"id":"geMxDUHmBCM","title":"شرح صحيح البخاري كتاب الطلا‎ق من باب ٤٥","publishedAt":"2018-06-27T16:08:29Z","duration":"PT22M44S","thumbnail":"https://i.ytimg.com/vi/geMxDUHmBCM/mqdefault.jpg","viewCount":"356","playlistId":"PLEkQk5xrP-tlEerGoLa1AFy-2XvQ-sovv","playlistName":"شرح صحيح البخاري - أ.د. يسري جبر (كاملا)","category":"حديث"},{"id":"oS_bpGQIwVM","title":"شرح صحيح البخاري كتاب الطلا‎ق من باب ٤٢","publishedAt":"2018-06-26T17:34:46Z","duration":"PT18M6S","thumbnail":"https://i.ytimg.com/vi/oS_bpGQIwVM/mqdefault.jpg","viewCount":"356","playlistId":"PLEkQk5xrP-tlEerGoLa1AFy-2XvQ-sovv","playlistName":"شرح صحيح البخاري - أ.د. يسري جبر (كاملا)","category":"حديث"},{"id":"wqXmx4k5CV0","title":"95- شرح اللؤلؤ والمرجان كتاب المساقاة من الباب العشرين","publishedAt":"2020-03-14T06:30:00Z","duration":"PT30M8S","thumbnail":"https://i.ytimg.com/vi/wqXmx4k5CV0/mqdefault.jpg","viewCount":"351","playlistId":"PLEkQk5xrP-tmKNjtYLfhATC37QdIsTMe0","playlistName":"شرح كتاب اللؤلؤ والمرجان فيما اتفق عليه الشيخان إماما المحدثين البخاري ومسلم. أ.د. يسري جبر","category":"حديث"},{"id":"QGuSKprTzbw","title":"شرح صحيح البخاري كتاب الأحكام من باب ٢٥","publishedAt":"2019-01-11T21:18:18Z","duration":"PT26M3S","thumbnail":"https://i.ytimg.com/vi/QGuSKprTzbw/mqdefault.jpg","viewCount":"347","playlistId":"PLEkQk5xrP-tlEerGoLa1AFy-2XvQ-sovv","playlistName":"شرح صحيح البخاري - أ.د. يسري جبر (كاملا)","category":"حديث"},{"id":"SFHiu8lDH20","title":"‎شرح صحيح الإمام البخاري رضي الله تعالى عنه - كتابُ الاعتصَامِ بالكِتابِ والسُّنَّةِ. أ.د. يسري جبر","publishedAt":"2020-01-25T08:48:47Z","duration":"PT51M29S","thumbnail":"https://i.ytimg.com/vi/SFHiu8lDH20/mqdefault.jpg","viewCount":"346","playlistId":"PLEkQk5xrP-tmJuzaj4GWRenFoFx9gdbFX","playlistName":"شرح كتاب صحيح الإمام البخاري رضي الله تعالى عنه   أ.د. يسرى جبر","category":"حديث"},{"id":"mnvV6ENNNBk","title":"98- شرح اللؤلؤ والمرجان كتاب الهبات من أوله","publishedAt":"2020-03-17T06:30:00Z","duration":"PT17M20S","thumbnail":"https://i.ytimg.com/vi/mnvV6ENNNBk/mqdefault.jpg","viewCount":"343","playlistId":"PLEkQk5xrP-tmKNjtYLfhATC37QdIsTMe0","playlistName":"شرح كتاب اللؤلؤ والمرجان فيما اتفق عليه الشيخان إماما المحدثين البخاري ومسلم. أ.د. يسري جبر","category":"حديث"},{"id":"0DEUby0G55o","title":"شرح كتاب الأذكار من كلام سيد الأبرار للإمام النووى رضى الله عنه - المجلس الواحد والعشرون","publishedAt":"2015-04-25T19:10:36Z","duration":"PT19M10S","thumbnail":"https://i.ytimg.com/vi/0DEUby0G55o/mqdefault.jpg","viewCount":"342","playlistId":"PLEkQk5xrP-tkWS57Ubysh0ifJR8dmuEtE","playlistName":"شرح كتاب الأذكار للإمام النووي د. يسرى جبر","category":"حديث"},{"id":"1jBVGmueAYE","title":"82- شرح اللؤلؤ والمرجان كتاب الرضاع من الباب العاشر","publishedAt":"2020-03-01T06:00:00Z","duration":"PT21M27S","thumbnail":"https://i.ytimg.com/vi/1jBVGmueAYE/mqdefault.jpg","viewCount":"340","playlistId":"PLEkQk5xrP-tmKNjtYLfhATC37QdIsTMe0","playlistName":"شرح كتاب اللؤلؤ والمرجان فيما اتفق عليه الشيخان إماما المحدثين البخاري ومسلم. أ.د. يسري جبر","category":"حديث"},{"id":"UKd0ROq031g","title":"شرح صحيح البخاري كتاب المحاربين من أهل الكفر والردة من باب ٢٦","publishedAt":"2018-12-02T15:24:20Z","duration":"PT36M55S","thumbnail":"https://i.ytimg.com/vi/UKd0ROq031g/mqdefault.jpg","viewCount":"338","playlistId":"PLEkQk5xrP-tlEerGoLa1AFy-2XvQ-sovv","playlistName":"شرح صحيح البخاري - أ.د. يسري جبر (كاملا)","category":"حديث"},{"id":"4redUdCrriU","title":"‎شرح صحيح الإمام البخاري رضي الله تعالى عنه - كتابُ الاعتصَامِ بالكِتابِ والسُّنَّةِ. أ.د. يسري جبر","publishedAt":"2020-02-13T12:24:26Z","duration":"PT39M6S","thumbnail":"https://i.ytimg.com/vi/4redUdCrriU/mqdefault.jpg","viewCount":"338","playlistId":"PLEkQk5xrP-tmJuzaj4GWRenFoFx9gdbFX","playlistName":"شرح كتاب صحيح الإمام البخاري رضي الله تعالى عنه   أ.د. يسرى جبر","category":"حديث"},{"id":"U5DicequGdA","title":"شرح حديث سبعة يظلهم الله يوم القيامة في ظل عرشه (8/9)","publishedAt":"2014-05-09T14:54:46Z","duration":"PT41M21S","thumbnail":"https://i.ytimg.com/vi/U5DicequGdA/mqdefault.jpg","viewCount":"336","playlistId":"PLEkQk5xrP-tnzqzkOeEPbbPLsxgy-MYcW","playlistName":"شرح حديث سبعة يظلهم الله يوم القيامة في ظل عرشه - كتاب بهجة  النفوس - د. يسري جبر","category":"حديث"},{"id":"-icP_4ECmrw","title":"75- شرح اللؤلؤ والمرجان كتاب الحج من الباب الخامس والثمانين","publishedAt":"2020-02-23T06:00:00Z","duration":"PT24M6S","thumbnail":"https://i.ytimg.com/vi/-icP_4ECmrw/mqdefault.jpg","viewCount":"333","playlistId":"PLEkQk5xrP-tmKNjtYLfhATC37QdIsTMe0","playlistName":"شرح كتاب اللؤلؤ والمرجان فيما اتفق عليه الشيخان إماما المحدثين البخاري ومسلم. أ.د. يسري جبر","category":"حديث"},{"id":"957Hx8iZwys","title":"شرح صحيح البخاري كتاب الإعتصام بالكتاب والسنة من باب ١٨","publishedAt":"2019-01-28T10:30:15Z","duration":"PT28M8S","thumbnail":"https://i.ytimg.com/vi/957Hx8iZwys/mqdefault.jpg","viewCount":"333","playlistId":"PLEkQk5xrP-tlEerGoLa1AFy-2XvQ-sovv","playlistName":"شرح صحيح البخاري - أ.د. يسري جبر (كاملا)","category":"حديث"},{"id":"jlu-_U0h48w","title":"شرح صحيح الإمام البخاري رضي الله عنه - كتاب الحدود باب رجم الحُبْلى من الزنا إذا أحصنت  د.يسري جبر","publishedAt":"2018-03-13T18:54:56Z","duration":"PT45M31S","thumbnail":"https://i.ytimg.com/vi/jlu-_U0h48w/mqdefault.jpg","viewCount":"332","playlistId":"PLEkQk5xrP-tmJuzaj4GWRenFoFx9gdbFX","playlistName":"شرح كتاب صحيح الإمام البخاري رضي الله تعالى عنه   أ.د. يسرى جبر","category":"حديث"},{"id":"lRoDXA0hmik","title":"‎شرح صحيح الإمام البخاري رضي الله تعالى عنه - كتاب الاعتصام من أوله - أ.د. يسري جبر","publishedAt":"2019-12-12T08:25:37Z","duration":"PT26M28S","thumbnail":"https://i.ytimg.com/vi/lRoDXA0hmik/mqdefault.jpg","viewCount":"331","playlistId":"PLEkQk5xrP-tmJuzaj4GWRenFoFx9gdbFX","playlistName":"شرح كتاب صحيح الإمام البخاري رضي الله تعالى عنه   أ.د. يسرى جبر","category":"حديث"},{"id":"wGXrWAk47BA","title":"صحيح الإمام البخارى رضى الله عنه - كتاب فضائل القرآن - المجلس الثالث","publishedAt":"2014-12-14T04:28:42Z","duration":"PT1H4M18S","thumbnail":"https://i.ytimg.com/vi/wGXrWAk47BA/mqdefault.jpg","viewCount":"329","playlistId":"PLEkQk5xrP-tmJuzaj4GWRenFoFx9gdbFX","playlistName":"شرح كتاب صحيح الإمام البخاري رضي الله تعالى عنه   أ.د. يسرى جبر","category":"حديث"},{"id":"9SkTTkcHOdQ","title":"شرح كتاب الأذكار من كلام سيد الأبرار للإمام النووى رضى الله عنه - المجلس السادس والعشرون","publishedAt":"2015-05-27T03:55:25Z","duration":"PT13M7S","thumbnail":"https://i.ytimg.com/vi/9SkTTkcHOdQ/mqdefault.jpg","viewCount":"328","playlistId":"PLEkQk5xrP-tkWS57Ubysh0ifJR8dmuEtE","playlistName":"شرح كتاب الأذكار للإمام النووي د. يسرى جبر","category":"حديث"},{"id":"sUGI69O5fbY","title":"شرح صحيح الإمام البخاري رضي الله تعالى عنه - كتابُِ الأَحْكَامِ أ.د. يسري جبر","publishedAt":"2019-07-16T22:40:49Z","duration":"PT37M39S","thumbnail":"https://i.ytimg.com/vi/sUGI69O5fbY/mqdefault.jpg","viewCount":"327","playlistId":"PLEkQk5xrP-tmJuzaj4GWRenFoFx9gdbFX","playlistName":"شرح كتاب صحيح الإمام البخاري رضي الله تعالى عنه   أ.د. يسرى جبر","category":"حديث"},{"id":"9GHZGwNm3hY","title":"88- شرح اللؤلؤ والمرجان كتاب العتق من أوله","publishedAt":"2020-03-07T06:00:00Z","duration":"PT21M45S","thumbnail":"https://i.ytimg.com/vi/9GHZGwNm3hY/mqdefault.jpg","viewCount":"327","playlistId":"PLEkQk5xrP-tmKNjtYLfhATC37QdIsTMe0","playlistName":"شرح كتاب اللؤلؤ والمرجان فيما اتفق عليه الشيخان إماما المحدثين البخاري ومسلم. أ.د. يسري جبر","category":"حديث"},{"id":"HX2E5sZW9rs","title":"شرح كتاب الأذكار من كلام سيد الأبرار للإمام النووى رضى الله عنه - المجلس الثالث والأربعون","publishedAt":"2016-06-18T22:04:41Z","duration":"PT3M44S","thumbnail":"https://i.ytimg.com/vi/HX2E5sZW9rs/mqdefault.jpg","viewCount":"326","playlistId":"PLEkQk5xrP-tkWS57Ubysh0ifJR8dmuEtE","playlistName":"شرح كتاب الأذكار للإمام النووي د. يسرى جبر","category":"حديث"},{"id":"ax3RrD76TaI","title":"شرح صحيح البخاري كتاب الطلاق من باب 14","publishedAt":"2018-06-19T04:57:15Z","duration":"PT13M51S","thumbnail":"https://i.ytimg.com/vi/ax3RrD76TaI/mqdefault.jpg","viewCount":"323","playlistId":"PLEkQk5xrP-tlEerGoLa1AFy-2XvQ-sovv","playlistName":"شرح صحيح البخاري - أ.د. يسري جبر (كاملا)","category":"حديث"},{"id":"taqLKvkZ_Cg","title":"شرح كتاب الأذكار من كلام سيد الأبرار للإمام النووى رضى الله عنه - المجلس السادس والأربعون","publishedAt":"2016-12-16T04:43:34Z","duration":"PT6M55S","thumbnail":"https://i.ytimg.com/vi/taqLKvkZ_Cg/mqdefault.jpg","viewCount":"320","playlistId":"PLEkQk5xrP-tkWS57Ubysh0ifJR8dmuEtE","playlistName":"شرح كتاب الأذكار للإمام النووي د. يسرى جبر","category":"حديث"}],"total":1218,"page":43,"pageSize":24,"totalPages":51}