{"items":[{"id":"3vIxTq5G06A","title":"شرح صحيح البخاري كتاب التفسير فى سورة بني إسرائيل (الإسراء) من باب ١","publishedAt":"2018-04-03T08:47:57Z","duration":"PT29M20S","thumbnail":"https://i.ytimg.com/vi/3vIxTq5G06A/mqdefault.jpg","viewCount":"632","playlistId":"PLEkQk5xrP-tlEerGoLa1AFy-2XvQ-sovv","playlistName":"شرح صحيح البخاري - أ.د. يسري جبر (كاملا)","category":"حديث"},{"id":"NgbYq2zd0fg","title":"شرح صحيح البخاري - كتاب الصلح من باب ٥","publishedAt":"2017-07-03T17:39:23Z","duration":"PT34M40S","thumbnail":"https://i.ytimg.com/vi/NgbYq2zd0fg/mqdefault.jpg","viewCount":"632","playlistId":"PLEkQk5xrP-tlEerGoLa1AFy-2XvQ-sovv","playlistName":"شرح صحيح البخاري - أ.د. يسري جبر (كاملا)","category":"حديث"},{"id":"SJy2x1fGIrM","title":"شرح صحيح البخاري - كتاب أحاديث الأنبياء من باب ٣١","publishedAt":"2017-10-11T18:15:39Z","duration":"PT39M29S","thumbnail":"https://i.ytimg.com/vi/SJy2x1fGIrM/mqdefault.jpg","viewCount":"630","playlistId":"PLEkQk5xrP-tlEerGoLa1AFy-2XvQ-sovv","playlistName":"شرح صحيح البخاري - أ.د. يسري جبر (كاملا)","category":"حديث"},{"id":"uB2ngqviNq4","title":"26- شرح اللؤلؤ والمرجان كتاب الصلاة من باب ٢٩","publishedAt":"2020-01-09T15:31:34Z","duration":"PT22M30S","thumbnail":"https://i.ytimg.com/vi/uB2ngqviNq4/mqdefault.jpg","viewCount":"629","playlistId":"PLEkQk5xrP-tmKNjtYLfhATC37QdIsTMe0","playlistName":"شرح كتاب اللؤلؤ والمرجان فيما اتفق عليه الشيخان إماما المحدثين البخاري ومسلم. أ.د. يسري جبر","category":"حديث"},{"id":"hHtynL2v6W8","title":"شرح صحيح البخاري - كتاب فرض الخمس من باب ٦","publishedAt":"2017-08-28T14:24:18Z","duration":"PT31M51S","thumbnail":"https://i.ytimg.com/vi/hHtynL2v6W8/mqdefault.jpg","viewCount":"628","playlistId":"PLEkQk5xrP-tlEerGoLa1AFy-2XvQ-sovv","playlistName":"شرح صحيح البخاري - أ.د. يسري جبر (كاملا)","category":"حديث"},{"id":"Fl8c1dnc9lo","title":"شرح صحيح البخاري - كتاب فرض الخمس من باب ١٧","publishedAt":"2017-08-31T16:46:47Z","duration":"PT46M2S","thumbnail":"https://i.ytimg.com/vi/Fl8c1dnc9lo/mqdefault.jpg","viewCount":"627","playlistId":"PLEkQk5xrP-tlEerGoLa1AFy-2XvQ-sovv","playlistName":"شرح صحيح البخاري - أ.د. يسري جبر (كاملا)","category":"حديث"},{"id":"YzF4LBbB1wM","title":"36- شرح اللؤلؤ والمرجان كتاب المساجد ومواضع الصلاة من باب ٤٢","publishedAt":"2020-01-16T21:48:31Z","duration":"PT35M18S","thumbnail":"https://i.ytimg.com/vi/YzF4LBbB1wM/mqdefault.jpg","viewCount":"624","playlistId":"PLEkQk5xrP-tmKNjtYLfhATC37QdIsTMe0","playlistName":"شرح كتاب اللؤلؤ والمرجان فيما اتفق عليه الشيخان إماما المحدثين البخاري ومسلم. أ.د. يسري جبر","category":"حديث"},{"id":"nrY4ssB6pj4","title":"29- شرح اللؤلؤ والمرجان كتاب الصلاة من باب ٤٩","publishedAt":"2020-01-14T02:03:49Z","duration":"PT23M16S","thumbnail":"https://i.ytimg.com/vi/nrY4ssB6pj4/mqdefault.jpg","viewCount":"622","playlistId":"PLEkQk5xrP-tmKNjtYLfhATC37QdIsTMe0","playlistName":"شرح كتاب اللؤلؤ والمرجان فيما اتفق عليه الشيخان إماما المحدثين البخاري ومسلم. أ.د. يسري جبر","category":"حديث"},{"id":"9d8FTyzfT_k","title":"شرح صحيح البخاري - كتاب أحاديث الأنبياء من باب ٤٠","publishedAt":"2017-10-15T06:08:30Z","duration":"PT31M44S","thumbnail":"https://i.ytimg.com/vi/9d8FTyzfT_k/mqdefault.jpg","viewCount":"621","playlistId":"PLEkQk5xrP-tlEerGoLa1AFy-2XvQ-sovv","playlistName":"شرح صحيح البخاري - أ.د. يسري جبر (كاملا)","category":"حديث"},{"id":"CuSmFlKmEFA","title":"شرح صحيح البخاري - كتاب أحاديث الأنبياء من باب ٢٧","publishedAt":"2017-10-09T14:10:20Z","duration":"PT31M14S","thumbnail":"https://i.ytimg.com/vi/CuSmFlKmEFA/mqdefault.jpg","viewCount":"621","playlistId":"PLEkQk5xrP-tlEerGoLa1AFy-2XvQ-sovv","playlistName":"شرح صحيح البخاري - أ.د. يسري جبر (كاملا)","category":"حديث"},{"id":"vhiAVH_Ti6s","title":"شرح صحيح البخاري كتاب اللباس من باب ٣١","publishedAt":"2018-08-16T21:48:38Z","duration":"PT46M35S","thumbnail":"https://i.ytimg.com/vi/vhiAVH_Ti6s/mqdefault.jpg","viewCount":"621","playlistId":"PLEkQk5xrP-tlEerGoLa1AFy-2XvQ-sovv","playlistName":"شرح صحيح البخاري - أ.د. يسري جبر (كاملا)","category":"حديث"},{"id":"OroUt00-bOo","title":"شرح صحيح البخاري كتاب الأضاحي من أوله","publishedAt":"2018-07-23T07:24:45Z","duration":"PT39M29S","thumbnail":"https://i.ytimg.com/vi/OroUt00-bOo/mqdefault.jpg","viewCount":"620","playlistId":"PLEkQk5xrP-tlEerGoLa1AFy-2XvQ-sovv","playlistName":"شرح صحيح البخاري - أ.د. يسري جبر (كاملا)","category":"حديث"},{"id":"rahWcQkKgIU","title":"شرح صحيح البخاري كتاب الرقاق من باب ١٧","publishedAt":"2018-10-22T20:22:14Z","duration":"PT43M53S","thumbnail":"https://i.ytimg.com/vi/rahWcQkKgIU/mqdefault.jpg","viewCount":"619","playlistId":"PLEkQk5xrP-tlEerGoLa1AFy-2XvQ-sovv","playlistName":"شرح صحيح البخاري - أ.د. يسري جبر (كاملا)","category":"حديث"},{"id":"x77uPxqNSkY","title":"64- شرح اللؤلؤ والمرجان كتاب الحج من أوله","publishedAt":"2020-02-12T06:00:07Z","duration":"PT35M13S","thumbnail":"https://i.ytimg.com/vi/x77uPxqNSkY/mqdefault.jpg","viewCount":"618","playlistId":"PLEkQk5xrP-tmKNjtYLfhATC37QdIsTMe0","playlistName":"شرح كتاب اللؤلؤ والمرجان فيما اتفق عليه الشيخان إماما المحدثين البخاري ومسلم. أ.د. يسري جبر","category":"حديث"},{"id":"IqGaSDYnM50","title":"شرح صحيح البخاري كتاب الأدب من باب ٥٤","publishedAt":"2018-09-05T16:38:04Z","duration":"PT32M3S","thumbnail":"https://i.ytimg.com/vi/IqGaSDYnM50/mqdefault.jpg","viewCount":"618","playlistId":"PLEkQk5xrP-tlEerGoLa1AFy-2XvQ-sovv","playlistName":"شرح صحيح البخاري - أ.د. يسري جبر (كاملا)","category":"حديث"},{"id":"sks4uPvB4Yw","title":"شرح صحيح البخاري - كتاب الجهاد والسير من باب ١٨","publishedAt":"2017-07-30T21:44:27Z","duration":"PT29M46S","thumbnail":"https://i.ytimg.com/vi/sks4uPvB4Yw/mqdefault.jpg","viewCount":"617","playlistId":"PLEkQk5xrP-tlEerGoLa1AFy-2XvQ-sovv","playlistName":"شرح صحيح البخاري - أ.د. يسري جبر (كاملا)","category":"حديث"},{"id":"cAjtlydGmb0","title":"شرح صحيح الإمام البخاري رضي الله عنه - كتاب الدعوات (الدعاء عند الكرب)المجلس الرابع د. يسري جبر","publishedAt":"2017-05-07T15:30:16Z","duration":"PT37M33S","thumbnail":"https://i.ytimg.com/vi/cAjtlydGmb0/mqdefault.jpg","viewCount":"616","playlistId":"PLEkQk5xrP-tmJuzaj4GWRenFoFx9gdbFX","playlistName":"شرح كتاب صحيح الإمام البخاري رضي الله تعالى عنه   أ.د. يسرى جبر","category":"حديث"},{"id":"tMj0ZdEbmEo","title":"شرح صحيح البخاري كتاب الأدب من باب ٤٣","publishedAt":"2018-09-03T09:57:10Z","duration":"PT35M51S","thumbnail":"https://i.ytimg.com/vi/tMj0ZdEbmEo/mqdefault.jpg","viewCount":"615","playlistId":"PLEkQk5xrP-tlEerGoLa1AFy-2XvQ-sovv","playlistName":"شرح صحيح البخاري - أ.د. يسري جبر (كاملا)","category":"حديث"},{"id":"xA8Mvr63a24","title":"شرح صحيح البخاري - كتاب الجهاد والسير من باب ٦٢","publishedAt":"2017-08-05T20:36:02Z","duration":"PT31M30S","thumbnail":"https://i.ytimg.com/vi/xA8Mvr63a24/mqdefault.jpg","viewCount":"615","playlistId":"PLEkQk5xrP-tlEerGoLa1AFy-2XvQ-sovv","playlistName":"شرح صحيح البخاري - أ.د. يسري جبر (كاملا)","category":"حديث"},{"id":"bdGIZTTEQXs","title":"شرح صحيح البخاري كتاب التوحيد من باب ١٣","publishedAt":"2019-02-02T21:34:05Z","duration":"PT31M6S","thumbnail":"https://i.ytimg.com/vi/bdGIZTTEQXs/mqdefault.jpg","viewCount":"613","playlistId":"PLEkQk5xrP-tlEerGoLa1AFy-2XvQ-sovv","playlistName":"شرح صحيح البخاري - أ.د. يسري جبر (كاملا)","category":"حديث"},{"id":"mIIc1YJ8ryg","title":"شرح صحيح البخاري كتاب الأدب من باب ٥٨","publishedAt":"2018-09-06T15:49:09Z","duration":"PT32M47S","thumbnail":"https://i.ytimg.com/vi/mIIc1YJ8ryg/mqdefault.jpg","viewCount":"613","playlistId":"PLEkQk5xrP-tlEerGoLa1AFy-2XvQ-sovv","playlistName":"شرح صحيح البخاري - أ.د. يسري جبر (كاملا)","category":"حديث"},{"id":"1_A6Dl9G0rA","title":"شرح صحيح البخاري كتاب التفسير فى سورة النساء من أولها","publishedAt":"2018-03-17T14:20:40Z","duration":"PT28M32S","thumbnail":"https://i.ytimg.com/vi/1_A6Dl9G0rA/mqdefault.jpg","viewCount":"613","playlistId":"PLEkQk5xrP-tlEerGoLa1AFy-2XvQ-sovv","playlistName":"شرح صحيح البخاري - أ.د. يسري جبر (كاملا)","category":"حديث"},{"id":"IEGjATIEBWY","title":"22- شرح اللؤلؤ والمرجان كتاب الحيض من باب ٢٤","publishedAt":"2020-01-07T07:48:29Z","duration":"PT27M42S","thumbnail":"https://i.ytimg.com/vi/IEGjATIEBWY/mqdefault.jpg","viewCount":"612","playlistId":"PLEkQk5xrP-tmKNjtYLfhATC37QdIsTMe0","playlistName":"شرح كتاب اللؤلؤ والمرجان فيما اتفق عليه الشيخان إماما المحدثين البخاري ومسلم. أ.د. يسري جبر","category":"حديث"},{"id":"W-3QC6gA_Aw","title":"شرح صحيح البخاري   كتاب المغازي من باب ٩","publishedAt":"2017-12-21T16:09:13Z","duration":"PT34M38S","thumbnail":"https://i.ytimg.com/vi/W-3QC6gA_Aw/mqdefault.jpg","viewCount":"612","playlistId":"PLEkQk5xrP-tlEerGoLa1AFy-2XvQ-sovv","playlistName":"شرح صحيح البخاري - أ.د. يسري جبر (كاملا)","category":"حديث"}],"total":1218,"page":22,"pageSize":24,"totalPages":51}