{"items":[{"id":"Waqqq31HJRM","title":"صحيح الإمام البخاري رضي الله عنه - كتاب الدِّيات المجلس الثالث ( د.يسري جبر)","publishedAt":"2018-05-12T20:57:13Z","duration":"PT19M23S","thumbnail":"https://i.ytimg.com/vi/Waqqq31HJRM/mqdefault.jpg","viewCount":"120","playlistId":"PLEkQk5xrP-tmJuzaj4GWRenFoFx9gdbFX","playlistName":"شرح كتاب صحيح الإمام البخاري رضي الله تعالى عنه   أ.د. يسرى جبر","category":"حديث"},{"id":"uaT-Id9cYWw","title":"صحيح الإمام البخاري رضي الله تعالى عنه - كتاب الأطعمة - المجلس السابع","publishedAt":"2016-03-07T05:10:52Z","duration":"PT32M14S","thumbnail":"https://i.ytimg.com/vi/uaT-Id9cYWw/mqdefault.jpg","viewCount":"118","playlistId":"PLEkQk5xrP-tmJuzaj4GWRenFoFx9gdbFX","playlistName":"شرح كتاب صحيح الإمام البخاري رضي الله تعالى عنه   أ.د. يسرى جبر","category":"حديث"},{"id":"zN8iLmR8j8g","title":"صحيح الإمام البخاري رضي الله عنه - كتاب الطب المجلس الثالث د. يسري جبر","publishedAt":"2016-08-19T19:39:09Z","duration":"PT53M4S","thumbnail":"https://i.ytimg.com/vi/zN8iLmR8j8g/mqdefault.jpg","viewCount":"118","playlistId":"PLEkQk5xrP-tmJuzaj4GWRenFoFx9gdbFX","playlistName":"شرح كتاب صحيح الإمام البخاري رضي الله تعالى عنه   أ.د. يسرى جبر","category":"حديث"},{"id":"dqHRvrCprpc","title":"صحيح البخاري - كتاب الفرائض - باب ميراث الزوج مع الولد وغيره","publishedAt":"2018-01-30T13:15:08Z","duration":"PT1H5M4S","thumbnail":"https://i.ytimg.com/vi/dqHRvrCprpc/mqdefault.jpg","viewCount":"118","playlistId":"PLEkQk5xrP-tmJuzaj4GWRenFoFx9gdbFX","playlistName":"شرح كتاب صحيح الإمام البخاري رضي الله تعالى عنه   أ.د. يسرى جبر","category":"حديث"},{"id":"OEPlPLX6clo","title":"صحيح الإمام البخاري رضي الله عنه - كتاب الأشربة - المجلس الرابع د. يسري جبر","publishedAt":"2016-05-10T02:38:46Z","duration":"PT56M37S","thumbnail":"https://i.ytimg.com/vi/OEPlPLX6clo/mqdefault.jpg","viewCount":"117","playlistId":"PLEkQk5xrP-tmJuzaj4GWRenFoFx9gdbFX","playlistName":"شرح كتاب صحيح الإمام البخاري رضي الله تعالى عنه   أ.د. يسرى جبر","category":"حديث"},{"id":"arKYZiSE6y4","title":"صحيح الإمام البخاري رضي الله عنه - كتاب الدِّيات المجلس السادس د.يسري جبر","publishedAt":"2018-07-07T21:22:12Z","duration":"PT45M34S","thumbnail":"https://i.ytimg.com/vi/arKYZiSE6y4/mqdefault.jpg","viewCount":"115","playlistId":"PLEkQk5xrP-tmJuzaj4GWRenFoFx9gdbFX","playlistName":"شرح كتاب صحيح الإمام البخاري رضي الله تعالى عنه   أ.د. يسرى جبر","category":"حديث"},{"id":"20WBTIwot_k","title":"صحيح الإمام البخاري رضي الله عنه - كتاب الطلاق - المجلس الثالث","publishedAt":"2015-05-25T19:13:12Z","duration":"PT1H6M29S","thumbnail":"https://i.ytimg.com/vi/20WBTIwot_k/mqdefault.jpg","viewCount":"114","playlistId":"PLEkQk5xrP-tmJuzaj4GWRenFoFx9gdbFX","playlistName":"شرح كتاب صحيح الإمام البخاري رضي الله تعالى عنه   أ.د. يسرى جبر","category":"حديث"},{"id":"8cg7gwJGoTQ","title":"صحيح الإمام البخاري رضي الله عنه - كتاب الطلاق - المجلس الثالث عشر","publishedAt":"2015-12-13T13:22:10Z","duration":"PT46M5S","thumbnail":"https://i.ytimg.com/vi/8cg7gwJGoTQ/mqdefault.jpg","viewCount":"113","playlistId":"PLEkQk5xrP-tmJuzaj4GWRenFoFx9gdbFX","playlistName":"شرح كتاب صحيح الإمام البخاري رضي الله تعالى عنه   أ.د. يسرى جبر","category":"حديث"},{"id":"kp2pYW8YR4Q","title":"صحيح الإمام البخاري رضي الله عنه - كتاب اللباس المجلس الرابع د. يسري جبر","publishedAt":"2016-10-05T20:36:52Z","duration":"PT40M33S","thumbnail":"https://i.ytimg.com/vi/kp2pYW8YR4Q/mqdefault.jpg","viewCount":"113","playlistId":"PLEkQk5xrP-tmJuzaj4GWRenFoFx9gdbFX","playlistName":"شرح كتاب صحيح الإمام البخاري رضي الله تعالى عنه   أ.د. يسرى جبر","category":"حديث"},{"id":"X3aqJi0IHuE","title":"صحيح الإمام البخاري رضي الله عنه كتاب الاستئذان باب من زار قوما فقال عندهم - المجلس السادس","publishedAt":"2017-04-17T18:47:41Z","duration":"PT34M55S","thumbnail":"https://i.ytimg.com/vi/X3aqJi0IHuE/mqdefault.jpg","viewCount":"110","playlistId":"PLEkQk5xrP-tmJuzaj4GWRenFoFx9gdbFX","playlistName":"شرح كتاب صحيح الإمام البخاري رضي الله تعالى عنه   أ.د. يسرى جبر","category":"حديث"},{"id":"OwfQCQrvQMY","title":"صحيح الإمام البخاري رضي الله عنه - كتاب الأيمان والنذور (باب قول الرجل \"لَعَمْرُ الله\") د.يسري جبر","publishedAt":"2017-11-07T12:09:10Z","duration":"PT31M46S","thumbnail":"https://i.ytimg.com/vi/OwfQCQrvQMY/mqdefault.jpg","viewCount":"110","playlistId":"PLEkQk5xrP-tmJuzaj4GWRenFoFx9gdbFX","playlistName":"شرح كتاب صحيح الإمام البخاري رضي الله تعالى عنه   أ.د. يسرى جبر","category":"حديث"},{"id":"9pBYE8EtzkM","title":"صحيح الإمام البخاري رضي الله عنه - كتاب الذبائح والصيد والتسمية على الصيد -المجلس الرابع د. يسري جبر","publishedAt":"2016-04-04T03:02:12Z","duration":"PT1H4M10S","thumbnail":"https://i.ytimg.com/vi/9pBYE8EtzkM/mqdefault.jpg","viewCount":"110","playlistId":"PLEkQk5xrP-tmJuzaj4GWRenFoFx9gdbFX","playlistName":"شرح كتاب صحيح الإمام البخاري رضي الله تعالى عنه   أ.د. يسرى جبر","category":"حديث"},{"id":"ADp3dKycHII","title":"صحيح الإمام البخاري رضي الله عنه - كتاب الطلاق - المجلس التاسع","publishedAt":"2015-11-30T19:12:25Z","duration":"PT41M3S","thumbnail":"https://i.ytimg.com/vi/ADp3dKycHII/mqdefault.jpg","viewCount":"107","playlistId":"PLEkQk5xrP-tmJuzaj4GWRenFoFx9gdbFX","playlistName":"شرح كتاب صحيح الإمام البخاري رضي الله تعالى عنه   أ.د. يسرى جبر","category":"حديث"},{"id":"xyHoQKBe0p4","title":"صحيح الإمام البخاري رضي الله عنه - كتاب الأيمان والنذور (تكملة باب كيف كانت يمين النبي) د.يسري جبر","publishedAt":"2017-10-28T07:11:55Z","duration":"PT29M5S","thumbnail":"https://i.ytimg.com/vi/xyHoQKBe0p4/mqdefault.jpg","viewCount":"106","playlistId":"PLEkQk5xrP-tmJuzaj4GWRenFoFx9gdbFX","playlistName":"شرح كتاب صحيح الإمام البخاري رضي الله تعالى عنه   أ.د. يسرى جبر","category":"حديث"},{"id":"hcs6c9oO94Q","title":"صحيح الإمام البخاري رضي الله عنه - كتاب الطلاق - المجلس السادس","publishedAt":"2015-08-17T10:19:55Z","duration":"PT1H5M15S","thumbnail":"https://i.ytimg.com/vi/hcs6c9oO94Q/mqdefault.jpg","viewCount":"105","playlistId":"PLEkQk5xrP-tmJuzaj4GWRenFoFx9gdbFX","playlistName":"شرح كتاب صحيح الإمام البخاري رضي الله تعالى عنه   أ.د. يسرى جبر","category":"حديث"},{"id":"h1wgUuJt2V0","title":"صحيح الإمام البخاري رضي الله عنه - كتاب الطلاق - المجلس العاشر","publishedAt":"2015-12-02T17:57:06Z","duration":"PT35M39S","thumbnail":"https://i.ytimg.com/vi/h1wgUuJt2V0/mqdefault.jpg","viewCount":"105","playlistId":"PLEkQk5xrP-tmJuzaj4GWRenFoFx9gdbFX","playlistName":"شرح كتاب صحيح الإمام البخاري رضي الله تعالى عنه   أ.د. يسرى جبر","category":"حديث"},{"id":"etNPJsW_blQ","title":"شرح صحيح الإمام البخاري رضي الله تعالى عنه - ختام كتاب الحِيَل  د. يسري جبر","publishedAt":"2018-10-30T17:29:24Z","duration":"PT35M27S","thumbnail":"https://i.ytimg.com/vi/etNPJsW_blQ/mqdefault.jpg","viewCount":"105","playlistId":"PLEkQk5xrP-tmJuzaj4GWRenFoFx9gdbFX","playlistName":"شرح كتاب صحيح الإمام البخاري رضي الله تعالى عنه   أ.د. يسرى جبر","category":"حديث"},{"id":"jji8m9x1Mac","title":"صحيح الإمام البخاري رضي الله عنه - كتاب الأيمان والنذور (باب اليمين الغموس) د.يسري جبر","publishedAt":"2017-11-07T06:08:37Z","duration":"PT46M16S","thumbnail":"https://i.ytimg.com/vi/jji8m9x1Mac/mqdefault.jpg","viewCount":"104","playlistId":"PLEkQk5xrP-tmJuzaj4GWRenFoFx9gdbFX","playlistName":"شرح كتاب صحيح الإمام البخاري رضي الله تعالى عنه   أ.د. يسرى جبر","category":"حديث"},{"id":"TdwwAujJB-4","title":"شرح صحيح الإمام البخاري رضي الله تعالى عنه - كتاب التعبير أ.د. يسري جبر","publishedAt":"2019-02-26T19:35:26Z","duration":"PT32M47S","thumbnail":"https://i.ytimg.com/vi/TdwwAujJB-4/mqdefault.jpg","viewCount":"104","playlistId":"PLEkQk5xrP-tmJuzaj4GWRenFoFx9gdbFX","playlistName":"شرح كتاب صحيح الإمام البخاري رضي الله تعالى عنه   أ.د. يسرى جبر","category":"حديث"},{"id":"p-KTbekntX0","title":"صحيح الإمام البخاري رضي الله عنه كتاب الاستئذان باب لا يقيم الرجل الرجل من مجلسه  - المجلس الخامس","publishedAt":"2017-04-17T09:20:59Z","duration":"PT1H1M16S","thumbnail":"https://i.ytimg.com/vi/p-KTbekntX0/mqdefault.jpg","viewCount":"103","playlistId":"PLEkQk5xrP-tmJuzaj4GWRenFoFx9gdbFX","playlistName":"شرح كتاب صحيح الإمام البخاري رضي الله تعالى عنه   أ.د. يسرى جبر","category":"حديث"},{"id":"fK_PeG_WVjA","title":"صحيح الإمام البخاري رضي الله عنه - كتاب الطلاق - المجلس السابع عشر","publishedAt":"2016-01-06T18:55:07Z","duration":"PT42M56S","thumbnail":"https://i.ytimg.com/vi/fK_PeG_WVjA/mqdefault.jpg","viewCount":"102","playlistId":"PLEkQk5xrP-tmJuzaj4GWRenFoFx9gdbFX","playlistName":"شرح كتاب صحيح الإمام البخاري رضي الله تعالى عنه   أ.د. يسرى جبر","category":"حديث"},{"id":"__sCUWKN9zM","title":"صحيح البخاري - كتاب الأيمان والنذور (باب هل يدخل في الأيمان والنذور الأرض والغنم والزروع والأمتعة)","publishedAt":"2017-12-12T17:29:06Z","duration":"PT34M24S","thumbnail":"https://i.ytimg.com/vi/__sCUWKN9zM/mqdefault.jpg","viewCount":"102","playlistId":"PLEkQk5xrP-tmJuzaj4GWRenFoFx9gdbFX","playlistName":"شرح كتاب صحيح الإمام البخاري رضي الله تعالى عنه   أ.د. يسرى جبر","category":"حديث"},{"id":"AZKhf92SrD8","title":"صحيح الإمام البخاري رضي الله عنه - كتاب الطلاق - المجلس الثاني عشر","publishedAt":"2015-12-07T09:04:32Z","duration":"PT27M43S","thumbnail":"https://i.ytimg.com/vi/AZKhf92SrD8/mqdefault.jpg","viewCount":"101","playlistId":"PLEkQk5xrP-tmJuzaj4GWRenFoFx9gdbFX","playlistName":"شرح كتاب صحيح الإمام البخاري رضي الله تعالى عنه   أ.د. يسرى جبر","category":"حديث"},{"id":"2bu51_cSZ7E","title":"صحيح الإمام البخاري رضي الله عنه - كتاب الديَاتِ  د.يسري جبر","publishedAt":"2018-04-01T20:53:03Z","duration":"PT37M21S","thumbnail":"https://i.ytimg.com/vi/2bu51_cSZ7E/mqdefault.jpg","viewCount":"100","playlistId":"PLEkQk5xrP-tmJuzaj4GWRenFoFx9gdbFX","playlistName":"شرح كتاب صحيح الإمام البخاري رضي الله تعالى عنه   أ.د. يسرى جبر","category":"حديث"}],"total":1218,"page":50,"pageSize":24,"totalPages":51}