{"items":[{"id":"wveajyk_x_0","title":"54- شرح اللؤلؤ والمرجان كتاب الزكاة من الباب السادس عشر","publishedAt":"2020-02-03T06:00:08Z","duration":"PT27M18S","thumbnail":"https://i.ytimg.com/vi/wveajyk_x_0/mqdefault.jpg","viewCount":"477","playlistId":"PLEkQk5xrP-tmKNjtYLfhATC37QdIsTMe0","playlistName":"شرح كتاب اللؤلؤ والمرجان فيما اتفق عليه الشيخان إماما المحدثين البخاري ومسلم. أ.د. يسري جبر","category":"حديث"},{"id":"RbVGFpKoapk","title":"شرح صحيح البخاري   كتاب مناقب الأنصار من باب ٢٧","publishedAt":"2017-12-06T22:42:53Z","duration":"PT30M20S","thumbnail":"https://i.ytimg.com/vi/RbVGFpKoapk/mqdefault.jpg","viewCount":"477","playlistId":"PLEkQk5xrP-tlEerGoLa1AFy-2XvQ-sovv","playlistName":"شرح صحيح البخاري - أ.د. يسري جبر (كاملا)","category":"حديث"},{"id":"28QW09XiAuo","title":"شرح صحيح البخاري   كتاب مناقب الأنصار تكملة باب ٤٥ المجلس الثالث","publishedAt":"2017-12-15T20:27:10Z","duration":"PT35M41S","thumbnail":"https://i.ytimg.com/vi/28QW09XiAuo/mqdefault.jpg","viewCount":"476","playlistId":"PLEkQk5xrP-tlEerGoLa1AFy-2XvQ-sovv","playlistName":"شرح صحيح البخاري - أ.د. يسري جبر (كاملا)","category":"حديث"},{"id":"m_AOIep7lyc","title":"84- شرح اللؤلؤ والمرجان كتاب الطلاق من أوله","publishedAt":"2020-03-03T06:00:05Z","duration":"PT29M18S","thumbnail":"https://i.ytimg.com/vi/m_AOIep7lyc/mqdefault.jpg","viewCount":"476","playlistId":"PLEkQk5xrP-tmKNjtYLfhATC37QdIsTMe0","playlistName":"شرح كتاب اللؤلؤ والمرجان فيما اتفق عليه الشيخان إماما المحدثين البخاري ومسلم. أ.د. يسري جبر","category":"حديث"},{"id":"uxb6wlr7Rvg","title":"شرح صحيح البخاري كتاب الأدب من باب ٨٦","publishedAt":"2018-09-13T19:00:41Z","duration":"PT17M28S","thumbnail":"https://i.ytimg.com/vi/uxb6wlr7Rvg/mqdefault.jpg","viewCount":"475","playlistId":"PLEkQk5xrP-tlEerGoLa1AFy-2XvQ-sovv","playlistName":"شرح صحيح البخاري - أ.د. يسري جبر (كاملا)","category":"حديث"},{"id":"rVuA8e4xpWc","title":"111- شرح اللؤلؤ والمرجان كتاب الجهاد من الباب السادس عشر","publishedAt":"2020-04-01T07:00:15Z","duration":"PT20M24S","thumbnail":"https://i.ytimg.com/vi/rVuA8e4xpWc/mqdefault.jpg","viewCount":"474","playlistId":"PLEkQk5xrP-tmKNjtYLfhATC37QdIsTMe0","playlistName":"شرح كتاب اللؤلؤ والمرجان فيما اتفق عليه الشيخان إماما المحدثين البخاري ومسلم. أ.د. يسري جبر","category":"حديث"},{"id":"edh3XB8WOMY","title":"شرح صحيح البخاري - كتاب المغازي تكملة باب ٥٨","publishedAt":"2018-02-22T14:50:08Z","duration":"PT23M23S","thumbnail":"https://i.ytimg.com/vi/edh3XB8WOMY/mqdefault.jpg","viewCount":"474","playlistId":"PLEkQk5xrP-tlEerGoLa1AFy-2XvQ-sovv","playlistName":"شرح صحيح البخاري - أ.د. يسري جبر (كاملا)","category":"حديث"},{"id":"c10gBnxag_0","title":"شرح صحيح البخاري كتاب النكاح من باب ١٠٧","publishedAt":"2018-06-10T20:04:32Z","duration":"PT27M54S","thumbnail":"https://i.ytimg.com/vi/c10gBnxag_0/mqdefault.jpg","viewCount":"473","playlistId":"PLEkQk5xrP-tlEerGoLa1AFy-2XvQ-sovv","playlistName":"شرح صحيح البخاري - أ.د. يسري جبر (كاملا)","category":"حديث"},{"id":"TXIeMNS0ReI","title":"شرح صحيح البخاري   كتاب مناقب الأنصار من باب ٣٨","publishedAt":"2017-12-10T18:31:06Z","duration":"PT30M41S","thumbnail":"https://i.ytimg.com/vi/TXIeMNS0ReI/mqdefault.jpg","viewCount":"473","playlistId":"PLEkQk5xrP-tlEerGoLa1AFy-2XvQ-sovv","playlistName":"شرح صحيح البخاري - أ.د. يسري جبر (كاملا)","category":"حديث"},{"id":"UNTq8SNphPQ","title":"115- شرح اللؤلؤ والمرجان كتاب الجهاد من الباب الأربعين","publishedAt":"2020-04-07T08:45:25Z","duration":"PT23M13S","thumbnail":"https://i.ytimg.com/vi/UNTq8SNphPQ/mqdefault.jpg","viewCount":"472","playlistId":"PLEkQk5xrP-tmKNjtYLfhATC37QdIsTMe0","playlistName":"شرح كتاب اللؤلؤ والمرجان فيما اتفق عليه الشيخان إماما المحدثين البخاري ومسلم. أ.د. يسري جبر","category":"حديث"},{"id":"eaU57RPed9s","title":"شرح صحيح البخاري كتاب الأطعمة من باب ٤١","publishedAt":"2018-07-11T17:49:44Z","duration":"PT27M57S","thumbnail":"https://i.ytimg.com/vi/eaU57RPed9s/mqdefault.jpg","viewCount":"472","playlistId":"PLEkQk5xrP-tlEerGoLa1AFy-2XvQ-sovv","playlistName":"شرح صحيح البخاري - أ.د. يسري جبر (كاملا)","category":"حديث"},{"id":"ckJdkpdeEtY","title":"شرح صحيح البخاري كتاب الطب من باب ٢٤","publishedAt":"2018-08-06T13:57:08Z","duration":"PT24M5S","thumbnail":"https://i.ytimg.com/vi/ckJdkpdeEtY/mqdefault.jpg","viewCount":"471","playlistId":"PLEkQk5xrP-tlEerGoLa1AFy-2XvQ-sovv","playlistName":"شرح صحيح البخاري - أ.د. يسري جبر (كاملا)","category":"حديث"},{"id":"zA40fsFy6iI","title":"شرح صحيح البخاري كتاب الإعتصام بالكتاب والسنة من باب ٤","publishedAt":"2019-01-23T09:57:34Z","duration":"PT32M11S","thumbnail":"https://i.ytimg.com/vi/zA40fsFy6iI/mqdefault.jpg","viewCount":"469","playlistId":"PLEkQk5xrP-tlEerGoLa1AFy-2XvQ-sovv","playlistName":"شرح صحيح البخاري - أ.د. يسري جبر (كاملا)","category":"حديث"},{"id":"X9LFxvbJ-wc","title":"شرح صحيح البخاري كتاب الإعتصام بالكتاب والسنة من باب ٣","publishedAt":"2019-01-21T21:35:03Z","duration":"PT41M23S","thumbnail":"https://i.ytimg.com/vi/X9LFxvbJ-wc/mqdefault.jpg","viewCount":"469","playlistId":"PLEkQk5xrP-tlEerGoLa1AFy-2XvQ-sovv","playlistName":"شرح صحيح البخاري - أ.د. يسري جبر (كاملا)","category":"حديث"},{"id":"q7xcwr2OIw8","title":"73- شرح اللؤلؤ والمرجان كتاب الحج من الباب الثامن والستّين","publishedAt":"2020-02-21T06:00:06Z","duration":"PT36M8S","thumbnail":"https://i.ytimg.com/vi/q7xcwr2OIw8/mqdefault.jpg","viewCount":"469","playlistId":"PLEkQk5xrP-tmKNjtYLfhATC37QdIsTMe0","playlistName":"شرح كتاب اللؤلؤ والمرجان فيما اتفق عليه الشيخان إماما المحدثين البخاري ومسلم. أ.د. يسري جبر","category":"حديث"},{"id":"Lp60RAi2zIk","title":"شرح كتاب الأذكار من كلام سيد الأبرار للإمام النووى رضى الله عنه - المجلس الخامس عشر","publishedAt":"2015-04-12T21:11:45Z","duration":"PT21M11S","thumbnail":"https://i.ytimg.com/vi/Lp60RAi2zIk/mqdefault.jpg","viewCount":"469","playlistId":"PLEkQk5xrP-tkWS57Ubysh0ifJR8dmuEtE","playlistName":"شرح كتاب الأذكار للإمام النووي د. يسرى جبر","category":"حديث"},{"id":"WEyyffSzl84","title":"شرح صحيح البخاري كتاب المغازي تكملة باب ٣٠","publishedAt":"2019-03-10T20:44:19Z","duration":"PT36M37S","thumbnail":"https://i.ytimg.com/vi/WEyyffSzl84/mqdefault.jpg","viewCount":"468","playlistId":"PLEkQk5xrP-tlEerGoLa1AFy-2XvQ-sovv","playlistName":"شرح صحيح البخاري - أ.د. يسري جبر (كاملا)","category":"حديث"},{"id":"jzLcmEUao08","title":"شرح صحيح البخاري كتاب الدعوات (الاستعاذة من أرذل العمر ومن فتنة الدنيا)المجلس السادس د.يسري جبر","publishedAt":"2017-05-14T15:20:43Z","duration":"PT44M4S","thumbnail":"https://i.ytimg.com/vi/jzLcmEUao08/mqdefault.jpg","viewCount":"467","playlistId":"PLEkQk5xrP-tmJuzaj4GWRenFoFx9gdbFX","playlistName":"شرح كتاب صحيح الإمام البخاري رضي الله تعالى عنه   أ.د. يسرى جبر","category":"حديث"},{"id":"b6J-wFw2ISc","title":"شرح صحيح البخاري كتاب اللباس من باب ٥٠","publishedAt":"2018-08-19T14:56:39Z","duration":"PT36M4S","thumbnail":"https://i.ytimg.com/vi/b6J-wFw2ISc/mqdefault.jpg","viewCount":"465","playlistId":"PLEkQk5xrP-tlEerGoLa1AFy-2XvQ-sovv","playlistName":"شرح صحيح البخاري - أ.د. يسري جبر (كاملا)","category":"حديث"},{"id":"bvjgkIR-iWw","title":"شرح صحيح البخاري كتاب الإعتصام بالكتاب والسنة من باب 26","publishedAt":"2019-01-30T21:34:29Z","duration":"PT36M5S","thumbnail":"https://i.ytimg.com/vi/bvjgkIR-iWw/mqdefault.jpg","viewCount":"465","playlistId":"PLEkQk5xrP-tlEerGoLa1AFy-2XvQ-sovv","playlistName":"شرح صحيح البخاري - أ.د. يسري جبر (كاملا)","category":"حديث"},{"id":"1j4sCioKH7I","title":"شرح صحيح البخاري كتاب الأشربة من باب ٢٣","publishedAt":"2018-07-29T20:26:52Z","duration":"PT29M41S","thumbnail":"https://i.ytimg.com/vi/1j4sCioKH7I/mqdefault.jpg","viewCount":"464","playlistId":"PLEkQk5xrP-tlEerGoLa1AFy-2XvQ-sovv","playlistName":"شرح صحيح البخاري - أ.د. يسري جبر (كاملا)","category":"حديث"},{"id":"Y7J27KzDVaA","title":"شرح صحيح البخاري   كتاب مناقب الأنصار من باب ٣٢","publishedAt":"2017-12-08T11:09:14Z","duration":"PT26M20S","thumbnail":"https://i.ytimg.com/vi/Y7J27KzDVaA/mqdefault.jpg","viewCount":"464","playlistId":"PLEkQk5xrP-tlEerGoLa1AFy-2XvQ-sovv","playlistName":"شرح صحيح البخاري - أ.د. يسري جبر (كاملا)","category":"حديث"},{"id":"L3DCeEf9hOM","title":"شرح صحيح البخاري كتاب الذبائح والصيد من باب ٢٥","publishedAt":"2018-07-19T21:02:46Z","duration":"PT38M11S","thumbnail":"https://i.ytimg.com/vi/L3DCeEf9hOM/mqdefault.jpg","viewCount":"463","playlistId":"PLEkQk5xrP-tlEerGoLa1AFy-2XvQ-sovv","playlistName":"شرح صحيح البخاري - أ.د. يسري جبر (كاملا)","category":"حديث"},{"id":"dSaldtINQ7w","title":"119- شرح اللؤلؤ والمرجان كتاب الإمارة من الباب الثالث عشر","publishedAt":"2020-04-13T11:00:18Z","duration":"PT23M14S","thumbnail":"https://i.ytimg.com/vi/dSaldtINQ7w/mqdefault.jpg","viewCount":"462","playlistId":"PLEkQk5xrP-tmKNjtYLfhATC37QdIsTMe0","playlistName":"شرح كتاب اللؤلؤ والمرجان فيما اتفق عليه الشيخان إماما المحدثين البخاري ومسلم. أ.د. يسري جبر","category":"حديث"}],"total":1218,"page":35,"pageSize":24,"totalPages":51}