{"items":[{"id":"SnrYkYPIbqY","title":"صحيح الإمام البخارى رضى الله عنه - كتاب النكاح المجلس الخامس عشر","publishedAt":"2015-04-19T15:26:14Z","duration":"PT1H3M52S","thumbnail":"https://i.ytimg.com/vi/SnrYkYPIbqY/mqdefault.jpg","viewCount":"143","playlistId":"PLEkQk5xrP-tmJuzaj4GWRenFoFx9gdbFX","playlistName":"شرح كتاب صحيح الإمام البخاري رضي الله تعالى عنه   أ.د. يسرى جبر","category":"حديث"},{"id":"1W9l6yIZmB4","title":"صحيح الإمام البخارى رضى الله عنه - كتاب النكاح المجلس الرابع عشر","publishedAt":"2015-04-12T05:16:11Z","duration":"PT1H8M22S","thumbnail":"https://i.ytimg.com/vi/1W9l6yIZmB4/mqdefault.jpg","viewCount":"142","playlistId":"PLEkQk5xrP-tmJuzaj4GWRenFoFx9gdbFX","playlistName":"شرح كتاب صحيح الإمام البخاري رضي الله تعالى عنه   أ.د. يسرى جبر","category":"حديث"},{"id":"_oKDBQycth8","title":"صحيح الإمام البخارى رضى الله عنه - كتاب النكاح - المجلس العاشر","publishedAt":"2015-03-15T03:22:22Z","duration":"PT59M38S","thumbnail":"https://i.ytimg.com/vi/_oKDBQycth8/mqdefault.jpg","viewCount":"142","playlistId":"PLEkQk5xrP-tmJuzaj4GWRenFoFx9gdbFX","playlistName":"شرح كتاب صحيح الإمام البخاري رضي الله تعالى عنه   أ.د. يسرى جبر","category":"حديث"},{"id":"mqfjC6qXo4E","title":"صحيح الإمام البخاري رضي الله عنه - كتاب الأطعمة - المجلس الثانى","publishedAt":"2016-01-24T12:14:28Z","duration":"PT1H9M6S","thumbnail":"https://i.ytimg.com/vi/mqfjC6qXo4E/mqdefault.jpg","viewCount":"142","playlistId":"PLEkQk5xrP-tmJuzaj4GWRenFoFx9gdbFX","playlistName":"شرح كتاب صحيح الإمام البخاري رضي الله تعالى عنه   أ.د. يسرى جبر","category":"حديث"},{"id":"-CwRZs2AaJ4","title":"صحيح الإمام البخاري رضي الله عنه - كتاب الطلاق - المجلس الثامن","publishedAt":"2015-11-08T04:07:48Z","duration":"PT48M11S","thumbnail":"https://i.ytimg.com/vi/-CwRZs2AaJ4/mqdefault.jpg","viewCount":"142","playlistId":"PLEkQk5xrP-tmJuzaj4GWRenFoFx9gdbFX","playlistName":"شرح كتاب صحيح الإمام البخاري رضي الله تعالى عنه   أ.د. يسرى جبر","category":"حديث"},{"id":"u2Z8nk7xGH0","title":"صحيح الإمام البخارى رضى الله عنه - كتاب النكاح المجلس الحادى عشر","publishedAt":"2015-03-22T14:48:08Z","duration":"PT43M14S","thumbnail":"https://i.ytimg.com/vi/u2Z8nk7xGH0/mqdefault.jpg","viewCount":"141","playlistId":"PLEkQk5xrP-tmJuzaj4GWRenFoFx9gdbFX","playlistName":"شرح كتاب صحيح الإمام البخاري رضي الله تعالى عنه   أ.د. يسرى جبر","category":"حديث"},{"id":"mpbjqhMX9ic","title":"صحيح الإمام البخارى رضى الله عنه - كتاب النكاح - المجلس التاسع","publishedAt":"2015-03-08T14:33:07Z","duration":"PT1H1M8S","thumbnail":"https://i.ytimg.com/vi/mpbjqhMX9ic/mqdefault.jpg","viewCount":"139","playlistId":"PLEkQk5xrP-tmJuzaj4GWRenFoFx9gdbFX","playlistName":"شرح كتاب صحيح الإمام البخاري رضي الله تعالى عنه   أ.د. يسرى جبر","category":"حديث"},{"id":"DifU4UaENlA","title":"صحيح الإمام البخاري رضي الله عنه - كتاب الطلاق - المجلس الخامس","publishedAt":"2015-08-10T17:53:30Z","duration":"PT1H6M36S","thumbnail":"https://i.ytimg.com/vi/DifU4UaENlA/mqdefault.jpg","viewCount":"139","playlistId":"PLEkQk5xrP-tmJuzaj4GWRenFoFx9gdbFX","playlistName":"شرح كتاب صحيح الإمام البخاري رضي الله تعالى عنه   أ.د. يسرى جبر","category":"حديث"},{"id":"8KKT6iFiqcE","title":"شرح صحيح الإمام البخاري رضي الله تعالى عنه - كتاب التعبير د. يسري جبر","publishedAt":"2018-11-24T16:02:59Z","duration":"PT16M11S","thumbnail":"https://i.ytimg.com/vi/8KKT6iFiqcE/mqdefault.jpg","viewCount":"139","playlistId":"PLEkQk5xrP-tmJuzaj4GWRenFoFx9gdbFX","playlistName":"شرح كتاب صحيح الإمام البخاري رضي الله تعالى عنه   أ.د. يسرى جبر","category":"حديث"},{"id":"wqeBDPSAEQM","title":"صحيح الإمام البخاري رضي الله عنه - كتاب الدِّيات المجلس الثاني ( د.يسري جبر)","publishedAt":"2018-04-08T16:51:47Z","duration":"PT32M1S","thumbnail":"https://i.ytimg.com/vi/wqeBDPSAEQM/mqdefault.jpg","viewCount":"137","playlistId":"PLEkQk5xrP-tmJuzaj4GWRenFoFx9gdbFX","playlistName":"شرح كتاب صحيح الإمام البخاري رضي الله تعالى عنه   أ.د. يسرى جبر","category":"حديث"},{"id":"Ls1bmoyeGbQ","title":"صحيح الإمام البخاري رضي الله عنه - كتاب الأدب - المجلس السابع  د. يسري جبر","publishedAt":"2016-12-26T19:41:30Z","duration":"PT29M44S","thumbnail":"https://i.ytimg.com/vi/Ls1bmoyeGbQ/mqdefault.jpg","viewCount":"137","playlistId":"PLEkQk5xrP-tmJuzaj4GWRenFoFx9gdbFX","playlistName":"شرح كتاب صحيح الإمام البخاري رضي الله تعالى عنه   أ.د. يسرى جبر","category":"حديث"},{"id":"Ji_8lkAyxsk","title":"صحيح الإمام البخاري رضي الله عنه - كتاب استتابة المُرْتدِّين والمُعاندين وقتالهم - المجلس الرابع.","publishedAt":"2018-08-07T09:29:53Z","duration":"PT41M22S","thumbnail":"https://i.ytimg.com/vi/Ji_8lkAyxsk/mqdefault.jpg","viewCount":"134","playlistId":"PLEkQk5xrP-tmJuzaj4GWRenFoFx9gdbFX","playlistName":"شرح كتاب صحيح الإمام البخاري رضي الله تعالى عنه   أ.د. يسرى جبر","category":"حديث"},{"id":"l-siBlIVPtY","title":"صحيح الإمام البخاري رضي الله عنه - كتاب الذبائح والصيد والتسمية على الصيد -المجلس الثاني د. يسري جبر","publishedAt":"2016-03-28T05:12:33Z","duration":"PT1H30S","thumbnail":"https://i.ytimg.com/vi/l-siBlIVPtY/mqdefault.jpg","viewCount":"133","playlistId":"PLEkQk5xrP-tmJuzaj4GWRenFoFx9gdbFX","playlistName":"شرح كتاب صحيح الإمام البخاري رضي الله تعالى عنه   أ.د. يسرى جبر","category":"حديث"},{"id":"D9Y1ElMtBOE","title":"صحيح الإمام البخاري رضي الله تعالى عنه - كتاب الأطعمة - المجلس الرابع","publishedAt":"2016-01-31T20:40:03Z","duration":"PT1H5M44S","thumbnail":"https://i.ytimg.com/vi/D9Y1ElMtBOE/mqdefault.jpg","viewCount":"133","playlistId":"PLEkQk5xrP-tmJuzaj4GWRenFoFx9gdbFX","playlistName":"شرح كتاب صحيح الإمام البخاري رضي الله تعالى عنه   أ.د. يسرى جبر","category":"حديث"},{"id":"LoC7xzp1qzI","title":"صحيح الإمام البخاري رضي الله عنه - كتاب الدِّيات المجلس الرابع ( د.يسري جبر)","publishedAt":"2018-05-22T23:25:09Z","duration":"PT34M42S","thumbnail":"https://i.ytimg.com/vi/LoC7xzp1qzI/mqdefault.jpg","viewCount":"128","playlistId":"PLEkQk5xrP-tmJuzaj4GWRenFoFx9gdbFX","playlistName":"شرح كتاب صحيح الإمام البخاري رضي الله تعالى عنه   أ.د. يسرى جبر","category":"حديث"},{"id":"D7kE8QWxxug","title":"صحيح الإمام البخاري رضي الله عنه - كتاب الحدود (باب نَفْي أَهْل المَعَاصِي وَالمُخَنَّثِن)د.يسري جبر","publishedAt":"2018-03-30T05:49:26Z","duration":"PT33M48S","thumbnail":"https://i.ytimg.com/vi/D7kE8QWxxug/mqdefault.jpg","viewCount":"128","playlistId":"PLEkQk5xrP-tmJuzaj4GWRenFoFx9gdbFX","playlistName":"شرح كتاب صحيح الإمام البخاري رضي الله تعالى عنه   أ.د. يسرى جبر","category":"حديث"},{"id":"WdLAYpWWrJo","title":"صحيح الإمام البخاري رضي الله عنه ختام كتاب الاستئذان باب لا يتناجى اثنان دون الثالث - المجلس السابع","publishedAt":"2017-04-19T18:38:00Z","duration":"PT55M34S","thumbnail":"https://i.ytimg.com/vi/WdLAYpWWrJo/mqdefault.jpg","viewCount":"128","playlistId":"PLEkQk5xrP-tmJuzaj4GWRenFoFx9gdbFX","playlistName":"شرح كتاب صحيح الإمام البخاري رضي الله تعالى عنه   أ.د. يسرى جبر","category":"حديث"},{"id":"nHnEXRWFCSQ","title":"صحيح الإمام البخاري رضي الله عنه - كتاب الطلاق - المجلس السابع","publishedAt":"2015-08-23T14:49:52Z","duration":"PT1H43S","thumbnail":"https://i.ytimg.com/vi/nHnEXRWFCSQ/mqdefault.jpg","viewCount":"128","playlistId":"PLEkQk5xrP-tmJuzaj4GWRenFoFx9gdbFX","playlistName":"شرح كتاب صحيح الإمام البخاري رضي الله تعالى عنه   أ.د. يسرى جبر","category":"حديث"},{"id":"YrFAIynXGms","title":"صحيح الإمام البخاري رضي الله تعالى عنه - كتاب الأطعمة - المجلس التاسع والأخير","publishedAt":"2016-03-19T11:18:16Z","duration":"PT39M55S","thumbnail":"https://i.ytimg.com/vi/YrFAIynXGms/mqdefault.jpg","viewCount":"125","playlistId":"PLEkQk5xrP-tmJuzaj4GWRenFoFx9gdbFX","playlistName":"شرح كتاب صحيح الإمام البخاري رضي الله تعالى عنه   أ.د. يسرى جبر","category":"حديث"},{"id":"WZ8RgU-fZUM","title":"صحيح الإمام البخاري رضي الله تعالى عنه - كتاب الأطعمة - المجلس الثامن","publishedAt":"2016-03-18T14:20:39Z","duration":"PT1H49S","thumbnail":"https://i.ytimg.com/vi/WZ8RgU-fZUM/mqdefault.jpg","viewCount":"124","playlistId":"PLEkQk5xrP-tmJuzaj4GWRenFoFx9gdbFX","playlistName":"شرح كتاب صحيح الإمام البخاري رضي الله تعالى عنه   أ.د. يسرى جبر","category":"حديث"},{"id":"YD2bcdRUtgQ","title":"صحيح الإمام البخاري رضي الله عنه - كتاب النفقات - المجلس الثانى","publishedAt":"2016-01-11T19:09:25Z","duration":"PT53M36S","thumbnail":"https://i.ytimg.com/vi/YD2bcdRUtgQ/mqdefault.jpg","viewCount":"124","playlistId":"PLEkQk5xrP-tmJuzaj4GWRenFoFx9gdbFX","playlistName":"شرح كتاب صحيح الإمام البخاري رضي الله تعالى عنه   أ.د. يسرى جبر","category":"حديث"},{"id":"nsuhiA5uEvY","title":"صحيح الإمام البخاري رضي الله عنه - كتاب الطب المجلس السابع  د. يسري جبر","publishedAt":"2016-08-31T19:24:32Z","duration":"PT40M45S","thumbnail":"https://i.ytimg.com/vi/nsuhiA5uEvY/mqdefault.jpg","viewCount":"122","playlistId":"PLEkQk5xrP-tmJuzaj4GWRenFoFx9gdbFX","playlistName":"شرح كتاب صحيح الإمام البخاري رضي الله تعالى عنه   أ.د. يسرى جبر","category":"حديث"},{"id":"Waqqq31HJRM","title":"صحيح الإمام البخاري رضي الله عنه - كتاب الدِّيات المجلس الثالث ( د.يسري جبر)","publishedAt":"2018-05-12T20:57:13Z","duration":"PT19M23S","thumbnail":"https://i.ytimg.com/vi/Waqqq31HJRM/mqdefault.jpg","viewCount":"120","playlistId":"PLEkQk5xrP-tmJuzaj4GWRenFoFx9gdbFX","playlistName":"شرح كتاب صحيح الإمام البخاري رضي الله تعالى عنه   أ.د. يسرى جبر","category":"حديث"},{"id":"Dv_ql5quUiU","title":"صحيح الإمام البخاري رضي الله عنه - ختام كتاب الأضاحي وبداية كتاب الأشربة - المجلس الأول د. يسري جبر","publishedAt":"2016-04-25T14:48:48Z","duration":"PT1H5M18S","thumbnail":"https://i.ytimg.com/vi/Dv_ql5quUiU/mqdefault.jpg","viewCount":"120","playlistId":"PLEkQk5xrP-tmJuzaj4GWRenFoFx9gdbFX","playlistName":"شرح كتاب صحيح الإمام البخاري رضي الله تعالى عنه   أ.د. يسرى جبر","category":"حديث"}],"total":1218,"page":49,"pageSize":24,"totalPages":51}