{"items":[{"id":"-ne3Tnaacg0","title":"ุดุฑุญ ุตุญูุญ ุงูุจุฎุงุฑู ( ููุฏูุฉ ูุฌูุณ ูก)","publishedAt":"2016-08-03T07:35:23Z","duration":"PT42M25S","thumbnail":"https://i.ytimg.com/vi/-ne3Tnaacg0/mqdefault.jpg","viewCount":"42009","playlistId":"PLEkQk5xrP-tlEerGoLa1AFy-2XvQ-sovv","playlistName":"ุดุฑุญ ุตุญูุญ ุงูุจุฎุงุฑู - ุฃ.ุฏ. ูุณุฑู ุฌุจุฑ (ูุงููุง)","category":"ุญุฏูุซ"},{"id":"MmoYzYxjCTM","title":"184- ุงูุชุฑุงุจู ุงูููุชูู ูููุชูุญู ุฑูุฏูู ูุฃุฌูุฌ ููุฃุฌูุฌ","publishedAt":"2020-12-20T08:00:40Z","duration":"PT22M5S","thumbnail":"https://i.ytimg.com/vi/MmoYzYxjCTM/mqdefault.jpg","viewCount":"34781","playlistId":"PLEkQk5xrP-tmKNjtYLfhATC37QdIsTMe0","playlistName":"ุดุฑุญ ูุชุงุจ ุงููุคูุค ูุงููุฑุฌุงู ูููุง ุงุชูู ุนููู ุงูุดูุฎุงู ุฅูุงูุง ุงููุญุฏุซูู ุงูุจุฎุงุฑู ููุณูู. ุฃ.ุฏ. ูุณุฑู ุฌุจุฑ","category":"ุญุฏูุซ"},{"id":"mbNl5n1aiNM","title":"134- ุจุงุจ ุงูุณูุญุฑ","publishedAt":"2020-09-18T05:33:52Z","duration":"PT33M3S","thumbnail":"https://i.ytimg.com/vi/mbNl5n1aiNM/mqdefault.jpg","viewCount":"26694","playlistId":"PLEkQk5xrP-tmKNjtYLfhATC37QdIsTMe0","playlistName":"ุดุฑุญ ูุชุงุจ ุงููุคูุค ูุงููุฑุฌุงู ูููุง ุงุชูู ุนููู ุงูุดูุฎุงู ุฅูุงูุง ุงููุญุฏุซูู ุงูุจุฎุงุฑู ููุณูู. ุฃ.ุฏ. ูุณุฑู ุฌุจุฑ","category":"ุญุฏูุซ"},{"id":"MfKhIJDJyTk","title":"140- ุฑุคูุง ุงููููุจูู ๏ทบ","publishedAt":"2020-09-27T06:56:05Z","duration":"PT31M12S","thumbnail":"https://i.ytimg.com/vi/MfKhIJDJyTk/mqdefault.jpg","viewCount":"14089","playlistId":"PLEkQk5xrP-tmKNjtYLfhATC37QdIsTMe0","playlistName":"ุดุฑุญ ูุชุงุจ ุงููุคูุค ูุงููุฑุฌุงู ูููุง ุงุชูู ุนููู ุงูุดูุฎุงู ุฅูุงูุง ุงููุญุฏุซูู ุงูุจุฎุงุฑู ููุณูู. ุฃ.ุฏ. ูุณุฑู ุฌุจุฑ","category":"ุญุฏูุซ"},{"id":"kI8H5hsYD2k","title":"1- ุดุฑุญ ูุชุงุจ ุงููุคูุค ูุงููุฑุฌุงู ูููุง ุงุชูู ุนููู ุงูุดูุฎุงู ุฅูุงูุง ุงููุญุฏุซูู ุงูุจุฎุงุฑู ููุณูู.   ุฃ.ุฏ. ูุณุฑู ุฌุจุฑ","publishedAt":"2019-11-27T18:33:37Z","duration":"PT43M12S","thumbnail":"https://i.ytimg.com/vi/kI8H5hsYD2k/mqdefault.jpg","viewCount":"12264","playlistId":"PLEkQk5xrP-tmKNjtYLfhATC37QdIsTMe0","playlistName":"ุดุฑุญ ูุชุงุจ ุงููุคูุค ูุงููุฑุฌุงู ูููุง ุงุชูู ุนููู ุงูุดูุฎุงู ุฅูุงูุง ุงููุญุฏุซูู ุงูุจุฎุงุฑู ููุณูู. ุฃ.ุฏ. ูุณุฑู ุฌุจุฑ","category":"ุญุฏูุซ"},{"id":"zBiqwLGHiv0","title":"๐ด Majelis Sama' Hadits Shahih Bukhari - PP Progresif Bumi Shalawat (Rabu, 5  Februari 2025 | Sesi 2)","publishedAt":"2025-02-05T11:11:22Z","duration":"PT2H31M10S","thumbnail":"https://i.ytimg.com/vi/zBiqwLGHiv0/mqdefault.jpg","viewCount":"11082","playlistId":"PLEkQk5xrP-tkKcTKLIthzWrdXY7QaOjh_","playlistName":"ูุฑุงุกุฉ ุตุญูุญ ุงูุจุฎุงุฑู ูุงููุงู ูู ุฅูุฏูููุณูุง","category":"ุญุฏูุซ"},{"id":"ULzvlz5yfBs","title":"ุดุฑุญ ุตุญูุญ ุงูุจุฎุงุฑู ( ูุชุงุจ ุจุฏุก ุงููุญู  ุงููุฌูุณ ูก)","publishedAt":"2016-08-06T09:05:58Z","duration":"PT48M","thumbnail":"https://i.ytimg.com/vi/ULzvlz5yfBs/mqdefault.jpg","viewCount":"10883","playlistId":"PLEkQk5xrP-tlEerGoLa1AFy-2XvQ-sovv","playlistName":"ุดุฑุญ ุตุญูุญ ุงูุจุฎุงุฑู - ุฃ.ุฏ. ูุณุฑู ุฌุจุฑ (ูุงููุง)","category":"ุญุฏูุซ"},{"id":"ryp5JB8yfo8","title":"๐ด Pembukaan Majelis Sama' Hadits Shahih Bukhari 2025 | Pesantren Progresif Bumi Shalawat","publishedAt":"2025-02-01T17:36:32Z","duration":"PT2H33M39S","thumbnail":"https://i.ytimg.com/vi/ryp5JB8yfo8/mqdefault.jpg","viewCount":"10200","playlistId":"PLEkQk5xrP-tkKcTKLIthzWrdXY7QaOjh_","playlistName":"ูุฑุงุกุฉ ุตุญูุญ ุงูุจุฎุงุฑู ูุงููุงู ูู ุฅูุฏูููุณูุง","category":"ุญุฏูุซ"},{"id":"ssDhTwEBkMU","title":"ุดุฑุญ ุตุญูุญ ุงูุจุฎุงุฑู ( ููุฏูุฉ  ูุฌูุณ ูข)","publishedAt":"2016-08-03T10:41:32Z","duration":"PT44M45S","thumbnail":"https://i.ytimg.com/vi/ssDhTwEBkMU/mqdefault.jpg","viewCount":"9669","playlistId":"PLEkQk5xrP-tlEerGoLa1AFy-2XvQ-sovv","playlistName":"ุดุฑุญ ุตุญูุญ ุงูุจุฎุงุฑู - ุฃ.ุฏ. ูุณุฑู ุฌุจุฑ (ูุงููุง)","category":"ุญุฏูุซ"},{"id":"ONvQugM77qE","title":"170- ูุถู ุงูุฏุนุงุก ุจุงูููู ุขุชูุง ูู ุงูุฏููุง ุญุณูุฉ ููู ุงูุขุฎุฑุฉ ุญุณูุฉ ูููุง ุนุฐุงุจ ุงููุงุฑ","publishedAt":"2020-11-24T06:56:03Z","duration":"PT14M22S","thumbnail":"https://i.ytimg.com/vi/ONvQugM77qE/mqdefault.jpg","viewCount":"8890","playlistId":"PLEkQk5xrP-tmKNjtYLfhATC37QdIsTMe0","playlistName":"ุดุฑุญ ูุชุงุจ ุงููุคูุค ูุงููุฑุฌุงู ูููุง ุงุชูู ุนููู ุงูุดูุฎุงู ุฅูุงูุง ุงููุญุฏุซูู ุงูุจุฎุงุฑู ููุณูู. ุฃ.ุฏ. ูุณุฑู ุฌุจุฑ","category":"ุญุฏูุซ"},{"id":"RCDCI_gE8rE","title":"174- ูุจูู ุงูุชูุจุฉ ูู ุงูุฐููุจ ูุฅู ุชูุฑุฑุช ุงูุฐููุจ ูุงูุชูุจุฉ","publishedAt":"2020-12-01T20:16:57Z","duration":"PT33M59S","thumbnail":"https://i.ytimg.com/vi/RCDCI_gE8rE/mqdefault.jpg","viewCount":"8088","playlistId":"PLEkQk5xrP-tmKNjtYLfhATC37QdIsTMe0","playlistName":"ุดุฑุญ ูุชุงุจ ุงููุคูุค ูุงููุฑุฌุงู ูููุง ุงุชูู ุนููู ุงูุดูุฎุงู ุฅูุงูุง ุงููุญุฏุซูู ุงูุจุฎุงุฑู ููุณูู. ุฃ.ุฏ. ูุณุฑู ุฌุจุฑ","category":"ุญุฏูุซ"},{"id":"ioRnkJjMDpw","title":"139- ุงูุฑุคูุง","publishedAt":"2020-09-26T04:41:02Z","duration":"PT22M7S","thumbnail":"https://i.ytimg.com/vi/ioRnkJjMDpw/mqdefault.jpg","viewCount":"8017","playlistId":"PLEkQk5xrP-tmKNjtYLfhATC37QdIsTMe0","playlistName":"ุดุฑุญ ูุชุงุจ ุงููุคูุค ูุงููุฑุฌุงู ูููุง ุงุชูู ุนููู ุงูุดูุฎุงู ุฅูุงูุง ุงููุญุฏุซูู ุงูุจุฎุงุฑู ููุณูู. ุฃ.ุฏ. ูุณุฑู ุฌุจุฑ","category":"ุญุฏูุซ"},{"id":"IkfF8ouCIk0","title":"๐ด CEREMONIAL PENUTUPAN MAJELIS SAMA' & KHATMIL KITAB SHAHIH AL-BUKHARI | PP. PROGRESIF BUMI SHALAWAT","publishedAt":"2025-02-10T05:00:56Z","duration":"PT3H41M15S","thumbnail":"https://i.ytimg.com/vi/IkfF8ouCIk0/mqdefault.jpg","viewCount":"7675","playlistId":"PLEkQk5xrP-tkKcTKLIthzWrdXY7QaOjh_","playlistName":"ูุฑุงุกุฉ ุตุญูุญ ุงูุจุฎุงุฑู ูุงููุงู ูู ุฅูุฏูููุณูุง","category":"ุญุฏูุซ"},{"id":"7_x6cV_RPSI","title":"ุดุฑุญ ุตุญูุญ ุงูุจุฎุงุฑู ูุชุงุจ ุงููุจุงุณ ูู ุจุงุจ ูกูฉ","publishedAt":"2018-08-14T22:11:36Z","duration":"PT27M3S","thumbnail":"https://i.ytimg.com/vi/7_x6cV_RPSI/mqdefault.jpg","viewCount":"7576","playlistId":"PLEkQk5xrP-tlEerGoLa1AFy-2XvQ-sovv","playlistName":"ุดุฑุญ ุตุญูุญ ุงูุจุฎุงุฑู - ุฃ.ุฏ. ูุณุฑู ุฌุจุฑ (ูุงููุง)","category":"ุญุฏูุซ"},{"id":"yCCzzbdgrz0","title":"167- ุงูููุฏูุฑ - ุจุงุจู ุฎููููู ุงูุขุฏููููู ูู ุจุทู ุฃููููู ููุชุงุจุฉ ุฑุฒูู ูุฃุฌูู ูุนููู ูุดูุงูุชู ูุณุนุงุฏุชู","publishedAt":"2020-11-18T07:25:28Z","duration":"PT34M41S","thumbnail":"https://i.ytimg.com/vi/yCCzzbdgrz0/mqdefault.jpg","viewCount":"7512","playlistId":"PLEkQk5xrP-tmKNjtYLfhATC37QdIsTMe0","playlistName":"ุดุฑุญ ูุชุงุจ ุงููุคูุค ูุงููุฑุฌุงู ูููุง ุงุชูู ุนููู ุงูุดูุฎุงู ุฅูุงูุง ุงููุญุฏุซูู ุงูุจุฎุงุฑู ููุณูู. ุฃ.ุฏ. ูุณุฑู ุฌุจุฑ","category":"ุญุฏูุซ"},{"id":"s9Mtfnl3zGA","title":"ุดุฑุญ ูุชุงุจ ุงูุฃุฐูุงุฑ ูู ููุงู ุณูุฏ ุงูุฃุจุฑุงุฑ ููุฅูุงู ุงููููู ุฑุถู ุงููู ุนูู - ุงููุฌูุณ ุงูุฃูู","publishedAt":"2014-11-19T17:05:52Z","duration":"PT18M44S","thumbnail":"https://i.ytimg.com/vi/s9Mtfnl3zGA/mqdefault.jpg","viewCount":"7408","playlistId":"PLEkQk5xrP-tkWS57Ubysh0ifJR8dmuEtE","playlistName":"ุดุฑุญ ูุชุงุจ ุงูุฃุฐูุงุฑ ููุฅูุงู ุงููููู ุฏ. ูุณุฑู ุฌุจุฑ","category":"ุญุฏูุซ"},{"id":"mVr9E6ztICk","title":"169- ุงูุญุซูู ุนูู ุฐูููุฑ ุงููู ุชุนุงูู","publishedAt":"2020-11-22T07:49:00Z","duration":"PT22M25S","thumbnail":"https://i.ytimg.com/vi/mVr9E6ztICk/mqdefault.jpg","viewCount":"6134","playlistId":"PLEkQk5xrP-tmKNjtYLfhATC37QdIsTMe0","playlistName":"ุดุฑุญ ูุชุงุจ ุงููุคูุค ูุงููุฑุฌุงู ูููุง ุงุชูู ุนููู ุงูุดูุฎุงู ุฅูุงูุง ุงููุญุฏุซูู ุงูุจุฎุงุฑู ููุณูู. ุฃ.ุฏ. ูุณุฑู ุฌุจุฑ","category":"ุญุฏูุซ"},{"id":"F8MCGHPZpO0","title":"ุงูุฃุฑุจุนูู ุงูููููุฉ - ุงููุฌูุณ ุงูุฃูู","publishedAt":"2020-11-29T08:20:11Z","duration":"PT40M8S","thumbnail":"https://i.ytimg.com/vi/F8MCGHPZpO0/mqdefault.jpg","viewCount":"6067","playlistId":"PLEkQk5xrP-tmHtx4cjd_IK-SgBg00N_ZN","playlistName":"ุงูุฃุฑุจุนูู ุงูููููุฉ","category":"ุญุฏูุซ"},{"id":"UvbPAfOoxHk","title":"185- ุงูููุชูู ูุฃุดุฑุงุทู ุงูุณุงุนุฉ - ุฅุฐุง ุชูุงุฌู ุงููุณููุงู ุจุณูููููุง","publishedAt":"2020-12-24T08:07:25Z","duration":"PT34M37S","thumbnail":"https://i.ytimg.com/vi/UvbPAfOoxHk/mqdefault.jpg","viewCount":"5848","playlistId":"PLEkQk5xrP-tmKNjtYLfhATC37QdIsTMe0","playlistName":"ุดุฑุญ ูุชุงุจ ุงููุคูุค ูุงููุฑุฌุงู ูููุง ุงุชูู ุนููู ุงูุดูุฎุงู ุฅูุงูุง ุงููุญุฏุซูู ุงูุจุฎุงุฑู ููุณูู. ุฃ.ุฏ. ูุณุฑู ุฌุจุฑ","category":"ุญุฏูุซ"},{"id":"fUm9e7gdqW0","title":"ุดุฑุญ ุตุญูุญ ุงูุจุฎุงุฑู ( ููุฏูุฉ  ูุฌูุณ ูฃ)","publishedAt":"2016-08-03T10:51:25Z","duration":"PT41M22S","thumbnail":"https://i.ytimg.com/vi/fUm9e7gdqW0/mqdefault.jpg","viewCount":"5633","playlistId":"PLEkQk5xrP-tlEerGoLa1AFy-2XvQ-sovv","playlistName":"ุดุฑุญ ุตุญูุญ ุงูุจุฎุงุฑู - ุฃ.ุฏ. ูุณุฑู ุฌุจุฑ (ูุงููุง)","category":"ุญุฏูุซ"},{"id":"VPhNneUqwuM","title":"190- ุญููุธู ุงููุณุงู","publishedAt":"2021-01-03T07:18:25Z","duration":"PT29M26S","thumbnail":"https://i.ytimg.com/vi/VPhNneUqwuM/mqdefault.jpg","viewCount":"5501","playlistId":"PLEkQk5xrP-tmKNjtYLfhATC37QdIsTMe0","playlistName":"ุดุฑุญ ูุชุงุจ ุงููุคูุค ูุงููุฑุฌุงู ูููุง ุงุชูู ุนููู ุงูุดูุฎุงู ุฅูุงูุง ุงููุญุฏุซูู ุงูุจุฎุงุฑู ููุณูู. ุฃ.ุฏ. ูุณุฑู ุฌุจุฑ","category":"ุญุฏูุซ"},{"id":"14ne4ZptCQc","title":"181- ุงูุฌููููุฉู ูุตูููุฉู ูุนููููุง ูุฃูููููุง","publishedAt":"2020-12-13T06:51:00Z","duration":"PT24M14S","thumbnail":"https://i.ytimg.com/vi/14ne4ZptCQc/mqdefault.jpg","viewCount":"5484","playlistId":"PLEkQk5xrP-tmKNjtYLfhATC37QdIsTMe0","playlistName":"ุดุฑุญ ูุชุงุจ ุงููุคูุค ูุงููุฑุฌุงู ูููุง ุงุชูู ุนููู ุงูุดูุฎุงู ุฅูุงูุง ุงููุญุฏุซูู ุงูุจุฎุงุฑู ููุณูู. ุฃ.ุฏ. ูุณุฑู ุฌุจุฑ","category":"ุญุฏูุซ"},{"id":"Pg0x6UC4-dA","title":"ุดุฑุญ ุตุญูุญ ุงูุจุฎุงุฑู ( ูุชุงุจ ุจุฏุก ุงููุญู ูุฌูุณ ูข)","publishedAt":"2016-08-07T13:56:35Z","duration":"PT35M55S","thumbnail":"https://i.ytimg.com/vi/Pg0x6UC4-dA/mqdefault.jpg","viewCount":"5453","playlistId":"PLEkQk5xrP-tlEerGoLa1AFy-2XvQ-sovv","playlistName":"ุดุฑุญ ุตุญูุญ ุงูุจุฎุงุฑู - ุฃ.ุฏ. ูุณุฑู ุฌุจุฑ (ูุงููุง)","category":"ุญุฏูุซ"},{"id":"fW_0xDoRH-8","title":"ุงูุณุคุงู ุจุฃุณูุงุก ุงููู ุชุนุงูู ูุงูุงุณุชุนุงุฐุฉ ุจูุง","publishedAt":"2022-06-28T05:00:15Z","duration":"PT49M8S","thumbnail":"https://i.ytimg.com/vi/fW_0xDoRH-8/mqdefault.jpg","viewCount":"5414","playlistId":"PLEkQk5xrP-tmJuzaj4GWRenFoFx9gdbFX","playlistName":"ุดุฑุญ ูุชุงุจ ุตุญูุญ ุงูุฅูุงู ุงูุจุฎุงุฑู ุฑุถู ุงููู ุชุนุงูู ุนูู   ุฃ.ุฏ. ูุณุฑู ุฌุจุฑ","category":"ุญุฏูุซ"}],"total":1218,"page":1,"pageSize":24,"totalPages":51}