{"items":[{"id":"VJO1xiCN7L4","title":"137- ุงูุทูุฑุฉ ูุงููุฃู ููุง ูููู ููู ุงูุดุคู","publishedAt":"2020-09-22T08:23:15Z","duration":"PT23M20S","thumbnail":"https://i.ytimg.com/vi/VJO1xiCN7L4/mqdefault.jpg","viewCount":"1858","playlistId":"PLEkQk5xrP-tmKNjtYLfhATC37QdIsTMe0","playlistName":"ุดุฑุญ ูุชุงุจ ุงููุคูุค ูุงููุฑุฌุงู ูููุง ุงุชูู ุนููู ุงูุดูุฎุงู ุฅูุงูุง ุงููุญุฏุซูู ุงูุจุฎุงุฑู ููุณูู. ุฃ.ุฏ. ูุณุฑู ุฌุจุฑ","category":"ุญุฏูุซ"},{"id":"EkFY7a8ibM8","title":"614-  ููููู ุชุนุงูู\"ุฅูููู ุฑูุญูููุชู ุงูููููู ููุฑููุจู ููููู ุงููููุญูุณูููููู\" - ุดุฑุญ ุตุญูุญ ุงูุฅูุงู ุงูุจุฎุงุฑู","publishedAt":"2022-09-17T07:00:10Z","duration":"PT35M52S","thumbnail":"https://i.ytimg.com/vi/EkFY7a8ibM8/mqdefault.jpg","viewCount":"1834","playlistId":"PLEkQk5xrP-tmJuzaj4GWRenFoFx9gdbFX","playlistName":"ุดุฑุญ ูุชุงุจ ุตุญูุญ ุงูุฅูุงู ุงูุจุฎุงุฑู ุฑุถู ุงููู ุชุนุงูู ุนูู   ุฃ.ุฏ. ูุณุฑู ุฌุจุฑ","category":"ุญุฏูุซ"},{"id":"c6_Bycnks2Q","title":"ุดุฑุญ ุตุญูุญ ุงูุจุฎุงุฑู ( ูุชุงุจ ุงูุญูุถ ูุฌูุณ ูก )","publishedAt":"2016-09-19T07:06:18Z","duration":"PT35M18S","thumbnail":"https://i.ytimg.com/vi/c6_Bycnks2Q/mqdefault.jpg","viewCount":"1832","playlistId":"PLEkQk5xrP-tlEerGoLa1AFy-2XvQ-sovv","playlistName":"ุดุฑุญ ุตุญูุญ ุงูุจุฎุงุฑู - ุฃ.ุฏ. ูุณุฑู ุฌุจุฑ (ูุงููุง)","category":"ุญุฏูุซ"},{"id":"EgFaTHjHjMo","title":"๐ด Majelis Sama' Hadits Shahih Bukhari - PP Progresif Bumi Shalawat (Senin, 3 Februari 2025 | Sesi 2)","publishedAt":"2025-02-03T23:19:50Z","duration":"PT2H47M26S","thumbnail":"https://i.ytimg.com/vi/EgFaTHjHjMo/mqdefault.jpg","viewCount":"1821","playlistId":"PLEkQk5xrP-tkKcTKLIthzWrdXY7QaOjh_","playlistName":"ูุฑุงุกุฉ ุตุญูุญ ุงูุจุฎุงุฑู ูุงููุงู ูู ุฅูุฏูููุณูุง","category":"ุญุฏูุซ"},{"id":"U39uS1Lts5Q","title":"ุดุฑุญ ุตุญูุญ ุงูุจุฎุงุฑู ( ูุชุงุจ ุงูุตูุงุฉ ูุฌูุณ ูข )","publishedAt":"2016-09-29T20:27:43Z","duration":"PT41M5S","thumbnail":"https://i.ytimg.com/vi/U39uS1Lts5Q/mqdefault.jpg","viewCount":"1799","playlistId":"PLEkQk5xrP-tlEerGoLa1AFy-2XvQ-sovv","playlistName":"ุดุฑุญ ุตุญูุญ ุงูุจุฎุงุฑู - ุฃ.ุฏ. ูุณุฑู ุฌุจุฑ (ูุงููุง)","category":"ุญุฏูุซ"},{"id":"vEVUi4V0M04","title":"150- ูุถุงุฆู ุนุซูุงู ุจู ุนูููุงู ุฑุถู ุงููู ุนูู","publishedAt":"2020-10-16T07:07:19Z","duration":"PT20M30S","thumbnail":"https://i.ytimg.com/vi/vEVUi4V0M04/mqdefault.jpg","viewCount":"1791","playlistId":"PLEkQk5xrP-tmKNjtYLfhATC37QdIsTMe0","playlistName":"ุดุฑุญ ูุชุงุจ ุงููุคูุค ูุงููุฑุฌุงู ูููุง ุงุชูู ุนููู ุงูุดูุฎุงู ุฅูุงูุง ุงููุญุฏุซูู ุงูุจุฎุงุฑู ููุณูู. ุฃ.ุฏ. ูุณุฑู ุฌุจุฑ","category":"ุญุฏูุซ"},{"id":"RlQr_L46ftc","title":"ุดุฑุญ ุตุญูุญ ุงูุจุฎุงุฑู ( ูุชุงุจ ุงููุถูุก ูุฌูุณ ูฅ )","publishedAt":"2016-08-30T20:26:35Z","duration":"PT41M59S","thumbnail":"https://i.ytimg.com/vi/RlQr_L46ftc/mqdefault.jpg","viewCount":"1779","playlistId":"PLEkQk5xrP-tlEerGoLa1AFy-2XvQ-sovv","playlistName":"ุดุฑุญ ุตุญูุญ ุงูุจุฎุงุฑู - ุฃ.ุฏ. ูุณุฑู ุฌุจุฑ (ูุงููุง)","category":"ุญุฏูุซ"},{"id":"X36H8B0qQic","title":"ุดุฑุญ ุตุญูุญ ุงูุจุฎุงุฑู - ูุชุงุจ ุงูุตูู ูู ุฃููู","publishedAt":"2017-03-28T10:40:57Z","duration":"PT31M53S","thumbnail":"https://i.ytimg.com/vi/X36H8B0qQic/mqdefault.jpg","viewCount":"1772","playlistId":"PLEkQk5xrP-tlEerGoLa1AFy-2XvQ-sovv","playlistName":"ุดุฑุญ ุตุญูุญ ุงูุจุฎุงุฑู - ุฃ.ุฏ. ูุณุฑู ุฌุจุฑ (ูุงููุง)","category":"ุญุฏูุซ"},{"id":"t00c9BLKdbI","title":"178- ุจุงุจู ุตูุฉ ุงูููุงูุฉ ูุงูุฌูููุฉ ูุงููููุงุฑ","publishedAt":"2020-12-09T07:17:37Z","duration":"PT16M42S","thumbnail":"https://i.ytimg.com/vi/t00c9BLKdbI/mqdefault.jpg","viewCount":"1746","playlistId":"PLEkQk5xrP-tmKNjtYLfhATC37QdIsTMe0","playlistName":"ุดุฑุญ ูุชุงุจ ุงููุคูุค ูุงููุฑุฌุงู ูููุง ุงุชูู ุนููู ุงูุดูุฎุงู ุฅูุงูุง ุงููุญุฏุซูู ุงูุจุฎุงุฑู ููุณูู. ุฃ.ุฏ. ูุณุฑู ุฌุจุฑ","category":"ุญุฏูุซ"},{"id":"phctgUhRcpc","title":"162- ุตูุฉู ุงูุฑููุญูู ูุชุญุฑููู ูุทูุนุชูุง","publishedAt":"2020-11-08T06:42:54Z","duration":"PT26M34S","thumbnail":"https://i.ytimg.com/vi/phctgUhRcpc/mqdefault.jpg","viewCount":"1746","playlistId":"PLEkQk5xrP-tmKNjtYLfhATC37QdIsTMe0","playlistName":"ุดุฑุญ ูุชุงุจ ุงููุคูุค ูุงููุฑุฌุงู ูููุง ุงุชูู ุนููู ุงูุดูุฎุงู ุฅูุงูุง ุงููุญุฏุซูู ุงูุจุฎุงุฑู ููุณูู. ุฃ.ุฏ. ูุณุฑู ุฌุจุฑ","category":"ุญุฏูุซ"},{"id":"1UZj5OBMkMk","title":"๐ด Majelis Sama' Hadits Shahih Bukhari - PP Progresif Bumi Shalawat (Sabtu, 8 Februari 2025 | Sesi 3)","publishedAt":"2025-02-08T17:24:08Z","duration":"PT4H15M30S","thumbnail":"https://i.ytimg.com/vi/1UZj5OBMkMk/mqdefault.jpg","viewCount":"1738","playlistId":"PLEkQk5xrP-tkKcTKLIthzWrdXY7QaOjh_","playlistName":"ูุฑุงุกุฉ ุตุญูุญ ุงูุจุฎุงุฑู ูุงููุงู ูู ุฅูุฏูููุณูุง","category":"ุญุฏูุซ"},{"id":"AbBD8WT3dZ8","title":"142- ุจุงุจู ุฐูููุฑู ููููู ๏ทบ ุฎุงุชู ุงููุจููู","publishedAt":"2020-09-30T08:28:14Z","duration":"PT24M36S","thumbnail":"https://i.ytimg.com/vi/AbBD8WT3dZ8/mqdefault.jpg","viewCount":"1734","playlistId":"PLEkQk5xrP-tmKNjtYLfhATC37QdIsTMe0","playlistName":"ุดุฑุญ ูุชุงุจ ุงููุคูุค ูุงููุฑุฌุงู ูููุง ุงุชูู ุนููู ุงูุดูุฎุงู ุฅูุงูุง ุงููุญุฏุซูู ุงูุจุฎุงุฑู ููุณูู. ุฃ.ุฏ. ูุณุฑู ุฌุจุฑ","category":"ุญุฏูุซ"},{"id":"EUPafMltExc","title":"ุดุฑุญ ุตุญูุญ ุงูุจุฎุงุฑู ( ูุชุงุจ ุงูุตูุงุฉ ูุฌูุณ ูฃ )","publishedAt":"2016-09-29T20:50:42Z","duration":"PT41M25S","thumbnail":"https://i.ytimg.com/vi/EUPafMltExc/mqdefault.jpg","viewCount":"1726","playlistId":"PLEkQk5xrP-tlEerGoLa1AFy-2XvQ-sovv","playlistName":"ุดุฑุญ ุตุญูุญ ุงูุจุฎุงุฑู - ุฃ.ุฏ. ูุณุฑู ุฌุจุฑ (ูุงููุง)","category":"ุญุฏูุซ"},{"id":"hzitbDlfksc","title":"165- ุชุญุฑููู ุงููุฐุจู ูุจูุงู ูุง ููุจุงุญ ููู","publishedAt":"2020-11-13T11:37:22Z","duration":"PT31M28S","thumbnail":"https://i.ytimg.com/vi/hzitbDlfksc/mqdefault.jpg","viewCount":"1698","playlistId":"PLEkQk5xrP-tmKNjtYLfhATC37QdIsTMe0","playlistName":"ุดุฑุญ ูุชุงุจ ุงููุคูุค ูุงููุฑุฌุงู ูููุง ุงุชูู ุนููู ุงูุดูุฎุงู ุฅูุงูุง ุงููุญุฏุซูู ุงูุจุฎุงุฑู ููุณูู. ุฃ.ุฏ. ูุณุฑู ุฌุจุฑ","category":"ุญุฏูุซ"},{"id":"JgZDECSj1gs","title":"ุฎุชุงู ุดุฑุญ ุตุญูุญ ุงูุจุฎุงุฑู ูุชุงุจ ุงูุชูุญูุฏ ูู ุจุงุจ ูฅูฆ","publishedAt":"2019-02-22T09:34:06Z","duration":"PT45M13S","thumbnail":"https://i.ytimg.com/vi/JgZDECSj1gs/mqdefault.jpg","viewCount":"1695","playlistId":"PLEkQk5xrP-tlEerGoLa1AFy-2XvQ-sovv","playlistName":"ุดุฑุญ ุตุญูุญ ุงูุจุฎุงุฑู - ุฃ.ุฏ. ูุณุฑู ุฌุจุฑ (ูุงููุง)","category":"ุญุฏูุซ"},{"id":"FOpiZ-Td1Eg","title":"5- ุดุฑุญ ุงููุคูุค ูุงููุฑุฌุงู ูุชุงุจ ุงูุฅููุงู ูู ุจุงุจ ูกูง","publishedAt":"2019-12-17T13:44:39Z","duration":"PT30M45S","thumbnail":"https://i.ytimg.com/vi/FOpiZ-Td1Eg/mqdefault.jpg","viewCount":"1691","playlistId":"PLEkQk5xrP-tmKNjtYLfhATC37QdIsTMe0","playlistName":"ุดุฑุญ ูุชุงุจ ุงููุคูุค ูุงููุฑุฌุงู ูููุง ุงุชูู ุนููู ุงูุดูุฎุงู ุฅูุงูุง ุงููุญุฏุซูู ุงูุจุฎุงุฑู ููุณูู. ุฃ.ุฏ. ูุณุฑู ุฌุจุฑ","category":"ุญุฏูุซ"},{"id":"z7JQq3dYJEc","title":"ุดุฑุญ ุตุญูุญ ุงูุจุฎุงุฑู ( ูุชุงุจ ุงููุถูุก ูุฌูุณ ูฆ )","publishedAt":"2016-08-31T06:36:54Z","duration":"PT40M48S","thumbnail":"https://i.ytimg.com/vi/z7JQq3dYJEc/mqdefault.jpg","viewCount":"1668","playlistId":"PLEkQk5xrP-tlEerGoLa1AFy-2XvQ-sovv","playlistName":"ุดุฑุญ ุตุญูุญ ุงูุจุฎุงุฑู - ุฃ.ุฏ. ูุณุฑู ุฌุจุฑ (ูุงููุง)","category":"ุญุฏูุซ"},{"id":"4BSbP3GBfRE","title":"ุดุฑุญ ุตุญูุญ ุงูุจุฎุงุฑู (  ุงุฎุฑ ูุฌูุณ ูู ูุชุงุจ ุงููุถูุก ูุฌูุณ ูกู )","publishedAt":"2016-09-04T23:47:30Z","duration":"PT49M8S","thumbnail":"https://i.ytimg.com/vi/4BSbP3GBfRE/mqdefault.jpg","viewCount":"1661","playlistId":"PLEkQk5xrP-tlEerGoLa1AFy-2XvQ-sovv","playlistName":"ุดุฑุญ ุตุญูุญ ุงูุจุฎุงุฑู - ุฃ.ุฏ. ูุณุฑู ุฌุจุฑ (ูุงููุง)","category":"ุญุฏูุซ"},{"id":"N_dldZk8df8","title":"ุดุฑุญ ุตุญูุญ ุงูุจุฎุงุฑู -  ูุชุงุจ ุงูุนูุฑุฉ ูู ุฃููู","publishedAt":"2017-03-21T16:24:07Z","duration":"PT34M48S","thumbnail":"https://i.ytimg.com/vi/N_dldZk8df8/mqdefault.jpg","viewCount":"1642","playlistId":"PLEkQk5xrP-tlEerGoLa1AFy-2XvQ-sovv","playlistName":"ุดุฑุญ ุตุญูุญ ุงูุจุฎุงุฑู - ุฃ.ุฏ. ูุณุฑู ุฌุจุฑ (ูุงููุง)","category":"ุญุฏูุซ"},{"id":"XE7akJS72Mg","title":"ุดุฑุญ ุตุญูุญ ุงูุจุฎุงุฑู ( ูุชุงุจ ุงูุตูุงุฉ ูุฌูุณ ูฅ )","publishedAt":"2016-10-01T10:16:33Z","duration":"PT41M56S","thumbnail":"https://i.ytimg.com/vi/XE7akJS72Mg/mqdefault.jpg","viewCount":"1639","playlistId":"PLEkQk5xrP-tlEerGoLa1AFy-2XvQ-sovv","playlistName":"ุดุฑุญ ุตุญูุญ ุงูุจุฎุงุฑู - ุฃ.ุฏ. ูุณุฑู ุฌุจุฑ (ูุงููุง)","category":"ุญุฏูุซ"},{"id":"VI7z1zBwXNY","title":"144-  ุฑุญูุชู ๏ทบ ุงูุตุจูุงู ูุงูุนูุงู ูุชูุงุถุนู ููุถู ุฐูู","publishedAt":"2020-10-04T07:56:09Z","duration":"PT30M57S","thumbnail":"https://i.ytimg.com/vi/VI7z1zBwXNY/mqdefault.jpg","viewCount":"1615","playlistId":"PLEkQk5xrP-tmKNjtYLfhATC37QdIsTMe0","playlistName":"ุดุฑุญ ูุชุงุจ ุงููุคูุค ูุงููุฑุฌุงู ูููุง ุงุชูู ุนููู ุงูุดูุฎุงู ุฅูุงูุง ุงููุญุฏุซูู ุงูุจุฎุงุฑู ููุณูู. ุฃ.ุฏ. ูุณุฑู ุฌุจุฑ","category":"ุญุฏูุซ"},{"id":"rq_zns87MtM","title":"189- ุฅูููู ูุฃููู ุงูุนุฑุจู ุฑูููู ุจุณููู ูู ุณุจูู ุงููู - ุญุฏูุซ ุณุนุฏ ุจู ุฃุจู ููููุงุต ุฑุถู ุงููู ุนูู","publishedAt":"2021-01-01T07:50:37Z","duration":"PT24M","thumbnail":"https://i.ytimg.com/vi/rq_zns87MtM/mqdefault.jpg","viewCount":"1612","playlistId":"PLEkQk5xrP-tmKNjtYLfhATC37QdIsTMe0","playlistName":"ุดุฑุญ ูุชุงุจ ุงููุคูุค ูุงููุฑุฌุงู ูููุง ุงุชูู ุนููู ุงูุดูุฎุงู ุฅูุงูุง ุงููุญุฏุซูู ุงูุจุฎุงุฑู ููุณูู. ุฃ.ุฏ. ูุณุฑู ุฌุจุฑ","category":"ุญุฏูุซ"},{"id":"ZUS73C0TpM8","title":"ุดุฑุญ ุตุญูุญ ุงูุจุฎุงุฑู - ูุชุงุจ ุงูููุงูุฉ","publishedAt":"2017-05-12T08:42:02Z","duration":"PT40M38S","thumbnail":"https://i.ytimg.com/vi/ZUS73C0TpM8/mqdefault.jpg","viewCount":"1603","playlistId":"PLEkQk5xrP-tlEerGoLa1AFy-2XvQ-sovv","playlistName":"ุดุฑุญ ุตุญูุญ ุงูุจุฎุงุฑู - ุฃ.ุฏ. ูุณุฑู ุฌุจุฑ (ูุงููุง)","category":"ุญุฏูุซ"},{"id":"EfpdbN8aPAk","title":"ุดุฑุญ ุตุญูุญ ุงูุจุฎุงุฑู ( ูุชุงุจ ุงููุถูุก ูุฌูุณ ูง )","publishedAt":"2016-09-02T00:01:34Z","duration":"PT35M17S","thumbnail":"https://i.ytimg.com/vi/EfpdbN8aPAk/mqdefault.jpg","viewCount":"1592","playlistId":"PLEkQk5xrP-tlEerGoLa1AFy-2XvQ-sovv","playlistName":"ุดุฑุญ ุตุญูุญ ุงูุจุฎุงุฑู - ุฃ.ุฏ. ูุณุฑู ุฌุจุฑ (ูุงููุง)","category":"ุญุฏูุซ"}],"total":1218,"page":6,"pageSize":24,"totalPages":51}