{"items":[{"id":"3zUH5xLUHHQ","title":"شرح صحيح البخاري   كتاب المغازي من باب ٢٤","publishedAt":"2018-01-18T08:55:48Z","duration":"PT27M22S","thumbnail":"https://i.ytimg.com/vi/3zUH5xLUHHQ/mqdefault.jpg","viewCount":"598","playlistId":"PLEkQk5xrP-tlEerGoLa1AFy-2XvQ-sovv","playlistName":"شرح صحيح البخاري - أ.د. يسري جبر (كاملا)","category":"حديث"},{"id":"6eC1gOHxKKU","title":"شرح صحيح البخاري- كتاب المناقب من باب ١٦","publishedAt":"2017-10-30T04:04:22Z","duration":"PT27M41S","thumbnail":"https://i.ytimg.com/vi/6eC1gOHxKKU/mqdefault.jpg","viewCount":"598","playlistId":"PLEkQk5xrP-tlEerGoLa1AFy-2XvQ-sovv","playlistName":"شرح صحيح البخاري - أ.د. يسري جبر (كاملا)","category":"حديث"},{"id":"CtwBW2FEPtM","title":"شرح صحيح البخاري - كتاب الجزية والموادعة من أوله","publishedAt":"2017-09-02T10:32:05Z","duration":"PT27M22S","thumbnail":"https://i.ytimg.com/vi/CtwBW2FEPtM/mqdefault.jpg","viewCount":"598","playlistId":"PLEkQk5xrP-tlEerGoLa1AFy-2XvQ-sovv","playlistName":"شرح صحيح البخاري - أ.د. يسري جبر (كاملا)","category":"حديث"},{"id":"Glic_keLDvQ","title":"شرح صحيح البخاري كتاب التفسير فى سورة الحجرات من باب ١","publishedAt":"2018-04-21T15:46:09Z","duration":"PT32M30S","thumbnail":"https://i.ytimg.com/vi/Glic_keLDvQ/mqdefault.jpg","viewCount":"597","playlistId":"PLEkQk5xrP-tlEerGoLa1AFy-2XvQ-sovv","playlistName":"شرح صحيح البخاري - أ.د. يسري جبر (كاملا)","category":"حديث"},{"id":"OaHHcK0saLw","title":"شرح صحيح البخاري - كتاب المغازي من باب ٦","publishedAt":"2017-12-20T14:02:12Z","duration":"PT28M51S","thumbnail":"https://i.ytimg.com/vi/OaHHcK0saLw/mqdefault.jpg","viewCount":"597","playlistId":"PLEkQk5xrP-tlEerGoLa1AFy-2XvQ-sovv","playlistName":"شرح صحيح البخاري - أ.د. يسري جبر (كاملا)","category":"حديث"},{"id":"3OAQqJTYSkE","title":"شرح صحيح البخاري - كتاب الهبة من باب ٨","publishedAt":"2017-06-16T08:37:05Z","duration":"PT28M34S","thumbnail":"https://i.ytimg.com/vi/3OAQqJTYSkE/mqdefault.jpg","viewCount":"597","playlistId":"PLEkQk5xrP-tlEerGoLa1AFy-2XvQ-sovv","playlistName":"شرح صحيح البخاري - أ.د. يسري جبر (كاملا)","category":"حديث"},{"id":"S_hQZJVxsyw","title":"شرح صحيح البخاري- كتاب أحاديث الأنبياء من باب ٤٢","publishedAt":"2017-10-16T16:12:04Z","duration":"PT35M32S","thumbnail":"https://i.ytimg.com/vi/S_hQZJVxsyw/mqdefault.jpg","viewCount":"595","playlistId":"PLEkQk5xrP-tlEerGoLa1AFy-2XvQ-sovv","playlistName":"شرح صحيح البخاري - أ.د. يسري جبر (كاملا)","category":"حديث"},{"id":"54ex6_9iyKg","title":"شرح صحيح البخاري   كتاب المغازي من باب ١٩","publishedAt":"2018-01-15T05:21:40Z","duration":"PT38M55S","thumbnail":"https://i.ytimg.com/vi/54ex6_9iyKg/mqdefault.jpg","viewCount":"594","playlistId":"PLEkQk5xrP-tlEerGoLa1AFy-2XvQ-sovv","playlistName":"شرح صحيح البخاري - أ.د. يسري جبر (كاملا)","category":"حديث"},{"id":"Xm8QRpInecM","title":"شرح صحيح البخاري -  كتاب المغازي تكملة باب ١٠","publishedAt":"2017-12-25T15:00:47Z","duration":"PT39M31S","thumbnail":"https://i.ytimg.com/vi/Xm8QRpInecM/mqdefault.jpg","viewCount":"594","playlistId":"PLEkQk5xrP-tlEerGoLa1AFy-2XvQ-sovv","playlistName":"شرح صحيح البخاري - أ.د. يسري جبر (كاملا)","category":"حديث"},{"id":"DIcoGTKw3WY","title":"شرح صحيح البخاري كتاب التفسير فى سورة يوسف من باب ١","publishedAt":"2018-03-31T08:11:52Z","duration":"PT33M12S","thumbnail":"https://i.ytimg.com/vi/DIcoGTKw3WY/mqdefault.jpg","viewCount":"593","playlistId":"PLEkQk5xrP-tlEerGoLa1AFy-2XvQ-sovv","playlistName":"شرح صحيح البخاري - أ.د. يسري جبر (كاملا)","category":"حديث"},{"id":"H-8oRSC3SqQ","title":"130- باب جواز وسْم الحيوان غير الْآدَمِيِّ في غَيْرِ الوجْه، وندْبه في نَعَم الزَّكاة وَالْجِزْيَة","publishedAt":"2020-09-13T12:37:20Z","duration":"PT27M17S","thumbnail":"https://i.ytimg.com/vi/H-8oRSC3SqQ/mqdefault.jpg","viewCount":"593","playlistId":"PLEkQk5xrP-tmKNjtYLfhATC37QdIsTMe0","playlistName":"شرح كتاب اللؤلؤ والمرجان فيما اتفق عليه الشيخان إماما المحدثين البخاري ومسلم. أ.د. يسري جبر","category":"حديث"},{"id":"7NkqtKAf-DY","title":"شرح صحيح البخاري كتاب الأيمان والنذور من أوله","publishedAt":"2018-11-10T14:25:23Z","duration":"PT32M55S","thumbnail":"https://i.ytimg.com/vi/7NkqtKAf-DY/mqdefault.jpg","viewCount":"592","playlistId":"PLEkQk5xrP-tlEerGoLa1AFy-2XvQ-sovv","playlistName":"شرح صحيح البخاري - أ.د. يسري جبر (كاملا)","category":"حديث"},{"id":"wRGQliOb7PA","title":"شرح صحيح البخاري كتاب النكاح من باب ١٦","publishedAt":"2018-05-21T14:36:12Z","duration":"PT36M32S","thumbnail":"https://i.ytimg.com/vi/wRGQliOb7PA/mqdefault.jpg","viewCount":"592","playlistId":"PLEkQk5xrP-tlEerGoLa1AFy-2XvQ-sovv","playlistName":"شرح صحيح البخاري - أ.د. يسري جبر (كاملا)","category":"حديث"},{"id":"KGi98UGcKV8","title":"شرح صحيح البخاري كتاب النكاح من باب ١٨","publishedAt":"2018-05-20T23:13:58Z","duration":"PT44M15S","thumbnail":"https://i.ytimg.com/vi/KGi98UGcKV8/mqdefault.jpg","viewCount":"592","playlistId":"PLEkQk5xrP-tlEerGoLa1AFy-2XvQ-sovv","playlistName":"شرح صحيح البخاري - أ.د. يسري جبر (كاملا)","category":"حديث"},{"id":"rwT2PQ8dqcM","title":"شرح صحيح البخاري - كتاب المغازي من باب ٥٠","publishedAt":"2018-02-18T20:57:11Z","duration":"PT26M56S","thumbnail":"https://i.ytimg.com/vi/rwT2PQ8dqcM/mqdefault.jpg","viewCount":"592","playlistId":"PLEkQk5xrP-tlEerGoLa1AFy-2XvQ-sovv","playlistName":"شرح صحيح البخاري - أ.د. يسري جبر (كاملا)","category":"حديث"},{"id":"gf5GUX8A1tM","title":"شرح صحيح البخاري -  كتاب المغازي تكملة باب ١٢ المجلس الثاني","publishedAt":"2017-12-27T13:04:06Z","duration":"PT33M35S","thumbnail":"https://i.ytimg.com/vi/gf5GUX8A1tM/mqdefault.jpg","viewCount":"592","playlistId":"PLEkQk5xrP-tlEerGoLa1AFy-2XvQ-sovv","playlistName":"شرح صحيح البخاري - أ.د. يسري جبر (كاملا)","category":"حديث"},{"id":"s_NJBM7w9cY","title":"شرح صحيح البخاري- كتاب المناقب تكملة باب ٢٦ المجلس الرابع","publishedAt":"2017-11-03T10:54:11Z","duration":"PT35M3S","thumbnail":"https://i.ytimg.com/vi/s_NJBM7w9cY/mqdefault.jpg","viewCount":"592","playlistId":"PLEkQk5xrP-tlEerGoLa1AFy-2XvQ-sovv","playlistName":"شرح صحيح البخاري - أ.د. يسري جبر (كاملا)","category":"حديث"},{"id":"QjwKSezIfj4","title":"‎شرح صحيح الإمام البخاري رضي الله تعالى عنه - كتابُ التوحيد.","publishedAt":"2020-02-23T14:58:45Z","duration":"PT48M42S","thumbnail":"https://i.ytimg.com/vi/QjwKSezIfj4/mqdefault.jpg","viewCount":"592","playlistId":"PLEkQk5xrP-tmJuzaj4GWRenFoFx9gdbFX","playlistName":"شرح كتاب صحيح الإمام البخاري رضي الله تعالى عنه   أ.د. يسرى جبر","category":"حديث"},{"id":"DafnZToo39k","title":"شرح صحيح البخاري كتاب التفسير فى سورة الاحزاب من باب ٧","publishedAt":"2018-04-15T18:33:31Z","duration":"PT42M27S","thumbnail":"https://i.ytimg.com/vi/DafnZToo39k/mqdefault.jpg","viewCount":"591","playlistId":"PLEkQk5xrP-tlEerGoLa1AFy-2XvQ-sovv","playlistName":"شرح صحيح البخاري - أ.د. يسري جبر (كاملا)","category":"حديث"},{"id":"IdhIhH_wjik","title":"شرح صحيح البخاري - كتاب أحاديث الأنبياء من باب ٣٧","publishedAt":"2017-10-12T20:20:20Z","duration":"PT35M41S","thumbnail":"https://i.ytimg.com/vi/IdhIhH_wjik/mqdefault.jpg","viewCount":"590","playlistId":"PLEkQk5xrP-tlEerGoLa1AFy-2XvQ-sovv","playlistName":"شرح صحيح البخاري - أ.د. يسري جبر (كاملا)","category":"حديث"},{"id":"CMQ-plazkC0","title":"شرح صحيح البخاري كتاب الطب من باب ٣٠","publishedAt":"2018-08-07T17:21:42Z","duration":"PT31M56S","thumbnail":"https://i.ytimg.com/vi/CMQ-plazkC0/mqdefault.jpg","viewCount":"589","playlistId":"PLEkQk5xrP-tlEerGoLa1AFy-2XvQ-sovv","playlistName":"شرح صحيح البخاري - أ.د. يسري جبر (كاملا)","category":"حديث"},{"id":"RES1DPc0rKA","title":"شرح صحيح البخاري كتاب التعبير من باب ٩","publishedAt":"2018-12-23T19:52:41Z","duration":"PT42M48S","thumbnail":"https://i.ytimg.com/vi/RES1DPc0rKA/mqdefault.jpg","viewCount":"588","playlistId":"PLEkQk5xrP-tlEerGoLa1AFy-2XvQ-sovv","playlistName":"شرح صحيح البخاري - أ.د. يسري جبر (كاملا)","category":"حديث"},{"id":"4xcMw0xqpg4","title":"شرح صحيح البخاري- كتاب المناقب من باب ٢٧","publishedAt":"2017-11-05T21:05:00Z","duration":"PT31M41S","thumbnail":"https://i.ytimg.com/vi/4xcMw0xqpg4/mqdefault.jpg","viewCount":"587","playlistId":"PLEkQk5xrP-tlEerGoLa1AFy-2XvQ-sovv","playlistName":"شرح صحيح البخاري - أ.د. يسري جبر (كاملا)","category":"حديث"},{"id":"4VgtA29dKvw","title":"شرح صحيح البخاري - كتاب الجهاد والسير من باب ١٤٢","publishedAt":"2017-08-17T16:34:31Z","duration":"PT42M10S","thumbnail":"https://i.ytimg.com/vi/4VgtA29dKvw/mqdefault.jpg","viewCount":"587","playlistId":"PLEkQk5xrP-tlEerGoLa1AFy-2XvQ-sovv","playlistName":"شرح صحيح البخاري - أ.د. يسري جبر (كاملا)","category":"حديث"}],"total":1218,"page":24,"pageSize":24,"totalPages":51}