{"items":[{"id":"1wB9ywdEOnY","title":"شرح صحيح البخاري - كتاب تقصير الصلا‎ة من أوله","publishedAt":"2016-12-22T08:43:44Z","duration":"PT39M11S","thumbnail":"https://i.ytimg.com/vi/1wB9ywdEOnY/mqdefault.jpg","viewCount":"1050","playlistId":"PLEkQk5xrP-tlEerGoLa1AFy-2XvQ-sovv","playlistName":"شرح صحيح البخاري - أ.د. يسري جبر (كاملا)","category":"حديث"},{"id":"FSWo8xGC_m0","title":"شرح صحيح البخاري كتاب مواقيت الصلاة من باب ٣٩","publishedAt":"2016-11-10T04:29:40Z","duration":"PT23M45S","thumbnail":"https://i.ytimg.com/vi/FSWo8xGC_m0/mqdefault.jpg","viewCount":"1050","playlistId":"PLEkQk5xrP-tlEerGoLa1AFy-2XvQ-sovv","playlistName":"شرح صحيح البخاري - أ.د. يسري جبر (كاملا)","category":"حديث"},{"id":"13fXq0uaxiI","title":"شرح صحيح البخاري كتاب الأذان من باب ١٠٦","publishedAt":"2016-11-23T14:42:30Z","duration":"PT38M40S","thumbnail":"https://i.ytimg.com/vi/13fXq0uaxiI/mqdefault.jpg","viewCount":"1050","playlistId":"PLEkQk5xrP-tlEerGoLa1AFy-2XvQ-sovv","playlistName":"شرح صحيح البخاري - أ.د. يسري جبر (كاملا)","category":"حديث"},{"id":"W27A87uJ6x4","title":"164- نَصْرُ الأخِ ظالمًا أو مظلومًا","publishedAt":"2020-11-11T20:04:48Z","duration":"PT16M17S","thumbnail":"https://i.ytimg.com/vi/W27A87uJ6x4/mqdefault.jpg","viewCount":"1049","playlistId":"PLEkQk5xrP-tmKNjtYLfhATC37QdIsTMe0","playlistName":"شرح كتاب اللؤلؤ والمرجان فيما اتفق عليه الشيخان إماما المحدثين البخاري ومسلم. أ.د. يسري جبر","category":"حديث"},{"id":"B474MyWjLL0","title":"شرح صحيح البخاري كتاب الوتر من أوله","publishedAt":"2016-12-08T07:43:04Z","duration":"PT27M28S","thumbnail":"https://i.ytimg.com/vi/B474MyWjLL0/mqdefault.jpg","viewCount":"1047","playlistId":"PLEkQk5xrP-tlEerGoLa1AFy-2XvQ-sovv","playlistName":"شرح صحيح البخاري - أ.د. يسري جبر (كاملا)","category":"حديث"},{"id":"CN_nqqvKwrQ","title":"12- شرح اللؤلؤ والمرجان كتاب الإيمان من باب ٧٣","publishedAt":"2019-12-27T00:45:15Z","duration":"PT25M32S","thumbnail":"https://i.ytimg.com/vi/CN_nqqvKwrQ/mqdefault.jpg","viewCount":"1044","playlistId":"PLEkQk5xrP-tmKNjtYLfhATC37QdIsTMe0","playlistName":"شرح كتاب اللؤلؤ والمرجان فيما اتفق عليه الشيخان إماما المحدثين البخاري ومسلم. أ.د. يسري جبر","category":"حديث"},{"id":"7PWrYhBBuXM","title":"شرح كتاب الأذكار من كلام سيد الأبرار للإمام النووى رضى الله عنه - المجلس الخامس","publishedAt":"2014-12-12T19:04:26Z","duration":"PT16M35S","thumbnail":"https://i.ytimg.com/vi/7PWrYhBBuXM/mqdefault.jpg","viewCount":"1041","playlistId":"PLEkQk5xrP-tkWS57Ubysh0ifJR8dmuEtE","playlistName":"شرح كتاب الأذكار للإمام النووي د. يسرى جبر","category":"حديث"},{"id":"mMgWOLUcW38","title":"شرح صحيح البخاري كتاب التوحيد من أوله","publishedAt":"2019-01-31T22:04:03Z","duration":"PT32M28S","thumbnail":"https://i.ytimg.com/vi/mMgWOLUcW38/mqdefault.jpg","viewCount":"1041","playlistId":"PLEkQk5xrP-tlEerGoLa1AFy-2XvQ-sovv","playlistName":"شرح صحيح البخاري - أ.د. يسري جبر (كاملا)","category":"حديث"},{"id":"7HaPCymiHBs","title":"18- شرح اللؤلؤ والمرجان كتاب الطهارة من أوله","publishedAt":"2020-01-04T08:16:07Z","duration":"PT41M52S","thumbnail":"https://i.ytimg.com/vi/7HaPCymiHBs/mqdefault.jpg","viewCount":"1040","playlistId":"PLEkQk5xrP-tmKNjtYLfhATC37QdIsTMe0","playlistName":"شرح كتاب اللؤلؤ والمرجان فيما اتفق عليه الشيخان إماما المحدثين البخاري ومسلم. أ.د. يسري جبر","category":"حديث"},{"id":"cRZVp6DJZcs","title":"شرح صحيح البخاري كتاب الأذان من باب ٥٢","publishedAt":"2016-11-20T12:14:37Z","duration":"PT38M11S","thumbnail":"https://i.ytimg.com/vi/cRZVp6DJZcs/mqdefault.jpg","viewCount":"1040","playlistId":"PLEkQk5xrP-tlEerGoLa1AFy-2XvQ-sovv","playlistName":"شرح صحيح البخاري - أ.د. يسري جبر (كاملا)","category":"حديث"},{"id":"sJijh6l0W5c","title":"شرح صحيح البخاري - كتاب البيوع من باب ٤","publishedAt":"2017-04-23T15:29:25Z","duration":"PT44M14S","thumbnail":"https://i.ytimg.com/vi/sJijh6l0W5c/mqdefault.jpg","viewCount":"1036","playlistId":"PLEkQk5xrP-tlEerGoLa1AFy-2XvQ-sovv","playlistName":"شرح صحيح البخاري - أ.د. يسري جبر (كاملا)","category":"حديث"},{"id":"NMPcFRjzUps","title":"شرح صحيح البخاري- كتاب المناقب من أوله","publishedAt":"2017-10-25T23:59:41Z","duration":"PT31M52S","thumbnail":"https://i.ytimg.com/vi/NMPcFRjzUps/mqdefault.jpg","viewCount":"1036","playlistId":"PLEkQk5xrP-tlEerGoLa1AFy-2XvQ-sovv","playlistName":"شرح صحيح البخاري - أ.د. يسري جبر (كاملا)","category":"حديث"},{"id":"dmYIBOU36KY","title":"شرح صحيح البخاري - كتاب الخصومات من باب ٧ وكتاب اللقطة","publishedAt":"2017-05-22T18:54:21Z","duration":"PT45M23S","thumbnail":"https://i.ytimg.com/vi/dmYIBOU36KY/mqdefault.jpg","viewCount":"1036","playlistId":"PLEkQk5xrP-tlEerGoLa1AFy-2XvQ-sovv","playlistName":"شرح صحيح البخاري - أ.د. يسري جبر (كاملا)","category":"حديث"},{"id":"R6RSYOl0lj4","title":"شرح صحيح البخاري - كتاب المزارعة","publishedAt":"2017-05-14T19:40:13Z","duration":"PT43M","thumbnail":"https://i.ytimg.com/vi/R6RSYOl0lj4/mqdefault.jpg","viewCount":"1035","playlistId":"PLEkQk5xrP-tlEerGoLa1AFy-2XvQ-sovv","playlistName":"شرح صحيح البخاري - أ.د. يسري جبر (كاملا)","category":"حديث"},{"id":"9loWimxeq4g","title":"شرح صحيح البخاري - كتاب سجود القرآن من أوله","publishedAt":"2016-12-21T09:13:02Z","duration":"PT33M33S","thumbnail":"https://i.ytimg.com/vi/9loWimxeq4g/mqdefault.jpg","viewCount":"1032","playlistId":"PLEkQk5xrP-tlEerGoLa1AFy-2XvQ-sovv","playlistName":"شرح صحيح البخاري - أ.د. يسري جبر (كاملا)","category":"حديث"},{"id":"6lpQd8SGsqM","title":"شرح صحيح البخاري كتاب الطب من أوله","publishedAt":"2018-08-02T20:53:48Z","duration":"PT31M29S","thumbnail":"https://i.ytimg.com/vi/6lpQd8SGsqM/mqdefault.jpg","viewCount":"1030","playlistId":"PLEkQk5xrP-tlEerGoLa1AFy-2XvQ-sovv","playlistName":"شرح صحيح البخاري - أ.د. يسري جبر (كاملا)","category":"حديث"},{"id":"PPlLyZXGeZA","title":"شرح صحيح البخاري كتاب الفتن من باب ٣","publishedAt":"2018-12-29T20:02:39Z","duration":"PT29M37S","thumbnail":"https://i.ytimg.com/vi/PPlLyZXGeZA/mqdefault.jpg","viewCount":"1027","playlistId":"PLEkQk5xrP-tlEerGoLa1AFy-2XvQ-sovv","playlistName":"شرح صحيح البخاري - أ.د. يسري جبر (كاملا)","category":"حديث"},{"id":"oCdKFfbiz2c","title":"شرح صحيح البخاري كتاب الأذان من باب ٤٨","publishedAt":"2016-11-16T05:52:07Z","duration":"PT32M53S","thumbnail":"https://i.ytimg.com/vi/oCdKFfbiz2c/mqdefault.jpg","viewCount":"1027","playlistId":"PLEkQk5xrP-tlEerGoLa1AFy-2XvQ-sovv","playlistName":"شرح صحيح البخاري - أ.د. يسري جبر (كاملا)","category":"حديث"},{"id":"Xx_Vj3bQbWU","title":"شرح صحيح البخاري كتاب الأذان من باب ٤٢","publishedAt":"2016-11-16T04:01:58Z","duration":"PT28M58S","thumbnail":"https://i.ytimg.com/vi/Xx_Vj3bQbWU/mqdefault.jpg","viewCount":"1027","playlistId":"PLEkQk5xrP-tlEerGoLa1AFy-2XvQ-sovv","playlistName":"شرح صحيح البخاري - أ.د. يسري جبر (كاملا)","category":"حديث"},{"id":"FqMYjWU46t4","title":"شرح صحيح البخاري - كتاب الجنائز من باب ٢٢","publishedAt":"2017-01-11T11:15:21Z","duration":"PT34M34S","thumbnail":"https://i.ytimg.com/vi/FqMYjWU46t4/mqdefault.jpg","viewCount":"1026","playlistId":"PLEkQk5xrP-tlEerGoLa1AFy-2XvQ-sovv","playlistName":"شرح صحيح البخاري - أ.د. يسري جبر (كاملا)","category":"حديث"},{"id":"AU5Bh_g37j4","title":"23- شرح اللؤلؤ والمرجان كتاب الصلاة من أوله","publishedAt":"2020-01-08T07:43:30Z","duration":"PT33M53S","thumbnail":"https://i.ytimg.com/vi/AU5Bh_g37j4/mqdefault.jpg","viewCount":"1024","playlistId":"PLEkQk5xrP-tmKNjtYLfhATC37QdIsTMe0","playlistName":"شرح كتاب اللؤلؤ والمرجان فيما اتفق عليه الشيخان إماما المحدثين البخاري ومسلم. أ.د. يسري جبر","category":"حديث"},{"id":"xJWjoC_vy0s","title":"شرح صحيح البخاري كتاب الأذان من باب ٧٠","publishedAt":"2016-11-21T13:54:53Z","duration":"PT32M18S","thumbnail":"https://i.ytimg.com/vi/xJWjoC_vy0s/mqdefault.jpg","viewCount":"1024","playlistId":"PLEkQk5xrP-tlEerGoLa1AFy-2XvQ-sovv","playlistName":"شرح صحيح البخاري - أ.د. يسري جبر (كاملا)","category":"حديث"},{"id":"mrEvDrKSZXs","title":"شرح صحيح البخاري - كتاب الزكاة من باب ٨","publishedAt":"2017-02-14T14:29:24Z","duration":"PT36M45S","thumbnail":"https://i.ytimg.com/vi/mrEvDrKSZXs/mqdefault.jpg","viewCount":"1022","playlistId":"PLEkQk5xrP-tlEerGoLa1AFy-2XvQ-sovv","playlistName":"شرح صحيح البخاري - أ.د. يسري جبر (كاملا)","category":"حديث"},{"id":"be6LYh1g4mc","title":"شرح صحيح البخاري ( كتاب التيمم مجلس ٣ )","publishedAt":"2016-09-27T20:48:18Z","duration":"PT21M32S","thumbnail":"https://i.ytimg.com/vi/be6LYh1g4mc/mqdefault.jpg","viewCount":"1019","playlistId":"PLEkQk5xrP-tlEerGoLa1AFy-2XvQ-sovv","playlistName":"شرح صحيح البخاري - أ.د. يسري جبر (كاملا)","category":"حديث"}],"total":1218,"page":11,"pageSize":24,"totalPages":51}