{"items":[{"id":"wdbWM9I45_c","title":"شرح صحيح البخاري كتاب الفتن من باب ١٥","publishedAt":"2019-01-01T22:07:47Z","duration":"PT30M18S","thumbnail":"https://i.ytimg.com/vi/wdbWM9I45_c/mqdefault.jpg","viewCount":"820","playlistId":"PLEkQk5xrP-tlEerGoLa1AFy-2XvQ-sovv","playlistName":"شرح صحيح البخاري - أ.د. يسري جبر (كاملا)","category":"حديث"},{"id":"utagNt3nBLM","title":"شرح صحيح البخاري   كتاب الحج من باب ٥٢","publishedAt":"2017-03-08T20:09:35Z","duration":"PT36M8S","thumbnail":"https://i.ytimg.com/vi/utagNt3nBLM/mqdefault.jpg","viewCount":"819","playlistId":"PLEkQk5xrP-tlEerGoLa1AFy-2XvQ-sovv","playlistName":"شرح صحيح البخاري - أ.د. يسري جبر (كاملا)","category":"حديث"},{"id":"kl9ltSKZ5e8","title":"شرح صحيح البخاري   كتاب الزكاة من باب ٥٨","publishedAt":"2017-02-23T20:37:43Z","duration":"PT29M21S","thumbnail":"https://i.ytimg.com/vi/kl9ltSKZ5e8/mqdefault.jpg","viewCount":"813","playlistId":"PLEkQk5xrP-tlEerGoLa1AFy-2XvQ-sovv","playlistName":"شرح صحيح البخاري - أ.د. يسري جبر (كاملا)","category":"حديث"},{"id":"mxOQYSMc4qU","title":"شرح صحيح البخاري - كتاب أحاديث الأنبياء من باب ٣","publishedAt":"2017-09-27T13:25:44Z","duration":"PT37M37S","thumbnail":"https://i.ytimg.com/vi/mxOQYSMc4qU/mqdefault.jpg","viewCount":"812","playlistId":"PLEkQk5xrP-tlEerGoLa1AFy-2XvQ-sovv","playlistName":"شرح صحيح البخاري - أ.د. يسري جبر (كاملا)","category":"حديث"},{"id":"62fr6W-dySk","title":"شرح صحيح البخاري - كتاب الصوم من باب 55","publishedAt":"2017-04-13T11:37:30Z","duration":"PT30M54S","thumbnail":"https://i.ytimg.com/vi/62fr6W-dySk/mqdefault.jpg","viewCount":"811","playlistId":"PLEkQk5xrP-tlEerGoLa1AFy-2XvQ-sovv","playlistName":"شرح صحيح البخاري - أ.د. يسري جبر (كاملا)","category":"حديث"},{"id":"8XLRlPnQtNg","title":"شرح صحيح البخاري   كتاب الحج من باب ٤٣","publishedAt":"2017-03-07T17:22:25Z","duration":"PT40M28S","thumbnail":"https://i.ytimg.com/vi/8XLRlPnQtNg/mqdefault.jpg","viewCount":"811","playlistId":"PLEkQk5xrP-tlEerGoLa1AFy-2XvQ-sovv","playlistName":"شرح صحيح البخاري - أ.د. يسري جبر (كاملا)","category":"حديث"},{"id":"nu25Dn0t4j4","title":"شرح صحيح البخاري كتاب الاستسقاء من باب ٢٠","publishedAt":"2016-12-12T18:27:36Z","duration":"PT19M9S","thumbnail":"https://i.ytimg.com/vi/nu25Dn0t4j4/mqdefault.jpg","viewCount":"811","playlistId":"PLEkQk5xrP-tlEerGoLa1AFy-2XvQ-sovv","playlistName":"شرح صحيح البخاري - أ.د. يسري جبر (كاملا)","category":"حديث"},{"id":"rJy5l7evH8g","title":"شرح صحيح البخاري - كتاب الخصومات من أوله","publishedAt":"2017-05-21T15:48:44Z","duration":"PT35M27S","thumbnail":"https://i.ytimg.com/vi/rJy5l7evH8g/mqdefault.jpg","viewCount":"809","playlistId":"PLEkQk5xrP-tlEerGoLa1AFy-2XvQ-sovv","playlistName":"شرح صحيح البخاري - أ.د. يسري جبر (كاملا)","category":"حديث"},{"id":"vj-mevOXMxg","title":"شرح حديث سبعة يظلهم الله يوم القيامة في ظل عرشه (3/9)","publishedAt":"2014-05-08T14:02:11Z","duration":"PT47M56S","thumbnail":"https://i.ytimg.com/vi/vj-mevOXMxg/mqdefault.jpg","viewCount":"808","playlistId":"PLEkQk5xrP-tnzqzkOeEPbbPLsxgy-MYcW","playlistName":"شرح حديث سبعة يظلهم الله يوم القيامة في ظل عرشه - كتاب بهجة  النفوس - د. يسري جبر","category":"حديث"},{"id":"vhTOPKEbfM0","title":"شرح صحيح البخاري - كتاب المُحصَر","publishedAt":"2017-03-23T19:46:48Z","duration":"PT28M20S","thumbnail":"https://i.ytimg.com/vi/vhTOPKEbfM0/mqdefault.jpg","viewCount":"805","playlistId":"PLEkQk5xrP-tlEerGoLa1AFy-2XvQ-sovv","playlistName":"شرح صحيح البخاري - أ.د. يسري جبر (كاملا)","category":"حديث"},{"id":"mEGdHes5hL0","title":"شرح صحيح البخاري - كتاب المساقاة من أوله","publishedAt":"2017-05-16T21:13:39Z","duration":"PT40M16S","thumbnail":"https://i.ytimg.com/vi/mEGdHes5hL0/mqdefault.jpg","viewCount":"805","playlistId":"PLEkQk5xrP-tlEerGoLa1AFy-2XvQ-sovv","playlistName":"شرح صحيح البخاري - أ.د. يسري جبر (كاملا)","category":"حديث"},{"id":"LnCw26iw-Ds","title":"شرح صحيح البخاري كتاب فضائل القرآن من أوله","publishedAt":"2018-05-06T16:57:09Z","duration":"PT31M23S","thumbnail":"https://i.ytimg.com/vi/LnCw26iw-Ds/mqdefault.jpg","viewCount":"804","playlistId":"PLEkQk5xrP-tlEerGoLa1AFy-2XvQ-sovv","playlistName":"شرح صحيح البخاري - أ.د. يسري جبر (كاملا)","category":"حديث"},{"id":"cv27dIwEdyI","title":"شرح صحيح البخاري كتاب الأدب من باب ١٩","publishedAt":"2018-08-28T16:47:53Z","duration":"PT39M48S","thumbnail":"https://i.ytimg.com/vi/cv27dIwEdyI/mqdefault.jpg","viewCount":"802","playlistId":"PLEkQk5xrP-tlEerGoLa1AFy-2XvQ-sovv","playlistName":"شرح صحيح البخاري - أ.د. يسري جبر (كاملا)","category":"حديث"},{"id":"XiS3BrS-COo","title":"شرح صحيح البخاري - كتاب البيوع من باب ٨٥","publishedAt":"2017-05-03T14:13:48Z","duration":"PT38M","thumbnail":"https://i.ytimg.com/vi/XiS3BrS-COo/mqdefault.jpg","viewCount":"802","playlistId":"PLEkQk5xrP-tlEerGoLa1AFy-2XvQ-sovv","playlistName":"شرح صحيح البخاري - أ.د. يسري جبر (كاملا)","category":"حديث"},{"id":"FhsytsnZQV4","title":"شرح صحيح البخاري كتاب العقيقة من أوله","publishedAt":"2018-07-14T23:56:22Z","duration":"PT24M45S","thumbnail":"https://i.ytimg.com/vi/FhsytsnZQV4/mqdefault.jpg","viewCount":"801","playlistId":"PLEkQk5xrP-tlEerGoLa1AFy-2XvQ-sovv","playlistName":"شرح صحيح البخاري - أ.د. يسري جبر (كاملا)","category":"حديث"},{"id":"swv3vHMNqb8","title":"شرح صحيح البخاري - كتاب الكفالة","publishedAt":"2017-05-11T15:03:25Z","duration":"PT44M1S","thumbnail":"https://i.ytimg.com/vi/swv3vHMNqb8/mqdefault.jpg","viewCount":"801","playlistId":"PLEkQk5xrP-tlEerGoLa1AFy-2XvQ-sovv","playlistName":"شرح صحيح البخاري - أ.د. يسري جبر (كاملا)","category":"حديث"},{"id":"EQ1His7qc68","title":"شرح صحيح البخاري - كتاب بدء الخلق من باب ١١ من حديث محمد ابن يوسف","publishedAt":"2017-09-19T22:15:00Z","duration":"PT37M15S","thumbnail":"https://i.ytimg.com/vi/EQ1His7qc68/mqdefault.jpg","viewCount":"793","playlistId":"PLEkQk5xrP-tlEerGoLa1AFy-2XvQ-sovv","playlistName":"شرح صحيح البخاري - أ.د. يسري جبر (كاملا)","category":"حديث"},{"id":"Elbh4B9hXxw","title":"شرح صحيح البخاري - كتاب البيوع من باب ٣٣","publishedAt":"2017-04-27T11:34:02Z","duration":"PT33M51S","thumbnail":"https://i.ytimg.com/vi/Elbh4B9hXxw/mqdefault.jpg","viewCount":"793","playlistId":"PLEkQk5xrP-tlEerGoLa1AFy-2XvQ-sovv","playlistName":"شرح صحيح البخاري - أ.د. يسري جبر (كاملا)","category":"حديث"},{"id":"9nsBzOa8Cgs","title":"شرح صحيح البخاري - كتاب البيوع من باب ٩٦","publishedAt":"2017-05-04T15:27:43Z","duration":"PT40M27S","thumbnail":"https://i.ytimg.com/vi/9nsBzOa8Cgs/mqdefault.jpg","viewCount":"792","playlistId":"PLEkQk5xrP-tlEerGoLa1AFy-2XvQ-sovv","playlistName":"شرح صحيح البخاري - أ.د. يسري جبر (كاملا)","category":"حديث"},{"id":"ssPbVaGlbX0","title":"شرح صحيح البخاري   كتاب الزكاة من باب ٧١","publishedAt":"2017-02-25T16:08:20Z","duration":"PT26M17S","thumbnail":"https://i.ytimg.com/vi/ssPbVaGlbX0/mqdefault.jpg","viewCount":"791","playlistId":"PLEkQk5xrP-tlEerGoLa1AFy-2XvQ-sovv","playlistName":"شرح صحيح البخاري - أ.د. يسري جبر (كاملا)","category":"حديث"},{"id":"-5Z-Rp8Hyhg","title":"شرح صحيح البخاري - كتاب جزاء الصيد من أوله","publishedAt":"2017-03-24T14:14:46Z","duration":"PT38M14S","thumbnail":"https://i.ytimg.com/vi/-5Z-Rp8Hyhg/mqdefault.jpg","viewCount":"791","playlistId":"PLEkQk5xrP-tlEerGoLa1AFy-2XvQ-sovv","playlistName":"شرح صحيح البخاري - أ.د. يسري جبر (كاملا)","category":"حديث"},{"id":"52xe17EYIJ0","title":"شرح صحيح البخاري - كتاب المظالم من باب ٢١","publishedAt":"2017-05-25T15:54:45Z","duration":"PT44M13S","thumbnail":"https://i.ytimg.com/vi/52xe17EYIJ0/mqdefault.jpg","viewCount":"791","playlistId":"PLEkQk5xrP-tlEerGoLa1AFy-2XvQ-sovv","playlistName":"شرح صحيح البخاري - أ.د. يسري جبر (كاملا)","category":"حديث"},{"id":"yRpd3k51M_4","title":"شرح صحيح البخاري - كتاب أحاديث الأنبياء من باب ١٠","publishedAt":"2017-09-30T21:12:57Z","duration":"PT37M4S","thumbnail":"https://i.ytimg.com/vi/yRpd3k51M_4/mqdefault.jpg","viewCount":"790","playlistId":"PLEkQk5xrP-tlEerGoLa1AFy-2XvQ-sovv","playlistName":"شرح صحيح البخاري - أ.د. يسري جبر (كاملا)","category":"حديث"},{"id":"XBHAfgsAeis","title":"شرح صحيح البخاري - كتاب المزارعة من باب ١٣","publishedAt":"2017-05-15T15:00:32Z","duration":"PT42M6S","thumbnail":"https://i.ytimg.com/vi/XBHAfgsAeis/mqdefault.jpg","viewCount":"786","playlistId":"PLEkQk5xrP-tlEerGoLa1AFy-2XvQ-sovv","playlistName":"شرح صحيح البخاري - أ.د. يسري جبر (كاملا)","category":"حديث"}],"total":1218,"page":16,"pageSize":24,"totalPages":51}