{"items":[{"id":"suqSH8Cp5Es","title":"شرح صحيح البخاري - كتاب الجنائز من باب ٩","publishedAt":"2017-01-10T10:02:05Z","duration":"PT33M25S","thumbnail":"https://i.ytimg.com/vi/suqSH8Cp5Es/mqdefault.jpg","viewCount":"909","playlistId":"PLEkQk5xrP-tlEerGoLa1AFy-2XvQ-sovv","playlistName":"شرح صحيح البخاري - أ.د. يسري جبر (كاملا)","category":"حديث"},{"id":"b2B-vIrOoNE","title":"شرح صحيح البخاري كتاب الطلاق من أوله","publishedAt":"2018-06-13T19:14:53Z","duration":"PT32M50S","thumbnail":"https://i.ytimg.com/vi/b2B-vIrOoNE/mqdefault.jpg","viewCount":"908","playlistId":"PLEkQk5xrP-tlEerGoLa1AFy-2XvQ-sovv","playlistName":"شرح صحيح البخاري - أ.د. يسري جبر (كاملا)","category":"حديث"},{"id":"pyiaY1pFGRE","title":"شرح صحيح البخاري - كتاب بدء الخلق من باب ٧","publishedAt":"2017-09-14T16:46:52Z","duration":"PT40M54S","thumbnail":"https://i.ytimg.com/vi/pyiaY1pFGRE/mqdefault.jpg","viewCount":"908","playlistId":"PLEkQk5xrP-tlEerGoLa1AFy-2XvQ-sovv","playlistName":"شرح صحيح البخاري - أ.د. يسري جبر (كاملا)","category":"حديث"},{"id":"YDZ8pHDGkz0","title":"شرح صحيح البخاري كتاب الأذان من باب ١٤٩","publishedAt":"2016-11-25T15:56:40Z","duration":"PT32M4S","thumbnail":"https://i.ytimg.com/vi/YDZ8pHDGkz0/mqdefault.jpg","viewCount":"905","playlistId":"PLEkQk5xrP-tlEerGoLa1AFy-2XvQ-sovv","playlistName":"شرح صحيح البخاري - أ.د. يسري جبر (كاملا)","category":"حديث"},{"id":"osZWvJa7Oco","title":"شرح صحيح البخاري - كتاب المغازي من باب ٥٣","publishedAt":"2018-02-19T19:53:37Z","duration":"PT40M7S","thumbnail":"https://i.ytimg.com/vi/osZWvJa7Oco/mqdefault.jpg","viewCount":"903","playlistId":"PLEkQk5xrP-tlEerGoLa1AFy-2XvQ-sovv","playlistName":"شرح صحيح البخاري - أ.د. يسري جبر (كاملا)","category":"حديث"},{"id":"46U9EXFBTWk","title":"شرح صحيح البخاري - كتاب الجنائز من باب ٩١","publishedAt":"2017-02-10T09:48:31Z","duration":"PT34M12S","thumbnail":"https://i.ytimg.com/vi/46U9EXFBTWk/mqdefault.jpg","viewCount":"898","playlistId":"PLEkQk5xrP-tlEerGoLa1AFy-2XvQ-sovv","playlistName":"شرح صحيح البخاري - أ.د. يسري جبر (كاملا)","category":"حديث"},{"id":"PcfPUOvVSG8","title":"شرح صحيح البخاري - كتاب التهجد من باب ٣٣","publishedAt":"2016-12-29T11:25:43Z","duration":"PT28M45S","thumbnail":"https://i.ytimg.com/vi/PcfPUOvVSG8/mqdefault.jpg","viewCount":"895","playlistId":"PLEkQk5xrP-tlEerGoLa1AFy-2XvQ-sovv","playlistName":"شرح صحيح البخاري - أ.د. يسري جبر (كاملا)","category":"حديث"},{"id":"KV70E_YtrmE","title":"شرح صحيح البخاري   كتاب الزكاة من باب ٤٠","publishedAt":"2017-02-19T16:35:37Z","duration":"PT42M48S","thumbnail":"https://i.ytimg.com/vi/KV70E_YtrmE/mqdefault.jpg","viewCount":"893","playlistId":"PLEkQk5xrP-tlEerGoLa1AFy-2XvQ-sovv","playlistName":"شرح صحيح البخاري - أ.د. يسري جبر (كاملا)","category":"حديث"},{"id":"rx0LhdO3ewY","title":"شرح صحيح البخاري كتاب اللباس من أوله","publishedAt":"2018-08-12T20:13:25Z","duration":"PT35M10S","thumbnail":"https://i.ytimg.com/vi/rx0LhdO3ewY/mqdefault.jpg","viewCount":"892","playlistId":"PLEkQk5xrP-tlEerGoLa1AFy-2XvQ-sovv","playlistName":"شرح صحيح البخاري - أ.د. يسري جبر (كاملا)","category":"حديث"},{"id":"N6Lyk72PVzM","title":"شرح صحيح البخاري -  كتاب الحج من باب ٢٥","publishedAt":"2017-03-03T03:39:48Z","duration":"PT35M49S","thumbnail":"https://i.ytimg.com/vi/N6Lyk72PVzM/mqdefault.jpg","viewCount":"892","playlistId":"PLEkQk5xrP-tlEerGoLa1AFy-2XvQ-sovv","playlistName":"شرح صحيح البخاري - أ.د. يسري جبر (كاملا)","category":"حديث"},{"id":"S6V4niDve-E","title":"شرح صحيح البخاري   كتاب الزكاة من باب ٤٨","publishedAt":"2017-02-20T21:41:55Z","duration":"PT35M55S","thumbnail":"https://i.ytimg.com/vi/S6V4niDve-E/mqdefault.jpg","viewCount":"892","playlistId":"PLEkQk5xrP-tlEerGoLa1AFy-2XvQ-sovv","playlistName":"شرح صحيح البخاري - أ.د. يسري جبر (كاملا)","category":"حديث"},{"id":"YuXNj4ZcV3I","title":"شرح صحيح البخاري   كتاب الزكاة من باب ٣٦","publishedAt":"2017-02-18T14:47:51Z","duration":"PT31M4S","thumbnail":"https://i.ytimg.com/vi/YuXNj4ZcV3I/mqdefault.jpg","viewCount":"890","playlistId":"PLEkQk5xrP-tlEerGoLa1AFy-2XvQ-sovv","playlistName":"شرح صحيح البخاري - أ.د. يسري جبر (كاملا)","category":"حديث"},{"id":"AYVPtbgnZ2w","title":"شرح صحيح البخاري - كتاب البيوع من باب ١٥","publishedAt":"2017-04-24T19:34:58Z","duration":"PT38M55S","thumbnail":"https://i.ytimg.com/vi/AYVPtbgnZ2w/mqdefault.jpg","viewCount":"888","playlistId":"PLEkQk5xrP-tlEerGoLa1AFy-2XvQ-sovv","playlistName":"شرح صحيح البخاري - أ.د. يسري جبر (كاملا)","category":"حديث"},{"id":"-lT-DwmyqQc","title":"20- شرح اللؤلؤ والمرجان كتاب الحيض من أوله","publishedAt":"2020-01-05T08:40:13Z","duration":"PT33M4S","thumbnail":"https://i.ytimg.com/vi/-lT-DwmyqQc/mqdefault.jpg","viewCount":"887","playlistId":"PLEkQk5xrP-tmKNjtYLfhATC37QdIsTMe0","playlistName":"شرح كتاب اللؤلؤ والمرجان فيما اتفق عليه الشيخان إماما المحدثين البخاري ومسلم. أ.د. يسري جبر","category":"حديث"},{"id":"6s9oiJLr2EU","title":"17- شرح اللؤلؤ والمرجان كتاب الإيمان من باب ٨٩","publishedAt":"2020-01-03T07:55:50Z","duration":"PT28M2S","thumbnail":"https://i.ytimg.com/vi/6s9oiJLr2EU/mqdefault.jpg","viewCount":"887","playlistId":"PLEkQk5xrP-tmKNjtYLfhATC37QdIsTMe0","playlistName":"شرح كتاب اللؤلؤ والمرجان فيما اتفق عليه الشيخان إماما المحدثين البخاري ومسلم. أ.د. يسري جبر","category":"حديث"},{"id":"IHAhoIUrFkQ","title":"شرح صحيح البخاري - كتاب الجنائز من باب ٨٥","publishedAt":"2017-02-09T12:29:37Z","duration":"PT33M20S","thumbnail":"https://i.ytimg.com/vi/IHAhoIUrFkQ/mqdefault.jpg","viewCount":"885","playlistId":"PLEkQk5xrP-tlEerGoLa1AFy-2XvQ-sovv","playlistName":"شرح صحيح البخاري - أ.د. يسري جبر (كاملا)","category":"حديث"},{"id":"9xSRgs4ZjW0","title":"شرح صحيح البخاري - كتاب الجنائز من باب ٥٧","publishedAt":"2017-02-05T07:03:03Z","duration":"PT22M10S","thumbnail":"https://i.ytimg.com/vi/9xSRgs4ZjW0/mqdefault.jpg","viewCount":"885","playlistId":"PLEkQk5xrP-tlEerGoLa1AFy-2XvQ-sovv","playlistName":"شرح صحيح البخاري - أ.د. يسري جبر (كاملا)","category":"حديث"},{"id":"VV9wCwRv0IU","title":"شرح صحيح البخاري - كتاب بدء الخلق من باب ٥","publishedAt":"2017-09-12T21:01:18Z","duration":"PT37M53S","thumbnail":"https://i.ytimg.com/vi/VV9wCwRv0IU/mqdefault.jpg","viewCount":"884","playlistId":"PLEkQk5xrP-tlEerGoLa1AFy-2XvQ-sovv","playlistName":"شرح صحيح البخاري - أ.د. يسري جبر (كاملا)","category":"حديث"},{"id":"naz6VXIxK6M","title":"شرح صحيح البخاري   كتاب الزكاة من باب ٦٤","publishedAt":"2017-02-24T15:20:52Z","duration":"PT41M49S","thumbnail":"https://i.ytimg.com/vi/naz6VXIxK6M/mqdefault.jpg","viewCount":"883","playlistId":"PLEkQk5xrP-tlEerGoLa1AFy-2XvQ-sovv","playlistName":"شرح صحيح البخاري - أ.د. يسري جبر (كاملا)","category":"حديث"},{"id":"fucbLG5TK5U","title":"شرح صحيح البخاري -  كتاب الحج من باب ٣٥","publishedAt":"2017-03-05T13:33:10Z","duration":"PT32M33S","thumbnail":"https://i.ytimg.com/vi/fucbLG5TK5U/mqdefault.jpg","viewCount":"879","playlistId":"PLEkQk5xrP-tlEerGoLa1AFy-2XvQ-sovv","playlistName":"شرح صحيح البخاري - أ.د. يسري جبر (كاملا)","category":"حديث"},{"id":"q2Ed5sA0qYg","title":"شرح صحيح البخاري - كتاب الصوم من باب ٤٨","publishedAt":"2017-04-12T11:35:53Z","duration":"PT32M19S","thumbnail":"https://i.ytimg.com/vi/q2Ed5sA0qYg/mqdefault.jpg","viewCount":"877","playlistId":"PLEkQk5xrP-tlEerGoLa1AFy-2XvQ-sovv","playlistName":"شرح صحيح البخاري - أ.د. يسري جبر (كاملا)","category":"حديث"},{"id":"1HAlwHhelt0","title":"156- بابٌ من فضائل عبد الله بن مسعود وأمِّه رضي الله عنهما","publishedAt":"2020-10-27T08:52:19Z","duration":"PT25M14S","thumbnail":"https://i.ytimg.com/vi/1HAlwHhelt0/mqdefault.jpg","viewCount":"877","playlistId":"PLEkQk5xrP-tmKNjtYLfhATC37QdIsTMe0","playlistName":"شرح كتاب اللؤلؤ والمرجان فيما اتفق عليه الشيخان إماما المحدثين البخاري ومسلم. أ.د. يسري جبر","category":"حديث"},{"id":"-G6o03CiKJY","title":"شرح صحيح البخاري كتاب القدر من أوله","publishedAt":"2018-11-07T14:11:48Z","duration":"PT36M23S","thumbnail":"https://i.ytimg.com/vi/-G6o03CiKJY/mqdefault.jpg","viewCount":"875","playlistId":"PLEkQk5xrP-tlEerGoLa1AFy-2XvQ-sovv","playlistName":"شرح صحيح البخاري - أ.د. يسري جبر (كاملا)","category":"حديث"},{"id":"n6d123dY9mo","title":"شرح صحيح البخاري - كتاب البيوع من باب ٣٩","publishedAt":"2017-04-28T09:13:33Z","duration":"PT51M7S","thumbnail":"https://i.ytimg.com/vi/n6d123dY9mo/mqdefault.jpg","viewCount":"875","playlistId":"PLEkQk5xrP-tlEerGoLa1AFy-2XvQ-sovv","playlistName":"شرح صحيح البخاري - أ.د. يسري جبر (كاملا)","category":"حديث"}],"total":1218,"page":14,"pageSize":24,"totalPages":51}