{"items":[{"id":"-GYaus2hmNw","title":"صحيح الإمام البخاري رضي الله عنه - كتاب الذبائح والصيد والتسمية على الصيد -المجلس الثامن د. يسري جبر","publishedAt":"2016-04-19T15:46:12Z","duration":"PT1H7M3S","thumbnail":"https://i.ytimg.com/vi/-GYaus2hmNw/mqdefault.jpg","viewCount":"99","playlistId":"PLEkQk5xrP-tmJuzaj4GWRenFoFx9gdbFX","playlistName":"شرح كتاب صحيح الإمام البخاري رضي الله تعالى عنه   أ.د. يسرى جبر","category":"حديث"},{"id":"QwBB8b-0u38","title":"صحيح الإمام البخاري رضي الله عنه - كتاب الأدب - المجلس الثامن عشر د. يسري جبر","publishedAt":"2017-04-17T09:44:09Z","duration":"PT1H3M40S","thumbnail":"https://i.ytimg.com/vi/QwBB8b-0u38/mqdefault.jpg","viewCount":"98","playlistId":"PLEkQk5xrP-tmJuzaj4GWRenFoFx9gdbFX","playlistName":"شرح كتاب صحيح الإمام البخاري رضي الله تعالى عنه   أ.د. يسرى جبر","category":"حديث"},{"id":"GHdFoxhaiIQ","title":"صحيح الإمام البخاري رضي الله عنه - كتاب اللباس ( باب خواتيم الذهب ) المجلس السادس  د. يسري جبر","publishedAt":"2016-10-30T14:55:20Z","duration":"PT34M11S","thumbnail":"https://i.ytimg.com/vi/GHdFoxhaiIQ/mqdefault.jpg","viewCount":"98","playlistId":"PLEkQk5xrP-tmJuzaj4GWRenFoFx9gdbFX","playlistName":"شرح كتاب صحيح الإمام البخاري رضي الله تعالى عنه   أ.د. يسرى جبر","category":"حديث"},{"id":"ze6Zz-IK5zQ","title":"صحيح الإمام البخاري رضي الله عنه - كتاب الدِّيات - باب السن بالسن المجلس الخامس د.يسري جبر","publishedAt":"2018-07-04T17:31:13Z","duration":"PT59M27S","thumbnail":"https://i.ytimg.com/vi/ze6Zz-IK5zQ/mqdefault.jpg","viewCount":"95","playlistId":"PLEkQk5xrP-tmJuzaj4GWRenFoFx9gdbFX","playlistName":"شرح كتاب صحيح الإمام البخاري رضي الله تعالى عنه   أ.د. يسرى جبر","category":"حديث"},{"id":"r1xNHO3gXPw","title":"صحيح الإمام البخاري رضي الله عنه - كتاب الذبائح والصيد والتسمية على الصيد -المجلس الخامس د. يسري جبر","publishedAt":"2016-04-13T20:32:54Z","duration":"PT39M17S","thumbnail":"https://i.ytimg.com/vi/r1xNHO3gXPw/mqdefault.jpg","viewCount":"95","playlistId":"PLEkQk5xrP-tmJuzaj4GWRenFoFx9gdbFX","playlistName":"شرح كتاب صحيح الإمام البخاري رضي الله تعالى عنه   أ.د. يسرى جبر","category":"حديث"},{"id":"sZGx1IPZSsU","title":"صحيح الإمام البخاري رضي الله عنه - كتاب الذبائح والصيد والتسمية على الصيد -المجلس السابع د. يسري جبر","publishedAt":"2016-04-16T20:10:29Z","duration":"PT40M55S","thumbnail":"https://i.ytimg.com/vi/sZGx1IPZSsU/mqdefault.jpg","viewCount":"92","playlistId":"PLEkQk5xrP-tmJuzaj4GWRenFoFx9gdbFX","playlistName":"شرح كتاب صحيح الإمام البخاري رضي الله تعالى عنه   أ.د. يسرى جبر","category":"حديث"},{"id":"YLZdQu60MCE","title":"صحيح الإمام البخاري رضي الله عنه  كتاب الاستئذان باب التسليم والاستئذان ثلاثا - المجلس الثالث","publishedAt":"2017-04-17T09:09:24Z","duration":"PT1H7M19S","thumbnail":"https://i.ytimg.com/vi/YLZdQu60MCE/mqdefault.jpg","viewCount":"92","playlistId":"PLEkQk5xrP-tmJuzaj4GWRenFoFx9gdbFX","playlistName":"شرح كتاب صحيح الإمام البخاري رضي الله تعالى عنه   أ.د. يسرى جبر","category":"حديث"},{"id":"eOGnXVkaOvg","title":"صحيح الإمام البخاري رضي الله عنه - كتاب الذبائح والصيد والتسمية على الصيد -المجلس الثالث د. يسري جبر","publishedAt":"2016-04-02T20:28:29Z","duration":"PT37M12S","thumbnail":"https://i.ytimg.com/vi/eOGnXVkaOvg/mqdefault.jpg","viewCount":"91","playlistId":"PLEkQk5xrP-tmJuzaj4GWRenFoFx9gdbFX","playlistName":"شرح كتاب صحيح الإمام البخاري رضي الله تعالى عنه   أ.د. يسرى جبر","category":"حديث"},{"id":"ZKiiUTydNoc","title":"صحيح الإمام البخاري رضي الله عنه - كتاب الطلاق - المجلس الحادي عشر","publishedAt":"2015-12-03T20:59:06Z","duration":"PT49M33S","thumbnail":"https://i.ytimg.com/vi/ZKiiUTydNoc/mqdefault.jpg","viewCount":"87","playlistId":"PLEkQk5xrP-tmJuzaj4GWRenFoFx9gdbFX","playlistName":"شرح كتاب صحيح الإمام البخاري رضي الله تعالى عنه   أ.د. يسرى جبر","category":"حديث"},{"id":"TRAj3QK0YP4","title":"صحيح البخاري - كتاب الأيمان والنذور - باب صاع المدينة","publishedAt":"2017-12-24T15:56:16Z","duration":"PT53M31S","thumbnail":"https://i.ytimg.com/vi/TRAj3QK0YP4/mqdefault.jpg","viewCount":"86","playlistId":"PLEkQk5xrP-tmJuzaj4GWRenFoFx9gdbFX","playlistName":"شرح كتاب صحيح الإمام البخاري رضي الله تعالى عنه   أ.د. يسرى جبر","category":"حديث"},{"id":"1PSaztxFkzk","title":"صحيح الإمام البخاري رضي الله عنه - كتاب الذبائح والصيد والتسمية على الصيد -المجلس السادس د. يسري جبر","publishedAt":"2016-04-15T17:15:23Z","duration":"PT58M27S","thumbnail":"https://i.ytimg.com/vi/1PSaztxFkzk/mqdefault.jpg","viewCount":"86","playlistId":"PLEkQk5xrP-tmJuzaj4GWRenFoFx9gdbFX","playlistName":"شرح كتاب صحيح الإمام البخاري رضي الله تعالى عنه   أ.د. يسرى جبر","category":"حديث"},{"id":"VRJoiZYLxRc","title":"صحيح الإمام البخاري رضي الله عنه - كتاب الطب المجلس الرابع د. يسري جبر","publishedAt":"2016-08-20T07:17:43Z","duration":"PT1H13M33S","thumbnail":"https://i.ytimg.com/vi/VRJoiZYLxRc/mqdefault.jpg","viewCount":"83","playlistId":"PLEkQk5xrP-tmJuzaj4GWRenFoFx9gdbFX","playlistName":"شرح كتاب صحيح الإمام البخاري رضي الله تعالى عنه   أ.د. يسرى جبر","category":"حديث"},{"id":"dINmLX-CVBo","title":"صحيح الإمام البخاري رضي الله عنه - كتاب الطلاق - المجلس السادس عشر","publishedAt":"2016-01-05T21:14:54Z","duration":"PT49M36S","thumbnail":"https://i.ytimg.com/vi/dINmLX-CVBo/mqdefault.jpg","viewCount":"79","playlistId":"PLEkQk5xrP-tmJuzaj4GWRenFoFx9gdbFX","playlistName":"شرح كتاب صحيح الإمام البخاري رضي الله تعالى عنه   أ.د. يسرى جبر","category":"حديث"},{"id":"mOF5ix4diW4","title":"صحيح الإمام البخاري رضي الله عنه - كتاب الطلاق - المجلس الرابع عشر","publishedAt":"2015-12-20T19:52:36Z","duration":"PT47M23S","thumbnail":"https://i.ytimg.com/vi/mOF5ix4diW4/mqdefault.jpg","viewCount":"77","playlistId":"PLEkQk5xrP-tmJuzaj4GWRenFoFx9gdbFX","playlistName":"شرح كتاب صحيح الإمام البخاري رضي الله تعالى عنه   أ.د. يسرى جبر","category":"حديث"},{"id":"av4P95TBYGo","title":"صحيح الإمام البخاري رضي الله عنه - كتاب الطلاق - المجلس الرابع","publishedAt":"2015-05-31T17:49:38Z","duration":"PT54M42S","thumbnail":"https://i.ytimg.com/vi/av4P95TBYGo/mqdefault.jpg","viewCount":"73","playlistId":"PLEkQk5xrP-tmJuzaj4GWRenFoFx9gdbFX","playlistName":"شرح كتاب صحيح الإمام البخاري رضي الله تعالى عنه   أ.د. يسرى جبر","category":"حديث"},{"id":"qUzRyq_27Ug","title":"صحيح الإمام البخاري رضي الله عنه - كتاب الطلاق - المجلس الخامس عشر","publishedAt":"2015-12-28T10:51:05Z","duration":"PT47M30S","thumbnail":"https://i.ytimg.com/vi/qUzRyq_27Ug/mqdefault.jpg","viewCount":"72","playlistId":"PLEkQk5xrP-tmJuzaj4GWRenFoFx9gdbFX","playlistName":"شرح كتاب صحيح الإمام البخاري رضي الله تعالى عنه   أ.د. يسرى جبر","category":"حديث"},{"id":"Ht95phQwZyU","title":"صحيح الإمام البخاري رضي الله عنه كتاب الاستئذان باب كيف يكتب الكتاب إلى أهل الكتاب - المجلس الرابع","publishedAt":"2017-04-17T09:14:04Z","duration":"PT42M19S","thumbnail":"https://i.ytimg.com/vi/Ht95phQwZyU/mqdefault.jpg","viewCount":"66","playlistId":"PLEkQk5xrP-tmJuzaj4GWRenFoFx9gdbFX","playlistName":"شرح كتاب صحيح الإمام البخاري رضي الله تعالى عنه   أ.د. يسرى جبر","category":"حديث"},{"id":"hJHfk6zoDGY","title":"صحيح البخاري - كتاب الفرائض - باب الولاء لمن اعتق وميراث اللقيط","publishedAt":"2018-02-04T23:39:20Z","duration":"PT47M49S","thumbnail":"https://i.ytimg.com/vi/hJHfk6zoDGY/mqdefault.jpg","viewCount":"48","playlistId":"PLEkQk5xrP-tmJuzaj4GWRenFoFx9gdbFX","playlistName":"شرح كتاب صحيح الإمام البخاري رضي الله تعالى عنه   أ.د. يسرى جبر","category":"حديث"}],"total":1218,"page":51,"pageSize":24,"totalPages":51}