{"items":[{"id":"uL1LCtVcZLE","title":"شرح صحيح البخاري كتاب التفسير فى سورتي الحجر والنحل","publishedAt":"2018-04-02T07:07:03Z","duration":"PT43M7S","thumbnail":"https://i.ytimg.com/vi/uL1LCtVcZLE/mqdefault.jpg","viewCount":"462","playlistId":"PLEkQk5xrP-tlEerGoLa1AFy-2XvQ-sovv","playlistName":"شرح صحيح البخاري - أ.د. يسري جبر (كاملا)","category":"حديث"},{"id":"m4xa2pTClXI","title":"شرح صحيح البخاري كتاب التعبير من باب ٣٠","publishedAt":"2018-12-26T20:44:51Z","duration":"PT35M52S","thumbnail":"https://i.ytimg.com/vi/m4xa2pTClXI/mqdefault.jpg","viewCount":"462","playlistId":"PLEkQk5xrP-tlEerGoLa1AFy-2XvQ-sovv","playlistName":"شرح صحيح البخاري - أ.د. يسري جبر (كاملا)","category":"حديث"},{"id":"Afui6Xk9l44","title":"شرح صحيح البخاري كتاب الدعوات من باب ٥٦","publishedAt":"2018-10-14T08:46:55Z","duration":"PT36M38S","thumbnail":"https://i.ytimg.com/vi/Afui6Xk9l44/mqdefault.jpg","viewCount":"461","playlistId":"PLEkQk5xrP-tlEerGoLa1AFy-2XvQ-sovv","playlistName":"شرح صحيح البخاري - أ.د. يسري جبر (كاملا)","category":"حديث"},{"id":"a8u9o-Hz6ig","title":"شرح صحيح البخاري - كتاب الوصايا من باب ٢٧","publishedAt":"2017-07-22T20:10:15Z","duration":"PT15M26S","thumbnail":"https://i.ytimg.com/vi/a8u9o-Hz6ig/mqdefault.jpg","viewCount":"460","playlistId":"PLEkQk5xrP-tlEerGoLa1AFy-2XvQ-sovv","playlistName":"شرح صحيح البخاري - أ.د. يسري جبر (كاملا)","category":"حديث"},{"id":"6ou70ssly2Q","title":"شرح صحيح البخاري كتاب الدعوات من باب ٤٨","publishedAt":"2018-10-12T21:04:25Z","duration":"PT33M30S","thumbnail":"https://i.ytimg.com/vi/6ou70ssly2Q/mqdefault.jpg","viewCount":"459","playlistId":"PLEkQk5xrP-tlEerGoLa1AFy-2XvQ-sovv","playlistName":"شرح صحيح البخاري - أ.د. يسري جبر (كاملا)","category":"حديث"},{"id":"cgvBOVTTcDQ","title":"شرح صحيح البخاري كتاب الأشربة من باب ١٣","publishedAt":"2018-07-28T13:08:14Z","duration":"PT34M38S","thumbnail":"https://i.ytimg.com/vi/cgvBOVTTcDQ/mqdefault.jpg","viewCount":"459","playlistId":"PLEkQk5xrP-tlEerGoLa1AFy-2XvQ-sovv","playlistName":"شرح صحيح البخاري - أ.د. يسري جبر (كاملا)","category":"حديث"},{"id":"jtR5hLvWsDQ","title":"شرح صحيح البخاري  كتاب فضائل الصحابة من باب ١٨","publishedAt":"2017-11-21T18:37:33Z","duration":"PT29M14S","thumbnail":"https://i.ytimg.com/vi/jtR5hLvWsDQ/mqdefault.jpg","viewCount":"459","playlistId":"PLEkQk5xrP-tlEerGoLa1AFy-2XvQ-sovv","playlistName":"شرح صحيح البخاري - أ.د. يسري جبر (كاملا)","category":"حديث"},{"id":"fNQ8kGbcf5o","title":"شرح صحيح البخاري كتاب الاستئذان من باب ٤٠","publishedAt":"2018-09-29T11:27:54Z","duration":"PT32M40S","thumbnail":"https://i.ytimg.com/vi/fNQ8kGbcf5o/mqdefault.jpg","viewCount":"458","playlistId":"PLEkQk5xrP-tlEerGoLa1AFy-2XvQ-sovv","playlistName":"شرح صحيح البخاري - أ.د. يسري جبر (كاملا)","category":"حديث"},{"id":"b_a-aj6veCI","title":"شرح صحيح البخاري كتاب الدعوات من باب ٣٣","publishedAt":"2018-10-08T21:45:35Z","duration":"PT20M25S","thumbnail":"https://i.ytimg.com/vi/b_a-aj6veCI/mqdefault.jpg","viewCount":"457","playlistId":"PLEkQk5xrP-tlEerGoLa1AFy-2XvQ-sovv","playlistName":"شرح صحيح البخاري - أ.د. يسري جبر (كاملا)","category":"حديث"},{"id":"lHEtIZ4RcMk","title":"45- شرح اللؤلؤ والمرجان كتاب صلاة العيدين من أوله","publishedAt":"2020-01-23T11:43:00Z","duration":"PT26M54S","thumbnail":"https://i.ytimg.com/vi/lHEtIZ4RcMk/mqdefault.jpg","viewCount":"457","playlistId":"PLEkQk5xrP-tmKNjtYLfhATC37QdIsTMe0","playlistName":"شرح كتاب اللؤلؤ والمرجان فيما اتفق عليه الشيخان إماما المحدثين البخاري ومسلم. أ.د. يسري جبر","category":"حديث"},{"id":"bziuT30O9Bk","title":"شرح صحيح البخاري كتاب الديات من باب ٣","publishedAt":"2018-12-04T20:28:14Z","duration":"PT35M4S","thumbnail":"https://i.ytimg.com/vi/bziuT30O9Bk/mqdefault.jpg","viewCount":"456","playlistId":"PLEkQk5xrP-tlEerGoLa1AFy-2XvQ-sovv","playlistName":"شرح صحيح البخاري - أ.د. يسري جبر (كاملا)","category":"حديث"},{"id":"FBENCXar6Vg","title":"شرح صحيح البخاري كتاب الرقاق من باب ٣","publishedAt":"2018-10-18T12:44:20Z","duration":"PT22M48S","thumbnail":"https://i.ytimg.com/vi/FBENCXar6Vg/mqdefault.jpg","viewCount":"456","playlistId":"PLEkQk5xrP-tlEerGoLa1AFy-2XvQ-sovv","playlistName":"شرح صحيح البخاري - أ.د. يسري جبر (كاملا)","category":"حديث"},{"id":"HDhWzfv-hTQ","title":"شرح صحيح البخاري كتاب اللباس من باب 38","publishedAt":"2018-08-18T18:04:07Z","duration":"PT36M32S","thumbnail":"https://i.ytimg.com/vi/HDhWzfv-hTQ/mqdefault.jpg","viewCount":"456","playlistId":"PLEkQk5xrP-tlEerGoLa1AFy-2XvQ-sovv","playlistName":"شرح صحيح البخاري - أ.د. يسري جبر (كاملا)","category":"حديث"},{"id":"mEhuWJ3PV10","title":"شرح صحيح البخاري كتاب التفسير فى سورة المائدة من باب ٦","publishedAt":"2018-03-22T04:08:08Z","duration":"PT24M22S","thumbnail":"https://i.ytimg.com/vi/mEhuWJ3PV10/mqdefault.jpg","viewCount":"454","playlistId":"PLEkQk5xrP-tlEerGoLa1AFy-2XvQ-sovv","playlistName":"شرح صحيح البخاري - أ.د. يسري جبر (كاملا)","category":"حديث"},{"id":"R6bi9Jv_apw","title":"شرح حديث سبعة يظلهم الله يوم القيامة في ظل عرشه (4/9)","publishedAt":"2014-05-08T17:42:16Z","duration":"PT39M3S","thumbnail":"https://i.ytimg.com/vi/R6bi9Jv_apw/mqdefault.jpg","viewCount":"453","playlistId":"PLEkQk5xrP-tnzqzkOeEPbbPLsxgy-MYcW","playlistName":"شرح حديث سبعة يظلهم الله يوم القيامة في ظل عرشه - كتاب بهجة  النفوس - د. يسري جبر","category":"حديث"},{"id":"boWy5NlNVuI","title":"81- شرح اللؤلؤ والمرجان كتاب الرضاع من أوله","publishedAt":"2020-02-29T06:00:02Z","duration":"PT14M30S","thumbnail":"https://i.ytimg.com/vi/boWy5NlNVuI/mqdefault.jpg","viewCount":"453","playlistId":"PLEkQk5xrP-tmKNjtYLfhATC37QdIsTMe0","playlistName":"شرح كتاب اللؤلؤ والمرجان فيما اتفق عليه الشيخان إماما المحدثين البخاري ومسلم. أ.د. يسري جبر","category":"حديث"},{"id":"5trtK0OAQJA","title":"شرح صحيح البخاري كتاب التفسير فى سورة براءة من باب ١٤","publishedAt":"2018-03-29T09:30:26Z","duration":"PT35M59S","thumbnail":"https://i.ytimg.com/vi/5trtK0OAQJA/mqdefault.jpg","viewCount":"453","playlistId":"PLEkQk5xrP-tlEerGoLa1AFy-2XvQ-sovv","playlistName":"شرح صحيح البخاري - أ.د. يسري جبر (كاملا)","category":"حديث"},{"id":"eNgg_pQvlDc","title":"شرح صحيح البخاري   كتاب مناقب الأنصار من باب ٢١","publishedAt":"2017-12-05T17:24:21Z","duration":"PT20M42S","thumbnail":"https://i.ytimg.com/vi/eNgg_pQvlDc/mqdefault.jpg","viewCount":"453","playlistId":"PLEkQk5xrP-tlEerGoLa1AFy-2XvQ-sovv","playlistName":"شرح صحيح البخاري - أ.د. يسري جبر (كاملا)","category":"حديث"},{"id":"axQxU9xBoVE","title":"شرح صحيح البخاري كتاب التعبير من باب ٢٢","publishedAt":"2018-12-25T21:05:42Z","duration":"PT27M30S","thumbnail":"https://i.ytimg.com/vi/axQxU9xBoVE/mqdefault.jpg","viewCount":"453","playlistId":"PLEkQk5xrP-tlEerGoLa1AFy-2XvQ-sovv","playlistName":"شرح صحيح البخاري - أ.د. يسري جبر (كاملا)","category":"حديث"},{"id":"UtncoO6Ch5I","title":"78- شرح اللؤلؤ والمرجان كتاب النكاح من الباب السابع","publishedAt":"2020-02-26T06:00:04Z","duration":"PT25M8S","thumbnail":"https://i.ytimg.com/vi/UtncoO6Ch5I/mqdefault.jpg","viewCount":"452","playlistId":"PLEkQk5xrP-tmKNjtYLfhATC37QdIsTMe0","playlistName":"شرح كتاب اللؤلؤ والمرجان فيما اتفق عليه الشيخان إماما المحدثين البخاري ومسلم. أ.د. يسري جبر","category":"حديث"},{"id":"E9V7ntw8LI8","title":"105- شرح اللؤلؤ والمرجان كتاب الحدود من أوله","publishedAt":"2020-03-25T06:00:02Z","duration":"PT37M10S","thumbnail":"https://i.ytimg.com/vi/E9V7ntw8LI8/mqdefault.jpg","viewCount":"451","playlistId":"PLEkQk5xrP-tmKNjtYLfhATC37QdIsTMe0","playlistName":"شرح كتاب اللؤلؤ والمرجان فيما اتفق عليه الشيخان إماما المحدثين البخاري ومسلم. أ.د. يسري جبر","category":"حديث"},{"id":"eFgdw-AVZtU","title":"شرح صحيح البخاري   كتاب مناقب الأنصار من باب ٢٩","publishedAt":"2017-12-07T21:00:58Z","duration":"PT21M","thumbnail":"https://i.ytimg.com/vi/eFgdw-AVZtU/mqdefault.jpg","viewCount":"451","playlistId":"PLEkQk5xrP-tlEerGoLa1AFy-2XvQ-sovv","playlistName":"شرح صحيح البخاري - أ.د. يسري جبر (كاملا)","category":"حديث"},{"id":"kd4C9piLp5M","title":"شرح صحيح البخاري كتاب الأيمان والنذور من باب ١٧","publishedAt":"2018-11-15T15:39:33Z","duration":"PT33M51S","thumbnail":"https://i.ytimg.com/vi/kd4C9piLp5M/mqdefault.jpg","viewCount":"450","playlistId":"PLEkQk5xrP-tlEerGoLa1AFy-2XvQ-sovv","playlistName":"شرح صحيح البخاري - أ.د. يسري جبر (كاملا)","category":"حديث"},{"id":"prxP1s1qths","title":"شرح صحيح البخاري كتاب الاستئذان من باب ١١","publishedAt":"2018-09-24T20:16:45Z","duration":"PT37M28S","thumbnail":"https://i.ytimg.com/vi/prxP1s1qths/mqdefault.jpg","viewCount":"450","playlistId":"PLEkQk5xrP-tlEerGoLa1AFy-2XvQ-sovv","playlistName":"شرح صحيح البخاري - أ.د. يسري جبر (كاملا)","category":"حديث"}],"total":1218,"page":36,"pageSize":24,"totalPages":51}