{"items":[{"id":"SfeyYKP50bM","title":"هل رؤية النبي ﷺ يقظة حقيقة أم هلاوس؟","publishedAt":"2022-08-02T18:00:16Z","duration":"PT14M10S","thumbnail":"https://i.ytimg.com/vi/SfeyYKP50bM/mqdefault.jpg","viewCount":"7336","playlistId":"PLEkQk5xrP-tkGXuZ9atE3k_7it12rUPTs","playlistName":"أسئلة المتابعين","category":"متنوع"},{"id":"AFuroSf7dv8","title":"من هم الأوتاد والأبدال والجرس والنجباء؟","publishedAt":"2022-08-04T18:00:04Z","duration":"PT8M1S","thumbnail":"https://i.ytimg.com/vi/AFuroSf7dv8/mqdefault.jpg","viewCount":"23005","playlistId":"PLEkQk5xrP-tkGXuZ9atE3k_7it12rUPTs","playlistName":"أسئلة المتابعين","category":"متنوع"},{"id":"UHoHsaANsvE","title":"هل يجوز العمل في السياحة؟","publishedAt":"2022-08-05T18:00:12Z","duration":"PT9M10S","thumbnail":"https://i.ytimg.com/vi/UHoHsaANsvE/mqdefault.jpg","viewCount":"3282","playlistId":"PLEkQk5xrP-tkGXuZ9atE3k_7it12rUPTs","playlistName":"أسئلة المتابعين","category":"متنوع"},{"id":"OsVpzLMLmXI","title":"كيف نرد على من ينكر مديح الأولياء؟","publishedAt":"2022-08-08T18:00:09Z","duration":"PT8M57S","thumbnail":"https://i.ytimg.com/vi/OsVpzLMLmXI/mqdefault.jpg","viewCount":"6965","playlistId":"PLEkQk5xrP-tkGXuZ9atE3k_7it12rUPTs","playlistName":"أسئلة المتابعين","category":"متنوع"},{"id":"hP8Z3xgx-hU","title":"كيف أنزع حب الدنيا من قلبي؟","publishedAt":"2022-08-11T18:00:14Z","duration":"PT11M4S","thumbnail":"https://i.ytimg.com/vi/hP8Z3xgx-hU/mqdefault.jpg","viewCount":"8816","playlistId":"PLEkQk5xrP-tkGXuZ9atE3k_7it12rUPTs","playlistName":"أسئلة المتابعين","category":"متنوع"},{"id":"HSev5FHVVrc","title":"أشعر بالقهر والظلم في عملي ,, ماذا أفعل؟","publishedAt":"2022-08-13T18:00:05Z","duration":"PT10M49S","thumbnail":"https://i.ytimg.com/vi/HSev5FHVVrc/mqdefault.jpg","viewCount":"15715","playlistId":"PLEkQk5xrP-tkGXuZ9atE3k_7it12rUPTs","playlistName":"أسئلة المتابعين","category":"متنوع"},{"id":"xNgj6HkDHo8","title":"كيف أنظم وقتي؟","publishedAt":"2022-08-21T18:00:30Z","duration":"PT8M48S","thumbnail":"https://i.ytimg.com/vi/xNgj6HkDHo8/mqdefault.jpg","viewCount":"22656","playlistId":"PLEkQk5xrP-tkGXuZ9atE3k_7it12rUPTs","playlistName":"أسئلة المتابعين","category":"متنوع"},{"id":"QefZZTur1Uo","title":"ما معنى قراءة الفاتحة لسيدنا محمد ﷺ؟","publishedAt":"2022-08-25T18:00:15Z","duration":"PT10M17S","thumbnail":"https://i.ytimg.com/vi/QefZZTur1Uo/mqdefault.jpg","viewCount":"7347","playlistId":"PLEkQk5xrP-tkGXuZ9atE3k_7it12rUPTs","playlistName":"أسئلة المتابعين","category":"متنوع"},{"id":"wyj6UMP9Jm4","title":"كيفية تعليم الثقافة الجنسية للأطفال بشكل صحيح؟","publishedAt":"2022-09-04T19:01:51Z","duration":"PT10M5S","thumbnail":"https://i.ytimg.com/vi/wyj6UMP9Jm4/mqdefault.jpg","viewCount":"8393","playlistId":"PLEkQk5xrP-tkGXuZ9atE3k_7it12rUPTs","playlistName":"أسئلة المتابعين","category":"متنوع"},{"id":"4CnFB9j-4Es","title":"هل يوجد أسرار في التصوف؟","publishedAt":"2022-09-06T18:30:03Z","duration":"PT11M6S","thumbnail":"https://i.ytimg.com/vi/4CnFB9j-4Es/mqdefault.jpg","viewCount":"46261","playlistId":"PLEkQk5xrP-tkGXuZ9atE3k_7it12rUPTs","playlistName":"أسئلة المتابعين","category":"متنوع"},{"id":"-_uKnDI8yxU","title":"ما الدليل على أن العوالم خلقت من نور سيدنا محمد ﷺ؟","publishedAt":"2022-09-08T19:01:47Z","duration":"PT9M30S","thumbnail":"https://i.ytimg.com/vi/-_uKnDI8yxU/mqdefault.jpg","viewCount":"13534","playlistId":"PLEkQk5xrP-tkGXuZ9atE3k_7it12rUPTs","playlistName":"أسئلة المتابعين","category":"متنوع"},{"id":"5MBNPCyEZXI","title":"ما حكم الخروج على الحاكم الظالم؟","publishedAt":"2022-09-09T18:00:02Z","duration":"PT10M55S","thumbnail":"https://i.ytimg.com/vi/5MBNPCyEZXI/mqdefault.jpg","viewCount":"7688","playlistId":"PLEkQk5xrP-tkGXuZ9atE3k_7it12rUPTs","playlistName":"أسئلة المتابعين","category":"متنوع"},{"id":"cll9vq-m3yE","title":"ما معنى الجذب ومن هم المجاذيب؟","publishedAt":"2022-09-10T18:00:24Z","duration":"PT8M17S","thumbnail":"https://i.ytimg.com/vi/cll9vq-m3yE/mqdefault.jpg","viewCount":"64491","playlistId":"PLEkQk5xrP-tkGXuZ9atE3k_7it12rUPTs","playlistName":"أسئلة المتابعين","category":"متنوع"},{"id":"ArnlvcPAY7o","title":"ما موقف الصوفية من سيدنا معاوية بن أبي سفيان؟","publishedAt":"2022-09-17T18:41:33Z","duration":"PT11M34S","thumbnail":"https://i.ytimg.com/vi/ArnlvcPAY7o/mqdefault.jpg","viewCount":"12352","playlistId":"PLEkQk5xrP-tkGXuZ9atE3k_7it12rUPTs","playlistName":"أسئلة المتابعين","category":"متنوع"},{"id":"bydtfcr2Hzc","title":"هل يجوز ابتغاء الوسيلة للتقرب إلى الله؟","publishedAt":"2022-09-18T18:23:29Z","duration":"PT9M36S","thumbnail":"https://i.ytimg.com/vi/bydtfcr2Hzc/mqdefault.jpg","viewCount":"5654","playlistId":"PLEkQk5xrP-tkGXuZ9atE3k_7it12rUPTs","playlistName":"أسئلة المتابعين","category":"متنوع"},{"id":"BWUMu5wE95g","title":"هل يجوز فك السحر بسحر مثله؟","publishedAt":"2022-09-24T18:00:03Z","duration":"PT9M5S","thumbnail":"https://i.ytimg.com/vi/BWUMu5wE95g/mqdefault.jpg","viewCount":"6195","playlistId":"PLEkQk5xrP-tkGXuZ9atE3k_7it12rUPTs","playlistName":"أسئلة المتابعين","category":"متنوع"},{"id":"j9AC5gMrF1Y","title":"هل يجوز التبرع بالأعضاء بعد الوفاة؟","publishedAt":"2022-10-01T18:00:14Z","duration":"PT10M9S","thumbnail":"https://i.ytimg.com/vi/j9AC5gMrF1Y/mqdefault.jpg","viewCount":"5477","playlistId":"PLEkQk5xrP-tkGXuZ9atE3k_7it12rUPTs","playlistName":"أسئلة المتابعين","category":"متنوع"},{"id":"JYxNlrgFYK0","title":"هل كل ما نفعله في حُبّ النَّبيّ يحتاج إلى دليل؟","publishedAt":"2022-10-13T18:00:06Z","duration":"PT10M48S","thumbnail":"https://i.ytimg.com/vi/JYxNlrgFYK0/mqdefault.jpg","viewCount":"4292","playlistId":"PLEkQk5xrP-tkGXuZ9atE3k_7it12rUPTs","playlistName":"أسئلة المتابعين","category":"متنوع"},{"id":"gyGvyx4AFw4","title":"هل يجب إقامة خلافة إسلامية مرة أخرى؟","publishedAt":"2022-10-14T18:00:30Z","duration":"PT11M22S","thumbnail":"https://i.ytimg.com/vi/gyGvyx4AFw4/mqdefault.jpg","viewCount":"7022","playlistId":"PLEkQk5xrP-tkGXuZ9atE3k_7it12rUPTs","playlistName":"أسئلة المتابعين","category":"متنوع"},{"id":"H5bJlVXBJlA","title":"كيف تحمي نفسك من السحر؟","publishedAt":"2022-10-17T18:00:13Z","duration":"PT8M16S","thumbnail":"https://i.ytimg.com/vi/H5bJlVXBJlA/mqdefault.jpg","viewCount":"14889","playlistId":"PLEkQk5xrP-tkGXuZ9atE3k_7it12rUPTs","playlistName":"أسئلة المتابعين","category":"متنوع"},{"id":"ayahNSE-mkE","title":"هل الأذان الثاني يوم الجمعة بدعة؟","publishedAt":"2022-10-18T18:00:03Z","duration":"PT10M31S","thumbnail":"https://i.ytimg.com/vi/ayahNSE-mkE/mqdefault.jpg","viewCount":"2729","playlistId":"PLEkQk5xrP-tkGXuZ9atE3k_7it12rUPTs","playlistName":"أسئلة المتابعين","category":"متنوع"},{"id":"5s9X5XL3q-0","title":"قصة سيدنا الحسن والحسين كاملة","publishedAt":"2022-10-20T18:00:02Z","duration":"PT9M38S","thumbnail":"https://i.ytimg.com/vi/5s9X5XL3q-0/mqdefault.jpg","viewCount":"26172","playlistId":"PLEkQk5xrP-tkGXuZ9atE3k_7it12rUPTs","playlistName":"أسئلة المتابعين","category":"متنوع"},{"id":"96M0wh_sT9E","title":"!الرد على اعتراض الوهابية على مسألة الكشف","publishedAt":"2022-10-25T18:45:01Z","duration":"PT16M26S","thumbnail":"https://i.ytimg.com/vi/96M0wh_sT9E/mqdefault.jpg","viewCount":"93326","playlistId":"PLEkQk5xrP-tkGXuZ9atE3k_7it12rUPTs","playlistName":"أسئلة المتابعين","category":"متنوع"},{"id":"MfimGAhT5_0","title":"ما تقسير أن النبيﷺ هو أول خلق الله؟","publishedAt":"2022-11-01T18:00:15Z","duration":"PT15M24S","thumbnail":"https://i.ytimg.com/vi/MfimGAhT5_0/mqdefault.jpg","viewCount":"17414","playlistId":"PLEkQk5xrP-tkGXuZ9atE3k_7it12rUPTs","playlistName":"أسئلة المتابعين","category":"متنوع"}],"total":335,"page":5,"pageSize":24,"totalPages":14}