{"items":[{"id":"OTldVBP_nZU","title":"ورد يوم السبت من كتاب دلائل الخيرات وشوارق الأنوار في ذكر الصلاة على النَّبيّ المختار ﷺ","publishedAt":"2023-09-02T04:00:20Z","duration":"PT18M58S","thumbnail":"https://i.ytimg.com/vi/OTldVBP_nZU/mqdefault.jpg","viewCount":"20878","playlistId":"PLEkQk5xrP-tnAXVT9Huen-nNMlvs5w6UI","playlistName":"دلائل الخيرات و شوارق الأنوار في ذكر الصلاة على النَّبيّ المختار ﷺ","category":"تصوف"},{"id":"DDJL-lGtR20","title":"الرسالة القشيرية - المجلس (111) بَابُ كرامات الأولياء ٤ | أ.د. يسري جبر","publishedAt":"2022-02-10T20:05:10Z","duration":"PT51M26S","thumbnail":"https://i.ytimg.com/vi/DDJL-lGtR20/mqdefault.jpg","viewCount":"19583","playlistId":"PLEkQk5xrP-tkHAGOwIKr4pc5ehhyQ5HMJ","playlistName":"كتاب الرسالة القشيرية (تصوف) - د. يسري جبر","category":"تصوف"},{"id":"qOYoWZHOi-A","title":"الرسالة القشيرية - المجلس (114) بَابُ كرامات الأولياء ٧ | أ.د. يسري جبر","publishedAt":"2022-03-01T18:05:28Z","duration":"PT51M51S","thumbnail":"https://i.ytimg.com/vi/qOYoWZHOi-A/mqdefault.jpg","viewCount":"19484","playlistId":"PLEkQk5xrP-tkHAGOwIKr4pc5ehhyQ5HMJ","playlistName":"كتاب الرسالة القشيرية (تصوف) - د. يسري جبر","category":"تصوف"},{"id":"IlIw4GIy4pk","title":"ورد يوم الإثنين بداية بأسماء النَّبيّ ﷺ من كتاب دلائل الخيرات وشوارق الأنوار","publishedAt":"2023-09-04T09:00:09Z","duration":"PT31M5S","thumbnail":"https://i.ytimg.com/vi/IlIw4GIy4pk/mqdefault.jpg","viewCount":"19444","playlistId":"PLEkQk5xrP-tnAXVT9Huen-nNMlvs5w6UI","playlistName":"دلائل الخيرات و شوارق الأنوار في ذكر الصلاة على النَّبيّ المختار ﷺ","category":"تصوف"},{"id":"FX4BsGq5rig","title":"57- كيف تذكر الله بقلبك وما هي أنواع الذكر؟ | شرح منازل السائرين","publishedAt":"2025-01-07T18:15:00Z","duration":"PT30M53S","thumbnail":"https://i.ytimg.com/vi/FX4BsGq5rig/mqdefault.jpg","viewCount":"19268","playlistId":"PLEkQk5xrP-tmiUfQ-2Tsn7QIak4EsvaZW","playlistName":"كتاب التيسير المعين بشرح معاني منازل السائرين (تصوف) - د.يسري جبر","category":"تصوف"},{"id":"e7Vjm8d8h10","title":"الرسالة القشيرية - المجلس (119) بَابُ الوصية للمريدين | أ.د. يسري جبر","publishedAt":"2022-06-17T18:15:06Z","duration":"PT56M17S","thumbnail":"https://i.ytimg.com/vi/e7Vjm8d8h10/mqdefault.jpg","viewCount":"18162","playlistId":"PLEkQk5xrP-tkHAGOwIKr4pc5ehhyQ5HMJ","playlistName":"كتاب الرسالة القشيرية (تصوف) - د. يسري جبر","category":"تصوف"},{"id":"IJPkRt534tA","title":"شرح كتاب الرسالة القشيرية - المجلس الخامس - الفصل الأول (2)","publishedAt":"2017-12-15T08:05:01Z","duration":"PT1H14M13S","thumbnail":"https://i.ytimg.com/vi/IJPkRt534tA/mqdefault.jpg","viewCount":"17722","playlistId":"PLEkQk5xrP-tkHAGOwIKr4pc5ehhyQ5HMJ","playlistName":"كتاب الرسالة القشيرية (تصوف) - د. يسري جبر","category":"تصوف"},{"id":"XdOVS8vbOhE","title":"ورد يوم الثلاثاء من كتاب دلائل الخيرات وشوارق الأنوار في ذكر الصلاة على النَّبيّ المختار ﷺ","publishedAt":"2023-09-05T09:00:28Z","duration":"PT14M40S","thumbnail":"https://i.ytimg.com/vi/XdOVS8vbOhE/mqdefault.jpg","viewCount":"17535","playlistId":"PLEkQk5xrP-tnAXVT9Huen-nNMlvs5w6UI","playlistName":"دلائل الخيرات و شوارق الأنوار في ذكر الصلاة على النَّبيّ المختار ﷺ","category":"تصوف"},{"id":"nGkxIWQMv0Y","title":"شرح منازل السائرين - المجلس (4) باب التوبة | أ.د. يسري جبر","publishedAt":"2022-08-17T17:13:13Z","duration":"PT41M16S","thumbnail":"https://i.ytimg.com/vi/nGkxIWQMv0Y/mqdefault.jpg","viewCount":"17452","playlistId":"PLEkQk5xrP-tmiUfQ-2Tsn7QIak4EsvaZW","playlistName":"كتاب التيسير المعين بشرح معاني منازل السائرين (تصوف) - د.يسري جبر","category":"تصوف"},{"id":"nKz5frEwqQY","title":"ورد يوم الأحد من كتاب دلائل الخيرات وشوارق الأنوار في ذكر الصلاة على النَّبيّ المختار ﷺ","publishedAt":"2023-09-03T09:00:34Z","duration":"PT25M40S","thumbnail":"https://i.ytimg.com/vi/nKz5frEwqQY/mqdefault.jpg","viewCount":"17416","playlistId":"PLEkQk5xrP-tnAXVT9Huen-nNMlvs5w6UI","playlistName":"دلائل الخيرات و شوارق الأنوار في ذكر الصلاة على النَّبيّ المختار ﷺ","category":"تصوف"},{"id":"j--NzQhEN1k","title":"ورد يوم الأربعاء من كتاب دلائل الخيرات وشوارق الأنوار في ذكر الصلاة على النَّبيّ المختار ﷺ","publishedAt":"2023-09-06T09:00:35Z","duration":"PT15M3S","thumbnail":"https://i.ytimg.com/vi/j--NzQhEN1k/mqdefault.jpg","viewCount":"17106","playlistId":"PLEkQk5xrP-tnAXVT9Huen-nNMlvs5w6UI","playlistName":"دلائل الخيرات و شوارق الأنوار في ذكر الصلاة على النَّبيّ المختار ﷺ","category":"تصوف"},{"id":"Nzp5dfVvcrk","title":"ورد يوم الخميس من كتاب دلائل الخيرات وشوارق الأنوار في ذكر الصلاة على النَّبيّ المختار ﷺ","publishedAt":"2023-09-07T09:00:24Z","duration":"PT14M49S","thumbnail":"https://i.ytimg.com/vi/Nzp5dfVvcrk/mqdefault.jpg","viewCount":"16917","playlistId":"PLEkQk5xrP-tnAXVT9Huen-nNMlvs5w6UI","playlistName":"دلائل الخيرات و شوارق الأنوار في ذكر الصلاة على النَّبيّ المختار ﷺ","category":"تصوف"},{"id":"M1YrBhXPXAc","title":"الرسالة القشيرية - المجلس (64)  بابُ الْيَقِينِ. أ.د. يسري جبر","publishedAt":"2019-10-17T15:05:43Z","duration":"PT1H8M21S","thumbnail":"https://i.ytimg.com/vi/M1YrBhXPXAc/mqdefault.jpg","viewCount":"15443","playlistId":"PLEkQk5xrP-tkHAGOwIKr4pc5ehhyQ5HMJ","playlistName":"كتاب الرسالة القشيرية (تصوف) - د. يسري جبر","category":"تصوف"},{"id":"dfny3k4ZI_Q","title":"الرسالة القشيرية - المجلس (117) بَابُ رؤيا القوم | أ.د. يسري جبر","publishedAt":"2022-04-01T17:00:59Z","duration":"PT58M39S","thumbnail":"https://i.ytimg.com/vi/dfny3k4ZI_Q/mqdefault.jpg","viewCount":"15133","playlistId":"PLEkQk5xrP-tkHAGOwIKr4pc5ehhyQ5HMJ","playlistName":"كتاب الرسالة القشيرية (تصوف) - د. يسري جبر","category":"تصوف"},{"id":"fW-r7sAAuYE","title":"الرسالة القشيرية - المجلس (115) بَابُ كرامات الأولياء ٨ | أ.د. يسري جبر","publishedAt":"2022-03-10T19:22:56Z","duration":"PT51M17S","thumbnail":"https://i.ytimg.com/vi/fW-r7sAAuYE/mqdefault.jpg","viewCount":"15037","playlistId":"PLEkQk5xrP-tkHAGOwIKr4pc5ehhyQ5HMJ","playlistName":"كتاب الرسالة القشيرية (تصوف) - د. يسري جبر","category":"تصوف"},{"id":"TFWDRfZR2Tk","title":"شرح كتاب الرسالة القشيرية - المجلس السادس - الفصل الأول (3)","publishedAt":"2017-12-22T14:24:00Z","duration":"PT1H17M44S","thumbnail":"https://i.ytimg.com/vi/TFWDRfZR2Tk/mqdefault.jpg","viewCount":"14554","playlistId":"PLEkQk5xrP-tkHAGOwIKr4pc5ehhyQ5HMJ","playlistName":"كتاب الرسالة القشيرية (تصوف) - د. يسري جبر","category":"تصوف"},{"id":"E-DZkZUL39A","title":"شرح منازل السائرين - المجلس (2) المقدمة ٢ | أ.د. يسري جبر","publishedAt":"2022-07-20T19:00:02Z","duration":"PT1H1M59S","thumbnail":"https://i.ytimg.com/vi/E-DZkZUL39A/mqdefault.jpg","viewCount":"14261","playlistId":"PLEkQk5xrP-tmiUfQ-2Tsn7QIak4EsvaZW","playlistName":"كتاب التيسير المعين بشرح معاني منازل السائرين (تصوف) - د.يسري جبر","category":"تصوف"},{"id":"8pDVHlgo-3U","title":"(6) سيدنا أبو نصر بِشْر بن الحارث الحافي رضي الله عنه   د. يسري جبر","publishedAt":"2018-03-29T17:41:27Z","duration":"PT14M12S","thumbnail":"https://i.ytimg.com/vi/8pDVHlgo-3U/mqdefault.jpg","viewCount":"14012","playlistId":"PLEkQk5xrP-tmmI87XkWepRdTpisz2Lfgr","playlistName":"باب في ذكر مشايخ هذه الطريقة من شرح كتاب الرسالة القشيرية","category":"تصوف"},{"id":"fCnOyDMTc2A","title":"شرح منازل السائرين - المجلس (5) باب التوبة ۲ | أ.د. يسري جبر","publishedAt":"2022-08-26T20:46:28Z","duration":"PT53M33S","thumbnail":"https://i.ytimg.com/vi/fCnOyDMTc2A/mqdefault.jpg","viewCount":"14011","playlistId":"PLEkQk5xrP-tmiUfQ-2Tsn7QIak4EsvaZW","playlistName":"كتاب التيسير المعين بشرح معاني منازل السائرين (تصوف) - د.يسري جبر","category":"تصوف"},{"id":"Nbh-PGcyRb4","title":"(7) سيدنا أبو عبد الله الحارث بن أسد المحاسبي رضي الله عنه د. يسري جبر","publishedAt":"2018-04-09T11:35:54Z","duration":"PT21M6S","thumbnail":"https://i.ytimg.com/vi/Nbh-PGcyRb4/mqdefault.jpg","viewCount":"13546","playlistId":"PLEkQk5xrP-tmmI87XkWepRdTpisz2Lfgr","playlistName":"باب في ذكر مشايخ هذه الطريقة من شرح كتاب الرسالة القشيرية","category":"تصوف"},{"id":"KWhpqemHnK4","title":"(5) سيدنا أبو الحسن سَريّ بن مُغلِّس السَّقطي   د. يسري جبر","publishedAt":"2018-03-26T18:14:55Z","duration":"PT14M33S","thumbnail":"https://i.ytimg.com/vi/KWhpqemHnK4/mqdefault.jpg","viewCount":"13480","playlistId":"PLEkQk5xrP-tmmI87XkWepRdTpisz2Lfgr","playlistName":"باب في ذكر مشايخ هذه الطريقة من شرح كتاب الرسالة القشيرية","category":"تصوف"},{"id":"_NtxXSgKKNQ","title":"الرسالة القشيرية للإمام القشيري النيسابوري رضي الله عنه المجلس التاسع (باب في ذكر مشايخ هذه الطريقة)","publishedAt":"2018-02-03T18:09:14Z","duration":"PT1H1M20S","thumbnail":"https://i.ytimg.com/vi/_NtxXSgKKNQ/mqdefault.jpg","viewCount":"13401","playlistId":"PLEkQk5xrP-tkHAGOwIKr4pc5ehhyQ5HMJ","playlistName":"كتاب الرسالة القشيرية (تصوف) - د. يسري جبر","category":"تصوف"},{"id":"zHMnMo2-FnY","title":"الرسالة القشيرية المجلس الرابع والأربعون - باب الخلوة والعزلة.  أ.د. يسري جبر","publishedAt":"2019-01-22T18:34:04Z","duration":"PT59M32S","thumbnail":"https://i.ytimg.com/vi/zHMnMo2-FnY/mqdefault.jpg","viewCount":"12617","playlistId":"PLEkQk5xrP-tkHAGOwIKr4pc5ehhyQ5HMJ","playlistName":"كتاب الرسالة القشيرية (تصوف) - د. يسري جبر","category":"تصوف"},{"id":"ltm-Woc9o48","title":"56- طريقك إلى الأنس بالله | شرح منازل السائرين","publishedAt":"2024-12-24T19:56:46Z","duration":"PT31M42S","thumbnail":"https://i.ytimg.com/vi/ltm-Woc9o48/mqdefault.jpg","viewCount":"12559","playlistId":"PLEkQk5xrP-tmiUfQ-2Tsn7QIak4EsvaZW","playlistName":"كتاب التيسير المعين بشرح معاني منازل السائرين (تصوف) - د.يسري جبر","category":"تصوف"}],"total":241,"page":2,"pageSize":24,"totalPages":11}