{"items":[{"id":"bO4CroQih0Q","title":"الرسالة القشيرية - المجلس الخامس و العشرون - (القبض والبسط - الهيبة والأُنس).","publishedAt":"2018-08-02T10:19:47Z","duration":"PT52M47S","thumbnail":"https://i.ytimg.com/vi/bO4CroQih0Q/mqdefault.jpg","viewCount":"12436","playlistId":"PLEkQk5xrP-tkHAGOwIKr4pc5ehhyQ5HMJ","playlistName":"كتاب الرسالة القشيرية (تصوف) - د. يسري جبر","category":"تصوف"},{"id":"krSDFCigd6o","title":"الرسالة القشيرية المجلس السابع و الثلاثون(النَّفْس والروح والسرّ) د. يسري جبر","publishedAt":"2018-11-25T18:34:55Z","duration":"PT1H12M15S","thumbnail":"https://i.ytimg.com/vi/krSDFCigd6o/mqdefault.jpg","viewCount":"12400","playlistId":"PLEkQk5xrP-tkHAGOwIKr4pc5ehhyQ5HMJ","playlistName":"كتاب الرسالة القشيرية (تصوف) - د. يسري جبر","category":"تصوف"},{"id":"DIv5j1p8MrY","title":"الرسالة القشيرية - المجلس (118) بَابُ رؤيا القوم ٢ | أ.د. يسري جبر","publishedAt":"2022-06-09T19:07:23Z","duration":"PT56M27S","thumbnail":"https://i.ytimg.com/vi/DIv5j1p8MrY/mqdefault.jpg","viewCount":"12251","playlistId":"PLEkQk5xrP-tkHAGOwIKr4pc5ehhyQ5HMJ","playlistName":"كتاب الرسالة القشيرية (تصوف) - د. يسري جبر","category":"تصوف"},{"id":"dL_1iG8cl4k","title":"الرسالة القشيرية - المجلس (102) بَابُ الشوق | أ.د. يسري جبر","publishedAt":"2021-12-10T19:46:30Z","duration":"PT53M58S","thumbnail":"https://i.ytimg.com/vi/dL_1iG8cl4k/mqdefault.jpg","viewCount":"12127","playlistId":"PLEkQk5xrP-tkHAGOwIKr4pc5ehhyQ5HMJ","playlistName":"كتاب الرسالة القشيرية (تصوف) - د. يسري جبر","category":"تصوف"},{"id":"pBgMJpzI3QY","title":"شرح كتاب الرسالة القشيرية - المجلس الثامن (الفصل الثاني)","publishedAt":"2018-01-04T16:30:47Z","duration":"PT1H3M55S","thumbnail":"https://i.ytimg.com/vi/pBgMJpzI3QY/mqdefault.jpg","viewCount":"11368","playlistId":"PLEkQk5xrP-tkHAGOwIKr4pc5ehhyQ5HMJ","playlistName":"كتاب الرسالة القشيرية (تصوف) - د. يسري جبر","category":"تصوف"},{"id":"V7NMxZEeT1o","title":"‎الرسالة القشيرية - المجلس (84) بَابُ الولاية . أ.د. يسري جبر","publishedAt":"2020-03-20T17:30:07Z","duration":"PT41M53S","thumbnail":"https://i.ytimg.com/vi/V7NMxZEeT1o/mqdefault.jpg","viewCount":"11162","playlistId":"PLEkQk5xrP-tkHAGOwIKr4pc5ehhyQ5HMJ","playlistName":"كتاب الرسالة القشيرية (تصوف) - د. يسري جبر","category":"تصوف"},{"id":"Ul60He33NjQ","title":"(شرح كتاب الرسالة القشيرية - المجلس السابع (الفصل الأول 4/4","publishedAt":"2017-12-28T11:40:04Z","duration":"PT59M44S","thumbnail":"https://i.ytimg.com/vi/Ul60He33NjQ/mqdefault.jpg","viewCount":"11132","playlistId":"PLEkQk5xrP-tkHAGOwIKr4pc5ehhyQ5HMJ","playlistName":"كتاب الرسالة القشيرية (تصوف) - د. يسري جبر","category":"تصوف"},{"id":"-2c1UfiRNVY","title":"الرسالة القشيرية - المجلس (54) باب الحُزن وباب الجوع وترك الشهوة  أ.د. يسري جبر","publishedAt":"2019-03-30T09:23:41Z","duration":"PT1H9M8S","thumbnail":"https://i.ytimg.com/vi/-2c1UfiRNVY/mqdefault.jpg","viewCount":"11092","playlistId":"PLEkQk5xrP-tkHAGOwIKr4pc5ehhyQ5HMJ","playlistName":"كتاب الرسالة القشيرية (تصوف) - د. يسري جبر","category":"تصوف"},{"id":"yk-tOpadu58","title":"شرح منازل السائرين - المجلس (38) باب التسليم | أ.د. يسري جبر","publishedAt":"2024-02-28T18:30:47Z","duration":"PT48M11S","thumbnail":"https://i.ytimg.com/vi/yk-tOpadu58/mqdefault.jpg","viewCount":"11038","playlistId":"PLEkQk5xrP-tmiUfQ-2Tsn7QIak4EsvaZW","playlistName":"كتاب التيسير المعين بشرح معاني منازل السائرين (تصوف) - د.يسري جبر","category":"تصوف"},{"id":"fGgqn2a8uZU","title":"شرح منازل السائرين - المجلس (8) باب الإنابةِ والتَّفَكُّرِ | أ.د. يسري جبر","publishedAt":"2022-09-14T18:00:31Z","duration":"PT51M28S","thumbnail":"https://i.ytimg.com/vi/fGgqn2a8uZU/mqdefault.jpg","viewCount":"10832","playlistId":"PLEkQk5xrP-tmiUfQ-2Tsn7QIak4EsvaZW","playlistName":"كتاب التيسير المعين بشرح معاني منازل السائرين (تصوف) - د.يسري جبر","category":"تصوف"},{"id":"e3hibHMurc0","title":"الرسالة القشيرية - المجلس الثامن و العشرون - الفناء والبقاء.","publishedAt":"2018-09-11T18:20:32Z","duration":"PT1H3M31S","thumbnail":"https://i.ytimg.com/vi/e3hibHMurc0/mqdefault.jpg","viewCount":"10706","playlistId":"PLEkQk5xrP-tkHAGOwIKr4pc5ehhyQ5HMJ","playlistName":"كتاب الرسالة القشيرية (تصوف) - د. يسري جبر","category":"تصوف"},{"id":"_phdi4Crt8Q","title":"شرح منازل السائرين - المجلس (7) باب المحاسبة | أ.د. يسري جبر","publishedAt":"2022-09-12T18:00:14Z","duration":"PT50M24S","thumbnail":"https://i.ytimg.com/vi/_phdi4Crt8Q/mqdefault.jpg","viewCount":"10656","playlistId":"PLEkQk5xrP-tmiUfQ-2Tsn7QIak4EsvaZW","playlistName":"كتاب التيسير المعين بشرح معاني منازل السائرين (تصوف) - د.يسري جبر","category":"تصوف"},{"id":"kkfMynY944E","title":"الرسالة القشيرية - المجلس العاشر (باب في ذكر مشايخ هذه الطريقة - المجلس الثاني)","publishedAt":"2018-02-08T12:36:57Z","duration":"PT47M48S","thumbnail":"https://i.ytimg.com/vi/kkfMynY944E/mqdefault.jpg","viewCount":"10463","playlistId":"PLEkQk5xrP-tkHAGOwIKr4pc5ehhyQ5HMJ","playlistName":"كتاب الرسالة القشيرية (تصوف) - د. يسري جبر","category":"تصوف"},{"id":"75M4uDbnamQ","title":"68- كيف تشعر بالطمأنينة وراحة البال في حياتك؟ | شرح منازل السائرين","publishedAt":"2025-09-16T17:45:20Z","duration":"PT35M59S","thumbnail":"https://i.ytimg.com/vi/75M4uDbnamQ/mqdefault.jpg","viewCount":"10342","playlistId":"PLEkQk5xrP-tmiUfQ-2Tsn7QIak4EsvaZW","playlistName":"كتاب التيسير المعين بشرح معاني منازل السائرين (تصوف) - د.يسري جبر","category":"تصوف"},{"id":"20dLZPt5JlU","title":"الرسالة القشيرية - المجلس الرابع عشر (باب في ذكر مشايخ هذه الطريقة - المجلس السادس)","publishedAt":"2018-03-08T14:38:42Z","duration":"PT1H1M41S","thumbnail":"https://i.ytimg.com/vi/20dLZPt5JlU/mqdefault.jpg","viewCount":"10341","playlistId":"PLEkQk5xrP-tkHAGOwIKr4pc5ehhyQ5HMJ","playlistName":"كتاب الرسالة القشيرية (تصوف) - د. يسري جبر","category":"تصوف"},{"id":"hPTav_6eXIg","title":"الرسالة القشيرية - المجلس (91) بَابُ الأدب | أ.د. يسري جبر","publishedAt":"2021-09-21T18:41:30Z","duration":"PT1H6M39S","thumbnail":"https://i.ytimg.com/vi/hPTav_6eXIg/mqdefault.jpg","viewCount":"10256","playlistId":"PLEkQk5xrP-tkHAGOwIKr4pc5ehhyQ5HMJ","playlistName":"كتاب الرسالة القشيرية (تصوف) - د. يسري جبر","category":"تصوف"},{"id":"yi2wA1JM7jU","title":"(9) سيدنا أبو علي شقيق بن إبراهيم البلخي رضي الله عنه  د. يسري جبر","publishedAt":"2018-04-09T18:25:03Z","duration":"PT21M41S","thumbnail":"https://i.ytimg.com/vi/yi2wA1JM7jU/mqdefault.jpg","viewCount":"10132","playlistId":"PLEkQk5xrP-tmmI87XkWepRdTpisz2Lfgr","playlistName":"باب في ذكر مشايخ هذه الطريقة من شرح كتاب الرسالة القشيرية","category":"تصوف"},{"id":"i1d_1BoDpDk","title":"الرسالة القشيرية - المجلس (67)  بَابُ الرِضَا . أ.د. يسري جبر","publishedAt":"2019-10-27T07:48:38Z","duration":"PT1H24S","thumbnail":"https://i.ytimg.com/vi/i1d_1BoDpDk/mqdefault.jpg","viewCount":"10054","playlistId":"PLEkQk5xrP-tkHAGOwIKr4pc5ehhyQ5HMJ","playlistName":"كتاب الرسالة القشيرية (تصوف) - د. يسري جبر","category":"تصوف"},{"id":"Ey5P22N4T-o","title":"الرسالة القشيرية - المجلس (100) بَابُ المحبة ۳ | أ.د. يسري جبر","publishedAt":"2021-11-25T18:56:34Z","duration":"PT54M4S","thumbnail":"https://i.ytimg.com/vi/Ey5P22N4T-o/mqdefault.jpg","viewCount":"10009","playlistId":"PLEkQk5xrP-tkHAGOwIKr4pc5ehhyQ5HMJ","playlistName":"كتاب الرسالة القشيرية (تصوف) - د. يسري جبر","category":"تصوف"},{"id":"KYd54QZZKdY","title":"67- متى ينزل الله السكينة على قلبك؟ | شرح منازل السائرين","publishedAt":"2025-09-03T19:00:13Z","duration":"PT30M36S","thumbnail":"https://i.ytimg.com/vi/KYd54QZZKdY/mqdefault.jpg","viewCount":"9985","playlistId":"PLEkQk5xrP-tmiUfQ-2Tsn7QIak4EsvaZW","playlistName":"كتاب التيسير المعين بشرح معاني منازل السائرين (تصوف) - د.يسري جبر","category":"تصوف"},{"id":"mo_UluzU8UU","title":"66- متى يتجلى الإلهام الرباني في قلب المريد؟ | شرح منازل السائرين","publishedAt":"2025-08-06T19:02:01Z","duration":"PT39M9S","thumbnail":"https://i.ytimg.com/vi/mo_UluzU8UU/mqdefault.jpg","viewCount":"9904","playlistId":"PLEkQk5xrP-tmiUfQ-2Tsn7QIak4EsvaZW","playlistName":"كتاب التيسير المعين بشرح معاني منازل السائرين (تصوف) - د.يسري جبر","category":"تصوف"},{"id":"VB8uSBpIKwI","title":"الرسالة القشيرية - المجلس (103) بَابُ حفظ قلوب المشايخ | أ.د. يسري جبر","publishedAt":"2021-12-14T19:07:33Z","duration":"PT37M54S","thumbnail":"https://i.ytimg.com/vi/VB8uSBpIKwI/mqdefault.jpg","viewCount":"9886","playlistId":"PLEkQk5xrP-tkHAGOwIKr4pc5ehhyQ5HMJ","playlistName":"كتاب الرسالة القشيرية (تصوف) - د. يسري جبر","category":"تصوف"},{"id":"kAwsLwlB92U","title":"الرسالة القشيرية - المجلس التاسع والأربعون - باب الصمت - أ.د. يسري جبر","publishedAt":"2019-02-15T14:52:26Z","duration":"PT52M49S","thumbnail":"https://i.ytimg.com/vi/kAwsLwlB92U/mqdefault.jpg","viewCount":"9797","playlistId":"PLEkQk5xrP-tkHAGOwIKr4pc5ehhyQ5HMJ","playlistName":"كتاب الرسالة القشيرية (تصوف) - د. يسري جبر","category":"تصوف"},{"id":"heU8B1Fw5bU","title":"الرسالة القشيرية المجلس الثاني و الثلاثون (المحاضرة والمكاشفة والمشاهدة).د. يسري جبر","publishedAt":"2018-10-18T15:18:30Z","duration":"PT49M42S","thumbnail":"https://i.ytimg.com/vi/heU8B1Fw5bU/mqdefault.jpg","viewCount":"9686","playlistId":"PLEkQk5xrP-tkHAGOwIKr4pc5ehhyQ5HMJ","playlistName":"كتاب الرسالة القشيرية (تصوف) - د. يسري جبر","category":"تصوف"}],"total":241,"page":3,"pageSize":24,"totalPages":11}