{"items":[{"id":"pC_RgBvh0II","title":"القِسمُ (14) من التوكيد: فوائد التَّكرار: الفائدة السابعة (2) - شرح البرهان في علوم القرآن","publishedAt":"2021-04-27T05:25:36Z","duration":"PT29M29S","thumbnail":"https://i.ytimg.com/vi/pC_RgBvh0II/mqdefault.jpg","viewCount":"369","playlistId":"PLEkQk5xrP-tnW3iBL7HkKziOFCFZbTlf0","playlistName":"شرح البرهان في علوم القرآن - أ.د. يسري جبر","category":"تفسير"},{"id":"c_nlTC1SR0U","title":"القِسمُ (14) من التوكيد: فوائد التَّكرار: الفائدة السابعة (3) - شرح البرهان في علوم القرآن","publishedAt":"2021-04-30T04:41:38Z","duration":"PT29M38S","thumbnail":"https://i.ytimg.com/vi/c_nlTC1SR0U/mqdefault.jpg","viewCount":"330","playlistId":"PLEkQk5xrP-tnW3iBL7HkKziOFCFZbTlf0","playlistName":"شرح البرهان في علوم القرآن - أ.د. يسري جبر","category":"تفسير"},{"id":"x3rdlLsbJ7I","title":"القِسمُ (15) من التوكيد: الزيادة في بنية الكلمة - شرح البرهان في علوم القرآن","publishedAt":"2021-05-02T05:05:38Z","duration":"PT10M31S","thumbnail":"https://i.ytimg.com/vi/x3rdlLsbJ7I/mqdefault.jpg","viewCount":"292","playlistId":"PLEkQk5xrP-tnW3iBL7HkKziOFCFZbTlf0","playlistName":"شرح البرهان في علوم القرآن - أ.د. يسري جبر","category":"تفسير"},{"id":"-w8PGQdje-Q","title":"القِسمُ (16) من التوكيد: التفسير - شرح البرهان في علوم القرآن","publishedAt":"2021-05-05T06:12:47Z","duration":"PT18M14S","thumbnail":"https://i.ytimg.com/vi/-w8PGQdje-Q/mqdefault.jpg","viewCount":"289","playlistId":"PLEkQk5xrP-tnW3iBL7HkKziOFCFZbTlf0","playlistName":"شرح البرهان في علوم القرآن - أ.د. يسري جبر","category":"تفسير"},{"id":"q3UoMCgEDmA","title":"القِسمُ (18) من التوكيد: القَسَم - شرح البرهان في علوم القرآن","publishedAt":"2021-05-07T05:29:24Z","duration":"PT17M40S","thumbnail":"https://i.ytimg.com/vi/q3UoMCgEDmA/mqdefault.jpg","viewCount":"232","playlistId":"PLEkQk5xrP-tnW3iBL7HkKziOFCFZbTlf0","playlistName":"شرح البرهان في علوم القرآن - أ.د. يسري جبر","category":"تفسير"},{"id":"rs0Ax6AACdY","title":"القِسمُ (18) من التوكيد: القَسَم \"الفائدة الأولى\"- شرح البرهان في علوم القرآن","publishedAt":"2021-05-08T06:10:05Z","duration":"PT11M21S","thumbnail":"https://i.ytimg.com/vi/rs0Ax6AACdY/mqdefault.jpg","viewCount":"152","playlistId":"PLEkQk5xrP-tnW3iBL7HkKziOFCFZbTlf0","playlistName":"شرح البرهان في علوم القرآن - أ.د. يسري جبر","category":"تفسير"},{"id":"D4YAqDrwuWg","title":"القِسمُ (19) من التوكيد: إبراز الكلام في صورة المستحيل…\"- شرح البرهان في علوم القرآن","publishedAt":"2021-05-11T06:30:56Z","duration":"PT10M31S","thumbnail":"https://i.ytimg.com/vi/D4YAqDrwuWg/mqdefault.jpg","viewCount":"165","playlistId":"PLEkQk5xrP-tnW3iBL7HkKziOFCFZbTlf0","playlistName":"شرح البرهان في علوم القرآن - أ.د. يسري جبر","category":"تفسير"},{"id":"hzc8o54ghWA","title":"القِسمُ (20) من التوكيد: الاستثناء والاستدراك - شرح البرهان في علوم القرآن","publishedAt":"2021-05-13T07:04:18Z","duration":"PT17M6S","thumbnail":"https://i.ytimg.com/vi/hzc8o54ghWA/mqdefault.jpg","viewCount":"328","playlistId":"PLEkQk5xrP-tnW3iBL7HkKziOFCFZbTlf0","playlistName":"شرح البرهان في علوم القرآن - أ.د. يسري جبر","category":"تفسير"},{"id":"qs8PbvAdgt8","title":"القِسمُ (21) من التوكيد: المبالغة - شرح البرهان في علوم القرآن","publishedAt":"2021-05-15T06:47:51Z","duration":"PT16M24S","thumbnail":"https://i.ytimg.com/vi/qs8PbvAdgt8/mqdefault.jpg","viewCount":"328","playlistId":"PLEkQk5xrP-tnW3iBL7HkKziOFCFZbTlf0","playlistName":"شرح البرهان في علوم القرآن - أ.د. يسري جبر","category":"تفسير"},{"id":"IWq_HOd0wLg","title":"القِسمُ (21) من التوكيد: المبالغة (فائدة) - شرح البرهان في علوم القرآن","publishedAt":"2021-05-16T19:21:28Z","duration":"PT18M35S","thumbnail":"https://i.ytimg.com/vi/IWq_HOd0wLg/mqdefault.jpg","viewCount":"379","playlistId":"PLEkQk5xrP-tnW3iBL7HkKziOFCFZbTlf0","playlistName":"شرح البرهان في علوم القرآن - أ.د. يسري جبر","category":"تفسير"},{"id":"MpsvTCUgWc0","title":"القِسمُ (22) من التوكيد: الاعتراض - شرح البرهان في علوم القرآن","publishedAt":"2021-05-18T04:57:05Z","duration":"PT12M2S","thumbnail":"https://i.ytimg.com/vi/MpsvTCUgWc0/mqdefault.jpg","viewCount":"319","playlistId":"PLEkQk5xrP-tnW3iBL7HkKziOFCFZbTlf0","playlistName":"شرح البرهان في علوم القرآن - أ.د. يسري جبر","category":"تفسير"},{"id":"pCuupYitNN4","title":"القِسمُ (22) من التوكيد: الاعتراض (2) شرح البرهان في علوم القرآن","publishedAt":"2021-05-19T06:13:32Z","duration":"PT30M5S","thumbnail":"https://i.ytimg.com/vi/pCuupYitNN4/mqdefault.jpg","viewCount":"353","playlistId":"PLEkQk5xrP-tnW3iBL7HkKziOFCFZbTlf0","playlistName":"شرح البرهان في علوم القرآن - أ.د. يسري جبر","category":"تفسير"},{"id":"K8BQB2_b6bY","title":"القِسمُ (23) من التوكيد: الاحتراس - شرح البرهان في علوم القرآن","publishedAt":"2021-05-20T07:34:03Z","duration":"PT30M18S","thumbnail":"https://i.ytimg.com/vi/K8BQB2_b6bY/mqdefault.jpg","viewCount":"456","playlistId":"PLEkQk5xrP-tnW3iBL7HkKziOFCFZbTlf0","playlistName":"شرح البرهان في علوم القرآن - أ.د. يسري جبر","category":"تفسير"},{"id":"a1HZA-hTjdA","title":"القِسمُ (24) من التوكيد: التَّذْييل - شرح البرهان في علوم القرآن","publishedAt":"2021-05-21T05:45:30Z","duration":"PT13M4S","thumbnail":"https://i.ytimg.com/vi/a1HZA-hTjdA/mqdefault.jpg","viewCount":"527","playlistId":"PLEkQk5xrP-tnW3iBL7HkKziOFCFZbTlf0","playlistName":"شرح البرهان في علوم القرآن - أ.د. يسري جبر","category":"تفسير"},{"id":"ipY83FaBBck","title":"القِسمُ (26) من التوكيد: الزيادة - شرح البرهان في علوم القرآن","publishedAt":"2021-05-22T07:15:47Z","duration":"PT20M18S","thumbnail":"https://i.ytimg.com/vi/ipY83FaBBck/mqdefault.jpg","viewCount":"327","playlistId":"PLEkQk5xrP-tnW3iBL7HkKziOFCFZbTlf0","playlistName":"شرح البرهان في علوم القرآن - أ.د. يسري جبر","category":"تفسير"},{"id":"Ha4H9L4tn3o","title":"القِسمُ (26) من التوكيد: الزيادة (2) التنبيهات - شرح البرهان في علوم القرآن","publishedAt":"2021-05-23T06:27:23Z","duration":"PT11M52S","thumbnail":"https://i.ytimg.com/vi/Ha4H9L4tn3o/mqdefault.jpg","viewCount":"319","playlistId":"PLEkQk5xrP-tnW3iBL7HkKziOFCFZbTlf0","playlistName":"شرح البرهان في علوم القرآن - أ.د. يسري جبر","category":"تفسير"},{"id":"eIUWawgnsRA","title":"القِسمُ (26) من التوكيد: الزيادة (3) حروف الزيادة - شرح البرهان في علوم القرآن","publishedAt":"2021-05-24T06:57:08Z","duration":"PT13M36S","thumbnail":"https://i.ytimg.com/vi/eIUWawgnsRA/mqdefault.jpg","viewCount":"294","playlistId":"PLEkQk5xrP-tnW3iBL7HkKziOFCFZbTlf0","playlistName":"شرح البرهان في علوم القرآن - أ.د. يسري جبر","category":"تفسير"},{"id":"B1uy6hvpqMs","title":"القِسمُ (26) من التوكيد: الزيادة (4) حروف الزيادة - شرح البرهان في علوم القرآن","publishedAt":"2021-05-25T07:09:02Z","duration":"PT21M22S","thumbnail":"https://i.ytimg.com/vi/B1uy6hvpqMs/mqdefault.jpg","viewCount":"279","playlistId":"PLEkQk5xrP-tnW3iBL7HkKziOFCFZbTlf0","playlistName":"شرح البرهان في علوم القرآن - أ.د. يسري جبر","category":"تفسير"},{"id":"YDQ9uQxbTUg","title":"القِسمُ (26) من التوكيد: الزيادة (5) حروف الزيادة - شرح البرهان في علوم القرآن","publishedAt":"2021-05-27T05:00:52Z","duration":"PT11M38S","thumbnail":"https://i.ytimg.com/vi/YDQ9uQxbTUg/mqdefault.jpg","viewCount":"321","playlistId":"PLEkQk5xrP-tnW3iBL7HkKziOFCFZbTlf0","playlistName":"شرح البرهان في علوم القرآن - أ.د. يسري جبر","category":"تفسير"},{"id":"19MZJxPSMj0","title":"القِسمُ (26) من التوكيد: الزيادة (6) حروف الزيادة - شرح البرهان في علوم القرآن","publishedAt":"2021-05-29T07:03:47Z","duration":"PT29M27S","thumbnail":"https://i.ytimg.com/vi/19MZJxPSMj0/mqdefault.jpg","viewCount":"272","playlistId":"PLEkQk5xrP-tnW3iBL7HkKziOFCFZbTlf0","playlistName":"شرح البرهان في علوم القرآن - أ.د. يسري جبر","category":"تفسير"},{"id":"avMg-AnSuKs","title":"القِسمُ (27) من التوكيد: الاشتغال - شرح البرهان في علوم القرآن","publishedAt":"2021-05-30T05:36:02Z","duration":"PT12M8S","thumbnail":"https://i.ytimg.com/vi/avMg-AnSuKs/mqdefault.jpg","viewCount":"320","playlistId":"PLEkQk5xrP-tnW3iBL7HkKziOFCFZbTlf0","playlistName":"شرح البرهان في علوم القرآن - أ.د. يسري جبر","category":"تفسير"},{"id":"-lu-aZteDV4","title":"القِسمُ (28) من التوكيد: التعليل - شرح البرهان في علوم القرآن","publishedAt":"2021-06-01T05:31:56Z","duration":"PT25M36S","thumbnail":"https://i.ytimg.com/vi/-lu-aZteDV4/mqdefault.jpg","viewCount":"361","playlistId":"PLEkQk5xrP-tnW3iBL7HkKziOFCFZbTlf0","playlistName":"شرح البرهان في علوم القرآن - أ.د. يسري جبر","category":"تفسير"},{"id":"9NCsF6reRvk","title":"القِسمُ (28) من التوكيد: التعليل (2) - شرح البرهان في علوم القرآن","publishedAt":"2021-06-03T05:21:37Z","duration":"PT20M18S","thumbnail":"https://i.ytimg.com/vi/9NCsF6reRvk/mqdefault.jpg","viewCount":"319","playlistId":"PLEkQk5xrP-tnW3iBL7HkKziOFCFZbTlf0","playlistName":"شرح البرهان في علوم القرآن - أ.د. يسري جبر","category":"تفسير"},{"id":"vytCYGy7nHM","title":"القِسمُ (28) من التوكيد: التعليل (3) \"أن والفعل المستقبل بعدها\" شرح البرهان في علوم القرآن","publishedAt":"2021-06-05T07:47:38Z","duration":"PT30M12S","thumbnail":"https://i.ytimg.com/vi/vytCYGy7nHM/mqdefault.jpg","viewCount":"406","playlistId":"PLEkQk5xrP-tnW3iBL7HkKziOFCFZbTlf0","playlistName":"شرح البرهان في علوم القرآن - أ.د. يسري جبر","category":"تفسير"}],"total":1097,"page":20,"pageSize":24,"totalPages":46}