{"items":[{"id":"m6e_FoLP7V4","title":"توكيد الفعل بمصدره - شرح البرهان في علوم القرآن أ.د. يسري جبر","publishedAt":"2021-01-10T07:17:28Z","duration":"PT11M15S","thumbnail":"https://i.ytimg.com/vi/m6e_FoLP7V4/mqdefault.jpg","viewCount":"588","playlistId":"PLEkQk5xrP-tnW3iBL7HkKziOFCFZbTlf0","playlistName":"شرح البرهان في علوم القرآن - أ.د. يسري جبر","category":"تفسير"},{"id":"hQ8OzlKnlxY","title":"التأكيد لمعنى الجملة - شرح البرهان في علوم القرآن أ.د. يسري جبر","publishedAt":"2021-01-12T07:29:54Z","duration":"PT8M48S","thumbnail":"https://i.ytimg.com/vi/hQ8OzlKnlxY/mqdefault.jpg","viewCount":"499","playlistId":"PLEkQk5xrP-tnW3iBL7HkKziOFCFZbTlf0","playlistName":"شرح البرهان في علوم القرآن - أ.د. يسري جبر","category":"تفسير"},{"id":"y_f6GSuLpEg","title":"هل الأَوْلَى\"التأكيد بالمصدر أو الفعل\"؟ شرح البرهان في علوم القرآن أ.د. يسري جبر","publishedAt":"2021-01-14T08:23:12Z","duration":"PT29M6S","thumbnail":"https://i.ytimg.com/vi/y_f6GSuLpEg/mqdefault.jpg","viewCount":"556","playlistId":"PLEkQk5xrP-tnW3iBL7HkKziOFCFZbTlf0","playlistName":"شرح البرهان في علوم القرآن - أ.د. يسري جبر","category":"تفسير"},{"id":"b7w7fLZQK-Y","title":"أدوات التأكيد\"مؤكِّدات الجُمَل الإسميَّة\" شرح البرهان في علوم القرآن أ.د. يسري جبر","publishedAt":"2021-01-16T07:00:26Z","duration":"PT11M26S","thumbnail":"https://i.ytimg.com/vi/b7w7fLZQK-Y/mqdefault.jpg","viewCount":"516","playlistId":"PLEkQk5xrP-tnW3iBL7HkKziOFCFZbTlf0","playlistName":"شرح البرهان في علوم القرآن - أ.د. يسري جبر","category":"تفسير"},{"id":"ucPXzF_kODQ","title":"أدوات التوكيد - ضمير الفصل - شرح البرهان في علوم القرآن أ.د. يسري جبر","publishedAt":"2021-01-20T08:14:56Z","duration":"PT13M42S","thumbnail":"https://i.ytimg.com/vi/ucPXzF_kODQ/mqdefault.jpg","viewCount":"450","playlistId":"PLEkQk5xrP-tnW3iBL7HkKziOFCFZbTlf0","playlistName":"شرح البرهان في علوم القرآن - أ.د. يسري جبر","category":"تفسير"},{"id":"ZtNG-vNgVZE","title":"أدوات التوكيد - تأكيد الضمير - شرح البرهان في علوم القرآن أ.د. يسري جبر","publishedAt":"2021-01-23T07:53:17Z","duration":"PT10M35S","thumbnail":"https://i.ytimg.com/vi/ZtNG-vNgVZE/mqdefault.jpg","viewCount":"472","playlistId":"PLEkQk5xrP-tnW3iBL7HkKziOFCFZbTlf0","playlistName":"شرح البرهان في علوم القرآن - أ.د. يسري جبر","category":"تفسير"},{"id":"HUbiv3AelvU","title":"تصدير الجملة بضمير مبتدأ يفيد التأكيد - أدوات التوكيد - شرح البرهان في علوم القرآن أ.د. يسري جبر","publishedAt":"2021-01-25T07:17:45Z","duration":"PT25M44S","thumbnail":"https://i.ytimg.com/vi/HUbiv3AelvU/mqdefault.jpg","viewCount":"483","playlistId":"PLEkQk5xrP-tnW3iBL7HkKziOFCFZbTlf0","playlistName":"شرح البرهان في علوم القرآن - أ.د. يسري جبر","category":"تفسير"},{"id":"-3uKNiTQYZk","title":"(هاء) التنبيه - من أدوات التأكيد\"مؤكِّدات الجُمَل الإسميَّة\" شرح البرهان في علوم القرآن","publishedAt":"2021-01-26T08:18:03Z","duration":"PT18M14S","thumbnail":"https://i.ytimg.com/vi/-3uKNiTQYZk/mqdefault.jpg","viewCount":"691","playlistId":"PLEkQk5xrP-tnW3iBL7HkKziOFCFZbTlf0","playlistName":"شرح البرهان في علوم القرآن - أ.د. يسري جبر","category":"تفسير"},{"id":"fiO8_yqXAzE","title":"مؤكِّدات الجُمَل الفعليَّة - (قد - لقد) شرح البرهان في علوم القرآن","publishedAt":"2021-01-28T07:07:32Z","duration":"PT29M12S","thumbnail":"https://i.ytimg.com/vi/fiO8_yqXAzE/mqdefault.jpg","viewCount":"543","playlistId":"PLEkQk5xrP-tnW3iBL7HkKziOFCFZbTlf0","playlistName":"شرح البرهان في علوم القرآن - أ.د. يسري جبر","category":"تفسير"},{"id":"a_XYxyRN0Dc","title":"القسم الثاني: الصِّفة تأتي لأسباب: أولا: المدح والثناء، شرح البرهان في علوم القرآن","publishedAt":"2021-01-30T07:00:51Z","duration":"PT14M11S","thumbnail":"https://i.ytimg.com/vi/a_XYxyRN0Dc/mqdefault.jpg","viewCount":"517","playlistId":"PLEkQk5xrP-tnW3iBL7HkKziOFCFZbTlf0","playlistName":"شرح البرهان في علوم القرآن - أ.د. يسري جبر","category":"تفسير"},{"id":"PfJY0jiuc_g","title":"القِسمُ الثاني: الصِّفَة تأتي لأسباب: ثالثًا: الثالث لتعيينه للجنسية - شرح البرهان في علوم القرآن","publishedAt":"2021-02-01T07:08:31Z","duration":"PT18M56S","thumbnail":"https://i.ytimg.com/vi/PfJY0jiuc_g/mqdefault.jpg","viewCount":"574","playlistId":"PLEkQk5xrP-tnW3iBL7HkKziOFCFZbTlf0","playlistName":"شرح البرهان في علوم القرآن - أ.د. يسري جبر","category":"تفسير"},{"id":"CFjS1AtiWDU","title":"1- فوائد تتعلق بالصِّفة - الأول: الصّفة العامة لا تأتي بعد الصفة الخاصة - شرح البرهان في علوم القرآن","publishedAt":"2021-02-03T06:55:02Z","duration":"PT23M42S","thumbnail":"https://i.ytimg.com/vi/CFjS1AtiWDU/mqdefault.jpg","viewCount":"652","playlistId":"PLEkQk5xrP-tnW3iBL7HkKziOFCFZbTlf0","playlistName":"شرح البرهان في علوم القرآن - أ.د. يسري جبر","category":"تفسير"},{"id":"8xophfKbppw","title":"2- فوائد تتعلق بالصفة -الخامسة: قد يحتمل اللفظ كثيرا من الأسباب السابقة - شرح البرهان في علوم القرآن","publishedAt":"2021-02-05T06:58:11Z","duration":"PT9M10S","thumbnail":"https://i.ytimg.com/vi/8xophfKbppw/mqdefault.jpg","viewCount":"504","playlistId":"PLEkQk5xrP-tnW3iBL7HkKziOFCFZbTlf0","playlistName":"شرح البرهان في علوم القرآن - أ.د. يسري جبر","category":"تفسير"},{"id":"k94su8XDI4I","title":"3- فوائد تتعلق بالصفة -الخامسة: قد يحتمل اللفظ كثيرا من الأسباب السابقة - شرح البرهان في علوم القرآن","publishedAt":"2021-02-07T07:31:49Z","duration":"PT21M54S","thumbnail":"https://i.ytimg.com/vi/k94su8XDI4I/mqdefault.jpg","viewCount":"497","playlistId":"PLEkQk5xrP-tnW3iBL7HkKziOFCFZbTlf0","playlistName":"شرح البرهان في علوم القرآن - أ.د. يسري جبر","category":"تفسير"},{"id":"mqIArPebHXc","title":"4- فوائد تتعلق بالصفة - شرح البرهان في علوم القرآن","publishedAt":"2021-02-09T07:10:07Z","duration":"PT22M47S","thumbnail":"https://i.ytimg.com/vi/mqIArPebHXc/mqdefault.jpg","viewCount":"523","playlistId":"PLEkQk5xrP-tnW3iBL7HkKziOFCFZbTlf0","playlistName":"شرح البرهان في علوم القرآن - أ.د. يسري جبر","category":"تفسير"},{"id":"HVY4Wr6vKn4","title":"5- فوائد تتعلق بالصفة - شرح البرهان في علوم القرآن","publishedAt":"2021-02-11T07:02:45Z","duration":"PT12M34S","thumbnail":"https://i.ytimg.com/vi/HVY4Wr6vKn4/mqdefault.jpg","viewCount":"421","playlistId":"PLEkQk5xrP-tnW3iBL7HkKziOFCFZbTlf0","playlistName":"شرح البرهان في علوم القرآن - أ.د. يسري جبر","category":"تفسير"},{"id":"6MZnt3KVkYg","title":"6- فوائد تتعلق بالصفة - شرح البرهان في علوم القرآن","publishedAt":"2021-02-14T07:16:42Z","duration":"PT15M41S","thumbnail":"https://i.ytimg.com/vi/6MZnt3KVkYg/mqdefault.jpg","viewCount":"465","playlistId":"PLEkQk5xrP-tnW3iBL7HkKziOFCFZbTlf0","playlistName":"شرح البرهان في علوم القرآن - أ.د. يسري جبر","category":"تفسير"},{"id":"HD4LXSDLsmA","title":"7- فوائد تتعلق بالصفة\" اجتماع التابع والمتبوع\" شرح البرهان في علوم القرآن","publishedAt":"2021-02-17T07:18:08Z","duration":"PT14M52S","thumbnail":"https://i.ytimg.com/vi/HD4LXSDLsmA/mqdefault.jpg","viewCount":"568","playlistId":"PLEkQk5xrP-tnW3iBL7HkKziOFCFZbTlf0","playlistName":"شرح البرهان في علوم القرآن - أ.د. يسري جبر","category":"تفسير"},{"id":"B02IOW3PCSM","title":"8- فوائد تتعلق بالصفة\" تكرار النعوت لواحد\" شرح البرهان في علوم القرآن","publishedAt":"2021-02-20T08:21:20Z","duration":"PT9M47S","thumbnail":"https://i.ytimg.com/vi/B02IOW3PCSM/mqdefault.jpg","viewCount":"488","playlistId":"PLEkQk5xrP-tnW3iBL7HkKziOFCFZbTlf0","playlistName":"شرح البرهان في علوم القرآن - أ.د. يسري جبر","category":"تفسير"},{"id":"kZTOUfz5OS4","title":"9- فوائد تتعلق بالصفة \"فصل الجمل في مجال المدح والذم أبلغ من جعلها نمطا واحدا\"البرهان في علوم القرآن","publishedAt":"2021-02-23T08:23:39Z","duration":"PT24M7S","thumbnail":"https://i.ytimg.com/vi/kZTOUfz5OS4/mqdefault.jpg","viewCount":"524","playlistId":"PLEkQk5xrP-tnW3iBL7HkKziOFCFZbTlf0","playlistName":"شرح البرهان في علوم القرآن - أ.د. يسري جبر","category":"تفسير"},{"id":"psnVo3DnjEs","title":"10- فوائد تتعلق بالصفة \"وصف الجمع بالمفرد\"شرح البرهان في علوم القرآن","publishedAt":"2021-02-26T08:44:15Z","duration":"PT17M43S","thumbnail":"https://i.ytimg.com/vi/psnVo3DnjEs/mqdefault.jpg","viewCount":"486","playlistId":"PLEkQk5xrP-tnW3iBL7HkKziOFCFZbTlf0","playlistName":"شرح البرهان في علوم القرآن - أ.د. يسري جبر","category":"تفسير"},{"id":"WO5YASeibK0","title":"القسم الثالث من التوكيد: البَدَل - شرح البرهان في علوم القرآن","publishedAt":"2021-03-01T07:49:03Z","duration":"PT15M55S","thumbnail":"https://i.ytimg.com/vi/WO5YASeibK0/mqdefault.jpg","viewCount":"425","playlistId":"PLEkQk5xrP-tnW3iBL7HkKziOFCFZbTlf0","playlistName":"شرح البرهان في علوم القرآن - أ.د. يسري جبر","category":"تفسير"},{"id":"pDX15C9DmsU","title":"بدل البعض من كل، بدل الاشتمال - شرح البرهان في علوم القرآن.","publishedAt":"2021-03-04T07:06:20Z","duration":"PT26M51S","thumbnail":"https://i.ytimg.com/vi/pDX15C9DmsU/mqdefault.jpg","viewCount":"512","playlistId":"PLEkQk5xrP-tnW3iBL7HkKziOFCFZbTlf0","playlistName":"شرح البرهان في علوم القرآن - أ.د. يسري جبر","category":"تفسير"},{"id":"x-jE0rrNEgc","title":"بدل البعض من كل، بدل الاشتمال (2) شرح البرهان في علوم القرآن.","publishedAt":"2021-03-07T06:30:08Z","duration":"PT10M3S","thumbnail":"https://i.ytimg.com/vi/x-jE0rrNEgc/mqdefault.jpg","viewCount":"526","playlistId":"PLEkQk5xrP-tnW3iBL7HkKziOFCFZbTlf0","playlistName":"شرح البرهان في علوم القرآن - أ.د. يسري جبر","category":"تفسير"}],"total":1097,"page":18,"pageSize":24,"totalPages":46}