{"items":[{"id":"Ab0FPvaMGR0","title":"527- معنى كلمة \"أرأيت\" - شرح البرهان في علوم القرآن","publishedAt":"2022-06-12T20:50:00Z","duration":"PT16M52S","thumbnail":"https://i.ytimg.com/vi/Ab0FPvaMGR0/mqdefault.jpg","viewCount":"821","playlistId":"PLEkQk5xrP-tnW3iBL7HkKziOFCFZbTlf0","playlistName":"شرح البرهان في علوم القرآن - أ.د. يسري جبر","category":"تفسير"},{"id":"JWYVVqqn-o0","title":"528- الفرق بين اليقين والظن والشك والوهم والجهل - شرح البرهان في علوم القرآن","publishedAt":"2022-06-14T06:20:00Z","duration":"PT29M7S","thumbnail":"https://i.ytimg.com/vi/JWYVVqqn-o0/mqdefault.jpg","viewCount":"2452","playlistId":"PLEkQk5xrP-tnW3iBL7HkKziOFCFZbTlf0","playlistName":"شرح البرهان في علوم القرآن - أ.د. يسري جبر","category":"تفسير"},{"id":"-FLkP4vXyU8","title":"529- معنى ألفاظ (شَعَرَ - عَسَى - لعل) والفرق بينهم - شرح البرهان في علوم القرآن","publishedAt":"2022-06-16T05:20:00Z","duration":"PT21M58S","thumbnail":"https://i.ytimg.com/vi/-FLkP4vXyU8/mqdefault.jpg","viewCount":"766","playlistId":"PLEkQk5xrP-tnW3iBL7HkKziOFCFZbTlf0","playlistName":"شرح البرهان في علوم القرآن - أ.د. يسري جبر","category":"تفسير"},{"id":"MXwmZWk53GE","title":"530- معنى كلمة \"اتَّخَذَ\" - شرح البرهان في علوم القرآن","publishedAt":"2022-06-18T05:05:00Z","duration":"PT17M49S","thumbnail":"https://i.ytimg.com/vi/MXwmZWk53GE/mqdefault.jpg","viewCount":"961","playlistId":"PLEkQk5xrP-tnW3iBL7HkKziOFCFZbTlf0","playlistName":"شرح البرهان في علوم القرآن - أ.د. يسري جبر","category":"تفسير"},{"id":"-S3Oq6ZE6lU","title":"531- معنى كلمة \"سأل\" - شرح دليل الفالحين","publishedAt":"2022-06-21T05:00:00Z","duration":"PT8M59S","thumbnail":"https://i.ytimg.com/vi/-S3Oq6ZE6lU/mqdefault.jpg","viewCount":"948","playlistId":"PLEkQk5xrP-tnW3iBL7HkKziOFCFZbTlf0","playlistName":"شرح البرهان في علوم القرآن - أ.د. يسري جبر","category":"تفسير"},{"id":"C-t-GNx_J8s","title":"532- معنى كلمة \"وَعَدَ\" - شرح كتاب البرهان في علوم القرآن","publishedAt":"2022-06-23T05:15:01Z","duration":"PT13M58S","thumbnail":"https://i.ytimg.com/vi/C-t-GNx_J8s/mqdefault.jpg","viewCount":"713","playlistId":"PLEkQk5xrP-tnW3iBL7HkKziOFCFZbTlf0","playlistName":"شرح البرهان في علوم القرآن - أ.د. يسري جبر","category":"تفسير"},{"id":"6O819dWuY1U","title":"533- معنى كلمة \"وَدَّ\" - شرح كتاب البرهان في علوم القرآن","publishedAt":"2022-06-26T05:00:05Z","duration":"PT16M56S","thumbnail":"https://i.ytimg.com/vi/6O819dWuY1U/mqdefault.jpg","viewCount":"1010","playlistId":"PLEkQk5xrP-tnW3iBL7HkKziOFCFZbTlf0","playlistName":"شرح البرهان في علوم القرآن - أ.د. يسري جبر","category":"تفسير"},{"id":"clC8pIt4cSE","title":"534- حذف المفضول إذا دلَّ عليه دليل - شرح البرهان في علوم القرآن","publishedAt":"2022-06-29T05:15:02Z","duration":"PT23M59S","thumbnail":"https://i.ytimg.com/vi/clC8pIt4cSE/mqdefault.jpg","viewCount":"744","playlistId":"PLEkQk5xrP-tnW3iBL7HkKziOFCFZbTlf0","playlistName":"شرح البرهان في علوم القرآن - أ.د. يسري جبر","category":"تفسير"},{"id":"MeLga30kFd4","title":"535- ما يحتاج إليه المُفسِّر - شرح البرهان في علوم القرآن","publishedAt":"2022-07-01T05:00:07Z","duration":"PT30M22S","thumbnail":"https://i.ytimg.com/vi/MeLga30kFd4/mqdefault.jpg","viewCount":"721","playlistId":"PLEkQk5xrP-tnW3iBL7HkKziOFCFZbTlf0","playlistName":"شرح البرهان في علوم القرآن - أ.د. يسري جبر","category":"تفسير"},{"id":"-o145U3wbKA","title":"536- حروف المعاني: حرف الهمزة - شرح البرهان في علوم القرآن","publishedAt":"2022-07-05T05:31:00Z","duration":"PT13M19S","thumbnail":"https://i.ytimg.com/vi/-o145U3wbKA/mqdefault.jpg","viewCount":"675","playlistId":"PLEkQk5xrP-tnW3iBL7HkKziOFCFZbTlf0","playlistName":"شرح البرهان في علوم القرآن - أ.د. يسري جبر","category":"تفسير"},{"id":"auvGX_O8JlE","title":"537- حروف المعاني: حرف العطف (أم) - شرح البرهان في علوم القرآن","publishedAt":"2022-07-07T06:00:01Z","duration":"PT33M52S","thumbnail":"https://i.ytimg.com/vi/auvGX_O8JlE/mqdefault.jpg","viewCount":"576","playlistId":"PLEkQk5xrP-tnW3iBL7HkKziOFCFZbTlf0","playlistName":"شرح البرهان في علوم القرآن - أ.د. يسري جبر","category":"تفسير"},{"id":"8LXhPrnkS5Q","title":"538- حروف المعاني: ضرورة تقدُّم الاستفهام على حرف العطف (أم) - شرح البرهان في علوم القرآن","publishedAt":"2022-07-10T05:00:01Z","duration":"PT12M29S","thumbnail":"https://i.ytimg.com/vi/8LXhPrnkS5Q/mqdefault.jpg","viewCount":"514","playlistId":"PLEkQk5xrP-tnW3iBL7HkKziOFCFZbTlf0","playlistName":"شرح البرهان في علوم القرآن - أ.د. يسري جبر","category":"تفسير"},{"id":"wk61jD-2RY8","title":"539- حروف المعاني: حرف الجواب(إذًا) - شرح البرهان في علوم القرآن","publishedAt":"2022-07-13T05:00:20Z","duration":"PT28M10S","thumbnail":"https://i.ytimg.com/vi/wk61jD-2RY8/mqdefault.jpg","viewCount":"653","playlistId":"PLEkQk5xrP-tnW3iBL7HkKziOFCFZbTlf0","playlistName":"شرح البرهان في علوم القرآن - أ.د. يسري جبر","category":"تفسير"},{"id":"rFTULbT-u3I","title":"540- حروف المعاني: حرف إذا - شرح البرهان في علوم القرآن","publishedAt":"2022-07-24T05:15:02Z","duration":"PT14M11S","thumbnail":"https://i.ytimg.com/vi/rFTULbT-u3I/mqdefault.jpg","viewCount":"441","playlistId":"PLEkQk5xrP-tnW3iBL7HkKziOFCFZbTlf0","playlistName":"شرح البرهان في علوم القرآن - أ.د. يسري جبر","category":"تفسير"},{"id":"IPjS22uiDXQ","title":"541- حروف المعاني: حرف إذا (2) - شرح البرهان في علوم القرآن","publishedAt":"2022-07-27T05:30:03Z","duration":"PT29M51S","thumbnail":"https://i.ytimg.com/vi/IPjS22uiDXQ/mqdefault.jpg","viewCount":"552","playlistId":"PLEkQk5xrP-tnW3iBL7HkKziOFCFZbTlf0","playlistName":"شرح البرهان في علوم القرآن - أ.د. يسري جبر","category":"تفسير"},{"id":"pQyG_yJA16o","title":"542- حروف المعاني: حرف إذا (3) فائدة - شرح البرهان في علوم القرآن","publishedAt":"2022-07-30T05:16:01Z","duration":"PT30M22S","thumbnail":"https://i.ytimg.com/vi/pQyG_yJA16o/mqdefault.jpg","viewCount":"509","playlistId":"PLEkQk5xrP-tnW3iBL7HkKziOFCFZbTlf0","playlistName":"شرح البرهان في علوم القرآن - أ.د. يسري جبر","category":"تفسير"},{"id":"K8sDg7MqF1Y","title":"543- (إذا) ظرفٌ لِما يُستقبل من الزمان - شرح البرهان في علوم القرآن","publishedAt":"2022-08-02T05:15:00Z","duration":"PT18M32S","thumbnail":"https://i.ytimg.com/vi/K8sDg7MqF1Y/mqdefault.jpg","viewCount":"553","playlistId":"PLEkQk5xrP-tnW3iBL7HkKziOFCFZbTlf0","playlistName":"شرح البرهان في علوم القرآن - أ.د. يسري جبر","category":"تفسير"},{"id":"sxbs47oMkWg","title":"544- الفرق بين (إذا) و (إن) - شرح البرهان في علوم القرآن","publishedAt":"2022-08-05T05:15:01Z","duration":"PT28M32S","thumbnail":"https://i.ytimg.com/vi/sxbs47oMkWg/mqdefault.jpg","viewCount":"523","playlistId":"PLEkQk5xrP-tnW3iBL7HkKziOFCFZbTlf0","playlistName":"شرح البرهان في علوم القرآن - أ.د. يسري جبر","category":"تفسير"},{"id":"bWF_qbBtnxs","title":"545- أوجه الاختلاف بين (إذا) و (إن) - شرح البرهان في علوم القرآن","publishedAt":"2022-08-09T06:00:18Z","duration":"PT18M55S","thumbnail":"https://i.ytimg.com/vi/bWF_qbBtnxs/mqdefault.jpg","viewCount":"489","playlistId":"PLEkQk5xrP-tnW3iBL7HkKziOFCFZbTlf0","playlistName":"شرح البرهان في علوم القرآن - أ.د. يسري جبر","category":"تفسير"},{"id":"B0Bv9KObf4U","title":"546- استعمالات (إذا): قد تأتي زائدة - شرح البرهان في علوم القرآن","publishedAt":"2022-08-14T05:30:02Z","duration":"PT22M16S","thumbnail":"https://i.ytimg.com/vi/B0Bv9KObf4U/mqdefault.jpg","viewCount":"438","playlistId":"PLEkQk5xrP-tnW3iBL7HkKziOFCFZbTlf0","playlistName":"شرح البرهان في علوم القرآن - أ.د. يسري جبر","category":"تفسير"},{"id":"yEtaYmtIxZM","title":"547- معنى حرف (إذ) - شرح البرهان في علوم القرآن","publishedAt":"2022-08-16T05:35:00Z","duration":"PT18M58S","thumbnail":"https://i.ytimg.com/vi/yEtaYmtIxZM/mqdefault.jpg","viewCount":"615","playlistId":"PLEkQk5xrP-tnW3iBL7HkKziOFCFZbTlf0","playlistName":"شرح البرهان في علوم القرآن - أ.د. يسري جبر","category":"تفسير"},{"id":"X-eFVykmiHM","title":"548- حرف العطف (أو) - شرح البرهان في علوم القرآن","publishedAt":"2022-08-19T05:30:10Z","duration":"PT24M4S","thumbnail":"https://i.ytimg.com/vi/X-eFVykmiHM/mqdefault.jpg","viewCount":"471","playlistId":"PLEkQk5xrP-tnW3iBL7HkKziOFCFZbTlf0","playlistName":"شرح البرهان في علوم القرآن - أ.د. يسري جبر","category":"تفسير"},{"id":"daDa1kza1Hw","title":"549- حرف العطف (أو) (2)- شرح البرهان في علوم القرآن","publishedAt":"2022-08-22T21:17:00Z","duration":"PT18M45S","thumbnail":"https://i.ytimg.com/vi/daDa1kza1Hw/mqdefault.jpg","viewCount":"444","playlistId":"PLEkQk5xrP-tnW3iBL7HkKziOFCFZbTlf0","playlistName":"شرح البرهان في علوم القرآن - أ.د. يسري جبر","category":"تفسير"},{"id":"gCEVL-BiWqI","title":"550- حروف المعاني(11) حرف (إن) - شرح البرهان في علوم القرآن","publishedAt":"2022-08-25T06:15:03Z","duration":"PT29M7S","thumbnail":"https://i.ytimg.com/vi/gCEVL-BiWqI/mqdefault.jpg","viewCount":"610","playlistId":"PLEkQk5xrP-tnW3iBL7HkKziOFCFZbTlf0","playlistName":"شرح البرهان في علوم القرآن - أ.د. يسري جبر","category":"تفسير"}],"total":1097,"page":29,"pageSize":24,"totalPages":46}