{"items":[{"id":"QAbrGqgApdI","title":"كيف تعرف إذا كان الابتلاء عقوبة أم امتحان؟","publishedAt":"2022-09-20T18:00:14Z","duration":"PT14M37S","thumbnail":"https://i.ytimg.com/vi/QAbrGqgApdI/mqdefault.jpg","viewCount":"36239","playlistId":"PLEkQk5xrP-tlArtGpeLWaqNM7h7IDeAVC","playlistName":"خطب الجمعة أ.د. يسري جبر","category":"خطب"},{"id":"VQCqBxVdHjE","title":"لماذا خرج الوهابية عن أهل السنة والجماعة؟","publishedAt":"2021-06-29T20:15:01Z","duration":"PT14M35S","thumbnail":"https://i.ytimg.com/vi/VQCqBxVdHjE/mqdefault.jpg","viewCount":"35284","playlistId":"PLEkQk5xrP-tlArtGpeLWaqNM7h7IDeAVC","playlistName":"خطب الجمعة أ.د. يسري جبر","category":"خطب"},{"id":"EE4g65A8yeM","title":"ما هو علاج السحر ,, وكيف تحمي نفسك منه؟","publishedAt":"2022-05-23T18:00:03Z","duration":"PT16M46S","thumbnail":"https://i.ytimg.com/vi/EE4g65A8yeM/mqdefault.jpg","viewCount":"32344","playlistId":"PLEkQk5xrP-tlArtGpeLWaqNM7h7IDeAVC","playlistName":"خطب الجمعة أ.د. يسري جبر","category":"خطب"},{"id":"vIu6OORGjjg","title":"كيف تتعامل مع مشاعر الغضب؟","publishedAt":"2021-08-25T17:00:35Z","duration":"PT41M56S","thumbnail":"https://i.ytimg.com/vi/vIu6OORGjjg/mqdefault.jpg","viewCount":"31885","playlistId":"PLEkQk5xrP-tlArtGpeLWaqNM7h7IDeAVC","playlistName":"خطب الجمعة أ.د. يسري جبر","category":"خطب"},{"id":"04tR9_i3HqY","title":"متى سيأتي نصر الله؟","publishedAt":"2023-10-24T18:19:39Z","duration":"PT21M3S","thumbnail":"https://i.ytimg.com/vi/04tR9_i3HqY/mqdefault.jpg","viewCount":"31761","playlistId":"PLEkQk5xrP-tlArtGpeLWaqNM7h7IDeAVC","playlistName":"خطب الجمعة أ.د. يسري جبر","category":"خطب"},{"id":"jcuoenTs1Cg","title":"مقامك حيث أقامك","publishedAt":"2021-11-22T19:13:12Z","duration":"PT20M6S","thumbnail":"https://i.ytimg.com/vi/jcuoenTs1Cg/mqdefault.jpg","viewCount":"29699","playlistId":"PLEkQk5xrP-tlArtGpeLWaqNM7h7IDeAVC","playlistName":"خطب الجمعة أ.د. يسري جبر","category":"خطب"},{"id":"D6wzlbaqVzw","title":"اقترب ظهور المسيح الدجال","publishedAt":"2022-11-19T18:00:06Z","duration":"PT21M5S","thumbnail":"https://i.ytimg.com/vi/D6wzlbaqVzw/mqdefault.jpg","viewCount":"29456","playlistId":"PLEkQk5xrP-tlArtGpeLWaqNM7h7IDeAVC","playlistName":"خطب الجمعة أ.د. يسري جبر","category":"خطب"},{"id":"9epEDMeytAc","title":"بداية العشر الأواخر وما هو موعد ليلة القدر؟","publishedAt":"2023-04-10T19:00:04Z","duration":"PT11M54S","thumbnail":"https://i.ytimg.com/vi/9epEDMeytAc/mqdefault.jpg","viewCount":"28443","playlistId":"PLEkQk5xrP-tlArtGpeLWaqNM7h7IDeAVC","playlistName":"خطب الجمعة أ.د. يسري جبر","category":"خطب"},{"id":"iY9fuOJp2O0","title":"حول التوكل والتفويض والثقة والتسليم","publishedAt":"2017-10-29T14:02:02Z","duration":"PT34M20S","thumbnail":"https://i.ytimg.com/vi/iY9fuOJp2O0/mqdefault.jpg","viewCount":"26750","playlistId":"PLEkQk5xrP-tlArtGpeLWaqNM7h7IDeAVC","playlistName":"خطب الجمعة أ.د. يسري جبر","category":"خطب"},{"id":"w5C78LgfRw0","title":"تفسير كلام الأولياء","publishedAt":"2020-12-03T18:00:13Z","duration":"PT12M10S","thumbnail":"https://i.ytimg.com/vi/w5C78LgfRw0/mqdefault.jpg","viewCount":"26375","playlistId":"PLEkQk5xrP-tlArtGpeLWaqNM7h7IDeAVC","playlistName":"خطب الجمعة أ.د. يسري جبر","category":"خطب"},{"id":"xN99o6aWopw","title":"كيف تحمي نفسك من فيروس كورونا؟","publishedAt":"2021-01-10T18:28:52Z","duration":"PT11M49S","thumbnail":"https://i.ytimg.com/vi/xN99o6aWopw/mqdefault.jpg","viewCount":"24552","playlistId":"PLEkQk5xrP-tlArtGpeLWaqNM7h7IDeAVC","playlistName":"خطب الجمعة أ.د. يسري جبر","category":"خطب"},{"id":"isKbLy7gZcY","title":"حكم التوسل بالنبيﷺ؟","publishedAt":"2021-01-31T19:04:42Z","duration":"PT8M2S","thumbnail":"https://i.ytimg.com/vi/isKbLy7gZcY/mqdefault.jpg","viewCount":"24472","playlistId":"PLEkQk5xrP-tlArtGpeLWaqNM7h7IDeAVC","playlistName":"خطب الجمعة أ.د. يسري جبر","category":"خطب"},{"id":"uGzqje70E5s","title":"ما هي أسرار الزواج الناجح؟","publishedAt":"2022-02-16T17:30:29Z","duration":"PT9M55S","thumbnail":"https://i.ytimg.com/vi/uGzqje70E5s/mqdefault.jpg","viewCount":"24417","playlistId":"PLEkQk5xrP-tlArtGpeLWaqNM7h7IDeAVC","playlistName":"خطب الجمعة أ.د. يسري جبر","category":"خطب"},{"id":"7DfwHf7fgyk","title":"ما هي أفضل الأعمال في شهر شعبان؟","publishedAt":"2025-01-30T19:32:57Z","duration":"PT17M42S","thumbnail":"https://i.ytimg.com/vi/7DfwHf7fgyk/mqdefault.jpg","viewCount":"24403","playlistId":"PLEkQk5xrP-tlArtGpeLWaqNM7h7IDeAVC","playlistName":"خطب الجمعة أ.د. يسري جبر","category":"خطب"},{"id":"J8FcnmC8JQ0","title":"شرح مبسط لوحدة الوجود عند الصوفية","publishedAt":"2023-07-14T18:00:06Z","duration":"PT9M7S","thumbnail":"https://i.ytimg.com/vi/J8FcnmC8JQ0/mqdefault.jpg","viewCount":"24258","playlistId":"PLEkQk5xrP-tlArtGpeLWaqNM7h7IDeAVC","playlistName":"خطب الجمعة أ.د. يسري جبر","category":"خطب"},{"id":"Z6GPJ86Cm6Y","title":"سلاح الدعاء    د. يسري جبر","publishedAt":"2016-11-26T14:01:54Z","duration":"PT39M50S","thumbnail":"https://i.ytimg.com/vi/Z6GPJ86Cm6Y/mqdefault.jpg","viewCount":"23113","playlistId":"PLEkQk5xrP-tlArtGpeLWaqNM7h7IDeAVC","playlistName":"خطب الجمعة أ.د. يسري جبر","category":"خطب"},{"id":"WDN3kqi5XeU","title":"كن مهاجرا إلى الله في كل حال أ.د. يسري جبر","publishedAt":"2019-09-22T22:01:21Z","duration":"PT39M16S","thumbnail":"https://i.ytimg.com/vi/WDN3kqi5XeU/mqdefault.jpg","viewCount":"22676","playlistId":"PLEkQk5xrP-tlArtGpeLWaqNM7h7IDeAVC","playlistName":"خطب الجمعة أ.د. يسري جبر","category":"خطب"},{"id":"uQaUWCyLQkM","title":"هل يوجد تفسير لعلاقة الروح بالجسد؟","publishedAt":"2021-02-01T19:05:36Z","duration":"PT11M17S","thumbnail":"https://i.ytimg.com/vi/uQaUWCyLQkM/mqdefault.jpg","viewCount":"22597","playlistId":"PLEkQk5xrP-tlArtGpeLWaqNM7h7IDeAVC","playlistName":"خطب الجمعة أ.د. يسري جبر","category":"خطب"},{"id":"8DCF27yts-I","title":"واعلموا أن فيكم رسول الله","publishedAt":"2021-10-19T18:30:05Z","duration":"PT32M37S","thumbnail":"https://i.ytimg.com/vi/8DCF27yts-I/mqdefault.jpg","viewCount":"22483","playlistId":"PLEkQk5xrP-tlArtGpeLWaqNM7h7IDeAVC","playlistName":"خطب الجمعة أ.د. يسري جبر","category":"خطب"},{"id":"lZcB4bLCMkc","title":"كيف وُلد رسول الله ﷺ؟","publishedAt":"2020-11-08T18:02:15Z","duration":"PT19M34S","thumbnail":"https://i.ytimg.com/vi/lZcB4bLCMkc/mqdefault.jpg","viewCount":"21678","playlistId":"PLEkQk5xrP-tlArtGpeLWaqNM7h7IDeAVC","playlistName":"خطب الجمعة أ.د. يسري جبر","category":"خطب"},{"id":"684VYcPo-OI","title":"كيف تأخذ بالأسباب ولا تعتمد عليها؟","publishedAt":"2022-06-25T18:02:19Z","duration":"PT20M26S","thumbnail":"https://i.ytimg.com/vi/684VYcPo-OI/mqdefault.jpg","viewCount":"21508","playlistId":"PLEkQk5xrP-tlArtGpeLWaqNM7h7IDeAVC","playlistName":"خطب الجمعة أ.د. يسري جبر","category":"خطب"},{"id":"8PFTY02ivNs","title":"كيف تفوز في رمضان؟","publishedAt":"2021-04-13T19:15:00Z","duration":"PT47M24S","thumbnail":"https://i.ytimg.com/vi/8PFTY02ivNs/mqdefault.jpg","viewCount":"21432","playlistId":"PLEkQk5xrP-tlArtGpeLWaqNM7h7IDeAVC","playlistName":"خطب الجمعة أ.د. يسري جبر","category":"خطب"},{"id":"51jKF42OSy0","title":"سبب ضعف دول المسلمين وعدم المشاركة للدفاع عن أرضهم","publishedAt":"2023-10-29T19:30:10Z","duration":"PT14M44S","thumbnail":"https://i.ytimg.com/vi/51jKF42OSy0/mqdefault.jpg","viewCount":"21430","playlistId":"PLEkQk5xrP-tlArtGpeLWaqNM7h7IDeAVC","playlistName":"خطب الجمعة أ.د. يسري جبر","category":"خطب"},{"id":"PtHJ4dxLimQ","title":"انظرنا يارسول الله","publishedAt":"2021-03-04T13:16:23Z","duration":"PT36M47S","thumbnail":"https://i.ytimg.com/vi/PtHJ4dxLimQ/mqdefault.jpg","viewCount":"21359","playlistId":"PLEkQk5xrP-tlArtGpeLWaqNM7h7IDeAVC","playlistName":"خطب الجمعة أ.د. يسري جبر","category":"خطب"}],"total":675,"page":2,"pageSize":24,"totalPages":29}