{"items":[{"id":"l1qeNnLttDY","title":"ماذا تفعل في يوم عرفة؟","publishedAt":"2025-06-04T18:15:04Z","duration":"PT14M44S","thumbnail":"https://i.ytimg.com/vi/l1qeNnLttDY/mqdefault.jpg","viewCount":"10144","playlistId":"PLEkQk5xrP-tlArtGpeLWaqNM7h7IDeAVC","playlistName":"خطب الجمعة أ.د. يسري جبر","category":"خطب"},{"id":"SDDI7wuy93M","title":"الحقائق المحمدية بمناسبة مولد النبي ﷺ","publishedAt":"2017-11-26T11:59:51Z","duration":"PT39M3S","thumbnail":"https://i.ytimg.com/vi/SDDI7wuy93M/mqdefault.jpg","viewCount":"10082","playlistId":"PLEkQk5xrP-tlArtGpeLWaqNM7h7IDeAVC","playlistName":"خطب الجمعة أ.د. يسري جبر","category":"خطب"},{"id":"yfys4A3qrGE","title":"أنا بك وإليك   د.يسري جبر","publishedAt":"2017-04-10T20:24:17Z","duration":"PT33M56S","thumbnail":"https://i.ytimg.com/vi/yfys4A3qrGE/mqdefault.jpg","viewCount":"10071","playlistId":"PLEkQk5xrP-tlArtGpeLWaqNM7h7IDeAVC","playlistName":"خطب الجمعة أ.د. يسري جبر","category":"خطب"},{"id":"kb9LXDqkJAk","title":"لطائف وإشارات في الطريق إلى الله","publishedAt":"2021-09-23T18:00:12Z","duration":"PT48M23S","thumbnail":"https://i.ytimg.com/vi/kb9LXDqkJAk/mqdefault.jpg","viewCount":"9991","playlistId":"PLEkQk5xrP-tlArtGpeLWaqNM7h7IDeAVC","playlistName":"خطب الجمعة أ.د. يسري جبر","category":"خطب"},{"id":"G_g0Ethu47k","title":"كيف بدء الخلق؟","publishedAt":"2021-02-02T18:50:11Z","duration":"PT9M29S","thumbnail":"https://i.ytimg.com/vi/G_g0Ethu47k/mqdefault.jpg","viewCount":"9942","playlistId":"PLEkQk5xrP-tlArtGpeLWaqNM7h7IDeAVC","playlistName":"خطب الجمعة أ.د. يسري جبر","category":"خطب"},{"id":"l0nUwPs1evo","title":"لو حاسس أني ضيعت رمضان أعمل إيه فيما تبقى؟","publishedAt":"2023-04-14T19:00:28Z","duration":"PT9M47S","thumbnail":"https://i.ytimg.com/vi/l0nUwPs1evo/mqdefault.jpg","viewCount":"9906","playlistId":"PLEkQk5xrP-tlArtGpeLWaqNM7h7IDeAVC","playlistName":"خطب الجمعة أ.د. يسري جبر","category":"خطب"},{"id":"JL9-4IEihyY","title":"أول خطوة لاستقبال شهر رمضان","publishedAt":"2022-03-30T18:47:19Z","duration":"PT18M15S","thumbnail":"https://i.ytimg.com/vi/JL9-4IEihyY/mqdefault.jpg","viewCount":"9860","playlistId":"PLEkQk5xrP-tlArtGpeLWaqNM7h7IDeAVC","playlistName":"خطب الجمعة أ.د. يسري جبر","category":"خطب"},{"id":"P-1t5ileEr8","title":"كيف تغتنم العشر الأوائل من ذي الحجة؟","publishedAt":"2022-07-01T18:42:39Z","duration":"PT8M57S","thumbnail":"https://i.ytimg.com/vi/P-1t5ileEr8/mqdefault.jpg","viewCount":"9775","playlistId":"PLEkQk5xrP-tlArtGpeLWaqNM7h7IDeAVC","playlistName":"خطب الجمعة أ.د. يسري جبر","category":"خطب"},{"id":"49fhYlffJX0","title":"حقيقة وأسرار الأولية المحمدية","publishedAt":"2022-11-03T18:00:03Z","duration":"PT21M28S","thumbnail":"https://i.ytimg.com/vi/49fhYlffJX0/mqdefault.jpg","viewCount":"9765","playlistId":"PLEkQk5xrP-tlArtGpeLWaqNM7h7IDeAVC","playlistName":"خطب الجمعة أ.د. يسري جبر","category":"خطب"},{"id":"J3FwQo0Cdyo","title":"متى سيظهر المسيح الدجال وكيف تنجو من فتنته؟","publishedAt":"2025-02-04T18:16:56Z","duration":"PT19M56S","thumbnail":"https://i.ytimg.com/vi/J3FwQo0Cdyo/mqdefault.jpg","viewCount":"9714","playlistId":"PLEkQk5xrP-tlArtGpeLWaqNM7h7IDeAVC","playlistName":"خطب الجمعة أ.د. يسري جبر","category":"خطب"},{"id":"SERhZqLRJH8","title":"ماذا تفعل في ليلة النصف من شعبان؟","publishedAt":"2022-03-17T16:30:05Z","duration":"PT8M18S","thumbnail":"https://i.ytimg.com/vi/SERhZqLRJH8/mqdefault.jpg","viewCount":"9706","playlistId":"PLEkQk5xrP-tlArtGpeLWaqNM7h7IDeAVC","playlistName":"خطب الجمعة أ.د. يسري جبر","category":"خطب"},{"id":"MkaN6E3YLGU","title":"لماذا تنازل سيدنا الحسن عن الخلافة لمعاوية؟ | القصة الكاملة","publishedAt":"2025-10-14T18:39:27Z","duration":"PT10M47S","thumbnail":"https://i.ytimg.com/vi/MkaN6E3YLGU/mqdefault.jpg","viewCount":"9604","playlistId":"PLEkQk5xrP-tlArtGpeLWaqNM7h7IDeAVC","playlistName":"خطب الجمعة أ.د. يسري جبر","category":"خطب"},{"id":"COS9TtPa4gI","title":"كيف نتعامل مع غلاء الأسعار وارتفاع الدولار؟","publishedAt":"2022-10-28T18:00:07Z","duration":"PT13M42S","thumbnail":"https://i.ytimg.com/vi/COS9TtPa4gI/mqdefault.jpg","viewCount":"9549","playlistId":"PLEkQk5xrP-tlArtGpeLWaqNM7h7IDeAVC","playlistName":"خطب الجمعة أ.د. يسري جبر","category":"خطب"},{"id":"S55MYGGktCA","title":"كيف تكون تقوى الله تعالى؟","publishedAt":"2023-04-05T19:00:09Z","duration":"PT23M34S","thumbnail":"https://i.ytimg.com/vi/S55MYGGktCA/mqdefault.jpg","viewCount":"9499","playlistId":"PLEkQk5xrP-tlArtGpeLWaqNM7h7IDeAVC","playlistName":"خطب الجمعة أ.د. يسري جبر","category":"خطب"},{"id":"vQTOAA9wFwY","title":"كيف تكون فى معية الله تعالى؟","publishedAt":"2024-10-18T17:51:40Z","duration":"PT9M19S","thumbnail":"https://i.ytimg.com/vi/vQTOAA9wFwY/mqdefault.jpg","viewCount":"9483","playlistId":"PLEkQk5xrP-tlArtGpeLWaqNM7h7IDeAVC","playlistName":"خطب الجمعة أ.د. يسري جبر","category":"خطب"},{"id":"ygb9TUQq_Iw","title":"هل الإنسان مسير أم مخير؟","publishedAt":"2020-12-08T18:15:02Z","duration":"PT9M21S","thumbnail":"https://i.ytimg.com/vi/ygb9TUQq_Iw/mqdefault.jpg","viewCount":"9477","playlistId":"PLEkQk5xrP-tlArtGpeLWaqNM7h7IDeAVC","playlistName":"خطب الجمعة أ.د. يسري جبر","category":"خطب"},{"id":"ErZHfKw-joU","title":"كيف تستثمر عمرك في طاعة الله؟","publishedAt":"2022-03-05T19:30:46Z","duration":"PT8M50S","thumbnail":"https://i.ytimg.com/vi/ErZHfKw-joU/mqdefault.jpg","viewCount":"9448","playlistId":"PLEkQk5xrP-tlArtGpeLWaqNM7h7IDeAVC","playlistName":"خطب الجمعة أ.د. يسري جبر","category":"خطب"},{"id":"NYIq7_xWUGc","title":"إرادة الإنسان بين الجبر والاختيار!","publishedAt":"2021-02-07T17:57:11Z","duration":"PT8M28S","thumbnail":"https://i.ytimg.com/vi/NYIq7_xWUGc/mqdefault.jpg","viewCount":"9447","playlistId":"PLEkQk5xrP-tlArtGpeLWaqNM7h7IDeAVC","playlistName":"خطب الجمعة أ.د. يسري جبر","category":"خطب"},{"id":"rSYsHnNlFGQ","title":"كُنْ عَابِدا لله عَلى كل حَال د.يسري جبر","publishedAt":"2018-02-18T14:13:34Z","duration":"PT44M51S","thumbnail":"https://i.ytimg.com/vi/rSYsHnNlFGQ/mqdefault.jpg","viewCount":"9447","playlistId":"PLEkQk5xrP-tlArtGpeLWaqNM7h7IDeAVC","playlistName":"خطب الجمعة أ.د. يسري جبر","category":"خطب"},{"id":"cW2U24aa-ws","title":"لماذا خلقنا الله وهو يعلم مصيرنا؟ وماذا يريد منا؟","publishedAt":"2024-05-08T18:51:12Z","duration":"PT18M39S","thumbnail":"https://i.ytimg.com/vi/cW2U24aa-ws/mqdefault.jpg","viewCount":"9426","playlistId":"PLEkQk5xrP-tlArtGpeLWaqNM7h7IDeAVC","playlistName":"خطب الجمعة أ.د. يسري جبر","category":"خطب"},{"id":"OFJ63MDxgas","title":"فضائل وآداب ليلة النصف من شعبان (خطبة مسجلة)  أ.د. يسري جبر","publishedAt":"2020-04-06T19:15:11Z","duration":"PT46M57S","thumbnail":"https://i.ytimg.com/vi/OFJ63MDxgas/mqdefault.jpg","viewCount":"9329","playlistId":"PLEkQk5xrP-tlArtGpeLWaqNM7h7IDeAVC","playlistName":"خطب الجمعة أ.د. يسري جبر","category":"خطب"},{"id":"fGJsx9pESew","title":"لماذا نحتفل بمولد النبي ﷺ وهل الاحتفال بدعة؟","publishedAt":"2025-08-26T17:30:12Z","duration":"PT21M27S","thumbnail":"https://i.ytimg.com/vi/fGJsx9pESew/mqdefault.jpg","viewCount":"9117","playlistId":"PLEkQk5xrP-tlArtGpeLWaqNM7h7IDeAVC","playlistName":"خطب الجمعة أ.د. يسري جبر","category":"خطب"},{"id":"Ywn5QSY1now","title":"أين الله؟ | أ.د. يسري جبر","publishedAt":"2021-06-07T20:00:05Z","duration":"PT15M5S","thumbnail":"https://i.ytimg.com/vi/Ywn5QSY1now/mqdefault.jpg","viewCount":"9066","playlistId":"PLEkQk5xrP-tlArtGpeLWaqNM7h7IDeAVC","playlistName":"خطب الجمعة أ.د. يسري جبر","category":"خطب"},{"id":"ePWz15Pqg3U","title":"ذكرى ميلاد سيدنا الحسين -رضي الله عنه- وقصة استشهاده","publishedAt":"2021-11-29T18:47:21Z","duration":"PT16M47S","thumbnail":"https://i.ytimg.com/vi/ePWz15Pqg3U/mqdefault.jpg","viewCount":"9026","playlistId":"PLEkQk5xrP-tlArtGpeLWaqNM7h7IDeAVC","playlistName":"خطب الجمعة أ.د. يسري جبر","category":"خطب"}],"total":675,"page":6,"pageSize":24,"totalPages":29}