{"items":[{"id":"LDmd0BJpThk","title":"السعادة في الرضا واليقين أ.د.يسري جبر","publishedAt":"2020-10-05T20:04:50Z","duration":"PT34M19S","thumbnail":"https://i.ytimg.com/vi/LDmd0BJpThk/mqdefault.jpg","viewCount":"8960","playlistId":"PLEkQk5xrP-tlArtGpeLWaqNM7h7IDeAVC","playlistName":"خطب الجمعة أ.د. يسري جبر","category":"خطب"},{"id":"s7PtrL2VXh0","title":"كيف نصبر على الابتلاءات والمصائب؟","publishedAt":"2024-11-03T17:00:55Z","duration":"PT25M9S","thumbnail":"https://i.ytimg.com/vi/s7PtrL2VXh0/mqdefault.jpg","viewCount":"8957","playlistId":"PLEkQk5xrP-tlArtGpeLWaqNM7h7IDeAVC","playlistName":"خطب الجمعة أ.د. يسري جبر","category":"خطب"},{"id":"OqqVA43pQ_A","title":"وَعَلَّمَ آدَمَ الأَسْمَاءَ كُلَّهَا - د. يسرى جبر","publishedAt":"2015-08-15T17:39:55Z","duration":"PT53M53S","thumbnail":"https://i.ytimg.com/vi/OqqVA43pQ_A/mqdefault.jpg","viewCount":"8841","playlistId":"PLEkQk5xrP-tlArtGpeLWaqNM7h7IDeAVC","playlistName":"خطب الجمعة أ.د. يسري جبر","category":"خطب"},{"id":"QpLtvEjZpqc","title":"التزكية وسائلها ومُعوِّقاتها  د. يسري جبر","publishedAt":"2017-02-11T19:07:16Z","duration":"PT33M58S","thumbnail":"https://i.ytimg.com/vi/QpLtvEjZpqc/mqdefault.jpg","viewCount":"8798","playlistId":"PLEkQk5xrP-tlArtGpeLWaqNM7h7IDeAVC","playlistName":"خطب الجمعة أ.د. يسري جبر","category":"خطب"},{"id":"aXfnNEquzWs","title":"كيف نستعد لشهر رمضان؟","publishedAt":"2023-03-21T18:13:49Z","duration":"PT18M15S","thumbnail":"https://i.ytimg.com/vi/aXfnNEquzWs/mqdefault.jpg","viewCount":"8793","playlistId":"PLEkQk5xrP-tlArtGpeLWaqNM7h7IDeAVC","playlistName":"خطب الجمعة أ.د. يسري جبر","category":"خطب"},{"id":"tjy1TVAwt5I","title":"لو نفسك ربنا يختارك لـ ليلة القدر لازم تتخلق بهذا الخلق!","publishedAt":"2024-04-05T18:00:34Z","duration":"PT9M","thumbnail":"https://i.ytimg.com/vi/tjy1TVAwt5I/mqdefault.jpg","viewCount":"8771","playlistId":"PLEkQk5xrP-tlArtGpeLWaqNM7h7IDeAVC","playlistName":"خطب الجمعة أ.د. يسري جبر","category":"خطب"},{"id":"RA4gqv3bzyU","title":"كيف تجعل رمضان مختلفًا هذا العام؟","publishedAt":"2025-03-01T18:30:31Z","duration":"PT17M13S","thumbnail":"https://i.ytimg.com/vi/RA4gqv3bzyU/mqdefault.jpg","viewCount":"8694","playlistId":"PLEkQk5xrP-tlArtGpeLWaqNM7h7IDeAVC","playlistName":"خطب الجمعة أ.د. يسري جبر","category":"خطب"},{"id":"E8R_tod_uQQ","title":"ماذا حدث في فتنة الخوارج وقصة استشهاد سيدنا علي بن أبي طالب؟","publishedAt":"2025-09-30T18:00:33Z","duration":"PT28M10S","thumbnail":"https://i.ytimg.com/vi/E8R_tod_uQQ/mqdefault.jpg","viewCount":"8672","playlistId":"PLEkQk5xrP-tlArtGpeLWaqNM7h7IDeAVC","playlistName":"خطب الجمعة أ.د. يسري جبر","category":"خطب"},{"id":"37Bv05s49WI","title":"كيف نحصن أنفسنا من فتن هذا الزمان؟","publishedAt":"2024-12-23T21:18:58Z","duration":"PT31M10S","thumbnail":"https://i.ytimg.com/vi/37Bv05s49WI/mqdefault.jpg","viewCount":"8606","playlistId":"PLEkQk5xrP-tlArtGpeLWaqNM7h7IDeAVC","playlistName":"خطب الجمعة أ.د. يسري جبر","category":"خطب"},{"id":"tbW1UCSmh8E","title":"كيف يحبك الله تعالى؟","publishedAt":"2023-03-25T19:00:29Z","duration":"PT13M8S","thumbnail":"https://i.ytimg.com/vi/tbW1UCSmh8E/mqdefault.jpg","viewCount":"8590","playlistId":"PLEkQk5xrP-tlArtGpeLWaqNM7h7IDeAVC","playlistName":"خطب الجمعة أ.د. يسري جبر","category":"خطب"},{"id":"2estmgLo49s","title":"كيف تتخلص من الغضب والعصبية؟","publishedAt":"2023-01-20T18:00:04Z","duration":"PT8M22S","thumbnail":"https://i.ytimg.com/vi/2estmgLo49s/mqdefault.jpg","viewCount":"8563","playlistId":"PLEkQk5xrP-tlArtGpeLWaqNM7h7IDeAVC","playlistName":"خطب الجمعة أ.د. يسري جبر","category":"خطب"},{"id":"x-Fp7apjQmk","title":"كيف تكون صادقا؟","publishedAt":"2022-10-16T18:00:23Z","duration":"PT16M46S","thumbnail":"https://i.ytimg.com/vi/x-Fp7apjQmk/mqdefault.jpg","viewCount":"8488","playlistId":"PLEkQk5xrP-tlArtGpeLWaqNM7h7IDeAVC","playlistName":"خطب الجمعة أ.د. يسري جبر","category":"خطب"},{"id":"JXJ5cOwk2U4","title":"كيف تكون من أهل ليلة القدر؟","publishedAt":"2024-04-04T18:00:14Z","duration":"PT16M55S","thumbnail":"https://i.ytimg.com/vi/JXJ5cOwk2U4/mqdefault.jpg","viewCount":"8476","playlistId":"PLEkQk5xrP-tlArtGpeLWaqNM7h7IDeAVC","playlistName":"خطب الجمعة أ.د. يسري جبر","category":"خطب"},{"id":"vY7aeNs0DDM","title":"‫كيف ترضى بما قسمه الله لك؟","publishedAt":"2024-04-29T18:00:31Z","duration":"PT14M12S","thumbnail":"https://i.ytimg.com/vi/vY7aeNs0DDM/mqdefault.jpg","viewCount":"8455","playlistId":"PLEkQk5xrP-tlArtGpeLWaqNM7h7IDeAVC","playlistName":"خطب الجمعة أ.د. يسري جبر","category":"خطب"},{"id":"cUtqgbpkaek","title":"ماذا حدث في معركة كربلاء وقصة استشهاد سيدنا الحسين؟","publishedAt":"2024-07-17T17:00:33Z","duration":"PT15M56S","thumbnail":"https://i.ytimg.com/vi/cUtqgbpkaek/mqdefault.jpg","viewCount":"8379","playlistId":"PLEkQk5xrP-tlArtGpeLWaqNM7h7IDeAVC","playlistName":"خطب الجمعة أ.د. يسري جبر","category":"خطب"},{"id":"3p2JHReVl4s","title":"إزاي تصبر على عدم استجابة الدعاء؟","publishedAt":"2022-12-15T18:00:03Z","duration":"PT12M46S","thumbnail":"https://i.ytimg.com/vi/3p2JHReVl4s/mqdefault.jpg","viewCount":"8289","playlistId":"PLEkQk5xrP-tlArtGpeLWaqNM7h7IDeAVC","playlistName":"خطب الجمعة أ.د. يسري جبر","category":"خطب"},{"id":"f0dYluUCjxs","title":"تجليات الله في الأكوان | أ.د. يسري جبر","publishedAt":"2021-06-12T14:00:30Z","duration":"PT34M44S","thumbnail":"https://i.ytimg.com/vi/f0dYluUCjxs/mqdefault.jpg","viewCount":"8264","playlistId":"PLEkQk5xrP-tlArtGpeLWaqNM7h7IDeAVC","playlistName":"خطب الجمعة أ.د. يسري جبر","category":"خطب"},{"id":"nu84NO3MeS4","title":"هل يجوز قول سيدنا محمد في الأذان والتشهد؟","publishedAt":"2022-08-06T18:00:30Z","duration":"PT17M21S","thumbnail":"https://i.ytimg.com/vi/nu84NO3MeS4/mqdefault.jpg","viewCount":"8256","playlistId":"PLEkQk5xrP-tlArtGpeLWaqNM7h7IDeAVC","playlistName":"خطب الجمعة أ.د. يسري جبر","category":"خطب"},{"id":"rjr5isA5-lw","title":"كيف تغتنم ليالي رمضان؟","publishedAt":"2021-04-17T19:15:02Z","duration":"PT10M20S","thumbnail":"https://i.ytimg.com/vi/rjr5isA5-lw/mqdefault.jpg","viewCount":"8253","playlistId":"PLEkQk5xrP-tlArtGpeLWaqNM7h7IDeAVC","playlistName":"خطب الجمعة أ.د. يسري جبر","category":"خطب"},{"id":"JESq49xXRDU","title":"حول الروحانية المحمدية ونصيب المسلم المعاصر من الهجرة النبوية    د. يسري جبر","publishedAt":"2016-10-12T04:26:32Z","duration":"PT51M9S","thumbnail":"https://i.ytimg.com/vi/JESq49xXRDU/mqdefault.jpg","viewCount":"8211","playlistId":"PLEkQk5xrP-tlArtGpeLWaqNM7h7IDeAVC","playlistName":"خطب الجمعة أ.د. يسري جبر","category":"خطب"},{"id":"ScINot-2Vpo","title":"ما هي سبل النجاة من فتن آخر الزمان؟","publishedAt":"2024-12-18T15:59:39Z","duration":"PT17M52S","thumbnail":"https://i.ytimg.com/vi/ScINot-2Vpo/mqdefault.jpg","viewCount":"8203","playlistId":"PLEkQk5xrP-tlArtGpeLWaqNM7h7IDeAVC","playlistName":"خطب الجمعة أ.د. يسري جبر","category":"خطب"},{"id":"H5nGdoCK_iY","title":"كيف تستغل وقت فراغك؟","publishedAt":"2023-01-26T18:00:10Z","duration":"PT15M27S","thumbnail":"https://i.ytimg.com/vi/H5nGdoCK_iY/mqdefault.jpg","viewCount":"8184","playlistId":"PLEkQk5xrP-tlArtGpeLWaqNM7h7IDeAVC","playlistName":"خطب الجمعة أ.د. يسري جبر","category":"خطب"},{"id":"bWGXmvXSsS8","title":"ماذا حدث ليلة الإسراء والمعراج؟","publishedAt":"2023-02-17T10:04:14Z","duration":"PT49M5S","thumbnail":"https://i.ytimg.com/vi/bWGXmvXSsS8/mqdefault.jpg","viewCount":"8155","playlistId":"PLEkQk5xrP-tlArtGpeLWaqNM7h7IDeAVC","playlistName":"خطب الجمعة أ.د. يسري جبر","category":"خطب"},{"id":"0A0b0_qdKfs","title":"ما هي القواطع في طريقك إلى الله؟","publishedAt":"2022-09-26T18:00:01Z","duration":"PT17M15S","thumbnail":"https://i.ytimg.com/vi/0A0b0_qdKfs/mqdefault.jpg","viewCount":"8141","playlistId":"PLEkQk5xrP-tlArtGpeLWaqNM7h7IDeAVC","playlistName":"خطب الجمعة أ.د. يسري جبر","category":"خطب"}],"total":675,"page":7,"pageSize":24,"totalPages":29}