{"items":[{"id":"ZOE3d3tr_40","title":"كيف نغير الواقع؟","publishedAt":"2022-01-27T20:00:50Z","duration":"PT41M30S","thumbnail":"https://i.ytimg.com/vi/ZOE3d3tr_40/mqdefault.jpg","viewCount":"21263","playlistId":"PLEkQk5xrP-tlArtGpeLWaqNM7h7IDeAVC","playlistName":"خطب الجمعة أ.د. يسري جبر","category":"خطب"},{"id":"bI60C7XGrbY","title":"كيف تعود قلبك على الرضا بالقضاء والقدر؟","publishedAt":"2024-10-27T18:32:20Z","duration":"PT31M37S","thumbnail":"https://i.ytimg.com/vi/bI60C7XGrbY/mqdefault.jpg","viewCount":"21005","playlistId":"PLEkQk5xrP-tlArtGpeLWaqNM7h7IDeAVC","playlistName":"خطب الجمعة أ.د. يسري جبر","category":"خطب"},{"id":"RjNj9q4sASQ","title":"خطورة الوهابية","publishedAt":"2021-07-02T18:59:16Z","duration":"PT48M17S","thumbnail":"https://i.ytimg.com/vi/RjNj9q4sASQ/mqdefault.jpg","viewCount":"20941","playlistId":"PLEkQk5xrP-tlArtGpeLWaqNM7h7IDeAVC","playlistName":"خطب الجمعة أ.د. يسري جبر","category":"خطب"},{"id":"cC99eXFhL_0","title":"الرد على بعض شُبهات ابن تيمية","publishedAt":"2021-11-30T15:47:32Z","duration":"PT15M54S","thumbnail":"https://i.ytimg.com/vi/cC99eXFhL_0/mqdefault.jpg","viewCount":"20711","playlistId":"PLEkQk5xrP-tlArtGpeLWaqNM7h7IDeAVC","playlistName":"خطب الجمعة أ.د. يسري جبر","category":"خطب"},{"id":"yKd518fhPnQ","title":"نزول سيدنا عيسى عليه السلام آخر الزمان.  د. يسري جبر","publishedAt":"2020-01-02T17:25:38Z","duration":"PT44M56S","thumbnail":"https://i.ytimg.com/vi/yKd518fhPnQ/mqdefault.jpg","viewCount":"19994","playlistId":"PLEkQk5xrP-tlArtGpeLWaqNM7h7IDeAVC","playlistName":"خطب الجمعة أ.د. يسري جبر","category":"خطب"},{"id":"GID3zQFpG34","title":"فن التعامل مع الآخرين","publishedAt":"2021-04-04T19:01:11Z","duration":"PT8M9S","thumbnail":"https://i.ytimg.com/vi/GID3zQFpG34/mqdefault.jpg","viewCount":"19681","playlistId":"PLEkQk5xrP-tlArtGpeLWaqNM7h7IDeAVC","playlistName":"خطب الجمعة أ.د. يسري جبر","category":"خطب"},{"id":"Vc5Ea7OKFck","title":"أفضل الأعمال في العشر الأوائل من ذي الحجة","publishedAt":"2025-05-26T20:19:42Z","duration":"PT21M48S","thumbnail":"https://i.ytimg.com/vi/Vc5Ea7OKFck/mqdefault.jpg","viewCount":"19595","playlistId":"PLEkQk5xrP-tlArtGpeLWaqNM7h7IDeAVC","playlistName":"خطب الجمعة أ.د. يسري جبر","category":"خطب"},{"id":"KIdHeT_JPD8","title":"كيف استُشهد سيدنا علي بن أبي طالب؟","publishedAt":"2022-09-11T18:15:08Z","duration":"PT14M33S","thumbnail":"https://i.ytimg.com/vi/KIdHeT_JPD8/mqdefault.jpg","viewCount":"19040","playlistId":"PLEkQk5xrP-tlArtGpeLWaqNM7h7IDeAVC","playlistName":"خطب الجمعة أ.د. يسري جبر","category":"خطب"},{"id":"_PDm538aaM0","title":"النُّور المحمَّدي","publishedAt":"2020-11-07T19:33:16Z","duration":"PT8M11S","thumbnail":"https://i.ytimg.com/vi/_PDm538aaM0/mqdefault.jpg","viewCount":"18967","playlistId":"PLEkQk5xrP-tlArtGpeLWaqNM7h7IDeAVC","playlistName":"خطب الجمعة أ.د. يسري جبر","category":"خطب"},{"id":"eJQhLeiS5eY","title":"ما هي أفضل الأعمال في شهر شعبان؟","publishedAt":"2024-02-11T18:12:36Z","duration":"PT13M54S","thumbnail":"https://i.ytimg.com/vi/eJQhLeiS5eY/mqdefault.jpg","viewCount":"18908","playlistId":"PLEkQk5xrP-tlArtGpeLWaqNM7h7IDeAVC","playlistName":"خطب الجمعة أ.د. يسري جبر","category":"خطب"},{"id":"jzR32BosKLo","title":"أفضل الأعمال في شهر شعبان","publishedAt":"2022-03-04T17:00:46Z","duration":"PT13M54S","thumbnail":"https://i.ytimg.com/vi/jzR32BosKLo/mqdefault.jpg","viewCount":"17937","playlistId":"PLEkQk5xrP-tlArtGpeLWaqNM7h7IDeAVC","playlistName":"خطب الجمعة أ.د. يسري جبر","category":"خطب"},{"id":"bEn0S4MoOBA","title":"فتن الدجال في زماننا","publishedAt":"2020-12-16T18:00:08Z","duration":"PT11M20S","thumbnail":"https://i.ytimg.com/vi/bEn0S4MoOBA/mqdefault.jpg","viewCount":"17791","playlistId":"PLEkQk5xrP-tlArtGpeLWaqNM7h7IDeAVC","playlistName":"خطب الجمعة أ.د. يسري جبر","category":"خطب"},{"id":"Niw42C1NunE","title":"ماذا أفعل في ليلة النصف من شعبان؟","publishedAt":"2025-02-12T18:36:29Z","duration":"PT16M59S","thumbnail":"https://i.ytimg.com/vi/Niw42C1NunE/mqdefault.jpg","viewCount":"17503","playlistId":"PLEkQk5xrP-tlArtGpeLWaqNM7h7IDeAVC","playlistName":"خطب الجمعة أ.د. يسري جبر","category":"خطب"},{"id":"ClHXmEFzmqM","title":"تعرف على قدر النبي ﷺ","publishedAt":"2023-09-21T17:00:07Z","duration":"PT24M55S","thumbnail":"https://i.ytimg.com/vi/ClHXmEFzmqM/mqdefault.jpg","viewCount":"17497","playlistId":"PLEkQk5xrP-tlArtGpeLWaqNM7h7IDeAVC","playlistName":"خطب الجمعة أ.د. يسري جبر","category":"خطب"},{"id":"QDJr8J7I8x4","title":"دقائق في العقيدة.  أ.د. يسري جبر","publishedAt":"2019-11-16T21:54:49Z","duration":"PT51M25S","thumbnail":"https://i.ytimg.com/vi/QDJr8J7I8x4/mqdefault.jpg","viewCount":"17284","playlistId":"PLEkQk5xrP-tlArtGpeLWaqNM7h7IDeAVC","playlistName":"خطب الجمعة أ.د. يسري جبر","category":"خطب"},{"id":"UQ4CiNB-9Rc","title":"قوانين و أسرار الرزق","publishedAt":"2022-11-21T18:00:21Z","duration":"PT12M25S","thumbnail":"https://i.ytimg.com/vi/UQ4CiNB-9Rc/mqdefault.jpg","viewCount":"17173","playlistId":"PLEkQk5xrP-tlArtGpeLWaqNM7h7IDeAVC","playlistName":"خطب الجمعة أ.د. يسري جبر","category":"خطب"},{"id":"NLbXJC5ih1Y","title":"خطورة الاعتراض على قدر الله","publishedAt":"2023-02-03T18:00:09Z","duration":"PT15M14S","thumbnail":"https://i.ytimg.com/vi/NLbXJC5ih1Y/mqdefault.jpg","viewCount":"17134","playlistId":"PLEkQk5xrP-tlArtGpeLWaqNM7h7IDeAVC","playlistName":"خطب الجمعة أ.د. يسري جبر","category":"خطب"},{"id":"VvqxRutWilc","title":"ألا إن نصر الله قريب","publishedAt":"2023-10-13T17:00:20Z","duration":"PT8M12S","thumbnail":"https://i.ytimg.com/vi/VvqxRutWilc/mqdefault.jpg","viewCount":"17122","playlistId":"PLEkQk5xrP-tlArtGpeLWaqNM7h7IDeAVC","playlistName":"خطب الجمعة أ.د. يسري جبر","category":"خطب"},{"id":"t9T2q_96FIM","title":"ما هي أفضل الأعمال في شهر شعبان؟","publishedAt":"2023-02-21T18:00:23Z","duration":"PT13M54S","thumbnail":"https://i.ytimg.com/vi/t9T2q_96FIM/mqdefault.jpg","viewCount":"17069","playlistId":"PLEkQk5xrP-tlArtGpeLWaqNM7h7IDeAVC","playlistName":"خطب الجمعة أ.د. يسري جبر","category":"خطب"},{"id":"xLDh2_K7JAw","title":"متى تنتهي جائحة كورونا؟","publishedAt":"2021-01-09T17:45:01Z","duration":"PT12M8S","thumbnail":"https://i.ytimg.com/vi/xLDh2_K7JAw/mqdefault.jpg","viewCount":"17024","playlistId":"PLEkQk5xrP-tlArtGpeLWaqNM7h7IDeAVC","playlistName":"خطب الجمعة أ.د. يسري جبر","category":"خطب"},{"id":"nUY8svTWXsM","title":"كيف أتغلب على هم الرزق والخوف من الخلق | أسباب زيادة الرزق","publishedAt":"2024-08-08T17:59:54Z","duration":"PT22M41S","thumbnail":"https://i.ytimg.com/vi/nUY8svTWXsM/mqdefault.jpg","viewCount":"16853","playlistId":"PLEkQk5xrP-tlArtGpeLWaqNM7h7IDeAVC","playlistName":"خطب الجمعة أ.د. يسري جبر","category":"خطب"},{"id":"dNF5OkVznDE","title":"فضل العشر الأوائل من ذي الحجة","publishedAt":"2021-07-10T19:14:53Z","duration":"PT35M36S","thumbnail":"https://i.ytimg.com/vi/dNF5OkVznDE/mqdefault.jpg","viewCount":"16827","playlistId":"PLEkQk5xrP-tlArtGpeLWaqNM7h7IDeAVC","playlistName":"خطب الجمعة أ.د. يسري جبر","category":"خطب"},{"id":"k4hIPcu8Cis","title":"كبف تحرر نفسك من الخوف على الرزق؟","publishedAt":"2023-02-04T18:00:21Z","duration":"PT14M6S","thumbnail":"https://i.ytimg.com/vi/k4hIPcu8Cis/mqdefault.jpg","viewCount":"16801","playlistId":"PLEkQk5xrP-tlArtGpeLWaqNM7h7IDeAVC","playlistName":"خطب الجمعة أ.د. يسري جبر","category":"خطب"},{"id":"5zdVVADYWfA","title":"علوم الطاقة بين الحقيقة والخرافات وحكم العلاج بالطاقة؟","publishedAt":"2025-05-28T19:54:31Z","duration":"PT41M13S","thumbnail":"https://i.ytimg.com/vi/5zdVVADYWfA/mqdefault.jpg","viewCount":"16560","playlistId":"PLEkQk5xrP-tlArtGpeLWaqNM7h7IDeAVC","playlistName":"خطب الجمعة أ.د. يسري جبر","category":"خطب"}],"total":675,"page":3,"pageSize":24,"totalPages":29}