{"items":[{"id":"TfKVUZKhQ0o","title":"69- ما مفاتيح علو الهمة عند المسلم؟ | شرح منازل السائرين","publishedAt":"2025-10-30T18:00:27Z","duration":"PT29M34S","thumbnail":"https://i.ytimg.com/vi/TfKVUZKhQ0o/mqdefault.jpg","viewCount":"3488","playlistId":"PLEkQk5xrP-tmiUfQ-2Tsn7QIak4EsvaZW","playlistName":"كتاب التيسير المعين بشرح معاني منازل السائرين (تصوف) - د.يسري جبر","category":"تصوف"}],"total":241,"page":11,"pageSize":24,"totalPages":11}