{"items":[{"id":"9LZCHzx9mt8","title":"ختام كتاب منازل السائرين للإمام الهروى المجلس الواحد والستون -  قسم النهايات بَابُ التَوْحِيدِ","publishedAt":"2015-12-28T17:40:51Z","duration":"PT1H9M49S","thumbnail":"https://i.ytimg.com/vi/9LZCHzx9mt8/mqdefault.jpg","viewCount":"6408","playlistId":"PLEkQk5xrP-tnLYi_5_tSRVBwqcs7ISV7Y","playlistName":"شرح كتاب منازل السائرين للإمام الهروي","category":"متنوع"},{"id":"m25WuecL-4E","title":"شرح كتاب منازل السائرين للإمام الهروى - المجلس الأول - المقدمة","publishedAt":"2015-12-29T18:00:17Z","duration":"PT1H36M20S","thumbnail":"https://i.ytimg.com/vi/m25WuecL-4E/mqdefault.jpg","viewCount":"19707","playlistId":"PLEkQk5xrP-tnLYi_5_tSRVBwqcs7ISV7Y","playlistName":"شرح كتاب منازل السائرين للإمام الهروي","category":"متنوع"},{"id":"geNSSyeZG5Y","title":"شرح كتاب منازل السائرين للإمام الهروى - المجلس الثانى - المقدمة","publishedAt":"2015-12-30T04:52:00Z","duration":"PT1H28M3S","thumbnail":"https://i.ytimg.com/vi/geNSSyeZG5Y/mqdefault.jpg","viewCount":"18125","playlistId":"PLEkQk5xrP-tnLYi_5_tSRVBwqcs7ISV7Y","playlistName":"شرح كتاب منازل السائرين للإمام الهروي","category":"متنوع"},{"id":"MKteszr3w40","title":"شرح كتاب منازل السائرين للإمام الهروى - المجلس الثالث - باب اليقظة","publishedAt":"2015-12-30T08:05:50Z","duration":"PT1H24M53S","thumbnail":"https://i.ytimg.com/vi/MKteszr3w40/mqdefault.jpg","viewCount":"18328","playlistId":"PLEkQk5xrP-tnLYi_5_tSRVBwqcs7ISV7Y","playlistName":"شرح كتاب منازل السائرين للإمام الهروي","category":"متنوع"},{"id":"d-Pkin5JZdg","title":"شرح كتاب منازل السائرين للإمام الهروى - المجلس الرابع - باب التوبة","publishedAt":"2015-12-30T14:04:06Z","duration":"PT1H47M39S","thumbnail":"https://i.ytimg.com/vi/d-Pkin5JZdg/mqdefault.jpg","viewCount":"16994","playlistId":"PLEkQk5xrP-tnLYi_5_tSRVBwqcs7ISV7Y","playlistName":"شرح كتاب منازل السائرين للإمام الهروي","category":"متنوع"},{"id":"S3W2aio4Goc","title":"شرح كتاب منازل السائرين للإمام الهروى - المجلس الخامس - باب المحاسبة وباب الإنابة","publishedAt":"2015-12-30T18:14:57Z","duration":"PT1H23M36S","thumbnail":"https://i.ytimg.com/vi/S3W2aio4Goc/mqdefault.jpg","viewCount":"10550","playlistId":"PLEkQk5xrP-tnLYi_5_tSRVBwqcs7ISV7Y","playlistName":"شرح كتاب منازل السائرين للإمام الهروي","category":"متنوع"},{"id":"UnWbzdr92CU","title":"شرح كتاب منازل السائرين للإمام الهروى - المجلس السادس - باب التفكُّر","publishedAt":"2016-01-02T18:48:06Z","duration":"PT1H30M35S","thumbnail":"https://i.ytimg.com/vi/UnWbzdr92CU/mqdefault.jpg","viewCount":"8952","playlistId":"PLEkQk5xrP-tnLYi_5_tSRVBwqcs7ISV7Y","playlistName":"شرح كتاب منازل السائرين للإمام الهروي","category":"متنوع"},{"id":"crKq_nZ1fRU","title":"شرح كتاب منازل السائرين للإمام الهروى - المجلس السابع - باب التذكّر","publishedAt":"2016-01-02T20:28:00Z","duration":"PT1H20M10S","thumbnail":"https://i.ytimg.com/vi/crKq_nZ1fRU/mqdefault.jpg","viewCount":"5435","playlistId":"PLEkQk5xrP-tnLYi_5_tSRVBwqcs7ISV7Y","playlistName":"شرح كتاب منازل السائرين للإمام الهروي","category":"متنوع"},{"id":"jV2tRzRYU1g","title":"شرح كتاب منازل السائرين للإمام الهروى - المجلس الثامن - باب الاعتصام","publishedAt":"2016-01-04T05:34:39Z","duration":"PT1H22M19S","thumbnail":"https://i.ytimg.com/vi/jV2tRzRYU1g/mqdefault.jpg","viewCount":"4141","playlistId":"PLEkQk5xrP-tnLYi_5_tSRVBwqcs7ISV7Y","playlistName":"شرح كتاب منازل السائرين للإمام الهروي","category":"متنوع"},{"id":"NWT9siJgImY","title":"شرح كتاب منازل السائرين للإمام الهروى - المجلس التاسع -  باب الرياضة والسماع","publishedAt":"2016-01-04T21:12:10Z","duration":"PT1H34M45S","thumbnail":"https://i.ytimg.com/vi/NWT9siJgImY/mqdefault.jpg","viewCount":"4127","playlistId":"PLEkQk5xrP-tnLYi_5_tSRVBwqcs7ISV7Y","playlistName":"شرح كتاب منازل السائرين للإمام الهروي","category":"متنوع"},{"id":"y90Nq763-v8","title":"شرح كتاب منازل السائرين للإمام الهروى - المجلس الحادى عشر - باب الإشفاق و باب الخشوع","publishedAt":"2016-01-05T20:41:24Z","duration":"PT1H29M2S","thumbnail":"https://i.ytimg.com/vi/y90Nq763-v8/mqdefault.jpg","viewCount":"3362","playlistId":"PLEkQk5xrP-tnLYi_5_tSRVBwqcs7ISV7Y","playlistName":"شرح كتاب منازل السائرين للإمام الهروي","category":"متنوع"},{"id":"rRX25zIyLFQ","title":"شرح كتاب منازل السائرين للإمام الهروى - المجلس الثانى عشر- باب الإخبات وباب الزهد","publishedAt":"2016-01-05T22:47:27Z","duration":"PT1H29M7S","thumbnail":"https://i.ytimg.com/vi/rRX25zIyLFQ/mqdefault.jpg","viewCount":"2731","playlistId":"PLEkQk5xrP-tnLYi_5_tSRVBwqcs7ISV7Y","playlistName":"شرح كتاب منازل السائرين للإمام الهروي","category":"متنوع"},{"id":"BYRnQjGt_LU","title":"شرح كتاب منازل السائرين للإمام الهروى - المجلس الخامس والثلاثون قسم الأُصول باب اليقين وباب الأنس","publishedAt":"2016-01-07T17:20:12Z","duration":"PT1H34M47S","thumbnail":"https://i.ytimg.com/vi/BYRnQjGt_LU/mqdefault.jpg","viewCount":"1526","playlistId":"PLEkQk5xrP-tnLYi_5_tSRVBwqcs7ISV7Y","playlistName":"شرح كتاب منازل السائرين للإمام الهروي","category":"متنوع"}],"total":61,"page":3,"pageSize":24,"totalPages":3}