{"items":[{"id":"vxzAXSbLdGM","title":"شرح كتاب منازل السائرين للإمام الهروى - المجلس العاشر - قسم الأبواب - ( باب الحزن والخوف )","publishedAt":"2014-05-06T19:34:13Z","duration":"PT1H2M58S","thumbnail":"https://i.ytimg.com/vi/vxzAXSbLdGM/mqdefault.jpg","viewCount":"3136","playlistId":"PLEkQk5xrP-tnLYi_5_tSRVBwqcs7ISV7Y","playlistName":"شرح كتاب منازل السائرين للإمام الهروي","category":"متنوع"},{"id":"w3TyVnLehWU","title":"شرح كتاب منازل السائرين للإمام الهروى - المجلس الثالث عشر - باب الورع وباب التبتّل","publishedAt":"2014-05-27T16:11:27Z","duration":"PT1H14M12S","thumbnail":"https://i.ytimg.com/vi/w3TyVnLehWU/mqdefault.jpg","viewCount":"2266","playlistId":"PLEkQk5xrP-tnLYi_5_tSRVBwqcs7ISV7Y","playlistName":"شرح كتاب منازل السائرين للإمام الهروي","category":"متنوع"},{"id":"EQh9evcEOWc","title":"شرح كتاب منازل السائرين للإمام الهروى - المجلس الرابع عشر - باب الرجاء وباب الرغبة","publishedAt":"2014-06-03T19:10:48Z","duration":"PT1H18M21S","thumbnail":"https://i.ytimg.com/vi/EQh9evcEOWc/mqdefault.jpg","viewCount":"2398","playlistId":"PLEkQk5xrP-tnLYi_5_tSRVBwqcs7ISV7Y","playlistName":"شرح كتاب منازل السائرين للإمام الهروي","category":"متنوع"},{"id":"ueLh66JjMA8","title":"شرح كتاب منازل السائرين للإمام الهروى - المجلس السادس عشر - باب الحرمة وباب الإخلاص","publishedAt":"2014-08-12T02:17:37Z","duration":"PT1H6M46S","thumbnail":"https://i.ytimg.com/vi/ueLh66JjMA8/mqdefault.jpg","viewCount":"2341","playlistId":"PLEkQk5xrP-tnLYi_5_tSRVBwqcs7ISV7Y","playlistName":"شرح كتاب منازل السائرين للإمام الهروي","category":"متنوع"},{"id":"-3s56-myjks","title":"شرح كتاب منازل السائرين - المجلس الخامس عشر - قسم المعاملات - باب الرعاية وباب المراقبة","publishedAt":"2014-08-12T09:08:55Z","duration":"PT1H28M19S","thumbnail":"https://i.ytimg.com/vi/-3s56-myjks/mqdefault.jpg","viewCount":"3140","playlistId":"PLEkQk5xrP-tnLYi_5_tSRVBwqcs7ISV7Y","playlistName":"شرح كتاب منازل السائرين للإمام الهروي","category":"متنوع"},{"id":"9zdudtJr7Ao","title":"شرح كتاب منازل السائرين للإمام الهروى - المجلس السابع عشر - باب التهذيب","publishedAt":"2014-08-19T12:21:09Z","duration":"PT1H4M36S","thumbnail":"https://i.ytimg.com/vi/9zdudtJr7Ao/mqdefault.jpg","viewCount":"1999","playlistId":"PLEkQk5xrP-tnLYi_5_tSRVBwqcs7ISV7Y","playlistName":"شرح كتاب منازل السائرين للإمام الهروي","category":"متنوع"},{"id":"2jSM68a7xb4","title":"شرح كتاب منازل السائرين للإمام الهروى - المجلس الثامن عشر - باب الإستقامة","publishedAt":"2014-08-26T03:12:53Z","duration":"PT56M42S","thumbnail":"https://i.ytimg.com/vi/2jSM68a7xb4/mqdefault.jpg","viewCount":"1876","playlistId":"PLEkQk5xrP-tnLYi_5_tSRVBwqcs7ISV7Y","playlistName":"شرح كتاب منازل السائرين للإمام الهروي","category":"متنوع"},{"id":"tlAlJgIEDqM","title":"شرح كتاب منازل السائرين للإمام الهروى - المجلس التاسع عشر - باب التوكل","publishedAt":"2014-09-01T08:48:20Z","duration":"PT57M39S","thumbnail":"https://i.ytimg.com/vi/tlAlJgIEDqM/mqdefault.jpg","viewCount":"1880","playlistId":"PLEkQk5xrP-tnLYi_5_tSRVBwqcs7ISV7Y","playlistName":"شرح كتاب منازل السائرين للإمام الهروي","category":"متنوع"},{"id":"333vMOYe3DA","title":"شرح كتاب منازل السائرين للإمام الهروى - المجلس العشرون  - باب التفويض","publishedAt":"2014-09-08T16:53:25Z","duration":"PT51M35S","thumbnail":"https://i.ytimg.com/vi/333vMOYe3DA/mqdefault.jpg","viewCount":"1837","playlistId":"PLEkQk5xrP-tnLYi_5_tSRVBwqcs7ISV7Y","playlistName":"شرح كتاب منازل السائرين للإمام الهروي","category":"متنوع"},{"id":"ww7XLDdCFWs","title":"شرح كتاب منازل السائرين للإمام الهروى - المجلس الحادي والعشرون - باب الثقة","publishedAt":"2014-09-15T09:18:58Z","duration":"PT57M34S","thumbnail":"https://i.ytimg.com/vi/ww7XLDdCFWs/mqdefault.jpg","viewCount":"2178","playlistId":"PLEkQk5xrP-tnLYi_5_tSRVBwqcs7ISV7Y","playlistName":"شرح كتاب منازل السائرين للإمام الهروي","category":"متنوع"},{"id":"1oy7XySUk-0","title":"شرح كتاب منازل السائرين للإمام الهروى - المجلس الثاني والعشرون - باب التسليم","publishedAt":"2014-09-22T10:36:50Z","duration":"PT1H9M","thumbnail":"https://i.ytimg.com/vi/1oy7XySUk-0/mqdefault.jpg","viewCount":"1813","playlistId":"PLEkQk5xrP-tnLYi_5_tSRVBwqcs7ISV7Y","playlistName":"شرح كتاب منازل السائرين للإمام الهروي","category":"متنوع"},{"id":"5P6Y42s5cNg","title":"شرح كتاب منازل السائرين للإمام الهروى - المجلس الثالث والعشرون - قسم الأخلاق - باب الصبر","publishedAt":"2014-10-14T13:52:48Z","duration":"PT1H25M17S","thumbnail":"https://i.ytimg.com/vi/5P6Y42s5cNg/mqdefault.jpg","viewCount":"2034","playlistId":"PLEkQk5xrP-tnLYi_5_tSRVBwqcs7ISV7Y","playlistName":"شرح كتاب منازل السائرين للإمام الهروي","category":"متنوع"},{"id":"gODhOAbhIBg","title":"شرح كتاب منازل السائرين للإمام الهروى - المجلس الرابع والعشرون - قسم الأخلاق- باب الرضا","publishedAt":"2014-10-20T17:34:40Z","duration":"PT1H18M35S","thumbnail":"https://i.ytimg.com/vi/gODhOAbhIBg/mqdefault.jpg","viewCount":"1667","playlistId":"PLEkQk5xrP-tnLYi_5_tSRVBwqcs7ISV7Y","playlistName":"شرح كتاب منازل السائرين للإمام الهروي","category":"متنوع"},{"id":"Upz8-L-YHbQ","title":"شرح كتاب منازل السائرين للإمام الهروى - المجلس الخامس والعشرون - قسم الأخلاق- باب الشكر","publishedAt":"2014-11-03T19:24:27Z","duration":"PT51M58S","thumbnail":"https://i.ytimg.com/vi/Upz8-L-YHbQ/mqdefault.jpg","viewCount":"1832","playlistId":"PLEkQk5xrP-tnLYi_5_tSRVBwqcs7ISV7Y","playlistName":"شرح كتاب منازل السائرين للإمام الهروي","category":"متنوع"},{"id":"MEcTMZaqmVA","title":"شرح كتاب منازل السائرين للإمام الهروى - المجلس السادس والعشرون - قسم الأخلاق باب الحياء","publishedAt":"2014-11-17T04:13:05Z","duration":"PT56M39S","thumbnail":"https://i.ytimg.com/vi/MEcTMZaqmVA/mqdefault.jpg","viewCount":"1425","playlistId":"PLEkQk5xrP-tnLYi_5_tSRVBwqcs7ISV7Y","playlistName":"شرح كتاب منازل السائرين للإمام الهروي","category":"متنوع"},{"id":"HPLAvQ2uNq8","title":"شرح كتاب منازل السائرين للإمام الهروى - المجلس السابع والعشرون - قسم الأخلاق باب الصدق","publishedAt":"2014-11-25T20:13:28Z","duration":"PT53M24S","thumbnail":"https://i.ytimg.com/vi/HPLAvQ2uNq8/mqdefault.jpg","viewCount":"1326","playlistId":"PLEkQk5xrP-tnLYi_5_tSRVBwqcs7ISV7Y","playlistName":"شرح كتاب منازل السائرين للإمام الهروي","category":"متنوع"},{"id":"T0MczJf8yxE","title":"شرح كتاب منازل السائرين للإمام الهروى - المجلس الثامن والعشرون - قسم الأخلاق باب الإيثار","publishedAt":"2014-12-01T03:52:33Z","duration":"PT45M56S","thumbnail":"https://i.ytimg.com/vi/T0MczJf8yxE/mqdefault.jpg","viewCount":"1185","playlistId":"PLEkQk5xrP-tnLYi_5_tSRVBwqcs7ISV7Y","playlistName":"شرح كتاب منازل السائرين للإمام الهروي","category":"متنوع"},{"id":"70tNdxC8OcY","title":"شرح كتاب منازل السائرين للإمام الهروى - المجلس التاسع والعشرون - قسم الأخلاق باب الخُلُق","publishedAt":"2014-12-08T05:20:58Z","duration":"PT1H6M27S","thumbnail":"https://i.ytimg.com/vi/70tNdxC8OcY/mqdefault.jpg","viewCount":"1339","playlistId":"PLEkQk5xrP-tnLYi_5_tSRVBwqcs7ISV7Y","playlistName":"شرح كتاب منازل السائرين للإمام الهروي","category":"متنوع"},{"id":"f8MnWWm_d6M","title":"شرح كتاب منازل السائرين للإمام الهروى - المجلس الثلاثون - قسم الأخلاق باب التواضع","publishedAt":"2014-12-15T04:08:04Z","duration":"PT56M44S","thumbnail":"https://i.ytimg.com/vi/f8MnWWm_d6M/mqdefault.jpg","viewCount":"1290","playlistId":"PLEkQk5xrP-tnLYi_5_tSRVBwqcs7ISV7Y","playlistName":"شرح كتاب منازل السائرين للإمام الهروي","category":"متنوع"},{"id":"u7kbmtc0IvA","title":"شرح كتاب منازل السائرين للإمام الهروى - المجلس الحادى و الثلاثون - قسم الأخلاق باب الفُتوّة","publishedAt":"2014-12-22T04:09:04Z","duration":"PT59M17S","thumbnail":"https://i.ytimg.com/vi/u7kbmtc0IvA/mqdefault.jpg","viewCount":"1326","playlistId":"PLEkQk5xrP-tnLYi_5_tSRVBwqcs7ISV7Y","playlistName":"شرح كتاب منازل السائرين للإمام الهروي","category":"متنوع"},{"id":"AwPhe_RiduM","title":"شرح كتاب منازل السائرين للإمام الهروى - المجلس الثانى والثلاثون - قسم الأخلاق باب الانبساط","publishedAt":"2014-12-29T05:48:06Z","duration":"PT54M59S","thumbnail":"https://i.ytimg.com/vi/AwPhe_RiduM/mqdefault.jpg","viewCount":"1291","playlistId":"PLEkQk5xrP-tnLYi_5_tSRVBwqcs7ISV7Y","playlistName":"شرح كتاب منازل السائرين للإمام الهروي","category":"متنوع"},{"id":"bVCWEzbgQbA","title":"شرح كتاب منازل السائرين للإمام الهروى - المجلس الثالث والثلاثون - قسم الأُصول باب القصد وباب العزم","publishedAt":"2015-01-05T04:19:03Z","duration":"PT52M25S","thumbnail":"https://i.ytimg.com/vi/bVCWEzbgQbA/mqdefault.jpg","viewCount":"1399","playlistId":"PLEkQk5xrP-tnLYi_5_tSRVBwqcs7ISV7Y","playlistName":"شرح كتاب منازل السائرين للإمام الهروي","category":"متنوع"},{"id":"tMH_PnOCoP0","title":"شرح كتاب منازل السائرين للإمام الهروى - المجلس الرابع والثلاثون قسم الأُصول باب الإرادة وباب الأدب","publishedAt":"2015-01-12T04:37:22Z","duration":"PT1H14M37S","thumbnail":"https://i.ytimg.com/vi/tMH_PnOCoP0/mqdefault.jpg","viewCount":"1934","playlistId":"PLEkQk5xrP-tnLYi_5_tSRVBwqcs7ISV7Y","playlistName":"شرح كتاب منازل السائرين للإمام الهروي","category":"متنوع"},{"id":"YL0hhu2KyA8","title":"شرح كتاب منازل السائرين للإمام الهروى- المجلس السادس والثلاثون قسم الأُصول باب الذِكرِ وباب الفقر","publishedAt":"2015-01-26T18:25:01Z","duration":"PT1H22M1S","thumbnail":"https://i.ytimg.com/vi/YL0hhu2KyA8/mqdefault.jpg","viewCount":"1921","playlistId":"PLEkQk5xrP-tnLYi_5_tSRVBwqcs7ISV7Y","playlistName":"شرح كتاب منازل السائرين للإمام الهروي","category":"متنوع"}],"total":61,"page":1,"pageSize":24,"totalPages":3}