{"items":[{"id":"-GQMzwDEoac","title":"من العبادات المهجورة 3","publishedAt":"2015-01-30T20:25:19Z","duration":"PT24M9S","thumbnail":"https://i.ytimg.com/vi/-GQMzwDEoac/mqdefault.jpg","viewCount":"821","playlistId":"PLEkQk5xrP-tlArtGpeLWaqNM7h7IDeAVC","playlistName":"خطب الجمعة أ.د. يسري جبر","category":"خطب"},{"id":"HTdbUDXV1DA","title":"الصِراع بَيْنَ العِلْمِ والثَقَافة","publishedAt":"2015-01-24T17:55:09Z","duration":"PT51M4S","thumbnail":"https://i.ytimg.com/vi/HTdbUDXV1DA/mqdefault.jpg","viewCount":"601","playlistId":"PLEkQk5xrP-tlArtGpeLWaqNM7h7IDeAVC","playlistName":"خطب الجمعة أ.د. يسري جبر","category":"خطب"},{"id":"BUyje5Zs5zQ","title":"مَنْ مِثْلُهُ ؟ صلّى اللهُ عليه وآله وسلّم","publishedAt":"2015-01-17T17:26:43Z","duration":"PT34M20S","thumbnail":"https://i.ytimg.com/vi/BUyje5Zs5zQ/mqdefault.jpg","viewCount":"535","playlistId":"PLEkQk5xrP-tlArtGpeLWaqNM7h7IDeAVC","playlistName":"خطب الجمعة أ.د. يسري جبر","category":"خطب"},{"id":"p1PUxEr9iJg","title":"وصفُ النبّى صلّى الله عليه وآله وسلّم","publishedAt":"2015-01-09T19:16:35Z","duration":"PT40M28S","thumbnail":"https://i.ytimg.com/vi/p1PUxEr9iJg/mqdefault.jpg","viewCount":"571","playlistId":"PLEkQk5xrP-tlArtGpeLWaqNM7h7IDeAVC","playlistName":"خطب الجمعة أ.د. يسري جبر","category":"خطب"},{"id":"O3C02pfagF4","title":"الإحتفال بذكرى سيّد الأكوان صلى الله عليه وآله وسلم","publishedAt":"2015-01-03T07:15:05Z","duration":"PT42M1S","thumbnail":"https://i.ytimg.com/vi/O3C02pfagF4/mqdefault.jpg","viewCount":"513","playlistId":"PLEkQk5xrP-tlArtGpeLWaqNM7h7IDeAVC","playlistName":"خطب الجمعة أ.د. يسري جبر","category":"خطب"},{"id":"Gi0ml7zkSv0","title":"من العبادات المهجورة 2","publishedAt":"2014-12-19T20:09:20Z","duration":"PT41M48S","thumbnail":"https://i.ytimg.com/vi/Gi0ml7zkSv0/mqdefault.jpg","viewCount":"717","playlistId":"PLEkQk5xrP-tlArtGpeLWaqNM7h7IDeAVC","playlistName":"خطب الجمعة أ.د. يسري جبر","category":"خطب"},{"id":"TbvQkBK5wwk","title":"مِن العبادات المهجورة","publishedAt":"2014-12-12T18:02:10Z","duration":"PT30M22S","thumbnail":"https://i.ytimg.com/vi/TbvQkBK5wwk/mqdefault.jpg","viewCount":"975","playlistId":"PLEkQk5xrP-tlArtGpeLWaqNM7h7IDeAVC","playlistName":"خطب الجمعة أ.د. يسري جبر","category":"خطب"},{"id":"TNeDkG9QdR4","title":"آداب التعامل مع القرآن الكريم","publishedAt":"2014-11-29T19:34:04Z","duration":"PT40M14S","thumbnail":"https://i.ytimg.com/vi/TNeDkG9QdR4/mqdefault.jpg","viewCount":"1100","playlistId":"PLEkQk5xrP-tlArtGpeLWaqNM7h7IDeAVC","playlistName":"خطب الجمعة أ.د. يسري جبر","category":"خطب"},{"id":"4FNwzK8YdIU","title":"الفرق بين الجسد والروح والنفس وما هى أنواع النفوس","publishedAt":"2014-11-25T17:12:28Z","duration":"PT31M52S","thumbnail":"https://i.ytimg.com/vi/4FNwzK8YdIU/mqdefault.jpg","viewCount":"5948","playlistId":"PLEkQk5xrP-tlArtGpeLWaqNM7h7IDeAVC","playlistName":"خطب الجمعة أ.د. يسري جبر","category":"خطب"},{"id":"YZuas-t1cJI","title":"( وسَارعوا إِلى مَغفِرةٍ مِن ربِّكم )","publishedAt":"2014-11-15T20:49:00Z","duration":"PT36M5S","thumbnail":"https://i.ytimg.com/vi/YZuas-t1cJI/mqdefault.jpg","viewCount":"1046","playlistId":"PLEkQk5xrP-tlArtGpeLWaqNM7h7IDeAVC","playlistName":"خطب الجمعة أ.د. يسري جبر","category":"خطب"},{"id":"PRQBzMA7Rfo","title":"ذكرى عاشوراء وماحدث فى كربلاء","publishedAt":"2014-11-12T13:42:38Z","duration":"PT39M54S","thumbnail":"https://i.ytimg.com/vi/PRQBzMA7Rfo/mqdefault.jpg","viewCount":"1549","playlistId":"PLEkQk5xrP-tlArtGpeLWaqNM7h7IDeAVC","playlistName":"خطب الجمعة أ.د. يسري جبر","category":"خطب"},{"id":"us1XfuP0hpU","title":"خطبة الجمعة - الفوائد اليسرية فى الهجرة النبوية","publishedAt":"2014-11-01T18:15:21Z","duration":"PT36M30S","thumbnail":"https://i.ytimg.com/vi/us1XfuP0hpU/mqdefault.jpg","viewCount":"693","playlistId":"PLEkQk5xrP-tlArtGpeLWaqNM7h7IDeAVC","playlistName":"خطب الجمعة أ.د. يسري جبر","category":"خطب"}],"total":660,"page":28,"pageSize":24,"totalPages":28}