{"items":[{"id":"K8sDg7MqF1Y","title":"543- (إذا) ظرفٌ لِما يُستقبل من الزمان - شرح البرهان في علوم القرآن","publishedAt":"2022-08-02T05:15:00Z","duration":"PT18M32S","thumbnail":"https://i.ytimg.com/vi/K8sDg7MqF1Y/mqdefault.jpg","viewCount":"553","playlistId":"PLEkQk5xrP-tnW3iBL7HkKziOFCFZbTlf0","playlistName":"شرح البرهان في علوم القرآن - أ.د. يسري جبر","category":"تفسير"},{"id":"enUITTKkDSE","title":"كيف أعرف أنني ترقيت في طريق التصوف؟","publishedAt":"2022-08-01T18:00:15Z","duration":"PT8M43S","thumbnail":"https://i.ytimg.com/vi/enUITTKkDSE/mqdefault.jpg","viewCount":"15386","playlistId":"PLEkQk5xrP-tkGXuZ9atE3k_7it12rUPTs","playlistName":"أسئلة المتابعين","category":"متنوع"},{"id":"El0t78_Zcyk","title":"283- النَّهْي عن القِرَانِ بين التمْرتين ونحوِهما… - شرح دليل الفالحين","publishedAt":"2022-08-01T05:15:00Z","duration":"PT37M40S","thumbnail":"https://i.ytimg.com/vi/El0t78_Zcyk/mqdefault.jpg","viewCount":"885","playlistId":"PLEkQk5xrP-tkc9DXvSLguqX5-FYp6ASR4","playlistName":"دليل الفالحين لطرق رياض الصالحين","category":"متنوع"},{"id":"-DzBC-lY75s","title":"كيف تحقق النَّبيّ ﷺ بالعبودية لله؟","publishedAt":"2022-07-31T18:00:00Z","duration":"PT9M57S","thumbnail":"https://i.ytimg.com/vi/-DzBC-lY75s/mqdefault.jpg","viewCount":"1707","playlistId":"PLEkQk5xrP-tlArtGpeLWaqNM7h7IDeAVC","playlistName":"خطب الجمعة أ.د. يسري جبر","category":"خطب"},{"id":"bGLiAy-nWDA","title":"14- نبذة عن سيّدي إبراهيم الدسوقيّ رضي الله عنه وشرح الصلاة الذاتيَّة","publishedAt":"2022-07-31T05:30:12Z","duration":"PT42M43S","thumbnail":"https://i.ytimg.com/vi/bGLiAy-nWDA/mqdefault.jpg","viewCount":"8644","playlistId":"PLEkQk5xrP-tkFEtMu56Xb9U9FCZBTXiLf","playlistName":"شرح صلوات الأولياء على خاتم الأنبياء ﷺ","category":"صلوات"},{"id":"KBBXL48wLrk","title":"كيف نفهم مخالفة النَّبيّ ﷺ لنفسه؟","publishedAt":"2022-07-30T18:00:05Z","duration":"PT8M49S","thumbnail":"https://i.ytimg.com/vi/KBBXL48wLrk/mqdefault.jpg","viewCount":"3946","playlistId":"PLEkQk5xrP-tkGXuZ9atE3k_7it12rUPTs","playlistName":"أسئلة المتابعين","category":"متنوع"},{"id":"pQyG_yJA16o","title":"542- حروف المعاني: حرف إذا (3) فائدة - شرح البرهان في علوم القرآن","publishedAt":"2022-07-30T05:16:01Z","duration":"PT30M22S","thumbnail":"https://i.ytimg.com/vi/pQyG_yJA16o/mqdefault.jpg","viewCount":"509","playlistId":"PLEkQk5xrP-tnW3iBL7HkKziOFCFZbTlf0","playlistName":"شرح البرهان في علوم القرآن - أ.د. يسري جبر","category":"تفسير"},{"id":"3nYfGE1q5Ug","title":"قصة هجرة النَّبيّ ﷺ من مكة للمدينة","publishedAt":"2022-07-29T18:00:01Z","duration":"PT11M59S","thumbnail":"https://i.ytimg.com/vi/3nYfGE1q5Ug/mqdefault.jpg","viewCount":"4123","playlistId":"PLEkQk5xrP-tlArtGpeLWaqNM7h7IDeAVC","playlistName":"خطب الجمعة أ.د. يسري جبر","category":"خطب"},{"id":"0wCMmz9BUfw","title":"282- بَابٌ: لا يَعيبُ الطعام، واستحبابُ مدحه - شرح دليل الفالحين","publishedAt":"2022-07-29T06:00:00Z","duration":"PT33M36S","thumbnail":"https://i.ytimg.com/vi/0wCMmz9BUfw/mqdefault.jpg","viewCount":"763","playlistId":"PLEkQk5xrP-tkc9DXvSLguqX5-FYp6ASR4","playlistName":"دليل الفالحين لطرق رياض الصالحين","category":"متنوع"},{"id":"rbRMPe1GVmg","title":"هل لمس المرأة ينقض الوضوء؟","publishedAt":"2022-07-28T19:59:23Z","duration":"PT14M7S","thumbnail":"https://i.ytimg.com/vi/rbRMPe1GVmg/mqdefault.jpg","viewCount":"13717","playlistId":"PLEkQk5xrP-tkGXuZ9atE3k_7it12rUPTs","playlistName":"أسئلة المتابعين","category":"متنوع"},{"id":"Mf2UkU-KWok","title":"13- مناقب سيدي أحمد البدويّ -رضي الله عنه- وشرح الصَّلاة النُّورانيَّة","publishedAt":"2022-07-28T05:15:00Z","duration":"PT20M10S","thumbnail":"https://i.ytimg.com/vi/Mf2UkU-KWok/mqdefault.jpg","viewCount":"6284","playlistId":"PLEkQk5xrP-tkFEtMu56Xb9U9FCZBTXiLf","playlistName":"شرح صلوات الأولياء على خاتم الأنبياء ﷺ","category":"صلوات"},{"id":"aQDYD8n1TLg","title":"أفضل علاج للنفس الأمَّارة بالسوء","publishedAt":"2022-07-27T18:34:55Z","duration":"PT16M2S","thumbnail":"https://i.ytimg.com/vi/aQDYD8n1TLg/mqdefault.jpg","viewCount":"28937","playlistId":"PLEkQk5xrP-tm8ZIu74nTOZN9KJUJu416J","playlistName":"مقاطع مُهمَّة (يُسريَّات) أ.د. يسري جبر","category":"متنوع"},{"id":"IPjS22uiDXQ","title":"541- حروف المعاني: حرف إذا (2) - شرح البرهان في علوم القرآن","publishedAt":"2022-07-27T05:30:03Z","duration":"PT29M51S","thumbnail":"https://i.ytimg.com/vi/IPjS22uiDXQ/mqdefault.jpg","viewCount":"552","playlistId":"PLEkQk5xrP-tnW3iBL7HkKziOFCFZbTlf0","playlistName":"شرح البرهان في علوم القرآن - أ.د. يسري جبر","category":"تفسير"},{"id":"Cp52bNb9dYk","title":"الراحمون يرحمهم الرحمن | أ.د. يسري جبر","publishedAt":"2022-07-26T18:46:23Z","duration":"PT11M49S","thumbnail":"https://i.ytimg.com/vi/Cp52bNb9dYk/mqdefault.jpg","viewCount":"4164","playlistId":"PLEkQk5xrP-tlArtGpeLWaqNM7h7IDeAVC","playlistName":"خطب الجمعة أ.د. يسري جبر","category":"خطب"},{"id":"dlHMxsKOAfY","title":"280- آدابُ الطعام: التَّسْمِيَةُ في أوَّلهِ والحَمْدُ في آخرِه - شرح دليل الفالحين","publishedAt":"2022-07-26T06:35:00Z","duration":"PT50M36S","thumbnail":"https://i.ytimg.com/vi/dlHMxsKOAfY/mqdefault.jpg","viewCount":"904","playlistId":"PLEkQk5xrP-tkc9DXvSLguqX5-FYp6ASR4","playlistName":"دليل الفالحين لطرق رياض الصالحين","category":"متنوع"},{"id":"1SMFYxB1sFY","title":"كيف أرضى بقضاء الله وقدره؟","publishedAt":"2022-07-25T18:29:03Z","duration":"PT18M3S","thumbnail":"https://i.ytimg.com/vi/1SMFYxB1sFY/mqdefault.jpg","viewCount":"12788","playlistId":"PLEkQk5xrP-tlArtGpeLWaqNM7h7IDeAVC","playlistName":"خطب الجمعة أ.د. يسري جبر","category":"خطب"},{"id":"G66PJ--vR_E","title":"12- سِرُّ ولاية سيدي محيي الدين بن عربي -رضي الله عنه- وشرح الصلاة المُحمَّديَّة","publishedAt":"2022-07-25T05:30:03Z","duration":"PT28M19S","thumbnail":"https://i.ytimg.com/vi/G66PJ--vR_E/mqdefault.jpg","viewCount":"36593","playlistId":"PLEkQk5xrP-tkFEtMu56Xb9U9FCZBTXiLf","playlistName":"شرح صلوات الأولياء على خاتم الأنبياء ﷺ","category":"صلوات"},{"id":"UKaZqDFyv9g","title":"كيف تدرك حقيقة العبودية؟","publishedAt":"2022-07-24T18:47:54Z","duration":"PT14M10S","thumbnail":"https://i.ytimg.com/vi/UKaZqDFyv9g/mqdefault.jpg","viewCount":"5240","playlistId":"PLEkQk5xrP-tlArtGpeLWaqNM7h7IDeAVC","playlistName":"خطب الجمعة أ.د. يسري جبر","category":"خطب"},{"id":"rFTULbT-u3I","title":"540- حروف المعاني: حرف إذا - شرح البرهان في علوم القرآن","publishedAt":"2022-07-24T05:15:02Z","duration":"PT14M11S","thumbnail":"https://i.ytimg.com/vi/rFTULbT-u3I/mqdefault.jpg","viewCount":"441","playlistId":"PLEkQk5xrP-tnW3iBL7HkKziOFCFZbTlf0","playlistName":"شرح البرهان في علوم القرآن - أ.د. يسري جبر","category":"تفسير"},{"id":"0qzG2mAySWM","title":"درجات التواضع منهج حياة","publishedAt":"2022-07-23T11:00:02Z","duration":"PT24M59S","thumbnail":"https://i.ytimg.com/vi/0qzG2mAySWM/mqdefault.jpg","viewCount":"2345","playlistId":"PLEkQk5xrP-tm8ZIu74nTOZN9KJUJu416J","playlistName":"مقاطع مُهمَّة (يُسريَّات) أ.د. يسري جبر","category":"متنوع"},{"id":"HGx2xWKGdHw","title":"279- كانَ رسولُ الله ﷺ يُعْجِبُهُ التَّيَمُّنُ في شَأْنِهِ كُلِّهِ - شرح دليل الفالحين","publishedAt":"2022-07-23T05:20:00Z","duration":"PT26M51S","thumbnail":"https://i.ytimg.com/vi/HGx2xWKGdHw/mqdefault.jpg","viewCount":"779","playlistId":"PLEkQk5xrP-tkc9DXvSLguqX5-FYp6ASR4","playlistName":"دليل الفالحين لطرق رياض الصالحين","category":"متنوع"},{"id":"r7HuqHgnpyk","title":"كيف تتواضع للشرع؟","publishedAt":"2022-07-22T20:30:04Z","duration":"PT6M53S","thumbnail":"https://i.ytimg.com/vi/r7HuqHgnpyk/mqdefault.jpg","viewCount":"1935","playlistId":"PLEkQk5xrP-tm8ZIu74nTOZN9KJUJu416J","playlistName":"مقاطع مُهمَّة (يُسريَّات) أ.د. يسري جبر","category":"متنوع"},{"id":"NeIAYJuOyf8","title":"11- صلاةُ الأُنس لسيدي أحمد الرفاعي رضي الله عنه","publishedAt":"2022-07-22T05:05:00Z","duration":"PT32M19S","thumbnail":"https://i.ytimg.com/vi/NeIAYJuOyf8/mqdefault.jpg","viewCount":"3380","playlistId":"PLEkQk5xrP-tkFEtMu56Xb9U9FCZBTXiLf","playlistName":"شرح صلوات الأولياء على خاتم الأنبياء ﷺ","category":"صلوات"},{"id":"keCxWAGj1TE","title":"كيف أتعرف على الله؟","publishedAt":"2022-07-21T18:39:51Z","duration":"PT8M18S","thumbnail":"https://i.ytimg.com/vi/keCxWAGj1TE/mqdefault.jpg","viewCount":"5611","playlistId":"PLEkQk5xrP-tkGXuZ9atE3k_7it12rUPTs","playlistName":"أسئلة المتابعين","category":"متنوع"}],"total":7675,"page":84,"pageSize":24,"totalPages":320}