{"items":[{"id":"lrXTgsuUy1Y","title":"مقرأة سورة النحل من آية ٧٩","publishedAt":"2017-08-30T11:52:40Z","duration":"PT17M1S","thumbnail":"https://i.ytimg.com/vi/lrXTgsuUy1Y/mqdefault.jpg","viewCount":"308","playlistId":"PLEkQk5xrP-tnmTYsyW6xNdyfhPq0Bhrhj","playlistName":"مقرأة الفجر - القُرْآنُ الكَرِيمُ - خَتْمَةُ التَّدَبُّرِ  أ.د. يسري جبر","category":"متنوع"},{"id":"3dvsg0NjsBI","title":"شرح صحيح البخاري - كتاب فرض الخمس من باب ٩","publishedAt":"2017-08-29T22:03:45Z","duration":"PT37M16S","thumbnail":"https://i.ytimg.com/vi/3dvsg0NjsBI/mqdefault.jpg","viewCount":"599","playlistId":"PLEkQk5xrP-tlEerGoLa1AFy-2XvQ-sovv","playlistName":"شرح صحيح البخاري - أ.د. يسري جبر (كاملا)","category":"حديث"},{"id":"B3vvX5Cx-O8","title":"صلاة العيد وصلاة الجمعة  د. يسري جبر","publishedAt":"2017-08-29T20:31:01Z","duration":"PT1M24S","thumbnail":"https://i.ytimg.com/vi/B3vvX5Cx-O8/mqdefault.jpg","viewCount":"1079","playlistId":"PLEkQk5xrP-tm8ZIu74nTOZN9KJUJu416J","playlistName":"مقاطع مُهمَّة (يُسريَّات) أ.د. يسري جبر","category":"متنوع"},{"id":"CyGleXILhBc","title":"قيد الطاعات بأنواع الأوقات، كي لا يمنعك عنها وجود التسويف، ووسع الوقت عليك، كي تبقى لك حصة الاختيار.","publishedAt":"2017-08-29T19:34:54Z","duration":"PT6M16S","thumbnail":"https://i.ytimg.com/vi/CyGleXILhBc/mqdefault.jpg","viewCount":"553","playlistId":"PLEkQk5xrP-tkI_meE148wc7V7XHlB0WPb","playlistName":"من الحكم العطائية  د. يسري جبر","category":"متنوع"},{"id":"-tCXdA3lML8","title":"شرح صحيح الإمام البخاري رضي الله عنه - كتاب الرقاق باب من همَّ بحسنة أو بسيئة (8) د.يسري جبر","publishedAt":"2017-08-29T18:35:41Z","duration":"PT39M59S","thumbnail":"https://i.ytimg.com/vi/-tCXdA3lML8/mqdefault.jpg","viewCount":"148","playlistId":"PLEkQk5xrP-tmJuzaj4GWRenFoFx9gdbFX","playlistName":"شرح كتاب صحيح الإمام البخاري رضي الله تعالى عنه   أ.د. يسرى جبر","category":"حديث"},{"id":"kk3I_DS5Igs","title":"ما من أَيام الْعملُ الصَّالح فيهِا أَحبُّ إِلى اللَّه من هذه الأيام يعني أيام العشرِ د.يسري جبر","publishedAt":"2017-08-29T16:59:26Z","duration":"PT40M50S","thumbnail":"https://i.ytimg.com/vi/kk3I_DS5Igs/mqdefault.jpg","viewCount":"428","playlistId":"PLEkQk5xrP-tlArtGpeLWaqNM7h7IDeAVC","playlistName":"خطب الجمعة أ.د. يسري جبر","category":"خطب"},{"id":"OePqo0_bp54","title":"مقرأة سورة النحل من آية ٧٥","publishedAt":"2017-08-29T14:48:13Z","duration":"PT11M39S","thumbnail":"https://i.ytimg.com/vi/OePqo0_bp54/mqdefault.jpg","viewCount":"279","playlistId":"PLEkQk5xrP-tnmTYsyW6xNdyfhPq0Bhrhj","playlistName":"مقرأة الفجر - القُرْآنُ الكَرِيمُ - خَتْمَةُ التَّدَبُّرِ  أ.د. يسري جبر","category":"متنوع"},{"id":"fHKOYKEMmFo","title":"من علامة اتباع الهوى: المسارعة إلى نوافل الخيرات، والتكاسل عن القيام بحقوق الواجبات","publishedAt":"2017-08-28T21:37:42Z","duration":"PT13M4S","thumbnail":"https://i.ytimg.com/vi/fHKOYKEMmFo/mqdefault.jpg","viewCount":"896","playlistId":"PLEkQk5xrP-tkI_meE148wc7V7XHlB0WPb","playlistName":"من الحكم العطائية  د. يسري جبر","category":"متنوع"},{"id":"SF9Mj2tfx6U","title":"شرح كتاب نوراليقين في سيرة سيد المرسلين - المجلس العشرون ( بدء القتال ) د.يسري جبر","publishedAt":"2017-08-28T21:16:39Z","duration":"PT1H3M12S","thumbnail":"https://i.ytimg.com/vi/SF9Mj2tfx6U/mqdefault.jpg","viewCount":"23455","playlistId":"PLEkQk5xrP-tl2t4NQx1IhKnAJCMzF0Nli","playlistName":"شرح كتاب نور اليقين في سيرة سيد المرسلين   د. يسري جبر","category":"سيرة"},{"id":"hHtynL2v6W8","title":"شرح صحيح البخاري - كتاب فرض الخمس من باب ٦","publishedAt":"2017-08-28T14:24:18Z","duration":"PT31M51S","thumbnail":"https://i.ytimg.com/vi/hHtynL2v6W8/mqdefault.jpg","viewCount":"628","playlistId":"PLEkQk5xrP-tlEerGoLa1AFy-2XvQ-sovv","playlistName":"شرح صحيح البخاري - أ.د. يسري جبر (كاملا)","category":"حديث"},{"id":"9vSYo5yh7Tw","title":"مقرأة سورة النحل من آية ٧١","publishedAt":"2017-08-28T08:28:40Z","duration":"PT21M50S","thumbnail":"https://i.ytimg.com/vi/9vSYo5yh7Tw/mqdefault.jpg","viewCount":"327","playlistId":"PLEkQk5xrP-tnmTYsyW6xNdyfhPq0Bhrhj","playlistName":"مقرأة الفجر - القُرْآنُ الكَرِيمُ - خَتْمَةُ التَّدَبُّرِ  أ.د. يسري جبر","category":"متنوع"},{"id":"tx2mKmAZDHU","title":"إذا التبس عليك أمران فانظر أثْقلهما على النفس فاتَّبعْه، فإنه لا يثقل عليها إلا ما كان حقا.","publishedAt":"2017-08-27T20:36:36Z","duration":"PT8M16S","thumbnail":"https://i.ytimg.com/vi/tx2mKmAZDHU/mqdefault.jpg","viewCount":"1313","playlistId":"PLEkQk5xrP-tkI_meE148wc7V7XHlB0WPb","playlistName":"من الحكم العطائية  د. يسري جبر","category":"متنوع"},{"id":"2riqLXCHbao","title":"شرح صحيح البخاري - كتاب فرض الخمس من باب ٢","publishedAt":"2017-08-27T16:23:39Z","duration":"PT48M45S","thumbnail":"https://i.ytimg.com/vi/2riqLXCHbao/mqdefault.jpg","viewCount":"690","playlistId":"PLEkQk5xrP-tlEerGoLa1AFy-2XvQ-sovv","playlistName":"شرح صحيح البخاري - أ.د. يسري جبر (كاملا)","category":"حديث"},{"id":"R58L01WSWhI","title":"مقرأة سورة النحل من آية ٦٨","publishedAt":"2017-08-27T07:22:14Z","duration":"PT12M18S","thumbnail":"https://i.ytimg.com/vi/R58L01WSWhI/mqdefault.jpg","viewCount":"278","playlistId":"PLEkQk5xrP-tnmTYsyW6xNdyfhPq0Bhrhj","playlistName":"مقرأة الفجر - القُرْآنُ الكَرِيمُ - خَتْمَةُ التَّدَبُّرِ  أ.د. يسري جبر","category":"متنوع"},{"id":"ZoW8f2N9RCU","title":"مقرأة سورة النحل من آية ٦٥","publishedAt":"2017-08-26T15:32:56Z","duration":"PT21M39S","thumbnail":"https://i.ytimg.com/vi/ZoW8f2N9RCU/mqdefault.jpg","viewCount":"317","playlistId":"PLEkQk5xrP-tnmTYsyW6xNdyfhPq0Bhrhj","playlistName":"مقرأة الفجر - القُرْآنُ الكَرِيمُ - خَتْمَةُ التَّدَبُّرِ  أ.د. يسري جبر","category":"متنوع"},{"id":"P_ie_KAbgNU","title":"شرح صحيح البخاري - كتاب فرض الخمس من أوله","publishedAt":"2017-08-26T06:42:05Z","duration":"PT40M37S","thumbnail":"https://i.ytimg.com/vi/P_ie_KAbgNU/mqdefault.jpg","viewCount":"786","playlistId":"PLEkQk5xrP-tlEerGoLa1AFy-2XvQ-sovv","playlistName":"شرح صحيح البخاري - أ.د. يسري جبر (كاملا)","category":"حديث"},{"id":"LxBp0Iej6Ik","title":"شرح صحيح الإمام البخاري رضي الله عنه - كتاب الرقاق باب البكاء من خشية الله (7) د.يسري جبر","publishedAt":"2017-08-26T06:40:14Z","duration":"PT58M7S","thumbnail":"https://i.ytimg.com/vi/LxBp0Iej6Ik/mqdefault.jpg","viewCount":"490","playlistId":"PLEkQk5xrP-tmJuzaj4GWRenFoFx9gdbFX","playlistName":"شرح كتاب صحيح الإمام البخاري رضي الله تعالى عنه   أ.د. يسرى جبر","category":"حديث"},{"id":"zNqlI-4NltM","title":"شرح صحيح البخاري - كتاب الجهاد والسير من باب ١٩٦","publishedAt":"2017-08-25T21:52:48Z","duration":"PT18M31S","thumbnail":"https://i.ytimg.com/vi/zNqlI-4NltM/mqdefault.jpg","viewCount":"443","playlistId":"PLEkQk5xrP-tlEerGoLa1AFy-2XvQ-sovv","playlistName":"شرح صحيح البخاري - أ.د. يسري جبر (كاملا)","category":"حديث"},{"id":"RMy3f8aLBTU","title":"مقرأة سورة النحل من آية ٦٢","publishedAt":"2017-08-25T14:39:54Z","duration":"PT23M31S","thumbnail":"https://i.ytimg.com/vi/RMy3f8aLBTU/mqdefault.jpg","viewCount":"393","playlistId":"PLEkQk5xrP-tnmTYsyW6xNdyfhPq0Bhrhj","playlistName":"مقرأة الفجر - القُرْآنُ الكَرِيمُ - خَتْمَةُ التَّدَبُّرِ  أ.د. يسري جبر","category":"متنوع"},{"id":"X04T_cbjYW4","title":"ربما استحيا العارف أن يرفع حاجته إلى مولاه - اكتفاءً بمشيئته - فكيف لا يستحي أن يرفعها لخليقته.","publishedAt":"2017-08-25T08:53:09Z","duration":"PT5M17S","thumbnail":"https://i.ytimg.com/vi/X04T_cbjYW4/mqdefault.jpg","viewCount":"1117","playlistId":"PLEkQk5xrP-tkI_meE148wc7V7XHlB0WPb","playlistName":"من الحكم العطائية  د. يسري جبر","category":"متنوع"},{"id":"HkU_MnUCVXY","title":"شرح صحيح البخاري - كتاب الجهاد والسير من باب ١٩١","publishedAt":"2017-08-24T21:23:18Z","duration":"PT40M1S","thumbnail":"https://i.ytimg.com/vi/HkU_MnUCVXY/mqdefault.jpg","viewCount":"544","playlistId":"PLEkQk5xrP-tlEerGoLa1AFy-2XvQ-sovv","playlistName":"شرح صحيح البخاري - أ.د. يسري جبر (كاملا)","category":"حديث"},{"id":"qRCPwFBaGl0","title":"لاتمدنَّ يدك إلى الأخذ من الخلائق إلا أن ترى أنَّ المعطي فيهم مولاك فإذا كنت كذلك فخذ ما وافقك العلم","publishedAt":"2017-08-24T14:31:29Z","duration":"PT8M6S","thumbnail":"https://i.ytimg.com/vi/qRCPwFBaGl0/mqdefault.jpg","viewCount":"699","playlistId":"PLEkQk5xrP-tkI_meE148wc7V7XHlB0WPb","playlistName":"من الحكم العطائية  د. يسري جبر","category":"متنوع"},{"id":"k9EI2_KJ9gg","title":"مقرأة سورة النحل من آية ٥٦","publishedAt":"2017-08-24T11:56:58Z","duration":"PT14M8S","thumbnail":"https://i.ytimg.com/vi/k9EI2_KJ9gg/mqdefault.jpg","viewCount":"308","playlistId":"PLEkQk5xrP-tnmTYsyW6xNdyfhPq0Bhrhj","playlistName":"مقرأة الفجر - القُرْآنُ الكَرِيمُ - خَتْمَةُ التَّدَبُّرِ  أ.د. يسري جبر","category":"متنوع"},{"id":"P-aRnGmEU7E","title":"لا ينبغي للسالك أن يُعبِّر عن وارداته، فإن ذلك يُقلُّ عملها في قلبه، ويمنعه وجود الصدق مع ربه.","publishedAt":"2017-08-23T19:10:04Z","duration":"PT4M3S","thumbnail":"https://i.ytimg.com/vi/P-aRnGmEU7E/mqdefault.jpg","viewCount":"1341","playlistId":"PLEkQk5xrP-tkI_meE148wc7V7XHlB0WPb","playlistName":"من الحكم العطائية  د. يسري جبر","category":"متنوع"}],"total":7670,"page":66,"pageSize":24,"totalPages":320}