{"items":[{"id":"YyhD84LMmKU","title":"تفسير قوله تعالى \"كُنتُمْ خَيْرَ أُمَّةٍ أُخْرِجَتْ لِلنَّاس\"","publishedAt":"2022-01-19T17:30:03Z","duration":"PT25M3S","thumbnail":"https://i.ytimg.com/vi/YyhD84LMmKU/mqdefault.jpg","viewCount":"3200","playlistId":"PLEkQk5xrP-tkGXuZ9atE3k_7it12rUPTs","playlistName":"أسئلة المتابعين","category":"متنوع"},{"id":"k4d7oyb61_o","title":"187- \"أتَرْضَوْنَ أنْ تَكُونُوا رُبُعَ أهْلِ الجَنَّةِ؟ قُلْنَا: نَعَمْ…\" شرح دليل الفالحين","publishedAt":"2022-01-19T07:12:23Z","duration":"PT23M25S","thumbnail":"https://i.ytimg.com/vi/k4d7oyb61_o/mqdefault.jpg","viewCount":"1918","playlistId":"PLEkQk5xrP-tkc9DXvSLguqX5-FYp6ASR4","playlistName":"دليل الفالحين لطرق رياض الصالحين","category":"متنوع"},{"id":"Gn-iak3IctI","title":"الرسالة القشيرية - المجلس (108) بَابُ كرامات الأولياء | أ.د. يسري جبر","publishedAt":"2022-01-18T18:43:35Z","duration":"PT45M22S","thumbnail":"https://i.ytimg.com/vi/Gn-iak3IctI/mqdefault.jpg","viewCount":"56396","playlistId":"PLEkQk5xrP-tkHAGOwIKr4pc5ehhyQ5HMJ","playlistName":"كتاب الرسالة القشيرية (تصوف) - د. يسري جبر","category":"تصوف"},{"id":"Ds6pqdVrGPY","title":"ثبوت العام لا ينفي الخاص (4) قاعدة مهمَّة - شرح البرهان في علوم القرآن","publishedAt":"2022-01-18T06:51:26Z","duration":"PT23M31S","thumbnail":"https://i.ytimg.com/vi/Ds6pqdVrGPY/mqdefault.jpg","viewCount":"744","playlistId":"PLEkQk5xrP-tnW3iBL7HkKziOFCFZbTlf0","playlistName":"شرح البرهان في علوم القرآن - أ.د. يسري جبر","category":"تفسير"},{"id":"7pakbyPl24I","title":"شرح مبسط لعلم الإلهيات والنبوات","publishedAt":"2022-01-17T18:31:57Z","duration":"PT12M20S","thumbnail":"https://i.ytimg.com/vi/7pakbyPl24I/mqdefault.jpg","viewCount":"8806","playlistId":"PLEkQk5xrP-tkGXuZ9atE3k_7it12rUPTs","playlistName":"أسئلة المتابعين","category":"متنوع"},{"id":"v9mIDwo3id8","title":"186- \"…يا مُعاذُ، هل تدري ما حقُّ اللهِ على عِباده؟ وما حقُّ العباد علَى الله؟…\"  شرح دليل الفالحين","publishedAt":"2022-01-17T06:51:27Z","duration":"PT35M28S","thumbnail":"https://i.ytimg.com/vi/v9mIDwo3id8/mqdefault.jpg","viewCount":"2403","playlistId":"PLEkQk5xrP-tkc9DXvSLguqX5-FYp6ASR4","playlistName":"دليل الفالحين لطرق رياض الصالحين","category":"متنوع"},{"id":"GjjhlZysk0g","title":"كيف تنتفع بالشيخ المربي؟","publishedAt":"2022-01-16T17:58:41Z","duration":"PT8M23S","thumbnail":"https://i.ytimg.com/vi/GjjhlZysk0g/mqdefault.jpg","viewCount":"8642","playlistId":"PLEkQk5xrP-tkGXuZ9atE3k_7it12rUPTs","playlistName":"أسئلة المتابعين","category":"متنوع"},{"id":"anVEg1-yJaA","title":"نَفْي العام يدل على نَفْي الخاص (3)  قاعدة مهمَّة - شرح البرهان في علوم القرآن","publishedAt":"2022-01-16T07:00:49Z","duration":"PT30M13S","thumbnail":"https://i.ytimg.com/vi/anVEg1-yJaA/mqdefault.jpg","viewCount":"1009","playlistId":"PLEkQk5xrP-tnW3iBL7HkKziOFCFZbTlf0","playlistName":"شرح البرهان في علوم القرآن - أ.د. يسري جبر","category":"تفسير"},{"id":"7vCAxiBy-TQ","title":"قراءة وتفسير القرآن (من آية ١٧٩ سورة آل عمران)","publishedAt":"2016-08-03T08:28:45Z","duration":"PT11M4S","thumbnail":"https://i.ytimg.com/vi/7vCAxiBy-TQ/mqdefault.jpg","viewCount":"427","playlistId":"PLEkQk5xrP-tnmTYsyW6xNdyfhPq0Bhrhj","playlistName":"مقرأة الفجر - القُرْآنُ الكَرِيمُ - خَتْمَةُ التَّدَبُّرِ  أ.د. يسري جبر","category":"متنوع"},{"id":"a--roHp8grs","title":"قراءة و تفسيرالقرآن (من آية ١٧١ سورة آل عمران)","publishedAt":"2016-08-03T08:00:33Z","duration":"PT14M44S","thumbnail":"https://i.ytimg.com/vi/a--roHp8grs/mqdefault.jpg","viewCount":"420","playlistId":"PLEkQk5xrP-tnmTYsyW6xNdyfhPq0Bhrhj","playlistName":"مقرأة الفجر - القُرْآنُ الكَرِيمُ - خَتْمَةُ التَّدَبُّرِ  أ.د. يسري جبر","category":"متنوع"},{"id":"-ne3Tnaacg0","title":"شرح صحيح البخاري ( مقدمة مجلس ١)","publishedAt":"2016-08-03T07:35:23Z","duration":"PT42M25S","thumbnail":"https://i.ytimg.com/vi/-ne3Tnaacg0/mqdefault.jpg","viewCount":"42009","playlistId":"PLEkQk5xrP-tlEerGoLa1AFy-2XvQ-sovv","playlistName":"شرح صحيح البخاري - أ.د. يسري جبر (كاملا)","category":"حديث"},{"id":"B-YuznMUHfU","title":"قراءة وتفسير القرآن (من آية ١٦٩ سورة آل عمران)","publishedAt":"2016-08-03T05:49:44Z","duration":"PT8M47S","thumbnail":"https://i.ytimg.com/vi/B-YuznMUHfU/mqdefault.jpg","viewCount":"481","playlistId":"PLEkQk5xrP-tnmTYsyW6xNdyfhPq0Bhrhj","playlistName":"مقرأة الفجر - القُرْآنُ الكَرِيمُ - خَتْمَةُ التَّدَبُّرِ  أ.د. يسري جبر","category":"متنوع"},{"id":"f4H2LinZsE8","title":"تفسير القرآن (من آية ١٢٦ سورة آل عمران) و معني قوله ( لَيْسَ لَكَ مِنَ الْأَمْرِ شَيْءٌ ﴿١٢٨﴾)","publishedAt":"2016-07-24T09:43:58Z","duration":"PT12M44S","thumbnail":"https://i.ytimg.com/vi/f4H2LinZsE8/mqdefault.jpg","viewCount":"956","playlistId":"PLEkQk5xrP-tnmTYsyW6xNdyfhPq0Bhrhj","playlistName":"مقرأة الفجر - القُرْآنُ الكَرِيمُ - خَتْمَةُ التَّدَبُّرِ  أ.د. يسري جبر","category":"متنوع"},{"id":"_7VRVE8hcZc","title":"مَنْ هُمُ الأَولِيَاء د. يسري جبر","publishedAt":"2016-07-23T19:12:25Z","duration":"PT13M33S","thumbnail":"https://i.ytimg.com/vi/_7VRVE8hcZc/mqdefault.jpg","viewCount":"5667","playlistId":"PLEkQk5xrP-tm8ZIu74nTOZN9KJUJu416J","playlistName":"مقاطع مُهمَّة (يُسريَّات) أ.د. يسري جبر","category":"متنوع"},{"id":"XexJ-gpXc4M","title":"مديري عنده جنون عظمة فكيف أتعامل معه؟","publishedAt":"2025-08-14T18:00:25Z","duration":"PT10M3S","thumbnail":"https://i.ytimg.com/vi/XexJ-gpXc4M/mqdefault.jpg","viewCount":"3272","playlistId":"PLEkQk5xrP-tm8ZIu74nTOZN9KJUJu416J","playlistName":"مقاطع مُهمَّة (يُسريَّات) أ.د. يسري جبر","category":"متنوع"},{"id":"Jo_W8bVAAhY","title":"ماذا أقول عند زيارة النبي ﷺ وما آداب الزيارة؟","publishedAt":"2025-08-13T18:00:31Z","duration":"PT9M43S","thumbnail":"https://i.ytimg.com/vi/Jo_W8bVAAhY/mqdefault.jpg","viewCount":"2869","playlistId":"PLEkQk5xrP-tm8ZIu74nTOZN9KJUJu416J","playlistName":"مقاطع مُهمَّة (يُسريَّات) أ.د. يسري جبر","category":"متنوع"},{"id":"NVtVSlEOlgA","title":"166- الفرق بين المسانيد والسنن - شرح مسند الإمام أحمد رضي الله تعالى عنه","publishedAt":"2025-08-13T09:20:40Z","duration":"PT24M14S","thumbnail":"https://i.ytimg.com/vi/NVtVSlEOlgA/mqdefault.jpg","viewCount":"570","playlistId":"PLEkQk5xrP-tkKprIuGrSdEuBSMsyg5We1","playlistName":"شرح مسند الإمام أحمد بن حنبل","category":"متنوع"},{"id":"oBXVCDjTANg","title":"296- أنواع القسم في القرآن - شرح الإتقان في علوم القرآن","publishedAt":"2025-08-11T09:01:16Z","duration":"PT31M11S","thumbnail":"https://i.ytimg.com/vi/oBXVCDjTANg/mqdefault.jpg","viewCount":"421","playlistId":"PLEkQk5xrP-tlPw10KGJKagu7zm4Ry2Tge","playlistName":"شرح الإتقان في علوم القرآن","category":"تفسير"},{"id":"V0itB4HyQZs","title":"165- حكم من اتهم زوجته بالزنا - شرح مسند الإمام أحمد رضي الله تعالى عنه","publishedAt":"2025-08-10T09:00:43Z","duration":"PT15M5S","thumbnail":"https://i.ytimg.com/vi/V0itB4HyQZs/mqdefault.jpg","viewCount":"518","playlistId":"PLEkQk5xrP-tkKprIuGrSdEuBSMsyg5We1","playlistName":"شرح مسند الإمام أحمد بن حنبل","category":"متنوع"},{"id":"ii0lHBFfWT4","title":"61- فوائد النسيان وماذا يفعل الإمام إذا صلى بالناس وهو على غير وضوء؟ | شرح سنن الإمام الدارقطني","publishedAt":"2025-08-09T10:08:37Z","duration":"PT45M15S","thumbnail":"https://i.ytimg.com/vi/ii0lHBFfWT4/mqdefault.jpg","viewCount":"572","playlistId":"PLEkQk5xrP-tk_MCBZ706ORCw6gFtFyaGj","playlistName":"شرح سنن الإمام الدارقطني","category":"متنوع"},{"id":"j4RySDfYtkA","title":"كيف تجمع بين الرابطة والمحبة والحضرة في طريق التصوف؟","publishedAt":"2025-08-08T18:47:54Z","duration":"PT28M17S","thumbnail":"https://i.ytimg.com/vi/j4RySDfYtkA/mqdefault.jpg","viewCount":"3418","playlistId":"PLEkQk5xrP-tmsEDdkkXMM1ca2-AquQYad","playlistName":"شرح كتاب مدارج الحقيقة في الرابطة عند أهل الطريقة","category":"متنوع"},{"id":"lm7suKjAN8s","title":"24- ماذا أفعل حتى يرضى الله عني؟ | شرح الحكم العطائية","publishedAt":"2025-08-07T17:01:10Z","duration":"PT37M36S","thumbnail":"https://i.ytimg.com/vi/lm7suKjAN8s/mqdefault.jpg","viewCount":"3802","playlistId":"PLEkQk5xrP-tmf5ToOwmW-q0JwxkapbrMN","playlistName":"شرح كتاب إرشاد البرية إلى بعض معاني الحكم العطائية","category":"متنوع"},{"id":"5inQF-eP0Mw","title":"شرح كتاب الأذكار من كلام سيد الأبرار للإمام النووى رضى الله عنه - المجلس التاسع والثلاثون","publishedAt":"2016-05-04T20:00:03Z","duration":"PT15M35S","thumbnail":"https://i.ytimg.com/vi/5inQF-eP0Mw/mqdefault.jpg","viewCount":"286","playlistId":"PLEkQk5xrP-tkWS57Ubysh0ifJR8dmuEtE","playlistName":"شرح كتاب الأذكار للإمام النووي د. يسرى جبر","category":"حديث"},{"id":"kuM1dqjk6dA","title":"صحيح الإمام البخاري رضي الله عنه - كتاب الأشربة - المجلس الثالث د. يسري جبر","publishedAt":"2016-05-04T19:29:31Z","duration":"PT1H16M34S","thumbnail":"https://i.ytimg.com/vi/kuM1dqjk6dA/mqdefault.jpg","viewCount":"148","playlistId":"PLEkQk5xrP-tmJuzaj4GWRenFoFx9gdbFX","playlistName":"شرح كتاب صحيح الإمام البخاري رضي الله تعالى عنه   أ.د. يسرى جبر","category":"حديث"}],"total":7670,"page":215,"pageSize":24,"totalPages":320}