{"items":[{"id":"yYVbGlQRDfQ","title":"شرح البرهان في علوم القرآن - النوع ٥ - الفصل ٤ : ما جاء على أربعة أحرف","publishedAt":"2019-09-18T21:51:38Z","duration":"PT14M30S","thumbnail":"https://i.ytimg.com/vi/yYVbGlQRDfQ/mqdefault.jpg","viewCount":"548","playlistId":"PLEkQk5xrP-tnW3iBL7HkKziOFCFZbTlf0","playlistName":"شرح البرهان في علوم القرآن - أ.د. يسري جبر","category":"تفسير"},{"id":"G3tpt6dznt4","title":"شرح سنن الدارمي كتاب البيوع من باب ٦٧","publishedAt":"2019-09-18T11:58:11Z","duration":"PT38M17S","thumbnail":"https://i.ytimg.com/vi/G3tpt6dznt4/mqdefault.jpg","viewCount":"305","playlistId":"PLEkQk5xrP-tmAg-FuWjY057X_h5NmGmAa","playlistName":"شرح سنن الدارمي - أ.د. يسري جبر (كاملا)","category":"متنوع"},{"id":"uz918peQATg","title":"شرح البرهان في علوم القرآن - النوع ٥ - الفصل ٣ : ما جاء على ثلاثة أحرف","publishedAt":"2019-09-17T22:09:29Z","duration":"PT13M5S","thumbnail":"https://i.ytimg.com/vi/uz918peQATg/mqdefault.jpg","viewCount":"628","playlistId":"PLEkQk5xrP-tnW3iBL7HkKziOFCFZbTlf0","playlistName":"شرح البرهان في علوم القرآن - أ.د. يسري جبر","category":"تفسير"},{"id":"OrP6wWCjB6Y","title":"إِلَّا تَنصُرُوهُ فَقَدْ نَصَرَهُ اللَّهُ أ.د. يسري جبر","publishedAt":"2019-09-17T15:50:05Z","duration":"PT32M38S","thumbnail":"https://i.ytimg.com/vi/OrP6wWCjB6Y/mqdefault.jpg","viewCount":"1340","playlistId":"PLEkQk5xrP-tlArtGpeLWaqNM7h7IDeAVC","playlistName":"خطب الجمعة أ.د. يسري جبر","category":"خطب"},{"id":"vIl9lR2l2Rk","title":"شرح صحيح البخاري كتاب التفسير فى سورة الجمعة والمنافقون من أولها","publishedAt":"2018-04-26T20:13:10Z","duration":"PT41M19S","thumbnail":"https://i.ytimg.com/vi/vIl9lR2l2Rk/mqdefault.jpg","viewCount":"479","playlistId":"PLEkQk5xrP-tlEerGoLa1AFy-2XvQ-sovv","playlistName":"شرح صحيح البخاري - أ.د. يسري جبر (كاملا)","category":"حديث"},{"id":"31j4zpqjIHI","title":"(20) سيدنا أبو علي أحمد بن عاصم الأنطاكي رضي الله عنه  د. يسري جبر","publishedAt":"2018-04-26T19:57:12Z","duration":"PT6M55S","thumbnail":"https://i.ytimg.com/vi/31j4zpqjIHI/mqdefault.jpg","viewCount":"888","playlistId":"PLEkQk5xrP-tmmI87XkWepRdTpisz2Lfgr","playlistName":"باب في ذكر مشايخ هذه الطريقة من شرح كتاب الرسالة القشيرية","category":"تصوف"},{"id":"JoGOCfJF_Us","title":"شرح صحيح البخاري كتاب التفسير فى سورة الملك من أولها","publishedAt":"2018-04-26T19:47:13Z","duration":"PT31M49S","thumbnail":"https://i.ytimg.com/vi/JoGOCfJF_Us/mqdefault.jpg","viewCount":"510","playlistId":"PLEkQk5xrP-tlEerGoLa1AFy-2XvQ-sovv","playlistName":"شرح صحيح البخاري - أ.د. يسري جبر (كاملا)","category":"حديث"},{"id":"8blAS5V8eEE","title":"(19) سيدنا أبو محمد عبد الله بن خُبيق رضي الله عنه  د. يسري جبر","publishedAt":"2018-04-26T19:07:38Z","duration":"PT11M10S","thumbnail":"https://i.ytimg.com/vi/8blAS5V8eEE/mqdefault.jpg","viewCount":"1378","playlistId":"PLEkQk5xrP-tmmI87XkWepRdTpisz2Lfgr","playlistName":"باب في ذكر مشايخ هذه الطريقة من شرح كتاب الرسالة القشيرية","category":"تصوف"},{"id":"8kIpdWzZKxU","title":"الاختزال (39) الإيجاز - شرح البرهان في علوم القرآن","publishedAt":"2021-09-04T05:48:30Z","duration":"PT25M13S","thumbnail":"https://i.ytimg.com/vi/8kIpdWzZKxU/mqdefault.jpg","viewCount":"502","playlistId":"PLEkQk5xrP-tnW3iBL7HkKziOFCFZbTlf0","playlistName":"شرح البرهان في علوم القرآن - أ.د. يسري جبر","category":"تفسير"},{"id":"tAfVIjts4LY","title":"هل التدخين حرام؟؟","publishedAt":"2021-09-03T19:09:43Z","duration":"PT8M46S","thumbnail":"https://i.ytimg.com/vi/tAfVIjts4LY/mqdefault.jpg","viewCount":"17276","playlistId":"PLEkQk5xrP-tkGXuZ9atE3k_7it12rUPTs","playlistName":"أسئلة المتابعين","category":"متنوع"},{"id":"9qxMqbhkyZA","title":"الرَّحمةُ المُهْدَاةُ ﷺ","publishedAt":"2021-09-03T10:04:48Z","duration":"PT45M4S","thumbnail":"https://i.ytimg.com/vi/9qxMqbhkyZA/mqdefault.jpg","viewCount":"3537","playlistId":"PLEkQk5xrP-tlArtGpeLWaqNM7h7IDeAVC","playlistName":"خطب الجمعة أ.د. يسري جبر","category":"خطب"},{"id":"BcLnroBMKEM","title":"121- البِشارة في وُجُوب شَفاعته ﷺ يوم القيامة - شرح دليل الفالحين","publishedAt":"2021-09-03T04:57:33Z","duration":"PT53M59S","thumbnail":"https://i.ytimg.com/vi/BcLnroBMKEM/mqdefault.jpg","viewCount":"1652","playlistId":"PLEkQk5xrP-tkc9DXvSLguqX5-FYp6ASR4","playlistName":"دليل الفالحين لطرق رياض الصالحين","category":"متنوع"},{"id":"WdFc0sTqEMk","title":"كيف أطلب العلم عن بعد؟","publishedAt":"2021-09-02T19:30:04Z","duration":"PT11M49S","thumbnail":"https://i.ytimg.com/vi/WdFc0sTqEMk/mqdefault.jpg","viewCount":"14436","playlistId":"PLEkQk5xrP-tkGXuZ9atE3k_7it12rUPTs","playlistName":"أسئلة المتابعين","category":"متنوع"},{"id":"2DNHRcxuarg","title":"الاختزال (38) حذف الحرف (6) - شرح البرهان في علوم القرآن","publishedAt":"2021-09-02T06:12:47Z","duration":"PT16M30S","thumbnail":"https://i.ytimg.com/vi/2DNHRcxuarg/mqdefault.jpg","viewCount":"367","playlistId":"PLEkQk5xrP-tnW3iBL7HkKziOFCFZbTlf0","playlistName":"شرح البرهان في علوم القرآن - أ.د. يسري جبر","category":"تفسير"},{"id":"0w5gqtXvYCY","title":"شرح سنن الدارمي كتاب الأضاحي من باب ١٠","publishedAt":"2019-07-21T16:00:42Z","duration":"PT30M11S","thumbnail":"https://i.ytimg.com/vi/0w5gqtXvYCY/mqdefault.jpg","viewCount":"326","playlistId":"PLEkQk5xrP-tmAg-FuWjY057X_h5NmGmAa","playlistName":"شرح سنن الدارمي - أ.د. يسري جبر (كاملا)","category":"متنوع"},{"id":"coq1V_cD880","title":"مقرأة سورة البلد من أولها","publishedAt":"2019-07-21T08:16:27Z","duration":"PT18M1S","thumbnail":"https://i.ytimg.com/vi/coq1V_cD880/mqdefault.jpg","viewCount":"671","playlistId":"PLEkQk5xrP-tnmTYsyW6xNdyfhPq0Bhrhj","playlistName":"مقرأة الفجر - القُرْآنُ الكَرِيمُ - خَتْمَةُ التَّدَبُّرِ  أ.د. يسري جبر","category":"متنوع"},{"id":"XQZHYD3kKDY","title":"الرسالة القشيرية - المجلس (58) بابُ الحَسَدِ وبابُ الغِيبَة أ.د. يسري جبر","publishedAt":"2019-07-20T19:09:20Z","duration":"PT47M30S","thumbnail":"https://i.ytimg.com/vi/XQZHYD3kKDY/mqdefault.jpg","viewCount":"6754","playlistId":"PLEkQk5xrP-tkHAGOwIKr4pc5ehhyQ5HMJ","playlistName":"كتاب الرسالة القشيرية (تصوف) - د. يسري جبر","category":"تصوف"},{"id":"Wxn8nvIXm6I","title":"شرح سنن الدارمي كتاب الأضاحي من باب ٨","publishedAt":"2019-07-18T17:43:22Z","duration":"PT23M28S","thumbnail":"https://i.ytimg.com/vi/Wxn8nvIXm6I/mqdefault.jpg","viewCount":"403","playlistId":"PLEkQk5xrP-tmAg-FuWjY057X_h5NmGmAa","playlistName":"شرح سنن الدارمي - أ.د. يسري جبر (كاملا)","category":"متنوع"},{"id":"X1NUbcJD5co","title":"مقرأة سورة الفجر من آية ١٥","publishedAt":"2019-07-18T11:03:08Z","duration":"PT23M1S","thumbnail":"https://i.ytimg.com/vi/X1NUbcJD5co/mqdefault.jpg","viewCount":"657","playlistId":"PLEkQk5xrP-tnmTYsyW6xNdyfhPq0Bhrhj","playlistName":"مقرأة الفجر - القُرْآنُ الكَرِيمُ - خَتْمَةُ التَّدَبُّرِ  أ.د. يسري جبر","category":"متنوع"},{"id":"RNcdBqpXmUU","title":"شرح سنن الدارمي كتاب الأضاحي من أوله","publishedAt":"2019-07-18T07:58:41Z","duration":"PT33M43S","thumbnail":"https://i.ytimg.com/vi/RNcdBqpXmUU/mqdefault.jpg","viewCount":"301","playlistId":"PLEkQk5xrP-tmAg-FuWjY057X_h5NmGmAa","playlistName":"شرح سنن الدارمي - أ.د. يسري جبر (كاملا)","category":"متنوع"},{"id":"UIOYQExZrN0","title":"مقرأة سورة الفجر من أولها","publishedAt":"2019-07-17T10:12:34Z","duration":"PT15M45S","thumbnail":"https://i.ytimg.com/vi/UIOYQExZrN0/mqdefault.jpg","viewCount":"822","playlistId":"PLEkQk5xrP-tnmTYsyW6xNdyfhPq0Bhrhj","playlistName":"مقرأة الفجر - القُرْآنُ الكَرِيمُ - خَتْمَةُ التَّدَبُّرِ  أ.د. يسري جبر","category":"متنوع"},{"id":"6PbZGIGzuPg","title":"مقرأة سورة الغاشية من أولها","publishedAt":"2019-07-17T05:22:35Z","duration":"PT26M27S","thumbnail":"https://i.ytimg.com/vi/6PbZGIGzuPg/mqdefault.jpg","viewCount":"534","playlistId":"PLEkQk5xrP-tnmTYsyW6xNdyfhPq0Bhrhj","playlistName":"مقرأة الفجر - القُرْآنُ الكَرِيمُ - خَتْمَةُ التَّدَبُّرِ  أ.د. يسري جبر","category":"متنوع"},{"id":"kdEV3T96KjY","title":"مقرأة سورة الرحمن من آية ١٤","publishedAt":"2019-03-05T15:12:02Z","duration":"PT15M37S","thumbnail":"https://i.ytimg.com/vi/kdEV3T96KjY/mqdefault.jpg","viewCount":"528","playlistId":"PLEkQk5xrP-tnmTYsyW6xNdyfhPq0Bhrhj","playlistName":"مقرأة الفجر - القُرْآنُ الكَرِيمُ - خَتْمَةُ التَّدَبُّرِ  أ.د. يسري جبر","category":"متنوع"},{"id":"85FLWdHH8ZA","title":"شرح سنن الدارمي - المقدمة - ١٤","publishedAt":"2019-03-04T21:51:33Z","duration":"PT33M2S","thumbnail":"https://i.ytimg.com/vi/85FLWdHH8ZA/mqdefault.jpg","viewCount":"796","playlistId":"PLEkQk5xrP-tmAg-FuWjY057X_h5NmGmAa","playlistName":"شرح سنن الدارمي - أ.د. يسري جبر (كاملا)","category":"متنوع"}],"total":7670,"page":183,"pageSize":24,"totalPages":320}