{"items":[{"id":"2hoN_QcWj9c","title":"سورة المائدة آية 2","publishedAt":"2016-10-03T08:00:15Z","duration":"PT24M7S","thumbnail":"https://i.ytimg.com/vi/2hoN_QcWj9c/mqdefault.jpg","viewCount":"655","playlistId":"PLEkQk5xrP-tnmTYsyW6xNdyfhPq0Bhrhj","playlistName":"مقرأة الفجر - القُرْآنُ الكَرِيمُ - خَتْمَةُ التَّدَبُّرِ  أ.د. يسري جبر","category":"متنوع"},{"id":"vI-nGacWqwk","title":"28- ما جاء في الدعاء كتاب القرآن ك الموطأ د يسري جبر الأزهري بمضيفة الشيخ سعيد الدح","publishedAt":"2016-10-02T14:50:27Z","duration":"PT1H16M53S","thumbnail":"https://i.ytimg.com/vi/vI-nGacWqwk/mqdefault.jpg","viewCount":"509","playlistId":"PLEkQk5xrP-tnC6BRuqMjyO-484iqXeg0o","playlistName":"شرح كتاب الموطأ للإمام مالك","category":"متنوع"},{"id":"aW8RRE8KM10","title":"شرح صحيح البخاري ( كتاب الصلاة مجلس ٧)","publishedAt":"2016-10-02T07:40:30Z","duration":"PT35M48S","thumbnail":"https://i.ytimg.com/vi/aW8RRE8KM10/mqdefault.jpg","viewCount":"1452","playlistId":"PLEkQk5xrP-tlEerGoLa1AFy-2XvQ-sovv","playlistName":"شرح صحيح البخاري - أ.د. يسري جبر (كاملا)","category":"حديث"},{"id":"YQReGr1S2J8","title":"سورة المائدة آية 1","publishedAt":"2016-10-02T07:17:41Z","duration":"PT18M34S","thumbnail":"https://i.ytimg.com/vi/YQReGr1S2J8/mqdefault.jpg","viewCount":"705","playlistId":"PLEkQk5xrP-tnmTYsyW6xNdyfhPq0Bhrhj","playlistName":"مقرأة الفجر - القُرْآنُ الكَرِيمُ - خَتْمَةُ التَّدَبُّرِ  أ.د. يسري جبر","category":"متنوع"},{"id":"iKJEFy_TaDc","title":"لماذا خرج الوهابية من أهل السنة ولم يخرجوا من الإسلام | أ.د. يسري جبر","publishedAt":"2016-10-02T03:13:26Z","duration":"PT1H27M10S","thumbnail":"https://i.ytimg.com/vi/iKJEFy_TaDc/mqdefault.jpg","viewCount":"130137","playlistId":"PLEkQk5xrP-tlArtGpeLWaqNM7h7IDeAVC","playlistName":"خطب الجمعة أ.د. يسري جبر","category":"خطب"},{"id":"aal6JoVDDmM","title":"سورة النساء آية 163","publishedAt":"2016-10-01T21:03:22Z","duration":"PT13M30S","thumbnail":"https://i.ytimg.com/vi/aal6JoVDDmM/mqdefault.jpg","viewCount":"378","playlistId":"PLEkQk5xrP-tnmTYsyW6xNdyfhPq0Bhrhj","playlistName":"مقرأة الفجر - القُرْآنُ الكَرِيمُ - خَتْمَةُ التَّدَبُّرِ  أ.د. يسري جبر","category":"متنوع"},{"id":"HjUV-VmreM4","title":"كيف تُحصِّل ثواب الهجرة في هذا الزمان    د. يسري جبر","publishedAt":"2016-10-01T14:39:33Z","duration":"PT34M28S","thumbnail":"https://i.ytimg.com/vi/HjUV-VmreM4/mqdefault.jpg","viewCount":"977","playlistId":"PLEkQk5xrP-tlArtGpeLWaqNM7h7IDeAVC","playlistName":"خطب الجمعة أ.د. يسري جبر","category":"خطب"},{"id":"XE7akJS72Mg","title":"شرح صحيح البخاري ( كتاب الصلاة مجلس ٥ )","publishedAt":"2016-10-01T10:16:33Z","duration":"PT41M56S","thumbnail":"https://i.ytimg.com/vi/XE7akJS72Mg/mqdefault.jpg","viewCount":"1639","playlistId":"PLEkQk5xrP-tlEerGoLa1AFy-2XvQ-sovv","playlistName":"شرح صحيح البخاري - أ.د. يسري جبر (كاملا)","category":"حديث"},{"id":"ZokRgARTiL0","title":"شرح صحيح البخاري ( كتاب الصلاة مجلس ٦)","publishedAt":"2016-10-01T10:16:10Z","duration":"PT35M11S","thumbnail":"https://i.ytimg.com/vi/ZokRgARTiL0/mqdefault.jpg","viewCount":"1421","playlistId":"PLEkQk5xrP-tlEerGoLa1AFy-2XvQ-sovv","playlistName":"شرح صحيح البخاري - أ.د. يسري جبر (كاملا)","category":"حديث"},{"id":"nDTLcZ7rvAk","title":"سورة النساء  آية 174","publishedAt":"2016-10-01T09:23:54Z","duration":"PT14M53S","thumbnail":"https://i.ytimg.com/vi/nDTLcZ7rvAk/mqdefault.jpg","viewCount":"484","playlistId":"PLEkQk5xrP-tnmTYsyW6xNdyfhPq0Bhrhj","playlistName":"مقرأة الفجر - القُرْآنُ الكَرِيمُ - خَتْمَةُ التَّدَبُّرِ  أ.د. يسري جبر","category":"متنوع"},{"id":"gcLQFvwhc9o","title":"شرح صحيح البخاري ( كتاب الصلاة مجلس ٤ )","publishedAt":"2016-10-01T08:57:42Z","duration":"PT31M47S","thumbnail":"https://i.ytimg.com/vi/gcLQFvwhc9o/mqdefault.jpg","viewCount":"1438","playlistId":"PLEkQk5xrP-tlEerGoLa1AFy-2XvQ-sovv","playlistName":"شرح صحيح البخاري - أ.د. يسري جبر (كاملا)","category":"حديث"},{"id":"EUPafMltExc","title":"شرح صحيح البخاري ( كتاب الصلاة مجلس ٣ )","publishedAt":"2016-09-29T20:50:42Z","duration":"PT41M25S","thumbnail":"https://i.ytimg.com/vi/EUPafMltExc/mqdefault.jpg","viewCount":"1726","playlistId":"PLEkQk5xrP-tlEerGoLa1AFy-2XvQ-sovv","playlistName":"شرح صحيح البخاري - أ.د. يسري جبر (كاملا)","category":"حديث"},{"id":"fsG4swbTtZ8","title":"سورة النساء آية 153","publishedAt":"2016-09-29T20:49:24Z","duration":"PT24M36S","thumbnail":"https://i.ytimg.com/vi/fsG4swbTtZ8/mqdefault.jpg","viewCount":"407","playlistId":"PLEkQk5xrP-tnmTYsyW6xNdyfhPq0Bhrhj","playlistName":"مقرأة الفجر - القُرْآنُ الكَرِيمُ - خَتْمَةُ التَّدَبُّرِ  أ.د. يسري جبر","category":"متنوع"},{"id":"U39uS1Lts5Q","title":"شرح صحيح البخاري ( كتاب الصلاة مجلس ٢ )","publishedAt":"2016-09-29T20:27:43Z","duration":"PT41M5S","thumbnail":"https://i.ytimg.com/vi/U39uS1Lts5Q/mqdefault.jpg","viewCount":"1799","playlistId":"PLEkQk5xrP-tlEerGoLa1AFy-2XvQ-sovv","playlistName":"شرح صحيح البخاري - أ.د. يسري جبر (كاملا)","category":"حديث"},{"id":"szkAg9zPhhk","title":"سورة النساء آية 148","publishedAt":"2016-09-29T20:26:19Z","duration":"PT11M51S","thumbnail":"https://i.ytimg.com/vi/szkAg9zPhhk/mqdefault.jpg","viewCount":"328","playlistId":"PLEkQk5xrP-tnmTYsyW6xNdyfhPq0Bhrhj","playlistName":"مقرأة الفجر - القُرْآنُ الكَرِيمُ - خَتْمَةُ التَّدَبُّرِ  أ.د. يسري جبر","category":"متنوع"},{"id":"LitKVPnavws","title":"شرح صحيح البخاري ( كتاب الصلاة مجلس ١ )","publishedAt":"2016-09-29T20:23:41Z","duration":"PT34M14S","thumbnail":"https://i.ytimg.com/vi/LitKVPnavws/mqdefault.jpg","viewCount":"2434","playlistId":"PLEkQk5xrP-tlEerGoLa1AFy-2XvQ-sovv","playlistName":"شرح صحيح البخاري - أ.د. يسري جبر (كاملا)","category":"حديث"},{"id":"NAqzD0Pzksw","title":"سورة النساء آية 136","publishedAt":"2016-09-29T20:22:30Z","duration":"PT30M4S","thumbnail":"https://i.ytimg.com/vi/NAqzD0Pzksw/mqdefault.jpg","viewCount":"420","playlistId":"PLEkQk5xrP-tnmTYsyW6xNdyfhPq0Bhrhj","playlistName":"مقرأة الفجر - القُرْآنُ الكَرِيمُ - خَتْمَةُ التَّدَبُّرِ  أ.د. يسري جبر","category":"متنوع"},{"id":"-Nqihz1iOug","title":"شرح صحيح البخاري ( كتاب الغسل مجلس ٣ )","publishedAt":"2016-09-29T19:53:36Z","duration":"PT35M37S","thumbnail":"https://i.ytimg.com/vi/-Nqihz1iOug/mqdefault.jpg","viewCount":"1508","playlistId":"PLEkQk5xrP-tlEerGoLa1AFy-2XvQ-sovv","playlistName":"شرح صحيح البخاري - أ.د. يسري جبر (كاملا)","category":"حديث"},{"id":"Q5LWMZfPsXA","title":"سورة النساء آية 101","publishedAt":"2016-09-29T19:52:40Z","duration":"PT16M15S","thumbnail":"https://i.ytimg.com/vi/Q5LWMZfPsXA/mqdefault.jpg","viewCount":"364","playlistId":"PLEkQk5xrP-tnmTYsyW6xNdyfhPq0Bhrhj","playlistName":"مقرأة الفجر - القُرْآنُ الكَرِيمُ - خَتْمَةُ التَّدَبُّرِ  أ.د. يسري جبر","category":"متنوع"},{"id":"be6LYh1g4mc","title":"شرح صحيح البخاري ( كتاب التيمم مجلس ٣ )","publishedAt":"2016-09-27T20:48:18Z","duration":"PT21M32S","thumbnail":"https://i.ytimg.com/vi/be6LYh1g4mc/mqdefault.jpg","viewCount":"1019","playlistId":"PLEkQk5xrP-tlEerGoLa1AFy-2XvQ-sovv","playlistName":"شرح صحيح البخاري - أ.د. يسري جبر (كاملا)","category":"حديث"},{"id":"1py6cHf2N6E","title":"سورة النساء آية 131","publishedAt":"2016-09-27T20:47:48Z","duration":"PT18M44S","thumbnail":"https://i.ytimg.com/vi/1py6cHf2N6E/mqdefault.jpg","viewCount":"385","playlistId":"PLEkQk5xrP-tnmTYsyW6xNdyfhPq0Bhrhj","playlistName":"مقرأة الفجر - القُرْآنُ الكَرِيمُ - خَتْمَةُ التَّدَبُّرِ  أ.د. يسري جبر","category":"متنوع"},{"id":"Thv3-oMW5xY","title":"شرح صحيح البخاري ( كتاب التيمم مجلس ٢ )","publishedAt":"2016-09-27T20:47:10Z","duration":"PT45M20S","thumbnail":"https://i.ytimg.com/vi/Thv3-oMW5xY/mqdefault.jpg","viewCount":"1346","playlistId":"PLEkQk5xrP-tlEerGoLa1AFy-2XvQ-sovv","playlistName":"شرح صحيح البخاري - أ.د. يسري جبر (كاملا)","category":"حديث"},{"id":"VTjQHFUM48U","title":"سورة النساء آية 127","publishedAt":"2016-09-27T20:46:31Z","duration":"PT22M54S","thumbnail":"https://i.ytimg.com/vi/VTjQHFUM48U/mqdefault.jpg","viewCount":"394","playlistId":"PLEkQk5xrP-tnmTYsyW6xNdyfhPq0Bhrhj","playlistName":"مقرأة الفجر - القُرْآنُ الكَرِيمُ - خَتْمَةُ التَّدَبُّرِ  أ.د. يسري جبر","category":"متنوع"},{"id":"HPTIGsxh6CU","title":"شرح صحيح البخاري ( كتاب التيمم مجلس ١ )","publishedAt":"2016-09-27T20:45:55Z","duration":"PT30M59S","thumbnail":"https://i.ytimg.com/vi/HPTIGsxh6CU/mqdefault.jpg","viewCount":"1407","playlistId":"PLEkQk5xrP-tlEerGoLa1AFy-2XvQ-sovv","playlistName":"شرح صحيح البخاري - أ.د. يسري جبر (كاملا)","category":"حديث"}],"total":7675,"page":272,"pageSize":24,"totalPages":320}