{"items":[{"id":"3wevqeLssxI","title":"Ø´Ø±Ø­ ØµØ­ÙŠØ­ Ø§Ù„Ø¨Ø®Ø§Ø±ÙŠ ÙƒØªØ§Ø¨ Ø§Ù„ØªÙØ³ÙŠØ± ÙÙ‰ Ø³ÙˆØ±Ø© Ø§Ù„ÙØ±Ù‚Ø§Ù† Ù…Ù† Ø¨Ø§Ø¨ Ù¡","publishedAt":"2018-04-09T11:26:41Z","duration":"PT43M51S","thumbnail":"https://i.ytimg.com/vi/3wevqeLssxI/mqdefault.jpg","viewCount":"519","playlistId":"PLEkQk5xrP-tlEerGoLa1AFy-2XvQ-sovv","playlistName":"Ø´Ø±Ø­ ØµØ­ÙŠØ­ Ø§Ù„Ø¨Ø®Ø§Ø±ÙŠ - Ø£.Ø¯. ÙŠØ³Ø±ÙŠ Ø¬Ø¨Ø± (ÙƒØ§Ù…Ù„Ø§)","category":"Ø­Ø¯ÙŠØ«"},{"id":"wQsw_Nhp8hY","title":"Ù…Ù‚Ø±Ø£Ø© Ø³ÙˆØ±Ø© Ø§Ù„Ø´Ø¹Ø±Ø§Ø¡ Ù…Ù† Ø¢ÙŠØ© Ù£Ù¢","publishedAt":"2018-04-09T11:26:37Z","duration":"PT21M9S","thumbnail":"https://i.ytimg.com/vi/wQsw_Nhp8hY/mqdefault.jpg","viewCount":"212","playlistId":"PLEkQk5xrP-tnmTYsyW6xNdyfhPq0Bhrhj","playlistName":"Ù…Ù‚Ø±Ø£Ø© Ø§Ù„ÙØ¬Ø± - Ø§Ù„Ù‚ÙØ±Ù’Ø¢Ù†Ù Ø§Ù„ÙƒÙØ±ÙÙŠÙ…Ù - Ø®ÙØªÙ’Ù…ÙØ©Ù Ø§Ù„ØªÙ‘ÙØ¯ÙØ¨Ù‘ÙØ±Ù  Ø£.Ø¯. ÙŠØ³Ø±ÙŠ Ø¬Ø¨Ø±","category":"Ù…ØªÙ†ÙˆØ¹"},{"id":"rKCn9ntzvsE","title":"Ù…Ù‚Ø±Ø£Ø© Ø³ÙˆØ±Ø© Ø§Ù„Ø´Ø¹Ø±Ø§Ø¡ Ù…Ù† Ø¢ÙŠØ© Ù¢Ù£","publishedAt":"2018-04-09T11:26:34Z","duration":"PT18M44S","thumbnail":"https://i.ytimg.com/vi/rKCn9ntzvsE/mqdefault.jpg","viewCount":"232","playlistId":"PLEkQk5xrP-tnmTYsyW6xNdyfhPq0Bhrhj","playlistName":"Ù…Ù‚Ø±Ø£Ø© Ø§Ù„ÙØ¬Ø± - Ø§Ù„Ù‚ÙØ±Ù’Ø¢Ù†Ù Ø§Ù„ÙƒÙØ±ÙÙŠÙ…Ù - Ø®ÙØªÙ’Ù…ÙØ©Ù Ø§Ù„ØªÙ‘ÙØ¯ÙØ¨Ù‘ÙØ±Ù  Ø£.Ø¯. ÙŠØ³Ø±ÙŠ Ø¬Ø¨Ø±","category":"Ù…ØªÙ†ÙˆØ¹"},{"id":"iUNOA2FgJ-U","title":"Ù…Ù‚Ø±Ø£Ø© Ø³ÙˆØ±Ø© Ø§Ù„Ø´Ø¹Ø±Ø§Ø¡ Ù…Ù† Ø¢ÙŠØ© Ù¤Ù¤","publishedAt":"2018-04-09T11:26:30Z","duration":"PT41M21S","thumbnail":"https://i.ytimg.com/vi/iUNOA2FgJ-U/mqdefault.jpg","viewCount":"237","playlistId":"PLEkQk5xrP-tnmTYsyW6xNdyfhPq0Bhrhj","playlistName":"Ù…Ù‚Ø±Ø£Ø© Ø§Ù„ÙØ¬Ø± - Ø§Ù„Ù‚ÙØ±Ù’Ø¢Ù†Ù Ø§Ù„ÙƒÙØ±ÙÙŠÙ…Ù - Ø®ÙØªÙ’Ù…ÙØ©Ù Ø§Ù„ØªÙ‘ÙØ¯ÙØ¨Ù‘ÙØ±Ù  Ø£.Ø¯. ÙŠØ³Ø±ÙŠ Ø¬Ø¨Ø±","category":"Ù…ØªÙ†ÙˆØ¹"},{"id":"KVzUO026dYU","title":"ÙƒÙŠÙ ØªÙƒÙˆÙ† Ù…Ù† Ø£Ù‡Ù„ Ù„ÙŠÙ„Ø© Ø§Ù„Ù‚Ø¯Ø±ØŸğŸ¤²ğŸŒ™","publishedAt":"2025-03-25T19:00:22Z","duration":"PT13M57S","thumbnail":"https://i.ytimg.com/vi/KVzUO026dYU/mqdefault.jpg","viewCount":"6845","playlistId":"PLEkQk5xrP-tm8ZIu74nTOZN9KJUJu416J","playlistName":"Ù…Ù‚Ø§Ø·Ø¹ Ù…ÙÙ‡Ù…ÙÙ‘Ø© (ÙŠÙØ³Ø±ÙŠÙ‘ÙØ§Øª) Ø£.Ø¯. ÙŠØ³Ø±ÙŠ Ø¬Ø¨Ø±","category":"Ù…ØªÙ†ÙˆØ¹"},{"id":"ejS0WCOzkAo","title":"ÙƒÙŠÙ ÙŠØ±ÙØ¹ Ø§Ù„ØµÙŠØ§Ù… Ø¯Ø±Ø¬Ø§Øª Ø§Ù„Ù…Ø¤Ù…Ù† ÙÙŠ Ø§Ù„Ø¬Ù†Ø©ØŸ | Ù…Ø¬Ø§Ù„Ø³ Ø±Ù…Ø¶Ø§Ù†ÙŠØ©","publishedAt":"2025-03-25T15:00:58Z","duration":"PT15M51S","thumbnail":"https://i.ytimg.com/vi/ejS0WCOzkAo/mqdefault.jpg","viewCount":"924","playlistId":"PLEkQk5xrP-tkeI_WVPfuoTJO46aVkpaz0","playlistName":"Ø´Ø±Ø­ ÙƒØªØ§Ø¨ Ù…ÙŠØ²Ø§Ù† Ø§Ù„Ø§Ø¹ØªØ¯Ø§Ù„ Ù„Ø­ÙØ¸ Ø§Ù„Ø¯ÙŠÙ† ÙˆØ§Ù„Ø£Ø­ÙˆØ§Ù„","category":"Ù…ØªÙ†ÙˆØ¹"},{"id":"jN-_SqWB2j4","title":"Ù‡Ù„ Ø§Ù„Ù†Ø¨ÙŠ ï·º Ø£ÙƒØ«Ø± Ø¹Ù„Ù…Ø§ Ù…Ù† Ø³ÙŠØ¯Ù†Ø§ Ø¬Ø¨Ø±ÙŠÙ„ØŸ | Ù…Ø¬Ø§Ù„Ø³ Ø§Ù„Ø§Ø¹ØªÙƒØ§Ù","publishedAt":"2025-03-25T10:00:55Z","duration":"PT26M38S","thumbnail":"https://i.ytimg.com/vi/jN-_SqWB2j4/mqdefault.jpg","viewCount":"3359","playlistId":"PLEkQk5xrP-tly7ti7Qb_lS7xjUg_fwlNP","playlistName":"Ø´Ø±Ø­ ÙƒØªØ§Ø¨ Ø§Ù„Ø¯ÙˆÙ„Ø© Ø§Ù„Ù…ÙƒÙŠØ© Ø¨Ø§Ù„Ù…Ø§Ø¯Ø© Ø§Ù„ØºÙŠØ¨ÙŠØ©","category":"Ù…ØªÙ†ÙˆØ¹"},{"id":"_D3jcDwKvz8","title":"Ù‡Ù„ Ø§Ù„Ø´ÙŠØ·Ø§Ù† Ø³Ø¨Ø¨ Ø§Ù„Ø°Ù†ÙˆØ¨ Ø£Ù… Ø£Ù†Ù‡ Ù…Ø¬Ø±Ø¯ Ù…Ø¨Ø±Ø±ØŸ","publishedAt":"2025-03-24T19:00:26Z","duration":"PT9M29S","thumbnail":"https://i.ytimg.com/vi/_D3jcDwKvz8/mqdefault.jpg","viewCount":"2369","playlistId":"PLEkQk5xrP-tkGXuZ9atE3k_7it12rUPTs","playlistName":"Ø£Ø³Ø¦Ù„Ø© Ø§Ù„Ù…ØªØ§Ø¨Ø¹ÙŠÙ†","category":"Ù…ØªÙ†ÙˆØ¹"},{"id":"HbTScUzbRws","title":"ÙƒÙŠÙ ØªÙƒÙˆÙ† Ø¹Ø¨Ø§Ø¯ØªÙ†Ø§ Ù…Ù‚Ø¨ÙˆÙ„Ø© Ø¹Ù†Ø¯ Ø§Ù„Ù„Ù‡ØŸ | Ù…Ø¬Ø§Ù„Ø³ Ø±Ù…Ø¶Ø§Ù†ÙŠØ©","publishedAt":"2025-03-24T15:00:22Z","duration":"PT23M41S","thumbnail":"https://i.ytimg.com/vi/HbTScUzbRws/mqdefault.jpg","viewCount":"1897","playlistId":"PLEkQk5xrP-tkeI_WVPfuoTJO46aVkpaz0","playlistName":"Ø´Ø±Ø­ ÙƒØªØ§Ø¨ Ù…ÙŠØ²Ø§Ù† Ø§Ù„Ø§Ø¹ØªØ¯Ø§Ù„ Ù„Ø­ÙØ¸ Ø§Ù„Ø¯ÙŠÙ† ÙˆØ§Ù„Ø£Ø­ÙˆØ§Ù„","category":"Ù…ØªÙ†ÙˆØ¹"},{"id":"pfxgW_qrWXM","title":"Ø§Ù„Ø±Ø¯ Ø¹Ù„Ù‰ Ù…Ù† ÙŠÙ†ÙƒØ± Ø®ØµÙˆØµÙŠØ© Ø§Ù„Ù†Ø¨ÙŠ ï·º | Ù…Ø¬Ø§Ù„Ø³ Ø§Ù„Ø§Ø¹ØªÙƒØ§Ù","publishedAt":"2025-03-24T10:01:04Z","duration":"PT35M21S","thumbnail":"https://i.ytimg.com/vi/pfxgW_qrWXM/mqdefault.jpg","viewCount":"3166","playlistId":"PLEkQk5xrP-tly7ti7Qb_lS7xjUg_fwlNP","playlistName":"Ø´Ø±Ø­ ÙƒØªØ§Ø¨ Ø§Ù„Ø¯ÙˆÙ„Ø© Ø§Ù„Ù…ÙƒÙŠØ© Ø¨Ø§Ù„Ù…Ø§Ø¯Ø© Ø§Ù„ØºÙŠØ¨ÙŠØ©","category":"Ù…ØªÙ†ÙˆØ¹"},{"id":"fofLUBTbIoE","title":"Ù…Ø§ Ù…Ø¹Ù†Ù‰ Ø§Ù„Ø¬Ø°Ø¨ ÙˆÙ…Ø§ Ø£Ù†ÙˆØ§Ø¹Ù‡ØŸ","publishedAt":"2025-03-23T19:00:34Z","duration":"PT8M9S","thumbnail":"https://i.ytimg.com/vi/fofLUBTbIoE/mqdefault.jpg","viewCount":"6440","playlistId":"PLEkQk5xrP-tkGXuZ9atE3k_7it12rUPTs","playlistName":"Ø£Ø³Ø¦Ù„Ø© Ø§Ù„Ù…ØªØ§Ø¨Ø¹ÙŠÙ†","category":"Ù…ØªÙ†ÙˆØ¹"},{"id":"3QpWeDl64fw","title":"ÙƒÙŠÙ ØªØ®ØªÙ… Ø±Ù…Ø¶Ø§Ù† Ø¨Ø£Ø¹Ù„Ù‰ Ø¯Ø±Ø¬Ø§Øª Ø§Ù„ØµÙˆÙ…ØŸ | Ù…Ø¬Ø§Ù„Ø³ Ø±Ù…Ø¶Ø§Ù†ÙŠØ©","publishedAt":"2025-03-23T15:00:04Z","duration":"PT17M3S","thumbnail":"https://i.ytimg.com/vi/3QpWeDl64fw/mqdefault.jpg","viewCount":"1799","playlistId":"PLEkQk5xrP-tkeI_WVPfuoTJO46aVkpaz0","playlistName":"Ø´Ø±Ø­ ÙƒØªØ§Ø¨ Ù…ÙŠØ²Ø§Ù† Ø§Ù„Ø§Ø¹ØªØ¯Ø§Ù„ Ù„Ø­ÙØ¸ Ø§Ù„Ø¯ÙŠÙ† ÙˆØ§Ù„Ø£Ø­ÙˆØ§Ù„","category":"Ù…ØªÙ†ÙˆØ¹"},{"id":"XStctykjS0c","title":"Ø§Ù„Ø±Ø¯ Ø¹Ù„Ù‰ Ø´Ø¨Ù‡Ø§Øª Ø§Ù„ÙˆÙ‡Ø§Ø¨ÙŠØ© Ø­ÙˆÙ„ Ø§Ù„ÙˆØ§Ø³Ø·Ø©! | Ù…Ø¬Ø§Ù„Ø³ Ø§Ù„Ø§Ø¹ØªÙƒØ§Ù","publishedAt":"2025-03-23T10:00:41Z","duration":"PT36M1S","thumbnail":"https://i.ytimg.com/vi/XStctykjS0c/mqdefault.jpg","viewCount":"4817","playlistId":"PLEkQk5xrP-tly7ti7Qb_lS7xjUg_fwlNP","playlistName":"Ø´Ø±Ø­ ÙƒØªØ§Ø¨ Ø§Ù„Ø¯ÙˆÙ„Ø© Ø§Ù„Ù…ÙƒÙŠØ© Ø¨Ø§Ù„Ù…Ø§Ø¯Ø© Ø§Ù„ØºÙŠØ¨ÙŠØ©","category":"Ù…ØªÙ†ÙˆØ¹"},{"id":"EeT3tSoohFY","title":"ÙƒÙŠÙ ØªÙƒÙˆÙ† Ù…Ù† Ø£Ù‡Ù„ Ø§Ù„ØªÙ‚ÙˆÙ‰ØŸ","publishedAt":"2025-03-22T19:00:08Z","duration":"PT8M48S","thumbnail":"https://i.ytimg.com/vi/EeT3tSoohFY/mqdefault.jpg","viewCount":"1639","playlistId":"PLEkQk5xrP-tlArtGpeLWaqNM7h7IDeAVC","playlistName":"Ø®Ø·Ø¨ Ø§Ù„Ø¬Ù…Ø¹Ø© Ø£.Ø¯. ÙŠØ³Ø±ÙŠ Ø¬Ø¨Ø±","category":"Ø®Ø·Ø¨"},{"id":"j0UBv3yvRxM","title":"32- Ø´Ø±Ø­ Ø§Ù„Ù„Ø¤Ù„Ø¤ ÙˆØ§Ù„Ù…Ø±Ø¬Ø§Ù† ÙƒØªØ§Ø¨ Ø§Ù„Ù…Ø³Ø§Ø¬Ø¯ ÙˆÙ…ÙˆØ§Ø¶Ø¹ Ø§Ù„ØµÙ„Ø§Ø© Ù…Ù† Ø¨Ø§Ø¨ Ù¡Ù©","publishedAt":"2020-01-15T09:59:04Z","duration":"PT38M16S","thumbnail":"https://i.ytimg.com/vi/j0UBv3yvRxM/mqdefault.jpg","viewCount":"708","playlistId":"PLEkQk5xrP-tmKNjtYLfhATC37QdIsTMe0","playlistName":"Ø´Ø±Ø­ ÙƒØªØ§Ø¨ Ø§Ù„Ù„Ø¤Ù„Ø¤ ÙˆØ§Ù„Ù…Ø±Ø¬Ø§Ù† ÙÙŠÙ…Ø§ Ø§ØªÙÙ‚ Ø¹Ù„ÙŠÙ‡ Ø§Ù„Ø´ÙŠØ®Ø§Ù† Ø¥Ù…Ø§Ù…Ø§ Ø§Ù„Ù…Ø­Ø¯Ø«ÙŠÙ† Ø§Ù„Ø¨Ø®Ø§Ø±ÙŠ ÙˆÙ…Ø³Ù„Ù…. Ø£.Ø¯. ÙŠØ³Ø±ÙŠ Ø¬Ø¨Ø±","category":"Ø­Ø¯ÙŠØ«"},{"id":"q6SLdv55ilQ","title":"Ø´Ø±Ø­ Ø§Ù„Ø¨Ø±Ù‡Ø§Ù† ÙÙŠ Ø¹Ù„ÙˆÙ… Ø§Ù„Ù‚Ø±Ø¢Ù† - Ø§Ù„Ù†ÙˆØ¹ Ù¢Ù¥ - Ø¹Ù„Ù… Ù…Ø±Ø³ÙˆÙ… Ø§Ù„Ø®Ø· (Ø§Ù„Ù†Ø§Ù‚Øµ ÙˆØ£Ù‚Ø³Ø§Ù…Ù‡ : Ø­Ø°Ù Ø§Ù„Ø£Ù„Ù)","publishedAt":"2020-01-15T09:59:04Z","duration":"PT21M29S","thumbnail":"https://i.ytimg.com/vi/q6SLdv55ilQ/mqdefault.jpg","viewCount":"309","playlistId":"PLEkQk5xrP-tnW3iBL7HkKziOFCFZbTlf0","playlistName":"Ø´Ø±Ø­ Ø§Ù„Ø¨Ø±Ù‡Ø§Ù† ÙÙŠ Ø¹Ù„ÙˆÙ… Ø§Ù„Ù‚Ø±Ø¢Ù† - Ø£.Ø¯. ÙŠØ³Ø±ÙŠ Ø¬Ø¨Ø±","category":"ØªÙØ³ÙŠØ±"},{"id":"19depwaUcGQ","title":"31- Ø´Ø±Ø­ Ø§Ù„Ù„Ø¤Ù„Ø¤ ÙˆØ§Ù„Ù…Ø±Ø¬Ø§Ù† ÙƒØªØ§Ø¨ Ø§Ù„Ù…Ø³Ø§Ø¬Ø¯ ÙˆÙ…ÙˆØ§Ø¶Ø¹ Ø§Ù„ØµÙ„Ø§Ø© Ù…Ù† Ø¨Ø§Ø¨ Ù¤","publishedAt":"2020-01-15T09:59:03Z","duration":"PT31M29S","thumbnail":"https://i.ytimg.com/vi/19depwaUcGQ/mqdefault.jpg","viewCount":"570","playlistId":"PLEkQk5xrP-tmKNjtYLfhATC37QdIsTMe0","playlistName":"Ø´Ø±Ø­ ÙƒØªØ§Ø¨ Ø§Ù„Ù„Ø¤Ù„Ø¤ ÙˆØ§Ù„Ù…Ø±Ø¬Ø§Ù† ÙÙŠÙ…Ø§ Ø§ØªÙÙ‚ Ø¹Ù„ÙŠÙ‡ Ø§Ù„Ø´ÙŠØ®Ø§Ù† Ø¥Ù…Ø§Ù…Ø§ Ø§Ù„Ù…Ø­Ø¯Ø«ÙŠÙ† Ø§Ù„Ø¨Ø®Ø§Ø±ÙŠ ÙˆÙ…Ø³Ù„Ù…. Ø£.Ø¯. ÙŠØ³Ø±ÙŠ Ø¬Ø¨Ø±","category":"Ø­Ø¯ÙŠØ«"},{"id":"Au7FilvU6AY","title":"Ø´Ø±Ø­ Ø§Ù„Ø¨Ø±Ù‡Ø§Ù† ÙÙŠ Ø¹Ù„ÙˆÙ… Ø§Ù„Ù‚Ø±Ø¢Ù† - Ø§Ù„Ù†ÙˆØ¹ Ù¢Ù¥ - Ø¹Ù„Ù… Ù…Ø±Ø³ÙˆÙ… Ø§Ù„Ø®Ø· (Ø§Ù„Ù†Ø§Ù‚Øµ ÙˆØ£Ù‚Ø³Ø§Ù…Ù‡ : Ø­Ø°Ù Ø§Ù„Ø£Ù„Ù Ù¢)","publishedAt":"2020-01-15T09:59:03Z","duration":"PT13M10S","thumbnail":"https://i.ytimg.com/vi/Au7FilvU6AY/mqdefault.jpg","viewCount":"334","playlistId":"PLEkQk5xrP-tnW3iBL7HkKziOFCFZbTlf0","playlistName":"Ø´Ø±Ø­ Ø§Ù„Ø¨Ø±Ù‡Ø§Ù† ÙÙŠ Ø¹Ù„ÙˆÙ… Ø§Ù„Ù‚Ø±Ø¢Ù† - Ø£.Ø¯. ÙŠØ³Ø±ÙŠ Ø¬Ø¨Ø±","category":"ØªÙØ³ÙŠØ±"},{"id":"_EtxvP6hQt4","title":"190- Ø§Ù„ÙØ±Ù‚ Ø¨ÙŠÙ† (Ù…ÙØ¯Ù‘Ù - Ø£Ù…ÙØ¯Ù‘Ù) - Ø´Ø±Ø­ Ø§Ù„Ø¥ØªÙ‚Ø§Ù† ÙÙŠ Ø¹Ù„ÙˆÙ… Ø§Ù„Ù‚Ø±Ø¢Ù†","publishedAt":"2023-12-28T07:00:45Z","duration":"PT25M45S","thumbnail":"https://i.ytimg.com/vi/_EtxvP6hQt4/mqdefault.jpg","viewCount":"871","playlistId":"PLEkQk5xrP-tlPw10KGJKagu7zm4Ry2Tge","playlistName":"Ø´Ø±Ø­ Ø§Ù„Ø¥ØªÙ‚Ø§Ù† ÙÙŠ Ø¹Ù„ÙˆÙ… Ø§Ù„Ù‚Ø±Ø¢Ù†","category":"ØªÙØ³ÙŠØ±"},{"id":"rs5oOG-BhF8","title":"58- Ù‚Ø¯ Ø¹ÙÙˆØªÙ Ù„ÙƒÙ… Ø¹Ù† ØµØ¯Ù‚Ø© Ø§Ù„Ø®ÙŠÙ„ ÙˆØ§Ù„Ø±Ù‚ÙŠÙ‚ - Ø´Ø±Ø­ Ù…Ø³Ù†Ø¯ Ø§Ù„Ø¥Ù…Ø§Ù… Ø£Ø­Ù…Ø¯","publishedAt":"2023-12-27T07:02:48Z","duration":"PT28M42S","thumbnail":"https://i.ytimg.com/vi/rs5oOG-BhF8/mqdefault.jpg","viewCount":"1043","playlistId":"PLEkQk5xrP-tkKprIuGrSdEuBSMsyg5We1","playlistName":"Ø´Ø±Ø­ Ù…Ø³Ù†Ø¯ Ø§Ù„Ø¥Ù…Ø§Ù… Ø£Ø­Ù…Ø¯ Ø¨Ù† Ø­Ù†Ø¨Ù„","category":"Ù…ØªÙ†ÙˆØ¹"},{"id":"1f_SLVVefyQ","title":"Ù‡Ù„ ÙŠØ¬ÙˆØ² ØªØ­Ø¯ÙŠØ¯ Ù†Ø³Ù„ Ø§Ù„Ø¬Ù†ÙŠÙ† ÙˆØªØ¬Ù…ÙŠØ¯ Ø§Ù„Ø¨ÙˆÙŠØ¶Ø§ØªØŸ","publishedAt":"2023-12-26T18:00:00Z","duration":"PT8M59S","thumbnail":"https://i.ytimg.com/vi/1f_SLVVefyQ/mqdefault.jpg","viewCount":"5562","playlistId":"PLEkQk5xrP-tkGXuZ9atE3k_7it12rUPTs","playlistName":"Ø£Ø³Ø¦Ù„Ø© Ø§Ù„Ù…ØªØ§Ø¨Ø¹ÙŠÙ†","category":"Ù…ØªÙ†ÙˆØ¹"},{"id":"LemzuVdlzMs","title":"189- Ù‚Ø§Ø¹Ø¯Ø©ÙŒ: Ù…Ù‚Ø§Ø¨Ù„Ø© Ø§Ù„Ø¬Ù…Ø¹ Ø¨Ø§Ù„Ø¬Ù…Ø¹ - Ø´Ø±Ø­ Ø§Ù„Ø¥ØªÙ‚Ø§Ù† ÙÙŠ Ø¹Ù„ÙˆÙ… Ø§Ù„Ù‚Ø±Ø¢Ù†","publishedAt":"2023-12-26T07:00:12Z","duration":"PT40M17S","thumbnail":"https://i.ytimg.com/vi/LemzuVdlzMs/mqdefault.jpg","viewCount":"659","playlistId":"PLEkQk5xrP-tlPw10KGJKagu7zm4Ry2Tge","playlistName":"Ø´Ø±Ø­ Ø§Ù„Ø¥ØªÙ‚Ø§Ù† ÙÙŠ Ø¹Ù„ÙˆÙ… Ø§Ù„Ù‚Ø±Ø¢Ù†","category":"ØªÙØ³ÙŠØ±"},{"id":"jNoB0ZX3LdI","title":"Ù‡Ù„ Ø±Ø¨Ù†Ø§ Ù‡ÙŠØ­Ø§Ø³Ø¨Ù†Ø§ Ø¹Ù„Ù‰ Ø­Ø¯ÙŠØ« ÙˆØ®Ø§Ø·Ø± Ø§Ù„Ù†ÙØ³ Ø§Ù„Ø£Ù…Ø§Ø±Ø© Ø¨Ø§Ù„Ø³ÙˆØ¡ØŸ","publishedAt":"2023-12-25T19:09:14Z","duration":"PT8M38S","thumbnail":"https://i.ytimg.com/vi/jNoB0ZX3LdI/mqdefault.jpg","viewCount":"9535","playlistId":"PLEkQk5xrP-tkGXuZ9atE3k_7it12rUPTs","playlistName":"Ø£Ø³Ø¦Ù„Ø© Ø§Ù„Ù…ØªØ§Ø¨Ø¹ÙŠÙ†","category":"Ù…ØªÙ†ÙˆØ¹"},{"id":"QyHUvUqET74","title":"1- Ø¨Ø¯Ø§ÙŠØ© Ø§Ù„ÙØªØ­ Ø§Ù„Ø±Ø¨Ù‘ÙØ§Ù†ÙŠ - Ø´Ø±Ø­ Ù…Ø®ØªØµØ± Ø§Ù„ÙÙØªÙÙˆØ­ÙØ§Øª Ø§Ù„Ù…ÙÙƒÙ’ÙŠÙ‘ÙØ©","publishedAt":"2023-12-25T11:00:19Z","duration":"PT1H2M11S","thumbnail":"https://i.ytimg.com/vi/QyHUvUqET74/mqdefault.jpg","viewCount":"90299","playlistId":"PLEkQk5xrP-tnpkdZki6rPTtMak1bnI5g-","playlistName":"Ø´Ø±Ø­ ÙƒØªØ§Ø¨ Ù…Ø®ØªØµØ± Ø§Ù„ÙØªÙˆØ­Ø§Øª Ø§Ù„Ù…ÙƒÙŠØ© Ø§Ù„Ù…Ø³Ù…Ù‰ Ù„ÙˆØ§Ù‚Ø­ Ø§Ù„Ø£Ù†ÙˆØ§Ø± Ø§Ù„Ù‚Ø¯Ø³ÙŠØ©","category":"Ù…ØªÙ†ÙˆØ¹"}],"total":7670,"page":92,"pageSize":24,"totalPages":320}