{"items":[{"id":"fK_PeG_WVjA","title":"صحيح الإمام البخاري رضي الله عنه - كتاب الطلاق - المجلس السابع عشر","publishedAt":"2016-01-06T18:55:07Z","duration":"PT42M56S","thumbnail":"https://i.ytimg.com/vi/fK_PeG_WVjA/mqdefault.jpg","viewCount":"102","playlistId":"PLEkQk5xrP-tmJuzaj4GWRenFoFx9gdbFX","playlistName":"شرح كتاب صحيح الإمام البخاري رضي الله تعالى عنه   أ.د. يسرى جبر","category":"حديث"},{"id":"lHYTWF1Ypk8","title":"شرح كتاب الزهد من سنن الترمذي - المجلس الخامس","publishedAt":"2016-01-06T06:17:06Z","duration":"PT37M59S","thumbnail":"https://i.ytimg.com/vi/lHYTWF1Ypk8/mqdefault.jpg","viewCount":"188","playlistId":"PLEkQk5xrP-tnu6of679SvxdVx0qSrJzmb","playlistName":"شرح سنن الإمام الترمذي رضى الله عنه د. يسري جبر","category":"متنوع"},{"id":"XDsLtGpqEIc","title":"قراءة القرآن (من أول سورة الواقعة)","publishedAt":"2016-01-06T05:35:08Z","duration":"PT14M51S","thumbnail":"https://i.ytimg.com/vi/XDsLtGpqEIc/mqdefault.jpg","viewCount":"160","playlistId":"PLEkQk5xrP-tnUSUj0uyJhA-kwNC7Gkx_j","playlistName":"مقرأة الفجر - بداية من سورة الإسراء حتى سورة الناس","category":"تفسير"},{"id":"rRX25zIyLFQ","title":"شرح كتاب منازل السائرين للإمام الهروى - المجلس الثانى عشر- باب الإخبات وباب الزهد","publishedAt":"2016-01-05T22:47:27Z","duration":"PT1H29M7S","thumbnail":"https://i.ytimg.com/vi/rRX25zIyLFQ/mqdefault.jpg","viewCount":"2731","playlistId":"PLEkQk5xrP-tnLYi_5_tSRVBwqcs7ISV7Y","playlistName":"شرح كتاب منازل السائرين للإمام الهروي","category":"متنوع"},{"id":"dINmLX-CVBo","title":"صحيح الإمام البخاري رضي الله عنه - كتاب الطلاق - المجلس السادس عشر","publishedAt":"2016-01-05T21:14:54Z","duration":"PT49M36S","thumbnail":"https://i.ytimg.com/vi/dINmLX-CVBo/mqdefault.jpg","viewCount":"79","playlistId":"PLEkQk5xrP-tmJuzaj4GWRenFoFx9gdbFX","playlistName":"شرح كتاب صحيح الإمام البخاري رضي الله تعالى عنه   أ.د. يسرى جبر","category":"حديث"},{"id":"y90Nq763-v8","title":"شرح كتاب منازل السائرين للإمام الهروى - المجلس الحادى عشر - باب الإشفاق و باب الخشوع","publishedAt":"2016-01-05T20:41:24Z","duration":"PT1H29M2S","thumbnail":"https://i.ytimg.com/vi/y90Nq763-v8/mqdefault.jpg","viewCount":"3362","playlistId":"PLEkQk5xrP-tnLYi_5_tSRVBwqcs7ISV7Y","playlistName":"شرح كتاب منازل السائرين للإمام الهروي","category":"متنوع"},{"id":"viLCUlYrSas","title":"شرح كتاب الزهد من سنن الترمذي - المجلس الرابع","publishedAt":"2016-01-05T06:03:10Z","duration":"PT31M51S","thumbnail":"https://i.ytimg.com/vi/viLCUlYrSas/mqdefault.jpg","viewCount":"186","playlistId":"PLEkQk5xrP-tnu6of679SvxdVx0qSrJzmb","playlistName":"شرح سنن الإمام الترمذي رضى الله عنه د. يسري جبر","category":"متنوع"},{"id":"4c8R4o-Mgmw","title":"قراءة القرآن (من آية ٣٩ سورة الرحمن)","publishedAt":"2016-01-05T05:30:35Z","duration":"PT21M40S","thumbnail":"https://i.ytimg.com/vi/4c8R4o-Mgmw/mqdefault.jpg","viewCount":"203","playlistId":"PLEkQk5xrP-tnUSUj0uyJhA-kwNC7Gkx_j","playlistName":"مقرأة الفجر - بداية من سورة الإسراء حتى سورة الناس","category":"تفسير"},{"id":"NWT9siJgImY","title":"شرح كتاب منازل السائرين للإمام الهروى - المجلس التاسع -  باب الرياضة والسماع","publishedAt":"2016-01-04T21:12:10Z","duration":"PT1H34M45S","thumbnail":"https://i.ytimg.com/vi/NWT9siJgImY/mqdefault.jpg","viewCount":"4127","playlistId":"PLEkQk5xrP-tnLYi_5_tSRVBwqcs7ISV7Y","playlistName":"شرح كتاب منازل السائرين للإمام الهروي","category":"متنوع"},{"id":"QX3UPs20D4g","title":"شرح كتاب الزهد من سنن الترمذي - المجلس الثالث","publishedAt":"2016-01-04T20:39:45Z","duration":"PT12M18S","thumbnail":"https://i.ytimg.com/vi/QX3UPs20D4g/mqdefault.jpg","viewCount":"114","playlistId":"PLEkQk5xrP-tnu6of679SvxdVx0qSrJzmb","playlistName":"شرح سنن الإمام الترمذي رضى الله عنه د. يسري جبر","category":"متنوع"},{"id":"jV2tRzRYU1g","title":"شرح كتاب منازل السائرين للإمام الهروى - المجلس الثامن - باب الاعتصام","publishedAt":"2016-01-04T05:34:39Z","duration":"PT1H22M19S","thumbnail":"https://i.ytimg.com/vi/jV2tRzRYU1g/mqdefault.jpg","viewCount":"4139","playlistId":"PLEkQk5xrP-tnLYi_5_tSRVBwqcs7ISV7Y","playlistName":"شرح كتاب منازل السائرين للإمام الهروي","category":"متنوع"},{"id":"EXzdg2kkm9k","title":"قراءة القرآن (من أول سورة الرحمن)","publishedAt":"2016-01-04T05:27:00Z","duration":"PT25M41S","thumbnail":"https://i.ytimg.com/vi/EXzdg2kkm9k/mqdefault.jpg","viewCount":"143","playlistId":"PLEkQk5xrP-tnUSUj0uyJhA-kwNC7Gkx_j","playlistName":"مقرأة الفجر - بداية من سورة الإسراء حتى سورة الناس","category":"تفسير"},{"id":"dW2BbzX6e7U","title":"حول ميلاد النَّبِىِّ صَلَّى اللهُ علَيه وَآله وَسَلَّمَ وخَلْقه الشرِيف د. يسري جبر","publishedAt":"2016-01-03T20:15:52Z","duration":"PT41M27S","thumbnail":"https://i.ytimg.com/vi/dW2BbzX6e7U/mqdefault.jpg","viewCount":"140","playlistId":"PLEkQk5xrP-tlArtGpeLWaqNM7h7IDeAVC","playlistName":"خطب الجمعة أ.د. يسري جبر","category":"خطب"},{"id":"8cI5GlgzRHk","title":"شرح كتاب الزهد من سنن الترمذي - المجلس الثاني","publishedAt":"2016-01-03T06:08:01Z","duration":"PT31M41S","thumbnail":"https://i.ytimg.com/vi/8cI5GlgzRHk/mqdefault.jpg","viewCount":"200","playlistId":"PLEkQk5xrP-tnu6of679SvxdVx0qSrJzmb","playlistName":"شرح سنن الإمام الترمذي رضى الله عنه د. يسري جبر","category":"متنوع"},{"id":"yCHW_ThdVS4","title":"الفرق بين الإسلام والإيمان والإحسان | زيارة بنغلاديش","publishedAt":"2023-02-05T18:10:40Z","duration":"PT22M19S","thumbnail":"https://i.ytimg.com/vi/yCHW_ThdVS4/mqdefault.jpg","viewCount":"4796","playlistId":"PLEkQk5xrP-tm8ZIu74nTOZN9KJUJu416J","playlistName":"مقاطع مُهمَّة (يُسريَّات) أ.د. يسري جبر","category":"متنوع"},{"id":"EbVsoJv5eaw","title":"26- معاني الأسماء والصفات | ختام شرح كتاب الفُتُوحات اليُسريَّة في عقائد الأُمَّة المُحمَّديَّة","publishedAt":"2023-02-05T05:00:05Z","duration":"PT48M31S","thumbnail":"https://i.ytimg.com/vi/EbVsoJv5eaw/mqdefault.jpg","viewCount":"2652","playlistId":"PLEkQk5xrP-tmNuYT8JAh6clwa4krsgkNo","playlistName":"شرح كتاب الفُتُوحات اليُسريَّة في عقائد الأُمَّة المُحمَّديَّة","category":"متنوع"},{"id":"k4hIPcu8Cis","title":"كبف تحرر نفسك من الخوف على الرزق؟","publishedAt":"2023-02-04T18:00:21Z","duration":"PT14M6S","thumbnail":"https://i.ytimg.com/vi/k4hIPcu8Cis/mqdefault.jpg","viewCount":"16801","playlistId":"PLEkQk5xrP-tlArtGpeLWaqNM7h7IDeAVC","playlistName":"خطب الجمعة أ.د. يسري جبر","category":"خطب"},{"id":"D30_A61OeA4","title":"9-  فضل السِّواك وحكم استقبال القِبلة عند قضاء الحاجة في الخلاء أو البنيان - كتاب الطهارة","publishedAt":"2023-02-04T09:00:06Z","duration":"PT47M59S","thumbnail":"https://i.ytimg.com/vi/D30_A61OeA4/mqdefault.jpg","viewCount":"1159","playlistId":"PLEkQk5xrP-tk_MCBZ706ORCw6gFtFyaGj","playlistName":"شرح سنن الإمام الدارقطني","category":"متنوع"},{"id":"NLbXJC5ih1Y","title":"خطورة الاعتراض على قدر الله","publishedAt":"2023-02-03T18:00:09Z","duration":"PT15M14S","thumbnail":"https://i.ytimg.com/vi/NLbXJC5ih1Y/mqdefault.jpg","viewCount":"17134","playlistId":"PLEkQk5xrP-tlArtGpeLWaqNM7h7IDeAVC","playlistName":"خطب الجمعة أ.د. يسري جبر","category":"خطب"},{"id":"uqzZHeTsvjo","title":"25- حقيقة القُرْب إلى الله عزَّ وجلَّ - شرح عقيدة العارفين","publishedAt":"2023-02-03T05:00:23Z","duration":"PT48M14S","thumbnail":"https://i.ytimg.com/vi/uqzZHeTsvjo/mqdefault.jpg","viewCount":"3645","playlistId":"PLEkQk5xrP-tmNuYT8JAh6clwa4krsgkNo","playlistName":"شرح كتاب الفُتُوحات اليُسريَّة في عقائد الأُمَّة المُحمَّديَّة","category":"متنوع"},{"id":"qcFyDaXugpM","title":"مظاهر قدرة الله في الكون","publishedAt":"2023-02-02T18:00:17Z","duration":"PT8M38S","thumbnail":"https://i.ytimg.com/vi/qcFyDaXugpM/mqdefault.jpg","viewCount":"2737","playlistId":"PLEkQk5xrP-tlArtGpeLWaqNM7h7IDeAVC","playlistName":"خطب الجمعة أ.د. يسري جبر","category":"خطب"},{"id":"Kob8B79vFW0","title":"هل اقترب ظهور المسيح الدجال وما هي فتنته؟","publishedAt":"2023-02-01T18:00:08Z","duration":"PT10M26S","thumbnail":"https://i.ytimg.com/vi/Kob8B79vFW0/mqdefault.jpg","viewCount":"16122","playlistId":"PLEkQk5xrP-tlArtGpeLWaqNM7h7IDeAVC","playlistName":"خطب الجمعة أ.د. يسري جبر","category":"خطب"},{"id":"fq0UvlsDDng","title":"فوض أمرك إلى الله","publishedAt":"2023-01-31T18:00:14Z","duration":"PT11M15S","thumbnail":"https://i.ytimg.com/vi/fq0UvlsDDng/mqdefault.jpg","viewCount":"10771","playlistId":"PLEkQk5xrP-tlArtGpeLWaqNM7h7IDeAVC","playlistName":"خطب الجمعة أ.د. يسري جبر","category":"خطب"},{"id":"GLq8isH6_Ko","title":"لماذا تم شق صدر النبي ﷺ عدة مرات؟","publishedAt":"2023-01-30T18:00:14Z","duration":"PT8M59S","thumbnail":"https://i.ytimg.com/vi/GLq8isH6_Ko/mqdefault.jpg","viewCount":"4345","playlistId":"PLEkQk5xrP-tlArtGpeLWaqNM7h7IDeAVC","playlistName":"خطب الجمعة أ.د. يسري جبر","category":"خطب"}],"total":7670,"page":123,"pageSize":24,"totalPages":320}