{"items":[{"id":"WV5hpZadPU4","title":"شرح صحيح البخاري- كتاب أحاديث الأنبياء تكملة باب ٥٧ من حديث علي بن عبد الله","publishedAt":"2017-10-25T12:48:30Z","duration":"PT29M34S","thumbnail":"https://i.ytimg.com/vi/WV5hpZadPU4/mqdefault.jpg","viewCount":"565","playlistId":"PLEkQk5xrP-tlEerGoLa1AFy-2XvQ-sovv","playlistName":"شرح صحيح البخاري - أ.د. يسري جبر (كاملا)","category":"حديث"},{"id":"muMfdzaclnE","title":"مقرأة سورة الكهف من آية ٣٢","publishedAt":"2017-10-25T09:59:56Z","duration":"PT36M7S","thumbnail":"https://i.ytimg.com/vi/muMfdzaclnE/mqdefault.jpg","viewCount":"511","playlistId":"PLEkQk5xrP-tnmTYsyW6xNdyfhPq0Bhrhj","playlistName":"مقرأة الفجر - القُرْآنُ الكَرِيمُ - خَتْمَةُ التَّدَبُّرِ  أ.د. يسري جبر","category":"متنوع"},{"id":"5pwRgp9NrdA","title":"شرح كتاب نوراليقين في سيرة سيد المرسلين - المجلس السادس والعشرون ( غزوة حمراء الأسد ) د.يسري جبر","publishedAt":"2017-10-24T20:23:18Z","duration":"PT46M11S","thumbnail":"https://i.ytimg.com/vi/5pwRgp9NrdA/mqdefault.jpg","viewCount":"16721","playlistId":"PLEkQk5xrP-tl2t4NQx1IhKnAJCMzF0Nli","playlistName":"شرح كتاب نور اليقين في سيرة سيد المرسلين   د. يسري جبر","category":"سيرة"},{"id":"lzHb2ecr8Ak","title":"صحيح الإمام البخاري رضي الله عنه -كتاب القدر (4) د.يسري جبر","publishedAt":"2017-10-21T08:13:06Z","duration":"PT50M14S","thumbnail":"https://i.ytimg.com/vi/lzHb2ecr8Ak/mqdefault.jpg","viewCount":"262","playlistId":"PLEkQk5xrP-tmJuzaj4GWRenFoFx9gdbFX","playlistName":"شرح كتاب صحيح الإمام البخاري رضي الله تعالى عنه   أ.د. يسرى جبر","category":"حديث"},{"id":"u08PMvEH9cU","title":"صحيح الإمام البخاري رضي الله عنه -كتاب القدر (3) د.يسري جبر","publishedAt":"2017-10-21T08:13:02Z","duration":"PT33M31S","thumbnail":"https://i.ytimg.com/vi/u08PMvEH9cU/mqdefault.jpg","viewCount":"251","playlistId":"PLEkQk5xrP-tmJuzaj4GWRenFoFx9gdbFX","playlistName":"شرح كتاب صحيح الإمام البخاري رضي الله تعالى عنه   أ.د. يسرى جبر","category":"حديث"},{"id":"wzUPm8jihYo","title":"حول القطب سيدي إبراهيم الدسوقي","publishedAt":"2017-10-21T07:10:14Z","duration":"PT42M32S","thumbnail":"https://i.ytimg.com/vi/wzUPm8jihYo/mqdefault.jpg","viewCount":"111106","playlistId":"PLEkQk5xrP-tlArtGpeLWaqNM7h7IDeAVC","playlistName":"خطب الجمعة أ.د. يسري جبر","category":"خطب"},{"id":"GendwVRzR_g","title":"شرح صحيح البخاري- كتاب أحاديث الأنبياء من باب ٥٤","publishedAt":"2017-10-20T18:31:30Z","duration":"PT40M2S","thumbnail":"https://i.ytimg.com/vi/GendwVRzR_g/mqdefault.jpg","viewCount":"566","playlistId":"PLEkQk5xrP-tlEerGoLa1AFy-2XvQ-sovv","playlistName":"شرح صحيح البخاري - أ.د. يسري جبر (كاملا)","category":"حديث"},{"id":"KbbSeinsJ1s","title":"مقرأة سورة الكهف من آية ٢٩","publishedAt":"2017-10-20T08:04:21Z","duration":"PT12M28S","thumbnail":"https://i.ytimg.com/vi/KbbSeinsJ1s/mqdefault.jpg","viewCount":"406","playlistId":"PLEkQk5xrP-tnmTYsyW6xNdyfhPq0Bhrhj","playlistName":"مقرأة الفجر - القُرْآنُ الكَرِيمُ - خَتْمَةُ التَّدَبُّرِ  أ.د. يسري جبر","category":"متنوع"},{"id":"16piMK-7szY","title":"شرح صحيح البخاري- كتاب أحاديث الأنبياء من باب ٥٣","publishedAt":"2017-10-19T16:13:21Z","duration":"PT27M39S","thumbnail":"https://i.ytimg.com/vi/16piMK-7szY/mqdefault.jpg","viewCount":"513","playlistId":"PLEkQk5xrP-tlEerGoLa1AFy-2XvQ-sovv","playlistName":"شرح صحيح البخاري - أ.د. يسري جبر (كاملا)","category":"حديث"},{"id":"V2Wvt7iaVS8","title":"مقرأة سورة الكهف من آية ٢٧","publishedAt":"2017-10-19T11:29:13Z","duration":"PT24M36S","thumbnail":"https://i.ytimg.com/vi/V2Wvt7iaVS8/mqdefault.jpg","viewCount":"448","playlistId":"PLEkQk5xrP-tnmTYsyW6xNdyfhPq0Bhrhj","playlistName":"مقرأة الفجر - القُرْآنُ الكَرِيمُ - خَتْمَةُ التَّدَبُّرِ  أ.د. يسري جبر","category":"متنوع"},{"id":"chP2nD7F5gE","title":"شرح صحيح البخاري- كتاب أحاديث الأنبياء من باب ٥٠","publishedAt":"2017-10-18T14:03:40Z","duration":"PT51M17S","thumbnail":"https://i.ytimg.com/vi/chP2nD7F5gE/mqdefault.jpg","viewCount":"728","playlistId":"PLEkQk5xrP-tlEerGoLa1AFy-2XvQ-sovv","playlistName":"شرح صحيح البخاري - أ.د. يسري جبر (كاملا)","category":"حديث"},{"id":"StQcVVNh7H0","title":"مقرأة سورة الكهف من آية ٢٣","publishedAt":"2017-10-18T10:16:00Z","duration":"PT13M58S","thumbnail":"https://i.ytimg.com/vi/StQcVVNh7H0/mqdefault.jpg","viewCount":"649","playlistId":"PLEkQk5xrP-tnmTYsyW6xNdyfhPq0Bhrhj","playlistName":"مقرأة الفجر - القُرْآنُ الكَرِيمُ - خَتْمَةُ التَّدَبُّرِ  أ.د. يسري جبر","category":"متنوع"},{"id":"464bz-z1cnc","title":"شرح صحيح البخاري- كتاب أحاديث الأنبياء من باب ٤٤","publishedAt":"2017-10-17T13:36:00Z","duration":"PT37M59S","thumbnail":"https://i.ytimg.com/vi/464bz-z1cnc/mqdefault.jpg","viewCount":"607","playlistId":"PLEkQk5xrP-tlEerGoLa1AFy-2XvQ-sovv","playlistName":"شرح صحيح البخاري - أ.د. يسري جبر (كاملا)","category":"حديث"},{"id":"fjcjgln7vM8","title":"مقرأة سورة الكهف من آية ١٩","publishedAt":"2017-10-17T09:12:27Z","duration":"PT27M","thumbnail":"https://i.ytimg.com/vi/fjcjgln7vM8/mqdefault.jpg","viewCount":"606","playlistId":"PLEkQk5xrP-tnmTYsyW6xNdyfhPq0Bhrhj","playlistName":"مقرأة الفجر - القُرْآنُ الكَرِيمُ - خَتْمَةُ التَّدَبُّرِ  أ.د. يسري جبر","category":"متنوع"},{"id":"S_hQZJVxsyw","title":"شرح صحيح البخاري- كتاب أحاديث الأنبياء من باب ٤٢","publishedAt":"2017-10-16T16:12:04Z","duration":"PT35M32S","thumbnail":"https://i.ytimg.com/vi/S_hQZJVxsyw/mqdefault.jpg","viewCount":"595","playlistId":"PLEkQk5xrP-tlEerGoLa1AFy-2XvQ-sovv","playlistName":"شرح صحيح البخاري - أ.د. يسري جبر (كاملا)","category":"حديث"},{"id":"wlyd2QhPrLM","title":"مقرأة سورة الكهف من آية ١٣","publishedAt":"2017-10-16T10:10:48Z","duration":"PT16M35S","thumbnail":"https://i.ytimg.com/vi/wlyd2QhPrLM/mqdefault.jpg","viewCount":"574","playlistId":"PLEkQk5xrP-tnmTYsyW6xNdyfhPq0Bhrhj","playlistName":"مقرأة الفجر - القُرْآنُ الكَرِيمُ - خَتْمَةُ التَّدَبُّرِ  أ.د. يسري جبر","category":"متنوع"},{"id":"9d8FTyzfT_k","title":"شرح صحيح البخاري - كتاب أحاديث الأنبياء من باب ٤٠","publishedAt":"2017-10-15T06:08:30Z","duration":"PT31M44S","thumbnail":"https://i.ytimg.com/vi/9d8FTyzfT_k/mqdefault.jpg","viewCount":"621","playlistId":"PLEkQk5xrP-tlEerGoLa1AFy-2XvQ-sovv","playlistName":"شرح صحيح البخاري - أ.د. يسري جبر (كاملا)","category":"حديث"},{"id":"bcJ12ZtYrn8","title":"مقرأة سورة الكهف من أية ٩","publishedAt":"2017-10-15T06:07:37Z","duration":"PT23M22S","thumbnail":"https://i.ytimg.com/vi/bcJ12ZtYrn8/mqdefault.jpg","viewCount":"684","playlistId":"PLEkQk5xrP-tnmTYsyW6xNdyfhPq0Bhrhj","playlistName":"مقرأة الفجر - القُرْآنُ الكَرِيمُ - خَتْمَةُ التَّدَبُّرِ  أ.د. يسري جبر","category":"متنوع"},{"id":"rQUUpObEzno","title":"شرح كتاب نوراليقين في سيرة سيد المرسلين - المجلس الخامس والعشرون ( تكملة غزوة أحد ) د.يسري جبر","publishedAt":"2017-10-14T21:27:54Z","duration":"PT49M53S","thumbnail":"https://i.ytimg.com/vi/rQUUpObEzno/mqdefault.jpg","viewCount":"18000","playlistId":"PLEkQk5xrP-tl2t4NQx1IhKnAJCMzF0Nli","playlistName":"شرح كتاب نور اليقين في سيرة سيد المرسلين   د. يسري جبر","category":"سيرة"},{"id":"qvn2amnc0SI","title":"حول تربية الأولاد في الإسلام","publishedAt":"2017-10-14T10:09:31Z","duration":"PT41M19S","thumbnail":"https://i.ytimg.com/vi/qvn2amnc0SI/mqdefault.jpg","viewCount":"1202","playlistId":"PLEkQk5xrP-tlArtGpeLWaqNM7h7IDeAVC","playlistName":"خطب الجمعة أ.د. يسري جبر","category":"خطب"},{"id":"WD2xPNnPyvo","title":"صحيح الإمام البخاري رضي الله عنه -كتاب القدر (2) د.يسري جبر","publishedAt":"2017-10-14T01:26:26Z","duration":"PT1H5M59S","thumbnail":"https://i.ytimg.com/vi/WD2xPNnPyvo/mqdefault.jpg","viewCount":"510","playlistId":"PLEkQk5xrP-tmJuzaj4GWRenFoFx9gdbFX","playlistName":"شرح كتاب صحيح الإمام البخاري رضي الله تعالى عنه   أ.د. يسرى جبر","category":"حديث"},{"id":"LIrqLXtHRJ4","title":"مجموعة الشمائل المحمدية - كتاب أسماء النبي صلى الله عليه وآله وسلم وكناه - المجلس الثاني","publishedAt":"2017-10-13T19:24:40Z","duration":"PT54M51S","thumbnail":"https://i.ytimg.com/vi/LIrqLXtHRJ4/mqdefault.jpg","viewCount":"897","playlistId":"PLEkQk5xrP-tloQiuCfhC2DE160-EZBhdz","playlistName":"مجموعة الشمائل المحمدية","category":"سيرة"},{"id":"IdhIhH_wjik","title":"شرح صحيح البخاري - كتاب أحاديث الأنبياء من باب ٣٧","publishedAt":"2017-10-12T20:20:20Z","duration":"PT35M41S","thumbnail":"https://i.ytimg.com/vi/IdhIhH_wjik/mqdefault.jpg","viewCount":"590","playlistId":"PLEkQk5xrP-tlEerGoLa1AFy-2XvQ-sovv","playlistName":"شرح صحيح البخاري - أ.د. يسري جبر (كاملا)","category":"حديث"},{"id":"F0nH6JBwVcw","title":"مقرأة سورة الكهف من أولها","publishedAt":"2017-10-12T15:50:26Z","duration":"PT13M23S","thumbnail":"https://i.ytimg.com/vi/F0nH6JBwVcw/mqdefault.jpg","viewCount":"2363","playlistId":"PLEkQk5xrP-tnmTYsyW6xNdyfhPq0Bhrhj","playlistName":"مقرأة الفجر - القُرْآنُ الكَرِيمُ - خَتْمَةُ التَّدَبُّرِ  أ.د. يسري جبر","category":"متنوع"}],"total":7670,"page":60,"pageSize":24,"totalPages":320}