{"items":[{"id":"cddWFC7FSeQ","title":"شرح صحيح البخاري - كتاب الشهادات من باب ١٥","publishedAt":"2017-06-24T22:31:51Z","duration":"PT33M58S","thumbnail":"https://i.ytimg.com/vi/cddWFC7FSeQ/mqdefault.jpg","viewCount":"602","playlistId":"PLEkQk5xrP-tlEerGoLa1AFy-2XvQ-sovv","playlistName":"شرح صحيح البخاري - أ.د. يسري جبر (كاملا)","category":"حديث"},{"id":"w0KjX7NWTiQ","title":"مقرأة سورة يوسف من آية ١٩","publishedAt":"2017-06-24T10:26:34Z","duration":"PT32M17S","thumbnail":"https://i.ytimg.com/vi/w0KjX7NWTiQ/mqdefault.jpg","viewCount":"798","playlistId":"PLEkQk5xrP-tnmTYsyW6xNdyfhPq0Bhrhj","playlistName":"مقرأة الفجر - القُرْآنُ الكَرِيمُ - خَتْمَةُ التَّدَبُّرِ  أ.د. يسري جبر","category":"متنوع"},{"id":"WUgm144jWVs","title":"شرح صحيح البخاري - كتاب الشهادات من باب ١٢","publishedAt":"2017-06-23T17:19:10Z","duration":"PT15M45S","thumbnail":"https://i.ytimg.com/vi/WUgm144jWVs/mqdefault.jpg","viewCount":"535","playlistId":"PLEkQk5xrP-tlEerGoLa1AFy-2XvQ-sovv","playlistName":"شرح صحيح البخاري - أ.د. يسري جبر (كاملا)","category":"حديث"},{"id":"wqdHPPWTdaY","title":"مقرأة سورة يوسف من آية ٧","publishedAt":"2017-06-23T15:39:53Z","duration":"PT25M12S","thumbnail":"https://i.ytimg.com/vi/wqdHPPWTdaY/mqdefault.jpg","viewCount":"673","playlistId":"PLEkQk5xrP-tnmTYsyW6xNdyfhPq0Bhrhj","playlistName":"مقرأة الفجر - القُرْآنُ الكَرِيمُ - خَتْمَةُ التَّدَبُّرِ  أ.د. يسري جبر","category":"متنوع"},{"id":"1IxXvUw0EQw","title":"( 136 ) حديث اقتناء الخيل في سبيل الله  د. يسري جبر","publishedAt":"2017-06-23T05:42:02Z","duration":"PT21M27S","thumbnail":"https://i.ytimg.com/vi/1IxXvUw0EQw/mqdefault.jpg","viewCount":"254","playlistId":"PLEkQk5xrP-tnl7vb7KeAoPd5ZlqKKW8KV","playlistName":"شرح كتاب بهجة النفوس أ.د . يسرى جبر","category":"متنوع"},{"id":"qbAe8YqvjsI","title":"شرح صحيح البخاري - كتاب الشهادات من باب ٨","publishedAt":"2017-06-22T17:31:48Z","duration":"PT41M21S","thumbnail":"https://i.ytimg.com/vi/qbAe8YqvjsI/mqdefault.jpg","viewCount":"634","playlistId":"PLEkQk5xrP-tlEerGoLa1AFy-2XvQ-sovv","playlistName":"شرح صحيح البخاري - أ.د. يسري جبر (كاملا)","category":"حديث"},{"id":"NLBejSiRzP4","title":"مقرأة سورة يوسف من أولها","publishedAt":"2017-06-22T12:26:46Z","duration":"PT15M39S","thumbnail":"https://i.ytimg.com/vi/NLBejSiRzP4/mqdefault.jpg","viewCount":"950","playlistId":"PLEkQk5xrP-tnmTYsyW6xNdyfhPq0Bhrhj","playlistName":"مقرأة الفجر - القُرْآنُ الكَرِيمُ - خَتْمَةُ التَّدَبُّرِ  أ.د. يسري جبر","category":"متنوع"},{"id":"3a1DhC3QgWU","title":"شرح صحيح البخاري - كتاب الشهادات من باب ٥","publishedAt":"2017-06-21T18:34:54Z","duration":"PT20M47S","thumbnail":"https://i.ytimg.com/vi/3a1DhC3QgWU/mqdefault.jpg","viewCount":"581","playlistId":"PLEkQk5xrP-tlEerGoLa1AFy-2XvQ-sovv","playlistName":"شرح صحيح البخاري - أ.د. يسري جبر (كاملا)","category":"حديث"},{"id":"MUEELo9A99c","title":"شرح الحزب الكبير- المجلس الثالث   د.يسري جبر","publishedAt":"2017-06-21T13:19:21Z","duration":"PT36M38S","thumbnail":"https://i.ytimg.com/vi/MUEELo9A99c/mqdefault.jpg","viewCount":"11032","playlistId":"PLEkQk5xrP-tlm5F9ID5I_--LMV7PcWjp_","playlistName":"شرح الحزب الكبير لسيدى أبي الحسن الشاذلي د.يسري جبر","category":"متنوع"},{"id":"tTkhuTt_Rt8","title":"مقرأة سورة هود من آية ١١٢","publishedAt":"2017-06-21T11:00:48Z","duration":"PT24M36S","thumbnail":"https://i.ytimg.com/vi/tTkhuTt_Rt8/mqdefault.jpg","viewCount":"370","playlistId":"PLEkQk5xrP-tnmTYsyW6xNdyfhPq0Bhrhj","playlistName":"مقرأة الفجر - القُرْآنُ الكَرِيمُ - خَتْمَةُ التَّدَبُّرِ  أ.د. يسري جبر","category":"متنوع"},{"id":"9zfDFIYFQtQ","title":"( 135 ) حديث من أعان غازياً فله مثل أجره  د. يسري جبر","publishedAt":"2017-06-20T23:25:13Z","duration":"PT26M30S","thumbnail":"https://i.ytimg.com/vi/9zfDFIYFQtQ/mqdefault.jpg","viewCount":"184","playlistId":"PLEkQk5xrP-tnl7vb7KeAoPd5ZlqKKW8KV","playlistName":"شرح كتاب بهجة النفوس أ.د . يسرى جبر","category":"متنوع"},{"id":"xmDzd5eYmIU","title":"شرح صحيح البخاري - كتاب الشهادات من أوله","publishedAt":"2017-06-20T17:14:58Z","duration":"PT34M59S","thumbnail":"https://i.ytimg.com/vi/xmDzd5eYmIU/mqdefault.jpg","viewCount":"729","playlistId":"PLEkQk5xrP-tlEerGoLa1AFy-2XvQ-sovv","playlistName":"شرح صحيح البخاري - أ.د. يسري جبر (كاملا)","category":"حديث"},{"id":"-gW2bRq0Cr8","title":"شرح الحزب الكبير- المجلس الثاني   د.يسري جبر","publishedAt":"2017-06-20T10:55:24Z","duration":"PT38M16S","thumbnail":"https://i.ytimg.com/vi/-gW2bRq0Cr8/mqdefault.jpg","viewCount":"20962","playlistId":"PLEkQk5xrP-tlm5F9ID5I_--LMV7PcWjp_","playlistName":"شرح الحزب الكبير لسيدى أبي الحسن الشاذلي د.يسري جبر","category":"متنوع"},{"id":"PI0Qfb465FM","title":"شرح الحزب الكبير- المجلس الأول   د.يسري جبر","publishedAt":"2017-06-20T04:32:13Z","duration":"PT44M27S","thumbnail":"https://i.ytimg.com/vi/PI0Qfb465FM/mqdefault.jpg","viewCount":"76786","playlistId":"PLEkQk5xrP-tlm5F9ID5I_--LMV7PcWjp_","playlistName":"شرح الحزب الكبير لسيدى أبي الحسن الشاذلي د.يسري جبر","category":"متنوع"},{"id":"sxY3subbAoE","title":"( 134 ) حديث فضل الصيام في الجهاد -  د. يسري جبر","publishedAt":"2017-06-20T04:25:43Z","duration":"PT23M58S","thumbnail":"https://i.ytimg.com/vi/sxY3subbAoE/mqdefault.jpg","viewCount":"217","playlistId":"PLEkQk5xrP-tnl7vb7KeAoPd5ZlqKKW8KV","playlistName":"شرح كتاب بهجة النفوس أ.د . يسرى جبر","category":"متنوع"},{"id":"ut9l8iA_Ado","title":"شرح صحيح البخاري - كتاب الهبة من باب ٣٢","publishedAt":"2017-06-19T18:09:34Z","duration":"PT43M6S","thumbnail":"https://i.ytimg.com/vi/ut9l8iA_Ado/mqdefault.jpg","viewCount":"657","playlistId":"PLEkQk5xrP-tlEerGoLa1AFy-2XvQ-sovv","playlistName":"شرح صحيح البخاري - أ.د. يسري جبر (كاملا)","category":"حديث"},{"id":"7mWMrimsXsQ","title":"مقرأة سورة هود من آية ٩٦","publishedAt":"2017-06-19T11:26:24Z","duration":"PT27M8S","thumbnail":"https://i.ytimg.com/vi/7mWMrimsXsQ/mqdefault.jpg","viewCount":"312","playlistId":"PLEkQk5xrP-tnmTYsyW6xNdyfhPq0Bhrhj","playlistName":"مقرأة الفجر - القُرْآنُ الكَرِيمُ - خَتْمَةُ التَّدَبُّرِ  أ.د. يسري جبر","category":"متنوع"},{"id":"kY3MqEF6vpw","title":"شرح صحيح البخاري - كتاب الهبة من باب ٢٥","publishedAt":"2017-06-18T16:29:29Z","duration":"PT36M8S","thumbnail":"https://i.ytimg.com/vi/kY3MqEF6vpw/mqdefault.jpg","viewCount":"654","playlistId":"PLEkQk5xrP-tlEerGoLa1AFy-2XvQ-sovv","playlistName":"شرح صحيح البخاري - أ.د. يسري جبر (كاملا)","category":"حديث"},{"id":"gTsSdKJHofk","title":"( 133 ) حديث حفر الخندق في غزوة الأحزاب د. يسري جبر","publishedAt":"2017-06-18T13:55:36Z","duration":"PT19M14S","thumbnail":"https://i.ytimg.com/vi/gTsSdKJHofk/mqdefault.jpg","viewCount":"914","playlistId":"PLEkQk5xrP-tnl7vb7KeAoPd5ZlqKKW8KV","playlistName":"شرح كتاب بهجة النفوس أ.د . يسرى جبر","category":"متنوع"},{"id":"iYTJ1saNEWI","title":"مقرأة سورة هود من آية ١٠٦","publishedAt":"2017-06-18T08:07:10Z","duration":"PT18M59S","thumbnail":"https://i.ytimg.com/vi/iYTJ1saNEWI/mqdefault.jpg","viewCount":"298","playlistId":"PLEkQk5xrP-tnmTYsyW6xNdyfhPq0Bhrhj","playlistName":"مقرأة الفجر - القُرْآنُ الكَرِيمُ - خَتْمَةُ التَّدَبُّرِ  أ.د. يسري جبر","category":"متنوع"},{"id":"CqfnOI2x6Nk","title":"مقرأة سورة هود من آية ٩٠","publishedAt":"2017-06-18T07:32:44Z","duration":"PT12M9S","thumbnail":"https://i.ytimg.com/vi/CqfnOI2x6Nk/mqdefault.jpg","viewCount":"293","playlistId":"PLEkQk5xrP-tnmTYsyW6xNdyfhPq0Bhrhj","playlistName":"مقرأة الفجر - القُرْآنُ الكَرِيمُ - خَتْمَةُ التَّدَبُّرِ  أ.د. يسري جبر","category":"متنوع"},{"id":"LM2rBVIDIp0","title":"شرح كتاب نوراليقين في سيرة سيد المرسلين المجلس الخامس عشر ( النزول بقباء )  د.يسري جبر","publishedAt":"2017-06-17T15:54:53Z","duration":"PT40M34S","thumbnail":"https://i.ytimg.com/vi/LM2rBVIDIp0/mqdefault.jpg","viewCount":"24466","playlistId":"PLEkQk5xrP-tl2t4NQx1IhKnAJCMzF0Nli","playlistName":"شرح كتاب نور اليقين في سيرة سيد المرسلين   د. يسري جبر","category":"سيرة"},{"id":"tsN_JNLlLqQ","title":"شرح صحيح البخاري - كتاب الهبة من باب ٢٠","publishedAt":"2017-06-17T14:10:55Z","duration":"PT22M49S","thumbnail":"https://i.ytimg.com/vi/tsN_JNLlLqQ/mqdefault.jpg","viewCount":"559","playlistId":"PLEkQk5xrP-tlEerGoLa1AFy-2XvQ-sovv","playlistName":"شرح صحيح البخاري - أ.د. يسري جبر (كاملا)","category":"حديث"},{"id":"QX-tHl1_ftI","title":"حَولَ لَيلةِ القَدْرِ  د. يسري جبر","publishedAt":"2017-06-17T09:40:10Z","duration":"PT34M23S","thumbnail":"https://i.ytimg.com/vi/QX-tHl1_ftI/mqdefault.jpg","viewCount":"3313","playlistId":"PLEkQk5xrP-tlArtGpeLWaqNM7h7IDeAVC","playlistName":"خطب الجمعة أ.د. يسري جبر","category":"خطب"}],"total":7670,"page":36,"pageSize":24,"totalPages":320}