{"items":[{"id":"P29ETR39fV4","title":"النحت - شرح كتاب البرهان في علوم القرآن","publishedAt":"2022-01-02T06:33:05Z","duration":"PT8M15S","thumbnail":"https://i.ytimg.com/vi/P29ETR39fV4/mqdefault.jpg","viewCount":"741","playlistId":"PLEkQk5xrP-tnW3iBL7HkKziOFCFZbTlf0","playlistName":"شرح البرهان في علوم القرآن - أ.د. يسري جبر","category":"تفسير"},{"id":"8-y6R-DOS8Q","title":"التوبة الصادقة","publishedAt":"2022-01-01T19:07:30Z","duration":"PT37M8S","thumbnail":"https://i.ytimg.com/vi/8-y6R-DOS8Q/mqdefault.jpg","viewCount":"6716","playlistId":"PLEkQk5xrP-tlArtGpeLWaqNM7h7IDeAVC","playlistName":"خطب الجمعة أ.د. يسري جبر","category":"خطب"},{"id":"n_k4lJa1-pw","title":"29- عَقْدُ السَّلَم (بيَعُ السَّلَف)- الحديث (679) من أبواب المعاملات","publishedAt":"2022-01-01T07:43:46Z","duration":"PT45M30S","thumbnail":"https://i.ytimg.com/vi/n_k4lJa1-pw/mqdefault.jpg","viewCount":"951","playlistId":"PLEkQk5xrP-tlDtaqY0qhNXAiZ19gaGzKI","playlistName":"شرح مسند الإمام محمد بن إدريس الشافعيّ رضي الله تعالى عنه","category":"فقه"},{"id":"MX6m6o4g5qw","title":"177- «لو تَعْلَمُونَ ما أَعْلَمُ، لَضَحِكْتُمْ قَلِيلًا وَلَبَكَيْتُمْ كَثِيرًا»  شرح دليل الفالحين","publishedAt":"2021-12-31T19:03:05Z","duration":"PT22M51S","thumbnail":"https://i.ytimg.com/vi/MX6m6o4g5qw/mqdefault.jpg","viewCount":"1310","playlistId":"PLEkQk5xrP-tkc9DXvSLguqX5-FYp6ASR4","playlistName":"دليل الفالحين لطرق رياض الصالحين","category":"متنوع"},{"id":"CKw7IZmCoWI","title":"193- تَجَلِّي صِفَاتُ الجَلَالِ والجَمَالِ مَعًا - شرح دليل الفالحين","publishedAt":"2022-01-31T21:05:55Z","duration":"PT28M22S","thumbnail":"https://i.ytimg.com/vi/CKw7IZmCoWI/mqdefault.jpg","viewCount":"2159","playlistId":"PLEkQk5xrP-tkc9DXvSLguqX5-FYp6ASR4","playlistName":"دليل الفالحين لطرق رياض الصالحين","category":"متنوع"},{"id":"vAjTbTzaUJ0","title":"تقسيم طَرَفَي التشبيه: المُشَبَّه والمُشَبَّه به - شرح البرهان في علوم القرآن","publishedAt":"2022-01-31T06:53:29Z","duration":"PT22M18S","thumbnail":"https://i.ytimg.com/vi/vAjTbTzaUJ0/mqdefault.jpg","viewCount":"780","playlistId":"PLEkQk5xrP-tnW3iBL7HkKziOFCFZbTlf0","playlistName":"شرح البرهان في علوم القرآن - أ.د. يسري جبر","category":"تفسير"},{"id":"7NIA7_OZigM","title":"هل ابن تيمية من أهل التصوف؟","publishedAt":"2022-01-30T19:00:02Z","duration":"PT8M49S","thumbnail":"https://i.ytimg.com/vi/7NIA7_OZigM/mqdefault.jpg","viewCount":"46478","playlistId":"PLEkQk5xrP-tkGXuZ9atE3k_7it12rUPTs","playlistName":"أسئلة المتابعين","category":"متنوع"},{"id":"8iZTE7jVcPU","title":"192- فَضْلُ البُكَاءِ مِن خَشية الله تعالى وشَوقًا إليه - شرح دليل الفالحين","publishedAt":"2022-01-30T06:40:32Z","duration":"PT38M11S","thumbnail":"https://i.ytimg.com/vi/8iZTE7jVcPU/mqdefault.jpg","viewCount":"3242","playlistId":"PLEkQk5xrP-tkc9DXvSLguqX5-FYp6ASR4","playlistName":"دليل الفالحين لطرق رياض الصالحين","category":"متنوع"},{"id":"qz-mUTXSH_k","title":"هل يجوز زيارة القبور للنساء؟","publishedAt":"2022-01-29T18:00:13Z","duration":"PT12M32S","thumbnail":"https://i.ytimg.com/vi/qz-mUTXSH_k/mqdefault.jpg","viewCount":"6596","playlistId":"PLEkQk5xrP-tkGXuZ9atE3k_7it12rUPTs","playlistName":"أسئلة المتابعين","category":"متنوع"},{"id":"xMmluhaWOxQ","title":"أقسام التشبيه - شرح البرهان في علوم القرآن","publishedAt":"2022-01-29T06:54:09Z","duration":"PT21M38S","thumbnail":"https://i.ytimg.com/vi/xMmluhaWOxQ/mqdefault.jpg","viewCount":"765","playlistId":"PLEkQk5xrP-tnW3iBL7HkKziOFCFZbTlf0","playlistName":"شرح البرهان في علوم القرآن - أ.د. يسري جبر","category":"تفسير"},{"id":"DaVm9RfIBVU","title":"كيف نواجه الأفلام الموجهة لدعم الشذوذ؟","publishedAt":"2022-01-28T18:15:03Z","duration":"PT23M53S","thumbnail":"https://i.ytimg.com/vi/DaVm9RfIBVU/mqdefault.jpg","viewCount":"12309","playlistId":"PLEkQk5xrP-tlArtGpeLWaqNM7h7IDeAVC","playlistName":"خطب الجمعة أ.د. يسري جبر","category":"خطب"},{"id":"N4f7WiaYjNI","title":"191- الجَمْعُ بَينَ الخَوفِ والرَّجَاء - شرح دليل الفالحين","publishedAt":"2022-01-28T07:55:24Z","duration":"PT39M35S","thumbnail":"https://i.ytimg.com/vi/N4f7WiaYjNI/mqdefault.jpg","viewCount":"1482","playlistId":"PLEkQk5xrP-tkc9DXvSLguqX5-FYp6ASR4","playlistName":"دليل الفالحين لطرق رياض الصالحين","category":"متنوع"},{"id":"nsXH_yWyq24","title":"كيف دافع الله عن نبيه ﷺ؟","publishedAt":"2021-03-07T19:16:07Z","duration":"PT8M31S","thumbnail":"https://i.ytimg.com/vi/nsXH_yWyq24/mqdefault.jpg","viewCount":"2269","playlistId":"PLEkQk5xrP-tm8ZIu74nTOZN9KJUJu416J","playlistName":"مقاطع مُهمَّة (يُسريَّات) أ.د. يسري جبر","category":"متنوع"},{"id":"x-jE0rrNEgc","title":"بدل البعض من كل، بدل الاشتمال (2) شرح البرهان في علوم القرآن.","publishedAt":"2021-03-07T06:30:08Z","duration":"PT10M3S","thumbnail":"https://i.ytimg.com/vi/x-jE0rrNEgc/mqdefault.jpg","viewCount":"526","playlistId":"PLEkQk5xrP-tnW3iBL7HkKziOFCFZbTlf0","playlistName":"شرح البرهان في علوم القرآن - أ.د. يسري جبر","category":"تفسير"},{"id":"jWjULSVPM_M","title":"هل هجر المسلم من العقوبات الشرعية؟ (2)","publishedAt":"2021-03-06T20:29:04Z","duration":"PT24M2S","thumbnail":"https://i.ytimg.com/vi/jWjULSVPM_M/mqdefault.jpg","viewCount":"988","playlistId":"PLEkQk5xrP-tnAJa3yfebXD7wNC_ECfZNt","playlistName":"كتاب النفحة الذكية في أن الهجر بدعة شركية","category":"متنوع"},{"id":"F23yF16lQ0U","title":"8- ما جاء في\"حياء رسول الله ﷺ\" قراءة وشرح كتاب الشمائل المحمَّديَّة للإمام الترمذيّ رضي الله عنه","publishedAt":"2021-03-06T07:52:20Z","duration":"PT53M50S","thumbnail":"https://i.ytimg.com/vi/F23yF16lQ0U/mqdefault.jpg","viewCount":"1395","playlistId":"PLEkQk5xrP-tkCtkJ_fVpP3CmkJhWYYZtt","playlistName":"قراءةُ كتابِ الشَّمَائِلِ المُحَمَّدِيَّة للإِمام التِّرمذيّ رضي الله عن","category":"متنوع"},{"id":"G7pFRIiceco","title":"كيف أتخلص من الكبر والغرور؟","publishedAt":"2021-03-05T18:30:56Z","duration":"PT10M48S","thumbnail":"https://i.ytimg.com/vi/G7pFRIiceco/mqdefault.jpg","viewCount":"11812","playlistId":"PLEkQk5xrP-tm8ZIu74nTOZN9KJUJu416J","playlistName":"مقاطع مُهمَّة (يُسريَّات) أ.د. يسري جبر","category":"متنوع"},{"id":"kerz91oNWmE","title":"25 - المسحُ على الخُفَّين - شرح دليل الفالحين","publishedAt":"2021-03-05T07:48:46Z","duration":"PT38M5S","thumbnail":"https://i.ytimg.com/vi/kerz91oNWmE/mqdefault.jpg","viewCount":"1664","playlistId":"PLEkQk5xrP-tkc9DXvSLguqX5-FYp6ASR4","playlistName":"دليل الفالحين لطرق رياض الصالحين","category":"متنوع"},{"id":"8xROviVH4nM","title":"هل مشايخ الوهابية لهم سند متصل؟","publishedAt":"2021-03-04T19:58:52Z","duration":"PT8M42S","thumbnail":"https://i.ytimg.com/vi/8xROviVH4nM/mqdefault.jpg","viewCount":"19520","playlistId":"PLEkQk5xrP-tm8ZIu74nTOZN9KJUJu416J","playlistName":"مقاطع مُهمَّة (يُسريَّات) أ.د. يسري جبر","category":"متنوع"},{"id":"PtHJ4dxLimQ","title":"انظرنا يارسول الله","publishedAt":"2021-03-04T13:16:23Z","duration":"PT36M47S","thumbnail":"https://i.ytimg.com/vi/PtHJ4dxLimQ/mqdefault.jpg","viewCount":"21359","playlistId":"PLEkQk5xrP-tlArtGpeLWaqNM7h7IDeAVC","playlistName":"خطب الجمعة أ.د. يسري جبر","category":"خطب"},{"id":"pDX15C9DmsU","title":"بدل البعض من كل، بدل الاشتمال - شرح البرهان في علوم القرآن.","publishedAt":"2021-03-04T07:06:20Z","duration":"PT26M51S","thumbnail":"https://i.ytimg.com/vi/pDX15C9DmsU/mqdefault.jpg","viewCount":"512","playlistId":"PLEkQk5xrP-tnW3iBL7HkKziOFCFZbTlf0","playlistName":"شرح البرهان في علوم القرآن - أ.د. يسري جبر","category":"تفسير"},{"id":"_RRARFp6g00","title":"ما هو التصوف؟","publishedAt":"2021-03-03T19:55:40Z","duration":"PT15M44S","thumbnail":"https://i.ytimg.com/vi/_RRARFp6g00/mqdefault.jpg","viewCount":"40965","playlistId":"PLEkQk5xrP-tm8ZIu74nTOZN9KJUJu416J","playlistName":"مقاطع مُهمَّة (يُسريَّات) أ.د. يسري جبر","category":"متنوع"},{"id":"yoNOfiWn4Z8","title":"7- ما جاء في\"قراءة رسول الله ﷺ\" قراءة وشرح كتاب الشمائل المحمَّديَّة للإمام الترمذيّ رضي الله عنه","publishedAt":"2021-03-03T07:55:51Z","duration":"PT58M8S","thumbnail":"https://i.ytimg.com/vi/yoNOfiWn4Z8/mqdefault.jpg","viewCount":"1137","playlistId":"PLEkQk5xrP-tkCtkJ_fVpP3CmkJhWYYZtt","playlistName":"قراءةُ كتابِ الشَّمَائِلِ المُحَمَّدِيَّة للإِمام التِّرمذيّ رضي الله عن","category":"متنوع"},{"id":"uFI7mGX3GUU","title":"الرد على التساؤلات الوهابية","publishedAt":"2021-03-02T18:42:00Z","duration":"PT12M34S","thumbnail":"https://i.ytimg.com/vi/uFI7mGX3GUU/mqdefault.jpg","viewCount":"43433","playlistId":"PLEkQk5xrP-tm8ZIu74nTOZN9KJUJu416J","playlistName":"مقاطع مُهمَّة (يُسريَّات) أ.د. يسري جبر","category":"متنوع"}],"total":7670,"page":315,"pageSize":24,"totalPages":320}