{"items":[{"id":"-ZjZOCRijVs","title":"كيفية تعامل الأزواج مع زوجاتهم في هذا الزمان؟","publishedAt":"2024-12-10T18:15:00Z","duration":"PT9M29S","thumbnail":"https://i.ytimg.com/vi/-ZjZOCRijVs/mqdefault.jpg","viewCount":"3623","playlistId":"PLEkQk5xrP-tkGXuZ9atE3k_7it12rUPTs","playlistName":"أسئلة المتابعين","category":"متنوع"},{"id":"tKGe7OheOts","title":"143- معنى لبَّيك اللَّهُمَّ لبَّيك - شرح مسند الإمام أحمد رضي الله تعالى عنه","publishedAt":"2024-12-10T06:15:02Z","duration":"PT16M37S","thumbnail":"https://i.ytimg.com/vi/tKGe7OheOts/mqdefault.jpg","viewCount":"615","playlistId":"PLEkQk5xrP-tkKprIuGrSdEuBSMsyg5We1","playlistName":"شرح مسند الإمام أحمد بن حنبل","category":"متنوع"},{"id":"B9-jYxqSK_4","title":"حياتي كلها مشاكل وصعوبات ,, فماذا أفعل؟","publishedAt":"2024-12-09T18:56:42Z","duration":"PT8M37S","thumbnail":"https://i.ytimg.com/vi/B9-jYxqSK_4/mqdefault.jpg","viewCount":"6163","playlistId":"PLEkQk5xrP-tkGXuZ9atE3k_7it12rUPTs","playlistName":"أسئلة المتابعين","category":"متنوع"},{"id":"Y7bCRw9vHUU","title":"273- صيغة المبالغة - شرح الإتقان في علوم القرآن","publishedAt":"2024-12-09T06:15:01Z","duration":"PT38M13S","thumbnail":"https://i.ytimg.com/vi/Y7bCRw9vHUU/mqdefault.jpg","viewCount":"455","playlistId":"PLEkQk5xrP-tlPw10KGJKagu7zm4Ry2Tge","playlistName":"شرح الإتقان في علوم القرآن","category":"تفسير"},{"id":"JqfxbVe4kBY","title":"ما هي المعاصي التي تحبط العمل؟","publishedAt":"2024-12-08T18:31:27Z","duration":"PT9M28S","thumbnail":"https://i.ytimg.com/vi/JqfxbVe4kBY/mqdefault.jpg","viewCount":"2852","playlistId":"PLEkQk5xrP-tnZyxWbCSqTSMV9BJLUL-zN","playlistName":"شرح كتاب تنوير البصيرة ببيان علامات الكبيرة","category":"متنوع"},{"id":"6qath8Fb_j8","title":"142- حال المؤمن في الدنيا - شرح مسند الإمام أحمد رضي الله تعالى عنه","publishedAt":"2024-12-08T06:15:00Z","duration":"PT25M29S","thumbnail":"https://i.ytimg.com/vi/6qath8Fb_j8/mqdefault.jpg","viewCount":"1611","playlistId":"PLEkQk5xrP-tkKprIuGrSdEuBSMsyg5We1","playlistName":"شرح مسند الإمام أحمد بن حنبل","category":"متنوع"},{"id":"Qi7jqkTx3DI","title":"47- صفة الصبح والشفق وما تجب به الصلاة | شرح سنن الدار قطني رضي الله عنه","publishedAt":"2024-12-07T09:00:32Z","duration":"PT49M51S","thumbnail":"https://i.ytimg.com/vi/Qi7jqkTx3DI/mqdefault.jpg","viewCount":"834","playlistId":"PLEkQk5xrP-tk_MCBZ706ORCw6gFtFyaGj","playlistName":"شرح سنن الإمام الدارقطني","category":"متنوع"},{"id":"hekABP-CK0s","title":"34- ما الفرق بين نار التنقية ونار الخلود؟ | شرح مختصر الفتوحات المكية","publishedAt":"2024-12-06T18:15:02Z","duration":"PT46M11S","thumbnail":"https://i.ytimg.com/vi/hekABP-CK0s/mqdefault.jpg","viewCount":"3449","playlistId":"PLEkQk5xrP-tnpkdZki6rPTtMak1bnI5g-","playlistName":"شرح كتاب مختصر الفتوحات المكية المسمى لواقح الأنوار القدسية","category":"متنوع"},{"id":"lBU6JH59B8k","title":"زوجي يعامل أمي بطريقة سيئة ويرفض مراعاتي لها ,, فماذا أفعل معه؟","publishedAt":"2024-12-05T19:23:59Z","duration":"PT9M4S","thumbnail":"https://i.ytimg.com/vi/lBU6JH59B8k/mqdefault.jpg","viewCount":"2610","playlistId":"PLEkQk5xrP-tkGXuZ9atE3k_7it12rUPTs","playlistName":"أسئلة المتابعين","category":"متنوع"},{"id":"3pXJmMJVRd4","title":"272- الفرائد - شرح الإتقان في علوم القرآن","publishedAt":"2024-12-05T07:14:00Z","duration":"PT37M9S","thumbnail":"https://i.ytimg.com/vi/3pXJmMJVRd4/mqdefault.jpg","viewCount":"650","playlistId":"PLEkQk5xrP-tlPw10KGJKagu7zm4Ry2Tge","playlistName":"شرح الإتقان في علوم القرآن","category":"تفسير"},{"id":"cqHkFBMYqow","title":"53- كيف تكون مريدا إلى الله وتقوي إرادتك على الطاعات؟ | شرح منازل السائرين","publishedAt":"2024-12-04T15:36:19Z","duration":"PT39M1S","thumbnail":"https://i.ytimg.com/vi/cqHkFBMYqow/mqdefault.jpg","viewCount":"5618","playlistId":"PLEkQk5xrP-tmiUfQ-2Tsn7QIak4EsvaZW","playlistName":"كتاب التيسير المعين بشرح معاني منازل السائرين (تصوف) - د.يسري جبر","category":"تصوف"},{"id":"YamautdzMbw","title":"141- حكم مَن كتم عِلمَه وغَشَّ الناس - شرح مسند الإمام أحمد رضي الله تعالى عنه","publishedAt":"2024-12-04T06:47:32Z","duration":"PT34M33S","thumbnail":"https://i.ytimg.com/vi/YamautdzMbw/mqdefault.jpg","viewCount":"691","playlistId":"PLEkQk5xrP-tkKprIuGrSdEuBSMsyg5We1","playlistName":"شرح مسند الإمام أحمد بن حنبل","category":"متنوع"},{"id":"LfYUg_LyhCU","title":"هل يمكننا رؤية الله يوم القيامة وهل رأى النبي ربه؟","publishedAt":"2024-12-03T18:21:30Z","duration":"PT11M50S","thumbnail":"https://i.ytimg.com/vi/LfYUg_LyhCU/mqdefault.jpg","viewCount":"2755","playlistId":"PLEkQk5xrP-tkGXuZ9atE3k_7it12rUPTs","playlistName":"أسئلة المتابعين","category":"متنوع"},{"id":"e5-zCuZO2sw","title":"ما هي المعاصي التي تمنع من قبول التوبة؟","publishedAt":"2024-12-02T18:06:40Z","duration":"PT21M39S","thumbnail":"https://i.ytimg.com/vi/e5-zCuZO2sw/mqdefault.jpg","viewCount":"3382","playlistId":"PLEkQk5xrP-tnZyxWbCSqTSMV9BJLUL-zN","playlistName":"شرح كتاب تنوير البصيرة ببيان علامات الكبيرة","category":"متنوع"},{"id":"wUSesCN9Oig","title":"كيف تعبد الله كأنك تراه وتتخلق بخلق الحياء؟","publishedAt":"2024-12-01T19:00:44Z","duration":"PT29M","thumbnail":"https://i.ytimg.com/vi/wUSesCN9Oig/mqdefault.jpg","viewCount":"4110","playlistId":"PLEkQk5xrP-tlArtGpeLWaqNM7h7IDeAVC","playlistName":"خطب الجمعة أ.د. يسري جبر","category":"خطب"},{"id":"kRgerExYEvg","title":"46-  كيفية تحديد مواقيت الصلاة | شرح سنن الدار قطني رضي الله عنه","publishedAt":"2024-11-30T09:00:50Z","duration":"PT39M38S","thumbnail":"https://i.ytimg.com/vi/kRgerExYEvg/mqdefault.jpg","viewCount":"623","playlistId":"PLEkQk5xrP-tk_MCBZ706ORCw6gFtFyaGj","playlistName":"شرح سنن الإمام الدارقطني","category":"متنوع"},{"id":"MAmVVyrZ_j0","title":"271- أسلوب الجمع - شرح الإتقان في علوم القرآن","publishedAt":"2024-11-30T05:00:22Z","duration":"PT20M33S","thumbnail":"https://i.ytimg.com/vi/MAmVVyrZ_j0/mqdefault.jpg","viewCount":"493","playlistId":"PLEkQk5xrP-tlPw10KGJKagu7zm4Ry2Tge","playlistName":"شرح الإتقان في علوم القرآن","category":"تفسير"},{"id":"fsH4HzBeN6U","title":"140-أهمية دعاء التشهد قبل التسليم - شرح مسند الإمام أحمد رضي الله تعالى عنه","publishedAt":"2024-11-29T06:00:31Z","duration":"PT19M13S","thumbnail":"https://i.ytimg.com/vi/fsH4HzBeN6U/mqdefault.jpg","viewCount":"1064","playlistId":"PLEkQk5xrP-tkKprIuGrSdEuBSMsyg5We1","playlistName":"شرح مسند الإمام أحمد بن حنبل","category":"متنوع"},{"id":"hyRZdSuojGA","title":"كيف تتوكل على الله مع الأخذ بالأسباب؟","publishedAt":"2024-11-28T19:26:51Z","duration":"PT28M18S","thumbnail":"https://i.ytimg.com/vi/hyRZdSuojGA/mqdefault.jpg","viewCount":"3501","playlistId":"PLEkQk5xrP-tlArtGpeLWaqNM7h7IDeAVC","playlistName":"خطب الجمعة أ.د. يسري جبر","category":"خطب"},{"id":"_5WkkB8ejWM","title":"كيف تعيش على سنة النبيﷺ في حياتك؟","publishedAt":"2024-11-26T17:00:14Z","duration":"PT15M49S","thumbnail":"https://i.ytimg.com/vi/_5WkkB8ejWM/mqdefault.jpg","viewCount":"2690","playlistId":"PLEkQk5xrP-tmJzNvLntpzW0uPanPzxA0c","playlistName":"لقاءات ومحاضرات","category":"متنوع"},{"id":"psbFNfIG7no","title":"مظاهر قدرة الله في الأكوان","publishedAt":"2024-11-25T17:30:06Z","duration":"PT10M32S","thumbnail":"https://i.ytimg.com/vi/psbFNfIG7no/mqdefault.jpg","viewCount":"2797","playlistId":"PLEkQk5xrP-tlArtGpeLWaqNM7h7IDeAVC","playlistName":"خطب الجمعة أ.د. يسري جبر","category":"خطب"},{"id":"4_npXVprV-A","title":"دليلك حول معرفة حقيقة النبي ﷺ","publishedAt":"2024-11-24T17:30:00Z","duration":"PT32M50S","thumbnail":"https://i.ytimg.com/vi/4_npXVprV-A/mqdefault.jpg","viewCount":"3869","playlistId":"PLEkQk5xrP-tlArtGpeLWaqNM7h7IDeAVC","playlistName":"خطب الجمعة أ.د. يسري جبر","category":"خطب"},{"id":"WLW4G30GDps","title":"أنواع الخطابات الموجهة للنبي ﷺ في القرآن","publishedAt":"2024-11-23T17:17:41Z","duration":"PT17M42S","thumbnail":"https://i.ytimg.com/vi/WLW4G30GDps/mqdefault.jpg","viewCount":"2117","playlistId":"PLEkQk5xrP-tlArtGpeLWaqNM7h7IDeAVC","playlistName":"خطب الجمعة أ.د. يسري جبر","category":"خطب"},{"id":"NH13QDV0j5k","title":"برحمتك أستغيث ,, هل النبي ﷺ هو الرحمة للأكوان؟","publishedAt":"2024-11-22T19:43:41Z","duration":"PT22M40S","thumbnail":"https://i.ytimg.com/vi/NH13QDV0j5k/mqdefault.jpg","viewCount":"2725","playlistId":"PLEkQk5xrP-tlArtGpeLWaqNM7h7IDeAVC","playlistName":"خطب الجمعة أ.د. يسري جبر","category":"خطب"}],"total":7670,"page":79,"pageSize":24,"totalPages":320}