{"items":[{"id":"HVQacylpFCA","title":"ما هي حدود فترة كتب الكتاب ,, وما العمل إذا حدثت الدخلة في هذه الفترة؟","publishedAt":"2024-09-19T18:54:47Z","duration":"PT8M1S","thumbnail":"https://i.ytimg.com/vi/HVQacylpFCA/mqdefault.jpg","viewCount":"3056","playlistId":"PLEkQk5xrP-tkGXuZ9atE3k_7it12rUPTs","playlistName":"أسئلة المتابعين","category":"متنوع"},{"id":"WxxmfUJ_Nww","title":"حدود التعامل بين الشيوخ و النساء! #يسري_جبر","publishedAt":"2024-09-19T14:44:14Z","duration":"PT1M1S","thumbnail":"https://i.ytimg.com/vi/WxxmfUJ_Nww/mqdefault.jpg","viewCount":"24059","playlistId":"PLEkQk5xrP-tkGXuZ9atE3k_7it12rUPTs","playlistName":"أسئلة المتابعين","category":"متنوع"},{"id":"P2NIXRlrnzk","title":"هل النبي ﷺ هو أول خلق الله؟","publishedAt":"2024-09-17T16:37:38Z","duration":"PT11M26S","thumbnail":"https://i.ytimg.com/vi/P2NIXRlrnzk/mqdefault.jpg","viewCount":"2577","playlistId":"PLEkQk5xrP-tlArtGpeLWaqNM7h7IDeAVC","playlistName":"خطب الجمعة أ.د. يسري جبر","category":"خطب"},{"id":"Or6lqbi8JoA","title":"هل تعرف قدر النبي ﷺ ؟","publishedAt":"2024-09-16T17:17:04Z","duration":"PT18M36S","thumbnail":"https://i.ytimg.com/vi/Or6lqbi8JoA/mqdefault.jpg","viewCount":"3273","playlistId":"PLEkQk5xrP-tlArtGpeLWaqNM7h7IDeAVC","playlistName":"خطب الجمعة أ.د. يسري جبر","category":"خطب"},{"id":"1j8pGJ8YJ_o","title":"كيف أتغلب على النفس الأمارة بالسوء؟","publishedAt":"2025-03-10T18:30:02Z","duration":"PT8M15S","thumbnail":"https://i.ytimg.com/vi/1j8pGJ8YJ_o/mqdefault.jpg","viewCount":"5392","playlistId":"PLEkQk5xrP-tkGXuZ9atE3k_7it12rUPTs","playlistName":"أسئلة المتابعين","category":"متنوع"},{"id":"AfdehqiYnIQ","title":"هل صلاة الجمعة تسقط فرض الظهر؟ | مجالس رمضانية","publishedAt":"2025-03-10T15:00:19Z","duration":"PT25M7S","thumbnail":"https://i.ytimg.com/vi/AfdehqiYnIQ/mqdefault.jpg","viewCount":"1294","playlistId":"PLEkQk5xrP-tkeI_WVPfuoTJO46aVkpaz0","playlistName":"شرح كتاب ميزان الاعتدال لحفظ الدين والأحوال","category":"متنوع"},{"id":"H79K50fmMwQ","title":"لماذا يحاسبنا الله على أعمالنا وهي مكتوبة علينا؟","publishedAt":"2025-03-09T18:30:16Z","duration":"PT14M45S","thumbnail":"https://i.ytimg.com/vi/H79K50fmMwQ/mqdefault.jpg","viewCount":"2580","playlistId":"PLEkQk5xrP-tlArtGpeLWaqNM7h7IDeAVC","playlistName":"خطب الجمعة أ.د. يسري جبر","category":"خطب"},{"id":"cpFkM74nI5g","title":"فضل وثواب صلاة الجماعة | مجالس رمضانية","publishedAt":"2025-03-09T15:00:50Z","duration":"PT18M55S","thumbnail":"https://i.ytimg.com/vi/cpFkM74nI5g/mqdefault.jpg","viewCount":"1382","playlistId":"PLEkQk5xrP-tkeI_WVPfuoTJO46aVkpaz0","playlistName":"شرح كتاب ميزان الاعتدال لحفظ الدين والأحوال","category":"متنوع"},{"id":"kREQDe3-xYU","title":"هل يجب هجر المؤمن العاصي؟","publishedAt":"2021-02-11T18:17:58Z","duration":"PT30M35S","thumbnail":"https://i.ytimg.com/vi/kREQDe3-xYU/mqdefault.jpg","viewCount":"4215","playlistId":"PLEkQk5xrP-tnAJa3yfebXD7wNC_ECfZNt","playlistName":"كتاب النفحة الذكية في أن الهجر بدعة شركية","category":"متنوع"},{"id":"HVY4Wr6vKn4","title":"5- فوائد تتعلق بالصفة - شرح البرهان في علوم القرآن","publishedAt":"2021-02-11T07:02:45Z","duration":"PT12M34S","thumbnail":"https://i.ytimg.com/vi/HVY4Wr6vKn4/mqdefault.jpg","viewCount":"419","playlistId":"PLEkQk5xrP-tnW3iBL7HkKziOFCFZbTlf0","playlistName":"شرح البرهان في علوم القرآن - أ.د. يسري جبر","category":"تفسير"},{"id":"Y6hX6N47YKg","title":"كيف أتعامل مع صديقي الوهابي؟","publishedAt":"2021-02-10T19:56:08Z","duration":"PT8M2S","thumbnail":"https://i.ytimg.com/vi/Y6hX6N47YKg/mqdefault.jpg","viewCount":"31590","playlistId":"PLEkQk5xrP-tm8ZIu74nTOZN9KJUJu416J","playlistName":"مقاطع مُهمَّة (يُسريَّات) أ.د. يسري جبر","category":"متنوع"},{"id":"sQVNfOyWcOY","title":"17- \"إنَّ الله تعالى لا ينظر إلى أجسامكم ولا إلى صوركم ولكن ينظر إلى قلوبكم\" شرح كتاب دليل الفالحين","publishedAt":"2021-02-10T08:57:36Z","duration":"PT39M53S","thumbnail":"https://i.ytimg.com/vi/sQVNfOyWcOY/mqdefault.jpg","viewCount":"5270","playlistId":"PLEkQk5xrP-tkc9DXvSLguqX5-FYp6ASR4","playlistName":"دليل الفالحين لطرق رياض الصالحين","category":"متنوع"},{"id":"hEple_gfKbg","title":"تزوجت على زوجتي .. ماذا أفعل؟","publishedAt":"2021-02-09T18:33:08Z","duration":"PT8M17S","thumbnail":"https://i.ytimg.com/vi/hEple_gfKbg/mqdefault.jpg","viewCount":"27366","playlistId":"PLEkQk5xrP-tm8ZIu74nTOZN9KJUJu416J","playlistName":"مقاطع مُهمَّة (يُسريَّات) أ.د. يسري جبر","category":"متنوع"},{"id":"mqIArPebHXc","title":"4- فوائد تتعلق بالصفة - شرح البرهان في علوم القرآن","publishedAt":"2021-02-09T07:10:07Z","duration":"PT22M47S","thumbnail":"https://i.ytimg.com/vi/mqIArPebHXc/mqdefault.jpg","viewCount":"523","playlistId":"PLEkQk5xrP-tnW3iBL7HkKziOFCFZbTlf0","playlistName":"شرح البرهان في علوم القرآن - أ.د. يسري جبر","category":"تفسير"},{"id":"-k7mdV2BmH0","title":"الزهراءُ البتول قُرَّةُ عين الرسول ﷺ","publishedAt":"2021-02-08T19:38:07Z","duration":"PT9M49S","thumbnail":"https://i.ytimg.com/vi/-k7mdV2BmH0/mqdefault.jpg","viewCount":"5726","playlistId":"PLEkQk5xrP-tm8ZIu74nTOZN9KJUJu416J","playlistName":"مقاطع مُهمَّة (يُسريَّات) أ.د. يسري جبر","category":"متنوع"},{"id":"dJaGQ8EB41E","title":"16- الحديث السابع - شرح كتاب دليل الفالحين لطرق رياض الصالحين","publishedAt":"2021-02-08T07:08:13Z","duration":"PT33M59S","thumbnail":"https://i.ytimg.com/vi/dJaGQ8EB41E/mqdefault.jpg","viewCount":"1971","playlistId":"PLEkQk5xrP-tkc9DXvSLguqX5-FYp6ASR4","playlistName":"دليل الفالحين لطرق رياض الصالحين","category":"متنوع"},{"id":"NYIq7_xWUGc","title":"إرادة الإنسان بين الجبر والاختيار!","publishedAt":"2021-02-07T17:57:11Z","duration":"PT8M28S","thumbnail":"https://i.ytimg.com/vi/NYIq7_xWUGc/mqdefault.jpg","viewCount":"9447","playlistId":"PLEkQk5xrP-tlArtGpeLWaqNM7h7IDeAVC","playlistName":"خطب الجمعة أ.د. يسري جبر","category":"خطب"},{"id":"k94su8XDI4I","title":"3- فوائد تتعلق بالصفة -الخامسة: قد يحتمل اللفظ كثيرا من الأسباب السابقة - شرح البرهان في علوم القرآن","publishedAt":"2021-02-07T07:31:49Z","duration":"PT21M54S","thumbnail":"https://i.ytimg.com/vi/k94su8XDI4I/mqdefault.jpg","viewCount":"497","playlistId":"PLEkQk5xrP-tnW3iBL7HkKziOFCFZbTlf0","playlistName":"شرح البرهان في علوم القرآن - أ.د. يسري جبر","category":"تفسير"},{"id":"TJmxjw8rW60","title":"الاختزال (18) حذف المنادَى - شرح البرهان في علوم القرآن","publishedAt":"2021-07-21T04:13:16Z","duration":"PT19M57S","thumbnail":"https://i.ytimg.com/vi/TJmxjw8rW60/mqdefault.jpg","viewCount":"411","playlistId":"PLEkQk5xrP-tnW3iBL7HkKziOFCFZbTlf0","playlistName":"شرح البرهان في علوم القرآن - أ.د. يسري جبر","category":"تفسير"},{"id":"UMACzUN7sPk","title":"شروط الأضحية | أ.د. يسري جبر","publishedAt":"2021-07-20T06:14:42Z","duration":"PT9M9S","thumbnail":"https://i.ytimg.com/vi/UMACzUN7sPk/mqdefault.jpg","viewCount":"2000","playlistId":"PLEkQk5xrP-tlArtGpeLWaqNM7h7IDeAVC","playlistName":"خطب الجمعة أ.د. يسري جبر","category":"خطب"},{"id":"zD5ns7UIkyI","title":"100- \"…أنَّ رَسولَ اللهِ ﷺ رَأَى خَاتِمًا مِن ذَهَبٍ في يَدِ رَجُلٍ، فَنَزَعَهُ…\" شرح دليل الفالحين","publishedAt":"2021-07-19T05:50:17Z","duration":"PT42M24S","thumbnail":"https://i.ytimg.com/vi/zD5ns7UIkyI/mqdefault.jpg","viewCount":"1055","playlistId":"PLEkQk5xrP-tkc9DXvSLguqX5-FYp6ASR4","playlistName":"دليل الفالحين لطرق رياض الصالحين","category":"متنوع"},{"id":"MyGfEzryW0Y","title":"كيف تحج وأنت في بلدك","publishedAt":"2021-07-18T19:09:01Z","duration":"PT38M30S","thumbnail":"https://i.ytimg.com/vi/MyGfEzryW0Y/mqdefault.jpg","viewCount":"4530","playlistId":"PLEkQk5xrP-tlArtGpeLWaqNM7h7IDeAVC","playlistName":"خطب الجمعة أ.د. يسري جبر","category":"خطب"},{"id":"PxO11QAX508","title":"الاختزال (17) حذف الحال - شرح البرهان في علوم القرآن","publishedAt":"2021-07-18T05:37:51Z","duration":"PT5M1S","thumbnail":"https://i.ytimg.com/vi/PxO11QAX508/mqdefault.jpg","viewCount":"457","playlistId":"PLEkQk5xrP-tnW3iBL7HkKziOFCFZbTlf0","playlistName":"شرح البرهان في علوم القرآن - أ.د. يسري جبر","category":"تفسير"},{"id":"zcfSSvqPo1Q","title":"ما حكم مشاهدة مباريات كرة القدم؟","publishedAt":"2021-07-17T17:15:01Z","duration":"PT11M39S","thumbnail":"https://i.ytimg.com/vi/zcfSSvqPo1Q/mqdefault.jpg","viewCount":"5903","playlistId":"PLEkQk5xrP-tkGXuZ9atE3k_7it12rUPTs","playlistName":"أسئلة المتابعين","category":"متنوع"}],"total":7670,"page":231,"pageSize":24,"totalPages":320}