{"items":[{"id":"ZUjl-GAXLMc","title":"شرح صحيح البخاري - كتاب الجهاد والسير من باب ٩","publishedAt":"2017-07-28T20:47:05Z","duration":"PT35M45S","thumbnail":"https://i.ytimg.com/vi/ZUjl-GAXLMc/mqdefault.jpg","viewCount":"673","playlistId":"PLEkQk5xrP-tlEerGoLa1AFy-2XvQ-sovv","playlistName":"شرح صحيح البخاري - أ.د. يسري جبر (كاملا)","category":"حديث"},{"id":"0uuWh8fHq_Q","title":"ساعة الإجابة في يوم الجمعة   د. يسري جبر","publishedAt":"2017-07-28T09:02:54Z","duration":"PT7M43S","thumbnail":"https://i.ytimg.com/vi/0uuWh8fHq_Q/mqdefault.jpg","viewCount":"17554","playlistId":"PLEkQk5xrP-tm8ZIu74nTOZN9KJUJu416J","playlistName":"مقاطع مُهمَّة (يُسريَّات) أ.د. يسري جبر","category":"متنوع"},{"id":"V1Sw1ndNFN4","title":"مقرأة سورة إبراهيم من آية ٧","publishedAt":"2017-07-28T07:04:10Z","duration":"PT16M32S","thumbnail":"https://i.ytimg.com/vi/V1Sw1ndNFN4/mqdefault.jpg","viewCount":"328","playlistId":"PLEkQk5xrP-tnmTYsyW6xNdyfhPq0Bhrhj","playlistName":"مقرأة الفجر - القُرْآنُ الكَرِيمُ - خَتْمَةُ التَّدَبُّرِ  أ.د. يسري جبر","category":"متنوع"},{"id":"H7pgAZFuwFw","title":"شرح صحيح البخاري - كتاب الجهاد والسير من باب ٤","publishedAt":"2017-07-27T21:48:03Z","duration":"PT27M1S","thumbnail":"https://i.ytimg.com/vi/H7pgAZFuwFw/mqdefault.jpg","viewCount":"696","playlistId":"PLEkQk5xrP-tlEerGoLa1AFy-2XvQ-sovv","playlistName":"شرح صحيح البخاري - أ.د. يسري جبر (كاملا)","category":"حديث"},{"id":"nmAl0cu3k30","title":"مقرأة سورة إبراهيم من آية ٥","publishedAt":"2017-07-27T13:55:39Z","duration":"PT29M49S","thumbnail":"https://i.ytimg.com/vi/nmAl0cu3k30/mqdefault.jpg","viewCount":"456","playlistId":"PLEkQk5xrP-tnmTYsyW6xNdyfhPq0Bhrhj","playlistName":"مقرأة الفجر - القُرْآنُ الكَرِيمُ - خَتْمَةُ التَّدَبُّرِ  أ.د. يسري جبر","category":"متنوع"},{"id":"oFuVw24JfqM","title":"قراءة  الحزب الكبير- المجلس السابع د.يسري جبر","publishedAt":"2017-07-27T07:01:37Z","duration":"PT21M34S","thumbnail":"https://i.ytimg.com/vi/oFuVw24JfqM/mqdefault.jpg","viewCount":"4772","playlistId":"PLEkQk5xrP-tlm5F9ID5I_--LMV7PcWjp_","playlistName":"شرح الحزب الكبير لسيدى أبي الحسن الشاذلي د.يسري جبر","category":"متنوع"},{"id":"OzBRIFc0SYI","title":"شرح صحيح البخاري - كتاب الجهاد والسير من باب ٢","publishedAt":"2017-07-26T18:29:42Z","duration":"PT30M29S","thumbnail":"https://i.ytimg.com/vi/OzBRIFc0SYI/mqdefault.jpg","viewCount":"754","playlistId":"PLEkQk5xrP-tlEerGoLa1AFy-2XvQ-sovv","playlistName":"شرح صحيح البخاري - أ.د. يسري جبر (كاملا)","category":"حديث"},{"id":"ultmvdZPdL4","title":"مقرأة سورة إبراهيم من أولها","publishedAt":"2017-07-26T12:47:01Z","duration":"PT29M39S","thumbnail":"https://i.ytimg.com/vi/ultmvdZPdL4/mqdefault.jpg","viewCount":"723","playlistId":"PLEkQk5xrP-tnmTYsyW6xNdyfhPq0Bhrhj","playlistName":"مقرأة الفجر - القُرْآنُ الكَرِيمُ - خَتْمَةُ التَّدَبُّرِ  أ.د. يسري جبر","category":"متنوع"},{"id":"9hWUMz65Kjo","title":"شرح صحيح البخاري - كتاب الجهاد والسير من أوله","publishedAt":"2017-07-25T19:57:40Z","duration":"PT39M54S","thumbnail":"https://i.ytimg.com/vi/9hWUMz65Kjo/mqdefault.jpg","viewCount":"1176","playlistId":"PLEkQk5xrP-tlEerGoLa1AFy-2XvQ-sovv","playlistName":"شرح صحيح البخاري - أ.د. يسري جبر (كاملا)","category":"حديث"},{"id":"QS9nvOfURuI","title":"مقرأة سورة الرعد من آية ٣٨","publishedAt":"2017-07-25T10:14:51Z","duration":"PT16M9S","thumbnail":"https://i.ytimg.com/vi/QS9nvOfURuI/mqdefault.jpg","viewCount":"372","playlistId":"PLEkQk5xrP-tnmTYsyW6xNdyfhPq0Bhrhj","playlistName":"مقرأة الفجر - القُرْآنُ الكَرِيمُ - خَتْمَةُ التَّدَبُّرِ  أ.د. يسري جبر","category":"متنوع"},{"id":"3IZEfamhjl4","title":"شرح صحيح البخاري - كتاب الوصايا من باب ٣٥","publishedAt":"2017-07-24T19:28:41Z","duration":"PT23M8S","thumbnail":"https://i.ytimg.com/vi/3IZEfamhjl4/mqdefault.jpg","viewCount":"546","playlistId":"PLEkQk5xrP-tlEerGoLa1AFy-2XvQ-sovv","playlistName":"شرح صحيح البخاري - أ.د. يسري جبر (كاملا)","category":"حديث"},{"id":"LFVRNVa6I5I","title":"مقرأة سورة الرعد من آية ٣٥","publishedAt":"2017-07-24T12:16:10Z","duration":"PT20M12S","thumbnail":"https://i.ytimg.com/vi/LFVRNVa6I5I/mqdefault.jpg","viewCount":"308","playlistId":"PLEkQk5xrP-tnmTYsyW6xNdyfhPq0Bhrhj","playlistName":"مقرأة الفجر - القُرْآنُ الكَرِيمُ - خَتْمَةُ التَّدَبُّرِ  أ.د. يسري جبر","category":"متنوع"},{"id":"GmVaTE01QOw","title":"شرح صحيح البخاري - كتاب الوصايا من باب ٣٢","publishedAt":"2017-07-23T21:12:38Z","duration":"PT15M25S","thumbnail":"https://i.ytimg.com/vi/GmVaTE01QOw/mqdefault.jpg","viewCount":"485","playlistId":"PLEkQk5xrP-tlEerGoLa1AFy-2XvQ-sovv","playlistName":"شرح صحيح البخاري - أ.د. يسري جبر (كاملا)","category":"حديث"},{"id":"ZJ3Qe-y0AzA","title":"مقرأة سورة الرعد من آية ٣٢","publishedAt":"2017-07-23T09:28:50Z","duration":"PT13M50S","thumbnail":"https://i.ytimg.com/vi/ZJ3Qe-y0AzA/mqdefault.jpg","viewCount":"298","playlistId":"PLEkQk5xrP-tnmTYsyW6xNdyfhPq0Bhrhj","playlistName":"مقرأة الفجر - القُرْآنُ الكَرِيمُ - خَتْمَةُ التَّدَبُّرِ  أ.د. يسري جبر","category":"متنوع"},{"id":"a8u9o-Hz6ig","title":"شرح صحيح البخاري - كتاب الوصايا من باب ٢٧","publishedAt":"2017-07-22T20:10:15Z","duration":"PT15M26S","thumbnail":"https://i.ytimg.com/vi/a8u9o-Hz6ig/mqdefault.jpg","viewCount":"460","playlistId":"PLEkQk5xrP-tlEerGoLa1AFy-2XvQ-sovv","playlistName":"شرح صحيح البخاري - أ.د. يسري جبر (كاملا)","category":"حديث"},{"id":"z3ICzL8cDyk","title":"مقرأة سورة الرعد من آية ٢٥","publishedAt":"2017-07-22T11:02:50Z","duration":"PT22M52S","thumbnail":"https://i.ytimg.com/vi/z3ICzL8cDyk/mqdefault.jpg","viewCount":"469","playlistId":"PLEkQk5xrP-tnmTYsyW6xNdyfhPq0Bhrhj","playlistName":"مقرأة الفجر - القُرْآنُ الكَرِيمُ - خَتْمَةُ التَّدَبُّرِ  أ.د. يسري جبر","category":"متنوع"},{"id":"-dpSCAERQdA","title":"شرح صحيح البخاري - كتاب الوصايا من باب ٢٣","publishedAt":"2017-07-21T18:55:58Z","duration":"PT19M31S","thumbnail":"https://i.ytimg.com/vi/-dpSCAERQdA/mqdefault.jpg","viewCount":"502","playlistId":"PLEkQk5xrP-tlEerGoLa1AFy-2XvQ-sovv","playlistName":"شرح صحيح البخاري - أ.د. يسري جبر (كاملا)","category":"حديث"},{"id":"UkUBuVr6rEQ","title":"سورة الرعد آية 19","publishedAt":"2017-07-21T13:23:52Z","duration":"PT15M29S","thumbnail":"https://i.ytimg.com/vi/UkUBuVr6rEQ/mqdefault.jpg","viewCount":"330","playlistId":"PLEkQk5xrP-tnmTYsyW6xNdyfhPq0Bhrhj","playlistName":"مقرأة الفجر - القُرْآنُ الكَرِيمُ - خَتْمَةُ التَّدَبُّرِ  أ.د. يسري جبر","category":"متنوع"},{"id":"4-Se6nktWak","title":"شرح صحيح البخاري - كتاب الوصايا من باب ١٨","publishedAt":"2017-07-20T17:36:26Z","duration":"PT30M38S","thumbnail":"https://i.ytimg.com/vi/4-Se6nktWak/mqdefault.jpg","viewCount":"567","playlistId":"PLEkQk5xrP-tlEerGoLa1AFy-2XvQ-sovv","playlistName":"شرح صحيح البخاري - أ.د. يسري جبر (كاملا)","category":"حديث"},{"id":"pienVb1A8lI","title":"مقرأة سورة الرعد من آية ١٦","publishedAt":"2017-07-20T10:41:37Z","duration":"PT15M42S","thumbnail":"https://i.ytimg.com/vi/pienVb1A8lI/mqdefault.jpg","viewCount":"354","playlistId":"PLEkQk5xrP-tnmTYsyW6xNdyfhPq0Bhrhj","playlistName":"مقرأة الفجر - القُرْآنُ الكَرِيمُ - خَتْمَةُ التَّدَبُّرِ  أ.د. يسري جبر","category":"متنوع"},{"id":"EfZOwovOcjE","title":"شرح صحيح البخاري - كتاب الوصايا من باب ١٣","publishedAt":"2017-07-19T15:16:45Z","duration":"PT22M59S","thumbnail":"https://i.ytimg.com/vi/EfZOwovOcjE/mqdefault.jpg","viewCount":"533","playlistId":"PLEkQk5xrP-tlEerGoLa1AFy-2XvQ-sovv","playlistName":"شرح صحيح البخاري - أ.د. يسري جبر (كاملا)","category":"حديث"},{"id":"wGsD0WQAmUU","title":"مقرأة سورة الرعد من آية ١٢","publishedAt":"2017-07-19T11:23:38Z","duration":"PT12M40S","thumbnail":"https://i.ytimg.com/vi/wGsD0WQAmUU/mqdefault.jpg","viewCount":"380","playlistId":"PLEkQk5xrP-tnmTYsyW6xNdyfhPq0Bhrhj","playlistName":"مقرأة الفجر - القُرْآنُ الكَرِيمُ - خَتْمَةُ التَّدَبُّرِ  أ.د. يسري جبر","category":"متنوع"},{"id":"RdHnbGKnC3E","title":"شرح صحيح البخاري - كتاب الوصايا من باب ٩","publishedAt":"2017-07-18T15:26:57Z","duration":"PT23M38S","thumbnail":"https://i.ytimg.com/vi/RdHnbGKnC3E/mqdefault.jpg","viewCount":"554","playlistId":"PLEkQk5xrP-tlEerGoLa1AFy-2XvQ-sovv","playlistName":"شرح صحيح البخاري - أ.د. يسري جبر (كاملا)","category":"حديث"},{"id":"dUuBo8qAnPY","title":"مقرأة سورة الرعد من آية ٨","publishedAt":"2017-07-18T08:58:01Z","duration":"PT15M20S","thumbnail":"https://i.ytimg.com/vi/dUuBo8qAnPY/mqdefault.jpg","viewCount":"458","playlistId":"PLEkQk5xrP-tnmTYsyW6xNdyfhPq0Bhrhj","playlistName":"مقرأة الفجر - القُرْآنُ الكَرِيمُ - خَتْمَةُ التَّدَبُّرِ  أ.د. يسري جبر","category":"متنوع"}],"total":7670,"page":71,"pageSize":24,"totalPages":320}