{"items":[{"id":"TaebrLzX5MI","title":"شرح صحيح البخاري ( كتاب الصلاة مجلس ٩)","publishedAt":"2016-10-04T08:22:23Z","duration":"PT30M26S","thumbnail":"https://i.ytimg.com/vi/TaebrLzX5MI/mqdefault.jpg","viewCount":"1429","playlistId":"PLEkQk5xrP-tlEerGoLa1AFy-2XvQ-sovv","playlistName":"شرح صحيح البخاري - أ.د. يسري جبر (كاملا)","category":"حديث"},{"id":"pfqpvUxWBNg","title":"سورة المائدة آية 4","publishedAt":"2016-10-04T08:21:07Z","duration":"PT13M5S","thumbnail":"https://i.ytimg.com/vi/pfqpvUxWBNg/mqdefault.jpg","viewCount":"545","playlistId":"PLEkQk5xrP-tnmTYsyW6xNdyfhPq0Bhrhj","playlistName":"مقرأة الفجر - القُرْآنُ الكَرِيمُ - خَتْمَةُ التَّدَبُّرِ  أ.د. يسري جبر","category":"متنوع"},{"id":"ewn6tgGqYCA","title":"شرح صحيح البخاري ( كتاب الصلاة مجلس ٨)","publishedAt":"2016-10-03T08:00:52Z","duration":"PT22M9S","thumbnail":"https://i.ytimg.com/vi/ewn6tgGqYCA/mqdefault.jpg","viewCount":"1238","playlistId":"PLEkQk5xrP-tlEerGoLa1AFy-2XvQ-sovv","playlistName":"شرح صحيح البخاري - أ.د. يسري جبر (كاملا)","category":"حديث"},{"id":"2hoN_QcWj9c","title":"سورة المائدة آية 2","publishedAt":"2016-10-03T08:00:15Z","duration":"PT24M7S","thumbnail":"https://i.ytimg.com/vi/2hoN_QcWj9c/mqdefault.jpg","viewCount":"655","playlistId":"PLEkQk5xrP-tnmTYsyW6xNdyfhPq0Bhrhj","playlistName":"مقرأة الفجر - القُرْآنُ الكَرِيمُ - خَتْمَةُ التَّدَبُّرِ  أ.د. يسري جبر","category":"متنوع"},{"id":"vI-nGacWqwk","title":"28- ما جاء في الدعاء كتاب القرآن ك الموطأ د يسري جبر الأزهري بمضيفة الشيخ سعيد الدح","publishedAt":"2016-10-02T14:50:27Z","duration":"PT1H16M53S","thumbnail":"https://i.ytimg.com/vi/vI-nGacWqwk/mqdefault.jpg","viewCount":"509","playlistId":"PLEkQk5xrP-tnC6BRuqMjyO-484iqXeg0o","playlistName":"شرح كتاب الموطأ للإمام مالك","category":"متنوع"},{"id":"aW8RRE8KM10","title":"شرح صحيح البخاري ( كتاب الصلاة مجلس ٧)","publishedAt":"2016-10-02T07:40:30Z","duration":"PT35M48S","thumbnail":"https://i.ytimg.com/vi/aW8RRE8KM10/mqdefault.jpg","viewCount":"1452","playlistId":"PLEkQk5xrP-tlEerGoLa1AFy-2XvQ-sovv","playlistName":"شرح صحيح البخاري - أ.د. يسري جبر (كاملا)","category":"حديث"},{"id":"YQReGr1S2J8","title":"سورة المائدة آية 1","publishedAt":"2016-10-02T07:17:41Z","duration":"PT18M34S","thumbnail":"https://i.ytimg.com/vi/YQReGr1S2J8/mqdefault.jpg","viewCount":"705","playlistId":"PLEkQk5xrP-tnmTYsyW6xNdyfhPq0Bhrhj","playlistName":"مقرأة الفجر - القُرْآنُ الكَرِيمُ - خَتْمَةُ التَّدَبُّرِ  أ.د. يسري جبر","category":"متنوع"},{"id":"iKJEFy_TaDc","title":"لماذا خرج الوهابية من أهل السنة ولم يخرجوا من الإسلام | أ.د. يسري جبر","publishedAt":"2016-10-02T03:13:26Z","duration":"PT1H27M10S","thumbnail":"https://i.ytimg.com/vi/iKJEFy_TaDc/mqdefault.jpg","viewCount":"130119","playlistId":"PLEkQk5xrP-tlArtGpeLWaqNM7h7IDeAVC","playlistName":"خطب الجمعة أ.د. يسري جبر","category":"خطب"},{"id":"DKaxczAjOv0","title":"مقطع من قراءة وشرح كتاب الشفا بتعريف حقوق المصطفى (باب عصمة الأنبياء ) عليهم الصلاة والسلام","publishedAt":"2014-10-11T21:05:27Z","duration":"PT33M44S","thumbnail":"https://i.ytimg.com/vi/DKaxczAjOv0/mqdefault.jpg","viewCount":"2298","playlistId":"PLEkQk5xrP-tm8ZIu74nTOZN9KJUJu416J","playlistName":"مقاطع مُهمَّة (يُسريَّات) أ.د. يسري جبر","category":"متنوع"},{"id":"GuyLIA4eiy8","title":"كيف تكون مسلمًا مؤمنًا محسنًا عليمًا بفتن زمانك د.يسري جبر","publishedAt":"2014-10-09T03:26:29Z","duration":"PT19M36S","thumbnail":"https://i.ytimg.com/vi/GuyLIA4eiy8/mqdefault.jpg","viewCount":"26293","playlistId":"PLEkQk5xrP-tm8ZIu74nTOZN9KJUJu416J","playlistName":"مقاطع مُهمَّة (يُسريَّات) أ.د. يسري جبر","category":"متنوع"},{"id":"IzgdyjQQJ5s","title":"ظهر الفساد فى البر والبحر بما كسبت أيدى الناس","publishedAt":"2014-10-03T19:26:38Z","duration":"PT36M57S","thumbnail":"https://i.ytimg.com/vi/IzgdyjQQJ5s/mqdefault.jpg","viewCount":"2580","playlistId":"PLEkQk5xrP-tm8ZIu74nTOZN9KJUJu416J","playlistName":"مقاطع مُهمَّة (يُسريَّات) أ.د. يسري جبر","category":"متنوع"},{"id":"b6MNH1ekDuk","title":"الفتوحات الربانية حول المعانى القرآنية - د. يسري جبر","publishedAt":"2014-09-29T19:49:21Z","duration":"PT24M20S","thumbnail":"https://i.ytimg.com/vi/b6MNH1ekDuk/mqdefault.jpg","viewCount":"68905","playlistId":"PLEkQk5xrP-tm8ZIu74nTOZN9KJUJu416J","playlistName":"مقاطع مُهمَّة (يُسريَّات) أ.د. يسري جبر","category":"متنوع"},{"id":"1oy7XySUk-0","title":"شرح كتاب منازل السائرين للإمام الهروى - المجلس الثاني والعشرون - باب التسليم","publishedAt":"2014-09-22T10:36:50Z","duration":"PT1H9M","thumbnail":"https://i.ytimg.com/vi/1oy7XySUk-0/mqdefault.jpg","viewCount":"1813","playlistId":"PLEkQk5xrP-tnLYi_5_tSRVBwqcs7ISV7Y","playlistName":"شرح كتاب منازل السائرين للإمام الهروي","category":"متنوع"},{"id":"bjHRqCXh0B0","title":"المجلس الثامن من شرح الخريدة البهية","publishedAt":"2014-09-16T18:34:25Z","duration":"PT1H6M10S","thumbnail":"https://i.ytimg.com/vi/bjHRqCXh0B0/mqdefault.jpg","viewCount":"5811","playlistId":"PLEkQk5xrP-tnI6h_R1hvYgrrstFAJCvv9","playlistName":"شرح الخريدة البهية د. يسري جبر","category":"متنوع"},{"id":"ww7XLDdCFWs","title":"شرح كتاب منازل السائرين للإمام الهروى - المجلس الحادي والعشرون - باب الثقة","publishedAt":"2014-09-15T09:18:58Z","duration":"PT57M34S","thumbnail":"https://i.ytimg.com/vi/ww7XLDdCFWs/mqdefault.jpg","viewCount":"2178","playlistId":"PLEkQk5xrP-tnLYi_5_tSRVBwqcs7ISV7Y","playlistName":"شرح كتاب منازل السائرين للإمام الهروي","category":"متنوع"},{"id":"sfxD4znWUFM","title":"شرح فتح القريب المجيب  «سنن الوضوء» د. يسري جبر","publishedAt":"2014-09-12T20:26:12Z","duration":"PT1H1M26S","thumbnail":"https://i.ytimg.com/vi/sfxD4znWUFM/mqdefault.jpg","viewCount":"2692","playlistId":"PLEkQk5xrP-tlyOgfNBZTZgoATzVW4mI20","playlistName":"كتاب فتح القريب المجيب (علم الفقه الشافعي)","category":"فقه"},{"id":"8yuU3JvfbO0","title":"تأبير النخل بين أهل الحقيقة والشريعة","publishedAt":"2014-09-12T07:41:06Z","duration":"PT27M16S","thumbnail":"https://i.ytimg.com/vi/8yuU3JvfbO0/mqdefault.jpg","viewCount":"3667","playlistId":"PLEkQk5xrP-tm8ZIu74nTOZN9KJUJu416J","playlistName":"مقاطع مُهمَّة (يُسريَّات) أ.د. يسري جبر","category":"متنوع"},{"id":"-nQr7nvjyqU","title":"الكتب التي ينصح بقراءتها لنتخلق بأخلاق المحمدية","publishedAt":"2014-09-11T07:09:15Z","duration":"PT3M51S","thumbnail":"https://i.ytimg.com/vi/-nQr7nvjyqU/mqdefault.jpg","viewCount":"7102","playlistId":"PLEkQk5xrP-tm8ZIu74nTOZN9KJUJu416J","playlistName":"مقاطع مُهمَّة (يُسريَّات) أ.د. يسري جبر","category":"متنوع"},{"id":"bJf3Jzbkx2c","title":"قراءة القرآن (من آية ١٨ سورة الحشر)","publishedAt":"2016-01-17T06:28:04Z","duration":"PT8M5S","thumbnail":"https://i.ytimg.com/vi/bJf3Jzbkx2c/mqdefault.jpg","viewCount":"81","playlistId":"PLEkQk5xrP-tnUSUj0uyJhA-kwNC7Gkx_j","playlistName":"مقرأة الفجر - بداية من سورة الإسراء حتى سورة الناس","category":"تفسير"},{"id":"6VaWAn6QuLU","title":"شرح كتاب صفة القيامة والرقائق والورع من سنن الترمذي - المجلس الأول","publishedAt":"2016-01-16T20:32:03Z","duration":"PT34M51S","thumbnail":"https://i.ytimg.com/vi/6VaWAn6QuLU/mqdefault.jpg","viewCount":"276","playlistId":"PLEkQk5xrP-tnu6of679SvxdVx0qSrJzmb","playlistName":"شرح سنن الإمام الترمذي رضى الله عنه د. يسري جبر","category":"متنوع"},{"id":"71sSbYutEns","title":"قراءة القرآن (من أول سورة الحشر)","publishedAt":"2016-01-16T19:50:02Z","duration":"PT26M53S","thumbnail":"https://i.ytimg.com/vi/71sSbYutEns/mqdefault.jpg","viewCount":"89","playlistId":"PLEkQk5xrP-tnUSUj0uyJhA-kwNC7Gkx_j","playlistName":"مقرأة الفجر - بداية من سورة الإسراء حتى سورة الناس","category":"تفسير"},{"id":"R0hVD4KWC70","title":"مَا هِى عَوائِقُ المَعْرِفَةِ وَالعِلْمِ د. يسري جبر","publishedAt":"2016-01-16T16:05:23Z","duration":"PT30M52S","thumbnail":"https://i.ytimg.com/vi/R0hVD4KWC70/mqdefault.jpg","viewCount":"289","playlistId":"PLEkQk5xrP-tlArtGpeLWaqNM7h7IDeAVC","playlistName":"خطب الجمعة أ.د. يسري جبر","category":"خطب"},{"id":"FwCJqOD7s3Y","title":"درس الجمعة ٥ ربيع الآخر ١٤٣٧هـ","publishedAt":"2016-01-15T13:04:04Z","duration":"PT1H6M42S","thumbnail":"https://i.ytimg.com/vi/FwCJqOD7s3Y/mqdefault.jpg","viewCount":"180","playlistId":"PLEkQk5xrP-tmYN0y2PQUkx881GYBxD16g","playlistName":"درس الجمعة","category":"خطب"},{"id":"QtYwmmUSD4M","title":"شرح كتاب فتح القريب المجيب كتاب أحكام الصيام د. يسري رشدي جبر","publishedAt":"2016-01-15T12:10:16Z","duration":"PT28M37S","thumbnail":"https://i.ytimg.com/vi/QtYwmmUSD4M/mqdefault.jpg","viewCount":"1964","playlistId":"PLEkQk5xrP-tlyOgfNBZTZgoATzVW4mI20","playlistName":"كتاب فتح القريب المجيب (علم الفقه الشافعي)","category":"فقه"}],"total":7670,"page":120,"pageSize":24,"totalPages":320}