{"items":[{"id":"YTX7be3sk_4","title":"Ù‡Ù„ Ø£Ø¯Ø¹ÙŠ Ø±Ø¨Ù†Ø§ Ø¨ÙƒÙ„ Ø­Ø§Ø¬Ø© Ø­ØªÙ‰ Ù„Ùˆ ÙƒØ§Ù†Øª Ù…Ø³ØªØ­ÙŠÙ„Ø©ØŸ","publishedAt":"2025-08-04T18:15:02Z","duration":"PT9M11S","thumbnail":"https://i.ytimg.com/vi/YTX7be3sk_4/mqdefault.jpg","viewCount":"5818","playlistId":"PLEkQk5xrP-tkGXuZ9atE3k_7it12rUPTs","playlistName":"Ø£Ø³Ø¦Ù„Ø© Ø§Ù„Ù…ØªØ§Ø¨Ø¹ÙŠÙ†","category":"Ù…ØªÙ†ÙˆØ¹"},{"id":"3wvTkzdX4NU","title":"50- ÙƒÙŠÙ ØªØ¹ÙŠØ´ Ù…Ø¹Ù†Ù‰ Ø§Ù„Ù„Ù‡ Ø£ÙƒØ¨Ø±ØŸ | Ø´Ø±Ø­ Ù…Ø®ØªØµØ± Ø§Ù„ÙØªÙˆØ­Ø§Øª Ø§Ù„Ù…ÙƒÙŠØ©","publishedAt":"2025-08-03T18:30:10Z","duration":"PT47M8S","thumbnail":"https://i.ytimg.com/vi/3wvTkzdX4NU/mqdefault.jpg","viewCount":"2935","playlistId":"PLEkQk5xrP-tnpkdZki6rPTtMak1bnI5g-","playlistName":"Ø´Ø±Ø­ ÙƒØªØ§Ø¨ Ù…Ø®ØªØµØ± Ø§Ù„ÙØªÙˆØ­Ø§Øª Ø§Ù„Ù…ÙƒÙŠØ© Ø§Ù„Ù…Ø³Ù…Ù‰ Ù„ÙˆØ§Ù‚Ø­ Ø§Ù„Ø£Ù†ÙˆØ§Ø± Ø§Ù„Ù‚Ø¯Ø³ÙŠØ©","category":"Ù…ØªÙ†ÙˆØ¹"},{"id":"sQZyqCii6Cg","title":"295- Ø£Ù†ÙˆØ§Ø¹ Ø§Ù„Ø£Ù…Ø«Ø§Ù„ ÙÙŠ Ø§Ù„Ù‚Ø±Ø¢Ù† - Ø´Ø±Ø­ Ø§Ù„Ø¥ØªÙ‚Ø§Ù† ÙÙŠ Ø¹Ù„ÙˆÙ… Ø§Ù„Ù‚Ø±Ø¢Ù†","publishedAt":"2025-08-03T09:01:16Z","duration":"PT34M","thumbnail":"https://i.ytimg.com/vi/sQZyqCii6Cg/mqdefault.jpg","viewCount":"442","playlistId":"PLEkQk5xrP-tlPw10KGJKagu7zm4Ry2Tge","playlistName":"Ø´Ø±Ø­ Ø§Ù„Ø¥ØªÙ‚Ø§Ù† ÙÙŠ Ø¹Ù„ÙˆÙ… Ø§Ù„Ù‚Ø±Ø¢Ù†","category":"ØªÙØ³ÙŠØ±"},{"id":"tq41bTmuplU","title":"ÙƒÙŠÙ Ù†ÙÙ‡Ù… ØµÙØ§Øª Ø§Ù„Ù„Ù‡ Ù…Ø«Ù„ Ø§Ù„ÙŠØ¯ ÙˆØºÙŠØ±Ù‡Ø§ Ø¨Ù„Ø§ ØªØ¬Ø³ÙŠÙ… Ø£Ùˆ ØªØ´Ø¨ÙŠÙ‡ØŸ","publishedAt":"2025-08-02T18:31:08Z","duration":"PT9M22S","thumbnail":"https://i.ytimg.com/vi/tq41bTmuplU/mqdefault.jpg","viewCount":"1929","playlistId":"PLEkQk5xrP-tkGXuZ9atE3k_7it12rUPTs","playlistName":"Ø£Ø³Ø¦Ù„Ø© Ø§Ù„Ù…ØªØ§Ø¨Ø¹ÙŠÙ†","category":"Ù…ØªÙ†ÙˆØ¹"},{"id":"sNN3puAoADM","title":"Ù…Ø§ Ù‡ÙŠ Ø£Ù†ÙˆØ§Ø¹ Ø§Ù„Ø²Ù†Ø§ØŸ | Ù…Ø¬Ø§Ù„Ø³ Ø±Ù…Ø¶Ø§Ù†ÙŠØ©","publishedAt":"2023-04-08T15:00:37Z","duration":"PT28M12S","thumbnail":"https://i.ytimg.com/vi/sNN3puAoADM/mqdefault.jpg","viewCount":"3751","playlistId":"PLEkQk5xrP-tnl7vb7KeAoPd5ZlqKKW8KV","playlistName":"Ø´Ø±Ø­ ÙƒØªØ§Ø¨ Ø¨Ù‡Ø¬Ø© Ø§Ù„Ù†ÙÙˆØ³ Ø£.Ø¯ . ÙŠØ³Ø±Ù‰ Ø¬Ø¨Ø±","category":"Ù…ØªÙ†ÙˆØ¹"},{"id":"efHCbnJcdA0","title":"424- Ù‚ØµØ© Ø³ÙŠØ¯Ù†Ø§ Ø³Ø¹Ø¯ Ø±Ø¶ÙŠ Ø§Ù„Ù„Ù‡ Ø¹Ù†Ù‡ Ù…Ø¹ Ø£Ù‡Ù„ Ø§Ù„ÙƒÙˆÙØ© - Ø´Ø±Ø­ Ø¯Ù„ÙŠÙ„ Ø§Ù„ÙØ§Ù„Ø­ÙŠÙ†","publishedAt":"2023-04-08T05:20:00Z","duration":"PT36M56S","thumbnail":"https://i.ytimg.com/vi/efHCbnJcdA0/mqdefault.jpg","viewCount":"683","playlistId":"PLEkQk5xrP-tkc9DXvSLguqX5-FYp6ASR4","playlistName":"Ø¯Ù„ÙŠÙ„ Ø§Ù„ÙØ§Ù„Ø­ÙŠÙ† Ù„Ø·Ø±Ù‚ Ø±ÙŠØ§Ø¶ Ø§Ù„ØµØ§Ù„Ø­ÙŠÙ†","category":"Ù…ØªÙ†ÙˆØ¹"},{"id":"ZeGuK9xlS2I","title":"ÙØ¶Ù„ Ø§Ù„Ù†Ø¨ÙŠ ï·º Ø¹Ù„Ù‰ Ø§Ù„Ø§Ù…Ø©","publishedAt":"2023-04-07T19:00:20Z","duration":"PT15M17S","thumbnail":"https://i.ytimg.com/vi/ZeGuK9xlS2I/mqdefault.jpg","viewCount":"3032","playlistId":"PLEkQk5xrP-tlArtGpeLWaqNM7h7IDeAVC","playlistName":"Ø®Ø·Ø¨ Ø§Ù„Ø¬Ù…Ø¹Ø© Ø£.Ø¯. ÙŠØ³Ø±ÙŠ Ø¬Ø¨Ø±","category":"Ø®Ø·Ø¨"},{"id":"0PPb_j11iqY","title":"Ø§Ù„ØªØ´Ù‡Ø¯ ÙˆØ§Ù„ØµÙ„Ø§Ø© Ø§Ù„Ø¥Ø¨Ø±Ø§Ù‡ÙŠÙ…ÙŠØ© | Ù…Ø¬Ø§Ù„Ø³ Ø±Ù…Ø¶Ø§Ù†ÙŠØ©","publishedAt":"2023-04-07T15:00:02Z","duration":"PT48M41S","thumbnail":"https://i.ytimg.com/vi/0PPb_j11iqY/mqdefault.jpg","viewCount":"2894","playlistId":"PLEkQk5xrP-tnl7vb7KeAoPd5ZlqKKW8KV","playlistName":"Ø´Ø±Ø­ ÙƒØªØ§Ø¨ Ø¨Ù‡Ø¬Ø© Ø§Ù„Ù†ÙÙˆØ³ Ø£.Ø¯ . ÙŠØ³Ø±Ù‰ Ø¬Ø¨Ø±","category":"Ù…ØªÙ†ÙˆØ¹"},{"id":"kPqdDJn3F0A","title":"Ø­ÙƒØ§ÙŠØ§Øª ÙÙŠ Ø°ÙƒØ±Ù‰ Ù…ÙŠÙ„Ø§Ø¯ Ø§Ù„Ø¯ÙƒØªÙˆØ± ÙŠØ³Ø±ÙŠ Ø¬Ø¨Ø±","publishedAt":"2023-09-23T19:19:48Z","duration":"PT18M43S","thumbnail":"https://i.ytimg.com/vi/kPqdDJn3F0A/mqdefault.jpg","viewCount":"8605","playlistId":"PLEkQk5xrP-tl6tFiMFGUucCTvLgnWyAfz","playlistName":"Ø­ÙŠØ§Ø© Ø§Ù„Ø£Ø³ØªØ§Ø° Ø§Ù„Ø¯ÙƒØªÙˆØ± ÙŠØ³Ø±ÙŠ Ø¬Ø¨Ø±","category":"Ù…ØªÙ†ÙˆØ¹"},{"id":"N6PfnELJWjc","title":"20- Ø­ÙƒÙ… ÙÙØ¹Ù’Ù„ Ø§Ù„Ø¹ÙÙ…Ù’Ø±Ø© Ù‚Ø¨Ù„ Ø§Ù„Ø­ÙØ¬Ù‘ - Ø´Ø±Ø­ Ù…Ø³Ù†Ø¯ Ø§Ù„Ø¥Ù…Ø§Ù… Ø£Ø­Ù…Ø¯","publishedAt":"2023-09-23T05:30:05Z","duration":"PT39M55S","thumbnail":"https://i.ytimg.com/vi/N6PfnELJWjc/mqdefault.jpg","viewCount":"1047","playlistId":"PLEkQk5xrP-tkKprIuGrSdEuBSMsyg5We1","playlistName":"Ø´Ø±Ø­ Ù…Ø³Ù†Ø¯ Ø§Ù„Ø¥Ù…Ø§Ù… Ø£Ø­Ù…Ø¯ Ø¨Ù† Ø­Ù†Ø¨Ù„","category":"Ù…ØªÙ†ÙˆØ¹"},{"id":"ClHXmEFzmqM","title":"ØªØ¹Ø±Ù Ø¹Ù„Ù‰ Ù‚Ø¯Ø± Ø§Ù„Ù†Ø¨ÙŠ ï·º","publishedAt":"2023-09-21T17:00:07Z","duration":"PT24M55S","thumbnail":"https://i.ytimg.com/vi/ClHXmEFzmqM/mqdefault.jpg","viewCount":"17497","playlistId":"PLEkQk5xrP-tlArtGpeLWaqNM7h7IDeAVC","playlistName":"Ø®Ø·Ø¨ Ø§Ù„Ø¬Ù…Ø¹Ø© Ø£.Ø¯. ÙŠØ³Ø±ÙŠ Ø¬Ø¨Ø±","category":"Ø®Ø·Ø¨"},{"id":"92mf9-Na3xM","title":"151- Ù…Ø¹Ù†Ù‰ (ÙƒÙ„) - Ø´Ø±Ø­ Ø§Ù„Ø¥ØªÙ‚Ø§Ù† ÙÙŠ Ø¹Ù„ÙˆÙ… Ø§Ù„Ù‚Ø±Ø¢Ù†","publishedAt":"2023-09-21T05:01:21Z","duration":"PT16M15S","thumbnail":"https://i.ytimg.com/vi/92mf9-Na3xM/mqdefault.jpg","viewCount":"563","playlistId":"PLEkQk5xrP-tlPw10KGJKagu7zm4Ry2Tge","playlistName":"Ø´Ø±Ø­ Ø§Ù„Ø¥ØªÙ‚Ø§Ù† ÙÙŠ Ø¹Ù„ÙˆÙ… Ø§Ù„Ù‚Ø±Ø¢Ù†","category":"ØªÙØ³ÙŠØ±"},{"id":"xdTiUbe5T7s","title":"ÙƒÙ„Ù…Ø© Ø£.Ø¯. ÙŠØ³Ø±ÙŠ Ø¬Ø¨Ø± ÙÙŠ Ø§Ù„Ù…Ø¤ØªÙ…Ø± Ø§Ù„ØµÙˆÙÙŠ Ø§Ù„Ø¹Ø§Ù„Ù…ÙŠ | Ø¬Ø§ÙˆØ© Ø§Ù„ÙˆØ³Ø·Ù‰  - Ø¥Ù†Ø¯ÙˆÙ†ÙŠØ³ÙŠØ§","publishedAt":"2023-09-20T18:30:41Z","duration":"PT16M15S","thumbnail":"https://i.ytimg.com/vi/xdTiUbe5T7s/mqdefault.jpg","viewCount":"5262","playlistId":"PLEkQk5xrP-tmJzNvLntpzW0uPanPzxA0c","playlistName":"Ù„Ù‚Ø§Ø¡Ø§Øª ÙˆÙ…Ø­Ø§Ø¶Ø±Ø§Øª","category":"Ù…ØªÙ†ÙˆØ¹"},{"id":"dlCiaB5WrIY","title":"19- Ù…ÙˆØ§Ø³Ø§Ø© Ø£Ù‡Ù„ Ø§Ù„Ø¨Ù„Ø§Ø¡ Ø¨Ø£Ù†Ù‘Ù Ø§Ù„Ø¯Ù†ÙŠØ§ Ø³ÙØ¬Ù†Ù Ø§Ù„Ù…Ø¤Ù…Ù†| Ø¨ÙŠØ§Ù† Ø£ÙˆÙ‚Ø§Øª Ø§Ù„ÙƒØ±Ø§Ù‡Ø© - Ø´Ø±Ø­ Ù…Ø³Ù†Ø¯ Ø§Ù„Ø¥Ù…Ø§Ù… Ø£Ø­Ù…Ø¯","publishedAt":"2023-09-20T05:33:01Z","duration":"PT25M13S","thumbnail":"https://i.ytimg.com/vi/dlCiaB5WrIY/mqdefault.jpg","viewCount":"2280","playlistId":"PLEkQk5xrP-tkKprIuGrSdEuBSMsyg5We1","playlistName":"Ø´Ø±Ø­ Ù…Ø³Ù†Ø¯ Ø§Ù„Ø¥Ù…Ø§Ù… Ø£Ø­Ù…Ø¯ Ø¨Ù† Ø­Ù†Ø¨Ù„","category":"Ù…ØªÙ†ÙˆØ¹"},{"id":"u_h6yoe-Q8U","title":"Ù„Ù…Ø§Ø°Ø§ Ø®Ù„Ù‚Ù†Ø§ Ø§Ù„Ù„Ù‡ ÙˆÙ„Ù…Ø§Ø°Ø§ Ø£Ù…Ø±Ù†Ø§ Ø¨Ø¹Ø¨Ø§Ø¯ØªÙ‡ØŸ","publishedAt":"2025-11-04T21:00:58Z","duration":"PT26M17S","thumbnail":"https://i.ytimg.com/vi/u_h6yoe-Q8U/mqdefault.jpg","viewCount":"1731","playlistId":"PLEkQk5xrP-tm8ZIu74nTOZN9KJUJu416J","playlistName":"Ù…Ù‚Ø§Ø·Ø¹ Ù…ÙÙ‡Ù…ÙÙ‘Ø© (ÙŠÙØ³Ø±ÙŠÙ‘ÙØ§Øª) Ø£.Ø¯. ÙŠØ³Ø±ÙŠ Ø¬Ø¨Ø±","category":"Ù…ØªÙ†ÙˆØ¹"},{"id":"dwDd2yEtT4k","title":"311- Ø£ÙØ¶Ù„ Ø§Ù„Ù‚Ø±Ø¢Ù† ÙˆÙØ§Ø¶Ù„Ù‡ - Ø´Ø±Ø­ Ø§Ù„Ø¥ØªÙ‚Ø§Ù† ÙÙŠ Ø¹Ù„ÙˆÙ… Ø§Ù„Ù‚Ø±Ø¢Ù†","publishedAt":"2025-11-04T05:30:32Z","duration":"PT21M15S","thumbnail":"https://i.ytimg.com/vi/dwDd2yEtT4k/mqdefault.jpg","viewCount":"758","playlistId":"PLEkQk5xrP-tlPw10KGJKagu7zm4Ry2Tge","playlistName":"Ø´Ø±Ø­ Ø§Ù„Ø¥ØªÙ‚Ø§Ù† ÙÙŠ Ø¹Ù„ÙˆÙ… Ø§Ù„Ù‚Ø±Ø¢Ù†","category":"ØªÙØ³ÙŠØ±"},{"id":"9ze0FdI-ofk","title":"ÙƒÙŠÙ ØªÙ†Ø²Ø¹ Ø­Ø¨ Ø§Ù„Ø¯Ù†ÙŠØ§ ÙˆØ§Ù„ØªØ¹Ù„Ù‚ Ø¨Ù‡Ø§ Ù…Ù† Ù‚Ù„Ø¨ÙƒØŸ","publishedAt":"2025-11-03T19:06:35Z","duration":"PT11M26S","thumbnail":"https://i.ytimg.com/vi/9ze0FdI-ofk/mqdefault.jpg","viewCount":"4481","playlistId":"PLEkQk5xrP-tm8ZIu74nTOZN9KJUJu416J","playlistName":"Ù…Ù‚Ø§Ø·Ø¹ Ù…ÙÙ‡Ù…ÙÙ‘Ø© (ÙŠÙØ³Ø±ÙŠÙ‘ÙØ§Øª) Ø£.Ø¯. ÙŠØ³Ø±ÙŠ Ø¬Ø¨Ø±","category":"Ù…ØªÙ†ÙˆØ¹"},{"id":"_k535ZGB_kk","title":"179- Ù„Ø§ ØªØ³Ø£Ù„ Ø§Ù„Ù†Ø§Ø³ Ø´ÙŠØ¦Ø§ ÙˆÙ„Ùˆ ÙŠØ³ÙŠØ±Ø§ - Ø´Ø±Ø­ Ù…Ø³Ù†Ø¯ Ø§Ù„Ø¥Ù…Ø§Ù… Ø£Ø­Ù…Ø¯ Ø±Ø¶ÙŠ Ø§Ù„Ù„Ù‡ ØªØ¹Ø§Ù„Ù‰ Ø¹Ù†Ù‡","publishedAt":"2025-11-03T05:30:15Z","duration":"PT26M52S","thumbnail":"https://i.ytimg.com/vi/_k535ZGB_kk/mqdefault.jpg","viewCount":"1636","playlistId":"PLEkQk5xrP-tkKprIuGrSdEuBSMsyg5We1","playlistName":"Ø´Ø±Ø­ Ù…Ø³Ù†Ø¯ Ø§Ù„Ø¥Ù…Ø§Ù… Ø£Ø­Ù…Ø¯ Ø¨Ù† Ø­Ù†Ø¨Ù„","category":"Ù…ØªÙ†ÙˆØ¹"},{"id":"kDUO_tbx_1o","title":"ÙƒÙŠÙ ØªØªØ¹Ø±Ù Ø¹Ù„Ù‰ Ø±ÙˆØ­Ø§Ù†ÙŠØ© Ø§Ù„Ù†Ø¨ÙŠ ï·ºØŸ","publishedAt":"2025-11-02T17:01:09Z","duration":"PT16M10S","thumbnail":"https://i.ytimg.com/vi/kDUO_tbx_1o/mqdefault.jpg","viewCount":"2609","playlistId":"PLEkQk5xrP-tm8ZIu74nTOZN9KJUJu416J","playlistName":"Ù…Ù‚Ø§Ø·Ø¹ Ù…ÙÙ‡Ù…ÙÙ‘Ø© (ÙŠÙØ³Ø±ÙŠÙ‘ÙØ§Øª) Ø£.Ø¯. ÙŠØ³Ø±ÙŠ Ø¬Ø¨Ø±","category":"Ù…ØªÙ†ÙˆØ¹"},{"id":"c7rSbnwaU4M","title":"ÙƒÙŠÙ ØªØµÙ„ Ø¥Ù„Ù‰ Ù…Ù‚Ø§Ù… Ø§Ù„Ø´ÙƒØ± ÙÙŠ 4 Ø®Ø·ÙˆØ§ØªØŸ","publishedAt":"2025-11-01T18:32:22Z","duration":"PT12M38S","thumbnail":"https://i.ytimg.com/vi/c7rSbnwaU4M/mqdefault.jpg","viewCount":"1993","playlistId":"PLEkQk5xrP-tm8ZIu74nTOZN9KJUJu416J","playlistName":"Ù…Ù‚Ø§Ø·Ø¹ Ù…ÙÙ‡Ù…ÙÙ‘Ø© (ÙŠÙØ³Ø±ÙŠÙ‘ÙØ§Øª) Ø£.Ø¯. ÙŠØ³Ø±ÙŠ Ø¬Ø¨Ø±","category":"Ù…ØªÙ†ÙˆØ¹"},{"id":"DC4H7pcCAO0","title":"ÙˆØµØ§ÙŠØ§ Ù„Ù„Ù…Ø³Ù„Ù…ÙŠÙ† ÙÙŠ Ø£ÙˆØ±ÙˆØ¨Ø§ ÙˆØ¨Ù„Ø§Ø¯ Ø§Ù„ØºØ±Ø¨ | Ø¥Ø´Ø¨ÙŠÙ„ÙŠØ© - Ø§Ø³Ø¨Ø§Ù†ÙŠØ§ğŸ“","publishedAt":"2025-10-31T19:30:06Z","duration":"PT14M3S","thumbnail":"https://i.ytimg.com/vi/DC4H7pcCAO0/mqdefault.jpg","viewCount":"2743","playlistId":"PLEkQk5xrP-tm8ZIu74nTOZN9KJUJu416J","playlistName":"Ù…Ù‚Ø§Ø·Ø¹ Ù…ÙÙ‡Ù…ÙÙ‘Ø© (ÙŠÙØ³Ø±ÙŠÙ‘ÙØ§Øª) Ø£.Ø¯. ÙŠØ³Ø±ÙŠ Ø¬Ø¨Ø±","category":"Ù…ØªÙ†ÙˆØ¹"},{"id":"i0N4pxZXBvI","title":"310- ÙØ¶Ù„ Ø³ÙˆØ±Ø© Ø§Ù„Ø¯Ù‘ÙØ®Ø§Ù† - Ø´Ø±Ø­ Ø§Ù„Ø¥ØªÙ‚Ø§Ù† ÙÙŠ Ø¹Ù„ÙˆÙ… Ø§Ù„Ù‚Ø±Ø¢Ù†","publishedAt":"2025-10-31T05:30:36Z","duration":"PT16M6S","thumbnail":"https://i.ytimg.com/vi/i0N4pxZXBvI/mqdefault.jpg","viewCount":"1101","playlistId":"PLEkQk5xrP-tlPw10KGJKagu7zm4Ry2Tge","playlistName":"Ø´Ø±Ø­ Ø§Ù„Ø¥ØªÙ‚Ø§Ù† ÙÙŠ Ø¹Ù„ÙˆÙ… Ø§Ù„Ù‚Ø±Ø¢Ù†","category":"ØªÙØ³ÙŠØ±"},{"id":"YZuas-t1cJI","title":"( ÙˆØ³ÙØ§Ø±Ø¹ÙˆØ§ Ø¥ÙÙ„Ù‰ Ù…ÙØºÙÙØ±Ø©Ù Ù…ÙÙ† Ø±Ø¨Ù‘ÙÙƒÙ… )","publishedAt":"2014-11-15T20:49:00Z","duration":"PT36M5S","thumbnail":"https://i.ytimg.com/vi/YZuas-t1cJI/mqdefault.jpg","viewCount":"1046","playlistId":"PLEkQk5xrP-tlArtGpeLWaqNM7h7IDeAVC","playlistName":"Ø®Ø·Ø¨ Ø§Ù„Ø¬Ù…Ø¹Ø© Ø£.Ø¯. ÙŠØ³Ø±ÙŠ Ø¬Ø¨Ø±","category":"Ø®Ø·Ø¨"},{"id":"qOFQ6xTCatE","title":"Ù…Ø³Ùƒ Ø§Ù„Ø®ØªØ§Ù… Ù„Ù‚Ø§ Ø®ÙŠØ± Ø§Ù„Ø£Ù†Ø§Ù… - Ø§Ù„Ù…Ø¯ÙŠØ­ ÙˆÙƒÙ„Ù…Ø© Ø§Ù„ÙˆØ¯Ø§Ø¹ ÙˆØ§Ù„Ø´ÙƒØ±","publishedAt":"2014-11-13T16:28:47Z","duration":"PT11M30S","thumbnail":"https://i.ytimg.com/vi/qOFQ6xTCatE/mqdefault.jpg","viewCount":"595","playlistId":"PLEkQk5xrP-tm74ioQU4BIuXLs8a9babvA","playlistName":"Ø´Ø±Ø­ ÙƒØªØ§Ø¨ Ø§Ù„Ø´Ù…Ø§Ø¦Ù„ Ø§Ù„Ù…Ø­Ù…Ø¯ÙŠØ© Ù„Ù„Ø¥Ù…Ø§Ù… Ø§Ù„ØªØ±Ù…Ø°Ù‰","category":"Ø³ÙŠØ±Ø©"}],"total":7670,"page":277,"pageSize":24,"totalPages":320}