{"items":[{"id":"Lv5_cPZ1yFM","title":"123- كتاب الأضاحي","publishedAt":"2020-09-01T05:36:35Z","duration":"PT22M57S","thumbnail":"https://i.ytimg.com/vi/Lv5_cPZ1yFM/mqdefault.jpg","viewCount":"413","playlistId":"PLEkQk5xrP-tmKNjtYLfhATC37QdIsTMe0","playlistName":"شرح كتاب اللؤلؤ والمرجان فيما اتفق عليه الشيخان إماما المحدثين البخاري ومسلم. أ.د. يسري جبر","category":"حديث"},{"id":"OsaaxPP2-LM","title":"البرهان في علوم القرآن - فصل في تقسيم التأويل","publishedAt":"2020-09-01T05:36:23Z","duration":"PT22M57S","thumbnail":"https://i.ytimg.com/vi/OsaaxPP2-LM/mqdefault.jpg","viewCount":"458","playlistId":"PLEkQk5xrP-tnW3iBL7HkKziOFCFZbTlf0","playlistName":"شرح البرهان في علوم القرآن - أ.د. يسري جبر","category":"تفسير"},{"id":"P4gNRrBwFyQ","title":"كيف تداوم على الطاعة","publishedAt":"2020-08-31T19:47:31Z","duration":"PT7M14S","thumbnail":"https://i.ytimg.com/vi/P4gNRrBwFyQ/mqdefault.jpg","viewCount":"5221","playlistId":"PLEkQk5xrP-tm8ZIu74nTOZN9KJUJu416J","playlistName":"مقاطع مُهمَّة (يُسريَّات) أ.د. يسري جبر","category":"متنوع"},{"id":"VDYqD2aTgxs","title":"البرهان في علوم القرآن النوع ٤١","publishedAt":"2020-08-31T11:01:30Z","duration":"PT22M57S","thumbnail":"https://i.ytimg.com/vi/VDYqD2aTgxs/mqdefault.jpg","viewCount":"478","playlistId":"PLEkQk5xrP-tnW3iBL7HkKziOFCFZbTlf0","playlistName":"شرح البرهان في علوم القرآن - أ.د. يسري جبر","category":"تفسير"},{"id":"jabxIZiuSUo","title":"38- خطورة الجهل بالدين والاستبداد بالرأي - شرح مسند الإمام أحمد","publishedAt":"2023-11-14T06:30:17Z","duration":"PT38M28S","thumbnail":"https://i.ytimg.com/vi/jabxIZiuSUo/mqdefault.jpg","viewCount":"2089","playlistId":"PLEkQk5xrP-tkKprIuGrSdEuBSMsyg5We1","playlistName":"شرح مسند الإمام أحمد بن حنبل","category":"متنوع"},{"id":"0nZSI5WzoSs","title":"ضعف العرب وصبر ورباط أهل غ/زة","publishedAt":"2023-11-13T19:07:23Z","duration":"PT9M40S","thumbnail":"https://i.ytimg.com/vi/0nZSI5WzoSs/mqdefault.jpg","viewCount":"15134","playlistId":"PLEkQk5xrP-tlArtGpeLWaqNM7h7IDeAVC","playlistName":"خطب الجمعة أ.د. يسري جبر","category":"خطب"},{"id":"0lGIe1Bpggw","title":"تفسير الآيات القرآنية الواردة في حق النبي ﷺ","publishedAt":"2023-11-12T12:37:20Z","duration":"PT55M21S","thumbnail":"https://i.ytimg.com/vi/0lGIe1Bpggw/mqdefault.jpg","viewCount":"8640","playlistId":"PLEkQk5xrP-tm8ZIu74nTOZN9KJUJu416J","playlistName":"مقاطع مُهمَّة (يُسريَّات) أ.د. يسري جبر","category":"متنوع"},{"id":"ymmcp_HVnwo","title":"20- كيفية علاج الوسواس في الوضوء | موجبات الغسل","publishedAt":"2023-11-11T08:37:39Z","duration":"PT31M42S","thumbnail":"https://i.ytimg.com/vi/ymmcp_HVnwo/mqdefault.jpg","viewCount":"1448","playlistId":"PLEkQk5xrP-tk_MCBZ706ORCw6gFtFyaGj","playlistName":"شرح سنن الإمام الدارقطني","category":"متنوع"},{"id":"chP2nD7F5gE","title":"شرح صحيح البخاري- كتاب أحاديث الأنبياء من باب ٥٠","publishedAt":"2017-10-18T14:03:40Z","duration":"PT51M17S","thumbnail":"https://i.ytimg.com/vi/chP2nD7F5gE/mqdefault.jpg","viewCount":"728","playlistId":"PLEkQk5xrP-tlEerGoLa1AFy-2XvQ-sovv","playlistName":"شرح صحيح البخاري - أ.د. يسري جبر (كاملا)","category":"حديث"},{"id":"StQcVVNh7H0","title":"مقرأة سورة الكهف من آية ٢٣","publishedAt":"2017-10-18T10:16:00Z","duration":"PT13M58S","thumbnail":"https://i.ytimg.com/vi/StQcVVNh7H0/mqdefault.jpg","viewCount":"649","playlistId":"PLEkQk5xrP-tnmTYsyW6xNdyfhPq0Bhrhj","playlistName":"مقرأة الفجر - القُرْآنُ الكَرِيمُ - خَتْمَةُ التَّدَبُّرِ  أ.د. يسري جبر","category":"متنوع"},{"id":"464bz-z1cnc","title":"شرح صحيح البخاري- كتاب أحاديث الأنبياء من باب ٤٤","publishedAt":"2017-10-17T13:36:00Z","duration":"PT37M59S","thumbnail":"https://i.ytimg.com/vi/464bz-z1cnc/mqdefault.jpg","viewCount":"607","playlistId":"PLEkQk5xrP-tlEerGoLa1AFy-2XvQ-sovv","playlistName":"شرح صحيح البخاري - أ.د. يسري جبر (كاملا)","category":"حديث"},{"id":"fjcjgln7vM8","title":"مقرأة سورة الكهف من آية ١٩","publishedAt":"2017-10-17T09:12:27Z","duration":"PT27M","thumbnail":"https://i.ytimg.com/vi/fjcjgln7vM8/mqdefault.jpg","viewCount":"606","playlistId":"PLEkQk5xrP-tnmTYsyW6xNdyfhPq0Bhrhj","playlistName":"مقرأة الفجر - القُرْآنُ الكَرِيمُ - خَتْمَةُ التَّدَبُّرِ  أ.د. يسري جبر","category":"متنوع"},{"id":"S_hQZJVxsyw","title":"شرح صحيح البخاري- كتاب أحاديث الأنبياء من باب ٤٢","publishedAt":"2017-10-16T16:12:04Z","duration":"PT35M32S","thumbnail":"https://i.ytimg.com/vi/S_hQZJVxsyw/mqdefault.jpg","viewCount":"595","playlistId":"PLEkQk5xrP-tlEerGoLa1AFy-2XvQ-sovv","playlistName":"شرح صحيح البخاري - أ.د. يسري جبر (كاملا)","category":"حديث"},{"id":"wlyd2QhPrLM","title":"مقرأة سورة الكهف من آية ١٣","publishedAt":"2017-10-16T10:10:48Z","duration":"PT16M35S","thumbnail":"https://i.ytimg.com/vi/wlyd2QhPrLM/mqdefault.jpg","viewCount":"574","playlistId":"PLEkQk5xrP-tnmTYsyW6xNdyfhPq0Bhrhj","playlistName":"مقرأة الفجر - القُرْآنُ الكَرِيمُ - خَتْمَةُ التَّدَبُّرِ  أ.د. يسري جبر","category":"متنوع"},{"id":"FS0fui5sYig","title":"شرح سنن الدارمي كتاب الزكاة من باب ٢٧","publishedAt":"2019-06-10T21:38:45Z","duration":"PT27M7S","thumbnail":"https://i.ytimg.com/vi/FS0fui5sYig/mqdefault.jpg","viewCount":"288","playlistId":"PLEkQk5xrP-tmAg-FuWjY057X_h5NmGmAa","playlistName":"شرح سنن الدارمي - أ.د. يسري جبر (كاملا)","category":"متنوع"},{"id":"wdK-ISpK6u4","title":"مقرأة سورة المرسلات من آية ٣٥","publishedAt":"2019-06-10T09:55:46Z","duration":"PT12M7S","thumbnail":"https://i.ytimg.com/vi/wdK-ISpK6u4/mqdefault.jpg","viewCount":"506","playlistId":"PLEkQk5xrP-tnmTYsyW6xNdyfhPq0Bhrhj","playlistName":"مقرأة الفجر - القُرْآنُ الكَرِيمُ - خَتْمَةُ التَّدَبُّرِ  أ.د. يسري جبر","category":"متنوع"},{"id":"QQW5LHLN6UI","title":"شرح سنن الدارمي كتاب الزكاة من باب ٢٣","publishedAt":"2019-06-09T18:17:26Z","duration":"PT16M55S","thumbnail":"https://i.ytimg.com/vi/QQW5LHLN6UI/mqdefault.jpg","viewCount":"269","playlistId":"PLEkQk5xrP-tmAg-FuWjY057X_h5NmGmAa","playlistName":"شرح سنن الدارمي - أ.د. يسري جبر (كاملا)","category":"متنوع"},{"id":"JRBV6Y6nvaM","title":"مقرأة سورة المرسلات من آية ١٦","publishedAt":"2019-06-09T10:18:22Z","duration":"PT12M35S","thumbnail":"https://i.ytimg.com/vi/JRBV6Y6nvaM/mqdefault.jpg","viewCount":"416","playlistId":"PLEkQk5xrP-tnmTYsyW6xNdyfhPq0Bhrhj","playlistName":"مقرأة الفجر - القُرْآنُ الكَرِيمُ - خَتْمَةُ التَّدَبُّرِ  أ.د. يسري جبر","category":"متنوع"},{"id":"4oORSIwm6Gw","title":"شرح سنن الدارمي كتاب الزكاة من باب ١٦","publishedAt":"2019-06-08T22:32:20Z","duration":"PT21M17S","thumbnail":"https://i.ytimg.com/vi/4oORSIwm6Gw/mqdefault.jpg","viewCount":"304","playlistId":"PLEkQk5xrP-tmAg-FuWjY057X_h5NmGmAa","playlistName":"شرح سنن الدارمي - أ.د. يسري جبر (كاملا)","category":"متنوع"},{"id":"z1Z158tDO7E","title":"فَإِذَا فَرَغْتَ فَانصَبْ.  أ.د. يسري جبر","publishedAt":"2019-06-08T18:50:37Z","duration":"PT29M6S","thumbnail":"https://i.ytimg.com/vi/z1Z158tDO7E/mqdefault.jpg","viewCount":"1961","playlistId":"PLEkQk5xrP-tlArtGpeLWaqNM7h7IDeAVC","playlistName":"خطب الجمعة أ.د. يسري جبر","category":"خطب"},{"id":"wve-xsSjMFk","title":"مقرأة سورة المرسلات من أولها","publishedAt":"2019-06-08T09:11:48Z","duration":"PT8M8S","thumbnail":"https://i.ytimg.com/vi/wve-xsSjMFk/mqdefault.jpg","viewCount":"482","playlistId":"PLEkQk5xrP-tnmTYsyW6xNdyfhPq0Bhrhj","playlistName":"مقرأة الفجر - القُرْآنُ الكَرِيمُ - خَتْمَةُ التَّدَبُّرِ  أ.د. يسري جبر","category":"متنوع"},{"id":"4_F4P2pfyog","title":"شرح سنن الدارمي كتاب الزكاة من باب ١١","publishedAt":"2019-06-07T22:59:00Z","duration":"PT24M52S","thumbnail":"https://i.ytimg.com/vi/4_F4P2pfyog/mqdefault.jpg","viewCount":"270","playlistId":"PLEkQk5xrP-tmAg-FuWjY057X_h5NmGmAa","playlistName":"شرح سنن الدارمي - أ.د. يسري جبر (كاملا)","category":"متنوع"},{"id":"HMhr0xJNpFY","title":"خطبة عيد الفطرالمبارك   أ.د. يسري جبر","publishedAt":"2019-06-07T18:26:35Z","duration":"PT29M31S","thumbnail":"https://i.ytimg.com/vi/HMhr0xJNpFY/mqdefault.jpg","viewCount":"1070","playlistId":"PLEkQk5xrP-tnTGoEr4TI_tnp8L7Ujv9dx","playlistName":"خطب العيد","category":"خطب"},{"id":"l8P92lgw2mY","title":"مقرأة سورة الإنسان من آية ٢٢","publishedAt":"2019-06-07T10:49:34Z","duration":"PT10M58S","thumbnail":"https://i.ytimg.com/vi/l8P92lgw2mY/mqdefault.jpg","viewCount":"391","playlistId":"PLEkQk5xrP-tnmTYsyW6xNdyfhPq0Bhrhj","playlistName":"مقرأة الفجر - القُرْآنُ الكَرِيمُ - خَتْمَةُ التَّدَبُّرِ  أ.د. يسري جبر","category":"متنوع"}],"total":7670,"page":107,"pageSize":24,"totalPages":320}