{"items":[{"id":"--oc4y51OH0","title":"شرح صحيح البخاري - كتاب البيوع من باب ٥٠","publishedAt":"2017-04-29T17:04:24Z","duration":"PT48M52S","thumbnail":"https://i.ytimg.com/vi/--oc4y51OH0/mqdefault.jpg","viewCount":"1004","playlistId":"PLEkQk5xrP-tlEerGoLa1AFy-2XvQ-sovv","playlistName":"شرح صحيح البخاري - أ.د. يسري جبر (كاملا)","category":"حديث"},{"id":"-SmPC2JUTTI","title":"شرح كتاب نوراليقين في سيرة سيد المرسلين - المجلس الثامن ( الجهر بالتبليغ )   د.يسري جبر","publishedAt":"2017-04-29T15:37:30Z","duration":"PT46M51S","thumbnail":"https://i.ytimg.com/vi/-SmPC2JUTTI/mqdefault.jpg","viewCount":"33819","playlistId":"PLEkQk5xrP-tl2t4NQx1IhKnAJCMzF0Nli","playlistName":"شرح كتاب نور اليقين في سيرة سيد المرسلين   د. يسري جبر","category":"سيرة"},{"id":"1wMZyhy8AgY","title":"سورة التوبة آية 93","publishedAt":"2017-04-29T11:46:15Z","duration":"PT8M46S","thumbnail":"https://i.ytimg.com/vi/1wMZyhy8AgY/mqdefault.jpg","viewCount":"279","playlistId":"PLEkQk5xrP-tnmTYsyW6xNdyfhPq0Bhrhj","playlistName":"مقرأة الفجر - القُرْآنُ الكَرِيمُ - خَتْمَةُ التَّدَبُّرِ  أ.د. يسري جبر","category":"متنوع"},{"id":"ZVN5ZZpVJMk","title":"الاحتفال بمولد السيدة زينب رضي الله تعالى عنها، واستقبال شعبان     د. يسري جبر","publishedAt":"2017-04-28T19:30:28Z","duration":"PT33M55S","thumbnail":"https://i.ytimg.com/vi/ZVN5ZZpVJMk/mqdefault.jpg","viewCount":"10490","playlistId":"PLEkQk5xrP-tlArtGpeLWaqNM7h7IDeAVC","playlistName":"خطب الجمعة أ.د. يسري جبر","category":"خطب"},{"id":"n6d123dY9mo","title":"شرح صحيح البخاري - كتاب البيوع من باب ٣٩","publishedAt":"2017-04-28T09:13:33Z","duration":"PT51M7S","thumbnail":"https://i.ytimg.com/vi/n6d123dY9mo/mqdefault.jpg","viewCount":"875","playlistId":"PLEkQk5xrP-tlEerGoLa1AFy-2XvQ-sovv","playlistName":"شرح صحيح البخاري - أ.د. يسري جبر (كاملا)","category":"حديث"},{"id":"4rD7CHMCoqg","title":"سورة التوبة آية 84","publishedAt":"2017-04-28T06:58:21Z","duration":"PT17M29S","thumbnail":"https://i.ytimg.com/vi/4rD7CHMCoqg/mqdefault.jpg","viewCount":"386","playlistId":"PLEkQk5xrP-tnmTYsyW6xNdyfhPq0Bhrhj","playlistName":"مقرأة الفجر - القُرْآنُ الكَرِيمُ - خَتْمَةُ التَّدَبُّرِ  أ.د. يسري جبر","category":"متنوع"},{"id":"qkzK9Lmc5ns","title":"من عرف الحق، شهده في كل شيء، ومن فني به، غاب عن كل شيء، ومن أحبه، لم يؤثر عليه شيئا.","publishedAt":"2017-04-27T19:45:08Z","duration":"PT12M47S","thumbnail":"https://i.ytimg.com/vi/qkzK9Lmc5ns/mqdefault.jpg","viewCount":"6882","playlistId":"PLEkQk5xrP-tkI_meE148wc7V7XHlB0WPb","playlistName":"من الحكم العطائية  د. يسري جبر","category":"متنوع"},{"id":"dXoFlCB_lOA","title":"لكل نبي دعوة مستجابة    د. يسري جبر","publishedAt":"2017-04-27T16:55:44Z","duration":"PT10M19S","thumbnail":"https://i.ytimg.com/vi/dXoFlCB_lOA/mqdefault.jpg","viewCount":"1469","playlistId":"PLEkQk5xrP-tm8ZIu74nTOZN9KJUJu416J","playlistName":"مقاطع مُهمَّة (يُسريَّات) أ.د. يسري جبر","category":"متنوع"},{"id":"yFOYlOUax9E","title":"شرح صحيح الإمام البخاري رضي الله تعالى عنه - كتاب الدعوات   د. يسري جبر","publishedAt":"2017-04-27T16:08:56Z","duration":"PT59M5S","thumbnail":"https://i.ytimg.com/vi/yFOYlOUax9E/mqdefault.jpg","viewCount":"239","playlistId":"PLEkQk5xrP-tmJuzaj4GWRenFoFx9gdbFX","playlistName":"شرح كتاب صحيح الإمام البخاري رضي الله تعالى عنه   أ.د. يسرى جبر","category":"حديث"},{"id":"Elbh4B9hXxw","title":"شرح صحيح البخاري - كتاب البيوع من باب ٣٣","publishedAt":"2017-04-27T11:34:02Z","duration":"PT33M51S","thumbnail":"https://i.ytimg.com/vi/Elbh4B9hXxw/mqdefault.jpg","viewCount":"793","playlistId":"PLEkQk5xrP-tlEerGoLa1AFy-2XvQ-sovv","playlistName":"شرح صحيح البخاري - أ.د. يسري جبر (كاملا)","category":"حديث"},{"id":"NlFBSgaXx9s","title":"سورة التوبة آية 79","publishedAt":"2017-04-27T08:53:04Z","duration":"PT21M18S","thumbnail":"https://i.ytimg.com/vi/NlFBSgaXx9s/mqdefault.jpg","viewCount":"306","playlistId":"PLEkQk5xrP-tnmTYsyW6xNdyfhPq0Bhrhj","playlistName":"مقرأة الفجر - القُرْآنُ الكَرِيمُ - خَتْمَةُ التَّدَبُّرِ  أ.د. يسري جبر","category":"متنوع"},{"id":"uET1rapTFdI","title":"شرح صحيح البخاري - كتاب البيوع من باب ٢٥","publishedAt":"2017-04-26T20:44:50Z","duration":"PT44M7S","thumbnail":"https://i.ytimg.com/vi/uET1rapTFdI/mqdefault.jpg","viewCount":"854","playlistId":"PLEkQk5xrP-tlEerGoLa1AFy-2XvQ-sovv","playlistName":"شرح صحيح البخاري - أ.د. يسري جبر (كاملا)","category":"حديث"},{"id":"MqfdAVOA57w","title":"غيِّبْ نظر الخلق إليك بنظر الحق إليك، وغِبْ عن وجود إقبالهم عليك بشهود إقباله عليك.","publishedAt":"2017-04-26T19:47:12Z","duration":"PT13M31S","thumbnail":"https://i.ytimg.com/vi/MqfdAVOA57w/mqdefault.jpg","viewCount":"6456","playlistId":"PLEkQk5xrP-tkI_meE148wc7V7XHlB0WPb","playlistName":"من الحكم العطائية  د. يسري جبر","category":"متنوع"},{"id":"60MU5WDs8nE","title":"سورة التوبة آية 75","publishedAt":"2017-04-26T08:21:39Z","duration":"PT10M38S","thumbnail":"https://i.ytimg.com/vi/60MU5WDs8nE/mqdefault.jpg","viewCount":"299","playlistId":"PLEkQk5xrP-tnmTYsyW6xNdyfhPq0Bhrhj","playlistName":"مقرأة الفجر - القُرْآنُ الكَرِيمُ - خَتْمَةُ التَّدَبُّرِ  أ.د. يسري جبر","category":"متنوع"},{"id":"PKX9JiV8b6E","title":"سورة البقرة آية 60","publishedAt":"2016-04-22T09:22:24Z","duration":"PT22M23S","thumbnail":"https://i.ytimg.com/vi/PKX9JiV8b6E/mqdefault.jpg","viewCount":"1828","playlistId":"PLEkQk5xrP-tnmTYsyW6xNdyfhPq0Bhrhj","playlistName":"مقرأة الفجر - القُرْآنُ الكَرِيمُ - خَتْمَةُ التَّدَبُّرِ  أ.د. يسري جبر","category":"متنوع"},{"id":"Uzplm_0g23A","title":"شرح كتاب تفسير القرآن من سنن الترمذي - المجلس الرابع عشر","publishedAt":"2016-04-21T03:18:43Z","duration":"PT29M2S","thumbnail":"https://i.ytimg.com/vi/Uzplm_0g23A/mqdefault.jpg","viewCount":"82","playlistId":"PLEkQk5xrP-tnu6of679SvxdVx0qSrJzmb","playlistName":"شرح سنن الإمام الترمذي رضى الله عنه د. يسري جبر","category":"متنوع"},{"id":"Wk-XDwhSIxQ","title":"سُورة البقرة آية 50","publishedAt":"2016-04-21T03:18:07Z","duration":"PT25M43S","thumbnail":"https://i.ytimg.com/vi/Wk-XDwhSIxQ/mqdefault.jpg","viewCount":"2031","playlistId":"PLEkQk5xrP-tnmTYsyW6xNdyfhPq0Bhrhj","playlistName":"مقرأة الفجر - القُرْآنُ الكَرِيمُ - خَتْمَةُ التَّدَبُّرِ  أ.د. يسري جبر","category":"متنوع"},{"id":"Sq9jsHBc7AY","title":"10- مَا جَاءَ فِى النِّدَاءِ لِلصَّلاَةِ ك الصلاة ك الموطأ د يسري جبر الأزهري بمضيفة الشيخ سعيد الدح","publishedAt":"2016-04-20T09:29:39Z","duration":"PT58M35S","thumbnail":"https://i.ytimg.com/vi/Sq9jsHBc7AY/mqdefault.jpg","viewCount":"699","playlistId":"PLEkQk5xrP-tnC6BRuqMjyO-484iqXeg0o","playlistName":"شرح كتاب الموطأ للإمام مالك","category":"متنوع"},{"id":"DMVupGvdt6E","title":"شرح كتاب تفسير القرآن من سنن الترمذي - المجلس الثالث عشر","publishedAt":"2016-04-20T03:09:09Z","duration":"PT40M52S","thumbnail":"https://i.ytimg.com/vi/DMVupGvdt6E/mqdefault.jpg","viewCount":"102","playlistId":"PLEkQk5xrP-tnu6of679SvxdVx0qSrJzmb","playlistName":"شرح سنن الإمام الترمذي رضى الله عنه د. يسري جبر","category":"متنوع"},{"id":"QopIJXIauao","title":"سُورة البقرة آية 40","publishedAt":"2016-04-20T03:07:50Z","duration":"PT25M39S","thumbnail":"https://i.ytimg.com/vi/QopIJXIauao/mqdefault.jpg","viewCount":"2369","playlistId":"PLEkQk5xrP-tnmTYsyW6xNdyfhPq0Bhrhj","playlistName":"مقرأة الفجر - القُرْآنُ الكَرِيمُ - خَتْمَةُ التَّدَبُّرِ  أ.د. يسري جبر","category":"متنوع"},{"id":"-GYaus2hmNw","title":"صحيح الإمام البخاري رضي الله عنه - كتاب الذبائح والصيد والتسمية على الصيد -المجلس الثامن د. يسري جبر","publishedAt":"2016-04-19T15:46:12Z","duration":"PT1H7M3S","thumbnail":"https://i.ytimg.com/vi/-GYaus2hmNw/mqdefault.jpg","viewCount":"99","playlistId":"PLEkQk5xrP-tmJuzaj4GWRenFoFx9gdbFX","playlistName":"شرح كتاب صحيح الإمام البخاري رضي الله تعالى عنه   أ.د. يسرى جبر","category":"حديث"},{"id":"ZFn-FzHK3E0","title":"سورة البقرة آية 29","publishedAt":"2016-04-19T10:37:32Z","duration":"PT32M55S","thumbnail":"https://i.ytimg.com/vi/ZFn-FzHK3E0/mqdefault.jpg","viewCount":"2926","playlistId":"PLEkQk5xrP-tnmTYsyW6xNdyfhPq0Bhrhj","playlistName":"مقرأة الفجر - القُرْآنُ الكَرِيمُ - خَتْمَةُ التَّدَبُّرِ  أ.د. يسري جبر","category":"متنوع"},{"id":"FAP8ZcQj5nA","title":"شرح كتاب تفسير القرآن من سنن الترمذي - المجلس الحادي عشر","publishedAt":"2016-04-19T01:54:58Z","duration":"PT35M21S","thumbnail":"https://i.ytimg.com/vi/FAP8ZcQj5nA/mqdefault.jpg","viewCount":"120","playlistId":"PLEkQk5xrP-tnu6of679SvxdVx0qSrJzmb","playlistName":"شرح سنن الإمام الترمذي رضى الله عنه د. يسري جبر","category":"متنوع"},{"id":"cInXJeOy7Ow","title":"سُورة البقرة آية 26","publishedAt":"2016-04-18T03:15:14Z","duration":"PT27M17S","thumbnail":"https://i.ytimg.com/vi/cInXJeOy7Ow/mqdefault.jpg","viewCount":"3501","playlistId":"PLEkQk5xrP-tnmTYsyW6xNdyfhPq0Bhrhj","playlistName":"مقرأة الفجر - القُرْآنُ الكَرِيمُ - خَتْمَةُ التَّدَبُّرِ  أ.د. يسري جبر","category":"متنوع"}],"total":7670,"page":265,"pageSize":24,"totalPages":320}