{"items":[{"id":"7_x6cV_RPSI","title":"شرح صحيح البخاري كتاب اللباس من باب ١٩","publishedAt":"2018-08-14T22:11:36Z","duration":"PT27M3S","thumbnail":"https://i.ytimg.com/vi/7_x6cV_RPSI/mqdefault.jpg","viewCount":"7576","playlistId":"PLEkQk5xrP-tlEerGoLa1AFy-2XvQ-sovv","playlistName":"شرح صحيح البخاري - أ.د. يسري جبر (كاملا)","category":"حديث"},{"id":"lqkR5amBXkE","title":"مقرأة سورة سبأ من آية ٣٨","publishedAt":"2018-08-14T10:23:39Z","duration":"PT10M52S","thumbnail":"https://i.ytimg.com/vi/lqkR5amBXkE/mqdefault.jpg","viewCount":"324","playlistId":"PLEkQk5xrP-tnmTYsyW6xNdyfhPq0Bhrhj","playlistName":"مقرأة الفجر - القُرْآنُ الكَرِيمُ - خَتْمَةُ التَّدَبُّرِ  أ.د. يسري جبر","category":"متنوع"},{"id":"3OOBkNDBnNY","title":"69- باب طَلاَقِ الْبِكْرِ  ك الموطأ د يسري جبر الأزهري","publishedAt":"2018-08-14T09:35:57Z","duration":"PT35M47S","thumbnail":"https://i.ytimg.com/vi/3OOBkNDBnNY/mqdefault.jpg","viewCount":"242","playlistId":"PLEkQk5xrP-tnC6BRuqMjyO-484iqXeg0o","playlistName":"شرح كتاب الموطأ للإمام مالك","category":"متنوع"},{"id":"rl91aq3PYeU","title":"شرح صحيح البخاري كتاب اللباس من باب ٧","publishedAt":"2018-08-13T20:42:58Z","duration":"PT40M6S","thumbnail":"https://i.ytimg.com/vi/rl91aq3PYeU/mqdefault.jpg","viewCount":"562","playlistId":"PLEkQk5xrP-tlEerGoLa1AFy-2XvQ-sovv","playlistName":"شرح صحيح البخاري - أ.د. يسري جبر (كاملا)","category":"حديث"},{"id":"iW4if3uBVZU","title":"مقرأة سورة سبأ من آية ٣٤","publishedAt":"2018-08-13T07:55:16Z","duration":"PT9M30S","thumbnail":"https://i.ytimg.com/vi/iW4if3uBVZU/mqdefault.jpg","viewCount":"243","playlistId":"PLEkQk5xrP-tnmTYsyW6xNdyfhPq0Bhrhj","playlistName":"مقرأة الفجر - القُرْآنُ الكَرِيمُ - خَتْمَةُ التَّدَبُّرِ  أ.د. يسري جبر","category":"متنوع"},{"id":"rx0LhdO3ewY","title":"شرح صحيح البخاري كتاب اللباس من أوله","publishedAt":"2018-08-12T20:13:25Z","duration":"PT35M10S","thumbnail":"https://i.ytimg.com/vi/rx0LhdO3ewY/mqdefault.jpg","viewCount":"892","playlistId":"PLEkQk5xrP-tlEerGoLa1AFy-2XvQ-sovv","playlistName":"شرح صحيح البخاري - أ.د. يسري جبر (كاملا)","category":"حديث"},{"id":"YSfllCSoGqA","title":"تصحيحُ العَقائِدِ في العَشْر الأَوائل   د. يسري جبر","publishedAt":"2018-08-12T13:07:02Z","duration":"PT41M25S","thumbnail":"https://i.ytimg.com/vi/YSfllCSoGqA/mqdefault.jpg","viewCount":"925","playlistId":"PLEkQk5xrP-tlArtGpeLWaqNM7h7IDeAVC","playlistName":"خطب الجمعة أ.د. يسري جبر","category":"خطب"},{"id":"lgfz9gETzqk","title":"مقرأة سورة سبأ من آية ٢٨","publishedAt":"2018-08-12T08:36:28Z","duration":"PT12M25S","thumbnail":"https://i.ytimg.com/vi/lgfz9gETzqk/mqdefault.jpg","viewCount":"269","playlistId":"PLEkQk5xrP-tnmTYsyW6xNdyfhPq0Bhrhj","playlistName":"مقرأة الفجر - القُرْآنُ الكَرِيمُ - خَتْمَةُ التَّدَبُّرِ  أ.د. يسري جبر","category":"متنوع"},{"id":"sdNxThZm0i8","title":"شرح كتاب نور اليقين في سيرة سيد المرسلين - المجلس 57 (تكملة وُفُود عبد القيس) د.يسري جبر","publishedAt":"2018-08-12T01:32:43Z","duration":"PT47M40S","thumbnail":"https://i.ytimg.com/vi/sdNxThZm0i8/mqdefault.jpg","viewCount":"8887","playlistId":"PLEkQk5xrP-tl2t4NQx1IhKnAJCMzF0Nli","playlistName":"شرح كتاب نور اليقين في سيرة سيد المرسلين   د. يسري جبر","category":"سيرة"},{"id":"sRtNGcVaoVc","title":"شرح صحيح البخاري كتاب الطب من باب ٤٩","publishedAt":"2018-08-11T17:38:02Z","duration":"PT47M30S","thumbnail":"https://i.ytimg.com/vi/sRtNGcVaoVc/mqdefault.jpg","viewCount":"668","playlistId":"PLEkQk5xrP-tlEerGoLa1AFy-2XvQ-sovv","playlistName":"شرح صحيح البخاري - أ.د. يسري جبر (كاملا)","category":"حديث"},{"id":"eYw4bdId_8Y","title":"مقرأة سورة سبأ من آية ٢٢","publishedAt":"2018-08-11T13:05:51Z","duration":"PT19M41S","thumbnail":"https://i.ytimg.com/vi/eYw4bdId_8Y/mqdefault.jpg","viewCount":"293","playlistId":"PLEkQk5xrP-tnmTYsyW6xNdyfhPq0Bhrhj","playlistName":"مقرأة الفجر - القُرْآنُ الكَرِيمُ - خَتْمَةُ التَّدَبُّرِ  أ.د. يسري جبر","category":"متنوع"},{"id":"THfFRQkHhJ8","title":"شرح صحيح البخاري كتاب الطب من باب ٤٤","publishedAt":"2018-08-10T07:29:42Z","duration":"PT39M28S","thumbnail":"https://i.ytimg.com/vi/THfFRQkHhJ8/mqdefault.jpg","viewCount":"529","playlistId":"PLEkQk5xrP-tlEerGoLa1AFy-2XvQ-sovv","playlistName":"شرح صحيح البخاري - أ.د. يسري جبر (كاملا)","category":"حديث"},{"id":"-8-iBegeqZg","title":"مقرأة سورة سبأ من آية ١٥","publishedAt":"2018-08-09T20:13:24Z","duration":"PT20M42S","thumbnail":"https://i.ytimg.com/vi/-8-iBegeqZg/mqdefault.jpg","viewCount":"356","playlistId":"PLEkQk5xrP-tnmTYsyW6xNdyfhPq0Bhrhj","playlistName":"مقرأة الفجر - القُرْآنُ الكَرِيمُ - خَتْمَةُ التَّدَبُّرِ  أ.د. يسري جبر","category":"متنوع"},{"id":"slhPxFCfpjI","title":"شرح صحيح البخاري كتاب الطب من باب ٣٥","publishedAt":"2018-08-09T11:08:51Z","duration":"PT41M16S","thumbnail":"https://i.ytimg.com/vi/slhPxFCfpjI/mqdefault.jpg","viewCount":"537","playlistId":"PLEkQk5xrP-tlEerGoLa1AFy-2XvQ-sovv","playlistName":"شرح صحيح البخاري - أ.د. يسري جبر (كاملا)","category":"حديث"},{"id":"WI-85HOTOOY","title":"الرسالة القشيرية - المجلس السادس و العشرون - (التواجد والوجد والوجود).","publishedAt":"2018-08-09T05:34:32Z","duration":"PT50M52S","thumbnail":"https://i.ytimg.com/vi/WI-85HOTOOY/mqdefault.jpg","viewCount":"7993","playlistId":"PLEkQk5xrP-tkHAGOwIKr4pc5ehhyQ5HMJ","playlistName":"كتاب الرسالة القشيرية (تصوف) - د. يسري جبر","category":"تصوف"},{"id":"mDg7j5fU858","title":"مقرأة سورة سبأ من آية ١٣","publishedAt":"2018-08-08T13:31:26Z","duration":"PT15M59S","thumbnail":"https://i.ytimg.com/vi/mDg7j5fU858/mqdefault.jpg","viewCount":"523","playlistId":"PLEkQk5xrP-tnmTYsyW6xNdyfhPq0Bhrhj","playlistName":"مقرأة الفجر - القُرْآنُ الكَرِيمُ - خَتْمَةُ التَّدَبُّرِ  أ.د. يسري جبر","category":"متنوع"},{"id":"lF_stBts0ak","title":"(32) سيدنا أبو عُبيد البُسْرِي رضي الله عنه د. يسري جبر","publishedAt":"2018-08-07T18:32:37Z","duration":"PT4M47S","thumbnail":"https://i.ytimg.com/vi/lF_stBts0ak/mqdefault.jpg","viewCount":"788","playlistId":"PLEkQk5xrP-tmmI87XkWepRdTpisz2Lfgr","playlistName":"باب في ذكر مشايخ هذه الطريقة من شرح كتاب الرسالة القشيرية","category":"تصوف"},{"id":"CMQ-plazkC0","title":"شرح صحيح البخاري كتاب الطب من باب ٣٠","publishedAt":"2018-08-07T17:21:42Z","duration":"PT31M56S","thumbnail":"https://i.ytimg.com/vi/CMQ-plazkC0/mqdefault.jpg","viewCount":"589","playlistId":"PLEkQk5xrP-tlEerGoLa1AFy-2XvQ-sovv","playlistName":"شرح صحيح البخاري - أ.د. يسري جبر (كاملا)","category":"حديث"},{"id":"ar_F2osiXV4","title":"مقرأة سورة سبأ من آية ١٠","publishedAt":"2018-08-07T12:10:10Z","duration":"PT12M36S","thumbnail":"https://i.ytimg.com/vi/ar_F2osiXV4/mqdefault.jpg","viewCount":"356","playlistId":"PLEkQk5xrP-tnmTYsyW6xNdyfhPq0Bhrhj","playlistName":"مقرأة الفجر - القُرْآنُ الكَرِيمُ - خَتْمَةُ التَّدَبُّرِ  أ.د. يسري جبر","category":"متنوع"},{"id":"Ji_8lkAyxsk","title":"صحيح الإمام البخاري رضي الله عنه - كتاب استتابة المُرْتدِّين والمُعاندين وقتالهم - المجلس الرابع.","publishedAt":"2018-08-07T09:29:53Z","duration":"PT41M22S","thumbnail":"https://i.ytimg.com/vi/Ji_8lkAyxsk/mqdefault.jpg","viewCount":"134","playlistId":"PLEkQk5xrP-tmJuzaj4GWRenFoFx9gdbFX","playlistName":"شرح كتاب صحيح الإمام البخاري رضي الله تعالى عنه   أ.د. يسرى جبر","category":"حديث"},{"id":"7yPDTl4cEGE","title":"(31) سيدنا سُمنون بن حمزة رضي الله عنه د. يسري جبر","publishedAt":"2018-08-06T14:49:32Z","duration":"PT8M","thumbnail":"https://i.ytimg.com/vi/7yPDTl4cEGE/mqdefault.jpg","viewCount":"1329","playlistId":"PLEkQk5xrP-tmmI87XkWepRdTpisz2Lfgr","playlistName":"باب في ذكر مشايخ هذه الطريقة من شرح كتاب الرسالة القشيرية","category":"تصوف"},{"id":"p0pLIwS4Kw8","title":"(30) سيدنا أبو عبد الله عمرو بن عثمان المكي رضي الله عنه د. يسري جبر","publishedAt":"2018-08-06T14:24:14Z","duration":"PT13M38S","thumbnail":"https://i.ytimg.com/vi/p0pLIwS4Kw8/mqdefault.jpg","viewCount":"700","playlistId":"PLEkQk5xrP-tmmI87XkWepRdTpisz2Lfgr","playlistName":"باب في ذكر مشايخ هذه الطريقة من شرح كتاب الرسالة القشيرية","category":"تصوف"},{"id":"ckJdkpdeEtY","title":"شرح صحيح البخاري كتاب الطب من باب ٢٤","publishedAt":"2018-08-06T13:57:08Z","duration":"PT24M5S","thumbnail":"https://i.ytimg.com/vi/ckJdkpdeEtY/mqdefault.jpg","viewCount":"472","playlistId":"PLEkQk5xrP-tlEerGoLa1AFy-2XvQ-sovv","playlistName":"شرح صحيح البخاري - أ.د. يسري جبر (كاملا)","category":"حديث"},{"id":"PQgpa85dEE4","title":"مقرأة سورة سبأ من آية ٦","publishedAt":"2018-08-06T08:39:47Z","duration":"PT20M42S","thumbnail":"https://i.ytimg.com/vi/PQgpa85dEE4/mqdefault.jpg","viewCount":"362","playlistId":"PLEkQk5xrP-tnmTYsyW6xNdyfhPq0Bhrhj","playlistName":"مقرأة الفجر - القُرْآنُ الكَرِيمُ - خَتْمَةُ التَّدَبُّرِ  أ.د. يسري جبر","category":"متنوع"}],"total":7675,"page":206,"pageSize":24,"totalPages":320}