{"items":[{"id":"NIY_HRzbT70","title":"شرح سنن الدارمي كتاب فضائل القرآن من أوله","publishedAt":"2019-11-18T04:01:47Z","duration":"PT36M6S","thumbnail":"https://i.ytimg.com/vi/NIY_HRzbT70/mqdefault.jpg","viewCount":"660","playlistId":"PLEkQk5xrP-tmAg-FuWjY057X_h5NmGmAa","playlistName":"شرح سنن الدارمي - أ.د. يسري جبر (كاملا)","category":"متنوع"},{"id":"xxBDI0Ftv18","title":"لُغَتُنَا الجَمِيلَةُ. أ.د. يسري جبر","publishedAt":"2019-11-17T18:49:51Z","duration":"PT3M50S","thumbnail":"https://i.ytimg.com/vi/xxBDI0Ftv18/mqdefault.jpg","viewCount":"1536","playlistId":"PLEkQk5xrP-tm8ZIu74nTOZN9KJUJu416J","playlistName":"مقاطع مُهمَّة (يُسريَّات) أ.د. يسري جبر","category":"متنوع"},{"id":"k4OATHXb254","title":"شرح كتاب دلائل الخيرات - المجلس العاشر أ.د. يسري جبر","publishedAt":"2019-11-17T14:01:47Z","duration":"PT39M18S","thumbnail":"https://i.ytimg.com/vi/k4OATHXb254/mqdefault.jpg","viewCount":"18516","playlistId":"PLEkQk5xrP-tlAzcbIpuqjdFICW-knvTlR","playlistName":"شرح كتاب دلائل الخيرات وشوارق الأنوار","category":"متنوع"},{"id":"QDJr8J7I8x4","title":"دقائق في العقيدة.  أ.د. يسري جبر","publishedAt":"2019-11-16T21:54:49Z","duration":"PT51M25S","thumbnail":"https://i.ytimg.com/vi/QDJr8J7I8x4/mqdefault.jpg","viewCount":"17284","playlistId":"PLEkQk5xrP-tlArtGpeLWaqNM7h7IDeAVC","playlistName":"خطب الجمعة أ.د. يسري جبر","category":"خطب"},{"id":"8pkV4CSR1Bc","title":"الرسالة القشيرية - المجلس (70) بَابُ الاسْتِقَامَةِ. أ.د. يسري جبر","publishedAt":"2019-11-15T22:57:55Z","duration":"PT36M41S","thumbnail":"https://i.ytimg.com/vi/8pkV4CSR1Bc/mqdefault.jpg","viewCount":"4756","playlistId":"PLEkQk5xrP-tkHAGOwIKr4pc5ehhyQ5HMJ","playlistName":"كتاب الرسالة القشيرية (تصوف) - د. يسري جبر","category":"تصوف"},{"id":"rZB5Kr0rtGw","title":"شرح البرهان في علوم القرآن - النوع ١٤ - تنبيه : ترتيب وضع السور في المصحف","publishedAt":"2019-11-13T14:45:14Z","duration":"PT13M12S","thumbnail":"https://i.ytimg.com/vi/rZB5Kr0rtGw/mqdefault.jpg","viewCount":"685","playlistId":"PLEkQk5xrP-tnW3iBL7HkKziOFCFZbTlf0","playlistName":"شرح البرهان في علوم القرآن - أ.د. يسري جبر","category":"تفسير"},{"id":"Nmhi1QGjeF8","title":"\"جَعَلَنِي فَاتِحًا وَخَاتِمًا\"ﷺ  أ.د. يسري جبر","publishedAt":"2019-11-13T13:23:19Z","duration":"PT30M38S","thumbnail":"https://i.ytimg.com/vi/Nmhi1QGjeF8/mqdefault.jpg","viewCount":"13646","playlistId":"PLEkQk5xrP-tmJzNvLntpzW0uPanPzxA0c","playlistName":"لقاءات ومحاضرات","category":"متنوع"},{"id":"iEcIqReFzqE","title":"شرح مسند الإمام محمد بن إدريس الشافعيّ رضي الله تعالى عنه - المجلس الثالث    أ.د. يسري جبر","publishedAt":"2019-11-12T18:17:13Z","duration":"PT48M36S","thumbnail":"https://i.ytimg.com/vi/iEcIqReFzqE/mqdefault.jpg","viewCount":"1762","playlistId":"PLEkQk5xrP-tlDtaqY0qhNXAiZ19gaGzKI","playlistName":"شرح مسند الإمام محمد بن إدريس الشافعيّ رضي الله تعالى عنه","category":"فقه"},{"id":"zHhhCtiaTQc","title":"يّاإِمَامَ الرُّسْلِ يَاسَنَدِي","publishedAt":"2019-11-12T14:53:50Z","duration":"PT7M42S","thumbnail":"https://i.ytimg.com/vi/zHhhCtiaTQc/mqdefault.jpg","viewCount":"2953","playlistId":"PLEkQk5xrP-tlB8lmbwjAKR8KRgiykGKhb","playlistName":"حضرات يسرية ومدائح نبوية","category":"متنوع"},{"id":"jHOo03Xr3zk","title":"شرح صحيح الإمام البخاري رضي الله تعالى عنه - كتابُِ أَخْبَارِ الآحَادِ  أ.د. يسري جبر","publishedAt":"2019-11-11T19:10:50Z","duration":"PT30M54S","thumbnail":"https://i.ytimg.com/vi/jHOo03Xr3zk/mqdefault.jpg","viewCount":"298","playlistId":"PLEkQk5xrP-tmJuzaj4GWRenFoFx9gdbFX","playlistName":"شرح كتاب صحيح الإمام البخاري رضي الله تعالى عنه   أ.د. يسرى جبر","category":"حديث"},{"id":"d3QbvdzLguc","title":"شرح كتاب دلائل الخيرات - المجلس التاسع أ.د. يسري جبر","publishedAt":"2019-11-11T16:25:48Z","duration":"PT28M3S","thumbnail":"https://i.ytimg.com/vi/d3QbvdzLguc/mqdefault.jpg","viewCount":"17970","playlistId":"PLEkQk5xrP-tlAzcbIpuqjdFICW-knvTlR","playlistName":"شرح كتاب دلائل الخيرات وشوارق الأنوار","category":"متنوع"},{"id":"4xjwfPT8B1U","title":"الصَّلاةُ عَلَى النَّبِيِّ ﷺ ذِكْرٌ.  أ.د. يسري جبر","publishedAt":"2019-11-11T11:57:40Z","duration":"PT1M56S","thumbnail":"https://i.ytimg.com/vi/4xjwfPT8B1U/mqdefault.jpg","viewCount":"11947","playlistId":"PLEkQk5xrP-tm8ZIu74nTOZN9KJUJu416J","playlistName":"مقاطع مُهمَّة (يُسريَّات) أ.د. يسري جبر","category":"متنوع"},{"id":"4a2wxwowhDg","title":"شرح سنن الدارمي كتاب الوصايا من باب ٣٨","publishedAt":"2019-11-11T09:45:04Z","duration":"PT35M33S","thumbnail":"https://i.ytimg.com/vi/4a2wxwowhDg/mqdefault.jpg","viewCount":"264","playlistId":"PLEkQk5xrP-tmAg-FuWjY057X_h5NmGmAa","playlistName":"شرح سنن الدارمي - أ.د. يسري جبر (كاملا)","category":"متنوع"},{"id":"dEnzTJIuS5Q","title":"برحمتك نستغيث","publishedAt":"2019-11-10T10:48:52Z","duration":"PT2M19S","thumbnail":"https://i.ytimg.com/vi/dEnzTJIuS5Q/mqdefault.jpg","viewCount":"2717","playlistId":"PLEkQk5xrP-tm8ZIu74nTOZN9KJUJu416J","playlistName":"مقاطع مُهمَّة (يُسريَّات) أ.د. يسري جبر","category":"متنوع"},{"id":"oMT9ovPmLQk","title":"متى يكون الصيام حراماً ؟ | اعرف نبيك في رمضان","publishedAt":"2016-06-28T19:50:14Z","duration":"PT7M14S","thumbnail":"https://i.ytimg.com/vi/oMT9ovPmLQk/mqdefault.jpg","viewCount":"666","playlistId":"PLEkQk5xrP-tmhJ_gpAAFyOpEsHp0_VAJ-","playlistName":"برنامج اعرف نبيك في رمضان","category":"متنوع"},{"id":"6QCznoYLIbE","title":"الأدوية وأثرها في الصوم | اعرف نبيك في رمضان","publishedAt":"2016-06-23T21:12:05Z","duration":"PT8M8S","thumbnail":"https://i.ytimg.com/vi/6QCznoYLIbE/mqdefault.jpg","viewCount":"433","playlistId":"PLEkQk5xrP-tmhJ_gpAAFyOpEsHp0_VAJ-","playlistName":"برنامج اعرف نبيك في رمضان","category":"متنوع"},{"id":"m8IJ6bW7gMw","title":"( 119 ) حديث الإفك وبراءة السيدة عائشة أم المؤمنين منه - المجلس الثاني","publishedAt":"2016-06-23T14:44:52Z","duration":"PT31M1S","thumbnail":"https://i.ytimg.com/vi/m8IJ6bW7gMw/mqdefault.jpg","viewCount":"334","playlistId":"PLEkQk5xrP-tnl7vb7KeAoPd5ZlqKKW8KV","playlistName":"شرح كتاب بهجة النفوس أ.د . يسرى جبر","category":"متنوع"},{"id":"Z8k_Ro0ENWQ","title":"شروط الصيام مع د. يسري جبر | اعرف نبيك في رمضان","publishedAt":"2016-06-22T20:19:40Z","duration":"PT10M47S","thumbnail":"https://i.ytimg.com/vi/Z8k_Ro0ENWQ/mqdefault.jpg","viewCount":"569","playlistId":"PLEkQk5xrP-tmhJ_gpAAFyOpEsHp0_VAJ-","playlistName":"برنامج اعرف نبيك في رمضان","category":"متنوع"},{"id":"sETJKUDWDwU","title":"523- فعل المطاوعة - شرح البرهان في علوم القرآن","publishedAt":"2022-06-07T05:00:15Z","duration":"PT39M52S","thumbnail":"https://i.ytimg.com/vi/sETJKUDWDwU/mqdefault.jpg","viewCount":"871","playlistId":"PLEkQk5xrP-tnW3iBL7HkKziOFCFZbTlf0","playlistName":"شرح البرهان في علوم القرآن - أ.د. يسري جبر","category":"تفسير"},{"id":"k8e0ahrCd10","title":"ربنا نجاني من الموت بفضل حزب البحر!","publishedAt":"2022-06-06T19:09:26Z","duration":"PT9M41S","thumbnail":"https://i.ytimg.com/vi/k8e0ahrCd10/mqdefault.jpg","viewCount":"22738","playlistId":"PLEkQk5xrP-tm8ZIu74nTOZN9KJUJu416J","playlistName":"مقاطع مُهمَّة (يُسريَّات) أ.د. يسري جبر","category":"متنوع"},{"id":"ZadwHDkSY1M","title":"262- وُجوبُ طاعةِ وُلاة الأمور في غير معصيةٍ - شرح دليل الفالحين","publishedAt":"2022-06-06T05:00:21Z","duration":"PT52M55S","thumbnail":"https://i.ytimg.com/vi/ZadwHDkSY1M/mqdefault.jpg","viewCount":"1342","playlistId":"PLEkQk5xrP-tkc9DXvSLguqX5-FYp6ASR4","playlistName":"دليل الفالحين لطرق رياض الصالحين","category":"متنوع"},{"id":"L1r9Y-Cdpks","title":"522- حَسِبَ - كَادَ: ما الفرقُ بينهما؟ - شرح البرهان في علوم القرآن","publishedAt":"2022-06-05T05:00:07Z","duration":"PT31M46S","thumbnail":"https://i.ytimg.com/vi/L1r9Y-Cdpks/mqdefault.jpg","viewCount":"2611","playlistId":"PLEkQk5xrP-tnW3iBL7HkKziOFCFZbTlf0","playlistName":"شرح البرهان في علوم القرآن - أ.د. يسري جبر","category":"تفسير"},{"id":"k79Xmot4NoY","title":"بعد الطلاق,, كيف تتعامل مع أولادك؟","publishedAt":"2022-06-04T19:00:16Z","duration":"PT9M35S","thumbnail":"https://i.ytimg.com/vi/k79Xmot4NoY/mqdefault.jpg","viewCount":"3750","playlistId":"PLEkQk5xrP-tkGXuZ9atE3k_7it12rUPTs","playlistName":"أسئلة المتابعين","category":"متنوع"},{"id":"dLhuQLb2vns","title":"261- الوالي العادل - شرح دليل الفالحين","publishedAt":"2022-06-04T05:15:00Z","duration":"PT37M9S","thumbnail":"https://i.ytimg.com/vi/dLhuQLb2vns/mqdefault.jpg","viewCount":"1136","playlistId":"PLEkQk5xrP-tkc9DXvSLguqX5-FYp6ASR4","playlistName":"دليل الفالحين لطرق رياض الصالحين","category":"متنوع"}],"total":7670,"page":185,"pageSize":24,"totalPages":320}