{"items":[{"id":"f9aGbGX4z6o","title":"\"الرد على المعترضين على فيديو التسمية باسم محمد \"بالدليل","publishedAt":"2023-04-20T19:20:03Z","duration":"PT10M2S","thumbnail":"https://i.ytimg.com/vi/f9aGbGX4z6o/mqdefault.jpg","viewCount":"23889","playlistId":"PLEkQk5xrP-tkGXuZ9atE3k_7it12rUPTs","playlistName":"أسئلة المتابعين","category":"متنوع"},{"id":"NGgdkTmPUVk","title":"ما هي علامات الرؤيا الصالحة؟ | مجالس رمضانية","publishedAt":"2023-04-20T15:00:16Z","duration":"PT19M18S","thumbnail":"https://i.ytimg.com/vi/NGgdkTmPUVk/mqdefault.jpg","viewCount":"8460","playlistId":"PLEkQk5xrP-tnl7vb7KeAoPd5ZlqKKW8KV","playlistName":"شرح كتاب بهجة النفوس أ.د . يسرى جبر","category":"متنوع"},{"id":"hPniFi6BW4s","title":"حكم انتساب المرء الى غير أبيه | مجالس رمضانية","publishedAt":"2023-04-20T10:00:36Z","duration":"PT52M11S","thumbnail":"https://i.ytimg.com/vi/hPniFi6BW4s/mqdefault.jpg","viewCount":"1337","playlistId":"PLEkQk5xrP-tnl7vb7KeAoPd5ZlqKKW8KV","playlistName":"شرح كتاب بهجة النفوس أ.د . يسرى جبر","category":"متنوع"},{"id":"6TPGQOltXVc","title":"قيمة زكاة الفطر,, ومتى تخرجها؟","publishedAt":"2023-04-19T19:00:04Z","duration":"PT10M55S","thumbnail":"https://i.ytimg.com/vi/6TPGQOltXVc/mqdefault.jpg","viewCount":"5166","playlistId":"PLEkQk5xrP-tlArtGpeLWaqNM7h7IDeAVC","playlistName":"خطب الجمعة أ.د. يسري جبر","category":"خطب"},{"id":"d0_8UuUQWSs","title":"شرح كتاب البر والصلة من سنن الترمذي - المجلس الأول","publishedAt":"2015-11-06T06:02:05Z","duration":"PT33M11S","thumbnail":"https://i.ytimg.com/vi/d0_8UuUQWSs/mqdefault.jpg","viewCount":"289","playlistId":"PLEkQk5xrP-tnu6of679SvxdVx0qSrJzmb","playlistName":"شرح سنن الإمام الترمذي رضى الله عنه د. يسري جبر","category":"متنوع"},{"id":"XhPK1vXVhUo","title":"قراءة القرآن ( من أول سورة الزمر)","publishedAt":"2015-11-06T05:27:25Z","duration":"PT21M51S","thumbnail":"https://i.ytimg.com/vi/XhPK1vXVhUo/mqdefault.jpg","viewCount":"126","playlistId":"PLEkQk5xrP-tnUSUj0uyJhA-kwNC7Gkx_j","playlistName":"مقرأة الفجر - بداية من سورة الإسراء حتى سورة الناس","category":"تفسير"},{"id":"ZEOhpdZ-FeA","title":"شرح كتاب فتح القريب المجيب كتاب أحكام الزكاة د. يسري رشدي جبر","publishedAt":"2015-11-01T21:11:35Z","duration":"PT45M29S","thumbnail":"https://i.ytimg.com/vi/ZEOhpdZ-FeA/mqdefault.jpg","viewCount":"2150","playlistId":"PLEkQk5xrP-tlyOgfNBZTZgoATzVW4mI20","playlistName":"كتاب فتح القريب المجيب (علم الفقه الشافعي)","category":"فقه"},{"id":"H_zMY6_cO5Q","title":"شرح كتاب فتح القريب المجيب «باب أحكام صلاة الجمعة﻿» د. يسري رشدي جبر","publishedAt":"2015-10-31T18:26:01Z","duration":"PT1H26M36S","thumbnail":"https://i.ytimg.com/vi/H_zMY6_cO5Q/mqdefault.jpg","viewCount":"1624","playlistId":"PLEkQk5xrP-tlyOgfNBZTZgoATzVW4mI20","playlistName":"كتاب فتح القريب المجيب (علم الفقه الشافعي)","category":"فقه"},{"id":"33O5Jia5knY","title":"( 101 ) حَدِيثُ النَّهْىِ عَنِ الجُلُوسِ عَلَى الطَرِيقِ","publishedAt":"2015-10-30T11:01:54Z","duration":"PT35M52S","thumbnail":"https://i.ytimg.com/vi/33O5Jia5knY/mqdefault.jpg","viewCount":"300","playlistId":"PLEkQk5xrP-tnl7vb7KeAoPd5ZlqKKW8KV","playlistName":"شرح كتاب بهجة النفوس أ.د . يسرى جبر","category":"متنوع"},{"id":"PEuOSErirtg","title":"شرح كتاب فتح القريب المجيب كتاب الجنائز «فصل فيما يتعلق بالميت من غسله وتكفينه» د. يسري رشدي جبر","publishedAt":"2015-10-28T18:59:12Z","duration":"PT1H33M15S","thumbnail":"https://i.ytimg.com/vi/PEuOSErirtg/mqdefault.jpg","viewCount":"1343","playlistId":"PLEkQk5xrP-tlyOgfNBZTZgoATzVW4mI20","playlistName":"كتاب فتح القريب المجيب (علم الفقه الشافعي)","category":"فقه"},{"id":"goxE2tLTVT0","title":"شرح كتاب فتح القريب المجيب «فصلٌ في اللباس» د. يسري رشدي جبر","publishedAt":"2015-10-23T17:54:57Z","duration":"PT1H6M36S","thumbnail":"https://i.ytimg.com/vi/goxE2tLTVT0/mqdefault.jpg","viewCount":"1281","playlistId":"PLEkQk5xrP-tlyOgfNBZTZgoATzVW4mI20","playlistName":"كتاب فتح القريب المجيب (علم الفقه الشافعي)","category":"فقه"},{"id":"aMwMd35NvDo","title":"( 100 ) حَدِيثُ مَنْ لَمْ يُشْرِكْ بِاللهِ دَخَلَ الجَنَّةَ","publishedAt":"2015-10-22T19:34:40Z","duration":"PT41M3S","thumbnail":"https://i.ytimg.com/vi/aMwMd35NvDo/mqdefault.jpg","viewCount":"329","playlistId":"PLEkQk5xrP-tnl7vb7KeAoPd5ZlqKKW8KV","playlistName":"شرح كتاب بهجة النفوس أ.د . يسرى جبر","category":"متنوع"},{"id":"_RZ4vUy0kvc","title":"( 99 ) حَدِيثُ لَا حِمَى إِلَّا للهِ وَلِرَسُولِهِ","publishedAt":"2015-10-19T18:10:38Z","duration":"PT39M16S","thumbnail":"https://i.ytimg.com/vi/_RZ4vUy0kvc/mqdefault.jpg","viewCount":"368","playlistId":"PLEkQk5xrP-tnl7vb7KeAoPd5ZlqKKW8KV","playlistName":"شرح كتاب بهجة النفوس أ.د . يسرى جبر","category":"متنوع"},{"id":"6rwCISzRHFY","title":"( 98 ) حَدِيثُ جَوازِ الرُقَى وَالأَجْرِ عَلَيهَا - المجلس الثانى","publishedAt":"2015-10-18T15:16:42Z","duration":"PT28M36S","thumbnail":"https://i.ytimg.com/vi/6rwCISzRHFY/mqdefault.jpg","viewCount":"238","playlistId":"PLEkQk5xrP-tnl7vb7KeAoPd5ZlqKKW8KV","playlistName":"شرح كتاب بهجة النفوس أ.د . يسرى جبر","category":"متنوع"},{"id":"TiK-mWtZlcQ","title":"نصائح ستغير حياتك!","publishedAt":"2021-12-18T18:00:10Z","duration":"PT8M1S","thumbnail":"https://i.ytimg.com/vi/TiK-mWtZlcQ/mqdefault.jpg","viewCount":"10808","playlistId":"PLEkQk5xrP-tlArtGpeLWaqNM7h7IDeAVC","playlistName":"خطب الجمعة أ.د. يسري جبر","category":"خطب"},{"id":"Xj4E8w1y85o","title":"\"الَّذِينَ يَرِثُونَ ٱلْفِرْدَوْسَ هُمْ فِيهَا\" - تأنيث المذكَّر - شرح البرهان في علوم القرآن","publishedAt":"2021-12-18T06:34:07Z","duration":"PT22M40S","thumbnail":"https://i.ytimg.com/vi/Xj4E8w1y85o/mqdefault.jpg","viewCount":"872","playlistId":"PLEkQk5xrP-tnW3iBL7HkKziOFCFZbTlf0","playlistName":"شرح البرهان في علوم القرآن - أ.د. يسري جبر","category":"تفسير"},{"id":"feJdVubaISQ","title":"169- علاماتُ حُبِّ الله تعالى العبدَ والحَثِّ على التَّخلُّق بها - شرح دليل الفالحين","publishedAt":"2021-12-17T19:34:22Z","duration":"PT40M4S","thumbnail":"https://i.ytimg.com/vi/feJdVubaISQ/mqdefault.jpg","viewCount":"4108","playlistId":"PLEkQk5xrP-tkc9DXvSLguqX5-FYp6ASR4","playlistName":"دليل الفالحين لطرق رياض الصالحين","category":"متنوع"},{"id":"sbwB09bxYAA","title":"كيف تكون مسلما صالحا؟","publishedAt":"2021-12-16T17:30:09Z","duration":"PT45M47S","thumbnail":"https://i.ytimg.com/vi/sbwB09bxYAA/mqdefault.jpg","viewCount":"8129","playlistId":"PLEkQk5xrP-tlArtGpeLWaqNM7h7IDeAVC","playlistName":"خطب الجمعة أ.د. يسري جبر","category":"خطب"},{"id":"7tecGV1bOGs","title":"4- صلوات اليوم الرابع - صلوات الأسماء الحسنى، شرح الصلوات اليسرية على خير البرية ﷺ","publishedAt":"2025-02-28T07:00:07Z","duration":"PT16M50S","thumbnail":"https://i.ytimg.com/vi/7tecGV1bOGs/mqdefault.jpg","viewCount":"1404","playlistId":"PLEkQk5xrP-tk92TNE3xhWCFNr9VshA9Zj","playlistName":"الصلوات اليسرية على خير البرية ﷺ","category":"صلوات"},{"id":"DHgrRlIb-3U","title":"أسباب قبول العبادات | مجالس رمضانية","publishedAt":"2025-02-27T17:15:12Z","duration":"PT32M55S","thumbnail":"https://i.ytimg.com/vi/DHgrRlIb-3U/mqdefault.jpg","viewCount":"2324","playlistId":"PLEkQk5xrP-tkeI_WVPfuoTJO46aVkpaz0","playlistName":"شرح كتاب ميزان الاعتدال لحفظ الدين والأحوال","category":"متنوع"},{"id":"98SzrZ0bvSE","title":"3- صلوات اليوم الثالث - صلوات الأسماء الحسنى، شرح الصلوات اليسرية على خير البرية ﷺ","publishedAt":"2025-02-27T07:00:04Z","duration":"PT14M26S","thumbnail":"https://i.ytimg.com/vi/98SzrZ0bvSE/mqdefault.jpg","viewCount":"1659","playlistId":"PLEkQk5xrP-tk92TNE3xhWCFNr9VshA9Zj","playlistName":"الصلوات اليسرية على خير البرية ﷺ","category":"صلوات"},{"id":"esRT6wJvvk0","title":"2- صلوات اليوم الثاني - صلوات الأسماء الحسنى، شرح الصلوات اليسرية على خير البرية ﷺ","publishedAt":"2025-02-26T07:00:21Z","duration":"PT16M26S","thumbnail":"https://i.ytimg.com/vi/esRT6wJvvk0/mqdefault.jpg","viewCount":"1974","playlistId":"PLEkQk5xrP-tk92TNE3xhWCFNr9VshA9Zj","playlistName":"الصلوات اليسرية على خير البرية ﷺ","category":"صلوات"},{"id":"K08GDYv5hZM","title":"متى تسبق السُّنَّة الفرض؟","publishedAt":"2020-10-06T19:54:09Z","duration":"PT1M53S","thumbnail":"https://i.ytimg.com/vi/K08GDYv5hZM/mqdefault.jpg","viewCount":"3029","playlistId":"PLEkQk5xrP-tm8ZIu74nTOZN9KJUJu416J","playlistName":"مقاطع مُهمَّة (يُسريَّات) أ.د. يسري جبر","category":"متنوع"},{"id":"RgrW93yY1IU","title":"145- صِفةُ النَّبيّ ﷺ وأنه كان أحسن الناس وجهًا","publishedAt":"2020-10-06T07:52:44Z","duration":"PT30M39S","thumbnail":"https://i.ytimg.com/vi/RgrW93yY1IU/mqdefault.jpg","viewCount":"4135","playlistId":"PLEkQk5xrP-tmKNjtYLfhATC37QdIsTMe0","playlistName":"شرح كتاب اللؤلؤ والمرجان فيما اتفق عليه الشيخان إماما المحدثين البخاري ومسلم. أ.د. يسري جبر","category":"حديث"}],"total":7670,"page":12,"pageSize":24,"totalPages":320}