{"items":[{"id":"Hu9HFH-rtPU","title":"شرح البرهان في علوم القرآن - النوع ٢٩ - مسألة في استحباب الجهر بالقراءة","publishedAt":"2020-02-07T06:00:02Z","duration":"PT22M49S","thumbnail":"https://i.ytimg.com/vi/Hu9HFH-rtPU/mqdefault.jpg","viewCount":"314","playlistId":"PLEkQk5xrP-tnW3iBL7HkKziOFCFZbTlf0","playlistName":"شرح البرهان في علوم القرآن - أ.د. يسري جبر","category":"تفسير"},{"id":"Efm20ZK9nBE","title":"58- شرح اللؤلؤ والمرجان كتاب الزكاة من الباب السابع والأربعين","publishedAt":"2020-02-06T16:57:44Z","duration":"PT30M","thumbnail":"https://i.ytimg.com/vi/Efm20ZK9nBE/mqdefault.jpg","viewCount":"400","playlistId":"PLEkQk5xrP-tmKNjtYLfhATC37QdIsTMe0","playlistName":"شرح كتاب اللؤلؤ والمرجان فيما اتفق عليه الشيخان إماما المحدثين البخاري ومسلم. أ.د. يسري جبر","category":"حديث"},{"id":"p_-2dD2Axz8","title":"شرح البرهان في علوم القرآن - النوع ٢٩ - مسألة في التعوذ وقراءة البسملة عند التلاوة","publishedAt":"2020-02-06T16:57:43Z","duration":"PT27M28S","thumbnail":"https://i.ytimg.com/vi/p_-2dD2Axz8/mqdefault.jpg","viewCount":"360","playlistId":"PLEkQk5xrP-tnW3iBL7HkKziOFCFZbTlf0","playlistName":"شرح البرهان في علوم القرآن - أ.د. يسري جبر","category":"تفسير"},{"id":"SR1Hy2nNapU","title":"57- شرح اللؤلؤ والمرجان كتاب الزكاة من الباب الثالث والأربعين","publishedAt":"2020-02-06T06:00:03Z","duration":"PT24M2S","thumbnail":"https://i.ytimg.com/vi/SR1Hy2nNapU/mqdefault.jpg","viewCount":"403","playlistId":"PLEkQk5xrP-tmKNjtYLfhATC37QdIsTMe0","playlistName":"شرح كتاب اللؤلؤ والمرجان فيما اتفق عليه الشيخان إماما المحدثين البخاري ومسلم. أ.د. يسري جبر","category":"حديث"},{"id":"9-sAcuH8QDU","title":"شرح البرهان في علوم القرآن - النوع ٢٩ - مسألة في جواز أخذ الأجر على تعليم القرآن","publishedAt":"2020-02-06T06:00:00Z","duration":"PT30M52S","thumbnail":"https://i.ytimg.com/vi/9-sAcuH8QDU/mqdefault.jpg","viewCount":"347","playlistId":"PLEkQk5xrP-tnW3iBL7HkKziOFCFZbTlf0","playlistName":"شرح البرهان في علوم القرآن - أ.د. يسري جبر","category":"تفسير"},{"id":"uLzOg-3RNjU","title":"‎ الرسالة القشيرية - المجلس (80) بَابُ الخُلُق. أ.د. يسري جبر","publishedAt":"2020-02-05T22:17:52Z","duration":"PT59M15S","thumbnail":"https://i.ytimg.com/vi/uLzOg-3RNjU/mqdefault.jpg","viewCount":"3863","playlistId":"PLEkQk5xrP-tkHAGOwIKr4pc5ehhyQ5HMJ","playlistName":"كتاب الرسالة القشيرية (تصوف) - د. يسري جبر","category":"تصوف"},{"id":"wbCAxoQZUW0","title":"56- شرح اللؤلؤ والمرجان كتاب الزكاة من الباب الثاني والثلاثين","publishedAt":"2020-02-05T06:00:06Z","duration":"PT32M2S","thumbnail":"https://i.ytimg.com/vi/wbCAxoQZUW0/mqdefault.jpg","viewCount":"478","playlistId":"PLEkQk5xrP-tmKNjtYLfhATC37QdIsTMe0","playlistName":"شرح كتاب اللؤلؤ والمرجان فيما اتفق عليه الشيخان إماما المحدثين البخاري ومسلم. أ.د. يسري جبر","category":"حديث"},{"id":"DVRaOd3GXgA","title":"شرح البرهان في علوم القرآن - النوع ٢٩ - فصل في كراهة قراءة القرآن بلا تدبر","publishedAt":"2020-02-05T06:00:04Z","duration":"PT26M55S","thumbnail":"https://i.ytimg.com/vi/DVRaOd3GXgA/mqdefault.jpg","viewCount":"403","playlistId":"PLEkQk5xrP-tnW3iBL7HkKziOFCFZbTlf0","playlistName":"شرح البرهان في علوم القرآن - أ.د. يسري جبر","category":"تفسير"},{"id":"37BlITtrQEU","title":"55- شرح اللؤلؤ والمرجان كتاب الزكاة من الباب الرابع والعشرين","publishedAt":"2020-02-04T19:44:25Z","duration":"PT33M25S","thumbnail":"https://i.ytimg.com/vi/37BlITtrQEU/mqdefault.jpg","viewCount":"436","playlistId":"PLEkQk5xrP-tmKNjtYLfhATC37QdIsTMe0","playlistName":"شرح كتاب اللؤلؤ والمرجان فيما اتفق عليه الشيخان إماما المحدثين البخاري ومسلم. أ.د. يسري جبر","category":"حديث"},{"id":"qHMVtRnKG5g","title":"شرح البرهان في علوم القرآن - النوع ٢٩ - في آداب تلاوته وكيفيتها ٢","publishedAt":"2020-02-04T19:44:25Z","duration":"PT15M22S","thumbnail":"https://i.ytimg.com/vi/qHMVtRnKG5g/mqdefault.jpg","viewCount":"321","playlistId":"PLEkQk5xrP-tnW3iBL7HkKziOFCFZbTlf0","playlistName":"شرح البرهان في علوم القرآن - أ.د. يسري جبر","category":"تفسير"},{"id":"wveajyk_x_0","title":"54- شرح اللؤلؤ والمرجان كتاب الزكاة من الباب السادس عشر","publishedAt":"2020-02-03T06:00:08Z","duration":"PT27M18S","thumbnail":"https://i.ytimg.com/vi/wveajyk_x_0/mqdefault.jpg","viewCount":"477","playlistId":"PLEkQk5xrP-tmKNjtYLfhATC37QdIsTMe0","playlistName":"شرح كتاب اللؤلؤ والمرجان فيما اتفق عليه الشيخان إماما المحدثين البخاري ومسلم. أ.د. يسري جبر","category":"حديث"},{"id":"MqLvEKT1fMY","title":"شرح البرهان في علوم القرآن - النوع ٢٩ - في آداب تلاوته وكيفيتها","publishedAt":"2020-02-03T06:00:08Z","duration":"PT23M41S","thumbnail":"https://i.ytimg.com/vi/MqLvEKT1fMY/mqdefault.jpg","viewCount":"525","playlistId":"PLEkQk5xrP-tnW3iBL7HkKziOFCFZbTlf0","playlistName":"شرح البرهان في علوم القرآن - أ.د. يسري جبر","category":"تفسير"},{"id":"sd8uz5obQks","title":"53- شرح اللؤلؤ والمرجان كتاب الزكاة من الباب الثامن","publishedAt":"2020-02-02T06:00:08Z","duration":"PT33M51S","thumbnail":"https://i.ytimg.com/vi/sd8uz5obQks/mqdefault.jpg","viewCount":"497","playlistId":"PLEkQk5xrP-tmKNjtYLfhATC37QdIsTMe0","playlistName":"شرح كتاب اللؤلؤ والمرجان فيما اتفق عليه الشيخان إماما المحدثين البخاري ومسلم. أ.د. يسري جبر","category":"حديث"},{"id":"TmE2iwchEkc","title":"شرح البرهان في علوم القرآن - النوع ٢٨ - فصل في أي آية في القرآن أرجى","publishedAt":"2020-02-02T06:00:04Z","duration":"PT16M52S","thumbnail":"https://i.ytimg.com/vi/TmE2iwchEkc/mqdefault.jpg","viewCount":"417","playlistId":"PLEkQk5xrP-tnW3iBL7HkKziOFCFZbTlf0","playlistName":"شرح البرهان في علوم القرآن - أ.د. يسري جبر","category":"تفسير"},{"id":"_Y511U_2tEE","title":"شرح مسند الإمام محمد بن إدريس الشافعيّ رضي الله تعالى عنه - المجلس الثاني عشر  أ.د. يسري جبر","publishedAt":"2020-02-01T18:02:19Z","duration":"PT47M35S","thumbnail":"https://i.ytimg.com/vi/_Y511U_2tEE/mqdefault.jpg","viewCount":"770","playlistId":"PLEkQk5xrP-tlDtaqY0qhNXAiZ19gaGzKI","playlistName":"شرح مسند الإمام محمد بن إدريس الشافعيّ رضي الله تعالى عنه","category":"فقه"},{"id":"v0fg63BA_-k","title":"52- شرح اللؤلؤ والمرجان كتاب الزكاة من أوله","publishedAt":"2020-02-01T07:00:05Z","duration":"PT34M51S","thumbnail":"https://i.ytimg.com/vi/v0fg63BA_-k/mqdefault.jpg","viewCount":"677","playlistId":"PLEkQk5xrP-tmKNjtYLfhATC37QdIsTMe0","playlistName":"شرح كتاب اللؤلؤ والمرجان فيما اتفق عليه الشيخان إماما المحدثين البخاري ومسلم. أ.د. يسري جبر","category":"حديث"},{"id":"WCO_GeDkeWg","title":"شرح البرهان في علوم القرآن - النوع ٢٨ - فصل في أعظمية آية الكرسي ٢","publishedAt":"2020-02-01T07:00:02Z","duration":"PT13M34S","thumbnail":"https://i.ytimg.com/vi/WCO_GeDkeWg/mqdefault.jpg","viewCount":"505","playlistId":"PLEkQk5xrP-tnW3iBL7HkKziOFCFZbTlf0","playlistName":"شرح البرهان في علوم القرآن - أ.د. يسري جبر","category":"تفسير"},{"id":"jaIm_-TWkBk","title":"شرح كتاب دلائل الخيرات - المجلس الثامن عشر. أ.د. يسري جبر","publishedAt":"2020-01-30T16:55:29Z","duration":"PT34M26S","thumbnail":"https://i.ytimg.com/vi/jaIm_-TWkBk/mqdefault.jpg","viewCount":"10516","playlistId":"PLEkQk5xrP-tlAzcbIpuqjdFICW-knvTlR","playlistName":"شرح كتاب دلائل الخيرات وشوارق الأنوار","category":"متنوع"},{"id":"R0wq9nYdtv8","title":"51- شرح اللؤلؤ والمرجان كتاب صلاة الجنائز من الباب ٢٢","publishedAt":"2020-01-30T12:15:34Z","duration":"PT23M51S","thumbnail":"https://i.ytimg.com/vi/R0wq9nYdtv8/mqdefault.jpg","viewCount":"410","playlistId":"PLEkQk5xrP-tmKNjtYLfhATC37QdIsTMe0","playlistName":"شرح كتاب اللؤلؤ والمرجان فيما اتفق عليه الشيخان إماما المحدثين البخاري ومسلم. أ.د. يسري جبر","category":"حديث"},{"id":"hF42aEQTQx4","title":"شرح البرهان في علوم القرآن - النوع ٢٨ - فصل في أعظمية آية الكرسي","publishedAt":"2020-01-30T12:15:32Z","duration":"PT15M3S","thumbnail":"https://i.ytimg.com/vi/hF42aEQTQx4/mqdefault.jpg","viewCount":"862","playlistId":"PLEkQk5xrP-tnW3iBL7HkKziOFCFZbTlf0","playlistName":"شرح البرهان في علوم القرآن - أ.د. يسري جبر","category":"تفسير"},{"id":"8U618HXooP0","title":"شرح البرهان في علوم القرآن - النوع ٢٨ - هل في القرآن شيء أفضل من شيء؟","publishedAt":"2020-01-29T11:57:36Z","duration":"PT24M15S","thumbnail":"https://i.ytimg.com/vi/8U618HXooP0/mqdefault.jpg","viewCount":"537","playlistId":"PLEkQk5xrP-tnW3iBL7HkKziOFCFZbTlf0","playlistName":"شرح البرهان في علوم القرآن - أ.د. يسري جبر","category":"تفسير"},{"id":"JPZC_6pRAQs","title":"50- شرح اللؤلؤ والمرجان كتاب صلاة الجنائز من الباب ١٠","publishedAt":"2020-01-29T11:57:31Z","duration":"PT28M20S","thumbnail":"https://i.ytimg.com/vi/JPZC_6pRAQs/mqdefault.jpg","viewCount":"447","playlistId":"PLEkQk5xrP-tmKNjtYLfhATC37QdIsTMe0","playlistName":"شرح كتاب اللؤلؤ والمرجان فيما اتفق عليه الشيخان إماما المحدثين البخاري ومسلم. أ.د. يسري جبر","category":"حديث"},{"id":"B_Gz7apu9F8","title":"حولَ عِصْمَةِ الأنبياءِ (3)  أ.د/ يسري جبر","publishedAt":"2020-01-28T21:18:27Z","duration":"PT39M42S","thumbnail":"https://i.ytimg.com/vi/B_Gz7apu9F8/mqdefault.jpg","viewCount":"760","playlistId":"PLEkQk5xrP-tlArtGpeLWaqNM7h7IDeAVC","playlistName":"خطب الجمعة أ.د. يسري جبر","category":"خطب"},{"id":"qEkNk8EZv4Q","title":"49- شرح اللؤلؤ والمرجان كتاب صلاة الجنائز من أوله","publishedAt":"2020-01-28T12:03:49Z","duration":"PT25M22S","thumbnail":"https://i.ytimg.com/vi/qEkNk8EZv4Q/mqdefault.jpg","viewCount":"525","playlistId":"PLEkQk5xrP-tmKNjtYLfhATC37QdIsTMe0","playlistName":"شرح كتاب اللؤلؤ والمرجان فيما اتفق عليه الشيخان إماما المحدثين البخاري ومسلم. أ.د. يسري جبر","category":"حديث"}],"total":7670,"page":124,"pageSize":24,"totalPages":320}