{"items":[{"id":"wZ5m8avk_F4","title":"كيف تشكر نعم الله عليك؟ | مجالس رمضانية","publishedAt":"2025-03-11T15:01:24Z","duration":"PT24M23S","thumbnail":"https://i.ytimg.com/vi/wZ5m8avk_F4/mqdefault.jpg","viewCount":"3877","playlistId":"PLEkQk5xrP-tkeI_WVPfuoTJO46aVkpaz0","playlistName":"شرح كتاب ميزان الاعتدال لحفظ الدين والأحوال","category":"متنوع"},{"id":"1j8pGJ8YJ_o","title":"كيف أتغلب على النفس الأمارة بالسوء؟","publishedAt":"2025-03-10T18:30:02Z","duration":"PT8M15S","thumbnail":"https://i.ytimg.com/vi/1j8pGJ8YJ_o/mqdefault.jpg","viewCount":"5400","playlistId":"PLEkQk5xrP-tkGXuZ9atE3k_7it12rUPTs","playlistName":"أسئلة المتابعين","category":"متنوع"},{"id":"AfdehqiYnIQ","title":"هل صلاة الجمعة تسقط فرض الظهر؟ | مجالس رمضانية","publishedAt":"2025-03-10T15:00:19Z","duration":"PT25M7S","thumbnail":"https://i.ytimg.com/vi/AfdehqiYnIQ/mqdefault.jpg","viewCount":"1296","playlistId":"PLEkQk5xrP-tkeI_WVPfuoTJO46aVkpaz0","playlistName":"شرح كتاب ميزان الاعتدال لحفظ الدين والأحوال","category":"متنوع"},{"id":"H79K50fmMwQ","title":"لماذا يحاسبنا الله على أعمالنا وهي مكتوبة علينا؟","publishedAt":"2025-03-09T18:30:16Z","duration":"PT14M45S","thumbnail":"https://i.ytimg.com/vi/H79K50fmMwQ/mqdefault.jpg","viewCount":"2580","playlistId":"PLEkQk5xrP-tlArtGpeLWaqNM7h7IDeAVC","playlistName":"خطب الجمعة أ.د. يسري جبر","category":"خطب"},{"id":"cpFkM74nI5g","title":"فضل وثواب صلاة الجماعة | مجالس رمضانية","publishedAt":"2025-03-09T15:00:50Z","duration":"PT18M55S","thumbnail":"https://i.ytimg.com/vi/cpFkM74nI5g/mqdefault.jpg","viewCount":"1385","playlistId":"PLEkQk5xrP-tkeI_WVPfuoTJO46aVkpaz0","playlistName":"شرح كتاب ميزان الاعتدال لحفظ الدين والأحوال","category":"متنوع"},{"id":"mxBSRzEeFxs","title":"ازاي تتحرر من إدمان التليفون والسوشيال ميديا؟","publishedAt":"2025-03-08T18:30:42Z","duration":"PT8M51S","thumbnail":"https://i.ytimg.com/vi/mxBSRzEeFxs/mqdefault.jpg","viewCount":"16720","playlistId":"PLEkQk5xrP-tm8ZIu74nTOZN9KJUJu416J","playlistName":"مقاطع مُهمَّة (يُسريَّات) أ.د. يسري جبر","category":"متنوع"},{"id":"njGhMc4ECic","title":"كيف تكون صلاتي مقبولة؟ | مجالس رمضانية","publishedAt":"2025-03-08T15:00:57Z","duration":"PT14M33S","thumbnail":"https://i.ytimg.com/vi/njGhMc4ECic/mqdefault.jpg","viewCount":"1479","playlistId":"PLEkQk5xrP-tkeI_WVPfuoTJO46aVkpaz0","playlistName":"شرح كتاب ميزان الاعتدال لحفظ الدين والأحوال","category":"متنوع"},{"id":"NABO4m3Nisk","title":"كيف تتغلب على شهواتك في رمضان؟","publishedAt":"2025-03-07T18:30:25Z","duration":"PT15M6S","thumbnail":"https://i.ytimg.com/vi/NABO4m3Nisk/mqdefault.jpg","viewCount":"2128","playlistId":"PLEkQk5xrP-tlArtGpeLWaqNM7h7IDeAVC","playlistName":"خطب الجمعة أ.د. يسري جبر","category":"خطب"},{"id":"h1pBJGYNex4","title":"كيف أتخلص من التركيز الزائد في أمور الدنيا؟ | مجالس رمضانية","publishedAt":"2025-03-07T15:01:01Z","duration":"PT33M41S","thumbnail":"https://i.ytimg.com/vi/h1pBJGYNex4/mqdefault.jpg","viewCount":"6415","playlistId":"PLEkQk5xrP-tkeI_WVPfuoTJO46aVkpaz0","playlistName":"شرح كتاب ميزان الاعتدال لحفظ الدين والأحوال","category":"متنوع"},{"id":"MLo675wtzgk","title":"حاسس أني تايه في الدين بسبب تعدد الطوائف والأفكار ,, فماذا أفعل؟","publishedAt":"2025-03-06T18:30:25Z","duration":"PT8M53S","thumbnail":"https://i.ytimg.com/vi/MLo675wtzgk/mqdefault.jpg","viewCount":"3862","playlistId":"PLEkQk5xrP-tkGXuZ9atE3k_7it12rUPTs","playlistName":"أسئلة المتابعين","category":"متنوع"},{"id":"M7Q9jUt2gv4","title":"كيف تجعل صلاتك مقبولة عند الله؟ | مجالس رمضانية","publishedAt":"2025-03-06T15:00:32Z","duration":"PT15M15S","thumbnail":"https://i.ytimg.com/vi/M7Q9jUt2gv4/mqdefault.jpg","viewCount":"2471","playlistId":"PLEkQk5xrP-tkeI_WVPfuoTJO46aVkpaz0","playlistName":"شرح كتاب ميزان الاعتدال لحفظ الدين والأحوال","category":"متنوع"},{"id":"CvDaH7eo-p0","title":"كيف تتحقق بالشهادتين في طريقك إلى الله؟","publishedAt":"2025-03-05T18:30:13Z","duration":"PT11M51S","thumbnail":"https://i.ytimg.com/vi/CvDaH7eo-p0/mqdefault.jpg","viewCount":"1013","playlistId":"PLEkQk5xrP-tlArtGpeLWaqNM7h7IDeAVC","playlistName":"خطب الجمعة أ.د. يسري جبر","category":"خطب"},{"id":"JeAuYap3w-Q","title":"لا أستطيع الخشوع في الصلاة ,, فماذا أفعل؟ | مجالس رمضانية","publishedAt":"2025-03-05T15:00:20Z","duration":"PT20M29S","thumbnail":"https://i.ytimg.com/vi/JeAuYap3w-Q/mqdefault.jpg","viewCount":"3742","playlistId":"PLEkQk5xrP-tkeI_WVPfuoTJO46aVkpaz0","playlistName":"شرح كتاب ميزان الاعتدال لحفظ الدين والأحوال","category":"متنوع"},{"id":"I_fF6y_LW7k","title":"ازاي اجتهد للآخرة زي ما بجتهد للدنيا؟","publishedAt":"2025-03-04T18:30:13Z","duration":"PT8M28S","thumbnail":"https://i.ytimg.com/vi/I_fF6y_LW7k/mqdefault.jpg","viewCount":"4782","playlistId":"PLEkQk5xrP-tm8ZIu74nTOZN9KJUJu416J","playlistName":"مقاطع مُهمَّة (يُسريَّات) أ.د. يسري جبر","category":"متنوع"},{"id":"tZ24xySBMWc","title":"عبادة تجعلك مستعدًا لدخول الجنة في أي لحظة! | مجالس رمضانية","publishedAt":"2025-03-04T15:01:22Z","duration":"PT22M32S","thumbnail":"https://i.ytimg.com/vi/tZ24xySBMWc/mqdefault.jpg","viewCount":"5069","playlistId":"PLEkQk5xrP-tkeI_WVPfuoTJO46aVkpaz0","playlistName":"شرح كتاب ميزان الاعتدال لحفظ الدين والأحوال","category":"متنوع"},{"id":"WWWRKGs98l4","title":"154- حال النَّبي ﷺ عند نزول الوحي - شرح مسند الإمام أحمد رضي الله تعالى عنه","publishedAt":"2025-03-04T06:15:01Z","duration":"PT34M1S","thumbnail":"https://i.ytimg.com/vi/WWWRKGs98l4/mqdefault.jpg","viewCount":"550","playlistId":"PLEkQk5xrP-tkKprIuGrSdEuBSMsyg5We1","playlistName":"شرح مسند الإمام أحمد بن حنبل","category":"متنوع"},{"id":"lE0W4twba6w","title":"ما هي أفضل الأعمال في شهر رمضان؟","publishedAt":"2025-03-03T18:30:38Z","duration":"PT19M1S","thumbnail":"https://i.ytimg.com/vi/lE0W4twba6w/mqdefault.jpg","viewCount":"4668","playlistId":"PLEkQk5xrP-tlArtGpeLWaqNM7h7IDeAVC","playlistName":"خطب الجمعة أ.د. يسري جبر","category":"خطب"},{"id":"GfhSE06wCSg","title":"فضل كثرة السجود وسر القرب من النبي في الجنة | مجالس رمضانية","publishedAt":"2025-03-03T15:00:20Z","duration":"PT20M43S","thumbnail":"https://i.ytimg.com/vi/GfhSE06wCSg/mqdefault.jpg","viewCount":"2849","playlistId":"PLEkQk5xrP-tkeI_WVPfuoTJO46aVkpaz0","playlistName":"شرح كتاب ميزان الاعتدال لحفظ الدين والأحوال","category":"متنوع"},{"id":"Mp5SWSxZLBQ","title":"هل يجوز عقد الزواج عن طريق الانترنت؟","publishedAt":"2025-03-02T18:30:17Z","duration":"PT8M58S","thumbnail":"https://i.ytimg.com/vi/Mp5SWSxZLBQ/mqdefault.jpg","viewCount":"1312","playlistId":"PLEkQk5xrP-tkGXuZ9atE3k_7it12rUPTs","playlistName":"أسئلة المتابعين","category":"متنوع"},{"id":"VbG120MA-F4","title":"سنن بسيطة تبني لك بيتا في الجنة | مجالس رمضانية","publishedAt":"2025-03-02T15:00:39Z","duration":"PT21M47S","thumbnail":"https://i.ytimg.com/vi/VbG120MA-F4/mqdefault.jpg","viewCount":"3052","playlistId":"PLEkQk5xrP-tkeI_WVPfuoTJO46aVkpaz0","playlistName":"شرح كتاب ميزان الاعتدال لحفظ الدين والأحوال","category":"متنوع"},{"id":"dY4-3G9QE-I","title":"6- صلوات اليوم السادس - صلوات الأسماء الحسنى، شرح الصلوات اليسرية على خير البرية ﷺ","publishedAt":"2025-03-02T06:15:02Z","duration":"PT12M32S","thumbnail":"https://i.ytimg.com/vi/dY4-3G9QE-I/mqdefault.jpg","viewCount":"1768","playlistId":"PLEkQk5xrP-tk92TNE3xhWCFNr9VshA9Zj","playlistName":"الصلوات اليسرية على خير البرية ﷺ","category":"صلوات"},{"id":"RA4gqv3bzyU","title":"كيف تجعل رمضان مختلفًا هذا العام؟","publishedAt":"2025-03-01T18:30:31Z","duration":"PT17M13S","thumbnail":"https://i.ytimg.com/vi/RA4gqv3bzyU/mqdefault.jpg","viewCount":"8695","playlistId":"PLEkQk5xrP-tlArtGpeLWaqNM7h7IDeAVC","playlistName":"خطب الجمعة أ.د. يسري جبر","category":"خطب"},{"id":"Q6fBN_GEy2A","title":"دليلك للمواظبة على صلاتك | مجالس رمضانية","publishedAt":"2025-03-01T15:00:36Z","duration":"PT27M28S","thumbnail":"https://i.ytimg.com/vi/Q6fBN_GEy2A/mqdefault.jpg","viewCount":"2958","playlistId":"PLEkQk5xrP-tkeI_WVPfuoTJO46aVkpaz0","playlistName":"شرح كتاب ميزان الاعتدال لحفظ الدين والأحوال","category":"متنوع"},{"id":"82D6JeUu-kg","title":"5- صلوات اليوم الخامس - صلوات الأسماء الحسنى، شرح الصلوات اليسرية على خير البرية ﷺ","publishedAt":"2025-03-01T06:30:02Z","duration":"PT16M18S","thumbnail":"https://i.ytimg.com/vi/82D6JeUu-kg/mqdefault.jpg","viewCount":"1509","playlistId":"PLEkQk5xrP-tk92TNE3xhWCFNr9VshA9Zj","playlistName":"الصلوات اليسرية على خير البرية ﷺ","category":"صلوات"}],"total":7675,"page":14,"pageSize":24,"totalPages":320}