{"items":[{"id":"xkDXFnIeeOI","title":"مقرأة سورة الحاقة من آية ٣٨","publishedAt":"2019-05-13T12:47:45Z","duration":"PT15M46S","thumbnail":"https://i.ytimg.com/vi/xkDXFnIeeOI/mqdefault.jpg","viewCount":"354","playlistId":"PLEkQk5xrP-tnmTYsyW6xNdyfhPq0Bhrhj","playlistName":"مقرأة الفجر - القُرْآنُ الكَرِيمُ - خَتْمَةُ التَّدَبُّرِ  أ.د. يسري جبر","category":"متنوع"},{"id":"JwtNikjaMZ4","title":"شرح سنن الدارمي كتاب الصلاة من باب ٩٩","publishedAt":"2019-05-12T22:37:49Z","duration":"PT35M52S","thumbnail":"https://i.ytimg.com/vi/JwtNikjaMZ4/mqdefault.jpg","viewCount":"334","playlistId":"PLEkQk5xrP-tmAg-FuWjY057X_h5NmGmAa","playlistName":"شرح سنن الدارمي - أ.د. يسري جبر (كاملا)","category":"متنوع"},{"id":"FtQHmIBNEyU","title":"الطَّاعَةُ بِالتَّرْكِ أوْلَى عِندَ اللَّه    أ.د. يسري جبر","publishedAt":"2019-05-12T15:50:18Z","duration":"PT46M19S","thumbnail":"https://i.ytimg.com/vi/FtQHmIBNEyU/mqdefault.jpg","viewCount":"1134","playlistId":"PLEkQk5xrP-tlArtGpeLWaqNM7h7IDeAVC","playlistName":"خطب الجمعة أ.د. يسري جبر","category":"خطب"},{"id":"jkOLT2bTGEY","title":"المجلس السابع عشر من الحديث (١٦٠) حديث إسراء النبي صلى الله عليه وآله وسلم ومعراجه أ. د. يسري جبر","publishedAt":"2019-05-12T14:34:13Z","duration":"PT28M14S","thumbnail":"https://i.ytimg.com/vi/jkOLT2bTGEY/mqdefault.jpg","viewCount":"495","playlistId":"PLEkQk5xrP-tnl7vb7KeAoPd5ZlqKKW8KV","playlistName":"شرح كتاب بهجة النفوس أ.د . يسرى جبر","category":"متنوع"},{"id":"tgYuJdhSLXI","title":"مقرأة سورة الحاقة من آية ٢٥","publishedAt":"2019-05-12T10:30:06Z","duration":"PT14M11S","thumbnail":"https://i.ytimg.com/vi/tgYuJdhSLXI/mqdefault.jpg","viewCount":"274","playlistId":"PLEkQk5xrP-tnmTYsyW6xNdyfhPq0Bhrhj","playlistName":"مقرأة الفجر - القُرْآنُ الكَرِيمُ - خَتْمَةُ التَّدَبُّرِ  أ.د. يسري جبر","category":"متنوع"},{"id":"Btj0mtvDp6k","title":"شرح سنن الدارمي كتاب الصلاة من باب ٩٢","publishedAt":"2019-05-11T22:03:50Z","duration":"PT39M39S","thumbnail":"https://i.ytimg.com/vi/Btj0mtvDp6k/mqdefault.jpg","viewCount":"372","playlistId":"PLEkQk5xrP-tmAg-FuWjY057X_h5NmGmAa","playlistName":"شرح سنن الدارمي - أ.د. يسري جبر (كاملا)","category":"متنوع"},{"id":"-n7tGrwaEiw","title":"المجلس السادس عشر من الحديث (١٦٠) حديث إسراء النبي صلى الله عليه وآله وسلم ومعراجه أ. د. يسري جبر","publishedAt":"2019-05-11T17:00:28Z","duration":"PT32M36S","thumbnail":"https://i.ytimg.com/vi/-n7tGrwaEiw/mqdefault.jpg","viewCount":"548","playlistId":"PLEkQk5xrP-tnl7vb7KeAoPd5ZlqKKW8KV","playlistName":"شرح كتاب بهجة النفوس أ.د . يسرى جبر","category":"متنوع"},{"id":"fc3KHYePcaE","title":"مقرأة سورة الحاقة من آية ١٩","publishedAt":"2019-05-11T12:26:46Z","duration":"PT11M3S","thumbnail":"https://i.ytimg.com/vi/fc3KHYePcaE/mqdefault.jpg","viewCount":"292","playlistId":"PLEkQk5xrP-tnmTYsyW6xNdyfhPq0Bhrhj","playlistName":"مقرأة الفجر - القُرْآنُ الكَرِيمُ - خَتْمَةُ التَّدَبُّرِ  أ.د. يسري جبر","category":"متنوع"},{"id":"ONvQugM77qE","title":"170- فضل الدعاء باللهم آتنا في الدنيا حسنة وفي الآخرة حسنة وقنا عذاب النار","publishedAt":"2020-11-24T06:56:03Z","duration":"PT14M22S","thumbnail":"https://i.ytimg.com/vi/ONvQugM77qE/mqdefault.jpg","viewCount":"8890","playlistId":"PLEkQk5xrP-tmKNjtYLfhATC37QdIsTMe0","playlistName":"شرح كتاب اللؤلؤ والمرجان فيما اتفق عليه الشيخان إماما المحدثين البخاري ومسلم. أ.د. يسري جبر","category":"حديث"},{"id":"zbB7vnhxtOE","title":"نهاية العالم","publishedAt":"2020-11-23T19:12:48Z","duration":"PT10M47S","thumbnail":"https://i.ytimg.com/vi/zbB7vnhxtOE/mqdefault.jpg","viewCount":"151409","playlistId":"PLEkQk5xrP-tm8ZIu74nTOZN9KJUJu416J","playlistName":"مقاطع مُهمَّة (يُسريَّات) أ.د. يسري جبر","category":"متنوع"},{"id":"2ja2-Q9i3Xg","title":"الاستفهام والمراد به الإنشاء","publishedAt":"2020-11-23T08:27:52Z","duration":"PT19M19S","thumbnail":"https://i.ytimg.com/vi/2ja2-Q9i3Xg/mqdefault.jpg","viewCount":"466","playlistId":"PLEkQk5xrP-tnW3iBL7HkKziOFCFZbTlf0","playlistName":"شرح البرهان في علوم القرآن - أ.د. يسري جبر","category":"تفسير"},{"id":"8hsWqSOyHcE","title":"موت الشباب المفاجئ!","publishedAt":"2020-11-22T17:45:00Z","duration":"PT2M48S","thumbnail":"https://i.ytimg.com/vi/8hsWqSOyHcE/mqdefault.jpg","viewCount":"7171","playlistId":"PLEkQk5xrP-tm8ZIu74nTOZN9KJUJu416J","playlistName":"مقاطع مُهمَّة (يُسريَّات) أ.د. يسري جبر","category":"متنوع"},{"id":"mVr9E6ztICk","title":"169- الحثُّ على ذِكْر الله تعالى","publishedAt":"2020-11-22T07:49:00Z","duration":"PT22M25S","thumbnail":"https://i.ytimg.com/vi/mVr9E6ztICk/mqdefault.jpg","viewCount":"6134","playlistId":"PLEkQk5xrP-tmKNjtYLfhATC37QdIsTMe0","playlistName":"شرح كتاب اللؤلؤ والمرجان فيما اتفق عليه الشيخان إماما المحدثين البخاري ومسلم. أ.د. يسري جبر","category":"حديث"},{"id":"M_kdSWpAxQ0","title":"هل يجوز زواج المسلمة من غير المسلم؟","publishedAt":"2020-11-21T18:00:06Z","duration":"PT18M57S","thumbnail":"https://i.ytimg.com/vi/M_kdSWpAxQ0/mqdefault.jpg","viewCount":"45769","playlistId":"PLEkQk5xrP-tm8ZIu74nTOZN9KJUJu416J","playlistName":"مقاطع مُهمَّة (يُسريَّات) أ.د. يسري جبر","category":"متنوع"},{"id":"9-HI-Z8BZoY","title":"53-“يا غُلامُ إنِّي أعلِّمُكَ كلِماتٍ...”الحديث (3) باب المراقبة - شرح دليل الفالحين","publishedAt":"2021-05-04T05:26:34Z","duration":"PT38M52S","thumbnail":"https://i.ytimg.com/vi/9-HI-Z8BZoY/mqdefault.jpg","viewCount":"1826","playlistId":"PLEkQk5xrP-tkc9DXvSLguqX5-FYp6ASR4","playlistName":"دليل الفالحين لطرق رياض الصالحين","category":"متنوع"},{"id":"0-0ySEMzpnk","title":"كيف تتجنب الوقوع في الزنا؟ | أ.د. يسري جبر","publishedAt":"2021-05-03T16:00:00Z","duration":"PT29M38S","thumbnail":"https://i.ytimg.com/vi/0-0ySEMzpnk/mqdefault.jpg","viewCount":"5140","playlistId":"PLEkQk5xrP-tnl7vb7KeAoPd5ZlqKKW8KV","playlistName":"شرح كتاب بهجة النفوس أ.د . يسرى جبر","category":"متنوع"},{"id":"BKdzTeRp6zE","title":"معنى استفت قلبك,, ومتى تستفتي قلبك؟","publishedAt":"2021-05-02T19:15:00Z","duration":"PT8M29S","thumbnail":"https://i.ytimg.com/vi/BKdzTeRp6zE/mqdefault.jpg","viewCount":"4236","playlistId":"PLEkQk5xrP-tlArtGpeLWaqNM7h7IDeAVC","playlistName":"خطب الجمعة أ.د. يسري جبر","category":"خطب"},{"id":"By_zFZce_ak","title":"الخشوع عند قراءة القرآن | أ.د. يسري جبر","publishedAt":"2021-05-02T15:30:02Z","duration":"PT23M54S","thumbnail":"https://i.ytimg.com/vi/By_zFZce_ak/mqdefault.jpg","viewCount":"2625","playlistId":"PLEkQk5xrP-tnl7vb7KeAoPd5ZlqKKW8KV","playlistName":"شرح كتاب بهجة النفوس أ.د . يسرى جبر","category":"متنوع"},{"id":"x3rdlLsbJ7I","title":"القِسمُ (15) من التوكيد: الزيادة في بنية الكلمة - شرح البرهان في علوم القرآن","publishedAt":"2021-05-02T05:05:38Z","duration":"PT10M31S","thumbnail":"https://i.ytimg.com/vi/x3rdlLsbJ7I/mqdefault.jpg","viewCount":"292","playlistId":"PLEkQk5xrP-tnW3iBL7HkKziOFCFZbTlf0","playlistName":"شرح البرهان في علوم القرآن - أ.د. يسري جبر","category":"تفسير"},{"id":"w_8HhDMAN_8","title":"لطائف وإشارات في غزوة بدر","publishedAt":"2021-05-01T19:15:01Z","duration":"PT12M59S","thumbnail":"https://i.ytimg.com/vi/w_8HhDMAN_8/mqdefault.jpg","viewCount":"1839","playlistId":"PLEkQk5xrP-tlArtGpeLWaqNM7h7IDeAVC","playlistName":"خطب الجمعة أ.د. يسري جبر","category":"خطب"},{"id":"MltTrtDHX2Y","title":"فضل قراءة القرآن للراكب | أ.د. يسري جبر","publishedAt":"2021-05-01T15:30:02Z","duration":"PT26M19S","thumbnail":"https://i.ytimg.com/vi/MltTrtDHX2Y/mqdefault.jpg","viewCount":"1361","playlistId":"PLEkQk5xrP-tnl7vb7KeAoPd5ZlqKKW8KV","playlistName":"شرح كتاب بهجة النفوس أ.د . يسرى جبر","category":"متنوع"},{"id":"1MhPmuB0k1s","title":"52-“اتق اللهَ حيثما كنت، وأتْبع السيئةَ الحسنةَ تمحها...”الحديث (2) باب المراقبة - شرح دليل الفالحين","publishedAt":"2021-05-01T05:06:04Z","duration":"PT27M28S","thumbnail":"https://i.ytimg.com/vi/1MhPmuB0k1s/mqdefault.jpg","viewCount":"2149","playlistId":"PLEkQk5xrP-tkc9DXvSLguqX5-FYp6ASR4","playlistName":"دليل الفالحين لطرق رياض الصالحين","category":"متنوع"},{"id":"IC6sD9lwZVQ","title":"288- استحباب كون ساقي القوم آخرهم شُربًا - شرح دليل الفالحين","publishedAt":"2022-08-18T18:45:01Z","duration":"PT35M14S","thumbnail":"https://i.ytimg.com/vi/IC6sD9lwZVQ/mqdefault.jpg","viewCount":"789","playlistId":"PLEkQk5xrP-tkc9DXvSLguqX5-FYp6ASR4","playlistName":"دليل الفالحين لطرق رياض الصالحين","category":"متنوع"},{"id":"vboGILHsZI0","title":"12- صِفاتُ المعاني: عِلْمُهُ المُحِيطُ بِالأَشْيَاءِ *** حَيَاتُهُ وَقُدْرَةٌ إِرَادَةٌ…","publishedAt":"2022-08-18T05:56:00Z","duration":"PT1H8M26S","thumbnail":"https://i.ytimg.com/vi/vboGILHsZI0/mqdefault.jpg","viewCount":"3051","playlistId":"PLEkQk5xrP-tmNuYT8JAh6clwa4krsgkNo","playlistName":"شرح كتاب الفُتُوحات اليُسريَّة في عقائد الأُمَّة المُحمَّديَّة","category":"متنوع"}],"total":7670,"page":194,"pageSize":24,"totalPages":320}