{"items":[{"id":"zrXAvhKCE1o","title":"464- النهي عن البصاق في المسجد والأمر بإزالته منه إذا وُجد فيه والأمر بتنزيه المسجد عن الأقذار","publishedAt":"2023-06-02T08:59:00Z","duration":"PT32M32S","thumbnail":"https://i.ytimg.com/vi/zrXAvhKCE1o/mqdefault.jpg","viewCount":"463","playlistId":"PLEkQk5xrP-tkc9DXvSLguqX5-FYp6ASR4","playlistName":"دليل الفالحين لطرق رياض الصالحين","category":"متنوع"},{"id":"D26faSFPW9s","title":"89- غريب القرآن(4)- ما جاء في سورة سبأ - شرح الإتقان في علوم القرآن","publishedAt":"2023-06-02T05:00:10Z","duration":"PT31M3S","thumbnail":"https://i.ytimg.com/vi/D26faSFPW9s/mqdefault.jpg","viewCount":"630","playlistId":"PLEkQk5xrP-tlPw10KGJKagu7zm4Ry2Tge","playlistName":"شرح الإتقان في علوم القرآن","category":"تفسير"},{"id":"zhL2k0i4Da0","title":"463- تحريم اتخاذ الكلب إلا لصيد أو ماشية أو زرع  - شرح دليل الفالحين","publishedAt":"2023-06-01T18:00:19Z","duration":"PT22M29S","thumbnail":"https://i.ytimg.com/vi/zhL2k0i4Da0/mqdefault.jpg","viewCount":"567","playlistId":"PLEkQk5xrP-tkc9DXvSLguqX5-FYp6ASR4","playlistName":"دليل الفالحين لطرق رياض الصالحين","category":"متنوع"},{"id":"CG8E5sjgl1E","title":"88- غريب القرآن(3) - ما جاء في سورة إبراهيم عليه السلام - شرح الإتقان في علوم","publishedAt":"2023-06-01T05:00:04Z","duration":"PT37M45S","thumbnail":"https://i.ytimg.com/vi/CG8E5sjgl1E/mqdefault.jpg","viewCount":"955","playlistId":"PLEkQk5xrP-tlPw10KGJKagu7zm4Ry2Tge","playlistName":"شرح الإتقان في علوم القرآن","category":"تفسير"},{"id":"w7SapB2Q7nU","title":"462- حكم تصوير الحيوان واتخاذ الصورة في حائط وغيره - شرح دليل الفالحين","publishedAt":"2023-05-31T08:59:00Z","duration":"PT35M45S","thumbnail":"https://i.ytimg.com/vi/w7SapB2Q7nU/mqdefault.jpg","viewCount":"990","playlistId":"PLEkQk5xrP-tkc9DXvSLguqX5-FYp6ASR4","playlistName":"دليل الفالحين لطرق رياض الصالحين","category":"متنوع"},{"id":"-SfhdEmr1Hw","title":"87- غريب القرآن (2) - ما جاء في سورة النساء وما بعدها - شرح الإتقان في علوم القرآن","publishedAt":"2023-05-31T05:00:00Z","duration":"PT28M29S","thumbnail":"https://i.ytimg.com/vi/-SfhdEmr1Hw/mqdefault.jpg","viewCount":"767","playlistId":"PLEkQk5xrP-tlPw10KGJKagu7zm4Ry2Tge","playlistName":"شرح الإتقان في علوم القرآن","category":"تفسير"},{"id":"8Xnz3exag6U","title":"461- النهي عن التَّطَيُّر - شرح دليل الفالحين","publishedAt":"2023-05-30T18:00:04Z","duration":"PT22M15S","thumbnail":"https://i.ytimg.com/vi/8Xnz3exag6U/mqdefault.jpg","viewCount":"605","playlistId":"PLEkQk5xrP-tkc9DXvSLguqX5-FYp6ASR4","playlistName":"دليل الفالحين لطرق رياض الصالحين","category":"متنوع"},{"id":"_c2jNOXMRN8","title":"86- غريب القرآن - شرح الإتقان في علوم القرآن","publishedAt":"2023-05-30T08:59:00Z","duration":"PT17M59S","thumbnail":"https://i.ytimg.com/vi/_c2jNOXMRN8/mqdefault.jpg","viewCount":"730","playlistId":"PLEkQk5xrP-tlPw10KGJKagu7zm4Ry2Tge","playlistName":"شرح الإتقان في علوم القرآن","category":"تفسير"},{"id":"nnqczT6gBbw","title":"ما حكم الزواج العُرفيّ؟","publishedAt":"2021-04-01T15:15:03Z","duration":"PT8M40S","thumbnail":"https://i.ytimg.com/vi/nnqczT6gBbw/mqdefault.jpg","viewCount":"9558","playlistId":"PLEkQk5xrP-tm8ZIu74nTOZN9KJUJu416J","playlistName":"مقاطع مُهمَّة (يُسريَّات) أ.د. يسري جبر","category":"متنوع"},{"id":"BoFyOZODmT4","title":"38- هل البكاء ضد الصَّبر؟ من بابُ الصَّبر: الحديثُ الخامس - شرح دليل الفالحين","publishedAt":"2021-04-01T05:50:08Z","duration":"PT35M33S","thumbnail":"https://i.ytimg.com/vi/BoFyOZODmT4/mqdefault.jpg","viewCount":"1690","playlistId":"PLEkQk5xrP-tkc9DXvSLguqX5-FYp6ASR4","playlistName":"دليل الفالحين لطرق رياض الصالحين","category":"متنوع"},{"id":"8JxPxc_NBDw","title":"القِسمُ التاسع من التوكيد: وضع الظاهر موضع المُضْمَر (6) شرح البرهان في علوم القرآن","publishedAt":"2021-03-31T18:10:55Z","duration":"PT30M59S","thumbnail":"https://i.ytimg.com/vi/8JxPxc_NBDw/mqdefault.jpg","viewCount":"305","playlistId":"PLEkQk5xrP-tnW3iBL7HkKziOFCFZbTlf0","playlistName":"شرح البرهان في علوم القرآن - أ.د. يسري جبر","category":"تفسير"},{"id":"k7W8mMw6LdM","title":"37- بابُ الصَّبر: الحديثُ الرابع\"..ليسَ علَى أبِيكِ كَرْبٌ بَعْدَ اليَومِ..\"شرح دليل الفالحين","publishedAt":"2021-03-31T05:54:07Z","duration":"PT22M55S","thumbnail":"https://i.ytimg.com/vi/k7W8mMw6LdM/mqdefault.jpg","viewCount":"1046","playlistId":"PLEkQk5xrP-tkc9DXvSLguqX5-FYp6ASR4","playlistName":"دليل الفالحين لطرق رياض الصالحين","category":"متنوع"},{"id":"XAD_FP-wuI4","title":"حكم ختان الإناث","publishedAt":"2021-03-30T20:00:06Z","duration":"PT8M23S","thumbnail":"https://i.ytimg.com/vi/XAD_FP-wuI4/mqdefault.jpg","viewCount":"54386","playlistId":"PLEkQk5xrP-tm8ZIu74nTOZN9KJUJu416J","playlistName":"مقاطع مُهمَّة (يُسريَّات) أ.د. يسري جبر","category":"متنوع"},{"id":"9um22N8G8-4","title":"القِسمُ التاسع من التوكيد: وضع الظاهر موضع المُضْمَر (5) شرح البرهان في علوم القرآن","publishedAt":"2021-03-30T06:33:15Z","duration":"PT13M27S","thumbnail":"https://i.ytimg.com/vi/9um22N8G8-4/mqdefault.jpg","viewCount":"345","playlistId":"PLEkQk5xrP-tnW3iBL7HkKziOFCFZbTlf0","playlistName":"شرح البرهان في علوم القرآن - أ.د. يسري جبر","category":"تفسير"},{"id":"YWi9EJdROWU","title":"سُورة البقرة آية 67","publishedAt":"2016-04-22T20:22:40Z","duration":"PT25M8S","thumbnail":"https://i.ytimg.com/vi/YWi9EJdROWU/mqdefault.jpg","viewCount":"1709","playlistId":"PLEkQk5xrP-tnmTYsyW6xNdyfhPq0Bhrhj","playlistName":"مقرأة الفجر - القُرْآنُ الكَرِيمُ - خَتْمَةُ التَّدَبُّرِ  أ.د. يسري جبر","category":"متنوع"},{"id":"NmRcTsStrAE","title":"درس الجمعة ١٥ رجب ١٤٣٧هـ","publishedAt":"2016-04-22T19:35:36Z","duration":"PT1H37M27S","thumbnail":"https://i.ytimg.com/vi/NmRcTsStrAE/mqdefault.jpg","viewCount":"289","playlistId":"PLEkQk5xrP-tmYN0y2PQUkx881GYBxD16g","playlistName":"درس الجمعة","category":"خطب"},{"id":"zBxkZNoQeoA","title":"شرح كتاب تفسير القرآن من سنن الترمذي - المجلس السادس عشر","publishedAt":"2016-04-22T18:23:29Z","duration":"PT37M50S","thumbnail":"https://i.ytimg.com/vi/zBxkZNoQeoA/mqdefault.jpg","viewCount":"102","playlistId":"PLEkQk5xrP-tnu6of679SvxdVx0qSrJzmb","playlistName":"شرح سنن الإمام الترمذي رضى الله عنه د. يسري جبر","category":"متنوع"},{"id":"rQ9a_wq9qLg","title":"شرح كتاب تفسير القرآن من سنن الترمذي - المجلس الخامس عشر","publishedAt":"2016-04-22T09:23:37Z","duration":"PT33M4S","thumbnail":"https://i.ytimg.com/vi/rQ9a_wq9qLg/mqdefault.jpg","viewCount":"83","playlistId":"PLEkQk5xrP-tnu6of679SvxdVx0qSrJzmb","playlistName":"شرح سنن الإمام الترمذي رضى الله عنه د. يسري جبر","category":"متنوع"},{"id":"OmeS26EQ1kM","title":"شرح البرهان في علوم القرآن - النوع ٤٠ - في بيان معاضدة السنة للقرآن ٤","publishedAt":"2020-04-03T07:00:06Z","duration":"PT27M22S","thumbnail":"https://i.ytimg.com/vi/OmeS26EQ1kM/mqdefault.jpg","viewCount":"330","playlistId":"PLEkQk5xrP-tnW3iBL7HkKziOFCFZbTlf0","playlistName":"شرح البرهان في علوم القرآن - أ.د. يسري جبر","category":"تفسير"},{"id":"ugtvb3hQPgU","title":"شرح البرهان في علوم القرآن - النوع ٤٠ - في بيان معاضدة السنة للقرآن ٣","publishedAt":"2020-04-02T11:00:22Z","duration":"PT23M22S","thumbnail":"https://i.ytimg.com/vi/ugtvb3hQPgU/mqdefault.jpg","viewCount":"429","playlistId":"PLEkQk5xrP-tnW3iBL7HkKziOFCFZbTlf0","playlistName":"شرح البرهان في علوم القرآن - أ.د. يسري جبر","category":"تفسير"},{"id":"4ThZhyElqUQ","title":"112- شرح اللؤلؤ والمرجان كتاب الجهاد من الباب التاسع عشر","publishedAt":"2020-04-02T11:00:00Z","duration":"PT33M47S","thumbnail":"https://i.ytimg.com/vi/4ThZhyElqUQ/mqdefault.jpg","viewCount":"362","playlistId":"PLEkQk5xrP-tmKNjtYLfhATC37QdIsTMe0","playlistName":"شرح كتاب اللؤلؤ والمرجان فيما اتفق عليه الشيخان إماما المحدثين البخاري ومسلم. أ.د. يسري جبر","category":"حديث"},{"id":"rVuA8e4xpWc","title":"111- شرح اللؤلؤ والمرجان كتاب الجهاد من الباب السادس عشر","publishedAt":"2020-04-01T07:00:15Z","duration":"PT20M24S","thumbnail":"https://i.ytimg.com/vi/rVuA8e4xpWc/mqdefault.jpg","viewCount":"474","playlistId":"PLEkQk5xrP-tmKNjtYLfhATC37QdIsTMe0","playlistName":"شرح كتاب اللؤلؤ والمرجان فيما اتفق عليه الشيخان إماما المحدثين البخاري ومسلم. أ.د. يسري جبر","category":"حديث"},{"id":"gjW0xlvRHYw","title":"شرح البرهان في علوم القرآن - النوع ٤٠ - في بيان معاضدة السنة للقرآن ٢","publishedAt":"2020-04-01T07:00:12Z","duration":"PT36M2S","thumbnail":"https://i.ytimg.com/vi/gjW0xlvRHYw/mqdefault.jpg","viewCount":"420","playlistId":"PLEkQk5xrP-tnW3iBL7HkKziOFCFZbTlf0","playlistName":"شرح البرهان في علوم القرآن - أ.د. يسري جبر","category":"تفسير"},{"id":"9SijymE11Ls","title":"حفظ القرآن  أ.د. يسري جبر","publishedAt":"2020-03-31T11:43:57Z","duration":"PT10M15S","thumbnail":"https://i.ytimg.com/vi/9SijymE11Ls/mqdefault.jpg","viewCount":"26872","playlistId":"PLEkQk5xrP-tm8ZIu74nTOZN9KJUJu416J","playlistName":"مقاطع مُهمَّة (يُسريَّات) أ.د. يسري جبر","category":"متنوع"}],"total":7670,"page":118,"pageSize":24,"totalPages":320}