{"items":[{"id":"Ya2cgmrzZBQ","title":"سورة المائدة آية 97","publishedAt":"2016-11-23T06:58:58Z","duration":"PT7M59S","thumbnail":"https://i.ytimg.com/vi/Ya2cgmrzZBQ/mqdefault.jpg","viewCount":"322","playlistId":"PLEkQk5xrP-tnmTYsyW6xNdyfhPq0Bhrhj","playlistName":"مقرأة الفجر - القُرْآنُ الكَرِيمُ - خَتْمَةُ التَّدَبُّرِ  أ.د. يسري جبر","category":"متنوع"},{"id":"gugi20yXffM","title":"شرح صحيح البخاري كتاب الأذان من باب ٩١","publishedAt":"2016-11-22T19:43:00Z","duration":"PT25M49S","thumbnail":"https://i.ytimg.com/vi/gugi20yXffM/mqdefault.jpg","viewCount":"1165","playlistId":"PLEkQk5xrP-tlEerGoLa1AFy-2XvQ-sovv","playlistName":"شرح صحيح البخاري - أ.د. يسري جبر (كاملا)","category":"حديث"},{"id":"qdttEucs4tc","title":"سورة المائدة آية 94","publishedAt":"2016-11-22T19:18:55Z","duration":"PT19M26S","thumbnail":"https://i.ytimg.com/vi/qdttEucs4tc/mqdefault.jpg","viewCount":"398","playlistId":"PLEkQk5xrP-tnmTYsyW6xNdyfhPq0Bhrhj","playlistName":"مقرأة الفجر - القُرْآنُ الكَرِيمُ - خَتْمَةُ التَّدَبُّرِ  أ.د. يسري جبر","category":"متنوع"},{"id":"faMnNlJ1CYw","title":"شرح صحيح البخاري كتاب الأذان من باب 83","publishedAt":"2016-11-22T06:43:54Z","duration":"PT30M54S","thumbnail":"https://i.ytimg.com/vi/faMnNlJ1CYw/mqdefault.jpg","viewCount":"1008","playlistId":"PLEkQk5xrP-tlEerGoLa1AFy-2XvQ-sovv","playlistName":"شرح صحيح البخاري - أ.د. يسري جبر (كاملا)","category":"حديث"},{"id":"PMZSxEBiIcw","title":"سورة المائدة آية 90","publishedAt":"2016-11-22T06:38:17Z","duration":"PT18M39S","thumbnail":"https://i.ytimg.com/vi/PMZSxEBiIcw/mqdefault.jpg","viewCount":"367","playlistId":"PLEkQk5xrP-tnmTYsyW6xNdyfhPq0Bhrhj","playlistName":"مقرأة الفجر - القُرْآنُ الكَرِيمُ - خَتْمَةُ التَّدَبُّرِ  أ.د. يسري جبر","category":"متنوع"},{"id":"VLXaUJnOBKg","title":"صحيح الإمام البخاري رضي الله عنه - كتاب الأدب - باب عقوق الوالدين - المجلس الثاني د. يسري جبر","publishedAt":"2016-11-21T19:02:42Z","duration":"PT42M43S","thumbnail":"https://i.ytimg.com/vi/VLXaUJnOBKg/mqdefault.jpg","viewCount":"283","playlistId":"PLEkQk5xrP-tmJuzaj4GWRenFoFx9gdbFX","playlistName":"شرح كتاب صحيح الإمام البخاري رضي الله تعالى عنه   أ.د. يسرى جبر","category":"حديث"},{"id":"xJWjoC_vy0s","title":"شرح صحيح البخاري كتاب الأذان من باب ٧٠","publishedAt":"2016-11-21T13:54:53Z","duration":"PT32M18S","thumbnail":"https://i.ytimg.com/vi/xJWjoC_vy0s/mqdefault.jpg","viewCount":"1024","playlistId":"PLEkQk5xrP-tlEerGoLa1AFy-2XvQ-sovv","playlistName":"شرح صحيح البخاري - أ.د. يسري جبر (كاملا)","category":"حديث"},{"id":"KJek24gVXQ8","title":"سورة المائدة آية 87","publishedAt":"2016-11-21T02:59:30Z","duration":"PT23M21S","thumbnail":"https://i.ytimg.com/vi/KJek24gVXQ8/mqdefault.jpg","viewCount":"370","playlistId":"PLEkQk5xrP-tnmTYsyW6xNdyfhPq0Bhrhj","playlistName":"مقرأة الفجر - القُرْآنُ الكَرِيمُ - خَتْمَةُ التَّدَبُّرِ  أ.د. يسري جبر","category":"متنوع"},{"id":"PXq-SjgWVbE","title":"العارفُ لا يزول اضطرارُه ، ولا يكون مع غير الله قرارُه .","publishedAt":"2016-11-20T20:06:03Z","duration":"PT21M20S","thumbnail":"https://i.ytimg.com/vi/PXq-SjgWVbE/mqdefault.jpg","viewCount":"9851","playlistId":"PLEkQk5xrP-tkI_meE148wc7V7XHlB0WPb","playlistName":"من الحكم العطائية  د. يسري جبر","category":"متنوع"},{"id":"NJlIPRLOQSQ","title":"شرح صحيح البخاري كتاب الأذان من باب ٦١","publishedAt":"2016-11-20T19:19:23Z","duration":"PT41M57S","thumbnail":"https://i.ytimg.com/vi/NJlIPRLOQSQ/mqdefault.jpg","viewCount":"1072","playlistId":"PLEkQk5xrP-tlEerGoLa1AFy-2XvQ-sovv","playlistName":"شرح صحيح البخاري - أ.د. يسري جبر (كاملا)","category":"حديث"},{"id":"J56cnXiKkfQ","title":"سورة المائدة آية 82","publishedAt":"2016-11-20T15:23:00Z","duration":"PT12M44S","thumbnail":"https://i.ytimg.com/vi/J56cnXiKkfQ/mqdefault.jpg","viewCount":"378","playlistId":"PLEkQk5xrP-tnmTYsyW6xNdyfhPq0Bhrhj","playlistName":"مقرأة الفجر - القُرْآنُ الكَرِيمُ - خَتْمَةُ التَّدَبُّرِ  أ.د. يسري جبر","category":"متنوع"},{"id":"p5dBQneVqvw","title":"صحيح الإمام البخاري رضي الله عنه - كتاب الأدب - المجلس الأول. د. يسري جبر","publishedAt":"2016-11-20T15:08:34Z","duration":"PT50M54S","thumbnail":"https://i.ytimg.com/vi/p5dBQneVqvw/mqdefault.jpg","viewCount":"298","playlistId":"PLEkQk5xrP-tmJuzaj4GWRenFoFx9gdbFX","playlistName":"شرح كتاب صحيح الإمام البخاري رضي الله تعالى عنه   أ.د. يسرى جبر","category":"حديث"},{"id":"cRZVp6DJZcs","title":"شرح صحيح البخاري كتاب الأذان من باب ٥٢","publishedAt":"2016-11-20T12:14:37Z","duration":"PT38M11S","thumbnail":"https://i.ytimg.com/vi/cRZVp6DJZcs/mqdefault.jpg","viewCount":"1040","playlistId":"PLEkQk5xrP-tlEerGoLa1AFy-2XvQ-sovv","playlistName":"شرح صحيح البخاري - أ.د. يسري جبر (كاملا)","category":"حديث"},{"id":"itTF2Hd3u18","title":"سورة المائدة آية 72","publishedAt":"2016-11-20T06:19:46Z","duration":"PT19M27S","thumbnail":"https://i.ytimg.com/vi/itTF2Hd3u18/mqdefault.jpg","viewCount":"446","playlistId":"PLEkQk5xrP-tnmTYsyW6xNdyfhPq0Bhrhj","playlistName":"مقرأة الفجر - القُرْآنُ الكَرِيمُ - خَتْمَةُ التَّدَبُّرِ  أ.د. يسري جبر","category":"متنوع"},{"id":"1dqNX1TPvNM","title":"الإِيمانُ بِالقَضَاءِ والَقَدَرِ  د. يسري جبر","publishedAt":"2016-11-19T07:22:15Z","duration":"PT37M9S","thumbnail":"https://i.ytimg.com/vi/1dqNX1TPvNM/mqdefault.jpg","viewCount":"13898","playlistId":"PLEkQk5xrP-tlArtGpeLWaqNM7h7IDeAVC","playlistName":"خطب الجمعة أ.د. يسري جبر","category":"خطب"},{"id":"eMtIojkbB2M","title":"32- زَكَاةِ الْعُرُوضِ كتاب الزكاة ك الموطأ د يسري جبر الأزهري","publishedAt":"2016-11-18T22:33:01Z","duration":"PT1H18M17S","thumbnail":"https://i.ytimg.com/vi/eMtIojkbB2M/mqdefault.jpg","viewCount":"429","playlistId":"PLEkQk5xrP-tnC6BRuqMjyO-484iqXeg0o","playlistName":"شرح كتاب الموطأ للإمام مالك","category":"متنوع"},{"id":"7dMJPTwag4s","title":"صحيح الإمام البخاري رضي الله عنه - كتاب اللباس باب المتنمصات - المجلس الحادي عشر. د. يسري جبر","publishedAt":"2016-11-16T15:55:20Z","duration":"PT1H14M47S","thumbnail":"https://i.ytimg.com/vi/7dMJPTwag4s/mqdefault.jpg","viewCount":"448","playlistId":"PLEkQk5xrP-tmJuzaj4GWRenFoFx9gdbFX","playlistName":"شرح كتاب صحيح الإمام البخاري رضي الله تعالى عنه   أ.د. يسرى جبر","category":"حديث"},{"id":"oCdKFfbiz2c","title":"شرح صحيح البخاري كتاب الأذان من باب ٤٨","publishedAt":"2016-11-16T05:52:07Z","duration":"PT32M53S","thumbnail":"https://i.ytimg.com/vi/oCdKFfbiz2c/mqdefault.jpg","viewCount":"1027","playlistId":"PLEkQk5xrP-tlEerGoLa1AFy-2XvQ-sovv","playlistName":"شرح صحيح البخاري - أ.د. يسري جبر (كاملا)","category":"حديث"},{"id":"Xx_Vj3bQbWU","title":"شرح صحيح البخاري كتاب الأذان من باب ٤٢","publishedAt":"2016-11-16T04:01:58Z","duration":"PT28M58S","thumbnail":"https://i.ytimg.com/vi/Xx_Vj3bQbWU/mqdefault.jpg","viewCount":"1027","playlistId":"PLEkQk5xrP-tlEerGoLa1AFy-2XvQ-sovv","playlistName":"شرح صحيح البخاري - أ.د. يسري جبر (كاملا)","category":"حديث"},{"id":"hLiCMofAcVs","title":"سورة المائدة آية 65","publishedAt":"2016-11-16T03:59:19Z","duration":"PT3M59S","thumbnail":"https://i.ytimg.com/vi/hLiCMofAcVs/mqdefault.jpg","viewCount":"307","playlistId":"PLEkQk5xrP-tnmTYsyW6xNdyfhPq0Bhrhj","playlistName":"مقرأة الفجر - القُرْآنُ الكَرِيمُ - خَتْمَةُ التَّدَبُّرِ  أ.د. يسري جبر","category":"متنوع"},{"id":"YLZ8Dn6PJQ4","title":"سورة المائدة آية 67","publishedAt":"2016-11-16T02:10:25Z","duration":"PT17M13S","thumbnail":"https://i.ytimg.com/vi/YLZ8Dn6PJQ4/mqdefault.jpg","viewCount":"422","playlistId":"PLEkQk5xrP-tnmTYsyW6xNdyfhPq0Bhrhj","playlistName":"مقرأة الفجر - القُرْآنُ الكَرِيمُ - خَتْمَةُ التَّدَبُّرِ  أ.د. يسري جبر","category":"متنوع"},{"id":"Wsag8A-Y0cQ","title":"شرح صحيح البخاري كتاب الأذان من باب ٣٨","publishedAt":"2016-11-15T05:54:34Z","duration":"PT30M23S","thumbnail":"https://i.ytimg.com/vi/Wsag8A-Y0cQ/mqdefault.jpg","viewCount":"850","playlistId":"PLEkQk5xrP-tlEerGoLa1AFy-2XvQ-sovv","playlistName":"شرح صحيح البخاري - أ.د. يسري جبر (كاملا)","category":"حديث"},{"id":"7W81aD_xn0o","title":"سورة المائدة آية 61","publishedAt":"2016-11-15T05:52:08Z","duration":"PT17M3S","thumbnail":"https://i.ytimg.com/vi/7W81aD_xn0o/mqdefault.jpg","viewCount":"423","playlistId":"PLEkQk5xrP-tnmTYsyW6xNdyfhPq0Bhrhj","playlistName":"مقرأة الفجر - القُرْآنُ الكَرِيمُ - خَتْمَةُ التَّدَبُّرِ  أ.د. يسري جبر","category":"متنوع"},{"id":"_xM1bfmPMOU","title":"متى أطلق لسانك بالطلب ، فاعلم أنَّه يُريد أن يعطيك","publishedAt":"2016-11-14T20:39:55Z","duration":"PT15M7S","thumbnail":"https://i.ytimg.com/vi/_xM1bfmPMOU/mqdefault.jpg","viewCount":"19657","playlistId":"PLEkQk5xrP-tkI_meE148wc7V7XHlB0WPb","playlistName":"من الحكم العطائية  د. يسري جبر","category":"متنوع"}],"total":7670,"page":163,"pageSize":24,"totalPages":320}