{"items":[{"id":"z6iTLPy5004","title":"مقرأة سورة الزمر من آية ٦٠","publishedAt":"2018-10-29T09:37:55Z","duration":"PT13M11S","thumbnail":"https://i.ytimg.com/vi/z6iTLPy5004/mqdefault.jpg","viewCount":"351","playlistId":"PLEkQk5xrP-tnmTYsyW6xNdyfhPq0Bhrhj","playlistName":"مقرأة الفجر - القُرْآنُ الكَرِيمُ - خَتْمَةُ التَّدَبُّرِ  أ.د. يسري جبر","category":"متنوع"},{"id":"nktXsga_24U","title":"شرح صحيح البخاري كتاب الرقاق من باب ٣٠","publishedAt":"2018-10-28T12:45:15Z","duration":"PT37M55S","thumbnail":"https://i.ytimg.com/vi/nktXsga_24U/mqdefault.jpg","viewCount":"565","playlistId":"PLEkQk5xrP-tlEerGoLa1AFy-2XvQ-sovv","playlistName":"شرح صحيح البخاري - أ.د. يسري جبر (كاملا)","category":"حديث"},{"id":"wlKwfcNocoo","title":"شرح صحيح الإمام البخاري رضي الله تعالى عنه - كتاب الحِيَل. د. يسري جبر","publishedAt":"2018-10-27T13:51:41Z","duration":"PT36M","thumbnail":"https://i.ytimg.com/vi/wlKwfcNocoo/mqdefault.jpg","viewCount":"282","playlistId":"PLEkQk5xrP-tmJuzaj4GWRenFoFx9gdbFX","playlistName":"شرح كتاب صحيح الإمام البخاري رضي الله تعالى عنه   أ.د. يسرى جبر","category":"حديث"},{"id":"mH7Asvbi1d8","title":"مقرأة سورة الزمر من آية ٤٩","publishedAt":"2018-10-27T12:28:46Z","duration":"PT10M27S","thumbnail":"https://i.ytimg.com/vi/mH7Asvbi1d8/mqdefault.jpg","viewCount":"351","playlistId":"PLEkQk5xrP-tnmTYsyW6xNdyfhPq0Bhrhj","playlistName":"مقرأة الفجر - القُرْآنُ الكَرِيمُ - خَتْمَةُ التَّدَبُّرِ  أ.د. يسري جبر","category":"متنوع"},{"id":"Wg4qH0L-OeE","title":"81- باب السُّلْفَةِ فِى الْعُرُوضِ ك الموطأ د يسري جبر الأزهري","publishedAt":"2018-10-25T14:21:51Z","duration":"PT49M40S","thumbnail":"https://i.ytimg.com/vi/Wg4qH0L-OeE/mqdefault.jpg","viewCount":"221","playlistId":"PLEkQk5xrP-tnC6BRuqMjyO-484iqXeg0o","playlistName":"شرح كتاب الموطأ للإمام مالك","category":"متنوع"},{"id":"UN1GAwvbTSc","title":"شرح صحيح البخاري كتاب الرقاق من باب ١٩","publishedAt":"2018-10-25T10:00:02Z","duration":"PT32M36S","thumbnail":"https://i.ytimg.com/vi/UN1GAwvbTSc/mqdefault.jpg","viewCount":"566","playlistId":"PLEkQk5xrP-tlEerGoLa1AFy-2XvQ-sovv","playlistName":"شرح صحيح البخاري - أ.د. يسري جبر (كاملا)","category":"حديث"},{"id":"5_JS6ho7JFI","title":"مقرأة سورة الزمر من آية ٤٣","publishedAt":"2018-10-25T00:08:40Z","duration":"PT26M58S","thumbnail":"https://i.ytimg.com/vi/5_JS6ho7JFI/mqdefault.jpg","viewCount":"391","playlistId":"PLEkQk5xrP-tnmTYsyW6xNdyfhPq0Bhrhj","playlistName":"مقرأة الفجر - القُرْآنُ الكَرِيمُ - خَتْمَةُ التَّدَبُّرِ  أ.د. يسري جبر","category":"متنوع"},{"id":"k28OEB-6fd0","title":"شرح صحيح البخاري كتاب الرقاق من باب ١٨","publishedAt":"2018-10-24T11:56:57Z","duration":"PT30M46S","thumbnail":"https://i.ytimg.com/vi/k28OEB-6fd0/mqdefault.jpg","viewCount":"487","playlistId":"PLEkQk5xrP-tlEerGoLa1AFy-2XvQ-sovv","playlistName":"شرح صحيح البخاري - أ.د. يسري جبر (كاملا)","category":"حديث"},{"id":"N7LbI1FJZRQ","title":"مقرأة سورة الزمر من آية ٣٩","publishedAt":"2018-10-23T12:44:21Z","duration":"PT26M35S","thumbnail":"https://i.ytimg.com/vi/N7LbI1FJZRQ/mqdefault.jpg","viewCount":"343","playlistId":"PLEkQk5xrP-tnmTYsyW6xNdyfhPq0Bhrhj","playlistName":"مقرأة الفجر - القُرْآنُ الكَرِيمُ - خَتْمَةُ التَّدَبُّرِ  أ.د. يسري جبر","category":"متنوع"},{"id":"rahWcQkKgIU","title":"شرح صحيح البخاري كتاب الرقاق من باب ١٧","publishedAt":"2018-10-22T20:22:14Z","duration":"PT43M53S","thumbnail":"https://i.ytimg.com/vi/rahWcQkKgIU/mqdefault.jpg","viewCount":"619","playlistId":"PLEkQk5xrP-tlEerGoLa1AFy-2XvQ-sovv","playlistName":"شرح صحيح البخاري - أ.د. يسري جبر (كاملا)","category":"حديث"},{"id":"Y2SDL6twmT0","title":"مقرأة سورة الزمر من آية ٣٢","publishedAt":"2018-10-22T08:23:50Z","duration":"PT27M5S","thumbnail":"https://i.ytimg.com/vi/Y2SDL6twmT0/mqdefault.jpg","viewCount":"374","playlistId":"PLEkQk5xrP-tnmTYsyW6xNdyfhPq0Bhrhj","playlistName":"مقرأة الفجر - القُرْآنُ الكَرِيمُ - خَتْمَةُ التَّدَبُّرِ  أ.د. يسري جبر","category":"متنوع"},{"id":"hemA1xNg_II","title":"شرح كتاب نور اليقين في سيرة سيد المرسلين للشيخ الخضري رحمه الله (المجلس62) د.يسري جبر","publishedAt":"2018-10-21T17:28:47Z","duration":"PT46M3S","thumbnail":"https://i.ytimg.com/vi/hemA1xNg_II/mqdefault.jpg","viewCount":"8359","playlistId":"PLEkQk5xrP-tl2t4NQx1IhKnAJCMzF0Nli","playlistName":"شرح كتاب نور اليقين في سيرة سيد المرسلين   د. يسري جبر","category":"سيرة"},{"id":"4gXg1NSZLaU","title":"حرية الاعتقاد لا تُعارض حدّ الرِّدَّة د. يسري جبر","publishedAt":"2018-10-20T17:39:45Z","duration":"PT26M20S","thumbnail":"https://i.ytimg.com/vi/4gXg1NSZLaU/mqdefault.jpg","viewCount":"781","playlistId":"PLEkQk5xrP-tlArtGpeLWaqNM7h7IDeAVC","playlistName":"خطب الجمعة أ.د. يسري جبر","category":"خطب"},{"id":"lJG1pwhTEu8","title":"شرح صحيح البخاري كتاب الرقاق من باب ١٠","publishedAt":"2018-10-20T17:01:50Z","duration":"PT31M2S","thumbnail":"https://i.ytimg.com/vi/lJG1pwhTEu8/mqdefault.jpg","viewCount":"508","playlistId":"PLEkQk5xrP-tlEerGoLa1AFy-2XvQ-sovv","playlistName":"شرح صحيح البخاري - أ.د. يسري جبر (كاملا)","category":"حديث"},{"id":"3VdOSC6Hvxs","title":"109 - علِّموا ويسِّروا ولا تعسِّروا وإذا غضب أحدكم فليسكت - شرح مسند الإمام أحمد رضي الله تعالى عنه","publishedAt":"2024-05-28T05:00:03Z","duration":"PT21M6S","thumbnail":"https://i.ytimg.com/vi/3VdOSC6Hvxs/mqdefault.jpg","viewCount":"1944","playlistId":"PLEkQk5xrP-tkKprIuGrSdEuBSMsyg5We1","playlistName":"شرح مسند الإمام أحمد بن حنبل","category":"متنوع"},{"id":"YGunXTkhu4s","title":"هل خلقنا الله ليعذبنا؟","publishedAt":"2024-05-27T18:47:33Z","duration":"PT26M43S","thumbnail":"https://i.ytimg.com/vi/YGunXTkhu4s/mqdefault.jpg","viewCount":"6547","playlistId":"PLEkQk5xrP-tlArtGpeLWaqNM7h7IDeAVC","playlistName":"خطب الجمعة أ.د. يسري جبر","category":"خطب"},{"id":"FrKtxA0b7WA","title":"239- قاعدة في حذف المفعول اختصارا - شرح الإتقان في علوم القرآن","publishedAt":"2024-05-27T08:55:07Z","duration":"PT37M11S","thumbnail":"https://i.ytimg.com/vi/FrKtxA0b7WA/mqdefault.jpg","viewCount":"618","playlistId":"PLEkQk5xrP-tlPw10KGJKagu7zm4Ry2Tge","playlistName":"شرح الإتقان في علوم القرآن","category":"تفسير"},{"id":"x1Z1qRW2v1c","title":"19- الإيمان بالغيب ونعمة الستر | شرح مختصر الفتوحات المكية","publishedAt":"2024-05-26T17:20:51Z","duration":"PT50M34S","thumbnail":"https://i.ytimg.com/vi/x1Z1qRW2v1c/mqdefault.jpg","viewCount":"8705","playlistId":"PLEkQk5xrP-tnpkdZki6rPTtMak1bnI5g-","playlistName":"شرح كتاب مختصر الفتوحات المكية المسمى لواقح الأنوار القدسية","category":"متنوع"},{"id":"rdunYXXmU10","title":"108- حكم اللعان - شرح مسند الإمام أحمد رضي الله تعالى عنه","publishedAt":"2024-05-26T06:04:25Z","duration":"PT27M5S","thumbnail":"https://i.ytimg.com/vi/rdunYXXmU10/mqdefault.jpg","viewCount":"830","playlistId":"PLEkQk5xrP-tkKprIuGrSdEuBSMsyg5We1","playlistName":"شرح مسند الإمام أحمد بن حنبل","category":"متنوع"},{"id":"uRHpuAMeTaU","title":"36- ما هو الصعيد الطيب الذي يصح به التيمم؟ | شرح سنن الدار قطني رضي الله عنه","publishedAt":"2024-05-25T09:01:00Z","duration":"PT43M22S","thumbnail":"https://i.ytimg.com/vi/uRHpuAMeTaU/mqdefault.jpg","viewCount":"1101","playlistId":"PLEkQk5xrP-tk_MCBZ706ORCw6gFtFyaGj","playlistName":"شرح سنن الإمام الدارقطني","category":"متنوع"},{"id":"WPfM_4ulKtE","title":"ما أهمية أخذ الإجازة وهل يجوز قراءة الأحاديث بدونها؟","publishedAt":"2024-05-24T17:35:05Z","duration":"PT10M47S","thumbnail":"https://i.ytimg.com/vi/WPfM_4ulKtE/mqdefault.jpg","viewCount":"2935","playlistId":"PLEkQk5xrP-tkGXuZ9atE3k_7it12rUPTs","playlistName":"أسئلة المتابعين","category":"متنوع"},{"id":"k4zASJFj3Lk","title":"238- إيجاز القصر - شرح الإتقان في علوم القرآن","publishedAt":"2024-05-24T05:00:31Z","duration":"PT31M34S","thumbnail":"https://i.ytimg.com/vi/k4zASJFj3Lk/mqdefault.jpg","viewCount":"626","playlistId":"PLEkQk5xrP-tlPw10KGJKagu7zm4Ry2Tge","playlistName":"شرح الإتقان في علوم القرآن","category":"تفسير"},{"id":"F26vx0wFNa8","title":"شرح منازل السائرين - المجلس (45) باب الإيثار | أ.د. يسري جبر","publishedAt":"2024-05-23T17:00:14Z","duration":"PT46M28S","thumbnail":"https://i.ytimg.com/vi/F26vx0wFNa8/mqdefault.jpg","viewCount":"3519","playlistId":"PLEkQk5xrP-tmiUfQ-2Tsn7QIak4EsvaZW","playlistName":"كتاب التيسير المعين بشرح معاني منازل السائرين (تصوف) - د.يسري جبر","category":"تصوف"},{"id":"tmYsy7XPlUg","title":"107- فضل الإحسان إلى الأخوات والبنات - شرح مسند الإمام أحمد رضي الله تعالى عنه","publishedAt":"2024-05-23T05:42:30Z","duration":"PT33M53S","thumbnail":"https://i.ytimg.com/vi/tmYsy7XPlUg/mqdefault.jpg","viewCount":"1670","playlistId":"PLEkQk5xrP-tkKprIuGrSdEuBSMsyg5We1","playlistName":"شرح مسند الإمام أحمد بن حنبل","category":"متنوع"}],"total":7670,"page":182,"pageSize":24,"totalPages":320}