{"items":[{"id":"DRWGLExHJoo","title":"شرح صحيح البخاري ( كتاب الوضوء  مجلس ١ )","publishedAt":"2016-08-26T07:35:20Z","duration":"PT38M6S","thumbnail":"https://i.ytimg.com/vi/DRWGLExHJoo/mqdefault.jpg","viewCount":"3391","playlistId":"PLEkQk5xrP-tlEerGoLa1AFy-2XvQ-sovv","playlistName":"شرح صحيح البخاري - أ.د. يسري جبر (كاملا)","category":"حديث"},{"id":"iICWvhmaPPU","title":"سورة النساء آية 58","publishedAt":"2016-08-26T06:46:14Z","duration":"PT10M","thumbnail":"https://i.ytimg.com/vi/iICWvhmaPPU/mqdefault.jpg","viewCount":"465","playlistId":"PLEkQk5xrP-tnmTYsyW6xNdyfhPq0Bhrhj","playlistName":"مقرأة الفجر - القُرْآنُ الكَرِيمُ - خَتْمَةُ التَّدَبُّرِ  أ.د. يسري جبر","category":"متنوع"},{"id":"P1trZLBPyb4","title":"شرح صحيح البخاري ( كتاب العلم مجلس ١٠ )","publishedAt":"2016-08-25T23:43:37Z","duration":"PT35M59S","thumbnail":"https://i.ytimg.com/vi/P1trZLBPyb4/mqdefault.jpg","viewCount":"1863","playlistId":"PLEkQk5xrP-tlEerGoLa1AFy-2XvQ-sovv","playlistName":"شرح صحيح البخاري - أ.د. يسري جبر (كاملا)","category":"حديث"},{"id":"OEcih4VUw-A","title":"23- جَامِعِ الصَّلاَةِ ك قصرالصلاة فى السفر ك الموطأ د يسري جبر الأزهري بمضيفة الشيخ سعيد الدح","publishedAt":"2016-08-25T23:36:03Z","duration":"PT49M45S","thumbnail":"https://i.ytimg.com/vi/OEcih4VUw-A/mqdefault.jpg","viewCount":"541","playlistId":"PLEkQk5xrP-tnC6BRuqMjyO-484iqXeg0o","playlistName":"شرح كتاب الموطأ للإمام مالك","category":"متنوع"},{"id":"i217ZzHIKkQ","title":"شرح صحيح البخاري ( كتاب العلم مجلس ٩ )","publishedAt":"2016-08-24T13:10:36Z","duration":"PT47M35S","thumbnail":"https://i.ytimg.com/vi/i217ZzHIKkQ/mqdefault.jpg","viewCount":"2196","playlistId":"PLEkQk5xrP-tlEerGoLa1AFy-2XvQ-sovv","playlistName":"شرح صحيح البخاري - أ.د. يسري جبر (كاملا)","category":"حديث"},{"id":"3JLbublbSKo","title":"سورة النساء آية 48","publishedAt":"2016-08-24T12:02:29Z","duration":"PT15M44S","thumbnail":"https://i.ytimg.com/vi/3JLbublbSKo/mqdefault.jpg","viewCount":"454","playlistId":"PLEkQk5xrP-tnmTYsyW6xNdyfhPq0Bhrhj","playlistName":"مقرأة الفجر - القُرْآنُ الكَرِيمُ - خَتْمَةُ التَّدَبُّرِ  أ.د. يسري جبر","category":"متنوع"},{"id":"hSjTqo3nqlE","title":"22- مَا جَاءَ فِى الصَّلاَةِ عَلَى النَّبِىِّ صلى الله عليه وسلم ك الصلاة ك الموطأ د يسري جبر","publishedAt":"2016-08-23T21:34:46Z","duration":"PT49M26S","thumbnail":"https://i.ytimg.com/vi/hSjTqo3nqlE/mqdefault.jpg","viewCount":"3323","playlistId":"PLEkQk5xrP-tnC6BRuqMjyO-484iqXeg0o","playlistName":"شرح كتاب الموطأ للإمام مالك","category":"متنوع"},{"id":"3oXrcHNqllg","title":"شرح صحيح البخاري ( كتاب العلم مجلس ٨ )","publishedAt":"2016-08-23T09:21:48Z","duration":"PT36M53S","thumbnail":"https://i.ytimg.com/vi/3oXrcHNqllg/mqdefault.jpg","viewCount":"2064","playlistId":"PLEkQk5xrP-tlEerGoLa1AFy-2XvQ-sovv","playlistName":"شرح صحيح البخاري - أ.د. يسري جبر (كاملا)","category":"حديث"},{"id":"ZsgSM4d6Qts","title":"سورة النساء آية 44","publishedAt":"2016-08-23T06:44:21Z","duration":"PT20M47S","thumbnail":"https://i.ytimg.com/vi/ZsgSM4d6Qts/mqdefault.jpg","viewCount":"479","playlistId":"PLEkQk5xrP-tnmTYsyW6xNdyfhPq0Bhrhj","playlistName":"مقرأة الفجر - القُرْآنُ الكَرِيمُ - خَتْمَةُ التَّدَبُّرِ  أ.د. يسري جبر","category":"متنوع"},{"id":"-2rJpwbnUf8","title":"صحيح الإمام البخاري رضي الله عنه - كتاب الطب المجلس السادس د. يسري جبر","publishedAt":"2016-08-22T20:49:05Z","duration":"PT55M57S","thumbnail":"https://i.ytimg.com/vi/-2rJpwbnUf8/mqdefault.jpg","viewCount":"179","playlistId":"PLEkQk5xrP-tmJuzaj4GWRenFoFx9gdbFX","playlistName":"شرح كتاب صحيح الإمام البخاري رضي الله تعالى عنه   أ.د. يسرى جبر","category":"حديث"},{"id":"s_8Dy6cHKoM","title":"سورة النساء آية 43","publishedAt":"2016-08-22T07:40:54Z","duration":"PT32M52S","thumbnail":"https://i.ytimg.com/vi/s_8Dy6cHKoM/mqdefault.jpg","viewCount":"510","playlistId":"PLEkQk5xrP-tnmTYsyW6xNdyfhPq0Bhrhj","playlistName":"مقرأة الفجر - القُرْآنُ الكَرِيمُ - خَتْمَةُ التَّدَبُّرِ  أ.د. يسري جبر","category":"متنوع"},{"id":"nTAc6gGvMbg","title":"شرح صحيح البخاري ( كتاب العلم مجلس ٧ )","publishedAt":"2016-08-22T07:32:01Z","duration":"PT23M47S","thumbnail":"https://i.ytimg.com/vi/nTAc6gGvMbg/mqdefault.jpg","viewCount":"1929","playlistId":"PLEkQk5xrP-tlEerGoLa1AFy-2XvQ-sovv","playlistName":"شرح صحيح البخاري - أ.د. يسري جبر (كاملا)","category":"حديث"},{"id":"VAP_69X7QJ4","title":"شرح صحيح البخاري ( كتاب العلم مجلس ٦ )","publishedAt":"2016-08-21T10:15:01Z","duration":"PT33M58S","thumbnail":"https://i.ytimg.com/vi/VAP_69X7QJ4/mqdefault.jpg","viewCount":"2095","playlistId":"PLEkQk5xrP-tlEerGoLa1AFy-2XvQ-sovv","playlistName":"شرح صحيح البخاري - أ.د. يسري جبر (كاملا)","category":"حديث"},{"id":"lKc8hCSCc5k","title":"سورة النساء آية 36","publishedAt":"2016-08-21T07:39:58Z","duration":"PT23M12S","thumbnail":"https://i.ytimg.com/vi/lKc8hCSCc5k/mqdefault.jpg","viewCount":"533","playlistId":"PLEkQk5xrP-tnmTYsyW6xNdyfhPq0Bhrhj","playlistName":"مقرأة الفجر - القُرْآنُ الكَرِيمُ - خَتْمَةُ التَّدَبُّرِ  أ.د. يسري جبر","category":"متنوع"},{"id":"vafyNpRgbEc","title":"كلمة أ.د. يسري جبر في مدينة بولو | تركيا","publishedAt":"2023-08-03T08:59:00Z","duration":"PT14M3S","thumbnail":"https://i.ytimg.com/vi/vafyNpRgbEc/mqdefault.jpg","viewCount":"5033","playlistId":"PLEkQk5xrP-tmJzNvLntpzW0uPanPzxA0c","playlistName":"لقاءات ومحاضرات","category":"متنوع"},{"id":"TtWV6eSl5_o","title":"141- حرف السين (سوف - ساء - سواء - سبحان) - شرح الإتقان في علوم القرآن","publishedAt":"2023-08-03T05:00:11Z","duration":"PT27M8S","thumbnail":"https://i.ytimg.com/vi/TtWV6eSl5_o/mqdefault.jpg","viewCount":"578","playlistId":"PLEkQk5xrP-tlPw10KGJKagu7zm4Ry2Tge","playlistName":"شرح الإتقان في علوم القرآن","category":"تفسير"},{"id":"EPn80Gucc9s","title":"أنا زهقان وتعبان وحاسس أني مش مستمتع بالحياة ,, فماذا أفعل؟","publishedAt":"2023-08-02T18:00:09Z","duration":"PT10M15S","thumbnail":"https://i.ytimg.com/vi/EPn80Gucc9s/mqdefault.jpg","viewCount":"9696","playlistId":"PLEkQk5xrP-tkGXuZ9atE3k_7it12rUPTs","playlistName":"أسئلة المتابعين","category":"متنوع"},{"id":"W1FmFH7uKwg","title":"8- حكم الصلاة في الثوب الواحد|فضيلة مَن خُتِم له بالإيمان بالله واليوم الآخر - شرح مسند الإمام أحمد","publishedAt":"2023-08-02T08:59:00Z","duration":"PT55M27S","thumbnail":"https://i.ytimg.com/vi/W1FmFH7uKwg/mqdefault.jpg","viewCount":"1592","playlistId":"PLEkQk5xrP-tkKprIuGrSdEuBSMsyg5We1","playlistName":"شرح مسند الإمام أحمد بن حنبل","category":"متنوع"},{"id":"ZJTyT5DNIQs","title":"140- حرف الدال (كلمة دون) - شرح الإتقان في علوم القرآن","publishedAt":"2023-08-02T05:08:42Z","duration":"PT17M2S","thumbnail":"https://i.ytimg.com/vi/ZJTyT5DNIQs/mqdefault.jpg","viewCount":"423","playlistId":"PLEkQk5xrP-tlPw10KGJKagu7zm4Ry2Tge","playlistName":"شرح الإتقان في علوم القرآن","category":"تفسير"},{"id":"BmdpWORsIxM","title":"7- هل تجب الزكاة في الخيل؟ - شرح مسند الإمام أحمد","publishedAt":"2023-08-01T08:59:00Z","duration":"PT40M19S","thumbnail":"https://i.ytimg.com/vi/BmdpWORsIxM/mqdefault.jpg","viewCount":"1284","playlistId":"PLEkQk5xrP-tkKprIuGrSdEuBSMsyg5We1","playlistName":"شرح مسند الإمام أحمد بن حنبل","category":"متنوع"},{"id":"irSkxOQZW5o","title":"139- معنى (حَيْث) - شرح الإتقان في علوم القرآن","publishedAt":"2023-08-01T05:00:31Z","duration":"PT6M25S","thumbnail":"https://i.ytimg.com/vi/irSkxOQZW5o/mqdefault.jpg","viewCount":"438","playlistId":"PLEkQk5xrP-tlPw10KGJKagu7zm4Ry2Tge","playlistName":"شرح الإتقان في علوم القرآن","category":"تفسير"},{"id":"uiGmck7v7ww","title":"أحاول الإحسان إلى أمي ولكنها تسيء معاملتي فماذا أفعل؟","publishedAt":"2023-07-31T18:01:35Z","duration":"PT8M19S","thumbnail":"https://i.ytimg.com/vi/uiGmck7v7ww/mqdefault.jpg","viewCount":"5499","playlistId":"PLEkQk5xrP-tkGXuZ9atE3k_7it12rUPTs","playlistName":"أسئلة المتابعين","category":"متنوع"},{"id":"m2p8nGotswU","title":"6- لا يَدخُلُ الجنَّةَ سيِّئُ المَلَكَة - شرح مسند الإمام أحمد","publishedAt":"2023-07-31T08:59:00Z","duration":"PT27M33S","thumbnail":"https://i.ytimg.com/vi/m2p8nGotswU/mqdefault.jpg","viewCount":"3095","playlistId":"PLEkQk5xrP-tkKprIuGrSdEuBSMsyg5We1","playlistName":"شرح مسند الإمام أحمد بن حنبل","category":"متنوع"},{"id":"NWGOT65xmZI","title":"138- معنى (حتى) - شرح الإتقان في علوم القرآن","publishedAt":"2023-07-31T05:00:20Z","duration":"PT14M59S","thumbnail":"https://i.ytimg.com/vi/NWGOT65xmZI/mqdefault.jpg","viewCount":"399","playlistId":"PLEkQk5xrP-tlPw10KGJKagu7zm4Ry2Tge","playlistName":"شرح الإتقان في علوم القرآن","category":"تفسير"}],"total":7670,"page":102,"pageSize":24,"totalPages":320}