{"items":[{"id":"F092MhYD898","title":"رُبَّما ورَدَت الظُّلَمُ عليك، ليُعرِّفَكَ قدْرَ ما مَنَّ به عليك.","publishedAt":"2017-09-03T18:29:31Z","duration":"PT2M56S","thumbnail":"https://i.ytimg.com/vi/F092MhYD898/mqdefault.jpg","viewCount":"1253","playlistId":"PLEkQk5xrP-tkI_meE148wc7V7XHlB0WPb","playlistName":"من الحكم العطائية  د. يسري جبر","category":"متنوع"},{"id":"lnckMw50eeg","title":"إنَّ الله كتب الإحسان على كل شيء    د.يسري جبر","publishedAt":"2017-09-03T18:17:41Z","duration":"PT38M16S","thumbnail":"https://i.ytimg.com/vi/lnckMw50eeg/mqdefault.jpg","viewCount":"700","playlistId":"PLEkQk5xrP-tlArtGpeLWaqNM7h7IDeAVC","playlistName":"خطب الجمعة أ.د. يسري جبر","category":"خطب"},{"id":"qAqArrbJzos","title":"شرح صحيح الإمام البخاري رضي الله عنه - كتاب الرقاق باب رفع الأمانة (9) د.يسري جبر","publishedAt":"2017-09-03T18:16:58Z","duration":"PT58M15S","thumbnail":"https://i.ytimg.com/vi/qAqArrbJzos/mqdefault.jpg","viewCount":"169","playlistId":"PLEkQk5xrP-tmJuzaj4GWRenFoFx9gdbFX","playlistName":"شرح كتاب صحيح الإمام البخاري رضي الله تعالى عنه   أ.د. يسرى جبر","category":"حديث"},{"id":"sJfX0S8MbtQ","title":"مقرأة سورة النحل من آية ٩٢","publishedAt":"2017-09-02T15:22:14Z","duration":"PT16M14S","thumbnail":"https://i.ytimg.com/vi/sJfX0S8MbtQ/mqdefault.jpg","viewCount":"365","playlistId":"PLEkQk5xrP-tnmTYsyW6xNdyfhPq0Bhrhj","playlistName":"مقرأة الفجر - القُرْآنُ الكَرِيمُ - خَتْمَةُ التَّدَبُّرِ  أ.د. يسري جبر","category":"متنوع"},{"id":"L3Se63T5bnY","title":"الْمَلَائِكَةُ  د.يسري جبر","publishedAt":"2018-07-22T11:32:41Z","duration":"PT52M25S","thumbnail":"https://i.ytimg.com/vi/L3Se63T5bnY/mqdefault.jpg","viewCount":"10656","playlistId":"PLEkQk5xrP-tlArtGpeLWaqNM7h7IDeAVC","playlistName":"خطب الجمعة أ.د. يسري جبر","category":"خطب"},{"id":"zkjw4BeAmIc","title":"شرح صحيح البخاري كتاب الذبائح والصيد من باب ٢٩","publishedAt":"2018-07-21T19:28:52Z","duration":"PT36M13S","thumbnail":"https://i.ytimg.com/vi/zkjw4BeAmIc/mqdefault.jpg","viewCount":"416","playlistId":"PLEkQk5xrP-tlEerGoLa1AFy-2XvQ-sovv","playlistName":"شرح صحيح البخاري - أ.د. يسري جبر (كاملا)","category":"حديث"},{"id":"S8bT9NjqUak","title":"مقرأة سورة الأحزاب من ٱية ١٨","publishedAt":"2018-07-21T14:04:35Z","duration":"PT12M44S","thumbnail":"https://i.ytimg.com/vi/S8bT9NjqUak/mqdefault.jpg","viewCount":"311","playlistId":"PLEkQk5xrP-tnmTYsyW6xNdyfhPq0Bhrhj","playlistName":"مقرأة الفجر - القُرْآنُ الكَرِيمُ - خَتْمَةُ التَّدَبُّرِ  أ.د. يسري جبر","category":"متنوع"},{"id":"6o4Q4-q5pXg","title":"67- باب مَا جَاءَ فِى الْخِيَارِ  ك الموطأ د يسري جبر الأزهري","publishedAt":"2018-07-20T11:30:51Z","duration":"PT49M10S","thumbnail":"https://i.ytimg.com/vi/6o4Q4-q5pXg/mqdefault.jpg","viewCount":"186","playlistId":"PLEkQk5xrP-tnC6BRuqMjyO-484iqXeg0o","playlistName":"شرح كتاب الموطأ للإمام مالك","category":"متنوع"},{"id":"L3DCeEf9hOM","title":"شرح صحيح البخاري كتاب الذبائح والصيد من باب ٢٥","publishedAt":"2018-07-19T21:02:46Z","duration":"PT38M11S","thumbnail":"https://i.ytimg.com/vi/L3DCeEf9hOM/mqdefault.jpg","viewCount":"463","playlistId":"PLEkQk5xrP-tlEerGoLa1AFy-2XvQ-sovv","playlistName":"شرح صحيح البخاري - أ.د. يسري جبر (كاملا)","category":"حديث"},{"id":"KgukMU92Tr8","title":"الرسالة القشيرية-المجلس الثالث و العشرون- باب في تفسير ألفاظ تدور بين هذه الطائفة وبيان ما يشكل منها","publishedAt":"2018-07-19T18:35:04Z","duration":"PT50M11S","thumbnail":"https://i.ytimg.com/vi/KgukMU92Tr8/mqdefault.jpg","viewCount":"7282","playlistId":"PLEkQk5xrP-tkHAGOwIKr4pc5ehhyQ5HMJ","playlistName":"كتاب الرسالة القشيرية (تصوف) - د. يسري جبر","category":"تصوف"},{"id":"QZld4emReIg","title":"66- باب مَا لاَ يُبِينُ مِنَ التَّمْلِيكِ  ك الموطأ د يسري جبر الأزهري","publishedAt":"2018-07-19T17:47:15Z","duration":"PT57M35S","thumbnail":"https://i.ytimg.com/vi/QZld4emReIg/mqdefault.jpg","viewCount":"206","playlistId":"PLEkQk5xrP-tnC6BRuqMjyO-484iqXeg0o","playlistName":"شرح كتاب الموطأ للإمام مالك","category":"متنوع"},{"id":"uQfUnMbc03w","title":"مقرأة سورة الأحزاب من ٱية ١٤","publishedAt":"2018-07-19T08:28:44Z","duration":"PT5M23S","thumbnail":"https://i.ytimg.com/vi/uQfUnMbc03w/mqdefault.jpg","viewCount":"327","playlistId":"PLEkQk5xrP-tnmTYsyW6xNdyfhPq0Bhrhj","playlistName":"مقرأة الفجر - القُرْآنُ الكَرِيمُ - خَتْمَةُ التَّدَبُّرِ  أ.د. يسري جبر","category":"متنوع"},{"id":"pdWEQbgdQ1U","title":"شرح صحيح البخاري كتاب الذبائح والصيد من باب ١٦","publishedAt":"2018-07-18T15:41:56Z","duration":"PT33M35S","thumbnail":"https://i.ytimg.com/vi/pdWEQbgdQ1U/mqdefault.jpg","viewCount":"395","playlistId":"PLEkQk5xrP-tlEerGoLa1AFy-2XvQ-sovv","playlistName":"شرح صحيح البخاري - أ.د. يسري جبر (كاملا)","category":"حديث"},{"id":"F7jrQT5yUZY","title":"مقرأة سورة الأحزاب من ٱية ٩","publishedAt":"2018-07-18T11:33:19Z","duration":"PT20M5S","thumbnail":"https://i.ytimg.com/vi/F7jrQT5yUZY/mqdefault.jpg","viewCount":"343","playlistId":"PLEkQk5xrP-tnmTYsyW6xNdyfhPq0Bhrhj","playlistName":"مقرأة الفجر - القُرْآنُ الكَرِيمُ - خَتْمَةُ التَّدَبُّرِ  أ.د. يسري جبر","category":"متنوع"},{"id":"F6dfbTYhyUs","title":"65- قتال أهل البغي - شرح مسند الإمام الشافعي رضي الله تعالى عنه","publishedAt":"2023-01-30T05:00:11Z","duration":"PT45M18S","thumbnail":"https://i.ytimg.com/vi/F6dfbTYhyUs/mqdefault.jpg","viewCount":"984","playlistId":"PLEkQk5xrP-tlDtaqY0qhNXAiZ19gaGzKI","playlistName":"شرح مسند الإمام محمد بن إدريس الشافعيّ رضي الله تعالى عنه","category":"فقه"},{"id":"U_Ki19KV-rA","title":"ما هي السنن المهجورة في الصلاة؟","publishedAt":"2023-01-29T18:00:10Z","duration":"PT9M33S","thumbnail":"https://i.ytimg.com/vi/U_Ki19KV-rA/mqdefault.jpg","viewCount":"6707","playlistId":"PLEkQk5xrP-tlArtGpeLWaqNM7h7IDeAVC","playlistName":"خطب الجمعة أ.د. يسري جبر","category":"خطب"},{"id":"AnvV5HaD2Tk","title":"تفسير قوله تعالى\"حَتَّىٰ تَوَارَتْ بِالحِجَابِ\" من سورة ص آية ( ٣٢ ) - شرح كتاب بدع التفاسير","publishedAt":"2023-01-29T05:00:05Z","duration":"PT12M57S","thumbnail":"https://i.ytimg.com/vi/AnvV5HaD2Tk/mqdefault.jpg","viewCount":"3380","playlistId":"PLEkQk5xrP-tkSGrPLMt1BEmJ54cGWYgtp","playlistName":"كتابُ بِدَعِ التَفَاسِيرِ - أ.د. يسري جبر","category":"متنوع"},{"id":"Qaj1WLTJ05E","title":"كيف استطاع النبي ﷺ تغيير البشرية في 23 سنة؟","publishedAt":"2023-01-28T18:00:16Z","duration":"PT15M11S","thumbnail":"https://i.ytimg.com/vi/Qaj1WLTJ05E/mqdefault.jpg","viewCount":"2480","playlistId":"PLEkQk5xrP-tlArtGpeLWaqNM7h7IDeAVC","playlistName":"خطب الجمعة أ.د. يسري جبر","category":"خطب"},{"id":"U3d7afVg1gM","title":"8- إخلاص النية، وحكم الاغتسال في الماء الدائم، وحكم استعمال الرجل فضل وضوء المرأة، وآداب الاستنجاء.","publishedAt":"2023-01-28T09:00:13Z","duration":"PT49M24S","thumbnail":"https://i.ytimg.com/vi/U3d7afVg1gM/mqdefault.jpg","viewCount":"1079","playlistId":"PLEkQk5xrP-tk_MCBZ706ORCw6gFtFyaGj","playlistName":"شرح سنن الإمام الدارقطني","category":"متنوع"},{"id":"G-MNSB0sM2k","title":"24- معنى أوحال التوحيد وكيف نتحقق بقول لا حول ولا قوة إلّا بالله؟ - شرح عقيدة العارفين","publishedAt":"2023-01-28T05:00:06Z","duration":"PT52M59S","thumbnail":"https://i.ytimg.com/vi/G-MNSB0sM2k/mqdefault.jpg","viewCount":"5085","playlistId":"PLEkQk5xrP-tmNuYT8JAh6clwa4krsgkNo","playlistName":"شرح كتاب الفُتُوحات اليُسريَّة في عقائد الأُمَّة المُحمَّديَّة","category":"متنوع"},{"id":"VuHy_fr60Wk","title":"ما هي الأعمال المستحبة في شهر رجب؟","publishedAt":"2023-01-27T18:00:14Z","duration":"PT8M36S","thumbnail":"https://i.ytimg.com/vi/VuHy_fr60Wk/mqdefault.jpg","viewCount":"5950","playlistId":"PLEkQk5xrP-tlArtGpeLWaqNM7h7IDeAVC","playlistName":"خطب الجمعة أ.د. يسري جبر","category":"خطب"},{"id":"S-LMcv_3lpk","title":"394- فضل السماحة في البيع والشراء والأخذ والعطاء وحُسن القضاء والتقاضي - شرح دليل الفالحين","publishedAt":"2023-01-27T09:00:14Z","duration":"PT19M44S","thumbnail":"https://i.ytimg.com/vi/S-LMcv_3lpk/mqdefault.jpg","viewCount":"777","playlistId":"PLEkQk5xrP-tkc9DXvSLguqX5-FYp6ASR4","playlistName":"دليل الفالحين لطرق رياض الصالحين","category":"متنوع"},{"id":"rJy5l7evH8g","title":"شرح صحيح البخاري - كتاب الخصومات من أوله","publishedAt":"2017-05-21T15:48:44Z","duration":"PT35M27S","thumbnail":"https://i.ytimg.com/vi/rJy5l7evH8g/mqdefault.jpg","viewCount":"809","playlistId":"PLEkQk5xrP-tlEerGoLa1AFy-2XvQ-sovv","playlistName":"شرح صحيح البخاري - أ.د. يسري جبر (كاملا)","category":"حديث"},{"id":"w7SU35LeYoc","title":"رُبَّما دلَّهم الأدب على ترك الطلب، اعتمادا على قسمته، واشتغالا بذكره عن مسألته","publishedAt":"2017-05-20T18:03:53Z","duration":"PT10M2S","thumbnail":"https://i.ytimg.com/vi/w7SU35LeYoc/mqdefault.jpg","viewCount":"1230","playlistId":"PLEkQk5xrP-tkI_meE148wc7V7XHlB0WPb","playlistName":"من الحكم العطائية  د. يسري جبر","category":"متنوع"}],"total":7670,"page":262,"pageSize":24,"totalPages":320}