{"items":[{"id":"lPRiPsh1PIY","title":"جانب من الاحتفال بالمولد النبوي الشريف 1446","publishedAt":"2024-09-15T20:04:06Z","duration":"PT1H30M39S","thumbnail":"https://i.ytimg.com/vi/lPRiPsh1PIY/mqdefault.jpg","viewCount":"29156","playlistId":"PLEkQk5xrP-tlB8lmbwjAKR8KRgiykGKhb","playlistName":"حضرات يسرية ومدائح نبوية","category":"متنوع"},{"id":"3V5N8O1RQdA","title":"كيف ولد رسول الله ﷺ؟ | قصة المولد النبوي الشريف","publishedAt":"2024-09-15T14:10:53Z","duration":"PT19M34S","thumbnail":"https://i.ytimg.com/vi/3V5N8O1RQdA/mqdefault.jpg","viewCount":"7150","playlistId":"PLEkQk5xrP-tlArtGpeLWaqNM7h7IDeAVC","playlistName":"خطب الجمعة أ.د. يسري جبر","category":"خطب"},{"id":"oGPiMQZmZOg","title":"124- كان النَّبيُّ ﷺ يسمع الصوت ويرى الضوء - شرح مسند الإمام أحمد رضي الله تعالى عنه","publishedAt":"2024-09-15T06:00:24Z","duration":"PT35M14S","thumbnail":"https://i.ytimg.com/vi/oGPiMQZmZOg/mqdefault.jpg","viewCount":"1454","playlistId":"PLEkQk5xrP-tkKprIuGrSdEuBSMsyg5We1","playlistName":"شرح مسند الإمام أحمد بن حنبل","category":"متنوع"},{"id":"COwwrZ2dXEQ","title":"الرد على من ينكر الاحتفال بالمولد النبوي!","publishedAt":"2024-09-14T17:00:14Z","duration":"PT9M16S","thumbnail":"https://i.ytimg.com/vi/COwwrZ2dXEQ/mqdefault.jpg","viewCount":"5063","playlistId":"PLEkQk5xrP-tlArtGpeLWaqNM7h7IDeAVC","playlistName":"خطب الجمعة أ.د. يسري جبر","category":"خطب"},{"id":"a0QARaqmAGQ","title":"254- الإيغال وهو الإمعان - شرح الإتقان في علوم القرآن","publishedAt":"2024-09-11T05:55:52Z","duration":"PT28M40S","thumbnail":"https://i.ytimg.com/vi/a0QARaqmAGQ/mqdefault.jpg","viewCount":"790","playlistId":"PLEkQk5xrP-tlPw10KGJKagu7zm4Ry2Tge","playlistName":"شرح الإتقان في علوم القرآن","category":"تفسير"},{"id":"Sqa5bv7YfuY","title":"ما حكم قراءة القرآن بدون تجويد؟","publishedAt":"2024-09-10T18:23:28Z","duration":"PT8M52S","thumbnail":"https://i.ytimg.com/vi/Sqa5bv7YfuY/mqdefault.jpg","viewCount":"4401","playlistId":"PLEkQk5xrP-tkGXuZ9atE3k_7it12rUPTs","playlistName":"أسئلة المتابعين","category":"متنوع"},{"id":"BKGId54cCew","title":"هل حلق اللحية من الكبائر؟","publishedAt":"2024-09-09T18:37:42Z","duration":"PT10M50S","thumbnail":"https://i.ytimg.com/vi/BKGId54cCew/mqdefault.jpg","viewCount":"5997","playlistId":"PLEkQk5xrP-tnZyxWbCSqTSMV9BJLUL-zN","playlistName":"شرح كتاب تنوير البصيرة ببيان علامات الكبيرة","category":"متنوع"},{"id":"No6FUxGdsa0","title":"123- \"يَسْتَبْشِرُونَ بِنِعْمَةٍ منَ اللهِ وَفَضْلٍ وَأَنَّ ﷲَ لَا يُضِيعُ أَجْرَ الْمُؤْمِنِين\"","publishedAt":"2024-09-09T06:00:19Z","duration":"PT16M14S","thumbnail":"https://i.ytimg.com/vi/No6FUxGdsa0/mqdefault.jpg","viewCount":"1254","playlistId":"PLEkQk5xrP-tkKprIuGrSdEuBSMsyg5We1","playlistName":"شرح مسند الإمام أحمد بن حنبل","category":"متنوع"},{"id":"MYDWOsFv5uQ","title":"ما هو الفتح عند الصوفية وهل يكون للأولياء فقط؟","publishedAt":"2024-09-08T17:18:36Z","duration":"PT8M34S","thumbnail":"https://i.ytimg.com/vi/MYDWOsFv5uQ/mqdefault.jpg","viewCount":"10977","playlistId":"PLEkQk5xrP-tm8ZIu74nTOZN9KJUJu416J","playlistName":"مقاطع مُهمَّة (يُسريَّات) أ.د. يسري جبر","category":"متنوع"},{"id":"O6vRVKrNOG8","title":"33- ما هو علم اللوح والقلم؟ | شرح مختصر الفتوحات المكية","publishedAt":"2024-09-07T16:00:20Z","duration":"PT32M47S","thumbnail":"https://i.ytimg.com/vi/O6vRVKrNOG8/mqdefault.jpg","viewCount":"5441","playlistId":"PLEkQk5xrP-tnpkdZki6rPTtMak1bnI5g-","playlistName":"شرح كتاب مختصر الفتوحات المكية المسمى لواقح الأنوار القدسية","category":"متنوع"},{"id":"fvebb0g180g","title":"8- مما يدلك على وجود قهره سبحانه أن حجبك عنه بما ليس بموجود معه | شرح الحكم العطائية","publishedAt":"2024-09-05T16:00:41Z","duration":"PT44M55S","thumbnail":"https://i.ytimg.com/vi/fvebb0g180g/mqdefault.jpg","viewCount":"6043","playlistId":"PLEkQk5xrP-tmf5ToOwmW-q0JwxkapbrMN","playlistName":"شرح كتاب إرشاد البرية إلى بعض معاني الحكم العطائية","category":"متنوع"},{"id":"MBsAZw0Vcqs","title":"253- من غرائب التفسير وعجائب التأويل - شرح الإتقان في علوم القرآن","publishedAt":"2024-09-05T08:03:32Z","duration":"PT48M","thumbnail":"https://i.ytimg.com/vi/MBsAZw0Vcqs/mqdefault.jpg","viewCount":"816","playlistId":"PLEkQk5xrP-tlPw10KGJKagu7zm4Ry2Tge","playlistName":"شرح الإتقان في علوم القرآن","category":"تفسير"},{"id":"rLlYdiuA1bE","title":"بذكرى المولد نحيا","publishedAt":"2024-09-04T16:38:42Z","duration":"PT19M42S","thumbnail":"https://i.ytimg.com/vi/rLlYdiuA1bE/mqdefault.jpg","viewCount":"9377","playlistId":"PLEkQk5xrP-tm8ZIu74nTOZN9KJUJu416J","playlistName":"مقاطع مُهمَّة (يُسريَّات) أ.د. يسري جبر","category":"متنوع"},{"id":"31qPQGVIGM8","title":"الرضا بالقضاء والقدر","publishedAt":"2024-09-03T17:51:21Z","duration":"PT17M44S","thumbnail":"https://i.ytimg.com/vi/31qPQGVIGM8/mqdefault.jpg","viewCount":"5331","playlistId":"PLEkQk5xrP-tlArtGpeLWaqNM7h7IDeAVC","playlistName":"خطب الجمعة أ.د. يسري جبر","category":"خطب"},{"id":"lrXTgsuUy1Y","title":"مقرأة سورة النحل من آية ٧٩","publishedAt":"2017-08-30T11:52:40Z","duration":"PT17M1S","thumbnail":"https://i.ytimg.com/vi/lrXTgsuUy1Y/mqdefault.jpg","viewCount":"308","playlistId":"PLEkQk5xrP-tnmTYsyW6xNdyfhPq0Bhrhj","playlistName":"مقرأة الفجر - القُرْآنُ الكَرِيمُ - خَتْمَةُ التَّدَبُّرِ  أ.د. يسري جبر","category":"متنوع"},{"id":"3dvsg0NjsBI","title":"شرح صحيح البخاري - كتاب فرض الخمس من باب ٩","publishedAt":"2017-08-29T22:03:45Z","duration":"PT37M16S","thumbnail":"https://i.ytimg.com/vi/3dvsg0NjsBI/mqdefault.jpg","viewCount":"599","playlistId":"PLEkQk5xrP-tlEerGoLa1AFy-2XvQ-sovv","playlistName":"شرح صحيح البخاري - أ.د. يسري جبر (كاملا)","category":"حديث"},{"id":"B3vvX5Cx-O8","title":"صلاة العيد وصلاة الجمعة  د. يسري جبر","publishedAt":"2017-08-29T20:31:01Z","duration":"PT1M24S","thumbnail":"https://i.ytimg.com/vi/B3vvX5Cx-O8/mqdefault.jpg","viewCount":"1079","playlistId":"PLEkQk5xrP-tm8ZIu74nTOZN9KJUJu416J","playlistName":"مقاطع مُهمَّة (يُسريَّات) أ.د. يسري جبر","category":"متنوع"},{"id":"CyGleXILhBc","title":"قيد الطاعات بأنواع الأوقات، كي لا يمنعك عنها وجود التسويف، ووسع الوقت عليك، كي تبقى لك حصة الاختيار.","publishedAt":"2017-08-29T19:34:54Z","duration":"PT6M16S","thumbnail":"https://i.ytimg.com/vi/CyGleXILhBc/mqdefault.jpg","viewCount":"553","playlistId":"PLEkQk5xrP-tkI_meE148wc7V7XHlB0WPb","playlistName":"من الحكم العطائية  د. يسري جبر","category":"متنوع"},{"id":"-tCXdA3lML8","title":"شرح صحيح الإمام البخاري رضي الله عنه - كتاب الرقاق باب من همَّ بحسنة أو بسيئة (8) د.يسري جبر","publishedAt":"2017-08-29T18:35:41Z","duration":"PT39M59S","thumbnail":"https://i.ytimg.com/vi/-tCXdA3lML8/mqdefault.jpg","viewCount":"148","playlistId":"PLEkQk5xrP-tmJuzaj4GWRenFoFx9gdbFX","playlistName":"شرح كتاب صحيح الإمام البخاري رضي الله تعالى عنه   أ.د. يسرى جبر","category":"حديث"},{"id":"kk3I_DS5Igs","title":"ما من أَيام الْعملُ الصَّالح فيهِا أَحبُّ إِلى اللَّه من هذه الأيام يعني أيام العشرِ د.يسري جبر","publishedAt":"2017-08-29T16:59:26Z","duration":"PT40M50S","thumbnail":"https://i.ytimg.com/vi/kk3I_DS5Igs/mqdefault.jpg","viewCount":"428","playlistId":"PLEkQk5xrP-tlArtGpeLWaqNM7h7IDeAVC","playlistName":"خطب الجمعة أ.د. يسري جبر","category":"خطب"},{"id":"OePqo0_bp54","title":"مقرأة سورة النحل من آية ٧٥","publishedAt":"2017-08-29T14:48:13Z","duration":"PT11M39S","thumbnail":"https://i.ytimg.com/vi/OePqo0_bp54/mqdefault.jpg","viewCount":"279","playlistId":"PLEkQk5xrP-tnmTYsyW6xNdyfhPq0Bhrhj","playlistName":"مقرأة الفجر - القُرْآنُ الكَرِيمُ - خَتْمَةُ التَّدَبُّرِ  أ.د. يسري جبر","category":"متنوع"},{"id":"fHKOYKEMmFo","title":"من علامة اتباع الهوى: المسارعة إلى نوافل الخيرات، والتكاسل عن القيام بحقوق الواجبات","publishedAt":"2017-08-28T21:37:42Z","duration":"PT13M4S","thumbnail":"https://i.ytimg.com/vi/fHKOYKEMmFo/mqdefault.jpg","viewCount":"896","playlistId":"PLEkQk5xrP-tkI_meE148wc7V7XHlB0WPb","playlistName":"من الحكم العطائية  د. يسري جبر","category":"متنوع"},{"id":"SF9Mj2tfx6U","title":"شرح كتاب نوراليقين في سيرة سيد المرسلين - المجلس العشرون ( بدء القتال ) د.يسري جبر","publishedAt":"2017-08-28T21:16:39Z","duration":"PT1H3M12S","thumbnail":"https://i.ytimg.com/vi/SF9Mj2tfx6U/mqdefault.jpg","viewCount":"23455","playlistId":"PLEkQk5xrP-tl2t4NQx1IhKnAJCMzF0Nli","playlistName":"شرح كتاب نور اليقين في سيرة سيد المرسلين   د. يسري جبر","category":"سيرة"},{"id":"hHtynL2v6W8","title":"شرح صحيح البخاري - كتاب فرض الخمس من باب ٦","publishedAt":"2017-08-28T14:24:18Z","duration":"PT31M51S","thumbnail":"https://i.ytimg.com/vi/hHtynL2v6W8/mqdefault.jpg","viewCount":"628","playlistId":"PLEkQk5xrP-tlEerGoLa1AFy-2XvQ-sovv","playlistName":"شرح صحيح البخاري - أ.د. يسري جبر (كاملا)","category":"حديث"}],"total":7670,"page":23,"pageSize":24,"totalPages":320}