{"items":[{"id":"JtiSzF0FTcE","title":"(13) سيدنا أبو عبد الرحمن حاتم بن علوان رضي الله عنه  د. يسري جبر","publishedAt":"2018-04-14T18:35:34Z","duration":"PT8M27S","thumbnail":"https://i.ytimg.com/vi/JtiSzF0FTcE/mqdefault.jpg","viewCount":"1802","playlistId":"PLEkQk5xrP-tmmI87XkWepRdTpisz2Lfgr","playlistName":"باب في ذكر مشايخ هذه الطريقة من شرح كتاب الرسالة القشيرية","category":"تصوف"},{"id":"VDIbqSuXFuQ","title":"(12) سيدنا أبو سليمان عبد الرحمن بن عطية الدَّاراني رضي الله عنه  د. يسري جبر","publishedAt":"2018-04-14T17:41:35Z","duration":"PT9M29S","thumbnail":"https://i.ytimg.com/vi/VDIbqSuXFuQ/mqdefault.jpg","viewCount":"2965","playlistId":"PLEkQk5xrP-tmmI87XkWepRdTpisz2Lfgr","playlistName":"باب في ذكر مشايخ هذه الطريقة من شرح كتاب الرسالة القشيرية","category":"تصوف"},{"id":"RUesmylXQzM","title":"مقرأة سورة الشعراء من آية ٦٩","publishedAt":"2018-04-14T12:06:32Z","duration":"PT26M47S","thumbnail":"https://i.ytimg.com/vi/RUesmylXQzM/mqdefault.jpg","viewCount":"242","playlistId":"PLEkQk5xrP-tnmTYsyW6xNdyfhPq0Bhrhj","playlistName":"مقرأة الفجر - القُرْآنُ الكَرِيمُ - خَتْمَةُ التَّدَبُّرِ  أ.د. يسري جبر","category":"متنوع"},{"id":"jLytC9QaPv4","title":"كلمة فضيلة الدكتور يسري جبر في مؤتمر التصوف العالمي السابع فى مقديشو 1/2","publishedAt":"2018-04-13T11:42:59Z","duration":"PT16M47S","thumbnail":"https://i.ytimg.com/vi/jLytC9QaPv4/mqdefault.jpg","viewCount":"2557","playlistId":"PLEkQk5xrP-tm8ZIu74nTOZN9KJUJu416J","playlistName":"مقاطع مُهمَّة (يُسريَّات) أ.د. يسري جبر","category":"متنوع"},{"id":"g4M-v5xrXBM","title":"شرح صحيح البخاري - كتاب المغازي تكملة باب ٣٦","publishedAt":"2018-02-04T17:31:55Z","duration":"PT35M17S","thumbnail":"https://i.ytimg.com/vi/g4M-v5xrXBM/mqdefault.jpg","viewCount":"539","playlistId":"PLEkQk5xrP-tlEerGoLa1AFy-2XvQ-sovv","playlistName":"شرح صحيح البخاري - أ.د. يسري جبر (كاملا)","category":"حديث"},{"id":"314SWl4kY4Y","title":"مقرأة سورة الحج من آية ٣٨","publishedAt":"2018-02-04T13:42:05Z","duration":"PT16M48S","thumbnail":"https://i.ytimg.com/vi/314SWl4kY4Y/mqdefault.jpg","viewCount":"236","playlistId":"PLEkQk5xrP-tnmTYsyW6xNdyfhPq0Bhrhj","playlistName":"مقرأة الفجر - القُرْآنُ الكَرِيمُ - خَتْمَةُ التَّدَبُّرِ  أ.د. يسري جبر","category":"متنوع"},{"id":"_NtxXSgKKNQ","title":"الرسالة القشيرية للإمام القشيري النيسابوري رضي الله عنه المجلس التاسع (باب في ذكر مشايخ هذه الطريقة)","publishedAt":"2018-02-03T18:09:14Z","duration":"PT1H1M20S","thumbnail":"https://i.ytimg.com/vi/_NtxXSgKKNQ/mqdefault.jpg","viewCount":"13401","playlistId":"PLEkQk5xrP-tkHAGOwIKr4pc5ehhyQ5HMJ","playlistName":"كتاب الرسالة القشيرية (تصوف) - د. يسري جبر","category":"تصوف"},{"id":"aMvULLMhEO0","title":"شرح صحيح البخاري - كتاب المغازي من باب ٣٤","publishedAt":"2018-02-03T16:50:01Z","duration":"PT37M28S","thumbnail":"https://i.ytimg.com/vi/aMvULLMhEO0/mqdefault.jpg","viewCount":"550","playlistId":"PLEkQk5xrP-tlEerGoLa1AFy-2XvQ-sovv","playlistName":"شرح صحيح البخاري - أ.د. يسري جبر (كاملا)","category":"حديث"},{"id":"l7ABc_w2TB8","title":"مقرأة سورة الحج من آية ٣٢","publishedAt":"2018-02-03T12:17:27Z","duration":"PT19M3S","thumbnail":"https://i.ytimg.com/vi/l7ABc_w2TB8/mqdefault.jpg","viewCount":"265","playlistId":"PLEkQk5xrP-tnmTYsyW6xNdyfhPq0Bhrhj","playlistName":"مقرأة الفجر - القُرْآنُ الكَرِيمُ - خَتْمَةُ التَّدَبُّرِ  أ.د. يسري جبر","category":"متنوع"},{"id":"vU9OHGBsBJk","title":"شرح صحيح البخاري   كتاب المغازي من باب ٣٣","publishedAt":"2018-02-01T20:32:41Z","duration":"PT24M48S","thumbnail":"https://i.ytimg.com/vi/vU9OHGBsBJk/mqdefault.jpg","viewCount":"513","playlistId":"PLEkQk5xrP-tlEerGoLa1AFy-2XvQ-sovv","playlistName":"شرح صحيح البخاري - أ.د. يسري جبر (كاملا)","category":"حديث"},{"id":"RIhZGL58jAE","title":"منْ تمامِ النعمةِ عليك: أنْ يرزقكَ ما يَكْفيكَ، ويَمْنعكَ ما يُطْغيك.","publishedAt":"2018-02-01T17:57:11Z","duration":"PT8M16S","thumbnail":"https://i.ytimg.com/vi/RIhZGL58jAE/mqdefault.jpg","viewCount":"1414","playlistId":"PLEkQk5xrP-tkI_meE148wc7V7XHlB0WPb","playlistName":"من الحكم العطائية  د. يسري جبر","category":"متنوع"},{"id":"ZlCr8L0q7XQ","title":"مقرأة سورة الحج من آية ٢٩","publishedAt":"2018-02-01T13:07:12Z","duration":"PT18M53S","thumbnail":"https://i.ytimg.com/vi/ZlCr8L0q7XQ/mqdefault.jpg","viewCount":"296","playlistId":"PLEkQk5xrP-tnmTYsyW6xNdyfhPq0Bhrhj","playlistName":"مقرأة الفجر - القُرْآنُ الكَرِيمُ - خَتْمَةُ التَّدَبُّرِ  أ.د. يسري جبر","category":"متنوع"},{"id":"eHPz-SBT-0c","title":"شرح صحيح البخاري   كتاب المغازي من باب ٣٢","publishedAt":"2018-01-31T13:43:49Z","duration":"PT22M31S","thumbnail":"https://i.ytimg.com/vi/eHPz-SBT-0c/mqdefault.jpg","viewCount":"512","playlistId":"PLEkQk5xrP-tlEerGoLa1AFy-2XvQ-sovv","playlistName":"شرح صحيح البخاري - أ.د. يسري جبر (كاملا)","category":"حديث"},{"id":"7OeK1c63w0s","title":"مقرأة سورة الحج من آية ٢٥","publishedAt":"2018-01-31T09:57:21Z","duration":"PT29M7S","thumbnail":"https://i.ytimg.com/vi/7OeK1c63w0s/mqdefault.jpg","viewCount":"351","playlistId":"PLEkQk5xrP-tnmTYsyW6xNdyfhPq0Bhrhj","playlistName":"مقرأة الفجر - القُرْآنُ الكَرِيمُ - خَتْمَةُ التَّدَبُّرِ  أ.د. يسري جبر","category":"متنوع"},{"id":"hPubxcYsmeo","title":"شرح صحيح البخاري - كتاب المغازي تكملة باب ٣١","publishedAt":"2018-01-30T13:36:23Z","duration":"PT42M9S","thumbnail":"https://i.ytimg.com/vi/hPubxcYsmeo/mqdefault.jpg","viewCount":"569","playlistId":"PLEkQk5xrP-tlEerGoLa1AFy-2XvQ-sovv","playlistName":"شرح صحيح البخاري - أ.د. يسري جبر (كاملا)","category":"حديث"},{"id":"dqHRvrCprpc","title":"صحيح البخاري - كتاب الفرائض - باب ميراث الزوج مع الولد وغيره","publishedAt":"2018-01-30T13:15:08Z","duration":"PT1H5M4S","thumbnail":"https://i.ytimg.com/vi/dqHRvrCprpc/mqdefault.jpg","viewCount":"118","playlistId":"PLEkQk5xrP-tmJuzaj4GWRenFoFx9gdbFX","playlistName":"شرح كتاب صحيح الإمام البخاري رضي الله تعالى عنه   أ.د. يسرى جبر","category":"حديث"},{"id":"CeRQjzGj1bk","title":"مقرأة سورة الحج من آية ١٩","publishedAt":"2018-01-30T10:42:52Z","duration":"PT13M29S","thumbnail":"https://i.ytimg.com/vi/CeRQjzGj1bk/mqdefault.jpg","viewCount":"361","playlistId":"PLEkQk5xrP-tnmTYsyW6xNdyfhPq0Bhrhj","playlistName":"مقرأة الفجر - القُرْآنُ الكَرِيمُ - خَتْمَةُ التَّدَبُّرِ  أ.د. يسري جبر","category":"متنوع"},{"id":"HZmHk1LKXt4","title":"شرح كتاب نوراليقين في سيرة سيد المرسلين - المجلس 36 ( غزوة الحديبية) د.يسري جبر","publishedAt":"2018-01-30T03:37:35Z","duration":"PT47M55S","thumbnail":"https://i.ytimg.com/vi/HZmHk1LKXt4/mqdefault.jpg","viewCount":"14007","playlistId":"PLEkQk5xrP-tl2t4NQx1IhKnAJCMzF0Nli","playlistName":"شرح كتاب نور اليقين في سيرة سيد المرسلين   د. يسري جبر","category":"سيرة"},{"id":"GfpG1382sb8","title":"الحكمة في الخلق والتدبير  د. يسري جبر","publishedAt":"2018-01-29T18:41:26Z","duration":"PT29M26S","thumbnail":"https://i.ytimg.com/vi/GfpG1382sb8/mqdefault.jpg","viewCount":"1966","playlistId":"PLEkQk5xrP-tlArtGpeLWaqNM7h7IDeAVC","playlistName":"خطب الجمعة أ.د. يسري جبر","category":"خطب"},{"id":"ZL61f4qHYi0","title":"لا يُعلم قدْر أنوارِ القلوب والأسرار إلا في غيب الملكوت كما لا تظهر أنوار السماء إلا في شهادة المُلك","publishedAt":"2018-01-28T17:48:32Z","duration":"PT15M51S","thumbnail":"https://i.ytimg.com/vi/ZL61f4qHYi0/mqdefault.jpg","viewCount":"10107","playlistId":"PLEkQk5xrP-tkI_meE148wc7V7XHlB0WPb","playlistName":"من الحكم العطائية  د. يسري جبر","category":"متنوع"},{"id":"espUFSDm1WU","title":"دَلَّ بوجُود آثاره على وجُود أسمائه،وبوجُود أسمائه على ثُبوت أوصافه، وبثُبوت أوصافه على وجود ذاته...","publishedAt":"2018-01-26T19:46:57Z","duration":"PT19M3S","thumbnail":"https://i.ytimg.com/vi/espUFSDm1WU/mqdefault.jpg","viewCount":"2628","playlistId":"PLEkQk5xrP-tkI_meE148wc7V7XHlB0WPb","playlistName":"من الحكم العطائية  د. يسري جبر","category":"متنوع"},{"id":"jmTRAVYZnDY","title":"أنتَ معَ الأكوَانِ مَا لمْ تشْهَد المُكَوِّنَ، فإذا شَهِدتهُ كانت الأكوانُ مَعَك.","publishedAt":"2018-01-25T19:14:54Z","duration":"PT17M36S","thumbnail":"https://i.ytimg.com/vi/jmTRAVYZnDY/mqdefault.jpg","viewCount":"6737","playlistId":"PLEkQk5xrP-tkI_meE148wc7V7XHlB0WPb","playlistName":"من الحكم العطائية  د. يسري جبر","category":"متنوع"},{"id":"fPDgfktnfH4","title":"الكائنُ في الكَونِ ولم تُفْتح له ميادينُ الغُيوبِ، مَسْجونٌ بمُحيطاته، ومَحْصُورٌ في هَيكل ذاتِه.","publishedAt":"2018-01-24T18:40:47Z","duration":"PT7M36S","thumbnail":"https://i.ytimg.com/vi/fPDgfktnfH4/mqdefault.jpg","viewCount":"2449","playlistId":"PLEkQk5xrP-tkI_meE148wc7V7XHlB0WPb","playlistName":"من الحكم العطائية  د. يسري جبر","category":"متنوع"},{"id":"sHlNd3XNfWo","title":"شرح صحيح البخاري   كتاب المغازي من باب ٣٠","publishedAt":"2018-01-24T00:01:27Z","duration":"PT44M1S","thumbnail":"https://i.ytimg.com/vi/sHlNd3XNfWo/mqdefault.jpg","viewCount":"706","playlistId":"PLEkQk5xrP-tlEerGoLa1AFy-2XvQ-sovv","playlistName":"شرح صحيح البخاري - أ.د. يسري جبر (كاملا)","category":"حديث"}],"total":7670,"page":216,"pageSize":24,"totalPages":320}