{"items":[{"id":"OuPo0ewQxt0","title":"شرح كتاب الإيمان من سنن الترمذي - المجلس الخامس","publishedAt":"2016-02-28T08:38:20Z","duration":"PT34M26S","thumbnail":"https://i.ytimg.com/vi/OuPo0ewQxt0/mqdefault.jpg","viewCount":"108","playlistId":"PLEkQk5xrP-tnu6of679SvxdVx0qSrJzmb","playlistName":"شرح سنن الإمام الترمذي رضى الله عنه د. يسري جبر","category":"متنوع"},{"id":"grcUwcD3oCk","title":"قراءة القرآن (من أول سورة الجن)","publishedAt":"2016-02-28T07:27:00Z","duration":"PT25M8S","thumbnail":"https://i.ytimg.com/vi/grcUwcD3oCk/mqdefault.jpg","viewCount":"158","playlistId":"PLEkQk5xrP-tnUSUj0uyJhA-kwNC7Gkx_j","playlistName":"مقرأة الفجر - بداية من سورة الإسراء حتى سورة الناس","category":"تفسير"},{"id":"xq1uZ4-K30s","title":"شرح كتاب الإيمان من سنن الترمذي - المجلس الرابع","publishedAt":"2016-02-28T06:20:57Z","duration":"PT41M20S","thumbnail":"https://i.ytimg.com/vi/xq1uZ4-K30s/mqdefault.jpg","viewCount":"104","playlistId":"PLEkQk5xrP-tnu6of679SvxdVx0qSrJzmb","playlistName":"شرح سنن الإمام الترمذي رضى الله عنه د. يسري جبر","category":"متنوع"},{"id":"bnX9WLFsnIg","title":"مقدمة سورة الجن","publishedAt":"2016-02-27T06:52:52Z","duration":"PT22M50S","thumbnail":"https://i.ytimg.com/vi/bnX9WLFsnIg/mqdefault.jpg","viewCount":"320","playlistId":"PLEkQk5xrP-tnUSUj0uyJhA-kwNC7Gkx_j","playlistName":"مقرأة الفجر - بداية من سورة الإسراء حتى سورة الناس","category":"تفسير"},{"id":"EBfrPQtwkUI","title":"شُبهات حول أُمّيّة النبىِ صلى الله عليه وآله وسلم وحول الغنائم فى عصرنا   د. يسرى جبر","publishedAt":"2016-02-26T19:34:17Z","duration":"PT44M3S","thumbnail":"https://i.ytimg.com/vi/EBfrPQtwkUI/mqdefault.jpg","viewCount":"520","playlistId":"PLEkQk5xrP-tlArtGpeLWaqNM7h7IDeAVC","playlistName":"خطب الجمعة أ.د. يسري جبر","category":"خطب"},{"id":"6e3z98eXLxw","title":"شرح كتاب الإيمان من سنن الترمذي - المجلس الثالث","publishedAt":"2016-02-25T08:49:32Z","duration":"PT33M52S","thumbnail":"https://i.ytimg.com/vi/6e3z98eXLxw/mqdefault.jpg","viewCount":"134","playlistId":"PLEkQk5xrP-tnu6of679SvxdVx0qSrJzmb","playlistName":"شرح سنن الإمام الترمذي رضى الله عنه د. يسري جبر","category":"متنوع"},{"id":"O8vkKv_I_sg","title":"قراءة القرآن (من أول سورة نوح)","publishedAt":"2016-02-25T07:47:49Z","duration":"PT26M54S","thumbnail":"https://i.ytimg.com/vi/O8vkKv_I_sg/mqdefault.jpg","viewCount":"111","playlistId":"PLEkQk5xrP-tnUSUj0uyJhA-kwNC7Gkx_j","playlistName":"مقرأة الفجر - بداية من سورة الإسراء حتى سورة الناس","category":"تفسير"},{"id":"_9C5KFmadEM","title":"شرح كتاب الإيمان من سنن الترمذي - المجلس الثاني","publishedAt":"2016-02-24T08:58:47Z","duration":"PT49M15S","thumbnail":"https://i.ytimg.com/vi/_9C5KFmadEM/mqdefault.jpg","viewCount":"144","playlistId":"PLEkQk5xrP-tnu6of679SvxdVx0qSrJzmb","playlistName":"شرح سنن الإمام الترمذي رضى الله عنه د. يسري جبر","category":"متنوع"},{"id":"GzNjiiVVvPU","title":"قراءة القرآن (من آية ٢٩ سورة المعارج)","publishedAt":"2016-02-24T07:24:02Z","duration":"PT17M59S","thumbnail":"https://i.ytimg.com/vi/GzNjiiVVvPU/mqdefault.jpg","viewCount":"122","playlistId":"PLEkQk5xrP-tnUSUj0uyJhA-kwNC7Gkx_j","playlistName":"مقرأة الفجر - بداية من سورة الإسراء حتى سورة الناس","category":"تفسير"},{"id":"rC5OIlSkJiI","title":"شرح كتاب الإيمان من سنن الترمذي - المجلس الأول","publishedAt":"2016-02-23T10:49:50Z","duration":"PT39M3S","thumbnail":"https://i.ytimg.com/vi/rC5OIlSkJiI/mqdefault.jpg","viewCount":"182","playlistId":"PLEkQk5xrP-tnu6of679SvxdVx0qSrJzmb","playlistName":"شرح سنن الإمام الترمذي رضى الله عنه د. يسري جبر","category":"متنوع"},{"id":"Ldfz5DS8Ch0","title":"قراءة القرآن (من أول سورة المعارج)","publishedAt":"2016-02-23T09:49:02Z","duration":"PT27M58S","thumbnail":"https://i.ytimg.com/vi/Ldfz5DS8Ch0/mqdefault.jpg","viewCount":"105","playlistId":"PLEkQk5xrP-tnUSUj0uyJhA-kwNC7Gkx_j","playlistName":"مقرأة الفجر - بداية من سورة الإسراء حتى سورة الناس","category":"تفسير"},{"id":"QrLysP0MXyI","title":"شرح كتاب صفة جهنم من سنن الترمذي - المجلس الثاني","publishedAt":"2016-02-23T08:29:50Z","duration":"PT44M15S","thumbnail":"https://i.ytimg.com/vi/QrLysP0MXyI/mqdefault.jpg","viewCount":"196","playlistId":"PLEkQk5xrP-tnu6of679SvxdVx0qSrJzmb","playlistName":"شرح سنن الإمام الترمذي رضى الله عنه د. يسري جبر","category":"متنوع"},{"id":"xRQJ4xa3dLs","title":"قراءة القرآن (من أول سورة الحاقة)","publishedAt":"2016-02-23T07:14:24Z","duration":"PT18M41S","thumbnail":"https://i.ytimg.com/vi/xRQJ4xa3dLs/mqdefault.jpg","viewCount":"87","playlistId":"PLEkQk5xrP-tnUSUj0uyJhA-kwNC7Gkx_j","playlistName":"مقرأة الفجر - بداية من سورة الإسراء حتى سورة الناس","category":"تفسير"},{"id":"bwPwObzKH9E","title":"شرح كتاب صفة جهنم من سنن الترمذي - المجلس الأول","publishedAt":"2016-02-01T19:27:37Z","duration":"PT42M44S","thumbnail":"https://i.ytimg.com/vi/bwPwObzKH9E/mqdefault.jpg","viewCount":"315","playlistId":"PLEkQk5xrP-tnu6of679SvxdVx0qSrJzmb","playlistName":"شرح سنن الإمام الترمذي رضى الله عنه د. يسري جبر","category":"متنوع"},{"id":"nDZfqkPZqII","title":"قراءة القرآن (من آية ٣٤ سورة القلم)","publishedAt":"2016-02-01T16:00:14Z","duration":"PT10M6S","thumbnail":"https://i.ytimg.com/vi/nDZfqkPZqII/mqdefault.jpg","viewCount":"100","playlistId":"PLEkQk5xrP-tnUSUj0uyJhA-kwNC7Gkx_j","playlistName":"مقرأة الفجر - بداية من سورة الإسراء حتى سورة الناس","category":"تفسير"},{"id":"qISR3J_Vycw","title":"شرح كتاب صفة الجنة من سنن الترمذي - المجلس الخامس","publishedAt":"2016-02-01T04:38:55Z","duration":"PT37M11S","thumbnail":"https://i.ytimg.com/vi/qISR3J_Vycw/mqdefault.jpg","viewCount":"195","playlistId":"PLEkQk5xrP-tnu6of679SvxdVx0qSrJzmb","playlistName":"شرح سنن الإمام الترمذي رضى الله عنه د. يسري جبر","category":"متنوع"},{"id":"QiL1oss_BOc","title":"قراءة القرآن (من أول سورة القلم)","publishedAt":"2016-02-01T02:57:27Z","duration":"PT31M1S","thumbnail":"https://i.ytimg.com/vi/QiL1oss_BOc/mqdefault.jpg","viewCount":"213","playlistId":"PLEkQk5xrP-tnUSUj0uyJhA-kwNC7Gkx_j","playlistName":"مقرأة الفجر - بداية من سورة الإسراء حتى سورة الناس","category":"تفسير"},{"id":"572I8M0JAEc","title":"من مظاهر الحياء ( الأمر بالمعروف والنهى عن المنكر ) د. يسرى جبر","publishedAt":"2016-01-31T20:54:44Z","duration":"PT39M6S","thumbnail":"https://i.ytimg.com/vi/572I8M0JAEc/mqdefault.jpg","viewCount":"260","playlistId":"PLEkQk5xrP-tlArtGpeLWaqNM7h7IDeAVC","playlistName":"خطب الجمعة أ.د. يسري جبر","category":"خطب"},{"id":"D9Y1ElMtBOE","title":"صحيح الإمام البخاري رضي الله تعالى عنه - كتاب الأطعمة - المجلس الرابع","publishedAt":"2016-01-31T20:40:03Z","duration":"PT1H5M44S","thumbnail":"https://i.ytimg.com/vi/D9Y1ElMtBOE/mqdefault.jpg","viewCount":"133","playlistId":"PLEkQk5xrP-tmJuzaj4GWRenFoFx9gdbFX","playlistName":"شرح كتاب صحيح الإمام البخاري رضي الله تعالى عنه   أ.د. يسرى جبر","category":"حديث"},{"id":"ktJ0_EsKDFk","title":"شرح كتاب صفة الجنة من سنن الترمذي - المجلس الرابع","publishedAt":"2016-01-30T15:23:51Z","duration":"PT44M3S","thumbnail":"https://i.ytimg.com/vi/ktJ0_EsKDFk/mqdefault.jpg","viewCount":"254","playlistId":"PLEkQk5xrP-tnu6of679SvxdVx0qSrJzmb","playlistName":"شرح سنن الإمام الترمذي رضى الله عنه د. يسري جبر","category":"متنوع"},{"id":"ENDw4lMBlCg","title":"قراءة القرآن (من آية ١٦ سورة الملك)","publishedAt":"2016-01-30T08:46:18Z","duration":"PT12M12S","thumbnail":"https://i.ytimg.com/vi/ENDw4lMBlCg/mqdefault.jpg","viewCount":"160","playlistId":"PLEkQk5xrP-tnUSUj0uyJhA-kwNC7Gkx_j","playlistName":"مقرأة الفجر - بداية من سورة الإسراء حتى سورة الناس","category":"تفسير"},{"id":"71SroGBOh_g","title":"درس الجمعة ١٩ ربيع الآخر ١٤٣٧هـ","publishedAt":"2016-01-29T13:33:50Z","duration":"PT1H11S","thumbnail":"https://i.ytimg.com/vi/71SroGBOh_g/mqdefault.jpg","viewCount":"186","playlistId":"PLEkQk5xrP-tmYN0y2PQUkx881GYBxD16g","playlistName":"درس الجمعة","category":"خطب"},{"id":"jxrvdokgukI","title":"شرح كتاب صفة الجنة من سنن الترمذي - المجلس الثالث","publishedAt":"2016-01-29T09:01:11Z","duration":"PT28M45S","thumbnail":"https://i.ytimg.com/vi/jxrvdokgukI/mqdefault.jpg","viewCount":"171","playlistId":"PLEkQk5xrP-tnu6of679SvxdVx0qSrJzmb","playlistName":"شرح سنن الإمام الترمذي رضى الله عنه د. يسري جبر","category":"متنوع"},{"id":"oeqdy5pB93k","title":"قراءة القرآن (من أول سورة الملك)","publishedAt":"2016-01-29T07:10:36Z","duration":"PT18M46S","thumbnail":"https://i.ytimg.com/vi/oeqdy5pB93k/mqdefault.jpg","viewCount":"136","playlistId":"PLEkQk5xrP-tnUSUj0uyJhA-kwNC7Gkx_j","playlistName":"مقرأة الفجر - بداية من سورة الإسراء حتى سورة الناس","category":"تفسير"}],"total":7670,"page":129,"pageSize":24,"totalPages":320}