{"items":[{"id":"AT8HX3INHKQ","title":"221- اليَدُ العُلْيَا خَيْرٌ مِنَ اليَدِ السُّفْلَى، وابْدَأْ بمَن تَعُولُ - شرح دليل الفالحين","publishedAt":"2022-03-25T20:44:54Z","duration":"PT37M14S","thumbnail":"https://i.ytimg.com/vi/AT8HX3INHKQ/mqdefault.jpg","viewCount":"1473","playlistId":"PLEkQk5xrP-tkc9DXvSLguqX5-FYp6ASR4","playlistName":"دليل الفالحين لطرق رياض الصالحين","category":"متنوع"},{"id":"D4zpPmTtucA","title":"482- أكواب وأباريق | كأس ما الفرق بينهما؟ - شرح البرهان في علوم القرآن","publishedAt":"2022-03-25T05:57:57Z","duration":"PT30M29S","thumbnail":"https://i.ytimg.com/vi/D4zpPmTtucA/mqdefault.jpg","viewCount":"1157","playlistId":"PLEkQk5xrP-tnW3iBL7HkKziOFCFZbTlf0","playlistName":"شرح البرهان في علوم القرآن - أ.د. يسري جبر","category":"تفسير"},{"id":"awXcOjBhuBM","title":"220- قَدْ أفْلَحَ مَن أَسْلَمَ، ورُزِقَ كَفَافًا، وقَنَّعَهُ اللَّهُ بما آتَاهُ - شرح دليل الفالحين","publishedAt":"2022-03-24T21:54:53Z","duration":"PT35M49S","thumbnail":"https://i.ytimg.com/vi/awXcOjBhuBM/mqdefault.jpg","viewCount":"1537","playlistId":"PLEkQk5xrP-tkc9DXvSLguqX5-FYp6ASR4","playlistName":"دليل الفالحين لطرق رياض الصالحين","category":"متنوع"},{"id":"tfPf3HH5jiQ","title":"219- لَيسَ الغِنَى عن كَثْرةِ العَرَضِ ولَكِنَّ الغِنَى غِنَى النَّفْسِ - شرح دليل الفالحين","publishedAt":"2022-03-24T07:36:06Z","duration":"PT39M51S","thumbnail":"https://i.ytimg.com/vi/tfPf3HH5jiQ/mqdefault.jpg","viewCount":"3117","playlistId":"PLEkQk5xrP-tkc9DXvSLguqX5-FYp6ASR4","playlistName":"دليل الفالحين لطرق رياض الصالحين","category":"متنوع"},{"id":"QVu_UZULqqQ","title":"الرد على من ينكر خصوصية النبي ﷺ","publishedAt":"2025-05-22T17:40:04Z","duration":"PT17M18S","thumbnail":"https://i.ytimg.com/vi/QVu_UZULqqQ/mqdefault.jpg","viewCount":"2804","playlistId":"PLEkQk5xrP-tlArtGpeLWaqNM7h7IDeAVC","playlistName":"خطب الجمعة أ.د. يسري جبر","category":"خطب"},{"id":"_0E6A6EoxXI","title":"كيف تحمي نفسك من أوحال التوحيد؟","publishedAt":"2025-05-21T17:00:55Z","duration":"PT8M40S","thumbnail":"https://i.ytimg.com/vi/_0E6A6EoxXI/mqdefault.jpg","viewCount":"5054","playlistId":"PLEkQk5xrP-tlArtGpeLWaqNM7h7IDeAVC","playlistName":"خطب الجمعة أ.د. يسري جبر","category":"خطب"},{"id":"Tl9gm7DaNAM","title":"خطر الفكر الوهابي على المسلمين!","publishedAt":"2025-05-20T19:50:48Z","duration":"PT43M","thumbnail":"https://i.ytimg.com/vi/Tl9gm7DaNAM/mqdefault.jpg","viewCount":"36521","playlistId":"PLEkQk5xrP-tlArtGpeLWaqNM7h7IDeAVC","playlistName":"خطب الجمعة أ.د. يسري جبر","category":"خطب"},{"id":"TXrGjefO2NE","title":"43- ماذا تفعل اذا اختلف العلماء في الفتاوى؟ | شرح مختصر الفتوحات المكية","publishedAt":"2025-05-19T18:00:34Z","duration":"PT51M26S","thumbnail":"https://i.ytimg.com/vi/TXrGjefO2NE/mqdefault.jpg","viewCount":"2109","playlistId":"PLEkQk5xrP-tnpkdZki6rPTtMak1bnI5g-","playlistName":"شرح كتاب مختصر الفتوحات المكية المسمى لواقح الأنوار القدسية","category":"متنوع"},{"id":"L5RFsLNrvoM","title":"19- ما هو الوارد وكيف يتعامل المريد مع الواردات؟ | شرح الحكم العطائية","publishedAt":"2025-05-18T19:24:31Z","duration":"PT49M53S","thumbnail":"https://i.ytimg.com/vi/L5RFsLNrvoM/mqdefault.jpg","viewCount":"4155","playlistId":"PLEkQk5xrP-tmf5ToOwmW-q0JwxkapbrMN","playlistName":"شرح كتاب إرشاد البرية إلى بعض معاني الحكم العطائية","category":"متنوع"},{"id":"X9IA-dm_mB8","title":"56- كيف تعالج آلام الظهر بالسنة النبوية؟ | شرح سنن الإمام الدار قطني","publishedAt":"2025-05-17T09:00:57Z","duration":"PT41M54S","thumbnail":"https://i.ytimg.com/vi/X9IA-dm_mB8/mqdefault.jpg","viewCount":"2006","playlistId":"PLEkQk5xrP-tk_MCBZ706ORCw6gFtFyaGj","playlistName":"شرح سنن الإمام الدارقطني","category":"متنوع"},{"id":"wNxfUwj0vc4","title":"18- ما حكم ‏الذكر باللسان بدون حضور القلب؟ | شرح الحكم العطائية","publishedAt":"2025-05-15T17:01:12Z","duration":"PT42M50S","thumbnail":"https://i.ytimg.com/vi/wNxfUwj0vc4/mqdefault.jpg","viewCount":"4760","playlistId":"PLEkQk5xrP-tmf5ToOwmW-q0JwxkapbrMN","playlistName":"شرح كتاب إرشاد البرية إلى بعض معاني الحكم العطائية","category":"متنوع"},{"id":"uCzlM-1UFhM","title":"كيف تحمي أبناءك من الحسد؟","publishedAt":"2025-05-14T18:00:48Z","duration":"PT9M2S","thumbnail":"https://i.ytimg.com/vi/uCzlM-1UFhM/mqdefault.jpg","viewCount":"18626","playlistId":"PLEkQk5xrP-tkGXuZ9atE3k_7it12rUPTs","playlistName":"أسئلة المتابعين","category":"متنوع"},{"id":"xFMZaRsyAPU","title":"هل يمكن لفعل النبي ﷺ أن يسبق فعل الله؟","publishedAt":"2025-05-13T18:31:09Z","duration":"PT8M10S","thumbnail":"https://i.ytimg.com/vi/xFMZaRsyAPU/mqdefault.jpg","viewCount":"2952","playlistId":"PLEkQk5xrP-tkGXuZ9atE3k_7it12rUPTs","playlistName":"أسئلة المتابعين","category":"متنوع"},{"id":"jjYy9_fxIwM","title":"42- ما الفرق بين طهارة الظاهر والباطن؟ | شرح مختصر الفتوحات المكية","publishedAt":"2025-05-12T17:00:56Z","duration":"PT42M43S","thumbnail":"https://i.ytimg.com/vi/jjYy9_fxIwM/mqdefault.jpg","viewCount":"1819","playlistId":"PLEkQk5xrP-tnpkdZki6rPTtMak1bnI5g-","playlistName":"شرح كتاب مختصر الفتوحات المكية المسمى لواقح الأنوار القدسية","category":"متنوع"},{"id":"YxNoaSmKKds","title":"سورة الأعراف آية 159","publishedAt":"2017-03-04T11:13:24Z","duration":"PT28M42S","thumbnail":"https://i.ytimg.com/vi/YxNoaSmKKds/mqdefault.jpg","viewCount":"388","playlistId":"PLEkQk5xrP-tnmTYsyW6xNdyfhPq0Bhrhj","playlistName":"مقرأة الفجر - القُرْآنُ الكَرِيمُ - خَتْمَةُ التَّدَبُّرِ  أ.د. يسري جبر","category":"متنوع"},{"id":"N6Lyk72PVzM","title":"شرح صحيح البخاري -  كتاب الحج من باب ٢٥","publishedAt":"2017-03-03T03:39:48Z","duration":"PT35M49S","thumbnail":"https://i.ytimg.com/vi/N6Lyk72PVzM/mqdefault.jpg","viewCount":"892","playlistId":"PLEkQk5xrP-tlEerGoLa1AFy-2XvQ-sovv","playlistName":"شرح صحيح البخاري - أ.د. يسري جبر (كاملا)","category":"حديث"},{"id":"diKF5bR-HwI","title":"44- مَا لاَ يَجِبُ فِيهِ التَّمَتُّعُ كتاب الحج ك الموطأ د يسري جبر الأزهري","publishedAt":"2017-03-02T16:44:05Z","duration":"PT1H11M41S","thumbnail":"https://i.ytimg.com/vi/diKF5bR-HwI/mqdefault.jpg","viewCount":"341","playlistId":"PLEkQk5xrP-tnC6BRuqMjyO-484iqXeg0o","playlistName":"شرح كتاب الموطأ للإمام مالك","category":"متنوع"},{"id":"vEKmvdwvycU","title":"سورة الأعراف آية 156","publishedAt":"2017-03-02T10:19:58Z","duration":"PT19M58S","thumbnail":"https://i.ytimg.com/vi/vEKmvdwvycU/mqdefault.jpg","viewCount":"393","playlistId":"PLEkQk5xrP-tnmTYsyW6xNdyfhPq0Bhrhj","playlistName":"مقرأة الفجر - القُرْآنُ الكَرِيمُ - خَتْمَةُ التَّدَبُّرِ  أ.د. يسري جبر","category":"متنوع"},{"id":"rPOs0vZ8Epc","title":"شرح صحيح البخاري   كتاب الحج من باب ١٧","publishedAt":"2017-03-01T19:10:08Z","duration":"PT38M49S","thumbnail":"https://i.ytimg.com/vi/rPOs0vZ8Epc/mqdefault.jpg","viewCount":"972","playlistId":"PLEkQk5xrP-tlEerGoLa1AFy-2XvQ-sovv","playlistName":"شرح صحيح البخاري - أ.د. يسري جبر (كاملا)","category":"حديث"},{"id":"dJVstHxgVc4","title":"سورة الأعراف آية 150","publishedAt":"2017-03-01T13:43:51Z","duration":"PT20M28S","thumbnail":"https://i.ytimg.com/vi/dJVstHxgVc4/mqdefault.jpg","viewCount":"394","playlistId":"PLEkQk5xrP-tnmTYsyW6xNdyfhPq0Bhrhj","playlistName":"مقرأة الفجر - القُرْآنُ الكَرِيمُ - خَتْمَةُ التَّدَبُّرِ  أ.د. يسري جبر","category":"متنوع"},{"id":"xRtPVBFY9_o","title":"شرح صحيح البخاري   كتاب الحج من باب ٥","publishedAt":"2017-02-28T12:12:40Z","duration":"PT27M34S","thumbnail":"https://i.ytimg.com/vi/xRtPVBFY9_o/mqdefault.jpg","viewCount":"940","playlistId":"PLEkQk5xrP-tlEerGoLa1AFy-2XvQ-sovv","playlistName":"شرح صحيح البخاري - أ.د. يسري جبر (كاملا)","category":"حديث"},{"id":"_aKGlsGHx98","title":"مقرأة سورة الأعراف من آية ١٤٥","publishedAt":"2017-02-28T09:46:12Z","duration":"PT18M4S","thumbnail":"https://i.ytimg.com/vi/_aKGlsGHx98/mqdefault.jpg","viewCount":"375","playlistId":"PLEkQk5xrP-tnmTYsyW6xNdyfhPq0Bhrhj","playlistName":"مقرأة الفجر - القُرْآنُ الكَرِيمُ - خَتْمَةُ التَّدَبُّرِ  أ.د. يسري جبر","category":"متنوع"},{"id":"tScBU409KO0","title":"شرح صحيح البخاري   كتاب الحج من أوله","publishedAt":"2017-02-27T12:14:27Z","duration":"PT30M53S","thumbnail":"https://i.ytimg.com/vi/tScBU409KO0/mqdefault.jpg","viewCount":"1224","playlistId":"PLEkQk5xrP-tlEerGoLa1AFy-2XvQ-sovv","playlistName":"شرح صحيح البخاري - أ.د. يسري جبر (كاملا)","category":"حديث"},{"id":"_pK7XUdaN5w","title":"سورة الأعراف آية 142","publishedAt":"2017-02-27T08:30:54Z","duration":"PT20M16S","thumbnail":"https://i.ytimg.com/vi/_pK7XUdaN5w/mqdefault.jpg","viewCount":"388","playlistId":"PLEkQk5xrP-tnmTYsyW6xNdyfhPq0Bhrhj","playlistName":"مقرأة الفجر - القُرْآنُ الكَرِيمُ - خَتْمَةُ التَّدَبُّرِ  أ.د. يسري جبر","category":"متنوع"}],"total":7670,"page":309,"pageSize":24,"totalPages":320}