{"items":[{"id":"r1NbVXxl93c","title":"مقرأة سورة الإسراء من آية ٨٦","publishedAt":"2017-10-09T11:03:59Z","duration":"PT19M10S","thumbnail":"https://i.ytimg.com/vi/r1NbVXxl93c/mqdefault.jpg","viewCount":"323","playlistId":"PLEkQk5xrP-tnmTYsyW6xNdyfhPq0Bhrhj","playlistName":"مقرأة الفجر - القُرْآنُ الكَرِيمُ - خَتْمَةُ التَّدَبُّرِ  أ.د. يسري جبر","category":"متنوع"},{"id":"9CR_4loMFmQ","title":"شرح صحيح البخاري - كتاب أحاديث الأنبياء من باب ٢٣","publishedAt":"2017-10-08T21:55:32Z","duration":"PT36M47S","thumbnail":"https://i.ytimg.com/vi/9CR_4loMFmQ/mqdefault.jpg","viewCount":"652","playlistId":"PLEkQk5xrP-tlEerGoLa1AFy-2XvQ-sovv","playlistName":"شرح صحيح البخاري - أ.د. يسري جبر (كاملا)","category":"حديث"},{"id":"cYrw2CJGsy4","title":"مقرأة سورة الإسراء من آية ٨٣","publishedAt":"2017-10-08T10:44:28Z","duration":"PT15M47S","thumbnail":"https://i.ytimg.com/vi/cYrw2CJGsy4/mqdefault.jpg","viewCount":"400","playlistId":"PLEkQk5xrP-tnmTYsyW6xNdyfhPq0Bhrhj","playlistName":"مقرأة الفجر - القُرْآنُ الكَرِيمُ - خَتْمَةُ التَّدَبُّرِ  أ.د. يسري جبر","category":"متنوع"},{"id":"p6OiFZ4PMFo","title":"شرح كتاب نوراليقين في سيرة سيد المرسلين - المجلس الرابع والعشرون ( غزوة السويق ) د.يسري جبر","publishedAt":"2017-10-07T22:22:12Z","duration":"PT50M14S","thumbnail":"https://i.ytimg.com/vi/p6OiFZ4PMFo/mqdefault.jpg","viewCount":"18921","playlistId":"PLEkQk5xrP-tl2t4NQx1IhKnAJCMzF0Nli","playlistName":"شرح كتاب نور اليقين في سيرة سيد المرسلين   د. يسري جبر","category":"سيرة"},{"id":"tNb4U7UsYV4","title":"كيف يكون لنا دور في نصرة القضية الفلس/طينية؟","publishedAt":"2023-11-09T19:36:25Z","duration":"PT19M45S","thumbnail":"https://i.ytimg.com/vi/tNb4U7UsYV4/mqdefault.jpg","viewCount":"5454","playlistId":"PLEkQk5xrP-tlArtGpeLWaqNM7h7IDeAVC","playlistName":"خطب الجمعة أ.د. يسري جبر","category":"خطب"},{"id":"dXUjcbNiL7g","title":"169- معنى ( وَيْكَأَنَّ - ويل - يا )- شرح الإتقان في علوم القرآن","publishedAt":"2023-11-08T06:30:18Z","duration":"PT32M19S","thumbnail":"https://i.ytimg.com/vi/dXUjcbNiL7g/mqdefault.jpg","viewCount":"977","playlistId":"PLEkQk5xrP-tlPw10KGJKagu7zm4Ry2Tge","playlistName":"شرح الإتقان في علوم القرآن","category":"تفسير"},{"id":"_bmO4pymJNw","title":"اعرف تاريخ الي/هود مع المسلمين","publishedAt":"2023-11-07T18:30:23Z","duration":"PT8M21S","thumbnail":"https://i.ytimg.com/vi/_bmO4pymJNw/mqdefault.jpg","viewCount":"11912","playlistId":"PLEkQk5xrP-tlArtGpeLWaqNM7h7IDeAVC","playlistName":"خطب الجمعة أ.د. يسري جبر","category":"خطب"},{"id":"x_MWrwiy0Nc","title":"37- حكم إهداء ما يحرم لبسه - شرح مسند الإمام أحمد","publishedAt":"2023-11-07T06:33:03Z","duration":"PT13M33S","thumbnail":"https://i.ytimg.com/vi/x_MWrwiy0Nc/mqdefault.jpg","viewCount":"1045","playlistId":"PLEkQk5xrP-tkKprIuGrSdEuBSMsyg5We1","playlistName":"شرح مسند الإمام أحمد بن حنبل","category":"متنوع"},{"id":"nIR65ixxlWs","title":"168- حرف ( الواو ) - شرح الإتقان في علوم القرآن","publishedAt":"2023-11-06T06:15:02Z","duration":"PT44M32S","thumbnail":"https://i.ytimg.com/vi/nIR65ixxlWs/mqdefault.jpg","viewCount":"847","playlistId":"PLEkQk5xrP-tlPw10KGJKagu7zm4Ry2Tge","playlistName":"شرح الإتقان في علوم القرآن","category":"تفسير"},{"id":"PMDhsxCDRa4","title":"19- حكم مَن رأى لمعة في عقبه لم يصلها الماء - كتاب الطهارة","publishedAt":"2023-11-05T06:15:00Z","duration":"PT33M58S","thumbnail":"https://i.ytimg.com/vi/PMDhsxCDRa4/mqdefault.jpg","viewCount":"1045","playlistId":"PLEkQk5xrP-tk_MCBZ706ORCw6gFtFyaGj","playlistName":"شرح سنن الإمام الدارقطني","category":"متنوع"},{"id":"Tzj9xWV4BYw","title":"36- فضل الزبير بن العوام | كيف نفهم الأمر بتسوية القبور وإزالة الأصنام - شرح مسند الإمام أحمد","publishedAt":"2023-11-04T06:30:14Z","duration":"PT30M37S","thumbnail":"https://i.ytimg.com/vi/Tzj9xWV4BYw/mqdefault.jpg","viewCount":"2146","playlistId":"PLEkQk5xrP-tkKprIuGrSdEuBSMsyg5We1","playlistName":"شرح مسند الإمام أحمد بن حنبل","category":"متنوع"},{"id":"MHd2NiFCRZ4","title":"ماذا فعل النبي ﷺ قبل الفتح الإسلامي؟","publishedAt":"2023-11-02T16:14:20Z","duration":"PT8M32S","thumbnail":"https://i.ytimg.com/vi/MHd2NiFCRZ4/mqdefault.jpg","viewCount":"5080","playlistId":"PLEkQk5xrP-tlArtGpeLWaqNM7h7IDeAVC","playlistName":"خطب الجمعة أ.د. يسري جبر","category":"خطب"},{"id":"H_Tb4BU05_0","title":"167- معنى (الهاء - ها - هات - هل - هلُمَّ - هنا - هيت - هيهات)  - شرح الإتقان في علوم القرآن","publishedAt":"2023-11-02T06:15:00Z","duration":"PT30M17S","thumbnail":"https://i.ytimg.com/vi/H_Tb4BU05_0/mqdefault.jpg","viewCount":"622","playlistId":"PLEkQk5xrP-tlPw10KGJKagu7zm4Ry2Tge","playlistName":"شرح الإتقان في علوم القرآن","category":"تفسير"},{"id":"Q1N9zZNi06I","title":"35- أهميّة فهم القرآن فهمًا صحيحًا - شرح مسند الإمام أحمد","publishedAt":"2023-11-01T06:39:54Z","duration":"PT42M1S","thumbnail":"https://i.ytimg.com/vi/Q1N9zZNi06I/mqdefault.jpg","viewCount":"2172","playlistId":"PLEkQk5xrP-tkKprIuGrSdEuBSMsyg5We1","playlistName":"شرح مسند الإمام أحمد بن حنبل","category":"متنوع"},{"id":"7_VA61XhHcY","title":"كيف تكون محبوبا؟","publishedAt":"2021-01-22T18:00:35Z","duration":"PT15M57S","thumbnail":"https://i.ytimg.com/vi/7_VA61XhHcY/mqdefault.jpg","viewCount":"9266","playlistId":"PLEkQk5xrP-tm8ZIu74nTOZN9KJUJu416J","playlistName":"مقاطع مُهمَّة (يُسريَّات) أ.د. يسري جبر","category":"متنوع"},{"id":"08Ny88lhi48","title":"!طريقة علاج إدمان المخدرات","publishedAt":"2021-01-21T18:22:00Z","duration":"PT9M24S","thumbnail":"https://i.ytimg.com/vi/08Ny88lhi48/mqdefault.jpg","viewCount":"19526","playlistId":"PLEkQk5xrP-tm8ZIu74nTOZN9KJUJu416J","playlistName":"مقاطع مُهمَّة (يُسريَّات) أ.د. يسري جبر","category":"متنوع"},{"id":"bmGVhOKuRXk","title":"7- آخر مقدمة كتاب رياض الصالحين وتعليق الشارح عليها - شرح دليل الفالحين أ.د. يسري جبر","publishedAt":"2021-01-21T08:28:05Z","duration":"PT36M2S","thumbnail":"https://i.ytimg.com/vi/bmGVhOKuRXk/mqdefault.jpg","viewCount":"2019","playlistId":"PLEkQk5xrP-tkc9DXvSLguqX5-FYp6ASR4","playlistName":"دليل الفالحين لطرق رياض الصالحين","category":"متنوع"},{"id":"4EAf9u36PDc","title":"تساؤلات الوهابية","publishedAt":"2021-01-20T18:07:13Z","duration":"PT9M31S","thumbnail":"https://i.ytimg.com/vi/4EAf9u36PDc/mqdefault.jpg","viewCount":"36378","playlistId":"PLEkQk5xrP-tm8ZIu74nTOZN9KJUJu416J","playlistName":"مقاطع مُهمَّة (يُسريَّات) أ.د. يسري جبر","category":"متنوع"},{"id":"ucPXzF_kODQ","title":"أدوات التوكيد - ضمير الفصل - شرح البرهان في علوم القرآن أ.د. يسري جبر","publishedAt":"2021-01-20T08:14:56Z","duration":"PT13M42S","thumbnail":"https://i.ytimg.com/vi/ucPXzF_kODQ/mqdefault.jpg","viewCount":"449","playlistId":"PLEkQk5xrP-tnW3iBL7HkKziOFCFZbTlf0","playlistName":"شرح البرهان في علوم القرآن - أ.د. يسري جبر","category":"تفسير"},{"id":"oXWiNMaIVSY","title":"هل السحر خرافة ؟","publishedAt":"2021-01-19T18:49:49Z","duration":"PT9M13S","thumbnail":"https://i.ytimg.com/vi/oXWiNMaIVSY/mqdefault.jpg","viewCount":"84467","playlistId":"PLEkQk5xrP-tm8ZIu74nTOZN9KJUJu416J","playlistName":"مقاطع مُهمَّة (يُسريَّات) أ.د. يسري جبر","category":"متنوع"},{"id":"XzLJ0uEIuVU","title":"6- تكملة مقدمة كتاب رياض الصالحين وتعليق الشارح عليها - شرح دليل الفالحين أ.د. يسري جبر","publishedAt":"2021-01-19T07:46:35Z","duration":"PT39M9S","thumbnail":"https://i.ytimg.com/vi/XzLJ0uEIuVU/mqdefault.jpg","viewCount":"2331","playlistId":"PLEkQk5xrP-tkc9DXvSLguqX5-FYp6ASR4","playlistName":"دليل الفالحين لطرق رياض الصالحين","category":"متنوع"},{"id":"4_JH-JgFsG0","title":"كيف تقترب من المقام النبوي؟","publishedAt":"2021-01-18T18:33:18Z","duration":"PT17M49S","thumbnail":"https://i.ytimg.com/vi/4_JH-JgFsG0/mqdefault.jpg","viewCount":"44176","playlistId":"PLEkQk5xrP-tlArtGpeLWaqNM7h7IDeAVC","playlistName":"خطب الجمعة أ.د. يسري جبر","category":"خطب"},{"id":"GaCtERIPIxM","title":"5- تكملة مقدمة كتاب رياض الصالحين وتعليق الشارح عليها - شرح دليل الفالحين أ.د. يسري جبر","publishedAt":"2021-01-17T08:33:35Z","duration":"PT38M","thumbnail":"https://i.ytimg.com/vi/GaCtERIPIxM/mqdefault.jpg","viewCount":"2653","playlistId":"PLEkQk5xrP-tkc9DXvSLguqX5-FYp6ASR4","playlistName":"دليل الفالحين لطرق رياض الصالحين","category":"متنوع"},{"id":"lzxDhmjL2KU","title":"ماذا يفعل المصاب بكورونا؟","publishedAt":"2021-01-16T18:02:00Z","duration":"PT12M7S","thumbnail":"https://i.ytimg.com/vi/lzxDhmjL2KU/mqdefault.jpg","viewCount":"7045","playlistId":"PLEkQk5xrP-tlArtGpeLWaqNM7h7IDeAVC","playlistName":"خطب الجمعة أ.د. يسري جبر","category":"خطب"}],"total":7670,"page":286,"pageSize":24,"totalPages":320}