{"items":[{"id":"6PJ5rGDJ0As","title":"شرح صحيح البخاري كتاب الأدب من باب ٧٧","publishedAt":"2018-09-11T17:43:14Z","duration":"PT22M28S","thumbnail":"https://i.ytimg.com/vi/6PJ5rGDJ0As/mqdefault.jpg","viewCount":"436","playlistId":"PLEkQk5xrP-tlEerGoLa1AFy-2XvQ-sovv","playlistName":"شرح صحيح البخاري - أ.د. يسري جبر (كاملا)","category":"حديث"},{"id":"e6FtiGmBdpI","title":"مقرأة سورة يس من آية ٧٧","publishedAt":"2018-09-11T09:26:09Z","duration":"PT26M26S","thumbnail":"https://i.ytimg.com/vi/e6FtiGmBdpI/mqdefault.jpg","viewCount":"577","playlistId":"PLEkQk5xrP-tnmTYsyW6xNdyfhPq0Bhrhj","playlistName":"مقرأة الفجر - القُرْآنُ الكَرِيمُ - خَتْمَةُ التَّدَبُّرِ  أ.د. يسري جبر","category":"متنوع"},{"id":"EUbO9KhdTBc","title":"شرح كتاب نور اليقين في سيرة سيد المرسلين للشيخ الخضري رحمه الله (المجلس59 السنة11 - سرية) د.يسري جبر","publishedAt":"2018-09-10T19:34:52Z","duration":"PT51M9S","thumbnail":"https://i.ytimg.com/vi/EUbO9KhdTBc/mqdefault.jpg","viewCount":"10088","playlistId":"PLEkQk5xrP-tl2t4NQx1IhKnAJCMzF0Nli","playlistName":"شرح كتاب نور اليقين في سيرة سيد المرسلين   د. يسري جبر","category":"سيرة"},{"id":"PFEWWmIRrNI","title":"شرح صحيح البخاري كتاب الأدب من باب ٧٥","publishedAt":"2018-09-10T19:32:20Z","duration":"PT38M30S","thumbnail":"https://i.ytimg.com/vi/PFEWWmIRrNI/mqdefault.jpg","viewCount":"529","playlistId":"PLEkQk5xrP-tlEerGoLa1AFy-2XvQ-sovv","playlistName":"شرح صحيح البخاري - أ.د. يسري جبر (كاملا)","category":"حديث"},{"id":"8U618HXooP0","title":"شرح البرهان في علوم القرآن - النوع ٢٨ - هل في القرآن شيء أفضل من شيء؟","publishedAt":"2020-01-29T11:57:36Z","duration":"PT24M15S","thumbnail":"https://i.ytimg.com/vi/8U618HXooP0/mqdefault.jpg","viewCount":"537","playlistId":"PLEkQk5xrP-tnW3iBL7HkKziOFCFZbTlf0","playlistName":"شرح البرهان في علوم القرآن - أ.د. يسري جبر","category":"تفسير"},{"id":"JPZC_6pRAQs","title":"50- شرح اللؤلؤ والمرجان كتاب صلاة الجنائز من الباب ١٠","publishedAt":"2020-01-29T11:57:31Z","duration":"PT28M20S","thumbnail":"https://i.ytimg.com/vi/JPZC_6pRAQs/mqdefault.jpg","viewCount":"447","playlistId":"PLEkQk5xrP-tmKNjtYLfhATC37QdIsTMe0","playlistName":"شرح كتاب اللؤلؤ والمرجان فيما اتفق عليه الشيخان إماما المحدثين البخاري ومسلم. أ.د. يسري جبر","category":"حديث"},{"id":"B_Gz7apu9F8","title":"حولَ عِصْمَةِ الأنبياءِ (3)  أ.د/ يسري جبر","publishedAt":"2020-01-28T21:18:27Z","duration":"PT39M42S","thumbnail":"https://i.ytimg.com/vi/B_Gz7apu9F8/mqdefault.jpg","viewCount":"760","playlistId":"PLEkQk5xrP-tlArtGpeLWaqNM7h7IDeAVC","playlistName":"خطب الجمعة أ.د. يسري جبر","category":"خطب"},{"id":"qEkNk8EZv4Q","title":"49- شرح اللؤلؤ والمرجان كتاب صلاة الجنائز من أوله","publishedAt":"2020-01-28T12:03:49Z","duration":"PT25M22S","thumbnail":"https://i.ytimg.com/vi/qEkNk8EZv4Q/mqdefault.jpg","viewCount":"525","playlistId":"PLEkQk5xrP-tmKNjtYLfhATC37QdIsTMe0","playlistName":"شرح كتاب اللؤلؤ والمرجان فيما اتفق عليه الشيخان إماما المحدثين البخاري ومسلم. أ.د. يسري جبر","category":"حديث"},{"id":"PRgzw7Jrt30","title":"سورة التوبة آية 24","publishedAt":"2017-04-09T17:13:52Z","duration":"PT14M21S","thumbnail":"https://i.ytimg.com/vi/PRgzw7Jrt30/mqdefault.jpg","viewCount":"440","playlistId":"PLEkQk5xrP-tnmTYsyW6xNdyfhPq0Bhrhj","playlistName":"مقرأة الفجر - القُرْآنُ الكَرِيمُ - خَتْمَةُ التَّدَبُّرِ  أ.د. يسري جبر","category":"متنوع"},{"id":"AvoHeof2Ctc","title":"شرح صحيح البخاري - كتاب الصوم من باب ٣٢","publishedAt":"2017-04-08T22:06:59Z","duration":"PT34M16S","thumbnail":"https://i.ytimg.com/vi/AvoHeof2Ctc/mqdefault.jpg","viewCount":"862","playlistId":"PLEkQk5xrP-tlEerGoLa1AFy-2XvQ-sovv","playlistName":"شرح صحيح البخاري - أ.د. يسري جبر (كاملا)","category":"حديث"},{"id":"loUzDnqV9zw","title":"سورة التوبة آية 20","publishedAt":"2017-04-08T21:28:31Z","duration":"PT22M19S","thumbnail":"https://i.ytimg.com/vi/loUzDnqV9zw/mqdefault.jpg","viewCount":"496","playlistId":"PLEkQk5xrP-tnmTYsyW6xNdyfhPq0Bhrhj","playlistName":"مقرأة الفجر - القُرْآنُ الكَرِيمُ - خَتْمَةُ التَّدَبُّرِ  أ.د. يسري جبر","category":"متنوع"},{"id":"Ih4MhsxX6JE","title":"ستر أنوار السرائر بكثائف الظواهر، إجلالا لها أن تبتذل بوجود الإظهار،...","publishedAt":"2017-04-01T15:52:35Z","duration":"PT22M9S","thumbnail":"https://i.ytimg.com/vi/Ih4MhsxX6JE/mqdefault.jpg","viewCount":"10072","playlistId":"PLEkQk5xrP-tkI_meE148wc7V7XHlB0WPb","playlistName":"من الحكم العطائية  د. يسري جبر","category":"متنوع"},{"id":"gWt6ZSEkImo","title":"شرح صحيح البخاري - كتاب الصوم من باب ٢٨","publishedAt":"2017-03-31T08:37:48Z","duration":"PT36M58S","thumbnail":"https://i.ytimg.com/vi/gWt6ZSEkImo/mqdefault.jpg","viewCount":"1010","playlistId":"PLEkQk5xrP-tlEerGoLa1AFy-2XvQ-sovv","playlistName":"شرح صحيح البخاري - أ.د. يسري جبر (كاملا)","category":"حديث"},{"id":"h7Cj6VwuOd0","title":"سورة التوبة آية 16","publishedAt":"2017-03-31T04:42:00Z","duration":"PT18M2S","thumbnail":"https://i.ytimg.com/vi/h7Cj6VwuOd0/mqdefault.jpg","viewCount":"469","playlistId":"PLEkQk5xrP-tnmTYsyW6xNdyfhPq0Bhrhj","playlistName":"مقرأة الفجر - القُرْآنُ الكَرِيمُ - خَتْمَةُ التَّدَبُّرِ  أ.د. يسري جبر","category":"متنوع"},{"id":"173t4XewDZA","title":"حكم زيارة قبور الصالحين وطلب المدد منهم","publishedAt":"2023-01-12T18:00:00Z","duration":"PT10M25S","thumbnail":"https://i.ytimg.com/vi/173t4XewDZA/mqdefault.jpg","viewCount":"16132","playlistId":"PLEkQk5xrP-tkGXuZ9atE3k_7it12rUPTs","playlistName":"أسئلة المتابعين","category":"متنوع"},{"id":"NP5tJTNcp30","title":"23- لماذا يحاسبنا اللهُ على أعمالنا؟.. وقد قال سبحانه\"وَاللَّهُ خَلَقَكُمْ وَمَا تَعْمَلُونَ\"","publishedAt":"2023-01-12T09:00:22Z","duration":"PT45M24S","thumbnail":"https://i.ytimg.com/vi/NP5tJTNcp30/mqdefault.jpg","viewCount":"2031","playlistId":"PLEkQk5xrP-tmNuYT8JAh6clwa4krsgkNo","playlistName":"شرح كتاب الفُتُوحات اليُسريَّة في عقائد الأُمَّة المُحمَّديَّة","category":"متنوع"},{"id":"xComs7CTY-w","title":"380- حكم الحجِّ عن الغير - شرح دليل الفالحين","publishedAt":"2023-01-12T05:10:00Z","duration":"PT30M48S","thumbnail":"https://i.ytimg.com/vi/xComs7CTY-w/mqdefault.jpg","viewCount":"414","playlistId":"PLEkQk5xrP-tkc9DXvSLguqX5-FYp6ASR4","playlistName":"دليل الفالحين لطرق رياض الصالحين","category":"متنوع"},{"id":"5efQFWAKwxM","title":"شرح منازل السائرين - المجلس (22) باب الزهد | أ.د. يسري جبر","publishedAt":"2023-01-11T18:00:02Z","duration":"PT41M41S","thumbnail":"https://i.ytimg.com/vi/5efQFWAKwxM/mqdefault.jpg","viewCount":"5212","playlistId":"PLEkQk5xrP-tmiUfQ-2Tsn7QIak4EsvaZW","playlistName":"كتاب التيسير المعين بشرح معاني منازل السائرين (تصوف) - د.يسري جبر","category":"تصوف"},{"id":"CCipILqb38Y","title":"5- معرفة ما نزل من القرآن بالمدينة - شرح الإتقان في علوم القرآن","publishedAt":"2023-01-11T05:35:00Z","duration":"PT21M30S","thumbnail":"https://i.ytimg.com/vi/CCipILqb38Y/mqdefault.jpg","viewCount":"2156","playlistId":"PLEkQk5xrP-tlPw10KGJKagu7zm4Ry2Tge","playlistName":"شرح الإتقان في علوم القرآن","category":"تفسير"},{"id":"zXwrMtgitOQ","title":"كيف حققت النجاح في دراستك وعملك؟","publishedAt":"2023-01-10T18:15:11Z","duration":"PT8M25S","thumbnail":"https://i.ytimg.com/vi/zXwrMtgitOQ/mqdefault.jpg","viewCount":"9698","playlistId":"PLEkQk5xrP-tkGXuZ9atE3k_7it12rUPTs","playlistName":"أسئلة المتابعين","category":"متنوع"},{"id":"TkWfgE7FW7c","title":"64- أحكام الرَّضَاع - شرح مسند الإمام الشافعي رضي الله عنه","publishedAt":"2023-01-10T09:00:13Z","duration":"PT43M1S","thumbnail":"https://i.ytimg.com/vi/TkWfgE7FW7c/mqdefault.jpg","viewCount":"620","playlistId":"PLEkQk5xrP-tlDtaqY0qhNXAiZ19gaGzKI","playlistName":"شرح مسند الإمام محمد بن إدريس الشافعيّ رضي الله تعالى عنه","category":"فقه"},{"id":"LE3CNLvaGNY","title":"379- إنَّ اللهَ قَدْ فَرِضَ عَليكُمُ الحجُّ فحُجُّوا - شرح دليل الفالحين","publishedAt":"2023-01-10T05:00:14Z","duration":"PT24M14S","thumbnail":"https://i.ytimg.com/vi/LE3CNLvaGNY/mqdefault.jpg","viewCount":"476","playlistId":"PLEkQk5xrP-tkc9DXvSLguqX5-FYp6ASR4","playlistName":"دليل الفالحين لطرق رياض الصالحين","category":"متنوع"},{"id":"KHTBzK42yPw","title":"حكم الاحتفال بالمولد النبوي","publishedAt":"2021-10-13T21:00:04Z","duration":"PT8M41S","thumbnail":"https://i.ytimg.com/vi/KHTBzK42yPw/mqdefault.jpg","viewCount":"18053","playlistId":"PLEkQk5xrP-tkGXuZ9atE3k_7it12rUPTs","playlistName":"أسئلة المتابعين","category":"متنوع"},{"id":"jCXZS_fngBo","title":"21- باب قصر الصلاة وجمعها - شرح كتاب فتح القريب المجيب","publishedAt":"2021-10-13T10:57:05Z","duration":"PT1H5M52S","thumbnail":"https://i.ytimg.com/vi/jCXZS_fngBo/mqdefault.jpg","viewCount":"1436","playlistId":"PLEkQk5xrP-tkXuPs-0sXfWQDWzBKmcjWN","playlistName":"\"فتح القريب المجيب في شرح ألفاظ التقريب\"( فقه شافعيّ)  أ. د. يسري جبر","category":"فقه"}],"total":7670,"page":260,"pageSize":24,"totalPages":320}