{"items":[{"id":"yoNOfiWn4Z8","title":"7- ما جاء في\"قراءة رسول الله ﷺ\" قراءة وشرح كتاب الشمائل المحمَّديَّة للإمام الترمذيّ رضي الله عنه","publishedAt":"2021-03-03T07:55:51Z","duration":"PT58M8S","thumbnail":"https://i.ytimg.com/vi/yoNOfiWn4Z8/mqdefault.jpg","viewCount":"1137","playlistId":"PLEkQk5xrP-tkCtkJ_fVpP3CmkJhWYYZtt","playlistName":"قراءةُ كتابِ الشَّمَائِلِ المُحَمَّدِيَّة للإِمام التِّرمذيّ رضي الله عن","category":"متنوع"},{"id":"uFI7mGX3GUU","title":"الرد على التساؤلات الوهابية","publishedAt":"2021-03-02T18:42:00Z","duration":"PT12M34S","thumbnail":"https://i.ytimg.com/vi/uFI7mGX3GUU/mqdefault.jpg","viewCount":"43433","playlistId":"PLEkQk5xrP-tm8ZIu74nTOZN9KJUJu416J","playlistName":"مقاطع مُهمَّة (يُسريَّات) أ.د. يسري جبر","category":"متنوع"},{"id":"jeaA5-_K2ns","title":"24- “إن الله تعالى يبسط يده بالليل ليتوب مسيء النهار، ويبسط يده بالنهار ليتوب مسيء الليل..","publishedAt":"2021-03-02T09:01:42Z","duration":"PT32M55S","thumbnail":"https://i.ytimg.com/vi/jeaA5-_K2ns/mqdefault.jpg","viewCount":"2393","playlistId":"PLEkQk5xrP-tkc9DXvSLguqX5-FYp6ASR4","playlistName":"دليل الفالحين لطرق رياض الصالحين","category":"متنوع"},{"id":"Rp6VE2mzY6E","title":"حول الحقيقة المحمدية","publishedAt":"2021-03-01T19:06:12Z","duration":"PT9M9S","thumbnail":"https://i.ytimg.com/vi/Rp6VE2mzY6E/mqdefault.jpg","viewCount":"14536","playlistId":"PLEkQk5xrP-tlArtGpeLWaqNM7h7IDeAVC","playlistName":"خطب الجمعة أ.د. يسري جبر","category":"خطب"},{"id":"WO5YASeibK0","title":"القسم الثالث من التوكيد: البَدَل - شرح البرهان في علوم القرآن","publishedAt":"2021-03-01T07:49:03Z","duration":"PT15M55S","thumbnail":"https://i.ytimg.com/vi/WO5YASeibK0/mqdefault.jpg","viewCount":"425","playlistId":"PLEkQk5xrP-tnW3iBL7HkKziOFCFZbTlf0","playlistName":"شرح البرهان في علوم القرآن - أ.د. يسري جبر","category":"تفسير"},{"id":"LHGrGijB4Xg","title":"حقيقة الدنيا","publishedAt":"2021-02-28T17:58:51Z","duration":"PT11M44S","thumbnail":"https://i.ytimg.com/vi/LHGrGijB4Xg/mqdefault.jpg","viewCount":"13321","playlistId":"PLEkQk5xrP-tlArtGpeLWaqNM7h7IDeAVC","playlistName":"خطب الجمعة أ.د. يسري جبر","category":"خطب"},{"id":"FDDEAbszbhI","title":"6- صِفةُ نوم رسول الله ﷺ - قراءة كتاب الشمائل المحمَّديَّة للإمام الترمذيّ رضي الله عنه","publishedAt":"2021-02-28T08:23:21Z","duration":"PT44M41S","thumbnail":"https://i.ytimg.com/vi/FDDEAbszbhI/mqdefault.jpg","viewCount":"1716","playlistId":"PLEkQk5xrP-tkCtkJ_fVpP3CmkJhWYYZtt","playlistName":"قراءةُ كتابِ الشَّمَائِلِ المُحَمَّدِيَّة للإِمام التِّرمذيّ رضي الله عن","category":"متنوع"},{"id":"Jml4HyRxY78","title":"كيف تتخلص من العادات السيئة؟","publishedAt":"2021-02-27T19:14:09Z","duration":"PT8M29S","thumbnail":"https://i.ytimg.com/vi/Jml4HyRxY78/mqdefault.jpg","viewCount":"6453","playlistId":"PLEkQk5xrP-tlArtGpeLWaqNM7h7IDeAVC","playlistName":"خطب الجمعة أ.د. يسري جبر","category":"خطب"},{"id":"hBckKH9fMXY","title":"23- باب التوبة الحديث الأول: والله إني لأستغفر الله وأتوب إليه في اليوم أكثر من سبعين مرة.","publishedAt":"2021-02-27T07:01:22Z","duration":"PT35M50S","thumbnail":"https://i.ytimg.com/vi/hBckKH9fMXY/mqdefault.jpg","viewCount":"2359","playlistId":"PLEkQk5xrP-tkc9DXvSLguqX5-FYp6ASR4","playlistName":"دليل الفالحين لطرق رياض الصالحين","category":"متنوع"},{"id":"7LcHsHbvMnI","title":"هل هجر المسلم من العقوبات الشرعية؟","publishedAt":"2021-02-26T20:35:05Z","duration":"PT18M35S","thumbnail":"https://i.ytimg.com/vi/7LcHsHbvMnI/mqdefault.jpg","viewCount":"1161","playlistId":"PLEkQk5xrP-tnAJa3yfebXD7wNC_ECfZNt","playlistName":"كتاب النفحة الذكية في أن الهجر بدعة شركية","category":"متنوع"},{"id":"psnVo3DnjEs","title":"10- فوائد تتعلق بالصفة \"وصف الجمع بالمفرد\"شرح البرهان في علوم القرآن","publishedAt":"2021-02-26T08:44:15Z","duration":"PT17M43S","thumbnail":"https://i.ytimg.com/vi/psnVo3DnjEs/mqdefault.jpg","viewCount":"486","playlistId":"PLEkQk5xrP-tnW3iBL7HkKziOFCFZbTlf0","playlistName":"شرح البرهان في علوم القرآن - أ.د. يسري جبر","category":"تفسير"},{"id":"qnepN5w1qLQ","title":"أريد الزواج ماذا افعل؟","publishedAt":"2021-02-25T19:35:53Z","duration":"PT15M25S","thumbnail":"https://i.ytimg.com/vi/qnepN5w1qLQ/mqdefault.jpg","viewCount":"24082","playlistId":"PLEkQk5xrP-tm8ZIu74nTOZN9KJUJu416J","playlistName":"مقاطع مُهمَّة (يُسريَّات) أ.د. يسري جبر","category":"متنوع"},{"id":"IR5Mu13inKA","title":"5- صِفةُ مِزاح رسول الله ﷺ - قراءة كتاب الشمائل المحمَّديَّة للإمام الترمذيّ رضي الله عنه","publishedAt":"2021-02-25T08:54:26Z","duration":"PT40M1S","thumbnail":"https://i.ytimg.com/vi/IR5Mu13inKA/mqdefault.jpg","viewCount":"1750","playlistId":"PLEkQk5xrP-tkCtkJ_fVpP3CmkJhWYYZtt","playlistName":"قراءةُ كتابِ الشَّمَائِلِ المُحَمَّدِيَّة للإِمام التِّرمذيّ رضي الله عن","category":"متنوع"},{"id":"AyO5UXRtjSY","title":"هل والدي النبي ﷺ في الجنة أم في النار؟","publishedAt":"2021-02-24T19:38:31Z","duration":"PT10M32S","thumbnail":"https://i.ytimg.com/vi/AyO5UXRtjSY/mqdefault.jpg","viewCount":"51353","playlistId":"PLEkQk5xrP-tm8ZIu74nTOZN9KJUJu416J","playlistName":"مقاطع مُهمَّة (يُسريَّات) أ.د. يسري جبر","category":"متنوع"},{"id":"xYydgq0Wgn0","title":"22- شروط التوبة”2” \"عجائب التوبة تشمل الماضي والحاضر والمستقبل\" شرح كتاب دليل الفالحين.","publishedAt":"2021-02-24T09:08:38Z","duration":"PT35M40S","thumbnail":"https://i.ytimg.com/vi/xYydgq0Wgn0/mqdefault.jpg","viewCount":"3431","playlistId":"PLEkQk5xrP-tkc9DXvSLguqX5-FYp6ASR4","playlistName":"دليل الفالحين لطرق رياض الصالحين","category":"متنوع"},{"id":"g-QqKVRx-0c","title":"كيف نستعد لاستقبال شهر رمضان؟","publishedAt":"2021-02-23T19:29:24Z","duration":"PT10M16S","thumbnail":"https://i.ytimg.com/vi/g-QqKVRx-0c/mqdefault.jpg","viewCount":"5048","playlistId":"PLEkQk5xrP-tlArtGpeLWaqNM7h7IDeAVC","playlistName":"خطب الجمعة أ.د. يسري جبر","category":"خطب"},{"id":"kZTOUfz5OS4","title":"9- فوائد تتعلق بالصفة \"فصل الجمل في مجال المدح والذم أبلغ من جعلها نمطا واحدا\"البرهان في علوم القرآن","publishedAt":"2021-02-23T08:23:39Z","duration":"PT24M7S","thumbnail":"https://i.ytimg.com/vi/kZTOUfz5OS4/mqdefault.jpg","viewCount":"524","playlistId":"PLEkQk5xrP-tnW3iBL7HkKziOFCFZbTlf0","playlistName":"شرح البرهان في علوم القرآن - أ.د. يسري جبر","category":"تفسير"},{"id":"Ehq4E3yreVg","title":"الأعمال المستحبة في شهر رجب","publishedAt":"2021-02-22T19:26:45Z","duration":"PT14M26S","thumbnail":"https://i.ytimg.com/vi/Ehq4E3yreVg/mqdefault.jpg","viewCount":"58807","playlistId":"PLEkQk5xrP-tlArtGpeLWaqNM7h7IDeAVC","playlistName":"خطب الجمعة أ.د. يسري جبر","category":"خطب"},{"id":"ARhaIBJD_tk","title":"4- صِفةُ وُضوء رسول الله ﷺ عند الطعام - قراءة كتاب الشمائل المحمَّديَّة للإمام الترمذيّ رضي الله عنه","publishedAt":"2021-02-22T07:19:08Z","duration":"PT54M41S","thumbnail":"https://i.ytimg.com/vi/ARhaIBJD_tk/mqdefault.jpg","viewCount":"1818","playlistId":"PLEkQk5xrP-tkCtkJ_fVpP3CmkJhWYYZtt","playlistName":"قراءةُ كتابِ الشَّمَائِلِ المُحَمَّدِيَّة للإِمام التِّرمذيّ رضي الله عن","category":"متنوع"},{"id":"B0KHk2i3Gv0","title":"اختيار الله افضل من اختيارك!","publishedAt":"2021-02-21T18:57:57Z","duration":"PT8M41S","thumbnail":"https://i.ytimg.com/vi/B0KHk2i3Gv0/mqdefault.jpg","viewCount":"7968","playlistId":"PLEkQk5xrP-tlArtGpeLWaqNM7h7IDeAVC","playlistName":"خطب الجمعة أ.د. يسري جبر","category":"خطب"},{"id":"lPSYxFtVYpQ","title":"21- شروط التوبة\"1\"- شرح كتاب دليل الفالحين.","publishedAt":"2021-02-21T06:53:56Z","duration":"PT28M42S","thumbnail":"https://i.ytimg.com/vi/lPSYxFtVYpQ/mqdefault.jpg","viewCount":"2094","playlistId":"PLEkQk5xrP-tkc9DXvSLguqX5-FYp6ASR4","playlistName":"دليل الفالحين لطرق رياض الصالحين","category":"متنوع"},{"id":"Oox4haeeVEU","title":"هل الخضر عليه السلام ما زال حيًا ؟","publishedAt":"2021-02-20T18:58:14Z","duration":"PT11M57S","thumbnail":"https://i.ytimg.com/vi/Oox4haeeVEU/mqdefault.jpg","viewCount":"29525","playlistId":"PLEkQk5xrP-tm8ZIu74nTOZN9KJUJu416J","playlistName":"مقاطع مُهمَّة (يُسريَّات) أ.د. يسري جبر","category":"متنوع"},{"id":"B02IOW3PCSM","title":"8- فوائد تتعلق بالصفة\" تكرار النعوت لواحد\" شرح البرهان في علوم القرآن","publishedAt":"2021-02-20T08:21:20Z","duration":"PT9M47S","thumbnail":"https://i.ytimg.com/vi/B02IOW3PCSM/mqdefault.jpg","viewCount":"488","playlistId":"PLEkQk5xrP-tnW3iBL7HkKziOFCFZbTlf0","playlistName":"شرح البرهان في علوم القرآن - أ.د. يسري جبر","category":"تفسير"},{"id":"Ihkn51CCIPI","title":"هل هجر المسلم لأخيه بدعة؟","publishedAt":"2021-02-19T18:39:00Z","duration":"PT12M8S","thumbnail":"https://i.ytimg.com/vi/Ihkn51CCIPI/mqdefault.jpg","viewCount":"1857","playlistId":"PLEkQk5xrP-tnAJa3yfebXD7wNC_ECfZNt","playlistName":"كتاب النفحة الذكية في أن الهجر بدعة شركية","category":"متنوع"}],"total":7670,"page":75,"pageSize":24,"totalPages":320}