{"items":[{"id":"kCI3vajfcUA","title":"شرح البرهان في علوم القرآن - النوع ٣٢ - فائدة في ضرورة معرفة المفسر قواعد أصول الفقه","publishedAt":"2020-02-18T06:00:04Z","duration":"PT31M59S","thumbnail":"https://i.ytimg.com/vi/kCI3vajfcUA/mqdefault.jpg","viewCount":"383","playlistId":"PLEkQk5xrP-tnW3iBL7HkKziOFCFZbTlf0","playlistName":"شرح البرهان في علوم القرآن - أ.د. يسري جبر","category":"تفسير"},{"id":"HNKa-pCT07k","title":"70- شرح اللؤلؤ والمرجان كتاب الحج من الباب الثالث والأربعين","publishedAt":"2020-02-18T06:00:02Z","duration":"PT19M12S","thumbnail":"https://i.ytimg.com/vi/HNKa-pCT07k/mqdefault.jpg","viewCount":"360","playlistId":"PLEkQk5xrP-tmKNjtYLfhATC37QdIsTMe0","playlistName":"شرح كتاب اللؤلؤ والمرجان فيما اتفق عليه الشيخان إماما المحدثين البخاري ومسلم. أ.د. يسري جبر","category":"حديث"},{"id":"WD_93I3UTC4","title":"شرح مسند الإمام محمد بن إدريس الشافعيّ رضي الله تعالى عنه - المجلس الرابع عشر  أ.د. يسري جبر","publishedAt":"2020-02-17T10:29:44Z","duration":"PT48M37S","thumbnail":"https://i.ytimg.com/vi/WD_93I3UTC4/mqdefault.jpg","viewCount":"563","playlistId":"PLEkQk5xrP-tlDtaqY0qhNXAiZ19gaGzKI","playlistName":"شرح مسند الإمام محمد بن إدريس الشافعيّ رضي الله تعالى عنه","category":"فقه"},{"id":"hK7HgrGAAG0","title":"69- شرح اللؤلؤ والمرجان كتاب الحج من الباب الثامن والثلاثين","publishedAt":"2020-02-17T06:00:13Z","duration":"PT17M6S","thumbnail":"https://i.ytimg.com/vi/hK7HgrGAAG0/mqdefault.jpg","viewCount":"436","playlistId":"PLEkQk5xrP-tmKNjtYLfhATC37QdIsTMe0","playlistName":"شرح كتاب اللؤلؤ والمرجان فيما اتفق عليه الشيخان إماما المحدثين البخاري ومسلم. أ.د. يسري جبر","category":"حديث"},{"id":"-FLkP4vXyU8","title":"529- معنى ألفاظ (شَعَرَ - عَسَى - لعل) والفرق بينهم - شرح البرهان في علوم القرآن","publishedAt":"2022-06-16T05:20:00Z","duration":"PT21M58S","thumbnail":"https://i.ytimg.com/vi/-FLkP4vXyU8/mqdefault.jpg","viewCount":"766","playlistId":"PLEkQk5xrP-tnW3iBL7HkKziOFCFZbTlf0","playlistName":"شرح البرهان في علوم القرآن - أ.د. يسري جبر","category":"تفسير"},{"id":"wlF7CCO0wGk","title":"النظافة من الإيمان","publishedAt":"2022-06-15T18:00:31Z","duration":"PT19M12S","thumbnail":"https://i.ytimg.com/vi/wlF7CCO0wGk/mqdefault.jpg","viewCount":"2477","playlistId":"PLEkQk5xrP-tlArtGpeLWaqNM7h7IDeAVC","playlistName":"خطب الجمعة أ.د. يسري جبر","category":"خطب"},{"id":"Tyft6jD4Wxs","title":"268- الوفاءُ بالعهد وإنجاز الوعد - شرح دليل الفالحين","publishedAt":"2022-06-15T05:00:11Z","duration":"PT21M15S","thumbnail":"https://i.ytimg.com/vi/Tyft6jD4Wxs/mqdefault.jpg","viewCount":"830","playlistId":"PLEkQk5xrP-tkc9DXvSLguqX5-FYp6ASR4","playlistName":"دليل الفالحين لطرق رياض الصالحين","category":"متنوع"},{"id":"WvStWLfjX2M","title":"الإنسان بين الوجود والعدم","publishedAt":"2022-06-14T18:53:01Z","duration":"PT8M41S","thumbnail":"https://i.ytimg.com/vi/WvStWLfjX2M/mqdefault.jpg","viewCount":"4661","playlistId":"PLEkQk5xrP-tlArtGpeLWaqNM7h7IDeAVC","playlistName":"خطب الجمعة أ.د. يسري جبر","category":"خطب"},{"id":"_IMG9fYX3p4","title":"شرح سنن الدارمي كتاب الفرائض من باب ٥٠","publishedAt":"2019-10-30T22:32:15Z","duration":"PT28M","thumbnail":"https://i.ytimg.com/vi/_IMG9fYX3p4/mqdefault.jpg","viewCount":"242","playlistId":"PLEkQk5xrP-tmAg-FuWjY057X_h5NmGmAa","playlistName":"شرح سنن الدارمي - أ.د. يسري جبر (كاملا)","category":"متنوع"},{"id":"_BxkOgWZUTg","title":"شرح البرهان في علوم القرآن - النوع ١٣ - في بيان جمعه ومن حفظه من الصحابة رضي الله عنهم","publishedAt":"2019-10-30T09:21:04Z","duration":"PT18M9S","thumbnail":"https://i.ytimg.com/vi/_BxkOgWZUTg/mqdefault.jpg","viewCount":"525","playlistId":"PLEkQk5xrP-tnW3iBL7HkKziOFCFZbTlf0","playlistName":"شرح البرهان في علوم القرآن - أ.د. يسري جبر","category":"تفسير"},{"id":"xUL19H_3bFY","title":"شرح سنن الدارمي كتاب الفرائض من باب ٤٦","publishedAt":"2019-10-29T23:15:18Z","duration":"PT30M15S","thumbnail":"https://i.ytimg.com/vi/xUL19H_3bFY/mqdefault.jpg","viewCount":"245","playlistId":"PLEkQk5xrP-tmAg-FuWjY057X_h5NmGmAa","playlistName":"شرح سنن الدارمي - أ.د. يسري جبر (كاملا)","category":"متنوع"},{"id":"pJbDIV-HJUM","title":"شرح صحيح الإمام البخاري رضي الله تعالى عنه - كتابُ التَّمَنِّي  أ.د. يسري جبر","publishedAt":"2019-10-29T14:41:52Z","duration":"PT24M6S","thumbnail":"https://i.ytimg.com/vi/pJbDIV-HJUM/mqdefault.jpg","viewCount":"436","playlistId":"PLEkQk5xrP-tmJuzaj4GWRenFoFx9gdbFX","playlistName":"شرح كتاب صحيح الإمام البخاري رضي الله تعالى عنه   أ.د. يسرى جبر","category":"حديث"},{"id":"mDUHPw-uHWQ","title":"شرح البرهان في علوم القرآن - النوع ١٢ - في كيفية إنزاله ٢","publishedAt":"2019-10-29T12:03:18Z","duration":"PT16M53S","thumbnail":"https://i.ytimg.com/vi/mDUHPw-uHWQ/mqdefault.jpg","viewCount":"554","playlistId":"PLEkQk5xrP-tnW3iBL7HkKziOFCFZbTlf0","playlistName":"شرح البرهان في علوم القرآن - أ.د. يسري جبر","category":"تفسير"},{"id":"jmsH_a_L9Oo","title":"شرح صلاة الأُنسِ لسيدي أحمد الرفاعي رضي الله تعالى عنه    أ.د. يسري جبر","publishedAt":"2019-10-28T12:59:13Z","duration":"PT35M3S","thumbnail":"https://i.ytimg.com/vi/jmsH_a_L9Oo/mqdefault.jpg","viewCount":"17217","playlistId":"PLEkQk5xrP-tknLQLcWmVVpecUHkbu7cHh","playlistName":"شرح صلوات مختارة على النبي صلى الله عليه وآله وسلم  أ.د. يسري جبر","category":"سيرة"},{"id":"9GjTZc9L-kM","title":"شرح سنن الدارمي كتاب الفرائض من باب ٤٢","publishedAt":"2019-10-28T10:58:45Z","duration":"PT31M29S","thumbnail":"https://i.ytimg.com/vi/9GjTZc9L-kM/mqdefault.jpg","viewCount":"191","playlistId":"PLEkQk5xrP-tmAg-FuWjY057X_h5NmGmAa","playlistName":"شرح سنن الدارمي - أ.د. يسري جبر (كاملا)","category":"متنوع"},{"id":"mqfpP2Qt3jw","title":"شرح كتاب دلائل الخيرات - المجلس الثامن أ.د. يسري جبر","publishedAt":"2019-10-27T21:38:40Z","duration":"PT45M34S","thumbnail":"https://i.ytimg.com/vi/mqfpP2Qt3jw/mqdefault.jpg","viewCount":"23349","playlistId":"PLEkQk5xrP-tlAzcbIpuqjdFICW-knvTlR","playlistName":"شرح كتاب دلائل الخيرات وشوارق الأنوار","category":"متنوع"},{"id":"4Rinfc3wK1k","title":"شرح البرهان في علوم القرآن - النوع ١٢ - في كيفية إنزاله","publishedAt":"2019-10-27T15:23:07Z","duration":"PT17M32S","thumbnail":"https://i.ytimg.com/vi/4Rinfc3wK1k/mqdefault.jpg","viewCount":"538","playlistId":"PLEkQk5xrP-tnW3iBL7HkKziOFCFZbTlf0","playlistName":"شرح البرهان في علوم القرآن - أ.د. يسري جبر","category":"تفسير"},{"id":"NEFDOY3B0OQ","title":"شرح سنن الدارمي كتاب الفرائض من باب ٣٩","publishedAt":"2019-10-27T11:05:41Z","duration":"PT33M41S","thumbnail":"https://i.ytimg.com/vi/NEFDOY3B0OQ/mqdefault.jpg","viewCount":"208","playlistId":"PLEkQk5xrP-tmAg-FuWjY057X_h5NmGmAa","playlistName":"شرح سنن الدارمي - أ.د. يسري جبر (كاملا)","category":"متنوع"},{"id":"sUGI69O5fbY","title":"شرح صحيح الإمام البخاري رضي الله تعالى عنه - كتابُِ الأَحْكَامِ أ.د. يسري جبر","publishedAt":"2019-07-16T22:40:49Z","duration":"PT37M39S","thumbnail":"https://i.ytimg.com/vi/sUGI69O5fbY/mqdefault.jpg","viewCount":"327","playlistId":"PLEkQk5xrP-tmJuzaj4GWRenFoFx9gdbFX","playlistName":"شرح كتاب صحيح الإمام البخاري رضي الله تعالى عنه   أ.د. يسرى جبر","category":"حديث"},{"id":"IKNv8ameR-c","title":"شرح سنن الدارمي كتاب المناسك من باب ٨١","publishedAt":"2019-07-16T18:49:58Z","duration":"PT29M14S","thumbnail":"https://i.ytimg.com/vi/IKNv8ameR-c/mqdefault.jpg","viewCount":"211","playlistId":"PLEkQk5xrP-tmAg-FuWjY057X_h5NmGmAa","playlistName":"شرح سنن الدارمي - أ.د. يسري جبر (كاملا)","category":"متنوع"},{"id":"xRVV4p4QVTI","title":"الرسالة القشيرية - المجلس (57) بابُ مُخَالَفٍةِ النَّفْسِ وَذِكْرِ عُيُوبِهَا. أ.د. يسري جبر","publishedAt":"2019-07-16T18:44:58Z","duration":"PT40M17S","thumbnail":"https://i.ytimg.com/vi/xRVV4p4QVTI/mqdefault.jpg","viewCount":"5905","playlistId":"PLEkQk5xrP-tkHAGOwIKr4pc5ehhyQ5HMJ","playlistName":"كتاب الرسالة القشيرية (تصوف) - د. يسري جبر","category":"تصوف"},{"id":"yFH9f00bUOA","title":"مقرأة سورة الأعلی من أولها","publishedAt":"2019-07-16T06:18:01Z","duration":"PT27M21S","thumbnail":"https://i.ytimg.com/vi/yFH9f00bUOA/mqdefault.jpg","viewCount":"770","playlistId":"PLEkQk5xrP-tnmTYsyW6xNdyfhPq0Bhrhj","playlistName":"مقرأة الفجر - القُرْآنُ الكَرِيمُ - خَتْمَةُ التَّدَبُّرِ  أ.د. يسري جبر","category":"متنوع"},{"id":"yRFXNIZLZoY","title":"شرح سنن الدارمي كتاب المناسك من باب ٧١","publishedAt":"2019-07-15T21:14:21Z","duration":"PT25M51S","thumbnail":"https://i.ytimg.com/vi/yRFXNIZLZoY/mqdefault.jpg","viewCount":"262","playlistId":"PLEkQk5xrP-tmAg-FuWjY057X_h5NmGmAa","playlistName":"شرح سنن الدارمي - أ.د. يسري جبر (كاملا)","category":"متنوع"},{"id":"RaPiUvUaBGQ","title":"شرح سنن الدارمي كتاب المناسك من باب ٦٢","publishedAt":"2019-07-14T22:01:58Z","duration":"PT27M50S","thumbnail":"https://i.ytimg.com/vi/RaPiUvUaBGQ/mqdefault.jpg","viewCount":"271","playlistId":"PLEkQk5xrP-tmAg-FuWjY057X_h5NmGmAa","playlistName":"شرح سنن الدارمي - أ.د. يسري جبر (كاملا)","category":"متنوع"}],"total":7670,"page":113,"pageSize":24,"totalPages":320}