{"items":[{"id":"o9vhQRnbDF4","title":"16- كيف تتخلص من التعلق بالدنيا؟ ‏| شرح الحكم العطائية","publishedAt":"2025-04-27T05:52:25Z","duration":"PT35M1S","thumbnail":"https://i.ytimg.com/vi/o9vhQRnbDF4/mqdefault.jpg","viewCount":"5880","playlistId":"PLEkQk5xrP-tmf5ToOwmW-q0JwxkapbrMN","playlistName":"شرح كتاب إرشاد البرية إلى بعض معاني الحكم العطائية","category":"متنوع"},{"id":"BllsZS8-P34","title":"53- حكم صلاة من لا يحسن الفاتحة | شرح سنن الإمام الدار قطني","publishedAt":"2025-04-26T09:00:12Z","duration":"PT37M50S","thumbnail":"https://i.ytimg.com/vi/BllsZS8-P34/mqdefault.jpg","viewCount":"818","playlistId":"PLEkQk5xrP-tk_MCBZ706ORCw6gFtFyaGj","playlistName":"شرح سنن الإمام الدارقطني","category":"متنوع"},{"id":"qpIr5vV6sBA","title":"15- كيف تفوض أمرك إلى الله وتحسن الظن به؟ ‏| شرح الحكم العطائية","publishedAt":"2025-04-23T18:00:49Z","duration":"PT41M10S","thumbnail":"https://i.ytimg.com/vi/qpIr5vV6sBA/mqdefault.jpg","viewCount":"12121","playlistId":"PLEkQk5xrP-tmf5ToOwmW-q0JwxkapbrMN","playlistName":"شرح كتاب إرشاد البرية إلى بعض معاني الحكم العطائية","category":"متنوع"},{"id":"OjOHb09p8h0","title":"59- متى يعصمك الله من الذنوب والمعاصي؟ | شرح منازل السائرين","publishedAt":"2025-04-22T19:01:17Z","duration":"PT38M","thumbnail":"https://i.ytimg.com/vi/OjOHb09p8h0/mqdefault.jpg","viewCount":"8375","playlistId":"PLEkQk5xrP-tmiUfQ-2Tsn7QIak4EsvaZW","playlistName":"كتاب التيسير المعين بشرح معاني منازل السائرين (تصوف) - د.يسري جبر","category":"تصوف"},{"id":"8JGat1IL-Vw","title":"كيف تكون رحيمًا بمن حولك؟","publishedAt":"2025-04-21T18:00:09Z","duration":"PT8M37S","thumbnail":"https://i.ytimg.com/vi/8JGat1IL-Vw/mqdefault.jpg","viewCount":"3661","playlistId":"PLEkQk5xrP-tlArtGpeLWaqNM7h7IDeAVC","playlistName":"خطب الجمعة أ.د. يسري جبر","category":"خطب"},{"id":"UFyqiig3M6E","title":"290- كيف نُحصل سعادة الدارين؟ - شرح الإتقان في علوم القرآن","publishedAt":"2025-04-21T10:00:42Z","duration":"PT38M26S","thumbnail":"https://i.ytimg.com/vi/UFyqiig3M6E/mqdefault.jpg","viewCount":"1658","playlistId":"PLEkQk5xrP-tlPw10KGJKagu7zm4Ry2Tge","playlistName":"شرح الإتقان في علوم القرآن","category":"تفسير"},{"id":"w55ovO15ioU","title":"40- كل ما تريد معرفته عن الطهارة | شرح مختصر الفتوحات المكية","publishedAt":"2025-04-19T19:30:18Z","duration":"PT52M22S","thumbnail":"https://i.ytimg.com/vi/w55ovO15ioU/mqdefault.jpg","viewCount":"2619","playlistId":"PLEkQk5xrP-tnpkdZki6rPTtMak1bnI5g-","playlistName":"شرح كتاب مختصر الفتوحات المكية المسمى لواقح الأنوار القدسية","category":"متنوع"},{"id":"APyVTqiFezI","title":"159- درء الحدود بالشبهات - شرح مسند الإمام أحمد رضي الله تعالى عنه","publishedAt":"2025-04-18T09:00:30Z","duration":"PT22M29S","thumbnail":"https://i.ytimg.com/vi/APyVTqiFezI/mqdefault.jpg","viewCount":"835","playlistId":"PLEkQk5xrP-tkKprIuGrSdEuBSMsyg5We1","playlistName":"شرح مسند الإمام أحمد بن حنبل","category":"متنوع"},{"id":"KovBDFuvNqQ","title":"هل النبي ﷺ نور؟","publishedAt":"2025-04-17T19:34:50Z","duration":"PT22M49S","thumbnail":"https://i.ytimg.com/vi/KovBDFuvNqQ/mqdefault.jpg","viewCount":"4968","playlistId":"PLEkQk5xrP-tlArtGpeLWaqNM7h7IDeAVC","playlistName":"خطب الجمعة أ.د. يسري جبر","category":"خطب"},{"id":"09LMmxUqrXA","title":"هل يجوز كتابة اسمي على سجادة الصلاة؟","publishedAt":"2025-04-16T18:00:00Z","duration":"PT8M58S","thumbnail":"https://i.ytimg.com/vi/09LMmxUqrXA/mqdefault.jpg","viewCount":"3264","playlistId":"PLEkQk5xrP-tkGXuZ9atE3k_7it12rUPTs","playlistName":"أسئلة المتابعين","category":"متنوع"},{"id":"-eoz_3cV5m0","title":"هل يوجد أوراد تساعد على زيادة الرزق؟","publishedAt":"2025-04-15T19:00:01Z","duration":"PT8M57S","thumbnail":"https://i.ytimg.com/vi/-eoz_3cV5m0/mqdefault.jpg","viewCount":"13346","playlistId":"PLEkQk5xrP-tkGXuZ9atE3k_7it12rUPTs","playlistName":"أسئلة المتابعين","category":"متنوع"},{"id":"x3YUxOjCwAU","title":"حقائق ومعاني حول النبي ﷺ","publishedAt":"2025-04-14T18:00:51Z","duration":"PT25M34S","thumbnail":"https://i.ytimg.com/vi/x3YUxOjCwAU/mqdefault.jpg","viewCount":"2019","playlistId":"PLEkQk5xrP-tlArtGpeLWaqNM7h7IDeAVC","playlistName":"خطب الجمعة أ.د. يسري جبر","category":"خطب"},{"id":"PiNzn06dS30","title":"289- لا تنقضي عجائبه ولا يشبع منه العلماء - شرح الإتقان في علوم القرآن","publishedAt":"2025-04-10T10:00:39Z","duration":"PT31M18S","thumbnail":"https://i.ytimg.com/vi/PiNzn06dS30/mqdefault.jpg","viewCount":"1839","playlistId":"PLEkQk5xrP-tlPw10KGJKagu7zm4Ry2Tge","playlistName":"شرح الإتقان في علوم القرآن","category":"تفسير"},{"id":"b1JrB_h8NGI","title":"158- الاختلاف قد يكون سببا في حرمان الخير - شرح مسند الإمام أحمد رضي الله تعالى عنه","publishedAt":"2025-04-09T10:00:51Z","duration":"PT12M9S","thumbnail":"https://i.ytimg.com/vi/b1JrB_h8NGI/mqdefault.jpg","viewCount":"1206","playlistId":"PLEkQk5xrP-tkKprIuGrSdEuBSMsyg5We1","playlistName":"شرح مسند الإمام أحمد بن حنبل","category":"متنوع"},{"id":"zUBmspEmWLA","title":"288- مراتب تأليف الكلام - شرح الإتقان في علوم القرآن","publishedAt":"2025-04-08T10:01:21Z","duration":"PT33M2S","thumbnail":"https://i.ytimg.com/vi/zUBmspEmWLA/mqdefault.jpg","viewCount":"901","playlistId":"PLEkQk5xrP-tlPw10KGJKagu7zm4Ry2Tge","playlistName":"شرح الإتقان في علوم القرآن","category":"تفسير"},{"id":"ZRyPN0obcpk","title":"157- حكم زيارة النساء للقبور - شرح مسند الإمام أحمد رضي الله تعالى عنه","publishedAt":"2025-04-07T10:00:50Z","duration":"PT16M6S","thumbnail":"https://i.ytimg.com/vi/ZRyPN0obcpk/mqdefault.jpg","viewCount":"1113","playlistId":"PLEkQk5xrP-tkKprIuGrSdEuBSMsyg5We1","playlistName":"شرح مسند الإمام أحمد بن حنبل","category":"متنوع"},{"id":"QOgHHW6kOAg","title":"156- وصف سيدنا جبريل عليه السلام في صورته الحقيقية - شرح مسند الإمام أحمد رضي الله تعالى عنه","publishedAt":"2025-04-06T15:00:35Z","duration":"PT17M37S","thumbnail":"https://i.ytimg.com/vi/QOgHHW6kOAg/mqdefault.jpg","viewCount":"2331","playlistId":"PLEkQk5xrP-tkKprIuGrSdEuBSMsyg5We1","playlistName":"شرح مسند الإمام أحمد بن حنبل","category":"متنوع"},{"id":"inSQz3TTLMU","title":"287- بعض وجوه الإعجاز في القرآن الكريم - شرح الإتقان في علوم القرآن","publishedAt":"2025-04-05T15:00:57Z","duration":"PT21M8S","thumbnail":"https://i.ytimg.com/vi/inSQz3TTLMU/mqdefault.jpg","viewCount":"1109","playlistId":"PLEkQk5xrP-tlPw10KGJKagu7zm4Ry2Tge","playlistName":"شرح الإتقان في علوم القرآن","category":"تفسير"},{"id":"pm0KzmOrNQs","title":"286- خوارق العادات وأنواعها - شرح الإتقان في علوم القرآن","publishedAt":"2025-04-03T10:01:13Z","duration":"PT28M","thumbnail":"https://i.ytimg.com/vi/pm0KzmOrNQs/mqdefault.jpg","viewCount":"2276","playlistId":"PLEkQk5xrP-tlPw10KGJKagu7zm4Ry2Tge","playlistName":"شرح الإتقان في علوم القرآن","category":"تفسير"},{"id":"ohLJOqBXWDc","title":"155- هل يجوز قراءة الفنجان والتصديق في الأبراج؟ - شرح مسند الإمام أحمد رضي الله تعالى عنه","publishedAt":"2025-04-02T10:01:08Z","duration":"PT14M33S","thumbnail":"https://i.ytimg.com/vi/ohLJOqBXWDc/mqdefault.jpg","viewCount":"2453","playlistId":"PLEkQk5xrP-tkKprIuGrSdEuBSMsyg5We1","playlistName":"شرح مسند الإمام أحمد بن حنبل","category":"متنوع"},{"id":"TBDGuzDXH2s","title":"285- ما جاء في الآيات المشتبهات - شرح الإتقان في علوم القرآن","publishedAt":"2025-04-01T10:00:40Z","duration":"PT36M22S","thumbnail":"https://i.ytimg.com/vi/TBDGuzDXH2s/mqdefault.jpg","viewCount":"1139","playlistId":"PLEkQk5xrP-tlPw10KGJKagu7zm4Ry2Tge","playlistName":"شرح الإتقان في علوم القرآن","category":"تفسير"},{"id":"Md-3rQJRhDQ","title":"ما الفرق بين التوكل والتفويض؟ | مجالس رمضانية","publishedAt":"2025-03-30T19:00:12Z","duration":"PT39M50S","thumbnail":"https://i.ytimg.com/vi/Md-3rQJRhDQ/mqdefault.jpg","viewCount":"4374","playlistId":"PLEkQk5xrP-tkeI_WVPfuoTJO46aVkpaz0","playlistName":"شرح كتاب ميزان الاعتدال لحفظ الدين والأحوال","category":"متنوع"},{"id":"dgvjTeWwdPg","title":"كيف أصل إلى حب الله والرضا بقضائه؟ | مجالس رمضانية","publishedAt":"2025-03-30T15:00:49Z","duration":"PT28M45S","thumbnail":"https://i.ytimg.com/vi/dgvjTeWwdPg/mqdefault.jpg","viewCount":"7795","playlistId":"PLEkQk5xrP-tkeI_WVPfuoTJO46aVkpaz0","playlistName":"شرح كتاب ميزان الاعتدال لحفظ الدين والأحوال","category":"متنوع"},{"id":"sYnGBbTHD0c","title":"الفرق بين الخوف والخشية من الله تعالى | مجالس رمضانية","publishedAt":"2025-03-29T19:00:39Z","duration":"PT35M53S","thumbnail":"https://i.ytimg.com/vi/sYnGBbTHD0c/mqdefault.jpg","viewCount":"2769","playlistId":"PLEkQk5xrP-tkeI_WVPfuoTJO46aVkpaz0","playlistName":"شرح كتاب ميزان الاعتدال لحفظ الدين والأحوال","category":"متنوع"}],"total":7670,"page":35,"pageSize":24,"totalPages":320}