{"items":[{"id":"p0pLIwS4Kw8","title":"(30) سيدنا أبو عبد الله عمرو بن عثمان المكي رضي الله عنه د. يسري جبر","publishedAt":"2018-08-06T14:24:14Z","duration":"PT13M38S","thumbnail":"https://i.ytimg.com/vi/p0pLIwS4Kw8/mqdefault.jpg","viewCount":"700","playlistId":"PLEkQk5xrP-tmmI87XkWepRdTpisz2Lfgr","playlistName":"باب في ذكر مشايخ هذه الطريقة من شرح كتاب الرسالة القشيرية","category":"تصوف"},{"id":"ckJdkpdeEtY","title":"شرح صحيح البخاري كتاب الطب من باب ٢٤","publishedAt":"2018-08-06T13:57:08Z","duration":"PT24M5S","thumbnail":"https://i.ytimg.com/vi/ckJdkpdeEtY/mqdefault.jpg","viewCount":"471","playlistId":"PLEkQk5xrP-tlEerGoLa1AFy-2XvQ-sovv","playlistName":"شرح صحيح البخاري - أ.د. يسري جبر (كاملا)","category":"حديث"},{"id":"PQgpa85dEE4","title":"مقرأة سورة سبأ من آية ٦","publishedAt":"2018-08-06T08:39:47Z","duration":"PT20M42S","thumbnail":"https://i.ytimg.com/vi/PQgpa85dEE4/mqdefault.jpg","viewCount":"361","playlistId":"PLEkQk5xrP-tnmTYsyW6xNdyfhPq0Bhrhj","playlistName":"مقرأة الفجر - القُرْآنُ الكَرِيمُ - خَتْمَةُ التَّدَبُّرِ  أ.د. يسري جبر","category":"متنوع"},{"id":"ZqhjJR7qIss","title":"(29) سيدنا أبو بكر أحمد بن نصر الزقَّاق الكبير رضي الله عنه د. يسري جبر","publishedAt":"2018-08-05T19:16:01Z","duration":"PT7M53S","thumbnail":"https://i.ytimg.com/vi/ZqhjJR7qIss/mqdefault.jpg","viewCount":"824","playlistId":"PLEkQk5xrP-tmmI87XkWepRdTpisz2Lfgr","playlistName":"باب في ذكر مشايخ هذه الطريقة من شرح كتاب الرسالة القشيرية","category":"تصوف"},{"id":"JMA3XCzfNlc","title":"شرح صحيح البخاري كتاب الطب من باب ١٧","publishedAt":"2018-08-05T18:52:38Z","duration":"PT34M19S","thumbnail":"https://i.ytimg.com/vi/JMA3XCzfNlc/mqdefault.jpg","viewCount":"643","playlistId":"PLEkQk5xrP-tlEerGoLa1AFy-2XvQ-sovv","playlistName":"شرح صحيح البخاري - أ.د. يسري جبر (كاملا)","category":"حديث"},{"id":"jxUIU4JZHCc","title":"مقرأة سورة سبأ من أولها","publishedAt":"2018-08-05T09:56:47Z","duration":"PT15M38S","thumbnail":"https://i.ytimg.com/vi/jxUIU4JZHCc/mqdefault.jpg","viewCount":"955","playlistId":"PLEkQk5xrP-tnmTYsyW6xNdyfhPq0Bhrhj","playlistName":"مقرأة الفجر - القُرْآنُ الكَرِيمُ - خَتْمَةُ التَّدَبُّرِ  أ.د. يسري جبر","category":"متنوع"},{"id":"TRgwY_MFu5Q","title":"شرح صحيح البخاري كتاب الطب من باب ٧","publishedAt":"2018-08-04T21:58:44Z","duration":"PT41M14S","thumbnail":"https://i.ytimg.com/vi/TRgwY_MFu5Q/mqdefault.jpg","viewCount":"692","playlistId":"PLEkQk5xrP-tlEerGoLa1AFy-2XvQ-sovv","playlistName":"شرح صحيح البخاري - أ.د. يسري جبر (كاملا)","category":"حديث"},{"id":"HJKrIHb2B_Q","title":"مقرأة سورة الأحزاب من ٱية ٦٩","publishedAt":"2018-08-04T16:20:57Z","duration":"PT16M5S","thumbnail":"https://i.ytimg.com/vi/HJKrIHb2B_Q/mqdefault.jpg","viewCount":"303","playlistId":"PLEkQk5xrP-tnmTYsyW6xNdyfhPq0Bhrhj","playlistName":"مقرأة الفجر - القُرْآنُ الكَرِيمُ - خَتْمَةُ التَّدَبُّرِ  أ.د. يسري جبر","category":"متنوع"},{"id":"qyXeQSAUne8","title":"أول فرصة لليلة القدر هذا العام!","publishedAt":"2025-03-15T19:00:42Z","duration":"PT8M8S","thumbnail":"https://i.ytimg.com/vi/qyXeQSAUne8/mqdefault.jpg","viewCount":"3326","playlistId":"PLEkQk5xrP-tlArtGpeLWaqNM7h7IDeAVC","playlistName":"خطب الجمعة أ.د. يسري جبر","category":"خطب"},{"id":"YCKToSCFGKk","title":"كيف تصل إلى أعلى درجات الإيمان؟ | مجالس رمضانية","publishedAt":"2025-03-15T15:30:11Z","duration":"PT31M22S","thumbnail":"https://i.ytimg.com/vi/YCKToSCFGKk/mqdefault.jpg","viewCount":"6030","playlistId":"PLEkQk5xrP-tkeI_WVPfuoTJO46aVkpaz0","playlistName":"شرح كتاب ميزان الاعتدال لحفظ الدين والأحوال","category":"متنوع"},{"id":"uh-LE5X6QhY","title":"ابني مش بيصلي فماذا أفعل معه؟","publishedAt":"2025-03-14T19:00:50Z","duration":"PT8M1S","thumbnail":"https://i.ytimg.com/vi/uh-LE5X6QhY/mqdefault.jpg","viewCount":"2262","playlistId":"PLEkQk5xrP-tkGXuZ9atE3k_7it12rUPTs","playlistName":"أسئلة المتابعين","category":"متنوع"},{"id":"vJsw8uY66QI","title":"كيف سيعاقب الله مانع الزكاة يوم القيامة؟ | مجالس رمضانية","publishedAt":"2025-03-14T15:30:22Z","duration":"PT24M27S","thumbnail":"https://i.ytimg.com/vi/vJsw8uY66QI/mqdefault.jpg","viewCount":"1209","playlistId":"PLEkQk5xrP-tkeI_WVPfuoTJO46aVkpaz0","playlistName":"شرح كتاب ميزان الاعتدال لحفظ الدين والأحوال","category":"متنوع"},{"id":"mYbre9dYCCA","title":"وصايا نبوية تحميك من الأمراض","publishedAt":"2025-03-13T19:00:40Z","duration":"PT9M49S","thumbnail":"https://i.ytimg.com/vi/mYbre9dYCCA/mqdefault.jpg","viewCount":"4179","playlistId":"PLEkQk5xrP-tm8ZIu74nTOZN9KJUJu416J","playlistName":"مقاطع مُهمَّة (يُسريَّات) أ.د. يسري جبر","category":"متنوع"},{"id":"Fg_eRBIY42w","title":"ما أهم مفاتيح الخير وزيادة الرزق؟ | مجالس رمضانية","publishedAt":"2025-03-13T15:30:07Z","duration":"PT27M47S","thumbnail":"https://i.ytimg.com/vi/Fg_eRBIY42w/mqdefault.jpg","viewCount":"3436","playlistId":"PLEkQk5xrP-tkeI_WVPfuoTJO46aVkpaz0","playlistName":"شرح كتاب ميزان الاعتدال لحفظ الدين والأحوال","category":"متنوع"},{"id":"l8qrtDigB_s","title":"شرح صحيح البخاري- كتاب المناقب من باب ٣","publishedAt":"2017-10-26T15:54:54Z","duration":"PT33M55S","thumbnail":"https://i.ytimg.com/vi/l8qrtDigB_s/mqdefault.jpg","viewCount":"662","playlistId":"PLEkQk5xrP-tlEerGoLa1AFy-2XvQ-sovv","playlistName":"شرح صحيح البخاري - أ.د. يسري جبر (كاملا)","category":"حديث"},{"id":"96GJGRbvieo","title":"مقرأة سورة الكهف من آية ٥٠","publishedAt":"2017-10-26T12:41:23Z","duration":"PT13M54S","thumbnail":"https://i.ytimg.com/vi/96GJGRbvieo/mqdefault.jpg","viewCount":"439","playlistId":"PLEkQk5xrP-tnmTYsyW6xNdyfhPq0Bhrhj","playlistName":"مقرأة الفجر - القُرْآنُ الكَرِيمُ - خَتْمَةُ التَّدَبُّرِ  أ.د. يسري جبر","category":"متنوع"},{"id":"NMPcFRjzUps","title":"شرح صحيح البخاري- كتاب المناقب من أوله","publishedAt":"2017-10-25T23:59:41Z","duration":"PT31M52S","thumbnail":"https://i.ytimg.com/vi/NMPcFRjzUps/mqdefault.jpg","viewCount":"1036","playlistId":"PLEkQk5xrP-tlEerGoLa1AFy-2XvQ-sovv","playlistName":"شرح صحيح البخاري - أ.د. يسري جبر (كاملا)","category":"حديث"},{"id":"3pFs9_rBrPc","title":"مقرأة سورة الكهف من آية ٤٥","publishedAt":"2017-10-25T19:25:49Z","duration":"PT19M54S","thumbnail":"https://i.ytimg.com/vi/3pFs9_rBrPc/mqdefault.jpg","viewCount":"487","playlistId":"PLEkQk5xrP-tnmTYsyW6xNdyfhPq0Bhrhj","playlistName":"مقرأة الفجر - القُرْآنُ الكَرِيمُ - خَتْمَةُ التَّدَبُّرِ  أ.د. يسري جبر","category":"متنوع"},{"id":"NTfvE45mwNY","title":"شرح صحيح البخاري كتاب الأحكام من باب ٤٤","publishedAt":"2019-01-15T22:08:35Z","duration":"PT30M17S","thumbnail":"https://i.ytimg.com/vi/NTfvE45mwNY/mqdefault.jpg","viewCount":"396","playlistId":"PLEkQk5xrP-tlEerGoLa1AFy-2XvQ-sovv","playlistName":"شرح صحيح البخاري - أ.د. يسري جبر (كاملا)","category":"حديث"},{"id":"KZ_mWOAnHEM","title":"مقرأة سورة محمد من آية ٢٥","publishedAt":"2019-01-15T15:11:57Z","duration":"PT13M8S","thumbnail":"https://i.ytimg.com/vi/KZ_mWOAnHEM/mqdefault.jpg","viewCount":"325","playlistId":"PLEkQk5xrP-tnmTYsyW6xNdyfhPq0Bhrhj","playlistName":"مقرأة الفجر - القُرْآنُ الكَرِيمُ - خَتْمَةُ التَّدَبُّرِ  أ.د. يسري جبر","category":"متنوع"},{"id":"y03RGRMj1ZU","title":"شرح صحيح البخاري كتاب الأحكام من باب ٤٣","publishedAt":"2019-01-14T21:16:06Z","duration":"PT43M47S","thumbnail":"https://i.ytimg.com/vi/y03RGRMj1ZU/mqdefault.jpg","viewCount":"367","playlistId":"PLEkQk5xrP-tlEerGoLa1AFy-2XvQ-sovv","playlistName":"شرح صحيح البخاري - أ.د. يسري جبر (كاملا)","category":"حديث"},{"id":"CoLSHS3fRBs","title":"هَدْمُ الإِنسَانِ أَخْطَرُ مِنْ هَدْمِ البُنْيَانِ.   أ.د. يسري جبر","publishedAt":"2019-01-14T20:29:54Z","duration":"PT29M28S","thumbnail":"https://i.ytimg.com/vi/CoLSHS3fRBs/mqdefault.jpg","viewCount":"791","playlistId":"PLEkQk5xrP-tlArtGpeLWaqNM7h7IDeAVC","playlistName":"خطب الجمعة أ.د. يسري جبر","category":"خطب"},{"id":"hNJfqII5wQM","title":"مقرأة سورة محمد من آية ٢٠","publishedAt":"2019-01-14T11:13:01Z","duration":"PT7M32S","thumbnail":"https://i.ytimg.com/vi/hNJfqII5wQM/mqdefault.jpg","viewCount":"319","playlistId":"PLEkQk5xrP-tnmTYsyW6xNdyfhPq0Bhrhj","playlistName":"مقرأة الفجر - القُرْآنُ الكَرِيمُ - خَتْمَةُ التَّدَبُّرِ  أ.د. يسري جبر","category":"متنوع"},{"id":"dr5e8ZtzXrk","title":"شرح صحيح البخاري كتاب الأحكام من باب ٣٧","publishedAt":"2019-01-13T22:12:56Z","duration":"PT33M42S","thumbnail":"https://i.ytimg.com/vi/dr5e8ZtzXrk/mqdefault.jpg","viewCount":"426","playlistId":"PLEkQk5xrP-tlEerGoLa1AFy-2XvQ-sovv","playlistName":"شرح صحيح البخاري - أ.د. يسري جبر (كاملا)","category":"حديث"}],"total":7670,"page":45,"pageSize":24,"totalPages":320}