{"items":[{"id":"H2nSdSiza7c","title":"ختام شرح كتاب الشمائل المحمدية للإمام أبى عيسى الترمذى رضى الله عنه - المجلس الحادى عشر","publishedAt":"2014-11-13T16:15:08Z","duration":"PT1H20M3S","thumbnail":"https://i.ytimg.com/vi/H2nSdSiza7c/mqdefault.jpg","viewCount":"695","playlistId":"PLEkQk5xrP-tm74ioQU4BIuXLs8a9babvA","playlistName":"شرح كتاب الشمائل المحمدية للإمام الترمذى","category":"سيرة"},{"id":"kdIoIRXysPQ","title":"شرح كتاب الشمائل المحمدية للإمام أبى عيسى الترمذى رضى الله عنه - المجلس العاشر","publishedAt":"2014-11-13T08:53:09Z","duration":"PT1H23M12S","thumbnail":"https://i.ytimg.com/vi/kdIoIRXysPQ/mqdefault.jpg","viewCount":"466","playlistId":"PLEkQk5xrP-tm74ioQU4BIuXLs8a9babvA","playlistName":"شرح كتاب الشمائل المحمدية للإمام الترمذى","category":"سيرة"},{"id":"bC93uMKV04U","title":"شرح كتاب الشمائل المحمدية للإمام أبى عيسى الترمذى رضى الله عنه - المجلس التاسع","publishedAt":"2014-11-12T19:42:44Z","duration":"PT1H30M21S","thumbnail":"https://i.ytimg.com/vi/bC93uMKV04U/mqdefault.jpg","viewCount":"505","playlistId":"PLEkQk5xrP-tm74ioQU4BIuXLs8a9babvA","playlistName":"شرح كتاب الشمائل المحمدية للإمام الترمذى","category":"سيرة"},{"id":"PRQBzMA7Rfo","title":"ذكرى عاشوراء وماحدث فى كربلاء","publishedAt":"2014-11-12T13:42:38Z","duration":"PT39M54S","thumbnail":"https://i.ytimg.com/vi/PRQBzMA7Rfo/mqdefault.jpg","viewCount":"1549","playlistId":"PLEkQk5xrP-tlArtGpeLWaqNM7h7IDeAVC","playlistName":"خطب الجمعة أ.د. يسري جبر","category":"خطب"},{"id":"r7RIwkuB6-E","title":"شرح كتاب الشمائل المحمدية للإمام أبى عيسى الترمذى رضى الله عنه - المجلس الثامن","publishedAt":"2014-11-12T05:08:48Z","duration":"PT1H23M58S","thumbnail":"https://i.ytimg.com/vi/r7RIwkuB6-E/mqdefault.jpg","viewCount":"515","playlistId":"PLEkQk5xrP-tm74ioQU4BIuXLs8a9babvA","playlistName":"شرح كتاب الشمائل المحمدية للإمام الترمذى","category":"سيرة"},{"id":"ABuVV5OkLxY","title":"ما المقصود بتقارب الزمان كما أخبر النبي؟ (مفهوم عصري)","publishedAt":"2014-11-11T11:35:00Z","duration":"PT11M30S","thumbnail":"https://i.ytimg.com/vi/ABuVV5OkLxY/mqdefault.jpg","viewCount":"10736","playlistId":"PLEkQk5xrP-tm8ZIu74nTOZN9KJUJu416J","playlistName":"مقاطع مُهمَّة (يُسريَّات) أ.د. يسري جبر","category":"متنوع"},{"id":"-_J3YKAu2gU","title":"شرح كتاب الشمائل المحمدية للإمام أبى عيسى الترمذى رضى الله عنه - المجلس السابع","publishedAt":"2014-11-10T20:38:03Z","duration":"PT1H29M36S","thumbnail":"https://i.ytimg.com/vi/-_J3YKAu2gU/mqdefault.jpg","viewCount":"621","playlistId":"PLEkQk5xrP-tm74ioQU4BIuXLs8a9babvA","playlistName":"شرح كتاب الشمائل المحمدية للإمام الترمذى","category":"سيرة"},{"id":"2_5b1ANaExA","title":"شرح كتاب الشمائل المحمدية للإمام أبى عيسى الترمذى رضى الله عنه - المجلس السادس","publishedAt":"2014-11-08T20:27:55Z","duration":"PT1H9M12S","thumbnail":"https://i.ytimg.com/vi/2_5b1ANaExA/mqdefault.jpg","viewCount":"799","playlistId":"PLEkQk5xrP-tm74ioQU4BIuXLs8a9babvA","playlistName":"شرح كتاب الشمائل المحمدية للإمام الترمذى","category":"سيرة"},{"id":"6KHITiNuipw","title":"قراءة القرآن (من أول سورة القمر)","publishedAt":"2016-01-02T05:34:59Z","duration":"PT9M27S","thumbnail":"https://i.ytimg.com/vi/6KHITiNuipw/mqdefault.jpg","viewCount":"122","playlistId":"PLEkQk5xrP-tnUSUj0uyJhA-kwNC7Gkx_j","playlistName":"مقرأة الفجر - بداية من سورة الإسراء حتى سورة الناس","category":"تفسير"},{"id":"sQhdPueV7cs","title":"مجلس الإحتفال بمولد النبيَّين الكريمَين سيدنا محمد وسيدنا عيسى -عليهما الصلاة والسلام- ١٤٣٧ هـ","publishedAt":"2016-01-01T13:00:29Z","duration":"PT59M15S","thumbnail":"https://i.ytimg.com/vi/sQhdPueV7cs/mqdefault.jpg","viewCount":"419","playlistId":"PLEkQk5xrP-tmYN0y2PQUkx881GYBxD16g","playlistName":"درس الجمعة","category":"خطب"},{"id":"LOP7RFzpJPc","title":"شرح كتاب الرؤيا من سنن الترمذي - المجلس الثاني","publishedAt":"2015-12-31T06:19:23Z","duration":"PT38M41S","thumbnail":"https://i.ytimg.com/vi/LOP7RFzpJPc/mqdefault.jpg","viewCount":"243","playlistId":"PLEkQk5xrP-tnu6of679SvxdVx0qSrJzmb","playlistName":"شرح سنن الإمام الترمذي رضى الله عنه د. يسري جبر","category":"متنوع"},{"id":"S3W2aio4Goc","title":"شرح كتاب منازل السائرين للإمام الهروى - المجلس الخامس - باب المحاسبة وباب الإنابة","publishedAt":"2015-12-30T18:14:57Z","duration":"PT1H23M36S","thumbnail":"https://i.ytimg.com/vi/S3W2aio4Goc/mqdefault.jpg","viewCount":"10548","playlistId":"PLEkQk5xrP-tnLYi_5_tSRVBwqcs7ISV7Y","playlistName":"شرح كتاب منازل السائرين للإمام الهروي","category":"متنوع"},{"id":"d-Pkin5JZdg","title":"شرح كتاب منازل السائرين للإمام الهروى - المجلس الرابع - باب التوبة","publishedAt":"2015-12-30T14:04:06Z","duration":"PT1H47M39S","thumbnail":"https://i.ytimg.com/vi/d-Pkin5JZdg/mqdefault.jpg","viewCount":"16991","playlistId":"PLEkQk5xrP-tnLYi_5_tSRVBwqcs7ISV7Y","playlistName":"شرح كتاب منازل السائرين للإمام الهروي","category":"متنوع"},{"id":"MKteszr3w40","title":"شرح كتاب منازل السائرين للإمام الهروى - المجلس الثالث - باب اليقظة","publishedAt":"2015-12-30T08:05:50Z","duration":"PT1H24M53S","thumbnail":"https://i.ytimg.com/vi/MKteszr3w40/mqdefault.jpg","viewCount":"18328","playlistId":"PLEkQk5xrP-tnLYi_5_tSRVBwqcs7ISV7Y","playlistName":"شرح كتاب منازل السائرين للإمام الهروي","category":"متنوع"},{"id":"74WpHbXK0dE","title":"120- شرح اللؤلؤ والمرجان كتاب الإمارة من الباب الرابع والعشرين","publishedAt":"2020-04-15T16:45:00Z","duration":"PT25M14S","thumbnail":"https://i.ytimg.com/vi/74WpHbXK0dE/mqdefault.jpg","viewCount":"417","playlistId":"PLEkQk5xrP-tmKNjtYLfhATC37QdIsTMe0","playlistName":"شرح كتاب اللؤلؤ والمرجان فيما اتفق عليه الشيخان إماما المحدثين البخاري ومسلم. أ.د. يسري جبر","category":"حديث"},{"id":"ZvEgmKssHz4","title":"شرح البرهان في علوم القرآن - النوع ٤١ - أقسام التفسير ٢","publishedAt":"2020-04-15T16:45:00Z","duration":"PT31M28S","thumbnail":"https://i.ytimg.com/vi/ZvEgmKssHz4/mqdefault.jpg","viewCount":"438","playlistId":"PLEkQk5xrP-tnW3iBL7HkKziOFCFZbTlf0","playlistName":"شرح البرهان في علوم القرآن - أ.د. يسري جبر","category":"تفسير"},{"id":"mibMPmBYRtM","title":"ليسَ الوَاصِلُ بالمُكاَفِئ    أ.د. يسري جبر","publishedAt":"2020-04-14T17:35:19Z","duration":"PT50M11S","thumbnail":"https://i.ytimg.com/vi/mibMPmBYRtM/mqdefault.jpg","viewCount":"1260","playlistId":"PLEkQk5xrP-tlhpr-bJBjCsJw3j1S-LD9B","playlistName":"كتابُ الأدَبِ - المجلس الأول  أ.د. يسري جبر","category":"تصوف"},{"id":"_bEQCIYiK-c","title":"٢- البِرُّ والصِّلَةُ   أ.د. يسري جبر","publishedAt":"2020-04-13T21:24:37Z","duration":"PT25M3S","thumbnail":"https://i.ytimg.com/vi/_bEQCIYiK-c/mqdefault.jpg","viewCount":"1179","playlistId":"PLEkQk5xrP-tlhpr-bJBjCsJw3j1S-LD9B","playlistName":"كتابُ الأدَبِ - المجلس الأول  أ.د. يسري جبر","category":"تصوف"},{"id":"qOYoWZHOi-A","title":"الرسالة القشيرية - المجلس (114) بَابُ كرامات الأولياء ٧ | أ.د. يسري جبر","publishedAt":"2022-03-01T18:05:28Z","duration":"PT51M51S","thumbnail":"https://i.ytimg.com/vi/qOYoWZHOi-A/mqdefault.jpg","viewCount":"19484","playlistId":"PLEkQk5xrP-tkHAGOwIKr4pc5ehhyQ5HMJ","playlistName":"كتاب الرسالة القشيرية (تصوف) - د. يسري جبر","category":"تصوف"},{"id":"WPul-cwfbIQ","title":"تَقْسِيمٌ مِن مقابلة اثْنَين باثْنَين - شرح البرهان في علوم القرآن","publishedAt":"2022-03-01T06:30:07Z","duration":"PT25M53S","thumbnail":"https://i.ytimg.com/vi/WPul-cwfbIQ/mqdefault.jpg","viewCount":"646","playlistId":"PLEkQk5xrP-tnW3iBL7HkKziOFCFZbTlf0","playlistName":"شرح البرهان في علوم القرآن - أ.د. يسري جبر","category":"تفسير"},{"id":"XT7yHxKxBdc","title":"ما هي العوالم التي خلقها الله؟","publishedAt":"2022-02-28T18:00:42Z","duration":"PT12M21S","thumbnail":"https://i.ytimg.com/vi/XT7yHxKxBdc/mqdefault.jpg","viewCount":"11002","playlistId":"PLEkQk5xrP-tlArtGpeLWaqNM7h7IDeAVC","playlistName":"خطب الجمعة أ.د. يسري جبر","category":"خطب"},{"id":"OYeQUyijxUU","title":"210- \"…أخرجت إلينا عائشةُ كساءً وإزارًا غليظًا، قالت: قُبض رسولُ الله ﷺ في هذين\" - شرح دليل الفالحين","publishedAt":"2022-02-28T07:39:04Z","duration":"PT22M5S","thumbnail":"https://i.ytimg.com/vi/OYeQUyijxUU/mqdefault.jpg","viewCount":"1032","playlistId":"PLEkQk5xrP-tkc9DXvSLguqX5-FYp6ASR4","playlistName":"دليل الفالحين لطرق رياض الصالحين","category":"متنوع"},{"id":"nlhz8-ywhto","title":"أنواعُ المُقَابَلَة - شرح البرهان في علوم القرآن","publishedAt":"2022-02-27T06:32:42Z","duration":"PT27M47S","thumbnail":"https://i.ytimg.com/vi/nlhz8-ywhto/mqdefault.jpg","viewCount":"926","playlistId":"PLEkQk5xrP-tnW3iBL7HkKziOFCFZbTlf0","playlistName":"شرح البرهان في علوم القرآن - أ.د. يسري جبر","category":"تفسير"},{"id":"r_Z2dDWx3Eo","title":"ما هي علامات ظهور المهدي المنتظر؟","publishedAt":"2022-02-26T17:00:35Z","duration":"PT10M39S","thumbnail":"https://i.ytimg.com/vi/r_Z2dDWx3Eo/mqdefault.jpg","viewCount":"15475","playlistId":"PLEkQk5xrP-tkGXuZ9atE3k_7it12rUPTs","playlistName":"أسئلة المتابعين","category":"متنوع"}],"total":7670,"page":278,"pageSize":24,"totalPages":320}