{"items":[{"id":"6Ax1lvtKSLM","title":"166- استحباب مجالسة الصالحين ومجانبة قرناء السوء","publishedAt":"2020-11-16T07:24:07Z","duration":"PT17M9S","thumbnail":"https://i.ytimg.com/vi/6Ax1lvtKSLM/mqdefault.jpg","viewCount":"2665","playlistId":"PLEkQk5xrP-tmKNjtYLfhATC37QdIsTMe0","playlistName":"شرح كتاب اللؤلؤ والمرجان فيما اتفق عليه الشيخان إماما المحدثين البخاري ومسلم. أ.د. يسري جبر","category":"حديث"},{"id":"_Ux_kKpS_to","title":"لماذا اختار النَّبيُّ ﷺ الرفيقَ الأعلى؟","publishedAt":"2020-11-15T17:52:54Z","duration":"PT9M32S","thumbnail":"https://i.ytimg.com/vi/_Ux_kKpS_to/mqdefault.jpg","viewCount":"4569","playlistId":"PLEkQk5xrP-tlArtGpeLWaqNM7h7IDeAVC","playlistName":"خطب الجمعة أ.د. يسري جبر","category":"خطب"},{"id":"sEDqIbZ4srQ","title":"فتنة الدجال وظهور المهدي","publishedAt":"2020-11-14T18:05:35Z","duration":"PT10M13S","thumbnail":"https://i.ytimg.com/vi/sEDqIbZ4srQ/mqdefault.jpg","viewCount":"36810","playlistId":"PLEkQk5xrP-tm8ZIu74nTOZN9KJUJu416J","playlistName":"مقاطع مُهمَّة (يُسريَّات) أ.د. يسري جبر","category":"متنوع"},{"id":"CGYgvyVUXb8","title":"بقية النوع 45: في أقسام معنى الكلام - الاستخبار","publishedAt":"2020-11-14T06:14:41Z","duration":"PT13M55S","thumbnail":"https://i.ytimg.com/vi/CGYgvyVUXb8/mqdefault.jpg","viewCount":"566","playlistId":"PLEkQk5xrP-tnW3iBL7HkKziOFCFZbTlf0","playlistName":"شرح البرهان في علوم القرآن - أ.د. يسري جبر","category":"تفسير"},{"id":"9CUQMs6fPHc","title":"صحيح البخاري كتاب الدعوات -هل يُصلى على غير النبي صلى الله عليه وآله وسلم - المجلس الخامس د.يسري جبر","publishedAt":"2017-05-08T21:03:56Z","duration":"PT1H6M3S","thumbnail":"https://i.ytimg.com/vi/9CUQMs6fPHc/mqdefault.jpg","viewCount":"374","playlistId":"PLEkQk5xrP-tmJuzaj4GWRenFoFx9gdbFX","playlistName":"شرح كتاب صحيح الإمام البخاري رضي الله تعالى عنه   أ.د. يسرى جبر","category":"حديث"},{"id":"6eaacO4vqJ4","title":"عَلِم أنَّ العباد يتشوفون إلى ظهور سر العناية ، فقال \" يَخْتَصُّ بِرَحْمَتِهِ مَن يَشَاءُ \"","publishedAt":"2017-05-07T21:31:34Z","duration":"PT5M50S","thumbnail":"https://i.ytimg.com/vi/6eaacO4vqJ4/mqdefault.jpg","viewCount":"3823","playlistId":"PLEkQk5xrP-tkI_meE148wc7V7XHlB0WPb","playlistName":"من الحكم العطائية  د. يسري جبر","category":"متنوع"},{"id":"cAjtlydGmb0","title":"شرح صحيح الإمام البخاري رضي الله عنه - كتاب الدعوات (الدعاء عند الكرب)المجلس الرابع د. يسري جبر","publishedAt":"2017-05-07T15:30:16Z","duration":"PT37M33S","thumbnail":"https://i.ytimg.com/vi/cAjtlydGmb0/mqdefault.jpg","viewCount":"616","playlistId":"PLEkQk5xrP-tmJuzaj4GWRenFoFx9gdbFX","playlistName":"شرح كتاب صحيح الإمام البخاري رضي الله تعالى عنه   أ.د. يسرى جبر","category":"حديث"},{"id":"_HntS0-LZb8","title":"شرح صحيح البخاري - كتاب الشفعة وكتاب الإجارة من أوله","publishedAt":"2017-05-07T12:00:08Z","duration":"PT37M1S","thumbnail":"https://i.ytimg.com/vi/_HntS0-LZb8/mqdefault.jpg","viewCount":"1076","playlistId":"PLEkQk5xrP-tlEerGoLa1AFy-2XvQ-sovv","playlistName":"شرح صحيح البخاري - أ.د. يسري جبر (كاملا)","category":"حديث"},{"id":"yujywqA8o4Y","title":"مقرأة سورة يونس من أولها","publishedAt":"2017-05-07T09:43:18Z","duration":"PT28M57S","thumbnail":"https://i.ytimg.com/vi/yujywqA8o4Y/mqdefault.jpg","viewCount":"773","playlistId":"PLEkQk5xrP-tnmTYsyW6xNdyfhPq0Bhrhj","playlistName":"مقرأة الفجر - القُرْآنُ الكَرِيمُ - خَتْمَةُ التَّدَبُّرِ  أ.د. يسري جبر","category":"متنوع"},{"id":"Mg89rVNhFnM","title":"شرح صحيح البخاري - كتاب السلم","publishedAt":"2017-05-06T19:34:47Z","duration":"PT38M19S","thumbnail":"https://i.ytimg.com/vi/Mg89rVNhFnM/mqdefault.jpg","viewCount":"2092","playlistId":"PLEkQk5xrP-tlEerGoLa1AFy-2XvQ-sovv","playlistName":"شرح صحيح البخاري - أ.د. يسري جبر (كاملا)","category":"حديث"},{"id":"esLWdvOrct0","title":"شرح كتاب نوراليقين في سيرة سيد المرسلين - المجلس التاسع ( إسلام حمزة ) د.يسري جبر","publishedAt":"2017-05-06T19:14:57Z","duration":"PT49M37S","thumbnail":"https://i.ytimg.com/vi/esLWdvOrct0/mqdefault.jpg","viewCount":"31846","playlistId":"PLEkQk5xrP-tl2t4NQx1IhKnAJCMzF0Nli","playlistName":"شرح كتاب نور اليقين في سيرة سيد المرسلين   د. يسري جبر","category":"سيرة"},{"id":"wcqflDyR9k4","title":"مقرأة سورة التوبة من آية ١٢٣","publishedAt":"2017-05-06T13:01:47Z","duration":"PT23M39S","thumbnail":"https://i.ytimg.com/vi/wcqflDyR9k4/mqdefault.jpg","viewCount":"354","playlistId":"PLEkQk5xrP-tnmTYsyW6xNdyfhPq0Bhrhj","playlistName":"مقرأة الفجر - القُرْآنُ الكَرِيمُ - خَتْمَةُ التَّدَبُّرِ  أ.د. يسري جبر","category":"متنوع"},{"id":"k62LIGPhFVM","title":"شرح صحيح البخاري - كتاب البيوع من باب ١٠١","publishedAt":"2017-05-05T20:33:48Z","duration":"PT44M59S","thumbnail":"https://i.ytimg.com/vi/k62LIGPhFVM/mqdefault.jpg","viewCount":"934","playlistId":"PLEkQk5xrP-tlEerGoLa1AFy-2XvQ-sovv","playlistName":"شرح صحيح البخاري - أ.د. يسري جبر (كاملا)","category":"حديث"},{"id":"PyXKrsYiqfM","title":"الحَدَاثةُ وأثرها في الواقع المُعَاش     د. يسري جبر","publishedAt":"2017-05-05T19:40:05Z","duration":"PT47M24S","thumbnail":"https://i.ytimg.com/vi/PyXKrsYiqfM/mqdefault.jpg","viewCount":"1828","playlistId":"PLEkQk5xrP-tlArtGpeLWaqNM7h7IDeAVC","playlistName":"خطب الجمعة أ.د. يسري جبر","category":"خطب"},{"id":"fX0mr2O0x5Q","title":"مقرأة سورة التوبة من آية ١٢٠","publishedAt":"2017-05-05T18:45:28Z","duration":"PT11M17S","thumbnail":"https://i.ytimg.com/vi/fX0mr2O0x5Q/mqdefault.jpg","viewCount":"331","playlistId":"PLEkQk5xrP-tnmTYsyW6xNdyfhPq0Bhrhj","playlistName":"مقرأة الفجر - القُرْآنُ الكَرِيمُ - خَتْمَةُ التَّدَبُّرِ  أ.د. يسري جبر","category":"متنوع"},{"id":"IJValUpcEjc","title":"عنايتُه فيك لا لشيء منك، وأين كنت حين واجهتْك عنايتُه، وقابلتْك رعايتُه","publishedAt":"2017-05-04T19:50:50Z","duration":"PT4M57S","thumbnail":"https://i.ytimg.com/vi/IJValUpcEjc/mqdefault.jpg","viewCount":"2521","playlistId":"PLEkQk5xrP-tkI_meE148wc7V7XHlB0WPb","playlistName":"من الحكم العطائية  د. يسري جبر","category":"متنوع"},{"id":"1L6hZffZvus","title":"كيف يكون طلبك اللاحق سببا في عطائه السابق","publishedAt":"2017-05-04T15:42:38Z","duration":"PT8M34S","thumbnail":"https://i.ytimg.com/vi/1L6hZffZvus/mqdefault.jpg","viewCount":"1663","playlistId":"PLEkQk5xrP-tkI_meE148wc7V7XHlB0WPb","playlistName":"من الحكم العطائية  د. يسري جبر","category":"متنوع"},{"id":"9nsBzOa8Cgs","title":"شرح صحيح البخاري - كتاب البيوع من باب ٩٦","publishedAt":"2017-05-04T15:27:43Z","duration":"PT40M27S","thumbnail":"https://i.ytimg.com/vi/9nsBzOa8Cgs/mqdefault.jpg","viewCount":"792","playlistId":"PLEkQk5xrP-tlEerGoLa1AFy-2XvQ-sovv","playlistName":"شرح صحيح البخاري - أ.د. يسري جبر (كاملا)","category":"حديث"},{"id":"T9vkqO3x4Bc","title":"فن إكرام الجار | مجالس رمضانية","publishedAt":"2023-03-25T15:00:31Z","duration":"PT42M42S","thumbnail":"https://i.ytimg.com/vi/T9vkqO3x4Bc/mqdefault.jpg","viewCount":"1250","playlistId":"PLEkQk5xrP-tnl7vb7KeAoPd5ZlqKKW8KV","playlistName":"شرح كتاب بهجة النفوس أ.د . يسرى جبر","category":"متنوع"},{"id":"fcttccFvhqQ","title":"417-  اللهمّ لك أسلمت وبك آمنت وعليك توكلت وإليك أنبت وبك خاصمت أعوذ بعزّتك لا إله إلا أنت أن تُضلني","publishedAt":"2023-03-25T05:00:14Z","duration":"PT35M30S","thumbnail":"https://i.ytimg.com/vi/fcttccFvhqQ/mqdefault.jpg","viewCount":"980","playlistId":"PLEkQk5xrP-tkc9DXvSLguqX5-FYp6ASR4","playlistName":"دليل الفالحين لطرق رياض الصالحين","category":"متنوع"},{"id":"fZumqSf-zug","title":"كيف تبدأ رمضان بقلب سيلم؟","publishedAt":"2023-03-24T19:00:18Z","duration":"PT17M26S","thumbnail":"https://i.ytimg.com/vi/fZumqSf-zug/mqdefault.jpg","viewCount":"8016","playlistId":"PLEkQk5xrP-tlArtGpeLWaqNM7h7IDeAVC","playlistName":"خطب الجمعة أ.د. يسري جبر","category":"خطب"},{"id":"YbMaLKA_yHg","title":"رحمة الله لمن يرحم عباده | مجالس رمضانية","publishedAt":"2023-03-24T15:00:23Z","duration":"PT35M55S","thumbnail":"https://i.ytimg.com/vi/YbMaLKA_yHg/mqdefault.jpg","viewCount":"1994","playlistId":"PLEkQk5xrP-tnl7vb7KeAoPd5ZlqKKW8KV","playlistName":"شرح كتاب بهجة النفوس أ.د . يسرى جبر","category":"متنوع"},{"id":"RwgWCkawn58","title":"42- الجمع الثالث للقرآن - شرح الإتقان في علوم القرآن","publishedAt":"2023-03-24T05:00:07Z","duration":"PT25M56S","thumbnail":"https://i.ytimg.com/vi/RwgWCkawn58/mqdefault.jpg","viewCount":"772","playlistId":"PLEkQk5xrP-tlPw10KGJKagu7zm4Ry2Tge","playlistName":"شرح الإتقان في علوم القرآن","category":"تفسير"},{"id":"6ji28ij5vO0","title":"كيف تستثمر وقتك في رمضان؟","publishedAt":"2023-03-23T19:00:02Z","duration":"PT10M34S","thumbnail":"https://i.ytimg.com/vi/6ji28ij5vO0/mqdefault.jpg","viewCount":"11174","playlistId":"PLEkQk5xrP-tlArtGpeLWaqNM7h7IDeAVC","playlistName":"خطب الجمعة أ.د. يسري جبر","category":"خطب"}],"total":7670,"page":196,"pageSize":24,"totalPages":320}