{"items":[{"id":"0S1R9I9LhZU","title":"12- حقيقة الكشف وهل للمريد أن يطلب الكشف؟ | شرح الحكم العطائية","publishedAt":"2025-01-02T20:00:00Z","duration":"PT52M42S","thumbnail":"https://i.ytimg.com/vi/0S1R9I9LhZU/mqdefault.jpg","viewCount":"5474","playlistId":"PLEkQk5xrP-tmf5ToOwmW-q0JwxkapbrMN","playlistName":"شرح كتاب إرشاد البرية إلى بعض معاني الحكم العطائية","category":"متنوع"},{"id":"5qXt7FWjqC0","title":"أفضل الأعمال فى شهر رجب","publishedAt":"2025-01-01T16:00:04Z","duration":"PT17M42S","thumbnail":"https://i.ytimg.com/vi/5qXt7FWjqC0/mqdefault.jpg","viewCount":"13206","playlistId":"PLEkQk5xrP-tlArtGpeLWaqNM7h7IDeAVC","playlistName":"خطب الجمعة أ.د. يسري جبر","category":"خطب"},{"id":"E3-6kf-2gEk","title":"147- لعن اللهُ مَن تولَّى غير مَواليه - شرح مسند الإمام أحمد رضي الله تعالى عنه","publishedAt":"2025-01-01T07:11:04Z","duration":"PT35M38S","thumbnail":"https://i.ytimg.com/vi/E3-6kf-2gEk/mqdefault.jpg","viewCount":"1006","playlistId":"PLEkQk5xrP-tkKprIuGrSdEuBSMsyg5We1","playlistName":"شرح مسند الإمام أحمد بن حنبل","category":"متنوع"},{"id":"7pbXZbIW6sk","title":"هل يجوز شرب الخمر بدون الوصول إلى حد السكر؟","publishedAt":"2024-12-30T20:00:04Z","duration":"PT29M46S","thumbnail":"https://i.ytimg.com/vi/7pbXZbIW6sk/mqdefault.jpg","viewCount":"2345","playlistId":"PLEkQk5xrP-tlArtGpeLWaqNM7h7IDeAVC","playlistName":"خطب الجمعة أ.د. يسري جبر","category":"خطب"},{"id":"TXui8ynCwuI","title":"ما المعاصي التي ترتكبها في حياتك اليومية ولا تعرف أنها من الكبائر؟","publishedAt":"2024-12-29T20:02:17Z","duration":"PT32M52S","thumbnail":"https://i.ytimg.com/vi/TXui8ynCwuI/mqdefault.jpg","viewCount":"7225","playlistId":"PLEkQk5xrP-tnZyxWbCSqTSMV9BJLUL-zN","playlistName":"شرح كتاب تنوير البصيرة ببيان علامات الكبيرة","category":"متنوع"},{"id":"Um52xE8wevA","title":"36- رحلة إلى يوم القيامة وماذا سيحدث بالتفصيل؟ | شرح مختصر الفتوحات المكية","publishedAt":"2024-12-28T18:21:31Z","duration":"PT50M29S","thumbnail":"https://i.ytimg.com/vi/Um52xE8wevA/mqdefault.jpg","viewCount":"7175","playlistId":"PLEkQk5xrP-tnpkdZki6rPTtMak1bnI5g-","playlistName":"شرح كتاب مختصر الفتوحات المكية المسمى لواقح الأنوار القدسية","category":"متنوع"},{"id":"eigpBgP03Fg","title":"50- كيفية رفع اليدين في الصلاة عند الافتتاح والركوع والرفع منه | شرح سنن الإمام الدار قطني","publishedAt":"2024-12-28T06:30:24Z","duration":"PT38M49S","thumbnail":"https://i.ytimg.com/vi/eigpBgP03Fg/mqdefault.jpg","viewCount":"889","playlistId":"PLEkQk5xrP-tk_MCBZ706ORCw6gFtFyaGj","playlistName":"شرح سنن الإمام الدارقطني","category":"متنوع"},{"id":"C3VjF0AmXYs","title":"11- لماذا يتحقق مطلبك مع الله ويصعب بالاعتماد على نفسك؟ | شرح الحكم العطائية","publishedAt":"2024-12-26T18:25:35Z","duration":"PT48M51S","thumbnail":"https://i.ytimg.com/vi/C3VjF0AmXYs/mqdefault.jpg","viewCount":"5693","playlistId":"PLEkQk5xrP-tmf5ToOwmW-q0JwxkapbrMN","playlistName":"شرح كتاب إرشاد البرية إلى بعض معاني الحكم العطائية","category":"متنوع"},{"id":"b5W3rlSjJio","title":"هل يجوز تهنئة المسيحيين بأعيادهم؟","publishedAt":"2024-12-25T17:00:37Z","duration":"PT9M44S","thumbnail":"https://i.ytimg.com/vi/b5W3rlSjJio/mqdefault.jpg","viewCount":"8829","playlistId":"PLEkQk5xrP-tkGXuZ9atE3k_7it12rUPTs","playlistName":"أسئلة المتابعين","category":"متنوع"},{"id":"ltm-Woc9o48","title":"56- طريقك إلى الأنس بالله | شرح منازل السائرين","publishedAt":"2024-12-24T19:56:46Z","duration":"PT31M42S","thumbnail":"https://i.ytimg.com/vi/ltm-Woc9o48/mqdefault.jpg","viewCount":"12601","playlistId":"PLEkQk5xrP-tmiUfQ-2Tsn7QIak4EsvaZW","playlistName":"كتاب التيسير المعين بشرح معاني منازل السائرين (تصوف) - د.يسري جبر","category":"تصوف"},{"id":"37Bv05s49WI","title":"كيف نحصن أنفسنا من فتن هذا الزمان؟","publishedAt":"2024-12-23T21:18:58Z","duration":"PT31M10S","thumbnail":"https://i.ytimg.com/vi/37Bv05s49WI/mqdefault.jpg","viewCount":"8611","playlistId":"PLEkQk5xrP-tlArtGpeLWaqNM7h7IDeAVC","playlistName":"خطب الجمعة أ.د. يسري جبر","category":"خطب"},{"id":"f5-woAoqv0A","title":"عندي وسواس في إيماني ,, فماذا أفعل؟","publishedAt":"2024-12-21T18:32:11Z","duration":"PT8M39S","thumbnail":"https://i.ytimg.com/vi/f5-woAoqv0A/mqdefault.jpg","viewCount":"3038","playlistId":"PLEkQk5xrP-tkGXuZ9atE3k_7it12rUPTs","playlistName":"أسئلة المتابعين","category":"متنوع"},{"id":"6VAeEs2Xdnk","title":"277- فواصل الآي (3) الحكم (10) صرف ما لا ينصرف - شرح الإتقان في علوم القرآن","publishedAt":"2024-12-21T06:30:01Z","duration":"PT30M34S","thumbnail":"https://i.ytimg.com/vi/6VAeEs2Xdnk/mqdefault.jpg","viewCount":"500","playlistId":"PLEkQk5xrP-tlPw10KGJKagu7zm4Ry2Tge","playlistName":"شرح الإتقان في علوم القرآن","category":"تفسير"},{"id":"T-DGL2pLsTo","title":"49- ما جاء في وضع اليمين على الشمال في الصلاة ومواضع رفع اليدين بالتكبير | شرح سنن الإمام الدار قطني","publishedAt":"2024-12-20T19:14:23Z","duration":"PT30M19S","thumbnail":"https://i.ytimg.com/vi/T-DGL2pLsTo/mqdefault.jpg","viewCount":"689","playlistId":"PLEkQk5xrP-tk_MCBZ706ORCw6gFtFyaGj","playlistName":"شرح سنن الإمام الدارقطني","category":"متنوع"},{"id":"TOcWcq-Vxtk","title":"146- ما معنى احفظ الله تجده أمامك؟ - شرح مسند الإمام أحمد رضي الله تعالى عنه","publishedAt":"2024-12-20T06:30:21Z","duration":"PT15M26S","thumbnail":"https://i.ytimg.com/vi/TOcWcq-Vxtk/mqdefault.jpg","viewCount":"1484","playlistId":"PLEkQk5xrP-tkKprIuGrSdEuBSMsyg5We1","playlistName":"شرح مسند الإمام أحمد بن حنبل","category":"متنوع"},{"id":"azIr7HPfFSk","title":"55- ما الفرق بين علم اليقين وعين اليقين وحق اليقين؟ | شرح منازل السائرين","publishedAt":"2024-12-19T19:18:16Z","duration":"PT36M57S","thumbnail":"https://i.ytimg.com/vi/azIr7HPfFSk/mqdefault.jpg","viewCount":"3535","playlistId":"PLEkQk5xrP-tmiUfQ-2Tsn7QIak4EsvaZW","playlistName":"كتاب التيسير المعين بشرح معاني منازل السائرين (تصوف) - د.يسري جبر","category":"تصوف"},{"id":"o2POrRroVPE","title":"276- فواصل الآي (2) - شرح الإتقان في علوم القرآن","publishedAt":"2024-12-19T06:30:22Z","duration":"PT22M46S","thumbnail":"https://i.ytimg.com/vi/o2POrRroVPE/mqdefault.jpg","viewCount":"435","playlistId":"PLEkQk5xrP-tlPw10KGJKagu7zm4Ry2Tge","playlistName":"شرح الإتقان في علوم القرآن","category":"تفسير"},{"id":"ScINot-2Vpo","title":"ما هي سبل النجاة من فتن آخر الزمان؟","publishedAt":"2024-12-18T15:59:39Z","duration":"PT17M52S","thumbnail":"https://i.ytimg.com/vi/ScINot-2Vpo/mqdefault.jpg","viewCount":"8211","playlistId":"PLEkQk5xrP-tlArtGpeLWaqNM7h7IDeAVC","playlistName":"خطب الجمعة أ.د. يسري جبر","category":"خطب"},{"id":"iWyjc5YeK4g","title":"10- ما من نَفَسٍ تبديه إلا وله قدر فيك يمضيه | شرح الحكم العطائية","publishedAt":"2024-12-17T17:25:59Z","duration":"PT42M59S","thumbnail":"https://i.ytimg.com/vi/iWyjc5YeK4g/mqdefault.jpg","viewCount":"4501","playlistId":"PLEkQk5xrP-tmf5ToOwmW-q0JwxkapbrMN","playlistName":"شرح كتاب إرشاد البرية إلى بعض معاني الحكم العطائية","category":"متنوع"},{"id":"axkRwcCMixA","title":"145- حكم الالتفات في الصلاة - شرح مسند الإمام أحمد رضي الله تعالى عنه","publishedAt":"2024-12-17T06:30:01Z","duration":"PT18M4S","thumbnail":"https://i.ytimg.com/vi/axkRwcCMixA/mqdefault.jpg","viewCount":"699","playlistId":"PLEkQk5xrP-tkKprIuGrSdEuBSMsyg5We1","playlistName":"شرح مسند الإمام أحمد بن حنبل","category":"متنوع"},{"id":"rZsMVqK5ZaM","title":"اكتشفت ان زوجي بيخوني بعد 25 سنة جواز ,, أعمل ايه؟؟","publishedAt":"2024-12-16T18:59:55Z","duration":"PT10M22S","thumbnail":"https://i.ytimg.com/vi/rZsMVqK5ZaM/mqdefault.jpg","viewCount":"4040","playlistId":"PLEkQk5xrP-tkGXuZ9atE3k_7it12rUPTs","playlistName":"أسئلة المتابعين","category":"متنوع"},{"id":"SdXC-9fpKnE","title":"275- فواصل الآي - شرح الإتقان في علوم القرآن","publishedAt":"2024-12-16T06:30:17Z","duration":"PT39M11S","thumbnail":"https://i.ytimg.com/vi/SdXC-9fpKnE/mqdefault.jpg","viewCount":"527","playlistId":"PLEkQk5xrP-tlPw10KGJKagu7zm4Ry2Tge","playlistName":"شرح الإتقان في علوم القرآن","category":"تفسير"},{"id":"XDWi5Iy-EbY","title":"35- من هم أهل النار وما صفاتهم وأفعالهم؟ | شرح مختصر الفتوحات المكية","publishedAt":"2024-12-15T18:16:03Z","duration":"PT53M7S","thumbnail":"https://i.ytimg.com/vi/XDWi5Iy-EbY/mqdefault.jpg","viewCount":"3747","playlistId":"PLEkQk5xrP-tnpkdZki6rPTtMak1bnI5g-","playlistName":"شرح كتاب مختصر الفتوحات المكية المسمى لواقح الأنوار القدسية","category":"متنوع"},{"id":"0xM3QUqDU_M","title":"48- حكم إعادة الصلاة في جماعة | صفة الجماعة ومن أحق بالإمامة - شرح سنن الإمام الدار قطني","publishedAt":"2024-12-15T06:30:00Z","duration":"PT36M31S","thumbnail":"https://i.ytimg.com/vi/0xM3QUqDU_M/mqdefault.jpg","viewCount":"649","playlistId":"PLEkQk5xrP-tk_MCBZ706ORCw6gFtFyaGj","playlistName":"شرح سنن الإمام الدارقطني","category":"متنوع"}],"total":7675,"page":19,"pageSize":24,"totalPages":320}