{"items":[{"id":"CWn1_KVdnVM","title":"شرح كتاب البيوع من سنن الترمذي - المجلس السابع","publishedAt":"2015-05-30T03:51:09Z","duration":"PT32M31S","thumbnail":"https://i.ytimg.com/vi/CWn1_KVdnVM/mqdefault.jpg","viewCount":"197","playlistId":"PLEkQk5xrP-tnu6of679SvxdVx0qSrJzmb","playlistName":"شرح سنن الإمام الترمذي رضى الله عنه د. يسري جبر","category":"متنوع"},{"id":"kq4RU0aWMN4","title":"قراءة القرآن من سورة الإسراء (من آية 49)","publishedAt":"2015-05-30T03:15:16Z","duration":"PT12M6S","thumbnail":"https://i.ytimg.com/vi/kq4RU0aWMN4/mqdefault.jpg","viewCount":"4088","playlistId":"PLEkQk5xrP-tnUSUj0uyJhA-kwNC7Gkx_j","playlistName":"مقرأة الفجر - بداية من سورة الإسراء حتى سورة الناس","category":"تفسير"},{"id":"YO0sxIIHqvg","title":"شرح كتاب البيوع من سنن الترمذي - المجلس السادس","publishedAt":"2015-05-29T04:12:20Z","duration":"PT32M15S","thumbnail":"https://i.ytimg.com/vi/YO0sxIIHqvg/mqdefault.jpg","viewCount":"216","playlistId":"PLEkQk5xrP-tnu6of679SvxdVx0qSrJzmb","playlistName":"شرح سنن الإمام الترمذي رضى الله عنه د. يسري جبر","category":"متنوع"},{"id":"iF-nEJtDIY8","title":"شرح كتاب البيوع من سنن الترمذي - المجلس الخامس","publishedAt":"2015-05-28T04:02:52Z","duration":"PT38M32S","thumbnail":"https://i.ytimg.com/vi/iF-nEJtDIY8/mqdefault.jpg","viewCount":"231","playlistId":"PLEkQk5xrP-tnu6of679SvxdVx0qSrJzmb","playlistName":"شرح سنن الإمام الترمذي رضى الله عنه د. يسري جبر","category":"متنوع"},{"id":"_Or-T1DpjqE","title":"شهادة الزور من أكبر الكبائر| اعرف نبيك","publishedAt":"2015-05-27T15:07:42Z","duration":"PT4M2S","thumbnail":"https://i.ytimg.com/vi/_Or-T1DpjqE/mqdefault.jpg","viewCount":"4477","playlistId":"PLEkQk5xrP-tl6Mu_Mz3QMUSv5T6XBH-Dg","playlistName":"برنامج اعرف نبيك","category":"متنوع"},{"id":"Cbf-nWWQH2E","title":"شرح كتاب البيوع من سنن الترمذي - المجلس الرابع","publishedAt":"2015-05-27T03:57:21Z","duration":"PT44M6S","thumbnail":"https://i.ytimg.com/vi/Cbf-nWWQH2E/mqdefault.jpg","viewCount":"244","playlistId":"PLEkQk5xrP-tnu6of679SvxdVx0qSrJzmb","playlistName":"شرح سنن الإمام الترمذي رضى الله عنه د. يسري جبر","category":"متنوع"},{"id":"9SkTTkcHOdQ","title":"شرح كتاب الأذكار من كلام سيد الأبرار للإمام النووى رضى الله عنه - المجلس السادس والعشرون","publishedAt":"2015-05-27T03:55:25Z","duration":"PT13M7S","thumbnail":"https://i.ytimg.com/vi/9SkTTkcHOdQ/mqdefault.jpg","viewCount":"328","playlistId":"PLEkQk5xrP-tkWS57Ubysh0ifJR8dmuEtE","playlistName":"شرح كتاب الأذكار للإمام النووي د. يسرى جبر","category":"حديث"},{"id":"MKdIgzJaUBY","title":"شرح كتاب منازل السائرين للإمام الهروى المجلس الخمسون قسم الولايات باب السر وباب النَفَس","publishedAt":"2015-05-26T04:11:17Z","duration":"PT1H15M22S","thumbnail":"https://i.ytimg.com/vi/MKdIgzJaUBY/mqdefault.jpg","viewCount":"1563","playlistId":"PLEkQk5xrP-tnLYi_5_tSRVBwqcs7ISV7Y","playlistName":"شرح كتاب منازل السائرين للإمام الهروي","category":"متنوع"},{"id":"zMpeibBmtvw","title":"شرح كتاب  البيوع من سنن الترمذي - المجلس الثالث","publishedAt":"2015-05-26T03:59:17Z","duration":"PT40M27S","thumbnail":"https://i.ytimg.com/vi/zMpeibBmtvw/mqdefault.jpg","viewCount":"642","playlistId":"PLEkQk5xrP-tnu6of679SvxdVx0qSrJzmb","playlistName":"شرح سنن الإمام الترمذي رضى الله عنه د. يسري جبر","category":"متنوع"},{"id":"XHXMDCEw4Jo","title":"شرح كتاب البيوع من سنن الترمذي - المجلس الثاني","publishedAt":"2015-05-26T02:21:19Z","duration":"PT42M28S","thumbnail":"https://i.ytimg.com/vi/XHXMDCEw4Jo/mqdefault.jpg","viewCount":"576","playlistId":"PLEkQk5xrP-tnu6of679SvxdVx0qSrJzmb","playlistName":"شرح سنن الإمام الترمذي رضى الله عنه د. يسري جبر","category":"متنوع"},{"id":"8XAXQL2rZgQ","title":"المشروع الإسلامي بين الحقيقة والخرافة","publishedAt":"2015-05-25T21:05:17Z","duration":"PT16M9S","thumbnail":"https://i.ytimg.com/vi/8XAXQL2rZgQ/mqdefault.jpg","viewCount":"2629","playlistId":"PLEkQk5xrP-tl5sZd_31jJw-5LldLW46Dv","playlistName":"كتاب الحق المبين في الرد على من تطاول على الدين","category":"ردود"},{"id":"20WBTIwot_k","title":"صحيح الإمام البخاري رضي الله عنه - كتاب الطلاق - المجلس الثالث","publishedAt":"2015-05-25T19:13:12Z","duration":"PT1H6M29S","thumbnail":"https://i.ytimg.com/vi/20WBTIwot_k/mqdefault.jpg","viewCount":"114","playlistId":"PLEkQk5xrP-tmJuzaj4GWRenFoFx9gdbFX","playlistName":"شرح كتاب صحيح الإمام البخاري رضي الله تعالى عنه   أ.د. يسرى جبر","category":"حديث"},{"id":"irfZ3YSLfuI","title":"شرح كتاب فتح القريب المجيب «الأوقات التى تكره الصلاة فيها» د. يسري رشدي جبر","publishedAt":"2015-05-25T14:44:29Z","duration":"PT1H31M45S","thumbnail":"https://i.ytimg.com/vi/irfZ3YSLfuI/mqdefault.jpg","viewCount":"2178","playlistId":"PLEkQk5xrP-tlyOgfNBZTZgoATzVW4mI20","playlistName":"كتاب فتح القريب المجيب (علم الفقه الشافعي)","category":"فقه"},{"id":"QYfCE0L5xxE","title":"شرح كتاب البيوع من سنن الإمام الترمذي - المجلس الأول","publishedAt":"2015-05-24T03:59:01Z","duration":"PT40M10S","thumbnail":"https://i.ytimg.com/vi/QYfCE0L5xxE/mqdefault.jpg","viewCount":"2901","playlistId":"PLEkQk5xrP-tnu6of679SvxdVx0qSrJzmb","playlistName":"شرح سنن الإمام الترمذي رضى الله عنه د. يسري جبر","category":"متنوع"},{"id":"R9tZRebhhLc","title":"مقرأة سورة العنكبوت من آية ٥٨","publishedAt":"2018-06-14T09:58:56Z","duration":"PT23M54S","thumbnail":"https://i.ytimg.com/vi/R9tZRebhhLc/mqdefault.jpg","viewCount":"356","playlistId":"PLEkQk5xrP-tnmTYsyW6xNdyfhPq0Bhrhj","playlistName":"مقرأة الفجر - القُرْآنُ الكَرِيمُ - خَتْمَةُ التَّدَبُّرِ  أ.د. يسري جبر","category":"متنوع"},{"id":"b2B-vIrOoNE","title":"شرح صحيح البخاري كتاب الطلاق من أوله","publishedAt":"2018-06-13T19:14:53Z","duration":"PT32M50S","thumbnail":"https://i.ytimg.com/vi/b2B-vIrOoNE/mqdefault.jpg","viewCount":"908","playlistId":"PLEkQk5xrP-tlEerGoLa1AFy-2XvQ-sovv","playlistName":"شرح صحيح البخاري - أ.د. يسري جبر (كاملا)","category":"حديث"},{"id":"GZ2FSEiy554","title":"مقرأة سورة العنكبوت من آية ٥٣","publishedAt":"2018-06-13T09:09:09Z","duration":"PT13M6S","thumbnail":"https://i.ytimg.com/vi/GZ2FSEiy554/mqdefault.jpg","viewCount":"288","playlistId":"PLEkQk5xrP-tnmTYsyW6xNdyfhPq0Bhrhj","playlistName":"مقرأة الفجر - القُرْآنُ الكَرِيمُ - خَتْمَةُ التَّدَبُّرِ  أ.د. يسري جبر","category":"متنوع"},{"id":"SaetOACGeVw","title":"شرح صحيح البخاري كتاب النكاح من باب ١١٩","publishedAt":"2018-06-12T16:02:48Z","duration":"PT28M21S","thumbnail":"https://i.ytimg.com/vi/SaetOACGeVw/mqdefault.jpg","viewCount":"484","playlistId":"PLEkQk5xrP-tlEerGoLa1AFy-2XvQ-sovv","playlistName":"شرح صحيح البخاري - أ.د. يسري جبر (كاملا)","category":"حديث"},{"id":"OZ6uRIRngak","title":"مقرأة سورة العنكبوت من آية ٥٠","publishedAt":"2018-06-12T10:23:22Z","duration":"PT8M55S","thumbnail":"https://i.ytimg.com/vi/OZ6uRIRngak/mqdefault.jpg","viewCount":"278","playlistId":"PLEkQk5xrP-tnmTYsyW6xNdyfhPq0Bhrhj","playlistName":"مقرأة الفجر - القُرْآنُ الكَرِيمُ - خَتْمَةُ التَّدَبُّرِ  أ.د. يسري جبر","category":"متنوع"},{"id":"el4iI0BkQ8k","title":"شرح صحيح البخاري كتاب النكاح من باب ١١٢","publishedAt":"2018-06-11T15:50:06Z","duration":"PT23M14S","thumbnail":"https://i.ytimg.com/vi/el4iI0BkQ8k/mqdefault.jpg","viewCount":"611","playlistId":"PLEkQk5xrP-tlEerGoLa1AFy-2XvQ-sovv","playlistName":"شرح صحيح البخاري - أ.د. يسري جبر (كاملا)","category":"حديث"},{"id":"yvkvlM1aLuk","title":"مقرأة سورة العنكبوت من آية ٤٦","publishedAt":"2018-06-11T07:24:19Z","duration":"PT23M27S","thumbnail":"https://i.ytimg.com/vi/yvkvlM1aLuk/mqdefault.jpg","viewCount":"247","playlistId":"PLEkQk5xrP-tnmTYsyW6xNdyfhPq0Bhrhj","playlistName":"مقرأة الفجر - القُرْآنُ الكَرِيمُ - خَتْمَةُ التَّدَبُّرِ  أ.د. يسري جبر","category":"متنوع"},{"id":"c10gBnxag_0","title":"شرح صحيح البخاري كتاب النكاح من باب ١٠٧","publishedAt":"2018-06-10T20:04:32Z","duration":"PT27M54S","thumbnail":"https://i.ytimg.com/vi/c10gBnxag_0/mqdefault.jpg","viewCount":"473","playlistId":"PLEkQk5xrP-tlEerGoLa1AFy-2XvQ-sovv","playlistName":"شرح صحيح البخاري - أ.د. يسري جبر (كاملا)","category":"حديث"},{"id":"szV2FMEndgs","title":"6- حديث الإسراء والمعراج بنبينا صلى الله عليه وآله وسلم (المجلس السادس). د. يسري جبر","publishedAt":"2018-06-10T18:29:00Z","duration":"PT32M14S","thumbnail":"https://i.ytimg.com/vi/szV2FMEndgs/mqdefault.jpg","viewCount":"1609","playlistId":"PLEkQk5xrP-tnl7vb7KeAoPd5ZlqKKW8KV","playlistName":"شرح كتاب بهجة النفوس أ.د . يسرى جبر","category":"متنوع"},{"id":"sc5fvYbgFZg","title":"5- حديث الإسراء والمعراج بنبينا صلى الله عليه وآله وسلم (المجلس الخامس).   أ.د. يسري جبر","publishedAt":"2018-06-10T17:21:15Z","duration":"PT22M47S","thumbnail":"https://i.ytimg.com/vi/sc5fvYbgFZg/mqdefault.jpg","viewCount":"1302","playlistId":"PLEkQk5xrP-tnl7vb7KeAoPd5ZlqKKW8KV","playlistName":"شرح كتاب بهجة النفوس أ.د . يسرى جبر","category":"متنوع"}],"total":7670,"page":250,"pageSize":24,"totalPages":320}