{"items":[{"id":"rbcIRODyrqo","title":"210- الناسخ والمنسوخ - شرح الإتقان في علوم القرآن","publishedAt":"2024-02-17T21:58:42Z","duration":"PT33M48S","thumbnail":"https://i.ytimg.com/vi/rbcIRODyrqo/mqdefault.jpg","viewCount":"999","playlistId":"PLEkQk5xrP-tlPw10KGJKagu7zm4Ry2Tge","playlistName":"شرح الإتقان في علوم القرآن","category":"تفسير"},{"id":"CQrXlEsAcq4","title":"78- فوائد الابتلاء - شرح مسند الإمام أحمد رضي الله عنه","publishedAt":"2024-02-17T10:29:49Z","duration":"PT28M21S","thumbnail":"https://i.ytimg.com/vi/CQrXlEsAcq4/mqdefault.jpg","viewCount":"1460","playlistId":"PLEkQk5xrP-tkKprIuGrSdEuBSMsyg5We1","playlistName":"شرح مسند الإمام أحمد بن حنبل","category":"متنوع"},{"id":"0idu-R3wr4I","title":"209- تنبيه : اختلف في آيات هل هي من قبيل المجمل أو لا ؟ - شرح الإتقان في علوم القرآن","publishedAt":"2024-02-15T19:15:54Z","duration":"PT33M23S","thumbnail":"https://i.ytimg.com/vi/0idu-R3wr4I/mqdefault.jpg","viewCount":"872","playlistId":"PLEkQk5xrP-tlPw10KGJKagu7zm4Ry2Tge","playlistName":"شرح الإتقان في علوم القرآن","category":"تفسير"},{"id":"5ChjVje0SRA","title":"77- كيفية الوقاية من السم والسحر - شرح مسند الإمام أحمد رضي الله عنه","publishedAt":"2024-02-15T07:16:58Z","duration":"PT29M52S","thumbnail":"https://i.ytimg.com/vi/5ChjVje0SRA/mqdefault.jpg","viewCount":"2383","playlistId":"PLEkQk5xrP-tkKprIuGrSdEuBSMsyg5We1","playlistName":"شرح مسند الإمام أحمد بن حنبل","category":"متنوع"},{"id":"VySH166-xxU","title":"208- المُجْمَل والمُبَيَّن - شرح الإتقان في علوم القرآن","publishedAt":"2024-02-14T06:36:43Z","duration":"PT33M14S","thumbnail":"https://i.ytimg.com/vi/VySH166-xxU/mqdefault.jpg","viewCount":"881","playlistId":"PLEkQk5xrP-tlPw10KGJKagu7zm4Ry2Tge","playlistName":"شرح الإتقان في علوم القرآن","category":"تفسير"},{"id":"4gcr8Zqoxf4","title":"76- حكم التشاؤم من المرأة والفرس والدار - شرح مسند الإمام أحمد رضي الله عنه","publishedAt":"2024-02-13T06:40:13Z","duration":"PT34M55S","thumbnail":"https://i.ytimg.com/vi/4gcr8Zqoxf4/mqdefault.jpg","viewCount":"1585","playlistId":"PLEkQk5xrP-tkKprIuGrSdEuBSMsyg5We1","playlistName":"شرح مسند الإمام أحمد بن حنبل","category":"متنوع"},{"id":"S7khw6RV_Hg","title":"7- نبذة عن عالم المنامات والتجليات | الفرق بين كلام العلماء والأولياء - شرح مختصر الفتوحات المكية","publishedAt":"2024-02-12T12:33:02Z","duration":"PT1H2M41S","thumbnail":"https://i.ytimg.com/vi/S7khw6RV_Hg/mqdefault.jpg","viewCount":"30672","playlistId":"PLEkQk5xrP-tnpkdZki6rPTtMak1bnI5g-","playlistName":"شرح كتاب مختصر الفتوحات المكية المسمى لواقح الأنوار القدسية","category":"متنوع"},{"id":"uKPv6tO82kk","title":"207- فروع منثورة تتعلق بالعموم والخصوص - شرح الإتقان في علوم القرآن","publishedAt":"2024-02-12T06:30:25Z","duration":"PT22M18S","thumbnail":"https://i.ytimg.com/vi/uKPv6tO82kk/mqdefault.jpg","viewCount":"474","playlistId":"PLEkQk5xrP-tlPw10KGJKagu7zm4Ry2Tge","playlistName":"شرح الإتقان في علوم القرآن","category":"تفسير"},{"id":"eJQhLeiS5eY","title":"ما هي أفضل الأعمال في شهر شعبان؟","publishedAt":"2024-02-11T18:12:36Z","duration":"PT13M54S","thumbnail":"https://i.ytimg.com/vi/eJQhLeiS5eY/mqdefault.jpg","viewCount":"18908","playlistId":"PLEkQk5xrP-tlArtGpeLWaqNM7h7IDeAVC","playlistName":"خطب الجمعة أ.د. يسري جبر","category":"خطب"},{"id":"Mm7Bpk-L1ws","title":"75- أهمية توقير النسب الشريف - شرح مسند الإمام أحمد رضي الله عنه","publishedAt":"2024-02-11T06:30:08Z","duration":"PT33M54S","thumbnail":"https://i.ytimg.com/vi/Mm7Bpk-L1ws/mqdefault.jpg","viewCount":"1587","playlistId":"PLEkQk5xrP-tkKprIuGrSdEuBSMsyg5We1","playlistName":"شرح مسند الإمام أحمد بن حنبل","category":"متنوع"},{"id":"bdDL-Jj4idI","title":"ابني مش بيسمع كلامي ازاى أصاحبه؟","publishedAt":"2024-02-10T18:00:13Z","duration":"PT11M40S","thumbnail":"https://i.ytimg.com/vi/bdDL-Jj4idI/mqdefault.jpg","viewCount":"4988","playlistId":"PLEkQk5xrP-tkGXuZ9atE3k_7it12rUPTs","playlistName":"أسئلة المتابعين","category":"متنوع"},{"id":"FUv9FYWXy0M","title":"31- حكم مَن ضحك في الصلاة - شرح سنن الإمام الدار قطني رضي الله عنه","publishedAt":"2024-02-10T11:34:19Z","duration":"PT35M47S","thumbnail":"https://i.ytimg.com/vi/FUv9FYWXy0M/mqdefault.jpg","viewCount":"946","playlistId":"PLEkQk5xrP-tk_MCBZ706ORCw6gFtFyaGj","playlistName":"شرح سنن الإمام الدارقطني","category":"متنوع"},{"id":"pGRxMsuBC-A","title":"عايزة أتجوز وأهلي مش موافقين ,, أعمل ايه؟ | نصيحة للأهالي","publishedAt":"2024-02-09T18:00:57Z","duration":"PT8M30S","thumbnail":"https://i.ytimg.com/vi/pGRxMsuBC-A/mqdefault.jpg","viewCount":"3808","playlistId":"PLEkQk5xrP-tkGXuZ9atE3k_7it12rUPTs","playlistName":"أسئلة المتابعين","category":"متنوع"},{"id":"BrxVyn4uKL0","title":"شرح منازل السائرين - المجلس (36) باب التفويض | أ.د. يسري جبر","publishedAt":"2024-02-08T18:30:11Z","duration":"PT34M15S","thumbnail":"https://i.ytimg.com/vi/BrxVyn4uKL0/mqdefault.jpg","viewCount":"8794","playlistId":"PLEkQk5xrP-tmiUfQ-2Tsn7QIak4EsvaZW","playlistName":"كتاب التيسير المعين بشرح معاني منازل السائرين (تصوف) - د.يسري جبر","category":"تصوف"},{"id":"VjmQgCw3OUQ","title":"6- لطائف عالم الأرواح وخصائص عالم الأجساد | دليل الانتفاع بالمؤمن حيا وميتا","publishedAt":"2024-02-08T12:05:00Z","duration":"PT1H9M18S","thumbnail":"https://i.ytimg.com/vi/VjmQgCw3OUQ/mqdefault.jpg","viewCount":"26068","playlistId":"PLEkQk5xrP-tnpkdZki6rPTtMak1bnI5g-","playlistName":"شرح كتاب مختصر الفتوحات المكية المسمى لواقح الأنوار القدسية","category":"متنوع"},{"id":"LDiqlhSMjJo","title":"206- أمثلة ما خُصَّ بالقرآن - شرح الإتقان في علوم القرآن","publishedAt":"2024-02-08T06:42:03Z","duration":"PT18M40S","thumbnail":"https://i.ytimg.com/vi/LDiqlhSMjJo/mqdefault.jpg","viewCount":"498","playlistId":"PLEkQk5xrP-tlPw10KGJKagu7zm4Ry2Tge","playlistName":"شرح الإتقان في علوم القرآن","category":"تفسير"},{"id":"T6Bafpkb1ZI","title":"إحياء ليلة الإسراء والمعراج | المدينة المنورة","publishedAt":"2024-02-07T18:30:08Z","duration":"PT39M36S","thumbnail":"https://i.ytimg.com/vi/T6Bafpkb1ZI/mqdefault.jpg","viewCount":"11654","playlistId":"PLEkQk5xrP-tm8ZIu74nTOZN9KJUJu416J","playlistName":"مقاطع مُهمَّة (يُسريَّات) أ.د. يسري جبر","category":"متنوع"},{"id":"qVr7PB2F16s","title":"74- الفرق بين اللحد والشق | النَّبيُّ ﷺ له التصريف في الأحكام - شرح مسند الإمام أحمد رضي الله عنه","publishedAt":"2024-02-07T06:30:16Z","duration":"PT29M21S","thumbnail":"https://i.ytimg.com/vi/qVr7PB2F16s/mqdefault.jpg","viewCount":"954","playlistId":"PLEkQk5xrP-tkKprIuGrSdEuBSMsyg5We1","playlistName":"شرح مسند الإمام أحمد بن حنبل","category":"متنوع"},{"id":"i3D6grkPkaI","title":"205- أنواع العام (ثلاثة) - شرح الإتقان في علوم القرآن","publishedAt":"2024-02-06T07:00:47Z","duration":"PT29M29S","thumbnail":"https://i.ytimg.com/vi/i3D6grkPkaI/mqdefault.jpg","viewCount":"655","playlistId":"PLEkQk5xrP-tlPw10KGJKagu7zm4Ry2Tge","playlistName":"شرح الإتقان في علوم القرآن","category":"تفسير"},{"id":"Jowdyf2w2zc","title":"73-  نُبذة عن سيدنا أبي إسحاق سعد بن أبي وقاص سابع العشرة المبشرين بالجنة رضي اللهُ تعالى عنه","publishedAt":"2024-02-05T21:41:53Z","duration":"PT23M45S","thumbnail":"https://i.ytimg.com/vi/Jowdyf2w2zc/mqdefault.jpg","viewCount":"896","playlistId":"PLEkQk5xrP-tkKprIuGrSdEuBSMsyg5We1","playlistName":"شرح مسند الإمام أحمد بن حنبل","category":"متنوع"},{"id":"j8_ETyb62ME","title":"204- كيف نفرق بين (العام والمطلق) وبين (الخاص والمقيد) - الإتقان في علوم القرآن","publishedAt":"2024-02-05T07:54:34Z","duration":"PT26M58S","thumbnail":"https://i.ytimg.com/vi/j8_ETyb62ME/mqdefault.jpg","viewCount":"959","playlistId":"PLEkQk5xrP-tlPw10KGJKagu7zm4Ry2Tge","playlistName":"شرح الإتقان في علوم القرآن","category":"تفسير"},{"id":"ulF_OgO8-48","title":"72- البلاد بلاد الله والعباد عباد الله فحيثما أصبت خيرا فأقم - شرح مسند الإمام أحمد رضي الله عنه","publishedAt":"2024-02-04T06:30:15Z","duration":"PT20M42S","thumbnail":"https://i.ytimg.com/vi/ulF_OgO8-48/mqdefault.jpg","viewCount":"1837","playlistId":"PLEkQk5xrP-tkKprIuGrSdEuBSMsyg5We1","playlistName":"شرح مسند الإمام أحمد بن حنبل","category":"متنوع"},{"id":"-1pTKb2xR2g","title":"203- النوع 44: في مقدمه ومؤخره (2) القسم الثاني: ما ليس كذلك - شرح الإتقان في علوم القرآن","publishedAt":"2024-02-03T06:30:00Z","duration":"PT32M14S","thumbnail":"https://i.ytimg.com/vi/-1pTKb2xR2g/mqdefault.jpg","viewCount":"708","playlistId":"PLEkQk5xrP-tlPw10KGJKagu7zm4Ry2Tge","playlistName":"شرح الإتقان في علوم القرآن","category":"تفسير"},{"id":"K5ec8O7z40U","title":"71- نبذة عن سيدنا الزبير بن العوام رضي الله عنه سادس العشرة المبشرين بالجنة - شرح مسند الإمام أحمد","publishedAt":"2024-02-02T07:07:22Z","duration":"PT44M27S","thumbnail":"https://i.ytimg.com/vi/K5ec8O7z40U/mqdefault.jpg","viewCount":"1490","playlistId":"PLEkQk5xrP-tkKprIuGrSdEuBSMsyg5We1","playlistName":"شرح مسند الإمام أحمد بن حنبل","category":"متنوع"}],"total":7670,"page":142,"pageSize":24,"totalPages":320}