{"items":[{"id":"zHhhCtiaTQc","title":"يّاإِمَامَ الرُّسْلِ يَاسَنَدِي","publishedAt":"2019-11-12T14:53:50Z","duration":"PT7M42S","thumbnail":"https://i.ytimg.com/vi/zHhhCtiaTQc/mqdefault.jpg","viewCount":"2953","playlistId":"PLEkQk5xrP-tlB8lmbwjAKR8KRgiykGKhb","playlistName":"حضرات يسرية ومدائح نبوية","category":"متنوع"},{"id":"jHOo03Xr3zk","title":"شرح صحيح الإمام البخاري رضي الله تعالى عنه - كتابُِ أَخْبَارِ الآحَادِ  أ.د. يسري جبر","publishedAt":"2019-11-11T19:10:50Z","duration":"PT30M54S","thumbnail":"https://i.ytimg.com/vi/jHOo03Xr3zk/mqdefault.jpg","viewCount":"298","playlistId":"PLEkQk5xrP-tmJuzaj4GWRenFoFx9gdbFX","playlistName":"شرح كتاب صحيح الإمام البخاري رضي الله تعالى عنه   أ.د. يسرى جبر","category":"حديث"},{"id":"d3QbvdzLguc","title":"شرح كتاب دلائل الخيرات - المجلس التاسع أ.د. يسري جبر","publishedAt":"2019-11-11T16:25:48Z","duration":"PT28M3S","thumbnail":"https://i.ytimg.com/vi/d3QbvdzLguc/mqdefault.jpg","viewCount":"17970","playlistId":"PLEkQk5xrP-tlAzcbIpuqjdFICW-knvTlR","playlistName":"شرح كتاب دلائل الخيرات وشوارق الأنوار","category":"متنوع"},{"id":"4xjwfPT8B1U","title":"الصَّلاةُ عَلَى النَّبِيِّ ﷺ ذِكْرٌ.  أ.د. يسري جبر","publishedAt":"2019-11-11T11:57:40Z","duration":"PT1M56S","thumbnail":"https://i.ytimg.com/vi/4xjwfPT8B1U/mqdefault.jpg","viewCount":"11947","playlistId":"PLEkQk5xrP-tm8ZIu74nTOZN9KJUJu416J","playlistName":"مقاطع مُهمَّة (يُسريَّات) أ.د. يسري جبر","category":"متنوع"},{"id":"4a2wxwowhDg","title":"شرح سنن الدارمي كتاب الوصايا من باب ٣٨","publishedAt":"2019-11-11T09:45:04Z","duration":"PT35M33S","thumbnail":"https://i.ytimg.com/vi/4a2wxwowhDg/mqdefault.jpg","viewCount":"264","playlistId":"PLEkQk5xrP-tmAg-FuWjY057X_h5NmGmAa","playlistName":"شرح سنن الدارمي - أ.د. يسري جبر (كاملا)","category":"متنوع"},{"id":"dEnzTJIuS5Q","title":"برحمتك نستغيث","publishedAt":"2019-11-10T10:48:52Z","duration":"PT2M19S","thumbnail":"https://i.ytimg.com/vi/dEnzTJIuS5Q/mqdefault.jpg","viewCount":"2717","playlistId":"PLEkQk5xrP-tm8ZIu74nTOZN9KJUJu416J","playlistName":"مقاطع مُهمَّة (يُسريَّات) أ.د. يسري جبر","category":"متنوع"},{"id":"Y2FURtG0sJM","title":"الرسالة القشيرية - المجلس (69) بَابُ الإِرَادَةِ. أ.د. يسري جبر","publishedAt":"2019-11-08T08:37:43Z","duration":"PT55M20S","thumbnail":"https://i.ytimg.com/vi/Y2FURtG0sJM/mqdefault.jpg","viewCount":"6699","playlistId":"PLEkQk5xrP-tkHAGOwIKr4pc5ehhyQ5HMJ","playlistName":"كتاب الرسالة القشيرية (تصوف) - د. يسري جبر","category":"تصوف"},{"id":"0zg8j2hMgEw","title":"شرح البرهان في علوم القرآن - النوع ١٤ - فصل أتصاف القرآن ثمانية ٢","publishedAt":"2019-11-07T22:16:04Z","duration":"PT22M32S","thumbnail":"https://i.ytimg.com/vi/0zg8j2hMgEw/mqdefault.jpg","viewCount":"529","playlistId":"PLEkQk5xrP-tnW3iBL7HkKziOFCFZbTlf0","playlistName":"شرح البرهان في علوم القرآن - أ.د. يسري جبر","category":"تفسير"},{"id":"U9H6xo_O9r4","title":"شرح سنن الدارمي كتاب الوصايا من باب ٢٨","publishedAt":"2019-11-07T12:27:52Z","duration":"PT41M36S","thumbnail":"https://i.ytimg.com/vi/U9H6xo_O9r4/mqdefault.jpg","viewCount":"289","playlistId":"PLEkQk5xrP-tmAg-FuWjY057X_h5NmGmAa","playlistName":"شرح سنن الدارمي - أ.د. يسري جبر (كاملا)","category":"متنوع"},{"id":"7SaTTt3j7xE","title":"النجاةُ من الفتنِ هِي حبُّ النَّبِيِّ صلَّى اللهُ عليه وآله وسلَّم أ.د. يسري جبر","publishedAt":"2019-11-06T19:51:17Z","duration":"PT3M7S","thumbnail":"https://i.ytimg.com/vi/7SaTTt3j7xE/mqdefault.jpg","viewCount":"7015","playlistId":"PLEkQk5xrP-tm8ZIu74nTOZN9KJUJu416J","playlistName":"مقاطع مُهمَّة (يُسريَّات) أ.د. يسري جبر","category":"متنوع"},{"id":"s7to7tJ4U3g","title":"شرح مسند الإمام محمد بن إدريس الشافعيّ رضي الله تعالى عنه - المجلس الثاني  أ.د. يسري جبر","publishedAt":"2019-11-06T13:46:27Z","duration":"PT53M13S","thumbnail":"https://i.ytimg.com/vi/s7to7tJ4U3g/mqdefault.jpg","viewCount":"2066","playlistId":"PLEkQk5xrP-tlDtaqY0qhNXAiZ19gaGzKI","playlistName":"شرح مسند الإمام محمد بن إدريس الشافعيّ رضي الله تعالى عنه","category":"فقه"},{"id":"2igd6_jKtAc","title":"شرح البرهان في علوم القرآن - النوع ١٤ - فصل أتصاف القرآن ثمانية","publishedAt":"2019-11-06T11:23:14Z","duration":"PT19M28S","thumbnail":"https://i.ytimg.com/vi/2igd6_jKtAc/mqdefault.jpg","viewCount":"568","playlistId":"PLEkQk5xrP-tnW3iBL7HkKziOFCFZbTlf0","playlistName":"شرح البرهان في علوم القرآن - أ.د. يسري جبر","category":"تفسير"},{"id":"qEbf535WF9Y","title":"تعليقات حول مناسك الحج","publishedAt":"2019-11-05T14:10:50Z","duration":"PT45M28S","thumbnail":"https://i.ytimg.com/vi/qEbf535WF9Y/mqdefault.jpg","viewCount":"433","playlistId":"PLEkQk5xrP-tlArtGpeLWaqNM7h7IDeAVC","playlistName":"خطب الجمعة أ.د. يسري جبر","category":"خطب"},{"id":"oEW-hcjOOAs","title":"شرح سنن الدارمي كتاب الوصايا من باب ١٥","publishedAt":"2019-11-05T07:27:11Z","duration":"PT35M29S","thumbnail":"https://i.ytimg.com/vi/oEW-hcjOOAs/mqdefault.jpg","viewCount":"260","playlistId":"PLEkQk5xrP-tmAg-FuWjY057X_h5NmGmAa","playlistName":"شرح سنن الدارمي - أ.د. يسري جبر (كاملا)","category":"متنوع"},{"id":"i8I_f0Gw0Ik","title":"العلم قبل العمل  د. يسري جبر","publishedAt":"2016-08-20T20:06:44Z","duration":"PT39M31S","thumbnail":"https://i.ytimg.com/vi/i8I_f0Gw0Ik/mqdefault.jpg","viewCount":"1061","playlistId":"PLEkQk5xrP-tlArtGpeLWaqNM7h7IDeAVC","playlistName":"خطب الجمعة أ.د. يسري جبر","category":"خطب"},{"id":"6dWH6zFxH2Q","title":"صحيح الإمام البخاري رضي الله عنه - كتاب الطب المجلس الخامس د. يسري جبر","publishedAt":"2016-08-20T18:50:22Z","duration":"PT44M37S","thumbnail":"https://i.ytimg.com/vi/6dWH6zFxH2Q/mqdefault.jpg","viewCount":"148","playlistId":"PLEkQk5xrP-tmJuzaj4GWRenFoFx9gdbFX","playlistName":"شرح كتاب صحيح الإمام البخاري رضي الله تعالى عنه   أ.د. يسرى جبر","category":"حديث"},{"id":"hUwcQW_IxvQ","title":"شرح صحيح البخاري ( كتاب العلم مجلس ٥ )","publishedAt":"2016-08-20T07:28:44Z","duration":"PT36M5S","thumbnail":"https://i.ytimg.com/vi/hUwcQW_IxvQ/mqdefault.jpg","viewCount":"2390","playlistId":"PLEkQk5xrP-tlEerGoLa1AFy-2XvQ-sovv","playlistName":"شرح صحيح البخاري - أ.د. يسري جبر (كاملا)","category":"حديث"},{"id":"VRJoiZYLxRc","title":"صحيح الإمام البخاري رضي الله عنه - كتاب الطب المجلس الرابع د. يسري جبر","publishedAt":"2016-08-20T07:17:43Z","duration":"PT1H13M33S","thumbnail":"https://i.ytimg.com/vi/VRJoiZYLxRc/mqdefault.jpg","viewCount":"83","playlistId":"PLEkQk5xrP-tmJuzaj4GWRenFoFx9gdbFX","playlistName":"شرح كتاب صحيح الإمام البخاري رضي الله تعالى عنه   أ.د. يسرى جبر","category":"حديث"},{"id":"0qg9itl3xTs","title":"سورة النساء آية 32","publishedAt":"2016-08-20T06:28:12Z","duration":"PT24M6S","thumbnail":"https://i.ytimg.com/vi/0qg9itl3xTs/mqdefault.jpg","viewCount":"580","playlistId":"PLEkQk5xrP-tnmTYsyW6xNdyfhPq0Bhrhj","playlistName":"مقرأة الفجر - القُرْآنُ الكَرِيمُ - خَتْمَةُ التَّدَبُّرِ  أ.د. يسري جبر","category":"متنوع"},{"id":"zN8iLmR8j8g","title":"صحيح الإمام البخاري رضي الله عنه - كتاب الطب المجلس الثالث د. يسري جبر","publishedAt":"2016-08-19T19:39:09Z","duration":"PT53M4S","thumbnail":"https://i.ytimg.com/vi/zN8iLmR8j8g/mqdefault.jpg","viewCount":"118","playlistId":"PLEkQk5xrP-tmJuzaj4GWRenFoFx9gdbFX","playlistName":"شرح كتاب صحيح الإمام البخاري رضي الله تعالى عنه   أ.د. يسرى جبر","category":"حديث"},{"id":"XqdyHLOeLBE","title":"شرح صحيح البخاري ( كتاب العلم مجلس ٤ )","publishedAt":"2016-08-19T16:26:40Z","duration":"PT35M12S","thumbnail":"https://i.ytimg.com/vi/XqdyHLOeLBE/mqdefault.jpg","viewCount":"2494","playlistId":"PLEkQk5xrP-tlEerGoLa1AFy-2XvQ-sovv","playlistName":"شرح صحيح البخاري - أ.د. يسري جبر (كاملا)","category":"حديث"},{"id":"LlxH1Z-qUzE","title":"سورة النساء آية 29","publishedAt":"2016-08-19T15:29:07Z","duration":"PT18M40S","thumbnail":"https://i.ytimg.com/vi/LlxH1Z-qUzE/mqdefault.jpg","viewCount":"508","playlistId":"PLEkQk5xrP-tnmTYsyW6xNdyfhPq0Bhrhj","playlistName":"مقرأة الفجر - القُرْآنُ الكَرِيمُ - خَتْمَةُ التَّدَبُّرِ  أ.د. يسري جبر","category":"متنوع"},{"id":"rZLNut4EHS0","title":"شرح صحيح البخاري ( كتاب العلم مجلس ٣ )","publishedAt":"2016-08-18T08:07:07Z","duration":"PT34M35S","thumbnail":"https://i.ytimg.com/vi/rZLNut4EHS0/mqdefault.jpg","viewCount":"2464","playlistId":"PLEkQk5xrP-tlEerGoLa1AFy-2XvQ-sovv","playlistName":"شرح صحيح البخاري - أ.د. يسري جبر (كاملا)","category":"حديث"},{"id":"zfREUOXGE80","title":"سورة النساء آية 25","publishedAt":"2016-08-18T07:14:16Z","duration":"PT26M14S","thumbnail":"https://i.ytimg.com/vi/zfREUOXGE80/mqdefault.jpg","viewCount":"546","playlistId":"PLEkQk5xrP-tnmTYsyW6xNdyfhPq0Bhrhj","playlistName":"مقرأة الفجر - القُرْآنُ الكَرِيمُ - خَتْمَةُ التَّدَبُّرِ  أ.د. يسري جبر","category":"متنوع"}],"total":7670,"page":249,"pageSize":24,"totalPages":320}