{"items":[{"id":"XYphWHvHBvs","title":"224- جوازُ الأخْذِ من غير مَسْألةٍ ولا تطلُّع إليه - شرح دليل الفالحين","publishedAt":"2022-03-31T07:00:52Z","duration":"PT50M34S","thumbnail":"https://i.ytimg.com/vi/XYphWHvHBvs/mqdefault.jpg","viewCount":"1201","playlistId":"PLEkQk5xrP-tkc9DXvSLguqX5-FYp6ASR4","playlistName":"دليل الفالحين لطرق رياض الصالحين","category":"متنوع"},{"id":"JL9-4IEihyY","title":"أول خطوة لاستقبال شهر رمضان","publishedAt":"2022-03-30T18:47:19Z","duration":"PT18M15S","thumbnail":"https://i.ytimg.com/vi/JL9-4IEihyY/mqdefault.jpg","viewCount":"9860","playlistId":"PLEkQk5xrP-tlArtGpeLWaqNM7h7IDeAVC","playlistName":"خطب الجمعة أ.د. يسري جبر","category":"خطب"},{"id":"Shjg0phEPIA","title":"223- أهمية حُسنِ المُعامَلَةِ، وحُسنِ الطَّلبِ بعزَّةِ نَفْسٍ في الأُمور كلِّها - شرح دليل الفالحين","publishedAt":"2022-03-30T07:37:45Z","duration":"PT28M52S","thumbnail":"https://i.ytimg.com/vi/Shjg0phEPIA/mqdefault.jpg","viewCount":"1576","playlistId":"PLEkQk5xrP-tkc9DXvSLguqX5-FYp6ASR4","playlistName":"دليل الفالحين لطرق رياض الصالحين","category":"متنوع"},{"id":"4r9QReW8aBY","title":"222- حُكمُ مَا أُخِذَ بسَيفِ الحَيَاء - شرح دليل الفالحين","publishedAt":"2022-03-29T20:57:35Z","duration":"PT1H11M58S","thumbnail":"https://i.ytimg.com/vi/4r9QReW8aBY/mqdefault.jpg","viewCount":"1542","playlistId":"PLEkQk5xrP-tkc9DXvSLguqX5-FYp6ASR4","playlistName":"دليل الفالحين لطرق رياض الصالحين","category":"متنوع"},{"id":"9Wc-N5_6zRU","title":"487- قاعدة في الضمائر (قد يُذكر شيئان ويُعاد الضمير على أحدهما) - شرح البرهان في علوم القرآن","publishedAt":"2022-03-29T06:41:41Z","duration":"PT13M51S","thumbnail":"https://i.ytimg.com/vi/9Wc-N5_6zRU/mqdefault.jpg","viewCount":"508","playlistId":"PLEkQk5xrP-tnW3iBL7HkKziOFCFZbTlf0","playlistName":"شرح البرهان في علوم القرآن - أ.د. يسري جبر","category":"تفسير"},{"id":"qqO56X3lL2s","title":"كيف تجمع الناس وهم متفرقون؟","publishedAt":"2022-03-28T18:00:17Z","duration":"PT15M51S","thumbnail":"https://i.ytimg.com/vi/qqO56X3lL2s/mqdefault.jpg","viewCount":"3787","playlistId":"PLEkQk5xrP-tlArtGpeLWaqNM7h7IDeAVC","playlistName":"خطب الجمعة أ.د. يسري جبر","category":"خطب"},{"id":"OSGj5u05cP0","title":"486- قاعدة في الضمائر (ألَّا يعود على مذكور، ولا معلوم بالسياق، أو غيره)- شرح البرهان في علوم القرآن","publishedAt":"2022-03-28T06:12:24Z","duration":"PT6M34S","thumbnail":"https://i.ytimg.com/vi/OSGj5u05cP0/mqdefault.jpg","viewCount":"578","playlistId":"PLEkQk5xrP-tnW3iBL7HkKziOFCFZbTlf0","playlistName":"شرح البرهان في علوم القرآن - أ.د. يسري جبر","category":"تفسير"},{"id":"IvdHEYZx_mg","title":"485- قاعدة في الضمائر (أن يدل عليه بالالتزام) - شرح البرهان في علوم القرآن","publishedAt":"2022-03-27T21:41:24Z","duration":"PT20M41S","thumbnail":"https://i.ytimg.com/vi/IvdHEYZx_mg/mqdefault.jpg","viewCount":"517","playlistId":"PLEkQk5xrP-tnW3iBL7HkKziOFCFZbTlf0","playlistName":"شرح البرهان في علوم القرآن - أ.د. يسري جبر","category":"تفسير"},{"id":"LkYSwnPt1IE","title":"42- حَجْرُ السَّفِيهِ والمُفْلِس","publishedAt":"2022-03-27T05:54:17Z","duration":"PT47M3S","thumbnail":"https://i.ytimg.com/vi/LkYSwnPt1IE/mqdefault.jpg","viewCount":"2089","playlistId":"PLEkQk5xrP-tkXuPs-0sXfWQDWzBKmcjWN","playlistName":"\"فتح القريب المجيب في شرح ألفاظ التقريب\"( فقه شافعيّ)  أ. د. يسري جبر","category":"فقه"},{"id":"pHGhJjbTm-M","title":"484- قاعدةٌ في الضمائر وأسباب استعمالها - شرح البرهان في علوم القرآن","publishedAt":"2022-03-26T19:52:05Z","duration":"PT14M4S","thumbnail":"https://i.ytimg.com/vi/pHGhJjbTm-M/mqdefault.jpg","viewCount":"651","playlistId":"PLEkQk5xrP-tnW3iBL7HkKziOFCFZbTlf0","playlistName":"شرح البرهان في علوم القرآن - أ.د. يسري جبر","category":"تفسير"},{"id":"oxNQXVy4ZEo","title":"483- قاعدةٌ نَحَويَّة: نون الجَمْع - شرح البرهان في علوم القرآن","publishedAt":"2022-03-26T05:13:42Z","duration":"PT9M43S","thumbnail":"https://i.ytimg.com/vi/oxNQXVy4ZEo/mqdefault.jpg","viewCount":"536","playlistId":"PLEkQk5xrP-tnW3iBL7HkKziOFCFZbTlf0","playlistName":"شرح البرهان في علوم القرآن - أ.د. يسري جبر","category":"تفسير"},{"id":"AT8HX3INHKQ","title":"221- اليَدُ العُلْيَا خَيْرٌ مِنَ اليَدِ السُّفْلَى، وابْدَأْ بمَن تَعُولُ - شرح دليل الفالحين","publishedAt":"2022-03-25T20:44:54Z","duration":"PT37M14S","thumbnail":"https://i.ytimg.com/vi/AT8HX3INHKQ/mqdefault.jpg","viewCount":"1484","playlistId":"PLEkQk5xrP-tkc9DXvSLguqX5-FYp6ASR4","playlistName":"دليل الفالحين لطرق رياض الصالحين","category":"متنوع"},{"id":"D4zpPmTtucA","title":"482- أكواب وأباريق | كأس ما الفرق بينهما؟ - شرح البرهان في علوم القرآن","publishedAt":"2022-03-25T05:57:57Z","duration":"PT30M29S","thumbnail":"https://i.ytimg.com/vi/D4zpPmTtucA/mqdefault.jpg","viewCount":"1157","playlistId":"PLEkQk5xrP-tnW3iBL7HkKziOFCFZbTlf0","playlistName":"شرح البرهان في علوم القرآن - أ.د. يسري جبر","category":"تفسير"},{"id":"awXcOjBhuBM","title":"220- قَدْ أفْلَحَ مَن أَسْلَمَ، ورُزِقَ كَفَافًا، وقَنَّعَهُ اللَّهُ بما آتَاهُ - شرح دليل الفالحين","publishedAt":"2022-03-24T21:54:53Z","duration":"PT35M49S","thumbnail":"https://i.ytimg.com/vi/awXcOjBhuBM/mqdefault.jpg","viewCount":"1537","playlistId":"PLEkQk5xrP-tkc9DXvSLguqX5-FYp6ASR4","playlistName":"دليل الفالحين لطرق رياض الصالحين","category":"متنوع"},{"id":"tfPf3HH5jiQ","title":"219- لَيسَ الغِنَى عن كَثْرةِ العَرَضِ ولَكِنَّ الغِنَى غِنَى النَّفْسِ - شرح دليل الفالحين","publishedAt":"2022-03-24T07:36:06Z","duration":"PT39M51S","thumbnail":"https://i.ytimg.com/vi/tfPf3HH5jiQ/mqdefault.jpg","viewCount":"3117","playlistId":"PLEkQk5xrP-tkc9DXvSLguqX5-FYp6ASR4","playlistName":"دليل الفالحين لطرق رياض الصالحين","category":"متنوع"},{"id":"sqvJcmi5DLI","title":"تفسير قوله تعالى\"يَا بُنَيَّ إِنَّهَا إِن تَكُ مِثْقَالَ حَبَّةٍ مِّنْ خَرْدَل\"","publishedAt":"2022-03-23T18:44:26Z","duration":"PT9M46S","thumbnail":"https://i.ytimg.com/vi/sqvJcmi5DLI/mqdefault.jpg","viewCount":"2211","playlistId":"PLEkQk5xrP-tkSGrPLMt1BEmJ54cGWYgtp","playlistName":"كتابُ بِدَعِ التَفَاسِيرِ - أ.د. يسري جبر","category":"متنوع"},{"id":"QkRs5opMBeI","title":"481- الأبرار | البَرَرَة ما الفرقُ بينهما؟ - شرح البرهان في علوم القرآن","publishedAt":"2022-03-23T07:28:32Z","duration":"PT13M21S","thumbnail":"https://i.ytimg.com/vi/QkRs5opMBeI/mqdefault.jpg","viewCount":"1182","playlistId":"PLEkQk5xrP-tnW3iBL7HkKziOFCFZbTlf0","playlistName":"شرح البرهان في علوم القرآن - أ.د. يسري جبر","category":"تفسير"},{"id":"D9t5xlKfS_s","title":"متى حصلت نقطة التحول في حياتك؟","publishedAt":"2022-03-22T18:00:34Z","duration":"PT8M12S","thumbnail":"https://i.ytimg.com/vi/D9t5xlKfS_s/mqdefault.jpg","viewCount":"42374","playlistId":"PLEkQk5xrP-tl6tFiMFGUucCTvLgnWyAfz","playlistName":"حياة الأستاذ الدكتور يسري جبر","category":"متنوع"},{"id":"T9a0VBkeysg","title":"41- أحكامُ الرَّهْن","publishedAt":"2022-03-22T07:21:51Z","duration":"PT53M52S","thumbnail":"https://i.ytimg.com/vi/T9a0VBkeysg/mqdefault.jpg","viewCount":"1099","playlistId":"PLEkQk5xrP-tkXuPs-0sXfWQDWzBKmcjWN","playlistName":"\"فتح القريب المجيب في شرح ألفاظ التقريب\"( فقه شافعيّ)  أ. د. يسري جبر","category":"فقه"},{"id":"L0nD824YrEE","title":"كيف تطلب حاجتك من الله؟","publishedAt":"2022-03-21T17:44:15Z","duration":"PT8M4S","thumbnail":"https://i.ytimg.com/vi/L0nD824YrEE/mqdefault.jpg","viewCount":"11995","playlistId":"PLEkQk5xrP-tm8ZIu74nTOZN9KJUJu416J","playlistName":"مقاطع مُهمَّة (يُسريَّات) أ.د. يسري جبر","category":"متنوع"},{"id":"azFYWRb7YxM","title":"43- دِيَةُ الجَنينِ الذي سَقَطَ ميتًا","publishedAt":"2022-03-21T06:36:38Z","duration":"PT44M10S","thumbnail":"https://i.ytimg.com/vi/azFYWRb7YxM/mqdefault.jpg","viewCount":"1159","playlistId":"PLEkQk5xrP-tlDtaqY0qhNXAiZ19gaGzKI","playlistName":"شرح مسند الإمام محمد بن إدريس الشافعيّ رضي الله تعالى عنه","category":"فقه"},{"id":"R6GDrSjlYKo","title":"الرسالة القشيرية - المجلس (116) بَابُ كرامات الأولياء ۹ والأخير | أ.د. يسري جبر","publishedAt":"2022-03-20T17:00:29Z","duration":"PT51M16S","thumbnail":"https://i.ytimg.com/vi/R6GDrSjlYKo/mqdefault.jpg","viewCount":"27212","playlistId":"PLEkQk5xrP-tkHAGOwIKr4pc5ehhyQ5HMJ","playlistName":"كتاب الرسالة القشيرية (تصوف) - د. يسري جبر","category":"تصوف"},{"id":"YYs26aamPAU","title":"480- مجيءُ المَشرِق والمغرب في القرآن(بالجمع-التثنية-الإفراد) فما الفرق؟ شرح البرهان في علوم القرآن","publishedAt":"2022-03-20T06:30:14Z","duration":"PT24M19S","thumbnail":"https://i.ytimg.com/vi/YYs26aamPAU/mqdefault.jpg","viewCount":"932","playlistId":"PLEkQk5xrP-tnW3iBL7HkKziOFCFZbTlf0","playlistName":"شرح البرهان في علوم القرآن - أ.د. يسري جبر","category":"تفسير"},{"id":"jXDlHtqHlWM","title":"هل الدعاء يغير القدر؟","publishedAt":"2022-03-19T19:16:37Z","duration":"PT9M10S","thumbnail":"https://i.ytimg.com/vi/jXDlHtqHlWM/mqdefault.jpg","viewCount":"11317","playlistId":"PLEkQk5xrP-tkGXuZ9atE3k_7it12rUPTs","playlistName":"أسئلة المتابعين","category":"متنوع"}],"total":7675,"page":95,"pageSize":24,"totalPages":320}