{"items":[{"id":"H-YlEnWHclk","title":"مقرأة سورة التغابن من آية ٣","publishedAt":"2019-04-17T21:54:29Z","duration":"PT15M56S","thumbnail":"https://i.ytimg.com/vi/H-YlEnWHclk/mqdefault.jpg","viewCount":"410","playlistId":"PLEkQk5xrP-tnmTYsyW6xNdyfhPq0Bhrhj","playlistName":"مقرأة الفجر - القُرْآنُ الكَرِيمُ - خَتْمَةُ التَّدَبُّرِ  أ.د. يسري جبر","category":"متنوع"},{"id":"OQGgCevvwao","title":"شرح سنن الدارمي كتاب الطهارة من باب ٩٨","publishedAt":"2019-04-17T09:24:37Z","duration":"PT35M22S","thumbnail":"https://i.ytimg.com/vi/OQGgCevvwao/mqdefault.jpg","viewCount":"375","playlistId":"PLEkQk5xrP-tmAg-FuWjY057X_h5NmGmAa","playlistName":"شرح سنن الدارمي - أ.د. يسري جبر (كاملا)","category":"متنوع"},{"id":"g4xNmOT9t8Y","title":"مقرأة سورة التغابن من آية ٢","publishedAt":"2019-04-16T12:14:49Z","duration":"PT18M51S","thumbnail":"https://i.ytimg.com/vi/g4xNmOT9t8Y/mqdefault.jpg","viewCount":"439","playlistId":"PLEkQk5xrP-tnmTYsyW6xNdyfhPq0Bhrhj","playlistName":"مقرأة الفجر - القُرْآنُ الكَرِيمُ - خَتْمَةُ التَّدَبُّرِ  أ.د. يسري جبر","category":"متنوع"},{"id":"hJb0bTUJIbI","title":"شرح سنن الدارمي كتاب الطهارة من باب ٩٧","publishedAt":"2019-04-15T22:15:56Z","duration":"PT40M16S","thumbnail":"https://i.ytimg.com/vi/hJb0bTUJIbI/mqdefault.jpg","viewCount":"371","playlistId":"PLEkQk5xrP-tmAg-FuWjY057X_h5NmGmAa","playlistName":"شرح سنن الدارمي - أ.د. يسري جبر (كاملا)","category":"متنوع"},{"id":"HTw6em2Bulk","title":"هل فوائد البنوك حلال؟","publishedAt":"2022-10-10T19:00:06Z","duration":"PT9M47S","thumbnail":"https://i.ytimg.com/vi/HTw6em2Bulk/mqdefault.jpg","viewCount":"16509","playlistId":"PLEkQk5xrP-tm8ZIu74nTOZN9KJUJu416J","playlistName":"مقاطع مُهمَّة (يُسريَّات) أ.د. يسري جبر","category":"متنوع"},{"id":"7yO_K44eiTA","title":"53- نضَّرَ اللَّهُ عبدًا سمِعَ مَقالَتي، فحفِظَها ووَعاها وأدَّاها…","publishedAt":"2022-10-10T07:30:00Z","duration":"PT59M13S","thumbnail":"https://i.ytimg.com/vi/7yO_K44eiTA/mqdefault.jpg","viewCount":"1561","playlistId":"PLEkQk5xrP-tlDtaqY0qhNXAiZ19gaGzKI","playlistName":"شرح مسند الإمام محمد بن إدريس الشافعيّ رضي الله تعالى عنه","category":"فقه"},{"id":"yhTGNQ1Y6uA","title":"566- حروف المعاني(27): الحرف(26) (بلى) - شرح البرهان في علوم القرآن","publishedAt":"2022-10-10T05:20:00Z","duration":"PT24M21S","thumbnail":"https://i.ytimg.com/vi/yhTGNQ1Y6uA/mqdefault.jpg","viewCount":"562","playlistId":"PLEkQk5xrP-tnW3iBL7HkKziOFCFZbTlf0","playlistName":"شرح البرهان في علوم القرآن - أ.د. يسري جبر","category":"تفسير"},{"id":"8_a7ihX0260","title":"616- قوله تعالى\"قُل لَّوْ كَانَ الْبَحْرُ مِدَادًا لِّكَلِمَاتِ رَبِّي\"","publishedAt":"2022-10-09T05:15:00Z","duration":"PT45M30S","thumbnail":"https://i.ytimg.com/vi/8_a7ihX0260/mqdefault.jpg","viewCount":"1933","playlistId":"PLEkQk5xrP-tmJuzaj4GWRenFoFx9gdbFX","playlistName":"شرح كتاب صحيح الإمام البخاري رضي الله تعالى عنه   أ.د. يسرى جبر","category":"حديث"},{"id":"cv27dIwEdyI","title":"شرح صحيح البخاري كتاب الأدب من باب ١٩","publishedAt":"2018-08-28T16:47:53Z","duration":"PT39M48S","thumbnail":"https://i.ytimg.com/vi/cv27dIwEdyI/mqdefault.jpg","viewCount":"802","playlistId":"PLEkQk5xrP-tlEerGoLa1AFy-2XvQ-sovv","playlistName":"شرح صحيح البخاري - أ.د. يسري جبر (كاملا)","category":"حديث"},{"id":"YKcj3K2aaug","title":"مقرأة سورة فاطر من آية ٣٩","publishedAt":"2018-08-28T07:52:23Z","duration":"PT14M45S","thumbnail":"https://i.ytimg.com/vi/YKcj3K2aaug/mqdefault.jpg","viewCount":"203","playlistId":"PLEkQk5xrP-tnmTYsyW6xNdyfhPq0Bhrhj","playlistName":"مقرأة الفجر - القُرْآنُ الكَرِيمُ - خَتْمَةُ التَّدَبُّرِ  أ.د. يسري جبر","category":"متنوع"},{"id":"PINz53yx2ZI","title":"شرح صحيح البخاري كتاب الأدب من باب ١٢","publishedAt":"2018-08-27T20:46:01Z","duration":"PT32M7S","thumbnail":"https://i.ytimg.com/vi/PINz53yx2ZI/mqdefault.jpg","viewCount":"674","playlistId":"PLEkQk5xrP-tlEerGoLa1AFy-2XvQ-sovv","playlistName":"شرح صحيح البخاري - أ.د. يسري جبر (كاملا)","category":"حديث"},{"id":"d59ySTT9NFA","title":"الحزب الكبير \"حزب البر\" لسيدي أبي الحسن الشاذلي رضي الله تعالى عنه  د. يسري جبر","publishedAt":"2018-08-27T20:30:43Z","duration":"PT21M33S","thumbnail":"https://i.ytimg.com/vi/d59ySTT9NFA/mqdefault.jpg","viewCount":"17653","playlistId":"PLEkQk5xrP-tk3OeVFoMfKhOhyINnlPeYZ","playlistName":"الحَضْرَةُ الصِّدِّيقِيَّة والأوْرَاد","category":"متنوع"},{"id":"qMpT7hziZoY","title":"مجموعة صلوات مختارة على النبي صلى الله عليه وآله وسلم  د. يسري جبر","publishedAt":"2018-08-27T20:03:03Z","duration":"PT9M48S","thumbnail":"https://i.ytimg.com/vi/qMpT7hziZoY/mqdefault.jpg","viewCount":"1631","playlistId":"PLEkQk5xrP-tk3OeVFoMfKhOhyINnlPeYZ","playlistName":"الحَضْرَةُ الصِّدِّيقِيَّة والأوْرَاد","category":"متنوع"},{"id":"KIJqaOx3JX0","title":"منظومة أسماء الله الحسنى لسيدي أحمد الدردير رضي الله تعالى عنه  د. يسري جبر","publishedAt":"2018-08-27T20:02:11Z","duration":"PT15M20S","thumbnail":"https://i.ytimg.com/vi/KIJqaOx3JX0/mqdefault.jpg","viewCount":"20056","playlistId":"PLEkQk5xrP-tk3OeVFoMfKhOhyINnlPeYZ","playlistName":"الحَضْرَةُ الصِّدِّيقِيَّة والأوْرَاد","category":"متنوع"},{"id":"6eVFQw3frnI","title":"مُشَاكَلَةُ اللَّفْظِ لِلْمَعْنَى (3) - شرح البرهان في علوم القرآن","publishedAt":"2021-12-31T07:02:38Z","duration":"PT14M","thumbnail":"https://i.ytimg.com/vi/6eVFQw3frnI/mqdefault.jpg","viewCount":"383","playlistId":"PLEkQk5xrP-tnW3iBL7HkKziOFCFZbTlf0","playlistName":"شرح البرهان في علوم القرآن - أ.د. يسري جبر","category":"تفسير"},{"id":"aQSzUPpgBUU","title":"الرسالة القشيرية - المجلس (105) بَابُ السماع ٢ | أ.د. يسري جبر","publishedAt":"2021-12-30T19:17:40Z","duration":"PT51M14S","thumbnail":"https://i.ytimg.com/vi/aQSzUPpgBUU/mqdefault.jpg","viewCount":"4420","playlistId":"PLEkQk5xrP-tkHAGOwIKr4pc5ehhyQ5HMJ","playlistName":"كتاب الرسالة القشيرية (تصوف) - د. يسري جبر","category":"تصوف"},{"id":"KtkBOn0IT4A","title":"28- \"…لَا تَقْتُلُوا الصَّيْدَ وَأَنتُمْ حُرُمٌ…\" - الحديث (649) كتاب المناسك","publishedAt":"2021-12-30T07:10:51Z","duration":"PT57M13S","thumbnail":"https://i.ytimg.com/vi/KtkBOn0IT4A/mqdefault.jpg","viewCount":"823","playlistId":"PLEkQk5xrP-tlDtaqY0qhNXAiZ19gaGzKI","playlistName":"شرح مسند الإمام محمد بن إدريس الشافعيّ رضي الله تعالى عنه","category":"فقه"},{"id":"qLj8_AGU5NQ","title":"176- \"يُؤْتَى بجَهَنَّمَ يَومَئذٍ لها سَبْعُونَ ألْفَ زِِمَامٍ…\" - شرح دليل الفالحين","publishedAt":"2021-12-29T20:24:02Z","duration":"PT23M41S","thumbnail":"https://i.ytimg.com/vi/qLj8_AGU5NQ/mqdefault.jpg","viewCount":"1191","playlistId":"PLEkQk5xrP-tkc9DXvSLguqX5-FYp6ASR4","playlistName":"دليل الفالحين لطرق رياض الصالحين","category":"متنوع"},{"id":"eCDQ1gymOnU","title":"مُشَاكَلَةُ اللَّفْظِ لِلْمَعْنَى (2) - شرح البرهان في علوم القرآن","publishedAt":"2021-12-29T07:00:50Z","duration":"PT43M","thumbnail":"https://i.ytimg.com/vi/eCDQ1gymOnU/mqdefault.jpg","viewCount":"1337","playlistId":"PLEkQk5xrP-tnW3iBL7HkKziOFCFZbTlf0","playlistName":"شرح البرهان في علوم القرآن - أ.د. يسري جبر","category":"تفسير"},{"id":"XjXsSnRzhF8","title":"27- المسح على الرُّكْنِ اليَمَانِي والحَجَر - الحديث (614) كتاب المناسك","publishedAt":"2021-12-28T07:03:50Z","duration":"PT52M18S","thumbnail":"https://i.ytimg.com/vi/XjXsSnRzhF8/mqdefault.jpg","viewCount":"1483","playlistId":"PLEkQk5xrP-tlDtaqY0qhNXAiZ19gaGzKI","playlistName":"شرح مسند الإمام محمد بن إدريس الشافعيّ رضي الله تعالى عنه","category":"فقه"},{"id":"xm8vSm5oZw0","title":"2- الإِلَهِيَّات - صِفَاتُ الله عزَّ وجلَّ","publishedAt":"2021-12-27T18:06:01Z","duration":"PT1H27M16S","thumbnail":"https://i.ytimg.com/vi/xm8vSm5oZw0/mqdefault.jpg","viewCount":"46975","playlistId":"PLEkQk5xrP-tmNuYT8JAh6clwa4krsgkNo","playlistName":"شرح كتاب الفُتُوحات اليُسريَّة في عقائد الأُمَّة المُحمَّديَّة","category":"متنوع"},{"id":"MBv8B6U3GHY","title":"175- الإعجاز النبوي - شرح دليل الفالحين","publishedAt":"2021-12-27T07:33:08Z","duration":"PT36M53S","thumbnail":"https://i.ytimg.com/vi/MBv8B6U3GHY/mqdefault.jpg","viewCount":"1499","playlistId":"PLEkQk5xrP-tkc9DXvSLguqX5-FYp6ASR4","playlistName":"دليل الفالحين لطرق رياض الصالحين","category":"متنوع"},{"id":"YzuNmcr-DK8","title":"حكم تهنئة المسيحيين بأعيادهم؟","publishedAt":"2021-12-26T19:08:15Z","duration":"PT10M45S","thumbnail":"https://i.ytimg.com/vi/YzuNmcr-DK8/mqdefault.jpg","viewCount":"21950","playlistId":"PLEkQk5xrP-tkGXuZ9atE3k_7it12rUPTs","playlistName":"أسئلة المتابعين","category":"متنوع"},{"id":"x281GlPATCU","title":"مُشَاكَلَةُ اللَّفْظِ لِلْمَعْنَى - شرح البرهان في علوم القرآن","publishedAt":"2021-12-26T07:15:12Z","duration":"PT37M32S","thumbnail":"https://i.ytimg.com/vi/x281GlPATCU/mqdefault.jpg","viewCount":"860","playlistId":"PLEkQk5xrP-tnW3iBL7HkKziOFCFZbTlf0","playlistName":"شرح البرهان في علوم القرآن - أ.د. يسري جبر","category":"تفسير"}],"total":7670,"page":46,"pageSize":24,"totalPages":320}