{"items":[{"id":"uFRDlzfIxbs","title":"شرح صحيح البخاري- كتاب المناقب تكملة باب ٢٦ المجلس الخامس","publishedAt":"2017-11-03T19:11:41Z","duration":"PT38M29S","thumbnail":"https://i.ytimg.com/vi/uFRDlzfIxbs/mqdefault.jpg","viewCount":"608","playlistId":"PLEkQk5xrP-tlEerGoLa1AFy-2XvQ-sovv","playlistName":"شرح صحيح البخاري - أ.د. يسري جبر (كاملا)","category":"حديث"},{"id":"m0mAsyAHlLM","title":"مقرأة سورة مريم من آية ٩","publishedAt":"2017-11-03T16:07:02Z","duration":"PT13M46S","thumbnail":"https://i.ytimg.com/vi/m0mAsyAHlLM/mqdefault.jpg","viewCount":"471","playlistId":"PLEkQk5xrP-tnmTYsyW6xNdyfhPq0Bhrhj","playlistName":"مقرأة الفجر - القُرْآنُ الكَرِيمُ - خَتْمَةُ التَّدَبُّرِ  أ.د. يسري جبر","category":"متنوع"},{"id":"s_NJBM7w9cY","title":"شرح صحيح البخاري- كتاب المناقب تكملة باب ٢٦ المجلس الرابع","publishedAt":"2017-11-03T10:54:11Z","duration":"PT35M3S","thumbnail":"https://i.ytimg.com/vi/s_NJBM7w9cY/mqdefault.jpg","viewCount":"592","playlistId":"PLEkQk5xrP-tlEerGoLa1AFy-2XvQ-sovv","playlistName":"شرح صحيح البخاري - أ.د. يسري جبر (كاملا)","category":"حديث"},{"id":"WMDHEL3rq3o","title":"مقرأة سورة مريم من أولها","publishedAt":"2017-11-03T07:05:43Z","duration":"PT19M43S","thumbnail":"https://i.ytimg.com/vi/WMDHEL3rq3o/mqdefault.jpg","viewCount":"815","playlistId":"PLEkQk5xrP-tnmTYsyW6xNdyfhPq0Bhrhj","playlistName":"مقرأة الفجر - القُرْآنُ الكَرِيمُ - خَتْمَةُ التَّدَبُّرِ  أ.د. يسري جبر","category":"متنوع"},{"id":"jJnYgI8iUoQ","title":"شرح صحيح البخاري- كتاب المناقب تكملة باب ٢٦ المجلس الثالث","publishedAt":"2017-11-02T15:56:14Z","duration":"PT24M30S","thumbnail":"https://i.ytimg.com/vi/jJnYgI8iUoQ/mqdefault.jpg","viewCount":"507","playlistId":"PLEkQk5xrP-tlEerGoLa1AFy-2XvQ-sovv","playlistName":"شرح صحيح البخاري - أ.د. يسري جبر (كاملا)","category":"حديث"},{"id":"PD1XQ4bKVIY","title":"مقرأة سورة الكهف من آية ٩٩","publishedAt":"2017-11-02T11:44:32Z","duration":"PT36M30S","thumbnail":"https://i.ytimg.com/vi/PD1XQ4bKVIY/mqdefault.jpg","viewCount":"573","playlistId":"PLEkQk5xrP-tnmTYsyW6xNdyfhPq0Bhrhj","playlistName":"مقرأة الفجر - القُرْآنُ الكَرِيمُ - خَتْمَةُ التَّدَبُّرِ  أ.د. يسري جبر","category":"متنوع"},{"id":"BQ-hnZN1DlM","title":"شرح صحيح البخاري - كتاب المناقب تكملة باب ٢٦ المجلس الثاني","publishedAt":"2017-11-01T23:37:52Z","duration":"PT41M40S","thumbnail":"https://i.ytimg.com/vi/BQ-hnZN1DlM/mqdefault.jpg","viewCount":"708","playlistId":"PLEkQk5xrP-tlEerGoLa1AFy-2XvQ-sovv","playlistName":"شرح صحيح البخاري - أ.د. يسري جبر (كاملا)","category":"حديث"},{"id":"uiATWML_An8","title":"مقرأة سورة الكهف من آية ٨٣","publishedAt":"2017-11-01T20:55:05Z","duration":"PT30M15S","thumbnail":"https://i.ytimg.com/vi/uiATWML_An8/mqdefault.jpg","viewCount":"538","playlistId":"PLEkQk5xrP-tnmTYsyW6xNdyfhPq0Bhrhj","playlistName":"مقرأة الفجر - القُرْآنُ الكَرِيمُ - خَتْمَةُ التَّدَبُّرِ  أ.د. يسري جبر","category":"متنوع"},{"id":"CEjIw9yNg0U","title":"شرح صحيح البخاري- كتاب المناقب من باب ٢٥","publishedAt":"2017-10-31T22:15:46Z","duration":"PT39M23S","thumbnail":"https://i.ytimg.com/vi/CEjIw9yNg0U/mqdefault.jpg","viewCount":"647","playlistId":"PLEkQk5xrP-tlEerGoLa1AFy-2XvQ-sovv","playlistName":"شرح صحيح البخاري - أ.د. يسري جبر (كاملا)","category":"حديث"},{"id":"RchZXC9ApwA","title":"مقرأة سورة الكهف من آية ٧٩","publishedAt":"2017-10-31T16:30:49Z","duration":"PT28M8S","thumbnail":"https://i.ytimg.com/vi/RchZXC9ApwA/mqdefault.jpg","viewCount":"495","playlistId":"PLEkQk5xrP-tnmTYsyW6xNdyfhPq0Bhrhj","playlistName":"مقرأة الفجر - القُرْآنُ الكَرِيمُ - خَتْمَةُ التَّدَبُّرِ  أ.د. يسري جبر","category":"متنوع"},{"id":"pRA3dAxfJHw","title":"شرح صحيح البخاري- كتاب المناقب من باب ٢٤","publishedAt":"2017-10-30T18:29:07Z","duration":"PT45M51S","thumbnail":"https://i.ytimg.com/vi/pRA3dAxfJHw/mqdefault.jpg","viewCount":"679","playlistId":"PLEkQk5xrP-tlEerGoLa1AFy-2XvQ-sovv","playlistName":"شرح صحيح البخاري - أ.د. يسري جبر (كاملا)","category":"حديث"},{"id":"LU8pPhM05DI","title":"مقرأة سورة الكهف من آية ٧١","publishedAt":"2017-10-30T18:28:23Z","duration":"PT15M34S","thumbnail":"https://i.ytimg.com/vi/LU8pPhM05DI/mqdefault.jpg","viewCount":"423","playlistId":"PLEkQk5xrP-tnmTYsyW6xNdyfhPq0Bhrhj","playlistName":"مقرأة الفجر - القُرْآنُ الكَرِيمُ - خَتْمَةُ التَّدَبُّرِ  أ.د. يسري جبر","category":"متنوع"},{"id":"6eC1gOHxKKU","title":"شرح صحيح البخاري- كتاب المناقب من باب ١٦","publishedAt":"2017-10-30T04:04:22Z","duration":"PT27M41S","thumbnail":"https://i.ytimg.com/vi/6eC1gOHxKKU/mqdefault.jpg","viewCount":"598","playlistId":"PLEkQk5xrP-tlEerGoLa1AFy-2XvQ-sovv","playlistName":"شرح صحيح البخاري - أ.د. يسري جبر (كاملا)","category":"حديث"},{"id":"cvN9NLtfPuU","title":"مقرأة سورة الكهف من آية ٦٠","publishedAt":"2017-10-30T04:03:24Z","duration":"PT24M5S","thumbnail":"https://i.ytimg.com/vi/cvN9NLtfPuU/mqdefault.jpg","viewCount":"487","playlistId":"PLEkQk5xrP-tnmTYsyW6xNdyfhPq0Bhrhj","playlistName":"مقرأة الفجر - القُرْآنُ الكَرِيمُ - خَتْمَةُ التَّدَبُّرِ  أ.د. يسري جبر","category":"متنوع"},{"id":"nZmnqKhpPsE","title":"شرح كتاب نوراليقين في سيرة سيد المرسلين - المجلس السابع والعشرون ( سرية الرجيع ) د.يسري جبر","publishedAt":"2017-10-29T20:58:45Z","duration":"PT51M36S","thumbnail":"https://i.ytimg.com/vi/nZmnqKhpPsE/mqdefault.jpg","viewCount":"17015","playlistId":"PLEkQk5xrP-tl2t4NQx1IhKnAJCMzF0Nli","playlistName":"شرح كتاب نور اليقين في سيرة سيد المرسلين   د. يسري جبر","category":"سيرة"},{"id":"iY9fuOJp2O0","title":"حول التوكل والتفويض والثقة والتسليم","publishedAt":"2017-10-29T14:02:02Z","duration":"PT34M20S","thumbnail":"https://i.ytimg.com/vi/iY9fuOJp2O0/mqdefault.jpg","viewCount":"26750","playlistId":"PLEkQk5xrP-tlArtGpeLWaqNM7h7IDeAVC","playlistName":"خطب الجمعة أ.د. يسري جبر","category":"خطب"},{"id":"iyOOtVXcK-s","title":"صحيح الإمام البخاري رضي الله عنه - كتاب الأيمان والنذور (باب من حلف بملة سوی الإسلام) د. يسري جبر","publishedAt":"2017-10-28T13:35:06Z","duration":"PT54M27S","thumbnail":"https://i.ytimg.com/vi/iyOOtVXcK-s/mqdefault.jpg","viewCount":"161","playlistId":"PLEkQk5xrP-tmJuzaj4GWRenFoFx9gdbFX","playlistName":"شرح كتاب صحيح الإمام البخاري رضي الله تعالى عنه   أ.د. يسرى جبر","category":"حديث"},{"id":"xyHoQKBe0p4","title":"صحيح الإمام البخاري رضي الله عنه - كتاب الأيمان والنذور (تكملة باب كيف كانت يمين النبي) د.يسري جبر","publishedAt":"2017-10-28T07:11:55Z","duration":"PT29M5S","thumbnail":"https://i.ytimg.com/vi/xyHoQKBe0p4/mqdefault.jpg","viewCount":"106","playlistId":"PLEkQk5xrP-tmJuzaj4GWRenFoFx9gdbFX","playlistName":"شرح كتاب صحيح الإمام البخاري رضي الله تعالى عنه   أ.د. يسرى جبر","category":"حديث"},{"id":"9jFfmNYDhf8","title":"شرح صحيح البخاري- كتاب المناقب من باب 9","publishedAt":"2017-10-27T18:06:17Z","duration":"PT37M3S","thumbnail":"https://i.ytimg.com/vi/9jFfmNYDhf8/mqdefault.jpg","viewCount":"754","playlistId":"PLEkQk5xrP-tlEerGoLa1AFy-2XvQ-sovv","playlistName":"شرح صحيح البخاري - أ.د. يسري جبر (كاملا)","category":"حديث"},{"id":"l5T7MyrTu50","title":"مقرأة سورة الكهف من آية ٥٤","publishedAt":"2017-10-27T14:02:56Z","duration":"PT16M34S","thumbnail":"https://i.ytimg.com/vi/l5T7MyrTu50/mqdefault.jpg","viewCount":"515","playlistId":"PLEkQk5xrP-tnmTYsyW6xNdyfhPq0Bhrhj","playlistName":"مقرأة الفجر - القُرْآنُ الكَرِيمُ - خَتْمَةُ التَّدَبُّرِ  أ.د. يسري جبر","category":"متنوع"},{"id":"l8qrtDigB_s","title":"شرح صحيح البخاري- كتاب المناقب من باب ٣","publishedAt":"2017-10-26T15:54:54Z","duration":"PT33M55S","thumbnail":"https://i.ytimg.com/vi/l8qrtDigB_s/mqdefault.jpg","viewCount":"662","playlistId":"PLEkQk5xrP-tlEerGoLa1AFy-2XvQ-sovv","playlistName":"شرح صحيح البخاري - أ.د. يسري جبر (كاملا)","category":"حديث"},{"id":"96GJGRbvieo","title":"مقرأة سورة الكهف من آية ٥٠","publishedAt":"2017-10-26T12:41:23Z","duration":"PT13M54S","thumbnail":"https://i.ytimg.com/vi/96GJGRbvieo/mqdefault.jpg","viewCount":"439","playlistId":"PLEkQk5xrP-tnmTYsyW6xNdyfhPq0Bhrhj","playlistName":"مقرأة الفجر - القُرْآنُ الكَرِيمُ - خَتْمَةُ التَّدَبُّرِ  أ.د. يسري جبر","category":"متنوع"},{"id":"NMPcFRjzUps","title":"شرح صحيح البخاري- كتاب المناقب من أوله","publishedAt":"2017-10-25T23:59:41Z","duration":"PT31M52S","thumbnail":"https://i.ytimg.com/vi/NMPcFRjzUps/mqdefault.jpg","viewCount":"1036","playlistId":"PLEkQk5xrP-tlEerGoLa1AFy-2XvQ-sovv","playlistName":"شرح صحيح البخاري - أ.د. يسري جبر (كاملا)","category":"حديث"},{"id":"3pFs9_rBrPc","title":"مقرأة سورة الكهف من آية ٤٥","publishedAt":"2017-10-25T19:25:49Z","duration":"PT19M54S","thumbnail":"https://i.ytimg.com/vi/3pFs9_rBrPc/mqdefault.jpg","viewCount":"487","playlistId":"PLEkQk5xrP-tnmTYsyW6xNdyfhPq0Bhrhj","playlistName":"مقرأة الفجر - القُرْآنُ الكَرِيمُ - خَتْمَةُ التَّدَبُّرِ  أ.د. يسري جبر","category":"متنوع"}],"total":7670,"page":59,"pageSize":24,"totalPages":320}