{"items":[{"id":"tiCqNmHci64","title":"شرح صحيح البخاري -  كتاب الحج من باب ٤٢","publishedAt":"2017-03-06T18:46:14Z","duration":"PT26M53S","thumbnail":"https://i.ytimg.com/vi/tiCqNmHci64/mqdefault.jpg","viewCount":"769","playlistId":"PLEkQk5xrP-tlEerGoLa1AFy-2XvQ-sovv","playlistName":"شرح صحيح البخاري - أ.د. يسري جبر (كاملا)","category":"حديث"},{"id":"bKsropBz78k","title":"سورة الأعراف آية 167","publishedAt":"2017-03-06T07:13:43Z","duration":"PT27M58S","thumbnail":"https://i.ytimg.com/vi/bKsropBz78k/mqdefault.jpg","viewCount":"444","playlistId":"PLEkQk5xrP-tnmTYsyW6xNdyfhPq0Bhrhj","playlistName":"مقرأة الفجر - القُرْآنُ الكَرِيمُ - خَتْمَةُ التَّدَبُّرِ  أ.د. يسري جبر","category":"متنوع"},{"id":"OoNlD7NNNW4","title":"شرح كتاب نور اليقين في سيرة سيد المرسلين (المجلس الأول) | أ.د. يسري جبر","publishedAt":"2017-03-05T16:04:35Z","duration":"PT44M19S","thumbnail":"https://i.ytimg.com/vi/OoNlD7NNNW4/mqdefault.jpg","viewCount":"139209","playlistId":"PLEkQk5xrP-tl2t4NQx1IhKnAJCMzF0Nli","playlistName":"شرح كتاب نور اليقين في سيرة سيد المرسلين   د. يسري جبر","category":"سيرة"},{"id":"fucbLG5TK5U","title":"شرح صحيح البخاري -  كتاب الحج من باب ٣٥","publishedAt":"2017-03-05T13:33:10Z","duration":"PT32M33S","thumbnail":"https://i.ytimg.com/vi/fucbLG5TK5U/mqdefault.jpg","viewCount":"879","playlistId":"PLEkQk5xrP-tlEerGoLa1AFy-2XvQ-sovv","playlistName":"شرح صحيح البخاري - أ.د. يسري جبر (كاملا)","category":"حديث"},{"id":"5MBNPCyEZXI","title":"ما حكم الخروج على الحاكم الظالم؟","publishedAt":"2022-09-09T18:00:02Z","duration":"PT10M55S","thumbnail":"https://i.ytimg.com/vi/5MBNPCyEZXI/mqdefault.jpg","viewCount":"7683","playlistId":"PLEkQk5xrP-tkGXuZ9atE3k_7it12rUPTs","playlistName":"أسئلة المتابعين","category":"متنوع"},{"id":"35QVDS1Fzm4","title":"559- حروف المعاني(20): الحرف السادس عشر (أَمَّا) - شرح البرهان في علوم القرآن","publishedAt":"2022-09-09T06:30:22Z","duration":"PT25M8S","thumbnail":"https://i.ytimg.com/vi/35QVDS1Fzm4/mqdefault.jpg","viewCount":"524","playlistId":"PLEkQk5xrP-tnW3iBL7HkKziOFCFZbTlf0","playlistName":"شرح البرهان في علوم القرآن - أ.د. يسري جبر","category":"تفسير"},{"id":"-_uKnDI8yxU","title":"ما الدليل على أن العوالم خلقت من نور سيدنا محمد ﷺ؟","publishedAt":"2022-09-08T19:01:47Z","duration":"PT9M30S","thumbnail":"https://i.ytimg.com/vi/-_uKnDI8yxU/mqdefault.jpg","viewCount":"13511","playlistId":"PLEkQk5xrP-tkGXuZ9atE3k_7it12rUPTs","playlistName":"أسئلة المتابعين","category":"متنوع"},{"id":"xabAto0zmZs","title":"299- فَضْلُ السَّلامِ والأَمْرُ بِه - شرح دليل الفالحين","publishedAt":"2022-09-08T06:00:13Z","duration":"PT49M52S","thumbnail":"https://i.ytimg.com/vi/xabAto0zmZs/mqdefault.jpg","viewCount":"798","playlistId":"PLEkQk5xrP-tkc9DXvSLguqX5-FYp6ASR4","playlistName":"دليل الفالحين لطرق رياض الصالحين","category":"متنوع"},{"id":"bU9Bxwh0Zc8","title":"شرح منازل السائرين - المجلس (6) باب التوبة ۳ | أ.د. يسري جبر","publishedAt":"2022-09-07T17:15:03Z","duration":"PT42M4S","thumbnail":"https://i.ytimg.com/vi/bU9Bxwh0Zc8/mqdefault.jpg","viewCount":"8551","playlistId":"PLEkQk5xrP-tmiUfQ-2Tsn7QIak4EsvaZW","playlistName":"كتاب التيسير المعين بشرح معاني منازل السائرين (تصوف) - د.يسري جبر","category":"تصوف"},{"id":"YSWQWqxUyH0","title":"558- حرف (إِلَّا) يأتي بمعنى (بدل) - شرح البرهان في علوم القرآن","publishedAt":"2022-09-07T06:15:01Z","duration":"PT15M55S","thumbnail":"https://i.ytimg.com/vi/YSWQWqxUyH0/mqdefault.jpg","viewCount":"592","playlistId":"PLEkQk5xrP-tnW3iBL7HkKziOFCFZbTlf0","playlistName":"شرح البرهان في علوم القرآن - أ.د. يسري جبر","category":"تفسير"},{"id":"4CnFB9j-4Es","title":"هل يوجد أسرار في التصوف؟","publishedAt":"2022-09-06T18:30:03Z","duration":"PT11M6S","thumbnail":"https://i.ytimg.com/vi/4CnFB9j-4Es/mqdefault.jpg","viewCount":"46247","playlistId":"PLEkQk5xrP-tkGXuZ9atE3k_7it12rUPTs","playlistName":"أسئلة المتابعين","category":"متنوع"},{"id":"-V7AJoSJJlE","title":"298- باب الرُّؤْيَا - شرح دليل الفالحين","publishedAt":"2022-09-06T08:09:33Z","duration":"PT50M27S","thumbnail":"https://i.ytimg.com/vi/-V7AJoSJJlE/mqdefault.jpg","viewCount":"1474","playlistId":"PLEkQk5xrP-tkc9DXvSLguqX5-FYp6ASR4","playlistName":"دليل الفالحين لطرق رياض الصالحين","category":"متنوع"},{"id":"hulo0ht1OSY","title":"557- حروف المعاني(18): حرف (إِلَّا) - شرح البرهان في علوم القرآن","publishedAt":"2022-09-05T06:00:10Z","duration":"PT31M53S","thumbnail":"https://i.ytimg.com/vi/hulo0ht1OSY/mqdefault.jpg","viewCount":"722","playlistId":"PLEkQk5xrP-tnW3iBL7HkKziOFCFZbTlf0","playlistName":"شرح البرهان في علوم القرآن - أ.د. يسري جبر","category":"تفسير"},{"id":"wyj6UMP9Jm4","title":"كيفية تعليم الثقافة الجنسية للأطفال بشكل صحيح؟","publishedAt":"2022-09-04T19:01:51Z","duration":"PT10M5S","thumbnail":"https://i.ytimg.com/vi/wyj6UMP9Jm4/mqdefault.jpg","viewCount":"8392","playlistId":"PLEkQk5xrP-tkGXuZ9atE3k_7it12rUPTs","playlistName":"أسئلة المتابعين","category":"متنوع"},{"id":"EhRF8fKyRnQ","title":"297- آدابُ المجلس والجليس - شرح دليل الفالحين","publishedAt":"2022-09-04T06:20:00Z","duration":"PT1H1M21S","thumbnail":"https://i.ytimg.com/vi/EhRF8fKyRnQ/mqdefault.jpg","viewCount":"1134","playlistId":"PLEkQk5xrP-tkc9DXvSLguqX5-FYp6ASR4","playlistName":"دليل الفالحين لطرق رياض الصالحين","category":"متنوع"},{"id":"U-zhrfCB-BQ","title":"556- حروف المعاني(17): (أَلا) و (أَلَّا) - شرح البرهان في علوم القرآن","publishedAt":"2022-09-03T20:10:00Z","duration":"PT14M51S","thumbnail":"https://i.ytimg.com/vi/U-zhrfCB-BQ/mqdefault.jpg","viewCount":"460","playlistId":"PLEkQk5xrP-tnW3iBL7HkKziOFCFZbTlf0","playlistName":"شرح البرهان في علوم القرآن - أ.د. يسري جبر","category":"تفسير"},{"id":"mAhBnWNMoK0","title":"611- قوله تعالى\"وُجُوهٌ يَوْمَئِذٍ نَّاضِرَةٌ *إِلَىٰ رَبِّهَا نَاظِرَةٌ\" - شرح صحيح الإمام البخاري","publishedAt":"2022-09-03T06:15:02Z","duration":"PT49M49S","thumbnail":"https://i.ytimg.com/vi/mAhBnWNMoK0/mqdefault.jpg","viewCount":"4818","playlistId":"PLEkQk5xrP-tmJuzaj4GWRenFoFx9gdbFX","playlistName":"شرح كتاب صحيح الإمام البخاري رضي الله تعالى عنه   أ.د. يسرى جبر","category":"حديث"},{"id":"4rLIylIeJLY","title":"296- آدابُ النَّومِ وهَيْئَتهِ (2) - شرح دليل الفالحين","publishedAt":"2022-09-02T19:20:00Z","duration":"PT51M53S","thumbnail":"https://i.ytimg.com/vi/4rLIylIeJLY/mqdefault.jpg","viewCount":"1112","playlistId":"PLEkQk5xrP-tkc9DXvSLguqX5-FYp6ASR4","playlistName":"دليل الفالحين لطرق رياض الصالحين","category":"متنوع"},{"id":"GjkPoH8XAYQ","title":"شرح كتاب نور اليقين في سيرة سيد المرسلين للشيخ الخضري رحمه الله (المجلس61)  د.يسري جبر","publishedAt":"2018-10-14T20:04:24Z","duration":"PT44M12S","thumbnail":"https://i.ytimg.com/vi/GjkPoH8XAYQ/mqdefault.jpg","viewCount":"7620","playlistId":"PLEkQk5xrP-tl2t4NQx1IhKnAJCMzF0Nli","playlistName":"شرح كتاب نور اليقين في سيرة سيد المرسلين   د. يسري جبر","category":"سيرة"},{"id":"gB7tQjP6uJI","title":"الشريعة والحقيقة في حديث لا عَدْوى ولا طِيَرة  د. يسري جبر","publishedAt":"2018-10-14T18:55:07Z","duration":"PT54M43S","thumbnail":"https://i.ytimg.com/vi/gB7tQjP6uJI/mqdefault.jpg","viewCount":"3355","playlistId":"PLEkQk5xrP-tlArtGpeLWaqNM7h7IDeAVC","playlistName":"خطب الجمعة أ.د. يسري جبر","category":"خطب"},{"id":"Afui6Xk9l44","title":"شرح صحيح البخاري كتاب الدعوات من باب ٥٦","publishedAt":"2018-10-14T08:46:55Z","duration":"PT36M38S","thumbnail":"https://i.ytimg.com/vi/Afui6Xk9l44/mqdefault.jpg","viewCount":"461","playlistId":"PLEkQk5xrP-tlEerGoLa1AFy-2XvQ-sovv","playlistName":"شرح صحيح البخاري - أ.د. يسري جبر (كاملا)","category":"حديث"},{"id":"jvCzYZx72gk","title":"مقرأة سورة الزمر من آية ٩","publishedAt":"2018-10-13T04:47:28Z","duration":"PT20M28S","thumbnail":"https://i.ytimg.com/vi/jvCzYZx72gk/mqdefault.jpg","viewCount":"416","playlistId":"PLEkQk5xrP-tnmTYsyW6xNdyfhPq0Bhrhj","playlistName":"مقرأة الفجر - القُرْآنُ الكَرِيمُ - خَتْمَةُ التَّدَبُّرِ  أ.د. يسري جبر","category":"متنوع"},{"id":"6ou70ssly2Q","title":"شرح صحيح البخاري كتاب الدعوات من باب ٤٨","publishedAt":"2018-10-12T21:04:25Z","duration":"PT33M30S","thumbnail":"https://i.ytimg.com/vi/6ou70ssly2Q/mqdefault.jpg","viewCount":"459","playlistId":"PLEkQk5xrP-tlEerGoLa1AFy-2XvQ-sovv","playlistName":"شرح صحيح البخاري - أ.د. يسري جبر (كاملا)","category":"حديث"},{"id":"AbSn28cTTrg","title":"الرسالة القشيرية المجلس الواحد و الثلاثون ( المحو والإثبات - السَتر والتجلِّي ) د. يسري جبر","publishedAt":"2018-10-12T19:53:52Z","duration":"PT45M26S","thumbnail":"https://i.ytimg.com/vi/AbSn28cTTrg/mqdefault.jpg","viewCount":"6270","playlistId":"PLEkQk5xrP-tkHAGOwIKr4pc5ehhyQ5HMJ","playlistName":"كتاب الرسالة القشيرية (تصوف) - د. يسري جبر","category":"تصوف"}],"total":7670,"page":11,"pageSize":24,"totalPages":320}