{"items":[{"id":"ZupozzbtSjM","title":"شرح منازل السائرين - المجلس (34) باب التوكل | أ.د. يسري جبر","publishedAt":"2024-01-22T19:09:34Z","duration":"PT37M13S","thumbnail":"https://i.ytimg.com/vi/ZupozzbtSjM/mqdefault.jpg","viewCount":"6057","playlistId":"PLEkQk5xrP-tmiUfQ-2Tsn7QIak4EsvaZW","playlistName":"كتاب التيسير المعين بشرح معاني منازل السائرين (تصوف) - د.يسري جبر","category":"تصوف"},{"id":"YY7eepGCvuY","title":"66- التحذير مما نهى عنه النَّبيّ ﷺ وأهمية ما أمر به ﷺ - شرح مسند الإمام أحمد رضي الله عنه","publishedAt":"2024-01-22T06:30:16Z","duration":"PT27M50S","thumbnail":"https://i.ytimg.com/vi/YY7eepGCvuY/mqdefault.jpg","viewCount":"1555","playlistId":"PLEkQk5xrP-tkKprIuGrSdEuBSMsyg5We1","playlistName":"شرح مسند الإمام أحمد بن حنبل","category":"متنوع"},{"id":"g6NYNwPRAs4","title":"30- حكم القيء للصائم | من نام وهو ساجد | القهقهة في الصلاة - شرح سنن الإمام الدار قطني رضي الله عنه","publishedAt":"2024-01-20T09:19:30Z","duration":"PT35M14S","thumbnail":"https://i.ytimg.com/vi/g6NYNwPRAs4/mqdefault.jpg","viewCount":"1263","playlistId":"PLEkQk5xrP-tk_MCBZ706ORCw6gFtFyaGj","playlistName":"شرح سنن الإمام الدارقطني","category":"متنوع"},{"id":"PITBHDG_Ezw","title":"شرح منازل السائرين - المجلس (33) مقدمة باب التوكل | أ.د. يسري جبر","publishedAt":"2024-01-17T18:26:50Z","duration":"PT34M35S","thumbnail":"https://i.ytimg.com/vi/PITBHDG_Ezw/mqdefault.jpg","viewCount":"7531","playlistId":"PLEkQk5xrP-tmiUfQ-2Tsn7QIak4EsvaZW","playlistName":"كتاب التيسير المعين بشرح معاني منازل السائرين (تصوف) - د.يسري جبر","category":"تصوف"},{"id":"JuSqQzQL7cY","title":"4- أحوال العارفين بالله - شرح مختصر الفُتُوحَات المَكْيَّة","publishedAt":"2024-01-16T20:42:24Z","duration":"PT1H11M36S","thumbnail":"https://i.ytimg.com/vi/JuSqQzQL7cY/mqdefault.jpg","viewCount":"31859","playlistId":"PLEkQk5xrP-tnpkdZki6rPTtMak1bnI5g-","playlistName":"شرح كتاب مختصر الفتوحات المكية المسمى لواقح الأنوار القدسية","category":"متنوع"},{"id":"Wx5kIUig-Ig","title":"فضائل العبادة في شهر رجب","publishedAt":"2024-01-15T18:36:12Z","duration":"PT16M6S","thumbnail":"https://i.ytimg.com/vi/Wx5kIUig-Ig/mqdefault.jpg","viewCount":"7152","playlistId":"PLEkQk5xrP-tlArtGpeLWaqNM7h7IDeAVC","playlistName":"خطب الجمعة أ.د. يسري جبر","category":"خطب"},{"id":"0JRg6SQrOaU","title":"197- فصلٌ: من الْمُتَشَابه آيَاتُ الصِّفات  - شرح الإتقان في علوم القرآن","publishedAt":"2024-01-15T06:46:40Z","duration":"PT41M55S","thumbnail":"https://i.ytimg.com/vi/0JRg6SQrOaU/mqdefault.jpg","viewCount":"1030","playlistId":"PLEkQk5xrP-tlPw10KGJKagu7zm4Ry2Tge","playlistName":"شرح الإتقان في علوم القرآن","category":"تفسير"},{"id":"EKr1fgpPClw","title":"ما هي أفضل الأعمال فى شهر رجب؟","publishedAt":"2024-01-14T18:16:08Z","duration":"PT17M42S","thumbnail":"https://i.ytimg.com/vi/EKr1fgpPClw/mqdefault.jpg","viewCount":"37661","playlistId":"PLEkQk5xrP-tlArtGpeLWaqNM7h7IDeAVC","playlistName":"خطب الجمعة أ.د. يسري جبر","category":"خطب"},{"id":"y2H3Vl88ROw","title":"65- سبب حضور الملائكة بكثرة يوم بدر - شرح مسند الإمام أحمد رضي الله عنه","publishedAt":"2024-01-14T06:44:43Z","duration":"PT25M24S","thumbnail":"https://i.ytimg.com/vi/y2H3Vl88ROw/mqdefault.jpg","viewCount":"1446","playlistId":"PLEkQk5xrP-tkKprIuGrSdEuBSMsyg5We1","playlistName":"شرح مسند الإمام أحمد بن حنبل","category":"متنوع"},{"id":"4TweW2pkneo","title":"29- حكم مَن أصابه قيء أو رُعاف أو قلَس أثناء الصلاة","publishedAt":"2024-01-13T09:15:00Z","duration":"PT32M9S","thumbnail":"https://i.ytimg.com/vi/4TweW2pkneo/mqdefault.jpg","viewCount":"811","playlistId":"PLEkQk5xrP-tk_MCBZ706ORCw6gFtFyaGj","playlistName":"شرح سنن الإمام الدارقطني","category":"متنوع"},{"id":"l-3UslFyIf0","title":"أعمل ايه علشان أكون بارة بزوجي وأولادي؟","publishedAt":"2024-01-11T19:18:18Z","duration":"PT8M9S","thumbnail":"https://i.ytimg.com/vi/l-3UslFyIf0/mqdefault.jpg","viewCount":"4236","playlistId":"PLEkQk5xrP-tkGXuZ9atE3k_7it12rUPTs","playlistName":"أسئلة المتابعين","category":"متنوع"},{"id":"uetDAM_VvAM","title":"64- نصائح غالية في آداب الصلاة والآداب العامة","publishedAt":"2024-01-11T06:15:01Z","duration":"PT14M53S","thumbnail":"https://i.ytimg.com/vi/uetDAM_VvAM/mqdefault.jpg","viewCount":"1937","playlistId":"PLEkQk5xrP-tkKprIuGrSdEuBSMsyg5We1","playlistName":"شرح مسند الإمام أحمد بن حنبل","category":"متنوع"},{"id":"rlD0q5EqagU","title":"كيف أصبر على البلاء ,, وما الفرق بين البلاء والابتلاء؟","publishedAt":"2024-01-09T18:04:57Z","duration":"PT9M25S","thumbnail":"https://i.ytimg.com/vi/rlD0q5EqagU/mqdefault.jpg","viewCount":"6283","playlistId":"PLEkQk5xrP-tkGXuZ9atE3k_7it12rUPTs","playlistName":"أسئلة المتابعين","category":"متنوع"},{"id":"04oSNE6RipI","title":"195- المحكم والمتشابه - شرح الإتقان في علوم القرآن","publishedAt":"2024-01-09T06:15:00Z","duration":"PT52M17S","thumbnail":"https://i.ytimg.com/vi/04oSNE6RipI/mqdefault.jpg","viewCount":"1344","playlistId":"PLEkQk5xrP-tlPw10KGJKagu7zm4Ry2Tge","playlistName":"شرح الإتقان في علوم القرآن","category":"تفسير"},{"id":"-KRpcDGP1-w","title":"لماذا لا نشعر بالقرب من الله رغم كثرة الطاعات؟","publishedAt":"2025-10-15T19:00:00Z","duration":"PT11M24S","thumbnail":"https://i.ytimg.com/vi/-KRpcDGP1-w/mqdefault.jpg","viewCount":"2584","playlistId":"PLEkQk5xrP-tlArtGpeLWaqNM7h7IDeAVC","playlistName":"خطب الجمعة أ.د. يسري جبر","category":"خطب"},{"id":"H_f1SuulmcY","title":"305- المبهم من أسماء الأعلام في الآيات القرآنية - شرح الإتقان في علوم القرآن","publishedAt":"2025-10-15T09:00:23Z","duration":"PT26M21S","thumbnail":"https://i.ytimg.com/vi/H_f1SuulmcY/mqdefault.jpg","viewCount":"425","playlistId":"PLEkQk5xrP-tlPw10KGJKagu7zm4Ry2Tge","playlistName":"شرح الإتقان في علوم القرآن","category":"تفسير"},{"id":"MkaN6E3YLGU","title":"لماذا تنازل سيدنا الحسن عن الخلافة لمعاوية؟ | القصة الكاملة","publishedAt":"2025-10-14T18:39:27Z","duration":"PT10M47S","thumbnail":"https://i.ytimg.com/vi/MkaN6E3YLGU/mqdefault.jpg","viewCount":"9604","playlistId":"PLEkQk5xrP-tlArtGpeLWaqNM7h7IDeAVC","playlistName":"خطب الجمعة أ.د. يسري جبر","category":"خطب"},{"id":"VRfMC2ycBvE","title":"173- بشرى لأصحاب الأمراض المزمنة - شرح مسند الإمام أحمد رضي الله تعالى عنه","publishedAt":"2025-10-14T04:30:21Z","duration":"PT27M54S","thumbnail":"https://i.ytimg.com/vi/VRfMC2ycBvE/mqdefault.jpg","viewCount":"1153","playlistId":"PLEkQk5xrP-tkKprIuGrSdEuBSMsyg5We1","playlistName":"شرح مسند الإمام أحمد بن حنبل","category":"متنوع"},{"id":"cbj3zyCs5oU","title":"ازاي يكون عندي يقين بالله؟ | خطوات بسيطة توصلك لليقين بالله","publishedAt":"2025-10-13T18:00:15Z","duration":"PT11M39S","thumbnail":"https://i.ytimg.com/vi/cbj3zyCs5oU/mqdefault.jpg","viewCount":"4909","playlistId":"PLEkQk5xrP-tlArtGpeLWaqNM7h7IDeAVC","playlistName":"خطب الجمعة أ.د. يسري جبر","category":"خطب"},{"id":"KSKt7LB9vnI","title":"304- المبهمات في القرآن - شرح الإتقان في علوم القرآن","publishedAt":"2025-10-13T05:07:30Z","duration":"PT24M17S","thumbnail":"https://i.ytimg.com/vi/KSKt7LB9vnI/mqdefault.jpg","viewCount":"442","playlistId":"PLEkQk5xrP-tlPw10KGJKagu7zm4Ry2Tge","playlistName":"شرح الإتقان في علوم القرآن","category":"تفسير"},{"id":"pMmPsU62wgQ","title":"هل نحتاج واسطة لنصل إلى الله؟","publishedAt":"2025-10-12T18:15:04Z","duration":"PT12M21S","thumbnail":"https://i.ytimg.com/vi/pMmPsU62wgQ/mqdefault.jpg","viewCount":"3176","playlistId":"PLEkQk5xrP-tlArtGpeLWaqNM7h7IDeAVC","playlistName":"خطب الجمعة أ.د. يسري جبر","category":"خطب"},{"id":"15JMEdPFHVU","title":"172- حكم سفر المرأة للدراسة بغير محرم - شرح مسند الإمام أحمد رضي الله تعالى عنه","publishedAt":"2025-10-12T04:30:04Z","duration":"PT27M52S","thumbnail":"https://i.ytimg.com/vi/15JMEdPFHVU/mqdefault.jpg","viewCount":"784","playlistId":"PLEkQk5xrP-tkKprIuGrSdEuBSMsyg5We1","playlistName":"شرح مسند الإمام أحمد بن حنبل","category":"متنوع"},{"id":"G3yZ2fiLA8o","title":"هل يوجد عمل ينجيك من دخول النار؟ الجواب الذي غاب عن كثيرين!","publishedAt":"2025-10-11T18:10:18Z","duration":"PT20M32S","thumbnail":"https://i.ytimg.com/vi/G3yZ2fiLA8o/mqdefault.jpg","viewCount":"3081","playlistId":"PLEkQk5xrP-tlArtGpeLWaqNM7h7IDeAVC","playlistName":"خطب الجمعة أ.د. يسري جبر","category":"خطب"},{"id":"0gWozUYF6uw","title":"أسرار ومعاني حول روحانية النبي ﷺ","publishedAt":"2025-10-10T19:48:36Z","duration":"PT16M35S","thumbnail":"https://i.ytimg.com/vi/0gWozUYF6uw/mqdefault.jpg","viewCount":"1677","playlistId":"PLEkQk5xrP-tlArtGpeLWaqNM7h7IDeAVC","playlistName":"خطب الجمعة أ.د. يسري جبر","category":"خطب"}],"total":7670,"page":173,"pageSize":24,"totalPages":320}