{"items":[{"id":"4GbYMUQMH3c","title":"94- التعاون على البِرِّ والتَّقْوى - شرح دليل الفالحين","publishedAt":"2021-07-08T05:32:35Z","duration":"PT45M15S","thumbnail":"https://i.ytimg.com/vi/4GbYMUQMH3c/mqdefault.jpg","viewCount":"1066","playlistId":"PLEkQk5xrP-tkc9DXvSLguqX5-FYp6ASR4","playlistName":"دليل الفالحين لطرق رياض الصالحين","category":"متنوع"},{"id":"VUlH7Dqm9pk","title":"الاختزال (11) الغرض من حذف المفعول (2) - شرح البرهان في علوم القرآن","publishedAt":"2021-07-07T22:08:28Z","duration":"PT15M11S","thumbnail":"https://i.ytimg.com/vi/VUlH7Dqm9pk/mqdefault.jpg","viewCount":"314","playlistId":"PLEkQk5xrP-tnW3iBL7HkKziOFCFZbTlf0","playlistName":"شرح البرهان في علوم القرآن - أ.د. يسري جبر","category":"تفسير"},{"id":"xLCfweLKY8U","title":"93- الدلالة على خير والدعاء إلى هدى أو ضلالة - شرح دليل الفالحين","publishedAt":"2021-07-07T13:27:22Z","duration":"PT44M15S","thumbnail":"https://i.ytimg.com/vi/xLCfweLKY8U/mqdefault.jpg","viewCount":"1214","playlistId":"PLEkQk5xrP-tkc9DXvSLguqX5-FYp6ASR4","playlistName":"دليل الفالحين لطرق رياض الصالحين","category":"متنوع"},{"id":"aKj_DJDZWgc","title":"الاختزال (10) حذف المفعول - شرح البرهان في علوم القرآن","publishedAt":"2021-07-07T05:27:07Z","duration":"PT7M24S","thumbnail":"https://i.ytimg.com/vi/aKj_DJDZWgc/mqdefault.jpg","viewCount":"309","playlistId":"PLEkQk5xrP-tnW3iBL7HkKziOFCFZbTlf0","playlistName":"شرح البرهان في علوم القرآن - أ.د. يسري جبر","category":"تفسير"},{"id":"pQgC8c-o6h8","title":"92- مَنْ سَنَّ سُنَّةً حَسَنةً أو سَيِّئةً - شرح دليل الفالحين","publishedAt":"2021-07-06T19:49:49Z","duration":"PT45M42S","thumbnail":"https://i.ytimg.com/vi/pQgC8c-o6h8/mqdefault.jpg","viewCount":"1599","playlistId":"PLEkQk5xrP-tkc9DXvSLguqX5-FYp6ASR4","playlistName":"دليل الفالحين لطرق رياض الصالحين","category":"متنوع"},{"id":"3TXhb5m542g","title":"الاختزال (9) حذف المخصوص في باب ( نِعْمَ وبِئْسَ ) شرح البرهان في علوم القرآن","publishedAt":"2021-07-06T12:50:11Z","duration":"PT21M45S","thumbnail":"https://i.ytimg.com/vi/3TXhb5m542g/mqdefault.jpg","viewCount":"267","playlistId":"PLEkQk5xrP-tnW3iBL7HkKziOFCFZbTlf0","playlistName":"شرح البرهان في علوم القرآن - أ.د. يسري جبر","category":"تفسير"},{"id":"4bF2TSaCJNk","title":"91- بابٌ في النَّهْي عن البِدَعِ ومُحْدَثَاتِ الأُمُور - شرح دليل الفالحين","publishedAt":"2021-07-06T05:37:39Z","duration":"PT34M17S","thumbnail":"https://i.ytimg.com/vi/4bF2TSaCJNk/mqdefault.jpg","viewCount":"1715","playlistId":"PLEkQk5xrP-tkc9DXvSLguqX5-FYp6ASR4","playlistName":"دليل الفالحين لطرق رياض الصالحين","category":"متنوع"},{"id":"wbzjTfg7zlk","title":"العِلْمُ النافع","publishedAt":"2021-07-05T19:29:13Z","duration":"PT48M42S","thumbnail":"https://i.ytimg.com/vi/wbzjTfg7zlk/mqdefault.jpg","viewCount":"2352","playlistId":"PLEkQk5xrP-tlArtGpeLWaqNM7h7IDeAVC","playlistName":"خطب الجمعة أ.د. يسري جبر","category":"خطب"},{"id":"7PTZsVBKZBQ","title":"الاختزال (8) حذف المعطوف عليه - شرح البرهان في علوم القرآن","publishedAt":"2021-07-05T05:40:18Z","duration":"PT11M48S","thumbnail":"https://i.ytimg.com/vi/7PTZsVBKZBQ/mqdefault.jpg","viewCount":"329","playlistId":"PLEkQk5xrP-tnW3iBL7HkKziOFCFZbTlf0","playlistName":"شرح البرهان في علوم القرآن - أ.د. يسري جبر","category":"تفسير"},{"id":"hSbijMb06cA","title":"90- بابٌ في وُجُوبِ الانقيادِ لحُكْمِ الله تَعالَى… - شرح دليل الفالحين","publishedAt":"2021-07-04T20:44:05Z","duration":"PT48M30S","thumbnail":"https://i.ytimg.com/vi/hSbijMb06cA/mqdefault.jpg","viewCount":"1334","playlistId":"PLEkQk5xrP-tkc9DXvSLguqX5-FYp6ASR4","playlistName":"دليل الفالحين لطرق رياض الصالحين","category":"متنوع"},{"id":"gUC0pF4PEQA","title":"الاختزال (7) حذف الموصوف - شرح البرهان في علوم القرآن","publishedAt":"2021-07-04T13:32:55Z","duration":"PT13M58S","thumbnail":"https://i.ytimg.com/vi/gUC0pF4PEQA/mqdefault.jpg","viewCount":"371","playlistId":"PLEkQk5xrP-tnW3iBL7HkKziOFCFZbTlf0","playlistName":"شرح البرهان في علوم القرآن - أ.د. يسري جبر","category":"تفسير"},{"id":"s-4U9bcnU8g","title":"89- \"مثلي ومثلُكم كمثلِ رجلٍ أوقدَ نارًا ، فجعل الفراشُ ، والجنادِبُ يقعْنَ فيها…\" شرح دليل الفالحين","publishedAt":"2021-07-04T05:32:54Z","duration":"PT49M39S","thumbnail":"https://i.ytimg.com/vi/s-4U9bcnU8g/mqdefault.jpg","viewCount":"1748","playlistId":"PLEkQk5xrP-tkc9DXvSLguqX5-FYp6ASR4","playlistName":"دليل الفالحين لطرق رياض الصالحين","category":"متنوع"},{"id":"rhAvct19W8c","title":"الاختزال (6) حذف المضاف إليه - شرح البرهان في علوم القرآن","publishedAt":"2021-07-03T18:17:28Z","duration":"PT13M26S","thumbnail":"https://i.ytimg.com/vi/rhAvct19W8c/mqdefault.jpg","viewCount":"336","playlistId":"PLEkQk5xrP-tnW3iBL7HkKziOFCFZbTlf0","playlistName":"شرح البرهان في علوم القرآن - أ.د. يسري جبر","category":"تفسير"},{"id":"WGW5zN9INfM","title":"88- \"أنَّ رَجُلًا أَكَلَ عِنْدَ رَسولِ اللهِ ﷺ بشِمَالِه، فَقال: كُلْ بيَمِينِكَ…\" شرح دليل الفالحين","publishedAt":"2021-07-03T09:47:01Z","duration":"PT52M24S","thumbnail":"https://i.ytimg.com/vi/WGW5zN9INfM/mqdefault.jpg","viewCount":"1349","playlistId":"PLEkQk5xrP-tkc9DXvSLguqX5-FYp6ASR4","playlistName":"دليل الفالحين لطرق رياض الصالحين","category":"متنوع"},{"id":"RjNj9q4sASQ","title":"خطورة الوهابية","publishedAt":"2021-07-02T18:59:16Z","duration":"PT48M17S","thumbnail":"https://i.ytimg.com/vi/RjNj9q4sASQ/mqdefault.jpg","viewCount":"20941","playlistId":"PLEkQk5xrP-tlArtGpeLWaqNM7h7IDeAVC","playlistName":"خطب الجمعة أ.د. يسري جبر","category":"خطب"},{"id":"enwGDNQCSmA","title":"الاختزال(5)حذف المضاف وإقامة المضاف إليه مقامه(أمثلة) شرح البرهان في علوم القرآن","publishedAt":"2021-07-02T07:01:31Z","duration":"PT21M12S","thumbnail":"https://i.ytimg.com/vi/enwGDNQCSmA/mqdefault.jpg","viewCount":"389","playlistId":"PLEkQk5xrP-tnW3iBL7HkKziOFCFZbTlf0","playlistName":"شرح البرهان في علوم القرآن - أ.د. يسري جبر","category":"تفسير"},{"id":"k52w4U53VgM","title":"87- \"وعَظَنَا رسولُ الله ﷺ مَوْعظَةً وجِلَتْ منها القلوبُ، وذَرَفَت منها العيونُ…\" شرح دليل الفالحين","publishedAt":"2021-07-01T18:04:48Z","duration":"PT36M59S","thumbnail":"https://i.ytimg.com/vi/k52w4U53VgM/mqdefault.jpg","viewCount":"3412","playlistId":"PLEkQk5xrP-tkc9DXvSLguqX5-FYp6ASR4","playlistName":"دليل الفالحين لطرق رياض الصالحين","category":"متنوع"},{"id":"K3VA1dWGVAo","title":"الأسلوب الثاني: الحذف(13):أقسام الحذف\"الثامن:الاختزال(4) حذف المضاف وإقامة… - البرهان في علوم القرآن","publishedAt":"2021-07-01T08:26:56Z","duration":"PT21M12S","thumbnail":"https://i.ytimg.com/vi/K3VA1dWGVAo/mqdefault.jpg","viewCount":"434","playlistId":"PLEkQk5xrP-tnW3iBL7HkKziOFCFZbTlf0","playlistName":"شرح البرهان في علوم القرآن - أ.د. يسري جبر","category":"تفسير"},{"id":"Yf2S7BIPbAY","title":"86- المحافظةُ على السُّنَّة وآدابها \"دَعُونِي مَا تَرَكْتُكُم…\" شرح دليل الفالحين","publishedAt":"2021-06-30T19:49:49Z","duration":"PT37M29S","thumbnail":"https://i.ytimg.com/vi/Yf2S7BIPbAY/mqdefault.jpg","viewCount":"1741","playlistId":"PLEkQk5xrP-tkc9DXvSLguqX5-FYp6ASR4","playlistName":"دليل الفالحين لطرق رياض الصالحين","category":"متنوع"},{"id":"TH17_FIfZY4","title":"الأسلوب الثاني الحذف(12)أقسام الحذف: الثامن:الاختزال(3)حذف الفاعل - شرح البرهان في علوم القرآن","publishedAt":"2021-06-30T07:59:17Z","duration":"PT17M41S","thumbnail":"https://i.ytimg.com/vi/TH17_FIfZY4/mqdefault.jpg","viewCount":"304","playlistId":"PLEkQk5xrP-tnW3iBL7HkKziOFCFZbTlf0","playlistName":"شرح البرهان في علوم القرآن - أ.د. يسري جبر","category":"تفسير"},{"id":"VQCqBxVdHjE","title":"لماذا خرج الوهابية عن أهل السنة والجماعة؟","publishedAt":"2021-06-29T20:15:01Z","duration":"PT14M35S","thumbnail":"https://i.ytimg.com/vi/VQCqBxVdHjE/mqdefault.jpg","viewCount":"35284","playlistId":"PLEkQk5xrP-tlArtGpeLWaqNM7h7IDeAVC","playlistName":"خطب الجمعة أ.د. يسري جبر","category":"خطب"},{"id":"qlua6Idnp2Y","title":"85- المحافظة على الأعمال - شرح دليل الفالحين","publishedAt":"2021-06-29T08:39:15Z","duration":"PT28M52S","thumbnail":"https://i.ytimg.com/vi/qlua6Idnp2Y/mqdefault.jpg","viewCount":"1217","playlistId":"PLEkQk5xrP-tkc9DXvSLguqX5-FYp6ASR4","playlistName":"دليل الفالحين لطرق رياض الصالحين","category":"متنوع"},{"id":"zBD-D5Oz8gg","title":"سيدي أبو الحسن الشاذلي | أ.د. يسري جبر","publishedAt":"2021-06-28T21:15:01Z","duration":"PT17M57S","thumbnail":"https://i.ytimg.com/vi/zBD-D5Oz8gg/mqdefault.jpg","viewCount":"68481","playlistId":"PLEkQk5xrP-tm8ZIu74nTOZN9KJUJu416J","playlistName":"مقاطع مُهمَّة (يُسريَّات) أ.د. يسري جبر","category":"متنوع"},{"id":"pexvPXkfAS0","title":"خطر الوهابية على المسلمين","publishedAt":"2021-06-28T19:02:10Z","duration":"PT15M14S","thumbnail":"https://i.ytimg.com/vi/pexvPXkfAS0/mqdefault.jpg","viewCount":"118400","playlistId":"PLEkQk5xrP-tlArtGpeLWaqNM7h7IDeAVC","playlistName":"خطب الجمعة أ.د. يسري جبر","category":"خطب"}],"total":7670,"page":212,"pageSize":24,"totalPages":320}