{"items":[{"id":"173t4XewDZA","title":"حكم زيارة قبور الصالحين وطلب المدد منهم","publishedAt":"2023-01-12T18:00:00Z","duration":"PT10M25S","thumbnail":"https://i.ytimg.com/vi/173t4XewDZA/mqdefault.jpg","viewCount":"16132","playlistId":"PLEkQk5xrP-tkGXuZ9atE3k_7it12rUPTs","playlistName":"أسئلة المتابعين","category":"متنوع"},{"id":"NP5tJTNcp30","title":"23- لماذا يحاسبنا اللهُ على أعمالنا؟.. وقد قال سبحانه\"وَاللَّهُ خَلَقَكُمْ وَمَا تَعْمَلُونَ\"","publishedAt":"2023-01-12T09:00:22Z","duration":"PT45M24S","thumbnail":"https://i.ytimg.com/vi/NP5tJTNcp30/mqdefault.jpg","viewCount":"2031","playlistId":"PLEkQk5xrP-tmNuYT8JAh6clwa4krsgkNo","playlistName":"شرح كتاب الفُتُوحات اليُسريَّة في عقائد الأُمَّة المُحمَّديَّة","category":"متنوع"},{"id":"xComs7CTY-w","title":"380- حكم الحجِّ عن الغير - شرح دليل الفالحين","publishedAt":"2023-01-12T05:10:00Z","duration":"PT30M48S","thumbnail":"https://i.ytimg.com/vi/xComs7CTY-w/mqdefault.jpg","viewCount":"414","playlistId":"PLEkQk5xrP-tkc9DXvSLguqX5-FYp6ASR4","playlistName":"دليل الفالحين لطرق رياض الصالحين","category":"متنوع"},{"id":"5efQFWAKwxM","title":"شرح منازل السائرين - المجلس (22) باب الزهد | أ.د. يسري جبر","publishedAt":"2023-01-11T18:00:02Z","duration":"PT41M41S","thumbnail":"https://i.ytimg.com/vi/5efQFWAKwxM/mqdefault.jpg","viewCount":"5212","playlistId":"PLEkQk5xrP-tmiUfQ-2Tsn7QIak4EsvaZW","playlistName":"كتاب التيسير المعين بشرح معاني منازل السائرين (تصوف) - د.يسري جبر","category":"تصوف"},{"id":"CCipILqb38Y","title":"5- معرفة ما نزل من القرآن بالمدينة - شرح الإتقان في علوم القرآن","publishedAt":"2023-01-11T05:35:00Z","duration":"PT21M30S","thumbnail":"https://i.ytimg.com/vi/CCipILqb38Y/mqdefault.jpg","viewCount":"2156","playlistId":"PLEkQk5xrP-tlPw10KGJKagu7zm4Ry2Tge","playlistName":"شرح الإتقان في علوم القرآن","category":"تفسير"},{"id":"zXwrMtgitOQ","title":"كيف حققت النجاح في دراستك وعملك؟","publishedAt":"2023-01-10T18:15:11Z","duration":"PT8M25S","thumbnail":"https://i.ytimg.com/vi/zXwrMtgitOQ/mqdefault.jpg","viewCount":"9698","playlistId":"PLEkQk5xrP-tkGXuZ9atE3k_7it12rUPTs","playlistName":"أسئلة المتابعين","category":"متنوع"},{"id":"TkWfgE7FW7c","title":"64- أحكام الرَّضَاع - شرح مسند الإمام الشافعي رضي الله عنه","publishedAt":"2023-01-10T09:00:13Z","duration":"PT43M1S","thumbnail":"https://i.ytimg.com/vi/TkWfgE7FW7c/mqdefault.jpg","viewCount":"620","playlistId":"PLEkQk5xrP-tlDtaqY0qhNXAiZ19gaGzKI","playlistName":"شرح مسند الإمام محمد بن إدريس الشافعيّ رضي الله تعالى عنه","category":"فقه"},{"id":"LE3CNLvaGNY","title":"379- إنَّ اللهَ قَدْ فَرِضَ عَليكُمُ الحجُّ فحُجُّوا - شرح دليل الفالحين","publishedAt":"2023-01-10T05:00:14Z","duration":"PT24M14S","thumbnail":"https://i.ytimg.com/vi/LE3CNLvaGNY/mqdefault.jpg","viewCount":"476","playlistId":"PLEkQk5xrP-tkc9DXvSLguqX5-FYp6ASR4","playlistName":"دليل الفالحين لطرق رياض الصالحين","category":"متنوع"},{"id":"KHTBzK42yPw","title":"حكم الاحتفال بالمولد النبوي","publishedAt":"2021-10-13T21:00:04Z","duration":"PT8M41S","thumbnail":"https://i.ytimg.com/vi/KHTBzK42yPw/mqdefault.jpg","viewCount":"18053","playlistId":"PLEkQk5xrP-tkGXuZ9atE3k_7it12rUPTs","playlistName":"أسئلة المتابعين","category":"متنوع"},{"id":"jCXZS_fngBo","title":"21- باب قصر الصلاة وجمعها - شرح كتاب فتح القريب المجيب","publishedAt":"2021-10-13T10:57:05Z","duration":"PT1H5M52S","thumbnail":"https://i.ytimg.com/vi/jCXZS_fngBo/mqdefault.jpg","viewCount":"1436","playlistId":"PLEkQk5xrP-tkXuPs-0sXfWQDWzBKmcjWN","playlistName":"\"فتح القريب المجيب في شرح ألفاظ التقريب\"( فقه شافعيّ)  أ. د. يسري جبر","category":"فقه"},{"id":"81XMhMKxaGw","title":"140- حَقُّ الجَارِ والوَصِيَّةُ به - شرح دليل الفالحين","publishedAt":"2021-10-13T05:54:42Z","duration":"PT32M41S","thumbnail":"https://i.ytimg.com/vi/81XMhMKxaGw/mqdefault.jpg","viewCount":"741","playlistId":"PLEkQk5xrP-tkc9DXvSLguqX5-FYp6ASR4","playlistName":"دليل الفالحين لطرق رياض الصالحين","category":"متنوع"},{"id":"szWdTubAXao","title":"التنقُّل - تكملة أنواع التقديم والتأخير(16) - شرح البرهان في علوم القرآن -","publishedAt":"2021-10-12T19:44:48Z","duration":"PT14M27S","thumbnail":"https://i.ytimg.com/vi/szWdTubAXao/mqdefault.jpg","viewCount":"378","playlistId":"PLEkQk5xrP-tnW3iBL7HkKziOFCFZbTlf0","playlistName":"شرح البرهان في علوم القرآن - أ.د. يسري جبر","category":"تفسير"},{"id":"uMJZndErreU","title":"20- الأوقاتُ التى تُكْرَهُ الصلاة فيها - شرح كتاب فتح القريب المجيب","publishedAt":"2021-10-12T11:15:38Z","duration":"PT1H31M45S","thumbnail":"https://i.ytimg.com/vi/uMJZndErreU/mqdefault.jpg","viewCount":"1301","playlistId":"PLEkQk5xrP-tkXuPs-0sXfWQDWzBKmcjWN","playlistName":"\"فتح القريب المجيب في شرح ألفاظ التقريب\"( فقه شافعيّ)  أ. د. يسري جبر","category":"فقه"},{"id":"1vtHQ_oS4jM","title":"139- \"أخذ الحسنُ بن عليّ -رضي اللهُ عنهما- تمرةً من تَمْر الصدقة فجعلها في فِيِه…\" شرح دليل الفالحين","publishedAt":"2021-10-12T06:41:15Z","duration":"PT53M3S","thumbnail":"https://i.ytimg.com/vi/1vtHQ_oS4jM/mqdefault.jpg","viewCount":"1104","playlistId":"PLEkQk5xrP-tkc9DXvSLguqX5-FYp6ASR4","playlistName":"دليل الفالحين لطرق رياض الصالحين","category":"متنوع"},{"id":"6b71oov0hvs","title":"61- كيف تكون عارفًا بالله؟ | شرح منازل السائرين","publishedAt":"2025-06-25T19:17:20Z","duration":"PT34M56S","thumbnail":"https://i.ytimg.com/vi/6b71oov0hvs/mqdefault.jpg","viewCount":"5308","playlistId":"PLEkQk5xrP-tmiUfQ-2Tsn7QIak4EsvaZW","playlistName":"كتاب التيسير المعين بشرح معاني منازل السائرين (تصوف) - د.يسري جبر","category":"تصوف"},{"id":"Ur_cX3z-yQs","title":"أهمية التقويم الهجري في حياتنا وما هي الصلاة الوسطى؟","publishedAt":"2025-06-24T16:00:48Z","duration":"PT9M4S","thumbnail":"https://i.ytimg.com/vi/Ur_cX3z-yQs/mqdefault.jpg","viewCount":"1995","playlistId":"PLEkQk5xrP-tkGXuZ9atE3k_7it12rUPTs","playlistName":"أسئلة المتابعين","category":"متنوع"},{"id":"UpRZQczwaxs","title":"ازاي أرضى بما قسمه الله لي؟","publishedAt":"2025-06-23T18:44:52Z","duration":"PT12M41S","thumbnail":"https://i.ytimg.com/vi/UpRZQczwaxs/mqdefault.jpg","viewCount":"6980","playlistId":"PLEkQk5xrP-tkGXuZ9atE3k_7it12rUPTs","playlistName":"أسئلة المتابعين","category":"متنوع"},{"id":"I23b1aOz5dw","title":"161- بركة دعوة الصالحين - شرح مسند الإمام أحمد رضي الله تعالى عنه","publishedAt":"2025-06-10T05:00:15Z","duration":"PT33M58S","thumbnail":"https://i.ytimg.com/vi/I23b1aOz5dw/mqdefault.jpg","viewCount":"2866","playlistId":"PLEkQk5xrP-tkKprIuGrSdEuBSMsyg5We1","playlistName":"شرح مسند الإمام أحمد بن حنبل","category":"متنوع"},{"id":"KtK1TNqgwVQ","title":"97- غريب القرآن (12) - شرح الإتقان في علوم القرآن","publishedAt":"2023-06-09T05:00:15Z","duration":"PT36M13S","thumbnail":"https://i.ytimg.com/vi/KtK1TNqgwVQ/mqdefault.jpg","viewCount":"451","playlistId":"PLEkQk5xrP-tlPw10KGJKagu7zm4Ry2Tge","playlistName":"شرح الإتقان في علوم القرآن","category":"تفسير"},{"id":"STe23jnJQdc","title":"ما سر زيادة الرزق؟","publishedAt":"2023-06-08T17:00:26Z","duration":"PT8M10S","thumbnail":"https://i.ytimg.com/vi/STe23jnJQdc/mqdefault.jpg","viewCount":"11384","playlistId":"PLEkQk5xrP-tm8ZIu74nTOZN9KJUJu416J","playlistName":"مقاطع مُهمَّة (يُسريَّات) أ.د. يسري جبر","category":"متنوع"},{"id":"TH0zj7Ft_Cg","title":"471- لا يَقُولَنَّ أحَدُكُمْ خَبُثَتْ نَفْسِي - شرح دليل الفالحين","publishedAt":"2023-06-08T08:59:00Z","duration":"PT28M41S","thumbnail":"https://i.ytimg.com/vi/TH0zj7Ft_Cg/mqdefault.jpg","viewCount":"667","playlistId":"PLEkQk5xrP-tkc9DXvSLguqX5-FYp6ASR4","playlistName":"دليل الفالحين لطرق رياض الصالحين","category":"متنوع"},{"id":"gksDiazfifU","title":"96- غريب القرآن (11) - شرح الإتقان في علوم القرآن","publishedAt":"2023-06-08T05:00:19Z","duration":"PT35M57S","thumbnail":"https://i.ytimg.com/vi/gksDiazfifU/mqdefault.jpg","viewCount":"566","playlistId":"PLEkQk5xrP-tlPw10KGJKagu7zm4Ry2Tge","playlistName":"شرح الإتقان في علوم القرآن","category":"تفسير"},{"id":"71u5Z4nB8SM","title":"470- حكم مَنْ يعتقد أنَّ النُّجومَ سَببٌ في نُزولِ المطرِ - شرح دليل الفالحين","publishedAt":"2023-06-07T08:59:01Z","duration":"PT38M11S","thumbnail":"https://i.ytimg.com/vi/71u5Z4nB8SM/mqdefault.jpg","viewCount":"550","playlistId":"PLEkQk5xrP-tkc9DXvSLguqX5-FYp6ASR4","playlistName":"دليل الفالحين لطرق رياض الصالحين","category":"متنوع"},{"id":"HZdAuHRcAwk","title":"95- غريب القرآن (10) - شرح الإتقان في علوم القرآن","publishedAt":"2023-06-07T05:00:15Z","duration":"PT28M43S","thumbnail":"https://i.ytimg.com/vi/HZdAuHRcAwk/mqdefault.jpg","viewCount":"541","playlistId":"PLEkQk5xrP-tlPw10KGJKagu7zm4Ry2Tge","playlistName":"شرح الإتقان في علوم القرآن","category":"تفسير"}],"total":7670,"page":223,"pageSize":24,"totalPages":320}