{"items":[{"id":"JnMzvfjGRCs","title":"شرح صحيح البخاري - كتاب المظالم من باب١١","publishedAt":"2017-05-24T20:28:43Z","duration":"PT39M59S","thumbnail":"https://i.ytimg.com/vi/JnMzvfjGRCs/mqdefault.jpg","viewCount":"769","playlistId":"PLEkQk5xrP-tlEerGoLa1AFy-2XvQ-sovv","playlistName":"شرح صحيح البخاري - أ.د. يسري جبر (كاملا)","category":"حديث"},{"id":"-IOfYBfyIM4","title":"( 119 ) حديث الإفك وبراءة السيدة عائشة أم المؤمنين منه - المجلس العاشر","publishedAt":"2017-05-24T18:03:10Z","duration":"PT20M59S","thumbnail":"https://i.ytimg.com/vi/-IOfYBfyIM4/mqdefault.jpg","viewCount":"205","playlistId":"PLEkQk5xrP-tnl7vb7KeAoPd5ZlqKKW8KV","playlistName":"شرح كتاب بهجة النفوس أ.د . يسرى جبر","category":"متنوع"},{"id":"7ZqfJ7651_E","title":"مقرأة سورة يونس من آية ٩٠","publishedAt":"2017-05-24T12:05:57Z","duration":"PT22M47S","thumbnail":"https://i.ytimg.com/vi/7ZqfJ7651_E/mqdefault.jpg","viewCount":"430","playlistId":"PLEkQk5xrP-tnmTYsyW6xNdyfhPq0Bhrhj","playlistName":"مقرأة الفجر - القُرْآنُ الكَرِيمُ - خَتْمَةُ التَّدَبُّرِ  أ.د. يسري جبر","category":"متنوع"},{"id":"wDhc7rSohkA","title":"شرح صحيح البخاري - كتاب المظالم من أوله","publishedAt":"2017-05-23T19:51:09Z","duration":"PT37M30S","thumbnail":"https://i.ytimg.com/vi/wDhc7rSohkA/mqdefault.jpg","viewCount":"1135","playlistId":"PLEkQk5xrP-tlEerGoLa1AFy-2XvQ-sovv","playlistName":"شرح صحيح البخاري - أ.د. يسري جبر (كاملا)","category":"حديث"},{"id":"HJdwhCnDcyI","title":"ما حكم سب الدهر؟ | مجالس رمضانية","publishedAt":"2023-04-02T15:08:08Z","duration":"PT46M42S","thumbnail":"https://i.ytimg.com/vi/HJdwhCnDcyI/mqdefault.jpg","viewCount":"1435","playlistId":"PLEkQk5xrP-tnl7vb7KeAoPd5ZlqKKW8KV","playlistName":"شرح كتاب بهجة النفوس أ.د . يسرى جبر","category":"متنوع"},{"id":"93HDugg_g34","title":"421- ما كُنَّا نَأخُذُ مِن لُقْمةٍ إلَّا رَبَا مِن أسفَلِها - بركة طعام الصالحين والاجتماع عليه","publishedAt":"2023-04-02T05:05:00Z","duration":"PT33M22S","thumbnail":"https://i.ytimg.com/vi/93HDugg_g34/mqdefault.jpg","viewCount":"894","playlistId":"PLEkQk5xrP-tkc9DXvSLguqX5-FYp6ASR4","playlistName":"دليل الفالحين لطرق رياض الصالحين","category":"متنوع"},{"id":"hYGR5FU6LeI","title":"هل استعمال البنج الكلي أو الموضعي يفسد الصيام؟","publishedAt":"2023-04-01T19:00:15Z","duration":"PT13M8S","thumbnail":"https://i.ytimg.com/vi/hYGR5FU6LeI/mqdefault.jpg","viewCount":"2785","playlistId":"PLEkQk5xrP-tkGXuZ9atE3k_7it12rUPTs","playlistName":"أسئلة المتابعين","category":"متنوع"},{"id":"gSrvVHl4Xpc","title":"عواقب الألفاظ الخبيثة | مجالس رمضانية","publishedAt":"2023-04-01T15:00:22Z","duration":"PT47M3S","thumbnail":"https://i.ytimg.com/vi/gSrvVHl4Xpc/mqdefault.jpg","viewCount":"4178","playlistId":"PLEkQk5xrP-tnl7vb7KeAoPd5ZlqKKW8KV","playlistName":"شرح كتاب بهجة النفوس أ.د . يسرى جبر","category":"متنوع"},{"id":"KYd54QZZKdY","title":"67- متى ينزل الله السكينة على قلبك؟ | شرح منازل السائرين","publishedAt":"2025-09-03T19:00:13Z","duration":"PT30M36S","thumbnail":"https://i.ytimg.com/vi/KYd54QZZKdY/mqdefault.jpg","viewCount":"9985","playlistId":"PLEkQk5xrP-tmiUfQ-2Tsn7QIak4EsvaZW","playlistName":"كتاب التيسير المعين بشرح معاني منازل السائرين (تصوف) - د.يسري جبر","category":"تصوف"},{"id":"kFV12_vRIKY","title":"ما حقيقة عذاب القبر ونعيمه وماذا يحدث بعد الموت؟","publishedAt":"2025-09-02T19:00:42Z","duration":"PT34M15S","thumbnail":"https://i.ytimg.com/vi/kFV12_vRIKY/mqdefault.jpg","viewCount":"2778","playlistId":"PLEkQk5xrP-tmsEDdkkXMM1ca2-AquQYad","playlistName":"شرح كتاب مدارج الحقيقة في الرابطة عند أهل الطريقة","category":"متنوع"},{"id":"rKFW8Gg9b9A","title":"299- الأسماء والكنى والألقاب في القرآن الكريم - شرح الإتقان في علوم القرآن","publishedAt":"2025-09-02T09:01:22Z","duration":"PT30M33S","thumbnail":"https://i.ytimg.com/vi/rKFW8Gg9b9A/mqdefault.jpg","viewCount":"493","playlistId":"PLEkQk5xrP-tlPw10KGJKagu7zm4Ry2Tge","playlistName":"شرح الإتقان في علوم القرآن","category":"تفسير"},{"id":"obWIJXaJmvo","title":"ما حكم تجسس الزوجة على هاتف زوجها؟","publishedAt":"2025-09-01T19:00:46Z","duration":"PT9M30S","thumbnail":"https://i.ytimg.com/vi/obWIJXaJmvo/mqdefault.jpg","viewCount":"2638","playlistId":"PLEkQk5xrP-tkGXuZ9atE3k_7it12rUPTs","playlistName":"أسئلة المتابعين","category":"متنوع"},{"id":"SIFdaGB65AI","title":"ما حكم زيارة مقامات آل البيت والصالحين؟","publishedAt":"2025-08-31T18:50:17Z","duration":"PT8M13S","thumbnail":"https://i.ytimg.com/vi/SIFdaGB65AI/mqdefault.jpg","viewCount":"1664","playlistId":"PLEkQk5xrP-tkGXuZ9atE3k_7it12rUPTs","playlistName":"أسئلة المتابعين","category":"متنوع"},{"id":"oFj_QOX27TQ","title":"ازاي تكسر الرهبة والخوف عند مواجهة الناس؟","publishedAt":"2025-08-30T18:14:59Z","duration":"PT11M10S","thumbnail":"https://i.ytimg.com/vi/oFj_QOX27TQ/mqdefault.jpg","viewCount":"4244","playlistId":"PLEkQk5xrP-tkGXuZ9atE3k_7it12rUPTs","playlistName":"أسئلة المتابعين","category":"متنوع"},{"id":"H-YlEnWHclk","title":"مقرأة سورة التغابن من آية ٣","publishedAt":"2019-04-17T21:54:29Z","duration":"PT15M56S","thumbnail":"https://i.ytimg.com/vi/H-YlEnWHclk/mqdefault.jpg","viewCount":"410","playlistId":"PLEkQk5xrP-tnmTYsyW6xNdyfhPq0Bhrhj","playlistName":"مقرأة الفجر - القُرْآنُ الكَرِيمُ - خَتْمَةُ التَّدَبُّرِ  أ.د. يسري جبر","category":"متنوع"},{"id":"OQGgCevvwao","title":"شرح سنن الدارمي كتاب الطهارة من باب ٩٨","publishedAt":"2019-04-17T09:24:37Z","duration":"PT35M22S","thumbnail":"https://i.ytimg.com/vi/OQGgCevvwao/mqdefault.jpg","viewCount":"375","playlistId":"PLEkQk5xrP-tmAg-FuWjY057X_h5NmGmAa","playlistName":"شرح سنن الدارمي - أ.د. يسري جبر (كاملا)","category":"متنوع"},{"id":"g4xNmOT9t8Y","title":"مقرأة سورة التغابن من آية ٢","publishedAt":"2019-04-16T12:14:49Z","duration":"PT18M51S","thumbnail":"https://i.ytimg.com/vi/g4xNmOT9t8Y/mqdefault.jpg","viewCount":"439","playlistId":"PLEkQk5xrP-tnmTYsyW6xNdyfhPq0Bhrhj","playlistName":"مقرأة الفجر - القُرْآنُ الكَرِيمُ - خَتْمَةُ التَّدَبُّرِ  أ.د. يسري جبر","category":"متنوع"},{"id":"hJb0bTUJIbI","title":"شرح سنن الدارمي كتاب الطهارة من باب ٩٧","publishedAt":"2019-04-15T22:15:56Z","duration":"PT40M16S","thumbnail":"https://i.ytimg.com/vi/hJb0bTUJIbI/mqdefault.jpg","viewCount":"371","playlistId":"PLEkQk5xrP-tmAg-FuWjY057X_h5NmGmAa","playlistName":"شرح سنن الدارمي - أ.د. يسري جبر (كاملا)","category":"متنوع"},{"id":"HTw6em2Bulk","title":"هل فوائد البنوك حلال؟","publishedAt":"2022-10-10T19:00:06Z","duration":"PT9M47S","thumbnail":"https://i.ytimg.com/vi/HTw6em2Bulk/mqdefault.jpg","viewCount":"16509","playlistId":"PLEkQk5xrP-tm8ZIu74nTOZN9KJUJu416J","playlistName":"مقاطع مُهمَّة (يُسريَّات) أ.د. يسري جبر","category":"متنوع"},{"id":"7yO_K44eiTA","title":"53- نضَّرَ اللَّهُ عبدًا سمِعَ مَقالَتي، فحفِظَها ووَعاها وأدَّاها…","publishedAt":"2022-10-10T07:30:00Z","duration":"PT59M13S","thumbnail":"https://i.ytimg.com/vi/7yO_K44eiTA/mqdefault.jpg","viewCount":"1561","playlistId":"PLEkQk5xrP-tlDtaqY0qhNXAiZ19gaGzKI","playlistName":"شرح مسند الإمام محمد بن إدريس الشافعيّ رضي الله تعالى عنه","category":"فقه"},{"id":"yhTGNQ1Y6uA","title":"566- حروف المعاني(27): الحرف(26) (بلى) - شرح البرهان في علوم القرآن","publishedAt":"2022-10-10T05:20:00Z","duration":"PT24M21S","thumbnail":"https://i.ytimg.com/vi/yhTGNQ1Y6uA/mqdefault.jpg","viewCount":"562","playlistId":"PLEkQk5xrP-tnW3iBL7HkKziOFCFZbTlf0","playlistName":"شرح البرهان في علوم القرآن - أ.د. يسري جبر","category":"تفسير"},{"id":"8_a7ihX0260","title":"616- قوله تعالى\"قُل لَّوْ كَانَ الْبَحْرُ مِدَادًا لِّكَلِمَاتِ رَبِّي\"","publishedAt":"2022-10-09T05:15:00Z","duration":"PT45M30S","thumbnail":"https://i.ytimg.com/vi/8_a7ihX0260/mqdefault.jpg","viewCount":"1933","playlistId":"PLEkQk5xrP-tmJuzaj4GWRenFoFx9gdbFX","playlistName":"شرح كتاب صحيح الإمام البخاري رضي الله تعالى عنه   أ.د. يسرى جبر","category":"حديث"},{"id":"cv27dIwEdyI","title":"شرح صحيح البخاري كتاب الأدب من باب ١٩","publishedAt":"2018-08-28T16:47:53Z","duration":"PT39M48S","thumbnail":"https://i.ytimg.com/vi/cv27dIwEdyI/mqdefault.jpg","viewCount":"802","playlistId":"PLEkQk5xrP-tlEerGoLa1AFy-2XvQ-sovv","playlistName":"شرح صحيح البخاري - أ.د. يسري جبر (كاملا)","category":"حديث"},{"id":"YKcj3K2aaug","title":"مقرأة سورة فاطر من آية ٣٩","publishedAt":"2018-08-28T07:52:23Z","duration":"PT14M45S","thumbnail":"https://i.ytimg.com/vi/YKcj3K2aaug/mqdefault.jpg","viewCount":"203","playlistId":"PLEkQk5xrP-tnmTYsyW6xNdyfhPq0Bhrhj","playlistName":"مقرأة الفجر - القُرْآنُ الكَرِيمُ - خَتْمَةُ التَّدَبُّرِ  أ.د. يسري جبر","category":"متنوع"}],"total":7670,"page":181,"pageSize":24,"totalPages":320}