{"items":[{"id":"k1U-zvD2w0o","title":"384- لا يَلِجُ النارَ رجلٌ بكَى من خَشيَةِ الله حتى يعودَ اللبَنُ في الضَّرْعِ - شرح دليل الفالحين","publishedAt":"2023-01-17T09:00:21Z","duration":"PT25M13S","thumbnail":"https://i.ytimg.com/vi/k1U-zvD2w0o/mqdefault.jpg","viewCount":"951","playlistId":"PLEkQk5xrP-tkc9DXvSLguqX5-FYp6ASR4","playlistName":"دليل الفالحين لطرق رياض الصالحين","category":"متنوع"},{"id":"oLShc8Cp19w","title":"10- تكملة بيان السور التي بعضها مَكِّي وبعضها مَدَني 2 - شرح الإتقان في علوم القرآن","publishedAt":"2023-01-17T05:00:26Z","duration":"PT16M13S","thumbnail":"https://i.ytimg.com/vi/oLShc8Cp19w/mqdefault.jpg","viewCount":"1009","playlistId":"PLEkQk5xrP-tlPw10KGJKagu7zm4Ry2Tge","playlistName":"شرح الإتقان في علوم القرآن","category":"تفسير"},{"id":"4A3MVkjuJaU","title":"هل النبي ﷺ هو أفضل الخلق؟","publishedAt":"2023-01-16T18:00:02Z","duration":"PT8M24S","thumbnail":"https://i.ytimg.com/vi/4A3MVkjuJaU/mqdefault.jpg","viewCount":"2387","playlistId":"PLEkQk5xrP-tlArtGpeLWaqNM7h7IDeAVC","playlistName":"خطب الجمعة أ.د. يسري جبر","category":"خطب"},{"id":"GH29_VAciqo","title":"383- ما من مَكْلُومٍ يُكْلَمُ في سبيل الله إلّا جاء يوم القيامة وكَلْمُهُ يَدْمَى-شرح دليل الفالحين","publishedAt":"2023-01-16T09:00:06Z","duration":"PT39M51S","thumbnail":"https://i.ytimg.com/vi/GH29_VAciqo/mqdefault.jpg","viewCount":"830","playlistId":"PLEkQk5xrP-tkc9DXvSLguqX5-FYp6ASR4","playlistName":"دليل الفالحين لطرق رياض الصالحين","category":"متنوع"},{"id":"A1KcTg5nF_U","title":"9- بيان السور التي بعضها مَكِّي وبعضها مَدَني - شرح الإتقان في علوم القرآن","publishedAt":"2023-01-16T05:00:08Z","duration":"PT28M23S","thumbnail":"https://i.ytimg.com/vi/A1KcTg5nF_U/mqdefault.jpg","viewCount":"1169","playlistId":"PLEkQk5xrP-tlPw10KGJKagu7zm4Ry2Tge","playlistName":"شرح الإتقان في علوم القرآن","category":"تفسير"},{"id":"y3j8lsUUglI","title":"ما الفرق بين إرادة وقدرة وعلم الله؟","publishedAt":"2023-01-15T18:00:28Z","duration":"PT12M13S","thumbnail":"https://i.ytimg.com/vi/y3j8lsUUglI/mqdefault.jpg","viewCount":"3799","playlistId":"PLEkQk5xrP-tlArtGpeLWaqNM7h7IDeAVC","playlistName":"خطب الجمعة أ.د. يسري جبر","category":"خطب"},{"id":"J9kH-KgPmK4","title":"382- أيُّ العَمَلِ أفْضَلُ؟ قال: الإِيمانُ باللَّهِ والجِهَادُ سَبيلِه - شرح دليل الفالحين","publishedAt":"2023-01-15T09:00:09Z","duration":"PT55M15S","thumbnail":"https://i.ytimg.com/vi/J9kH-KgPmK4/mqdefault.jpg","viewCount":"841","playlistId":"PLEkQk5xrP-tkc9DXvSLguqX5-FYp6ASR4","playlistName":"دليل الفالحين لطرق رياض الصالحين","category":"متنوع"},{"id":"27H7KTr27ro","title":"8- بيان ما نزل من الآيات المدنية في السور المكية - شرح الإتقان في علوم القرآن","publishedAt":"2023-01-15T05:00:00Z","duration":"PT31M6S","thumbnail":"https://i.ytimg.com/vi/27H7KTr27ro/mqdefault.jpg","viewCount":"1387","playlistId":"PLEkQk5xrP-tlPw10KGJKagu7zm4Ry2Tge","playlistName":"شرح الإتقان في علوم القرآن","category":"تفسير"},{"id":"hNJjriptGnY","title":"شرح البرهان في علوم القرآن - النوع ٢٢ - معرفة اختلاف الألفاظ بزيادة أو نقص أو تغيير ٦","publishedAt":"2019-12-28T08:15:19Z","duration":"PT14M14S","thumbnail":"https://i.ytimg.com/vi/hNJjriptGnY/mqdefault.jpg","viewCount":"389","playlistId":"PLEkQk5xrP-tnW3iBL7HkKziOFCFZbTlf0","playlistName":"شرح البرهان في علوم القرآن - أ.د. يسري جبر","category":"تفسير"},{"id":"8oscJalkqDk","title":"هل نكره شخص الكافر؟","publishedAt":"2019-12-27T16:11:16Z","duration":"PT14M28S","thumbnail":"https://i.ytimg.com/vi/8oscJalkqDk/mqdefault.jpg","viewCount":"2377","playlistId":"PLEkQk5xrP-tm8ZIu74nTOZN9KJUJu416J","playlistName":"مقاطع مُهمَّة (يُسريَّات) أ.د. يسري جبر","category":"متنوع"},{"id":"CN_nqqvKwrQ","title":"12- شرح اللؤلؤ والمرجان كتاب الإيمان من باب ٧٣","publishedAt":"2019-12-27T00:45:15Z","duration":"PT25M32S","thumbnail":"https://i.ytimg.com/vi/CN_nqqvKwrQ/mqdefault.jpg","viewCount":"1044","playlistId":"PLEkQk5xrP-tmKNjtYLfhATC37QdIsTMe0","playlistName":"شرح كتاب اللؤلؤ والمرجان فيما اتفق عليه الشيخان إماما المحدثين البخاري ومسلم. أ.د. يسري جبر","category":"حديث"},{"id":"l7OOlB9K4ww","title":"شرح كتاب دلائل الخيرات - المجلس الرابع عشر. أ.د. يسري جبر","publishedAt":"2019-12-26T18:04:59Z","duration":"PT28M4S","thumbnail":"https://i.ytimg.com/vi/l7OOlB9K4ww/mqdefault.jpg","viewCount":"11131","playlistId":"PLEkQk5xrP-tlAzcbIpuqjdFICW-knvTlR","playlistName":"شرح كتاب دلائل الخيرات وشوارق الأنوار","category":"متنوع"},{"id":"evgwU8TZgMc","title":"‎شرح صحيح الإمام البخاري رضي الله تعالى عنه - كتابُ الاعتصَامِ بالكِتابِ والسُّنَّةِ. أ.د. يسري جبر","publishedAt":"2019-12-26T08:29:54Z","duration":"PT30M54S","thumbnail":"https://i.ytimg.com/vi/evgwU8TZgMc/mqdefault.jpg","viewCount":"431","playlistId":"PLEkQk5xrP-tmJuzaj4GWRenFoFx9gdbFX","playlistName":"شرح كتاب صحيح الإمام البخاري رضي الله تعالى عنه   أ.د. يسرى جبر","category":"حديث"},{"id":"Uluzgse_D6M","title":"الإحسان.  أ.د. يسري جبر","publishedAt":"2019-12-25T09:10:49Z","duration":"PT37M27S","thumbnail":"https://i.ytimg.com/vi/Uluzgse_D6M/mqdefault.jpg","viewCount":"2812","playlistId":"PLEkQk5xrP-tlArtGpeLWaqNM7h7IDeAVC","playlistName":"خطب الجمعة أ.د. يسري جبر","category":"خطب"},{"id":"ts8VX83ACHA","title":"11- شرح اللؤلؤ والمرجان كتاب الإيمان من باب ٦٥","publishedAt":"2019-12-24T17:45:21Z","duration":"PT42M50S","thumbnail":"https://i.ytimg.com/vi/ts8VX83ACHA/mqdefault.jpg","viewCount":"1325","playlistId":"PLEkQk5xrP-tmKNjtYLfhATC37QdIsTMe0","playlistName":"شرح كتاب اللؤلؤ والمرجان فيما اتفق عليه الشيخان إماما المحدثين البخاري ومسلم. أ.د. يسري جبر","category":"حديث"},{"id":"T1nztzuCus8","title":"أَحَبَّ اللهُ مَن أَحَبَّ حُسَيْنًا.    أ.د. يسري جبر","publishedAt":"2019-12-24T16:56:11Z","duration":"PT35M4S","thumbnail":"https://i.ytimg.com/vi/T1nztzuCus8/mqdefault.jpg","viewCount":"6183","playlistId":"PLEkQk5xrP-tm8ZIu74nTOZN9KJUJu416J","playlistName":"مقاطع مُهمَّة (يُسريَّات) أ.د. يسري جبر","category":"متنوع"},{"id":"mkH8-ETIq-8","title":"شرح البرهان في علوم القرآن - النوع ٢٢ - معرفة اختلاف الألفاظ بزيادة أو نقص أو تغيير ٤","publishedAt":"2019-12-24T07:47:48Z","duration":"PT20M15S","thumbnail":"https://i.ytimg.com/vi/mkH8-ETIq-8/mqdefault.jpg","viewCount":"436","playlistId":"PLEkQk5xrP-tnW3iBL7HkKziOFCFZbTlf0","playlistName":"شرح البرهان في علوم القرآن - أ.د. يسري جبر","category":"تفسير"},{"id":"nGWQOCumQRA","title":"10- شرح اللؤلؤ والمرجان كتاب الإيمان من باب ٥٣","publishedAt":"2019-12-23T18:58:02Z","duration":"PT26M45S","thumbnail":"https://i.ytimg.com/vi/nGWQOCumQRA/mqdefault.jpg","viewCount":"1311","playlistId":"PLEkQk5xrP-tmKNjtYLfhATC37QdIsTMe0","playlistName":"شرح كتاب اللؤلؤ والمرجان فيما اتفق عليه الشيخان إماما المحدثين البخاري ومسلم. أ.د. يسري جبر","category":"حديث"},{"id":"UVBjOS5ZVZo","title":"شرح البرهان في علوم القرآن - النوع ٢٢ - معرفة اختلاف الألفاظ بزيادة أو نقص أو تغيير ٣","publishedAt":"2019-12-23T09:07:20Z","duration":"PT22M4S","thumbnail":"https://i.ytimg.com/vi/UVBjOS5ZVZo/mqdefault.jpg","viewCount":"424","playlistId":"PLEkQk5xrP-tnW3iBL7HkKziOFCFZbTlf0","playlistName":"شرح البرهان في علوم القرآن - أ.د. يسري جبر","category":"تفسير"},{"id":"E-NaKylk46k","title":"الرسالة القشيرية - المجلس (74) بَابُ الحرية . أ.د. يسري جبر","publishedAt":"2019-12-22T18:57:39Z","duration":"PT37M42S","thumbnail":"https://i.ytimg.com/vi/E-NaKylk46k/mqdefault.jpg","viewCount":"3161","playlistId":"PLEkQk5xrP-tkHAGOwIKr4pc5ehhyQ5HMJ","playlistName":"كتاب الرسالة القشيرية (تصوف) - د. يسري جبر","category":"تصوف"},{"id":"50eTflHCQf4","title":"شرح مسند الإمام محمد بن إدريس الشافعيّ رضي الله تعالى عنه - المجلس السابع  أ.د. يسري جبر","publishedAt":"2019-12-22T12:00:12Z","duration":"PT51M56S","thumbnail":"https://i.ytimg.com/vi/50eTflHCQf4/mqdefault.jpg","viewCount":"991","playlistId":"PLEkQk5xrP-tlDtaqY0qhNXAiZ19gaGzKI","playlistName":"شرح مسند الإمام محمد بن إدريس الشافعيّ رضي الله تعالى عنه","category":"فقه"},{"id":"lKyrvbZNhTE","title":"‎شرح صحيح الإمام البخاري رضي الله تعالى عنه - كتابُ الاعتصَامِ بالكِتَابِ والسُّنَّةِ. أ.د. يسري جبر","publishedAt":"2019-12-21T17:46:04Z","duration":"PT32M4S","thumbnail":"https://i.ytimg.com/vi/lKyrvbZNhTE/mqdefault.jpg","viewCount":"370","playlistId":"PLEkQk5xrP-tmJuzaj4GWRenFoFx9gdbFX","playlistName":"شرح كتاب صحيح الإمام البخاري رضي الله تعالى عنه   أ.د. يسرى جبر","category":"حديث"},{"id":"gpFMv41opr4","title":"166- \"سَبْعَةٌ يُظِلُّهُمُ اللَّهُ في ظِلِّهِ، يَومَ لا ظِلَّ إِلَّا ظِلُّهُ…\" - شرح دليل الفالحين","publishedAt":"2021-12-08T20:39:37Z","duration":"PT44M48S","thumbnail":"https://i.ytimg.com/vi/gpFMv41opr4/mqdefault.jpg","viewCount":"1291","playlistId":"PLEkQk5xrP-tkc9DXvSLguqX5-FYp6ASR4","playlistName":"دليل الفالحين لطرق رياض الصالحين","category":"متنوع"},{"id":"_qy5rsOD0Wg","title":"165- الحُبُّ في الله والحَثُّ عليه - شرح دليل الفالحين","publishedAt":"2021-12-08T06:46:29Z","duration":"PT28M57S","thumbnail":"https://i.ytimg.com/vi/_qy5rsOD0Wg/mqdefault.jpg","viewCount":"1346","playlistId":"PLEkQk5xrP-tkc9DXvSLguqX5-FYp6ASR4","playlistName":"دليل الفالحين لطرق رياض الصالحين","category":"متنوع"}],"total":7670,"page":319,"pageSize":24,"totalPages":320}