{"items":[{"id":"MeLga30kFd4","title":"535- ما يحتاج إليه المُفسِّر - شرح البرهان في علوم القرآن","publishedAt":"2022-07-01T05:00:07Z","duration":"PT30M22S","thumbnail":"https://i.ytimg.com/vi/MeLga30kFd4/mqdefault.jpg","viewCount":"721","playlistId":"PLEkQk5xrP-tnW3iBL7HkKziOFCFZbTlf0","playlistName":"شرح البرهان في علوم القرآن - أ.د. يسري جبر","category":"تفسير"},{"id":"JPexzZ7v50Q","title":"هل المرأة غير المحجبة تدخل النار؟","publishedAt":"2022-06-30T18:30:30Z","duration":"PT9M35S","thumbnail":"https://i.ytimg.com/vi/JPexzZ7v50Q/mqdefault.jpg","viewCount":"13650","playlistId":"PLEkQk5xrP-tm8ZIu74nTOZN9KJUJu416J","playlistName":"مقاطع مُهمَّة (يُسريَّات) أ.د. يسري جبر","category":"متنوع"},{"id":"XQoyyGJDbJs","title":"274- التبشيرُ بالجَنَّة - شرح دليل الفالحين","publishedAt":"2022-06-30T05:30:06Z","duration":"PT50M22S","thumbnail":"https://i.ytimg.com/vi/XQoyyGJDbJs/mqdefault.jpg","viewCount":"1572","playlistId":"PLEkQk5xrP-tkc9DXvSLguqX5-FYp6ASR4","playlistName":"دليل الفالحين لطرق رياض الصالحين","category":"متنوع"},{"id":"WclSUB4iS8A","title":"هل التعصب الديني يؤدي إلى التطرف؟","publishedAt":"2022-06-29T18:36:35Z","duration":"PT9M19S","thumbnail":"https://i.ytimg.com/vi/WclSUB4iS8A/mqdefault.jpg","viewCount":"4552","playlistId":"PLEkQk5xrP-tkGXuZ9atE3k_7it12rUPTs","playlistName":"أسئلة المتابعين","category":"متنوع"},{"id":"clC8pIt4cSE","title":"534- حذف المفضول إذا دلَّ عليه دليل - شرح البرهان في علوم القرآن","publishedAt":"2022-06-29T05:15:02Z","duration":"PT23M59S","thumbnail":"https://i.ytimg.com/vi/clC8pIt4cSE/mqdefault.jpg","viewCount":"744","playlistId":"PLEkQk5xrP-tnW3iBL7HkKziOFCFZbTlf0","playlistName":"شرح البرهان في علوم القرآن - أ.د. يسري جبر","category":"تفسير"},{"id":"CjE0SEir3Ak","title":"كيف تعالج الاكتئاب؟","publishedAt":"2022-06-28T19:00:03Z","duration":"PT9M11S","thumbnail":"https://i.ytimg.com/vi/CjE0SEir3Ak/mqdefault.jpg","viewCount":"73423","playlistId":"PLEkQk5xrP-tkGXuZ9atE3k_7it12rUPTs","playlistName":"أسئلة المتابعين","category":"متنوع"},{"id":"fW_0xDoRH-8","title":"السؤال بأسماء الله تعالى والاستعاذة بها","publishedAt":"2022-06-28T05:00:15Z","duration":"PT49M8S","thumbnail":"https://i.ytimg.com/vi/fW_0xDoRH-8/mqdefault.jpg","viewCount":"5414","playlistId":"PLEkQk5xrP-tmJuzaj4GWRenFoFx9gdbFX","playlistName":"شرح كتاب صحيح الإمام البخاري رضي الله تعالى عنه   أ.د. يسرى جبر","category":"حديث"},{"id":"ggVJw5A7eBE","title":"الرد على الوهابية في قضية الحلول والاتحاد","publishedAt":"2022-06-27T19:20:49Z","duration":"PT9M12S","thumbnail":"https://i.ytimg.com/vi/ggVJw5A7eBE/mqdefault.jpg","viewCount":"23485","playlistId":"PLEkQk5xrP-tm8ZIu74nTOZN9KJUJu416J","playlistName":"مقاطع مُهمَّة (يُسريَّات) أ.د. يسري جبر","category":"متنوع"},{"id":"-naQ4Xe9EFc","title":"273- استحباب التبشير والتهنئة بالخير - شرح دليل الفالحين","publishedAt":"2022-06-27T05:00:00Z","duration":"PT54M13S","thumbnail":"https://i.ytimg.com/vi/-naQ4Xe9EFc/mqdefault.jpg","viewCount":"1310","playlistId":"PLEkQk5xrP-tkc9DXvSLguqX5-FYp6ASR4","playlistName":"دليل الفالحين لطرق رياض الصالحين","category":"متنوع"},{"id":"0uHE47sv9C4","title":"كيف أخذ النبي ﷺ بالأسباب في حياته؟","publishedAt":"2022-06-26T19:15:00Z","duration":"PT21M9S","thumbnail":"https://i.ytimg.com/vi/0uHE47sv9C4/mqdefault.jpg","viewCount":"4999","playlistId":"PLEkQk5xrP-tlArtGpeLWaqNM7h7IDeAVC","playlistName":"خطب الجمعة أ.د. يسري جبر","category":"خطب"},{"id":"6O819dWuY1U","title":"533- معنى كلمة \"وَدَّ\" - شرح كتاب البرهان في علوم القرآن","publishedAt":"2022-06-26T05:00:05Z","duration":"PT16M56S","thumbnail":"https://i.ytimg.com/vi/6O819dWuY1U/mqdefault.jpg","viewCount":"1010","playlistId":"PLEkQk5xrP-tnW3iBL7HkKziOFCFZbTlf0","playlistName":"شرح البرهان في علوم القرآن - أ.د. يسري جبر","category":"تفسير"},{"id":"684VYcPo-OI","title":"كيف تأخذ بالأسباب ولا تعتمد عليها؟","publishedAt":"2022-06-25T18:02:19Z","duration":"PT20M26S","thumbnail":"https://i.ytimg.com/vi/684VYcPo-OI/mqdefault.jpg","viewCount":"21508","playlistId":"PLEkQk5xrP-tlArtGpeLWaqNM7h7IDeAVC","playlistName":"خطب الجمعة أ.د. يسري جبر","category":"خطب"},{"id":"M6lZ_zWxT5k","title":"قوله تعالى \"وَكَانَ ٱللَّهُ سَمِیعَۢا بَصِيرًا\"","publishedAt":"2022-06-25T05:00:07Z","duration":"PT42M31S","thumbnail":"https://i.ytimg.com/vi/M6lZ_zWxT5k/mqdefault.jpg","viewCount":"2006","playlistId":"PLEkQk5xrP-tmJuzaj4GWRenFoFx9gdbFX","playlistName":"شرح كتاب صحيح الإمام البخاري رضي الله تعالى عنه   أ.د. يسرى جبر","category":"حديث"},{"id":"HMGWfzLIkv8","title":"ما هي أوصاف قطب الزمان؟","publishedAt":"2022-06-24T19:00:00Z","duration":"PT15M17S","thumbnail":"https://i.ytimg.com/vi/HMGWfzLIkv8/mqdefault.jpg","viewCount":"70233","playlistId":"PLEkQk5xrP-tkGXuZ9atE3k_7it12rUPTs","playlistName":"أسئلة المتابعين","category":"متنوع"},{"id":"mhgJnelXzaU","title":"272- إكرامُ الضيف - شرح دليل الفالحين","publishedAt":"2022-06-24T05:00:19Z","duration":"PT45M12S","thumbnail":"https://i.ytimg.com/vi/mhgJnelXzaU/mqdefault.jpg","viewCount":"1097","playlistId":"PLEkQk5xrP-tkc9DXvSLguqX5-FYp6ASR4","playlistName":"دليل الفالحين لطرق رياض الصالحين","category":"متنوع"},{"id":"otIDeLITdno","title":"9- الخريدة البهيَّة - الوُجود والقِدَم","publishedAt":"2022-06-23T21:17:48Z","duration":"PT56M7S","thumbnail":"https://i.ytimg.com/vi/otIDeLITdno/mqdefault.jpg","viewCount":"2877","playlistId":"PLEkQk5xrP-tmNuYT8JAh6clwa4krsgkNo","playlistName":"شرح كتاب الفُتُوحات اليُسريَّة في عقائد الأُمَّة المُحمَّديَّة","category":"متنوع"},{"id":"C-t-GNx_J8s","title":"532- معنى كلمة \"وَعَدَ\" - شرح كتاب البرهان في علوم القرآن","publishedAt":"2022-06-23T05:15:01Z","duration":"PT13M58S","thumbnail":"https://i.ytimg.com/vi/C-t-GNx_J8s/mqdefault.jpg","viewCount":"713","playlistId":"PLEkQk5xrP-tnW3iBL7HkKziOFCFZbTlf0","playlistName":"شرح البرهان في علوم القرآن - أ.د. يسري جبر","category":"تفسير"},{"id":"bvEjUAB1Si8","title":"ختام الرسالة القشيرية - المجلس (120) بَابُ الوصية للمريدين ۲ | أ.د. يسري جبر","publishedAt":"2022-06-22T18:13:33Z","duration":"PT1H22M50S","thumbnail":"https://i.ytimg.com/vi/bvEjUAB1Si8/mqdefault.jpg","viewCount":"29195","playlistId":"PLEkQk5xrP-tkHAGOwIKr4pc5ehhyQ5HMJ","playlistName":"كتاب الرسالة القشيرية (تصوف) - د. يسري جبر","category":"تصوف"},{"id":"i_XeUYyKXc4","title":"271- الوَقَار والسَّكِينة - شرح دليل الفالحين","publishedAt":"2022-06-22T05:15:03Z","duration":"PT32M56S","thumbnail":"https://i.ytimg.com/vi/i_XeUYyKXc4/mqdefault.jpg","viewCount":"1760","playlistId":"PLEkQk5xrP-tkc9DXvSLguqX5-FYp6ASR4","playlistName":"دليل الفالحين لطرق رياض الصالحين","category":"متنوع"},{"id":"RE82pE8U8OA","title":"ما هي آداب التصوف؟","publishedAt":"2022-06-21T19:10:43Z","duration":"PT22M42S","thumbnail":"https://i.ytimg.com/vi/RE82pE8U8OA/mqdefault.jpg","viewCount":"21663","playlistId":"PLEkQk5xrP-tm8ZIu74nTOZN9KJUJu416J","playlistName":"مقاطع مُهمَّة (يُسريَّات) أ.د. يسري جبر","category":"متنوع"},{"id":"-S3Oq6ZE6lU","title":"531- معنى كلمة \"سأل\" - شرح دليل الفالحين","publishedAt":"2022-06-21T05:00:00Z","duration":"PT8M59S","thumbnail":"https://i.ytimg.com/vi/-S3Oq6ZE6lU/mqdefault.jpg","viewCount":"948","playlistId":"PLEkQk5xrP-tnW3iBL7HkKziOFCFZbTlf0","playlistName":"شرح البرهان في علوم القرآن - أ.د. يسري جبر","category":"تفسير"},{"id":"RbFbsr_lvWk","title":"كيف تعالج قسوة القلب؟","publishedAt":"2022-06-20T18:30:33Z","duration":"PT11M26S","thumbnail":"https://i.ytimg.com/vi/RbFbsr_lvWk/mqdefault.jpg","viewCount":"12917","playlistId":"PLEkQk5xrP-tm8ZIu74nTOZN9KJUJu416J","playlistName":"مقاطع مُهمَّة (يُسريَّات) أ.د. يسري جبر","category":"متنوع"},{"id":"mmS0Ig7yWYE","title":"270- إصغاءُ الجَليسِ لحديثِ جَليسهِ الذي ليس بحرام - شرح دليل الفالحين","publishedAt":"2022-06-20T05:16:00Z","duration":"PT1H6M28S","thumbnail":"https://i.ytimg.com/vi/mmS0Ig7yWYE/mqdefault.jpg","viewCount":"1114","playlistId":"PLEkQk5xrP-tkc9DXvSLguqX5-FYp6ASR4","playlistName":"دليل الفالحين لطرق رياض الصالحين","category":"متنوع"},{"id":"9XD6Kbvjg98","title":"ما هو نسب الدكتور يسري جبر؟","publishedAt":"2022-06-19T19:30:00Z","duration":"PT8M13S","thumbnail":"https://i.ytimg.com/vi/9XD6Kbvjg98/mqdefault.jpg","viewCount":"26991","playlistId":"PLEkQk5xrP-tl6tFiMFGUucCTvLgnWyAfz","playlistName":"حياة الأستاذ الدكتور يسري جبر","category":"متنوع"}],"total":7670,"page":148,"pageSize":24,"totalPages":320}