{"items":[{"id":"5Hp8nVZ8Qrk","title":"434- تحريم الكذب - شرح دليل الفالحين","publishedAt":"2023-05-03T08:59:00Z","duration":"PT22M2S","thumbnail":"https://i.ytimg.com/vi/5Hp8nVZ8Qrk/mqdefault.jpg","viewCount":"1192","playlistId":"PLEkQk5xrP-tkc9DXvSLguqX5-FYp6ASR4","playlistName":"دليل الفالحين لطرق رياض الصالحين","category":"متنوع"},{"id":"v7ynP3H3xzQ","title":"59- معرفة الوقف والابتداء (2) - شرح الإتقان في علوم القرآن","publishedAt":"2023-05-03T05:00:23Z","duration":"PT42M15S","thumbnail":"https://i.ytimg.com/vi/v7ynP3H3xzQ/mqdefault.jpg","viewCount":"811","playlistId":"PLEkQk5xrP-tlPw10KGJKagu7zm4Ry2Tge","playlistName":"شرح الإتقان في علوم القرآن","category":"تفسير"},{"id":"LfmuOL4WzBg","title":"433- تحريم النميمة - شرح دليل الفالحين","publishedAt":"2023-05-02T08:59:00Z","duration":"PT30M16S","thumbnail":"https://i.ytimg.com/vi/LfmuOL4WzBg/mqdefault.jpg","viewCount":"1089","playlistId":"PLEkQk5xrP-tkc9DXvSLguqX5-FYp6ASR4","playlistName":"دليل الفالحين لطرق رياض الصالحين","category":"متنوع"},{"id":"zoBMcM4swy0","title":"58-  الوقف والابتداء - شرح الإتقان في علوم القرآن","publishedAt":"2023-05-02T05:00:25Z","duration":"PT31M3S","thumbnail":"https://i.ytimg.com/vi/zoBMcM4swy0/mqdefault.jpg","viewCount":"1041","playlistId":"PLEkQk5xrP-tlPw10KGJKagu7zm4Ry2Tge","playlistName":"شرح الإتقان في علوم القرآن","category":"تفسير"},{"id":"DqGGVU_haTc","title":"ليه الست دايما بتتألم في حياتها؟","publishedAt":"2023-05-01T18:00:09Z","duration":"PT16M34S","thumbnail":"https://i.ytimg.com/vi/DqGGVU_haTc/mqdefault.jpg","viewCount":"30145","playlistId":"PLEkQk5xrP-tm8ZIu74nTOZN9KJUJu416J","playlistName":"مقاطع مُهمَّة (يُسريَّات) أ.د. يسري جبر","category":"متنوع"},{"id":"AM4ay3a9tqU","title":"57- بِاخْتِلَافِ الْقِرَاءَاتِ يَظْهَرُ الِاخْتِلَافُ فِي الْأَحْكَام - شرح الإتقان في علوم القرآن","publishedAt":"2023-05-01T05:00:04Z","duration":"PT33M41S","thumbnail":"https://i.ytimg.com/vi/AM4ay3a9tqU/mqdefault.jpg","viewCount":"1139","playlistId":"PLEkQk5xrP-tlPw10KGJKagu7zm4Ry2Tge","playlistName":"شرح الإتقان في علوم القرآن","category":"تفسير"},{"id":"uFA1ut--7D8","title":"كيف أتعامل مع عدم نجاح أولادي في الدراسة؟","publishedAt":"2023-04-30T18:00:31Z","duration":"PT8M41S","thumbnail":"https://i.ytimg.com/vi/uFA1ut--7D8/mqdefault.jpg","viewCount":"11817","playlistId":"PLEkQk5xrP-tm8ZIu74nTOZN9KJUJu416J","playlistName":"مقاطع مُهمَّة (يُسريَّات) أ.د. يسري جبر","category":"متنوع"},{"id":"AXeiUnJfTWQ","title":"432- ما يُباحُ مِن الغِيبة - شرح دليل الفالحين","publishedAt":"2023-04-30T08:59:00Z","duration":"PT18M49S","thumbnail":"https://i.ytimg.com/vi/AXeiUnJfTWQ/mqdefault.jpg","viewCount":"1064","playlistId":"PLEkQk5xrP-tkc9DXvSLguqX5-FYp6ASR4","playlistName":"دليل الفالحين لطرق رياض الصالحين","category":"متنوع"},{"id":"VVRiF8OZd9w","title":"56- القرآن والقراءات  - شرح الإتقان في علوم القرآن","publishedAt":"2023-04-30T05:00:20Z","duration":"PT33M46S","thumbnail":"https://i.ytimg.com/vi/VVRiF8OZd9w/mqdefault.jpg","viewCount":"1069","playlistId":"PLEkQk5xrP-tlPw10KGJKagu7zm4Ry2Tge","playlistName":"شرح الإتقان في علوم القرآن","category":"تفسير"},{"id":"23d8DcjrnjE","title":"ما حكم الزواج في السر؟","publishedAt":"2023-04-29T18:00:00Z","duration":"PT8M22S","thumbnail":"https://i.ytimg.com/vi/23d8DcjrnjE/mqdefault.jpg","viewCount":"15643","playlistId":"PLEkQk5xrP-tm8ZIu74nTOZN9KJUJu416J","playlistName":"مقاطع مُهمَّة (يُسريَّات) أ.د. يسري جبر","category":"متنوع"},{"id":"zv0FDnPP7Ak","title":"الرد على اعتراضات بعض المتابعين في الفترة الأخيرة","publishedAt":"2023-04-28T18:41:19Z","duration":"PT26M24S","thumbnail":"https://i.ytimg.com/vi/zv0FDnPP7Ak/mqdefault.jpg","viewCount":"47476","playlistId":"PLEkQk5xrP-tkGXuZ9atE3k_7it12rUPTs","playlistName":"أسئلة المتابعين","category":"متنوع"},{"id":"47HJir50jes","title":"431- متى تُباح الغِيبة؟ - شرح دليل الفالحين","publishedAt":"2023-04-28T08:59:00Z","duration":"PT38M41S","thumbnail":"https://i.ytimg.com/vi/47HJir50jes/mqdefault.jpg","viewCount":"1579","playlistId":"PLEkQk5xrP-tkc9DXvSLguqX5-FYp6ASR4","playlistName":"دليل الفالحين لطرق رياض الصالحين","category":"متنوع"},{"id":"QG5do8rvqXc","title":"55- تنبيهات - شرح الإتقان في علوم القرآن","publishedAt":"2023-04-28T05:00:16Z","duration":"PT37M56S","thumbnail":"https://i.ytimg.com/vi/QG5do8rvqXc/mqdefault.jpg","viewCount":"878","playlistId":"PLEkQk5xrP-tlPw10KGJKagu7zm4Ry2Tge","playlistName":"شرح الإتقان في علوم القرآن","category":"تفسير"},{"id":"TAYOeidkm8A","title":"430- تحريم سماع الغِيبة - شرح دليل الفالحين","publishedAt":"2023-04-27T09:00:28Z","duration":"PT15M45S","thumbnail":"https://i.ytimg.com/vi/TAYOeidkm8A/mqdefault.jpg","viewCount":"1277","playlistId":"PLEkQk5xrP-tkc9DXvSLguqX5-FYp6ASR4","playlistName":"دليل الفالحين لطرق رياض الصالحين","category":"متنوع"},{"id":"kxEyWDy8Hxw","title":"54- أنواع القراءات - شرح الإتقان في علوم القرآن","publishedAt":"2023-04-27T05:00:13Z","duration":"PT12M42S","thumbnail":"https://i.ytimg.com/vi/kxEyWDy8Hxw/mqdefault.jpg","viewCount":"1095","playlistId":"PLEkQk5xrP-tlPw10KGJKagu7zm4Ry2Tge","playlistName":"شرح الإتقان في علوم القرآن","category":"تفسير"},{"id":"GDs1-DCsbuk","title":"429-أخبِرْني بعملٍ يُدخِلُني الجنَّةَ، ويباعدني منَ النَّارِ - شرح دليل  الفالحين","publishedAt":"2023-04-26T18:00:07Z","duration":"PT52M28S","thumbnail":"https://i.ytimg.com/vi/GDs1-DCsbuk/mqdefault.jpg","viewCount":"962","playlistId":"PLEkQk5xrP-tkc9DXvSLguqX5-FYp6ASR4","playlistName":"دليل الفالحين لطرق رياض الصالحين","category":"متنوع"},{"id":"72NzRMIBJi4","title":"428- ما يوجِب رضوان الله تعالى وما يوجِب سخطه - شرح دليل الفالحين","publishedAt":"2023-04-26T09:00:04Z","duration":"PT26M15S","thumbnail":"https://i.ytimg.com/vi/72NzRMIBJi4/mqdefault.jpg","viewCount":"1146","playlistId":"PLEkQk5xrP-tkc9DXvSLguqX5-FYp6ASR4","playlistName":"دليل الفالحين لطرق رياض الصالحين","category":"متنوع"},{"id":"uBaiacOIKdU","title":"427- تحريم الغِيبة والأمر بحفظ اللسان - شرح دليل الفالحين","publishedAt":"2023-04-26T05:00:32Z","duration":"PT36M45S","thumbnail":"https://i.ytimg.com/vi/uBaiacOIKdU/mqdefault.jpg","viewCount":"1138","playlistId":"PLEkQk5xrP-tkc9DXvSLguqX5-FYp6ASR4","playlistName":"دليل الفالحين لطرق رياض الصالحين","category":"متنوع"},{"id":"9vinIDSmd8I","title":"526- أَوَّلُ مَن سنَّ ركعتَي الشَّهادة - شرح دليل الفالحين","publishedAt":"2023-04-25T18:00:03Z","duration":"PT31M51S","thumbnail":"https://i.ytimg.com/vi/9vinIDSmd8I/mqdefault.jpg","viewCount":"799","playlistId":"PLEkQk5xrP-tkc9DXvSLguqX5-FYp6ASR4","playlistName":"دليل الفالحين لطرق رياض الصالحين","category":"متنوع"},{"id":"NmuMZvQmHso","title":"53- معرفة المتواتر والمشهور والآحاد والشاذ والموضوع والمدرج - شرح الإتقان في علوم القرآن","publishedAt":"2023-04-25T09:00:24Z","duration":"PT33M33S","thumbnail":"https://i.ytimg.com/vi/NmuMZvQmHso/mqdefault.jpg","viewCount":"1292","playlistId":"PLEkQk5xrP-tlPw10KGJKagu7zm4Ry2Tge","playlistName":"شرح الإتقان في علوم القرآن","category":"تفسير"},{"id":"HPnjxaeBymQ","title":"52- معرفة العالي والنازل من أسانيده - شرح الإتقان في علوم القرآن","publishedAt":"2023-04-25T05:00:10Z","duration":"PT27M25S","thumbnail":"https://i.ytimg.com/vi/HPnjxaeBymQ/mqdefault.jpg","viewCount":"924","playlistId":"PLEkQk5xrP-tlPw10KGJKagu7zm4Ry2Tge","playlistName":"شرح الإتقان في علوم القرآن","category":"تفسير"},{"id":"f9aGbGX4z6o","title":"\"الرد على المعترضين على فيديو التسمية باسم محمد \"بالدليل","publishedAt":"2023-04-20T19:20:03Z","duration":"PT10M2S","thumbnail":"https://i.ytimg.com/vi/f9aGbGX4z6o/mqdefault.jpg","viewCount":"23898","playlistId":"PLEkQk5xrP-tkGXuZ9atE3k_7it12rUPTs","playlistName":"أسئلة المتابعين","category":"متنوع"},{"id":"NGgdkTmPUVk","title":"ما هي علامات الرؤيا الصالحة؟ | مجالس رمضانية","publishedAt":"2023-04-20T15:00:16Z","duration":"PT19M18S","thumbnail":"https://i.ytimg.com/vi/NGgdkTmPUVk/mqdefault.jpg","viewCount":"8461","playlistId":"PLEkQk5xrP-tnl7vb7KeAoPd5ZlqKKW8KV","playlistName":"شرح كتاب بهجة النفوس أ.د . يسرى جبر","category":"متنوع"},{"id":"hPniFi6BW4s","title":"حكم انتساب المرء الى غير أبيه | مجالس رمضانية","publishedAt":"2023-04-20T10:00:36Z","duration":"PT52M11S","thumbnail":"https://i.ytimg.com/vi/hPniFi6BW4s/mqdefault.jpg","viewCount":"1338","playlistId":"PLEkQk5xrP-tnl7vb7KeAoPd5ZlqKKW8KV","playlistName":"شرح كتاب بهجة النفوس أ.د . يسرى جبر","category":"متنوع"}],"total":7675,"page":57,"pageSize":24,"totalPages":320}