{"items":[{"id":"D4v6bKWSPBA","title":"هل يجوز تقبيل الإبهامين عند سماع الشهادة؟","publishedAt":"2023-07-25T18:00:05Z","duration":"PT9M10S","thumbnail":"https://i.ytimg.com/vi/D4v6bKWSPBA/mqdefault.jpg","viewCount":"5779","playlistId":"PLEkQk5xrP-tkGXuZ9atE3k_7it12rUPTs","playlistName":"أسئلة المتابعين","category":"متنوع"},{"id":"5NoeWtW3zsc","title":"1- بداية شرح مسند الإمام أحمد بن حنبل والتعريف به وبيان معنى كلمة مسند والفرق بين المسند والسنن","publishedAt":"2023-07-25T08:59:00Z","duration":"PT1H5S","thumbnail":"https://i.ytimg.com/vi/5NoeWtW3zsc/mqdefault.jpg","viewCount":"6938","playlistId":"PLEkQk5xrP-tkKprIuGrSdEuBSMsyg5We1","playlistName":"شرح مسند الإمام أحمد بن حنبل","category":"متنوع"},{"id":"wK1mA-33F_I","title":"132- معاني (أَوْلَى - إِي - أَيّ) - شرح الإتقان في علوم القرآن","publishedAt":"2023-07-25T05:00:26Z","duration":"PT14M10S","thumbnail":"https://i.ytimg.com/vi/wK1mA-33F_I/mqdefault.jpg","viewCount":"448","playlistId":"PLEkQk5xrP-tlPw10KGJKagu7zm4Ry2Tge","playlistName":"شرح الإتقان في علوم القرآن","category":"تفسير"},{"id":"uh1KGSs7yTk","title":"ما حكم سماع الموسيقى أو استخدامها في عملي؟","publishedAt":"2023-07-24T18:00:33Z","duration":"PT8M8S","thumbnail":"https://i.ytimg.com/vi/uh1KGSs7yTk/mqdefault.jpg","viewCount":"11687","playlistId":"PLEkQk5xrP-tkGXuZ9atE3k_7it12rUPTs","playlistName":"أسئلة المتابعين","category":"متنوع"},{"id":"XwC_TjQKOJM","title":"505- ختام شرح دليل الفالحين والدعاء والإِجازة","publishedAt":"2023-07-24T08:59:00Z","duration":"PT53M27S","thumbnail":"https://i.ytimg.com/vi/XwC_TjQKOJM/mqdefault.jpg","viewCount":"976","playlistId":"PLEkQk5xrP-tkc9DXvSLguqX5-FYp6ASR4","playlistName":"دليل الفالحين لطرق رياض الصالحين","category":"متنوع"},{"id":"hSqDFaZkQT8","title":"131- معنى (أَو) - شرح الإتقان في علوم القرآن","publishedAt":"2023-07-24T05:00:21Z","duration":"PT19M34S","thumbnail":"https://i.ytimg.com/vi/hSqDFaZkQT8/mqdefault.jpg","viewCount":"386","playlistId":"PLEkQk5xrP-tlPw10KGJKagu7zm4Ry2Tge","playlistName":"شرح الإتقان في علوم القرآن","category":"تفسير"},{"id":"lPj9HyZw2GY","title":"كيف أتخلص من الغضب وأكون واسع الصدر؟","publishedAt":"2023-07-23T18:00:30Z","duration":"PT10M20S","thumbnail":"https://i.ytimg.com/vi/lPj9HyZw2GY/mqdefault.jpg","viewCount":"18335","playlistId":"PLEkQk5xrP-tkGXuZ9atE3k_7it12rUPTs","playlistName":"أسئلة المتابعين","category":"متنوع"},{"id":"3Bsj_t5oIcs","title":"504- بيان أقلّ  أهل الجنَّة منزلة - شرح دليل الفالحين","publishedAt":"2023-07-23T08:59:00Z","duration":"PT41M50S","thumbnail":"https://i.ytimg.com/vi/3Bsj_t5oIcs/mqdefault.jpg","viewCount":"687","playlistId":"PLEkQk5xrP-tkc9DXvSLguqX5-FYp6ASR4","playlistName":"دليل الفالحين لطرق رياض الصالحين","category":"متنوع"},{"id":"S0tXaCGG008","title":"130- معنى (أَنَّىٰ) - شرح الإتقان في علوم القرآن","publishedAt":"2023-07-23T05:00:11Z","duration":"PT5M4S","thumbnail":"https://i.ytimg.com/vi/S0tXaCGG008/mqdefault.jpg","viewCount":"401","playlistId":"PLEkQk5xrP-tlPw10KGJKagu7zm4Ry2Tge","playlistName":"شرح الإتقان في علوم القرآن","category":"تفسير"},{"id":"IEqq1thuptk","title":"هل يجوز مصافحة النساء؟","publishedAt":"2023-07-22T18:00:04Z","duration":"PT8M49S","thumbnail":"https://i.ytimg.com/vi/IEqq1thuptk/mqdefault.jpg","viewCount":"29099","playlistId":"PLEkQk5xrP-tkGXuZ9atE3k_7it12rUPTs","playlistName":"أسئلة المتابعين","category":"متنوع"},{"id":"Wytq_i_MY3Y","title":"503- بيان ما أعدَّ اللهُ تعالى للمؤمنين في الجنة - شرح دليل الفالحين","publishedAt":"2023-07-22T08:59:00Z","duration":"PT37M29S","thumbnail":"https://i.ytimg.com/vi/Wytq_i_MY3Y/mqdefault.jpg","viewCount":"910","playlistId":"PLEkQk5xrP-tkc9DXvSLguqX5-FYp6ASR4","playlistName":"دليل الفالحين لطرق رياض الصالحين","category":"متنوع"},{"id":"8EO71CtPbA0","title":"129- معنى (إِنَّ - أَنَّ) - شرح الإتقان في علوم القرآن","publishedAt":"2023-07-22T05:00:05Z","duration":"PT26M16S","thumbnail":"https://i.ytimg.com/vi/8EO71CtPbA0/mqdefault.jpg","viewCount":"398","playlistId":"PLEkQk5xrP-tlPw10KGJKagu7zm4Ry2Tge","playlistName":"شرح الإتقان في علوم القرآن","category":"تفسير"},{"id":"-Ax3PfLS16U","title":"502- فضل سيد الاستغفار - شرح دليل الفالحين","publishedAt":"2023-07-21T08:59:00Z","duration":"PT34M8S","thumbnail":"https://i.ytimg.com/vi/-Ax3PfLS16U/mqdefault.jpg","viewCount":"1113","playlistId":"PLEkQk5xrP-tkc9DXvSLguqX5-FYp6ASR4","playlistName":"دليل الفالحين لطرق رياض الصالحين","category":"متنوع"},{"id":"KNEzTwkVLXI","title":"501- فضل الاستغفار - شرح دليل الفالحين","publishedAt":"2023-07-21T05:00:20Z","duration":"PT39M3S","thumbnail":"https://i.ytimg.com/vi/KNEzTwkVLXI/mqdefault.jpg","viewCount":"2908","playlistId":"PLEkQk5xrP-tkc9DXvSLguqX5-FYp6ASR4","playlistName":"دليل الفالحين لطرق رياض الصالحين","category":"متنوع"},{"id":"g0hz2ZBXpDo","title":"تفاصيل دقيقة في الهجرة النبوية","publishedAt":"2023-07-19T18:00:17Z","duration":"PT11M59S","thumbnail":"https://i.ytimg.com/vi/g0hz2ZBXpDo/mqdefault.jpg","viewCount":"5082","playlistId":"PLEkQk5xrP-tlArtGpeLWaqNM7h7IDeAVC","playlistName":"خطب الجمعة أ.د. يسري جبر","category":"خطب"},{"id":"ZyuEAdpyK1w","title":"128- معنى (أن) - شرح الإتقان في علوم القرآن","publishedAt":"2023-07-19T05:00:14Z","duration":"PT25M57S","thumbnail":"https://i.ytimg.com/vi/ZyuEAdpyK1w/mqdefault.jpg","viewCount":"420","playlistId":"PLEkQk5xrP-tlPw10KGJKagu7zm4Ry2Tge","playlistName":"شرح الإتقان في علوم القرآن","category":"تفسير"},{"id":"EOs0Rzwi5CY","title":"كيف نستقبل العام الهجري الجديد؟","publishedAt":"2023-07-18T18:00:04Z","duration":"PT16M5S","thumbnail":"https://i.ytimg.com/vi/EOs0Rzwi5CY/mqdefault.jpg","viewCount":"7472","playlistId":"PLEkQk5xrP-tlArtGpeLWaqNM7h7IDeAVC","playlistName":"خطب الجمعة أ.د. يسري جبر","category":"خطب"},{"id":"7nqhIVH4jl0","title":"500- آللَّهُ أَمَرَكَ بهذا؟ قالَ: نَعَمْ، قالَتْ: إذَنْ لا يُضَيِّعُنَا - شرح دليل الفالحين","publishedAt":"2023-07-18T08:59:00Z","duration":"PT1H18M48S","thumbnail":"https://i.ytimg.com/vi/7nqhIVH4jl0/mqdefault.jpg","viewCount":"679","playlistId":"PLEkQk5xrP-tkc9DXvSLguqX5-FYp6ASR4","playlistName":"دليل الفالحين لطرق رياض الصالحين","category":"متنوع"},{"id":"Tufqtp93G-8","title":"127- معنى (إن) - شرح الإتقان في علوم القرآن","publishedAt":"2023-07-18T05:00:23Z","duration":"PT42M15S","thumbnail":"https://i.ytimg.com/vi/Tufqtp93G-8/mqdefault.jpg","viewCount":"377","playlistId":"PLEkQk5xrP-tlPw10KGJKagu7zm4Ry2Tge","playlistName":"شرح الإتقان في علوم القرآن","category":"تفسير"},{"id":"cXgfE6PV-RA","title":"هل الزواج أثناء الدراسة أفضل أم الدراسة ثم الزواج؟","publishedAt":"2023-07-17T18:00:15Z","duration":"PT10M2S","thumbnail":"https://i.ytimg.com/vi/cXgfE6PV-RA/mqdefault.jpg","viewCount":"8438","playlistId":"PLEkQk5xrP-tm8ZIu74nTOZN9KJUJu416J","playlistName":"مقاطع مُهمَّة (يُسريَّات) أ.د. يسري جبر","category":"متنوع"},{"id":"Gd5Z-gOBEz8","title":"الدفاع عن الصحابة وحكم الطعن فيهم!","publishedAt":"2023-07-16T18:00:12Z","duration":"PT11M12S","thumbnail":"https://i.ytimg.com/vi/Gd5Z-gOBEz8/mqdefault.jpg","viewCount":"3582","playlistId":"PLEkQk5xrP-tlArtGpeLWaqNM7h7IDeAVC","playlistName":"خطب الجمعة أ.د. يسري جبر","category":"خطب"},{"id":"qqkG3WVbaZk","title":"126- معنى (أمَّا - إِمَّا) - شرح الإتقان في علوم القرآن","publishedAt":"2023-07-16T05:05:00Z","duration":"PT13M17S","thumbnail":"https://i.ytimg.com/vi/qqkG3WVbaZk/mqdefault.jpg","viewCount":"720","playlistId":"PLEkQk5xrP-tlPw10KGJKagu7zm4Ry2Tge","playlistName":"شرح الإتقان في علوم القرآن","category":"تفسير"},{"id":"Go1kDuLuwIg","title":"ما الفرق بين الدنيا والبرزخ والبعث والنشور؟","publishedAt":"2023-07-15T18:00:05Z","duration":"PT8M21S","thumbnail":"https://i.ytimg.com/vi/Go1kDuLuwIg/mqdefault.jpg","viewCount":"6892","playlistId":"PLEkQk5xrP-tlArtGpeLWaqNM7h7IDeAVC","playlistName":"خطب الجمعة أ.د. يسري جبر","category":"خطب"},{"id":"J8FcnmC8JQ0","title":"شرح مبسط لوحدة الوجود عند الصوفية","publishedAt":"2023-07-14T18:00:06Z","duration":"PT9M7S","thumbnail":"https://i.ytimg.com/vi/J8FcnmC8JQ0/mqdefault.jpg","viewCount":"24313","playlistId":"PLEkQk5xrP-tlArtGpeLWaqNM7h7IDeAVC","playlistName":"خطب الجمعة أ.د. يسري جبر","category":"خطب"}],"total":7675,"page":50,"pageSize":24,"totalPages":320}