{"items":[{"id":"U-w37G5N84I","title":"مقرأة سورة الأنعام من آية ١٢٣","publishedAt":"2017-01-01T07:26:51Z","duration":"PT19M58S","thumbnail":"https://i.ytimg.com/vi/U-w37G5N84I/mqdefault.jpg","viewCount":"425","playlistId":"PLEkQk5xrP-tnmTYsyW6xNdyfhPq0Bhrhj","playlistName":"مقرأة الفجر - القُرْآنُ الكَرِيمُ - خَتْمَةُ التَّدَبُّرِ  أ.د. يسري جبر","category":"متنوع"},{"id":"8ek-eD34AR0","title":"شرح صحيح البخاري - كتاب فضل الصلا‎ة في مسجد مكة والمدينة","publishedAt":"2016-12-30T16:31:51Z","duration":"PT41M15S","thumbnail":"https://i.ytimg.com/vi/8ek-eD34AR0/mqdefault.jpg","viewCount":"835","playlistId":"PLEkQk5xrP-tlEerGoLa1AFy-2XvQ-sovv","playlistName":"شرح صحيح البخاري - أ.د. يسري جبر (كاملا)","category":"حديث"},{"id":"TSk_gANCWPM","title":"سورة الأنعام آية 116","publishedAt":"2016-12-30T13:24:11Z","duration":"PT22M56S","thumbnail":"https://i.ytimg.com/vi/TSk_gANCWPM/mqdefault.jpg","viewCount":"444","playlistId":"PLEkQk5xrP-tnmTYsyW6xNdyfhPq0Bhrhj","playlistName":"مقرأة الفجر - القُرْآنُ الكَرِيمُ - خَتْمَةُ التَّدَبُّرِ  أ.د. يسري جبر","category":"متنوع"},{"id":"DkXdHZXOgwg","title":"صحيح الإمام البخاري رضي الله عنه - كتاب الأدب - المجلس الثامن د. يسري جبر","publishedAt":"2016-12-29T20:16:06Z","duration":"PT20M47S","thumbnail":"https://i.ytimg.com/vi/DkXdHZXOgwg/mqdefault.jpg","viewCount":"234","playlistId":"PLEkQk5xrP-tmJuzaj4GWRenFoFx9gdbFX","playlistName":"شرح كتاب صحيح الإمام البخاري رضي الله تعالى عنه   أ.د. يسرى جبر","category":"حديث"},{"id":"PcfPUOvVSG8","title":"شرح صحيح البخاري - كتاب التهجد من باب ٣٣","publishedAt":"2016-12-29T11:25:43Z","duration":"PT28M45S","thumbnail":"https://i.ytimg.com/vi/PcfPUOvVSG8/mqdefault.jpg","viewCount":"895","playlistId":"PLEkQk5xrP-tlEerGoLa1AFy-2XvQ-sovv","playlistName":"شرح صحيح البخاري - أ.د. يسري جبر (كاملا)","category":"حديث"},{"id":"1bQUxIXsmEs","title":"مقرأة سورة الأنعام من آية ١١١","publishedAt":"2016-12-29T07:39:23Z","duration":"PT25M11S","thumbnail":"https://i.ytimg.com/vi/1bQUxIXsmEs/mqdefault.jpg","viewCount":"460","playlistId":"PLEkQk5xrP-tnmTYsyW6xNdyfhPq0Bhrhj","playlistName":"مقرأة الفجر - القُرْآنُ الكَرِيمُ - خَتْمَةُ التَّدَبُّرِ  أ.د. يسري جبر","category":"متنوع"},{"id":"onnYAvLh9uA","title":"شرح صحيح البخاري - كتاب التهجد من باب ٢٣","publishedAt":"2016-12-28T15:49:37Z","duration":"PT35M54S","thumbnail":"https://i.ytimg.com/vi/onnYAvLh9uA/mqdefault.jpg","viewCount":"911","playlistId":"PLEkQk5xrP-tlEerGoLa1AFy-2XvQ-sovv","playlistName":"شرح صحيح البخاري - أ.د. يسري جبر (كاملا)","category":"حديث"},{"id":"8evYo7s2lYk","title":"مقرأة سورة الأنعام من آية 106","publishedAt":"2016-12-28T11:44:40Z","duration":"PT26M39S","thumbnail":"https://i.ytimg.com/vi/8evYo7s2lYk/mqdefault.jpg","viewCount":"449","playlistId":"PLEkQk5xrP-tnmTYsyW6xNdyfhPq0Bhrhj","playlistName":"مقرأة الفجر - القُرْآنُ الكَرِيمُ - خَتْمَةُ التَّدَبُّرِ  أ.د. يسري جبر","category":"متنوع"},{"id":"q0lREIF_zws","title":"شرح صحيح البخاري - كتاب التهجد من باب ١٤","publishedAt":"2016-12-27T12:09:54Z","duration":"PT38M38S","thumbnail":"https://i.ytimg.com/vi/q0lREIF_zws/mqdefault.jpg","viewCount":"984","playlistId":"PLEkQk5xrP-tlEerGoLa1AFy-2XvQ-sovv","playlistName":"شرح صحيح البخاري - أ.د. يسري جبر (كاملا)","category":"حديث"},{"id":"96DO2v2tLdE","title":"سورة الأنعام آية 103","publishedAt":"2016-12-27T07:35:25Z","duration":"PT25M31S","thumbnail":"https://i.ytimg.com/vi/96DO2v2tLdE/mqdefault.jpg","viewCount":"414","playlistId":"PLEkQk5xrP-tnmTYsyW6xNdyfhPq0Bhrhj","playlistName":"مقرأة الفجر - القُرْآنُ الكَرِيمُ - خَتْمَةُ التَّدَبُّرِ  أ.د. يسري جبر","category":"متنوع"},{"id":"Ls1bmoyeGbQ","title":"صحيح الإمام البخاري رضي الله عنه - كتاب الأدب - المجلس السابع  د. يسري جبر","publishedAt":"2016-12-26T19:41:30Z","duration":"PT29M44S","thumbnail":"https://i.ytimg.com/vi/Ls1bmoyeGbQ/mqdefault.jpg","viewCount":"137","playlistId":"PLEkQk5xrP-tmJuzaj4GWRenFoFx9gdbFX","playlistName":"شرح كتاب صحيح الإمام البخاري رضي الله تعالى عنه   أ.د. يسرى جبر","category":"حديث"},{"id":"9Ita1ZgEBUM","title":"شرح صحيح البخاري - كتاب التهجد من باب ٥","publishedAt":"2016-12-26T13:01:28Z","duration":"PT36M10S","thumbnail":"https://i.ytimg.com/vi/9Ita1ZgEBUM/mqdefault.jpg","viewCount":"1149","playlistId":"PLEkQk5xrP-tlEerGoLa1AFy-2XvQ-sovv","playlistName":"شرح صحيح البخاري - أ.د. يسري جبر (كاملا)","category":"حديث"},{"id":"BcROrvlAO30","title":"مقرأة سورة الأنعام من آية ٩٩","publishedAt":"2016-12-26T07:00:28Z","duration":"PT25M42S","thumbnail":"https://i.ytimg.com/vi/BcROrvlAO30/mqdefault.jpg","viewCount":"901","playlistId":"PLEkQk5xrP-tnmTYsyW6xNdyfhPq0Bhrhj","playlistName":"مقرأة الفجر - القُرْآنُ الكَرِيمُ - خَتْمَةُ التَّدَبُّرِ  أ.د. يسري جبر","category":"متنوع"},{"id":"LNAVUNEs96M","title":"شرح صحيح البخاري - كتاب التهجد من أوله","publishedAt":"2016-12-26T01:04:28Z","duration":"PT39M30S","thumbnail":"https://i.ytimg.com/vi/LNAVUNEs96M/mqdefault.jpg","viewCount":"1331","playlistId":"PLEkQk5xrP-tlEerGoLa1AFy-2XvQ-sovv","playlistName":"شرح صحيح البخاري - أ.د. يسري جبر (كاملا)","category":"حديث"},{"id":"nfbqjHV_bmE","title":"الروحانية المحمدية في القرآن الكريم   د. يسري جبر","publishedAt":"2016-12-25T19:19:50Z","duration":"PT51M4S","thumbnail":"https://i.ytimg.com/vi/nfbqjHV_bmE/mqdefault.jpg","viewCount":"39712","playlistId":"PLEkQk5xrP-tlArtGpeLWaqNM7h7IDeAVC","playlistName":"خطب الجمعة أ.د. يسري جبر","category":"خطب"},{"id":"u4qsu0Bs7Js","title":"سورة الأنعام آية 95","publishedAt":"2016-12-25T17:14:17Z","duration":"PT17M39S","thumbnail":"https://i.ytimg.com/vi/u4qsu0Bs7Js/mqdefault.jpg","viewCount":"387","playlistId":"PLEkQk5xrP-tnmTYsyW6xNdyfhPq0Bhrhj","playlistName":"مقرأة الفجر - القُرْآنُ الكَرِيمُ - خَتْمَةُ التَّدَبُّرِ  أ.د. يسري جبر","category":"متنوع"},{"id":"kRKj6k9kEZ8","title":"37- الرُّخْصَةِ فِى الْقُبْلَةِ لِلصَّائِمِ كتاب الصيام ك الموطأ د يسري جبر الأزهري","publishedAt":"2016-12-24T13:12:14Z","duration":"PT1H9M47S","thumbnail":"https://i.ytimg.com/vi/kRKj6k9kEZ8/mqdefault.jpg","viewCount":"446","playlistId":"PLEkQk5xrP-tnC6BRuqMjyO-484iqXeg0o","playlistName":"شرح كتاب الموطأ للإمام مالك","category":"متنوع"},{"id":"N4ZP7IvK_5A","title":"شرح صحيح البخاري - كتاب التقصير من باب ١٤","publishedAt":"2016-12-24T09:51:15Z","duration":"PT25M1S","thumbnail":"https://i.ytimg.com/vi/N4ZP7IvK_5A/mqdefault.jpg","viewCount":"727","playlistId":"PLEkQk5xrP-tlEerGoLa1AFy-2XvQ-sovv","playlistName":"شرح صحيح البخاري - أ.د. يسري جبر (كاملا)","category":"حديث"},{"id":"f6s4qXLLYVw","title":"سورة الأنعام آية 91","publishedAt":"2016-12-24T07:06:57Z","duration":"PT22M42S","thumbnail":"https://i.ytimg.com/vi/f6s4qXLLYVw/mqdefault.jpg","viewCount":"442","playlistId":"PLEkQk5xrP-tnmTYsyW6xNdyfhPq0Bhrhj","playlistName":"مقرأة الفجر - القُرْآنُ الكَرِيمُ - خَتْمَةُ التَّدَبُّرِ  أ.د. يسري جبر","category":"متنوع"},{"id":"HWUXrFDOC_8","title":"شرح صحيح البخاري - كتاب التقصير من باب ٧","publishedAt":"2016-12-23T08:03:50Z","duration":"PT27M50S","thumbnail":"https://i.ytimg.com/vi/HWUXrFDOC_8/mqdefault.jpg","viewCount":"846","playlistId":"PLEkQk5xrP-tlEerGoLa1AFy-2XvQ-sovv","playlistName":"شرح صحيح البخاري - أ.د. يسري جبر (كاملا)","category":"حديث"},{"id":"P7s8oeGE_4U","title":"سورة الأنعام آية 84","publishedAt":"2016-12-23T07:07:55Z","duration":"PT9M22S","thumbnail":"https://i.ytimg.com/vi/P7s8oeGE_4U/mqdefault.jpg","viewCount":"443","playlistId":"PLEkQk5xrP-tnmTYsyW6xNdyfhPq0Bhrhj","playlistName":"مقرأة الفجر - القُرْآنُ الكَرِيمُ - خَتْمَةُ التَّدَبُّرِ  أ.د. يسري جبر","category":"متنوع"},{"id":"OMxh6TYSigk","title":"صحيح الإمام البخاري رضي الله عنه - كتاب الأدب - المجلس السادس د. يسري جبر","publishedAt":"2016-12-22T17:56:45Z","duration":"PT37M3S","thumbnail":"https://i.ytimg.com/vi/OMxh6TYSigk/mqdefault.jpg","viewCount":"219","playlistId":"PLEkQk5xrP-tmJuzaj4GWRenFoFx9gdbFX","playlistName":"شرح كتاب صحيح الإمام البخاري رضي الله تعالى عنه   أ.د. يسرى جبر","category":"حديث"},{"id":"1wB9ywdEOnY","title":"شرح صحيح البخاري - كتاب تقصير الصلا‎ة من أوله","publishedAt":"2016-12-22T08:43:44Z","duration":"PT39M11S","thumbnail":"https://i.ytimg.com/vi/1wB9ywdEOnY/mqdefault.jpg","viewCount":"1050","playlistId":"PLEkQk5xrP-tlEerGoLa1AFy-2XvQ-sovv","playlistName":"شرح صحيح البخاري - أ.د. يسري جبر (كاملا)","category":"حديث"},{"id":"7E4ATqhY8AM","title":"سورة الأنعام آية 80","publishedAt":"2016-12-22T06:39:20Z","duration":"PT14M15S","thumbnail":"https://i.ytimg.com/vi/7E4ATqhY8AM/mqdefault.jpg","viewCount":"1253","playlistId":"PLEkQk5xrP-tnmTYsyW6xNdyfhPq0Bhrhj","playlistName":"مقرأة الفجر - القُرْآنُ الكَرِيمُ - خَتْمَةُ التَّدَبُّرِ  أ.د. يسري جبر","category":"متنوع"}],"total":7670,"page":159,"pageSize":24,"totalPages":320}