{"items":[{"id":"8JxPxc_NBDw","title":"القِسمُ التاسع من التوكيد: وضع الظاهر موضع المُضْمَر (6) شرح البرهان في علوم القرآن","publishedAt":"2021-03-31T18:10:55Z","duration":"PT30M59S","thumbnail":"https://i.ytimg.com/vi/8JxPxc_NBDw/mqdefault.jpg","viewCount":"305","playlistId":"PLEkQk5xrP-tnW3iBL7HkKziOFCFZbTlf0","playlistName":"شرح البرهان في علوم القرآن - أ.د. يسري جبر","category":"تفسير"},{"id":"k7W8mMw6LdM","title":"37- بابُ الصَّبر: الحديثُ الرابع\"..ليسَ علَى أبِيكِ كَرْبٌ بَعْدَ اليَومِ..\"شرح دليل الفالحين","publishedAt":"2021-03-31T05:54:07Z","duration":"PT22M55S","thumbnail":"https://i.ytimg.com/vi/k7W8mMw6LdM/mqdefault.jpg","viewCount":"1046","playlistId":"PLEkQk5xrP-tkc9DXvSLguqX5-FYp6ASR4","playlistName":"دليل الفالحين لطرق رياض الصالحين","category":"متنوع"},{"id":"XAD_FP-wuI4","title":"حكم ختان الإناث","publishedAt":"2021-03-30T20:00:06Z","duration":"PT8M23S","thumbnail":"https://i.ytimg.com/vi/XAD_FP-wuI4/mqdefault.jpg","viewCount":"54386","playlistId":"PLEkQk5xrP-tm8ZIu74nTOZN9KJUJu416J","playlistName":"مقاطع مُهمَّة (يُسريَّات) أ.د. يسري جبر","category":"متنوع"},{"id":"9um22N8G8-4","title":"القِسمُ التاسع من التوكيد: وضع الظاهر موضع المُضْمَر (5) شرح البرهان في علوم القرآن","publishedAt":"2021-03-30T06:33:15Z","duration":"PT13M27S","thumbnail":"https://i.ytimg.com/vi/9um22N8G8-4/mqdefault.jpg","viewCount":"345","playlistId":"PLEkQk5xrP-tnW3iBL7HkKziOFCFZbTlf0","playlistName":"شرح البرهان في علوم القرآن - أ.د. يسري جبر","category":"تفسير"},{"id":"YWi9EJdROWU","title":"سُورة البقرة آية 67","publishedAt":"2016-04-22T20:22:40Z","duration":"PT25M8S","thumbnail":"https://i.ytimg.com/vi/YWi9EJdROWU/mqdefault.jpg","viewCount":"1709","playlistId":"PLEkQk5xrP-tnmTYsyW6xNdyfhPq0Bhrhj","playlistName":"مقرأة الفجر - القُرْآنُ الكَرِيمُ - خَتْمَةُ التَّدَبُّرِ  أ.د. يسري جبر","category":"متنوع"},{"id":"NmRcTsStrAE","title":"درس الجمعة ١٥ رجب ١٤٣٧هـ","publishedAt":"2016-04-22T19:35:36Z","duration":"PT1H37M27S","thumbnail":"https://i.ytimg.com/vi/NmRcTsStrAE/mqdefault.jpg","viewCount":"289","playlistId":"PLEkQk5xrP-tmYN0y2PQUkx881GYBxD16g","playlistName":"درس الجمعة","category":"خطب"},{"id":"zBxkZNoQeoA","title":"شرح كتاب تفسير القرآن من سنن الترمذي - المجلس السادس عشر","publishedAt":"2016-04-22T18:23:29Z","duration":"PT37M50S","thumbnail":"https://i.ytimg.com/vi/zBxkZNoQeoA/mqdefault.jpg","viewCount":"102","playlistId":"PLEkQk5xrP-tnu6of679SvxdVx0qSrJzmb","playlistName":"شرح سنن الإمام الترمذي رضى الله عنه د. يسري جبر","category":"متنوع"},{"id":"rQ9a_wq9qLg","title":"شرح كتاب تفسير القرآن من سنن الترمذي - المجلس الخامس عشر","publishedAt":"2016-04-22T09:23:37Z","duration":"PT33M4S","thumbnail":"https://i.ytimg.com/vi/rQ9a_wq9qLg/mqdefault.jpg","viewCount":"83","playlistId":"PLEkQk5xrP-tnu6of679SvxdVx0qSrJzmb","playlistName":"شرح سنن الإمام الترمذي رضى الله عنه د. يسري جبر","category":"متنوع"},{"id":"OmeS26EQ1kM","title":"شرح البرهان في علوم القرآن - النوع ٤٠ - في بيان معاضدة السنة للقرآن ٤","publishedAt":"2020-04-03T07:00:06Z","duration":"PT27M22S","thumbnail":"https://i.ytimg.com/vi/OmeS26EQ1kM/mqdefault.jpg","viewCount":"330","playlistId":"PLEkQk5xrP-tnW3iBL7HkKziOFCFZbTlf0","playlistName":"شرح البرهان في علوم القرآن - أ.د. يسري جبر","category":"تفسير"},{"id":"ugtvb3hQPgU","title":"شرح البرهان في علوم القرآن - النوع ٤٠ - في بيان معاضدة السنة للقرآن ٣","publishedAt":"2020-04-02T11:00:22Z","duration":"PT23M22S","thumbnail":"https://i.ytimg.com/vi/ugtvb3hQPgU/mqdefault.jpg","viewCount":"429","playlistId":"PLEkQk5xrP-tnW3iBL7HkKziOFCFZbTlf0","playlistName":"شرح البرهان في علوم القرآن - أ.د. يسري جبر","category":"تفسير"},{"id":"4ThZhyElqUQ","title":"112- شرح اللؤلؤ والمرجان كتاب الجهاد من الباب التاسع عشر","publishedAt":"2020-04-02T11:00:00Z","duration":"PT33M47S","thumbnail":"https://i.ytimg.com/vi/4ThZhyElqUQ/mqdefault.jpg","viewCount":"362","playlistId":"PLEkQk5xrP-tmKNjtYLfhATC37QdIsTMe0","playlistName":"شرح كتاب اللؤلؤ والمرجان فيما اتفق عليه الشيخان إماما المحدثين البخاري ومسلم. أ.د. يسري جبر","category":"حديث"},{"id":"rVuA8e4xpWc","title":"111- شرح اللؤلؤ والمرجان كتاب الجهاد من الباب السادس عشر","publishedAt":"2020-04-01T07:00:15Z","duration":"PT20M24S","thumbnail":"https://i.ytimg.com/vi/rVuA8e4xpWc/mqdefault.jpg","viewCount":"474","playlistId":"PLEkQk5xrP-tmKNjtYLfhATC37QdIsTMe0","playlistName":"شرح كتاب اللؤلؤ والمرجان فيما اتفق عليه الشيخان إماما المحدثين البخاري ومسلم. أ.د. يسري جبر","category":"حديث"},{"id":"gjW0xlvRHYw","title":"شرح البرهان في علوم القرآن - النوع ٤٠ - في بيان معاضدة السنة للقرآن ٢","publishedAt":"2020-04-01T07:00:12Z","duration":"PT36M2S","thumbnail":"https://i.ytimg.com/vi/gjW0xlvRHYw/mqdefault.jpg","viewCount":"420","playlistId":"PLEkQk5xrP-tnW3iBL7HkKziOFCFZbTlf0","playlistName":"شرح البرهان في علوم القرآن - أ.د. يسري جبر","category":"تفسير"},{"id":"9SijymE11Ls","title":"حفظ القرآن  أ.د. يسري جبر","publishedAt":"2020-03-31T11:43:57Z","duration":"PT10M15S","thumbnail":"https://i.ytimg.com/vi/9SijymE11Ls/mqdefault.jpg","viewCount":"26872","playlistId":"PLEkQk5xrP-tm8ZIu74nTOZN9KJUJu416J","playlistName":"مقاطع مُهمَّة (يُسريَّات) أ.د. يسري جبر","category":"متنوع"},{"id":"6_mRnr7ox6k","title":"صحيح الإمام البخاري رضي الله عنه - كتاب الأضاحي- المجلس الأول د. يسري جبر","publishedAt":"2016-04-23T19:29:27Z","duration":"PT44M58S","thumbnail":"https://i.ytimg.com/vi/6_mRnr7ox6k/mqdefault.jpg","viewCount":"153","playlistId":"PLEkQk5xrP-tmJuzaj4GWRenFoFx9gdbFX","playlistName":"شرح كتاب صحيح الإمام البخاري رضي الله تعالى عنه   أ.د. يسرى جبر","category":"حديث"},{"id":"6_d1wjQvVU4","title":"شرح كتاب الأذكار من كلام سيد الأبرار للإمام النووى رضى الله عنه - المجلس الثامن والثلاثون","publishedAt":"2016-04-23T19:18:49Z","duration":"PT18M59S","thumbnail":"https://i.ytimg.com/vi/6_d1wjQvVU4/mqdefault.jpg","viewCount":"233","playlistId":"PLEkQk5xrP-tkWS57Ubysh0ifJR8dmuEtE","playlistName":"شرح كتاب الأذكار للإمام النووي د. يسرى جبر","category":"حديث"},{"id":"EoIihwMNT2w","title":"11- باب مَا جَاءَ فِى النِّدَاءِ لِلصَّلاَةِ ك الصلاة ك الموطأ د يسري جبر الأزهري بمضيفة الدح","publishedAt":"2016-04-23T11:23:25Z","duration":"PT57M37S","thumbnail":"https://i.ytimg.com/vi/EoIihwMNT2w/mqdefault.jpg","viewCount":"690","playlistId":"PLEkQk5xrP-tnC6BRuqMjyO-484iqXeg0o","playlistName":"شرح كتاب الموطأ للإمام مالك","category":"متنوع"},{"id":"m0Z4JydP5PU","title":"حول ذكرى المولد النبوي الشريف بالتاريخ الميلادي د. يسري جبر","publishedAt":"2016-04-23T07:34:25Z","duration":"PT36M26S","thumbnail":"https://i.ytimg.com/vi/m0Z4JydP5PU/mqdefault.jpg","viewCount":"526","playlistId":"PLEkQk5xrP-tlArtGpeLWaqNM7h7IDeAVC","playlistName":"خطب الجمعة أ.د. يسري جبر","category":"خطب"},{"id":"-NqiiRrkPhI","title":"شرح كتاب الدعوات من سنن الترمذي - المجلس الرابع عشر","publishedAt":"2016-05-29T01:39:43Z","duration":"PT34M44S","thumbnail":"https://i.ytimg.com/vi/-NqiiRrkPhI/mqdefault.jpg","viewCount":"119","playlistId":"PLEkQk5xrP-tnu6of679SvxdVx0qSrJzmb","playlistName":"شرح سنن الإمام الترمذي رضى الله عنه د. يسري جبر","category":"متنوع"},{"id":"4bguiPdOXaQ","title":"قراءة القرآن (من آية ٢٦٣ سورة البقرة)","publishedAt":"2016-05-29T01:37:56Z","duration":"PT10M43S","thumbnail":"https://i.ytimg.com/vi/4bguiPdOXaQ/mqdefault.jpg","viewCount":"558","playlistId":"PLEkQk5xrP-tnmTYsyW6xNdyfhPq0Bhrhj","playlistName":"مقرأة الفجر - القُرْآنُ الكَرِيمُ - خَتْمَةُ التَّدَبُّرِ  أ.د. يسري جبر","category":"متنوع"},{"id":"iH-OHGTjQUw","title":"شرح كتاب الدعوات من سنن الترمذي - المجلس الثالث عشر","publishedAt":"2016-05-28T18:32:36Z","duration":"PT33M14S","thumbnail":"https://i.ytimg.com/vi/iH-OHGTjQUw/mqdefault.jpg","viewCount":"94","playlistId":"PLEkQk5xrP-tnu6of679SvxdVx0qSrJzmb","playlistName":"شرح سنن الإمام الترمذي رضى الله عنه د. يسري جبر","category":"متنوع"},{"id":"TItYQljN3bY","title":"قراءة القرآن (من آية ٢٦١ سورة البقرة)","publishedAt":"2016-05-28T18:31:13Z","duration":"PT15M48S","thumbnail":"https://i.ytimg.com/vi/TItYQljN3bY/mqdefault.jpg","viewCount":"558","playlistId":"PLEkQk5xrP-tnmTYsyW6xNdyfhPq0Bhrhj","playlistName":"مقرأة الفجر - القُرْآنُ الكَرِيمُ - خَتْمَةُ التَّدَبُّرِ  أ.د. يسري جبر","category":"متنوع"},{"id":"Rhpj7NWr1Kw","title":"برنامج - عصمة الأنبياء - الحلقة 12 - سيدنا يوسف : شبهات حول \" ولقد همت به وهم بها \" - @alerthTV","publishedAt":"2016-05-28T07:28:58Z","duration":"PT25M10S","thumbnail":"https://i.ytimg.com/vi/Rhpj7NWr1Kw/mqdefault.jpg","viewCount":"2057","playlistId":"PLEkQk5xrP-tnBp9yUT_R2vtqSPOlcyAZe","playlistName":"برنامج - عصمة الأنبياء","category":"متنوع"},{"id":"LHCOOta-gJ0","title":"شرح كتاب الدعوات من سنن الترمذي - المجلس الثاني عشر","publishedAt":"2016-05-28T02:19:28Z","duration":"PT37M31S","thumbnail":"https://i.ytimg.com/vi/LHCOOta-gJ0/mqdefault.jpg","viewCount":"127","playlistId":"PLEkQk5xrP-tnu6of679SvxdVx0qSrJzmb","playlistName":"شرح سنن الإمام الترمذي رضى الله عنه د. يسري جبر","category":"متنوع"}],"total":7670,"page":86,"pageSize":24,"totalPages":320}