{"items":[{"id":"arKYZiSE6y4","title":"صحيح الإمام البخاري رضي الله عنه - كتاب الدِّيات المجلس السادس د.يسري جبر","publishedAt":"2018-07-07T21:22:12Z","duration":"PT45M34S","thumbnail":"https://i.ytimg.com/vi/arKYZiSE6y4/mqdefault.jpg","viewCount":"115","playlistId":"PLEkQk5xrP-tmJuzaj4GWRenFoFx9gdbFX","playlistName":"شرح كتاب صحيح الإمام البخاري رضي الله تعالى عنه   أ.د. يسرى جبر","category":"حديث"},{"id":"XdtEAiaZhXA","title":"مقرأة سورة لقمان من آية ٢٩","publishedAt":"2018-07-07T14:38:00Z","duration":"PT16M26S","thumbnail":"https://i.ytimg.com/vi/XdtEAiaZhXA/mqdefault.jpg","viewCount":"259","playlistId":"PLEkQk5xrP-tnmTYsyW6xNdyfhPq0Bhrhj","playlistName":"مقرأة الفجر - القُرْآنُ الكَرِيمُ - خَتْمَةُ التَّدَبُّرِ  أ.د. يسري جبر","category":"متنوع"},{"id":"4GA1JUZH7Gw","title":"شرح كتاب نور اليقين في سيرة سيد المرسلين - المجلس 52 ( وفاة ابن أُبيٍّ ) د.يسري جبر","publishedAt":"2018-07-07T12:51:58Z","duration":"PT49M32S","thumbnail":"https://i.ytimg.com/vi/4GA1JUZH7Gw/mqdefault.jpg","viewCount":"10777","playlistId":"PLEkQk5xrP-tl2t4NQx1IhKnAJCMzF0Nli","playlistName":"شرح كتاب نور اليقين في سيرة سيد المرسلين   د. يسري جبر","category":"سيرة"},{"id":"QR5GbdN46Pg","title":"شرح صحيح البخاري كتاب الأطعمة من باب ١٥","publishedAt":"2018-07-05T21:43:23Z","duration":"PT37M35S","thumbnail":"https://i.ytimg.com/vi/QR5GbdN46Pg/mqdefault.jpg","viewCount":"573","playlistId":"PLEkQk5xrP-tlEerGoLa1AFy-2XvQ-sovv","playlistName":"شرح صحيح البخاري - أ.د. يسري جبر (كاملا)","category":"حديث"},{"id":"MGb4gIy4UQE","title":"الرسالة القشيرية - المجلس الحادي و العشرون - باب في ذكر مشايخ هذه الطريقة - المجلس الثالث عشر","publishedAt":"2018-07-05T19:01:28Z","duration":"PT46M10S","thumbnail":"https://i.ytimg.com/vi/MGb4gIy4UQE/mqdefault.jpg","viewCount":"5427","playlistId":"PLEkQk5xrP-tkHAGOwIKr4pc5ehhyQ5HMJ","playlistName":"كتاب الرسالة القشيرية (تصوف) - د. يسري جبر","category":"تصوف"},{"id":"5qkLlf_sL_s","title":"مقرأة سورة لقمان من آية ٢٥","publishedAt":"2018-07-05T10:25:10Z","duration":"PT19M31S","thumbnail":"https://i.ytimg.com/vi/5qkLlf_sL_s/mqdefault.jpg","viewCount":"350","playlistId":"PLEkQk5xrP-tnmTYsyW6xNdyfhPq0Bhrhj","playlistName":"مقرأة الفجر - القُرْآنُ الكَرِيمُ - خَتْمَةُ التَّدَبُّرِ  أ.د. يسري جبر","category":"متنوع"},{"id":"ze6Zz-IK5zQ","title":"صحيح الإمام البخاري رضي الله عنه - كتاب الدِّيات - باب السن بالسن المجلس الخامس د.يسري جبر","publishedAt":"2018-07-04T17:31:13Z","duration":"PT59M27S","thumbnail":"https://i.ytimg.com/vi/ze6Zz-IK5zQ/mqdefault.jpg","viewCount":"95","playlistId":"PLEkQk5xrP-tmJuzaj4GWRenFoFx9gdbFX","playlistName":"شرح كتاب صحيح الإمام البخاري رضي الله تعالى عنه   أ.د. يسرى جبر","category":"حديث"},{"id":"TaeXIs7f6Ck","title":"شرح كتاب نور اليقين في سيرة سيد المرسلين - المجلس 51 (حديث الثلاثة الذين خُلِّفوا) د.يسري جبر","publishedAt":"2018-07-04T17:14:58Z","duration":"PT47M33S","thumbnail":"https://i.ytimg.com/vi/TaeXIs7f6Ck/mqdefault.jpg","viewCount":"10390","playlistId":"PLEkQk5xrP-tl2t4NQx1IhKnAJCMzF0Nli","playlistName":"شرح كتاب نور اليقين في سيرة سيد المرسلين   د. يسري جبر","category":"سيرة"},{"id":"19MZJxPSMj0","title":"القِسمُ (26) من التوكيد: الزيادة (6) حروف الزيادة - شرح البرهان في علوم القرآن","publishedAt":"2021-05-29T07:03:47Z","duration":"PT29M27S","thumbnail":"https://i.ytimg.com/vi/19MZJxPSMj0/mqdefault.jpg","viewCount":"271","playlistId":"PLEkQk5xrP-tnW3iBL7HkKziOFCFZbTlf0","playlistName":"شرح البرهان في علوم القرآن - أ.د. يسري جبر","category":"تفسير"},{"id":"fIszxmLQb4o","title":"الفقر الحقيقي وأسباب الغنى","publishedAt":"2021-05-28T19:50:06Z","duration":"PT8M36S","thumbnail":"https://i.ytimg.com/vi/fIszxmLQb4o/mqdefault.jpg","viewCount":"21008","playlistId":"PLEkQk5xrP-tkGXuZ9atE3k_7it12rUPTs","playlistName":"أسئلة المتابعين","category":"متنوع"},{"id":"b_PpZUo2eQI","title":"69- \"…فأعِنِّي علَى نَفْسِكَ بكَثْرَةِ السُّجُودِ...\" الحديث (12) شرح دليل الفالحين","publishedAt":"2021-05-28T05:00:34Z","duration":"PT36M41S","thumbnail":"https://i.ytimg.com/vi/b_PpZUo2eQI/mqdefault.jpg","viewCount":"2291","playlistId":"PLEkQk5xrP-tkc9DXvSLguqX5-FYp6ASR4","playlistName":"دليل الفالحين لطرق رياض الصالحين","category":"متنوع"},{"id":"adfsmtnrOqA","title":"حول الكمالات المحمدية","publishedAt":"2021-05-27T18:00:01Z","duration":"PT38M2S","thumbnail":"https://i.ytimg.com/vi/adfsmtnrOqA/mqdefault.jpg","viewCount":"5539","playlistId":"PLEkQk5xrP-tlArtGpeLWaqNM7h7IDeAVC","playlistName":"خطب الجمعة أ.د. يسري جبر","category":"خطب"},{"id":"YDQ9uQxbTUg","title":"القِسمُ (26) من التوكيد: الزيادة (5) حروف الزيادة - شرح البرهان في علوم القرآن","publishedAt":"2021-05-27T05:00:52Z","duration":"PT11M38S","thumbnail":"https://i.ytimg.com/vi/YDQ9uQxbTUg/mqdefault.jpg","viewCount":"321","playlistId":"PLEkQk5xrP-tnW3iBL7HkKziOFCFZbTlf0","playlistName":"شرح البرهان في علوم القرآن - أ.د. يسري جبر","category":"تفسير"},{"id":"JVmgulWA6Mg","title":"كيف تنجو في زمن الفتن؟","publishedAt":"2021-05-26T19:39:40Z","duration":"PT12M7S","thumbnail":"https://i.ytimg.com/vi/JVmgulWA6Mg/mqdefault.jpg","viewCount":"7644","playlistId":"PLEkQk5xrP-tlArtGpeLWaqNM7h7IDeAVC","playlistName":"خطب الجمعة أ.د. يسري جبر","category":"خطب"},{"id":"pGLGJFzqVok","title":"69- أُعطيت أربعا لم يُعطهنَّ أحدٌ من أنبياء الله - شرح مسند الإمام أحمد رضي الله عنه","publishedAt":"2024-01-28T07:07:22Z","duration":"PT27M35S","thumbnail":"https://i.ytimg.com/vi/pGLGJFzqVok/mqdefault.jpg","viewCount":"1179","playlistId":"PLEkQk5xrP-tkKprIuGrSdEuBSMsyg5We1","playlistName":"شرح مسند الإمام أحمد بن حنبل","category":"متنوع"},{"id":"7in1C7MpqjU","title":"200- فصلٌ: من المتشابه أوائل السور - شرح الإتقان في علوم القرآن","publishedAt":"2024-01-27T07:07:08Z","duration":"PT35M39S","thumbnail":"https://i.ytimg.com/vi/7in1C7MpqjU/mqdefault.jpg","viewCount":"777","playlistId":"PLEkQk5xrP-tlPw10KGJKagu7zm4Ry2Tge","playlistName":"شرح الإتقان في علوم القرآن","category":"تفسير"},{"id":"_IDp995K0mM","title":"68- ماذا أُعدَّ لِمَنْ أَطَابَ الكَلامَ، وأَطْعَمَ الطَّعَامَ، وصلَْى لله بالليل والناسُ نِيام؟","publishedAt":"2024-01-26T07:07:00Z","duration":"PT27M16S","thumbnail":"https://i.ytimg.com/vi/_IDp995K0mM/mqdefault.jpg","viewCount":"1929","playlistId":"PLEkQk5xrP-tkKprIuGrSdEuBSMsyg5We1","playlistName":"شرح مسند الإمام أحمد بن حنبل","category":"متنوع"},{"id":"noH7DBoNUqk","title":"هل يجوز قراءة الأوراد مع عدم فهمي لبعضها؟","publishedAt":"2024-01-25T19:15:05Z","duration":"PT9M24S","thumbnail":"https://i.ytimg.com/vi/noH7DBoNUqk/mqdefault.jpg","viewCount":"6373","playlistId":"PLEkQk5xrP-tkGXuZ9atE3k_7it12rUPTs","playlistName":"أسئلة المتابعين","category":"متنوع"},{"id":"hN6hTLf-wNc","title":"199- فصلٌ: من الْمُتَشَابه آيَاتُ الصِّفات - صفة (القُرْب) - شرح الإتقان في علوم القرآن","publishedAt":"2024-01-25T07:00:14Z","duration":"PT32M13S","thumbnail":"https://i.ytimg.com/vi/hN6hTLf-wNc/mqdefault.jpg","viewCount":"989","playlistId":"PLEkQk5xrP-tlPw10KGJKagu7zm4Ry2Tge","playlistName":"شرح الإتقان في علوم القرآن","category":"تفسير"},{"id":"Cvz9vPfoGLg","title":"هل يوجد ارتقاء في الذكر والأوراد في طريق التصوف؟","publishedAt":"2024-01-24T19:58:47Z","duration":"PT8M48S","thumbnail":"https://i.ytimg.com/vi/Cvz9vPfoGLg/mqdefault.jpg","viewCount":"6843","playlistId":"PLEkQk5xrP-tkGXuZ9atE3k_7it12rUPTs","playlistName":"أسئلة المتابعين","category":"متنوع"},{"id":"gZHEI6jr5cE","title":"67- علاج شدة العيش ومشقة العمل - شرح مسند الإمام أحمد رضي الله عنه","publishedAt":"2024-01-24T07:20:55Z","duration":"PT38M11S","thumbnail":"https://i.ytimg.com/vi/gZHEI6jr5cE/mqdefault.jpg","viewCount":"2775","playlistId":"PLEkQk5xrP-tkKprIuGrSdEuBSMsyg5We1","playlistName":"شرح مسند الإمام أحمد بن حنبل","category":"متنوع"},{"id":"7Mm1gfD8WGw","title":"198- فصلٌ: من الْمُتَشَابه آيَاتُ الصِّفات - معنى (النفْس) - شرح الإتقان في علوم القرآن","publishedAt":"2024-01-23T06:50:01Z","duration":"PT26M28S","thumbnail":"https://i.ytimg.com/vi/7Mm1gfD8WGw/mqdefault.jpg","viewCount":"951","playlistId":"PLEkQk5xrP-tlPw10KGJKagu7zm4Ry2Tge","playlistName":"شرح الإتقان في علوم القرآن","category":"تفسير"},{"id":"ZupozzbtSjM","title":"شرح منازل السائرين - المجلس (34) باب التوكل | أ.د. يسري جبر","publishedAt":"2024-01-22T19:09:34Z","duration":"PT37M13S","thumbnail":"https://i.ytimg.com/vi/ZupozzbtSjM/mqdefault.jpg","viewCount":"6057","playlistId":"PLEkQk5xrP-tmiUfQ-2Tsn7QIak4EsvaZW","playlistName":"كتاب التيسير المعين بشرح معاني منازل السائرين (تصوف) - د.يسري جبر","category":"تصوف"},{"id":"YY7eepGCvuY","title":"66- التحذير مما نهى عنه النَّبيّ ﷺ وأهمية ما أمر به ﷺ - شرح مسند الإمام أحمد رضي الله عنه","publishedAt":"2024-01-22T06:30:16Z","duration":"PT27M50S","thumbnail":"https://i.ytimg.com/vi/YY7eepGCvuY/mqdefault.jpg","viewCount":"1555","playlistId":"PLEkQk5xrP-tkKprIuGrSdEuBSMsyg5We1","playlistName":"شرح مسند الإمام أحمد بن حنبل","category":"متنوع"}],"total":7670,"page":247,"pageSize":24,"totalPages":320}