{"items":[{"id":"Ov1x3_deNjM","title":"15- شرح اللؤلؤ والمرجان كتاب الإيمان من باب ٨١","publishedAt":"2020-01-01T09:07:36Z","duration":"PT42M4S","thumbnail":"https://i.ytimg.com/vi/Ov1x3_deNjM/mqdefault.jpg","viewCount":"1282","playlistId":"PLEkQk5xrP-tmKNjtYLfhATC37QdIsTMe0","playlistName":"شرح كتاب اللؤلؤ والمرجان فيما اتفق عليه الشيخان إماما المحدثين البخاري ومسلم. أ.د. يسري جبر","category":"حديث"},{"id":"Sv9zjKD-KsI","title":"شرح البرهان في علوم القرآن - النوع ٢٣ - معرفة توجيه القراءات وتبيين وجه ما ذهب إليه كل قارئ","publishedAt":"2020-01-01T09:07:23Z","duration":"PT28M10S","thumbnail":"https://i.ytimg.com/vi/Sv9zjKD-KsI/mqdefault.jpg","viewCount":"414","playlistId":"PLEkQk5xrP-tnW3iBL7HkKziOFCFZbTlf0","playlistName":"شرح البرهان في علوم القرآن - أ.د. يسري جبر","category":"تفسير"},{"id":"LHnsGYx_cVA","title":"حَمَلَةُ العَرْشِ. أ.د.يسري جبر","publishedAt":"2019-12-31T14:30:18Z","duration":"PT1M15S","thumbnail":"https://i.ytimg.com/vi/LHnsGYx_cVA/mqdefault.jpg","viewCount":"2093","playlistId":"PLEkQk5xrP-tm8ZIu74nTOZN9KJUJu416J","playlistName":"مقاطع مُهمَّة (يُسريَّات) أ.د. يسري جبر","category":"متنوع"},{"id":"k9C9ZVjsB7s","title":"14- شرح اللؤلؤ والمرجان كتاب الإيمان من باب ٧٥","publishedAt":"2019-12-31T08:21:14Z","duration":"PT27M17S","thumbnail":"https://i.ytimg.com/vi/k9C9ZVjsB7s/mqdefault.jpg","viewCount":"1054","playlistId":"PLEkQk5xrP-tmKNjtYLfhATC37QdIsTMe0","playlistName":"شرح كتاب اللؤلؤ والمرجان فيما اتفق عليه الشيخان إماما المحدثين البخاري ومسلم. أ.د. يسري جبر","category":"حديث"},{"id":"7eAX-Q0lqdY","title":"الرسالة القشيرية - المجلس (75) بَابُ الذِكْرِ. أ.د. يسري جبر","publishedAt":"2019-12-30T17:59:33Z","duration":"PT45M19S","thumbnail":"https://i.ytimg.com/vi/7eAX-Q0lqdY/mqdefault.jpg","viewCount":"6695","playlistId":"PLEkQk5xrP-tkHAGOwIKr4pc5ehhyQ5HMJ","playlistName":"كتاب الرسالة القشيرية (تصوف) - د. يسري جبر","category":"تصوف"},{"id":"uHbn2gUaycg","title":"الموتُ للمُؤمِنِ نِعْمَةٌ وكَرَامَةٌ    أ.د.يسري جبر","publishedAt":"2019-12-29T16:27:18Z","duration":"PT2M10S","thumbnail":"https://i.ytimg.com/vi/uHbn2gUaycg/mqdefault.jpg","viewCount":"3612","playlistId":"PLEkQk5xrP-tm8ZIu74nTOZN9KJUJu416J","playlistName":"مقاطع مُهمَّة (يُسريَّات) أ.د. يسري جبر","category":"متنوع"},{"id":"LRyVpcU-A6o","title":"شرح البرهان في علوم القرآن - النوع ٢٢ - معرفة اختلاف الألفاظ بزيادة أو نقص أو تغيير ٧","publishedAt":"2019-12-29T06:51:53Z","duration":"PT17M45S","thumbnail":"https://i.ytimg.com/vi/LRyVpcU-A6o/mqdefault.jpg","viewCount":"515","playlistId":"PLEkQk5xrP-tnW3iBL7HkKziOFCFZbTlf0","playlistName":"شرح البرهان في علوم القرآن - أ.د. يسري جبر","category":"تفسير"},{"id":"Zich9qikf7Y","title":"13- شرح اللؤلؤ والمرجان كتاب الإيمان من باب ٧٤","publishedAt":"2019-12-28T17:19:39Z","duration":"PT35M10S","thumbnail":"https://i.ytimg.com/vi/Zich9qikf7Y/mqdefault.jpg","viewCount":"1240","playlistId":"PLEkQk5xrP-tmKNjtYLfhATC37QdIsTMe0","playlistName":"شرح كتاب اللؤلؤ والمرجان فيما اتفق عليه الشيخان إماما المحدثين البخاري ومسلم. أ.د. يسري جبر","category":"حديث"},{"id":"BuTAVhNxaoU","title":"الجراحة بين الحلاق والطبيب!","publishedAt":"2021-01-06T18:35:22Z","duration":"PT8M1S","thumbnail":"https://i.ytimg.com/vi/BuTAVhNxaoU/mqdefault.jpg","viewCount":"7417","playlistId":"PLEkQk5xrP-tm8ZIu74nTOZN9KJUJu416J","playlistName":"مقاطع مُهمَّة (يُسريَّات) أ.د. يسري جبر","category":"متنوع"},{"id":"yAuDnmczHpA","title":"تأكيدُ الفعلِ في المصدر","publishedAt":"2021-01-06T06:59:36Z","duration":"PT14M14S","thumbnail":"https://i.ytimg.com/vi/yAuDnmczHpA/mqdefault.jpg","viewCount":"530","playlistId":"PLEkQk5xrP-tnW3iBL7HkKziOFCFZbTlf0","playlistName":"شرح البرهان في علوم القرآن - أ.د. يسري جبر","category":"تفسير"},{"id":"SOdtAQlGiIk","title":"أفضل طرق المذاكرة","publishedAt":"2021-01-05T18:29:08Z","duration":"PT15M40S","thumbnail":"https://i.ytimg.com/vi/SOdtAQlGiIk/mqdefault.jpg","viewCount":"47166","playlistId":"PLEkQk5xrP-tm8ZIu74nTOZN9KJUJu416J","playlistName":"مقاطع مُهمَّة (يُسريَّات) أ.د. يسري جبر","category":"متنوع"},{"id":"2L8wvB9NQEk","title":"191- لا يُلْدَغُ المؤمنُ مِن جُحرٍ مرتين","publishedAt":"2021-01-05T07:11:13Z","duration":"PT23M3S","thumbnail":"https://i.ytimg.com/vi/2L8wvB9NQEk/mqdefault.jpg","viewCount":"4411","playlistId":"PLEkQk5xrP-tmKNjtYLfhATC37QdIsTMe0","playlistName":"شرح كتاب اللؤلؤ والمرجان فيما اتفق عليه الشيخان إماما المحدثين البخاري ومسلم. أ.د. يسري جبر","category":"حديث"},{"id":"gaRKvs7XdaM","title":"توقيت جرينتش أم التوقيت الإسلامي","publishedAt":"2021-01-04T18:09:17Z","duration":"PT8M3S","thumbnail":"https://i.ytimg.com/vi/gaRKvs7XdaM/mqdefault.jpg","viewCount":"4920","playlistId":"PLEkQk5xrP-tlArtGpeLWaqNM7h7IDeAVC","playlistName":"خطب الجمعة أ.د. يسري جبر","category":"خطب"},{"id":"gZ2Z7omliRE","title":"3- التوكيد","publishedAt":"2021-01-04T07:18:37Z","duration":"PT13M26S","thumbnail":"https://i.ytimg.com/vi/gZ2Z7omliRE/mqdefault.jpg","viewCount":"575","playlistId":"PLEkQk5xrP-tnW3iBL7HkKziOFCFZbTlf0","playlistName":"شرح البرهان في علوم القرآن - أ.د. يسري جبر","category":"تفسير"},{"id":"XE7akJS72Mg","title":"شرح صحيح البخاري ( كتاب الصلاة مجلس ٥ )","publishedAt":"2016-10-01T10:16:33Z","duration":"PT41M56S","thumbnail":"https://i.ytimg.com/vi/XE7akJS72Mg/mqdefault.jpg","viewCount":"1639","playlistId":"PLEkQk5xrP-tlEerGoLa1AFy-2XvQ-sovv","playlistName":"شرح صحيح البخاري - أ.د. يسري جبر (كاملا)","category":"حديث"},{"id":"ZokRgARTiL0","title":"شرح صحيح البخاري ( كتاب الصلاة مجلس ٦)","publishedAt":"2016-10-01T10:16:10Z","duration":"PT35M11S","thumbnail":"https://i.ytimg.com/vi/ZokRgARTiL0/mqdefault.jpg","viewCount":"1421","playlistId":"PLEkQk5xrP-tlEerGoLa1AFy-2XvQ-sovv","playlistName":"شرح صحيح البخاري - أ.د. يسري جبر (كاملا)","category":"حديث"},{"id":"nDTLcZ7rvAk","title":"سورة النساء  آية 174","publishedAt":"2016-10-01T09:23:54Z","duration":"PT14M53S","thumbnail":"https://i.ytimg.com/vi/nDTLcZ7rvAk/mqdefault.jpg","viewCount":"484","playlistId":"PLEkQk5xrP-tnmTYsyW6xNdyfhPq0Bhrhj","playlistName":"مقرأة الفجر - القُرْآنُ الكَرِيمُ - خَتْمَةُ التَّدَبُّرِ  أ.د. يسري جبر","category":"متنوع"},{"id":"gcLQFvwhc9o","title":"شرح صحيح البخاري ( كتاب الصلاة مجلس ٤ )","publishedAt":"2016-10-01T08:57:42Z","duration":"PT31M47S","thumbnail":"https://i.ytimg.com/vi/gcLQFvwhc9o/mqdefault.jpg","viewCount":"1437","playlistId":"PLEkQk5xrP-tlEerGoLa1AFy-2XvQ-sovv","playlistName":"شرح صحيح البخاري - أ.د. يسري جبر (كاملا)","category":"حديث"},{"id":"cL8D6gAhMNs","title":"شرح كتاب نوراليقين في سيرة سيد المرسلين المجلس السابع عشر (السنة الأولى- بناء المسجد) د.يسري جبر","publishedAt":"2017-07-29T17:52:33Z","duration":"PT53M58S","thumbnail":"https://i.ytimg.com/vi/cL8D6gAhMNs/mqdefault.jpg","viewCount":"23427","playlistId":"PLEkQk5xrP-tl2t4NQx1IhKnAJCMzF0Nli","playlistName":"شرح كتاب نور اليقين في سيرة سيد المرسلين   د. يسري جبر","category":"سيرة"},{"id":"khA9Xs9gU8Y","title":"آداب الأشهر الحُرُم  د. يسري جبر","publishedAt":"2017-07-29T16:41:53Z","duration":"PT24M30S","thumbnail":"https://i.ytimg.com/vi/khA9Xs9gU8Y/mqdefault.jpg","viewCount":"423","playlistId":"PLEkQk5xrP-tlArtGpeLWaqNM7h7IDeAVC","playlistName":"خطب الجمعة أ.د. يسري جبر","category":"خطب"},{"id":"kvTsNcnr7YA","title":"مقرأة سورة إبراهيم من آية ١٠","publishedAt":"2017-07-29T16:28:45Z","duration":"PT16M47S","thumbnail":"https://i.ytimg.com/vi/kvTsNcnr7YA/mqdefault.jpg","viewCount":"311","playlistId":"PLEkQk5xrP-tnmTYsyW6xNdyfhPq0Bhrhj","playlistName":"مقرأة الفجر - القُرْآنُ الكَرِيمُ - خَتْمَةُ التَّدَبُّرِ  أ.د. يسري جبر","category":"متنوع"},{"id":"GrzoEUgW0Ms","title":"باب قول النبي صلى الله عليه وآله وسلم \"اللهم اغفر لي ما قدمت وما أخرت\" المجلس السابع د. يسري جبر","publishedAt":"2017-07-29T06:47:55Z","duration":"PT52M5S","thumbnail":"https://i.ytimg.com/vi/GrzoEUgW0Ms/mqdefault.jpg","viewCount":"534","playlistId":"PLEkQk5xrP-tmJuzaj4GWRenFoFx9gdbFX","playlistName":"شرح كتاب صحيح الإمام البخاري رضي الله تعالى عنه   أ.د. يسرى جبر","category":"حديث"},{"id":"ZUjl-GAXLMc","title":"شرح صحيح البخاري - كتاب الجهاد والسير من باب ٩","publishedAt":"2017-07-28T20:47:05Z","duration":"PT35M45S","thumbnail":"https://i.ytimg.com/vi/ZUjl-GAXLMc/mqdefault.jpg","viewCount":"673","playlistId":"PLEkQk5xrP-tlEerGoLa1AFy-2XvQ-sovv","playlistName":"شرح صحيح البخاري - أ.د. يسري جبر (كاملا)","category":"حديث"},{"id":"0uuWh8fHq_Q","title":"ساعة الإجابة في يوم الجمعة   د. يسري جبر","publishedAt":"2017-07-28T09:02:54Z","duration":"PT7M43S","thumbnail":"https://i.ytimg.com/vi/0uuWh8fHq_Q/mqdefault.jpg","viewCount":"17554","playlistId":"PLEkQk5xrP-tm8ZIu74nTOZN9KJUJu416J","playlistName":"مقاطع مُهمَّة (يُسريَّات) أ.د. يسري جبر","category":"متنوع"}],"total":7670,"page":111,"pageSize":24,"totalPages":320}