{"items":[{"id":"iCZiHyv2XFY","title":"شرح البرهان في علوم القرآن - النوع ٣٤ - التنبيه الثاني في ضروب النسخ في القرآن","publishedAt":"2020-02-27T06:00:11Z","duration":"PT16M55S","thumbnail":"https://i.ytimg.com/vi/iCZiHyv2XFY/mqdefault.jpg","viewCount":"312","playlistId":"PLEkQk5xrP-tnW3iBL7HkKziOFCFZbTlf0","playlistName":"شرح البرهان في علوم القرآن - أ.د. يسري جبر","category":"تفسير"},{"id":"pMjt2FNM3pw","title":"شرح البرهان في علوم القرآن - النوع ٣٤ - مسألة في جواز النسخ بالكتاب","publishedAt":"2020-02-26T06:00:08Z","duration":"PT28M10S","thumbnail":"https://i.ytimg.com/vi/pMjt2FNM3pw/mqdefault.jpg","viewCount":"367","playlistId":"PLEkQk5xrP-tnW3iBL7HkKziOFCFZbTlf0","playlistName":"شرح البرهان في علوم القرآن - أ.د. يسري جبر","category":"تفسير"},{"id":"UtncoO6Ch5I","title":"78- شرح اللؤلؤ والمرجان كتاب النكاح من الباب السابع","publishedAt":"2020-02-26T06:00:04Z","duration":"PT25M8S","thumbnail":"https://i.ytimg.com/vi/UtncoO6Ch5I/mqdefault.jpg","viewCount":"452","playlistId":"PLEkQk5xrP-tmKNjtYLfhATC37QdIsTMe0","playlistName":"شرح كتاب اللؤلؤ والمرجان فيما اتفق عليه الشيخان إماما المحدثين البخاري ومسلم. أ.د. يسري جبر","category":"حديث"},{"id":"YQZCHTXVCgE","title":"شرح مسند الإمام محمد بن إدريس الشافعيّ رضي الله تعالى عنه - المجلس الخامس عشر  أ.د. يسري جبر","publishedAt":"2020-02-26T03:54:38Z","duration":"PT42M32S","thumbnail":"https://i.ytimg.com/vi/YQZCHTXVCgE/mqdefault.jpg","viewCount":"527","playlistId":"PLEkQk5xrP-tlDtaqY0qhNXAiZ19gaGzKI","playlistName":"شرح مسند الإمام محمد بن إدريس الشافعيّ رضي الله تعالى عنه","category":"فقه"},{"id":"Ib4cDYL-XuY","title":"مقرأة سورة يس من آية ٧١","publishedAt":"2018-09-10T11:04:54Z","duration":"PT9M35S","thumbnail":"https://i.ytimg.com/vi/Ib4cDYL-XuY/mqdefault.jpg","viewCount":"391","playlistId":"PLEkQk5xrP-tnmTYsyW6xNdyfhPq0Bhrhj","playlistName":"مقرأة الفجر - القُرْآنُ الكَرِيمُ - خَتْمَةُ التَّدَبُّرِ  أ.د. يسري جبر","category":"متنوع"},{"id":"uxVty-pri_c","title":"شرح صحيح البخاري كتاب الأدب من باب ٦٩","publishedAt":"2018-09-09T19:22:54Z","duration":"PT38M46S","thumbnail":"https://i.ytimg.com/vi/uxVty-pri_c/mqdefault.jpg","viewCount":"579","playlistId":"PLEkQk5xrP-tlEerGoLa1AFy-2XvQ-sovv","playlistName":"شرح صحيح البخاري - أ.د. يسري جبر (كاملا)","category":"حديث"},{"id":"eJEy89vRBCo","title":"حَقَائِقُ مُحَمَّدِيَّة    د. يسري جبر","publishedAt":"2018-09-09T13:12:52Z","duration":"PT45M","thumbnail":"https://i.ytimg.com/vi/eJEy89vRBCo/mqdefault.jpg","viewCount":"3351","playlistId":"PLEkQk5xrP-tlArtGpeLWaqNM7h7IDeAVC","playlistName":"خطب الجمعة أ.د. يسري جبر","category":"خطب"},{"id":"syZOSGJVw3U","title":"مقرأة سورة يس من آية ٦٦","publishedAt":"2018-09-09T09:45:17Z","duration":"PT19M39S","thumbnail":"https://i.ytimg.com/vi/syZOSGJVw3U/mqdefault.jpg","viewCount":"608","playlistId":"PLEkQk5xrP-tnmTYsyW6xNdyfhPq0Bhrhj","playlistName":"مقرأة الفجر - القُرْآنُ الكَرِيمُ - خَتْمَةُ التَّدَبُّرِ  أ.د. يسري جبر","category":"متنوع"},{"id":"YJhjvQfaIn8","title":"شرح صحيح البخاري كتاب الأدب من باب ٦٤","publishedAt":"2018-09-08T20:44:47Z","duration":"PT36M44S","thumbnail":"https://i.ytimg.com/vi/YJhjvQfaIn8/mqdefault.jpg","viewCount":"562","playlistId":"PLEkQk5xrP-tlEerGoLa1AFy-2XvQ-sovv","playlistName":"شرح صحيح البخاري - أ.د. يسري جبر (كاملا)","category":"حديث"},{"id":"BYSi7uLGskI","title":"مقرأة سورة يس من آية ٦٠","publishedAt":"2018-09-08T17:48:17Z","duration":"PT7M24S","thumbnail":"https://i.ytimg.com/vi/BYSi7uLGskI/mqdefault.jpg","viewCount":"390","playlistId":"PLEkQk5xrP-tnmTYsyW6xNdyfhPq0Bhrhj","playlistName":"مقرأة الفجر - القُرْآنُ الكَرِيمُ - خَتْمَةُ التَّدَبُّرِ  أ.د. يسري جبر","category":"متنوع"},{"id":"mIIc1YJ8ryg","title":"شرح صحيح البخاري كتاب الأدب من باب ٥٨","publishedAt":"2018-09-06T15:49:09Z","duration":"PT32M47S","thumbnail":"https://i.ytimg.com/vi/mIIc1YJ8ryg/mqdefault.jpg","viewCount":"613","playlistId":"PLEkQk5xrP-tlEerGoLa1AFy-2XvQ-sovv","playlistName":"شرح صحيح البخاري - أ.د. يسري جبر (كاملا)","category":"حديث"},{"id":"rKfYCc5u0zw","title":"مقرأة سورة يس من آية ٥١","publishedAt":"2018-09-06T11:28:12Z","duration":"PT12M4S","thumbnail":"https://i.ytimg.com/vi/rKfYCc5u0zw/mqdefault.jpg","viewCount":"486","playlistId":"PLEkQk5xrP-tnmTYsyW6xNdyfhPq0Bhrhj","playlistName":"مقرأة الفجر - القُرْآنُ الكَرِيمُ - خَتْمَةُ التَّدَبُّرِ  أ.د. يسري جبر","category":"متنوع"},{"id":"OJtJVcasBDc","title":"ذِكْرَى مَولِدِ النَّبِىِّ صَلَّى اللهُ عَلَيهِ وَآلِهِ وَسَلَّمَ بالتاريخ الميلادى - مسجلة","publishedAt":"2020-04-17T10:15:10Z","duration":"PT35M46S","thumbnail":"https://i.ytimg.com/vi/OJtJVcasBDc/mqdefault.jpg","viewCount":"1227","playlistId":"PLEkQk5xrP-tlArtGpeLWaqNM7h7IDeAVC","playlistName":"خطب الجمعة أ.د. يسري جبر","category":"خطب"},{"id":"I7hqqeDRliM","title":"الرحمة بالإنسان والحيوان","publishedAt":"2020-04-16T14:12:29Z","duration":"PT50M32S","thumbnail":"https://i.ytimg.com/vi/I7hqqeDRliM/mqdefault.jpg","viewCount":"1085","playlistId":"PLEkQk5xrP-tlhpr-bJBjCsJw3j1S-LD9B","playlistName":"كتابُ الأدَبِ - المجلس الأول  أ.د. يسري جبر","category":"تصوف"},{"id":"jAIQTavYE48","title":"طُرُقُ شُكْر الله على نِعَمِه","publishedAt":"2021-06-07T12:14:41Z","duration":"PT36M24S","thumbnail":"https://i.ytimg.com/vi/jAIQTavYE48/mqdefault.jpg","viewCount":"5541","playlistId":"PLEkQk5xrP-tlArtGpeLWaqNM7h7IDeAVC","playlistName":"خطب الجمعة أ.د. يسري جبر","category":"خطب"},{"id":"0_FEh_iBP8g","title":"الأسلوب الثاني\"الحذف\" شرح البرهان في علوم القرآن","publishedAt":"2021-06-07T06:08:35Z","duration":"PT24M40S","thumbnail":"https://i.ytimg.com/vi/0_FEh_iBP8g/mqdefault.jpg","viewCount":"451","playlistId":"PLEkQk5xrP-tnW3iBL7HkKziOFCFZbTlf0","playlistName":"شرح البرهان في علوم القرآن - أ.د. يسري جبر","category":"تفسير"},{"id":"W0RQV9kqLIU","title":"كيف أذاكر بدون ملل؟","publishedAt":"2021-06-06T19:40:22Z","duration":"PT8M5S","thumbnail":"https://i.ytimg.com/vi/W0RQV9kqLIU/mqdefault.jpg","viewCount":"15841","playlistId":"PLEkQk5xrP-tm8ZIu74nTOZN9KJUJu416J","playlistName":"مقاطع مُهمَّة (يُسريَّات) أ.د. يسري جبر","category":"متنوع"},{"id":"GzpjyJIuX6o","title":"74- بيان كثرة طُرُق الخير\"…أيُّ الأعمالِ أفْضَلُ ؟…\" شرح دليل الفالحين","publishedAt":"2021-06-06T07:27:18Z","duration":"PT34M3S","thumbnail":"https://i.ytimg.com/vi/GzpjyJIuX6o/mqdefault.jpg","viewCount":"1659","playlistId":"PLEkQk5xrP-tkc9DXvSLguqX5-FYp6ASR4","playlistName":"دليل الفالحين لطرق رياض الصالحين","category":"متنوع"},{"id":"GendwVRzR_g","title":"شرح صحيح البخاري- كتاب أحاديث الأنبياء من باب ٥٤","publishedAt":"2017-10-20T18:31:30Z","duration":"PT40M2S","thumbnail":"https://i.ytimg.com/vi/GendwVRzR_g/mqdefault.jpg","viewCount":"566","playlistId":"PLEkQk5xrP-tlEerGoLa1AFy-2XvQ-sovv","playlistName":"شرح صحيح البخاري - أ.د. يسري جبر (كاملا)","category":"حديث"},{"id":"KbbSeinsJ1s","title":"مقرأة سورة الكهف من آية ٢٩","publishedAt":"2017-10-20T08:04:21Z","duration":"PT12M28S","thumbnail":"https://i.ytimg.com/vi/KbbSeinsJ1s/mqdefault.jpg","viewCount":"406","playlistId":"PLEkQk5xrP-tnmTYsyW6xNdyfhPq0Bhrhj","playlistName":"مقرأة الفجر - القُرْآنُ الكَرِيمُ - خَتْمَةُ التَّدَبُّرِ  أ.د. يسري جبر","category":"متنوع"},{"id":"16piMK-7szY","title":"شرح صحيح البخاري- كتاب أحاديث الأنبياء من باب ٥٣","publishedAt":"2017-10-19T16:13:21Z","duration":"PT27M39S","thumbnail":"https://i.ytimg.com/vi/16piMK-7szY/mqdefault.jpg","viewCount":"513","playlistId":"PLEkQk5xrP-tlEerGoLa1AFy-2XvQ-sovv","playlistName":"شرح صحيح البخاري - أ.د. يسري جبر (كاملا)","category":"حديث"},{"id":"V2Wvt7iaVS8","title":"مقرأة سورة الكهف من آية ٢٧","publishedAt":"2017-10-19T11:29:13Z","duration":"PT24M36S","thumbnail":"https://i.ytimg.com/vi/V2Wvt7iaVS8/mqdefault.jpg","viewCount":"448","playlistId":"PLEkQk5xrP-tnmTYsyW6xNdyfhPq0Bhrhj","playlistName":"مقرأة الفجر - القُرْآنُ الكَرِيمُ - خَتْمَةُ التَّدَبُّرِ  أ.د. يسري جبر","category":"متنوع"},{"id":"mo_UluzU8UU","title":"66- متى يتجلى الإلهام الرباني في قلب المريد؟ | شرح منازل السائرين","publishedAt":"2025-08-06T19:02:01Z","duration":"PT39M9S","thumbnail":"https://i.ytimg.com/vi/mo_UluzU8UU/mqdefault.jpg","viewCount":"9904","playlistId":"PLEkQk5xrP-tmiUfQ-2Tsn7QIak4EsvaZW","playlistName":"كتاب التيسير المعين بشرح معاني منازل السائرين (تصوف) - د.يسري جبر","category":"تصوف"},{"id":"gWKmvpIFrq0","title":"ما هي آداب الدخول في طريق التصوف؟","publishedAt":"2025-08-05T19:30:06Z","duration":"PT30M21S","thumbnail":"https://i.ytimg.com/vi/gWKmvpIFrq0/mqdefault.jpg","viewCount":"2791","playlistId":"PLEkQk5xrP-tmsEDdkkXMM1ca2-AquQYad","playlistName":"شرح كتاب مدارج الحقيقة في الرابطة عند أهل الطريقة","category":"متنوع"}],"total":7670,"page":276,"pageSize":24,"totalPages":320}