{"items":[{"id":"fkBuUGh4fsE","title":"قراءة القرآن (من آية ٧ سورة الصف)","publishedAt":"2016-01-22T04:45:30Z","duration":"PT5M20S","thumbnail":"https://i.ytimg.com/vi/fkBuUGh4fsE/mqdefault.jpg","viewCount":"69","playlistId":"PLEkQk5xrP-tnUSUj0uyJhA-kwNC7Gkx_j","playlistName":"مقرأة الفجر - بداية من سورة الإسراء حتى سورة الناس","category":"تفسير"},{"id":"5vL9ArZpU8k","title":"شرح كتاب صفة القيامة والرقائق والورع من سنن الترمذي - المجلس السادس","publishedAt":"2016-01-21T10:20:22Z","duration":"PT36M52S","thumbnail":"https://i.ytimg.com/vi/5vL9ArZpU8k/mqdefault.jpg","viewCount":"194","playlistId":"PLEkQk5xrP-tnu6of679SvxdVx0qSrJzmb","playlistName":"شرح سنن الإمام الترمذي رضى الله عنه د. يسري جبر","category":"متنوع"},{"id":"77Fnywjqqrk","title":"قراءة القرآن (من أول سورة الصف)","publishedAt":"2016-01-21T07:21:56Z","duration":"PT17M19S","thumbnail":"https://i.ytimg.com/vi/77Fnywjqqrk/mqdefault.jpg","viewCount":"86","playlistId":"PLEkQk5xrP-tnUSUj0uyJhA-kwNC7Gkx_j","playlistName":"مقرأة الفجر - بداية من سورة الإسراء حتى سورة الناس","category":"تفسير"},{"id":"YjxOk-zhOsE","title":"شرح كتاب صفة القيامة والرقائق والورع من سنن الترمذي - المجلس الرابع","publishedAt":"2016-01-19T10:06:04Z","duration":"PT45M39S","thumbnail":"https://i.ytimg.com/vi/YjxOk-zhOsE/mqdefault.jpg","viewCount":"203","playlistId":"PLEkQk5xrP-tnu6of679SvxdVx0qSrJzmb","playlistName":"شرح سنن الإمام الترمذي رضى الله عنه د. يسري جبر","category":"متنوع"},{"id":"xU41Hn_m3MY","title":"قراءة القرآن (من آية ١٠ سورة الممتحنة)","publishedAt":"2016-01-19T07:10:38Z","duration":"PT17M34S","thumbnail":"https://i.ytimg.com/vi/xU41Hn_m3MY/mqdefault.jpg","viewCount":"103","playlistId":"PLEkQk5xrP-tnUSUj0uyJhA-kwNC7Gkx_j","playlistName":"مقرأة الفجر - بداية من سورة الإسراء حتى سورة الناس","category":"تفسير"},{"id":"hSt4SW2VM6g","title":"صحيح الإمام البخاري رضي الله عنه - كتاب الأطعمة - المجلس الأول","publishedAt":"2016-01-18T18:59:34Z","duration":"PT1H23M10S","thumbnail":"https://i.ytimg.com/vi/hSt4SW2VM6g/mqdefault.jpg","viewCount":"227","playlistId":"PLEkQk5xrP-tmJuzaj4GWRenFoFx9gdbFX","playlistName":"شرح كتاب صحيح الإمام البخاري رضي الله تعالى عنه   أ.د. يسرى جبر","category":"حديث"},{"id":"Xre46v0yeQM","title":"شرح كتاب صفة القيامة والرقائق والورع من سنن الترمذي - المجلس الثالث","publishedAt":"2016-01-18T08:18:13Z","duration":"PT48M16S","thumbnail":"https://i.ytimg.com/vi/Xre46v0yeQM/mqdefault.jpg","viewCount":"231","playlistId":"PLEkQk5xrP-tnu6of679SvxdVx0qSrJzmb","playlistName":"شرح سنن الإمام الترمذي رضى الله عنه د. يسري جبر","category":"متنوع"},{"id":"X1FVLoU8LDc","title":"قراءة القرآن (من أول سورة الممتحنة)","publishedAt":"2016-01-18T06:41:01Z","duration":"PT11M17S","thumbnail":"https://i.ytimg.com/vi/X1FVLoU8LDc/mqdefault.jpg","viewCount":"100","playlistId":"PLEkQk5xrP-tnUSUj0uyJhA-kwNC7Gkx_j","playlistName":"مقرأة الفجر - بداية من سورة الإسراء حتى سورة الناس","category":"تفسير"},{"id":"cgixz-3AIuA","title":"علَيك أَن تَتَعَلَّمَ سُنَّةَ نَبِيِّكَ صَلَّى اللهُ علَيه وآله وسَلَّم وكيف كان يعيش د. يسري جبر","publishedAt":"2015-07-11T10:30:58Z","duration":"PT49M52S","thumbnail":"https://i.ytimg.com/vi/cgixz-3AIuA/mqdefault.jpg","viewCount":"235","playlistId":"PLEkQk5xrP-tlArtGpeLWaqNM7h7IDeAVC","playlistName":"خطب الجمعة أ.د. يسري جبر","category":"خطب"},{"id":"zlbLpJdzNz4","title":"شرح القصيدة المنفرجة لابن النحوي رضى الله عنه  - المجلس الثالث - د. يسري جبر","publishedAt":"2015-07-11T10:30:11Z","duration":"PT50M19S","thumbnail":"https://i.ytimg.com/vi/zlbLpJdzNz4/mqdefault.jpg","viewCount":"4511","playlistId":"PLEkQk5xrP-tna48sTO8GZ77fBCf3PgzNc","playlistName":"شرح القصيدة المنفرجة لابن النحوي - د. يسري جبر","category":"متنوع"},{"id":"3gAn3YxxTVQ","title":"شرح كتاب النذور و الأيمان من سنن الترمذى - المجلس الثالث","publishedAt":"2015-07-11T04:06:16Z","duration":"PT29M46S","thumbnail":"https://i.ytimg.com/vi/3gAn3YxxTVQ/mqdefault.jpg","viewCount":"148","playlistId":"PLEkQk5xrP-tnu6of679SvxdVx0qSrJzmb","playlistName":"شرح سنن الإمام الترمذي رضى الله عنه د. يسري جبر","category":"متنوع"},{"id":"LH6RBzRmgEc","title":"قراءة القرآن (من آية 29 سورة القصص)","publishedAt":"2015-07-11T03:35:26Z","duration":"PT23M31S","thumbnail":"https://i.ytimg.com/vi/LH6RBzRmgEc/mqdefault.jpg","viewCount":"224","playlistId":"PLEkQk5xrP-tnUSUj0uyJhA-kwNC7Gkx_j","playlistName":"مقرأة الفجر - بداية من سورة الإسراء حتى سورة الناس","category":"تفسير"},{"id":"O4qZDLjeGsI","title":"شرح كتاب الأذكار من كلام سيد الأبرار للإمام النووى رضى الله عنه - المجلس الحادى والثلاثون","publishedAt":"2015-07-10T16:56:48Z","duration":"PT10M56S","thumbnail":"https://i.ytimg.com/vi/O4qZDLjeGsI/mqdefault.jpg","viewCount":"285","playlistId":"PLEkQk5xrP-tkWS57Ubysh0ifJR8dmuEtE","playlistName":"شرح كتاب الأذكار للإمام النووي د. يسرى جبر","category":"حديث"},{"id":"lyU3MUatGjQ","title":"شرح كتاب النذور و الأيمان من سنن الترمذى - المجلس الثاني","publishedAt":"2015-07-10T04:04:46Z","duration":"PT24M15S","thumbnail":"https://i.ytimg.com/vi/lyU3MUatGjQ/mqdefault.jpg","viewCount":"103","playlistId":"PLEkQk5xrP-tnu6of679SvxdVx0qSrJzmb","playlistName":"شرح سنن الإمام الترمذي رضى الله عنه د. يسري جبر","category":"متنوع"},{"id":"WUgm144jWVs","title":"شرح صحيح البخاري - كتاب الشهادات من باب ١٢","publishedAt":"2017-06-23T17:19:10Z","duration":"PT15M45S","thumbnail":"https://i.ytimg.com/vi/WUgm144jWVs/mqdefault.jpg","viewCount":"535","playlistId":"PLEkQk5xrP-tlEerGoLa1AFy-2XvQ-sovv","playlistName":"شرح صحيح البخاري - أ.د. يسري جبر (كاملا)","category":"حديث"},{"id":"wqdHPPWTdaY","title":"مقرأة سورة يوسف من آية ٧","publishedAt":"2017-06-23T15:39:53Z","duration":"PT25M12S","thumbnail":"https://i.ytimg.com/vi/wqdHPPWTdaY/mqdefault.jpg","viewCount":"673","playlistId":"PLEkQk5xrP-tnmTYsyW6xNdyfhPq0Bhrhj","playlistName":"مقرأة الفجر - القُرْآنُ الكَرِيمُ - خَتْمَةُ التَّدَبُّرِ  أ.د. يسري جبر","category":"متنوع"},{"id":"1IxXvUw0EQw","title":"( 136 ) حديث اقتناء الخيل في سبيل الله  د. يسري جبر","publishedAt":"2017-06-23T05:42:02Z","duration":"PT21M27S","thumbnail":"https://i.ytimg.com/vi/1IxXvUw0EQw/mqdefault.jpg","viewCount":"254","playlistId":"PLEkQk5xrP-tnl7vb7KeAoPd5ZlqKKW8KV","playlistName":"شرح كتاب بهجة النفوس أ.د . يسرى جبر","category":"متنوع"},{"id":"qbAe8YqvjsI","title":"شرح صحيح البخاري - كتاب الشهادات من باب ٨","publishedAt":"2017-06-22T17:31:48Z","duration":"PT41M21S","thumbnail":"https://i.ytimg.com/vi/qbAe8YqvjsI/mqdefault.jpg","viewCount":"634","playlistId":"PLEkQk5xrP-tlEerGoLa1AFy-2XvQ-sovv","playlistName":"شرح صحيح البخاري - أ.د. يسري جبر (كاملا)","category":"حديث"},{"id":"NLBejSiRzP4","title":"مقرأة سورة يوسف من أولها","publishedAt":"2017-06-22T12:26:46Z","duration":"PT15M39S","thumbnail":"https://i.ytimg.com/vi/NLBejSiRzP4/mqdefault.jpg","viewCount":"950","playlistId":"PLEkQk5xrP-tnmTYsyW6xNdyfhPq0Bhrhj","playlistName":"مقرأة الفجر - القُرْآنُ الكَرِيمُ - خَتْمَةُ التَّدَبُّرِ  أ.د. يسري جبر","category":"متنوع"},{"id":"3a1DhC3QgWU","title":"شرح صحيح البخاري - كتاب الشهادات من باب ٥","publishedAt":"2017-06-21T18:34:54Z","duration":"PT20M47S","thumbnail":"https://i.ytimg.com/vi/3a1DhC3QgWU/mqdefault.jpg","viewCount":"581","playlistId":"PLEkQk5xrP-tlEerGoLa1AFy-2XvQ-sovv","playlistName":"شرح صحيح البخاري - أ.د. يسري جبر (كاملا)","category":"حديث"},{"id":"MUEELo9A99c","title":"شرح الحزب الكبير- المجلس الثالث   د.يسري جبر","publishedAt":"2017-06-21T13:19:21Z","duration":"PT36M38S","thumbnail":"https://i.ytimg.com/vi/MUEELo9A99c/mqdefault.jpg","viewCount":"11032","playlistId":"PLEkQk5xrP-tlm5F9ID5I_--LMV7PcWjp_","playlistName":"شرح الحزب الكبير لسيدى أبي الحسن الشاذلي د.يسري جبر","category":"متنوع"},{"id":"tTkhuTt_Rt8","title":"مقرأة سورة هود من آية ١١٢","publishedAt":"2017-06-21T11:00:48Z","duration":"PT24M36S","thumbnail":"https://i.ytimg.com/vi/tTkhuTt_Rt8/mqdefault.jpg","viewCount":"370","playlistId":"PLEkQk5xrP-tnmTYsyW6xNdyfhPq0Bhrhj","playlistName":"مقرأة الفجر - القُرْآنُ الكَرِيمُ - خَتْمَةُ التَّدَبُّرِ  أ.د. يسري جبر","category":"متنوع"},{"id":"CVSMyRAp1y0","title":"شرح صحيح البخاري - كتاب أحاديث الأنبياء من أوله","publishedAt":"2017-09-25T14:47:02Z","duration":"PT37M22S","thumbnail":"https://i.ytimg.com/vi/CVSMyRAp1y0/mqdefault.jpg","viewCount":"1070","playlistId":"PLEkQk5xrP-tlEerGoLa1AFy-2XvQ-sovv","playlistName":"شرح صحيح البخاري - أ.د. يسري جبر (كاملا)","category":"حديث"},{"id":"yn5_0MR1pTw","title":"مقرأة سورة الإسراء من آية ٤١","publishedAt":"2017-09-25T13:12:42Z","duration":"PT12M58S","thumbnail":"https://i.ytimg.com/vi/yn5_0MR1pTw/mqdefault.jpg","viewCount":"320","playlistId":"PLEkQk5xrP-tnmTYsyW6xNdyfhPq0Bhrhj","playlistName":"مقرأة الفجر - القُرْآنُ الكَرِيمُ - خَتْمَةُ التَّدَبُّرِ  أ.د. يسري جبر","category":"متنوع"}],"total":7670,"page":298,"pageSize":24,"totalPages":320}