{"items":[{"id":"ZyuEAdpyK1w","title":"128- معنى (أن) - شرح الإتقان في علوم القرآن","publishedAt":"2023-07-19T05:00:14Z","duration":"PT25M57S","thumbnail":"https://i.ytimg.com/vi/ZyuEAdpyK1w/mqdefault.jpg","viewCount":"420","playlistId":"PLEkQk5xrP-tlPw10KGJKagu7zm4Ry2Tge","playlistName":"شرح الإتقان في علوم القرآن","category":"تفسير"},{"id":"EOs0Rzwi5CY","title":"كيف نستقبل العام الهجري الجديد؟","publishedAt":"2023-07-18T18:00:04Z","duration":"PT16M5S","thumbnail":"https://i.ytimg.com/vi/EOs0Rzwi5CY/mqdefault.jpg","viewCount":"7472","playlistId":"PLEkQk5xrP-tlArtGpeLWaqNM7h7IDeAVC","playlistName":"خطب الجمعة أ.د. يسري جبر","category":"خطب"},{"id":"7nqhIVH4jl0","title":"500- آللَّهُ أَمَرَكَ بهذا؟ قالَ: نَعَمْ، قالَتْ: إذَنْ لا يُضَيِّعُنَا - شرح دليل الفالحين","publishedAt":"2023-07-18T08:59:00Z","duration":"PT1H18M48S","thumbnail":"https://i.ytimg.com/vi/7nqhIVH4jl0/mqdefault.jpg","viewCount":"678","playlistId":"PLEkQk5xrP-tkc9DXvSLguqX5-FYp6ASR4","playlistName":"دليل الفالحين لطرق رياض الصالحين","category":"متنوع"},{"id":"Tufqtp93G-8","title":"127- معنى (إن) - شرح الإتقان في علوم القرآن","publishedAt":"2023-07-18T05:00:23Z","duration":"PT42M15S","thumbnail":"https://i.ytimg.com/vi/Tufqtp93G-8/mqdefault.jpg","viewCount":"377","playlistId":"PLEkQk5xrP-tlPw10KGJKagu7zm4Ry2Tge","playlistName":"شرح الإتقان في علوم القرآن","category":"تفسير"},{"id":"cXgfE6PV-RA","title":"هل الزواج أثناء الدراسة أفضل أم الدراسة ثم الزواج؟","publishedAt":"2023-07-17T18:00:15Z","duration":"PT10M2S","thumbnail":"https://i.ytimg.com/vi/cXgfE6PV-RA/mqdefault.jpg","viewCount":"8435","playlistId":"PLEkQk5xrP-tm8ZIu74nTOZN9KJUJu416J","playlistName":"مقاطع مُهمَّة (يُسريَّات) أ.د. يسري جبر","category":"متنوع"},{"id":"Gd5Z-gOBEz8","title":"الدفاع عن الصحابة وحكم الطعن فيهم!","publishedAt":"2023-07-16T18:00:12Z","duration":"PT11M12S","thumbnail":"https://i.ytimg.com/vi/Gd5Z-gOBEz8/mqdefault.jpg","viewCount":"3583","playlistId":"PLEkQk5xrP-tlArtGpeLWaqNM7h7IDeAVC","playlistName":"خطب الجمعة أ.د. يسري جبر","category":"خطب"},{"id":"qqkG3WVbaZk","title":"126- معنى (أمَّا - إِمَّا) - شرح الإتقان في علوم القرآن","publishedAt":"2023-07-16T05:05:00Z","duration":"PT13M17S","thumbnail":"https://i.ytimg.com/vi/qqkG3WVbaZk/mqdefault.jpg","viewCount":"719","playlistId":"PLEkQk5xrP-tlPw10KGJKagu7zm4Ry2Tge","playlistName":"شرح الإتقان في علوم القرآن","category":"تفسير"},{"id":"Go1kDuLuwIg","title":"ما الفرق بين الدنيا والبرزخ والبعث والنشور؟","publishedAt":"2023-07-15T18:00:05Z","duration":"PT8M21S","thumbnail":"https://i.ytimg.com/vi/Go1kDuLuwIg/mqdefault.jpg","viewCount":"6890","playlistId":"PLEkQk5xrP-tlArtGpeLWaqNM7h7IDeAVC","playlistName":"خطب الجمعة أ.د. يسري جبر","category":"خطب"},{"id":"J8FcnmC8JQ0","title":"شرح مبسط لوحدة الوجود عند الصوفية","publishedAt":"2023-07-14T18:00:06Z","duration":"PT9M7S","thumbnail":"https://i.ytimg.com/vi/J8FcnmC8JQ0/mqdefault.jpg","viewCount":"24258","playlistId":"PLEkQk5xrP-tlArtGpeLWaqNM7h7IDeAVC","playlistName":"خطب الجمعة أ.د. يسري جبر","category":"خطب"},{"id":"6OjApf3WAts","title":"125- معنى (أم) - شرح الإتقان في علوم القرآن","publishedAt":"2023-07-14T05:00:03Z","duration":"PT16M6S","thumbnail":"https://i.ytimg.com/vi/6OjApf3WAts/mqdefault.jpg","viewCount":"585","playlistId":"PLEkQk5xrP-tlPw10KGJKagu7zm4Ry2Tge","playlistName":"شرح الإتقان في علوم القرآن","category":"تفسير"},{"id":"3w-zEm3TPJs","title":"499- بيان كرامة النَّبيّ ﷺ على ربّه سبحانه وإثبات الشَّفاعة العامة له ﷺ - شرح دليل الفالحين","publishedAt":"2023-07-13T05:00:01Z","duration":"PT1H3M18S","thumbnail":"https://i.ytimg.com/vi/3w-zEm3TPJs/mqdefault.jpg","viewCount":"1444","playlistId":"PLEkQk5xrP-tkc9DXvSLguqX5-FYp6ASR4","playlistName":"دليل الفالحين لطرق رياض الصالحين","category":"متنوع"},{"id":"IsfhZyoEFFk","title":"124- معنى كلمة (اللَّهُمَّ) - شرح الإتقان في علوم القرآن","publishedAt":"2023-07-11T05:00:13Z","duration":"PT16M38S","thumbnail":"https://i.ytimg.com/vi/IsfhZyoEFFk/mqdefault.jpg","viewCount":"1751","playlistId":"PLEkQk5xrP-tlPw10KGJKagu7zm4Ry2Tge","playlistName":"شرح الإتقان في علوم القرآن","category":"تفسير"},{"id":"gvotAd7Gqt0","title":"498- خُطبة النَّبيّ ﷺ التي استمرت من الفجر  إلى المغرب - شرح دليل الفالحين","publishedAt":"2023-07-10T08:59:00Z","duration":"PT22M14S","thumbnail":"https://i.ytimg.com/vi/gvotAd7Gqt0/mqdefault.jpg","viewCount":"2302","playlistId":"PLEkQk5xrP-tkc9DXvSLguqX5-FYp6ASR4","playlistName":"دليل الفالحين لطرق رياض الصالحين","category":"متنوع"},{"id":"LN-oTK651-4","title":"123- معنى كلمة (الآن) - شرح الإتقان في علوم القرآن","publishedAt":"2023-07-10T05:00:14Z","duration":"PT12M42S","thumbnail":"https://i.ytimg.com/vi/LN-oTK651-4/mqdefault.jpg","viewCount":"569","playlistId":"PLEkQk5xrP-tlPw10KGJKagu7zm4Ry2Tge","playlistName":"شرح الإتقان في علوم القرآن","category":"تفسير"},{"id":"B6-UuVt3UsQ","title":"497- مَن مَاتَ وعليه صِيَامٌ صَامَ عنْه ولِيُّهُ - شرح دليل الفالحين","publishedAt":"2023-07-09T08:59:00Z","duration":"PT36M34S","thumbnail":"https://i.ytimg.com/vi/B6-UuVt3UsQ/mqdefault.jpg","viewCount":"673","playlistId":"PLEkQk5xrP-tkc9DXvSLguqX5-FYp6ASR4","playlistName":"دليل الفالحين لطرق رياض الصالحين","category":"متنوع"},{"id":"caYS7eQgjvA","title":"122- معاني الحروف (أَلا - أَلَّا - إِلَّا) والفرق بينهما - شرح الإتقان في علوم القرآن","publishedAt":"2023-07-09T05:00:17Z","duration":"PT30M15S","thumbnail":"https://i.ytimg.com/vi/caYS7eQgjvA/mqdefault.jpg","viewCount":"978","playlistId":"PLEkQk5xrP-tlPw10KGJKagu7zm4Ry2Tge","playlistName":"شرح الإتقان في علوم القرآن","category":"تفسير"},{"id":"RWDGIVV2WEE","title":"496- أسباب قبول الدعاء - شرح دليل الفالحين","publishedAt":"2023-07-08T08:59:00Z","duration":"PT39M30S","thumbnail":"https://i.ytimg.com/vi/RWDGIVV2WEE/mqdefault.jpg","viewCount":"1287","playlistId":"PLEkQk5xrP-tkc9DXvSLguqX5-FYp6ASR4","playlistName":"دليل الفالحين لطرق رياض الصالحين","category":"متنوع"},{"id":"cin6bt2OMNQ","title":"121- معنى كلمة (أُفّ) - شرح الإتقان في علوم القرآن","publishedAt":"2023-07-08T05:00:19Z","duration":"PT28M56S","thumbnail":"https://i.ytimg.com/vi/cin6bt2OMNQ/mqdefault.jpg","viewCount":"562","playlistId":"PLEkQk5xrP-tlPw10KGJKagu7zm4Ry2Tge","playlistName":"شرح الإتقان في علوم القرآن","category":"تفسير"},{"id":"Yq1Uuy7fKJU","title":"495- بُشْرَى المُؤْمِن برحمة الله ورضوانه وجَنَّته - شرح دليل الفالحين","publishedAt":"2023-07-07T08:59:00Z","duration":"PT55M6S","thumbnail":"https://i.ytimg.com/vi/Yq1Uuy7fKJU/mqdefault.jpg","viewCount":"820","playlistId":"PLEkQk5xrP-tkc9DXvSLguqX5-FYp6ASR4","playlistName":"دليل الفالحين لطرق رياض الصالحين","category":"متنوع"},{"id":"9HMwL0vHrN0","title":"120- معاني كلمة (إذًا) وإعراب ما بعدها - شرح الإتقان في علوم القرآن","publishedAt":"2023-07-07T05:00:08Z","duration":"PT18M15S","thumbnail":"https://i.ytimg.com/vi/9HMwL0vHrN0/mqdefault.jpg","viewCount":"467","playlistId":"PLEkQk5xrP-tlPw10KGJKagu7zm4Ry2Tge","playlistName":"شرح الإتقان في علوم القرآن","category":"تفسير"},{"id":"wk_hxATBtAI","title":"119- تكملة ما جاء في معاني كلمة (إذا) تنبيهات - شرح الإتقان في علوم القرآن","publishedAt":"2023-07-06T05:00:20Z","duration":"PT22M5S","thumbnail":"https://i.ytimg.com/vi/wk_hxATBtAI/mqdefault.jpg","viewCount":"677","playlistId":"PLEkQk5xrP-tlPw10KGJKagu7zm4Ry2Tge","playlistName":"شرح الإتقان في علوم القرآن","category":"تفسير"},{"id":"aBFQlIzBl30","title":"494- لا تكونن إن استطعتَ أولَ مَن يدخلُ السوقَ ولا آخرَ مَن يخرجُ منه - شرح دليل الفالحين","publishedAt":"2023-07-05T08:59:00Z","duration":"PT33M42S","thumbnail":"https://i.ytimg.com/vi/aBFQlIzBl30/mqdefault.jpg","viewCount":"846","playlistId":"PLEkQk5xrP-tkc9DXvSLguqX5-FYp6ASR4","playlistName":"دليل الفالحين لطرق رياض الصالحين","category":"متنوع"},{"id":"skubg8N53vs","title":"118- معاني كلمة (إذا) - شرح الإتقان في علوم القرآن","publishedAt":"2023-07-05T05:00:31Z","duration":"PT15M48S","thumbnail":"https://i.ytimg.com/vi/skubg8N53vs/mqdefault.jpg","viewCount":"518","playlistId":"PLEkQk5xrP-tlPw10KGJKagu7zm4Ry2Tge","playlistName":"شرح الإتقان في علوم القرآن","category":"تفسير"},{"id":"6bzOTw7HvQg","title":"493- ثلاثةٌ لا يكلمُهُمُ اللهُ يومَ القيامة ولا يَنْظُرُ إليهم ولا يُزَكِّيهِمْ… - شرح دليل الفالحين","publishedAt":"2023-07-04T08:59:00Z","duration":"PT31M6S","thumbnail":"https://i.ytimg.com/vi/6bzOTw7HvQg/mqdefault.jpg","viewCount":"979","playlistId":"PLEkQk5xrP-tkc9DXvSLguqX5-FYp6ASR4","playlistName":"دليل الفالحين لطرق رياض الصالحين","category":"متنوع"}],"total":7670,"page":98,"pageSize":24,"totalPages":320}