{"items":[{"id":"jpqqMylCbJE","title":"شرح صحيح البخاري - كتاب الشركة من باب ٦","publishedAt":"2017-06-01T21:31:25Z","duration":"PT45M12S","thumbnail":"https://i.ytimg.com/vi/jpqqMylCbJE/mqdefault.jpg","viewCount":"724","playlistId":"PLEkQk5xrP-tlEerGoLa1AFy-2XvQ-sovv","playlistName":"شرح صحيح البخاري - أ.د. يسري جبر (كاملا)","category":"حديث"},{"id":"aPJZYDmnrqw","title":"سورة هود آية 12","publishedAt":"2017-06-01T21:30:18Z","duration":"PT12M12S","thumbnail":"https://i.ytimg.com/vi/aPJZYDmnrqw/mqdefault.jpg","viewCount":"349","playlistId":"PLEkQk5xrP-tnmTYsyW6xNdyfhPq0Bhrhj","playlistName":"مقرأة الفجر - القُرْآنُ الكَرِيمُ - خَتْمَةُ التَّدَبُّرِ  أ.د. يسري جبر","category":"متنوع"},{"id":"XPAP9YFeEfg","title":"شرح صحيح البخاري - كتاب الشركة من أوله","publishedAt":"2017-06-01T21:29:11Z","duration":"PT36M52S","thumbnail":"https://i.ytimg.com/vi/XPAP9YFeEfg/mqdefault.jpg","viewCount":"840","playlistId":"PLEkQk5xrP-tlEerGoLa1AFy-2XvQ-sovv","playlistName":"شرح صحيح البخاري - أ.د. يسري جبر (كاملا)","category":"حديث"},{"id":"Co0fLk8cUkg","title":"سورة هود آية 6","publishedAt":"2017-06-01T21:28:07Z","duration":"PT15M28S","thumbnail":"https://i.ytimg.com/vi/Co0fLk8cUkg/mqdefault.jpg","viewCount":"396","playlistId":"PLEkQk5xrP-tnmTYsyW6xNdyfhPq0Bhrhj","playlistName":"مقرأة الفجر - القُرْآنُ الكَرِيمُ - خَتْمَةُ التَّدَبُّرِ  أ.د. يسري جبر","category":"متنوع"},{"id":"9aPofSxJj50","title":"الرسالة القشيرية المجلس الثامن و الثلاثون (باب التوبة) د. يسري جبر","publishedAt":"2018-11-30T17:49:56Z","duration":"PT45M7S","thumbnail":"https://i.ytimg.com/vi/9aPofSxJj50/mqdefault.jpg","viewCount":"7663","playlistId":"PLEkQk5xrP-tkHAGOwIKr4pc5ehhyQ5HMJ","playlistName":"كتاب الرسالة القشيرية (تصوف) - د. يسري جبر","category":"تصوف"},{"id":"-R0IlfovUZ8","title":"شرح صحيح البخاري كتاب المحاربين من أهل الكفر والردة من باب ١٧","publishedAt":"2018-11-30T15:12:29Z","duration":"PT35M39S","thumbnail":"https://i.ytimg.com/vi/-R0IlfovUZ8/mqdefault.jpg","viewCount":"422","playlistId":"PLEkQk5xrP-tlEerGoLa1AFy-2XvQ-sovv","playlistName":"شرح صحيح البخاري - أ.د. يسري جبر (كاملا)","category":"حديث"},{"id":"LxA9vNq0e0E","title":"مقرأة سورة الشورى من آية ١٣","publishedAt":"2018-11-30T05:13:10Z","duration":"PT15M7S","thumbnail":"https://i.ytimg.com/vi/LxA9vNq0e0E/mqdefault.jpg","viewCount":"323","playlistId":"PLEkQk5xrP-tnmTYsyW6xNdyfhPq0Bhrhj","playlistName":"مقرأة الفجر - القُرْآنُ الكَرِيمُ - خَتْمَةُ التَّدَبُّرِ  أ.د. يسري جبر","category":"متنوع"},{"id":"kZTnzBYvDAQ","title":"شرح صحيح البخاري كتاب المحاربين من أهل الكفر والردة من باب ٧","publishedAt":"2018-11-29T20:50:24Z","duration":"PT32M","thumbnail":"https://i.ytimg.com/vi/kZTnzBYvDAQ/mqdefault.jpg","viewCount":"397","playlistId":"PLEkQk5xrP-tlEerGoLa1AFy-2XvQ-sovv","playlistName":"شرح صحيح البخاري - أ.د. يسري جبر (كاملا)","category":"حديث"},{"id":"mpLvNLpY-PE","title":"مقرأة سورة الشورى من آية ٩","publishedAt":"2018-11-29T19:33:52Z","duration":"PT25M31S","thumbnail":"https://i.ytimg.com/vi/mpLvNLpY-PE/mqdefault.jpg","viewCount":"553","playlistId":"PLEkQk5xrP-tnmTYsyW6xNdyfhPq0Bhrhj","playlistName":"مقرأة الفجر - القُرْآنُ الكَرِيمُ - خَتْمَةُ التَّدَبُّرِ  أ.د. يسري جبر","category":"متنوع"},{"id":"2EP5dtEfF0o","title":"شرح صحيح البخاري كتاب المحاربين من أهل الكفر والردة من أوله","publishedAt":"2018-11-29T12:26:41Z","duration":"PT34M56S","thumbnail":"https://i.ytimg.com/vi/2EP5dtEfF0o/mqdefault.jpg","viewCount":"431","playlistId":"PLEkQk5xrP-tlEerGoLa1AFy-2XvQ-sovv","playlistName":"شرح صحيح البخاري - أ.د. يسري جبر (كاملا)","category":"حديث"},{"id":"DCo__NwlWgM","title":"مقرأة سورة الشورى من أولها","publishedAt":"2018-11-28T14:34:53Z","duration":"PT22M45S","thumbnail":"https://i.ytimg.com/vi/DCo__NwlWgM/mqdefault.jpg","viewCount":"1222","playlistId":"PLEkQk5xrP-tnmTYsyW6xNdyfhPq0Bhrhj","playlistName":"مقرأة الفجر - القُرْآنُ الكَرِيمُ - خَتْمَةُ التَّدَبُّرِ  أ.د. يسري جبر","category":"متنوع"},{"id":"DQHCnfSPUkw","title":"الندوة الطبية مع د. يسري جبر","publishedAt":"2018-11-28T09:55:02Z","duration":"PT38M26S","thumbnail":"https://i.ytimg.com/vi/DQHCnfSPUkw/mqdefault.jpg","viewCount":"1008","playlistId":"PLEkQk5xrP-tmJzNvLntpzW0uPanPzxA0c","playlistName":"لقاءات ومحاضرات","category":"متنوع"},{"id":"vZJWznlyMAg","title":"شرح كتاب نور اليقين في سيرة سيد المرسلين للشيخ الخضري رحمه الله (المجلس66) د. يسري جبر","publishedAt":"2018-11-27T18:28:48Z","duration":"PT49M39S","thumbnail":"https://i.ytimg.com/vi/vZJWznlyMAg/mqdefault.jpg","viewCount":"6710","playlistId":"PLEkQk5xrP-tl2t4NQx1IhKnAJCMzF0Nli","playlistName":"شرح كتاب نور اليقين في سيرة سيد المرسلين   د. يسري جبر","category":"سيرة"},{"id":"wu0rnGuRB1E","title":"شرح صحيح البخاري كتاب الحدود من باب ٩","publishedAt":"2018-11-27T15:54:24Z","duration":"PT27M56S","thumbnail":"https://i.ytimg.com/vi/wu0rnGuRB1E/mqdefault.jpg","viewCount":"387","playlistId":"PLEkQk5xrP-tlEerGoLa1AFy-2XvQ-sovv","playlistName":"شرح صحيح البخاري - أ.د. يسري جبر (كاملا)","category":"حديث"},{"id":"xMvyhen0NDY","title":"شرح كتاب نور اليقين في سيرة سيد المرسلين للشيخ الخضري رحمه الله (المجلس65) د. يسري جبر","publishedAt":"2018-11-27T11:05:12Z","duration":"PT49M3S","thumbnail":"https://i.ytimg.com/vi/xMvyhen0NDY/mqdefault.jpg","viewCount":"6888","playlistId":"PLEkQk5xrP-tl2t4NQx1IhKnAJCMzF0Nli","playlistName":"شرح كتاب نور اليقين في سيرة سيد المرسلين   د. يسري جبر","category":"سيرة"},{"id":"Dx1W462bAMA","title":"مقرأة سورة فصلت من آية ٤٥","publishedAt":"2018-11-27T10:03:01Z","duration":"PT31M50S","thumbnail":"https://i.ytimg.com/vi/Dx1W462bAMA/mqdefault.jpg","viewCount":"344","playlistId":"PLEkQk5xrP-tnmTYsyW6xNdyfhPq0Bhrhj","playlistName":"مقرأة الفجر - القُرْآنُ الكَرِيمُ - خَتْمَةُ التَّدَبُّرِ  أ.د. يسري جبر","category":"متنوع"},{"id":"zUuPnZ9HkK4","title":"شرح صحيح البخاري كتاب الحدود من أوله","publishedAt":"2018-11-26T19:04:32Z","duration":"PT37M18S","thumbnail":"https://i.ytimg.com/vi/zUuPnZ9HkK4/mqdefault.jpg","viewCount":"535","playlistId":"PLEkQk5xrP-tlEerGoLa1AFy-2XvQ-sovv","playlistName":"شرح صحيح البخاري - أ.د. يسري جبر (كاملا)","category":"حديث"},{"id":"1gQzccNaCDs","title":"مقرأة سورة فصلت من آية ٤٠","publishedAt":"2018-11-26T09:12:33Z","duration":"PT22M51S","thumbnail":"https://i.ytimg.com/vi/1gQzccNaCDs/mqdefault.jpg","viewCount":"341","playlistId":"PLEkQk5xrP-tnmTYsyW6xNdyfhPq0Bhrhj","playlistName":"مقرأة الفجر - القُرْآنُ الكَرِيمُ - خَتْمَةُ التَّدَبُّرِ  أ.د. يسري جبر","category":"متنوع"},{"id":"FzdnH4RYI-o","title":"شرح فتح القريب المجيب - كتاب أحكام السبق والرمي","publishedAt":"2016-12-21T18:26:02Z","duration":"PT24M29S","thumbnail":"https://i.ytimg.com/vi/FzdnH4RYI-o/mqdefault.jpg","viewCount":"404","playlistId":"PLEkQk5xrP-tlyOgfNBZTZgoATzVW4mI20","playlistName":"كتاب فتح القريب المجيب (علم الفقه الشافعي)","category":"فقه"},{"id":"9loWimxeq4g","title":"شرح صحيح البخاري - كتاب سجود القرآن من أوله","publishedAt":"2016-12-21T09:13:02Z","duration":"PT33M33S","thumbnail":"https://i.ytimg.com/vi/9loWimxeq4g/mqdefault.jpg","viewCount":"1032","playlistId":"PLEkQk5xrP-tlEerGoLa1AFy-2XvQ-sovv","playlistName":"شرح صحيح البخاري - أ.د. يسري جبر (كاملا)","category":"حديث"},{"id":"sXOhFfkDSY4","title":"سورة الأنعام آية 75","publishedAt":"2016-12-21T07:59:11Z","duration":"PT17M9S","thumbnail":"https://i.ytimg.com/vi/sXOhFfkDSY4/mqdefault.jpg","viewCount":"449","playlistId":"PLEkQk5xrP-tnmTYsyW6xNdyfhPq0Bhrhj","playlistName":"مقرأة الفجر - القُرْآنُ الكَرِيمُ - خَتْمَةُ التَّدَبُّرِ  أ.د. يسري جبر","category":"متنوع"},{"id":"42X5gMIOdaU","title":"شرح كتاب الأذكار من كلام سيد الأبرار للإمام النووى رضى الله عنه - المجلس الخمسون","publishedAt":"2016-12-21T06:43:31Z","duration":"PT14M25S","thumbnail":"https://i.ytimg.com/vi/42X5gMIOdaU/mqdefault.jpg","viewCount":"1259","playlistId":"PLEkQk5xrP-tkWS57Ubysh0ifJR8dmuEtE","playlistName":"شرح كتاب الأذكار للإمام النووي د. يسرى جبر","category":"حديث"},{"id":"VwtWtKg-OKg","title":"وشرح صحيح البخاري - كتاب الكسوف من باب ١٠","publishedAt":"2016-12-20T12:53:23Z","duration":"PT27M28S","thumbnail":"https://i.ytimg.com/vi/VwtWtKg-OKg/mqdefault.jpg","viewCount":"728","playlistId":"PLEkQk5xrP-tlEerGoLa1AFy-2XvQ-sovv","playlistName":"شرح صحيح البخاري - أ.د. يسري جبر (كاملا)","category":"حديث"},{"id":"V71jhTeiNr4","title":"سورة الأنعام آية 74","publishedAt":"2016-12-20T12:14:12Z","duration":"PT26M30S","thumbnail":"https://i.ytimg.com/vi/V71jhTeiNr4/mqdefault.jpg","viewCount":"386","playlistId":"PLEkQk5xrP-tnmTYsyW6xNdyfhPq0Bhrhj","playlistName":"مقرأة الفجر - القُرْآنُ الكَرِيمُ - خَتْمَةُ التَّدَبُّرِ  أ.د. يسري جبر","category":"متنوع"}],"total":7670,"page":243,"pageSize":24,"totalPages":320}