{"items":[{"id":"n20n6cPIGCw","title":"شرح صحيح البخاري - كتاب الجهاد والسير من باب ١١٦","publishedAt":"2017-08-13T14:16:56Z","duration":"PT31M3S","thumbnail":"https://i.ytimg.com/vi/n20n6cPIGCw/mqdefault.jpg","viewCount":"478","playlistId":"PLEkQk5xrP-tlEerGoLa1AFy-2XvQ-sovv","playlistName":"شرح صحيح البخاري - أ.د. يسري جبر (كاملا)","category":"حديث"},{"id":"rCGns1A2HhQ","title":"مقرأة سورة الحجر من آية ٨٦","publishedAt":"2017-08-13T08:23:04Z","duration":"PT29M32S","thumbnail":"https://i.ytimg.com/vi/rCGns1A2HhQ/mqdefault.jpg","viewCount":"365","playlistId":"PLEkQk5xrP-tnmTYsyW6xNdyfhPq0Bhrhj","playlistName":"مقرأة الفجر - القُرْآنُ الكَرِيمُ - خَتْمَةُ التَّدَبُّرِ  أ.د. يسري جبر","category":"متنوع"},{"id":"gEoxcuyQWWA","title":"55- كتاب النذور والأيمان ك الموطأ د يسري جبر الأزهري","publishedAt":"2017-08-13T08:08:48Z","duration":"PT1H4M12S","thumbnail":"https://i.ytimg.com/vi/gEoxcuyQWWA/mqdefault.jpg","viewCount":"283","playlistId":"PLEkQk5xrP-tnC6BRuqMjyO-484iqXeg0o","playlistName":"شرح كتاب الموطأ للإمام مالك","category":"متنوع"},{"id":"usiFg4DEPIs","title":"شرح صحيح البخاري - كتاب الجهاد والسير من باب ١١٠","publishedAt":"2017-08-12T20:05:01Z","duration":"PT39M6S","thumbnail":"https://i.ytimg.com/vi/usiFg4DEPIs/mqdefault.jpg","viewCount":"584","playlistId":"PLEkQk5xrP-tlEerGoLa1AFy-2XvQ-sovv","playlistName":"شرح صحيح البخاري - أ.د. يسري جبر (كاملا)","category":"حديث"},{"id":"q1zQ1kPkxAA","title":"شرح كتاب نوراليقين في سيرة سيد المرسلين المجلس التاسع عشر ( معاهدة اليهود  ) د.يسري جبر","publishedAt":"2017-08-12T17:45:55Z","duration":"PT50M25S","thumbnail":"https://i.ytimg.com/vi/q1zQ1kPkxAA/mqdefault.jpg","viewCount":"23024","playlistId":"PLEkQk5xrP-tl2t4NQx1IhKnAJCMzF0Nli","playlistName":"شرح كتاب نور اليقين في سيرة سيد المرسلين   د. يسري جبر","category":"سيرة"},{"id":"kyEl__66xvE","title":"مقرأة سورة الحجر من آية ٧٧","publishedAt":"2017-08-12T15:15:25Z","duration":"PT14M32S","thumbnail":"https://i.ytimg.com/vi/kyEl__66xvE/mqdefault.jpg","viewCount":"435","playlistId":"PLEkQk5xrP-tnmTYsyW6xNdyfhPq0Bhrhj","playlistName":"مقرأة الفجر - القُرْآنُ الكَرِيمُ - خَتْمَةُ التَّدَبُّرِ  أ.د. يسري جبر","category":"متنوع"},{"id":"VO26l2sLBss","title":"شرح صحيح البخاري - كتاب الجهاد والسير من باب ١٠٣","publishedAt":"2017-08-11T20:44:57Z","duration":"PT19M50S","thumbnail":"https://i.ytimg.com/vi/VO26l2sLBss/mqdefault.jpg","viewCount":"488","playlistId":"PLEkQk5xrP-tlEerGoLa1AFy-2XvQ-sovv","playlistName":"شرح صحيح البخاري - أ.د. يسري جبر (كاملا)","category":"حديث"},{"id":"6r65SeO6hhU","title":"مقرأة سورة الحجر من آية ٦١","publishedAt":"2017-08-11T15:35:56Z","duration":"PT18M24S","thumbnail":"https://i.ytimg.com/vi/6r65SeO6hhU/mqdefault.jpg","viewCount":"353","playlistId":"PLEkQk5xrP-tnmTYsyW6xNdyfhPq0Bhrhj","playlistName":"مقرأة الفجر - القُرْآنُ الكَرِيمُ - خَتْمَةُ التَّدَبُّرِ  أ.د. يسري جبر","category":"متنوع"},{"id":"JZ_t1nZCXOg","title":"54- باب التَّرْغِيبِ فِى الْجِهَادِ ك الموطأ د يسري جبر الأزهري","publishedAt":"2017-08-11T14:45:57Z","duration":"PT51M12S","thumbnail":"https://i.ytimg.com/vi/JZ_t1nZCXOg/mqdefault.jpg","viewCount":"290","playlistId":"PLEkQk5xrP-tnC6BRuqMjyO-484iqXeg0o","playlistName":"شرح كتاب الموطأ للإمام مالك","category":"متنوع"},{"id":"lpw1hYMlPUA","title":"53- باب مَا جَاءَ فِى السَّلَبِ فِى النَّفْلِ  ك الموطأ د يسري جبر الأزهري","publishedAt":"2017-08-11T14:45:22Z","duration":"PT1H4M4S","thumbnail":"https://i.ytimg.com/vi/lpw1hYMlPUA/mqdefault.jpg","viewCount":"266","playlistId":"PLEkQk5xrP-tnC6BRuqMjyO-484iqXeg0o","playlistName":"شرح كتاب الموطأ للإمام مالك","category":"متنوع"},{"id":"6VJbtwl_exk","title":"كُلُّ كَلامٍ يَبرُزُ وَعَليهِ كِسْوَةُ القَلبِ الذي مِنهُ بَرَزَ","publishedAt":"2017-08-11T08:50:57Z","duration":"PT10M26S","thumbnail":"https://i.ytimg.com/vi/6VJbtwl_exk/mqdefault.jpg","viewCount":"1361","playlistId":"PLEkQk5xrP-tkI_meE148wc7V7XHlB0WPb","playlistName":"من الحكم العطائية  د. يسري جبر","category":"متنوع"},{"id":"ISHynL4au0o","title":"الرضا بالإقامة عين الكرامة     د. يسري جبر","publishedAt":"2017-08-11T08:25:04Z","duration":"PT2M55S","thumbnail":"https://i.ytimg.com/vi/ISHynL4au0o/mqdefault.jpg","viewCount":"5774","playlistId":"PLEkQk5xrP-tm8ZIu74nTOZN9KJUJu416J","playlistName":"مقاطع مُهمَّة (يُسريَّات) أ.د. يسري جبر","category":"متنوع"},{"id":"_GizlSBp5DE","title":"شرح صحيح البخاري - كتاب الجهاد والسير من باب ٩٩","publishedAt":"2017-08-10T22:00:36Z","duration":"PT40M59S","thumbnail":"https://i.ytimg.com/vi/_GizlSBp5DE/mqdefault.jpg","viewCount":"552","playlistId":"PLEkQk5xrP-tlEerGoLa1AFy-2XvQ-sovv","playlistName":"شرح صحيح البخاري - أ.د. يسري جبر (كاملا)","category":"حديث"},{"id":"amo7euno33s","title":"مقرأة سورة الحجر من آية ٥١","publishedAt":"2017-08-10T08:48:16Z","duration":"PT22M5S","thumbnail":"https://i.ytimg.com/vi/amo7euno33s/mqdefault.jpg","viewCount":"356","playlistId":"PLEkQk5xrP-tnmTYsyW6xNdyfhPq0Bhrhj","playlistName":"مقرأة الفجر - القُرْآنُ الكَرِيمُ - خَتْمَةُ التَّدَبُّرِ  أ.د. يسري جبر","category":"متنوع"},{"id":"nAmAACernJU","title":"52- باب التَّرْغِيبِ فِى الْجِهَادِ  ك الموطأ د يسري جبر الأزهري","publishedAt":"2017-08-10T07:49:10Z","duration":"PT56M35S","thumbnail":"https://i.ytimg.com/vi/nAmAACernJU/mqdefault.jpg","viewCount":"296","playlistId":"PLEkQk5xrP-tnC6BRuqMjyO-484iqXeg0o","playlistName":"شرح كتاب الموطأ للإمام مالك","category":"متنوع"},{"id":"e_ZVqBWt7i4","title":"شرح صحيح البخاري - كتاب الجهاد والسير من باب ٩٢","publishedAt":"2017-08-09T19:30:43Z","duration":"PT35M59S","thumbnail":"https://i.ytimg.com/vi/e_ZVqBWt7i4/mqdefault.jpg","viewCount":"610","playlistId":"PLEkQk5xrP-tlEerGoLa1AFy-2XvQ-sovv","playlistName":"شرح صحيح البخاري - أ.د. يسري جبر (كاملا)","category":"حديث"},{"id":"0KFgTK0pj3Q","title":"مقرأة سورة الحجر من آية ٤٥","publishedAt":"2017-08-09T07:55:53Z","duration":"PT16M58S","thumbnail":"https://i.ytimg.com/vi/0KFgTK0pj3Q/mqdefault.jpg","viewCount":"380","playlistId":"PLEkQk5xrP-tnmTYsyW6xNdyfhPq0Bhrhj","playlistName":"مقرأة الفجر - القُرْآنُ الكَرِيمُ - خَتْمَةُ التَّدَبُّرِ  أ.د. يسري جبر","category":"متنوع"},{"id":"qBm0IBNaxq0","title":"شرح صحيح البخاري - كتاب الجهاد والسير من باب ٨٣","publishedAt":"2017-08-08T16:00:27Z","duration":"PT30M1S","thumbnail":"https://i.ytimg.com/vi/qBm0IBNaxq0/mqdefault.jpg","viewCount":"575","playlistId":"PLEkQk5xrP-tlEerGoLa1AFy-2XvQ-sovv","playlistName":"شرح صحيح البخاري - أ.د. يسري جبر (كاملا)","category":"حديث"},{"id":"H0-a9qjLT6Q","title":"مقرأة سورة الحجر من آية ٢٦","publishedAt":"2017-08-08T09:20:11Z","duration":"PT38M22S","thumbnail":"https://i.ytimg.com/vi/H0-a9qjLT6Q/mqdefault.jpg","viewCount":"464","playlistId":"PLEkQk5xrP-tnmTYsyW6xNdyfhPq0Bhrhj","playlistName":"مقرأة الفجر - القُرْآنُ الكَرِيمُ - خَتْمَةُ التَّدَبُّرِ  أ.د. يسري جبر","category":"متنوع"},{"id":"Be1cKme0fP4","title":"صحيح الإمام البخاري كتاب الرقاق قول النبي صلى الله عليه وآله وسلم هذا المال خضرة حلوة (4) د.يسري جبر","publishedAt":"2017-08-08T02:57:57Z","duration":"PT55M16S","thumbnail":"https://i.ytimg.com/vi/Be1cKme0fP4/mqdefault.jpg","viewCount":"285","playlistId":"PLEkQk5xrP-tmJuzaj4GWRenFoFx9gdbFX","playlistName":"شرح كتاب صحيح الإمام البخاري رضي الله تعالى عنه   أ.د. يسرى جبر","category":"حديث"},{"id":"St5Dr3Li9Ys","title":"شرح صحيح البخاري - كتاب الجهاد والسير من باب ٧٦","publishedAt":"2017-08-07T21:14:01Z","duration":"PT34M24S","thumbnail":"https://i.ytimg.com/vi/St5Dr3Li9Ys/mqdefault.jpg","viewCount":"540","playlistId":"PLEkQk5xrP-tlEerGoLa1AFy-2XvQ-sovv","playlistName":"شرح صحيح البخاري - أ.د. يسري جبر (كاملا)","category":"حديث"},{"id":"iXCiraJB17Q","title":"شرح صحيح الإمام البخاري رضي الله عنه - كتاب الرقاق - المجلس الثالث د.يسري جبر","publishedAt":"2017-08-07T15:05:44Z","duration":"PT52M50S","thumbnail":"https://i.ytimg.com/vi/iXCiraJB17Q/mqdefault.jpg","viewCount":"151","playlistId":"PLEkQk5xrP-tmJuzaj4GWRenFoFx9gdbFX","playlistName":"شرح كتاب صحيح الإمام البخاري رضي الله تعالى عنه   أ.د. يسرى جبر","category":"حديث"},{"id":"Nl1Vm5lYpjU","title":"مقرأة سورة الحجر من آية ١٦","publishedAt":"2017-08-07T08:21:10Z","duration":"PT20M32S","thumbnail":"https://i.ytimg.com/vi/Nl1Vm5lYpjU/mqdefault.jpg","viewCount":"367","playlistId":"PLEkQk5xrP-tnmTYsyW6xNdyfhPq0Bhrhj","playlistName":"مقرأة الفجر - القُرْآنُ الكَرِيمُ - خَتْمَةُ التَّدَبُّرِ  أ.د. يسري جبر","category":"متنوع"},{"id":"Ya2HUxv3M24","title":"شرح صحيح البخاري - كتاب الجهاد والسير من باب ٧١","publishedAt":"2017-08-06T13:40:46Z","duration":"PT24M19S","thumbnail":"https://i.ytimg.com/vi/Ya2HUxv3M24/mqdefault.jpg","viewCount":"518","playlistId":"PLEkQk5xrP-tlEerGoLa1AFy-2XvQ-sovv","playlistName":"شرح صحيح البخاري - أ.د. يسري جبر (كاملا)","category":"حديث"}],"total":7670,"page":69,"pageSize":24,"totalPages":320}