{"items":[{"id":"ryMxSvz04vE","title":"شرح صحيح البخاري كتاب الإعتصام بالكتاب والسنة من أوله","publishedAt":"2019-01-20T23:07:50Z","duration":"PT28M51S","thumbnail":"https://i.ytimg.com/vi/ryMxSvz04vE/mqdefault.jpg","viewCount":"544","playlistId":"PLEkQk5xrP-tlEerGoLa1AFy-2XvQ-sovv","playlistName":"شرح صحيح البخاري - أ.د. يسري جبر (كاملا)","category":"حديث"},{"id":"s7SmBZ45pJg","title":"مقرأة سورة الفتح من آية ١٥","publishedAt":"2019-01-20T12:01:26Z","duration":"PT9M31S","thumbnail":"https://i.ytimg.com/vi/s7SmBZ45pJg/mqdefault.jpg","viewCount":"360","playlistId":"PLEkQk5xrP-tnmTYsyW6xNdyfhPq0Bhrhj","playlistName":"مقرأة الفجر - القُرْآنُ الكَرِيمُ - خَتْمَةُ التَّدَبُّرِ  أ.د. يسري جبر","category":"متنوع"},{"id":"bE_c1u4mBfs","title":"شرح صحيح البخاري كتاب أخبار الآحاد من أوله","publishedAt":"2019-01-19T21:28:18Z","duration":"PT42M27S","thumbnail":"https://i.ytimg.com/vi/bE_c1u4mBfs/mqdefault.jpg","viewCount":"556","playlistId":"PLEkQk5xrP-tlEerGoLa1AFy-2XvQ-sovv","playlistName":"شرح صحيح البخاري - أ.د. يسري جبر (كاملا)","category":"حديث"},{"id":"1bXzwfeMp0E","title":"حول صلاة خسوف القمر    أ.د. يسري جبر","publishedAt":"2019-01-19T18:25:52Z","duration":"PT35M7S","thumbnail":"https://i.ytimg.com/vi/1bXzwfeMp0E/mqdefault.jpg","viewCount":"535","playlistId":"PLEkQk5xrP-tlArtGpeLWaqNM7h7IDeAVC","playlistName":"خطب الجمعة أ.د. يسري جبر","category":"خطب"},{"id":"xQFrhFm0eTk","title":"”تفسير قوله تعالى \"حَتَّىٰ إِذَا جَاءَ أَمْرُنَا وَفَارَ التَّنُّورُ","publishedAt":"2021-06-19T18:00:12Z","duration":"PT14M1S","thumbnail":"https://i.ytimg.com/vi/xQFrhFm0eTk/mqdefault.jpg","viewCount":"2349","playlistId":"PLEkQk5xrP-tkSGrPLMt1BEmJ54cGWYgtp","playlistName":"كتابُ بِدَعِ التَفَاسِيرِ - أ.د. يسري جبر","category":"متنوع"},{"id":"unnpxJqWAnQ","title":"80-\"كانَ رَجُلٌ لا أَعْلَمُ رَجُلًا أَبْعَدَ مِنَ المَسْجِدِ منه،…\" شرح دليل الفالحين","publishedAt":"2021-06-19T06:27:38Z","duration":"PT35M23S","thumbnail":"https://i.ytimg.com/vi/unnpxJqWAnQ/mqdefault.jpg","viewCount":"1465","playlistId":"PLEkQk5xrP-tkc9DXvSLguqX5-FYp6ASR4","playlistName":"دليل الفالحين لطرق رياض الصالحين","category":"متنوع"},{"id":"Ao84imTVcP8","title":"الأسلوب الثاني: الحذف(6)\"أقسام الحذف\" شرح البرهان في علوم القرآن","publishedAt":"2021-06-18T06:29:36Z","duration":"PT23M53S","thumbnail":"https://i.ytimg.com/vi/Ao84imTVcP8/mqdefault.jpg","viewCount":"397","playlistId":"PLEkQk5xrP-tnW3iBL7HkKziOFCFZbTlf0","playlistName":"شرح البرهان في علوم القرآن - أ.د. يسري جبر","category":"تفسير"},{"id":"wTyjlkpaMp8","title":"كيف تكون من الأغنياء؟","publishedAt":"2021-06-17T17:31:08Z","duration":"PT9M58S","thumbnail":"https://i.ytimg.com/vi/wTyjlkpaMp8/mqdefault.jpg","viewCount":"23232","playlistId":"PLEkQk5xrP-tm8ZIu74nTOZN9KJUJu416J","playlistName":"مقاطع مُهمَّة (يُسريَّات) أ.د. يسري جبر","category":"متنوع"},{"id":"ZbgApBtAxyY","title":"79-\"أَلا أدُلُّكُمْ علَى ما يَمْحُو اللهُ به الخَطايا، ويَرْفَعُ به الدَّرَجاتِ؟…\" شرح دليل الفالحين","publishedAt":"2021-06-17T05:36:23Z","duration":"PT33M26S","thumbnail":"https://i.ytimg.com/vi/ZbgApBtAxyY/mqdefault.jpg","viewCount":"3045","playlistId":"PLEkQk5xrP-tkc9DXvSLguqX5-FYp6ASR4","playlistName":"دليل الفالحين لطرق رياض الصالحين","category":"متنوع"},{"id":"w3Riyk0csXk","title":"”تفسير قوله تعالى \"يُسَبِّحُ الرَّعْدُ بِحَمْدِهِ وَالْمَلَائِكَةُ مِنْ خِيفَتِهِ","publishedAt":"2021-06-16T17:30:08Z","duration":"PT14M29S","thumbnail":"https://i.ytimg.com/vi/w3Riyk0csXk/mqdefault.jpg","viewCount":"3822","playlistId":"PLEkQk5xrP-tkSGrPLMt1BEmJ54cGWYgtp","playlistName":"كتابُ بِدَعِ التَفَاسِيرِ - أ.د. يسري جبر","category":"متنوع"},{"id":"Gs0JJw9LwLA","title":"الأسلوب الثاني: الحذف(5)\"بعض التنبيهات\" شرح البرهان في علوم القرآن","publishedAt":"2021-06-16T06:07:10Z","duration":"PT15M25S","thumbnail":"https://i.ytimg.com/vi/Gs0JJw9LwLA/mqdefault.jpg","viewCount":"409","playlistId":"PLEkQk5xrP-tnW3iBL7HkKziOFCFZbTlf0","playlistName":"شرح البرهان في علوم القرآن - أ.د. يسري جبر","category":"تفسير"},{"id":"yTOOXtcp9NA","title":"هل للصدقة أوجه غير المال؟","publishedAt":"2021-06-15T18:46:35Z","duration":"PT18M58S","thumbnail":"https://i.ytimg.com/vi/yTOOXtcp9NA/mqdefault.jpg","viewCount":"3747","playlistId":"PLEkQk5xrP-tlArtGpeLWaqNM7h7IDeAVC","playlistName":"خطب الجمعة أ.د. يسري جبر","category":"خطب"},{"id":"ppQK9RrZlkY","title":"منازل السائرين للإمام الهروى المجلس الثامن والخمسون قسم النهايات بَابُ التحقيق و باب التلبيس","publishedAt":"2015-12-07T09:30:21Z","duration":"PT1H16M24S","thumbnail":"https://i.ytimg.com/vi/ppQK9RrZlkY/mqdefault.jpg","viewCount":"5323","playlistId":"PLEkQk5xrP-tnLYi_5_tSRVBwqcs7ISV7Y","playlistName":"شرح كتاب منازل السائرين للإمام الهروي","category":"متنوع"},{"id":"AZKhf92SrD8","title":"صحيح الإمام البخاري رضي الله عنه - كتاب الطلاق - المجلس الثاني عشر","publishedAt":"2015-12-07T09:04:32Z","duration":"PT27M43S","thumbnail":"https://i.ytimg.com/vi/AZKhf92SrD8/mqdefault.jpg","viewCount":"101","playlistId":"PLEkQk5xrP-tmJuzaj4GWRenFoFx9gdbFX","playlistName":"شرح كتاب صحيح الإمام البخاري رضي الله تعالى عنه   أ.د. يسرى جبر","category":"حديث"},{"id":"qxjYUtvb3zA","title":"شرح كتاب الطب من سنن الترمذي - المجلس الرابع","publishedAt":"2015-12-07T01:51:15Z","duration":"PT24M51S","thumbnail":"https://i.ytimg.com/vi/qxjYUtvb3zA/mqdefault.jpg","viewCount":"95","playlistId":"PLEkQk5xrP-tnu6of679SvxdVx0qSrJzmb","playlistName":"شرح سنن الإمام الترمذي رضى الله عنه د. يسري جبر","category":"متنوع"},{"id":"Z-jSaXDwnoE","title":"شرح كتاب الطب من سنن الترمذي - المجلس الخامس","publishedAt":"2015-12-07T01:51:15Z","duration":"PT30M","thumbnail":"https://i.ytimg.com/vi/Z-jSaXDwnoE/mqdefault.jpg","viewCount":"99","playlistId":"PLEkQk5xrP-tnu6of679SvxdVx0qSrJzmb","playlistName":"شرح سنن الإمام الترمذي رضى الله عنه د. يسري جبر","category":"متنوع"},{"id":"OYqohOOP1lA","title":"شرح كتاب الطب من سنن الترمذي - المجلس السادس","publishedAt":"2015-12-07T01:51:15Z","duration":"PT33M7S","thumbnail":"https://i.ytimg.com/vi/OYqohOOP1lA/mqdefault.jpg","viewCount":"110","playlistId":"PLEkQk5xrP-tnu6of679SvxdVx0qSrJzmb","playlistName":"شرح سنن الإمام الترمذي رضى الله عنه د. يسري جبر","category":"متنوع"},{"id":"fA00nBU5vVI","title":"صلاح المجتمع بصلاح الأسرة    د. يسري جبر","publishedAt":"2015-12-05T10:36:17Z","duration":"PT50M16S","thumbnail":"https://i.ytimg.com/vi/fA00nBU5vVI/mqdefault.jpg","viewCount":"265","playlistId":"PLEkQk5xrP-tlArtGpeLWaqNM7h7IDeAVC","playlistName":"خطب الجمعة أ.د. يسري جبر","category":"خطب"},{"id":"j8_ETyb62ME","title":"204- كيف نفرق بين (العام والمطلق) وبين (الخاص والمقيد) - الإتقان في علوم القرآن","publishedAt":"2024-02-05T07:54:34Z","duration":"PT26M58S","thumbnail":"https://i.ytimg.com/vi/j8_ETyb62ME/mqdefault.jpg","viewCount":"959","playlistId":"PLEkQk5xrP-tlPw10KGJKagu7zm4Ry2Tge","playlistName":"شرح الإتقان في علوم القرآن","category":"تفسير"},{"id":"ulF_OgO8-48","title":"72- البلاد بلاد الله والعباد عباد الله فحيثما أصبت خيرا فأقم - شرح مسند الإمام أحمد رضي الله عنه","publishedAt":"2024-02-04T06:30:15Z","duration":"PT20M42S","thumbnail":"https://i.ytimg.com/vi/ulF_OgO8-48/mqdefault.jpg","viewCount":"1837","playlistId":"PLEkQk5xrP-tkKprIuGrSdEuBSMsyg5We1","playlistName":"شرح مسند الإمام أحمد بن حنبل","category":"متنوع"},{"id":"-1pTKb2xR2g","title":"203- النوع 44: في مقدمه ومؤخره (2) القسم الثاني: ما ليس كذلك - شرح الإتقان في علوم القرآن","publishedAt":"2024-02-03T06:30:00Z","duration":"PT32M14S","thumbnail":"https://i.ytimg.com/vi/-1pTKb2xR2g/mqdefault.jpg","viewCount":"708","playlistId":"PLEkQk5xrP-tlPw10KGJKagu7zm4Ry2Tge","playlistName":"شرح الإتقان في علوم القرآن","category":"تفسير"},{"id":"K5ec8O7z40U","title":"71- نبذة عن سيدنا الزبير بن العوام رضي الله عنه سادس العشرة المبشرين بالجنة - شرح مسند الإمام أحمد","publishedAt":"2024-02-02T07:07:22Z","duration":"PT44M27S","thumbnail":"https://i.ytimg.com/vi/K5ec8O7z40U/mqdefault.jpg","viewCount":"1490","playlistId":"PLEkQk5xrP-tkKprIuGrSdEuBSMsyg5We1","playlistName":"شرح مسند الإمام أحمد بن حنبل","category":"متنوع"},{"id":"yM3Lapj0z8k","title":"371- فضل السَّحور - شرح دليل الفالحين","publishedAt":"2023-01-01T09:00:33Z","duration":"PT30M49S","thumbnail":"https://i.ytimg.com/vi/yM3Lapj0z8k/mqdefault.jpg","viewCount":"486","playlistId":"PLEkQk5xrP-tkc9DXvSLguqX5-FYp6ASR4","playlistName":"دليل الفالحين لطرق رياض الصالحين","category":"متنوع"},{"id":"Eu8cVrHAv84","title":"633- حرف (الواو) - شرح البرهان في علوم القرآن","publishedAt":"2023-01-01T05:00:06Z","duration":"PT16M48S","thumbnail":"https://i.ytimg.com/vi/Eu8cVrHAv84/mqdefault.jpg","viewCount":"398","playlistId":"PLEkQk5xrP-tnW3iBL7HkKziOFCFZbTlf0","playlistName":"شرح البرهان في علوم القرآن - أ.د. يسري جبر","category":"تفسير"}],"total":7670,"page":314,"pageSize":24,"totalPages":320}