{"items":[{"id":"otp-gCH9W6Y","title":"النوع الثاني: قلب المعطوف - البرهان في علوم القرآن","publishedAt":"2021-10-26T03:44:55Z","duration":"PT7M28S","thumbnail":"https://i.ytimg.com/vi/otp-gCH9W6Y/mqdefault.jpg","viewCount":"481","playlistId":"PLEkQk5xrP-tnW3iBL7HkKziOFCFZbTlf0","playlistName":"شرح البرهان في علوم القرآن - أ.د. يسري جبر","category":"تفسير"},{"id":"1DK_7A-ceZQ","title":"148- وصية النَّبيّ ﷺ بأهل مصر - شرح دليل الفالحين","publishedAt":"2021-10-25T20:28:37Z","duration":"PT48M52S","thumbnail":"https://i.ytimg.com/vi/1DK_7A-ceZQ/mqdefault.jpg","viewCount":"1171","playlistId":"PLEkQk5xrP-tkc9DXvSLguqX5-FYp6ASR4","playlistName":"دليل الفالحين لطرق رياض الصالحين","category":"متنوع"},{"id":"QErzJ8HuI30","title":"147- \"تَصَدَّقْنَ، يا مَعْشَرَ النِّساءِ، ولو مِن حُلِيِّكُنَّ…\" - شرح دليل الفالحين","publishedAt":"2021-10-25T06:27:46Z","duration":"PT33M19S","thumbnail":"https://i.ytimg.com/vi/QErzJ8HuI30/mqdefault.jpg","viewCount":"1249","playlistId":"PLEkQk5xrP-tkc9DXvSLguqX5-FYp6ASR4","playlistName":"دليل الفالحين لطرق رياض الصالحين","category":"متنوع"},{"id":"68xSVsLyjVw","title":"الرسالة القشيرية - المجلس (96) بَابُ المعرفة بالله | أ.د. يسري جبر","publishedAt":"2021-10-24T18:00:02Z","duration":"PT1H16S","thumbnail":"https://i.ytimg.com/vi/68xSVsLyjVw/mqdefault.jpg","viewCount":"42713","playlistId":"PLEkQk5xrP-tkHAGOwIKr4pc5ehhyQ5HMJ","playlistName":"كتاب الرسالة القشيرية (تصوف) - د. يسري جبر","category":"تصوف"},{"id":"tcQ4j3p1gXg","title":"شرح سنن الدارمي كتاب الصلاة من باب ٦٢","publishedAt":"2019-05-07T01:11:20Z","duration":"PT25M50S","thumbnail":"https://i.ytimg.com/vi/tcQ4j3p1gXg/mqdefault.jpg","viewCount":"377","playlistId":"PLEkQk5xrP-tmAg-FuWjY057X_h5NmGmAa","playlistName":"شرح سنن الدارمي - أ.د. يسري جبر (كاملا)","category":"متنوع"},{"id":"owAspWqx_1M","title":"المجلس الحادي عشر (١٦٠) حديث الإسراء والمعراج بنبينا صلى الله عليه وآله وسلم  أ. د. يسري جبر","publishedAt":"2019-05-06T15:50:55Z","duration":"PT30M24S","thumbnail":"https://i.ytimg.com/vi/owAspWqx_1M/mqdefault.jpg","viewCount":"719","playlistId":"PLEkQk5xrP-tnl7vb7KeAoPd5ZlqKKW8KV","playlistName":"شرح كتاب بهجة النفوس أ.د . يسرى جبر","category":"متنوع"},{"id":"xE2ajJg8Rdk","title":"مقرأة سورة القلم من آية ١٧","publishedAt":"2019-05-06T12:21:16Z","duration":"PT24M11S","thumbnail":"https://i.ytimg.com/vi/xE2ajJg8Rdk/mqdefault.jpg","viewCount":"532","playlistId":"PLEkQk5xrP-tnmTYsyW6xNdyfhPq0Bhrhj","playlistName":"مقرأة الفجر - القُرْآنُ الكَرِيمُ - خَتْمَةُ التَّدَبُّرِ  أ.د. يسري جبر","category":"متنوع"},{"id":"aqrim-TDPGk","title":"شرح سنن الدارمي كتاب الصلاة من باب ٥٤","publishedAt":"2019-05-05T08:53:12Z","duration":"PT31M7S","thumbnail":"https://i.ytimg.com/vi/aqrim-TDPGk/mqdefault.jpg","viewCount":"328","playlistId":"PLEkQk5xrP-tmAg-FuWjY057X_h5NmGmAa","playlistName":"شرح سنن الدارمي - أ.د. يسري جبر (كاملا)","category":"متنوع"},{"id":"MU99hvE7V-c","title":"مقرأة سورة القلم من أولها","publishedAt":"2019-05-04T22:34:59Z","duration":"PT30M","thumbnail":"https://i.ytimg.com/vi/MU99hvE7V-c/mqdefault.jpg","viewCount":"850","playlistId":"PLEkQk5xrP-tnmTYsyW6xNdyfhPq0Bhrhj","playlistName":"مقرأة الفجر - القُرْآنُ الكَرِيمُ - خَتْمَةُ التَّدَبُّرِ  أ.د. يسري جبر","category":"متنوع"},{"id":"UnmB4kSv71M","title":"شرح سنن الدارمي كتاب الصلاة من باب ٤٥","publishedAt":"2019-05-04T12:28:15Z","duration":"PT35M59S","thumbnail":"https://i.ytimg.com/vi/UnmB4kSv71M/mqdefault.jpg","viewCount":"349","playlistId":"PLEkQk5xrP-tmAg-FuWjY057X_h5NmGmAa","playlistName":"شرح سنن الدارمي - أ.د. يسري جبر (كاملا)","category":"متنوع"},{"id":"mwxF3IvL23w","title":"مقرأة سورة الملك من آية ٢٢","publishedAt":"2019-05-03T21:28:46Z","duration":"PT23M38S","thumbnail":"https://i.ytimg.com/vi/mwxF3IvL23w/mqdefault.jpg","viewCount":"598","playlistId":"PLEkQk5xrP-tnmTYsyW6xNdyfhPq0Bhrhj","playlistName":"مقرأة الفجر - القُرْآنُ الكَرِيمُ - خَتْمَةُ التَّدَبُّرِ  أ.د. يسري جبر","category":"متنوع"},{"id":"3j_bThQmMPI","title":"شرح سنن الدارمي كتاب الصلاة من باب ٤٠","publishedAt":"2019-05-03T13:53:04Z","duration":"PT34M53S","thumbnail":"https://i.ytimg.com/vi/3j_bThQmMPI/mqdefault.jpg","viewCount":"363","playlistId":"PLEkQk5xrP-tmAg-FuWjY057X_h5NmGmAa","playlistName":"شرح سنن الدارمي - أ.د. يسري جبر (كاملا)","category":"متنوع"},{"id":"mpqPuEWdx08","title":"مقرأة سورة الملك من آية ١٣","publishedAt":"2019-05-02T21:56:13Z","duration":"PT21M55S","thumbnail":"https://i.ytimg.com/vi/mpqPuEWdx08/mqdefault.jpg","viewCount":"606","playlistId":"PLEkQk5xrP-tnmTYsyW6xNdyfhPq0Bhrhj","playlistName":"مقرأة الفجر - القُرْآنُ الكَرِيمُ - خَتْمَةُ التَّدَبُّرِ  أ.د. يسري جبر","category":"متنوع"},{"id":"EC8E1PKXX1g","title":"شرح سنن الدارمي كتاب الصلاة من باب ٣٣","publishedAt":"2019-05-02T13:57:17Z","duration":"PT30M50S","thumbnail":"https://i.ytimg.com/vi/EC8E1PKXX1g/mqdefault.jpg","viewCount":"365","playlistId":"PLEkQk5xrP-tmAg-FuWjY057X_h5NmGmAa","playlistName":"شرح سنن الدارمي - أ.د. يسري جبر (كاملا)","category":"متنوع"},{"id":"gKPcrU0dNPQ","title":"كيفية التأسي بالنبي صلى الله عليه وآله وسلم د. يسري جبر","publishedAt":"2016-06-14T14:25:13Z","duration":"PT49M29S","thumbnail":"https://i.ytimg.com/vi/gKPcrU0dNPQ/mqdefault.jpg","viewCount":"628","playlistId":"PLEkQk5xrP-tlArtGpeLWaqNM7h7IDeAVC","playlistName":"خطب الجمعة أ.د. يسري جبر","category":"خطب"},{"id":"nolos5yaeW4","title":"شرح كتاب المناقب من سنن الترمذي - المجلس الثاني عشر","publishedAt":"2016-06-13T22:32:21Z","duration":"PT34M39S","thumbnail":"https://i.ytimg.com/vi/nolos5yaeW4/mqdefault.jpg","viewCount":"132","playlistId":"PLEkQk5xrP-tnu6of679SvxdVx0qSrJzmb","playlistName":"شرح سنن الإمام الترمذي رضى الله عنه د. يسري جبر","category":"متنوع"},{"id":"WjB6tZkpCHw","title":"سنن الصيام مع د. يسري جبر | اعرف نبيك في رمضان","publishedAt":"2016-06-13T22:07:27Z","duration":"PT8M1S","thumbnail":"https://i.ytimg.com/vi/WjB6tZkpCHw/mqdefault.jpg","viewCount":"1088","playlistId":"PLEkQk5xrP-tmhJ_gpAAFyOpEsHp0_VAJ-","playlistName":"برنامج اعرف نبيك في رمضان","category":"متنوع"},{"id":"X4-AhQm1TDE","title":"قراءة القرآن (من آية ٤٨ سورة آل عمران)","publishedAt":"2016-06-13T09:30:10Z","duration":"PT12M8S","thumbnail":"https://i.ytimg.com/vi/X4-AhQm1TDE/mqdefault.jpg","viewCount":"700","playlistId":"PLEkQk5xrP-tnmTYsyW6xNdyfhPq0Bhrhj","playlistName":"مقرأة الفجر - القُرْآنُ الكَرِيمُ - خَتْمَةُ التَّدَبُّرِ  أ.د. يسري جبر","category":"متنوع"},{"id":"SDDI7wuy93M","title":"الحقائق المحمدية بمناسبة مولد النبي ﷺ","publishedAt":"2017-11-26T11:59:51Z","duration":"PT39M3S","thumbnail":"https://i.ytimg.com/vi/SDDI7wuy93M/mqdefault.jpg","viewCount":"10082","playlistId":"PLEkQk5xrP-tlArtGpeLWaqNM7h7IDeAVC","playlistName":"خطب الجمعة أ.د. يسري جبر","category":"خطب"},{"id":"4ogFHJ11SY4","title":"شرح صحيح البخاري  كتاب فضائل الصحابة من باب ٢٨","publishedAt":"2017-11-25T06:54:15Z","duration":"PT36M18S","thumbnail":"https://i.ytimg.com/vi/4ogFHJ11SY4/mqdefault.jpg","viewCount":"601","playlistId":"PLEkQk5xrP-tlEerGoLa1AFy-2XvQ-sovv","playlistName":"شرح صحيح البخاري - أ.د. يسري جبر (كاملا)","category":"حديث"},{"id":"M3N12gvkBIc","title":"مقرأة سورة طه من آية ٢٥","publishedAt":"2017-11-25T05:51:13Z","duration":"PT16M50S","thumbnail":"https://i.ytimg.com/vi/M3N12gvkBIc/mqdefault.jpg","viewCount":"354","playlistId":"PLEkQk5xrP-tnmTYsyW6xNdyfhPq0Bhrhj","playlistName":"مقرأة الفجر - القُرْآنُ الكَرِيمُ - خَتْمَةُ التَّدَبُّرِ  أ.د. يسري جبر","category":"متنوع"},{"id":"roX18fIyPHE","title":"شرح صحيح البخاري  كتاب فضائل الصحابة من باب ٢٥","publishedAt":"2017-11-24T13:20:35Z","duration":"PT28M17S","thumbnail":"https://i.ytimg.com/vi/roX18fIyPHE/mqdefault.jpg","viewCount":"522","playlistId":"PLEkQk5xrP-tlEerGoLa1AFy-2XvQ-sovv","playlistName":"شرح صحيح البخاري - أ.د. يسري جبر (كاملا)","category":"حديث"},{"id":"lr8jeYJqOUk","title":"الحَيَاءُ د. يسرى جبر","publishedAt":"2016-01-22T21:20:18Z","duration":"PT42M37S","thumbnail":"https://i.ytimg.com/vi/lr8jeYJqOUk/mqdefault.jpg","viewCount":"246","playlistId":"PLEkQk5xrP-tlArtGpeLWaqNM7h7IDeAVC","playlistName":"خطب الجمعة أ.د. يسري جبر","category":"خطب"},{"id":"V8r4-_fVHRQ","title":"قراءة القرآن (من أول سورة الجمعة)","publishedAt":"2016-01-22T07:32:51Z","duration":"PT18M21S","thumbnail":"https://i.ytimg.com/vi/V8r4-_fVHRQ/mqdefault.jpg","viewCount":"74","playlistId":"PLEkQk5xrP-tnUSUj0uyJhA-kwNC7Gkx_j","playlistName":"مقرأة الفجر - بداية من سورة الإسراء حتى سورة الناس","category":"تفسير"}],"total":7670,"page":297,"pageSize":24,"totalPages":320}