{"items":[{"id":"hcuuu2cwAJw","title":"تبرك الصحابة بماء وضوء رسول الله | اعرف نبيك","publishedAt":"2015-09-03T16:09:48Z","duration":"PT5M12S","thumbnail":"https://i.ytimg.com/vi/hcuuu2cwAJw/mqdefault.jpg","viewCount":"2086","playlistId":"PLEkQk5xrP-tl6Mu_Mz3QMUSv5T6XBH-Dg","playlistName":"برنامج اعرف نبيك","category":"متنوع"},{"id":"9rY-Nyn1ISw","title":"عطف النبي صلى الله عليه  وسلم علي الفقراء | اعرف نبيك","publishedAt":"2015-09-03T16:04:11Z","duration":"PT7M18S","thumbnail":"https://i.ytimg.com/vi/9rY-Nyn1ISw/mqdefault.jpg","viewCount":"1039","playlistId":"PLEkQk5xrP-tl6Mu_Mz3QMUSv5T6XBH-Dg","playlistName":"برنامج اعرف نبيك","category":"متنوع"},{"id":"3LpnEb24Czo","title":"مجلس رسول الله صلى الله عليه وسلم | اعرف نبيك","publishedAt":"2015-09-03T15:52:41Z","duration":"PT5M18S","thumbnail":"https://i.ytimg.com/vi/3LpnEb24Czo/mqdefault.jpg","viewCount":"282","playlistId":"PLEkQk5xrP-tl6Mu_Mz3QMUSv5T6XBH-Dg","playlistName":"برنامج اعرف نبيك","category":"متنوع"},{"id":"DuJJz7k30lQ","title":"تواضع النبي صلى الله عليه وسلم | اعرف نبيك","publishedAt":"2015-09-02T15:27:46Z","duration":"PT6M18S","thumbnail":"https://i.ytimg.com/vi/DuJJz7k30lQ/mqdefault.jpg","viewCount":"537","playlistId":"PLEkQk5xrP-tl6Mu_Mz3QMUSv5T6XBH-Dg","playlistName":"برنامج اعرف نبيك","category":"متنوع"},{"id":"YMoOdu6NY1s","title":"تواضع رسول الله صلى الله عليه وسلم | اعرف نبيك","publishedAt":"2015-08-27T16:07:14Z","duration":"PT7M28S","thumbnail":"https://i.ytimg.com/vi/YMoOdu6NY1s/mqdefault.jpg","viewCount":"285","playlistId":"PLEkQk5xrP-tl6Mu_Mz3QMUSv5T6XBH-Dg","playlistName":"برنامج اعرف نبيك","category":"متنوع"},{"id":"sO1Q9FdKLWc","title":"تواضع رسول الله | اعرف نبيك","publishedAt":"2015-08-27T15:31:58Z","duration":"PT6M56S","thumbnail":"https://i.ytimg.com/vi/sO1Q9FdKLWc/mqdefault.jpg","viewCount":"538","playlistId":"PLEkQk5xrP-tl6Mu_Mz3QMUSv5T6XBH-Dg","playlistName":"برنامج اعرف نبيك","category":"متنوع"},{"id":"GhjsVLLOEnk","title":"شرح كتاب الأشربة من سنن الترمذي - المجلس الثالث","publishedAt":"2015-08-27T05:11:22Z","duration":"PT27M40S","thumbnail":"https://i.ytimg.com/vi/GhjsVLLOEnk/mqdefault.jpg","viewCount":"170","playlistId":"PLEkQk5xrP-tnu6of679SvxdVx0qSrJzmb","playlistName":"شرح سنن الإمام الترمذي رضى الله عنه د. يسري جبر","category":"متنوع"},{"id":"kX5lmcq8Fuo","title":"قراءة القرآن ( من آية 45 سورة ص)","publishedAt":"2015-08-27T04:47:04Z","duration":"PT34M41S","thumbnail":"https://i.ytimg.com/vi/kX5lmcq8Fuo/mqdefault.jpg","viewCount":"259","playlistId":"PLEkQk5xrP-tnUSUj0uyJhA-kwNC7Gkx_j","playlistName":"مقرأة الفجر - بداية من سورة الإسراء حتى سورة الناس","category":"تفسير"},{"id":"iz3d0vMtV2M","title":"بكاء النبي صلى الله عليه وسلم عند وفاة  أخوه في الرضاعة | اعرف نبيك","publishedAt":"2015-08-26T15:30:37Z","duration":"PT9M18S","thumbnail":"https://i.ytimg.com/vi/iz3d0vMtV2M/mqdefault.jpg","viewCount":"2399","playlistId":"PLEkQk5xrP-tl6Mu_Mz3QMUSv5T6XBH-Dg","playlistName":"برنامج اعرف نبيك","category":"متنوع"},{"id":"11jz1O1G7K8","title":"بكاء النبي صلى الله عليه وسلم عند وفاة ابنه إبراهيم | اعرف نبيك","publishedAt":"2015-08-26T15:22:06Z","duration":"PT7M6S","thumbnail":"https://i.ytimg.com/vi/11jz1O1G7K8/mqdefault.jpg","viewCount":"9036","playlistId":"PLEkQk5xrP-tl6Mu_Mz3QMUSv5T6XBH-Dg","playlistName":"برنامج اعرف نبيك","category":"متنوع"},{"id":"BK-LYYCCnzo","title":"شرح كتاب الأشربة من سنن الترمذي - المجلس الثاني","publishedAt":"2015-08-26T05:02:15Z","duration":"PT31M","thumbnail":"https://i.ytimg.com/vi/BK-LYYCCnzo/mqdefault.jpg","viewCount":"137","playlistId":"PLEkQk5xrP-tnu6of679SvxdVx0qSrJzmb","playlistName":"شرح سنن الإمام الترمذي رضى الله عنه د. يسري جبر","category":"متنوع"},{"id":"y23Xvaxq7Yw","title":"شرح كتاب الأذكار من كلام سيد الأبرار للإمام النووى رضى الله عنه - المجلس الخامس والثلاثون","publishedAt":"2015-08-26T04:35:16Z","duration":"PT9M23S","thumbnail":"https://i.ytimg.com/vi/y23Xvaxq7Yw/mqdefault.jpg","viewCount":"262","playlistId":"PLEkQk5xrP-tkWS57Ubysh0ifJR8dmuEtE","playlistName":"شرح كتاب الأذكار للإمام النووي د. يسرى جبر","category":"حديث"},{"id":"iN9q4d0EQmw","title":"قراءة القرآن ( من آية 30 سورة ص)","publishedAt":"2015-08-26T04:28:07Z","duration":"PT26M1S","thumbnail":"https://i.ytimg.com/vi/iN9q4d0EQmw/mqdefault.jpg","viewCount":"306","playlistId":"PLEkQk5xrP-tnUSUj0uyJhA-kwNC7Gkx_j","playlistName":"مقرأة الفجر - بداية من سورة الإسراء حتى سورة الناس","category":"تفسير"},{"id":"ABUprosReE4","title":"شرح كتاب الأشربة من سنن الترمذي - المجلس الأول","publishedAt":"2015-08-25T04:54:00Z","duration":"PT28M","thumbnail":"https://i.ytimg.com/vi/ABUprosReE4/mqdefault.jpg","viewCount":"131","playlistId":"PLEkQk5xrP-tnu6of679SvxdVx0qSrJzmb","playlistName":"شرح سنن الإمام الترمذي رضى الله عنه د. يسري جبر","category":"متنوع"},{"id":"1zFG65YA5sQ","title":"قراءة القرآن ( من أول سورة ص)","publishedAt":"2015-08-25T04:22:26Z","duration":"PT35M36S","thumbnail":"https://i.ytimg.com/vi/1zFG65YA5sQ/mqdefault.jpg","viewCount":"125","playlistId":"PLEkQk5xrP-tnUSUj0uyJhA-kwNC7Gkx_j","playlistName":"مقرأة الفجر - بداية من سورة الإسراء حتى سورة الناس","category":"تفسير"},{"id":"Fwiqbr1Fbks","title":"شرح كتاب الأطعمة من سنن الترمذي - المجلس الثامن","publishedAt":"2015-08-24T04:39:16Z","duration":"PT27M47S","thumbnail":"https://i.ytimg.com/vi/Fwiqbr1Fbks/mqdefault.jpg","viewCount":"147","playlistId":"PLEkQk5xrP-tnu6of679SvxdVx0qSrJzmb","playlistName":"شرح سنن الإمام الترمذي رضى الله عنه د. يسري جبر","category":"متنوع"},{"id":"WdmgRr0cUBw","title":"قراءة القرآن ( من آية 114 سورة الصافات)","publishedAt":"2015-08-24T04:11:51Z","duration":"PT30M52S","thumbnail":"https://i.ytimg.com/vi/WdmgRr0cUBw/mqdefault.jpg","viewCount":"115","playlistId":"PLEkQk5xrP-tnUSUj0uyJhA-kwNC7Gkx_j","playlistName":"مقرأة الفجر - بداية من سورة الإسراء حتى سورة الناس","category":"تفسير"},{"id":"nHnEXRWFCSQ","title":"صحيح الإمام البخاري رضي الله عنه - كتاب الطلاق - المجلس السابع","publishedAt":"2015-08-23T14:49:52Z","duration":"PT1H43S","thumbnail":"https://i.ytimg.com/vi/nHnEXRWFCSQ/mqdefault.jpg","viewCount":"128","playlistId":"PLEkQk5xrP-tmJuzaj4GWRenFoFx9gdbFX","playlistName":"شرح كتاب صحيح الإمام البخاري رضي الله تعالى عنه   أ.د. يسرى جبر","category":"حديث"},{"id":"teDCmLb-Bhs","title":"قراءة القرآن ( من آية 75 سورة الصافات)","publishedAt":"2015-08-23T04:07:05Z","duration":"PT24M","thumbnail":"https://i.ytimg.com/vi/teDCmLb-Bhs/mqdefault.jpg","viewCount":"138","playlistId":"PLEkQk5xrP-tnUSUj0uyJhA-kwNC7Gkx_j","playlistName":"مقرأة الفجر - بداية من سورة الإسراء حتى سورة الناس","category":"تفسير"},{"id":"1Rfndz7VdRI","title":"منازل السائرين للإمام الهروى المجلس الثالث والخمسون قسم الحقائق أبواب الحياة والقبض والبسط","publishedAt":"2015-08-23T02:04:17Z","duration":"PT1H9M32S","thumbnail":"https://i.ytimg.com/vi/1Rfndz7VdRI/mqdefault.jpg","viewCount":"1302","playlistId":"PLEkQk5xrP-tnLYi_5_tSRVBwqcs7ISV7Y","playlistName":"شرح كتاب منازل السائرين للإمام الهروي","category":"متنوع"},{"id":"1maCqKtd0uc","title":"وَلَقَدْ كَرَّمْنَا بَنِى ءَادَمَ - د. يسرى جبر","publishedAt":"2015-08-22T18:42:24Z","duration":"PT41M36S","thumbnail":"https://i.ytimg.com/vi/1maCqKtd0uc/mqdefault.jpg","viewCount":"229","playlistId":"PLEkQk5xrP-tlArtGpeLWaqNM7h7IDeAVC","playlistName":"خطب الجمعة أ.د. يسري جبر","category":"خطب"},{"id":"03hsNTI7N8c","title":"منازل السائرين للإمام الهروى المجلس الثانى والخمسون قسم الحقائق أبواب المكاشفة والمشاهدة والمعاينة","publishedAt":"2015-08-22T18:27:26Z","duration":"PT1H3M27S","thumbnail":"https://i.ytimg.com/vi/03hsNTI7N8c/mqdefault.jpg","viewCount":"2105","playlistId":"PLEkQk5xrP-tnLYi_5_tSRVBwqcs7ISV7Y","playlistName":"شرح كتاب منازل السائرين للإمام الهروي","category":"متنوع"},{"id":"S3CbrdI-BlA","title":"شرح كتاب الأطعمة من سنن الترمذي - المجلس السادس","publishedAt":"2015-08-22T07:21:22Z","duration":"PT36M46S","thumbnail":"https://i.ytimg.com/vi/S3CbrdI-BlA/mqdefault.jpg","viewCount":"109","playlistId":"PLEkQk5xrP-tnu6of679SvxdVx0qSrJzmb","playlistName":"شرح سنن الإمام الترمذي رضى الله عنه د. يسري جبر","category":"متنوع"},{"id":"vAIutO_k4zg","title":"قراءة حزب البحر","publishedAt":"2015-08-22T05:55:36Z","duration":"PT5M46S","thumbnail":"https://i.ytimg.com/vi/vAIutO_k4zg/mqdefault.jpg","viewCount":"3833","playlistId":"PLEkQk5xrP-tlB8lmbwjAKR8KRgiykGKhb","playlistName":"حضرات يسرية ومدائح نبوية","category":"متنوع"}],"total":7670,"page":141,"pageSize":24,"totalPages":320}