{"items":[{"id":"1P_6R_beDFM","title":"127- جواز أكل المَرَق واستحباب أكل اليقطين","publishedAt":"2020-09-07T05:22:40Z","duration":"PT32M23S","thumbnail":"https://i.ytimg.com/vi/1P_6R_beDFM/mqdefault.jpg","viewCount":"977","playlistId":"PLEkQk5xrP-tmKNjtYLfhATC37QdIsTMe0","playlistName":"شرح كتاب اللؤلؤ والمرجان فيما اتفق عليه الشيخان إماما المحدثين البخاري ومسلم. أ.د. يسري جبر","category":"حديث"},{"id":"Zf2pmsOPh2E","title":"تكملة المُجْمل والمُبيَّن","publishedAt":"2020-09-07T05:22:28Z","duration":"PT16M36S","thumbnail":"https://i.ytimg.com/vi/Zf2pmsOPh2E/mqdefault.jpg","viewCount":"373","playlistId":"PLEkQk5xrP-tnW3iBL7HkKziOFCFZbTlf0","playlistName":"شرح البرهان في علوم القرآن - أ.د. يسري جبر","category":"تفسير"},{"id":"xSCgQog0aVc","title":"المحب لا ينصرف عن الباب","publishedAt":"2020-09-06T19:35:12Z","duration":"PT13M33S","thumbnail":"https://i.ytimg.com/vi/xSCgQog0aVc/mqdefault.jpg","viewCount":"7220","playlistId":"PLEkQk5xrP-tm8ZIu74nTOZN9KJUJu416J","playlistName":"مقاطع مُهمَّة (يُسريَّات) أ.د. يسري جبر","category":"متنوع"},{"id":"vNRtNmkF6Vs","title":"126- استحباب إدارة الماء واللبن ونحوهما عن يمين المبتدي","publishedAt":"2020-09-06T05:02:30Z","duration":"PT21M52S","thumbnail":"https://i.ytimg.com/vi/vNRtNmkF6Vs/mqdefault.jpg","viewCount":"715","playlistId":"PLEkQk5xrP-tmKNjtYLfhATC37QdIsTMe0","playlistName":"شرح كتاب اللؤلؤ والمرجان فيما اتفق عليه الشيخان إماما المحدثين البخاري ومسلم. أ.د. يسري جبر","category":"حديث"},{"id":"eehR9LwZmHI","title":"المُجْمَلُ والمُبَيَّن","publishedAt":"2020-09-06T05:02:19Z","duration":"PT26M29S","thumbnail":"https://i.ytimg.com/vi/eehR9LwZmHI/mqdefault.jpg","viewCount":"911","playlistId":"PLEkQk5xrP-tnW3iBL7HkKziOFCFZbTlf0","playlistName":"شرح البرهان في علوم القرآن - أ.د. يسري جبر","category":"تفسير"},{"id":"dm0KKYwll34","title":"تعظيم ما عظم الله","publishedAt":"2020-09-05T18:14:11Z","duration":"PT4M12S","thumbnail":"https://i.ytimg.com/vi/dm0KKYwll34/mqdefault.jpg","viewCount":"2203","playlistId":"PLEkQk5xrP-tm8ZIu74nTOZN9KJUJu416J","playlistName":"مقاطع مُهمَّة (يُسريَّات) أ.د. يسري جبر","category":"متنوع"},{"id":"ajENrVFYcqo","title":"تقسيم القرآن إلى ما هو بيِّن بنفسه، وإلى ما ليس بيِّن بنفسه فيحتاج إلى بيان","publishedAt":"2020-09-05T05:20:16Z","duration":"PT20M32S","thumbnail":"https://i.ytimg.com/vi/ajENrVFYcqo/mqdefault.jpg","viewCount":"1010","playlistId":"PLEkQk5xrP-tnW3iBL7HkKziOFCFZbTlf0","playlistName":"شرح البرهان في علوم القرآن - أ.د. يسري جبر","category":"تفسير"},{"id":"k0pfkL32AvM","title":"125- باب إباحة النبيذ الذي لم يشتد ولم يصر مُسكرًا","publishedAt":"2020-09-05T05:19:53Z","duration":"PT24M57S","thumbnail":"https://i.ytimg.com/vi/k0pfkL32AvM/mqdefault.jpg","viewCount":"962","playlistId":"PLEkQk5xrP-tmKNjtYLfhATC37QdIsTMe0","playlistName":"شرح كتاب اللؤلؤ والمرجان فيما اتفق عليه الشيخان إماما المحدثين البخاري ومسلم. أ.د. يسري جبر","category":"حديث"},{"id":"w6q08egUJIc","title":"1- فضائل الصلاة على النَّبيّ ﷺ - شرح صلوات الأولياء","publishedAt":"2022-07-08T05:00:33Z","duration":"PT8M10S","thumbnail":"https://i.ytimg.com/vi/w6q08egUJIc/mqdefault.jpg","viewCount":"7124","playlistId":"PLEkQk5xrP-tkFEtMu56Xb9U9FCZBTXiLf","playlistName":"شرح صلوات الأولياء على خاتم الأنبياء ﷺ","category":"صلوات"},{"id":"HJZItqls2KY","title":"كيف حج النبي ﷺ حجة الوداع؟","publishedAt":"2022-07-07T19:06:05Z","duration":"PT17M26S","thumbnail":"https://i.ytimg.com/vi/HJZItqls2KY/mqdefault.jpg","viewCount":"2342","playlistId":"PLEkQk5xrP-tlArtGpeLWaqNM7h7IDeAVC","playlistName":"خطب الجمعة أ.د. يسري جبر","category":"خطب"},{"id":"auvGX_O8JlE","title":"537- حروف المعاني: حرف العطف (أم) - شرح البرهان في علوم القرآن","publishedAt":"2022-07-07T06:00:01Z","duration":"PT33M52S","thumbnail":"https://i.ytimg.com/vi/auvGX_O8JlE/mqdefault.jpg","viewCount":"576","playlistId":"PLEkQk5xrP-tnW3iBL7HkKziOFCFZbTlf0","playlistName":"شرح البرهان في علوم القرآن - أ.د. يسري جبر","category":"تفسير"},{"id":"Z7N8NTGlGQM","title":"الرد على من ينكر حديث المصافحة والمشابكة","publishedAt":"2022-07-06T19:15:23Z","duration":"PT8M48S","thumbnail":"https://i.ytimg.com/vi/Z7N8NTGlGQM/mqdefault.jpg","viewCount":"16775","playlistId":"PLEkQk5xrP-tm8ZIu74nTOZN9KJUJu416J","playlistName":"مقاطع مُهمَّة (يُسريَّات) أ.د. يسري جبر","category":"متنوع"},{"id":"sexPT-WHAcE","title":"276- استأذنتُ النَّبيَّ ﷺ في العُمْرَةِ فأَذِن وقال لا تنسانا يا أُخَيَّ من دعائِك…","publishedAt":"2022-07-06T05:15:02Z","duration":"PT27M36S","thumbnail":"https://i.ytimg.com/vi/sexPT-WHAcE/mqdefault.jpg","viewCount":"1807","playlistId":"PLEkQk5xrP-tkc9DXvSLguqX5-FYp6ASR4","playlistName":"دليل الفالحين لطرق رياض الصالحين","category":"متنوع"},{"id":"q6IMV3fv-R4","title":"أشعر بضيق شديد ,, ماذا أفعل؟","publishedAt":"2022-07-05T19:00:18Z","duration":"PT11M57S","thumbnail":"https://i.ytimg.com/vi/q6IMV3fv-R4/mqdefault.jpg","viewCount":"8409","playlistId":"PLEkQk5xrP-tm8ZIu74nTOZN9KJUJu416J","playlistName":"مقاطع مُهمَّة (يُسريَّات) أ.د. يسري جبر","category":"متنوع"},{"id":"-o145U3wbKA","title":"536- حروف المعاني: حرف الهمزة - شرح البرهان في علوم القرآن","publishedAt":"2022-07-05T05:31:00Z","duration":"PT13M19S","thumbnail":"https://i.ytimg.com/vi/-o145U3wbKA/mqdefault.jpg","viewCount":"675","playlistId":"PLEkQk5xrP-tnW3iBL7HkKziOFCFZbTlf0","playlistName":"شرح البرهان في علوم القرآن - أ.د. يسري جبر","category":"تفسير"},{"id":"Ttss3vs7dUY","title":"شرح منازل السائرين - المجلس (1) المقدمة | أ.د. يسري جبر","publishedAt":"2022-07-04T18:00:17Z","duration":"PT54M7S","thumbnail":"https://i.ytimg.com/vi/Ttss3vs7dUY/mqdefault.jpg","viewCount":"34483","playlistId":"PLEkQk5xrP-tmiUfQ-2Tsn7QIak4EsvaZW","playlistName":"كتاب التيسير المعين بشرح معاني منازل السائرين (تصوف) - د.يسري جبر","category":"تصوف"},{"id":"rR_hsUk18Vk","title":"قوله تعالى \"كُلُّ شَيْءٍ هَالِكٌ إِلَّا وَجْهَهُ\" - كتاب التوحيد - شرح صحيح الإمام البخاري","publishedAt":"2022-07-04T05:00:17Z","duration":"PT44M10S","thumbnail":"https://i.ytimg.com/vi/rR_hsUk18Vk/mqdefault.jpg","viewCount":"5376","playlistId":"PLEkQk5xrP-tmJuzaj4GWRenFoFx9gdbFX","playlistName":"شرح كتاب صحيح الإمام البخاري رضي الله تعالى عنه   أ.د. يسرى جبر","category":"حديث"},{"id":"j_mWKQFKUgs","title":"ما هي حدود الاختلاط بين الجنسين؟","publishedAt":"2022-07-03T17:59:52Z","duration":"PT10M39S","thumbnail":"https://i.ytimg.com/vi/j_mWKQFKUgs/mqdefault.jpg","viewCount":"26338","playlistId":"PLEkQk5xrP-tm8ZIu74nTOZN9KJUJu416J","playlistName":"مقاطع مُهمَّة (يُسريَّات) أ.د. يسري جبر","category":"متنوع"},{"id":"4HqGkhaxq_0","title":"شرح منازل السائرين - المجلس (29) باب الحرمة | أ.د. يسري جبر","publishedAt":"2023-08-22T18:00:02Z","duration":"PT41M53S","thumbnail":"https://i.ytimg.com/vi/4HqGkhaxq_0/mqdefault.jpg","viewCount":"5333","playlistId":"PLEkQk5xrP-tmiUfQ-2Tsn7QIak4EsvaZW","playlistName":"كتاب التيسير المعين بشرح معاني منازل السائرين (تصوف) - د.يسري جبر","category":"تصوف"},{"id":"xxQ0OYnxbXs","title":"أنا شاب ولا استطيع غض بصري فماذا أفعل؟","publishedAt":"2023-08-21T18:00:26Z","duration":"PT8M34S","thumbnail":"https://i.ytimg.com/vi/xxQ0OYnxbXs/mqdefault.jpg","viewCount":"12910","playlistId":"PLEkQk5xrP-tkGXuZ9atE3k_7it12rUPTs","playlistName":"أسئلة المتابعين","category":"متنوع"},{"id":"r8UQCKhZaAA","title":"أفضل طريقة لإنهاء المشاكل الزوجية","publishedAt":"2023-08-20T18:00:32Z","duration":"PT13M29S","thumbnail":"https://i.ytimg.com/vi/r8UQCKhZaAA/mqdefault.jpg","viewCount":"10945","playlistId":"PLEkQk5xrP-tkGXuZ9atE3k_7it12rUPTs","playlistName":"أسئلة المتابعين","category":"متنوع"},{"id":"WNIlb2FT_hQ","title":"13- كيف كان سيدنا رسول الله ﷺ يتوضأ - كتاب الطَّهارة - شرح سنن الإمام الدار قطني رضي الله عنه","publishedAt":"2023-08-20T05:00:12Z","duration":"PT41M6S","thumbnail":"https://i.ytimg.com/vi/WNIlb2FT_hQ/mqdefault.jpg","viewCount":"1379","playlistId":"PLEkQk5xrP-tk_MCBZ706ORCw6gFtFyaGj","playlistName":"شرح سنن الإمام الدارقطني","category":"متنوع"},{"id":"zXxEuotW1JE","title":"كيف تختار أصحابك؟","publishedAt":"2023-08-19T18:00:34Z","duration":"PT11M36S","thumbnail":"https://i.ytimg.com/vi/zXxEuotW1JE/mqdefault.jpg","viewCount":"5660","playlistId":"PLEkQk5xrP-tlArtGpeLWaqNM7h7IDeAVC","playlistName":"خطب الجمعة أ.د. يسري جبر","category":"خطب"},{"id":"eoVmAJPeGN0","title":"أين الله ﷻ؟","publishedAt":"2023-08-17T17:00:22Z","duration":"PT8M5S","thumbnail":"https://i.ytimg.com/vi/eoVmAJPeGN0/mqdefault.jpg","viewCount":"10752","playlistId":"PLEkQk5xrP-tlArtGpeLWaqNM7h7IDeAVC","playlistName":"خطب الجمعة أ.د. يسري جبر","category":"خطب"}],"total":7670,"page":268,"pageSize":24,"totalPages":320}