{"items":[{"id":"FhsytsnZQV4","title":"شرح صحيح البخاري كتاب العقيقة من أوله","publishedAt":"2018-07-14T23:56:22Z","duration":"PT24M45S","thumbnail":"https://i.ytimg.com/vi/FhsytsnZQV4/mqdefault.jpg","viewCount":"801","playlistId":"PLEkQk5xrP-tlEerGoLa1AFy-2XvQ-sovv","playlistName":"شرح صحيح البخاري - أ.د. يسري جبر (كاملا)","category":"حديث"},{"id":"X85gmxsHtSU","title":"مقرأة سورة السجدة من آية ١٨","publishedAt":"2018-07-14T15:01:38Z","duration":"PT14M25S","thumbnail":"https://i.ytimg.com/vi/X85gmxsHtSU/mqdefault.jpg","viewCount":"372","playlistId":"PLEkQk5xrP-tnmTYsyW6xNdyfhPq0Bhrhj","playlistName":"مقرأة الفجر - القُرْآنُ الكَرِيمُ - خَتْمَةُ التَّدَبُّرِ  أ.د. يسري جبر","category":"متنوع"},{"id":"uDTYSoQq4Kk","title":"شرح صحيح البخاري كتاب الأطعمة من باب ٤٩","publishedAt":"2018-07-12T23:09:30Z","duration":"PT39M47S","thumbnail":"https://i.ytimg.com/vi/uDTYSoQq4Kk/mqdefault.jpg","viewCount":"546","playlistId":"PLEkQk5xrP-tlEerGoLa1AFy-2XvQ-sovv","playlistName":"شرح صحيح البخاري - أ.د. يسري جبر (كاملا)","category":"حديث"},{"id":"0vmPcyLaQfg","title":"الرسالة القشيرية - المجلس الثاني و العشرون - باب في ذكر مشايخ هذه الطريقة - المجلس الرابع عشر","publishedAt":"2018-07-12T14:57:34Z","duration":"PT1H4M4S","thumbnail":"https://i.ytimg.com/vi/0vmPcyLaQfg/mqdefault.jpg","viewCount":"6187","playlistId":"PLEkQk5xrP-tkHAGOwIKr4pc5ehhyQ5HMJ","playlistName":"كتاب الرسالة القشيرية (تصوف) - د. يسري جبر","category":"تصوف"},{"id":"qVglRk1fgB8","title":"مقرأة سورة السجدة من آية ١١","publishedAt":"2018-07-12T10:45:19Z","duration":"PT19M37S","thumbnail":"https://i.ytimg.com/vi/qVglRk1fgB8/mqdefault.jpg","viewCount":"408","playlistId":"PLEkQk5xrP-tnmTYsyW6xNdyfhPq0Bhrhj","playlistName":"مقرأة الفجر - القُرْآنُ الكَرِيمُ - خَتْمَةُ التَّدَبُّرِ  أ.د. يسري جبر","category":"متنوع"},{"id":"eaU57RPed9s","title":"شرح صحيح البخاري كتاب الأطعمة من باب ٤١","publishedAt":"2018-07-11T17:49:44Z","duration":"PT27M57S","thumbnail":"https://i.ytimg.com/vi/eaU57RPed9s/mqdefault.jpg","viewCount":"472","playlistId":"PLEkQk5xrP-tlEerGoLa1AFy-2XvQ-sovv","playlistName":"شرح صحيح البخاري - أ.د. يسري جبر (كاملا)","category":"حديث"},{"id":"W0x8mZ-VnT0","title":"65- باب مَا جَاءَ فِى الْبَتَّةِ  ك الموطأ د يسري جبر الأزهري","publishedAt":"2018-07-11T11:03:37Z","duration":"PT46M34S","thumbnail":"https://i.ytimg.com/vi/W0x8mZ-VnT0/mqdefault.jpg","viewCount":"272","playlistId":"PLEkQk5xrP-tnC6BRuqMjyO-484iqXeg0o","playlistName":"شرح كتاب الموطأ للإمام مالك","category":"متنوع"},{"id":"5fGwp3iUsyc","title":"مقرأة سورة السجدة من آية ٦","publishedAt":"2018-07-11T10:59:42Z","duration":"PT7M33S","thumbnail":"https://i.ytimg.com/vi/5fGwp3iUsyc/mqdefault.jpg","viewCount":"320","playlistId":"PLEkQk5xrP-tnmTYsyW6xNdyfhPq0Bhrhj","playlistName":"مقرأة الفجر - القُرْآنُ الكَرِيمُ - خَتْمَةُ التَّدَبُّرِ  أ.د. يسري جبر","category":"متنوع"},{"id":"C9kseowR5E4","title":"شرح صحيح البخاري كتاب الأطعمة من باب ٣١","publishedAt":"2018-07-10T18:14:35Z","duration":"PT41M35S","thumbnail":"https://i.ytimg.com/vi/C9kseowR5E4/mqdefault.jpg","viewCount":"513","playlistId":"PLEkQk5xrP-tlEerGoLa1AFy-2XvQ-sovv","playlistName":"شرح صحيح البخاري - أ.د. يسري جبر (كاملا)","category":"حديث"},{"id":"RBNqT9xFSzQ","title":"مقرأة سورة السجدة من أولها","publishedAt":"2018-07-10T10:19:59Z","duration":"PT14M42S","thumbnail":"https://i.ytimg.com/vi/RBNqT9xFSzQ/mqdefault.jpg","viewCount":"692","playlistId":"PLEkQk5xrP-tnmTYsyW6xNdyfhPq0Bhrhj","playlistName":"مقرأة الفجر - القُرْآنُ الكَرِيمُ - خَتْمَةُ التَّدَبُّرِ  أ.د. يسري جبر","category":"متنوع"},{"id":"Q5m-dYFVOBI","title":"شرح صحيح البخاري كتاب الأطعمة من باب ٢٧","publishedAt":"2018-07-09T22:12:23Z","duration":"PT37M55S","thumbnail":"https://i.ytimg.com/vi/Q5m-dYFVOBI/mqdefault.jpg","viewCount":"565","playlistId":"PLEkQk5xrP-tlEerGoLa1AFy-2XvQ-sovv","playlistName":"شرح صحيح البخاري - أ.د. يسري جبر (كاملا)","category":"حديث"},{"id":"9u12O0ga7XM","title":"مقرأة سورة لقمان من آية ٣٣","publishedAt":"2018-07-09T13:41:50Z","duration":"PT17M7S","thumbnail":"https://i.ytimg.com/vi/9u12O0ga7XM/mqdefault.jpg","viewCount":"272","playlistId":"PLEkQk5xrP-tnmTYsyW6xNdyfhPq0Bhrhj","playlistName":"مقرأة الفجر - القُرْآنُ الكَرِيمُ - خَتْمَةُ التَّدَبُّرِ  أ.د. يسري جبر","category":"متنوع"},{"id":"MaHO2c87PlM","title":"شرح صحيح البخاري كتاب الأطعمة من باب ٢٣","publishedAt":"2018-07-08T09:01:47Z","duration":"PT35M37S","thumbnail":"https://i.ytimg.com/vi/MaHO2c87PlM/mqdefault.jpg","viewCount":"529","playlistId":"PLEkQk5xrP-tlEerGoLa1AFy-2XvQ-sovv","playlistName":"شرح صحيح البخاري - أ.د. يسري جبر (كاملا)","category":"حديث"},{"id":"VpVbDGeR-9E","title":"لا يظِلمُ رَبٌك أحدًا","publishedAt":"2018-07-08T02:05:38Z","duration":"PT36M53S","thumbnail":"https://i.ytimg.com/vi/VpVbDGeR-9E/mqdefault.jpg","viewCount":"900","playlistId":"PLEkQk5xrP-tlArtGpeLWaqNM7h7IDeAVC","playlistName":"خطب الجمعة أ.د. يسري جبر","category":"خطب"},{"id":"zgb_e44hkL0","title":"مقرأة سورة النور من آية ١٩","publishedAt":"2018-03-12T11:17:21Z","duration":"PT12M31S","thumbnail":"https://i.ytimg.com/vi/zgb_e44hkL0/mqdefault.jpg","viewCount":"310","playlistId":"PLEkQk5xrP-tnmTYsyW6xNdyfhPq0Bhrhj","playlistName":"مقرأة الفجر - القُرْآنُ الكَرِيمُ - خَتْمَةُ التَّدَبُّرِ  أ.د. يسري جبر","category":"متنوع"},{"id":"Ktx50mtQyts","title":"شرح صحيح البخاري كتاب التفسير فى سورة البقرة من باب ٣٥","publishedAt":"2018-03-11T17:24:59Z","duration":"PT32M54S","thumbnail":"https://i.ytimg.com/vi/Ktx50mtQyts/mqdefault.jpg","viewCount":"523","playlistId":"PLEkQk5xrP-tlEerGoLa1AFy-2XvQ-sovv","playlistName":"شرح صحيح البخاري - أ.د. يسري جبر (كاملا)","category":"حديث"},{"id":"TIICbexo2Z4","title":"مقرأة سورة النور من آية ١١","publishedAt":"2018-03-11T11:36:42Z","duration":"PT21M17S","thumbnail":"https://i.ytimg.com/vi/TIICbexo2Z4/mqdefault.jpg","viewCount":"455","playlistId":"PLEkQk5xrP-tnmTYsyW6xNdyfhPq0Bhrhj","playlistName":"مقرأة الفجر - القُرْآنُ الكَرِيمُ - خَتْمَةُ التَّدَبُّرِ  أ.د. يسري جبر","category":"متنوع"},{"id":"8iuXTt1-94Q","title":"حول مولد أمّنا السيدة فاطمة الزهراء البتول رضي الله تعالى عنها وعليها السلام د. يسري جبر","publishedAt":"2018-03-10T21:10:25Z","duration":"PT43M22S","thumbnail":"https://i.ytimg.com/vi/8iuXTt1-94Q/mqdefault.jpg","viewCount":"1032","playlistId":"PLEkQk5xrP-tlArtGpeLWaqNM7h7IDeAVC","playlistName":"خطب الجمعة أ.د. يسري جبر","category":"خطب"},{"id":"ab3EDes-CTM","title":"شرح صحيح البخاري كتاب التفسير فى سورة البقرة من باب ٢٨","publishedAt":"2018-03-10T19:10:19Z","duration":"PT38M5S","thumbnail":"https://i.ytimg.com/vi/ab3EDes-CTM/mqdefault.jpg","viewCount":"683","playlistId":"PLEkQk5xrP-tlEerGoLa1AFy-2XvQ-sovv","playlistName":"شرح صحيح البخاري - أ.د. يسري جبر (كاملا)","category":"حديث"},{"id":"FyDGelPU0jw","title":"مقرأة سورة النور من آية ٦","publishedAt":"2018-03-10T14:08:56Z","duration":"PT17M24S","thumbnail":"https://i.ytimg.com/vi/FyDGelPU0jw/mqdefault.jpg","viewCount":"336","playlistId":"PLEkQk5xrP-tnmTYsyW6xNdyfhPq0Bhrhj","playlistName":"مقرأة الفجر - القُرْآنُ الكَرِيمُ - خَتْمَةُ التَّدَبُّرِ  أ.د. يسري جبر","category":"متنوع"},{"id":"3PrgpPBm464","title":"كتاب نوراليقين في سيرة سيد المرسلين - المجلس 42 (سرية - غزوة مُؤْتَة) د.يسري جبر","publishedAt":"2018-03-10T01:47:27Z","duration":"PT50M53S","thumbnail":"https://i.ytimg.com/vi/3PrgpPBm464/mqdefault.jpg","viewCount":"12601","playlistId":"PLEkQk5xrP-tl2t4NQx1IhKnAJCMzF0Nli","playlistName":"شرح كتاب نور اليقين في سيرة سيد المرسلين   د. يسري جبر","category":"سيرة"},{"id":"EbzjYc69d1o","title":"شرح صحيح البخاري كتاب التفسير فى سورة البقرة من باب ٢٢","publishedAt":"2018-03-09T20:19:49Z","duration":"PT36M6S","thumbnail":"https://i.ytimg.com/vi/EbzjYc69d1o/mqdefault.jpg","viewCount":"600","playlistId":"PLEkQk5xrP-tlEerGoLa1AFy-2XvQ-sovv","playlistName":"شرح صحيح البخاري - أ.د. يسري جبر (كاملا)","category":"حديث"},{"id":"1GZQF2AYIa0","title":"مقرأة سورة النور من آية ٤","publishedAt":"2018-03-09T16:47:22Z","duration":"PT7M41S","thumbnail":"https://i.ytimg.com/vi/1GZQF2AYIa0/mqdefault.jpg","viewCount":"333","playlistId":"PLEkQk5xrP-tnmTYsyW6xNdyfhPq0Bhrhj","playlistName":"مقرأة الفجر - القُرْآنُ الكَرِيمُ - خَتْمَةُ التَّدَبُّرِ  أ.د. يسري جبر","category":"متنوع"},{"id":"yMSycaopzzM","title":"شرح صحيح البخاري كتاب التفسير فى سورة البقرة من باب ١١","publishedAt":"2018-03-08T21:49:46Z","duration":"PT31M30S","thumbnail":"https://i.ytimg.com/vi/yMSycaopzzM/mqdefault.jpg","viewCount":"601","playlistId":"PLEkQk5xrP-tlEerGoLa1AFy-2XvQ-sovv","playlistName":"شرح صحيح البخاري - أ.د. يسري جبر (كاملا)","category":"حديث"}],"total":7670,"page":34,"pageSize":24,"totalPages":320}