{"items":[{"id":"ronsJF0mUx4","title":"العُمدةُ قي شرحِ البُردةِ - المجلس الرابع","publishedAt":"2020-05-16T23:00:10Z","duration":"PT43M51S","thumbnail":"https://i.ytimg.com/vi/ronsJF0mUx4/mqdefault.jpg","viewCount":"1385","playlistId":"PLEkQk5xrP-tmobcu_1bgkLNfeJXVsmjFZ","playlistName":"شرح بردة الإمام البوصيري أ.د/ يسري جبر","category":"ردود"},{"id":"zahhbECU8Jk","title":"العُمدةُ قي شرحِ البُردةِ - المجلس الثالث","publishedAt":"2020-05-15T23:00:11Z","duration":"PT54M41S","thumbnail":"https://i.ytimg.com/vi/zahhbECU8Jk/mqdefault.jpg","viewCount":"1556","playlistId":"PLEkQk5xrP-tmobcu_1bgkLNfeJXVsmjFZ","playlistName":"شرح بردة الإمام البوصيري أ.د/ يسري جبر","category":"ردود"},{"id":"DzvZFxP8N5g","title":"العُمدةُ قي شرحِ البُردةِ - الفصل الأول والثاني","publishedAt":"2020-05-14T23:00:32Z","duration":"PT51M24S","thumbnail":"https://i.ytimg.com/vi/DzvZFxP8N5g/mqdefault.jpg","viewCount":"3366","playlistId":"PLEkQk5xrP-tmobcu_1bgkLNfeJXVsmjFZ","playlistName":"شرح بردة الإمام البوصيري أ.د/ يسري جبر","category":"ردود"},{"id":"zqXZzacitGg","title":"العُمدةُ قي شرحِ البُردةِ  أ.د. يسري جبر","publishedAt":"2020-05-13T23:15:57Z","duration":"PT43M56S","thumbnail":"https://i.ytimg.com/vi/zqXZzacitGg/mqdefault.jpg","viewCount":"6306","playlistId":"PLEkQk5xrP-tmobcu_1bgkLNfeJXVsmjFZ","playlistName":"شرح بردة الإمام البوصيري أ.د/ يسري جبر","category":"ردود"},{"id":"UfyzebjAApA","title":"أسرى بدر واختيار الفداء    أ.د. يسري جبر","publishedAt":"2020-05-12T00:26:57Z","duration":"PT11M51S","thumbnail":"https://i.ytimg.com/vi/UfyzebjAApA/mqdefault.jpg","viewCount":"1657","playlistId":"PLEkQk5xrP-tm8ZIu74nTOZN9KJUJu416J","playlistName":"مقاطع مُهمَّة (يُسريَّات) أ.د. يسري جبر","category":"متنوع"},{"id":"f63xHzMe42U","title":"شرح كتاب بهجة النفوس - المجلس السادس عشر","publishedAt":"2020-05-08T20:00:29Z","duration":"PT52M57S","thumbnail":"https://i.ytimg.com/vi/f63xHzMe42U/mqdefault.jpg","viewCount":"1348","playlistId":"PLEkQk5xrP-tlyEB2iywk4VchTQROnBrU6","playlistName":"بهجة النفوس من أوله  أ.د. يسري جبر","category":"متنوع"},{"id":"DAgpATqcuPQ","title":"شرح كتاب بهجة النفوس - المجلس الخامس عشر","publishedAt":"2020-05-07T20:00:12Z","duration":"PT43M42S","thumbnail":"https://i.ytimg.com/vi/DAgpATqcuPQ/mqdefault.jpg","viewCount":"1048","playlistId":"PLEkQk5xrP-tlyEB2iywk4VchTQROnBrU6","playlistName":"بهجة النفوس من أوله  أ.د. يسري جبر","category":"متنوع"},{"id":"QV6ecc2M6QY","title":"شرح كتاب بهجة النفوس - المجلس الرابع عشر","publishedAt":"2020-05-06T20:00:12Z","duration":"PT44M46S","thumbnail":"https://i.ytimg.com/vi/QV6ecc2M6QY/mqdefault.jpg","viewCount":"1104","playlistId":"PLEkQk5xrP-tlyEB2iywk4VchTQROnBrU6","playlistName":"بهجة النفوس من أوله  أ.د. يسري جبر","category":"متنوع"},{"id":"geMxDUHmBCM","title":"شرح صحيح البخاري كتاب الطلا‎ق من باب ٤٥","publishedAt":"2018-06-27T16:08:29Z","duration":"PT22M44S","thumbnail":"https://i.ytimg.com/vi/geMxDUHmBCM/mqdefault.jpg","viewCount":"356","playlistId":"PLEkQk5xrP-tlEerGoLa1AFy-2XvQ-sovv","playlistName":"شرح صحيح البخاري - أ.د. يسري جبر (كاملا)","category":"حديث"},{"id":"IlAcE0Yr2iI","title":"مقرأة سورة الروم من آية ٥٢","publishedAt":"2018-06-27T10:48:36Z","duration":"PT27M41S","thumbnail":"https://i.ytimg.com/vi/IlAcE0Yr2iI/mqdefault.jpg","viewCount":"314","playlistId":"PLEkQk5xrP-tnmTYsyW6xNdyfhPq0Bhrhj","playlistName":"مقرأة الفجر - القُرْآنُ الكَرِيمُ - خَتْمَةُ التَّدَبُّرِ  أ.د. يسري جبر","category":"متنوع"},{"id":"oS_bpGQIwVM","title":"شرح صحيح البخاري كتاب الطلا‎ق من باب ٤٢","publishedAt":"2018-06-26T17:34:46Z","duration":"PT18M6S","thumbnail":"https://i.ytimg.com/vi/oS_bpGQIwVM/mqdefault.jpg","viewCount":"356","playlistId":"PLEkQk5xrP-tlEerGoLa1AFy-2XvQ-sovv","playlistName":"شرح صحيح البخاري - أ.د. يسري جبر (كاملا)","category":"حديث"},{"id":"fziLKGNb1_Q","title":"مقرأة سورة الروم من آية ٤٨","publishedAt":"2018-06-26T11:18:42Z","duration":"PT17M","thumbnail":"https://i.ytimg.com/vi/fziLKGNb1_Q/mqdefault.jpg","viewCount":"307","playlistId":"PLEkQk5xrP-tnmTYsyW6xNdyfhPq0Bhrhj","playlistName":"مقرأة الفجر - القُرْآنُ الكَرِيمُ - خَتْمَةُ التَّدَبُّرِ  أ.د. يسري جبر","category":"متنوع"},{"id":"HLNAFCL__hY","title":"شرح صحيح البخاري كتاب الطلا‎ق من باب ٤٠","publishedAt":"2018-06-25T20:40:47Z","duration":"PT18M53S","thumbnail":"https://i.ytimg.com/vi/HLNAFCL__hY/mqdefault.jpg","viewCount":"390","playlistId":"PLEkQk5xrP-tlEerGoLa1AFy-2XvQ-sovv","playlistName":"شرح صحيح البخاري - أ.د. يسري جبر (كاملا)","category":"حديث"},{"id":"xMe_l2e5z6U","title":"مقرأة سورة الروم من آية ٤٦","publishedAt":"2018-06-25T10:53:30Z","duration":"PT11M44S","thumbnail":"https://i.ytimg.com/vi/xMe_l2e5z6U/mqdefault.jpg","viewCount":"248","playlistId":"PLEkQk5xrP-tnmTYsyW6xNdyfhPq0Bhrhj","playlistName":"مقرأة الفجر - القُرْآنُ الكَرِيمُ - خَتْمَةُ التَّدَبُّرِ  أ.د. يسري جبر","category":"متنوع"},{"id":"pNbHd5qrNws","title":"هل التصوف كان موجودا أيام النبي ﷺ؟","publishedAt":"2023-01-02T18:00:28Z","duration":"PT8M51S","thumbnail":"https://i.ytimg.com/vi/pNbHd5qrNws/mqdefault.jpg","viewCount":"6414","playlistId":"PLEkQk5xrP-tkGXuZ9atE3k_7it12rUPTs","playlistName":"أسئلة المتابعين","category":"متنوع"},{"id":"4yKOJZsH_No","title":"373- أهمية حفظ اللسان والجوارح للصائم وغيره - شرح دليل الفالحين","publishedAt":"2023-01-02T09:00:03Z","duration":"PT34M18S","thumbnail":"https://i.ytimg.com/vi/4yKOJZsH_No/mqdefault.jpg","viewCount":"722","playlistId":"PLEkQk5xrP-tkc9DXvSLguqX5-FYp6ASR4","playlistName":"دليل الفالحين لطرق رياض الصالحين","category":"متنوع"},{"id":"GqtMoo-Wxg8","title":"372- فضل تعجيل الفِطر وما يُفطِر عليه وما يقوله بعد إفطاره - شرح دليل الفالحين","publishedAt":"2023-01-02T05:00:10Z","duration":"PT49M59S","thumbnail":"https://i.ytimg.com/vi/GqtMoo-Wxg8/mqdefault.jpg","viewCount":"471","playlistId":"PLEkQk5xrP-tkc9DXvSLguqX5-FYp6ASR4","playlistName":"دليل الفالحين لطرق رياض الصالحين","category":"متنوع"},{"id":"Vek-lIS0DUI","title":"كيف تدعو الناس إلى الخير؟ | وحكم من لا يستطيع الأمر بالمعروف","publishedAt":"2023-01-01T18:00:08Z","duration":"PT12M6S","thumbnail":"https://i.ytimg.com/vi/Vek-lIS0DUI/mqdefault.jpg","viewCount":"3122","playlistId":"PLEkQk5xrP-tkGXuZ9atE3k_7it12rUPTs","playlistName":"أسئلة المتابعين","category":"متنوع"},{"id":"05KjuCZDwPo","title":"مقرأة سورة طه من آية ١٧","publishedAt":"2017-11-24T13:01:59Z","duration":"PT12M30S","thumbnail":"https://i.ytimg.com/vi/05KjuCZDwPo/mqdefault.jpg","viewCount":"371","playlistId":"PLEkQk5xrP-tnmTYsyW6xNdyfhPq0Bhrhj","playlistName":"مقرأة الفجر - القُرْآنُ الكَرِيمُ - خَتْمَةُ التَّدَبُّرِ  أ.د. يسري جبر","category":"متنوع"},{"id":"Hl2oQVDXl64","title":"شرح كتاب الرسالة القشيرية - المجلس الثالث (المقدمة 2)","publishedAt":"2017-11-24T07:59:14Z","duration":"PT1H50S","thumbnail":"https://i.ytimg.com/vi/Hl2oQVDXl64/mqdefault.jpg","viewCount":"21977","playlistId":"PLEkQk5xrP-tkHAGOwIKr4pc5ehhyQ5HMJ","playlistName":"كتاب الرسالة القشيرية (تصوف) - د. يسري جبر","category":"تصوف"},{"id":"9P0RCy9ds_w","title":"شرح كتاب نوراليقين في سيرة سيد المرسلين - المجلس الثلاثون ( غزوة الخندق ) د.يسري جبر","publishedAt":"2017-11-22T06:30:51Z","duration":"PT49M18S","thumbnail":"https://i.ytimg.com/vi/9P0RCy9ds_w/mqdefault.jpg","viewCount":"16954","playlistId":"PLEkQk5xrP-tl2t4NQx1IhKnAJCMzF0Nli","playlistName":"شرح كتاب نور اليقين في سيرة سيد المرسلين   د. يسري جبر","category":"سيرة"},{"id":"hPQUWfbcQyM","title":"مقرأة سورة طه من آية ٩","publishedAt":"2017-11-21T19:11:45Z","duration":"PT17M55S","thumbnail":"https://i.ytimg.com/vi/hPQUWfbcQyM/mqdefault.jpg","viewCount":"467","playlistId":"PLEkQk5xrP-tnmTYsyW6xNdyfhPq0Bhrhj","playlistName":"مقرأة الفجر - القُرْآنُ الكَرِيمُ - خَتْمَةُ التَّدَبُّرِ  أ.د. يسري جبر","category":"متنوع"},{"id":"jtR5hLvWsDQ","title":"شرح صحيح البخاري  كتاب فضائل الصحابة من باب ١٨","publishedAt":"2017-11-21T18:37:33Z","duration":"PT29M14S","thumbnail":"https://i.ytimg.com/vi/jtR5hLvWsDQ/mqdefault.jpg","viewCount":"459","playlistId":"PLEkQk5xrP-tlEerGoLa1AFy-2XvQ-sovv","playlistName":"شرح صحيح البخاري - أ.د. يسري جبر (كاملا)","category":"حديث"},{"id":"OH2ttoy9BvM","title":"مقرأة سورة طه من أولها","publishedAt":"2017-11-21T17:30:33Z","duration":"PT18M16S","thumbnail":"https://i.ytimg.com/vi/OH2ttoy9BvM/mqdefault.jpg","viewCount":"1285","playlistId":"PLEkQk5xrP-tnmTYsyW6xNdyfhPq0Bhrhj","playlistName":"مقرأة الفجر - القُرْآنُ الكَرِيمُ - خَتْمَةُ التَّدَبُّرِ  أ.د. يسري جبر","category":"متنوع"}],"total":7670,"page":135,"pageSize":24,"totalPages":320}