{"items":[{"id":"_p7ynQ7XlM4","title":"116-\"المسلم أخو المسلم، لا يخونه، ولا يكذبه، ولا يخذله، كل المسلم على المسلم حرام…\"شرح دليل الفالحين","publishedAt":"2021-08-23T05:55:42Z","duration":"PT53M8S","thumbnail":"https://i.ytimg.com/vi/_p7ynQ7XlM4/mqdefault.jpg","viewCount":"1713","playlistId":"PLEkQk5xrP-tkc9DXvSLguqX5-FYp6ASR4","playlistName":"دليل الفالحين لطرق رياض الصالحين","category":"متنوع"},{"id":"cCTGnrGJeV4","title":"أريد الانتحار,, هل سأموت كافرا؟","publishedAt":"2021-08-22T18:58:48Z","duration":"PT9M12S","thumbnail":"https://i.ytimg.com/vi/cCTGnrGJeV4/mqdefault.jpg","viewCount":"11046","playlistId":"PLEkQk5xrP-tkGXuZ9atE3k_7it12rUPTs","playlistName":"أسئلة المتابعين","category":"متنوع"},{"id":"voqzrF5N9RI","title":"18- \"ليس السَّنَةُ بأنْ لا تُمطَروا…\" - شرح مسند الإمام الشافعي رضي الله عنه","publishedAt":"2021-08-22T06:07:28Z","duration":"PT52M43S","thumbnail":"https://i.ytimg.com/vi/voqzrF5N9RI/mqdefault.jpg","viewCount":"2638","playlistId":"PLEkQk5xrP-tlDtaqY0qhNXAiZ19gaGzKI","playlistName":"شرح مسند الإمام محمد بن إدريس الشافعيّ رضي الله تعالى عنه","category":"فقه"},{"id":"jGxSxZSOzpk","title":"نصيحة لأهالي وطلاب الثانوية العامة","publishedAt":"2021-08-21T17:00:39Z","duration":"PT8M55S","thumbnail":"https://i.ytimg.com/vi/jGxSxZSOzpk/mqdefault.jpg","viewCount":"4015","playlistId":"PLEkQk5xrP-tkGXuZ9atE3k_7it12rUPTs","playlistName":"أسئلة المتابعين","category":"متنوع"},{"id":"mfjob1pny-4","title":"الاختزال (33) حذف الحرف - شرح البرهان في علوم القرآن","publishedAt":"2021-08-21T06:21:05Z","duration":"PT22M37S","thumbnail":"https://i.ytimg.com/vi/mfjob1pny-4/mqdefault.jpg","viewCount":"404","playlistId":"PLEkQk5xrP-tnW3iBL7HkKziOFCFZbTlf0","playlistName":"شرح البرهان في علوم القرآن - أ.د. يسري جبر","category":"تفسير"},{"id":"49LdZNokzRw","title":"هل نأخذ بالأحاديث الآحاد في العقيدة؟","publishedAt":"2021-08-20T17:00:02Z","duration":"PT10M21S","thumbnail":"https://i.ytimg.com/vi/49LdZNokzRw/mqdefault.jpg","viewCount":"6907","playlistId":"PLEkQk5xrP-tm8ZIu74nTOZN9KJUJu416J","playlistName":"مقاطع مُهمَّة (يُسريَّات) أ.د. يسري جبر","category":"متنوع"},{"id":"LI2-uglktIk","title":"115-\"إنِّي لأقوم إلى الصَّلاة وأريدُ أن أطوِّل فيها فأسمع بُكاءَ الطفل فأتجوَّز …\" شرح دليل الفالحين","publishedAt":"2021-08-20T06:03:17Z","duration":"PT39M2S","thumbnail":"https://i.ytimg.com/vi/LI2-uglktIk/mqdefault.jpg","viewCount":"1526","playlistId":"PLEkQk5xrP-tkc9DXvSLguqX5-FYp6ASR4","playlistName":"دليل الفالحين لطرق رياض الصالحين","category":"متنوع"},{"id":"ewayINKQNns","title":"هل الله موجود في السماء؟","publishedAt":"2021-08-19T18:00:22Z","duration":"PT11M34S","thumbnail":"https://i.ytimg.com/vi/ewayINKQNns/mqdefault.jpg","viewCount":"54625","playlistId":"PLEkQk5xrP-tm8ZIu74nTOZN9KJUJu416J","playlistName":"مقاطع مُهمَّة (يُسريَّات) أ.د. يسري جبر","category":"متنوع"},{"id":"OdZz_gpO_xw","title":"الاختزال (32) حذف الفعل (6)- شرح البرهان في علوم القرآن","publishedAt":"2021-08-19T05:46:54Z","duration":"PT13M19S","thumbnail":"https://i.ytimg.com/vi/OdZz_gpO_xw/mqdefault.jpg","viewCount":"438","playlistId":"PLEkQk5xrP-tnW3iBL7HkKziOFCFZbTlf0","playlistName":"شرح البرهان في علوم القرآن - أ.د. يسري جبر","category":"تفسير"},{"id":"amKntmImocQ","title":"114- \"قدمَ ناسٌ منَ الأعرابِ على النَّبيِّ ﷺ فقالوا أتُقبِّلون صبيانَكم…\" -  شرح دليل الفالحين","publishedAt":"2021-08-18T05:54:17Z","duration":"PT54M12S","thumbnail":"https://i.ytimg.com/vi/amKntmImocQ/mqdefault.jpg","viewCount":"1462","playlistId":"PLEkQk5xrP-tkc9DXvSLguqX5-FYp6ASR4","playlistName":"دليل الفالحين لطرق رياض الصالحين","category":"متنوع"},{"id":"fZls46rmda4","title":"الفوائد اليسرية فى الهجرة النبوية","publishedAt":"2021-08-17T19:28:53Z","duration":"PT45M28S","thumbnail":"https://i.ytimg.com/vi/fZls46rmda4/mqdefault.jpg","viewCount":"2170","playlistId":"PLEkQk5xrP-tlArtGpeLWaqNM7h7IDeAVC","playlistName":"خطب الجمعة أ.د. يسري جبر","category":"خطب"},{"id":"lUUNPJ4XW0o","title":"الاختزال (31) حذف الفعل (5)- شرح البرهان في علوم القرآن","publishedAt":"2021-08-17T06:35:46Z","duration":"PT7M8S","thumbnail":"https://i.ytimg.com/vi/lUUNPJ4XW0o/mqdefault.jpg","viewCount":"330","playlistId":"PLEkQk5xrP-tnW3iBL7HkKziOFCFZbTlf0","playlistName":"شرح البرهان في علوم القرآن - أ.د. يسري جبر","category":"تفسير"},{"id":"Ly3euchevw8","title":"ما هو فضل يوم عاشوراء؟","publishedAt":"2021-08-16T19:15:01Z","duration":"PT8M1S","thumbnail":"https://i.ytimg.com/vi/Ly3euchevw8/mqdefault.jpg","viewCount":"7151","playlistId":"PLEkQk5xrP-tlArtGpeLWaqNM7h7IDeAVC","playlistName":"خطب الجمعة أ.د. يسري جبر","category":"خطب"},{"id":"OZS75wFCNwU","title":"17- الأحاديث الواردة في صلاة الكسوف - شرح مسند الإمام الشافعي المجلس 17","publishedAt":"2021-08-16T05:39:09Z","duration":"PT53M21S","thumbnail":"https://i.ytimg.com/vi/OZS75wFCNwU/mqdefault.jpg","viewCount":"952","playlistId":"PLEkQk5xrP-tlDtaqY0qhNXAiZ19gaGzKI","playlistName":"شرح مسند الإمام محمد بن إدريس الشافعيّ رضي الله تعالى عنه","category":"فقه"},{"id":"l8nh1QyxV2c","title":"مقرأة سورة الدخان من آية ٥١","publishedAt":"2018-12-26T12:12:45Z","duration":"PT14M5S","thumbnail":"https://i.ytimg.com/vi/l8nh1QyxV2c/mqdefault.jpg","viewCount":"304","playlistId":"PLEkQk5xrP-tnmTYsyW6xNdyfhPq0Bhrhj","playlistName":"مقرأة الفجر - القُرْآنُ الكَرِيمُ - خَتْمَةُ التَّدَبُّرِ  أ.د. يسري جبر","category":"متنوع"},{"id":"axQxU9xBoVE","title":"شرح صحيح البخاري كتاب التعبير من باب ٢٢","publishedAt":"2018-12-25T21:05:42Z","duration":"PT27M30S","thumbnail":"https://i.ytimg.com/vi/axQxU9xBoVE/mqdefault.jpg","viewCount":"453","playlistId":"PLEkQk5xrP-tlEerGoLa1AFy-2XvQ-sovv","playlistName":"شرح صحيح البخاري - أ.د. يسري جبر (كاملا)","category":"حديث"},{"id":"B2ESM4fqbgk","title":"شرح كتاب نور اليقين في سيرة سيد المرسلين للشيخ الخضري رحمه الله (المجلس70) أ.د. يسري جبر","publishedAt":"2018-12-25T15:47:11Z","duration":"PT50M50S","thumbnail":"https://i.ytimg.com/vi/B2ESM4fqbgk/mqdefault.jpg","viewCount":"6243","playlistId":"PLEkQk5xrP-tl2t4NQx1IhKnAJCMzF0Nli","playlistName":"شرح كتاب نور اليقين في سيرة سيد المرسلين   د. يسري جبر","category":"سيرة"},{"id":"6K-LYgKtGDk","title":"مقرأة سورة الدخان من آية ٣٧","publishedAt":"2018-12-25T12:40:23Z","duration":"PT22M","thumbnail":"https://i.ytimg.com/vi/6K-LYgKtGDk/mqdefault.jpg","viewCount":"780","playlistId":"PLEkQk5xrP-tnmTYsyW6xNdyfhPq0Bhrhj","playlistName":"مقرأة الفجر - القُرْآنُ الكَرِيمُ - خَتْمَةُ التَّدَبُّرِ  أ.د. يسري جبر","category":"متنوع"},{"id":"CiMArjosH44","title":"شرح صحيح البخاري كتاب التعبير من باب ١٢","publishedAt":"2018-12-24T21:47:34Z","duration":"PT39M46S","thumbnail":"https://i.ytimg.com/vi/CiMArjosH44/mqdefault.jpg","viewCount":"513","playlistId":"PLEkQk5xrP-tlEerGoLa1AFy-2XvQ-sovv","playlistName":"شرح صحيح البخاري - أ.د. يسري جبر (كاملا)","category":"حديث"},{"id":"TWoR4q4nn6o","title":"المراقبة   أ.د. يسري جبر","publishedAt":"2018-12-24T19:24:39Z","duration":"PT33M16S","thumbnail":"https://i.ytimg.com/vi/TWoR4q4nn6o/mqdefault.jpg","viewCount":"1291","playlistId":"PLEkQk5xrP-tlArtGpeLWaqNM7h7IDeAVC","playlistName":"خطب الجمعة أ.د. يسري جبر","category":"خطب"},{"id":"bTQ-XyeRY44","title":"مقرأة سورة الدخان من آية ٢٨","publishedAt":"2018-12-24T10:12:49Z","duration":"PT9M19S","thumbnail":"https://i.ytimg.com/vi/bTQ-XyeRY44/mqdefault.jpg","viewCount":"359","playlistId":"PLEkQk5xrP-tnmTYsyW6xNdyfhPq0Bhrhj","playlistName":"مقرأة الفجر - القُرْآنُ الكَرِيمُ - خَتْمَةُ التَّدَبُّرِ  أ.د. يسري جبر","category":"متنوع"},{"id":"RES1DPc0rKA","title":"شرح صحيح البخاري كتاب التعبير من باب ٩","publishedAt":"2018-12-23T19:52:41Z","duration":"PT42M48S","thumbnail":"https://i.ytimg.com/vi/RES1DPc0rKA/mqdefault.jpg","viewCount":"588","playlistId":"PLEkQk5xrP-tlEerGoLa1AFy-2XvQ-sovv","playlistName":"شرح صحيح البخاري - أ.د. يسري جبر (كاملا)","category":"حديث"},{"id":"ze2jjrdP-6s","title":"الرسالة القشيرية المجلس الواحد و الأربعون - باب المجاهدة  أ.د. يسري جبر","publishedAt":"2018-12-23T17:08:14Z","duration":"PT42M48S","thumbnail":"https://i.ytimg.com/vi/ze2jjrdP-6s/mqdefault.jpg","viewCount":"8674","playlistId":"PLEkQk5xrP-tkHAGOwIKr4pc5ehhyQ5HMJ","playlistName":"كتاب الرسالة القشيرية (تصوف) - د. يسري جبر","category":"تصوف"},{"id":"1w45NDXJO4g","title":"مقرأة سورة الدخان من آية ١٧","publishedAt":"2018-12-23T11:55:33Z","duration":"PT17M29S","thumbnail":"https://i.ytimg.com/vi/1w45NDXJO4g/mqdefault.jpg","viewCount":"406","playlistId":"PLEkQk5xrP-tnmTYsyW6xNdyfhPq0Bhrhj","playlistName":"مقرأة الفجر - القُرْآنُ الكَرِيمُ - خَتْمَةُ التَّدَبُّرِ  أ.د. يسري جبر","category":"متنوع"}],"total":7670,"page":43,"pageSize":24,"totalPages":320}