{"items":[{"id":"oMT9ovPmLQk","title":"متى يكون الصيام حراماً ؟ | اعرف نبيك في رمضان","publishedAt":"2016-06-28T19:50:14Z","duration":"PT7M14S","thumbnail":"https://i.ytimg.com/vi/oMT9ovPmLQk/mqdefault.jpg","viewCount":"666","playlistId":"PLEkQk5xrP-tmhJ_gpAAFyOpEsHp0_VAJ-","playlistName":"برنامج اعرف نبيك في رمضان","category":"متنوع"},{"id":"6QCznoYLIbE","title":"الأدوية وأثرها في الصوم | اعرف نبيك في رمضان","publishedAt":"2016-06-23T21:12:05Z","duration":"PT8M8S","thumbnail":"https://i.ytimg.com/vi/6QCznoYLIbE/mqdefault.jpg","viewCount":"433","playlistId":"PLEkQk5xrP-tmhJ_gpAAFyOpEsHp0_VAJ-","playlistName":"برنامج اعرف نبيك في رمضان","category":"متنوع"},{"id":"m8IJ6bW7gMw","title":"( 119 ) حديث الإفك وبراءة السيدة عائشة أم المؤمنين منه - المجلس الثاني","publishedAt":"2016-06-23T14:44:52Z","duration":"PT31M1S","thumbnail":"https://i.ytimg.com/vi/m8IJ6bW7gMw/mqdefault.jpg","viewCount":"334","playlistId":"PLEkQk5xrP-tnl7vb7KeAoPd5ZlqKKW8KV","playlistName":"شرح كتاب بهجة النفوس أ.د . يسرى جبر","category":"متنوع"},{"id":"Z8k_Ro0ENWQ","title":"شروط الصيام مع د. يسري جبر | اعرف نبيك في رمضان","publishedAt":"2016-06-22T20:19:40Z","duration":"PT10M47S","thumbnail":"https://i.ytimg.com/vi/Z8k_Ro0ENWQ/mqdefault.jpg","viewCount":"569","playlistId":"PLEkQk5xrP-tmhJ_gpAAFyOpEsHp0_VAJ-","playlistName":"برنامج اعرف نبيك في رمضان","category":"متنوع"},{"id":"sETJKUDWDwU","title":"523- فعل المطاوعة - شرح البرهان في علوم القرآن","publishedAt":"2022-06-07T05:00:15Z","duration":"PT39M52S","thumbnail":"https://i.ytimg.com/vi/sETJKUDWDwU/mqdefault.jpg","viewCount":"871","playlistId":"PLEkQk5xrP-tnW3iBL7HkKziOFCFZbTlf0","playlistName":"شرح البرهان في علوم القرآن - أ.د. يسري جبر","category":"تفسير"},{"id":"k8e0ahrCd10","title":"ربنا نجاني من الموت بفضل حزب البحر!","publishedAt":"2022-06-06T19:09:26Z","duration":"PT9M41S","thumbnail":"https://i.ytimg.com/vi/k8e0ahrCd10/mqdefault.jpg","viewCount":"22738","playlistId":"PLEkQk5xrP-tm8ZIu74nTOZN9KJUJu416J","playlistName":"مقاطع مُهمَّة (يُسريَّات) أ.د. يسري جبر","category":"متنوع"},{"id":"ZadwHDkSY1M","title":"262- وُجوبُ طاعةِ وُلاة الأمور في غير معصيةٍ - شرح دليل الفالحين","publishedAt":"2022-06-06T05:00:21Z","duration":"PT52M55S","thumbnail":"https://i.ytimg.com/vi/ZadwHDkSY1M/mqdefault.jpg","viewCount":"1342","playlistId":"PLEkQk5xrP-tkc9DXvSLguqX5-FYp6ASR4","playlistName":"دليل الفالحين لطرق رياض الصالحين","category":"متنوع"},{"id":"L1r9Y-Cdpks","title":"522- حَسِبَ - كَادَ: ما الفرقُ بينهما؟ - شرح البرهان في علوم القرآن","publishedAt":"2022-06-05T05:00:07Z","duration":"PT31M46S","thumbnail":"https://i.ytimg.com/vi/L1r9Y-Cdpks/mqdefault.jpg","viewCount":"2611","playlistId":"PLEkQk5xrP-tnW3iBL7HkKziOFCFZbTlf0","playlistName":"شرح البرهان في علوم القرآن - أ.د. يسري جبر","category":"تفسير"},{"id":"k79Xmot4NoY","title":"بعد الطلاق,, كيف تتعامل مع أولادك؟","publishedAt":"2022-06-04T19:00:16Z","duration":"PT9M35S","thumbnail":"https://i.ytimg.com/vi/k79Xmot4NoY/mqdefault.jpg","viewCount":"3750","playlistId":"PLEkQk5xrP-tkGXuZ9atE3k_7it12rUPTs","playlistName":"أسئلة المتابعين","category":"متنوع"},{"id":"dLhuQLb2vns","title":"261- الوالي العادل - شرح دليل الفالحين","publishedAt":"2022-06-04T05:15:00Z","duration":"PT37M9S","thumbnail":"https://i.ytimg.com/vi/dLhuQLb2vns/mqdefault.jpg","viewCount":"1136","playlistId":"PLEkQk5xrP-tkc9DXvSLguqX5-FYp6ASR4","playlistName":"دليل الفالحين لطرق رياض الصالحين","category":"متنوع"},{"id":"gnpZk3tIsmE","title":"رسالة إلى كل شاتم ومعترض!","publishedAt":"2022-06-03T19:06:15Z","duration":"PT16M11S","thumbnail":"https://i.ytimg.com/vi/gnpZk3tIsmE/mqdefault.jpg","viewCount":"16322","playlistId":"PLEkQk5xrP-tm8ZIu74nTOZN9KJUJu416J","playlistName":"مقاطع مُهمَّة (يُسريَّات) أ.د. يسري جبر","category":"متنوع"},{"id":"T3XoeuahtC4","title":"521- قوله تعالى \"إِنَّا جَعَلْنَٰهُ قُرْءَٰنًا عَرَبِيًّا\" - شرح البرهان في علوم القرآن","publishedAt":"2022-06-03T05:00:17Z","duration":"PT30M7S","thumbnail":"https://i.ytimg.com/vi/T3XoeuahtC4/mqdefault.jpg","viewCount":"947","playlistId":"PLEkQk5xrP-tnW3iBL7HkKziOFCFZbTlf0","playlistName":"شرح البرهان في علوم القرآن - أ.د. يسري جبر","category":"تفسير"},{"id":"kDaf1MBH_oQ","title":"ما هو سر زيادة الرزق؟","publishedAt":"2022-06-02T18:29:57Z","duration":"PT8M30S","thumbnail":"https://i.ytimg.com/vi/kDaf1MBH_oQ/mqdefault.jpg","viewCount":"29842","playlistId":"PLEkQk5xrP-tm8ZIu74nTOZN9KJUJu416J","playlistName":"مقاطع مُهمَّة (يُسريَّات) أ.د. يسري جبر","category":"متنوع"},{"id":"12fpvY9C46E","title":"260- كُلُّكُمْ رَاعٍ وكُلُّكُمْ مَسْؤُولٌ عن رَعِيَّتِهِ - شرح دليل الفالحين","publishedAt":"2022-06-02T05:00:00Z","duration":"PT59M4S","thumbnail":"https://i.ytimg.com/vi/12fpvY9C46E/mqdefault.jpg","viewCount":"1486","playlistId":"PLEkQk5xrP-tkc9DXvSLguqX5-FYp6ASR4","playlistName":"دليل الفالحين لطرق رياض الصالحين","category":"متنوع"},{"id":"S_8o2l2t2_g","title":"شرح سنن الدارمي كتاب السير من أوله","publishedAt":"2019-08-28T17:08:13Z","duration":"PT29M36S","thumbnail":"https://i.ytimg.com/vi/S_8o2l2t2_g/mqdefault.jpg","viewCount":"405","playlistId":"PLEkQk5xrP-tmAg-FuWjY057X_h5NmGmAa","playlistName":"شرح سنن الدارمي - أ.د. يسري جبر (كاملا)","category":"متنوع"},{"id":"C_zbpISEPZc","title":"شرح البرهان في علوم القرآن - النوع ٢ - تتمة أنواع ارتباط الآي بعضها ببعض","publishedAt":"2019-08-28T09:36:24Z","duration":"PT25M37S","thumbnail":"https://i.ytimg.com/vi/C_zbpISEPZc/mqdefault.jpg","viewCount":"1930","playlistId":"PLEkQk5xrP-tnW3iBL7HkKziOFCFZbTlf0","playlistName":"شرح البرهان في علوم القرآن - أ.د. يسري جبر","category":"تفسير"},{"id":"jmVdmPB7M8Q","title":"شرح سنن الدارمي كتاب الجهاد من باب ٣٤","publishedAt":"2019-08-27T22:26:42Z","duration":"PT21M6S","thumbnail":"https://i.ytimg.com/vi/jmVdmPB7M8Q/mqdefault.jpg","viewCount":"272","playlistId":"PLEkQk5xrP-tmAg-FuWjY057X_h5NmGmAa","playlistName":"شرح سنن الدارمي - أ.د. يسري جبر (كاملا)","category":"متنوع"},{"id":"7ieWuZN8pMg","title":"شرح البرهان في علوم القرآن - النوع ٢ - تكملة أنواع ارتباط الآي بعضها ببعض","publishedAt":"2019-08-27T16:27:42Z","duration":"PT31M18S","thumbnail":"https://i.ytimg.com/vi/7ieWuZN8pMg/mqdefault.jpg","viewCount":"2092","playlistId":"PLEkQk5xrP-tnW3iBL7HkKziOFCFZbTlf0","playlistName":"شرح البرهان في علوم القرآن - أ.د. يسري جبر","category":"تفسير"},{"id":"CTent5MJL00","title":"عَقِيدَةُ السَّلَف أ.د. يسري جبر","publishedAt":"2019-08-26T16:23:36Z","duration":"PT43M32S","thumbnail":"https://i.ytimg.com/vi/CTent5MJL00/mqdefault.jpg","viewCount":"3241","playlistId":"PLEkQk5xrP-tlArtGpeLWaqNM7h7IDeAVC","playlistName":"خطب الجمعة أ.د. يسري جبر","category":"خطب"},{"id":"whevjXwhZvA","title":"شرح سنن الدارمي كتاب الجهاد من باب ٢٣","publishedAt":"2019-08-26T16:23:03Z","duration":"PT15M30S","thumbnail":"https://i.ytimg.com/vi/whevjXwhZvA/mqdefault.jpg","viewCount":"280","playlistId":"PLEkQk5xrP-tmAg-FuWjY057X_h5NmGmAa","playlistName":"شرح سنن الدارمي - أ.د. يسري جبر (كاملا)","category":"متنوع"},{"id":"joU3ciSZR9g","title":"شرح البرهان في علوم القرآن - النوع ٢ - أنواع ارتباط الآي بعضها ببعض","publishedAt":"2019-08-26T10:19:44Z","duration":"PT29M58S","thumbnail":"https://i.ytimg.com/vi/joU3ciSZR9g/mqdefault.jpg","viewCount":"2556","playlistId":"PLEkQk5xrP-tnW3iBL7HkKziOFCFZbTlf0","playlistName":"شرح البرهان في علوم القرآن - أ.د. يسري جبر","category":"تفسير"},{"id":"wQR5wMpnCwo","title":"شرح سنن الدارمي كتاب الجهاد من باب ١١","publishedAt":"2019-08-25T18:14:39Z","duration":"PT20M7S","thumbnail":"https://i.ytimg.com/vi/wQR5wMpnCwo/mqdefault.jpg","viewCount":"330","playlistId":"PLEkQk5xrP-tmAg-FuWjY057X_h5NmGmAa","playlistName":"شرح سنن الدارمي - أ.د. يسري جبر (كاملا)","category":"متنوع"},{"id":"uTW3b3QLU30","title":"شرح البرهان في علوم القرآن - النوع ٢ - معرفة المناسبات بين الآيات","publishedAt":"2019-08-25T08:53:35Z","duration":"PT33M34S","thumbnail":"https://i.ytimg.com/vi/uTW3b3QLU30/mqdefault.jpg","viewCount":"3319","playlistId":"PLEkQk5xrP-tnW3iBL7HkKziOFCFZbTlf0","playlistName":"شرح البرهان في علوم القرآن - أ.د. يسري جبر","category":"تفسير"},{"id":"VuVENK1Bfko","title":"شرح سنن الدارمي كتاب الجهاد من أوله","publishedAt":"2019-08-24T16:52:55Z","duration":"PT16M47S","thumbnail":"https://i.ytimg.com/vi/VuVENK1Bfko/mqdefault.jpg","viewCount":"367","playlistId":"PLEkQk5xrP-tmAg-FuWjY057X_h5NmGmAa","playlistName":"شرح سنن الدارمي - أ.د. يسري جبر (كاملا)","category":"متنوع"}],"total":7670,"page":27,"pageSize":24,"totalPages":320}