{"items":[{"id":"b_N96Tzhcl8","title":"سورة الذاريات من آية ٣٨","publishedAt":"2019-02-06T13:17:39Z","duration":"PT19M11S","thumbnail":"https://i.ytimg.com/vi/b_N96Tzhcl8/mqdefault.jpg","viewCount":"512","playlistId":"PLEkQk5xrP-tnmTYsyW6xNdyfhPq0Bhrhj","playlistName":"مقرأة الفجر - القُرْآنُ الكَرِيمُ - خَتْمَةُ التَّدَبُّرِ  أ.د. يسري جبر","category":"متنوع"},{"id":"SiLsew9_3sk","title":"شرح صحيح البخاري كتاب التوحيد من باب ٢٤","publishedAt":"2019-02-05T22:06:37Z","duration":"PT48M41S","thumbnail":"https://i.ytimg.com/vi/SiLsew9_3sk/mqdefault.jpg","viewCount":"641","playlistId":"PLEkQk5xrP-tlEerGoLa1AFy-2XvQ-sovv","playlistName":"شرح صحيح البخاري - أ.د. يسري جبر (كاملا)","category":"حديث"},{"id":"qEqNXJ_iSBM","title":"مقرأة سورة الذاريات من آية ٢٤","publishedAt":"2019-02-05T11:20:42Z","duration":"PT21M47S","thumbnail":"https://i.ytimg.com/vi/qEqNXJ_iSBM/mqdefault.jpg","viewCount":"442","playlistId":"PLEkQk5xrP-tnmTYsyW6xNdyfhPq0Bhrhj","playlistName":"مقرأة الفجر - القُرْآنُ الكَرِيمُ - خَتْمَةُ التَّدَبُّرِ  أ.د. يسري جبر","category":"متنوع"},{"id":"9SxNws9tyvE","title":"شرح صحيح البخاري كتاب التوحيد من باب ٢٠","publishedAt":"2019-02-04T21:04:14Z","duration":"PT39M35S","thumbnail":"https://i.ytimg.com/vi/9SxNws9tyvE/mqdefault.jpg","viewCount":"550","playlistId":"PLEkQk5xrP-tlEerGoLa1AFy-2XvQ-sovv","playlistName":"شرح صحيح البخاري - أ.د. يسري جبر (كاملا)","category":"حديث"},{"id":"g3Ji0Lwlnws","title":"رُؤْيَةُ الله في الآخِرَةِ -    أ.د. يسري جبر","publishedAt":"2019-02-04T14:31:38Z","duration":"PT43M54S","thumbnail":"https://i.ytimg.com/vi/g3Ji0Lwlnws/mqdefault.jpg","viewCount":"3473","playlistId":"PLEkQk5xrP-tlArtGpeLWaqNM7h7IDeAVC","playlistName":"خطب الجمعة أ.د. يسري جبر","category":"خطب"},{"id":"CEEvX9I312Q","title":"مقرأة سورة الذاريات من آية ١٥","publishedAt":"2019-02-04T11:21:08Z","duration":"PT10M35S","thumbnail":"https://i.ytimg.com/vi/CEEvX9I312Q/mqdefault.jpg","viewCount":"456","playlistId":"PLEkQk5xrP-tnmTYsyW6xNdyfhPq0Bhrhj","playlistName":"مقرأة الفجر - القُرْآنُ الكَرِيمُ - خَتْمَةُ التَّدَبُّرِ  أ.د. يسري جبر","category":"متنوع"},{"id":"dgZiY6i-Inw","title":"شرح صحيح البخاري كتاب التوحيد من باب ١٧","publishedAt":"2019-02-04T00:34:18Z","duration":"PT30M4S","thumbnail":"https://i.ytimg.com/vi/dgZiY6i-Inw/mqdefault.jpg","viewCount":"491","playlistId":"PLEkQk5xrP-tlEerGoLa1AFy-2XvQ-sovv","playlistName":"شرح صحيح البخاري - أ.د. يسري جبر (كاملا)","category":"حديث"},{"id":"lD42HbToNwY","title":"مقرأة سورة الذاريات من أولها","publishedAt":"2019-02-03T12:27:53Z","duration":"PT14M58S","thumbnail":"https://i.ytimg.com/vi/lD42HbToNwY/mqdefault.jpg","viewCount":"574","playlistId":"PLEkQk5xrP-tnmTYsyW6xNdyfhPq0Bhrhj","playlistName":"مقرأة الفجر - القُرْآنُ الكَرِيمُ - خَتْمَةُ التَّدَبُّرِ  أ.د. يسري جبر","category":"متنوع"},{"id":"bdGIZTTEQXs","title":"شرح صحيح البخاري كتاب التوحيد من باب ١٣","publishedAt":"2019-02-02T21:34:05Z","duration":"PT31M6S","thumbnail":"https://i.ytimg.com/vi/bdGIZTTEQXs/mqdefault.jpg","viewCount":"613","playlistId":"PLEkQk5xrP-tlEerGoLa1AFy-2XvQ-sovv","playlistName":"شرح صحيح البخاري - أ.د. يسري جبر (كاملا)","category":"حديث"},{"id":"sr11rBEIrrQ","title":"مقرأة سورة ق من آية ٣٨","publishedAt":"2019-02-02T14:33:45Z","duration":"PT12M51S","thumbnail":"https://i.ytimg.com/vi/sr11rBEIrrQ/mqdefault.jpg","viewCount":"256","playlistId":"PLEkQk5xrP-tnmTYsyW6xNdyfhPq0Bhrhj","playlistName":"مقرأة الفجر - القُرْآنُ الكَرِيمُ - خَتْمَةُ التَّدَبُّرِ  أ.د. يسري جبر","category":"متنوع"},{"id":"Q9DfXCqScn8","title":"الرسالة القشيرية - المجلس السابع والأربعون - باب الزهد - أ.د. يسري جبر","publishedAt":"2019-02-02T14:23:37Z","duration":"PT49M24S","thumbnail":"https://i.ytimg.com/vi/Q9DfXCqScn8/mqdefault.jpg","viewCount":"5199","playlistId":"PLEkQk5xrP-tkHAGOwIKr4pc5ehhyQ5HMJ","playlistName":"كتاب الرسالة القشيرية (تصوف) - د. يسري جبر","category":"تصوف"},{"id":"3ehU_5_-Dck","title":"شرح صحيح البخاري كتاب التوحيد من باب ٧","publishedAt":"2019-02-01T22:46:42Z","duration":"PT33M32S","thumbnail":"https://i.ytimg.com/vi/3ehU_5_-Dck/mqdefault.jpg","viewCount":"704","playlistId":"PLEkQk5xrP-tlEerGoLa1AFy-2XvQ-sovv","playlistName":"شرح صحيح البخاري - أ.د. يسري جبر (كاملا)","category":"حديث"},{"id":"JsDsOFRmeLQ","title":"مقرأة سورة ق من آية ٢٧","publishedAt":"2019-02-01T16:29:00Z","duration":"PT13M46S","thumbnail":"https://i.ytimg.com/vi/JsDsOFRmeLQ/mqdefault.jpg","viewCount":"385","playlistId":"PLEkQk5xrP-tnmTYsyW6xNdyfhPq0Bhrhj","playlistName":"مقرأة الفجر - القُرْآنُ الكَرِيمُ - خَتْمَةُ التَّدَبُّرِ  أ.د. يسري جبر","category":"متنوع"},{"id":"mMgWOLUcW38","title":"شرح صحيح البخاري كتاب التوحيد من أوله","publishedAt":"2019-01-31T22:04:03Z","duration":"PT32M28S","thumbnail":"https://i.ytimg.com/vi/mMgWOLUcW38/mqdefault.jpg","viewCount":"1043","playlistId":"PLEkQk5xrP-tlEerGoLa1AFy-2XvQ-sovv","playlistName":"شرح صحيح البخاري - أ.د. يسري جبر (كاملا)","category":"حديث"},{"id":"ZjD3NuRycZE","title":"مقرأة سورة ق من آية ١٢","publishedAt":"2019-01-31T11:08:32Z","duration":"PT12M8S","thumbnail":"https://i.ytimg.com/vi/ZjD3NuRycZE/mqdefault.jpg","viewCount":"580","playlistId":"PLEkQk5xrP-tnmTYsyW6xNdyfhPq0Bhrhj","playlistName":"مقرأة الفجر - القُرْآنُ الكَرِيمُ - خَتْمَةُ التَّدَبُّرِ  أ.د. يسري جبر","category":"متنوع"},{"id":"bvjgkIR-iWw","title":"شرح صحيح البخاري كتاب الإعتصام بالكتاب والسنة من باب 26","publishedAt":"2019-01-30T21:34:29Z","duration":"PT36M5S","thumbnail":"https://i.ytimg.com/vi/bvjgkIR-iWw/mqdefault.jpg","viewCount":"466","playlistId":"PLEkQk5xrP-tlEerGoLa1AFy-2XvQ-sovv","playlistName":"شرح صحيح البخاري - أ.د. يسري جبر (كاملا)","category":"حديث"},{"id":"0X999sBycdg","title":"مقرأة سورة ق من أولها","publishedAt":"2019-01-30T12:02:28Z","duration":"PT15M6S","thumbnail":"https://i.ytimg.com/vi/0X999sBycdg/mqdefault.jpg","viewCount":"585","playlistId":"PLEkQk5xrP-tnmTYsyW6xNdyfhPq0Bhrhj","playlistName":"مقرأة الفجر - القُرْآنُ الكَرِيمُ - خَتْمَةُ التَّدَبُّرِ  أ.د. يسري جبر","category":"متنوع"},{"id":"8MJqX8fPofs","title":"شرح صحيح البخاري كتاب الإعتصام بالكتاب والسنة من باب ٢٥","publishedAt":"2019-01-29T17:09:57Z","duration":"PT35M16S","thumbnail":"https://i.ytimg.com/vi/8MJqX8fPofs/mqdefault.jpg","viewCount":"361","playlistId":"PLEkQk5xrP-tlEerGoLa1AFy-2XvQ-sovv","playlistName":"شرح صحيح البخاري - أ.د. يسري جبر (كاملا)","category":"حديث"},{"id":"5HVPVJs--OM","title":"الرسالة القشيرية المجلس السادس والأربعون - باب الورع - أ.د. يسري جبر","publishedAt":"2019-01-29T07:21:46Z","duration":"PT1H11M52S","thumbnail":"https://i.ytimg.com/vi/5HVPVJs--OM/mqdefault.jpg","viewCount":"6110","playlistId":"PLEkQk5xrP-tkHAGOwIKr4pc5ehhyQ5HMJ","playlistName":"كتاب الرسالة القشيرية (تصوف) - د. يسري جبر","category":"تصوف"},{"id":"-oK1LdYvAKQ","title":"مقرأة سورة الحجرات من آية ١٣","publishedAt":"2019-01-28T23:12:30Z","duration":"PT21M59S","thumbnail":"https://i.ytimg.com/vi/-oK1LdYvAKQ/mqdefault.jpg","viewCount":"560","playlistId":"PLEkQk5xrP-tnmTYsyW6xNdyfhPq0Bhrhj","playlistName":"مقرأة الفجر - القُرْآنُ الكَرِيمُ - خَتْمَةُ التَّدَبُّرِ  أ.د. يسري جبر","category":"متنوع"},{"id":"AhRFB00yJew","title":"ختام شرح كتاب نور اليقين في سيرة سيد المرسلين للشيخ الخضري رحمه الله (المجلس75) أ.د. يسري جبر","publishedAt":"2019-01-28T19:19:22Z","duration":"PT46M24S","thumbnail":"https://i.ytimg.com/vi/AhRFB00yJew/mqdefault.jpg","viewCount":"7967","playlistId":"PLEkQk5xrP-tl2t4NQx1IhKnAJCMzF0Nli","playlistName":"شرح كتاب نور اليقين في سيرة سيد المرسلين   د. يسري جبر","category":"سيرة"},{"id":"957Hx8iZwys","title":"شرح صحيح البخاري كتاب الإعتصام بالكتاب والسنة من باب ١٨","publishedAt":"2019-01-28T10:30:15Z","duration":"PT28M8S","thumbnail":"https://i.ytimg.com/vi/957Hx8iZwys/mqdefault.jpg","viewCount":"334","playlistId":"PLEkQk5xrP-tlEerGoLa1AFy-2XvQ-sovv","playlistName":"شرح صحيح البخاري - أ.د. يسري جبر (كاملا)","category":"حديث"},{"id":"CkSrOYu1eQA","title":"مقرأة سورة الحجرات من آية ١١","publishedAt":"2019-01-27T22:15:58Z","duration":"PT25M21S","thumbnail":"https://i.ytimg.com/vi/CkSrOYu1eQA/mqdefault.jpg","viewCount":"469","playlistId":"PLEkQk5xrP-tnmTYsyW6xNdyfhPq0Bhrhj","playlistName":"مقرأة الفجر - القُرْآنُ الكَرِيمُ - خَتْمَةُ التَّدَبُّرِ  أ.د. يسري جبر","category":"متنوع"},{"id":"2rLVN0kvkao","title":"الوَفَاءُ بِالعَهْدِ.   أ.د. يسري جبر","publishedAt":"2019-01-27T18:37:05Z","duration":"PT35M29S","thumbnail":"https://i.ytimg.com/vi/2rLVN0kvkao/mqdefault.jpg","viewCount":"451","playlistId":"PLEkQk5xrP-tlArtGpeLWaqNM7h7IDeAVC","playlistName":"خطب الجمعة أ.د. يسري جبر","category":"خطب"}],"total":7675,"page":189,"pageSize":24,"totalPages":320}