{"items":[{"id":"mIBJpIVfB5Y","title":"18- تفسير ما أصابك من حسنة فمن الله وما أصابك من سيئة فمن نفسك | شرح مختصر الفتوحات المكية","publishedAt":"2024-05-20T17:00:33Z","duration":"PT50M18S","thumbnail":"https://i.ytimg.com/vi/mIBJpIVfB5Y/mqdefault.jpg","viewCount":"10765","playlistId":"PLEkQk5xrP-tnpkdZki6rPTtMak1bnI5g-","playlistName":"شرح كتاب مختصر الفتوحات المكية المسمى لواقح الأنوار القدسية","category":"متنوع"},{"id":"CiLHa_7Eosk","title":"مفاتيح علو الهمة عند المسلم | دمشق, سوريا","publishedAt":"2024-05-19T18:00:06Z","duration":"PT58M59S","thumbnail":"https://i.ytimg.com/vi/CiLHa_7Eosk/mqdefault.jpg","viewCount":"25009","playlistId":"PLEkQk5xrP-tmJzNvLntpzW0uPanPzxA0c","playlistName":"لقاءات ومحاضرات","category":"متنوع"},{"id":"-BMP4SshhR8","title":"106- حكم العمل على الأرض ببعض ما يخرج منها - شرح مسند الإمام أحمد رضي الله تعالى عنه","publishedAt":"2024-05-19T06:18:40Z","duration":"PT30M27S","thumbnail":"https://i.ytimg.com/vi/-BMP4SshhR8/mqdefault.jpg","viewCount":"893","playlistId":"PLEkQk5xrP-tkKprIuGrSdEuBSMsyg5We1","playlistName":"شرح مسند الإمام أحمد بن حنبل","category":"متنوع"},{"id":"ht9Jmcu6Mx0","title":"236- الإيجاز والإطناب - شرح الإتقان في علوم القرآن","publishedAt":"2024-05-19T05:00:31Z","duration":"PT31M42S","thumbnail":"https://i.ytimg.com/vi/ht9Jmcu6Mx0/mqdefault.jpg","viewCount":"626","playlistId":"PLEkQk5xrP-tlPw10KGJKagu7zm4Ry2Tge","playlistName":"شرح الإتقان في علوم القرآن","category":"تفسير"},{"id":"-960iickIkk","title":"551- حروف المعاني(12) حرف (إن) المُخَفَّفَة من الثقيلة - شرح البرهان في علوم القرآن","publishedAt":"2022-08-28T05:45:00Z","duration":"PT32M14S","thumbnail":"https://i.ytimg.com/vi/-960iickIkk/mqdefault.jpg","viewCount":"557","playlistId":"PLEkQk5xrP-tnW3iBL7HkKziOFCFZbTlf0","playlistName":"شرح البرهان في علوم القرآن - أ.د. يسري جبر","category":"تفسير"},{"id":"QAy9qvNTUvo","title":"291- استحباب القميص - شرح دليل الفالحين","publishedAt":"2022-08-27T18:15:03Z","duration":"PT52M41S","thumbnail":"https://i.ytimg.com/vi/QAy9qvNTUvo/mqdefault.jpg","viewCount":"1082","playlistId":"PLEkQk5xrP-tkc9DXvSLguqX5-FYp6ASR4","playlistName":"دليل الفالحين لطرق رياض الصالحين","category":"متنوع"},{"id":"CwlXDnkxlVI","title":"610- قوله تعالى\"تَعْرُجُ الْمَلائِكَةُ وَالرُّوحُ إِلَيْهِ\" - كتاب التوحيد - شرح صحيح الإمام البخاري","publishedAt":"2022-08-27T05:45:00Z","duration":"PT46M39S","thumbnail":"https://i.ytimg.com/vi/CwlXDnkxlVI/mqdefault.jpg","viewCount":"2230","playlistId":"PLEkQk5xrP-tmJuzaj4GWRenFoFx9gdbFX","playlistName":"شرح كتاب صحيح الإمام البخاري رضي الله تعالى عنه   أ.د. يسرى جبر","category":"حديث"},{"id":"fCnOyDMTc2A","title":"شرح منازل السائرين - المجلس (5) باب التوبة ۲ | أ.د. يسري جبر","publishedAt":"2022-08-26T20:46:28Z","duration":"PT53M33S","thumbnail":"https://i.ytimg.com/vi/fCnOyDMTc2A/mqdefault.jpg","viewCount":"14011","playlistId":"PLEkQk5xrP-tmiUfQ-2Tsn7QIak4EsvaZW","playlistName":"كتاب التيسير المعين بشرح معاني منازل السائرين (تصوف) - د.يسري جبر","category":"تصوف"},{"id":"tMsWjMdX3K0","title":"هل يمكن الجمع بين الطب والعلم الشرعي والتصوف؟","publishedAt":"2022-08-26T06:15:02Z","duration":"PT1H32M23S","thumbnail":"https://i.ytimg.com/vi/tMsWjMdX3K0/mqdefault.jpg","viewCount":"9422","playlistId":"PLEkQk5xrP-tm8ZIu74nTOZN9KJUJu416J","playlistName":"مقاطع مُهمَّة (يُسريَّات) أ.د. يسري جبر","category":"متنوع"},{"id":"QefZZTur1Uo","title":"ما معنى قراءة الفاتحة لسيدنا محمد ﷺ؟","publishedAt":"2022-08-25T18:00:15Z","duration":"PT10M17S","thumbnail":"https://i.ytimg.com/vi/QefZZTur1Uo/mqdefault.jpg","viewCount":"7344","playlistId":"PLEkQk5xrP-tkGXuZ9atE3k_7it12rUPTs","playlistName":"أسئلة المتابعين","category":"متنوع"},{"id":"gCEVL-BiWqI","title":"550- حروف المعاني(11) حرف (إن) - شرح البرهان في علوم القرآن","publishedAt":"2022-08-25T06:15:03Z","duration":"PT29M7S","thumbnail":"https://i.ytimg.com/vi/gCEVL-BiWqI/mqdefault.jpg","viewCount":"610","playlistId":"PLEkQk5xrP-tnW3iBL7HkKziOFCFZbTlf0","playlistName":"شرح البرهان في علوم القرآن - أ.د. يسري جبر","category":"تفسير"},{"id":"Q8-ZA8otpfU","title":"20- معنى (صلاةً) كاملةً (تليقُ بك) من حيث أُلُوهِيَّتُكَ، صادرةً (منك) من حيث رُبُوبِيَّتُك","publishedAt":"2022-08-24T20:55:01Z","duration":"PT12M17S","thumbnail":"https://i.ytimg.com/vi/Q8-ZA8otpfU/mqdefault.jpg","viewCount":"2199","playlistId":"PLEkQk5xrP-tkFEtMu56Xb9U9FCZBTXiLf","playlistName":"شرح صلوات الأولياء على خاتم الأنبياء ﷺ","category":"صلوات"},{"id":"Zhw4TePuyDc","title":"290- حكم لبس العمامة السوداء - شرح دليل الفالحين","publishedAt":"2022-08-24T05:30:10Z","duration":"PT34M3S","thumbnail":"https://i.ytimg.com/vi/Zhw4TePuyDc/mqdefault.jpg","viewCount":"1224","playlistId":"PLEkQk5xrP-tkc9DXvSLguqX5-FYp6ASR4","playlistName":"دليل الفالحين لطرق رياض الصالحين","category":"متنوع"},{"id":"nKf2aqOkBRc","title":"19- معنى المَلَكُوتِ و الجَبَرُوتِ","publishedAt":"2022-08-23T06:35:00Z","duration":"PT20M8S","thumbnail":"https://i.ytimg.com/vi/nKf2aqOkBRc/mqdefault.jpg","viewCount":"7014","playlistId":"PLEkQk5xrP-tkFEtMu56Xb9U9FCZBTXiLf","playlistName":"شرح صلوات الأولياء على خاتم الأنبياء ﷺ","category":"صلوات"},{"id":"daDa1kza1Hw","title":"549- حرف العطف (أو) (2)- شرح البرهان في علوم القرآن","publishedAt":"2022-08-22T21:17:00Z","duration":"PT18M45S","thumbnail":"https://i.ytimg.com/vi/daDa1kza1Hw/mqdefault.jpg","viewCount":"444","playlistId":"PLEkQk5xrP-tnW3iBL7HkKziOFCFZbTlf0","playlistName":"شرح البرهان في علوم القرآن - أ.د. يسري جبر","category":"تفسير"},{"id":"uuWdq0KhMg4","title":"47- حكم أداء العمرة في شوال قبل الحج","publishedAt":"2022-08-22T05:35:00Z","duration":"PT1H8M2S","thumbnail":"https://i.ytimg.com/vi/uuWdq0KhMg4/mqdefault.jpg","viewCount":"1274","playlistId":"PLEkQk5xrP-tlDtaqY0qhNXAiZ19gaGzKI","playlistName":"شرح مسند الإمام محمد بن إدريس الشافعيّ رضي الله تعالى عنه","category":"فقه"},{"id":"xNgj6HkDHo8","title":"كيف أنظم وقتي؟","publishedAt":"2022-08-21T18:00:30Z","duration":"PT8M48S","thumbnail":"https://i.ytimg.com/vi/xNgj6HkDHo8/mqdefault.jpg","viewCount":"22628","playlistId":"PLEkQk5xrP-tkGXuZ9atE3k_7it12rUPTs","playlistName":"أسئلة المتابعين","category":"متنوع"},{"id":"NwP9QeElMAA","title":"289- استحباب الثوب الأبيض وجواز الأخضر والأحمر والأصفر والأسود - شرح دليل الفالحين","publishedAt":"2022-08-21T05:30:05Z","duration":"PT35M46S","thumbnail":"https://i.ytimg.com/vi/NwP9QeElMAA/mqdefault.jpg","viewCount":"1019","playlistId":"PLEkQk5xrP-tkc9DXvSLguqX5-FYp6ASR4","playlistName":"دليل الفالحين لطرق رياض الصالحين","category":"متنوع"},{"id":"2pK89mNneqk","title":"26- هل تقبيل الزوجة ينقض الوضوء؟","publishedAt":"2023-12-23T09:30:02Z","duration":"PT33M32S","thumbnail":"https://i.ytimg.com/vi/2pK89mNneqk/mqdefault.jpg","viewCount":"1154","playlistId":"PLEkQk5xrP-tk_MCBZ706ORCw6gFtFyaGj","playlistName":"شرح سنن الإمام الدارقطني","category":"متنوع"},{"id":"hK2e3Vn1p5M","title":"56- صِفةُ خَلْقِ النَّبيّ ﷺ وأنَّه كان أحسَنَ النَّاسِ خَلْقًا - شرح مسند الإمام أحمد","publishedAt":"2023-12-23T06:15:01Z","duration":"PT29M35S","thumbnail":"https://i.ytimg.com/vi/hK2e3Vn1p5M/mqdefault.jpg","viewCount":"1158","playlistId":"PLEkQk5xrP-tkKprIuGrSdEuBSMsyg5We1","playlistName":"شرح مسند الإمام أحمد بن حنبل","category":"متنوع"},{"id":"FS656j9jHDM","title":"تفسير الآيات القرآنية الواردة في حق النَّبيّ ﷺ","publishedAt":"2023-12-22T17:29:34Z","duration":"PT32M30S","thumbnail":"https://i.ytimg.com/vi/FS656j9jHDM/mqdefault.jpg","viewCount":"6126","playlistId":"PLEkQk5xrP-tm8ZIu74nTOZN9KJUJu416J","playlistName":"مقاطع مُهمَّة (يُسريَّات) أ.د. يسري جبر","category":"متنوع"},{"id":"I3UK0WUMOYo","title":"187- قاعدة في الإفراد والجمع - شرح الإتقان في علوم القرآن","publishedAt":"2023-12-22T06:30:10Z","duration":"PT42M19S","thumbnail":"https://i.ytimg.com/vi/I3UK0WUMOYo/mqdefault.jpg","viewCount":"499","playlistId":"PLEkQk5xrP-tlPw10KGJKagu7zm4Ry2Tge","playlistName":"شرح الإتقان في علوم القرآن","category":"تفسير"},{"id":"vZxPkKkQUvU","title":"شرح منازل السائرين - المجلس (31) باب التهذيب | أ.د. يسري جبر","publishedAt":"2023-12-21T18:00:34Z","duration":"PT58M56S","thumbnail":"https://i.ytimg.com/vi/vZxPkKkQUvU/mqdefault.jpg","viewCount":"4953","playlistId":"PLEkQk5xrP-tmiUfQ-2Tsn7QIak4EsvaZW","playlistName":"كتاب التيسير المعين بشرح معاني منازل السائرين (تصوف) - د.يسري جبر","category":"تصوف"},{"id":"MV0A7hyCuwg","title":"55- ألَا أُخبِرُكم بخَيرِ هذه الأُمَّةِ بعدَ نَبيِّهَا؟ - شرح مسند الإمام أحمد","publishedAt":"2023-12-21T07:13:57Z","duration":"PT26M17S","thumbnail":"https://i.ytimg.com/vi/MV0A7hyCuwg/mqdefault.jpg","viewCount":"1115","playlistId":"PLEkQk5xrP-tkKprIuGrSdEuBSMsyg5We1","playlistName":"شرح مسند الإمام أحمد بن حنبل","category":"متنوع"}],"total":7670,"page":228,"pageSize":24,"totalPages":320}