{"items":[{"id":"FXhXyhsnpKg","title":"Ø´Ø±Ø­ Ø³Ù†Ù† Ø§Ù„Ø¯Ø§Ø±Ù…ÙŠ ÙƒØªØ§Ø¨ Ø§Ù„Ø¨ÙŠÙˆØ¹ Ù…Ù† Ø¨Ø§Ø¨ Ù¤Ù¦","publishedAt":"2019-09-15T04:52:53Z","duration":"PT19M13S","thumbnail":"https://i.ytimg.com/vi/FXhXyhsnpKg/mqdefault.jpg","viewCount":"240","playlistId":"PLEkQk5xrP-tmAg-FuWjY057X_h5NmGmAa","playlistName":"Ø´Ø±Ø­ Ø³Ù†Ù† Ø§Ù„Ø¯Ø§Ø±Ù…ÙŠ - Ø£.Ø¯. ÙŠØ³Ø±ÙŠ Ø¬Ø¨Ø± (ÙƒØ§Ù…Ù„Ø§)","category":"Ù…ØªÙ†ÙˆØ¹"},{"id":"4pCB164dK-w","title":"Ø´Ø±Ø­ Ø§Ù„Ø¨Ø±Ù‡Ø§Ù† ÙÙŠ Ø¹Ù„ÙˆÙ… Ø§Ù„Ù‚Ø±Ø¢Ù† - Ø§Ù„Ù†ÙˆØ¹ Ù¥ - Ø¹Ù„Ù… Ø§Ù„Ù…ØªØ´Ø§Ø¨Ù‡ Ù£","publishedAt":"2019-09-14T18:35:32Z","duration":"PT23M29S","thumbnail":"https://i.ytimg.com/vi/4pCB164dK-w/mqdefault.jpg","viewCount":"873","playlistId":"PLEkQk5xrP-tnW3iBL7HkKziOFCFZbTlf0","playlistName":"Ø´Ø±Ø­ Ø§Ù„Ø¨Ø±Ù‡Ø§Ù† ÙÙŠ Ø¹Ù„ÙˆÙ… Ø§Ù„Ù‚Ø±Ø¢Ù† - Ø£.Ø¯. ÙŠØ³Ø±ÙŠ Ø¬Ø¨Ø±","category":"ØªÙØ³ÙŠØ±"},{"id":"omDcJX0_NEw","title":"ğŸ”´ Majelis Sama' Hadits Shahih Bukhari - PP Progresif Bumi Shalawat (Senin, 3 Februari 2025 | Sesi 1)","publishedAt":"2025-02-03T06:01:11Z","duration":"PT4H22M22S","thumbnail":"https://i.ytimg.com/vi/omDcJX0_NEw/mqdefault.jpg","viewCount":"2771","playlistId":"PLEkQk5xrP-tkKcTKLIthzWrdXY7QaOjh_","playlistName":"Ù‚Ø±Ø§Ø¡Ø© ØµØ­ÙŠØ­ Ø§Ù„Ø¨Ø®Ø§Ø±ÙŠ ÙƒØ§Ù…Ù„Ø§Ù‹ ÙÙŠ Ø¥Ù†Ø¯ÙˆÙ†ÙŠØ³ÙŠØ§","category":"Ø­Ø¯ÙŠØ«"},{"id":"6dxI6Frav1o","title":"ğŸ”´ Majelis Sama' Hadits Shahih Bukhari - PP. Progresif Bumi Shalawat (Ahad, 2 Februari 2025 | Sesi 2)","publishedAt":"2025-02-02T23:20:19Z","duration":"PT2H12M20S","thumbnail":"https://i.ytimg.com/vi/6dxI6Frav1o/mqdefault.jpg","viewCount":"2906","playlistId":"PLEkQk5xrP-tkKcTKLIthzWrdXY7QaOjh_","playlistName":"Ù‚Ø±Ø§Ø¡Ø© ØµØ­ÙŠØ­ Ø§Ù„Ø¨Ø®Ø§Ø±ÙŠ ÙƒØ§Ù…Ù„Ø§Ù‹ ÙÙŠ Ø¥Ù†Ø¯ÙˆÙ†ÙŠØ³ÙŠØ§","category":"Ø­Ø¯ÙŠØ«"},{"id":"86hLlqUpA0U","title":"Ù…ØªÙ‰ ÙŠÙƒÙˆÙ† Ø§Ù„ÙƒØ°Ø¨ Ù…Ø¨Ø§Ø­Ù‹Ø§ ÙÙŠ Ø§Ù„Ø¥Ø³Ù„Ø§Ù…ØŸ","publishedAt":"2025-02-02T19:40:16Z","duration":"PT12M44S","thumbnail":"https://i.ytimg.com/vi/86hLlqUpA0U/mqdefault.jpg","viewCount":"3563","playlistId":"PLEkQk5xrP-tkGXuZ9atE3k_7it12rUPTs","playlistName":"Ø£Ø³Ø¦Ù„Ø© Ø§Ù„Ù…ØªØ§Ø¨Ø¹ÙŠÙ†","category":"Ù…ØªÙ†ÙˆØ¹"},{"id":"oFvUMRrXjBQ","title":"ğŸ”´ Majelis Sama' Hadits Shahih Bukhari - PP. Progresif Bumi Shalawat (Ahad, 2 Februari 2025 | Sesi 3)","publishedAt":"2025-02-02T17:38:43Z","duration":"PT4H15M6S","thumbnail":"https://i.ytimg.com/vi/oFvUMRrXjBQ/mqdefault.jpg","viewCount":"3109","playlistId":"PLEkQk5xrP-tkKcTKLIthzWrdXY7QaOjh_","playlistName":"Ù‚Ø±Ø§Ø¡Ø© ØµØ­ÙŠØ­ Ø§Ù„Ø¨Ø®Ø§Ø±ÙŠ ÙƒØ§Ù…Ù„Ø§Ù‹ ÙÙŠ Ø¥Ù†Ø¯ÙˆÙ†ÙŠØ³ÙŠØ§","category":"Ø­Ø¯ÙŠØ«"},{"id":"1RHHAaOdjpg","title":"ğŸ”´ Majelis Sama' Hadits Shahih Bukhari - PP. Progresif Bumi Shalawat (Ahad, 2 Februari 2025 | Sesi 1)","publishedAt":"2025-02-02T16:52:55Z","duration":"PT3H7M59S","thumbnail":"https://i.ytimg.com/vi/1RHHAaOdjpg/mqdefault.jpg","viewCount":"2970","playlistId":"PLEkQk5xrP-tkKcTKLIthzWrdXY7QaOjh_","playlistName":"Ù‚Ø±Ø§Ø¡Ø© ØµØ­ÙŠØ­ Ø§Ù„Ø¨Ø®Ø§Ø±ÙŠ ÙƒØ§Ù…Ù„Ø§Ù‹ ÙÙŠ Ø¥Ù†Ø¯ÙˆÙ†ÙŠØ³ÙŠØ§","category":"Ø­Ø¯ÙŠØ«"},{"id":"3Inm9eA45Sk","title":"ğŸ”´ Majelis Sama' Hadits Shahih Bukhari - PP Progresif Bumi Shalawat (Sabtu, 1 Februari 2025 | Sesi 3)","publishedAt":"2025-02-02T05:02:21Z","duration":"PT3H39M47S","thumbnail":"https://i.ytimg.com/vi/3Inm9eA45Sk/mqdefault.jpg","viewCount":"3539","playlistId":"PLEkQk5xrP-tkKcTKLIthzWrdXY7QaOjh_","playlistName":"Ù‚Ø±Ø§Ø¡Ø© ØµØ­ÙŠØ­ Ø§Ù„Ø¨Ø®Ø§Ø±ÙŠ ÙƒØ§Ù…Ù„Ø§Ù‹ ÙÙŠ Ø¥Ù†Ø¯ÙˆÙ†ÙŠØ³ÙŠØ§","category":"Ø­Ø¯ÙŠØ«"},{"id":"yS38eQ0mfD4","title":"ğŸ”´ Majelis Sama' Hadits Shahih Bukhari - PP Progresif Bumi Shalawat (Sabtu, 1 Februari 2025 | Sesi 2)","publishedAt":"2025-02-01T23:34:44Z","duration":"PT2H12M25S","thumbnail":"https://i.ytimg.com/vi/yS38eQ0mfD4/mqdefault.jpg","viewCount":"3164","playlistId":"PLEkQk5xrP-tkKcTKLIthzWrdXY7QaOjh_","playlistName":"Ù‚Ø±Ø§Ø¡Ø© ØµØ­ÙŠØ­ Ø§Ù„Ø¨Ø®Ø§Ø±ÙŠ ÙƒØ§Ù…Ù„Ø§Ù‹ ÙÙŠ Ø¥Ù†Ø¯ÙˆÙ†ÙŠØ³ÙŠØ§","category":"Ø­Ø¯ÙŠØ«"},{"id":"Th4sS-y7FfY","title":"Ù„Ø§ Ø£Ø´Ø¹Ø± Ø¨Ø§Ù„Ø³Ø¹Ø§Ø¯Ø© Ø¥Ù„Ø§ Ø¹Ù†Ø¯ Ø°ÙƒØ± Ø§Ù„Ù„Ù‡ ÙˆÙ‚Ø±Ø§Ø¡Ø© Ø§Ù„Ø£ÙˆØ±Ø§Ø¯ ,, ÙÙ…Ø§Ø°Ø§ Ø£ÙØ¹Ù„ØŸ","publishedAt":"2025-02-01T19:30:34Z","duration":"PT11M51S","thumbnail":"https://i.ytimg.com/vi/Th4sS-y7FfY/mqdefault.jpg","viewCount":"6998","playlistId":"PLEkQk5xrP-tkGXuZ9atE3k_7it12rUPTs","playlistName":"Ø£Ø³Ø¦Ù„Ø© Ø§Ù„Ù…ØªØ§Ø¨Ø¹ÙŠÙ†","category":"Ù…ØªÙ†ÙˆØ¹"},{"id":"ryp5JB8yfo8","title":"ğŸ”´ Pembukaan Majelis Sama' Hadits Shahih Bukhari 2025 | Pesantren Progresif Bumi Shalawat","publishedAt":"2025-02-01T17:36:32Z","duration":"PT2H33M39S","thumbnail":"https://i.ytimg.com/vi/ryp5JB8yfo8/mqdefault.jpg","viewCount":"10200","playlistId":"PLEkQk5xrP-tkKcTKLIthzWrdXY7QaOjh_","playlistName":"Ù‚Ø±Ø§Ø¡Ø© ØµØ­ÙŠØ­ Ø§Ù„Ø¨Ø®Ø§Ø±ÙŠ ÙƒØ§Ù…Ù„Ø§Ù‹ ÙÙŠ Ø¥Ù†Ø¯ÙˆÙ†ÙŠØ³ÙŠØ§","category":"Ø­Ø¯ÙŠØ«"},{"id":"a4TaYKig-Mc","title":"Ø§Ù„Ø£Ø¹Ù…Ø§Ù„ Ø§Ù„Ù…Ø³ØªØ­Ø¨Ø© ÙÙŠ Ø´Ù‡Ø± Ø´Ø¹Ø¨Ø§Ù†","publishedAt":"2025-01-31T19:45:13Z","duration":"PT9M33S","thumbnail":"https://i.ytimg.com/vi/a4TaYKig-Mc/mqdefault.jpg","viewCount":"5733","playlistId":"PLEkQk5xrP-tlArtGpeLWaqNM7h7IDeAVC","playlistName":"Ø®Ø·Ø¨ Ø§Ù„Ø¬Ù…Ø¹Ø© Ø£.Ø¯. ÙŠØ³Ø±ÙŠ Ø¬Ø¨Ø±","category":"Ø®Ø·Ø¨"},{"id":"7DfwHf7fgyk","title":"Ù…Ø§ Ù‡ÙŠ Ø£ÙØ¶Ù„ Ø§Ù„Ø£Ø¹Ù…Ø§Ù„ ÙÙŠ Ø´Ù‡Ø± Ø´Ø¹Ø¨Ø§Ù†ØŸ","publishedAt":"2025-01-30T19:32:57Z","duration":"PT17M42S","thumbnail":"https://i.ytimg.com/vi/7DfwHf7fgyk/mqdefault.jpg","viewCount":"24403","playlistId":"PLEkQk5xrP-tlArtGpeLWaqNM7h7IDeAVC","playlistName":"Ø®Ø·Ø¨ Ø§Ù„Ø¬Ù…Ø¹Ø© Ø£.Ø¯. ÙŠØ³Ø±ÙŠ Ø¬Ø¨Ø±","category":"Ø®Ø·Ø¨"},{"id":"BbnoLqLPJVs","title":"ÙƒÙŠÙ ØªØªØ®Ù„Øµ Ù…Ù† Ø³ÙˆØ¡ Ø§Ù„Ø¸Ù† Ø¨Ø§Ù„Ù†Ø§Ø³ØŸ","publishedAt":"2025-01-29T19:25:09Z","duration":"PT18M56S","thumbnail":"https://i.ytimg.com/vi/BbnoLqLPJVs/mqdefault.jpg","viewCount":"3420","playlistId":"PLEkQk5xrP-tlArtGpeLWaqNM7h7IDeAVC","playlistName":"Ø®Ø·Ø¨ Ø§Ù„Ø¬Ù…Ø¹Ø© Ø£.Ø¯. ÙŠØ³Ø±ÙŠ Ø¬Ø¨Ø±","category":"Ø®Ø·Ø¨"},{"id":"5IRFj0US_p8","title":"Ø´Ø±Ø­ ÙƒØªØ§Ø¨ Ø§Ù„Ø²Ù‡Ø¯ Ù…Ù† Ø³Ù†Ù† Ø§Ù„ØªØ±Ù…Ø°ÙŠ - Ø§Ù„Ù…Ø¬Ù„Ø³ Ø§Ù„Ø±Ø§Ø¨Ø¹ Ø¹Ø´Ø±","publishedAt":"2016-01-15T10:18:22Z","duration":"PT39M33S","thumbnail":"https://i.ytimg.com/vi/5IRFj0US_p8/mqdefault.jpg","viewCount":"151","playlistId":"PLEkQk5xrP-tnu6of679SvxdVx0qSrJzmb","playlistName":"Ø´Ø±Ø­ Ø³Ù†Ù† Ø§Ù„Ø¥Ù…Ø§Ù… Ø§Ù„ØªØ±Ù…Ø°ÙŠ Ø±Ø¶Ù‰ Ø§Ù„Ù„Ù‡ Ø¹Ù†Ù‡ Ø¯. ÙŠØ³Ø±ÙŠ Ø¬Ø¨Ø±","category":"Ù…ØªÙ†ÙˆØ¹"},{"id":"xkp_ySkWilM","title":"Ù‚Ø±Ø§Ø¡Ø© Ø§Ù„Ù‚Ø±Ø¢Ù† (Ù…Ù† Ø¢ÙŠØ© Ù¡Ù¤ Ø³ÙˆØ±Ø© Ø§Ù„Ù…Ø¬Ø§Ø¯Ù„Ø©)","publishedAt":"2016-01-15T07:34:50Z","duration":"PT21M25S","thumbnail":"https://i.ytimg.com/vi/xkp_ySkWilM/mqdefault.jpg","viewCount":"92","playlistId":"PLEkQk5xrP-tnUSUj0uyJhA-kwNC7Gkx_j","playlistName":"Ù…Ù‚Ø±Ø£Ø© Ø§Ù„ÙØ¬Ø± - Ø¨Ø¯Ø§ÙŠØ© Ù…Ù† Ø³ÙˆØ±Ø© Ø§Ù„Ø¥Ø³Ø±Ø§Ø¡ Ø­ØªÙ‰ Ø³ÙˆØ±Ø© Ø§Ù„Ù†Ø§Ø³","category":"ØªÙØ³ÙŠØ±"},{"id":"URh0tY6CMsw","title":"Ø´Ø±Ø­ ÙƒØªØ§Ø¨ Ø§Ù„Ø²Ù‡Ø¯ Ù…Ù† Ø³Ù†Ù† Ø§Ù„ØªØ±Ù…Ø°ÙŠ - Ø§Ù„Ù…Ø¬Ù„Ø³ Ø§Ù„Ø«Ø§Ù„Ø« Ø¹Ø´Ø±","publishedAt":"2016-01-15T06:48:02Z","duration":"PT38M51S","thumbnail":"https://i.ytimg.com/vi/URh0tY6CMsw/mqdefault.jpg","viewCount":"152","playlistId":"PLEkQk5xrP-tnu6of679SvxdVx0qSrJzmb","playlistName":"Ø´Ø±Ø­ Ø³Ù†Ù† Ø§Ù„Ø¥Ù…Ø§Ù… Ø§Ù„ØªØ±Ù…Ø°ÙŠ Ø±Ø¶Ù‰ Ø§Ù„Ù„Ù‡ Ø¹Ù†Ù‡ Ø¯. ÙŠØ³Ø±ÙŠ Ø¬Ø¨Ø±","category":"Ù…ØªÙ†ÙˆØ¹"},{"id":"9U7EBDL0LB8","title":"Ù‚Ø±Ø§Ø¡Ø© Ø§Ù„Ù‚Ø±Ø¢Ù† (Ù…Ù† Ø¢ÙŠØ© Ù§ Ø³ÙˆØ±Ø© Ø§Ù„Ù…Ø¬Ø§Ø¯Ù„Ø©)","publishedAt":"2016-01-14T10:46:56Z","duration":"PT14M38S","thumbnail":"https://i.ytimg.com/vi/9U7EBDL0LB8/mqdefault.jpg","viewCount":"99","playlistId":"PLEkQk5xrP-tnUSUj0uyJhA-kwNC7Gkx_j","playlistName":"Ù…Ù‚Ø±Ø£Ø© Ø§Ù„ÙØ¬Ø± - Ø¨Ø¯Ø§ÙŠØ© Ù…Ù† Ø³ÙˆØ±Ø© Ø§Ù„Ø¥Ø³Ø±Ø§Ø¡ Ø­ØªÙ‰ Ø³ÙˆØ±Ø© Ø§Ù„Ù†Ø§Ø³","category":"ØªÙØ³ÙŠØ±"},{"id":"griYpzN-KcU","title":"Ø´Ø±Ø­ ÙƒØªØ§Ø¨ Ø§Ù„Ø²Ù‡Ø¯ Ù…Ù† Ø³Ù†Ù† Ø§Ù„ØªØ±Ù…Ø°ÙŠ - Ø§Ù„Ù…Ø¬Ù„Ø³ Ø§Ù„Ø«Ø§Ù†ÙŠ Ø¹Ø´Ø±","publishedAt":"2016-01-14T10:12:07Z","duration":"PT44M58S","thumbnail":"https://i.ytimg.com/vi/griYpzN-KcU/mqdefault.jpg","viewCount":"152","playlistId":"PLEkQk5xrP-tnu6of679SvxdVx0qSrJzmb","playlistName":"Ø´Ø±Ø­ Ø³Ù†Ù† Ø§Ù„Ø¥Ù…Ø§Ù… Ø§Ù„ØªØ±Ù…Ø°ÙŠ Ø±Ø¶Ù‰ Ø§Ù„Ù„Ù‡ Ø¹Ù†Ù‡ Ø¯. ÙŠØ³Ø±ÙŠ Ø¬Ø¨Ø±","category":"Ù…ØªÙ†ÙˆØ¹"},{"id":"r_VeippPn3E","title":"Ù‚Ø±Ø§Ø¡Ø© Ø§Ù„Ù‚Ø±Ø¢Ù† (Ù…Ù† Ø£ÙˆÙ„ Ø³ÙˆØ±Ø© Ø§Ù„Ù…Ø¬Ø§Ø¯Ù„Ø©)","publishedAt":"2016-01-14T08:46:46Z","duration":"PT17M38S","thumbnail":"https://i.ytimg.com/vi/r_VeippPn3E/mqdefault.jpg","viewCount":"131","playlistId":"PLEkQk5xrP-tnUSUj0uyJhA-kwNC7Gkx_j","playlistName":"Ù…Ù‚Ø±Ø£Ø© Ø§Ù„ÙØ¬Ø± - Ø¨Ø¯Ø§ÙŠØ© Ù…Ù† Ø³ÙˆØ±Ø© Ø§Ù„Ø¥Ø³Ø±Ø§Ø¡ Ø­ØªÙ‰ Ø³ÙˆØ±Ø© Ø§Ù„Ù†Ø§Ø³","category":"ØªÙØ³ÙŠØ±"},{"id":"plRzLaBX58s","title":"Ø´Ø±Ø­ ÙƒØªØ§Ø¨ Ø§Ù„Ø²Ù‡Ø¯ Ù…Ù† Ø³Ù†Ù† Ø§Ù„ØªØ±Ù…Ø°ÙŠ - Ø§Ù„Ù…Ø¬Ù„Ø³ Ø§Ù„Ø­Ø§Ø¯ÙŠ Ø¹Ø´Ø±","publishedAt":"2016-01-14T08:19:22Z","duration":"PT35M43S","thumbnail":"https://i.ytimg.com/vi/plRzLaBX58s/mqdefault.jpg","viewCount":"135","playlistId":"PLEkQk5xrP-tnu6of679SvxdVx0qSrJzmb","playlistName":"Ø´Ø±Ø­ Ø³Ù†Ù† Ø§Ù„Ø¥Ù…Ø§Ù… Ø§Ù„ØªØ±Ù…Ø°ÙŠ Ø±Ø¶Ù‰ Ø§Ù„Ù„Ù‡ Ø¹Ù†Ù‡ Ø¯. ÙŠØ³Ø±ÙŠ Ø¬Ø¨Ø±","category":"Ù…ØªÙ†ÙˆØ¹"},{"id":"pnh-rsuBe8k","title":"Ù‚Ø±Ø§Ø¡Ø© Ø§Ù„Ù‚Ø±Ø¢Ù† (Ù…Ù† Ø¢ÙŠØ© Ù¢Ù¢ Ø³ÙˆØ±Ø© Ø§Ù„Ø­Ø¯ÙŠØ¯)","publishedAt":"2016-01-14T07:08:44Z","duration":"PT19M4S","thumbnail":"https://i.ytimg.com/vi/pnh-rsuBe8k/mqdefault.jpg","viewCount":"108","playlistId":"PLEkQk5xrP-tnUSUj0uyJhA-kwNC7Gkx_j","playlistName":"Ù…Ù‚Ø±Ø£Ø© Ø§Ù„ÙØ¬Ø± - Ø¨Ø¯Ø§ÙŠØ© Ù…Ù† Ø³ÙˆØ±Ø© Ø§Ù„Ø¥Ø³Ø±Ø§Ø¡ Ø­ØªÙ‰ Ø³ÙˆØ±Ø© Ø§Ù„Ù†Ø§Ø³","category":"ØªÙØ³ÙŠØ±"},{"id":"eUuQ9YwQuAg","title":"Ø´Ø±Ø­ ÙƒØªØ§Ø¨ Ø§Ù„Ø²Ù‡Ø¯ Ù…Ù† Ø³Ù†Ù† Ø§Ù„ØªØ±Ù…Ø°ÙŠ - Ø§Ù„Ù…Ø¬Ù„Ø³ Ø§Ù„Ø¹Ø§Ø´Ø±","publishedAt":"2016-01-13T06:12:48Z","duration":"PT40M36S","thumbnail":"https://i.ytimg.com/vi/eUuQ9YwQuAg/mqdefault.jpg","viewCount":"165","playlistId":"PLEkQk5xrP-tnu6of679SvxdVx0qSrJzmb","playlistName":"Ø´Ø±Ø­ Ø³Ù†Ù† Ø§Ù„Ø¥Ù…Ø§Ù… Ø§Ù„ØªØ±Ù…Ø°ÙŠ Ø±Ø¶Ù‰ Ø§Ù„Ù„Ù‡ Ø¹Ù†Ù‡ Ø¯. ÙŠØ³Ø±ÙŠ Ø¬Ø¨Ø±","category":"Ù…ØªÙ†ÙˆØ¹"},{"id":"I_cG2XTMH-c","title":"Ù‚Ø±Ø§Ø¡Ø© Ø§Ù„Ù‚Ø±Ø¢Ù† (Ù…Ù† Ø¢ÙŠØ© Ù¡Ù¦ Ø³ÙˆØ±Ø© Ø§Ù„Ø­Ø¯ÙŠØ¯)","publishedAt":"2016-01-13T04:26:56Z","duration":"PT16M9S","thumbnail":"https://i.ytimg.com/vi/I_cG2XTMH-c/mqdefault.jpg","viewCount":"102","playlistId":"PLEkQk5xrP-tnUSUj0uyJhA-kwNC7Gkx_j","playlistName":"Ù…Ù‚Ø±Ø£Ø© Ø§Ù„ÙØ¬Ø± - Ø¨Ø¯Ø§ÙŠØ© Ù…Ù† Ø³ÙˆØ±Ø© Ø§Ù„Ø¥Ø³Ø±Ø§Ø¡ Ø­ØªÙ‰ Ø³ÙˆØ±Ø© Ø§Ù„Ù†Ø§Ø³","category":"ØªÙØ³ÙŠØ±"}],"total":7670,"page":233,"pageSize":24,"totalPages":320}