{"items":[{"id":"DRSvdDSVgcQ","title":"كم كان عمر النبي صلى الله عليه وسلم | اعرف نبيك","publishedAt":"2015-10-07T17:06:58Z","duration":"PT6M19S","thumbnail":"https://i.ytimg.com/vi/DRSvdDSVgcQ/mqdefault.jpg","viewCount":"70056","playlistId":"PLEkQk5xrP-tl6Mu_Mz3QMUSv5T6XBH-Dg","playlistName":"برنامج اعرف نبيك","category":"متنوع"},{"id":"QusDjxVTmH4","title":"فضل الحمد لله على قلة الرزق | اعرف نبيك","publishedAt":"2015-10-07T17:06:58Z","duration":"PT7M23S","thumbnail":"https://i.ytimg.com/vi/QusDjxVTmH4/mqdefault.jpg","viewCount":"2435","playlistId":"PLEkQk5xrP-tl6Mu_Mz3QMUSv5T6XBH-Dg","playlistName":"برنامج اعرف نبيك","category":"متنوع"},{"id":"cJ-sP-aa_Gw","title":"كيف عاش النبي ثلاثون يوما بدون طعام | اعرف نبيك","publishedAt":"2015-10-07T17:06:57Z","duration":"PT5M8S","thumbnail":"https://i.ytimg.com/vi/cJ-sP-aa_Gw/mqdefault.jpg","viewCount":"1110","playlistId":"PLEkQk5xrP-tl6Mu_Mz3QMUSv5T6XBH-Dg","playlistName":"برنامج اعرف نبيك","category":"متنوع"},{"id":"D-sAkohRgo8","title":"( 96 ) حدِيثُ النَهْىِ عَنِ التَصوِيِرِ","publishedAt":"2015-10-06T17:44:04Z","duration":"PT35M28S","thumbnail":"https://i.ytimg.com/vi/D-sAkohRgo8/mqdefault.jpg","viewCount":"419","playlistId":"PLEkQk5xrP-tnl7vb7KeAoPd5ZlqKKW8KV","playlistName":"شرح كتاب بهجة النفوس أ.د . يسرى جبر","category":"متنوع"},{"id":"5e-v1yHxsUI","title":"( 95) حدِيثُ َجَوازِ أخْذِ الزوجَةِ ما يَكْفِيهَا ِمنْ مَالِ زَوجِهَا إِذَا كَانَ شَحِيحًا","publishedAt":"2015-10-05T22:34:54Z","duration":"PT33M1S","thumbnail":"https://i.ytimg.com/vi/5e-v1yHxsUI/mqdefault.jpg","viewCount":"310","playlistId":"PLEkQk5xrP-tnl7vb7KeAoPd5ZlqKKW8KV","playlistName":"شرح كتاب بهجة النفوس أ.د . يسرى جبر","category":"متنوع"},{"id":"GMiP-k3Adeg","title":"( 94 ) حدِيثُ البَيِّعَانِ بِالخِيَارِ مَا لَمْ يَتَفَرَّقَا","publishedAt":"2015-10-04T20:28:01Z","duration":"PT47M11S","thumbnail":"https://i.ytimg.com/vi/GMiP-k3Adeg/mqdefault.jpg","viewCount":"418","playlistId":"PLEkQk5xrP-tnl7vb7KeAoPd5ZlqKKW8KV","playlistName":"شرح كتاب بهجة النفوس أ.د . يسرى جبر","category":"متنوع"},{"id":"iOcBCD6W2PM","title":"( 93 ) حدِيثُ الحَثِّ عَلَى العَمَلِ وَفَضْلِ عَمَلِ اليَدِ - المجلس الثالث","publishedAt":"2015-10-03T18:16:33Z","duration":"PT34M53S","thumbnail":"https://i.ytimg.com/vi/iOcBCD6W2PM/mqdefault.jpg","viewCount":"410","playlistId":"PLEkQk5xrP-tnl7vb7KeAoPd5ZlqKKW8KV","playlistName":"شرح كتاب بهجة النفوس أ.د . يسرى جبر","category":"متنوع"},{"id":"mauoKrkzAOc","title":"( 93 ) حدِيثُ الحَثِّ عَلَى العَمَلِ وَفَضْلِ عَمَلِ اليَدِ - المجلس الثانى","publishedAt":"2015-10-02T20:12:03Z","duration":"PT44M44S","thumbnail":"https://i.ytimg.com/vi/mauoKrkzAOc/mqdefault.jpg","viewCount":"639","playlistId":"PLEkQk5xrP-tnl7vb7KeAoPd5ZlqKKW8KV","playlistName":"شرح كتاب بهجة النفوس أ.د . يسرى جبر","category":"متنوع"},{"id":"F3eMijvyf_Q","title":"( 93 ) حدِيثُ الحَثِّ عَلَى العَمَلِ وَفَضْلِ عَمَلِ اليَدِ  - المجلس الأول","publishedAt":"2015-10-01T19:14:43Z","duration":"PT34M59S","thumbnail":"https://i.ytimg.com/vi/F3eMijvyf_Q/mqdefault.jpg","viewCount":"2372","playlistId":"PLEkQk5xrP-tnl7vb7KeAoPd5ZlqKKW8KV","playlistName":"شرح كتاب بهجة النفوس أ.د . يسرى جبر","category":"متنوع"},{"id":"C5llbKSmr-0","title":"ما معنى اسم النبي محمد (الماحي) | اعرف نبيك","publishedAt":"2015-09-30T16:43:52Z","duration":"PT7M24S","thumbnail":"https://i.ytimg.com/vi/C5llbKSmr-0/mqdefault.jpg","viewCount":"7229","playlistId":"PLEkQk5xrP-tl6Mu_Mz3QMUSv5T6XBH-Dg","playlistName":"برنامج اعرف نبيك","category":"متنوع"},{"id":"pllDAWBOaEw","title":"أسماء سيدنا النبي صلى الله عليه وسلم | اعرف نبيك","publishedAt":"2015-09-30T16:37:45Z","duration":"PT6M36S","thumbnail":"https://i.ytimg.com/vi/pllDAWBOaEw/mqdefault.jpg","viewCount":"10644","playlistId":"PLEkQk5xrP-tl6Mu_Mz3QMUSv5T6XBH-Dg","playlistName":"برنامج اعرف نبيك","category":"متنوع"},{"id":"NQC0IXjyjMU","title":"أسماء النبي المخصوصة و المذكورة في الكتب السماوية | اعرف نبيك","publishedAt":"2015-09-24T15:40:49Z","duration":"PT5M47S","thumbnail":"https://i.ytimg.com/vi/NQC0IXjyjMU/mqdefault.jpg","viewCount":"2282","playlistId":"PLEkQk5xrP-tl6Mu_Mz3QMUSv5T6XBH-Dg","playlistName":"برنامج اعرف نبيك","category":"متنوع"},{"id":"DjznyNwQN0o","title":"يوم عرفة -  د.يسري جبر","publishedAt":"2015-09-22T10:03:00Z","duration":"PT27M48S","thumbnail":"https://i.ytimg.com/vi/DjznyNwQN0o/mqdefault.jpg","viewCount":"1311","playlistId":"PLEkQk5xrP-tlArtGpeLWaqNM7h7IDeAVC","playlistName":"خطب الجمعة أ.د. يسري جبر","category":"خطب"},{"id":"3NrEb_MbMgw","title":"حياء رسول الله | اعرف نبيك","publishedAt":"2015-09-17T15:21:01Z","duration":"PT8M55S","thumbnail":"https://i.ytimg.com/vi/3NrEb_MbMgw/mqdefault.jpg","viewCount":"1491","playlistId":"PLEkQk5xrP-tl6Mu_Mz3QMUSv5T6XBH-Dg","playlistName":"برنامج اعرف نبيك","category":"متنوع"},{"id":"LH9ROs9fdHQ","title":"عطاء رسول الله للناس | اعرف نبيك","publishedAt":"2015-09-17T14:56:48Z","duration":"PT7M30S","thumbnail":"https://i.ytimg.com/vi/LH9ROs9fdHQ/mqdefault.jpg","viewCount":"397","playlistId":"PLEkQk5xrP-tl6Mu_Mz3QMUSv5T6XBH-Dg","playlistName":"برنامج اعرف نبيك","category":"متنوع"},{"id":"LOXm5-5wka8","title":"أخلاق رسول الله في مجالسه | اعرف نبيك","publishedAt":"2015-09-16T16:06:15Z","duration":"PT10M5S","thumbnail":"https://i.ytimg.com/vi/LOXm5-5wka8/mqdefault.jpg","viewCount":"400","playlistId":"PLEkQk5xrP-tl6Mu_Mz3QMUSv5T6XBH-Dg","playlistName":"برنامج اعرف نبيك","category":"متنوع"},{"id":"u5OMLeXpBOM","title":"كان رسول الله في عون الناس  | اعرف نبيك","publishedAt":"2015-09-16T15:57:10Z","duration":"PT8M32S","thumbnail":"https://i.ytimg.com/vi/u5OMLeXpBOM/mqdefault.jpg","viewCount":"217","playlistId":"PLEkQk5xrP-tl6Mu_Mz3QMUSv5T6XBH-Dg","playlistName":"برنامج اعرف نبيك","category":"متنوع"},{"id":"1pf6Ld7AKBE","title":"كان رسول الله دائم البِشر| اعرف نبيك","publishedAt":"2015-09-16T15:43:55Z","duration":"PT6M17S","thumbnail":"https://i.ytimg.com/vi/1pf6Ld7AKBE/mqdefault.jpg","viewCount":"382","playlistId":"PLEkQk5xrP-tl6Mu_Mz3QMUSv5T6XBH-Dg","playlistName":"برنامج اعرف نبيك","category":"متنوع"},{"id":"RRNd0V9MM8w","title":"الاستعداد للعشر الأوائل من ذي الحجة - د. يسري جبر","publishedAt":"2015-09-15T18:42:33Z","duration":"PT32M15S","thumbnail":"https://i.ytimg.com/vi/RRNd0V9MM8w/mqdefault.jpg","viewCount":"1437","playlistId":"PLEkQk5xrP-tlArtGpeLWaqNM7h7IDeAVC","playlistName":"خطب الجمعة أ.د. يسري جبر","category":"خطب"},{"id":"_eQz42acSwM","title":"تعامل النبي مع الأشياء برفق | اعرف نبيك","publishedAt":"2015-09-10T16:13:24Z","duration":"PT6M","thumbnail":"https://i.ytimg.com/vi/_eQz42acSwM/mqdefault.jpg","viewCount":"260","playlistId":"PLEkQk5xrP-tl6Mu_Mz3QMUSv5T6XBH-Dg","playlistName":"برنامج اعرف نبيك","category":"متنوع"},{"id":"r_djy_X8A2E","title":"طريقة نصح رسول الله للناس | اعرف نبيك","publishedAt":"2015-09-09T16:31:17Z","duration":"PT9M50S","thumbnail":"https://i.ytimg.com/vi/r_djy_X8A2E/mqdefault.jpg","viewCount":"640","playlistId":"PLEkQk5xrP-tl6Mu_Mz3QMUSv5T6XBH-Dg","playlistName":"برنامج اعرف نبيك","category":"متنوع"},{"id":"a6ggS5qjRkA","title":"كيف كان رسول الله أحسن الناس خُلقاً | اعرف نبيك","publishedAt":"2015-09-09T16:23:04Z","duration":"PT7M40S","thumbnail":"https://i.ytimg.com/vi/a6ggS5qjRkA/mqdefault.jpg","viewCount":"595","playlistId":"PLEkQk5xrP-tl6Mu_Mz3QMUSv5T6XBH-Dg","playlistName":"برنامج اعرف نبيك","category":"متنوع"},{"id":"kXAGiCfTGq0","title":"خُلق رسول الله صلى الله عليه وسلم | اعرف نبيك","publishedAt":"2015-09-09T16:16:56Z","duration":"PT6M34S","thumbnail":"https://i.ytimg.com/vi/kXAGiCfTGq0/mqdefault.jpg","viewCount":"250","playlistId":"PLEkQk5xrP-tl6Mu_Mz3QMUSv5T6XBH-Dg","playlistName":"برنامج اعرف نبيك","category":"متنوع"},{"id":"rXO8QeAFDLc","title":"شرح كتاب فتح القريب المجيب «فصل صلاة العيدين» د. يسري رشدي جبر","publishedAt":"2015-09-08T23:36:57Z","duration":"PT50M30S","thumbnail":"https://i.ytimg.com/vi/rXO8QeAFDLc/mqdefault.jpg","viewCount":"1160","playlistId":"PLEkQk5xrP-tlyOgfNBZTZgoATzVW4mI20","playlistName":"كتاب فتح القريب المجيب (علم الفقه الشافعي)","category":"فقه"}],"total":7670,"page":138,"pageSize":24,"totalPages":320}