{"items":[{"id":"dp6AbrUDgzo","title":"صلوات اليوم الرابع أ.د. يسري جبر","publishedAt":"2016-03-26T19:21:39Z","duration":"PT16M42S","thumbnail":"https://i.ytimg.com/vi/dp6AbrUDgzo/mqdefault.jpg","viewCount":"7548","playlistId":"PLEkQk5xrP-tmuP5s2o33O9gAOC4ACxsma","playlistName":"صَلَواتُ الأَسْمَاءِ الْحُسْنَى شَرْحُ الصَّلَواتِ الْيُسْرِيَّةِ عَلَى خَيرِ الْبَرِيَّةِ  أ.د. يسرى جبر","category":"متنوع"},{"id":"oLRgNnghg_8","title":"صحيح الإمام البخاري رضي الله تعالى عنه - كتاب العقيقة  د. يسري جبر","publishedAt":"2016-03-21T19:51:56Z","duration":"PT32M43S","thumbnail":"https://i.ytimg.com/vi/oLRgNnghg_8/mqdefault.jpg","viewCount":"198","playlistId":"PLEkQk5xrP-tmJuzaj4GWRenFoFx9gdbFX","playlistName":"شرح كتاب صحيح الإمام البخاري رضي الله تعالى عنه   أ.د. يسرى جبر","category":"حديث"},{"id":"fWben66GGSg","title":"برنامج - عصمة الأنبياء - الحلقة الأولى - مفهوم العصمة - @alerthTV","publishedAt":"2016-03-19T16:17:13Z","duration":"PT23M30S","thumbnail":"https://i.ytimg.com/vi/fWben66GGSg/mqdefault.jpg","viewCount":"9074","playlistId":"PLEkQk5xrP-tnBp9yUT_R2vtqSPOlcyAZe","playlistName":"برنامج - عصمة الأنبياء","category":"متنوع"},{"id":"YrFAIynXGms","title":"صحيح الإمام البخاري رضي الله تعالى عنه - كتاب الأطعمة - المجلس التاسع والأخير","publishedAt":"2016-03-19T11:18:16Z","duration":"PT39M55S","thumbnail":"https://i.ytimg.com/vi/YrFAIynXGms/mqdefault.jpg","viewCount":"125","playlistId":"PLEkQk5xrP-tmJuzaj4GWRenFoFx9gdbFX","playlistName":"شرح كتاب صحيح الإمام البخاري رضي الله تعالى عنه   أ.د. يسرى جبر","category":"حديث"},{"id":"WZ8RgU-fZUM","title":"صحيح الإمام البخاري رضي الله تعالى عنه - كتاب الأطعمة - المجلس الثامن","publishedAt":"2016-03-18T14:20:39Z","duration":"PT1H49S","thumbnail":"https://i.ytimg.com/vi/WZ8RgU-fZUM/mqdefault.jpg","viewCount":"123","playlistId":"PLEkQk5xrP-tmJuzaj4GWRenFoFx9gdbFX","playlistName":"شرح كتاب صحيح الإمام البخاري رضي الله تعالى عنه   أ.د. يسرى جبر","category":"حديث"},{"id":"Izcq5DX-rpY","title":"شرح كتاب الأدب من سنن الترمذي - المجلس العاشر","publishedAt":"2016-03-17T11:13:46Z","duration":"PT44M21S","thumbnail":"https://i.ytimg.com/vi/Izcq5DX-rpY/mqdefault.jpg","viewCount":"113","playlistId":"PLEkQk5xrP-tnu6of679SvxdVx0qSrJzmb","playlistName":"شرح سنن الإمام الترمذي رضى الله عنه د. يسري جبر","category":"متنوع"},{"id":"n7fmobcCccQ","title":"قراءة القرآن (من أول سورة الشمس)","publishedAt":"2016-03-17T08:40:59Z","duration":"PT8M7S","thumbnail":"https://i.ytimg.com/vi/n7fmobcCccQ/mqdefault.jpg","viewCount":"80","playlistId":"PLEkQk5xrP-tnUSUj0uyJhA-kwNC7Gkx_j","playlistName":"مقرأة الفجر - بداية من سورة الإسراء حتى سورة الناس","category":"تفسير"},{"id":"_7dFHKyOUfY","title":"شرح كتاب الأدب من سنن الترمذي - المجلس التاسع","publishedAt":"2016-03-16T11:34:54Z","duration":"PT45M22S","thumbnail":"https://i.ytimg.com/vi/_7dFHKyOUfY/mqdefault.jpg","viewCount":"119","playlistId":"PLEkQk5xrP-tnu6of679SvxdVx0qSrJzmb","playlistName":"شرح سنن الإمام الترمذي رضى الله عنه د. يسري جبر","category":"متنوع"},{"id":"D1opCHa29b8","title":"قراءة القرآن (من أول سورة البلد)","publishedAt":"2016-03-16T11:15:09Z","duration":"PT17M46S","thumbnail":"https://i.ytimg.com/vi/D1opCHa29b8/mqdefault.jpg","viewCount":"101","playlistId":"PLEkQk5xrP-tnUSUj0uyJhA-kwNC7Gkx_j","playlistName":"مقرأة الفجر - بداية من سورة الإسراء حتى سورة الناس","category":"تفسير"},{"id":"mWvkmqav1As","title":"شرح كتاب الأدب من سنن الترمذي - المجلس السابع","publishedAt":"2016-03-16T03:39:56Z","duration":"PT35M49S","thumbnail":"https://i.ytimg.com/vi/mWvkmqav1As/mqdefault.jpg","viewCount":"95","playlistId":"PLEkQk5xrP-tnu6of679SvxdVx0qSrJzmb","playlistName":"شرح سنن الإمام الترمذي رضى الله عنه د. يسري جبر","category":"متنوع"},{"id":"q08VoPOvBXQ","title":"شرح كتاب الأدب من سنن الترمذي - المجلس الثامن","publishedAt":"2016-03-16T03:39:48Z","duration":"PT39M12S","thumbnail":"https://i.ytimg.com/vi/q08VoPOvBXQ/mqdefault.jpg","viewCount":"96","playlistId":"PLEkQk5xrP-tnu6of679SvxdVx0qSrJzmb","playlistName":"شرح سنن الإمام الترمذي رضى الله عنه د. يسري جبر","category":"متنوع"},{"id":"xKN1fwtM360","title":"قراءة القرآن (من أول سورة الفجر)","publishedAt":"2016-03-16T03:39:40Z","duration":"PT35M59S","thumbnail":"https://i.ytimg.com/vi/xKN1fwtM360/mqdefault.jpg","viewCount":"105","playlistId":"PLEkQk5xrP-tnUSUj0uyJhA-kwNC7Gkx_j","playlistName":"مقرأة الفجر - بداية من سورة الإسراء حتى سورة الناس","category":"تفسير"},{"id":"wFUZoty_Tv8","title":"قراءة القرآن (من أول سورة الغاشية)","publishedAt":"2016-03-15T11:39:50Z","duration":"PT21M11S","thumbnail":"https://i.ytimg.com/vi/wFUZoty_Tv8/mqdefault.jpg","viewCount":"78","playlistId":"PLEkQk5xrP-tnUSUj0uyJhA-kwNC7Gkx_j","playlistName":"مقرأة الفجر - بداية من سورة الإسراء حتى سورة الناس","category":"تفسير"},{"id":"ciIRQE7IjT8","title":"شرح كتاب الأدب من سنن الترمذي - المجلس السادس","publishedAt":"2016-03-15T11:04:15Z","duration":"PT35M13S","thumbnail":"https://i.ytimg.com/vi/ciIRQE7IjT8/mqdefault.jpg","viewCount":"158","playlistId":"PLEkQk5xrP-tnu6of679SvxdVx0qSrJzmb","playlistName":"شرح سنن الإمام الترمذي رضى الله عنه د. يسري جبر","category":"متنوع"},{"id":"ESyKPcT-vs8","title":"قراءة القرآن (من أول سورة الأعلى)","publishedAt":"2016-03-15T09:17:55Z","duration":"PT19M23S","thumbnail":"https://i.ytimg.com/vi/ESyKPcT-vs8/mqdefault.jpg","viewCount":"74","playlistId":"PLEkQk5xrP-tnUSUj0uyJhA-kwNC7Gkx_j","playlistName":"مقرأة الفجر - بداية من سورة الإسراء حتى سورة الناس","category":"تفسير"},{"id":"_PXc3XXQ24s","title":"شرح كتاب الأدب من سنن الترمذي - المجلس الخامس","publishedAt":"2016-03-12T11:21:02Z","duration":"PT42M59S","thumbnail":"https://i.ytimg.com/vi/_PXc3XXQ24s/mqdefault.jpg","viewCount":"136","playlistId":"PLEkQk5xrP-tnu6of679SvxdVx0qSrJzmb","playlistName":"شرح سنن الإمام الترمذي رضى الله عنه د. يسري جبر","category":"متنوع"},{"id":"jUw3Ea2Kr54","title":"قراءة القرآن (من أول سورة الطارق)","publishedAt":"2016-03-12T11:19:36Z","duration":"PT16M11S","thumbnail":"https://i.ytimg.com/vi/jUw3Ea2Kr54/mqdefault.jpg","viewCount":"89","playlistId":"PLEkQk5xrP-tnUSUj0uyJhA-kwNC7Gkx_j","playlistName":"مقرأة الفجر - بداية من سورة الإسراء حتى سورة الناس","category":"تفسير"},{"id":"-kpmCoFjUB8","title":"شرح كتاب الأدب من سنن الترمذي - المجلس الرابع","publishedAt":"2016-03-12T11:15:01Z","duration":"PT33M46S","thumbnail":"https://i.ytimg.com/vi/-kpmCoFjUB8/mqdefault.jpg","viewCount":"136","playlistId":"PLEkQk5xrP-tnu6of679SvxdVx0qSrJzmb","playlistName":"شرح سنن الإمام الترمذي رضى الله عنه د. يسري جبر","category":"متنوع"},{"id":"5Oei6jQ_3TE","title":"قراءة القرآن (من أول سورة البروج)","publishedAt":"2016-03-12T11:09:57Z","duration":"PT16M20S","thumbnail":"https://i.ytimg.com/vi/5Oei6jQ_3TE/mqdefault.jpg","viewCount":"79","playlistId":"PLEkQk5xrP-tnUSUj0uyJhA-kwNC7Gkx_j","playlistName":"مقرأة الفجر - بداية من سورة الإسراء حتى سورة الناس","category":"تفسير"},{"id":"KTtL_MbAvPQ","title":"أهمية التعرف على النبي صلى الله عليه وآله وسلم فى السلوك إلى الله  د . يسري جبر","publishedAt":"2016-03-12T07:27:32Z","duration":"PT48M4S","thumbnail":"https://i.ytimg.com/vi/KTtL_MbAvPQ/mqdefault.jpg","viewCount":"4836","playlistId":"PLEkQk5xrP-tlArtGpeLWaqNM7h7IDeAVC","playlistName":"خطب الجمعة أ.د. يسري جبر","category":"خطب"},{"id":"yS8JcMa5gxc","title":"شرح كتاب الأدب من سنن الترمذي - المجلس الثالث","publishedAt":"2016-03-10T13:33:45Z","duration":"PT44M11S","thumbnail":"https://i.ytimg.com/vi/yS8JcMa5gxc/mqdefault.jpg","viewCount":"122","playlistId":"PLEkQk5xrP-tnu6of679SvxdVx0qSrJzmb","playlistName":"شرح سنن الإمام الترمذي رضى الله عنه د. يسري جبر","category":"متنوع"},{"id":"2yWAEXOEnXM","title":"قراءة القرآن (من أول سورة الانشقاق)","publishedAt":"2016-03-10T13:11:55Z","duration":"PT10M52S","thumbnail":"https://i.ytimg.com/vi/2yWAEXOEnXM/mqdefault.jpg","viewCount":"85","playlistId":"PLEkQk5xrP-tnUSUj0uyJhA-kwNC7Gkx_j","playlistName":"مقرأة الفجر - بداية من سورة الإسراء حتى سورة الناس","category":"تفسير"},{"id":"iu0hkM4OH3E","title":"شرح كتاب الأدب من سنن الترمذي - المجلس الثاني","publishedAt":"2016-03-10T13:10:46Z","duration":"PT41M16S","thumbnail":"https://i.ytimg.com/vi/iu0hkM4OH3E/mqdefault.jpg","viewCount":"110","playlistId":"PLEkQk5xrP-tnu6of679SvxdVx0qSrJzmb","playlistName":"شرح سنن الإمام الترمذي رضى الله عنه د. يسري جبر","category":"متنوع"},{"id":"w353xitboB8","title":"قراءة القرآن (من أول سورة المطففين)","publishedAt":"2016-03-10T13:10:01Z","duration":"PT11M58S","thumbnail":"https://i.ytimg.com/vi/w353xitboB8/mqdefault.jpg","viewCount":"66","playlistId":"PLEkQk5xrP-tnUSUj0uyJhA-kwNC7Gkx_j","playlistName":"مقرأة الفجر - بداية من سورة الإسراء حتى سورة الناس","category":"تفسير"}],"total":7675,"page":289,"pageSize":24,"totalPages":320}