{"items":[{"id":"XLMIHyDP3cM","title":"شرح سنن الدارمي - المقدمة - ١٤ - تكملة","publishedAt":"2019-03-05T20:34:37Z","duration":"PT37M56S","thumbnail":"https://i.ytimg.com/vi/XLMIHyDP3cM/mqdefault.jpg","viewCount":"760","playlistId":"PLEkQk5xrP-tmAg-FuWjY057X_h5NmGmAa","playlistName":"شرح سنن الدارمي - أ.د. يسري جبر (كاملا)","category":"متنوع"},{"id":"kdEV3T96KjY","title":"مقرأة سورة الرحمن من آية ١٤","publishedAt":"2019-03-05T15:12:02Z","duration":"PT15M37S","thumbnail":"https://i.ytimg.com/vi/kdEV3T96KjY/mqdefault.jpg","viewCount":"529","playlistId":"PLEkQk5xrP-tnmTYsyW6xNdyfhPq0Bhrhj","playlistName":"مقرأة الفجر - القُرْآنُ الكَرِيمُ - خَتْمَةُ التَّدَبُّرِ  أ.د. يسري جبر","category":"متنوع"},{"id":"85FLWdHH8ZA","title":"شرح سنن الدارمي - المقدمة - ١٤","publishedAt":"2019-03-04T21:51:33Z","duration":"PT33M2S","thumbnail":"https://i.ytimg.com/vi/85FLWdHH8ZA/mqdefault.jpg","viewCount":"796","playlistId":"PLEkQk5xrP-tmAg-FuWjY057X_h5NmGmAa","playlistName":"شرح سنن الدارمي - أ.د. يسري جبر (كاملا)","category":"متنوع"},{"id":"GpcNFdHtC6M","title":"مقرأة سورة الرحمن من أولها","publishedAt":"2019-03-04T11:58:31Z","duration":"PT23M47S","thumbnail":"https://i.ytimg.com/vi/GpcNFdHtC6M/mqdefault.jpg","viewCount":"1259","playlistId":"PLEkQk5xrP-tnmTYsyW6xNdyfhPq0Bhrhj","playlistName":"مقرأة الفجر - القُرْآنُ الكَرِيمُ - خَتْمَةُ التَّدَبُّرِ  أ.د. يسري جبر","category":"متنوع"},{"id":"-yFyUGnsq0g","title":"شرح سنن الدارمي - المقدمة - ١١","publishedAt":"2019-03-03T20:47:35Z","duration":"PT29M25S","thumbnail":"https://i.ytimg.com/vi/-yFyUGnsq0g/mqdefault.jpg","viewCount":"811","playlistId":"PLEkQk5xrP-tmAg-FuWjY057X_h5NmGmAa","playlistName":"شرح سنن الدارمي - أ.د. يسري جبر (كاملا)","category":"متنوع"},{"id":"2TydmViv65o","title":"مقرأة سورة القمر من آية ٤١","publishedAt":"2019-03-03T11:02:37Z","duration":"PT12M5S","thumbnail":"https://i.ytimg.com/vi/2TydmViv65o/mqdefault.jpg","viewCount":"408","playlistId":"PLEkQk5xrP-tnmTYsyW6xNdyfhPq0Bhrhj","playlistName":"مقرأة الفجر - القُرْآنُ الكَرِيمُ - خَتْمَةُ التَّدَبُّرِ  أ.د. يسري جبر","category":"متنوع"},{"id":"2xb-kiutEwU","title":"شرح سنن الدارمي - المقدمة - ٩","publishedAt":"2019-03-02T23:30:46Z","duration":"PT29M42S","thumbnail":"https://i.ytimg.com/vi/2xb-kiutEwU/mqdefault.jpg","viewCount":"843","playlistId":"PLEkQk5xrP-tmAg-FuWjY057X_h5NmGmAa","playlistName":"شرح سنن الدارمي - أ.د. يسري جبر (كاملا)","category":"متنوع"},{"id":"JOAVJst_XR0","title":"مقرأة سورة القمر من آية ٣٣","publishedAt":"2019-03-02T19:50:32Z","duration":"PT13M3S","thumbnail":"https://i.ytimg.com/vi/JOAVJst_XR0/mqdefault.jpg","viewCount":"356","playlistId":"PLEkQk5xrP-tnmTYsyW6xNdyfhPq0Bhrhj","playlistName":"مقرأة الفجر - القُرْآنُ الكَرِيمُ - خَتْمَةُ التَّدَبُّرِ  أ.د. يسري جبر","category":"متنوع"},{"id":"D3dYnHM41DE","title":"شرح سنن الدارمي - المقدمة - ٨","publishedAt":"2019-02-28T20:13:37Z","duration":"PT41M51S","thumbnail":"https://i.ytimg.com/vi/D3dYnHM41DE/mqdefault.jpg","viewCount":"1060","playlistId":"PLEkQk5xrP-tmAg-FuWjY057X_h5NmGmAa","playlistName":"شرح سنن الدارمي - أ.د. يسري جبر (كاملا)","category":"متنوع"},{"id":"1PJehzY9NRA","title":"شرح سنن الدارمي - المقدمة - ٧","publishedAt":"2019-02-28T20:12:13Z","duration":"PT36M48S","thumbnail":"https://i.ytimg.com/vi/1PJehzY9NRA/mqdefault.jpg","viewCount":"1009","playlistId":"PLEkQk5xrP-tmAg-FuWjY057X_h5NmGmAa","playlistName":"شرح سنن الدارمي - أ.د. يسري جبر (كاملا)","category":"متنوع"},{"id":"0yAUEKO1wZw","title":"مقرأة سورة القمر من آية ١٨","publishedAt":"2019-02-28T20:11:36Z","duration":"PT7M22S","thumbnail":"https://i.ytimg.com/vi/0yAUEKO1wZw/mqdefault.jpg","viewCount":"307","playlistId":"PLEkQk5xrP-tnmTYsyW6xNdyfhPq0Bhrhj","playlistName":"مقرأة الفجر - القُرْآنُ الكَرِيمُ - خَتْمَةُ التَّدَبُّرِ  أ.د. يسري جبر","category":"متنوع"},{"id":"t_9RdBmMgzg","title":"مقرأة سورة القمر من آية ٢٣","publishedAt":"2019-02-28T11:22:54Z","duration":"PT11M28S","thumbnail":"https://i.ytimg.com/vi/t_9RdBmMgzg/mqdefault.jpg","viewCount":"371","playlistId":"PLEkQk5xrP-tnmTYsyW6xNdyfhPq0Bhrhj","playlistName":"مقرأة الفجر - القُرْآنُ الكَرِيمُ - خَتْمَةُ التَّدَبُّرِ  أ.د. يسري جبر","category":"متنوع"},{"id":"MbvBnn6ehwo","title":"شرح سنن الدارمي - المقدمة - ٥","publishedAt":"2019-02-27T16:09:53Z","duration":"PT36M16S","thumbnail":"https://i.ytimg.com/vi/MbvBnn6ehwo/mqdefault.jpg","viewCount":"1219","playlistId":"PLEkQk5xrP-tmAg-FuWjY057X_h5NmGmAa","playlistName":"شرح سنن الدارمي - أ.د. يسري جبر (كاملا)","category":"متنوع"},{"id":"TdwwAujJB-4","title":"شرح صحيح الإمام البخاري رضي الله تعالى عنه - كتاب التعبير أ.د. يسري جبر","publishedAt":"2019-02-26T19:35:26Z","duration":"PT32M47S","thumbnail":"https://i.ytimg.com/vi/TdwwAujJB-4/mqdefault.jpg","viewCount":"104","playlistId":"PLEkQk5xrP-tmJuzaj4GWRenFoFx9gdbFX","playlistName":"شرح كتاب صحيح الإمام البخاري رضي الله تعالى عنه   أ.د. يسرى جبر","category":"حديث"},{"id":"EFvGbpvrMP8","title":"مقرأة سورة القمر من آية ٩","publishedAt":"2019-02-26T17:24:29Z","duration":"PT16M48S","thumbnail":"https://i.ytimg.com/vi/EFvGbpvrMP8/mqdefault.jpg","viewCount":"380","playlistId":"PLEkQk5xrP-tnmTYsyW6xNdyfhPq0Bhrhj","playlistName":"مقرأة الفجر - القُرْآنُ الكَرِيمُ - خَتْمَةُ التَّدَبُّرِ  أ.د. يسري جبر","category":"متنوع"},{"id":"JMwJbVC8Wz0","title":"شرح سنن الدارمي - المقدمة - ٣","publishedAt":"2019-02-25T20:02:06Z","duration":"PT42M35S","thumbnail":"https://i.ytimg.com/vi/JMwJbVC8Wz0/mqdefault.jpg","viewCount":"1613","playlistId":"PLEkQk5xrP-tmAg-FuWjY057X_h5NmGmAa","playlistName":"شرح سنن الدارمي - أ.د. يسري جبر (كاملا)","category":"متنوع"},{"id":"rrZOg_JNwFk","title":"مقرأة سورة القمر من أولها","publishedAt":"2019-02-25T14:04:16Z","duration":"PT14M51S","thumbnail":"https://i.ytimg.com/vi/rrZOg_JNwFk/mqdefault.jpg","viewCount":"1490","playlistId":"PLEkQk5xrP-tnmTYsyW6xNdyfhPq0Bhrhj","playlistName":"مقرأة الفجر - القُرْآنُ الكَرِيمُ - خَتْمَةُ التَّدَبُّرِ  أ.د. يسري جبر","category":"متنوع"},{"id":"lvouV9rqZxU","title":"شرح سنن الدارمي - المقدمة - ٢","publishedAt":"2019-02-24T21:33:38Z","duration":"PT31M53S","thumbnail":"https://i.ytimg.com/vi/lvouV9rqZxU/mqdefault.jpg","viewCount":"1829","playlistId":"PLEkQk5xrP-tmAg-FuWjY057X_h5NmGmAa","playlistName":"شرح سنن الدارمي - أ.د. يسري جبر (كاملا)","category":"متنوع"},{"id":"H_ZzHsMAK-A","title":"مقرأة سورة النجم من آية ٤٩","publishedAt":"2019-02-24T20:28:15Z","duration":"PT8M27S","thumbnail":"https://i.ytimg.com/vi/H_ZzHsMAK-A/mqdefault.jpg","viewCount":"899","playlistId":"PLEkQk5xrP-tnmTYsyW6xNdyfhPq0Bhrhj","playlistName":"مقرأة الفجر - القُرْآنُ الكَرِيمُ - خَتْمَةُ التَّدَبُّرِ  أ.د. يسري جبر","category":"متنوع"},{"id":"v6P-uoulDMc","title":"شرح كتاب دلائل الخيرات - المجلس الثالث | أ.د. يسري جبر","publishedAt":"2019-02-24T19:22:07Z","duration":"PT49M35S","thumbnail":"https://i.ytimg.com/vi/v6P-uoulDMc/mqdefault.jpg","viewCount":"73989","playlistId":"PLEkQk5xrP-tlAzcbIpuqjdFICW-knvTlR","playlistName":"شرح كتاب دلائل الخيرات وشوارق الأنوار","category":"متنوع"},{"id":"upsqCfo9mcc","title":"حول مولد سيدتنا فاطمة الزهراء البتول رضي الله عنها وعليها السلام  أ.د. يسري جبر","publishedAt":"2019-02-24T18:36:12Z","duration":"PT37M14S","thumbnail":"https://i.ytimg.com/vi/upsqCfo9mcc/mqdefault.jpg","viewCount":"939","playlistId":"PLEkQk5xrP-tlArtGpeLWaqNM7h7IDeAVC","playlistName":"خطب الجمعة أ.د. يسري جبر","category":"خطب"},{"id":"7ZTRBqaKTsE","title":"شرح سنن الدارمي - المقدمة - ١","publishedAt":"2019-02-23T22:57:02Z","duration":"PT26M27S","thumbnail":"https://i.ytimg.com/vi/7ZTRBqaKTsE/mqdefault.jpg","viewCount":"4372","playlistId":"PLEkQk5xrP-tmAg-FuWjY057X_h5NmGmAa","playlistName":"شرح سنن الدارمي - أ.د. يسري جبر (كاملا)","category":"متنوع"},{"id":"84OWnJIezbs","title":"مقرأة سورة النجم من آية ٣٣","publishedAt":"2019-02-23T21:21:44Z","duration":"PT14M58S","thumbnail":"https://i.ytimg.com/vi/84OWnJIezbs/mqdefault.jpg","viewCount":"407","playlistId":"PLEkQk5xrP-tnmTYsyW6xNdyfhPq0Bhrhj","playlistName":"مقرأة الفجر - القُرْآنُ الكَرِيمُ - خَتْمَةُ التَّدَبُّرِ  أ.د. يسري جبر","category":"متنوع"},{"id":"JgZDECSj1gs","title":"ختام شرح صحيح البخاري كتاب التوحيد من باب ٥٦","publishedAt":"2019-02-22T09:34:06Z","duration":"PT45M13S","thumbnail":"https://i.ytimg.com/vi/JgZDECSj1gs/mqdefault.jpg","viewCount":"1695","playlistId":"PLEkQk5xrP-tlEerGoLa1AFy-2XvQ-sovv","playlistName":"شرح صحيح البخاري - أ.د. يسري جبر (كاملا)","category":"حديث"}],"total":7675,"page":187,"pageSize":24,"totalPages":320}