{"items":[{"id":"LszItmbmkXM","title":"مقرأة سورة الفرقان من آية ٧١","publishedAt":"2018-04-08T14:59:45Z","duration":"PT14M38S","thumbnail":"https://i.ytimg.com/vi/LszItmbmkXM/mqdefault.jpg","viewCount":"225","playlistId":"PLEkQk5xrP-tnmTYsyW6xNdyfhPq0Bhrhj","playlistName":"مقرأة الفجر - القُرْآنُ الكَرِيمُ - خَتْمَةُ التَّدَبُّرِ  أ.د. يسري جبر","category":"متنوع"},{"id":"1nnYb4tuE8w","title":"كتاب نوراليقين في سيرة سيد المرسلين - المجلس 45 (وفود كعب بن زهير) د.يسري جبر","publishedAt":"2018-04-08T13:15:51Z","duration":"PT49M33S","thumbnail":"https://i.ytimg.com/vi/1nnYb4tuE8w/mqdefault.jpg","viewCount":"12442","playlistId":"PLEkQk5xrP-tl2t4NQx1IhKnAJCMzF0Nli","playlistName":"شرح كتاب نور اليقين في سيرة سيد المرسلين   د. يسري جبر","category":"سيرة"},{"id":"zaLts1IMcKA","title":"حول معاني سُورة \"التَّكَاثُر\" د. يسري جبر","publishedAt":"2018-04-07T14:39:06Z","duration":"PT41M52S","thumbnail":"https://i.ytimg.com/vi/zaLts1IMcKA/mqdefault.jpg","viewCount":"6350","playlistId":"PLEkQk5xrP-tlArtGpeLWaqNM7h7IDeAVC","playlistName":"خطب الجمعة أ.د. يسري جبر","category":"خطب"},{"id":"cJaZC8-6wHw","title":"شرح صحيح البخاري كتاب التفسير فى سورتي مريم وطه","publishedAt":"2018-04-07T14:07:06Z","duration":"PT35M53S","thumbnail":"https://i.ytimg.com/vi/cJaZC8-6wHw/mqdefault.jpg","viewCount":"688","playlistId":"PLEkQk5xrP-tlEerGoLa1AFy-2XvQ-sovv","playlistName":"شرح صحيح البخاري - أ.د. يسري جبر (كاملا)","category":"حديث"},{"id":"wtMyjStHsiA","title":"مقرأة سورة الفرقان من آية ٦٧","publishedAt":"2018-04-07T10:52:39Z","duration":"PT17M48S","thumbnail":"https://i.ytimg.com/vi/wtMyjStHsiA/mqdefault.jpg","viewCount":"315","playlistId":"PLEkQk5xrP-tnmTYsyW6xNdyfhPq0Bhrhj","playlistName":"مقرأة الفجر - القُرْآنُ الكَرِيمُ - خَتْمَةُ التَّدَبُّرِ  أ.د. يسري جبر","category":"متنوع"},{"id":"6c7qXgkmWos","title":"(39) سيدنا أبو العباس أحمد بن محمد بن مسروق رضي الله عنه د. يسري جبر","publishedAt":"2018-04-06T21:12:13Z","duration":"PT19M28S","thumbnail":"https://i.ytimg.com/vi/6c7qXgkmWos/mqdefault.jpg","viewCount":"2831","playlistId":"PLEkQk5xrP-tmmI87XkWepRdTpisz2Lfgr","playlistName":"باب في ذكر مشايخ هذه الطريقة من شرح كتاب الرسالة القشيرية","category":"تصوف"},{"id":"P3mwTvWhSl8","title":"شرح صحيح البخاري كتاب التفسير فى سورة الكهف من باب ٣","publishedAt":"2018-04-06T11:31:47Z","duration":"PT33M38S","thumbnail":"https://i.ytimg.com/vi/P3mwTvWhSl8/mqdefault.jpg","viewCount":"558","playlistId":"PLEkQk5xrP-tlEerGoLa1AFy-2XvQ-sovv","playlistName":"شرح صحيح البخاري - أ.د. يسري جبر (كاملا)","category":"حديث"},{"id":"N3U33LQQ3lc","title":"مقرأة سورة الفرقان من آية ٦٣","publishedAt":"2018-04-06T11:30:40Z","duration":"PT24M13S","thumbnail":"https://i.ytimg.com/vi/N3U33LQQ3lc/mqdefault.jpg","viewCount":"287","playlistId":"PLEkQk5xrP-tnmTYsyW6xNdyfhPq0Bhrhj","playlistName":"مقرأة الفجر - القُرْآنُ الكَرِيمُ - خَتْمَةُ التَّدَبُّرِ  أ.د. يسري جبر","category":"متنوع"},{"id":"EQHy0QROTX8","title":"شرح صحيح البخاري كتاب التفسير فى سورة الكهف من باب اول","publishedAt":"2018-04-05T15:56:57Z","duration":"PT37M20S","thumbnail":"https://i.ytimg.com/vi/EQHy0QROTX8/mqdefault.jpg","viewCount":"987","playlistId":"PLEkQk5xrP-tlEerGoLa1AFy-2XvQ-sovv","playlistName":"شرح صحيح البخاري - أ.د. يسري جبر (كاملا)","category":"حديث"},{"id":"U7vnn3Y4dBo","title":"مقرأة سورة الفرقان من آية ٥٩","publishedAt":"2018-04-05T14:42:12Z","duration":"PT20M49S","thumbnail":"https://i.ytimg.com/vi/U7vnn3Y4dBo/mqdefault.jpg","viewCount":"403","playlistId":"PLEkQk5xrP-tnmTYsyW6xNdyfhPq0Bhrhj","playlistName":"مقرأة الفجر - القُرْآنُ الكَرِيمُ - خَتْمَةُ التَّدَبُّرِ  أ.د. يسري جبر","category":"متنوع"},{"id":"WbmGfjp4T-8","title":"شرح صحيح البخاري كتاب التفسير فى سورة بني إسرائيل (الإسراء) من باب ٥","publishedAt":"2018-04-04T17:34:12Z","duration":"PT26M40S","thumbnail":"https://i.ytimg.com/vi/WbmGfjp4T-8/mqdefault.jpg","viewCount":"496","playlistId":"PLEkQk5xrP-tlEerGoLa1AFy-2XvQ-sovv","playlistName":"شرح صحيح البخاري - أ.د. يسري جبر (كاملا)","category":"حديث"},{"id":"MfECRZkpA3k","title":"مقرأة سورة الفرقان من آية ٥٣","publishedAt":"2018-04-04T10:24:42Z","duration":"PT24M19S","thumbnail":"https://i.ytimg.com/vi/MfECRZkpA3k/mqdefault.jpg","viewCount":"275","playlistId":"PLEkQk5xrP-tnmTYsyW6xNdyfhPq0Bhrhj","playlistName":"مقرأة الفجر - القُرْآنُ الكَرِيمُ - خَتْمَةُ التَّدَبُّرِ  أ.د. يسري جبر","category":"متنوع"},{"id":"rFcAfKXSu0I","title":"الفِكْرَةُ: سَيْرُ القَلْبِ، في مَيَادِينِ الأَغْيَارِ.","publishedAt":"2018-04-03T18:12:55Z","duration":"PT19M12S","thumbnail":"https://i.ytimg.com/vi/rFcAfKXSu0I/mqdefault.jpg","viewCount":"6712","playlistId":"PLEkQk5xrP-tkI_meE148wc7V7XHlB0WPb","playlistName":"من الحكم العطائية  د. يسري جبر","category":"متنوع"},{"id":"3vIxTq5G06A","title":"شرح صحيح البخاري كتاب التفسير فى سورة بني إسرائيل (الإسراء) من باب ١","publishedAt":"2018-04-03T08:47:57Z","duration":"PT29M20S","thumbnail":"https://i.ytimg.com/vi/3vIxTq5G06A/mqdefault.jpg","viewCount":"632","playlistId":"PLEkQk5xrP-tlEerGoLa1AFy-2XvQ-sovv","playlistName":"شرح صحيح البخاري - أ.د. يسري جبر (كاملا)","category":"حديث"},{"id":"ZiRCCLd6-T4","title":"مقرأة سورة الفرقان من آية ٤٩","publishedAt":"2018-04-03T08:47:02Z","duration":"PT11M41S","thumbnail":"https://i.ytimg.com/vi/ZiRCCLd6-T4/mqdefault.jpg","viewCount":"1065","playlistId":"PLEkQk5xrP-tnmTYsyW6xNdyfhPq0Bhrhj","playlistName":"مقرأة الفجر - القُرْآنُ الكَرِيمُ - خَتْمَةُ التَّدَبُّرِ  أ.د. يسري جبر","category":"متنوع"},{"id":"uL1LCtVcZLE","title":"شرح صحيح البخاري كتاب التفسير فى سورتي الحجر والنحل","publishedAt":"2018-04-02T07:07:03Z","duration":"PT43M7S","thumbnail":"https://i.ytimg.com/vi/uL1LCtVcZLE/mqdefault.jpg","viewCount":"462","playlistId":"PLEkQk5xrP-tlEerGoLa1AFy-2XvQ-sovv","playlistName":"شرح صحيح البخاري - أ.د. يسري جبر (كاملا)","category":"حديث"},{"id":"PBthxU-xzh0","title":"مقرأة سورة الفرقان من آية ٤١","publishedAt":"2018-04-02T07:05:12Z","duration":"PT19M44S","thumbnail":"https://i.ytimg.com/vi/PBthxU-xzh0/mqdefault.jpg","viewCount":"287","playlistId":"PLEkQk5xrP-tnmTYsyW6xNdyfhPq0Bhrhj","playlistName":"مقرأة الفجر - القُرْآنُ الكَرِيمُ - خَتْمَةُ التَّدَبُّرِ  أ.د. يسري جبر","category":"متنوع"},{"id":"2bu51_cSZ7E","title":"صحيح الإمام البخاري رضي الله عنه - كتاب الديَاتِ  د.يسري جبر","publishedAt":"2018-04-01T20:53:03Z","duration":"PT37M21S","thumbnail":"https://i.ytimg.com/vi/2bu51_cSZ7E/mqdefault.jpg","viewCount":"100","playlistId":"PLEkQk5xrP-tmJuzaj4GWRenFoFx9gdbFX","playlistName":"شرح كتاب صحيح الإمام البخاري رضي الله تعالى عنه   أ.د. يسرى جبر","category":"حديث"},{"id":"O1LyLHFcGew","title":"ما على المسلم زمن الفتنة  د. يسري جبر","publishedAt":"2018-04-01T14:29:06Z","duration":"PT36M56S","thumbnail":"https://i.ytimg.com/vi/O1LyLHFcGew/mqdefault.jpg","viewCount":"3000","playlistId":"PLEkQk5xrP-tlArtGpeLWaqNM7h7IDeAVC","playlistName":"خطب الجمعة أ.د. يسري جبر","category":"خطب"},{"id":"EXkLJb1RvDw","title":"كتاب نوراليقين في سيرة سيد المرسلين - المجلس 44 (غزوة الفتح الأعظم(2)،العفو عند المقدرة) د.يسري جبر","publishedAt":"2018-04-01T14:27:01Z","duration":"PT47M47S","thumbnail":"https://i.ytimg.com/vi/EXkLJb1RvDw/mqdefault.jpg","viewCount":"12490","playlistId":"PLEkQk5xrP-tl2t4NQx1IhKnAJCMzF0Nli","playlistName":"شرح كتاب نور اليقين في سيرة سيد المرسلين   د. يسري جبر","category":"سيرة"},{"id":"ZTMaT768tz0","title":"شرح صحيح البخاري كتاب التفسير فى سورة الرعد من أولها","publishedAt":"2018-04-01T08:37:08Z","duration":"PT31M51S","thumbnail":"https://i.ytimg.com/vi/ZTMaT768tz0/mqdefault.jpg","viewCount":"545","playlistId":"PLEkQk5xrP-tlEerGoLa1AFy-2XvQ-sovv","playlistName":"شرح صحيح البخاري - أ.د. يسري جبر (كاملا)","category":"حديث"},{"id":"bwWqD1-4wJI","title":"مقرأة سورة الفرقان من آية ٣٢","publishedAt":"2018-04-01T08:31:52Z","duration":"PT18M42S","thumbnail":"https://i.ytimg.com/vi/bwWqD1-4wJI/mqdefault.jpg","viewCount":"233","playlistId":"PLEkQk5xrP-tnmTYsyW6xNdyfhPq0Bhrhj","playlistName":"مقرأة الفجر - القُرْآنُ الكَرِيمُ - خَتْمَةُ التَّدَبُّرِ  أ.د. يسري جبر","category":"متنوع"},{"id":"DIcoGTKw3WY","title":"شرح صحيح البخاري كتاب التفسير فى سورة يوسف من باب ١","publishedAt":"2018-03-31T08:11:52Z","duration":"PT33M12S","thumbnail":"https://i.ytimg.com/vi/DIcoGTKw3WY/mqdefault.jpg","viewCount":"593","playlistId":"PLEkQk5xrP-tlEerGoLa1AFy-2XvQ-sovv","playlistName":"شرح صحيح البخاري - أ.د. يسري جبر (كاملا)","category":"حديث"},{"id":"p6tyWmZ0Ddo","title":"مقرأة سورة الفرقان من آية ٢٧","publishedAt":"2018-03-31T08:11:25Z","duration":"PT7M14S","thumbnail":"https://i.ytimg.com/vi/p6tyWmZ0Ddo/mqdefault.jpg","viewCount":"251","playlistId":"PLEkQk5xrP-tnmTYsyW6xNdyfhPq0Bhrhj","playlistName":"مقرأة الفجر - القُرْآنُ الكَرِيمُ - خَتْمَةُ التَّدَبُّرِ  أ.د. يسري جبر","category":"متنوع"}],"total":7670,"page":42,"pageSize":24,"totalPages":320}