{"items":[{"id":"3cavBa9Cfac","title":"شرح صحيح البخاري كتاب الطلاق من باب 6","publishedAt":"2018-06-15T21:32:37Z","duration":"PT27M56S","thumbnail":"https://i.ytimg.com/vi/3cavBa9Cfac/mqdefault.jpg","viewCount":"551","playlistId":"PLEkQk5xrP-tlEerGoLa1AFy-2XvQ-sovv","playlistName":"شرح صحيح البخاري - أ.د. يسري جبر (كاملا)","category":"حديث"},{"id":"iFMZeOTfkMU","title":"مقرأة سورة العنكبوت من آية ٦٥","publishedAt":"2018-06-15T08:34:43Z","duration":"PT11M55S","thumbnail":"https://i.ytimg.com/vi/iFMZeOTfkMU/mqdefault.jpg","viewCount":"310","playlistId":"PLEkQk5xrP-tnmTYsyW6xNdyfhPq0Bhrhj","playlistName":"مقرأة الفجر - القُرْآنُ الكَرِيمُ - خَتْمَةُ التَّدَبُّرِ  أ.د. يسري جبر","category":"متنوع"},{"id":"qPYn0ySYmjc","title":"شرح صحيح البخاري كتاب الطلاق من باب 4","publishedAt":"2018-06-14T16:00:38Z","duration":"PT27M3S","thumbnail":"https://i.ytimg.com/vi/qPYn0ySYmjc/mqdefault.jpg","viewCount":"604","playlistId":"PLEkQk5xrP-tlEerGoLa1AFy-2XvQ-sovv","playlistName":"شرح صحيح البخاري - أ.د. يسري جبر (كاملا)","category":"حديث"},{"id":"lA3IWmRBNME","title":"62- باب مَا جَاءَ فِى الصَّدَاقِ وَالْحِبَاءِ ك الموطأ د يسري جبر الأزهري","publishedAt":"2018-06-14T14:06:19Z","duration":"PT47M37S","thumbnail":"https://i.ytimg.com/vi/lA3IWmRBNME/mqdefault.jpg","viewCount":"279","playlistId":"PLEkQk5xrP-tnC6BRuqMjyO-484iqXeg0o","playlistName":"شرح كتاب الموطأ للإمام مالك","category":"متنوع"},{"id":"2B19tJhmVfw","title":"شرح كتاب البيوع من سنن الترمذي - المجلس الحادي عشر","publishedAt":"2015-06-03T03:55:17Z","duration":"PT33M51S","thumbnail":"https://i.ytimg.com/vi/2B19tJhmVfw/mqdefault.jpg","viewCount":"129","playlistId":"PLEkQk5xrP-tnu6of679SvxdVx0qSrJzmb","playlistName":"شرح سنن الإمام الترمذي رضى الله عنه د. يسري جبر","category":"متنوع"},{"id":"2viSeZlC2NU","title":"شرح كتاب البيوع من سنن سنن الترمذي - المجلس العاشر","publishedAt":"2015-06-02T04:10:17Z","duration":"PT42M6S","thumbnail":"https://i.ytimg.com/vi/2viSeZlC2NU/mqdefault.jpg","viewCount":"134","playlistId":"PLEkQk5xrP-tnu6of679SvxdVx0qSrJzmb","playlistName":"شرح سنن الإمام الترمذي رضى الله عنه د. يسري جبر","category":"متنوع"},{"id":"-6oP4XSs73s","title":"قراءة القرآن من سورة الكهف (من آية 17)","publishedAt":"2015-06-02T03:23:51Z","duration":"PT20M51S","thumbnail":"https://i.ytimg.com/vi/-6oP4XSs73s/mqdefault.jpg","viewCount":"506","playlistId":"PLEkQk5xrP-tnUSUj0uyJhA-kwNC7Gkx_j","playlistName":"مقرأة الفجر - بداية من سورة الإسراء حتى سورة الناس","category":"تفسير"},{"id":"JLiJyDcukuM","title":"منازل السائرين للإمام الهروى المجلس الواحد والخمسون قسم الولايات أبواب الغربة والغرق والغيبة والتمكن","publishedAt":"2015-06-01T13:26:40Z","duration":"PT55M27S","thumbnail":"https://i.ytimg.com/vi/JLiJyDcukuM/mqdefault.jpg","viewCount":"1329","playlistId":"PLEkQk5xrP-tnLYi_5_tSRVBwqcs7ISV7Y","playlistName":"شرح كتاب منازل السائرين للإمام الهروي","category":"متنوع"},{"id":"rWxK1cJPsfg","title":"شرح كتاب البيوع من سنن الترمذي - المجلس التاسع","publishedAt":"2015-06-01T03:52:38Z","duration":"PT31M11S","thumbnail":"https://i.ytimg.com/vi/rWxK1cJPsfg/mqdefault.jpg","viewCount":"124","playlistId":"PLEkQk5xrP-tnu6of679SvxdVx0qSrJzmb","playlistName":"شرح سنن الإمام الترمذي رضى الله عنه د. يسري جبر","category":"متنوع"},{"id":"sONSLSnw6Dk","title":"قراءة القرآن من سورة الإسراء (من آية 99)","publishedAt":"2015-06-01T03:10:15Z","duration":"PT10M41S","thumbnail":"https://i.ytimg.com/vi/sONSLSnw6Dk/mqdefault.jpg","viewCount":"453","playlistId":"PLEkQk5xrP-tnUSUj0uyJhA-kwNC7Gkx_j","playlistName":"مقرأة الفجر - بداية من سورة الإسراء حتى سورة الناس","category":"تفسير"},{"id":"av4P95TBYGo","title":"صحيح الإمام البخاري رضي الله عنه - كتاب الطلاق - المجلس الرابع","publishedAt":"2015-05-31T17:49:38Z","duration":"PT54M42S","thumbnail":"https://i.ytimg.com/vi/av4P95TBYGo/mqdefault.jpg","viewCount":"73","playlistId":"PLEkQk5xrP-tmJuzaj4GWRenFoFx9gdbFX","playlistName":"شرح كتاب صحيح الإمام البخاري رضي الله تعالى عنه   أ.د. يسرى جبر","category":"حديث"},{"id":"OBzhC-YLg2I","title":"شرح كتاب البيوع من سنن الترمذي - المجلس الثامن","publishedAt":"2015-05-31T04:10:29Z","duration":"PT41M29S","thumbnail":"https://i.ytimg.com/vi/OBzhC-YLg2I/mqdefault.jpg","viewCount":"162","playlistId":"PLEkQk5xrP-tnu6of679SvxdVx0qSrJzmb","playlistName":"شرح سنن الإمام الترمذي رضى الله عنه د. يسري جبر","category":"متنوع"},{"id":"RWzSjpK76JA","title":"قراءة القرآن من سورة الإسراء (من آية 70)","publishedAt":"2015-05-31T03:25:53Z","duration":"PT25M16S","thumbnail":"https://i.ytimg.com/vi/RWzSjpK76JA/mqdefault.jpg","viewCount":"587","playlistId":"PLEkQk5xrP-tnUSUj0uyJhA-kwNC7Gkx_j","playlistName":"مقرأة الفجر - بداية من سورة الإسراء حتى سورة الناس","category":"تفسير"},{"id":"2lCdGCR3PsE","title":"حول ليلة النصف من شعبان د. يسري جبر","publishedAt":"2015-05-30T19:17:57Z","duration":"PT48M24S","thumbnail":"https://i.ytimg.com/vi/2lCdGCR3PsE/mqdefault.jpg","viewCount":"3753","playlistId":"PLEkQk5xrP-tlArtGpeLWaqNM7h7IDeAVC","playlistName":"خطب الجمعة أ.د. يسري جبر","category":"خطب"},{"id":"nG-qPU4ndLY","title":"شرح فتح القريب المجيب - كتاب أحكام الأيمان والنذور","publishedAt":"2017-01-07T14:49:02Z","duration":"PT31M35S","thumbnail":"https://i.ytimg.com/vi/nG-qPU4ndLY/mqdefault.jpg","viewCount":"698","playlistId":"PLEkQk5xrP-tlyOgfNBZTZgoATzVW4mI20","playlistName":"كتاب فتح القريب المجيب (علم الفقه الشافعي)","category":"فقه"},{"id":"lFgDF5rzApg","title":"شرح صحيح البخاري - كتاب الجنائز من أوله","publishedAt":"2017-01-06T17:41:21Z","duration":"PT35M38S","thumbnail":"https://i.ytimg.com/vi/lFgDF5rzApg/mqdefault.jpg","viewCount":"1178","playlistId":"PLEkQk5xrP-tlEerGoLa1AFy-2XvQ-sovv","playlistName":"شرح صحيح البخاري - أ.د. يسري جبر (كاملا)","category":"حديث"},{"id":"XQ3Ff5aliJ4","title":"سورة الأنعام آية 136","publishedAt":"2017-01-06T15:28:13Z","duration":"PT23M38S","thumbnail":"https://i.ytimg.com/vi/XQ3Ff5aliJ4/mqdefault.jpg","viewCount":"449","playlistId":"PLEkQk5xrP-tnmTYsyW6xNdyfhPq0Bhrhj","playlistName":"مقرأة الفجر - القُرْآنُ الكَرِيمُ - خَتْمَةُ التَّدَبُّرِ  أ.د. يسري جبر","category":"متنوع"},{"id":"9Hhz-HiEMhg","title":"الغافل إذا أصبح ينظر ماذا يفعل والعاقل ينظر ماذا يفعل الله به","publishedAt":"2017-01-05T21:27:38Z","duration":"PT18M36S","thumbnail":"https://i.ytimg.com/vi/9Hhz-HiEMhg/mqdefault.jpg","viewCount":"8178","playlistId":"PLEkQk5xrP-tkI_meE148wc7V7XHlB0WPb","playlistName":"من الحكم العطائية  د. يسري جبر","category":"متنوع"},{"id":"mgBhGYZCGsw","title":"شرح صحيح البخاري - كتاب السهو","publishedAt":"2017-01-05T11:07:43Z","duration":"PT45M24S","thumbnail":"https://i.ytimg.com/vi/mgBhGYZCGsw/mqdefault.jpg","viewCount":"1323","playlistId":"PLEkQk5xrP-tlEerGoLa1AFy-2XvQ-sovv","playlistName":"شرح صحيح البخاري - أ.د. يسري جبر (كاملا)","category":"حديث"},{"id":"wLHbVgg5JhI","title":"سورة الأنعام آية 130","publishedAt":"2017-01-05T03:34:30Z","duration":"PT23M52S","thumbnail":"https://i.ytimg.com/vi/wLHbVgg5JhI/mqdefault.jpg","viewCount":"737","playlistId":"PLEkQk5xrP-tnmTYsyW6xNdyfhPq0Bhrhj","playlistName":"مقرأة الفجر - القُرْآنُ الكَرِيمُ - خَتْمَةُ التَّدَبُّرِ  أ.د. يسري جبر","category":"متنوع"},{"id":"uHNqIG0_tZQ","title":"شرح صحيح البخاري - كتاب العمل في الصلا‎ة من باب ١٥","publishedAt":"2017-01-04T10:34:21Z","duration":"PT34M44S","thumbnail":"https://i.ytimg.com/vi/uHNqIG0_tZQ/mqdefault.jpg","viewCount":"856","playlistId":"PLEkQk5xrP-tlEerGoLa1AFy-2XvQ-sovv","playlistName":"شرح صحيح البخاري - أ.د. يسري جبر (كاملا)","category":"حديث"},{"id":"HG_dJvs3208","title":"سورة الأنعام آية 127","publishedAt":"2017-01-04T03:18:15Z","duration":"PT18M49S","thumbnail":"https://i.ytimg.com/vi/HG_dJvs3208/mqdefault.jpg","viewCount":"388","playlistId":"PLEkQk5xrP-tnmTYsyW6xNdyfhPq0Bhrhj","playlistName":"مقرأة الفجر - القُرْآنُ الكَرِيمُ - خَتْمَةُ التَّدَبُّرِ  أ.د. يسري جبر","category":"متنوع"},{"id":"m40SeuWKYwQ","title":"صحيح الإمام البخاري رضي الله عنه - كتاب الأدب - المجلس التاسع  د. يسري جبر","publishedAt":"2017-01-03T20:03:51Z","duration":"PT49M50S","thumbnail":"https://i.ytimg.com/vi/m40SeuWKYwQ/mqdefault.jpg","viewCount":"276","playlistId":"PLEkQk5xrP-tmJuzaj4GWRenFoFx9gdbFX","playlistName":"شرح كتاب صحيح الإمام البخاري رضي الله تعالى عنه   أ.د. يسرى جبر","category":"حديث"},{"id":"NqoFlBeNP2A","title":"مظهر الرحمة في الوالدين  د.يسري جبر","publishedAt":"2017-01-02T14:09:52Z","duration":"PT47M15S","thumbnail":"https://i.ytimg.com/vi/NqoFlBeNP2A/mqdefault.jpg","viewCount":"2179","playlistId":"PLEkQk5xrP-tlArtGpeLWaqNM7h7IDeAVC","playlistName":"خطب الجمعة أ.د. يسري جبر","category":"خطب"}],"total":7670,"page":218,"pageSize":24,"totalPages":320}