{"items":[{"id":"_imgPh80E2o","title":"63- ููู ุชููู ูู ุฃุตุญุงุจ ุงูุจุตูุฑุฉุ | ุดุฑุญ ููุงุฒู ุงูุณุงุฆุฑูู","publishedAt":"2025-07-08T18:59:13Z","duration":"PT27M5S","thumbnail":"https://i.ytimg.com/vi/_imgPh80E2o/mqdefault.jpg","viewCount":"7624","playlistId":"PLEkQk5xrP-tmiUfQ-2Tsn7QIak4EsvaZW","playlistName":"ูุชุงุจ ุงูุชูุณูุฑ ุงููุนูู ุจุดุฑุญ ูุนุงูู ููุงุฒู ุงูุณุงุฆุฑูู (ุชุตูู) - ุฏ.ูุณุฑู ุฌุจุฑ","category":"ุชุตูู"},{"id":"RzbT6icmoPM","title":"ุฃูุง ุฒููุงู ูุญุงุณุณ ุฃูู ูุด ูุณุชูุชุน ุจุงูุญูุงุฉ ,, ููุงุฐุง ุฃูุนูุ","publishedAt":"2025-07-07T19:03:22Z","duration":"PT8M17S","thumbnail":"https://i.ytimg.com/vi/RzbT6icmoPM/mqdefault.jpg","viewCount":"7005","playlistId":"PLEkQk5xrP-tkGXuZ9atE3k_7it12rUPTs","playlistName":"ุฃุณุฆูุฉ ุงููุชุงุจุนูู","category":"ูุชููุน"},{"id":"0dG0-x2kWaw","title":"46- ุดุฑูุท ุตุญุฉ ุงูุตูุงุฉ ููุชู ูุฑุถุชุ | ุดุฑุญ ูุฎุชุตุฑ ุงููุชูุญุงุช ุงููููุฉ","publishedAt":"2025-07-06T18:32:19Z","duration":"PT41M13S","thumbnail":"https://i.ytimg.com/vi/0dG0-x2kWaw/mqdefault.jpg","viewCount":"2047","playlistId":"PLEkQk5xrP-tnpkdZki6rPTtMak1bnI5g-","playlistName":"ุดุฑุญ ูุชุงุจ ูุฎุชุตุฑ ุงููุชูุญุงุช ุงููููุฉ ุงููุณูู ููุงูุญ ุงูุฃููุงุฑ ุงููุฏุณูุฉ","category":"ูุชููุน"},{"id":"AnxB-7BbtZU","title":"ุฏุนุงุก ูุฅุญูุงุก ููู ุนุงุดูุฑุงุก","publishedAt":"2025-07-05T12:28:11Z","duration":"PT43M38S","thumbnail":"https://i.ytimg.com/vi/AnxB-7BbtZU/mqdefault.jpg","viewCount":"2926","playlistId":"PLEkQk5xrP-tm8ZIu74nTOZN9KJUJu416J","playlistName":"ููุงุทุน ููููููุฉ (ููุณุฑูููุงุช) ุฃ.ุฏ. ูุณุฑู ุฌุจุฑ","category":"ูุชููุน"},{"id":"KvvmXhAxPUA","title":"ูุตุฉ ููู ุนุงุดูุฑุงุก ููุง ูู ูุถู ุตูุงููุ","publishedAt":"2025-07-04T17:00:24Z","duration":"PT13M55S","thumbnail":"https://i.ytimg.com/vi/KvvmXhAxPUA/mqdefault.jpg","viewCount":"8288","playlistId":"PLEkQk5xrP-tm8ZIu74nTOZN9KJUJu416J","playlistName":"ููุงุทุน ููููููุฉ (ููุณุฑูููุงุช) ุฃ.ุฏ. ูุณุฑู ุฌุจุฑ","category":"ูุชููุน"},{"id":"3b9rSfBaQYg","title":"20- ููู ูููู ููุจู ุฎุงูุตุง ูููุ | ุดุฑุญ ุงูุญูู ุงูุนุทุงุฆูุฉ","publishedAt":"2025-07-03T18:36:59Z","duration":"PT39M48S","thumbnail":"https://i.ytimg.com/vi/3b9rSfBaQYg/mqdefault.jpg","viewCount":"3452","playlistId":"PLEkQk5xrP-tmf5ToOwmW-q0JwxkapbrMN","playlistName":"ุดุฑุญ ูุชุงุจ ุฅุฑุดุงุฏ ุงูุจุฑูุฉ ุฅูู ุจุนุถ ูุนุงูู ุงูุญูู ุงูุนุทุงุฆูุฉ","category":"ูุชููุน"},{"id":"IGKbfmbq-EI","title":"62- ููู ุชููู ุญูููุงู ููุง ูู ุงูุญููุฉุ | ุดุฑุญ ููุงุฒู ุงูุณุงุฆุฑูู","publishedAt":"2025-07-02T18:00:30Z","duration":"PT28M34S","thumbnail":"https://i.ytimg.com/vi/IGKbfmbq-EI/mqdefault.jpg","viewCount":"6457","playlistId":"PLEkQk5xrP-tmiUfQ-2Tsn7QIak4EsvaZW","playlistName":"ูุชุงุจ ุงูุชูุณูุฑ ุงููุนูู ุจุดุฑุญ ูุนุงูู ููุงุฒู ุงูุณุงุฆุฑูู (ุชุตูู) - ุฏ.ูุณุฑู ุฌุจุฑ","category":"ุชุตูู"},{"id":"x5ojFfZH_xc","title":"ููู ุฃุชุบูุจ ุนูู ุถุนู ุงูููุฉ ูุงููุชูุฑ ูู ุงูุนุจุงุฏุฉุ","publishedAt":"2025-07-01T18:12:59Z","duration":"PT12M22S","thumbnail":"https://i.ytimg.com/vi/x5ojFfZH_xc/mqdefault.jpg","viewCount":"9567","playlistId":"PLEkQk5xrP-tkGXuZ9atE3k_7it12rUPTs","playlistName":"ุฃุณุฆูุฉ ุงููุชุงุจุนูู","category":"ูุชููุน"},{"id":"s2NVfWbgmJ4","title":"45- ูู ูุฌูุฒ ุงูุฎุฑูุฌ ุนู ุงูุฅุฌูุงุนุ | ุดุฑุญ ูุฎุชุตุฑ ุงููุชูุญุงุช ุงููููุฉ","publishedAt":"2025-06-30T18:30:36Z","duration":"PT48M54S","thumbnail":"https://i.ytimg.com/vi/s2NVfWbgmJ4/mqdefault.jpg","viewCount":"1647","playlistId":"PLEkQk5xrP-tnpkdZki6rPTtMak1bnI5g-","playlistName":"ุดุฑุญ ูุชุงุจ ูุฎุชุตุฑ ุงููุชูุญุงุช ุงููููุฉ ุงููุณูู ููุงูุญ ุงูุฃููุงุฑ ุงููุฏุณูุฉ","category":"ูุชููุน"},{"id":"2MWpjd80-FU","title":"57- ูุงุฐุง ุชููู ูู ุงูุฑููุน ูุงูุณุฌูุฏุ | ุดุฑุญ ุณูู ุงูุฅูุงู ุงูุฏุงุฑ ูุทูู","publishedAt":"2025-06-28T09:00:55Z","duration":"PT43M14S","thumbnail":"https://i.ytimg.com/vi/2MWpjd80-FU/mqdefault.jpg","viewCount":"694","playlistId":"PLEkQk5xrP-tk_MCBZ706ORCw6gFtFyaGj","playlistName":"ุดุฑุญ ุณูู ุงูุฅูุงู ุงูุฏุงุฑูุทูู","category":"ูุชููุน"},{"id":"GGN_LVl2bSA","title":"ููู ูุณุชูุจู ุงูุนุงู ุงููุฌุฑู ุงูุฌุฏูุฏุ","publishedAt":"2025-06-26T18:33:09Z","duration":"PT16M2S","thumbnail":"https://i.ytimg.com/vi/GGN_LVl2bSA/mqdefault.jpg","viewCount":"3038","playlistId":"PLEkQk5xrP-tlArtGpeLWaqNM7h7IDeAVC","playlistName":"ุฎุทุจ ุงูุฌูุนุฉ ุฃ.ุฏ. ูุณุฑู ุฌุจุฑ","category":"ุฎุทุจ"},{"id":"6b71oov0hvs","title":"61- ููู ุชููู ุนุงุฑููุง ุจุงูููุ | ุดุฑุญ ููุงุฒู ุงูุณุงุฆุฑูู","publishedAt":"2025-06-25T19:17:20Z","duration":"PT34M56S","thumbnail":"https://i.ytimg.com/vi/6b71oov0hvs/mqdefault.jpg","viewCount":"5331","playlistId":"PLEkQk5xrP-tmiUfQ-2Tsn7QIak4EsvaZW","playlistName":"ูุชุงุจ ุงูุชูุณูุฑ ุงููุนูู ุจุดุฑุญ ูุนุงูู ููุงุฒู ุงูุณุงุฆุฑูู (ุชุตูู) - ุฏ.ูุณุฑู ุฌุจุฑ","category":"ุชุตูู"},{"id":"Ur_cX3z-yQs","title":"ุฃูููุฉ ุงูุชูููู ุงููุฌุฑู ูู ุญูุงุชูุง ููุง ูู ุงูุตูุงุฉ ุงููุณุทูุ","publishedAt":"2025-06-24T16:00:48Z","duration":"PT9M4S","thumbnail":"https://i.ytimg.com/vi/Ur_cX3z-yQs/mqdefault.jpg","viewCount":"1995","playlistId":"PLEkQk5xrP-tkGXuZ9atE3k_7it12rUPTs","playlistName":"ุฃุณุฆูุฉ ุงููุชุงุจุนูู","category":"ูุชููุน"},{"id":"UpRZQczwaxs","title":"ุงุฒุงู ุฃุฑุถู ุจูุง ูุณูู ุงููู ููุ","publishedAt":"2025-06-23T18:44:52Z","duration":"PT12M41S","thumbnail":"https://i.ytimg.com/vi/UpRZQczwaxs/mqdefault.jpg","viewCount":"7014","playlistId":"PLEkQk5xrP-tkGXuZ9atE3k_7it12rUPTs","playlistName":"ุฃุณุฆูุฉ ุงููุชุงุจุนูู","category":"ูุชููุน"},{"id":"I23b1aOz5dw","title":"161- ุจุฑูุฉ ุฏุนูุฉ ุงูุตุงูุญูู - ุดุฑุญ ูุณูุฏ ุงูุฅูุงู ุฃุญูุฏ ุฑุถู ุงููู ุชุนุงูู ุนูู","publishedAt":"2025-06-10T05:00:15Z","duration":"PT33M58S","thumbnail":"https://i.ytimg.com/vi/I23b1aOz5dw/mqdefault.jpg","viewCount":"2868","playlistId":"PLEkQk5xrP-tkKprIuGrSdEuBSMsyg5We1","playlistName":"ุดุฑุญ ูุณูุฏ ุงูุฅูุงู ุฃุญูุฏ ุจู ุญูุจู","category":"ูุชููุน"},{"id":"DiNLzDEmATU","title":"ูู ุตูุงุฉ ุงูุนูุฏ ุชุณูุท ูุฑุถ ุงูุฌูุนุฉุ | ุฎุทุจุฉ ุนูุฏ ุงูุฃุถุญู","publishedAt":"2025-06-06T06:00:21Z","duration":"PT23M39S","thumbnail":"https://i.ytimg.com/vi/DiNLzDEmATU/mqdefault.jpg","viewCount":"3917","playlistId":"PLEkQk5xrP-tlArtGpeLWaqNM7h7IDeAVC","playlistName":"ุฎุทุจ ุงูุฌูุนุฉ ุฃ.ุฏ. ูุณุฑู ุฌุจุฑ","category":"ุฎุทุจ"},{"id":"EKqpe6NEO8U","title":"ุฏุนุงุก ูุฅุญูุงุก ููู ุนุฑูุฉ","publishedAt":"2025-06-05T11:04:36Z","duration":"PT29M45S","thumbnail":"https://i.ytimg.com/vi/EKqpe6NEO8U/mqdefault.jpg","viewCount":"6508","playlistId":"PLEkQk5xrP-tm8ZIu74nTOZN9KJUJu416J","playlistName":"ููุงุทุน ููููููุฉ (ููุณุฑูููุงุช) ุฃ.ุฏ. ูุณุฑู ุฌุจุฑ","category":"ูุชููุน"},{"id":"l1qeNnLttDY","title":"ูุงุฐุง ุชูุนู ูู ููู ุนุฑูุฉุ","publishedAt":"2025-06-04T18:15:04Z","duration":"PT14M44S","thumbnail":"https://i.ytimg.com/vi/l1qeNnLttDY/mqdefault.jpg","viewCount":"10144","playlistId":"PLEkQk5xrP-tlArtGpeLWaqNM7h7IDeAVC","playlistName":"ุฎุทุจ ุงูุฌูุนุฉ ุฃ.ุฏ. ูุณุฑู ุฌุจุฑ","category":"ุฎุทุจ"},{"id":"qXMXbog7_oY","title":"ูุงุฐุง ุชูุนู ุฅู ูู ุชุณุชุทุน ุงูุญุฌ ูุฐุง ุงูุนุงูุ","publishedAt":"2025-06-03T18:51:35Z","duration":"PT18M29S","thumbnail":"https://i.ytimg.com/vi/qXMXbog7_oY/mqdefault.jpg","viewCount":"3492","playlistId":"PLEkQk5xrP-tlArtGpeLWaqNM7h7IDeAVC","playlistName":"ุฎุทุจ ุงูุฌูุนุฉ ุฃ.ุฏ. ูุณุฑู ุฌุจุฑ","category":"ุฎุทุจ"},{"id":"PfFCdy_YK8E","title":"ุงูุฑุฏ ุนูู ุฌููุน ุดุจูุงุช ูุงุฏุนุงุกุงุช ุงูููุงุจูุฉ | ุงูุฌูุชุฑุง๐","publishedAt":"2025-06-02T19:27:30Z","duration":"PT1H17M38S","thumbnail":"https://i.ytimg.com/vi/PfFCdy_YK8E/mqdefault.jpg","viewCount":"15785","playlistId":"PLEkQk5xrP-tmJzNvLntpzW0uPanPzxA0c","playlistName":"ููุงุกุงุช ููุญุงุถุฑุงุช","category":"ูุชููุน"},{"id":"GHGt6Pmwg80","title":"ูุนูู ูุญุฏุฉ ุงููุฌูุฏ ุนูุฏ ุงูุตูููุฉ | ุงูุฌูุชุฑุง๐","publishedAt":"2025-06-01T19:14:37Z","duration":"PT20M14S","thumbnail":"https://i.ytimg.com/vi/GHGt6Pmwg80/mqdefault.jpg","viewCount":"7841","playlistId":"PLEkQk5xrP-tm8ZIu74nTOZN9KJUJu416J","playlistName":"ููุงุทุน ููููููุฉ (ููุณุฑูููุงุช) ุฃ.ุฏ. ูุณุฑู ุฌุจุฑ","category":"ูุชููุน"},{"id":"IJFBj4cQyZU","title":"ูุฌูุณ ูุฑูุฒ ูุงูุจุฑูุฏุฌ ุงููุฑุขูู | ุงูุฌูุชุฑุง๐","publishedAt":"2025-05-31T18:17:55Z","duration":"PT21M36S","thumbnail":"https://i.ytimg.com/vi/IJFBj4cQyZU/mqdefault.jpg","viewCount":"2507","playlistId":"PLEkQk5xrP-tm8ZIu74nTOZN9KJUJu416J","playlistName":"ููุงุทุน ููููููุฉ (ููุณุฑูููุงุช) ุฃ.ุฏ. ูุณุฑู ุฌุจุฑ","category":"ูุชููุน"},{"id":"-6wXTmNvwj8","title":"ูุตุฉ ุงูุจุฑุฏุฉ ููุถุงุฆููุง ููุฑุงูุชูุง | ููุฏู๐","publishedAt":"2025-05-29T19:15:14Z","duration":"PT16M33S","thumbnail":"https://i.ytimg.com/vi/-6wXTmNvwj8/mqdefault.jpg","viewCount":"6195","playlistId":"PLEkQk5xrP-tm8ZIu74nTOZN9KJUJu416J","playlistName":"ููุงุทุน ููููููุฉ (ููุณุฑูููุงุช) ุฃ.ุฏ. ูุณุฑู ุฌุจุฑ","category":"ูุชููุน"},{"id":"5zdVVADYWfA","title":"ุนููู ุงูุทุงูุฉ ุจูู ุงูุญูููุฉ ูุงูุฎุฑุงูุงุช ูุญูู ุงูุนูุงุฌ ุจุงูุทุงูุฉุ","publishedAt":"2025-05-28T19:54:31Z","duration":"PT41M13S","thumbnail":"https://i.ytimg.com/vi/5zdVVADYWfA/mqdefault.jpg","viewCount":"16564","playlistId":"PLEkQk5xrP-tlArtGpeLWaqNM7h7IDeAVC","playlistName":"ุฎุทุจ ุงูุฌูุนุฉ ุฃ.ุฏ. ูุณุฑู ุฌุจุฑ","category":"ุฎุทุจ"}],"total":7675,"page":9,"pageSize":24,"totalPages":320}