{"items":[{"id":"_GFmTze0voc","title":"كيف جمعت بين العلم الشرعي والدنيوي؟","publishedAt":"2024-05-15T17:00:26Z","duration":"PT9M29S","thumbnail":"https://i.ytimg.com/vi/_GFmTze0voc/mqdefault.jpg","viewCount":"5740","playlistId":"PLEkQk5xrP-tl6tFiMFGUucCTvLgnWyAfz","playlistName":"حياة الأستاذ الدكتور يسري جبر","category":"متنوع"},{"id":"msFb8zjUaC4","title":"حقائق ومعاني حول الروحانية المحمدية | دمشق, سوريا","publishedAt":"2024-05-14T19:27:57Z","duration":"PT55M47S","thumbnail":"https://i.ytimg.com/vi/msFb8zjUaC4/mqdefault.jpg","viewCount":"25168","playlistId":"PLEkQk5xrP-tmJzNvLntpzW0uPanPzxA0c","playlistName":"لقاءات ومحاضرات","category":"متنوع"},{"id":"9acGEmsjgOc","title":"17- الفرق بين الشريعة والحقيقة في قصة سيدنا موسى والخضر | شرح مختصر الفتوحات المكية","publishedAt":"2024-05-13T17:16:50Z","duration":"PT45M8S","thumbnail":"https://i.ytimg.com/vi/9acGEmsjgOc/mqdefault.jpg","viewCount":"8380","playlistId":"PLEkQk5xrP-tnpkdZki6rPTtMak1bnI5g-","playlistName":"شرح كتاب مختصر الفتوحات المكية المسمى لواقح الأنوار القدسية","category":"متنوع"},{"id":"YIIELKp66TE","title":"235- ما الفرق بين الحصر والاختصاص؟ - شرح الإتقان في علوم القرآن","publishedAt":"2024-05-13T05:00:16Z","duration":"PT28M25S","thumbnail":"https://i.ytimg.com/vi/YIIELKp66TE/mqdefault.jpg","viewCount":"659","playlistId":"PLEkQk5xrP-tlPw10KGJKagu7zm4Ry2Tge","playlistName":"شرح الإتقان في علوم القرآن","category":"تفسير"},{"id":"cCo9Ltd5t2c","title":"زوجي تزوج عليا فهل من حقي طلب الطلاق ام ماذا أفعل؟","publishedAt":"2024-05-12T18:15:11Z","duration":"PT8M7S","thumbnail":"https://i.ytimg.com/vi/cCo9Ltd5t2c/mqdefault.jpg","viewCount":"7199","playlistId":"PLEkQk5xrP-tkGXuZ9atE3k_7it12rUPTs","playlistName":"أسئلة المتابعين","category":"متنوع"},{"id":"vtPBUQaWpsI","title":"104- الوصية الجامعة البالغة - شرح مسند الإمام أحمد رضي الله تعالى عنه","publishedAt":"2024-05-12T05:38:26Z","duration":"PT31M23S","thumbnail":"https://i.ytimg.com/vi/vtPBUQaWpsI/mqdefault.jpg","viewCount":"1501","playlistId":"PLEkQk5xrP-tkKprIuGrSdEuBSMsyg5We1","playlistName":"شرح مسند الإمام أحمد بن حنبل","category":"متنوع"},{"id":"4yVRMXuyK-M","title":"كيف نتصدى لحركة تكوين والدعاوى المشابهة؟","publishedAt":"2024-05-11T18:00:03Z","duration":"PT7M59S","thumbnail":"https://i.ytimg.com/vi/4yVRMXuyK-M/mqdefault.jpg","viewCount":"15643","playlistId":"PLEkQk5xrP-tkGXuZ9atE3k_7it12rUPTs","playlistName":"أسئلة المتابعين","category":"متنوع"},{"id":"6kKhI1ixf1g","title":"هل عصى سيدنا آدم ربه؟","publishedAt":"2024-05-10T18:01:38Z","duration":"PT8M57S","thumbnail":"https://i.ytimg.com/vi/6kKhI1ixf1g/mqdefault.jpg","viewCount":"3857","playlistId":"PLEkQk5xrP-tlArtGpeLWaqNM7h7IDeAVC","playlistName":"خطب الجمعة أ.د. يسري جبر","category":"خطب"},{"id":"IlUwp5elvrs","title":"234- تنبيه: تقديم المعمول يفيد الحصر  - شرح الإتقان في علوم القرآن","publishedAt":"2024-05-10T05:15:01Z","duration":"PT24M41S","thumbnail":"https://i.ytimg.com/vi/IlUwp5elvrs/mqdefault.jpg","viewCount":"599","playlistId":"PLEkQk5xrP-tlPw10KGJKagu7zm4Ry2Tge","playlistName":"شرح الإتقان في علوم القرآن","category":"تفسير"},{"id":"umeQUL53_3A","title":"شرح منازل السائرين - المجلس (43) باب الحياء | أ.د. يسري جبر","publishedAt":"2024-05-09T17:35:37Z","duration":"PT45M33S","thumbnail":"https://i.ytimg.com/vi/umeQUL53_3A/mqdefault.jpg","viewCount":"4384","playlistId":"PLEkQk5xrP-tmiUfQ-2Tsn7QIak4EsvaZW","playlistName":"كتاب التيسير المعين بشرح معاني منازل السائرين (تصوف) - د.يسري جبر","category":"تصوف"},{"id":"6U4bNZ_WZrg","title":"103- فتن آخر الزمان | دعاء الشدة والكرب - شرح مسند الإمام أحمد رضي الله تعالى عنه","publishedAt":"2024-05-09T05:18:44Z","duration":"PT42M50S","thumbnail":"https://i.ytimg.com/vi/6U4bNZ_WZrg/mqdefault.jpg","viewCount":"2414","playlistId":"PLEkQk5xrP-tkKprIuGrSdEuBSMsyg5We1","playlistName":"شرح مسند الإمام أحمد بن حنبل","category":"متنوع"},{"id":"cW2U24aa-ws","title":"لماذا خلقنا الله وهو يعلم مصيرنا؟ وماذا يريد منا؟","publishedAt":"2024-05-08T18:51:12Z","duration":"PT18M39S","thumbnail":"https://i.ytimg.com/vi/cW2U24aa-ws/mqdefault.jpg","viewCount":"9434","playlistId":"PLEkQk5xrP-tlArtGpeLWaqNM7h7IDeAVC","playlistName":"خطب الجمعة أ.د. يسري جبر","category":"خطب"},{"id":"L9nbK7qUF9s","title":"233- النوع الثالث من أساليب الحصر: أنَّما - شرح الإتقان في علوم القرآن","publishedAt":"2024-05-08T05:00:10Z","duration":"PT18M53S","thumbnail":"https://i.ytimg.com/vi/L9nbK7qUF9s/mqdefault.jpg","viewCount":"548","playlistId":"PLEkQk5xrP-tlPw10KGJKagu7zm4Ry2Tge","playlistName":"شرح الإتقان في علوم القرآن","category":"تفسير"},{"id":"CfOQeiPR0K0","title":"بدعي كتير وربنا لا يستجيب دعائي ,, فماذا أفعل؟","publishedAt":"2024-05-07T17:47:52Z","duration":"PT15M3S","thumbnail":"https://i.ytimg.com/vi/CfOQeiPR0K0/mqdefault.jpg","viewCount":"4611","playlistId":"PLEkQk5xrP-tlArtGpeLWaqNM7h7IDeAVC","playlistName":"خطب الجمعة أ.د. يسري جبر","category":"خطب"},{"id":"bUWXQ-XGysA","title":"102- لا هجرةَ بعد الفتح، ولكنْ جهادٌ ونيَّةٌ - شرح مسند الإمام أحمد رضي الله تعالى عنه","publishedAt":"2024-05-07T05:15:02Z","duration":"PT25M2S","thumbnail":"https://i.ytimg.com/vi/bUWXQ-XGysA/mqdefault.jpg","viewCount":"931","playlistId":"PLEkQk5xrP-tkKprIuGrSdEuBSMsyg5We1","playlistName":"شرح مسند الإمام أحمد بن حنبل","category":"متنوع"},{"id":"wiN19lwrmxo","title":"مراتي بتشتغل ,,هل مشاركتها في مصروف البيت واجبة؟","publishedAt":"2024-05-06T17:32:16Z","duration":"PT8M6S","thumbnail":"https://i.ytimg.com/vi/wiN19lwrmxo/mqdefault.jpg","viewCount":"6335","playlistId":"PLEkQk5xrP-tkGXuZ9atE3k_7it12rUPTs","playlistName":"أسئلة المتابعين","category":"متنوع"},{"id":"PITok4dC9bU","title":"232- الحصر والاختصاص - شرح الإتقان في علوم القرآن","publishedAt":"2024-05-06T05:00:24Z","duration":"PT30M2S","thumbnail":"https://i.ytimg.com/vi/PITok4dC9bU/mqdefault.jpg","viewCount":"641","playlistId":"PLEkQk5xrP-tlPw10KGJKagu7zm4Ry2Tge","playlistName":"شرح الإتقان في علوم القرآن","category":"تفسير"},{"id":"jya9c0g3J_0","title":"16- ماذا أفعل حتى يستجيب الله دعائي؟ | شرح مختصر الفتوحات المكية","publishedAt":"2024-05-05T17:02:49Z","duration":"PT40M41S","thumbnail":"https://i.ytimg.com/vi/jya9c0g3J_0/mqdefault.jpg","viewCount":"8485","playlistId":"PLEkQk5xrP-tnpkdZki6rPTtMak1bnI5g-","playlistName":"شرح كتاب مختصر الفتوحات المكية المسمى لواقح الأنوار القدسية","category":"متنوع"},{"id":"rejKMd9gEIA","title":"101- حكم مَن انشغل بالنافلة عن الفريضة - شرح مسند الإمام أحمد رضي الله تعالى عنه","publishedAt":"2024-05-05T09:00:39Z","duration":"PT39M18S","thumbnail":"https://i.ytimg.com/vi/rejKMd9gEIA/mqdefault.jpg","viewCount":"1097","playlistId":"PLEkQk5xrP-tkKprIuGrSdEuBSMsyg5We1","playlistName":"شرح مسند الإمام أحمد بن حنبل","category":"متنوع"},{"id":"1z-jbc079SA","title":"هل مات فرعون مسلما ويمكن أن يدخله الله الجنة؟","publishedAt":"2024-05-04T18:04:18Z","duration":"PT10M8S","thumbnail":"https://i.ytimg.com/vi/1z-jbc079SA/mqdefault.jpg","viewCount":"34435","playlistId":"PLEkQk5xrP-tkGXuZ9atE3k_7it12rUPTs","playlistName":"أسئلة المتابعين","category":"متنوع"},{"id":"DcFLyk7LGxU","title":"35- حكم التيمم لكل صلاة وبيان كيفيته | حكم إمامة المتيمم للمتوضئين | شرح سنن الدار قطني رضي الله عنه","publishedAt":"2024-05-04T09:00:10Z","duration":"PT48M34S","thumbnail":"https://i.ytimg.com/vi/DcFLyk7LGxU/mqdefault.jpg","viewCount":"683","playlistId":"PLEkQk5xrP-tk_MCBZ706ORCw6gFtFyaGj","playlistName":"شرح سنن الإمام الدارقطني","category":"متنوع"},{"id":"fEtJ8dGapuk","title":"231- من أنواع البديع التي تشبه الكناية (الإرداف) - شرح الإتقان في علوم القرآن","publishedAt":"2024-05-04T04:45:48Z","duration":"PT23M27S","thumbnail":"https://i.ytimg.com/vi/fEtJ8dGapuk/mqdefault.jpg","viewCount":"587","playlistId":"PLEkQk5xrP-tlPw10KGJKagu7zm4Ry2Tge","playlistName":"شرح الإتقان في علوم القرآن","category":"تفسير"},{"id":"0ULNy_e72LU","title":"هل يجوز العمل عند شخص ماله حرام؟","publishedAt":"2024-05-03T17:15:00Z","duration":"PT9M33S","thumbnail":"https://i.ytimg.com/vi/0ULNy_e72LU/mqdefault.jpg","viewCount":"5007","playlistId":"PLEkQk5xrP-tkGXuZ9atE3k_7it12rUPTs","playlistName":"أسئلة المتابعين","category":"متنوع"},{"id":"v7K4Pwr1Gtg","title":"100- حكم ختام الصلاة جهرًا - شرح مسند الإمام أحمد رضي الله تعالى عنه","publishedAt":"2024-05-03T05:00:29Z","duration":"PT35M3S","thumbnail":"https://i.ytimg.com/vi/v7K4Pwr1Gtg/mqdefault.jpg","viewCount":"960","playlistId":"PLEkQk5xrP-tkKprIuGrSdEuBSMsyg5We1","playlistName":"شرح مسند الإمام أحمد بن حنبل","category":"متنوع"}],"total":7675,"page":31,"pageSize":24,"totalPages":320}