{"items":[{"id":"R-ES8PJfQWA","title":"خطورة إهدار المال العام","publishedAt":"2021-08-02T17:30:02Z","duration":"PT14M12S","thumbnail":"https://i.ytimg.com/vi/R-ES8PJfQWA/mqdefault.jpg","viewCount":"2023","playlistId":"PLEkQk5xrP-tlArtGpeLWaqNM7h7IDeAVC","playlistName":"خطب الجمعة أ.د. يسري جبر","category":"خطب"},{"id":"RTjCQyqbnsA","title":"الاختزال (24) حذف جواب القَسَم - شرح البرهان في علوم القرآن","publishedAt":"2021-08-02T05:31:15Z","duration":"PT11M37S","thumbnail":"https://i.ytimg.com/vi/RTjCQyqbnsA/mqdefault.jpg","viewCount":"424","playlistId":"PLEkQk5xrP-tnW3iBL7HkKziOFCFZbTlf0","playlistName":"شرح البرهان في علوم القرآن - أ.د. يسري جبر","category":"تفسير"},{"id":"YqTdX8cD6EA","title":"ابنتي ترفض الحجاب,, ماذا أفعل؟","publishedAt":"2021-08-01T17:32:00Z","duration":"PT10M33S","thumbnail":"https://i.ytimg.com/vi/YqTdX8cD6EA/mqdefault.jpg","viewCount":"12559","playlistId":"PLEkQk5xrP-tkGXuZ9atE3k_7it12rUPTs","playlistName":"أسئلة المتابعين","category":"متنوع"},{"id":"2DBRj-NLF6I","title":"106- تكملة الحديث\"لَمَّا وقَفَ الزُّبَيْرُ يَومَ الجَمَلِ دَعَانِي، فَقُمْتُ إلى…\" شرح دليل الفالحين","publishedAt":"2021-08-01T05:38:56Z","duration":"PT56M49S","thumbnail":"https://i.ytimg.com/vi/2DBRj-NLF6I/mqdefault.jpg","viewCount":"1280","playlistId":"PLEkQk5xrP-tkc9DXvSLguqX5-FYp6ASR4","playlistName":"دليل الفالحين لطرق رياض الصالحين","category":"متنوع"},{"id":"B8PoYKgrXpo","title":"الفرق بين الاستغاثة والتوسل,, وكيفية التعامل مع الأهل الرافضين للتصوف؟","publishedAt":"2021-07-31T17:30:01Z","duration":"PT11M14S","thumbnail":"https://i.ytimg.com/vi/B8PoYKgrXpo/mqdefault.jpg","viewCount":"17481","playlistId":"PLEkQk5xrP-tkGXuZ9atE3k_7it12rUPTs","playlistName":"أسئلة المتابعين","category":"متنوع"},{"id":"7Ud8CZZILIk","title":"الاختزال (23) حذف جواب الشرط (4) أمثلة - شرح البرهان في علوم القرآن","publishedAt":"2021-07-31T05:07:30Z","duration":"PT16M39S","thumbnail":"https://i.ytimg.com/vi/7Ud8CZZILIk/mqdefault.jpg","viewCount":"396","playlistId":"PLEkQk5xrP-tnW3iBL7HkKziOFCFZbTlf0","playlistName":"شرح البرهان في علوم القرآن - أ.د. يسري جبر","category":"تفسير"},{"id":"3kNVc2VwtmY","title":"”تفسير قوله تعالى \"فَأَرْسَلْنَا إِلَيْهَا رُوحَنَا فَتَمَثَّلَ لَهَا بَشَرًا سَوِيًّا","publishedAt":"2021-07-30T17:30:00Z","duration":"PT10M36S","thumbnail":"https://i.ytimg.com/vi/3kNVc2VwtmY/mqdefault.jpg","viewCount":"5908","playlistId":"PLEkQk5xrP-tkSGrPLMt1BEmJ54cGWYgtp","playlistName":"كتابُ بِدَعِ التَفَاسِيرِ - أ.د. يسري جبر","category":"متنوع"},{"id":"m_ut3k4JK8Q","title":"105- \"لَمَّا وقَفَ الزُّبَيْرُ يَومَ الجَمَلِ دَعَانِي، فَقُمْتُ إلى جَنْبِهِ…\" شرح دليل الفالحين","publishedAt":"2021-07-30T05:18:32Z","duration":"PT42M56S","thumbnail":"https://i.ytimg.com/vi/m_ut3k4JK8Q/mqdefault.jpg","viewCount":"2276","playlistId":"PLEkQk5xrP-tkc9DXvSLguqX5-FYp6ASR4","playlistName":"دليل الفالحين لطرق رياض الصالحين","category":"متنوع"},{"id":"jB1eq6KUhPk","title":"أفضل طريقة لحل المشاكل الزوجية","publishedAt":"2021-07-29T17:50:10Z","duration":"PT8M32S","thumbnail":"https://i.ytimg.com/vi/jB1eq6KUhPk/mqdefault.jpg","viewCount":"12701","playlistId":"PLEkQk5xrP-tkGXuZ9atE3k_7it12rUPTs","playlistName":"أسئلة المتابعين","category":"متنوع"},{"id":"iv7DgxgG_sA","title":"الاختزال (22) حذف جواب الشرط (3) أمثلة - شرح البرهان في علوم القرآن","publishedAt":"2021-07-29T05:24:33Z","duration":"PT15M41S","thumbnail":"https://i.ytimg.com/vi/iv7DgxgG_sA/mqdefault.jpg","viewCount":"382","playlistId":"PLEkQk5xrP-tnW3iBL7HkKziOFCFZbTlf0","playlistName":"شرح البرهان في علوم القرآن - أ.د. يسري جبر","category":"تفسير"},{"id":"U71VggsKTME","title":"كيف أتخلص من جلد الذات؟","publishedAt":"2021-07-28T17:30:04Z","duration":"PT9M31S","thumbnail":"https://i.ytimg.com/vi/U71VggsKTME/mqdefault.jpg","viewCount":"7330","playlistId":"PLEkQk5xrP-tkGXuZ9atE3k_7it12rUPTs","playlistName":"أسئلة المتابعين","category":"متنوع"},{"id":"hXPeVcAuL_4","title":"104- \"يجمع اللهُ - تبارك وتعالى - الناسَ فيقوم المؤمنون حتى تُزْلَفَ لهم الجنَّة…\" شرح دليل الفالحين","publishedAt":"2021-07-28T05:23:58Z","duration":"PT1H2M35S","thumbnail":"https://i.ytimg.com/vi/hXPeVcAuL_4/mqdefault.jpg","viewCount":"2678","playlistId":"PLEkQk5xrP-tkc9DXvSLguqX5-FYp6ASR4","playlistName":"دليل الفالحين لطرق رياض الصالحين","category":"متنوع"},{"id":"nae-53zn434","title":"كيف أجد فرص عمل مناسبة؟","publishedAt":"2021-07-27T19:39:00Z","duration":"PT11M51S","thumbnail":"https://i.ytimg.com/vi/nae-53zn434/mqdefault.jpg","viewCount":"5207","playlistId":"PLEkQk5xrP-tkGXuZ9atE3k_7it12rUPTs","playlistName":"أسئلة المتابعين","category":"متنوع"},{"id":"ARot-1pDBtM","title":"الاختزال (21) حذف جواب الشرط (2) أمثلة - شرح البرهان في علوم القرآن","publishedAt":"2021-07-27T05:33:36Z","duration":"PT14M14S","thumbnail":"https://i.ytimg.com/vi/ARot-1pDBtM/mqdefault.jpg","viewCount":"327","playlistId":"PLEkQk5xrP-tnW3iBL7HkKziOFCFZbTlf0","playlistName":"شرح البرهان في علوم القرآن - أ.د. يسري جبر","category":"تفسير"},{"id":"-lJG7_cho3o","title":"حكم زيارة الأضرحة والتبرك بها","publishedAt":"2021-07-26T19:30:01Z","duration":"PT12M9S","thumbnail":"https://i.ytimg.com/vi/-lJG7_cho3o/mqdefault.jpg","viewCount":"58263","playlistId":"PLEkQk5xrP-tm8ZIu74nTOZN9KJUJu416J","playlistName":"مقاطع مُهمَّة (يُسريَّات) أ.د. يسري جبر","category":"متنوع"},{"id":"u7QFCV-VgCc","title":"كيف تكون متواضغًا؟","publishedAt":"2021-07-25T19:26:14Z","duration":"PT18M23S","thumbnail":"https://i.ytimg.com/vi/u7QFCV-VgCc/mqdefault.jpg","viewCount":"5012","playlistId":"PLEkQk5xrP-tm8ZIu74nTOZN9KJUJu416J","playlistName":"مقاطع مُهمَّة (يُسريَّات) أ.د. يسري جبر","category":"متنوع"},{"id":"mmJR9adHT98","title":"103- الأمر بأداء الأمانة - شرح دليل الفالحين","publishedAt":"2021-07-25T05:25:35Z","duration":"PT43M28S","thumbnail":"https://i.ytimg.com/vi/mmJR9adHT98/mqdefault.jpg","viewCount":"1138","playlistId":"PLEkQk5xrP-tkc9DXvSLguqX5-FYp6ASR4","playlistName":"دليل الفالحين لطرق رياض الصالحين","category":"متنوع"},{"id":"FaznfDbYnBs","title":"مفهوم طبي للسعي إلى الصلاة","publishedAt":"2021-07-24T17:30:01Z","duration":"PT26M12S","thumbnail":"https://i.ytimg.com/vi/FaznfDbYnBs/mqdefault.jpg","viewCount":"11148","playlistId":"PLEkQk5xrP-tm8ZIu74nTOZN9KJUJu416J","playlistName":"مقاطع مُهمَّة (يُسريَّات) أ.د. يسري جبر","category":"متنوع"},{"id":"qZdCJ3o50o4","title":"الاختزال (20) حذف جواب الشرط - شرح البرهان في علوم القرآن","publishedAt":"2021-07-24T05:59:22Z","duration":"PT21M24S","thumbnail":"https://i.ytimg.com/vi/qZdCJ3o50o4/mqdefault.jpg","viewCount":"540","playlistId":"PLEkQk5xrP-tnW3iBL7HkKziOFCFZbTlf0","playlistName":"شرح البرهان في علوم القرآن - أ.د. يسري جبر","category":"تفسير"},{"id":"_JZPKzdDn6s","title":"102- تغليظ عقوبة من أمر بمعروف أو نهى عن منكر وخالف قوله فِعله - شرح دليل الفالحين","publishedAt":"2021-07-23T20:45:13Z","duration":"PT23M52S","thumbnail":"https://i.ytimg.com/vi/_JZPKzdDn6s/mqdefault.jpg","viewCount":"1145","playlistId":"PLEkQk5xrP-tkc9DXvSLguqX5-FYp6ASR4","playlistName":"دليل الفالحين لطرق رياض الصالحين","category":"متنوع"},{"id":"m9vRv8KjWaw","title":"الاختزال (19) حذف الشرط - شرح البرهان في علوم القرآن","publishedAt":"2021-07-23T04:32:04Z","duration":"PT13M6S","thumbnail":"https://i.ytimg.com/vi/m9vRv8KjWaw/mqdefault.jpg","viewCount":"418","playlistId":"PLEkQk5xrP-tnW3iBL7HkKziOFCFZbTlf0","playlistName":"شرح البرهان في علوم القرآن - أ.د. يسري جبر","category":"تفسير"},{"id":"G3Stx1yTcN4","title":"كيف نرد على قضية تأبير النخل؟","publishedAt":"2021-07-22T17:16:36Z","duration":"PT11M41S","thumbnail":"https://i.ytimg.com/vi/G3Stx1yTcN4/mqdefault.jpg","viewCount":"8297","playlistId":"PLEkQk5xrP-tkGXuZ9atE3k_7it12rUPTs","playlistName":"أسئلة المتابعين","category":"متنوع"},{"id":"yOq1HYENF1o","title":"101- \"إنَّ أولَ ما دخل النَّقْصُ على بني إسرائيلَ أنه كان الرجلُ يَلْقَى الرجلَ…\" شرح دليل الفالحين","publishedAt":"2021-07-22T06:40:02Z","duration":"PT52M26S","thumbnail":"https://i.ytimg.com/vi/yOq1HYENF1o/mqdefault.jpg","viewCount":"2914","playlistId":"PLEkQk5xrP-tkc9DXvSLguqX5-FYp6ASR4","playlistName":"دليل الفالحين لطرق رياض الصالحين","category":"متنوع"},{"id":"56MVO-z0Y6A","title":"”تفسير قوله تعالى \"وَاذْكُرْ رَبَّكَ إِذَا نَسِيتَ","publishedAt":"2021-07-21T17:15:00Z","duration":"PT38M39S","thumbnail":"https://i.ytimg.com/vi/56MVO-z0Y6A/mqdefault.jpg","viewCount":"6363","playlistId":"PLEkQk5xrP-tkSGrPLMt1BEmJ54cGWYgtp","playlistName":"كتابُ بِدَعِ التَفَاسِيرِ - أ.د. يسري جبر","category":"متنوع"}],"total":7670,"page":4,"pageSize":24,"totalPages":320}