{"items":[{"id":"TXIeMNS0ReI","title":"شرح صحيح البخاري   كتاب مناقب الأنصار من باب ٣٨","publishedAt":"2017-12-10T18:31:06Z","duration":"PT30M41S","thumbnail":"https://i.ytimg.com/vi/TXIeMNS0ReI/mqdefault.jpg","viewCount":"473","playlistId":"PLEkQk5xrP-tlEerGoLa1AFy-2XvQ-sovv","playlistName":"شرح صحيح البخاري - أ.د. يسري جبر (كاملا)","category":"حديث"},{"id":"obPxWLo6yP0","title":"مقرأة سورة الأنبياء من أولها","publishedAt":"2017-12-10T15:53:17Z","duration":"PT13M28S","thumbnail":"https://i.ytimg.com/vi/obPxWLo6yP0/mqdefault.jpg","viewCount":"561","playlistId":"PLEkQk5xrP-tnmTYsyW6xNdyfhPq0Bhrhj","playlistName":"مقرأة الفجر - القُرْآنُ الكَرِيمُ - خَتْمَةُ التَّدَبُّرِ  أ.د. يسري جبر","category":"متنوع"},{"id":"Un8iNnd50jk","title":"شرح كتاب نوراليقين في سيرة سيد المرسلين - المجلس 32 ( تكملة غزوة بني قريظة ) د.يسري جبر","publishedAt":"2017-12-10T12:58:35Z","duration":"PT50M51S","thumbnail":"https://i.ytimg.com/vi/Un8iNnd50jk/mqdefault.jpg","viewCount":"14723","playlistId":"PLEkQk5xrP-tl2t4NQx1IhKnAJCMzF0Nli","playlistName":"شرح كتاب نور اليقين في سيرة سيد المرسلين   د. يسري جبر","category":"سيرة"},{"id":"WEblf-PlLhk","title":"شرح صحيح البخاري   كتاب مناقب الأنصار من باب ٣٦","publishedAt":"2017-12-09T20:42:14Z","duration":"PT35M53S","thumbnail":"https://i.ytimg.com/vi/WEblf-PlLhk/mqdefault.jpg","viewCount":"502","playlistId":"PLEkQk5xrP-tlEerGoLa1AFy-2XvQ-sovv","playlistName":"شرح صحيح البخاري - أ.د. يسري جبر (كاملا)","category":"حديث"},{"id":"RVi4_nuUhz8","title":"القدس إسلامية","publishedAt":"2017-12-09T14:47:39Z","duration":"PT33M10S","thumbnail":"https://i.ytimg.com/vi/RVi4_nuUhz8/mqdefault.jpg","viewCount":"912","playlistId":"PLEkQk5xrP-tlArtGpeLWaqNM7h7IDeAVC","playlistName":"خطب الجمعة أ.د. يسري جبر","category":"خطب"},{"id":"3_ghjEI_sIk","title":"مقرأة سورة طه من آية ١٢٨","publishedAt":"2017-12-09T12:57:32Z","duration":"PT20M30S","thumbnail":"https://i.ytimg.com/vi/3_ghjEI_sIk/mqdefault.jpg","viewCount":"374","playlistId":"PLEkQk5xrP-tnmTYsyW6xNdyfhPq0Bhrhj","playlistName":"مقرأة الفجر - القُرْآنُ الكَرِيمُ - خَتْمَةُ التَّدَبُّرِ  أ.د. يسري جبر","category":"متنوع"},{"id":"Y7J27KzDVaA","title":"شرح صحيح البخاري   كتاب مناقب الأنصار من باب ٣٢","publishedAt":"2017-12-08T11:09:14Z","duration":"PT26M20S","thumbnail":"https://i.ytimg.com/vi/Y7J27KzDVaA/mqdefault.jpg","viewCount":"464","playlistId":"PLEkQk5xrP-tlEerGoLa1AFy-2XvQ-sovv","playlistName":"شرح صحيح البخاري - أ.د. يسري جبر (كاملا)","category":"حديث"},{"id":"ow6Idmbx-zE","title":"مقرأة سورة طه من آية ١١٥","publishedAt":"2017-12-08T08:04:33Z","duration":"PT30M9S","thumbnail":"https://i.ytimg.com/vi/ow6Idmbx-zE/mqdefault.jpg","viewCount":"386","playlistId":"PLEkQk5xrP-tnmTYsyW6xNdyfhPq0Bhrhj","playlistName":"مقرأة الفجر - القُرْآنُ الكَرِيمُ - خَتْمَةُ التَّدَبُّرِ  أ.د. يسري جبر","category":"متنوع"},{"id":"eFgdw-AVZtU","title":"شرح صحيح البخاري   كتاب مناقب الأنصار من باب ٢٩","publishedAt":"2017-12-07T21:00:58Z","duration":"PT21M","thumbnail":"https://i.ytimg.com/vi/eFgdw-AVZtU/mqdefault.jpg","viewCount":"451","playlistId":"PLEkQk5xrP-tlEerGoLa1AFy-2XvQ-sovv","playlistName":"شرح صحيح البخاري - أ.د. يسري جبر (كاملا)","category":"حديث"},{"id":"jQFLeNUE8FU","title":"مقرأة سورة طه من آية ١١٢","publishedAt":"2017-12-07T19:44:47Z","duration":"PT20M34S","thumbnail":"https://i.ytimg.com/vi/jQFLeNUE8FU/mqdefault.jpg","viewCount":"288","playlistId":"PLEkQk5xrP-tnmTYsyW6xNdyfhPq0Bhrhj","playlistName":"مقرأة الفجر - القُرْآنُ الكَرِيمُ - خَتْمَةُ التَّدَبُّرِ  أ.د. يسري جبر","category":"متنوع"},{"id":"pazss1wyxzs","title":"شرح كتاب الرسالة القشيرية - المجلس الرابع - الفصل الأول (1)","publishedAt":"2017-12-07T13:11:40Z","duration":"PT56M16S","thumbnail":"https://i.ytimg.com/vi/pazss1wyxzs/mqdefault.jpg","viewCount":"21460","playlistId":"PLEkQk5xrP-tkHAGOwIKr4pc5ehhyQ5HMJ","playlistName":"كتاب الرسالة القشيرية (تصوف) - د. يسري جبر","category":"تصوف"},{"id":"RbVGFpKoapk","title":"شرح صحيح البخاري   كتاب مناقب الأنصار من باب ٢٧","publishedAt":"2017-12-06T22:42:53Z","duration":"PT30M20S","thumbnail":"https://i.ytimg.com/vi/RbVGFpKoapk/mqdefault.jpg","viewCount":"477","playlistId":"PLEkQk5xrP-tlEerGoLa1AFy-2XvQ-sovv","playlistName":"شرح صحيح البخاري - أ.د. يسري جبر (كاملا)","category":"حديث"},{"id":"1YiXdWzGMJ4","title":"مقرأة سورة طه من آية ٩٩","publishedAt":"2017-12-06T20:27:36Z","duration":"PT20M50S","thumbnail":"https://i.ytimg.com/vi/1YiXdWzGMJ4/mqdefault.jpg","viewCount":"288","playlistId":"PLEkQk5xrP-tnmTYsyW6xNdyfhPq0Bhrhj","playlistName":"مقرأة الفجر - القُرْآنُ الكَرِيمُ - خَتْمَةُ التَّدَبُّرِ  أ.د. يسري جبر","category":"متنوع"},{"id":"8Rpdzycu4uY","title":"شرح صحيح البخاري   كتاب مناقب الأنصار من باب ٢٥","publishedAt":"2017-12-06T12:51:42Z","duration":"PT39M48S","thumbnail":"https://i.ytimg.com/vi/8Rpdzycu4uY/mqdefault.jpg","viewCount":"516","playlistId":"PLEkQk5xrP-tlEerGoLa1AFy-2XvQ-sovv","playlistName":"شرح صحيح البخاري - أ.د. يسري جبر (كاملا)","category":"حديث"},{"id":"KdFDgZE5GnI","title":"مقرأة سورة طه من آية ٨٩","publishedAt":"2017-12-06T08:40:25Z","duration":"PT22M10S","thumbnail":"https://i.ytimg.com/vi/KdFDgZE5GnI/mqdefault.jpg","viewCount":"341","playlistId":"PLEkQk5xrP-tnmTYsyW6xNdyfhPq0Bhrhj","playlistName":"مقرأة الفجر - القُرْآنُ الكَرِيمُ - خَتْمَةُ التَّدَبُّرِ  أ.د. يسري جبر","category":"متنوع"},{"id":"eNgg_pQvlDc","title":"شرح صحيح البخاري   كتاب مناقب الأنصار من باب ٢١","publishedAt":"2017-12-05T17:24:21Z","duration":"PT20M42S","thumbnail":"https://i.ytimg.com/vi/eNgg_pQvlDc/mqdefault.jpg","viewCount":"453","playlistId":"PLEkQk5xrP-tlEerGoLa1AFy-2XvQ-sovv","playlistName":"شرح صحيح البخاري - أ.د. يسري جبر (كاملا)","category":"حديث"},{"id":"W6DmHST5Qfs","title":"مقرأة سورة طه من آية ٨٣","publishedAt":"2017-12-05T16:48:27Z","duration":"PT14M59S","thumbnail":"https://i.ytimg.com/vi/W6DmHST5Qfs/mqdefault.jpg","viewCount":"291","playlistId":"PLEkQk5xrP-tnmTYsyW6xNdyfhPq0Bhrhj","playlistName":"مقرأة الفجر - القُرْآنُ الكَرِيمُ - خَتْمَةُ التَّدَبُّرِ  أ.د. يسري جبر","category":"متنوع"},{"id":"xmxQ3qzSnMw","title":"شرح صحيح البخاري   كتاب مناقب الأنصار من باب ١٦","publishedAt":"2017-12-04T10:09:38Z","duration":"PT38M54S","thumbnail":"https://i.ytimg.com/vi/xmxQ3qzSnMw/mqdefault.jpg","viewCount":"529","playlistId":"PLEkQk5xrP-tlEerGoLa1AFy-2XvQ-sovv","playlistName":"شرح صحيح البخاري - أ.د. يسري جبر (كاملا)","category":"حديث"},{"id":"7ThPEwc2y_c","title":"مقرأة سورة طه من آية ٧٧","publishedAt":"2017-12-04T04:08:22Z","duration":"PT15M4S","thumbnail":"https://i.ytimg.com/vi/7ThPEwc2y_c/mqdefault.jpg","viewCount":"302","playlistId":"PLEkQk5xrP-tnmTYsyW6xNdyfhPq0Bhrhj","playlistName":"مقرأة الفجر - القُرْآنُ الكَرِيمُ - خَتْمَةُ التَّدَبُّرِ  أ.د. يسري جبر","category":"متنوع"},{"id":"5a6nWsTiYTk","title":"شرح صحيح البخاري   كتاب مناقب الأنصار من باب ١١","publishedAt":"2017-12-03T22:17:50Z","duration":"PT31M43S","thumbnail":"https://i.ytimg.com/vi/5a6nWsTiYTk/mqdefault.jpg","viewCount":"510","playlistId":"PLEkQk5xrP-tlEerGoLa1AFy-2XvQ-sovv","playlistName":"شرح صحيح البخاري - أ.د. يسري جبر (كاملا)","category":"حديث"},{"id":"7wHbRl9F5-Q","title":"مقرأة سورة طه من آية ٦٦","publishedAt":"2017-12-03T15:20:38Z","duration":"PT29M50S","thumbnail":"https://i.ytimg.com/vi/7wHbRl9F5-Q/mqdefault.jpg","viewCount":"403","playlistId":"PLEkQk5xrP-tnmTYsyW6xNdyfhPq0Bhrhj","playlistName":"مقرأة الفجر - القُرْآنُ الكَرِيمُ - خَتْمَةُ التَّدَبُّرِ  أ.د. يسري جبر","category":"متنوع"},{"id":"176OgdQAckc","title":"شرح صحيح البخاري   كتاب مناقب الأنصار من باب ٦","publishedAt":"2017-12-03T10:35:06Z","duration":"PT36M30S","thumbnail":"https://i.ytimg.com/vi/176OgdQAckc/mqdefault.jpg","viewCount":"491","playlistId":"PLEkQk5xrP-tlEerGoLa1AFy-2XvQ-sovv","playlistName":"شرح صحيح البخاري - أ.د. يسري جبر (كاملا)","category":"حديث"},{"id":"k-uUtPCBjWs","title":"مقرأة سورة طه من آية ٥٦","publishedAt":"2017-12-03T07:27:25Z","duration":"PT19M4S","thumbnail":"https://i.ytimg.com/vi/k-uUtPCBjWs/mqdefault.jpg","viewCount":"306","playlistId":"PLEkQk5xrP-tnmTYsyW6xNdyfhPq0Bhrhj","playlistName":"مقرأة الفجر - القُرْآنُ الكَرِيمُ - خَتْمَةُ التَّدَبُّرِ  أ.د. يسري جبر","category":"متنوع"},{"id":"ELXbNrVFZ1A","title":"شرح صحيح البخاري  كتاب مناقب الأنصار من أوله","publishedAt":"2017-11-30T20:50:37Z","duration":"PT33M11S","thumbnail":"https://i.ytimg.com/vi/ELXbNrVFZ1A/mqdefault.jpg","viewCount":"724","playlistId":"PLEkQk5xrP-tlEerGoLa1AFy-2XvQ-sovv","playlistName":"شرح صحيح البخاري - أ.د. يسري جبر (كاملا)","category":"حديث"}],"total":7670,"page":55,"pageSize":24,"totalPages":320}