{"items":[{"id":"UHZ6pvU2sUY","title":"نور الوجود والسبب في كل موجود ﷺ","publishedAt":"2022-08-15T18:00:12Z","duration":"PT24M42S","thumbnail":"https://i.ytimg.com/vi/UHZ6pvU2sUY/mqdefault.jpg","viewCount":"6652","playlistId":"PLEkQk5xrP-tlArtGpeLWaqNM7h7IDeAVC","playlistName":"خطب الجمعة أ.د. يسري جبر","category":"خطب"},{"id":"Bd-d9IqLi6o","title":"287- حُكمُ النفْخِ في الشراب - شرح دليل الفالحين","publishedAt":"2022-08-15T05:30:01Z","duration":"PT25M26S","thumbnail":"https://i.ytimg.com/vi/Bd-d9IqLi6o/mqdefault.jpg","viewCount":"903","playlistId":"PLEkQk5xrP-tkc9DXvSLguqX5-FYp6ASR4","playlistName":"دليل الفالحين لطرق رياض الصالحين","category":"متنوع"},{"id":"h0XKLFbHvPE","title":"قدرةُ الله عَزَّ وجَلَّ | أ.د. يسري جبر","publishedAt":"2022-08-14T18:00:22Z","duration":"PT8M25S","thumbnail":"https://i.ytimg.com/vi/h0XKLFbHvPE/mqdefault.jpg","viewCount":"3764","playlistId":"PLEkQk5xrP-tlArtGpeLWaqNM7h7IDeAVC","playlistName":"خطب الجمعة أ.د. يسري جبر","category":"خطب"},{"id":"B0Bv9KObf4U","title":"546- استعمالات (إذا): قد تأتي زائدة - شرح البرهان في علوم القرآن","publishedAt":"2022-08-14T05:30:02Z","duration":"PT22M16S","thumbnail":"https://i.ytimg.com/vi/B0Bv9KObf4U/mqdefault.jpg","viewCount":"437","playlistId":"PLEkQk5xrP-tnW3iBL7HkKziOFCFZbTlf0","playlistName":"شرح البرهان في علوم القرآن - أ.د. يسري جبر","category":"تفسير"},{"id":"HSev5FHVVrc","title":"أشعر بالقهر والظلم في عملي ,, ماذا أفعل؟","publishedAt":"2022-08-13T18:00:05Z","duration":"PT10M49S","thumbnail":"https://i.ytimg.com/vi/HSev5FHVVrc/mqdefault.jpg","viewCount":"15698","playlistId":"PLEkQk5xrP-tkGXuZ9atE3k_7it12rUPTs","playlistName":"أسئلة المتابعين","category":"متنوع"},{"id":"G0bL7KIcM0Y","title":"608- قولُه تعالى \"لِمَا خَلَقْتُ بِيَدَيَّ\" شرح صحيح الإمام البخاري رضي الله عنه","publishedAt":"2022-08-13T05:30:02Z","duration":"PT49M19S","thumbnail":"https://i.ytimg.com/vi/G0bL7KIcM0Y/mqdefault.jpg","viewCount":"2421","playlistId":"PLEkQk5xrP-tmJuzaj4GWRenFoFx9gdbFX","playlistName":"شرح كتاب صحيح الإمام البخاري رضي الله تعالى عنه   أ.د. يسرى جبر","category":"حديث"},{"id":"eODz7ufnT-M","title":"كيف أكون من المخلصين في العبادة؟","publishedAt":"2022-08-12T18:00:13Z","duration":"PT14M11S","thumbnail":"https://i.ytimg.com/vi/eODz7ufnT-M/mqdefault.jpg","viewCount":"28438","playlistId":"PLEkQk5xrP-tm8ZIu74nTOZN9KJUJu416J","playlistName":"مقاطع مُهمَّة (يُسريَّات) أ.د. يسري جبر","category":"متنوع"},{"id":"PLg0ctqIcUU","title":"286- حكمُ الشربِ مِن فم القِربة ونحوِها - شرح دليل الفالحين","publishedAt":"2022-08-12T05:30:04Z","duration":"PT28M7S","thumbnail":"https://i.ytimg.com/vi/PLg0ctqIcUU/mqdefault.jpg","viewCount":"970","playlistId":"PLEkQk5xrP-tkc9DXvSLguqX5-FYp6ASR4","playlistName":"دليل الفالحين لطرق رياض الصالحين","category":"متنوع"},{"id":"hP8Z3xgx-hU","title":"كيف أنزع حب الدنيا من قلبي؟","publishedAt":"2022-08-11T18:00:14Z","duration":"PT11M4S","thumbnail":"https://i.ytimg.com/vi/hP8Z3xgx-hU/mqdefault.jpg","viewCount":"8814","playlistId":"PLEkQk5xrP-tkGXuZ9atE3k_7it12rUPTs","playlistName":"أسئلة المتابعين","category":"متنوع"},{"id":"MgZ4zKORxq4","title":"45- إِذَا اشْتَدَّ الحَرُّ، فأبْرِدُوا عَن الصَّلَاةِ، فإنَّ شِدَّةَ الحَرِّ مِن فَيْحِ جَهَنَّمَ.","publishedAt":"2022-08-11T06:15:00Z","duration":"PT47M4S","thumbnail":"https://i.ytimg.com/vi/MgZ4zKORxq4/mqdefault.jpg","viewCount":"2160","playlistId":"PLEkQk5xrP-tlDtaqY0qhNXAiZ19gaGzKI","playlistName":"شرح مسند الإمام محمد بن إدريس الشافعيّ رضي الله تعالى عنه","category":"فقه"},{"id":"qK27J5Qtg9g","title":"شرح منازل السائرين - المجلس (3) باب اليقظة | أ.د. يسري جبر","publishedAt":"2022-08-10T18:00:26Z","duration":"PT1H1M14S","thumbnail":"https://i.ytimg.com/vi/qK27J5Qtg9g/mqdefault.jpg","viewCount":"40048","playlistId":"PLEkQk5xrP-tmiUfQ-2Tsn7QIak4EsvaZW","playlistName":"كتاب التيسير المعين بشرح معاني منازل السائرين (تصوف) - د.يسري جبر","category":"تصوف"},{"id":"wSPhuB322wk","title":"17- الدليلُ على أنَّ النَّبيَّ ﷺ هو أَوَّل الموجودات ظُهورًا","publishedAt":"2022-08-10T05:45:01Z","duration":"PT13M28S","thumbnail":"https://i.ytimg.com/vi/wSPhuB322wk/mqdefault.jpg","viewCount":"3514","playlistId":"PLEkQk5xrP-tkFEtMu56Xb9U9FCZBTXiLf","playlistName":"شرح صلوات الأولياء على خاتم الأنبياء ﷺ","category":"صلوات"},{"id":"KTE1P_WPGCw","title":"أريد الهجرة مع أولادي ,, بماذا تنصحني؟","publishedAt":"2022-08-09T18:00:06Z","duration":"PT12M11S","thumbnail":"https://i.ytimg.com/vi/KTE1P_WPGCw/mqdefault.jpg","viewCount":"11825","playlistId":"PLEkQk5xrP-tm8ZIu74nTOZN9KJUJu416J","playlistName":"مقاطع مُهمَّة (يُسريَّات) أ.د. يسري جبر","category":"متنوع"},{"id":"bWF_qbBtnxs","title":"545- أوجه الاختلاف بين (إذا) و (إن) - شرح البرهان في علوم القرآن","publishedAt":"2022-08-09T06:00:18Z","duration":"PT18M55S","thumbnail":"https://i.ytimg.com/vi/bWF_qbBtnxs/mqdefault.jpg","viewCount":"489","playlistId":"PLEkQk5xrP-tnW3iBL7HkKziOFCFZbTlf0","playlistName":"شرح البرهان في علوم القرآن - أ.د. يسري جبر","category":"تفسير"},{"id":"OsVpzLMLmXI","title":"كيف نرد على من ينكر مديح الأولياء؟","publishedAt":"2022-08-08T18:00:09Z","duration":"PT8M57S","thumbnail":"https://i.ytimg.com/vi/OsVpzLMLmXI/mqdefault.jpg","viewCount":"6965","playlistId":"PLEkQk5xrP-tkGXuZ9atE3k_7it12rUPTs","playlistName":"أسئلة المتابعين","category":"متنوع"},{"id":"YlV57RzMi00","title":"44- الحديث 1020 - شرح مسند الإمام الشافعي رضي الله عنه","publishedAt":"2022-08-08T06:17:01Z","duration":"PT48M40S","thumbnail":"https://i.ytimg.com/vi/YlV57RzMi00/mqdefault.jpg","viewCount":"907","playlistId":"PLEkQk5xrP-tlDtaqY0qhNXAiZ19gaGzKI","playlistName":"شرح مسند الإمام محمد بن إدريس الشافعيّ رضي الله تعالى عنه","category":"فقه"},{"id":"1ZzbOFqC1d8","title":"11- فهو الجليل والجميل والوليْ   والظاهر القدوس والربُّ العليْ","publishedAt":"2022-08-07T18:35:00Z","duration":"PT39M52S","thumbnail":"https://i.ytimg.com/vi/1ZzbOFqC1d8/mqdefault.jpg","viewCount":"3684","playlistId":"PLEkQk5xrP-tmNuYT8JAh6clwa4krsgkNo","playlistName":"شرح كتاب الفُتُوحات اليُسريَّة في عقائد الأُمَّة المُحمَّديَّة","category":"متنوع"},{"id":"7STAq9AtfI8","title":"285- تكثير الأيدي على الطعام - شرح دليل الفالحين","publishedAt":"2022-08-07T05:45:00Z","duration":"PT46M25S","thumbnail":"https://i.ytimg.com/vi/7STAq9AtfI8/mqdefault.jpg","viewCount":"951","playlistId":"PLEkQk5xrP-tkc9DXvSLguqX5-FYp6ASR4","playlistName":"دليل الفالحين لطرق رياض الصالحين","category":"متنوع"},{"id":"nu84NO3MeS4","title":"هل يجوز قول سيدنا محمد في الأذان والتشهد؟","publishedAt":"2022-08-06T18:00:30Z","duration":"PT17M21S","thumbnail":"https://i.ytimg.com/vi/nu84NO3MeS4/mqdefault.jpg","viewCount":"8256","playlistId":"PLEkQk5xrP-tlArtGpeLWaqNM7h7IDeAVC","playlistName":"خطب الجمعة أ.د. يسري جبر","category":"خطب"},{"id":"Sk2laAh_K0k","title":"16- المعارف الذوقية في الوظيفة الصديقية: شرح الصلاة المشيشية (2)","publishedAt":"2022-08-06T05:47:00Z","duration":"PT13M22S","thumbnail":"https://i.ytimg.com/vi/Sk2laAh_K0k/mqdefault.jpg","viewCount":"3312","playlistId":"PLEkQk5xrP-tkFEtMu56Xb9U9FCZBTXiLf","playlistName":"شرح صلوات الأولياء على خاتم الأنبياء ﷺ","category":"صلوات"},{"id":"UHoHsaANsvE","title":"هل يجوز العمل في السياحة؟","publishedAt":"2022-08-05T18:00:12Z","duration":"PT9M10S","thumbnail":"https://i.ytimg.com/vi/UHoHsaANsvE/mqdefault.jpg","viewCount":"3282","playlistId":"PLEkQk5xrP-tkGXuZ9atE3k_7it12rUPTs","playlistName":"أسئلة المتابعين","category":"متنوع"},{"id":"sxbs47oMkWg","title":"544- الفرق بين (إذا) و (إن) - شرح البرهان في علوم القرآن","publishedAt":"2022-08-05T05:15:01Z","duration":"PT28M32S","thumbnail":"https://i.ytimg.com/vi/sxbs47oMkWg/mqdefault.jpg","viewCount":"523","playlistId":"PLEkQk5xrP-tnW3iBL7HkKziOFCFZbTlf0","playlistName":"شرح البرهان في علوم القرآن - أ.د. يسري جبر","category":"تفسير"},{"id":"AFuroSf7dv8","title":"من هم الأوتاد والأبدال والجرس والنجباء؟","publishedAt":"2022-08-04T18:00:04Z","duration":"PT8M1S","thumbnail":"https://i.ytimg.com/vi/AFuroSf7dv8/mqdefault.jpg","viewCount":"22921","playlistId":"PLEkQk5xrP-tkGXuZ9atE3k_7it12rUPTs","playlistName":"أسئلة المتابعين","category":"متنوع"},{"id":"bHoxCnc9z7A","title":"284- كراهية الأكل مُتَّكِئًا - شرح دليل الفالحين","publishedAt":"2022-08-04T06:15:02Z","duration":"PT40M49S","thumbnail":"https://i.ytimg.com/vi/bHoxCnc9z7A/mqdefault.jpg","viewCount":"734","playlistId":"PLEkQk5xrP-tkc9DXvSLguqX5-FYp6ASR4","playlistName":"دليل الفالحين لطرق رياض الصالحين","category":"متنوع"}],"total":7670,"page":33,"pageSize":24,"totalPages":320}