{"items":[{"id":"sETJKUDWDwU","title":"523- فعل المطاوعة - شرح البرهان في علوم القرآن","publishedAt":"2022-06-07T05:00:15Z","duration":"PT39M52S","thumbnail":"https://i.ytimg.com/vi/sETJKUDWDwU/mqdefault.jpg","viewCount":"871","playlistId":"PLEkQk5xrP-tnW3iBL7HkKziOFCFZbTlf0","playlistName":"شرح البرهان في علوم القرآن - أ.د. يسري جبر","category":"تفسير"},{"id":"k8e0ahrCd10","title":"ربنا نجاني من الموت بفضل حزب البحر!","publishedAt":"2022-06-06T19:09:26Z","duration":"PT9M41S","thumbnail":"https://i.ytimg.com/vi/k8e0ahrCd10/mqdefault.jpg","viewCount":"22738","playlistId":"PLEkQk5xrP-tm8ZIu74nTOZN9KJUJu416J","playlistName":"مقاطع مُهمَّة (يُسريَّات) أ.د. يسري جبر","category":"متنوع"},{"id":"ZadwHDkSY1M","title":"262- وُجوبُ طاعةِ وُلاة الأمور في غير معصيةٍ - شرح دليل الفالحين","publishedAt":"2022-06-06T05:00:21Z","duration":"PT52M55S","thumbnail":"https://i.ytimg.com/vi/ZadwHDkSY1M/mqdefault.jpg","viewCount":"1342","playlistId":"PLEkQk5xrP-tkc9DXvSLguqX5-FYp6ASR4","playlistName":"دليل الفالحين لطرق رياض الصالحين","category":"متنوع"},{"id":"L1r9Y-Cdpks","title":"522- حَسِبَ - كَادَ: ما الفرقُ بينهما؟ - شرح البرهان في علوم القرآن","publishedAt":"2022-06-05T05:00:07Z","duration":"PT31M46S","thumbnail":"https://i.ytimg.com/vi/L1r9Y-Cdpks/mqdefault.jpg","viewCount":"2611","playlistId":"PLEkQk5xrP-tnW3iBL7HkKziOFCFZbTlf0","playlistName":"شرح البرهان في علوم القرآن - أ.د. يسري جبر","category":"تفسير"},{"id":"k79Xmot4NoY","title":"بعد الطلاق,, كيف تتعامل مع أولادك؟","publishedAt":"2022-06-04T19:00:16Z","duration":"PT9M35S","thumbnail":"https://i.ytimg.com/vi/k79Xmot4NoY/mqdefault.jpg","viewCount":"3750","playlistId":"PLEkQk5xrP-tkGXuZ9atE3k_7it12rUPTs","playlistName":"أسئلة المتابعين","category":"متنوع"},{"id":"dLhuQLb2vns","title":"261- الوالي العادل - شرح دليل الفالحين","publishedAt":"2022-06-04T05:15:00Z","duration":"PT37M9S","thumbnail":"https://i.ytimg.com/vi/dLhuQLb2vns/mqdefault.jpg","viewCount":"1136","playlistId":"PLEkQk5xrP-tkc9DXvSLguqX5-FYp6ASR4","playlistName":"دليل الفالحين لطرق رياض الصالحين","category":"متنوع"},{"id":"gnpZk3tIsmE","title":"رسالة إلى كل شاتم ومعترض!","publishedAt":"2022-06-03T19:06:15Z","duration":"PT16M11S","thumbnail":"https://i.ytimg.com/vi/gnpZk3tIsmE/mqdefault.jpg","viewCount":"16322","playlistId":"PLEkQk5xrP-tm8ZIu74nTOZN9KJUJu416J","playlistName":"مقاطع مُهمَّة (يُسريَّات) أ.د. يسري جبر","category":"متنوع"},{"id":"T3XoeuahtC4","title":"521- قوله تعالى \"إِنَّا جَعَلْنَٰهُ قُرْءَٰنًا عَرَبِيًّا\" - شرح البرهان في علوم القرآن","publishedAt":"2022-06-03T05:00:17Z","duration":"PT30M7S","thumbnail":"https://i.ytimg.com/vi/T3XoeuahtC4/mqdefault.jpg","viewCount":"947","playlistId":"PLEkQk5xrP-tnW3iBL7HkKziOFCFZbTlf0","playlistName":"شرح البرهان في علوم القرآن - أ.د. يسري جبر","category":"تفسير"},{"id":"kDaf1MBH_oQ","title":"ما هو سر زيادة الرزق؟","publishedAt":"2022-06-02T18:29:57Z","duration":"PT8M30S","thumbnail":"https://i.ytimg.com/vi/kDaf1MBH_oQ/mqdefault.jpg","viewCount":"29842","playlistId":"PLEkQk5xrP-tm8ZIu74nTOZN9KJUJu416J","playlistName":"مقاطع مُهمَّة (يُسريَّات) أ.د. يسري جبر","category":"متنوع"},{"id":"12fpvY9C46E","title":"260- كُلُّكُمْ رَاعٍ وكُلُّكُمْ مَسْؤُولٌ عن رَعِيَّتِهِ - شرح دليل الفالحين","publishedAt":"2022-06-02T05:00:00Z","duration":"PT59M4S","thumbnail":"https://i.ytimg.com/vi/12fpvY9C46E/mqdefault.jpg","viewCount":"1486","playlistId":"PLEkQk5xrP-tkc9DXvSLguqX5-FYp6ASR4","playlistName":"دليل الفالحين لطرق رياض الصالحين","category":"متنوع"},{"id":"H3gnsEstlBU","title":"هل يجوز الحلف بالنَّبيّ؟","publishedAt":"2022-06-01T17:30:02Z","duration":"PT8M32S","thumbnail":"https://i.ytimg.com/vi/H3gnsEstlBU/mqdefault.jpg","viewCount":"6449","playlistId":"PLEkQk5xrP-tm8ZIu74nTOZN9KJUJu416J","playlistName":"مقاطع مُهمَّة (يُسريَّات) أ.د. يسري جبر","category":"متنوع"},{"id":"37Zui8ESMjs","title":"520- جَعَلَ - خَلَقَ: ما الفرق بينهما؟ - شرح البرهان في علوم القرآن","publishedAt":"2022-06-01T17:00:02Z","duration":"PT29M16S","thumbnail":"https://i.ytimg.com/vi/37Zui8ESMjs/mqdefault.jpg","viewCount":"2694","playlistId":"PLEkQk5xrP-tnW3iBL7HkKziOFCFZbTlf0","playlistName":"شرح البرهان في علوم القرآن - أ.د. يسري جبر","category":"تفسير"},{"id":"HGOyEUvA0Vc","title":"259- الغضب إذا انتُهِكت حُرُمات الشَّرع والانتصار لدين الله تعالى - شرح دليل الفالحين","publishedAt":"2022-06-01T05:00:06Z","duration":"PT43M50S","thumbnail":"https://i.ytimg.com/vi/HGOyEUvA0Vc/mqdefault.jpg","viewCount":"2747","playlistId":"PLEkQk5xrP-tkc9DXvSLguqX5-FYp6ASR4","playlistName":"دليل الفالحين لطرق رياض الصالحين","category":"متنوع"},{"id":"L1TNLagUaVw","title":"519- أحكام بعض الألفاظ التي يكثر دورانها في القرآن - شرح البرهان في علوم القرآن","publishedAt":"2022-05-31T05:05:00Z","duration":"PT41M52S","thumbnail":"https://i.ytimg.com/vi/L1TNLagUaVw/mqdefault.jpg","viewCount":"1219","playlistId":"PLEkQk5xrP-tnW3iBL7HkKziOFCFZbTlf0","playlistName":"شرح البرهان في علوم القرآن - أ.د. يسري جبر","category":"تفسير"},{"id":"2a9pAfFT5io","title":"258- احتمال الأذى - شرح دليل الفالحين","publishedAt":"2022-05-30T18:15:00Z","duration":"PT9M41S","thumbnail":"https://i.ytimg.com/vi/2a9pAfFT5io/mqdefault.jpg","viewCount":"1455","playlistId":"PLEkQk5xrP-tkc9DXvSLguqX5-FYp6ASR4","playlistName":"دليل الفالحين لطرق رياض الصالحين","category":"متنوع"},{"id":"3zj2SKUI6yU","title":"518- العَدد: اسم الفاعل المشتق من العدد له استعمالان - شرح البرهان في علوم القرآن","publishedAt":"2022-05-30T05:15:00Z","duration":"PT25M15S","thumbnail":"https://i.ytimg.com/vi/3zj2SKUI6yU/mqdefault.jpg","viewCount":"729","playlistId":"PLEkQk5xrP-tnW3iBL7HkKziOFCFZbTlf0","playlistName":"شرح البرهان في علوم القرآن - أ.د. يسري جبر","category":"تفسير"},{"id":"1DS6ELyIges","title":"257- العفو والإعراض عن الجاهلين - شرح دليل الفالحين","publishedAt":"2022-05-29T19:40:01Z","duration":"PT44M1S","thumbnail":"https://i.ytimg.com/vi/1DS6ELyIges/mqdefault.jpg","viewCount":"2072","playlistId":"PLEkQk5xrP-tkc9DXvSLguqX5-FYp6ASR4","playlistName":"دليل الفالحين لطرق رياض الصالحين","category":"متنوع"},{"id":"layJ_uS1O6o","title":"517- عطف الشيء على نفسه، عطف بغير أداة عطف، عطف على المضمر إن كان منفصلًا مرفوعًا","publishedAt":"2022-05-29T05:15:00Z","duration":"PT32M26S","thumbnail":"https://i.ytimg.com/vi/layJ_uS1O6o/mqdefault.jpg","viewCount":"937","playlistId":"PLEkQk5xrP-tnW3iBL7HkKziOFCFZbTlf0","playlistName":"شرح البرهان في علوم القرآن - أ.د. يسري جبر","category":"تفسير"},{"id":"6R2zuV0fBW8","title":"256- إنَّ الله كتبَ الإحْسَانَ على كلِّ شيءٍ - شرح دليل الفالحين","publishedAt":"2022-05-28T19:15:00Z","duration":"PT41M47S","thumbnail":"https://i.ytimg.com/vi/6R2zuV0fBW8/mqdefault.jpg","viewCount":"1704","playlistId":"PLEkQk5xrP-tkc9DXvSLguqX5-FYp6ASR4","playlistName":"دليل الفالحين لطرق رياض الصالحين","category":"متنوع"},{"id":"01n9qlovxDw","title":"516- أقسام العطف باعتبار المعطوف: عطف على اللفظ وعطف على الموضع وعطف على التوهم","publishedAt":"2022-05-28T07:05:00Z","duration":"PT33M14S","thumbnail":"https://i.ytimg.com/vi/01n9qlovxDw/mqdefault.jpg","viewCount":"1144","playlistId":"PLEkQk5xrP-tnW3iBL7HkKziOFCFZbTlf0","playlistName":"شرح البرهان في علوم القرآن - أ.د. يسري جبر","category":"تفسير"},{"id":"Pf1PpHL74ic","title":"255 - بَال أَعْرَابيٌّ في المسجِد، فَقَامَ النَّاسُ إِلَيْه لِيَقَعُوا فِيهِ - شرح دليل الفالحين","publishedAt":"2022-05-27T20:45:00Z","duration":"PT31M38S","thumbnail":"https://i.ytimg.com/vi/Pf1PpHL74ic/mqdefault.jpg","viewCount":"1092","playlistId":"PLEkQk5xrP-tkc9DXvSLguqX5-FYp6ASR4","playlistName":"دليل الفالحين لطرق رياض الصالحين","category":"متنوع"},{"id":"cdDSmW2rCZg","title":"515- عطفُ الاسمِ على الاسم - شرح البرهان في علوم القرآن","publishedAt":"2022-05-27T05:15:00Z","duration":"PT31M39S","thumbnail":"https://i.ytimg.com/vi/cdDSmW2rCZg/mqdefault.jpg","viewCount":"638","playlistId":"PLEkQk5xrP-tnW3iBL7HkKziOFCFZbTlf0","playlistName":"شرح البرهان في علوم القرآن - أ.د. يسري جبر","category":"تفسير"},{"id":"Nhsg62vigQw","title":"254- الحِلْمُ والأناة والرِّفْق -  شرح دليل الفالحين","publishedAt":"2022-05-26T20:00:05Z","duration":"PT35M2S","thumbnail":"https://i.ytimg.com/vi/Nhsg62vigQw/mqdefault.jpg","viewCount":"1236","playlistId":"PLEkQk5xrP-tkc9DXvSLguqX5-FYp6ASR4","playlistName":"دليل الفالحين لطرق رياض الصالحين","category":"متنوع"},{"id":"4E9R26UW5PM","title":"514- العطف: أحوال الجملة - شرح البرهان في علوم القرآن","publishedAt":"2022-05-26T05:46:00Z","duration":"PT34M15S","thumbnail":"https://i.ytimg.com/vi/4E9R26UW5PM/mqdefault.jpg","viewCount":"549","playlistId":"PLEkQk5xrP-tnW3iBL7HkKziOFCFZbTlf0","playlistName":"شرح البرهان في علوم القرآن - أ.د. يسري جبر","category":"تفسير"}],"total":7670,"page":150,"pageSize":24,"totalPages":320}