{"items":[{"id":"_o3wJEh2Ka0","title":"برنامج - عصمة الأنبياء - الحلقة السادسة والعشرون -  @alerthTV","publishedAt":"2021-01-30T09:11:33Z","duration":"PT27M52S","thumbnail":"https://i.ytimg.com/vi/_o3wJEh2Ka0/mqdefault.jpg","viewCount":"466","playlistId":"PLEkQk5xrP-tnBp9yUT_R2vtqSPOlcyAZe","playlistName":"برنامج - عصمة الأنبياء","category":"متنوع"},{"id":"a_XYxyRN0Dc","title":"القسم الثاني: الصِّفة تأتي لأسباب: أولا: المدح والثناء، شرح البرهان في علوم القرآن","publishedAt":"2021-01-30T07:00:51Z","duration":"PT14M11S","thumbnail":"https://i.ytimg.com/vi/a_XYxyRN0Dc/mqdefault.jpg","viewCount":"517","playlistId":"PLEkQk5xrP-tnW3iBL7HkKziOFCFZbTlf0","playlistName":"شرح البرهان في علوم القرآن - أ.د. يسري جبر","category":"تفسير"},{"id":"VLjrhAFVe7E","title":"حُكم استخدام صبغة الشعر والحناء والكحل للرجال","publishedAt":"2021-01-29T19:15:00Z","duration":"PT11M16S","thumbnail":"https://i.ytimg.com/vi/VLjrhAFVe7E/mqdefault.jpg","viewCount":"13011","playlistId":"PLEkQk5xrP-tm8ZIu74nTOZN9KJUJu416J","playlistName":"مقاطع مُهمَّة (يُسريَّات) أ.د. يسري جبر","category":"متنوع"},{"id":"rDtAll8Hky8","title":"11-  حقيقةُ النيَّة - شرح حديث\"إِنَّمَا الأَعْمَالُ بِالنِّيَّات، وإِنَّمَا لكُلِّ امْرِئٍ ما نَوَى\"","publishedAt":"2021-01-29T07:01:02Z","duration":"PT37M54S","thumbnail":"https://i.ytimg.com/vi/rDtAll8Hky8/mqdefault.jpg","viewCount":"5627","playlistId":"PLEkQk5xrP-tkc9DXvSLguqX5-FYp6ASR4","playlistName":"دليل الفالحين لطرق رياض الصالحين","category":"متنوع"},{"id":"q_sclrrZ_JY","title":"ما هي الأسرار التي تُكشف للأولياء؟","publishedAt":"2021-01-28T18:36:45Z","duration":"PT10M49S","thumbnail":"https://i.ytimg.com/vi/q_sclrrZ_JY/mqdefault.jpg","viewCount":"121035","playlistId":"PLEkQk5xrP-tm8ZIu74nTOZN9KJUJu416J","playlistName":"مقاطع مُهمَّة (يُسريَّات) أ.د. يسري جبر","category":"متنوع"},{"id":"fiO8_yqXAzE","title":"مؤكِّدات الجُمَل الفعليَّة - (قد - لقد) شرح البرهان في علوم القرآن","publishedAt":"2021-01-28T07:07:32Z","duration":"PT29M12S","thumbnail":"https://i.ytimg.com/vi/fiO8_yqXAzE/mqdefault.jpg","viewCount":"543","playlistId":"PLEkQk5xrP-tnW3iBL7HkKziOFCFZbTlf0","playlistName":"شرح البرهان في علوم القرآن - أ.د. يسري جبر","category":"تفسير"},{"id":"VTy4LmgPB-g","title":"كيف  أحاسب نفسي؟","publishedAt":"2021-01-27T18:55:49Z","duration":"PT9M35S","thumbnail":"https://i.ytimg.com/vi/VTy4LmgPB-g/mqdefault.jpg","viewCount":"21388","playlistId":"PLEkQk5xrP-tm8ZIu74nTOZN9KJUJu416J","playlistName":"مقاطع مُهمَّة (يُسريَّات) أ.د. يسري جبر","category":"متنوع"},{"id":"BXq8WyWC94Q","title":"10- تكملة شرح حديث \"إِنَّمَا الأَعْمَالُ بِالنِّيَّاتِ، وَإِنَّمَا لِكُلِّ امْرِئٍ مَا نَوَى\"","publishedAt":"2021-01-27T07:14:19Z","duration":"PT32M10S","thumbnail":"https://i.ytimg.com/vi/BXq8WyWC94Q/mqdefault.jpg","viewCount":"3460","playlistId":"PLEkQk5xrP-tkc9DXvSLguqX5-FYp6ASR4","playlistName":"دليل الفالحين لطرق رياض الصالحين","category":"متنوع"},{"id":"-3uKNiTQYZk","title":"(هاء) التنبيه - من أدوات التأكيد\"مؤكِّدات الجُمَل الإسميَّة\" شرح البرهان في علوم القرآن","publishedAt":"2021-01-26T08:18:03Z","duration":"PT18M14S","thumbnail":"https://i.ytimg.com/vi/-3uKNiTQYZk/mqdefault.jpg","viewCount":"690","playlistId":"PLEkQk5xrP-tnW3iBL7HkKziOFCFZbTlf0","playlistName":"شرح البرهان في علوم القرآن - أ.د. يسري جبر","category":"تفسير"},{"id":"YEsbag9lF-I","title":"9- شرح حديث \"إِنَّمَا الأَعْمَالُ بِالنِّيَّاتِ، وَإِنَّمَا لِكُلِّ امْرِئٍ مَا نَوَى\"","publishedAt":"2021-01-25T19:44:22Z","duration":"PT37M38S","thumbnail":"https://i.ytimg.com/vi/YEsbag9lF-I/mqdefault.jpg","viewCount":"7393","playlistId":"PLEkQk5xrP-tkc9DXvSLguqX5-FYp6ASR4","playlistName":"دليل الفالحين لطرق رياض الصالحين","category":"متنوع"},{"id":"HUbiv3AelvU","title":"تصدير الجملة بضمير مبتدأ يفيد التأكيد - أدوات التوكيد - شرح البرهان في علوم القرآن أ.د. يسري جبر","publishedAt":"2021-01-25T07:17:45Z","duration":"PT25M44S","thumbnail":"https://i.ytimg.com/vi/HUbiv3AelvU/mqdefault.jpg","viewCount":"483","playlistId":"PLEkQk5xrP-tnW3iBL7HkKziOFCFZbTlf0","playlistName":"شرح البرهان في علوم القرآن - أ.د. يسري جبر","category":"تفسير"},{"id":"zSL-WBrEQyM","title":"8- الإخلاص وإحضار النية في جميع الأعمال... شرح دليل الفالحين أ.د. يسري جبر","publishedAt":"2021-01-24T06:56:29Z","duration":"PT29M28S","thumbnail":"https://i.ytimg.com/vi/zSL-WBrEQyM/mqdefault.jpg","viewCount":"7633","playlistId":"PLEkQk5xrP-tkc9DXvSLguqX5-FYp6ASR4","playlistName":"دليل الفالحين لطرق رياض الصالحين","category":"متنوع"},{"id":"dPY1pIuR3MQ","title":"صفات الله عز وجل","publishedAt":"2021-01-23T18:12:26Z","duration":"PT9M12S","thumbnail":"https://i.ytimg.com/vi/dPY1pIuR3MQ/mqdefault.jpg","viewCount":"6919","playlistId":"PLEkQk5xrP-tlArtGpeLWaqNM7h7IDeAVC","playlistName":"خطب الجمعة أ.د. يسري جبر","category":"خطب"},{"id":"ZtNG-vNgVZE","title":"أدوات التوكيد - تأكيد الضمير - شرح البرهان في علوم القرآن أ.د. يسري جبر","publishedAt":"2021-01-23T07:53:17Z","duration":"PT10M35S","thumbnail":"https://i.ytimg.com/vi/ZtNG-vNgVZE/mqdefault.jpg","viewCount":"472","playlistId":"PLEkQk5xrP-tnW3iBL7HkKziOFCFZbTlf0","playlistName":"شرح البرهان في علوم القرآن - أ.د. يسري جبر","category":"تفسير"},{"id":"WD2xPNnPyvo","title":"صحيح الإمام البخاري رضي الله عنه -كتاب القدر (2) د.يسري جبر","publishedAt":"2017-10-14T01:26:26Z","duration":"PT1H5M59S","thumbnail":"https://i.ytimg.com/vi/WD2xPNnPyvo/mqdefault.jpg","viewCount":"510","playlistId":"PLEkQk5xrP-tmJuzaj4GWRenFoFx9gdbFX","playlistName":"شرح كتاب صحيح الإمام البخاري رضي الله تعالى عنه   أ.د. يسرى جبر","category":"حديث"},{"id":"LIrqLXtHRJ4","title":"مجموعة الشمائل المحمدية - كتاب أسماء النبي صلى الله عليه وآله وسلم وكناه - المجلس الثاني","publishedAt":"2017-10-13T19:24:40Z","duration":"PT54M51S","thumbnail":"https://i.ytimg.com/vi/LIrqLXtHRJ4/mqdefault.jpg","viewCount":"897","playlistId":"PLEkQk5xrP-tloQiuCfhC2DE160-EZBhdz","playlistName":"مجموعة الشمائل المحمدية","category":"سيرة"},{"id":"IdhIhH_wjik","title":"شرح صحيح البخاري - كتاب أحاديث الأنبياء من باب ٣٧","publishedAt":"2017-10-12T20:20:20Z","duration":"PT35M41S","thumbnail":"https://i.ytimg.com/vi/IdhIhH_wjik/mqdefault.jpg","viewCount":"590","playlistId":"PLEkQk5xrP-tlEerGoLa1AFy-2XvQ-sovv","playlistName":"شرح صحيح البخاري - أ.د. يسري جبر (كاملا)","category":"حديث"},{"id":"F0nH6JBwVcw","title":"مقرأة سورة الكهف من أولها","publishedAt":"2017-10-12T15:50:26Z","duration":"PT13M23S","thumbnail":"https://i.ytimg.com/vi/F0nH6JBwVcw/mqdefault.jpg","viewCount":"2363","playlistId":"PLEkQk5xrP-tnmTYsyW6xNdyfhPq0Bhrhj","playlistName":"مقرأة الفجر - القُرْآنُ الكَرِيمُ - خَتْمَةُ التَّدَبُّرِ  أ.د. يسري جبر","category":"متنوع"},{"id":"SJy2x1fGIrM","title":"شرح صحيح البخاري - كتاب أحاديث الأنبياء من باب ٣١","publishedAt":"2017-10-11T18:15:39Z","duration":"PT39M29S","thumbnail":"https://i.ytimg.com/vi/SJy2x1fGIrM/mqdefault.jpg","viewCount":"630","playlistId":"PLEkQk5xrP-tlEerGoLa1AFy-2XvQ-sovv","playlistName":"شرح صحيح البخاري - أ.د. يسري جبر (كاملا)","category":"حديث"},{"id":"BeCumXntnuE","title":"مقرأة سورة الإسراء من آية ١٠١","publishedAt":"2017-10-11T12:03:40Z","duration":"PT29M22S","thumbnail":"https://i.ytimg.com/vi/BeCumXntnuE/mqdefault.jpg","viewCount":"359","playlistId":"PLEkQk5xrP-tnmTYsyW6xNdyfhPq0Bhrhj","playlistName":"مقرأة الفجر - القُرْآنُ الكَرِيمُ - خَتْمَةُ التَّدَبُّرِ  أ.د. يسري جبر","category":"متنوع"},{"id":"vtbD9F7N4ME","title":"شرح صحيح البخاري - كتاب أحاديث الأنبياء من باب ٢٩","publishedAt":"2017-10-10T16:59:17Z","duration":"PT35M20S","thumbnail":"https://i.ytimg.com/vi/vtbD9F7N4ME/mqdefault.jpg","viewCount":"606","playlistId":"PLEkQk5xrP-tlEerGoLa1AFy-2XvQ-sovv","playlistName":"شرح صحيح البخاري - أ.د. يسري جبر (كاملا)","category":"حديث"},{"id":"SCmDbZpZ_pw","title":"صحيح الإمام البخاري رضي الله عنه -كتاب القدر (1) د.يسري جبر","publishedAt":"2017-10-10T12:30:17Z","duration":"PT34M1S","thumbnail":"https://i.ytimg.com/vi/SCmDbZpZ_pw/mqdefault.jpg","viewCount":"1480","playlistId":"PLEkQk5xrP-tmJuzaj4GWRenFoFx9gdbFX","playlistName":"شرح كتاب صحيح الإمام البخاري رضي الله تعالى عنه   أ.د. يسرى جبر","category":"حديث"},{"id":"ZXDdTv1-LsE","title":"مقرأة سورة الإسراء من آية ٩٥","publishedAt":"2017-10-10T11:11:47Z","duration":"PT21M38S","thumbnail":"https://i.ytimg.com/vi/ZXDdTv1-LsE/mqdefault.jpg","viewCount":"335","playlistId":"PLEkQk5xrP-tnmTYsyW6xNdyfhPq0Bhrhj","playlistName":"مقرأة الفجر - القُرْآنُ الكَرِيمُ - خَتْمَةُ التَّدَبُّرِ  أ.د. يسري جبر","category":"متنوع"},{"id":"CuSmFlKmEFA","title":"شرح صحيح البخاري - كتاب أحاديث الأنبياء من باب ٢٧","publishedAt":"2017-10-09T14:10:20Z","duration":"PT31M14S","thumbnail":"https://i.ytimg.com/vi/CuSmFlKmEFA/mqdefault.jpg","viewCount":"621","playlistId":"PLEkQk5xrP-tlEerGoLa1AFy-2XvQ-sovv","playlistName":"شرح صحيح البخاري - أ.د. يسري جبر (كاملا)","category":"حديث"}],"total":7670,"page":89,"pageSize":24,"totalPages":320}