{"items":[{"id":"k62LIGPhFVM","title":"شرح صحيح البخاري - كتاب البيوع من باب ١٠١","publishedAt":"2017-05-05T20:33:48Z","duration":"PT44M59S","thumbnail":"https://i.ytimg.com/vi/k62LIGPhFVM/mqdefault.jpg","viewCount":"934","playlistId":"PLEkQk5xrP-tlEerGoLa1AFy-2XvQ-sovv","playlistName":"شرح صحيح البخاري - أ.د. يسري جبر (كاملا)","category":"حديث"},{"id":"PyXKrsYiqfM","title":"الحَدَاثةُ وأثرها في الواقع المُعَاش     د. يسري جبر","publishedAt":"2017-05-05T19:40:05Z","duration":"PT47M24S","thumbnail":"https://i.ytimg.com/vi/PyXKrsYiqfM/mqdefault.jpg","viewCount":"1828","playlistId":"PLEkQk5xrP-tlArtGpeLWaqNM7h7IDeAVC","playlistName":"خطب الجمعة أ.د. يسري جبر","category":"خطب"},{"id":"fX0mr2O0x5Q","title":"مقرأة سورة التوبة من آية ١٢٠","publishedAt":"2017-05-05T18:45:28Z","duration":"PT11M17S","thumbnail":"https://i.ytimg.com/vi/fX0mr2O0x5Q/mqdefault.jpg","viewCount":"331","playlistId":"PLEkQk5xrP-tnmTYsyW6xNdyfhPq0Bhrhj","playlistName":"مقرأة الفجر - القُرْآنُ الكَرِيمُ - خَتْمَةُ التَّدَبُّرِ  أ.د. يسري جبر","category":"متنوع"},{"id":"IJValUpcEjc","title":"عنايتُه فيك لا لشيء منك، وأين كنت حين واجهتْك عنايتُه، وقابلتْك رعايتُه","publishedAt":"2017-05-04T19:50:50Z","duration":"PT4M57S","thumbnail":"https://i.ytimg.com/vi/IJValUpcEjc/mqdefault.jpg","viewCount":"2521","playlistId":"PLEkQk5xrP-tkI_meE148wc7V7XHlB0WPb","playlistName":"من الحكم العطائية  د. يسري جبر","category":"متنوع"},{"id":"1L6hZffZvus","title":"كيف يكون طلبك اللاحق سببا في عطائه السابق","publishedAt":"2017-05-04T15:42:38Z","duration":"PT8M34S","thumbnail":"https://i.ytimg.com/vi/1L6hZffZvus/mqdefault.jpg","viewCount":"1663","playlistId":"PLEkQk5xrP-tkI_meE148wc7V7XHlB0WPb","playlistName":"من الحكم العطائية  د. يسري جبر","category":"متنوع"},{"id":"9nsBzOa8Cgs","title":"شرح صحيح البخاري - كتاب البيوع من باب ٩٦","publishedAt":"2017-05-04T15:27:43Z","duration":"PT40M27S","thumbnail":"https://i.ytimg.com/vi/9nsBzOa8Cgs/mqdefault.jpg","viewCount":"792","playlistId":"PLEkQk5xrP-tlEerGoLa1AFy-2XvQ-sovv","playlistName":"شرح صحيح البخاري - أ.د. يسري جبر (كاملا)","category":"حديث"},{"id":"kVAZagR6_i8","title":"مقرأة سورة التوبة من آية ١١٦","publishedAt":"2017-05-04T09:21:09Z","duration":"PT14M19S","thumbnail":"https://i.ytimg.com/vi/kVAZagR6_i8/mqdefault.jpg","viewCount":"274","playlistId":"PLEkQk5xrP-tnmTYsyW6xNdyfhPq0Bhrhj","playlistName":"مقرأة الفجر - القُرْآنُ الكَرِيمُ - خَتْمَةُ التَّدَبُّرِ  أ.د. يسري جبر","category":"متنوع"},{"id":"XiS3BrS-COo","title":"شرح صحيح البخاري - كتاب البيوع من باب ٨٥","publishedAt":"2017-05-03T14:13:48Z","duration":"PT38M","thumbnail":"https://i.ytimg.com/vi/XiS3BrS-COo/mqdefault.jpg","viewCount":"802","playlistId":"PLEkQk5xrP-tlEerGoLa1AFy-2XvQ-sovv","playlistName":"شرح صحيح البخاري - أ.د. يسري جبر (كاملا)","category":"حديث"},{"id":"v3-1_RzOC5M","title":"مقرأة سورة التوبة من آية ١١١","publishedAt":"2017-05-03T10:51:04Z","duration":"PT17M22S","thumbnail":"https://i.ytimg.com/vi/v3-1_RzOC5M/mqdefault.jpg","viewCount":"368","playlistId":"PLEkQk5xrP-tnmTYsyW6xNdyfhPq0Bhrhj","playlistName":"مقرأة الفجر - القُرْآنُ الكَرِيمُ - خَتْمَةُ التَّدَبُّرِ  أ.د. يسري جبر","category":"متنوع"},{"id":"Yn23Mav9hlk","title":"لا يكن طلبك تسببا إلى العطاء منه، فيقل فهمك عنه، وليكن طلبك لإظهار العبودية، وقياما بحقوق الربوبية.","publishedAt":"2017-05-02T20:46:22Z","duration":"PT5M40S","thumbnail":"https://i.ytimg.com/vi/Yn23Mav9hlk/mqdefault.jpg","viewCount":"1342","playlistId":"PLEkQk5xrP-tkI_meE148wc7V7XHlB0WPb","playlistName":"من الحكم العطائية  د. يسري جبر","category":"متنوع"},{"id":"t5StMhXfILU","title":"نظرة ومدد يا رسول الله د. يسري جبر","publishedAt":"2017-05-02T20:27:30Z","duration":"PT1M44S","thumbnail":"https://i.ytimg.com/vi/t5StMhXfILU/mqdefault.jpg","viewCount":"3717","playlistId":"PLEkQk5xrP-tm8ZIu74nTOZN9KJUJu416J","playlistName":"مقاطع مُهمَّة (يُسريَّات) أ.د. يسري جبر","category":"متنوع"},{"id":"dt-0zpKinXA","title":"شرح صحيح الإمام البخاري رضي الله عنه - كتاب الدعوات (الدعاء بعد الصلاة)المجلس الثالث د. يسري جبر","publishedAt":"2017-05-02T20:25:10Z","duration":"PT54M24S","thumbnail":"https://i.ytimg.com/vi/dt-0zpKinXA/mqdefault.jpg","viewCount":"361","playlistId":"PLEkQk5xrP-tmJuzaj4GWRenFoFx9gdbFX","playlistName":"شرح كتاب صحيح الإمام البخاري رضي الله تعالى عنه   أ.د. يسرى جبر","category":"حديث"},{"id":"i3605Piy6y8","title":"شرح صحيح البخاري - كتاب البيوع من باب ٧٦","publishedAt":"2017-05-02T16:08:44Z","duration":"PT30M14S","thumbnail":"https://i.ytimg.com/vi/i3605Piy6y8/mqdefault.jpg","viewCount":"764","playlistId":"PLEkQk5xrP-tlEerGoLa1AFy-2XvQ-sovv","playlistName":"شرح صحيح البخاري - أ.د. يسري جبر (كاملا)","category":"حديث"},{"id":"6N0sHp6h1Pc","title":"مقرأة سورة التوبة من آية ١٠٧","publishedAt":"2017-05-02T10:42:21Z","duration":"PT36M4S","thumbnail":"https://i.ytimg.com/vi/6N0sHp6h1Pc/mqdefault.jpg","viewCount":"367","playlistId":"PLEkQk5xrP-tnmTYsyW6xNdyfhPq0Bhrhj","playlistName":"مقرأة الفجر - القُرْآنُ الكَرِيمُ - خَتْمَةُ التَّدَبُّرِ  أ.د. يسري جبر","category":"متنوع"},{"id":"MAQ0N50uRI8","title":"شرح صحيح البخاري - كتاب البيوع من باب ٦٧","publishedAt":"2017-05-01T19:47:17Z","duration":"PT37M50S","thumbnail":"https://i.ytimg.com/vi/MAQ0N50uRI8/mqdefault.jpg","viewCount":"774","playlistId":"PLEkQk5xrP-tlEerGoLa1AFy-2XvQ-sovv","playlistName":"شرح صحيح البخاري - أ.د. يسري جبر (كاملا)","category":"حديث"},{"id":"MwUUR4-x-B8","title":"مقرأة سورة التوبة من آية ١٠١","publishedAt":"2017-05-01T10:49:58Z","duration":"PT17M46S","thumbnail":"https://i.ytimg.com/vi/MwUUR4-x-B8/mqdefault.jpg","viewCount":"333","playlistId":"PLEkQk5xrP-tnmTYsyW6xNdyfhPq0Bhrhj","playlistName":"مقرأة الفجر - القُرْآنُ الكَرِيمُ - خَتْمَةُ التَّدَبُّرِ  أ.د. يسري جبر","category":"متنوع"},{"id":"cQs7QATmk1E","title":"صحيح الإمام البخاري رضي الله عنه كتاب الدعوات (التكبير والتسبيح عند المنام)المجلس الثاني د. يسري جبر","publishedAt":"2017-05-01T09:41:23Z","duration":"PT34M38S","thumbnail":"https://i.ytimg.com/vi/cQs7QATmk1E/mqdefault.jpg","viewCount":"294","playlistId":"PLEkQk5xrP-tmJuzaj4GWRenFoFx9gdbFX","playlistName":"شرح كتاب صحيح الإمام البخاري رضي الله تعالى عنه   أ.د. يسرى جبر","category":"حديث"},{"id":"z4DjMTDnow8","title":"شرح صحيح البخاري - كتاب البيوع من باب ٥٩","publishedAt":"2017-04-30T20:17:49Z","duration":"PT42M29S","thumbnail":"https://i.ytimg.com/vi/z4DjMTDnow8/mqdefault.jpg","viewCount":"829","playlistId":"PLEkQk5xrP-tlEerGoLa1AFy-2XvQ-sovv","playlistName":"شرح صحيح البخاري - أ.د. يسري جبر (كاملا)","category":"حديث"},{"id":"xo7KOqPliWY","title":"مقرأة سورة التوبة من آية ٩٧","publishedAt":"2017-04-30T10:45:48Z","duration":"PT12M28S","thumbnail":"https://i.ytimg.com/vi/xo7KOqPliWY/mqdefault.jpg","viewCount":"292","playlistId":"PLEkQk5xrP-tnmTYsyW6xNdyfhPq0Bhrhj","playlistName":"مقرأة الفجر - القُرْآنُ الكَرِيمُ - خَتْمَةُ التَّدَبُّرِ  أ.د. يسري جبر","category":"متنوع"},{"id":"lukTm5qnLbs","title":"إنما حجب الحقَّ عنك، شدة قربه منك - إنما احتجب لشدة ظهوره، وخفي عن الأبصار لعظيم نوره","publishedAt":"2017-04-29T19:05:31Z","duration":"PT9M47S","thumbnail":"https://i.ytimg.com/vi/lukTm5qnLbs/mqdefault.jpg","viewCount":"6887","playlistId":"PLEkQk5xrP-tkI_meE148wc7V7XHlB0WPb","playlistName":"من الحكم العطائية  د. يسري جبر","category":"متنوع"},{"id":"--oc4y51OH0","title":"شرح صحيح البخاري - كتاب البيوع من باب ٥٠","publishedAt":"2017-04-29T17:04:24Z","duration":"PT48M52S","thumbnail":"https://i.ytimg.com/vi/--oc4y51OH0/mqdefault.jpg","viewCount":"1004","playlistId":"PLEkQk5xrP-tlEerGoLa1AFy-2XvQ-sovv","playlistName":"شرح صحيح البخاري - أ.د. يسري جبر (كاملا)","category":"حديث"},{"id":"-SmPC2JUTTI","title":"شرح كتاب نوراليقين في سيرة سيد المرسلين - المجلس الثامن ( الجهر بالتبليغ )   د.يسري جبر","publishedAt":"2017-04-29T15:37:30Z","duration":"PT46M51S","thumbnail":"https://i.ytimg.com/vi/-SmPC2JUTTI/mqdefault.jpg","viewCount":"33819","playlistId":"PLEkQk5xrP-tl2t4NQx1IhKnAJCMzF0Nli","playlistName":"شرح كتاب نور اليقين في سيرة سيد المرسلين   د. يسري جبر","category":"سيرة"},{"id":"1wMZyhy8AgY","title":"سورة التوبة آية 93","publishedAt":"2017-04-29T11:46:15Z","duration":"PT8M46S","thumbnail":"https://i.ytimg.com/vi/1wMZyhy8AgY/mqdefault.jpg","viewCount":"279","playlistId":"PLEkQk5xrP-tnmTYsyW6xNdyfhPq0Bhrhj","playlistName":"مقرأة الفجر - القُرْآنُ الكَرِيمُ - خَتْمَةُ التَّدَبُّرِ  أ.د. يسري جبر","category":"متنوع"},{"id":"ZVN5ZZpVJMk","title":"الاحتفال بمولد السيدة زينب رضي الله تعالى عنها، واستقبال شعبان     د. يسري جبر","publishedAt":"2017-04-28T19:30:28Z","duration":"PT33M55S","thumbnail":"https://i.ytimg.com/vi/ZVN5ZZpVJMk/mqdefault.jpg","viewCount":"10490","playlistId":"PLEkQk5xrP-tlArtGpeLWaqNM7h7IDeAVC","playlistName":"خطب الجمعة أ.د. يسري جبر","category":"خطب"}],"total":7670,"page":81,"pageSize":24,"totalPages":320}