{"items":[{"id":"-2rJpwbnUf8","title":"صحيح الإمام البخاري رضي الله عنه - كتاب الطب المجلس السادس د. يسري جبر","publishedAt":"2016-08-22T20:49:05Z","duration":"PT55M57S","thumbnail":"https://i.ytimg.com/vi/-2rJpwbnUf8/mqdefault.jpg","viewCount":"179","playlistId":"PLEkQk5xrP-tmJuzaj4GWRenFoFx9gdbFX","playlistName":"شرح كتاب صحيح الإمام البخاري رضي الله تعالى عنه   أ.د. يسرى جبر","category":"حديث"},{"id":"s_8Dy6cHKoM","title":"سورة النساء آية 43","publishedAt":"2016-08-22T07:40:54Z","duration":"PT32M52S","thumbnail":"https://i.ytimg.com/vi/s_8Dy6cHKoM/mqdefault.jpg","viewCount":"510","playlistId":"PLEkQk5xrP-tnmTYsyW6xNdyfhPq0Bhrhj","playlistName":"مقرأة الفجر - القُرْآنُ الكَرِيمُ - خَتْمَةُ التَّدَبُّرِ  أ.د. يسري جبر","category":"متنوع"},{"id":"nTAc6gGvMbg","title":"شرح صحيح البخاري ( كتاب العلم مجلس ٧ )","publishedAt":"2016-08-22T07:32:01Z","duration":"PT23M47S","thumbnail":"https://i.ytimg.com/vi/nTAc6gGvMbg/mqdefault.jpg","viewCount":"1929","playlistId":"PLEkQk5xrP-tlEerGoLa1AFy-2XvQ-sovv","playlistName":"شرح صحيح البخاري - أ.د. يسري جبر (كاملا)","category":"حديث"},{"id":"VAP_69X7QJ4","title":"شرح صحيح البخاري ( كتاب العلم مجلس ٦ )","publishedAt":"2016-08-21T10:15:01Z","duration":"PT33M58S","thumbnail":"https://i.ytimg.com/vi/VAP_69X7QJ4/mqdefault.jpg","viewCount":"2095","playlistId":"PLEkQk5xrP-tlEerGoLa1AFy-2XvQ-sovv","playlistName":"شرح صحيح البخاري - أ.د. يسري جبر (كاملا)","category":"حديث"},{"id":"lKc8hCSCc5k","title":"سورة النساء آية 36","publishedAt":"2016-08-21T07:39:58Z","duration":"PT23M12S","thumbnail":"https://i.ytimg.com/vi/lKc8hCSCc5k/mqdefault.jpg","viewCount":"536","playlistId":"PLEkQk5xrP-tnmTYsyW6xNdyfhPq0Bhrhj","playlistName":"مقرأة الفجر - القُرْآنُ الكَرِيمُ - خَتْمَةُ التَّدَبُّرِ  أ.د. يسري جبر","category":"متنوع"},{"id":"i8I_f0Gw0Ik","title":"العلم قبل العمل  د. يسري جبر","publishedAt":"2016-08-20T20:06:44Z","duration":"PT39M31S","thumbnail":"https://i.ytimg.com/vi/i8I_f0Gw0Ik/mqdefault.jpg","viewCount":"1061","playlistId":"PLEkQk5xrP-tlArtGpeLWaqNM7h7IDeAVC","playlistName":"خطب الجمعة أ.د. يسري جبر","category":"خطب"},{"id":"6dWH6zFxH2Q","title":"صحيح الإمام البخاري رضي الله عنه - كتاب الطب المجلس الخامس د. يسري جبر","publishedAt":"2016-08-20T18:50:22Z","duration":"PT44M37S","thumbnail":"https://i.ytimg.com/vi/6dWH6zFxH2Q/mqdefault.jpg","viewCount":"148","playlistId":"PLEkQk5xrP-tmJuzaj4GWRenFoFx9gdbFX","playlistName":"شرح كتاب صحيح الإمام البخاري رضي الله تعالى عنه   أ.د. يسرى جبر","category":"حديث"},{"id":"hUwcQW_IxvQ","title":"شرح صحيح البخاري ( كتاب العلم مجلس ٥ )","publishedAt":"2016-08-20T07:28:44Z","duration":"PT36M5S","thumbnail":"https://i.ytimg.com/vi/hUwcQW_IxvQ/mqdefault.jpg","viewCount":"2390","playlistId":"PLEkQk5xrP-tlEerGoLa1AFy-2XvQ-sovv","playlistName":"شرح صحيح البخاري - أ.د. يسري جبر (كاملا)","category":"حديث"},{"id":"VRJoiZYLxRc","title":"صحيح الإمام البخاري رضي الله عنه - كتاب الطب المجلس الرابع د. يسري جبر","publishedAt":"2016-08-20T07:17:43Z","duration":"PT1H13M33S","thumbnail":"https://i.ytimg.com/vi/VRJoiZYLxRc/mqdefault.jpg","viewCount":"83","playlistId":"PLEkQk5xrP-tmJuzaj4GWRenFoFx9gdbFX","playlistName":"شرح كتاب صحيح الإمام البخاري رضي الله تعالى عنه   أ.د. يسرى جبر","category":"حديث"},{"id":"0qg9itl3xTs","title":"سورة النساء آية 32","publishedAt":"2016-08-20T06:28:12Z","duration":"PT24M6S","thumbnail":"https://i.ytimg.com/vi/0qg9itl3xTs/mqdefault.jpg","viewCount":"581","playlistId":"PLEkQk5xrP-tnmTYsyW6xNdyfhPq0Bhrhj","playlistName":"مقرأة الفجر - القُرْآنُ الكَرِيمُ - خَتْمَةُ التَّدَبُّرِ  أ.د. يسري جبر","category":"متنوع"},{"id":"zN8iLmR8j8g","title":"صحيح الإمام البخاري رضي الله عنه - كتاب الطب المجلس الثالث د. يسري جبر","publishedAt":"2016-08-19T19:39:09Z","duration":"PT53M4S","thumbnail":"https://i.ytimg.com/vi/zN8iLmR8j8g/mqdefault.jpg","viewCount":"118","playlistId":"PLEkQk5xrP-tmJuzaj4GWRenFoFx9gdbFX","playlistName":"شرح كتاب صحيح الإمام البخاري رضي الله تعالى عنه   أ.د. يسرى جبر","category":"حديث"},{"id":"XqdyHLOeLBE","title":"شرح صحيح البخاري ( كتاب العلم مجلس ٤ )","publishedAt":"2016-08-19T16:26:40Z","duration":"PT35M12S","thumbnail":"https://i.ytimg.com/vi/XqdyHLOeLBE/mqdefault.jpg","viewCount":"2495","playlistId":"PLEkQk5xrP-tlEerGoLa1AFy-2XvQ-sovv","playlistName":"شرح صحيح البخاري - أ.د. يسري جبر (كاملا)","category":"حديث"},{"id":"LlxH1Z-qUzE","title":"سورة النساء آية 29","publishedAt":"2016-08-19T15:29:07Z","duration":"PT18M40S","thumbnail":"https://i.ytimg.com/vi/LlxH1Z-qUzE/mqdefault.jpg","viewCount":"509","playlistId":"PLEkQk5xrP-tnmTYsyW6xNdyfhPq0Bhrhj","playlistName":"مقرأة الفجر - القُرْآنُ الكَرِيمُ - خَتْمَةُ التَّدَبُّرِ  أ.د. يسري جبر","category":"متنوع"},{"id":"rZLNut4EHS0","title":"شرح صحيح البخاري ( كتاب العلم مجلس ٣ )","publishedAt":"2016-08-18T08:07:07Z","duration":"PT34M35S","thumbnail":"https://i.ytimg.com/vi/rZLNut4EHS0/mqdefault.jpg","viewCount":"2465","playlistId":"PLEkQk5xrP-tlEerGoLa1AFy-2XvQ-sovv","playlistName":"شرح صحيح البخاري - أ.د. يسري جبر (كاملا)","category":"حديث"},{"id":"zfREUOXGE80","title":"سورة النساء آية 25","publishedAt":"2016-08-18T07:14:16Z","duration":"PT26M14S","thumbnail":"https://i.ytimg.com/vi/zfREUOXGE80/mqdefault.jpg","viewCount":"546","playlistId":"PLEkQk5xrP-tnmTYsyW6xNdyfhPq0Bhrhj","playlistName":"مقرأة الفجر - القُرْآنُ الكَرِيمُ - خَتْمَةُ التَّدَبُّرِ  أ.د. يسري جبر","category":"متنوع"},{"id":"Eqw5fw_Xsjo","title":"الاستقامة  د.يسري جبر","publishedAt":"2016-08-17T19:14:06Z","duration":"PT39M21S","thumbnail":"https://i.ytimg.com/vi/Eqw5fw_Xsjo/mqdefault.jpg","viewCount":"788","playlistId":"PLEkQk5xrP-tlArtGpeLWaqNM7h7IDeAVC","playlistName":"خطب الجمعة أ.د. يسري جبر","category":"خطب"},{"id":"q4_0PNDmmng","title":"شرح صحيح البخاري ( كتاب العلم مجلس ٢ )","publishedAt":"2016-08-17T06:40:40Z","duration":"PT33M57S","thumbnail":"https://i.ytimg.com/vi/q4_0PNDmmng/mqdefault.jpg","viewCount":"2829","playlistId":"PLEkQk5xrP-tlEerGoLa1AFy-2XvQ-sovv","playlistName":"شرح صحيح البخاري - أ.د. يسري جبر (كاملا)","category":"حديث"},{"id":"A24_NLpMrk4","title":"سورة النساء آية 24","publishedAt":"2016-08-17T05:56:13Z","duration":"PT10M7S","thumbnail":"https://i.ytimg.com/vi/A24_NLpMrk4/mqdefault.jpg","viewCount":"563","playlistId":"PLEkQk5xrP-tnmTYsyW6xNdyfhPq0Bhrhj","playlistName":"مقرأة الفجر - القُرْآنُ الكَرِيمُ - خَتْمَةُ التَّدَبُّرِ  أ.د. يسري جبر","category":"متنوع"},{"id":"3ldOGvtcppw","title":"21- الْقُنُوتِ فِى الصُّبْحِ ك قصرالصلاة فى السفر ك الموطأ د يسري جبر الأزهري","publishedAt":"2016-08-16T13:09:36Z","duration":"PT44M6S","thumbnail":"https://i.ytimg.com/vi/3ldOGvtcppw/mqdefault.jpg","viewCount":"576","playlistId":"PLEkQk5xrP-tnC6BRuqMjyO-484iqXeg0o","playlistName":"شرح كتاب الموطأ للإمام مالك","category":"متنوع"},{"id":"D3eyfBYeFmw","title":"شرح صحيح البخاري ( كتاب العلم  مجلس ١ )","publishedAt":"2016-08-16T08:12:45Z","duration":"PT35M56S","thumbnail":"https://i.ytimg.com/vi/D3eyfBYeFmw/mqdefault.jpg","viewCount":"3110","playlistId":"PLEkQk5xrP-tlEerGoLa1AFy-2XvQ-sovv","playlistName":"شرح صحيح البخاري - أ.د. يسري جبر (كاملا)","category":"حديث"},{"id":"jKf1b-gG6VY","title":"سورة النساء آية 23","publishedAt":"2016-08-16T06:25:23Z","duration":"PT13M26S","thumbnail":"https://i.ytimg.com/vi/jKf1b-gG6VY/mqdefault.jpg","viewCount":"509","playlistId":"PLEkQk5xrP-tnmTYsyW6xNdyfhPq0Bhrhj","playlistName":"مقرأة الفجر - القُرْآنُ الكَرِيمُ - خَتْمَةُ التَّدَبُّرِ  أ.د. يسري جبر","category":"متنوع"},{"id":"q1c9cQS43Bk","title":"سورة النساء آية 19","publishedAt":"2016-08-15T09:11:06Z","duration":"PT21M","thumbnail":"https://i.ytimg.com/vi/q1c9cQS43Bk/mqdefault.jpg","viewCount":"639","playlistId":"PLEkQk5xrP-tnmTYsyW6xNdyfhPq0Bhrhj","playlistName":"مقرأة الفجر - القُرْآنُ الكَرِيمُ - خَتْمَةُ التَّدَبُّرِ  أ.د. يسري جبر","category":"متنوع"},{"id":"lrpVtxDNPlk","title":"شرح صحيح البخاري (  اخر مجلس في كتاب الايمان مجلس ٧ )","publishedAt":"2016-08-15T07:38:06Z","duration":"PT41M17S","thumbnail":"https://i.ytimg.com/vi/lrpVtxDNPlk/mqdefault.jpg","viewCount":"2863","playlistId":"PLEkQk5xrP-tlEerGoLa1AFy-2XvQ-sovv","playlistName":"شرح صحيح البخاري - أ.د. يسري جبر (كاملا)","category":"حديث"},{"id":"vTPqG3QeNYA","title":"شرح صحيح البخاري ( كتاب الايمان مجلس ٦ )","publishedAt":"2016-08-14T07:23:32Z","duration":"PT43M45S","thumbnail":"https://i.ytimg.com/vi/vTPqG3QeNYA/mqdefault.jpg","viewCount":"3234","playlistId":"PLEkQk5xrP-tlEerGoLa1AFy-2XvQ-sovv","playlistName":"شرح صحيح البخاري - أ.د. يسري جبر (كاملا)","category":"حديث"}],"total":7675,"page":275,"pageSize":24,"totalPages":320}