{"items":[{"id":"Fwvih36VnWc","title":"صحيح الإمام البخاري رضي الله عنه - كتاب الأدب - المجلس السابع عشر د. يسري جبر","publishedAt":"2017-02-26T20:28:59Z","duration":"PT47M31S","thumbnail":"https://i.ytimg.com/vi/Fwvih36VnWc/mqdefault.jpg","viewCount":"259","playlistId":"PLEkQk5xrP-tmJuzaj4GWRenFoFx9gdbFX","playlistName":"شرح كتاب صحيح الإمام البخاري رضي الله تعالى عنه   أ.د. يسرى جبر","category":"حديث"},{"id":"gl2gmUPnlsg","title":"أباح لك أن تنظر ما في المُكَوَّنات ، وما أذِن لك أن تقف مع ذوات المُكَوَّنات","publishedAt":"2017-02-25T20:51:05Z","duration":"PT17M20S","thumbnail":"https://i.ytimg.com/vi/gl2gmUPnlsg/mqdefault.jpg","viewCount":"1033","playlistId":"PLEkQk5xrP-tkI_meE148wc7V7XHlB0WPb","playlistName":"من الحكم العطائية  د. يسري جبر","category":"متنوع"},{"id":"Z5d3BmLpUIY","title":"تِلْكَ حُدُودُ اللهِ فَلا تَقْرَبُوهَا ( تِلْكَ حُدُودُ اللهِ فلا تَعْتَدُوهَا  ) الفرق بينهما","publishedAt":"2017-02-25T19:03:41Z","duration":"PT42M40S","thumbnail":"https://i.ytimg.com/vi/Z5d3BmLpUIY/mqdefault.jpg","viewCount":"1265","playlistId":"PLEkQk5xrP-tlArtGpeLWaqNM7h7IDeAVC","playlistName":"خطب الجمعة أ.د. يسري جبر","category":"خطب"},{"id":"ssPbVaGlbX0","title":"شرح صحيح البخاري   كتاب الزكاة من باب ٧١","publishedAt":"2017-02-25T16:08:20Z","duration":"PT26M17S","thumbnail":"https://i.ytimg.com/vi/ssPbVaGlbX0/mqdefault.jpg","viewCount":"791","playlistId":"PLEkQk5xrP-tlEerGoLa1AFy-2XvQ-sovv","playlistName":"شرح صحيح البخاري - أ.د. يسري جبر (كاملا)","category":"حديث"},{"id":"PFe9d2xe_ps","title":"86- شرح اللؤلؤ والمرجان كتاب الطلاق من الباب السادس","publishedAt":"2020-03-05T06:00:02Z","duration":"PT21M8S","thumbnail":"https://i.ytimg.com/vi/PFe9d2xe_ps/mqdefault.jpg","viewCount":"301","playlistId":"PLEkQk5xrP-tmKNjtYLfhATC37QdIsTMe0","playlistName":"شرح كتاب اللؤلؤ والمرجان فيما اتفق عليه الشيخان إماما المحدثين البخاري ومسلم. أ.د. يسري جبر","category":"حديث"},{"id":"PPBkI5OI1tk","title":"85- شرح اللؤلؤ والمرجان كتاب الطلاق من الباب الرابع","publishedAt":"2020-03-04T06:00:05Z","duration":"PT30M37S","thumbnail":"https://i.ytimg.com/vi/PPBkI5OI1tk/mqdefault.jpg","viewCount":"414","playlistId":"PLEkQk5xrP-tmKNjtYLfhATC37QdIsTMe0","playlistName":"شرح كتاب اللؤلؤ والمرجان فيما اتفق عليه الشيخان إماما المحدثين البخاري ومسلم. أ.د. يسري جبر","category":"حديث"},{"id":"5uSYed_xqHo","title":"شرح البرهان في علوم القرآن - النوع ٣٥ - فائدة في القول في الاختلاف والتناقض","publishedAt":"2020-03-04T06:00:00Z","duration":"PT24M42S","thumbnail":"https://i.ytimg.com/vi/5uSYed_xqHo/mqdefault.jpg","viewCount":"466","playlistId":"PLEkQk5xrP-tnW3iBL7HkKziOFCFZbTlf0","playlistName":"شرح البرهان في علوم القرآن - أ.د. يسري جبر","category":"تفسير"},{"id":"m_AOIep7lyc","title":"84- شرح اللؤلؤ والمرجان كتاب الطلاق من أوله","publishedAt":"2020-03-03T06:00:05Z","duration":"PT29M18S","thumbnail":"https://i.ytimg.com/vi/m_AOIep7lyc/mqdefault.jpg","viewCount":"476","playlistId":"PLEkQk5xrP-tmKNjtYLfhATC37QdIsTMe0","playlistName":"شرح كتاب اللؤلؤ والمرجان فيما اتفق عليه الشيخان إماما المحدثين البخاري ومسلم. أ.د. يسري جبر","category":"حديث"},{"id":"LyQ69vIpyD4","title":"شرح البرهان في علوم القرآن - النوع ٣٥ - فصل في القول عند تعارض آي القرآن والآثار","publishedAt":"2020-03-03T06:00:02Z","duration":"PT19M10S","thumbnail":"https://i.ytimg.com/vi/LyQ69vIpyD4/mqdefault.jpg","viewCount":"389","playlistId":"PLEkQk5xrP-tnW3iBL7HkKziOFCFZbTlf0","playlistName":"شرح البرهان في علوم القرآن - أ.د. يسري جبر","category":"تفسير"},{"id":"m3IhFqf1t-E","title":"83- شرح اللؤلؤ والمرجان كتاب الرضاع من الباب الثالث عشر","publishedAt":"2020-03-02T06:00:04Z","duration":"PT26M10S","thumbnail":"https://i.ytimg.com/vi/m3IhFqf1t-E/mqdefault.jpg","viewCount":"424","playlistId":"PLEkQk5xrP-tmKNjtYLfhATC37QdIsTMe0","playlistName":"شرح كتاب اللؤلؤ والمرجان فيما اتفق عليه الشيخان إماما المحدثين البخاري ومسلم. أ.د. يسري جبر","category":"حديث"},{"id":"lPqxFjqkTx8","title":"شرح البرهان في علوم القرآن - النوع ٣٥ - فصل في القول عند تعارض الآي","publishedAt":"2020-03-02T06:00:04Z","duration":"PT28M2S","thumbnail":"https://i.ytimg.com/vi/lPqxFjqkTx8/mqdefault.jpg","viewCount":"452","playlistId":"PLEkQk5xrP-tnW3iBL7HkKziOFCFZbTlf0","playlistName":"شرح البرهان في علوم القرآن - أ.د. يسري جبر","category":"تفسير"},{"id":"rlmCTr1pY-M","title":"فِقْهُ العُمْرَةِ  أ.د. يسري جبر","publishedAt":"2020-03-01T19:49:30Z","duration":"PT1H16M51S","thumbnail":"https://i.ytimg.com/vi/rlmCTr1pY-M/mqdefault.jpg","viewCount":"6876","playlistId":"PLEkQk5xrP-tm8ZIu74nTOZN9KJUJu416J","playlistName":"مقاطع مُهمَّة (يُسريَّات) أ.د. يسري جبر","category":"متنوع"},{"id":"HKoQ9vnnJ-k","title":"شرح البرهان في علوم القرآن - النوع ٣٥ - معرفة موهم المختلف","publishedAt":"2020-03-01T06:00:04Z","duration":"PT18M59S","thumbnail":"https://i.ytimg.com/vi/HKoQ9vnnJ-k/mqdefault.jpg","viewCount":"528","playlistId":"PLEkQk5xrP-tnW3iBL7HkKziOFCFZbTlf0","playlistName":"شرح البرهان في علوم القرآن - أ.د. يسري جبر","category":"تفسير"},{"id":"1jBVGmueAYE","title":"82- شرح اللؤلؤ والمرجان كتاب الرضاع من الباب العاشر","publishedAt":"2020-03-01T06:00:00Z","duration":"PT21M27S","thumbnail":"https://i.ytimg.com/vi/1jBVGmueAYE/mqdefault.jpg","viewCount":"340","playlistId":"PLEkQk5xrP-tmKNjtYLfhATC37QdIsTMe0","playlistName":"شرح كتاب اللؤلؤ والمرجان فيما اتفق عليه الشيخان إماما المحدثين البخاري ومسلم. أ.د. يسري جبر","category":"حديث"},{"id":"W-f_TlEd3kM","title":"جانب من الاحتفال بالمولد النبوي الشريف","publishedAt":"2021-10-28T19:51:54Z","duration":"PT32M17S","thumbnail":"https://i.ytimg.com/vi/W-f_TlEd3kM/mqdefault.jpg","viewCount":"5274","playlistId":"PLEkQk5xrP-tlB8lmbwjAKR8KRgiykGKhb","playlistName":"حضرات يسرية ومدائح نبوية","category":"متنوع"},{"id":"gvA1FpHDsZA","title":"الأسلوب السابع: الاختصاص - شرح البرهان في علوم القرآن","publishedAt":"2021-10-28T04:15:03Z","duration":"PT8M20S","thumbnail":"https://i.ytimg.com/vi/gvA1FpHDsZA/mqdefault.jpg","viewCount":"468","playlistId":"PLEkQk5xrP-tnW3iBL7HkKziOFCFZbTlf0","playlistName":"شرح البرهان في علوم القرآن - أ.د. يسري جبر","category":"تفسير"},{"id":"_8L6uvZqIiE","title":"خطبة الاحتفال بالمولد النبوي","publishedAt":"2021-10-27T19:55:08Z","duration":"PT43M28S","thumbnail":"https://i.ytimg.com/vi/_8L6uvZqIiE/mqdefault.jpg","viewCount":"3686","playlistId":"PLEkQk5xrP-tlArtGpeLWaqNM7h7IDeAVC","playlistName":"خطب الجمعة أ.د. يسري جبر","category":"خطب"},{"id":"fbiNyTp_rYw","title":"149- \"…يَا رَسُولَ اللَّهِ، أَخْبِرْنِي بِعَمَلٍ يُدْخِلُنِي الجَنَّةَ…\" شرح دليل الفالحين","publishedAt":"2021-10-27T05:39:45Z","duration":"PT53M43S","thumbnail":"https://i.ytimg.com/vi/fbiNyTp_rYw/mqdefault.jpg","viewCount":"1238","playlistId":"PLEkQk5xrP-tkc9DXvSLguqX5-FYp6ASR4","playlistName":"دليل الفالحين لطرق رياض الصالحين","category":"متنوع"},{"id":"rkH57eZ12RM","title":"14- ‏أين كان الله قبل خلق الأكوان؟ | شرح الحكم العطائية","publishedAt":"2025-01-16T18:29:51Z","duration":"PT56M59S","thumbnail":"https://i.ytimg.com/vi/rkH57eZ12RM/mqdefault.jpg","viewCount":"5170","playlistId":"PLEkQk5xrP-tmf5ToOwmW-q0JwxkapbrMN","playlistName":"شرح كتاب إرشاد البرية إلى بعض معاني الحكم العطائية","category":"متنوع"},{"id":"68woQ3PXSeA","title":"58- ما هو الفقر الحقيقي وكيف تكون غنيا بالله؟ | شرح منازل السائرين","publishedAt":"2025-01-15T19:30:58Z","duration":"PT55M3S","thumbnail":"https://i.ytimg.com/vi/68woQ3PXSeA/mqdefault.jpg","viewCount":"7547","playlistId":"PLEkQk5xrP-tmiUfQ-2Tsn7QIak4EsvaZW","playlistName":"كتاب التيسير المعين بشرح معاني منازل السائرين (تصوف) - د.يسري جبر","category":"تصوف"},{"id":"UH1CTlxExu4","title":"عندي ماضي سيئ وتبت من ذنوبي لكن عندي فتور في الطاعة فماذا أفعل؟","publishedAt":"2025-01-14T19:25:44Z","duration":"PT9M43S","thumbnail":"https://i.ytimg.com/vi/UH1CTlxExu4/mqdefault.jpg","viewCount":"4616","playlistId":"PLEkQk5xrP-tkGXuZ9atE3k_7it12rUPTs","playlistName":"أسئلة المتابعين","category":"متنوع"},{"id":"xuq2kIE3WH8","title":"149- ما معنى الحديث الشاذ؟ وهل يُستدل به في الأحكام؟ - شرح مسند الإمام أحمد رضي الله تعالى عنه","publishedAt":"2025-01-14T06:30:21Z","duration":"PT24M14S","thumbnail":"https://i.ytimg.com/vi/xuq2kIE3WH8/mqdefault.jpg","viewCount":"801","playlistId":"PLEkQk5xrP-tkKprIuGrSdEuBSMsyg5We1","playlistName":"شرح مسند الإمام أحمد بن حنبل","category":"متنوع"},{"id":"JEb5opEDcgg","title":"أنا متقدملي طبيب ومستواه المادي قليل ,, فماذا أفعل؟","publishedAt":"2025-01-13T20:23:03Z","duration":"PT12M51S","thumbnail":"https://i.ytimg.com/vi/JEb5opEDcgg/mqdefault.jpg","viewCount":"4570","playlistId":"PLEkQk5xrP-tkGXuZ9atE3k_7it12rUPTs","playlistName":"أسئلة المتابعين","category":"متنوع"},{"id":"NgmFKhvv57k","title":"38- أسرار لا إله إلا الله | شرح مختصر الفتوحات المكية","publishedAt":"2025-01-12T16:02:35Z","duration":"PT41M8S","thumbnail":"https://i.ytimg.com/vi/NgmFKhvv57k/mqdefault.jpg","viewCount":"9765","playlistId":"PLEkQk5xrP-tnpkdZki6rPTtMak1bnI5g-","playlistName":"شرح كتاب مختصر الفتوحات المكية المسمى لواقح الأنوار القدسية","category":"متنوع"}],"total":7670,"page":153,"pageSize":24,"totalPages":320}