{"items":[{"id":"ZlyVxXzsVp8","title":"متى آلَمَكَ عدمُ إقبال الناس عليك، أو توجُّهُهم بالذَّمّ إليك، فارجِعْ إلى عِلْم اللهِ فيك..","publishedAt":"2018-02-26T18:25:47Z","duration":"PT12M34S","thumbnail":"https://i.ytimg.com/vi/ZlyVxXzsVp8/mqdefault.jpg","viewCount":"14133","playlistId":"PLEkQk5xrP-tkI_meE148wc7V7XHlB0WPb","playlistName":"من الحكم العطائية  د. يسري جبر","category":"متنوع"},{"id":"Z5JqsZtnX5k","title":"شرح صحيح البخاري كتاب المغازي من باب ٦٨","publishedAt":"2018-02-26T14:32:40Z","duration":"PT33M37S","thumbnail":"https://i.ytimg.com/vi/Z5JqsZtnX5k/mqdefault.jpg","viewCount":"585","playlistId":"PLEkQk5xrP-tlEerGoLa1AFy-2XvQ-sovv","playlistName":"شرح صحيح البخاري - أ.د. يسري جبر (كاملا)","category":"حديث"},{"id":"iUeGtqM45tU","title":"مقرأة سورة المؤمنون آية ٥٠","publishedAt":"2018-02-26T11:31:03Z","duration":"PT14M46S","thumbnail":"https://i.ytimg.com/vi/iUeGtqM45tU/mqdefault.jpg","viewCount":"531","playlistId":"PLEkQk5xrP-tnmTYsyW6xNdyfhPq0Bhrhj","playlistName":"مقرأة الفجر - القُرْآنُ الكَرِيمُ - خَتْمَةُ التَّدَبُّرِ  أ.د. يسري جبر","category":"متنوع"},{"id":"MtoA8SIGk38","title":"شرح صحيح البخاري كتاب المغازي من باب ٦٥","publishedAt":"2018-02-25T15:25:58Z","duration":"PT26M7S","thumbnail":"https://i.ytimg.com/vi/MtoA8SIGk38/mqdefault.jpg","viewCount":"559","playlistId":"PLEkQk5xrP-tlEerGoLa1AFy-2XvQ-sovv","playlistName":"شرح صحيح البخاري - أ.د. يسري جبر (كاملا)","category":"حديث"},{"id":"88LJFTh6RoY","title":"مقرأة سورة المؤمنون آية ٤٢","publishedAt":"2018-02-25T09:50:49Z","duration":"PT17M34S","thumbnail":"https://i.ytimg.com/vi/88LJFTh6RoY/mqdefault.jpg","viewCount":"242","playlistId":"PLEkQk5xrP-tnmTYsyW6xNdyfhPq0Bhrhj","playlistName":"مقرأة الفجر - القُرْآنُ الكَرِيمُ - خَتْمَةُ التَّدَبُّرِ  أ.د. يسري جبر","category":"متنوع"},{"id":"rbCQC6pAl-E","title":"يا أَيُّها الَّذِين آمَنُوا إِذَا قُمْتُم إِلى الصَّلاةِ فاغْسِلوا وُجُوهَكم وأيديَكم ..  د.يسري جبر","publishedAt":"2018-02-24T18:20:33Z","duration":"PT39M4S","thumbnail":"https://i.ytimg.com/vi/rbCQC6pAl-E/mqdefault.jpg","viewCount":"567","playlistId":"PLEkQk5xrP-tlArtGpeLWaqNM7h7IDeAVC","playlistName":"خطب الجمعة أ.د. يسري جبر","category":"خطب"},{"id":"4fQwbmamtZg","title":"العِلمُ إنْ قَارَنَتْهُ الخَشْيَةُ .. فَلَكَ، وَإِلَّا فَعَلَيكَ.","publishedAt":"2018-02-24T18:04:10Z","duration":"PT10M29S","thumbnail":"https://i.ytimg.com/vi/4fQwbmamtZg/mqdefault.jpg","viewCount":"781","playlistId":"PLEkQk5xrP-tkI_meE148wc7V7XHlB0WPb","playlistName":"من الحكم العطائية  د. يسري جبر","category":"متنوع"},{"id":"G0Ouyu9UwgQ","title":"شرح صحيح البخاري - كتاب المغازي من باب ٦٣","publishedAt":"2018-02-24T17:53:20Z","duration":"PT28M8S","thumbnail":"https://i.ytimg.com/vi/G0Ouyu9UwgQ/mqdefault.jpg","viewCount":"547","playlistId":"PLEkQk5xrP-tlEerGoLa1AFy-2XvQ-sovv","playlistName":"شرح صحيح البخاري - أ.د. يسري جبر (كاملا)","category":"حديث"},{"id":"-_0fel8_IZ0","title":"مقرأة سورة المؤمنون آية ٣١","publishedAt":"2018-02-24T12:18:41Z","duration":"PT19M21S","thumbnail":"https://i.ytimg.com/vi/-_0fel8_IZ0/mqdefault.jpg","viewCount":"600","playlistId":"PLEkQk5xrP-tnmTYsyW6xNdyfhPq0Bhrhj","playlistName":"مقرأة الفجر - القُرْآنُ الكَرِيمُ - خَتْمَةُ التَّدَبُّرِ  أ.د. يسري جبر","category":"متنوع"},{"id":"nJ7fUp3Ptvs","title":"شرح صحيح البخاري - كتاب المغازي من باب ٦١","publishedAt":"2018-02-23T18:34:20Z","duration":"PT31M19S","thumbnail":"https://i.ytimg.com/vi/nJ7fUp3Ptvs/mqdefault.jpg","viewCount":"598","playlistId":"PLEkQk5xrP-tlEerGoLa1AFy-2XvQ-sovv","playlistName":"شرح صحيح البخاري - أ.د. يسري جبر (كاملا)","category":"حديث"},{"id":"XFS70b5ax0g","title":"مقرأة سورة المؤمنون آية ٢٣","publishedAt":"2018-02-23T08:34:27Z","duration":"PT22M41S","thumbnail":"https://i.ytimg.com/vi/XFS70b5ax0g/mqdefault.jpg","viewCount":"301","playlistId":"PLEkQk5xrP-tnmTYsyW6xNdyfhPq0Bhrhj","playlistName":"مقرأة الفجر - القُرْآنُ الكَرِيمُ - خَتْمَةُ التَّدَبُّرِ  أ.د. يسري جبر","category":"متنوع"},{"id":"RY_Q4KCDNHE","title":"الرسالة القشيرية - المجلس الثاني عشر (باب في ذكر مشايخ هذه الطريقة - المجلس الرابع)","publishedAt":"2018-02-22T18:06:32Z","duration":"PT54M54S","thumbnail":"https://i.ytimg.com/vi/RY_Q4KCDNHE/mqdefault.jpg","viewCount":"9203","playlistId":"PLEkQk5xrP-tkHAGOwIKr4pc5ehhyQ5HMJ","playlistName":"كتاب الرسالة القشيرية (تصوف) - د. يسري جبر","category":"تصوف"},{"id":"edh3XB8WOMY","title":"شرح صحيح البخاري - كتاب المغازي تكملة باب ٥٨","publishedAt":"2018-02-22T14:50:08Z","duration":"PT23M23S","thumbnail":"https://i.ytimg.com/vi/edh3XB8WOMY/mqdefault.jpg","viewCount":"474","playlistId":"PLEkQk5xrP-tlEerGoLa1AFy-2XvQ-sovv","playlistName":"شرح صحيح البخاري - أ.د. يسري جبر (كاملا)","category":"حديث"},{"id":"_fD79t8g4Cw","title":"مقرأة سورة المؤمنون آية ١٧","publishedAt":"2018-02-22T08:24:40Z","duration":"PT26M32S","thumbnail":"https://i.ytimg.com/vi/_fD79t8g4Cw/mqdefault.jpg","viewCount":"332","playlistId":"PLEkQk5xrP-tnmTYsyW6xNdyfhPq0Bhrhj","playlistName":"مقرأة الفجر - القُرْآنُ الكَرِيمُ - خَتْمَةُ التَّدَبُّرِ  أ.د. يسري جبر","category":"متنوع"},{"id":"WizHLKxMvdg","title":"شرح صحيح البخاري -  كتاب المغازي من باب ٥٧","publishedAt":"2018-02-21T15:32:43Z","duration":"PT25M32S","thumbnail":"https://i.ytimg.com/vi/WizHLKxMvdg/mqdefault.jpg","viewCount":"438","playlistId":"PLEkQk5xrP-tlEerGoLa1AFy-2XvQ-sovv","playlistName":"شرح صحيح البخاري - أ.د. يسري جبر (كاملا)","category":"حديث"},{"id":"qaiiBOZj0I8","title":"مقرأة سورة المؤمنون آية ١٢","publishedAt":"2018-02-21T11:23:57Z","duration":"PT12M22S","thumbnail":"https://i.ytimg.com/vi/qaiiBOZj0I8/mqdefault.jpg","viewCount":"341","playlistId":"PLEkQk5xrP-tnmTYsyW6xNdyfhPq0Bhrhj","playlistName":"مقرأة الفجر - القُرْآنُ الكَرِيمُ - خَتْمَةُ التَّدَبُّرِ  أ.د. يسري جبر","category":"متنوع"},{"id":"3VZnsE3uqgg","title":"شرح صحيح البخاري - كتاب المغازي تكملة  باب ٥٥","publishedAt":"2018-02-20T20:25:16Z","duration":"PT33M19S","thumbnail":"https://i.ytimg.com/vi/3VZnsE3uqgg/mqdefault.jpg","viewCount":"576","playlistId":"PLEkQk5xrP-tlEerGoLa1AFy-2XvQ-sovv","playlistName":"شرح صحيح البخاري - أ.د. يسري جبر (كاملا)","category":"حديث"},{"id":"8gfExRyd9Jg","title":"مقرأة سورة المؤمنون من أولها","publishedAt":"2018-02-20T16:08:54Z","duration":"PT20M25S","thumbnail":"https://i.ytimg.com/vi/8gfExRyd9Jg/mqdefault.jpg","viewCount":"465","playlistId":"PLEkQk5xrP-tnmTYsyW6xNdyfhPq0Bhrhj","playlistName":"مقرأة الفجر - القُرْآنُ الكَرِيمُ - خَتْمَةُ التَّدَبُّرِ  أ.د. يسري جبر","category":"متنوع"},{"id":"osZWvJa7Oco","title":"شرح صحيح البخاري - كتاب المغازي من باب ٥٣","publishedAt":"2018-02-19T19:53:37Z","duration":"PT40M7S","thumbnail":"https://i.ytimg.com/vi/osZWvJa7Oco/mqdefault.jpg","viewCount":"903","playlistId":"PLEkQk5xrP-tlEerGoLa1AFy-2XvQ-sovv","playlistName":"شرح صحيح البخاري - أ.د. يسري جبر (كاملا)","category":"حديث"},{"id":"KO0D6O_uZnY","title":"مقرأة سورة الحج من آية ٧٧","publishedAt":"2018-02-19T12:37:10Z","duration":"PT15M13S","thumbnail":"https://i.ytimg.com/vi/KO0D6O_uZnY/mqdefault.jpg","viewCount":"241","playlistId":"PLEkQk5xrP-tnmTYsyW6xNdyfhPq0Bhrhj","playlistName":"مقرأة الفجر - القُرْآنُ الكَرِيمُ - خَتْمَةُ التَّدَبُّرِ  أ.د. يسري جبر","category":"متنوع"},{"id":"IvxztUWp7Y0","title":"صحيح البخاري - كتاب الحدود","publishedAt":"2018-02-19T07:28:56Z","duration":"PT56M26S","thumbnail":"https://i.ytimg.com/vi/IvxztUWp7Y0/mqdefault.jpg","viewCount":"185","playlistId":"PLEkQk5xrP-tmJuzaj4GWRenFoFx9gdbFX","playlistName":"شرح كتاب صحيح الإمام البخاري رضي الله تعالى عنه   أ.د. يسرى جبر","category":"حديث"},{"id":"kBvroNUsuls","title":"شرح كتاب نوراليقين في سيرة سيد المرسلين - المجلس 39 (كتاب المنذر بن ساوى) د.يسري جبر","publishedAt":"2018-02-19T03:28:55Z","duration":"PT51M10S","thumbnail":"https://i.ytimg.com/vi/kBvroNUsuls/mqdefault.jpg","viewCount":"13480","playlistId":"PLEkQk5xrP-tl2t4NQx1IhKnAJCMzF0Nli","playlistName":"شرح كتاب نور اليقين في سيرة سيد المرسلين   د. يسري جبر","category":"سيرة"},{"id":"rwT2PQ8dqcM","title":"شرح صحيح البخاري - كتاب المغازي من باب ٥٠","publishedAt":"2018-02-18T20:57:11Z","duration":"PT26M56S","thumbnail":"https://i.ytimg.com/vi/rwT2PQ8dqcM/mqdefault.jpg","viewCount":"592","playlistId":"PLEkQk5xrP-tlEerGoLa1AFy-2XvQ-sovv","playlistName":"شرح صحيح البخاري - أ.د. يسري جبر (كاملا)","category":"حديث"},{"id":"quLeWLNPWh0","title":"مقرأة سورة الحج من آية ٧٤","publishedAt":"2018-02-18T17:53:29Z","duration":"PT21M48S","thumbnail":"https://i.ytimg.com/vi/quLeWLNPWh0/mqdefault.jpg","viewCount":"266","playlistId":"PLEkQk5xrP-tnmTYsyW6xNdyfhPq0Bhrhj","playlistName":"مقرأة الفجر - القُرْآنُ الكَرِيمُ - خَتْمَةُ التَّدَبُّرِ  أ.د. يسري جبر","category":"متنوع"}],"total":7670,"page":48,"pageSize":24,"totalPages":320}