{"items":[{"id":"CMQ-plazkC0","title":"شرح صحيح البخاري كتاب الطب من باب ٣٠","publishedAt":"2018-08-07T17:21:42Z","duration":"PT31M56S","thumbnail":"https://i.ytimg.com/vi/CMQ-plazkC0/mqdefault.jpg","viewCount":"589","playlistId":"PLEkQk5xrP-tlEerGoLa1AFy-2XvQ-sovv","playlistName":"شرح صحيح البخاري - أ.د. يسري جبر (كاملا)","category":"حديث"},{"id":"ar_F2osiXV4","title":"مقرأة سورة سبأ من آية ١٠","publishedAt":"2018-08-07T12:10:10Z","duration":"PT12M36S","thumbnail":"https://i.ytimg.com/vi/ar_F2osiXV4/mqdefault.jpg","viewCount":"356","playlistId":"PLEkQk5xrP-tnmTYsyW6xNdyfhPq0Bhrhj","playlistName":"مقرأة الفجر - القُرْآنُ الكَرِيمُ - خَتْمَةُ التَّدَبُّرِ  أ.د. يسري جبر","category":"متنوع"},{"id":"Ji_8lkAyxsk","title":"صحيح الإمام البخاري رضي الله عنه - كتاب استتابة المُرْتدِّين والمُعاندين وقتالهم - المجلس الرابع.","publishedAt":"2018-08-07T09:29:53Z","duration":"PT41M22S","thumbnail":"https://i.ytimg.com/vi/Ji_8lkAyxsk/mqdefault.jpg","viewCount":"134","playlistId":"PLEkQk5xrP-tmJuzaj4GWRenFoFx9gdbFX","playlistName":"شرح كتاب صحيح الإمام البخاري رضي الله تعالى عنه   أ.د. يسرى جبر","category":"حديث"},{"id":"7yPDTl4cEGE","title":"(31) سيدنا سُمنون بن حمزة رضي الله عنه د. يسري جبر","publishedAt":"2018-08-06T14:49:32Z","duration":"PT8M","thumbnail":"https://i.ytimg.com/vi/7yPDTl4cEGE/mqdefault.jpg","viewCount":"1329","playlistId":"PLEkQk5xrP-tmmI87XkWepRdTpisz2Lfgr","playlistName":"باب في ذكر مشايخ هذه الطريقة من شرح كتاب الرسالة القشيرية","category":"تصوف"},{"id":"VPhNneUqwuM","title":"190- حِفظُ اللسان","publishedAt":"2021-01-03T07:18:25Z","duration":"PT29M26S","thumbnail":"https://i.ytimg.com/vi/VPhNneUqwuM/mqdefault.jpg","viewCount":"5501","playlistId":"PLEkQk5xrP-tmKNjtYLfhATC37QdIsTMe0","playlistName":"شرح كتاب اللؤلؤ والمرجان فيما اتفق عليه الشيخان إماما المحدثين البخاري ومسلم. أ.د. يسري جبر","category":"حديث"},{"id":"78OX5eozgjE","title":"هل سينتهي العالم بنزول سيدنا عيسى؟","publishedAt":"2021-01-02T18:04:30Z","duration":"PT8M7S","thumbnail":"https://i.ytimg.com/vi/78OX5eozgjE/mqdefault.jpg","viewCount":"4405","playlistId":"PLEkQk5xrP-tlArtGpeLWaqNM7h7IDeAVC","playlistName":"خطب الجمعة أ.د. يسري جبر","category":"خطب"},{"id":"EPLAfGFT5KI","title":"التوكيد اللفظي والمعنوي","publishedAt":"2021-01-02T07:32:53Z","duration":"PT21M24S","thumbnail":"https://i.ytimg.com/vi/EPLAfGFT5KI/mqdefault.jpg","viewCount":"554","playlistId":"PLEkQk5xrP-tnW3iBL7HkKziOFCFZbTlf0","playlistName":"شرح البرهان في علوم القرآن - أ.د. يسري جبر","category":"تفسير"},{"id":"K8DfCzPbEcY","title":"ذكرى ميلاد سيدنا عيسى عليه السلام","publishedAt":"2021-01-01T18:26:11Z","duration":"PT14M15S","thumbnail":"https://i.ytimg.com/vi/K8DfCzPbEcY/mqdefault.jpg","viewCount":"6437","playlistId":"PLEkQk5xrP-tlArtGpeLWaqNM7h7IDeAVC","playlistName":"خطب الجمعة أ.د. يسري جبر","category":"خطب"},{"id":"rq_zns87MtM","title":"189- إنِّي لأولُ العربِ رَمَى بسهمٍ في سبيل الله - حديث سعد بن أبي وقَّاص رضي الله عنه","publishedAt":"2021-01-01T07:50:37Z","duration":"PT24M","thumbnail":"https://i.ytimg.com/vi/rq_zns87MtM/mqdefault.jpg","viewCount":"1612","playlistId":"PLEkQk5xrP-tmKNjtYLfhATC37QdIsTMe0","playlistName":"شرح كتاب اللؤلؤ والمرجان فيما اتفق عليه الشيخان إماما المحدثين البخاري ومسلم. أ.د. يسري جبر","category":"حديث"},{"id":"-ZywSqOxPZA","title":"التأكيد","publishedAt":"2020-12-31T08:45:11Z","duration":"PT17M37S","thumbnail":"https://i.ytimg.com/vi/-ZywSqOxPZA/mqdefault.jpg","viewCount":"931","playlistId":"PLEkQk5xrP-tnW3iBL7HkKziOFCFZbTlf0","playlistName":"شرح البرهان في علوم القرآن - أ.د. يسري جبر","category":"تفسير"},{"id":"uS38IO_nLf4","title":"هل يوجد كذب مباح في الإسلام؟","publishedAt":"2020-12-30T18:30:56Z","duration":"PT13M19S","thumbnail":"https://i.ytimg.com/vi/uS38IO_nLf4/mqdefault.jpg","viewCount":"5314","playlistId":"PLEkQk5xrP-tlArtGpeLWaqNM7h7IDeAVC","playlistName":"خطب الجمعة أ.د. يسري جبر","category":"خطب"},{"id":"wEs3bVMLc0k","title":"188- الزهد والرقائق","publishedAt":"2020-12-30T07:10:23Z","duration":"PT21M46S","thumbnail":"https://i.ytimg.com/vi/wEs3bVMLc0k/mqdefault.jpg","viewCount":"2650","playlistId":"PLEkQk5xrP-tmKNjtYLfhATC37QdIsTMe0","playlistName":"شرح كتاب اللؤلؤ والمرجان فيما اتفق عليه الشيخان إماما المحدثين البخاري ومسلم. أ.د. يسري جبر","category":"حديث"},{"id":"h2tgBh9ulmk","title":"هل رؤية النبي ﷺ في المنام دليل على الولاية؟؟","publishedAt":"2020-12-29T18:15:46Z","duration":"PT10M4S","thumbnail":"https://i.ytimg.com/vi/h2tgBh9ulmk/mqdefault.jpg","viewCount":"105620","playlistId":"PLEkQk5xrP-tm8ZIu74nTOZN9KJUJu416J","playlistName":"مقاطع مُهمَّة (يُسريَّات) أ.د. يسري جبر","category":"متنوع"},{"id":"jL4D2kZQYwU","title":"أساليب القرآن وفنونه البليغة","publishedAt":"2020-12-29T09:37:27Z","duration":"PT11M46S","thumbnail":"https://i.ytimg.com/vi/jL4D2kZQYwU/mqdefault.jpg","viewCount":"1068","playlistId":"PLEkQk5xrP-tnW3iBL7HkKziOFCFZbTlf0","playlistName":"شرح البرهان في علوم القرآن - أ.د. يسري جبر","category":"تفسير"},{"id":"UOZxdcsufK4","title":"ما هي معجزة النبي ﷺ قبل بعثته؟","publishedAt":"2020-12-28T18:43:56Z","duration":"PT8M52S","thumbnail":"https://i.ytimg.com/vi/UOZxdcsufK4/mqdefault.jpg","viewCount":"2276","playlistId":"PLEkQk5xrP-tlArtGpeLWaqNM7h7IDeAVC","playlistName":"خطب الجمعة أ.د. يسري جبر","category":"خطب"},{"id":"H5bHZLn9B3g","title":"187- كتابُ الفتن وأشراط الساعة - باب ابن صياد","publishedAt":"2020-12-28T07:05:20Z","duration":"PT27M10S","thumbnail":"https://i.ytimg.com/vi/H5bHZLn9B3g/mqdefault.jpg","viewCount":"5088","playlistId":"PLEkQk5xrP-tmKNjtYLfhATC37QdIsTMe0","playlistName":"شرح كتاب اللؤلؤ والمرجان فيما اتفق عليه الشيخان إماما المحدثين البخاري ومسلم. أ.د. يسري جبر","category":"حديث"},{"id":"wu5-JMDGU5s","title":"حكم تهنئة إخواننا المسيحيين بأعيادهم","publishedAt":"2020-12-27T19:22:09Z","duration":"PT10M50S","thumbnail":"https://i.ytimg.com/vi/wu5-JMDGU5s/mqdefault.jpg","viewCount":"20484","playlistId":"PLEkQk5xrP-tm8ZIu74nTOZN9KJUJu416J","playlistName":"مقاطع مُهمَّة (يُسريَّات) أ.د. يسري جبر","category":"متنوع"},{"id":"eZn1hoJ6hs4","title":"النَّفْي - القاعدة الرابعة","publishedAt":"2020-12-27T07:24:08Z","duration":"PT20M14S","thumbnail":"https://i.ytimg.com/vi/eZn1hoJ6hs4/mqdefault.jpg","viewCount":"571","playlistId":"PLEkQk5xrP-tnW3iBL7HkKziOFCFZbTlf0","playlistName":"شرح البرهان في علوم القرآن - أ.د. يسري جبر","category":"تفسير"},{"id":"rsWyl_6xSbI","title":"شجرةُ الأصل النُّورانيَّة","publishedAt":"2020-12-26T17:59:09Z","duration":"PT8M1S","thumbnail":"https://i.ytimg.com/vi/rsWyl_6xSbI/mqdefault.jpg","viewCount":"4499","playlistId":"PLEkQk5xrP-tlArtGpeLWaqNM7h7IDeAVC","playlistName":"خطب الجمعة أ.د. يسري جبر","category":"خطب"},{"id":"46TLxRmrX_o","title":"186- لا تقومُ الساعة حتى يمر الرجلُ بقبر الرجلِ فيتمنَّى أن يكون مكان الميت من البلاء","publishedAt":"2020-12-26T09:21:57Z","duration":"PT15M3S","thumbnail":"https://i.ytimg.com/vi/46TLxRmrX_o/mqdefault.jpg","viewCount":"4767","playlistId":"PLEkQk5xrP-tmKNjtYLfhATC37QdIsTMe0","playlistName":"شرح كتاب اللؤلؤ والمرجان فيما اتفق عليه الشيخان إماما المحدثين البخاري ومسلم. أ.د. يسري جبر","category":"حديث"},{"id":"dLAge3TdIOA","title":"العلم بالنَّبيّ ﷺ","publishedAt":"2020-12-25T19:07:39Z","duration":"PT10M12S","thumbnail":"https://i.ytimg.com/vi/dLAge3TdIOA/mqdefault.jpg","viewCount":"5343","playlistId":"PLEkQk5xrP-tm8ZIu74nTOZN9KJUJu416J","playlistName":"مقاطع مُهمَّة (يُسريَّات) أ.د. يسري جبر","category":"متنوع"},{"id":"pW3YgO-K6Uk","title":"النَّفْي","publishedAt":"2020-12-25T06:57:12Z","duration":"PT14M13S","thumbnail":"https://i.ytimg.com/vi/pW3YgO-K6Uk/mqdefault.jpg","viewCount":"667","playlistId":"PLEkQk5xrP-tnW3iBL7HkKziOFCFZbTlf0","playlistName":"شرح البرهان في علوم القرآن - أ.د. يسري جبر","category":"تفسير"},{"id":"UvbPAfOoxHk","title":"185- الفِتنُ وأشراطُ الساعة - إذا تواجه المسلمان بسيفيهما","publishedAt":"2020-12-24T08:07:25Z","duration":"PT34M37S","thumbnail":"https://i.ytimg.com/vi/UvbPAfOoxHk/mqdefault.jpg","viewCount":"5848","playlistId":"PLEkQk5xrP-tmKNjtYLfhATC37QdIsTMe0","playlistName":"شرح كتاب اللؤلؤ والمرجان فيما اتفق عليه الشيخان إماما المحدثين البخاري ومسلم. أ.د. يسري جبر","category":"حديث"},{"id":"Mo7k-9_JDQQ","title":"ما هو التصوف؟","publishedAt":"2020-12-23T17:45:00Z","duration":"PT11M59S","thumbnail":"https://i.ytimg.com/vi/Mo7k-9_JDQQ/mqdefault.jpg","viewCount":"5665","playlistId":"PLEkQk5xrP-tm8ZIu74nTOZN9KJUJu416J","playlistName":"مقاطع مُهمَّة (يُسريَّات) أ.د. يسري جبر","category":"متنوع"}],"total":7670,"page":293,"pageSize":24,"totalPages":320}