{"items":[{"id":"MxIG5-Yce9Y","title":"شرح كتاب اللباس من جامع الترمذي - المجلس الثالث","publishedAt":"2015-08-13T04:41:23Z","duration":"PT42M41S","thumbnail":"https://i.ytimg.com/vi/MxIG5-Yce9Y/mqdefault.jpg","viewCount":"100","playlistId":"PLEkQk5xrP-tnu6of679SvxdVx0qSrJzmb","playlistName":"شرح سنن الإمام الترمذي رضى الله عنه د. يسري جبر","category":"متنوع"},{"id":"kScqV88fDTE","title":"قراءة القرآن ( من آية 10 سورة سبإ )","publishedAt":"2015-08-13T03:56:41Z","duration":"PT18M30S","thumbnail":"https://i.ytimg.com/vi/kScqV88fDTE/mqdefault.jpg","viewCount":"209","playlistId":"PLEkQk5xrP-tnUSUj0uyJhA-kwNC7Gkx_j","playlistName":"مقرأة الفجر - بداية من سورة الإسراء حتى سورة الناس","category":"تفسير"},{"id":"W2SKx_D3J3M","title":"عبادة النبي صلى الله عليه وسلم | اعرف نبيك","publishedAt":"2015-08-12T15:22:43Z","duration":"PT6M39S","thumbnail":"https://i.ytimg.com/vi/W2SKx_D3J3M/mqdefault.jpg","viewCount":"1386","playlistId":"PLEkQk5xrP-tl6Mu_Mz3QMUSv5T6XBH-Dg","playlistName":"برنامج اعرف نبيك","category":"متنوع"},{"id":"8l2ilTtbFe8","title":"كيف كان يصلي النبي صلى الله عليه وسلم  السنن الراتبة |  اعرف نبيك","publishedAt":"2015-08-12T15:17:25Z","duration":"PT5M20S","thumbnail":"https://i.ytimg.com/vi/8l2ilTtbFe8/mqdefault.jpg","viewCount":"2707","playlistId":"PLEkQk5xrP-tl6Mu_Mz3QMUSv5T6XBH-Dg","playlistName":"برنامج اعرف نبيك","category":"متنوع"},{"id":"mIha2flgPHI","title":"كتاب نوراليقين في سيرة سيد المرسلين - المجلس 43 (سرية - غزوة الفتح الأعظم) د.يسري جبر","publishedAt":"2018-03-25T08:32:36Z","duration":"PT47M47S","thumbnail":"https://i.ytimg.com/vi/mIha2flgPHI/mqdefault.jpg","viewCount":"12803","playlistId":"PLEkQk5xrP-tl2t4NQx1IhKnAJCMzF0Nli","playlistName":"شرح كتاب نور اليقين في سيرة سيد المرسلين   د. يسري جبر","category":"سيرة"},{"id":"94edIXulj50","title":"شرح صحيح البخاري كتاب التفسير فى سورة الأعراف من أولها","publishedAt":"2018-03-25T03:17:36Z","duration":"PT33M56S","thumbnail":"https://i.ytimg.com/vi/94edIXulj50/mqdefault.jpg","viewCount":"439","playlistId":"PLEkQk5xrP-tlEerGoLa1AFy-2XvQ-sovv","playlistName":"شرح صحيح البخاري - أ.د. يسري جبر (كاملا)","category":"حديث"},{"id":"_pzm_bID0w4","title":"مقرأة سورة النور من آية ٦١","publishedAt":"2018-03-25T03:17:05Z","duration":"PT28M59S","thumbnail":"https://i.ytimg.com/vi/_pzm_bID0w4/mqdefault.jpg","viewCount":"343","playlistId":"PLEkQk5xrP-tnmTYsyW6xNdyfhPq0Bhrhj","playlistName":"مقرأة الفجر - القُرْآنُ الكَرِيمُ - خَتْمَةُ التَّدَبُّرِ  أ.د. يسري جبر","category":"متنوع"},{"id":"v9pHBA_oSWI","title":"نَصَائِحُ رَجَبِيَّة   د. يسري جبر","publishedAt":"2018-03-25T02:45:04Z","duration":"PT29M53S","thumbnail":"https://i.ytimg.com/vi/v9pHBA_oSWI/mqdefault.jpg","viewCount":"5864","playlistId":"PLEkQk5xrP-tlArtGpeLWaqNM7h7IDeAVC","playlistName":"خطب الجمعة أ.د. يسري جبر","category":"خطب"},{"id":"u3Y-9z-OeHo","title":"فضل ليلة النصف من شعبان","publishedAt":"2021-03-27T15:08:00Z","duration":"PT16M59S","thumbnail":"https://i.ytimg.com/vi/u3Y-9z-OeHo/mqdefault.jpg","viewCount":"13791","playlistId":"PLEkQk5xrP-tlArtGpeLWaqNM7h7IDeAVC","playlistName":"خطب الجمعة أ.د. يسري جبر","category":"خطب"},{"id":"lOcCFJqLM-0","title":"35- بابُ الصَّبر:الحديثُ الأول \"...والحمدُ للهِ تملأُ الميزانَ...\" شرح دليل الفالحين","publishedAt":"2021-03-27T05:49:09Z","duration":"PT33M36S","thumbnail":"https://i.ytimg.com/vi/lOcCFJqLM-0/mqdefault.jpg","viewCount":"1533","playlistId":"PLEkQk5xrP-tkc9DXvSLguqX5-FYp6ASR4","playlistName":"دليل الفالحين لطرق رياض الصالحين","category":"متنوع"},{"id":"DDbVfHOdmWQ","title":"القِسمُ التاسع من التوكيد: وضع الظاهر موضع المُضْمَر (3) شرح البرهان في علوم القرآن","publishedAt":"2021-03-26T06:00:34Z","duration":"PT23M24S","thumbnail":"https://i.ytimg.com/vi/DDbVfHOdmWQ/mqdefault.jpg","viewCount":"492","playlistId":"PLEkQk5xrP-tnW3iBL7HkKziOFCFZbTlf0","playlistName":"شرح البرهان في علوم القرآن - أ.د. يسري جبر","category":"تفسير"},{"id":"Cy-5m5pLQ2k","title":"أفضل الأعمال في شهر شعبان","publishedAt":"2021-03-25T18:30:05Z","duration":"PT28M8S","thumbnail":"https://i.ytimg.com/vi/Cy-5m5pLQ2k/mqdefault.jpg","viewCount":"5513","playlistId":"PLEkQk5xrP-tlArtGpeLWaqNM7h7IDeAVC","playlistName":"خطب الجمعة أ.د. يسري جبر","category":"خطب"},{"id":"XoaJT7MnFaw","title":"34- باب الثالث: باب الصبر - شرح دليل الفالحين لطُرُق رياض الصالحين","publishedAt":"2021-03-25T07:34:49Z","duration":"PT31M6S","thumbnail":"https://i.ytimg.com/vi/XoaJT7MnFaw/mqdefault.jpg","viewCount":"2261","playlistId":"PLEkQk5xrP-tkc9DXvSLguqX5-FYp6ASR4","playlistName":"دليل الفالحين لطرق رياض الصالحين","category":"متنوع"},{"id":"2Rt4vryPX78","title":"أحكام الحيض والنفاس | أ.د. يسري جبر","publishedAt":"2021-03-24T18:00:00Z","duration":"PT26M8S","thumbnail":"https://i.ytimg.com/vi/2Rt4vryPX78/mqdefault.jpg","viewCount":"6632","playlistId":"PLEkQk5xrP-tm8ZIu74nTOZN9KJUJu416J","playlistName":"مقاطع مُهمَّة (يُسريَّات) أ.د. يسري جبر","category":"متنوع"},{"id":"sN87pZYp0Rg","title":"180- قاعدةٌ في الضمائر - شرح الإتقان في علوم القرآن","publishedAt":"2023-12-07T06:51:37Z","duration":"PT34M44S","thumbnail":"https://i.ytimg.com/vi/sN87pZYp0Rg/mqdefault.jpg","viewCount":"735","playlistId":"PLEkQk5xrP-tlPw10KGJKagu7zm4Ry2Tge","playlistName":"شرح الإتقان في علوم القرآن","category":"تفسير"},{"id":"JSYPWGXevyk","title":"179-  فائدة: فيما قُرئ بثلاثة أوجه \"الإعراب، أو  البناء، أو نحو ذلك\"(2)- شرح الإتقان في علوم القرآن","publishedAt":"2023-12-06T06:30:10Z","duration":"PT30M59S","thumbnail":"https://i.ytimg.com/vi/JSYPWGXevyk/mqdefault.jpg","viewCount":"477","playlistId":"PLEkQk5xrP-tlPw10KGJKagu7zm4Ry2Tge","playlistName":"شرح الإتقان في علوم القرآن","category":"تفسير"},{"id":"fF7jI2SmtBw","title":"47- الفرق بين المرفق والكوع والبوع والكرسوع - شرح مسند الإمام أحمد","publishedAt":"2023-12-05T07:00:36Z","duration":"PT35M49S","thumbnail":"https://i.ytimg.com/vi/fF7jI2SmtBw/mqdefault.jpg","viewCount":"1456","playlistId":"PLEkQk5xrP-tkKprIuGrSdEuBSMsyg5We1","playlistName":"شرح مسند الإمام أحمد بن حنبل","category":"متنوع"},{"id":"t3cGr40yIR0","title":"178- فائدة: فيما قُرئ بثلاثة أوجه (الإعراب، أو  البناء، أو نحو ذلك) - شرح الإتقان في علوم القرآن","publishedAt":"2023-12-04T06:30:21Z","duration":"PT31M18S","thumbnail":"https://i.ytimg.com/vi/t3cGr40yIR0/mqdefault.jpg","viewCount":"722","playlistId":"PLEkQk5xrP-tlPw10KGJKagu7zm4Ry2Tge","playlistName":"شرح الإتقان في علوم القرآن","category":"تفسير"},{"id":"AiM7mSyJLZg","title":"46- الفرق بين المَني والمذي والودي | صفات الخوارج - شرح مسند الإمام أحمد","publishedAt":"2023-12-03T06:47:10Z","duration":"PT36M35S","thumbnail":"https://i.ytimg.com/vi/AiM7mSyJLZg/mqdefault.jpg","viewCount":"1570","playlistId":"PLEkQk5xrP-tkKprIuGrSdEuBSMsyg5We1","playlistName":"شرح مسند الإمام أحمد بن حنبل","category":"متنوع"},{"id":"t5qVByQkmoI","title":"كيف أواظب على الصلاة وأتخلص من شهوة مشاهدة الإباحية؟","publishedAt":"2023-12-02T18:29:03Z","duration":"PT8M48S","thumbnail":"https://i.ytimg.com/vi/t5qVByQkmoI/mqdefault.jpg","viewCount":"9290","playlistId":"PLEkQk5xrP-tkGXuZ9atE3k_7it12rUPTs","playlistName":"أسئلة المتابعين","category":"متنوع"},{"id":"O-LmscaGPnI","title":"23- ما ورد في طهارة المَنيّ وحكمه رطبًا ويابسًا | وماذا يصنع الجنب إذا أراد أن يأكل أو يشرب أو ينام","publishedAt":"2023-12-02T10:18:25Z","duration":"PT39M18S","thumbnail":"https://i.ytimg.com/vi/O-LmscaGPnI/mqdefault.jpg","viewCount":"1281","playlistId":"PLEkQk5xrP-tk_MCBZ706ORCw6gFtFyaGj","playlistName":"شرح سنن الإمام الدارقطني","category":"متنوع"},{"id":"M_vBiAx3s2c","title":"177- شروط الإعراب (7) تنبيهات - شرح الإتقان في علوم القرآن","publishedAt":"2023-12-01T06:30:11Z","duration":"PT22M51S","thumbnail":"https://i.ytimg.com/vi/M_vBiAx3s2c/mqdefault.jpg","viewCount":"611","playlistId":"PLEkQk5xrP-tlPw10KGJKagu7zm4Ry2Tge","playlistName":"شرح الإتقان في علوم القرآن","category":"تفسير"},{"id":"VxE9WX8IJZM","title":"ماذا أفعل حتى يزيد حبي للنبي ﷺ؟","publishedAt":"2023-11-30T16:30:20Z","duration":"PT9M28S","thumbnail":"https://i.ytimg.com/vi/VxE9WX8IJZM/mqdefault.jpg","viewCount":"16277","playlistId":"PLEkQk5xrP-tkGXuZ9atE3k_7it12rUPTs","playlistName":"أسئلة المتابعين","category":"متنوع"},{"id":"1j88-rC7GkA","title":"45- الحث على أفضل القربات وأحسنها والمبادرة إليها - شرح مسند الإمام أحمد","publishedAt":"2023-11-30T06:44:14Z","duration":"PT33M44S","thumbnail":"https://i.ytimg.com/vi/1j88-rC7GkA/mqdefault.jpg","viewCount":"1559","playlistId":"PLEkQk5xrP-tkKprIuGrSdEuBSMsyg5We1","playlistName":"شرح مسند الإمام أحمد بن حنبل","category":"متنوع"}],"total":7670,"page":195,"pageSize":24,"totalPages":320}