{"items":[{"id":"CN_nqqvKwrQ","title":"12- شرح اللؤلؤ والمرجان كتاب الإيمان من باب ٧٣","publishedAt":"2019-12-27T00:45:15Z","duration":"PT25M32S","thumbnail":"https://i.ytimg.com/vi/CN_nqqvKwrQ/mqdefault.jpg","viewCount":"1044","playlistId":"PLEkQk5xrP-tmKNjtYLfhATC37QdIsTMe0","playlistName":"شرح كتاب اللؤلؤ والمرجان فيما اتفق عليه الشيخان إماما المحدثين البخاري ومسلم. أ.د. يسري جبر","category":"حديث"},{"id":"l7OOlB9K4ww","title":"شرح كتاب دلائل الخيرات - المجلس الرابع عشر. أ.د. يسري جبر","publishedAt":"2019-12-26T18:04:59Z","duration":"PT28M4S","thumbnail":"https://i.ytimg.com/vi/l7OOlB9K4ww/mqdefault.jpg","viewCount":"11131","playlistId":"PLEkQk5xrP-tlAzcbIpuqjdFICW-knvTlR","playlistName":"شرح كتاب دلائل الخيرات وشوارق الأنوار","category":"متنوع"},{"id":"evgwU8TZgMc","title":"‎شرح صحيح الإمام البخاري رضي الله تعالى عنه - كتابُ الاعتصَامِ بالكِتابِ والسُّنَّةِ. أ.د. يسري جبر","publishedAt":"2019-12-26T08:29:54Z","duration":"PT30M54S","thumbnail":"https://i.ytimg.com/vi/evgwU8TZgMc/mqdefault.jpg","viewCount":"431","playlistId":"PLEkQk5xrP-tmJuzaj4GWRenFoFx9gdbFX","playlistName":"شرح كتاب صحيح الإمام البخاري رضي الله تعالى عنه   أ.د. يسرى جبر","category":"حديث"},{"id":"Uluzgse_D6M","title":"الإحسان.  أ.د. يسري جبر","publishedAt":"2019-12-25T09:10:49Z","duration":"PT37M27S","thumbnail":"https://i.ytimg.com/vi/Uluzgse_D6M/mqdefault.jpg","viewCount":"2812","playlistId":"PLEkQk5xrP-tlArtGpeLWaqNM7h7IDeAVC","playlistName":"خطب الجمعة أ.د. يسري جبر","category":"خطب"},{"id":"ts8VX83ACHA","title":"11- شرح اللؤلؤ والمرجان كتاب الإيمان من باب ٦٥","publishedAt":"2019-12-24T17:45:21Z","duration":"PT42M50S","thumbnail":"https://i.ytimg.com/vi/ts8VX83ACHA/mqdefault.jpg","viewCount":"1325","playlistId":"PLEkQk5xrP-tmKNjtYLfhATC37QdIsTMe0","playlistName":"شرح كتاب اللؤلؤ والمرجان فيما اتفق عليه الشيخان إماما المحدثين البخاري ومسلم. أ.د. يسري جبر","category":"حديث"},{"id":"T1nztzuCus8","title":"أَحَبَّ اللهُ مَن أَحَبَّ حُسَيْنًا.    أ.د. يسري جبر","publishedAt":"2019-12-24T16:56:11Z","duration":"PT35M4S","thumbnail":"https://i.ytimg.com/vi/T1nztzuCus8/mqdefault.jpg","viewCount":"6183","playlistId":"PLEkQk5xrP-tm8ZIu74nTOZN9KJUJu416J","playlistName":"مقاطع مُهمَّة (يُسريَّات) أ.د. يسري جبر","category":"متنوع"},{"id":"mkH8-ETIq-8","title":"شرح البرهان في علوم القرآن - النوع ٢٢ - معرفة اختلاف الألفاظ بزيادة أو نقص أو تغيير ٤","publishedAt":"2019-12-24T07:47:48Z","duration":"PT20M15S","thumbnail":"https://i.ytimg.com/vi/mkH8-ETIq-8/mqdefault.jpg","viewCount":"436","playlistId":"PLEkQk5xrP-tnW3iBL7HkKziOFCFZbTlf0","playlistName":"شرح البرهان في علوم القرآن - أ.د. يسري جبر","category":"تفسير"},{"id":"nGWQOCumQRA","title":"10- شرح اللؤلؤ والمرجان كتاب الإيمان من باب ٥٣","publishedAt":"2019-12-23T18:58:02Z","duration":"PT26M45S","thumbnail":"https://i.ytimg.com/vi/nGWQOCumQRA/mqdefault.jpg","viewCount":"1311","playlistId":"PLEkQk5xrP-tmKNjtYLfhATC37QdIsTMe0","playlistName":"شرح كتاب اللؤلؤ والمرجان فيما اتفق عليه الشيخان إماما المحدثين البخاري ومسلم. أ.د. يسري جبر","category":"حديث"},{"id":"UVBjOS5ZVZo","title":"شرح البرهان في علوم القرآن - النوع ٢٢ - معرفة اختلاف الألفاظ بزيادة أو نقص أو تغيير ٣","publishedAt":"2019-12-23T09:07:20Z","duration":"PT22M4S","thumbnail":"https://i.ytimg.com/vi/UVBjOS5ZVZo/mqdefault.jpg","viewCount":"424","playlistId":"PLEkQk5xrP-tnW3iBL7HkKziOFCFZbTlf0","playlistName":"شرح البرهان في علوم القرآن - أ.د. يسري جبر","category":"تفسير"},{"id":"E-NaKylk46k","title":"الرسالة القشيرية - المجلس (74) بَابُ الحرية . أ.د. يسري جبر","publishedAt":"2019-12-22T18:57:39Z","duration":"PT37M42S","thumbnail":"https://i.ytimg.com/vi/E-NaKylk46k/mqdefault.jpg","viewCount":"3161","playlistId":"PLEkQk5xrP-tkHAGOwIKr4pc5ehhyQ5HMJ","playlistName":"كتاب الرسالة القشيرية (تصوف) - د. يسري جبر","category":"تصوف"},{"id":"50eTflHCQf4","title":"شرح مسند الإمام محمد بن إدريس الشافعيّ رضي الله تعالى عنه - المجلس السابع  أ.د. يسري جبر","publishedAt":"2019-12-22T12:00:12Z","duration":"PT51M56S","thumbnail":"https://i.ytimg.com/vi/50eTflHCQf4/mqdefault.jpg","viewCount":"991","playlistId":"PLEkQk5xrP-tlDtaqY0qhNXAiZ19gaGzKI","playlistName":"شرح مسند الإمام محمد بن إدريس الشافعيّ رضي الله تعالى عنه","category":"فقه"},{"id":"lKyrvbZNhTE","title":"‎شرح صحيح الإمام البخاري رضي الله تعالى عنه - كتابُ الاعتصَامِ بالكِتَابِ والسُّنَّةِ. أ.د. يسري جبر","publishedAt":"2019-12-21T17:46:04Z","duration":"PT32M4S","thumbnail":"https://i.ytimg.com/vi/lKyrvbZNhTE/mqdefault.jpg","viewCount":"370","playlistId":"PLEkQk5xrP-tmJuzaj4GWRenFoFx9gdbFX","playlistName":"شرح كتاب صحيح الإمام البخاري رضي الله تعالى عنه   أ.د. يسرى جبر","category":"حديث"},{"id":"gpFMv41opr4","title":"166- \"سَبْعَةٌ يُظِلُّهُمُ اللَّهُ في ظِلِّهِ، يَومَ لا ظِلَّ إِلَّا ظِلُّهُ…\" - شرح دليل الفالحين","publishedAt":"2021-12-08T20:39:37Z","duration":"PT44M48S","thumbnail":"https://i.ytimg.com/vi/gpFMv41opr4/mqdefault.jpg","viewCount":"1291","playlistId":"PLEkQk5xrP-tkc9DXvSLguqX5-FYp6ASR4","playlistName":"دليل الفالحين لطرق رياض الصالحين","category":"متنوع"},{"id":"_qy5rsOD0Wg","title":"165- الحُبُّ في الله والحَثُّ عليه - شرح دليل الفالحين","publishedAt":"2021-12-08T06:46:29Z","duration":"PT28M57S","thumbnail":"https://i.ytimg.com/vi/_qy5rsOD0Wg/mqdefault.jpg","viewCount":"1346","playlistId":"PLEkQk5xrP-tkc9DXvSLguqX5-FYp6ASR4","playlistName":"دليل الفالحين لطرق رياض الصالحين","category":"متنوع"},{"id":"3ehU_5_-Dck","title":"شرح صحيح البخاري كتاب التوحيد من باب ٧","publishedAt":"2019-02-01T22:46:42Z","duration":"PT33M32S","thumbnail":"https://i.ytimg.com/vi/3ehU_5_-Dck/mqdefault.jpg","viewCount":"704","playlistId":"PLEkQk5xrP-tlEerGoLa1AFy-2XvQ-sovv","playlistName":"شرح صحيح البخاري - أ.د. يسري جبر (كاملا)","category":"حديث"},{"id":"JsDsOFRmeLQ","title":"مقرأة سورة ق من آية ٢٧","publishedAt":"2019-02-01T16:29:00Z","duration":"PT13M46S","thumbnail":"https://i.ytimg.com/vi/JsDsOFRmeLQ/mqdefault.jpg","viewCount":"385","playlistId":"PLEkQk5xrP-tnmTYsyW6xNdyfhPq0Bhrhj","playlistName":"مقرأة الفجر - القُرْآنُ الكَرِيمُ - خَتْمَةُ التَّدَبُّرِ  أ.د. يسري جبر","category":"متنوع"},{"id":"mMgWOLUcW38","title":"شرح صحيح البخاري كتاب التوحيد من أوله","publishedAt":"2019-01-31T22:04:03Z","duration":"PT32M28S","thumbnail":"https://i.ytimg.com/vi/mMgWOLUcW38/mqdefault.jpg","viewCount":"1041","playlistId":"PLEkQk5xrP-tlEerGoLa1AFy-2XvQ-sovv","playlistName":"شرح صحيح البخاري - أ.د. يسري جبر (كاملا)","category":"حديث"},{"id":"ZjD3NuRycZE","title":"مقرأة سورة ق من آية ١٢","publishedAt":"2019-01-31T11:08:32Z","duration":"PT12M8S","thumbnail":"https://i.ytimg.com/vi/ZjD3NuRycZE/mqdefault.jpg","viewCount":"580","playlistId":"PLEkQk5xrP-tnmTYsyW6xNdyfhPq0Bhrhj","playlistName":"مقرأة الفجر - القُرْآنُ الكَرِيمُ - خَتْمَةُ التَّدَبُّرِ  أ.د. يسري جبر","category":"متنوع"},{"id":"bvjgkIR-iWw","title":"شرح صحيح البخاري كتاب الإعتصام بالكتاب والسنة من باب 26","publishedAt":"2019-01-30T21:34:29Z","duration":"PT36M5S","thumbnail":"https://i.ytimg.com/vi/bvjgkIR-iWw/mqdefault.jpg","viewCount":"465","playlistId":"PLEkQk5xrP-tlEerGoLa1AFy-2XvQ-sovv","playlistName":"شرح صحيح البخاري - أ.د. يسري جبر (كاملا)","category":"حديث"},{"id":"0X999sBycdg","title":"مقرأة سورة ق من أولها","publishedAt":"2019-01-30T12:02:28Z","duration":"PT15M6S","thumbnail":"https://i.ytimg.com/vi/0X999sBycdg/mqdefault.jpg","viewCount":"585","playlistId":"PLEkQk5xrP-tnmTYsyW6xNdyfhPq0Bhrhj","playlistName":"مقرأة الفجر - القُرْآنُ الكَرِيمُ - خَتْمَةُ التَّدَبُّرِ  أ.د. يسري جبر","category":"متنوع"},{"id":"8MJqX8fPofs","title":"شرح صحيح البخاري كتاب الإعتصام بالكتاب والسنة من باب ٢٥","publishedAt":"2019-01-29T17:09:57Z","duration":"PT35M16S","thumbnail":"https://i.ytimg.com/vi/8MJqX8fPofs/mqdefault.jpg","viewCount":"360","playlistId":"PLEkQk5xrP-tlEerGoLa1AFy-2XvQ-sovv","playlistName":"شرح صحيح البخاري - أ.د. يسري جبر (كاملا)","category":"حديث"},{"id":"5HVPVJs--OM","title":"الرسالة القشيرية المجلس السادس والأربعون - باب الورع - أ.د. يسري جبر","publishedAt":"2019-01-29T07:21:46Z","duration":"PT1H11M52S","thumbnail":"https://i.ytimg.com/vi/5HVPVJs--OM/mqdefault.jpg","viewCount":"6108","playlistId":"PLEkQk5xrP-tkHAGOwIKr4pc5ehhyQ5HMJ","playlistName":"كتاب الرسالة القشيرية (تصوف) - د. يسري جبر","category":"تصوف"},{"id":"-oK1LdYvAKQ","title":"مقرأة سورة الحجرات من آية ١٣","publishedAt":"2019-01-28T23:12:30Z","duration":"PT21M59S","thumbnail":"https://i.ytimg.com/vi/-oK1LdYvAKQ/mqdefault.jpg","viewCount":"560","playlistId":"PLEkQk5xrP-tnmTYsyW6xNdyfhPq0Bhrhj","playlistName":"مقرأة الفجر - القُرْآنُ الكَرِيمُ - خَتْمَةُ التَّدَبُّرِ  أ.د. يسري جبر","category":"متنوع"},{"id":"AhRFB00yJew","title":"ختام شرح كتاب نور اليقين في سيرة سيد المرسلين للشيخ الخضري رحمه الله (المجلس75) أ.د. يسري جبر","publishedAt":"2019-01-28T19:19:22Z","duration":"PT46M24S","thumbnail":"https://i.ytimg.com/vi/AhRFB00yJew/mqdefault.jpg","viewCount":"7953","playlistId":"PLEkQk5xrP-tl2t4NQx1IhKnAJCMzF0Nli","playlistName":"شرح كتاب نور اليقين في سيرة سيد المرسلين   د. يسري جبر","category":"سيرة"}],"total":7670,"page":291,"pageSize":24,"totalPages":320}