{"items":[{"id":"T80dE3mxFPI","title":"الرد على من يدعي أن والدي النبي ﷺ في النار","publishedAt":"2024-09-28T15:42:53Z","duration":"PT16M45S","thumbnail":"https://i.ytimg.com/vi/T80dE3mxFPI/mqdefault.jpg","viewCount":"2046","playlistId":"PLEkQk5xrP-tlArtGpeLWaqNM7h7IDeAVC","playlistName":"خطب الجمعة أ.د. يسري جبر","category":"خطب"},{"id":"J8EodLW5IVI","title":"ما هي العلوم الشرعية التي يجب على كل مسلم تعلمها؟","publishedAt":"2024-09-26T18:05:51Z","duration":"PT9M42S","thumbnail":"https://i.ytimg.com/vi/J8EodLW5IVI/mqdefault.jpg","viewCount":"3251","playlistId":"PLEkQk5xrP-tkGXuZ9atE3k_7it12rUPTs","playlistName":"أسئلة المتابعين","category":"متنوع"},{"id":"sx9YZ0Ow3bo","title":"ما هي أنواع الكبائر؟","publishedAt":"2024-09-25T15:39:57Z","duration":"PT21M6S","thumbnail":"https://i.ytimg.com/vi/sx9YZ0Ow3bo/mqdefault.jpg","viewCount":"2733","playlistId":"PLEkQk5xrP-tnZyxWbCSqTSMV9BJLUL-zN","playlistName":"شرح كتاب تنوير البصيرة ببيان علامات الكبيرة","category":"متنوع"},{"id":"L5o21wnPllE","title":"أنا شاب بحاول أبطل العادة السرية ومش قادر ,, أعمل ايه؟","publishedAt":"2024-09-24T15:42:17Z","duration":"PT11M41S","thumbnail":"https://i.ytimg.com/vi/L5o21wnPllE/mqdefault.jpg","viewCount":"12568","playlistId":"PLEkQk5xrP-tkGXuZ9atE3k_7it12rUPTs","playlistName":"أسئلة المتابعين","category":"متنوع"},{"id":"TFWDRfZR2Tk","title":"شرح كتاب الرسالة القشيرية - المجلس السادس - الفصل الأول (3)","publishedAt":"2017-12-22T14:24:00Z","duration":"PT1H17M44S","thumbnail":"https://i.ytimg.com/vi/TFWDRfZR2Tk/mqdefault.jpg","viewCount":"14554","playlistId":"PLEkQk5xrP-tkHAGOwIKr4pc5ehhyQ5HMJ","playlistName":"كتاب الرسالة القشيرية (تصوف) - د. يسري جبر","category":"تصوف"},{"id":"W-3QC6gA_Aw","title":"شرح صحيح البخاري   كتاب المغازي من باب ٩","publishedAt":"2017-12-21T16:09:13Z","duration":"PT34M38S","thumbnail":"https://i.ytimg.com/vi/W-3QC6gA_Aw/mqdefault.jpg","viewCount":"612","playlistId":"PLEkQk5xrP-tlEerGoLa1AFy-2XvQ-sovv","playlistName":"شرح صحيح البخاري - أ.د. يسري جبر (كاملا)","category":"حديث"},{"id":"JE2viEmMdks","title":"مقرأة سورة الأنبياء من آية ٨٣","publishedAt":"2017-12-21T09:23:34Z","duration":"PT18M15S","thumbnail":"https://i.ytimg.com/vi/JE2viEmMdks/mqdefault.jpg","viewCount":"298","playlistId":"PLEkQk5xrP-tnmTYsyW6xNdyfhPq0Bhrhj","playlistName":"مقرأة الفجر - القُرْآنُ الكَرِيمُ - خَتْمَةُ التَّدَبُّرِ  أ.د. يسري جبر","category":"متنوع"},{"id":"OaHHcK0saLw","title":"شرح صحيح البخاري - كتاب المغازي من باب ٦","publishedAt":"2017-12-20T14:02:12Z","duration":"PT28M51S","thumbnail":"https://i.ytimg.com/vi/OaHHcK0saLw/mqdefault.jpg","viewCount":"597","playlistId":"PLEkQk5xrP-tlEerGoLa1AFy-2XvQ-sovv","playlistName":"شرح صحيح البخاري - أ.د. يسري جبر (كاملا)","category":"حديث"},{"id":"D-4kllhcB-g","title":"مقرأة سورة الأنبياء من آية ٧٤","publishedAt":"2017-12-20T09:35:36Z","duration":"PT26M45S","thumbnail":"https://i.ytimg.com/vi/D-4kllhcB-g/mqdefault.jpg","viewCount":"318","playlistId":"PLEkQk5xrP-tnmTYsyW6xNdyfhPq0Bhrhj","playlistName":"مقرأة الفجر - القُرْآنُ الكَرِيمُ - خَتْمَةُ التَّدَبُّرِ  أ.د. يسري جبر","category":"متنوع"},{"id":"QuWkqSNbMNI","title":"شرح صحيح البخاري - كتاب المغازي من أوله","publishedAt":"2017-12-19T16:41:59Z","duration":"PT32M29S","thumbnail":"https://i.ytimg.com/vi/QuWkqSNbMNI/mqdefault.jpg","viewCount":"1475","playlistId":"PLEkQk5xrP-tlEerGoLa1AFy-2XvQ-sovv","playlistName":"شرح صحيح البخاري - أ.د. يسري جبر (كاملا)","category":"حديث"},{"id":"9e5fj6c6S90","title":"مقرأة سورة الأنبياء من آية ٦٨","publishedAt":"2017-12-19T09:51:18Z","duration":"PT8M41S","thumbnail":"https://i.ytimg.com/vi/9e5fj6c6S90/mqdefault.jpg","viewCount":"506","playlistId":"PLEkQk5xrP-tnmTYsyW6xNdyfhPq0Bhrhj","playlistName":"مقرأة الفجر - القُرْآنُ الكَرِيمُ - خَتْمَةُ التَّدَبُّرِ  أ.د. يسري جبر","category":"متنوع"},{"id":"HSuJ9KHa4aM","title":"شرح كتاب نوراليقين في سيرة سيد المرسلين - المجلس 33 ( الحجاب ) د.يسري جبر","publishedAt":"2017-12-18T09:03:50Z","duration":"PT50M10S","thumbnail":"https://i.ytimg.com/vi/HSuJ9KHa4aM/mqdefault.jpg","viewCount":"14986","playlistId":"PLEkQk5xrP-tl2t4NQx1IhKnAJCMzF0Nli","playlistName":"شرح كتاب نور اليقين في سيرة سيد المرسلين   د. يسري جبر","category":"سيرة"},{"id":"lkmJnDaAY-g","title":"شرح صحيح البخاري   كتاب مناقب الأنصار تكملة باب ٤٦ المجلس الثاني","publishedAt":"2017-12-17T19:58:53Z","duration":"PT44M24S","thumbnail":"https://i.ytimg.com/vi/lkmJnDaAY-g/mqdefault.jpg","viewCount":"526","playlistId":"PLEkQk5xrP-tlEerGoLa1AFy-2XvQ-sovv","playlistName":"شرح صحيح البخاري - أ.د. يسري جبر (كاملا)","category":"حديث"},{"id":"b4Tf9hBk65s","title":"كما لايحب العمل المشترك كذلك لايحب القلب المشترك،العمل المشترك لا يقبله،والقلب المشترك لايُقبل عليه.","publishedAt":"2017-12-17T12:00:19Z","duration":"PT7M54S","thumbnail":"https://i.ytimg.com/vi/b4Tf9hBk65s/mqdefault.jpg","viewCount":"919","playlistId":"PLEkQk5xrP-tkI_meE148wc7V7XHlB0WPb","playlistName":"من الحكم العطائية  د. يسري جبر","category":"متنوع"},{"id":"Izcq5DX-rpY","title":"شرح كتاب الأدب من سنن الترمذي - المجلس العاشر","publishedAt":"2016-03-17T11:13:46Z","duration":"PT44M21S","thumbnail":"https://i.ytimg.com/vi/Izcq5DX-rpY/mqdefault.jpg","viewCount":"113","playlistId":"PLEkQk5xrP-tnu6of679SvxdVx0qSrJzmb","playlistName":"شرح سنن الإمام الترمذي رضى الله عنه د. يسري جبر","category":"متنوع"},{"id":"n7fmobcCccQ","title":"قراءة القرآن (من أول سورة الشمس)","publishedAt":"2016-03-17T08:40:59Z","duration":"PT8M7S","thumbnail":"https://i.ytimg.com/vi/n7fmobcCccQ/mqdefault.jpg","viewCount":"80","playlistId":"PLEkQk5xrP-tnUSUj0uyJhA-kwNC7Gkx_j","playlistName":"مقرأة الفجر - بداية من سورة الإسراء حتى سورة الناس","category":"تفسير"},{"id":"_7dFHKyOUfY","title":"شرح كتاب الأدب من سنن الترمذي - المجلس التاسع","publishedAt":"2016-03-16T11:34:54Z","duration":"PT45M22S","thumbnail":"https://i.ytimg.com/vi/_7dFHKyOUfY/mqdefault.jpg","viewCount":"119","playlistId":"PLEkQk5xrP-tnu6of679SvxdVx0qSrJzmb","playlistName":"شرح سنن الإمام الترمذي رضى الله عنه د. يسري جبر","category":"متنوع"},{"id":"D1opCHa29b8","title":"قراءة القرآن (من أول سورة البلد)","publishedAt":"2016-03-16T11:15:09Z","duration":"PT17M46S","thumbnail":"https://i.ytimg.com/vi/D1opCHa29b8/mqdefault.jpg","viewCount":"101","playlistId":"PLEkQk5xrP-tnUSUj0uyJhA-kwNC7Gkx_j","playlistName":"مقرأة الفجر - بداية من سورة الإسراء حتى سورة الناس","category":"تفسير"},{"id":"mWvkmqav1As","title":"شرح كتاب الأدب من سنن الترمذي - المجلس السابع","publishedAt":"2016-03-16T03:39:56Z","duration":"PT35M49S","thumbnail":"https://i.ytimg.com/vi/mWvkmqav1As/mqdefault.jpg","viewCount":"95","playlistId":"PLEkQk5xrP-tnu6of679SvxdVx0qSrJzmb","playlistName":"شرح سنن الإمام الترمذي رضى الله عنه د. يسري جبر","category":"متنوع"},{"id":"q08VoPOvBXQ","title":"شرح كتاب الأدب من سنن الترمذي - المجلس الثامن","publishedAt":"2016-03-16T03:39:48Z","duration":"PT39M12S","thumbnail":"https://i.ytimg.com/vi/q08VoPOvBXQ/mqdefault.jpg","viewCount":"96","playlistId":"PLEkQk5xrP-tnu6of679SvxdVx0qSrJzmb","playlistName":"شرح سنن الإمام الترمذي رضى الله عنه د. يسري جبر","category":"متنوع"},{"id":"xKN1fwtM360","title":"قراءة القرآن (من أول سورة الفجر)","publishedAt":"2016-03-16T03:39:40Z","duration":"PT35M59S","thumbnail":"https://i.ytimg.com/vi/xKN1fwtM360/mqdefault.jpg","viewCount":"105","playlistId":"PLEkQk5xrP-tnUSUj0uyJhA-kwNC7Gkx_j","playlistName":"مقرأة الفجر - بداية من سورة الإسراء حتى سورة الناس","category":"تفسير"},{"id":"wFUZoty_Tv8","title":"قراءة القرآن (من أول سورة الغاشية)","publishedAt":"2016-03-15T11:39:50Z","duration":"PT21M11S","thumbnail":"https://i.ytimg.com/vi/wFUZoty_Tv8/mqdefault.jpg","viewCount":"78","playlistId":"PLEkQk5xrP-tnUSUj0uyJhA-kwNC7Gkx_j","playlistName":"مقرأة الفجر - بداية من سورة الإسراء حتى سورة الناس","category":"تفسير"},{"id":"ciIRQE7IjT8","title":"شرح كتاب الأدب من سنن الترمذي - المجلس السادس","publishedAt":"2016-03-15T11:04:15Z","duration":"PT35M13S","thumbnail":"https://i.ytimg.com/vi/ciIRQE7IjT8/mqdefault.jpg","viewCount":"158","playlistId":"PLEkQk5xrP-tnu6of679SvxdVx0qSrJzmb","playlistName":"شرح سنن الإمام الترمذي رضى الله عنه د. يسري جبر","category":"متنوع"},{"id":"ESyKPcT-vs8","title":"قراءة القرآن (من أول سورة الأعلى)","publishedAt":"2016-03-15T09:17:55Z","duration":"PT19M23S","thumbnail":"https://i.ytimg.com/vi/ESyKPcT-vs8/mqdefault.jpg","viewCount":"74","playlistId":"PLEkQk5xrP-tnUSUj0uyJhA-kwNC7Gkx_j","playlistName":"مقرأة الفجر - بداية من سورة الإسراء حتى سورة الناس","category":"تفسير"}],"total":7670,"page":110,"pageSize":24,"totalPages":320}