{"items":[{"id":"kmWW-3pNj9I","title":"الرد على من ينكر رؤية النبي ﷺ في المنام!","publishedAt":"2025-12-02T18:15:06Z","duration":"PT10M10S","thumbnail":"https://i.ytimg.com/vi/kmWW-3pNj9I/mqdefault.jpg","viewCount":"914","playlistId":"PLEkQk5xrP-tlArtGpeLWaqNM7h7IDeAVC","playlistName":"خطب الجمعة أ.د. يسري جبر","category":"خطب"},{"id":"_NMVMvqDm9w","title":"318- مرسوم الخط وآداب كتابته (2) - شرح الإتقان في علوم القرآن","publishedAt":"2025-12-01T21:20:27Z","duration":"PT28M9S","thumbnail":"https://i.ytimg.com/vi/_NMVMvqDm9w/mqdefault.jpg","viewCount":"328","playlistId":"PLEkQk5xrP-tlPw10KGJKagu7zm4Ry2Tge","playlistName":"شرح الإتقان في علوم القرآن","category":"تفسير"},{"id":"HSPe_HG38-U","title":"متى تكون مستعدا للزواج وإنشاء أسرة صالحة؟","publishedAt":"2025-11-29T18:01:16Z","duration":"PT10M8S","thumbnail":"https://i.ytimg.com/vi/HSPe_HG38-U/mqdefault.jpg","viewCount":"1334","playlistId":"PLEkQk5xrP-tlArtGpeLWaqNM7h7IDeAVC","playlistName":"خطب الجمعة أ.د. يسري جبر","category":"خطب"},{"id":"FRRhRiWiOvQ","title":"69- ما هي فتنة سيدنا داود؟ | وما الفرق بين سجود التلاوة وسجود الشكر | شرح سنن الإمام الدارقطني","publishedAt":"2025-11-29T10:00:33Z","duration":"PT36M40S","thumbnail":"https://i.ytimg.com/vi/FRRhRiWiOvQ/mqdefault.jpg","viewCount":"939","playlistId":"PLEkQk5xrP-tk_MCBZ706ORCw6gFtFyaGj","playlistName":"شرح سنن الإمام الدارقطني","category":"متنوع"},{"id":"qsd3lU15mak","title":"كيف أكون صالحا في هذا الزمان؟","publishedAt":"2025-11-28T17:01:36Z","duration":"PT11M18S","thumbnail":"https://i.ytimg.com/vi/qsd3lU15mak/mqdefault.jpg","viewCount":"1487","playlistId":"PLEkQk5xrP-tlArtGpeLWaqNM7h7IDeAVC","playlistName":"خطب الجمعة أ.د. يسري جبر","category":"خطب"},{"id":"9EkSn5ofjpE","title":"مالا تعرفه عن سيرة آل البيت وكيف صبروا على البلاء؟","publishedAt":"2025-11-27T20:05:43Z","duration":"PT16M","thumbnail":"https://i.ytimg.com/vi/9EkSn5ofjpE/mqdefault.jpg","viewCount":"2274","playlistId":"PLEkQk5xrP-tm8ZIu74nTOZN9KJUJu416J","playlistName":"مقاطع مُهمَّة (يُسريَّات) أ.د. يسري جبر","category":"متنوع"},{"id":"2Y0QGnJH6HA","title":"اعمل ايه لو اكتشفت إن زوجتي بتخوني مع شخص آخر؟","publishedAt":"2025-11-26T19:30:00Z","duration":"PT10M11S","thumbnail":"https://i.ytimg.com/vi/2Y0QGnJH6HA/mqdefault.jpg","viewCount":"3236","playlistId":"PLEkQk5xrP-tkGXuZ9atE3k_7it12rUPTs","playlistName":"أسئلة المتابعين","category":"متنوع"},{"id":"SXKu0CzDeCo","title":"كيف وسعت رحمة الله كل شيء؟ | أجمل ما قيل عن رحمة الله","publishedAt":"2025-11-25T19:03:45Z","duration":"PT12M59S","thumbnail":"https://i.ytimg.com/vi/SXKu0CzDeCo/mqdefault.jpg","viewCount":"1634","playlistId":"PLEkQk5xrP-tlArtGpeLWaqNM7h7IDeAVC","playlistName":"خطب الجمعة أ.د. يسري جبر","category":"خطب"},{"id":"SZCxQBzqyO0","title":"185- {فَلَا وَرَبِّكَ لَا يُؤْمِنُونَ حَتَّىٰ يُحَكِّمُوكَ فِيمَا شَجَرَ بَيْنَهُمْ}","publishedAt":"2025-11-25T05:30:16Z","duration":"PT18M41S","thumbnail":"https://i.ytimg.com/vi/SZCxQBzqyO0/mqdefault.jpg","viewCount":"636","playlistId":"PLEkQk5xrP-tkKprIuGrSdEuBSMsyg5We1","playlistName":"شرح مسند الإمام أحمد بن حنبل","category":"متنوع"},{"id":"vvetyQQ_9qU","title":"قابلت مسلمين اسلموا بعد 60 سنة من الكفر!!","publishedAt":"2025-11-24T17:59:56Z","duration":"PT9M26S","thumbnail":"https://i.ytimg.com/vi/vvetyQQ_9qU/mqdefault.jpg","viewCount":"1069","playlistId":"PLEkQk5xrP-tlArtGpeLWaqNM7h7IDeAVC","playlistName":"خطب الجمعة أ.د. يسري جبر","category":"خطب"},{"id":"lXI2ZX16b8Q","title":"317- مرسوم الخط وآداب كتابته - شرح الإتقان في علوم القرآن","publishedAt":"2025-11-24T05:30:21Z","duration":"PT19M30S","thumbnail":"https://i.ytimg.com/vi/lXI2ZX16b8Q/mqdefault.jpg","viewCount":"359","playlistId":"PLEkQk5xrP-tlPw10KGJKagu7zm4Ry2Tge","playlistName":"شرح الإتقان في علوم القرآن","category":"تفسير"},{"id":"U6TseIMQ2hc","title":"كيف تجعل نيتك خالصة لله في جميع أعمالك؟","publishedAt":"2025-11-23T18:59:56Z","duration":"PT15M46S","thumbnail":"https://i.ytimg.com/vi/U6TseIMQ2hc/mqdefault.jpg","viewCount":"1537","playlistId":"PLEkQk5xrP-tlArtGpeLWaqNM7h7IDeAVC","playlistName":"خطب الجمعة أ.د. يسري جبر","category":"خطب"},{"id":"Nm8DaVNcg64","title":"68- متى تفتح على الإمام في القراءة؟ | وما قدر النجاسة التي تبطل الصلاة | شرح سنن الإمام الدارقطني","publishedAt":"2025-11-23T05:30:23Z","duration":"PT32M19S","thumbnail":"https://i.ytimg.com/vi/Nm8DaVNcg64/mqdefault.jpg","viewCount":"437","playlistId":"PLEkQk5xrP-tk_MCBZ706ORCw6gFtFyaGj","playlistName":"شرح سنن الإمام الدارقطني","category":"متنوع"},{"id":"c59fuCwHKt4","title":"55- ما معنى التأويل وما أنواعه؟ | شرح مختصر الفتوحات المكية","publishedAt":"2025-11-22T19:45:03Z","duration":"PT40M19S","thumbnail":"https://i.ytimg.com/vi/c59fuCwHKt4/mqdefault.jpg","viewCount":"1198","playlistId":"PLEkQk5xrP-tnpkdZki6rPTtMak1bnI5g-","playlistName":"شرح كتاب مختصر الفتوحات المكية المسمى لواقح الأنوار القدسية","category":"متنوع"},{"id":"qSSJyr5f43Y","title":"316- خواص القرآن (2) - شرح الإتقان في علوم القرآن","publishedAt":"2025-11-22T10:01:26Z","duration":"PT23M55S","thumbnail":"https://i.ytimg.com/vi/qSSJyr5f43Y/mqdefault.jpg","viewCount":"312","playlistId":"PLEkQk5xrP-tlPw10KGJKagu7zm4Ry2Tge","playlistName":"شرح الإتقان في علوم القرآن","category":"تفسير"},{"id":"xOrCCgFoPXY","title":"29- العطاء من الخلق حرمان والمنع من اللّه إحسان | شرح الحكم العطائية","publishedAt":"2025-11-21T20:15:07Z","duration":"PT43M8S","thumbnail":"https://i.ytimg.com/vi/xOrCCgFoPXY/mqdefault.jpg","viewCount":"2205","playlistId":"PLEkQk5xrP-tmf5ToOwmW-q0JwxkapbrMN","playlistName":"شرح كتاب إرشاد البرية إلى بعض معاني الحكم العطائية","category":"متنوع"},{"id":"Hdy9w6VRM6o","title":"184- ما الفرق بين الرؤيا والرؤية؟ | أ.د.يسري جبر","publishedAt":"2025-11-21T10:00:26Z","duration":"PT20M29S","thumbnail":"https://i.ytimg.com/vi/Hdy9w6VRM6o/mqdefault.jpg","viewCount":"696","playlistId":"PLEkQk5xrP-tkKprIuGrSdEuBSMsyg5We1","playlistName":"شرح مسند الإمام أحمد بن حنبل","category":"متنوع"},{"id":"Nrmz3r1GxJE","title":"كيف تربي نفسك تربية نبوية؟","publishedAt":"2025-11-20T19:45:00Z","duration":"PT18M27S","thumbnail":"https://i.ytimg.com/vi/Nrmz3r1GxJE/mqdefault.jpg","viewCount":"1908","playlistId":"PLEkQk5xrP-tlArtGpeLWaqNM7h7IDeAVC","playlistName":"خطب الجمعة أ.د. يسري جبر","category":"خطب"},{"id":"tuhAnRYW9RE","title":"315- خواص القرآن - شرح الإتقان في علوم القرآن","publishedAt":"2025-11-20T10:01:42Z","duration":"PT33M51S","thumbnail":"https://i.ytimg.com/vi/tuhAnRYW9RE/mqdefault.jpg","viewCount":"438","playlistId":"PLEkQk5xrP-tlPw10KGJKagu7zm4Ry2Tge","playlistName":"شرح الإتقان في علوم القرآن","category":"تفسير"},{"id":"6LAi_QMLr2s","title":"ما سر الإعجاز فى القرآن الكريم؟","publishedAt":"2025-11-19T18:15:01Z","duration":"PT20M34S","thumbnail":"https://i.ytimg.com/vi/6LAi_QMLr2s/mqdefault.jpg","viewCount":"1426","playlistId":"PLEkQk5xrP-tlKBnMFB7ry6dhZC6YzNtAq","playlistName":"شرح كتاب يسر البيان قراءة في كتاب التبيان في آداب حملة القرآن","category":"تفسير"},{"id":"eLGwJOCNeHA","title":"183- {وَعَلَّمَكَ مَا لَمْ تَكُن تَعْلَمُ ۚ وَكَانَ فَضْلُ اللَّهِ عَلَيْكَ عَظِيمًا}","publishedAt":"2025-11-19T10:01:12Z","duration":"PT24M19S","thumbnail":"https://i.ytimg.com/vi/eLGwJOCNeHA/mqdefault.jpg","viewCount":"911","playlistId":"PLEkQk5xrP-tkKprIuGrSdEuBSMsyg5We1","playlistName":"شرح مسند الإمام أحمد بن حنبل","category":"متنوع"},{"id":"cIjdLaqPLRw","title":"314- أشد آية في القرآن - شرح الإتقان في علوم القرآن","publishedAt":"2025-11-18T10:01:07Z","duration":"PT24M","thumbnail":"https://i.ytimg.com/vi/cIjdLaqPLRw/mqdefault.jpg","viewCount":"600","playlistId":"PLEkQk5xrP-tlPw10KGJKagu7zm4Ry2Tge","playlistName":"شرح الإتقان في علوم القرآن","category":"تفسير"},{"id":"IkJp5BAXg50","title":"28- كيف تفهم حكمة الله في المنع والعطاء؟ | شرح الحكم العطائية","publishedAt":"2025-11-17T18:30:32Z","duration":"PT49M27S","thumbnail":"https://i.ytimg.com/vi/IkJp5BAXg50/mqdefault.jpg","viewCount":"3551","playlistId":"PLEkQk5xrP-tmf5ToOwmW-q0JwxkapbrMN","playlistName":"شرح كتاب إرشاد البرية إلى بعض معاني الحكم العطائية","category":"متنوع"},{"id":"dDX_akFojEY","title":"182- دليل جواز الذكر وختام الصلاة جهرًا جماعة - شرح مسند الإمام أحمد رضي الله تعالى عنه","publishedAt":"2025-11-17T10:01:06Z","duration":"PT20M19S","thumbnail":"https://i.ytimg.com/vi/dDX_akFojEY/mqdefault.jpg","viewCount":"570","playlistId":"PLEkQk5xrP-tkKprIuGrSdEuBSMsyg5We1","playlistName":"شرح مسند الإمام أحمد بن حنبل","category":"متنوع"}],"total":7670,"page":1,"pageSize":24,"totalPages":320}