{"items":[{"id":"7VNWMMUL9HY","title":"قصة يوم عاشوراء وما هو فضل صيامه؟","publishedAt":"2024-07-15T17:30:00Z","duration":"PT13M55S","thumbnail":"https://i.ytimg.com/vi/7VNWMMUL9HY/mqdefault.jpg","viewCount":"9248","playlistId":"PLEkQk5xrP-tm8ZIu74nTOZN9KJUJu416J","playlistName":"مقاطع مُهمَّة (يُسريَّات) أ.د. يسري جبر","category":"متنوع"},{"id":"5-HoeEJT9zU","title":"كيف تكون طبيعة العلاقة بين الشيخ والمريد؟","publishedAt":"2024-07-14T17:40:53Z","duration":"PT8M42S","thumbnail":"https://i.ytimg.com/vi/5-HoeEJT9zU/mqdefault.jpg","viewCount":"4470","playlistId":"PLEkQk5xrP-tkGXuZ9atE3k_7it12rUPTs","playlistName":"أسئلة المتابعين","category":"متنوع"},{"id":"iMvlu2b4wIM","title":"116- حكم بيع الطعام قبل أن يُستوفى - شرح مسند الإمام أحمد رضي الله تعالى عنه","publishedAt":"2024-07-14T05:00:22Z","duration":"PT33M45S","thumbnail":"https://i.ytimg.com/vi/iMvlu2b4wIM/mqdefault.jpg","viewCount":"624","playlistId":"PLEkQk5xrP-tkKprIuGrSdEuBSMsyg5We1","playlistName":"شرح مسند الإمام أحمد بن حنبل","category":"متنوع"},{"id":"_cpEU-iYGig","title":"25- درجات الوصول إلى الله | شرح مختصر الفتوحات المكية","publishedAt":"2024-07-13T18:00:30Z","duration":"PT46M14S","thumbnail":"https://i.ytimg.com/vi/_cpEU-iYGig/mqdefault.jpg","viewCount":"9278","playlistId":"PLEkQk5xrP-tnpkdZki6rPTtMak1bnI5g-","playlistName":"شرح كتاب مختصر الفتوحات المكية المسمى لواقح الأنوار القدسية","category":"متنوع"},{"id":"uvE7EGaw6rY","title":"246- الإطناب - شرح الإتقان في علوم القرآن","publishedAt":"2024-07-13T05:18:04Z","duration":"PT28M18S","thumbnail":"https://i.ytimg.com/vi/uvE7EGaw6rY/mqdefault.jpg","viewCount":"607","playlistId":"PLEkQk5xrP-tlPw10KGJKagu7zm4Ry2Tge","playlistName":"شرح الإتقان في علوم القرآن","category":"تفسير"},{"id":"JB5WU3IB7hY","title":"شرح الاسرائيليات في كتب تفاسير القرآن","publishedAt":"2024-07-11T19:08:07Z","duration":"PT40M4S","thumbnail":"https://i.ytimg.com/vi/JB5WU3IB7hY/mqdefault.jpg","viewCount":"3794","playlistId":"PLEkQk5xrP-tkSGrPLMt1BEmJ54cGWYgtp","playlistName":"كتابُ بِدَعِ التَفَاسِيرِ - أ.د. يسري جبر","category":"متنوع"},{"id":"YURtUYjTBGY","title":"تعريف وسيرة السيد عبد الله الصديق الغماري بقراءة د. يسري جبر","publishedAt":"2024-07-10T19:49:27Z","duration":"PT47M21S","thumbnail":"https://i.ytimg.com/vi/YURtUYjTBGY/mqdefault.jpg","viewCount":"4307","playlistId":"PLEkQk5xrP-tkSGrPLMt1BEmJ54cGWYgtp","playlistName":"كتابُ بِدَعِ التَفَاسِيرِ - أ.د. يسري جبر","category":"متنوع"},{"id":"84QcRRSifKo","title":"ما حكم حضور حفلات الإنشاد الديني؟","publishedAt":"2024-07-09T17:23:45Z","duration":"PT8M43S","thumbnail":"https://i.ytimg.com/vi/84QcRRSifKo/mqdefault.jpg","viewCount":"3290","playlistId":"PLEkQk5xrP-tm8ZIu74nTOZN9KJUJu416J","playlistName":"مقاطع مُهمَّة (يُسريَّات) أ.د. يسري جبر","category":"متنوع"},{"id":"hSkd59FxULw","title":"ما أفضل كتب تفسير القرآن وما هي أنواع التفسير؟","publishedAt":"2024-07-08T18:00:30Z","duration":"PT23M41S","thumbnail":"https://i.ytimg.com/vi/hSkd59FxULw/mqdefault.jpg","viewCount":"6290","playlistId":"PLEkQk5xrP-tkSGrPLMt1BEmJ54cGWYgtp","playlistName":"كتابُ بِدَعِ التَفَاسِيرِ - أ.د. يسري جبر","category":"متنوع"},{"id":"y0LkCZb7gwg","title":"115- مَن استعاذ بالله فأعيذوه، ومَن سألكم بوجه الله فأعطوه | ما معنى العُمرى؟","publishedAt":"2024-07-08T08:00:37Z","duration":"PT43M48S","thumbnail":"https://i.ytimg.com/vi/y0LkCZb7gwg/mqdefault.jpg","viewCount":"1366","playlistId":"PLEkQk5xrP-tkKprIuGrSdEuBSMsyg5We1","playlistName":"شرح مسند الإمام أحمد بن حنبل","category":"متنوع"},{"id":"OyKJNHJtseQ","title":"كيف تبدأ العام الهجري بقلب سليم؟","publishedAt":"2024-07-07T18:02:13Z","duration":"PT16M1S","thumbnail":"https://i.ytimg.com/vi/OyKJNHJtseQ/mqdefault.jpg","viewCount":"3711","playlistId":"PLEkQk5xrP-tlArtGpeLWaqNM7h7IDeAVC","playlistName":"خطب الجمعة أ.د. يسري جبر","category":"خطب"},{"id":"AkJxW3sq3FE","title":"كيف نستقبل العام الهجري الجديد؟","publishedAt":"2024-07-06T19:08:30Z","duration":"PT16M2S","thumbnail":"https://i.ytimg.com/vi/AkJxW3sq3FE/mqdefault.jpg","viewCount":"3763","playlistId":"PLEkQk5xrP-tlArtGpeLWaqNM7h7IDeAVC","playlistName":"خطب الجمعة أ.د. يسري جبر","category":"خطب"},{"id":"HXn5icCCkOk","title":"ما حكم الاحتفال بموالد الصالحين وما يحدث فيها من تمايل؟","publishedAt":"2024-07-05T17:15:00Z","duration":"PT10M58S","thumbnail":"https://i.ytimg.com/vi/HXn5icCCkOk/mqdefault.jpg","viewCount":"4948","playlistId":"PLEkQk5xrP-tm8ZIu74nTOZN9KJUJu416J","playlistName":"مقاطع مُهمَّة (يُسريَّات) أ.د. يسري جبر","category":"متنوع"},{"id":"YWILVpKBuEA","title":"تفسير شطحات بعض الأولياء ولماذا يختلف عليهم العلماء؟","publishedAt":"2024-07-04T19:54:10Z","duration":"PT22M19S","thumbnail":"https://i.ytimg.com/vi/YWILVpKBuEA/mqdefault.jpg","viewCount":"13032","playlistId":"PLEkQk5xrP-tm8ZIu74nTOZN9KJUJu416J","playlistName":"مقاطع مُهمَّة (يُسريَّات) أ.د. يسري جبر","category":"متنوع"},{"id":"xZ-o71Smi8U","title":"ما هي آداب طلب العلم؟","publishedAt":"2024-07-03T18:06:58Z","duration":"PT20M20S","thumbnail":"https://i.ytimg.com/vi/xZ-o71Smi8U/mqdefault.jpg","viewCount":"2141","playlistId":"PLEkQk5xrP-tlArtGpeLWaqNM7h7IDeAVC","playlistName":"خطب الجمعة أ.د. يسري جبر","category":"خطب"},{"id":"arI260x6zZc","title":"24- كيف يتجلى الله على الأولياء؟ | شرح مختصر الفتوحات المكية","publishedAt":"2024-06-30T18:00:02Z","duration":"PT48M19S","thumbnail":"https://i.ytimg.com/vi/arI260x6zZc/mqdefault.jpg","viewCount":"17706","playlistId":"PLEkQk5xrP-tnpkdZki6rPTtMak1bnI5g-","playlistName":"شرح كتاب مختصر الفتوحات المكية المسمى لواقح الأنوار القدسية","category":"متنوع"},{"id":"-y3riLwaGjI","title":"245- الاختزال: أمثلة حذف أكثر من كلمة - شرح الإتقان في علوم القرآن","publishedAt":"2024-06-30T05:00:00Z","duration":"PT17M32S","thumbnail":"https://i.ytimg.com/vi/-y3riLwaGjI/mqdefault.jpg","viewCount":"698","playlistId":"PLEkQk5xrP-tlPw10KGJKagu7zm4Ry2Tge","playlistName":"شرح الإتقان في علوم القرآن","category":"تفسير"},{"id":"0BvcNpTwxPI","title":"114- حكم مَن اتُّهِمَ زُورًا - شرح مسند الإمام أحمد رضي الله تعالى عنه","publishedAt":"2024-06-29T07:03:44Z","duration":"PT36M36S","thumbnail":"https://i.ytimg.com/vi/0BvcNpTwxPI/mqdefault.jpg","viewCount":"935","playlistId":"PLEkQk5xrP-tkKprIuGrSdEuBSMsyg5We1","playlistName":"شرح مسند الإمام أحمد بن حنبل","category":"متنوع"},{"id":"ZfU68ePzf0I","title":"كيف نواجه انبهار أبنائنا بالحضارة الاوروبية؟","publishedAt":"2024-06-28T17:00:33Z","duration":"PT8M25S","thumbnail":"https://i.ytimg.com/vi/ZfU68ePzf0I/mqdefault.jpg","viewCount":"4936","playlistId":"PLEkQk5xrP-tm8ZIu74nTOZN9KJUJu416J","playlistName":"مقاطع مُهمَّة (يُسريَّات) أ.د. يسري جبر","category":"متنوع"},{"id":"_K_9V5DsqQ0","title":"نصائح مهمة لكل شخص مقبل على الزواج!","publishedAt":"2024-06-26T18:03:38Z","duration":"PT8M33S","thumbnail":"https://i.ytimg.com/vi/_K_9V5DsqQ0/mqdefault.jpg","viewCount":"6898","playlistId":"PLEkQk5xrP-tm8ZIu74nTOZN9KJUJu416J","playlistName":"مقاطع مُهمَّة (يُسريَّات) أ.د. يسري جبر","category":"متنوع"},{"id":"q_VjYYSPxwE","title":"23- هل السحر يغير الحقائق؟ | كيفية فهم معاني القرآن | شرح مختصر الفتوحات المكية","publishedAt":"2024-06-25T16:58:07Z","duration":"PT48M51S","thumbnail":"https://i.ytimg.com/vi/q_VjYYSPxwE/mqdefault.jpg","viewCount":"7240","playlistId":"PLEkQk5xrP-tnpkdZki6rPTtMak1bnI5g-","playlistName":"شرح كتاب مختصر الفتوحات المكية المسمى لواقح الأنوار القدسية","category":"متنوع"},{"id":"vf2VUVm8CxM","title":"ما رأيك في خلاف المريدين حول تنصيب شيخ الطريقة؟","publishedAt":"2024-06-24T18:18:34Z","duration":"PT8M17S","thumbnail":"https://i.ytimg.com/vi/vf2VUVm8CxM/mqdefault.jpg","viewCount":"5848","playlistId":"PLEkQk5xrP-tkGXuZ9atE3k_7it12rUPTs","playlistName":"أسئلة المتابعين","category":"متنوع"},{"id":"k3fD7GxUVAw","title":"مجلس اللطيفية بصوت د.يسري جبر","publishedAt":"2024-06-23T18:09:40Z","duration":"PT26M25S","thumbnail":"https://i.ytimg.com/vi/k3fD7GxUVAw/mqdefault.jpg","viewCount":"7649","playlistId":"PLEkQk5xrP-tk3OeVFoMfKhOhyINnlPeYZ","playlistName":"الحَضْرَةُ الصِّدِّيقِيَّة والأوْرَاد","category":"متنوع"},{"id":"pTgW4c9zZb4","title":"244- الاختزال: أمثلة حذف الفعل وحذف الحرف - شرح الإتقان في علوم القرآن","publishedAt":"2024-06-23T09:06:27Z","duration":"PT38M19S","thumbnail":"https://i.ytimg.com/vi/pTgW4c9zZb4/mqdefault.jpg","viewCount":"614","playlistId":"PLEkQk5xrP-tlPw10KGJKagu7zm4Ry2Tge","playlistName":"شرح الإتقان في علوم القرآن","category":"تفسير"}],"total":7675,"page":28,"pageSize":24,"totalPages":320}