{"items":[{"id":"HEgzzCbFzdU","title":"48- اختلاف العدِّ تفصيلًا وإجمالًا - شرح الإتقان في علوم القرآن","publishedAt":"2023-04-05T05:10:00Z","duration":"PT20M33S","thumbnail":"https://i.ytimg.com/vi/HEgzzCbFzdU/mqdefault.jpg","viewCount":"711","playlistId":"PLEkQk5xrP-tlPw10KGJKagu7zm4Ry2Tge","playlistName":"شرح الإتقان في علوم القرآن","category":"تفسير"},{"id":"-JABB-iPWM4","title":"هل كان النبي ﷺ ينسى بعض القران؟","publishedAt":"2023-04-04T19:00:00Z","duration":"PT10M17S","thumbnail":"https://i.ytimg.com/vi/-JABB-iPWM4/mqdefault.jpg","viewCount":"4036","playlistId":"PLEkQk5xrP-tkGXuZ9atE3k_7it12rUPTs","playlistName":"أسئلة المتابعين","category":"متنوع"},{"id":"IOC77yJhTkg","title":"فضل التسمّي باسم النَّبيّ ﷺ | مجالس رمضانية","publishedAt":"2023-04-04T15:05:13Z","duration":"PT1H3S","thumbnail":"https://i.ytimg.com/vi/IOC77yJhTkg/mqdefault.jpg","viewCount":"2296","playlistId":"PLEkQk5xrP-tnl7vb7KeAoPd5ZlqKKW8KV","playlistName":"شرح كتاب بهجة النفوس أ.د . يسرى جبر","category":"متنوع"},{"id":"2wadLsWWlsk","title":"422- بركة الطعام في منزل سيدنا أبي بكر _رضيَ اللهُ عنه_ وفيه كَرامةٌ ظاهرةٌ له _رضي الله عنه_","publishedAt":"2023-04-04T05:25:00Z","duration":"PT27M5S","thumbnail":"https://i.ytimg.com/vi/2wadLsWWlsk/mqdefault.jpg","viewCount":"732","playlistId":"PLEkQk5xrP-tkc9DXvSLguqX5-FYp6ASR4","playlistName":"دليل الفالحين لطرق رياض الصالحين","category":"متنوع"},{"id":"ARAJjneBGuw","title":"كيف اتخلص من التفكير السلبي؟","publishedAt":"2023-04-03T19:00:06Z","duration":"PT10M2S","thumbnail":"https://i.ytimg.com/vi/ARAJjneBGuw/mqdefault.jpg","viewCount":"41640","playlistId":"PLEkQk5xrP-tkGXuZ9atE3k_7it12rUPTs","playlistName":"أسئلة المتابعين","category":"متنوع"},{"id":"6saAK9g_oFQ","title":"الكرم قلب المؤمن | مجالس رمضانية","publishedAt":"2023-04-03T15:00:04Z","duration":"PT16M21S","thumbnail":"https://i.ytimg.com/vi/6saAK9g_oFQ/mqdefault.jpg","viewCount":"1898","playlistId":"PLEkQk5xrP-tnl7vb7KeAoPd5ZlqKKW8KV","playlistName":"شرح كتاب بهجة النفوس أ.د . يسرى جبر","category":"متنوع"},{"id":"nUiftOL3DO4","title":"47- فصلٌ في عدِّ آي القرآن الكريم - شرح الإتقان في علوم القرآن","publishedAt":"2023-04-03T05:00:27Z","duration":"PT25M49S","thumbnail":"https://i.ytimg.com/vi/nUiftOL3DO4/mqdefault.jpg","viewCount":"763","playlistId":"PLEkQk5xrP-tlPw10KGJKagu7zm4Ry2Tge","playlistName":"شرح الإتقان في علوم القرآن","category":"تفسير"},{"id":"SSz1MxzNlTc","title":"ما حكم الذكر بدون حضور القلب؟","publishedAt":"2023-04-02T19:00:09Z","duration":"PT8M53S","thumbnail":"https://i.ytimg.com/vi/SSz1MxzNlTc/mqdefault.jpg","viewCount":"27698","playlistId":"PLEkQk5xrP-tkGXuZ9atE3k_7it12rUPTs","playlistName":"أسئلة المتابعين","category":"متنوع"},{"id":"5EhUxRL8xts","title":"49- هل البسملة آية من الفاتحة؟ - شرح الاتقان في علوم القران","publishedAt":"2023-04-07T05:00:03Z","duration":"PT27M13S","thumbnail":"https://i.ytimg.com/vi/5EhUxRL8xts/mqdefault.jpg","viewCount":"1091","playlistId":"PLEkQk5xrP-tlPw10KGJKagu7zm4Ry2Tge","playlistName":"شرح الإتقان في علوم القرآن","category":"تفسير"},{"id":"q4wVPB8WPgg","title":"كيفية علاج فتور الهمة في العبادة؟","publishedAt":"2023-04-06T19:00:30Z","duration":"PT8M11S","thumbnail":"https://i.ytimg.com/vi/q4wVPB8WPgg/mqdefault.jpg","viewCount":"17633","playlistId":"PLEkQk5xrP-tkGXuZ9atE3k_7it12rUPTs","playlistName":"أسئلة المتابعين","category":"متنوع"},{"id":"hntt_hxbukA","title":"كيفية تشميت العاطس بعد حمده؟ | مجالس رمضانية","publishedAt":"2023-04-06T15:00:33Z","duration":"PT38M30S","thumbnail":"https://i.ytimg.com/vi/hntt_hxbukA/mqdefault.jpg","viewCount":"834","playlistId":"PLEkQk5xrP-tnl7vb7KeAoPd5ZlqKKW8KV","playlistName":"شرح كتاب بهجة النفوس أ.د . يسرى جبر","category":"متنوع"},{"id":"snzMJoq9JZk","title":"423- لقَدْ كان فيما قبْلَكُم مِن الأُممِ ناسٌ مُحَدَّثُونَ، فإنْ يَكُ في أُمَّتي أحدٌ فإنَّه عُمَرُ.","publishedAt":"2023-04-06T05:00:21Z","duration":"PT33M35S","thumbnail":"https://i.ytimg.com/vi/snzMJoq9JZk/mqdefault.jpg","viewCount":"1001","playlistId":"PLEkQk5xrP-tkc9DXvSLguqX5-FYp6ASR4","playlistName":"دليل الفالحين لطرق رياض الصالحين","category":"متنوع"},{"id":"cddWFC7FSeQ","title":"شرح صحيح البخاري - كتاب الشهادات من باب ١٥","publishedAt":"2017-06-24T22:31:51Z","duration":"PT33M58S","thumbnail":"https://i.ytimg.com/vi/cddWFC7FSeQ/mqdefault.jpg","viewCount":"602","playlistId":"PLEkQk5xrP-tlEerGoLa1AFy-2XvQ-sovv","playlistName":"شرح صحيح البخاري - أ.د. يسري جبر (كاملا)","category":"حديث"},{"id":"w0KjX7NWTiQ","title":"مقرأة سورة يوسف من آية ١٩","publishedAt":"2017-06-24T10:26:34Z","duration":"PT32M17S","thumbnail":"https://i.ytimg.com/vi/w0KjX7NWTiQ/mqdefault.jpg","viewCount":"798","playlistId":"PLEkQk5xrP-tnmTYsyW6xNdyfhPq0Bhrhj","playlistName":"مقرأة الفجر - القُرْآنُ الكَرِيمُ - خَتْمَةُ التَّدَبُّرِ  أ.د. يسري جبر","category":"متنوع"},{"id":"xRQJ4xa3dLs","title":"قراءة القرآن (من أول سورة الحاقة)","publishedAt":"2016-02-23T07:14:24Z","duration":"PT18M41S","thumbnail":"https://i.ytimg.com/vi/xRQJ4xa3dLs/mqdefault.jpg","viewCount":"87","playlistId":"PLEkQk5xrP-tnUSUj0uyJhA-kwNC7Gkx_j","playlistName":"مقرأة الفجر - بداية من سورة الإسراء حتى سورة الناس","category":"تفسير"},{"id":"bwPwObzKH9E","title":"شرح كتاب صفة جهنم من سنن الترمذي - المجلس الأول","publishedAt":"2016-02-01T19:27:37Z","duration":"PT42M44S","thumbnail":"https://i.ytimg.com/vi/bwPwObzKH9E/mqdefault.jpg","viewCount":"315","playlistId":"PLEkQk5xrP-tnu6of679SvxdVx0qSrJzmb","playlistName":"شرح سنن الإمام الترمذي رضى الله عنه د. يسري جبر","category":"متنوع"},{"id":"nDZfqkPZqII","title":"قراءة القرآن (من آية ٣٤ سورة القلم)","publishedAt":"2016-02-01T16:00:14Z","duration":"PT10M6S","thumbnail":"https://i.ytimg.com/vi/nDZfqkPZqII/mqdefault.jpg","viewCount":"100","playlistId":"PLEkQk5xrP-tnUSUj0uyJhA-kwNC7Gkx_j","playlistName":"مقرأة الفجر - بداية من سورة الإسراء حتى سورة الناس","category":"تفسير"},{"id":"qISR3J_Vycw","title":"شرح كتاب صفة الجنة من سنن الترمذي - المجلس الخامس","publishedAt":"2016-02-01T04:38:55Z","duration":"PT37M11S","thumbnail":"https://i.ytimg.com/vi/qISR3J_Vycw/mqdefault.jpg","viewCount":"195","playlistId":"PLEkQk5xrP-tnu6of679SvxdVx0qSrJzmb","playlistName":"شرح سنن الإمام الترمذي رضى الله عنه د. يسري جبر","category":"متنوع"},{"id":"bn-z6v7C9h4","title":"125- \"…أنَّ امْرَأَةً سَوْدَاءَ كَانَتْ تَقُمُّ المَسْجِدَ، أَوْ شَابًّا…\" - شرح دليل الفالحين","publishedAt":"2021-09-11T07:25:59Z","duration":"PT32M30S","thumbnail":"https://i.ytimg.com/vi/bn-z6v7C9h4/mqdefault.jpg","viewCount":"1299","playlistId":"PLEkQk5xrP-tkc9DXvSLguqX5-FYp6ASR4","playlistName":"دليل الفالحين لطرق رياض الصالحين","category":"متنوع"},{"id":"WFImrIx-XAg","title":"تفسير قوله تعالى\"وَمَآ أَرْسَلْنَا مِن قَبْلِكَ من رَّسُولٍۢ وَلَا نَبِىٍّ إِلَّآ إِذَا تَمَنَّى…\"","publishedAt":"2021-09-10T17:21:08Z","duration":"PT10M24S","thumbnail":"https://i.ytimg.com/vi/WFImrIx-XAg/mqdefault.jpg","viewCount":"2784","playlistId":"PLEkQk5xrP-tkSGrPLMt1BEmJ54cGWYgtp","playlistName":"كتابُ بِدَعِ التَفَاسِيرِ - أ.د. يسري جبر","category":"متنوع"},{"id":"0iyuK9Wog4E","title":"أسلوب التقديم والتأخير - شرح البرهان في علوم القرآن","publishedAt":"2021-09-10T06:06:06Z","duration":"PT12M22S","thumbnail":"https://i.ytimg.com/vi/0iyuK9Wog4E/mqdefault.jpg","viewCount":"673","playlistId":"PLEkQk5xrP-tnW3iBL7HkKziOFCFZbTlf0","playlistName":"شرح البرهان في علوم القرآن - أ.د. يسري جبر","category":"تفسير"},{"id":"p6sHKV2mag0","title":"كيف يحمي المريد نفسه من الأوهام؟","publishedAt":"2021-09-09T17:20:31Z","duration":"PT9M3S","thumbnail":"https://i.ytimg.com/vi/p6sHKV2mag0/mqdefault.jpg","viewCount":"7666","playlistId":"PLEkQk5xrP-tkGXuZ9atE3k_7it12rUPTs","playlistName":"أسئلة المتابعين","category":"متنوع"},{"id":"vQxY3B_FGGs","title":"صحيح البخاري - كتاب الأيمان والنذور (باب النذر في الطاعة )","publishedAt":"2017-11-18T15:48:44Z","duration":"PT26M21S","thumbnail":"https://i.ytimg.com/vi/vQxY3B_FGGs/mqdefault.jpg","viewCount":"173","playlistId":"PLEkQk5xrP-tmJuzaj4GWRenFoFx9gdbFX","playlistName":"شرح كتاب صحيح الإمام البخاري رضي الله تعالى عنه   أ.د. يسرى جبر","category":"حديث"},{"id":"3Oe4eDbxcP8","title":"شرح كتاب الرسالة القشيرية - المجلس الثاني (المقدمة)","publishedAt":"2017-11-16T19:27:34Z","duration":"PT53M5S","thumbnail":"https://i.ytimg.com/vi/3Oe4eDbxcP8/mqdefault.jpg","viewCount":"27117","playlistId":"PLEkQk5xrP-tkHAGOwIKr4pc5ehhyQ5HMJ","playlistName":"كتاب الرسالة القشيرية (تصوف) - د. يسري جبر","category":"تصوف"}],"total":7670,"page":288,"pageSize":24,"totalPages":320}