{"items":[{"id":"6JZU2IsC-7s","title":"شرح منظومة عَقِيدَةِ العَوَام - المجلس الأول  أ.د. يسري جبر","publishedAt":"2019-05-27T15:26:54Z","duration":"PT43M1S","thumbnail":"https://i.ytimg.com/vi/6JZU2IsC-7s/mqdefault.jpg","viewCount":"25154","playlistId":"PLEkQk5xrP-tlc2t-K4tRFtzhmE-e6jziG","playlistName":"شرح عقيدة العوام - أ.د. يسري جبر","category":"عقيدة"},{"id":"Oe-9il8lt5Y","title":"مقرأة سورة المدثر من أولها","publishedAt":"2019-05-27T11:30:01Z","duration":"PT7M7S","thumbnail":"https://i.ytimg.com/vi/Oe-9il8lt5Y/mqdefault.jpg","viewCount":"488","playlistId":"PLEkQk5xrP-tnmTYsyW6xNdyfhPq0Bhrhj","playlistName":"مقرأة الفجر - القُرْآنُ الكَرِيمُ - خَتْمَةُ التَّدَبُّرِ  أ.د. يسري جبر","category":"متنوع"},{"id":"gcbCZkn3FDE","title":"شرح سنن الدارمي كتاب الصلاة من باب ١٨٥","publishedAt":"2019-05-26T23:28:01Z","duration":"PT32M55S","thumbnail":"https://i.ytimg.com/vi/gcbCZkn3FDE/mqdefault.jpg","viewCount":"396","playlistId":"PLEkQk5xrP-tmAg-FuWjY057X_h5NmGmAa","playlistName":"شرح سنن الدارمي - أ.د. يسري جبر (كاملا)","category":"متنوع"},{"id":"Z64XqjEubmM","title":"(١٧٣) حديثُ عِظَمِ شَجَرِ الجَنَّةِ.  أ.د. يسري جبر","publishedAt":"2019-05-26T13:22:09Z","duration":"PT16M44S","thumbnail":"https://i.ytimg.com/vi/Z64XqjEubmM/mqdefault.jpg","viewCount":"928","playlistId":"PLEkQk5xrP-tnl7vb7KeAoPd5ZlqKKW8KV","playlistName":"شرح كتاب بهجة النفوس أ.د . يسرى جبر","category":"متنوع"},{"id":"HG2SMKI3mPM","title":"مقرأة سورة المزمل من آية ٢٠","publishedAt":"2019-05-26T10:02:39Z","duration":"PT8M59S","thumbnail":"https://i.ytimg.com/vi/HG2SMKI3mPM/mqdefault.jpg","viewCount":"482","playlistId":"PLEkQk5xrP-tnmTYsyW6xNdyfhPq0Bhrhj","playlistName":"مقرأة الفجر - القُرْآنُ الكَرِيمُ - خَتْمَةُ التَّدَبُّرِ  أ.د. يسري جبر","category":"متنوع"},{"id":"xOlJ6LnfggY","title":"شرح سنن الدارمي كتاب الصلاة من باب ١٨١","publishedAt":"2019-05-25T23:35:54Z","duration":"PT17M48S","thumbnail":"https://i.ytimg.com/vi/xOlJ6LnfggY/mqdefault.jpg","viewCount":"355","playlistId":"PLEkQk5xrP-tmAg-FuWjY057X_h5NmGmAa","playlistName":"شرح سنن الدارمي - أ.د. يسري جبر (كاملا)","category":"متنوع"},{"id":"y0cv-flzt8s","title":"١٧٢) حديثُ أول زمرة تدخل الجنة. أ.د. يسري جبر)","publishedAt":"2019-05-25T17:04:40Z","duration":"PT22M6S","thumbnail":"https://i.ytimg.com/vi/y0cv-flzt8s/mqdefault.jpg","viewCount":"1762","playlistId":"PLEkQk5xrP-tnl7vb7KeAoPd5ZlqKKW8KV","playlistName":"شرح كتاب بهجة النفوس أ.د . يسرى جبر","category":"متنوع"},{"id":"DZneOtrP0Ms","title":"مقرأة سورة المزمل من آية ١٢","publishedAt":"2019-05-25T09:14:33Z","duration":"PT18M34S","thumbnail":"https://i.ytimg.com/vi/DZneOtrP0Ms/mqdefault.jpg","viewCount":"475","playlistId":"PLEkQk5xrP-tnmTYsyW6xNdyfhPq0Bhrhj","playlistName":"مقرأة الفجر - القُرْآنُ الكَرِيمُ - خَتْمَةُ التَّدَبُّرِ  أ.د. يسري جبر","category":"متنوع"},{"id":"mcz0PjPYyQU","title":"حديث (١٧١) بِشارتُه صلَّى اللهُ عليه وآله وسلَّم للفقراءِ بأنَّهم أكثرُ أهلِ الجنَّة. أ.د. يسري جبر","publishedAt":"2019-05-24T15:13:13Z","duration":"PT16M39S","thumbnail":"https://i.ytimg.com/vi/mcz0PjPYyQU/mqdefault.jpg","viewCount":"1123","playlistId":"PLEkQk5xrP-tnl7vb7KeAoPd5ZlqKKW8KV","playlistName":"شرح كتاب بهجة النفوس أ.د . يسرى جبر","category":"متنوع"},{"id":"cmWqKuXZOEk","title":"شرح سنن الدارمي كتاب الصلاة من باب ١٧٩","publishedAt":"2019-05-23T23:47:58Z","duration":"PT26M49S","thumbnail":"https://i.ytimg.com/vi/cmWqKuXZOEk/mqdefault.jpg","viewCount":"362","playlistId":"PLEkQk5xrP-tmAg-FuWjY057X_h5NmGmAa","playlistName":"شرح سنن الدارمي - أ.د. يسري جبر (كاملا)","category":"متنوع"},{"id":"NreH3C0CqcY","title":"حديث (١٧٠) الأَمر بِالاسْتِعَاذَةِ باللَّهِ تَعَالَى منَ الشَّيْطَانِ عند وَسْوَسَتِه. أ.د. يسري جبر","publishedAt":"2019-05-23T16:33:20Z","duration":"PT16M35S","thumbnail":"https://i.ytimg.com/vi/NreH3C0CqcY/mqdefault.jpg","viewCount":"815","playlistId":"PLEkQk5xrP-tnl7vb7KeAoPd5ZlqKKW8KV","playlistName":"شرح كتاب بهجة النفوس أ.د . يسرى جبر","category":"متنوع"},{"id":"chZ9bk0DNUc","title":"مقرأة سورة المزمل من أولها","publishedAt":"2019-05-23T09:46:43Z","duration":"PT18M38S","thumbnail":"https://i.ytimg.com/vi/chZ9bk0DNUc/mqdefault.jpg","viewCount":"812","playlistId":"PLEkQk5xrP-tnmTYsyW6xNdyfhPq0Bhrhj","playlistName":"مقرأة الفجر - القُرْآنُ الكَرِيمُ - خَتْمَةُ التَّدَبُّرِ  أ.د. يسري جبر","category":"متنوع"},{"id":"HgUT6BttMSk","title":"شرح سنن الدارمي كتاب الصلاة من باب ١٧٥","publishedAt":"2019-05-23T00:08:24Z","duration":"PT20M19S","thumbnail":"https://i.ytimg.com/vi/HgUT6BttMSk/mqdefault.jpg","viewCount":"311","playlistId":"PLEkQk5xrP-tmAg-FuWjY057X_h5NmGmAa","playlistName":"شرح سنن الدارمي - أ.د. يسري جبر (كاملا)","category":"متنوع"},{"id":"rpb8vSZ-TrM","title":"حديث (١٦٩)  النَّهي عن الصَّلاةِ حينَ طُلوعِ الشَّمسِ وغُرُوبِها.   أ.د. يسري جبر","publishedAt":"2019-05-22T16:43:22Z","duration":"PT29M13S","thumbnail":"https://i.ytimg.com/vi/rpb8vSZ-TrM/mqdefault.jpg","viewCount":"736","playlistId":"PLEkQk5xrP-tnl7vb7KeAoPd5ZlqKKW8KV","playlistName":"شرح كتاب بهجة النفوس أ.د . يسرى جبر","category":"متنوع"},{"id":"s5lG9TPPodE","title":"مقرأة سورة الجن من آية ١٦","publishedAt":"2019-05-22T08:12:40Z","duration":"PT27M8S","thumbnail":"https://i.ytimg.com/vi/s5lG9TPPodE/mqdefault.jpg","viewCount":"730","playlistId":"PLEkQk5xrP-tnmTYsyW6xNdyfhPq0Bhrhj","playlistName":"مقرأة الفجر - القُرْآنُ الكَرِيمُ - خَتْمَةُ التَّدَبُّرِ  أ.د. يسري جبر","category":"متنوع"},{"id":"DQzXenSrkdg","title":"شرح سنن الدارمي كتاب الصلاة من باب ١٦٩","publishedAt":"2019-05-21T23:06:19Z","duration":"PT31M18S","thumbnail":"https://i.ytimg.com/vi/DQzXenSrkdg/mqdefault.jpg","viewCount":"406","playlistId":"PLEkQk5xrP-tmAg-FuWjY057X_h5NmGmAa","playlistName":"شرح سنن الدارمي - أ.د. يسري جبر (كاملا)","category":"متنوع"},{"id":"ra_4H615x8o","title":"حديث (١٦٨) ذِكْرُ اسم الله تعالى عند إِرادة الجِماع.  أ.د. يسري جبر","publishedAt":"2019-05-21T16:40:33Z","duration":"PT20M54S","thumbnail":"https://i.ytimg.com/vi/ra_4H615x8o/mqdefault.jpg","viewCount":"1158","playlistId":"PLEkQk5xrP-tnl7vb7KeAoPd5ZlqKKW8KV","playlistName":"شرح كتاب بهجة النفوس أ.د . يسرى جبر","category":"متنوع"},{"id":"oF4qtXFuhjA","title":"مقرأة سورة الجن من أولها","publishedAt":"2019-05-21T08:13:11Z","duration":"PT23M31S","thumbnail":"https://i.ytimg.com/vi/oF4qtXFuhjA/mqdefault.jpg","viewCount":"1099","playlistId":"PLEkQk5xrP-tnmTYsyW6xNdyfhPq0Bhrhj","playlistName":"مقرأة الفجر - القُرْآنُ الكَرِيمُ - خَتْمَةُ التَّدَبُّرِ  أ.د. يسري جبر","category":"متنوع"},{"id":"RuWn4ISUq1w","title":"شرح سنن الدارمي كتاب الصلاة من باب ١٦٥","publishedAt":"2019-05-20T22:15:25Z","duration":"PT30M9S","thumbnail":"https://i.ytimg.com/vi/RuWn4ISUq1w/mqdefault.jpg","viewCount":"434","playlistId":"PLEkQk5xrP-tmAg-FuWjY057X_h5NmGmAa","playlistName":"شرح سنن الدارمي - أ.د. يسري جبر (كاملا)","category":"متنوع"},{"id":"06mmAz78mDA","title":"حديث (١٦٧) عَقْدُ الشَّيطَانِ عَلَى رَأسِ النَّائِمِ.  أ.د. يسري جبر","publishedAt":"2019-05-20T16:38:49Z","duration":"PT23M42S","thumbnail":"https://i.ytimg.com/vi/06mmAz78mDA/mqdefault.jpg","viewCount":"1393","playlistId":"PLEkQk5xrP-tnl7vb7KeAoPd5ZlqKKW8KV","playlistName":"شرح كتاب بهجة النفوس أ.د . يسرى جبر","category":"متنوع"},{"id":"ILcRMYz4PZs","title":"مقرأة سورة نوح من آية ٣١","publishedAt":"2019-05-20T15:57:47Z","duration":"PT26M34S","thumbnail":"https://i.ytimg.com/vi/ILcRMYz4PZs/mqdefault.jpg","viewCount":"508","playlistId":"PLEkQk5xrP-tnmTYsyW6xNdyfhPq0Bhrhj","playlistName":"مقرأة الفجر - القُرْآنُ الكَرِيمُ - خَتْمَةُ التَّدَبُّرِ  أ.د. يسري جبر","category":"متنوع"},{"id":"ztIDDBld8VI","title":"شرح سنن الدارمي كتاب الصلاة من باب ١٥٦","publishedAt":"2019-05-19T22:26:30Z","duration":"PT31M","thumbnail":"https://i.ytimg.com/vi/ztIDDBld8VI/mqdefault.jpg","viewCount":"410","playlistId":"PLEkQk5xrP-tmAg-FuWjY057X_h5NmGmAa","playlistName":"شرح سنن الدارمي - أ.د. يسري جبر (كاملا)","category":"متنوع"},{"id":"ki4VlgP4Urg","title":"حديث (١٦٦) عَرْضُ الجَنَّةِ أو النَّارِ عَلَى الِإنسَانِ حِينَ مَوتِهِ.  أ.د. يسري جبر","publishedAt":"2019-05-19T18:05:57Z","duration":"PT33M51S","thumbnail":"https://i.ytimg.com/vi/ki4VlgP4Urg/mqdefault.jpg","viewCount":"3673","playlistId":"PLEkQk5xrP-tnl7vb7KeAoPd5ZlqKKW8KV","playlistName":"شرح كتاب بهجة النفوس أ.د . يسرى جبر","category":"متنوع"},{"id":"it_lKfjECUs","title":"مقرأة سورة نوح من آية ٨","publishedAt":"2019-05-19T11:06:23Z","duration":"PT25M27S","thumbnail":"https://i.ytimg.com/vi/it_lKfjECUs/mqdefault.jpg","viewCount":"486","playlistId":"PLEkQk5xrP-tnmTYsyW6xNdyfhPq0Bhrhj","playlistName":"مقرأة الفجر - القُرْآنُ الكَرِيمُ - خَتْمَةُ التَّدَبُّرِ  أ.د. يسري جبر","category":"متنوع"}],"total":7670,"page":13,"pageSize":24,"totalPages":320}