{"items":[{"id":"lx9WolMVEWg","title":"شرح صحيح البخاري كتاب التوحيد من باب ٣٣","publishedAt":"2019-02-10T20:09:51Z","duration":"PT41M10S","thumbnail":"https://i.ytimg.com/vi/lx9WolMVEWg/mqdefault.jpg","viewCount":"557","playlistId":"PLEkQk5xrP-tlEerGoLa1AFy-2XvQ-sovv","playlistName":"شرح صحيح البخاري - أ.د. يسري جبر (كاملا)","category":"حديث"},{"id":"SoIIMxybv6w","title":"يَا أَيُّهَا الَّذِينَ آمَنُوا اتَّقُوا اللَّهَ وَكُونُوا مَعَ الصَّادِقِينَ - أ. د. يسري جبر","publishedAt":"2019-02-10T19:47:19Z","duration":"PT33M27S","thumbnail":"https://i.ytimg.com/vi/SoIIMxybv6w/mqdefault.jpg","viewCount":"693","playlistId":"PLEkQk5xrP-tlArtGpeLWaqNM7h7IDeAVC","playlistName":"خطب الجمعة أ.د. يسري جبر","category":"خطب"},{"id":"b8GJ0kD132w","title":"مقرأة سورة الطور من آية ١٧","publishedAt":"2019-02-10T14:26:55Z","duration":"PT18M16S","thumbnail":"https://i.ytimg.com/vi/b8GJ0kD132w/mqdefault.jpg","viewCount":"413","playlistId":"PLEkQk5xrP-tnmTYsyW6xNdyfhPq0Bhrhj","playlistName":"مقرأة الفجر - القُرْآنُ الكَرِيمُ - خَتْمَةُ التَّدَبُّرِ  أ.د. يسري جبر","category":"متنوع"},{"id":"vxhbzGROpgw","title":"الرسالة القشيرية - المجلس الثامن والأربعون - تكملة باب الزهد - أ.د. يسري جبر","publishedAt":"2019-02-09T18:24:36Z","duration":"PT42M35S","thumbnail":"https://i.ytimg.com/vi/vxhbzGROpgw/mqdefault.jpg","viewCount":"3785","playlistId":"PLEkQk5xrP-tkHAGOwIKr4pc5ehhyQ5HMJ","playlistName":"كتاب الرسالة القشيرية (تصوف) - د. يسري جبر","category":"تصوف"},{"id":"A_TH1At0s4E","title":"شرح صحيح البخاري كتاب التوحيد تكملة من باب ٣١","publishedAt":"2019-02-09T13:06:30Z","duration":"PT37M17S","thumbnail":"https://i.ytimg.com/vi/A_TH1At0s4E/mqdefault.jpg","viewCount":"503","playlistId":"PLEkQk5xrP-tlEerGoLa1AFy-2XvQ-sovv","playlistName":"شرح صحيح البخاري - أ.د. يسري جبر (كاملا)","category":"حديث"},{"id":"kVT5DgQ_g0o","title":"مقرأة سورة الطورمن أولها","publishedAt":"2019-02-08T21:35:09Z","duration":"PT13M51S","thumbnail":"https://i.ytimg.com/vi/kVT5DgQ_g0o/mqdefault.jpg","viewCount":"421","playlistId":"PLEkQk5xrP-tnmTYsyW6xNdyfhPq0Bhrhj","playlistName":"مقرأة الفجر - القُرْآنُ الكَرِيمُ - خَتْمَةُ التَّدَبُّرِ  أ.د. يسري جبر","category":"متنوع"},{"id":"-GXpYosplMU","title":"شرح صحيح البخاري كتاب التوحيد من باب ٢٦","publishedAt":"2019-02-07T22:30:02Z","duration":"PT33M26S","thumbnail":"https://i.ytimg.com/vi/-GXpYosplMU/mqdefault.jpg","viewCount":"563","playlistId":"PLEkQk5xrP-tlEerGoLa1AFy-2XvQ-sovv","playlistName":"شرح صحيح البخاري - أ.د. يسري جبر (كاملا)","category":"حديث"},{"id":"KVg1O8kM6ds","title":"مقرأة سورة الذاريات من آية ٤٧","publishedAt":"2019-02-07T10:34:49Z","duration":"PT16M12S","thumbnail":"https://i.ytimg.com/vi/KVg1O8kM6ds/mqdefault.jpg","viewCount":"1200","playlistId":"PLEkQk5xrP-tnmTYsyW6xNdyfhPq0Bhrhj","playlistName":"مقرأة الفجر - القُرْآنُ الكَرِيمُ - خَتْمَةُ التَّدَبُّرِ  أ.د. يسري جبر","category":"متنوع"},{"id":"ysSEgy1oKG8","title":"شرح صحيح البخاري  كتاب التوحيد تكملة باب ٢٤","publishedAt":"2019-02-06T21:46:00Z","duration":"PT31M10S","thumbnail":"https://i.ytimg.com/vi/ysSEgy1oKG8/mqdefault.jpg","viewCount":"514","playlistId":"PLEkQk5xrP-tlEerGoLa1AFy-2XvQ-sovv","playlistName":"شرح صحيح البخاري - أ.د. يسري جبر (كاملا)","category":"حديث"},{"id":"b_N96Tzhcl8","title":"سورة الذاريات من آية ٣٨","publishedAt":"2019-02-06T13:17:39Z","duration":"PT19M11S","thumbnail":"https://i.ytimg.com/vi/b_N96Tzhcl8/mqdefault.jpg","viewCount":"512","playlistId":"PLEkQk5xrP-tnmTYsyW6xNdyfhPq0Bhrhj","playlistName":"مقرأة الفجر - القُرْآنُ الكَرِيمُ - خَتْمَةُ التَّدَبُّرِ  أ.د. يسري جبر","category":"متنوع"},{"id":"SiLsew9_3sk","title":"شرح صحيح البخاري كتاب التوحيد من باب ٢٤","publishedAt":"2019-02-05T22:06:37Z","duration":"PT48M41S","thumbnail":"https://i.ytimg.com/vi/SiLsew9_3sk/mqdefault.jpg","viewCount":"640","playlistId":"PLEkQk5xrP-tlEerGoLa1AFy-2XvQ-sovv","playlistName":"شرح صحيح البخاري - أ.د. يسري جبر (كاملا)","category":"حديث"},{"id":"qEqNXJ_iSBM","title":"مقرأة سورة الذاريات من آية ٢٤","publishedAt":"2019-02-05T11:20:42Z","duration":"PT21M47S","thumbnail":"https://i.ytimg.com/vi/qEqNXJ_iSBM/mqdefault.jpg","viewCount":"441","playlistId":"PLEkQk5xrP-tnmTYsyW6xNdyfhPq0Bhrhj","playlistName":"مقرأة الفجر - القُرْآنُ الكَرِيمُ - خَتْمَةُ التَّدَبُّرِ  أ.د. يسري جبر","category":"متنوع"},{"id":"9SxNws9tyvE","title":"شرح صحيح البخاري كتاب التوحيد من باب ٢٠","publishedAt":"2019-02-04T21:04:14Z","duration":"PT39M35S","thumbnail":"https://i.ytimg.com/vi/9SxNws9tyvE/mqdefault.jpg","viewCount":"550","playlistId":"PLEkQk5xrP-tlEerGoLa1AFy-2XvQ-sovv","playlistName":"شرح صحيح البخاري - أ.د. يسري جبر (كاملا)","category":"حديث"},{"id":"g3Ji0Lwlnws","title":"رُؤْيَةُ الله في الآخِرَةِ -    أ.د. يسري جبر","publishedAt":"2019-02-04T14:31:38Z","duration":"PT43M54S","thumbnail":"https://i.ytimg.com/vi/g3Ji0Lwlnws/mqdefault.jpg","viewCount":"3473","playlistId":"PLEkQk5xrP-tlArtGpeLWaqNM7h7IDeAVC","playlistName":"خطب الجمعة أ.د. يسري جبر","category":"خطب"},{"id":"w7AWbWDAFOs","title":"مقرأة سورة العنكبوت من آية ٣٦","publishedAt":"2018-06-09T12:38:40Z","duration":"PT12M31S","thumbnail":"https://i.ytimg.com/vi/w7AWbWDAFOs/mqdefault.jpg","viewCount":"406","playlistId":"PLEkQk5xrP-tnmTYsyW6xNdyfhPq0Bhrhj","playlistName":"مقرأة الفجر - القُرْآنُ الكَرِيمُ - خَتْمَةُ التَّدَبُّرِ  أ.د. يسري جبر","category":"متنوع"},{"id":"pG-HnaU66yA","title":"61- باب مَا جَاءَ فِى الْخِطْبَةِ ك الموطأ د يسري جبر الأزهري","publishedAt":"2018-06-09T11:24:41Z","duration":"PT53M48S","thumbnail":"https://i.ytimg.com/vi/pG-HnaU66yA/mqdefault.jpg","viewCount":"299","playlistId":"PLEkQk5xrP-tnC6BRuqMjyO-484iqXeg0o","playlistName":"شرح كتاب الموطأ للإمام مالك","category":"متنوع"},{"id":"Ck74Z8PhS5I","title":"شرح صحيح البخاري كتاب النكاح من باب ٨٩","publishedAt":"2018-06-09T04:46:23Z","duration":"PT31M45S","thumbnail":"https://i.ytimg.com/vi/Ck74Z8PhS5I/mqdefault.jpg","viewCount":"493","playlistId":"PLEkQk5xrP-tlEerGoLa1AFy-2XvQ-sovv","playlistName":"شرح صحيح البخاري - أ.د. يسري جبر (كاملا)","category":"حديث"},{"id":"fhY-FerYCBw","title":"مقرأة سورة العنكبوت من آية ٢٦","publishedAt":"2018-06-08T17:12:07Z","duration":"PT23M9S","thumbnail":"https://i.ytimg.com/vi/fhY-FerYCBw/mqdefault.jpg","viewCount":"570","playlistId":"PLEkQk5xrP-tnmTYsyW6xNdyfhPq0Bhrhj","playlistName":"مقرأة الفجر - القُرْآنُ الكَرِيمُ - خَتْمَةُ التَّدَبُّرِ  أ.د. يسري جبر","category":"متنوع"},{"id":"-zCrbPcyzF0","title":"4- حديث الإسراء والمعراج بنبينا صلى الله عليه وآله وسلم (المجلس الرابع).   أ.د. يسري جبر","publishedAt":"2018-06-08T11:52:46Z","duration":"PT33M5S","thumbnail":"https://i.ytimg.com/vi/-zCrbPcyzF0/mqdefault.jpg","viewCount":"2062","playlistId":"PLEkQk5xrP-tnl7vb7KeAoPd5ZlqKKW8KV","playlistName":"شرح كتاب بهجة النفوس أ.د . يسرى جبر","category":"متنوع"},{"id":"9P2aVuSkMJA","title":"3- حديث الإسراء والمعراج بنبينا صلى الله عليه وآله وسلم (المجلس الثالث).   أ.د. يسري جبر","publishedAt":"2018-06-08T08:44:36Z","duration":"PT39M48S","thumbnail":"https://i.ytimg.com/vi/9P2aVuSkMJA/mqdefault.jpg","viewCount":"3794","playlistId":"PLEkQk5xrP-tnl7vb7KeAoPd5ZlqKKW8KV","playlistName":"شرح كتاب بهجة النفوس أ.د . يسرى جبر","category":"متنوع"},{"id":"Xxv1_g1ruGk","title":"شرح صحيح البخاري كتاب النكاح من باب ٨٤","publishedAt":"2018-06-07T19:10:24Z","duration":"PT31M25S","thumbnail":"https://i.ytimg.com/vi/Xxv1_g1ruGk/mqdefault.jpg","viewCount":"571","playlistId":"PLEkQk5xrP-tlEerGoLa1AFy-2XvQ-sovv","playlistName":"شرح صحيح البخاري - أ.د. يسري جبر (كاملا)","category":"حديث"},{"id":"8BUNyjLmRKY","title":"مقرأة سورة العنكبوت من آية ٢٠","publishedAt":"2018-06-07T07:56:58Z","duration":"PT14M47S","thumbnail":"https://i.ytimg.com/vi/8BUNyjLmRKY/mqdefault.jpg","viewCount":"342","playlistId":"PLEkQk5xrP-tnmTYsyW6xNdyfhPq0Bhrhj","playlistName":"مقرأة الفجر - القُرْآنُ الكَرِيمُ - خَتْمَةُ التَّدَبُّرِ  أ.د. يسري جبر","category":"متنوع"},{"id":"1xZituGy8GA","title":"2- حديث الإسراء والمعراج بنبينا صلى الله عليه وآله وسلم ( المجلس الثاني ).   أ.د. يسري جبر","publishedAt":"2018-06-06T23:52:17Z","duration":"PT28M23S","thumbnail":"https://i.ytimg.com/vi/1xZituGy8GA/mqdefault.jpg","viewCount":"3631","playlistId":"PLEkQk5xrP-tnl7vb7KeAoPd5ZlqKKW8KV","playlistName":"شرح كتاب بهجة النفوس أ.د . يسرى جبر","category":"متنوع"},{"id":"CblFwzKu9Ho","title":"شرح صحيح البخاري كتاب النكاح من باب ٨٣","publishedAt":"2018-06-06T16:13:38Z","duration":"PT37M2S","thumbnail":"https://i.ytimg.com/vi/CblFwzKu9Ho/mqdefault.jpg","viewCount":"564","playlistId":"PLEkQk5xrP-tlEerGoLa1AFy-2XvQ-sovv","playlistName":"شرح صحيح البخاري - أ.د. يسري جبر (كاملا)","category":"حديث"}],"total":7670,"page":165,"pageSize":24,"totalPages":320}