{"items":[{"id":"C9kseowR5E4","title":"شرح صحيح البخاري كتاب الأطعمة من باب ٣١","publishedAt":"2018-07-10T18:14:35Z","duration":"PT41M35S","thumbnail":"https://i.ytimg.com/vi/C9kseowR5E4/mqdefault.jpg","viewCount":"513","playlistId":"PLEkQk5xrP-tlEerGoLa1AFy-2XvQ-sovv","playlistName":"شرح صحيح البخاري - أ.د. يسري جبر (كاملا)","category":"حديث"},{"id":"RBNqT9xFSzQ","title":"مقرأة سورة السجدة من أولها","publishedAt":"2018-07-10T10:19:59Z","duration":"PT14M42S","thumbnail":"https://i.ytimg.com/vi/RBNqT9xFSzQ/mqdefault.jpg","viewCount":"692","playlistId":"PLEkQk5xrP-tnmTYsyW6xNdyfhPq0Bhrhj","playlistName":"مقرأة الفجر - القُرْآنُ الكَرِيمُ - خَتْمَةُ التَّدَبُّرِ  أ.د. يسري جبر","category":"متنوع"},{"id":"Q5m-dYFVOBI","title":"شرح صحيح البخاري كتاب الأطعمة من باب ٢٧","publishedAt":"2018-07-09T22:12:23Z","duration":"PT37M55S","thumbnail":"https://i.ytimg.com/vi/Q5m-dYFVOBI/mqdefault.jpg","viewCount":"565","playlistId":"PLEkQk5xrP-tlEerGoLa1AFy-2XvQ-sovv","playlistName":"شرح صحيح البخاري - أ.د. يسري جبر (كاملا)","category":"حديث"},{"id":"9u12O0ga7XM","title":"مقرأة سورة لقمان من آية ٣٣","publishedAt":"2018-07-09T13:41:50Z","duration":"PT17M7S","thumbnail":"https://i.ytimg.com/vi/9u12O0ga7XM/mqdefault.jpg","viewCount":"272","playlistId":"PLEkQk5xrP-tnmTYsyW6xNdyfhPq0Bhrhj","playlistName":"مقرأة الفجر - القُرْآنُ الكَرِيمُ - خَتْمَةُ التَّدَبُّرِ  أ.د. يسري جبر","category":"متنوع"},{"id":"MaHO2c87PlM","title":"شرح صحيح البخاري كتاب الأطعمة من باب ٢٣","publishedAt":"2018-07-08T09:01:47Z","duration":"PT35M37S","thumbnail":"https://i.ytimg.com/vi/MaHO2c87PlM/mqdefault.jpg","viewCount":"529","playlistId":"PLEkQk5xrP-tlEerGoLa1AFy-2XvQ-sovv","playlistName":"شرح صحيح البخاري - أ.د. يسري جبر (كاملا)","category":"حديث"},{"id":"VpVbDGeR-9E","title":"لا يظِلمُ رَبٌك أحدًا","publishedAt":"2018-07-08T02:05:38Z","duration":"PT36M53S","thumbnail":"https://i.ytimg.com/vi/VpVbDGeR-9E/mqdefault.jpg","viewCount":"900","playlistId":"PLEkQk5xrP-tlArtGpeLWaqNM7h7IDeAVC","playlistName":"خطب الجمعة أ.د. يسري جبر","category":"خطب"},{"id":"arKYZiSE6y4","title":"صحيح الإمام البخاري رضي الله عنه - كتاب الدِّيات المجلس السادس د.يسري جبر","publishedAt":"2018-07-07T21:22:12Z","duration":"PT45M34S","thumbnail":"https://i.ytimg.com/vi/arKYZiSE6y4/mqdefault.jpg","viewCount":"115","playlistId":"PLEkQk5xrP-tmJuzaj4GWRenFoFx9gdbFX","playlistName":"شرح كتاب صحيح الإمام البخاري رضي الله تعالى عنه   أ.د. يسرى جبر","category":"حديث"},{"id":"XdtEAiaZhXA","title":"مقرأة سورة لقمان من آية ٢٩","publishedAt":"2018-07-07T14:38:00Z","duration":"PT16M26S","thumbnail":"https://i.ytimg.com/vi/XdtEAiaZhXA/mqdefault.jpg","viewCount":"259","playlistId":"PLEkQk5xrP-tnmTYsyW6xNdyfhPq0Bhrhj","playlistName":"مقرأة الفجر - القُرْآنُ الكَرِيمُ - خَتْمَةُ التَّدَبُّرِ  أ.د. يسري جبر","category":"متنوع"},{"id":"4GA1JUZH7Gw","title":"شرح كتاب نور اليقين في سيرة سيد المرسلين - المجلس 52 ( وفاة ابن أُبيٍّ ) د.يسري جبر","publishedAt":"2018-07-07T12:51:58Z","duration":"PT49M32S","thumbnail":"https://i.ytimg.com/vi/4GA1JUZH7Gw/mqdefault.jpg","viewCount":"10777","playlistId":"PLEkQk5xrP-tl2t4NQx1IhKnAJCMzF0Nli","playlistName":"شرح كتاب نور اليقين في سيرة سيد المرسلين   د. يسري جبر","category":"سيرة"},{"id":"QR5GbdN46Pg","title":"شرح صحيح البخاري كتاب الأطعمة من باب ١٥","publishedAt":"2018-07-05T21:43:23Z","duration":"PT37M35S","thumbnail":"https://i.ytimg.com/vi/QR5GbdN46Pg/mqdefault.jpg","viewCount":"573","playlistId":"PLEkQk5xrP-tlEerGoLa1AFy-2XvQ-sovv","playlistName":"شرح صحيح البخاري - أ.د. يسري جبر (كاملا)","category":"حديث"},{"id":"MGb4gIy4UQE","title":"الرسالة القشيرية - المجلس الحادي و العشرون - باب في ذكر مشايخ هذه الطريقة - المجلس الثالث عشر","publishedAt":"2018-07-05T19:01:28Z","duration":"PT46M10S","thumbnail":"https://i.ytimg.com/vi/MGb4gIy4UQE/mqdefault.jpg","viewCount":"5427","playlistId":"PLEkQk5xrP-tkHAGOwIKr4pc5ehhyQ5HMJ","playlistName":"كتاب الرسالة القشيرية (تصوف) - د. يسري جبر","category":"تصوف"},{"id":"5qkLlf_sL_s","title":"مقرأة سورة لقمان من آية ٢٥","publishedAt":"2018-07-05T10:25:10Z","duration":"PT19M31S","thumbnail":"https://i.ytimg.com/vi/5qkLlf_sL_s/mqdefault.jpg","viewCount":"350","playlistId":"PLEkQk5xrP-tnmTYsyW6xNdyfhPq0Bhrhj","playlistName":"مقرأة الفجر - القُرْآنُ الكَرِيمُ - خَتْمَةُ التَّدَبُّرِ  أ.د. يسري جبر","category":"متنوع"},{"id":"ze6Zz-IK5zQ","title":"صحيح الإمام البخاري رضي الله عنه - كتاب الدِّيات - باب السن بالسن المجلس الخامس د.يسري جبر","publishedAt":"2018-07-04T17:31:13Z","duration":"PT59M27S","thumbnail":"https://i.ytimg.com/vi/ze6Zz-IK5zQ/mqdefault.jpg","viewCount":"95","playlistId":"PLEkQk5xrP-tmJuzaj4GWRenFoFx9gdbFX","playlistName":"شرح كتاب صحيح الإمام البخاري رضي الله تعالى عنه   أ.د. يسرى جبر","category":"حديث"},{"id":"TaeXIs7f6Ck","title":"شرح كتاب نور اليقين في سيرة سيد المرسلين - المجلس 51 (حديث الثلاثة الذين خُلِّفوا) د.يسري جبر","publishedAt":"2018-07-04T17:14:58Z","duration":"PT47M33S","thumbnail":"https://i.ytimg.com/vi/TaeXIs7f6Ck/mqdefault.jpg","viewCount":"10390","playlistId":"PLEkQk5xrP-tl2t4NQx1IhKnAJCMzF0Nli","playlistName":"شرح كتاب نور اليقين في سيرة سيد المرسلين   د. يسري جبر","category":"سيرة"},{"id":"19MZJxPSMj0","title":"القِسمُ (26) من التوكيد: الزيادة (6) حروف الزيادة - شرح البرهان في علوم القرآن","publishedAt":"2021-05-29T07:03:47Z","duration":"PT29M27S","thumbnail":"https://i.ytimg.com/vi/19MZJxPSMj0/mqdefault.jpg","viewCount":"271","playlistId":"PLEkQk5xrP-tnW3iBL7HkKziOFCFZbTlf0","playlistName":"شرح البرهان في علوم القرآن - أ.د. يسري جبر","category":"تفسير"},{"id":"fIszxmLQb4o","title":"الفقر الحقيقي وأسباب الغنى","publishedAt":"2021-05-28T19:50:06Z","duration":"PT8M36S","thumbnail":"https://i.ytimg.com/vi/fIszxmLQb4o/mqdefault.jpg","viewCount":"21008","playlistId":"PLEkQk5xrP-tkGXuZ9atE3k_7it12rUPTs","playlistName":"أسئلة المتابعين","category":"متنوع"},{"id":"b_PpZUo2eQI","title":"69- \"…فأعِنِّي علَى نَفْسِكَ بكَثْرَةِ السُّجُودِ...\" الحديث (12) شرح دليل الفالحين","publishedAt":"2021-05-28T05:00:34Z","duration":"PT36M41S","thumbnail":"https://i.ytimg.com/vi/b_PpZUo2eQI/mqdefault.jpg","viewCount":"2291","playlistId":"PLEkQk5xrP-tkc9DXvSLguqX5-FYp6ASR4","playlistName":"دليل الفالحين لطرق رياض الصالحين","category":"متنوع"},{"id":"adfsmtnrOqA","title":"حول الكمالات المحمدية","publishedAt":"2021-05-27T18:00:01Z","duration":"PT38M2S","thumbnail":"https://i.ytimg.com/vi/adfsmtnrOqA/mqdefault.jpg","viewCount":"5539","playlistId":"PLEkQk5xrP-tlArtGpeLWaqNM7h7IDeAVC","playlistName":"خطب الجمعة أ.د. يسري جبر","category":"خطب"},{"id":"YDQ9uQxbTUg","title":"القِسمُ (26) من التوكيد: الزيادة (5) حروف الزيادة - شرح البرهان في علوم القرآن","publishedAt":"2021-05-27T05:00:52Z","duration":"PT11M38S","thumbnail":"https://i.ytimg.com/vi/YDQ9uQxbTUg/mqdefault.jpg","viewCount":"321","playlistId":"PLEkQk5xrP-tnW3iBL7HkKziOFCFZbTlf0","playlistName":"شرح البرهان في علوم القرآن - أ.د. يسري جبر","category":"تفسير"},{"id":"JVmgulWA6Mg","title":"كيف تنجو في زمن الفتن؟","publishedAt":"2021-05-26T19:39:40Z","duration":"PT12M7S","thumbnail":"https://i.ytimg.com/vi/JVmgulWA6Mg/mqdefault.jpg","viewCount":"7644","playlistId":"PLEkQk5xrP-tlArtGpeLWaqNM7h7IDeAVC","playlistName":"خطب الجمعة أ.د. يسري جبر","category":"خطب"},{"id":"LfkyMo-raBw","title":"68- \"…حُجِبَتِ النَّارُ بالشَّهَواتِ، وحُجِبَتِ الجَنَّةُ بالمَكارِهِ.\" الحديث (7) شرح دليل الفالحين","publishedAt":"2021-05-26T05:08:44Z","duration":"PT41M21S","thumbnail":"https://i.ytimg.com/vi/LfkyMo-raBw/mqdefault.jpg","viewCount":"1803","playlistId":"PLEkQk5xrP-tkc9DXvSLguqX5-FYp6ASR4","playlistName":"دليل الفالحين لطرق رياض الصالحين","category":"متنوع"},{"id":"Pcc84dbqfqI","title":"أجمل ما خلق الله | أ.د. يسري جبر","publishedAt":"2021-05-25T17:15:00Z","duration":"PT15M36S","thumbnail":"https://i.ytimg.com/vi/Pcc84dbqfqI/mqdefault.jpg","viewCount":"3157","playlistId":"PLEkQk5xrP-tlArtGpeLWaqNM7h7IDeAVC","playlistName":"خطب الجمعة أ.د. يسري جبر","category":"خطب"},{"id":"B1uy6hvpqMs","title":"القِسمُ (26) من التوكيد: الزيادة (4) حروف الزيادة - شرح البرهان في علوم القرآن","publishedAt":"2021-05-25T07:09:02Z","duration":"PT21M22S","thumbnail":"https://i.ytimg.com/vi/B1uy6hvpqMs/mqdefault.jpg","viewCount":"279","playlistId":"PLEkQk5xrP-tnW3iBL7HkKziOFCFZbTlf0","playlistName":"شرح البرهان في علوم القرآن - أ.د. يسري جبر","category":"تفسير"},{"id":"YmyxdtWEitM","title":"67- \"نِعْمَتان مَغْبُونٌ فيهِما كثيرٌ من النَّاسِ: الصِّحَّة والفَراغ\" الحديث(3) شرح دليل الفالحين","publishedAt":"2021-05-24T19:58:38Z","duration":"PT41M40S","thumbnail":"https://i.ytimg.com/vi/YmyxdtWEitM/mqdefault.jpg","viewCount":"1886","playlistId":"PLEkQk5xrP-tkc9DXvSLguqX5-FYp6ASR4","playlistName":"دليل الفالحين لطرق رياض الصالحين","category":"متنوع"}],"total":7670,"page":174,"pageSize":24,"totalPages":320}