{"items":[{"id":"KeKOVqDCfBo","title":"ุดุฑุญ ุตุญูุญ ุงูุจุฎุงุฑู ูุชุงุจ ุงูุชูุณูุฑ ูู ุณูุฑุฉ ุงูููุฑ ูู ุจุงุจ ุฃูู","publishedAt":"2018-04-09T15:55:31Z","duration":"PT31M24S","thumbnail":"https://i.ytimg.com/vi/KeKOVqDCfBo/mqdefault.jpg","viewCount":"784","playlistId":"PLEkQk5xrP-tlEerGoLa1AFy-2XvQ-sovv","playlistName":"ุดุฑุญ ุตุญูุญ ุงูุจุฎุงุฑู - ุฃ.ุฏ. ูุณุฑู ุฌุจุฑ (ูุงููุง)","category":"ุญุฏูุซ"},{"id":"Nbh-PGcyRb4","title":"(7) ุณูุฏูุง ุฃุจู ุนุจุฏ ุงููู ุงูุญุงุฑุซ ุจู ุฃุณุฏ ุงููุญุงุณุจู ุฑุถู ุงููู ุนูู ุฏ. ูุณุฑู ุฌุจุฑ","publishedAt":"2018-04-09T11:35:54Z","duration":"PT21M6S","thumbnail":"https://i.ytimg.com/vi/Nbh-PGcyRb4/mqdefault.jpg","viewCount":"13546","playlistId":"PLEkQk5xrP-tmmI87XkWepRdTpisz2Lfgr","playlistName":"ุจุงุจ ูู ุฐูุฑ ูุดุงูุฎ ูุฐู ุงูุทุฑููุฉ ูู ุดุฑุญ ูุชุงุจ ุงูุฑุณุงูุฉ ุงููุดูุฑูุฉ","category":"ุชุตูู"},{"id":"BeadQpCbJHM","title":"ุงูุฑุณุงูุฉ ุงููุดูุฑูุฉ - ุงููุฌูุณ ุงูุฎุงูุณ ุนุดุฑ (ุจุงุจ ูู ุฐูุฑ ูุดุงูุฎ ูุฐู ุงูุทุฑููุฉ - ุงููุฌูุณ ุงูุณุงุจุน)","publishedAt":"2018-04-09T11:34:47Z","duration":"PT54M28S","thumbnail":"https://i.ytimg.com/vi/BeadQpCbJHM/mqdefault.jpg","viewCount":"7414","playlistId":"PLEkQk5xrP-tkHAGOwIKr4pc5ehhyQ5HMJ","playlistName":"ูุชุงุจ ุงูุฑุณุงูุฉ ุงููุดูุฑูุฉ (ุชุตูู) - ุฏ. ูุณุฑู ุฌุจุฑ","category":"ุชุตูู"},{"id":"wae1P_GWUyE","title":"ุดุฑุญ ุตุญูุญ ุงูุจุฎุงุฑู ูุชุงุจ ุงูุชูุณูุฑ ูู ุณูุฑุฉ ุงูููุฑ ูู ุจุงุจ ูง","publishedAt":"2018-04-09T11:26:44Z","duration":"PT32M56S","thumbnail":"https://i.ytimg.com/vi/wae1P_GWUyE/mqdefault.jpg","viewCount":"418","playlistId":"PLEkQk5xrP-tlEerGoLa1AFy-2XvQ-sovv","playlistName":"ุดุฑุญ ุตุญูุญ ุงูุจุฎุงุฑู - ุฃ.ุฏ. ูุณุฑู ุฌุจุฑ (ูุงููุง)","category":"ุญุฏูุซ"},{"id":"3wevqeLssxI","title":"ุดุฑุญ ุตุญูุญ ุงูุจุฎุงุฑู ูุชุงุจ ุงูุชูุณูุฑ ูู ุณูุฑุฉ ุงููุฑูุงู ูู ุจุงุจ ูก","publishedAt":"2018-04-09T11:26:41Z","duration":"PT43M51S","thumbnail":"https://i.ytimg.com/vi/3wevqeLssxI/mqdefault.jpg","viewCount":"519","playlistId":"PLEkQk5xrP-tlEerGoLa1AFy-2XvQ-sovv","playlistName":"ุดุฑุญ ุตุญูุญ ุงูุจุฎุงุฑู - ุฃ.ุฏ. ูุณุฑู ุฌุจุฑ (ูุงููุง)","category":"ุญุฏูุซ"},{"id":"wQsw_Nhp8hY","title":"ููุฑุฃุฉ ุณูุฑุฉ ุงูุดุนุฑุงุก ูู ุขูุฉ ูฃูข","publishedAt":"2018-04-09T11:26:37Z","duration":"PT21M9S","thumbnail":"https://i.ytimg.com/vi/wQsw_Nhp8hY/mqdefault.jpg","viewCount":"212","playlistId":"PLEkQk5xrP-tnmTYsyW6xNdyfhPq0Bhrhj","playlistName":"ููุฑุฃุฉ ุงููุฌุฑ - ุงูููุฑูุขูู ุงูููุฑูููู - ุฎูุชูููุฉู ุงูุชููุฏูุจููุฑู  ุฃ.ุฏ. ูุณุฑู ุฌุจุฑ","category":"ูุชููุน"},{"id":"rKCn9ntzvsE","title":"ููุฑุฃุฉ ุณูุฑุฉ ุงูุดุนุฑุงุก ูู ุขูุฉ ูขูฃ","publishedAt":"2018-04-09T11:26:34Z","duration":"PT18M44S","thumbnail":"https://i.ytimg.com/vi/rKCn9ntzvsE/mqdefault.jpg","viewCount":"232","playlistId":"PLEkQk5xrP-tnmTYsyW6xNdyfhPq0Bhrhj","playlistName":"ููุฑุฃุฉ ุงููุฌุฑ - ุงูููุฑูุขูู ุงูููุฑูููู - ุฎูุชูููุฉู ุงูุชููุฏูุจููุฑู  ุฃ.ุฏ. ูุณุฑู ุฌุจุฑ","category":"ูุชููุน"},{"id":"iUNOA2FgJ-U","title":"ููุฑุฃุฉ ุณูุฑุฉ ุงูุดุนุฑุงุก ูู ุขูุฉ ูคูค","publishedAt":"2018-04-09T11:26:30Z","duration":"PT41M21S","thumbnail":"https://i.ytimg.com/vi/iUNOA2FgJ-U/mqdefault.jpg","viewCount":"237","playlistId":"PLEkQk5xrP-tnmTYsyW6xNdyfhPq0Bhrhj","playlistName":"ููุฑุฃุฉ ุงููุฌุฑ - ุงูููุฑูุขูู ุงูููุฑูููู - ุฎูุชูููุฉู ุงูุชููุฏูุจููุฑู  ุฃ.ุฏ. ูุณุฑู ุฌุจุฑ","category":"ูุชููุน"},{"id":"KVzUO026dYU","title":"ููู ุชููู ูู ุฃูู ูููุฉ ุงููุฏุฑุ๐คฒ๐","publishedAt":"2025-03-25T19:00:22Z","duration":"PT13M57S","thumbnail":"https://i.ytimg.com/vi/KVzUO026dYU/mqdefault.jpg","viewCount":"6845","playlistId":"PLEkQk5xrP-tm8ZIu74nTOZN9KJUJu416J","playlistName":"ููุงุทุน ููููููุฉ (ููุณุฑูููุงุช) ุฃ.ุฏ. ูุณุฑู ุฌุจุฑ","category":"ูุชููุน"},{"id":"ejS0WCOzkAo","title":"ููู ูุฑูุน ุงูุตูุงู ุฏุฑุฌุงุช ุงููุคูู ูู ุงูุฌูุฉุ | ูุฌุงูุณ ุฑูุถุงููุฉ","publishedAt":"2025-03-25T15:00:58Z","duration":"PT15M51S","thumbnail":"https://i.ytimg.com/vi/ejS0WCOzkAo/mqdefault.jpg","viewCount":"924","playlistId":"PLEkQk5xrP-tkeI_WVPfuoTJO46aVkpaz0","playlistName":"ุดุฑุญ ูุชุงุจ ููุฒุงู ุงูุงุนุชุฏุงู ูุญูุธ ุงูุฏูู ูุงูุฃุญูุงู","category":"ูุชููุน"},{"id":"jN-_SqWB2j4","title":"ูู ุงููุจู ๏ทบ ุฃูุซุฑ ุนููุง ูู ุณูุฏูุง ุฌุจุฑููุ | ูุฌุงูุณ ุงูุงุนุชูุงู","publishedAt":"2025-03-25T10:00:55Z","duration":"PT26M38S","thumbnail":"https://i.ytimg.com/vi/jN-_SqWB2j4/mqdefault.jpg","viewCount":"3359","playlistId":"PLEkQk5xrP-tly7ti7Qb_lS7xjUg_fwlNP","playlistName":"ุดุฑุญ ูุชุงุจ ุงูุฏููุฉ ุงููููุฉ ุจุงููุงุฏุฉ ุงูุบูุจูุฉ","category":"ูุชููุน"},{"id":"_D3jcDwKvz8","title":"ูู ุงูุดูุทุงู ุณุจุจ ุงูุฐููุจ ุฃู ุฃูู ูุฌุฑุฏ ูุจุฑุฑุ","publishedAt":"2025-03-24T19:00:26Z","duration":"PT9M29S","thumbnail":"https://i.ytimg.com/vi/_D3jcDwKvz8/mqdefault.jpg","viewCount":"2369","playlistId":"PLEkQk5xrP-tkGXuZ9atE3k_7it12rUPTs","playlistName":"ุฃุณุฆูุฉ ุงููุชุงุจุนูู","category":"ูุชููุน"},{"id":"HbTScUzbRws","title":"ููู ุชููู ุนุจุงุฏุชูุง ููุจููุฉ ุนูุฏ ุงูููุ | ูุฌุงูุณ ุฑูุถุงููุฉ","publishedAt":"2025-03-24T15:00:22Z","duration":"PT23M41S","thumbnail":"https://i.ytimg.com/vi/HbTScUzbRws/mqdefault.jpg","viewCount":"1897","playlistId":"PLEkQk5xrP-tkeI_WVPfuoTJO46aVkpaz0","playlistName":"ุดุฑุญ ูุชุงุจ ููุฒุงู ุงูุงุนุชุฏุงู ูุญูุธ ุงูุฏูู ูุงูุฃุญูุงู","category":"ูุชููุน"},{"id":"pfxgW_qrWXM","title":"ุงูุฑุฏ ุนูู ูู ูููุฑ ุฎุตูุตูุฉ ุงููุจู ๏ทบ | ูุฌุงูุณ ุงูุงุนุชูุงู","publishedAt":"2025-03-24T10:01:04Z","duration":"PT35M21S","thumbnail":"https://i.ytimg.com/vi/pfxgW_qrWXM/mqdefault.jpg","viewCount":"3166","playlistId":"PLEkQk5xrP-tly7ti7Qb_lS7xjUg_fwlNP","playlistName":"ุดุฑุญ ูุชุงุจ ุงูุฏููุฉ ุงููููุฉ ุจุงููุงุฏุฉ ุงูุบูุจูุฉ","category":"ูุชููุน"},{"id":"fofLUBTbIoE","title":"ูุง ูุนูู ุงูุฌุฐุจ ููุง ุฃููุงุนูุ","publishedAt":"2025-03-23T19:00:34Z","duration":"PT8M9S","thumbnail":"https://i.ytimg.com/vi/fofLUBTbIoE/mqdefault.jpg","viewCount":"6440","playlistId":"PLEkQk5xrP-tkGXuZ9atE3k_7it12rUPTs","playlistName":"ุฃุณุฆูุฉ ุงููุชุงุจุนูู","category":"ูุชููุน"},{"id":"3QpWeDl64fw","title":"ููู ุชุฎุชู ุฑูุถุงู ุจุฃุนูู ุฏุฑุฌุงุช ุงูุตููุ | ูุฌุงูุณ ุฑูุถุงููุฉ","publishedAt":"2025-03-23T15:00:04Z","duration":"PT17M3S","thumbnail":"https://i.ytimg.com/vi/3QpWeDl64fw/mqdefault.jpg","viewCount":"1799","playlistId":"PLEkQk5xrP-tkeI_WVPfuoTJO46aVkpaz0","playlistName":"ุดุฑุญ ูุชุงุจ ููุฒุงู ุงูุงุนุชุฏุงู ูุญูุธ ุงูุฏูู ูุงูุฃุญูุงู","category":"ูุชููุน"},{"id":"XStctykjS0c","title":"ุงูุฑุฏ ุนูู ุดุจูุงุช ุงูููุงุจูุฉ ุญูู ุงููุงุณุทุฉ! | ูุฌุงูุณ ุงูุงุนุชูุงู","publishedAt":"2025-03-23T10:00:41Z","duration":"PT36M1S","thumbnail":"https://i.ytimg.com/vi/XStctykjS0c/mqdefault.jpg","viewCount":"4817","playlistId":"PLEkQk5xrP-tly7ti7Qb_lS7xjUg_fwlNP","playlistName":"ุดุฑุญ ูุชุงุจ ุงูุฏููุฉ ุงููููุฉ ุจุงููุงุฏุฉ ุงูุบูุจูุฉ","category":"ูุชููุน"},{"id":"EeT3tSoohFY","title":"ููู ุชููู ูู ุฃูู ุงูุชูููุ","publishedAt":"2025-03-22T19:00:08Z","duration":"PT8M48S","thumbnail":"https://i.ytimg.com/vi/EeT3tSoohFY/mqdefault.jpg","viewCount":"1639","playlistId":"PLEkQk5xrP-tlArtGpeLWaqNM7h7IDeAVC","playlistName":"ุฎุทุจ ุงูุฌูุนุฉ ุฃ.ุฏ. ูุณุฑู ุฌุจุฑ","category":"ุฎุทุจ"},{"id":"j0UBv3yvRxM","title":"32- ุดุฑุญ ุงููุคูุค ูุงููุฑุฌุงู ูุชุงุจ ุงููุณุงุฌุฏ ูููุงุถุน ุงูุตูุงุฉ ูู ุจุงุจ ูกูฉ","publishedAt":"2020-01-15T09:59:04Z","duration":"PT38M16S","thumbnail":"https://i.ytimg.com/vi/j0UBv3yvRxM/mqdefault.jpg","viewCount":"708","playlistId":"PLEkQk5xrP-tmKNjtYLfhATC37QdIsTMe0","playlistName":"ุดุฑุญ ูุชุงุจ ุงููุคูุค ูุงููุฑุฌุงู ูููุง ุงุชูู ุนููู ุงูุดูุฎุงู ุฅูุงูุง ุงููุญุฏุซูู ุงูุจุฎุงุฑู ููุณูู. ุฃ.ุฏ. ูุณุฑู ุฌุจุฑ","category":"ุญุฏูุซ"},{"id":"q6SLdv55ilQ","title":"ุดุฑุญ ุงูุจุฑูุงู ูู ุนููู ุงููุฑุขู - ุงูููุน ูขูฅ - ุนูู ูุฑุณูู ุงูุฎุท (ุงููุงูุต ูุฃูุณุงูู : ุญุฐู ุงูุฃูู)","publishedAt":"2020-01-15T09:59:04Z","duration":"PT21M29S","thumbnail":"https://i.ytimg.com/vi/q6SLdv55ilQ/mqdefault.jpg","viewCount":"309","playlistId":"PLEkQk5xrP-tnW3iBL7HkKziOFCFZbTlf0","playlistName":"ุดุฑุญ ุงูุจุฑูุงู ูู ุนููู ุงููุฑุขู - ุฃ.ุฏ. ูุณุฑู ุฌุจุฑ","category":"ุชูุณูุฑ"},{"id":"19depwaUcGQ","title":"31- ุดุฑุญ ุงููุคูุค ูุงููุฑุฌุงู ูุชุงุจ ุงููุณุงุฌุฏ ูููุงุถุน ุงูุตูุงุฉ ูู ุจุงุจ ูค","publishedAt":"2020-01-15T09:59:03Z","duration":"PT31M29S","thumbnail":"https://i.ytimg.com/vi/19depwaUcGQ/mqdefault.jpg","viewCount":"570","playlistId":"PLEkQk5xrP-tmKNjtYLfhATC37QdIsTMe0","playlistName":"ุดุฑุญ ูุชุงุจ ุงููุคูุค ูุงููุฑุฌุงู ูููุง ุงุชูู ุนููู ุงูุดูุฎุงู ุฅูุงูุง ุงููุญุฏุซูู ุงูุจุฎุงุฑู ููุณูู. ุฃ.ุฏ. ูุณุฑู ุฌุจุฑ","category":"ุญุฏูุซ"},{"id":"Au7FilvU6AY","title":"ุดุฑุญ ุงูุจุฑูุงู ูู ุนููู ุงููุฑุขู - ุงูููุน ูขูฅ - ุนูู ูุฑุณูู ุงูุฎุท (ุงููุงูุต ูุฃูุณุงูู : ุญุฐู ุงูุฃูู ูข)","publishedAt":"2020-01-15T09:59:03Z","duration":"PT13M10S","thumbnail":"https://i.ytimg.com/vi/Au7FilvU6AY/mqdefault.jpg","viewCount":"334","playlistId":"PLEkQk5xrP-tnW3iBL7HkKziOFCFZbTlf0","playlistName":"ุดุฑุญ ุงูุจุฑูุงู ูู ุนููู ุงููุฑุขู - ุฃ.ุฏ. ูุณุฑู ุฌุจุฑ","category":"ุชูุณูุฑ"},{"id":"_EtxvP6hQt4","title":"190- ุงููุฑู ุจูู (ููุฏูู - ุฃููุฏูู) - ุดุฑุญ ุงูุฅุชูุงู ูู ุนููู ุงููุฑุขู","publishedAt":"2023-12-28T07:00:45Z","duration":"PT25M45S","thumbnail":"https://i.ytimg.com/vi/_EtxvP6hQt4/mqdefault.jpg","viewCount":"871","playlistId":"PLEkQk5xrP-tlPw10KGJKagu7zm4Ry2Tge","playlistName":"ุดุฑุญ ุงูุฅุชูุงู ูู ุนููู ุงููุฑุขู","category":"ุชูุณูุฑ"},{"id":"rs5oOG-BhF8","title":"58- ูุฏ ุนููุชู ููู ุนู ุตุฏูุฉ ุงูุฎูู ูุงูุฑููู - ุดุฑุญ ูุณูุฏ ุงูุฅูุงู ุฃุญูุฏ","publishedAt":"2023-12-27T07:02:48Z","duration":"PT28M42S","thumbnail":"https://i.ytimg.com/vi/rs5oOG-BhF8/mqdefault.jpg","viewCount":"1043","playlistId":"PLEkQk5xrP-tkKprIuGrSdEuBSMsyg5We1","playlistName":"ุดุฑุญ ูุณูุฏ ุงูุฅูุงู ุฃุญูุฏ ุจู ุญูุจู","category":"ูุชููุน"}],"total":7670,"page":203,"pageSize":24,"totalPages":320}