{"items":[{"id":"pgvPpxl7aPg","title":"وصية رسول الله ﷺ للصائمين في رمضان حتى لا يكونوا من أهل النار | اعرف نبيك","publishedAt":"2016-06-12T16:19:54Z","duration":"PT1M44S","thumbnail":"https://i.ytimg.com/vi/pgvPpxl7aPg/mqdefault.jpg","viewCount":"945","playlistId":"PLEkQk5xrP-tmhJ_gpAAFyOpEsHp0_VAJ-","playlistName":"برنامج اعرف نبيك في رمضان","category":"متنوع"},{"id":"Bb9PD_0ecwQ","title":"شرح كتاب المناقب من سنن الترمذي - المجلس الحادي عشر","publishedAt":"2016-06-12T14:10:28Z","duration":"PT19M24S","thumbnail":"https://i.ytimg.com/vi/Bb9PD_0ecwQ/mqdefault.jpg","viewCount":"118","playlistId":"PLEkQk5xrP-tnu6of679SvxdVx0qSrJzmb","playlistName":"شرح سنن الإمام الترمذي رضى الله عنه د. يسري جبر","category":"متنوع"},{"id":"aEy0_vQuXy0","title":"شرح كتاب المناقب من سنن الترمذي - المجلس العاشر","publishedAt":"2016-06-12T07:29:16Z","duration":"PT23M30S","thumbnail":"https://i.ytimg.com/vi/aEy0_vQuXy0/mqdefault.jpg","viewCount":"131","playlistId":"PLEkQk5xrP-tnu6of679SvxdVx0qSrJzmb","playlistName":"شرح سنن الإمام الترمذي رضى الله عنه د. يسري جبر","category":"متنوع"},{"id":"QtYfmo4f5m8","title":"قراءة القرآن (من آية ٣٨ سورة آل عمران)","publishedAt":"2016-06-12T01:34:24Z","duration":"PT15M27S","thumbnail":"https://i.ytimg.com/vi/QtYfmo4f5m8/mqdefault.jpg","viewCount":"672","playlistId":"PLEkQk5xrP-tnmTYsyW6xNdyfhPq0Bhrhj","playlistName":"مقرأة الفجر - القُرْآنُ الكَرِيمُ - خَتْمَةُ التَّدَبُّرِ  أ.د. يسري جبر","category":"متنوع"},{"id":"Lxu2BfJCmAo","title":"إطلاق الفعل والمراد مقاربته ومشارفته لا حقيقته","publishedAt":"2020-10-28T08:08:43Z","duration":"PT14M31S","thumbnail":"https://i.ytimg.com/vi/Lxu2BfJCmAo/mqdefault.jpg","viewCount":"468","playlistId":"PLEkQk5xrP-tnW3iBL7HkKziOFCFZbTlf0","playlistName":"شرح البرهان في علوم القرآن - أ.د. يسري جبر","category":"تفسير"},{"id":"1HAlwHhelt0","title":"156- بابٌ من فضائل عبد الله بن مسعود وأمِّه رضي الله عنهما","publishedAt":"2020-10-27T08:52:19Z","duration":"PT25M14S","thumbnail":"https://i.ytimg.com/vi/1HAlwHhelt0/mqdefault.jpg","viewCount":"877","playlistId":"PLEkQk5xrP-tmKNjtYLfhATC37QdIsTMe0","playlistName":"شرح كتاب اللؤلؤ والمرجان فيما اتفق عليه الشيخان إماما المحدثين البخاري ومسلم. أ.د. يسري جبر","category":"حديث"},{"id":"-h4UDUM08TY","title":"كن متمسكا بدلائل الخيرات","publishedAt":"2020-10-26T19:11:27Z","duration":"PT7M4S","thumbnail":"https://i.ytimg.com/vi/-h4UDUM08TY/mqdefault.jpg","viewCount":"37933","playlistId":"PLEkQk5xrP-tm8ZIu74nTOZN9KJUJu416J","playlistName":"مقاطع مُهمَّة (يُسريَّات) أ.د. يسري جبر","category":"متنوع"},{"id":"hpMhmuvpWUY","title":"‎بقية النوع 21: إقامة صيغة مقام أخرى","publishedAt":"2020-10-26T08:02:02Z","duration":"PT18M10S","thumbnail":"https://i.ytimg.com/vi/hpMhmuvpWUY/mqdefault.jpg","viewCount":"552","playlistId":"PLEkQk5xrP-tnW3iBL7HkKziOFCFZbTlf0","playlistName":"شرح البرهان في علوم القرآن - أ.د. يسري جبر","category":"تفسير"},{"id":"_ycXPZWRWpA","title":"سبب تصنيف دلائل الخيرات","publishedAt":"2020-10-25T18:46:48Z","duration":"PT11M46S","thumbnail":"https://i.ytimg.com/vi/_ycXPZWRWpA/mqdefault.jpg","viewCount":"12874","playlistId":"PLEkQk5xrP-tm8ZIu74nTOZN9KJUJu416J","playlistName":"مقاطع مُهمَّة (يُسريَّات) أ.د. يسري جبر","category":"متنوع"},{"id":"ke57UcwRiAg","title":"155- السيدة فاطمة بنت النَّبيّ ﷺ رضي الله عنها وعليها السلام","publishedAt":"2020-10-25T07:31:00Z","duration":"PT18M20S","thumbnail":"https://i.ytimg.com/vi/ke57UcwRiAg/mqdefault.jpg","viewCount":"4707","playlistId":"PLEkQk5xrP-tmKNjtYLfhATC37QdIsTMe0","playlistName":"شرح كتاب اللؤلؤ والمرجان فيما اتفق عليه الشيخان إماما المحدثين البخاري ومسلم. أ.د. يسري جبر","category":"حديث"},{"id":"Wi8VAdX56sc","title":"تحويل الأهوال إلى كمال الأحوال","publishedAt":"2020-10-24T18:18:58Z","duration":"PT10M53S","thumbnail":"https://i.ytimg.com/vi/Wi8VAdX56sc/mqdefault.jpg","viewCount":"3937","playlistId":"PLEkQk5xrP-tm8ZIu74nTOZN9KJUJu416J","playlistName":"مقاطع مُهمَّة (يُسريَّات) أ.د. يسري جبر","category":"متنوع"},{"id":"L5wSgUSAARE","title":"إقامة صيغة مقام أخرى","publishedAt":"2020-10-24T07:43:53Z","duration":"PT10M36S","thumbnail":"https://i.ytimg.com/vi/L5wSgUSAARE/mqdefault.jpg","viewCount":"603","playlistId":"PLEkQk5xrP-tnW3iBL7HkKziOFCFZbTlf0","playlistName":"شرح البرهان في علوم القرآن - أ.د. يسري جبر","category":"تفسير"},{"id":"uyq0ejH8J4E","title":"قسمة الله في عباده","publishedAt":"2020-10-23T17:46:50Z","duration":"PT4M16S","thumbnail":"https://i.ytimg.com/vi/uyq0ejH8J4E/mqdefault.jpg","viewCount":"3747","playlistId":"PLEkQk5xrP-tm8ZIu74nTOZN9KJUJu416J","playlistName":"مقاطع مُهمَّة (يُسريَّات) أ.د. يسري جبر","category":"متنوع"},{"id":"oeYdp54JRKQ","title":"154- حديثُ أُمِّ زَرْع","publishedAt":"2020-10-23T07:44:26Z","duration":"PT42M57S","thumbnail":"https://i.ytimg.com/vi/oeYdp54JRKQ/mqdefault.jpg","viewCount":"2717","playlistId":"PLEkQk5xrP-tmKNjtYLfhATC37QdIsTMe0","playlistName":"شرح كتاب اللؤلؤ والمرجان فيما اتفق عليه الشيخان إماما المحدثين البخاري ومسلم. أ.د. يسري جبر","category":"حديث"},{"id":"X0RaKu8W9Uw","title":"إطلاق اسم المحلِّ على الحال","publishedAt":"2020-10-22T19:19:13Z","duration":"PT19M45S","thumbnail":"https://i.ytimg.com/vi/X0RaKu8W9Uw/mqdefault.jpg","viewCount":"597","playlistId":"PLEkQk5xrP-tnW3iBL7HkKziOFCFZbTlf0","playlistName":"شرح البرهان في علوم القرآن - أ.د. يسري جبر","category":"تفسير"},{"id":"WM4LX6mcdhU","title":"153- فضل السيدة عائشة أم المؤمنين رضي الله عنها وعن أبيها","publishedAt":"2020-10-22T08:31:02Z","duration":"PT18M4S","thumbnail":"https://i.ytimg.com/vi/WM4LX6mcdhU/mqdefault.jpg","viewCount":"1502","playlistId":"PLEkQk5xrP-tmKNjtYLfhATC37QdIsTMe0","playlistName":"شرح كتاب اللؤلؤ والمرجان فيما اتفق عليه الشيخان إماما المحدثين البخاري ومسلم. أ.د. يسري جبر","category":"حديث"},{"id":"f6jHnt6yQu4","title":"تَسْمِيَةُ الشَّيْءِ بِمَا يَؤُولُ إِلَيْهِ","publishedAt":"2020-10-21T21:32:28Z","duration":"PT20M11S","thumbnail":"https://i.ytimg.com/vi/f6jHnt6yQu4/mqdefault.jpg","viewCount":"751","playlistId":"PLEkQk5xrP-tnW3iBL7HkKziOFCFZbTlf0","playlistName":"شرح البرهان في علوم القرآن - أ.د. يسري جبر","category":"تفسير"},{"id":"tHbxVk7dOZU","title":"152- فضائل عبد الله بن جعفر رضي الله عنهما","publishedAt":"2020-10-21T10:46:16Z","duration":"PT16M16S","thumbnail":"https://i.ytimg.com/vi/tHbxVk7dOZU/mqdefault.jpg","viewCount":"870","playlistId":"PLEkQk5xrP-tmKNjtYLfhATC37QdIsTMe0","playlistName":"شرح كتاب اللؤلؤ والمرجان فيما اتفق عليه الشيخان إماما المحدثين البخاري ومسلم. أ.د. يسري جبر","category":"حديث"},{"id":"y67IllfDeaw","title":"كيف تتخلص من الوهم؟","publishedAt":"2020-10-20T19:05:27Z","duration":"PT13M53S","thumbnail":"https://i.ytimg.com/vi/y67IllfDeaw/mqdefault.jpg","viewCount":"18684","playlistId":"PLEkQk5xrP-tm8ZIu74nTOZN9KJUJu416J","playlistName":"مقاطع مُهمَّة (يُسريَّات) أ.د. يسري جبر","category":"متنوع"},{"id":"W8Mzr--ONDQ","title":"إطلاق الجَمْع وإرادة المُثَنَّى","publishedAt":"2020-10-19T06:59:43Z","duration":"PT18M49S","thumbnail":"https://i.ytimg.com/vi/W8Mzr--ONDQ/mqdefault.jpg","viewCount":"475","playlistId":"PLEkQk5xrP-tnW3iBL7HkKziOFCFZbTlf0","playlistName":"شرح البرهان في علوم القرآن - أ.د. يسري جبر","category":"تفسير"},{"id":"ULS0o6o5-Gs","title":"كيف تتبرأ من العِلل؟","publishedAt":"2020-10-18T19:10:21Z","duration":"PT14M36S","thumbnail":"https://i.ytimg.com/vi/ULS0o6o5-Gs/mqdefault.jpg","viewCount":"5112","playlistId":"PLEkQk5xrP-tm8ZIu74nTOZN9KJUJu416J","playlistName":"مقاطع مُهمَّة (يُسريَّات) أ.د. يسري جبر","category":"متنوع"},{"id":"OkaAyockQTA","title":"151- فضل سعد بن أبي وقَّاص رضي اللهُ عنه","publishedAt":"2020-10-18T07:01:59Z","duration":"PT18M18S","thumbnail":"https://i.ytimg.com/vi/OkaAyockQTA/mqdefault.jpg","viewCount":"957","playlistId":"PLEkQk5xrP-tmKNjtYLfhATC37QdIsTMe0","playlistName":"شرح كتاب اللؤلؤ والمرجان فيما اتفق عليه الشيخان إماما المحدثين البخاري ومسلم. أ.د. يسري جبر","category":"حديث"},{"id":"AasBPGDz78g","title":"الرحمة والتسامح أ.د.يسري جبر","publishedAt":"2020-10-17T18:29:52Z","duration":"PT34M","thumbnail":"https://i.ytimg.com/vi/AasBPGDz78g/mqdefault.jpg","viewCount":"1885","playlistId":"PLEkQk5xrP-tlArtGpeLWaqNM7h7IDeAVC","playlistName":"خطب الجمعة أ.د. يسري جبر","category":"خطب"},{"id":"kxpv0svl3HY","title":"إطلاق اسم المطلق على المُقيَّد","publishedAt":"2020-10-17T08:23:20Z","duration":"PT23M50S","thumbnail":"https://i.ytimg.com/vi/kxpv0svl3HY/mqdefault.jpg","viewCount":"546","playlistId":"PLEkQk5xrP-tnW3iBL7HkKziOFCFZbTlf0","playlistName":"شرح البرهان في علوم القرآن - أ.د. يسري جبر","category":"تفسير"}],"total":7670,"page":20,"pageSize":24,"totalPages":320}