{"items":[{"id":"-_J3YKAu2gU","title":"شرح كتاب الشمائل المحمدية للإمام أبى عيسى الترمذى رضى الله عنه - المجلس السابع","publishedAt":"2014-11-10T20:38:03Z","duration":"PT1H29M36S","thumbnail":"https://i.ytimg.com/vi/-_J3YKAu2gU/mqdefault.jpg","viewCount":"621","playlistId":"PLEkQk5xrP-tm74ioQU4BIuXLs8a9babvA","playlistName":"شرح كتاب الشمائل المحمدية للإمام الترمذى","category":"سيرة"},{"id":"qOFQ6xTCatE","title":"مسك الختام لقا خير الأنام - المديح وكلمة الوداع والشكر","publishedAt":"2014-11-13T16:28:47Z","duration":"PT11M30S","thumbnail":"https://i.ytimg.com/vi/qOFQ6xTCatE/mqdefault.jpg","viewCount":"595","playlistId":"PLEkQk5xrP-tm74ioQU4BIuXLs8a9babvA","playlistName":"شرح كتاب الشمائل المحمدية للإمام الترمذى","category":"سيرة"},{"id":"r7RIwkuB6-E","title":"شرح كتاب الشمائل المحمدية للإمام أبى عيسى الترمذى رضى الله عنه - المجلس الثامن","publishedAt":"2014-11-12T05:08:48Z","duration":"PT1H23M58S","thumbnail":"https://i.ytimg.com/vi/r7RIwkuB6-E/mqdefault.jpg","viewCount":"515","playlistId":"PLEkQk5xrP-tm74ioQU4BIuXLs8a9babvA","playlistName":"شرح كتاب الشمائل المحمدية للإمام الترمذى","category":"سيرة"},{"id":"bC93uMKV04U","title":"شرح كتاب الشمائل المحمدية للإمام أبى عيسى الترمذى رضى الله عنه - المجلس التاسع","publishedAt":"2014-11-12T19:42:44Z","duration":"PT1H30M21S","thumbnail":"https://i.ytimg.com/vi/bC93uMKV04U/mqdefault.jpg","viewCount":"505","playlistId":"PLEkQk5xrP-tm74ioQU4BIuXLs8a9babvA","playlistName":"شرح كتاب الشمائل المحمدية للإمام الترمذى","category":"سيرة"},{"id":"kdIoIRXysPQ","title":"شرح كتاب الشمائل المحمدية للإمام أبى عيسى الترمذى رضى الله عنه - المجلس العاشر","publishedAt":"2014-11-13T08:53:09Z","duration":"PT1H23M12S","thumbnail":"https://i.ytimg.com/vi/kdIoIRXysPQ/mqdefault.jpg","viewCount":"466","playlistId":"PLEkQk5xrP-tm74ioQU4BIuXLs8a9babvA","playlistName":"شرح كتاب الشمائل المحمدية للإمام الترمذى","category":"سيرة"}],"total":101,"page":5,"pageSize":24,"totalPages":5}