{"items":[{"id":"Xj4E8w1y85o","title":"\"الَّذِينَ يَرِثُونَ ٱلْفِرْدَوْسَ هُمْ فِيهَا\" - تأنيث المذكَّر - شرح البرهان في علوم القرآن","publishedAt":"2021-12-18T06:34:07Z","duration":"PT22M40S","thumbnail":"https://i.ytimg.com/vi/Xj4E8w1y85o/mqdefault.jpg","viewCount":"872","playlistId":"PLEkQk5xrP-tnW3iBL7HkKziOFCFZbTlf0","playlistName":"شرح البرهان في علوم القرآن - أ.د. يسري جبر","category":"تفسير"},{"id":"8mw2FufKn_Q","title":"تكملة ما جاء في أسلوب(تأنيث المذكَّر) شرح البرهان في علوم القرآن","publishedAt":"2021-12-20T06:37:54Z","duration":"PT23M","thumbnail":"https://i.ytimg.com/vi/8mw2FufKn_Q/mqdefault.jpg","viewCount":"529","playlistId":"PLEkQk5xrP-tnW3iBL7HkKziOFCFZbTlf0","playlistName":"شرح البرهان في علوم القرآن - أ.د. يسري جبر","category":"تفسير"},{"id":"jWvwvT9j6-4","title":"التعبير عن المستقبل بلفظ الماضي وعكسه - شرح البرهان في علوم القرآن","publishedAt":"2021-12-22T07:15:55Z","duration":"PT17M55S","thumbnail":"https://i.ytimg.com/vi/jWvwvT9j6-4/mqdefault.jpg","viewCount":"882","playlistId":"PLEkQk5xrP-tnW3iBL7HkKziOFCFZbTlf0","playlistName":"شرح البرهان في علوم القرآن - أ.د. يسري جبر","category":"تفسير"},{"id":"LQA5nD65uOA","title":"تكملة الأسلوب العشرين - فَتُصْبِحُ الْأَرْضُ مُخْضَرَّةً ۗ - شرح البرهان في علوم القرآن","publishedAt":"2021-12-24T07:11:51Z","duration":"PT22M41S","thumbnail":"https://i.ytimg.com/vi/LQA5nD65uOA/mqdefault.jpg","viewCount":"686","playlistId":"PLEkQk5xrP-tnW3iBL7HkKziOFCFZbTlf0","playlistName":"شرح البرهان في علوم القرآن - أ.د. يسري جبر","category":"تفسير"},{"id":"N-c-lp1KP3Q","title":"مُشَاكَلَةُ اللَّفْظِ لِلَّفْظِ - شرح البرهان في علوم القرآن","publishedAt":"2021-12-25T06:47:55Z","duration":"PT14M8S","thumbnail":"https://i.ytimg.com/vi/N-c-lp1KP3Q/mqdefault.jpg","viewCount":"644","playlistId":"PLEkQk5xrP-tnW3iBL7HkKziOFCFZbTlf0","playlistName":"شرح البرهان في علوم القرآن - أ.د. يسري جبر","category":"تفسير"},{"id":"x281GlPATCU","title":"مُشَاكَلَةُ اللَّفْظِ لِلْمَعْنَى - شرح البرهان في علوم القرآن","publishedAt":"2021-12-26T07:15:12Z","duration":"PT37M32S","thumbnail":"https://i.ytimg.com/vi/x281GlPATCU/mqdefault.jpg","viewCount":"860","playlistId":"PLEkQk5xrP-tnW3iBL7HkKziOFCFZbTlf0","playlistName":"شرح البرهان في علوم القرآن - أ.د. يسري جبر","category":"تفسير"},{"id":"eCDQ1gymOnU","title":"مُشَاكَلَةُ اللَّفْظِ لِلْمَعْنَى (2) - شرح البرهان في علوم القرآن","publishedAt":"2021-12-29T07:00:50Z","duration":"PT43M","thumbnail":"https://i.ytimg.com/vi/eCDQ1gymOnU/mqdefault.jpg","viewCount":"1337","playlistId":"PLEkQk5xrP-tnW3iBL7HkKziOFCFZbTlf0","playlistName":"شرح البرهان في علوم القرآن - أ.د. يسري جبر","category":"تفسير"},{"id":"6eVFQw3frnI","title":"مُشَاكَلَةُ اللَّفْظِ لِلْمَعْنَى (3) - شرح البرهان في علوم القرآن","publishedAt":"2021-12-31T07:02:38Z","duration":"PT14M","thumbnail":"https://i.ytimg.com/vi/6eVFQw3frnI/mqdefault.jpg","viewCount":"383","playlistId":"PLEkQk5xrP-tnW3iBL7HkKziOFCFZbTlf0","playlistName":"شرح البرهان في علوم القرآن - أ.د. يسري جبر","category":"تفسير"},{"id":"P29ETR39fV4","title":"النحت - شرح كتاب البرهان في علوم القرآن","publishedAt":"2022-01-02T06:33:05Z","duration":"PT8M15S","thumbnail":"https://i.ytimg.com/vi/P29ETR39fV4/mqdefault.jpg","viewCount":"741","playlistId":"PLEkQk5xrP-tnW3iBL7HkKziOFCFZbTlf0","playlistName":"شرح البرهان في علوم القرآن - أ.د. يسري جبر","category":"تفسير"},{"id":"1svglzxNYXg","title":"الإبدال - شرح كتاب البرهان في علوم القرآن","publishedAt":"2022-01-04T07:04:02Z","duration":"PT14M30S","thumbnail":"https://i.ytimg.com/vi/1svglzxNYXg/mqdefault.jpg","viewCount":"938","playlistId":"PLEkQk5xrP-tnW3iBL7HkKziOFCFZbTlf0","playlistName":"شرح البرهان في علوم القرآن - أ.د. يسري جبر","category":"تفسير"},{"id":"1n1Lgoog4qg","title":"المحاذاة - شرح كتاب البرهان في علوم القرآن","publishedAt":"2022-01-07T07:43:30Z","duration":"PT9M6S","thumbnail":"https://i.ytimg.com/vi/1n1Lgoog4qg/mqdefault.jpg","viewCount":"539","playlistId":"PLEkQk5xrP-tnW3iBL7HkKziOFCFZbTlf0","playlistName":"شرح البرهان في علوم القرآن - أ.د. يسري جبر","category":"تفسير"},{"id":"lM09dY-rIvo","title":"قواعد في النفي - شرح البرهان في علوم القرآن","publishedAt":"2022-01-07T23:01:20Z","duration":"PT16M32S","thumbnail":"https://i.ytimg.com/vi/lM09dY-rIvo/mqdefault.jpg","viewCount":"512","playlistId":"PLEkQk5xrP-tnW3iBL7HkKziOFCFZbTlf0","playlistName":"شرح البرهان في علوم القرآن - أ.د. يسري جبر","category":"تفسير"},{"id":"biONh84eJGg","title":"نَفْي الشَّيءِ رَأْسًا - شرح البرهان في علوم القرآن","publishedAt":"2022-01-10T06:43:48Z","duration":"PT33M22S","thumbnail":"https://i.ytimg.com/vi/biONh84eJGg/mqdefault.jpg","viewCount":"810","playlistId":"PLEkQk5xrP-tnW3iBL7HkKziOFCFZbTlf0","playlistName":"شرح البرهان في علوم القرآن - أ.د. يسري جبر","category":"تفسير"},{"id":"7_nrFaHsPH8","title":"نَفْي الشَّيءِ مقيَّدًا والمُرادُ به مُطْلَقًا - شرح البرهان في علوم القرآن","publishedAt":"2022-01-12T07:20:10Z","duration":"PT13M35S","thumbnail":"https://i.ytimg.com/vi/7_nrFaHsPH8/mqdefault.jpg","viewCount":"598","playlistId":"PLEkQk5xrP-tnW3iBL7HkKziOFCFZbTlf0","playlistName":"شرح البرهان في علوم القرآن - أ.د. يسري جبر","category":"تفسير"},{"id":"U1YXfmyKKSI","title":"نَفْي الشَّيءِ مقيَّدًا والمُرادُ به مُطْلَقًا (2)  - شرح البرهان في علوم القرآن","publishedAt":"2022-01-14T07:22:19Z","duration":"PT20M3S","thumbnail":"https://i.ytimg.com/vi/U1YXfmyKKSI/mqdefault.jpg","viewCount":"608","playlistId":"PLEkQk5xrP-tnW3iBL7HkKziOFCFZbTlf0","playlistName":"شرح البرهان في علوم القرآن - أ.د. يسري جبر","category":"تفسير"},{"id":"anVEg1-yJaA","title":"نَفْي العام يدل على نَفْي الخاص (3)  قاعدة مهمَّة - شرح البرهان في علوم القرآن","publishedAt":"2022-01-16T07:00:49Z","duration":"PT30M13S","thumbnail":"https://i.ytimg.com/vi/anVEg1-yJaA/mqdefault.jpg","viewCount":"1009","playlistId":"PLEkQk5xrP-tnW3iBL7HkKziOFCFZbTlf0","playlistName":"شرح البرهان في علوم القرآن - أ.د. يسري جبر","category":"تفسير"},{"id":"Ds6pqdVrGPY","title":"ثبوت العام لا ينفي الخاص (4) قاعدة مهمَّة - شرح البرهان في علوم القرآن","publishedAt":"2022-01-18T06:51:26Z","duration":"PT23M31S","thumbnail":"https://i.ytimg.com/vi/Ds6pqdVrGPY/mqdefault.jpg","viewCount":"744","playlistId":"PLEkQk5xrP-tnW3iBL7HkKziOFCFZbTlf0","playlistName":"شرح البرهان في علوم القرآن - أ.د. يسري جبر","category":"تفسير"},{"id":"1D-ecPuldZI","title":"إخراج الكلام مَخرج الشَّكِّ في اللَّفْظِ دون الحقيقة - شرح البرهان في علوم القرآن","publishedAt":"2022-01-20T06:52:40Z","duration":"PT31M46S","thumbnail":"https://i.ytimg.com/vi/1D-ecPuldZI/mqdefault.jpg","viewCount":"862","playlistId":"PLEkQk5xrP-tnW3iBL7HkKziOFCFZbTlf0","playlistName":"شرح البرهان في علوم القرآن - أ.د. يسري جبر","category":"تفسير"},{"id":"nUCqR76_Q-I","title":"الإعراض عن صريح الحُكْم - شرح البرهان في علوم القرآن","publishedAt":"2022-01-22T20:33:08Z","duration":"PT8M9S","thumbnail":"https://i.ytimg.com/vi/nUCqR76_Q-I/mqdefault.jpg","viewCount":"591","playlistId":"PLEkQk5xrP-tnW3iBL7HkKziOFCFZbTlf0","playlistName":"شرح البرهان في علوم القرآن - أ.د. يسري جبر","category":"تفسير"},{"id":"ve3zJnOoH3g","title":"التَّوَسُّع - شرح البرهان في علوم القرآن","publishedAt":"2022-01-25T06:48:48Z","duration":"PT6M18S","thumbnail":"https://i.ytimg.com/vi/ve3zJnOoH3g/mqdefault.jpg","viewCount":"765","playlistId":"PLEkQk5xrP-tnW3iBL7HkKziOFCFZbTlf0","playlistName":"شرح البرهان في علوم القرآن - أ.د. يسري جبر","category":"تفسير"},{"id":"V5MBNI5Nock","title":"التشبيه - شرح البرهان في علوم القرآن","publishedAt":"2022-01-27T08:15:33Z","duration":"PT15M26S","thumbnail":"https://i.ytimg.com/vi/V5MBNI5Nock/mqdefault.jpg","viewCount":"648","playlistId":"PLEkQk5xrP-tnW3iBL7HkKziOFCFZbTlf0","playlistName":"شرح البرهان في علوم القرآن - أ.د. يسري جبر","category":"تفسير"},{"id":"xMmluhaWOxQ","title":"أقسام التشبيه - شرح البرهان في علوم القرآن","publishedAt":"2022-01-29T06:54:09Z","duration":"PT21M38S","thumbnail":"https://i.ytimg.com/vi/xMmluhaWOxQ/mqdefault.jpg","viewCount":"765","playlistId":"PLEkQk5xrP-tnW3iBL7HkKziOFCFZbTlf0","playlistName":"شرح البرهان في علوم القرآن - أ.د. يسري جبر","category":"تفسير"},{"id":"vAjTbTzaUJ0","title":"تقسيم طَرَفَي التشبيه: المُشَبَّه والمُشَبَّه به - شرح البرهان في علوم القرآن","publishedAt":"2022-01-31T06:53:29Z","duration":"PT22M18S","thumbnail":"https://i.ytimg.com/vi/vAjTbTzaUJ0/mqdefault.jpg","viewCount":"780","playlistId":"PLEkQk5xrP-tnW3iBL7HkKziOFCFZbTlf0","playlistName":"شرح البرهان في علوم القرآن - أ.د. يسري جبر","category":"تفسير"},{"id":"TqeZxq9tevw","title":"التشبيه: التقسيم الثالث: ينقسم إلى مُفْرَد ومُرَكَّب - شرح البرهان في علوم القرآن","publishedAt":"2022-02-01T06:51:52Z","duration":"PT17M3S","thumbnail":"https://i.ytimg.com/vi/TqeZxq9tevw/mqdefault.jpg","viewCount":"757","playlistId":"PLEkQk5xrP-tnW3iBL7HkKziOFCFZbTlf0","playlistName":"شرح البرهان في علوم القرآن - أ.د. يسري جبر","category":"تفسير"}],"total":1096,"page":25,"pageSize":24,"totalPages":46}