{"items":[{"id":"1qvBORU2Bb4","title":"قواعدُ تتعلّقُ بالتشبيه - شرح البرهان في علوم القرآن","publishedAt":"2022-02-03T07:37:25Z","duration":"PT15M2S","thumbnail":"https://i.ytimg.com/vi/1qvBORU2Bb4/mqdefault.jpg","viewCount":"629","playlistId":"PLEkQk5xrP-tnW3iBL7HkKziOFCFZbTlf0","playlistName":"شرح البرهان في علوم القرآن - أ.د. يسري جبر","category":"تفسير"},{"id":"wrfCyekjfEc","title":"قواعدُ تتعلّقُ بالتشبيه (القاعدة الرابعة) شرح البرهان في علوم القرآن","publishedAt":"2022-02-05T06:46:01Z","duration":"PT16M10S","thumbnail":"https://i.ytimg.com/vi/wrfCyekjfEc/mqdefault.jpg","viewCount":"639","playlistId":"PLEkQk5xrP-tnW3iBL7HkKziOFCFZbTlf0","playlistName":"شرح البرهان في علوم القرآن - أ.د. يسري جبر","category":"تفسير"},{"id":"rm_i8dCSazI","title":"دُخُولُ أدَاةِ التَشْبِيهِ عَلَى المُشَبَّه - شرح البرهان في علوم القرآن","publishedAt":"2022-02-07T07:01:54Z","duration":"PT12M45S","thumbnail":"https://i.ytimg.com/vi/rm_i8dCSazI/mqdefault.jpg","viewCount":"586","playlistId":"PLEkQk5xrP-tnW3iBL7HkKziOFCFZbTlf0","playlistName":"شرح البرهان في علوم القرآن - أ.د. يسري جبر","category":"تفسير"},{"id":"hmvKJrAbz4M","title":"حَذْفُ المُشَبَّه - شرح البرهان في علوم القرآن","publishedAt":"2022-02-09T06:41:14Z","duration":"PT20M4S","thumbnail":"https://i.ytimg.com/vi/hmvKJrAbz4M/mqdefault.jpg","viewCount":"677","playlistId":"PLEkQk5xrP-tnW3iBL7HkKziOFCFZbTlf0","playlistName":"شرح البرهان في علوم القرآن - أ.د. يسري جبر","category":"تفسير"},{"id":"6GvRyf_MuNo","title":"الاستعارة - شرح البرهان في علوم القرآن","publishedAt":"2022-02-10T08:34:34Z","duration":"PT31M45S","thumbnail":"https://i.ytimg.com/vi/6GvRyf_MuNo/mqdefault.jpg","viewCount":"637","playlistId":"PLEkQk5xrP-tnW3iBL7HkKziOFCFZbTlf0","playlistName":"شرح البرهان في علوم القرآن - أ.د. يسري جبر","category":"تفسير"},{"id":"fyZwx_EWqTc","title":"مباحث في الاستعارة - شرح البرهان في علوم القرآن","publishedAt":"2022-02-12T07:42:56Z","duration":"PT18M59S","thumbnail":"https://i.ytimg.com/vi/fyZwx_EWqTc/mqdefault.jpg","viewCount":"619","playlistId":"PLEkQk5xrP-tnW3iBL7HkKziOFCFZbTlf0","playlistName":"شرح البرهان في علوم القرآن - أ.د. يسري جبر","category":"تفسير"},{"id":"cxACcwSGwvU","title":"الاستعارة قِسْمٌ من أقسام المجاز - شرح البرهان في علوم القرآن","publishedAt":"2022-02-13T08:51:20Z","duration":"PT31M29S","thumbnail":"https://i.ytimg.com/vi/cxACcwSGwvU/mqdefault.jpg","viewCount":"671","playlistId":"PLEkQk5xrP-tnW3iBL7HkKziOFCFZbTlf0","playlistName":"شرح البرهان في علوم القرآن - أ.د. يسري جبر","category":"تفسير"},{"id":"wc-Qlz-1DIQ","title":"أقسام الاستعارة - شرح البرهان في علوم القرآن","publishedAt":"2022-02-14T19:35:35Z","duration":"PT13M40S","thumbnail":"https://i.ytimg.com/vi/wc-Qlz-1DIQ/mqdefault.jpg","viewCount":"618","playlistId":"PLEkQk5xrP-tnW3iBL7HkKziOFCFZbTlf0","playlistName":"شرح البرهان في علوم القرآن - أ.د. يسري جبر","category":"تفسير"},{"id":"bKHxRiC6KSU","title":"الاسْتعارةُ فَرعُ التشبيهِ وأنواعُها خَمْسةٌ - شرح البرهان في علوم القرآن","publishedAt":"2022-02-16T07:47:49Z","duration":"PT18M24S","thumbnail":"https://i.ytimg.com/vi/bKHxRiC6KSU/mqdefault.jpg","viewCount":"756","playlistId":"PLEkQk5xrP-tnW3iBL7HkKziOFCFZbTlf0","playlistName":"شرح البرهان في علوم القرآن - أ.د. يسري جبر","category":"تفسير"},{"id":"Wh37N31GvQA","title":"التَّوْرِيَة - شرح البرهان في علوم القرآن","publishedAt":"2022-02-19T07:02:36Z","duration":"PT40M41S","thumbnail":"https://i.ytimg.com/vi/Wh37N31GvQA/mqdefault.jpg","viewCount":"941","playlistId":"PLEkQk5xrP-tnW3iBL7HkKziOFCFZbTlf0","playlistName":"شرح البرهان في علوم القرآن - أ.د. يسري جبر","category":"تفسير"},{"id":"unOIv9E6-CM","title":"التَّجْرِيد - شرح البرهان في علوم القرآن","publishedAt":"2022-02-21T11:10:19Z","duration":"PT11M24S","thumbnail":"https://i.ytimg.com/vi/unOIv9E6-CM/mqdefault.jpg","viewCount":"600","playlistId":"PLEkQk5xrP-tnW3iBL7HkKziOFCFZbTlf0","playlistName":"شرح البرهان في علوم القرآن - أ.د. يسري جبر","category":"تفسير"},{"id":"JNnwvDmCYkI","title":"التَّجْنِيس (تَشَابُه في المَبْنَى واختلاف في المعنى) - شرح البرهان في علوم القرآن","publishedAt":"2022-02-22T11:31:39Z","duration":"PT14M2S","thumbnail":"https://i.ytimg.com/vi/JNnwvDmCYkI/mqdefault.jpg","viewCount":"513","playlistId":"PLEkQk5xrP-tnW3iBL7HkKziOFCFZbTlf0","playlistName":"شرح البرهان في علوم القرآن - أ.د. يسري جبر","category":"تفسير"},{"id":"4MOVey1KE8A","title":"الجِنَاسُ مِنَ المَحَاسِنِ اللّفْظِيَّةِ لا المَعنَويَّة - شرح البرهان في علوم القرآن","publishedAt":"2022-02-23T11:10:23Z","duration":"PT15M58S","thumbnail":"https://i.ytimg.com/vi/4MOVey1KE8A/mqdefault.jpg","viewCount":"470","playlistId":"PLEkQk5xrP-tnW3iBL7HkKziOFCFZbTlf0","playlistName":"شرح البرهان في علوم القرآن - أ.د. يسري جبر","category":"تفسير"},{"id":"a1YhsTYPWTQ","title":"الطِّبَاق (الجَمْعُ بينَ المُتَضَادَّين مع مراعاة التقابل) - شرح البرهان في علوم القرآن","publishedAt":"2022-02-24T07:05:01Z","duration":"PT11M42S","thumbnail":"https://i.ytimg.com/vi/a1YhsTYPWTQ/mqdefault.jpg","viewCount":"551","playlistId":"PLEkQk5xrP-tnW3iBL7HkKziOFCFZbTlf0","playlistName":"شرح البرهان في علوم القرآن - أ.د. يسري جبر","category":"تفسير"},{"id":"FAD5QhKCoas","title":"المُقَابَلَة - شرح البرهان في علوم القرآن","publishedAt":"2022-02-25T20:18:42Z","duration":"PT12M59S","thumbnail":"https://i.ytimg.com/vi/FAD5QhKCoas/mqdefault.jpg","viewCount":"693","playlistId":"PLEkQk5xrP-tnW3iBL7HkKziOFCFZbTlf0","playlistName":"شرح البرهان في علوم القرآن - أ.د. يسري جبر","category":"تفسير"},{"id":"nlhz8-ywhto","title":"أنواعُ المُقَابَلَة - شرح البرهان في علوم القرآن","publishedAt":"2022-02-27T06:32:42Z","duration":"PT27M47S","thumbnail":"https://i.ytimg.com/vi/nlhz8-ywhto/mqdefault.jpg","viewCount":"926","playlistId":"PLEkQk5xrP-tnW3iBL7HkKziOFCFZbTlf0","playlistName":"شرح البرهان في علوم القرآن - أ.د. يسري جبر","category":"تفسير"},{"id":"WPul-cwfbIQ","title":"تَقْسِيمٌ مِن مقابلة اثْنَين باثْنَين - شرح البرهان في علوم القرآن","publishedAt":"2022-03-01T06:30:07Z","duration":"PT25M53S","thumbnail":"https://i.ytimg.com/vi/WPul-cwfbIQ/mqdefault.jpg","viewCount":"646","playlistId":"PLEkQk5xrP-tnW3iBL7HkKziOFCFZbTlf0","playlistName":"شرح البرهان في علوم القرآن - أ.د. يسري جبر","category":"تفسير"},{"id":"xfnaxmvKCk4","title":"إلْجَامُ الخَصْمِ بالحُجَّة - شرح البرهان في علوم القرآن","publishedAt":"2022-03-02T21:48:38Z","duration":"PT19M6S","thumbnail":"https://i.ytimg.com/vi/xfnaxmvKCk4/mqdefault.jpg","viewCount":"1170","playlistId":"PLEkQk5xrP-tnW3iBL7HkKziOFCFZbTlf0","playlistName":"شرح البرهان في علوم القرآن - أ.د. يسري جبر","category":"تفسير"},{"id":"G2k7fylg2Ho","title":"التَّقْسِيم - شرح البرهان في علوم القرآن","publishedAt":"2022-03-04T06:46:15Z","duration":"PT38M42S","thumbnail":"https://i.ytimg.com/vi/G2k7fylg2Ho/mqdefault.jpg","viewCount":"627","playlistId":"PLEkQk5xrP-tnW3iBL7HkKziOFCFZbTlf0","playlistName":"شرح البرهان في علوم القرآن - أ.د. يسري جبر","category":"تفسير"},{"id":"hP8iemeWsMA","title":"التَّعَدُّدِيَّة - شرح البرهان في علوم القرآن","publishedAt":"2022-03-06T06:48:01Z","duration":"PT26M28S","thumbnail":"https://i.ytimg.com/vi/hP8iemeWsMA/mqdefault.jpg","viewCount":"907","playlistId":"PLEkQk5xrP-tnW3iBL7HkKziOFCFZbTlf0","playlistName":"شرح البرهان في علوم القرآن - أ.د. يسري جبر","category":"تفسير"},{"id":"eO1d7gLTO70","title":"مُقَابَلَةُ الجَمْعِ بالجَمْعِ - شرح البرهان في علوم القرآن","publishedAt":"2022-03-08T06:42:54Z","duration":"PT12M15S","thumbnail":"https://i.ytimg.com/vi/eO1d7gLTO70/mqdefault.jpg","viewCount":"877","playlistId":"PLEkQk5xrP-tnW3iBL7HkKziOFCFZbTlf0","playlistName":"شرح البرهان في علوم القرآن - أ.د. يسري جبر","category":"تفسير"},{"id":"sVhgVNZdgmg","title":"قَاعِدَةٌ فِيمَا وَرَدَ في القُرْآنِ مَجْمُوعًا ومُفْرَدًا - شرح البرهان في علوم القرآن","publishedAt":"2022-03-10T04:17:55Z","duration":"PT25M38S","thumbnail":"https://i.ytimg.com/vi/sVhgVNZdgmg/mqdefault.jpg","viewCount":"594","playlistId":"PLEkQk5xrP-tnW3iBL7HkKziOFCFZbTlf0","playlistName":"شرح البرهان في علوم القرآن - أ.د. يسري جبر","category":"تفسير"},{"id":"oIZPJ33hUXw","title":"الرِّيحُ والرِّيَاحُ والفَرْقُ بَينَهُمَا - شرح البرهان في علوم القرآن","publishedAt":"2022-03-13T07:27:02Z","duration":"PT11M22S","thumbnail":"https://i.ytimg.com/vi/oIZPJ33hUXw/mqdefault.jpg","viewCount":"844","playlistId":"PLEkQk5xrP-tnW3iBL7HkKziOFCFZbTlf0","playlistName":"شرح البرهان في علوم القرآن - أ.د. يسري جبر","category":"تفسير"},{"id":"Ujtt8JB55K0","title":"الظُّلُمَاتُ وَالنُّورُ ما الفَرْقُ بَينَهُمَا؟ - شرح البرهان في علوم القرآن","publishedAt":"2022-03-16T08:46:16Z","duration":"PT9M27S","thumbnail":"https://i.ytimg.com/vi/Ujtt8JB55K0/mqdefault.jpg","viewCount":"1070","playlistId":"PLEkQk5xrP-tnW3iBL7HkKziOFCFZbTlf0","playlistName":"شرح البرهان في علوم القرآن - أ.د. يسري جبر","category":"تفسير"}],"total":1096,"page":26,"pageSize":24,"totalPages":46}