{"items":[{"id":"0_FEh_iBP8g","title":"الأسلوب الثاني\"الحذف\" شرح البرهان في علوم القرآن","publishedAt":"2021-06-07T06:08:35Z","duration":"PT24M40S","thumbnail":"https://i.ytimg.com/vi/0_FEh_iBP8g/mqdefault.jpg","viewCount":"451","playlistId":"PLEkQk5xrP-tnW3iBL7HkKziOFCFZbTlf0","playlistName":"شرح البرهان في علوم القرآن - أ.د. يسري جبر","category":"تفسير"},{"id":"Yhu0aI_-pJ4","title":"الأسلوب الثاني\"الحذف\"(2) شرح البرهان في علوم القرآن","publishedAt":"2021-06-09T05:38:34Z","duration":"PT21M17S","thumbnail":"https://i.ytimg.com/vi/Yhu0aI_-pJ4/mqdefault.jpg","viewCount":"449","playlistId":"PLEkQk5xrP-tnW3iBL7HkKziOFCFZbTlf0","playlistName":"شرح البرهان في علوم القرآن - أ.د. يسري جبر","category":"تفسير"},{"id":"MlS4ZzSjCI4","title":"الأسلوب الثاني\"الحذف\"(3) أدلة الحذف -  شرح البرهان في علوم القرآن","publishedAt":"2021-06-12T05:53:14Z","duration":"PT23M45S","thumbnail":"https://i.ytimg.com/vi/MlS4ZzSjCI4/mqdefault.jpg","viewCount":"393","playlistId":"PLEkQk5xrP-tnW3iBL7HkKziOFCFZbTlf0","playlistName":"شرح البرهان في علوم القرآن - أ.د. يسري جبر","category":"تفسير"},{"id":"mDqfzE2yHNw","title":"الأسلوب الثاني\"الحذف\"(4) أدلة الحذف -  شرح البرهان في علوم القرآن","publishedAt":"2021-06-14T05:52:24Z","duration":"PT30M13S","thumbnail":"https://i.ytimg.com/vi/mDqfzE2yHNw/mqdefault.jpg","viewCount":"399","playlistId":"PLEkQk5xrP-tnW3iBL7HkKziOFCFZbTlf0","playlistName":"شرح البرهان في علوم القرآن - أ.د. يسري جبر","category":"تفسير"},{"id":"Gs0JJw9LwLA","title":"الأسلوب الثاني: الحذف(5)\"بعض التنبيهات\" شرح البرهان في علوم القرآن","publishedAt":"2021-06-16T06:07:10Z","duration":"PT15M25S","thumbnail":"https://i.ytimg.com/vi/Gs0JJw9LwLA/mqdefault.jpg","viewCount":"409","playlistId":"PLEkQk5xrP-tnW3iBL7HkKziOFCFZbTlf0","playlistName":"شرح البرهان في علوم القرآن - أ.د. يسري جبر","category":"تفسير"},{"id":"Ao84imTVcP8","title":"الأسلوب الثاني: الحذف(6)\"أقسام الحذف\" شرح البرهان في علوم القرآن","publishedAt":"2021-06-18T06:29:36Z","duration":"PT23M53S","thumbnail":"https://i.ytimg.com/vi/Ao84imTVcP8/mqdefault.jpg","viewCount":"397","playlistId":"PLEkQk5xrP-tnW3iBL7HkKziOFCFZbTlf0","playlistName":"شرح البرهان في علوم القرآن - أ.د. يسري جبر","category":"تفسير"},{"id":"EPcyt77sp9M","title":"الأسلوب الثاني: الحذف(7)\"أقسام الحذف\" النوع الثالث - شرح البرهان في علوم القرآن","publishedAt":"2021-06-20T06:09:31Z","duration":"PT32M59S","thumbnail":"https://i.ytimg.com/vi/EPcyt77sp9M/mqdefault.jpg","viewCount":"421","playlistId":"PLEkQk5xrP-tnW3iBL7HkKziOFCFZbTlf0","playlistName":"شرح البرهان في علوم القرآن - أ.د. يسري جبر","category":"تفسير"},{"id":"N0MhxhCZLsM","title":"الأسلوب الثاني: الحذف(8)\"أقسام الحذف\" النوع الخامس - شرح البرهان في علوم القرآن","publishedAt":"2021-06-21T07:23:48Z","duration":"PT10M46S","thumbnail":"https://i.ytimg.com/vi/N0MhxhCZLsM/mqdefault.jpg","viewCount":"346","playlistId":"PLEkQk5xrP-tnW3iBL7HkKziOFCFZbTlf0","playlistName":"شرح البرهان في علوم القرآن - أ.د. يسري جبر","category":"تفسير"},{"id":"1T3Pzf-tfTc","title":"الأسلوب الثاني: الحذف(9)\"أقسام الحذف\" النوع السابع - شرح البرهان في علوم القرآن","publishedAt":"2021-06-24T06:04:28Z","duration":"PT43M5S","thumbnail":"https://i.ytimg.com/vi/1T3Pzf-tfTc/mqdefault.jpg","viewCount":"395","playlistId":"PLEkQk5xrP-tnW3iBL7HkKziOFCFZbTlf0","playlistName":"شرح البرهان في علوم القرآن - أ.د. يسري جبر","category":"تفسير"},{"id":"N6jwjmXOIqs","title":"الأسلوب الثاني: الحذف(10)\"أقسام الحذف\" النوع الثامن\"الاختزال\" - شرح البرهان في علوم القرآن","publishedAt":"2021-06-26T06:33:38Z","duration":"PT12M40S","thumbnail":"https://i.ytimg.com/vi/N6jwjmXOIqs/mqdefault.jpg","viewCount":"403","playlistId":"PLEkQk5xrP-tnW3iBL7HkKziOFCFZbTlf0","playlistName":"شرح البرهان في علوم القرآن - أ.د. يسري جبر","category":"تفسير"},{"id":"IYCnaPkPI14","title":"الأسلوب الثاني:الحذف(11) أقسام الحذف: النوع الثامن:الاختزال(2)حذف الخبر - شرح البرهان في علوم القرآن","publishedAt":"2021-06-28T06:30:10Z","duration":"PT29M17S","thumbnail":"https://i.ytimg.com/vi/IYCnaPkPI14/mqdefault.jpg","viewCount":"394","playlistId":"PLEkQk5xrP-tnW3iBL7HkKziOFCFZbTlf0","playlistName":"شرح البرهان في علوم القرآن - أ.د. يسري جبر","category":"تفسير"},{"id":"TH17_FIfZY4","title":"الأسلوب الثاني الحذف(12)أقسام الحذف: الثامن:الاختزال(3)حذف الفاعل - شرح البرهان في علوم القرآن","publishedAt":"2021-06-30T07:59:17Z","duration":"PT17M41S","thumbnail":"https://i.ytimg.com/vi/TH17_FIfZY4/mqdefault.jpg","viewCount":"304","playlistId":"PLEkQk5xrP-tnW3iBL7HkKziOFCFZbTlf0","playlistName":"شرح البرهان في علوم القرآن - أ.د. يسري جبر","category":"تفسير"},{"id":"K3VA1dWGVAo","title":"الأسلوب الثاني: الحذف(13):أقسام الحذف\"الثامن:الاختزال(4) حذف المضاف وإقامة… - البرهان في علوم القرآن","publishedAt":"2021-07-01T08:26:56Z","duration":"PT21M12S","thumbnail":"https://i.ytimg.com/vi/K3VA1dWGVAo/mqdefault.jpg","viewCount":"434","playlistId":"PLEkQk5xrP-tnW3iBL7HkKziOFCFZbTlf0","playlistName":"شرح البرهان في علوم القرآن - أ.د. يسري جبر","category":"تفسير"},{"id":"enwGDNQCSmA","title":"الاختزال(5)حذف المضاف وإقامة المضاف إليه مقامه(أمثلة) شرح البرهان في علوم القرآن","publishedAt":"2021-07-02T07:01:31Z","duration":"PT21M12S","thumbnail":"https://i.ytimg.com/vi/enwGDNQCSmA/mqdefault.jpg","viewCount":"389","playlistId":"PLEkQk5xrP-tnW3iBL7HkKziOFCFZbTlf0","playlistName":"شرح البرهان في علوم القرآن - أ.د. يسري جبر","category":"تفسير"},{"id":"rhAvct19W8c","title":"الاختزال (6) حذف المضاف إليه - شرح البرهان في علوم القرآن","publishedAt":"2021-07-03T18:17:28Z","duration":"PT13M26S","thumbnail":"https://i.ytimg.com/vi/rhAvct19W8c/mqdefault.jpg","viewCount":"336","playlistId":"PLEkQk5xrP-tnW3iBL7HkKziOFCFZbTlf0","playlistName":"شرح البرهان في علوم القرآن - أ.د. يسري جبر","category":"تفسير"},{"id":"gUC0pF4PEQA","title":"الاختزال (7) حذف الموصوف - شرح البرهان في علوم القرآن","publishedAt":"2021-07-04T13:32:55Z","duration":"PT13M58S","thumbnail":"https://i.ytimg.com/vi/gUC0pF4PEQA/mqdefault.jpg","viewCount":"371","playlistId":"PLEkQk5xrP-tnW3iBL7HkKziOFCFZbTlf0","playlistName":"شرح البرهان في علوم القرآن - أ.د. يسري جبر","category":"تفسير"},{"id":"7PTZsVBKZBQ","title":"الاختزال (8) حذف المعطوف عليه - شرح البرهان في علوم القرآن","publishedAt":"2021-07-05T05:40:18Z","duration":"PT11M48S","thumbnail":"https://i.ytimg.com/vi/7PTZsVBKZBQ/mqdefault.jpg","viewCount":"329","playlistId":"PLEkQk5xrP-tnW3iBL7HkKziOFCFZbTlf0","playlistName":"شرح البرهان في علوم القرآن - أ.د. يسري جبر","category":"تفسير"},{"id":"3TXhb5m542g","title":"الاختزال (9) حذف المخصوص في باب ( نِعْمَ وبِئْسَ ) شرح البرهان في علوم القرآن","publishedAt":"2021-07-06T12:50:11Z","duration":"PT21M45S","thumbnail":"https://i.ytimg.com/vi/3TXhb5m542g/mqdefault.jpg","viewCount":"267","playlistId":"PLEkQk5xrP-tnW3iBL7HkKziOFCFZbTlf0","playlistName":"شرح البرهان في علوم القرآن - أ.د. يسري جبر","category":"تفسير"},{"id":"aKj_DJDZWgc","title":"الاختزال (10) حذف المفعول - شرح البرهان في علوم القرآن","publishedAt":"2021-07-07T05:27:07Z","duration":"PT7M24S","thumbnail":"https://i.ytimg.com/vi/aKj_DJDZWgc/mqdefault.jpg","viewCount":"309","playlistId":"PLEkQk5xrP-tnW3iBL7HkKziOFCFZbTlf0","playlistName":"شرح البرهان في علوم القرآن - أ.د. يسري جبر","category":"تفسير"},{"id":"VUlH7Dqm9pk","title":"الاختزال (11) الغرض من حذف المفعول (2) - شرح البرهان في علوم القرآن","publishedAt":"2021-07-07T22:08:28Z","duration":"PT15M11S","thumbnail":"https://i.ytimg.com/vi/VUlH7Dqm9pk/mqdefault.jpg","viewCount":"314","playlistId":"PLEkQk5xrP-tnW3iBL7HkKziOFCFZbTlf0","playlistName":"شرح البرهان في علوم القرآن - أ.د. يسري جبر","category":"تفسير"},{"id":"ByglztZpnGA","title":"الاختزال (12) الغرض من حذف المفعول (3) - شرح البرهان في علوم القرآن","publishedAt":"2021-07-08T16:17:54Z","duration":"PT17M39S","thumbnail":"https://i.ytimg.com/vi/ByglztZpnGA/mqdefault.jpg","viewCount":"343","playlistId":"PLEkQk5xrP-tnW3iBL7HkKziOFCFZbTlf0","playlistName":"شرح البرهان في علوم القرآن - أ.د. يسري جبر","category":"تفسير"},{"id":"D_qBmQFUy98","title":"الاختزال (13) حذف المفعول (4) - شرح البرهان في علوم القرآن","publishedAt":"2021-07-10T05:20:50Z","duration":"PT14M25S","thumbnail":"https://i.ytimg.com/vi/D_qBmQFUy98/mqdefault.jpg","viewCount":"326","playlistId":"PLEkQk5xrP-tnW3iBL7HkKziOFCFZbTlf0","playlistName":"شرح البرهان في علوم القرآن - أ.د. يسري جبر","category":"تفسير"},{"id":"x1nlLZsBNdE","title":"الاختزال (14) حذف المفعول (5) تنبيهات - شرح البرهان في علوم القرآن","publishedAt":"2021-07-12T05:46:43Z","duration":"PT36M56S","thumbnail":"https://i.ytimg.com/vi/x1nlLZsBNdE/mqdefault.jpg","viewCount":"488","playlistId":"PLEkQk5xrP-tnW3iBL7HkKziOFCFZbTlf0","playlistName":"شرح البرهان في علوم القرآن - أ.د. يسري جبر","category":"تفسير"},{"id":"Ebp49Zh1t08","title":"الاختزال (15) حذف المفعول (6) - شرح البرهان في علوم القرآن","publishedAt":"2021-07-14T05:34:53Z","duration":"PT12M8S","thumbnail":"https://i.ytimg.com/vi/Ebp49Zh1t08/mqdefault.jpg","viewCount":"317","playlistId":"PLEkQk5xrP-tnW3iBL7HkKziOFCFZbTlf0","playlistName":"شرح البرهان في علوم القرآن - أ.د. يسري جبر","category":"تفسير"}],"total":1096,"page":21,"pageSize":24,"totalPages":46}