{"items":[{"id":"DGxGOu2sG0o","title":"الاختزال (16) حذف المفعول (7) - شرح البرهان في علوم القرآن","publishedAt":"2021-07-16T05:27:01Z","duration":"PT21M16S","thumbnail":"https://i.ytimg.com/vi/DGxGOu2sG0o/mqdefault.jpg","viewCount":"327","playlistId":"PLEkQk5xrP-tnW3iBL7HkKziOFCFZbTlf0","playlistName":"شرح البرهان في علوم القرآن - أ.د. يسري جبر","category":"تفسير"},{"id":"PxO11QAX508","title":"الاختزال (17) حذف الحال - شرح البرهان في علوم القرآن","publishedAt":"2021-07-18T05:37:51Z","duration":"PT5M1S","thumbnail":"https://i.ytimg.com/vi/PxO11QAX508/mqdefault.jpg","viewCount":"457","playlistId":"PLEkQk5xrP-tnW3iBL7HkKziOFCFZbTlf0","playlistName":"شرح البرهان في علوم القرآن - أ.د. يسري جبر","category":"تفسير"},{"id":"TJmxjw8rW60","title":"الاختزال (18) حذف المنادَى - شرح البرهان في علوم القرآن","publishedAt":"2021-07-21T04:13:16Z","duration":"PT19M57S","thumbnail":"https://i.ytimg.com/vi/TJmxjw8rW60/mqdefault.jpg","viewCount":"411","playlistId":"PLEkQk5xrP-tnW3iBL7HkKziOFCFZbTlf0","playlistName":"شرح البرهان في علوم القرآن - أ.د. يسري جبر","category":"تفسير"},{"id":"m9vRv8KjWaw","title":"الاختزال (19) حذف الشرط - شرح البرهان في علوم القرآن","publishedAt":"2021-07-23T04:32:04Z","duration":"PT13M6S","thumbnail":"https://i.ytimg.com/vi/m9vRv8KjWaw/mqdefault.jpg","viewCount":"418","playlistId":"PLEkQk5xrP-tnW3iBL7HkKziOFCFZbTlf0","playlistName":"شرح البرهان في علوم القرآن - أ.د. يسري جبر","category":"تفسير"},{"id":"qZdCJ3o50o4","title":"الاختزال (20) حذف جواب الشرط - شرح البرهان في علوم القرآن","publishedAt":"2021-07-24T05:59:22Z","duration":"PT21M24S","thumbnail":"https://i.ytimg.com/vi/qZdCJ3o50o4/mqdefault.jpg","viewCount":"540","playlistId":"PLEkQk5xrP-tnW3iBL7HkKziOFCFZbTlf0","playlistName":"شرح البرهان في علوم القرآن - أ.د. يسري جبر","category":"تفسير"},{"id":"ARot-1pDBtM","title":"الاختزال (21) حذف جواب الشرط (2) أمثلة - شرح البرهان في علوم القرآن","publishedAt":"2021-07-27T05:33:36Z","duration":"PT14M14S","thumbnail":"https://i.ytimg.com/vi/ARot-1pDBtM/mqdefault.jpg","viewCount":"327","playlistId":"PLEkQk5xrP-tnW3iBL7HkKziOFCFZbTlf0","playlistName":"شرح البرهان في علوم القرآن - أ.د. يسري جبر","category":"تفسير"},{"id":"iv7DgxgG_sA","title":"الاختزال (22) حذف جواب الشرط (3) أمثلة - شرح البرهان في علوم القرآن","publishedAt":"2021-07-29T05:24:33Z","duration":"PT15M41S","thumbnail":"https://i.ytimg.com/vi/iv7DgxgG_sA/mqdefault.jpg","viewCount":"382","playlistId":"PLEkQk5xrP-tnW3iBL7HkKziOFCFZbTlf0","playlistName":"شرح البرهان في علوم القرآن - أ.د. يسري جبر","category":"تفسير"},{"id":"7Ud8CZZILIk","title":"الاختزال (23) حذف جواب الشرط (4) أمثلة - شرح البرهان في علوم القرآن","publishedAt":"2021-07-31T05:07:30Z","duration":"PT16M39S","thumbnail":"https://i.ytimg.com/vi/7Ud8CZZILIk/mqdefault.jpg","viewCount":"396","playlistId":"PLEkQk5xrP-tnW3iBL7HkKziOFCFZbTlf0","playlistName":"شرح البرهان في علوم القرآن - أ.د. يسري جبر","category":"تفسير"},{"id":"RTjCQyqbnsA","title":"الاختزال (24) حذف جواب القَسَم - شرح البرهان في علوم القرآن","publishedAt":"2021-08-02T05:31:15Z","duration":"PT11M37S","thumbnail":"https://i.ytimg.com/vi/RTjCQyqbnsA/mqdefault.jpg","viewCount":"424","playlistId":"PLEkQk5xrP-tnW3iBL7HkKziOFCFZbTlf0","playlistName":"شرح البرهان في علوم القرآن - أ.د. يسري جبر","category":"تفسير"},{"id":"GdgYRPeqQMs","title":"الاختزال (25) حذف الجملة - شرح البرهان في علوم القرآن","publishedAt":"2021-08-04T06:11:05Z","duration":"PT17M11S","thumbnail":"https://i.ytimg.com/vi/GdgYRPeqQMs/mqdefault.jpg","viewCount":"400","playlistId":"PLEkQk5xrP-tnW3iBL7HkKziOFCFZbTlf0","playlistName":"شرح البرهان في علوم القرآن - أ.د. يسري جبر","category":"تفسير"},{"id":"wKKrhGqeItE","title":"الاختزال (26) حذف القول - شرح البرهان في علوم القرآن","publishedAt":"2021-08-06T05:32:22Z","duration":"PT11M47S","thumbnail":"https://i.ytimg.com/vi/wKKrhGqeItE/mqdefault.jpg","viewCount":"399","playlistId":"PLEkQk5xrP-tnW3iBL7HkKziOFCFZbTlf0","playlistName":"شرح البرهان في علوم القرآن - أ.د. يسري جبر","category":"تفسير"},{"id":"aP167cb6AuM","title":"الاختزال (27) حذف الفعل - شرح البرهان في علوم القرآن","publishedAt":"2021-08-08T05:31:18Z","duration":"PT23M36S","thumbnail":"https://i.ytimg.com/vi/aP167cb6AuM/mqdefault.jpg","viewCount":"428","playlistId":"PLEkQk5xrP-tnW3iBL7HkKziOFCFZbTlf0","playlistName":"شرح البرهان في علوم القرآن - أ.د. يسري جبر","category":"تفسير"},{"id":"KNmdLX6Tlbk","title":"الاختزال (28) حذف الفعل (2) - شرح البرهان في علوم القرآن","publishedAt":"2021-08-11T05:54:40Z","duration":"PT24M4S","thumbnail":"https://i.ytimg.com/vi/KNmdLX6Tlbk/mqdefault.jpg","viewCount":"357","playlistId":"PLEkQk5xrP-tnW3iBL7HkKziOFCFZbTlf0","playlistName":"شرح البرهان في علوم القرآن - أ.د. يسري جبر","category":"تفسير"},{"id":"MO41E9Fzb6w","title":"الاختزال (29) حذف الفعل (3) - شرح البرهان في علوم القرآن","publishedAt":"2021-08-13T07:04:47Z","duration":"PT14M15S","thumbnail":"https://i.ytimg.com/vi/MO41E9Fzb6w/mqdefault.jpg","viewCount":"280","playlistId":"PLEkQk5xrP-tnW3iBL7HkKziOFCFZbTlf0","playlistName":"شرح البرهان في علوم القرآن - أ.د. يسري جبر","category":"تفسير"},{"id":"tVr3qzlagDI","title":"الاختزال (30) حذف الفعل (4)- شرح البرهان في علوم القرآن","publishedAt":"2021-08-14T07:05:09Z","duration":"PT12M1S","thumbnail":"https://i.ytimg.com/vi/tVr3qzlagDI/mqdefault.jpg","viewCount":"387","playlistId":"PLEkQk5xrP-tnW3iBL7HkKziOFCFZbTlf0","playlistName":"شرح البرهان في علوم القرآن - أ.د. يسري جبر","category":"تفسير"},{"id":"lUUNPJ4XW0o","title":"الاختزال (31) حذف الفعل (5)- شرح البرهان في علوم القرآن","publishedAt":"2021-08-17T06:35:46Z","duration":"PT7M8S","thumbnail":"https://i.ytimg.com/vi/lUUNPJ4XW0o/mqdefault.jpg","viewCount":"330","playlistId":"PLEkQk5xrP-tnW3iBL7HkKziOFCFZbTlf0","playlistName":"شرح البرهان في علوم القرآن - أ.د. يسري جبر","category":"تفسير"},{"id":"OdZz_gpO_xw","title":"الاختزال (32) حذف الفعل (6)- شرح البرهان في علوم القرآن","publishedAt":"2021-08-19T05:46:54Z","duration":"PT13M19S","thumbnail":"https://i.ytimg.com/vi/OdZz_gpO_xw/mqdefault.jpg","viewCount":"438","playlistId":"PLEkQk5xrP-tnW3iBL7HkKziOFCFZbTlf0","playlistName":"شرح البرهان في علوم القرآن - أ.د. يسري جبر","category":"تفسير"},{"id":"mfjob1pny-4","title":"الاختزال (33) حذف الحرف - شرح البرهان في علوم القرآن","publishedAt":"2021-08-21T06:21:05Z","duration":"PT22M37S","thumbnail":"https://i.ytimg.com/vi/mfjob1pny-4/mqdefault.jpg","viewCount":"404","playlistId":"PLEkQk5xrP-tnW3iBL7HkKziOFCFZbTlf0","playlistName":"شرح البرهان في علوم القرآن - أ.د. يسري جبر","category":"تفسير"},{"id":"2d00-DdFUs4","title":"الاختزال (34) حذف الحرف (2) حرف الواو - شرح البرهان في علوم القرآن","publishedAt":"2021-08-24T05:28:39Z","duration":"PT15M9S","thumbnail":"https://i.ytimg.com/vi/2d00-DdFUs4/mqdefault.jpg","viewCount":"315","playlistId":"PLEkQk5xrP-tnW3iBL7HkKziOFCFZbTlf0","playlistName":"شرح البرهان في علوم القرآن - أ.د. يسري جبر","category":"تفسير"},{"id":"-Nh64ZyN9_g","title":"الاختزال (35) حذف الحرف (3) حرف الفاء - شرح البرهان في علوم القرآن","publishedAt":"2021-08-26T06:01:48Z","duration":"PT19M1S","thumbnail":"https://i.ytimg.com/vi/-Nh64ZyN9_g/mqdefault.jpg","viewCount":"438","playlistId":"PLEkQk5xrP-tnW3iBL7HkKziOFCFZbTlf0","playlistName":"شرح البرهان في علوم القرآن - أ.د. يسري جبر","category":"تفسير"},{"id":"R0fx5tHgDM0","title":"الاختزال (36) حذف الحرف (4) حذف ( لو ) - شرح البرهان في علوم القرآن","publishedAt":"2021-08-28T06:21:25Z","duration":"PT15M22S","thumbnail":"https://i.ytimg.com/vi/R0fx5tHgDM0/mqdefault.jpg","viewCount":"382","playlistId":"PLEkQk5xrP-tnW3iBL7HkKziOFCFZbTlf0","playlistName":"شرح البرهان في علوم القرآن - أ.د. يسري جبر","category":"تفسير"},{"id":"kNRc4VBNiwA","title":"الاختزال (37) حذف الحرف (5) فائدة في حذف الجارّ - شرح البرهان في علوم القرآن","publishedAt":"2021-08-31T05:40:50Z","duration":"PT37M12S","thumbnail":"https://i.ytimg.com/vi/kNRc4VBNiwA/mqdefault.jpg","viewCount":"479","playlistId":"PLEkQk5xrP-tnW3iBL7HkKziOFCFZbTlf0","playlistName":"شرح البرهان في علوم القرآن - أ.د. يسري جبر","category":"تفسير"},{"id":"2DNHRcxuarg","title":"الاختزال (38) حذف الحرف (6) - شرح البرهان في علوم القرآن","publishedAt":"2021-09-02T06:12:47Z","duration":"PT16M30S","thumbnail":"https://i.ytimg.com/vi/2DNHRcxuarg/mqdefault.jpg","viewCount":"367","playlistId":"PLEkQk5xrP-tnW3iBL7HkKziOFCFZbTlf0","playlistName":"شرح البرهان في علوم القرآن - أ.د. يسري جبر","category":"تفسير"},{"id":"8kIpdWzZKxU","title":"الاختزال (39) الإيجاز - شرح البرهان في علوم القرآن","publishedAt":"2021-09-04T05:48:30Z","duration":"PT25M13S","thumbnail":"https://i.ytimg.com/vi/8kIpdWzZKxU/mqdefault.jpg","viewCount":"502","playlistId":"PLEkQk5xrP-tnW3iBL7HkKziOFCFZbTlf0","playlistName":"شرح البرهان في علوم القرآن - أ.د. يسري جبر","category":"تفسير"}],"total":1097,"page":22,"pageSize":24,"totalPages":46}