{"items":[{"id":"SZy3jhELfQQ","title":"الأسلوب الرابع: القلب - البرهان في علوم القرآن","publishedAt":"2021-10-24T06:19:38Z","duration":"PT32M8S","thumbnail":"https://i.ytimg.com/vi/SZy3jhELfQQ/mqdefault.jpg","viewCount":"730","playlistId":"PLEkQk5xrP-tnW3iBL7HkKziOFCFZbTlf0","playlistName":"شرح البرهان في علوم القرآن - أ.د. يسري جبر","category":"تفسير"},{"id":"otp-gCH9W6Y","title":"النوع الثاني: قلب المعطوف - البرهان في علوم القرآن","publishedAt":"2021-10-26T03:44:55Z","duration":"PT7M28S","thumbnail":"https://i.ytimg.com/vi/otp-gCH9W6Y/mqdefault.jpg","viewCount":"481","playlistId":"PLEkQk5xrP-tnW3iBL7HkKziOFCFZbTlf0","playlistName":"شرح البرهان في علوم القرآن - أ.د. يسري جبر","category":"تفسير"},{"id":"icPjRY-frAM","title":"الأسلوب الخامس: المُدْرَج - البرهان في علوم القرآن","publishedAt":"2021-10-26T19:03:27Z","duration":"PT27M27S","thumbnail":"https://i.ytimg.com/vi/icPjRY-frAM/mqdefault.jpg","viewCount":"518","playlistId":"PLEkQk5xrP-tnW3iBL7HkKziOFCFZbTlf0","playlistName":"شرح البرهان في علوم القرآن - أ.د. يسري جبر","category":"تفسير"},{"id":"gvA1FpHDsZA","title":"الأسلوب السابع: الاختصاص - شرح البرهان في علوم القرآن","publishedAt":"2021-10-28T04:15:03Z","duration":"PT8M20S","thumbnail":"https://i.ytimg.com/vi/gvA1FpHDsZA/mqdefault.jpg","viewCount":"468","playlistId":"PLEkQk5xrP-tnW3iBL7HkKziOFCFZbTlf0","playlistName":"شرح البرهان في علوم القرآن - أ.د. يسري جبر","category":"تفسير"},{"id":"VtSvDVudqRA","title":"الأسلوب العاشر: الترديد - شرح البرهان في علوم القرآن","publishedAt":"2021-10-30T09:34:26Z","duration":"PT21M8S","thumbnail":"https://i.ytimg.com/vi/VtSvDVudqRA/mqdefault.jpg","viewCount":"432","playlistId":"PLEkQk5xrP-tnW3iBL7HkKziOFCFZbTlf0","playlistName":"شرح البرهان في علوم القرآن - أ.د. يسري جبر","category":"تفسير"},{"id":"_Cyb1Uu927A","title":"تغليب العاقل على غيره - شرح البرهان في علوم القرآن","publishedAt":"2021-10-31T10:26:24Z","duration":"PT25M3S","thumbnail":"https://i.ytimg.com/vi/_Cyb1Uu927A/mqdefault.jpg","viewCount":"576","playlistId":"PLEkQk5xrP-tnW3iBL7HkKziOFCFZbTlf0","playlistName":"شرح البرهان في علوم القرآن - أ.د. يسري جبر","category":"تفسير"},{"id":"RSJxbj1IYM4","title":"تغليب الموصوف على غير الموصوف - شرح البرهان في علوم القرآن","publishedAt":"2021-11-02T02:44:17Z","duration":"PT25M25S","thumbnail":"https://i.ytimg.com/vi/RSJxbj1IYM4/mqdefault.jpg","viewCount":"425","playlistId":"PLEkQk5xrP-tnW3iBL7HkKziOFCFZbTlf0","playlistName":"شرح البرهان في علوم القرآن - أ.د. يسري جبر","category":"تفسير"},{"id":"7mjUOsrsnXU","title":"تغليب الإسلام - شرح البرهان في علوم القرآن","publishedAt":"2021-11-06T20:58:53Z","duration":"PT30M30S","thumbnail":"https://i.ytimg.com/vi/7mjUOsrsnXU/mqdefault.jpg","viewCount":"655","playlistId":"PLEkQk5xrP-tnW3iBL7HkKziOFCFZbTlf0","playlistName":"شرح البرهان في علوم القرآن - أ.د. يسري جبر","category":"تفسير"},{"id":"iQasc6ivZXI","title":"الالتفات - شرح البرهان في علوم القرآن","publishedAt":"2021-11-08T05:14:55Z","duration":"PT13M53S","thumbnail":"https://i.ytimg.com/vi/iQasc6ivZXI/mqdefault.jpg","viewCount":"760","playlistId":"PLEkQk5xrP-tnW3iBL7HkKziOFCFZbTlf0","playlistName":"شرح البرهان في علوم القرآن - أ.د. يسري جبر","category":"تفسير"},{"id":"cohaYuCi0nM","title":"الالتفات: القسم الثاني: من التكلُّم إلى الغَيْبة - شرح البرهان في علوم القرآن","publishedAt":"2021-11-18T06:31:12Z","duration":"PT22M58S","thumbnail":"https://i.ytimg.com/vi/cohaYuCi0nM/mqdefault.jpg","viewCount":"1421","playlistId":"PLEkQk5xrP-tnW3iBL7HkKziOFCFZbTlf0","playlistName":"شرح البرهان في علوم القرآن - أ.د. يسري جبر","category":"تفسير"},{"id":"Hwngwz4SFVg","title":"الالتفات: القسم الخامس: من الغَيْبة إلى التكلُّم - شرح البرهان في علوم القرآن","publishedAt":"2021-11-23T06:34:51Z","duration":"PT15M37S","thumbnail":"https://i.ytimg.com/vi/Hwngwz4SFVg/mqdefault.jpg","viewCount":"716","playlistId":"PLEkQk5xrP-tnW3iBL7HkKziOFCFZbTlf0","playlistName":"شرح البرهان في علوم القرآن - أ.د. يسري جبر","category":"تفسير"},{"id":"Sg5SVunuRGI","title":"الالتفات: القسم السادس: من الغَيْبة إلى الخِطاب - شرح البرهان في علوم القرآن","publishedAt":"2021-11-25T06:52:33Z","duration":"PT9M38S","thumbnail":"https://i.ytimg.com/vi/Sg5SVunuRGI/mqdefault.jpg","viewCount":"545","playlistId":"PLEkQk5xrP-tnW3iBL7HkKziOFCFZbTlf0","playlistName":"شرح البرهان في علوم القرآن - أ.د. يسري جبر","category":"تفسير"},{"id":"Fe2k2MF8ktQ","title":"الالتفات: البحث الثالث: أسباب الالتفات - شرح البرهان في علوم القرآن","publishedAt":"2021-11-27T08:04:32Z","duration":"PT28M10S","thumbnail":"https://i.ytimg.com/vi/Fe2k2MF8ktQ/mqdefault.jpg","viewCount":"768","playlistId":"PLEkQk5xrP-tnW3iBL7HkKziOFCFZbTlf0","playlistName":"شرح البرهان في علوم القرآن - أ.د. يسري جبر","category":"تفسير"},{"id":"7S4-4RtsFIk","title":"أسباب الالتفات: السبب الثالث - شرح البرهان في علوم القرآن","publishedAt":"2021-11-29T06:55:14Z","duration":"PT12M23S","thumbnail":"https://i.ytimg.com/vi/7S4-4RtsFIk/mqdefault.jpg","viewCount":"578","playlistId":"PLEkQk5xrP-tnW3iBL7HkKziOFCFZbTlf0","playlistName":"شرح البرهان في علوم القرآن - أ.د. يسري جبر","category":"تفسير"},{"id":"8nsVHJJbQGg","title":"البحث الرابع: شرط الالتفات - شرح البرهان في علوم القرآن","publishedAt":"2021-12-01T06:45:33Z","duration":"PT15M15S","thumbnail":"https://i.ytimg.com/vi/8nsVHJJbQGg/mqdefault.jpg","viewCount":"617","playlistId":"PLEkQk5xrP-tnW3iBL7HkKziOFCFZbTlf0","playlistName":"شرح البرهان في علوم القرآن - أ.د. يسري جبر","category":"تفسير"},{"id":"itPmGHa8GU0","title":"الالتفات: البحث الخامس: نقل الكلام إلى غيره - شرح البرهان في علوم القرآن","publishedAt":"2021-12-03T07:00:36Z","duration":"PT32M14S","thumbnail":"https://i.ytimg.com/vi/itPmGHa8GU0/mqdefault.jpg","viewCount":"702","playlistId":"PLEkQk5xrP-tnW3iBL7HkKziOFCFZbTlf0","playlistName":"شرح البرهان في علوم القرآن - أ.د. يسري جبر","category":"تفسير"},{"id":"D00bifiICAY","title":"الأسلوب الثالث عشر: التضمين - شرح البرهان في علوم القرآن","publishedAt":"2021-12-04T06:46:11Z","duration":"PT45M41S","thumbnail":"https://i.ytimg.com/vi/D00bifiICAY/mqdefault.jpg","viewCount":"588","playlistId":"PLEkQk5xrP-tnW3iBL7HkKziOFCFZbTlf0","playlistName":"شرح البرهان في علوم القرآن - أ.د. يسري جبر","category":"تفسير"},{"id":"TXswahghWeQ","title":"التضمين: تنبيهات - شرح البرهان في علوم القرآن","publishedAt":"2021-12-06T06:34:51Z","duration":"PT35M16S","thumbnail":"https://i.ytimg.com/vi/TXswahghWeQ/mqdefault.jpg","viewCount":"680","playlistId":"PLEkQk5xrP-tnW3iBL7HkKziOFCFZbTlf0","playlistName":"شرح البرهان في علوم القرآن - أ.د. يسري جبر","category":"تفسير"},{"id":"tAKb31kL62g","title":"وضعُ الخبر موضع الطلب في الأمر والنهي - شرح البرهان في علوم القرآن","publishedAt":"2021-12-07T06:32:18Z","duration":"PT30M9S","thumbnail":"https://i.ytimg.com/vi/tAKb31kL62g/mqdefault.jpg","viewCount":"846","playlistId":"PLEkQk5xrP-tnW3iBL7HkKziOFCFZbTlf0","playlistName":"شرح البرهان في علوم القرآن - أ.د. يسري جبر","category":"تفسير"},{"id":"ga_FuqR4s-c","title":"وضعُ الطلب موضع الخبر  - شرح البرهان في علوم القرآن","publishedAt":"2021-12-09T06:02:30Z","duration":"PT28M6S","thumbnail":"https://i.ytimg.com/vi/ga_FuqR4s-c/mqdefault.jpg","viewCount":"681","playlistId":"PLEkQk5xrP-tnW3iBL7HkKziOFCFZbTlf0","playlistName":"شرح البرهان في علوم القرآن - أ.د. يسري جبر","category":"تفسير"},{"id":"oUQ1_Ti8NDY","title":"وضع النداء موضع التعجّب - شرح البرهان في علوم القرآن","publishedAt":"2021-12-09T21:19:19Z","duration":"PT8M34S","thumbnail":"https://i.ytimg.com/vi/oUQ1_Ti8NDY/mqdefault.jpg","viewCount":"613","playlistId":"PLEkQk5xrP-tnW3iBL7HkKziOFCFZbTlf0","playlistName":"شرح البرهان في علوم القرآن - أ.د. يسري جبر","category":"تفسير"},{"id":"dE7p0KCLW7o","title":"وضعُ جَمْع القِلَّة موضع الكَثرة - شرح البرهان في علوم القرآن","publishedAt":"2021-12-11T07:10:36Z","duration":"PT24M49S","thumbnail":"https://i.ytimg.com/vi/dE7p0KCLW7o/mqdefault.jpg","viewCount":"653","playlistId":"PLEkQk5xrP-tnW3iBL7HkKziOFCFZbTlf0","playlistName":"شرح البرهان في علوم القرآن - أ.د. يسري جبر","category":"تفسير"},{"id":"19I21S_mob8","title":"تذكير المؤنث - شرح البرهان في علوم القرآن","publishedAt":"2021-12-13T07:16:57Z","duration":"PT19M6S","thumbnail":"https://i.ytimg.com/vi/19I21S_mob8/mqdefault.jpg","viewCount":"1028","playlistId":"PLEkQk5xrP-tnW3iBL7HkKziOFCFZbTlf0","playlistName":"شرح البرهان في علوم القرآن - أ.د. يسري جبر","category":"تفسير"},{"id":"h3TvPnlTLm0","title":"\"السَّمَآءُ مُنفَطِرٌۢ بِهِ\" تكملة تذكير المؤنث - شرح البرهان في علوم القرآن","publishedAt":"2021-12-16T07:46:39Z","duration":"PT13M10S","thumbnail":"https://i.ytimg.com/vi/h3TvPnlTLm0/mqdefault.jpg","viewCount":"754","playlistId":"PLEkQk5xrP-tnW3iBL7HkKziOFCFZbTlf0","playlistName":"شرح البرهان في علوم القرآن - أ.د. يسري جبر","category":"تفسير"}],"total":1097,"page":24,"pageSize":24,"totalPages":46}