{"items":[{"id":"VSdKdAwUgDw","title":"شرح البرهان في علوم القرآن - النوع ٢٧ - معرفة خواصه","publishedAt":"2020-01-28T12:03:47Z","duration":"PT26M6S","thumbnail":"https://i.ytimg.com/vi/VSdKdAwUgDw/mqdefault.jpg","viewCount":"397","playlistId":"PLEkQk5xrP-tnW3iBL7HkKziOFCFZbTlf0","playlistName":"شرح البرهان في علوم القرآن - أ.د. يسري جبر","category":"تفسير"},{"id":"8U618HXooP0","title":"شرح البرهان في علوم القرآن - النوع ٢٨ - هل في القرآن شيء أفضل من شيء؟","publishedAt":"2020-01-29T11:57:36Z","duration":"PT24M15S","thumbnail":"https://i.ytimg.com/vi/8U618HXooP0/mqdefault.jpg","viewCount":"537","playlistId":"PLEkQk5xrP-tnW3iBL7HkKziOFCFZbTlf0","playlistName":"شرح البرهان في علوم القرآن - أ.د. يسري جبر","category":"تفسير"},{"id":"hF42aEQTQx4","title":"شرح البرهان في علوم القرآن - النوع ٢٨ - فصل في أعظمية آية الكرسي","publishedAt":"2020-01-30T12:15:32Z","duration":"PT15M3S","thumbnail":"https://i.ytimg.com/vi/hF42aEQTQx4/mqdefault.jpg","viewCount":"862","playlistId":"PLEkQk5xrP-tnW3iBL7HkKziOFCFZbTlf0","playlistName":"شرح البرهان في علوم القرآن - أ.د. يسري جبر","category":"تفسير"},{"id":"WCO_GeDkeWg","title":"شرح البرهان في علوم القرآن - النوع ٢٨ - فصل في أعظمية آية الكرسي ٢","publishedAt":"2020-02-01T07:00:02Z","duration":"PT13M34S","thumbnail":"https://i.ytimg.com/vi/WCO_GeDkeWg/mqdefault.jpg","viewCount":"505","playlistId":"PLEkQk5xrP-tnW3iBL7HkKziOFCFZbTlf0","playlistName":"شرح البرهان في علوم القرآن - أ.د. يسري جبر","category":"تفسير"},{"id":"TmE2iwchEkc","title":"شرح البرهان في علوم القرآن - النوع ٢٨ - فصل في أي آية في القرآن أرجى","publishedAt":"2020-02-02T06:00:04Z","duration":"PT16M52S","thumbnail":"https://i.ytimg.com/vi/TmE2iwchEkc/mqdefault.jpg","viewCount":"417","playlistId":"PLEkQk5xrP-tnW3iBL7HkKziOFCFZbTlf0","playlistName":"شرح البرهان في علوم القرآن - أ.د. يسري جبر","category":"تفسير"},{"id":"MqLvEKT1fMY","title":"شرح البرهان في علوم القرآن - النوع ٢٩ - في آداب تلاوته وكيفيتها","publishedAt":"2020-02-03T06:00:08Z","duration":"PT23M41S","thumbnail":"https://i.ytimg.com/vi/MqLvEKT1fMY/mqdefault.jpg","viewCount":"525","playlistId":"PLEkQk5xrP-tnW3iBL7HkKziOFCFZbTlf0","playlistName":"شرح البرهان في علوم القرآن - أ.د. يسري جبر","category":"تفسير"},{"id":"qHMVtRnKG5g","title":"شرح البرهان في علوم القرآن - النوع ٢٩ - في آداب تلاوته وكيفيتها ٢","publishedAt":"2020-02-04T19:44:25Z","duration":"PT15M22S","thumbnail":"https://i.ytimg.com/vi/qHMVtRnKG5g/mqdefault.jpg","viewCount":"321","playlistId":"PLEkQk5xrP-tnW3iBL7HkKziOFCFZbTlf0","playlistName":"شرح البرهان في علوم القرآن - أ.د. يسري جبر","category":"تفسير"},{"id":"DVRaOd3GXgA","title":"شرح البرهان في علوم القرآن - النوع ٢٩ - فصل في كراهة قراءة القرآن بلا تدبر","publishedAt":"2020-02-05T06:00:04Z","duration":"PT26M55S","thumbnail":"https://i.ytimg.com/vi/DVRaOd3GXgA/mqdefault.jpg","viewCount":"403","playlistId":"PLEkQk5xrP-tnW3iBL7HkKziOFCFZbTlf0","playlistName":"شرح البرهان في علوم القرآن - أ.د. يسري جبر","category":"تفسير"},{"id":"9-sAcuH8QDU","title":"شرح البرهان في علوم القرآن - النوع ٢٩ - مسألة في جواز أخذ الأجر على تعليم القرآن","publishedAt":"2020-02-06T06:00:00Z","duration":"PT30M52S","thumbnail":"https://i.ytimg.com/vi/9-sAcuH8QDU/mqdefault.jpg","viewCount":"347","playlistId":"PLEkQk5xrP-tnW3iBL7HkKziOFCFZbTlf0","playlistName":"شرح البرهان في علوم القرآن - أ.د. يسري جبر","category":"تفسير"},{"id":"p_-2dD2Axz8","title":"شرح البرهان في علوم القرآن - النوع ٢٩ - مسألة في التعوذ وقراءة البسملة عند التلاوة","publishedAt":"2020-02-06T16:57:43Z","duration":"PT27M28S","thumbnail":"https://i.ytimg.com/vi/p_-2dD2Axz8/mqdefault.jpg","viewCount":"360","playlistId":"PLEkQk5xrP-tnW3iBL7HkKziOFCFZbTlf0","playlistName":"شرح البرهان في علوم القرآن - أ.د. يسري جبر","category":"تفسير"},{"id":"Hu9HFH-rtPU","title":"شرح البرهان في علوم القرآن - النوع ٢٩ - مسألة في استحباب الجهر بالقراءة","publishedAt":"2020-02-07T06:00:02Z","duration":"PT22M49S","thumbnail":"https://i.ytimg.com/vi/Hu9HFH-rtPU/mqdefault.jpg","viewCount":"314","playlistId":"PLEkQk5xrP-tnW3iBL7HkKziOFCFZbTlf0","playlistName":"شرح البرهان في علوم القرآن - أ.د. يسري جبر","category":"تفسير"},{"id":"jI-P7miNKNc","title":"شرح البرهان في علوم القرآن - النوع ٢٩ - مسألة في عدم القراءة بالشواذ","publishedAt":"2020-02-08T06:38:15Z","duration":"PT20M45S","thumbnail":"https://i.ytimg.com/vi/jI-P7miNKNc/mqdefault.jpg","viewCount":"338","playlistId":"PLEkQk5xrP-tnW3iBL7HkKziOFCFZbTlf0","playlistName":"شرح البرهان في علوم القرآن - أ.د. يسري جبر","category":"تفسير"},{"id":"RT4qi9x6j-k","title":"شرح البرهان في علوم القرآن - النوع ٢٩ - مسألة في ترك خلط سورة بسورة","publishedAt":"2020-02-09T06:00:04Z","duration":"PT21M54S","thumbnail":"https://i.ytimg.com/vi/RT4qi9x6j-k/mqdefault.jpg","viewCount":"325","playlistId":"PLEkQk5xrP-tnW3iBL7HkKziOFCFZbTlf0","playlistName":"شرح البرهان في علوم القرآن - أ.د. يسري جبر","category":"تفسير"},{"id":"k8-FJVaoYWQ","title":"شرح البرهان في علوم القرآن - النوع ٢٩ - فصل في ختم القرأن","publishedAt":"2020-02-10T06:00:06Z","duration":"PT17M46S","thumbnail":"https://i.ytimg.com/vi/k8-FJVaoYWQ/mqdefault.jpg","viewCount":"311","playlistId":"PLEkQk5xrP-tnW3iBL7HkKziOFCFZbTlf0","playlistName":"شرح البرهان في علوم القرآن - أ.د. يسري جبر","category":"تفسير"},{"id":"4DTE3cgL8YQ","title":"شرح البرهان في علوم القرآن - النوع ٢٩ - مسألة في التكبير بين السور ابتداء من سورة الضحى","publishedAt":"2020-02-11T06:00:01Z","duration":"PT19M13S","thumbnail":"https://i.ytimg.com/vi/4DTE3cgL8YQ/mqdefault.jpg","viewCount":"802","playlistId":"PLEkQk5xrP-tnW3iBL7HkKziOFCFZbTlf0","playlistName":"شرح البرهان في علوم القرآن - أ.د. يسري جبر","category":"تفسير"},{"id":"_QF2cMnYOjM","title":"شرح البرهان في علوم القرآن - النوع ٢٩ - مسألة في حكم من يشرب شيئا كتب من القرآن","publishedAt":"2020-02-12T06:00:06Z","duration":"PT25M5S","thumbnail":"https://i.ytimg.com/vi/_QF2cMnYOjM/mqdefault.jpg","viewCount":"681","playlistId":"PLEkQk5xrP-tnW3iBL7HkKziOFCFZbTlf0","playlistName":"شرح البرهان في علوم القرآن - أ.د. يسري جبر","category":"تفسير"},{"id":"YcO4842ejw0","title":"شرح البرهان في علوم القرآن - النوع ٢٩ - مسألة في أحكام تتعلق باحترام المصحف وتبجيله","publishedAt":"2020-02-13T06:00:06Z","duration":"PT27M10S","thumbnail":"https://i.ytimg.com/vi/YcO4842ejw0/mqdefault.jpg","viewCount":"406","playlistId":"PLEkQk5xrP-tnW3iBL7HkKziOFCFZbTlf0","playlistName":"شرح البرهان في علوم القرآن - أ.د. يسري جبر","category":"تفسير"},{"id":"2o1ufN21RNY","title":"شرح البرهان في علوم القرآن - النوع ٣٠ - في أنه هل يجوز في التصانيف والرسائل والخطب استعمال...","publishedAt":"2020-02-14T06:00:00Z","duration":"PT23M58S","thumbnail":"https://i.ytimg.com/vi/2o1ufN21RNY/mqdefault.jpg","viewCount":"283","playlistId":"PLEkQk5xrP-tnW3iBL7HkKziOFCFZbTlf0","playlistName":"شرح البرهان في علوم القرآن - أ.د. يسري جبر","category":"تفسير"},{"id":"bxY_3XaRCyk","title":"شرح البرهان في علوم القرآن - النوع ٣١ - معرفة الأمثال الكائنة فيه","publishedAt":"2020-02-15T06:00:06Z","duration":"PT29M48S","thumbnail":"https://i.ytimg.com/vi/bxY_3XaRCyk/mqdefault.jpg","viewCount":"414","playlistId":"PLEkQk5xrP-tnW3iBL7HkKziOFCFZbTlf0","playlistName":"شرح البرهان في علوم القرآن - أ.د. يسري جبر","category":"تفسير"},{"id":"XGtCgytDwIM","title":"شرح البرهان في علوم القرآن - النوع ٣١ - معرفة الأمثال الكائنة فيه ٢","publishedAt":"2020-02-16T06:00:03Z","duration":"PT21M8S","thumbnail":"https://i.ytimg.com/vi/XGtCgytDwIM/mqdefault.jpg","viewCount":"381","playlistId":"PLEkQk5xrP-tnW3iBL7HkKziOFCFZbTlf0","playlistName":"شرح البرهان في علوم القرآن - أ.د. يسري جبر","category":"تفسير"},{"id":"Y_gKA57MQHg","title":"شرح البرهان في علوم القرآن - النوع ٣٢ - معرفة أحكامه","publishedAt":"2020-02-17T06:00:06Z","duration":"PT32M56S","thumbnail":"https://i.ytimg.com/vi/Y_gKA57MQHg/mqdefault.jpg","viewCount":"397","playlistId":"PLEkQk5xrP-tnW3iBL7HkKziOFCFZbTlf0","playlistName":"شرح البرهان في علوم القرآن - أ.د. يسري جبر","category":"تفسير"},{"id":"kCI3vajfcUA","title":"شرح البرهان في علوم القرآن - النوع ٣٢ - فائدة في ضرورة معرفة المفسر قواعد أصول الفقه","publishedAt":"2020-02-18T06:00:04Z","duration":"PT31M59S","thumbnail":"https://i.ytimg.com/vi/kCI3vajfcUA/mqdefault.jpg","viewCount":"383","playlistId":"PLEkQk5xrP-tnW3iBL7HkKziOFCFZbTlf0","playlistName":"شرح البرهان في علوم القرآن - أ.د. يسري جبر","category":"تفسير"},{"id":"Vh0liiEid5w","title":"شرح البرهان في علوم القرآن - النوع ٣٢ - فصل","publishedAt":"2020-02-19T06:00:07Z","duration":"PT32M20S","thumbnail":"https://i.ytimg.com/vi/Vh0liiEid5w/mqdefault.jpg","viewCount":"313","playlistId":"PLEkQk5xrP-tnW3iBL7HkKziOFCFZbTlf0","playlistName":"شرح البرهان في علوم القرآن - أ.د. يسري جبر","category":"تفسير"},{"id":"mnUM_yvqkZY","title":"شرح البرهان في علوم القرآن - النوع ٣٢ - فائدة","publishedAt":"2020-02-20T06:00:06Z","duration":"PT22M46S","thumbnail":"https://i.ytimg.com/vi/mnUM_yvqkZY/mqdefault.jpg","viewCount":"380","playlistId":"PLEkQk5xrP-tnW3iBL7HkKziOFCFZbTlf0","playlistName":"شرح البرهان في علوم القرآن - أ.د. يسري جبر","category":"تفسير"}],"total":1096,"page":12,"pageSize":24,"totalPages":46}