{"items":[{"id":"zMP5BeFhhO0","title":"شرح البرهان في علوم القرآن - النوع ١٥ - معرفة أسمائه واشتقاتها","publishedAt":"2019-12-12T14:19:03Z","duration":"PT11M48S","thumbnail":"https://i.ytimg.com/vi/zMP5BeFhhO0/mqdefault.jpg","viewCount":"437","playlistId":"PLEkQk5xrP-tnW3iBL7HkKziOFCFZbTlf0","playlistName":"شرح البرهان في علوم القرآن - أ.د. يسري جبر","category":"تفسير"},{"id":"BbrO6iWDPNE","title":"شرح البرهان في علوم القرآن - النوع ١٥ - تفسير هذه الأسامي","publishedAt":"2019-12-13T15:25:48Z","duration":"PT22M5S","thumbnail":"https://i.ytimg.com/vi/BbrO6iWDPNE/mqdefault.jpg","viewCount":"549","playlistId":"PLEkQk5xrP-tnW3iBL7HkKziOFCFZbTlf0","playlistName":"شرح البرهان في علوم القرآن - أ.د. يسري جبر","category":"تفسير"},{"id":"DKu4ERI9jIE","title":"شرح البرهان في علوم القرآن - النوع ١٦ - معرفة ما وقع فيه من غير لغة أهل الحجاز","publishedAt":"2019-12-14T09:06:28Z","duration":"PT18M41S","thumbnail":"https://i.ytimg.com/vi/DKu4ERI9jIE/mqdefault.jpg","viewCount":"484","playlistId":"PLEkQk5xrP-tnW3iBL7HkKziOFCFZbTlf0","playlistName":"شرح البرهان في علوم القرآن - أ.د. يسري جبر","category":"تفسير"},{"id":"z0_BY0JhUXs","title":"شرح البرهان في علوم القرآن - النوع ١٧ - معرفة ما فيه من غير لغة العرب","publishedAt":"2019-12-14T18:54:03Z","duration":"PT22M36S","thumbnail":"https://i.ytimg.com/vi/z0_BY0JhUXs/mqdefault.jpg","viewCount":"599","playlistId":"PLEkQk5xrP-tnW3iBL7HkKziOFCFZbTlf0","playlistName":"شرح البرهان في علوم القرآن - أ.د. يسري جبر","category":"تفسير"},{"id":"_7zDn6D_HTw","title":"شرح البرهان في علوم القرآن - النوع ١٨ - معرفة غريبه","publishedAt":"2019-12-15T08:41:56Z","duration":"PT35M47S","thumbnail":"https://i.ytimg.com/vi/_7zDn6D_HTw/mqdefault.jpg","viewCount":"770","playlistId":"PLEkQk5xrP-tnW3iBL7HkKziOFCFZbTlf0","playlistName":"شرح البرهان في علوم القرآن - أ.د. يسري جبر","category":"تفسير"},{"id":"cSIUpWDTRFw","title":"شرح البرهان في علوم القرآن - النوع ٢٠ - معرفة الأحكام من جهة أفرادها وتركيبها ٤","publishedAt":"2019-12-15T17:44:35Z","duration":"PT24M46S","thumbnail":"https://i.ytimg.com/vi/cSIUpWDTRFw/mqdefault.jpg","viewCount":"443","playlistId":"PLEkQk5xrP-tnW3iBL7HkKziOFCFZbTlf0","playlistName":"شرح البرهان في علوم القرآن - أ.د. يسري جبر","category":"تفسير"},{"id":"56YLLwVww1s","title":"شرح البرهان في علوم القرآن - النوع ٢٠ - معرفة الأحكام من جهة أفرادها وتركيبها ٣","publishedAt":"2019-12-15T19:25:48Z","duration":"PT17M56S","thumbnail":"https://i.ytimg.com/vi/56YLLwVww1s/mqdefault.jpg","viewCount":"515","playlistId":"PLEkQk5xrP-tnW3iBL7HkKziOFCFZbTlf0","playlistName":"شرح البرهان في علوم القرآن - أ.د. يسري جبر","category":"تفسير"},{"id":"QK_3DxDUgok","title":"شرح البرهان في علوم القرآن - النوع ٢١ - معرفة كون اللفظ والتركيب أحسن وأفصح","publishedAt":"2019-12-17T08:48:48Z","duration":"PT28M51S","thumbnail":"https://i.ytimg.com/vi/QK_3DxDUgok/mqdefault.jpg","viewCount":"599","playlistId":"PLEkQk5xrP-tnW3iBL7HkKziOFCFZbTlf0","playlistName":"شرح البرهان في علوم القرآن - أ.د. يسري جبر","category":"تفسير"},{"id":"5hoZp86N-0g","title":"شرح البرهان في علوم القرآن - النوع ٢١ - معرفة كون اللفظ والتركيب أحسن وأفصح ٢","publishedAt":"2019-12-17T19:02:36Z","duration":"PT17M28S","thumbnail":"https://i.ytimg.com/vi/5hoZp86N-0g/mqdefault.jpg","viewCount":"433","playlistId":"PLEkQk5xrP-tnW3iBL7HkKziOFCFZbTlf0","playlistName":"شرح البرهان في علوم القرآن - أ.د. يسري جبر","category":"تفسير"},{"id":"Y7OAseB02BM","title":"شرح البرهان في علوم القرآن - النوع ٢١ - معرفة كون اللفظ والتركيب أحسن وأفصح ٣","publishedAt":"2019-12-18T18:57:44Z","duration":"PT23M30S","thumbnail":"https://i.ytimg.com/vi/Y7OAseB02BM/mqdefault.jpg","viewCount":"445","playlistId":"PLEkQk5xrP-tnW3iBL7HkKziOFCFZbTlf0","playlistName":"شرح البرهان في علوم القرآن - أ.د. يسري جبر","category":"تفسير"},{"id":"sIooT4zDpTU","title":"شرح البرهان في علوم القرآن - النوع ٢٢ - معرفة اختلاف الألفاظ بزيادة أو نقص أو تغيير ٥","publishedAt":"2019-12-19T04:30:28Z","duration":"PT26M30S","thumbnail":"https://i.ytimg.com/vi/sIooT4zDpTU/mqdefault.jpg","viewCount":"241","playlistId":"PLEkQk5xrP-tnW3iBL7HkKziOFCFZbTlf0","playlistName":"شرح البرهان في علوم القرآن - أ.د. يسري جبر","category":"تفسير"},{"id":"jth7Sv2z-Ek","title":"شرح البرهان في علوم القرآن - النوع ٢٢ - معرفة اختلاف الألفاظ بزيادة أو نقص أو تغيير","publishedAt":"2019-12-19T17:18:30Z","duration":"PT32M28S","thumbnail":"https://i.ytimg.com/vi/jth7Sv2z-Ek/mqdefault.jpg","viewCount":"435","playlistId":"PLEkQk5xrP-tnW3iBL7HkKziOFCFZbTlf0","playlistName":"شرح البرهان في علوم القرآن - أ.د. يسري جبر","category":"تفسير"},{"id":"q1k9zxhuQi0","title":"شرح البرهان في علوم القرآن - النوع ٢٢ - معرفة اختلاف الألفاظ بزيادة أو نقص أو تغيير ٢","publishedAt":"2019-12-20T05:06:30Z","duration":"PT31M39S","thumbnail":"https://i.ytimg.com/vi/q1k9zxhuQi0/mqdefault.jpg","viewCount":"561","playlistId":"PLEkQk5xrP-tnW3iBL7HkKziOFCFZbTlf0","playlistName":"شرح البرهان في علوم القرآن - أ.د. يسري جبر","category":"تفسير"},{"id":"UVBjOS5ZVZo","title":"شرح البرهان في علوم القرآن - النوع ٢٢ - معرفة اختلاف الألفاظ بزيادة أو نقص أو تغيير ٣","publishedAt":"2019-12-23T09:07:20Z","duration":"PT22M4S","thumbnail":"https://i.ytimg.com/vi/UVBjOS5ZVZo/mqdefault.jpg","viewCount":"424","playlistId":"PLEkQk5xrP-tnW3iBL7HkKziOFCFZbTlf0","playlistName":"شرح البرهان في علوم القرآن - أ.د. يسري جبر","category":"تفسير"},{"id":"mkH8-ETIq-8","title":"شرح البرهان في علوم القرآن - النوع ٢٢ - معرفة اختلاف الألفاظ بزيادة أو نقص أو تغيير ٤","publishedAt":"2019-12-24T07:47:48Z","duration":"PT20M15S","thumbnail":"https://i.ytimg.com/vi/mkH8-ETIq-8/mqdefault.jpg","viewCount":"436","playlistId":"PLEkQk5xrP-tnW3iBL7HkKziOFCFZbTlf0","playlistName":"شرح البرهان في علوم القرآن - أ.د. يسري جبر","category":"تفسير"},{"id":"hNJjriptGnY","title":"شرح البرهان في علوم القرآن - النوع ٢٢ - معرفة اختلاف الألفاظ بزيادة أو نقص أو تغيير ٦","publishedAt":"2019-12-28T08:15:19Z","duration":"PT14M14S","thumbnail":"https://i.ytimg.com/vi/hNJjriptGnY/mqdefault.jpg","viewCount":"391","playlistId":"PLEkQk5xrP-tnW3iBL7HkKziOFCFZbTlf0","playlistName":"شرح البرهان في علوم القرآن - أ.د. يسري جبر","category":"تفسير"},{"id":"LRyVpcU-A6o","title":"شرح البرهان في علوم القرآن - النوع ٢٢ - معرفة اختلاف الألفاظ بزيادة أو نقص أو تغيير ٧","publishedAt":"2019-12-29T06:51:53Z","duration":"PT17M45S","thumbnail":"https://i.ytimg.com/vi/LRyVpcU-A6o/mqdefault.jpg","viewCount":"516","playlistId":"PLEkQk5xrP-tnW3iBL7HkKziOFCFZbTlf0","playlistName":"شرح البرهان في علوم القرآن - أ.د. يسري جبر","category":"تفسير"},{"id":"Sv9zjKD-KsI","title":"شرح البرهان في علوم القرآن - النوع ٢٣ - معرفة توجيه القراءات وتبيين وجه ما ذهب إليه كل قارئ","publishedAt":"2020-01-01T09:07:23Z","duration":"PT28M10S","thumbnail":"https://i.ytimg.com/vi/Sv9zjKD-KsI/mqdefault.jpg","viewCount":"416","playlistId":"PLEkQk5xrP-tnW3iBL7HkKziOFCFZbTlf0","playlistName":"شرح البرهان في علوم القرآن - أ.د. يسري جبر","category":"تفسير"},{"id":"1B9aNmUGFXk","title":"شرح البرهان في علوم القرآن - النوع ٢٤ - معرفة الوقف والابتداء","publishedAt":"2020-01-02T09:38:57Z","duration":"PT30M1S","thumbnail":"https://i.ytimg.com/vi/1B9aNmUGFXk/mqdefault.jpg","viewCount":"608","playlistId":"PLEkQk5xrP-tnW3iBL7HkKziOFCFZbTlf0","playlistName":"شرح البرهان في علوم القرآن - أ.د. يسري جبر","category":"تفسير"},{"id":"AN-bbuVhwqE","title":"شرح البرهان في علوم القرآن - النوع ٢٤ - معرفة الوقف والابتداء ٢","publishedAt":"2020-01-03T07:55:50Z","duration":"PT20M56S","thumbnail":"https://i.ytimg.com/vi/AN-bbuVhwqE/mqdefault.jpg","viewCount":"448","playlistId":"PLEkQk5xrP-tnW3iBL7HkKziOFCFZbTlf0","playlistName":"شرح البرهان في علوم القرآن - أ.د. يسري جبر","category":"تفسير"},{"id":"qRSP_1TVZks","title":"شرح البرهان في علوم القرآن - النوع ٢٤ - معرفة الوقف والابتداء ٣","publishedAt":"2020-01-04T08:16:07Z","duration":"PT18M56S","thumbnail":"https://i.ytimg.com/vi/qRSP_1TVZks/mqdefault.jpg","viewCount":"421","playlistId":"PLEkQk5xrP-tnW3iBL7HkKziOFCFZbTlf0","playlistName":"شرح البرهان في علوم القرآن - أ.د. يسري جبر","category":"تفسير"},{"id":"-j1DCef2Cgs","title":"شرح البرهان في علوم القرآن - النوع ٢٤ - معرفة الوقف والابتداء ٤","publishedAt":"2020-01-04T22:16:09Z","duration":"PT23M17S","thumbnail":"https://i.ytimg.com/vi/-j1DCef2Cgs/mqdefault.jpg","viewCount":"415","playlistId":"PLEkQk5xrP-tnW3iBL7HkKziOFCFZbTlf0","playlistName":"شرح البرهان في علوم القرآن - أ.د. يسري جبر","category":"تفسير"},{"id":"4q-bpfhBqIs","title":"شرح البرهان في علوم القرآن - النوع ٢٤ - مسألة","publishedAt":"2020-01-05T08:40:13Z","duration":"PT13M50S","thumbnail":"https://i.ytimg.com/vi/4q-bpfhBqIs/mqdefault.jpg","viewCount":"344","playlistId":"PLEkQk5xrP-tnW3iBL7HkKziOFCFZbTlf0","playlistName":"شرح البرهان في علوم القرآن - أ.د. يسري جبر","category":"تفسير"},{"id":"Byp2xcpc3RA","title":"شرح البرهان في علوم القرآن - النوع ٢٤ - فصل ملخص في تقسيمات الوقف","publishedAt":"2020-01-06T06:37:59Z","duration":"PT20M45S","thumbnail":"https://i.ytimg.com/vi/Byp2xcpc3RA/mqdefault.jpg","viewCount":"426","playlistId":"PLEkQk5xrP-tnW3iBL7HkKziOFCFZbTlf0","playlistName":"شرح البرهان في علوم القرآن - أ.د. يسري جبر","category":"تفسير"}],"total":1097,"page":10,"pageSize":24,"totalPages":46}