{"items":[{"id":"-960iickIkk","title":"551- حروف المعاني(12) حرف (إن) المُخَفَّفَة من الثقيلة - شرح البرهان في علوم القرآن","publishedAt":"2022-08-28T05:45:00Z","duration":"PT32M14S","thumbnail":"https://i.ytimg.com/vi/-960iickIkk/mqdefault.jpg","viewCount":"557","playlistId":"PLEkQk5xrP-tnW3iBL7HkKziOFCFZbTlf0","playlistName":"شرح البرهان في علوم القرآن - أ.د. يسري جبر","category":"تفسير"},{"id":"9AAqLlITJwA","title":"552- حروف المعاني(13): حرف(أن) - شرح البرهان في علوم القرآن","publishedAt":"2022-08-29T20:40:02Z","duration":"PT15M1S","thumbnail":"https://i.ytimg.com/vi/9AAqLlITJwA/mqdefault.jpg","viewCount":"521","playlistId":"PLEkQk5xrP-tnW3iBL7HkKziOFCFZbTlf0","playlistName":"شرح البرهان في علوم القرآن - أ.د. يسري جبر","category":"تفسير"},{"id":"hkPKs8bT_dM","title":"553- حروف المعاني(14):  حرف(أن) قد يأتي بمعنى(أي)","publishedAt":"2022-08-31T05:45:00Z","duration":"PT29M51S","thumbnail":"https://i.ytimg.com/vi/hkPKs8bT_dM/mqdefault.jpg","viewCount":"545","playlistId":"PLEkQk5xrP-tnW3iBL7HkKziOFCFZbTlf0","playlistName":"شرح البرهان في علوم القرآن - أ.د. يسري جبر","category":"تفسير"},{"id":"CehsctTYBZc","title":"554- حروف المعاني(15): حرف(إِنَّ) - شرح البرهان في علوم القرآن","publishedAt":"2022-08-31T18:15:00Z","duration":"PT29M18S","thumbnail":"https://i.ytimg.com/vi/CehsctTYBZc/mqdefault.jpg","viewCount":"715","playlistId":"PLEkQk5xrP-tnW3iBL7HkKziOFCFZbTlf0","playlistName":"شرح البرهان في علوم القرآن - أ.د. يسري جبر","category":"تفسير"},{"id":"W5aUbcbYxsQ","title":"555- حروف المعاني(16): حرف (إلى) - شرح البرهان في علوم القرآن","publishedAt":"2022-09-02T06:00:09Z","duration":"PT37M54S","thumbnail":"https://i.ytimg.com/vi/W5aUbcbYxsQ/mqdefault.jpg","viewCount":"513","playlistId":"PLEkQk5xrP-tnW3iBL7HkKziOFCFZbTlf0","playlistName":"شرح البرهان في علوم القرآن - أ.د. يسري جبر","category":"تفسير"},{"id":"U-zhrfCB-BQ","title":"556- حروف المعاني(17): (أَلا) و (أَلَّا) - شرح البرهان في علوم القرآن","publishedAt":"2022-09-03T20:10:00Z","duration":"PT14M51S","thumbnail":"https://i.ytimg.com/vi/U-zhrfCB-BQ/mqdefault.jpg","viewCount":"460","playlistId":"PLEkQk5xrP-tnW3iBL7HkKziOFCFZbTlf0","playlistName":"شرح البرهان في علوم القرآن - أ.د. يسري جبر","category":"تفسير"},{"id":"hulo0ht1OSY","title":"557- حروف المعاني(18): حرف (إِلَّا) - شرح البرهان في علوم القرآن","publishedAt":"2022-09-05T06:00:10Z","duration":"PT31M53S","thumbnail":"https://i.ytimg.com/vi/hulo0ht1OSY/mqdefault.jpg","viewCount":"722","playlistId":"PLEkQk5xrP-tnW3iBL7HkKziOFCFZbTlf0","playlistName":"شرح البرهان في علوم القرآن - أ.د. يسري جبر","category":"تفسير"},{"id":"YSWQWqxUyH0","title":"558- حرف (إِلَّا) يأتي بمعنى (بدل) - شرح البرهان في علوم القرآن","publishedAt":"2022-09-07T06:15:01Z","duration":"PT15M55S","thumbnail":"https://i.ytimg.com/vi/YSWQWqxUyH0/mqdefault.jpg","viewCount":"592","playlistId":"PLEkQk5xrP-tnW3iBL7HkKziOFCFZbTlf0","playlistName":"شرح البرهان في علوم القرآن - أ.د. يسري جبر","category":"تفسير"},{"id":"35QVDS1Fzm4","title":"559- حروف المعاني(20): الحرف السادس عشر (أَمَّا) - شرح البرهان في علوم القرآن","publishedAt":"2022-09-09T06:30:22Z","duration":"PT25M8S","thumbnail":"https://i.ytimg.com/vi/35QVDS1Fzm4/mqdefault.jpg","viewCount":"524","playlistId":"PLEkQk5xrP-tnW3iBL7HkKziOFCFZbTlf0","playlistName":"شرح البرهان في علوم القرآن - أ.د. يسري جبر","category":"تفسير"},{"id":"ybKFY_B6ISk","title":"560- حروف المعاني(21): الحرف السابع عشر (إِمَّا) - شرح البرهان في علوم القرآن","publishedAt":"2022-09-15T06:00:15Z","duration":"PT16M51S","thumbnail":"https://i.ytimg.com/vi/ybKFY_B6ISk/mqdefault.jpg","viewCount":"568","playlistId":"PLEkQk5xrP-tnW3iBL7HkKziOFCFZbTlf0","playlistName":"شرح البرهان في علوم القرآن - أ.د. يسري جبر","category":"تفسير"},{"id":"AfdLeQWjTw4","title":"561- حروف المعاني(22): الحرف التاسع عشر (الآن) - شرح البرهان في علوم القرآن","publishedAt":"2022-09-20T06:00:02Z","duration":"PT25M52S","thumbnail":"https://i.ytimg.com/vi/AfdLeQWjTw4/mqdefault.jpg","viewCount":"537","playlistId":"PLEkQk5xrP-tnW3iBL7HkKziOFCFZbTlf0","playlistName":"شرح البرهان في علوم القرآن - أ.د. يسري جبر","category":"تفسير"},{"id":"OjfLrNe2ijo","title":"562- حروف المعاني(23): الحرف(22) (أَيَّان) - شرح البرهان في علوم القرآن","publishedAt":"2022-09-22T06:00:08Z","duration":"PT8M4S","thumbnail":"https://i.ytimg.com/vi/OjfLrNe2ijo/mqdefault.jpg","viewCount":"417","playlistId":"PLEkQk5xrP-tnW3iBL7HkKziOFCFZbTlf0","playlistName":"شرح البرهان في علوم القرآن - أ.د. يسري جبر","category":"تفسير"},{"id":"WwobCrcHaNE","title":"563- حروف المعاني(24): الحرف(24) (الباء) - شرح البرهان في علوم القرآن","publishedAt":"2022-09-27T06:15:03Z","duration":"PT36M","thumbnail":"https://i.ytimg.com/vi/WwobCrcHaNE/mqdefault.jpg","viewCount":"482","playlistId":"PLEkQk5xrP-tnW3iBL7HkKziOFCFZbTlf0","playlistName":"شرح البرهان في علوم القرآن - أ.د. يسري جبر","category":"تفسير"},{"id":"NzSVfJjhDXs","title":"564- حروف المعاني(25): الحرف(24) (الباء) الوظيفة الرابعة تأتي للاستعانة","publishedAt":"2022-09-29T06:15:00Z","duration":"PT18M35S","thumbnail":"https://i.ytimg.com/vi/NzSVfJjhDXs/mqdefault.jpg","viewCount":"493","playlistId":"PLEkQk5xrP-tnW3iBL7HkKziOFCFZbTlf0","playlistName":"شرح البرهان في علوم القرآن - أ.د. يسري جبر","category":"تفسير"},{"id":"sAZ9prjXYco","title":"565- حروف المعاني(26): الحرف(25) (بل) - شرح البرهان في علوم القرآن","publishedAt":"2022-10-05T06:15:02Z","duration":"PT16M39S","thumbnail":"https://i.ytimg.com/vi/sAZ9prjXYco/mqdefault.jpg","viewCount":"497","playlistId":"PLEkQk5xrP-tnW3iBL7HkKziOFCFZbTlf0","playlistName":"شرح البرهان في علوم القرآن - أ.د. يسري جبر","category":"تفسير"},{"id":"yhTGNQ1Y6uA","title":"566- حروف المعاني(27): الحرف(26) (بلى) - شرح البرهان في علوم القرآن","publishedAt":"2022-10-10T05:20:00Z","duration":"PT24M21S","thumbnail":"https://i.ytimg.com/vi/yhTGNQ1Y6uA/mqdefault.jpg","viewCount":"562","playlistId":"PLEkQk5xrP-tnW3iBL7HkKziOFCFZbTlf0","playlistName":"شرح البرهان في علوم القرآن - أ.د. يسري جبر","category":"تفسير"},{"id":"Bf5Lb6nPMBY","title":"567- حروف المعاني(28): الحرف(26) (بلى) تنبيهات","publishedAt":"2022-10-12T05:30:02Z","duration":"PT34M6S","thumbnail":"https://i.ytimg.com/vi/Bf5Lb6nPMBY/mqdefault.jpg","viewCount":"382","playlistId":"PLEkQk5xrP-tnW3iBL7HkKziOFCFZbTlf0","playlistName":"شرح البرهان في علوم القرآن - أ.د. يسري جبر","category":"تفسير"},{"id":"twPrE5RKKd8","title":"568- حروف المعاني(29): الحرف(27) (ثُمَّ) - شرح البرهان في علوم القرآن","publishedAt":"2022-10-12T21:00:23Z","duration":"PT17M58S","thumbnail":"https://i.ytimg.com/vi/twPrE5RKKd8/mqdefault.jpg","viewCount":"350","playlistId":"PLEkQk5xrP-tnW3iBL7HkKziOFCFZbTlf0","playlistName":"شرح البرهان في علوم القرآن - أ.د. يسري جبر","category":"تفسير"},{"id":"aQRMw5s094Q","title":"569- حروف المعاني(30): الحرف(28) (ثَمَّ) - شرح البرهان في علوم القرآن","publishedAt":"2022-10-14T05:00:01Z","duration":"PT6M18S","thumbnail":"https://i.ytimg.com/vi/aQRMw5s094Q/mqdefault.jpg","viewCount":"321","playlistId":"PLEkQk5xrP-tnW3iBL7HkKziOFCFZbTlf0","playlistName":"شرح البرهان في علوم القرآن - أ.د. يسري جبر","category":"تفسير"},{"id":"F2Oi-6InmV0","title":"570- حروف المعاني(31):(29)(حاشا) - شرح البرهان في علوم القرآن","publishedAt":"2022-10-15T05:00:09Z","duration":"PT30M2S","thumbnail":"https://i.ytimg.com/vi/F2Oi-6InmV0/mqdefault.jpg","viewCount":"389","playlistId":"PLEkQk5xrP-tnW3iBL7HkKziOFCFZbTlf0","playlistName":"شرح البرهان في علوم القرآن - أ.د. يسري جبر","category":"تفسير"},{"id":"XNF5eO5CbIc","title":"571- حروف المعاني(32): الحرف(31) حيث - شرح البرهان في علوم القرآن","publishedAt":"2022-10-16T05:00:11Z","duration":"PT17M14S","thumbnail":"https://i.ytimg.com/vi/XNF5eO5CbIc/mqdefault.jpg","viewCount":"504","playlistId":"PLEkQk5xrP-tnW3iBL7HkKziOFCFZbTlf0","playlistName":"شرح البرهان في علوم القرآن - أ.د. يسري جبر","category":"تفسير"},{"id":"8-Wq3QoLuKU","title":"572- حروف المعاني(33): ذو - ذات - شرح البرهان في علوم القرآن","publishedAt":"2022-10-18T05:00:04Z","duration":"PT21M22S","thumbnail":"https://i.ytimg.com/vi/8-Wq3QoLuKU/mqdefault.jpg","viewCount":"326","playlistId":"PLEkQk5xrP-tnW3iBL7HkKziOFCFZbTlf0","playlistName":"شرح البرهان في علوم القرآن - أ.د. يسري جبر","category":"تفسير"},{"id":"ncIm7uh_BmU","title":"573- حروف المعاني(34): رُوَيْد - شرح البرهان في علوم القرآن","publishedAt":"2022-10-19T05:10:00Z","duration":"PT12M45S","thumbnail":"https://i.ytimg.com/vi/ncIm7uh_BmU/mqdefault.jpg","viewCount":"230","playlistId":"PLEkQk5xrP-tnW3iBL7HkKziOFCFZbTlf0","playlistName":"شرح البرهان في علوم القرآن - أ.د. يسري جبر","category":"تفسير"},{"id":"9zrEYDUZCb8","title":"574- حروف المعاني(35): الحرف 37: سَوفَ - شرح البرهان في علوم القرآن","publishedAt":"2022-10-20T05:00:04Z","duration":"PT20M3S","thumbnail":"https://i.ytimg.com/vi/9zrEYDUZCb8/mqdefault.jpg","viewCount":"434","playlistId":"PLEkQk5xrP-tnW3iBL7HkKziOFCFZbTlf0","playlistName":"شرح البرهان في علوم القرآن - أ.د. يسري جبر","category":"تفسير"}],"total":1096,"page":30,"pageSize":24,"totalPages":46}