{"items":[{"id":"ZCcAAPwyY_g","title":"هل يجوز المرور أمام المصلي؟ | أ.د. يسري جبر","publishedAt":"2022-04-20T15:30:05Z","duration":"PT37M16S","thumbnail":"https://i.ytimg.com/vi/ZCcAAPwyY_g/mqdefault.jpg","viewCount":"2030","playlistId":"PLEkQk5xrP-tnl7vb7KeAoPd5ZlqKKW8KV","playlistName":"شرح كتاب بهجة النفوس أ.د . يسرى جبر","category":"متنوع"},{"id":"yWaRhIJFc70","title":"ما حكم لبس الحرير؟ | أ.د. يسري جبر","publishedAt":"2022-04-22T15:30:11Z","duration":"PT25M38S","thumbnail":"https://i.ytimg.com/vi/yWaRhIJFc70/mqdefault.jpg","viewCount":"727","playlistId":"PLEkQk5xrP-tnl7vb7KeAoPd5ZlqKKW8KV","playlistName":"شرح كتاب بهجة النفوس أ.د . يسرى جبر","category":"متنوع"},{"id":"_obrDQxcuLU","title":"خطر الشذوذ والمثلية | أ.د. يسري جبر","publishedAt":"2022-04-23T15:30:10Z","duration":"PT31M27S","thumbnail":"https://i.ytimg.com/vi/_obrDQxcuLU/mqdefault.jpg","viewCount":"4298","playlistId":"PLEkQk5xrP-tnl7vb7KeAoPd5ZlqKKW8KV","playlistName":"شرح كتاب بهجة النفوس أ.د . يسرى جبر","category":"متنوع"},{"id":"-FRvGh8jtqI","title":"حكم الوشم ووصل الشعر في الإسلام | أ.د. يسري جبر","publishedAt":"2022-04-23T19:30:00Z","duration":"PT32M52S","thumbnail":"https://i.ytimg.com/vi/-FRvGh8jtqI/mqdefault.jpg","viewCount":"1761","playlistId":"PLEkQk5xrP-tnl7vb7KeAoPd5ZlqKKW8KV","playlistName":"شرح كتاب بهجة النفوس أ.د . يسرى جبر","category":"متنوع"},{"id":"U2pFAh5AvfM","title":"حقُّ الله على عباده | أ.د. يسري جبر","publishedAt":"2022-04-24T15:30:04Z","duration":"PT34M27S","thumbnail":"https://i.ytimg.com/vi/U2pFAh5AvfM/mqdefault.jpg","viewCount":"2225","playlistId":"PLEkQk5xrP-tnl7vb7KeAoPd5ZlqKKW8KV","playlistName":"شرح كتاب بهجة النفوس أ.د . يسرى جبر","category":"متنوع"},{"id":"l1Fqbd38GNo","title":"ما حكم سب الوالدين؟ | أ.د. يسري جبر","publishedAt":"2022-04-25T15:30:07Z","duration":"PT22M35S","thumbnail":"https://i.ytimg.com/vi/l1Fqbd38GNo/mqdefault.jpg","viewCount":"1931","playlistId":"PLEkQk5xrP-tnl7vb7KeAoPd5ZlqKKW8KV","playlistName":"شرح كتاب بهجة النفوس أ.د . يسرى جبر","category":"متنوع"},{"id":"sAUxljXEkcg","title":"فضل صلة الرحم | أ.د. يسري جبر","publishedAt":"2022-04-26T15:30:11Z","duration":"PT41M3S","thumbnail":"https://i.ytimg.com/vi/sAUxljXEkcg/mqdefault.jpg","viewCount":"2587","playlistId":"PLEkQk5xrP-tnl7vb7KeAoPd5ZlqKKW8KV","playlistName":"شرح كتاب بهجة النفوس أ.د . يسرى جبر","category":"متنوع"},{"id":"Dzb4BXd5X80","title":"فضل تربية البنات | أ.د. يسري جبر","publishedAt":"2022-04-27T19:30:02Z","duration":"PT43M17S","thumbnail":"https://i.ytimg.com/vi/Dzb4BXd5X80/mqdefault.jpg","viewCount":"2860","playlistId":"PLEkQk5xrP-tnl7vb7KeAoPd5ZlqKKW8KV","playlistName":"شرح كتاب بهجة النفوس أ.د . يسرى جبر","category":"متنوع"},{"id":"xUw_OcMmidA","title":"رحمة الله بعباده | أ.د. يسري جبر","publishedAt":"2022-04-28T15:30:07Z","duration":"PT33M36S","thumbnail":"https://i.ytimg.com/vi/xUw_OcMmidA/mqdefault.jpg","viewCount":"3324","playlistId":"PLEkQk5xrP-tnl7vb7KeAoPd5ZlqKKW8KV","playlistName":"شرح كتاب بهجة النفوس أ.د . يسرى جبر","category":"متنوع"},{"id":"-Wwa13CJUjs","title":"جواز التوسل بالنَّبيّ ﷺ | أ.د. يسري جبر","publishedAt":"2022-04-29T15:30:00Z","duration":"PT25M44S","thumbnail":"https://i.ytimg.com/vi/-Wwa13CJUjs/mqdefault.jpg","viewCount":"3661","playlistId":"PLEkQk5xrP-tnl7vb7KeAoPd5ZlqKKW8KV","playlistName":"شرح كتاب بهجة النفوس أ.د . يسرى جبر","category":"متنوع"},{"id":"Nt8p-g22i3E","title":"سعة رحمة الله تعالى بعباده | أ.د. يسري جبر","publishedAt":"2022-04-30T15:30:02Z","duration":"PT28M10S","thumbnail":"https://i.ytimg.com/vi/Nt8p-g22i3E/mqdefault.jpg","viewCount":"2934","playlistId":"PLEkQk5xrP-tnl7vb7KeAoPd5ZlqKKW8KV","playlistName":"شرح كتاب بهجة النفوس أ.د . يسرى جبر","category":"متنوع"},{"id":"4Iw5D40aYtA","title":"توادد المؤمنين وتراحمهم | أ.د. يسري جبر","publishedAt":"2022-05-01T15:30:01Z","duration":"PT22M49S","thumbnail":"https://i.ytimg.com/vi/4Iw5D40aYtA/mqdefault.jpg","viewCount":"1117","playlistId":"PLEkQk5xrP-tnl7vb7KeAoPd5ZlqKKW8KV","playlistName":"شرح كتاب بهجة النفوس أ.د . يسرى جبر","category":"متنوع"},{"id":"Bns7ny3WoQo","title":"وصايا النَّبيّ ﷺ لتعمير الأرض | مجالس رمضانية","publishedAt":"2023-03-23T15:01:20Z","duration":"PT1H4M24S","thumbnail":"https://i.ytimg.com/vi/Bns7ny3WoQo/mqdefault.jpg","viewCount":"2214","playlistId":"PLEkQk5xrP-tnl7vb7KeAoPd5ZlqKKW8KV","playlistName":"شرح كتاب بهجة النفوس أ.د . يسرى جبر","category":"متنوع"},{"id":"YbMaLKA_yHg","title":"رحمة الله لمن يرحم عباده | مجالس رمضانية","publishedAt":"2023-03-24T15:00:23Z","duration":"PT35M55S","thumbnail":"https://i.ytimg.com/vi/YbMaLKA_yHg/mqdefault.jpg","viewCount":"1994","playlistId":"PLEkQk5xrP-tnl7vb7KeAoPd5ZlqKKW8KV","playlistName":"شرح كتاب بهجة النفوس أ.د . يسرى جبر","category":"متنوع"},{"id":"T9vkqO3x4Bc","title":"فن إكرام الجار | مجالس رمضانية","publishedAt":"2023-03-25T15:00:31Z","duration":"PT42M42S","thumbnail":"https://i.ytimg.com/vi/T9vkqO3x4Bc/mqdefault.jpg","viewCount":"1250","playlistId":"PLEkQk5xrP-tnl7vb7KeAoPd5ZlqKKW8KV","playlistName":"شرح كتاب بهجة النفوس أ.د . يسرى جبر","category":"متنوع"},{"id":"424fAVM0480","title":"كيف تتعامل مع الناس؟ | مجالس رمضانية","publishedAt":"2023-03-26T15:00:02Z","duration":"PT50M35S","thumbnail":"https://i.ytimg.com/vi/424fAVM0480/mqdefault.jpg","viewCount":"4864","playlistId":"PLEkQk5xrP-tnl7vb7KeAoPd5ZlqKKW8KV","playlistName":"شرح كتاب بهجة النفوس أ.د . يسرى جبر","category":"متنوع"},{"id":"vdz0pf_tE44","title":"المودة بين الجيران | مجالس رمضانية","publishedAt":"2023-03-27T15:00:47Z","duration":"PT29M7S","thumbnail":"https://i.ytimg.com/vi/vdz0pf_tE44/mqdefault.jpg","viewCount":"1013","playlistId":"PLEkQk5xrP-tnl7vb7KeAoPd5ZlqKKW8KV","playlistName":"شرح كتاب بهجة النفوس أ.د . يسرى جبر","category":"متنوع"},{"id":"aCAWh3m8mJ8","title":"أنواع الصدقات | مجالس رمضانية","publishedAt":"2023-03-28T15:00:00Z","duration":"PT41M57S","thumbnail":"https://i.ytimg.com/vi/aCAWh3m8mJ8/mqdefault.jpg","viewCount":"2081","playlistId":"PLEkQk5xrP-tnl7vb7KeAoPd5ZlqKKW8KV","playlistName":"شرح كتاب بهجة النفوس أ.د . يسرى جبر","category":"متنوع"},{"id":"8lG1Wo7iEHg","title":"عجائب صنائع المعروف | مجالس رمضانية","publishedAt":"2023-03-29T15:00:09Z","duration":"PT50M5S","thumbnail":"https://i.ytimg.com/vi/8lG1Wo7iEHg/mqdefault.jpg","viewCount":"4216","playlistId":"PLEkQk5xrP-tnl7vb7KeAoPd5ZlqKKW8KV","playlistName":"شرح كتاب بهجة النفوس أ.د . يسرى جبر","category":"متنوع"},{"id":"hq4o9O4Lcv8","title":"حكم الاستماع للموسيقى والشعر | مجالس رمضانية","publishedAt":"2023-03-30T15:00:35Z","duration":"PT46M4S","thumbnail":"https://i.ytimg.com/vi/hq4o9O4Lcv8/mqdefault.jpg","viewCount":"1753","playlistId":"PLEkQk5xrP-tnl7vb7KeAoPd5ZlqKKW8KV","playlistName":"شرح كتاب بهجة النفوس أ.د . يسرى جبر","category":"متنوع"},{"id":"rEPdGBI_7A4","title":"عقوبة الغدر والخيانة | مجالس رمضانية","publishedAt":"2023-03-31T15:00:41Z","duration":"PT39M27S","thumbnail":"https://i.ytimg.com/vi/rEPdGBI_7A4/mqdefault.jpg","viewCount":"1706","playlistId":"PLEkQk5xrP-tnl7vb7KeAoPd5ZlqKKW8KV","playlistName":"شرح كتاب بهجة النفوس أ.د . يسرى جبر","category":"متنوع"},{"id":"gSrvVHl4Xpc","title":"عواقب الألفاظ الخبيثة | مجالس رمضانية","publishedAt":"2023-04-01T15:00:22Z","duration":"PT47M3S","thumbnail":"https://i.ytimg.com/vi/gSrvVHl4Xpc/mqdefault.jpg","viewCount":"4178","playlistId":"PLEkQk5xrP-tnl7vb7KeAoPd5ZlqKKW8KV","playlistName":"شرح كتاب بهجة النفوس أ.د . يسرى جبر","category":"متنوع"},{"id":"HJdwhCnDcyI","title":"ما حكم سب الدهر؟ | مجالس رمضانية","publishedAt":"2023-04-02T15:08:08Z","duration":"PT46M42S","thumbnail":"https://i.ytimg.com/vi/HJdwhCnDcyI/mqdefault.jpg","viewCount":"1435","playlistId":"PLEkQk5xrP-tnl7vb7KeAoPd5ZlqKKW8KV","playlistName":"شرح كتاب بهجة النفوس أ.د . يسرى جبر","category":"متنوع"},{"id":"6saAK9g_oFQ","title":"الكرم قلب المؤمن | مجالس رمضانية","publishedAt":"2023-04-03T15:00:04Z","duration":"PT16M21S","thumbnail":"https://i.ytimg.com/vi/6saAK9g_oFQ/mqdefault.jpg","viewCount":"1898","playlistId":"PLEkQk5xrP-tnl7vb7KeAoPd5ZlqKKW8KV","playlistName":"شرح كتاب بهجة النفوس أ.د . يسرى جبر","category":"متنوع"}],"total":237,"page":8,"pageSize":24,"totalPages":10}