{"items":[{"id":"cfz3u-Ol8vM","title":"حَدِيث (١٨٣)\"مَنْ قالَ لا إلهَ إلاَّ اللَّه وحْدهُ لاَ شَرِيكَ له...\" | أ.د. يسري جبر","publishedAt":"2021-04-13T15:33:34Z","duration":"PT42M41S","thumbnail":"https://i.ytimg.com/vi/cfz3u-Ol8vM/mqdefault.jpg","viewCount":"11629","playlistId":"PLEkQk5xrP-tnl7vb7KeAoPd5ZlqKKW8KV","playlistName":"شرح كتاب بهجة النفوس أ.د . يسرى جبر","category":"متنوع"},{"id":"uw5Jed2YUE8","title":"حَدِيث (١٨٤)\"كراهية صيام الدهر\" | أ.د. يسري جبر","publishedAt":"2021-04-14T15:30:14Z","duration":"PT29M10S","thumbnail":"https://i.ytimg.com/vi/uw5Jed2YUE8/mqdefault.jpg","viewCount":"1011","playlistId":"PLEkQk5xrP-tnl7vb7KeAoPd5ZlqKKW8KV","playlistName":"شرح كتاب بهجة النفوس أ.د . يسرى جبر","category":"متنوع"},{"id":"iiUVDXCWvvQ","title":"حَدِيث (١٨٥)\"أحب الصيام إلى الله صيام داود..\" | أ.د. يسري جبر","publishedAt":"2021-04-15T15:15:01Z","duration":"PT37M59S","thumbnail":"https://i.ytimg.com/vi/iiUVDXCWvvQ/mqdefault.jpg","viewCount":"1349","playlistId":"PLEkQk5xrP-tnl7vb7KeAoPd5ZlqKKW8KV","playlistName":"شرح كتاب بهجة النفوس أ.د . يسرى جبر","category":"متنوع"},{"id":"t9V6UFjk7F4","title":"حَدِيث (١٨٦)\"أول مسجد وضع للصلاة\" | أ.د. يسري جبر","publishedAt":"2021-04-16T15:30:04Z","duration":"PT14M8S","thumbnail":"https://i.ytimg.com/vi/t9V6UFjk7F4/mqdefault.jpg","viewCount":"505","playlistId":"PLEkQk5xrP-tnl7vb7KeAoPd5ZlqKKW8KV","playlistName":"شرح كتاب بهجة النفوس أ.د . يسرى جبر","category":"متنوع"},{"id":"Df0sPUVytZI","title":"حَدِيث (١٨٧)\"الثلاثة الذين تكلموا في المهد\" | أ.د. يسري جبر","publishedAt":"2021-04-17T15:51:04Z","duration":"PT37M20S","thumbnail":"https://i.ytimg.com/vi/Df0sPUVytZI/mqdefault.jpg","viewCount":"1513","playlistId":"PLEkQk5xrP-tnl7vb7KeAoPd5ZlqKKW8KV","playlistName":"شرح كتاب بهجة النفوس أ.د . يسرى جبر","category":"متنوع"},{"id":"ArDStHo64Yw","title":"حَدِيث (١٨٨)\"من أمر عند موته بحرق جسده...\" | أ.د. يسري جبر","publishedAt":"2021-04-18T15:30:02Z","duration":"PT12M56S","thumbnail":"https://i.ytimg.com/vi/ArDStHo64Yw/mqdefault.jpg","viewCount":"886","playlistId":"PLEkQk5xrP-tnl7vb7KeAoPd5ZlqKKW8KV","playlistName":"شرح كتاب بهجة النفوس أ.د . يسرى جبر","category":"متنوع"},{"id":"7N76rzFAE0k","title":"حَدِيث (١٨۹)\"الوفاء ببعية الأمراء\" | أ.د. يسري جبر","publishedAt":"2021-04-19T17:03:56Z","duration":"PT41M59S","thumbnail":"https://i.ytimg.com/vi/7N76rzFAE0k/mqdefault.jpg","viewCount":"801","playlistId":"PLEkQk5xrP-tnl7vb7KeAoPd5ZlqKKW8KV","playlistName":"شرح كتاب بهجة النفوس أ.د . يسرى جبر","category":"متنوع"},{"id":"OgirG_I7Q5A","title":"من علامات أخر الزمان | أ.د. يسري جبر","publishedAt":"2021-04-20T17:12:40Z","duration":"PT27M45S","thumbnail":"https://i.ytimg.com/vi/OgirG_I7Q5A/mqdefault.jpg","viewCount":"6810","playlistId":"PLEkQk5xrP-tnl7vb7KeAoPd5ZlqKKW8KV","playlistName":"شرح كتاب بهجة النفوس أ.د . يسرى جبر","category":"متنوع"},{"id":"5s2wqdSh2-c","title":"وصايا النبي ﷺ لمواجهة الكورونا | أ.د. يسري جبر","publishedAt":"2021-04-21T17:06:51Z","duration":"PT34M2S","thumbnail":"https://i.ytimg.com/vi/5s2wqdSh2-c/mqdefault.jpg","viewCount":"1490","playlistId":"PLEkQk5xrP-tnl7vb7KeAoPd5ZlqKKW8KV","playlistName":"شرح كتاب بهجة النفوس أ.د . يسرى جبر","category":"متنوع"},{"id":"z7RX4EquMbc","title":"فضل الصبر على الوباء | أ.د. يسري جبر","publishedAt":"2021-04-22T17:01:10Z","duration":"PT21M14S","thumbnail":"https://i.ytimg.com/vi/z7RX4EquMbc/mqdefault.jpg","viewCount":"949","playlistId":"PLEkQk5xrP-tnl7vb7KeAoPd5ZlqKKW8KV","playlistName":"شرح كتاب بهجة النفوس أ.د . يسرى جبر","category":"متنوع"},{"id":"r2rxgrXEOvc","title":"الفرق بين الشفاعة و\"الواسطة\" | أ.د. يسري جبر","publishedAt":"2021-04-23T15:30:04Z","duration":"PT32M37S","thumbnail":"https://i.ytimg.com/vi/r2rxgrXEOvc/mqdefault.jpg","viewCount":"1948","playlistId":"PLEkQk5xrP-tnl7vb7KeAoPd5ZlqKKW8KV","playlistName":"شرح كتاب بهجة النفوس أ.د . يسرى جبر","category":"متنوع"},{"id":"oR7jNJZWdb4","title":"جمال اختيارات النبي ﷺ | أ.د. يسري جبر","publishedAt":"2021-04-24T16:00:33Z","duration":"PT39M38S","thumbnail":"https://i.ytimg.com/vi/oR7jNJZWdb4/mqdefault.jpg","viewCount":"2337","playlistId":"PLEkQk5xrP-tnl7vb7KeAoPd5ZlqKKW8KV","playlistName":"شرح كتاب بهجة النفوس أ.د . يسرى جبر","category":"متنوع"},{"id":"khpoOIh5BC4","title":"معجزة بركة النبي ﷺ | أ.د. يسري جبر","publishedAt":"2021-04-25T16:00:29Z","duration":"PT29M59S","thumbnail":"https://i.ytimg.com/vi/khpoOIh5BC4/mqdefault.jpg","viewCount":"4430","playlistId":"PLEkQk5xrP-tnl7vb7KeAoPd5ZlqKKW8KV","playlistName":"شرح كتاب بهجة النفوس أ.د . يسرى جبر","category":"متنوع"},{"id":"EVPC1IlCME8","title":"أحكام الربا بين الماضي والحاضر | أ.د. يسري جبر","publishedAt":"2021-04-26T15:30:01Z","duration":"PT28M55S","thumbnail":"https://i.ytimg.com/vi/EVPC1IlCME8/mqdefault.jpg","viewCount":"10473","playlistId":"PLEkQk5xrP-tnl7vb7KeAoPd5ZlqKKW8KV","playlistName":"شرح كتاب بهجة النفوس أ.د . يسرى جبر","category":"متنوع"},{"id":"XbN2BwG1PSw","title":"طاعة الأمير لا تكون إلا في معروف | أ.د. يسري جبر","publishedAt":"2021-04-27T17:00:10Z","duration":"PT34M15S","thumbnail":"https://i.ytimg.com/vi/XbN2BwG1PSw/mqdefault.jpg","viewCount":"881","playlistId":"PLEkQk5xrP-tnl7vb7KeAoPd5ZlqKKW8KV","playlistName":"شرح كتاب بهجة النفوس أ.د . يسرى جبر","category":"متنوع"},{"id":"j1e3OkzaAs0","title":"فضل قراءة وحفظ القرآن | أ.د. يسري جبر","publishedAt":"2021-04-28T16:37:19Z","duration":"PT30M4S","thumbnail":"https://i.ytimg.com/vi/j1e3OkzaAs0/mqdefault.jpg","viewCount":"11308","playlistId":"PLEkQk5xrP-tnl7vb7KeAoPd5ZlqKKW8KV","playlistName":"شرح كتاب بهجة النفوس أ.د . يسرى جبر","category":"متنوع"},{"id":"Ouj_6l-0Xkg","title":"فضل أخر سورة البقرة | أ.د. يسري جبر","publishedAt":"2021-04-29T14:05:00Z","duration":"PT23M3S","thumbnail":"https://i.ytimg.com/vi/Ouj_6l-0Xkg/mqdefault.jpg","viewCount":"4105","playlistId":"PLEkQk5xrP-tnl7vb7KeAoPd5ZlqKKW8KV","playlistName":"شرح كتاب بهجة النفوس أ.د . يسرى جبر","category":"متنوع"},{"id":"LZYCvxWGVL4","title":"التحصن بالقرآن عند النوم | أ.د. يسري جبر","publishedAt":"2021-04-30T15:30:02Z","duration":"PT36M31S","thumbnail":"https://i.ytimg.com/vi/LZYCvxWGVL4/mqdefault.jpg","viewCount":"5742","playlistId":"PLEkQk5xrP-tnl7vb7KeAoPd5ZlqKKW8KV","playlistName":"شرح كتاب بهجة النفوس أ.د . يسرى جبر","category":"متنوع"},{"id":"MltTrtDHX2Y","title":"فضل قراءة القرآن للراكب | أ.د. يسري جبر","publishedAt":"2021-05-01T15:30:02Z","duration":"PT26M19S","thumbnail":"https://i.ytimg.com/vi/MltTrtDHX2Y/mqdefault.jpg","viewCount":"1361","playlistId":"PLEkQk5xrP-tnl7vb7KeAoPd5ZlqKKW8KV","playlistName":"شرح كتاب بهجة النفوس أ.د . يسرى جبر","category":"متنوع"},{"id":"By_zFZce_ak","title":"الخشوع عند قراءة القرآن | أ.د. يسري جبر","publishedAt":"2021-05-02T15:30:02Z","duration":"PT23M54S","thumbnail":"https://i.ytimg.com/vi/By_zFZce_ak/mqdefault.jpg","viewCount":"2625","playlistId":"PLEkQk5xrP-tnl7vb7KeAoPd5ZlqKKW8KV","playlistName":"شرح كتاب بهجة النفوس أ.د . يسرى جبر","category":"متنوع"},{"id":"0-0ySEMzpnk","title":"كيف تتجنب الوقوع في الزنا؟ | أ.د. يسري جبر","publishedAt":"2021-05-03T16:00:00Z","duration":"PT29M38S","thumbnail":"https://i.ytimg.com/vi/0-0ySEMzpnk/mqdefault.jpg","viewCount":"5142","playlistId":"PLEkQk5xrP-tnl7vb7KeAoPd5ZlqKKW8KV","playlistName":"شرح كتاب بهجة النفوس أ.د . يسرى جبر","category":"متنوع"},{"id":"I-0i20kPs0c","title":"جواز التحلل من الحج | أ.د. يسري جبر","publishedAt":"2021-05-04T16:00:16Z","duration":"PT37M58S","thumbnail":"https://i.ytimg.com/vi/I-0i20kPs0c/mqdefault.jpg","viewCount":"489","playlistId":"PLEkQk5xrP-tnl7vb7KeAoPd5ZlqKKW8KV","playlistName":"شرح كتاب بهجة النفوس أ.د . يسرى جبر","category":"متنوع"},{"id":"IDe0AwsQcmQ","title":"كراهية التجسس بين الزوجين | أ.د. يسري جبر","publishedAt":"2021-05-05T16:09:42Z","duration":"PT26M25S","thumbnail":"https://i.ytimg.com/vi/IDe0AwsQcmQ/mqdefault.jpg","viewCount":"1851","playlistId":"PLEkQk5xrP-tnl7vb7KeAoPd5ZlqKKW8KV","playlistName":"شرح كتاب بهجة النفوس أ.د . يسرى جبر","category":"متنوع"},{"id":"8M26Evt_5Qw","title":"هل تجوز الشفاعة؟ | أ.د. يسري جبر","publishedAt":"2021-05-06T16:10:01Z","duration":"PT28M10S","thumbnail":"https://i.ytimg.com/vi/8M26Evt_5Qw/mqdefault.jpg","viewCount":"1210","playlistId":"PLEkQk5xrP-tnl7vb7KeAoPd5ZlqKKW8KV","playlistName":"شرح كتاب بهجة النفوس أ.د . يسرى جبر","category":"متنوع"}],"total":237,"page":6,"pageSize":24,"totalPages":10}