{"items":[{"id":"F7jrQT5yUZY","title":"مقرأة سورة الأحزاب من ٱية ٩","publishedAt":"2018-07-18T11:33:19Z","duration":"PT20M5S","thumbnail":"https://i.ytimg.com/vi/F7jrQT5yUZY/mqdefault.jpg","viewCount":"343","playlistId":"PLEkQk5xrP-tnmTYsyW6xNdyfhPq0Bhrhj","playlistName":"مقرأة الفجر - القُرْآنُ الكَرِيمُ - خَتْمَةُ التَّدَبُّرِ  أ.د. يسري جبر","category":"متنوع"},{"id":"uQfUnMbc03w","title":"مقرأة سورة الأحزاب من ٱية ١٤","publishedAt":"2018-07-19T08:28:44Z","duration":"PT5M23S","thumbnail":"https://i.ytimg.com/vi/uQfUnMbc03w/mqdefault.jpg","viewCount":"327","playlistId":"PLEkQk5xrP-tnmTYsyW6xNdyfhPq0Bhrhj","playlistName":"مقرأة الفجر - القُرْآنُ الكَرِيمُ - خَتْمَةُ التَّدَبُّرِ  أ.د. يسري جبر","category":"متنوع"},{"id":"S8bT9NjqUak","title":"مقرأة سورة الأحزاب من ٱية ١٨","publishedAt":"2018-07-21T14:04:35Z","duration":"PT12M44S","thumbnail":"https://i.ytimg.com/vi/S8bT9NjqUak/mqdefault.jpg","viewCount":"311","playlistId":"PLEkQk5xrP-tnmTYsyW6xNdyfhPq0Bhrhj","playlistName":"مقرأة الفجر - القُرْآنُ الكَرِيمُ - خَتْمَةُ التَّدَبُّرِ  أ.د. يسري جبر","category":"متنوع"},{"id":"wIXKjiKopdg","title":"مقرأة سورة الأحزاب من ٱية ٢٢","publishedAt":"2018-07-22T17:11:53Z","duration":"PT16M11S","thumbnail":"https://i.ytimg.com/vi/wIXKjiKopdg/mqdefault.jpg","viewCount":"313","playlistId":"PLEkQk5xrP-tnmTYsyW6xNdyfhPq0Bhrhj","playlistName":"مقرأة الفجر - القُرْآنُ الكَرِيمُ - خَتْمَةُ التَّدَبُّرِ  أ.د. يسري جبر","category":"متنوع"},{"id":"94zR36E1RwE","title":"مقرأة سورة الأحزاب من ٱية ٢٨","publishedAt":"2018-07-23T20:59:20Z","duration":"PT12M17S","thumbnail":"https://i.ytimg.com/vi/94zR36E1RwE/mqdefault.jpg","viewCount":"263","playlistId":"PLEkQk5xrP-tnmTYsyW6xNdyfhPq0Bhrhj","playlistName":"مقرأة الفجر - القُرْآنُ الكَرِيمُ - خَتْمَةُ التَّدَبُّرِ  أ.د. يسري جبر","category":"متنوع"},{"id":"Aghn8mPw_a0","title":"مقرأة سورة الأحزاب من ٱية ٣٢","publishedAt":"2018-07-24T17:26:08Z","duration":"PT17M16S","thumbnail":"https://i.ytimg.com/vi/Aghn8mPw_a0/mqdefault.jpg","viewCount":"308","playlistId":"PLEkQk5xrP-tnmTYsyW6xNdyfhPq0Bhrhj","playlistName":"مقرأة الفجر - القُرْآنُ الكَرِيمُ - خَتْمَةُ التَّدَبُّرِ  أ.د. يسري جبر","category":"متنوع"},{"id":"WqlAL73gRkc","title":"مقرأة سورة الأحزاب من ٱية ٣٥","publishedAt":"2018-07-25T15:08:53Z","duration":"PT19M1S","thumbnail":"https://i.ytimg.com/vi/WqlAL73gRkc/mqdefault.jpg","viewCount":"435","playlistId":"PLEkQk5xrP-tnmTYsyW6xNdyfhPq0Bhrhj","playlistName":"مقرأة الفجر - القُرْآنُ الكَرِيمُ - خَتْمَةُ التَّدَبُّرِ  أ.د. يسري جبر","category":"متنوع"},{"id":"O2rmXxG03lI","title":"مقرأة سورة الأحزاب من ٱية ٤٠","publishedAt":"2018-07-26T20:49:37Z","duration":"PT11M38S","thumbnail":"https://i.ytimg.com/vi/O2rmXxG03lI/mqdefault.jpg","viewCount":"332","playlistId":"PLEkQk5xrP-tnmTYsyW6xNdyfhPq0Bhrhj","playlistName":"مقرأة الفجر - القُرْآنُ الكَرِيمُ - خَتْمَةُ التَّدَبُّرِ  أ.د. يسري جبر","category":"متنوع"},{"id":"aB98Idiamws","title":"مقرأة سورة الأحزاب من ٱية ٤٥","publishedAt":"2018-07-29T08:13:53Z","duration":"PT10M52S","thumbnail":"https://i.ytimg.com/vi/aB98Idiamws/mqdefault.jpg","viewCount":"270","playlistId":"PLEkQk5xrP-tnmTYsyW6xNdyfhPq0Bhrhj","playlistName":"مقرأة الفجر - القُرْآنُ الكَرِيمُ - خَتْمَةُ التَّدَبُّرِ  أ.د. يسري جبر","category":"متنوع"},{"id":"3chapVyYzhU","title":"مقرأة سورة الأحزاب من ٱية ٤٩","publishedAt":"2018-07-30T07:42:30Z","duration":"PT13M59S","thumbnail":"https://i.ytimg.com/vi/3chapVyYzhU/mqdefault.jpg","viewCount":"315","playlistId":"PLEkQk5xrP-tnmTYsyW6xNdyfhPq0Bhrhj","playlistName":"مقرأة الفجر - القُرْآنُ الكَرِيمُ - خَتْمَةُ التَّدَبُّرِ  أ.د. يسري جبر","category":"متنوع"},{"id":"q-ERu8gq0Mk","title":"مقرأة سورة الأحزاب من ٱية ٥١","publishedAt":"2018-07-31T09:47:21Z","duration":"PT24M8S","thumbnail":"https://i.ytimg.com/vi/q-ERu8gq0Mk/mqdefault.jpg","viewCount":"375","playlistId":"PLEkQk5xrP-tnmTYsyW6xNdyfhPq0Bhrhj","playlistName":"مقرأة الفجر - القُرْآنُ الكَرِيمُ - خَتْمَةُ التَّدَبُّرِ  أ.د. يسري جبر","category":"متنوع"},{"id":"XMufhvG1HsQ","title":"مقرأة سورة الأحزاب من ٱية ٥٤","publishedAt":"2018-08-01T07:38:00Z","duration":"PT15M48S","thumbnail":"https://i.ytimg.com/vi/XMufhvG1HsQ/mqdefault.jpg","viewCount":"372","playlistId":"PLEkQk5xrP-tnmTYsyW6xNdyfhPq0Bhrhj","playlistName":"مقرأة الفجر - القُرْآنُ الكَرِيمُ - خَتْمَةُ التَّدَبُّرِ  أ.د. يسري جبر","category":"متنوع"},{"id":"QZ-e_zcTL_8","title":"مقرأة سورة الأحزاب من ٱية ٦٠","publishedAt":"2018-08-02T13:32:21Z","duration":"PT16M8S","thumbnail":"https://i.ytimg.com/vi/QZ-e_zcTL_8/mqdefault.jpg","viewCount":"236","playlistId":"PLEkQk5xrP-tnmTYsyW6xNdyfhPq0Bhrhj","playlistName":"مقرأة الفجر - القُرْآنُ الكَرِيمُ - خَتْمَةُ التَّدَبُّرِ  أ.د. يسري جبر","category":"متنوع"},{"id":"HJKrIHb2B_Q","title":"مقرأة سورة الأحزاب من ٱية ٦٩","publishedAt":"2018-08-04T16:20:57Z","duration":"PT16M5S","thumbnail":"https://i.ytimg.com/vi/HJKrIHb2B_Q/mqdefault.jpg","viewCount":"303","playlistId":"PLEkQk5xrP-tnmTYsyW6xNdyfhPq0Bhrhj","playlistName":"مقرأة الفجر - القُرْآنُ الكَرِيمُ - خَتْمَةُ التَّدَبُّرِ  أ.د. يسري جبر","category":"متنوع"},{"id":"jxUIU4JZHCc","title":"مقرأة سورة سبأ من أولها","publishedAt":"2018-08-05T09:56:47Z","duration":"PT15M38S","thumbnail":"https://i.ytimg.com/vi/jxUIU4JZHCc/mqdefault.jpg","viewCount":"955","playlistId":"PLEkQk5xrP-tnmTYsyW6xNdyfhPq0Bhrhj","playlistName":"مقرأة الفجر - القُرْآنُ الكَرِيمُ - خَتْمَةُ التَّدَبُّرِ  أ.د. يسري جبر","category":"متنوع"},{"id":"PQgpa85dEE4","title":"مقرأة سورة سبأ من آية ٦","publishedAt":"2018-08-06T08:39:47Z","duration":"PT20M42S","thumbnail":"https://i.ytimg.com/vi/PQgpa85dEE4/mqdefault.jpg","viewCount":"361","playlistId":"PLEkQk5xrP-tnmTYsyW6xNdyfhPq0Bhrhj","playlistName":"مقرأة الفجر - القُرْآنُ الكَرِيمُ - خَتْمَةُ التَّدَبُّرِ  أ.د. يسري جبر","category":"متنوع"},{"id":"ar_F2osiXV4","title":"مقرأة سورة سبأ من آية ١٠","publishedAt":"2018-08-07T12:10:10Z","duration":"PT12M36S","thumbnail":"https://i.ytimg.com/vi/ar_F2osiXV4/mqdefault.jpg","viewCount":"356","playlistId":"PLEkQk5xrP-tnmTYsyW6xNdyfhPq0Bhrhj","playlistName":"مقرأة الفجر - القُرْآنُ الكَرِيمُ - خَتْمَةُ التَّدَبُّرِ  أ.د. يسري جبر","category":"متنوع"},{"id":"mDg7j5fU858","title":"مقرأة سورة سبأ من آية ١٣","publishedAt":"2018-08-08T13:31:26Z","duration":"PT15M59S","thumbnail":"https://i.ytimg.com/vi/mDg7j5fU858/mqdefault.jpg","viewCount":"523","playlistId":"PLEkQk5xrP-tnmTYsyW6xNdyfhPq0Bhrhj","playlistName":"مقرأة الفجر - القُرْآنُ الكَرِيمُ - خَتْمَةُ التَّدَبُّرِ  أ.د. يسري جبر","category":"متنوع"},{"id":"-8-iBegeqZg","title":"مقرأة سورة سبأ من آية ١٥","publishedAt":"2018-08-09T20:13:24Z","duration":"PT20M42S","thumbnail":"https://i.ytimg.com/vi/-8-iBegeqZg/mqdefault.jpg","viewCount":"356","playlistId":"PLEkQk5xrP-tnmTYsyW6xNdyfhPq0Bhrhj","playlistName":"مقرأة الفجر - القُرْآنُ الكَرِيمُ - خَتْمَةُ التَّدَبُّرِ  أ.د. يسري جبر","category":"متنوع"},{"id":"eYw4bdId_8Y","title":"مقرأة سورة سبأ من آية ٢٢","publishedAt":"2018-08-11T13:05:51Z","duration":"PT19M41S","thumbnail":"https://i.ytimg.com/vi/eYw4bdId_8Y/mqdefault.jpg","viewCount":"293","playlistId":"PLEkQk5xrP-tnmTYsyW6xNdyfhPq0Bhrhj","playlistName":"مقرأة الفجر - القُرْآنُ الكَرِيمُ - خَتْمَةُ التَّدَبُّرِ  أ.د. يسري جبر","category":"متنوع"},{"id":"lgfz9gETzqk","title":"مقرأة سورة سبأ من آية ٢٨","publishedAt":"2018-08-12T08:36:28Z","duration":"PT12M25S","thumbnail":"https://i.ytimg.com/vi/lgfz9gETzqk/mqdefault.jpg","viewCount":"269","playlistId":"PLEkQk5xrP-tnmTYsyW6xNdyfhPq0Bhrhj","playlistName":"مقرأة الفجر - القُرْآنُ الكَرِيمُ - خَتْمَةُ التَّدَبُّرِ  أ.د. يسري جبر","category":"متنوع"},{"id":"iW4if3uBVZU","title":"مقرأة سورة سبأ من آية ٣٤","publishedAt":"2018-08-13T07:55:16Z","duration":"PT9M30S","thumbnail":"https://i.ytimg.com/vi/iW4if3uBVZU/mqdefault.jpg","viewCount":"243","playlistId":"PLEkQk5xrP-tnmTYsyW6xNdyfhPq0Bhrhj","playlistName":"مقرأة الفجر - القُرْآنُ الكَرِيمُ - خَتْمَةُ التَّدَبُّرِ  أ.د. يسري جبر","category":"متنوع"},{"id":"lqkR5amBXkE","title":"مقرأة سورة سبأ من آية ٣٨","publishedAt":"2018-08-14T10:23:39Z","duration":"PT10M52S","thumbnail":"https://i.ytimg.com/vi/lqkR5amBXkE/mqdefault.jpg","viewCount":"324","playlistId":"PLEkQk5xrP-tnmTYsyW6xNdyfhPq0Bhrhj","playlistName":"مقرأة الفجر - القُرْآنُ الكَرِيمُ - خَتْمَةُ التَّدَبُّرِ  أ.د. يسري جبر","category":"متنوع"},{"id":"Rr78Yel83iU","title":"مقرأة سورة سبأ من آية ٤٠","publishedAt":"2018-08-15T07:33:01Z","duration":"PT5M6S","thumbnail":"https://i.ytimg.com/vi/Rr78Yel83iU/mqdefault.jpg","viewCount":"210","playlistId":"PLEkQk5xrP-tnmTYsyW6xNdyfhPq0Bhrhj","playlistName":"مقرأة الفجر - القُرْآنُ الكَرِيمُ - خَتْمَةُ التَّدَبُّرِ  أ.د. يسري جبر","category":"متنوع"}],"total":942,"page":26,"pageSize":24,"totalPages":40}