{"items":[{"id":"7vuqDXNfm4I","title":"مقرأة سورة الرعد من آية ٥","publishedAt":"2017-07-17T11:03:43Z","duration":"PT16M39S","thumbnail":"https://i.ytimg.com/vi/7vuqDXNfm4I/mqdefault.jpg","viewCount":"462","playlistId":"PLEkQk5xrP-tnmTYsyW6xNdyfhPq0Bhrhj","playlistName":"مقرأة الفجر - القُرْآنُ الكَرِيمُ - خَتْمَةُ التَّدَبُّرِ  أ.د. يسري جبر","category":"متنوع"},{"id":"dUuBo8qAnPY","title":"مقرأة سورة الرعد من آية ٨","publishedAt":"2017-07-18T08:58:01Z","duration":"PT15M20S","thumbnail":"https://i.ytimg.com/vi/dUuBo8qAnPY/mqdefault.jpg","viewCount":"458","playlistId":"PLEkQk5xrP-tnmTYsyW6xNdyfhPq0Bhrhj","playlistName":"مقرأة الفجر - القُرْآنُ الكَرِيمُ - خَتْمَةُ التَّدَبُّرِ  أ.د. يسري جبر","category":"متنوع"},{"id":"wGsD0WQAmUU","title":"مقرأة سورة الرعد من آية ١٢","publishedAt":"2017-07-19T11:23:38Z","duration":"PT12M40S","thumbnail":"https://i.ytimg.com/vi/wGsD0WQAmUU/mqdefault.jpg","viewCount":"380","playlistId":"PLEkQk5xrP-tnmTYsyW6xNdyfhPq0Bhrhj","playlistName":"مقرأة الفجر - القُرْآنُ الكَرِيمُ - خَتْمَةُ التَّدَبُّرِ  أ.د. يسري جبر","category":"متنوع"},{"id":"pienVb1A8lI","title":"مقرأة سورة الرعد من آية ١٦","publishedAt":"2017-07-20T10:41:37Z","duration":"PT15M42S","thumbnail":"https://i.ytimg.com/vi/pienVb1A8lI/mqdefault.jpg","viewCount":"354","playlistId":"PLEkQk5xrP-tnmTYsyW6xNdyfhPq0Bhrhj","playlistName":"مقرأة الفجر - القُرْآنُ الكَرِيمُ - خَتْمَةُ التَّدَبُّرِ  أ.د. يسري جبر","category":"متنوع"},{"id":"UkUBuVr6rEQ","title":"سورة الرعد آية 19","publishedAt":"2017-07-21T13:23:52Z","duration":"PT15M29S","thumbnail":"https://i.ytimg.com/vi/UkUBuVr6rEQ/mqdefault.jpg","viewCount":"330","playlistId":"PLEkQk5xrP-tnmTYsyW6xNdyfhPq0Bhrhj","playlistName":"مقرأة الفجر - القُرْآنُ الكَرِيمُ - خَتْمَةُ التَّدَبُّرِ  أ.د. يسري جبر","category":"متنوع"},{"id":"z3ICzL8cDyk","title":"مقرأة سورة الرعد من آية ٢٥","publishedAt":"2017-07-22T11:02:50Z","duration":"PT22M52S","thumbnail":"https://i.ytimg.com/vi/z3ICzL8cDyk/mqdefault.jpg","viewCount":"469","playlistId":"PLEkQk5xrP-tnmTYsyW6xNdyfhPq0Bhrhj","playlistName":"مقرأة الفجر - القُرْآنُ الكَرِيمُ - خَتْمَةُ التَّدَبُّرِ  أ.د. يسري جبر","category":"متنوع"},{"id":"ZJ3Qe-y0AzA","title":"مقرأة سورة الرعد من آية ٣٢","publishedAt":"2017-07-23T09:28:50Z","duration":"PT13M50S","thumbnail":"https://i.ytimg.com/vi/ZJ3Qe-y0AzA/mqdefault.jpg","viewCount":"298","playlistId":"PLEkQk5xrP-tnmTYsyW6xNdyfhPq0Bhrhj","playlistName":"مقرأة الفجر - القُرْآنُ الكَرِيمُ - خَتْمَةُ التَّدَبُّرِ  أ.د. يسري جبر","category":"متنوع"},{"id":"LFVRNVa6I5I","title":"مقرأة سورة الرعد من آية ٣٥","publishedAt":"2017-07-24T12:16:10Z","duration":"PT20M12S","thumbnail":"https://i.ytimg.com/vi/LFVRNVa6I5I/mqdefault.jpg","viewCount":"308","playlistId":"PLEkQk5xrP-tnmTYsyW6xNdyfhPq0Bhrhj","playlistName":"مقرأة الفجر - القُرْآنُ الكَرِيمُ - خَتْمَةُ التَّدَبُّرِ  أ.د. يسري جبر","category":"متنوع"},{"id":"QS9nvOfURuI","title":"مقرأة سورة الرعد من آية ٣٨","publishedAt":"2017-07-25T10:14:51Z","duration":"PT16M9S","thumbnail":"https://i.ytimg.com/vi/QS9nvOfURuI/mqdefault.jpg","viewCount":"372","playlistId":"PLEkQk5xrP-tnmTYsyW6xNdyfhPq0Bhrhj","playlistName":"مقرأة الفجر - القُرْآنُ الكَرِيمُ - خَتْمَةُ التَّدَبُّرِ  أ.د. يسري جبر","category":"متنوع"},{"id":"ultmvdZPdL4","title":"مقرأة سورة إبراهيم من أولها","publishedAt":"2017-07-26T12:47:01Z","duration":"PT29M39S","thumbnail":"https://i.ytimg.com/vi/ultmvdZPdL4/mqdefault.jpg","viewCount":"723","playlistId":"PLEkQk5xrP-tnmTYsyW6xNdyfhPq0Bhrhj","playlistName":"مقرأة الفجر - القُرْآنُ الكَرِيمُ - خَتْمَةُ التَّدَبُّرِ  أ.د. يسري جبر","category":"متنوع"},{"id":"nmAl0cu3k30","title":"مقرأة سورة إبراهيم من آية ٥","publishedAt":"2017-07-27T13:55:39Z","duration":"PT29M49S","thumbnail":"https://i.ytimg.com/vi/nmAl0cu3k30/mqdefault.jpg","viewCount":"456","playlistId":"PLEkQk5xrP-tnmTYsyW6xNdyfhPq0Bhrhj","playlistName":"مقرأة الفجر - القُرْآنُ الكَرِيمُ - خَتْمَةُ التَّدَبُّرِ  أ.د. يسري جبر","category":"متنوع"},{"id":"V1Sw1ndNFN4","title":"مقرأة سورة إبراهيم من آية ٧","publishedAt":"2017-07-28T07:04:10Z","duration":"PT16M32S","thumbnail":"https://i.ytimg.com/vi/V1Sw1ndNFN4/mqdefault.jpg","viewCount":"328","playlistId":"PLEkQk5xrP-tnmTYsyW6xNdyfhPq0Bhrhj","playlistName":"مقرأة الفجر - القُرْآنُ الكَرِيمُ - خَتْمَةُ التَّدَبُّرِ  أ.د. يسري جبر","category":"متنوع"},{"id":"kvTsNcnr7YA","title":"مقرأة سورة إبراهيم من آية ١٠","publishedAt":"2017-07-29T16:28:45Z","duration":"PT16M47S","thumbnail":"https://i.ytimg.com/vi/kvTsNcnr7YA/mqdefault.jpg","viewCount":"311","playlistId":"PLEkQk5xrP-tnmTYsyW6xNdyfhPq0Bhrhj","playlistName":"مقرأة الفجر - القُرْآنُ الكَرِيمُ - خَتْمَةُ التَّدَبُّرِ  أ.د. يسري جبر","category":"متنوع"},{"id":"BHNZ28ph27c","title":"مقرأة سورة إبراهيم من آية ١٣","publishedAt":"2017-07-30T07:24:24Z","duration":"PT21M28S","thumbnail":"https://i.ytimg.com/vi/BHNZ28ph27c/mqdefault.jpg","viewCount":"315","playlistId":"PLEkQk5xrP-tnmTYsyW6xNdyfhPq0Bhrhj","playlistName":"مقرأة الفجر - القُرْآنُ الكَرِيمُ - خَتْمَةُ التَّدَبُّرِ  أ.د. يسري جبر","category":"متنوع"},{"id":"eqdd8uN5JM4","title":"مقرأة سورة إبراهيم من آية ١٨","publishedAt":"2017-07-31T10:21:12Z","duration":"PT18M9S","thumbnail":"https://i.ytimg.com/vi/eqdd8uN5JM4/mqdefault.jpg","viewCount":"371","playlistId":"PLEkQk5xrP-tnmTYsyW6xNdyfhPq0Bhrhj","playlistName":"مقرأة الفجر - القُرْآنُ الكَرِيمُ - خَتْمَةُ التَّدَبُّرِ  أ.د. يسري جبر","category":"متنوع"},{"id":"dynu39YdwwQ","title":"مقرأة الفجر من سورة إبراهيم آية ٢٢","publishedAt":"2017-08-01T08:05:00Z","duration":"PT28M18S","thumbnail":"https://i.ytimg.com/vi/dynu39YdwwQ/mqdefault.jpg","viewCount":"396","playlistId":"PLEkQk5xrP-tnmTYsyW6xNdyfhPq0Bhrhj","playlistName":"مقرأة الفجر - القُرْآنُ الكَرِيمُ - خَتْمَةُ التَّدَبُّرِ  أ.د. يسري جبر","category":"متنوع"},{"id":"4eSS1jFdwlk","title":"مقرأة الفجر من سورة إبراهيم آية ٢٨","publishedAt":"2017-08-02T14:10:38Z","duration":"PT23M35S","thumbnail":"https://i.ytimg.com/vi/4eSS1jFdwlk/mqdefault.jpg","viewCount":"285","playlistId":"PLEkQk5xrP-tnmTYsyW6xNdyfhPq0Bhrhj","playlistName":"مقرأة الفجر - القُرْآنُ الكَرِيمُ - خَتْمَةُ التَّدَبُّرِ  أ.د. يسري جبر","category":"متنوع"},{"id":"m0tgzHRUMRM","title":"مقرأة الفجر من سورة إبراهيم آية ٣٥","publishedAt":"2017-08-03T12:59:53Z","duration":"PT20M59S","thumbnail":"https://i.ytimg.com/vi/m0tgzHRUMRM/mqdefault.jpg","viewCount":"328","playlistId":"PLEkQk5xrP-tnmTYsyW6xNdyfhPq0Bhrhj","playlistName":"مقرأة الفجر - القُرْآنُ الكَرِيمُ - خَتْمَةُ التَّدَبُّرِ  أ.د. يسري جبر","category":"متنوع"},{"id":"PGAD8fe30xc","title":"مقرأة الفجر من سورة إبراهيم آية ٤٢","publishedAt":"2017-08-04T09:16:30Z","duration":"PT25M50S","thumbnail":"https://i.ytimg.com/vi/PGAD8fe30xc/mqdefault.jpg","viewCount":"355","playlistId":"PLEkQk5xrP-tnmTYsyW6xNdyfhPq0Bhrhj","playlistName":"مقرأة الفجر - القُرْآنُ الكَرِيمُ - خَتْمَةُ التَّدَبُّرِ  أ.د. يسري جبر","category":"متنوع"},{"id":"xWh9kcJ2MAs","title":"مقرأة الفجر من سورة الحجر آية ١","publishedAt":"2017-08-05T14:14:59Z","duration":"PT18M39S","thumbnail":"https://i.ytimg.com/vi/xWh9kcJ2MAs/mqdefault.jpg","viewCount":"536","playlistId":"PLEkQk5xrP-tnmTYsyW6xNdyfhPq0Bhrhj","playlistName":"مقرأة الفجر - القُرْآنُ الكَرِيمُ - خَتْمَةُ التَّدَبُّرِ  أ.د. يسري جبر","category":"متنوع"},{"id":"DjZKJv-AJrw","title":"مقرأة سورة الحجر من آية ١١","publishedAt":"2017-08-06T07:27:16Z","duration":"PT18M58S","thumbnail":"https://i.ytimg.com/vi/DjZKJv-AJrw/mqdefault.jpg","viewCount":"360","playlistId":"PLEkQk5xrP-tnmTYsyW6xNdyfhPq0Bhrhj","playlistName":"مقرأة الفجر - القُرْآنُ الكَرِيمُ - خَتْمَةُ التَّدَبُّرِ  أ.د. يسري جبر","category":"متنوع"},{"id":"Nl1Vm5lYpjU","title":"مقرأة سورة الحجر من آية ١٦","publishedAt":"2017-08-07T08:21:10Z","duration":"PT20M32S","thumbnail":"https://i.ytimg.com/vi/Nl1Vm5lYpjU/mqdefault.jpg","viewCount":"367","playlistId":"PLEkQk5xrP-tnmTYsyW6xNdyfhPq0Bhrhj","playlistName":"مقرأة الفجر - القُرْآنُ الكَرِيمُ - خَتْمَةُ التَّدَبُّرِ  أ.د. يسري جبر","category":"متنوع"},{"id":"H0-a9qjLT6Q","title":"مقرأة سورة الحجر من آية ٢٦","publishedAt":"2017-08-08T09:20:11Z","duration":"PT38M22S","thumbnail":"https://i.ytimg.com/vi/H0-a9qjLT6Q/mqdefault.jpg","viewCount":"464","playlistId":"PLEkQk5xrP-tnmTYsyW6xNdyfhPq0Bhrhj","playlistName":"مقرأة الفجر - القُرْآنُ الكَرِيمُ - خَتْمَةُ التَّدَبُّرِ  أ.د. يسري جبر","category":"متنوع"},{"id":"0KFgTK0pj3Q","title":"مقرأة سورة الحجر من آية ٤٥","publishedAt":"2017-08-09T07:55:53Z","duration":"PT16M58S","thumbnail":"https://i.ytimg.com/vi/0KFgTK0pj3Q/mqdefault.jpg","viewCount":"380","playlistId":"PLEkQk5xrP-tnmTYsyW6xNdyfhPq0Bhrhj","playlistName":"مقرأة الفجر - القُرْآنُ الكَرِيمُ - خَتْمَةُ التَّدَبُّرِ  أ.د. يسري جبر","category":"متنوع"}],"total":942,"page":14,"pageSize":24,"totalPages":40}