{"items":[{"id":"RDBE2Z47i3U","title":"سورة المائدة ايه 5","publishedAt":"2016-10-06T03:28:25Z","duration":"PT8M23S","thumbnail":"https://i.ytimg.com/vi/RDBE2Z47i3U/mqdefault.jpg","viewCount":"447","playlistId":"PLEkQk5xrP-tnmTYsyW6xNdyfhPq0Bhrhj","playlistName":"مقرأة الفجر - القُرْآنُ الكَرِيمُ - خَتْمَةُ التَّدَبُّرِ  أ.د. يسري جبر","category":"متنوع"},{"id":"qax-pwEppCk","title":"قراءة وتفسير سورة المائدة آية 6","publishedAt":"2016-10-27T03:55:02Z","duration":"PT33M58S","thumbnail":"https://i.ytimg.com/vi/qax-pwEppCk/mqdefault.jpg","viewCount":"629","playlistId":"PLEkQk5xrP-tnmTYsyW6xNdyfhPq0Bhrhj","playlistName":"مقرأة الفجر - القُرْآنُ الكَرِيمُ - خَتْمَةُ التَّدَبُّرِ  أ.د. يسري جبر","category":"متنوع"},{"id":"7yFAVlNDbtU","title":"قراءة وتفسير سورة المائدة من آية ٨","publishedAt":"2016-10-28T12:36:31Z","duration":"PT23M39S","thumbnail":"https://i.ytimg.com/vi/7yFAVlNDbtU/mqdefault.jpg","viewCount":"496","playlistId":"PLEkQk5xrP-tnmTYsyW6xNdyfhPq0Bhrhj","playlistName":"مقرأة الفجر - القُرْآنُ الكَرِيمُ - خَتْمَةُ التَّدَبُّرِ  أ.د. يسري جبر","category":"متنوع"},{"id":"sJGsfUbVbdE","title":"سورة المائدة آية 12","publishedAt":"2016-10-29T03:42:56Z","duration":"PT10M52S","thumbnail":"https://i.ytimg.com/vi/sJGsfUbVbdE/mqdefault.jpg","viewCount":"384","playlistId":"PLEkQk5xrP-tnmTYsyW6xNdyfhPq0Bhrhj","playlistName":"مقرأة الفجر - القُرْآنُ الكَرِيمُ - خَتْمَةُ التَّدَبُّرِ  أ.د. يسري جبر","category":"متنوع"},{"id":"cN7ntqC4OOM","title":"سورة المائدة آية 14","publishedAt":"2016-10-30T04:05:04Z","duration":"PT12M24S","thumbnail":"https://i.ytimg.com/vi/cN7ntqC4OOM/mqdefault.jpg","viewCount":"418","playlistId":"PLEkQk5xrP-tnmTYsyW6xNdyfhPq0Bhrhj","playlistName":"مقرأة الفجر - القُرْآنُ الكَرِيمُ - خَتْمَةُ التَّدَبُّرِ  أ.د. يسري جبر","category":"متنوع"},{"id":"s-TEi3-e4Ls","title":"سورة المائدة آية 17","publishedAt":"2016-10-31T03:42:51Z","duration":"PT11M58S","thumbnail":"https://i.ytimg.com/vi/s-TEi3-e4Ls/mqdefault.jpg","viewCount":"393","playlistId":"PLEkQk5xrP-tnmTYsyW6xNdyfhPq0Bhrhj","playlistName":"مقرأة الفجر - القُرْآنُ الكَرِيمُ - خَتْمَةُ التَّدَبُّرِ  أ.د. يسري جبر","category":"متنوع"},{"id":"7myZezN3sN0","title":"سورة المائدة آية 20","publishedAt":"2016-11-01T05:38:33Z","duration":"PT16M29S","thumbnail":"https://i.ytimg.com/vi/7myZezN3sN0/mqdefault.jpg","viewCount":"433","playlistId":"PLEkQk5xrP-tnmTYsyW6xNdyfhPq0Bhrhj","playlistName":"مقرأة الفجر - القُرْآنُ الكَرِيمُ - خَتْمَةُ التَّدَبُّرِ  أ.د. يسري جبر","category":"متنوع"},{"id":"ee5NpOB-5-M","title":"سورة المائدة آية 27","publishedAt":"2016-11-03T04:28:41Z","duration":"PT19M51S","thumbnail":"https://i.ytimg.com/vi/ee5NpOB-5-M/mqdefault.jpg","viewCount":"425","playlistId":"PLEkQk5xrP-tnmTYsyW6xNdyfhPq0Bhrhj","playlistName":"مقرأة الفجر - القُرْآنُ الكَرِيمُ - خَتْمَةُ التَّدَبُّرِ  أ.د. يسري جبر","category":"متنوع"},{"id":"yi52_dhMSfo","title":"سورة المائدة آية 32","publishedAt":"2016-11-04T05:49:11Z","duration":"PT11M48S","thumbnail":"https://i.ytimg.com/vi/yi52_dhMSfo/mqdefault.jpg","viewCount":"406","playlistId":"PLEkQk5xrP-tnmTYsyW6xNdyfhPq0Bhrhj","playlistName":"مقرأة الفجر - القُرْآنُ الكَرِيمُ - خَتْمَةُ التَّدَبُّرِ  أ.د. يسري جبر","category":"متنوع"},{"id":"6r8uyslfhnI","title":"سورة المائدة آية 35","publishedAt":"2016-11-04T11:14:22Z","duration":"PT22M51S","thumbnail":"https://i.ytimg.com/vi/6r8uyslfhnI/mqdefault.jpg","viewCount":"418","playlistId":"PLEkQk5xrP-tnmTYsyW6xNdyfhPq0Bhrhj","playlistName":"مقرأة الفجر - القُرْآنُ الكَرِيمُ - خَتْمَةُ التَّدَبُّرِ  أ.د. يسري جبر","category":"متنوع"},{"id":"noNbftcMAL0","title":"سورة المائدة آية 41","publishedAt":"2016-11-04T12:01:44Z","duration":"PT9M17S","thumbnail":"https://i.ytimg.com/vi/noNbftcMAL0/mqdefault.jpg","viewCount":"416","playlistId":"PLEkQk5xrP-tnmTYsyW6xNdyfhPq0Bhrhj","playlistName":"مقرأة الفجر - القُرْآنُ الكَرِيمُ - خَتْمَةُ التَّدَبُّرِ  أ.د. يسري جبر","category":"متنوع"},{"id":"EwJN3qkmIs4","title":"سورة المائدة آية 42","publishedAt":"2016-11-10T04:24:06Z","duration":"PT18M41S","thumbnail":"https://i.ytimg.com/vi/EwJN3qkmIs4/mqdefault.jpg","viewCount":"390","playlistId":"PLEkQk5xrP-tnmTYsyW6xNdyfhPq0Bhrhj","playlistName":"مقرأة الفجر - القُرْآنُ الكَرِيمُ - خَتْمَةُ التَّدَبُّرِ  أ.د. يسري جبر","category":"متنوع"},{"id":"43RTwm4Myhw","title":"سورة المائدة آية 45","publishedAt":"2016-11-11T04:05:55Z","duration":"PT10M11S","thumbnail":"https://i.ytimg.com/vi/43RTwm4Myhw/mqdefault.jpg","viewCount":"361","playlistId":"PLEkQk5xrP-tnmTYsyW6xNdyfhPq0Bhrhj","playlistName":"مقرأة الفجر - القُرْآنُ الكَرِيمُ - خَتْمَةُ التَّدَبُّرِ  أ.د. يسري جبر","category":"متنوع"},{"id":"RDRY0uDxQ_4","title":"سورة المائدة آية 48","publishedAt":"2016-11-11T11:05:40Z","duration":"PT15M18S","thumbnail":"https://i.ytimg.com/vi/RDRY0uDxQ_4/mqdefault.jpg","viewCount":"377","playlistId":"PLEkQk5xrP-tnmTYsyW6xNdyfhPq0Bhrhj","playlistName":"مقرأة الفجر - القُرْآنُ الكَرِيمُ - خَتْمَةُ التَّدَبُّرِ  أ.د. يسري جبر","category":"متنوع"},{"id":"7i5x8JAMm8k","title":"سورة المائدة آية 51","publishedAt":"2016-11-11T12:46:56Z","duration":"PT14M58S","thumbnail":"https://i.ytimg.com/vi/7i5x8JAMm8k/mqdefault.jpg","viewCount":"464","playlistId":"PLEkQk5xrP-tnmTYsyW6xNdyfhPq0Bhrhj","playlistName":"مقرأة الفجر - القُرْآنُ الكَرِيمُ - خَتْمَةُ التَّدَبُّرِ  أ.د. يسري جبر","category":"متنوع"},{"id":"mMMfB7yZp-I","title":"سورة المائدة آية 54","publishedAt":"2016-11-12T04:00:17Z","duration":"PT15M42S","thumbnail":"https://i.ytimg.com/vi/mMMfB7yZp-I/mqdefault.jpg","viewCount":"429","playlistId":"PLEkQk5xrP-tnmTYsyW6xNdyfhPq0Bhrhj","playlistName":"مقرأة الفجر - القُرْآنُ الكَرِيمُ - خَتْمَةُ التَّدَبُّرِ  أ.د. يسري جبر","category":"متنوع"},{"id":"L1mvzF2pOgA","title":"سورة المائدة آية 57","publishedAt":"2016-11-12T05:43:18Z","duration":"PT12M47S","thumbnail":"https://i.ytimg.com/vi/L1mvzF2pOgA/mqdefault.jpg","viewCount":"358","playlistId":"PLEkQk5xrP-tnmTYsyW6xNdyfhPq0Bhrhj","playlistName":"مقرأة الفجر - القُرْآنُ الكَرِيمُ - خَتْمَةُ التَّدَبُّرِ  أ.د. يسري جبر","category":"متنوع"},{"id":"7W81aD_xn0o","title":"سورة المائدة آية 61","publishedAt":"2016-11-15T05:52:08Z","duration":"PT17M3S","thumbnail":"https://i.ytimg.com/vi/7W81aD_xn0o/mqdefault.jpg","viewCount":"423","playlistId":"PLEkQk5xrP-tnmTYsyW6xNdyfhPq0Bhrhj","playlistName":"مقرأة الفجر - القُرْآنُ الكَرِيمُ - خَتْمَةُ التَّدَبُّرِ  أ.د. يسري جبر","category":"متنوع"},{"id":"YLZ8Dn6PJQ4","title":"سورة المائدة آية 67","publishedAt":"2016-11-16T02:10:25Z","duration":"PT17M13S","thumbnail":"https://i.ytimg.com/vi/YLZ8Dn6PJQ4/mqdefault.jpg","viewCount":"422","playlistId":"PLEkQk5xrP-tnmTYsyW6xNdyfhPq0Bhrhj","playlistName":"مقرأة الفجر - القُرْآنُ الكَرِيمُ - خَتْمَةُ التَّدَبُّرِ  أ.د. يسري جبر","category":"متنوع"},{"id":"hLiCMofAcVs","title":"سورة المائدة آية 65","publishedAt":"2016-11-16T03:59:19Z","duration":"PT3M59S","thumbnail":"https://i.ytimg.com/vi/hLiCMofAcVs/mqdefault.jpg","viewCount":"307","playlistId":"PLEkQk5xrP-tnmTYsyW6xNdyfhPq0Bhrhj","playlistName":"مقرأة الفجر - القُرْآنُ الكَرِيمُ - خَتْمَةُ التَّدَبُّرِ  أ.د. يسري جبر","category":"متنوع"},{"id":"itTF2Hd3u18","title":"سورة المائدة آية 72","publishedAt":"2016-11-20T06:19:46Z","duration":"PT19M27S","thumbnail":"https://i.ytimg.com/vi/itTF2Hd3u18/mqdefault.jpg","viewCount":"446","playlistId":"PLEkQk5xrP-tnmTYsyW6xNdyfhPq0Bhrhj","playlistName":"مقرأة الفجر - القُرْآنُ الكَرِيمُ - خَتْمَةُ التَّدَبُّرِ  أ.د. يسري جبر","category":"متنوع"},{"id":"J56cnXiKkfQ","title":"سورة المائدة آية 82","publishedAt":"2016-11-20T15:23:00Z","duration":"PT12M44S","thumbnail":"https://i.ytimg.com/vi/J56cnXiKkfQ/mqdefault.jpg","viewCount":"378","playlistId":"PLEkQk5xrP-tnmTYsyW6xNdyfhPq0Bhrhj","playlistName":"مقرأة الفجر - القُرْآنُ الكَرِيمُ - خَتْمَةُ التَّدَبُّرِ  أ.د. يسري جبر","category":"متنوع"},{"id":"KJek24gVXQ8","title":"سورة المائدة آية 87","publishedAt":"2016-11-21T02:59:30Z","duration":"PT23M21S","thumbnail":"https://i.ytimg.com/vi/KJek24gVXQ8/mqdefault.jpg","viewCount":"370","playlistId":"PLEkQk5xrP-tnmTYsyW6xNdyfhPq0Bhrhj","playlistName":"مقرأة الفجر - القُرْآنُ الكَرِيمُ - خَتْمَةُ التَّدَبُّرِ  أ.د. يسري جبر","category":"متنوع"},{"id":"PMZSxEBiIcw","title":"سورة المائدة آية 90","publishedAt":"2016-11-22T06:38:17Z","duration":"PT18M39S","thumbnail":"https://i.ytimg.com/vi/PMZSxEBiIcw/mqdefault.jpg","viewCount":"367","playlistId":"PLEkQk5xrP-tnmTYsyW6xNdyfhPq0Bhrhj","playlistName":"مقرأة الفجر - القُرْآنُ الكَرِيمُ - خَتْمَةُ التَّدَبُّرِ  أ.د. يسري جبر","category":"متنوع"}],"total":942,"page":6,"pageSize":24,"totalPages":40}