{"items":[{"id":"h7Cj6VwuOd0","title":"سورة التوبة آية 16","publishedAt":"2017-03-31T04:42:00Z","duration":"PT18M2S","thumbnail":"https://i.ytimg.com/vi/h7Cj6VwuOd0/mqdefault.jpg","viewCount":"469","playlistId":"PLEkQk5xrP-tnmTYsyW6xNdyfhPq0Bhrhj","playlistName":"مقرأة الفجر - القُرْآنُ الكَرِيمُ - خَتْمَةُ التَّدَبُّرِ  أ.د. يسري جبر","category":"متنوع"},{"id":"loUzDnqV9zw","title":"سورة التوبة آية 20","publishedAt":"2017-04-08T21:28:31Z","duration":"PT22M19S","thumbnail":"https://i.ytimg.com/vi/loUzDnqV9zw/mqdefault.jpg","viewCount":"496","playlistId":"PLEkQk5xrP-tnmTYsyW6xNdyfhPq0Bhrhj","playlistName":"مقرأة الفجر - القُرْآنُ الكَرِيمُ - خَتْمَةُ التَّدَبُّرِ  أ.د. يسري جبر","category":"متنوع"},{"id":"PRgzw7Jrt30","title":"سورة التوبة آية 24","publishedAt":"2017-04-09T17:13:52Z","duration":"PT14M21S","thumbnail":"https://i.ytimg.com/vi/PRgzw7Jrt30/mqdefault.jpg","viewCount":"440","playlistId":"PLEkQk5xrP-tnmTYsyW6xNdyfhPq0Bhrhj","playlistName":"مقرأة الفجر - القُرْآنُ الكَرِيمُ - خَتْمَةُ التَّدَبُّرِ  أ.د. يسري جبر","category":"متنوع"},{"id":"KDZ5Uyo5kN4","title":"سورة التوبة آية 28","publishedAt":"2017-04-11T15:30:09Z","duration":"PT20M54S","thumbnail":"https://i.ytimg.com/vi/KDZ5Uyo5kN4/mqdefault.jpg","viewCount":"460","playlistId":"PLEkQk5xrP-tnmTYsyW6xNdyfhPq0Bhrhj","playlistName":"مقرأة الفجر - القُرْآنُ الكَرِيمُ - خَتْمَةُ التَّدَبُّرِ  أ.د. يسري جبر","category":"متنوع"},{"id":"5YJNASeHTSM","title":"سورة التوبة  آية 30","publishedAt":"2017-04-13T06:23:18Z","duration":"PT11M48S","thumbnail":"https://i.ytimg.com/vi/5YJNASeHTSM/mqdefault.jpg","viewCount":"385","playlistId":"PLEkQk5xrP-tnmTYsyW6xNdyfhPq0Bhrhj","playlistName":"مقرأة الفجر - القُرْآنُ الكَرِيمُ - خَتْمَةُ التَّدَبُّرِ  أ.د. يسري جبر","category":"متنوع"},{"id":"wyyyj1S9iUc","title":"سورة التوبة آية 34","publishedAt":"2017-04-15T07:59:11Z","duration":"PT12M30S","thumbnail":"https://i.ytimg.com/vi/wyyyj1S9iUc/mqdefault.jpg","viewCount":"299","playlistId":"PLEkQk5xrP-tnmTYsyW6xNdyfhPq0Bhrhj","playlistName":"مقرأة الفجر - القُرْآنُ الكَرِيمُ - خَتْمَةُ التَّدَبُّرِ  أ.د. يسري جبر","category":"متنوع"},{"id":"rToSXp9DG9c","title":"مقرأة سورة التوبة من آية ٣٦","publishedAt":"2017-04-16T12:42:55Z","duration":"PT23M37S","thumbnail":"https://i.ytimg.com/vi/rToSXp9DG9c/mqdefault.jpg","viewCount":"349","playlistId":"PLEkQk5xrP-tnmTYsyW6xNdyfhPq0Bhrhj","playlistName":"مقرأة الفجر - القُرْآنُ الكَرِيمُ - خَتْمَةُ التَّدَبُّرِ  أ.د. يسري جبر","category":"متنوع"},{"id":"m-KCFnCASNg","title":"مقرأة سورة التوبة من آية ٣٩","publishedAt":"2017-04-16T21:39:35Z","duration":"PT19M55S","thumbnail":"https://i.ytimg.com/vi/m-KCFnCASNg/mqdefault.jpg","viewCount":"349","playlistId":"PLEkQk5xrP-tnmTYsyW6xNdyfhPq0Bhrhj","playlistName":"مقرأة الفجر - القُرْآنُ الكَرِيمُ - خَتْمَةُ التَّدَبُّرِ  أ.د. يسري جبر","category":"متنوع"},{"id":"NzJWZItc_zs","title":"سورة التوبة آية 43","publishedAt":"2017-04-18T11:58:48Z","duration":"PT24M24S","thumbnail":"https://i.ytimg.com/vi/NzJWZItc_zs/mqdefault.jpg","viewCount":"477","playlistId":"PLEkQk5xrP-tnmTYsyW6xNdyfhPq0Bhrhj","playlistName":"مقرأة الفجر - القُرْآنُ الكَرِيمُ - خَتْمَةُ التَّدَبُّرِ  أ.د. يسري جبر","category":"متنوع"},{"id":"134iWWWnPFg","title":"سورة التوبة آية 49","publishedAt":"2017-04-19T13:52:42Z","duration":"PT15M20S","thumbnail":"https://i.ytimg.com/vi/134iWWWnPFg/mqdefault.jpg","viewCount":"450","playlistId":"PLEkQk5xrP-tnmTYsyW6xNdyfhPq0Bhrhj","playlistName":"مقرأة الفجر - القُرْآنُ الكَرِيمُ - خَتْمَةُ التَّدَبُّرِ  أ.د. يسري جبر","category":"متنوع"},{"id":"EFnD0MCzuJ4","title":"سورة التوبة آية 55","publishedAt":"2017-04-20T10:28:46Z","duration":"PT31M11S","thumbnail":"https://i.ytimg.com/vi/EFnD0MCzuJ4/mqdefault.jpg","viewCount":"435","playlistId":"PLEkQk5xrP-tnmTYsyW6xNdyfhPq0Bhrhj","playlistName":"مقرأة الفجر - القُرْآنُ الكَرِيمُ - خَتْمَةُ التَّدَبُّرِ  أ.د. يسري جبر","category":"متنوع"},{"id":"9KkSYd5AA9U","title":"سورة التوبة آية 61","publishedAt":"2017-04-23T11:16:20Z","duration":"PT15M","thumbnail":"https://i.ytimg.com/vi/9KkSYd5AA9U/mqdefault.jpg","viewCount":"386","playlistId":"PLEkQk5xrP-tnmTYsyW6xNdyfhPq0Bhrhj","playlistName":"مقرأة الفجر - القُرْآنُ الكَرِيمُ - خَتْمَةُ التَّدَبُّرِ  أ.د. يسري جبر","category":"متنوع"},{"id":"qrR7fLzg3Uw","title":"سورة التوبة آية 67","publishedAt":"2017-04-24T12:46:24Z","duration":"PT14M44S","thumbnail":"https://i.ytimg.com/vi/qrR7fLzg3Uw/mqdefault.jpg","viewCount":"294","playlistId":"PLEkQk5xrP-tnmTYsyW6xNdyfhPq0Bhrhj","playlistName":"مقرأة الفجر - القُرْآنُ الكَرِيمُ - خَتْمَةُ التَّدَبُّرِ  أ.د. يسري جبر","category":"متنوع"},{"id":"ywX6_sY6pog","title":"سورة التوبة آية 71","publishedAt":"2017-04-25T08:17:36Z","duration":"PT19M30S","thumbnail":"https://i.ytimg.com/vi/ywX6_sY6pog/mqdefault.jpg","viewCount":"368","playlistId":"PLEkQk5xrP-tnmTYsyW6xNdyfhPq0Bhrhj","playlistName":"مقرأة الفجر - القُرْآنُ الكَرِيمُ - خَتْمَةُ التَّدَبُّرِ  أ.د. يسري جبر","category":"متنوع"},{"id":"60MU5WDs8nE","title":"سورة التوبة آية 75","publishedAt":"2017-04-26T08:21:39Z","duration":"PT10M38S","thumbnail":"https://i.ytimg.com/vi/60MU5WDs8nE/mqdefault.jpg","viewCount":"299","playlistId":"PLEkQk5xrP-tnmTYsyW6xNdyfhPq0Bhrhj","playlistName":"مقرأة الفجر - القُرْآنُ الكَرِيمُ - خَتْمَةُ التَّدَبُّرِ  أ.د. يسري جبر","category":"متنوع"},{"id":"NlFBSgaXx9s","title":"سورة التوبة آية 79","publishedAt":"2017-04-27T08:53:04Z","duration":"PT21M18S","thumbnail":"https://i.ytimg.com/vi/NlFBSgaXx9s/mqdefault.jpg","viewCount":"306","playlistId":"PLEkQk5xrP-tnmTYsyW6xNdyfhPq0Bhrhj","playlistName":"مقرأة الفجر - القُرْآنُ الكَرِيمُ - خَتْمَةُ التَّدَبُّرِ  أ.د. يسري جبر","category":"متنوع"},{"id":"4rD7CHMCoqg","title":"سورة التوبة آية 84","publishedAt":"2017-04-28T06:58:21Z","duration":"PT17M29S","thumbnail":"https://i.ytimg.com/vi/4rD7CHMCoqg/mqdefault.jpg","viewCount":"386","playlistId":"PLEkQk5xrP-tnmTYsyW6xNdyfhPq0Bhrhj","playlistName":"مقرأة الفجر - القُرْآنُ الكَرِيمُ - خَتْمَةُ التَّدَبُّرِ  أ.د. يسري جبر","category":"متنوع"},{"id":"1wMZyhy8AgY","title":"سورة التوبة آية 93","publishedAt":"2017-04-29T11:46:15Z","duration":"PT8M46S","thumbnail":"https://i.ytimg.com/vi/1wMZyhy8AgY/mqdefault.jpg","viewCount":"279","playlistId":"PLEkQk5xrP-tnmTYsyW6xNdyfhPq0Bhrhj","playlistName":"مقرأة الفجر - القُرْآنُ الكَرِيمُ - خَتْمَةُ التَّدَبُّرِ  أ.د. يسري جبر","category":"متنوع"},{"id":"xo7KOqPliWY","title":"مقرأة سورة التوبة من آية ٩٧","publishedAt":"2017-04-30T10:45:48Z","duration":"PT12M28S","thumbnail":"https://i.ytimg.com/vi/xo7KOqPliWY/mqdefault.jpg","viewCount":"292","playlistId":"PLEkQk5xrP-tnmTYsyW6xNdyfhPq0Bhrhj","playlistName":"مقرأة الفجر - القُرْآنُ الكَرِيمُ - خَتْمَةُ التَّدَبُّرِ  أ.د. يسري جبر","category":"متنوع"},{"id":"MwUUR4-x-B8","title":"مقرأة سورة التوبة من آية ١٠١","publishedAt":"2017-05-01T10:49:58Z","duration":"PT17M46S","thumbnail":"https://i.ytimg.com/vi/MwUUR4-x-B8/mqdefault.jpg","viewCount":"333","playlistId":"PLEkQk5xrP-tnmTYsyW6xNdyfhPq0Bhrhj","playlistName":"مقرأة الفجر - القُرْآنُ الكَرِيمُ - خَتْمَةُ التَّدَبُّرِ  أ.د. يسري جبر","category":"متنوع"},{"id":"6N0sHp6h1Pc","title":"مقرأة سورة التوبة من آية ١٠٧","publishedAt":"2017-05-02T10:42:21Z","duration":"PT36M4S","thumbnail":"https://i.ytimg.com/vi/6N0sHp6h1Pc/mqdefault.jpg","viewCount":"367","playlistId":"PLEkQk5xrP-tnmTYsyW6xNdyfhPq0Bhrhj","playlistName":"مقرأة الفجر - القُرْآنُ الكَرِيمُ - خَتْمَةُ التَّدَبُّرِ  أ.د. يسري جبر","category":"متنوع"},{"id":"v3-1_RzOC5M","title":"مقرأة سورة التوبة من آية ١١١","publishedAt":"2017-05-03T10:51:04Z","duration":"PT17M22S","thumbnail":"https://i.ytimg.com/vi/v3-1_RzOC5M/mqdefault.jpg","viewCount":"368","playlistId":"PLEkQk5xrP-tnmTYsyW6xNdyfhPq0Bhrhj","playlistName":"مقرأة الفجر - القُرْآنُ الكَرِيمُ - خَتْمَةُ التَّدَبُّرِ  أ.د. يسري جبر","category":"متنوع"},{"id":"kVAZagR6_i8","title":"مقرأة سورة التوبة من آية ١١٦","publishedAt":"2017-05-04T09:21:09Z","duration":"PT14M19S","thumbnail":"https://i.ytimg.com/vi/kVAZagR6_i8/mqdefault.jpg","viewCount":"274","playlistId":"PLEkQk5xrP-tnmTYsyW6xNdyfhPq0Bhrhj","playlistName":"مقرأة الفجر - القُرْآنُ الكَرِيمُ - خَتْمَةُ التَّدَبُّرِ  أ.د. يسري جبر","category":"متنوع"},{"id":"fX0mr2O0x5Q","title":"مقرأة سورة التوبة من آية ١٢٠","publishedAt":"2017-05-05T18:45:28Z","duration":"PT11M17S","thumbnail":"https://i.ytimg.com/vi/fX0mr2O0x5Q/mqdefault.jpg","viewCount":"331","playlistId":"PLEkQk5xrP-tnmTYsyW6xNdyfhPq0Bhrhj","playlistName":"مقرأة الفجر - القُرْآنُ الكَرِيمُ - خَتْمَةُ التَّدَبُّرِ  أ.د. يسري جبر","category":"متنوع"}],"total":942,"page":11,"pageSize":24,"totalPages":40}