{"items":[{"id":"CEEvX9I312Q","title":"مقرأة سورة الذاريات من آية ١٥","publishedAt":"2019-02-04T11:21:08Z","duration":"PT10M35S","thumbnail":"https://i.ytimg.com/vi/CEEvX9I312Q/mqdefault.jpg","viewCount":"455","playlistId":"PLEkQk5xrP-tnmTYsyW6xNdyfhPq0Bhrhj","playlistName":"مقرأة الفجر - القُرْآنُ الكَرِيمُ - خَتْمَةُ التَّدَبُّرِ  أ.د. يسري جبر","category":"متنوع"},{"id":"qEqNXJ_iSBM","title":"مقرأة سورة الذاريات من آية ٢٤","publishedAt":"2019-02-05T11:20:42Z","duration":"PT21M47S","thumbnail":"https://i.ytimg.com/vi/qEqNXJ_iSBM/mqdefault.jpg","viewCount":"441","playlistId":"PLEkQk5xrP-tnmTYsyW6xNdyfhPq0Bhrhj","playlistName":"مقرأة الفجر - القُرْآنُ الكَرِيمُ - خَتْمَةُ التَّدَبُّرِ  أ.د. يسري جبر","category":"متنوع"},{"id":"b_N96Tzhcl8","title":"سورة الذاريات من آية ٣٨","publishedAt":"2019-02-06T13:17:39Z","duration":"PT19M11S","thumbnail":"https://i.ytimg.com/vi/b_N96Tzhcl8/mqdefault.jpg","viewCount":"512","playlistId":"PLEkQk5xrP-tnmTYsyW6xNdyfhPq0Bhrhj","playlistName":"مقرأة الفجر - القُرْآنُ الكَرِيمُ - خَتْمَةُ التَّدَبُّرِ  أ.د. يسري جبر","category":"متنوع"},{"id":"KVg1O8kM6ds","title":"مقرأة سورة الذاريات من آية ٤٧","publishedAt":"2019-02-07T10:34:49Z","duration":"PT16M12S","thumbnail":"https://i.ytimg.com/vi/KVg1O8kM6ds/mqdefault.jpg","viewCount":"1200","playlistId":"PLEkQk5xrP-tnmTYsyW6xNdyfhPq0Bhrhj","playlistName":"مقرأة الفجر - القُرْآنُ الكَرِيمُ - خَتْمَةُ التَّدَبُّرِ  أ.د. يسري جبر","category":"متنوع"},{"id":"kVT5DgQ_g0o","title":"مقرأة سورة الطورمن أولها","publishedAt":"2019-02-08T21:35:09Z","duration":"PT13M51S","thumbnail":"https://i.ytimg.com/vi/kVT5DgQ_g0o/mqdefault.jpg","viewCount":"421","playlistId":"PLEkQk5xrP-tnmTYsyW6xNdyfhPq0Bhrhj","playlistName":"مقرأة الفجر - القُرْآنُ الكَرِيمُ - خَتْمَةُ التَّدَبُّرِ  أ.د. يسري جبر","category":"متنوع"},{"id":"b8GJ0kD132w","title":"مقرأة سورة الطور من آية ١٧","publishedAt":"2019-02-10T14:26:55Z","duration":"PT18M16S","thumbnail":"https://i.ytimg.com/vi/b8GJ0kD132w/mqdefault.jpg","viewCount":"413","playlistId":"PLEkQk5xrP-tnmTYsyW6xNdyfhPq0Bhrhj","playlistName":"مقرأة الفجر - القُرْآنُ الكَرِيمُ - خَتْمَةُ التَّدَبُّرِ  أ.د. يسري جبر","category":"متنوع"},{"id":"0Bgem5C-nTs","title":"مقرأة سورة الطور من آية 25","publishedAt":"2019-02-11T09:17:34Z","duration":"PT25M37S","thumbnail":"https://i.ytimg.com/vi/0Bgem5C-nTs/mqdefault.jpg","viewCount":"641","playlistId":"PLEkQk5xrP-tnmTYsyW6xNdyfhPq0Bhrhj","playlistName":"مقرأة الفجر - القُرْآنُ الكَرِيمُ - خَتْمَةُ التَّدَبُّرِ  أ.د. يسري جبر","category":"متنوع"},{"id":"YABc_AZLhMs","title":"مقرأة سورة الطور من آية ٤٤","publishedAt":"2019-02-12T10:18:56Z","duration":"PT8M20S","thumbnail":"https://i.ytimg.com/vi/YABc_AZLhMs/mqdefault.jpg","viewCount":"444","playlistId":"PLEkQk5xrP-tnmTYsyW6xNdyfhPq0Bhrhj","playlistName":"مقرأة الفجر - القُرْآنُ الكَرِيمُ - خَتْمَةُ التَّدَبُّرِ  أ.د. يسري جبر","category":"متنوع"},{"id":"N05XE_5fMfc","title":"مقرأة سورة النجم من أولها","publishedAt":"2019-02-13T12:14:12Z","duration":"PT15M31S","thumbnail":"https://i.ytimg.com/vi/N05XE_5fMfc/mqdefault.jpg","viewCount":"1967","playlistId":"PLEkQk5xrP-tnmTYsyW6xNdyfhPq0Bhrhj","playlistName":"مقرأة الفجر - القُرْآنُ الكَرِيمُ - خَتْمَةُ التَّدَبُّرِ  أ.د. يسري جبر","category":"متنوع"},{"id":"pSES5y_7PF4","title":"مقرأة سورة النجم من آية ١٩","publishedAt":"2019-02-14T14:40:32Z","duration":"PT11M52S","thumbnail":"https://i.ytimg.com/vi/pSES5y_7PF4/mqdefault.jpg","viewCount":"469","playlistId":"PLEkQk5xrP-tnmTYsyW6xNdyfhPq0Bhrhj","playlistName":"مقرأة الفجر - القُرْآنُ الكَرِيمُ - خَتْمَةُ التَّدَبُّرِ  أ.د. يسري جبر","category":"متنوع"},{"id":"DPUinPBezm0","title":"مقرأة سورة النجم من آية ٢٦","publishedAt":"2019-02-16T17:37:37Z","duration":"PT14M48S","thumbnail":"https://i.ytimg.com/vi/DPUinPBezm0/mqdefault.jpg","viewCount":"469","playlistId":"PLEkQk5xrP-tnmTYsyW6xNdyfhPq0Bhrhj","playlistName":"مقرأة الفجر - القُرْآنُ الكَرِيمُ - خَتْمَةُ التَّدَبُّرِ  أ.د. يسري جبر","category":"متنوع"},{"id":"QRWym7uSMMU","title":"مقرأة سورة النجم من آية ٣١","publishedAt":"2019-02-21T20:36:21Z","duration":"PT12M17S","thumbnail":"https://i.ytimg.com/vi/QRWym7uSMMU/mqdefault.jpg","viewCount":"372","playlistId":"PLEkQk5xrP-tnmTYsyW6xNdyfhPq0Bhrhj","playlistName":"مقرأة الفجر - القُرْآنُ الكَرِيمُ - خَتْمَةُ التَّدَبُّرِ  أ.د. يسري جبر","category":"متنوع"},{"id":"84OWnJIezbs","title":"مقرأة سورة النجم من آية ٣٣","publishedAt":"2019-02-23T21:21:44Z","duration":"PT14M58S","thumbnail":"https://i.ytimg.com/vi/84OWnJIezbs/mqdefault.jpg","viewCount":"407","playlistId":"PLEkQk5xrP-tnmTYsyW6xNdyfhPq0Bhrhj","playlistName":"مقرأة الفجر - القُرْآنُ الكَرِيمُ - خَتْمَةُ التَّدَبُّرِ  أ.د. يسري جبر","category":"متنوع"},{"id":"H_ZzHsMAK-A","title":"مقرأة سورة النجم من آية ٤٩","publishedAt":"2019-02-24T20:28:15Z","duration":"PT8M27S","thumbnail":"https://i.ytimg.com/vi/H_ZzHsMAK-A/mqdefault.jpg","viewCount":"899","playlistId":"PLEkQk5xrP-tnmTYsyW6xNdyfhPq0Bhrhj","playlistName":"مقرأة الفجر - القُرْآنُ الكَرِيمُ - خَتْمَةُ التَّدَبُّرِ  أ.د. يسري جبر","category":"متنوع"},{"id":"rrZOg_JNwFk","title":"مقرأة سورة القمر من أولها","publishedAt":"2019-02-25T14:04:16Z","duration":"PT14M51S","thumbnail":"https://i.ytimg.com/vi/rrZOg_JNwFk/mqdefault.jpg","viewCount":"1490","playlistId":"PLEkQk5xrP-tnmTYsyW6xNdyfhPq0Bhrhj","playlistName":"مقرأة الفجر - القُرْآنُ الكَرِيمُ - خَتْمَةُ التَّدَبُّرِ  أ.د. يسري جبر","category":"متنوع"},{"id":"EFvGbpvrMP8","title":"مقرأة سورة القمر من آية ٩","publishedAt":"2019-02-26T17:24:29Z","duration":"PT16M48S","thumbnail":"https://i.ytimg.com/vi/EFvGbpvrMP8/mqdefault.jpg","viewCount":"380","playlistId":"PLEkQk5xrP-tnmTYsyW6xNdyfhPq0Bhrhj","playlistName":"مقرأة الفجر - القُرْآنُ الكَرِيمُ - خَتْمَةُ التَّدَبُّرِ  أ.د. يسري جبر","category":"متنوع"},{"id":"t_9RdBmMgzg","title":"مقرأة سورة القمر من آية ٢٣","publishedAt":"2019-02-28T11:22:54Z","duration":"PT11M28S","thumbnail":"https://i.ytimg.com/vi/t_9RdBmMgzg/mqdefault.jpg","viewCount":"371","playlistId":"PLEkQk5xrP-tnmTYsyW6xNdyfhPq0Bhrhj","playlistName":"مقرأة الفجر - القُرْآنُ الكَرِيمُ - خَتْمَةُ التَّدَبُّرِ  أ.د. يسري جبر","category":"متنوع"},{"id":"0yAUEKO1wZw","title":"مقرأة سورة القمر من آية ١٨","publishedAt":"2019-02-28T20:11:36Z","duration":"PT7M22S","thumbnail":"https://i.ytimg.com/vi/0yAUEKO1wZw/mqdefault.jpg","viewCount":"307","playlistId":"PLEkQk5xrP-tnmTYsyW6xNdyfhPq0Bhrhj","playlistName":"مقرأة الفجر - القُرْآنُ الكَرِيمُ - خَتْمَةُ التَّدَبُّرِ  أ.د. يسري جبر","category":"متنوع"},{"id":"JOAVJst_XR0","title":"مقرأة سورة القمر من آية ٣٣","publishedAt":"2019-03-02T19:50:32Z","duration":"PT13M3S","thumbnail":"https://i.ytimg.com/vi/JOAVJst_XR0/mqdefault.jpg","viewCount":"356","playlistId":"PLEkQk5xrP-tnmTYsyW6xNdyfhPq0Bhrhj","playlistName":"مقرأة الفجر - القُرْآنُ الكَرِيمُ - خَتْمَةُ التَّدَبُّرِ  أ.د. يسري جبر","category":"متنوع"},{"id":"2TydmViv65o","title":"مقرأة سورة القمر من آية ٤١","publishedAt":"2019-03-03T11:02:37Z","duration":"PT12M5S","thumbnail":"https://i.ytimg.com/vi/2TydmViv65o/mqdefault.jpg","viewCount":"408","playlistId":"PLEkQk5xrP-tnmTYsyW6xNdyfhPq0Bhrhj","playlistName":"مقرأة الفجر - القُرْآنُ الكَرِيمُ - خَتْمَةُ التَّدَبُّرِ  أ.د. يسري جبر","category":"متنوع"},{"id":"GpcNFdHtC6M","title":"مقرأة سورة الرحمن من أولها","publishedAt":"2019-03-04T11:58:31Z","duration":"PT23M47S","thumbnail":"https://i.ytimg.com/vi/GpcNFdHtC6M/mqdefault.jpg","viewCount":"1258","playlistId":"PLEkQk5xrP-tnmTYsyW6xNdyfhPq0Bhrhj","playlistName":"مقرأة الفجر - القُرْآنُ الكَرِيمُ - خَتْمَةُ التَّدَبُّرِ  أ.د. يسري جبر","category":"متنوع"},{"id":"kdEV3T96KjY","title":"مقرأة سورة الرحمن من آية ١٤","publishedAt":"2019-03-05T15:12:02Z","duration":"PT15M37S","thumbnail":"https://i.ytimg.com/vi/kdEV3T96KjY/mqdefault.jpg","viewCount":"528","playlistId":"PLEkQk5xrP-tnmTYsyW6xNdyfhPq0Bhrhj","playlistName":"مقرأة الفجر - القُرْآنُ الكَرِيمُ - خَتْمَةُ التَّدَبُّرِ  أ.د. يسري جبر","category":"متنوع"},{"id":"pH3vYlv4Aoc","title":"مقرأة سورة الرحمن من آية ٢٩","publishedAt":"2019-03-06T15:44:57Z","duration":"PT23M6S","thumbnail":"https://i.ytimg.com/vi/pH3vYlv4Aoc/mqdefault.jpg","viewCount":"788","playlistId":"PLEkQk5xrP-tnmTYsyW6xNdyfhPq0Bhrhj","playlistName":"مقرأة الفجر - القُرْآنُ الكَرِيمُ - خَتْمَةُ التَّدَبُّرِ  أ.د. يسري جبر","category":"متنوع"},{"id":"rM1PZgrcDes","title":"مقرأة سورة الرحمن من آية ٤٦","publishedAt":"2019-03-07T10:49:52Z","duration":"PT10M11S","thumbnail":"https://i.ytimg.com/vi/rM1PZgrcDes/mqdefault.jpg","viewCount":"412","playlistId":"PLEkQk5xrP-tnmTYsyW6xNdyfhPq0Bhrhj","playlistName":"مقرأة الفجر - القُرْآنُ الكَرِيمُ - خَتْمَةُ التَّدَبُّرِ  أ.د. يسري جبر","category":"متنوع"}],"total":942,"page":33,"pageSize":24,"totalPages":40}