{"items":[{"id":"Kd36cPLDSUU","title":"سورة النساء آية 71","publishedAt":"2019-09-29T16:24:56Z","duration":"PT7M59S","thumbnail":"https://i.ytimg.com/vi/Kd36cPLDSUU/mqdefault.jpg","viewCount":"912","playlistId":"PLEkQk5xrP-tnmTYsyW6xNdyfhPq0Bhrhj","playlistName":"مقرأة الفجر - القُرْآنُ الكَرِيمُ - خَتْمَةُ التَّدَبُّرِ  أ.د. يسري جبر","category":"متنوع"},{"id":"zOa9SzFUb0g","title":"مقرأة سورة النساء من آية ٩٢","publishedAt":"2019-09-29T20:35:00Z","duration":"PT22M12S","thumbnail":"https://i.ytimg.com/vi/zOa9SzFUb0g/mqdefault.jpg","viewCount":"372","playlistId":"PLEkQk5xrP-tnmTYsyW6xNdyfhPq0Bhrhj","playlistName":"مقرأة الفجر - القُرْآنُ الكَرِيمُ - خَتْمَةُ التَّدَبُّرِ  أ.د. يسري جبر","category":"متنوع"},{"id":"nzGojMHYwt4","title":"مقرأة سورة النساء من آية ١٠٠","publishedAt":"2019-09-30T09:03:41Z","duration":"PT10M11S","thumbnail":"https://i.ytimg.com/vi/nzGojMHYwt4/mqdefault.jpg","viewCount":"399","playlistId":"PLEkQk5xrP-tnmTYsyW6xNdyfhPq0Bhrhj","playlistName":"مقرأة الفجر - القُرْآنُ الكَرِيمُ - خَتْمَةُ التَّدَبُّرِ  أ.د. يسري جبر","category":"متنوع"},{"id":"EplDav_y20M","title":"سورة النساء  آية ١٧٠","publishedAt":"2019-09-30T14:19:29Z","duration":"PT12M29S","thumbnail":"https://i.ytimg.com/vi/EplDav_y20M/mqdefault.jpg","viewCount":"309","playlistId":"PLEkQk5xrP-tnmTYsyW6xNdyfhPq0Bhrhj","playlistName":"مقرأة الفجر - القُرْآنُ الكَرِيمُ - خَتْمَةُ التَّدَبُّرِ  أ.د. يسري جبر","category":"متنوع"},{"id":"UZaK2MHjWwI","title":"مقرأة سورة الحج من آية ١٧","publishedAt":"2019-10-01T08:04:33Z","duration":"PT13M25S","thumbnail":"https://i.ytimg.com/vi/UZaK2MHjWwI/mqdefault.jpg","viewCount":"262","playlistId":"PLEkQk5xrP-tnmTYsyW6xNdyfhPq0Bhrhj","playlistName":"مقرأة الفجر - القُرْآنُ الكَرِيمُ - خَتْمَةُ التَّدَبُّرِ  أ.د. يسري جبر","category":"متنوع"},{"id":"Rafv9Q3Evsc","title":"مقرأة سورة الزمر من آية ٥٣","publishedAt":"2019-10-01T10:51:51Z","duration":"PT27M39S","thumbnail":"https://i.ytimg.com/vi/Rafv9Q3Evsc/mqdefault.jpg","viewCount":"448","playlistId":"PLEkQk5xrP-tnmTYsyW6xNdyfhPq0Bhrhj","playlistName":"مقرأة الفجر - القُرْآنُ الكَرِيمُ - خَتْمَةُ التَّدَبُّرِ  أ.د. يسري جبر","category":"متنوع"}],"total":942,"page":40,"pageSize":24,"totalPages":40}