{"items":[{"id":"cYrw2CJGsy4","title":"مقرأة سورة الإسراء من آية ٨٣","publishedAt":"2017-10-08T10:44:28Z","duration":"PT15M47S","thumbnail":"https://i.ytimg.com/vi/cYrw2CJGsy4/mqdefault.jpg","viewCount":"400","playlistId":"PLEkQk5xrP-tnmTYsyW6xNdyfhPq0Bhrhj","playlistName":"مقرأة الفجر - القُرْآنُ الكَرِيمُ - خَتْمَةُ التَّدَبُّرِ  أ.د. يسري جبر","category":"متنوع"},{"id":"r1NbVXxl93c","title":"مقرأة سورة الإسراء من آية ٨٦","publishedAt":"2017-10-09T11:03:59Z","duration":"PT19M10S","thumbnail":"https://i.ytimg.com/vi/r1NbVXxl93c/mqdefault.jpg","viewCount":"323","playlistId":"PLEkQk5xrP-tnmTYsyW6xNdyfhPq0Bhrhj","playlistName":"مقرأة الفجر - القُرْآنُ الكَرِيمُ - خَتْمَةُ التَّدَبُّرِ  أ.د. يسري جبر","category":"متنوع"},{"id":"ZXDdTv1-LsE","title":"مقرأة سورة الإسراء من آية ٩٥","publishedAt":"2017-10-10T11:11:47Z","duration":"PT21M38S","thumbnail":"https://i.ytimg.com/vi/ZXDdTv1-LsE/mqdefault.jpg","viewCount":"335","playlistId":"PLEkQk5xrP-tnmTYsyW6xNdyfhPq0Bhrhj","playlistName":"مقرأة الفجر - القُرْآنُ الكَرِيمُ - خَتْمَةُ التَّدَبُّرِ  أ.د. يسري جبر","category":"متنوع"},{"id":"BeCumXntnuE","title":"مقرأة سورة الإسراء من آية ١٠١","publishedAt":"2017-10-11T12:03:40Z","duration":"PT29M22S","thumbnail":"https://i.ytimg.com/vi/BeCumXntnuE/mqdefault.jpg","viewCount":"359","playlistId":"PLEkQk5xrP-tnmTYsyW6xNdyfhPq0Bhrhj","playlistName":"مقرأة الفجر - القُرْآنُ الكَرِيمُ - خَتْمَةُ التَّدَبُّرِ  أ.د. يسري جبر","category":"متنوع"},{"id":"F0nH6JBwVcw","title":"مقرأة سورة الكهف من أولها","publishedAt":"2017-10-12T15:50:26Z","duration":"PT13M23S","thumbnail":"https://i.ytimg.com/vi/F0nH6JBwVcw/mqdefault.jpg","viewCount":"2363","playlistId":"PLEkQk5xrP-tnmTYsyW6xNdyfhPq0Bhrhj","playlistName":"مقرأة الفجر - القُرْآنُ الكَرِيمُ - خَتْمَةُ التَّدَبُّرِ  أ.د. يسري جبر","category":"متنوع"},{"id":"bcJ12ZtYrn8","title":"مقرأة سورة الكهف من أية ٩","publishedAt":"2017-10-15T06:07:37Z","duration":"PT23M22S","thumbnail":"https://i.ytimg.com/vi/bcJ12ZtYrn8/mqdefault.jpg","viewCount":"684","playlistId":"PLEkQk5xrP-tnmTYsyW6xNdyfhPq0Bhrhj","playlistName":"مقرأة الفجر - القُرْآنُ الكَرِيمُ - خَتْمَةُ التَّدَبُّرِ  أ.د. يسري جبر","category":"متنوع"},{"id":"wlyd2QhPrLM","title":"مقرأة سورة الكهف من آية ١٣","publishedAt":"2017-10-16T10:10:48Z","duration":"PT16M35S","thumbnail":"https://i.ytimg.com/vi/wlyd2QhPrLM/mqdefault.jpg","viewCount":"574","playlistId":"PLEkQk5xrP-tnmTYsyW6xNdyfhPq0Bhrhj","playlistName":"مقرأة الفجر - القُرْآنُ الكَرِيمُ - خَتْمَةُ التَّدَبُّرِ  أ.د. يسري جبر","category":"متنوع"},{"id":"fjcjgln7vM8","title":"مقرأة سورة الكهف من آية ١٩","publishedAt":"2017-10-17T09:12:27Z","duration":"PT27M","thumbnail":"https://i.ytimg.com/vi/fjcjgln7vM8/mqdefault.jpg","viewCount":"606","playlistId":"PLEkQk5xrP-tnmTYsyW6xNdyfhPq0Bhrhj","playlistName":"مقرأة الفجر - القُرْآنُ الكَرِيمُ - خَتْمَةُ التَّدَبُّرِ  أ.د. يسري جبر","category":"متنوع"},{"id":"StQcVVNh7H0","title":"مقرأة سورة الكهف من آية ٢٣","publishedAt":"2017-10-18T10:16:00Z","duration":"PT13M58S","thumbnail":"https://i.ytimg.com/vi/StQcVVNh7H0/mqdefault.jpg","viewCount":"649","playlistId":"PLEkQk5xrP-tnmTYsyW6xNdyfhPq0Bhrhj","playlistName":"مقرأة الفجر - القُرْآنُ الكَرِيمُ - خَتْمَةُ التَّدَبُّرِ  أ.د. يسري جبر","category":"متنوع"},{"id":"V2Wvt7iaVS8","title":"مقرأة سورة الكهف من آية ٢٧","publishedAt":"2017-10-19T11:29:13Z","duration":"PT24M36S","thumbnail":"https://i.ytimg.com/vi/V2Wvt7iaVS8/mqdefault.jpg","viewCount":"448","playlistId":"PLEkQk5xrP-tnmTYsyW6xNdyfhPq0Bhrhj","playlistName":"مقرأة الفجر - القُرْآنُ الكَرِيمُ - خَتْمَةُ التَّدَبُّرِ  أ.د. يسري جبر","category":"متنوع"},{"id":"KbbSeinsJ1s","title":"مقرأة سورة الكهف من آية ٢٩","publishedAt":"2017-10-20T08:04:21Z","duration":"PT12M28S","thumbnail":"https://i.ytimg.com/vi/KbbSeinsJ1s/mqdefault.jpg","viewCount":"406","playlistId":"PLEkQk5xrP-tnmTYsyW6xNdyfhPq0Bhrhj","playlistName":"مقرأة الفجر - القُرْآنُ الكَرِيمُ - خَتْمَةُ التَّدَبُّرِ  أ.د. يسري جبر","category":"متنوع"},{"id":"muMfdzaclnE","title":"مقرأة سورة الكهف من آية ٣٢","publishedAt":"2017-10-25T09:59:56Z","duration":"PT36M7S","thumbnail":"https://i.ytimg.com/vi/muMfdzaclnE/mqdefault.jpg","viewCount":"511","playlistId":"PLEkQk5xrP-tnmTYsyW6xNdyfhPq0Bhrhj","playlistName":"مقرأة الفجر - القُرْآنُ الكَرِيمُ - خَتْمَةُ التَّدَبُّرِ  أ.د. يسري جبر","category":"متنوع"},{"id":"3pFs9_rBrPc","title":"مقرأة سورة الكهف من آية ٤٥","publishedAt":"2017-10-25T19:25:49Z","duration":"PT19M54S","thumbnail":"https://i.ytimg.com/vi/3pFs9_rBrPc/mqdefault.jpg","viewCount":"487","playlistId":"PLEkQk5xrP-tnmTYsyW6xNdyfhPq0Bhrhj","playlistName":"مقرأة الفجر - القُرْآنُ الكَرِيمُ - خَتْمَةُ التَّدَبُّرِ  أ.د. يسري جبر","category":"متنوع"},{"id":"96GJGRbvieo","title":"مقرأة سورة الكهف من آية ٥٠","publishedAt":"2017-10-26T12:41:23Z","duration":"PT13M54S","thumbnail":"https://i.ytimg.com/vi/96GJGRbvieo/mqdefault.jpg","viewCount":"439","playlistId":"PLEkQk5xrP-tnmTYsyW6xNdyfhPq0Bhrhj","playlistName":"مقرأة الفجر - القُرْآنُ الكَرِيمُ - خَتْمَةُ التَّدَبُّرِ  أ.د. يسري جبر","category":"متنوع"},{"id":"l5T7MyrTu50","title":"مقرأة سورة الكهف من آية ٥٤","publishedAt":"2017-10-27T14:02:56Z","duration":"PT16M34S","thumbnail":"https://i.ytimg.com/vi/l5T7MyrTu50/mqdefault.jpg","viewCount":"515","playlistId":"PLEkQk5xrP-tnmTYsyW6xNdyfhPq0Bhrhj","playlistName":"مقرأة الفجر - القُرْآنُ الكَرِيمُ - خَتْمَةُ التَّدَبُّرِ  أ.د. يسري جبر","category":"متنوع"},{"id":"cvN9NLtfPuU","title":"مقرأة سورة الكهف من آية ٦٠","publishedAt":"2017-10-30T04:03:24Z","duration":"PT24M5S","thumbnail":"https://i.ytimg.com/vi/cvN9NLtfPuU/mqdefault.jpg","viewCount":"487","playlistId":"PLEkQk5xrP-tnmTYsyW6xNdyfhPq0Bhrhj","playlistName":"مقرأة الفجر - القُرْآنُ الكَرِيمُ - خَتْمَةُ التَّدَبُّرِ  أ.د. يسري جبر","category":"متنوع"},{"id":"LU8pPhM05DI","title":"مقرأة سورة الكهف من آية ٧١","publishedAt":"2017-10-30T18:28:23Z","duration":"PT15M34S","thumbnail":"https://i.ytimg.com/vi/LU8pPhM05DI/mqdefault.jpg","viewCount":"423","playlistId":"PLEkQk5xrP-tnmTYsyW6xNdyfhPq0Bhrhj","playlistName":"مقرأة الفجر - القُرْآنُ الكَرِيمُ - خَتْمَةُ التَّدَبُّرِ  أ.د. يسري جبر","category":"متنوع"},{"id":"RchZXC9ApwA","title":"مقرأة سورة الكهف من آية ٧٩","publishedAt":"2017-10-31T16:30:49Z","duration":"PT28M8S","thumbnail":"https://i.ytimg.com/vi/RchZXC9ApwA/mqdefault.jpg","viewCount":"495","playlistId":"PLEkQk5xrP-tnmTYsyW6xNdyfhPq0Bhrhj","playlistName":"مقرأة الفجر - القُرْآنُ الكَرِيمُ - خَتْمَةُ التَّدَبُّرِ  أ.د. يسري جبر","category":"متنوع"},{"id":"uiATWML_An8","title":"مقرأة سورة الكهف من آية ٨٣","publishedAt":"2017-11-01T20:55:05Z","duration":"PT30M15S","thumbnail":"https://i.ytimg.com/vi/uiATWML_An8/mqdefault.jpg","viewCount":"538","playlistId":"PLEkQk5xrP-tnmTYsyW6xNdyfhPq0Bhrhj","playlistName":"مقرأة الفجر - القُرْآنُ الكَرِيمُ - خَتْمَةُ التَّدَبُّرِ  أ.د. يسري جبر","category":"متنوع"},{"id":"PD1XQ4bKVIY","title":"مقرأة سورة الكهف من آية ٩٩","publishedAt":"2017-11-02T11:44:32Z","duration":"PT36M30S","thumbnail":"https://i.ytimg.com/vi/PD1XQ4bKVIY/mqdefault.jpg","viewCount":"573","playlistId":"PLEkQk5xrP-tnmTYsyW6xNdyfhPq0Bhrhj","playlistName":"مقرأة الفجر - القُرْآنُ الكَرِيمُ - خَتْمَةُ التَّدَبُّرِ  أ.د. يسري جبر","category":"متنوع"},{"id":"WMDHEL3rq3o","title":"مقرأة سورة مريم من أولها","publishedAt":"2017-11-03T07:05:43Z","duration":"PT19M43S","thumbnail":"https://i.ytimg.com/vi/WMDHEL3rq3o/mqdefault.jpg","viewCount":"815","playlistId":"PLEkQk5xrP-tnmTYsyW6xNdyfhPq0Bhrhj","playlistName":"مقرأة الفجر - القُرْآنُ الكَرِيمُ - خَتْمَةُ التَّدَبُّرِ  أ.د. يسري جبر","category":"متنوع"},{"id":"m0mAsyAHlLM","title":"مقرأة سورة مريم من آية ٩","publishedAt":"2017-11-03T16:07:02Z","duration":"PT13M46S","thumbnail":"https://i.ytimg.com/vi/m0mAsyAHlLM/mqdefault.jpg","viewCount":"471","playlistId":"PLEkQk5xrP-tnmTYsyW6xNdyfhPq0Bhrhj","playlistName":"مقرأة الفجر - القُرْآنُ الكَرِيمُ - خَتْمَةُ التَّدَبُّرِ  أ.د. يسري جبر","category":"متنوع"},{"id":"AJf1HyTMt00","title":"مقرأة سورة مريم من آية ١٦","publishedAt":"2017-11-04T07:20:50Z","duration":"PT18M3S","thumbnail":"https://i.ytimg.com/vi/AJf1HyTMt00/mqdefault.jpg","viewCount":"491","playlistId":"PLEkQk5xrP-tnmTYsyW6xNdyfhPq0Bhrhj","playlistName":"مقرأة الفجر - القُرْآنُ الكَرِيمُ - خَتْمَةُ التَّدَبُّرِ  أ.د. يسري جبر","category":"متنوع"},{"id":"Uq8xaL9JIFc","title":"مقرأة سورة مريم من آية ٢٧","publishedAt":"2017-11-05T11:18:43Z","duration":"PT16M22S","thumbnail":"https://i.ytimg.com/vi/Uq8xaL9JIFc/mqdefault.jpg","viewCount":"408","playlistId":"PLEkQk5xrP-tnmTYsyW6xNdyfhPq0Bhrhj","playlistName":"مقرأة الفجر - القُرْآنُ الكَرِيمُ - خَتْمَةُ التَّدَبُّرِ  أ.د. يسري جبر","category":"متنوع"}],"total":942,"page":17,"pageSize":24,"totalPages":40}