{"items":[{"id":"vWUvu7OavRI","title":"مقرأة سورة الأنبياء من آية ١٠","publishedAt":"2017-12-11T09:10:40Z","duration":"PT24M","thumbnail":"https://i.ytimg.com/vi/vWUvu7OavRI/mqdefault.jpg","viewCount":"362","playlistId":"PLEkQk5xrP-tnmTYsyW6xNdyfhPq0Bhrhj","playlistName":"مقرأة الفجر - القُرْآنُ الكَرِيمُ - خَتْمَةُ التَّدَبُّرِ  أ.د. يسري جبر","category":"متنوع"},{"id":"7Iyv9HUSq0Y","title":"مقرأة سورة الأنبياء من آية ١٦","publishedAt":"2017-12-12T09:12:06Z","duration":"PT13M44S","thumbnail":"https://i.ytimg.com/vi/7Iyv9HUSq0Y/mqdefault.jpg","viewCount":"293","playlistId":"PLEkQk5xrP-tnmTYsyW6xNdyfhPq0Bhrhj","playlistName":"مقرأة الفجر - القُرْآنُ الكَرِيمُ - خَتْمَةُ التَّدَبُّرِ  أ.د. يسري جبر","category":"متنوع"},{"id":"hjrpdbTIEdQ","title":"مقرأة سورة الأنبياء من آية ٢٥","publishedAt":"2017-12-13T08:16:12Z","duration":"PT15M59S","thumbnail":"https://i.ytimg.com/vi/hjrpdbTIEdQ/mqdefault.jpg","viewCount":"364","playlistId":"PLEkQk5xrP-tnmTYsyW6xNdyfhPq0Bhrhj","playlistName":"مقرأة الفجر - القُرْآنُ الكَرِيمُ - خَتْمَةُ التَّدَبُّرِ  أ.د. يسري جبر","category":"متنوع"},{"id":"mgTKkM5ekak","title":"مقرأة سورة الأنبياء من آية ٣٥","publishedAt":"2017-12-15T19:10:51Z","duration":"PT25M56S","thumbnail":"https://i.ytimg.com/vi/mgTKkM5ekak/mqdefault.jpg","viewCount":"292","playlistId":"PLEkQk5xrP-tnmTYsyW6xNdyfhPq0Bhrhj","playlistName":"مقرأة الفجر - القُرْآنُ الكَرِيمُ - خَتْمَةُ التَّدَبُّرِ  أ.د. يسري جبر","category":"متنوع"},{"id":"3PTKI75OPcA","title":"مقرأة سورة الأنبياء من آية ٤٤","publishedAt":"2017-12-16T16:44:54Z","duration":"PT21M38S","thumbnail":"https://i.ytimg.com/vi/3PTKI75OPcA/mqdefault.jpg","viewCount":"280","playlistId":"PLEkQk5xrP-tnmTYsyW6xNdyfhPq0Bhrhj","playlistName":"مقرأة الفجر - القُرْآنُ الكَرِيمُ - خَتْمَةُ التَّدَبُّرِ  أ.د. يسري جبر","category":"متنوع"},{"id":"sQgivjziTV0","title":"مقرأة سورة الأنبياء من آية ٥١","publishedAt":"2017-12-17T08:39:52Z","duration":"PT21M4S","thumbnail":"https://i.ytimg.com/vi/sQgivjziTV0/mqdefault.jpg","viewCount":"335","playlistId":"PLEkQk5xrP-tnmTYsyW6xNdyfhPq0Bhrhj","playlistName":"مقرأة الفجر - القُرْآنُ الكَرِيمُ - خَتْمَةُ التَّدَبُّرِ  أ.د. يسري جبر","category":"متنوع"},{"id":"9e5fj6c6S90","title":"مقرأة سورة الأنبياء من آية ٦٨","publishedAt":"2017-12-19T09:51:18Z","duration":"PT8M41S","thumbnail":"https://i.ytimg.com/vi/9e5fj6c6S90/mqdefault.jpg","viewCount":"510","playlistId":"PLEkQk5xrP-tnmTYsyW6xNdyfhPq0Bhrhj","playlistName":"مقرأة الفجر - القُرْآنُ الكَرِيمُ - خَتْمَةُ التَّدَبُّرِ  أ.د. يسري جبر","category":"متنوع"},{"id":"D-4kllhcB-g","title":"مقرأة سورة الأنبياء من آية ٧٤","publishedAt":"2017-12-20T09:35:36Z","duration":"PT26M45S","thumbnail":"https://i.ytimg.com/vi/D-4kllhcB-g/mqdefault.jpg","viewCount":"322","playlistId":"PLEkQk5xrP-tnmTYsyW6xNdyfhPq0Bhrhj","playlistName":"مقرأة الفجر - القُرْآنُ الكَرِيمُ - خَتْمَةُ التَّدَبُّرِ  أ.د. يسري جبر","category":"متنوع"},{"id":"JE2viEmMdks","title":"مقرأة سورة الأنبياء من آية ٨٣","publishedAt":"2017-12-21T09:23:34Z","duration":"PT18M15S","thumbnail":"https://i.ytimg.com/vi/JE2viEmMdks/mqdefault.jpg","viewCount":"302","playlistId":"PLEkQk5xrP-tnmTYsyW6xNdyfhPq0Bhrhj","playlistName":"مقرأة الفجر - القُرْآنُ الكَرِيمُ - خَتْمَةُ التَّدَبُّرِ  أ.د. يسري جبر","category":"متنوع"},{"id":"DSC-gV5YwRg","title":"مقرأة سورة الأنبياء من آية ٨٧","publishedAt":"2017-12-25T13:52:15Z","duration":"PT12M3S","thumbnail":"https://i.ytimg.com/vi/DSC-gV5YwRg/mqdefault.jpg","viewCount":"245","playlistId":"PLEkQk5xrP-tnmTYsyW6xNdyfhPq0Bhrhj","playlistName":"مقرأة الفجر - القُرْآنُ الكَرِيمُ - خَتْمَةُ التَّدَبُّرِ  أ.د. يسري جبر","category":"متنوع"},{"id":"VUYBAnIxZME","title":"مقرأة سورة الأنبياء من آية ٨٩","publishedAt":"2017-12-27T00:55:41Z","duration":"PT14M36S","thumbnail":"https://i.ytimg.com/vi/VUYBAnIxZME/mqdefault.jpg","viewCount":"236","playlistId":"PLEkQk5xrP-tnmTYsyW6xNdyfhPq0Bhrhj","playlistName":"مقرأة الفجر - القُرْآنُ الكَرِيمُ - خَتْمَةُ التَّدَبُّرِ  أ.د. يسري جبر","category":"متنوع"},{"id":"SNh1g6tkTP4","title":"مقرأة سورة الأنبياء من آية ٩٢","publishedAt":"2017-12-27T11:54:07Z","duration":"PT13M51S","thumbnail":"https://i.ytimg.com/vi/SNh1g6tkTP4/mqdefault.jpg","viewCount":"233","playlistId":"PLEkQk5xrP-tnmTYsyW6xNdyfhPq0Bhrhj","playlistName":"مقرأة الفجر - القُرْآنُ الكَرِيمُ - خَتْمَةُ التَّدَبُّرِ  أ.د. يسري جبر","category":"متنوع"},{"id":"rLsa3RWKMd4","title":"مقرأة سورة الأنبياء من آية ٩٨","publishedAt":"2017-12-30T15:00:56Z","duration":"PT15M18S","thumbnail":"https://i.ytimg.com/vi/rLsa3RWKMd4/mqdefault.jpg","viewCount":"397","playlistId":"PLEkQk5xrP-tnmTYsyW6xNdyfhPq0Bhrhj","playlistName":"مقرأة الفجر - القُرْآنُ الكَرِيمُ - خَتْمَةُ التَّدَبُّرِ  أ.د. يسري جبر","category":"متنوع"},{"id":"d8sZc7g6mD4","title":"مقرأة سورة الأنبياء من آية ١٠٥","publishedAt":"2017-12-31T06:03:18Z","duration":"PT23M57S","thumbnail":"https://i.ytimg.com/vi/d8sZc7g6mD4/mqdefault.jpg","viewCount":"266","playlistId":"PLEkQk5xrP-tnmTYsyW6xNdyfhPq0Bhrhj","playlistName":"مقرأة الفجر - القُرْآنُ الكَرِيمُ - خَتْمَةُ التَّدَبُّرِ  أ.د. يسري جبر","category":"متنوع"},{"id":"JEx3R1hV-C0","title":"مقرأة سورة الحج من أولها","publishedAt":"2017-12-31T23:44:03Z","duration":"PT11M18S","thumbnail":"https://i.ytimg.com/vi/JEx3R1hV-C0/mqdefault.jpg","viewCount":"409","playlistId":"PLEkQk5xrP-tnmTYsyW6xNdyfhPq0Bhrhj","playlistName":"مقرأة الفجر - القُرْآنُ الكَرِيمُ - خَتْمَةُ التَّدَبُّرِ  أ.د. يسري جبر","category":"متنوع"},{"id":"C33y-dfrd7Y","title":"مقرأة سورة الحج من آية ٥","publishedAt":"2018-01-01T13:55:48Z","duration":"PT16M34S","thumbnail":"https://i.ytimg.com/vi/C33y-dfrd7Y/mqdefault.jpg","viewCount":"351","playlistId":"PLEkQk5xrP-tnmTYsyW6xNdyfhPq0Bhrhj","playlistName":"مقرأة الفجر - القُرْآنُ الكَرِيمُ - خَتْمَةُ التَّدَبُّرِ  أ.د. يسري جبر","category":"متنوع"},{"id":"s87RvR68Xcc","title":"مقرأة سورة الحج من آية ٨","publishedAt":"2018-01-15T04:41:07Z","duration":"PT5M15S","thumbnail":"https://i.ytimg.com/vi/s87RvR68Xcc/mqdefault.jpg","viewCount":"317","playlistId":"PLEkQk5xrP-tnmTYsyW6xNdyfhPq0Bhrhj","playlistName":"مقرأة الفجر - القُرْآنُ الكَرِيمُ - خَتْمَةُ التَّدَبُّرِ  أ.د. يسري جبر","category":"متنوع"},{"id":"k-tqCxbeWa0","title":"مقرأة سورة الحج من آية ١١","publishedAt":"2018-01-18T02:06:43Z","duration":"PT8M10S","thumbnail":"https://i.ytimg.com/vi/k-tqCxbeWa0/mqdefault.jpg","viewCount":"241","playlistId":"PLEkQk5xrP-tnmTYsyW6xNdyfhPq0Bhrhj","playlistName":"مقرأة الفجر - القُرْآنُ الكَرِيمُ - خَتْمَةُ التَّدَبُّرِ  أ.د. يسري جبر","category":"متنوع"},{"id":"O-21DO2f4CM","title":"مقرأة سورة الحج من آية ١٤","publishedAt":"2018-01-19T09:27:20Z","duration":"PT20M45S","thumbnail":"https://i.ytimg.com/vi/O-21DO2f4CM/mqdefault.jpg","viewCount":"439","playlistId":"PLEkQk5xrP-tnmTYsyW6xNdyfhPq0Bhrhj","playlistName":"مقرأة الفجر - القُرْآنُ الكَرِيمُ - خَتْمَةُ التَّدَبُّرِ  أ.د. يسري جبر","category":"متنوع"},{"id":"CeRQjzGj1bk","title":"مقرأة سورة الحج من آية ١٩","publishedAt":"2018-01-30T10:42:52Z","duration":"PT13M29S","thumbnail":"https://i.ytimg.com/vi/CeRQjzGj1bk/mqdefault.jpg","viewCount":"361","playlistId":"PLEkQk5xrP-tnmTYsyW6xNdyfhPq0Bhrhj","playlistName":"مقرأة الفجر - القُرْآنُ الكَرِيمُ - خَتْمَةُ التَّدَبُّرِ  أ.د. يسري جبر","category":"متنوع"},{"id":"7OeK1c63w0s","title":"مقرأة سورة الحج من آية ٢٥","publishedAt":"2018-01-31T09:57:21Z","duration":"PT29M7S","thumbnail":"https://i.ytimg.com/vi/7OeK1c63w0s/mqdefault.jpg","viewCount":"351","playlistId":"PLEkQk5xrP-tnmTYsyW6xNdyfhPq0Bhrhj","playlistName":"مقرأة الفجر - القُرْآنُ الكَرِيمُ - خَتْمَةُ التَّدَبُّرِ  أ.د. يسري جبر","category":"متنوع"},{"id":"ZlCr8L0q7XQ","title":"مقرأة سورة الحج من آية ٢٩","publishedAt":"2018-02-01T13:07:12Z","duration":"PT18M53S","thumbnail":"https://i.ytimg.com/vi/ZlCr8L0q7XQ/mqdefault.jpg","viewCount":"296","playlistId":"PLEkQk5xrP-tnmTYsyW6xNdyfhPq0Bhrhj","playlistName":"مقرأة الفجر - القُرْآنُ الكَرِيمُ - خَتْمَةُ التَّدَبُّرِ  أ.د. يسري جبر","category":"متنوع"},{"id":"l7ABc_w2TB8","title":"مقرأة سورة الحج من آية ٣٢","publishedAt":"2018-02-03T12:17:27Z","duration":"PT19M3S","thumbnail":"https://i.ytimg.com/vi/l7ABc_w2TB8/mqdefault.jpg","viewCount":"265","playlistId":"PLEkQk5xrP-tnmTYsyW6xNdyfhPq0Bhrhj","playlistName":"مقرأة الفجر - القُرْآنُ الكَرِيمُ - خَتْمَةُ التَّدَبُّرِ  أ.د. يسري جبر","category":"متنوع"},{"id":"314SWl4kY4Y","title":"مقرأة سورة الحج من آية ٣٨","publishedAt":"2018-02-04T13:42:05Z","duration":"PT16M48S","thumbnail":"https://i.ytimg.com/vi/314SWl4kY4Y/mqdefault.jpg","viewCount":"236","playlistId":"PLEkQk5xrP-tnmTYsyW6xNdyfhPq0Bhrhj","playlistName":"مقرأة الفجر - القُرْآنُ الكَرِيمُ - خَتْمَةُ التَّدَبُّرِ  أ.د. يسري جبر","category":"متنوع"}],"total":942,"page":19,"pageSize":24,"totalPages":40}