{"items":[{"id":"4UwcHg93ShQ","title":"25- كيف تجاهد نفسك على الطاعة؟ | شرح الحكم العطائية","publishedAt":"2025-08-16T19:00:04Z","duration":"PT42M13S","thumbnail":"https://i.ytimg.com/vi/4UwcHg93ShQ/mqdefault.jpg","viewCount":"3015","playlistId":"PLEkQk5xrP-tmf5ToOwmW-q0JwxkapbrMN","playlistName":"شرح كتاب إرشاد البرية إلى بعض معاني الحكم العطائية","category":"متنوع"},{"id":"rBAhWWgFFrk","title":"26- ما الفرق بين أحوال القبض والبسط؟ | شرح الحكم العطائية","publishedAt":"2025-08-23T18:15:10Z","duration":"PT35M33S","thumbnail":"https://i.ytimg.com/vi/rBAhWWgFFrk/mqdefault.jpg","viewCount":"3526","playlistId":"PLEkQk5xrP-tmf5ToOwmW-q0JwxkapbrMN","playlistName":"شرح كتاب إرشاد البرية إلى بعض معاني الحكم العطائية","category":"متنوع"},{"id":"6DEEQ3TRD_Q","title":"27- معنى أحوال القبض والبسط عند الصوفية | شرح الحكم العطائية","publishedAt":"2025-10-22T18:15:00Z","duration":"PT32M19S","thumbnail":"https://i.ytimg.com/vi/6DEEQ3TRD_Q/mqdefault.jpg","viewCount":"2737","playlistId":"PLEkQk5xrP-tmf5ToOwmW-q0JwxkapbrMN","playlistName":"شرح كتاب إرشاد البرية إلى بعض معاني الحكم العطائية","category":"متنوع"},{"id":"IkJp5BAXg50","title":"28- كيف تفهم حكمة الله في المنع والعطاء؟ | شرح الحكم العطائية","publishedAt":"2025-11-17T18:30:32Z","duration":"PT49M27S","thumbnail":"https://i.ytimg.com/vi/IkJp5BAXg50/mqdefault.jpg","viewCount":"3592","playlistId":"PLEkQk5xrP-tmf5ToOwmW-q0JwxkapbrMN","playlistName":"شرح كتاب إرشاد البرية إلى بعض معاني الحكم العطائية","category":"متنوع"},{"id":"xOrCCgFoPXY","title":"29- العطاء من الخلق حرمان والمنع من اللّه إحسان | شرح الحكم العطائية","publishedAt":"2025-11-21T20:15:07Z","duration":"PT43M8S","thumbnail":"https://i.ytimg.com/vi/xOrCCgFoPXY/mqdefault.jpg","viewCount":"2268","playlistId":"PLEkQk5xrP-tmf5ToOwmW-q0JwxkapbrMN","playlistName":"شرح كتاب إرشاد البرية إلى بعض معاني الحكم العطائية","category":"متنوع"}],"total":29,"page":2,"pageSize":24,"totalPages":2}