{"items":[{"id":"Jowdyf2w2zc","title":"73-  نُبذة عن سيدنا أبي إسحاق سعد بن أبي وقاص سابع العشرة المبشرين بالجنة رضي اللهُ تعالى عنه","publishedAt":"2024-02-05T21:41:53Z","duration":"PT23M45S","thumbnail":"https://i.ytimg.com/vi/Jowdyf2w2zc/mqdefault.jpg","viewCount":"896","playlistId":"PLEkQk5xrP-tkKprIuGrSdEuBSMsyg5We1","playlistName":"شرح مسند الإمام أحمد بن حنبل","category":"متنوع"},{"id":"qVr7PB2F16s","title":"74- الفرق بين اللحد والشق | النَّبيُّ ﷺ له التصريف في الأحكام - شرح مسند الإمام أحمد رضي الله عنه","publishedAt":"2024-02-07T06:30:16Z","duration":"PT29M21S","thumbnail":"https://i.ytimg.com/vi/qVr7PB2F16s/mqdefault.jpg","viewCount":"954","playlistId":"PLEkQk5xrP-tkKprIuGrSdEuBSMsyg5We1","playlistName":"شرح مسند الإمام أحمد بن حنبل","category":"متنوع"},{"id":"Mm7Bpk-L1ws","title":"75- أهمية توقير النسب الشريف - شرح مسند الإمام أحمد رضي الله عنه","publishedAt":"2024-02-11T06:30:08Z","duration":"PT33M54S","thumbnail":"https://i.ytimg.com/vi/Mm7Bpk-L1ws/mqdefault.jpg","viewCount":"1588","playlistId":"PLEkQk5xrP-tkKprIuGrSdEuBSMsyg5We1","playlistName":"شرح مسند الإمام أحمد بن حنبل","category":"متنوع"},{"id":"4gcr8Zqoxf4","title":"76- حكم التشاؤم من المرأة والفرس والدار - شرح مسند الإمام أحمد رضي الله عنه","publishedAt":"2024-02-13T06:40:13Z","duration":"PT34M55S","thumbnail":"https://i.ytimg.com/vi/4gcr8Zqoxf4/mqdefault.jpg","viewCount":"1585","playlistId":"PLEkQk5xrP-tkKprIuGrSdEuBSMsyg5We1","playlistName":"شرح مسند الإمام أحمد بن حنبل","category":"متنوع"},{"id":"5ChjVje0SRA","title":"77- كيفية الوقاية من السم والسحر - شرح مسند الإمام أحمد رضي الله عنه","publishedAt":"2024-02-15T07:16:58Z","duration":"PT29M52S","thumbnail":"https://i.ytimg.com/vi/5ChjVje0SRA/mqdefault.jpg","viewCount":"2383","playlistId":"PLEkQk5xrP-tkKprIuGrSdEuBSMsyg5We1","playlistName":"شرح مسند الإمام أحمد بن حنبل","category":"متنوع"},{"id":"CQrXlEsAcq4","title":"78- فوائد الابتلاء - شرح مسند الإمام أحمد رضي الله عنه","publishedAt":"2024-02-17T10:29:49Z","duration":"PT28M21S","thumbnail":"https://i.ytimg.com/vi/CQrXlEsAcq4/mqdefault.jpg","viewCount":"1460","playlistId":"PLEkQk5xrP-tkKprIuGrSdEuBSMsyg5We1","playlistName":"شرح مسند الإمام أحمد بن حنبل","category":"متنوع"},{"id":"cqp8GG76hoc","title":"79- سبب نزول آية الوصيَّة بالوالدَيْنِ وعدمِ طاعتِهما في معصية - شرح مسند الإمام أحمد رضي الله عنه","publishedAt":"2024-02-18T06:30:10Z","duration":"PT21M25S","thumbnail":"https://i.ytimg.com/vi/cqp8GG76hoc/mqdefault.jpg","viewCount":"885","playlistId":"PLEkQk5xrP-tkKprIuGrSdEuBSMsyg5We1","playlistName":"شرح مسند الإمام أحمد بن حنبل","category":"متنوع"},{"id":"qv5qtZlHAsg","title":"80- أهم الأشياء التي علَّمنا النَّبيُّ ﷺ الاستعاذة منها - شرح مسند الإمام أحمد رضي الله عنه","publishedAt":"2024-02-21T07:32:08Z","duration":"PT19M56S","thumbnail":"https://i.ytimg.com/vi/qv5qtZlHAsg/mqdefault.jpg","viewCount":"1658","playlistId":"PLEkQk5xrP-tkKprIuGrSdEuBSMsyg5We1","playlistName":"شرح مسند الإمام أحمد بن حنبل","category":"متنوع"},{"id":"Y3ujOpFYD8w","title":"81- دعاء النَّبيّ ﷺ للمدينة بضعفي ما بمكَّة من البركة - شرح مسند الإمام أحمد رضي الله عنه","publishedAt":"2024-02-26T06:53:31Z","duration":"PT31M19S","thumbnail":"https://i.ytimg.com/vi/Y3ujOpFYD8w/mqdefault.jpg","viewCount":"1356","playlistId":"PLEkQk5xrP-tkKprIuGrSdEuBSMsyg5We1","playlistName":"شرح مسند الإمام أحمد بن حنبل","category":"متنوع"},{"id":"4GOqQfFGPMw","title":"82- نُبْذة عن سيدنا سعيد بن زيد بن عمرو بن نُفيل أحد العشرة المبشرين بالجنة رضي اللهُ تعالى عنه","publishedAt":"2024-02-28T09:32:23Z","duration":"PT21M58S","thumbnail":"https://i.ytimg.com/vi/4GOqQfFGPMw/mqdefault.jpg","viewCount":"1195","playlistId":"PLEkQk5xrP-tkKprIuGrSdEuBSMsyg5We1","playlistName":"شرح مسند الإمام أحمد بن حنبل","category":"متنوع"},{"id":"dY__Tbph790","title":"83-  العشرة المبشرون بالجنة رضي اللهُ تعالى عنهم - شرح مسند الإمام أحمد رضي الله عنه","publishedAt":"2024-03-03T09:00:23Z","duration":"PT30M13S","thumbnail":"https://i.ytimg.com/vi/dY__Tbph790/mqdefault.jpg","viewCount":"1108","playlistId":"PLEkQk5xrP-tkKprIuGrSdEuBSMsyg5We1","playlistName":"شرح مسند الإمام أحمد بن حنبل","category":"متنوع"},{"id":"99WSA0n0NBg","title":"84- نبذة عن سيدنا عبد الرحمن بن عوف الزهري أحد العشرة المبشرين بالجنة رضي اللهُ تعالى عنه","publishedAt":"2024-03-06T06:30:01Z","duration":"PT32M8S","thumbnail":"https://i.ytimg.com/vi/99WSA0n0NBg/mqdefault.jpg","viewCount":"1322","playlistId":"PLEkQk5xrP-tkKprIuGrSdEuBSMsyg5We1","playlistName":"شرح مسند الإمام أحمد بن حنبل","category":"متنوع"},{"id":"56fRxxN2AAM","title":"85- قصة مقتل أبي جهل يوم بدر على يد غلامين - شرح مسند الإمام أحمد رضي الله تعالى عنه","publishedAt":"2024-03-11T07:00:02Z","duration":"PT24M25S","thumbnail":"https://i.ytimg.com/vi/56fRxxN2AAM/mqdefault.jpg","viewCount":"1143","playlistId":"PLEkQk5xrP-tkKprIuGrSdEuBSMsyg5We1","playlistName":"شرح مسند الإمام أحمد بن حنبل","category":"متنوع"},{"id":"WywW9UPpDLM","title":"86- نبذة عن سيدنا أبي عبيدة بن الجراح رضي الله تعالى عنه - شرح مسند الإمام أحمد رضي الله تعالى عنه","publishedAt":"2024-03-17T07:00:22Z","duration":"PT22M10S","thumbnail":"https://i.ytimg.com/vi/WywW9UPpDLM/mqdefault.jpg","viewCount":"863","playlistId":"PLEkQk5xrP-tkKprIuGrSdEuBSMsyg5We1","playlistName":"شرح مسند الإمام أحمد بن حنبل","category":"متنوع"},{"id":"axD6GeZDzf8","title":"87- نبذة عن سيدنا عبد الرحمن بن أبي بكر رضي اللهُ تعالى عنه - شرح مسند الإمام أحمد رضي","publishedAt":"2024-03-20T06:30:01Z","duration":"PT24M25S","thumbnail":"https://i.ytimg.com/vi/axD6GeZDzf8/mqdefault.jpg","viewCount":"879","playlistId":"PLEkQk5xrP-tkKprIuGrSdEuBSMsyg5We1","playlistName":"شرح مسند الإمام أحمد بن حنبل","category":"متنوع"},{"id":"_3AxasItDAs","title":"88- نبذة عن سيدنا زيد بن خارجة رضي اللهُ تعالى عنهما - شرح مسند الإمام أحمد رضي الله تعالى عنه","publishedAt":"2024-03-23T07:00:29Z","duration":"PT12M46S","thumbnail":"https://i.ytimg.com/vi/_3AxasItDAs/mqdefault.jpg","viewCount":"726","playlistId":"PLEkQk5xrP-tkKprIuGrSdEuBSMsyg5We1","playlistName":"شرح مسند الإمام أحمد بن حنبل","category":"متنوع"},{"id":"ndtUu2v6i2w","title":"89- نبذة عن سيدنا الحسن بن عليّ بن أبي طالب رضي اللهُ تعالى عنه وعليه السلام","publishedAt":"2024-03-25T06:30:11Z","duration":"PT48M57S","thumbnail":"https://i.ytimg.com/vi/ndtUu2v6i2w/mqdefault.jpg","viewCount":"3752","playlistId":"PLEkQk5xrP-tkKprIuGrSdEuBSMsyg5We1","playlistName":"شرح مسند الإمام أحمد بن حنبل","category":"متنوع"},{"id":"QDgT-UKuiTA","title":"90- نبذة عن سيدنا جعفر بن أبي طالب رضي اللهُ تعالى عنه - شرح مسند الإمام أحمد رضي اللهُ تعالى عنه","publishedAt":"2024-03-27T06:30:07Z","duration":"PT23M24S","thumbnail":"https://i.ytimg.com/vi/QDgT-UKuiTA/mqdefault.jpg","viewCount":"1168","playlistId":"PLEkQk5xrP-tkKprIuGrSdEuBSMsyg5We1","playlistName":"شرح مسند الإمام أحمد بن حنبل","category":"متنوع"},{"id":"gCdPRwL-Lh4","title":"91- نبذة عن سيدنا عبد الله بن جعفر بن أبي طالب رضي اللهُ تعالى عنهما","publishedAt":"2024-03-30T06:15:01Z","duration":"PT34M","thumbnail":"https://i.ytimg.com/vi/gCdPRwL-Lh4/mqdefault.jpg","viewCount":"1434","playlistId":"PLEkQk5xrP-tkKprIuGrSdEuBSMsyg5We1","playlistName":"شرح مسند الإمام أحمد بن حنبل","category":"متنوع"},{"id":"WgVGHBkT7Vs","title":"92- نبذة عن سيدنا العباس بن عبد المطلب رضي الله تعالى عنه - شرح مسند الإمام أحمد رضي الله تعالى عنه","publishedAt":"2024-04-11T07:00:11Z","duration":"PT34M1S","thumbnail":"https://i.ytimg.com/vi/WgVGHBkT7Vs/mqdefault.jpg","viewCount":"1382","playlistId":"PLEkQk5xrP-tkKprIuGrSdEuBSMsyg5We1","playlistName":"شرح مسند الإمام أحمد بن حنبل","category":"متنوع"},{"id":"Vb7DvCeDiRQ","title":"93- تكملة ما جاء في مسند سيدنا العباس بن عبد المطلب رضي الله تعالى عنه (2)","publishedAt":"2024-04-14T07:16:57Z","duration":"PT27M39S","thumbnail":"https://i.ytimg.com/vi/Vb7DvCeDiRQ/mqdefault.jpg","viewCount":"949","playlistId":"PLEkQk5xrP-tkKprIuGrSdEuBSMsyg5We1","playlistName":"شرح مسند الإمام أحمد بن حنبل","category":"متنوع"},{"id":"HHfFPrwe4QU","title":"94- نبذة عن سيدنا الفضل بن العباس رضي اللهُ تعالى عنهما - شرح مسند الإمام أحمد رضي الله تعالى عنه","publishedAt":"2024-04-17T06:31:15Z","duration":"PT22M41S","thumbnail":"https://i.ytimg.com/vi/HHfFPrwe4QU/mqdefault.jpg","viewCount":"1581","playlistId":"PLEkQk5xrP-tkKprIuGrSdEuBSMsyg5We1","playlistName":"شرح مسند الإمام أحمد بن حنبل","category":"متنوع"},{"id":"2IsGxVhH-Uk","title":"95- تكملة ما جاء في مسند سيدنا الفضل بن العباس رضي اللهُ تعالى عنهما (2)","publishedAt":"2024-04-19T07:00:02Z","duration":"PT26M27S","thumbnail":"https://i.ytimg.com/vi/2IsGxVhH-Uk/mqdefault.jpg","viewCount":"973","playlistId":"PLEkQk5xrP-tkKprIuGrSdEuBSMsyg5We1","playlistName":"شرح مسند الإمام أحمد بن حنبل","category":"متنوع"},{"id":"6e3akMZ5kXM","title":"96- نبذة عن سيدنا عبد الله بن عباس رضي اللهُ تعالى عنهما - شرح مسند الإمام أحمد رضي الله تعالى عنه","publishedAt":"2024-04-21T06:00:02Z","duration":"PT36M55S","thumbnail":"https://i.ytimg.com/vi/6e3akMZ5kXM/mqdefault.jpg","viewCount":"1721","playlistId":"PLEkQk5xrP-tkKprIuGrSdEuBSMsyg5We1","playlistName":"شرح مسند الإمام أحمد بن حنبل","category":"متنوع"}],"total":187,"page":4,"pageSize":24,"totalPages":8}