{"items":[{"id":"ywauUyoPVv4","title":"169- حكم أولاد المشركين - شرح مسند الإمام أحمد رضي الله تعالى عنه","publishedAt":"2025-09-19T04:30:49Z","duration":"PT15M49S","thumbnail":"https://i.ytimg.com/vi/ywauUyoPVv4/mqdefault.jpg","viewCount":"486","playlistId":"PLEkQk5xrP-tkKprIuGrSdEuBSMsyg5We1","playlistName":"شرح مسند الإمام أحمد بن حنبل","category":"متنوع"},{"id":"KB0zJnrYeGM","title":"170- ابتسم النبي ﷺ ورضي عن أدب الصحابة معه ﷺ - شرح مسند الإمام أحمد رضي الله تعالى عنه","publishedAt":"2025-09-28T09:00:25Z","duration":"PT14M16S","thumbnail":"https://i.ytimg.com/vi/KB0zJnrYeGM/mqdefault.jpg","viewCount":"534","playlistId":"PLEkQk5xrP-tkKprIuGrSdEuBSMsyg5We1","playlistName":"شرح مسند الإمام أحمد بن حنبل","category":"متنوع"},{"id":"ZOpuLIRgu0I","title":"171- نعمتان مغبون فيهما كثير من الناس الصحة والفراغ - شرح مسند الإمام أحمد رضي الله تعالى عنه","publishedAt":"2025-10-01T09:00:56Z","duration":"PT23M19S","thumbnail":"https://i.ytimg.com/vi/ZOpuLIRgu0I/mqdefault.jpg","viewCount":"751","playlistId":"PLEkQk5xrP-tkKprIuGrSdEuBSMsyg5We1","playlistName":"شرح مسند الإمام أحمد بن حنبل","category":"متنوع"},{"id":"15JMEdPFHVU","title":"172- حكم سفر المرأة للدراسة بغير محرم - شرح مسند الإمام أحمد رضي الله تعالى عنه","publishedAt":"2025-10-12T04:30:04Z","duration":"PT27M52S","thumbnail":"https://i.ytimg.com/vi/15JMEdPFHVU/mqdefault.jpg","viewCount":"784","playlistId":"PLEkQk5xrP-tkKprIuGrSdEuBSMsyg5We1","playlistName":"شرح مسند الإمام أحمد بن حنبل","category":"متنوع"},{"id":"VRfMC2ycBvE","title":"173- بشرى لأصحاب الأمراض المزمنة - شرح مسند الإمام أحمد رضي الله تعالى عنه","publishedAt":"2025-10-14T04:30:21Z","duration":"PT27M54S","thumbnail":"https://i.ytimg.com/vi/VRfMC2ycBvE/mqdefault.jpg","viewCount":"1153","playlistId":"PLEkQk5xrP-tkKprIuGrSdEuBSMsyg5We1","playlistName":"شرح مسند الإمام أحمد بن حنبل","category":"متنوع"},{"id":"xlJTUnVYBLM","title":"174- ما معنى الركاز؟ | كيفية التصرف في الكنز المدفون - شرح مسند الإمام أحمد رضي الله عنه","publishedAt":"2025-10-16T09:01:35Z","duration":"PT35M33S","thumbnail":"https://i.ytimg.com/vi/xlJTUnVYBLM/mqdefault.jpg","viewCount":"603","playlistId":"PLEkQk5xrP-tkKprIuGrSdEuBSMsyg5We1","playlistName":"شرح مسند الإمام أحمد بن حنبل","category":"متنوع"},{"id":"r-BJwj9TITI","title":"175- الدين النصيحة - شرح مسند الإمام أحمد رضي الله تعالى عنه","publishedAt":"2025-10-19T09:01:15Z","duration":"PT37M55S","thumbnail":"https://i.ytimg.com/vi/r-BJwj9TITI/mqdefault.jpg","viewCount":"606","playlistId":"PLEkQk5xrP-tkKprIuGrSdEuBSMsyg5We1","playlistName":"شرح مسند الإمام أحمد بن حنبل","category":"متنوع"},{"id":"EK26J7nKXSQ","title":"176- ما الوقت المناسب لعمل الحجامة؟ وعلاقته بالدورة الدموية - شرح مسند الإمام أحمد رضي الله عنه","publishedAt":"2025-10-23T09:00:22Z","duration":"PT29M6S","thumbnail":"https://i.ytimg.com/vi/EK26J7nKXSQ/mqdefault.jpg","viewCount":"975","playlistId":"PLEkQk5xrP-tkKprIuGrSdEuBSMsyg5We1","playlistName":"شرح مسند الإمام أحمد بن حنبل","category":"متنوع"},{"id":"L5x10VWTByw","title":"177- من أراد الحج فليتعجل - شرح مسند الإمام أحمد رضي الله تعالى عنه","publishedAt":"2025-10-29T04:30:14Z","duration":"PT33M53S","thumbnail":"https://i.ytimg.com/vi/L5x10VWTByw/mqdefault.jpg","viewCount":"640","playlistId":"PLEkQk5xrP-tkKprIuGrSdEuBSMsyg5We1","playlistName":"شرح مسند الإمام أحمد بن حنبل","category":"متنوع"},{"id":"eSfHwUAVjG8","title":"178- متى يصام يوم عرفة وأيام التشريق بلا كراهة؟ - شرح مسند الإمام أحمد رضي الله تعالى عنه","publishedAt":"2025-10-30T04:30:23Z","duration":"PT35M23S","thumbnail":"https://i.ytimg.com/vi/eSfHwUAVjG8/mqdefault.jpg","viewCount":"347","playlistId":"PLEkQk5xrP-tkKprIuGrSdEuBSMsyg5We1","playlistName":"شرح مسند الإمام أحمد بن حنبل","category":"متنوع"},{"id":"_k535ZGB_kk","title":"179- لا تسأل الناس شيئا ولو يسيرا - شرح مسند الإمام أحمد رضي الله تعالى عنه","publishedAt":"2025-11-03T05:30:15Z","duration":"PT26M52S","thumbnail":"https://i.ytimg.com/vi/_k535ZGB_kk/mqdefault.jpg","viewCount":"1636","playlistId":"PLEkQk5xrP-tkKprIuGrSdEuBSMsyg5We1","playlistName":"شرح مسند الإمام أحمد بن حنبل","category":"متنوع"},{"id":"IbsKXdWdd9Q","title":"180- رؤية النبي ﷺ في المنام - شرح مسند الإمام أحمد رضي الله تعالى عنه","publishedAt":"2025-11-05T05:36:34Z","duration":"PT26M4S","thumbnail":"https://i.ytimg.com/vi/IbsKXdWdd9Q/mqdefault.jpg","viewCount":"1652","playlistId":"PLEkQk5xrP-tkKprIuGrSdEuBSMsyg5We1","playlistName":"شرح مسند الإمام أحمد بن حنبل","category":"متنوع"},{"id":"_zxdEDjvbKM","title":"181- كيف نحبب أبناءنا في التعليم؟ - شرح مسند الإمام أحمد رضي الله تعالى عنه","publishedAt":"2025-11-07T05:41:17Z","duration":"PT33M42S","thumbnail":"https://i.ytimg.com/vi/_zxdEDjvbKM/mqdefault.jpg","viewCount":"723","playlistId":"PLEkQk5xrP-tkKprIuGrSdEuBSMsyg5We1","playlistName":"شرح مسند الإمام أحمد بن حنبل","category":"متنوع"},{"id":"dDX_akFojEY","title":"182- دليل جواز الذكر وختام الصلاة جهرًا جماعة - شرح مسند الإمام أحمد رضي الله تعالى عنه","publishedAt":"2025-11-17T10:01:06Z","duration":"PT20M19S","thumbnail":"https://i.ytimg.com/vi/dDX_akFojEY/mqdefault.jpg","viewCount":"570","playlistId":"PLEkQk5xrP-tkKprIuGrSdEuBSMsyg5We1","playlistName":"شرح مسند الإمام أحمد بن حنبل","category":"متنوع"},{"id":"eLGwJOCNeHA","title":"183- {وَعَلَّمَكَ مَا لَمْ تَكُن تَعْلَمُ ۚ وَكَانَ فَضْلُ اللَّهِ عَلَيْكَ عَظِيمًا}","publishedAt":"2025-11-19T10:01:12Z","duration":"PT24M19S","thumbnail":"https://i.ytimg.com/vi/eLGwJOCNeHA/mqdefault.jpg","viewCount":"911","playlistId":"PLEkQk5xrP-tkKprIuGrSdEuBSMsyg5We1","playlistName":"شرح مسند الإمام أحمد بن حنبل","category":"متنوع"},{"id":"Hdy9w6VRM6o","title":"184- ما الفرق بين الرؤيا والرؤية؟ | أ.د.يسري جبر","publishedAt":"2025-11-21T10:00:26Z","duration":"PT20M29S","thumbnail":"https://i.ytimg.com/vi/Hdy9w6VRM6o/mqdefault.jpg","viewCount":"696","playlistId":"PLEkQk5xrP-tkKprIuGrSdEuBSMsyg5We1","playlistName":"شرح مسند الإمام أحمد بن حنبل","category":"متنوع"},{"id":"SZCxQBzqyO0","title":"185- {فَلَا وَرَبِّكَ لَا يُؤْمِنُونَ حَتَّىٰ يُحَكِّمُوكَ فِيمَا شَجَرَ بَيْنَهُمْ}","publishedAt":"2025-11-25T05:30:16Z","duration":"PT18M41S","thumbnail":"https://i.ytimg.com/vi/SZCxQBzqyO0/mqdefault.jpg","viewCount":"636","playlistId":"PLEkQk5xrP-tkKprIuGrSdEuBSMsyg5We1","playlistName":"شرح مسند الإمام أحمد بن حنبل","category":"متنوع"}],"total":185,"page":8,"pageSize":24,"totalPages":8}