{"items":[{"id":"uqKfA6PSVPg","title":"كيف طلبت العلم على يد السيد عبد الله الصديق الغماري؟","publishedAt":"2021-09-11T18:39:07Z","duration":"PT13M10S","thumbnail":"https://i.ytimg.com/vi/uqKfA6PSVPg/mqdefault.jpg","viewCount":"32555","playlistId":"PLEkQk5xrP-tl6tFiMFGUucCTvLgnWyAfz","playlistName":"حياة الأستاذ الدكتور يسري جبر","category":"متنوع"},{"id":"6HG3Jq8g8-k","title":"مقرأة سورة الزمر من آية ١٣","publishedAt":"2018-10-16T07:26:35Z","duration":"PT13M18S","thumbnail":"https://i.ytimg.com/vi/6HG3Jq8g8-k/mqdefault.jpg","viewCount":"328","playlistId":"PLEkQk5xrP-tnmTYsyW6xNdyfhPq0Bhrhj","playlistName":"مقرأة الفجر - القُرْآنُ الكَرِيمُ - خَتْمَةُ التَّدَبُّرِ  أ.د. يسري جبر","category":"متنوع"},{"id":"2YIRuSNvNI4","title":"مقرأة سورة الزمر من آية ١١","publishedAt":"2018-10-15T10:13:57Z","duration":"PT17M17S","thumbnail":"https://i.ytimg.com/vi/2YIRuSNvNI4/mqdefault.jpg","viewCount":"386","playlistId":"PLEkQk5xrP-tnmTYsyW6xNdyfhPq0Bhrhj","playlistName":"مقرأة الفجر - القُرْآنُ الكَرِيمُ - خَتْمَةُ التَّدَبُّرِ  أ.د. يسري جبر","category":"متنوع"},{"id":"4rVTdVGeOc0","title":"مقرأة سورة الإسراء من آية ٨٠","publishedAt":"2017-10-05T13:44:00Z","duration":"PT7M","thumbnail":"https://i.ytimg.com/vi/4rVTdVGeOc0/mqdefault.jpg","viewCount":"468","playlistId":"PLEkQk5xrP-tnmTYsyW6xNdyfhPq0Bhrhj","playlistName":"مقرأة الفجر - القُرْآنُ الكَرِيمُ - خَتْمَةُ التَّدَبُّرِ  أ.د. يسري جبر","category":"متنوع"},{"id":"GHPe2K_UPi0","title":"مقرأة سورة الإسراء من آية ٧٦","publishedAt":"2017-10-04T13:40:17Z","duration":"PT19M16S","thumbnail":"https://i.ytimg.com/vi/GHPe2K_UPi0/mqdefault.jpg","viewCount":"348","playlistId":"PLEkQk5xrP-tnmTYsyW6xNdyfhPq0Bhrhj","playlistName":"مقرأة الفجر - القُرْآنُ الكَرِيمُ - خَتْمَةُ التَّدَبُّرِ  أ.د. يسري جبر","category":"متنوع"},{"id":"Zgq9gdt0i2g","title":"مقرأة سورة الإسراء من آية ٧٠","publishedAt":"2017-10-03T12:44:11Z","duration":"PT24M25S","thumbnail":"https://i.ytimg.com/vi/Zgq9gdt0i2g/mqdefault.jpg","viewCount":"493","playlistId":"PLEkQk5xrP-tnmTYsyW6xNdyfhPq0Bhrhj","playlistName":"مقرأة الفجر - القُرْآنُ الكَرِيمُ - خَتْمَةُ التَّدَبُّرِ  أ.د. يسري جبر","category":"متنوع"},{"id":"RdSPqUC-AGI","title":"مقرأة سورة الإسراء من آية ٦٦","publishedAt":"2017-10-02T09:26:48Z","duration":"PT21M22S","thumbnail":"https://i.ytimg.com/vi/RdSPqUC-AGI/mqdefault.jpg","viewCount":"353","playlistId":"PLEkQk5xrP-tnmTYsyW6xNdyfhPq0Bhrhj","playlistName":"مقرأة الفجر - القُرْآنُ الكَرِيمُ - خَتْمَةُ التَّدَبُّرِ  أ.د. يسري جبر","category":"متنوع"},{"id":"t9r8EeZB7ZM","title":"مقرأة سورة الإسراء من آية ٦١","publishedAt":"2017-10-01T09:48:35Z","duration":"PT32M27S","thumbnail":"https://i.ytimg.com/vi/t9r8EeZB7ZM/mqdefault.jpg","viewCount":"444","playlistId":"PLEkQk5xrP-tnmTYsyW6xNdyfhPq0Bhrhj","playlistName":"مقرأة الفجر - القُرْآنُ الكَرِيمُ - خَتْمَةُ التَّدَبُّرِ  أ.د. يسري جبر","category":"متنوع"},{"id":"WYsDduOnUbQ","title":"مقرأة سورة الإسراء من آية ٦٠","publishedAt":"2017-09-30T09:41:02Z","duration":"PT8M39S","thumbnail":"https://i.ytimg.com/vi/WYsDduOnUbQ/mqdefault.jpg","viewCount":"343","playlistId":"PLEkQk5xrP-tnmTYsyW6xNdyfhPq0Bhrhj","playlistName":"مقرأة الفجر - القُرْآنُ الكَرِيمُ - خَتْمَةُ التَّدَبُّرِ  أ.د. يسري جبر","category":"متنوع"},{"id":"p2Bplg012aw","title":"مقرأة سورة الإسراء من آية ٥٦","publishedAt":"2017-09-28T10:20:03Z","duration":"PT12M27S","thumbnail":"https://i.ytimg.com/vi/p2Bplg012aw/mqdefault.jpg","viewCount":"348","playlistId":"PLEkQk5xrP-tnmTYsyW6xNdyfhPq0Bhrhj","playlistName":"مقرأة الفجر - القُرْآنُ الكَرِيمُ - خَتْمَةُ التَّدَبُّرِ  أ.د. يسري جبر","category":"متنوع"},{"id":"FiCGgzHkj-w","title":"شرح سنن الدارمي كتاب الصلاة من باب ٢١٧","publishedAt":"2019-06-04T20:14:24Z","duration":"PT25M46S","thumbnail":"https://i.ytimg.com/vi/FiCGgzHkj-w/mqdefault.jpg","viewCount":"319","playlistId":"PLEkQk5xrP-tmAg-FuWjY057X_h5NmGmAa","playlistName":"شرح سنن الدارمي - أ.د. يسري جبر (كاملا)","category":"متنوع"},{"id":"NgYWk3iYVgA","title":"حَدِيث (١٨٢) الرؤْيَا الصَّالِحَةُ مِنَ اللَّهِ وَالحُلْمُ مِنَ الشَّيطَانِ  - أ.د. يسري جبر","publishedAt":"2019-06-04T15:41:02Z","duration":"PT20M10S","thumbnail":"https://i.ytimg.com/vi/NgYWk3iYVgA/mqdefault.jpg","viewCount":"1686","playlistId":"PLEkQk5xrP-tnl7vb7KeAoPd5ZlqKKW8KV","playlistName":"شرح كتاب بهجة النفوس أ.د . يسرى جبر","category":"متنوع"},{"id":"JOeuT37F9Cs","title":"مقرأة سورة القيامة من آية ٢٠","publishedAt":"2019-06-04T10:54:39Z","duration":"PT15M56S","thumbnail":"https://i.ytimg.com/vi/JOeuT37F9Cs/mqdefault.jpg","viewCount":"405","playlistId":"PLEkQk5xrP-tnmTYsyW6xNdyfhPq0Bhrhj","playlistName":"مقرأة الفجر - القُرْآنُ الكَرِيمُ - خَتْمَةُ التَّدَبُّرِ  أ.د. يسري جبر","category":"متنوع"},{"id":"t1gmdALR4YM","title":"حديث (١٨١) الالتِفَاتُ فِي الصَّلَاةِ.  أ.د. يسري جبر","publishedAt":"2019-06-03T15:10:59Z","duration":"PT11M19S","thumbnail":"https://i.ytimg.com/vi/t1gmdALR4YM/mqdefault.jpg","viewCount":"399","playlistId":"PLEkQk5xrP-tnl7vb7KeAoPd5ZlqKKW8KV","playlistName":"شرح كتاب بهجة النفوس أ.د . يسرى جبر","category":"متنوع"},{"id":"9zfDFIYFQtQ","title":"( 135 ) حديث من أعان غازياً فله مثل أجره  د. يسري جبر","publishedAt":"2017-06-20T23:25:13Z","duration":"PT26M30S","thumbnail":"https://i.ytimg.com/vi/9zfDFIYFQtQ/mqdefault.jpg","viewCount":"184","playlistId":"PLEkQk5xrP-tnl7vb7KeAoPd5ZlqKKW8KV","playlistName":"شرح كتاب بهجة النفوس أ.د . يسرى جبر","category":"متنوع"},{"id":"-gW2bRq0Cr8","title":"شرح الحزب الكبير- المجلس الثاني   د.يسري جبر","publishedAt":"2017-06-20T10:55:24Z","duration":"PT38M16S","thumbnail":"https://i.ytimg.com/vi/-gW2bRq0Cr8/mqdefault.jpg","viewCount":"20962","playlistId":"PLEkQk5xrP-tlm5F9ID5I_--LMV7PcWjp_","playlistName":"شرح الحزب الكبير لسيدى أبي الحسن الشاذلي د.يسري جبر","category":"متنوع"},{"id":"PI0Qfb465FM","title":"شرح الحزب الكبير- المجلس الأول   د.يسري جبر","publishedAt":"2017-06-20T04:32:13Z","duration":"PT44M27S","thumbnail":"https://i.ytimg.com/vi/PI0Qfb465FM/mqdefault.jpg","viewCount":"76786","playlistId":"PLEkQk5xrP-tlm5F9ID5I_--LMV7PcWjp_","playlistName":"شرح الحزب الكبير لسيدى أبي الحسن الشاذلي د.يسري جبر","category":"متنوع"},{"id":"sxY3subbAoE","title":"( 134 ) حديث فضل الصيام في الجهاد -  د. يسري جبر","publishedAt":"2017-06-20T04:25:43Z","duration":"PT23M58S","thumbnail":"https://i.ytimg.com/vi/sxY3subbAoE/mqdefault.jpg","viewCount":"217","playlistId":"PLEkQk5xrP-tnl7vb7KeAoPd5ZlqKKW8KV","playlistName":"شرح كتاب بهجة النفوس أ.د . يسرى جبر","category":"متنوع"},{"id":"7mWMrimsXsQ","title":"مقرأة سورة هود من آية ٩٦","publishedAt":"2017-06-19T11:26:24Z","duration":"PT27M8S","thumbnail":"https://i.ytimg.com/vi/7mWMrimsXsQ/mqdefault.jpg","viewCount":"312","playlistId":"PLEkQk5xrP-tnmTYsyW6xNdyfhPq0Bhrhj","playlistName":"مقرأة الفجر - القُرْآنُ الكَرِيمُ - خَتْمَةُ التَّدَبُّرِ  أ.د. يسري جبر","category":"متنوع"},{"id":"gTsSdKJHofk","title":"( 133 ) حديث حفر الخندق في غزوة الأحزاب د. يسري جبر","publishedAt":"2017-06-18T13:55:36Z","duration":"PT19M14S","thumbnail":"https://i.ytimg.com/vi/gTsSdKJHofk/mqdefault.jpg","viewCount":"914","playlistId":"PLEkQk5xrP-tnl7vb7KeAoPd5ZlqKKW8KV","playlistName":"شرح كتاب بهجة النفوس أ.د . يسرى جبر","category":"متنوع"},{"id":"iYTJ1saNEWI","title":"مقرأة سورة هود من آية ١٠٦","publishedAt":"2017-06-18T08:07:10Z","duration":"PT18M59S","thumbnail":"https://i.ytimg.com/vi/iYTJ1saNEWI/mqdefault.jpg","viewCount":"298","playlistId":"PLEkQk5xrP-tnmTYsyW6xNdyfhPq0Bhrhj","playlistName":"مقرأة الفجر - القُرْآنُ الكَرِيمُ - خَتْمَةُ التَّدَبُّرِ  أ.د. يسري جبر","category":"متنوع"},{"id":"J1MNCtwkSNM","title":"نور مستودع في القلوب، مدده من النور الوارد من خزائن الغيوب .","publishedAt":"2017-03-27T18:08:50Z","duration":"PT15M22S","thumbnail":"https://i.ytimg.com/vi/J1MNCtwkSNM/mqdefault.jpg","viewCount":"2781","playlistId":"PLEkQk5xrP-tkI_meE148wc7V7XHlB0WPb","playlistName":"من الحكم العطائية  د. يسري جبر","category":"متنوع"},{"id":"lzDDc5YsYls","title":"سورة الأنفال آية 64","publishedAt":"2017-03-27T06:10:24Z","duration":"PT23M18S","thumbnail":"https://i.ytimg.com/vi/lzDDc5YsYls/mqdefault.jpg","viewCount":"495","playlistId":"PLEkQk5xrP-tnmTYsyW6xNdyfhPq0Bhrhj","playlistName":"مقرأة الفجر - القُرْآنُ الكَرِيمُ - خَتْمَةُ التَّدَبُّرِ  أ.د. يسري جبر","category":"متنوع"},{"id":"cgd18-iFGGw","title":"46- بِنَاءِ الْكَعْبَةِ كتاب الحج ك الموطأ د يسري جبر الأزهري  بمضيفة الشيخ سعيد الدح","publishedAt":"2017-03-26T22:47:23Z","duration":"PT59M10S","thumbnail":"https://i.ytimg.com/vi/cgd18-iFGGw/mqdefault.jpg","viewCount":"343","playlistId":"PLEkQk5xrP-tnC6BRuqMjyO-484iqXeg0o","playlistName":"شرح كتاب الموطأ للإمام مالك","category":"متنوع"}],"total":4126,"page":49,"pageSize":24,"totalPages":172}