{"items":[{"id":"FHrdOfBRlSU","title":"سورة البقرة آية 142","publishedAt":"2016-05-02T07:51:25Z","duration":"PT19M9S","thumbnail":"https://i.ytimg.com/vi/FHrdOfBRlSU/mqdefault.jpg","viewCount":"1185","playlistId":"PLEkQk5xrP-tnmTYsyW6xNdyfhPq0Bhrhj","playlistName":"مقرأة الفجر - القُرْآنُ الكَرِيمُ - خَتْمَةُ التَّدَبُّرِ  أ.د. يسري جبر","category":"متنوع"},{"id":"Ai25MbyFGpU","title":"سورة البقرة آية 133","publishedAt":"2016-05-01T02:53:01Z","duration":"PT8M39S","thumbnail":"https://i.ytimg.com/vi/Ai25MbyFGpU/mqdefault.jpg","viewCount":"1119","playlistId":"PLEkQk5xrP-tnmTYsyW6xNdyfhPq0Bhrhj","playlistName":"مقرأة الفجر - القُرْآنُ الكَرِيمُ - خَتْمَةُ التَّدَبُّرِ  أ.د. يسري جبر","category":"متنوع"},{"id":"GcBM0tMKhrU","title":"شرح كتاب تفسير القرآن من سنن الترمذي - المجلس الرابع والعشرون","publishedAt":"2016-05-01T02:53:01Z","duration":"PT33M12S","thumbnail":"https://i.ytimg.com/vi/GcBM0tMKhrU/mqdefault.jpg","viewCount":"100","playlistId":"PLEkQk5xrP-tnu6of679SvxdVx0qSrJzmb","playlistName":"شرح سنن الإمام الترمذي رضى الله عنه د. يسري جبر","category":"متنوع"},{"id":"gR_T3WwL7Xk","title":"الأنانية وحب الذات - د. يسري جبر","publishedAt":"2016-04-30T01:37:32Z","duration":"PT40M53S","thumbnail":"https://i.ytimg.com/vi/gR_T3WwL7Xk/mqdefault.jpg","viewCount":"1716","playlistId":"PLEkQk5xrP-tmJzNvLntpzW0uPanPzxA0c","playlistName":"لقاءات ومحاضرات","category":"متنوع"},{"id":"rRsua6dsPSI","title":"شرح كتاب تفسير القرآن من سنن الترمذي - المجلس الثالث والعشرون","publishedAt":"2016-04-29T09:15:27Z","duration":"PT32M19S","thumbnail":"https://i.ytimg.com/vi/rRsua6dsPSI/mqdefault.jpg","viewCount":"77","playlistId":"PLEkQk5xrP-tnu6of679SvxdVx0qSrJzmb","playlistName":"شرح سنن الإمام الترمذي رضى الله عنه د. يسري جبر","category":"متنوع"},{"id":"A8szgQVTlcw","title":"سورة البقرة آية 124","publishedAt":"2016-04-29T09:15:20Z","duration":"PT27M17S","thumbnail":"https://i.ytimg.com/vi/A8szgQVTlcw/mqdefault.jpg","viewCount":"1244","playlistId":"PLEkQk5xrP-tnmTYsyW6xNdyfhPq0Bhrhj","playlistName":"مقرأة الفجر - القُرْآنُ الكَرِيمُ - خَتْمَةُ التَّدَبُّرِ  أ.د. يسري جبر","category":"متنوع"},{"id":"5mwPABuNVYI","title":"سورة البقرة آية 114","publishedAt":"2016-04-29T00:39:56Z","duration":"PT11M5S","thumbnail":"https://i.ytimg.com/vi/5mwPABuNVYI/mqdefault.jpg","viewCount":"1231","playlistId":"PLEkQk5xrP-tnmTYsyW6xNdyfhPq0Bhrhj","playlistName":"مقرأة الفجر - القُرْآنُ الكَرِيمُ - خَتْمَةُ التَّدَبُّرِ  أ.د. يسري جبر","category":"متنوع"},{"id":"32_86IEtzkI","title":"شرح كتاب تفسير القرآن من سنن الترمذي - المجلس الثاني والعشرون","publishedAt":"2016-04-29T00:39:56Z","duration":"PT34M32S","thumbnail":"https://i.ytimg.com/vi/32_86IEtzkI/mqdefault.jpg","viewCount":"80","playlistId":"PLEkQk5xrP-tnu6of679SvxdVx0qSrJzmb","playlistName":"شرح سنن الإمام الترمذي رضى الله عنه د. يسري جبر","category":"متنوع"},{"id":"XtRbyFU70jM","title":"شرح كتاب تفسير القرآن من سنن الترمذي - المجلس الحادي والعشرون","publishedAt":"2016-04-28T02:08:29Z","duration":"PT35M20S","thumbnail":"https://i.ytimg.com/vi/XtRbyFU70jM/mqdefault.jpg","viewCount":"89","playlistId":"PLEkQk5xrP-tnu6of679SvxdVx0qSrJzmb","playlistName":"شرح سنن الإمام الترمذي رضى الله عنه د. يسري جبر","category":"متنوع"},{"id":"Eva82eq-Mq8","title":"سورة البقرة آية 106","publishedAt":"2016-04-28T02:06:49Z","duration":"PT22M56S","thumbnail":"https://i.ytimg.com/vi/Eva82eq-Mq8/mqdefault.jpg","viewCount":"1448","playlistId":"PLEkQk5xrP-tnmTYsyW6xNdyfhPq0Bhrhj","playlistName":"مقرأة الفجر - القُرْآنُ الكَرِيمُ - خَتْمَةُ التَّدَبُّرِ  أ.د. يسري جبر","category":"متنوع"},{"id":"ZqLr0fkoAZI","title":"شرح كتاب تفسير القرآن من سنن الترمذي - المجلس العشرون","publishedAt":"2016-04-27T03:03:53Z","duration":"PT38M43S","thumbnail":"https://i.ytimg.com/vi/ZqLr0fkoAZI/mqdefault.jpg","viewCount":"120","playlistId":"PLEkQk5xrP-tnu6of679SvxdVx0qSrJzmb","playlistName":"شرح سنن الإمام الترمذي رضى الله عنه د. يسري جبر","category":"متنوع"},{"id":"LBuSNHfYZ_c","title":"سورة البقرة آية 101","publishedAt":"2016-04-27T03:03:01Z","duration":"PT18M49S","thumbnail":"https://i.ytimg.com/vi/LBuSNHfYZ_c/mqdefault.jpg","viewCount":"1476","playlistId":"PLEkQk5xrP-tnmTYsyW6xNdyfhPq0Bhrhj","playlistName":"مقرأة الفجر - القُرْآنُ الكَرِيمُ - خَتْمَةُ التَّدَبُّرِ  أ.د. يسري جبر","category":"متنوع"},{"id":"QAbJPIc2byI","title":"معنى الجهاد في سبيل الله | مع الناس","publishedAt":"2016-04-26T21:56:47Z","duration":"PT3M13S","thumbnail":"https://i.ytimg.com/vi/QAbJPIc2byI/mqdefault.jpg","viewCount":"1660","playlistId":"PLEkQk5xrP-tmJzNvLntpzW0uPanPzxA0c","playlistName":"لقاءات ومحاضرات","category":"متنوع"},{"id":"YUkDvdXyh18","title":"الفرق بين النفس والروح | مع الناس","publishedAt":"2016-04-26T21:54:13Z","duration":"PT4M54S","thumbnail":"https://i.ytimg.com/vi/YUkDvdXyh18/mqdefault.jpg","viewCount":"19331","playlistId":"PLEkQk5xrP-tmJzNvLntpzW0uPanPzxA0c","playlistName":"لقاءات ومحاضرات","category":"متنوع"},{"id":"WQz5smOu7tI","title":"معنى التصوف في الإسلام | مع الناس","publishedAt":"2016-04-26T21:51:00Z","duration":"PT7M8S","thumbnail":"https://i.ytimg.com/vi/WQz5smOu7tI/mqdefault.jpg","viewCount":"14614","playlistId":"PLEkQk5xrP-tmJzNvLntpzW0uPanPzxA0c","playlistName":"لقاءات ومحاضرات","category":"متنوع"},{"id":"105bBH9M1_k","title":"شرح كتاب تفسير القرآن من سنن الترمذي - المجلس التاسع عشر","publishedAt":"2016-04-26T02:56:36Z","duration":"PT31M39S","thumbnail":"https://i.ytimg.com/vi/105bBH9M1_k/mqdefault.jpg","viewCount":"110","playlistId":"PLEkQk5xrP-tnu6of679SvxdVx0qSrJzmb","playlistName":"شرح سنن الإمام الترمذي رضى الله عنه د. يسري جبر","category":"متنوع"},{"id":"p_kbpa3ajl0","title":"سورة البقرة آية 92","publishedAt":"2016-04-26T02:56:07Z","duration":"PT21M58S","thumbnail":"https://i.ytimg.com/vi/p_kbpa3ajl0/mqdefault.jpg","viewCount":"1404","playlistId":"PLEkQk5xrP-tnmTYsyW6xNdyfhPq0Bhrhj","playlistName":"مقرأة الفجر - القُرْآنُ الكَرِيمُ - خَتْمَةُ التَّدَبُّرِ  أ.د. يسري جبر","category":"متنوع"},{"id":"W1OYv0mQibk","title":"شرح كتاب تفسير القرآن من سنن الترمذي - المجلس الثامن عشر","publishedAt":"2016-04-25T21:08:56Z","duration":"PT34M45S","thumbnail":"https://i.ytimg.com/vi/W1OYv0mQibk/mqdefault.jpg","viewCount":"119","playlistId":"PLEkQk5xrP-tnu6of679SvxdVx0qSrJzmb","playlistName":"شرح سنن الإمام الترمذي رضى الله عنه د. يسري جبر","category":"متنوع"},{"id":"DoHqhPp6TrM","title":"سورة البقرة آية 87","publishedAt":"2016-04-25T21:08:37Z","duration":"PT8M54S","thumbnail":"https://i.ytimg.com/vi/DoHqhPp6TrM/mqdefault.jpg","viewCount":"1360","playlistId":"PLEkQk5xrP-tnmTYsyW6xNdyfhPq0Bhrhj","playlistName":"مقرأة الفجر - القُرْآنُ الكَرِيمُ - خَتْمَةُ التَّدَبُّرِ  أ.د. يسري جبر","category":"متنوع"},{"id":"aq8LN-3HIsw","title":"شرح كتاب تفسير القرآن من سنن الترمذي - المجلس السابع عشر","publishedAt":"2016-04-24T22:47:15Z","duration":"PT39M37S","thumbnail":"https://i.ytimg.com/vi/aq8LN-3HIsw/mqdefault.jpg","viewCount":"85","playlistId":"PLEkQk5xrP-tnu6of679SvxdVx0qSrJzmb","playlistName":"شرح سنن الإمام الترمذي رضى الله عنه د. يسري جبر","category":"متنوع"},{"id":"Tfdf1YiWe9Y","title":"سورة البقرة آية 75","publishedAt":"2016-04-24T22:46:50Z","duration":"PT20M16S","thumbnail":"https://i.ytimg.com/vi/Tfdf1YiWe9Y/mqdefault.jpg","viewCount":"1686","playlistId":"PLEkQk5xrP-tnmTYsyW6xNdyfhPq0Bhrhj","playlistName":"مقرأة الفجر - القُرْآنُ الكَرِيمُ - خَتْمَةُ التَّدَبُّرِ  أ.د. يسري جبر","category":"متنوع"},{"id":"EoIihwMNT2w","title":"11- باب مَا جَاءَ فِى النِّدَاءِ لِلصَّلاَةِ ك الصلاة ك الموطأ د يسري جبر الأزهري بمضيفة الدح","publishedAt":"2016-04-23T11:23:25Z","duration":"PT57M37S","thumbnail":"https://i.ytimg.com/vi/EoIihwMNT2w/mqdefault.jpg","viewCount":"690","playlistId":"PLEkQk5xrP-tnC6BRuqMjyO-484iqXeg0o","playlistName":"شرح كتاب الموطأ للإمام مالك","category":"متنوع"},{"id":"YWi9EJdROWU","title":"سُورة البقرة آية 67","publishedAt":"2016-04-22T20:22:40Z","duration":"PT25M8S","thumbnail":"https://i.ytimg.com/vi/YWi9EJdROWU/mqdefault.jpg","viewCount":"1709","playlistId":"PLEkQk5xrP-tnmTYsyW6xNdyfhPq0Bhrhj","playlistName":"مقرأة الفجر - القُرْآنُ الكَرِيمُ - خَتْمَةُ التَّدَبُّرِ  أ.د. يسري جبر","category":"متنوع"},{"id":"zBxkZNoQeoA","title":"شرح كتاب تفسير القرآن من سنن الترمذي - المجلس السادس عشر","publishedAt":"2016-04-22T18:23:29Z","duration":"PT37M50S","thumbnail":"https://i.ytimg.com/vi/zBxkZNoQeoA/mqdefault.jpg","viewCount":"102","playlistId":"PLEkQk5xrP-tnu6of679SvxdVx0qSrJzmb","playlistName":"شرح سنن الإمام الترمذي رضى الله عنه د. يسري جبر","category":"متنوع"}],"total":4126,"page":17,"pageSize":24,"totalPages":172}