{"items":[{"id":"tMH_PnOCoP0","title":"شرح كتاب منازل السائرين للإمام الهروى - المجلس الرابع والثلاثون قسم الأُصول باب الإرادة وباب الأدب","publishedAt":"2015-01-12T04:37:22Z","duration":"PT1H14M37S","thumbnail":"https://i.ytimg.com/vi/tMH_PnOCoP0/mqdefault.jpg","viewCount":"1934","playlistId":"PLEkQk5xrP-tnLYi_5_tSRVBwqcs7ISV7Y","playlistName":"شرح كتاب منازل السائرين للإمام الهروي","category":"متنوع"},{"id":"ZC7NQSRLLnk","title":"النورالدائم - د.يسري جبر","publishedAt":"2015-01-10T18:04:01Z","duration":"PT3M12S","thumbnail":"https://i.ytimg.com/vi/ZC7NQSRLLnk/mqdefault.jpg","viewCount":"19455","playlistId":"PLEkQk5xrP-tm8ZIu74nTOZN9KJUJu416J","playlistName":"مقاطع مُهمَّة (يُسريَّات) أ.د. يسري جبر","category":"متنوع"},{"id":"Drp9JH7JraI","title":"من الفوائد اليسرية فى كيفية صلاة الله وملائكته على خير البرية","publishedAt":"2015-01-05T20:00:34Z","duration":"PT4M45S","thumbnail":"https://i.ytimg.com/vi/Drp9JH7JraI/mqdefault.jpg","viewCount":"9084","playlistId":"PLEkQk5xrP-tm8ZIu74nTOZN9KJUJu416J","playlistName":"مقاطع مُهمَّة (يُسريَّات) أ.د. يسري جبر","category":"متنوع"},{"id":"bVCWEzbgQbA","title":"شرح كتاب منازل السائرين للإمام الهروى - المجلس الثالث والثلاثون - قسم الأُصول باب القصد وباب العزم","publishedAt":"2015-01-05T04:19:03Z","duration":"PT52M25S","thumbnail":"https://i.ytimg.com/vi/bVCWEzbgQbA/mqdefault.jpg","viewCount":"1399","playlistId":"PLEkQk5xrP-tnLYi_5_tSRVBwqcs7ISV7Y","playlistName":"شرح كتاب منازل السائرين للإمام الهروي","category":"متنوع"},{"id":"LU8pPhM05DI","title":"مقرأة سورة الكهف من آية ٧١","publishedAt":"2017-10-30T18:28:23Z","duration":"PT15M34S","thumbnail":"https://i.ytimg.com/vi/LU8pPhM05DI/mqdefault.jpg","viewCount":"423","playlistId":"PLEkQk5xrP-tnmTYsyW6xNdyfhPq0Bhrhj","playlistName":"مقرأة الفجر - القُرْآنُ الكَرِيمُ - خَتْمَةُ التَّدَبُّرِ  أ.د. يسري جبر","category":"متنوع"},{"id":"cvN9NLtfPuU","title":"مقرأة سورة الكهف من آية ٦٠","publishedAt":"2017-10-30T04:03:24Z","duration":"PT24M5S","thumbnail":"https://i.ytimg.com/vi/cvN9NLtfPuU/mqdefault.jpg","viewCount":"487","playlistId":"PLEkQk5xrP-tnmTYsyW6xNdyfhPq0Bhrhj","playlistName":"مقرأة الفجر - القُرْآنُ الكَرِيمُ - خَتْمَةُ التَّدَبُّرِ  أ.د. يسري جبر","category":"متنوع"},{"id":"l5T7MyrTu50","title":"مقرأة سورة الكهف من آية ٥٤","publishedAt":"2017-10-27T14:02:56Z","duration":"PT16M34S","thumbnail":"https://i.ytimg.com/vi/l5T7MyrTu50/mqdefault.jpg","viewCount":"515","playlistId":"PLEkQk5xrP-tnmTYsyW6xNdyfhPq0Bhrhj","playlistName":"مقرأة الفجر - القُرْآنُ الكَرِيمُ - خَتْمَةُ التَّدَبُّرِ  أ.د. يسري جبر","category":"متنوع"},{"id":"96GJGRbvieo","title":"مقرأة سورة الكهف من آية ٥٠","publishedAt":"2017-10-26T12:41:23Z","duration":"PT13M54S","thumbnail":"https://i.ytimg.com/vi/96GJGRbvieo/mqdefault.jpg","viewCount":"439","playlistId":"PLEkQk5xrP-tnmTYsyW6xNdyfhPq0Bhrhj","playlistName":"مقرأة الفجر - القُرْآنُ الكَرِيمُ - خَتْمَةُ التَّدَبُّرِ  أ.د. يسري جبر","category":"متنوع"},{"id":"3pFs9_rBrPc","title":"مقرأة سورة الكهف من آية ٤٥","publishedAt":"2017-10-25T19:25:49Z","duration":"PT19M54S","thumbnail":"https://i.ytimg.com/vi/3pFs9_rBrPc/mqdefault.jpg","viewCount":"487","playlistId":"PLEkQk5xrP-tnmTYsyW6xNdyfhPq0Bhrhj","playlistName":"مقرأة الفجر - القُرْآنُ الكَرِيمُ - خَتْمَةُ التَّدَبُّرِ  أ.د. يسري جبر","category":"متنوع"},{"id":"KZ_mWOAnHEM","title":"مقرأة سورة محمد من آية ٢٥","publishedAt":"2019-01-15T15:11:57Z","duration":"PT13M8S","thumbnail":"https://i.ytimg.com/vi/KZ_mWOAnHEM/mqdefault.jpg","viewCount":"325","playlistId":"PLEkQk5xrP-tnmTYsyW6xNdyfhPq0Bhrhj","playlistName":"مقرأة الفجر - القُرْآنُ الكَرِيمُ - خَتْمَةُ التَّدَبُّرِ  أ.د. يسري جبر","category":"متنوع"},{"id":"hNJfqII5wQM","title":"مقرأة سورة محمد من آية ٢٠","publishedAt":"2019-01-14T11:13:01Z","duration":"PT7M32S","thumbnail":"https://i.ytimg.com/vi/hNJfqII5wQM/mqdefault.jpg","viewCount":"319","playlistId":"PLEkQk5xrP-tnmTYsyW6xNdyfhPq0Bhrhj","playlistName":"مقرأة الفجر - القُرْآنُ الكَرِيمُ - خَتْمَةُ التَّدَبُّرِ  أ.د. يسري جبر","category":"متنوع"},{"id":"YjZDoc9iQhA","title":"مقرأة سورة محمد من آية ١٣","publishedAt":"2019-01-13T10:06:36Z","duration":"PT19M4S","thumbnail":"https://i.ytimg.com/vi/YjZDoc9iQhA/mqdefault.jpg","viewCount":"407","playlistId":"PLEkQk5xrP-tnmTYsyW6xNdyfhPq0Bhrhj","playlistName":"مقرأة الفجر - القُرْآنُ الكَرِيمُ - خَتْمَةُ التَّدَبُّرِ  أ.د. يسري جبر","category":"متنوع"},{"id":"pnKDpfvCCBM","title":"مقرأة سورة محمد من آية ٧","publishedAt":"2019-01-12T13:32:14Z","duration":"PT16M22S","thumbnail":"https://i.ytimg.com/vi/pnKDpfvCCBM/mqdefault.jpg","viewCount":"391","playlistId":"PLEkQk5xrP-tnmTYsyW6xNdyfhPq0Bhrhj","playlistName":"مقرأة الفجر - القُرْآنُ الكَرِيمُ - خَتْمَةُ التَّدَبُّرِ  أ.د. يسري جبر","category":"متنوع"},{"id":"r36rTjWAaZA","title":"طلع البدرُ علينا من ثنيّات الوداع وجب الشكرُعلينا ما دعا لله داع","publishedAt":"2015-01-03T21:15:52Z","duration":"PT20M22S","thumbnail":"https://i.ytimg.com/vi/r36rTjWAaZA/mqdefault.jpg","viewCount":"1071","playlistId":"PLEkQk5xrP-tlB8lmbwjAKR8KRgiykGKhb","playlistName":"حضرات يسرية ومدائح نبوية","category":"متنوع"},{"id":"AwPhe_RiduM","title":"شرح كتاب منازل السائرين للإمام الهروى - المجلس الثانى والثلاثون - قسم الأخلاق باب الانبساط","publishedAt":"2014-12-29T05:48:06Z","duration":"PT54M59S","thumbnail":"https://i.ytimg.com/vi/AwPhe_RiduM/mqdefault.jpg","viewCount":"1291","playlistId":"PLEkQk5xrP-tnLYi_5_tSRVBwqcs7ISV7Y","playlistName":"شرح كتاب منازل السائرين للإمام الهروي","category":"متنوع"},{"id":"neRRjY4QrEQ","title":"اللهُ اللهُ لمّا نادانى هُو فصرت عبدا مملوكا له هُو","publishedAt":"2014-12-26T18:19:34Z","duration":"PT8M53S","thumbnail":"https://i.ytimg.com/vi/neRRjY4QrEQ/mqdefault.jpg","viewCount":"2428","playlistId":"PLEkQk5xrP-tlB8lmbwjAKR8KRgiykGKhb","playlistName":"حضرات يسرية ومدائح نبوية","category":"متنوع"},{"id":"tYJ1Bau7UX8","title":"نور المصطفى ملأ الأكوان حبيبى محمد خير المرسلين","publishedAt":"2014-12-24T19:12:52Z","duration":"PT5M31S","thumbnail":"https://i.ytimg.com/vi/tYJ1Bau7UX8/mqdefault.jpg","viewCount":"2010","playlistId":"PLEkQk5xrP-tlB8lmbwjAKR8KRgiykGKhb","playlistName":"حضرات يسرية ومدائح نبوية","category":"متنوع"},{"id":"X5-Mw2IgP5M","title":"والليلة عندكم عيد ياأحبابىَ مولد رسول الله خير البريّة","publishedAt":"2014-12-24T18:08:39Z","duration":"PT5M47S","thumbnail":"https://i.ytimg.com/vi/X5-Mw2IgP5M/mqdefault.jpg","viewCount":"2226","playlistId":"PLEkQk5xrP-tlB8lmbwjAKR8KRgiykGKhb","playlistName":"حضرات يسرية ومدائح نبوية","category":"متنوع"},{"id":"iCOXHjadJqk","title":"بردة المديح للإمام البوصيرى رضى الله عنه - كاملة","publishedAt":"2014-12-23T19:47:39Z","duration":"PT26M6S","thumbnail":"https://i.ytimg.com/vi/iCOXHjadJqk/mqdefault.jpg","viewCount":"5365","playlistId":"PLEkQk5xrP-tlB8lmbwjAKR8KRgiykGKhb","playlistName":"حضرات يسرية ومدائح نبوية","category":"متنوع"},{"id":"5t_lOdcafX8","title":"رأيت الهلال ووجه الحبيب فكانا هلالين عند النظر","publishedAt":"2014-12-23T17:38:22Z","duration":"PT8M36S","thumbnail":"https://i.ytimg.com/vi/5t_lOdcafX8/mqdefault.jpg","viewCount":"20336","playlistId":"PLEkQk5xrP-tlB8lmbwjAKR8KRgiykGKhb","playlistName":"حضرات يسرية ومدائح نبوية","category":"متنوع"},{"id":"013WOM4gGJw","title":"كيف تدرك محاسن الأخلاق - د. يسري جبر","publishedAt":"2014-12-22T13:33:53Z","duration":"PT7M56S","thumbnail":"https://i.ytimg.com/vi/013WOM4gGJw/mqdefault.jpg","viewCount":"4470","playlistId":"PLEkQk5xrP-tm8ZIu74nTOZN9KJUJu416J","playlistName":"مقاطع مُهمَّة (يُسريَّات) أ.د. يسري جبر","category":"متنوع"},{"id":"u7kbmtc0IvA","title":"شرح كتاب منازل السائرين للإمام الهروى - المجلس الحادى و الثلاثون - قسم الأخلاق باب الفُتوّة","publishedAt":"2014-12-22T04:09:04Z","duration":"PT59M17S","thumbnail":"https://i.ytimg.com/vi/u7kbmtc0IvA/mqdefault.jpg","viewCount":"1326","playlistId":"PLEkQk5xrP-tnLYi_5_tSRVBwqcs7ISV7Y","playlistName":"شرح كتاب منازل السائرين للإمام الهروي","category":"متنوع"},{"id":"DiptGJ5AI5E","title":"مقام العبودية - د.يسري جبر","publishedAt":"2014-12-19T20:47:59Z","duration":"PT4M15S","thumbnail":"https://i.ytimg.com/vi/DiptGJ5AI5E/mqdefault.jpg","viewCount":"3654","playlistId":"PLEkQk5xrP-tm8ZIu74nTOZN9KJUJu416J","playlistName":"مقاطع مُهمَّة (يُسريَّات) أ.د. يسري جبر","category":"متنوع"},{"id":"mCj-KBYtjqk","title":"الفرق بين الأحدية والواحدية والتوحيد والفرق بين الألوهية والربوبية - د. يسري جبر","publishedAt":"2014-12-19T19:48:48Z","duration":"PT5M43S","thumbnail":"https://i.ytimg.com/vi/mCj-KBYtjqk/mqdefault.jpg","viewCount":"17196","playlistId":"PLEkQk5xrP-tm8ZIu74nTOZN9KJUJu416J","playlistName":"مقاطع مُهمَّة (يُسريَّات) أ.د. يسري جبر","category":"متنوع"}],"total":4126,"page":12,"pageSize":24,"totalPages":172}