{"items":[{"id":"E9JG8Hzx-i0","title":"346- فضل السنن الراتبة مع الفرائض - شرح دليل الفالحين","publishedAt":"2022-11-28T18:00:06Z","duration":"PT41M47S","thumbnail":"https://i.ytimg.com/vi/E9JG8Hzx-i0/mqdefault.jpg","viewCount":"1023","playlistId":"PLEkQk5xrP-tkc9DXvSLguqX5-FYp6ASR4","playlistName":"دليل الفالحين لطرق رياض الصالحين","category":"متنوع"},{"id":"p5jphaEFHYo","title":"345- \"…إنَّ اللَّهَ وملائِكتَهُ يُصلُّونَ على الصُّفوفِ الأُوَل…\" - شرح دليل الفالحين","publishedAt":"2022-11-28T05:00:22Z","duration":"PT51M37S","thumbnail":"https://i.ytimg.com/vi/p5jphaEFHYo/mqdefault.jpg","viewCount":"1066","playlistId":"PLEkQk5xrP-tkc9DXvSLguqX5-FYp6ASR4","playlistName":"دليل الفالحين لطرق رياض الصالحين","category":"متنوع"},{"id":"C7LXjZXwb78","title":"344- فضل الصف الأول - شرح دليل الفالحين","publishedAt":"2022-11-27T09:00:07Z","duration":"PT47M2S","thumbnail":"https://i.ytimg.com/vi/C7LXjZXwb78/mqdefault.jpg","viewCount":"599","playlistId":"PLEkQk5xrP-tkc9DXvSLguqX5-FYp6ASR4","playlistName":"دليل الفالحين لطرق رياض الصالحين","category":"متنوع"},{"id":"Z6pJ_lAUdPc","title":"هل يجوز قول سيدنا ومولانا محمد في الآذان والتشهد؟","publishedAt":"2022-11-25T18:00:19Z","duration":"PT9M19S","thumbnail":"https://i.ytimg.com/vi/Z6pJ_lAUdPc/mqdefault.jpg","viewCount":"5800","playlistId":"PLEkQk5xrP-tm8ZIu74nTOZN9KJUJu416J","playlistName":"مقاطع مُهمَّة (يُسريَّات) أ.د. يسري جبر","category":"متنوع"},{"id":"xJEXE74zXAM","title":"343- إنَّ بيْنَ الرَّجُلِ وبيْنَ الشِّرْكِ والْكُفْرِ تَرْكَ الصَّلاةِ - شرح دليل الفالحين","publishedAt":"2022-11-25T09:00:42Z","duration":"PT27M27S","thumbnail":"https://i.ytimg.com/vi/xJEXE74zXAM/mqdefault.jpg","viewCount":"1038","playlistId":"PLEkQk5xrP-tkc9DXvSLguqX5-FYp6ASR4","playlistName":"دليل الفالحين لطرق رياض الصالحين","category":"متنوع"},{"id":"thm0OFPjhac","title":"هل الصلاة على النبي ﷺ أفضل من الذكر بلا إله إلا الله؟","publishedAt":"2022-11-24T18:00:22Z","duration":"PT8M31S","thumbnail":"https://i.ytimg.com/vi/thm0OFPjhac/mqdefault.jpg","viewCount":"186951","playlistId":"PLEkQk5xrP-tm8ZIu74nTOZN9KJUJu416J","playlistName":"مقاطع مُهمَّة (يُسريَّات) أ.د. يسري جبر","category":"متنوع"},{"id":"iF37vfbCdmw","title":"342- الحثُّ على حضور الجماعة في الصُّبحِ والعِشاء - شرح دليل الفالحين","publishedAt":"2022-11-24T09:00:20Z","duration":"PT43M22S","thumbnail":"https://i.ytimg.com/vi/iF37vfbCdmw/mqdefault.jpg","viewCount":"648","playlistId":"PLEkQk5xrP-tkc9DXvSLguqX5-FYp6ASR4","playlistName":"دليل الفالحين لطرق رياض الصالحين","category":"متنوع"},{"id":"nIusb3Cwxc8","title":"كيف كنت تذاكر وأنت طالب؟ | وعلاج الكسل والخوف من المستقبل","publishedAt":"2022-11-23T18:00:21Z","duration":"PT8M58S","thumbnail":"https://i.ytimg.com/vi/nIusb3Cwxc8/mqdefault.jpg","viewCount":"13336","playlistId":"PLEkQk5xrP-tl6tFiMFGUucCTvLgnWyAfz","playlistName":"حياة الأستاذ الدكتور يسري جبر","category":"متنوع"},{"id":"RLHWEByGVoM","title":"341- فضلُ صلاةِ الجماعة - شرح دليل الفالحين","publishedAt":"2022-11-23T09:00:12Z","duration":"PT54M51S","thumbnail":"https://i.ytimg.com/vi/RLHWEByGVoM/mqdefault.jpg","viewCount":"605","playlistId":"PLEkQk5xrP-tkc9DXvSLguqX5-FYp6ASR4","playlistName":"دليل الفالحين لطرق رياض الصالحين","category":"متنوع"},{"id":"JkHf5ZvMJkk","title":"340- فضلُ انتظار الصَّلاة - شرح دليل الفالحين","publishedAt":"2022-11-23T05:00:05Z","duration":"PT20M17S","thumbnail":"https://i.ytimg.com/vi/JkHf5ZvMJkk/mqdefault.jpg","viewCount":"701","playlistId":"PLEkQk5xrP-tkc9DXvSLguqX5-FYp6ASR4","playlistName":"دليل الفالحين لطرق رياض الصالحين","category":"متنوع"},{"id":"1yWQuRQXuNw","title":"حكم زيارة القبور؟","publishedAt":"2022-11-22T18:00:00Z","duration":"PT10M2S","thumbnail":"https://i.ytimg.com/vi/1yWQuRQXuNw/mqdefault.jpg","viewCount":"6742","playlistId":"PLEkQk5xrP-tkGXuZ9atE3k_7it12rUPTs","playlistName":"أسئلة المتابعين","category":"متنوع"},{"id":"SZcSy8ugG4E","title":"مقرأة سورة الزمر من أولها","publishedAt":"2018-10-09T09:08:08Z","duration":"PT18M31S","thumbnail":"https://i.ytimg.com/vi/SZcSy8ugG4E/mqdefault.jpg","viewCount":"760","playlistId":"PLEkQk5xrP-tnmTYsyW6xNdyfhPq0Bhrhj","playlistName":"مقرأة الفجر - القُرْآنُ الكَرِيمُ - خَتْمَةُ التَّدَبُّرِ  أ.د. يسري جبر","category":"متنوع"},{"id":"qOjDsHlEdAs","title":"مقرأة سورة ص من آية ٦٥","publishedAt":"2018-10-08T12:51:18Z","duration":"PT45M45S","thumbnail":"https://i.ytimg.com/vi/qOjDsHlEdAs/mqdefault.jpg","viewCount":"466","playlistId":"PLEkQk5xrP-tnmTYsyW6xNdyfhPq0Bhrhj","playlistName":"مقرأة الفجر - القُرْآنُ الكَرِيمُ - خَتْمَةُ التَّدَبُّرِ  أ.د. يسري جبر","category":"متنوع"},{"id":"mlxTkBgaI9w","title":"شرح كتاب البيوع من سنن الترمذي - المجلس الرابع عشر","publishedAt":"2015-06-06T04:04:15Z","duration":"PT35M1S","thumbnail":"https://i.ytimg.com/vi/mlxTkBgaI9w/mqdefault.jpg","viewCount":"136","playlistId":"PLEkQk5xrP-tnu6of679SvxdVx0qSrJzmb","playlistName":"شرح سنن الإمام الترمذي رضى الله عنه د. يسري جبر","category":"متنوع"},{"id":"LG7lfH5rstE","title":"شرح كتاب البيوع من سنن الترمذي - المجلس الثالث عشر","publishedAt":"2015-06-05T06:03:22Z","duration":"PT36M52S","thumbnail":"https://i.ytimg.com/vi/LG7lfH5rstE/mqdefault.jpg","viewCount":"201","playlistId":"PLEkQk5xrP-tnu6of679SvxdVx0qSrJzmb","playlistName":"شرح سنن الإمام الترمذي رضى الله عنه د. يسري جبر","category":"متنوع"},{"id":"9_LxN5tSOIs","title":"شرح كتاب البيوع من سنن الترمذي - المجلس الثاني عشر","publishedAt":"2015-06-04T04:16:15Z","duration":"PT36M29S","thumbnail":"https://i.ytimg.com/vi/9_LxN5tSOIs/mqdefault.jpg","viewCount":"123","playlistId":"PLEkQk5xrP-tnu6of679SvxdVx0qSrJzmb","playlistName":"شرح سنن الإمام الترمذي رضى الله عنه د. يسري جبر","category":"متنوع"},{"id":"_uGA8Aet6-U","title":"قدسية عقد الزواج وسر نجاحه","publishedAt":"2022-09-01T19:00:24Z","duration":"PT20M35S","thumbnail":"https://i.ytimg.com/vi/_uGA8Aet6-U/mqdefault.jpg","viewCount":"4172","playlistId":"PLEkQk5xrP-tm8ZIu74nTOZN9KJUJu416J","playlistName":"مقاطع مُهمَّة (يُسريَّات) أ.د. يسري جبر","category":"متنوع"},{"id":"Lkpahq5GGYc","title":"295- آدَابُ النَّومِ - شرح دليل الفالحين","publishedAt":"2022-09-01T06:30:06Z","duration":"PT35M13S","thumbnail":"https://i.ytimg.com/vi/Lkpahq5GGYc/mqdefault.jpg","viewCount":"1362","playlistId":"PLEkQk5xrP-tkc9DXvSLguqX5-FYp6ASR4","playlistName":"دليل الفالحين لطرق رياض الصالحين","category":"متنوع"},{"id":"NPuPePQnnbY","title":"294- النهي عن افتراش جلود النمور والركوب عليها - شرح دليل الفالحين","publishedAt":"2022-08-30T18:30:32Z","duration":"PT35M32S","thumbnail":"https://i.ytimg.com/vi/NPuPePQnnbY/mqdefault.jpg","viewCount":"918","playlistId":"PLEkQk5xrP-tkc9DXvSLguqX5-FYp6ASR4","playlistName":"دليل الفالحين لطرق رياض الصالحين","category":"متنوع"},{"id":"dOCmnLHZLbM","title":"293- استحبابُ تركِ التَّرفُّعِ في اللباسِ تواضُعًا - شرح دليل الفالحين","publishedAt":"2022-08-30T06:15:03Z","duration":"PT51M14S","thumbnail":"https://i.ytimg.com/vi/dOCmnLHZLbM/mqdefault.jpg","viewCount":"801","playlistId":"PLEkQk5xrP-tkc9DXvSLguqX5-FYp6ASR4","playlistName":"دليل الفالحين لطرق رياض الصالحين","category":"متنوع"},{"id":"OCb270j89o4","title":"292- صفة طُول القَميصِ والكُمِّ والإزارِ وطرفِ العِمَامةِ… - شرح دليل الفالحين","publishedAt":"2022-08-29T06:15:00Z","duration":"PT57M27S","thumbnail":"https://i.ytimg.com/vi/OCb270j89o4/mqdefault.jpg","viewCount":"1043","playlistId":"PLEkQk5xrP-tkc9DXvSLguqX5-FYp6ASR4","playlistName":"دليل الفالحين لطرق رياض الصالحين","category":"متنوع"},{"id":"06Ry9VJCvhM","title":"13- كَلَامُهُ وَالسَّمْعُ وَالإِبْصَارُ *** فَهْوَ الإِلَهُ الفَاعِلُ المُخْتَارُ","publishedAt":"2022-08-28T19:45:00Z","duration":"PT52M38S","thumbnail":"https://i.ytimg.com/vi/06Ry9VJCvhM/mqdefault.jpg","viewCount":"2602","playlistId":"PLEkQk5xrP-tmNuYT8JAh6clwa4krsgkNo","playlistName":"شرح كتاب الفُتُوحات اليُسريَّة في عقائد الأُمَّة المُحمَّديَّة","category":"متنوع"},{"id":"DT3Rei0bCK8","title":"339- فضلُ المَشْي إلى المساجد - شرح دليل الفالحين","publishedAt":"2022-11-20T09:00:14Z","duration":"PT38M43S","thumbnail":"https://i.ytimg.com/vi/DT3Rei0bCK8/mqdefault.jpg","viewCount":"691","playlistId":"PLEkQk5xrP-tkc9DXvSLguqX5-FYp6ASR4","playlistName":"دليل الفالحين لطرق رياض الصالحين","category":"متنوع"},{"id":"8AN3osxIX8E","title":"مقرأة سورة فصلت من آية ٣٧","publishedAt":"2018-11-25T09:28:54Z","duration":"PT9M34S","thumbnail":"https://i.ytimg.com/vi/8AN3osxIX8E/mqdefault.jpg","viewCount":"245","playlistId":"PLEkQk5xrP-tnmTYsyW6xNdyfhPq0Bhrhj","playlistName":"مقرأة الفجر - القُرْآنُ الكَرِيمُ - خَتْمَةُ التَّدَبُّرِ  أ.د. يسري جبر","category":"متنوع"}],"total":4126,"page":100,"pageSize":24,"totalPages":172}