{"items":[{"id":"ap0GJNBKY6o","title":"عندي مشاكل مع أمي وأخواتي وصلت إلى الكراهية فماذا أفعل؟","publishedAt":"2024-10-26T17:30:26Z","duration":"PT11M1S","thumbnail":"https://i.ytimg.com/vi/ap0GJNBKY6o/mqdefault.jpg","viewCount":"5365","playlistId":"PLEkQk5xrP-tkGXuZ9atE3k_7it12rUPTs","playlistName":"أسئلة المتابعين","category":"متنوع"},{"id":"pDklDG2ir5c","title":"45- كيفية تحديد وقت صلاة العصر | شرح سنن الدار قطني رضي الله عنه","publishedAt":"2024-10-26T08:45:06Z","duration":"PT48M44S","thumbnail":"https://i.ytimg.com/vi/pDklDG2ir5c/mqdefault.jpg","viewCount":"571","playlistId":"PLEkQk5xrP-tk_MCBZ706ORCw6gFtFyaGj","playlistName":"شرح سنن الإمام الدارقطني","category":"متنوع"},{"id":"dfXCTdf2Sq4","title":"130- حكم أداء العمرة في أشهر الحج - شرح مسند الإمام أحمد رضي الله تعالى عنه","publishedAt":"2024-10-25T06:00:19Z","duration":"PT35M33S","thumbnail":"https://i.ytimg.com/vi/dfXCTdf2Sq4/mqdefault.jpg","viewCount":"611","playlistId":"PLEkQk5xrP-tkKprIuGrSdEuBSMsyg5We1","playlistName":"شرح مسند الإمام أحمد بن حنبل","category":"متنوع"},{"id":"Eb82bqGP7Hs","title":"من هم الثلاثة الذين لا ينظر الله إليهم يوم القيامة؟","publishedAt":"2024-10-24T17:08:35Z","duration":"PT10M37S","thumbnail":"https://i.ytimg.com/vi/Eb82bqGP7Hs/mqdefault.jpg","viewCount":"3958","playlistId":"PLEkQk5xrP-tnZyxWbCSqTSMV9BJLUL-zN","playlistName":"شرح كتاب تنوير البصيرة ببيان علامات الكبيرة","category":"متنوع"},{"id":"_AWGgEbzE8M","title":"ما هي المعاصي التي توجب لعنة الله؟","publishedAt":"2024-10-22T17:49:40Z","duration":"PT17M14S","thumbnail":"https://i.ytimg.com/vi/_AWGgEbzE8M/mqdefault.jpg","viewCount":"4758","playlistId":"PLEkQk5xrP-tnZyxWbCSqTSMV9BJLUL-zN","playlistName":"شرح كتاب تنوير البصيرة ببيان علامات الكبيرة","category":"متنوع"},{"id":"ej2a8xb3GdA","title":"أحاول مقاومة الكسل في الطاعات والخشوع في الصلاة ولا أستطيع ,, فماذا أفعل؟","publishedAt":"2024-10-21T17:45:07Z","duration":"PT8M32S","thumbnail":"https://i.ytimg.com/vi/ej2a8xb3GdA/mqdefault.jpg","viewCount":"7298","playlistId":"PLEkQk5xrP-tkGXuZ9atE3k_7it12rUPTs","playlistName":"أسئلة المتابعين","category":"متنوع"},{"id":"kspnInSvjT0","title":"ما الفرق بين الجن والشياطين والعفاريت؟","publishedAt":"2024-10-20T17:40:28Z","duration":"PT11M26S","thumbnail":"https://i.ytimg.com/vi/kspnInSvjT0/mqdefault.jpg","viewCount":"8036","playlistId":"PLEkQk5xrP-tkGXuZ9atE3k_7it12rUPTs","playlistName":"أسئلة المتابعين","category":"متنوع"},{"id":"NUMTJJVQtMg","title":"129- حكم صيام يوم عرفة للحاج - شرح مسند الإمام أحمد رضي الله تعالى عنه","publishedAt":"2024-10-20T06:00:12Z","duration":"PT22M27S","thumbnail":"https://i.ytimg.com/vi/NUMTJJVQtMg/mqdefault.jpg","viewCount":"457","playlistId":"PLEkQk5xrP-tkKprIuGrSdEuBSMsyg5We1","playlistName":"شرح مسند الإمام أحمد بن حنبل","category":"متنوع"},{"id":"LszItmbmkXM","title":"مقرأة سورة الفرقان من آية ٧١","publishedAt":"2018-04-08T14:59:45Z","duration":"PT14M38S","thumbnail":"https://i.ytimg.com/vi/LszItmbmkXM/mqdefault.jpg","viewCount":"225","playlistId":"PLEkQk5xrP-tnmTYsyW6xNdyfhPq0Bhrhj","playlistName":"مقرأة الفجر - القُرْآنُ الكَرِيمُ - خَتْمَةُ التَّدَبُّرِ  أ.د. يسري جبر","category":"متنوع"},{"id":"wtMyjStHsiA","title":"مقرأة سورة الفرقان من آية ٦٧","publishedAt":"2018-04-07T10:52:39Z","duration":"PT17M48S","thumbnail":"https://i.ytimg.com/vi/wtMyjStHsiA/mqdefault.jpg","viewCount":"315","playlistId":"PLEkQk5xrP-tnmTYsyW6xNdyfhPq0Bhrhj","playlistName":"مقرأة الفجر - القُرْآنُ الكَرِيمُ - خَتْمَةُ التَّدَبُّرِ  أ.د. يسري جبر","category":"متنوع"},{"id":"N3U33LQQ3lc","title":"مقرأة سورة الفرقان من آية ٦٣","publishedAt":"2018-04-06T11:30:40Z","duration":"PT24M13S","thumbnail":"https://i.ytimg.com/vi/N3U33LQQ3lc/mqdefault.jpg","viewCount":"287","playlistId":"PLEkQk5xrP-tnmTYsyW6xNdyfhPq0Bhrhj","playlistName":"مقرأة الفجر - القُرْآنُ الكَرِيمُ - خَتْمَةُ التَّدَبُّرِ  أ.د. يسري جبر","category":"متنوع"},{"id":"U7vnn3Y4dBo","title":"مقرأة سورة الفرقان من آية ٥٩","publishedAt":"2018-04-05T14:42:12Z","duration":"PT20M49S","thumbnail":"https://i.ytimg.com/vi/U7vnn3Y4dBo/mqdefault.jpg","viewCount":"403","playlistId":"PLEkQk5xrP-tnmTYsyW6xNdyfhPq0Bhrhj","playlistName":"مقرأة الفجر - القُرْآنُ الكَرِيمُ - خَتْمَةُ التَّدَبُّرِ  أ.د. يسري جبر","category":"متنوع"},{"id":"MfECRZkpA3k","title":"مقرأة سورة الفرقان من آية ٥٣","publishedAt":"2018-04-04T10:24:42Z","duration":"PT24M19S","thumbnail":"https://i.ytimg.com/vi/MfECRZkpA3k/mqdefault.jpg","viewCount":"275","playlistId":"PLEkQk5xrP-tnmTYsyW6xNdyfhPq0Bhrhj","playlistName":"مقرأة الفجر - القُرْآنُ الكَرِيمُ - خَتْمَةُ التَّدَبُّرِ  أ.د. يسري جبر","category":"متنوع"},{"id":"rFcAfKXSu0I","title":"الفِكْرَةُ: سَيْرُ القَلْبِ، في مَيَادِينِ الأَغْيَارِ.","publishedAt":"2018-04-03T18:12:55Z","duration":"PT19M12S","thumbnail":"https://i.ytimg.com/vi/rFcAfKXSu0I/mqdefault.jpg","viewCount":"6712","playlistId":"PLEkQk5xrP-tkI_meE148wc7V7XHlB0WPb","playlistName":"من الحكم العطائية  د. يسري جبر","category":"متنوع"},{"id":"ZiRCCLd6-T4","title":"مقرأة سورة الفرقان من آية ٤٩","publishedAt":"2018-04-03T08:47:02Z","duration":"PT11M41S","thumbnail":"https://i.ytimg.com/vi/ZiRCCLd6-T4/mqdefault.jpg","viewCount":"1065","playlistId":"PLEkQk5xrP-tnmTYsyW6xNdyfhPq0Bhrhj","playlistName":"مقرأة الفجر - القُرْآنُ الكَرِيمُ - خَتْمَةُ التَّدَبُّرِ  أ.د. يسري جبر","category":"متنوع"},{"id":"PBthxU-xzh0","title":"مقرأة سورة الفرقان من آية ٤١","publishedAt":"2018-04-02T07:05:12Z","duration":"PT19M44S","thumbnail":"https://i.ytimg.com/vi/PBthxU-xzh0/mqdefault.jpg","viewCount":"287","playlistId":"PLEkQk5xrP-tnmTYsyW6xNdyfhPq0Bhrhj","playlistName":"مقرأة الفجر - القُرْآنُ الكَرِيمُ - خَتْمَةُ التَّدَبُّرِ  أ.د. يسري جبر","category":"متنوع"},{"id":"bwWqD1-4wJI","title":"مقرأة سورة الفرقان من آية ٣٢","publishedAt":"2018-04-01T08:31:52Z","duration":"PT18M42S","thumbnail":"https://i.ytimg.com/vi/bwWqD1-4wJI/mqdefault.jpg","viewCount":"233","playlistId":"PLEkQk5xrP-tnmTYsyW6xNdyfhPq0Bhrhj","playlistName":"مقرأة الفجر - القُرْآنُ الكَرِيمُ - خَتْمَةُ التَّدَبُّرِ  أ.د. يسري جبر","category":"متنوع"},{"id":"p6tyWmZ0Ddo","title":"مقرأة سورة الفرقان من آية ٢٧","publishedAt":"2018-03-31T08:11:25Z","duration":"PT7M14S","thumbnail":"https://i.ytimg.com/vi/p6tyWmZ0Ddo/mqdefault.jpg","viewCount":"251","playlistId":"PLEkQk5xrP-tnmTYsyW6xNdyfhPq0Bhrhj","playlistName":"مقرأة الفجر - القُرْآنُ الكَرِيمُ - خَتْمَةُ التَّدَبُّرِ  أ.د. يسري جبر","category":"متنوع"},{"id":"4sISodcxK0Y","title":"إنَّمَا جَعَلَها مَحَلًّا للأَغْيَار ومَعْدِنًا لوجُودِ الأكْدَار.. تزْهيدًا لكَ فيها.","publishedAt":"2018-03-30T18:43:47Z","duration":"PT3M38S","thumbnail":"https://i.ytimg.com/vi/4sISodcxK0Y/mqdefault.jpg","viewCount":"1003","playlistId":"PLEkQk5xrP-tkI_meE148wc7V7XHlB0WPb","playlistName":"من الحكم العطائية  د. يسري جبر","category":"متنوع"},{"id":"WS36N7yxZQQ","title":"مقرأة سورة الفرقان من آية ٢١","publishedAt":"2018-03-30T15:07:20Z","duration":"PT11M18S","thumbnail":"https://i.ytimg.com/vi/WS36N7yxZQQ/mqdefault.jpg","viewCount":"246","playlistId":"PLEkQk5xrP-tnmTYsyW6xNdyfhPq0Bhrhj","playlistName":"مقرأة الفجر - القُرْآنُ الكَرِيمُ - خَتْمَةُ التَّدَبُّرِ  أ.د. يسري جبر","category":"متنوع"},{"id":"CCccxQac2Yw","title":"مقرأة سورة الفرقان من آية ١٧","publishedAt":"2018-03-29T09:29:54Z","duration":"PT14M52S","thumbnail":"https://i.ytimg.com/vi/CCccxQac2Yw/mqdefault.jpg","viewCount":"217","playlistId":"PLEkQk5xrP-tnmTYsyW6xNdyfhPq0Bhrhj","playlistName":"مقرأة الفجر - القُرْآنُ الكَرِيمُ - خَتْمَةُ التَّدَبُّرِ  أ.د. يسري جبر","category":"متنوع"},{"id":"yfeictJB6Ao","title":"مقرأة سورة الفرقان من آية ١٠","publishedAt":"2018-03-28T07:37:23Z","duration":"PT10M45S","thumbnail":"https://i.ytimg.com/vi/yfeictJB6Ao/mqdefault.jpg","viewCount":"235","playlistId":"PLEkQk5xrP-tnmTYsyW6xNdyfhPq0Bhrhj","playlistName":"مقرأة الفجر - القُرْآنُ الكَرِيمُ - خَتْمَةُ التَّدَبُّرِ  أ.د. يسري جبر","category":"متنوع"},{"id":"e2VGG0CXBII","title":"مقرأة سورة الفرقان من آية ٤","publishedAt":"2018-03-27T06:05:59Z","duration":"PT21M27S","thumbnail":"https://i.ytimg.com/vi/e2VGG0CXBII/mqdefault.jpg","viewCount":"415","playlistId":"PLEkQk5xrP-tnmTYsyW6xNdyfhPq0Bhrhj","playlistName":"مقرأة الفجر - القُرْآنُ الكَرِيمُ - خَتْمَةُ التَّدَبُّرِ  أ.د. يسري جبر","category":"متنوع"},{"id":"rfmjpK64kJ0","title":"مقرأة سورة الفرقان من أولها","publishedAt":"2018-03-26T04:35:54Z","duration":"PT12M33S","thumbnail":"https://i.ytimg.com/vi/rfmjpK64kJ0/mqdefault.jpg","viewCount":"322","playlistId":"PLEkQk5xrP-tnmTYsyW6xNdyfhPq0Bhrhj","playlistName":"مقرأة الفجر - القُرْآنُ الكَرِيمُ - خَتْمَةُ التَّدَبُّرِ  أ.د. يسري جبر","category":"متنوع"}],"total":4126,"page":4,"pageSize":24,"totalPages":172}