{"items":[{"id":"0S1R9I9LhZU","title":"12- حقيقة الكشف وهل للمريد أن يطلب الكشف؟ | شرح الحكم العطائية","publishedAt":"2025-01-02T20:00:00Z","duration":"PT52M42S","thumbnail":"https://i.ytimg.com/vi/0S1R9I9LhZU/mqdefault.jpg","viewCount":"5471","playlistId":"PLEkQk5xrP-tmf5ToOwmW-q0JwxkapbrMN","playlistName":"شرح كتاب إرشاد البرية إلى بعض معاني الحكم العطائية","category":"متنوع"},{"id":"7wAtbuewv3w","title":"27- كتاب القرآن ك الموطأ د يسري جبر الأزهري  بمضيفة الشيخ سعيد الدح","publishedAt":"2016-09-26T21:48:18Z","duration":"PT56M13S","thumbnail":"https://i.ytimg.com/vi/7wAtbuewv3w/mqdefault.jpg","viewCount":"485","playlistId":"PLEkQk5xrP-tnC6BRuqMjyO-484iqXeg0o","playlistName":"شرح كتاب الموطأ للإمام مالك","category":"متنوع"},{"id":"56fRxxN2AAM","title":"85- قصة مقتل أبي جهل يوم بدر على يد غلامين - شرح مسند الإمام أحمد رضي الله تعالى عنه","publishedAt":"2024-03-11T07:00:02Z","duration":"PT24M25S","thumbnail":"https://i.ytimg.com/vi/56fRxxN2AAM/mqdefault.jpg","viewCount":"1143","playlistId":"PLEkQk5xrP-tkKprIuGrSdEuBSMsyg5We1","playlistName":"شرح مسند الإمام أحمد بن حنبل","category":"متنوع"},{"id":"_hLidYq2PWI","title":"حقيقة رؤيا النبي ﷺ في المنام | مجالس رمضانية","publishedAt":"2024-03-10T14:00:22Z","duration":"PT30M50S","thumbnail":"https://i.ytimg.com/vi/_hLidYq2PWI/mqdefault.jpg","viewCount":"4120","playlistId":"PLEkQk5xrP-tnl7vb7KeAoPd5ZlqKKW8KV","playlistName":"شرح كتاب بهجة النفوس أ.د . يسرى جبر","category":"متنوع"},{"id":"Wp62SXYw8Vk","title":"هل يمكن رؤية النبي ﷺ في اليقظة؟ | مجالس رمضانية","publishedAt":"2024-03-09T14:30:10Z","duration":"PT40M43S","thumbnail":"https://i.ytimg.com/vi/Wp62SXYw8Vk/mqdefault.jpg","viewCount":"10142","playlistId":"PLEkQk5xrP-tnl7vb7KeAoPd5ZlqKKW8KV","playlistName":"شرح كتاب بهجة النفوس أ.د . يسرى جبر","category":"متنوع"},{"id":"2A7T72pLzcs","title":"33- حكم التبسم في الصلاة | بيان الكلام الذي يبطل الصلاة | شرح سنن الإمام الدار قطني رضي الله عنه","publishedAt":"2024-03-09T09:00:01Z","duration":"PT37M47S","thumbnail":"https://i.ytimg.com/vi/2A7T72pLzcs/mqdefault.jpg","viewCount":"741","playlistId":"PLEkQk5xrP-tk_MCBZ706ORCw6gFtFyaGj","playlistName":"شرح سنن الإمام الدارقطني","category":"متنوع"},{"id":"tXMUjCOC7HQ","title":"11- كيف يوسوس الشيطان للناس؟ | شرح مختصر الفتوحات المكية","publishedAt":"2024-03-08T19:10:05Z","duration":"PT54M59S","thumbnail":"https://i.ytimg.com/vi/tXMUjCOC7HQ/mqdefault.jpg","viewCount":"13087","playlistId":"PLEkQk5xrP-tnpkdZki6rPTtMak1bnI5g-","playlistName":"شرح كتاب مختصر الفتوحات المكية المسمى لواقح الأنوار القدسية","category":"متنوع"},{"id":"X4nmkrBF9Ag","title":"هل يجوز الحج بطريقة غير رسمية؟","publishedAt":"2024-03-07T19:00:26Z","duration":"PT13M37S","thumbnail":"https://i.ytimg.com/vi/X4nmkrBF9Ag/mqdefault.jpg","viewCount":"7066","playlistId":"PLEkQk5xrP-tkGXuZ9atE3k_7it12rUPTs","playlistName":"أسئلة المتابعين","category":"متنوع"},{"id":"99WSA0n0NBg","title":"84- نبذة عن سيدنا عبد الرحمن بن عوف الزهري أحد العشرة المبشرين بالجنة رضي اللهُ تعالى عنه","publishedAt":"2024-03-06T06:30:01Z","duration":"PT32M8S","thumbnail":"https://i.ytimg.com/vi/99WSA0n0NBg/mqdefault.jpg","viewCount":"1322","playlistId":"PLEkQk5xrP-tkKprIuGrSdEuBSMsyg5We1","playlistName":"شرح مسند الإمام أحمد بن حنبل","category":"متنوع"},{"id":"ORTSxon2-Kg","title":"482- التغليظ في تحريم السحر - شرح دليل الفالحين","publishedAt":"2023-06-21T08:59:00Z","duration":"PT21M15S","thumbnail":"https://i.ytimg.com/vi/ORTSxon2-Kg/mqdefault.jpg","viewCount":"996","playlistId":"PLEkQk5xrP-tkc9DXvSLguqX5-FYp6ASR4","playlistName":"دليل الفالحين لطرق رياض الصالحين","category":"متنوع"},{"id":"yu9MkjpP78M","title":"481- كراهة الخروج من بلد وقع فيها الوباء فِرارا منه وكراهة القدوم عليه - شرح دليل الفالحين","publishedAt":"2023-06-20T08:59:00Z","duration":"PT26M39S","thumbnail":"https://i.ytimg.com/vi/yu9MkjpP78M/mqdefault.jpg","viewCount":"432","playlistId":"PLEkQk5xrP-tkc9DXvSLguqX5-FYp6ASR4","playlistName":"دليل الفالحين لطرق رياض الصالحين","category":"متنوع"},{"id":"CWUJACdZZVY","title":"480- حكم رد الريحان وسائر أنواع الطِيب بغير عذر - شرح دليل الفالحين","publishedAt":"2023-06-19T08:59:00Z","duration":"PT25M13S","thumbnail":"https://i.ytimg.com/vi/CWUJACdZZVY/mqdefault.jpg","viewCount":"704","playlistId":"PLEkQk5xrP-tkc9DXvSLguqX5-FYp6ASR4","playlistName":"دليل الفالحين لطرق رياض الصالحين","category":"متنوع"},{"id":"XyPGFgGdEwQ","title":"تمكُّنُ حلاوةِ الهَوَى من القلبِ هُوَ الدَّاءُ العُضَالُ (2)","publishedAt":"2017-09-06T20:01:56Z","duration":"PT30M37S","thumbnail":"https://i.ytimg.com/vi/XyPGFgGdEwQ/mqdefault.jpg","viewCount":"1095","playlistId":"PLEkQk5xrP-tkI_meE148wc7V7XHlB0WPb","playlistName":"من الحكم العطائية  د. يسري جبر","category":"متنوع"},{"id":"pEx57SzKRdQ","title":"تمكُّنُ حلاوةِ الهَوَى من القلبِ هُوَ الدَّاءُ العُضَالُ (1)","publishedAt":"2017-09-06T20:01:27Z","duration":"PT15M44S","thumbnail":"https://i.ytimg.com/vi/pEx57SzKRdQ/mqdefault.jpg","viewCount":"2441","playlistId":"PLEkQk5xrP-tkI_meE148wc7V7XHlB0WPb","playlistName":"من الحكم العطائية  د. يسري جبر","category":"متنوع"},{"id":"szy1dCawzJI","title":"كيفية قراءة الصلوات اليسرية   د.يسري جبر","publishedAt":"2017-09-06T16:08:31Z","duration":"PT5M2S","thumbnail":"https://i.ytimg.com/vi/szy1dCawzJI/mqdefault.jpg","viewCount":"4998","playlistId":"PLEkQk5xrP-tm8ZIu74nTOZN9KJUJu416J","playlistName":"مقاطع مُهمَّة (يُسريَّات) أ.د. يسري جبر","category":"متنوع"},{"id":"DVEyjaY3Kk0","title":"لا تدهشك واردات النعم عن القيام بحقوق شكرك، فإن ذلك مما يحطُّ من وجود قدرك","publishedAt":"2017-09-05T18:38:27Z","duration":"PT12M8S","thumbnail":"https://i.ytimg.com/vi/DVEyjaY3Kk0/mqdefault.jpg","viewCount":"575","playlistId":"PLEkQk5xrP-tkI_meE148wc7V7XHlB0WPb","playlistName":"من الحكم العطائية  د. يسري جبر","category":"متنوع"},{"id":"gKZYc3GWVJA","title":"ما حكم الكلام أثناء خطبة الجمعة؟","publishedAt":"2025-10-03T18:00:31Z","duration":"PT11M33S","thumbnail":"https://i.ytimg.com/vi/gKZYc3GWVJA/mqdefault.jpg","viewCount":"947","playlistId":"PLEkQk5xrP-tkGXuZ9atE3k_7it12rUPTs","playlistName":"أسئلة المتابعين","category":"متنوع"},{"id":"ZOpuLIRgu0I","title":"171- نعمتان مغبون فيهما كثير من الناس الصحة والفراغ - شرح مسند الإمام أحمد رضي الله تعالى عنه","publishedAt":"2025-10-01T09:00:56Z","duration":"PT23M19S","thumbnail":"https://i.ytimg.com/vi/ZOpuLIRgu0I/mqdefault.jpg","viewCount":"751","playlistId":"PLEkQk5xrP-tkKprIuGrSdEuBSMsyg5We1","playlistName":"شرح مسند الإمام أحمد بن حنبل","category":"متنوع"},{"id":"jFd6eNFZ1oQ","title":"63- حكم تعدد الركوعات في صلاة الكسوف | الوتر - شرح مسند الإمام أحمد رضي الله عنه","publishedAt":"2024-01-08T06:15:01Z","duration":"PT29M33S","thumbnail":"https://i.ytimg.com/vi/jFd6eNFZ1oQ/mqdefault.jpg","viewCount":"901","playlistId":"PLEkQk5xrP-tkKprIuGrSdEuBSMsyg5We1","playlistName":"شرح مسند الإمام أحمد بن حنبل","category":"متنوع"},{"id":"bdq5dT2lfGI","title":"هل يجوز المسح على الشراب في الوضوء؟","publishedAt":"2024-01-07T18:44:26Z","duration":"PT10M5S","thumbnail":"https://i.ytimg.com/vi/bdq5dT2lfGI/mqdefault.jpg","viewCount":"47608","playlistId":"PLEkQk5xrP-tkGXuZ9atE3k_7it12rUPTs","playlistName":"أسئلة المتابعين","category":"متنوع"},{"id":"Vx_nQLwGoMw","title":"28- غسل الوجه وبيان اسم كل جزء فيه - شرح سنن الإمام الدار قطني رضي الله عنه","publishedAt":"2024-01-06T10:07:40Z","duration":"PT34M59S","thumbnail":"https://i.ytimg.com/vi/Vx_nQLwGoMw/mqdefault.jpg","viewCount":"942","playlistId":"PLEkQk5xrP-tk_MCBZ706ORCw6gFtFyaGj","playlistName":"شرح سنن الإمام الدارقطني","category":"متنوع"},{"id":"1BT7MwWyWwY","title":"62- حكم التلقين في الحَدّ | إدّخار لحم الأضحية - شرح مسند الإمام أحمد رضي الله عنه","publishedAt":"2024-01-06T07:00:02Z","duration":"PT35M52S","thumbnail":"https://i.ytimg.com/vi/1BT7MwWyWwY/mqdefault.jpg","viewCount":"985","playlistId":"PLEkQk5xrP-tkKprIuGrSdEuBSMsyg5We1","playlistName":"شرح مسند الإمام أحمد بن حنبل","category":"متنوع"},{"id":"6z4jMnH-JHY","title":"3- تكملة شرح العقيدة وما جاء في النُّبوَّات - شرح مختصر الفُتُوحَات المَكْيَّة","publishedAt":"2024-01-05T21:22:09Z","duration":"PT1H10M28S","thumbnail":"https://i.ytimg.com/vi/6z4jMnH-JHY/mqdefault.jpg","viewCount":"25396","playlistId":"PLEkQk5xrP-tnpkdZki6rPTtMak1bnI5g-","playlistName":"شرح كتاب مختصر الفتوحات المكية المسمى لواقح الأنوار القدسية","category":"متنوع"},{"id":"-Ax3PfLS16U","title":"502- فضل سيد الاستغفار - شرح دليل الفالحين","publishedAt":"2023-07-21T08:59:00Z","duration":"PT34M8S","thumbnail":"https://i.ytimg.com/vi/-Ax3PfLS16U/mqdefault.jpg","viewCount":"1111","playlistId":"PLEkQk5xrP-tkc9DXvSLguqX5-FYp6ASR4","playlistName":"دليل الفالحين لطرق رياض الصالحين","category":"متنوع"}],"total":4126,"page":44,"pageSize":24,"totalPages":172}