{"items":[{"id":"C-mIgIa6NQk","title":"كيفية إزالة النجاسة ومتى يطهر الطعام المتنجس؟ | أ.د. يسري جبر","publishedAt":"2022-04-05T15:30:02Z","duration":"PT31M51S","thumbnail":"https://i.ytimg.com/vi/C-mIgIa6NQk/mqdefault.jpg","viewCount":"1072","playlistId":"PLEkQk5xrP-tnl7vb7KeAoPd5ZlqKKW8KV","playlistName":"شرح كتاب بهجة النفوس أ.د . يسرى جبر","category":"متنوع"},{"id":"1VAetw4yECc","title":"228- ثَلاثةٌ أُقسِمُ عَليْهنَّ وأُحَدِّثُكُم حَدِيثًا فَاحْفَظُوهُ…\" - شرح دليل الفالحين","publishedAt":"2022-04-05T06:31:33Z","duration":"PT40M31S","thumbnail":"https://i.ytimg.com/vi/1VAetw4yECc/mqdefault.jpg","viewCount":"1250","playlistId":"PLEkQk5xrP-tkc9DXvSLguqX5-FYp6ASR4","playlistName":"دليل الفالحين لطرق رياض الصالحين","category":"متنوع"},{"id":"8YrqcbsRqcU","title":"هل يجوز الانتفاع بجلود الحيوانات؟ | أ.د. يسري جبر","publishedAt":"2022-04-04T15:30:03Z","duration":"PT32M47S","thumbnail":"https://i.ytimg.com/vi/8YrqcbsRqcU/mqdefault.jpg","viewCount":"715","playlistId":"PLEkQk5xrP-tnl7vb7KeAoPd5ZlqKKW8KV","playlistName":"شرح كتاب بهجة النفوس أ.د . يسرى جبر","category":"متنوع"},{"id":"jFvNCGmH9bY","title":"227- \"ما سُئِلَ رَسُولُ الله ﷺ عَلَى الإسْلَامِ شَيئًا إلَّا أَعْطَاهُ…\" - شرح دليل الفالحين","publishedAt":"2022-04-04T06:05:12Z","duration":"PT35M","thumbnail":"https://i.ytimg.com/vi/jFvNCGmH9bY/mqdefault.jpg","viewCount":"962","playlistId":"PLEkQk5xrP-tkc9DXvSLguqX5-FYp6ASR4","playlistName":"دليل الفالحين لطرق رياض الصالحين","category":"متنوع"},{"id":"oPsGhO0Fuhc","title":"النهي عن أكل لحوم كل ذي ناب من السباع | أ.د. يسري جبر","publishedAt":"2022-04-03T15:30:07Z","duration":"PT27M2S","thumbnail":"https://i.ytimg.com/vi/oPsGhO0Fuhc/mqdefault.jpg","viewCount":"839","playlistId":"PLEkQk5xrP-tnl7vb7KeAoPd5ZlqKKW8KV","playlistName":"شرح كتاب بهجة النفوس أ.د . يسرى جبر","category":"متنوع"},{"id":"RMbMg2igu_s","title":"النهي عن قتل الحيوان صبرًا | أ.د. يسري جبر","publishedAt":"2022-04-02T15:30:04Z","duration":"PT37M34S","thumbnail":"https://i.ytimg.com/vi/RMbMg2igu_s/mqdefault.jpg","viewCount":"1098","playlistId":"PLEkQk5xrP-tnl7vb7KeAoPd5ZlqKKW8KV","playlistName":"شرح كتاب بهجة النفوس أ.د . يسرى جبر","category":"متنوع"},{"id":"5ElBDTlku-Y","title":"226- ما من يومٍ يُصبحُ العبادُ فيه إلا وملَكانِ ينزلانِ ، فيقولُ أحدُهما…\" - شرح دليل الفالحين","publishedAt":"2022-04-02T05:17:01Z","duration":"PT31M28S","thumbnail":"https://i.ytimg.com/vi/5ElBDTlku-Y/mqdefault.jpg","viewCount":"1552","playlistId":"PLEkQk5xrP-tkc9DXvSLguqX5-FYp6ASR4","playlistName":"دليل الفالحين لطرق رياض الصالحين","category":"متنوع"},{"id":"m9tWJoVXv7I","title":"225- الكَرَم والجُود والإنفاق في وجُوهِ الخيرِ ثقة بالله تعالى - شرح دليل الفالحين","publishedAt":"2022-04-01T05:52:38Z","duration":"PT28M11S","thumbnail":"https://i.ytimg.com/vi/m9tWJoVXv7I/mqdefault.jpg","viewCount":"1307","playlistId":"PLEkQk5xrP-tkc9DXvSLguqX5-FYp6ASR4","playlistName":"دليل الفالحين لطرق رياض الصالحين","category":"متنوع"},{"id":"cmmVjRBuGsU","title":"كيف تستقبل رمضان بقلب سليم؟","publishedAt":"2022-03-31T19:54:58Z","duration":"PT16M58S","thumbnail":"https://i.ytimg.com/vi/cmmVjRBuGsU/mqdefault.jpg","viewCount":"6535","playlistId":"PLEkQk5xrP-tm8ZIu74nTOZN9KJUJu416J","playlistName":"مقاطع مُهمَّة (يُسريَّات) أ.د. يسري جبر","category":"متنوع"},{"id":"XYphWHvHBvs","title":"224- جوازُ الأخْذِ من غير مَسْألةٍ ولا تطلُّع إليه - شرح دليل الفالحين","publishedAt":"2022-03-31T07:00:52Z","duration":"PT50M34S","thumbnail":"https://i.ytimg.com/vi/XYphWHvHBvs/mqdefault.jpg","viewCount":"1201","playlistId":"PLEkQk5xrP-tkc9DXvSLguqX5-FYp6ASR4","playlistName":"دليل الفالحين لطرق رياض الصالحين","category":"متنوع"},{"id":"XJBULw5xhso","title":"‎شرح كتاب دلائل الخيرات - المجلس الثاني والعشرون. أ.د. يسري جبر","publishedAt":"2020-03-19T15:53:00Z","duration":"PT31M30S","thumbnail":"https://i.ytimg.com/vi/XJBULw5xhso/mqdefault.jpg","viewCount":"8155","playlistId":"PLEkQk5xrP-tlAzcbIpuqjdFICW-knvTlR","playlistName":"شرح كتاب دلائل الخيرات وشوارق الأنوار","category":"متنوع"},{"id":"JeAuYap3w-Q","title":"لا أستطيع الخشوع في الصلاة ,, فماذا أفعل؟ | مجالس رمضانية","publishedAt":"2025-03-05T15:00:20Z","duration":"PT20M29S","thumbnail":"https://i.ytimg.com/vi/JeAuYap3w-Q/mqdefault.jpg","viewCount":"3740","playlistId":"PLEkQk5xrP-tkeI_WVPfuoTJO46aVkpaz0","playlistName":"شرح كتاب ميزان الاعتدال لحفظ الدين والأحوال","category":"متنوع"},{"id":"I_fF6y_LW7k","title":"ازاي اجتهد للآخرة زي ما بجتهد للدنيا؟","publishedAt":"2025-03-04T18:30:13Z","duration":"PT8M28S","thumbnail":"https://i.ytimg.com/vi/I_fF6y_LW7k/mqdefault.jpg","viewCount":"4781","playlistId":"PLEkQk5xrP-tm8ZIu74nTOZN9KJUJu416J","playlistName":"مقاطع مُهمَّة (يُسريَّات) أ.د. يسري جبر","category":"متنوع"},{"id":"tZ24xySBMWc","title":"عبادة تجعلك مستعدًا لدخول الجنة في أي لحظة! | مجالس رمضانية","publishedAt":"2025-03-04T15:01:22Z","duration":"PT22M32S","thumbnail":"https://i.ytimg.com/vi/tZ24xySBMWc/mqdefault.jpg","viewCount":"5063","playlistId":"PLEkQk5xrP-tkeI_WVPfuoTJO46aVkpaz0","playlistName":"شرح كتاب ميزان الاعتدال لحفظ الدين والأحوال","category":"متنوع"},{"id":"WWWRKGs98l4","title":"154- حال النَّبي ﷺ عند نزول الوحي - شرح مسند الإمام أحمد رضي الله تعالى عنه","publishedAt":"2025-03-04T06:15:01Z","duration":"PT34M1S","thumbnail":"https://i.ytimg.com/vi/WWWRKGs98l4/mqdefault.jpg","viewCount":"550","playlistId":"PLEkQk5xrP-tkKprIuGrSdEuBSMsyg5We1","playlistName":"شرح مسند الإمام أحمد بن حنبل","category":"متنوع"},{"id":"GfhSE06wCSg","title":"فضل كثرة السجود وسر القرب من النبي في الجنة | مجالس رمضانية","publishedAt":"2025-03-03T15:00:20Z","duration":"PT20M43S","thumbnail":"https://i.ytimg.com/vi/GfhSE06wCSg/mqdefault.jpg","viewCount":"2846","playlistId":"PLEkQk5xrP-tkeI_WVPfuoTJO46aVkpaz0","playlistName":"شرح كتاب ميزان الاعتدال لحفظ الدين والأحوال","category":"متنوع"},{"id":"Mp5SWSxZLBQ","title":"هل يجوز عقد الزواج عن طريق الانترنت؟","publishedAt":"2025-03-02T18:30:17Z","duration":"PT8M58S","thumbnail":"https://i.ytimg.com/vi/Mp5SWSxZLBQ/mqdefault.jpg","viewCount":"1308","playlistId":"PLEkQk5xrP-tkGXuZ9atE3k_7it12rUPTs","playlistName":"أسئلة المتابعين","category":"متنوع"},{"id":"VbG120MA-F4","title":"سنن بسيطة تبني لك بيتا في الجنة | مجالس رمضانية","publishedAt":"2025-03-02T15:00:39Z","duration":"PT21M47S","thumbnail":"https://i.ytimg.com/vi/VbG120MA-F4/mqdefault.jpg","viewCount":"3051","playlistId":"PLEkQk5xrP-tkeI_WVPfuoTJO46aVkpaz0","playlistName":"شرح كتاب ميزان الاعتدال لحفظ الدين والأحوال","category":"متنوع"},{"id":"Q6fBN_GEy2A","title":"دليلك للمواظبة على صلاتك | مجالس رمضانية","publishedAt":"2025-03-01T15:00:36Z","duration":"PT27M28S","thumbnail":"https://i.ytimg.com/vi/Q6fBN_GEy2A/mqdefault.jpg","viewCount":"2955","playlistId":"PLEkQk5xrP-tkeI_WVPfuoTJO46aVkpaz0","playlistName":"شرح كتاب ميزان الاعتدال لحفظ الدين والأحوال","category":"متنوع"},{"id":"WAZkiaUFIxE","title":"زيارة سيد الشهداء سيدنا حمزة وشهداء أحد رضوان الله عليهم أجمعين.","publishedAt":"2020-03-14T18:39:40Z","duration":"PT1M38S","thumbnail":"https://i.ytimg.com/vi/WAZkiaUFIxE/mqdefault.jpg","viewCount":"3568","playlistId":"PLEkQk5xrP-tm8ZIu74nTOZN9KJUJu416J","playlistName":"مقاطع مُهمَّة (يُسريَّات) أ.د. يسري جبر","category":"متنوع"},{"id":"nmH0qqVyaq0","title":"لِنُرِيَهُ مِنْ آيَاتِنَا  أ.د/ يسري جبر","publishedAt":"2020-03-12T18:03:16Z","duration":"PT41M48S","thumbnail":"https://i.ytimg.com/vi/nmH0qqVyaq0/mqdefault.jpg","viewCount":"2199","playlistId":"PLEkQk5xrP-tm8ZIu74nTOZN9KJUJu416J","playlistName":"مقاطع مُهمَّة (يُسريَّات) أ.د. يسري جبر","category":"متنوع"},{"id":"ao1M19t3oFg","title":"كيف يكون لي رابطة روحية مع الشيخ؟","publishedAt":"2024-04-22T18:00:03Z","duration":"PT8M11S","thumbnail":"https://i.ytimg.com/vi/ao1M19t3oFg/mqdefault.jpg","viewCount":"10505","playlistId":"PLEkQk5xrP-tl6tFiMFGUucCTvLgnWyAfz","playlistName":"حياة الأستاذ الدكتور يسري جبر","category":"متنوع"},{"id":"5cdqxDDUQ7g","title":"14- هل للنبي ﷺ ذنب يستغفر منه؟ | شرح مختصر الفتوحات المكية","publishedAt":"2024-04-21T19:03:09Z","duration":"PT1H3M51S","thumbnail":"https://i.ytimg.com/vi/5cdqxDDUQ7g/mqdefault.jpg","viewCount":"7810","playlistId":"PLEkQk5xrP-tnpkdZki6rPTtMak1bnI5g-","playlistName":"شرح كتاب مختصر الفتوحات المكية المسمى لواقح الأنوار القدسية","category":"متنوع"},{"id":"6e3akMZ5kXM","title":"96- نبذة عن سيدنا عبد الله بن عباس رضي اللهُ تعالى عنهما - شرح مسند الإمام أحمد رضي الله تعالى عنه","publishedAt":"2024-04-21T06:00:02Z","duration":"PT36M55S","thumbnail":"https://i.ytimg.com/vi/6e3akMZ5kXM/mqdefault.jpg","viewCount":"1721","playlistId":"PLEkQk5xrP-tkKprIuGrSdEuBSMsyg5We1","playlistName":"شرح مسند الإمام أحمد بن حنبل","category":"متنوع"}],"total":4126,"page":139,"pageSize":24,"totalPages":172}