{"items":[{"id":"1c0XUViBCQY","title":"مقرأة سورة الزمر من آية ٧","publishedAt":"2018-10-11T20:56:23Z","duration":"PT14M23S","thumbnail":"https://i.ytimg.com/vi/1c0XUViBCQY/mqdefault.jpg","viewCount":"407","playlistId":"PLEkQk5xrP-tnmTYsyW6xNdyfhPq0Bhrhj","playlistName":"مقرأة الفجر - القُرْآنُ الكَرِيمُ - خَتْمَةُ التَّدَبُّرِ  أ.د. يسري جبر","category":"متنوع"},{"id":"nltVpcSXYMk","title":"84- باب مَا جَاءَ فِى الْقِرَاضِ شرح الموطأ د يسري جبر","publishedAt":"2018-10-09T14:15:56Z","duration":"PT48M33S","thumbnail":"https://i.ytimg.com/vi/nltVpcSXYMk/mqdefault.jpg","viewCount":"600","playlistId":"PLEkQk5xrP-tnC6BRuqMjyO-484iqXeg0o","playlistName":"شرح كتاب الموطأ للإمام مالك","category":"متنوع"},{"id":"LI2-uglktIk","title":"115-\"إنِّي لأقوم إلى الصَّلاة وأريدُ أن أطوِّل فيها فأسمع بُكاءَ الطفل فأتجوَّز …\" شرح دليل الفالحين","publishedAt":"2021-08-20T06:03:17Z","duration":"PT39M2S","thumbnail":"https://i.ytimg.com/vi/LI2-uglktIk/mqdefault.jpg","viewCount":"1526","playlistId":"PLEkQk5xrP-tkc9DXvSLguqX5-FYp6ASR4","playlistName":"دليل الفالحين لطرق رياض الصالحين","category":"متنوع"},{"id":"ewayINKQNns","title":"هل الله موجود في السماء؟","publishedAt":"2021-08-19T18:00:22Z","duration":"PT11M34S","thumbnail":"https://i.ytimg.com/vi/ewayINKQNns/mqdefault.jpg","viewCount":"54625","playlistId":"PLEkQk5xrP-tm8ZIu74nTOZN9KJUJu416J","playlistName":"مقاطع مُهمَّة (يُسريَّات) أ.د. يسري جبر","category":"متنوع"},{"id":"amKntmImocQ","title":"114- \"قدمَ ناسٌ منَ الأعرابِ على النَّبيِّ ﷺ فقالوا أتُقبِّلون صبيانَكم…\" -  شرح دليل الفالحين","publishedAt":"2021-08-18T05:54:17Z","duration":"PT54M12S","thumbnail":"https://i.ytimg.com/vi/amKntmImocQ/mqdefault.jpg","viewCount":"1462","playlistId":"PLEkQk5xrP-tkc9DXvSLguqX5-FYp6ASR4","playlistName":"دليل الفالحين لطرق رياض الصالحين","category":"متنوع"},{"id":"l8nh1QyxV2c","title":"مقرأة سورة الدخان من آية ٥١","publishedAt":"2018-12-26T12:12:45Z","duration":"PT14M5S","thumbnail":"https://i.ytimg.com/vi/l8nh1QyxV2c/mqdefault.jpg","viewCount":"304","playlistId":"PLEkQk5xrP-tnmTYsyW6xNdyfhPq0Bhrhj","playlistName":"مقرأة الفجر - القُرْآنُ الكَرِيمُ - خَتْمَةُ التَّدَبُّرِ  أ.د. يسري جبر","category":"متنوع"},{"id":"OjMei2Zt6qQ","title":"469- كراهة سَبِّ الحُمَّى - شرح دليل الفالحين","publishedAt":"2023-06-06T08:59:00Z","duration":"PT23M56S","thumbnail":"https://i.ytimg.com/vi/OjMei2Zt6qQ/mqdefault.jpg","viewCount":"678","playlistId":"PLEkQk5xrP-tkc9DXvSLguqX5-FYp6ASR4","playlistName":"دليل الفالحين لطرق رياض الصالحين","category":"متنوع"},{"id":"GJ7EHZGN5qs","title":"468- العفو عن لغو اليمين وأنَّه لا كفَّارة فيه - شرح دليل الفالحين","publishedAt":"2023-06-05T08:59:00Z","duration":"PT33M27S","thumbnail":"https://i.ytimg.com/vi/GJ7EHZGN5qs/mqdefault.jpg","viewCount":"647","playlistId":"PLEkQk5xrP-tkc9DXvSLguqX5-FYp6ASR4","playlistName":"دليل الفالحين لطرق رياض الصالحين","category":"متنوع"},{"id":"Ir5Zcn1hMX0","title":"قراءة القرآن (من آية ٨٣ سورة آل عمران)","publishedAt":"2016-07-14T10:41:45Z","duration":"PT16M30S","thumbnail":"https://i.ytimg.com/vi/Ir5Zcn1hMX0/mqdefault.jpg","viewCount":"514","playlistId":"PLEkQk5xrP-tnmTYsyW6xNdyfhPq0Bhrhj","playlistName":"مقرأة الفجر - القُرْآنُ الكَرِيمُ - خَتْمَةُ التَّدَبُّرِ  أ.د. يسري جبر","category":"متنوع"},{"id":"f7MWKf4pDrE","title":"شرح كتاب المناقب من سنن الترمذي - المجلس التاسع عشر","publishedAt":"2016-07-14T10:41:21Z","duration":"PT12M33S","thumbnail":"https://i.ytimg.com/vi/f7MWKf4pDrE/mqdefault.jpg","viewCount":"94","playlistId":"PLEkQk5xrP-tnu6of679SvxdVx0qSrJzmb","playlistName":"شرح سنن الإمام الترمذي رضى الله عنه د. يسري جبر","category":"متنوع"},{"id":"rv9s9Qom2FY","title":"قراءة القرآن (من آية ٨٦ سورة آل عمران)","publishedAt":"2016-07-14T10:40:40Z","duration":"PT12M33S","thumbnail":"https://i.ytimg.com/vi/rv9s9Qom2FY/mqdefault.jpg","viewCount":"557","playlistId":"PLEkQk5xrP-tnmTYsyW6xNdyfhPq0Bhrhj","playlistName":"مقرأة الفجر - القُرْآنُ الكَرِيمُ - خَتْمَةُ التَّدَبُّرِ  أ.د. يسري جبر","category":"متنوع"},{"id":"rZC9oBtYaJ0","title":"( 119 ) حديث الإفك وبراءة السيدة عائشة أم المؤمنين منه - المجلس السادس","publishedAt":"2016-07-12T20:29:41Z","duration":"PT20M14S","thumbnail":"https://i.ytimg.com/vi/rZC9oBtYaJ0/mqdefault.jpg","viewCount":"238","playlistId":"PLEkQk5xrP-tnl7vb7KeAoPd5ZlqKKW8KV","playlistName":"شرح كتاب بهجة النفوس أ.د . يسرى جبر","category":"متنوع"},{"id":"cfz3u-Ol8vM","title":"حَدِيث (١٨٣)\"مَنْ قالَ لا إلهَ إلاَّ اللَّه وحْدهُ لاَ شَرِيكَ له...\" | أ.د. يسري جبر","publishedAt":"2021-04-13T15:33:34Z","duration":"PT42M41S","thumbnail":"https://i.ytimg.com/vi/cfz3u-Ol8vM/mqdefault.jpg","viewCount":"11625","playlistId":"PLEkQk5xrP-tnl7vb7KeAoPd5ZlqKKW8KV","playlistName":"شرح كتاب بهجة النفوس أ.د . يسرى جبر","category":"متنوع"},{"id":"ZMisdo1HiSg","title":"43-\"لما كان يوم حُنينٍ آثر رسولُ اللهِ ﷺ ناسا في القسمة...\" الحديث( 18)باب الصّبر- شرح دليل الفالحين","publishedAt":"2021-04-11T06:06:16Z","duration":"PT27M59S","thumbnail":"https://i.ytimg.com/vi/ZMisdo1HiSg/mqdefault.jpg","viewCount":"1105","playlistId":"PLEkQk5xrP-tkc9DXvSLguqX5-FYp6ASR4","playlistName":"دليل الفالحين لطرق رياض الصالحين","category":"متنوع"},{"id":"IyrWSL4jd00","title":"كيفية قراءة الأوراد","publishedAt":"2021-04-10T19:40:12Z","duration":"PT23M23S","thumbnail":"https://i.ytimg.com/vi/IyrWSL4jd00/mqdefault.jpg","viewCount":"92325","playlistId":"PLEkQk5xrP-tm8ZIu74nTOZN9KJUJu416J","playlistName":"مقاطع مُهمَّة (يُسريَّات) أ.د. يسري جبر","category":"متنوع"},{"id":"NAOpak-HSrM","title":"كيف تشكر نعم الله عليك؟ | أ.د. يسري جبر","publishedAt":"2022-04-17T15:30:03Z","duration":"PT38M13S","thumbnail":"https://i.ytimg.com/vi/NAOpak-HSrM/mqdefault.jpg","viewCount":"5256","playlistId":"PLEkQk5xrP-tnl7vb7KeAoPd5ZlqKKW8KV","playlistName":"شرح كتاب بهجة النفوس أ.د . يسرى جبر","category":"متنوع"},{"id":"6rg_q1DL0SA","title":"234- فَضْلُ الغَنِيِّ الشَّاكِر - شرح دليل الفالحين","publishedAt":"2022-04-16T21:37:24Z","duration":"PT54M27S","thumbnail":"https://i.ytimg.com/vi/6rg_q1DL0SA/mqdefault.jpg","viewCount":"771","playlistId":"PLEkQk5xrP-tkc9DXvSLguqX5-FYp6ASR4","playlistName":"دليل الفالحين لطرق رياض الصالحين","category":"متنوع"},{"id":"lu8NJwWSg9Y","title":"كيف تكون صاحب همة عالية؟ | أ.د. يسري جبر","publishedAt":"2022-04-16T15:30:06Z","duration":"PT30M28S","thumbnail":"https://i.ytimg.com/vi/lu8NJwWSg9Y/mqdefault.jpg","viewCount":"23111","playlistId":"PLEkQk5xrP-tnl7vb7KeAoPd5ZlqKKW8KV","playlistName":"شرح كتاب بهجة النفوس أ.د . يسرى جبر","category":"متنوع"},{"id":"QVU5NxccDD8","title":"369- مَن أنفق زوجين في سبيل الله، نُوديَ مِن أبواب الجَنَّة يا عبد الله هذا خير - شرح دليل الفالحين","publishedAt":"2022-12-30T05:00:09Z","duration":"PT38M14S","thumbnail":"https://i.ytimg.com/vi/QVU5NxccDD8/mqdefault.jpg","viewCount":"945","playlistId":"PLEkQk5xrP-tkc9DXvSLguqX5-FYp6ASR4","playlistName":"دليل الفالحين لطرق رياض الصالحين","category":"متنوع"},{"id":"kFTcJSBojCo","title":"هل يوجد ربا في فوائد البنوك,, وما هي أنواع الربا؟","publishedAt":"2022-12-29T18:00:14Z","duration":"PT10M23S","thumbnail":"https://i.ytimg.com/vi/kFTcJSBojCo/mqdefault.jpg","viewCount":"113292","playlistId":"PLEkQk5xrP-tm8ZIu74nTOZN9KJUJu416J","playlistName":"مقاطع مُهمَّة (يُسريَّات) أ.د. يسري جبر","category":"متنوع"},{"id":"HrsmnAu0AQ8","title":"368- وجوب صوم رمضان وبيان فضل الصيام وما يتعلق به - شرح دليل الفالحين","publishedAt":"2022-12-28T09:00:13Z","duration":"PT31M25S","thumbnail":"https://i.ytimg.com/vi/HrsmnAu0AQ8/mqdefault.jpg","viewCount":"475","playlistId":"PLEkQk5xrP-tkc9DXvSLguqX5-FYp6ASR4","playlistName":"دليل الفالحين لطرق رياض الصالحين","category":"متنوع"},{"id":"dH-EFGpI7zQ","title":"367- حكم كَنز المال وعدم إنفاقه - شرح دليل الفالحين","publishedAt":"2022-12-27T09:00:29Z","duration":"PT46M28S","thumbnail":"https://i.ytimg.com/vi/dH-EFGpI7zQ/mqdefault.jpg","viewCount":"982","playlistId":"PLEkQk5xrP-tkc9DXvSLguqX5-FYp6ASR4","playlistName":"دليل الفالحين لطرق رياض الصالحين","category":"متنوع"},{"id":"cOD40Y2-sS8","title":"366- حكم مَن فَرَّقَ بيْنَ الصَّلَاةِ والزَّكَاةِ - شرح دليل الفالحين","publishedAt":"2022-12-26T09:00:16Z","duration":"PT34M35S","thumbnail":"https://i.ytimg.com/vi/cOD40Y2-sS8/mqdefault.jpg","viewCount":"580","playlistId":"PLEkQk5xrP-tkc9DXvSLguqX5-FYp6ASR4","playlistName":"دليل الفالحين لطرق رياض الصالحين","category":"متنوع"},{"id":"ItFaqA6nMdA","title":"كيفية علاج النسيان وعدم التركيز؟","publishedAt":"2022-12-24T18:00:13Z","duration":"PT8M4S","thumbnail":"https://i.ytimg.com/vi/ItFaqA6nMdA/mqdefault.jpg","viewCount":"44473","playlistId":"PLEkQk5xrP-tkGXuZ9atE3k_7it12rUPTs","playlistName":"أسئلة المتابعين","category":"متنوع"}],"total":4126,"page":149,"pageSize":24,"totalPages":172}