{"items":[{"id":"cmmVjRBuGsU","title":"كيف تستقبل رمضان بقلب سليم؟","publishedAt":"2022-03-31T19:54:58Z","duration":"PT16M58S","thumbnail":"https://i.ytimg.com/vi/cmmVjRBuGsU/mqdefault.jpg","viewCount":"6535","playlistId":"PLEkQk5xrP-tm8ZIu74nTOZN9KJUJu416J","playlistName":"مقاطع مُهمَّة (يُسريَّات) أ.د. يسري جبر","category":"متنوع"},{"id":"XYphWHvHBvs","title":"224- جوازُ الأخْذِ من غير مَسْألةٍ ولا تطلُّع إليه - شرح دليل الفالحين","publishedAt":"2022-03-31T07:00:52Z","duration":"PT50M34S","thumbnail":"https://i.ytimg.com/vi/XYphWHvHBvs/mqdefault.jpg","viewCount":"1201","playlistId":"PLEkQk5xrP-tkc9DXvSLguqX5-FYp6ASR4","playlistName":"دليل الفالحين لطرق رياض الصالحين","category":"متنوع"},{"id":"XJBULw5xhso","title":"‎شرح كتاب دلائل الخيرات - المجلس الثاني والعشرون. أ.د. يسري جبر","publishedAt":"2020-03-19T15:53:00Z","duration":"PT31M30S","thumbnail":"https://i.ytimg.com/vi/XJBULw5xhso/mqdefault.jpg","viewCount":"8155","playlistId":"PLEkQk5xrP-tlAzcbIpuqjdFICW-knvTlR","playlistName":"شرح كتاب دلائل الخيرات وشوارق الأنوار","category":"متنوع"},{"id":"NjjQfl9Q6fU","title":"435- كيف تكونُ الرؤْيا صادقة، وحديث\" هلْ رَأَى أحَدٌ مِنكُم مِن رُؤْيا\" - شرح دليل الفالحين","publishedAt":"2023-05-04T08:59:00Z","duration":"PT37M38S","thumbnail":"https://i.ytimg.com/vi/NjjQfl9Q6fU/mqdefault.jpg","viewCount":"2046","playlistId":"PLEkQk5xrP-tkc9DXvSLguqX5-FYp6ASR4","playlistName":"دليل الفالحين لطرق رياض الصالحين","category":"متنوع"},{"id":"5Hp8nVZ8Qrk","title":"434- تحريم الكذب - شرح دليل الفالحين","publishedAt":"2023-05-03T08:59:00Z","duration":"PT22M2S","thumbnail":"https://i.ytimg.com/vi/5Hp8nVZ8Qrk/mqdefault.jpg","viewCount":"1192","playlistId":"PLEkQk5xrP-tkc9DXvSLguqX5-FYp6ASR4","playlistName":"دليل الفالحين لطرق رياض الصالحين","category":"متنوع"},{"id":"W2oUUPf7hIA","title":"مقرأة سورة سبأ من آية ٤٣","publishedAt":"2018-08-16T12:50:54Z","duration":"PT17M37S","thumbnail":"https://i.ytimg.com/vi/W2oUUPf7hIA/mqdefault.jpg","viewCount":"262","playlistId":"PLEkQk5xrP-tnmTYsyW6xNdyfhPq0Bhrhj","playlistName":"مقرأة الفجر - القُرْآنُ الكَرِيمُ - خَتْمَةُ التَّدَبُّرِ  أ.د. يسري جبر","category":"متنوع"},{"id":"WKWAnBO4St8","title":"70- باب عِدَّةِ الَّتِى تَفْقِدُ زَوْجَهَا ك الموطأ د يسري جبر الأزهري","publishedAt":"2018-08-16T12:38:27Z","duration":"PT51M50S","thumbnail":"https://i.ytimg.com/vi/WKWAnBO4St8/mqdefault.jpg","viewCount":"213","playlistId":"PLEkQk5xrP-tnC6BRuqMjyO-484iqXeg0o","playlistName":"شرح كتاب الموطأ للإمام مالك","category":"متنوع"},{"id":"d_gXy0jXICs","title":"151- لَا يَدْخُلُ الجَنَّةَ قَاطِعٌ - شرح دليل الفالحين","publishedAt":"2021-10-30T19:27:09Z","duration":"PT41M55S","thumbnail":"https://i.ytimg.com/vi/d_gXy0jXICs/mqdefault.jpg","viewCount":"1072","playlistId":"PLEkQk5xrP-tkc9DXvSLguqX5-FYp6ASR4","playlistName":"دليل الفالحين لطرق رياض الصالحين","category":"متنوع"},{"id":"zUQXgs-fVPo","title":"150- تحريم العقوق وقطيعة الرحم - شرح دليل الفالحين","publishedAt":"2021-10-29T06:24:21Z","duration":"PT33M14S","thumbnail":"https://i.ytimg.com/vi/zUQXgs-fVPo/mqdefault.jpg","viewCount":"1037","playlistId":"PLEkQk5xrP-tkc9DXvSLguqX5-FYp6ASR4","playlistName":"دليل الفالحين لطرق رياض الصالحين","category":"متنوع"},{"id":"bgdkfGLs05E","title":"وصف خاتم النبي صلى الله عليه وسلم | اعرف نبيك","publishedAt":"2015-10-14T17:24:31Z","duration":"PT8M38S","thumbnail":"https://i.ytimg.com/vi/bgdkfGLs05E/mqdefault.jpg","viewCount":"23276","playlistId":"PLEkQk5xrP-tl6Mu_Mz3QMUSv5T6XBH-Dg","playlistName":"برنامج اعرف نبيك","category":"متنوع"},{"id":"5F7Lb1oVpXs","title":"( 98 ) حَدِيثُ جَوازِ الرُقَى وَالأَجْرِ عَلَيهَا  - المجلس الأول","publishedAt":"2015-10-12T18:24:51Z","duration":"PT28M48S","thumbnail":"https://i.ytimg.com/vi/5F7Lb1oVpXs/mqdefault.jpg","viewCount":"348","playlistId":"PLEkQk5xrP-tnl7vb7KeAoPd5ZlqKKW8KV","playlistName":"شرح كتاب بهجة النفوس أ.د . يسرى جبر","category":"متنوع"},{"id":"fwDb3CpNu54","title":"( 97 ) حدِيثُ جَوازِ أَخْذِ الأَجْرِعلى كِتَابِ اللهِ عَزَّ وَجَلَّ","publishedAt":"2015-10-09T18:40:24Z","duration":"PT20M26S","thumbnail":"https://i.ytimg.com/vi/fwDb3CpNu54/mqdefault.jpg","viewCount":"293","playlistId":"PLEkQk5xrP-tnl7vb7KeAoPd5ZlqKKW8KV","playlistName":"شرح كتاب بهجة النفوس أ.د . يسرى جبر","category":"متنوع"},{"id":"DRSvdDSVgcQ","title":"كم كان عمر النبي صلى الله عليه وسلم | اعرف نبيك","publishedAt":"2015-10-07T17:06:58Z","duration":"PT6M19S","thumbnail":"https://i.ytimg.com/vi/DRSvdDSVgcQ/mqdefault.jpg","viewCount":"70056","playlistId":"PLEkQk5xrP-tl6Mu_Mz3QMUSv5T6XBH-Dg","playlistName":"برنامج اعرف نبيك","category":"متنوع"},{"id":"QusDjxVTmH4","title":"فضل الحمد لله على قلة الرزق | اعرف نبيك","publishedAt":"2015-10-07T17:06:58Z","duration":"PT7M23S","thumbnail":"https://i.ytimg.com/vi/QusDjxVTmH4/mqdefault.jpg","viewCount":"2435","playlistId":"PLEkQk5xrP-tl6Mu_Mz3QMUSv5T6XBH-Dg","playlistName":"برنامج اعرف نبيك","category":"متنوع"},{"id":"cJ-sP-aa_Gw","title":"كيف عاش النبي ثلاثون يوما بدون طعام | اعرف نبيك","publishedAt":"2015-10-07T17:06:57Z","duration":"PT5M8S","thumbnail":"https://i.ytimg.com/vi/cJ-sP-aa_Gw/mqdefault.jpg","viewCount":"1110","playlistId":"PLEkQk5xrP-tl6Mu_Mz3QMUSv5T6XBH-Dg","playlistName":"برنامج اعرف نبيك","category":"متنوع"},{"id":"D-sAkohRgo8","title":"( 96 ) حدِيثُ النَهْىِ عَنِ التَصوِيِرِ","publishedAt":"2015-10-06T17:44:04Z","duration":"PT35M28S","thumbnail":"https://i.ytimg.com/vi/D-sAkohRgo8/mqdefault.jpg","viewCount":"419","playlistId":"PLEkQk5xrP-tnl7vb7KeAoPd5ZlqKKW8KV","playlistName":"شرح كتاب بهجة النفوس أ.د . يسرى جبر","category":"متنوع"},{"id":"5e-v1yHxsUI","title":"( 95) حدِيثُ َجَوازِ أخْذِ الزوجَةِ ما يَكْفِيهَا ِمنْ مَالِ زَوجِهَا إِذَا كَانَ شَحِيحًا","publishedAt":"2015-10-05T22:34:54Z","duration":"PT33M1S","thumbnail":"https://i.ytimg.com/vi/5e-v1yHxsUI/mqdefault.jpg","viewCount":"310","playlistId":"PLEkQk5xrP-tnl7vb7KeAoPd5ZlqKKW8KV","playlistName":"شرح كتاب بهجة النفوس أ.د . يسرى جبر","category":"متنوع"},{"id":"GMiP-k3Adeg","title":"( 94 ) حدِيثُ البَيِّعَانِ بِالخِيَارِ مَا لَمْ يَتَفَرَّقَا","publishedAt":"2015-10-04T20:28:01Z","duration":"PT47M11S","thumbnail":"https://i.ytimg.com/vi/GMiP-k3Adeg/mqdefault.jpg","viewCount":"418","playlistId":"PLEkQk5xrP-tnl7vb7KeAoPd5ZlqKKW8KV","playlistName":"شرح كتاب بهجة النفوس أ.د . يسرى جبر","category":"متنوع"},{"id":"4ImqjtImXhg","title":"327- الأمرُ بتَعَهُّد القُرآن، والتحذير مِن تَعْرِيضِه للنِسْيَان - شرح دليل الفالحين","publishedAt":"2022-11-05T05:00:02Z","duration":"PT14M5S","thumbnail":"https://i.ytimg.com/vi/4ImqjtImXhg/mqdefault.jpg","viewCount":"677","playlistId":"PLEkQk5xrP-tkc9DXvSLguqX5-FYp6ASR4","playlistName":"دليل الفالحين لطرق رياض الصالحين","category":"متنوع"},{"id":"YLhNkPJN-cc","title":"326- فضلُ قراءة القرآن - شرح دليل الفالحين","publishedAt":"2022-11-04T09:00:29Z","duration":"PT1H1M14S","thumbnail":"https://i.ytimg.com/vi/YLhNkPJN-cc/mqdefault.jpg","viewCount":"1332","playlistId":"PLEkQk5xrP-tkc9DXvSLguqX5-FYp6ASR4","playlistName":"دليل الفالحين لطرق رياض الصالحين","category":"متنوع"},{"id":"fdmLv_wY86g","title":"325- استحبابُ تعجيل المسافر الرجوع إلى أهله إذا قضى حاجته - شرح دليل الفالحين","publishedAt":"2022-11-03T09:00:30Z","duration":"PT31M57S","thumbnail":"https://i.ytimg.com/vi/fdmLv_wY86g/mqdefault.jpg","viewCount":"700","playlistId":"PLEkQk5xrP-tkc9DXvSLguqX5-FYp6ASR4","playlistName":"دليل الفالحين لطرق رياض الصالحين","category":"متنوع"},{"id":"vw0xI3BYB_4","title":"!إذا خفت من الله ففر إليه","publishedAt":"2022-11-02T18:00:31Z","duration":"PT9M31S","thumbnail":"https://i.ytimg.com/vi/vw0xI3BYB_4/mqdefault.jpg","viewCount":"6701","playlistId":"PLEkQk5xrP-tm8ZIu74nTOZN9KJUJu416J","playlistName":"مقاطع مُهمَّة (يُسريَّات) أ.د. يسري جبر","category":"متنوع"},{"id":"LDN50RPJ6zc","title":"324- الدُّعاءُ المُستجاب - شرح دليل الفالحين","publishedAt":"2022-11-02T09:00:08Z","duration":"PT40M7S","thumbnail":"https://i.ytimg.com/vi/LDN50RPJ6zc/mqdefault.jpg","viewCount":"1535","playlistId":"PLEkQk5xrP-tkc9DXvSLguqX5-FYp6ASR4","playlistName":"دليل الفالحين لطرق رياض الصالحين","category":"متنوع"},{"id":"Rr78Yel83iU","title":"مقرأة سورة سبأ من آية ٤٠","publishedAt":"2018-08-15T07:33:01Z","duration":"PT5M6S","thumbnail":"https://i.ytimg.com/vi/Rr78Yel83iU/mqdefault.jpg","viewCount":"210","playlistId":"PLEkQk5xrP-tnmTYsyW6xNdyfhPq0Bhrhj","playlistName":"مقرأة الفجر - القُرْآنُ الكَرِيمُ - خَتْمَةُ التَّدَبُّرِ  أ.د. يسري جبر","category":"متنوع"}],"total":4126,"page":103,"pageSize":24,"totalPages":172}