{"items":[{"id":"uCOvjH3NjFQ","title":"377- فضل مَن فطَّر صائمًا - شرح دليل الفالحين","publishedAt":"2023-01-08T09:00:26Z","duration":"PT21M22S","thumbnail":"https://i.ytimg.com/vi/uCOvjH3NjFQ/mqdefault.jpg","viewCount":"463","playlistId":"PLEkQk5xrP-tkc9DXvSLguqX5-FYp6ASR4","playlistName":"دليل الفالحين لطرق رياض الصالحين","category":"متنوع"},{"id":"PMWijDf5SYg","title":"شرح كتاب فضائل القرآن من سنن الترمذي - المجلس الثالث","publishedAt":"2016-03-31T02:18:26Z","duration":"PT32M58S","thumbnail":"https://i.ytimg.com/vi/PMWijDf5SYg/mqdefault.jpg","viewCount":"143","playlistId":"PLEkQk5xrP-tnu6of679SvxdVx0qSrJzmb","playlistName":"شرح سنن الإمام الترمذي رضى الله عنه د. يسري جبر","category":"متنوع"},{"id":"Dd9XqIRSybE","title":"3- النَّوْمِ عَنِ الصَّلاَةِ ك وقوت الصلاة ك الموطأ د- يسري جبر الأزهري","publishedAt":"2016-03-30T11:21:23Z","duration":"PT19M51S","thumbnail":"https://i.ytimg.com/vi/Dd9XqIRSybE/mqdefault.jpg","viewCount":"1625","playlistId":"PLEkQk5xrP-tnC6BRuqMjyO-484iqXeg0o","playlistName":"شرح كتاب الموطأ للإمام مالك","category":"متنوع"},{"id":"Ut_bthceU3I","title":"شرح كتاب فضائل القرآن من سنن الترمذي - المجلس الثاني","publishedAt":"2016-03-30T02:22:06Z","duration":"PT36M4S","thumbnail":"https://i.ytimg.com/vi/Ut_bthceU3I/mqdefault.jpg","viewCount":"143","playlistId":"PLEkQk5xrP-tnu6of679SvxdVx0qSrJzmb","playlistName":"شرح سنن الإمام الترمذي رضى الله عنه د. يسري جبر","category":"متنوع"},{"id":"Phx6oOmDSxA","title":"شرح كتاب فضائل القرآن من سنن الترمذي - المجلس الأول","publishedAt":"2016-03-29T02:21:01Z","duration":"PT32M14S","thumbnail":"https://i.ytimg.com/vi/Phx6oOmDSxA/mqdefault.jpg","viewCount":"216","playlistId":"PLEkQk5xrP-tnu6of679SvxdVx0qSrJzmb","playlistName":"شرح سنن الإمام الترمذي رضى الله عنه د. يسري جبر","category":"متنوع"},{"id":"zndQPWdROq8","title":"شرح كتاب الأمثال من سنن الترمذي - المجلس الثاني","publishedAt":"2016-03-28T02:25:19Z","duration":"PT42M52S","thumbnail":"https://i.ytimg.com/vi/zndQPWdROq8/mqdefault.jpg","viewCount":"173","playlistId":"PLEkQk5xrP-tnu6of679SvxdVx0qSrJzmb","playlistName":"شرح سنن الإمام الترمذي رضى الله عنه د. يسري جبر","category":"متنوع"},{"id":"S7khw6RV_Hg","title":"7- نبذة عن عالم المنامات والتجليات | الفرق بين كلام العلماء والأولياء - شرح مختصر الفتوحات المكية","publishedAt":"2024-02-12T12:33:02Z","duration":"PT1H2M41S","thumbnail":"https://i.ytimg.com/vi/S7khw6RV_Hg/mqdefault.jpg","viewCount":"30672","playlistId":"PLEkQk5xrP-tnpkdZki6rPTtMak1bnI5g-","playlistName":"شرح كتاب مختصر الفتوحات المكية المسمى لواقح الأنوار القدسية","category":"متنوع"},{"id":"Mm7Bpk-L1ws","title":"75- أهمية توقير النسب الشريف - شرح مسند الإمام أحمد رضي الله عنه","publishedAt":"2024-02-11T06:30:08Z","duration":"PT33M54S","thumbnail":"https://i.ytimg.com/vi/Mm7Bpk-L1ws/mqdefault.jpg","viewCount":"1587","playlistId":"PLEkQk5xrP-tkKprIuGrSdEuBSMsyg5We1","playlistName":"شرح مسند الإمام أحمد بن حنبل","category":"متنوع"},{"id":"bdDL-Jj4idI","title":"ابني مش بيسمع كلامي ازاى أصاحبه؟","publishedAt":"2024-02-10T18:00:13Z","duration":"PT11M40S","thumbnail":"https://i.ytimg.com/vi/bdDL-Jj4idI/mqdefault.jpg","viewCount":"4988","playlistId":"PLEkQk5xrP-tkGXuZ9atE3k_7it12rUPTs","playlistName":"أسئلة المتابعين","category":"متنوع"},{"id":"FUv9FYWXy0M","title":"31- حكم مَن ضحك في الصلاة - شرح سنن الإمام الدار قطني رضي الله عنه","publishedAt":"2024-02-10T11:34:19Z","duration":"PT35M47S","thumbnail":"https://i.ytimg.com/vi/FUv9FYWXy0M/mqdefault.jpg","viewCount":"946","playlistId":"PLEkQk5xrP-tk_MCBZ706ORCw6gFtFyaGj","playlistName":"شرح سنن الإمام الدارقطني","category":"متنوع"},{"id":"pGRxMsuBC-A","title":"عايزة أتجوز وأهلي مش موافقين ,, أعمل ايه؟ | نصيحة للأهالي","publishedAt":"2024-02-09T18:00:57Z","duration":"PT8M30S","thumbnail":"https://i.ytimg.com/vi/pGRxMsuBC-A/mqdefault.jpg","viewCount":"3808","playlistId":"PLEkQk5xrP-tkGXuZ9atE3k_7it12rUPTs","playlistName":"أسئلة المتابعين","category":"متنوع"},{"id":"VjmQgCw3OUQ","title":"6- لطائف عالم الأرواح وخصائص عالم الأجساد | دليل الانتفاع بالمؤمن حيا وميتا","publishedAt":"2024-02-08T12:05:00Z","duration":"PT1H9M18S","thumbnail":"https://i.ytimg.com/vi/VjmQgCw3OUQ/mqdefault.jpg","viewCount":"26068","playlistId":"PLEkQk5xrP-tnpkdZki6rPTtMak1bnI5g-","playlistName":"شرح كتاب مختصر الفتوحات المكية المسمى لواقح الأنوار القدسية","category":"متنوع"},{"id":"T6Bafpkb1ZI","title":"إحياء ليلة الإسراء والمعراج | المدينة المنورة","publishedAt":"2024-02-07T18:30:08Z","duration":"PT39M36S","thumbnail":"https://i.ytimg.com/vi/T6Bafpkb1ZI/mqdefault.jpg","viewCount":"11654","playlistId":"PLEkQk5xrP-tm8ZIu74nTOZN9KJUJu416J","playlistName":"مقاطع مُهمَّة (يُسريَّات) أ.د. يسري جبر","category":"متنوع"},{"id":"qVr7PB2F16s","title":"74- الفرق بين اللحد والشق | النَّبيُّ ﷺ له التصريف في الأحكام - شرح مسند الإمام أحمد رضي الله عنه","publishedAt":"2024-02-07T06:30:16Z","duration":"PT29M21S","thumbnail":"https://i.ytimg.com/vi/qVr7PB2F16s/mqdefault.jpg","viewCount":"954","playlistId":"PLEkQk5xrP-tkKprIuGrSdEuBSMsyg5We1","playlistName":"شرح مسند الإمام أحمد بن حنبل","category":"متنوع"},{"id":"Jowdyf2w2zc","title":"73-  نُبذة عن سيدنا أبي إسحاق سعد بن أبي وقاص سابع العشرة المبشرين بالجنة رضي اللهُ تعالى عنه","publishedAt":"2024-02-05T21:41:53Z","duration":"PT23M45S","thumbnail":"https://i.ytimg.com/vi/Jowdyf2w2zc/mqdefault.jpg","viewCount":"896","playlistId":"PLEkQk5xrP-tkKprIuGrSdEuBSMsyg5We1","playlistName":"شرح مسند الإمام أحمد بن حنبل","category":"متنوع"},{"id":"LnaLUJ33M_w","title":"83- \"آخى النَّبيُّ ﷺ بين سلمان وأبي الدَّرداء، فزار سلمانُ أبا الدَّرداء…،\" - شرح دليل الفالحين","publishedAt":"2021-06-25T07:51:01Z","duration":"PT52M8S","thumbnail":"https://i.ytimg.com/vi/LnaLUJ33M_w/mqdefault.jpg","viewCount":"1406","playlistId":"PLEkQk5xrP-tkc9DXvSLguqX5-FYp6ASR4","playlistName":"دليل الفالحين لطرق رياض الصالحين","category":"متنوع"},{"id":"_fhRb0bE5Vg","title":"إزاي اتعامل مع الفساد والرشوة في شغلي؟","publishedAt":"2021-06-24T17:30:05Z","duration":"PT9M47S","thumbnail":"https://i.ytimg.com/vi/_fhRb0bE5Vg/mqdefault.jpg","viewCount":"8637","playlistId":"PLEkQk5xrP-tl6tFiMFGUucCTvLgnWyAfz","playlistName":"حياة الأستاذ الدكتور يسري جبر","category":"متنوع"},{"id":"yoMApCrOtT0","title":"هل يجب أخذ الإذن عند الذكر؟","publishedAt":"2021-06-23T17:58:22Z","duration":"PT10M33S","thumbnail":"https://i.ytimg.com/vi/yoMApCrOtT0/mqdefault.jpg","viewCount":"10414","playlistId":"PLEkQk5xrP-tm8ZIu74nTOZN9KJUJu416J","playlistName":"مقاطع مُهمَّة (يُسريَّات) أ.د. يسري جبر","category":"متنوع"},{"id":"hmJPnQlkY5k","title":"ما حكم الغش في الامتحان؟","publishedAt":"2021-06-22T18:00:16Z","duration":"PT10M57S","thumbnail":"https://i.ytimg.com/vi/hmJPnQlkY5k/mqdefault.jpg","viewCount":"4757","playlistId":"PLEkQk5xrP-tkGXuZ9atE3k_7it12rUPTs","playlistName":"أسئلة المتابعين","category":"متنوع"},{"id":"rFnjA0wgwK8","title":"82- \"هَلَكَ المُتَنَطِّعُونَ\" قَالَهَا ثلاثًا - شرح دليل الفالحين","publishedAt":"2021-06-22T06:45:24Z","duration":"PT31M43S","thumbnail":"https://i.ytimg.com/vi/rFnjA0wgwK8/mqdefault.jpg","viewCount":"1921","playlistId":"PLEkQk5xrP-tkc9DXvSLguqX5-FYp6ASR4","playlistName":"دليل الفالحين لطرق رياض الصالحين","category":"متنوع"},{"id":"SOxirrqzFlA","title":"تفسير الأحلام حقيقة أم خرافة؟","publishedAt":"2021-06-21T18:45:00Z","duration":"PT13M37S","thumbnail":"https://i.ytimg.com/vi/SOxirrqzFlA/mqdefault.jpg","viewCount":"23484","playlistId":"PLEkQk5xrP-tm8ZIu74nTOZN9KJUJu416J","playlistName":"مقاطع مُهمَّة (يُسريَّات) أ.د. يسري جبر","category":"متنوع"},{"id":"I9Fz8qNs0Rk","title":"81- الاقتصاد في العبادة - شرح دليل الفالحين","publishedAt":"2021-06-20T22:12:37Z","duration":"PT34M5S","thumbnail":"https://i.ytimg.com/vi/I9Fz8qNs0Rk/mqdefault.jpg","viewCount":"1593","playlistId":"PLEkQk5xrP-tkc9DXvSLguqX5-FYp6ASR4","playlistName":"دليل الفالحين لطرق رياض الصالحين","category":"متنوع"},{"id":"xMowNvJYzZc","title":"شرح كتاب الأمثال من سنن الترمذي - المجلس الأول","publishedAt":"2016-03-27T02:18:15Z","duration":"PT33M32S","thumbnail":"https://i.ytimg.com/vi/xMowNvJYzZc/mqdefault.jpg","viewCount":"174","playlistId":"PLEkQk5xrP-tnu6of679SvxdVx0qSrJzmb","playlistName":"شرح سنن الإمام الترمذي رضى الله عنه د. يسري جبر","category":"متنوع"},{"id":"dp6AbrUDgzo","title":"صلوات اليوم الرابع أ.د. يسري جبر","publishedAt":"2016-03-26T19:21:39Z","duration":"PT16M42S","thumbnail":"https://i.ytimg.com/vi/dp6AbrUDgzo/mqdefault.jpg","viewCount":"7544","playlistId":"PLEkQk5xrP-tmuP5s2o33O9gAOC4ACxsma","playlistName":"صَلَواتُ الأَسْمَاءِ الْحُسْنَى شَرْحُ الصَّلَواتِ الْيُسْرِيَّةِ عَلَى خَيرِ الْبَرِيَّةِ  أ.د. يسرى جبر","category":"متنوع"}],"total":4126,"page":94,"pageSize":24,"totalPages":172}