{"items":[{"id":"Wg4qH0L-OeE","title":"81- باب السُّلْفَةِ فِى الْعُرُوضِ ك الموطأ د يسري جبر الأزهري","publishedAt":"2018-10-25T14:21:51Z","duration":"PT49M40S","thumbnail":"https://i.ytimg.com/vi/Wg4qH0L-OeE/mqdefault.jpg","viewCount":"221","playlistId":"PLEkQk5xrP-tnC6BRuqMjyO-484iqXeg0o","playlistName":"شرح كتاب الموطأ للإمام مالك","category":"متنوع"},{"id":"5_JS6ho7JFI","title":"مقرأة سورة الزمر من آية ٤٣","publishedAt":"2018-10-25T00:08:40Z","duration":"PT26M58S","thumbnail":"https://i.ytimg.com/vi/5_JS6ho7JFI/mqdefault.jpg","viewCount":"391","playlistId":"PLEkQk5xrP-tnmTYsyW6xNdyfhPq0Bhrhj","playlistName":"مقرأة الفجر - القُرْآنُ الكَرِيمُ - خَتْمَةُ التَّدَبُّرِ  أ.د. يسري جبر","category":"متنوع"},{"id":"N7LbI1FJZRQ","title":"مقرأة سورة الزمر من آية ٣٩","publishedAt":"2018-10-23T12:44:21Z","duration":"PT26M35S","thumbnail":"https://i.ytimg.com/vi/N7LbI1FJZRQ/mqdefault.jpg","viewCount":"343","playlistId":"PLEkQk5xrP-tnmTYsyW6xNdyfhPq0Bhrhj","playlistName":"مقرأة الفجر - القُرْآنُ الكَرِيمُ - خَتْمَةُ التَّدَبُّرِ  أ.د. يسري جبر","category":"متنوع"},{"id":"-XRRuIM3UpI","title":"برغم علم النبي أنه معصوم من الناس أَخذَ بالأسباب | اعرف نبيك","publishedAt":"2015-05-21T15:31:14Z","duration":"PT1M29S","thumbnail":"https://i.ytimg.com/vi/-XRRuIM3UpI/mqdefault.jpg","viewCount":"956","playlistId":"PLEkQk5xrP-tl6Mu_Mz3QMUSv5T6XBH-Dg","playlistName":"برنامج اعرف نبيك","category":"متنوع"},{"id":"7Ke8mNnUm2U","title":"كيف كان نقش خاتم سيدنا محمد | اعرف نبيك","publishedAt":"2015-05-20T15:53:05Z","duration":"PT35S","thumbnail":"https://i.ytimg.com/vi/7Ke8mNnUm2U/mqdefault.jpg","viewCount":"2327","playlistId":"PLEkQk5xrP-tl6Mu_Mz3QMUSv5T6XBH-Dg","playlistName":"برنامج اعرف نبيك","category":"متنوع"},{"id":"JzeCeTZen0Y","title":"كان سيدنا محمد يُحب التيمُن ما استطاع | اعرف نبيك","publishedAt":"2015-05-20T15:52:03Z","duration":"PT26S","thumbnail":"https://i.ytimg.com/vi/JzeCeTZen0Y/mqdefault.jpg","viewCount":"802","playlistId":"PLEkQk5xrP-tl6Mu_Mz3QMUSv5T6XBH-Dg","playlistName":"برنامج اعرف نبيك","category":"متنوع"},{"id":"FIXSlMa9hyo","title":"هَدي سيدنا محمد فى ارتداء الحذاء | اعرف نبيك","publishedAt":"2015-05-20T15:42:49Z","duration":"PT46S","thumbnail":"https://i.ytimg.com/vi/FIXSlMa9hyo/mqdefault.jpg","viewCount":"915","playlistId":"PLEkQk5xrP-tl6Mu_Mz3QMUSv5T6XBH-Dg","playlistName":"برنامج اعرف نبيك","category":"متنوع"},{"id":"a_11jlvl864","title":"شرح كتاب منازل السائرين للإمام الهروى المجلس التاسع والأربعون قسم الولايات باب الصفاء وباب السرور","publishedAt":"2015-05-18T21:36:46Z","duration":"PT1H7M13S","thumbnail":"https://i.ytimg.com/vi/a_11jlvl864/mqdefault.jpg","viewCount":"1147","playlistId":"PLEkQk5xrP-tnLYi_5_tSRVBwqcs7ISV7Y","playlistName":"شرح كتاب منازل السائرين للإمام الهروي","category":"متنوع"},{"id":"-h07ZV9nnqw","title":"كيف كان عيش سيدنا محمد | اعرف نبيك","publishedAt":"2015-05-14T15:15:52Z","duration":"PT3M44S","thumbnail":"https://i.ytimg.com/vi/-h07ZV9nnqw/mqdefault.jpg","viewCount":"1424","playlistId":"PLEkQk5xrP-tl6Mu_Mz3QMUSv5T6XBH-Dg","playlistName":"برنامج اعرف نبيك","category":"متنوع"},{"id":"QYfCE0L5xxE","title":"شرح كتاب البيوع من سنن الإمام الترمذي - المجلس الأول","publishedAt":"2015-05-24T03:59:01Z","duration":"PT40M10S","thumbnail":"https://i.ytimg.com/vi/QYfCE0L5xxE/mqdefault.jpg","viewCount":"2901","playlistId":"PLEkQk5xrP-tnu6of679SvxdVx0qSrJzmb","playlistName":"شرح سنن الإمام الترمذي رضى الله عنه د. يسري جبر","category":"متنوع"},{"id":"R9tZRebhhLc","title":"مقرأة سورة العنكبوت من آية ٥٨","publishedAt":"2018-06-14T09:58:56Z","duration":"PT23M54S","thumbnail":"https://i.ytimg.com/vi/R9tZRebhhLc/mqdefault.jpg","viewCount":"356","playlistId":"PLEkQk5xrP-tnmTYsyW6xNdyfhPq0Bhrhj","playlistName":"مقرأة الفجر - القُرْآنُ الكَرِيمُ - خَتْمَةُ التَّدَبُّرِ  أ.د. يسري جبر","category":"متنوع"},{"id":"GZ2FSEiy554","title":"مقرأة سورة العنكبوت من آية ٥٣","publishedAt":"2018-06-13T09:09:09Z","duration":"PT13M6S","thumbnail":"https://i.ytimg.com/vi/GZ2FSEiy554/mqdefault.jpg","viewCount":"288","playlistId":"PLEkQk5xrP-tnmTYsyW6xNdyfhPq0Bhrhj","playlistName":"مقرأة الفجر - القُرْآنُ الكَرِيمُ - خَتْمَةُ التَّدَبُّرِ  أ.د. يسري جبر","category":"متنوع"},{"id":"OZ6uRIRngak","title":"مقرأة سورة العنكبوت من آية ٥٠","publishedAt":"2018-06-12T10:23:22Z","duration":"PT8M55S","thumbnail":"https://i.ytimg.com/vi/OZ6uRIRngak/mqdefault.jpg","viewCount":"278","playlistId":"PLEkQk5xrP-tnmTYsyW6xNdyfhPq0Bhrhj","playlistName":"مقرأة الفجر - القُرْآنُ الكَرِيمُ - خَتْمَةُ التَّدَبُّرِ  أ.د. يسري جبر","category":"متنوع"},{"id":"yvkvlM1aLuk","title":"مقرأة سورة العنكبوت من آية ٤٦","publishedAt":"2018-06-11T07:24:19Z","duration":"PT23M27S","thumbnail":"https://i.ytimg.com/vi/yvkvlM1aLuk/mqdefault.jpg","viewCount":"247","playlistId":"PLEkQk5xrP-tnmTYsyW6xNdyfhPq0Bhrhj","playlistName":"مقرأة الفجر - القُرْآنُ الكَرِيمُ - خَتْمَةُ التَّدَبُّرِ  أ.د. يسري جبر","category":"متنوع"},{"id":"szV2FMEndgs","title":"6- حديث الإسراء والمعراج بنبينا صلى الله عليه وآله وسلم (المجلس السادس). د. يسري جبر","publishedAt":"2018-06-10T18:29:00Z","duration":"PT32M14S","thumbnail":"https://i.ytimg.com/vi/szV2FMEndgs/mqdefault.jpg","viewCount":"1609","playlistId":"PLEkQk5xrP-tnl7vb7KeAoPd5ZlqKKW8KV","playlistName":"شرح كتاب بهجة النفوس أ.د . يسرى جبر","category":"متنوع"},{"id":"sc5fvYbgFZg","title":"5- حديث الإسراء والمعراج بنبينا صلى الله عليه وآله وسلم (المجلس الخامس).   أ.د. يسري جبر","publishedAt":"2018-06-10T17:21:15Z","duration":"PT22M47S","thumbnail":"https://i.ytimg.com/vi/sc5fvYbgFZg/mqdefault.jpg","viewCount":"1302","playlistId":"PLEkQk5xrP-tnl7vb7KeAoPd5ZlqKKW8KV","playlistName":"شرح كتاب بهجة النفوس أ.د . يسرى جبر","category":"متنوع"},{"id":"E3-6kf-2gEk","title":"147- لعن اللهُ مَن تولَّى غير مَواليه - شرح مسند الإمام أحمد رضي الله تعالى عنه","publishedAt":"2025-01-01T07:11:04Z","duration":"PT35M38S","thumbnail":"https://i.ytimg.com/vi/E3-6kf-2gEk/mqdefault.jpg","viewCount":"1006","playlistId":"PLEkQk5xrP-tkKprIuGrSdEuBSMsyg5We1","playlistName":"شرح مسند الإمام أحمد بن حنبل","category":"متنوع"},{"id":"TXui8ynCwuI","title":"ما المعاصي التي ترتكبها في حياتك اليومية ولا تعرف أنها من الكبائر؟","publishedAt":"2024-12-29T20:02:17Z","duration":"PT32M52S","thumbnail":"https://i.ytimg.com/vi/TXui8ynCwuI/mqdefault.jpg","viewCount":"7212","playlistId":"PLEkQk5xrP-tnZyxWbCSqTSMV9BJLUL-zN","playlistName":"شرح كتاب تنوير البصيرة ببيان علامات الكبيرة","category":"متنوع"},{"id":"DIW3KU0eO7M","title":"حديث(١٦٤)مجئ جبريل إلى النَّبي صلى الله عليه وآله وسلم وتدريسه للقرآن معه في شهر رمضان أ.د. يسري جبر","publishedAt":"2019-05-17T16:17:27Z","duration":"PT25M57S","thumbnail":"https://i.ytimg.com/vi/DIW3KU0eO7M/mqdefault.jpg","viewCount":"1123","playlistId":"PLEkQk5xrP-tnl7vb7KeAoPd5ZlqKKW8KV","playlistName":"شرح كتاب بهجة النفوس أ.د . يسرى جبر","category":"متنوع"},{"id":"TYOjb9tBpQc","title":"حديث (١٦٣)  صفة مجئ الوحي للنبيِّ صلى الله عليه وآله وسلم . أ. د. يسري جبر","publishedAt":"2019-05-17T12:33:56Z","duration":"PT28M30S","thumbnail":"https://i.ytimg.com/vi/TYOjb9tBpQc/mqdefault.jpg","viewCount":"806","playlistId":"PLEkQk5xrP-tnl7vb7KeAoPd5ZlqKKW8KV","playlistName":"شرح كتاب بهجة النفوس أ.د . يسرى جبر","category":"متنوع"},{"id":"Xw7euEtbmUo","title":"شرح سنن الدارمي كتاب الصلاة من باب ١٤٠","publishedAt":"2019-05-16T23:20:55Z","duration":"PT31M23S","thumbnail":"https://i.ytimg.com/vi/Xw7euEtbmUo/mqdefault.jpg","viewCount":"391","playlistId":"PLEkQk5xrP-tmAg-FuWjY057X_h5NmGmAa","playlistName":"شرح سنن الدارمي - أ.د. يسري جبر (كاملا)","category":"متنوع"},{"id":"bSUnAVVuy4U","title":"حديث (١٦٢) استراق الشياطين للسمع وإلقائه إلى الكُهَّانِ.  أ. د. يسري جبر","publishedAt":"2019-05-16T12:39:53Z","duration":"PT26M49S","thumbnail":"https://i.ytimg.com/vi/bSUnAVVuy4U/mqdefault.jpg","viewCount":"2481","playlistId":"PLEkQk5xrP-tnl7vb7KeAoPd5ZlqKKW8KV","playlistName":"شرح كتاب بهجة النفوس أ.د . يسرى جبر","category":"متنوع"},{"id":"dflODl0A_5A","title":"مقرأة سورة المعارج من آية ٣٥","publishedAt":"2019-05-16T10:10:20Z","duration":"PT17M30S","thumbnail":"https://i.ytimg.com/vi/dflODl0A_5A/mqdefault.jpg","viewCount":"333","playlistId":"PLEkQk5xrP-tnmTYsyW6xNdyfhPq0Bhrhj","playlistName":"مقرأة الفجر - القُرْآنُ الكَرِيمُ - خَتْمَةُ التَّدَبُّرِ  أ.د. يسري جبر","category":"متنوع"},{"id":"V_hcBo6biSA","title":"حديث (١٦١) خلق الإنسان في بطن أمه ونفخ الروح فيه.   أ. د. يسري جبر","publishedAt":"2019-05-15T21:40:58Z","duration":"PT18M7S","thumbnail":"https://i.ytimg.com/vi/V_hcBo6biSA/mqdefault.jpg","viewCount":"791","playlistId":"PLEkQk5xrP-tnl7vb7KeAoPd5ZlqKKW8KV","playlistName":"شرح كتاب بهجة النفوس أ.د . يسرى جبر","category":"متنوع"}],"total":4126,"page":125,"pageSize":24,"totalPages":172}