{"items":[{"id":"wRX_QHUQIGs","title":"مقرأة سورة الزخرف من أولها","publishedAt":"2018-12-10T13:15:12Z","duration":"PT31M37S","thumbnail":"https://i.ytimg.com/vi/wRX_QHUQIGs/mqdefault.jpg","viewCount":"357","playlistId":"PLEkQk5xrP-tnmTYsyW6xNdyfhPq0Bhrhj","playlistName":"مقرأة الفجر - القُرْآنُ الكَرِيمُ - خَتْمَةُ التَّدَبُّرِ  أ.د. يسري جبر","category":"متنوع"},{"id":"UpdDA1UDI1Q","title":"مقرأة سورة الشورى من آية ٤٩","publishedAt":"2018-12-09T11:51:07Z","duration":"PT18M42S","thumbnail":"https://i.ytimg.com/vi/UpdDA1UDI1Q/mqdefault.jpg","viewCount":"331","playlistId":"PLEkQk5xrP-tnmTYsyW6xNdyfhPq0Bhrhj","playlistName":"مقرأة الفجر - القُرْآنُ الكَرِيمُ - خَتْمَةُ التَّدَبُّرِ  أ.د. يسري جبر","category":"متنوع"},{"id":"jUj0EXLPezE","title":"مقرأة سورة الشورى من آية ٤٤","publishedAt":"2018-12-08T12:44:26Z","duration":"PT19M9S","thumbnail":"https://i.ytimg.com/vi/jUj0EXLPezE/mqdefault.jpg","viewCount":"310","playlistId":"PLEkQk5xrP-tnmTYsyW6xNdyfhPq0Bhrhj","playlistName":"مقرأة الفجر - القُرْآنُ الكَرِيمُ - خَتْمَةُ التَّدَبُّرِ  أ.د. يسري جبر","category":"متنوع"},{"id":"jvCzYZx72gk","title":"مقرأة سورة الزمر من آية ٩","publishedAt":"2018-10-13T04:47:28Z","duration":"PT20M28S","thumbnail":"https://i.ytimg.com/vi/jvCzYZx72gk/mqdefault.jpg","viewCount":"416","playlistId":"PLEkQk5xrP-tnmTYsyW6xNdyfhPq0Bhrhj","playlistName":"مقرأة الفجر - القُرْآنُ الكَرِيمُ - خَتْمَةُ التَّدَبُّرِ  أ.د. يسري جبر","category":"متنوع"},{"id":"1c0XUViBCQY","title":"مقرأة سورة الزمر من آية ٧","publishedAt":"2018-10-11T20:56:23Z","duration":"PT14M23S","thumbnail":"https://i.ytimg.com/vi/1c0XUViBCQY/mqdefault.jpg","viewCount":"407","playlistId":"PLEkQk5xrP-tnmTYsyW6xNdyfhPq0Bhrhj","playlistName":"مقرأة الفجر - القُرْآنُ الكَرِيمُ - خَتْمَةُ التَّدَبُّرِ  أ.د. يسري جبر","category":"متنوع"},{"id":"nltVpcSXYMk","title":"84- باب مَا جَاءَ فِى الْقِرَاضِ شرح الموطأ د يسري جبر","publishedAt":"2018-10-09T14:15:56Z","duration":"PT48M33S","thumbnail":"https://i.ytimg.com/vi/nltVpcSXYMk/mqdefault.jpg","viewCount":"600","playlistId":"PLEkQk5xrP-tnC6BRuqMjyO-484iqXeg0o","playlistName":"شرح كتاب الموطأ للإمام مالك","category":"متنوع"},{"id":"SZcSy8ugG4E","title":"مقرأة سورة الزمر من أولها","publishedAt":"2018-10-09T09:08:08Z","duration":"PT18M31S","thumbnail":"https://i.ytimg.com/vi/SZcSy8ugG4E/mqdefault.jpg","viewCount":"760","playlistId":"PLEkQk5xrP-tnmTYsyW6xNdyfhPq0Bhrhj","playlistName":"مقرأة الفجر - القُرْآنُ الكَرِيمُ - خَتْمَةُ التَّدَبُّرِ  أ.د. يسري جبر","category":"متنوع"},{"id":"qOjDsHlEdAs","title":"مقرأة سورة ص من آية ٦٥","publishedAt":"2018-10-08T12:51:18Z","duration":"PT45M45S","thumbnail":"https://i.ytimg.com/vi/qOjDsHlEdAs/mqdefault.jpg","viewCount":"466","playlistId":"PLEkQk5xrP-tnmTYsyW6xNdyfhPq0Bhrhj","playlistName":"مقرأة الفجر - القُرْآنُ الكَرِيمُ - خَتْمَةُ التَّدَبُّرِ  أ.د. يسري جبر","category":"متنوع"},{"id":"mlxTkBgaI9w","title":"شرح كتاب البيوع من سنن الترمذي - المجلس الرابع عشر","publishedAt":"2015-06-06T04:04:15Z","duration":"PT35M1S","thumbnail":"https://i.ytimg.com/vi/mlxTkBgaI9w/mqdefault.jpg","viewCount":"136","playlistId":"PLEkQk5xrP-tnu6of679SvxdVx0qSrJzmb","playlistName":"شرح سنن الإمام الترمذي رضى الله عنه د. يسري جبر","category":"متنوع"},{"id":"LG7lfH5rstE","title":"شرح كتاب البيوع من سنن الترمذي - المجلس الثالث عشر","publishedAt":"2015-06-05T06:03:22Z","duration":"PT36M52S","thumbnail":"https://i.ytimg.com/vi/LG7lfH5rstE/mqdefault.jpg","viewCount":"201","playlistId":"PLEkQk5xrP-tnu6of679SvxdVx0qSrJzmb","playlistName":"شرح سنن الإمام الترمذي رضى الله عنه د. يسري جبر","category":"متنوع"},{"id":"9_LxN5tSOIs","title":"شرح كتاب البيوع من سنن الترمذي - المجلس الثاني عشر","publishedAt":"2015-06-04T04:16:15Z","duration":"PT36M29S","thumbnail":"https://i.ytimg.com/vi/9_LxN5tSOIs/mqdefault.jpg","viewCount":"123","playlistId":"PLEkQk5xrP-tnu6of679SvxdVx0qSrJzmb","playlistName":"شرح سنن الإمام الترمذي رضى الله عنه د. يسري جبر","category":"متنوع"},{"id":"x9ewQtN9FiM","title":"كيف تتخلص من العادة السرية بشكل نهائي؟","publishedAt":"2022-05-07T18:00:30Z","duration":"PT8M37S","thumbnail":"https://i.ytimg.com/vi/x9ewQtN9FiM/mqdefault.jpg","viewCount":"41356","playlistId":"PLEkQk5xrP-tkGXuZ9atE3k_7it12rUPTs","playlistName":"أسئلة المتابعين","category":"متنوع"},{"id":"Eb__BTXrsQU","title":"242- حكم مَن تزوج أخته من الرضاع وأنجب منها - شرح دليل الفالحين","publishedAt":"2022-05-07T05:00:04Z","duration":"PT39M7S","thumbnail":"https://i.ytimg.com/vi/Eb__BTXrsQU/mqdefault.jpg","viewCount":"4308","playlistId":"PLEkQk5xrP-tkc9DXvSLguqX5-FYp6ASR4","playlistName":"دليل الفالحين لطرق رياض الصالحين","category":"متنوع"},{"id":"J5fwRVtLIR4","title":"هل يوجد مجاز في القرآن الكريم؟","publishedAt":"2022-05-06T18:00:06Z","duration":"PT8M42S","thumbnail":"https://i.ytimg.com/vi/J5fwRVtLIR4/mqdefault.jpg","viewCount":"4620","playlistId":"PLEkQk5xrP-tm8ZIu74nTOZN9KJUJu416J","playlistName":"مقاطع مُهمَّة (يُسريَّات) أ.د. يسري جبر","category":"متنوع"},{"id":"aVJ65Boy-aU","title":"هل الاستماع إلى الأغاني حرام؟","publishedAt":"2022-05-05T18:00:00Z","duration":"PT11M40S","thumbnail":"https://i.ytimg.com/vi/aVJ65Boy-aU/mqdefault.jpg","viewCount":"21286","playlistId":"PLEkQk5xrP-tm8ZIu74nTOZN9KJUJu416J","playlistName":"مقاطع مُهمَّة (يُسريَّات) أ.د. يسري جبر","category":"متنوع"},{"id":"TwtgQDgfrSQ","title":"حكم فوائد البنوك | أ.د. يسري جبر","publishedAt":"2022-05-04T18:15:02Z","duration":"PT12M10S","thumbnail":"https://i.ytimg.com/vi/TwtgQDgfrSQ/mqdefault.jpg","viewCount":"202064","playlistId":"PLEkQk5xrP-tm8ZIu74nTOZN9KJUJu416J","playlistName":"مقاطع مُهمَّة (يُسريَّات) أ.د. يسري جبر","category":"متنوع"},{"id":"p4p6ejFBsLY","title":"بعد رمضان ,, نصيحة لمن يريد حفظ القرآن","publishedAt":"2022-05-02T19:00:23Z","duration":"PT11M46S","thumbnail":"https://i.ytimg.com/vi/p4p6ejFBsLY/mqdefault.jpg","viewCount":"29191","playlistId":"PLEkQk5xrP-tm8ZIu74nTOZN9KJUJu416J","playlistName":"مقاطع مُهمَّة (يُسريَّات) أ.د. يسري جبر","category":"متنوع"},{"id":"J3_wF-RQMt8","title":"هل يجوز زيارة الموتى في العيد؟","publishedAt":"2022-05-01T19:30:01Z","duration":"PT8M4S","thumbnail":"https://i.ytimg.com/vi/J3_wF-RQMt8/mqdefault.jpg","viewCount":"6695","playlistId":"PLEkQk5xrP-tkGXuZ9atE3k_7it12rUPTs","playlistName":"أسئلة المتابعين","category":"متنوع"},{"id":"4Iw5D40aYtA","title":"توادد المؤمنين وتراحمهم | أ.د. يسري جبر","publishedAt":"2022-05-01T15:30:01Z","duration":"PT22M49S","thumbnail":"https://i.ytimg.com/vi/4Iw5D40aYtA/mqdefault.jpg","viewCount":"1117","playlistId":"PLEkQk5xrP-tnl7vb7KeAoPd5ZlqKKW8KV","playlistName":"شرح كتاب بهجة النفوس أ.د . يسرى جبر","category":"متنوع"},{"id":"Nt8p-g22i3E","title":"سعة رحمة الله تعالى بعباده | أ.د. يسري جبر","publishedAt":"2022-04-30T15:30:02Z","duration":"PT28M10S","thumbnail":"https://i.ytimg.com/vi/Nt8p-g22i3E/mqdefault.jpg","viewCount":"2934","playlistId":"PLEkQk5xrP-tnl7vb7KeAoPd5ZlqKKW8KV","playlistName":"شرح كتاب بهجة النفوس أ.د . يسرى جبر","category":"متنوع"},{"id":"RwMvKq1Wt7Q","title":"241- البِرُّ حُسنُ الخُلُق، والإِثْمُ ما حاك في صدرك ، وكرهت أن يطلع عليه الناس - شرح دليل الفالحين","publishedAt":"2022-04-30T05:00:10Z","duration":"PT46M21S","thumbnail":"https://i.ytimg.com/vi/RwMvKq1Wt7Q/mqdefault.jpg","viewCount":"1789","playlistId":"PLEkQk5xrP-tkc9DXvSLguqX5-FYp6ASR4","playlistName":"دليل الفالحين لطرق رياض الصالحين","category":"متنوع"},{"id":"-Wwa13CJUjs","title":"جواز التوسل بالنَّبيّ ﷺ | أ.د. يسري جبر","publishedAt":"2022-04-29T15:30:00Z","duration":"PT25M44S","thumbnail":"https://i.ytimg.com/vi/-Wwa13CJUjs/mqdefault.jpg","viewCount":"3660","playlistId":"PLEkQk5xrP-tnl7vb7KeAoPd5ZlqKKW8KV","playlistName":"شرح كتاب بهجة النفوس أ.د . يسرى جبر","category":"متنوع"},{"id":"5n6DaWNBKoo","title":"240- الورعُ وتركُ الشُبُهات - شرح دليل الفالحين","publishedAt":"2022-04-29T05:00:04Z","duration":"PT43M40S","thumbnail":"https://i.ytimg.com/vi/5n6DaWNBKoo/mqdefault.jpg","viewCount":"1063","playlistId":"PLEkQk5xrP-tkc9DXvSLguqX5-FYp6ASR4","playlistName":"دليل الفالحين لطرق رياض الصالحين","category":"متنوع"},{"id":"xUw_OcMmidA","title":"رحمة الله بعباده | أ.د. يسري جبر","publishedAt":"2022-04-28T15:30:07Z","duration":"PT33M36S","thumbnail":"https://i.ytimg.com/vi/xUw_OcMmidA/mqdefault.jpg","viewCount":"3324","playlistId":"PLEkQk5xrP-tnl7vb7KeAoPd5ZlqKKW8KV","playlistName":"شرح كتاب بهجة النفوس أ.د . يسرى جبر","category":"متنوع"}],"total":4126,"page":63,"pageSize":24,"totalPages":172}