{"items":[{"id":"El0t78_Zcyk","title":"283- النَّهْي عن القِرَانِ بين التمْرتين ونحوِهما… - شرح دليل الفالحين","publishedAt":"2022-08-01T05:15:00Z","duration":"PT37M40S","thumbnail":"https://i.ytimg.com/vi/El0t78_Zcyk/mqdefault.jpg","viewCount":"885","playlistId":"PLEkQk5xrP-tkc9DXvSLguqX5-FYp6ASR4","playlistName":"دليل الفالحين لطرق رياض الصالحين","category":"متنوع"},{"id":"KBBXL48wLrk","title":"كيف نفهم مخالفة النَّبيّ ﷺ لنفسه؟","publishedAt":"2022-07-30T18:00:05Z","duration":"PT8M49S","thumbnail":"https://i.ytimg.com/vi/KBBXL48wLrk/mqdefault.jpg","viewCount":"3946","playlistId":"PLEkQk5xrP-tkGXuZ9atE3k_7it12rUPTs","playlistName":"أسئلة المتابعين","category":"متنوع"},{"id":"0wCMmz9BUfw","title":"282- بَابٌ: لا يَعيبُ الطعام، واستحبابُ مدحه - شرح دليل الفالحين","publishedAt":"2022-07-29T06:00:00Z","duration":"PT33M36S","thumbnail":"https://i.ytimg.com/vi/0wCMmz9BUfw/mqdefault.jpg","viewCount":"763","playlistId":"PLEkQk5xrP-tkc9DXvSLguqX5-FYp6ASR4","playlistName":"دليل الفالحين لطرق رياض الصالحين","category":"متنوع"},{"id":"rbRMPe1GVmg","title":"هل لمس المرأة ينقض الوضوء؟","publishedAt":"2022-07-28T19:59:23Z","duration":"PT14M7S","thumbnail":"https://i.ytimg.com/vi/rbRMPe1GVmg/mqdefault.jpg","viewCount":"13716","playlistId":"PLEkQk5xrP-tkGXuZ9atE3k_7it12rUPTs","playlistName":"أسئلة المتابعين","category":"متنوع"},{"id":"QCKFVz_U__I","title":"قراءة القرآن (من آية ٢٨٤ سورة البقرة)","publishedAt":"2016-06-02T20:44:07Z","duration":"PT8M51S","thumbnail":"https://i.ytimg.com/vi/QCKFVz_U__I/mqdefault.jpg","viewCount":"672","playlistId":"PLEkQk5xrP-tnmTYsyW6xNdyfhPq0Bhrhj","playlistName":"مقرأة الفجر - القُرْآنُ الكَرِيمُ - خَتْمَةُ التَّدَبُّرِ  أ.د. يسري جبر","category":"متنوع"},{"id":"ErDaH0sLaBI","title":"شرح كتاب الدعوات من سنن الترمذي - المجلس الثامن عشر","publishedAt":"2016-06-02T02:48:10Z","duration":"PT22M35S","thumbnail":"https://i.ytimg.com/vi/ErDaH0sLaBI/mqdefault.jpg","viewCount":"121","playlistId":"PLEkQk5xrP-tnu6of679SvxdVx0qSrJzmb","playlistName":"شرح سنن الإمام الترمذي رضى الله عنه د. يسري جبر","category":"متنوع"},{"id":"Lf9pNDUepGk","title":"قراءة القرآن (من آية ٢٨٢ سورة البقرة)","publishedAt":"2016-06-02T02:47:06Z","duration":"PT25M32S","thumbnail":"https://i.ytimg.com/vi/Lf9pNDUepGk/mqdefault.jpg","viewCount":"672","playlistId":"PLEkQk5xrP-tnmTYsyW6xNdyfhPq0Bhrhj","playlistName":"مقرأة الفجر - القُرْآنُ الكَرِيمُ - خَتْمَةُ التَّدَبُّرِ  أ.د. يسري جبر","category":"متنوع"},{"id":"JNzxRMMp-J0","title":"شرح كتاب الدعوات من سنن الترمذي - المجلس السابع عشر","publishedAt":"2016-06-01T19:23:58Z","duration":"PT39M22S","thumbnail":"https://i.ytimg.com/vi/JNzxRMMp-J0/mqdefault.jpg","viewCount":"128","playlistId":"PLEkQk5xrP-tnu6of679SvxdVx0qSrJzmb","playlistName":"شرح سنن الإمام الترمذي رضى الله عنه د. يسري جبر","category":"متنوع"},{"id":"keRla_JYPQ8","title":"قراءة القرآن (من آية ٢٧٧ سورة البقرة)","publishedAt":"2016-06-01T01:46:38Z","duration":"PT11M49S","thumbnail":"https://i.ytimg.com/vi/keRla_JYPQ8/mqdefault.jpg","viewCount":"592","playlistId":"PLEkQk5xrP-tnmTYsyW6xNdyfhPq0Bhrhj","playlistName":"مقرأة الفجر - القُرْآنُ الكَرِيمُ - خَتْمَةُ التَّدَبُّرِ  أ.د. يسري جبر","category":"متنوع"},{"id":"GK1aZ9Vzb8o","title":"17- إِعَادَةِ الصَّلاَةِ مَعَ الإِمَامِ ك صلاة الجماعة ك الموطأ د يسري جبر الأزهري بمضيفة الدح","publishedAt":"2016-05-30T22:15:05Z","duration":"PT1H58S","thumbnail":"https://i.ytimg.com/vi/GK1aZ9Vzb8o/mqdefault.jpg","viewCount":"546","playlistId":"PLEkQk5xrP-tnC6BRuqMjyO-484iqXeg0o","playlistName":"شرح كتاب الموطأ للإمام مالك","category":"متنوع"},{"id":"rf-O-rcVTnA","title":"شرح كتاب الدعوات من سنن الترمذي - المجلس السامس عشر","publishedAt":"2016-05-30T19:33:22Z","duration":"PT34M9S","thumbnail":"https://i.ytimg.com/vi/rf-O-rcVTnA/mqdefault.jpg","viewCount":"135","playlistId":"PLEkQk5xrP-tnu6of679SvxdVx0qSrJzmb","playlistName":"شرح سنن الإمام الترمذي رضى الله عنه د. يسري جبر","category":"متنوع"},{"id":"ZI4rGOleVGw","title":"قراءة القرآن (من آية ٢٧٢ سورة البقرة)","publishedAt":"2016-05-30T19:21:32Z","duration":"PT28M45S","thumbnail":"https://i.ytimg.com/vi/ZI4rGOleVGw/mqdefault.jpg","viewCount":"730","playlistId":"PLEkQk5xrP-tnmTYsyW6xNdyfhPq0Bhrhj","playlistName":"مقرأة الفجر - القُرْآنُ الكَرِيمُ - خَتْمَةُ التَّدَبُّرِ  أ.د. يسري جبر","category":"متنوع"},{"id":"dh-ovC4HWpo","title":"شرح كتاب الدعوات من سنن الترمذي - المجلس الخامس عشر","publishedAt":"2016-05-30T18:12:19Z","duration":"PT37M36S","thumbnail":"https://i.ytimg.com/vi/dh-ovC4HWpo/mqdefault.jpg","viewCount":"118","playlistId":"PLEkQk5xrP-tnu6of679SvxdVx0qSrJzmb","playlistName":"شرح سنن الإمام الترمذي رضى الله عنه د. يسري جبر","category":"متنوع"},{"id":"kLPmRP0pT0A","title":"قراءة القرآن (من آية ٢٦٧ سورة البقرة)","publishedAt":"2016-05-30T14:21:19Z","duration":"PT20M38S","thumbnail":"https://i.ytimg.com/vi/kLPmRP0pT0A/mqdefault.jpg","viewCount":"644","playlistId":"PLEkQk5xrP-tnmTYsyW6xNdyfhPq0Bhrhj","playlistName":"مقرأة الفجر - القُرْآنُ الكَرِيمُ - خَتْمَةُ التَّدَبُّرِ  أ.د. يسري جبر","category":"متنوع"},{"id":"kLqIMQaNOug","title":"مقرأة سورة النور من آية ٣٩","publishedAt":"2018-03-19T09:52:54Z","duration":"PT10M9S","thumbnail":"https://i.ytimg.com/vi/kLqIMQaNOug/mqdefault.jpg","viewCount":"305","playlistId":"PLEkQk5xrP-tnmTYsyW6xNdyfhPq0Bhrhj","playlistName":"مقرأة الفجر - القُرْآنُ الكَرِيمُ - خَتْمَةُ التَّدَبُّرِ  أ.د. يسري جبر","category":"متنوع"},{"id":"5mwPABuNVYI","title":"سورة البقرة آية 114","publishedAt":"2016-04-29T00:39:56Z","duration":"PT11M5S","thumbnail":"https://i.ytimg.com/vi/5mwPABuNVYI/mqdefault.jpg","viewCount":"1231","playlistId":"PLEkQk5xrP-tnmTYsyW6xNdyfhPq0Bhrhj","playlistName":"مقرأة الفجر - القُرْآنُ الكَرِيمُ - خَتْمَةُ التَّدَبُّرِ  أ.د. يسري جبر","category":"متنوع"},{"id":"32_86IEtzkI","title":"شرح كتاب تفسير القرآن من سنن الترمذي - المجلس الثاني والعشرون","publishedAt":"2016-04-29T00:39:56Z","duration":"PT34M32S","thumbnail":"https://i.ytimg.com/vi/32_86IEtzkI/mqdefault.jpg","viewCount":"80","playlistId":"PLEkQk5xrP-tnu6of679SvxdVx0qSrJzmb","playlistName":"شرح سنن الإمام الترمذي رضى الله عنه د. يسري جبر","category":"متنوع"},{"id":"XtRbyFU70jM","title":"شرح كتاب تفسير القرآن من سنن الترمذي - المجلس الحادي والعشرون","publishedAt":"2016-04-28T02:08:29Z","duration":"PT35M20S","thumbnail":"https://i.ytimg.com/vi/XtRbyFU70jM/mqdefault.jpg","viewCount":"89","playlistId":"PLEkQk5xrP-tnu6of679SvxdVx0qSrJzmb","playlistName":"شرح سنن الإمام الترمذي رضى الله عنه د. يسري جبر","category":"متنوع"},{"id":"Eva82eq-Mq8","title":"سورة البقرة آية 106","publishedAt":"2016-04-28T02:06:49Z","duration":"PT22M56S","thumbnail":"https://i.ytimg.com/vi/Eva82eq-Mq8/mqdefault.jpg","viewCount":"1448","playlistId":"PLEkQk5xrP-tnmTYsyW6xNdyfhPq0Bhrhj","playlistName":"مقرأة الفجر - القُرْآنُ الكَرِيمُ - خَتْمَةُ التَّدَبُّرِ  أ.د. يسري جبر","category":"متنوع"},{"id":"ZqLr0fkoAZI","title":"شرح كتاب تفسير القرآن من سنن الترمذي - المجلس العشرون","publishedAt":"2016-04-27T03:03:53Z","duration":"PT38M43S","thumbnail":"https://i.ytimg.com/vi/ZqLr0fkoAZI/mqdefault.jpg","viewCount":"120","playlistId":"PLEkQk5xrP-tnu6of679SvxdVx0qSrJzmb","playlistName":"شرح سنن الإمام الترمذي رضى الله عنه د. يسري جبر","category":"متنوع"},{"id":"LBuSNHfYZ_c","title":"سورة البقرة آية 101","publishedAt":"2016-04-27T03:03:01Z","duration":"PT18M49S","thumbnail":"https://i.ytimg.com/vi/LBuSNHfYZ_c/mqdefault.jpg","viewCount":"1476","playlistId":"PLEkQk5xrP-tnmTYsyW6xNdyfhPq0Bhrhj","playlistName":"مقرأة الفجر - القُرْآنُ الكَرِيمُ - خَتْمَةُ التَّدَبُّرِ  أ.د. يسري جبر","category":"متنوع"},{"id":"LcQBOvB3qBU","title":"مقرأة سورة لقمان من آية ١٣","publishedAt":"2018-07-02T19:19:19Z","duration":"PT13M55S","thumbnail":"https://i.ytimg.com/vi/LcQBOvB3qBU/mqdefault.jpg","viewCount":"430","playlistId":"PLEkQk5xrP-tnmTYsyW6xNdyfhPq0Bhrhj","playlistName":"مقرأة الفجر - القُرْآنُ الكَرِيمُ - خَتْمَةُ التَّدَبُّرِ  أ.د. يسري جبر","category":"متنوع"},{"id":"zU3hXFiLW1c","title":"مقرأة سورة لقمان من آية ١٠","publishedAt":"2018-07-01T12:48:57Z","duration":"PT14M46S","thumbnail":"https://i.ytimg.com/vi/zU3hXFiLW1c/mqdefault.jpg","viewCount":"315","playlistId":"PLEkQk5xrP-tnmTYsyW6xNdyfhPq0Bhrhj","playlistName":"مقرأة الفجر - القُرْآنُ الكَرِيمُ - خَتْمَةُ التَّدَبُّرِ  أ.د. يسري جبر","category":"متنوع"},{"id":"mWlu2v3Bd_g","title":"مقرأة سورة لقمان من آية ٦","publishedAt":"2018-06-30T13:05:03Z","duration":"PT21M6S","thumbnail":"https://i.ytimg.com/vi/mWlu2v3Bd_g/mqdefault.jpg","viewCount":"517","playlistId":"PLEkQk5xrP-tnmTYsyW6xNdyfhPq0Bhrhj","playlistName":"مقرأة الفجر - القُرْآنُ الكَرِيمُ - خَتْمَةُ التَّدَبُّرِ  أ.د. يسري جبر","category":"متنوع"}],"total":4126,"page":20,"pageSize":24,"totalPages":172}