{"items":[{"id":"gbyXtCa5NXw","title":"أنا في بداية طريقي إلى الله ,, ما هي الكتب التي تنصحني بها؟","publishedAt":"2024-08-05T18:00:19Z","duration":"PT9M20S","thumbnail":"https://i.ytimg.com/vi/gbyXtCa5NXw/mqdefault.jpg","viewCount":"6857","playlistId":"PLEkQk5xrP-tkGXuZ9atE3k_7it12rUPTs","playlistName":"أسئلة المتابعين","category":"متنوع"},{"id":"1mIsBoZzgzY","title":"28- صفات أولياء الله الصالحين | شرح مختصر الفتوحات المكية","publishedAt":"2024-08-04T17:00:02Z","duration":"PT49M57S","thumbnail":"https://i.ytimg.com/vi/1mIsBoZzgzY/mqdefault.jpg","viewCount":"8486","playlistId":"PLEkQk5xrP-tnpkdZki6rPTtMak1bnI5g-","playlistName":"شرح كتاب مختصر الفتوحات المكية المسمى لواقح الأنوار القدسية","category":"متنوع"},{"id":"lz0mk8nOr6w","title":"أحاول تعليم زملائي ولكنهم يستغلونني في الحصول على ترقية فماذا أفعل؟ | المنافسة في سوق العمل","publishedAt":"2024-08-03T17:03:35Z","duration":"PT12M37S","thumbnail":"https://i.ytimg.com/vi/lz0mk8nOr6w/mqdefault.jpg","viewCount":"3834","playlistId":"PLEkQk5xrP-tm8ZIu74nTOZN9KJUJu416J","playlistName":"مقاطع مُهمَّة (يُسريَّات) أ.د. يسري جبر","category":"متنوع"},{"id":"hfLYqtYaS18","title":"3- اجتهادك فيما ضُمِنَ لك، وتقصيرك فيما طُلِبَ منك، دليل على انطماس البصيرة منك | شرح الحكم العطائية","publishedAt":"2024-08-02T17:00:39Z","duration":"PT37M58S","thumbnail":"https://i.ytimg.com/vi/hfLYqtYaS18/mqdefault.jpg","viewCount":"8141","playlistId":"PLEkQk5xrP-tmf5ToOwmW-q0JwxkapbrMN","playlistName":"شرح كتاب إرشاد البرية إلى بعض معاني الحكم العطائية","category":"متنوع"},{"id":"37iKSTBX5a4","title":"ما هي بدع التفاسير في جزء عم؟","publishedAt":"2024-08-02T06:00:01Z","duration":"PT22M23S","thumbnail":"https://i.ytimg.com/vi/37iKSTBX5a4/mqdefault.jpg","viewCount":"1107","playlistId":"PLEkQk5xrP-tkSGrPLMt1BEmJ54cGWYgtp","playlistName":"كتابُ بِدَعِ التَفَاسِيرِ - أ.د. يسري جبر","category":"متنوع"},{"id":"yeOpCGrN8iA","title":"أنا كنت في ثانوية عامة ونفسي أدخل كلية الطب بماذا تنصحني؟","publishedAt":"2024-08-01T18:14:00Z","duration":"PT8M12S","thumbnail":"https://i.ytimg.com/vi/yeOpCGrN8iA/mqdefault.jpg","viewCount":"2867","playlistId":"PLEkQk5xrP-tkGXuZ9atE3k_7it12rUPTs","playlistName":"أسئلة المتابعين","category":"متنوع"},{"id":"YZWhiaL7WPA","title":"تفسير قوله تعالى \"وإن لك لأجرا غير ممنون\"","publishedAt":"2024-07-30T19:07:21Z","duration":"PT16M28S","thumbnail":"https://i.ytimg.com/vi/YZWhiaL7WPA/mqdefault.jpg","viewCount":"1879","playlistId":"PLEkQk5xrP-tkSGrPLMt1BEmJ54cGWYgtp","playlistName":"كتابُ بِدَعِ التَفَاسِيرِ - أ.د. يسري جبر","category":"متنوع"},{"id":"y3mUD_q-HlY","title":"2- سوابق الهمم لا تخرق أسوار الأقدار | كيف تريح نفسك من التدبير؟ | شرح الحكم العطائية","publishedAt":"2024-07-29T18:33:09Z","duration":"PT46M28S","thumbnail":"https://i.ytimg.com/vi/y3mUD_q-HlY/mqdefault.jpg","viewCount":"17947","playlistId":"PLEkQk5xrP-tmf5ToOwmW-q0JwxkapbrMN","playlistName":"شرح كتاب إرشاد البرية إلى بعض معاني الحكم العطائية","category":"متنوع"},{"id":"q3wo9L5DMlg","title":"118- حكم النوم أثناء السجود - شرح مسند الإمام أحمد رضي الله تعالى عنه","publishedAt":"2024-07-29T06:00:21Z","duration":"PT25M26S","thumbnail":"https://i.ytimg.com/vi/q3wo9L5DMlg/mqdefault.jpg","viewCount":"996","playlistId":"PLEkQk5xrP-tkKprIuGrSdEuBSMsyg5We1","playlistName":"شرح مسند الإمام أحمد بن حنبل","category":"متنوع"},{"id":"nrdXeTnGd4w","title":"27- هل العالم قديم أم حادث؟ | الحيرة في معرفة الذات الإلهية | شرح مختصر الفتوحات المكية","publishedAt":"2024-07-28T17:00:37Z","duration":"PT1H2M17S","thumbnail":"https://i.ytimg.com/vi/nrdXeTnGd4w/mqdefault.jpg","viewCount":"6329","playlistId":"PLEkQk5xrP-tnpkdZki6rPTtMak1bnI5g-","playlistName":"شرح كتاب مختصر الفتوحات المكية المسمى لواقح الأنوار القدسية","category":"متنوع"},{"id":"4NF0YVQRuh8","title":"تفسير قوله تعالى \"يا أيها النبي لم تحرم ما أحل الله لك تبتغي مرضاة أزواجك\"","publishedAt":"2024-07-27T17:09:16Z","duration":"PT19M36S","thumbnail":"https://i.ytimg.com/vi/4NF0YVQRuh8/mqdefault.jpg","viewCount":"2798","playlistId":"PLEkQk5xrP-tkSGrPLMt1BEmJ54cGWYgtp","playlistName":"كتابُ بِدَعِ التَفَاسِيرِ - أ.د. يسري جبر","category":"متنوع"},{"id":"f0LxsT8kCzc","title":"مقرأة سورة الزخرف من آية ٤٠","publishedAt":"2018-12-16T11:09:15Z","duration":"PT9M38S","thumbnail":"https://i.ytimg.com/vi/f0LxsT8kCzc/mqdefault.jpg","viewCount":"248","playlistId":"PLEkQk5xrP-tnmTYsyW6xNdyfhPq0Bhrhj","playlistName":"مقرأة الفجر - القُرْآنُ الكَرِيمُ - خَتْمَةُ التَّدَبُّرِ  أ.د. يسري جبر","category":"متنوع"},{"id":"x8V0Nzd3LS8","title":"مقرأة سورة الزخرف من آية ٣٣","publishedAt":"2018-12-15T09:45:33Z","duration":"PT20M48S","thumbnail":"https://i.ytimg.com/vi/x8V0Nzd3LS8/mqdefault.jpg","viewCount":"318","playlistId":"PLEkQk5xrP-tnmTYsyW6xNdyfhPq0Bhrhj","playlistName":"مقرأة الفجر - القُرْآنُ الكَرِيمُ - خَتْمَةُ التَّدَبُّرِ  أ.د. يسري جبر","category":"متنوع"},{"id":"9mznw-aeQkw","title":"مقرأة سورة الزخرف من آية ٢٦","publishedAt":"2018-12-14T07:35:02Z","duration":"PT25M33S","thumbnail":"https://i.ytimg.com/vi/9mznw-aeQkw/mqdefault.jpg","viewCount":"285","playlistId":"PLEkQk5xrP-tnmTYsyW6xNdyfhPq0Bhrhj","playlistName":"مقرأة الفجر - القُرْآنُ الكَرِيمُ - خَتْمَةُ التَّدَبُّرِ  أ.د. يسري جبر","category":"متنوع"},{"id":"7HLRwtHfvvc","title":"مقرأة سورة الزخرف من آية ١٥","publishedAt":"2018-12-13T18:42:44Z","duration":"PT30M8S","thumbnail":"https://i.ytimg.com/vi/7HLRwtHfvvc/mqdefault.jpg","viewCount":"393","playlistId":"PLEkQk5xrP-tnmTYsyW6xNdyfhPq0Bhrhj","playlistName":"مقرأة الفجر - القُرْآنُ الكَرِيمُ - خَتْمَةُ التَّدَبُّرِ  أ.د. يسري جبر","category":"متنوع"},{"id":"4eGboMvrqIc","title":"مقرأة سورة الزخرف من آية ٦","publishedAt":"2018-12-11T09:36:23Z","duration":"PT20M28S","thumbnail":"https://i.ytimg.com/vi/4eGboMvrqIc/mqdefault.jpg","viewCount":"365","playlistId":"PLEkQk5xrP-tnmTYsyW6xNdyfhPq0Bhrhj","playlistName":"مقرأة الفجر - القُرْآنُ الكَرِيمُ - خَتْمَةُ التَّدَبُّرِ  أ.د. يسري جبر","category":"متنوع"},{"id":"wRX_QHUQIGs","title":"مقرأة سورة الزخرف من أولها","publishedAt":"2018-12-10T13:15:12Z","duration":"PT31M37S","thumbnail":"https://i.ytimg.com/vi/wRX_QHUQIGs/mqdefault.jpg","viewCount":"357","playlistId":"PLEkQk5xrP-tnmTYsyW6xNdyfhPq0Bhrhj","playlistName":"مقرأة الفجر - القُرْآنُ الكَرِيمُ - خَتْمَةُ التَّدَبُّرِ  أ.د. يسري جبر","category":"متنوع"},{"id":"UpdDA1UDI1Q","title":"مقرأة سورة الشورى من آية ٤٩","publishedAt":"2018-12-09T11:51:07Z","duration":"PT18M42S","thumbnail":"https://i.ytimg.com/vi/UpdDA1UDI1Q/mqdefault.jpg","viewCount":"331","playlistId":"PLEkQk5xrP-tnmTYsyW6xNdyfhPq0Bhrhj","playlistName":"مقرأة الفجر - القُرْآنُ الكَرِيمُ - خَتْمَةُ التَّدَبُّرِ  أ.د. يسري جبر","category":"متنوع"},{"id":"jUj0EXLPezE","title":"مقرأة سورة الشورى من آية ٤٤","publishedAt":"2018-12-08T12:44:26Z","duration":"PT19M9S","thumbnail":"https://i.ytimg.com/vi/jUj0EXLPezE/mqdefault.jpg","viewCount":"310","playlistId":"PLEkQk5xrP-tnmTYsyW6xNdyfhPq0Bhrhj","playlistName":"مقرأة الفجر - القُرْآنُ الكَرِيمُ - خَتْمَةُ التَّدَبُّرِ  أ.د. يسري جبر","category":"متنوع"},{"id":"tVyDwEEFC-0","title":"مقرأة سورة الشورى من آية ٣٩","publishedAt":"2018-12-06T11:12:16Z","duration":"PT16M51S","thumbnail":"https://i.ytimg.com/vi/tVyDwEEFC-0/mqdefault.jpg","viewCount":"315","playlistId":"PLEkQk5xrP-tnmTYsyW6xNdyfhPq0Bhrhj","playlistName":"مقرأة الفجر - القُرْآنُ الكَرِيمُ - خَتْمَةُ التَّدَبُّرِ  أ.د. يسري جبر","category":"متنوع"},{"id":"aUszkX_EqCU","title":"مقرأة سورة الشورى من آية ٣٦","publishedAt":"2018-12-05T11:43:24Z","duration":"PT28M8S","thumbnail":"https://i.ytimg.com/vi/aUszkX_EqCU/mqdefault.jpg","viewCount":"274","playlistId":"PLEkQk5xrP-tnmTYsyW6xNdyfhPq0Bhrhj","playlistName":"مقرأة الفجر - القُرْآنُ الكَرِيمُ - خَتْمَةُ التَّدَبُّرِ  أ.د. يسري جبر","category":"متنوع"},{"id":"3hWHPkHzuHY","title":"113- تعظيم حرمات المسلمين وبيان حقوقهم والشفقة عليهم ورحمتهم -  شرح دليل الفالحين","publishedAt":"2021-08-15T06:08:49Z","duration":"PT51M41S","thumbnail":"https://i.ytimg.com/vi/3hWHPkHzuHY/mqdefault.jpg","viewCount":"1164","playlistId":"PLEkQk5xrP-tkc9DXvSLguqX5-FYp6ASR4","playlistName":"دليل الفالحين لطرق رياض الصالحين","category":"متنوع"},{"id":"is4X2R6VqJU","title":"112- \"أتَدْرُون مَن المُفْلِسُ؟ قالوا: المُفْلِسُ فِينا مَن لا دِرْهمَ له …” شرح دليل الفالحين","publishedAt":"2021-08-13T20:28:19Z","duration":"PT42M2S","thumbnail":"https://i.ytimg.com/vi/is4X2R6VqJU/mqdefault.jpg","viewCount":"1298","playlistId":"PLEkQk5xrP-tkc9DXvSLguqX5-FYp6ASR4","playlistName":"دليل الفالحين لطرق رياض الصالحين","category":"متنوع"},{"id":"iEJWoGoUe2I","title":"111- “مَن اسْتَعْمَلْنَاهُ منكُمْ علَى عَمَل، فَكَتَمَنَا مِخْيَطاً فَمَا فوقهُ…”- شرح دليل الفالحين","publishedAt":"2021-08-12T19:51:23Z","duration":"PT46M40S","thumbnail":"https://i.ytimg.com/vi/iEJWoGoUe2I/mqdefault.jpg","viewCount":"1695","playlistId":"PLEkQk5xrP-tkc9DXvSLguqX5-FYp6ASR4","playlistName":"دليل الفالحين لطرق رياض الصالحين","category":"متنوع"}],"total":4126,"page":167,"pageSize":24,"totalPages":172}