{"items":[{"id":"QrzOrbGSNf0","title":"كيف تكثر من ذكر الله مع كثرة مشاغل الحياة؟","publishedAt":"2025-11-13T20:10:30Z","duration":"PT11M14S","thumbnail":"https://i.ytimg.com/vi/QrzOrbGSNf0/mqdefault.jpg","viewCount":"4599","playlistId":"PLEkQk5xrP-tm8ZIu74nTOZN9KJUJu416J","playlistName":"مقاطع مُهمَّة (يُسريَّات) أ.د. يسري جبر","category":"متنوع"},{"id":"_nHc48neKOs","title":"ازاي تشوف النبي ﷺ في المنام؟","publishedAt":"2025-11-12T19:30:12Z","duration":"PT8M23S","thumbnail":"https://i.ytimg.com/vi/_nHc48neKOs/mqdefault.jpg","viewCount":"2855","playlistId":"PLEkQk5xrP-tm8ZIu74nTOZN9KJUJu416J","playlistName":"مقاطع مُهمَّة (يُسريَّات) أ.د. يسري جبر","category":"متنوع"},{"id":"NLdReIqGXj0","title":"ما هي أفضل صيغة للصلاة على النبي ﷺ؟","publishedAt":"2025-11-11T18:30:22Z","duration":"PT8M5S","thumbnail":"https://i.ytimg.com/vi/NLdReIqGXj0/mqdefault.jpg","viewCount":"13390","playlistId":"PLEkQk5xrP-tm8ZIu74nTOZN9KJUJu416J","playlistName":"مقاطع مُهمَّة (يُسريَّات) أ.د. يسري جبر","category":"متنوع"},{"id":"XTgah0TfI6k","title":"كيف تعرف أنك ترقيت في طريق التصوف؟","publishedAt":"2025-11-10T19:30:06Z","duration":"PT38M5S","thumbnail":"https://i.ytimg.com/vi/XTgah0TfI6k/mqdefault.jpg","viewCount":"3908","playlistId":"PLEkQk5xrP-tm8ZIu74nTOZN9KJUJu416J","playlistName":"مقاطع مُهمَّة (يُسريَّات) أ.د. يسري جبر","category":"متنوع"},{"id":"AgZucIKsTbQ","title":"شرح كامل لمعجزات وشمائل النبي ﷺ","publishedAt":"2025-11-09T20:15:00Z","duration":"PT20M57S","thumbnail":"https://i.ytimg.com/vi/AgZucIKsTbQ/mqdefault.jpg","viewCount":"2253","playlistId":"PLEkQk5xrP-tm8ZIu74nTOZN9KJUJu416J","playlistName":"مقاطع مُهمَّة (يُسريَّات) أ.د. يسري جبر","category":"متنوع"},{"id":"datzEoo9P64","title":"فضل وكنوز الصلاة على النبي ﷺ","publishedAt":"2025-11-08T17:01:05Z","duration":"PT28M54S","thumbnail":"https://i.ytimg.com/vi/datzEoo9P64/mqdefault.jpg","viewCount":"10131","playlistId":"PLEkQk5xrP-tm8ZIu74nTOZN9KJUJu416J","playlistName":"مقاطع مُهمَّة (يُسريَّات) أ.د. يسري جبر","category":"متنوع"},{"id":"SyRUO8cj_CA","title":"شرح سنن الدارمي كتاب الصلاة من باب ٢١٤","publishedAt":"2019-06-03T11:06:48Z","duration":"PT20M2S","thumbnail":"https://i.ytimg.com/vi/SyRUO8cj_CA/mqdefault.jpg","viewCount":"230","playlistId":"PLEkQk5xrP-tmAg-FuWjY057X_h5NmGmAa","playlistName":"شرح سنن الدارمي - أ.د. يسري جبر (كاملا)","category":"متنوع"},{"id":"TEwshJF1JJw","title":"مقرأة سورة القيامة من أولها","publishedAt":"2019-06-02T21:53:21Z","duration":"PT12M55S","thumbnail":"https://i.ytimg.com/vi/TEwshJF1JJw/mqdefault.jpg","viewCount":"535","playlistId":"PLEkQk5xrP-tnmTYsyW6xNdyfhPq0Bhrhj","playlistName":"مقرأة الفجر - القُرْآنُ الكَرِيمُ - خَتْمَةُ التَّدَبُّرِ  أ.د. يسري جبر","category":"متنوع"},{"id":"rbMilhRlnog","title":"حَدِيثُ (١٨٠)  هُرُوبِ الشَّيْطَانِ عِندَ النِّدَاءِ لِلصَّلَاةِ  أ.د. يسري جبر","publishedAt":"2019-06-02T13:02:47Z","duration":"PT23M54S","thumbnail":"https://i.ytimg.com/vi/rbMilhRlnog/mqdefault.jpg","viewCount":"397","playlistId":"PLEkQk5xrP-tnl7vb7KeAoPd5ZlqKKW8KV","playlistName":"شرح كتاب بهجة النفوس أ.د . يسرى جبر","category":"متنوع"},{"id":"ab0I8CcznfE","title":"حديث (١٧٩) حديثُ مَنْ أَتَى أَهْلَهُ فَلْيُسَمِّ اللَّهَ .  أ.د. يسري جبر","publishedAt":"2019-06-02T11:52:55Z","duration":"PT20M52S","thumbnail":"https://i.ytimg.com/vi/ab0I8CcznfE/mqdefault.jpg","viewCount":"276","playlistId":"PLEkQk5xrP-tnl7vb7KeAoPd5ZlqKKW8KV","playlistName":"شرح كتاب بهجة النفوس أ.د . يسرى جبر","category":"متنوع"},{"id":"BjaAD2v27zo","title":"شرح سنن الدارمي كتاب الصلاة من باب ٢٠٨","publishedAt":"2019-06-02T09:06:04Z","duration":"PT21M21S","thumbnail":"https://i.ytimg.com/vi/BjaAD2v27zo/mqdefault.jpg","viewCount":"210","playlistId":"PLEkQk5xrP-tmAg-FuWjY057X_h5NmGmAa","playlistName":"شرح سنن الدارمي - أ.د. يسري جبر (كاملا)","category":"متنوع"},{"id":"PfbFCdnlFeI","title":"حديث (١٧٨) حديثُ فَضَائِلِ رَمَضَانَ.    أ.د. يسري جبر","publishedAt":"2019-06-01T11:20:17Z","duration":"PT14M15S","thumbnail":"https://i.ytimg.com/vi/PfbFCdnlFeI/mqdefault.jpg","viewCount":"322","playlistId":"PLEkQk5xrP-tnl7vb7KeAoPd5ZlqKKW8KV","playlistName":"شرح كتاب بهجة النفوس أ.د . يسرى جبر","category":"متنوع"},{"id":"Yy_JQUmuU3A","title":"سورة الأنعام آية 38","publishedAt":"2016-12-05T06:33:39Z","duration":"PT17M28S","thumbnail":"https://i.ytimg.com/vi/Yy_JQUmuU3A/mqdefault.jpg","viewCount":"424","playlistId":"PLEkQk5xrP-tnmTYsyW6xNdyfhPq0Bhrhj","playlistName":"مقرأة الفجر - القُرْآنُ الكَرِيمُ - خَتْمَةُ التَّدَبُّرِ  أ.د. يسري جبر","category":"متنوع"},{"id":"rSkTilbDMnw","title":"مَنْ ظنَّ انفكاك لُطفه عن قَدَره ، فذلك لقصور نَظَرِه .","publishedAt":"2016-12-04T19:43:29Z","duration":"PT7M7S","thumbnail":"https://i.ytimg.com/vi/rSkTilbDMnw/mqdefault.jpg","viewCount":"2452","playlistId":"PLEkQk5xrP-tkI_meE148wc7V7XHlB0WPb","playlistName":"من الحكم العطائية  د. يسري جبر","category":"متنوع"},{"id":"9g9GyflFFUE","title":"سورة الأنعام  آية 36","publishedAt":"2016-12-04T06:13:09Z","duration":"PT11M54S","thumbnail":"https://i.ytimg.com/vi/9g9GyflFFUE/mqdefault.jpg","viewCount":"369","playlistId":"PLEkQk5xrP-tnmTYsyW6xNdyfhPq0Bhrhj","playlistName":"مقرأة الفجر - القُرْآنُ الكَرِيمُ - خَتْمَةُ التَّدَبُّرِ  أ.د. يسري جبر","category":"متنوع"},{"id":"BMyaBasu81E","title":"سورة الأنعام  آية 29","publishedAt":"2016-12-03T06:44:22Z","duration":"PT25M45S","thumbnail":"https://i.ytimg.com/vi/BMyaBasu81E/mqdefault.jpg","viewCount":"520","playlistId":"PLEkQk5xrP-tnmTYsyW6xNdyfhPq0Bhrhj","playlistName":"مقرأة الفجر - القُرْآنُ الكَرِيمُ - خَتْمَةُ التَّدَبُّرِ  أ.د. يسري جبر","category":"متنوع"},{"id":"-_y0GstqaL8","title":"35- مَا لاَ زَكَاةَ فِيهِ مِنَ الْفَوَاكِهِ وَالْقَضْبِ وَالْبُقُولِ كتاب الزكاة ك الموطأ د يسري جبر","publishedAt":"2016-12-02T12:15:06Z","duration":"PT1H6M55S","thumbnail":"https://i.ytimg.com/vi/-_y0GstqaL8/mqdefault.jpg","viewCount":"321","playlistId":"PLEkQk5xrP-tnC6BRuqMjyO-484iqXeg0o","playlistName":"شرح كتاب الموطأ للإمام مالك","category":"متنوع"},{"id":"W_ylaKKfWOg","title":"سورة الأنعام آية 25","publishedAt":"2016-12-02T08:30:01Z","duration":"PT14M58S","thumbnail":"https://i.ytimg.com/vi/W_ylaKKfWOg/mqdefault.jpg","viewCount":"456","playlistId":"PLEkQk5xrP-tnmTYsyW6xNdyfhPq0Bhrhj","playlistName":"مقرأة الفجر - القُرْآنُ الكَرِيمُ - خَتْمَةُ التَّدَبُّرِ  أ.د. يسري جبر","category":"متنوع"},{"id":"WU6Otxt5c1Y","title":"سورة الأنعام آية 20","publishedAt":"2016-12-01T07:49:41Z","duration":"PT20M8S","thumbnail":"https://i.ytimg.com/vi/WU6Otxt5c1Y/mqdefault.jpg","viewCount":"515","playlistId":"PLEkQk5xrP-tnmTYsyW6xNdyfhPq0Bhrhj","playlistName":"مقرأة الفجر - القُرْآنُ الكَرِيمُ - خَتْمَةُ التَّدَبُّرِ  أ.د. يسري جبر","category":"متنوع"},{"id":"zK2MY5jT7PQ","title":"ليُخفف ألم البلاء عنك عِلْمُك بأنه سبحانه وتعالى هو المُبْلِي لك","publishedAt":"2016-11-30T17:41:13Z","duration":"PT1M38S","thumbnail":"https://i.ytimg.com/vi/zK2MY5jT7PQ/mqdefault.jpg","viewCount":"1844","playlistId":"PLEkQk5xrP-tkI_meE148wc7V7XHlB0WPb","playlistName":"من الحكم العطائية  د. يسري جبر","category":"متنوع"},{"id":"0kAvg0NJE5U","title":"سورة الأنعام  آية 13","publishedAt":"2016-11-30T03:18:15Z","duration":"PT16M46S","thumbnail":"https://i.ytimg.com/vi/0kAvg0NJE5U/mqdefault.jpg","viewCount":"553","playlistId":"PLEkQk5xrP-tnmTYsyW6xNdyfhPq0Bhrhj","playlistName":"مقرأة الفجر - القُرْآنُ الكَرِيمُ - خَتْمَةُ التَّدَبُّرِ  أ.د. يسري جبر","category":"متنوع"},{"id":"LF0Tv6Z561k","title":"34- أَخْذِ الصَّدَقَاتِ وَالتَّشْدِيدِ فِيهَا كتاب الزكاة ك الموطأ د يسري جبر الأزهري","publishedAt":"2016-11-29T13:56:03Z","duration":"PT1H17M22S","thumbnail":"https://i.ytimg.com/vi/LF0Tv6Z561k/mqdefault.jpg","viewCount":"328","playlistId":"PLEkQk5xrP-tnC6BRuqMjyO-484iqXeg0o","playlistName":"شرح كتاب الموطأ للإمام مالك","category":"متنوع"},{"id":"nAB6o_8mwCw","title":"سورة الأنعام آية 6","publishedAt":"2016-11-29T07:06:15Z","duration":"PT13M23S","thumbnail":"https://i.ytimg.com/vi/nAB6o_8mwCw/mqdefault.jpg","viewCount":"391","playlistId":"PLEkQk5xrP-tnmTYsyW6xNdyfhPq0Bhrhj","playlistName":"مقرأة الفجر - القُرْآنُ الكَرِيمُ - خَتْمَةُ التَّدَبُّرِ  أ.د. يسري جبر","category":"متنوع"},{"id":"zzpk2wiMbWY","title":"سورة الأنعام من أولها","publishedAt":"2016-11-28T11:27:35Z","duration":"PT19M53S","thumbnail":"https://i.ytimg.com/vi/zzpk2wiMbWY/mqdefault.jpg","viewCount":"831","playlistId":"PLEkQk5xrP-tnmTYsyW6xNdyfhPq0Bhrhj","playlistName":"مقرأة الفجر - القُرْآنُ الكَرِيمُ - خَتْمَةُ التَّدَبُّرِ  أ.د. يسري جبر","category":"متنوع"}],"total":4126,"page":127,"pageSize":24,"totalPages":172}