{"items":[{"id":"1-lck3JcIEg","title":"الزهاد إذا مدحواانقبضوا،لشهودهم الثناء من الخلق والعارفون إذا مدحواانبسطوالشهودهم ذلك من الملِك الحق","publishedAt":"2017-03-09T21:18:54Z","duration":"PT10M32S","thumbnail":"https://i.ytimg.com/vi/1-lck3JcIEg/mqdefault.jpg","viewCount":"872","playlistId":"PLEkQk5xrP-tkI_meE148wc7V7XHlB0WPb","playlistName":"من الحكم العطائية  د. يسري جبر","category":"متنوع"},{"id":"E8D0pN_HPmg","title":"مقرأة سورة الأعراف من آية ١٨٠","publishedAt":"2017-03-09T08:07:10Z","duration":"PT21M50S","thumbnail":"https://i.ytimg.com/vi/E8D0pN_HPmg/mqdefault.jpg","viewCount":"347","playlistId":"PLEkQk5xrP-tnmTYsyW6xNdyfhPq0Bhrhj","playlistName":"مقرأة الفجر - القُرْآنُ الكَرِيمُ - خَتْمَةُ التَّدَبُّرِ  أ.د. يسري جبر","category":"متنوع"},{"id":"6CSqqijtFk0","title":"45- أَمْرِ الصَّيْدِ فِى الْحَرَمِ كتاب الحج د يسري جبر الأزهري د يسري جبر الأزهري","publishedAt":"2017-03-08T22:37:38Z","duration":"PT1H2M37S","thumbnail":"https://i.ytimg.com/vi/6CSqqijtFk0/mqdefault.jpg","viewCount":"283","playlistId":"PLEkQk5xrP-tnC6BRuqMjyO-484iqXeg0o","playlistName":"شرح كتاب الموطأ للإمام مالك","category":"متنوع"},{"id":"1C7lHWXYR2Q","title":"أجهل الناس مَنْ ترك يقين ما عنده لظن ما عند الناس","publishedAt":"2017-03-08T19:14:24Z","duration":"PT6M34S","thumbnail":"https://i.ytimg.com/vi/1C7lHWXYR2Q/mqdefault.jpg","viewCount":"1585","playlistId":"PLEkQk5xrP-tkI_meE148wc7V7XHlB0WPb","playlistName":"من الحكم العطائية  د. يسري جبر","category":"متنوع"},{"id":"yMt1QIZym8A","title":"سورة الأعراف آية 175","publishedAt":"2017-03-08T08:38:44Z","duration":"PT16M25S","thumbnail":"https://i.ytimg.com/vi/yMt1QIZym8A/mqdefault.jpg","viewCount":"352","playlistId":"PLEkQk5xrP-tnmTYsyW6xNdyfhPq0Bhrhj","playlistName":"مقرأة الفجر - القُرْآنُ الكَرِيمُ - خَتْمَةُ التَّدَبُّرِ  أ.د. يسري جبر","category":"متنوع"},{"id":"NroXBc11i6c","title":"سورة الأعراف آية 187","publishedAt":"2017-03-07T17:22:25Z","duration":"PT10M29S","thumbnail":"https://i.ytimg.com/vi/NroXBc11i6c/mqdefault.jpg","viewCount":"375","playlistId":"PLEkQk5xrP-tnmTYsyW6xNdyfhPq0Bhrhj","playlistName":"مقرأة الفجر - القُرْآنُ الكَرِيمُ - خَتْمَةُ التَّدَبُّرِ  أ.د. يسري جبر","category":"متنوع"},{"id":"Eg8LwuWOnP4","title":"سورة الأعراف آية 172","publishedAt":"2017-03-07T15:15:59Z","duration":"PT12M40S","thumbnail":"https://i.ytimg.com/vi/Eg8LwuWOnP4/mqdefault.jpg","viewCount":"355","playlistId":"PLEkQk5xrP-tnmTYsyW6xNdyfhPq0Bhrhj","playlistName":"مقرأة الفجر - القُرْآنُ الكَرِيمُ - خَتْمَةُ التَّدَبُّرِ  أ.د. يسري جبر","category":"متنوع"},{"id":"bKsropBz78k","title":"سورة الأعراف آية 167","publishedAt":"2017-03-06T07:13:43Z","duration":"PT27M58S","thumbnail":"https://i.ytimg.com/vi/bKsropBz78k/mqdefault.jpg","viewCount":"444","playlistId":"PLEkQk5xrP-tnmTYsyW6xNdyfhPq0Bhrhj","playlistName":"مقرأة الفجر - القُرْآنُ الكَرِيمُ - خَتْمَةُ التَّدَبُّرِ  أ.د. يسري جبر","category":"متنوع"},{"id":"lPFaqCAH4dc","title":"سورة الأعراف آية 163","publishedAt":"2017-03-05T03:44:55Z","duration":"PT16M46S","thumbnail":"https://i.ytimg.com/vi/lPFaqCAH4dc/mqdefault.jpg","viewCount":"395","playlistId":"PLEkQk5xrP-tnmTYsyW6xNdyfhPq0Bhrhj","playlistName":"مقرأة الفجر - القُرْآنُ الكَرِيمُ - خَتْمَةُ التَّدَبُّرِ  أ.د. يسري جبر","category":"متنوع"},{"id":"X23xO2VwvfI","title":"الناسُ يْمدحونك لِمَا يظُنُّون فيك فكُنْ أنت ذامَّا لنفسِك لِمَا تعلمُه منها","publishedAt":"2017-03-04T19:05:56Z","duration":"PT7M13S","thumbnail":"https://i.ytimg.com/vi/X23xO2VwvfI/mqdefault.jpg","viewCount":"796","playlistId":"PLEkQk5xrP-tkI_meE148wc7V7XHlB0WPb","playlistName":"من الحكم العطائية  د. يسري جبر","category":"متنوع"},{"id":"YxNoaSmKKds","title":"سورة الأعراف آية 159","publishedAt":"2017-03-04T11:13:24Z","duration":"PT28M42S","thumbnail":"https://i.ytimg.com/vi/YxNoaSmKKds/mqdefault.jpg","viewCount":"388","playlistId":"PLEkQk5xrP-tnmTYsyW6xNdyfhPq0Bhrhj","playlistName":"مقرأة الفجر - القُرْآنُ الكَرِيمُ - خَتْمَةُ التَّدَبُّرِ  أ.د. يسري جبر","category":"متنوع"},{"id":"diKF5bR-HwI","title":"44- مَا لاَ يَجِبُ فِيهِ التَّمَتُّعُ كتاب الحج ك الموطأ د يسري جبر الأزهري","publishedAt":"2017-03-02T16:44:05Z","duration":"PT1H11M41S","thumbnail":"https://i.ytimg.com/vi/diKF5bR-HwI/mqdefault.jpg","viewCount":"341","playlistId":"PLEkQk5xrP-tnC6BRuqMjyO-484iqXeg0o","playlistName":"شرح كتاب الموطأ للإمام مالك","category":"متنوع"},{"id":"vEKmvdwvycU","title":"سورة الأعراف آية 156","publishedAt":"2017-03-02T10:19:58Z","duration":"PT19M58S","thumbnail":"https://i.ytimg.com/vi/vEKmvdwvycU/mqdefault.jpg","viewCount":"393","playlistId":"PLEkQk5xrP-tnmTYsyW6xNdyfhPq0Bhrhj","playlistName":"مقرأة الفجر - القُرْآنُ الكَرِيمُ - خَتْمَةُ التَّدَبُّرِ  أ.د. يسري جبر","category":"متنوع"},{"id":"dJVstHxgVc4","title":"سورة الأعراف آية 150","publishedAt":"2017-03-01T13:43:51Z","duration":"PT20M28S","thumbnail":"https://i.ytimg.com/vi/dJVstHxgVc4/mqdefault.jpg","viewCount":"394","playlistId":"PLEkQk5xrP-tnmTYsyW6xNdyfhPq0Bhrhj","playlistName":"مقرأة الفجر - القُرْآنُ الكَرِيمُ - خَتْمَةُ التَّدَبُّرِ  أ.د. يسري جبر","category":"متنوع"},{"id":"_aKGlsGHx98","title":"مقرأة سورة الأعراف من آية ١٤٥","publishedAt":"2017-02-28T09:46:12Z","duration":"PT18M4S","thumbnail":"https://i.ytimg.com/vi/_aKGlsGHx98/mqdefault.jpg","viewCount":"375","playlistId":"PLEkQk5xrP-tnmTYsyW6xNdyfhPq0Bhrhj","playlistName":"مقرأة الفجر - القُرْآنُ الكَرِيمُ - خَتْمَةُ التَّدَبُّرِ  أ.د. يسري جبر","category":"متنوع"},{"id":"_pK7XUdaN5w","title":"سورة الأعراف آية 142","publishedAt":"2017-02-27T08:30:54Z","duration":"PT20M16S","thumbnail":"https://i.ytimg.com/vi/_pK7XUdaN5w/mqdefault.jpg","viewCount":"388","playlistId":"PLEkQk5xrP-tnmTYsyW6xNdyfhPq0Bhrhj","playlistName":"مقرأة الفجر - القُرْآنُ الكَرِيمُ - خَتْمَةُ التَّدَبُّرِ  أ.د. يسري جبر","category":"متنوع"},{"id":"gl2gmUPnlsg","title":"أباح لك أن تنظر ما في المُكَوَّنات ، وما أذِن لك أن تقف مع ذوات المُكَوَّنات","publishedAt":"2017-02-25T20:51:05Z","duration":"PT17M20S","thumbnail":"https://i.ytimg.com/vi/gl2gmUPnlsg/mqdefault.jpg","viewCount":"1033","playlistId":"PLEkQk5xrP-tkI_meE148wc7V7XHlB0WPb","playlistName":"من الحكم العطائية  د. يسري جبر","category":"متنوع"},{"id":"rlmCTr1pY-M","title":"فِقْهُ العُمْرَةِ  أ.د. يسري جبر","publishedAt":"2020-03-01T19:49:30Z","duration":"PT1H16M51S","thumbnail":"https://i.ytimg.com/vi/rlmCTr1pY-M/mqdefault.jpg","viewCount":"6876","playlistId":"PLEkQk5xrP-tm8ZIu74nTOZN9KJUJu416J","playlistName":"مقاطع مُهمَّة (يُسريَّات) أ.د. يسري جبر","category":"متنوع"},{"id":"RavtZfXYwqI","title":"حول الكَمَالَاتِ المُحَمَّدِيَّة. أ.د.يسري جبر","publishedAt":"2020-02-27T13:33:55Z","duration":"PT30M28S","thumbnail":"https://i.ytimg.com/vi/RavtZfXYwqI/mqdefault.jpg","viewCount":"1918","playlistId":"PLEkQk5xrP-tm8ZIu74nTOZN9KJUJu416J","playlistName":"مقاطع مُهمَّة (يُسريَّات) أ.د. يسري جبر","category":"متنوع"},{"id":"qlfT-yHT8jw","title":"‎شرح كتاب دلائل الخيرات - المجلس الحادي والعشرون. أ.د. يسري جبر","publishedAt":"2020-02-24T12:47:58Z","duration":"PT15M53S","thumbnail":"https://i.ytimg.com/vi/qlfT-yHT8jw/mqdefault.jpg","viewCount":"6343","playlistId":"PLEkQk5xrP-tlAzcbIpuqjdFICW-knvTlR","playlistName":"شرح كتاب دلائل الخيرات وشوارق الأنوار","category":"متنوع"},{"id":"_taODXwsWtM","title":"سورة الأعراف آية 132","publishedAt":"2017-02-25T15:00:16Z","duration":"PT23M31S","thumbnail":"https://i.ytimg.com/vi/_taODXwsWtM/mqdefault.jpg","viewCount":"448","playlistId":"PLEkQk5xrP-tnmTYsyW6xNdyfhPq0Bhrhj","playlistName":"مقرأة الفجر - القُرْآنُ الكَرِيمُ - خَتْمَةُ التَّدَبُّرِ  أ.د. يسري جبر","category":"متنوع"},{"id":"l1pcWX4DUkk","title":"43- إِهْلاَلِ أَهْلِ مَكَّةَ وَمَنْ بِهَا مِنْ غَيْرِهِمْ  كتاب الحج ك الموطأ د يسري جبر الأزهري","publishedAt":"2017-02-24T23:54:13Z","duration":"PT59M30S","thumbnail":"https://i.ytimg.com/vi/l1pcWX4DUkk/mqdefault.jpg","viewCount":"322","playlistId":"PLEkQk5xrP-tnC6BRuqMjyO-484iqXeg0o","playlistName":"شرح كتاب الموطأ للإمام مالك","category":"متنوع"},{"id":"JZ4mSh35dbc","title":"سورة الأعراف آية 127","publishedAt":"2017-02-24T15:10:31Z","duration":"PT13M34S","thumbnail":"https://i.ytimg.com/vi/JZ4mSh35dbc/mqdefault.jpg","viewCount":"456","playlistId":"PLEkQk5xrP-tnmTYsyW6xNdyfhPq0Bhrhj","playlistName":"مقرأة الفجر - القُرْآنُ الكَرِيمُ - خَتْمَةُ التَّدَبُّرِ  أ.د. يسري جبر","category":"متنوع"},{"id":"pHH_SzLC5HI","title":"سورة الأعراف آية 113","publishedAt":"2017-02-23T20:22:43Z","duration":"PT30M22S","thumbnail":"https://i.ytimg.com/vi/pHH_SzLC5HI/mqdefault.jpg","viewCount":"357","playlistId":"PLEkQk5xrP-tnmTYsyW6xNdyfhPq0Bhrhj","playlistName":"مقرأة الفجر - القُرْآنُ الكَرِيمُ - خَتْمَةُ التَّدَبُّرِ  أ.د. يسري جبر","category":"متنوع"}],"total":4126,"page":60,"pageSize":24,"totalPages":172}