{"items":[{"id":"vX4QPFODldw","title":"ÙƒÙŠÙ ØªØ­Ù…ÙŠ Ù†ÙØ³Ùƒ Ù…Ù† Ø§Ù„Ø£ÙÙƒØ§Ø± Ø§Ù„ÙˆÙ‡Ø§Ø¨ÙŠØ©ØŸ","publishedAt":"2021-02-04T19:30:03Z","duration":"PT12M56S","thumbnail":"https://i.ytimg.com/vi/vX4QPFODldw/mqdefault.jpg","viewCount":"67436","playlistId":"PLEkQk5xrP-tm8ZIu74nTOZN9KJUJu416J","playlistName":"Ù…Ù‚Ø§Ø·Ø¹ Ù…ÙÙ‡Ù…ÙÙ‘Ø© (ÙŠÙØ³Ø±ÙŠÙ‘ÙØ§Øª) Ø£.Ø¯. ÙŠØ³Ø±ÙŠ Ø¬Ø¨Ø±","category":"Ù…ØªÙ†ÙˆØ¹"},{"id":"Q4unoU1zTf0","title":"14- Ø§Ù„Ø­Ø¯ÙŠØ« Ø§Ù„Ø«Ø§Ù„Ø«\"Ù„Ø§ Ù‡ÙØ¬Ù’Ø±Ø©Ù Ø¨Ø¹Ø¯ Ø§Ù„ÙØªÙ’Ø­ ÙˆÙ„ÙƒÙ†Ù’ Ø¬Ù‡Ø§Ø¯ÙŒ ÙˆÙ†ÙŠÙ‘ÙØ©\"Ø´Ø±Ø­ ÙƒØªØ§Ø¨ Ø¯Ù„ÙŠÙ„ Ø§Ù„ÙØ§Ù„Ø­ÙŠÙ† Ù„Ø·Ø±Ù‚ Ø±ÙŠØ§Ø¶ Ø§Ù„ØµØ§Ù„Ø­ÙŠÙ†","publishedAt":"2021-02-04T07:10:52Z","duration":"PT27M38S","thumbnail":"https://i.ytimg.com/vi/Q4unoU1zTf0/mqdefault.jpg","viewCount":"2127","playlistId":"PLEkQk5xrP-tkc9DXvSLguqX5-FYp6ASR4","playlistName":"Ø¯Ù„ÙŠÙ„ Ø§Ù„ÙØ§Ù„Ø­ÙŠÙ† Ù„Ø·Ø±Ù‚ Ø±ÙŠØ§Ø¶ Ø§Ù„ØµØ§Ù„Ø­ÙŠÙ†","category":"Ù…ØªÙ†ÙˆØ¹"},{"id":"_nPFnPflZZE","title":"Ù…Ø§ Ù‡Ùˆ Ø£Ø³Ù„ÙˆØ¨ Ø§Ù„ØªØ±Ø¨ÙŠØ© Ø§Ù„ØµØ­ÙŠØ­Ø© Ù„Ù„Ø£Ø¨Ù†Ø§Ø¡ØŸ","publishedAt":"2021-02-03T18:56:44Z","duration":"PT13M30S","thumbnail":"https://i.ytimg.com/vi/_nPFnPflZZE/mqdefault.jpg","viewCount":"16713","playlistId":"PLEkQk5xrP-tm8ZIu74nTOZN9KJUJu416J","playlistName":"Ù…Ù‚Ø§Ø·Ø¹ Ù…ÙÙ‡Ù…ÙÙ‘Ø© (ÙŠÙØ³Ø±ÙŠÙ‘ÙØ§Øª) Ø£.Ø¯. ÙŠØ³Ø±ÙŠ Ø¬Ø¨Ø±","category":"Ù…ØªÙ†ÙˆØ¹"},{"id":"G8kp4t6C-LU","title":"13- Ø§Ù„Ø­Ø¯ÙŠØ« Ø§Ù„Ø«Ø§Ù†ÙŠ\" ÙŠØºØ²Ùˆ Ø¬ÙŠØ´ÙŒ Ø§Ù„ÙƒØ¹Ø¨Ø©...\" Ø´Ø±Ø­ ÙƒØªØ§Ø¨ Ø¯Ù„ÙŠÙ„ Ø§Ù„ÙØ§Ù„Ø­ÙŠÙ† Ù„Ø·Ø±Ù‚ Ø±ÙŠØ§Ø¶ Ø§Ù„ØµØ§Ù„Ø­ÙŠÙ†","publishedAt":"2021-02-02T07:03:47Z","duration":"PT22M6S","thumbnail":"https://i.ytimg.com/vi/G8kp4t6C-LU/mqdefault.jpg","viewCount":"4185","playlistId":"PLEkQk5xrP-tkc9DXvSLguqX5-FYp6ASR4","playlistName":"Ø¯Ù„ÙŠÙ„ Ø§Ù„ÙØ§Ù„Ø­ÙŠÙ† Ù„Ø·Ø±Ù‚ Ø±ÙŠØ§Ø¶ Ø§Ù„ØµØ§Ù„Ø­ÙŠÙ†","category":"Ù…ØªÙ†ÙˆØ¹"},{"id":"_XeShWdutNA","title":"ØªÙˆÙ’ÙÙÙŠÙØ©Ù Ø§Ù„Ø­Ù‚ÙˆÙ‚Ù ÙˆØ­Ø³Ù’Ù…Ù Ø§Ù„ØªÙ‘ÙÙÙØ±ÙÙÙ‚","publishedAt":"2020-07-13T19:29:42Z","duration":"PT6M42S","thumbnail":"https://i.ytimg.com/vi/_XeShWdutNA/mqdefault.jpg","viewCount":"1749","playlistId":"PLEkQk5xrP-tm8ZIu74nTOZN9KJUJu416J","playlistName":"Ù…Ù‚Ø§Ø·Ø¹ Ù…ÙÙ‡Ù…ÙÙ‘Ø© (ÙŠÙØ³Ø±ÙŠÙ‘ÙØ§Øª) Ø£.Ø¯. ÙŠØ³Ø±ÙŠ Ø¬Ø¨Ø±","category":"Ù…ØªÙ†ÙˆØ¹"},{"id":"6Ms3PfF8D6U","title":"ØªÙ‡Ø°ÙŠØ¨ Ø§Ù„Ø£Ø®Ù„Ø§Ù‚ Ø¨Ø§Ù„Ø¹Ù„Ù… Ø§Ù„Ø´Ø±Ø¹ÙŠ","publishedAt":"2020-07-12T20:44:33Z","duration":"PT10M28S","thumbnail":"https://i.ytimg.com/vi/6Ms3PfF8D6U/mqdefault.jpg","viewCount":"3647","playlistId":"PLEkQk5xrP-tm8ZIu74nTOZN9KJUJu416J","playlistName":"Ù…Ù‚Ø§Ø·Ø¹ Ù…ÙÙ‡Ù…ÙÙ‘Ø© (ÙŠÙØ³Ø±ÙŠÙ‘ÙØ§Øª) Ø£.Ø¯. ÙŠØ³Ø±ÙŠ Ø¬Ø¨Ø±","category":"Ù…ØªÙ†ÙˆØ¹"},{"id":"m8GVpJRyffQ","title":"Ø¥Ù†Ù‡ Ù„ÙŠØºØ§Ù† Ø¹Ù„Ù‰ Ù‚Ù„Ø¨ÙŠ","publishedAt":"2020-07-10T19:45:04Z","duration":"PT7M5S","thumbnail":"https://i.ytimg.com/vi/m8GVpJRyffQ/mqdefault.jpg","viewCount":"3908","playlistId":"PLEkQk5xrP-tm8ZIu74nTOZN9KJUJu416J","playlistName":"Ù…Ù‚Ø§Ø·Ø¹ Ù…ÙÙ‡Ù…ÙÙ‘Ø© (ÙŠÙØ³Ø±ÙŠÙ‘ÙØ§Øª) Ø£.Ø¯. ÙŠØ³Ø±ÙŠ Ø¬Ø¨Ø±","category":"Ù…ØªÙ†ÙˆØ¹"},{"id":"jbDE57q0nvw","title":"Ø­Ù‚Ù‘Ù Ø§Ù„Ø­ÙŠØ§Ø¡","publishedAt":"2020-07-09T19:52:53Z","duration":"PT5M35S","thumbnail":"https://i.ytimg.com/vi/jbDE57q0nvw/mqdefault.jpg","viewCount":"1713","playlistId":"PLEkQk5xrP-tm8ZIu74nTOZN9KJUJu416J","playlistName":"Ù…Ù‚Ø§Ø·Ø¹ Ù…ÙÙ‡Ù…ÙÙ‘Ø© (ÙŠÙØ³Ø±ÙŠÙ‘ÙØ§Øª) Ø£.Ø¯. ÙŠØ³Ø±ÙŠ Ø¬Ø¨Ø±","category":"Ù…ØªÙ†ÙˆØ¹"},{"id":"w9lZBWRdT_A","title":"Ø£Ù†ÙˆØ§Ø¹ Ø§Ù„Ø­ÙŠØ§Ø¡","publishedAt":"2020-07-08T19:44:08Z","duration":"PT10M40S","thumbnail":"https://i.ytimg.com/vi/w9lZBWRdT_A/mqdefault.jpg","viewCount":"3112","playlistId":"PLEkQk5xrP-tm8ZIu74nTOZN9KJUJu416J","playlistName":"Ù…Ù‚Ø§Ø·Ø¹ Ù…ÙÙ‡Ù…ÙÙ‘Ø© (ÙŠÙØ³Ø±ÙŠÙ‘ÙØ§Øª) Ø£.Ø¯. ÙŠØ³Ø±ÙŠ Ø¬Ø¨Ø±","category":"Ù…ØªÙ†ÙˆØ¹"},{"id":"SlDtV8z9uZ4","title":"Ù…ÙÙ† ÙˆØ¬ÙØ¯ Ø§Ù„Ù„Ù‡Ù ÙˆØ¬ÙØ¯ ÙƒÙ„Ù‘Ù Ø´ÙŠØ¡","publishedAt":"2020-07-07T19:49:26Z","duration":"PT13M28S","thumbnail":"https://i.ytimg.com/vi/SlDtV8z9uZ4/mqdefault.jpg","viewCount":"12632","playlistId":"PLEkQk5xrP-tm8ZIu74nTOZN9KJUJu416J","playlistName":"Ù…Ù‚Ø§Ø·Ø¹ Ù…ÙÙ‡Ù…ÙÙ‘Ø© (ÙŠÙØ³Ø±ÙŠÙ‘ÙØ§Øª) Ø£.Ø¯. ÙŠØ³Ø±ÙŠ Ø¬Ø¨Ø±","category":"Ù…ØªÙ†ÙˆØ¹"},{"id":"dKRiVsW29AU","title":"337- ÙØ¶Ù„Ù Ø§Ù„ØµÙ‘ÙÙ„ÙÙˆÙØ§Øª - Ø´Ø±Ø­ Ø¯Ù„ÙŠÙ„ Ø§Ù„ÙØ§Ù„Ø­ÙŠÙ†","publishedAt":"2022-11-18T09:00:23Z","duration":"PT26M7S","thumbnail":"https://i.ytimg.com/vi/dKRiVsW29AU/mqdefault.jpg","viewCount":"760","playlistId":"PLEkQk5xrP-tkc9DXvSLguqX5-FYp6ASR4","playlistName":"Ø¯Ù„ÙŠÙ„ Ø§Ù„ÙØ§Ù„Ø­ÙŠÙ† Ù„Ø·Ø±Ù‚ Ø±ÙŠØ§Ø¶ Ø§Ù„ØµØ§Ù„Ø­ÙŠÙ†","category":"Ù…ØªÙ†ÙˆØ¹"},{"id":"drF67sIkXZM","title":"ÙƒÙŠÙ ØªØ±ÙˆØ¶ Ù†ÙØ³ÙƒØŸ","publishedAt":"2022-11-17T18:00:16Z","duration":"PT9M6S","thumbnail":"https://i.ytimg.com/vi/drF67sIkXZM/mqdefault.jpg","viewCount":"14911","playlistId":"PLEkQk5xrP-tm8ZIu74nTOZN9KJUJu416J","playlistName":"Ù…Ù‚Ø§Ø·Ø¹ Ù…ÙÙ‡Ù…ÙÙ‘Ø© (ÙŠÙØ³Ø±ÙŠÙ‘ÙØ§Øª) Ø£.Ø¯. ÙŠØ³Ø±ÙŠ Ø¬Ø¨Ø±","category":"Ù…ØªÙ†ÙˆØ¹"},{"id":"dJmcI68Nz-0","title":"336- \"â€¦ÙÙÙ…ÙÙ†Ù’ Ø³ÙØ£ÙÙ„Ù Ù„ÙÙŠÙ Ø§Ù„ÙˆÙØ³ÙÙŠÙ„ÙØ©Ù Ø­ÙÙ„Ù‘ÙØªÙ’ Ù„ÙÙ‡Ù Ø§Ù„Ø´Ù‘ÙÙÙØ§Ø¹ÙØ©\" - Ø´Ø±Ø­ Ø¯Ù„ÙŠÙ„ Ø§Ù„ÙØ§Ù„Ø­ÙŠÙ†","publishedAt":"2022-11-17T09:00:17Z","duration":"PT46M32S","thumbnail":"https://i.ytimg.com/vi/dJmcI68Nz-0/mqdefault.jpg","viewCount":"812","playlistId":"PLEkQk5xrP-tkc9DXvSLguqX5-FYp6ASR4","playlistName":"Ø¯Ù„ÙŠÙ„ Ø§Ù„ÙØ§Ù„Ø­ÙŠÙ† Ù„Ø·Ø±Ù‚ Ø±ÙŠØ§Ø¶ Ø§Ù„ØµØ§Ù„Ø­ÙŠÙ†","category":"Ù…ØªÙ†ÙˆØ¹"},{"id":"-OYILWQC9RE","title":"335- ÙØ¶Ù„Ù Ø§Ù„Ø£ÙØ°ÙØ§Ù† - Ø´Ø±Ø­ Ø¯Ù„ÙŠÙ„ Ø§Ù„ÙØ§Ù„Ø­ÙŠÙ†","publishedAt":"2022-11-16T09:00:00Z","duration":"PT37M6S","thumbnail":"https://i.ytimg.com/vi/-OYILWQC9RE/mqdefault.jpg","viewCount":"744","playlistId":"PLEkQk5xrP-tkc9DXvSLguqX5-FYp6ASR4","playlistName":"Ø¯Ù„ÙŠÙ„ Ø§Ù„ÙØ§Ù„Ø­ÙŠÙ† Ù„Ø·Ø±Ù‚ Ø±ÙŠØ§Ø¶ Ø§Ù„ØµØ§Ù„Ø­ÙŠÙ†","category":"Ù…ØªÙ†ÙˆØ¹"},{"id":"me1E-5FDq6Y","title":"ÙØ¶Ù„ Ù‚Ø±Ø§Ø¡Ø© Ø³ÙˆØ±Ø© Ø§Ù„ÙƒÙ‡Ù ÙŠÙˆÙ… Ø§Ù„Ø¬Ù…Ø¹Ø©","publishedAt":"2023-03-03T18:00:21Z","duration":"PT44M10S","thumbnail":"https://i.ytimg.com/vi/me1E-5FDq6Y/mqdefault.jpg","viewCount":"4467","playlistId":"PLEkQk5xrP-tm8ZIu74nTOZN9KJUJu416J","playlistName":"Ù…Ù‚Ø§Ø·Ø¹ Ù…ÙÙ‡Ù…ÙÙ‘Ø© (ÙŠÙØ³Ø±ÙŠÙ‘ÙØ§Øª) Ø£.Ø¯. ÙŠØ³Ø±ÙŠ Ø¬Ø¨Ø±","category":"Ù…ØªÙ†ÙˆØ¹"},{"id":"swPrt6iPmAs","title":"406- Ù…ÙØ«ÙÙ„Ù Ø§Ù„Ø°ÙŠ ÙŠÙØ°Ù’ÙƒÙØ±Ù Ø±ÙØ¨Ù‘ÙÙ‡Ù ÙˆØ§Ù„Ø°ÙŠ Ù„Ø§ ÙŠÙØ°Ù’ÙƒÙØ±Ù Ø±ÙØ¨Ù‘ÙÙ‡ÙØŒ Ù…ÙØ«ÙÙ„Ù Ø§Ù„Ø­ÙÙŠÙ‘Ù ÙˆØ§Ù„Ù…ÙÙŠÙ‘ÙØªÙ.","publishedAt":"2023-03-03T05:00:23Z","duration":"PT32M42S","thumbnail":"https://i.ytimg.com/vi/swPrt6iPmAs/mqdefault.jpg","viewCount":"1259","playlistId":"PLEkQk5xrP-tkc9DXvSLguqX5-FYp6ASR4","playlistName":"Ø¯Ù„ÙŠÙ„ Ø§Ù„ÙØ§Ù„Ø­ÙŠÙ† Ù„Ø·Ø±Ù‚ Ø±ÙŠØ§Ø¶ Ø§Ù„ØµØ§Ù„Ø­ÙŠÙ†","category":"Ù…ØªÙ†ÙˆØ¹"},{"id":"Gx2FLVypVC4","title":"Ø£Ø³Ø±Ø§Ø± ÙˆÙ…Ø¹Ø§Ù†ÙŠ Ø­ÙˆÙ„ Ø§Ù„Ø­Ù‚ÙŠÙ‚Ø© Ø§Ù„Ù…Ø­Ù…Ø¯ÙŠØ©","publishedAt":"2023-03-02T18:00:11Z","duration":"PT22M30S","thumbnail":"https://i.ytimg.com/vi/Gx2FLVypVC4/mqdefault.jpg","viewCount":"10259","playlistId":"PLEkQk5xrP-tm8ZIu74nTOZN9KJUJu416J","playlistName":"Ù…Ù‚Ø§Ø·Ø¹ Ù…ÙÙ‡Ù…ÙÙ‘Ø© (ÙŠÙØ³Ø±ÙŠÙ‘ÙØ§Øª) Ø£.Ø¯. ÙŠØ³Ø±ÙŠ Ø¬Ø¨Ø±","category":"Ù…ØªÙ†ÙˆØ¹"},{"id":"FNZoq8Dw_pE","title":"Ù‡Ù„ ÙƒØ§Ù† Ø§Ù„Ù†Ø¨ÙŠ ï·º ÙŠØªÙƒÙ„Ù… Ø¨Ø¬Ù…ÙŠØ¹ Ø§Ù„Ù„ØºØ§ØªØŸ","publishedAt":"2023-03-01T18:00:06Z","duration":"PT18M53S","thumbnail":"https://i.ytimg.com/vi/FNZoq8Dw_pE/mqdefault.jpg","viewCount":"6109","playlistId":"PLEkQk5xrP-tm8ZIu74nTOZN9KJUJu416J","playlistName":"Ù…Ù‚Ø§Ø·Ø¹ Ù…ÙÙ‡Ù…ÙÙ‘Ø© (ÙŠÙØ³Ø±ÙŠÙ‘ÙØ§Øª) Ø£.Ø¯. ÙŠØ³Ø±ÙŠ Ø¬Ø¨Ø±","category":"Ù…ØªÙ†ÙˆØ¹"},{"id":"J7nUoGwzsgk","title":"405- Ø£ÙÙ‚Ù’Ø±ÙØ¨Ù Ù…Ø§ ÙŠÙÙƒÙˆÙ†Ù Ø§Ù„Ø¹ÙØ¨Ù’Ø¯Ù Ù…ÙÙ† Ø±ÙØ¨Ù‘ÙÙ‡ÙØŒ ÙˆÙ‡Ùˆ Ø³Ø§Ø¬ÙØ¯ÙŒØŒ ÙØ£ÙƒÙ’Ø«ÙØ±ÙÙˆØ§ Ø§Ù„Ø¯Ù‘ÙØ¹Ø§Ø¡Ù - Ø´Ø±Ø­ Ø¯Ù„ÙŠÙ„ Ø§Ù„ÙØ§Ù„Ø­ÙŠÙ†","publishedAt":"2023-03-01T05:00:13Z","duration":"PT49M51S","thumbnail":"https://i.ytimg.com/vi/J7nUoGwzsgk/mqdefault.jpg","viewCount":"1772","playlistId":"PLEkQk5xrP-tkc9DXvSLguqX5-FYp6ASR4","playlistName":"Ø¯Ù„ÙŠÙ„ Ø§Ù„ÙØ§Ù„Ø­ÙŠÙ† Ù„Ø·Ø±Ù‚ Ø±ÙŠØ§Ø¶ Ø§Ù„ØµØ§Ù„Ø­ÙŠÙ†","category":"Ù…ØªÙ†ÙˆØ¹"},{"id":"ypfag30SCQM","title":"Ù…Ø§Ø°Ø§ Ø­Ø¯Ø« ÙŠÙˆÙ… ÙˆÙØ§Ø© Ø§Ù„Ù†Ø¨ÙŠ ï·ºØŸ","publishedAt":"2023-02-28T18:03:26Z","duration":"PT43M35S","thumbnail":"https://i.ytimg.com/vi/ypfag30SCQM/mqdefault.jpg","viewCount":"4218","playlistId":"PLEkQk5xrP-tm8ZIu74nTOZN9KJUJu416J","playlistName":"Ù…Ù‚Ø§Ø·Ø¹ Ù…ÙÙ‡Ù…ÙÙ‘Ø© (ÙŠÙØ³Ø±ÙŠÙ‘ÙØ§Øª) Ø£.Ø¯. ÙŠØ³Ø±ÙŠ Ø¬Ø¨Ø±","category":"Ù…ØªÙ†ÙˆØ¹"},{"id":"tf3jGZ9szeI","title":"Ø£Ø³Ø±Ø§Ø± Ø­ÙˆÙ„ Ù…Ø¹Ø¬Ø²Ø© Ø§Ù„Ø¥Ø³Ø±Ø§Ø¡ ÙˆØ§Ù„Ù…Ø¹Ø±Ø§Ø¬ |ğŸ“Ø¬Ø§ÙˆØ© Ø§Ù„ÙˆØ³Ø·Ù‰ - Ø¥Ù†Ø¯ÙˆÙ†ÙŠØ³ÙŠØ§ Ù¤","publishedAt":"2023-02-27T18:00:25Z","duration":"PT25M38S","thumbnail":"https://i.ytimg.com/vi/tf3jGZ9szeI/mqdefault.jpg","viewCount":"2607","playlistId":"PLEkQk5xrP-tm8ZIu74nTOZN9KJUJu416J","playlistName":"Ù…Ù‚Ø§Ø·Ø¹ Ù…ÙÙ‡Ù…ÙÙ‘Ø© (ÙŠÙØ³Ø±ÙŠÙ‘ÙØ§Øª) Ø£.Ø¯. ÙŠØ³Ø±ÙŠ Ø¬Ø¨Ø±","category":"Ù…ØªÙ†ÙˆØ¹"},{"id":"_RKFjfZ8XsI","title":"405- ÙØ¶Ù„ Ø§Ù„ØªØ³Ø¨ÙŠØ­ ÙˆØ§Ù„ØªØ­Ù…ÙŠØ¯ ÙˆØ§Ù„ØªÙƒØ¨ÙŠØ± Ø¨Ø¹Ø¯ ØµÙ„Ø§Ø© Ø§Ù„ÙØ±ÙŠØ¶Ø© - Ø´Ø±Ø­ Ø¯Ù„ÙŠÙ„ Ø§Ù„ÙØ§Ù„Ø­ÙŠÙ†","publishedAt":"2023-02-27T05:00:30Z","duration":"PT46M2S","thumbnail":"https://i.ytimg.com/vi/_RKFjfZ8XsI/mqdefault.jpg","viewCount":"2199","playlistId":"PLEkQk5xrP-tkc9DXvSLguqX5-FYp6ASR4","playlistName":"Ø¯Ù„ÙŠÙ„ Ø§Ù„ÙØ§Ù„Ø­ÙŠÙ† Ù„Ø·Ø±Ù‚ Ø±ÙŠØ§Ø¶ Ø§Ù„ØµØ§Ù„Ø­ÙŠÙ†","category":"Ù…ØªÙ†ÙˆØ¹"},{"id":"TueWzIJMqFg","title":"Ø´Ø±Ø­ ÙƒØ§Ù…Ù„ Ù„Ø¥Ø³Ù†Ø§Ø¯ Ø§Ù„Ø·Ø±ÙŠÙ‚Ø© Ø§Ù„ØµØ¯ÙŠÙ‚ÙŠØ© Ø§Ù„Ø´Ø§Ø°Ù„ÙŠØ© |ğŸ“ Ù…Ø¹Ù‡Ø¯ Ø§Ø¨Ùˆ Ù…Ù†ØµÙˆØ± - Ø´Ø±Ø¨ÙˆÙ† - Ø¥Ù†Ø¯ÙˆÙ†ÙŠØ³ÙŠØ§ Ù£","publishedAt":"2023-02-26T18:00:10Z","duration":"PT29M34S","thumbnail":"https://i.ytimg.com/vi/TueWzIJMqFg/mqdefault.jpg","viewCount":"3973","playlistId":"PLEkQk5xrP-tm8ZIu74nTOZN9KJUJu416J","playlistName":"Ù…Ù‚Ø§Ø·Ø¹ Ù…ÙÙ‡Ù…ÙÙ‘Ø© (ÙŠÙØ³Ø±ÙŠÙ‘ÙØ§Øª) Ø£.Ø¯. ÙŠØ³Ø±ÙŠ Ø¬Ø¨Ø±","category":"Ù…ØªÙ†ÙˆØ¹"},{"id":"HCU7lYSfVc4","title":"Ø´Ø±Ø­ Ø§Ù„Ø®Ø±ÙŠØ¯Ø© Ø§Ù„Ø¨Ù‡ÙŠØ© ÙÙŠ Ø¹Ù„Ù… Ø§Ù„ØªÙˆØ­ÙŠØ¯ | Ø¬Ø§ÙƒØ±ØªØ§ - Ø¥Ù†Ø¯ÙˆÙ†ÙŠØ³ÙŠØ§ Û²ğŸ“","publishedAt":"2023-02-25T18:00:14Z","duration":"PT1H4M18S","thumbnail":"https://i.ytimg.com/vi/HCU7lYSfVc4/mqdefault.jpg","viewCount":"2597","playlistId":"PLEkQk5xrP-tm8ZIu74nTOZN9KJUJu416J","playlistName":"Ù…Ù‚Ø§Ø·Ø¹ Ù…ÙÙ‡Ù…ÙÙ‘Ø© (ÙŠÙØ³Ø±ÙŠÙ‘ÙØ§Øª) Ø£.Ø¯. ÙŠØ³Ø±ÙŠ Ø¬Ø¨Ø±","category":"Ù…ØªÙ†ÙˆØ¹"}],"total":4126,"page":73,"pageSize":24,"totalPages":172}