{"items":[{"id":"4xjwfPT8B1U","title":"الصَّلاةُ عَلَى النَّبِيِّ ﷺ ذِكْرٌ.  أ.د. يسري جبر","publishedAt":"2019-11-11T11:57:40Z","duration":"PT1M56S","thumbnail":"https://i.ytimg.com/vi/4xjwfPT8B1U/mqdefault.jpg","viewCount":"11947","playlistId":"PLEkQk5xrP-tm8ZIu74nTOZN9KJUJu416J","playlistName":"مقاطع مُهمَّة (يُسريَّات) أ.د. يسري جبر","category":"متنوع"},{"id":"4a2wxwowhDg","title":"شرح سنن الدارمي كتاب الوصايا من باب ٣٨","publishedAt":"2019-11-11T09:45:04Z","duration":"PT35M33S","thumbnail":"https://i.ytimg.com/vi/4a2wxwowhDg/mqdefault.jpg","viewCount":"264","playlistId":"PLEkQk5xrP-tmAg-FuWjY057X_h5NmGmAa","playlistName":"شرح سنن الدارمي - أ.د. يسري جبر (كاملا)","category":"متنوع"},{"id":"dEnzTJIuS5Q","title":"برحمتك نستغيث","publishedAt":"2019-11-10T10:48:52Z","duration":"PT2M19S","thumbnail":"https://i.ytimg.com/vi/dEnzTJIuS5Q/mqdefault.jpg","viewCount":"2717","playlistId":"PLEkQk5xrP-tm8ZIu74nTOZN9KJUJu416J","playlistName":"مقاطع مُهمَّة (يُسريَّات) أ.د. يسري جبر","category":"متنوع"},{"id":"U9H6xo_O9r4","title":"شرح سنن الدارمي كتاب الوصايا من باب ٢٨","publishedAt":"2019-11-07T12:27:52Z","duration":"PT41M36S","thumbnail":"https://i.ytimg.com/vi/U9H6xo_O9r4/mqdefault.jpg","viewCount":"289","playlistId":"PLEkQk5xrP-tmAg-FuWjY057X_h5NmGmAa","playlistName":"شرح سنن الدارمي - أ.د. يسري جبر (كاملا)","category":"متنوع"},{"id":"7SaTTt3j7xE","title":"النجاةُ من الفتنِ هِي حبُّ النَّبِيِّ صلَّى اللهُ عليه وآله وسلَّم أ.د. يسري جبر","publishedAt":"2019-11-06T19:51:17Z","duration":"PT3M7S","thumbnail":"https://i.ytimg.com/vi/7SaTTt3j7xE/mqdefault.jpg","viewCount":"7015","playlistId":"PLEkQk5xrP-tm8ZIu74nTOZN9KJUJu416J","playlistName":"مقاطع مُهمَّة (يُسريَّات) أ.د. يسري جبر","category":"متنوع"},{"id":"oEW-hcjOOAs","title":"شرح سنن الدارمي كتاب الوصايا من باب ١٥","publishedAt":"2019-11-05T07:27:11Z","duration":"PT35M29S","thumbnail":"https://i.ytimg.com/vi/oEW-hcjOOAs/mqdefault.jpg","viewCount":"260","playlistId":"PLEkQk5xrP-tmAg-FuWjY057X_h5NmGmAa","playlistName":"شرح سنن الدارمي - أ.د. يسري جبر (كاملا)","category":"متنوع"},{"id":"0qg9itl3xTs","title":"سورة النساء آية 32","publishedAt":"2016-08-20T06:28:12Z","duration":"PT24M6S","thumbnail":"https://i.ytimg.com/vi/0qg9itl3xTs/mqdefault.jpg","viewCount":"580","playlistId":"PLEkQk5xrP-tnmTYsyW6xNdyfhPq0Bhrhj","playlistName":"مقرأة الفجر - القُرْآنُ الكَرِيمُ - خَتْمَةُ التَّدَبُّرِ  أ.د. يسري جبر","category":"متنوع"},{"id":"LlxH1Z-qUzE","title":"سورة النساء آية 29","publishedAt":"2016-08-19T15:29:07Z","duration":"PT18M40S","thumbnail":"https://i.ytimg.com/vi/LlxH1Z-qUzE/mqdefault.jpg","viewCount":"508","playlistId":"PLEkQk5xrP-tnmTYsyW6xNdyfhPq0Bhrhj","playlistName":"مقرأة الفجر - القُرْآنُ الكَرِيمُ - خَتْمَةُ التَّدَبُّرِ  أ.د. يسري جبر","category":"متنوع"},{"id":"zfREUOXGE80","title":"سورة النساء آية 25","publishedAt":"2016-08-18T07:14:16Z","duration":"PT26M14S","thumbnail":"https://i.ytimg.com/vi/zfREUOXGE80/mqdefault.jpg","viewCount":"546","playlistId":"PLEkQk5xrP-tnmTYsyW6xNdyfhPq0Bhrhj","playlistName":"مقرأة الفجر - القُرْآنُ الكَرِيمُ - خَتْمَةُ التَّدَبُّرِ  أ.د. يسري جبر","category":"متنوع"},{"id":"A24_NLpMrk4","title":"سورة النساء آية 24","publishedAt":"2016-08-17T05:56:13Z","duration":"PT10M7S","thumbnail":"https://i.ytimg.com/vi/A24_NLpMrk4/mqdefault.jpg","viewCount":"560","playlistId":"PLEkQk5xrP-tnmTYsyW6xNdyfhPq0Bhrhj","playlistName":"مقرأة الفجر - القُرْآنُ الكَرِيمُ - خَتْمَةُ التَّدَبُّرِ  أ.د. يسري جبر","category":"متنوع"},{"id":"3ldOGvtcppw","title":"21- الْقُنُوتِ فِى الصُّبْحِ ك قصرالصلاة فى السفر ك الموطأ د يسري جبر الأزهري","publishedAt":"2016-08-16T13:09:36Z","duration":"PT44M6S","thumbnail":"https://i.ytimg.com/vi/3ldOGvtcppw/mqdefault.jpg","viewCount":"574","playlistId":"PLEkQk5xrP-tnC6BRuqMjyO-484iqXeg0o","playlistName":"شرح كتاب الموطأ للإمام مالك","category":"متنوع"},{"id":"jKf1b-gG6VY","title":"سورة النساء آية 23","publishedAt":"2016-08-16T06:25:23Z","duration":"PT13M26S","thumbnail":"https://i.ytimg.com/vi/jKf1b-gG6VY/mqdefault.jpg","viewCount":"508","playlistId":"PLEkQk5xrP-tnmTYsyW6xNdyfhPq0Bhrhj","playlistName":"مقرأة الفجر - القُرْآنُ الكَرِيمُ - خَتْمَةُ التَّدَبُّرِ  أ.د. يسري جبر","category":"متنوع"},{"id":"q1c9cQS43Bk","title":"سورة النساء آية 19","publishedAt":"2016-08-15T09:11:06Z","duration":"PT21M","thumbnail":"https://i.ytimg.com/vi/q1c9cQS43Bk/mqdefault.jpg","viewCount":"637","playlistId":"PLEkQk5xrP-tnmTYsyW6xNdyfhPq0Bhrhj","playlistName":"مقرأة الفجر - القُرْآنُ الكَرِيمُ - خَتْمَةُ التَّدَبُّرِ  أ.د. يسري جبر","category":"متنوع"},{"id":"hPKw48nzJxU","title":"سورة النساء آية 13","publishedAt":"2016-08-14T06:15:28Z","duration":"PT13M27S","thumbnail":"https://i.ytimg.com/vi/hPKw48nzJxU/mqdefault.jpg","viewCount":"553","playlistId":"PLEkQk5xrP-tnmTYsyW6xNdyfhPq0Bhrhj","playlistName":"مقرأة الفجر - القُرْآنُ الكَرِيمُ - خَتْمَةُ التَّدَبُّرِ  أ.د. يسري جبر","category":"متنوع"},{"id":"q2c2DHJNO6M","title":"سورة النساء آية 12","publishedAt":"2016-08-13T06:03:45Z","duration":"PT12M13S","thumbnail":"https://i.ytimg.com/vi/q2c2DHJNO6M/mqdefault.jpg","viewCount":"475","playlistId":"PLEkQk5xrP-tnmTYsyW6xNdyfhPq0Bhrhj","playlistName":"مقرأة الفجر - القُرْآنُ الكَرِيمُ - خَتْمَةُ التَّدَبُّرِ  أ.د. يسري جبر","category":"متنوع"},{"id":"Uie1YHnFFRY","title":"سورة النساء آية 11","publishedAt":"2016-08-12T17:47:12Z","duration":"PT14M15S","thumbnail":"https://i.ytimg.com/vi/Uie1YHnFFRY/mqdefault.jpg","viewCount":"626","playlistId":"PLEkQk5xrP-tnmTYsyW6xNdyfhPq0Bhrhj","playlistName":"مقرأة الفجر - القُرْآنُ الكَرِيمُ - خَتْمَةُ التَّدَبُّرِ  أ.د. يسري جبر","category":"متنوع"},{"id":"uOGT8w9tOp8","title":"تعريف الحب","publishedAt":"2019-11-03T17:21:33Z","duration":"PT3M49S","thumbnail":"https://i.ytimg.com/vi/uOGT8w9tOp8/mqdefault.jpg","viewCount":"3514","playlistId":"PLEkQk5xrP-tm8ZIu74nTOZN9KJUJu416J","playlistName":"مقاطع مُهمَّة (يُسريَّات) أ.د. يسري جبر","category":"متنوع"},{"id":"bNA11WCMfF0","title":"شرح سنن الدارمي كتاب الوصايا من باب ٨","publishedAt":"2019-11-03T12:44:03Z","duration":"PT34M14S","thumbnail":"https://i.ytimg.com/vi/bNA11WCMfF0/mqdefault.jpg","viewCount":"305","playlistId":"PLEkQk5xrP-tmAg-FuWjY057X_h5NmGmAa","playlistName":"شرح سنن الدارمي - أ.د. يسري جبر (كاملا)","category":"متنوع"},{"id":"XmN2DKLnkTk","title":"شرح سنن الدارمي كتاب الوصايا من أوله","publishedAt":"2019-11-02T12:11:37Z","duration":"PT24M4S","thumbnail":"https://i.ytimg.com/vi/XmN2DKLnkTk/mqdefault.jpg","viewCount":"330","playlistId":"PLEkQk5xrP-tmAg-FuWjY057X_h5NmGmAa","playlistName":"شرح سنن الدارمي - أ.د. يسري جبر (كاملا)","category":"متنوع"},{"id":"9NcFRqHV8uM","title":"شرح سنن الدارمي كتاب الفرائض من باب ٥٤","publishedAt":"2019-10-31T22:52:56Z","duration":"PT24M42S","thumbnail":"https://i.ytimg.com/vi/9NcFRqHV8uM/mqdefault.jpg","viewCount":"272","playlistId":"PLEkQk5xrP-tmAg-FuWjY057X_h5NmGmAa","playlistName":"شرح سنن الدارمي - أ.د. يسري جبر (كاملا)","category":"متنوع"},{"id":"_IMG9fYX3p4","title":"شرح سنن الدارمي كتاب الفرائض من باب ٥٠","publishedAt":"2019-10-30T22:32:15Z","duration":"PT28M","thumbnail":"https://i.ytimg.com/vi/_IMG9fYX3p4/mqdefault.jpg","viewCount":"242","playlistId":"PLEkQk5xrP-tmAg-FuWjY057X_h5NmGmAa","playlistName":"شرح سنن الدارمي - أ.د. يسري جبر (كاملا)","category":"متنوع"},{"id":"xUL19H_3bFY","title":"شرح سنن الدارمي كتاب الفرائض من باب ٤٦","publishedAt":"2019-10-29T23:15:18Z","duration":"PT30M15S","thumbnail":"https://i.ytimg.com/vi/xUL19H_3bFY/mqdefault.jpg","viewCount":"245","playlistId":"PLEkQk5xrP-tmAg-FuWjY057X_h5NmGmAa","playlistName":"شرح سنن الدارمي - أ.د. يسري جبر (كاملا)","category":"متنوع"},{"id":"9GjTZc9L-kM","title":"شرح سنن الدارمي كتاب الفرائض من باب ٤٢","publishedAt":"2019-10-28T10:58:45Z","duration":"PT31M29S","thumbnail":"https://i.ytimg.com/vi/9GjTZc9L-kM/mqdefault.jpg","viewCount":"191","playlistId":"PLEkQk5xrP-tmAg-FuWjY057X_h5NmGmAa","playlistName":"شرح سنن الدارمي - أ.د. يسري جبر (كاملا)","category":"متنوع"},{"id":"mqfpP2Qt3jw","title":"شرح كتاب دلائل الخيرات - المجلس الثامن أ.د. يسري جبر","publishedAt":"2019-10-27T21:38:40Z","duration":"PT45M34S","thumbnail":"https://i.ytimg.com/vi/mqfpP2Qt3jw/mqdefault.jpg","viewCount":"23349","playlistId":"PLEkQk5xrP-tlAzcbIpuqjdFICW-knvTlR","playlistName":"شرح كتاب دلائل الخيرات وشوارق الأنوار","category":"متنوع"}],"total":4126,"page":130,"pageSize":24,"totalPages":172}