{"items":[{"id":"rKilpuQUo0Q","title":"شتات الفكر وضياع الوقت","publishedAt":"2020-08-11T18:29:39Z","duration":"PT12M41S","thumbnail":"https://i.ytimg.com/vi/rKilpuQUo0Q/mqdefault.jpg","viewCount":"35649","playlistId":"PLEkQk5xrP-tm8ZIu74nTOZN9KJUJu416J","playlistName":"مقاطع مُهمَّة (يُسريَّات) أ.د. يسري جبر","category":"متنوع"},{"id":"4nGlNKVNUSU","title":"الزم حدودك!","publishedAt":"2020-08-10T16:24:21Z","duration":"PT6M30S","thumbnail":"https://i.ytimg.com/vi/4nGlNKVNUSU/mqdefault.jpg","viewCount":"4861","playlistId":"PLEkQk5xrP-tm8ZIu74nTOZN9KJUJu416J","playlistName":"مقاطع مُهمَّة (يُسريَّات) أ.د. يسري جبر","category":"متنوع"},{"id":"ghZcLmhMQsA","title":"وَرَعُ المُريد","publishedAt":"2020-08-08T18:17:28Z","duration":"PT7M36S","thumbnail":"https://i.ytimg.com/vi/ghZcLmhMQsA/mqdefault.jpg","viewCount":"5215","playlistId":"PLEkQk5xrP-tm8ZIu74nTOZN9KJUJu416J","playlistName":"مقاطع مُهمَّة (يُسريَّات) أ.د. يسري جبر","category":"متنوع"},{"id":"TReuUR3gAZw","title":"الورع","publishedAt":"2020-08-07T18:53:00Z","duration":"PT10M20S","thumbnail":"https://i.ytimg.com/vi/TReuUR3gAZw/mqdefault.jpg","viewCount":"2605","playlistId":"PLEkQk5xrP-tm8ZIu74nTOZN9KJUJu416J","playlistName":"مقاطع مُهمَّة (يُسريَّات) أ.د. يسري جبر","category":"متنوع"},{"id":"BA0aXMsFZlY","title":"لطائف وإشارات في الطريق إلى الله","publishedAt":"2020-08-07T10:30:11Z","duration":"PT44M22S","thumbnail":"https://i.ytimg.com/vi/BA0aXMsFZlY/mqdefault.jpg","viewCount":"13385","playlistId":"PLEkQk5xrP-tm8ZIu74nTOZN9KJUJu416J","playlistName":"مقاطع مُهمَّة (يُسريَّات) أ.د. يسري جبر","category":"متنوع"},{"id":"GSbZlLo0DLM","title":"الفرق بين الزهد والورع","publishedAt":"2020-08-06T20:05:26Z","duration":"PT4M48S","thumbnail":"https://i.ytimg.com/vi/GSbZlLo0DLM/mqdefault.jpg","viewCount":"2238","playlistId":"PLEkQk5xrP-tm8ZIu74nTOZN9KJUJu416J","playlistName":"مقاطع مُهمَّة (يُسريَّات) أ.د. يسري جبر","category":"متنوع"},{"id":"wj3G164j6iI","title":"حفظ الحُرمة","publishedAt":"2020-08-04T19:36:21Z","duration":"PT8M20S","thumbnail":"https://i.ytimg.com/vi/wj3G164j6iI/mqdefault.jpg","viewCount":"2757","playlistId":"PLEkQk5xrP-tm8ZIu74nTOZN9KJUJu416J","playlistName":"مقاطع مُهمَّة (يُسريَّات) أ.د. يسري جبر","category":"متنوع"},{"id":"5mxh723UBrA","title":"التوسل والوسيلة","publishedAt":"2020-08-03T19:41:57Z","duration":"PT5M25S","thumbnail":"https://i.ytimg.com/vi/5mxh723UBrA/mqdefault.jpg","viewCount":"3123","playlistId":"PLEkQk5xrP-tm8ZIu74nTOZN9KJUJu416J","playlistName":"مقاطع مُهمَّة (يُسريَّات) أ.د. يسري جبر","category":"متنوع"},{"id":"seEtdrhv_Zo","title":"أسباب القبول","publishedAt":"2020-08-02T19:42:10Z","duration":"PT4M45S","thumbnail":"https://i.ytimg.com/vi/seEtdrhv_Zo/mqdefault.jpg","viewCount":"6468","playlistId":"PLEkQk5xrP-tm8ZIu74nTOZN9KJUJu416J","playlistName":"مقاطع مُهمَّة (يُسريَّات) أ.د. يسري جبر","category":"متنوع"},{"id":"D4_g1jCHH4M","title":"أوانُ لِينِ القلوب","publishedAt":"2020-08-01T19:43:14Z","duration":"PT7M3S","thumbnail":"https://i.ytimg.com/vi/D4_g1jCHH4M/mqdefault.jpg","viewCount":"5110","playlistId":"PLEkQk5xrP-tm8ZIu74nTOZN9KJUJu416J","playlistName":"مقاطع مُهمَّة (يُسريَّات) أ.د. يسري جبر","category":"متنوع"},{"id":"-NfOvRhQ_tU","title":"الخشوع","publishedAt":"2020-07-30T20:09:26Z","duration":"PT6M37S","thumbnail":"https://i.ytimg.com/vi/-NfOvRhQ_tU/mqdefault.jpg","viewCount":"3980","playlistId":"PLEkQk5xrP-tm8ZIu74nTOZN9KJUJu416J","playlistName":"مقاطع مُهمَّة (يُسريَّات) أ.د. يسري جبر","category":"متنوع"},{"id":"GJ2EtPZ27wI","title":"التسامح","publishedAt":"2020-07-29T19:44:49Z","duration":"PT8M53S","thumbnail":"https://i.ytimg.com/vi/GJ2EtPZ27wI/mqdefault.jpg","viewCount":"4329","playlistId":"PLEkQk5xrP-tm8ZIu74nTOZN9KJUJu416J","playlistName":"مقاطع مُهمَّة (يُسريَّات) أ.د. يسري جبر","category":"متنوع"},{"id":"SLHKKZJ7pZI","title":"صيانة اليقين","publishedAt":"2020-07-28T20:46:26Z","duration":"PT7M55S","thumbnail":"https://i.ytimg.com/vi/SLHKKZJ7pZI/mqdefault.jpg","viewCount":"4740","playlistId":"PLEkQk5xrP-tm8ZIu74nTOZN9KJUJu416J","playlistName":"مقاطع مُهمَّة (يُسريَّات) أ.د. يسري جبر","category":"متنوع"},{"id":"QJ_bcw_HMNI","title":"139- كيف يكون نشاطك اليومي مع تغير الأحوال؟ - شرح مسند الإمام أحمد رضي الله تعالى عنه","publishedAt":"2024-11-21T06:00:22Z","duration":"PT30M6S","thumbnail":"https://i.ytimg.com/vi/QJ_bcw_HMNI/mqdefault.jpg","viewCount":"2525","playlistId":"PLEkQk5xrP-tkKprIuGrSdEuBSMsyg5We1","playlistName":"شرح مسند الإمام أحمد بن حنبل","category":"متنوع"},{"id":"ZlYNRMYY_4E","title":"كلمة أ.د.يسري جبر في ختام مجالس قراءة صحيح البخاري | ماليزيا","publishedAt":"2024-11-20T16:09:22Z","duration":"PT9M46S","thumbnail":"https://i.ytimg.com/vi/ZlYNRMYY_4E/mqdefault.jpg","viewCount":"1397","playlistId":"PLEkQk5xrP-tmJzNvLntpzW0uPanPzxA0c","playlistName":"لقاءات ومحاضرات","category":"متنوع"},{"id":"mjccf2pViFA","title":"138- كيف تدخل السرور على الأولياء والصالحين في قبورهم؟ - شرح مسند الإمام أحمد رضي الله تعالى عنه","publishedAt":"2024-11-18T06:18:02Z","duration":"PT18M41S","thumbnail":"https://i.ytimg.com/vi/mjccf2pViFA/mqdefault.jpg","viewCount":"2162","playlistId":"PLEkQk5xrP-tkKprIuGrSdEuBSMsyg5We1","playlistName":"شرح مسند الإمام أحمد بن حنبل","category":"متنوع"},{"id":"WlHhNpyDXZM","title":"سورة الأعراف آية 107","publishedAt":"2017-02-22T14:42:02Z","duration":"PT29M55S","thumbnail":"https://i.ytimg.com/vi/WlHhNpyDXZM/mqdefault.jpg","viewCount":"567","playlistId":"PLEkQk5xrP-tnmTYsyW6xNdyfhPq0Bhrhj","playlistName":"مقرأة الفجر - القُرْآنُ الكَرِيمُ - خَتْمَةُ التَّدَبُّرِ  أ.د. يسري جبر","category":"متنوع"},{"id":"WzKe6PRChQA","title":"سورة الأعراف آية 103","publishedAt":"2017-02-21T12:20:43Z","duration":"PT22M36S","thumbnail":"https://i.ytimg.com/vi/WzKe6PRChQA/mqdefault.jpg","viewCount":"439","playlistId":"PLEkQk5xrP-tnmTYsyW6xNdyfhPq0Bhrhj","playlistName":"مقرأة الفجر - القُرْآنُ الكَرِيمُ - خَتْمَةُ التَّدَبُّرِ  أ.د. يسري جبر","category":"متنوع"},{"id":"SBFLtI9034U","title":"120- كيف نحافظ على نعمتي الصحة و الفراغ - شرح مسند الإمام أحمد رضي الله تعالى عنه","publishedAt":"2024-08-12T06:48:32Z","duration":"PT37M4S","thumbnail":"https://i.ytimg.com/vi/SBFLtI9034U/mqdefault.jpg","viewCount":"1596","playlistId":"PLEkQk5xrP-tkKprIuGrSdEuBSMsyg5We1","playlistName":"شرح مسند الإمام أحمد بن حنبل","category":"متنوع"},{"id":"Ex0CFchshOw","title":"29- شرح وحدة الوجود عند الصوفية | شرح مختصر الفتوحات المكية","publishedAt":"2024-08-11T17:00:09Z","duration":"PT43M32S","thumbnail":"https://i.ytimg.com/vi/Ex0CFchshOw/mqdefault.jpg","viewCount":"7132","playlistId":"PLEkQk5xrP-tnpkdZki6rPTtMak1bnI5g-","playlistName":"شرح كتاب مختصر الفتوحات المكية المسمى لواقح الأنوار القدسية","category":"متنوع"},{"id":"GkVufY-TVyA","title":"41-  هل يجوز الصلاة والصيام والطواف في فترة الاستحاضة؟ | شرح سنن الدار قطني رضي الله عنه","publishedAt":"2024-08-10T09:00:18Z","duration":"PT48M50S","thumbnail":"https://i.ytimg.com/vi/GkVufY-TVyA/mqdefault.jpg","viewCount":"562","playlistId":"PLEkQk5xrP-tk_MCBZ706ORCw6gFtFyaGj","playlistName":"شرح سنن الإمام الدارقطني","category":"متنوع"},{"id":"M8w0WA8Ik1Q","title":"4- ادفن وجودك في أرض الخمول فما نبت مما لم يدفن لا يتم نتاجه | شرح الحكم العطائية","publishedAt":"2024-08-09T18:30:31Z","duration":"PT46M38S","thumbnail":"https://i.ytimg.com/vi/M8w0WA8Ik1Q/mqdefault.jpg","viewCount":"9384","playlistId":"PLEkQk5xrP-tmf5ToOwmW-q0JwxkapbrMN","playlistName":"شرح كتاب إرشاد البرية إلى بعض معاني الحكم العطائية","category":"متنوع"},{"id":"mrXR3YE7lDU","title":"119- سبحان الله عدد ما خلق الله، سبحان الله رضا نفسه، سبحان زنة عرشه، سبحان الله مداد كلماته.","publishedAt":"2024-08-08T06:00:30Z","duration":"PT10M56S","thumbnail":"https://i.ytimg.com/vi/mrXR3YE7lDU/mqdefault.jpg","viewCount":"1775","playlistId":"PLEkQk5xrP-tkKprIuGrSdEuBSMsyg5We1","playlistName":"شرح مسند الإمام أحمد بن حنبل","category":"متنوع"},{"id":"qh4Wq45OkQM","title":"أدلة جواز التوسل بالأنبياء والأولياء في القرآن والسنة","publishedAt":"2024-08-07T17:00:47Z","duration":"PT21M43S","thumbnail":"https://i.ytimg.com/vi/qh4Wq45OkQM/mqdefault.jpg","viewCount":"3886","playlistId":"PLEkQk5xrP-tm5wKaFaltLbztkXrGxixKu","playlistName":"شرح كتاب اتحاف الاذكياء بجواز التوسل بالأنبياء والأولياء","category":"متنوع"}],"total":4126,"page":133,"pageSize":24,"totalPages":172}