{"items":[{"id":"PfbFCdnlFeI","title":"حديث (١٧٨) حديثُ فَضَائِلِ رَمَضَانَ.    أ.د. يسري جبر","publishedAt":"2019-06-01T11:20:17Z","duration":"PT14M15S","thumbnail":"https://i.ytimg.com/vi/PfbFCdnlFeI/mqdefault.jpg","viewCount":"322","playlistId":"PLEkQk5xrP-tnl7vb7KeAoPd5ZlqKKW8KV","playlistName":"شرح كتاب بهجة النفوس أ.د . يسرى جبر","category":"متنوع"},{"id":"U9gsf5B7Shw","title":"لماذا خص الله الصيام بأجر من عنده؟ | مجالس رمضانية","publishedAt":"2025-03-22T15:00:37Z","duration":"PT24M13S","thumbnail":"https://i.ytimg.com/vi/U9gsf5B7Shw/mqdefault.jpg","viewCount":"1574","playlistId":"PLEkQk5xrP-tkeI_WVPfuoTJO46aVkpaz0","playlistName":"شرح كتاب ميزان الاعتدال لحفظ الدين والأحوال","category":"متنوع"},{"id":"B9mA5zW-OAY","title":"عالم هندي يتحدى مشايخ الوهابية! | مجالس الاعتكاف","publishedAt":"2025-03-22T10:00:10Z","duration":"PT33M28S","thumbnail":"https://i.ytimg.com/vi/B9mA5zW-OAY/mqdefault.jpg","viewCount":"14189","playlistId":"PLEkQk5xrP-tly7ti7Qb_lS7xjUg_fwlNP","playlistName":"شرح كتاب الدولة المكية بالمادة الغيبية","category":"متنوع"},{"id":"MwPpnh2BESc","title":"ما هي أركان الصيام | مجالس رمضانية","publishedAt":"2025-03-21T15:00:27Z","duration":"PT28M11S","thumbnail":"https://i.ytimg.com/vi/MwPpnh2BESc/mqdefault.jpg","viewCount":"1211","playlistId":"PLEkQk5xrP-tkeI_WVPfuoTJO46aVkpaz0","playlistName":"شرح كتاب ميزان الاعتدال لحفظ الدين والأحوال","category":"متنوع"},{"id":"Qp0jxVeeLSQ","title":"بركة الأُمّة المُحمّدّية - د.يسري جبر","publishedAt":"2015-01-16T08:28:48Z","duration":"PT19M29S","thumbnail":"https://i.ytimg.com/vi/Qp0jxVeeLSQ/mqdefault.jpg","viewCount":"4322","playlistId":"PLEkQk5xrP-tm8ZIu74nTOZN9KJUJu416J","playlistName":"مقاطع مُهمَّة (يُسريَّات) أ.د. يسري جبر","category":"متنوع"},{"id":"tMH_PnOCoP0","title":"شرح كتاب منازل السائرين للإمام الهروى - المجلس الرابع والثلاثون قسم الأُصول باب الإرادة وباب الأدب","publishedAt":"2015-01-12T04:37:22Z","duration":"PT1H14M37S","thumbnail":"https://i.ytimg.com/vi/tMH_PnOCoP0/mqdefault.jpg","viewCount":"1934","playlistId":"PLEkQk5xrP-tnLYi_5_tSRVBwqcs7ISV7Y","playlistName":"شرح كتاب منازل السائرين للإمام الهروي","category":"متنوع"},{"id":"ZC7NQSRLLnk","title":"النورالدائم - د.يسري جبر","publishedAt":"2015-01-10T18:04:01Z","duration":"PT3M12S","thumbnail":"https://i.ytimg.com/vi/ZC7NQSRLLnk/mqdefault.jpg","viewCount":"19455","playlistId":"PLEkQk5xrP-tm8ZIu74nTOZN9KJUJu416J","playlistName":"مقاطع مُهمَّة (يُسريَّات) أ.د. يسري جبر","category":"متنوع"},{"id":"Drp9JH7JraI","title":"من الفوائد اليسرية فى كيفية صلاة الله وملائكته على خير البرية","publishedAt":"2015-01-05T20:00:34Z","duration":"PT4M45S","thumbnail":"https://i.ytimg.com/vi/Drp9JH7JraI/mqdefault.jpg","viewCount":"9084","playlistId":"PLEkQk5xrP-tm8ZIu74nTOZN9KJUJu416J","playlistName":"مقاطع مُهمَّة (يُسريَّات) أ.د. يسري جبر","category":"متنوع"},{"id":"bVCWEzbgQbA","title":"شرح كتاب منازل السائرين للإمام الهروى - المجلس الثالث والثلاثون - قسم الأُصول باب القصد وباب العزم","publishedAt":"2015-01-05T04:19:03Z","duration":"PT52M25S","thumbnail":"https://i.ytimg.com/vi/bVCWEzbgQbA/mqdefault.jpg","viewCount":"1399","playlistId":"PLEkQk5xrP-tnLYi_5_tSRVBwqcs7ISV7Y","playlistName":"شرح كتاب منازل السائرين للإمام الهروي","category":"متنوع"},{"id":"u5HXvzV-73U","title":"مقرأة سورة الشعراء من آية أولها","publishedAt":"2018-04-09T11:26:26Z","duration":"PT28M48S","thumbnail":"https://i.ytimg.com/vi/u5HXvzV-73U/mqdefault.jpg","viewCount":"318","playlistId":"PLEkQk5xrP-tnmTYsyW6xNdyfhPq0Bhrhj","playlistName":"مقرأة الفجر - القُرْآنُ الكَرِيمُ - خَتْمَةُ التَّدَبُّرِ  أ.د. يسري جبر","category":"متنوع"},{"id":"h2xW-LC0OAM","title":"134- درء الحدود بالشبهات - شرح مسند الإمام أحمد رضي الله تعالى عنه","publishedAt":"2024-11-03T06:00:21Z","duration":"PT36M23S","thumbnail":"https://i.ytimg.com/vi/h2xW-LC0OAM/mqdefault.jpg","viewCount":"721","playlistId":"PLEkQk5xrP-tkKprIuGrSdEuBSMsyg5We1","playlistName":"شرح مسند الإمام أحمد بن حنبل","category":"متنوع"},{"id":"_g4WM0wK4q0","title":"133- غزوة أحد - شرح مسند الإمام أحمد رضي الله تعالى عنه","publishedAt":"2024-11-01T06:00:17Z","duration":"PT24M54S","thumbnail":"https://i.ytimg.com/vi/_g4WM0wK4q0/mqdefault.jpg","viewCount":"658","playlistId":"PLEkQk5xrP-tkKprIuGrSdEuBSMsyg5We1","playlistName":"شرح مسند الإمام أحمد بن حنبل","category":"متنوع"},{"id":"Yy_JQUmuU3A","title":"سورة الأنعام آية 38","publishedAt":"2016-12-05T06:33:39Z","duration":"PT17M28S","thumbnail":"https://i.ytimg.com/vi/Yy_JQUmuU3A/mqdefault.jpg","viewCount":"424","playlistId":"PLEkQk5xrP-tnmTYsyW6xNdyfhPq0Bhrhj","playlistName":"مقرأة الفجر - القُرْآنُ الكَرِيمُ - خَتْمَةُ التَّدَبُّرِ  أ.د. يسري جبر","category":"متنوع"},{"id":"rSkTilbDMnw","title":"مَنْ ظنَّ انفكاك لُطفه عن قَدَره ، فذلك لقصور نَظَرِه .","publishedAt":"2016-12-04T19:43:29Z","duration":"PT7M7S","thumbnail":"https://i.ytimg.com/vi/rSkTilbDMnw/mqdefault.jpg","viewCount":"2452","playlistId":"PLEkQk5xrP-tkI_meE148wc7V7XHlB0WPb","playlistName":"من الحكم العطائية  د. يسري جبر","category":"متنوع"},{"id":"9g9GyflFFUE","title":"سورة الأنعام  آية 36","publishedAt":"2016-12-04T06:13:09Z","duration":"PT11M54S","thumbnail":"https://i.ytimg.com/vi/9g9GyflFFUE/mqdefault.jpg","viewCount":"369","playlistId":"PLEkQk5xrP-tnmTYsyW6xNdyfhPq0Bhrhj","playlistName":"مقرأة الفجر - القُرْآنُ الكَرِيمُ - خَتْمَةُ التَّدَبُّرِ  أ.د. يسري جبر","category":"متنوع"},{"id":"BMyaBasu81E","title":"سورة الأنعام  آية 29","publishedAt":"2016-12-03T06:44:22Z","duration":"PT25M45S","thumbnail":"https://i.ytimg.com/vi/BMyaBasu81E/mqdefault.jpg","viewCount":"520","playlistId":"PLEkQk5xrP-tnmTYsyW6xNdyfhPq0Bhrhj","playlistName":"مقرأة الفجر - القُرْآنُ الكَرِيمُ - خَتْمَةُ التَّدَبُّرِ  أ.د. يسري جبر","category":"متنوع"},{"id":"-_y0GstqaL8","title":"35- مَا لاَ زَكَاةَ فِيهِ مِنَ الْفَوَاكِهِ وَالْقَضْبِ وَالْبُقُولِ كتاب الزكاة ك الموطأ د يسري جبر","publishedAt":"2016-12-02T12:15:06Z","duration":"PT1H6M55S","thumbnail":"https://i.ytimg.com/vi/-_y0GstqaL8/mqdefault.jpg","viewCount":"321","playlistId":"PLEkQk5xrP-tnC6BRuqMjyO-484iqXeg0o","playlistName":"شرح كتاب الموطأ للإمام مالك","category":"متنوع"},{"id":"W_ylaKKfWOg","title":"سورة الأنعام آية 25","publishedAt":"2016-12-02T08:30:01Z","duration":"PT14M58S","thumbnail":"https://i.ytimg.com/vi/W_ylaKKfWOg/mqdefault.jpg","viewCount":"456","playlistId":"PLEkQk5xrP-tnmTYsyW6xNdyfhPq0Bhrhj","playlistName":"مقرأة الفجر - القُرْآنُ الكَرِيمُ - خَتْمَةُ التَّدَبُّرِ  أ.د. يسري جبر","category":"متنوع"},{"id":"WU6Otxt5c1Y","title":"سورة الأنعام آية 20","publishedAt":"2016-12-01T07:49:41Z","duration":"PT20M8S","thumbnail":"https://i.ytimg.com/vi/WU6Otxt5c1Y/mqdefault.jpg","viewCount":"515","playlistId":"PLEkQk5xrP-tnmTYsyW6xNdyfhPq0Bhrhj","playlistName":"مقرأة الفجر - القُرْآنُ الكَرِيمُ - خَتْمَةُ التَّدَبُّرِ  أ.د. يسري جبر","category":"متنوع"},{"id":"zK2MY5jT7PQ","title":"ليُخفف ألم البلاء عنك عِلْمُك بأنه سبحانه وتعالى هو المُبْلِي لك","publishedAt":"2016-11-30T17:41:13Z","duration":"PT1M38S","thumbnail":"https://i.ytimg.com/vi/zK2MY5jT7PQ/mqdefault.jpg","viewCount":"1844","playlistId":"PLEkQk5xrP-tkI_meE148wc7V7XHlB0WPb","playlistName":"من الحكم العطائية  د. يسري جبر","category":"متنوع"},{"id":"0kAvg0NJE5U","title":"سورة الأنعام  آية 13","publishedAt":"2016-11-30T03:18:15Z","duration":"PT16M46S","thumbnail":"https://i.ytimg.com/vi/0kAvg0NJE5U/mqdefault.jpg","viewCount":"553","playlistId":"PLEkQk5xrP-tnmTYsyW6xNdyfhPq0Bhrhj","playlistName":"مقرأة الفجر - القُرْآنُ الكَرِيمُ - خَتْمَةُ التَّدَبُّرِ  أ.د. يسري جبر","category":"متنوع"},{"id":"LF0Tv6Z561k","title":"34- أَخْذِ الصَّدَقَاتِ وَالتَّشْدِيدِ فِيهَا كتاب الزكاة ك الموطأ د يسري جبر الأزهري","publishedAt":"2016-11-29T13:56:03Z","duration":"PT1H17M22S","thumbnail":"https://i.ytimg.com/vi/LF0Tv6Z561k/mqdefault.jpg","viewCount":"328","playlistId":"PLEkQk5xrP-tnC6BRuqMjyO-484iqXeg0o","playlistName":"شرح كتاب الموطأ للإمام مالك","category":"متنوع"},{"id":"nAB6o_8mwCw","title":"سورة الأنعام آية 6","publishedAt":"2016-11-29T07:06:15Z","duration":"PT13M23S","thumbnail":"https://i.ytimg.com/vi/nAB6o_8mwCw/mqdefault.jpg","viewCount":"391","playlistId":"PLEkQk5xrP-tnmTYsyW6xNdyfhPq0Bhrhj","playlistName":"مقرأة الفجر - القُرْآنُ الكَرِيمُ - خَتْمَةُ التَّدَبُّرِ  أ.د. يسري جبر","category":"متنوع"},{"id":"zzpk2wiMbWY","title":"سورة الأنعام من أولها","publishedAt":"2016-11-28T11:27:35Z","duration":"PT19M53S","thumbnail":"https://i.ytimg.com/vi/zzpk2wiMbWY/mqdefault.jpg","viewCount":"831","playlistId":"PLEkQk5xrP-tnmTYsyW6xNdyfhPq0Bhrhj","playlistName":"مقرأة الفجر - القُرْآنُ الكَرِيمُ - خَتْمَةُ التَّدَبُّرِ  أ.د. يسري جبر","category":"متنوع"}],"total":4126,"page":108,"pageSize":24,"totalPages":172}