{"items":[{"id":"ZCXMg5ChUFQ","title":"مقرأة سورة محمد من آية ٣٣","publishedAt":"2019-01-16T15:04:28Z","duration":"PT19M29S","thumbnail":"https://i.ytimg.com/vi/ZCXMg5ChUFQ/mqdefault.jpg","viewCount":"315","playlistId":"PLEkQk5xrP-tnmTYsyW6xNdyfhPq0Bhrhj","playlistName":"مقرأة الفجر - القُرْآنُ الكَرِيمُ - خَتْمَةُ التَّدَبُّرِ  أ.د. يسري جبر","category":"متنوع"},{"id":"bBKZe7r2ZXo","title":"مقرأة سورة الحج من آية ٤٢","publishedAt":"2018-02-06T20:06:26Z","duration":"PT15M54S","thumbnail":"https://i.ytimg.com/vi/bBKZe7r2ZXo/mqdefault.jpg","viewCount":"239","playlistId":"PLEkQk5xrP-tnmTYsyW6xNdyfhPq0Bhrhj","playlistName":"مقرأة الفجر - القُرْآنُ الكَرِيمُ - خَتْمَةُ التَّدَبُّرِ  أ.د. يسري جبر","category":"متنوع"},{"id":"j264rD3oDeo","title":"مقرأة سورة الحج من آية ٤١","publishedAt":"2018-02-05T13:45:48Z","duration":"PT18M42S","thumbnail":"https://i.ytimg.com/vi/j264rD3oDeo/mqdefault.jpg","viewCount":"341","playlistId":"PLEkQk5xrP-tnmTYsyW6xNdyfhPq0Bhrhj","playlistName":"مقرأة الفجر - القُرْآنُ الكَرِيمُ - خَتْمَةُ التَّدَبُّرِ  أ.د. يسري جبر","category":"متنوع"},{"id":"T6SzvUQDn_I","title":"ما الفرق بين المدارس الحكومية والخاصة؟","publishedAt":"2022-04-25T19:30:01Z","duration":"PT8M15S","thumbnail":"https://i.ytimg.com/vi/T6SzvUQDn_I/mqdefault.jpg","viewCount":"6939","playlistId":"PLEkQk5xrP-tm8ZIu74nTOZN9KJUJu416J","playlistName":"مقاطع مُهمَّة (يُسريَّات) أ.د. يسري جبر","category":"متنوع"},{"id":"l1Fqbd38GNo","title":"ما حكم سب الوالدين؟ | أ.د. يسري جبر","publishedAt":"2022-04-25T15:30:07Z","duration":"PT22M35S","thumbnail":"https://i.ytimg.com/vi/l1Fqbd38GNo/mqdefault.jpg","viewCount":"1923","playlistId":"PLEkQk5xrP-tnl7vb7KeAoPd5ZlqKKW8KV","playlistName":"شرح كتاب بهجة النفوس أ.د . يسرى جبر","category":"متنوع"},{"id":"bph_Ez2eSJs","title":"238- استحبابُ زِيَارةِ القبورِ للرِّجالِ ومَا يَقُولُه الزَّائرُ - شرح دليل الفالحين","publishedAt":"2022-04-25T05:00:08Z","duration":"PT49M24S","thumbnail":"https://i.ytimg.com/vi/bph_Ez2eSJs/mqdefault.jpg","viewCount":"1128","playlistId":"PLEkQk5xrP-tkc9DXvSLguqX5-FYp6ASR4","playlistName":"دليل الفالحين لطرق رياض الصالحين","category":"متنوع"},{"id":"yk9jx6N3xW4","title":"هل قانون الإيجار القديم في مصر جائز شرعًا؟","publishedAt":"2022-04-24T19:30:02Z","duration":"PT12M4S","thumbnail":"https://i.ytimg.com/vi/yk9jx6N3xW4/mqdefault.jpg","viewCount":"7269","playlistId":"PLEkQk5xrP-tkGXuZ9atE3k_7it12rUPTs","playlistName":"أسئلة المتابعين","category":"متنوع"},{"id":"U2pFAh5AvfM","title":"حقُّ الله على عباده | أ.د. يسري جبر","publishedAt":"2022-04-24T15:30:04Z","duration":"PT34M27S","thumbnail":"https://i.ytimg.com/vi/U2pFAh5AvfM/mqdefault.jpg","viewCount":"2225","playlistId":"PLEkQk5xrP-tnl7vb7KeAoPd5ZlqKKW8KV","playlistName":"شرح كتاب بهجة النفوس أ.د . يسرى جبر","category":"متنوع"},{"id":"-FRvGh8jtqI","title":"حكم الوشم ووصل الشعر في الإسلام | أ.د. يسري جبر","publishedAt":"2022-04-23T19:30:00Z","duration":"PT32M52S","thumbnail":"https://i.ytimg.com/vi/-FRvGh8jtqI/mqdefault.jpg","viewCount":"1760","playlistId":"PLEkQk5xrP-tnl7vb7KeAoPd5ZlqKKW8KV","playlistName":"شرح كتاب بهجة النفوس أ.د . يسرى جبر","category":"متنوع"},{"id":"_obrDQxcuLU","title":"خطر الشذوذ والمثلية | أ.د. يسري جبر","publishedAt":"2022-04-23T15:30:10Z","duration":"PT31M27S","thumbnail":"https://i.ytimg.com/vi/_obrDQxcuLU/mqdefault.jpg","viewCount":"4297","playlistId":"PLEkQk5xrP-tnl7vb7KeAoPd5ZlqKKW8KV","playlistName":"شرح كتاب بهجة النفوس أ.د . يسرى جبر","category":"متنوع"},{"id":"RWcKPJuy0Xk","title":"237- بادِروا بالأعمالِ سَبعًا - شرح دليل الفالحين","publishedAt":"2022-04-23T05:00:08Z","duration":"PT39M29S","thumbnail":"https://i.ytimg.com/vi/RWcKPJuy0Xk/mqdefault.jpg","viewCount":"1614","playlistId":"PLEkQk5xrP-tkc9DXvSLguqX5-FYp6ASR4","playlistName":"دليل الفالحين لطرق رياض الصالحين","category":"متنوع"},{"id":"yWaRhIJFc70","title":"ما حكم لبس الحرير؟ | أ.د. يسري جبر","publishedAt":"2022-04-22T15:30:11Z","duration":"PT25M38S","thumbnail":"https://i.ytimg.com/vi/yWaRhIJFc70/mqdefault.jpg","viewCount":"726","playlistId":"PLEkQk5xrP-tnl7vb7KeAoPd5ZlqKKW8KV","playlistName":"شرح كتاب بهجة النفوس أ.د . يسرى جبر","category":"متنوع"},{"id":"7SliqxPymwM","title":"فضل العشر الأواخر من رمضان","publishedAt":"2022-04-21T15:30:02Z","duration":"PT16M56S","thumbnail":"https://i.ytimg.com/vi/7SliqxPymwM/mqdefault.jpg","viewCount":"22134","playlistId":"PLEkQk5xrP-tm8ZIu74nTOZN9KJUJu416J","playlistName":"مقاطع مُهمَّة (يُسريَّات) أ.د. يسري جبر","category":"متنوع"},{"id":"xrOKeV0KnKE","title":"236- أخذ رسولُ الله ﷺ بمَنكبي فقال: كُنْ في الدُّنيا كأنَّك غريبٌ أو عابر سبيلٍ - شرح دليل الفالحين","publishedAt":"2022-04-21T05:00:29Z","duration":"PT37M26S","thumbnail":"https://i.ytimg.com/vi/xrOKeV0KnKE/mqdefault.jpg","viewCount":"2013","playlistId":"PLEkQk5xrP-tkc9DXvSLguqX5-FYp6ASR4","playlistName":"دليل الفالحين لطرق رياض الصالحين","category":"متنوع"},{"id":"7gAOK-tidTs","title":"هل صلاة التراويح 20 ركعة سنة نبوية؟","publishedAt":"2022-04-20T19:30:00Z","duration":"PT12M46S","thumbnail":"https://i.ytimg.com/vi/7gAOK-tidTs/mqdefault.jpg","viewCount":"4651","playlistId":"PLEkQk5xrP-tm8ZIu74nTOZN9KJUJu416J","playlistName":"مقاطع مُهمَّة (يُسريَّات) أ.د. يسري جبر","category":"متنوع"},{"id":"ZCcAAPwyY_g","title":"هل يجوز المرور أمام المصلي؟ | أ.د. يسري جبر","publishedAt":"2022-04-20T15:30:05Z","duration":"PT37M16S","thumbnail":"https://i.ytimg.com/vi/ZCcAAPwyY_g/mqdefault.jpg","viewCount":"2030","playlistId":"PLEkQk5xrP-tnl7vb7KeAoPd5ZlqKKW8KV","playlistName":"شرح كتاب بهجة النفوس أ.د . يسرى جبر","category":"متنوع"},{"id":"i3iDnuYvqEs","title":"هل يوجد أولياء لهم اتصال بالجن؟","publishedAt":"2022-04-19T19:30:07Z","duration":"PT8M8S","thumbnail":"https://i.ytimg.com/vi/i3iDnuYvqEs/mqdefault.jpg","viewCount":"191064","playlistId":"PLEkQk5xrP-tkGXuZ9atE3k_7it12rUPTs","playlistName":"أسئلة المتابعين","category":"متنوع"},{"id":"IrTiv5kIVQA","title":"كيف تتخلص من التشاؤم؟ | أ.د. يسري جبر","publishedAt":"2022-04-19T15:30:05Z","duration":"PT50M31S","thumbnail":"https://i.ytimg.com/vi/IrTiv5kIVQA/mqdefault.jpg","viewCount":"10038","playlistId":"PLEkQk5xrP-tnl7vb7KeAoPd5ZlqKKW8KV","playlistName":"شرح كتاب بهجة النفوس أ.د . يسرى جبر","category":"متنوع"},{"id":"-WVpLTfKQKk","title":"235- ذِكْرُ المَوتِ وَقِصَرِ الأَمَلِ - شرح دليل الفالحين","publishedAt":"2022-04-19T05:00:01Z","duration":"PT50M36S","thumbnail":"https://i.ytimg.com/vi/-WVpLTfKQKk/mqdefault.jpg","viewCount":"853","playlistId":"PLEkQk5xrP-tkc9DXvSLguqX5-FYp6ASR4","playlistName":"دليل الفالحين لطرق رياض الصالحين","category":"متنوع"},{"id":"n2n0kNvPud8","title":"سنن النَّبيّ ﷺ في العلاج | أ.د. يسري جبر","publishedAt":"2022-04-18T15:30:16Z","duration":"PT29M38S","thumbnail":"https://i.ytimg.com/vi/n2n0kNvPud8/mqdefault.jpg","viewCount":"1840","playlistId":"PLEkQk5xrP-tnl7vb7KeAoPd5ZlqKKW8KV","playlistName":"شرح كتاب بهجة النفوس أ.د . يسرى جبر","category":"متنوع"},{"id":"314SWl4kY4Y","title":"مقرأة سورة الحج من آية ٣٨","publishedAt":"2018-02-04T13:42:05Z","duration":"PT16M48S","thumbnail":"https://i.ytimg.com/vi/314SWl4kY4Y/mqdefault.jpg","viewCount":"236","playlistId":"PLEkQk5xrP-tnmTYsyW6xNdyfhPq0Bhrhj","playlistName":"مقرأة الفجر - القُرْآنُ الكَرِيمُ - خَتْمَةُ التَّدَبُّرِ  أ.د. يسري جبر","category":"متنوع"},{"id":"l7ABc_w2TB8","title":"مقرأة سورة الحج من آية ٣٢","publishedAt":"2018-02-03T12:17:27Z","duration":"PT19M3S","thumbnail":"https://i.ytimg.com/vi/l7ABc_w2TB8/mqdefault.jpg","viewCount":"265","playlistId":"PLEkQk5xrP-tnmTYsyW6xNdyfhPq0Bhrhj","playlistName":"مقرأة الفجر - القُرْآنُ الكَرِيمُ - خَتْمَةُ التَّدَبُّرِ  أ.د. يسري جبر","category":"متنوع"},{"id":"RIhZGL58jAE","title":"منْ تمامِ النعمةِ عليك: أنْ يرزقكَ ما يَكْفيكَ، ويَمْنعكَ ما يُطْغيك.","publishedAt":"2018-02-01T17:57:11Z","duration":"PT8M16S","thumbnail":"https://i.ytimg.com/vi/RIhZGL58jAE/mqdefault.jpg","viewCount":"1414","playlistId":"PLEkQk5xrP-tkI_meE148wc7V7XHlB0WPb","playlistName":"من الحكم العطائية  د. يسري جبر","category":"متنوع"},{"id":"ZlCr8L0q7XQ","title":"مقرأة سورة الحج من آية ٢٩","publishedAt":"2018-02-01T13:07:12Z","duration":"PT18M53S","thumbnail":"https://i.ytimg.com/vi/ZlCr8L0q7XQ/mqdefault.jpg","viewCount":"296","playlistId":"PLEkQk5xrP-tnmTYsyW6xNdyfhPq0Bhrhj","playlistName":"مقرأة الفجر - القُرْآنُ الكَرِيمُ - خَتْمَةُ التَّدَبُّرِ  أ.د. يسري جبر","category":"متنوع"}],"total":4126,"page":16,"pageSize":24,"totalPages":172}