{"items":[{"id":"x_MWrwiy0Nc","title":"37- حكم إهداء ما يحرم لبسه - شرح مسند الإمام أحمد","publishedAt":"2023-11-07T06:33:03Z","duration":"PT13M33S","thumbnail":"https://i.ytimg.com/vi/x_MWrwiy0Nc/mqdefault.jpg","viewCount":"1045","playlistId":"PLEkQk5xrP-tkKprIuGrSdEuBSMsyg5We1","playlistName":"شرح مسند الإمام أحمد بن حنبل","category":"متنوع"},{"id":"PMDhsxCDRa4","title":"19- حكم مَن رأى لمعة في عقبه لم يصلها الماء - كتاب الطهارة","publishedAt":"2023-11-05T06:15:00Z","duration":"PT33M58S","thumbnail":"https://i.ytimg.com/vi/PMDhsxCDRa4/mqdefault.jpg","viewCount":"1045","playlistId":"PLEkQk5xrP-tk_MCBZ706ORCw6gFtFyaGj","playlistName":"شرح سنن الإمام الدارقطني","category":"متنوع"},{"id":"Tzj9xWV4BYw","title":"36- فضل الزبير بن العوام | كيف نفهم الأمر بتسوية القبور وإزالة الأصنام - شرح مسند الإمام أحمد","publishedAt":"2023-11-04T06:30:14Z","duration":"PT30M37S","thumbnail":"https://i.ytimg.com/vi/Tzj9xWV4BYw/mqdefault.jpg","viewCount":"2146","playlistId":"PLEkQk5xrP-tkKprIuGrSdEuBSMsyg5We1","playlistName":"شرح مسند الإمام أحمد بن حنبل","category":"متنوع"},{"id":"Q1N9zZNi06I","title":"35- أهميّة فهم القرآن فهمًا صحيحًا - شرح مسند الإمام أحمد","publishedAt":"2023-11-01T06:39:54Z","duration":"PT42M1S","thumbnail":"https://i.ytimg.com/vi/Q1N9zZNi06I/mqdefault.jpg","viewCount":"2172","playlistId":"PLEkQk5xrP-tkKprIuGrSdEuBSMsyg5We1","playlistName":"شرح مسند الإمام أحمد بن حنبل","category":"متنوع"},{"id":"7_VA61XhHcY","title":"كيف تكون محبوبا؟","publishedAt":"2021-01-22T18:00:35Z","duration":"PT15M57S","thumbnail":"https://i.ytimg.com/vi/7_VA61XhHcY/mqdefault.jpg","viewCount":"9266","playlistId":"PLEkQk5xrP-tm8ZIu74nTOZN9KJUJu416J","playlistName":"مقاطع مُهمَّة (يُسريَّات) أ.د. يسري جبر","category":"متنوع"},{"id":"08Ny88lhi48","title":"!طريقة علاج إدمان المخدرات","publishedAt":"2021-01-21T18:22:00Z","duration":"PT9M24S","thumbnail":"https://i.ytimg.com/vi/08Ny88lhi48/mqdefault.jpg","viewCount":"19526","playlistId":"PLEkQk5xrP-tm8ZIu74nTOZN9KJUJu416J","playlistName":"مقاطع مُهمَّة (يُسريَّات) أ.د. يسري جبر","category":"متنوع"},{"id":"bmGVhOKuRXk","title":"7- آخر مقدمة كتاب رياض الصالحين وتعليق الشارح عليها - شرح دليل الفالحين أ.د. يسري جبر","publishedAt":"2021-01-21T08:28:05Z","duration":"PT36M2S","thumbnail":"https://i.ytimg.com/vi/bmGVhOKuRXk/mqdefault.jpg","viewCount":"2019","playlistId":"PLEkQk5xrP-tkc9DXvSLguqX5-FYp6ASR4","playlistName":"دليل الفالحين لطرق رياض الصالحين","category":"متنوع"},{"id":"4EAf9u36PDc","title":"تساؤلات الوهابية","publishedAt":"2021-01-20T18:07:13Z","duration":"PT9M31S","thumbnail":"https://i.ytimg.com/vi/4EAf9u36PDc/mqdefault.jpg","viewCount":"36378","playlistId":"PLEkQk5xrP-tm8ZIu74nTOZN9KJUJu416J","playlistName":"مقاطع مُهمَّة (يُسريَّات) أ.د. يسري جبر","category":"متنوع"},{"id":"oXWiNMaIVSY","title":"هل السحر خرافة ؟","publishedAt":"2021-01-19T18:49:49Z","duration":"PT9M13S","thumbnail":"https://i.ytimg.com/vi/oXWiNMaIVSY/mqdefault.jpg","viewCount":"84467","playlistId":"PLEkQk5xrP-tm8ZIu74nTOZN9KJUJu416J","playlistName":"مقاطع مُهمَّة (يُسريَّات) أ.د. يسري جبر","category":"متنوع"},{"id":"XzLJ0uEIuVU","title":"6- تكملة مقدمة كتاب رياض الصالحين وتعليق الشارح عليها - شرح دليل الفالحين أ.د. يسري جبر","publishedAt":"2021-01-19T07:46:35Z","duration":"PT39M9S","thumbnail":"https://i.ytimg.com/vi/XzLJ0uEIuVU/mqdefault.jpg","viewCount":"2331","playlistId":"PLEkQk5xrP-tkc9DXvSLguqX5-FYp6ASR4","playlistName":"دليل الفالحين لطرق رياض الصالحين","category":"متنوع"},{"id":"GaCtERIPIxM","title":"5- تكملة مقدمة كتاب رياض الصالحين وتعليق الشارح عليها - شرح دليل الفالحين أ.د. يسري جبر","publishedAt":"2021-01-17T08:33:35Z","duration":"PT38M","thumbnail":"https://i.ytimg.com/vi/GaCtERIPIxM/mqdefault.jpg","viewCount":"2653","playlistId":"PLEkQk5xrP-tkc9DXvSLguqX5-FYp6ASR4","playlistName":"دليل الفالحين لطرق رياض الصالحين","category":"متنوع"},{"id":"i8xFY8yBPzk","title":"السفر عبر الزمن بين النسبية والمعراج","publishedAt":"2021-03-17T19:38:25Z","duration":"PT10M11S","thumbnail":"https://i.ytimg.com/vi/i8xFY8yBPzk/mqdefault.jpg","viewCount":"21664","playlistId":"PLEkQk5xrP-tm8ZIu74nTOZN9KJUJu416J","playlistName":"مقاطع مُهمَّة (يُسريَّات) أ.د. يسري جبر","category":"متنوع"},{"id":"jWvaIDImBFY","title":"30- باب التوبة: الحديث التاسع (3) شرح دليل الفالحين لطُرُق رياض الصالحين","publishedAt":"2021-03-17T08:28:02Z","duration":"PT41M53S","thumbnail":"https://i.ytimg.com/vi/jWvaIDImBFY/mqdefault.jpg","viewCount":"1412","playlistId":"PLEkQk5xrP-tkc9DXvSLguqX5-FYp6ASR4","playlistName":"دليل الفالحين لطرق رياض الصالحين","category":"متنوع"},{"id":"80e2Oo8iWnY","title":"هل يجوز وهب ثواب الصلاة للميت؟","publishedAt":"2021-03-16T19:14:40Z","duration":"PT9M52S","thumbnail":"https://i.ytimg.com/vi/80e2Oo8iWnY/mqdefault.jpg","viewCount":"8008","playlistId":"PLEkQk5xrP-tm8ZIu74nTOZN9KJUJu416J","playlistName":"مقاطع مُهمَّة (يُسريَّات) أ.د. يسري جبر","category":"متنوع"},{"id":"51VRN8ri1YQ","title":"أريد الانتقام من شخص ظلمني ماذا أفعل؟","publishedAt":"2021-03-15T18:45:00Z","duration":"PT9M41S","thumbnail":"https://i.ytimg.com/vi/51VRN8ri1YQ/mqdefault.jpg","viewCount":"27199","playlistId":"PLEkQk5xrP-tm8ZIu74nTOZN9KJUJu416J","playlistName":"مقاطع مُهمَّة (يُسريَّات) أ.د. يسري جبر","category":"متنوع"},{"id":"2XFtrvIZg_A","title":"29- باب التوبة: الحديث التاسع (2) شرح دليل الفالحين لطُرُق رياض الصالحين","publishedAt":"2021-03-15T06:25:13Z","duration":"PT48M14S","thumbnail":"https://i.ytimg.com/vi/2XFtrvIZg_A/mqdefault.jpg","viewCount":"1301","playlistId":"PLEkQk5xrP-tkc9DXvSLguqX5-FYp6ASR4","playlistName":"دليل الفالحين لطرق رياض الصالحين","category":"متنوع"},{"id":"WxvbDgCi8a0","title":"هل يوجد تفسير للأحاديث الشاذة في السنة النبوية؟","publishedAt":"2021-03-14T18:59:16Z","duration":"PT11M57S","thumbnail":"https://i.ytimg.com/vi/WxvbDgCi8a0/mqdefault.jpg","viewCount":"6193","playlistId":"PLEkQk5xrP-tm8ZIu74nTOZN9KJUJu416J","playlistName":"مقاطع مُهمَّة (يُسريَّات) أ.د. يسري جبر","category":"متنوع"},{"id":"xfq8Mj_lJiM","title":"مقرأة سورة مريم من آية ٤١","publishedAt":"2017-11-09T11:04:12Z","duration":"PT26M4S","thumbnail":"https://i.ytimg.com/vi/xfq8Mj_lJiM/mqdefault.jpg","viewCount":"424","playlistId":"PLEkQk5xrP-tnmTYsyW6xNdyfhPq0Bhrhj","playlistName":"مقرأة الفجر - القُرْآنُ الكَرِيمُ - خَتْمَةُ التَّدَبُّرِ  أ.د. يسري جبر","category":"متنوع"},{"id":"KcqkpPS0rGw","title":"مقرأة سورة مريم من آية ٣٧","publishedAt":"2017-11-08T08:54:32Z","duration":"PT6M31S","thumbnail":"https://i.ytimg.com/vi/KcqkpPS0rGw/mqdefault.jpg","viewCount":"327","playlistId":"PLEkQk5xrP-tnmTYsyW6xNdyfhPq0Bhrhj","playlistName":"مقرأة الفجر - القُرْآنُ الكَرِيمُ - خَتْمَةُ التَّدَبُّرِ  أ.د. يسري جبر","category":"متنوع"},{"id":"DCcezY7NPps","title":"مقرأة سورة التغابن من أولها","publishedAt":"2019-04-15T10:49:56Z","duration":"PT12M25S","thumbnail":"https://i.ytimg.com/vi/DCcezY7NPps/mqdefault.jpg","viewCount":"508","playlistId":"PLEkQk5xrP-tnmTYsyW6xNdyfhPq0Bhrhj","playlistName":"مقرأة الفجر - القُرْآنُ الكَرِيمُ - خَتْمَةُ التَّدَبُّرِ  أ.د. يسري جبر","category":"متنوع"},{"id":"5ol62jLK984","title":"شرح سنن الدارمي كتاب الطهارة من باب ٩٥","publishedAt":"2019-04-14T22:30:24Z","duration":"PT41M45S","thumbnail":"https://i.ytimg.com/vi/5ol62jLK984/mqdefault.jpg","viewCount":"373","playlistId":"PLEkQk5xrP-tmAg-FuWjY057X_h5NmGmAa","playlistName":"شرح سنن الدارمي - أ.د. يسري جبر (كاملا)","category":"متنوع"},{"id":"-YotIv7dxA0","title":"مقرأة سورة المنافقون من آية ٧","publishedAt":"2019-04-14T10:03:03Z","duration":"PT12M1S","thumbnail":"https://i.ytimg.com/vi/-YotIv7dxA0/mqdefault.jpg","viewCount":"318","playlistId":"PLEkQk5xrP-tnmTYsyW6xNdyfhPq0Bhrhj","playlistName":"مقرأة الفجر - القُرْآنُ الكَرِيمُ - خَتْمَةُ التَّدَبُّرِ  أ.د. يسري جبر","category":"متنوع"},{"id":"yc6HXLFE3AQ","title":"شرح سنن الدارمي كتاب الطهارة من باب ٩٢","publishedAt":"2019-04-13T23:52:18Z","duration":"PT35M25S","thumbnail":"https://i.ytimg.com/vi/yc6HXLFE3AQ/mqdefault.jpg","viewCount":"364","playlistId":"PLEkQk5xrP-tmAg-FuWjY057X_h5NmGmAa","playlistName":"شرح سنن الدارمي - أ.د. يسري جبر (كاملا)","category":"متنوع"},{"id":"zlLKaZSVd0c","title":"مقرأة سورة المنافقون من أولها","publishedAt":"2019-04-13T11:39:32Z","duration":"PT20M44S","thumbnail":"https://i.ytimg.com/vi/zlLKaZSVd0c/mqdefault.jpg","viewCount":"485","playlistId":"PLEkQk5xrP-tnmTYsyW6xNdyfhPq0Bhrhj","playlistName":"مقرأة الفجر - القُرْآنُ الكَرِيمُ - خَتْمَةُ التَّدَبُّرِ  أ.د. يسري جبر","category":"متنوع"}],"total":4126,"page":98,"pageSize":24,"totalPages":172}