{"items":[{"id":"guShUAoFI3c","title":"شرح سنن الدارمي كتاب الطهارة من باب ٤","publishedAt":"2019-04-05T20:51:14Z","duration":"PT37M10S","thumbnail":"https://i.ytimg.com/vi/guShUAoFI3c/mqdefault.jpg","viewCount":"487","playlistId":"PLEkQk5xrP-tmAg-FuWjY057X_h5NmGmAa","playlistName":"شرح سنن الدارمي - أ.د. يسري جبر (كاملا)","category":"متنوع"},{"id":"A9fXp2e-LM4","title":"مقرأة سورة الممتحنة من آية ٤","publishedAt":"2019-04-05T07:57:34Z","duration":"PT13M35S","thumbnail":"https://i.ytimg.com/vi/A9fXp2e-LM4/mqdefault.jpg","viewCount":"377","playlistId":"PLEkQk5xrP-tnmTYsyW6xNdyfhPq0Bhrhj","playlistName":"مقرأة الفجر - القُرْآنُ الكَرِيمُ - خَتْمَةُ التَّدَبُّرِ  أ.د. يسري جبر","category":"متنوع"},{"id":"RSApp1SuGNs","title":"شرح سنن الدارمي كتاب الطهارة من باب ٢","publishedAt":"2019-04-04T22:18:52Z","duration":"PT34M20S","thumbnail":"https://i.ytimg.com/vi/RSApp1SuGNs/mqdefault.jpg","viewCount":"491","playlistId":"PLEkQk5xrP-tmAg-FuWjY057X_h5NmGmAa","playlistName":"شرح سنن الدارمي - أ.د. يسري جبر (كاملا)","category":"متنوع"},{"id":"oEGg4PVolYI","title":"مقرأة سورة الممتحنة من أولها","publishedAt":"2019-04-04T08:21:14Z","duration":"PT19M52S","thumbnail":"https://i.ytimg.com/vi/oEGg4PVolYI/mqdefault.jpg","viewCount":"476","playlistId":"PLEkQk5xrP-tnmTYsyW6xNdyfhPq0Bhrhj","playlistName":"مقرأة الفجر - القُرْآنُ الكَرِيمُ - خَتْمَةُ التَّدَبُّرِ  أ.د. يسري جبر","category":"متنوع"},{"id":"mDuMLmNmn7k","title":"شرح سنن الدارمي كتاب الطهارة من أوله","publishedAt":"2019-04-03T20:05:13Z","duration":"PT32M52S","thumbnail":"https://i.ytimg.com/vi/mDuMLmNmn7k/mqdefault.jpg","viewCount":"640","playlistId":"PLEkQk5xrP-tmAg-FuWjY057X_h5NmGmAa","playlistName":"شرح سنن الدارمي - أ.د. يسري جبر (كاملا)","category":"متنوع"},{"id":"VIFkTb7Ootc","title":"مقرأة سورة الحشر من آية ١٨","publishedAt":"2019-04-03T07:05:39Z","duration":"PT25M21S","thumbnail":"https://i.ytimg.com/vi/VIFkTb7Ootc/mqdefault.jpg","viewCount":"430","playlistId":"PLEkQk5xrP-tnmTYsyW6xNdyfhPq0Bhrhj","playlistName":"مقرأة الفجر - القُرْآنُ الكَرِيمُ - خَتْمَةُ التَّدَبُّرِ  أ.د. يسري جبر","category":"متنوع"},{"id":"hLHHJIhtkz0","title":"452- تحريم الرياء  - شرح دليل الفالحين","publishedAt":"2023-05-22T05:00:20Z","duration":"PT32M1S","thumbnail":"https://i.ytimg.com/vi/hLHHJIhtkz0/mqdefault.jpg","viewCount":"870","playlistId":"PLEkQk5xrP-tkc9DXvSLguqX5-FYp6ASR4","playlistName":"دليل الفالحين لطرق رياض الصالحين","category":"متنوع"},{"id":"txiPVGj-VQo","title":"451- تغليظ تحريم الرِّبا - شرح دليل الفالحين","publishedAt":"2023-05-21T05:00:32Z","duration":"PT31M47S","thumbnail":"https://i.ytimg.com/vi/txiPVGj-VQo/mqdefault.jpg","viewCount":"794","playlistId":"PLEkQk5xrP-tkc9DXvSLguqX5-FYp6ASR4","playlistName":"دليل الفالحين لطرق رياض الصالحين","category":"متنوع"},{"id":"h2SNtfXmCzM","title":"10- حكم ولوغ الكلب في الإناء وسؤر القطة - سنن الإمام الدار قطني رضي الله عنه","publishedAt":"2023-05-20T08:59:00Z","duration":"PT48M32S","thumbnail":"https://i.ytimg.com/vi/h2SNtfXmCzM/mqdefault.jpg","viewCount":"1052","playlistId":"PLEkQk5xrP-tk_MCBZ706ORCw6gFtFyaGj","playlistName":"شرح سنن الإمام الدارقطني","category":"متنوع"},{"id":"Vw7zOW8Pifg","title":"450- حكم الرجوع في الهِبة أو الصدقة - شرح دليل الفالحين","publishedAt":"2023-05-19T08:59:00Z","duration":"PT25M40S","thumbnail":"https://i.ytimg.com/vi/Vw7zOW8Pifg/mqdefault.jpg","viewCount":"803","playlistId":"PLEkQk5xrP-tkc9DXvSLguqX5-FYp6ASR4","playlistName":"دليل الفالحين لطرق رياض الصالحين","category":"متنوع"},{"id":"oALNF66HP9A","title":"449- النهي عن تعذيب العبد والدَّابَّة والمرأة والولد بغير سبب شرعيِّ أو زائد على قدْر الأدب","publishedAt":"2023-05-18T08:59:01Z","duration":"PT32M29S","thumbnail":"https://i.ytimg.com/vi/oALNF66HP9A/mqdefault.jpg","viewCount":"736","playlistId":"PLEkQk5xrP-tkc9DXvSLguqX5-FYp6ASR4","playlistName":"دليل الفالحين لطرق رياض الصالحين","category":"متنوع"},{"id":"jnT8vWurdyc","title":"كيف أتخلص من الكسل وفقدان الشغف؟","publishedAt":"2022-03-11T19:48:50Z","duration":"PT8M20S","thumbnail":"https://i.ytimg.com/vi/jnT8vWurdyc/mqdefault.jpg","viewCount":"14325","playlistId":"PLEkQk5xrP-tkGXuZ9atE3k_7it12rUPTs","playlistName":"أسئلة المتابعين","category":"متنوع"},{"id":"kW-x03FbiMU","title":"مَنْ نازعك على دُنْيَا، اتركْها له وقلْ سَلَامٌ","publishedAt":"2022-03-09T18:22:08Z","duration":"PT12M8S","thumbnail":"https://i.ytimg.com/vi/kW-x03FbiMU/mqdefault.jpg","viewCount":"15090","playlistId":"PLEkQk5xrP-tm8ZIu74nTOZN9KJUJu416J","playlistName":"مقاطع مُهمَّة (يُسريَّات) أ.د. يسري جبر","category":"متنوع"},{"id":"nYvPp5YnRMc","title":"215- كان رسولُ اللَّه ﷺ يبيتُ اللَّيالي المتتابعة طاويًا وأهلُه لا يجدون عَشاءً - شرح دليل الفالحين","publishedAt":"2022-03-08T19:00:48Z","duration":"PT30M54S","thumbnail":"https://i.ytimg.com/vi/nYvPp5YnRMc/mqdefault.jpg","viewCount":"1797","playlistId":"PLEkQk5xrP-tkc9DXvSLguqX5-FYp6ASR4","playlistName":"دليل الفالحين لطرق رياض الصالحين","category":"متنوع"},{"id":"N1dRQRXTMko","title":"214- \"خَيْرُكُمْ قَرْنِي، ثُمَّ الَّذينَ يَلُونَهُم، ثُمَّ الَّذينَ يَلُونَهُم…\" - شرح دليل الفالحين","publishedAt":"2022-03-07T19:29:40Z","duration":"PT33M3S","thumbnail":"https://i.ytimg.com/vi/N1dRQRXTMko/mqdefault.jpg","viewCount":"1236","playlistId":"PLEkQk5xrP-tkc9DXvSLguqX5-FYp6ASR4","playlistName":"دليل الفالحين لطرق رياض الصالحين","category":"متنوع"},{"id":"JooOq6Y92Zo","title":"332-  أبشِرْ بنورَينِ أوتيتَهما لم يؤتَهُما نبيٌّ قبلكَ - شرح دليل الفالحين","publishedAt":"2022-11-11T09:00:10Z","duration":"PT30M15S","thumbnail":"https://i.ytimg.com/vi/JooOq6Y92Zo/mqdefault.jpg","viewCount":"1077","playlistId":"PLEkQk5xrP-tkc9DXvSLguqX5-FYp6ASR4","playlistName":"دليل الفالحين لطرق رياض الصالحين","category":"متنوع"},{"id":"Q6KUMRZ_XU8","title":"كيفية التعامل مع الحكم الجبري وإن كان ظالما؟","publishedAt":"2022-11-10T18:00:19Z","duration":"PT8M11S","thumbnail":"https://i.ytimg.com/vi/Q6KUMRZ_XU8/mqdefault.jpg","viewCount":"5863","playlistId":"PLEkQk5xrP-tkGXuZ9atE3k_7it12rUPTs","playlistName":"أسئلة المتابعين","category":"متنوع"},{"id":"t6i_6MBVjns","title":"شرح سنن الدارمي - المقدمة - ٥٧","publishedAt":"2019-04-02T21:11:35Z","duration":"PT40M24S","thumbnail":"https://i.ytimg.com/vi/t6i_6MBVjns/mqdefault.jpg","viewCount":"463","playlistId":"PLEkQk5xrP-tmAg-FuWjY057X_h5NmGmAa","playlistName":"شرح سنن الدارمي - أ.د. يسري جبر (كاملا)","category":"متنوع"},{"id":"tvMQhmbqQ3c","title":"شرح كتاب دلائل الخيرات - المجلس السابع أ.د. يسري جبر","publishedAt":"2019-04-02T17:28:28Z","duration":"PT47M43S","thumbnail":"https://i.ytimg.com/vi/tvMQhmbqQ3c/mqdefault.jpg","viewCount":"36534","playlistId":"PLEkQk5xrP-tlAzcbIpuqjdFICW-knvTlR","playlistName":"شرح كتاب دلائل الخيرات وشوارق الأنوار","category":"متنوع"},{"id":"ejXENTqOVnc","title":"مقرأة سورة الحشر من آية ١١","publishedAt":"2019-04-02T08:35:31Z","duration":"PT15M14S","thumbnail":"https://i.ytimg.com/vi/ejXENTqOVnc/mqdefault.jpg","viewCount":"396","playlistId":"PLEkQk5xrP-tnmTYsyW6xNdyfhPq0Bhrhj","playlistName":"مقرأة الفجر - القُرْآنُ الكَرِيمُ - خَتْمَةُ التَّدَبُّرِ  أ.د. يسري جبر","category":"متنوع"},{"id":"OfXxB5rfRvE","title":"شرح سنن الدارمي - المقدمة - ٥٤","publishedAt":"2019-04-01T22:13:16Z","duration":"PT36M46S","thumbnail":"https://i.ytimg.com/vi/OfXxB5rfRvE/mqdefault.jpg","viewCount":"430","playlistId":"PLEkQk5xrP-tmAg-FuWjY057X_h5NmGmAa","playlistName":"شرح سنن الدارمي - أ.د. يسري جبر (كاملا)","category":"متنوع"},{"id":"XrPzupgmSd0","title":"مقرأة سورة الحشر من آية ٦","publishedAt":"2019-04-01T13:22:49Z","duration":"PT14M26S","thumbnail":"https://i.ytimg.com/vi/XrPzupgmSd0/mqdefault.jpg","viewCount":"437","playlistId":"PLEkQk5xrP-tnmTYsyW6xNdyfhPq0Bhrhj","playlistName":"مقرأة الفجر - القُرْآنُ الكَرِيمُ - خَتْمَةُ التَّدَبُّرِ  أ.د. يسري جبر","category":"متنوع"},{"id":"JSplhX7tcBY","title":"شرح سنن الدارمي - المقدمة - ٥١","publishedAt":"2019-03-31T21:18:03Z","duration":"PT36M59S","thumbnail":"https://i.ytimg.com/vi/JSplhX7tcBY/mqdefault.jpg","viewCount":"452","playlistId":"PLEkQk5xrP-tmAg-FuWjY057X_h5NmGmAa","playlistName":"شرح سنن الدارمي - أ.د. يسري جبر (كاملا)","category":"متنوع"},{"id":"qIUV29D2JAQ","title":"مقرأة سورة الحشر من أولها","publishedAt":"2019-03-31T14:12:22Z","duration":"PT25M55S","thumbnail":"https://i.ytimg.com/vi/qIUV29D2JAQ/mqdefault.jpg","viewCount":"672","playlistId":"PLEkQk5xrP-tnmTYsyW6xNdyfhPq0Bhrhj","playlistName":"مقرأة الفجر - القُرْآنُ الكَرِيمُ - خَتْمَةُ التَّدَبُّرِ  أ.د. يسري جبر","category":"متنوع"}],"total":4126,"page":40,"pageSize":24,"totalPages":172}