{"items":[{"id":"SnlA-XRi4A8","title":"سبب دارستي للعلوم الدينية,, ونصيحة للمريدين في أول الطريق","publishedAt":"2021-07-09T18:45:01Z","duration":"PT15M38S","thumbnail":"https://i.ytimg.com/vi/SnlA-XRi4A8/mqdefault.jpg","viewCount":"53781","playlistId":"PLEkQk5xrP-tl6tFiMFGUucCTvLgnWyAfz","playlistName":"حياة الأستاذ الدكتور يسري جبر","category":"متنوع"},{"id":"4PeYKM2TPdE","title":"95- \"الدِّينُ النَّصِيحَة…\" - شرح دليل الفالحين","publishedAt":"2021-07-09T05:21:50Z","duration":"PT31M38S","thumbnail":"https://i.ytimg.com/vi/4PeYKM2TPdE/mqdefault.jpg","viewCount":"1228","playlistId":"PLEkQk5xrP-tkc9DXvSLguqX5-FYp6ASR4","playlistName":"دليل الفالحين لطرق رياض الصالحين","category":"متنوع"},{"id":"IqvBqUyUjnQ","title":"448- النهي عن تناجي اثنين دون الثالث بغير إذنه إلا لحاجة - شرح دليل الفالحين","publishedAt":"2023-05-17T08:59:00Z","duration":"PT27M36S","thumbnail":"https://i.ytimg.com/vi/IqvBqUyUjnQ/mqdefault.jpg","viewCount":"553","playlistId":"PLEkQk5xrP-tkc9DXvSLguqX5-FYp6ASR4","playlistName":"دليل الفالحين لطرق رياض الصالحين","category":"متنوع"},{"id":"vxjkKV3QykU","title":"زوجي بيضربني دايما بدون سبب فماذا أفعل؟","publishedAt":"2023-05-16T18:00:23Z","duration":"PT8M14S","thumbnail":"https://i.ytimg.com/vi/vxjkKV3QykU/mqdefault.jpg","viewCount":"6351","playlistId":"PLEkQk5xrP-tkGXuZ9atE3k_7it12rUPTs","playlistName":"أسئلة المتابعين","category":"متنوع"},{"id":"vjplyEesiYw","title":"477- تحريم الهِجران بين المسلمين فوق ثلاثة أيام إلا لبدعة في المهجور أو تظاهرٍ بفسقٍ أو نحو ذلك","publishedAt":"2023-05-16T05:00:20Z","duration":"PT37M10S","thumbnail":"https://i.ytimg.com/vi/vjplyEesiYw/mqdefault.jpg","viewCount":"1122","playlistId":"PLEkQk5xrP-tkc9DXvSLguqX5-FYp6ASR4","playlistName":"دليل الفالحين لطرق رياض الصالحين","category":"متنوع"},{"id":"Kfe7F-xhSP8","title":"446- النهي عن المَنِّ بالعَطِيَّة ونحوه - شرح دليل الفالحين","publishedAt":"2023-05-14T08:59:00Z","duration":"PT22M18S","thumbnail":"https://i.ytimg.com/vi/Kfe7F-xhSP8/mqdefault.jpg","viewCount":"835","playlistId":"PLEkQk5xrP-tkc9DXvSLguqX5-FYp6ASR4","playlistName":"دليل الفالحين لطرق رياض الصالحين","category":"متنوع"},{"id":"RokkzmzA5sQ","title":"ما تعليقك على صورة د.أسامة الأزهري المنتشرة؟ | دفاعًا عن علماء الأزهر","publishedAt":"2023-05-13T18:00:06Z","duration":"PT19M33S","thumbnail":"https://i.ytimg.com/vi/RokkzmzA5sQ/mqdefault.jpg","viewCount":"48071","playlistId":"PLEkQk5xrP-tm8ZIu74nTOZN9KJUJu416J","playlistName":"مقاطع مُهمَّة (يُسريَّات) أ.د. يسري جبر","category":"متنوع"},{"id":"5AKGJgehBjs","title":"445- النهي عن الغِشِّ والخِداع - شرح دليل الفالحين","publishedAt":"2023-05-12T18:00:02Z","duration":"PT30M36S","thumbnail":"https://i.ytimg.com/vi/5AKGJgehBjs/mqdefault.jpg","viewCount":"720","playlistId":"PLEkQk5xrP-tkc9DXvSLguqX5-FYp6ASR4","playlistName":"دليل الفالحين لطرق رياض الصالحين","category":"متنوع"},{"id":"yRkchM1lzHc","title":"444- تحريم احتقار المسلمين - شرح دليل الفالحين","publishedAt":"2023-05-12T08:59:00Z","duration":"PT24M34S","thumbnail":"https://i.ytimg.com/vi/yRkchM1lzHc/mqdefault.jpg","viewCount":"767","playlistId":"PLEkQk5xrP-tkc9DXvSLguqX5-FYp6ASR4","playlistName":"دليل الفالحين لطرق رياض الصالحين","category":"متنوع"},{"id":"BIeZ_JixEAU","title":"443- النَّهي عن التجسُّس والتَّسَمُّع لكلام من يكره استماعه - شرح دليل الفالحين","publishedAt":"2023-05-11T18:00:07Z","duration":"PT36M27S","thumbnail":"https://i.ytimg.com/vi/BIeZ_JixEAU/mqdefault.jpg","viewCount":"818","playlistId":"PLEkQk5xrP-tkc9DXvSLguqX5-FYp6ASR4","playlistName":"دليل الفالحين لطرق رياض الصالحين","category":"متنوع"},{"id":"Tp5_aDEyb5o","title":"442- تحريم سَبِّ الأموات بغير حَقٍّ ومصلحةٍ شرعيَّة - شرح دليل الفالحين","publishedAt":"2023-05-09T18:00:09Z","duration":"PT32M53S","thumbnail":"https://i.ytimg.com/vi/Tp5_aDEyb5o/mqdefault.jpg","viewCount":"728","playlistId":"PLEkQk5xrP-tkc9DXvSLguqX5-FYp6ASR4","playlistName":"دليل الفالحين لطرق رياض الصالحين","category":"متنوع"},{"id":"rGV-OgzEKu4","title":"441- تحريم سَبِّ المسلم بغير حَق - شرح دليل الفالحين","publishedAt":"2023-05-09T08:59:00Z","duration":"PT23M45S","thumbnail":"https://i.ytimg.com/vi/rGV-OgzEKu4/mqdefault.jpg","viewCount":"644","playlistId":"PLEkQk5xrP-tkc9DXvSLguqX5-FYp6ASR4","playlistName":"دليل الفالحين لطرق رياض الصالحين","category":"متنوع"},{"id":"lGsp2sMsbAY","title":"440- جواز لَعْن أصحاب المعاصي غير المُعَيَّنين - شرح دليل الفالحين","publishedAt":"2023-05-08T09:01:00Z","duration":"PT28M56S","thumbnail":"https://i.ytimg.com/vi/lGsp2sMsbAY/mqdefault.jpg","viewCount":"1030","playlistId":"PLEkQk5xrP-tkc9DXvSLguqX5-FYp6ASR4","playlistName":"دليل الفالحين لطرق رياض الصالحين","category":"متنوع"},{"id":"_Tg-w-oud34","title":"439- غِلَظ تحريمِ شهادةِ الزور - شرح دليل الفالحين","publishedAt":"2023-05-07T18:00:12Z","duration":"PT42M4S","thumbnail":"https://i.ytimg.com/vi/_Tg-w-oud34/mqdefault.jpg","viewCount":"645","playlistId":"PLEkQk5xrP-tkc9DXvSLguqX5-FYp6ASR4","playlistName":"دليل الفالحين لطرق رياض الصالحين","category":"متنوع"},{"id":"dOfLo8-VhXE","title":"من هو أول خلق الله؟","publishedAt":"2021-02-06T18:56:05Z","duration":"PT15M12S","thumbnail":"https://i.ytimg.com/vi/dOfLo8-VhXE/mqdefault.jpg","viewCount":"29929","playlistId":"PLEkQk5xrP-tm8ZIu74nTOZN9KJUJu416J","playlistName":"مقاطع مُهمَّة (يُسريَّات) أ.د. يسري جبر","category":"متنوع"},{"id":"TgFpCd5dQEw","title":"15- الحديث السادس - شرح كتاب دليل الفالحين لطرق رياض الصالحين","publishedAt":"2021-02-06T08:10:59Z","duration":"PT18M29S","thumbnail":"https://i.ytimg.com/vi/TgFpCd5dQEw/mqdefault.jpg","viewCount":"1996","playlistId":"PLEkQk5xrP-tkc9DXvSLguqX5-FYp6ASR4","playlistName":"دليل الفالحين لطرق رياض الصالحين","category":"متنوع"},{"id":"Uu0cRwADfP4","title":"كيف يشعر بنا الأموات؟","publishedAt":"2021-02-05T20:08:38Z","duration":"PT12M25S","thumbnail":"https://i.ytimg.com/vi/Uu0cRwADfP4/mqdefault.jpg","viewCount":"25714","playlistId":"PLEkQk5xrP-tm8ZIu74nTOZN9KJUJu416J","playlistName":"مقاطع مُهمَّة (يُسريَّات) أ.د. يسري جبر","category":"متنوع"},{"id":"vX4QPFODldw","title":"كيف تحمي نفسك من الأفكار الوهابية؟","publishedAt":"2021-02-04T19:30:03Z","duration":"PT12M56S","thumbnail":"https://i.ytimg.com/vi/vX4QPFODldw/mqdefault.jpg","viewCount":"67436","playlistId":"PLEkQk5xrP-tm8ZIu74nTOZN9KJUJu416J","playlistName":"مقاطع مُهمَّة (يُسريَّات) أ.د. يسري جبر","category":"متنوع"},{"id":"Q4unoU1zTf0","title":"14- الحديث الثالث\"لا هِجْرةَ بعد الفتْح ولكنْ جهادٌ ونيَّة\"شرح كتاب دليل الفالحين لطرق رياض الصالحين","publishedAt":"2021-02-04T07:10:52Z","duration":"PT27M38S","thumbnail":"https://i.ytimg.com/vi/Q4unoU1zTf0/mqdefault.jpg","viewCount":"2127","playlistId":"PLEkQk5xrP-tkc9DXvSLguqX5-FYp6ASR4","playlistName":"دليل الفالحين لطرق رياض الصالحين","category":"متنوع"},{"id":"_nPFnPflZZE","title":"ما هو أسلوب التربية الصحيحة للأبناء؟","publishedAt":"2021-02-03T18:56:44Z","duration":"PT13M30S","thumbnail":"https://i.ytimg.com/vi/_nPFnPflZZE/mqdefault.jpg","viewCount":"16713","playlistId":"PLEkQk5xrP-tm8ZIu74nTOZN9KJUJu416J","playlistName":"مقاطع مُهمَّة (يُسريَّات) أ.د. يسري جبر","category":"متنوع"},{"id":"G8kp4t6C-LU","title":"13- الحديث الثاني\" يغزو جيشٌ الكعبة...\" شرح كتاب دليل الفالحين لطرق رياض الصالحين","publishedAt":"2021-02-02T07:03:47Z","duration":"PT22M6S","thumbnail":"https://i.ytimg.com/vi/G8kp4t6C-LU/mqdefault.jpg","viewCount":"4185","playlistId":"PLEkQk5xrP-tkc9DXvSLguqX5-FYp6ASR4","playlistName":"دليل الفالحين لطرق رياض الصالحين","category":"متنوع"},{"id":"x9LBWk6J3DI","title":"12- \"ومن كانت هجرته لدنيا يصيبها..\" تكملة شرح حديث\"إنَّما الأعمال بالنيّات، وإنَما لكل امرئٍ ما نوى\"","publishedAt":"2021-01-31T08:02:39Z","duration":"PT47M39S","thumbnail":"https://i.ytimg.com/vi/x9LBWk6J3DI/mqdefault.jpg","viewCount":"3328","playlistId":"PLEkQk5xrP-tkc9DXvSLguqX5-FYp6ASR4","playlistName":"دليل الفالحين لطرق رياض الصالحين","category":"متنوع"},{"id":"PWJz6u3OXAA","title":"برنامج - عصمة الأنبياء - الحلقة السابعة والعشرون -  @alerthTV","publishedAt":"2021-01-30T09:13:37Z","duration":"PT28M21S","thumbnail":"https://i.ytimg.com/vi/PWJz6u3OXAA/mqdefault.jpg","viewCount":"446","playlistId":"PLEkQk5xrP-tnBp9yUT_R2vtqSPOlcyAZe","playlistName":"برنامج - عصمة الأنبياء","category":"متنوع"},{"id":"_o3wJEh2Ka0","title":"برنامج - عصمة الأنبياء - الحلقة السادسة والعشرون -  @alerthTV","publishedAt":"2021-01-30T09:11:33Z","duration":"PT27M52S","thumbnail":"https://i.ytimg.com/vi/_o3wJEh2Ka0/mqdefault.jpg","viewCount":"466","playlistId":"PLEkQk5xrP-tnBp9yUT_R2vtqSPOlcyAZe","playlistName":"برنامج - عصمة الأنبياء","category":"متنوع"}],"total":4126,"page":162,"pageSize":24,"totalPages":172}