{"items":[{"id":"9L2NriAeSTg","title":"شرح كتاب القدر من سنن الترمذي - المجلس الثاني","publishedAt":"2015-12-11T06:10:00Z","duration":"PT37M1S","thumbnail":"https://i.ytimg.com/vi/9L2NriAeSTg/mqdefault.jpg","viewCount":"161","playlistId":"PLEkQk5xrP-tnu6of679SvxdVx0qSrJzmb","playlistName":"شرح سنن الإمام الترمذي رضى الله عنه د. يسري جبر","category":"متنوع"},{"id":"KF7vbjl0LKU","title":"آداب طالب العلم","publishedAt":"2015-12-10T20:21:09Z","duration":"PT1H9M40S","thumbnail":"https://i.ytimg.com/vi/KF7vbjl0LKU/mqdefault.jpg","viewCount":"731","playlistId":"PLEkQk5xrP-tmJzNvLntpzW0uPanPzxA0c","playlistName":"لقاءات ومحاضرات","category":"متنوع"},{"id":"92sDrseOqLw","title":"شرح كتاب القدر من سنن الترمذي - المجلس الأول","publishedAt":"2015-12-10T05:54:26Z","duration":"PT30M6S","thumbnail":"https://i.ytimg.com/vi/92sDrseOqLw/mqdefault.jpg","viewCount":"217","playlistId":"PLEkQk5xrP-tnu6of679SvxdVx0qSrJzmb","playlistName":"شرح سنن الإمام الترمذي رضى الله عنه د. يسري جبر","category":"متنوع"},{"id":"pEC5IbuPrHk","title":"شرح كتاب الولاء والهبة من سنن الترمذي","publishedAt":"2015-12-09T06:05:23Z","duration":"PT50M6S","thumbnail":"https://i.ytimg.com/vi/pEC5IbuPrHk/mqdefault.jpg","viewCount":"91","playlistId":"PLEkQk5xrP-tnu6of679SvxdVx0qSrJzmb","playlistName":"شرح سنن الإمام الترمذي رضى الله عنه د. يسري جبر","category":"متنوع"},{"id":"yRzUtqnlXpM","title":"شرح كتاب الفرائض من سنن الترمذي - المجلس الثاني","publishedAt":"2015-12-09T04:02:44Z","duration":"PT30M31S","thumbnail":"https://i.ytimg.com/vi/yRzUtqnlXpM/mqdefault.jpg","viewCount":"120","playlistId":"PLEkQk5xrP-tnu6of679SvxdVx0qSrJzmb","playlistName":"شرح سنن الإمام الترمذي رضى الله عنه د. يسري جبر","category":"متنوع"},{"id":"f0FS1dccsdU","title":"شرح كتاب الفرائض من سنن الترمذي - المجلس الثالث","publishedAt":"2015-12-09T00:55:09Z","duration":"PT31M12S","thumbnail":"https://i.ytimg.com/vi/f0FS1dccsdU/mqdefault.jpg","viewCount":"77","playlistId":"PLEkQk5xrP-tnu6of679SvxdVx0qSrJzmb","playlistName":"شرح سنن الإمام الترمذي رضى الله عنه د. يسري جبر","category":"متنوع"},{"id":"BNjZqXwrDyo","title":"136- \"إذا دعا الرَّجلُ زوجتَهُ لحاجتِهِ فلتأتِهِ وإن كانت على التَّنُّورِ\" - شرح دليل الفالحين","publishedAt":"2021-10-04T06:19:30Z","duration":"PT36M2S","thumbnail":"https://i.ytimg.com/vi/BNjZqXwrDyo/mqdefault.jpg","viewCount":"3566","playlistId":"PLEkQk5xrP-tkc9DXvSLguqX5-FYp6ASR4","playlistName":"دليل الفالحين لطرق رياض الصالحين","category":"متنوع"},{"id":"L7moyWmnYQg","title":"135- حقُّ الزَّوج على المرأة - شرح دليل الفالحين","publishedAt":"2021-10-03T05:52:48Z","duration":"PT42M57S","thumbnail":"https://i.ytimg.com/vi/L7moyWmnYQg/mqdefault.jpg","viewCount":"2296","playlistId":"PLEkQk5xrP-tkc9DXvSLguqX5-FYp6ASR4","playlistName":"دليل الفالحين لطرق رياض الصالحين","category":"متنوع"},{"id":"PArlAkVg0_4","title":"كرامات السيد أحمد البدوي رضي اللهُ عنه","publishedAt":"2021-10-02T19:00:17Z","duration":"PT9M8S","thumbnail":"https://i.ytimg.com/vi/PArlAkVg0_4/mqdefault.jpg","viewCount":"288866","playlistId":"PLEkQk5xrP-tm8ZIu74nTOZN9KJUJu416J","playlistName":"مقاطع مُهمَّة (يُسريَّات) أ.د. يسري جبر","category":"متنوع"},{"id":"in7kclKxrrw","title":"134- …\"ما حقُّ زَوجةِ أحدِنا علَيهِ ؟ ، قالَ : أن تُطْعِمَها إذا طَعِمْتَ…\" شرح دليل الفالحين","publishedAt":"2021-09-30T20:03:25Z","duration":"PT37M24S","thumbnail":"https://i.ytimg.com/vi/in7kclKxrrw/mqdefault.jpg","viewCount":"1546","playlistId":"PLEkQk5xrP-tkc9DXvSLguqX5-FYp6ASR4","playlistName":"دليل الفالحين لطرق رياض الصالحين","category":"متنوع"},{"id":"A686tGZkUuI","title":"الفرق بين العادة والعبادة | أ.د. يسري جبر","publishedAt":"2022-04-12T19:40:02Z","duration":"PT19M58S","thumbnail":"https://i.ytimg.com/vi/A686tGZkUuI/mqdefault.jpg","viewCount":"2437","playlistId":"PLEkQk5xrP-tnl7vb7KeAoPd5ZlqKKW8KV","playlistName":"شرح كتاب بهجة النفوس أ.د . يسرى جبر","category":"متنوع"},{"id":"UzgXGTz7XKw","title":"232- \"…ومَن كان معه فضلُ زادٍ فلْيعُدْ به على مَن لا زادَ له…\" - شرح دليل الفالحين","publishedAt":"2022-04-12T06:39:21Z","duration":"PT31M29S","thumbnail":"https://i.ytimg.com/vi/UzgXGTz7XKw/mqdefault.jpg","viewCount":"962","playlistId":"PLEkQk5xrP-tkc9DXvSLguqX5-FYp6ASR4","playlistName":"دليل الفالحين لطرق رياض الصالحين","category":"متنوع"},{"id":"rGKurQiTMHQ","title":"وَصِيَّةُ النَّبيّ ﷺ للأُمَّة ٤ والأخير | أ.د. يسري جبر","publishedAt":"2022-04-11T17:53:58Z","duration":"PT20M29S","thumbnail":"https://i.ytimg.com/vi/rGKurQiTMHQ/mqdefault.jpg","viewCount":"1171","playlistId":"PLEkQk5xrP-tnl7vb7KeAoPd5ZlqKKW8KV","playlistName":"شرح كتاب بهجة النفوس أ.د . يسرى جبر","category":"متنوع"},{"id":"9cwZLLgjYz4","title":"231- الإيثارُ والمُوَاسَاة - شرح دليل الفالحين","publishedAt":"2022-04-11T05:56:25Z","duration":"PT29M27S","thumbnail":"https://i.ytimg.com/vi/9cwZLLgjYz4/mqdefault.jpg","viewCount":"785","playlistId":"PLEkQk5xrP-tkc9DXvSLguqX5-FYp6ASR4","playlistName":"دليل الفالحين لطرق رياض الصالحين","category":"متنوع"},{"id":"FKHBcXk8psQ","title":"وَصِيَّةُ النَّبيّ ﷺ للأُمَّة ۳ | أ.د. يسري جبر","publishedAt":"2022-04-10T17:14:15Z","duration":"PT23M14S","thumbnail":"https://i.ytimg.com/vi/FKHBcXk8psQ/mqdefault.jpg","viewCount":"918","playlistId":"PLEkQk5xrP-tnl7vb7KeAoPd5ZlqKKW8KV","playlistName":"شرح كتاب بهجة النفوس أ.د . يسرى جبر","category":"متنوع"},{"id":"j1I1u5-vCFE","title":"لماذا يتم إزالة بعض المساجد في مصر؟","publishedAt":"2022-04-09T19:30:16Z","duration":"PT8M1S","thumbnail":"https://i.ytimg.com/vi/j1I1u5-vCFE/mqdefault.jpg","viewCount":"5457","playlistId":"PLEkQk5xrP-tkGXuZ9atE3k_7it12rUPTs","playlistName":"أسئلة المتابعين","category":"متنوع"},{"id":"SfBTomMgGbI","title":"وَصِيَّةُ النَّبيّ ﷺ للأُمَّة ۲ | أ.د. يسري جبر","publishedAt":"2022-04-09T15:30:04Z","duration":"PT29M31S","thumbnail":"https://i.ytimg.com/vi/SfBTomMgGbI/mqdefault.jpg","viewCount":"1114","playlistId":"PLEkQk5xrP-tnl7vb7KeAoPd5ZlqKKW8KV","playlistName":"شرح كتاب بهجة النفوس أ.د . يسرى جبر","category":"متنوع"},{"id":"iIWDX0C7gcI","title":"شرح كتاب الفرائض من سنن الترمذي - المجلس الرابع","publishedAt":"2015-12-09T00:47:50Z","duration":"PT37M41S","thumbnail":"https://i.ytimg.com/vi/iIWDX0C7gcI/mqdefault.jpg","viewCount":"98","playlistId":"PLEkQk5xrP-tnu6of679SvxdVx0qSrJzmb","playlistName":"شرح سنن الإمام الترمذي رضى الله عنه د. يسري جبر","category":"متنوع"},{"id":"BlLQfHCPa70","title":"شرح كتاب الفرائض من سنن الترمذي - المجلس الأول","publishedAt":"2015-12-08T21:04:43Z","duration":"PT42M47S","thumbnail":"https://i.ytimg.com/vi/BlLQfHCPa70/mqdefault.jpg","viewCount":"148","playlistId":"PLEkQk5xrP-tnu6of679SvxdVx0qSrJzmb","playlistName":"شرح سنن الإمام الترمذي رضى الله عنه د. يسري جبر","category":"متنوع"},{"id":"O2SXLE2RcXI","title":"شرح كتاب الوصايا من سنن الترمذي","publishedAt":"2015-12-08T05:59:22Z","duration":"PT46M","thumbnail":"https://i.ytimg.com/vi/O2SXLE2RcXI/mqdefault.jpg","viewCount":"110","playlistId":"PLEkQk5xrP-tnu6of679SvxdVx0qSrJzmb","playlistName":"شرح سنن الإمام الترمذي رضى الله عنه د. يسري جبر","category":"متنوع"},{"id":"C0aa-l2R8oc","title":"الموقف تجاه الفتنة الكبرى بين الصحابة  د. يسرى جبر","publishedAt":"2015-12-07T16:30:59Z","duration":"PT3M28S","thumbnail":"https://i.ytimg.com/vi/C0aa-l2R8oc/mqdefault.jpg","viewCount":"4066","playlistId":"PLEkQk5xrP-tm8ZIu74nTOZN9KJUJu416J","playlistName":"مقاطع مُهمَّة (يُسريَّات) أ.د. يسري جبر","category":"متنوع"},{"id":"9LJDxqX9a9o","title":"بشوف أشياء غريبة وخايفة يكون جن ,, ماذا أفعل؟","publishedAt":"2021-06-27T18:55:25Z","duration":"PT10M5S","thumbnail":"https://i.ytimg.com/vi/9LJDxqX9a9o/mqdefault.jpg","viewCount":"9081","playlistId":"PLEkQk5xrP-tm8ZIu74nTOZN9KJUJu416J","playlistName":"مقاطع مُهمَّة (يُسريَّات) أ.د. يسري جبر","category":"متنوع"},{"id":"UwtlTXhbySc","title":"84- \"لا صام مَن صام الأبد\" - شرح دليل الفالحين","publishedAt":"2021-06-27T05:49:46Z","duration":"PT44M6S","thumbnail":"https://i.ytimg.com/vi/UwtlTXhbySc/mqdefault.jpg","viewCount":"1163","playlistId":"PLEkQk5xrP-tkc9DXvSLguqX5-FYp6ASR4","playlistName":"دليل الفالحين لطرق رياض الصالحين","category":"متنوع"},{"id":"upEZQE5WhKc","title":"أريد التوبة ولكن أكرر الذنب ,, ماذا أفعل؟","publishedAt":"2021-06-26T19:10:09Z","duration":"PT11M28S","thumbnail":"https://i.ytimg.com/vi/upEZQE5WhKc/mqdefault.jpg","viewCount":"8946","playlistId":"PLEkQk5xrP-tm8ZIu74nTOZN9KJUJu416J","playlistName":"مقاطع مُهمَّة (يُسريَّات) أ.د. يسري جبر","category":"متنوع"}],"total":4126,"page":145,"pageSize":24,"totalPages":172}