{"items":[{"id":"qOjDsHlEdAs","title":"مقرأة سورة ص من آية ٦٥","publishedAt":"2018-10-08T12:51:18Z","duration":"PT45M45S","thumbnail":"https://i.ytimg.com/vi/qOjDsHlEdAs/mqdefault.jpg","viewCount":"466","playlistId":"PLEkQk5xrP-tnmTYsyW6xNdyfhPq0Bhrhj","playlistName":"مقرأة الفجر - القُرْآنُ الكَرِيمُ - خَتْمَةُ التَّدَبُّرِ  أ.د. يسري جبر","category":"متنوع"},{"id":"mlxTkBgaI9w","title":"شرح كتاب البيوع من سنن الترمذي - المجلس الرابع عشر","publishedAt":"2015-06-06T04:04:15Z","duration":"PT35M1S","thumbnail":"https://i.ytimg.com/vi/mlxTkBgaI9w/mqdefault.jpg","viewCount":"136","playlistId":"PLEkQk5xrP-tnu6of679SvxdVx0qSrJzmb","playlistName":"شرح سنن الإمام الترمذي رضى الله عنه د. يسري جبر","category":"متنوع"},{"id":"LG7lfH5rstE","title":"شرح كتاب البيوع من سنن الترمذي - المجلس الثالث عشر","publishedAt":"2015-06-05T06:03:22Z","duration":"PT36M52S","thumbnail":"https://i.ytimg.com/vi/LG7lfH5rstE/mqdefault.jpg","viewCount":"201","playlistId":"PLEkQk5xrP-tnu6of679SvxdVx0qSrJzmb","playlistName":"شرح سنن الإمام الترمذي رضى الله عنه د. يسري جبر","category":"متنوع"},{"id":"9_LxN5tSOIs","title":"شرح كتاب البيوع من سنن الترمذي - المجلس الثاني عشر","publishedAt":"2015-06-04T04:16:15Z","duration":"PT36M29S","thumbnail":"https://i.ytimg.com/vi/9_LxN5tSOIs/mqdefault.jpg","viewCount":"123","playlistId":"PLEkQk5xrP-tnu6of679SvxdVx0qSrJzmb","playlistName":"شرح سنن الإمام الترمذي رضى الله عنه د. يسري جبر","category":"متنوع"},{"id":"_uGA8Aet6-U","title":"قدسية عقد الزواج وسر نجاحه","publishedAt":"2022-09-01T19:00:24Z","duration":"PT20M35S","thumbnail":"https://i.ytimg.com/vi/_uGA8Aet6-U/mqdefault.jpg","viewCount":"4172","playlistId":"PLEkQk5xrP-tm8ZIu74nTOZN9KJUJu416J","playlistName":"مقاطع مُهمَّة (يُسريَّات) أ.د. يسري جبر","category":"متنوع"},{"id":"Lkpahq5GGYc","title":"295- آدَابُ النَّومِ - شرح دليل الفالحين","publishedAt":"2022-09-01T06:30:06Z","duration":"PT35M13S","thumbnail":"https://i.ytimg.com/vi/Lkpahq5GGYc/mqdefault.jpg","viewCount":"1362","playlistId":"PLEkQk5xrP-tkc9DXvSLguqX5-FYp6ASR4","playlistName":"دليل الفالحين لطرق رياض الصالحين","category":"متنوع"},{"id":"NPuPePQnnbY","title":"294- النهي عن افتراش جلود النمور والركوب عليها - شرح دليل الفالحين","publishedAt":"2022-08-30T18:30:32Z","duration":"PT35M32S","thumbnail":"https://i.ytimg.com/vi/NPuPePQnnbY/mqdefault.jpg","viewCount":"918","playlistId":"PLEkQk5xrP-tkc9DXvSLguqX5-FYp6ASR4","playlistName":"دليل الفالحين لطرق رياض الصالحين","category":"متنوع"},{"id":"dOCmnLHZLbM","title":"293- استحبابُ تركِ التَّرفُّعِ في اللباسِ تواضُعًا - شرح دليل الفالحين","publishedAt":"2022-08-30T06:15:03Z","duration":"PT51M14S","thumbnail":"https://i.ytimg.com/vi/dOCmnLHZLbM/mqdefault.jpg","viewCount":"801","playlistId":"PLEkQk5xrP-tkc9DXvSLguqX5-FYp6ASR4","playlistName":"دليل الفالحين لطرق رياض الصالحين","category":"متنوع"},{"id":"OCb270j89o4","title":"292- صفة طُول القَميصِ والكُمِّ والإزارِ وطرفِ العِمَامةِ… - شرح دليل الفالحين","publishedAt":"2022-08-29T06:15:00Z","duration":"PT57M27S","thumbnail":"https://i.ytimg.com/vi/OCb270j89o4/mqdefault.jpg","viewCount":"1043","playlistId":"PLEkQk5xrP-tkc9DXvSLguqX5-FYp6ASR4","playlistName":"دليل الفالحين لطرق رياض الصالحين","category":"متنوع"},{"id":"06Ry9VJCvhM","title":"13- كَلَامُهُ وَالسَّمْعُ وَالإِبْصَارُ *** فَهْوَ الإِلَهُ الفَاعِلُ المُخْتَارُ","publishedAt":"2022-08-28T19:45:00Z","duration":"PT52M38S","thumbnail":"https://i.ytimg.com/vi/06Ry9VJCvhM/mqdefault.jpg","viewCount":"2602","playlistId":"PLEkQk5xrP-tmNuYT8JAh6clwa4krsgkNo","playlistName":"شرح كتاب الفُتُوحات اليُسريَّة في عقائد الأُمَّة المُحمَّديَّة","category":"متنوع"},{"id":"QAy9qvNTUvo","title":"291- استحباب القميص - شرح دليل الفالحين","publishedAt":"2022-08-27T18:15:03Z","duration":"PT52M41S","thumbnail":"https://i.ytimg.com/vi/QAy9qvNTUvo/mqdefault.jpg","viewCount":"1082","playlistId":"PLEkQk5xrP-tkc9DXvSLguqX5-FYp6ASR4","playlistName":"دليل الفالحين لطرق رياض الصالحين","category":"متنوع"},{"id":"tMsWjMdX3K0","title":"هل يمكن الجمع بين الطب والعلم الشرعي والتصوف؟","publishedAt":"2022-08-26T06:15:02Z","duration":"PT1H32M23S","thumbnail":"https://i.ytimg.com/vi/tMsWjMdX3K0/mqdefault.jpg","viewCount":"9422","playlistId":"PLEkQk5xrP-tm8ZIu74nTOZN9KJUJu416J","playlistName":"مقاطع مُهمَّة (يُسريَّات) أ.د. يسري جبر","category":"متنوع"},{"id":"QefZZTur1Uo","title":"ما معنى قراءة الفاتحة لسيدنا محمد ﷺ؟","publishedAt":"2022-08-25T18:00:15Z","duration":"PT10M17S","thumbnail":"https://i.ytimg.com/vi/QefZZTur1Uo/mqdefault.jpg","viewCount":"7344","playlistId":"PLEkQk5xrP-tkGXuZ9atE3k_7it12rUPTs","playlistName":"أسئلة المتابعين","category":"متنوع"},{"id":"Zhw4TePuyDc","title":"290- حكم لبس العمامة السوداء - شرح دليل الفالحين","publishedAt":"2022-08-24T05:30:10Z","duration":"PT34M3S","thumbnail":"https://i.ytimg.com/vi/Zhw4TePuyDc/mqdefault.jpg","viewCount":"1224","playlistId":"PLEkQk5xrP-tkc9DXvSLguqX5-FYp6ASR4","playlistName":"دليل الفالحين لطرق رياض الصالحين","category":"متنوع"},{"id":"xNgj6HkDHo8","title":"كيف أنظم وقتي؟","publishedAt":"2022-08-21T18:00:30Z","duration":"PT8M48S","thumbnail":"https://i.ytimg.com/vi/xNgj6HkDHo8/mqdefault.jpg","viewCount":"22628","playlistId":"PLEkQk5xrP-tkGXuZ9atE3k_7it12rUPTs","playlistName":"أسئلة المتابعين","category":"متنوع"},{"id":"NwP9QeElMAA","title":"289- استحباب الثوب الأبيض وجواز الأخضر والأحمر والأصفر والأسود - شرح دليل الفالحين","publishedAt":"2022-08-21T05:30:05Z","duration":"PT35M46S","thumbnail":"https://i.ytimg.com/vi/NwP9QeElMAA/mqdefault.jpg","viewCount":"1019","playlistId":"PLEkQk5xrP-tkc9DXvSLguqX5-FYp6ASR4","playlistName":"دليل الفالحين لطرق رياض الصالحين","category":"متنوع"},{"id":"2pK89mNneqk","title":"26- هل تقبيل الزوجة ينقض الوضوء؟","publishedAt":"2023-12-23T09:30:02Z","duration":"PT33M32S","thumbnail":"https://i.ytimg.com/vi/2pK89mNneqk/mqdefault.jpg","viewCount":"1154","playlistId":"PLEkQk5xrP-tk_MCBZ706ORCw6gFtFyaGj","playlistName":"شرح سنن الإمام الدارقطني","category":"متنوع"},{"id":"hK2e3Vn1p5M","title":"56- صِفةُ خَلْقِ النَّبيّ ﷺ وأنَّه كان أحسَنَ النَّاسِ خَلْقًا - شرح مسند الإمام أحمد","publishedAt":"2023-12-23T06:15:01Z","duration":"PT29M35S","thumbnail":"https://i.ytimg.com/vi/hK2e3Vn1p5M/mqdefault.jpg","viewCount":"1158","playlistId":"PLEkQk5xrP-tkKprIuGrSdEuBSMsyg5We1","playlistName":"شرح مسند الإمام أحمد بن حنبل","category":"متنوع"},{"id":"FS656j9jHDM","title":"تفسير الآيات القرآنية الواردة في حق النَّبيّ ﷺ","publishedAt":"2023-12-22T17:29:34Z","duration":"PT32M30S","thumbnail":"https://i.ytimg.com/vi/FS656j9jHDM/mqdefault.jpg","viewCount":"6126","playlistId":"PLEkQk5xrP-tm8ZIu74nTOZN9KJUJu416J","playlistName":"مقاطع مُهمَّة (يُسريَّات) أ.د. يسري جبر","category":"متنوع"},{"id":"MV0A7hyCuwg","title":"55- ألَا أُخبِرُكم بخَيرِ هذه الأُمَّةِ بعدَ نَبيِّهَا؟ - شرح مسند الإمام أحمد","publishedAt":"2023-12-21T07:13:57Z","duration":"PT26M17S","thumbnail":"https://i.ytimg.com/vi/MV0A7hyCuwg/mqdefault.jpg","viewCount":"1115","playlistId":"PLEkQk5xrP-tkKprIuGrSdEuBSMsyg5We1","playlistName":"شرح مسند الإمام أحمد بن حنبل","category":"متنوع"},{"id":"VUvN9Q6rlS0","title":"ما هو علم التصوف ,, ولماذا لا يتفق أهله؟","publishedAt":"2023-12-20T18:22:44Z","duration":"PT8M57S","thumbnail":"https://i.ytimg.com/vi/VUvN9Q6rlS0/mqdefault.jpg","viewCount":"8757","playlistId":"PLEkQk5xrP-tm8ZIu74nTOZN9KJUJu416J","playlistName":"مقاطع مُهمَّة (يُسريَّات) أ.د. يسري جبر","category":"متنوع"},{"id":"6TJpUv8Sa_s","title":"أعمل ايه علشان أشوف النبي ﷺ في المنام؟","publishedAt":"2023-12-19T18:00:09Z","duration":"PT9M13S","thumbnail":"https://i.ytimg.com/vi/6TJpUv8Sa_s/mqdefault.jpg","viewCount":"5761","playlistId":"PLEkQk5xrP-tkGXuZ9atE3k_7it12rUPTs","playlistName":"أسئلة المتابعين","category":"متنوع"},{"id":"E2r81lhWASI","title":"54- حكم التختُّم بالذهب، ولباس القَسِّيِّ والمُعَصْفَرِ، والقراءة في الركوع، والشرب قائمًا","publishedAt":"2023-12-19T07:29:53Z","duration":"PT29M28S","thumbnail":"https://i.ytimg.com/vi/E2r81lhWASI/mqdefault.jpg","viewCount":"1391","playlistId":"PLEkQk5xrP-tkKprIuGrSdEuBSMsyg5We1","playlistName":"شرح مسند الإمام أحمد بن حنبل","category":"متنوع"},{"id":"zgb_e44hkL0","title":"مقرأة سورة النور من آية ١٩","publishedAt":"2018-03-12T11:17:21Z","duration":"PT12M31S","thumbnail":"https://i.ytimg.com/vi/zgb_e44hkL0/mqdefault.jpg","viewCount":"310","playlistId":"PLEkQk5xrP-tnmTYsyW6xNdyfhPq0Bhrhj","playlistName":"مقرأة الفجر - القُرْآنُ الكَرِيمُ - خَتْمَةُ التَّدَبُّرِ  أ.د. يسري جبر","category":"متنوع"}],"total":4126,"page":65,"pageSize":24,"totalPages":172}