{"items":[{"id":"uHbn2gUaycg","title":"الموتُ للمُؤمِنِ نِعْمَةٌ وكَرَامَةٌ    أ.د.يسري جبر","publishedAt":"2019-12-29T16:27:18Z","duration":"PT2M10S","thumbnail":"https://i.ytimg.com/vi/uHbn2gUaycg/mqdefault.jpg","viewCount":"3612","playlistId":"PLEkQk5xrP-tm8ZIu74nTOZN9KJUJu416J","playlistName":"مقاطع مُهمَّة (يُسريَّات) أ.د. يسري جبر","category":"متنوع"},{"id":"BuTAVhNxaoU","title":"الجراحة بين الحلاق والطبيب!","publishedAt":"2021-01-06T18:35:22Z","duration":"PT8M1S","thumbnail":"https://i.ytimg.com/vi/BuTAVhNxaoU/mqdefault.jpg","viewCount":"7417","playlistId":"PLEkQk5xrP-tm8ZIu74nTOZN9KJUJu416J","playlistName":"مقاطع مُهمَّة (يُسريَّات) أ.د. يسري جبر","category":"متنوع"},{"id":"SOdtAQlGiIk","title":"أفضل طرق المذاكرة","publishedAt":"2021-01-05T18:29:08Z","duration":"PT15M40S","thumbnail":"https://i.ytimg.com/vi/SOdtAQlGiIk/mqdefault.jpg","viewCount":"47166","playlistId":"PLEkQk5xrP-tm8ZIu74nTOZN9KJUJu416J","playlistName":"مقاطع مُهمَّة (يُسريَّات) أ.د. يسري جبر","category":"متنوع"},{"id":"nDTLcZ7rvAk","title":"سورة النساء  آية 174","publishedAt":"2016-10-01T09:23:54Z","duration":"PT14M53S","thumbnail":"https://i.ytimg.com/vi/nDTLcZ7rvAk/mqdefault.jpg","viewCount":"484","playlistId":"PLEkQk5xrP-tnmTYsyW6xNdyfhPq0Bhrhj","playlistName":"مقرأة الفجر - القُرْآنُ الكَرِيمُ - خَتْمَةُ التَّدَبُّرِ  أ.د. يسري جبر","category":"متنوع"},{"id":"kvTsNcnr7YA","title":"مقرأة سورة إبراهيم من آية ١٠","publishedAt":"2017-07-29T16:28:45Z","duration":"PT16M47S","thumbnail":"https://i.ytimg.com/vi/kvTsNcnr7YA/mqdefault.jpg","viewCount":"311","playlistId":"PLEkQk5xrP-tnmTYsyW6xNdyfhPq0Bhrhj","playlistName":"مقرأة الفجر - القُرْآنُ الكَرِيمُ - خَتْمَةُ التَّدَبُّرِ  أ.د. يسري جبر","category":"متنوع"},{"id":"0uuWh8fHq_Q","title":"ساعة الإجابة في يوم الجمعة   د. يسري جبر","publishedAt":"2017-07-28T09:02:54Z","duration":"PT7M43S","thumbnail":"https://i.ytimg.com/vi/0uuWh8fHq_Q/mqdefault.jpg","viewCount":"17554","playlistId":"PLEkQk5xrP-tm8ZIu74nTOZN9KJUJu416J","playlistName":"مقاطع مُهمَّة (يُسريَّات) أ.د. يسري جبر","category":"متنوع"},{"id":"3Bsj_t5oIcs","title":"504- بيان أقلّ  أهل الجنَّة منزلة - شرح دليل الفالحين","publishedAt":"2023-07-23T08:59:00Z","duration":"PT41M50S","thumbnail":"https://i.ytimg.com/vi/3Bsj_t5oIcs/mqdefault.jpg","viewCount":"685","playlistId":"PLEkQk5xrP-tkc9DXvSLguqX5-FYp6ASR4","playlistName":"دليل الفالحين لطرق رياض الصالحين","category":"متنوع"},{"id":"IEqq1thuptk","title":"هل يجوز مصافحة النساء؟","publishedAt":"2023-07-22T18:00:04Z","duration":"PT8M49S","thumbnail":"https://i.ytimg.com/vi/IEqq1thuptk/mqdefault.jpg","viewCount":"29061","playlistId":"PLEkQk5xrP-tkGXuZ9atE3k_7it12rUPTs","playlistName":"أسئلة المتابعين","category":"متنوع"},{"id":"Wytq_i_MY3Y","title":"503- بيان ما أعدَّ اللهُ تعالى للمؤمنين في الجنة - شرح دليل الفالحين","publishedAt":"2023-07-22T08:59:00Z","duration":"PT37M29S","thumbnail":"https://i.ytimg.com/vi/Wytq_i_MY3Y/mqdefault.jpg","viewCount":"907","playlistId":"PLEkQk5xrP-tkc9DXvSLguqX5-FYp6ASR4","playlistName":"دليل الفالحين لطرق رياض الصالحين","category":"متنوع"},{"id":"gl2gmUPnlsg","title":"أباح لك أن تنظر ما في المُكَوَّنات ، وما أذِن لك أن تقف مع ذوات المُكَوَّنات","publishedAt":"2017-02-25T20:51:05Z","duration":"PT17M20S","thumbnail":"https://i.ytimg.com/vi/gl2gmUPnlsg/mqdefault.jpg","viewCount":"1033","playlistId":"PLEkQk5xrP-tkI_meE148wc7V7XHlB0WPb","playlistName":"من الحكم العطائية  د. يسري جبر","category":"متنوع"},{"id":"i_XeUYyKXc4","title":"271- الوَقَار والسَّكِينة - شرح دليل الفالحين","publishedAt":"2022-06-22T05:15:03Z","duration":"PT32M56S","thumbnail":"https://i.ytimg.com/vi/i_XeUYyKXc4/mqdefault.jpg","viewCount":"1760","playlistId":"PLEkQk5xrP-tkc9DXvSLguqX5-FYp6ASR4","playlistName":"دليل الفالحين لطرق رياض الصالحين","category":"متنوع"},{"id":"RE82pE8U8OA","title":"ما هي آداب التصوف؟","publishedAt":"2022-06-21T19:10:43Z","duration":"PT22M42S","thumbnail":"https://i.ytimg.com/vi/RE82pE8U8OA/mqdefault.jpg","viewCount":"21663","playlistId":"PLEkQk5xrP-tm8ZIu74nTOZN9KJUJu416J","playlistName":"مقاطع مُهمَّة (يُسريَّات) أ.د. يسري جبر","category":"متنوع"},{"id":"RbFbsr_lvWk","title":"كيف تعالج قسوة القلب؟","publishedAt":"2022-06-20T18:30:33Z","duration":"PT11M26S","thumbnail":"https://i.ytimg.com/vi/RbFbsr_lvWk/mqdefault.jpg","viewCount":"12917","playlistId":"PLEkQk5xrP-tm8ZIu74nTOZN9KJUJu416J","playlistName":"مقاطع مُهمَّة (يُسريَّات) أ.د. يسري جبر","category":"متنوع"},{"id":"mmS0Ig7yWYE","title":"270- إصغاءُ الجَليسِ لحديثِ جَليسهِ الذي ليس بحرام - شرح دليل الفالحين","publishedAt":"2022-06-20T05:16:00Z","duration":"PT1H6M28S","thumbnail":"https://i.ytimg.com/vi/mmS0Ig7yWYE/mqdefault.jpg","viewCount":"1114","playlistId":"PLEkQk5xrP-tkc9DXvSLguqX5-FYp6ASR4","playlistName":"دليل الفالحين لطرق رياض الصالحين","category":"متنوع"},{"id":"9XD6Kbvjg98","title":"ما هو نسب الدكتور يسري جبر؟","publishedAt":"2022-06-19T19:30:00Z","duration":"PT8M13S","thumbnail":"https://i.ytimg.com/vi/9XD6Kbvjg98/mqdefault.jpg","viewCount":"26991","playlistId":"PLEkQk5xrP-tl6tFiMFGUucCTvLgnWyAfz","playlistName":"حياة الأستاذ الدكتور يسري جبر","category":"متنوع"},{"id":"CeIy7qhJYLU","title":"كيف تعرف الشيخ المربي؟","publishedAt":"2022-06-18T19:25:13Z","duration":"PT9M1S","thumbnail":"https://i.ytimg.com/vi/CeIy7qhJYLU/mqdefault.jpg","viewCount":"19251","playlistId":"PLEkQk5xrP-tm8ZIu74nTOZN9KJUJu416J","playlistName":"مقاطع مُهمَّة (يُسريَّات) أ.د. يسري جبر","category":"متنوع"},{"id":"WYsDduOnUbQ","title":"مقرأة سورة الإسراء من آية ٦٠","publishedAt":"2017-09-30T09:41:02Z","duration":"PT8M39S","thumbnail":"https://i.ytimg.com/vi/WYsDduOnUbQ/mqdefault.jpg","viewCount":"343","playlistId":"PLEkQk5xrP-tnmTYsyW6xNdyfhPq0Bhrhj","playlistName":"مقرأة الفجر - القُرْآنُ الكَرِيمُ - خَتْمَةُ التَّدَبُّرِ  أ.د. يسري جبر","category":"متنوع"},{"id":"p2Bplg012aw","title":"مقرأة سورة الإسراء من آية ٥٦","publishedAt":"2017-09-28T10:20:03Z","duration":"PT12M27S","thumbnail":"https://i.ytimg.com/vi/p2Bplg012aw/mqdefault.jpg","viewCount":"348","playlistId":"PLEkQk5xrP-tnmTYsyW6xNdyfhPq0Bhrhj","playlistName":"مقرأة الفجر - القُرْآنُ الكَرِيمُ - خَتْمَةُ التَّدَبُّرِ  أ.د. يسري جبر","category":"متنوع"},{"id":"FiCGgzHkj-w","title":"شرح سنن الدارمي كتاب الصلاة من باب ٢١٧","publishedAt":"2019-06-04T20:14:24Z","duration":"PT25M46S","thumbnail":"https://i.ytimg.com/vi/FiCGgzHkj-w/mqdefault.jpg","viewCount":"319","playlistId":"PLEkQk5xrP-tmAg-FuWjY057X_h5NmGmAa","playlistName":"شرح سنن الدارمي - أ.د. يسري جبر (كاملا)","category":"متنوع"},{"id":"NgYWk3iYVgA","title":"حَدِيث (١٨٢) الرؤْيَا الصَّالِحَةُ مِنَ اللَّهِ وَالحُلْمُ مِنَ الشَّيطَانِ  - أ.د. يسري جبر","publishedAt":"2019-06-04T15:41:02Z","duration":"PT20M10S","thumbnail":"https://i.ytimg.com/vi/NgYWk3iYVgA/mqdefault.jpg","viewCount":"1686","playlistId":"PLEkQk5xrP-tnl7vb7KeAoPd5ZlqKKW8KV","playlistName":"شرح كتاب بهجة النفوس أ.د . يسرى جبر","category":"متنوع"},{"id":"JOeuT37F9Cs","title":"مقرأة سورة القيامة من آية ٢٠","publishedAt":"2019-06-04T10:54:39Z","duration":"PT15M56S","thumbnail":"https://i.ytimg.com/vi/JOeuT37F9Cs/mqdefault.jpg","viewCount":"405","playlistId":"PLEkQk5xrP-tnmTYsyW6xNdyfhPq0Bhrhj","playlistName":"مقرأة الفجر - القُرْآنُ الكَرِيمُ - خَتْمَةُ التَّدَبُّرِ  أ.د. يسري جبر","category":"متنوع"},{"id":"t1gmdALR4YM","title":"حديث (١٨١) الالتِفَاتُ فِي الصَّلَاةِ.  أ.د. يسري جبر","publishedAt":"2019-06-03T15:10:59Z","duration":"PT11M19S","thumbnail":"https://i.ytimg.com/vi/t1gmdALR4YM/mqdefault.jpg","viewCount":"399","playlistId":"PLEkQk5xrP-tnl7vb7KeAoPd5ZlqKKW8KV","playlistName":"شرح كتاب بهجة النفوس أ.د . يسرى جبر","category":"متنوع"},{"id":"9zfDFIYFQtQ","title":"( 135 ) حديث من أعان غازياً فله مثل أجره  د. يسري جبر","publishedAt":"2017-06-20T23:25:13Z","duration":"PT26M30S","thumbnail":"https://i.ytimg.com/vi/9zfDFIYFQtQ/mqdefault.jpg","viewCount":"184","playlistId":"PLEkQk5xrP-tnl7vb7KeAoPd5ZlqKKW8KV","playlistName":"شرح كتاب بهجة النفوس أ.د . يسرى جبر","category":"متنوع"},{"id":"-gW2bRq0Cr8","title":"شرح الحزب الكبير- المجلس الثاني   د.يسري جبر","publishedAt":"2017-06-20T10:55:24Z","duration":"PT38M16S","thumbnail":"https://i.ytimg.com/vi/-gW2bRq0Cr8/mqdefault.jpg","viewCount":"20962","playlistId":"PLEkQk5xrP-tlm5F9ID5I_--LMV7PcWjp_","playlistName":"شرح الحزب الكبير لسيدى أبي الحسن الشاذلي د.يسري جبر","category":"متنوع"}],"total":4126,"page":59,"pageSize":24,"totalPages":172}