{"items":[{"id":"d69visWWRRM","title":"بِدَعُ التَفَاسِيرِ - المجلس الرابع عشر. أ.د. يسري جبر","publishedAt":"2020-09-09T19:13:13Z","duration":"PT14M57S","thumbnail":"https://i.ytimg.com/vi/d69visWWRRM/mqdefault.jpg","viewCount":"2023","playlistId":"PLEkQk5xrP-tkSGrPLMt1BEmJ54cGWYgtp","playlistName":"كتابُ بِدَعِ التَفَاسِيرِ - أ.د. يسري جبر","category":"متنوع"},{"id":"fZ_fTtDobdA","title":"الأدب حال الكشف","publishedAt":"2020-09-08T18:54:28Z","duration":"PT9M8S","thumbnail":"https://i.ytimg.com/vi/fZ_fTtDobdA/mqdefault.jpg","viewCount":"9200","playlistId":"PLEkQk5xrP-tm8ZIu74nTOZN9KJUJu416J","playlistName":"مقاطع مُهمَّة (يُسريَّات) أ.د. يسري جبر","category":"متنوع"},{"id":"gL0dm-dg9WU","title":"معرفة الله","publishedAt":"2020-09-07T19:21:47Z","duration":"PT12M8S","thumbnail":"https://i.ytimg.com/vi/gL0dm-dg9WU/mqdefault.jpg","viewCount":"21371","playlistId":"PLEkQk5xrP-tm8ZIu74nTOZN9KJUJu416J","playlistName":"مقاطع مُهمَّة (يُسريَّات) أ.د. يسري جبر","category":"متنوع"},{"id":"xSCgQog0aVc","title":"المحب لا ينصرف عن الباب","publishedAt":"2020-09-06T19:35:12Z","duration":"PT13M33S","thumbnail":"https://i.ytimg.com/vi/xSCgQog0aVc/mqdefault.jpg","viewCount":"7220","playlistId":"PLEkQk5xrP-tm8ZIu74nTOZN9KJUJu416J","playlistName":"مقاطع مُهمَّة (يُسريَّات) أ.د. يسري جبر","category":"متنوع"},{"id":"dm0KKYwll34","title":"تعظيم ما عظم الله","publishedAt":"2020-09-05T18:14:11Z","duration":"PT4M12S","thumbnail":"https://i.ytimg.com/vi/dm0KKYwll34/mqdefault.jpg","viewCount":"2203","playlistId":"PLEkQk5xrP-tm8ZIu74nTOZN9KJUJu416J","playlistName":"مقاطع مُهمَّة (يُسريَّات) أ.د. يسري جبر","category":"متنوع"},{"id":"Z7N8NTGlGQM","title":"الرد على من ينكر حديث المصافحة والمشابكة","publishedAt":"2022-07-06T19:15:23Z","duration":"PT8M48S","thumbnail":"https://i.ytimg.com/vi/Z7N8NTGlGQM/mqdefault.jpg","viewCount":"16775","playlistId":"PLEkQk5xrP-tm8ZIu74nTOZN9KJUJu416J","playlistName":"مقاطع مُهمَّة (يُسريَّات) أ.د. يسري جبر","category":"متنوع"},{"id":"sexPT-WHAcE","title":"276- استأذنتُ النَّبيَّ ﷺ في العُمْرَةِ فأَذِن وقال لا تنسانا يا أُخَيَّ من دعائِك…","publishedAt":"2022-07-06T05:15:02Z","duration":"PT27M36S","thumbnail":"https://i.ytimg.com/vi/sexPT-WHAcE/mqdefault.jpg","viewCount":"1807","playlistId":"PLEkQk5xrP-tkc9DXvSLguqX5-FYp6ASR4","playlistName":"دليل الفالحين لطرق رياض الصالحين","category":"متنوع"},{"id":"q6IMV3fv-R4","title":"أشعر بضيق شديد ,, ماذا أفعل؟","publishedAt":"2022-07-05T19:00:18Z","duration":"PT11M57S","thumbnail":"https://i.ytimg.com/vi/q6IMV3fv-R4/mqdefault.jpg","viewCount":"8409","playlistId":"PLEkQk5xrP-tm8ZIu74nTOZN9KJUJu416J","playlistName":"مقاطع مُهمَّة (يُسريَّات) أ.د. يسري جبر","category":"متنوع"},{"id":"j_mWKQFKUgs","title":"ما هي حدود الاختلاط بين الجنسين؟","publishedAt":"2022-07-03T17:59:52Z","duration":"PT10M39S","thumbnail":"https://i.ytimg.com/vi/j_mWKQFKUgs/mqdefault.jpg","viewCount":"26338","playlistId":"PLEkQk5xrP-tm8ZIu74nTOZN9KJUJu416J","playlistName":"مقاطع مُهمَّة (يُسريَّات) أ.د. يسري جبر","category":"متنوع"},{"id":"xxQ0OYnxbXs","title":"أنا شاب ولا استطيع غض بصري فماذا أفعل؟","publishedAt":"2023-08-21T18:00:26Z","duration":"PT8M34S","thumbnail":"https://i.ytimg.com/vi/xxQ0OYnxbXs/mqdefault.jpg","viewCount":"12910","playlistId":"PLEkQk5xrP-tkGXuZ9atE3k_7it12rUPTs","playlistName":"أسئلة المتابعين","category":"متنوع"},{"id":"r8UQCKhZaAA","title":"أفضل طريقة لإنهاء المشاكل الزوجية","publishedAt":"2023-08-20T18:00:32Z","duration":"PT13M29S","thumbnail":"https://i.ytimg.com/vi/r8UQCKhZaAA/mqdefault.jpg","viewCount":"10945","playlistId":"PLEkQk5xrP-tkGXuZ9atE3k_7it12rUPTs","playlistName":"أسئلة المتابعين","category":"متنوع"},{"id":"WNIlb2FT_hQ","title":"13- كيف كان سيدنا رسول الله ﷺ يتوضأ - كتاب الطَّهارة - شرح سنن الإمام الدار قطني رضي الله عنه","publishedAt":"2023-08-20T05:00:12Z","duration":"PT41M6S","thumbnail":"https://i.ytimg.com/vi/WNIlb2FT_hQ/mqdefault.jpg","viewCount":"1379","playlistId":"PLEkQk5xrP-tk_MCBZ706ORCw6gFtFyaGj","playlistName":"شرح سنن الإمام الدارقطني","category":"متنوع"},{"id":"4zIM3ztRors","title":"12- حديث الوضوء بالنبيذ ليلة الجِنّ وبيان لقاء النَّبيّ ﷺ بهم والمكان الذي قابلهم فيه","publishedAt":"2023-08-12T18:00:06Z","duration":"PT41M33S","thumbnail":"https://i.ytimg.com/vi/4zIM3ztRors/mqdefault.jpg","viewCount":"2726","playlistId":"PLEkQk5xrP-tk_MCBZ706ORCw6gFtFyaGj","playlistName":"شرح سنن الإمام الدارقطني","category":"متنوع"},{"id":"Xo8ex05XQSY","title":"15- كيف نفهم الربا وما هي الأجناس الربوية؟|هل يُعذََب الميت بنياحة غيره عليه؟- شرح مسند الإمام أحمد","publishedAt":"2023-08-12T05:00:31Z","duration":"PT28M43S","thumbnail":"https://i.ytimg.com/vi/Xo8ex05XQSY/mqdefault.jpg","viewCount":"2681","playlistId":"PLEkQk5xrP-tkKprIuGrSdEuBSMsyg5We1","playlistName":"شرح مسند الإمام أحمد بن حنبل","category":"متنوع"},{"id":"0azIKLnrWSU","title":"14- حكم السمر بعد العشاء لأمر هام | ما الحكمة من تقبيل الحجر الأسود؟","publishedAt":"2023-08-11T05:11:51Z","duration":"PT38M47S","thumbnail":"https://i.ytimg.com/vi/0azIKLnrWSU/mqdefault.jpg","viewCount":"1719","playlistId":"PLEkQk5xrP-tkKprIuGrSdEuBSMsyg5We1","playlistName":"شرح مسند الإمام أحمد بن حنبل","category":"متنوع"},{"id":"Pf1PpHL74ic","title":"255 - بَال أَعْرَابيٌّ في المسجِد، فَقَامَ النَّاسُ إِلَيْه لِيَقَعُوا فِيهِ - شرح دليل الفالحين","publishedAt":"2022-05-27T20:45:00Z","duration":"PT31M38S","thumbnail":"https://i.ytimg.com/vi/Pf1PpHL74ic/mqdefault.jpg","viewCount":"1092","playlistId":"PLEkQk5xrP-tkc9DXvSLguqX5-FYp6ASR4","playlistName":"دليل الفالحين لطرق رياض الصالحين","category":"متنوع"},{"id":"Nhsg62vigQw","title":"254- الحِلْمُ والأناة والرِّفْق -  شرح دليل الفالحين","publishedAt":"2022-05-26T20:00:05Z","duration":"PT35M2S","thumbnail":"https://i.ytimg.com/vi/Nhsg62vigQw/mqdefault.jpg","viewCount":"1236","playlistId":"PLEkQk5xrP-tkc9DXvSLguqX5-FYp6ASR4","playlistName":"دليل الفالحين لطرق رياض الصالحين","category":"متنوع"},{"id":"Lq-w10Ceejw","title":"آداب زيارة مقامات الأولياء","publishedAt":"2022-05-25T17:30:01Z","duration":"PT8M24S","thumbnail":"https://i.ytimg.com/vi/Lq-w10Ceejw/mqdefault.jpg","viewCount":"18003","playlistId":"PLEkQk5xrP-tm8ZIu74nTOZN9KJUJu416J","playlistName":"مقاطع مُهمَّة (يُسريَّات) أ.د. يسري جبر","category":"متنوع"},{"id":"32_8sYnJAlU","title":"253- أنا زعيمٌ ببيتٍ في رَبَضِ الجنةِ لمَن تَرَكَ المِراءَ وإن كان مُحِقًّا - شرح دليل الفالحين","publishedAt":"2022-05-25T05:35:00Z","duration":"PT37M58S","thumbnail":"https://i.ytimg.com/vi/32_8sYnJAlU/mqdefault.jpg","viewCount":"2095","playlistId":"PLEkQk5xrP-tkc9DXvSLguqX5-FYp6ASR4","playlistName":"دليل الفالحين لطرق رياض الصالحين","category":"متنوع"},{"id":"iBszgKWVfJY","title":"شرح كتاب الأحكام من سنن الترمذي - المجلس الثالث","publishedAt":"2015-06-10T04:09:08Z","duration":"PT33M35S","thumbnail":"https://i.ytimg.com/vi/iBszgKWVfJY/mqdefault.jpg","viewCount":"163","playlistId":"PLEkQk5xrP-tnu6of679SvxdVx0qSrJzmb","playlistName":"شرح سنن الإمام الترمذي رضى الله عنه د. يسري جبر","category":"متنوع"},{"id":"cSTrZiWLa2c","title":"شرح كتاب الأحكام من سنن الترمذي - المجلس الثاني","publishedAt":"2015-06-09T03:53:03Z","duration":"PT34M12S","thumbnail":"https://i.ytimg.com/vi/cSTrZiWLa2c/mqdefault.jpg","viewCount":"301","playlistId":"PLEkQk5xrP-tnu6of679SvxdVx0qSrJzmb","playlistName":"شرح سنن الإمام الترمذي رضى الله عنه د. يسري جبر","category":"متنوع"},{"id":"ciIRQE7IjT8","title":"شرح كتاب الأدب من سنن الترمذي - المجلس السادس","publishedAt":"2016-03-15T11:04:15Z","duration":"PT35M13S","thumbnail":"https://i.ytimg.com/vi/ciIRQE7IjT8/mqdefault.jpg","viewCount":"158","playlistId":"PLEkQk5xrP-tnu6of679SvxdVx0qSrJzmb","playlistName":"شرح سنن الإمام الترمذي رضى الله عنه د. يسري جبر","category":"متنوع"},{"id":"tK9ww_wgxyM","title":"455- تحريم تشبُّه الرجال بالنساء وتشبُّه النساء بالرجال في لباسٍ وحركةٍ وغير ذلك - شرح دليل الفالحين","publishedAt":"2023-05-25T05:00:21Z","duration":"PT29M1S","thumbnail":"https://i.ytimg.com/vi/tK9ww_wgxyM/mqdefault.jpg","viewCount":"947","playlistId":"PLEkQk5xrP-tkc9DXvSLguqX5-FYp6ASR4","playlistName":"دليل الفالحين لطرق رياض الصالحين","category":"متنوع"},{"id":"6YOfAFitJ_8","title":"454- تحريم الخلوة بالأجنبية - شرح دليل الفالحين","publishedAt":"2023-05-24T08:59:00Z","duration":"PT15M43S","thumbnail":"https://i.ytimg.com/vi/6YOfAFitJ_8/mqdefault.jpg","viewCount":"741","playlistId":"PLEkQk5xrP-tkc9DXvSLguqX5-FYp6ASR4","playlistName":"دليل الفالحين لطرق رياض الصالحين","category":"متنوع"}],"total":4126,"page":79,"pageSize":24,"totalPages":172}