{"items":[{"id":"eB2eaajmFJE","title":"153- \"ما غِرْتُ علَى أحَدٍ مِن نِسَاءِ النَّبيِّ ﷺ، ما غِرْتُ علَى خَدِيجَةَ…\" - شرح دليل الفالحين","publishedAt":"2021-11-03T02:27:52Z","duration":"PT31M8S","thumbnail":"https://i.ytimg.com/vi/eB2eaajmFJE/mqdefault.jpg","viewCount":"1430","playlistId":"PLEkQk5xrP-tkc9DXvSLguqX5-FYp6ASR4","playlistName":"دليل الفالحين لطرق رياض الصالحين","category":"متنوع"},{"id":"lWTAr-wyemc","title":"إذا انفكَّت الجهة ارتفع الخلاف","publishedAt":"2020-06-13T17:01:31Z","duration":"PT8M40S","thumbnail":"https://i.ytimg.com/vi/lWTAr-wyemc/mqdefault.jpg","viewCount":"1856","playlistId":"PLEkQk5xrP-tm8ZIu74nTOZN9KJUJu416J","playlistName":"مقاطع مُهمَّة (يُسريَّات) أ.د. يسري جبر","category":"متنوع"},{"id":"-WAmZ3WTEQE","title":"الحبة السوداء شفاء من كل داء","publishedAt":"2020-06-11T21:14:11Z","duration":"PT12M18S","thumbnail":"https://i.ytimg.com/vi/-WAmZ3WTEQE/mqdefault.jpg","viewCount":"5461","playlistId":"PLEkQk5xrP-tm8ZIu74nTOZN9KJUJu416J","playlistName":"مقاطع مُهمَّة (يُسريَّات) أ.د. يسري جبر","category":"متنوع"},{"id":"AWk6HJgyQmM","title":"كيف تختم القرآن ولا تنساه؟","publishedAt":"2020-06-10T16:10:59Z","duration":"PT3M17S","thumbnail":"https://i.ytimg.com/vi/AWk6HJgyQmM/mqdefault.jpg","viewCount":"14641","playlistId":"PLEkQk5xrP-tm8ZIu74nTOZN9KJUJu416J","playlistName":"مقاطع مُهمَّة (يُسريَّات) أ.د. يسري جبر","category":"متنوع"},{"id":"pvuFOXGKzTM","title":"علمُ اليقين وعينُ اليقين","publishedAt":"2020-06-08T18:59:40Z","duration":"PT5M3S","thumbnail":"https://i.ytimg.com/vi/pvuFOXGKzTM/mqdefault.jpg","viewCount":"2807","playlistId":"PLEkQk5xrP-tm8ZIu74nTOZN9KJUJu416J","playlistName":"مقاطع مُهمَّة (يُسريَّات) أ.د. يسري جبر","category":"متنوع"},{"id":"b_dex_oduI8","title":"شِدَّةُ المرض","publishedAt":"2020-06-07T17:53:57Z","duration":"PT5M56S","thumbnail":"https://i.ytimg.com/vi/b_dex_oduI8/mqdefault.jpg","viewCount":"2218","playlistId":"PLEkQk5xrP-tm8ZIu74nTOZN9KJUJu416J","playlistName":"مقاطع مُهمَّة (يُسريَّات) أ.د. يسري جبر","category":"متنوع"},{"id":"4hecIOB6pwI","title":"مجيب قبل الطلب مفضال بلا سبب","publishedAt":"2020-06-06T16:19:03Z","duration":"PT8M39S","thumbnail":"https://i.ytimg.com/vi/4hecIOB6pwI/mqdefault.jpg","viewCount":"4551","playlistId":"PLEkQk5xrP-tm8ZIu74nTOZN9KJUJu416J","playlistName":"مقاطع مُهمَّة (يُسريَّات) أ.د. يسري جبر","category":"متنوع"},{"id":"x1Z1qRW2v1c","title":"19- الإيمان بالغيب ونعمة الستر | شرح مختصر الفتوحات المكية","publishedAt":"2024-05-26T17:20:51Z","duration":"PT50M34S","thumbnail":"https://i.ytimg.com/vi/x1Z1qRW2v1c/mqdefault.jpg","viewCount":"8705","playlistId":"PLEkQk5xrP-tnpkdZki6rPTtMak1bnI5g-","playlistName":"شرح كتاب مختصر الفتوحات المكية المسمى لواقح الأنوار القدسية","category":"متنوع"},{"id":"rdunYXXmU10","title":"108- حكم اللعان - شرح مسند الإمام أحمد رضي الله تعالى عنه","publishedAt":"2024-05-26T06:04:25Z","duration":"PT27M5S","thumbnail":"https://i.ytimg.com/vi/rdunYXXmU10/mqdefault.jpg","viewCount":"830","playlistId":"PLEkQk5xrP-tkKprIuGrSdEuBSMsyg5We1","playlistName":"شرح مسند الإمام أحمد بن حنبل","category":"متنوع"},{"id":"uRHpuAMeTaU","title":"36- ما هو الصعيد الطيب الذي يصح به التيمم؟ | شرح سنن الدار قطني رضي الله عنه","publishedAt":"2024-05-25T09:01:00Z","duration":"PT43M22S","thumbnail":"https://i.ytimg.com/vi/uRHpuAMeTaU/mqdefault.jpg","viewCount":"1101","playlistId":"PLEkQk5xrP-tk_MCBZ706ORCw6gFtFyaGj","playlistName":"شرح سنن الإمام الدارقطني","category":"متنوع"},{"id":"QOgHHW6kOAg","title":"156- وصف سيدنا جبريل عليه السلام في صورته الحقيقية - شرح مسند الإمام أحمد رضي الله تعالى عنه","publishedAt":"2025-04-06T15:00:35Z","duration":"PT17M37S","thumbnail":"https://i.ytimg.com/vi/QOgHHW6kOAg/mqdefault.jpg","viewCount":"2331","playlistId":"PLEkQk5xrP-tkKprIuGrSdEuBSMsyg5We1","playlistName":"شرح مسند الإمام أحمد بن حنبل","category":"متنوع"},{"id":"ohLJOqBXWDc","title":"155- هل يجوز قراءة الفنجان والتصديق في الأبراج؟ - شرح مسند الإمام أحمد رضي الله تعالى عنه","publishedAt":"2025-04-02T10:01:08Z","duration":"PT14M33S","thumbnail":"https://i.ytimg.com/vi/ohLJOqBXWDc/mqdefault.jpg","viewCount":"2453","playlistId":"PLEkQk5xrP-tkKprIuGrSdEuBSMsyg5We1","playlistName":"شرح مسند الإمام أحمد بن حنبل","category":"متنوع"},{"id":"xpNqY1lLdxI","title":"الفَرْقُ بَيْنَ التَغَافُلِ والغَفْلَةِ - د.يسري جبر","publishedAt":"2015-02-14T18:58:02Z","duration":"PT7M32S","thumbnail":"https://i.ytimg.com/vi/xpNqY1lLdxI/mqdefault.jpg","viewCount":"3794","playlistId":"PLEkQk5xrP-tm8ZIu74nTOZN9KJUJu416J","playlistName":"مقاطع مُهمَّة (يُسريَّات) أ.د. يسري جبر","category":"متنوع"},{"id":"Lsa4tvJ9XUo","title":"شرح كتاب منازل السائرين للإمام الهروى-المجلس الثامن والثلاثون قسم الأَودية باب الإحسان وباب العلم","publishedAt":"2015-02-09T18:03:26Z","duration":"PT1H11M14S","thumbnail":"https://i.ytimg.com/vi/Lsa4tvJ9XUo/mqdefault.jpg","viewCount":"1446","playlistId":"PLEkQk5xrP-tnLYi_5_tSRVBwqcs7ISV7Y","playlistName":"شرح كتاب منازل السائرين للإمام الهروي","category":"متنوع"},{"id":"ZFn-FzHK3E0","title":"سورة البقرة آية 29","publishedAt":"2016-04-19T10:37:32Z","duration":"PT32M55S","thumbnail":"https://i.ytimg.com/vi/ZFn-FzHK3E0/mqdefault.jpg","viewCount":"2926","playlistId":"PLEkQk5xrP-tnmTYsyW6xNdyfhPq0Bhrhj","playlistName":"مقرأة الفجر - القُرْآنُ الكَرِيمُ - خَتْمَةُ التَّدَبُّرِ  أ.د. يسري جبر","category":"متنوع"},{"id":"FAP8ZcQj5nA","title":"شرح كتاب تفسير القرآن من سنن الترمذي - المجلس الحادي عشر","publishedAt":"2016-04-19T01:54:58Z","duration":"PT35M21S","thumbnail":"https://i.ytimg.com/vi/FAP8ZcQj5nA/mqdefault.jpg","viewCount":"120","playlistId":"PLEkQk5xrP-tnu6of679SvxdVx0qSrJzmb","playlistName":"شرح سنن الإمام الترمذي رضى الله عنه د. يسري جبر","category":"متنوع"},{"id":"cInXJeOy7Ow","title":"سُورة البقرة آية 26","publishedAt":"2016-04-18T03:15:14Z","duration":"PT27M17S","thumbnail":"https://i.ytimg.com/vi/cInXJeOy7Ow/mqdefault.jpg","viewCount":"3501","playlistId":"PLEkQk5xrP-tnmTYsyW6xNdyfhPq0Bhrhj","playlistName":"مقرأة الفجر - القُرْآنُ الكَرِيمُ - خَتْمَةُ التَّدَبُّرِ  أ.د. يسري جبر","category":"متنوع"},{"id":"UFGBYllbTdo","title":"9- باب الْمُسْتَحَاضَةِ ك الطهارة ك الموطأ د يسري جبر الأزهري بمضيفة الشيخ سعيد الدح","publishedAt":"2016-04-17T20:23:05Z","duration":"PT42M58S","thumbnail":"https://i.ytimg.com/vi/UFGBYllbTdo/mqdefault.jpg","viewCount":"744","playlistId":"PLEkQk5xrP-tnC6BRuqMjyO-484iqXeg0o","playlistName":"شرح كتاب الموطأ للإمام مالك","category":"متنوع"},{"id":"uVsZICF2jKk","title":"شرح كتاب تفسير القرآن من سنن الترمذي - المجلس العاشر","publishedAt":"2016-04-17T05:17:31Z","duration":"PT38M14S","thumbnail":"https://i.ytimg.com/vi/uVsZICF2jKk/mqdefault.jpg","viewCount":"127","playlistId":"PLEkQk5xrP-tnu6of679SvxdVx0qSrJzmb","playlistName":"شرح سنن الإمام الترمذي رضى الله عنه د. يسري جبر","category":"متنوع"},{"id":"YLGlvhcF9gg","title":"سُورة البقرة آية 17","publishedAt":"2016-04-17T05:15:37Z","duration":"PT16M37S","thumbnail":"https://i.ytimg.com/vi/YLGlvhcF9gg/mqdefault.jpg","viewCount":"4748","playlistId":"PLEkQk5xrP-tnmTYsyW6xNdyfhPq0Bhrhj","playlistName":"مقرأة الفجر - القُرْآنُ الكَرِيمُ - خَتْمَةُ التَّدَبُّرِ  أ.د. يسري جبر","category":"متنوع"},{"id":"qnfeDU1eHpU","title":"شرح كتاب تفسير القرآن من سنن الترمذي - المجلس التاسع","publishedAt":"2016-04-16T20:06:16Z","duration":"PT31M7S","thumbnail":"https://i.ytimg.com/vi/qnfeDU1eHpU/mqdefault.jpg","viewCount":"122","playlistId":"PLEkQk5xrP-tnu6of679SvxdVx0qSrJzmb","playlistName":"شرح سنن الإمام الترمذي رضى الله عنه د. يسري جبر","category":"متنوع"},{"id":"xiduAzr6oEo","title":"سُورة البقرة من أوَّلِها","publishedAt":"2016-04-16T20:03:59Z","duration":"PT40M25S","thumbnail":"https://i.ytimg.com/vi/xiduAzr6oEo/mqdefault.jpg","viewCount":"10064","playlistId":"PLEkQk5xrP-tnmTYsyW6xNdyfhPq0Bhrhj","playlistName":"مقرأة الفجر - القُرْآنُ الكَرِيمُ - خَتْمَةُ التَّدَبُّرِ  أ.د. يسري جبر","category":"متنوع"},{"id":"HDDAdr-eQHo","title":"متى يجوز الخروج على الحاكم؟ | مجالس رمضانية","publishedAt":"2024-03-16T14:00:13Z","duration":"PT31M27S","thumbnail":"https://i.ytimg.com/vi/HDDAdr-eQHo/mqdefault.jpg","viewCount":"3333","playlistId":"PLEkQk5xrP-tnl7vb7KeAoPd5ZlqKKW8KV","playlistName":"شرح كتاب بهجة النفوس أ.د . يسرى جبر","category":"متنوع"},{"id":"wjtTla1-PZU","title":"ما سر الأحلام والرؤى التي تتحقق؟ | مجالس رمضانية","publishedAt":"2024-03-15T14:00:48Z","duration":"PT37M42S","thumbnail":"https://i.ytimg.com/vi/wjtTla1-PZU/mqdefault.jpg","viewCount":"10234","playlistId":"PLEkQk5xrP-tnl7vb7KeAoPd5ZlqKKW8KV","playlistName":"شرح كتاب بهجة النفوس أ.د . يسرى جبر","category":"متنوع"}],"total":4126,"page":24,"pageSize":24,"totalPages":172}