{"items":[{"id":"vnEg2XMGjao","title":"42- مَوَاقِيتِ الإِهْلاَلِ كتاب الحج ك الموطأ د يسري جبر الأزهري","publishedAt":"2017-02-21T00:48:41Z","duration":"PT1H19M49S","thumbnail":"https://i.ytimg.com/vi/vnEg2XMGjao/mqdefault.jpg","viewCount":"352","playlistId":"PLEkQk5xrP-tnC6BRuqMjyO-484iqXeg0o","playlistName":"شرح كتاب الموطأ للإمام مالك","category":"متنوع"},{"id":"JuSJlwJ9ItE","title":"سورة الأعراف آية 97","publishedAt":"2017-02-20T19:55:29Z","duration":"PT22M11S","thumbnail":"https://i.ytimg.com/vi/JuSJlwJ9ItE/mqdefault.jpg","viewCount":"466","playlistId":"PLEkQk5xrP-tnmTYsyW6xNdyfhPq0Bhrhj","playlistName":"مقرأة الفجر - القُرْآنُ الكَرِيمُ - خَتْمَةُ التَّدَبُّرِ  أ.د. يسري جبر","category":"متنوع"},{"id":"sV-OOQl1xlk","title":"سورة الأعراف آية 94","publishedAt":"2017-02-19T15:47:05Z","duration":"PT19M19S","thumbnail":"https://i.ytimg.com/vi/sV-OOQl1xlk/mqdefault.jpg","viewCount":"345","playlistId":"PLEkQk5xrP-tnmTYsyW6xNdyfhPq0Bhrhj","playlistName":"مقرأة الفجر - القُرْآنُ الكَرِيمُ - خَتْمَةُ التَّدَبُّرِ  أ.د. يسري جبر","category":"متنوع"},{"id":"sT8R7EFZFfM","title":"سورة الأعراف آية 85","publishedAt":"2017-02-18T12:39:13Z","duration":"PT26M43S","thumbnail":"https://i.ytimg.com/vi/sT8R7EFZFfM/mqdefault.jpg","viewCount":"398","playlistId":"PLEkQk5xrP-tnmTYsyW6xNdyfhPq0Bhrhj","playlistName":"مقرأة الفجر - القُرْآنُ الكَرِيمُ - خَتْمَةُ التَّدَبُّرِ  أ.د. يسري جبر","category":"متنوع"},{"id":"hAR9ZNiSC88","title":"سورة الأعراف آية 80","publishedAt":"2017-02-17T07:50:40Z","duration":"PT28M44S","thumbnail":"https://i.ytimg.com/vi/hAR9ZNiSC88/mqdefault.jpg","viewCount":"502","playlistId":"PLEkQk5xrP-tnmTYsyW6xNdyfhPq0Bhrhj","playlistName":"مقرأة الفجر - القُرْآنُ الكَرِيمُ - خَتْمَةُ التَّدَبُّرِ  أ.د. يسري جبر","category":"متنوع"},{"id":"X4_U2s0UChY","title":"سورة الأعراف آية 73","publishedAt":"2017-02-16T08:31:51Z","duration":"PT23M37S","thumbnail":"https://i.ytimg.com/vi/X4_U2s0UChY/mqdefault.jpg","viewCount":"515","playlistId":"PLEkQk5xrP-tnmTYsyW6xNdyfhPq0Bhrhj","playlistName":"مقرأة الفجر - القُرْآنُ الكَرِيمُ - خَتْمَةُ التَّدَبُّرِ  أ.د. يسري جبر","category":"متنوع"},{"id":"9pVKUCDZkW0","title":"سورة الأعراف آية 65","publishedAt":"2017-02-15T13:32:25Z","duration":"PT22M15S","thumbnail":"https://i.ytimg.com/vi/9pVKUCDZkW0/mqdefault.jpg","viewCount":"675","playlistId":"PLEkQk5xrP-tnmTYsyW6xNdyfhPq0Bhrhj","playlistName":"مقرأة الفجر - القُرْآنُ الكَرِيمُ - خَتْمَةُ التَّدَبُّرِ  أ.د. يسري جبر","category":"متنوع"},{"id":"d06OajHApJo","title":"مقرأة سورة الأعراف من آية ٥٩","publishedAt":"2017-02-14T11:31:59Z","duration":"PT22M21S","thumbnail":"https://i.ytimg.com/vi/d06OajHApJo/mqdefault.jpg","viewCount":"438","playlistId":"PLEkQk5xrP-tnmTYsyW6xNdyfhPq0Bhrhj","playlistName":"مقرأة الفجر - القُرْآنُ الكَرِيمُ - خَتْمَةُ التَّدَبُّرِ  أ.د. يسري جبر","category":"متنوع"},{"id":"UqyNQdg7G7s","title":"سورة الأعراف آية 56","publishedAt":"2017-02-13T07:40:14Z","duration":"PT15M40S","thumbnail":"https://i.ytimg.com/vi/UqyNQdg7G7s/mqdefault.jpg","viewCount":"417","playlistId":"PLEkQk5xrP-tnmTYsyW6xNdyfhPq0Bhrhj","playlistName":"مقرأة الفجر - القُرْآنُ الكَرِيمُ - خَتْمَةُ التَّدَبُّرِ  أ.د. يسري جبر","category":"متنوع"},{"id":"N3U33LQQ3lc","title":"مقرأة سورة الفرقان من آية ٦٣","publishedAt":"2018-04-06T11:30:40Z","duration":"PT24M13S","thumbnail":"https://i.ytimg.com/vi/N3U33LQQ3lc/mqdefault.jpg","viewCount":"287","playlistId":"PLEkQk5xrP-tnmTYsyW6xNdyfhPq0Bhrhj","playlistName":"مقرأة الفجر - القُرْآنُ الكَرِيمُ - خَتْمَةُ التَّدَبُّرِ  أ.د. يسري جبر","category":"متنوع"},{"id":"U7vnn3Y4dBo","title":"مقرأة سورة الفرقان من آية ٥٩","publishedAt":"2018-04-05T14:42:12Z","duration":"PT20M49S","thumbnail":"https://i.ytimg.com/vi/U7vnn3Y4dBo/mqdefault.jpg","viewCount":"403","playlistId":"PLEkQk5xrP-tnmTYsyW6xNdyfhPq0Bhrhj","playlistName":"مقرأة الفجر - القُرْآنُ الكَرِيمُ - خَتْمَةُ التَّدَبُّرِ  أ.د. يسري جبر","category":"متنوع"},{"id":"MfECRZkpA3k","title":"مقرأة سورة الفرقان من آية ٥٣","publishedAt":"2018-04-04T10:24:42Z","duration":"PT24M19S","thumbnail":"https://i.ytimg.com/vi/MfECRZkpA3k/mqdefault.jpg","viewCount":"275","playlistId":"PLEkQk5xrP-tnmTYsyW6xNdyfhPq0Bhrhj","playlistName":"مقرأة الفجر - القُرْآنُ الكَرِيمُ - خَتْمَةُ التَّدَبُّرِ  أ.د. يسري جبر","category":"متنوع"},{"id":"rFcAfKXSu0I","title":"الفِكْرَةُ: سَيْرُ القَلْبِ، في مَيَادِينِ الأَغْيَارِ.","publishedAt":"2018-04-03T18:12:55Z","duration":"PT19M12S","thumbnail":"https://i.ytimg.com/vi/rFcAfKXSu0I/mqdefault.jpg","viewCount":"6712","playlistId":"PLEkQk5xrP-tkI_meE148wc7V7XHlB0WPb","playlistName":"من الحكم العطائية  د. يسري جبر","category":"متنوع"},{"id":"ZiRCCLd6-T4","title":"مقرأة سورة الفرقان من آية ٤٩","publishedAt":"2018-04-03T08:47:02Z","duration":"PT11M41S","thumbnail":"https://i.ytimg.com/vi/ZiRCCLd6-T4/mqdefault.jpg","viewCount":"1065","playlistId":"PLEkQk5xrP-tnmTYsyW6xNdyfhPq0Bhrhj","playlistName":"مقرأة الفجر - القُرْآنُ الكَرِيمُ - خَتْمَةُ التَّدَبُّرِ  أ.د. يسري جبر","category":"متنوع"},{"id":"PBthxU-xzh0","title":"مقرأة سورة الفرقان من آية ٤١","publishedAt":"2018-04-02T07:05:12Z","duration":"PT19M44S","thumbnail":"https://i.ytimg.com/vi/PBthxU-xzh0/mqdefault.jpg","viewCount":"287","playlistId":"PLEkQk5xrP-tnmTYsyW6xNdyfhPq0Bhrhj","playlistName":"مقرأة الفجر - القُرْآنُ الكَرِيمُ - خَتْمَةُ التَّدَبُّرِ  أ.د. يسري جبر","category":"متنوع"},{"id":"bwWqD1-4wJI","title":"مقرأة سورة الفرقان من آية ٣٢","publishedAt":"2018-04-01T08:31:52Z","duration":"PT18M42S","thumbnail":"https://i.ytimg.com/vi/bwWqD1-4wJI/mqdefault.jpg","viewCount":"233","playlistId":"PLEkQk5xrP-tnmTYsyW6xNdyfhPq0Bhrhj","playlistName":"مقرأة الفجر - القُرْآنُ الكَرِيمُ - خَتْمَةُ التَّدَبُّرِ  أ.د. يسري جبر","category":"متنوع"},{"id":"p6tyWmZ0Ddo","title":"مقرأة سورة الفرقان من آية ٢٧","publishedAt":"2018-03-31T08:11:25Z","duration":"PT7M14S","thumbnail":"https://i.ytimg.com/vi/p6tyWmZ0Ddo/mqdefault.jpg","viewCount":"251","playlistId":"PLEkQk5xrP-tnmTYsyW6xNdyfhPq0Bhrhj","playlistName":"مقرأة الفجر - القُرْآنُ الكَرِيمُ - خَتْمَةُ التَّدَبُّرِ  أ.د. يسري جبر","category":"متنوع"},{"id":"4sISodcxK0Y","title":"إنَّمَا جَعَلَها مَحَلًّا للأَغْيَار ومَعْدِنًا لوجُودِ الأكْدَار.. تزْهيدًا لكَ فيها.","publishedAt":"2018-03-30T18:43:47Z","duration":"PT3M38S","thumbnail":"https://i.ytimg.com/vi/4sISodcxK0Y/mqdefault.jpg","viewCount":"1003","playlistId":"PLEkQk5xrP-tkI_meE148wc7V7XHlB0WPb","playlistName":"من الحكم العطائية  د. يسري جبر","category":"متنوع"},{"id":"WS36N7yxZQQ","title":"مقرأة سورة الفرقان من آية ٢١","publishedAt":"2018-03-30T15:07:20Z","duration":"PT11M18S","thumbnail":"https://i.ytimg.com/vi/WS36N7yxZQQ/mqdefault.jpg","viewCount":"246","playlistId":"PLEkQk5xrP-tnmTYsyW6xNdyfhPq0Bhrhj","playlistName":"مقرأة الفجر - القُرْآنُ الكَرِيمُ - خَتْمَةُ التَّدَبُّرِ  أ.د. يسري جبر","category":"متنوع"},{"id":"HFeGIvnJilo","title":"37- أهمية النية في طلب العلم وسائر العبادات | شرح سنن الدار قطني رضي الله عنه","publishedAt":"2024-06-01T09:00:18Z","duration":"PT44M34S","thumbnail":"https://i.ytimg.com/vi/HFeGIvnJilo/mqdefault.jpg","viewCount":"1259","playlistId":"PLEkQk5xrP-tk_MCBZ706ORCw6gFtFyaGj","playlistName":"شرح سنن الإمام الدارقطني","category":"متنوع"},{"id":"VhK5_E8jMm4","title":"متى أوحشك من خلقه ، فاعلم أنَّه يريد أن يفتح لك باب الأنس به .","publishedAt":"2016-11-13T20:03:49Z","duration":"PT11M27S","thumbnail":"https://i.ytimg.com/vi/VhK5_E8jMm4/mqdefault.jpg","viewCount":"27598","playlistId":"PLEkQk5xrP-tkI_meE148wc7V7XHlB0WPb","playlistName":"من الحكم العطائية  د. يسري جبر","category":"متنوع"},{"id":"c5-5ciqYJ5w","title":"خير أوقاتك : وقت تشهد فيه وجود فاقتك ، وتُردُّ فيه إلى وجود ذِلَّتك","publishedAt":"2016-11-12T19:22:17Z","duration":"PT12M35S","thumbnail":"https://i.ytimg.com/vi/c5-5ciqYJ5w/mqdefault.jpg","viewCount":"2485","playlistId":"PLEkQk5xrP-tkI_meE148wc7V7XHlB0WPb","playlistName":"من الحكم العطائية  د. يسري جبر","category":"متنوع"},{"id":"L1mvzF2pOgA","title":"سورة المائدة آية 57","publishedAt":"2016-11-12T05:43:18Z","duration":"PT12M47S","thumbnail":"https://i.ytimg.com/vi/L1mvzF2pOgA/mqdefault.jpg","viewCount":"358","playlistId":"PLEkQk5xrP-tnmTYsyW6xNdyfhPq0Bhrhj","playlistName":"مقرأة الفجر - القُرْآنُ الكَرِيمُ - خَتْمَةُ التَّدَبُّرِ  أ.د. يسري جبر","category":"متنوع"},{"id":"mMMfB7yZp-I","title":"سورة المائدة آية 54","publishedAt":"2016-11-12T04:00:17Z","duration":"PT15M42S","thumbnail":"https://i.ytimg.com/vi/mMMfB7yZp-I/mqdefault.jpg","viewCount":"429","playlistId":"PLEkQk5xrP-tnmTYsyW6xNdyfhPq0Bhrhj","playlistName":"مقرأة الفجر - القُرْآنُ الكَرِيمُ - خَتْمَةُ التَّدَبُّرِ  أ.د. يسري جبر","category":"متنوع"}],"total":4126,"page":161,"pageSize":24,"totalPages":172}