{"items":[{"id":"2YIRuSNvNI4","title":"Ù…Ù‚Ø±Ø£Ø© Ø³ÙˆØ±Ø© Ø§Ù„Ø²Ù…Ø± Ù…Ù† Ø¢ÙŠØ© Ù¡Ù¡","publishedAt":"2018-10-15T10:13:57Z","duration":"PT17M17S","thumbnail":"https://i.ytimg.com/vi/2YIRuSNvNI4/mqdefault.jpg","viewCount":"386","playlistId":"PLEkQk5xrP-tnmTYsyW6xNdyfhPq0Bhrhj","playlistName":"Ù…Ù‚Ø±Ø£Ø© Ø§Ù„ÙØ¬Ø± - Ø§Ù„Ù‚ÙØ±Ù’Ø¢Ù†Ù Ø§Ù„ÙƒÙØ±ÙÙŠÙ…Ù - Ø®ÙØªÙ’Ù…ÙØ©Ù Ø§Ù„ØªÙ‘ÙØ¯ÙØ¨Ù‘ÙØ±Ù  Ø£.Ø¯. ÙŠØ³Ø±ÙŠ Ø¬Ø¨Ø±","category":"Ù…ØªÙ†ÙˆØ¹"},{"id":"jvCzYZx72gk","title":"Ù…Ù‚Ø±Ø£Ø© Ø³ÙˆØ±Ø© Ø§Ù„Ø²Ù…Ø± Ù…Ù† Ø¢ÙŠØ© Ù©","publishedAt":"2018-10-13T04:47:28Z","duration":"PT20M28S","thumbnail":"https://i.ytimg.com/vi/jvCzYZx72gk/mqdefault.jpg","viewCount":"416","playlistId":"PLEkQk5xrP-tnmTYsyW6xNdyfhPq0Bhrhj","playlistName":"Ù…Ù‚Ø±Ø£Ø© Ø§Ù„ÙØ¬Ø± - Ø§Ù„Ù‚ÙØ±Ù’Ø¢Ù†Ù Ø§Ù„ÙƒÙØ±ÙÙŠÙ…Ù - Ø®ÙØªÙ’Ù…ÙØ©Ù Ø§Ù„ØªÙ‘ÙØ¯ÙØ¨Ù‘ÙØ±Ù  Ø£.Ø¯. ÙŠØ³Ø±ÙŠ Ø¬Ø¨Ø±","category":"Ù…ØªÙ†ÙˆØ¹"},{"id":"1c0XUViBCQY","title":"Ù…Ù‚Ø±Ø£Ø© Ø³ÙˆØ±Ø© Ø§Ù„Ø²Ù…Ø± Ù…Ù† Ø¢ÙŠØ© Ù§","publishedAt":"2018-10-11T20:56:23Z","duration":"PT14M23S","thumbnail":"https://i.ytimg.com/vi/1c0XUViBCQY/mqdefault.jpg","viewCount":"407","playlistId":"PLEkQk5xrP-tnmTYsyW6xNdyfhPq0Bhrhj","playlistName":"Ù…Ù‚Ø±Ø£Ø© Ø§Ù„ÙØ¬Ø± - Ø§Ù„Ù‚ÙØ±Ù’Ø¢Ù†Ù Ø§Ù„ÙƒÙØ±ÙÙŠÙ…Ù - Ø®ÙØªÙ’Ù…ÙØ©Ù Ø§Ù„ØªÙ‘ÙØ¯ÙØ¨Ù‘ÙØ±Ù  Ø£.Ø¯. ÙŠØ³Ø±ÙŠ Ø¬Ø¨Ø±","category":"Ù…ØªÙ†ÙˆØ¹"},{"id":"nltVpcSXYMk","title":"84- Ø¨Ø§Ø¨ Ù…ÙØ§ Ø¬ÙØ§Ø¡Ù ÙÙÙ‰ Ø§Ù„Ù’Ù‚ÙØ±ÙØ§Ø¶Ù Ø´Ø±Ø­ Ø§Ù„Ù…ÙˆØ·Ø£ Ø¯ ÙŠØ³Ø±ÙŠ Ø¬Ø¨Ø±","publishedAt":"2018-10-09T14:15:56Z","duration":"PT48M33S","thumbnail":"https://i.ytimg.com/vi/nltVpcSXYMk/mqdefault.jpg","viewCount":"600","playlistId":"PLEkQk5xrP-tnC6BRuqMjyO-484iqXeg0o","playlistName":"Ø´Ø±Ø­ ÙƒØªØ§Ø¨ Ø§Ù„Ù…ÙˆØ·Ø£ Ù„Ù„Ø¥Ù…Ø§Ù… Ù…Ø§Ù„Ùƒ","category":"Ù…ØªÙ†ÙˆØ¹"},{"id":"SZcSy8ugG4E","title":"Ù…Ù‚Ø±Ø£Ø© Ø³ÙˆØ±Ø© Ø§Ù„Ø²Ù…Ø± Ù…Ù† Ø£ÙˆÙ„Ù‡Ø§","publishedAt":"2018-10-09T09:08:08Z","duration":"PT18M31S","thumbnail":"https://i.ytimg.com/vi/SZcSy8ugG4E/mqdefault.jpg","viewCount":"760","playlistId":"PLEkQk5xrP-tnmTYsyW6xNdyfhPq0Bhrhj","playlistName":"Ù…Ù‚Ø±Ø£Ø© Ø§Ù„ÙØ¬Ø± - Ø§Ù„Ù‚ÙØ±Ù’Ø¢Ù†Ù Ø§Ù„ÙƒÙØ±ÙÙŠÙ…Ù - Ø®ÙØªÙ’Ù…ÙØ©Ù Ø§Ù„ØªÙ‘ÙØ¯ÙØ¨Ù‘ÙØ±Ù  Ø£.Ø¯. ÙŠØ³Ø±ÙŠ Ø¬Ø¨Ø±","category":"Ù…ØªÙ†ÙˆØ¹"},{"id":"qOjDsHlEdAs","title":"Ù…Ù‚Ø±Ø£Ø© Ø³ÙˆØ±Ø© Øµ Ù…Ù† Ø¢ÙŠØ© Ù¦Ù¥","publishedAt":"2018-10-08T12:51:18Z","duration":"PT45M45S","thumbnail":"https://i.ytimg.com/vi/qOjDsHlEdAs/mqdefault.jpg","viewCount":"466","playlistId":"PLEkQk5xrP-tnmTYsyW6xNdyfhPq0Bhrhj","playlistName":"Ù…Ù‚Ø±Ø£Ø© Ø§Ù„ÙØ¬Ø± - Ø§Ù„Ù‚ÙØ±Ù’Ø¢Ù†Ù Ø§Ù„ÙƒÙØ±ÙÙŠÙ…Ù - Ø®ÙØªÙ’Ù…ÙØ©Ù Ø§Ù„ØªÙ‘ÙØ¯ÙØ¨Ù‘ÙØ±Ù  Ø£.Ø¯. ÙŠØ³Ø±ÙŠ Ø¬Ø¨Ø±","category":"Ù…ØªÙ†ÙˆØ¹"},{"id":"sInKHEjFiSQ","title":"54- Ù…Ø§ Ù‡ÙŠ Ø£Ø±ÙƒØ§Ù† Ø§Ù„ØµÙ„Ø§Ø© ÙˆØ³Ù†Ù†Ù‡Ø§ØŸ | Ø´Ø±Ø­ Ù…Ø®ØªØµØ± Ø§Ù„ÙØªÙˆØ­Ø§Øª Ø§Ù„Ù…ÙƒÙŠØ©","publishedAt":"2025-11-16T19:15:57Z","duration":"PT41M15S","thumbnail":"https://i.ytimg.com/vi/sInKHEjFiSQ/mqdefault.jpg","viewCount":"1092","playlistId":"PLEkQk5xrP-tnpkdZki6rPTtMak1bnI5g-","playlistName":"Ø´Ø±Ø­ ÙƒØªØ§Ø¨ Ù…Ø®ØªØµØ± Ø§Ù„ÙØªÙˆØ­Ø§Øª Ø§Ù„Ù…ÙƒÙŠØ© Ø§Ù„Ù…Ø³Ù…Ù‰ Ù„ÙˆØ§Ù‚Ø­ Ø§Ù„Ø£Ù†ÙˆØ§Ø± Ø§Ù„Ù‚Ø¯Ø³ÙŠØ©","category":"Ù…ØªÙ†ÙˆØ¹"},{"id":"PvCkTzCk17Y","title":"67- ÙƒÙŠÙÙŠØ© Ø¬Ù…Ø¹ Ø§Ù„ØµÙ„Ø§Ø© Ù„Ù„Ù…Ø³Ø§ÙØ± ÙˆØµÙ„Ø§ØªÙ‡ ÙÙŠ Ø§Ù„Ø³ÙÙŠÙ†Ø© ÙˆØ§Ø³ØªÙ‚Ø¨Ø§Ù„ Ø§Ù„Ù‚Ø¨Ù„Ø© | Ø´Ø±Ø­ Ø³Ù†Ù† Ø§Ù„Ø¥Ù…Ø§Ù… Ø§Ù„Ø¯Ø§Ø±Ù‚Ø·Ù†ÙŠ","publishedAt":"2025-11-16T10:30:27Z","duration":"PT33M15S","thumbnail":"https://i.ytimg.com/vi/PvCkTzCk17Y/mqdefault.jpg","viewCount":"470","playlistId":"PLEkQk5xrP-tk_MCBZ706ORCw6gFtFyaGj","playlistName":"Ø´Ø±Ø­ Ø³Ù†Ù† Ø§Ù„Ø¥Ù…Ø§Ù… Ø§Ù„Ø¯Ø§Ø±Ù‚Ø·Ù†ÙŠ","category":"Ù…ØªÙ†ÙˆØ¹"},{"id":"LXzCSzDrgvY","title":"Ù…Ø§ Ø­ÙƒÙ… Ø§Ù„ØªÙˆØ³Ù„ Ø¨Ø§Ù„Ø£ÙˆÙ„ÙŠØ§Ø¡ ÙˆØ§Ù„ØµØ§Ù„Ø­ÙŠÙ†ØŸ","publishedAt":"2025-11-15T17:15:01Z","duration":"PT10M31S","thumbnail":"https://i.ytimg.com/vi/LXzCSzDrgvY/mqdefault.jpg","viewCount":"1824","playlistId":"PLEkQk5xrP-tm8ZIu74nTOZN9KJUJu416J","playlistName":"Ù…Ù‚Ø§Ø·Ø¹ Ù…ÙÙ‡Ù…ÙÙ‘Ø© (ÙŠÙØ³Ø±ÙŠÙ‘ÙØ§Øª) Ø£.Ø¯. ÙŠØ³Ø±ÙŠ Ø¬Ø¨Ø±","category":"Ù…ØªÙ†ÙˆØ¹"},{"id":"VWAJCzdz5eU","title":"Ø§Ø²Ø§ÙŠ ØªØ±Ø¨ÙŠ Ø£ÙˆÙ„Ø§Ø¯Ùƒ ØªØ±Ø¨ÙŠØ© ØµØ­ÙŠØ­Ø©ØŸ","publishedAt":"2025-11-14T18:16:41Z","duration":"PT11M37S","thumbnail":"https://i.ytimg.com/vi/VWAJCzdz5eU/mqdefault.jpg","viewCount":"1842","playlistId":"PLEkQk5xrP-tm8ZIu74nTOZN9KJUJu416J","playlistName":"Ù…Ù‚Ø§Ø·Ø¹ Ù…ÙÙ‡Ù…ÙÙ‘Ø© (ÙŠÙØ³Ø±ÙŠÙ‘ÙØ§Øª) Ø£.Ø¯. ÙŠØ³Ø±ÙŠ Ø¬Ø¨Ø±","category":"Ù…ØªÙ†ÙˆØ¹"},{"id":"QrzOrbGSNf0","title":"ÙƒÙŠÙ ØªÙƒØ«Ø± Ù…Ù† Ø°ÙƒØ± Ø§Ù„Ù„Ù‡ Ù…Ø¹ ÙƒØ«Ø±Ø© Ù…Ø´Ø§ØºÙ„ Ø§Ù„Ø­ÙŠØ§Ø©ØŸ","publishedAt":"2025-11-13T20:10:30Z","duration":"PT11M14S","thumbnail":"https://i.ytimg.com/vi/QrzOrbGSNf0/mqdefault.jpg","viewCount":"4599","playlistId":"PLEkQk5xrP-tm8ZIu74nTOZN9KJUJu416J","playlistName":"Ù…Ù‚Ø§Ø·Ø¹ Ù…ÙÙ‡Ù…ÙÙ‘Ø© (ÙŠÙØ³Ø±ÙŠÙ‘ÙØ§Øª) Ø£.Ø¯. ÙŠØ³Ø±ÙŠ Ø¬Ø¨Ø±","category":"Ù…ØªÙ†ÙˆØ¹"},{"id":"_nHc48neKOs","title":"Ø§Ø²Ø§ÙŠ ØªØ´ÙˆÙ Ø§Ù„Ù†Ø¨ÙŠ ï·º ÙÙŠ Ø§Ù„Ù…Ù†Ø§Ù…ØŸ","publishedAt":"2025-11-12T19:30:12Z","duration":"PT8M23S","thumbnail":"https://i.ytimg.com/vi/_nHc48neKOs/mqdefault.jpg","viewCount":"2855","playlistId":"PLEkQk5xrP-tm8ZIu74nTOZN9KJUJu416J","playlistName":"Ù…Ù‚Ø§Ø·Ø¹ Ù…ÙÙ‡Ù…ÙÙ‘Ø© (ÙŠÙØ³Ø±ÙŠÙ‘ÙØ§Øª) Ø£.Ø¯. ÙŠØ³Ø±ÙŠ Ø¬Ø¨Ø±","category":"Ù…ØªÙ†ÙˆØ¹"},{"id":"NLdReIqGXj0","title":"Ù…Ø§ Ù‡ÙŠ Ø£ÙØ¶Ù„ ØµÙŠØºØ© Ù„Ù„ØµÙ„Ø§Ø© Ø¹Ù„Ù‰ Ø§Ù„Ù†Ø¨ÙŠ ï·ºØŸ","publishedAt":"2025-11-11T18:30:22Z","duration":"PT8M5S","thumbnail":"https://i.ytimg.com/vi/NLdReIqGXj0/mqdefault.jpg","viewCount":"13390","playlistId":"PLEkQk5xrP-tm8ZIu74nTOZN9KJUJu416J","playlistName":"Ù…Ù‚Ø§Ø·Ø¹ Ù…ÙÙ‡Ù…ÙÙ‘Ø© (ÙŠÙØ³Ø±ÙŠÙ‘ÙØ§Øª) Ø£.Ø¯. ÙŠØ³Ø±ÙŠ Ø¬Ø¨Ø±","category":"Ù…ØªÙ†ÙˆØ¹"},{"id":"XTgah0TfI6k","title":"ÙƒÙŠÙ ØªØ¹Ø±Ù Ø£Ù†Ùƒ ØªØ±Ù‚ÙŠØª ÙÙŠ Ø·Ø±ÙŠÙ‚ Ø§Ù„ØªØµÙˆÙØŸ","publishedAt":"2025-11-10T19:30:06Z","duration":"PT38M5S","thumbnail":"https://i.ytimg.com/vi/XTgah0TfI6k/mqdefault.jpg","viewCount":"3908","playlistId":"PLEkQk5xrP-tm8ZIu74nTOZN9KJUJu416J","playlistName":"Ù…Ù‚Ø§Ø·Ø¹ Ù…ÙÙ‡Ù…ÙÙ‘Ø© (ÙŠÙØ³Ø±ÙŠÙ‘ÙØ§Øª) Ø£.Ø¯. ÙŠØ³Ø±ÙŠ Ø¬Ø¨Ø±","category":"Ù…ØªÙ†ÙˆØ¹"},{"id":"AgZucIKsTbQ","title":"Ø´Ø±Ø­ ÙƒØ§Ù…Ù„ Ù„Ù…Ø¹Ø¬Ø²Ø§Øª ÙˆØ´Ù…Ø§Ø¦Ù„ Ø§Ù„Ù†Ø¨ÙŠ ï·º","publishedAt":"2025-11-09T20:15:00Z","duration":"PT20M57S","thumbnail":"https://i.ytimg.com/vi/AgZucIKsTbQ/mqdefault.jpg","viewCount":"2253","playlistId":"PLEkQk5xrP-tm8ZIu74nTOZN9KJUJu416J","playlistName":"Ù…Ù‚Ø§Ø·Ø¹ Ù…ÙÙ‡Ù…ÙÙ‘Ø© (ÙŠÙØ³Ø±ÙŠÙ‘ÙØ§Øª) Ø£.Ø¯. ÙŠØ³Ø±ÙŠ Ø¬Ø¨Ø±","category":"Ù…ØªÙ†ÙˆØ¹"},{"id":"datzEoo9P64","title":"ÙØ¶Ù„ ÙˆÙƒÙ†ÙˆØ² Ø§Ù„ØµÙ„Ø§Ø© Ø¹Ù„Ù‰ Ø§Ù„Ù†Ø¨ÙŠ ï·º","publishedAt":"2025-11-08T17:01:05Z","duration":"PT28M54S","thumbnail":"https://i.ytimg.com/vi/datzEoo9P64/mqdefault.jpg","viewCount":"10131","playlistId":"PLEkQk5xrP-tm8ZIu74nTOZN9KJUJu416J","playlistName":"Ù…Ù‚Ø§Ø·Ø¹ Ù…ÙÙ‡Ù…ÙÙ‘Ø© (ÙŠÙØ³Ø±ÙŠÙ‘ÙØ§Øª) Ø£.Ø¯. ÙŠØ³Ø±ÙŠ Ø¬Ø¨Ø±","category":"Ù…ØªÙ†ÙˆØ¹"},{"id":"MCk_un62AAw","title":"Ø®Ø·Ø¨Ø© Ø§Ù„Ø¬Ù…Ø¹Ø© | Ø¨Ø±Ø´Ù„ÙˆÙ†Ø© - Ø¥Ø³Ø¨Ø§Ù†ÙŠØ§ğŸ“","publishedAt":"2025-11-07T18:00:21Z","duration":"PT20M20S","thumbnail":"https://i.ytimg.com/vi/MCk_un62AAw/mqdefault.jpg","viewCount":"1406","playlistId":"PLEkQk5xrP-tm8ZIu74nTOZN9KJUJu416J","playlistName":"Ù…Ù‚Ø§Ø·Ø¹ Ù…ÙÙ‡Ù…ÙÙ‘Ø© (ÙŠÙØ³Ø±ÙŠÙ‘ÙØ§Øª) Ø£.Ø¯. ÙŠØ³Ø±ÙŠ Ø¬Ø¨Ø±","category":"Ù…ØªÙ†ÙˆØ¹"},{"id":"_zxdEDjvbKM","title":"181- ÙƒÙŠÙ Ù†Ø­Ø¨Ø¨ Ø£Ø¨Ù†Ø§Ø¡Ù†Ø§ ÙÙŠ Ø§Ù„ØªØ¹Ù„ÙŠÙ…ØŸ - Ø´Ø±Ø­ Ù…Ø³Ù†Ø¯ Ø§Ù„Ø¥Ù…Ø§Ù… Ø£Ø­Ù…Ø¯ Ø±Ø¶ÙŠ Ø§Ù„Ù„Ù‡ ØªØ¹Ø§Ù„Ù‰ Ø¹Ù†Ù‡","publishedAt":"2025-11-07T05:41:17Z","duration":"PT33M42S","thumbnail":"https://i.ytimg.com/vi/_zxdEDjvbKM/mqdefault.jpg","viewCount":"723","playlistId":"PLEkQk5xrP-tkKprIuGrSdEuBSMsyg5We1","playlistName":"Ø´Ø±Ø­ Ù…Ø³Ù†Ø¯ Ø§Ù„Ø¥Ù…Ø§Ù… Ø£Ø­Ù…Ø¯ Ø¨Ù† Ø­Ù†Ø¨Ù„","category":"Ù…ØªÙ†ÙˆØ¹"},{"id":"q3TysWWyoZ0","title":"ÙƒÙŠÙ ÙŠØªØ¹Ø§Ù…Ù„ Ø§Ù„Ù…Ø³Ù„Ù… ÙÙŠ Ø£ÙˆØ±ÙˆØ¨Ø§ ÙˆØ¨Ù„Ø§Ø¯ Ø§Ù„ØºØ±Ø¨ Ù…Ø¹ Ø§Ù„ØªØ­Ø¯ÙŠØ§Øª Ø§Ù„ØªÙŠ ØªÙˆØ§Ø¬Ù‡Ù‡ØŸ","publishedAt":"2025-11-06T18:01:03Z","duration":"PT20M30S","thumbnail":"https://i.ytimg.com/vi/q3TysWWyoZ0/mqdefault.jpg","viewCount":"1330","playlistId":"PLEkQk5xrP-tm8ZIu74nTOZN9KJUJu416J","playlistName":"Ù…Ù‚Ø§Ø·Ø¹ Ù…ÙÙ‡Ù…ÙÙ‘Ø© (ÙŠÙØ³Ø±ÙŠÙ‘ÙØ§Øª) Ø£.Ø¯. ÙŠØ³Ø±ÙŠ Ø¬Ø¨Ø±","category":"Ù…ØªÙ†ÙˆØ¹"},{"id":"IbsKXdWdd9Q","title":"180- Ø±Ø¤ÙŠØ© Ø§Ù„Ù†Ø¨ÙŠ ï·º ÙÙŠ Ø§Ù„Ù…Ù†Ø§Ù… - Ø´Ø±Ø­ Ù…Ø³Ù†Ø¯ Ø§Ù„Ø¥Ù…Ø§Ù… Ø£Ø­Ù…Ø¯ Ø±Ø¶ÙŠ Ø§Ù„Ù„Ù‡ ØªØ¹Ø§Ù„Ù‰ Ø¹Ù†Ù‡","publishedAt":"2025-11-05T05:36:34Z","duration":"PT26M4S","thumbnail":"https://i.ytimg.com/vi/IbsKXdWdd9Q/mqdefault.jpg","viewCount":"1652","playlistId":"PLEkQk5xrP-tkKprIuGrSdEuBSMsyg5We1","playlistName":"Ø´Ø±Ø­ Ù…Ø³Ù†Ø¯ Ø§Ù„Ø¥Ù…Ø§Ù… Ø£Ø­Ù…Ø¯ Ø¨Ù† Ø­Ù†Ø¨Ù„","category":"Ù…ØªÙ†ÙˆØ¹"},{"id":"u_h6yoe-Q8U","title":"Ù„Ù…Ø§Ø°Ø§ Ø®Ù„Ù‚Ù†Ø§ Ø§Ù„Ù„Ù‡ ÙˆÙ„Ù…Ø§Ø°Ø§ Ø£Ù…Ø±Ù†Ø§ Ø¨Ø¹Ø¨Ø§Ø¯ØªÙ‡ØŸ","publishedAt":"2025-11-04T21:00:58Z","duration":"PT26M17S","thumbnail":"https://i.ytimg.com/vi/u_h6yoe-Q8U/mqdefault.jpg","viewCount":"1731","playlistId":"PLEkQk5xrP-tm8ZIu74nTOZN9KJUJu416J","playlistName":"Ù…Ù‚Ø§Ø·Ø¹ Ù…ÙÙ‡Ù…ÙÙ‘Ø© (ÙŠÙØ³Ø±ÙŠÙ‘ÙØ§Øª) Ø£.Ø¯. ÙŠØ³Ø±ÙŠ Ø¬Ø¨Ø±","category":"Ù…ØªÙ†ÙˆØ¹"},{"id":"9ze0FdI-ofk","title":"ÙƒÙŠÙ ØªÙ†Ø²Ø¹ Ø­Ø¨ Ø§Ù„Ø¯Ù†ÙŠØ§ ÙˆØ§Ù„ØªØ¹Ù„Ù‚ Ø¨Ù‡Ø§ Ù…Ù† Ù‚Ù„Ø¨ÙƒØŸ","publishedAt":"2025-11-03T19:06:35Z","duration":"PT11M26S","thumbnail":"https://i.ytimg.com/vi/9ze0FdI-ofk/mqdefault.jpg","viewCount":"4481","playlistId":"PLEkQk5xrP-tm8ZIu74nTOZN9KJUJu416J","playlistName":"Ù…Ù‚Ø§Ø·Ø¹ Ù…ÙÙ‡Ù…ÙÙ‘Ø© (ÙŠÙØ³Ø±ÙŠÙ‘ÙØ§Øª) Ø£.Ø¯. ÙŠØ³Ø±ÙŠ Ø¬Ø¨Ø±","category":"Ù…ØªÙ†ÙˆØ¹"},{"id":"_k535ZGB_kk","title":"179- Ù„Ø§ ØªØ³Ø£Ù„ Ø§Ù„Ù†Ø§Ø³ Ø´ÙŠØ¦Ø§ ÙˆÙ„Ùˆ ÙŠØ³ÙŠØ±Ø§ - Ø´Ø±Ø­ Ù…Ø³Ù†Ø¯ Ø§Ù„Ø¥Ù…Ø§Ù… Ø£Ø­Ù…Ø¯ Ø±Ø¶ÙŠ Ø§Ù„Ù„Ù‡ ØªØ¹Ø§Ù„Ù‰ Ø¹Ù†Ù‡","publishedAt":"2025-11-03T05:30:15Z","duration":"PT26M52S","thumbnail":"https://i.ytimg.com/vi/_k535ZGB_kk/mqdefault.jpg","viewCount":"1636","playlistId":"PLEkQk5xrP-tkKprIuGrSdEuBSMsyg5We1","playlistName":"Ø´Ø±Ø­ Ù…Ø³Ù†Ø¯ Ø§Ù„Ø¥Ù…Ø§Ù… Ø£Ø­Ù…Ø¯ Ø¨Ù† Ø­Ù†Ø¨Ù„","category":"Ù…ØªÙ†ÙˆØ¹"},{"id":"kDUO_tbx_1o","title":"ÙƒÙŠÙ ØªØªØ¹Ø±Ù Ø¹Ù„Ù‰ Ø±ÙˆØ­Ø§Ù†ÙŠØ© Ø§Ù„Ù†Ø¨ÙŠ ï·ºØŸ","publishedAt":"2025-11-02T17:01:09Z","duration":"PT16M10S","thumbnail":"https://i.ytimg.com/vi/kDUO_tbx_1o/mqdefault.jpg","viewCount":"2609","playlistId":"PLEkQk5xrP-tm8ZIu74nTOZN9KJUJu416J","playlistName":"Ù…Ù‚Ø§Ø·Ø¹ Ù…ÙÙ‡Ù…ÙÙ‘Ø© (ÙŠÙØ³Ø±ÙŠÙ‘ÙØ§Øª) Ø£.Ø¯. ÙŠØ³Ø±ÙŠ Ø¬Ø¨Ø±","category":"Ù…ØªÙ†ÙˆØ¹"}],"total":4126,"page":7,"pageSize":24,"totalPages":172}