{"items":[{"id":"DjZKJv-AJrw","title":"مقرأة سورة الحجر من آية ١١","publishedAt":"2017-08-06T07:27:16Z","duration":"PT18M58S","thumbnail":"https://i.ytimg.com/vi/DjZKJv-AJrw/mqdefault.jpg","viewCount":"360","playlistId":"PLEkQk5xrP-tnmTYsyW6xNdyfhPq0Bhrhj","playlistName":"مقرأة الفجر - القُرْآنُ الكَرِيمُ - خَتْمَةُ التَّدَبُّرِ  أ.د. يسري جبر","category":"متنوع"},{"id":"xWh9kcJ2MAs","title":"مقرأة الفجر من سورة الحجر آية ١","publishedAt":"2017-08-05T14:14:59Z","duration":"PT18M39S","thumbnail":"https://i.ytimg.com/vi/xWh9kcJ2MAs/mqdefault.jpg","viewCount":"536","playlistId":"PLEkQk5xrP-tnmTYsyW6xNdyfhPq0Bhrhj","playlistName":"مقرأة الفجر - القُرْآنُ الكَرِيمُ - خَتْمَةُ التَّدَبُّرِ  أ.د. يسري جبر","category":"متنوع"},{"id":"PGAD8fe30xc","title":"مقرأة الفجر من سورة إبراهيم آية ٤٢","publishedAt":"2017-08-04T09:16:30Z","duration":"PT25M50S","thumbnail":"https://i.ytimg.com/vi/PGAD8fe30xc/mqdefault.jpg","viewCount":"355","playlistId":"PLEkQk5xrP-tnmTYsyW6xNdyfhPq0Bhrhj","playlistName":"مقرأة الفجر - القُرْآنُ الكَرِيمُ - خَتْمَةُ التَّدَبُّرِ  أ.د. يسري جبر","category":"متنوع"},{"id":"m0tgzHRUMRM","title":"مقرأة الفجر من سورة إبراهيم آية ٣٥","publishedAt":"2017-08-03T12:59:53Z","duration":"PT20M59S","thumbnail":"https://i.ytimg.com/vi/m0tgzHRUMRM/mqdefault.jpg","viewCount":"328","playlistId":"PLEkQk5xrP-tnmTYsyW6xNdyfhPq0Bhrhj","playlistName":"مقرأة الفجر - القُرْآنُ الكَرِيمُ - خَتْمَةُ التَّدَبُّرِ  أ.د. يسري جبر","category":"متنوع"},{"id":"Sj-DwVzbbCI","title":"مقرأة سورة القصص من آية ٣٦","publishedAt":"2018-05-17T18:24:53Z","duration":"PT27M32S","thumbnail":"https://i.ytimg.com/vi/Sj-DwVzbbCI/mqdefault.jpg","viewCount":"238","playlistId":"PLEkQk5xrP-tnmTYsyW6xNdyfhPq0Bhrhj","playlistName":"مقرأة الفجر - القُرْآنُ الكَرِيمُ - خَتْمَةُ التَّدَبُّرِ  أ.د. يسري جبر","category":"متنوع"},{"id":"YYsZvj-afbU","title":"( 138 ) حديث درجات النية في ربط الخيل  د. يسري جبر","publishedAt":"2018-05-17T09:31:52Z","duration":"PT22M38S","thumbnail":"https://i.ytimg.com/vi/YYsZvj-afbU/mqdefault.jpg","viewCount":"726","playlistId":"PLEkQk5xrP-tnl7vb7KeAoPd5ZlqKKW8KV","playlistName":"شرح كتاب بهجة النفوس أ.د . يسرى جبر","category":"متنوع"},{"id":"QgOGSaYn98M","title":"مقرأة سورة القصص من آية ١٢","publishedAt":"2018-05-15T17:58:30Z","duration":"PT7M49S","thumbnail":"https://i.ytimg.com/vi/QgOGSaYn98M/mqdefault.jpg","viewCount":"336","playlistId":"PLEkQk5xrP-tnmTYsyW6xNdyfhPq0Bhrhj","playlistName":"مقرأة الفجر - القُرْآنُ الكَرِيمُ - خَتْمَةُ التَّدَبُّرِ  أ.د. يسري جبر","category":"متنوع"},{"id":"T0MczJf8yxE","title":"شرح كتاب منازل السائرين للإمام الهروى - المجلس الثامن والعشرون - قسم الأخلاق باب الإيثار","publishedAt":"2014-12-01T03:52:33Z","duration":"PT45M56S","thumbnail":"https://i.ytimg.com/vi/T0MczJf8yxE/mqdefault.jpg","viewCount":"1185","playlistId":"PLEkQk5xrP-tnLYi_5_tSRVBwqcs7ISV7Y","playlistName":"شرح كتاب منازل السائرين للإمام الهروي","category":"متنوع"},{"id":"HPLAvQ2uNq8","title":"شرح كتاب منازل السائرين للإمام الهروى - المجلس السابع والعشرون - قسم الأخلاق باب الصدق","publishedAt":"2014-11-25T20:13:28Z","duration":"PT53M24S","thumbnail":"https://i.ytimg.com/vi/HPLAvQ2uNq8/mqdefault.jpg","viewCount":"1326","playlistId":"PLEkQk5xrP-tnLYi_5_tSRVBwqcs7ISV7Y","playlistName":"شرح كتاب منازل السائرين للإمام الهروي","category":"متنوع"},{"id":"MEcTMZaqmVA","title":"شرح كتاب منازل السائرين للإمام الهروى - المجلس السادس والعشرون - قسم الأخلاق باب الحياء","publishedAt":"2014-11-17T04:13:05Z","duration":"PT56M39S","thumbnail":"https://i.ytimg.com/vi/MEcTMZaqmVA/mqdefault.jpg","viewCount":"1425","playlistId":"PLEkQk5xrP-tnLYi_5_tSRVBwqcs7ISV7Y","playlistName":"شرح كتاب منازل السائرين للإمام الهروي","category":"متنوع"},{"id":"sInKHEjFiSQ","title":"54- ما هي أركان الصلاة وسننها؟ | شرح مختصر الفتوحات المكية","publishedAt":"2025-11-16T19:15:57Z","duration":"PT41M15S","thumbnail":"https://i.ytimg.com/vi/sInKHEjFiSQ/mqdefault.jpg","viewCount":"1092","playlistId":"PLEkQk5xrP-tnpkdZki6rPTtMak1bnI5g-","playlistName":"شرح كتاب مختصر الفتوحات المكية المسمى لواقح الأنوار القدسية","category":"متنوع"},{"id":"PvCkTzCk17Y","title":"67- كيفية جمع الصلاة للمسافر وصلاته في السفينة واستقبال القبلة | شرح سنن الإمام الدارقطني","publishedAt":"2025-11-16T10:30:27Z","duration":"PT33M15S","thumbnail":"https://i.ytimg.com/vi/PvCkTzCk17Y/mqdefault.jpg","viewCount":"470","playlistId":"PLEkQk5xrP-tk_MCBZ706ORCw6gFtFyaGj","playlistName":"شرح سنن الإمام الدارقطني","category":"متنوع"},{"id":"LXzCSzDrgvY","title":"ما حكم التوسل بالأولياء والصالحين؟","publishedAt":"2025-11-15T17:15:01Z","duration":"PT10M31S","thumbnail":"https://i.ytimg.com/vi/LXzCSzDrgvY/mqdefault.jpg","viewCount":"1824","playlistId":"PLEkQk5xrP-tm8ZIu74nTOZN9KJUJu416J","playlistName":"مقاطع مُهمَّة (يُسريَّات) أ.د. يسري جبر","category":"متنوع"},{"id":"VWAJCzdz5eU","title":"ازاي تربي أولادك تربية صحيحة؟","publishedAt":"2025-11-14T18:16:41Z","duration":"PT11M37S","thumbnail":"https://i.ytimg.com/vi/VWAJCzdz5eU/mqdefault.jpg","viewCount":"1842","playlistId":"PLEkQk5xrP-tm8ZIu74nTOZN9KJUJu416J","playlistName":"مقاطع مُهمَّة (يُسريَّات) أ.د. يسري جبر","category":"متنوع"},{"id":"QrzOrbGSNf0","title":"كيف تكثر من ذكر الله مع كثرة مشاغل الحياة؟","publishedAt":"2025-11-13T20:10:30Z","duration":"PT11M14S","thumbnail":"https://i.ytimg.com/vi/QrzOrbGSNf0/mqdefault.jpg","viewCount":"4599","playlistId":"PLEkQk5xrP-tm8ZIu74nTOZN9KJUJu416J","playlistName":"مقاطع مُهمَّة (يُسريَّات) أ.د. يسري جبر","category":"متنوع"},{"id":"_nHc48neKOs","title":"ازاي تشوف النبي ﷺ في المنام؟","publishedAt":"2025-11-12T19:30:12Z","duration":"PT8M23S","thumbnail":"https://i.ytimg.com/vi/_nHc48neKOs/mqdefault.jpg","viewCount":"2855","playlistId":"PLEkQk5xrP-tm8ZIu74nTOZN9KJUJu416J","playlistName":"مقاطع مُهمَّة (يُسريَّات) أ.د. يسري جبر","category":"متنوع"},{"id":"YbRrrUckaVQ","title":"نَظْرَةُ النَّبِىِ صَلَّى اللهُ عَلَيهِ وآلِهِ وسَلِّم ( قَلَّ مَنْ نَبَّه عَلَيهَا ) - د. يسري جبر","publishedAt":"2015-03-08T20:42:05Z","duration":"PT9M26S","thumbnail":"https://i.ytimg.com/vi/YbRrrUckaVQ/mqdefault.jpg","viewCount":"51859","playlistId":"PLEkQk5xrP-tm8ZIu74nTOZN9KJUJu416J","playlistName":"مقاطع مُهمَّة (يُسريَّات) أ.د. يسري جبر","category":"متنوع"},{"id":"nfeAZGWnc6s","title":"صلوات اليوم الثاني أ.د. يسري جبر","publishedAt":"2015-03-05T19:53:10Z","duration":"PT16M25S","thumbnail":"https://i.ytimg.com/vi/nfeAZGWnc6s/mqdefault.jpg","viewCount":"9007","playlistId":"PLEkQk5xrP-tmuP5s2o33O9gAOC4ACxsma","playlistName":"صَلَواتُ الأَسْمَاءِ الْحُسْنَى شَرْحُ الصَّلَواتِ الْيُسْرِيَّةِ عَلَى خَيرِ الْبَرِيَّةِ  أ.د. يسرى جبر","category":"متنوع"},{"id":"jk9ZRENOoIE","title":"شرح كتاب منازل السائرين للإمام الهروى-المجلس التاسع والثلاثون قسم الأَودية باب الحكمة وباب البصيرة","publishedAt":"2015-03-03T05:02:56Z","duration":"PT47M44S","thumbnail":"https://i.ytimg.com/vi/jk9ZRENOoIE/mqdefault.jpg","viewCount":"1480","playlistId":"PLEkQk5xrP-tnLYi_5_tSRVBwqcs7ISV7Y","playlistName":"شرح كتاب منازل السائرين للإمام الهروي","category":"متنوع"},{"id":"FFqhdgKwR9M","title":"هل الانقطاع عن الأوراد خروج عن الطريق؟","publishedAt":"2021-08-06T17:30:00Z","duration":"PT10M9S","thumbnail":"https://i.ytimg.com/vi/FFqhdgKwR9M/mqdefault.jpg","viewCount":"12320","playlistId":"PLEkQk5xrP-tkGXuZ9atE3k_7it12rUPTs","playlistName":"أسئلة المتابعين","category":"متنوع"},{"id":"dBbJgGLGGyk","title":"هل ضرب الزوجة مباح؟","publishedAt":"2021-08-05T19:02:17Z","duration":"PT16M20S","thumbnail":"https://i.ytimg.com/vi/dBbJgGLGGyk/mqdefault.jpg","viewCount":"13685","playlistId":"PLEkQk5xrP-tm8ZIu74nTOZN9KJUJu416J","playlistName":"مقاطع مُهمَّة (يُسريَّات) أ.د. يسري جبر","category":"متنوع"},{"id":"K1XTIztOjt0","title":"108-  “مَنْ ظَلَم قِيدَ شِبْرٍ مِن الأرْضِ؛ طُوِّقَهُ مِن سَبْعِ أَرَضِين” - شرح دليل الفالحين","publishedAt":"2021-08-05T07:06:28Z","duration":"PT1H8M45S","thumbnail":"https://i.ytimg.com/vi/K1XTIztOjt0/mqdefault.jpg","viewCount":"2530","playlistId":"PLEkQk5xrP-tkc9DXvSLguqX5-FYp6ASR4","playlistName":"دليل الفالحين لطرق رياض الصالحين","category":"متنوع"},{"id":"lGsp2sMsbAY","title":"440- جواز لَعْن أصحاب المعاصي غير المُعَيَّنين - شرح دليل الفالحين","publishedAt":"2023-05-08T09:01:00Z","duration":"PT28M56S","thumbnail":"https://i.ytimg.com/vi/lGsp2sMsbAY/mqdefault.jpg","viewCount":"1030","playlistId":"PLEkQk5xrP-tkc9DXvSLguqX5-FYp6ASR4","playlistName":"دليل الفالحين لطرق رياض الصالحين","category":"متنوع"},{"id":"_Tg-w-oud34","title":"439- غِلَظ تحريمِ شهادةِ الزور - شرح دليل الفالحين","publishedAt":"2023-05-07T18:00:12Z","duration":"PT42M4S","thumbnail":"https://i.ytimg.com/vi/_Tg-w-oud34/mqdefault.jpg","viewCount":"645","playlistId":"PLEkQk5xrP-tkc9DXvSLguqX5-FYp6ASR4","playlistName":"دليل الفالحين لطرق رياض الصالحين","category":"متنوع"}],"total":4126,"page":116,"pageSize":24,"totalPages":172}