{"items":[{"id":"wmHNka3BDR8","title":"267- حِفظُ السِرِّ - شرح دليل الفالحين","publishedAt":"2022-06-13T05:05:00Z","duration":"PT38M46S","thumbnail":"https://i.ytimg.com/vi/wmHNka3BDR8/mqdefault.jpg","viewCount":"1420","playlistId":"PLEkQk5xrP-tkc9DXvSLguqX5-FYp6ASR4","playlistName":"دليل الفالحين لطرق رياض الصالحين","category":"متنوع"},{"id":"iQTMJuRyOTw","title":"266- النهي عن تولية الإمارة والقضاء وغيرهما من الولايات لمن سألها أو حرص عليها فعرَّض بها","publishedAt":"2022-06-12T05:10:00Z","duration":"PT50M30S","thumbnail":"https://i.ytimg.com/vi/iQTMJuRyOTw/mqdefault.jpg","viewCount":"1111","playlistId":"PLEkQk5xrP-tkc9DXvSLguqX5-FYp6ASR4","playlistName":"دليل الفالحين لطرق رياض الصالحين","category":"متنوع"},{"id":"115ELEvz1_U","title":"ما هو التصوف,, ومن هم الصوفية؟؟","publishedAt":"2021-09-07T17:41:42Z","duration":"PT18M51S","thumbnail":"https://i.ytimg.com/vi/115ELEvz1_U/mqdefault.jpg","viewCount":"36703","playlistId":"PLEkQk5xrP-tm8ZIu74nTOZN9KJUJu416J","playlistName":"مقاطع مُهمَّة (يُسريَّات) أ.د. يسري جبر","category":"متنوع"},{"id":"K6H1ytWqfAE","title":"123- فضل ضعفة المسلمين والفقراء والخاملين - شرح دليل الفالحين","publishedAt":"2021-09-07T08:00:55Z","duration":"PT28M15S","thumbnail":"https://i.ytimg.com/vi/K6H1ytWqfAE/mqdefault.jpg","viewCount":"1531","playlistId":"PLEkQk5xrP-tkc9DXvSLguqX5-FYp6ASR4","playlistName":"دليل الفالحين لطرق رياض الصالحين","category":"متنوع"},{"id":"UkVBB8e96zI","title":"مقرأة سورة النحل من آية ١١٦","publishedAt":"2017-09-11T13:17:20Z","duration":"PT8M1S","thumbnail":"https://i.ytimg.com/vi/UkVBB8e96zI/mqdefault.jpg","viewCount":"258","playlistId":"PLEkQk5xrP-tnmTYsyW6xNdyfhPq0Bhrhj","playlistName":"مقرأة الفجر - القُرْآنُ الكَرِيمُ - خَتْمَةُ التَّدَبُّرِ  أ.د. يسري جبر","category":"متنوع"},{"id":"VfqKMseAOms","title":"مقرأة سورة النحل من آية ١١١","publishedAt":"2017-09-10T11:04:25Z","duration":"PT19M57S","thumbnail":"https://i.ytimg.com/vi/VfqKMseAOms/mqdefault.jpg","viewCount":"263","playlistId":"PLEkQk5xrP-tnmTYsyW6xNdyfhPq0Bhrhj","playlistName":"مقرأة الفجر - القُرْآنُ الكَرِيمُ - خَتْمَةُ التَّدَبُّرِ  أ.د. يسري جبر","category":"متنوع"},{"id":"Yrvxz0t-Y6Y","title":"مقرأة سورة النحل من آية ١٠٤","publishedAt":"2017-09-09T12:38:07Z","duration":"PT16M48S","thumbnail":"https://i.ytimg.com/vi/Yrvxz0t-Y6Y/mqdefault.jpg","viewCount":"254","playlistId":"PLEkQk5xrP-tnmTYsyW6xNdyfhPq0Bhrhj","playlistName":"مقرأة الفجر - القُرْآنُ الكَرِيمُ - خَتْمَةُ التَّدَبُّرِ  أ.د. يسري جبر","category":"متنوع"},{"id":"dajuMDkBgao","title":"مقرأة سورة النحل من آية ٩٧","publishedAt":"2017-09-08T15:32:31Z","duration":"PT19M42S","thumbnail":"https://i.ytimg.com/vi/dajuMDkBgao/mqdefault.jpg","viewCount":"315","playlistId":"PLEkQk5xrP-tnmTYsyW6xNdyfhPq0Bhrhj","playlistName":"مقرأة الفجر - القُرْآنُ الكَرِيمُ - خَتْمَةُ التَّدَبُّرِ  أ.د. يسري جبر","category":"متنوع"},{"id":"BhsAQh2ctkM","title":"51-  دعاء الاستفتاح - شرح سنن الإمام الدار قطني رضي الله تعالى عنه","publishedAt":"2025-01-04T07:00:06Z","duration":"PT42M31S","thumbnail":"https://i.ytimg.com/vi/BhsAQh2ctkM/mqdefault.jpg","viewCount":"804","playlistId":"PLEkQk5xrP-tk_MCBZ706ORCw6gFtFyaGj","playlistName":"شرح سنن الإمام الدارقطني","category":"متنوع"},{"id":"lUTK4DoF9uI","title":"37- درجات الجنة بالترتيب وما هي أعلى درجة؟ | شرح مختصر الفتوحات المكية","publishedAt":"2025-01-03T20:39:57Z","duration":"PT44M2S","thumbnail":"https://i.ytimg.com/vi/lUTK4DoF9uI/mqdefault.jpg","viewCount":"4868","playlistId":"PLEkQk5xrP-tnpkdZki6rPTtMak1bnI5g-","playlistName":"شرح كتاب مختصر الفتوحات المكية المسمى لواقح الأنوار القدسية","category":"متنوع"},{"id":"0S1R9I9LhZU","title":"12- حقيقة الكشف وهل للمريد أن يطلب الكشف؟ | شرح الحكم العطائية","publishedAt":"2025-01-02T20:00:00Z","duration":"PT52M42S","thumbnail":"https://i.ytimg.com/vi/0S1R9I9LhZU/mqdefault.jpg","viewCount":"5471","playlistId":"PLEkQk5xrP-tmf5ToOwmW-q0JwxkapbrMN","playlistName":"شرح كتاب إرشاد البرية إلى بعض معاني الحكم العطائية","category":"متنوع"},{"id":"7wAtbuewv3w","title":"27- كتاب القرآن ك الموطأ د يسري جبر الأزهري  بمضيفة الشيخ سعيد الدح","publishedAt":"2016-09-26T21:48:18Z","duration":"PT56M13S","thumbnail":"https://i.ytimg.com/vi/7wAtbuewv3w/mqdefault.jpg","viewCount":"485","playlistId":"PLEkQk5xrP-tnC6BRuqMjyO-484iqXeg0o","playlistName":"شرح كتاب الموطأ للإمام مالك","category":"متنوع"},{"id":"56fRxxN2AAM","title":"85- قصة مقتل أبي جهل يوم بدر على يد غلامين - شرح مسند الإمام أحمد رضي الله تعالى عنه","publishedAt":"2024-03-11T07:00:02Z","duration":"PT24M25S","thumbnail":"https://i.ytimg.com/vi/56fRxxN2AAM/mqdefault.jpg","viewCount":"1143","playlistId":"PLEkQk5xrP-tkKprIuGrSdEuBSMsyg5We1","playlistName":"شرح مسند الإمام أحمد بن حنبل","category":"متنوع"},{"id":"_hLidYq2PWI","title":"حقيقة رؤيا النبي ﷺ في المنام | مجالس رمضانية","publishedAt":"2024-03-10T14:00:22Z","duration":"PT30M50S","thumbnail":"https://i.ytimg.com/vi/_hLidYq2PWI/mqdefault.jpg","viewCount":"4120","playlistId":"PLEkQk5xrP-tnl7vb7KeAoPd5ZlqKKW8KV","playlistName":"شرح كتاب بهجة النفوس أ.د . يسرى جبر","category":"متنوع"},{"id":"Wp62SXYw8Vk","title":"هل يمكن رؤية النبي ﷺ في اليقظة؟ | مجالس رمضانية","publishedAt":"2024-03-09T14:30:10Z","duration":"PT40M43S","thumbnail":"https://i.ytimg.com/vi/Wp62SXYw8Vk/mqdefault.jpg","viewCount":"10142","playlistId":"PLEkQk5xrP-tnl7vb7KeAoPd5ZlqKKW8KV","playlistName":"شرح كتاب بهجة النفوس أ.د . يسرى جبر","category":"متنوع"},{"id":"2A7T72pLzcs","title":"33- حكم التبسم في الصلاة | بيان الكلام الذي يبطل الصلاة | شرح سنن الإمام الدار قطني رضي الله عنه","publishedAt":"2024-03-09T09:00:01Z","duration":"PT37M47S","thumbnail":"https://i.ytimg.com/vi/2A7T72pLzcs/mqdefault.jpg","viewCount":"741","playlistId":"PLEkQk5xrP-tk_MCBZ706ORCw6gFtFyaGj","playlistName":"شرح سنن الإمام الدارقطني","category":"متنوع"},{"id":"tXMUjCOC7HQ","title":"11- كيف يوسوس الشيطان للناس؟ | شرح مختصر الفتوحات المكية","publishedAt":"2024-03-08T19:10:05Z","duration":"PT54M59S","thumbnail":"https://i.ytimg.com/vi/tXMUjCOC7HQ/mqdefault.jpg","viewCount":"13087","playlistId":"PLEkQk5xrP-tnpkdZki6rPTtMak1bnI5g-","playlistName":"شرح كتاب مختصر الفتوحات المكية المسمى لواقح الأنوار القدسية","category":"متنوع"},{"id":"X4nmkrBF9Ag","title":"هل يجوز الحج بطريقة غير رسمية؟","publishedAt":"2024-03-07T19:00:26Z","duration":"PT13M37S","thumbnail":"https://i.ytimg.com/vi/X4nmkrBF9Ag/mqdefault.jpg","viewCount":"7066","playlistId":"PLEkQk5xrP-tkGXuZ9atE3k_7it12rUPTs","playlistName":"أسئلة المتابعين","category":"متنوع"},{"id":"99WSA0n0NBg","title":"84- نبذة عن سيدنا عبد الرحمن بن عوف الزهري أحد العشرة المبشرين بالجنة رضي اللهُ تعالى عنه","publishedAt":"2024-03-06T06:30:01Z","duration":"PT32M8S","thumbnail":"https://i.ytimg.com/vi/99WSA0n0NBg/mqdefault.jpg","viewCount":"1322","playlistId":"PLEkQk5xrP-tkKprIuGrSdEuBSMsyg5We1","playlistName":"شرح مسند الإمام أحمد بن حنبل","category":"متنوع"},{"id":"ORTSxon2-Kg","title":"482- التغليظ في تحريم السحر - شرح دليل الفالحين","publishedAt":"2023-06-21T08:59:00Z","duration":"PT21M15S","thumbnail":"https://i.ytimg.com/vi/ORTSxon2-Kg/mqdefault.jpg","viewCount":"996","playlistId":"PLEkQk5xrP-tkc9DXvSLguqX5-FYp6ASR4","playlistName":"دليل الفالحين لطرق رياض الصالحين","category":"متنوع"},{"id":"yu9MkjpP78M","title":"481- كراهة الخروج من بلد وقع فيها الوباء فِرارا منه وكراهة القدوم عليه - شرح دليل الفالحين","publishedAt":"2023-06-20T08:59:00Z","duration":"PT26M39S","thumbnail":"https://i.ytimg.com/vi/yu9MkjpP78M/mqdefault.jpg","viewCount":"432","playlistId":"PLEkQk5xrP-tkc9DXvSLguqX5-FYp6ASR4","playlistName":"دليل الفالحين لطرق رياض الصالحين","category":"متنوع"},{"id":"CWUJACdZZVY","title":"480- حكم رد الريحان وسائر أنواع الطِيب بغير عذر - شرح دليل الفالحين","publishedAt":"2023-06-19T08:59:00Z","duration":"PT25M13S","thumbnail":"https://i.ytimg.com/vi/CWUJACdZZVY/mqdefault.jpg","viewCount":"704","playlistId":"PLEkQk5xrP-tkc9DXvSLguqX5-FYp6ASR4","playlistName":"دليل الفالحين لطرق رياض الصالحين","category":"متنوع"},{"id":"audZ7vD6c-0","title":"شرح كتاب صفة الجنة من سنن الترمذي - المجلس الأول","publishedAt":"2016-01-27T08:12:32Z","duration":"PT22M45S","thumbnail":"https://i.ytimg.com/vi/audZ7vD6c-0/mqdefault.jpg","viewCount":"296","playlistId":"PLEkQk5xrP-tnu6of679SvxdVx0qSrJzmb","playlistName":"شرح سنن الإمام الترمذي رضى الله عنه د. يسري جبر","category":"متنوع"},{"id":"Bt1U1poB-hs","title":"شرح كتاب صفة القيامة والرقائق والورع من سنن الترمذي - المجلس الثامن","publishedAt":"2016-01-23T22:16:47Z","duration":"PT38M33S","thumbnail":"https://i.ytimg.com/vi/Bt1U1poB-hs/mqdefault.jpg","viewCount":"169","playlistId":"PLEkQk5xrP-tnu6of679SvxdVx0qSrJzmb","playlistName":"شرح سنن الإمام الترمذي رضى الله عنه د. يسري جبر","category":"متنوع"}],"total":4126,"page":22,"pageSize":24,"totalPages":172}