{"items":[{"id":"ekTmY6pKRGg","title":"Ø£Ø³Ù‡Ù„ Ø·Ø±ÙŠÙ‚Ø© Ù„ÙÙ‡Ù… Ø¹Ù„Ù… Ø§Ù„ØªÙˆØ­ÙŠØ¯","publishedAt":"2021-06-13T19:30:06Z","duration":"PT12M52S","thumbnail":"https://i.ytimg.com/vi/ekTmY6pKRGg/mqdefault.jpg","viewCount":"23555","playlistId":"PLEkQk5xrP-tm8ZIu74nTOZN9KJUJu416J","playlistName":"Ù…Ù‚Ø§Ø·Ø¹ Ù…ÙÙ‡Ù…ÙÙ‘Ø© (ÙŠÙØ³Ø±ÙŠÙ‘ÙØ§Øª) Ø£.Ø¯. ÙŠØ³Ø±ÙŠ Ø¬Ø¨Ø±","category":"Ù…ØªÙ†ÙˆØ¹"},{"id":"-Hr0QDUCE1w","title":"77- \"Ø§Ù„Ø¥ÙÙŠÙ…Ø§Ù†Ù Ø¨Ø¶Ù’Ø¹ÙŒ ÙˆØ³ÙØ¨Ù’Ø¹ÙÙˆÙ†ÙØŒ Ø£ÙˆÙ’ Ø¨Ø¶Ù’Ø¹ÙŒ ÙˆØ³ÙØªÙ‘ÙÙˆÙ†ÙØŒ Ø´ÙØ¹Ù’Ø¨ÙØ©Ù‹ØŒâ€¦\" Ø´Ø±Ø­ Ø¯Ù„ÙŠÙ„ Ø§Ù„ÙØ§Ù„Ø­ÙŠÙ†","publishedAt":"2021-06-13T05:31:27Z","duration":"PT45M32S","thumbnail":"https://i.ytimg.com/vi/-Hr0QDUCE1w/mqdefault.jpg","viewCount":"1655","playlistId":"PLEkQk5xrP-tkc9DXvSLguqX5-FYp6ASR4","playlistName":"Ø¯Ù„ÙŠÙ„ Ø§Ù„ÙØ§Ù„Ø­ÙŠÙ† Ù„Ø·Ø±Ù‚ Ø±ÙŠØ§Ø¶ Ø§Ù„ØµØ§Ù„Ø­ÙŠÙ†","category":"Ù…ØªÙ†ÙˆØ¹"},{"id":"8fyqx28hTW8","title":"Ù„Ù…Ø§Ø°Ø§ ÙŠØ®Ø¨Ø± Ø§Ù„Ø£ÙˆÙ„ÙŠØ§Ø¡ ÙƒØ±Ø§Ù…Ø§ØªÙ‡Ù… Ù„Ù„Ù†Ø§Ø³ØŸ","publishedAt":"2021-06-12T19:45:51Z","duration":"PT8M30S","thumbnail":"https://i.ytimg.com/vi/8fyqx28hTW8/mqdefault.jpg","viewCount":"57114","playlistId":"PLEkQk5xrP-tm8ZIu74nTOZN9KJUJu416J","playlistName":"Ù…Ù‚Ø§Ø·Ø¹ Ù…ÙÙ‡Ù…ÙÙ‘Ø© (ÙŠÙØ³Ø±ÙŠÙ‘ÙØ§Øª) Ø£.Ø¯. ÙŠØ³Ø±ÙŠ Ø¬Ø¨Ø±","category":"Ù…ØªÙ†ÙˆØ¹"},{"id":"phgtD0crRFY","title":"Ù…Ø§ Ø§Ù„Ø­ÙƒÙ…Ø© Ù…Ù† Ù‚Ø±Ø§Ø¡Ø© Ø³ÙˆØ±Ø© Ø§Ù„ÙƒÙ‡Ù ÙŠÙˆÙ… Ø§Ù„Ø¬Ù…Ø¹Ø©ØŸ","publishedAt":"2021-06-11T19:00:04Z","duration":"PT9M23S","thumbnail":"https://i.ytimg.com/vi/phgtD0crRFY/mqdefault.jpg","viewCount":"8342","playlistId":"PLEkQk5xrP-tm8ZIu74nTOZN9KJUJu416J","playlistName":"Ù…Ù‚Ø§Ø·Ø¹ Ù…ÙÙ‡Ù…ÙÙ‘Ø© (ÙŠÙØ³Ø±ÙŠÙ‘ÙØ§Øª) Ø£.Ø¯. ÙŠØ³Ø±ÙŠ Ø¬Ø¨Ø±","category":"Ù…ØªÙ†ÙˆØ¹"},{"id":"zuhCfWCB4Tw","title":"Ø§Ù„Ø±Ø¯ Ø¹Ù„Ù‰ ØªØ³Ø§Ø¤Ù„Ø§Øª Ø§Ù„ÙˆÙ‡Ø§Ø¨ÙŠØ©","publishedAt":"2021-06-10T18:00:14Z","duration":"PT12M9S","thumbnail":"https://i.ytimg.com/vi/zuhCfWCB4Tw/mqdefault.jpg","viewCount":"19981","playlistId":"PLEkQk5xrP-tkGXuZ9atE3k_7it12rUPTs","playlistName":"Ø£Ø³Ø¦Ù„Ø© Ø§Ù„Ù…ØªØ§Ø¨Ø¹ÙŠÙ†","category":"Ù…ØªÙ†ÙˆØ¹"},{"id":"6ZAlOj3Dcqo","title":"Ø§Ù„ØªÙˆØ§Ø¶Ø¹","publishedAt":"2020-06-01T16:53:38Z","duration":"PT15M29S","thumbnail":"https://i.ytimg.com/vi/6ZAlOj3Dcqo/mqdefault.jpg","viewCount":"5213","playlistId":"PLEkQk5xrP-tm8ZIu74nTOZN9KJUJu416J","playlistName":"Ù…Ù‚Ø§Ø·Ø¹ Ù…ÙÙ‡Ù…ÙÙ‘Ø© (ÙŠÙØ³Ø±ÙŠÙ‘ÙØ§Øª) Ø£.Ø¯. ÙŠØ³Ø±ÙŠ Ø¬Ø¨Ø±","category":"Ù…ØªÙ†ÙˆØ¹"},{"id":"w5YR4VtWmtI","title":"Ù…Ø§ ÙŠØ¬Ø¯Ù‡ Ø§Ù„Ø³Ø§Ø¦Ø± ÙÙŠ Ø·Ø±ÙŠÙ‚Ù‡ Ø¥Ù„Ù‰ Ø§Ù„Ù„Ù‡","publishedAt":"2020-05-31T16:26:47Z","duration":"PT6M43S","thumbnail":"https://i.ytimg.com/vi/w5YR4VtWmtI/mqdefault.jpg","viewCount":"15967","playlistId":"PLEkQk5xrP-tm8ZIu74nTOZN9KJUJu416J","playlistName":"Ù…Ù‚Ø§Ø·Ø¹ Ù…ÙÙ‡Ù…ÙÙ‘Ø© (ÙŠÙØ³Ø±ÙŠÙ‘ÙØ§Øª) Ø£.Ø¯. ÙŠØ³Ø±ÙŠ Ø¬Ø¨Ø±","category":"Ù…ØªÙ†ÙˆØ¹"},{"id":"EJ0ErvShWlg","title":"Ø§Ù„ØªØµÙˆÙ Ø¨ÙŠÙ† Ø§Ù„Ø¹Ù„Ù… ÙˆØ§Ù„Ø³Ù„ÙˆÙƒ","publishedAt":"2020-05-29T18:49:42Z","duration":"PT9M20S","thumbnail":"https://i.ytimg.com/vi/EJ0ErvShWlg/mqdefault.jpg","viewCount":"4037","playlistId":"PLEkQk5xrP-tm8ZIu74nTOZN9KJUJu416J","playlistName":"Ù…Ù‚Ø§Ø·Ø¹ Ù…ÙÙ‡Ù…ÙÙ‘Ø© (ÙŠÙØ³Ø±ÙŠÙ‘ÙØ§Øª) Ø£.Ø¯. ÙŠØ³Ø±ÙŠ Ø¬Ø¨Ø±","category":"Ù…ØªÙ†ÙˆØ¹"},{"id":"QN3lRL2_sl4","title":"Ø§Ù„ØµÙ„Ø§Ø©Ù Ø¹Ù„Ù‰ Ø§Ù„Ù†Ù‘ÙØ¨ÙÙŠÙ‘ ï·º 100 Ù…Ø±Ø©","publishedAt":"2020-05-26T14:22:52Z","duration":"PT10M3S","thumbnail":"https://i.ytimg.com/vi/QN3lRL2_sl4/mqdefault.jpg","viewCount":"12829","playlistId":"PLEkQk5xrP-tm8ZIu74nTOZN9KJUJu416J","playlistName":"Ù…Ù‚Ø§Ø·Ø¹ Ù…ÙÙ‡Ù…ÙÙ‘Ø© (ÙŠÙØ³Ø±ÙŠÙ‘ÙØ§Øª) Ø£.Ø¯. ÙŠØ³Ø±ÙŠ Ø¬Ø¨Ø±","category":"Ù…ØªÙ†ÙˆØ¹"},{"id":"hn-SxX42y2Y","title":"Ù‚Ø±Ø§Ø¡Ø© Ù‚ØµÙŠØ¯Ø© Ø§Ù„ØªÙˆØ³Ù„ÙŠØ© ÙˆÙƒØ§Ø´ÙØ© Ø§Ù„ÙƒØ±ÙˆØ¨","publishedAt":"2020-05-23T20:00:11Z","duration":"PT32M41S","thumbnail":"https://i.ytimg.com/vi/hn-SxX42y2Y/mqdefault.jpg","viewCount":"6490","playlistId":"PLEkQk5xrP-tlB8lmbwjAKR8KRgiykGKhb","playlistName":"Ø­Ø¶Ø±Ø§Øª ÙŠØ³Ø±ÙŠØ© ÙˆÙ…Ø¯Ø§Ø¦Ø­ Ù†Ø¨ÙˆÙŠØ©","category":"Ù…ØªÙ†ÙˆØ¹"},{"id":"HYGfIQoy4qc","title":"1- \"Ø­Ø¯ÙŠØ« Ø§Ù„Ù…Ø³Ù„Ø³Ù„ Ø¨Ø§Ù„Ø£ÙˆÙ„ÙŠÙ‘ÙØ© ÙˆØ§Ù„Ù…Ø­Ø¨Ù‘ÙØ©\" Ù‚Ø±Ø§Ø¡Ø© ÙƒØªØ§Ø¨ Ø§Ù„Ø´Ù…Ø§Ø¦Ù„ Ø§Ù„Ù…Ø­Ù…Ù‘ÙØ¯ÙŠÙ‘ÙØ© Ù„Ù„Ø¥Ù…Ø§Ù… Ø§Ù„ØªØ±Ù…Ø°ÙŠÙ‘ Ø±Ø¶ÙŠ Ø§Ù„Ù„Ù‡ Ø¹Ù†Ù‡","publishedAt":"2021-02-13T06:53:26Z","duration":"PT1H3M45S","thumbnail":"https://i.ytimg.com/vi/HYGfIQoy4qc/mqdefault.jpg","viewCount":"8955","playlistId":"PLEkQk5xrP-tkCtkJ_fVpP3CmkJhWYYZtt","playlistName":"Ù‚Ø±Ø§Ø¡Ø©Ù ÙƒØªØ§Ø¨Ù Ø§Ù„Ø´Ù‘ÙÙ…ÙØ§Ø¦ÙÙ„Ù Ø§Ù„Ù…ÙØ­ÙÙ…Ù‘ÙØ¯ÙÙŠÙ‘ÙØ© Ù„Ù„Ø¥ÙÙ…Ø§Ù… Ø§Ù„ØªÙ‘ÙØ±Ù…Ø°ÙŠÙ‘ Ø±Ø¶ÙŠ Ø§Ù„Ù„Ù‡ Ø¹Ù†","category":"Ù…ØªÙ†ÙˆØ¹"},{"id":"CsxTwOR8WkA","title":"18- ØµÙ„Ø§Ø© Ø§Ù„Ø±Ø¬Ù„ Ø¬Ù…Ø§Ø¹Ø© ØªØ²ÙŠØ¯ Ø¹Ù„Ù‰ ØµÙ„Ø§ØªÙ‡ ÙÙŠ Ø³ÙÙˆÙ‚Ù‡ ÙˆØ¨ÙŠØªÙ‡ Ø¨Ø¶Ø¹Ø§ ÙˆØ¹Ø´Ø±ÙŠÙ† Ø¯Ø±Ø¬Ø©... - Ø´Ø±Ø­ ÙƒØªØ§Ø¨ Ø¯Ù„ÙŠÙ„ Ø§Ù„ÙØ§Ù„Ø­ÙŠÙ†","publishedAt":"2021-02-12T07:18:19Z","duration":"PT34M58S","thumbnail":"https://i.ytimg.com/vi/CsxTwOR8WkA/mqdefault.jpg","viewCount":"2151","playlistId":"PLEkQk5xrP-tkc9DXvSLguqX5-FYp6ASR4","playlistName":"Ø¯Ù„ÙŠÙ„ Ø§Ù„ÙØ§Ù„Ø­ÙŠÙ† Ù„Ø·Ø±Ù‚ Ø±ÙŠØ§Ø¶ Ø§Ù„ØµØ§Ù„Ø­ÙŠÙ†","category":"Ù…ØªÙ†ÙˆØ¹"},{"id":"-kD6fHiKv_4","title":"ÙØ¶Ù„ Ø§Ù„Ø¹Ø´Ø± Ø§Ù„Ø£ÙˆØ§Ø®Ø± Ù…Ù† Ø±Ù…Ø¶Ø§Ù† ÙˆÙ…ÙˆØ¹Ø¯ Ù„ÙŠÙ„Ø© Ø§Ù„Ù‚Ø¯Ø± Ø¨Ù†Ø³Ø¨Ø© ÙƒØ¨ÙŠØ±Ø©! ğŸ¤²ğŸŒ™","publishedAt":"2025-03-20T19:00:00Z","duration":"PT15M12S","thumbnail":"https://i.ytimg.com/vi/-kD6fHiKv_4/mqdefault.jpg","viewCount":"13721","playlistId":"PLEkQk5xrP-tm8ZIu74nTOZN9KJUJu416J","playlistName":"Ù…Ù‚Ø§Ø·Ø¹ Ù…ÙÙ‡Ù…ÙÙ‘Ø© (ÙŠÙØ³Ø±ÙŠÙ‘ÙØ§Øª) Ø£.Ø¯. ÙŠØ³Ø±ÙŠ Ø¬Ø¨Ø±","category":"Ù…ØªÙ†ÙˆØ¹"},{"id":"QtD2ClPUbvk","title":"Ù‡Ù„ ÙŠØ¬Ø¨ Ø§Ù„ØªØ£ÙƒØ¯ Ù…Ù† Ø­Ø§Ø¬Ø© Ø§Ù„ÙÙ‚ÙŠØ± Ù‚Ø¨Ù„ Ø§Ù„ØªØµØ¯Ù‚ Ø¹Ù„ÙŠÙ‡ØŸ | Ù…Ø¬Ø§Ù„Ø³ Ø±Ù…Ø¶Ø§Ù†ÙŠØ©","publishedAt":"2025-03-20T15:00:29Z","duration":"PT21M34S","thumbnail":"https://i.ytimg.com/vi/QtD2ClPUbvk/mqdefault.jpg","viewCount":"1862","playlistId":"PLEkQk5xrP-tkeI_WVPfuoTJO46aVkpaz0","playlistName":"Ø´Ø±Ø­ ÙƒØªØ§Ø¨ Ù…ÙŠØ²Ø§Ù† Ø§Ù„Ø§Ø¹ØªØ¯Ø§Ù„ Ù„Ø­ÙØ¸ Ø§Ù„Ø¯ÙŠÙ† ÙˆØ§Ù„Ø£Ø­ÙˆØ§Ù„","category":"Ù…ØªÙ†ÙˆØ¹"},{"id":"rMqs5UZ6ZzE","title":"Ù…Ø§ Ù‡ÙŠ ØµÙØ§Øª Ø§Ù„Ø´Ø®Øµ Ø§Ù„Ø¨Ø®ÙŠÙ„ ÙˆÙƒÙŠÙÙŠØ© Ø¹Ù„Ø§Ø¬Ù‡ØŸ | Ù…Ø¬Ø§Ù„Ø³ Ø±Ù…Ø¶Ø§Ù†ÙŠØ©","publishedAt":"2025-03-19T15:01:17Z","duration":"PT26M50S","thumbnail":"https://i.ytimg.com/vi/rMqs5UZ6ZzE/mqdefault.jpg","viewCount":"2109","playlistId":"PLEkQk5xrP-tkeI_WVPfuoTJO46aVkpaz0","playlistName":"Ø´Ø±Ø­ ÙƒØªØ§Ø¨ Ù…ÙŠØ²Ø§Ù† Ø§Ù„Ø§Ø¹ØªØ¯Ø§Ù„ Ù„Ø­ÙØ¸ Ø§Ù„Ø¯ÙŠÙ† ÙˆØ§Ù„Ø£Ø­ÙˆØ§Ù„","category":"Ù…ØªÙ†ÙˆØ¹"},{"id":"Xv4qryaPm6Y","title":"Ù…Ø§ Ø­ÙƒÙ… Ø§Ù„ØµÙ„Ø§Ø© Ø¬Ø§Ù„Ø³Ø§ Ù…Ø¹ Ù‚Ø¯Ø±ØªÙŠ Ø¹Ù„Ù‰ Ø§Ù„ÙˆÙ‚ÙˆÙØŸ","publishedAt":"2025-03-18T19:00:23Z","duration":"PT15M43S","thumbnail":"https://i.ytimg.com/vi/Xv4qryaPm6Y/mqdefault.jpg","viewCount":"3800","playlistId":"PLEkQk5xrP-tkGXuZ9atE3k_7it12rUPTs","playlistName":"Ø£Ø³Ø¦Ù„Ø© Ø§Ù„Ù…ØªØ§Ø¨Ø¹ÙŠÙ†","category":"Ù…ØªÙ†ÙˆØ¹"},{"id":"JtYUm3IHLdg","title":"Ù‚ØµØµ Ø§Ù„Ù†Ø¨ÙŠ ÙˆØ§Ù„ØµØ­Ø§Ø¨Ø© Ù…Ø¹ Ø§Ù„Ø¥Ù†ÙØ§Ù‚ ÙÙŠ Ø³Ø¨ÙŠÙ„ Ø§Ù„Ù„Ù‡ | Ù…Ø¬Ø§Ù„Ø³ Ø±Ù…Ø¶Ø§Ù†ÙŠØ©","publishedAt":"2025-03-18T15:00:29Z","duration":"PT29M18S","thumbnail":"https://i.ytimg.com/vi/JtYUm3IHLdg/mqdefault.jpg","viewCount":"2036","playlistId":"PLEkQk5xrP-tkeI_WVPfuoTJO46aVkpaz0","playlistName":"Ø´Ø±Ø­ ÙƒØªØ§Ø¨ Ù…ÙŠØ²Ø§Ù† Ø§Ù„Ø§Ø¹ØªØ¯Ø§Ù„ Ù„Ø­ÙØ¸ Ø§Ù„Ø¯ÙŠÙ† ÙˆØ§Ù„Ø£Ø­ÙˆØ§Ù„","category":"Ù…ØªÙ†ÙˆØ¹"},{"id":"BLYT_LxZ6Tc","title":"3 Ø¹Ø¨Ø§Ø¯Ø§Øª ØªØ¶Ù…Ù† Ù„Ùƒ Ø§Ù„Ø¬Ù†Ø©","publishedAt":"2025-03-17T19:00:12Z","duration":"PT8M16S","thumbnail":"https://i.ytimg.com/vi/BLYT_LxZ6Tc/mqdefault.jpg","viewCount":"2389","playlistId":"PLEkQk5xrP-tm8ZIu74nTOZN9KJUJu416J","playlistName":"Ù…Ù‚Ø§Ø·Ø¹ Ù…ÙÙ‡Ù…ÙÙ‘Ø© (ÙŠÙØ³Ø±ÙŠÙ‘ÙØ§Øª) Ø£.Ø¯. ÙŠØ³Ø±ÙŠ Ø¬Ø¨Ø±","category":"Ù…ØªÙ†ÙˆØ¹"},{"id":"FGzmm9lPeR0","title":"Ø¥Ø·Ø¹Ø§Ù… Ø§Ù„Ø·Ø¹Ø§Ù… Ù…ÙØªØ§Ø­ Ù„Ø¯Ø®ÙˆÙ„ Ø§Ù„Ø¬Ù†Ø©! | Ù…Ø¬Ø§Ù„Ø³ Ø±Ù…Ø¶Ø§Ù†ÙŠØ©","publishedAt":"2025-03-17T15:30:04Z","duration":"PT45M8S","thumbnail":"https://i.ytimg.com/vi/FGzmm9lPeR0/mqdefault.jpg","viewCount":"2671","playlistId":"PLEkQk5xrP-tkeI_WVPfuoTJO46aVkpaz0","playlistName":"Ø´Ø±Ø­ ÙƒØªØ§Ø¨ Ù…ÙŠØ²Ø§Ù† Ø§Ù„Ø§Ø¹ØªØ¯Ø§Ù„ Ù„Ø­ÙØ¸ Ø§Ù„Ø¯ÙŠÙ† ÙˆØ§Ù„Ø£Ø­ÙˆØ§Ù„","category":"Ù…ØªÙ†ÙˆØ¹"},{"id":"XVGvSEfr5WU","title":"ØªØ¹Ø±Ù Ø¹Ù„Ù‰ Ø¹Ø¬Ø§Ø¦Ø¨ Ø§Ù„ØµØ¯Ù‚Ø© ÙˆØ§Ø«Ø±Ù‡Ø§ ÙÙŠ Ø­ÙŠØ§ØªÙƒ | Ù…Ø¬Ø§Ù„Ø³ Ø±Ù…Ø¶Ø§Ù†ÙŠØ©","publishedAt":"2025-03-16T15:30:09Z","duration":"PT26M21S","thumbnail":"https://i.ytimg.com/vi/XVGvSEfr5WU/mqdefault.jpg","viewCount":"5694","playlistId":"PLEkQk5xrP-tkeI_WVPfuoTJO46aVkpaz0","playlistName":"Ø´Ø±Ø­ ÙƒØªØ§Ø¨ Ù…ÙŠØ²Ø§Ù† Ø§Ù„Ø§Ø¹ØªØ¯Ø§Ù„ Ù„Ø­ÙØ¸ Ø§Ù„Ø¯ÙŠÙ† ÙˆØ§Ù„Ø£Ø­ÙˆØ§Ù„","category":"Ù…ØªÙ†ÙˆØ¹"},{"id":"lgfz9gETzqk","title":"Ù…Ù‚Ø±Ø£Ø© Ø³ÙˆØ±Ø© Ø³Ø¨Ø£ Ù…Ù† Ø¢ÙŠØ© Ù¢Ù¨","publishedAt":"2018-08-12T08:36:28Z","duration":"PT12M25S","thumbnail":"https://i.ytimg.com/vi/lgfz9gETzqk/mqdefault.jpg","viewCount":"269","playlistId":"PLEkQk5xrP-tnmTYsyW6xNdyfhPq0Bhrhj","playlistName":"Ù…Ù‚Ø±Ø£Ø© Ø§Ù„ÙØ¬Ø± - Ø§Ù„Ù‚ÙØ±Ù’Ø¢Ù†Ù Ø§Ù„ÙƒÙØ±ÙÙŠÙ…Ù - Ø®ÙØªÙ’Ù…ÙØ©Ù Ø§Ù„ØªÙ‘ÙØ¯ÙØ¨Ù‘ÙØ±Ù  Ø£.Ø¯. ÙŠØ³Ø±ÙŠ Ø¬Ø¨Ø±","category":"Ù…ØªÙ†ÙˆØ¹"},{"id":"eYw4bdId_8Y","title":"Ù…Ù‚Ø±Ø£Ø© Ø³ÙˆØ±Ø© Ø³Ø¨Ø£ Ù…Ù† Ø¢ÙŠØ© Ù¢Ù¢","publishedAt":"2018-08-11T13:05:51Z","duration":"PT19M41S","thumbnail":"https://i.ytimg.com/vi/eYw4bdId_8Y/mqdefault.jpg","viewCount":"293","playlistId":"PLEkQk5xrP-tnmTYsyW6xNdyfhPq0Bhrhj","playlistName":"Ù…Ù‚Ø±Ø£Ø© Ø§Ù„ÙØ¬Ø± - Ø§Ù„Ù‚ÙØ±Ù’Ø¢Ù†Ù Ø§Ù„ÙƒÙØ±ÙÙŠÙ…Ù - Ø®ÙØªÙ’Ù…ÙØ©Ù Ø§Ù„ØªÙ‘ÙØ¯ÙØ¨Ù‘ÙØ±Ù  Ø£.Ø¯. ÙŠØ³Ø±ÙŠ Ø¬Ø¨Ø±","category":"Ù…ØªÙ†ÙˆØ¹"},{"id":"-8-iBegeqZg","title":"Ù…Ù‚Ø±Ø£Ø© Ø³ÙˆØ±Ø© Ø³Ø¨Ø£ Ù…Ù† Ø¢ÙŠØ© Ù¡Ù¥","publishedAt":"2018-08-09T20:13:24Z","duration":"PT20M42S","thumbnail":"https://i.ytimg.com/vi/-8-iBegeqZg/mqdefault.jpg","viewCount":"356","playlistId":"PLEkQk5xrP-tnmTYsyW6xNdyfhPq0Bhrhj","playlistName":"Ù…Ù‚Ø±Ø£Ø© Ø§Ù„ÙØ¬Ø± - Ø§Ù„Ù‚ÙØ±Ù’Ø¢Ù†Ù Ø§Ù„ÙƒÙØ±ÙÙŠÙ…Ù - Ø®ÙØªÙ’Ù…ÙØ©Ù Ø§Ù„ØªÙ‘ÙØ¯ÙØ¨Ù‘ÙØ±Ù  Ø£.Ø¯. ÙŠØ³Ø±ÙŠ Ø¬Ø¨Ø±","category":"Ù…ØªÙ†ÙˆØ¹"},{"id":"AQZzR7zEWgg","title":"Ø´Ø±Ø­ ÙƒØªØ§Ø¨ ØªÙØ³ÙŠØ± Ø§Ù„Ù‚Ø±Ø¢Ù† Ù…Ù† Ø³Ù†Ù† Ø§Ù„ØªØ±Ù…Ø°ÙŠ - Ø§Ù„Ù…Ø¬Ù„Ø³ Ø§Ù„Ø³Ø§Ø¯Ø³","publishedAt":"2016-04-10T07:22:08Z","duration":"PT35M","thumbnail":"https://i.ytimg.com/vi/AQZzR7zEWgg/mqdefault.jpg","viewCount":"137","playlistId":"PLEkQk5xrP-tnu6of679SvxdVx0qSrJzmb","playlistName":"Ø´Ø±Ø­ Ø³Ù†Ù† Ø§Ù„Ø¥Ù…Ø§Ù… Ø§Ù„ØªØ±Ù…Ø°ÙŠ Ø±Ø¶Ù‰ Ø§Ù„Ù„Ù‡ Ø¹Ù†Ù‡ Ø¯. ÙŠØ³Ø±ÙŠ Ø¬Ø¨Ø±","category":"Ù…ØªÙ†ÙˆØ¹"}],"total":4126,"page":68,"pageSize":24,"totalPages":172}