{"items":[{"id":"wyyyj1S9iUc","title":"سورة التوبة آية 34","publishedAt":"2017-04-15T07:59:11Z","duration":"PT12M30S","thumbnail":"https://i.ytimg.com/vi/wyyyj1S9iUc/mqdefault.jpg","viewCount":"299","playlistId":"PLEkQk5xrP-tnmTYsyW6xNdyfhPq0Bhrhj","playlistName":"مقرأة الفجر - القُرْآنُ الكَرِيمُ - خَتْمَةُ التَّدَبُّرِ  أ.د. يسري جبر","category":"متنوع"},{"id":"5YJNASeHTSM","title":"سورة التوبة  آية 30","publishedAt":"2017-04-13T06:23:18Z","duration":"PT11M48S","thumbnail":"https://i.ytimg.com/vi/5YJNASeHTSM/mqdefault.jpg","viewCount":"385","playlistId":"PLEkQk5xrP-tnmTYsyW6xNdyfhPq0Bhrhj","playlistName":"مقرأة الفجر - القُرْآنُ الكَرِيمُ - خَتْمَةُ التَّدَبُّرِ  أ.د. يسري جبر","category":"متنوع"},{"id":"poc9MZ2Sz-c","title":"سبحان من لم يجعل الدليل على أوليائه إلا من حيث الدليل عليه، ولم يوصل إليهم إلا من أراد أن يوصله إليه","publishedAt":"2017-04-11T19:28:12Z","duration":"PT13M34S","thumbnail":"https://i.ytimg.com/vi/poc9MZ2Sz-c/mqdefault.jpg","viewCount":"9045","playlistId":"PLEkQk5xrP-tkI_meE148wc7V7XHlB0WPb","playlistName":"من الحكم العطائية  د. يسري جبر","category":"متنوع"},{"id":"KDZ5Uyo5kN4","title":"سورة التوبة آية 28","publishedAt":"2017-04-11T15:30:09Z","duration":"PT20M54S","thumbnail":"https://i.ytimg.com/vi/KDZ5Uyo5kN4/mqdefault.jpg","viewCount":"460","playlistId":"PLEkQk5xrP-tnmTYsyW6xNdyfhPq0Bhrhj","playlistName":"مقرأة الفجر - القُرْآنُ الكَرِيمُ - خَتْمَةُ التَّدَبُّرِ  أ.د. يسري جبر","category":"متنوع"},{"id":"PRgzw7Jrt30","title":"سورة التوبة آية 24","publishedAt":"2017-04-09T17:13:52Z","duration":"PT14M21S","thumbnail":"https://i.ytimg.com/vi/PRgzw7Jrt30/mqdefault.jpg","viewCount":"440","playlistId":"PLEkQk5xrP-tnmTYsyW6xNdyfhPq0Bhrhj","playlistName":"مقرأة الفجر - القُرْآنُ الكَرِيمُ - خَتْمَةُ التَّدَبُّرِ  أ.د. يسري جبر","category":"متنوع"},{"id":"loUzDnqV9zw","title":"سورة التوبة آية 20","publishedAt":"2017-04-08T21:28:31Z","duration":"PT22M19S","thumbnail":"https://i.ytimg.com/vi/loUzDnqV9zw/mqdefault.jpg","viewCount":"496","playlistId":"PLEkQk5xrP-tnmTYsyW6xNdyfhPq0Bhrhj","playlistName":"مقرأة الفجر - القُرْآنُ الكَرِيمُ - خَتْمَةُ التَّدَبُّرِ  أ.د. يسري جبر","category":"متنوع"},{"id":"Ih4MhsxX6JE","title":"ستر أنوار السرائر بكثائف الظواهر، إجلالا لها أن تبتذل بوجود الإظهار،...","publishedAt":"2017-04-01T15:52:35Z","duration":"PT22M9S","thumbnail":"https://i.ytimg.com/vi/Ih4MhsxX6JE/mqdefault.jpg","viewCount":"10072","playlistId":"PLEkQk5xrP-tkI_meE148wc7V7XHlB0WPb","playlistName":"من الحكم العطائية  د. يسري جبر","category":"متنوع"},{"id":"h7Cj6VwuOd0","title":"سورة التوبة آية 16","publishedAt":"2017-03-31T04:42:00Z","duration":"PT18M2S","thumbnail":"https://i.ytimg.com/vi/h7Cj6VwuOd0/mqdefault.jpg","viewCount":"469","playlistId":"PLEkQk5xrP-tnmTYsyW6xNdyfhPq0Bhrhj","playlistName":"مقرأة الفجر - القُرْآنُ الكَرِيمُ - خَتْمَةُ التَّدَبُّرِ  أ.د. يسري جبر","category":"متنوع"},{"id":"8K1hZUKDDFI","title":"سورة التوبة آية 7","publishedAt":"2017-03-30T07:06:21Z","duration":"PT14M55S","thumbnail":"https://i.ytimg.com/vi/8K1hZUKDDFI/mqdefault.jpg","viewCount":"693","playlistId":"PLEkQk5xrP-tnmTYsyW6xNdyfhPq0Bhrhj","playlistName":"مقرأة الفجر - القُرْآنُ الكَرِيمُ - خَتْمَةُ التَّدَبُّرِ  أ.د. يسري جبر","category":"متنوع"},{"id":"Mbil34s6r0g","title":"ربما وقفت القلوب مع الأنوار، كما حُجبت النفوس بكثائف الأغيار.","publishedAt":"2017-03-29T19:36:54Z","duration":"PT6M7S","thumbnail":"https://i.ytimg.com/vi/Mbil34s6r0g/mqdefault.jpg","viewCount":"3273","playlistId":"PLEkQk5xrP-tkI_meE148wc7V7XHlB0WPb","playlistName":"من الحكم العطائية  د. يسري جبر","category":"متنوع"},{"id":"Yu5PvKsAHw4","title":"سورة التوبة من أولها","publishedAt":"2017-03-29T08:45:05Z","duration":"PT22M48S","thumbnail":"https://i.ytimg.com/vi/Yu5PvKsAHw4/mqdefault.jpg","viewCount":"1029","playlistId":"PLEkQk5xrP-tnmTYsyW6xNdyfhPq0Bhrhj","playlistName":"مقرأة الفجر - القُرْآنُ الكَرِيمُ - خَتْمَةُ التَّدَبُّرِ  أ.د. يسري جبر","category":"متنوع"},{"id":"qiiKcEy1L7M","title":"نور يكشف لك به عن آثاره، ونور يكشف لك به عن أوصافه .","publishedAt":"2017-03-28T19:42:24Z","duration":"PT19M48S","thumbnail":"https://i.ytimg.com/vi/qiiKcEy1L7M/mqdefault.jpg","viewCount":"10981","playlistId":"PLEkQk5xrP-tkI_meE148wc7V7XHlB0WPb","playlistName":"من الحكم العطائية  د. يسري جبر","category":"متنوع"},{"id":"2ofBcqT8qnQ","title":"سورة الأنفال آية 70","publishedAt":"2017-03-28T04:41:51Z","duration":"PT12M15S","thumbnail":"https://i.ytimg.com/vi/2ofBcqT8qnQ/mqdefault.jpg","viewCount":"339","playlistId":"PLEkQk5xrP-tnmTYsyW6xNdyfhPq0Bhrhj","playlistName":"مقرأة الفجر - القُرْآنُ الكَرِيمُ - خَتْمَةُ التَّدَبُّرِ  أ.د. يسري جبر","category":"متنوع"},{"id":"J1MNCtwkSNM","title":"نور مستودع في القلوب، مدده من النور الوارد من خزائن الغيوب .","publishedAt":"2017-03-27T18:08:50Z","duration":"PT15M22S","thumbnail":"https://i.ytimg.com/vi/J1MNCtwkSNM/mqdefault.jpg","viewCount":"2781","playlistId":"PLEkQk5xrP-tkI_meE148wc7V7XHlB0WPb","playlistName":"من الحكم العطائية  د. يسري جبر","category":"متنوع"},{"id":"lzDDc5YsYls","title":"سورة الأنفال آية 64","publishedAt":"2017-03-27T06:10:24Z","duration":"PT23M18S","thumbnail":"https://i.ytimg.com/vi/lzDDc5YsYls/mqdefault.jpg","viewCount":"495","playlistId":"PLEkQk5xrP-tnmTYsyW6xNdyfhPq0Bhrhj","playlistName":"مقرأة الفجر - القُرْآنُ الكَرِيمُ - خَتْمَةُ التَّدَبُّرِ  أ.د. يسري جبر","category":"متنوع"},{"id":"cgd18-iFGGw","title":"46- بِنَاءِ الْكَعْبَةِ كتاب الحج ك الموطأ د يسري جبر الأزهري  بمضيفة الشيخ سعيد الدح","publishedAt":"2017-03-26T22:47:23Z","duration":"PT59M10S","thumbnail":"https://i.ytimg.com/vi/cgd18-iFGGw/mqdefault.jpg","viewCount":"343","playlistId":"PLEkQk5xrP-tnC6BRuqMjyO-484iqXeg0o","playlistName":"شرح كتاب الموطأ للإمام مالك","category":"متنوع"},{"id":"PUB_gC8J17s","title":"مقرأة سورة الأنفال من آية ٥٩","publishedAt":"2017-03-26T07:32:58Z","duration":"PT19M48S","thumbnail":"https://i.ytimg.com/vi/PUB_gC8J17s/mqdefault.jpg","viewCount":"392","playlistId":"PLEkQk5xrP-tnmTYsyW6xNdyfhPq0Bhrhj","playlistName":"مقرأة الفجر - القُرْآنُ الكَرِيمُ - خَتْمَةُ التَّدَبُّرِ  أ.د. يسري جبر","category":"متنوع"},{"id":"kSCYTZ-Alv0","title":"سورة الأنفال آية 50","publishedAt":"2017-03-25T07:07:14Z","duration":"PT18M23S","thumbnail":"https://i.ytimg.com/vi/kSCYTZ-Alv0/mqdefault.jpg","viewCount":"413","playlistId":"PLEkQk5xrP-tnmTYsyW6xNdyfhPq0Bhrhj","playlistName":"مقرأة الفجر - القُرْآنُ الكَرِيمُ - خَتْمَةُ التَّدَبُّرِ  أ.د. يسري جبر","category":"متنوع"},{"id":"vbytXmL-EMw","title":"سورة الأنفال آية 45","publishedAt":"2017-03-24T07:42:46Z","duration":"PT15M6S","thumbnail":"https://i.ytimg.com/vi/vbytXmL-EMw/mqdefault.jpg","viewCount":"375","playlistId":"PLEkQk5xrP-tnmTYsyW6xNdyfhPq0Bhrhj","playlistName":"مقرأة الفجر - القُرْآنُ الكَرِيمُ - خَتْمَةُ التَّدَبُّرِ  أ.د. يسري جبر","category":"متنوع"},{"id":"0AK8PSOVDsE","title":"مطالع الأنوار : القلوب والأسرار","publishedAt":"2017-03-23T17:19:39Z","duration":"PT14M48S","thumbnail":"https://i.ytimg.com/vi/0AK8PSOVDsE/mqdefault.jpg","viewCount":"11423","playlistId":"PLEkQk5xrP-tkI_meE148wc7V7XHlB0WPb","playlistName":"من الحكم العطائية  د. يسري جبر","category":"متنوع"},{"id":"ItHP6HFV-r8","title":"مقرأة سورة الأنفال من آية ٤١","publishedAt":"2017-03-23T06:34:42Z","duration":"PT26M36S","thumbnail":"https://i.ytimg.com/vi/ItHP6HFV-r8/mqdefault.jpg","viewCount":"343","playlistId":"PLEkQk5xrP-tnmTYsyW6xNdyfhPq0Bhrhj","playlistName":"مقرأة الفجر - القُرْآنُ الكَرِيمُ - خَتْمَةُ التَّدَبُّرِ  أ.د. يسري جبر","category":"متنوع"},{"id":"tXLNjDM_z-I","title":"سورة الأنفال آية 36","publishedAt":"2017-03-22T08:09:02Z","duration":"PT14M43S","thumbnail":"https://i.ytimg.com/vi/tXLNjDM_z-I/mqdefault.jpg","viewCount":"398","playlistId":"PLEkQk5xrP-tnmTYsyW6xNdyfhPq0Bhrhj","playlistName":"مقرأة الفجر - القُرْآنُ الكَرِيمُ - خَتْمَةُ التَّدَبُّرِ  أ.د. يسري جبر","category":"متنوع"},{"id":"wq4iJq7vmDo","title":"سورة الأنفال آية 31","publishedAt":"2017-03-21T07:32:14Z","duration":"PT19M12S","thumbnail":"https://i.ytimg.com/vi/wq4iJq7vmDo/mqdefault.jpg","viewCount":"435","playlistId":"PLEkQk5xrP-tnmTYsyW6xNdyfhPq0Bhrhj","playlistName":"مقرأة الفجر - القُرْآنُ الكَرِيمُ - خَتْمَةُ التَّدَبُّرِ  أ.د. يسري جبر","category":"متنوع"},{"id":"i0tTZk_Cjus","title":"ربما أفادك في ليل القبض ما لم تستفدْه في إشراق نهار البسط .","publishedAt":"2017-03-20T19:35:52Z","duration":"PT14M17S","thumbnail":"https://i.ytimg.com/vi/i0tTZk_Cjus/mqdefault.jpg","viewCount":"9276","playlistId":"PLEkQk5xrP-tkI_meE148wc7V7XHlB0WPb","playlistName":"من الحكم العطائية  د. يسري جبر","category":"متنوع"}],"total":4126,"page":41,"pageSize":24,"totalPages":172}