{"items":[{"id":"oXwH0K9yDtE","title":"9- فضائل وآداب - شرح مسند الإمام أحمد","publishedAt":"2023-08-04T05:00:19Z","duration":"PT45M22S","thumbnail":"https://i.ytimg.com/vi/oXwH0K9yDtE/mqdefault.jpg","viewCount":"1383","playlistId":"PLEkQk5xrP-tkKprIuGrSdEuBSMsyg5We1","playlistName":"شرح مسند الإمام أحمد بن حنبل","category":"متنوع"},{"id":"6txGEjQDW7Y","title":"بحاول أنتظم في الصلاة بقالي سنتين ومش عارف ,, فماذا أفعل؟","publishedAt":"2023-08-03T18:00:03Z","duration":"PT11M13S","thumbnail":"https://i.ytimg.com/vi/6txGEjQDW7Y/mqdefault.jpg","viewCount":"4907","playlistId":"PLEkQk5xrP-tkGXuZ9atE3k_7it12rUPTs","playlistName":"أسئلة المتابعين","category":"متنوع"},{"id":"PYuPHg4uwuw","title":"سورة النساء أية 77","publishedAt":"2016-08-31T06:10:26Z","duration":"PT22M9S","thumbnail":"https://i.ytimg.com/vi/PYuPHg4uwuw/mqdefault.jpg","viewCount":"520","playlistId":"PLEkQk5xrP-tnmTYsyW6xNdyfhPq0Bhrhj","playlistName":"مقرأة الفجر - القُرْآنُ الكَرِيمُ - خَتْمَةُ التَّدَبُّرِ  أ.د. يسري جبر","category":"متنوع"},{"id":"dKTq64PdPnQ","title":"سورة النساء آية 65","publishedAt":"2016-08-28T20:24:58Z","duration":"PT10M49S","thumbnail":"https://i.ytimg.com/vi/dKTq64PdPnQ/mqdefault.jpg","viewCount":"469","playlistId":"PLEkQk5xrP-tnmTYsyW6xNdyfhPq0Bhrhj","playlistName":"مقرأة الفجر - القُرْآنُ الكَرِيمُ - خَتْمَةُ التَّدَبُّرِ  أ.د. يسري جبر","category":"متنوع"},{"id":"d5MDxnH0CQw","title":"سورة النساء آية 60","publishedAt":"2016-08-27T21:07:17Z","duration":"PT18M11S","thumbnail":"https://i.ytimg.com/vi/d5MDxnH0CQw/mqdefault.jpg","viewCount":"566","playlistId":"PLEkQk5xrP-tnmTYsyW6xNdyfhPq0Bhrhj","playlistName":"مقرأة الفجر - القُرْآنُ الكَرِيمُ - خَتْمَةُ التَّدَبُّرِ  أ.د. يسري جبر","category":"متنوع"},{"id":"iICWvhmaPPU","title":"سورة النساء آية 58","publishedAt":"2016-08-26T06:46:14Z","duration":"PT10M","thumbnail":"https://i.ytimg.com/vi/iICWvhmaPPU/mqdefault.jpg","viewCount":"465","playlistId":"PLEkQk5xrP-tnmTYsyW6xNdyfhPq0Bhrhj","playlistName":"مقرأة الفجر - القُرْآنُ الكَرِيمُ - خَتْمَةُ التَّدَبُّرِ  أ.د. يسري جبر","category":"متنوع"},{"id":"OEcih4VUw-A","title":"23- جَامِعِ الصَّلاَةِ ك قصرالصلاة فى السفر ك الموطأ د يسري جبر الأزهري بمضيفة الشيخ سعيد الدح","publishedAt":"2016-08-25T23:36:03Z","duration":"PT49M45S","thumbnail":"https://i.ytimg.com/vi/OEcih4VUw-A/mqdefault.jpg","viewCount":"541","playlistId":"PLEkQk5xrP-tnC6BRuqMjyO-484iqXeg0o","playlistName":"شرح كتاب الموطأ للإمام مالك","category":"متنوع"},{"id":"3JLbublbSKo","title":"سورة النساء آية 48","publishedAt":"2016-08-24T12:02:29Z","duration":"PT15M44S","thumbnail":"https://i.ytimg.com/vi/3JLbublbSKo/mqdefault.jpg","viewCount":"454","playlistId":"PLEkQk5xrP-tnmTYsyW6xNdyfhPq0Bhrhj","playlistName":"مقرأة الفجر - القُرْآنُ الكَرِيمُ - خَتْمَةُ التَّدَبُّرِ  أ.د. يسري جبر","category":"متنوع"},{"id":"hSjTqo3nqlE","title":"22- مَا جَاءَ فِى الصَّلاَةِ عَلَى النَّبِىِّ صلى الله عليه وسلم ك الصلاة ك الموطأ د يسري جبر","publishedAt":"2016-08-23T21:34:46Z","duration":"PT49M26S","thumbnail":"https://i.ytimg.com/vi/hSjTqo3nqlE/mqdefault.jpg","viewCount":"3323","playlistId":"PLEkQk5xrP-tnC6BRuqMjyO-484iqXeg0o","playlistName":"شرح كتاب الموطأ للإمام مالك","category":"متنوع"},{"id":"ZsgSM4d6Qts","title":"سورة النساء آية 44","publishedAt":"2016-08-23T06:44:21Z","duration":"PT20M47S","thumbnail":"https://i.ytimg.com/vi/ZsgSM4d6Qts/mqdefault.jpg","viewCount":"479","playlistId":"PLEkQk5xrP-tnmTYsyW6xNdyfhPq0Bhrhj","playlistName":"مقرأة الفجر - القُرْآنُ الكَرِيمُ - خَتْمَةُ التَّدَبُّرِ  أ.د. يسري جبر","category":"متنوع"},{"id":"s_8Dy6cHKoM","title":"سورة النساء آية 43","publishedAt":"2016-08-22T07:40:54Z","duration":"PT32M52S","thumbnail":"https://i.ytimg.com/vi/s_8Dy6cHKoM/mqdefault.jpg","viewCount":"510","playlistId":"PLEkQk5xrP-tnmTYsyW6xNdyfhPq0Bhrhj","playlistName":"مقرأة الفجر - القُرْآنُ الكَرِيمُ - خَتْمَةُ التَّدَبُّرِ  أ.د. يسري جبر","category":"متنوع"},{"id":"lKc8hCSCc5k","title":"سورة النساء آية 36","publishedAt":"2016-08-21T07:39:58Z","duration":"PT23M12S","thumbnail":"https://i.ytimg.com/vi/lKc8hCSCc5k/mqdefault.jpg","viewCount":"533","playlistId":"PLEkQk5xrP-tnmTYsyW6xNdyfhPq0Bhrhj","playlistName":"مقرأة الفجر - القُرْآنُ الكَرِيمُ - خَتْمَةُ التَّدَبُّرِ  أ.د. يسري جبر","category":"متنوع"},{"id":"vafyNpRgbEc","title":"كلمة أ.د. يسري جبر في مدينة بولو | تركيا","publishedAt":"2023-08-03T08:59:00Z","duration":"PT14M3S","thumbnail":"https://i.ytimg.com/vi/vafyNpRgbEc/mqdefault.jpg","viewCount":"5033","playlistId":"PLEkQk5xrP-tmJzNvLntpzW0uPanPzxA0c","playlistName":"لقاءات ومحاضرات","category":"متنوع"},{"id":"EPn80Gucc9s","title":"أنا زهقان وتعبان وحاسس أني مش مستمتع بالحياة ,, فماذا أفعل؟","publishedAt":"2023-08-02T18:00:09Z","duration":"PT10M15S","thumbnail":"https://i.ytimg.com/vi/EPn80Gucc9s/mqdefault.jpg","viewCount":"9696","playlistId":"PLEkQk5xrP-tkGXuZ9atE3k_7it12rUPTs","playlistName":"أسئلة المتابعين","category":"متنوع"},{"id":"W1FmFH7uKwg","title":"8- حكم الصلاة في الثوب الواحد|فضيلة مَن خُتِم له بالإيمان بالله واليوم الآخر - شرح مسند الإمام أحمد","publishedAt":"2023-08-02T08:59:00Z","duration":"PT55M27S","thumbnail":"https://i.ytimg.com/vi/W1FmFH7uKwg/mqdefault.jpg","viewCount":"1592","playlistId":"PLEkQk5xrP-tkKprIuGrSdEuBSMsyg5We1","playlistName":"شرح مسند الإمام أحمد بن حنبل","category":"متنوع"},{"id":"BmdpWORsIxM","title":"7- هل تجب الزكاة في الخيل؟ - شرح مسند الإمام أحمد","publishedAt":"2023-08-01T08:59:00Z","duration":"PT40M19S","thumbnail":"https://i.ytimg.com/vi/BmdpWORsIxM/mqdefault.jpg","viewCount":"1284","playlistId":"PLEkQk5xrP-tkKprIuGrSdEuBSMsyg5We1","playlistName":"شرح مسند الإمام أحمد بن حنبل","category":"متنوع"},{"id":"uiGmck7v7ww","title":"أحاول الإحسان إلى أمي ولكنها تسيء معاملتي فماذا أفعل؟","publishedAt":"2023-07-31T18:01:35Z","duration":"PT8M19S","thumbnail":"https://i.ytimg.com/vi/uiGmck7v7ww/mqdefault.jpg","viewCount":"5499","playlistId":"PLEkQk5xrP-tkGXuZ9atE3k_7it12rUPTs","playlistName":"أسئلة المتابعين","category":"متنوع"},{"id":"m2p8nGotswU","title":"6- لا يَدخُلُ الجنَّةَ سيِّئُ المَلَكَة - شرح مسند الإمام أحمد","publishedAt":"2023-07-31T08:59:00Z","duration":"PT27M33S","thumbnail":"https://i.ytimg.com/vi/m2p8nGotswU/mqdefault.jpg","viewCount":"3095","playlistId":"PLEkQk5xrP-tkKprIuGrSdEuBSMsyg5We1","playlistName":"شرح مسند الإمام أحمد بن حنبل","category":"متنوع"},{"id":"9jBkLKy6Y-s","title":"5- سَلوا اللَّهَ العفوَ والعافيةَ - شرح مسند الإمام أحمد","publishedAt":"2023-07-30T08:59:00Z","duration":"PT41M10S","thumbnail":"https://i.ytimg.com/vi/9jBkLKy6Y-s/mqdefault.jpg","viewCount":"2528","playlistId":"PLEkQk5xrP-tkKprIuGrSdEuBSMsyg5We1","playlistName":"شرح مسند الإمام أحمد بن حنبل","category":"متنوع"},{"id":"xPc_UV4UO0Q","title":"4- أُعطيتُ سبعين ألفًا يدخلون الجنّة بغير حسابٍ وجوهُهم كالقمر ليلة البدر وقلوبُهم على قلب رجلٍ واحد","publishedAt":"2023-07-29T08:59:00Z","duration":"PT44M18S","thumbnail":"https://i.ytimg.com/vi/xPc_UV4UO0Q/mqdefault.jpg","viewCount":"3011","playlistId":"PLEkQk5xrP-tkKprIuGrSdEuBSMsyg5We1","playlistName":"شرح مسند الإمام أحمد بن حنبل","category":"متنوع"},{"id":"PqV8gkNIgFM","title":"أهلي مش ملتزمين ومش عارف أنصحهم ازاي؟","publishedAt":"2023-07-27T18:00:42Z","duration":"PT8M2S","thumbnail":"https://i.ytimg.com/vi/PqV8gkNIgFM/mqdefault.jpg","viewCount":"2904","playlistId":"PLEkQk5xrP-tkGXuZ9atE3k_7it12rUPTs","playlistName":"أسئلة المتابعين","category":"متنوع"},{"id":"isLOpYw_7-c","title":"3- سَعة رحمة الله تعالى للخائفين منه وإثباتُ الشّفاعة للنَّبيّ ﷺ يوم القيامة - شرح مسند الإمام أحمد","publishedAt":"2023-07-27T08:59:00Z","duration":"PT43M12S","thumbnail":"https://i.ytimg.com/vi/isLOpYw_7-c/mqdefault.jpg","viewCount":"3130","playlistId":"PLEkQk5xrP-tkKprIuGrSdEuBSMsyg5We1","playlistName":"شرح مسند الإمام أحمد بن حنبل","category":"متنوع"},{"id":"GFBTCnb8sXc","title":"هل يتعارض قانون الطلاق في مصر مع الشريعة الإسلامية؟","publishedAt":"2023-07-26T18:01:09Z","duration":"PT9M15S","thumbnail":"https://i.ytimg.com/vi/GFBTCnb8sXc/mqdefault.jpg","viewCount":"2830","playlistId":"PLEkQk5xrP-tkGXuZ9atE3k_7it12rUPTs","playlistName":"أسئلة المتابعين","category":"متنوع"},{"id":"ohN2cIbku4w","title":"2- لا يحجُّ بعد العام مُشرِك - شرح مسند الإمام أحمد بن حنبل","publishedAt":"2023-07-26T08:59:00Z","duration":"PT46M34S","thumbnail":"https://i.ytimg.com/vi/ohN2cIbku4w/mqdefault.jpg","viewCount":"2400","playlistId":"PLEkQk5xrP-tkKprIuGrSdEuBSMsyg5We1","playlistName":"شرح مسند الإمام أحمد بن حنبل","category":"متنوع"}],"total":4126,"page":15,"pageSize":24,"totalPages":172}