{"items":[{"id":"KFU0kQzKB2k","title":"لولا جميلُ ستره ، لم يكن عملٌ أهلا للقبول","publishedAt":"2016-10-20T18:05:14Z","duration":"PT12M39S","thumbnail":"https://i.ytimg.com/vi/KFU0kQzKB2k/mqdefault.jpg","viewCount":"1704","playlistId":"PLEkQk5xrP-tkI_meE148wc7V7XHlB0WPb","playlistName":"من الحكم العطائية  د. يسري جبر","category":"متنوع"},{"id":"t2pYiELIY8U","title":"لو أنك لا تصل إليه إلا بعد فناء مساويك ، ومحو دعاويك ، لم تصل إليه أبدا.","publishedAt":"2016-10-18T19:30:13Z","duration":"PT6M23S","thumbnail":"https://i.ytimg.com/vi/t2pYiELIY8U/mqdefault.jpg","viewCount":"3554","playlistId":"PLEkQk5xrP-tkI_meE148wc7V7XHlB0WPb","playlistName":"من الحكم العطائية  د. يسري جبر","category":"متنوع"},{"id":"RC64W9LvysY","title":"كيف تُخرق لك العوائد وأنت لم تخرق من نفسك العوائد","publishedAt":"2016-10-17T17:55:47Z","duration":"PT12M37S","thumbnail":"https://i.ytimg.com/vi/RC64W9LvysY/mqdefault.jpg","viewCount":"15377","playlistId":"PLEkQk5xrP-tkI_meE148wc7V7XHlB0WPb","playlistName":"من الحكم العطائية  د. يسري جبر","category":"متنوع"},{"id":"ySU6WYBdxpA","title":"كن بأوصاف ربوبيته متعلقا وبأوصاف عبوديتك متحققا","publishedAt":"2016-10-16T17:54:18Z","duration":"PT18M28S","thumbnail":"https://i.ytimg.com/vi/ySU6WYBdxpA/mqdefault.jpg","viewCount":"3817","playlistId":"PLEkQk5xrP-tkI_meE148wc7V7XHlB0WPb","playlistName":"من الحكم العطائية  د. يسري جبر","category":"متنوع"},{"id":"m1UKR5IdFDA","title":"”تفسير قوله تعالى \"وَلا تَعْجَلْ بِالْقُرْآنِ مِنْ قَبْلِ أَنْ يُقْضَى إِلَيْكَ وَحْيُه","publishedAt":"2021-08-04T19:00:12Z","duration":"PT13M51S","thumbnail":"https://i.ytimg.com/vi/m1UKR5IdFDA/mqdefault.jpg","viewCount":"3361","playlistId":"PLEkQk5xrP-tkSGrPLMt1BEmJ54cGWYgtp","playlistName":"كتابُ بِدَعِ التَفَاسِيرِ - أ.د. يسري جبر","category":"متنوع"},{"id":"UYU41DPgY-M","title":"107- تحريم الظلم والأمر برد المظالم - شرح دليل الفالحين","publishedAt":"2021-08-03T05:23:57Z","duration":"PT56M45S","thumbnail":"https://i.ytimg.com/vi/UYU41DPgY-M/mqdefault.jpg","viewCount":"1748","playlistId":"PLEkQk5xrP-tkc9DXvSLguqX5-FYp6ASR4","playlistName":"دليل الفالحين لطرق رياض الصالحين","category":"متنوع"},{"id":"vnEg2XMGjao","title":"42- مَوَاقِيتِ الإِهْلاَلِ كتاب الحج ك الموطأ د يسري جبر الأزهري","publishedAt":"2017-02-21T00:48:41Z","duration":"PT1H19M49S","thumbnail":"https://i.ytimg.com/vi/vnEg2XMGjao/mqdefault.jpg","viewCount":"352","playlistId":"PLEkQk5xrP-tnC6BRuqMjyO-484iqXeg0o","playlistName":"شرح كتاب الموطأ للإمام مالك","category":"متنوع"},{"id":"JuSJlwJ9ItE","title":"سورة الأعراف آية 97","publishedAt":"2017-02-20T19:55:29Z","duration":"PT22M11S","thumbnail":"https://i.ytimg.com/vi/JuSJlwJ9ItE/mqdefault.jpg","viewCount":"466","playlistId":"PLEkQk5xrP-tnmTYsyW6xNdyfhPq0Bhrhj","playlistName":"مقرأة الفجر - القُرْآنُ الكَرِيمُ - خَتْمَةُ التَّدَبُّرِ  أ.د. يسري جبر","category":"متنوع"},{"id":"sV-OOQl1xlk","title":"سورة الأعراف آية 94","publishedAt":"2017-02-19T15:47:05Z","duration":"PT19M19S","thumbnail":"https://i.ytimg.com/vi/sV-OOQl1xlk/mqdefault.jpg","viewCount":"345","playlistId":"PLEkQk5xrP-tnmTYsyW6xNdyfhPq0Bhrhj","playlistName":"مقرأة الفجر - القُرْآنُ الكَرِيمُ - خَتْمَةُ التَّدَبُّرِ  أ.د. يسري جبر","category":"متنوع"},{"id":"sT8R7EFZFfM","title":"سورة الأعراف آية 85","publishedAt":"2017-02-18T12:39:13Z","duration":"PT26M43S","thumbnail":"https://i.ytimg.com/vi/sT8R7EFZFfM/mqdefault.jpg","viewCount":"398","playlistId":"PLEkQk5xrP-tnmTYsyW6xNdyfhPq0Bhrhj","playlistName":"مقرأة الفجر - القُرْآنُ الكَرِيمُ - خَتْمَةُ التَّدَبُّرِ  أ.د. يسري جبر","category":"متنوع"},{"id":"hAR9ZNiSC88","title":"سورة الأعراف آية 80","publishedAt":"2017-02-17T07:50:40Z","duration":"PT28M44S","thumbnail":"https://i.ytimg.com/vi/hAR9ZNiSC88/mqdefault.jpg","viewCount":"502","playlistId":"PLEkQk5xrP-tnmTYsyW6xNdyfhPq0Bhrhj","playlistName":"مقرأة الفجر - القُرْآنُ الكَرِيمُ - خَتْمَةُ التَّدَبُّرِ  أ.د. يسري جبر","category":"متنوع"},{"id":"X4_U2s0UChY","title":"سورة الأعراف آية 73","publishedAt":"2017-02-16T08:31:51Z","duration":"PT23M37S","thumbnail":"https://i.ytimg.com/vi/X4_U2s0UChY/mqdefault.jpg","viewCount":"515","playlistId":"PLEkQk5xrP-tnmTYsyW6xNdyfhPq0Bhrhj","playlistName":"مقرأة الفجر - القُرْآنُ الكَرِيمُ - خَتْمَةُ التَّدَبُّرِ  أ.د. يسري جبر","category":"متنوع"},{"id":"9pVKUCDZkW0","title":"سورة الأعراف آية 65","publishedAt":"2017-02-15T13:32:25Z","duration":"PT22M15S","thumbnail":"https://i.ytimg.com/vi/9pVKUCDZkW0/mqdefault.jpg","viewCount":"675","playlistId":"PLEkQk5xrP-tnmTYsyW6xNdyfhPq0Bhrhj","playlistName":"مقرأة الفجر - القُرْآنُ الكَرِيمُ - خَتْمَةُ التَّدَبُّرِ  أ.د. يسري جبر","category":"متنوع"},{"id":"d06OajHApJo","title":"مقرأة سورة الأعراف من آية ٥٩","publishedAt":"2017-02-14T11:31:59Z","duration":"PT22M21S","thumbnail":"https://i.ytimg.com/vi/d06OajHApJo/mqdefault.jpg","viewCount":"438","playlistId":"PLEkQk5xrP-tnmTYsyW6xNdyfhPq0Bhrhj","playlistName":"مقرأة الفجر - القُرْآنُ الكَرِيمُ - خَتْمَةُ التَّدَبُّرِ  أ.د. يسري جبر","category":"متنوع"},{"id":"UqyNQdg7G7s","title":"سورة الأعراف آية 56","publishedAt":"2017-02-13T07:40:14Z","duration":"PT15M40S","thumbnail":"https://i.ytimg.com/vi/UqyNQdg7G7s/mqdefault.jpg","viewCount":"417","playlistId":"PLEkQk5xrP-tnmTYsyW6xNdyfhPq0Bhrhj","playlistName":"مقرأة الفجر - القُرْآنُ الكَرِيمُ - خَتْمَةُ التَّدَبُّرِ  أ.د. يسري جبر","category":"متنوع"},{"id":"NKWrAmqH4jE","title":"سورة الأعراف آية 54","publishedAt":"2017-02-12T10:00:59Z","duration":"PT25M58S","thumbnail":"https://i.ytimg.com/vi/NKWrAmqH4jE/mqdefault.jpg","viewCount":"511","playlistId":"PLEkQk5xrP-tnmTYsyW6xNdyfhPq0Bhrhj","playlistName":"مقرأة الفجر - القُرْآنُ الكَرِيمُ - خَتْمَةُ التَّدَبُّرِ  أ.د. يسري جبر","category":"متنوع"},{"id":"uKIJZ4s9OZQ","title":"41- كتاب الحج ك الموطأ د يسري جبر الأزهري","publishedAt":"2017-02-11T14:41:23Z","duration":"PT1H6M26S","thumbnail":"https://i.ytimg.com/vi/uKIJZ4s9OZQ/mqdefault.jpg","viewCount":"525","playlistId":"PLEkQk5xrP-tnC6BRuqMjyO-484iqXeg0o","playlistName":"شرح كتاب الموطأ للإمام مالك","category":"متنوع"},{"id":"hE3jTAu3TXw","title":"سورة الأعراف آية 50","publishedAt":"2017-02-11T07:35:52Z","duration":"PT14M1S","thumbnail":"https://i.ytimg.com/vi/hE3jTAu3TXw/mqdefault.jpg","viewCount":"431","playlistId":"PLEkQk5xrP-tnmTYsyW6xNdyfhPq0Bhrhj","playlistName":"مقرأة الفجر - القُرْآنُ الكَرِيمُ - خَتْمَةُ التَّدَبُّرِ  أ.د. يسري جبر","category":"متنوع"},{"id":"WJbYrPlDcHU","title":"سورة الأعراف آية 44","publishedAt":"2017-02-10T08:30:55Z","duration":"PT15M4S","thumbnail":"https://i.ytimg.com/vi/WJbYrPlDcHU/mqdefault.jpg","viewCount":"347","playlistId":"PLEkQk5xrP-tnmTYsyW6xNdyfhPq0Bhrhj","playlistName":"مقرأة الفجر - القُرْآنُ الكَرِيمُ - خَتْمَةُ التَّدَبُّرِ  أ.د. يسري جبر","category":"متنوع"},{"id":"omK4MFNbi7I","title":"سورة الأعراف آية 40","publishedAt":"2017-02-09T09:25:20Z","duration":"PT22M50S","thumbnail":"https://i.ytimg.com/vi/omK4MFNbi7I/mqdefault.jpg","viewCount":"438","playlistId":"PLEkQk5xrP-tnmTYsyW6xNdyfhPq0Bhrhj","playlistName":"مقرأة الفجر - القُرْآنُ الكَرِيمُ - خَتْمَةُ التَّدَبُّرِ  أ.د. يسري جبر","category":"متنوع"},{"id":"mnv8Q7GYx-E","title":"سورة الأعراف آية 34","publishedAt":"2017-02-08T07:25:43Z","duration":"PT29M28S","thumbnail":"https://i.ytimg.com/vi/mnv8Q7GYx-E/mqdefault.jpg","viewCount":"443","playlistId":"PLEkQk5xrP-tnmTYsyW6xNdyfhPq0Bhrhj","playlistName":"مقرأة الفجر - القُرْآنُ الكَرِيمُ - خَتْمَةُ التَّدَبُّرِ  أ.د. يسري جبر","category":"متنوع"},{"id":"1b4MZ8zg1CU","title":"سورة الأعراف آية 31","publishedAt":"2017-02-07T06:50:04Z","duration":"PT27M41S","thumbnail":"https://i.ytimg.com/vi/1b4MZ8zg1CU/mqdefault.jpg","viewCount":"474","playlistId":"PLEkQk5xrP-tnmTYsyW6xNdyfhPq0Bhrhj","playlistName":"مقرأة الفجر - القُرْآنُ الكَرِيمُ - خَتْمَةُ التَّدَبُّرِ  أ.د. يسري جبر","category":"متنوع"},{"id":"vnUzD-RK5CI","title":"40- كتاب الاعتكاف ك الموطأ د يسري جبر الأزهري","publishedAt":"2017-02-07T00:03:14Z","duration":"PT49M39S","thumbnail":"https://i.ytimg.com/vi/vnUzD-RK5CI/mqdefault.jpg","viewCount":"373","playlistId":"PLEkQk5xrP-tnC6BRuqMjyO-484iqXeg0o","playlistName":"شرح كتاب الموطأ للإمام مالك","category":"متنوع"},{"id":"_Q4YVqaN118","title":"سورة الأعراف آية 26","publishedAt":"2017-02-06T08:14:16Z","duration":"PT26M30S","thumbnail":"https://i.ytimg.com/vi/_Q4YVqaN118/mqdefault.jpg","viewCount":"527","playlistId":"PLEkQk5xrP-tnmTYsyW6xNdyfhPq0Bhrhj","playlistName":"مقرأة الفجر - القُرْآنُ الكَرِيمُ - خَتْمَةُ التَّدَبُّرِ  أ.د. يسري جبر","category":"متنوع"}],"total":4126,"page":111,"pageSize":24,"totalPages":172}