{"items":[{"id":"S6Iw7WYVx2Q","title":"كم تكون نفقة الزوجة بعد الطلاق؟","publishedAt":"2021-12-07T18:48:43Z","duration":"PT8M1S","thumbnail":"https://i.ytimg.com/vi/S6Iw7WYVx2Q/mqdefault.jpg","viewCount":"12376","playlistId":"PLEkQk5xrP-tm8ZIu74nTOZN9KJUJu416J","playlistName":"مقاطع مُهمَّة (يُسريَّات) أ.د. يسري جبر","category":"متنوع"},{"id":"-spUMEnoxm0","title":"164-  \"…لاَ تَنْسَنَا يَا أُخَيَّ مِنْ دُعَائِكَ…\" - شرح دليل الفالحين","publishedAt":"2021-12-06T19:58:09Z","duration":"PT22M9S","thumbnail":"https://i.ytimg.com/vi/-spUMEnoxm0/mqdefault.jpg","viewCount":"1015","playlistId":"PLEkQk5xrP-tkc9DXvSLguqX5-FYp6ASR4","playlistName":"دليل الفالحين لطرق رياض الصالحين","category":"متنوع"},{"id":"47TxVnmEEAg","title":"ما أهمية الأذكار الصوفية والرد على من ينكرها؟","publishedAt":"2021-12-05T18:45:53Z","duration":"PT14M41S","thumbnail":"https://i.ytimg.com/vi/47TxVnmEEAg/mqdefault.jpg","viewCount":"28525","playlistId":"PLEkQk5xrP-tm8ZIu74nTOZN9KJUJu416J","playlistName":"مقاطع مُهمَّة (يُسريَّات) أ.د. يسري جبر","category":"متنوع"},{"id":"OOC84Do31RM","title":"163-\"…يَأْتي علَيْكُم أُوَيْسُ بنُ عَامِرٍ مع أَمْدَادِ أَهْلِ اليَمَنِ…\" - شرح دليل الفالحين","publishedAt":"2021-12-05T06:54:44Z","duration":"PT40M8S","thumbnail":"https://i.ytimg.com/vi/OOC84Do31RM/mqdefault.jpg","viewCount":"2035","playlistId":"PLEkQk5xrP-tkc9DXvSLguqX5-FYp6ASR4","playlistName":"دليل الفالحين لطرق رياض الصالحين","category":"متنوع"},{"id":"0HmHl1_GvyE","title":"كيف أسامح من ظلمني؟","publishedAt":"2021-12-04T18:56:16Z","duration":"PT8M35S","thumbnail":"https://i.ytimg.com/vi/0HmHl1_GvyE/mqdefault.jpg","viewCount":"5465","playlistId":"PLEkQk5xrP-tkGXuZ9atE3k_7it12rUPTs","playlistName":"أسئلة المتابعين","category":"متنوع"},{"id":"M7vsyDMaLXE","title":"6- حكم الوضوء بالماء الذي يُبلُّ فيه الخُبز، ومعنى قوله تعالى\"إِذَا قُمْتُمْ إِلَى الصَّلَاةِ\"","publishedAt":"2023-01-14T09:00:08Z","duration":"PT40M53S","thumbnail":"https://i.ytimg.com/vi/M7vsyDMaLXE/mqdefault.jpg","viewCount":"971","playlistId":"PLEkQk5xrP-tk_MCBZ706ORCw6gFtFyaGj","playlistName":"شرح سنن الإمام الدارقطني","category":"متنوع"},{"id":"ABlqvJ5ru6g","title":"381- كيف نفرق بين الجهاد في سبيل الله والجهاد في الله؟ - شرح دليل الفالحين","publishedAt":"2023-01-13T09:00:09Z","duration":"PT37M11S","thumbnail":"https://i.ytimg.com/vi/ABlqvJ5ru6g/mqdefault.jpg","viewCount":"735","playlistId":"PLEkQk5xrP-tkc9DXvSLguqX5-FYp6ASR4","playlistName":"دليل الفالحين لطرق رياض الصالحين","category":"متنوع"},{"id":"3s8I2VPISxs","title":"287-  «رؤيا المؤمن جزء من ستة وأربعين جزءًا من النبوة» - شرح سنن الإمام الترمذي رضي الله تعالى عنه","publishedAt":"2015-12-30T06:28:50Z","duration":"PT48M51S","thumbnail":"https://i.ytimg.com/vi/3s8I2VPISxs/mqdefault.jpg","viewCount":"539","playlistId":"PLEkQk5xrP-tnu6of679SvxdVx0qSrJzmb","playlistName":"شرح سنن الإمام الترمذي رضى الله عنه د. يسري جبر","category":"متنوع"},{"id":"geNSSyeZG5Y","title":"شرح كتاب منازل السائرين للإمام الهروى - المجلس الثانى - المقدمة","publishedAt":"2015-12-30T04:52:00Z","duration":"PT1H28M3S","thumbnail":"https://i.ytimg.com/vi/geNSSyeZG5Y/mqdefault.jpg","viewCount":"18116","playlistId":"PLEkQk5xrP-tnLYi_5_tSRVBwqcs7ISV7Y","playlistName":"شرح كتاب منازل السائرين للإمام الهروي","category":"متنوع"},{"id":"m25WuecL-4E","title":"شرح كتاب منازل السائرين للإمام الهروى - المجلس الأول - المقدمة","publishedAt":"2015-12-29T18:00:17Z","duration":"PT1H36M20S","thumbnail":"https://i.ytimg.com/vi/m25WuecL-4E/mqdefault.jpg","viewCount":"19700","playlistId":"PLEkQk5xrP-tnLYi_5_tSRVBwqcs7ISV7Y","playlistName":"شرح كتاب منازل السائرين للإمام الهروي","category":"متنوع"},{"id":"9AUpei8NFic","title":"شرح كتاب الفتن من سنن الترمذي - المجلس الرابع عشر","publishedAt":"2015-12-29T06:20:18Z","duration":"PT54M26S","thumbnail":"https://i.ytimg.com/vi/9AUpei8NFic/mqdefault.jpg","viewCount":"254","playlistId":"PLEkQk5xrP-tnu6of679SvxdVx0qSrJzmb","playlistName":"شرح سنن الإمام الترمذي رضى الله عنه د. يسري جبر","category":"متنوع"},{"id":"9Ms6-HYyL1M","title":"شرح كتاب الفتن من سنن الترمذي - المجلس التاسع","publishedAt":"2015-12-29T04:49:27Z","duration":"PT49M24S","thumbnail":"https://i.ytimg.com/vi/9Ms6-HYyL1M/mqdefault.jpg","viewCount":"161","playlistId":"PLEkQk5xrP-tnu6of679SvxdVx0qSrJzmb","playlistName":"شرح سنن الإمام الترمذي رضى الله عنه د. يسري جبر","category":"متنوع"},{"id":"9LZCHzx9mt8","title":"ختام كتاب منازل السائرين للإمام الهروى المجلس الواحد والستون -  قسم النهايات بَابُ التَوْحِيدِ","publishedAt":"2015-12-28T17:40:51Z","duration":"PT1H9M49S","thumbnail":"https://i.ytimg.com/vi/9LZCHzx9mt8/mqdefault.jpg","viewCount":"6406","playlistId":"PLEkQk5xrP-tnLYi_5_tSRVBwqcs7ISV7Y","playlistName":"شرح كتاب منازل السائرين للإمام الهروي","category":"متنوع"},{"id":"2ytl_nlCFl0","title":"عبد النبى - عبد الرسول - عبد المصطفى","publishedAt":"2015-12-28T06:04:16Z","duration":"PT5M43S","thumbnail":"https://i.ytimg.com/vi/2ytl_nlCFl0/mqdefault.jpg","viewCount":"198","playlistId":"PLEkQk5xrP-tlJd4vTDfdmzoQf4xWWKMby","playlistName":"الاحتفال بالمولد النبوى الشريف 1437 - 1438","category":"متنوع"},{"id":"y2q6_UK_8_Q","title":"شرح كتاب الفتن من سنن الترمذي - المجلس الثالث عشر","publishedAt":"2015-12-28T06:02:47Z","duration":"PT42M37S","thumbnail":"https://i.ytimg.com/vi/y2q6_UK_8_Q/mqdefault.jpg","viewCount":"194","playlistId":"PLEkQk5xrP-tnu6of679SvxdVx0qSrJzmb","playlistName":"شرح سنن الإمام الترمذي رضى الله عنه د. يسري جبر","category":"متنوع"},{"id":"xb9N_YNAElo","title":"شرح كتاب الفتن من سنن الترمذي - المجلس الثاني عشر","publishedAt":"2015-12-27T06:10:36Z","duration":"PT41M31S","thumbnail":"https://i.ytimg.com/vi/xb9N_YNAElo/mqdefault.jpg","viewCount":"219","playlistId":"PLEkQk5xrP-tnu6of679SvxdVx0qSrJzmb","playlistName":"شرح سنن الإمام الترمذي رضى الله عنه د. يسري جبر","category":"متنوع"},{"id":"eoXOm7Iaj7E","title":"شرح كتاب الفتن من سنن الترمذي - المجلس العاشر","publishedAt":"2015-12-27T04:38:02Z","duration":"PT36M51S","thumbnail":"https://i.ytimg.com/vi/eoXOm7Iaj7E/mqdefault.jpg","viewCount":"192","playlistId":"PLEkQk5xrP-tnu6of679SvxdVx0qSrJzmb","playlistName":"شرح سنن الإمام الترمذي رضى الله عنه د. يسري جبر","category":"متنوع"},{"id":"C1ln8BD_E-M","title":"شرح كتاب الفتن من سنن الترمذي - المجلس الحادي عشر","publishedAt":"2015-12-26T05:59:24Z","duration":"PT32M6S","thumbnail":"https://i.ytimg.com/vi/C1ln8BD_E-M/mqdefault.jpg","viewCount":"237","playlistId":"PLEkQk5xrP-tnu6of679SvxdVx0qSrJzmb","playlistName":"شرح سنن الإمام الترمذي رضى الله عنه د. يسري جبر","category":"متنوع"},{"id":"dg-OZ0O_AR8","title":"الله تعالى يُذكِّرنا بأعظم الأيام وأعظم الليالى وأعظم الخلق صلى الله عليه وآله وسلم .","publishedAt":"2015-12-23T10:18:12Z","duration":"PT7M37S","thumbnail":"https://i.ytimg.com/vi/dg-OZ0O_AR8/mqdefault.jpg","viewCount":"204","playlistId":"PLEkQk5xrP-tlJd4vTDfdmzoQf4xWWKMby","playlistName":"الاحتفال بالمولد النبوى الشريف 1437 - 1438","category":"متنوع"},{"id":"IyP_aLxDD_U","title":"قيامي للعزيزعليَّ فـرض و ترك الفرض ما هو مستقيم عجبت لمن له عقل و فهم يرى هذا الجمـــال فلا يقوم  .","publishedAt":"2015-12-23T09:52:19Z","duration":"PT26M9S","thumbnail":"https://i.ytimg.com/vi/IyP_aLxDD_U/mqdefault.jpg","viewCount":"3612","playlistId":"PLEkQk5xrP-tlJd4vTDfdmzoQf4xWWKMby","playlistName":"الاحتفال بالمولد النبوى الشريف 1437 - 1438","category":"متنوع"},{"id":"n4JZM5JJgGs","title":"الحالُ يحكمُ على العِلْمِ  د. يسرى جبر","publishedAt":"2015-12-23T08:38:08Z","duration":"PT24M15S","thumbnail":"https://i.ytimg.com/vi/n4JZM5JJgGs/mqdefault.jpg","viewCount":"1773","playlistId":"PLEkQk5xrP-tlJd4vTDfdmzoQf4xWWKMby","playlistName":"الاحتفال بالمولد النبوى الشريف 1437 - 1438","category":"متنوع"},{"id":"W6Ffqg7dWhM","title":"كن مع الله - فإذا لم تكن مع الله - فكن مع من كان مع الله - فإنه يوصلك إلى الله د جمال فاروق","publishedAt":"2015-12-22T21:22:39Z","duration":"PT17M","thumbnail":"https://i.ytimg.com/vi/W6Ffqg7dWhM/mqdefault.jpg","viewCount":"2007","playlistId":"PLEkQk5xrP-tlJd4vTDfdmzoQf4xWWKMby","playlistName":"الاحتفال بالمولد النبوى الشريف 1437 - 1438","category":"متنوع"},{"id":"sghbTYYAP_4","title":"منازل السائرين للإمام الهروى المجلس الستون - قسم النهايات  بَابُ التَفْرِيدِ وَبَابُ الْجَمْعِ","publishedAt":"2015-12-21T17:03:57Z","duration":"PT58M38S","thumbnail":"https://i.ytimg.com/vi/sghbTYYAP_4/mqdefault.jpg","viewCount":"4244","playlistId":"PLEkQk5xrP-tnLYi_5_tSRVBwqcs7ISV7Y","playlistName":"شرح كتاب منازل السائرين للإمام الهروي","category":"متنوع"},{"id":"i7tVX8RRJFE","title":"شرح كتاب الفتن من سنن الترمذي - المجلس الثامن","publishedAt":"2015-12-21T05:55:48Z","duration":"PT34M46S","thumbnail":"https://i.ytimg.com/vi/i7tVX8RRJFE/mqdefault.jpg","viewCount":"320","playlistId":"PLEkQk5xrP-tnu6of679SvxdVx0qSrJzmb","playlistName":"شرح سنن الإمام الترمذي رضى الله عنه د. يسري جبر","category":"متنوع"}],"total":4126,"page":38,"pageSize":24,"totalPages":172}