{"items":[{"id":"Ow2ULRx_62g","title":"36- كتاب الصيام ك الموطأ د يسري جبر الأزهري","publishedAt":"2016-12-16T10:55:42Z","duration":"PT58M54S","thumbnail":"https://i.ytimg.com/vi/Ow2ULRx_62g/mqdefault.jpg","viewCount":"508","playlistId":"PLEkQk5xrP-tnC6BRuqMjyO-484iqXeg0o","playlistName":"شرح كتاب الموطأ للإمام مالك","category":"متنوع"},{"id":"6z3crdLFIAY","title":"لا يَسْتَحْقِرُ الوِرْدَ إلا جَهُول","publishedAt":"2016-12-14T21:24:16Z","duration":"PT11M7S","thumbnail":"https://i.ytimg.com/vi/6z3crdLFIAY/mqdefault.jpg","viewCount":"16527","playlistId":"PLEkQk5xrP-tkI_meE148wc7V7XHlB0WPb","playlistName":"من الحكم العطائية  د. يسري جبر","category":"متنوع"},{"id":"Nvo-GJF1B-Y","title":"الليلة الختامية لأسبوع الاحتفالات بالمولد النبوي 2016","publishedAt":"2016-12-14T20:32:09Z","duration":"PT21S","thumbnail":"https://i.ytimg.com/vi/Nvo-GJF1B-Y/mqdefault.jpg","viewCount":"777","playlistId":"PLEkQk5xrP-tm8ZIu74nTOZN9KJUJu416J","playlistName":"مقاطع مُهمَّة (يُسريَّات) أ.د. يسري جبر","category":"متنوع"},{"id":"hm2qsLaJu6Y","title":"متى جعلك في الظاهر ممتثلا لأمره ، ورزقك في الباطن الاستسلام لقهره ، فقد أعظم المنَّة عليك","publishedAt":"2016-12-12T19:16:39Z","duration":"PT25M10S","thumbnail":"https://i.ytimg.com/vi/hm2qsLaJu6Y/mqdefault.jpg","viewCount":"8027","playlistId":"PLEkQk5xrP-tkI_meE148wc7V7XHlB0WPb","playlistName":"من الحكم العطائية  د. يسري جبر","category":"متنوع"},{"id":"SMy1iSZIbDA","title":"سورة الأنعام آية 65","publishedAt":"2016-12-12T18:23:29Z","duration":"PT32M10S","thumbnail":"https://i.ytimg.com/vi/SMy1iSZIbDA/mqdefault.jpg","viewCount":"469","playlistId":"PLEkQk5xrP-tnmTYsyW6xNdyfhPq0Bhrhj","playlistName":"مقرأة الفجر - القُرْآنُ الكَرِيمُ - خَتْمَةُ التَّدَبُّرِ  أ.د. يسري جبر","category":"متنوع"},{"id":"CvfSA1PEXjM","title":"سورة الأنعام آية 63","publishedAt":"2016-12-11T04:46:33Z","duration":"PT12M54S","thumbnail":"https://i.ytimg.com/vi/CvfSA1PEXjM/mqdefault.jpg","viewCount":"387","playlistId":"PLEkQk5xrP-tnmTYsyW6xNdyfhPq0Bhrhj","playlistName":"مقرأة الفجر - القُرْآنُ الكَرِيمُ - خَتْمَةُ التَّدَبُّرِ  أ.د. يسري جبر","category":"متنوع"},{"id":"7cExjykkKng","title":"سورة الأنعام آية 59","publishedAt":"2016-12-10T04:23:13Z","duration":"PT13M27S","thumbnail":"https://i.ytimg.com/vi/7cExjykkKng/mqdefault.jpg","viewCount":"443","playlistId":"PLEkQk5xrP-tnmTYsyW6xNdyfhPq0Bhrhj","playlistName":"مقرأة الفجر - القُرْآنُ الكَرِيمُ - خَتْمَةُ التَّدَبُّرِ  أ.د. يسري جبر","category":"متنوع"},{"id":"sQgivjziTV0","title":"مقرأة سورة الأنبياء من آية ٥١","publishedAt":"2017-12-17T08:39:52Z","duration":"PT21M4S","thumbnail":"https://i.ytimg.com/vi/sQgivjziTV0/mqdefault.jpg","viewCount":"332","playlistId":"PLEkQk5xrP-tnmTYsyW6xNdyfhPq0Bhrhj","playlistName":"مقرأة الفجر - القُرْآنُ الكَرِيمُ - خَتْمَةُ التَّدَبُّرِ  أ.د. يسري جبر","category":"متنوع"},{"id":"3PTKI75OPcA","title":"مقرأة سورة الأنبياء من آية ٤٤","publishedAt":"2017-12-16T16:44:54Z","duration":"PT21M38S","thumbnail":"https://i.ytimg.com/vi/3PTKI75OPcA/mqdefault.jpg","viewCount":"280","playlistId":"PLEkQk5xrP-tnmTYsyW6xNdyfhPq0Bhrhj","playlistName":"مقرأة الفجر - القُرْآنُ الكَرِيمُ - خَتْمَةُ التَّدَبُّرِ  أ.د. يسري جبر","category":"متنوع"},{"id":"mgTKkM5ekak","title":"مقرأة سورة الأنبياء من آية ٣٥","publishedAt":"2017-12-15T19:10:51Z","duration":"PT25M56S","thumbnail":"https://i.ytimg.com/vi/mgTKkM5ekak/mqdefault.jpg","viewCount":"292","playlistId":"PLEkQk5xrP-tnmTYsyW6xNdyfhPq0Bhrhj","playlistName":"مقرأة الفجر - القُرْآنُ الكَرِيمُ - خَتْمَةُ التَّدَبُّرِ  أ.د. يسري جبر","category":"متنوع"},{"id":"hjrpdbTIEdQ","title":"مقرأة سورة الأنبياء من آية ٢٥","publishedAt":"2017-12-13T08:16:12Z","duration":"PT15M59S","thumbnail":"https://i.ytimg.com/vi/hjrpdbTIEdQ/mqdefault.jpg","viewCount":"364","playlistId":"PLEkQk5xrP-tnmTYsyW6xNdyfhPq0Bhrhj","playlistName":"مقرأة الفجر - القُرْآنُ الكَرِيمُ - خَتْمَةُ التَّدَبُّرِ  أ.د. يسري جبر","category":"متنوع"},{"id":"1Ko55Cj2zOE","title":"فضل ليلة النصف من شعبان","publishedAt":"2023-03-06T15:00:02Z","duration":"PT18M31S","thumbnail":"https://i.ytimg.com/vi/1Ko55Cj2zOE/mqdefault.jpg","viewCount":"9936","playlistId":"PLEkQk5xrP-tm8ZIu74nTOZN9KJUJu416J","playlistName":"مقاطع مُهمَّة (يُسريَّات) أ.د. يسري جبر","category":"متنوع"},{"id":"tAHfGIRCxCA","title":"407- سبق المُفَرِّدون قالوا وما المُفَرِّدون يا رسولَ الله قال الذَّاكرون اللهَ كثيرًا والذَّاكرات.","publishedAt":"2023-03-05T05:00:19Z","duration":"PT32M3S","thumbnail":"https://i.ytimg.com/vi/tAHfGIRCxCA/mqdefault.jpg","viewCount":"1644","playlistId":"PLEkQk5xrP-tkc9DXvSLguqX5-FYp6ASR4","playlistName":"دليل الفالحين لطرق رياض الصالحين","category":"متنوع"},{"id":"i8pWwpYlbDo","title":"ما الفرق بين الرجاء والرغبة والرضا؟","publishedAt":"2023-03-04T18:00:29Z","duration":"PT20M50S","thumbnail":"https://i.ytimg.com/vi/i8pWwpYlbDo/mqdefault.jpg","viewCount":"2628","playlistId":"PLEkQk5xrP-tm8ZIu74nTOZN9KJUJu416J","playlistName":"مقاطع مُهمَّة (يُسريَّات) أ.د. يسري جبر","category":"متنوع"},{"id":"hHl0UNzBq7A","title":"مقرأة سورة النور من آية ٣٦","publishedAt":"2018-03-18T08:28:00Z","duration":"PT8M3S","thumbnail":"https://i.ytimg.com/vi/hHl0UNzBq7A/mqdefault.jpg","viewCount":"316","playlistId":"PLEkQk5xrP-tnmTYsyW6xNdyfhPq0Bhrhj","playlistName":"مقرأة الفجر - القُرْآنُ الكَرِيمُ - خَتْمَةُ التَّدَبُّرِ  أ.د. يسري جبر","category":"متنوع"},{"id":"cPASN-oDX2M","title":"قومٌ تسبق أنوارُهم أذكارَهم، وقومٌ تسبق أذكارُهم أنوارَهم، وقومٌ تتساوى أذكارُهم وأنوارُهم...","publishedAt":"2018-03-17T19:37:53Z","duration":"PT10M9S","thumbnail":"https://i.ytimg.com/vi/cPASN-oDX2M/mqdefault.jpg","viewCount":"12542","playlistId":"PLEkQk5xrP-tkI_meE148wc7V7XHlB0WPb","playlistName":"من الحكم العطائية  د. يسري جبر","category":"متنوع"},{"id":"eNzJtu0jJLs","title":"مقرأة سورة النور من آية ٣٥","publishedAt":"2018-03-17T13:05:36Z","duration":"PT17M42S","thumbnail":"https://i.ytimg.com/vi/eNzJtu0jJLs/mqdefault.jpg","viewCount":"868","playlistId":"PLEkQk5xrP-tnmTYsyW6xNdyfhPq0Bhrhj","playlistName":"مقرأة الفجر - القُرْآنُ الكَرِيمُ - خَتْمَةُ التَّدَبُّرِ  أ.د. يسري جبر","category":"متنوع"},{"id":"EcVm9Ws6f9o","title":"الحَضْرَةُ الصِّدِّيقِيَّة  أ.د يسري جبر","publishedAt":"2018-03-17T10:05:53Z","duration":"PT36M27S","thumbnail":"https://i.ytimg.com/vi/EcVm9Ws6f9o/mqdefault.jpg","viewCount":"17883","playlistId":"PLEkQk5xrP-tk3OeVFoMfKhOhyINnlPeYZ","playlistName":"الحَضْرَةُ الصِّدِّيقِيَّة والأوْرَاد","category":"متنوع"},{"id":"j6uVNYh3G84","title":"مقرأة سورة النور من آية ٣٢","publishedAt":"2018-03-16T08:23:39Z","duration":"PT16M7S","thumbnail":"https://i.ytimg.com/vi/j6uVNYh3G84/mqdefault.jpg","viewCount":"277","playlistId":"PLEkQk5xrP-tnmTYsyW6xNdyfhPq0Bhrhj","playlistName":"مقرأة الفجر - القُرْآنُ الكَرِيمُ - خَتْمَةُ التَّدَبُّرِ  أ.د. يسري جبر","category":"متنوع"},{"id":"Valp2zn-B-E","title":"وِجدانُ ثمرات الطاعات عاجلا، بشائر للعاملين بوجُود الجزاء عليها آجلا.","publishedAt":"2018-03-15T19:03:35Z","duration":"PT7M20S","thumbnail":"https://i.ytimg.com/vi/Valp2zn-B-E/mqdefault.jpg","viewCount":"1223","playlistId":"PLEkQk5xrP-tkI_meE148wc7V7XHlB0WPb","playlistName":"من الحكم العطائية  د. يسري جبر","category":"متنوع"},{"id":"H07ObVnqsK4","title":"مقرأة سورة النور من آية ٣٠","publishedAt":"2018-03-15T10:41:50Z","duration":"PT36M36S","thumbnail":"https://i.ytimg.com/vi/H07ObVnqsK4/mqdefault.jpg","viewCount":"501","playlistId":"PLEkQk5xrP-tnmTYsyW6xNdyfhPq0Bhrhj","playlistName":"مقرأة الفجر - القُرْآنُ الكَرِيمُ - خَتْمَةُ التَّدَبُّرِ  أ.د. يسري جبر","category":"متنوع"},{"id":"H2oDHuTxp_g","title":"مقرأة سورة النور من آية ٢٦","publishedAt":"2018-03-14T10:29:58Z","duration":"PT16M4S","thumbnail":"https://i.ytimg.com/vi/H2oDHuTxp_g/mqdefault.jpg","viewCount":"378","playlistId":"PLEkQk5xrP-tnmTYsyW6xNdyfhPq0Bhrhj","playlistName":"مقرأة الفجر - القُرْآنُ الكَرِيمُ - خَتْمَةُ التَّدَبُّرِ  أ.د. يسري جبر","category":"متنوع"},{"id":"oEUtCs3wL-w","title":"لا يلزم من ثبوت الخصوصية عدم وصف البشرية، إنما مثل الخصوصية كإشراق شمس النهار،ظهرت في الأفق...","publishedAt":"2018-03-13T18:29:01Z","duration":"PT11M11S","thumbnail":"https://i.ytimg.com/vi/oEUtCs3wL-w/mqdefault.jpg","viewCount":"1439","playlistId":"PLEkQk5xrP-tkI_meE148wc7V7XHlB0WPb","playlistName":"من الحكم العطائية  د. يسري جبر","category":"متنوع"},{"id":"Mtw_ccajJR4","title":"مقرأة سورة النور من آية ٢٢","publishedAt":"2018-03-13T10:16:47Z","duration":"PT10M21S","thumbnail":"https://i.ytimg.com/vi/Mtw_ccajJR4/mqdefault.jpg","viewCount":"297","playlistId":"PLEkQk5xrP-tnmTYsyW6xNdyfhPq0Bhrhj","playlistName":"مقرأة الفجر - القُرْآنُ الكَرِيمُ - خَتْمَةُ التَّدَبُّرِ  أ.د. يسري جبر","category":"متنوع"}],"total":4126,"page":10,"pageSize":24,"totalPages":172}