{"items":[{"id":"_fD79t8g4Cw","title":"مقرأة سورة المؤمنون آية ١٧","publishedAt":"2018-02-22T08:24:40Z","duration":"PT26M32S","thumbnail":"https://i.ytimg.com/vi/_fD79t8g4Cw/mqdefault.jpg","viewCount":"332","playlistId":"PLEkQk5xrP-tnmTYsyW6xNdyfhPq0Bhrhj","playlistName":"مقرأة الفجر - القُرْآنُ الكَرِيمُ - خَتْمَةُ التَّدَبُّرِ  أ.د. يسري جبر","category":"متنوع"},{"id":"qaiiBOZj0I8","title":"مقرأة سورة المؤمنون آية ١٢","publishedAt":"2018-02-21T11:23:57Z","duration":"PT12M22S","thumbnail":"https://i.ytimg.com/vi/qaiiBOZj0I8/mqdefault.jpg","viewCount":"341","playlistId":"PLEkQk5xrP-tnmTYsyW6xNdyfhPq0Bhrhj","playlistName":"مقرأة الفجر - القُرْآنُ الكَرِيمُ - خَتْمَةُ التَّدَبُّرِ  أ.د. يسري جبر","category":"متنوع"},{"id":"8gfExRyd9Jg","title":"مقرأة سورة المؤمنون من أولها","publishedAt":"2018-02-20T16:08:54Z","duration":"PT20M25S","thumbnail":"https://i.ytimg.com/vi/8gfExRyd9Jg/mqdefault.jpg","viewCount":"465","playlistId":"PLEkQk5xrP-tnmTYsyW6xNdyfhPq0Bhrhj","playlistName":"مقرأة الفجر - القُرْآنُ الكَرِيمُ - خَتْمَةُ التَّدَبُّرِ  أ.د. يسري جبر","category":"متنوع"},{"id":"KO0D6O_uZnY","title":"مقرأة سورة الحج من آية ٧٧","publishedAt":"2018-02-19T12:37:10Z","duration":"PT15M13S","thumbnail":"https://i.ytimg.com/vi/KO0D6O_uZnY/mqdefault.jpg","viewCount":"241","playlistId":"PLEkQk5xrP-tnmTYsyW6xNdyfhPq0Bhrhj","playlistName":"مقرأة الفجر - القُرْآنُ الكَرِيمُ - خَتْمَةُ التَّدَبُّرِ  أ.د. يسري جبر","category":"متنوع"},{"id":"WzQbCYi70TE","title":"هل يجوز الذكر بالقلب دون تحريك اللسان؟","publishedAt":"2025-02-16T19:17:40Z","duration":"PT10M7S","thumbnail":"https://i.ytimg.com/vi/WzQbCYi70TE/mqdefault.jpg","viewCount":"8302","playlistId":"PLEkQk5xrP-tkGXuZ9atE3k_7it12rUPTs","playlistName":"أسئلة المتابعين","category":"متنوع"},{"id":"-0chXj_fmWs","title":"152- آداب النوم - شرح مسند الإمام أحمد رضي الله تعالى عنه","publishedAt":"2025-02-16T07:11:05Z","duration":"PT14M","thumbnail":"https://i.ytimg.com/vi/-0chXj_fmWs/mqdefault.jpg","viewCount":"996","playlistId":"PLEkQk5xrP-tkKprIuGrSdEuBSMsyg5We1","playlistName":"شرح مسند الإمام أحمد بن حنبل","category":"متنوع"},{"id":"BgomuzQsNzw","title":"151- شروط الأضحية | الاستعاذة من فتنة الدجال","publishedAt":"2025-02-15T07:30:05Z","duration":"PT43M12S","thumbnail":"https://i.ytimg.com/vi/BgomuzQsNzw/mqdefault.jpg","viewCount":"745","playlistId":"PLEkQk5xrP-tkKprIuGrSdEuBSMsyg5We1","playlistName":"شرح مسند الإمام أحمد بن حنبل","category":"متنوع"},{"id":"sfChufgPpic","title":"دعاء وإحياء ليلة النصف من شعبان","publishedAt":"2025-02-13T17:01:04Z","duration":"PT25M36S","thumbnail":"https://i.ytimg.com/vi/sfChufgPpic/mqdefault.jpg","viewCount":"8122","playlistId":"PLEkQk5xrP-tm8ZIu74nTOZN9KJUJu416J","playlistName":"مقاطع مُهمَّة (يُسريَّات) أ.د. يسري جبر","category":"متنوع"},{"id":"KFWJj3jaHnY","title":"فضل ليلة النصف من شعبان","publishedAt":"2025-02-11T18:31:48Z","duration":"PT18M31S","thumbnail":"https://i.ytimg.com/vi/KFWJj3jaHnY/mqdefault.jpg","viewCount":"17814","playlistId":"PLEkQk5xrP-tm8ZIu74nTOZN9KJUJu416J","playlistName":"مقاطع مُهمَّة (يُسريَّات) أ.د. يسري جبر","category":"متنوع"},{"id":"aOp-sIduhmc","title":"كلمة وإجازة أ.د.يسري جبر في ختام مجالس قراءة صحيح البخاري | إندونيسيا","publishedAt":"2025-02-10T18:30:06Z","duration":"PT15M40S","thumbnail":"https://i.ytimg.com/vi/aOp-sIduhmc/mqdefault.jpg","viewCount":"2080","playlistId":"PLEkQk5xrP-tmJzNvLntpzW0uPanPzxA0c","playlistName":"لقاءات ومحاضرات","category":"متنوع"},{"id":"Tyft6jD4Wxs","title":"268- الوفاءُ بالعهد وإنجاز الوعد - شرح دليل الفالحين","publishedAt":"2022-06-15T05:00:11Z","duration":"PT21M15S","thumbnail":"https://i.ytimg.com/vi/Tyft6jD4Wxs/mqdefault.jpg","viewCount":"830","playlistId":"PLEkQk5xrP-tkc9DXvSLguqX5-FYp6ASR4","playlistName":"دليل الفالحين لطرق رياض الصالحين","category":"متنوع"},{"id":"_IMG9fYX3p4","title":"شرح سنن الدارمي كتاب الفرائض من باب ٥٠","publishedAt":"2019-10-30T22:32:15Z","duration":"PT28M","thumbnail":"https://i.ytimg.com/vi/_IMG9fYX3p4/mqdefault.jpg","viewCount":"242","playlistId":"PLEkQk5xrP-tmAg-FuWjY057X_h5NmGmAa","playlistName":"شرح سنن الدارمي - أ.د. يسري جبر (كاملا)","category":"متنوع"},{"id":"xUL19H_3bFY","title":"شرح سنن الدارمي كتاب الفرائض من باب ٤٦","publishedAt":"2019-10-29T23:15:18Z","duration":"PT30M15S","thumbnail":"https://i.ytimg.com/vi/xUL19H_3bFY/mqdefault.jpg","viewCount":"245","playlistId":"PLEkQk5xrP-tmAg-FuWjY057X_h5NmGmAa","playlistName":"شرح سنن الدارمي - أ.د. يسري جبر (كاملا)","category":"متنوع"},{"id":"9GjTZc9L-kM","title":"شرح سنن الدارمي كتاب الفرائض من باب ٤٢","publishedAt":"2019-10-28T10:58:45Z","duration":"PT31M29S","thumbnail":"https://i.ytimg.com/vi/9GjTZc9L-kM/mqdefault.jpg","viewCount":"191","playlistId":"PLEkQk5xrP-tmAg-FuWjY057X_h5NmGmAa","playlistName":"شرح سنن الدارمي - أ.د. يسري جبر (كاملا)","category":"متنوع"},{"id":"mqfpP2Qt3jw","title":"شرح كتاب دلائل الخيرات - المجلس الثامن أ.د. يسري جبر","publishedAt":"2019-10-27T21:38:40Z","duration":"PT45M34S","thumbnail":"https://i.ytimg.com/vi/mqfpP2Qt3jw/mqdefault.jpg","viewCount":"23349","playlistId":"PLEkQk5xrP-tlAzcbIpuqjdFICW-knvTlR","playlistName":"شرح كتاب دلائل الخيرات وشوارق الأنوار","category":"متنوع"},{"id":"NEFDOY3B0OQ","title":"شرح سنن الدارمي كتاب الفرائض من باب ٣٩","publishedAt":"2019-10-27T11:05:41Z","duration":"PT33M41S","thumbnail":"https://i.ytimg.com/vi/NEFDOY3B0OQ/mqdefault.jpg","viewCount":"208","playlistId":"PLEkQk5xrP-tmAg-FuWjY057X_h5NmGmAa","playlistName":"شرح سنن الدارمي - أ.د. يسري جبر (كاملا)","category":"متنوع"},{"id":"IKNv8ameR-c","title":"شرح سنن الدارمي كتاب المناسك من باب ٨١","publishedAt":"2019-07-16T18:49:58Z","duration":"PT29M14S","thumbnail":"https://i.ytimg.com/vi/IKNv8ameR-c/mqdefault.jpg","viewCount":"211","playlistId":"PLEkQk5xrP-tmAg-FuWjY057X_h5NmGmAa","playlistName":"شرح سنن الدارمي - أ.د. يسري جبر (كاملا)","category":"متنوع"},{"id":"yFH9f00bUOA","title":"مقرأة سورة الأعلی من أولها","publishedAt":"2019-07-16T06:18:01Z","duration":"PT27M21S","thumbnail":"https://i.ytimg.com/vi/yFH9f00bUOA/mqdefault.jpg","viewCount":"770","playlistId":"PLEkQk5xrP-tnmTYsyW6xNdyfhPq0Bhrhj","playlistName":"مقرأة الفجر - القُرْآنُ الكَرِيمُ - خَتْمَةُ التَّدَبُّرِ  أ.د. يسري جبر","category":"متنوع"},{"id":"yRFXNIZLZoY","title":"شرح سنن الدارمي كتاب المناسك من باب ٧١","publishedAt":"2019-07-15T21:14:21Z","duration":"PT25M51S","thumbnail":"https://i.ytimg.com/vi/yRFXNIZLZoY/mqdefault.jpg","viewCount":"262","playlistId":"PLEkQk5xrP-tmAg-FuWjY057X_h5NmGmAa","playlistName":"شرح سنن الدارمي - أ.د. يسري جبر (كاملا)","category":"متنوع"},{"id":"RaPiUvUaBGQ","title":"شرح سنن الدارمي كتاب المناسك من باب ٦٢","publishedAt":"2019-07-14T22:01:58Z","duration":"PT27M50S","thumbnail":"https://i.ytimg.com/vi/RaPiUvUaBGQ/mqdefault.jpg","viewCount":"271","playlistId":"PLEkQk5xrP-tmAg-FuWjY057X_h5NmGmAa","playlistName":"شرح سنن الدارمي - أ.د. يسري جبر (كاملا)","category":"متنوع"},{"id":"VodckCvB-vQ","title":"مقرأة سورة الطارق من أولها","publishedAt":"2019-07-14T09:06:29Z","duration":"PT19M52S","thumbnail":"https://i.ytimg.com/vi/VodckCvB-vQ/mqdefault.jpg","viewCount":"763","playlistId":"PLEkQk5xrP-tnmTYsyW6xNdyfhPq0Bhrhj","playlistName":"مقرأة الفجر - القُرْآنُ الكَرِيمُ - خَتْمَةُ التَّدَبُّرِ  أ.د. يسري جبر","category":"متنوع"},{"id":"F_6T-tx5L_A","title":"شرح سنن الدارمي كتاب المناسك من باب ٥٧","publishedAt":"2019-07-12T07:41:32Z","duration":"PT34M8S","thumbnail":"https://i.ytimg.com/vi/F_6T-tx5L_A/mqdefault.jpg","viewCount":"376","playlistId":"PLEkQk5xrP-tmAg-FuWjY057X_h5NmGmAa","playlistName":"شرح سنن الدارمي - أ.د. يسري جبر (كاملا)","category":"متنوع"},{"id":"S84XP9w3dRI","title":"مقرأة سورة البروج من آية ١١","publishedAt":"2019-07-11T16:37:32Z","duration":"PT11M43S","thumbnail":"https://i.ytimg.com/vi/S84XP9w3dRI/mqdefault.jpg","viewCount":"513","playlistId":"PLEkQk5xrP-tnmTYsyW6xNdyfhPq0Bhrhj","playlistName":"مقرأة الفجر - القُرْآنُ الكَرِيمُ - خَتْمَةُ التَّدَبُّرِ  أ.د. يسري جبر","category":"متنوع"},{"id":"FvuGnQRqoX0","title":"شرح سنن الدارمي كتاب المناسك من باب ٥٠","publishedAt":"2019-07-11T07:50:01Z","duration":"PT25M30S","thumbnail":"https://i.ytimg.com/vi/FvuGnQRqoX0/mqdefault.jpg","viewCount":"253","playlistId":"PLEkQk5xrP-tmAg-FuWjY057X_h5NmGmAa","playlistName":"شرح سنن الدارمي - أ.د. يسري جبر (كاملا)","category":"متنوع"}],"total":4126,"page":96,"pageSize":24,"totalPages":172}