{"items":[{"id":"xdTiUbe5T7s","title":"كلمة أ.د. يسري جبر في المؤتمر الصوفي العالمي | جاوة الوسطى  - إندونيسيا","publishedAt":"2023-09-20T18:30:41Z","duration":"PT16M15S","thumbnail":"https://i.ytimg.com/vi/xdTiUbe5T7s/mqdefault.jpg","viewCount":"5262","playlistId":"PLEkQk5xrP-tmJzNvLntpzW0uPanPzxA0c","playlistName":"لقاءات ومحاضرات","category":"متنوع"},{"id":"dlCiaB5WrIY","title":"19- مواساة أهل البلاء بأنَّ الدنيا سِجنُ المؤمن| بيان أوقات الكراهة - شرح مسند الإمام أحمد","publishedAt":"2023-09-20T05:33:01Z","duration":"PT25M13S","thumbnail":"https://i.ytimg.com/vi/dlCiaB5WrIY/mqdefault.jpg","viewCount":"2280","playlistId":"PLEkQk5xrP-tkKprIuGrSdEuBSMsyg5We1","playlistName":"شرح مسند الإمام أحمد بن حنبل","category":"متنوع"},{"id":"7M_eS9qI0MM","title":"بذكرى المولد نحيا","publishedAt":"2023-09-17T18:00:03Z","duration":"PT19M42S","thumbnail":"https://i.ytimg.com/vi/7M_eS9qI0MM/mqdefault.jpg","viewCount":"18782","playlistId":"PLEkQk5xrP-tm8ZIu74nTOZN9KJUJu416J","playlistName":"مقاطع مُهمَّة (يُسريَّات) أ.د. يسري جبر","category":"متنوع"},{"id":"0Nd0wZBY_M0","title":"18- ذِكر دخول السوق ودعاء الشراء - شرح مسند الإمام أحمد","publishedAt":"2023-09-17T05:00:00Z","duration":"PT43M12S","thumbnail":"https://i.ytimg.com/vi/0Nd0wZBY_M0/mqdefault.jpg","viewCount":"1450","playlistId":"PLEkQk5xrP-tkKprIuGrSdEuBSMsyg5We1","playlistName":"شرح مسند الإمام أحمد بن حنبل","category":"متنوع"},{"id":"LkjNg32gY0U","title":"كيف نتعامل مع الناس المؤذية؟","publishedAt":"2023-09-15T17:00:13Z","duration":"PT11M3S","thumbnail":"https://i.ytimg.com/vi/LkjNg32gY0U/mqdefault.jpg","viewCount":"6631","playlistId":"PLEkQk5xrP-tkGXuZ9atE3k_7it12rUPTs","playlistName":"أسئلة المتابعين","category":"متنوع"},{"id":"E3B5D2EF12o","title":"17- حكم النوم على جنابة - شرح مسند الأمام أحمد","publishedAt":"2023-09-15T05:21:49Z","duration":"PT40M23S","thumbnail":"https://i.ytimg.com/vi/E3B5D2EF12o/mqdefault.jpg","viewCount":"2325","playlistId":"PLEkQk5xrP-tkKprIuGrSdEuBSMsyg5We1","playlistName":"شرح مسند الإمام أحمد بن حنبل","category":"متنوع"},{"id":"ESxu4Dt0NvM","title":"أنا مليش حظ في الدنيا رغم محافظتي على صلاتي ,, أعمل ايه؟","publishedAt":"2023-09-13T17:00:08Z","duration":"PT8M24S","thumbnail":"https://i.ytimg.com/vi/ESxu4Dt0NvM/mqdefault.jpg","viewCount":"10659","playlistId":"PLEkQk5xrP-tkGXuZ9atE3k_7it12rUPTs","playlistName":"أسئلة المتابعين","category":"متنوع"},{"id":"OecHFWEbNss","title":"ما هي الأسماء التي لا يجوز التسمية بها؟ | مجالس رمضانية","publishedAt":"2023-04-05T15:00:18Z","duration":"PT34M33S","thumbnail":"https://i.ytimg.com/vi/OecHFWEbNss/mqdefault.jpg","viewCount":"1513","playlistId":"PLEkQk5xrP-tnl7vb7KeAoPd5ZlqKKW8KV","playlistName":"شرح كتاب بهجة النفوس أ.د . يسرى جبر","category":"متنوع"},{"id":"-JABB-iPWM4","title":"هل كان النبي ﷺ ينسى بعض القران؟","publishedAt":"2023-04-04T19:00:00Z","duration":"PT10M17S","thumbnail":"https://i.ytimg.com/vi/-JABB-iPWM4/mqdefault.jpg","viewCount":"4036","playlistId":"PLEkQk5xrP-tkGXuZ9atE3k_7it12rUPTs","playlistName":"أسئلة المتابعين","category":"متنوع"},{"id":"IOC77yJhTkg","title":"فضل التسمّي باسم النَّبيّ ﷺ | مجالس رمضانية","publishedAt":"2023-04-04T15:05:13Z","duration":"PT1H3S","thumbnail":"https://i.ytimg.com/vi/IOC77yJhTkg/mqdefault.jpg","viewCount":"2296","playlistId":"PLEkQk5xrP-tnl7vb7KeAoPd5ZlqKKW8KV","playlistName":"شرح كتاب بهجة النفوس أ.د . يسرى جبر","category":"متنوع"},{"id":"2wadLsWWlsk","title":"422- بركة الطعام في منزل سيدنا أبي بكر _رضيَ اللهُ عنه_ وفيه كَرامةٌ ظاهرةٌ له _رضي الله عنه_","publishedAt":"2023-04-04T05:25:00Z","duration":"PT27M5S","thumbnail":"https://i.ytimg.com/vi/2wadLsWWlsk/mqdefault.jpg","viewCount":"732","playlistId":"PLEkQk5xrP-tkc9DXvSLguqX5-FYp6ASR4","playlistName":"دليل الفالحين لطرق رياض الصالحين","category":"متنوع"},{"id":"ARAJjneBGuw","title":"كيف اتخلص من التفكير السلبي؟","publishedAt":"2023-04-03T19:00:06Z","duration":"PT10M2S","thumbnail":"https://i.ytimg.com/vi/ARAJjneBGuw/mqdefault.jpg","viewCount":"41640","playlistId":"PLEkQk5xrP-tkGXuZ9atE3k_7it12rUPTs","playlistName":"أسئلة المتابعين","category":"متنوع"},{"id":"6saAK9g_oFQ","title":"الكرم قلب المؤمن | مجالس رمضانية","publishedAt":"2023-04-03T15:00:04Z","duration":"PT16M21S","thumbnail":"https://i.ytimg.com/vi/6saAK9g_oFQ/mqdefault.jpg","viewCount":"1898","playlistId":"PLEkQk5xrP-tnl7vb7KeAoPd5ZlqKKW8KV","playlistName":"شرح كتاب بهجة النفوس أ.د . يسرى جبر","category":"متنوع"},{"id":"SSz1MxzNlTc","title":"ما حكم الذكر بدون حضور القلب؟","publishedAt":"2023-04-02T19:00:09Z","duration":"PT8M53S","thumbnail":"https://i.ytimg.com/vi/SSz1MxzNlTc/mqdefault.jpg","viewCount":"27698","playlistId":"PLEkQk5xrP-tkGXuZ9atE3k_7it12rUPTs","playlistName":"أسئلة المتابعين","category":"متنوع"},{"id":"HJdwhCnDcyI","title":"ما حكم سب الدهر؟ | مجالس رمضانية","publishedAt":"2023-04-02T15:08:08Z","duration":"PT46M42S","thumbnail":"https://i.ytimg.com/vi/HJdwhCnDcyI/mqdefault.jpg","viewCount":"1435","playlistId":"PLEkQk5xrP-tnl7vb7KeAoPd5ZlqKKW8KV","playlistName":"شرح كتاب بهجة النفوس أ.د . يسرى جبر","category":"متنوع"},{"id":"93HDugg_g34","title":"421- ما كُنَّا نَأخُذُ مِن لُقْمةٍ إلَّا رَبَا مِن أسفَلِها - بركة طعام الصالحين والاجتماع عليه","publishedAt":"2023-04-02T05:05:00Z","duration":"PT33M22S","thumbnail":"https://i.ytimg.com/vi/93HDugg_g34/mqdefault.jpg","viewCount":"894","playlistId":"PLEkQk5xrP-tkc9DXvSLguqX5-FYp6ASR4","playlistName":"دليل الفالحين لطرق رياض الصالحين","category":"متنوع"},{"id":"hYGR5FU6LeI","title":"هل استعمال البنج الكلي أو الموضعي يفسد الصيام؟","publishedAt":"2023-04-01T19:00:15Z","duration":"PT13M8S","thumbnail":"https://i.ytimg.com/vi/hYGR5FU6LeI/mqdefault.jpg","viewCount":"2785","playlistId":"PLEkQk5xrP-tkGXuZ9atE3k_7it12rUPTs","playlistName":"أسئلة المتابعين","category":"متنوع"},{"id":"gSrvVHl4Xpc","title":"عواقب الألفاظ الخبيثة | مجالس رمضانية","publishedAt":"2023-04-01T15:00:22Z","duration":"PT47M3S","thumbnail":"https://i.ytimg.com/vi/gSrvVHl4Xpc/mqdefault.jpg","viewCount":"4178","playlistId":"PLEkQk5xrP-tnl7vb7KeAoPd5ZlqKKW8KV","playlistName":"شرح كتاب بهجة النفوس أ.د . يسرى جبر","category":"متنوع"},{"id":"kFV12_vRIKY","title":"ما حقيقة عذاب القبر ونعيمه وماذا يحدث بعد الموت؟","publishedAt":"2025-09-02T19:00:42Z","duration":"PT34M15S","thumbnail":"https://i.ytimg.com/vi/kFV12_vRIKY/mqdefault.jpg","viewCount":"2778","playlistId":"PLEkQk5xrP-tmsEDdkkXMM1ca2-AquQYad","playlistName":"شرح كتاب مدارج الحقيقة في الرابطة عند أهل الطريقة","category":"متنوع"},{"id":"obWIJXaJmvo","title":"ما حكم تجسس الزوجة على هاتف زوجها؟","publishedAt":"2025-09-01T19:00:46Z","duration":"PT9M30S","thumbnail":"https://i.ytimg.com/vi/obWIJXaJmvo/mqdefault.jpg","viewCount":"2638","playlistId":"PLEkQk5xrP-tkGXuZ9atE3k_7it12rUPTs","playlistName":"أسئلة المتابعين","category":"متنوع"},{"id":"SIFdaGB65AI","title":"ما حكم زيارة مقامات آل البيت والصالحين؟","publishedAt":"2025-08-31T18:50:17Z","duration":"PT8M13S","thumbnail":"https://i.ytimg.com/vi/SIFdaGB65AI/mqdefault.jpg","viewCount":"1664","playlistId":"PLEkQk5xrP-tkGXuZ9atE3k_7it12rUPTs","playlistName":"أسئلة المتابعين","category":"متنوع"},{"id":"oFj_QOX27TQ","title":"ازاي تكسر الرهبة والخوف عند مواجهة الناس؟","publishedAt":"2025-08-30T18:14:59Z","duration":"PT11M10S","thumbnail":"https://i.ytimg.com/vi/oFj_QOX27TQ/mqdefault.jpg","viewCount":"4244","playlistId":"PLEkQk5xrP-tkGXuZ9atE3k_7it12rUPTs","playlistName":"أسئلة المتابعين","category":"متنوع"},{"id":"g_Q4sH3lsaI","title":"64- متى نسجد للسهو وهل على المأموم سجود سهو؟ | شرح سنن الإمام الدارقطني","publishedAt":"2025-08-30T09:00:57Z","duration":"PT36M41S","thumbnail":"https://i.ytimg.com/vi/g_Q4sH3lsaI/mqdefault.jpg","viewCount":"266","playlistId":"PLEkQk5xrP-tk_MCBZ706ORCw6gFtFyaGj","playlistName":"شرح سنن الإمام الدارقطني","category":"متنوع"},{"id":"5qJaJxrl2v8","title":"كيف تستمد علو الهمة من شيخك؟","publishedAt":"2025-08-29T18:00:11Z","duration":"PT27M50S","thumbnail":"https://i.ytimg.com/vi/5qJaJxrl2v8/mqdefault.jpg","viewCount":"2900","playlistId":"PLEkQk5xrP-tmsEDdkkXMM1ca2-AquQYad","playlistName":"شرح كتاب مدارج الحقيقة في الرابطة عند أهل الطريقة","category":"متنوع"}],"total":4126,"page":82,"pageSize":24,"totalPages":172}