{"items":[{"id":"EJ0F3AlhmZQ","title":"هل احتاج النبي أن يختضب لوجود شيب فى شعره | اعرف نبيك","publishedAt":"2015-05-07T14:44:31Z","duration":"PT2M20S","thumbnail":"https://i.ytimg.com/vi/EJ0F3AlhmZQ/mqdefault.jpg","viewCount":"1161","playlistId":"PLEkQk5xrP-tl6Mu_Mz3QMUSv5T6XBH-Dg","playlistName":"برنامج اعرف نبيك","category":"متنوع"},{"id":"tjwZL4x3KxY","title":"كان رسول الله صلى الله عليه وسلم يُكثر دهن رأسه ويهتم بلحيته الشريفه | اعرف نبيك","publishedAt":"2015-05-06T15:32:11Z","duration":"PT1M38S","thumbnail":"https://i.ytimg.com/vi/tjwZL4x3KxY/mqdefault.jpg","viewCount":"20720","playlistId":"PLEkQk5xrP-tl6Mu_Mz3QMUSv5T6XBH-Dg","playlistName":"برنامج اعرف نبيك","category":"متنوع"},{"id":"-nvAlp44Vqc","title":"المرأة الحائض وحكم مجالستها بين الإسلام واليهودية  اعرف نبيك","publishedAt":"2015-05-06T15:29:07Z","duration":"PT2M42S","thumbnail":"https://i.ytimg.com/vi/-nvAlp44Vqc/mqdefault.jpg","viewCount":"1108","playlistId":"PLEkQk5xrP-tl6Mu_Mz3QMUSv5T6XBH-Dg","playlistName":"برنامج اعرف نبيك","category":"متنوع"},{"id":"GDs1-DCsbuk","title":"429-أخبِرْني بعملٍ يُدخِلُني الجنَّةَ، ويباعدني منَ النَّارِ - شرح دليل  الفالحين","publishedAt":"2023-04-26T18:00:07Z","duration":"PT52M28S","thumbnail":"https://i.ytimg.com/vi/GDs1-DCsbuk/mqdefault.jpg","viewCount":"962","playlistId":"PLEkQk5xrP-tkc9DXvSLguqX5-FYp6ASR4","playlistName":"دليل الفالحين لطرق رياض الصالحين","category":"متنوع"},{"id":"72NzRMIBJi4","title":"428- ما يوجِب رضوان الله تعالى وما يوجِب سخطه - شرح دليل الفالحين","publishedAt":"2023-04-26T09:00:04Z","duration":"PT26M15S","thumbnail":"https://i.ytimg.com/vi/72NzRMIBJi4/mqdefault.jpg","viewCount":"1146","playlistId":"PLEkQk5xrP-tkc9DXvSLguqX5-FYp6ASR4","playlistName":"دليل الفالحين لطرق رياض الصالحين","category":"متنوع"},{"id":"uBaiacOIKdU","title":"427- تحريم الغِيبة والأمر بحفظ اللسان - شرح دليل الفالحين","publishedAt":"2023-04-26T05:00:32Z","duration":"PT36M45S","thumbnail":"https://i.ytimg.com/vi/uBaiacOIKdU/mqdefault.jpg","viewCount":"1138","playlistId":"PLEkQk5xrP-tkc9DXvSLguqX5-FYp6ASR4","playlistName":"دليل الفالحين لطرق رياض الصالحين","category":"متنوع"},{"id":"9vinIDSmd8I","title":"526- أَوَّلُ مَن سنَّ ركعتَي الشَّهادة - شرح دليل الفالحين","publishedAt":"2023-04-25T18:00:03Z","duration":"PT31M51S","thumbnail":"https://i.ytimg.com/vi/9vinIDSmd8I/mqdefault.jpg","viewCount":"799","playlistId":"PLEkQk5xrP-tkc9DXvSLguqX5-FYp6ASR4","playlistName":"دليل الفالحين لطرق رياض الصالحين","category":"متنوع"},{"id":"f9aGbGX4z6o","title":"\"الرد على المعترضين على فيديو التسمية باسم محمد \"بالدليل","publishedAt":"2023-04-20T19:20:03Z","duration":"PT10M2S","thumbnail":"https://i.ytimg.com/vi/f9aGbGX4z6o/mqdefault.jpg","viewCount":"23889","playlistId":"PLEkQk5xrP-tkGXuZ9atE3k_7it12rUPTs","playlistName":"أسئلة المتابعين","category":"متنوع"},{"id":"NGgdkTmPUVk","title":"ما هي علامات الرؤيا الصالحة؟ | مجالس رمضانية","publishedAt":"2023-04-20T15:00:16Z","duration":"PT19M18S","thumbnail":"https://i.ytimg.com/vi/NGgdkTmPUVk/mqdefault.jpg","viewCount":"8460","playlistId":"PLEkQk5xrP-tnl7vb7KeAoPd5ZlqKKW8KV","playlistName":"شرح كتاب بهجة النفوس أ.د . يسرى جبر","category":"متنوع"},{"id":"hPniFi6BW4s","title":"حكم انتساب المرء الى غير أبيه | مجالس رمضانية","publishedAt":"2023-04-20T10:00:36Z","duration":"PT52M11S","thumbnail":"https://i.ytimg.com/vi/hPniFi6BW4s/mqdefault.jpg","viewCount":"1337","playlistId":"PLEkQk5xrP-tnl7vb7KeAoPd5ZlqKKW8KV","playlistName":"شرح كتاب بهجة النفوس أ.د . يسرى جبر","category":"متنوع"},{"id":"wq66SIv64e8","title":"درجات القرابة في الإسلام | مجالس رمضانية","publishedAt":"2023-04-19T15:00:48Z","duration":"PT43M52S","thumbnail":"https://i.ytimg.com/vi/wq66SIv64e8/mqdefault.jpg","viewCount":"1471","playlistId":"PLEkQk5xrP-tnl7vb7KeAoPd5ZlqKKW8KV","playlistName":"شرح كتاب بهجة النفوس أ.د . يسرى جبر","category":"متنوع"},{"id":"dMMpI0mO07M","title":"هل يجوز الانتفاع بجلد الميتة؟ | مجالس رمضانية","publishedAt":"2023-04-19T10:21:24Z","duration":"PT1H8M21S","thumbnail":"https://i.ytimg.com/vi/dMMpI0mO07M/mqdefault.jpg","viewCount":"742","playlistId":"PLEkQk5xrP-tnl7vb7KeAoPd5ZlqKKW8KV","playlistName":"شرح كتاب بهجة النفوس أ.د . يسرى جبر","category":"متنوع"},{"id":"ryIrH1GxkTU","title":"ما حكم من أكل ناسيا في الصيام؟ | مجالس رمضانية","publishedAt":"2023-04-18T15:00:39Z","duration":"PT43M17S","thumbnail":"https://i.ytimg.com/vi/ryIrH1GxkTU/mqdefault.jpg","viewCount":"775","playlistId":"PLEkQk5xrP-tnl7vb7KeAoPd5ZlqKKW8KV","playlistName":"شرح كتاب بهجة النفوس أ.د . يسرى جبر","category":"متنوع"},{"id":"9HqBYqbspFA","title":"ماذا سيحدث للكفار يوم القيامة؟ | مجالس رمضانية","publishedAt":"2023-04-18T10:00:09Z","duration":"PT38M52S","thumbnail":"https://i.ytimg.com/vi/9HqBYqbspFA/mqdefault.jpg","viewCount":"2175","playlistId":"PLEkQk5xrP-tnl7vb7KeAoPd5ZlqKKW8KV","playlistName":"شرح كتاب بهجة النفوس أ.د . يسرى جبر","category":"متنوع"},{"id":"oJXWL3IlZwc","title":"لماذا نهى النبي ﷺ عن النذر؟ | مجالس رمضانية","publishedAt":"2023-04-18T07:06:05Z","duration":"PT42M16S","thumbnail":"https://i.ytimg.com/vi/oJXWL3IlZwc/mqdefault.jpg","viewCount":"1062","playlistId":"PLEkQk5xrP-tnl7vb7KeAoPd5ZlqKKW8KV","playlistName":"شرح كتاب بهجة النفوس أ.د . يسرى جبر","category":"متنوع"},{"id":"OH4aafWfeAw","title":"الخلود في الجنة والنار | مجالس رمضانية","publishedAt":"2023-04-17T19:00:09Z","duration":"PT22M16S","thumbnail":"https://i.ytimg.com/vi/OH4aafWfeAw/mqdefault.jpg","viewCount":"3112","playlistId":"PLEkQk5xrP-tnl7vb7KeAoPd5ZlqKKW8KV","playlistName":"شرح كتاب بهجة النفوس أ.د . يسرى جبر","category":"متنوع"},{"id":"ocp90tmTY3k","title":"حل أزمة الفقر في مصر | ماذا لو قامت الدولة المصرية بتحصيل الزكاة؟","publishedAt":"2023-04-16T19:00:14Z","duration":"PT15M50S","thumbnail":"https://i.ytimg.com/vi/ocp90tmTY3k/mqdefault.jpg","viewCount":"2435","playlistId":"PLEkQk5xrP-tm8ZIu74nTOZN9KJUJu416J","playlistName":"مقاطع مُهمَّة (يُسريَّات) أ.د. يسري جبر","category":"متنوع"},{"id":"KxbpFG5SzyQ","title":"فضل الصدقة وأثرها على كل مسلم | مجالس رمضانية","publishedAt":"2023-04-16T15:00:22Z","duration":"PT41M19S","thumbnail":"https://i.ytimg.com/vi/KxbpFG5SzyQ/mqdefault.jpg","viewCount":"2745","playlistId":"PLEkQk5xrP-tnl7vb7KeAoPd5ZlqKKW8KV","playlistName":"شرح كتاب بهجة النفوس أ.د . يسرى جبر","category":"متنوع"},{"id":"DRknIVxS09M","title":"حال الناس يوم القيامة | مجالس رمضانية","publishedAt":"2023-04-16T10:00:08Z","duration":"PT31M45S","thumbnail":"https://i.ytimg.com/vi/DRknIVxS09M/mqdefault.jpg","viewCount":"2231","playlistId":"PLEkQk5xrP-tnl7vb7KeAoPd5ZlqKKW8KV","playlistName":"شرح كتاب بهجة النفوس أ.د . يسرى جبر","category":"متنوع"},{"id":"lpgdKoUcsj8","title":"ماذا سيحدث فى أول الدقائق يوم القيامة؟","publishedAt":"2023-04-15T19:00:17Z","duration":"PT8M53S","thumbnail":"https://i.ytimg.com/vi/lpgdKoUcsj8/mqdefault.jpg","viewCount":"8768","playlistId":"PLEkQk5xrP-tm8ZIu74nTOZN9KJUJu416J","playlistName":"مقاطع مُهمَّة (يُسريَّات) أ.د. يسري جبر","category":"متنوع"},{"id":"y2feOz9SxAA","title":"كيف سيكون شكل الناس يوم القيامة؟ | مجالس رمضانية","publishedAt":"2023-04-15T15:00:43Z","duration":"PT26M","thumbnail":"https://i.ytimg.com/vi/y2feOz9SxAA/mqdefault.jpg","viewCount":"4023","playlistId":"PLEkQk5xrP-tnl7vb7KeAoPd5ZlqKKW8KV","playlistName":"شرح كتاب بهجة النفوس أ.د . يسرى جبر","category":"متنوع"},{"id":"WD67TPh8AN4","title":"شرح كتاب دلائل الخيرات - المجلس التاسع عشر. أ.د. يسري جبر","publishedAt":"2020-02-08T12:41:02Z","duration":"PT21M18S","thumbnail":"https://i.ytimg.com/vi/WD67TPh8AN4/mqdefault.jpg","viewCount":"7287","playlistId":"PLEkQk5xrP-tlAzcbIpuqjdFICW-knvTlR","playlistName":"شرح كتاب دلائل الخيرات وشوارق الأنوار","category":"متنوع"},{"id":"vb_eSE-5JFI","title":"شرح كتاب منازل السائرين للإمام الهروى المجلس السابع والأربعون قسم الأَحوال باب البرق وباب الذوق","publishedAt":"2015-05-04T19:26:05Z","duration":"PT45M28S","thumbnail":"https://i.ytimg.com/vi/vb_eSE-5JFI/mqdefault.jpg","viewCount":"995","playlistId":"PLEkQk5xrP-tnLYi_5_tSRVBwqcs7ISV7Y","playlistName":"شرح كتاب منازل السائرين للإمام الهروي","category":"متنوع"},{"id":"-mc9Tii8eEU","title":"علامات النبوة وقصة إسلام \"سلمان الفارسي\" | اعرف نبيك","publishedAt":"2015-04-30T15:13:16Z","duration":"PT6M26S","thumbnail":"https://i.ytimg.com/vi/-mc9Tii8eEU/mqdefault.jpg","viewCount":"2497","playlistId":"PLEkQk5xrP-tl6Mu_Mz3QMUSv5T6XBH-Dg","playlistName":"برنامج اعرف نبيك","category":"متنوع"}],"total":4126,"page":58,"pageSize":24,"totalPages":172}