{"items":[{"id":"qsFtjiofItc","title":"شرح كتاب الأحكام من سنن الترمذي - المجلس الخامس","publishedAt":"2015-06-12T04:10:07Z","duration":"PT27M22S","thumbnail":"https://i.ytimg.com/vi/qsFtjiofItc/mqdefault.jpg","viewCount":"141","playlistId":"PLEkQk5xrP-tnu6of679SvxdVx0qSrJzmb","playlistName":"شرح سنن الإمام الترمذي رضى الله عنه د. يسري جبر","category":"متنوع"},{"id":"keTcAWuR-xk","title":"334- مَنْ هم الغُرُّ المُحجَّلَين؟ - شرح دليل الفالحين","publishedAt":"2022-11-15T09:00:35Z","duration":"PT32M24S","thumbnail":"https://i.ytimg.com/vi/keTcAWuR-xk/mqdefault.jpg","viewCount":"899","playlistId":"PLEkQk5xrP-tkc9DXvSLguqX5-FYp6ASR4","playlistName":"دليل الفالحين لطرق رياض الصالحين","category":"متنوع"},{"id":"a5KoLQ9IGQI","title":"333- فضلُ الوُضُوء - شرح دليل الفالحين","publishedAt":"2022-11-13T09:00:00Z","duration":"PT54M37S","thumbnail":"https://i.ytimg.com/vi/a5KoLQ9IGQI/mqdefault.jpg","viewCount":"882","playlistId":"PLEkQk5xrP-tkc9DXvSLguqX5-FYp6ASR4","playlistName":"دليل الفالحين لطرق رياض الصالحين","category":"متنوع"},{"id":"E2InUpAgNbI","title":"ما الفرق بين التطلع إلى الغنى والزهد؟","publishedAt":"2022-11-12T18:00:04Z","duration":"PT8M11S","thumbnail":"https://i.ytimg.com/vi/E2InUpAgNbI/mqdefault.jpg","viewCount":"4586","playlistId":"PLEkQk5xrP-tkGXuZ9atE3k_7it12rUPTs","playlistName":"أسئلة المتابعين","category":"متنوع"},{"id":"t8PPlMc32v8","title":"هل التلفظ بالنية بدعة؟","publishedAt":"2022-07-19T19:01:33Z","duration":"PT10M11S","thumbnail":"https://i.ytimg.com/vi/t8PPlMc32v8/mqdefault.jpg","viewCount":"5867","playlistId":"PLEkQk5xrP-tm8ZIu74nTOZN9KJUJu416J","playlistName":"مقاطع مُهمَّة (يُسريَّات) أ.د. يسري جبر","category":"متنوع"},{"id":"PAGQvpIMdLY","title":"هل يجوز الزواج من غير المسلمة؟","publishedAt":"2022-07-18T19:00:21Z","duration":"PT9M19S","thumbnail":"https://i.ytimg.com/vi/PAGQvpIMdLY/mqdefault.jpg","viewCount":"5352","playlistId":"PLEkQk5xrP-tkGXuZ9atE3k_7it12rUPTs","playlistName":"أسئلة المتابعين","category":"متنوع"},{"id":"KMzAi84kip4","title":"هل الذكر الجماعي سنة | وما هي الأعمال التي تجنبنا المعاصي؟","publishedAt":"2022-07-17T19:19:31Z","duration":"PT9M35S","thumbnail":"https://i.ytimg.com/vi/KMzAi84kip4/mqdefault.jpg","viewCount":"7338","playlistId":"PLEkQk5xrP-tm8ZIu74nTOZN9KJUJu416J","playlistName":"مقاطع مُهمَّة (يُسريَّات) أ.د. يسري جبر","category":"متنوع"},{"id":"EzkcmcevKoE","title":"أريد الزواج مرة أخرى فماذا أفعل؟","publishedAt":"2022-07-16T19:30:01Z","duration":"PT13M6S","thumbnail":"https://i.ytimg.com/vi/EzkcmcevKoE/mqdefault.jpg","viewCount":"28967","playlistId":"PLEkQk5xrP-tm8ZIu74nTOZN9KJUJu416J","playlistName":"مقاطع مُهمَّة (يُسريَّات) أ.د. يسري جبر","category":"متنوع"},{"id":"ONgO4xybcok","title":"بَرَكَةُ النَّبيّ ﷺ في لمس الأشياء","publishedAt":"2022-07-14T18:30:20Z","duration":"PT8M34S","thumbnail":"https://i.ytimg.com/vi/ONgO4xybcok/mqdefault.jpg","viewCount":"7365","playlistId":"PLEkQk5xrP-tm8ZIu74nTOZN9KJUJu416J","playlistName":"مقاطع مُهمَّة (يُسريَّات) أ.د. يسري جبر","category":"متنوع"},{"id":"dOVygzaMrFM","title":"مقرأة سورة فاطر من آية ٩","publishedAt":"2018-08-22T08:27:33Z","duration":"PT14M25S","thumbnail":"https://i.ytimg.com/vi/dOVygzaMrFM/mqdefault.jpg","viewCount":"489","playlistId":"PLEkQk5xrP-tnmTYsyW6xNdyfhPq0Bhrhj","playlistName":"مقرأة الفجر - القُرْآنُ الكَرِيمُ - خَتْمَةُ التَّدَبُّرِ  أ.د. يسري جبر","category":"متنوع"},{"id":"3YusQ7qOnR0","title":"مقرأة سورة فاطر من آية ٥","publishedAt":"2018-08-21T14:19:24Z","duration":"PT13M29S","thumbnail":"https://i.ytimg.com/vi/3YusQ7qOnR0/mqdefault.jpg","viewCount":"238","playlistId":"PLEkQk5xrP-tnmTYsyW6xNdyfhPq0Bhrhj","playlistName":"مقرأة الفجر - القُرْآنُ الكَرِيمُ - خَتْمَةُ التَّدَبُّرِ  أ.د. يسري جبر","category":"متنوع"},{"id":"uUtnAYYjX2Y","title":"مقرأة سورة فاطر من آية ٢","publishedAt":"2018-08-20T08:51:10Z","duration":"PT10M32S","thumbnail":"https://i.ytimg.com/vi/uUtnAYYjX2Y/mqdefault.jpg","viewCount":"318","playlistId":"PLEkQk5xrP-tnmTYsyW6xNdyfhPq0Bhrhj","playlistName":"مقرأة الفجر - القُرْآنُ الكَرِيمُ - خَتْمَةُ التَّدَبُّرِ  أ.د. يسري جبر","category":"متنوع"},{"id":"BmFb6nGFSpE","title":"مقرأة سورة فاطر من أولها","publishedAt":"2018-08-19T09:13:27Z","duration":"PT20M20S","thumbnail":"https://i.ytimg.com/vi/BmFb6nGFSpE/mqdefault.jpg","viewCount":"507","playlistId":"PLEkQk5xrP-tnmTYsyW6xNdyfhPq0Bhrhj","playlistName":"مقرأة الفجر - القُرْآنُ الكَرِيمُ - خَتْمَةُ التَّدَبُّرِ  أ.د. يسري جبر","category":"متنوع"},{"id":"U1NuJAFeA2s","title":"مقرأة سورة سبأ من آية ٤٧","publishedAt":"2018-08-18T14:11:22Z","duration":"PT27M34S","thumbnail":"https://i.ytimg.com/vi/U1NuJAFeA2s/mqdefault.jpg","viewCount":"311","playlistId":"PLEkQk5xrP-tnmTYsyW6xNdyfhPq0Bhrhj","playlistName":"مقرأة الفجر - القُرْآنُ الكَرِيمُ - خَتْمَةُ التَّدَبُّرِ  أ.د. يسري جبر","category":"متنوع"},{"id":"tK9ww_wgxyM","title":"455- تحريم تشبُّه الرجال بالنساء وتشبُّه النساء بالرجال في لباسٍ وحركةٍ وغير ذلك - شرح دليل الفالحين","publishedAt":"2023-05-25T05:00:21Z","duration":"PT29M1S","thumbnail":"https://i.ytimg.com/vi/tK9ww_wgxyM/mqdefault.jpg","viewCount":"947","playlistId":"PLEkQk5xrP-tkc9DXvSLguqX5-FYp6ASR4","playlistName":"دليل الفالحين لطرق رياض الصالحين","category":"متنوع"},{"id":"6YOfAFitJ_8","title":"454- تحريم الخلوة بالأجنبية - شرح دليل الفالحين","publishedAt":"2023-05-24T08:59:00Z","duration":"PT15M43S","thumbnail":"https://i.ytimg.com/vi/6YOfAFitJ_8/mqdefault.jpg","viewCount":"741","playlistId":"PLEkQk5xrP-tkc9DXvSLguqX5-FYp6ASR4","playlistName":"دليل الفالحين لطرق رياض الصالحين","category":"متنوع"},{"id":"KqeNpslX2H4","title":"453- تحريم النظر إلى المرأة الأجنبية والأمرد الحسن لغير حاجة شرعية - شرح دليل الفالحين","publishedAt":"2023-05-23T08:59:00Z","duration":"PT30M35S","thumbnail":"https://i.ytimg.com/vi/KqeNpslX2H4/mqdefault.jpg","viewCount":"1332","playlistId":"PLEkQk5xrP-tkc9DXvSLguqX5-FYp6ASR4","playlistName":"دليل الفالحين لطرق رياض الصالحين","category":"متنوع"},{"id":"hLHHJIhtkz0","title":"452- تحريم الرياء  - شرح دليل الفالحين","publishedAt":"2023-05-22T05:00:20Z","duration":"PT32M1S","thumbnail":"https://i.ytimg.com/vi/hLHHJIhtkz0/mqdefault.jpg","viewCount":"870","playlistId":"PLEkQk5xrP-tkc9DXvSLguqX5-FYp6ASR4","playlistName":"دليل الفالحين لطرق رياض الصالحين","category":"متنوع"},{"id":"txiPVGj-VQo","title":"451- تغليظ تحريم الرِّبا - شرح دليل الفالحين","publishedAt":"2023-05-21T05:00:32Z","duration":"PT31M47S","thumbnail":"https://i.ytimg.com/vi/txiPVGj-VQo/mqdefault.jpg","viewCount":"794","playlistId":"PLEkQk5xrP-tkc9DXvSLguqX5-FYp6ASR4","playlistName":"دليل الفالحين لطرق رياض الصالحين","category":"متنوع"},{"id":"h2SNtfXmCzM","title":"10- حكم ولوغ الكلب في الإناء وسؤر القطة - سنن الإمام الدار قطني رضي الله عنه","publishedAt":"2023-05-20T08:59:00Z","duration":"PT48M32S","thumbnail":"https://i.ytimg.com/vi/h2SNtfXmCzM/mqdefault.jpg","viewCount":"1052","playlistId":"PLEkQk5xrP-tk_MCBZ706ORCw6gFtFyaGj","playlistName":"شرح سنن الإمام الدارقطني","category":"متنوع"},{"id":"Vw7zOW8Pifg","title":"450- حكم الرجوع في الهِبة أو الصدقة - شرح دليل الفالحين","publishedAt":"2023-05-19T08:59:00Z","duration":"PT25M40S","thumbnail":"https://i.ytimg.com/vi/Vw7zOW8Pifg/mqdefault.jpg","viewCount":"803","playlistId":"PLEkQk5xrP-tkc9DXvSLguqX5-FYp6ASR4","playlistName":"دليل الفالحين لطرق رياض الصالحين","category":"متنوع"},{"id":"oALNF66HP9A","title":"449- النهي عن تعذيب العبد والدَّابَّة والمرأة والولد بغير سبب شرعيِّ أو زائد على قدْر الأدب","publishedAt":"2023-05-18T08:59:01Z","duration":"PT32M29S","thumbnail":"https://i.ytimg.com/vi/oALNF66HP9A/mqdefault.jpg","viewCount":"736","playlistId":"PLEkQk5xrP-tkc9DXvSLguqX5-FYp6ASR4","playlistName":"دليل الفالحين لطرق رياض الصالحين","category":"متنوع"},{"id":"jnT8vWurdyc","title":"كيف أتخلص من الكسل وفقدان الشغف؟","publishedAt":"2022-03-11T19:48:50Z","duration":"PT8M20S","thumbnail":"https://i.ytimg.com/vi/jnT8vWurdyc/mqdefault.jpg","viewCount":"14325","playlistId":"PLEkQk5xrP-tkGXuZ9atE3k_7it12rUPTs","playlistName":"أسئلة المتابعين","category":"متنوع"},{"id":"kW-x03FbiMU","title":"مَنْ نازعك على دُنْيَا، اتركْها له وقلْ سَلَامٌ","publishedAt":"2022-03-09T18:22:08Z","duration":"PT12M8S","thumbnail":"https://i.ytimg.com/vi/kW-x03FbiMU/mqdefault.jpg","viewCount":"15090","playlistId":"PLEkQk5xrP-tm8ZIu74nTOZN9KJUJu416J","playlistName":"مقاطع مُهمَّة (يُسريَّات) أ.د. يسري جبر","category":"متنوع"}],"total":4126,"page":122,"pageSize":24,"totalPages":172}