{"items":[{"id":"jnBYc2Llks8","title":"هل المدافن في مصر توافق الشريعة الإسلامية؟","publishedAt":"2022-04-13T19:30:05Z","duration":"PT12M51S","thumbnail":"https://i.ytimg.com/vi/jnBYc2Llks8/mqdefault.jpg","viewCount":"18331","playlistId":"PLEkQk5xrP-tkGXuZ9atE3k_7it12rUPTs","playlistName":"أسئلة المتابعين","category":"متنوع"},{"id":"4ZO0KUqNgR0","title":"آداب شرب الماء في الإسلام | أ.د. يسري جبر","publishedAt":"2022-04-13T15:30:00Z","duration":"PT39M47S","thumbnail":"https://i.ytimg.com/vi/4ZO0KUqNgR0/mqdefault.jpg","viewCount":"2108","playlistId":"PLEkQk5xrP-tnl7vb7KeAoPd5ZlqKKW8KV","playlistName":"شرح كتاب بهجة النفوس أ.د . يسرى جبر","category":"متنوع"},{"id":"PnOUpfAz-OA","title":"هل لبس السلسلة حرام للرجال؟","publishedAt":"2021-10-06T19:56:53Z","duration":"PT8M59S","thumbnail":"https://i.ytimg.com/vi/PnOUpfAz-OA/mqdefault.jpg","viewCount":"5967","playlistId":"PLEkQk5xrP-tkGXuZ9atE3k_7it12rUPTs","playlistName":"أسئلة المتابعين","category":"متنوع"},{"id":"romDRslqrNI","title":"137- النفقة على العِيال - شرح دليل الفالحين","publishedAt":"2021-10-06T06:06:49Z","duration":"PT1H2M52S","thumbnail":"https://i.ytimg.com/vi/romDRslqrNI/mqdefault.jpg","viewCount":"1179","playlistId":"PLEkQk5xrP-tkc9DXvSLguqX5-FYp6ASR4","playlistName":"دليل الفالحين لطرق رياض الصالحين","category":"متنوع"},{"id":"RpBTb-KUdEM","title":"الرد على التساؤلات الوهابية","publishedAt":"2021-10-05T17:26:53Z","duration":"PT9M47S","thumbnail":"https://i.ytimg.com/vi/RpBTb-KUdEM/mqdefault.jpg","viewCount":"9820","playlistId":"PLEkQk5xrP-tkGXuZ9atE3k_7it12rUPTs","playlistName":"أسئلة المتابعين","category":"متنوع"},{"id":"teN58emlNpo","title":"138- الإنفاقُ ممّا يُحِبُّ ومِنَ الجيِّد - شرح دليل الفالحين","publishedAt":"2021-10-10T05:59:16Z","duration":"PT40M59S","thumbnail":"https://i.ytimg.com/vi/teN58emlNpo/mqdefault.jpg","viewCount":"660","playlistId":"PLEkQk5xrP-tkc9DXvSLguqX5-FYp6ASR4","playlistName":"دليل الفالحين لطرق رياض الصالحين","category":"متنوع"},{"id":"MISuez03PQo","title":"ما الألعاب التي مارستها في شبابك؟","publishedAt":"2021-10-09T19:30:03Z","duration":"PT9M51S","thumbnail":"https://i.ytimg.com/vi/MISuez03PQo/mqdefault.jpg","viewCount":"4749","playlistId":"PLEkQk5xrP-tl6tFiMFGUucCTvLgnWyAfz","playlistName":"حياة الأستاذ الدكتور يسري جبر","category":"متنوع"},{"id":"xmCCsRP-JkE","title":"12- هل رحمة الله تشمل غير المسلمين؟ | شرح مختصر الفتوحات المكية","publishedAt":"2024-03-28T18:00:26Z","duration":"PT53M27S","thumbnail":"https://i.ytimg.com/vi/xmCCsRP-JkE/mqdefault.jpg","viewCount":"10366","playlistId":"PLEkQk5xrP-tnpkdZki6rPTtMak1bnI5g-","playlistName":"شرح كتاب مختصر الفتوحات المكية المسمى لواقح الأنوار القدسية","category":"متنوع"},{"id":"QmoBIDZvC7I","title":"هل يجوز تفسير الأحلام؟ | كل ما تريد معرفته عن تفسير الأحلام والكوابيس","publishedAt":"2024-03-27T18:00:13Z","duration":"PT13M59S","thumbnail":"https://i.ytimg.com/vi/QmoBIDZvC7I/mqdefault.jpg","viewCount":"21792","playlistId":"PLEkQk5xrP-tkGXuZ9atE3k_7it12rUPTs","playlistName":"أسئلة المتابعين","category":"متنوع"},{"id":"QDgT-UKuiTA","title":"90- نبذة عن سيدنا جعفر بن أبي طالب رضي اللهُ تعالى عنه - شرح مسند الإمام أحمد رضي اللهُ تعالى عنه","publishedAt":"2024-03-27T06:30:07Z","duration":"PT23M24S","thumbnail":"https://i.ytimg.com/vi/QDgT-UKuiTA/mqdefault.jpg","viewCount":"1168","playlistId":"PLEkQk5xrP-tkKprIuGrSdEuBSMsyg5We1","playlistName":"شرح مسند الإمام أحمد بن حنبل","category":"متنوع"},{"id":"iICWvhmaPPU","title":"سورة النساء آية 58","publishedAt":"2016-08-26T06:46:14Z","duration":"PT10M","thumbnail":"https://i.ytimg.com/vi/iICWvhmaPPU/mqdefault.jpg","viewCount":"465","playlistId":"PLEkQk5xrP-tnmTYsyW6xNdyfhPq0Bhrhj","playlistName":"مقرأة الفجر - القُرْآنُ الكَرِيمُ - خَتْمَةُ التَّدَبُّرِ  أ.د. يسري جبر","category":"متنوع"},{"id":"OEcih4VUw-A","title":"23- جَامِعِ الصَّلاَةِ ك قصرالصلاة فى السفر ك الموطأ د يسري جبر الأزهري بمضيفة الشيخ سعيد الدح","publishedAt":"2016-08-25T23:36:03Z","duration":"PT49M45S","thumbnail":"https://i.ytimg.com/vi/OEcih4VUw-A/mqdefault.jpg","viewCount":"541","playlistId":"PLEkQk5xrP-tnC6BRuqMjyO-484iqXeg0o","playlistName":"شرح كتاب الموطأ للإمام مالك","category":"متنوع"},{"id":"3JLbublbSKo","title":"سورة النساء آية 48","publishedAt":"2016-08-24T12:02:29Z","duration":"PT15M44S","thumbnail":"https://i.ytimg.com/vi/3JLbublbSKo/mqdefault.jpg","viewCount":"454","playlistId":"PLEkQk5xrP-tnmTYsyW6xNdyfhPq0Bhrhj","playlistName":"مقرأة الفجر - القُرْآنُ الكَرِيمُ - خَتْمَةُ التَّدَبُّرِ  أ.د. يسري جبر","category":"متنوع"},{"id":"hSjTqo3nqlE","title":"22- مَا جَاءَ فِى الصَّلاَةِ عَلَى النَّبِىِّ صلى الله عليه وسلم ك الصلاة ك الموطأ د يسري جبر","publishedAt":"2016-08-23T21:34:46Z","duration":"PT49M26S","thumbnail":"https://i.ytimg.com/vi/hSjTqo3nqlE/mqdefault.jpg","viewCount":"3323","playlistId":"PLEkQk5xrP-tnC6BRuqMjyO-484iqXeg0o","playlistName":"شرح كتاب الموطأ للإمام مالك","category":"متنوع"},{"id":"ZsgSM4d6Qts","title":"سورة النساء آية 44","publishedAt":"2016-08-23T06:44:21Z","duration":"PT20M47S","thumbnail":"https://i.ytimg.com/vi/ZsgSM4d6Qts/mqdefault.jpg","viewCount":"479","playlistId":"PLEkQk5xrP-tnmTYsyW6xNdyfhPq0Bhrhj","playlistName":"مقرأة الفجر - القُرْآنُ الكَرِيمُ - خَتْمَةُ التَّدَبُّرِ  أ.د. يسري جبر","category":"متنوع"},{"id":"s_8Dy6cHKoM","title":"سورة النساء آية 43","publishedAt":"2016-08-22T07:40:54Z","duration":"PT32M52S","thumbnail":"https://i.ytimg.com/vi/s_8Dy6cHKoM/mqdefault.jpg","viewCount":"510","playlistId":"PLEkQk5xrP-tnmTYsyW6xNdyfhPq0Bhrhj","playlistName":"مقرأة الفجر - القُرْآنُ الكَرِيمُ - خَتْمَةُ التَّدَبُّرِ  أ.د. يسري جبر","category":"متنوع"},{"id":"lKc8hCSCc5k","title":"سورة النساء آية 36","publishedAt":"2016-08-21T07:39:58Z","duration":"PT23M12S","thumbnail":"https://i.ytimg.com/vi/lKc8hCSCc5k/mqdefault.jpg","viewCount":"533","playlistId":"PLEkQk5xrP-tnmTYsyW6xNdyfhPq0Bhrhj","playlistName":"مقرأة الفجر - القُرْآنُ الكَرِيمُ - خَتْمَةُ التَّدَبُّرِ  أ.د. يسري جبر","category":"متنوع"},{"id":"vafyNpRgbEc","title":"كلمة أ.د. يسري جبر في مدينة بولو | تركيا","publishedAt":"2023-08-03T08:59:00Z","duration":"PT14M3S","thumbnail":"https://i.ytimg.com/vi/vafyNpRgbEc/mqdefault.jpg","viewCount":"5033","playlistId":"PLEkQk5xrP-tmJzNvLntpzW0uPanPzxA0c","playlistName":"لقاءات ومحاضرات","category":"متنوع"},{"id":"EPn80Gucc9s","title":"أنا زهقان وتعبان وحاسس أني مش مستمتع بالحياة ,, فماذا أفعل؟","publishedAt":"2023-08-02T18:00:09Z","duration":"PT10M15S","thumbnail":"https://i.ytimg.com/vi/EPn80Gucc9s/mqdefault.jpg","viewCount":"9696","playlistId":"PLEkQk5xrP-tkGXuZ9atE3k_7it12rUPTs","playlistName":"أسئلة المتابعين","category":"متنوع"},{"id":"W1FmFH7uKwg","title":"8- حكم الصلاة في الثوب الواحد|فضيلة مَن خُتِم له بالإيمان بالله واليوم الآخر - شرح مسند الإمام أحمد","publishedAt":"2023-08-02T08:59:00Z","duration":"PT55M27S","thumbnail":"https://i.ytimg.com/vi/W1FmFH7uKwg/mqdefault.jpg","viewCount":"1592","playlistId":"PLEkQk5xrP-tkKprIuGrSdEuBSMsyg5We1","playlistName":"شرح مسند الإمام أحمد بن حنبل","category":"متنوع"},{"id":"BmdpWORsIxM","title":"7- هل تجب الزكاة في الخيل؟ - شرح مسند الإمام أحمد","publishedAt":"2023-08-01T08:59:00Z","duration":"PT40M19S","thumbnail":"https://i.ytimg.com/vi/BmdpWORsIxM/mqdefault.jpg","viewCount":"1284","playlistId":"PLEkQk5xrP-tkKprIuGrSdEuBSMsyg5We1","playlistName":"شرح مسند الإمام أحمد بن حنبل","category":"متنوع"},{"id":"uiGmck7v7ww","title":"أحاول الإحسان إلى أمي ولكنها تسيء معاملتي فماذا أفعل؟","publishedAt":"2023-07-31T18:01:35Z","duration":"PT8M19S","thumbnail":"https://i.ytimg.com/vi/uiGmck7v7ww/mqdefault.jpg","viewCount":"5499","playlistId":"PLEkQk5xrP-tkGXuZ9atE3k_7it12rUPTs","playlistName":"أسئلة المتابعين","category":"متنوع"},{"id":"m2p8nGotswU","title":"6- لا يَدخُلُ الجنَّةَ سيِّئُ المَلَكَة - شرح مسند الإمام أحمد","publishedAt":"2023-07-31T08:59:00Z","duration":"PT27M33S","thumbnail":"https://i.ytimg.com/vi/m2p8nGotswU/mqdefault.jpg","viewCount":"3095","playlistId":"PLEkQk5xrP-tkKprIuGrSdEuBSMsyg5We1","playlistName":"شرح مسند الإمام أحمد بن حنبل","category":"متنوع"},{"id":"NKMz_eFjuks","title":"كيف يحبك الله تعالى؟ | مجالس رمضانية","publishedAt":"2024-03-26T14:00:16Z","duration":"PT29M1S","thumbnail":"https://i.ytimg.com/vi/NKMz_eFjuks/mqdefault.jpg","viewCount":"8467","playlistId":"PLEkQk5xrP-tnl7vb7KeAoPd5ZlqKKW8KV","playlistName":"شرح كتاب بهجة النفوس أ.د . يسرى جبر","category":"متنوع"}],"total":4126,"page":156,"pageSize":24,"totalPages":172}