{"items":[{"id":"6T4cr5in24M","title":"أنا عندي وسواس في الطهارة وحاسس أن صلاتي مش مقبولة ,, فماذا أفعل ؟","publishedAt":"2025-07-10T18:15:00Z","duration":"PT8M48S","thumbnail":"https://i.ytimg.com/vi/6T4cr5in24M/mqdefault.jpg","viewCount":"2345","playlistId":"PLEkQk5xrP-tkGXuZ9atE3k_7it12rUPTs","playlistName":"أسئلة المتابعين","category":"متنوع"},{"id":"nFl6XCJ8_Ec","title":"الفرقُ بَينَ صَلِّ وَصَلَّى","publishedAt":"2020-01-05T16:29:15Z","duration":"PT1M8S","thumbnail":"https://i.ytimg.com/vi/nFl6XCJ8_Ec/mqdefault.jpg","viewCount":"1171","playlistId":"PLEkQk5xrP-tm8ZIu74nTOZN9KJUJu416J","playlistName":"مقاطع مُهمَّة (يُسريَّات) أ.د. يسري جبر","category":"متنوع"},{"id":"ybU0BBtHsw4","title":"شرح كتاب دلائل الخيرات - المجلس الخامس عشر. أ.د. يسري جبر","publishedAt":"2020-01-03T11:59:54Z","duration":"PT36M10S","thumbnail":"https://i.ytimg.com/vi/ybU0BBtHsw4/mqdefault.jpg","viewCount":"11015","playlistId":"PLEkQk5xrP-tlAzcbIpuqjdFICW-knvTlR","playlistName":"شرح كتاب دلائل الخيرات وشوارق الأنوار","category":"متنوع"},{"id":"RzbT6icmoPM","title":"أنا زهقان وحاسس أني مش مستمتع بالحياة ,, فماذا أفعل؟","publishedAt":"2025-07-07T19:03:22Z","duration":"PT8M17S","thumbnail":"https://i.ytimg.com/vi/RzbT6icmoPM/mqdefault.jpg","viewCount":"6994","playlistId":"PLEkQk5xrP-tkGXuZ9atE3k_7it12rUPTs","playlistName":"أسئلة المتابعين","category":"متنوع"},{"id":"0dG0-x2kWaw","title":"46- شروط صحة الصلاة ومتى فرضت؟ | شرح مختصر الفتوحات المكية","publishedAt":"2025-07-06T18:32:19Z","duration":"PT41M13S","thumbnail":"https://i.ytimg.com/vi/0dG0-x2kWaw/mqdefault.jpg","viewCount":"2046","playlistId":"PLEkQk5xrP-tnpkdZki6rPTtMak1bnI5g-","playlistName":"شرح كتاب مختصر الفتوحات المكية المسمى لواقح الأنوار القدسية","category":"متنوع"},{"id":"AnxB-7BbtZU","title":"دعاء وإحياء يوم عاشوراء","publishedAt":"2025-07-05T12:28:11Z","duration":"PT43M38S","thumbnail":"https://i.ytimg.com/vi/AnxB-7BbtZU/mqdefault.jpg","viewCount":"2926","playlistId":"PLEkQk5xrP-tm8ZIu74nTOZN9KJUJu416J","playlistName":"مقاطع مُهمَّة (يُسريَّات) أ.د. يسري جبر","category":"متنوع"},{"id":"KvvmXhAxPUA","title":"قصة يوم عاشوراء وما هو فضل صيامه؟","publishedAt":"2025-07-04T17:00:24Z","duration":"PT13M55S","thumbnail":"https://i.ytimg.com/vi/KvvmXhAxPUA/mqdefault.jpg","viewCount":"8287","playlistId":"PLEkQk5xrP-tm8ZIu74nTOZN9KJUJu416J","playlistName":"مقاطع مُهمَّة (يُسريَّات) أ.د. يسري جبر","category":"متنوع"},{"id":"ArnlvcPAY7o","title":"ما موقف الصوفية من سيدنا معاوية بن أبي سفيان؟","publishedAt":"2022-09-17T18:41:33Z","duration":"PT11M34S","thumbnail":"https://i.ytimg.com/vi/ArnlvcPAY7o/mqdefault.jpg","viewCount":"12347","playlistId":"PLEkQk5xrP-tkGXuZ9atE3k_7it12rUPTs","playlistName":"أسئلة المتابعين","category":"متنوع"},{"id":"9otLnR0igz8","title":"بدع التفاسير في سورة يس و ص","publishedAt":"2022-09-16T18:00:05Z","duration":"PT10M18S","thumbnail":"https://i.ytimg.com/vi/9otLnR0igz8/mqdefault.jpg","viewCount":"4510","playlistId":"PLEkQk5xrP-tkSGrPLMt1BEmJ54cGWYgtp","playlistName":"كتابُ بِدَعِ التَفَاسِيرِ - أ.د. يسري جبر","category":"متنوع"},{"id":"YH_lk_77LdY","title":"301- آدَابُ السَّلَام - شرح دليل الفالحين","publishedAt":"2022-09-16T06:00:09Z","duration":"PT33M15S","thumbnail":"https://i.ytimg.com/vi/YH_lk_77LdY/mqdefault.jpg","viewCount":"702","playlistId":"PLEkQk5xrP-tkc9DXvSLguqX5-FYp6ASR4","playlistName":"دليل الفالحين لطرق رياض الصالحين","category":"متنوع"},{"id":"GIajV8B-55k","title":"14- ومَن يقُلْ فِعْلُ الصَّلاحِ وَجَبَا *** على الإِلَه قَدْ أَسَاءَ الأَدَبَا - شرح الخريدة البهيّة","publishedAt":"2022-09-14T06:00:08Z","duration":"PT59M39S","thumbnail":"https://i.ytimg.com/vi/GIajV8B-55k/mqdefault.jpg","viewCount":"2534","playlistId":"PLEkQk5xrP-tmNuYT8JAh6clwa4krsgkNo","playlistName":"شرح كتاب الفُتُوحات اليُسريَّة في عقائد الأُمَّة المُحمَّديَّة","category":"متنوع"},{"id":"5myVDsmu5oE","title":"1- شرح منظومة منجية العبيد في علم التوحيد","publishedAt":"2022-09-13T05:15:00Z","duration":"PT27M25S","thumbnail":"https://i.ytimg.com/vi/5myVDsmu5oE/mqdefault.jpg","viewCount":"2539","playlistId":"PLEkQk5xrP-tk3OeVFoMfKhOhyINnlPeYZ","playlistName":"الحَضْرَةُ الصِّدِّيقِيَّة والأوْرَاد","category":"متنوع"},{"id":"NFg6n2JGfvY","title":"ما معنى كلمة مدد؟","publishedAt":"2022-01-26T20:15:14Z","duration":"PT10M32S","thumbnail":"https://i.ytimg.com/vi/NFg6n2JGfvY/mqdefault.jpg","viewCount":"24736","playlistId":"PLEkQk5xrP-tkGXuZ9atE3k_7it12rUPTs","playlistName":"أسئلة المتابعين","category":"متنوع"},{"id":"qQAGwLjEFb0","title":"190- فَضْلُ الرَّجَاء - شرح دليل الفالحين","publishedAt":"2022-01-26T07:04:38Z","duration":"PT39M58S","thumbnail":"https://i.ytimg.com/vi/qQAGwLjEFb0/mqdefault.jpg","viewCount":"1488","playlistId":"PLEkQk5xrP-tkc9DXvSLguqX5-FYp6ASR4","playlistName":"دليل الفالحين لطرق رياض الصالحين","category":"متنوع"},{"id":"TKslnPSM0DQ","title":"كيف تربي أولادك تربية صحيحة في هذا الزمان؟","publishedAt":"2022-01-24T19:00:10Z","duration":"PT13M3S","thumbnail":"https://i.ytimg.com/vi/TKslnPSM0DQ/mqdefault.jpg","viewCount":"10532","playlistId":"PLEkQk5xrP-tm8ZIu74nTOZN9KJUJu416J","playlistName":"مقاطع مُهمَّة (يُسريَّات) أ.د. يسري جبر","category":"متنوع"},{"id":"XMxejr7KHog","title":"4- عددُ الرُّسُل المَذْكُورينَ في القرآن","publishedAt":"2022-01-23T17:44:22Z","duration":"PT1H6M25S","thumbnail":"https://i.ytimg.com/vi/XMxejr7KHog/mqdefault.jpg","viewCount":"5739","playlistId":"PLEkQk5xrP-tmNuYT8JAh6clwa4krsgkNo","playlistName":"شرح كتاب الفُتُوحات اليُسريَّة في عقائد الأُمَّة المُحمَّديَّة","category":"متنوع"},{"id":"DgzgYNbdxl8","title":"189- وقت الزوال ومعنى ظل الزوال - شرح دليل الفالحين","publishedAt":"2022-01-23T08:14:23Z","duration":"PT51M22S","thumbnail":"https://i.ytimg.com/vi/DgzgYNbdxl8/mqdefault.jpg","viewCount":"991","playlistId":"PLEkQk5xrP-tkc9DXvSLguqX5-FYp6ASR4","playlistName":"دليل الفالحين لطرق رياض الصالحين","category":"متنوع"},{"id":"0xPNr8bpGbM","title":"لماذا اختلف العلماء في تحديد أسماء الله؟","publishedAt":"2022-01-21T18:24:59Z","duration":"PT12M17S","thumbnail":"https://i.ytimg.com/vi/0xPNr8bpGbM/mqdefault.jpg","viewCount":"6025","playlistId":"PLEkQk5xrP-tkGXuZ9atE3k_7it12rUPTs","playlistName":"أسئلة المتابعين","category":"متنوع"},{"id":"PseDI6dXZ3w","title":"188- \"…أنَّ رَجُلًا أصابَ مِن امْرَأَةٍ قُبْلَةً، فأتَى النَّبيَّ ﷺ فأخْبَرَهُ…\"- شرح دليل الفالحين","publishedAt":"2022-01-21T07:21:23Z","duration":"PT56M38S","thumbnail":"https://i.ytimg.com/vi/PseDI6dXZ3w/mqdefault.jpg","viewCount":"2556","playlistId":"PLEkQk5xrP-tkc9DXvSLguqX5-FYp6ASR4","playlistName":"دليل الفالحين لطرق رياض الصالحين","category":"متنوع"},{"id":"G38f2NTCKTo","title":"كم عدد الأنبياء العرب؟","publishedAt":"2022-01-20T18:39:29Z","duration":"PT8M46S","thumbnail":"https://i.ytimg.com/vi/G38f2NTCKTo/mqdefault.jpg","viewCount":"13987","playlistId":"PLEkQk5xrP-tkGXuZ9atE3k_7it12rUPTs","playlistName":"أسئلة المتابعين","category":"متنوع"},{"id":"YyhD84LMmKU","title":"تفسير قوله تعالى \"كُنتُمْ خَيْرَ أُمَّةٍ أُخْرِجَتْ لِلنَّاس\"","publishedAt":"2022-01-19T17:30:03Z","duration":"PT25M3S","thumbnail":"https://i.ytimg.com/vi/YyhD84LMmKU/mqdefault.jpg","viewCount":"3200","playlistId":"PLEkQk5xrP-tkGXuZ9atE3k_7it12rUPTs","playlistName":"أسئلة المتابعين","category":"متنوع"},{"id":"k4d7oyb61_o","title":"187- \"أتَرْضَوْنَ أنْ تَكُونُوا رُبُعَ أهْلِ الجَنَّةِ؟ قُلْنَا: نَعَمْ…\" شرح دليل الفالحين","publishedAt":"2022-01-19T07:12:23Z","duration":"PT23M25S","thumbnail":"https://i.ytimg.com/vi/k4d7oyb61_o/mqdefault.jpg","viewCount":"1918","playlistId":"PLEkQk5xrP-tkc9DXvSLguqX5-FYp6ASR4","playlistName":"دليل الفالحين لطرق رياض الصالحين","category":"متنوع"},{"id":"7pakbyPl24I","title":"شرح مبسط لعلم الإلهيات والنبوات","publishedAt":"2022-01-17T18:31:57Z","duration":"PT12M20S","thumbnail":"https://i.ytimg.com/vi/7pakbyPl24I/mqdefault.jpg","viewCount":"8806","playlistId":"PLEkQk5xrP-tkGXuZ9atE3k_7it12rUPTs","playlistName":"أسئلة المتابعين","category":"متنوع"},{"id":"v9mIDwo3id8","title":"186- \"…يا مُعاذُ، هل تدري ما حقُّ اللهِ على عِباده؟ وما حقُّ العباد علَى الله؟…\"  شرح دليل الفالحين","publishedAt":"2022-01-17T06:51:27Z","duration":"PT35M28S","thumbnail":"https://i.ytimg.com/vi/v9mIDwo3id8/mqdefault.jpg","viewCount":"2403","playlistId":"PLEkQk5xrP-tkc9DXvSLguqX5-FYp6ASR4","playlistName":"دليل الفالحين لطرق رياض الصالحين","category":"متنوع"}],"total":4126,"page":93,"pageSize":24,"totalPages":172}