{"items":[{"id":"7XesWbbtJXI","title":"الفرق بين المُتوكِّل والمُفوِّض","publishedAt":"2020-10-09T20:37:39Z","duration":"PT12M13S","thumbnail":"https://i.ytimg.com/vi/7XesWbbtJXI/mqdefault.jpg","viewCount":"12373","playlistId":"PLEkQk5xrP-tm8ZIu74nTOZN9KJUJu416J","playlistName":"مقاطع مُهمَّة (يُسريَّات) أ.د. يسري جبر","category":"متنوع"},{"id":"EXTsO4uDw9E","title":"التَّوكُّل رخصة والتَّفويض عزيمة","publishedAt":"2020-10-08T19:00:35Z","duration":"PT5M36S","thumbnail":"https://i.ytimg.com/vi/EXTsO4uDw9E/mqdefault.jpg","viewCount":"3000","playlistId":"PLEkQk5xrP-tm8ZIu74nTOZN9KJUJu416J","playlistName":"مقاطع مُهمَّة (يُسريَّات) أ.د. يسري جبر","category":"متنوع"},{"id":"_Fv78idEwP8","title":"بِدَعُ التَفَاسِيرِ - المجلس السادس عشر. أ.د. يسري جبر","publishedAt":"2020-10-07T19:58:39Z","duration":"PT21M14S","thumbnail":"https://i.ytimg.com/vi/_Fv78idEwP8/mqdefault.jpg","viewCount":"1427","playlistId":"PLEkQk5xrP-tkSGrPLMt1BEmJ54cGWYgtp","playlistName":"كتابُ بِدَعِ التَفَاسِيرِ - أ.د. يسري جبر","category":"متنوع"},{"id":"mxBSRzEeFxs","title":"ازاي تتحرر من إدمان التليفون والسوشيال ميديا؟","publishedAt":"2025-03-08T18:30:42Z","duration":"PT8M51S","thumbnail":"https://i.ytimg.com/vi/mxBSRzEeFxs/mqdefault.jpg","viewCount":"16708","playlistId":"PLEkQk5xrP-tm8ZIu74nTOZN9KJUJu416J","playlistName":"مقاطع مُهمَّة (يُسريَّات) أ.د. يسري جبر","category":"متنوع"},{"id":"njGhMc4ECic","title":"كيف تكون صلاتي مقبولة؟ | مجالس رمضانية","publishedAt":"2025-03-08T15:00:57Z","duration":"PT14M33S","thumbnail":"https://i.ytimg.com/vi/njGhMc4ECic/mqdefault.jpg","viewCount":"1477","playlistId":"PLEkQk5xrP-tkeI_WVPfuoTJO46aVkpaz0","playlistName":"شرح كتاب ميزان الاعتدال لحفظ الدين والأحوال","category":"متنوع"},{"id":"h1pBJGYNex4","title":"كيف أتخلص من التركيز الزائد في أمور الدنيا؟ | مجالس رمضانية","publishedAt":"2025-03-07T15:01:01Z","duration":"PT33M41S","thumbnail":"https://i.ytimg.com/vi/h1pBJGYNex4/mqdefault.jpg","viewCount":"6394","playlistId":"PLEkQk5xrP-tkeI_WVPfuoTJO46aVkpaz0","playlistName":"شرح كتاب ميزان الاعتدال لحفظ الدين والأحوال","category":"متنوع"},{"id":"MLo675wtzgk","title":"حاسس أني تايه في الدين بسبب تعدد الطوائف والأفكار ,, فماذا أفعل؟","publishedAt":"2025-03-06T18:30:25Z","duration":"PT8M53S","thumbnail":"https://i.ytimg.com/vi/MLo675wtzgk/mqdefault.jpg","viewCount":"3861","playlistId":"PLEkQk5xrP-tkGXuZ9atE3k_7it12rUPTs","playlistName":"أسئلة المتابعين","category":"متنوع"},{"id":"M7Q9jUt2gv4","title":"كيف تجعل صلاتك مقبولة عند الله؟ | مجالس رمضانية","publishedAt":"2025-03-06T15:00:32Z","duration":"PT15M15S","thumbnail":"https://i.ytimg.com/vi/M7Q9jUt2gv4/mqdefault.jpg","viewCount":"2469","playlistId":"PLEkQk5xrP-tkeI_WVPfuoTJO46aVkpaz0","playlistName":"شرح كتاب ميزان الاعتدال لحفظ الدين والأحوال","category":"متنوع"},{"id":"JeAuYap3w-Q","title":"لا أستطيع الخشوع في الصلاة ,, فماذا أفعل؟ | مجالس رمضانية","publishedAt":"2025-03-05T15:00:20Z","duration":"PT20M29S","thumbnail":"https://i.ytimg.com/vi/JeAuYap3w-Q/mqdefault.jpg","viewCount":"3740","playlistId":"PLEkQk5xrP-tkeI_WVPfuoTJO46aVkpaz0","playlistName":"شرح كتاب ميزان الاعتدال لحفظ الدين والأحوال","category":"متنوع"},{"id":"I_fF6y_LW7k","title":"ازاي اجتهد للآخرة زي ما بجتهد للدنيا؟","publishedAt":"2025-03-04T18:30:13Z","duration":"PT8M28S","thumbnail":"https://i.ytimg.com/vi/I_fF6y_LW7k/mqdefault.jpg","viewCount":"4781","playlistId":"PLEkQk5xrP-tm8ZIu74nTOZN9KJUJu416J","playlistName":"مقاطع مُهمَّة (يُسريَّات) أ.د. يسري جبر","category":"متنوع"},{"id":"tZ24xySBMWc","title":"عبادة تجعلك مستعدًا لدخول الجنة في أي لحظة! | مجالس رمضانية","publishedAt":"2025-03-04T15:01:22Z","duration":"PT22M32S","thumbnail":"https://i.ytimg.com/vi/tZ24xySBMWc/mqdefault.jpg","viewCount":"5063","playlistId":"PLEkQk5xrP-tkeI_WVPfuoTJO46aVkpaz0","playlistName":"شرح كتاب ميزان الاعتدال لحفظ الدين والأحوال","category":"متنوع"},{"id":"WWWRKGs98l4","title":"154- حال النَّبي ﷺ عند نزول الوحي - شرح مسند الإمام أحمد رضي الله تعالى عنه","publishedAt":"2025-03-04T06:15:01Z","duration":"PT34M1S","thumbnail":"https://i.ytimg.com/vi/WWWRKGs98l4/mqdefault.jpg","viewCount":"550","playlistId":"PLEkQk5xrP-tkKprIuGrSdEuBSMsyg5We1","playlistName":"شرح مسند الإمام أحمد بن حنبل","category":"متنوع"},{"id":"GfhSE06wCSg","title":"فضل كثرة السجود وسر القرب من النبي في الجنة | مجالس رمضانية","publishedAt":"2025-03-03T15:00:20Z","duration":"PT20M43S","thumbnail":"https://i.ytimg.com/vi/GfhSE06wCSg/mqdefault.jpg","viewCount":"2846","playlistId":"PLEkQk5xrP-tkeI_WVPfuoTJO46aVkpaz0","playlistName":"شرح كتاب ميزان الاعتدال لحفظ الدين والأحوال","category":"متنوع"},{"id":"Mp5SWSxZLBQ","title":"هل يجوز عقد الزواج عن طريق الانترنت؟","publishedAt":"2025-03-02T18:30:17Z","duration":"PT8M58S","thumbnail":"https://i.ytimg.com/vi/Mp5SWSxZLBQ/mqdefault.jpg","viewCount":"1308","playlistId":"PLEkQk5xrP-tkGXuZ9atE3k_7it12rUPTs","playlistName":"أسئلة المتابعين","category":"متنوع"},{"id":"VbG120MA-F4","title":"سنن بسيطة تبني لك بيتا في الجنة | مجالس رمضانية","publishedAt":"2025-03-02T15:00:39Z","duration":"PT21M47S","thumbnail":"https://i.ytimg.com/vi/VbG120MA-F4/mqdefault.jpg","viewCount":"3051","playlistId":"PLEkQk5xrP-tkeI_WVPfuoTJO46aVkpaz0","playlistName":"شرح كتاب ميزان الاعتدال لحفظ الدين والأحوال","category":"متنوع"},{"id":"Q6fBN_GEy2A","title":"دليلك للمواظبة على صلاتك | مجالس رمضانية","publishedAt":"2025-03-01T15:00:36Z","duration":"PT27M28S","thumbnail":"https://i.ytimg.com/vi/Q6fBN_GEy2A/mqdefault.jpg","viewCount":"2955","playlistId":"PLEkQk5xrP-tkeI_WVPfuoTJO46aVkpaz0","playlistName":"شرح كتاب ميزان الاعتدال لحفظ الدين والأحوال","category":"متنوع"},{"id":"DHgrRlIb-3U","title":"أسباب قبول العبادات | مجالس رمضانية","publishedAt":"2025-02-27T17:15:12Z","duration":"PT32M55S","thumbnail":"https://i.ytimg.com/vi/DHgrRlIb-3U/mqdefault.jpg","viewCount":"2324","playlistId":"PLEkQk5xrP-tkeI_WVPfuoTJO46aVkpaz0","playlistName":"شرح كتاب ميزان الاعتدال لحفظ الدين والأحوال","category":"متنوع"},{"id":"K08GDYv5hZM","title":"متى تسبق السُّنَّة الفرض؟","publishedAt":"2020-10-06T19:54:09Z","duration":"PT1M53S","thumbnail":"https://i.ytimg.com/vi/K08GDYv5hZM/mqdefault.jpg","viewCount":"3029","playlistId":"PLEkQk5xrP-tm8ZIu74nTOZN9KJUJu416J","playlistName":"مقاطع مُهمَّة (يُسريَّات) أ.د. يسري جبر","category":"متنوع"},{"id":"E_qm5orDoIc","title":"درجات التوكُّل","publishedAt":"2020-10-04T20:06:50Z","duration":"PT14M1S","thumbnail":"https://i.ytimg.com/vi/E_qm5orDoIc/mqdefault.jpg","viewCount":"4017","playlistId":"PLEkQk5xrP-tm8ZIu74nTOZN9KJUJu416J","playlistName":"مقاطع مُهمَّة (يُسريَّات) أ.د. يسري جبر","category":"متنوع"},{"id":"mkEf1nMDBE0","title":"منهج حياة","publishedAt":"2020-10-03T18:06:01Z","duration":"PT20M13S","thumbnail":"https://i.ytimg.com/vi/mkEf1nMDBE0/mqdefault.jpg","viewCount":"3500","playlistId":"PLEkQk5xrP-tm8ZIu74nTOZN9KJUJu416J","playlistName":"مقاطع مُهمَّة (يُسريَّات) أ.د. يسري جبر","category":"متنوع"},{"id":"82LMOD-EAlk","title":"الرضا بالموجود وعدم طلب المفقود","publishedAt":"2020-10-02T20:11:34Z","duration":"PT17M8S","thumbnail":"https://i.ytimg.com/vi/82LMOD-EAlk/mqdefault.jpg","viewCount":"9561","playlistId":"PLEkQk5xrP-tm8ZIu74nTOZN9KJUJu416J","playlistName":"مقاطع مُهمَّة (يُسريَّات) أ.د. يسري جبر","category":"متنوع"},{"id":"h7kjVm0k38Q","title":"حَيٌّ قَيُّوم","publishedAt":"2020-10-01T19:32:00Z","duration":"PT9M58S","thumbnail":"https://i.ytimg.com/vi/h7kjVm0k38Q/mqdefault.jpg","viewCount":"5037","playlistId":"PLEkQk5xrP-tm8ZIu74nTOZN9KJUJu416J","playlistName":"مقاطع مُهمَّة (يُسريَّات) أ.د. يسري جبر","category":"متنوع"},{"id":"Yj5Lr0WKzDY","title":"أحوال القلب فضل من الله","publishedAt":"2020-09-30T19:26:11Z","duration":"PT13M29S","thumbnail":"https://i.ytimg.com/vi/Yj5Lr0WKzDY/mqdefault.jpg","viewCount":"10210","playlistId":"PLEkQk5xrP-tm8ZIu74nTOZN9KJUJu416J","playlistName":"مقاطع مُهمَّة (يُسريَّات) أ.د. يسري جبر","category":"متنوع"},{"id":"v4Jpdo788cg","title":"المداومة وعدم المبالغة","publishedAt":"2020-09-29T21:52:00Z","duration":"PT16M58S","thumbnail":"https://i.ytimg.com/vi/v4Jpdo788cg/mqdefault.jpg","viewCount":"6556","playlistId":"PLEkQk5xrP-tm8ZIu74nTOZN9KJUJu416J","playlistName":"مقاطع مُهمَّة (يُسريَّات) أ.د. يسري جبر","category":"متنوع"}],"total":4126,"page":50,"pageSize":24,"totalPages":172}