{"items":[{"id":"SE6cwIgrwOU","title":"17- هل الأُذنان من الرأس فتُمسَح أم من الوجه فتُغسَل - كتاب الطهارة - شرح سنن الإمام الدار قطني","publishedAt":"2023-10-21T06:01:31Z","duration":"PT52M34S","thumbnail":"https://i.ytimg.com/vi/SE6cwIgrwOU/mqdefault.jpg","viewCount":"959","playlistId":"PLEkQk5xrP-tk_MCBZ706ORCw6gFtFyaGj","playlistName":"شرح سنن الإمام الدارقطني","category":"متنوع"},{"id":"njVvchfbS4Q","title":"31- حكم تقديم الوصية على الدين - شرح مسند الإمام أحمد","publishedAt":"2023-10-20T05:30:12Z","duration":"PT28M14S","thumbnail":"https://i.ytimg.com/vi/njVvchfbS4Q/mqdefault.jpg","viewCount":"1273","playlistId":"PLEkQk5xrP-tkKprIuGrSdEuBSMsyg5We1","playlistName":"شرح مسند الإمام أحمد بن حنبل","category":"متنوع"},{"id":"uRTTcn-uF-8","title":"30- فن التغافل | الحث على قيام الليل وإيقاظ النائمين له - شرح مسند الإمام أحمد","publishedAt":"2023-10-18T05:30:14Z","duration":"PT37M16S","thumbnail":"https://i.ytimg.com/vi/uRTTcn-uF-8/mqdefault.jpg","viewCount":"4637","playlistId":"PLEkQk5xrP-tkKprIuGrSdEuBSMsyg5We1","playlistName":"شرح مسند الإمام أحمد بن حنبل","category":"متنوع"},{"id":"hDbWkY0rdg0","title":"29- الفرق بين المسانيد والسنن | بيان كيفية الوقوف بعرفة والمزدلفة والحث على عدم التزاحم","publishedAt":"2023-10-16T05:15:01Z","duration":"PT37M57S","thumbnail":"https://i.ytimg.com/vi/hDbWkY0rdg0/mqdefault.jpg","viewCount":"1332","playlistId":"PLEkQk5xrP-tkKprIuGrSdEuBSMsyg5We1","playlistName":"شرح مسند الإمام أحمد بن حنبل","category":"متنوع"},{"id":"Q7SMsHpH6X0","title":"كيف نخرج من الوضع الحالي بتغيير حقيقي؟","publishedAt":"2023-10-14T18:03:15Z","duration":"PT14M11S","thumbnail":"https://i.ytimg.com/vi/Q7SMsHpH6X0/mqdefault.jpg","viewCount":"28165","playlistId":"PLEkQk5xrP-tm8ZIu74nTOZN9KJUJu416J","playlistName":"مقاطع مُهمَّة (يُسريَّات) أ.د. يسري جبر","category":"متنوع"},{"id":"LxFnI_3V45k","title":"16- ويلٌ للأعقاب من النار | حكم تخليل الأصابع في الوضوء - شرح سنن الإمام الدار قطني","publishedAt":"2023-10-14T05:15:00Z","duration":"PT39M36S","thumbnail":"https://i.ytimg.com/vi/LxFnI_3V45k/mqdefault.jpg","viewCount":"1159","playlistId":"PLEkQk5xrP-tk_MCBZ706ORCw6gFtFyaGj","playlistName":"شرح سنن الإمام الدارقطني","category":"متنوع"},{"id":"d0i7ZyH2OsQ","title":"28- فضائل سيدنا عثمان رضي الله عنه - شرح مسند الإمام أحمد","publishedAt":"2023-10-13T05:30:19Z","duration":"PT26M32S","thumbnail":"https://i.ytimg.com/vi/d0i7ZyH2OsQ/mqdefault.jpg","viewCount":"1258","playlistId":"PLEkQk5xrP-tkKprIuGrSdEuBSMsyg5We1","playlistName":"شرح مسند الإمام أحمد بن حنبل","category":"متنوع"},{"id":"z-Caj2b8FNw","title":"حاسس أني فاشل وعمري بيضيع ,, فماذا أفعل؟","publishedAt":"2023-10-12T17:00:58Z","duration":"PT10M27S","thumbnail":"https://i.ytimg.com/vi/z-Caj2b8FNw/mqdefault.jpg","viewCount":"18141","playlistId":"PLEkQk5xrP-tkGXuZ9atE3k_7it12rUPTs","playlistName":"أسئلة المتابعين","category":"متنوع"},{"id":"-S4VyAx2S6k","title":"39- شروط صحة وقبول الصلاة | شرح مختصر الفتوحات المكية","publishedAt":"2025-02-18T20:08:39Z","duration":"PT54M48S","thumbnail":"https://i.ytimg.com/vi/-S4VyAx2S6k/mqdefault.jpg","viewCount":"4048","playlistId":"PLEkQk5xrP-tnpkdZki6rPTtMak1bnI5g-","playlistName":"شرح كتاب مختصر الفتوحات المكية المسمى لواقح الأنوار القدسية","category":"متنوع"},{"id":"liICWeY-shI","title":"ما هي البدعة وما الفرق بين البدع السيئة والحسنة؟","publishedAt":"2025-02-17T17:31:10Z","duration":"PT17M","thumbnail":"https://i.ytimg.com/vi/liICWeY-shI/mqdefault.jpg","viewCount":"3267","playlistId":"PLEkQk5xrP-tkGXuZ9atE3k_7it12rUPTs","playlistName":"أسئلة المتابعين","category":"متنوع"},{"id":"G9zuezXSAV0","title":"413- ما يُقالُ عند النوم - شرح دليل الفالحين","publishedAt":"2023-03-17T05:00:05Z","duration":"PT38M54S","thumbnail":"https://i.ytimg.com/vi/G9zuezXSAV0/mqdefault.jpg","viewCount":"1247","playlistId":"PLEkQk5xrP-tkc9DXvSLguqX5-FYp6ASR4","playlistName":"دليل الفالحين لطرق رياض الصالحين","category":"متنوع"},{"id":"oXz8FgR1g8k","title":"هل يجوز الاحتفال بموالد الأولياء والصالحين؟","publishedAt":"2023-03-15T18:00:20Z","duration":"PT20M28S","thumbnail":"https://i.ytimg.com/vi/oXz8FgR1g8k/mqdefault.jpg","viewCount":"2961","playlistId":"PLEkQk5xrP-tm8ZIu74nTOZN9KJUJu416J","playlistName":"مقاطع مُهمَّة (يُسريَّات) أ.د. يسري جبر","category":"متنوع"},{"id":"s_pkd3y5nnc","title":"412- بيان ما يُقال إذا أمسيْت وإذا أصبحْت وإذا أخذْت مضجعك - شرح دليل الفالحين","publishedAt":"2023-03-15T05:35:00Z","duration":"PT30M18S","thumbnail":"https://i.ytimg.com/vi/s_pkd3y5nnc/mqdefault.jpg","viewCount":"995","playlistId":"PLEkQk5xrP-tkc9DXvSLguqX5-FYp6ASR4","playlistName":"دليل الفالحين لطرق رياض الصالحين","category":"متنوع"},{"id":"vrk0kW3UKqM","title":"ما هو التصوف وما هي الطريقة ومتى آخذها؟","publishedAt":"2023-03-14T18:00:31Z","duration":"PT28M43S","thumbnail":"https://i.ytimg.com/vi/vrk0kW3UKqM/mqdefault.jpg","viewCount":"145961","playlistId":"PLEkQk5xrP-tm8ZIu74nTOZN9KJUJu416J","playlistName":"مقاطع مُهمَّة (يُسريَّات) أ.د. يسري جبر","category":"متنوع"},{"id":"v5Ijm107NkA","title":"ماذا أفعل حتى أرى النبي ﷺ يقظة؟","publishedAt":"2023-03-13T18:00:31Z","duration":"PT9M25S","thumbnail":"https://i.ytimg.com/vi/v5Ijm107NkA/mqdefault.jpg","viewCount":"13782","playlistId":"PLEkQk5xrP-tm8ZIu74nTOZN9KJUJu416J","playlistName":"مقاطع مُهمَّة (يُسريَّات) أ.د. يسري جبر","category":"متنوع"},{"id":"coMCGvsdBhI","title":"411- الذكر عند الصباح والمساء وبيان وقته - شرح دليل الفالحين","publishedAt":"2023-03-13T05:00:14Z","duration":"PT26M10S","thumbnail":"https://i.ytimg.com/vi/coMCGvsdBhI/mqdefault.jpg","viewCount":"1918","playlistId":"PLEkQk5xrP-tkc9DXvSLguqX5-FYp6ASR4","playlistName":"دليل الفالحين لطرق رياض الصالحين","category":"متنوع"},{"id":"8ZI-e_UE1ho","title":"ما هو نور القديم؟","publishedAt":"2023-03-12T18:09:07Z","duration":"PT14M5S","thumbnail":"https://i.ytimg.com/vi/8ZI-e_UE1ho/mqdefault.jpg","viewCount":"4104","playlistId":"PLEkQk5xrP-tm8ZIu74nTOZN9KJUJu416J","playlistName":"مقاطع مُهمَّة (يُسريَّات) أ.د. يسري جبر","category":"متنوع"},{"id":"z5lzUf6iEr4","title":"ما هي آداب طالب العلم؟","publishedAt":"2023-03-11T18:00:32Z","duration":"PT31M38S","thumbnail":"https://i.ytimg.com/vi/z5lzUf6iEr4/mqdefault.jpg","viewCount":"1799","playlistId":"PLEkQk5xrP-tm8ZIu74nTOZN9KJUJu416J","playlistName":"مقاطع مُهمَّة (يُسريَّات) أ.د. يسري جبر","category":"متنوع"},{"id":"5mhTZ4lK7iQ","title":"410- لا يَقْعُدُ قَومٌ يذْكُرون اللَّهَ عزَّ وجلَّ إِلّا حفَّتْهمُ الملَائكةُ، وغشيَتْهمُ الرَّحْمةُ","publishedAt":"2023-03-11T05:00:02Z","duration":"PT26M22S","thumbnail":"https://i.ytimg.com/vi/5mhTZ4lK7iQ/mqdefault.jpg","viewCount":"1127","playlistId":"PLEkQk5xrP-tkc9DXvSLguqX5-FYp6ASR4","playlistName":"دليل الفالحين لطرق رياض الصالحين","category":"متنوع"},{"id":"nb5JccA9g7s","title":"فضل الصلاة على النبي ﷺ","publishedAt":"2023-03-10T18:00:22Z","duration":"PT10M12S","thumbnail":"https://i.ytimg.com/vi/nb5JccA9g7s/mqdefault.jpg","viewCount":"9870","playlistId":"PLEkQk5xrP-tm8ZIu74nTOZN9KJUJu416J","playlistName":"مقاطع مُهمَّة (يُسريَّات) أ.د. يسري جبر","category":"متنوع"},{"id":"xUGlRzl1i2Q","title":"تعرف على سيدنا النبي ﷺ","publishedAt":"2023-03-09T18:00:33Z","duration":"PT22M39S","thumbnail":"https://i.ytimg.com/vi/xUGlRzl1i2Q/mqdefault.jpg","viewCount":"6968","playlistId":"PLEkQk5xrP-tm8ZIu74nTOZN9KJUJu416J","playlistName":"مقاطع مُهمَّة (يُسريَّات) أ.د. يسري جبر","category":"متنوع"},{"id":"RXa4VbAx1JA","title":"409- فضل حِلَقِ الذِكر والندب على ملازمتها والنهي عن مفارقتها لغير عذر - شرح دليل الفالحين","publishedAt":"2023-03-09T05:00:16Z","duration":"PT30M5S","thumbnail":"https://i.ytimg.com/vi/RXa4VbAx1JA/mqdefault.jpg","viewCount":"1806","playlistId":"PLEkQk5xrP-tkc9DXvSLguqX5-FYp6ASR4","playlistName":"دليل الفالحين لطرق رياض الصالحين","category":"متنوع"},{"id":"8DBEEvVl5Jo","title":"الرضا بالإقامة عين الكرامة","publishedAt":"2023-03-07T18:00:06Z","duration":"PT23M54S","thumbnail":"https://i.ytimg.com/vi/8DBEEvVl5Jo/mqdefault.jpg","viewCount":"7262","playlistId":"PLEkQk5xrP-tm8ZIu74nTOZN9KJUJu416J","playlistName":"مقاطع مُهمَّة (يُسريَّات) أ.د. يسري جبر","category":"متنوع"},{"id":"cIpcCFQwEUU","title":"408- أَلَا أُنَبِّئُكم بِخَيْرِ أعمالِكُم، وأَزْكاها عِندَ مَلِيكِكُم، وأَرفعِها في دَرَجاتِكُم…","publishedAt":"2023-03-07T05:00:15Z","duration":"PT36M11S","thumbnail":"https://i.ytimg.com/vi/cIpcCFQwEUU/mqdefault.jpg","viewCount":"1466","playlistId":"PLEkQk5xrP-tkc9DXvSLguqX5-FYp6ASR4","playlistName":"دليل الفالحين لطرق رياض الصالحين","category":"متنوع"}],"total":4126,"page":9,"pageSize":24,"totalPages":172}