{"items":[{"id":"oCbgcc1nLP4","title":"مقرأة سورة المؤمنون آية ١١٢","publishedAt":"2018-03-07T11:29:51Z","duration":"PT25M31S","thumbnail":"https://i.ytimg.com/vi/oCbgcc1nLP4/mqdefault.jpg","viewCount":"293","playlistId":"PLEkQk5xrP-tnmTYsyW6xNdyfhPq0Bhrhj","playlistName":"مقرأة الفجر - القُرْآنُ الكَرِيمُ - خَتْمَةُ التَّدَبُّرِ  أ.د. يسري جبر","category":"متنوع"},{"id":"dmyWQAP0HT0","title":"ليس المحبُّ الذي يرجو من محبوبه عِوضا،أو يطلب منه غرضا،فإن المحبَّ من يبذل لك،ليس المحبُّ من تبذل له","publishedAt":"2018-03-06T17:52:50Z","duration":"PT10M55S","thumbnail":"https://i.ytimg.com/vi/dmyWQAP0HT0/mqdefault.jpg","viewCount":"4867","playlistId":"PLEkQk5xrP-tkI_meE148wc7V7XHlB0WPb","playlistName":"من الحكم العطائية  د. يسري جبر","category":"متنوع"},{"id":"v-iMattTLJM","title":"ما معنى \"الرَّحْمَنُ عَلَى الْعَرْشِ اسْتَوَى\"؟","publishedAt":"2021-09-29T16:30:07Z","duration":"PT8M42S","thumbnail":"https://i.ytimg.com/vi/v-iMattTLJM/mqdefault.jpg","viewCount":"6078","playlistId":"PLEkQk5xrP-tkGXuZ9atE3k_7it12rUPTs","playlistName":"أسئلة المتابعين","category":"متنوع"},{"id":"iZ604pGi3lk","title":"133- \"لَا يَفْرَكْ مُؤْمِنٌ مُؤْمِنَةً، إنْ كَرِهَ منها خُلُقًا رَضِيَ منها آخَر…\" شرح دليل الفالحين","publishedAt":"2021-09-29T03:20:13Z","duration":"PT35M35S","thumbnail":"https://i.ytimg.com/vi/iZ604pGi3lk/mqdefault.jpg","viewCount":"1927","playlistId":"PLEkQk5xrP-tkc9DXvSLguqX5-FYp6ASR4","playlistName":"دليل الفالحين لطرق رياض الصالحين","category":"متنوع"},{"id":"imqcgdYGiWg","title":"كيف نفهم كلام الأولياء؟","publishedAt":"2021-09-27T18:30:26Z","duration":"PT15M12S","thumbnail":"https://i.ytimg.com/vi/imqcgdYGiWg/mqdefault.jpg","viewCount":"17216","playlistId":"PLEkQk5xrP-tkGXuZ9atE3k_7it12rUPTs","playlistName":"أسئلة المتابعين","category":"متنوع"},{"id":"2OoXVh0pPDQ","title":"132- الوصية بالنساء - شرح دليل الفالحين","publishedAt":"2021-09-27T02:10:34Z","duration":"PT40M22S","thumbnail":"https://i.ytimg.com/vi/2OoXVh0pPDQ/mqdefault.jpg","viewCount":"1189","playlistId":"PLEkQk5xrP-tkc9DXvSLguqX5-FYp6ASR4","playlistName":"دليل الفالحين لطرق رياض الصالحين","category":"متنوع"},{"id":"43_4FjigdJQ","title":"كيف تعاملت مع الوهابية في حياتي؟","publishedAt":"2021-09-26T17:15:00Z","duration":"PT12M7S","thumbnail":"https://i.ytimg.com/vi/43_4FjigdJQ/mqdefault.jpg","viewCount":"29843","playlistId":"PLEkQk5xrP-tl6tFiMFGUucCTvLgnWyAfz","playlistName":"حياة الأستاذ الدكتور يسري جبر","category":"متنوع"},{"id":"S4wSdKGhHGg","title":"كيف تحدث معجزات الأنبياء؟","publishedAt":"2021-09-25T16:52:03Z","duration":"PT11M57S","thumbnail":"https://i.ytimg.com/vi/S4wSdKGhHGg/mqdefault.jpg","viewCount":"4047","playlistId":"PLEkQk5xrP-tkGXuZ9atE3k_7it12rUPTs","playlistName":"أسئلة المتابعين","category":"متنوع"},{"id":"d9EB-i_-mfY","title":"131- \"اللَّهمَّ إنِّي أحرِّجُ حقَّ الضَّعيفينِ : اليتيمِ ، والمرأَةِ\" - شرح دليل الفالحين","publishedAt":"2021-09-24T06:05:50Z","duration":"PT32M59S","thumbnail":"https://i.ytimg.com/vi/d9EB-i_-mfY/mqdefault.jpg","viewCount":"1304","playlistId":"PLEkQk5xrP-tkc9DXvSLguqX5-FYp6ASR4","playlistName":"دليل الفالحين لطرق رياض الصالحين","category":"متنوع"},{"id":"iekE1Wr4xVM","title":"بضعٌ وستون عامًا من العلم والعطاء","publishedAt":"2021-09-23T13:54:58Z","duration":"PT11M39S","thumbnail":"https://i.ytimg.com/vi/iekE1Wr4xVM/mqdefault.jpg","viewCount":"7764","playlistId":"PLEkQk5xrP-tl6tFiMFGUucCTvLgnWyAfz","playlistName":"حياة الأستاذ الدكتور يسري جبر","category":"متنوع"},{"id":"hImQ40hiHAw","title":"ماذا أفعل إذا أخذت العهد ولم أستطع الوفاء به؟","publishedAt":"2021-09-22T16:24:05Z","duration":"PT11M33S","thumbnail":"https://i.ytimg.com/vi/hImQ40hiHAw/mqdefault.jpg","viewCount":"7774","playlistId":"PLEkQk5xrP-tkGXuZ9atE3k_7it12rUPTs","playlistName":"أسئلة المتابعين","category":"متنوع"},{"id":"LU8pPhM05DI","title":"مقرأة سورة الكهف من آية ٧١","publishedAt":"2017-10-30T18:28:23Z","duration":"PT15M34S","thumbnail":"https://i.ytimg.com/vi/LU8pPhM05DI/mqdefault.jpg","viewCount":"423","playlistId":"PLEkQk5xrP-tnmTYsyW6xNdyfhPq0Bhrhj","playlistName":"مقرأة الفجر - القُرْآنُ الكَرِيمُ - خَتْمَةُ التَّدَبُّرِ  أ.د. يسري جبر","category":"متنوع"},{"id":"cvN9NLtfPuU","title":"مقرأة سورة الكهف من آية ٦٠","publishedAt":"2017-10-30T04:03:24Z","duration":"PT24M5S","thumbnail":"https://i.ytimg.com/vi/cvN9NLtfPuU/mqdefault.jpg","viewCount":"487","playlistId":"PLEkQk5xrP-tnmTYsyW6xNdyfhPq0Bhrhj","playlistName":"مقرأة الفجر - القُرْآنُ الكَرِيمُ - خَتْمَةُ التَّدَبُّرِ  أ.د. يسري جبر","category":"متنوع"},{"id":"l5T7MyrTu50","title":"مقرأة سورة الكهف من آية ٥٤","publishedAt":"2017-10-27T14:02:56Z","duration":"PT16M34S","thumbnail":"https://i.ytimg.com/vi/l5T7MyrTu50/mqdefault.jpg","viewCount":"515","playlistId":"PLEkQk5xrP-tnmTYsyW6xNdyfhPq0Bhrhj","playlistName":"مقرأة الفجر - القُرْآنُ الكَرِيمُ - خَتْمَةُ التَّدَبُّرِ  أ.د. يسري جبر","category":"متنوع"},{"id":"96GJGRbvieo","title":"مقرأة سورة الكهف من آية ٥٠","publishedAt":"2017-10-26T12:41:23Z","duration":"PT13M54S","thumbnail":"https://i.ytimg.com/vi/96GJGRbvieo/mqdefault.jpg","viewCount":"439","playlistId":"PLEkQk5xrP-tnmTYsyW6xNdyfhPq0Bhrhj","playlistName":"مقرأة الفجر - القُرْآنُ الكَرِيمُ - خَتْمَةُ التَّدَبُّرِ  أ.د. يسري جبر","category":"متنوع"},{"id":"3pFs9_rBrPc","title":"مقرأة سورة الكهف من آية ٤٥","publishedAt":"2017-10-25T19:25:49Z","duration":"PT19M54S","thumbnail":"https://i.ytimg.com/vi/3pFs9_rBrPc/mqdefault.jpg","viewCount":"487","playlistId":"PLEkQk5xrP-tnmTYsyW6xNdyfhPq0Bhrhj","playlistName":"مقرأة الفجر - القُرْآنُ الكَرِيمُ - خَتْمَةُ التَّدَبُّرِ  أ.د. يسري جبر","category":"متنوع"},{"id":"KZ_mWOAnHEM","title":"مقرأة سورة محمد من آية ٢٥","publishedAt":"2019-01-15T15:11:57Z","duration":"PT13M8S","thumbnail":"https://i.ytimg.com/vi/KZ_mWOAnHEM/mqdefault.jpg","viewCount":"325","playlistId":"PLEkQk5xrP-tnmTYsyW6xNdyfhPq0Bhrhj","playlistName":"مقرأة الفجر - القُرْآنُ الكَرِيمُ - خَتْمَةُ التَّدَبُّرِ  أ.د. يسري جبر","category":"متنوع"},{"id":"hNJfqII5wQM","title":"مقرأة سورة محمد من آية ٢٠","publishedAt":"2019-01-14T11:13:01Z","duration":"PT7M32S","thumbnail":"https://i.ytimg.com/vi/hNJfqII5wQM/mqdefault.jpg","viewCount":"319","playlistId":"PLEkQk5xrP-tnmTYsyW6xNdyfhPq0Bhrhj","playlistName":"مقرأة الفجر - القُرْآنُ الكَرِيمُ - خَتْمَةُ التَّدَبُّرِ  أ.د. يسري جبر","category":"متنوع"},{"id":"YjZDoc9iQhA","title":"مقرأة سورة محمد من آية ١٣","publishedAt":"2019-01-13T10:06:36Z","duration":"PT19M4S","thumbnail":"https://i.ytimg.com/vi/YjZDoc9iQhA/mqdefault.jpg","viewCount":"407","playlistId":"PLEkQk5xrP-tnmTYsyW6xNdyfhPq0Bhrhj","playlistName":"مقرأة الفجر - القُرْآنُ الكَرِيمُ - خَتْمَةُ التَّدَبُّرِ  أ.د. يسري جبر","category":"متنوع"},{"id":"pnKDpfvCCBM","title":"مقرأة سورة محمد من آية ٧","publishedAt":"2019-01-12T13:32:14Z","duration":"PT16M22S","thumbnail":"https://i.ytimg.com/vi/pnKDpfvCCBM/mqdefault.jpg","viewCount":"391","playlistId":"PLEkQk5xrP-tnmTYsyW6xNdyfhPq0Bhrhj","playlistName":"مقرأة الفجر - القُرْآنُ الكَرِيمُ - خَتْمَةُ التَّدَبُّرِ  أ.د. يسري جبر","category":"متنوع"},{"id":"94xiZegcYDs","title":"130- مَن عالَ جارِيَتَيْنِ حتَّى تَبْلُغا، جاءَ يَومَ القِيامَةِ أنا وهو كهاتين وضَمَّ أصابِعَهُ","publishedAt":"2021-09-21T06:27:36Z","duration":"PT51M16S","thumbnail":"https://i.ytimg.com/vi/94xiZegcYDs/mqdefault.jpg","viewCount":"1065","playlistId":"PLEkQk5xrP-tkc9DXvSLguqX5-FYp6ASR4","playlistName":"دليل الفالحين لطرق رياض الصالحين","category":"متنوع"},{"id":"tHkESVnmUNA","title":"مقرأة سورة المؤمنون آية 102","publishedAt":"2018-03-06T10:05:03Z","duration":"PT23M58S","thumbnail":"https://i.ytimg.com/vi/tHkESVnmUNA/mqdefault.jpg","viewCount":"228","playlistId":"PLEkQk5xrP-tnmTYsyW6xNdyfhPq0Bhrhj","playlistName":"مقرأة الفجر - القُرْآنُ الكَرِيمُ - خَتْمَةُ التَّدَبُّرِ  أ.د. يسري جبر","category":"متنوع"},{"id":"l51ThP-N2_4","title":"مقرأة سورة المؤمنون آية ٩٧","publishedAt":"2018-03-05T07:26:52Z","duration":"PT18M47S","thumbnail":"https://i.ytimg.com/vi/l51ThP-N2_4/mqdefault.jpg","viewCount":"259","playlistId":"PLEkQk5xrP-tnmTYsyW6xNdyfhPq0Bhrhj","playlistName":"مقرأة الفجر - القُرْآنُ الكَرِيمُ - خَتْمَةُ التَّدَبُّرِ  أ.د. يسري جبر","category":"متنوع"},{"id":"Mt4IYbY-ZHs","title":"مقرأة سورة المؤمنون آية ٨٩","publishedAt":"2018-03-04T13:13:58Z","duration":"PT12M16S","thumbnail":"https://i.ytimg.com/vi/Mt4IYbY-ZHs/mqdefault.jpg","viewCount":"232","playlistId":"PLEkQk5xrP-tnmTYsyW6xNdyfhPq0Bhrhj","playlistName":"مقرأة الفجر - القُرْآنُ الكَرِيمُ - خَتْمَةُ التَّدَبُّرِ  أ.د. يسري جبر","category":"متنوع"}],"total":4126,"page":87,"pageSize":24,"totalPages":172}