{"items":[{"id":"vjlN0NsF6t0","title":"ما هو سبب المشاكل بين الزوجين؟ وكيف تعيش حياة سعيدة مع أولادك؟","publishedAt":"2025-10-09T17:41:00Z","duration":"PT11M58S","thumbnail":"https://i.ytimg.com/vi/vjlN0NsF6t0/mqdefault.jpg","viewCount":"1499","playlistId":"PLEkQk5xrP-tm8ZIu74nTOZN9KJUJu416J","playlistName":"مقاطع مُهمَّة (يُسريَّات) أ.د. يسري جبر","category":"متنوع"},{"id":"XA5j-vE7KuU","title":"مقرأة سورة الإسراء من آية ٩","publishedAt":"2017-09-15T11:28:21Z","duration":"PT16M39S","thumbnail":"https://i.ytimg.com/vi/XA5j-vE7KuU/mqdefault.jpg","viewCount":"507","playlistId":"PLEkQk5xrP-tnmTYsyW6xNdyfhPq0Bhrhj","playlistName":"مقرأة الفجر - القُرْآنُ الكَرِيمُ - خَتْمَةُ التَّدَبُّرِ  أ.د. يسري جبر","category":"متنوع"},{"id":"LCfQ_k2m28c","title":"56- باب مَا يُنْهَى عَنْهُ مِنَ الضَّحَايَا ك الموطأ د يسري جبر الأزهري","publishedAt":"2017-09-14T13:43:27Z","duration":"PT1H5M43S","thumbnail":"https://i.ytimg.com/vi/LCfQ_k2m28c/mqdefault.jpg","viewCount":"299","playlistId":"PLEkQk5xrP-tnC6BRuqMjyO-484iqXeg0o","playlistName":"شرح كتاب الموطأ للإمام مالك","category":"متنوع"},{"id":"lgGemPfsWSc","title":"مقرأة سورة الإسراء من آية ٤","publishedAt":"2017-09-14T09:07:18Z","duration":"PT15M31S","thumbnail":"https://i.ytimg.com/vi/lgGemPfsWSc/mqdefault.jpg","viewCount":"618","playlistId":"PLEkQk5xrP-tnmTYsyW6xNdyfhPq0Bhrhj","playlistName":"مقرأة الفجر - القُرْآنُ الكَرِيمُ - خَتْمَةُ التَّدَبُّرِ  أ.د. يسري جبر","category":"متنوع"},{"id":"TvLvgTz_K_I","title":"مقرأة سورة الإسراء من أولها","publishedAt":"2017-09-13T10:12:54Z","duration":"PT17M37S","thumbnail":"https://i.ytimg.com/vi/TvLvgTz_K_I/mqdefault.jpg","viewCount":"2027","playlistId":"PLEkQk5xrP-tnmTYsyW6xNdyfhPq0Bhrhj","playlistName":"مقرأة الفجر - القُرْآنُ الكَرِيمُ - خَتْمَةُ التَّدَبُّرِ  أ.د. يسري جبر","category":"متنوع"},{"id":"7ZGdaKznX54","title":"مقرأة سورة النحل من آية ١٢٠","publishedAt":"2017-09-12T12:39:10Z","duration":"PT21M11S","thumbnail":"https://i.ytimg.com/vi/7ZGdaKznX54/mqdefault.jpg","viewCount":"343","playlistId":"PLEkQk5xrP-tnmTYsyW6xNdyfhPq0Bhrhj","playlistName":"مقرأة الفجر - القُرْآنُ الكَرِيمُ - خَتْمَةُ التَّدَبُّرِ  أ.د. يسري جبر","category":"متنوع"},{"id":"qANsLQZBDRw","title":"لا يُخرِِجُ الشهوةَ من القلبِ إلا خوفٌ مُزعِجٌ أو شوقٌ مُقلِقٌ","publishedAt":"2017-09-11T19:47:09Z","duration":"PT11M59S","thumbnail":"https://i.ytimg.com/vi/qANsLQZBDRw/mqdefault.jpg","viewCount":"5879","playlistId":"PLEkQk5xrP-tkI_meE148wc7V7XHlB0WPb","playlistName":"من الحكم العطائية  د. يسري جبر","category":"متنوع"},{"id":"P6r3yavMOJ8","title":"علاج الضعف أمام المعاصي","publishedAt":"2021-11-14T19:23:48Z","duration":"PT9M50S","thumbnail":"https://i.ytimg.com/vi/P6r3yavMOJ8/mqdefault.jpg","viewCount":"7757","playlistId":"PLEkQk5xrP-tkGXuZ9atE3k_7it12rUPTs","playlistName":"أسئلة المتابعين","category":"متنوع"},{"id":"0IdotzWdclE","title":"كيف تُدافع عن نبيك ﷺ؟","publishedAt":"2021-11-13T18:00:01Z","duration":"PT11M20S","thumbnail":"https://i.ytimg.com/vi/0IdotzWdclE/mqdefault.jpg","viewCount":"3544","playlistId":"PLEkQk5xrP-tm8ZIu74nTOZN9KJUJu416J","playlistName":"مقاطع مُهمَّة (يُسريَّات) أ.د. يسري جبر","category":"متنوع"},{"id":"jLoCeUSN97w","title":"مقرأة سورة النحل من آية ٢٤","publishedAt":"2017-08-18T06:08:16Z","duration":"PT17M15S","thumbnail":"https://i.ytimg.com/vi/jLoCeUSN97w/mqdefault.jpg","viewCount":"397","playlistId":"PLEkQk5xrP-tnmTYsyW6xNdyfhPq0Bhrhj","playlistName":"مقرأة الفجر - القُرْآنُ الكَرِيمُ - خَتْمَةُ التَّدَبُّرِ  أ.د. يسري جبر","category":"متنوع"},{"id":"zXE03CtYwII","title":"مقرأة سورة النحل من آية ١٩","publishedAt":"2017-08-17T10:04:43Z","duration":"PT14M54S","thumbnail":"https://i.ytimg.com/vi/zXE03CtYwII/mqdefault.jpg","viewCount":"389","playlistId":"PLEkQk5xrP-tnmTYsyW6xNdyfhPq0Bhrhj","playlistName":"مقرأة الفجر - القُرْآنُ الكَرِيمُ - خَتْمَةُ التَّدَبُّرِ  أ.د. يسري جبر","category":"متنوع"},{"id":"rDEjAIgyJkw","title":"مقرأة سورة النحل من آية ١٤","publishedAt":"2017-08-16T09:10:43Z","duration":"PT18M26S","thumbnail":"https://i.ytimg.com/vi/rDEjAIgyJkw/mqdefault.jpg","viewCount":"449","playlistId":"PLEkQk5xrP-tnmTYsyW6xNdyfhPq0Bhrhj","playlistName":"مقرأة الفجر - القُرْآنُ الكَرِيمُ - خَتْمَةُ التَّدَبُّرِ  أ.د. يسري جبر","category":"متنوع"},{"id":"2EZcAsRBNKE","title":"160- الحُبُّ في الله  - شرح دليل الفالحين","publishedAt":"2021-11-30T06:44:59Z","duration":"PT46M18S","thumbnail":"https://i.ytimg.com/vi/2EZcAsRBNKE/mqdefault.jpg","viewCount":"1210","playlistId":"PLEkQk5xrP-tkc9DXvSLguqX5-FYp6ASR4","playlistName":"دليل الفالحين لطرق رياض الصالحين","category":"متنوع"},{"id":"Qll_nH7zXz0","title":"كيف يكون لك دور في نهضة الإسلام؟","publishedAt":"2021-11-28T18:00:08Z","duration":"PT10M49S","thumbnail":"https://i.ytimg.com/vi/Qll_nH7zXz0/mqdefault.jpg","viewCount":"5218","playlistId":"PLEkQk5xrP-tkGXuZ9atE3k_7it12rUPTs","playlistName":"أسئلة المتابعين","category":"متنوع"},{"id":"-wqRcT4cLfU","title":"159- \"زيارة أهل الخير ومجالستهم وصحبتهم ومحبتهم…\" - شرح دليل الفالحين","publishedAt":"2021-11-28T06:51:57Z","duration":"PT38M50S","thumbnail":"https://i.ytimg.com/vi/-wqRcT4cLfU/mqdefault.jpg","viewCount":"1688","playlistId":"PLEkQk5xrP-tkc9DXvSLguqX5-FYp6ASR4","playlistName":"دليل الفالحين لطرق رياض الصالحين","category":"متنوع"},{"id":"jaEzU8YF6a0","title":"كيف نتعامل مع الجن؟","publishedAt":"2021-11-27T19:00:10Z","duration":"PT9M11S","thumbnail":"https://i.ytimg.com/vi/jaEzU8YF6a0/mqdefault.jpg","viewCount":"263070","playlistId":"PLEkQk5xrP-tkGXuZ9atE3k_7it12rUPTs","playlistName":"أسئلة المتابعين","category":"متنوع"},{"id":"2-Cm6rnxV-g","title":"158- \"…أَنزِلُوا النَّاسَ مَنازلَهُمْ…\" شرح دليل الفالحين","publishedAt":"2021-11-26T07:15:33Z","duration":"PT35M27S","thumbnail":"https://i.ytimg.com/vi/2-Cm6rnxV-g/mqdefault.jpg","viewCount":"1251","playlistId":"PLEkQk5xrP-tkc9DXvSLguqX5-FYp6ASR4","playlistName":"دليل الفالحين لطرق رياض الصالحين","category":"متنوع"},{"id":"MOp0mR1GmeI","title":"بِدَعُ التَفَاسِيرِ - المجلس التاسع.  أ.د. يسري جبر","publishedAt":"2019-12-18T07:56:56Z","duration":"PT6M39S","thumbnail":"https://i.ytimg.com/vi/MOp0mR1GmeI/mqdefault.jpg","viewCount":"875","playlistId":"PLEkQk5xrP-tkSGrPLMt1BEmJ54cGWYgtp","playlistName":"كتابُ بِدَعِ التَفَاسِيرِ - أ.د. يسري جبر","category":"متنوع"},{"id":"x9LBWk6J3DI","title":"12- \"ومن كانت هجرته لدنيا يصيبها..\" تكملة شرح حديث\"إنَّما الأعمال بالنيّات، وإنَما لكل امرئٍ ما نوى\"","publishedAt":"2021-01-31T08:02:39Z","duration":"PT47M39S","thumbnail":"https://i.ytimg.com/vi/x9LBWk6J3DI/mqdefault.jpg","viewCount":"3328","playlistId":"PLEkQk5xrP-tkc9DXvSLguqX5-FYp6ASR4","playlistName":"دليل الفالحين لطرق رياض الصالحين","category":"متنوع"},{"id":"PWJz6u3OXAA","title":"برنامج - عصمة الأنبياء - الحلقة السابعة والعشرون -  @alerthTV","publishedAt":"2021-01-30T09:13:37Z","duration":"PT28M21S","thumbnail":"https://i.ytimg.com/vi/PWJz6u3OXAA/mqdefault.jpg","viewCount":"446","playlistId":"PLEkQk5xrP-tnBp9yUT_R2vtqSPOlcyAZe","playlistName":"برنامج - عصمة الأنبياء","category":"متنوع"},{"id":"zG7cxIarlZ8","title":"مقرأة سورة النحل من آية ١٠","publishedAt":"2017-08-15T12:48:05Z","duration":"PT22M7S","thumbnail":"https://i.ytimg.com/vi/zG7cxIarlZ8/mqdefault.jpg","viewCount":"509","playlistId":"PLEkQk5xrP-tnmTYsyW6xNdyfhPq0Bhrhj","playlistName":"مقرأة الفجر - القُرْآنُ الكَرِيمُ - خَتْمَةُ التَّدَبُّرِ  أ.د. يسري جبر","category":"متنوع"},{"id":"UZQGZepBD7s","title":"عباراتهم إما لفيضان وجد أو لقصد هداية مُريد فالأول حال:السالكين والثاني:حال أرباب المُكنة والمتحققين","publishedAt":"2017-08-14T20:37:37Z","duration":"PT19M24S","thumbnail":"https://i.ytimg.com/vi/UZQGZepBD7s/mqdefault.jpg","viewCount":"827","playlistId":"PLEkQk5xrP-tkI_meE148wc7V7XHlB0WPb","playlistName":"من الحكم العطائية  د. يسري جبر","category":"متنوع"},{"id":"4bhZbzefTKE","title":"مقرأة  سورة النحل من أولها","publishedAt":"2017-08-14T11:01:42Z","duration":"PT30M17S","thumbnail":"https://i.ytimg.com/vi/4bhZbzefTKE/mqdefault.jpg","viewCount":"617","playlistId":"PLEkQk5xrP-tnmTYsyW6xNdyfhPq0Bhrhj","playlistName":"مقرأة الفجر - القُرْآنُ الكَرِيمُ - خَتْمَةُ التَّدَبُّرِ  أ.د. يسري جبر","category":"متنوع"},{"id":"b_65benHTUA","title":"124- \"احْتَجَّتِ الجنَّة والنَّار، فقالت النَّار: فيَّ الجبَّارون والمُتَكَبِّرون…\"شرح دليل الفالحين","publishedAt":"2021-09-09T06:35:11Z","duration":"PT44M6S","thumbnail":"https://i.ytimg.com/vi/b_65benHTUA/mqdefault.jpg","viewCount":"1136","playlistId":"PLEkQk5xrP-tkc9DXvSLguqX5-FYp6ASR4","playlistName":"دليل الفالحين لطرق رياض الصالحين","category":"متنوع"}],"total":4126,"page":70,"pageSize":24,"totalPages":172}