{"items":[{"id":"7Ke8mNnUm2U","title":"كيف كان نقش خاتم سيدنا محمد | اعرف نبيك","publishedAt":"2015-05-20T15:53:05Z","duration":"PT35S","thumbnail":"https://i.ytimg.com/vi/7Ke8mNnUm2U/mqdefault.jpg","viewCount":"2327","playlistId":"PLEkQk5xrP-tl6Mu_Mz3QMUSv5T6XBH-Dg","playlistName":"برنامج اعرف نبيك","category":"متنوع"},{"id":"JzeCeTZen0Y","title":"كان سيدنا محمد يُحب التيمُن ما استطاع | اعرف نبيك","publishedAt":"2015-05-20T15:52:03Z","duration":"PT26S","thumbnail":"https://i.ytimg.com/vi/JzeCeTZen0Y/mqdefault.jpg","viewCount":"802","playlistId":"PLEkQk5xrP-tl6Mu_Mz3QMUSv5T6XBH-Dg","playlistName":"برنامج اعرف نبيك","category":"متنوع"},{"id":"FIXSlMa9hyo","title":"هَدي سيدنا محمد فى ارتداء الحذاء | اعرف نبيك","publishedAt":"2015-05-20T15:42:49Z","duration":"PT46S","thumbnail":"https://i.ytimg.com/vi/FIXSlMa9hyo/mqdefault.jpg","viewCount":"915","playlistId":"PLEkQk5xrP-tl6Mu_Mz3QMUSv5T6XBH-Dg","playlistName":"برنامج اعرف نبيك","category":"متنوع"},{"id":"a_11jlvl864","title":"شرح كتاب منازل السائرين للإمام الهروى المجلس التاسع والأربعون قسم الولايات باب الصفاء وباب السرور","publishedAt":"2015-05-18T21:36:46Z","duration":"PT1H7M13S","thumbnail":"https://i.ytimg.com/vi/a_11jlvl864/mqdefault.jpg","viewCount":"1147","playlistId":"PLEkQk5xrP-tnLYi_5_tSRVBwqcs7ISV7Y","playlistName":"شرح كتاب منازل السائرين للإمام الهروي","category":"متنوع"},{"id":"-h07ZV9nnqw","title":"كيف كان عيش سيدنا محمد | اعرف نبيك","publishedAt":"2015-05-14T15:15:52Z","duration":"PT3M44S","thumbnail":"https://i.ytimg.com/vi/-h07ZV9nnqw/mqdefault.jpg","viewCount":"1424","playlistId":"PLEkQk5xrP-tl6Mu_Mz3QMUSv5T6XBH-Dg","playlistName":"برنامج اعرف نبيك","category":"متنوع"},{"id":"mpVqQ45mCaA","title":"ماهي ثياب الشهرة ولماذا كرهها سيدنا محمد | اعرف نبيك","publishedAt":"2015-05-14T14:53:26Z","duration":"PT47S","thumbnail":"https://i.ytimg.com/vi/mpVqQ45mCaA/mqdefault.jpg","viewCount":"1162","playlistId":"PLEkQk5xrP-tl6Mu_Mz3QMUSv5T6XBH-Dg","playlistName":"برنامج اعرف نبيك","category":"متنوع"},{"id":"B6o92Titpio","title":"الحكمة من لبس سيدنا محمد جميع أنواع وألوان الثياب | اعرف نبيك","publishedAt":"2015-05-14T14:46:30Z","duration":"PT2M1S","thumbnail":"https://i.ytimg.com/vi/B6o92Titpio/mqdefault.jpg","viewCount":"1213","playlistId":"PLEkQk5xrP-tl6Mu_Mz3QMUSv5T6XBH-Dg","playlistName":"برنامج اعرف نبيك","category":"متنوع"},{"id":"_onIx-uXOQw","title":"ماهي أحب الثياب إلى سيدنا محمد | اعرف نبيك","publishedAt":"2015-05-13T14:47:02Z","duration":"PT1M47S","thumbnail":"https://i.ytimg.com/vi/_onIx-uXOQw/mqdefault.jpg","viewCount":"1660","playlistId":"PLEkQk5xrP-tl6Mu_Mz3QMUSv5T6XBH-Dg","playlistName":"برنامج اعرف نبيك","category":"متنوع"},{"id":"ee5NpOB-5-M","title":"سورة المائدة آية 27","publishedAt":"2016-11-03T04:28:41Z","duration":"PT19M51S","thumbnail":"https://i.ytimg.com/vi/ee5NpOB-5-M/mqdefault.jpg","viewCount":"425","playlistId":"PLEkQk5xrP-tnmTYsyW6xNdyfhPq0Bhrhj","playlistName":"مقرأة الفجر - القُرْآنُ الكَرِيمُ - خَتْمَةُ التَّدَبُّرِ  أ.د. يسري جبر","category":"متنوع"},{"id":"Z6hL97JKP68","title":"مطلبُ العارفين من الله الصدقُ في العُبُوديَّة ، والقيامُ بحقوق الرُّبُوبَِّية","publishedAt":"2016-11-01T19:51:09Z","duration":"PT5M55S","thumbnail":"https://i.ytimg.com/vi/Z6hL97JKP68/mqdefault.jpg","viewCount":"3186","playlistId":"PLEkQk5xrP-tkI_meE148wc7V7XHlB0WPb","playlistName":"من الحكم العطائية  د. يسري جبر","category":"متنوع"},{"id":"O3I3NWmLqbc","title":"الرَّجَاءُ مَا قارنَه عَمَلٌ ، وإلَّا .. فهُو أُمْنِيَةٌ !","publishedAt":"2016-11-01T18:50:37Z","duration":"PT4M26S","thumbnail":"https://i.ytimg.com/vi/O3I3NWmLqbc/mqdefault.jpg","viewCount":"2409","playlistId":"PLEkQk5xrP-tkI_meE148wc7V7XHlB0WPb","playlistName":"من الحكم العطائية  د. يسري جبر","category":"متنوع"},{"id":"7myZezN3sN0","title":"سورة المائدة آية 20","publishedAt":"2016-11-01T05:38:33Z","duration":"PT16M29S","thumbnail":"https://i.ytimg.com/vi/7myZezN3sN0/mqdefault.jpg","viewCount":"433","playlistId":"PLEkQk5xrP-tnmTYsyW6xNdyfhPq0Bhrhj","playlistName":"مقرأة الفجر - القُرْآنُ الكَرِيمُ - خَتْمَةُ التَّدَبُّرِ  أ.د. يسري جبر","category":"متنوع"},{"id":"MVUXEIvWZfc","title":"مقامُ الفَرْقِ ومقامُ الجَمْعِ","publishedAt":"2016-10-31T13:20:31Z","duration":"PT13M2S","thumbnail":"https://i.ytimg.com/vi/MVUXEIvWZfc/mqdefault.jpg","viewCount":"7253","playlistId":"PLEkQk5xrP-tkI_meE148wc7V7XHlB0WPb","playlistName":"من الحكم العطائية  د. يسري جبر","category":"متنوع"},{"id":"s-TEi3-e4Ls","title":"سورة المائدة آية 17","publishedAt":"2016-10-31T03:42:51Z","duration":"PT11M58S","thumbnail":"https://i.ytimg.com/vi/s-TEi3-e4Ls/mqdefault.jpg","viewCount":"393","playlistId":"PLEkQk5xrP-tnmTYsyW6xNdyfhPq0Bhrhj","playlistName":"مقرأة الفجر - القُرْآنُ الكَرِيمُ - خَتْمَةُ التَّدَبُّرِ  أ.د. يسري جبر","category":"متنوع"},{"id":"Y2SDL6twmT0","title":"مقرأة سورة الزمر من آية ٣٢","publishedAt":"2018-10-22T08:23:50Z","duration":"PT27M5S","thumbnail":"https://i.ytimg.com/vi/Y2SDL6twmT0/mqdefault.jpg","viewCount":"374","playlistId":"PLEkQk5xrP-tnmTYsyW6xNdyfhPq0Bhrhj","playlistName":"مقرأة الفجر - القُرْآنُ الكَرِيمُ - خَتْمَةُ التَّدَبُّرِ  أ.د. يسري جبر","category":"متنوع"},{"id":"3VdOSC6Hvxs","title":"109 - علِّموا ويسِّروا ولا تعسِّروا وإذا غضب أحدكم فليسكت - شرح مسند الإمام أحمد رضي الله تعالى عنه","publishedAt":"2024-05-28T05:00:03Z","duration":"PT21M6S","thumbnail":"https://i.ytimg.com/vi/3VdOSC6Hvxs/mqdefault.jpg","viewCount":"1944","playlistId":"PLEkQk5xrP-tkKprIuGrSdEuBSMsyg5We1","playlistName":"شرح مسند الإمام أحمد بن حنبل","category":"متنوع"},{"id":"x1Z1qRW2v1c","title":"19- الإيمان بالغيب ونعمة الستر | شرح مختصر الفتوحات المكية","publishedAt":"2024-05-26T17:20:51Z","duration":"PT50M34S","thumbnail":"https://i.ytimg.com/vi/x1Z1qRW2v1c/mqdefault.jpg","viewCount":"8705","playlistId":"PLEkQk5xrP-tnpkdZki6rPTtMak1bnI5g-","playlistName":"شرح كتاب مختصر الفتوحات المكية المسمى لواقح الأنوار القدسية","category":"متنوع"},{"id":"rdunYXXmU10","title":"108- حكم اللعان - شرح مسند الإمام أحمد رضي الله تعالى عنه","publishedAt":"2024-05-26T06:04:25Z","duration":"PT27M5S","thumbnail":"https://i.ytimg.com/vi/rdunYXXmU10/mqdefault.jpg","viewCount":"830","playlistId":"PLEkQk5xrP-tkKprIuGrSdEuBSMsyg5We1","playlistName":"شرح مسند الإمام أحمد بن حنبل","category":"متنوع"},{"id":"uRHpuAMeTaU","title":"36- ما هو الصعيد الطيب الذي يصح به التيمم؟ | شرح سنن الدار قطني رضي الله عنه","publishedAt":"2024-05-25T09:01:00Z","duration":"PT43M22S","thumbnail":"https://i.ytimg.com/vi/uRHpuAMeTaU/mqdefault.jpg","viewCount":"1101","playlistId":"PLEkQk5xrP-tk_MCBZ706ORCw6gFtFyaGj","playlistName":"شرح سنن الإمام الدارقطني","category":"متنوع"},{"id":"YWi9EJdROWU","title":"سُورة البقرة آية 67","publishedAt":"2016-04-22T20:22:40Z","duration":"PT25M8S","thumbnail":"https://i.ytimg.com/vi/YWi9EJdROWU/mqdefault.jpg","viewCount":"1709","playlistId":"PLEkQk5xrP-tnmTYsyW6xNdyfhPq0Bhrhj","playlistName":"مقرأة الفجر - القُرْآنُ الكَرِيمُ - خَتْمَةُ التَّدَبُّرِ  أ.د. يسري جبر","category":"متنوع"},{"id":"zBxkZNoQeoA","title":"شرح كتاب تفسير القرآن من سنن الترمذي - المجلس السادس عشر","publishedAt":"2016-04-22T18:23:29Z","duration":"PT37M50S","thumbnail":"https://i.ytimg.com/vi/zBxkZNoQeoA/mqdefault.jpg","viewCount":"102","playlistId":"PLEkQk5xrP-tnu6of679SvxdVx0qSrJzmb","playlistName":"شرح سنن الإمام الترمذي رضى الله عنه د. يسري جبر","category":"متنوع"},{"id":"rQ9a_wq9qLg","title":"شرح كتاب تفسير القرآن من سنن الترمذي - المجلس الخامس عشر","publishedAt":"2016-04-22T09:23:37Z","duration":"PT33M4S","thumbnail":"https://i.ytimg.com/vi/rQ9a_wq9qLg/mqdefault.jpg","viewCount":"83","playlistId":"PLEkQk5xrP-tnu6of679SvxdVx0qSrJzmb","playlistName":"شرح سنن الإمام الترمذي رضى الله عنه د. يسري جبر","category":"متنوع"},{"id":"9SijymE11Ls","title":"حفظ القرآن  أ.د. يسري جبر","publishedAt":"2020-03-31T11:43:57Z","duration":"PT10M15S","thumbnail":"https://i.ytimg.com/vi/9SijymE11Ls/mqdefault.jpg","viewCount":"26872","playlistId":"PLEkQk5xrP-tm8ZIu74nTOZN9KJUJu416J","playlistName":"مقاطع مُهمَّة (يُسريَّات) أ.د. يسري جبر","category":"متنوع"},{"id":"mo4FfmJHXJo","title":"الخِذْلَانُ أَنْ تتفَرَّغَ مِنَ الشَوَاغِلِ ثمَّ لا تتوجَّه إِليه  أ.د. يسري جبر","publishedAt":"2020-03-30T15:19:03Z","duration":"PT6M29S","thumbnail":"https://i.ytimg.com/vi/mo4FfmJHXJo/mqdefault.jpg","viewCount":"5737","playlistId":"PLEkQk5xrP-tkI_meE148wc7V7XHlB0WPb","playlistName":"من الحكم العطائية  د. يسري جبر","category":"متنوع"}],"total":4126,"page":13,"pageSize":24,"totalPages":172}