{"items":[{"id":"FRRhRiWiOvQ","title":"69- ما هي فتنة سيدنا داود؟ | وما الفرق بين سجود التلاوة وسجود الشكر | شرح سنن الإمام الدارقطني","publishedAt":"2025-11-29T10:00:33Z","duration":"PT36M40S","thumbnail":"https://i.ytimg.com/vi/FRRhRiWiOvQ/mqdefault.jpg","viewCount":"939","playlistId":"PLEkQk5xrP-tk_MCBZ706ORCw6gFtFyaGj","playlistName":"شرح سنن الإمام الدارقطني","category":"متنوع"},{"id":"9EkSn5ofjpE","title":"مالا تعرفه عن سيرة آل البيت وكيف صبروا على البلاء؟","publishedAt":"2025-11-27T20:05:43Z","duration":"PT16M","thumbnail":"https://i.ytimg.com/vi/9EkSn5ofjpE/mqdefault.jpg","viewCount":"2274","playlistId":"PLEkQk5xrP-tm8ZIu74nTOZN9KJUJu416J","playlistName":"مقاطع مُهمَّة (يُسريَّات) أ.د. يسري جبر","category":"متنوع"},{"id":"2Y0QGnJH6HA","title":"اعمل ايه لو اكتشفت إن زوجتي بتخوني مع شخص آخر؟","publishedAt":"2025-11-26T19:30:00Z","duration":"PT10M11S","thumbnail":"https://i.ytimg.com/vi/2Y0QGnJH6HA/mqdefault.jpg","viewCount":"3236","playlistId":"PLEkQk5xrP-tkGXuZ9atE3k_7it12rUPTs","playlistName":"أسئلة المتابعين","category":"متنوع"},{"id":"SZCxQBzqyO0","title":"185- {فَلَا وَرَبِّكَ لَا يُؤْمِنُونَ حَتَّىٰ يُحَكِّمُوكَ فِيمَا شَجَرَ بَيْنَهُمْ}","publishedAt":"2025-11-25T05:30:16Z","duration":"PT18M41S","thumbnail":"https://i.ytimg.com/vi/SZCxQBzqyO0/mqdefault.jpg","viewCount":"636","playlistId":"PLEkQk5xrP-tkKprIuGrSdEuBSMsyg5We1","playlistName":"شرح مسند الإمام أحمد بن حنبل","category":"متنوع"},{"id":"Nm8DaVNcg64","title":"68- متى تفتح على الإمام في القراءة؟ | وما قدر النجاسة التي تبطل الصلاة | شرح سنن الإمام الدارقطني","publishedAt":"2025-11-23T05:30:23Z","duration":"PT32M19S","thumbnail":"https://i.ytimg.com/vi/Nm8DaVNcg64/mqdefault.jpg","viewCount":"437","playlistId":"PLEkQk5xrP-tk_MCBZ706ORCw6gFtFyaGj","playlistName":"شرح سنن الإمام الدارقطني","category":"متنوع"},{"id":"c59fuCwHKt4","title":"55- ما معنى التأويل وما أنواعه؟ | شرح مختصر الفتوحات المكية","publishedAt":"2025-11-22T19:45:03Z","duration":"PT40M19S","thumbnail":"https://i.ytimg.com/vi/c59fuCwHKt4/mqdefault.jpg","viewCount":"1198","playlistId":"PLEkQk5xrP-tnpkdZki6rPTtMak1bnI5g-","playlistName":"شرح كتاب مختصر الفتوحات المكية المسمى لواقح الأنوار القدسية","category":"متنوع"},{"id":"xOrCCgFoPXY","title":"29- العطاء من الخلق حرمان والمنع من اللّه إحسان | شرح الحكم العطائية","publishedAt":"2025-11-21T20:15:07Z","duration":"PT43M8S","thumbnail":"https://i.ytimg.com/vi/xOrCCgFoPXY/mqdefault.jpg","viewCount":"2205","playlistId":"PLEkQk5xrP-tmf5ToOwmW-q0JwxkapbrMN","playlistName":"شرح كتاب إرشاد البرية إلى بعض معاني الحكم العطائية","category":"متنوع"},{"id":"Hdy9w6VRM6o","title":"184- ما الفرق بين الرؤيا والرؤية؟ | أ.د.يسري جبر","publishedAt":"2025-11-21T10:00:26Z","duration":"PT20M29S","thumbnail":"https://i.ytimg.com/vi/Hdy9w6VRM6o/mqdefault.jpg","viewCount":"696","playlistId":"PLEkQk5xrP-tkKprIuGrSdEuBSMsyg5We1","playlistName":"شرح مسند الإمام أحمد بن حنبل","category":"متنوع"},{"id":"eLGwJOCNeHA","title":"183- {وَعَلَّمَكَ مَا لَمْ تَكُن تَعْلَمُ ۚ وَكَانَ فَضْلُ اللَّهِ عَلَيْكَ عَظِيمًا}","publishedAt":"2025-11-19T10:01:12Z","duration":"PT24M19S","thumbnail":"https://i.ytimg.com/vi/eLGwJOCNeHA/mqdefault.jpg","viewCount":"911","playlistId":"PLEkQk5xrP-tkKprIuGrSdEuBSMsyg5We1","playlistName":"شرح مسند الإمام أحمد بن حنبل","category":"متنوع"},{"id":"IkJp5BAXg50","title":"28- كيف تفهم حكمة الله في المنع والعطاء؟ | شرح الحكم العطائية","publishedAt":"2025-11-17T18:30:32Z","duration":"PT49M27S","thumbnail":"https://i.ytimg.com/vi/IkJp5BAXg50/mqdefault.jpg","viewCount":"3551","playlistId":"PLEkQk5xrP-tmf5ToOwmW-q0JwxkapbrMN","playlistName":"شرح كتاب إرشاد البرية إلى بعض معاني الحكم العطائية","category":"متنوع"},{"id":"dDX_akFojEY","title":"182- دليل جواز الذكر وختام الصلاة جهرًا جماعة - شرح مسند الإمام أحمد رضي الله تعالى عنه","publishedAt":"2025-11-17T10:01:06Z","duration":"PT20M19S","thumbnail":"https://i.ytimg.com/vi/dDX_akFojEY/mqdefault.jpg","viewCount":"570","playlistId":"PLEkQk5xrP-tkKprIuGrSdEuBSMsyg5We1","playlistName":"شرح مسند الإمام أحمد بن حنبل","category":"متنوع"},{"id":"IkusFyibm8Y","title":"99- من مبشرات النبوة الرؤيا الصالحة - شرح مسند الإمام أحمد رضي الله تعالى عنه","publishedAt":"2024-05-01T06:00:11Z","duration":"PT42M47S","thumbnail":"https://i.ytimg.com/vi/IkusFyibm8Y/mqdefault.jpg","viewCount":"1749","playlistId":"PLEkQk5xrP-tkKprIuGrSdEuBSMsyg5We1","playlistName":"شرح مسند الإمام أحمد بن حنبل","category":"متنوع"},{"id":"YepwMMKjXJU","title":"فوائد الكُحل الذى أوصانا به سيدنا محمد | اعرف نبيك","publishedAt":"2015-05-13T14:34:48Z","duration":"PT2M49S","thumbnail":"https://i.ytimg.com/vi/YepwMMKjXJU/mqdefault.jpg","viewCount":"18704","playlistId":"PLEkQk5xrP-tl6Mu_Mz3QMUSv5T6XBH-Dg","playlistName":"برنامج اعرف نبيك","category":"متنوع"},{"id":"BpTk-nqD5o0","title":"شرح كتاب منازل السائرين للإمام الهروى المجلس الثامن والأربعون قسم الولايات باب اللحظ وباب الوقت","publishedAt":"2015-05-11T18:48:32Z","duration":"PT1H23M35S","thumbnail":"https://i.ytimg.com/vi/BpTk-nqD5o0/mqdefault.jpg","viewCount":"1291","playlistId":"PLEkQk5xrP-tnLYi_5_tSRVBwqcs7ISV7Y","playlistName":"شرح كتاب منازل السائرين للإمام الهروي","category":"متنوع"},{"id":"ToNGDfkouPU","title":"شرف الله أهل مصر بشعرات من شعر النبي موجوده بالحسين | اعرف نبيك","publishedAt":"2015-05-07T15:12:38Z","duration":"PT1M6S","thumbnail":"https://i.ytimg.com/vi/ToNGDfkouPU/mqdefault.jpg","viewCount":"1109","playlistId":"PLEkQk5xrP-tl6Mu_Mz3QMUSv5T6XBH-Dg","playlistName":"برنامج اعرف نبيك","category":"متنوع"},{"id":"EJ0F3AlhmZQ","title":"هل احتاج النبي أن يختضب لوجود شيب فى شعره | اعرف نبيك","publishedAt":"2015-05-07T14:44:31Z","duration":"PT2M20S","thumbnail":"https://i.ytimg.com/vi/EJ0F3AlhmZQ/mqdefault.jpg","viewCount":"1161","playlistId":"PLEkQk5xrP-tl6Mu_Mz3QMUSv5T6XBH-Dg","playlistName":"برنامج اعرف نبيك","category":"متنوع"},{"id":"tjwZL4x3KxY","title":"كان رسول الله صلى الله عليه وسلم يُكثر دهن رأسه ويهتم بلحيته الشريفه | اعرف نبيك","publishedAt":"2015-05-06T15:32:11Z","duration":"PT1M38S","thumbnail":"https://i.ytimg.com/vi/tjwZL4x3KxY/mqdefault.jpg","viewCount":"20720","playlistId":"PLEkQk5xrP-tl6Mu_Mz3QMUSv5T6XBH-Dg","playlistName":"برنامج اعرف نبيك","category":"متنوع"},{"id":"-nvAlp44Vqc","title":"المرأة الحائض وحكم مجالستها بين الإسلام واليهودية  اعرف نبيك","publishedAt":"2015-05-06T15:29:07Z","duration":"PT2M42S","thumbnail":"https://i.ytimg.com/vi/-nvAlp44Vqc/mqdefault.jpg","viewCount":"1108","playlistId":"PLEkQk5xrP-tl6Mu_Mz3QMUSv5T6XBH-Dg","playlistName":"برنامج اعرف نبيك","category":"متنوع"},{"id":"Ih6fnet2q74","title":"ألا لا إيمان لمن لا محبة له","publishedAt":"2020-11-02T20:18:55Z","duration":"PT29M","thumbnail":"https://i.ytimg.com/vi/Ih6fnet2q74/mqdefault.jpg","viewCount":"17355","playlistId":"PLEkQk5xrP-tm8ZIu74nTOZN9KJUJu416J","playlistName":"مقاطع مُهمَّة (يُسريَّات) أ.د. يسري جبر","category":"متنوع"},{"id":"ZO5JFAdwJaY","title":"بذِكْرَى المولدِ نحيا","publishedAt":"2020-11-01T18:05:30Z","duration":"PT19M42S","thumbnail":"https://i.ytimg.com/vi/ZO5JFAdwJaY/mqdefault.jpg","viewCount":"11193","playlistId":"PLEkQk5xrP-tm8ZIu74nTOZN9KJUJu416J","playlistName":"مقاطع مُهمَّة (يُسريَّات) أ.د. يسري جبر","category":"متنوع"},{"id":"yTg_K-dBElo","title":"كيف نرد الإساءة عن النَّبيّ ﷺ؟","publishedAt":"2020-10-31T18:05:27Z","duration":"PT12M37S","thumbnail":"https://i.ytimg.com/vi/yTg_K-dBElo/mqdefault.jpg","viewCount":"13007","playlistId":"PLEkQk5xrP-tm8ZIu74nTOZN9KJUJu416J","playlistName":"مقاطع مُهمَّة (يُسريَّات) أ.د. يسري جبر","category":"متنوع"},{"id":"5X2nNe5tJoI","title":"كيف تعرف نبيك؟ (2)","publishedAt":"2020-10-30T20:49:52Z","duration":"PT49M9S","thumbnail":"https://i.ytimg.com/vi/5X2nNe5tJoI/mqdefault.jpg","viewCount":"8361","playlistId":"PLEkQk5xrP-tm8ZIu74nTOZN9KJUJu416J","playlistName":"مقاطع مُهمَّة (يُسريَّات) أ.د. يسري جبر","category":"متنوع"},{"id":"LvcFYlEl1kE","title":"مقرأة سورة الشعراء من آية ١٠","publishedAt":"2018-04-10T09:00:43Z","duration":"PT25M54S","thumbnail":"https://i.ytimg.com/vi/LvcFYlEl1kE/mqdefault.jpg","viewCount":"884","playlistId":"PLEkQk5xrP-tnmTYsyW6xNdyfhPq0Bhrhj","playlistName":"مقرأة الفجر - القُرْآنُ الكَرِيمُ - خَتْمَةُ التَّدَبُّرِ  أ.د. يسري جبر","category":"متنوع"},{"id":"wQsw_Nhp8hY","title":"مقرأة سورة الشعراء من آية ٣٢","publishedAt":"2018-04-09T11:26:37Z","duration":"PT21M9S","thumbnail":"https://i.ytimg.com/vi/wQsw_Nhp8hY/mqdefault.jpg","viewCount":"212","playlistId":"PLEkQk5xrP-tnmTYsyW6xNdyfhPq0Bhrhj","playlistName":"مقرأة الفجر - القُرْآنُ الكَرِيمُ - خَتْمَةُ التَّدَبُّرِ  أ.د. يسري جبر","category":"متنوع"}],"total":4126,"page":1,"pageSize":24,"totalPages":172}