{"items":[{"id":"ywauUyoPVv4","title":"169- حكم أولاد المشركين - شرح مسند الإمام أحمد رضي الله تعالى عنه","publishedAt":"2025-09-19T04:30:49Z","duration":"PT15M49S","thumbnail":"https://i.ytimg.com/vi/ywauUyoPVv4/mqdefault.jpg","viewCount":"486","playlistId":"PLEkQk5xrP-tkKprIuGrSdEuBSMsyg5We1","playlistName":"شرح مسند الإمام أحمد بن حنبل","category":"متنوع"},{"id":"xthaH1I4aBc","title":"لماذا يختلف الكثير من العلماء مع الصوفية؟","publishedAt":"2025-09-18T17:37:12Z","duration":"PT17M45S","thumbnail":"https://i.ytimg.com/vi/xthaH1I4aBc/mqdefault.jpg","viewCount":"2470","playlistId":"PLEkQk5xrP-tmsEDdkkXMM1ca2-AquQYad","playlistName":"شرح كتاب مدارج الحقيقة في الرابطة عند أهل الطريقة","category":"متنوع"},{"id":"9TEms_yh-E0","title":"168- دعاء الكرب - شرح مسند الإمام أحمد رضي الله تعالى عنه","publishedAt":"2025-09-17T04:15:01Z","duration":"PT18M56S","thumbnail":"https://i.ytimg.com/vi/9TEms_yh-E0/mqdefault.jpg","viewCount":"646","playlistId":"PLEkQk5xrP-tkKprIuGrSdEuBSMsyg5We1","playlistName":"شرح مسند الإمام أحمد بن حنبل","category":"متنوع"},{"id":"Zr_H7F1VvgY","title":"كلمة أ.د. يسري جبر احتفالًا بالمولد النبوي الشريف","publishedAt":"2025-09-13T18:30:53Z","duration":"PT31M54S","thumbnail":"https://i.ytimg.com/vi/Zr_H7F1VvgY/mqdefault.jpg","viewCount":"879","playlistId":"PLEkQk5xrP-tm8ZIu74nTOZN9KJUJu416J","playlistName":"مقاطع مُهمَّة (يُسريَّات) أ.د. يسري جبر","category":"متنوع"},{"id":"dNukwytgzWA","title":"كلمة د. مجدي عاشور و د. أحمد ممدوح احتفالًا بالمولد النبوي","publishedAt":"2025-09-12T18:45:02Z","duration":"PT15M20S","thumbnail":"https://i.ytimg.com/vi/dNukwytgzWA/mqdefault.jpg","viewCount":"1928","playlistId":"PLEkQk5xrP-tm8ZIu74nTOZN9KJUJu416J","playlistName":"مقاطع مُهمَّة (يُسريَّات) أ.د. يسري جبر","category":"متنوع"},{"id":"k6UH4dNUX2Y","title":"رحلة الروح بعد الوفاة وماذا يحدث بعد الموت؟","publishedAt":"2025-09-11T17:01:08Z","duration":"PT26M54S","thumbnail":"https://i.ytimg.com/vi/k6UH4dNUX2Y/mqdefault.jpg","viewCount":"6193","playlistId":"PLEkQk5xrP-tmsEDdkkXMM1ca2-AquQYad","playlistName":"شرح كتاب مدارج الحقيقة في الرابطة عند أهل الطريقة","category":"متنوع"},{"id":"u6tOsmONWjk","title":"جانب من الاحتفال بالمولد النبوي الشريف 1447","publishedAt":"2025-09-10T13:01:46Z","duration":"PT2H20M26S","thumbnail":"https://i.ytimg.com/vi/u6tOsmONWjk/mqdefault.jpg","viewCount":"2820","playlistId":"PLEkQk5xrP-tlB8lmbwjAKR8KRgiykGKhb","playlistName":"حضرات يسرية ومدائح نبوية","category":"متنوع"},{"id":"8ZNe06qNKG0","title":"هل يجوز قراءة روايات الخيال والسفر بالزمن؟","publishedAt":"2025-09-09T19:30:00Z","duration":"PT9M26S","thumbnail":"https://i.ytimg.com/vi/8ZNe06qNKG0/mqdefault.jpg","viewCount":"2224","playlistId":"PLEkQk5xrP-tkGXuZ9atE3k_7it12rUPTs","playlistName":"أسئلة المتابعين","category":"متنوع"},{"id":"yffaCPgAW_c","title":"ظاهرة خسوف القمر وكيفية صلاة الخسوف؟","publishedAt":"2025-09-07T09:15:13Z","duration":"PT12M45S","thumbnail":"https://i.ytimg.com/vi/yffaCPgAW_c/mqdefault.jpg","viewCount":"82769","playlistId":"PLEkQk5xrP-tm8ZIu74nTOZN9KJUJu416J","playlistName":"مقاطع مُهمَّة (يُسريَّات) أ.د. يسري جبر","category":"متنوع"},{"id":"lPj9HyZw2GY","title":"كيف أتخلص من الغضب وأكون واسع الصدر؟","publishedAt":"2023-07-23T18:00:30Z","duration":"PT10M20S","thumbnail":"https://i.ytimg.com/vi/lPj9HyZw2GY/mqdefault.jpg","viewCount":"18332","playlistId":"PLEkQk5xrP-tkGXuZ9atE3k_7it12rUPTs","playlistName":"أسئلة المتابعين","category":"متنوع"},{"id":"3Bsj_t5oIcs","title":"504- بيان أقلّ  أهل الجنَّة منزلة - شرح دليل الفالحين","publishedAt":"2023-07-23T08:59:00Z","duration":"PT41M50S","thumbnail":"https://i.ytimg.com/vi/3Bsj_t5oIcs/mqdefault.jpg","viewCount":"685","playlistId":"PLEkQk5xrP-tkc9DXvSLguqX5-FYp6ASR4","playlistName":"دليل الفالحين لطرق رياض الصالحين","category":"متنوع"},{"id":"IEqq1thuptk","title":"هل يجوز مصافحة النساء؟","publishedAt":"2023-07-22T18:00:04Z","duration":"PT8M49S","thumbnail":"https://i.ytimg.com/vi/IEqq1thuptk/mqdefault.jpg","viewCount":"29061","playlistId":"PLEkQk5xrP-tkGXuZ9atE3k_7it12rUPTs","playlistName":"أسئلة المتابعين","category":"متنوع"},{"id":"Wytq_i_MY3Y","title":"503- بيان ما أعدَّ اللهُ تعالى للمؤمنين في الجنة - شرح دليل الفالحين","publishedAt":"2023-07-22T08:59:00Z","duration":"PT37M29S","thumbnail":"https://i.ytimg.com/vi/Wytq_i_MY3Y/mqdefault.jpg","viewCount":"907","playlistId":"PLEkQk5xrP-tkc9DXvSLguqX5-FYp6ASR4","playlistName":"دليل الفالحين لطرق رياض الصالحين","category":"متنوع"},{"id":"XA5j-vE7KuU","title":"مقرأة سورة الإسراء من آية ٩","publishedAt":"2017-09-15T11:28:21Z","duration":"PT16M39S","thumbnail":"https://i.ytimg.com/vi/XA5j-vE7KuU/mqdefault.jpg","viewCount":"507","playlistId":"PLEkQk5xrP-tnmTYsyW6xNdyfhPq0Bhrhj","playlistName":"مقرأة الفجر - القُرْآنُ الكَرِيمُ - خَتْمَةُ التَّدَبُّرِ  أ.د. يسري جبر","category":"متنوع"},{"id":"LCfQ_k2m28c","title":"56- باب مَا يُنْهَى عَنْهُ مِنَ الضَّحَايَا ك الموطأ د يسري جبر الأزهري","publishedAt":"2017-09-14T13:43:27Z","duration":"PT1H5M43S","thumbnail":"https://i.ytimg.com/vi/LCfQ_k2m28c/mqdefault.jpg","viewCount":"299","playlistId":"PLEkQk5xrP-tnC6BRuqMjyO-484iqXeg0o","playlistName":"شرح كتاب الموطأ للإمام مالك","category":"متنوع"},{"id":"lgGemPfsWSc","title":"مقرأة سورة الإسراء من آية ٤","publishedAt":"2017-09-14T09:07:18Z","duration":"PT15M31S","thumbnail":"https://i.ytimg.com/vi/lgGemPfsWSc/mqdefault.jpg","viewCount":"618","playlistId":"PLEkQk5xrP-tnmTYsyW6xNdyfhPq0Bhrhj","playlistName":"مقرأة الفجر - القُرْآنُ الكَرِيمُ - خَتْمَةُ التَّدَبُّرِ  أ.د. يسري جبر","category":"متنوع"},{"id":"TvLvgTz_K_I","title":"مقرأة سورة الإسراء من أولها","publishedAt":"2017-09-13T10:12:54Z","duration":"PT17M37S","thumbnail":"https://i.ytimg.com/vi/TvLvgTz_K_I/mqdefault.jpg","viewCount":"2027","playlistId":"PLEkQk5xrP-tnmTYsyW6xNdyfhPq0Bhrhj","playlistName":"مقرأة الفجر - القُرْآنُ الكَرِيمُ - خَتْمَةُ التَّدَبُّرِ  أ.د. يسري جبر","category":"متنوع"},{"id":"7ZGdaKznX54","title":"مقرأة سورة النحل من آية ١٢٠","publishedAt":"2017-09-12T12:39:10Z","duration":"PT21M11S","thumbnail":"https://i.ytimg.com/vi/7ZGdaKznX54/mqdefault.jpg","viewCount":"343","playlistId":"PLEkQk5xrP-tnmTYsyW6xNdyfhPq0Bhrhj","playlistName":"مقرأة الفجر - القُرْآنُ الكَرِيمُ - خَتْمَةُ التَّدَبُّرِ  أ.د. يسري جبر","category":"متنوع"},{"id":"qANsLQZBDRw","title":"لا يُخرِِجُ الشهوةَ من القلبِ إلا خوفٌ مُزعِجٌ أو شوقٌ مُقلِقٌ","publishedAt":"2017-09-11T19:47:09Z","duration":"PT11M59S","thumbnail":"https://i.ytimg.com/vi/qANsLQZBDRw/mqdefault.jpg","viewCount":"5879","playlistId":"PLEkQk5xrP-tkI_meE148wc7V7XHlB0WPb","playlistName":"من الحكم العطائية  د. يسري جبر","category":"متنوع"},{"id":"UkVBB8e96zI","title":"مقرأة سورة النحل من آية ١١٦","publishedAt":"2017-09-11T13:17:20Z","duration":"PT8M1S","thumbnail":"https://i.ytimg.com/vi/UkVBB8e96zI/mqdefault.jpg","viewCount":"258","playlistId":"PLEkQk5xrP-tnmTYsyW6xNdyfhPq0Bhrhj","playlistName":"مقرأة الفجر - القُرْآنُ الكَرِيمُ - خَتْمَةُ التَّدَبُّرِ  أ.د. يسري جبر","category":"متنوع"},{"id":"VfqKMseAOms","title":"مقرأة سورة النحل من آية ١١١","publishedAt":"2017-09-10T11:04:25Z","duration":"PT19M57S","thumbnail":"https://i.ytimg.com/vi/VfqKMseAOms/mqdefault.jpg","viewCount":"263","playlistId":"PLEkQk5xrP-tnmTYsyW6xNdyfhPq0Bhrhj","playlistName":"مقرأة الفجر - القُرْآنُ الكَرِيمُ - خَتْمَةُ التَّدَبُّرِ  أ.د. يسري جبر","category":"متنوع"},{"id":"Yrvxz0t-Y6Y","title":"مقرأة سورة النحل من آية ١٠٤","publishedAt":"2017-09-09T12:38:07Z","duration":"PT16M48S","thumbnail":"https://i.ytimg.com/vi/Yrvxz0t-Y6Y/mqdefault.jpg","viewCount":"254","playlistId":"PLEkQk5xrP-tnmTYsyW6xNdyfhPq0Bhrhj","playlistName":"مقرأة الفجر - القُرْآنُ الكَرِيمُ - خَتْمَةُ التَّدَبُّرِ  أ.د. يسري جبر","category":"متنوع"},{"id":"dajuMDkBgao","title":"مقرأة سورة النحل من آية ٩٧","publishedAt":"2017-09-08T15:32:31Z","duration":"PT19M42S","thumbnail":"https://i.ytimg.com/vi/dajuMDkBgao/mqdefault.jpg","viewCount":"315","playlistId":"PLEkQk5xrP-tnmTYsyW6xNdyfhPq0Bhrhj","playlistName":"مقرأة الفجر - القُرْآنُ الكَرِيمُ - خَتْمَةُ التَّدَبُّرِ  أ.د. يسري جبر","category":"متنوع"},{"id":"XyPGFgGdEwQ","title":"تمكُّنُ حلاوةِ الهَوَى من القلبِ هُوَ الدَّاءُ العُضَالُ (2)","publishedAt":"2017-09-06T20:01:56Z","duration":"PT30M37S","thumbnail":"https://i.ytimg.com/vi/XyPGFgGdEwQ/mqdefault.jpg","viewCount":"1095","playlistId":"PLEkQk5xrP-tkI_meE148wc7V7XHlB0WPb","playlistName":"من الحكم العطائية  د. يسري جبر","category":"متنوع"}],"total":4126,"page":18,"pageSize":24,"totalPages":172}