{"items":[{"id":"RCWYU0BIOko","title":"Ø­Ø²Ø¨ Ø§Ù„Ù†ØµØ±   Ø¯. ÙŠØ³Ø±ÙŠ Ø¬Ø¨Ø±","publishedAt":"2018-08-27T18:53:43Z","duration":"PT4M","thumbnail":"https://i.ytimg.com/vi/RCWYU0BIOko/mqdefault.jpg","viewCount":"2378","playlistId":"PLEkQk5xrP-tk3OeVFoMfKhOhyINnlPeYZ","playlistName":"Ø§Ù„Ø­ÙØ¶Ù’Ø±ÙØ©Ù Ø§Ù„ØµÙ‘ÙØ¯Ù‘ÙÙŠÙ‚ÙÙŠÙ‘ÙØ© ÙˆØ§Ù„Ø£ÙˆÙ’Ø±ÙØ§Ø¯","category":"Ù…ØªÙ†ÙˆØ¹"},{"id":"ra3m9s2sjnk","title":"Ù…Ù†Ø§Ø¬Ø§Ø© Ø³ÙŠØ¯ÙŠ Ø£Ø­Ù…Ø¯ Ø¨Ù† Ø¹Ø·Ø§Ø¡ Ø§Ù„Ù„Ù‡ Ø§Ù„Ø³ÙƒÙ†Ø¯Ø±ÙŠ Ø±Ø¶ÙŠ Ø§Ù„Ù„Ù‡ ØªØ¹Ø§Ù„Ù‰ Ø¹Ù†Ù‡   Ø¯. ÙŠØ³Ø±ÙŠ Ø¬Ø¨Ø±","publishedAt":"2018-08-27T18:39:38Z","duration":"PT6M14S","thumbnail":"https://i.ytimg.com/vi/ra3m9s2sjnk/mqdefault.jpg","viewCount":"1973","playlistId":"PLEkQk5xrP-tk3OeVFoMfKhOhyINnlPeYZ","playlistName":"Ø§Ù„Ø­ÙØ¶Ù’Ø±ÙØ©Ù Ø§Ù„ØµÙ‘ÙØ¯Ù‘ÙÙŠÙ‚ÙÙŠÙ‘ÙØ© ÙˆØ§Ù„Ø£ÙˆÙ’Ø±ÙØ§Ø¯","category":"Ù…ØªÙ†ÙˆØ¹"},{"id":"OFYQgwV0dFA","title":"73- Ø¨Ø§Ø¨ Ù…ÙØ§ Ø¬ÙØ§Ø¡Ù ÙÙÙ‰ Ø§Ù„Ø¥ÙØ­Ù’Ø¯ÙØ§Ø¯Ù Ùƒ Ø§Ù„Ù…ÙˆØ·Ø£ Ø¯ ÙŠØ³Ø±ÙŠ Ø¬Ø¨Ø± Ø§Ù„Ø£Ø²Ù‡Ø±ÙŠ","publishedAt":"2018-08-27T11:56:54Z","duration":"PT1H54S","thumbnail":"https://i.ytimg.com/vi/OFYQgwV0dFA/mqdefault.jpg","viewCount":"189","playlistId":"PLEkQk5xrP-tnC6BRuqMjyO-484iqXeg0o","playlistName":"Ø´Ø±Ø­ ÙƒØªØ§Ø¨ Ø§Ù„Ù…ÙˆØ·Ø£ Ù„Ù„Ø¥Ù…Ø§Ù… Ù…Ø§Ù„Ùƒ","category":"Ù…ØªÙ†ÙˆØ¹"},{"id":"DrzUy4rS5Rs","title":"Ù…Ù‚Ø±Ø£Ø© Ø³ÙˆØ±Ø© ÙØ§Ø·Ø± Ù…Ù† Ø¢ÙŠØ© Ù£Ù¦","publishedAt":"2018-08-27T10:12:00Z","duration":"PT10M2S","thumbnail":"https://i.ytimg.com/vi/DrzUy4rS5Rs/mqdefault.jpg","viewCount":"239","playlistId":"PLEkQk5xrP-tnmTYsyW6xNdyfhPq0Bhrhj","playlistName":"Ù…Ù‚Ø±Ø£Ø© Ø§Ù„ÙØ¬Ø± - Ø§Ù„Ù‚ÙØ±Ù’Ø¢Ù†Ù Ø§Ù„ÙƒÙØ±ÙÙŠÙ…Ù - Ø®ÙØªÙ’Ù…ÙØ©Ù Ø§Ù„ØªÙ‘ÙØ¯ÙØ¨Ù‘ÙØ±Ù  Ø£.Ø¯. ÙŠØ³Ø±ÙŠ Ø¬Ø¨Ø±","category":"Ù…ØªÙ†ÙˆØ¹"},{"id":"1O7xOQnw4qE","title":"72- Ø¨Ø§Ø¨ Ø¹ÙØ¯Ù‘ÙØ©Ù Ø§Ù„Ù’Ù…ÙØªÙÙˆÙÙÙ‘ÙÙ‰ Ø¹ÙÙ†Ù’Ù‡ÙØ§ Ø²ÙÙˆÙ’Ø¬ÙÙ‡ÙØ§ Ø¥ÙØ°ÙØ§ ÙƒÙØ§Ù†ÙØªÙ’ Ø­ÙØ§Ù…ÙÙ„Ø§Ù‹  Ùƒ Ø§Ù„Ù…ÙˆØ·Ø£ Ø¯ ÙŠØ³Ø±ÙŠ Ø¬Ø¨Ø± Ø§Ù„Ø£Ø²Ù‡Ø±ÙŠ","publishedAt":"2018-08-26T11:52:29Z","duration":"PT41M31S","thumbnail":"https://i.ytimg.com/vi/1O7xOQnw4qE/mqdefault.jpg","viewCount":"179","playlistId":"PLEkQk5xrP-tnC6BRuqMjyO-484iqXeg0o","playlistName":"Ø´Ø±Ø­ ÙƒØªØ§Ø¨ Ø§Ù„Ù…ÙˆØ·Ø£ Ù„Ù„Ø¥Ù…Ø§Ù… Ù…Ø§Ù„Ùƒ","category":"Ù…ØªÙ†ÙˆØ¹"},{"id":"uNL7fFnFdwU","title":"Ù…Ù‚Ø±Ø£Ø© Ø³ÙˆØ±Ø© ÙØ§Ø·Ø± Ù…Ù† Ø¢ÙŠØ© Ù¢Ù©","publishedAt":"2018-08-26T07:57:54Z","duration":"PT20M1S","thumbnail":"https://i.ytimg.com/vi/uNL7fFnFdwU/mqdefault.jpg","viewCount":"263","playlistId":"PLEkQk5xrP-tnmTYsyW6xNdyfhPq0Bhrhj","playlistName":"Ù…Ù‚Ø±Ø£Ø© Ø§Ù„ÙØ¬Ø± - Ø§Ù„Ù‚ÙØ±Ù’Ø¢Ù†Ù Ø§Ù„ÙƒÙØ±ÙÙŠÙ…Ù - Ø®ÙØªÙ’Ù…ÙØ©Ù Ø§Ù„ØªÙ‘ÙØ¯ÙØ¨Ù‘ÙØ±Ù  Ø£.Ø¯. ÙŠØ³Ø±ÙŠ Ø¬Ø¨Ø±","category":"Ù…ØªÙ†ÙˆØ¹"},{"id":"liTkTuRsb9E","title":"Ø­Ø²Ø¨ Ø§Ù„Ø¥Ù…Ø§Ù… Ø§Ù„Ù†ÙˆÙˆÙŠ Ø±Ø¶ÙŠ Ø§Ù„Ù„Ù‡ ØªØ¹Ø§Ù„Ù‰ Ø¹Ù†Ù‡   Ø¯. ÙŠØ³Ø±ÙŠ Ø¬Ø¨Ø±","publishedAt":"2018-08-26T06:24:33Z","duration":"PT5M38S","thumbnail":"https://i.ytimg.com/vi/liTkTuRsb9E/mqdefault.jpg","viewCount":"12163","playlistId":"PLEkQk5xrP-tk3OeVFoMfKhOhyINnlPeYZ","playlistName":"Ø§Ù„Ø­ÙØ¶Ù’Ø±ÙØ©Ù Ø§Ù„ØµÙ‘ÙØ¯Ù‘ÙÙŠÙ‚ÙÙŠÙ‘ÙØ© ÙˆØ§Ù„Ø£ÙˆÙ’Ø±ÙØ§Ø¯","category":"Ù…ØªÙ†ÙˆØ¹"},{"id":"IJFBj4cQyZU","title":"Ù…Ø¬Ù„Ø³ Ù…Ø±ÙƒØ² ÙƒØ§Ù…Ø¨Ø±ÙŠØ¯Ø¬ Ø§Ù„Ù‚Ø±Ø¢Ù†ÙŠ | Ø§Ù†Ø¬Ù„ØªØ±Ø§ğŸ“","publishedAt":"2025-05-31T18:17:55Z","duration":"PT21M36S","thumbnail":"https://i.ytimg.com/vi/IJFBj4cQyZU/mqdefault.jpg","viewCount":"2507","playlistId":"PLEkQk5xrP-tm8ZIu74nTOZN9KJUJu416J","playlistName":"Ù…Ù‚Ø§Ø·Ø¹ Ù…ÙÙ‡Ù…ÙÙ‘Ø© (ÙŠÙØ³Ø±ÙŠÙ‘ÙØ§Øª) Ø£.Ø¯. ÙŠØ³Ø±ÙŠ Ø¬Ø¨Ø±","category":"Ù…ØªÙ†ÙˆØ¹"},{"id":"-6wXTmNvwj8","title":"Ù‚ØµØ© Ø§Ù„Ø¨Ø±Ø¯Ø© ÙˆÙØ¶Ø§Ø¦Ù„Ù‡Ø§ ÙˆÙƒØ±Ø§Ù…ØªÙ‡Ø§ | Ù„Ù†Ø¯Ù†ğŸ“","publishedAt":"2025-05-29T19:15:14Z","duration":"PT16M33S","thumbnail":"https://i.ytimg.com/vi/-6wXTmNvwj8/mqdefault.jpg","viewCount":"6190","playlistId":"PLEkQk5xrP-tm8ZIu74nTOZN9KJUJu416J","playlistName":"Ù…Ù‚Ø§Ø·Ø¹ Ù…ÙÙ‡Ù…ÙÙ‘Ø© (ÙŠÙØ³Ø±ÙŠÙ‘ÙØ§Øª) Ø£.Ø¯. ÙŠØ³Ø±ÙŠ Ø¬Ø¨Ø±","category":"Ù…ØªÙ†ÙˆØ¹"},{"id":"btlw_8-P-P0","title":"Ù…Ù‚Ø±Ø£Ø© Ø³ÙˆØ±Ø© Ø§Ù„Ù†ÙˆØ± Ù…Ù† Ø¢ÙŠØ© 58","publishedAt":"2018-03-24T06:32:06Z","duration":"PT15M8S","thumbnail":"https://i.ytimg.com/vi/btlw_8-P-P0/mqdefault.jpg","viewCount":"335","playlistId":"PLEkQk5xrP-tnmTYsyW6xNdyfhPq0Bhrhj","playlistName":"Ù…Ù‚Ø±Ø£Ø© Ø§Ù„ÙØ¬Ø± - Ø§Ù„Ù‚ÙØ±Ù’Ø¢Ù†Ù Ø§Ù„ÙƒÙØ±ÙÙŠÙ…Ù - Ø®ÙØªÙ’Ù…ÙØ©Ù Ø§Ù„ØªÙ‘ÙØ¯ÙØ¨Ù‘ÙØ±Ù  Ø£.Ø¯. ÙŠØ³Ø±ÙŠ Ø¬Ø¨Ø±","category":"Ù…ØªÙ†ÙˆØ¹"},{"id":"699MRxYfARY","title":"Ù…Ù‚Ø±Ø£Ø© Ø³ÙˆØ±Ø© Ø§Ù„Ù†ÙˆØ± Ù…Ù† Ø¢ÙŠØ© Ù¥Ù£","publishedAt":"2018-03-23T08:02:54Z","duration":"PT17M55S","thumbnail":"https://i.ytimg.com/vi/699MRxYfARY/mqdefault.jpg","viewCount":"252","playlistId":"PLEkQk5xrP-tnmTYsyW6xNdyfhPq0Bhrhj","playlistName":"Ù…Ù‚Ø±Ø£Ø© Ø§Ù„ÙØ¬Ø± - Ø§Ù„Ù‚ÙØ±Ù’Ø¢Ù†Ù Ø§Ù„ÙƒÙØ±ÙÙŠÙ…Ù - Ø®ÙØªÙ’Ù…ÙØ©Ù Ø§Ù„ØªÙ‘ÙØ¯ÙØ¨Ù‘ÙØ±Ù  Ø£.Ø¯. ÙŠØ³Ø±ÙŠ Ø¬Ø¨Ø±","category":"Ù…ØªÙ†ÙˆØ¹"},{"id":"mSaEHCPDt18","title":"Ù…Ù‚Ø±Ø£Ø© Ø³ÙˆØ±Ø© Ø§Ù„Ù†ÙˆØ± Ù…Ù† Ø¢ÙŠØ© Ù¤Ù§","publishedAt":"2018-03-22T04:07:43Z","duration":"PT20M27S","thumbnail":"https://i.ytimg.com/vi/mSaEHCPDt18/mqdefault.jpg","viewCount":"348","playlistId":"PLEkQk5xrP-tnmTYsyW6xNdyfhPq0Bhrhj","playlistName":"Ù…Ù‚Ø±Ø£Ø© Ø§Ù„ÙØ¬Ø± - Ø§Ù„Ù‚ÙØ±Ù’Ø¢Ù†Ù Ø§Ù„ÙƒÙØ±ÙÙŠÙ…Ù - Ø®ÙØªÙ’Ù…ÙØ©Ù Ø§Ù„ØªÙ‘ÙØ¯ÙØ¨Ù‘ÙØ±Ù  Ø£.Ø¯. ÙŠØ³Ø±ÙŠ Ø¬Ø¨Ø±","category":"Ù…ØªÙ†ÙˆØ¹"},{"id":"CGPnBbDUS5w","title":"Ù…Ù‚Ø±Ø£Ø© Ø³ÙˆØ±Ø© Ø§Ù„Ù†ÙˆØ± Ù…Ù† Ø¢ÙŠØ© Ù¤Ù¥","publishedAt":"2018-03-21T07:45:00Z","duration":"PT12M33S","thumbnail":"https://i.ytimg.com/vi/CGPnBbDUS5w/mqdefault.jpg","viewCount":"279","playlistId":"PLEkQk5xrP-tnmTYsyW6xNdyfhPq0Bhrhj","playlistName":"Ù…Ù‚Ø±Ø£Ø© Ø§Ù„ÙØ¬Ø± - Ø§Ù„Ù‚ÙØ±Ù’Ø¢Ù†Ù Ø§Ù„ÙƒÙØ±ÙÙŠÙ…Ù - Ø®ÙØªÙ’Ù…ÙØ©Ù Ø§Ù„ØªÙ‘ÙØ¯ÙØ¨Ù‘ÙØ±Ù  Ø£.Ø¯. ÙŠØ³Ø±ÙŠ Ø¬Ø¨Ø±","category":"Ù…ØªÙ†ÙˆØ¹"},{"id":"JeCJUOtZd9A","title":"Ù…Ù‚Ø±Ø£Ø© Ø³ÙˆØ±Ø© Ø§Ù„Ù†ÙˆØ± Ù…Ù† Ø¢ÙŠØ© Ù¤Ù¡","publishedAt":"2018-03-20T14:45:48Z","duration":"PT17M17S","thumbnail":"https://i.ytimg.com/vi/JeCJUOtZd9A/mqdefault.jpg","viewCount":"297","playlistId":"PLEkQk5xrP-tnmTYsyW6xNdyfhPq0Bhrhj","playlistName":"Ù…Ù‚Ø±Ø£Ø© Ø§Ù„ÙØ¬Ø± - Ø§Ù„Ù‚ÙØ±Ù’Ø¢Ù†Ù Ø§Ù„ÙƒÙØ±ÙÙŠÙ…Ù - Ø®ÙØªÙ’Ù…ÙØ©Ù Ø§Ù„ØªÙ‘ÙØ¯ÙØ¨Ù‘ÙØ±Ù  Ø£.Ø¯. ÙŠØ³Ø±ÙŠ Ø¬Ø¨Ø±","category":"Ù…ØªÙ†ÙˆØ¹"},{"id":"3vtbWzLm3aM","title":"Ø´Ø±Ø­ ÙƒØªØ§Ø¨ Ø§Ù„Ø²Ù‡Ø¯ Ù…Ù† Ø³Ù†Ù† Ø§Ù„ØªØ±Ù…Ø°ÙŠ - Ø§Ù„Ù…Ø¬Ù„Ø³ Ø§Ù„Ø«Ø§Ù…Ù†","publishedAt":"2016-01-09T08:04:52Z","duration":"PT31M17S","thumbnail":"https://i.ytimg.com/vi/3vtbWzLm3aM/mqdefault.jpg","viewCount":"175","playlistId":"PLEkQk5xrP-tnu6of679SvxdVx0qSrJzmb","playlistName":"Ø´Ø±Ø­ Ø³Ù†Ù† Ø§Ù„Ø¥Ù…Ø§Ù… Ø§Ù„ØªØ±Ù…Ø°ÙŠ Ø±Ø¶Ù‰ Ø§Ù„Ù„Ù‡ Ø¹Ù†Ù‡ Ø¯. ÙŠØ³Ø±ÙŠ Ø¬Ø¨Ø±","category":"Ù…ØªÙ†ÙˆØ¹"},{"id":"OTSt55Cr8dc","title":"Ø´Ø±Ø­ ÙƒØªØ§Ø¨ Ø§Ù„Ø²Ù‡Ø¯ Ù…Ù† Ø³Ù†Ù† Ø§Ù„ØªØ±Ù…Ø°ÙŠ - Ø§Ù„Ù…Ø¬Ù„Ø³ Ø§Ù„Ø³Ø§Ø¨Ø¹","publishedAt":"2016-01-08T07:44:57Z","duration":"PT36M48S","thumbnail":"https://i.ytimg.com/vi/OTSt55Cr8dc/mqdefault.jpg","viewCount":"127","playlistId":"PLEkQk5xrP-tnu6of679SvxdVx0qSrJzmb","playlistName":"Ø´Ø±Ø­ Ø³Ù†Ù† Ø§Ù„Ø¥Ù…Ø§Ù… Ø§Ù„ØªØ±Ù…Ø°ÙŠ Ø±Ø¶Ù‰ Ø§Ù„Ù„Ù‡ Ø¹Ù†Ù‡ Ø¯. ÙŠØ³Ø±ÙŠ Ø¬Ø¨Ø±","category":"Ù…ØªÙ†ÙˆØ¹"},{"id":"BYRnQjGt_LU","title":"Ø´Ø±Ø­ ÙƒØªØ§Ø¨ Ù…Ù†Ø§Ø²Ù„ Ø§Ù„Ø³Ø§Ø¦Ø±ÙŠÙ† Ù„Ù„Ø¥Ù…Ø§Ù… Ø§Ù„Ù‡Ø±ÙˆÙ‰ - Ø§Ù„Ù…Ø¬Ù„Ø³ Ø§Ù„Ø®Ø§Ù…Ø³ ÙˆØ§Ù„Ø«Ù„Ø§Ø«ÙˆÙ† Ù‚Ø³Ù… Ø§Ù„Ø£ÙØµÙˆÙ„ Ø¨Ø§Ø¨ Ø§Ù„ÙŠÙ‚ÙŠÙ† ÙˆØ¨Ø§Ø¨ Ø§Ù„Ø£Ù†Ø³","publishedAt":"2016-01-07T17:20:12Z","duration":"PT1H34M47S","thumbnail":"https://i.ytimg.com/vi/BYRnQjGt_LU/mqdefault.jpg","viewCount":"1526","playlistId":"PLEkQk5xrP-tnLYi_5_tSRVBwqcs7ISV7Y","playlistName":"Ø´Ø±Ø­ ÙƒØªØ§Ø¨ Ù…Ù†Ø§Ø²Ù„ Ø§Ù„Ø³Ø§Ø¦Ø±ÙŠÙ† Ù„Ù„Ø¥Ù…Ø§Ù… Ø§Ù„Ù‡Ø±ÙˆÙŠ","category":"Ù…ØªÙ†ÙˆØ¹"},{"id":"HoBcUKli7RM","title":"Ø´Ø±Ø­ ÙƒØªØ§Ø¨ Ø§Ù„Ø²Ù‡Ø¯ Ù…Ù† Ø³Ù†Ù† Ø§Ù„ØªØ±Ù…Ø°ÙŠ - Ø§Ù„Ù…Ø¬Ù„Ø³ Ø§Ù„Ø³Ø§Ø¯Ø³","publishedAt":"2016-01-07T06:24:19Z","duration":"PT37M1S","thumbnail":"https://i.ytimg.com/vi/HoBcUKli7RM/mqdefault.jpg","viewCount":"164","playlistId":"PLEkQk5xrP-tnu6of679SvxdVx0qSrJzmb","playlistName":"Ø´Ø±Ø­ Ø³Ù†Ù† Ø§Ù„Ø¥Ù…Ø§Ù… Ø§Ù„ØªØ±Ù…Ø°ÙŠ Ø±Ø¶Ù‰ Ø§Ù„Ù„Ù‡ Ø¹Ù†Ù‡ Ø¯. ÙŠØ³Ø±ÙŠ Ø¬Ø¨Ø±","category":"Ù…ØªÙ†ÙˆØ¹"},{"id":"W0RQV9kqLIU","title":"ÙƒÙŠÙ Ø£Ø°Ø§ÙƒØ± Ø¨Ø¯ÙˆÙ† Ù…Ù„Ù„ØŸ","publishedAt":"2021-06-06T19:40:22Z","duration":"PT8M5S","thumbnail":"https://i.ytimg.com/vi/W0RQV9kqLIU/mqdefault.jpg","viewCount":"15841","playlistId":"PLEkQk5xrP-tm8ZIu74nTOZN9KJUJu416J","playlistName":"Ù…Ù‚Ø§Ø·Ø¹ Ù…ÙÙ‡Ù…ÙÙ‘Ø© (ÙŠÙØ³Ø±ÙŠÙ‘ÙØ§Øª) Ø£.Ø¯. ÙŠØ³Ø±ÙŠ Ø¬Ø¨Ø±","category":"Ù…ØªÙ†ÙˆØ¹"},{"id":"GzpjyJIuX6o","title":"74- Ø¨ÙŠØ§Ù† ÙƒØ«Ø±Ø© Ø·ÙØ±ÙÙ‚ Ø§Ù„Ø®ÙŠØ±\"â€¦Ø£ÙŠÙ‘Ù Ø§Ù„Ø£Ø¹Ù…Ø§Ù„Ù Ø£ÙÙ’Ø¶ÙÙ„Ù ØŸâ€¦\" Ø´Ø±Ø­ Ø¯Ù„ÙŠÙ„ Ø§Ù„ÙØ§Ù„Ø­ÙŠÙ†","publishedAt":"2021-06-06T07:27:18Z","duration":"PT34M3S","thumbnail":"https://i.ytimg.com/vi/GzpjyJIuX6o/mqdefault.jpg","viewCount":"1659","playlistId":"PLEkQk5xrP-tkc9DXvSLguqX5-FYp6ASR4","playlistName":"Ø¯Ù„ÙŠÙ„ Ø§Ù„ÙØ§Ù„Ø­ÙŠÙ† Ù„Ø·Ø±Ù‚ Ø±ÙŠØ§Ø¶ Ø§Ù„ØµØ§Ù„Ø­ÙŠÙ†","category":"Ù…ØªÙ†ÙˆØ¹"},{"id":"KbbSeinsJ1s","title":"Ù…Ù‚Ø±Ø£Ø© Ø³ÙˆØ±Ø© Ø§Ù„ÙƒÙ‡Ù Ù…Ù† Ø¢ÙŠØ© Ù¢Ù©","publishedAt":"2017-10-20T08:04:21Z","duration":"PT12M28S","thumbnail":"https://i.ytimg.com/vi/KbbSeinsJ1s/mqdefault.jpg","viewCount":"406","playlistId":"PLEkQk5xrP-tnmTYsyW6xNdyfhPq0Bhrhj","playlistName":"Ù…Ù‚Ø±Ø£Ø© Ø§Ù„ÙØ¬Ø± - Ø§Ù„Ù‚ÙØ±Ù’Ø¢Ù†Ù Ø§Ù„ÙƒÙØ±ÙÙŠÙ…Ù - Ø®ÙØªÙ’Ù…ÙØ©Ù Ø§Ù„ØªÙ‘ÙØ¯ÙØ¨Ù‘ÙØ±Ù  Ø£.Ø¯. ÙŠØ³Ø±ÙŠ Ø¬Ø¨Ø±","category":"Ù…ØªÙ†ÙˆØ¹"},{"id":"V2Wvt7iaVS8","title":"Ù…Ù‚Ø±Ø£Ø© Ø³ÙˆØ±Ø© Ø§Ù„ÙƒÙ‡Ù Ù…Ù† Ø¢ÙŠØ© Ù¢Ù§","publishedAt":"2017-10-19T11:29:13Z","duration":"PT24M36S","thumbnail":"https://i.ytimg.com/vi/V2Wvt7iaVS8/mqdefault.jpg","viewCount":"448","playlistId":"PLEkQk5xrP-tnmTYsyW6xNdyfhPq0Bhrhj","playlistName":"Ù…Ù‚Ø±Ø£Ø© Ø§Ù„ÙØ¬Ø± - Ø§Ù„Ù‚ÙØ±Ù’Ø¢Ù†Ù Ø§Ù„ÙƒÙØ±ÙÙŠÙ…Ù - Ø®ÙØªÙ’Ù…ÙØ©Ù Ø§Ù„ØªÙ‘ÙØ¯ÙØ¨Ù‘ÙØ±Ù  Ø£.Ø¯. ÙŠØ³Ø±ÙŠ Ø¬Ø¨Ø±","category":"Ù…ØªÙ†ÙˆØ¹"},{"id":"gWKmvpIFrq0","title":"Ù…Ø§ Ù‡ÙŠ Ø¢Ø¯Ø§Ø¨ Ø§Ù„Ø¯Ø®ÙˆÙ„ ÙÙŠ Ø·Ø±ÙŠÙ‚ Ø§Ù„ØªØµÙˆÙØŸ","publishedAt":"2025-08-05T19:30:06Z","duration":"PT30M21S","thumbnail":"https://i.ytimg.com/vi/gWKmvpIFrq0/mqdefault.jpg","viewCount":"2791","playlistId":"PLEkQk5xrP-tmsEDdkkXMM1ca2-AquQYad","playlistName":"Ø´Ø±Ø­ ÙƒØªØ§Ø¨ Ù…Ø¯Ø§Ø±Ø¬ Ø§Ù„Ø­Ù‚ÙŠÙ‚Ø© ÙÙŠ Ø§Ù„Ø±Ø§Ø¨Ø·Ø© Ø¹Ù†Ø¯ Ø£Ù‡Ù„ Ø§Ù„Ø·Ø±ÙŠÙ‚Ø©","category":"Ù…ØªÙ†ÙˆØ¹"},{"id":"YTX7be3sk_4","title":"Ù‡Ù„ Ø£Ø¯Ø¹ÙŠ Ø±Ø¨Ù†Ø§ Ø¨ÙƒÙ„ Ø­Ø§Ø¬Ø© Ø­ØªÙ‰ Ù„Ùˆ ÙƒØ§Ù†Øª Ù…Ø³ØªØ­ÙŠÙ„Ø©ØŸ","publishedAt":"2025-08-04T18:15:02Z","duration":"PT9M11S","thumbnail":"https://i.ytimg.com/vi/YTX7be3sk_4/mqdefault.jpg","viewCount":"5818","playlistId":"PLEkQk5xrP-tkGXuZ9atE3k_7it12rUPTs","playlistName":"Ø£Ø³Ø¦Ù„Ø© Ø§Ù„Ù…ØªØ§Ø¨Ø¹ÙŠÙ†","category":"Ù…ØªÙ†ÙˆØ¹"}],"total":4126,"page":56,"pageSize":24,"totalPages":172}