{"items":[{"id":"hcuuu2cwAJw","title":"تبرك الصحابة بماء وضوء رسول الله | اعرف نبيك","publishedAt":"2015-09-03T16:09:48Z","duration":"PT5M12S","thumbnail":"https://i.ytimg.com/vi/hcuuu2cwAJw/mqdefault.jpg","viewCount":"2086","playlistId":"PLEkQk5xrP-tl6Mu_Mz3QMUSv5T6XBH-Dg","playlistName":"برنامج اعرف نبيك","category":"متنوع"},{"id":"9rY-Nyn1ISw","title":"عطف النبي صلى الله عليه  وسلم علي الفقراء | اعرف نبيك","publishedAt":"2015-09-03T16:04:11Z","duration":"PT7M18S","thumbnail":"https://i.ytimg.com/vi/9rY-Nyn1ISw/mqdefault.jpg","viewCount":"1039","playlistId":"PLEkQk5xrP-tl6Mu_Mz3QMUSv5T6XBH-Dg","playlistName":"برنامج اعرف نبيك","category":"متنوع"},{"id":"3LpnEb24Czo","title":"مجلس رسول الله صلى الله عليه وسلم | اعرف نبيك","publishedAt":"2015-09-03T15:52:41Z","duration":"PT5M18S","thumbnail":"https://i.ytimg.com/vi/3LpnEb24Czo/mqdefault.jpg","viewCount":"282","playlistId":"PLEkQk5xrP-tl6Mu_Mz3QMUSv5T6XBH-Dg","playlistName":"برنامج اعرف نبيك","category":"متنوع"},{"id":"DuJJz7k30lQ","title":"تواضع النبي صلى الله عليه وسلم | اعرف نبيك","publishedAt":"2015-09-02T15:27:46Z","duration":"PT6M18S","thumbnail":"https://i.ytimg.com/vi/DuJJz7k30lQ/mqdefault.jpg","viewCount":"537","playlistId":"PLEkQk5xrP-tl6Mu_Mz3QMUSv5T6XBH-Dg","playlistName":"برنامج اعرف نبيك","category":"متنوع"},{"id":"YMoOdu6NY1s","title":"تواضع رسول الله صلى الله عليه وسلم | اعرف نبيك","publishedAt":"2015-08-27T16:07:14Z","duration":"PT7M28S","thumbnail":"https://i.ytimg.com/vi/YMoOdu6NY1s/mqdefault.jpg","viewCount":"285","playlistId":"PLEkQk5xrP-tl6Mu_Mz3QMUSv5T6XBH-Dg","playlistName":"برنامج اعرف نبيك","category":"متنوع"},{"id":"sO1Q9FdKLWc","title":"تواضع رسول الله | اعرف نبيك","publishedAt":"2015-08-27T15:31:58Z","duration":"PT6M56S","thumbnail":"https://i.ytimg.com/vi/sO1Q9FdKLWc/mqdefault.jpg","viewCount":"538","playlistId":"PLEkQk5xrP-tl6Mu_Mz3QMUSv5T6XBH-Dg","playlistName":"برنامج اعرف نبيك","category":"متنوع"},{"id":"GhjsVLLOEnk","title":"شرح كتاب الأشربة من سنن الترمذي - المجلس الثالث","publishedAt":"2015-08-27T05:11:22Z","duration":"PT27M40S","thumbnail":"https://i.ytimg.com/vi/GhjsVLLOEnk/mqdefault.jpg","viewCount":"170","playlistId":"PLEkQk5xrP-tnu6of679SvxdVx0qSrJzmb","playlistName":"شرح سنن الإمام الترمذي رضى الله عنه د. يسري جبر","category":"متنوع"},{"id":"iz3d0vMtV2M","title":"بكاء النبي صلى الله عليه وسلم عند وفاة  أخوه في الرضاعة | اعرف نبيك","publishedAt":"2015-08-26T15:30:37Z","duration":"PT9M18S","thumbnail":"https://i.ytimg.com/vi/iz3d0vMtV2M/mqdefault.jpg","viewCount":"2399","playlistId":"PLEkQk5xrP-tl6Mu_Mz3QMUSv5T6XBH-Dg","playlistName":"برنامج اعرف نبيك","category":"متنوع"},{"id":"11jz1O1G7K8","title":"بكاء النبي صلى الله عليه وسلم عند وفاة ابنه إبراهيم | اعرف نبيك","publishedAt":"2015-08-26T15:22:06Z","duration":"PT7M6S","thumbnail":"https://i.ytimg.com/vi/11jz1O1G7K8/mqdefault.jpg","viewCount":"9036","playlistId":"PLEkQk5xrP-tl6Mu_Mz3QMUSv5T6XBH-Dg","playlistName":"برنامج اعرف نبيك","category":"متنوع"},{"id":"BK-LYYCCnzo","title":"شرح كتاب الأشربة من سنن الترمذي - المجلس الثاني","publishedAt":"2015-08-26T05:02:15Z","duration":"PT31M","thumbnail":"https://i.ytimg.com/vi/BK-LYYCCnzo/mqdefault.jpg","viewCount":"137","playlistId":"PLEkQk5xrP-tnu6of679SvxdVx0qSrJzmb","playlistName":"شرح سنن الإمام الترمذي رضى الله عنه د. يسري جبر","category":"متنوع"},{"id":"ABUprosReE4","title":"شرح كتاب الأشربة من سنن الترمذي - المجلس الأول","publishedAt":"2015-08-25T04:54:00Z","duration":"PT28M","thumbnail":"https://i.ytimg.com/vi/ABUprosReE4/mqdefault.jpg","viewCount":"131","playlistId":"PLEkQk5xrP-tnu6of679SvxdVx0qSrJzmb","playlistName":"شرح سنن الإمام الترمذي رضى الله عنه د. يسري جبر","category":"متنوع"},{"id":"Fwiqbr1Fbks","title":"شرح كتاب الأطعمة من سنن الترمذي - المجلس الثامن","publishedAt":"2015-08-24T04:39:16Z","duration":"PT27M47S","thumbnail":"https://i.ytimg.com/vi/Fwiqbr1Fbks/mqdefault.jpg","viewCount":"147","playlistId":"PLEkQk5xrP-tnu6of679SvxdVx0qSrJzmb","playlistName":"شرح سنن الإمام الترمذي رضى الله عنه د. يسري جبر","category":"متنوع"},{"id":"1Rfndz7VdRI","title":"منازل السائرين للإمام الهروى المجلس الثالث والخمسون قسم الحقائق أبواب الحياة والقبض والبسط","publishedAt":"2015-08-23T02:04:17Z","duration":"PT1H9M32S","thumbnail":"https://i.ytimg.com/vi/1Rfndz7VdRI/mqdefault.jpg","viewCount":"1302","playlistId":"PLEkQk5xrP-tnLYi_5_tSRVBwqcs7ISV7Y","playlistName":"شرح كتاب منازل السائرين للإمام الهروي","category":"متنوع"},{"id":"03hsNTI7N8c","title":"منازل السائرين للإمام الهروى المجلس الثانى والخمسون قسم الحقائق أبواب المكاشفة والمشاهدة والمعاينة","publishedAt":"2015-08-22T18:27:26Z","duration":"PT1H3M27S","thumbnail":"https://i.ytimg.com/vi/03hsNTI7N8c/mqdefault.jpg","viewCount":"2105","playlistId":"PLEkQk5xrP-tnLYi_5_tSRVBwqcs7ISV7Y","playlistName":"شرح كتاب منازل السائرين للإمام الهروي","category":"متنوع"},{"id":"S3CbrdI-BlA","title":"شرح كتاب الأطعمة من سنن الترمذي - المجلس السادس","publishedAt":"2015-08-22T07:21:22Z","duration":"PT36M46S","thumbnail":"https://i.ytimg.com/vi/S3CbrdI-BlA/mqdefault.jpg","viewCount":"109","playlistId":"PLEkQk5xrP-tnu6of679SvxdVx0qSrJzmb","playlistName":"شرح سنن الإمام الترمذي رضى الله عنه د. يسري جبر","category":"متنوع"},{"id":"vAIutO_k4zg","title":"قراءة حزب البحر","publishedAt":"2015-08-22T05:55:36Z","duration":"PT5M46S","thumbnail":"https://i.ytimg.com/vi/vAIutO_k4zg/mqdefault.jpg","viewCount":"3833","playlistId":"PLEkQk5xrP-tlB8lmbwjAKR8KRgiykGKhb","playlistName":"حضرات يسرية ومدائح نبوية","category":"متنوع"},{"id":"0yh9ajlZq-I","title":"بكاء النبي عن قراءة آيات الله | اعرف نبيك","publishedAt":"2015-08-20T16:56:33Z","duration":"PT7M31S","thumbnail":"https://i.ytimg.com/vi/0yh9ajlZq-I/mqdefault.jpg","viewCount":"366","playlistId":"PLEkQk5xrP-tl6Mu_Mz3QMUSv5T6XBH-Dg","playlistName":"برنامج اعرف نبيك","category":"متنوع"},{"id":"jF-84QrWLj4","title":"ماذا فعل رسول الله عند فتح مكة | أعرف نبيك","publishedAt":"2015-08-20T16:51:37Z","duration":"PT6M52S","thumbnail":"https://i.ytimg.com/vi/jF-84QrWLj4/mqdefault.jpg","viewCount":"387","playlistId":"PLEkQk5xrP-tl6Mu_Mz3QMUSv5T6XBH-Dg","playlistName":"برنامج اعرف نبيك","category":"متنوع"},{"id":"FRurDNaA0tE","title":"كيفية قراءة رسول الله للقرآن | اعرف نبيك","publishedAt":"2015-08-20T16:46:10Z","duration":"PT6M6S","thumbnail":"https://i.ytimg.com/vi/FRurDNaA0tE/mqdefault.jpg","viewCount":"4489","playlistId":"PLEkQk5xrP-tl6Mu_Mz3QMUSv5T6XBH-Dg","playlistName":"برنامج اعرف نبيك","category":"متنوع"},{"id":"EgGyjDadW7c","title":"شرح كتاب الأطعمة من جامع الترمذي - المجلس الرابع","publishedAt":"2015-08-20T04:52:46Z","duration":"PT33M26S","thumbnail":"https://i.ytimg.com/vi/EgGyjDadW7c/mqdefault.jpg","viewCount":"121","playlistId":"PLEkQk5xrP-tnu6of679SvxdVx0qSrJzmb","playlistName":"شرح سنن الإمام الترمذي رضى الله عنه د. يسري جبر","category":"متنوع"},{"id":"8INs_E9RlCI","title":"تعرف على صيام النبي صلى الله عليه وسلم | اعرف نبيك","publishedAt":"2015-08-19T15:20:59Z","duration":"PT5M40S","thumbnail":"https://i.ytimg.com/vi/8INs_E9RlCI/mqdefault.jpg","viewCount":"2462","playlistId":"PLEkQk5xrP-tl6Mu_Mz3QMUSv5T6XBH-Dg","playlistName":"برنامج اعرف نبيك","category":"متنوع"},{"id":"WA_Lg-AnOK8","title":"شرح كتاب الأطعمة من جامع الترمذي - المجلس الثالث","publishedAt":"2015-08-19T04:40:23Z","duration":"PT32M30S","thumbnail":"https://i.ytimg.com/vi/WA_Lg-AnOK8/mqdefault.jpg","viewCount":"108","playlistId":"PLEkQk5xrP-tnu6of679SvxdVx0qSrJzmb","playlistName":"شرح سنن الإمام الترمذي رضى الله عنه د. يسري جبر","category":"متنوع"},{"id":"IzqYD_OT5Rc","title":"شرح كتاب الأطعمة من جامع الترمذي - المجلس الثاني","publishedAt":"2015-08-18T16:58:26Z","duration":"PT33M47S","thumbnail":"https://i.ytimg.com/vi/IzqYD_OT5Rc/mqdefault.jpg","viewCount":"177","playlistId":"PLEkQk5xrP-tnu6of679SvxdVx0qSrJzmb","playlistName":"شرح سنن الإمام الترمذي رضى الله عنه د. يسري جبر","category":"متنوع"},{"id":"8W1FNXH2PTA","title":"شرح كتاب اللباس من جامع الترمذي - المجلس السادس","publishedAt":"2015-08-16T04:53:28Z","duration":"PT40M8S","thumbnail":"https://i.ytimg.com/vi/8W1FNXH2PTA/mqdefault.jpg","viewCount":"101","playlistId":"PLEkQk5xrP-tnu6of679SvxdVx0qSrJzmb","playlistName":"شرح سنن الإمام الترمذي رضى الله عنه د. يسري جبر","category":"متنوع"}],"total":4126,"page":88,"pageSize":24,"totalPages":172}