{"items":[{"id":"c7rSbnwaU4M","title":"ÙƒÙŠÙ ØªØµÙ„ Ø¥Ù„Ù‰ Ù…Ù‚Ø§Ù… Ø§Ù„Ø´ÙƒØ± ÙÙŠ 4 Ø®Ø·ÙˆØ§ØªØŸ","publishedAt":"2025-11-01T18:32:22Z","duration":"PT12M38S","thumbnail":"https://i.ytimg.com/vi/c7rSbnwaU4M/mqdefault.jpg","viewCount":"1993","playlistId":"PLEkQk5xrP-tm8ZIu74nTOZN9KJUJu416J","playlistName":"Ù…Ù‚Ø§Ø·Ø¹ Ù…ÙÙ‡Ù…ÙÙ‘Ø© (ÙŠÙØ³Ø±ÙŠÙ‘ÙØ§Øª) Ø£.Ø¯. ÙŠØ³Ø±ÙŠ Ø¬Ø¨Ø±","category":"Ù…ØªÙ†ÙˆØ¹"},{"id":"DC4H7pcCAO0","title":"ÙˆØµØ§ÙŠØ§ Ù„Ù„Ù…Ø³Ù„Ù…ÙŠÙ† ÙÙŠ Ø£ÙˆØ±ÙˆØ¨Ø§ ÙˆØ¨Ù„Ø§Ø¯ Ø§Ù„ØºØ±Ø¨ | Ø¥Ø´Ø¨ÙŠÙ„ÙŠØ© - Ø§Ø³Ø¨Ø§Ù†ÙŠØ§ğŸ“","publishedAt":"2025-10-31T19:30:06Z","duration":"PT14M3S","thumbnail":"https://i.ytimg.com/vi/DC4H7pcCAO0/mqdefault.jpg","viewCount":"2743","playlistId":"PLEkQk5xrP-tm8ZIu74nTOZN9KJUJu416J","playlistName":"Ù…Ù‚Ø§Ø·Ø¹ Ù…ÙÙ‡Ù…ÙÙ‘Ø© (ÙŠÙØ³Ø±ÙŠÙ‘ÙØ§Øª) Ø£.Ø¯. ÙŠØ³Ø±ÙŠ Ø¬Ø¨Ø±","category":"Ù…ØªÙ†ÙˆØ¹"},{"id":"-ZjZOCRijVs","title":"ÙƒÙŠÙÙŠØ© ØªØ¹Ø§Ù…Ù„ Ø§Ù„Ø£Ø²ÙˆØ§Ø¬ Ù…Ø¹ Ø²ÙˆØ¬Ø§ØªÙ‡Ù… ÙÙŠ Ù‡Ø°Ø§ Ø§Ù„Ø²Ù…Ø§Ù†ØŸ","publishedAt":"2024-12-10T18:15:00Z","duration":"PT9M29S","thumbnail":"https://i.ytimg.com/vi/-ZjZOCRijVs/mqdefault.jpg","viewCount":"3623","playlistId":"PLEkQk5xrP-tkGXuZ9atE3k_7it12rUPTs","playlistName":"Ø£Ø³Ø¦Ù„Ø© Ø§Ù„Ù…ØªØ§Ø¨Ø¹ÙŠÙ†","category":"Ù…ØªÙ†ÙˆØ¹"},{"id":"tKGe7OheOts","title":"143- Ù…Ø¹Ù†Ù‰ Ù„Ø¨Ù‘ÙÙŠÙƒ Ø§Ù„Ù„Ù‘ÙÙ‡ÙÙ…Ù‘Ù Ù„Ø¨Ù‘ÙÙŠÙƒ - Ø´Ø±Ø­ Ù…Ø³Ù†Ø¯ Ø§Ù„Ø¥Ù…Ø§Ù… Ø£Ø­Ù…Ø¯ Ø±Ø¶ÙŠ Ø§Ù„Ù„Ù‡ ØªØ¹Ø§Ù„Ù‰ Ø¹Ù†Ù‡","publishedAt":"2024-12-10T06:15:02Z","duration":"PT16M37S","thumbnail":"https://i.ytimg.com/vi/tKGe7OheOts/mqdefault.jpg","viewCount":"615","playlistId":"PLEkQk5xrP-tkKprIuGrSdEuBSMsyg5We1","playlistName":"Ø´Ø±Ø­ Ù…Ø³Ù†Ø¯ Ø§Ù„Ø¥Ù…Ø§Ù… Ø£Ø­Ù…Ø¯ Ø¨Ù† Ø­Ù†Ø¨Ù„","category":"Ù…ØªÙ†ÙˆØ¹"},{"id":"B9-jYxqSK_4","title":"Ø­ÙŠØ§ØªÙŠ ÙƒÙ„Ù‡Ø§ Ù…Ø´Ø§ÙƒÙ„ ÙˆØµØ¹ÙˆØ¨Ø§Øª ,, ÙÙ…Ø§Ø°Ø§ Ø£ÙØ¹Ù„ØŸ","publishedAt":"2024-12-09T18:56:42Z","duration":"PT8M37S","thumbnail":"https://i.ytimg.com/vi/B9-jYxqSK_4/mqdefault.jpg","viewCount":"6163","playlistId":"PLEkQk5xrP-tkGXuZ9atE3k_7it12rUPTs","playlistName":"Ø£Ø³Ø¦Ù„Ø© Ø§Ù„Ù…ØªØ§Ø¨Ø¹ÙŠÙ†","category":"Ù…ØªÙ†ÙˆØ¹"},{"id":"JqfxbVe4kBY","title":"Ù…Ø§ Ù‡ÙŠ Ø§Ù„Ù…Ø¹Ø§ØµÙŠ Ø§Ù„ØªÙŠ ØªØ­Ø¨Ø· Ø§Ù„Ø¹Ù…Ù„ØŸ","publishedAt":"2024-12-08T18:31:27Z","duration":"PT9M28S","thumbnail":"https://i.ytimg.com/vi/JqfxbVe4kBY/mqdefault.jpg","viewCount":"2852","playlistId":"PLEkQk5xrP-tnZyxWbCSqTSMV9BJLUL-zN","playlistName":"Ø´Ø±Ø­ ÙƒØªØ§Ø¨ ØªÙ†ÙˆÙŠØ± Ø§Ù„Ø¨ØµÙŠØ±Ø© Ø¨Ø¨ÙŠØ§Ù† Ø¹Ù„Ø§Ù…Ø§Øª Ø§Ù„ÙƒØ¨ÙŠØ±Ø©","category":"Ù…ØªÙ†ÙˆØ¹"},{"id":"6qath8Fb_j8","title":"142- Ø­Ø§Ù„ Ø§Ù„Ù…Ø¤Ù…Ù† ÙÙŠ Ø§Ù„Ø¯Ù†ÙŠØ§ - Ø´Ø±Ø­ Ù…Ø³Ù†Ø¯ Ø§Ù„Ø¥Ù…Ø§Ù… Ø£Ø­Ù…Ø¯ Ø±Ø¶ÙŠ Ø§Ù„Ù„Ù‡ ØªØ¹Ø§Ù„Ù‰ Ø¹Ù†Ù‡","publishedAt":"2024-12-08T06:15:00Z","duration":"PT25M29S","thumbnail":"https://i.ytimg.com/vi/6qath8Fb_j8/mqdefault.jpg","viewCount":"1611","playlistId":"PLEkQk5xrP-tkKprIuGrSdEuBSMsyg5We1","playlistName":"Ø´Ø±Ø­ Ù…Ø³Ù†Ø¯ Ø§Ù„Ø¥Ù…Ø§Ù… Ø£Ø­Ù…Ø¯ Ø¨Ù† Ø­Ù†Ø¨Ù„","category":"Ù…ØªÙ†ÙˆØ¹"},{"id":"Qi7jqkTx3DI","title":"47- ØµÙØ© Ø§Ù„ØµØ¨Ø­ ÙˆØ§Ù„Ø´ÙÙ‚ ÙˆÙ…Ø§ ØªØ¬Ø¨ Ø¨Ù‡ Ø§Ù„ØµÙ„Ø§Ø© | Ø´Ø±Ø­ Ø³Ù†Ù† Ø§Ù„Ø¯Ø§Ø± Ù‚Ø·Ù†ÙŠ Ø±Ø¶ÙŠ Ø§Ù„Ù„Ù‡ Ø¹Ù†Ù‡","publishedAt":"2024-12-07T09:00:32Z","duration":"PT49M51S","thumbnail":"https://i.ytimg.com/vi/Qi7jqkTx3DI/mqdefault.jpg","viewCount":"834","playlistId":"PLEkQk5xrP-tk_MCBZ706ORCw6gFtFyaGj","playlistName":"Ø´Ø±Ø­ Ø³Ù†Ù† Ø§Ù„Ø¥Ù…Ø§Ù… Ø§Ù„Ø¯Ø§Ø±Ù‚Ø·Ù†ÙŠ","category":"Ù…ØªÙ†ÙˆØ¹"},{"id":"hekABP-CK0s","title":"34- Ù…Ø§ Ø§Ù„ÙØ±Ù‚ Ø¨ÙŠÙ† Ù†Ø§Ø± Ø§Ù„ØªÙ†Ù‚ÙŠØ© ÙˆÙ†Ø§Ø± Ø§Ù„Ø®Ù„ÙˆØ¯ØŸ | Ø´Ø±Ø­ Ù…Ø®ØªØµØ± Ø§Ù„ÙØªÙˆØ­Ø§Øª Ø§Ù„Ù…ÙƒÙŠØ©","publishedAt":"2024-12-06T18:15:02Z","duration":"PT46M11S","thumbnail":"https://i.ytimg.com/vi/hekABP-CK0s/mqdefault.jpg","viewCount":"3449","playlistId":"PLEkQk5xrP-tnpkdZki6rPTtMak1bnI5g-","playlistName":"Ø´Ø±Ø­ ÙƒØªØ§Ø¨ Ù…Ø®ØªØµØ± Ø§Ù„ÙØªÙˆØ­Ø§Øª Ø§Ù„Ù…ÙƒÙŠØ© Ø§Ù„Ù…Ø³Ù…Ù‰ Ù„ÙˆØ§Ù‚Ø­ Ø§Ù„Ø£Ù†ÙˆØ§Ø± Ø§Ù„Ù‚Ø¯Ø³ÙŠØ©","category":"Ù…ØªÙ†ÙˆØ¹"},{"id":"lBU6JH59B8k","title":"Ø²ÙˆØ¬ÙŠ ÙŠØ¹Ø§Ù…Ù„ Ø£Ù…ÙŠ Ø¨Ø·Ø±ÙŠÙ‚Ø© Ø³ÙŠØ¦Ø© ÙˆÙŠØ±ÙØ¶ Ù…Ø±Ø§Ø¹Ø§ØªÙŠ Ù„Ù‡Ø§ ,, ÙÙ…Ø§Ø°Ø§ Ø£ÙØ¹Ù„ Ù…Ø¹Ù‡ØŸ","publishedAt":"2024-12-05T19:23:59Z","duration":"PT9M4S","thumbnail":"https://i.ytimg.com/vi/lBU6JH59B8k/mqdefault.jpg","viewCount":"2610","playlistId":"PLEkQk5xrP-tkGXuZ9atE3k_7it12rUPTs","playlistName":"Ø£Ø³Ø¦Ù„Ø© Ø§Ù„Ù…ØªØ§Ø¨Ø¹ÙŠÙ†","category":"Ù…ØªÙ†ÙˆØ¹"},{"id":"YamautdzMbw","title":"141- Ø­ÙƒÙ… Ù…ÙÙ† ÙƒØªÙ… Ø¹ÙÙ„Ù…ÙÙ‡ ÙˆØºÙØ´Ù‘Ù Ø§Ù„Ù†Ø§Ø³ - Ø´Ø±Ø­ Ù…Ø³Ù†Ø¯ Ø§Ù„Ø¥Ù…Ø§Ù… Ø£Ø­Ù…Ø¯ Ø±Ø¶ÙŠ Ø§Ù„Ù„Ù‡ ØªØ¹Ø§Ù„Ù‰ Ø¹Ù†Ù‡","publishedAt":"2024-12-04T06:47:32Z","duration":"PT34M33S","thumbnail":"https://i.ytimg.com/vi/YamautdzMbw/mqdefault.jpg","viewCount":"691","playlistId":"PLEkQk5xrP-tkKprIuGrSdEuBSMsyg5We1","playlistName":"Ø´Ø±Ø­ Ù…Ø³Ù†Ø¯ Ø§Ù„Ø¥Ù…Ø§Ù… Ø£Ø­Ù…Ø¯ Ø¨Ù† Ø­Ù†Ø¨Ù„","category":"Ù…ØªÙ†ÙˆØ¹"},{"id":"LfYUg_LyhCU","title":"Ù‡Ù„ ÙŠÙ…ÙƒÙ†Ù†Ø§ Ø±Ø¤ÙŠØ© Ø§Ù„Ù„Ù‡ ÙŠÙˆÙ… Ø§Ù„Ù‚ÙŠØ§Ù…Ø© ÙˆÙ‡Ù„ Ø±Ø£Ù‰ Ø§Ù„Ù†Ø¨ÙŠ Ø±Ø¨Ù‡ØŸ","publishedAt":"2024-12-03T18:21:30Z","duration":"PT11M50S","thumbnail":"https://i.ytimg.com/vi/LfYUg_LyhCU/mqdefault.jpg","viewCount":"2755","playlistId":"PLEkQk5xrP-tkGXuZ9atE3k_7it12rUPTs","playlistName":"Ø£Ø³Ø¦Ù„Ø© Ø§Ù„Ù…ØªØ§Ø¨Ø¹ÙŠÙ†","category":"Ù…ØªÙ†ÙˆØ¹"},{"id":"e5-zCuZO2sw","title":"Ù…Ø§ Ù‡ÙŠ Ø§Ù„Ù…Ø¹Ø§ØµÙŠ Ø§Ù„ØªÙŠ ØªÙ…Ù†Ø¹ Ù…Ù† Ù‚Ø¨ÙˆÙ„ Ø§Ù„ØªÙˆØ¨Ø©ØŸ","publishedAt":"2024-12-02T18:06:40Z","duration":"PT21M39S","thumbnail":"https://i.ytimg.com/vi/e5-zCuZO2sw/mqdefault.jpg","viewCount":"3382","playlistId":"PLEkQk5xrP-tnZyxWbCSqTSMV9BJLUL-zN","playlistName":"Ø´Ø±Ø­ ÙƒØªØ§Ø¨ ØªÙ†ÙˆÙŠØ± Ø§Ù„Ø¨ØµÙŠØ±Ø© Ø¨Ø¨ÙŠØ§Ù† Ø¹Ù„Ø§Ù…Ø§Øª Ø§Ù„ÙƒØ¨ÙŠØ±Ø©","category":"Ù…ØªÙ†ÙˆØ¹"},{"id":"kRgerExYEvg","title":"46-  ÙƒÙŠÙÙŠØ© ØªØ­Ø¯ÙŠØ¯ Ù…ÙˆØ§Ù‚ÙŠØª Ø§Ù„ØµÙ„Ø§Ø© | Ø´Ø±Ø­ Ø³Ù†Ù† Ø§Ù„Ø¯Ø§Ø± Ù‚Ø·Ù†ÙŠ Ø±Ø¶ÙŠ Ø§Ù„Ù„Ù‡ Ø¹Ù†Ù‡","publishedAt":"2024-11-30T09:00:50Z","duration":"PT39M38S","thumbnail":"https://i.ytimg.com/vi/kRgerExYEvg/mqdefault.jpg","viewCount":"623","playlistId":"PLEkQk5xrP-tk_MCBZ706ORCw6gFtFyaGj","playlistName":"Ø´Ø±Ø­ Ø³Ù†Ù† Ø§Ù„Ø¥Ù…Ø§Ù… Ø§Ù„Ø¯Ø§Ø±Ù‚Ø·Ù†ÙŠ","category":"Ù…ØªÙ†ÙˆØ¹"},{"id":"fsH4HzBeN6U","title":"140-Ø£Ù‡Ù…ÙŠØ© Ø¯Ø¹Ø§Ø¡ Ø§Ù„ØªØ´Ù‡Ø¯ Ù‚Ø¨Ù„ Ø§Ù„ØªØ³Ù„ÙŠÙ… - Ø´Ø±Ø­ Ù…Ø³Ù†Ø¯ Ø§Ù„Ø¥Ù…Ø§Ù… Ø£Ø­Ù…Ø¯ Ø±Ø¶ÙŠ Ø§Ù„Ù„Ù‡ ØªØ¹Ø§Ù„Ù‰ Ø¹Ù†Ù‡","publishedAt":"2024-11-29T06:00:31Z","duration":"PT19M13S","thumbnail":"https://i.ytimg.com/vi/fsH4HzBeN6U/mqdefault.jpg","viewCount":"1064","playlistId":"PLEkQk5xrP-tkKprIuGrSdEuBSMsyg5We1","playlistName":"Ø´Ø±Ø­ Ù…Ø³Ù†Ø¯ Ø§Ù„Ø¥Ù…Ø§Ù… Ø£Ø­Ù…Ø¯ Ø¨Ù† Ø­Ù†Ø¨Ù„","category":"Ù…ØªÙ†ÙˆØ¹"},{"id":"_5WkkB8ejWM","title":"ÙƒÙŠÙ ØªØ¹ÙŠØ´ Ø¹Ù„Ù‰ Ø³Ù†Ø© Ø§Ù„Ù†Ø¨ÙŠï·º ÙÙŠ Ø­ÙŠØ§ØªÙƒØŸ","publishedAt":"2024-11-26T17:00:14Z","duration":"PT15M49S","thumbnail":"https://i.ytimg.com/vi/_5WkkB8ejWM/mqdefault.jpg","viewCount":"2690","playlistId":"PLEkQk5xrP-tmJzNvLntpzW0uPanPzxA0c","playlistName":"Ù„Ù‚Ø§Ø¡Ø§Øª ÙˆÙ…Ø­Ø§Ø¶Ø±Ø§Øª","category":"Ù…ØªÙ†ÙˆØ¹"},{"id":"gyPPnxZqVLE","title":"Ù…Ù‚Ø±Ø£Ø© Ø³ÙˆØ±Ø© Øµ Ù…Ù† Ø¢ÙŠØ© 55","publishedAt":"2018-10-06T20:15:25Z","duration":"PT19M8S","thumbnail":"https://i.ytimg.com/vi/gyPPnxZqVLE/mqdefault.jpg","viewCount":"361","playlistId":"PLEkQk5xrP-tnmTYsyW6xNdyfhPq0Bhrhj","playlistName":"Ù…Ù‚Ø±Ø£Ø© Ø§Ù„ÙØ¬Ø± - Ø§Ù„Ù‚ÙØ±Ù’Ø¢Ù†Ù Ø§Ù„ÙƒÙØ±ÙÙŠÙ…Ù - Ø®ÙØªÙ’Ù…ÙØ©Ù Ø§Ù„ØªÙ‘ÙØ¯ÙØ¨Ù‘ÙØ±Ù  Ø£.Ø¯. ÙŠØ³Ø±ÙŠ Ø¬Ø¨Ø±","category":"Ù…ØªÙ†ÙˆØ¹"},{"id":"wwTptGo-wBY","title":"Ø­Ø¨Ù‘Ù Ø§Ù„ØµÙ‘ÙØ§Ù„ÙØ­ÙÙŠÙ†Ù ÙˆØ§Ù„ØªÙ‘ÙØ¹Ù„Ù‘ÙÙ‚ Ø¨ÙÙ‡ÙÙ…  Ø¯. ÙŠØ³Ø±ÙŠ Ø¬Ø¨Ø±","publishedAt":"2018-10-05T17:45:16Z","duration":"PT24M49S","thumbnail":"https://i.ytimg.com/vi/wwTptGo-wBY/mqdefault.jpg","viewCount":"46006","playlistId":"PLEkQk5xrP-tnzc5Igd5ZE8_G2H6afJ4L5","playlistName":"Ù…Ø¬Ø§Ù„Ø³ Ø±Ø­Ù„Ø© Ø³ÙŠØ¯ÙŠ Ø£Ø¨ÙŠ Ø§Ù„Ø­Ø³Ù† Ø§Ù„Ø´Ø§Ø°Ù„ÙŠ Ø±Ø¶ÙŠ Ø§Ù„Ù„Ù‡ ØªØ¹Ø§Ù„Ù‰ Ø¹Ù†Ù‡.","category":"Ù…ØªÙ†ÙˆØ¹"},{"id":"grDs_z2qC_4","title":"Ù…Ù‚Ø±Ø£Ø© Ø³ÙˆØ±Ø© Øµ Ù…Ù† Ø¢ÙŠØ© Ù¤Ù¥","publishedAt":"2018-10-05T14:24:35Z","duration":"PT14M2S","thumbnail":"https://i.ytimg.com/vi/grDs_z2qC_4/mqdefault.jpg","viewCount":"408","playlistId":"PLEkQk5xrP-tnmTYsyW6xNdyfhPq0Bhrhj","playlistName":"Ù…Ù‚Ø±Ø£Ø© Ø§Ù„ÙØ¬Ø± - Ø§Ù„Ù‚ÙØ±Ù’Ø¢Ù†Ù Ø§Ù„ÙƒÙØ±ÙÙŠÙ…Ù - Ø®ÙØªÙ’Ù…ÙØ©Ù Ø§Ù„ØªÙ‘ÙØ¯ÙØ¨Ù‘ÙØ±Ù  Ø£.Ø¯. ÙŠØ³Ø±ÙŠ Ø¬Ø¨Ø±","category":"Ù…ØªÙ†ÙˆØ¹"},{"id":"iOAeskBcDEc","title":"Ù…Ù‚Ø±Ø£Ø© Ø³ÙˆØ±Ø© Øµ Ù…Ù† Ø¢ÙŠØ© Ù¤Ù¡","publishedAt":"2018-10-04T11:12:14Z","duration":"PT18M26S","thumbnail":"https://i.ytimg.com/vi/iOAeskBcDEc/mqdefault.jpg","viewCount":"610","playlistId":"PLEkQk5xrP-tnmTYsyW6xNdyfhPq0Bhrhj","playlistName":"Ù…Ù‚Ø±Ø£Ø© Ø§Ù„ÙØ¬Ø± - Ø§Ù„Ù‚ÙØ±Ù’Ø¢Ù†Ù Ø§Ù„ÙƒÙØ±ÙÙŠÙ…Ù - Ø®ÙØªÙ’Ù…ÙØ©Ù Ø§Ù„ØªÙ‘ÙØ¯ÙØ¨Ù‘ÙØ±Ù  Ø£.Ø¯. ÙŠØ³Ø±ÙŠ Ø¬Ø¨Ø±","category":"Ù…ØªÙ†ÙˆØ¹"},{"id":"hVk67GdjVmI","title":"Ù…Ù‚Ø±Ø£Ø© Ø³ÙˆØ±Ø© Øµ Ù…Ù† Ø¢ÙŠØ© Ù¢Ù§","publishedAt":"2018-10-03T10:51:56Z","duration":"PT25M54S","thumbnail":"https://i.ytimg.com/vi/hVk67GdjVmI/mqdefault.jpg","viewCount":"505","playlistId":"PLEkQk5xrP-tnmTYsyW6xNdyfhPq0Bhrhj","playlistName":"Ù…Ù‚Ø±Ø£Ø© Ø§Ù„ÙØ¬Ø± - Ø§Ù„Ù‚ÙØ±Ù’Ø¢Ù†Ù Ø§Ù„ÙƒÙØ±ÙÙŠÙ…Ù - Ø®ÙØªÙ’Ù…ÙØ©Ù Ø§Ù„ØªÙ‘ÙØ¯ÙØ¨Ù‘ÙØ±Ù  Ø£.Ø¯. ÙŠØ³Ø±ÙŠ Ø¬Ø¨Ø±","category":"Ù…ØªÙ†ÙˆØ¹"},{"id":"4ETddfGONPk","title":"Ù…Ù‚Ø±Ø£Ø© Ø³ÙˆØ±Ø© Øµ Ù…Ù† Ø¢ÙŠØ©Ù¢Ù¡","publishedAt":"2018-10-01T21:45:30Z","duration":"PT28M5S","thumbnail":"https://i.ytimg.com/vi/4ETddfGONPk/mqdefault.jpg","viewCount":"636","playlistId":"PLEkQk5xrP-tnmTYsyW6xNdyfhPq0Bhrhj","playlistName":"Ù…Ù‚Ø±Ø£Ø© Ø§Ù„ÙØ¬Ø± - Ø§Ù„Ù‚ÙØ±Ù’Ø¢Ù†Ù Ø§Ù„ÙƒÙØ±ÙÙŠÙ…Ù - Ø®ÙØªÙ’Ù…ÙØ©Ù Ø§Ù„ØªÙ‘ÙØ¯ÙØ¨Ù‘ÙØ±Ù  Ø£.Ø¯. ÙŠØ³Ø±ÙŠ Ø¬Ø¨Ø±","category":"Ù…ØªÙ†ÙˆØ¹"},{"id":"QzkKoD0W3t4","title":"Ù…Ù‚Ø±Ø£Ø© Ø³ÙˆØ±Ø© Øµ Ù…Ù† Ø¢ÙŠØ© Ù©","publishedAt":"2018-09-30T22:44:09Z","duration":"PT19M14S","thumbnail":"https://i.ytimg.com/vi/QzkKoD0W3t4/mqdefault.jpg","viewCount":"566","playlistId":"PLEkQk5xrP-tnmTYsyW6xNdyfhPq0Bhrhj","playlistName":"Ù…Ù‚Ø±Ø£Ø© Ø§Ù„ÙØ¬Ø± - Ø§Ù„Ù‚ÙØ±Ù’Ø¢Ù†Ù Ø§Ù„ÙƒÙØ±ÙÙŠÙ…Ù - Ø®ÙØªÙ’Ù…ÙØ©Ù Ø§Ù„ØªÙ‘ÙØ¯ÙØ¨Ù‘ÙØ±Ù  Ø£.Ø¯. ÙŠØ³Ø±ÙŠ Ø¬Ø¨Ø±","category":"Ù…ØªÙ†ÙˆØ¹"},{"id":"PdDMo4K_oYQ","title":"Ø§Ù„Ø§ÙØªÙ‚Ø§Ø± Ø¥Ù„Ù‰ Ø§Ù„Ù„Ù‡ Ù‡Ùˆ Ø£ØµÙ„ Ø§Ù„Ø·Ø±ÙŠÙ‚  Ø¯. ÙŠØ³Ø±ÙŠ Ø¬Ø¨Ø±","publishedAt":"2018-09-30T18:47:09Z","duration":"PT13M59S","thumbnail":"https://i.ytimg.com/vi/PdDMo4K_oYQ/mqdefault.jpg","viewCount":"9184","playlistId":"PLEkQk5xrP-tnzc5Igd5ZE8_G2H6afJ4L5","playlistName":"Ù…Ø¬Ø§Ù„Ø³ Ø±Ø­Ù„Ø© Ø³ÙŠØ¯ÙŠ Ø£Ø¨ÙŠ Ø§Ù„Ø­Ø³Ù† Ø§Ù„Ø´Ø§Ø°Ù„ÙŠ Ø±Ø¶ÙŠ Ø§Ù„Ù„Ù‡ ØªØ¹Ø§Ù„Ù‰ Ø¹Ù†Ù‡.","category":"Ù…ØªÙ†ÙˆØ¹"}],"total":4126,"page":8,"pageSize":24,"totalPages":172}