{"items":[{"id":"cpFkM74nI5g","title":"فضل وثواب صلاة الجماعة | مجالس رمضانية","publishedAt":"2025-03-09T15:00:50Z","duration":"PT18M55S","thumbnail":"https://i.ytimg.com/vi/cpFkM74nI5g/mqdefault.jpg","viewCount":"1382","playlistId":"PLEkQk5xrP-tkeI_WVPfuoTJO46aVkpaz0","playlistName":"شرح كتاب ميزان الاعتدال لحفظ الدين والأحوال","category":"متنوع"},{"id":"kREQDe3-xYU","title":"هل يجب هجر المؤمن العاصي؟","publishedAt":"2021-02-11T18:17:58Z","duration":"PT30M35S","thumbnail":"https://i.ytimg.com/vi/kREQDe3-xYU/mqdefault.jpg","viewCount":"4215","playlistId":"PLEkQk5xrP-tnAJa3yfebXD7wNC_ECfZNt","playlistName":"كتاب النفحة الذكية في أن الهجر بدعة شركية","category":"متنوع"},{"id":"nPdD1_P5ce4","title":"شرح سنن الدارمي كتاب الرقاق من باب ١٠٠","publishedAt":"2019-10-08T11:56:16Z","duration":"PT38M49S","thumbnail":"https://i.ytimg.com/vi/nPdD1_P5ce4/mqdefault.jpg","viewCount":"422","playlistId":"PLEkQk5xrP-tmAg-FuWjY057X_h5NmGmAa","playlistName":"شرح سنن الدارمي - أ.د. يسري جبر (كاملا)","category":"متنوع"},{"id":"Q6A7xK5YmC4","title":"شرح سنن الدارمي كتاب الرقاق من باب ٨١","publishedAt":"2019-10-06T10:46:59Z","duration":"PT39M39S","thumbnail":"https://i.ytimg.com/vi/Q6A7xK5YmC4/mqdefault.jpg","viewCount":"402","playlistId":"PLEkQk5xrP-tmAg-FuWjY057X_h5NmGmAa","playlistName":"شرح سنن الدارمي - أ.د. يسري جبر (كاملا)","category":"متنوع"},{"id":"cvAK1HNWH_Q","title":"145- \"كان أبو طَلْحَةَ أكثرَ الأنصارِ بالمَدينَةِ مالًا من نخلٍ…\" - شرح دليل الفالحين","publishedAt":"2021-10-21T06:41:08Z","duration":"PT35M35S","thumbnail":"https://i.ytimg.com/vi/cvAK1HNWH_Q/mqdefault.jpg","viewCount":"1329","playlistId":"PLEkQk5xrP-tkc9DXvSLguqX5-FYp6ASR4","playlistName":"دليل الفالحين لطرق رياض الصالحين","category":"متنوع"},{"id":"H23FCoJORIw","title":"144- \"…مَن أحَقُّ النَّاسِ بحُسْنِ صَحَابَتِي؟ قالَ: أُمُّكَ، قال: ثُمَّ مَنْ؟…\"- شرح دليل الفالحين","publishedAt":"2021-10-20T05:58:09Z","duration":"PT36M31S","thumbnail":"https://i.ytimg.com/vi/H23FCoJORIw/mqdefault.jpg","viewCount":"1065","playlistId":"PLEkQk5xrP-tkc9DXvSLguqX5-FYp6ASR4","playlistName":"دليل الفالحين لطرق رياض الصالحين","category":"متنوع"},{"id":"DlL777Mpk8w","title":"ماذا حدث أثناء مولد النبي ﷺ؟","publishedAt":"2021-10-18T18:50:32Z","duration":"PT19M34S","thumbnail":"https://i.ytimg.com/vi/DlL777Mpk8w/mqdefault.jpg","viewCount":"14043","playlistId":"PLEkQk5xrP-tlnvX_MSpJzq0sTimnumdYK","playlistName":"كيف تعرفُ نبيّك؟","category":"متنوع"},{"id":"QJ0aZoaejhw","title":"143- لا يَجزي ولدٌ والدًا إلَّا أنْ يجِدهُ مملوكًا فيشتريَهُ فيُعتقَهُ - شرح دليل الفالحين","publishedAt":"2021-10-18T06:21:37Z","duration":"PT25M28S","thumbnail":"https://i.ytimg.com/vi/QJ0aZoaejhw/mqdefault.jpg","viewCount":"834","playlistId":"PLEkQk5xrP-tkc9DXvSLguqX5-FYp6ASR4","playlistName":"دليل الفالحين لطرق رياض الصالحين","category":"متنوع"},{"id":"-xG1tGl-id8","title":"هل صلاة الجمعة تسقط فرض الظهر؟","publishedAt":"2021-10-17T18:30:01Z","duration":"PT8M46S","thumbnail":"https://i.ytimg.com/vi/-xG1tGl-id8/mqdefault.jpg","viewCount":"19742","playlistId":"PLEkQk5xrP-tkGXuZ9atE3k_7it12rUPTs","playlistName":"أسئلة المتابعين","category":"متنوع"},{"id":"5-zldDhkndM","title":"شرح سنن الدارمي - المقدمة - ٤٨","publishedAt":"2019-03-30T21:47:12Z","duration":"PT31M11S","thumbnail":"https://i.ytimg.com/vi/5-zldDhkndM/mqdefault.jpg","viewCount":"486","playlistId":"PLEkQk5xrP-tmAg-FuWjY057X_h5NmGmAa","playlistName":"شرح سنن الدارمي - أ.د. يسري جبر (كاملا)","category":"متنوع"},{"id":"96882MYyTjs","title":"مقرأة سورة المجادلة من آية ٢٠","publishedAt":"2019-03-30T19:41:07Z","duration":"PT20M35S","thumbnail":"https://i.ytimg.com/vi/96882MYyTjs/mqdefault.jpg","viewCount":"428","playlistId":"PLEkQk5xrP-tnmTYsyW6xNdyfhPq0Bhrhj","playlistName":"مقرأة الفجر - القُرْآنُ الكَرِيمُ - خَتْمَةُ التَّدَبُّرِ  أ.د. يسري جبر","category":"متنوع"},{"id":"y-hWgtYoeHs","title":"شرح سنن الدارمي - المقدمة - ٤٦","publishedAt":"2019-03-28T20:59:52Z","duration":"PT41M49S","thumbnail":"https://i.ytimg.com/vi/y-hWgtYoeHs/mqdefault.jpg","viewCount":"516","playlistId":"PLEkQk5xrP-tmAg-FuWjY057X_h5NmGmAa","playlistName":"شرح سنن الدارمي - أ.د. يسري جبر (كاملا)","category":"متنوع"},{"id":"HDL6459NZbs","title":"مقرأة سورة المجادلة من آية ١٢","publishedAt":"2019-03-28T11:18:55Z","duration":"PT14M7S","thumbnail":"https://i.ytimg.com/vi/HDL6459NZbs/mqdefault.jpg","viewCount":"428","playlistId":"PLEkQk5xrP-tnmTYsyW6xNdyfhPq0Bhrhj","playlistName":"مقرأة الفجر - القُرْآنُ الكَرِيمُ - خَتْمَةُ التَّدَبُّرِ  أ.د. يسري جبر","category":"متنوع"},{"id":"C2uwRPxpMCE","title":"شرح سنن الدارمي - المقدمة - ٤٤","publishedAt":"2019-03-27T22:38:54Z","duration":"PT40M58S","thumbnail":"https://i.ytimg.com/vi/C2uwRPxpMCE/mqdefault.jpg","viewCount":"527","playlistId":"PLEkQk5xrP-tmAg-FuWjY057X_h5NmGmAa","playlistName":"شرح سنن الدارمي - أ.د. يسري جبر (كاملا)","category":"متنوع"},{"id":"mJlhoAGG47M","title":"مقرأة سورة المجادلة من آية ٩","publishedAt":"2019-03-27T13:34:18Z","duration":"PT14M19S","thumbnail":"https://i.ytimg.com/vi/mJlhoAGG47M/mqdefault.jpg","viewCount":"437","playlistId":"PLEkQk5xrP-tnmTYsyW6xNdyfhPq0Bhrhj","playlistName":"مقرأة الفجر - القُرْآنُ الكَرِيمُ - خَتْمَةُ التَّدَبُّرِ  أ.د. يسري جبر","category":"متنوع"},{"id":"4xICkXjxtkA","title":"برنامج - عصمة الأنبياء - الحلقة الثانية والعشرون - شبهات حول نبي الله موسى( 3) - @alerthTV","publishedAt":"2019-03-27T07:00:02Z","duration":"PT28M7S","thumbnail":"https://i.ytimg.com/vi/4xICkXjxtkA/mqdefault.jpg","viewCount":"337","playlistId":"PLEkQk5xrP-tnBp9yUT_R2vtqSPOlcyAZe","playlistName":"برنامج - عصمة الأنبياء","category":"متنوع"},{"id":"aUoBTBL7dqc","title":"شرح سنن الدارمي - المقدمة - ٤٣","publishedAt":"2019-03-26T21:53:48Z","duration":"PT37M19S","thumbnail":"https://i.ytimg.com/vi/aUoBTBL7dqc/mqdefault.jpg","viewCount":"466","playlistId":"PLEkQk5xrP-tmAg-FuWjY057X_h5NmGmAa","playlistName":"شرح سنن الدارمي - أ.د. يسري جبر (كاملا)","category":"متنوع"},{"id":"2-2988Tc08g","title":"برنامج - عصمة الأنبياء - الحلقة الحادي والعشرون عشر - شبهات حول نبي الله موسى (2) - @alerthTV","publishedAt":"2019-03-26T20:30:00Z","duration":"PT25M46S","thumbnail":"https://i.ytimg.com/vi/2-2988Tc08g/mqdefault.jpg","viewCount":"404","playlistId":"PLEkQk5xrP-tnBp9yUT_R2vtqSPOlcyAZe","playlistName":"برنامج - عصمة الأنبياء","category":"متنوع"},{"id":"ZUQmyGEbd2g","title":"شرح سنن الدارمي كتاب الرقاق من باب ٧٢","publishedAt":"2019-10-05T17:40:28Z","duration":"PT27M38S","thumbnail":"https://i.ytimg.com/vi/ZUQmyGEbd2g/mqdefault.jpg","viewCount":"449","playlistId":"PLEkQk5xrP-tmAg-FuWjY057X_h5NmGmAa","playlistName":"شرح سنن الدارمي - أ.د. يسري جبر (كاملا)","category":"متنوع"},{"id":"AYviZseVQuI","title":"شرح سنن الدارمي كتاب الرقاق من باب ٦١","publishedAt":"2019-10-04T22:39:40Z","duration":"PT28M47S","thumbnail":"https://i.ytimg.com/vi/AYviZseVQuI/mqdefault.jpg","viewCount":"395","playlistId":"PLEkQk5xrP-tmAg-FuWjY057X_h5NmGmAa","playlistName":"شرح سنن الدارمي - أ.د. يسري جبر (كاملا)","category":"متنوع"},{"id":"doBBE703GgA","title":"شرح سنن الدارمي كتاب الرقاق من باب ٤٥","publishedAt":"2019-10-03T19:32:04Z","duration":"PT26M50S","thumbnail":"https://i.ytimg.com/vi/doBBE703GgA/mqdefault.jpg","viewCount":"376","playlistId":"PLEkQk5xrP-tmAg-FuWjY057X_h5NmGmAa","playlistName":"شرح سنن الدارمي - أ.د. يسري جبر (كاملا)","category":"متنوع"},{"id":"H5NXIFze9uw","title":"شرح سنن الدارمي كتاب الرقاق من باب ٣٤","publishedAt":"2019-10-02T12:38:27Z","duration":"PT31M38S","thumbnail":"https://i.ytimg.com/vi/H5NXIFze9uw/mqdefault.jpg","viewCount":"419","playlistId":"PLEkQk5xrP-tmAg-FuWjY057X_h5NmGmAa","playlistName":"شرح سنن الدارمي - أ.د. يسري جبر (كاملا)","category":"متنوع"},{"id":"yfPMx-hUlY0","title":"يَا غَادِيًا نَحْوَ الحَبِيبِ عَسَاكَ *** بَلِّغْ سَلَامِي إَذَا وَصَلْتَ هُنَاكَ","publishedAt":"2019-10-01T19:32:28Z","duration":"PT5M6S","thumbnail":"https://i.ytimg.com/vi/yfPMx-hUlY0/mqdefault.jpg","viewCount":"2315","playlistId":"PLEkQk5xrP-tlB8lmbwjAKR8KRgiykGKhb","playlistName":"حضرات يسرية ومدائح نبوية","category":"متنوع"},{"id":"eZ3gGI7IIGw","title":"شرح سنن الدارمي كتاب الرقاق من باب ٢٥","publishedAt":"2019-10-01T16:34:58Z","duration":"PT20M38S","thumbnail":"https://i.ytimg.com/vi/eZ3gGI7IIGw/mqdefault.jpg","viewCount":"256","playlistId":"PLEkQk5xrP-tmAg-FuWjY057X_h5NmGmAa","playlistName":"شرح سنن الدارمي - أ.د. يسري جبر (كاملا)","category":"متنوع"}],"total":4126,"page":154,"pageSize":24,"totalPages":172}