{"items":[{"id":"9Zo0rrr9Zp8","title":"شرح صحيح البخاري كتاب الديات من أوله","publishedAt":"2018-12-03T20:07:52Z","duration":"PT33M8S","thumbnail":"https://i.ytimg.com/vi/9Zo0rrr9Zp8/mqdefault.jpg","viewCount":"383","playlistId":"PLEkQk5xrP-tlEerGoLa1AFy-2XvQ-sovv","playlistName":"شرح صحيح البخاري - أ.د. يسري جبر (كاملا)","category":"حديث"},{"id":"UKd0ROq031g","title":"شرح صحيح البخاري كتاب المحاربين من أهل الكفر والردة من باب ٢٦","publishedAt":"2018-12-02T15:24:20Z","duration":"PT36M55S","thumbnail":"https://i.ytimg.com/vi/UKd0ROq031g/mqdefault.jpg","viewCount":"338","playlistId":"PLEkQk5xrP-tlEerGoLa1AFy-2XvQ-sovv","playlistName":"شرح صحيح البخاري - أ.د. يسري جبر (كاملا)","category":"حديث"},{"id":"nnm36a3L3pw","title":"شرح صحيح البخاري كتاب المحاربين من أهل الكفر والردة من باب ١٨","publishedAt":"2018-12-01T15:43:51Z","duration":"PT35M48S","thumbnail":"https://i.ytimg.com/vi/nnm36a3L3pw/mqdefault.jpg","viewCount":"385","playlistId":"PLEkQk5xrP-tlEerGoLa1AFy-2XvQ-sovv","playlistName":"شرح صحيح البخاري - أ.د. يسري جبر (كاملا)","category":"حديث"},{"id":"-R0IlfovUZ8","title":"شرح صحيح البخاري كتاب المحاربين من أهل الكفر والردة من باب ١٧","publishedAt":"2018-11-30T15:12:29Z","duration":"PT35M39S","thumbnail":"https://i.ytimg.com/vi/-R0IlfovUZ8/mqdefault.jpg","viewCount":"422","playlistId":"PLEkQk5xrP-tlEerGoLa1AFy-2XvQ-sovv","playlistName":"شرح صحيح البخاري - أ.د. يسري جبر (كاملا)","category":"حديث"},{"id":"kZTnzBYvDAQ","title":"شرح صحيح البخاري كتاب المحاربين من أهل الكفر والردة من باب ٧","publishedAt":"2018-11-29T20:50:24Z","duration":"PT32M","thumbnail":"https://i.ytimg.com/vi/kZTnzBYvDAQ/mqdefault.jpg","viewCount":"397","playlistId":"PLEkQk5xrP-tlEerGoLa1AFy-2XvQ-sovv","playlistName":"شرح صحيح البخاري - أ.د. يسري جبر (كاملا)","category":"حديث"},{"id":"2EP5dtEfF0o","title":"شرح صحيح البخاري كتاب المحاربين من أهل الكفر والردة من أوله","publishedAt":"2018-11-29T12:26:41Z","duration":"PT34M56S","thumbnail":"https://i.ytimg.com/vi/2EP5dtEfF0o/mqdefault.jpg","viewCount":"431","playlistId":"PLEkQk5xrP-tlEerGoLa1AFy-2XvQ-sovv","playlistName":"شرح صحيح البخاري - أ.د. يسري جبر (كاملا)","category":"حديث"},{"id":"wu0rnGuRB1E","title":"شرح صحيح البخاري كتاب الحدود من باب ٩","publishedAt":"2018-11-27T15:54:24Z","duration":"PT27M56S","thumbnail":"https://i.ytimg.com/vi/wu0rnGuRB1E/mqdefault.jpg","viewCount":"387","playlistId":"PLEkQk5xrP-tlEerGoLa1AFy-2XvQ-sovv","playlistName":"شرح صحيح البخاري - أ.د. يسري جبر (كاملا)","category":"حديث"},{"id":"zUuPnZ9HkK4","title":"شرح صحيح البخاري كتاب الحدود من أوله","publishedAt":"2018-11-26T19:04:32Z","duration":"PT37M18S","thumbnail":"https://i.ytimg.com/vi/zUuPnZ9HkK4/mqdefault.jpg","viewCount":"535","playlistId":"PLEkQk5xrP-tlEerGoLa1AFy-2XvQ-sovv","playlistName":"شرح صحيح البخاري - أ.د. يسري جبر (كاملا)","category":"حديث"},{"id":"dzsdr7fPpPY","title":"شرح صحيح البخاري كتاب الفرائض من باب ٢٠","publishedAt":"2018-11-25T16:14:00Z","duration":"PT49M23S","thumbnail":"https://i.ytimg.com/vi/dzsdr7fPpPY/mqdefault.jpg","viewCount":"383","playlistId":"PLEkQk5xrP-tlEerGoLa1AFy-2XvQ-sovv","playlistName":"شرح صحيح البخاري - أ.د. يسري جبر (كاملا)","category":"حديث"},{"id":"vodOE_c4HlQ","title":"شرح صحيح البخاري كتاب الفرائض من باب ١٦","publishedAt":"2018-11-24T19:13:31Z","duration":"PT31M5S","thumbnail":"https://i.ytimg.com/vi/vodOE_c4HlQ/mqdefault.jpg","viewCount":"413","playlistId":"PLEkQk5xrP-tlEerGoLa1AFy-2XvQ-sovv","playlistName":"شرح صحيح البخاري - أ.د. يسري جبر (كاملا)","category":"حديث"},{"id":"WAoago2YG4g","title":"شرح صحيح البخاري كتاب الفرائض من باب ١٢","publishedAt":"2018-11-23T20:00:34Z","duration":"PT24M36S","thumbnail":"https://i.ytimg.com/vi/WAoago2YG4g/mqdefault.jpg","viewCount":"370","playlistId":"PLEkQk5xrP-tlEerGoLa1AFy-2XvQ-sovv","playlistName":"شرح صحيح البخاري - أ.د. يسري جبر (كاملا)","category":"حديث"},{"id":"AuD1IrxeHe8","title":"شرح صحيح البخاري كتاب الفرائض من باب ٤","publishedAt":"2018-11-22T19:01:58Z","duration":"PT37M9S","thumbnail":"https://i.ytimg.com/vi/AuD1IrxeHe8/mqdefault.jpg","viewCount":"535","playlistId":"PLEkQk5xrP-tlEerGoLa1AFy-2XvQ-sovv","playlistName":"شرح صحيح البخاري - أ.د. يسري جبر (كاملا)","category":"حديث"},{"id":"6Z4NPC2Au0k","title":"شرح صحيح البخاري كتاب كفارات الفرائض من أوله","publishedAt":"2018-11-21T19:28:58Z","duration":"PT40M45S","thumbnail":"https://i.ytimg.com/vi/6Z4NPC2Au0k/mqdefault.jpg","viewCount":"498","playlistId":"PLEkQk5xrP-tlEerGoLa1AFy-2XvQ-sovv","playlistName":"شرح صحيح البخاري - أ.د. يسري جبر (كاملا)","category":"حديث"},{"id":"_nET-sJo2ng","title":"شرح صحيح البخاري كتاب كفارات الأيمان من أوله","publishedAt":"2018-11-20T16:48:22Z","duration":"PT48M26S","thumbnail":"https://i.ytimg.com/vi/_nET-sJo2ng/mqdefault.jpg","viewCount":"533","playlistId":"PLEkQk5xrP-tlEerGoLa1AFy-2XvQ-sovv","playlistName":"شرح صحيح البخاري - أ.د. يسري جبر (كاملا)","category":"حديث"},{"id":"AVCuUAWuzGs","title":"شرح صحيح البخاري كتاب الأيمان والنذور من باب ٢٩","publishedAt":"2018-11-19T09:16:10Z","duration":"PT21M56S","thumbnail":"https://i.ytimg.com/vi/AVCuUAWuzGs/mqdefault.jpg","viewCount":"369","playlistId":"PLEkQk5xrP-tlEerGoLa1AFy-2XvQ-sovv","playlistName":"شرح صحيح البخاري - أ.د. يسري جبر (كاملا)","category":"حديث"},{"id":"C3Li883IOt8","title":"شرح صحيح البخاري كتاب الأيمان والنذور من باب ٢٢","publishedAt":"2018-11-18T08:56:41Z","duration":"PT41M10S","thumbnail":"https://i.ytimg.com/vi/C3Li883IOt8/mqdefault.jpg","viewCount":"427","playlistId":"PLEkQk5xrP-tlEerGoLa1AFy-2XvQ-sovv","playlistName":"شرح صحيح البخاري - أ.د. يسري جبر (كاملا)","category":"حديث"},{"id":"kd4C9piLp5M","title":"شرح صحيح البخاري كتاب الأيمان والنذور من باب ١٧","publishedAt":"2018-11-15T15:39:33Z","duration":"PT33M51S","thumbnail":"https://i.ytimg.com/vi/kd4C9piLp5M/mqdefault.jpg","viewCount":"450","playlistId":"PLEkQk5xrP-tlEerGoLa1AFy-2XvQ-sovv","playlistName":"شرح صحيح البخاري - أ.د. يسري جبر (كاملا)","category":"حديث"},{"id":"txYh2x50SIM","title":"شرح صحيح البخاري كتاب الأيمان والنذور من باب ١٥","publishedAt":"2018-11-14T20:02:41Z","duration":"PT28M26S","thumbnail":"https://i.ytimg.com/vi/txYh2x50SIM/mqdefault.jpg","viewCount":"385","playlistId":"PLEkQk5xrP-tlEerGoLa1AFy-2XvQ-sovv","playlistName":"شرح صحيح البخاري - أ.د. يسري جبر (كاملا)","category":"حديث"},{"id":"4yNDZJRfRK4","title":"شرح صحيح البخاري كتاب الأيمان والنذور من باب ١١","publishedAt":"2018-11-13T21:20:59Z","duration":"PT24M45S","thumbnail":"https://i.ytimg.com/vi/4yNDZJRfRK4/mqdefault.jpg","viewCount":"389","playlistId":"PLEkQk5xrP-tlEerGoLa1AFy-2XvQ-sovv","playlistName":"شرح صحيح البخاري - أ.د. يسري جبر (كاملا)","category":"حديث"},{"id":"IeMyIT5sH_4","title":"شرح صحيح البخاري كتاب الأيمان والنذور من باب ٥","publishedAt":"2018-11-12T14:47:45Z","duration":"PT36M50S","thumbnail":"https://i.ytimg.com/vi/IeMyIT5sH_4/mqdefault.jpg","viewCount":"435","playlistId":"PLEkQk5xrP-tlEerGoLa1AFy-2XvQ-sovv","playlistName":"شرح صحيح البخاري - أ.د. يسري جبر (كاملا)","category":"حديث"},{"id":"MLNVUgkGYdk","title":"شرح صحيح البخاري كتاب الأيمان والنذور من باب ٣","publishedAt":"2018-11-11T16:45:54Z","duration":"PT37M40S","thumbnail":"https://i.ytimg.com/vi/MLNVUgkGYdk/mqdefault.jpg","viewCount":"449","playlistId":"PLEkQk5xrP-tlEerGoLa1AFy-2XvQ-sovv","playlistName":"شرح صحيح البخاري - أ.د. يسري جبر (كاملا)","category":"حديث"},{"id":"7NkqtKAf-DY","title":"شرح صحيح البخاري كتاب الأيمان والنذور من أوله","publishedAt":"2018-11-10T14:25:23Z","duration":"PT32M55S","thumbnail":"https://i.ytimg.com/vi/7NkqtKAf-DY/mqdefault.jpg","viewCount":"592","playlistId":"PLEkQk5xrP-tlEerGoLa1AFy-2XvQ-sovv","playlistName":"شرح صحيح البخاري - أ.د. يسري جبر (كاملا)","category":"حديث"},{"id":"RRhSrkVxAbA","title":"شرح صحيح البخاري كتاب القدر من باب ٦","publishedAt":"2018-11-08T17:25:18Z","duration":"PT41M41S","thumbnail":"https://i.ytimg.com/vi/RRhSrkVxAbA/mqdefault.jpg","viewCount":"687","playlistId":"PLEkQk5xrP-tlEerGoLa1AFy-2XvQ-sovv","playlistName":"شرح صحيح البخاري - أ.د. يسري جبر (كاملا)","category":"حديث"},{"id":"-G6o03CiKJY","title":"شرح صحيح البخاري كتاب القدر من أوله","publishedAt":"2018-11-07T14:11:48Z","duration":"PT36M23S","thumbnail":"https://i.ytimg.com/vi/-G6o03CiKJY/mqdefault.jpg","viewCount":"875","playlistId":"PLEkQk5xrP-tlEerGoLa1AFy-2XvQ-sovv","playlistName":"شرح صحيح البخاري - أ.د. يسري جبر (كاملا)","category":"حديث"}],"total":719,"page":4,"pageSize":24,"totalPages":30}