{"items":[{"id":"HtJfdImWgvM","title":"راجع نفسك قبل أن يحاسبك الله","publishedAt":"2023-01-08T18:00:05Z","duration":"PT19M18S","thumbnail":"https://i.ytimg.com/vi/HtJfdImWgvM/mqdefault.jpg","viewCount":"6774","playlistId":"PLEkQk5xrP-tlArtGpeLWaqNM7h7IDeAVC","playlistName":"خطب الجمعة أ.د. يسري جبر","category":"خطب"},{"id":"bHNraVVvB_8","title":"4- معرفة ما نزل من القرآن بمكّة - شرح الإتقان في علوم القرآن","publishedAt":"2023-01-09T05:00:23Z","duration":"PT22M1S","thumbnail":"https://i.ytimg.com/vi/bHNraVVvB_8/mqdefault.jpg","viewCount":"2661","playlistId":"PLEkQk5xrP-tlPw10KGJKagu7zm4Ry2Tge","playlistName":"شرح الإتقان في علوم القرآن","category":"تفسير"},{"id":"SVVCja6gGMM","title":"378- فريضة الحجّ - شرح دليل الفالحين","publishedAt":"2023-01-09T09:00:12Z","duration":"PT31M59S","thumbnail":"https://i.ytimg.com/vi/SVVCja6gGMM/mqdefault.jpg","viewCount":"512","playlistId":"PLEkQk5xrP-tkc9DXvSLguqX5-FYp6ASR4","playlistName":"دليل الفالحين لطرق رياض الصالحين","category":"متنوع"},{"id":"KzLxA6qk_Wg","title":"ما الحكمة من إعطاء المال للفقراء بعد التعب في تحصيله مع عدم سعي الفقير للعمل لتحصيل المال؟","publishedAt":"2023-01-09T18:00:10Z","duration":"PT8M59S","thumbnail":"https://i.ytimg.com/vi/KzLxA6qk_Wg/mqdefault.jpg","viewCount":"4384","playlistId":"PLEkQk5xrP-tkGXuZ9atE3k_7it12rUPTs","playlistName":"أسئلة المتابعين","category":"متنوع"},{"id":"LE3CNLvaGNY","title":"379- إنَّ اللهَ قَدْ فَرِضَ عَليكُمُ الحجُّ فحُجُّوا - شرح دليل الفالحين","publishedAt":"2023-01-10T05:00:14Z","duration":"PT24M14S","thumbnail":"https://i.ytimg.com/vi/LE3CNLvaGNY/mqdefault.jpg","viewCount":"476","playlistId":"PLEkQk5xrP-tkc9DXvSLguqX5-FYp6ASR4","playlistName":"دليل الفالحين لطرق رياض الصالحين","category":"متنوع"},{"id":"TkWfgE7FW7c","title":"64- أحكام الرَّضَاع - شرح مسند الإمام الشافعي رضي الله عنه","publishedAt":"2023-01-10T09:00:13Z","duration":"PT43M1S","thumbnail":"https://i.ytimg.com/vi/TkWfgE7FW7c/mqdefault.jpg","viewCount":"621","playlistId":"PLEkQk5xrP-tlDtaqY0qhNXAiZ19gaGzKI","playlistName":"شرح مسند الإمام محمد بن إدريس الشافعيّ رضي الله تعالى عنه","category":"فقه"},{"id":"zXwrMtgitOQ","title":"كيف حققت النجاح في دراستك وعملك؟","publishedAt":"2023-01-10T18:15:11Z","duration":"PT8M25S","thumbnail":"https://i.ytimg.com/vi/zXwrMtgitOQ/mqdefault.jpg","viewCount":"9706","playlistId":"PLEkQk5xrP-tkGXuZ9atE3k_7it12rUPTs","playlistName":"أسئلة المتابعين","category":"متنوع"},{"id":"CCipILqb38Y","title":"5- معرفة ما نزل من القرآن بالمدينة - شرح الإتقان في علوم القرآن","publishedAt":"2023-01-11T05:35:00Z","duration":"PT21M30S","thumbnail":"https://i.ytimg.com/vi/CCipILqb38Y/mqdefault.jpg","viewCount":"2158","playlistId":"PLEkQk5xrP-tlPw10KGJKagu7zm4Ry2Tge","playlistName":"شرح الإتقان في علوم القرآن","category":"تفسير"},{"id":"5efQFWAKwxM","title":"شرح منازل السائرين - المجلس (22) باب الزهد | أ.د. يسري جبر","publishedAt":"2023-01-11T18:00:02Z","duration":"PT41M41S","thumbnail":"https://i.ytimg.com/vi/5efQFWAKwxM/mqdefault.jpg","viewCount":"5225","playlistId":"PLEkQk5xrP-tmiUfQ-2Tsn7QIak4EsvaZW","playlistName":"كتاب التيسير المعين بشرح معاني منازل السائرين (تصوف) - د.يسري جبر","category":"تصوف"},{"id":"xComs7CTY-w","title":"380- حكم الحجِّ عن الغير - شرح دليل الفالحين","publishedAt":"2023-01-12T05:10:00Z","duration":"PT30M48S","thumbnail":"https://i.ytimg.com/vi/xComs7CTY-w/mqdefault.jpg","viewCount":"414","playlistId":"PLEkQk5xrP-tkc9DXvSLguqX5-FYp6ASR4","playlistName":"دليل الفالحين لطرق رياض الصالحين","category":"متنوع"},{"id":"NP5tJTNcp30","title":"23- لماذا يحاسبنا اللهُ على أعمالنا؟.. وقد قال سبحانه\"وَاللَّهُ خَلَقَكُمْ وَمَا تَعْمَلُونَ\"","publishedAt":"2023-01-12T09:00:22Z","duration":"PT45M24S","thumbnail":"https://i.ytimg.com/vi/NP5tJTNcp30/mqdefault.jpg","viewCount":"2031","playlistId":"PLEkQk5xrP-tmNuYT8JAh6clwa4krsgkNo","playlistName":"شرح كتاب الفُتُوحات اليُسريَّة في عقائد الأُمَّة المُحمَّديَّة","category":"متنوع"},{"id":"173t4XewDZA","title":"حكم زيارة قبور الصالحين وطلب المدد منهم","publishedAt":"2023-01-12T18:00:00Z","duration":"PT10M25S","thumbnail":"https://i.ytimg.com/vi/173t4XewDZA/mqdefault.jpg","viewCount":"16151","playlistId":"PLEkQk5xrP-tkGXuZ9atE3k_7it12rUPTs","playlistName":"أسئلة المتابعين","category":"متنوع"},{"id":"aqN_Tq5Rh7g","title":"6- بيان السور المختلَف فيها بين المكّي والمدني - شرح الإتقان في علوم القرآن","publishedAt":"2023-01-13T05:00:01Z","duration":"PT34M10S","thumbnail":"https://i.ytimg.com/vi/aqN_Tq5Rh7g/mqdefault.jpg","viewCount":"1889","playlistId":"PLEkQk5xrP-tlPw10KGJKagu7zm4Ry2Tge","playlistName":"شرح الإتقان في علوم القرآن","category":"تفسير"},{"id":"ABlqvJ5ru6g","title":"381- كيف نفرق بين الجهاد في سبيل الله والجهاد في الله؟ - شرح دليل الفالحين","publishedAt":"2023-01-13T09:00:09Z","duration":"PT37M11S","thumbnail":"https://i.ytimg.com/vi/ABlqvJ5ru6g/mqdefault.jpg","viewCount":"735","playlistId":"PLEkQk5xrP-tkc9DXvSLguqX5-FYp6ASR4","playlistName":"دليل الفالحين لطرق رياض الصالحين","category":"متنوع"},{"id":"NnscmR4Y6Wc","title":"الرد على منتقدي الشيخ الشعراوي","publishedAt":"2023-01-13T18:00:15Z","duration":"PT10M29S","thumbnail":"https://i.ytimg.com/vi/NnscmR4Y6Wc/mqdefault.jpg","viewCount":"77189","playlistId":"PLEkQk5xrP-tlArtGpeLWaqNM7h7IDeAVC","playlistName":"خطب الجمعة أ.د. يسري جبر","category":"خطب"},{"id":"gRIS6tve4i4","title":"7- تكملة بيان السور المختلَف فيها بين المكّي والمدني - شرح الإتقان في علوم القرآن","publishedAt":"2023-01-14T05:00:27Z","duration":"PT29M41S","thumbnail":"https://i.ytimg.com/vi/gRIS6tve4i4/mqdefault.jpg","viewCount":"1464","playlistId":"PLEkQk5xrP-tlPw10KGJKagu7zm4Ry2Tge","playlistName":"شرح الإتقان في علوم القرآن","category":"تفسير"},{"id":"M7vsyDMaLXE","title":"6- حكم الوضوء بالماء الذي يُبلُّ فيه الخُبز، ومعنى قوله تعالى\"إِذَا قُمْتُمْ إِلَى الصَّلَاةِ\"","publishedAt":"2023-01-14T09:00:08Z","duration":"PT40M53S","thumbnail":"https://i.ytimg.com/vi/M7vsyDMaLXE/mqdefault.jpg","viewCount":"971","playlistId":"PLEkQk5xrP-tk_MCBZ706ORCw6gFtFyaGj","playlistName":"شرح سنن الإمام الدارقطني","category":"متنوع"},{"id":"RgHjwr_5lBQ","title":"كيف تستغل شبابك؟","publishedAt":"2023-01-14T18:00:13Z","duration":"PT12M55S","thumbnail":"https://i.ytimg.com/vi/RgHjwr_5lBQ/mqdefault.jpg","viewCount":"4896","playlistId":"PLEkQk5xrP-tlArtGpeLWaqNM7h7IDeAVC","playlistName":"خطب الجمعة أ.د. يسري جبر","category":"خطب"},{"id":"27H7KTr27ro","title":"8- بيان ما نزل من الآيات المدنية في السور المكية - شرح الإتقان في علوم القرآن","publishedAt":"2023-01-15T05:00:00Z","duration":"PT31M6S","thumbnail":"https://i.ytimg.com/vi/27H7KTr27ro/mqdefault.jpg","viewCount":"1387","playlistId":"PLEkQk5xrP-tlPw10KGJKagu7zm4Ry2Tge","playlistName":"شرح الإتقان في علوم القرآن","category":"تفسير"},{"id":"J9kH-KgPmK4","title":"382- أيُّ العَمَلِ أفْضَلُ؟ قال: الإِيمانُ باللَّهِ والجِهَادُ سَبيلِه - شرح دليل الفالحين","publishedAt":"2023-01-15T09:00:09Z","duration":"PT55M15S","thumbnail":"https://i.ytimg.com/vi/J9kH-KgPmK4/mqdefault.jpg","viewCount":"841","playlistId":"PLEkQk5xrP-tkc9DXvSLguqX5-FYp6ASR4","playlistName":"دليل الفالحين لطرق رياض الصالحين","category":"متنوع"},{"id":"y3j8lsUUglI","title":"ما الفرق بين إرادة وقدرة وعلم الله؟","publishedAt":"2023-01-15T18:00:28Z","duration":"PT12M13S","thumbnail":"https://i.ytimg.com/vi/y3j8lsUUglI/mqdefault.jpg","viewCount":"3799","playlistId":"PLEkQk5xrP-tlArtGpeLWaqNM7h7IDeAVC","playlistName":"خطب الجمعة أ.د. يسري جبر","category":"خطب"},{"id":"A1KcTg5nF_U","title":"9- بيان السور التي بعضها مَكِّي وبعضها مَدَني - شرح الإتقان في علوم القرآن","publishedAt":"2023-01-16T05:00:08Z","duration":"PT28M23S","thumbnail":"https://i.ytimg.com/vi/A1KcTg5nF_U/mqdefault.jpg","viewCount":"1169","playlistId":"PLEkQk5xrP-tlPw10KGJKagu7zm4Ry2Tge","playlistName":"شرح الإتقان في علوم القرآن","category":"تفسير"},{"id":"GH29_VAciqo","title":"383- ما من مَكْلُومٍ يُكْلَمُ في سبيل الله إلّا جاء يوم القيامة وكَلْمُهُ يَدْمَى-شرح دليل الفالحين","publishedAt":"2023-01-16T09:00:06Z","duration":"PT39M51S","thumbnail":"https://i.ytimg.com/vi/GH29_VAciqo/mqdefault.jpg","viewCount":"830","playlistId":"PLEkQk5xrP-tkc9DXvSLguqX5-FYp6ASR4","playlistName":"دليل الفالحين لطرق رياض الصالحين","category":"متنوع"},{"id":"4A3MVkjuJaU","title":"هل النبي ﷺ هو أفضل الخلق؟","publishedAt":"2023-01-16T18:00:02Z","duration":"PT8M24S","thumbnail":"https://i.ytimg.com/vi/4A3MVkjuJaU/mqdefault.jpg","viewCount":"2388","playlistId":"PLEkQk5xrP-tlArtGpeLWaqNM7h7IDeAVC","playlistName":"خطب الجمعة أ.د. يسري جبر","category":"خطب"}],"total":7675,"page":254,"pageSize":24,"totalPages":320}