{"items":[{"id":"Zx5av_tDfEs","title":"292- العلوم المستنبطة من القرآن (2) - شرح الإتقان في علوم القرآن","publishedAt":"2025-07-17T09:03:32Z","duration":"PT24M48S","thumbnail":"https://i.ytimg.com/vi/Zx5av_tDfEs/mqdefault.jpg","viewCount":"317","playlistId":"PLEkQk5xrP-tlPw10KGJKagu7zm4Ry2Tge","playlistName":"شرح الإتقان في علوم القرآن","category":"تفسير"},{"id":"Zbi0t9q1t50","title":"أسرار لا يكمل إيمانك إلا بمعرفتها!","publishedAt":"2025-07-17T19:15:03Z","duration":"PT15M44S","thumbnail":"https://i.ytimg.com/vi/Zbi0t9q1t50/mqdefault.jpg","viewCount":"7601","playlistId":"PLEkQk5xrP-tlArtGpeLWaqNM7h7IDeAVC","playlistName":"خطب الجمعة أ.د. يسري جبر","category":"خطب"},{"id":"jFGUFu0AAXE","title":"162- التنافس على الدنيا - شرح مسند الإمام أحمد رضي الله تعالى عنه","publishedAt":"2025-07-18T09:01:47Z","duration":"PT30M32S","thumbnail":"https://i.ytimg.com/vi/jFGUFu0AAXE/mqdefault.jpg","viewCount":"840","playlistId":"PLEkQk5xrP-tkKprIuGrSdEuBSMsyg5We1","playlistName":"شرح مسند الإمام أحمد بن حنبل","category":"متنوع"},{"id":"HMoZBgZOBXw","title":"293- العلوم المستنبطة من القرآن (3) - شرح الإتقان في علوم القرآن","publishedAt":"2025-07-19T05:00:15Z","duration":"PT12M18S","thumbnail":"https://i.ytimg.com/vi/HMoZBgZOBXw/mqdefault.jpg","viewCount":"380","playlistId":"PLEkQk5xrP-tlPw10KGJKagu7zm4Ry2Tge","playlistName":"شرح الإتقان في علوم القرآن","category":"تفسير"},{"id":"FUejH87fhLs","title":"21- من لم يقبل على الله بملاطفات اﻹحسان قيد إليه بسلاسل الامتحان | شرح الحكم العطائية","publishedAt":"2025-07-19T17:30:03Z","duration":"PT36M4S","thumbnail":"https://i.ytimg.com/vi/FUejH87fhLs/mqdefault.jpg","viewCount":"4095","playlistId":"PLEkQk5xrP-tmf5ToOwmW-q0JwxkapbrMN","playlistName":"شرح كتاب إرشاد البرية إلى بعض معاني الحكم العطائية","category":"متنوع"},{"id":"w0_sMITcKC4","title":"163- النهي عن قتل أربع من الدواب - شرح مسند الإمام أحمد رضي الله تعالى عنه","publishedAt":"2025-07-20T08:01:09Z","duration":"PT32M41S","thumbnail":"https://i.ytimg.com/vi/w0_sMITcKC4/mqdefault.jpg","viewCount":"659","playlistId":"PLEkQk5xrP-tkKprIuGrSdEuBSMsyg5We1","playlistName":"شرح مسند الإمام أحمد بن حنبل","category":"متنوع"},{"id":"QOEoFAUGRY4","title":"هل النبي ﷺ بشر مثلنا؟ وما الفرق بين روحانيته وبشريته؟","publishedAt":"2025-07-20T18:00:31Z","duration":"PT20M4S","thumbnail":"https://i.ytimg.com/vi/QOEoFAUGRY4/mqdefault.jpg","viewCount":"3093","playlistId":"PLEkQk5xrP-tmJzNvLntpzW0uPanPzxA0c","playlistName":"لقاءات ومحاضرات","category":"متنوع"},{"id":"xUatz6bQuXw","title":"48- شروط الأمر بالمعروف والدعوة إلى الله | شرح مختصر الفتوحات المكية","publishedAt":"2025-07-21T17:30:27Z","duration":"PT44M20S","thumbnail":"https://i.ytimg.com/vi/xUatz6bQuXw/mqdefault.jpg","viewCount":"1344","playlistId":"PLEkQk5xrP-tnpkdZki6rPTtMak1bnI5g-","playlistName":"شرح كتاب مختصر الفتوحات المكية المسمى لواقح الأنوار القدسية","category":"متنوع"},{"id":"zrymLO-sNrs","title":"ليه المجتمع شايف ماضي الست عار وماضي الراجل تجربة؟","publishedAt":"2025-07-22T17:01:29Z","duration":"PT10M2S","thumbnail":"https://i.ytimg.com/vi/zrymLO-sNrs/mqdefault.jpg","viewCount":"4045","playlistId":"PLEkQk5xrP-tkGXuZ9atE3k_7it12rUPTs","playlistName":"أسئلة المتابعين","category":"متنوع"},{"id":"BchcO_TubYA","title":"لكل شاب مقبل على الزواج ,, دي الحاجات اللي لازم تعرفها!","publishedAt":"2025-07-23T18:15:00Z","duration":"PT15M32S","thumbnail":"https://i.ytimg.com/vi/BchcO_TubYA/mqdefault.jpg","viewCount":"4527","playlistId":"PLEkQk5xrP-tkGXuZ9atE3k_7it12rUPTs","playlistName":"أسئلة المتابعين","category":"متنوع"},{"id":"4u34d3TLKak","title":"22- لماذا ينعم الله علينا رغم أننا نعصيه؟ | شرح الحكم العطائية","publishedAt":"2025-07-24T18:00:07Z","duration":"PT35M24S","thumbnail":"https://i.ytimg.com/vi/4u34d3TLKak/mqdefault.jpg","viewCount":"2750","playlistId":"PLEkQk5xrP-tmf5ToOwmW-q0JwxkapbrMN","playlistName":"شرح كتاب إرشاد البرية إلى بعض معاني الحكم العطائية","category":"متنوع"},{"id":"GHWlfN_BXhk","title":"هل من حقي الدعاء على من ظلمني؟","publishedAt":"2025-07-25T17:15:01Z","duration":"PT8M29S","thumbnail":"https://i.ytimg.com/vi/GHWlfN_BXhk/mqdefault.jpg","viewCount":"3129","playlistId":"PLEkQk5xrP-tkGXuZ9atE3k_7it12rUPTs","playlistName":"أسئلة المتابعين","category":"متنوع"},{"id":"4_vVumfairI","title":"59- صيغ التشهد وأسرار في معانيه | شرح سنن الإمام الدار قطني","publishedAt":"2025-07-26T09:00:05Z","duration":"PT37M56S","thumbnail":"https://i.ytimg.com/vi/4_vVumfairI/mqdefault.jpg","viewCount":"820","playlistId":"PLEkQk5xrP-tk_MCBZ706ORCw6gFtFyaGj","playlistName":"شرح سنن الإمام الدارقطني","category":"متنوع"},{"id":"Pvo0QfveC6I","title":"49- أسرار السجود وأقرب لحظة بينك وبين الله | شرح مختصر الفتوحات المكية","publishedAt":"2025-07-26T18:10:03Z","duration":"PT32M14S","thumbnail":"https://i.ytimg.com/vi/Pvo0QfveC6I/mqdefault.jpg","viewCount":"2595","playlistId":"PLEkQk5xrP-tnpkdZki6rPTtMak1bnI5g-","playlistName":"شرح كتاب مختصر الفتوحات المكية المسمى لواقح الأنوار القدسية","category":"متنوع"},{"id":"rjgZU3tYsio","title":"هل الكشف حقيقة أم خيال من النفس؟","publishedAt":"2025-07-27T18:31:14Z","duration":"PT11M43S","thumbnail":"https://i.ytimg.com/vi/rjgZU3tYsio/mqdefault.jpg","viewCount":"13674","playlistId":"PLEkQk5xrP-tkGXuZ9atE3k_7it12rUPTs","playlistName":"أسئلة المتابعين","category":"متنوع"},{"id":"n_v3dvJl3Ek","title":"كيف تبدأ طلب العلم الشرعي خطوة بخطوة؟","publishedAt":"2025-07-28T18:15:08Z","duration":"PT8M22S","thumbnail":"https://i.ytimg.com/vi/n_v3dvJl3Ek/mqdefault.jpg","viewCount":"2711","playlistId":"PLEkQk5xrP-tkGXuZ9atE3k_7it12rUPTs","playlistName":"أسئلة المتابعين","category":"متنوع"},{"id":"dtdrR7Oi9og","title":"65- ما هي حرمات الله وكيف يتم تعظيمها؟ | شرح منازل السائرين","publishedAt":"2025-07-29T18:15:03Z","duration":"PT30M35S","thumbnail":"https://i.ytimg.com/vi/dtdrR7Oi9og/mqdefault.jpg","viewCount":"2512","playlistId":"PLEkQk5xrP-tmiUfQ-2Tsn7QIak4EsvaZW","playlistName":"كتاب التيسير المعين بشرح معاني منازل السائرين (تصوف) - د.يسري جبر","category":"تصوف"},{"id":"x8ytPpXFNR0","title":"23- هل يجب أن تظهر عليك أثر عبادتك؟ | شرح الحكم العطائية","publishedAt":"2025-07-30T18:15:05Z","duration":"PT43M17S","thumbnail":"https://i.ytimg.com/vi/x8ytPpXFNR0/mqdefault.jpg","viewCount":"3950","playlistId":"PLEkQk5xrP-tmf5ToOwmW-q0JwxkapbrMN","playlistName":"شرح كتاب إرشاد البرية إلى بعض معاني الحكم العطائية","category":"متنوع"},{"id":"3DJ-sj1lRns","title":"294- العلوم المستنبطة من القرآن (4) - شرح الإتقان في علوم القرآن","publishedAt":"2025-07-31T09:00:09Z","duration":"PT15M30S","thumbnail":"https://i.ytimg.com/vi/3DJ-sj1lRns/mqdefault.jpg","viewCount":"306","playlistId":"PLEkQk5xrP-tlPw10KGJKagu7zm4Ry2Tge","playlistName":"شرح الإتقان في علوم القرآن","category":"تفسير"},{"id":"Wxj9gSdxxO8","title":"164- \"فأنا فرط أمتي لم يصابوا بمثلي\" ﷺ - شرح مسند الإمام أحمد رضي الله تعالى عنه","publishedAt":"2025-08-01T09:00:54Z","duration":"PT33M24S","thumbnail":"https://i.ytimg.com/vi/Wxj9gSdxxO8/mqdefault.jpg","viewCount":"892","playlistId":"PLEkQk5xrP-tkKprIuGrSdEuBSMsyg5We1","playlistName":"شرح مسند الإمام أحمد بن حنبل","category":"متنوع"},{"id":"RE_0eYBHZJY","title":"ما معنى الرابطة الروحية عند الصوفية؟","publishedAt":"2025-08-01T18:30:36Z","duration":"PT22M19S","thumbnail":"https://i.ytimg.com/vi/RE_0eYBHZJY/mqdefault.jpg","viewCount":"4818","playlistId":"PLEkQk5xrP-tmsEDdkkXMM1ca2-AquQYad","playlistName":"شرح كتاب مدارج الحقيقة في الرابطة عند أهل الطريقة","category":"متنوع"},{"id":"nVxtTO4dfGw","title":"60- أسرار الصلاة الإبراهيمية وهل يجوز أن نقول سيدنا محمد في التشهد؟ | شرح سنن الإمام الدار قطني","publishedAt":"2025-08-02T09:01:08Z","duration":"PT44M56S","thumbnail":"https://i.ytimg.com/vi/nVxtTO4dfGw/mqdefault.jpg","viewCount":"1305","playlistId":"PLEkQk5xrP-tk_MCBZ706ORCw6gFtFyaGj","playlistName":"شرح سنن الإمام الدارقطني","category":"متنوع"},{"id":"tq41bTmuplU","title":"كيف نفهم صفات الله مثل اليد وغيرها بلا تجسيم أو تشبيه؟","publishedAt":"2025-08-02T18:31:08Z","duration":"PT9M22S","thumbnail":"https://i.ytimg.com/vi/tq41bTmuplU/mqdefault.jpg","viewCount":"1937","playlistId":"PLEkQk5xrP-tkGXuZ9atE3k_7it12rUPTs","playlistName":"أسئلة المتابعين","category":"متنوع"},{"id":"sQZyqCii6Cg","title":"295- أنواع الأمثال في القرآن - شرح الإتقان في علوم القرآن","publishedAt":"2025-08-03T09:01:16Z","duration":"PT34M","thumbnail":"https://i.ytimg.com/vi/sQZyqCii6Cg/mqdefault.jpg","viewCount":"442","playlistId":"PLEkQk5xrP-tlPw10KGJKagu7zm4Ry2Tge","playlistName":"شرح الإتقان في علوم القرآن","category":"تفسير"}],"total":7675,"page":313,"pageSize":24,"totalPages":320}