{"items":[{"id":"bKsropBz78k","title":"سورة الأعراف آية 167","publishedAt":"2017-03-06T07:13:43Z","duration":"PT27M58S","thumbnail":"https://i.ytimg.com/vi/bKsropBz78k/mqdefault.jpg","viewCount":"444","playlistId":"PLEkQk5xrP-tnmTYsyW6xNdyfhPq0Bhrhj","playlistName":"مقرأة الفجر - القُرْآنُ الكَرِيمُ - خَتْمَةُ التَّدَبُّرِ  أ.د. يسري جبر","category":"متنوع"},{"id":"tiCqNmHci64","title":"شرح صحيح البخاري -  كتاب الحج من باب ٤٢","publishedAt":"2017-03-06T18:46:14Z","duration":"PT26M53S","thumbnail":"https://i.ytimg.com/vi/tiCqNmHci64/mqdefault.jpg","viewCount":"771","playlistId":"PLEkQk5xrP-tlEerGoLa1AFy-2XvQ-sovv","playlistName":"شرح صحيح البخاري - أ.د. يسري جبر (كاملا)","category":"حديث"},{"id":"Eg8LwuWOnP4","title":"سورة الأعراف آية 172","publishedAt":"2017-03-07T15:15:59Z","duration":"PT12M40S","thumbnail":"https://i.ytimg.com/vi/Eg8LwuWOnP4/mqdefault.jpg","viewCount":"356","playlistId":"PLEkQk5xrP-tnmTYsyW6xNdyfhPq0Bhrhj","playlistName":"مقرأة الفجر - القُرْآنُ الكَرِيمُ - خَتْمَةُ التَّدَبُّرِ  أ.د. يسري جبر","category":"متنوع"},{"id":"8XLRlPnQtNg","title":"شرح صحيح البخاري   كتاب الحج من باب ٤٣","publishedAt":"2017-03-07T17:22:25Z","duration":"PT40M28S","thumbnail":"https://i.ytimg.com/vi/8XLRlPnQtNg/mqdefault.jpg","viewCount":"813","playlistId":"PLEkQk5xrP-tlEerGoLa1AFy-2XvQ-sovv","playlistName":"شرح صحيح البخاري - أ.د. يسري جبر (كاملا)","category":"حديث"},{"id":"NroXBc11i6c","title":"سورة الأعراف آية 187","publishedAt":"2017-03-07T17:22:25Z","duration":"PT10M29S","thumbnail":"https://i.ytimg.com/vi/NroXBc11i6c/mqdefault.jpg","viewCount":"376","playlistId":"PLEkQk5xrP-tnmTYsyW6xNdyfhPq0Bhrhj","playlistName":"مقرأة الفجر - القُرْآنُ الكَرِيمُ - خَتْمَةُ التَّدَبُّرِ  أ.د. يسري جبر","category":"متنوع"},{"id":"yMt1QIZym8A","title":"سورة الأعراف آية 175","publishedAt":"2017-03-08T08:38:44Z","duration":"PT16M25S","thumbnail":"https://i.ytimg.com/vi/yMt1QIZym8A/mqdefault.jpg","viewCount":"353","playlistId":"PLEkQk5xrP-tnmTYsyW6xNdyfhPq0Bhrhj","playlistName":"مقرأة الفجر - القُرْآنُ الكَرِيمُ - خَتْمَةُ التَّدَبُّرِ  أ.د. يسري جبر","category":"متنوع"},{"id":"A2lEECJMdQA","title":"صحيح الإمام البخاري رضي الله عنه - كتاب الأدب - باب هِجاء المشركين - المجلس التاسع عشر د. يسري جبر","publishedAt":"2017-03-08T18:29:05Z","duration":"PT1H10M53S","thumbnail":"https://i.ytimg.com/vi/A2lEECJMdQA/mqdefault.jpg","viewCount":"169","playlistId":"PLEkQk5xrP-tmJuzaj4GWRenFoFx9gdbFX","playlistName":"شرح كتاب صحيح الإمام البخاري رضي الله تعالى عنه   أ.د. يسرى جبر","category":"حديث"},{"id":"1C7lHWXYR2Q","title":"أجهل الناس مَنْ ترك يقين ما عنده لظن ما عند الناس","publishedAt":"2017-03-08T19:14:24Z","duration":"PT6M34S","thumbnail":"https://i.ytimg.com/vi/1C7lHWXYR2Q/mqdefault.jpg","viewCount":"1585","playlistId":"PLEkQk5xrP-tkI_meE148wc7V7XHlB0WPb","playlistName":"من الحكم العطائية  د. يسري جبر","category":"متنوع"},{"id":"utagNt3nBLM","title":"شرح صحيح البخاري   كتاب الحج من باب ٥٢","publishedAt":"2017-03-08T20:09:35Z","duration":"PT36M8S","thumbnail":"https://i.ytimg.com/vi/utagNt3nBLM/mqdefault.jpg","viewCount":"821","playlistId":"PLEkQk5xrP-tlEerGoLa1AFy-2XvQ-sovv","playlistName":"شرح صحيح البخاري - أ.د. يسري جبر (كاملا)","category":"حديث"},{"id":"6CSqqijtFk0","title":"45- أَمْرِ الصَّيْدِ فِى الْحَرَمِ كتاب الحج د يسري جبر الأزهري د يسري جبر الأزهري","publishedAt":"2017-03-08T22:37:38Z","duration":"PT1H2M37S","thumbnail":"https://i.ytimg.com/vi/6CSqqijtFk0/mqdefault.jpg","viewCount":"284","playlistId":"PLEkQk5xrP-tnC6BRuqMjyO-484iqXeg0o","playlistName":"شرح كتاب الموطأ للإمام مالك","category":"متنوع"},{"id":"E8D0pN_HPmg","title":"مقرأة سورة الأعراف من آية ١٨٠","publishedAt":"2017-03-09T08:07:10Z","duration":"PT21M50S","thumbnail":"https://i.ytimg.com/vi/E8D0pN_HPmg/mqdefault.jpg","viewCount":"347","playlistId":"PLEkQk5xrP-tnmTYsyW6xNdyfhPq0Bhrhj","playlistName":"مقرأة الفجر - القُرْآنُ الكَرِيمُ - خَتْمَةُ التَّدَبُّرِ  أ.د. يسري جبر","category":"متنوع"},{"id":"c8ZxBxubyaA","title":"صحيح الإمام البخاري رضي الله عنه - كتاب الأدب - باب قول الرجل ويلك - المجلس العشرون  د. يسري جبر","publishedAt":"2017-03-09T17:02:05Z","duration":"PT1H6M55S","thumbnail":"https://i.ytimg.com/vi/c8ZxBxubyaA/mqdefault.jpg","viewCount":"183","playlistId":"PLEkQk5xrP-tmJuzaj4GWRenFoFx9gdbFX","playlistName":"شرح كتاب صحيح الإمام البخاري رضي الله تعالى عنه   أ.د. يسرى جبر","category":"حديث"},{"id":"67QkcyGKbxw","title":"شرح صحيح البخاري -  كتاب الحج من باب ٦٣","publishedAt":"2017-03-09T19:36:36Z","duration":"PT32M","thumbnail":"https://i.ytimg.com/vi/67QkcyGKbxw/mqdefault.jpg","viewCount":"728","playlistId":"PLEkQk5xrP-tlEerGoLa1AFy-2XvQ-sovv","playlistName":"شرح صحيح البخاري - أ.د. يسري جبر (كاملا)","category":"حديث"},{"id":"1-lck3JcIEg","title":"الزهاد إذا مدحواانقبضوا،لشهودهم الثناء من الخلق والعارفون إذا مدحواانبسطوالشهودهم ذلك من الملِك الحق","publishedAt":"2017-03-09T21:18:54Z","duration":"PT10M32S","thumbnail":"https://i.ytimg.com/vi/1-lck3JcIEg/mqdefault.jpg","viewCount":"872","playlistId":"PLEkQk5xrP-tkI_meE148wc7V7XHlB0WPb","playlistName":"من الحكم العطائية  د. يسري جبر","category":"متنوع"},{"id":"2QcCodOlUx4","title":"شرح صحيح البخاري -  كتاب الحج من باب ٧٣","publishedAt":"2017-03-11T11:21:24Z","duration":"PT43M21S","thumbnail":"https://i.ytimg.com/vi/2QcCodOlUx4/mqdefault.jpg","viewCount":"779","playlistId":"PLEkQk5xrP-tlEerGoLa1AFy-2XvQ-sovv","playlistName":"شرح صحيح البخاري - أ.د. يسري جبر (كاملا)","category":"حديث"},{"id":"pbGqBWrgzg4","title":"متى كنت إذا أُعطيت بسطك العطاء،وإذا مُنعت قبضك المنع،فاستدِل بذلك على طفوليتك، وعدم صدقك في عبوديتك","publishedAt":"2017-03-11T19:05:16Z","duration":"PT10M50S","thumbnail":"https://i.ytimg.com/vi/pbGqBWrgzg4/mqdefault.jpg","viewCount":"1310","playlistId":"PLEkQk5xrP-tkI_meE148wc7V7XHlB0WPb","playlistName":"من الحكم العطائية  د. يسري جبر","category":"متنوع"},{"id":"pYDQtmUpUPs","title":"سورة الأعراف آية 189","publishedAt":"2017-03-12T06:43:35Z","duration":"PT20M51S","thumbnail":"https://i.ytimg.com/vi/pYDQtmUpUPs/mqdefault.jpg","viewCount":"425","playlistId":"PLEkQk5xrP-tnmTYsyW6xNdyfhPq0Bhrhj","playlistName":"مقرأة الفجر - القُرْآنُ الكَرِيمُ - خَتْمَةُ التَّدَبُّرِ  أ.د. يسري جبر","category":"متنوع"},{"id":"Jos96dmiEfk","title":"نبذة عن السيدة نفيسة رضي الله تعالى عنها    د. يسري جبر","publishedAt":"2017-03-12T15:30:28Z","duration":"PT29M9S","thumbnail":"https://i.ytimg.com/vi/Jos96dmiEfk/mqdefault.jpg","viewCount":"62466","playlistId":"PLEkQk5xrP-tlArtGpeLWaqNM7h7IDeAVC","playlistName":"خطب الجمعة أ.د. يسري جبر","category":"خطب"},{"id":"nyY4R9M_djs","title":"كتاب نوراليقين في سيرة سيد المرسلين المجلس الثاني زواج سيدنا عبد الله بسيدتنا آمنة وحملها د.يسري جبر","publishedAt":"2017-03-12T16:03:14Z","duration":"PT41M7S","thumbnail":"https://i.ytimg.com/vi/nyY4R9M_djs/mqdefault.jpg","viewCount":"53244","playlistId":"PLEkQk5xrP-tl2t4NQx1IhKnAJCMzF0Nli","playlistName":"شرح كتاب نور اليقين في سيرة سيد المرسلين   د. يسري جبر","category":"سيرة"},{"id":"OEFuhHYKgWM","title":"شرح صحيح البخاري - كتاب الحج من باب ٧٨","publishedAt":"2017-03-12T20:37:00Z","duration":"PT37M11S","thumbnail":"https://i.ytimg.com/vi/OEFuhHYKgWM/mqdefault.jpg","viewCount":"749","playlistId":"PLEkQk5xrP-tlEerGoLa1AFy-2XvQ-sovv","playlistName":"شرح صحيح البخاري - أ.د. يسري جبر (كاملا)","category":"حديث"},{"id":"_2ZMA4ecZAs","title":"سورة الأعراف آية 194","publishedAt":"2017-03-13T07:17:20Z","duration":"PT16M48S","thumbnail":"https://i.ytimg.com/vi/_2ZMA4ecZAs/mqdefault.jpg","viewCount":"351","playlistId":"PLEkQk5xrP-tnmTYsyW6xNdyfhPq0Bhrhj","playlistName":"مقرأة الفجر - القُرْآنُ الكَرِيمُ - خَتْمَةُ التَّدَبُّرِ  أ.د. يسري جبر","category":"متنوع"},{"id":"B9j-ind1TIk","title":"صحيح الإمام البخاري رضي الله عنه - كتاب الأدب - المجلس الحادي والعشرون د. يسري جبر","publishedAt":"2017-03-13T19:22:32Z","duration":"PT40M48S","thumbnail":"https://i.ytimg.com/vi/B9j-ind1TIk/mqdefault.jpg","viewCount":"256","playlistId":"PLEkQk5xrP-tmJuzaj4GWRenFoFx9gdbFX","playlistName":"شرح كتاب صحيح الإمام البخاري رضي الله تعالى عنه   أ.د. يسرى جبر","category":"حديث"},{"id":"DV9MHAvwaTI","title":"شرح صحيح البخاري   كتاب الحج من باب ٨٢","publishedAt":"2017-03-14T07:27:31Z","duration":"PT34M47S","thumbnail":"https://i.ytimg.com/vi/DV9MHAvwaTI/mqdefault.jpg","viewCount":"694","playlistId":"PLEkQk5xrP-tlEerGoLa1AFy-2XvQ-sovv","playlistName":"شرح صحيح البخاري - أ.د. يسري جبر (كاملا)","category":"حديث"},{"id":"ug-F0R7lCDE","title":"سورة الأعراف آية 199","publishedAt":"2017-03-14T11:39:05Z","duration":"PT27M3S","thumbnail":"https://i.ytimg.com/vi/ug-F0R7lCDE/mqdefault.jpg","viewCount":"483","playlistId":"PLEkQk5xrP-tnmTYsyW6xNdyfhPq0Bhrhj","playlistName":"مقرأة الفجر - القُرْآنُ الكَرِيمُ - خَتْمَةُ التَّدَبُّرِ  أ.د. يسري جبر","category":"متنوع"}],"total":7675,"page":63,"pageSize":24,"totalPages":320}