{"items":[{"id":"Yj5Lr0WKzDY","title":"أحوال القلب فضل من الله","publishedAt":"2020-09-30T19:26:11Z","duration":"PT13M29S","thumbnail":"https://i.ytimg.com/vi/Yj5Lr0WKzDY/mqdefault.jpg","viewCount":"10213","playlistId":"PLEkQk5xrP-tm8ZIu74nTOZN9KJUJu416J","playlistName":"مقاطع مُهمَّة (يُسريَّات) أ.د. يسري جبر","category":"متنوع"},{"id":"h3nszrN1ydE","title":"خطاب الواحد والجمع بلفظ الاثنين","publishedAt":"2020-10-01T06:05:21Z","duration":"PT12M29S","thumbnail":"https://i.ytimg.com/vi/h3nszrN1ydE/mqdefault.jpg","viewCount":"744","playlistId":"PLEkQk5xrP-tnW3iBL7HkKziOFCFZbTlf0","playlistName":"شرح البرهان في علوم القرآن - أ.د. يسري جبر","category":"تفسير"},{"id":"h7kjVm0k38Q","title":"حَيٌّ قَيُّوم","publishedAt":"2020-10-01T19:32:00Z","duration":"PT9M58S","thumbnail":"https://i.ytimg.com/vi/h7kjVm0k38Q/mqdefault.jpg","viewCount":"5040","playlistId":"PLEkQk5xrP-tm8ZIu74nTOZN9KJUJu416J","playlistName":"مقاطع مُهمَّة (يُسريَّات) أ.د. يسري جبر","category":"متنوع"},{"id":"I5EjmJN0bPE","title":"143- شجاعة النَّبيّ ﷺ وتقدُّمه للحرب","publishedAt":"2020-10-02T07:19:52Z","duration":"PT22M20S","thumbnail":"https://i.ytimg.com/vi/I5EjmJN0bPE/mqdefault.jpg","viewCount":"1566","playlistId":"PLEkQk5xrP-tmKNjtYLfhATC37QdIsTMe0","playlistName":"شرح كتاب اللؤلؤ والمرجان فيما اتفق عليه الشيخان إماما المحدثين البخاري ومسلم. أ.د. يسري جبر","category":"حديث"},{"id":"z_XNuzfoGs0","title":"الشريعة والحقيقة في حديث لا عَدْوى ولا طِيَرة","publishedAt":"2020-10-02T10:00:26Z","duration":"PT54M43S","thumbnail":"https://i.ytimg.com/vi/z_XNuzfoGs0/mqdefault.jpg","viewCount":"1974","playlistId":"PLEkQk5xrP-tlArtGpeLWaqNM7h7IDeAVC","playlistName":"خطب الجمعة أ.د. يسري جبر","category":"خطب"},{"id":"82LMOD-EAlk","title":"الرضا بالموجود وعدم طلب المفقود","publishedAt":"2020-10-02T20:11:34Z","duration":"PT17M8S","thumbnail":"https://i.ytimg.com/vi/82LMOD-EAlk/mqdefault.jpg","viewCount":"9568","playlistId":"PLEkQk5xrP-tm8ZIu74nTOZN9KJUJu416J","playlistName":"مقاطع مُهمَّة (يُسريَّات) أ.د. يسري جبر","category":"متنوع"},{"id":"5YyIFafYEmI","title":"خطاب عين والمراد غيره","publishedAt":"2020-10-03T06:37:24Z","duration":"PT25M19S","thumbnail":"https://i.ytimg.com/vi/5YyIFafYEmI/mqdefault.jpg","viewCount":"944","playlistId":"PLEkQk5xrP-tnW3iBL7HkKziOFCFZbTlf0","playlistName":"شرح البرهان في علوم القرآن - أ.د. يسري جبر","category":"تفسير"},{"id":"mkEf1nMDBE0","title":"منهج حياة","publishedAt":"2020-10-03T18:06:01Z","duration":"PT20M13S","thumbnail":"https://i.ytimg.com/vi/mkEf1nMDBE0/mqdefault.jpg","viewCount":"3500","playlistId":"PLEkQk5xrP-tm8ZIu74nTOZN9KJUJu416J","playlistName":"مقاطع مُهمَّة (يُسريَّات) أ.د. يسري جبر","category":"متنوع"},{"id":"VI7z1zBwXNY","title":"144-  رحمته ﷺ الصبيان والعيال وتواضعه وفضل ذلك","publishedAt":"2020-10-04T07:56:09Z","duration":"PT30M57S","thumbnail":"https://i.ytimg.com/vi/VI7z1zBwXNY/mqdefault.jpg","viewCount":"1615","playlistId":"PLEkQk5xrP-tmKNjtYLfhATC37QdIsTMe0","playlistName":"شرح كتاب اللؤلؤ والمرجان فيما اتفق عليه الشيخان إماما المحدثين البخاري ومسلم. أ.د. يسري جبر","category":"حديث"},{"id":"E_qm5orDoIc","title":"درجات التوكُّل","publishedAt":"2020-10-04T20:06:50Z","duration":"PT14M1S","thumbnail":"https://i.ytimg.com/vi/E_qm5orDoIc/mqdefault.jpg","viewCount":"4017","playlistId":"PLEkQk5xrP-tm8ZIu74nTOZN9KJUJu416J","playlistName":"مقاطع مُهمَّة (يُسريَّات) أ.د. يسري جبر","category":"متنوع"},{"id":"R4AznXxbB4Y","title":"خطاب الاعتبار","publishedAt":"2020-10-05T06:32:12Z","duration":"PT23M53S","thumbnail":"https://i.ytimg.com/vi/R4AznXxbB4Y/mqdefault.jpg","viewCount":"838","playlistId":"PLEkQk5xrP-tnW3iBL7HkKziOFCFZbTlf0","playlistName":"شرح البرهان في علوم القرآن - أ.د. يسري جبر","category":"تفسير"},{"id":"LDmd0BJpThk","title":"السعادة في الرضا واليقين أ.د.يسري جبر","publishedAt":"2020-10-05T20:04:50Z","duration":"PT34M19S","thumbnail":"https://i.ytimg.com/vi/LDmd0BJpThk/mqdefault.jpg","viewCount":"8961","playlistId":"PLEkQk5xrP-tlArtGpeLWaqNM7h7IDeAVC","playlistName":"خطب الجمعة أ.د. يسري جبر","category":"خطب"},{"id":"RgrW93yY1IU","title":"145- صِفةُ النَّبيّ ﷺ وأنه كان أحسن الناس وجهًا","publishedAt":"2020-10-06T07:52:44Z","duration":"PT30M39S","thumbnail":"https://i.ytimg.com/vi/RgrW93yY1IU/mqdefault.jpg","viewCount":"4135","playlistId":"PLEkQk5xrP-tmKNjtYLfhATC37QdIsTMe0","playlistName":"شرح كتاب اللؤلؤ والمرجان فيما اتفق عليه الشيخان إماما المحدثين البخاري ومسلم. أ.د. يسري جبر","category":"حديث"},{"id":"K08GDYv5hZM","title":"متى تسبق السُّنَّة الفرض؟","publishedAt":"2020-10-06T19:54:09Z","duration":"PT1M53S","thumbnail":"https://i.ytimg.com/vi/K08GDYv5hZM/mqdefault.jpg","viewCount":"3029","playlistId":"PLEkQk5xrP-tm8ZIu74nTOZN9KJUJu416J","playlistName":"مقاطع مُهمَّة (يُسريَّات) أ.د. يسري جبر","category":"متنوع"},{"id":"0V6OhvbAeuI","title":"خطابُ التَّحنُّن والاستعطاف","publishedAt":"2020-10-07T06:51:12Z","duration":"PT15M23S","thumbnail":"https://i.ytimg.com/vi/0V6OhvbAeuI/mqdefault.jpg","viewCount":"1027","playlistId":"PLEkQk5xrP-tnW3iBL7HkKziOFCFZbTlf0","playlistName":"شرح البرهان في علوم القرآن - أ.د. يسري جبر","category":"تفسير"},{"id":"_Fv78idEwP8","title":"بِدَعُ التَفَاسِيرِ - المجلس السادس عشر. أ.د. يسري جبر","publishedAt":"2020-10-07T19:58:39Z","duration":"PT21M14S","thumbnail":"https://i.ytimg.com/vi/_Fv78idEwP8/mqdefault.jpg","viewCount":"1427","playlistId":"PLEkQk5xrP-tkSGrPLMt1BEmJ54cGWYgtp","playlistName":"كتابُ بِدَعِ التَفَاسِيرِ - أ.د. يسري جبر","category":"متنوع"},{"id":"MTpfG34GBQQ","title":"146- باب توقيره ﷺ","publishedAt":"2020-10-08T07:27:09Z","duration":"PT27M4S","thumbnail":"https://i.ytimg.com/vi/MTpfG34GBQQ/mqdefault.jpg","viewCount":"2069","playlistId":"PLEkQk5xrP-tmKNjtYLfhATC37QdIsTMe0","playlistName":"شرح كتاب اللؤلؤ والمرجان فيما اتفق عليه الشيخان إماما المحدثين البخاري ومسلم. أ.د. يسري جبر","category":"حديث"},{"id":"EXTsO4uDw9E","title":"التَّوكُّل رخصة والتَّفويض عزيمة","publishedAt":"2020-10-08T19:00:35Z","duration":"PT5M36S","thumbnail":"https://i.ytimg.com/vi/EXTsO4uDw9E/mqdefault.jpg","viewCount":"3001","playlistId":"PLEkQk5xrP-tm8ZIu74nTOZN9KJUJu416J","playlistName":"مقاطع مُهمَّة (يُسريَّات) أ.د. يسري جبر","category":"متنوع"},{"id":"80rpmTWfss8","title":"بيان حقيقته ومجازه","publishedAt":"2020-10-09T05:28:25Z","duration":"PT30M52S","thumbnail":"https://i.ytimg.com/vi/80rpmTWfss8/mqdefault.jpg","viewCount":"879","playlistId":"PLEkQk5xrP-tnW3iBL7HkKziOFCFZbTlf0","playlistName":"شرح البرهان في علوم القرآن - أ.د. يسري جبر","category":"تفسير"},{"id":"7XesWbbtJXI","title":"الفرق بين المُتوكِّل والمُفوِّض","publishedAt":"2020-10-09T20:37:39Z","duration":"PT12M13S","thumbnail":"https://i.ytimg.com/vi/7XesWbbtJXI/mqdefault.jpg","viewCount":"12375","playlistId":"PLEkQk5xrP-tm8ZIu74nTOZN9KJUJu416J","playlistName":"مقاطع مُهمَّة (يُسريَّات) أ.د. يسري جبر","category":"متنوع"},{"id":"xjEQEn4l75E","title":"147- بابٌ من فضائل موسى ﷺ","publishedAt":"2020-10-10T06:57:06Z","duration":"PT29M34S","thumbnail":"https://i.ytimg.com/vi/xjEQEn4l75E/mqdefault.jpg","viewCount":"2085","playlistId":"PLEkQk5xrP-tmKNjtYLfhATC37QdIsTMe0","playlistName":"شرح كتاب اللؤلؤ والمرجان فيما اتفق عليه الشيخان إماما المحدثين البخاري ومسلم. أ.د. يسري جبر","category":"حديث"},{"id":"P6xYfPpYZmw","title":"النَّبيُّ الجامعُ ﷺ","publishedAt":"2020-10-10T19:21:48Z","duration":"PT8M31S","thumbnail":"https://i.ytimg.com/vi/P6xYfPpYZmw/mqdefault.jpg","viewCount":"1646","playlistId":"PLEkQk5xrP-tm8ZIu74nTOZN9KJUJu416J","playlistName":"مقاطع مُهمَّة (يُسريَّات) أ.د. يسري جبر","category":"متنوع"},{"id":"zJe0oIrj1xk","title":"المجاز الإفرادي وأقسامه","publishedAt":"2020-10-11T08:13:14Z","duration":"PT22M8S","thumbnail":"https://i.ytimg.com/vi/zJe0oIrj1xk/mqdefault.jpg","viewCount":"655","playlistId":"PLEkQk5xrP-tnW3iBL7HkKziOFCFZbTlf0","playlistName":"شرح البرهان في علوم القرآن - أ.د. يسري جبر","category":"تفسير"},{"id":"OsWCSlTvyD8","title":"كيف تفوض الأمر لله؟","publishedAt":"2020-10-11T18:35:57Z","duration":"PT14M26S","thumbnail":"https://i.ytimg.com/vi/OsWCSlTvyD8/mqdefault.jpg","viewCount":"63676","playlistId":"PLEkQk5xrP-tm8ZIu74nTOZN9KJUJu416J","playlistName":"مقاطع مُهمَّة (يُسريَّات) أ.د. يسري جبر","category":"متنوع"}],"total":7675,"page":181,"pageSize":24,"totalPages":320}