{"items":[{"id":"xxBDI0Ftv18","title":"لُغَتُنَا الجَمِيلَةُ. أ.د. يسري جبر","publishedAt":"2019-11-17T18:49:51Z","duration":"PT3M50S","thumbnail":"https://i.ytimg.com/vi/xxBDI0Ftv18/mqdefault.jpg","viewCount":"1537","playlistId":"PLEkQk5xrP-tm8ZIu74nTOZN9KJUJu416J","playlistName":"مقاطع مُهمَّة (يُسريَّات) أ.د. يسري جبر","category":"متنوع"},{"id":"NIY_HRzbT70","title":"شرح سنن الدارمي كتاب فضائل القرآن من أوله","publishedAt":"2019-11-18T04:01:47Z","duration":"PT36M6S","thumbnail":"https://i.ytimg.com/vi/NIY_HRzbT70/mqdefault.jpg","viewCount":"661","playlistId":"PLEkQk5xrP-tmAg-FuWjY057X_h5NmGmAa","playlistName":"شرح سنن الدارمي - أ.د. يسري جبر (كاملا)","category":"متنوع"},{"id":"NbFGEh_UDUk","title":"شرح صحيح الإمام البخاري رضي الله تعالى عنه - كتابُِ أَخْبَار الآحَادِ  أ.د. يسري جبر","publishedAt":"2019-11-18T08:09:35Z","duration":"PT30M58S","thumbnail":"https://i.ytimg.com/vi/NbFGEh_UDUk/mqdefault.jpg","viewCount":"367","playlistId":"PLEkQk5xrP-tmJuzaj4GWRenFoFx9gdbFX","playlistName":"شرح كتاب صحيح الإمام البخاري رضي الله تعالى عنه   أ.د. يسرى جبر","category":"حديث"},{"id":"8mWRmSnlMAU","title":"الاحتفال بالمولد النبوي الشريف ١٤٤١هـ - إنشاد جمال أنور وفرقته.","publishedAt":"2019-11-19T18:19:10Z","duration":"PT35M45S","thumbnail":"https://i.ytimg.com/vi/8mWRmSnlMAU/mqdefault.jpg","viewCount":"3317","playlistId":"PLEkQk5xrP-tlB8lmbwjAKR8KRgiykGKhb","playlistName":"حضرات يسرية ومدائح نبوية","category":"متنوع"},{"id":"kFcihqDJtjs","title":"بَشَرٌ لَا كَالبَشَرِ ﷺ   أ.د. يسري جبر","publishedAt":"2019-11-20T17:10:17Z","duration":"PT1H10M11S","thumbnail":"https://i.ytimg.com/vi/kFcihqDJtjs/mqdefault.jpg","viewCount":"14373","playlistId":"PLEkQk5xrP-tmJzNvLntpzW0uPanPzxA0c","playlistName":"لقاءات ومحاضرات","category":"متنوع"},{"id":"KHdlJ-yJhhc","title":"شرح مسند الإمام محمد بن إدريس الشافعيّ رضي الله تعالى عنه - المجلس الرابع  أ.د. يسري جبر","publishedAt":"2019-11-21T04:51:46Z","duration":"PT46M57S","thumbnail":"https://i.ytimg.com/vi/KHdlJ-yJhhc/mqdefault.jpg","viewCount":"1505","playlistId":"PLEkQk5xrP-tlDtaqY0qhNXAiZ19gaGzKI","playlistName":"شرح مسند الإمام محمد بن إدريس الشافعيّ رضي الله تعالى عنه","category":"فقه"},{"id":"hR3D2RMPe7k","title":"الاحتفال بالمولد النبوي الشريف ١٤٤١هـ - مديح د. عباس نبيل","publishedAt":"2019-11-21T14:43:08Z","duration":"PT6M22S","thumbnail":"https://i.ytimg.com/vi/hR3D2RMPe7k/mqdefault.jpg","viewCount":"2705","playlistId":"PLEkQk5xrP-tlB8lmbwjAKR8KRgiykGKhb","playlistName":"حضرات يسرية ومدائح نبوية","category":"متنوع"},{"id":"IZTV0s6d1hM","title":"الاحتفال بالمولد النبوي الشريف ١٤٤١هـ - مديح عمرو خطاب.","publishedAt":"2019-11-22T12:01:14Z","duration":"PT19M14S","thumbnail":"https://i.ytimg.com/vi/IZTV0s6d1hM/mqdefault.jpg","viewCount":"1760","playlistId":"PLEkQk5xrP-tlB8lmbwjAKR8KRgiykGKhb","playlistName":"حضرات يسرية ومدائح نبوية","category":"متنوع"},{"id":"IdX27qBZan0","title":"شرح سنن الدارمي كتاب فضائل القرآن من أوله - تكملة","publishedAt":"2019-11-26T12:12:36Z","duration":"PT16M42S","thumbnail":"https://i.ytimg.com/vi/IdX27qBZan0/mqdefault.jpg","viewCount":"442","playlistId":"PLEkQk5xrP-tmAg-FuWjY057X_h5NmGmAa","playlistName":"شرح سنن الدارمي - أ.د. يسري جبر (كاملا)","category":"متنوع"},{"id":"GbeVT3Icyx0","title":"يا مُشفَّع يا نبي يامُكمَّل يا نبي ﷺ.","publishedAt":"2019-11-26T18:08:52Z","duration":"PT9M6S","thumbnail":"https://i.ytimg.com/vi/GbeVT3Icyx0/mqdefault.jpg","viewCount":"2283","playlistId":"PLEkQk5xrP-tlB8lmbwjAKR8KRgiykGKhb","playlistName":"حضرات يسرية ومدائح نبوية","category":"متنوع"},{"id":"Ct_X7EWiXBE","title":"ختام شرح سنن الإمام الدارمي رضي الله تعالى عنه - أ.د. يسري جبر","publishedAt":"2019-11-26T19:34:21Z","duration":"PT30M28S","thumbnail":"https://i.ytimg.com/vi/Ct_X7EWiXBE/mqdefault.jpg","viewCount":"789","playlistId":"PLEkQk5xrP-tmAg-FuWjY057X_h5NmGmAa","playlistName":"شرح سنن الدارمي - أ.د. يسري جبر (كاملا)","category":"متنوع"},{"id":"WzAHB9whH40","title":"شرح البرهان في علوم القرآن - النوع النوع  ١٩ - معرفة التصريف","publishedAt":"2019-11-27T04:53:22Z","duration":"PT16M24S","thumbnail":"https://i.ytimg.com/vi/WzAHB9whH40/mqdefault.jpg","viewCount":"548","playlistId":"PLEkQk5xrP-tnW3iBL7HkKziOFCFZbTlf0","playlistName":"شرح البرهان في علوم القرآن - أ.د. يسري جبر","category":"تفسير"},{"id":"clLhwptuPaY","title":"شرح البرهان في علوم القرآن - النوع ٢٠ - معرفة الأحكام من جهة أفرادها وتركيبها","publishedAt":"2019-11-27T12:16:00Z","duration":"PT33M47S","thumbnail":"https://i.ytimg.com/vi/clLhwptuPaY/mqdefault.jpg","viewCount":"799","playlistId":"PLEkQk5xrP-tnW3iBL7HkKziOFCFZbTlf0","playlistName":"شرح البرهان في علوم القرآن - أ.د. يسري جبر","category":"تفسير"},{"id":"kI8H5hsYD2k","title":"1- شرح كتاب اللؤلؤ والمرجان فيما اتفق عليه الشيخان إماما المحدثين البخاري ومسلم.   أ.د. يسري جبر","publishedAt":"2019-11-27T18:33:37Z","duration":"PT43M12S","thumbnail":"https://i.ytimg.com/vi/kI8H5hsYD2k/mqdefault.jpg","viewCount":"12267","playlistId":"PLEkQk5xrP-tmKNjtYLfhATC37QdIsTMe0","playlistName":"شرح كتاب اللؤلؤ والمرجان فيما اتفق عليه الشيخان إماما المحدثين البخاري ومسلم. أ.د. يسري جبر","category":"حديث"},{"id":"Rix0NdBRPrU","title":"شرح البرهان في علوم القرآن - النوع ٢٠ - معرفة الأحكام من جهة أفرادها وتركيبها ٢","publishedAt":"2019-11-28T10:44:32Z","duration":"PT20M57S","thumbnail":"https://i.ytimg.com/vi/Rix0NdBRPrU/mqdefault.jpg","viewCount":"606","playlistId":"PLEkQk5xrP-tnW3iBL7HkKziOFCFZbTlf0","playlistName":"شرح البرهان في علوم القرآن - أ.د. يسري جبر","category":"تفسير"},{"id":"KKuicR4jAY0","title":"سِرُّ الإِخْلَاصِ. أ.د. يسري جبر","publishedAt":"2019-11-28T16:33:12Z","duration":"PT1M35S","thumbnail":"https://i.ytimg.com/vi/KKuicR4jAY0/mqdefault.jpg","viewCount":"4675","playlistId":"PLEkQk5xrP-tm8ZIu74nTOZN9KJUJu416J","playlistName":"مقاطع مُهمَّة (يُسريَّات) أ.د. يسري جبر","category":"متنوع"},{"id":"1tdDdzOfpSk","title":"الرسالة القشيرية - المجلس (71) بَابُ الإخْلَاصِ. أ.د. يسري جبر","publishedAt":"2019-11-28T22:11:47Z","duration":"PT54M47S","thumbnail":"https://i.ytimg.com/vi/1tdDdzOfpSk/mqdefault.jpg","viewCount":"8339","playlistId":"PLEkQk5xrP-tkHAGOwIKr4pc5ehhyQ5HMJ","playlistName":"كتاب الرسالة القشيرية (تصوف) - د. يسري جبر","category":"تصوف"},{"id":"b_MRG8iRCPU","title":"2- شرح كتاب اللؤلؤ والمرجان - المجلس الثاني. أ.د. يسري جبر","publishedAt":"2019-11-29T08:30:23Z","duration":"PT35M55S","thumbnail":"https://i.ytimg.com/vi/b_MRG8iRCPU/mqdefault.jpg","viewCount":"4279","playlistId":"PLEkQk5xrP-tmKNjtYLfhATC37QdIsTMe0","playlistName":"شرح كتاب اللؤلؤ والمرجان فيما اتفق عليه الشيخان إماما المحدثين البخاري ومسلم. أ.د. يسري جبر","category":"حديث"},{"id":"uu8FJdoQutY","title":"نَجَاةُ النَّسَبِ الشَّرِيفِ مِنَ النَّارِ. أ.د. يسري جبر","publishedAt":"2019-12-01T12:32:40Z","duration":"PT49M51S","thumbnail":"https://i.ytimg.com/vi/uu8FJdoQutY/mqdefault.jpg","viewCount":"5911","playlistId":"PLEkQk5xrP-tlArtGpeLWaqNM7h7IDeAVC","playlistName":"خطب الجمعة أ.د. يسري جبر","category":"خطب"},{"id":"OKmF_iOm-JA","title":"شرح كتاب دلائل الخيرات - المجلس الحادي عشر. أ.د. يسري جبر","publishedAt":"2019-12-02T16:45:31Z","duration":"PT13M31S","thumbnail":"https://i.ytimg.com/vi/OKmF_iOm-JA/mqdefault.jpg","viewCount":"10455","playlistId":"PLEkQk5xrP-tlAzcbIpuqjdFICW-knvTlR","playlistName":"شرح كتاب دلائل الخيرات وشوارق الأنوار","category":"متنوع"},{"id":"0Fbetlwe9lY","title":"شرح صحيح الإمام البخاري رضي الله تعالى عنه - كتابُِ أَخْبَارِ الآحَادِ  أ.د. يسري جبر","publishedAt":"2019-12-03T16:05:56Z","duration":"PT36M8S","thumbnail":"https://i.ytimg.com/vi/0Fbetlwe9lY/mqdefault.jpg","viewCount":"483","playlistId":"PLEkQk5xrP-tmJuzaj4GWRenFoFx9gdbFX","playlistName":"شرح كتاب صحيح الإمام البخاري رضي الله تعالى عنه   أ.د. يسرى جبر","category":"حديث"},{"id":"a0FMWMB15Iw","title":"شرح مسند الإمام محمد بن إدريس الشافعيّ رضي الله تعالى عنه - المجلس الخامس  أ.د. يسري جبر","publishedAt":"2019-12-04T18:40:46Z","duration":"PT48M25S","thumbnail":"https://i.ytimg.com/vi/a0FMWMB15Iw/mqdefault.jpg","viewCount":"1387","playlistId":"PLEkQk5xrP-tlDtaqY0qhNXAiZ19gaGzKI","playlistName":"شرح مسند الإمام محمد بن إدريس الشافعيّ رضي الله تعالى عنه","category":"فقه"},{"id":"iYlNySBdUaE","title":"3- شرح كتاب اللؤلؤ والمرجان - المجلس الثالث. أ.د. يسري جبر","publishedAt":"2019-12-05T19:29:46Z","duration":"PT38M54S","thumbnail":"https://i.ytimg.com/vi/iYlNySBdUaE/mqdefault.jpg","viewCount":"2768","playlistId":"PLEkQk5xrP-tmKNjtYLfhATC37QdIsTMe0","playlistName":"شرح كتاب اللؤلؤ والمرجان فيما اتفق عليه الشيخان إماما المحدثين البخاري ومسلم. أ.د. يسري جبر","category":"حديث"},{"id":"jQ0vXlXaEVg","title":"الرسالة القشيرية - المجلس (72) بَابُ الصدق . أ.د. يسري جبر","publishedAt":"2019-12-06T13:44:35Z","duration":"PT48M39S","thumbnail":"https://i.ytimg.com/vi/jQ0vXlXaEVg/mqdefault.jpg","viewCount":"4902","playlistId":"PLEkQk5xrP-tkHAGOwIKr4pc5ehhyQ5HMJ","playlistName":"كتاب الرسالة القشيرية (تصوف) - د. يسري جبر","category":"تصوف"}],"total":7675,"page":158,"pageSize":24,"totalPages":320}