{"items":[{"id":"Wp62SXYw8Vk","title":"هل يمكن رؤية النبي ﷺ في اليقظة؟ | مجالس رمضانية","publishedAt":"2024-03-09T14:30:10Z","duration":"PT40M43S","thumbnail":"https://i.ytimg.com/vi/Wp62SXYw8Vk/mqdefault.jpg","viewCount":"10156","playlistId":"PLEkQk5xrP-tnl7vb7KeAoPd5ZlqKKW8KV","playlistName":"شرح كتاب بهجة النفوس أ.د . يسرى جبر","category":"متنوع"},{"id":"_hLidYq2PWI","title":"حقيقة رؤيا النبي ﷺ في المنام | مجالس رمضانية","publishedAt":"2024-03-10T14:00:22Z","duration":"PT30M50S","thumbnail":"https://i.ytimg.com/vi/_hLidYq2PWI/mqdefault.jpg","viewCount":"4125","playlistId":"PLEkQk5xrP-tnl7vb7KeAoPd5ZlqKKW8KV","playlistName":"شرح كتاب بهجة النفوس أ.د . يسرى جبر","category":"متنوع"},{"id":"q1H3bV6Etvs","title":"كيف تبدأ رمضان بقلب سيلم؟","publishedAt":"2024-03-10T18:00:19Z","duration":"PT17M26S","thumbnail":"https://i.ytimg.com/vi/q1H3bV6Etvs/mqdefault.jpg","viewCount":"13174","playlistId":"PLEkQk5xrP-tlArtGpeLWaqNM7h7IDeAVC","playlistName":"خطب الجمعة أ.د. يسري جبر","category":"خطب"},{"id":"56fRxxN2AAM","title":"85- قصة مقتل أبي جهل يوم بدر على يد غلامين - شرح مسند الإمام أحمد رضي الله تعالى عنه","publishedAt":"2024-03-11T07:00:02Z","duration":"PT24M25S","thumbnail":"https://i.ytimg.com/vi/56fRxxN2AAM/mqdefault.jpg","viewCount":"1143","playlistId":"PLEkQk5xrP-tkKprIuGrSdEuBSMsyg5We1","playlistName":"شرح مسند الإمام أحمد بن حنبل","category":"متنوع"},{"id":"xNPi7qYCQqc","title":"تفسير شرب اللبن والخمر في المنام | مجالس رمضانية","publishedAt":"2024-03-11T14:00:49Z","duration":"PT27M19S","thumbnail":"https://i.ytimg.com/vi/xNPi7qYCQqc/mqdefault.jpg","viewCount":"2453","playlistId":"PLEkQk5xrP-tnl7vb7KeAoPd5ZlqKKW8KV","playlistName":"شرح كتاب بهجة النفوس أ.د . يسرى جبر","category":"متنوع"},{"id":"OMTO_tj99fs","title":"ردا على الفيديو المقتطع (العبد رب والرب عبد)","publishedAt":"2024-03-11T15:38:22Z","duration":"PT3M14S","thumbnail":"https://i.ytimg.com/vi/OMTO_tj99fs/mqdefault.jpg","viewCount":"739","playlistId":"PLEkQk5xrP-tlG4r6Zxis5AqEnE9aNyJdV","playlistName":"الرد على المعترضين على د. يسري جبر","category":"ردود"},{"id":"ZpdVljC8Mk4","title":"ازاي أصلي بخشوع في رمضان؟","publishedAt":"2024-03-11T18:00:16Z","duration":"PT29M30S","thumbnail":"https://i.ytimg.com/vi/ZpdVljC8Mk4/mqdefault.jpg","viewCount":"17820","playlistId":"PLEkQk5xrP-tm8ZIu74nTOZN9KJUJu416J","playlistName":"مقاطع مُهمَّة (يُسريَّات) أ.د. يسري جبر","category":"متنوع"},{"id":"YVNjutTRy70","title":"تفسير رؤيا عرض الناس على النبي ﷺ | مجالس رمضانية","publishedAt":"2024-03-12T14:00:21Z","duration":"PT30M45S","thumbnail":"https://i.ytimg.com/vi/YVNjutTRy70/mqdefault.jpg","viewCount":"2173","playlistId":"PLEkQk5xrP-tnl7vb7KeAoPd5ZlqKKW8KV","playlistName":"شرح كتاب بهجة النفوس أ.د . يسرى جبر","category":"متنوع"},{"id":"Bu8XobLSKaA","title":"لا أستطيع المحافظة على الوضوء فماذا أفعل؟","publishedAt":"2024-03-12T18:00:05Z","duration":"PT9M25S","thumbnail":"https://i.ytimg.com/vi/Bu8XobLSKaA/mqdefault.jpg","viewCount":"6679","playlistId":"PLEkQk5xrP-tkGXuZ9atE3k_7it12rUPTs","playlistName":"أسئلة المتابعين","category":"متنوع"},{"id":"xhfq3sjKjRk","title":"لولا الأنبياء لما اهتديت | ردا على الفيديو المقتطع لسيدي أبو الحسن الشاذلي","publishedAt":"2024-03-13T12:11:53Z","duration":"PT1M35S","thumbnail":"https://i.ytimg.com/vi/xhfq3sjKjRk/mqdefault.jpg","viewCount":"319","playlistId":"PLEkQk5xrP-tlG4r6Zxis5AqEnE9aNyJdV","playlistName":"الرد على المعترضين على د. يسري جبر","category":"ردود"},{"id":"giJRqzAAH6g","title":"هل صدق الرؤيا من علامات الساعة؟ | مجالس رمضانية","publishedAt":"2024-03-13T14:00:36Z","duration":"PT37M38S","thumbnail":"https://i.ytimg.com/vi/giJRqzAAH6g/mqdefault.jpg","viewCount":"4075","playlistId":"PLEkQk5xrP-tnl7vb7KeAoPd5ZlqKKW8KV","playlistName":"شرح كتاب بهجة النفوس أ.د . يسرى جبر","category":"متنوع"},{"id":"17qh1URC0bg","title":"أنا بكره أبويا وأمي بسبب سوء معاملتهم وخلافاتهم المستمرة ,, فماذا أفعل؟","publishedAt":"2024-03-13T18:00:01Z","duration":"PT10M51S","thumbnail":"https://i.ytimg.com/vi/17qh1URC0bg/mqdefault.jpg","viewCount":"6875","playlistId":"PLEkQk5xrP-tkGXuZ9atE3k_7it12rUPTs","playlistName":"أسئلة المتابعين","category":"متنوع"},{"id":"oUyJKnzF294","title":"217- المطلق والمقيد - شرح الإتقان في علوم القرآن","publishedAt":"2024-03-14T06:30:23Z","duration":"PT27M32S","thumbnail":"https://i.ytimg.com/vi/oUyJKnzF294/mqdefault.jpg","viewCount":"941","playlistId":"PLEkQk5xrP-tlPw10KGJKagu7zm4Ry2Tge","playlistName":"شرح الإتقان في علوم القرآن","category":"تفسير"},{"id":"jv7Ewb5C8J8","title":"خطورة الكذب في الرؤيا والتجسس | مجالس رمضانية","publishedAt":"2024-03-14T14:00:36Z","duration":"PT35M16S","thumbnail":"https://i.ytimg.com/vi/jv7Ewb5C8J8/mqdefault.jpg","viewCount":"2992","playlistId":"PLEkQk5xrP-tnl7vb7KeAoPd5ZlqKKW8KV","playlistName":"شرح كتاب بهجة النفوس أ.د . يسرى جبر","category":"متنوع"},{"id":"k0hRCESyyv4","title":"أنا بنت وتأخر زواجي فماذا أفعل وهل يوجد للبنت سعي في الزواج؟","publishedAt":"2024-03-14T18:00:30Z","duration":"PT13M8S","thumbnail":"https://i.ytimg.com/vi/k0hRCESyyv4/mqdefault.jpg","viewCount":"59077","playlistId":"PLEkQk5xrP-tkGXuZ9atE3k_7it12rUPTs","playlistName":"أسئلة المتابعين","category":"متنوع"},{"id":"wjtTla1-PZU","title":"ما سر الأحلام والرؤى التي تتحقق؟ | مجالس رمضانية","publishedAt":"2024-03-15T14:00:48Z","duration":"PT37M42S","thumbnail":"https://i.ytimg.com/vi/wjtTla1-PZU/mqdefault.jpg","viewCount":"10234","playlistId":"PLEkQk5xrP-tnl7vb7KeAoPd5ZlqKKW8KV","playlistName":"شرح كتاب بهجة النفوس أ.د . يسرى جبر","category":"متنوع"},{"id":"N_IM3NUiv9c","title":"بيفطر ولا لأ؟ | كل ما تريد معرفته عن مفطرات الصيام!","publishedAt":"2024-03-15T18:07:59Z","duration":"PT15M15S","thumbnail":"https://i.ytimg.com/vi/N_IM3NUiv9c/mqdefault.jpg","viewCount":"2873","playlistId":"PLEkQk5xrP-tlArtGpeLWaqNM7h7IDeAVC","playlistName":"خطب الجمعة أ.د. يسري جبر","category":"خطب"},{"id":"HDDAdr-eQHo","title":"متى يجوز الخروج على الحاكم؟ | مجالس رمضانية","publishedAt":"2024-03-16T14:00:13Z","duration":"PT31M27S","thumbnail":"https://i.ytimg.com/vi/HDDAdr-eQHo/mqdefault.jpg","viewCount":"3333","playlistId":"PLEkQk5xrP-tnl7vb7KeAoPd5ZlqKKW8KV","playlistName":"شرح كتاب بهجة النفوس أ.د . يسرى جبر","category":"متنوع"},{"id":"EMs0zxZGeuo","title":"ما رأيك في العلاقة بين الولد والبنت في ظل ما يحدث من جدل","publishedAt":"2024-03-16T18:00:12Z","duration":"PT14M38S","thumbnail":"https://i.ytimg.com/vi/EMs0zxZGeuo/mqdefault.jpg","viewCount":"27024","playlistId":"PLEkQk5xrP-tkGXuZ9atE3k_7it12rUPTs","playlistName":"أسئلة المتابعين","category":"متنوع"},{"id":"WywW9UPpDLM","title":"86- نبذة عن سيدنا أبي عبيدة بن الجراح رضي الله تعالى عنه - شرح مسند الإمام أحمد رضي الله تعالى عنه","publishedAt":"2024-03-17T07:00:22Z","duration":"PT22M10S","thumbnail":"https://i.ytimg.com/vi/WywW9UPpDLM/mqdefault.jpg","viewCount":"863","playlistId":"PLEkQk5xrP-tkKprIuGrSdEuBSMsyg5We1","playlistName":"شرح مسند الإمام أحمد بن حنبل","category":"متنوع"},{"id":"0cujUKajvNM","title":"أنا مش بعرف أكمل حاجة لأخرها وبفقد الأمل ,, فماذا أفعل؟","publishedAt":"2024-03-17T14:00:01Z","duration":"PT16M32S","thumbnail":"https://i.ytimg.com/vi/0cujUKajvNM/mqdefault.jpg","viewCount":"60142","playlistId":"PLEkQk5xrP-tm8ZIu74nTOZN9KJUJu416J","playlistName":"مقاطع مُهمَّة (يُسريَّات) أ.د. يسري جبر","category":"متنوع"},{"id":"N8Dn2TDH8UU","title":"الابتلاء عقوبة أم محبة؟","publishedAt":"2024-03-17T20:00:11Z","duration":"PT8M4S","thumbnail":"https://i.ytimg.com/vi/N8Dn2TDH8UU/mqdefault.jpg","viewCount":"5835","playlistId":"PLEkQk5xrP-tm8ZIu74nTOZN9KJUJu416J","playlistName":"مقاطع مُهمَّة (يُسريَّات) أ.د. يسري جبر","category":"متنوع"},{"id":"3qzkoSkw6PI","title":"ما هي علامات الساعة التي ظهرت؟ | مجالس رمضانية","publishedAt":"2024-03-18T14:00:04Z","duration":"PT39M30S","thumbnail":"https://i.ytimg.com/vi/3qzkoSkw6PI/mqdefault.jpg","viewCount":"7231","playlistId":"PLEkQk5xrP-tnl7vb7KeAoPd5ZlqKKW8KV","playlistName":"شرح كتاب بهجة النفوس أ.د . يسرى جبر","category":"متنوع"},{"id":"4tEeWmnJlr0","title":"ليه بتشرب و تدي اللي بتشربه لباقي الحضور؟ | الرد على المتابعين","publishedAt":"2024-03-18T18:00:03Z","duration":"PT10M22S","thumbnail":"https://i.ytimg.com/vi/4tEeWmnJlr0/mqdefault.jpg","viewCount":"7138","playlistId":"PLEkQk5xrP-tkGXuZ9atE3k_7it12rUPTs","playlistName":"أسئلة المتابعين","category":"متنوع"}],"total":7675,"page":285,"pageSize":24,"totalPages":320}