{"items":[{"id":"OEcih4VUw-A","title":"23- جَامِعِ الصَّلاَةِ ك قصرالصلاة فى السفر ك الموطأ د يسري جبر الأزهري بمضيفة الشيخ سعيد الدح","publishedAt":"2016-08-25T23:36:03Z","duration":"PT49M45S","thumbnail":"https://i.ytimg.com/vi/OEcih4VUw-A/mqdefault.jpg","viewCount":"541","playlistId":"PLEkQk5xrP-tnC6BRuqMjyO-484iqXeg0o","playlistName":"شرح كتاب الموطأ للإمام مالك","category":"متنوع"},{"id":"P1trZLBPyb4","title":"شرح صحيح البخاري ( كتاب العلم مجلس ١٠ )","publishedAt":"2016-08-25T23:43:37Z","duration":"PT35M59S","thumbnail":"https://i.ytimg.com/vi/P1trZLBPyb4/mqdefault.jpg","viewCount":"1865","playlistId":"PLEkQk5xrP-tlEerGoLa1AFy-2XvQ-sovv","playlistName":"شرح صحيح البخاري - أ.د. يسري جبر (كاملا)","category":"حديث"},{"id":"iICWvhmaPPU","title":"سورة النساء آية 58","publishedAt":"2016-08-26T06:46:14Z","duration":"PT10M","thumbnail":"https://i.ytimg.com/vi/iICWvhmaPPU/mqdefault.jpg","viewCount":"466","playlistId":"PLEkQk5xrP-tnmTYsyW6xNdyfhPq0Bhrhj","playlistName":"مقرأة الفجر - القُرْآنُ الكَرِيمُ - خَتْمَةُ التَّدَبُّرِ  أ.د. يسري جبر","category":"متنوع"},{"id":"DRWGLExHJoo","title":"شرح صحيح البخاري ( كتاب الوضوء  مجلس ١ )","publishedAt":"2016-08-26T07:35:20Z","duration":"PT38M6S","thumbnail":"https://i.ytimg.com/vi/DRWGLExHJoo/mqdefault.jpg","viewCount":"3389","playlistId":"PLEkQk5xrP-tlEerGoLa1AFy-2XvQ-sovv","playlistName":"شرح صحيح البخاري - أ.د. يسري جبر (كاملا)","category":"حديث"},{"id":"0twNV7FpQag","title":"سرقة يقع فيها كثير من الناس  د. يسري جبر","publishedAt":"2016-08-27T18:25:23Z","duration":"PT41M24S","thumbnail":"https://i.ytimg.com/vi/0twNV7FpQag/mqdefault.jpg","viewCount":"2402","playlistId":"PLEkQk5xrP-tlArtGpeLWaqNM7h7IDeAVC","playlistName":"خطب الجمعة أ.د. يسري جبر","category":"خطب"},{"id":"d5MDxnH0CQw","title":"سورة النساء آية 60","publishedAt":"2016-08-27T21:07:17Z","duration":"PT18M11S","thumbnail":"https://i.ytimg.com/vi/d5MDxnH0CQw/mqdefault.jpg","viewCount":"566","playlistId":"PLEkQk5xrP-tnmTYsyW6xNdyfhPq0Bhrhj","playlistName":"مقرأة الفجر - القُرْآنُ الكَرِيمُ - خَتْمَةُ التَّدَبُّرِ  أ.د. يسري جبر","category":"متنوع"},{"id":"7urOOs4zKsg","title":"شرح صحيح البخاري ( كتاب الوضوء مجلس ٢ )","publishedAt":"2016-08-28T00:06:22Z","duration":"PT42M44S","thumbnail":"https://i.ytimg.com/vi/7urOOs4zKsg/mqdefault.jpg","viewCount":"2270","playlistId":"PLEkQk5xrP-tlEerGoLa1AFy-2XvQ-sovv","playlistName":"شرح صحيح البخاري - أ.د. يسري جبر (كاملا)","category":"حديث"},{"id":"dKTq64PdPnQ","title":"سورة النساء آية 65","publishedAt":"2016-08-28T20:24:58Z","duration":"PT10M49S","thumbnail":"https://i.ytimg.com/vi/dKTq64PdPnQ/mqdefault.jpg","viewCount":"469","playlistId":"PLEkQk5xrP-tnmTYsyW6xNdyfhPq0Bhrhj","playlistName":"مقرأة الفجر - القُرْآنُ الكَرِيمُ - خَتْمَةُ التَّدَبُّرِ  أ.د. يسري جبر","category":"متنوع"},{"id":"Kod8fNmErss","title":"شرح صحيح البخاري ( كتاب الوضوء مجلس ٣ )","publishedAt":"2016-08-29T00:14:27Z","duration":"PT42M24S","thumbnail":"https://i.ytimg.com/vi/Kod8fNmErss/mqdefault.jpg","viewCount":"2077","playlistId":"PLEkQk5xrP-tlEerGoLa1AFy-2XvQ-sovv","playlistName":"شرح صحيح البخاري - أ.د. يسري جبر (كاملا)","category":"حديث"},{"id":"rqt6FMZrD4Q","title":"شرح صحيح البخاري ( كتاب الوضوء مجلس 4 )","publishedAt":"2016-08-29T04:47:41Z","duration":"PT40M26S","thumbnail":"https://i.ytimg.com/vi/rqt6FMZrD4Q/mqdefault.jpg","viewCount":"1866","playlistId":"PLEkQk5xrP-tlEerGoLa1AFy-2XvQ-sovv","playlistName":"شرح صحيح البخاري - أ.د. يسري جبر (كاملا)","category":"حديث"},{"id":"RlQr_L46ftc","title":"شرح صحيح البخاري ( كتاب الوضوء مجلس ٥ )","publishedAt":"2016-08-30T20:26:35Z","duration":"PT41M59S","thumbnail":"https://i.ytimg.com/vi/RlQr_L46ftc/mqdefault.jpg","viewCount":"1779","playlistId":"PLEkQk5xrP-tlEerGoLa1AFy-2XvQ-sovv","playlistName":"شرح صحيح البخاري - أ.د. يسري جبر (كاملا)","category":"حديث"},{"id":"PYuPHg4uwuw","title":"سورة النساء أية 77","publishedAt":"2016-08-31T06:10:26Z","duration":"PT22M9S","thumbnail":"https://i.ytimg.com/vi/PYuPHg4uwuw/mqdefault.jpg","viewCount":"520","playlistId":"PLEkQk5xrP-tnmTYsyW6xNdyfhPq0Bhrhj","playlistName":"مقرأة الفجر - القُرْآنُ الكَرِيمُ - خَتْمَةُ التَّدَبُّرِ  أ.د. يسري جبر","category":"متنوع"},{"id":"z7JQq3dYJEc","title":"شرح صحيح البخاري ( كتاب الوضوء مجلس ٦ )","publishedAt":"2016-08-31T06:36:54Z","duration":"PT40M48S","thumbnail":"https://i.ytimg.com/vi/z7JQq3dYJEc/mqdefault.jpg","viewCount":"1668","playlistId":"PLEkQk5xrP-tlEerGoLa1AFy-2XvQ-sovv","playlistName":"شرح صحيح البخاري - أ.د. يسري جبر (كاملا)","category":"حديث"},{"id":"nsuhiA5uEvY","title":"صحيح الإمام البخاري رضي الله عنه - كتاب الطب المجلس السابع  د. يسري جبر","publishedAt":"2016-08-31T19:24:32Z","duration":"PT40M45S","thumbnail":"https://i.ytimg.com/vi/nsuhiA5uEvY/mqdefault.jpg","viewCount":"122","playlistId":"PLEkQk5xrP-tmJuzaj4GWRenFoFx9gdbFX","playlistName":"شرح كتاب صحيح الإمام البخاري رضي الله تعالى عنه   أ.د. يسرى جبر","category":"حديث"},{"id":"1iYV2zhdV8M","title":"سورة النساء آية 81","publishedAt":"2016-09-02T00:01:05Z","duration":"PT27M19S","thumbnail":"https://i.ytimg.com/vi/1iYV2zhdV8M/mqdefault.jpg","viewCount":"486","playlistId":"PLEkQk5xrP-tnmTYsyW6xNdyfhPq0Bhrhj","playlistName":"مقرأة الفجر - القُرْآنُ الكَرِيمُ - خَتْمَةُ التَّدَبُّرِ  أ.د. يسري جبر","category":"متنوع"},{"id":"EfpdbN8aPAk","title":"شرح صحيح البخاري ( كتاب الوضوء مجلس ٧ )","publishedAt":"2016-09-02T00:01:34Z","duration":"PT35M17S","thumbnail":"https://i.ytimg.com/vi/EfpdbN8aPAk/mqdefault.jpg","viewCount":"1592","playlistId":"PLEkQk5xrP-tlEerGoLa1AFy-2XvQ-sovv","playlistName":"شرح صحيح البخاري - أ.د. يسري جبر (كاملا)","category":"حديث"},{"id":"7h1_RYPFVgg","title":"سورة النساء آية 88","publishedAt":"2016-09-02T07:37:20Z","duration":"PT10M54S","thumbnail":"https://i.ytimg.com/vi/7h1_RYPFVgg/mqdefault.jpg","viewCount":"453","playlistId":"PLEkQk5xrP-tnmTYsyW6xNdyfhPq0Bhrhj","playlistName":"مقرأة الفجر - القُرْآنُ الكَرِيمُ - خَتْمَةُ التَّدَبُّرِ  أ.د. يسري جبر","category":"متنوع"},{"id":"df1OhgBz3vY","title":"شرح صحيح البخاري ( كتاب الوضوء مجلس ٨ )","publishedAt":"2016-09-02T08:07:24Z","duration":"PT31M51S","thumbnail":"https://i.ytimg.com/vi/df1OhgBz3vY/mqdefault.jpg","viewCount":"1483","playlistId":"PLEkQk5xrP-tlEerGoLa1AFy-2XvQ-sovv","playlistName":"شرح صحيح البخاري - أ.د. يسري جبر (كاملا)","category":"حديث"},{"id":"BExiEJM-Xkg","title":"24- كتاب العيدين ك الموطأ د يسري جبر الأزهري  بمضيفة الشيخ سعيد الدح","publishedAt":"2016-09-04T14:58:57Z","duration":"PT47M28S","thumbnail":"https://i.ytimg.com/vi/BExiEJM-Xkg/mqdefault.jpg","viewCount":"515","playlistId":"PLEkQk5xrP-tnC6BRuqMjyO-484iqXeg0o","playlistName":"شرح كتاب الموطأ للإمام مالك","category":"متنوع"},{"id":"dNeB4-2weG4","title":"سورة النساء آية 93","publishedAt":"2016-09-04T19:44:16Z","duration":"PT12M42S","thumbnail":"https://i.ytimg.com/vi/dNeB4-2weG4/mqdefault.jpg","viewCount":"374","playlistId":"PLEkQk5xrP-tnmTYsyW6xNdyfhPq0Bhrhj","playlistName":"مقرأة الفجر - القُرْآنُ الكَرِيمُ - خَتْمَةُ التَّدَبُّرِ  أ.د. يسري جبر","category":"متنوع"},{"id":"4BSbP3GBfRE","title":"شرح صحيح البخاري (  اخر مجلس في كتاب الوضوء مجلس ١٠ )","publishedAt":"2016-09-04T23:47:30Z","duration":"PT49M8S","thumbnail":"https://i.ytimg.com/vi/4BSbP3GBfRE/mqdefault.jpg","viewCount":"1661","playlistId":"PLEkQk5xrP-tlEerGoLa1AFy-2XvQ-sovv","playlistName":"شرح صحيح البخاري - أ.د. يسري جبر (كاملا)","category":"حديث"},{"id":"c-wlcNnDy_I","title":"شرح صحيح البخاري ( كتاب الوضوء مجلس ٩ )","publishedAt":"2016-09-05T01:13:25Z","duration":"PT31M28S","thumbnail":"https://i.ytimg.com/vi/c-wlcNnDy_I/mqdefault.jpg","viewCount":"1476","playlistId":"PLEkQk5xrP-tlEerGoLa1AFy-2XvQ-sovv","playlistName":"شرح صحيح البخاري - أ.د. يسري جبر (كاملا)","category":"حديث"},{"id":"7XoxDECMb5k","title":"صحيح الإمام البخاري رضي الله عنه - كتاب الطب المجلس التاسع  د. يسري جبر","publishedAt":"2016-09-05T02:45:09Z","duration":"PT41M37S","thumbnail":"https://i.ytimg.com/vi/7XoxDECMb5k/mqdefault.jpg","viewCount":"154","playlistId":"PLEkQk5xrP-tmJuzaj4GWRenFoFx9gdbFX","playlistName":"شرح كتاب صحيح الإمام البخاري رضي الله تعالى عنه   أ.د. يسرى جبر","category":"حديث"},{"id":"yIxXFnoYOqY","title":"سورة النساء آية 95","publishedAt":"2016-09-05T06:06:34Z","duration":"PT10M22S","thumbnail":"https://i.ytimg.com/vi/yIxXFnoYOqY/mqdefault.jpg","viewCount":"403","playlistId":"PLEkQk5xrP-tnmTYsyW6xNdyfhPq0Bhrhj","playlistName":"مقرأة الفجر - القُرْآنُ الكَرِيمُ - خَتْمَةُ التَّدَبُّرِ  أ.د. يسري جبر","category":"متنوع"}],"total":7675,"page":47,"pageSize":24,"totalPages":320}