{"items":[{"id":"xN99o6aWopw","title":"كيف تحمي نفسك من فيروس كورونا؟","publishedAt":"2021-01-10T18:28:52Z","duration":"PT11M49S","thumbnail":"https://i.ytimg.com/vi/xN99o6aWopw/mqdefault.jpg","viewCount":"24552","playlistId":"PLEkQk5xrP-tlArtGpeLWaqNM7h7IDeAVC","playlistName":"خطب الجمعة أ.د. يسري جبر","category":"خطب"},{"id":"2X7fNyCiEYQ","title":"2- التعريفُ بالشيخ ‎محمد بن علَّان صاحب كتاب دليل الفالحين أ.د. يسري جبر","publishedAt":"2021-01-11T07:18:11Z","duration":"PT24M17S","thumbnail":"https://i.ytimg.com/vi/2X7fNyCiEYQ/mqdefault.jpg","viewCount":"5217","playlistId":"PLEkQk5xrP-tkc9DXvSLguqX5-FYp6ASR4","playlistName":"دليل الفالحين لطرق رياض الصالحين","category":"متنوع"},{"id":"reBsvD53jQY","title":"الفرق بين القَدَر والعِلْم والإرادة والقُدرة","publishedAt":"2021-01-11T19:00:09Z","duration":"PT13M55S","thumbnail":"https://i.ytimg.com/vi/reBsvD53jQY/mqdefault.jpg","viewCount":"33217","playlistId":"PLEkQk5xrP-tm8ZIu74nTOZN9KJUJu416J","playlistName":"مقاطع مُهمَّة (يُسريَّات) أ.د. يسري جبر","category":"متنوع"},{"id":"hQ8OzlKnlxY","title":"التأكيد لمعنى الجملة - شرح البرهان في علوم القرآن أ.د. يسري جبر","publishedAt":"2021-01-12T07:29:54Z","duration":"PT8M48S","thumbnail":"https://i.ytimg.com/vi/hQ8OzlKnlxY/mqdefault.jpg","viewCount":"499","playlistId":"PLEkQk5xrP-tnW3iBL7HkKziOFCFZbTlf0","playlistName":"شرح البرهان في علوم القرآن - أ.د. يسري جبر","category":"تفسير"},{"id":"Sud5BTJ7liY","title":"كيف تصبح غنيا؟","publishedAt":"2021-01-12T18:42:48Z","duration":"PT12M10S","thumbnail":"https://i.ytimg.com/vi/Sud5BTJ7liY/mqdefault.jpg","viewCount":"91672","playlistId":"PLEkQk5xrP-tm8ZIu74nTOZN9KJUJu416J","playlistName":"مقاطع مُهمَّة (يُسريَّات) أ.د. يسري جبر","category":"متنوع"},{"id":"8BYUdSpPYl8","title":"3- مقدمة كتاب رياض الصالحين  للإمام النوويّ رضي الله عنه أ.د. يسري جبر","publishedAt":"2021-01-13T08:56:27Z","duration":"PT37M48S","thumbnail":"https://i.ytimg.com/vi/8BYUdSpPYl8/mqdefault.jpg","viewCount":"6530","playlistId":"PLEkQk5xrP-tkc9DXvSLguqX5-FYp6ASR4","playlistName":"دليل الفالحين لطرق رياض الصالحين","category":"متنوع"},{"id":"APo0n61iVwQ","title":"لماذا لا يطبق حد السرقة والزنا في مصر؟","publishedAt":"2021-01-13T21:56:50Z","duration":"PT10M19S","thumbnail":"https://i.ytimg.com/vi/APo0n61iVwQ/mqdefault.jpg","viewCount":"28651","playlistId":"PLEkQk5xrP-tm8ZIu74nTOZN9KJUJu416J","playlistName":"مقاطع مُهمَّة (يُسريَّات) أ.د. يسري جبر","category":"متنوع"},{"id":"y_f6GSuLpEg","title":"هل الأَوْلَى\"التأكيد بالمصدر أو الفعل\"؟ شرح البرهان في علوم القرآن أ.د. يسري جبر","publishedAt":"2021-01-14T08:23:12Z","duration":"PT29M6S","thumbnail":"https://i.ytimg.com/vi/y_f6GSuLpEg/mqdefault.jpg","viewCount":"556","playlistId":"PLEkQk5xrP-tnW3iBL7HkKziOFCFZbTlf0","playlistName":"شرح البرهان في علوم القرآن - أ.د. يسري جبر","category":"تفسير"},{"id":"Ab6YwjOAK8k","title":"وصفُ النَّبيّ ﷺ أ.د. يسري جبر","publishedAt":"2021-01-14T17:37:24Z","duration":"PT8M15S","thumbnail":"https://i.ytimg.com/vi/Ab6YwjOAK8k/mqdefault.jpg","viewCount":"11121","playlistId":"PLEkQk5xrP-tm8ZIu74nTOZN9KJUJu416J","playlistName":"مقاطع مُهمَّة (يُسريَّات) أ.د. يسري جبر","category":"متنوع"},{"id":"l_TvV12zKTI","title":"4- تكملة مقدمة كتاب رياض الصالحين وتعليق الشارح عليها - شرح دليل الفالحين أ.د. يسري جبر","publishedAt":"2021-01-15T07:52:06Z","duration":"PT40M41S","thumbnail":"https://i.ytimg.com/vi/l_TvV12zKTI/mqdefault.jpg","viewCount":"3494","playlistId":"PLEkQk5xrP-tkc9DXvSLguqX5-FYp6ASR4","playlistName":"دليل الفالحين لطرق رياض الصالحين","category":"متنوع"},{"id":"6zqc1WKNsGE","title":"كيف كان خُلُق النَّبيّ  ﷺ","publishedAt":"2021-01-15T20:52:22Z","duration":"PT11M34S","thumbnail":"https://i.ytimg.com/vi/6zqc1WKNsGE/mqdefault.jpg","viewCount":"4786","playlistId":"PLEkQk5xrP-tm8ZIu74nTOZN9KJUJu416J","playlistName":"مقاطع مُهمَّة (يُسريَّات) أ.د. يسري جبر","category":"متنوع"},{"id":"b7w7fLZQK-Y","title":"أدوات التأكيد\"مؤكِّدات الجُمَل الإسميَّة\" شرح البرهان في علوم القرآن أ.د. يسري جبر","publishedAt":"2021-01-16T07:00:26Z","duration":"PT11M26S","thumbnail":"https://i.ytimg.com/vi/b7w7fLZQK-Y/mqdefault.jpg","viewCount":"516","playlistId":"PLEkQk5xrP-tnW3iBL7HkKziOFCFZbTlf0","playlistName":"شرح البرهان في علوم القرآن - أ.د. يسري جبر","category":"تفسير"},{"id":"lzxDhmjL2KU","title":"ماذا يفعل المصاب بكورونا؟","publishedAt":"2021-01-16T18:02:00Z","duration":"PT12M7S","thumbnail":"https://i.ytimg.com/vi/lzxDhmjL2KU/mqdefault.jpg","viewCount":"7045","playlistId":"PLEkQk5xrP-tlArtGpeLWaqNM7h7IDeAVC","playlistName":"خطب الجمعة أ.د. يسري جبر","category":"خطب"},{"id":"GaCtERIPIxM","title":"5- تكملة مقدمة كتاب رياض الصالحين وتعليق الشارح عليها - شرح دليل الفالحين أ.د. يسري جبر","publishedAt":"2021-01-17T08:33:35Z","duration":"PT38M","thumbnail":"https://i.ytimg.com/vi/GaCtERIPIxM/mqdefault.jpg","viewCount":"2653","playlistId":"PLEkQk5xrP-tkc9DXvSLguqX5-FYp6ASR4","playlistName":"دليل الفالحين لطرق رياض الصالحين","category":"متنوع"},{"id":"4_JH-JgFsG0","title":"كيف تقترب من المقام النبوي؟","publishedAt":"2021-01-18T18:33:18Z","duration":"PT17M49S","thumbnail":"https://i.ytimg.com/vi/4_JH-JgFsG0/mqdefault.jpg","viewCount":"44197","playlistId":"PLEkQk5xrP-tlArtGpeLWaqNM7h7IDeAVC","playlistName":"خطب الجمعة أ.د. يسري جبر","category":"خطب"},{"id":"XzLJ0uEIuVU","title":"6- تكملة مقدمة كتاب رياض الصالحين وتعليق الشارح عليها - شرح دليل الفالحين أ.د. يسري جبر","publishedAt":"2021-01-19T07:46:35Z","duration":"PT39M9S","thumbnail":"https://i.ytimg.com/vi/XzLJ0uEIuVU/mqdefault.jpg","viewCount":"2332","playlistId":"PLEkQk5xrP-tkc9DXvSLguqX5-FYp6ASR4","playlistName":"دليل الفالحين لطرق رياض الصالحين","category":"متنوع"},{"id":"oXWiNMaIVSY","title":"هل السحر خرافة ؟","publishedAt":"2021-01-19T18:49:49Z","duration":"PT9M13S","thumbnail":"https://i.ytimg.com/vi/oXWiNMaIVSY/mqdefault.jpg","viewCount":"84489","playlistId":"PLEkQk5xrP-tm8ZIu74nTOZN9KJUJu416J","playlistName":"مقاطع مُهمَّة (يُسريَّات) أ.د. يسري جبر","category":"متنوع"},{"id":"ucPXzF_kODQ","title":"أدوات التوكيد - ضمير الفصل - شرح البرهان في علوم القرآن أ.د. يسري جبر","publishedAt":"2021-01-20T08:14:56Z","duration":"PT13M42S","thumbnail":"https://i.ytimg.com/vi/ucPXzF_kODQ/mqdefault.jpg","viewCount":"450","playlistId":"PLEkQk5xrP-tnW3iBL7HkKziOFCFZbTlf0","playlistName":"شرح البرهان في علوم القرآن - أ.د. يسري جبر","category":"تفسير"},{"id":"4EAf9u36PDc","title":"تساؤلات الوهابية","publishedAt":"2021-01-20T18:07:13Z","duration":"PT9M31S","thumbnail":"https://i.ytimg.com/vi/4EAf9u36PDc/mqdefault.jpg","viewCount":"36388","playlistId":"PLEkQk5xrP-tm8ZIu74nTOZN9KJUJu416J","playlistName":"مقاطع مُهمَّة (يُسريَّات) أ.د. يسري جبر","category":"متنوع"},{"id":"bmGVhOKuRXk","title":"7- آخر مقدمة كتاب رياض الصالحين وتعليق الشارح عليها - شرح دليل الفالحين أ.د. يسري جبر","publishedAt":"2021-01-21T08:28:05Z","duration":"PT36M2S","thumbnail":"https://i.ytimg.com/vi/bmGVhOKuRXk/mqdefault.jpg","viewCount":"2021","playlistId":"PLEkQk5xrP-tkc9DXvSLguqX5-FYp6ASR4","playlistName":"دليل الفالحين لطرق رياض الصالحين","category":"متنوع"},{"id":"08Ny88lhi48","title":"!طريقة علاج إدمان المخدرات","publishedAt":"2021-01-21T18:22:00Z","duration":"PT9M24S","thumbnail":"https://i.ytimg.com/vi/08Ny88lhi48/mqdefault.jpg","viewCount":"19531","playlistId":"PLEkQk5xrP-tm8ZIu74nTOZN9KJUJu416J","playlistName":"مقاطع مُهمَّة (يُسريَّات) أ.د. يسري جبر","category":"متنوع"},{"id":"7_VA61XhHcY","title":"كيف تكون محبوبا؟","publishedAt":"2021-01-22T18:00:35Z","duration":"PT15M57S","thumbnail":"https://i.ytimg.com/vi/7_VA61XhHcY/mqdefault.jpg","viewCount":"9267","playlistId":"PLEkQk5xrP-tm8ZIu74nTOZN9KJUJu416J","playlistName":"مقاطع مُهمَّة (يُسريَّات) أ.د. يسري جبر","category":"متنوع"},{"id":"ZtNG-vNgVZE","title":"أدوات التوكيد - تأكيد الضمير - شرح البرهان في علوم القرآن أ.د. يسري جبر","publishedAt":"2021-01-23T07:53:17Z","duration":"PT10M35S","thumbnail":"https://i.ytimg.com/vi/ZtNG-vNgVZE/mqdefault.jpg","viewCount":"472","playlistId":"PLEkQk5xrP-tnW3iBL7HkKziOFCFZbTlf0","playlistName":"شرح البرهان في علوم القرآن - أ.د. يسري جبر","category":"تفسير"},{"id":"dPY1pIuR3MQ","title":"صفات الله عز وجل","publishedAt":"2021-01-23T18:12:26Z","duration":"PT9M12S","thumbnail":"https://i.ytimg.com/vi/dPY1pIuR3MQ/mqdefault.jpg","viewCount":"6919","playlistId":"PLEkQk5xrP-tlArtGpeLWaqNM7h7IDeAVC","playlistName":"خطب الجمعة أ.د. يسري جبر","category":"خطب"}],"total":7675,"page":189,"pageSize":24,"totalPages":320}