{"items":[{"id":"He7to-RWtfE","title":"هل أستطيع رؤية النبي ﷺ يقظة؟","publishedAt":"2021-04-06T18:37:06Z","duration":"PT10M37S","thumbnail":"https://i.ytimg.com/vi/He7to-RWtfE/mqdefault.jpg","viewCount":"34284","playlistId":"PLEkQk5xrP-tm8ZIu74nTOZN9KJUJu416J","playlistName":"مقاطع مُهمَّة (يُسريَّات) أ.د. يسري جبر","category":"متنوع"},{"id":"vxvxKEgo7sU","title":"41- \"...ألا أُرِيكَ امْرَأَةً من أهل الجنَّة؟ قلتُ: بلى...\"الحديث(11)باب الصَّبر - شرح دليل الفالحين","publishedAt":"2021-04-07T06:21:32Z","duration":"PT37M22S","thumbnail":"https://i.ytimg.com/vi/vxvxKEgo7sU/mqdefault.jpg","viewCount":"1880","playlistId":"PLEkQk5xrP-tkc9DXvSLguqX5-FYp6ASR4","playlistName":"دليل الفالحين لطرق رياض الصالحين","category":"متنوع"},{"id":"xAu7S8YVp2Q","title":"الرد على من يُطالب بتطبيق الختان","publishedAt":"2021-04-07T19:26:54Z","duration":"PT13M16S","thumbnail":"https://i.ytimg.com/vi/xAu7S8YVp2Q/mqdefault.jpg","viewCount":"5741","playlistId":"PLEkQk5xrP-tm8ZIu74nTOZN9KJUJu416J","playlistName":"مقاطع مُهمَّة (يُسريَّات) أ.د. يسري جبر","category":"متنوع"},{"id":"MbmCdVTezpg","title":"القِسمُ العاشرُ من التوكيد: صِيَغُ المبالغة (3) \"ما جاء على صيغة فعيل\" شرح البرهان في علوم القرآن","publishedAt":"2021-04-08T06:06:47Z","duration":"PT26M24S","thumbnail":"https://i.ytimg.com/vi/MbmCdVTezpg/mqdefault.jpg","viewCount":"401","playlistId":"PLEkQk5xrP-tnW3iBL7HkKziOFCFZbTlf0","playlistName":"شرح البرهان في علوم القرآن - أ.د. يسري جبر","category":"تفسير"},{"id":"3lnIoyVa5lc","title":"شبهات واعتراضات حول التصوف","publishedAt":"2021-04-08T18:17:35Z","duration":"PT8M14S","thumbnail":"https://i.ytimg.com/vi/3lnIoyVa5lc/mqdefault.jpg","viewCount":"6539","playlistId":"PLEkQk5xrP-tm8ZIu74nTOZN9KJUJu416J","playlistName":"مقاطع مُهمَّة (يُسريَّات) أ.د. يسري جبر","category":"متنوع"},{"id":"doT9cgDG4EQ","title":"42-\"مَنْ يُرِدِ اللَّهُ بِهِ خَيْرًا، يُصِبْ مِنْهُ\" الحديث( 15) باب الصَّبر - شرح دليل الفالحين","publishedAt":"2021-04-09T05:21:45Z","duration":"PT33M8S","thumbnail":"https://i.ytimg.com/vi/doT9cgDG4EQ/mqdefault.jpg","viewCount":"2592","playlistId":"PLEkQk5xrP-tkc9DXvSLguqX5-FYp6ASR4","playlistName":"دليل الفالحين لطرق رياض الصالحين","category":"متنوع"},{"id":"OWSXpHmHKBQ","title":"كيف كانت عبادة النَّبيّ ﷺ في شعبان؟","publishedAt":"2021-04-09T12:00:18Z","duration":"PT31M43S","thumbnail":"https://i.ytimg.com/vi/OWSXpHmHKBQ/mqdefault.jpg","viewCount":"728","playlistId":"PLEkQk5xrP-tlArtGpeLWaqNM7h7IDeAVC","playlistName":"خطب الجمعة أ.د. يسري جبر","category":"خطب"},{"id":"0xeUTwp0bwo","title":"القِسمُ العاشرُ من التوكيد: صِيَغُ المبالغة (4) \"ما جاء على صيغة فعول\" شرح البرهان في علوم القرآن","publishedAt":"2021-04-10T06:56:17Z","duration":"PT15M5S","thumbnail":"https://i.ytimg.com/vi/0xeUTwp0bwo/mqdefault.jpg","viewCount":"326","playlistId":"PLEkQk5xrP-tnW3iBL7HkKziOFCFZbTlf0","playlistName":"شرح البرهان في علوم القرآن - أ.د. يسري جبر","category":"تفسير"},{"id":"IyrWSL4jd00","title":"كيفية قراءة الأوراد","publishedAt":"2021-04-10T19:40:12Z","duration":"PT23M23S","thumbnail":"https://i.ytimg.com/vi/IyrWSL4jd00/mqdefault.jpg","viewCount":"92359","playlistId":"PLEkQk5xrP-tm8ZIu74nTOZN9KJUJu416J","playlistName":"مقاطع مُهمَّة (يُسريَّات) أ.د. يسري جبر","category":"متنوع"},{"id":"ZMisdo1HiSg","title":"43-\"لما كان يوم حُنينٍ آثر رسولُ اللهِ ﷺ ناسا في القسمة...\" الحديث( 18)باب الصّبر- شرح دليل الفالحين","publishedAt":"2021-04-11T06:06:16Z","duration":"PT27M59S","thumbnail":"https://i.ytimg.com/vi/ZMisdo1HiSg/mqdefault.jpg","viewCount":"1105","playlistId":"PLEkQk5xrP-tkc9DXvSLguqX5-FYp6ASR4","playlistName":"دليل الفالحين لطرق رياض الصالحين","category":"متنوع"},{"id":"DwqNXP8OS5k","title":"هل معصية إبليس من إرادة الله؟","publishedAt":"2021-04-11T19:17:35Z","duration":"PT13M37S","thumbnail":"https://i.ytimg.com/vi/DwqNXP8OS5k/mqdefault.jpg","viewCount":"4081","playlistId":"PLEkQk5xrP-tlArtGpeLWaqNM7h7IDeAVC","playlistName":"خطب الجمعة أ.د. يسري جبر","category":"خطب"},{"id":"ZpsG8Chws8c","title":"القِسمُ الحادي عشر من التوكيد: المثنَّى وإرادة الواحد - شرح البرهان في علوم القرآن","publishedAt":"2021-04-12T06:05:18Z","duration":"PT16M27S","thumbnail":"https://i.ytimg.com/vi/ZpsG8Chws8c/mqdefault.jpg","viewCount":"341","playlistId":"PLEkQk5xrP-tnW3iBL7HkKziOFCFZbTlf0","playlistName":"شرح البرهان في علوم القرآن - أ.د. يسري جبر","category":"تفسير"},{"id":"TWOtRcWGVX8","title":"أفضل الأعمال في شهر رمضان","publishedAt":"2021-04-12T16:36:41Z","duration":"PT23M24S","thumbnail":"https://i.ytimg.com/vi/TWOtRcWGVX8/mqdefault.jpg","viewCount":"7355","playlistId":"PLEkQk5xrP-tlArtGpeLWaqNM7h7IDeAVC","playlistName":"خطب الجمعة أ.د. يسري جبر","category":"خطب"},{"id":"cfz3u-Ol8vM","title":"حَدِيث (١٨٣)\"مَنْ قالَ لا إلهَ إلاَّ اللَّه وحْدهُ لاَ شَرِيكَ له...\" | أ.د. يسري جبر","publishedAt":"2021-04-13T15:33:34Z","duration":"PT42M41S","thumbnail":"https://i.ytimg.com/vi/cfz3u-Ol8vM/mqdefault.jpg","viewCount":"11629","playlistId":"PLEkQk5xrP-tnl7vb7KeAoPd5ZlqKKW8KV","playlistName":"شرح كتاب بهجة النفوس أ.د . يسرى جبر","category":"متنوع"},{"id":"8PFTY02ivNs","title":"كيف تفوز في رمضان؟","publishedAt":"2021-04-13T19:15:00Z","duration":"PT47M24S","thumbnail":"https://i.ytimg.com/vi/8PFTY02ivNs/mqdefault.jpg","viewCount":"21432","playlistId":"PLEkQk5xrP-tlArtGpeLWaqNM7h7IDeAVC","playlistName":"خطب الجمعة أ.د. يسري جبر","category":"خطب"},{"id":"N4kDK7LaPgY","title":"44-“كان ابن لأبي طلحة يشتكي فخرج أبو طلحة فقُبض الصَّبي...”الحديث( 21)باب الصّبر - شرح دليل الفالحين","publishedAt":"2021-04-14T07:04:43Z","duration":"PT37M43S","thumbnail":"https://i.ytimg.com/vi/N4kDK7LaPgY/mqdefault.jpg","viewCount":"1606","playlistId":"PLEkQk5xrP-tkc9DXvSLguqX5-FYp6ASR4","playlistName":"دليل الفالحين لطرق رياض الصالحين","category":"متنوع"},{"id":"uw5Jed2YUE8","title":"حَدِيث (١٨٤)\"كراهية صيام الدهر\" | أ.د. يسري جبر","publishedAt":"2021-04-14T15:30:14Z","duration":"PT29M10S","thumbnail":"https://i.ytimg.com/vi/uw5Jed2YUE8/mqdefault.jpg","viewCount":"1011","playlistId":"PLEkQk5xrP-tnl7vb7KeAoPd5ZlqKKW8KV","playlistName":"شرح كتاب بهجة النفوس أ.د . يسرى جبر","category":"متنوع"},{"id":"g143o-Y2gDA","title":"هل صلاة التراويح بدعة؟","publishedAt":"2021-04-14T19:15:01Z","duration":"PT10M","thumbnail":"https://i.ytimg.com/vi/g143o-Y2gDA/mqdefault.jpg","viewCount":"4175","playlistId":"PLEkQk5xrP-tm8ZIu74nTOZN9KJUJu416J","playlistName":"مقاطع مُهمَّة (يُسريَّات) أ.د. يسري جبر","category":"متنوع"},{"id":"NI_xXXP2lv4","title":"القِسمُ (12) من التوكيد: إطلاق الجَمْع وإرادة الواحد - شرح البرهان في علوم القرآن","publishedAt":"2021-04-15T06:44:13Z","duration":"PT11M51S","thumbnail":"https://i.ytimg.com/vi/NI_xXXP2lv4/mqdefault.jpg","viewCount":"275","playlistId":"PLEkQk5xrP-tnW3iBL7HkKziOFCFZbTlf0","playlistName":"شرح البرهان في علوم القرآن - أ.د. يسري جبر","category":"تفسير"},{"id":"iiUVDXCWvvQ","title":"حَدِيث (١٨٥)\"أحب الصيام إلى الله صيام داود..\" | أ.د. يسري جبر","publishedAt":"2021-04-15T15:15:01Z","duration":"PT37M59S","thumbnail":"https://i.ytimg.com/vi/iiUVDXCWvvQ/mqdefault.jpg","viewCount":"1349","playlistId":"PLEkQk5xrP-tnl7vb7KeAoPd5ZlqKKW8KV","playlistName":"شرح كتاب بهجة النفوس أ.د . يسرى جبر","category":"متنوع"},{"id":"NUBNd1tCAc0","title":"معنى البركة والمدد","publishedAt":"2021-04-15T19:15:00Z","duration":"PT23M","thumbnail":"https://i.ytimg.com/vi/NUBNd1tCAc0/mqdefault.jpg","viewCount":"16350","playlistId":"PLEkQk5xrP-tm8ZIu74nTOZN9KJUJu416J","playlistName":"مقاطع مُهمَّة (يُسريَّات) أ.د. يسري جبر","category":"متنوع"},{"id":"Wu28YRkd7OM","title":"45- “ليسَ الشَّديدُ بالصُّرَعَةِ...”الحديث ( 22) باب الصّبر - شرح دليل الفالحين","publishedAt":"2021-04-16T06:30:13Z","duration":"PT35M45S","thumbnail":"https://i.ytimg.com/vi/Wu28YRkd7OM/mqdefault.jpg","viewCount":"1138","playlistId":"PLEkQk5xrP-tkc9DXvSLguqX5-FYp6ASR4","playlistName":"دليل الفالحين لطرق رياض الصالحين","category":"متنوع"},{"id":"t9V6UFjk7F4","title":"حَدِيث (١٨٦)\"أول مسجد وضع للصلاة\" | أ.د. يسري جبر","publishedAt":"2021-04-16T15:30:04Z","duration":"PT14M8S","thumbnail":"https://i.ytimg.com/vi/t9V6UFjk7F4/mqdefault.jpg","viewCount":"505","playlistId":"PLEkQk5xrP-tnl7vb7KeAoPd5ZlqKKW8KV","playlistName":"شرح كتاب بهجة النفوس أ.د . يسرى جبر","category":"متنوع"},{"id":"L2QGmJBTAew","title":"أفضل ذكر للصائم في رمضان","publishedAt":"2021-04-16T19:15:00Z","duration":"PT13M46S","thumbnail":"https://i.ytimg.com/vi/L2QGmJBTAew/mqdefault.jpg","viewCount":"14430","playlistId":"PLEkQk5xrP-tlArtGpeLWaqNM7h7IDeAVC","playlistName":"خطب الجمعة أ.د. يسري جبر","category":"خطب"}],"total":7675,"page":196,"pageSize":24,"totalPages":320}