{"items":[{"id":"HHpOUhyAFII","title":"القصيدة المُحمَّدِيَّة للإمام البوصيري رضي الله تعالى عنه   د. يسري جبر","publishedAt":"2018-09-01T19:01:34Z","duration":"PT2M34S","thumbnail":"https://i.ytimg.com/vi/HHpOUhyAFII/mqdefault.jpg","viewCount":"1063","playlistId":"PLEkQk5xrP-tk3OeVFoMfKhOhyINnlPeYZ","playlistName":"الحَضْرَةُ الصِّدِّيقِيَّة والأوْرَاد","category":"متنوع"},{"id":"QFwRpe43NaY","title":"مدح النبي بترتيب سور القرآن لسيدي أبي عبد الله محمد بن جابر الأندلسي رحمه الله  د. يسري جبر","publishedAt":"2018-09-01T19:42:21Z","duration":"PT7M47S","thumbnail":"https://i.ytimg.com/vi/QFwRpe43NaY/mqdefault.jpg","viewCount":"4806","playlistId":"PLEkQk5xrP-tk3OeVFoMfKhOhyINnlPeYZ","playlistName":"الحَضْرَةُ الصِّدِّيقِيَّة والأوْرَاد","category":"متنوع"},{"id":"ndkWozAdAm8","title":"شرح صحيح البخاري كتاب الأدب من باب ٣٩","publishedAt":"2018-09-01T22:08:54Z","duration":"PT30M29S","thumbnail":"https://i.ytimg.com/vi/ndkWozAdAm8/mqdefault.jpg","viewCount":"509","playlistId":"PLEkQk5xrP-tlEerGoLa1AFy-2XvQ-sovv","playlistName":"شرح صحيح البخاري - أ.د. يسري جبر (كاملا)","category":"حديث"},{"id":"g5eGL10rK_E","title":"مقرأة سورة يس من آية ٢٨","publishedAt":"2018-09-02T08:59:26Z","duration":"PT18M41S","thumbnail":"https://i.ytimg.com/vi/g5eGL10rK_E/mqdefault.jpg","viewCount":"737","playlistId":"PLEkQk5xrP-tnmTYsyW6xNdyfhPq0Bhrhj","playlistName":"مقرأة الفجر - القُرْآنُ الكَرِيمُ - خَتْمَةُ التَّدَبُّرِ  أ.د. يسري جبر","category":"متنوع"},{"id":"tMj0ZdEbmEo","title":"شرح صحيح البخاري كتاب الأدب من باب ٤٣","publishedAt":"2018-09-03T09:57:10Z","duration":"PT35M51S","thumbnail":"https://i.ytimg.com/vi/tMj0ZdEbmEo/mqdefault.jpg","viewCount":"615","playlistId":"PLEkQk5xrP-tlEerGoLa1AFy-2XvQ-sovv","playlistName":"شرح صحيح البخاري - أ.د. يسري جبر (كاملا)","category":"حديث"},{"id":"0i4Fdfml7mg","title":"76- باب مَا يَجُوزُ فِى اسْتِثْنَاءِ الثَّمَرِ  ك الموطأ د يسري جبر الأزهري","publishedAt":"2018-09-03T13:00:04Z","duration":"PT51M45S","thumbnail":"https://i.ytimg.com/vi/0i4Fdfml7mg/mqdefault.jpg","viewCount":"219","playlistId":"PLEkQk5xrP-tnC6BRuqMjyO-484iqXeg0o","playlistName":"شرح كتاب الموطأ للإمام مالك","category":"متنوع"},{"id":"y6Ox9yerfMI","title":"مقرأة سورة يس من آية ٣٧","publishedAt":"2018-09-03T19:21:29Z","duration":"PT15M8S","thumbnail":"https://i.ytimg.com/vi/y6Ox9yerfMI/mqdefault.jpg","viewCount":"585","playlistId":"PLEkQk5xrP-tnmTYsyW6xNdyfhPq0Bhrhj","playlistName":"مقرأة الفجر - القُرْآنُ الكَرِيمُ - خَتْمَةُ التَّدَبُّرِ  أ.د. يسري جبر","category":"متنوع"},{"id":"b9Fw381fdkg","title":"القصيدة المنفرجة  للإمام الغزالي والقصيدة المنفرجة لابن النحوي رضي الله تعالى عنهما.  د. يسري جبر","publishedAt":"2018-09-03T19:22:25Z","duration":"PT7M32S","thumbnail":"https://i.ytimg.com/vi/b9Fw381fdkg/mqdefault.jpg","viewCount":"4147","playlistId":"PLEkQk5xrP-tk3OeVFoMfKhOhyINnlPeYZ","playlistName":"الحَضْرَةُ الصِّدِّيقِيَّة والأوْرَاد","category":"متنوع"},{"id":"2jiRKlVCBl0","title":"قصيدة بانت سعاد لسيدنا كعب بن زهير رضي الله تعالى عنه.   د. يسري جبر","publishedAt":"2018-09-03T19:33:23Z","duration":"PT8M3S","thumbnail":"https://i.ytimg.com/vi/2jiRKlVCBl0/mqdefault.jpg","viewCount":"1595","playlistId":"PLEkQk5xrP-tk3OeVFoMfKhOhyINnlPeYZ","playlistName":"الحَضْرَةُ الصِّدِّيقِيَّة والأوْرَاد","category":"متنوع"},{"id":"7vg7CXHhT-Q","title":"شرح صحيح البخاري كتاب الأدب من باب ٤٦","publishedAt":"2018-09-04T11:05:16Z","duration":"PT28M26S","thumbnail":"https://i.ytimg.com/vi/7vg7CXHhT-Q/mqdefault.jpg","viewCount":"571","playlistId":"PLEkQk5xrP-tlEerGoLa1AFy-2XvQ-sovv","playlistName":"شرح صحيح البخاري - أ.د. يسري جبر (كاملا)","category":"حديث"},{"id":"ez-Zi4IXAeM","title":"(33) سيدنا أبو الفوارس شاه بن شجاع الكِرْمَاني رضي الله عنه د. يسري جبر","publishedAt":"2018-09-04T18:42:03Z","duration":"PT4M58S","thumbnail":"https://i.ytimg.com/vi/ez-Zi4IXAeM/mqdefault.jpg","viewCount":"867","playlistId":"PLEkQk5xrP-tmmI87XkWepRdTpisz2Lfgr","playlistName":"باب في ذكر مشايخ هذه الطريقة من شرح كتاب الرسالة القشيرية","category":"تصوف"},{"id":"afiKh1Tcz7Y","title":"(34) سيدنا يوسف بن الحسين رضي الله عنه   د. يسري جبر","publishedAt":"2018-09-04T19:13:51Z","duration":"PT8M24S","thumbnail":"https://i.ytimg.com/vi/afiKh1Tcz7Y/mqdefault.jpg","viewCount":"1450","playlistId":"PLEkQk5xrP-tmmI87XkWepRdTpisz2Lfgr","playlistName":"باب في ذكر مشايخ هذه الطريقة من شرح كتاب الرسالة القشيرية","category":"تصوف"},{"id":"oOSHMar9iPI","title":"مقرأة سورة يس من آية ٤٦","publishedAt":"2018-09-05T11:16:43Z","duration":"PT13M41S","thumbnail":"https://i.ytimg.com/vi/oOSHMar9iPI/mqdefault.jpg","viewCount":"511","playlistId":"PLEkQk5xrP-tnmTYsyW6xNdyfhPq0Bhrhj","playlistName":"مقرأة الفجر - القُرْآنُ الكَرِيمُ - خَتْمَةُ التَّدَبُّرِ  أ.د. يسري جبر","category":"متنوع"},{"id":"IqGaSDYnM50","title":"شرح صحيح البخاري كتاب الأدب من باب ٥٤","publishedAt":"2018-09-05T16:38:04Z","duration":"PT32M3S","thumbnail":"https://i.ytimg.com/vi/IqGaSDYnM50/mqdefault.jpg","viewCount":"618","playlistId":"PLEkQk5xrP-tlEerGoLa1AFy-2XvQ-sovv","playlistName":"شرح صحيح البخاري - أ.د. يسري جبر (كاملا)","category":"حديث"},{"id":"rKfYCc5u0zw","title":"مقرأة سورة يس من آية ٥١","publishedAt":"2018-09-06T11:28:12Z","duration":"PT12M4S","thumbnail":"https://i.ytimg.com/vi/rKfYCc5u0zw/mqdefault.jpg","viewCount":"486","playlistId":"PLEkQk5xrP-tnmTYsyW6xNdyfhPq0Bhrhj","playlistName":"مقرأة الفجر - القُرْآنُ الكَرِيمُ - خَتْمَةُ التَّدَبُّرِ  أ.د. يسري جبر","category":"متنوع"},{"id":"mIIc1YJ8ryg","title":"شرح صحيح البخاري كتاب الأدب من باب ٥٨","publishedAt":"2018-09-06T15:49:09Z","duration":"PT32M47S","thumbnail":"https://i.ytimg.com/vi/mIIc1YJ8ryg/mqdefault.jpg","viewCount":"613","playlistId":"PLEkQk5xrP-tlEerGoLa1AFy-2XvQ-sovv","playlistName":"شرح صحيح البخاري - أ.د. يسري جبر (كاملا)","category":"حديث"},{"id":"BYSi7uLGskI","title":"مقرأة سورة يس من آية ٦٠","publishedAt":"2018-09-08T17:48:17Z","duration":"PT7M24S","thumbnail":"https://i.ytimg.com/vi/BYSi7uLGskI/mqdefault.jpg","viewCount":"390","playlistId":"PLEkQk5xrP-tnmTYsyW6xNdyfhPq0Bhrhj","playlistName":"مقرأة الفجر - القُرْآنُ الكَرِيمُ - خَتْمَةُ التَّدَبُّرِ  أ.د. يسري جبر","category":"متنوع"},{"id":"YJhjvQfaIn8","title":"شرح صحيح البخاري كتاب الأدب من باب ٦٤","publishedAt":"2018-09-08T20:44:47Z","duration":"PT36M44S","thumbnail":"https://i.ytimg.com/vi/YJhjvQfaIn8/mqdefault.jpg","viewCount":"562","playlistId":"PLEkQk5xrP-tlEerGoLa1AFy-2XvQ-sovv","playlistName":"شرح صحيح البخاري - أ.د. يسري جبر (كاملا)","category":"حديث"},{"id":"syZOSGJVw3U","title":"مقرأة سورة يس من آية ٦٦","publishedAt":"2018-09-09T09:45:17Z","duration":"PT19M39S","thumbnail":"https://i.ytimg.com/vi/syZOSGJVw3U/mqdefault.jpg","viewCount":"608","playlistId":"PLEkQk5xrP-tnmTYsyW6xNdyfhPq0Bhrhj","playlistName":"مقرأة الفجر - القُرْآنُ الكَرِيمُ - خَتْمَةُ التَّدَبُّرِ  أ.د. يسري جبر","category":"متنوع"},{"id":"eJEy89vRBCo","title":"حَقَائِقُ مُحَمَّدِيَّة    د. يسري جبر","publishedAt":"2018-09-09T13:12:52Z","duration":"PT45M","thumbnail":"https://i.ytimg.com/vi/eJEy89vRBCo/mqdefault.jpg","viewCount":"3351","playlistId":"PLEkQk5xrP-tlArtGpeLWaqNM7h7IDeAVC","playlistName":"خطب الجمعة أ.د. يسري جبر","category":"خطب"},{"id":"uxVty-pri_c","title":"شرح صحيح البخاري كتاب الأدب من باب ٦٩","publishedAt":"2018-09-09T19:22:54Z","duration":"PT38M46S","thumbnail":"https://i.ytimg.com/vi/uxVty-pri_c/mqdefault.jpg","viewCount":"579","playlistId":"PLEkQk5xrP-tlEerGoLa1AFy-2XvQ-sovv","playlistName":"شرح صحيح البخاري - أ.د. يسري جبر (كاملا)","category":"حديث"},{"id":"Ib4cDYL-XuY","title":"مقرأة سورة يس من آية ٧١","publishedAt":"2018-09-10T11:04:54Z","duration":"PT9M35S","thumbnail":"https://i.ytimg.com/vi/Ib4cDYL-XuY/mqdefault.jpg","viewCount":"391","playlistId":"PLEkQk5xrP-tnmTYsyW6xNdyfhPq0Bhrhj","playlistName":"مقرأة الفجر - القُرْآنُ الكَرِيمُ - خَتْمَةُ التَّدَبُّرِ  أ.د. يسري جبر","category":"متنوع"},{"id":"PFEWWmIRrNI","title":"شرح صحيح البخاري كتاب الأدب من باب ٧٥","publishedAt":"2018-09-10T19:32:20Z","duration":"PT38M30S","thumbnail":"https://i.ytimg.com/vi/PFEWWmIRrNI/mqdefault.jpg","viewCount":"529","playlistId":"PLEkQk5xrP-tlEerGoLa1AFy-2XvQ-sovv","playlistName":"شرح صحيح البخاري - أ.د. يسري جبر (كاملا)","category":"حديث"},{"id":"EUbO9KhdTBc","title":"شرح كتاب نور اليقين في سيرة سيد المرسلين للشيخ الخضري رحمه الله (المجلس59 السنة11 - سرية) د.يسري جبر","publishedAt":"2018-09-10T19:34:52Z","duration":"PT51M9S","thumbnail":"https://i.ytimg.com/vi/EUbO9KhdTBc/mqdefault.jpg","viewCount":"10098","playlistId":"PLEkQk5xrP-tl2t4NQx1IhKnAJCMzF0Nli","playlistName":"شرح كتاب نور اليقين في سيرة سيد المرسلين   د. يسري جبر","category":"سيرة"}],"total":7675,"page":118,"pageSize":24,"totalPages":320}