{"items":[{"id":"eGxq68inTeQ","title":"كيف تحافظ على عبادتك","publishedAt":"2020-08-25T19:43:45Z","duration":"PT5M39S","thumbnail":"https://i.ytimg.com/vi/eGxq68inTeQ/mqdefault.jpg","viewCount":"4161","playlistId":"PLEkQk5xrP-tm8ZIu74nTOZN9KJUJu416J","playlistName":"مقاطع مُهمَّة (يُسريَّات) أ.د. يسري جبر","category":"متنوع"},{"id":"W6pzic_c628","title":"عدم النظر للعبادة","publishedAt":"2020-08-26T19:25:32Z","duration":"PT8M33S","thumbnail":"https://i.ytimg.com/vi/W6pzic_c628/mqdefault.jpg","viewCount":"3162","playlistId":"PLEkQk5xrP-tm8ZIu74nTOZN9KJUJu416J","playlistName":"مقاطع مُهمَّة (يُسريَّات) أ.د. يسري جبر","category":"متنوع"},{"id":"Pj15CTxcvko","title":"إِلَّا تَنصُرُوهُ فَقَدْ نَصَرَهُ اللَّهُ","publishedAt":"2020-08-28T10:30:26Z","duration":"PT32M38S","thumbnail":"https://i.ytimg.com/vi/Pj15CTxcvko/mqdefault.jpg","viewCount":"1469","playlistId":"PLEkQk5xrP-tm8ZIu74nTOZN9KJUJu416J","playlistName":"مقاطع مُهمَّة (يُسريَّات) أ.د. يسري جبر","category":"متنوع"},{"id":"7vnoE1J4h7s","title":"كيف تعبد ربك؟","publishedAt":"2020-08-28T19:00:14Z","duration":"PT15M11S","thumbnail":"https://i.ytimg.com/vi/7vnoE1J4h7s/mqdefault.jpg","viewCount":"12777","playlistId":"PLEkQk5xrP-tm8ZIu74nTOZN9KJUJu416J","playlistName":"مقاطع مُهمَّة (يُسريَّات) أ.د. يسري جبر","category":"متنوع"},{"id":"aiiGUzEj-z4","title":"حديث مسلسل عاشوراء والدعاء","publishedAt":"2020-08-29T10:44:42Z","duration":"PT43M30S","thumbnail":"https://i.ytimg.com/vi/aiiGUzEj-z4/mqdefault.jpg","viewCount":"4893","playlistId":"PLEkQk5xrP-tm8ZIu74nTOZN9KJUJu416J","playlistName":"مقاطع مُهمَّة (يُسريَّات) أ.د. يسري جبر","category":"متنوع"},{"id":"_OUf57PGHJ8","title":"لا تُلهِك التجليات عن المتجلِّي","publishedAt":"2020-08-29T19:13:28Z","duration":"PT8M38S","thumbnail":"https://i.ytimg.com/vi/_OUf57PGHJ8/mqdefault.jpg","viewCount":"4540","playlistId":"PLEkQk5xrP-tm8ZIu74nTOZN9KJUJu416J","playlistName":"مقاطع مُهمَّة (يُسريَّات) أ.د. يسري جبر","category":"متنوع"},{"id":"UJBzeJptj9Q","title":"لا تركن لزائل","publishedAt":"2020-08-30T20:04:09Z","duration":"PT6M14S","thumbnail":"https://i.ytimg.com/vi/UJBzeJptj9Q/mqdefault.jpg","viewCount":"3319","playlistId":"PLEkQk5xrP-tm8ZIu74nTOZN9KJUJu416J","playlistName":"مقاطع مُهمَّة (يُسريَّات) أ.د. يسري جبر","category":"متنوع"},{"id":"25p4sXsKT4k","title":"122- كتاب الصيد والذبائح","publishedAt":"2020-08-31T11:01:24Z","duration":"PT39M4S","thumbnail":"https://i.ytimg.com/vi/25p4sXsKT4k/mqdefault.jpg","viewCount":"547","playlistId":"PLEkQk5xrP-tmKNjtYLfhATC37QdIsTMe0","playlistName":"شرح كتاب اللؤلؤ والمرجان فيما اتفق عليه الشيخان إماما المحدثين البخاري ومسلم. أ.د. يسري جبر","category":"حديث"},{"id":"VDYqD2aTgxs","title":"البرهان في علوم القرآن النوع ٤١","publishedAt":"2020-08-31T11:01:30Z","duration":"PT22M57S","thumbnail":"https://i.ytimg.com/vi/VDYqD2aTgxs/mqdefault.jpg","viewCount":"478","playlistId":"PLEkQk5xrP-tnW3iBL7HkKziOFCFZbTlf0","playlistName":"شرح البرهان في علوم القرآن - أ.د. يسري جبر","category":"تفسير"},{"id":"P4gNRrBwFyQ","title":"كيف تداوم على الطاعة","publishedAt":"2020-08-31T19:47:31Z","duration":"PT7M14S","thumbnail":"https://i.ytimg.com/vi/P4gNRrBwFyQ/mqdefault.jpg","viewCount":"5221","playlistId":"PLEkQk5xrP-tm8ZIu74nTOZN9KJUJu416J","playlistName":"مقاطع مُهمَّة (يُسريَّات) أ.د. يسري جبر","category":"متنوع"},{"id":"OsaaxPP2-LM","title":"البرهان في علوم القرآن - فصل في تقسيم التأويل","publishedAt":"2020-09-01T05:36:23Z","duration":"PT22M57S","thumbnail":"https://i.ytimg.com/vi/OsaaxPP2-LM/mqdefault.jpg","viewCount":"458","playlistId":"PLEkQk5xrP-tnW3iBL7HkKziOFCFZbTlf0","playlistName":"شرح البرهان في علوم القرآن - أ.د. يسري جبر","category":"تفسير"},{"id":"Lv5_cPZ1yFM","title":"123- كتاب الأضاحي","publishedAt":"2020-09-01T05:36:35Z","duration":"PT22M57S","thumbnail":"https://i.ytimg.com/vi/Lv5_cPZ1yFM/mqdefault.jpg","viewCount":"413","playlistId":"PLEkQk5xrP-tmKNjtYLfhATC37QdIsTMe0","playlistName":"شرح كتاب اللؤلؤ والمرجان فيما اتفق عليه الشيخان إماما المحدثين البخاري ومسلم. أ.د. يسري جبر","category":"حديث"},{"id":"C2eyJHjmUa0","title":"دوام المراقبة","publishedAt":"2020-09-01T19:17:24Z","duration":"PT5M42S","thumbnail":"https://i.ytimg.com/vi/C2eyJHjmUa0/mqdefault.jpg","viewCount":"2159","playlistId":"PLEkQk5xrP-tm8ZIu74nTOZN9KJUJu416J","playlistName":"مقاطع مُهمَّة (يُسريَّات) أ.د. يسري جبر","category":"متنوع"},{"id":"jt5L1_r9wXk","title":"كمال الرضا","publishedAt":"2020-09-02T18:37:53Z","duration":"PT5M15S","thumbnail":"https://i.ytimg.com/vi/jt5L1_r9wXk/mqdefault.jpg","viewCount":"3212","playlistId":"PLEkQk5xrP-tm8ZIu74nTOZN9KJUJu416J","playlistName":"مقاطع مُهمَّة (يُسريَّات) أ.د. يسري جبر","category":"متنوع"},{"id":"B5wCgK5aWwM","title":"شرح البرهان في علوم القرآن - النوع ٤١ - فصل: أصل الوقوف على معني القرآن التدبر","publishedAt":"2020-09-02T20:45:01Z","duration":"PT15M27S","thumbnail":"https://i.ytimg.com/vi/B5wCgK5aWwM/mqdefault.jpg","viewCount":"577","playlistId":"PLEkQk5xrP-tnW3iBL7HkKziOFCFZbTlf0","playlistName":"شرح البرهان في علوم القرآن - أ.د. يسري جبر","category":"تفسير"},{"id":"_fOn2gh2HlU","title":"124- شرح اللؤلؤ والمرجان كتاب الأشربة من أوله","publishedAt":"2020-09-02T20:45:29Z","duration":"PT28M14S","thumbnail":"https://i.ytimg.com/vi/_fOn2gh2HlU/mqdefault.jpg","viewCount":"565","playlistId":"PLEkQk5xrP-tmKNjtYLfhATC37QdIsTMe0","playlistName":"شرح كتاب اللؤلؤ والمرجان فيما اتفق عليه الشيخان إماما المحدثين البخاري ومسلم. أ.د. يسري جبر","category":"حديث"},{"id":"kNVRUANCbVc","title":"أمورٌ يُبديها ولا يبتديها","publishedAt":"2020-09-03T18:17:29Z","duration":"PT7M13S","thumbnail":"https://i.ytimg.com/vi/kNVRUANCbVc/mqdefault.jpg","viewCount":"6762","playlistId":"PLEkQk5xrP-tm8ZIu74nTOZN9KJUJu416J","playlistName":"مقاطع مُهمَّة (يُسريَّات) أ.د. يسري جبر","category":"متنوع"},{"id":"lwVuAv-HnFw","title":"ماذا بعد الأزمة أ.د/ يسري جبر","publishedAt":"2020-09-04T20:07:19Z","duration":"PT13M17S","thumbnail":"https://i.ytimg.com/vi/lwVuAv-HnFw/mqdefault.jpg","viewCount":"7158","playlistId":"PLEkQk5xrP-tlArtGpeLWaqNM7h7IDeAVC","playlistName":"خطب الجمعة أ.د. يسري جبر","category":"خطب"},{"id":"k0pfkL32AvM","title":"125- باب إباحة النبيذ الذي لم يشتد ولم يصر مُسكرًا","publishedAt":"2020-09-05T05:19:53Z","duration":"PT24M57S","thumbnail":"https://i.ytimg.com/vi/k0pfkL32AvM/mqdefault.jpg","viewCount":"963","playlistId":"PLEkQk5xrP-tmKNjtYLfhATC37QdIsTMe0","playlistName":"شرح كتاب اللؤلؤ والمرجان فيما اتفق عليه الشيخان إماما المحدثين البخاري ومسلم. أ.د. يسري جبر","category":"حديث"},{"id":"ajENrVFYcqo","title":"تقسيم القرآن إلى ما هو بيِّن بنفسه، وإلى ما ليس بيِّن بنفسه فيحتاج إلى بيان","publishedAt":"2020-09-05T05:20:16Z","duration":"PT20M32S","thumbnail":"https://i.ytimg.com/vi/ajENrVFYcqo/mqdefault.jpg","viewCount":"1010","playlistId":"PLEkQk5xrP-tnW3iBL7HkKziOFCFZbTlf0","playlistName":"شرح البرهان في علوم القرآن - أ.د. يسري جبر","category":"تفسير"},{"id":"dm0KKYwll34","title":"تعظيم ما عظم الله","publishedAt":"2020-09-05T18:14:11Z","duration":"PT4M12S","thumbnail":"https://i.ytimg.com/vi/dm0KKYwll34/mqdefault.jpg","viewCount":"2203","playlistId":"PLEkQk5xrP-tm8ZIu74nTOZN9KJUJu416J","playlistName":"مقاطع مُهمَّة (يُسريَّات) أ.د. يسري جبر","category":"متنوع"},{"id":"eehR9LwZmHI","title":"المُجْمَلُ والمُبَيَّن","publishedAt":"2020-09-06T05:02:19Z","duration":"PT26M29S","thumbnail":"https://i.ytimg.com/vi/eehR9LwZmHI/mqdefault.jpg","viewCount":"913","playlistId":"PLEkQk5xrP-tnW3iBL7HkKziOFCFZbTlf0","playlistName":"شرح البرهان في علوم القرآن - أ.د. يسري جبر","category":"تفسير"},{"id":"vNRtNmkF6Vs","title":"126- استحباب إدارة الماء واللبن ونحوهما عن يمين المبتدي","publishedAt":"2020-09-06T05:02:30Z","duration":"PT21M52S","thumbnail":"https://i.ytimg.com/vi/vNRtNmkF6Vs/mqdefault.jpg","viewCount":"715","playlistId":"PLEkQk5xrP-tmKNjtYLfhATC37QdIsTMe0","playlistName":"شرح كتاب اللؤلؤ والمرجان فيما اتفق عليه الشيخان إماما المحدثين البخاري ومسلم. أ.د. يسري جبر","category":"حديث"},{"id":"xSCgQog0aVc","title":"المحب لا ينصرف عن الباب","publishedAt":"2020-09-06T19:35:12Z","duration":"PT13M33S","thumbnail":"https://i.ytimg.com/vi/xSCgQog0aVc/mqdefault.jpg","viewCount":"7220","playlistId":"PLEkQk5xrP-tm8ZIu74nTOZN9KJUJu416J","playlistName":"مقاطع مُهمَّة (يُسريَّات) أ.د. يسري جبر","category":"متنوع"}],"total":7675,"page":178,"pageSize":24,"totalPages":320}