{"items":[{"id":"H5bHZLn9B3g","title":"187- كتابُ الفتن وأشراط الساعة - باب ابن صياد","publishedAt":"2020-12-28T07:05:20Z","duration":"PT27M10S","thumbnail":"https://i.ytimg.com/vi/H5bHZLn9B3g/mqdefault.jpg","viewCount":"5089","playlistId":"PLEkQk5xrP-tmKNjtYLfhATC37QdIsTMe0","playlistName":"شرح كتاب اللؤلؤ والمرجان فيما اتفق عليه الشيخان إماما المحدثين البخاري ومسلم. أ.د. يسري جبر","category":"حديث"},{"id":"UOZxdcsufK4","title":"ما هي معجزة النبي ﷺ قبل بعثته؟","publishedAt":"2020-12-28T18:43:56Z","duration":"PT8M52S","thumbnail":"https://i.ytimg.com/vi/UOZxdcsufK4/mqdefault.jpg","viewCount":"2276","playlistId":"PLEkQk5xrP-tlArtGpeLWaqNM7h7IDeAVC","playlistName":"خطب الجمعة أ.د. يسري جبر","category":"خطب"},{"id":"jL4D2kZQYwU","title":"أساليب القرآن وفنونه البليغة","publishedAt":"2020-12-29T09:37:27Z","duration":"PT11M46S","thumbnail":"https://i.ytimg.com/vi/jL4D2kZQYwU/mqdefault.jpg","viewCount":"1068","playlistId":"PLEkQk5xrP-tnW3iBL7HkKziOFCFZbTlf0","playlistName":"شرح البرهان في علوم القرآن - أ.د. يسري جبر","category":"تفسير"},{"id":"h2tgBh9ulmk","title":"هل رؤية النبي ﷺ في المنام دليل على الولاية؟؟","publishedAt":"2020-12-29T18:15:46Z","duration":"PT10M4S","thumbnail":"https://i.ytimg.com/vi/h2tgBh9ulmk/mqdefault.jpg","viewCount":"105670","playlistId":"PLEkQk5xrP-tm8ZIu74nTOZN9KJUJu416J","playlistName":"مقاطع مُهمَّة (يُسريَّات) أ.د. يسري جبر","category":"متنوع"},{"id":"wEs3bVMLc0k","title":"188- الزهد والرقائق","publishedAt":"2020-12-30T07:10:23Z","duration":"PT21M46S","thumbnail":"https://i.ytimg.com/vi/wEs3bVMLc0k/mqdefault.jpg","viewCount":"2650","playlistId":"PLEkQk5xrP-tmKNjtYLfhATC37QdIsTMe0","playlistName":"شرح كتاب اللؤلؤ والمرجان فيما اتفق عليه الشيخان إماما المحدثين البخاري ومسلم. أ.د. يسري جبر","category":"حديث"},{"id":"uS38IO_nLf4","title":"هل يوجد كذب مباح في الإسلام؟","publishedAt":"2020-12-30T18:30:56Z","duration":"PT13M19S","thumbnail":"https://i.ytimg.com/vi/uS38IO_nLf4/mqdefault.jpg","viewCount":"5314","playlistId":"PLEkQk5xrP-tlArtGpeLWaqNM7h7IDeAVC","playlistName":"خطب الجمعة أ.د. يسري جبر","category":"خطب"},{"id":"-ZywSqOxPZA","title":"التأكيد","publishedAt":"2020-12-31T08:45:11Z","duration":"PT17M37S","thumbnail":"https://i.ytimg.com/vi/-ZywSqOxPZA/mqdefault.jpg","viewCount":"932","playlistId":"PLEkQk5xrP-tnW3iBL7HkKziOFCFZbTlf0","playlistName":"شرح البرهان في علوم القرآن - أ.د. يسري جبر","category":"تفسير"},{"id":"rq_zns87MtM","title":"189- إنِّي لأولُ العربِ رَمَى بسهمٍ في سبيل الله - حديث سعد بن أبي وقَّاص رضي الله عنه","publishedAt":"2021-01-01T07:50:37Z","duration":"PT24M","thumbnail":"https://i.ytimg.com/vi/rq_zns87MtM/mqdefault.jpg","viewCount":"1612","playlistId":"PLEkQk5xrP-tmKNjtYLfhATC37QdIsTMe0","playlistName":"شرح كتاب اللؤلؤ والمرجان فيما اتفق عليه الشيخان إماما المحدثين البخاري ومسلم. أ.د. يسري جبر","category":"حديث"},{"id":"K8DfCzPbEcY","title":"ذكرى ميلاد سيدنا عيسى عليه السلام","publishedAt":"2021-01-01T18:26:11Z","duration":"PT14M15S","thumbnail":"https://i.ytimg.com/vi/K8DfCzPbEcY/mqdefault.jpg","viewCount":"6437","playlistId":"PLEkQk5xrP-tlArtGpeLWaqNM7h7IDeAVC","playlistName":"خطب الجمعة أ.د. يسري جبر","category":"خطب"},{"id":"EPLAfGFT5KI","title":"التوكيد اللفظي والمعنوي","publishedAt":"2021-01-02T07:32:53Z","duration":"PT21M24S","thumbnail":"https://i.ytimg.com/vi/EPLAfGFT5KI/mqdefault.jpg","viewCount":"554","playlistId":"PLEkQk5xrP-tnW3iBL7HkKziOFCFZbTlf0","playlistName":"شرح البرهان في علوم القرآن - أ.د. يسري جبر","category":"تفسير"},{"id":"78OX5eozgjE","title":"هل سينتهي العالم بنزول سيدنا عيسى؟","publishedAt":"2021-01-02T18:04:30Z","duration":"PT8M7S","thumbnail":"https://i.ytimg.com/vi/78OX5eozgjE/mqdefault.jpg","viewCount":"4405","playlistId":"PLEkQk5xrP-tlArtGpeLWaqNM7h7IDeAVC","playlistName":"خطب الجمعة أ.د. يسري جبر","category":"خطب"},{"id":"VPhNneUqwuM","title":"190- حِفظُ اللسان","publishedAt":"2021-01-03T07:18:25Z","duration":"PT29M26S","thumbnail":"https://i.ytimg.com/vi/VPhNneUqwuM/mqdefault.jpg","viewCount":"5501","playlistId":"PLEkQk5xrP-tmKNjtYLfhATC37QdIsTMe0","playlistName":"شرح كتاب اللؤلؤ والمرجان فيما اتفق عليه الشيخان إماما المحدثين البخاري ومسلم. أ.د. يسري جبر","category":"حديث"},{"id":"gZ2Z7omliRE","title":"3- التوكيد","publishedAt":"2021-01-04T07:18:37Z","duration":"PT13M26S","thumbnail":"https://i.ytimg.com/vi/gZ2Z7omliRE/mqdefault.jpg","viewCount":"575","playlistId":"PLEkQk5xrP-tnW3iBL7HkKziOFCFZbTlf0","playlistName":"شرح البرهان في علوم القرآن - أ.د. يسري جبر","category":"تفسير"},{"id":"gaRKvs7XdaM","title":"توقيت جرينتش أم التوقيت الإسلامي","publishedAt":"2021-01-04T18:09:17Z","duration":"PT8M3S","thumbnail":"https://i.ytimg.com/vi/gaRKvs7XdaM/mqdefault.jpg","viewCount":"4920","playlistId":"PLEkQk5xrP-tlArtGpeLWaqNM7h7IDeAVC","playlistName":"خطب الجمعة أ.د. يسري جبر","category":"خطب"},{"id":"2L8wvB9NQEk","title":"191- لا يُلْدَغُ المؤمنُ مِن جُحرٍ مرتين","publishedAt":"2021-01-05T07:11:13Z","duration":"PT23M3S","thumbnail":"https://i.ytimg.com/vi/2L8wvB9NQEk/mqdefault.jpg","viewCount":"4411","playlistId":"PLEkQk5xrP-tmKNjtYLfhATC37QdIsTMe0","playlistName":"شرح كتاب اللؤلؤ والمرجان فيما اتفق عليه الشيخان إماما المحدثين البخاري ومسلم. أ.د. يسري جبر","category":"حديث"},{"id":"SOdtAQlGiIk","title":"أفضل طرق المذاكرة","publishedAt":"2021-01-05T18:29:08Z","duration":"PT15M40S","thumbnail":"https://i.ytimg.com/vi/SOdtAQlGiIk/mqdefault.jpg","viewCount":"47194","playlistId":"PLEkQk5xrP-tm8ZIu74nTOZN9KJUJu416J","playlistName":"مقاطع مُهمَّة (يُسريَّات) أ.د. يسري جبر","category":"متنوع"},{"id":"yAuDnmczHpA","title":"تأكيدُ الفعلِ في المصدر","publishedAt":"2021-01-06T06:59:36Z","duration":"PT14M14S","thumbnail":"https://i.ytimg.com/vi/yAuDnmczHpA/mqdefault.jpg","viewCount":"530","playlistId":"PLEkQk5xrP-tnW3iBL7HkKziOFCFZbTlf0","playlistName":"شرح البرهان في علوم القرآن - أ.د. يسري جبر","category":"تفسير"},{"id":"BuTAVhNxaoU","title":"الجراحة بين الحلاق والطبيب!","publishedAt":"2021-01-06T18:35:22Z","duration":"PT8M1S","thumbnail":"https://i.ytimg.com/vi/BuTAVhNxaoU/mqdefault.jpg","viewCount":"7443","playlistId":"PLEkQk5xrP-tm8ZIu74nTOZN9KJUJu416J","playlistName":"مقاطع مُهمَّة (يُسريَّات) أ.د. يسري جبر","category":"متنوع"},{"id":"_VEQi7cRP9M","title":"ختامُ شرح كتاب اللؤلؤ والمرجان - كتابُ التفسير","publishedAt":"2021-01-07T08:03:35Z","duration":"PT34M32S","thumbnail":"https://i.ytimg.com/vi/_VEQi7cRP9M/mqdefault.jpg","viewCount":"2212","playlistId":"PLEkQk5xrP-tmKNjtYLfhATC37QdIsTMe0","playlistName":"شرح كتاب اللؤلؤ والمرجان فيما اتفق عليه الشيخان إماما المحدثين البخاري ومسلم. أ.د. يسري جبر","category":"حديث"},{"id":"3cbuCyplB2k","title":"حكم تربية الكلب في البيت؟","publishedAt":"2021-01-07T17:45:02Z","duration":"PT10M59S","thumbnail":"https://i.ytimg.com/vi/3cbuCyplB2k/mqdefault.jpg","viewCount":"17131","playlistId":"PLEkQk5xrP-tkGXuZ9atE3k_7it12rUPTs","playlistName":"أسئلة المتابعين","category":"متنوع"},{"id":"Hyv032b85NM","title":"المفعول المطلق","publishedAt":"2021-01-08T06:51:33Z","duration":"PT23M33S","thumbnail":"https://i.ytimg.com/vi/Hyv032b85NM/mqdefault.jpg","viewCount":"828","playlistId":"PLEkQk5xrP-tnW3iBL7HkKziOFCFZbTlf0","playlistName":"شرح البرهان في علوم القرآن - أ.د. يسري جبر","category":"تفسير"},{"id":"fCa_pu465-Q","title":"1- التعريفُ بالإمام النوويّ - شرح كتاب دليل الفالحين أ.د يسري جبر","publishedAt":"2021-01-09T09:10:21Z","duration":"PT39M16S","thumbnail":"https://i.ytimg.com/vi/fCa_pu465-Q/mqdefault.jpg","viewCount":"13535","playlistId":"PLEkQk5xrP-tkc9DXvSLguqX5-FYp6ASR4","playlistName":"دليل الفالحين لطرق رياض الصالحين","category":"متنوع"},{"id":"xLDh2_K7JAw","title":"متى تنتهي جائحة كورونا؟","publishedAt":"2021-01-09T17:45:01Z","duration":"PT12M8S","thumbnail":"https://i.ytimg.com/vi/xLDh2_K7JAw/mqdefault.jpg","viewCount":"17024","playlistId":"PLEkQk5xrP-tlArtGpeLWaqNM7h7IDeAVC","playlistName":"خطب الجمعة أ.د. يسري جبر","category":"خطب"},{"id":"m6e_FoLP7V4","title":"توكيد الفعل بمصدره - شرح البرهان في علوم القرآن أ.د. يسري جبر","publishedAt":"2021-01-10T07:17:28Z","duration":"PT11M15S","thumbnail":"https://i.ytimg.com/vi/m6e_FoLP7V4/mqdefault.jpg","viewCount":"588","playlistId":"PLEkQk5xrP-tnW3iBL7HkKziOFCFZbTlf0","playlistName":"شرح البرهان في علوم القرآن - أ.د. يسري جبر","category":"تفسير"}],"total":7675,"page":188,"pageSize":24,"totalPages":320}