{"items":[{"id":"A2wtUGD8Om4","title":"السيدة عائشة أم المؤمنين تصف حال سيدنا محمد في الليل | اعرف نبيك","publishedAt":"2015-07-30T15:14:46Z","duration":"PT2M41S","thumbnail":"https://i.ytimg.com/vi/A2wtUGD8Om4/mqdefault.jpg","viewCount":"523","playlistId":"PLEkQk5xrP-tl6Mu_Mz3QMUSv5T6XBH-Dg","playlistName":"برنامج اعرف نبيك","category":"متنوع"},{"id":"Crt5u1vMOyQ","title":"وصف صلاة سيدنا محمد في رمضان | اعرف نبيك","publishedAt":"2015-07-30T15:33:25Z","duration":"PT3M39S","thumbnail":"https://i.ytimg.com/vi/Crt5u1vMOyQ/mqdefault.jpg","viewCount":"541","playlistId":"PLEkQk5xrP-tl6Mu_Mz3QMUSv5T6XBH-Dg","playlistName":"برنامج اعرف نبيك","category":"متنوع"},{"id":"fndKv0oOE6s","title":"قراءة القرآن (من آية 22  سورة لقمان)","publishedAt":"2015-08-02T03:31:25Z","duration":"PT10M56S","thumbnail":"https://i.ytimg.com/vi/fndKv0oOE6s/mqdefault.jpg","viewCount":"125","playlistId":"PLEkQk5xrP-tnUSUj0uyJhA-kwNC7Gkx_j","playlistName":"مقرأة الفجر - بداية من سورة الإسراء حتى سورة الناس","category":"تفسير"},{"id":"DGf1rabrcS8","title":"شرح كتاب فضائل الجهاد من سنن الترمذي - المجلس الثالث","publishedAt":"2015-08-02T04:04:36Z","duration":"PT30M51S","thumbnail":"https://i.ytimg.com/vi/DGf1rabrcS8/mqdefault.jpg","viewCount":"93","playlistId":"PLEkQk5xrP-tnu6of679SvxdVx0qSrJzmb","playlistName":"شرح سنن الإمام الترمذي رضى الله عنه د. يسري جبر","category":"متنوع"},{"id":"isY0HRRZBHc","title":"قراءة القرآن (من أول سورة السجدة)","publishedAt":"2015-08-03T03:42:01Z","duration":"PT20M49S","thumbnail":"https://i.ytimg.com/vi/isY0HRRZBHc/mqdefault.jpg","viewCount":"192","playlistId":"PLEkQk5xrP-tnUSUj0uyJhA-kwNC7Gkx_j","playlistName":"مقرأة الفجر - بداية من سورة الإسراء حتى سورة الناس","category":"تفسير"},{"id":"MPdRE2_wTnU","title":"شرح كتاب فضائل الجهاد من سنن الترمذي - المجلس الرابع","publishedAt":"2015-08-03T04:09:44Z","duration":"PT26M55S","thumbnail":"https://i.ytimg.com/vi/MPdRE2_wTnU/mqdefault.jpg","viewCount":"74","playlistId":"PLEkQk5xrP-tnu6of679SvxdVx0qSrJzmb","playlistName":"شرح سنن الإمام الترمذي رضى الله عنه د. يسري جبر","category":"متنوع"},{"id":"elqE64oawtU","title":"قراءة القرآن (من آية 16 سورة السجدة)","publishedAt":"2015-08-04T03:40:02Z","duration":"PT11M21S","thumbnail":"https://i.ytimg.com/vi/elqE64oawtU/mqdefault.jpg","viewCount":"234","playlistId":"PLEkQk5xrP-tnUSUj0uyJhA-kwNC7Gkx_j","playlistName":"مقرأة الفجر - بداية من سورة الإسراء حتى سورة الناس","category":"تفسير"},{"id":"acE2xi83OAA","title":"شرح كتاب فضائل الجهاد من سنن الترمذي - المجلس الخامس","publishedAt":"2015-08-04T04:16:16Z","duration":"PT31M25S","thumbnail":"https://i.ytimg.com/vi/acE2xi83OAA/mqdefault.jpg","viewCount":"72","playlistId":"PLEkQk5xrP-tnu6of679SvxdVx0qSrJzmb","playlistName":"شرح سنن الإمام الترمذي رضى الله عنه د. يسري جبر","category":"متنوع"},{"id":"F1nPq0zg8b4","title":"قراءة القرآن (من أول سورة الأحزاب)","publishedAt":"2015-08-05T03:39:04Z","duration":"PT8M36S","thumbnail":"https://i.ytimg.com/vi/F1nPq0zg8b4/mqdefault.jpg","viewCount":"88","playlistId":"PLEkQk5xrP-tnUSUj0uyJhA-kwNC7Gkx_j","playlistName":"مقرأة الفجر - بداية من سورة الإسراء حتى سورة الناس","category":"تفسير"},{"id":"MrOI81EqzWs","title":"شرح كتاب فضائل الجهاد من سنن الترمذي - المجلس السادس","publishedAt":"2015-08-05T04:23:38Z","duration":"PT39M31S","thumbnail":"https://i.ytimg.com/vi/MrOI81EqzWs/mqdefault.jpg","viewCount":"71","playlistId":"PLEkQk5xrP-tnu6of679SvxdVx0qSrJzmb","playlistName":"شرح سنن الإمام الترمذي رضى الله عنه د. يسري جبر","category":"متنوع"},{"id":"PgSdfJ9DHV8","title":"المقصود بالمُلك والملكوت والجبروت | اعرف نبيك","publishedAt":"2015-08-05T15:19:21Z","duration":"PT2M7S","thumbnail":"https://i.ytimg.com/vi/PgSdfJ9DHV8/mqdefault.jpg","viewCount":"17412","playlistId":"PLEkQk5xrP-tl6Mu_Mz3QMUSv5T6XBH-Dg","playlistName":"برنامج اعرف نبيك","category":"متنوع"},{"id":"ezysXv7-ipQ","title":"جبريل عليه السلام ينزل لسيدنا محمد ويبشره | اعرف نبيك","publishedAt":"2015-08-05T15:35:24Z","duration":"PT2M16S","thumbnail":"https://i.ytimg.com/vi/ezysXv7-ipQ/mqdefault.jpg","viewCount":"748","playlistId":"PLEkQk5xrP-tl6Mu_Mz3QMUSv5T6XBH-Dg","playlistName":"برنامج اعرف نبيك","category":"متنوع"},{"id":"Rl2tiLPLG18","title":"قراءة القرآن (من آية 9 سورة الأحزاب)","publishedAt":"2015-08-06T03:56:57Z","duration":"PT7M11S","thumbnail":"https://i.ytimg.com/vi/Rl2tiLPLG18/mqdefault.jpg","viewCount":"138","playlistId":"PLEkQk5xrP-tnUSUj0uyJhA-kwNC7Gkx_j","playlistName":"مقرأة الفجر - بداية من سورة الإسراء حتى سورة الناس","category":"تفسير"},{"id":"3EMsbVFeeDg","title":"شرح كتاب الجهاد من سنن الترمذي - المجلس الأول","publishedAt":"2015-08-06T04:27:01Z","duration":"PT27M","thumbnail":"https://i.ytimg.com/vi/3EMsbVFeeDg/mqdefault.jpg","viewCount":"99","playlistId":"PLEkQk5xrP-tnu6of679SvxdVx0qSrJzmb","playlistName":"شرح سنن الإمام الترمذي رضى الله عنه د. يسري جبر","category":"متنوع"},{"id":"tQ2mTUIcrNw","title":"قراءة القرآن (من آية 18 سورة الأحزاب)","publishedAt":"2015-08-07T03:55:26Z","duration":"PT9M26S","thumbnail":"https://i.ytimg.com/vi/tQ2mTUIcrNw/mqdefault.jpg","viewCount":"80","playlistId":"PLEkQk5xrP-tnUSUj0uyJhA-kwNC7Gkx_j","playlistName":"مقرأة الفجر - بداية من سورة الإسراء حتى سورة الناس","category":"تفسير"},{"id":"luUNuFCvE7M","title":"شرح كتاب الجهاد من سنن الترمذي - المجلس الثاني","publishedAt":"2015-08-07T04:35:04Z","duration":"PT36M16S","thumbnail":"https://i.ytimg.com/vi/luUNuFCvE7M/mqdefault.jpg","viewCount":"83","playlistId":"PLEkQk5xrP-tnu6of679SvxdVx0qSrJzmb","playlistName":"شرح سنن الإمام الترمذي رضى الله عنه د. يسري جبر","category":"متنوع"},{"id":"w2EJEXQbqlg","title":"قراءة القرآن (من آية 25 سورة الأحزاب)","publishedAt":"2015-08-08T04:00:52Z","duration":"PT29M46S","thumbnail":"https://i.ytimg.com/vi/w2EJEXQbqlg/mqdefault.jpg","viewCount":"823","playlistId":"PLEkQk5xrP-tnUSUj0uyJhA-kwNC7Gkx_j","playlistName":"مقرأة الفجر - بداية من سورة الإسراء حتى سورة الناس","category":"تفسير"},{"id":"QWbqYvGZtWU","title":"شرح كتاب الجهاد من سنن الترمذي - المجلس الثالث","publishedAt":"2015-08-08T04:32:40Z","duration":"PT33M20S","thumbnail":"https://i.ytimg.com/vi/QWbqYvGZtWU/mqdefault.jpg","viewCount":"74","playlistId":"PLEkQk5xrP-tnu6of679SvxdVx0qSrJzmb","playlistName":"شرح سنن الإمام الترمذي رضى الله عنه د. يسري جبر","category":"متنوع"},{"id":"GKu4ua4yu5U","title":"قراءة القرآن (من آية 35 سورة الأحزاب)","publishedAt":"2015-08-09T03:35:54Z","duration":"PT11M11S","thumbnail":"https://i.ytimg.com/vi/GKu4ua4yu5U/mqdefault.jpg","viewCount":"93","playlistId":"PLEkQk5xrP-tnUSUj0uyJhA-kwNC7Gkx_j","playlistName":"مقرأة الفجر - بداية من سورة الإسراء حتى سورة الناس","category":"تفسير"},{"id":"lw5cdq_vX7E","title":"شرح كتاب الجهاد من سنن الترمذي - المجلس الرابع","publishedAt":"2015-08-09T04:19:38Z","duration":"PT41M11S","thumbnail":"https://i.ytimg.com/vi/lw5cdq_vX7E/mqdefault.jpg","viewCount":"98","playlistId":"PLEkQk5xrP-tnu6of679SvxdVx0qSrJzmb","playlistName":"شرح سنن الإمام الترمذي رضى الله عنه د. يسري جبر","category":"متنوع"},{"id":"9MTXfZyVk50","title":"اسْتَوصُوا بِأَهْلِ مِصرَ خَيرًا - د. يسري جبر","publishedAt":"2015-08-09T15:47:17Z","duration":"PT38M12S","thumbnail":"https://i.ytimg.com/vi/9MTXfZyVk50/mqdefault.jpg","viewCount":"324","playlistId":"PLEkQk5xrP-tlArtGpeLWaqNM7h7IDeAVC","playlistName":"خطب الجمعة أ.د. يسري جبر","category":"خطب"},{"id":"nmTRYHuGSx4","title":"قراءة القرآن (من آية 45 سورة الأحزاب)","publishedAt":"2015-08-10T03:31:00Z","duration":"PT7M32S","thumbnail":"https://i.ytimg.com/vi/nmTRYHuGSx4/mqdefault.jpg","viewCount":"116","playlistId":"PLEkQk5xrP-tnUSUj0uyJhA-kwNC7Gkx_j","playlistName":"مقرأة الفجر - بداية من سورة الإسراء حتى سورة الناس","category":"تفسير"},{"id":"xqICkQBKN9U","title":"شرح كتاب الجهاد من سنن الترمذي - المجلس الخامس","publishedAt":"2015-08-10T04:17:24Z","duration":"PT42M32S","thumbnail":"https://i.ytimg.com/vi/xqICkQBKN9U/mqdefault.jpg","viewCount":"100","playlistId":"PLEkQk5xrP-tnu6of679SvxdVx0qSrJzmb","playlistName":"شرح سنن الإمام الترمذي رضى الله عنه د. يسري جبر","category":"متنوع"},{"id":"3jDH9xkXMRY","title":"المجلس العاشر من شرح الخريدة البهية","publishedAt":"2015-08-10T13:58:10Z","duration":"PT39M31S","thumbnail":"https://i.ytimg.com/vi/3jDH9xkXMRY/mqdefault.jpg","viewCount":"5264","playlistId":"PLEkQk5xrP-tnI6h_R1hvYgrrstFAJCvv9","playlistName":"شرح الخريدة البهية د. يسري جبر","category":"متنوع"}],"total":7675,"page":18,"pageSize":24,"totalPages":320}