{"items":[{"id":"vxhbzGROpgw","title":"الرسالة القشيرية - المجلس الثامن والأربعون - تكملة باب الزهد - أ.د. يسري جبر","publishedAt":"2019-02-09T18:24:36Z","duration":"PT42M35S","thumbnail":"https://i.ytimg.com/vi/vxhbzGROpgw/mqdefault.jpg","viewCount":"3785","playlistId":"PLEkQk5xrP-tkHAGOwIKr4pc5ehhyQ5HMJ","playlistName":"كتاب الرسالة القشيرية (تصوف) - د. يسري جبر","category":"تصوف"},{"id":"b8GJ0kD132w","title":"مقرأة سورة الطور من آية ١٧","publishedAt":"2019-02-10T14:26:55Z","duration":"PT18M16S","thumbnail":"https://i.ytimg.com/vi/b8GJ0kD132w/mqdefault.jpg","viewCount":"413","playlistId":"PLEkQk5xrP-tnmTYsyW6xNdyfhPq0Bhrhj","playlistName":"مقرأة الفجر - القُرْآنُ الكَرِيمُ - خَتْمَةُ التَّدَبُّرِ  أ.د. يسري جبر","category":"متنوع"},{"id":"SoIIMxybv6w","title":"يَا أَيُّهَا الَّذِينَ آمَنُوا اتَّقُوا اللَّهَ وَكُونُوا مَعَ الصَّادِقِينَ - أ. د. يسري جبر","publishedAt":"2019-02-10T19:47:19Z","duration":"PT33M27S","thumbnail":"https://i.ytimg.com/vi/SoIIMxybv6w/mqdefault.jpg","viewCount":"693","playlistId":"PLEkQk5xrP-tlArtGpeLWaqNM7h7IDeAVC","playlistName":"خطب الجمعة أ.د. يسري جبر","category":"خطب"},{"id":"lx9WolMVEWg","title":"شرح صحيح البخاري كتاب التوحيد من باب ٣٣","publishedAt":"2019-02-10T20:09:51Z","duration":"PT41M10S","thumbnail":"https://i.ytimg.com/vi/lx9WolMVEWg/mqdefault.jpg","viewCount":"558","playlistId":"PLEkQk5xrP-tlEerGoLa1AFy-2XvQ-sovv","playlistName":"شرح صحيح البخاري - أ.د. يسري جبر (كاملا)","category":"حديث"},{"id":"0Bgem5C-nTs","title":"مقرأة سورة الطور من آية 25","publishedAt":"2019-02-11T09:17:34Z","duration":"PT25M37S","thumbnail":"https://i.ytimg.com/vi/0Bgem5C-nTs/mqdefault.jpg","viewCount":"641","playlistId":"PLEkQk5xrP-tnmTYsyW6xNdyfhPq0Bhrhj","playlistName":"مقرأة الفجر - القُرْآنُ الكَرِيمُ - خَتْمَةُ التَّدَبُّرِ  أ.د. يسري جبر","category":"متنوع"},{"id":"QHxA--ukckU","title":"شرح كتاب دلائل الخيرات - المجلس الأول | أ.د. يسري جبر","publishedAt":"2019-02-11T18:47:07Z","duration":"PT52M15S","thumbnail":"https://i.ytimg.com/vi/QHxA--ukckU/mqdefault.jpg","viewCount":"418789","playlistId":"PLEkQk5xrP-tlAzcbIpuqjdFICW-knvTlR","playlistName":"شرح كتاب دلائل الخيرات وشوارق الأنوار","category":"متنوع"},{"id":"a4paMl7dujY","title":"شرح صحيح البخاري كتاب التوحيد من باب ٣٦","publishedAt":"2019-02-11T21:01:25Z","duration":"PT41M","thumbnail":"https://i.ytimg.com/vi/a4paMl7dujY/mqdefault.jpg","viewCount":"587","playlistId":"PLEkQk5xrP-tlEerGoLa1AFy-2XvQ-sovv","playlistName":"شرح صحيح البخاري - أ.د. يسري جبر (كاملا)","category":"حديث"},{"id":"YABc_AZLhMs","title":"مقرأة سورة الطور من آية ٤٤","publishedAt":"2019-02-12T10:18:56Z","duration":"PT8M20S","thumbnail":"https://i.ytimg.com/vi/YABc_AZLhMs/mqdefault.jpg","viewCount":"444","playlistId":"PLEkQk5xrP-tnmTYsyW6xNdyfhPq0Bhrhj","playlistName":"مقرأة الفجر - القُرْآنُ الكَرِيمُ - خَتْمَةُ التَّدَبُّرِ  أ.د. يسري جبر","category":"متنوع"},{"id":"tkjhgAEFZGk","title":"شرح صحيح البخاري كتاب التوحيد من باب ٣٨","publishedAt":"2019-02-12T22:46:31Z","duration":"PT41M12S","thumbnail":"https://i.ytimg.com/vi/tkjhgAEFZGk/mqdefault.jpg","viewCount":"549","playlistId":"PLEkQk5xrP-tlEerGoLa1AFy-2XvQ-sovv","playlistName":"شرح صحيح البخاري - أ.د. يسري جبر (كاملا)","category":"حديث"},{"id":"N05XE_5fMfc","title":"مقرأة سورة النجم من أولها","publishedAt":"2019-02-13T12:14:12Z","duration":"PT15M31S","thumbnail":"https://i.ytimg.com/vi/N05XE_5fMfc/mqdefault.jpg","viewCount":"1967","playlistId":"PLEkQk5xrP-tnmTYsyW6xNdyfhPq0Bhrhj","playlistName":"مقرأة الفجر - القُرْآنُ الكَرِيمُ - خَتْمَةُ التَّدَبُّرِ  أ.د. يسري جبر","category":"متنوع"},{"id":"XWomvbQtjGU","title":"شرح صحيح البخاري كتاب التوحيد من باب ٤٣","publishedAt":"2019-02-14T03:33:40Z","duration":"PT24M14S","thumbnail":"https://i.ytimg.com/vi/XWomvbQtjGU/mqdefault.jpg","viewCount":"514","playlistId":"PLEkQk5xrP-tlEerGoLa1AFy-2XvQ-sovv","playlistName":"شرح صحيح البخاري - أ.د. يسري جبر (كاملا)","category":"حديث"},{"id":"pSES5y_7PF4","title":"مقرأة سورة النجم من آية ١٩","publishedAt":"2019-02-14T14:40:32Z","duration":"PT11M52S","thumbnail":"https://i.ytimg.com/vi/pSES5y_7PF4/mqdefault.jpg","viewCount":"469","playlistId":"PLEkQk5xrP-tnmTYsyW6xNdyfhPq0Bhrhj","playlistName":"مقرأة الفجر - القُرْآنُ الكَرِيمُ - خَتْمَةُ التَّدَبُّرِ  أ.د. يسري جبر","category":"متنوع"},{"id":"GsROX398nmg","title":"شرح صحيح البخاري كتاب التوحيد من باب ٤٧","publishedAt":"2019-02-14T19:52:26Z","duration":"PT37M47S","thumbnail":"https://i.ytimg.com/vi/GsROX398nmg/mqdefault.jpg","viewCount":"568","playlistId":"PLEkQk5xrP-tlEerGoLa1AFy-2XvQ-sovv","playlistName":"شرح صحيح البخاري - أ.د. يسري جبر (كاملا)","category":"حديث"},{"id":"kAwsLwlB92U","title":"الرسالة القشيرية - المجلس التاسع والأربعون - باب الصمت - أ.د. يسري جبر","publishedAt":"2019-02-15T14:52:26Z","duration":"PT52M49S","thumbnail":"https://i.ytimg.com/vi/kAwsLwlB92U/mqdefault.jpg","viewCount":"9801","playlistId":"PLEkQk5xrP-tkHAGOwIKr4pc5ehhyQ5HMJ","playlistName":"كتاب الرسالة القشيرية (تصوف) - د. يسري جبر","category":"تصوف"},{"id":"DPUinPBezm0","title":"مقرأة سورة النجم من آية ٢٦","publishedAt":"2019-02-16T17:37:37Z","duration":"PT14M48S","thumbnail":"https://i.ytimg.com/vi/DPUinPBezm0/mqdefault.jpg","viewCount":"469","playlistId":"PLEkQk5xrP-tnmTYsyW6xNdyfhPq0Bhrhj","playlistName":"مقرأة الفجر - القُرْآنُ الكَرِيمُ - خَتْمَةُ التَّدَبُّرِ  أ.د. يسري جبر","category":"متنوع"},{"id":"viN_L4eDlZA","title":"العِلْمُ النَّافِعُ - أ. د. يسري جبر","publishedAt":"2019-02-16T18:03:49Z","duration":"PT30M29S","thumbnail":"https://i.ytimg.com/vi/viN_L4eDlZA/mqdefault.jpg","viewCount":"990","playlistId":"PLEkQk5xrP-tlArtGpeLWaqNM7h7IDeAVC","playlistName":"خطب الجمعة أ.د. يسري جبر","category":"خطب"},{"id":"X_87MvS5UQw","title":"شرح كتاب دلائل الخيرات - المجلس الثاني | أ.د. يسري جبر","publishedAt":"2019-02-17T18:00:24Z","duration":"PT51M38S","thumbnail":"https://i.ytimg.com/vi/X_87MvS5UQw/mqdefault.jpg","viewCount":"130210","playlistId":"PLEkQk5xrP-tlAzcbIpuqjdFICW-knvTlR","playlistName":"شرح كتاب دلائل الخيرات وشوارق الأنوار","category":"متنوع"},{"id":"31FQBRY_Eb8","title":"شرح صحيح البخاري كتاب التوحيد من باب ٥٢","publishedAt":"2019-02-19T17:49:26Z","duration":"PT29M38S","thumbnail":"https://i.ytimg.com/vi/31FQBRY_Eb8/mqdefault.jpg","viewCount":"649","playlistId":"PLEkQk5xrP-tlEerGoLa1AFy-2XvQ-sovv","playlistName":"شرح صحيح البخاري - أ.د. يسري جبر (كاملا)","category":"حديث"},{"id":"QRWym7uSMMU","title":"مقرأة سورة النجم من آية ٣١","publishedAt":"2019-02-21T20:36:21Z","duration":"PT12M17S","thumbnail":"https://i.ytimg.com/vi/QRWym7uSMMU/mqdefault.jpg","viewCount":"372","playlistId":"PLEkQk5xrP-tnmTYsyW6xNdyfhPq0Bhrhj","playlistName":"مقرأة الفجر - القُرْآنُ الكَرِيمُ - خَتْمَةُ التَّدَبُّرِ  أ.د. يسري جبر","category":"متنوع"},{"id":"JgZDECSj1gs","title":"ختام شرح صحيح البخاري كتاب التوحيد من باب ٥٦","publishedAt":"2019-02-22T09:34:06Z","duration":"PT45M13S","thumbnail":"https://i.ytimg.com/vi/JgZDECSj1gs/mqdefault.jpg","viewCount":"1695","playlistId":"PLEkQk5xrP-tlEerGoLa1AFy-2XvQ-sovv","playlistName":"شرح صحيح البخاري - أ.د. يسري جبر (كاملا)","category":"حديث"},{"id":"84OWnJIezbs","title":"مقرأة سورة النجم من آية ٣٣","publishedAt":"2019-02-23T21:21:44Z","duration":"PT14M58S","thumbnail":"https://i.ytimg.com/vi/84OWnJIezbs/mqdefault.jpg","viewCount":"407","playlistId":"PLEkQk5xrP-tnmTYsyW6xNdyfhPq0Bhrhj","playlistName":"مقرأة الفجر - القُرْآنُ الكَرِيمُ - خَتْمَةُ التَّدَبُّرِ  أ.د. يسري جبر","category":"متنوع"},{"id":"7ZTRBqaKTsE","title":"شرح سنن الدارمي - المقدمة - ١","publishedAt":"2019-02-23T22:57:02Z","duration":"PT26M27S","thumbnail":"https://i.ytimg.com/vi/7ZTRBqaKTsE/mqdefault.jpg","viewCount":"4372","playlistId":"PLEkQk5xrP-tmAg-FuWjY057X_h5NmGmAa","playlistName":"شرح سنن الدارمي - أ.د. يسري جبر (كاملا)","category":"متنوع"},{"id":"upsqCfo9mcc","title":"حول مولد سيدتنا فاطمة الزهراء البتول رضي الله عنها وعليها السلام  أ.د. يسري جبر","publishedAt":"2019-02-24T18:36:12Z","duration":"PT37M14S","thumbnail":"https://i.ytimg.com/vi/upsqCfo9mcc/mqdefault.jpg","viewCount":"939","playlistId":"PLEkQk5xrP-tlArtGpeLWaqNM7h7IDeAVC","playlistName":"خطب الجمعة أ.د. يسري جبر","category":"خطب"},{"id":"v6P-uoulDMc","title":"شرح كتاب دلائل الخيرات - المجلس الثالث | أ.د. يسري جبر","publishedAt":"2019-02-24T19:22:07Z","duration":"PT49M35S","thumbnail":"https://i.ytimg.com/vi/v6P-uoulDMc/mqdefault.jpg","viewCount":"73989","playlistId":"PLEkQk5xrP-tlAzcbIpuqjdFICW-knvTlR","playlistName":"شرح كتاب دلائل الخيرات وشوارق الأنوار","category":"متنوع"}],"total":7675,"page":133,"pageSize":24,"totalPages":320}