{"items":[{"id":"42X5gMIOdaU","title":"شرح كتاب الأذكار من كلام سيد الأبرار للإمام النووى رضى الله عنه - المجلس الخمسون","publishedAt":"2016-12-21T06:43:31Z","duration":"PT14M25S","thumbnail":"https://i.ytimg.com/vi/42X5gMIOdaU/mqdefault.jpg","viewCount":"1260","playlistId":"PLEkQk5xrP-tkWS57Ubysh0ifJR8dmuEtE","playlistName":"شرح كتاب الأذكار للإمام النووي د. يسرى جبر","category":"حديث"},{"id":"sXOhFfkDSY4","title":"سورة الأنعام آية 75","publishedAt":"2016-12-21T07:59:11Z","duration":"PT17M9S","thumbnail":"https://i.ytimg.com/vi/sXOhFfkDSY4/mqdefault.jpg","viewCount":"449","playlistId":"PLEkQk5xrP-tnmTYsyW6xNdyfhPq0Bhrhj","playlistName":"مقرأة الفجر - القُرْآنُ الكَرِيمُ - خَتْمَةُ التَّدَبُّرِ  أ.د. يسري جبر","category":"متنوع"},{"id":"9loWimxeq4g","title":"شرح صحيح البخاري - كتاب سجود القرآن من أوله","publishedAt":"2016-12-21T09:13:02Z","duration":"PT33M33S","thumbnail":"https://i.ytimg.com/vi/9loWimxeq4g/mqdefault.jpg","viewCount":"1032","playlistId":"PLEkQk5xrP-tlEerGoLa1AFy-2XvQ-sovv","playlistName":"شرح صحيح البخاري - أ.د. يسري جبر (كاملا)","category":"حديث"},{"id":"FzdnH4RYI-o","title":"شرح فتح القريب المجيب - كتاب أحكام السبق والرمي","publishedAt":"2016-12-21T18:26:02Z","duration":"PT24M29S","thumbnail":"https://i.ytimg.com/vi/FzdnH4RYI-o/mqdefault.jpg","viewCount":"404","playlistId":"PLEkQk5xrP-tlyOgfNBZTZgoATzVW4mI20","playlistName":"كتاب فتح القريب المجيب (علم الفقه الشافعي)","category":"فقه"},{"id":"7E4ATqhY8AM","title":"سورة الأنعام آية 80","publishedAt":"2016-12-22T06:39:20Z","duration":"PT14M15S","thumbnail":"https://i.ytimg.com/vi/7E4ATqhY8AM/mqdefault.jpg","viewCount":"1253","playlistId":"PLEkQk5xrP-tnmTYsyW6xNdyfhPq0Bhrhj","playlistName":"مقرأة الفجر - القُرْآنُ الكَرِيمُ - خَتْمَةُ التَّدَبُّرِ  أ.د. يسري جبر","category":"متنوع"},{"id":"1wB9ywdEOnY","title":"شرح صحيح البخاري - كتاب تقصير الصلا‎ة من أوله","publishedAt":"2016-12-22T08:43:44Z","duration":"PT39M11S","thumbnail":"https://i.ytimg.com/vi/1wB9ywdEOnY/mqdefault.jpg","viewCount":"1050","playlistId":"PLEkQk5xrP-tlEerGoLa1AFy-2XvQ-sovv","playlistName":"شرح صحيح البخاري - أ.د. يسري جبر (كاملا)","category":"حديث"},{"id":"OMxh6TYSigk","title":"صحيح الإمام البخاري رضي الله عنه - كتاب الأدب - المجلس السادس د. يسري جبر","publishedAt":"2016-12-22T17:56:45Z","duration":"PT37M3S","thumbnail":"https://i.ytimg.com/vi/OMxh6TYSigk/mqdefault.jpg","viewCount":"219","playlistId":"PLEkQk5xrP-tmJuzaj4GWRenFoFx9gdbFX","playlistName":"شرح كتاب صحيح الإمام البخاري رضي الله تعالى عنه   أ.د. يسرى جبر","category":"حديث"},{"id":"P7s8oeGE_4U","title":"سورة الأنعام آية 84","publishedAt":"2016-12-23T07:07:55Z","duration":"PT9M22S","thumbnail":"https://i.ytimg.com/vi/P7s8oeGE_4U/mqdefault.jpg","viewCount":"443","playlistId":"PLEkQk5xrP-tnmTYsyW6xNdyfhPq0Bhrhj","playlistName":"مقرأة الفجر - القُرْآنُ الكَرِيمُ - خَتْمَةُ التَّدَبُّرِ  أ.د. يسري جبر","category":"متنوع"},{"id":"HWUXrFDOC_8","title":"شرح صحيح البخاري - كتاب التقصير من باب ٧","publishedAt":"2016-12-23T08:03:50Z","duration":"PT27M50S","thumbnail":"https://i.ytimg.com/vi/HWUXrFDOC_8/mqdefault.jpg","viewCount":"846","playlistId":"PLEkQk5xrP-tlEerGoLa1AFy-2XvQ-sovv","playlistName":"شرح صحيح البخاري - أ.د. يسري جبر (كاملا)","category":"حديث"},{"id":"f6s4qXLLYVw","title":"سورة الأنعام آية 91","publishedAt":"2016-12-24T07:06:57Z","duration":"PT22M42S","thumbnail":"https://i.ytimg.com/vi/f6s4qXLLYVw/mqdefault.jpg","viewCount":"442","playlistId":"PLEkQk5xrP-tnmTYsyW6xNdyfhPq0Bhrhj","playlistName":"مقرأة الفجر - القُرْآنُ الكَرِيمُ - خَتْمَةُ التَّدَبُّرِ  أ.د. يسري جبر","category":"متنوع"},{"id":"N4ZP7IvK_5A","title":"شرح صحيح البخاري - كتاب التقصير من باب ١٤","publishedAt":"2016-12-24T09:51:15Z","duration":"PT25M1S","thumbnail":"https://i.ytimg.com/vi/N4ZP7IvK_5A/mqdefault.jpg","viewCount":"727","playlistId":"PLEkQk5xrP-tlEerGoLa1AFy-2XvQ-sovv","playlistName":"شرح صحيح البخاري - أ.د. يسري جبر (كاملا)","category":"حديث"},{"id":"kRKj6k9kEZ8","title":"37- الرُّخْصَةِ فِى الْقُبْلَةِ لِلصَّائِمِ كتاب الصيام ك الموطأ د يسري جبر الأزهري","publishedAt":"2016-12-24T13:12:14Z","duration":"PT1H9M47S","thumbnail":"https://i.ytimg.com/vi/kRKj6k9kEZ8/mqdefault.jpg","viewCount":"447","playlistId":"PLEkQk5xrP-tnC6BRuqMjyO-484iqXeg0o","playlistName":"شرح كتاب الموطأ للإمام مالك","category":"متنوع"},{"id":"u4qsu0Bs7Js","title":"سورة الأنعام آية 95","publishedAt":"2016-12-25T17:14:17Z","duration":"PT17M39S","thumbnail":"https://i.ytimg.com/vi/u4qsu0Bs7Js/mqdefault.jpg","viewCount":"388","playlistId":"PLEkQk5xrP-tnmTYsyW6xNdyfhPq0Bhrhj","playlistName":"مقرأة الفجر - القُرْآنُ الكَرِيمُ - خَتْمَةُ التَّدَبُّرِ  أ.د. يسري جبر","category":"متنوع"},{"id":"nfbqjHV_bmE","title":"الروحانية المحمدية في القرآن الكريم   د. يسري جبر","publishedAt":"2016-12-25T19:19:50Z","duration":"PT51M4S","thumbnail":"https://i.ytimg.com/vi/nfbqjHV_bmE/mqdefault.jpg","viewCount":"39718","playlistId":"PLEkQk5xrP-tlArtGpeLWaqNM7h7IDeAVC","playlistName":"خطب الجمعة أ.د. يسري جبر","category":"خطب"},{"id":"LNAVUNEs96M","title":"شرح صحيح البخاري - كتاب التهجد من أوله","publishedAt":"2016-12-26T01:04:28Z","duration":"PT39M30S","thumbnail":"https://i.ytimg.com/vi/LNAVUNEs96M/mqdefault.jpg","viewCount":"1331","playlistId":"PLEkQk5xrP-tlEerGoLa1AFy-2XvQ-sovv","playlistName":"شرح صحيح البخاري - أ.د. يسري جبر (كاملا)","category":"حديث"},{"id":"BcROrvlAO30","title":"مقرأة سورة الأنعام من آية ٩٩","publishedAt":"2016-12-26T07:00:28Z","duration":"PT25M42S","thumbnail":"https://i.ytimg.com/vi/BcROrvlAO30/mqdefault.jpg","viewCount":"901","playlistId":"PLEkQk5xrP-tnmTYsyW6xNdyfhPq0Bhrhj","playlistName":"مقرأة الفجر - القُرْآنُ الكَرِيمُ - خَتْمَةُ التَّدَبُّرِ  أ.د. يسري جبر","category":"متنوع"},{"id":"9Ita1ZgEBUM","title":"شرح صحيح البخاري - كتاب التهجد من باب ٥","publishedAt":"2016-12-26T13:01:28Z","duration":"PT36M10S","thumbnail":"https://i.ytimg.com/vi/9Ita1ZgEBUM/mqdefault.jpg","viewCount":"1149","playlistId":"PLEkQk5xrP-tlEerGoLa1AFy-2XvQ-sovv","playlistName":"شرح صحيح البخاري - أ.د. يسري جبر (كاملا)","category":"حديث"},{"id":"Ls1bmoyeGbQ","title":"صحيح الإمام البخاري رضي الله عنه - كتاب الأدب - المجلس السابع  د. يسري جبر","publishedAt":"2016-12-26T19:41:30Z","duration":"PT29M44S","thumbnail":"https://i.ytimg.com/vi/Ls1bmoyeGbQ/mqdefault.jpg","viewCount":"137","playlistId":"PLEkQk5xrP-tmJuzaj4GWRenFoFx9gdbFX","playlistName":"شرح كتاب صحيح الإمام البخاري رضي الله تعالى عنه   أ.د. يسرى جبر","category":"حديث"},{"id":"96DO2v2tLdE","title":"سورة الأنعام آية 103","publishedAt":"2016-12-27T07:35:25Z","duration":"PT25M31S","thumbnail":"https://i.ytimg.com/vi/96DO2v2tLdE/mqdefault.jpg","viewCount":"414","playlistId":"PLEkQk5xrP-tnmTYsyW6xNdyfhPq0Bhrhj","playlistName":"مقرأة الفجر - القُرْآنُ الكَرِيمُ - خَتْمَةُ التَّدَبُّرِ  أ.د. يسري جبر","category":"متنوع"},{"id":"q0lREIF_zws","title":"شرح صحيح البخاري - كتاب التهجد من باب ١٤","publishedAt":"2016-12-27T12:09:54Z","duration":"PT38M38S","thumbnail":"https://i.ytimg.com/vi/q0lREIF_zws/mqdefault.jpg","viewCount":"984","playlistId":"PLEkQk5xrP-tlEerGoLa1AFy-2XvQ-sovv","playlistName":"شرح صحيح البخاري - أ.د. يسري جبر (كاملا)","category":"حديث"},{"id":"8evYo7s2lYk","title":"مقرأة سورة الأنعام من آية 106","publishedAt":"2016-12-28T11:44:40Z","duration":"PT26M39S","thumbnail":"https://i.ytimg.com/vi/8evYo7s2lYk/mqdefault.jpg","viewCount":"449","playlistId":"PLEkQk5xrP-tnmTYsyW6xNdyfhPq0Bhrhj","playlistName":"مقرأة الفجر - القُرْآنُ الكَرِيمُ - خَتْمَةُ التَّدَبُّرِ  أ.د. يسري جبر","category":"متنوع"},{"id":"onnYAvLh9uA","title":"شرح صحيح البخاري - كتاب التهجد من باب ٢٣","publishedAt":"2016-12-28T15:49:37Z","duration":"PT35M54S","thumbnail":"https://i.ytimg.com/vi/onnYAvLh9uA/mqdefault.jpg","viewCount":"911","playlistId":"PLEkQk5xrP-tlEerGoLa1AFy-2XvQ-sovv","playlistName":"شرح صحيح البخاري - أ.د. يسري جبر (كاملا)","category":"حديث"},{"id":"1bQUxIXsmEs","title":"مقرأة سورة الأنعام من آية ١١١","publishedAt":"2016-12-29T07:39:23Z","duration":"PT25M11S","thumbnail":"https://i.ytimg.com/vi/1bQUxIXsmEs/mqdefault.jpg","viewCount":"460","playlistId":"PLEkQk5xrP-tnmTYsyW6xNdyfhPq0Bhrhj","playlistName":"مقرأة الفجر - القُرْآنُ الكَرِيمُ - خَتْمَةُ التَّدَبُّرِ  أ.د. يسري جبر","category":"متنوع"},{"id":"PcfPUOvVSG8","title":"شرح صحيح البخاري - كتاب التهجد من باب ٣٣","publishedAt":"2016-12-29T11:25:43Z","duration":"PT28M45S","thumbnail":"https://i.ytimg.com/vi/PcfPUOvVSG8/mqdefault.jpg","viewCount":"895","playlistId":"PLEkQk5xrP-tlEerGoLa1AFy-2XvQ-sovv","playlistName":"شرح صحيح البخاري - أ.د. يسري جبر (كاملا)","category":"حديث"}],"total":7675,"page":57,"pageSize":24,"totalPages":320}