{"items":[{"id":"ZlCr8L0q7XQ","title":"مقرأة سورة الحج من آية ٢٩","publishedAt":"2018-02-01T13:07:12Z","duration":"PT18M53S","thumbnail":"https://i.ytimg.com/vi/ZlCr8L0q7XQ/mqdefault.jpg","viewCount":"296","playlistId":"PLEkQk5xrP-tnmTYsyW6xNdyfhPq0Bhrhj","playlistName":"مقرأة الفجر - القُرْآنُ الكَرِيمُ - خَتْمَةُ التَّدَبُّرِ  أ.د. يسري جبر","category":"متنوع"},{"id":"RIhZGL58jAE","title":"منْ تمامِ النعمةِ عليك: أنْ يرزقكَ ما يَكْفيكَ، ويَمْنعكَ ما يُطْغيك.","publishedAt":"2018-02-01T17:57:11Z","duration":"PT8M16S","thumbnail":"https://i.ytimg.com/vi/RIhZGL58jAE/mqdefault.jpg","viewCount":"1414","playlistId":"PLEkQk5xrP-tkI_meE148wc7V7XHlB0WPb","playlistName":"من الحكم العطائية  د. يسري جبر","category":"متنوع"},{"id":"vU9OHGBsBJk","title":"شرح صحيح البخاري   كتاب المغازي من باب ٣٣","publishedAt":"2018-02-01T20:32:41Z","duration":"PT24M48S","thumbnail":"https://i.ytimg.com/vi/vU9OHGBsBJk/mqdefault.jpg","viewCount":"513","playlistId":"PLEkQk5xrP-tlEerGoLa1AFy-2XvQ-sovv","playlistName":"شرح صحيح البخاري - أ.د. يسري جبر (كاملا)","category":"حديث"},{"id":"l7ABc_w2TB8","title":"مقرأة سورة الحج من آية ٣٢","publishedAt":"2018-02-03T12:17:27Z","duration":"PT19M3S","thumbnail":"https://i.ytimg.com/vi/l7ABc_w2TB8/mqdefault.jpg","viewCount":"265","playlistId":"PLEkQk5xrP-tnmTYsyW6xNdyfhPq0Bhrhj","playlistName":"مقرأة الفجر - القُرْآنُ الكَرِيمُ - خَتْمَةُ التَّدَبُّرِ  أ.د. يسري جبر","category":"متنوع"},{"id":"aMvULLMhEO0","title":"شرح صحيح البخاري - كتاب المغازي من باب ٣٤","publishedAt":"2018-02-03T16:50:01Z","duration":"PT37M28S","thumbnail":"https://i.ytimg.com/vi/aMvULLMhEO0/mqdefault.jpg","viewCount":"550","playlistId":"PLEkQk5xrP-tlEerGoLa1AFy-2XvQ-sovv","playlistName":"شرح صحيح البخاري - أ.د. يسري جبر (كاملا)","category":"حديث"},{"id":"_NtxXSgKKNQ","title":"الرسالة القشيرية للإمام القشيري النيسابوري رضي الله عنه المجلس التاسع (باب في ذكر مشايخ هذه الطريقة)","publishedAt":"2018-02-03T18:09:14Z","duration":"PT1H1M20S","thumbnail":"https://i.ytimg.com/vi/_NtxXSgKKNQ/mqdefault.jpg","viewCount":"13402","playlistId":"PLEkQk5xrP-tkHAGOwIKr4pc5ehhyQ5HMJ","playlistName":"كتاب الرسالة القشيرية (تصوف) - د. يسري جبر","category":"تصوف"},{"id":"314SWl4kY4Y","title":"مقرأة سورة الحج من آية ٣٨","publishedAt":"2018-02-04T13:42:05Z","duration":"PT16M48S","thumbnail":"https://i.ytimg.com/vi/314SWl4kY4Y/mqdefault.jpg","viewCount":"236","playlistId":"PLEkQk5xrP-tnmTYsyW6xNdyfhPq0Bhrhj","playlistName":"مقرأة الفجر - القُرْآنُ الكَرِيمُ - خَتْمَةُ التَّدَبُّرِ  أ.د. يسري جبر","category":"متنوع"},{"id":"g4M-v5xrXBM","title":"شرح صحيح البخاري - كتاب المغازي تكملة باب ٣٦","publishedAt":"2018-02-04T17:31:55Z","duration":"PT35M17S","thumbnail":"https://i.ytimg.com/vi/g4M-v5xrXBM/mqdefault.jpg","viewCount":"539","playlistId":"PLEkQk5xrP-tlEerGoLa1AFy-2XvQ-sovv","playlistName":"شرح صحيح البخاري - أ.د. يسري جبر (كاملا)","category":"حديث"},{"id":"PYWFnPIpYDY","title":"خُلُقُ الإِيثَارِ  د.يسري جبر","publishedAt":"2018-02-04T21:17:46Z","duration":"PT37M9S","thumbnail":"https://i.ytimg.com/vi/PYWFnPIpYDY/mqdefault.jpg","viewCount":"195","playlistId":"PLEkQk5xrP-tlArtGpeLWaqNM7h7IDeAVC","playlistName":"خطب الجمعة أ.د. يسري جبر","category":"خطب"},{"id":"hJHfk6zoDGY","title":"صحيح البخاري - كتاب الفرائض - باب الولاء لمن اعتق وميراث اللقيط","publishedAt":"2018-02-04T23:39:20Z","duration":"PT47M49S","thumbnail":"https://i.ytimg.com/vi/hJHfk6zoDGY/mqdefault.jpg","viewCount":"48","playlistId":"PLEkQk5xrP-tmJuzaj4GWRenFoFx9gdbFX","playlistName":"شرح كتاب صحيح الإمام البخاري رضي الله تعالى عنه   أ.د. يسرى جبر","category":"حديث"},{"id":"FseXaX0K9tM","title":"شرح كتاب نوراليقين في سيرة سيد المرسلين - المجلس 37 (تكملة صلح الحديبية) د.يسري جبر","publishedAt":"2018-02-05T09:50:57Z","duration":"PT51M1S","thumbnail":"https://i.ytimg.com/vi/FseXaX0K9tM/mqdefault.jpg","viewCount":"13162","playlistId":"PLEkQk5xrP-tl2t4NQx1IhKnAJCMzF0Nli","playlistName":"شرح كتاب نور اليقين في سيرة سيد المرسلين   د. يسري جبر","category":"سيرة"},{"id":"j264rD3oDeo","title":"مقرأة سورة الحج من آية ٤١","publishedAt":"2018-02-05T13:45:48Z","duration":"PT18M42S","thumbnail":"https://i.ytimg.com/vi/j264rD3oDeo/mqdefault.jpg","viewCount":"341","playlistId":"PLEkQk5xrP-tnmTYsyW6xNdyfhPq0Bhrhj","playlistName":"مقرأة الفجر - القُرْآنُ الكَرِيمُ - خَتْمَةُ التَّدَبُّرِ  أ.د. يسري جبر","category":"متنوع"},{"id":"VCuucUT6MzQ","title":"شرح صحيح البخاري - كتاب المغازي من باب ٣٧","publishedAt":"2018-02-06T18:41:31Z","duration":"PT38M50S","thumbnail":"https://i.ytimg.com/vi/VCuucUT6MzQ/mqdefault.jpg","viewCount":"566","playlistId":"PLEkQk5xrP-tlEerGoLa1AFy-2XvQ-sovv","playlistName":"شرح صحيح البخاري - أ.د. يسري جبر (كاملا)","category":"حديث"},{"id":"bBKZe7r2ZXo","title":"مقرأة سورة الحج من آية ٤٢","publishedAt":"2018-02-06T20:06:26Z","duration":"PT15M54S","thumbnail":"https://i.ytimg.com/vi/bBKZe7r2ZXo/mqdefault.jpg","viewCount":"239","playlistId":"PLEkQk5xrP-tnmTYsyW6xNdyfhPq0Bhrhj","playlistName":"مقرأة الفجر - القُرْآنُ الكَرِيمُ - خَتْمَةُ التَّدَبُّرِ  أ.د. يسري جبر","category":"متنوع"},{"id":"hU678XKkbJw","title":"شرح صحيح البخاري - كتاب المغازي تكملة باب ٣٧","publishedAt":"2018-02-06T21:12:01Z","duration":"PT43M20S","thumbnail":"https://i.ytimg.com/vi/hU678XKkbJw/mqdefault.jpg","viewCount":"600","playlistId":"PLEkQk5xrP-tlEerGoLa1AFy-2XvQ-sovv","playlistName":"شرح صحيح البخاري - أ.د. يسري جبر (كاملا)","category":"حديث"},{"id":"_0tkbuZ8y5c","title":"مقرأة سورة الحج من آية ٤٦","publishedAt":"2018-02-08T09:32:35Z","duration":"PT27M10S","thumbnail":"https://i.ytimg.com/vi/_0tkbuZ8y5c/mqdefault.jpg","viewCount":"294","playlistId":"PLEkQk5xrP-tnmTYsyW6xNdyfhPq0Bhrhj","playlistName":"مقرأة الفجر - القُرْآنُ الكَرِيمُ - خَتْمَةُ التَّدَبُّرِ  أ.د. يسري جبر","category":"متنوع"},{"id":"kkfMynY944E","title":"الرسالة القشيرية - المجلس العاشر (باب في ذكر مشايخ هذه الطريقة - المجلس الثاني)","publishedAt":"2018-02-08T12:36:57Z","duration":"PT47M48S","thumbnail":"https://i.ytimg.com/vi/kkfMynY944E/mqdefault.jpg","viewCount":"10464","playlistId":"PLEkQk5xrP-tkHAGOwIKr4pc5ehhyQ5HMJ","playlistName":"كتاب الرسالة القشيرية (تصوف) - د. يسري جبر","category":"تصوف"},{"id":"D-_GsBLOomM","title":"شرح صحيح البخاري - كتاب المغازي من باب ٣٨","publishedAt":"2018-02-08T16:25:24Z","duration":"PT27M33S","thumbnail":"https://i.ytimg.com/vi/D-_GsBLOomM/mqdefault.jpg","viewCount":"598","playlistId":"PLEkQk5xrP-tlEerGoLa1AFy-2XvQ-sovv","playlistName":"شرح صحيح البخاري - أ.د. يسري جبر (كاملا)","category":"حديث"},{"id":"c7npLI_Udho","title":"مقرأة سورة الحج من آية ٤٧","publishedAt":"2018-02-09T20:30:07Z","duration":"PT19M40S","thumbnail":"https://i.ytimg.com/vi/c7npLI_Udho/mqdefault.jpg","viewCount":"275","playlistId":"PLEkQk5xrP-tnmTYsyW6xNdyfhPq0Bhrhj","playlistName":"مقرأة الفجر - القُرْآنُ الكَرِيمُ - خَتْمَةُ التَّدَبُّرِ  أ.د. يسري جبر","category":"متنوع"},{"id":"wXa8LgyBUbs","title":"آفةُ الكِبْرِ وَكَيفِيَّةُ عِلاجِهَا  د.يسري جبر","publishedAt":"2018-02-10T09:15:48Z","duration":"PT32M47S","thumbnail":"https://i.ytimg.com/vi/wXa8LgyBUbs/mqdefault.jpg","viewCount":"1100","playlistId":"PLEkQk5xrP-tlArtGpeLWaqNM7h7IDeAVC","playlistName":"خطب الجمعة أ.د. يسري جبر","category":"خطب"},{"id":"BwWck1TNEpE","title":"إنْ رغَّبتْكَ البداياتُ، زَهَّدتْكَ النِّهَاياتُ، إنْ دعَاكَ إليها ظاهرٌ، نهَاكَ إليها باطنٌ.","publishedAt":"2018-02-10T17:15:08Z","duration":"PT11M34S","thumbnail":"https://i.ytimg.com/vi/BwWck1TNEpE/mqdefault.jpg","viewCount":"2236","playlistId":"PLEkQk5xrP-tkI_meE148wc7V7XHlB0WPb","playlistName":"من الحكم العطائية  د. يسري جبر","category":"متنوع"},{"id":"KRs6IZl7S4Y","title":"شرح كتاب نوراليقين في سيرة سيد المرسلين - المجلس 38 (كتاب قيصر) د.يسري جبر","publishedAt":"2018-02-10T17:56:56Z","duration":"PT49M8S","thumbnail":"https://i.ytimg.com/vi/KRs6IZl7S4Y/mqdefault.jpg","viewCount":"13176","playlistId":"PLEkQk5xrP-tl2t4NQx1IhKnAJCMzF0Nli","playlistName":"شرح كتاب نور اليقين في سيرة سيد المرسلين   د. يسري جبر","category":"سيرة"},{"id":"GXNlrcJ3e4U","title":"شرح صحيح البخاري - كتاب المغازي من باب ٤٠","publishedAt":"2018-02-10T19:11:47Z","duration":"PT41M8S","thumbnail":"https://i.ytimg.com/vi/GXNlrcJ3e4U/mqdefault.jpg","viewCount":"707","playlistId":"PLEkQk5xrP-tlEerGoLa1AFy-2XvQ-sovv","playlistName":"شرح صحيح البخاري - أ.د. يسري جبر (كاملا)","category":"حديث"},{"id":"XVb6PqIzOhw","title":"مقرأة سورة الحج من آية ٥٢","publishedAt":"2018-02-11T09:56:03Z","duration":"PT19M38S","thumbnail":"https://i.ytimg.com/vi/XVb6PqIzOhw/mqdefault.jpg","viewCount":"342","playlistId":"PLEkQk5xrP-tnmTYsyW6xNdyfhPq0Bhrhj","playlistName":"مقرأة الفجر - القُرْآنُ الكَرِيمُ - خَتْمَةُ التَّدَبُّرِ  أ.د. يسري جبر","category":"متنوع"}],"total":7675,"page":94,"pageSize":24,"totalPages":320}