{"items":[{"id":"bI60C7XGrbY","title":"كيف تعود قلبك على الرضا بالقضاء والقدر؟","publishedAt":"2024-10-27T18:32:20Z","duration":"PT31M37S","thumbnail":"https://i.ytimg.com/vi/bI60C7XGrbY/mqdefault.jpg","viewCount":"21116","playlistId":"PLEkQk5xrP-tlArtGpeLWaqNM7h7IDeAVC","playlistName":"خطب الجمعة أ.د. يسري جبر","category":"خطب"},{"id":"BByzeuce25M","title":"131- كيف تتعامل مع مديرك إذا كلَّفك بشيء أخطأ فيه؟ - شرح مسند الإمام أحمد رضي الله تعالى عنه","publishedAt":"2024-10-28T06:00:06Z","duration":"PT39M11S","thumbnail":"https://i.ytimg.com/vi/BByzeuce25M/mqdefault.jpg","viewCount":"935","playlistId":"PLEkQk5xrP-tkKprIuGrSdEuBSMsyg5We1","playlistName":"شرح مسند الإمام أحمد بن حنبل","category":"متنوع"},{"id":"8RzgvuLcmiE","title":"هل يجوز للزوج منع زوجته من العمل ,, طلبت منها ورفضت فماذا أفعل؟","publishedAt":"2024-10-28T18:01:18Z","duration":"PT12M13S","thumbnail":"https://i.ytimg.com/vi/8RzgvuLcmiE/mqdefault.jpg","viewCount":"5588","playlistId":"PLEkQk5xrP-tkGXuZ9atE3k_7it12rUPTs","playlistName":"أسئلة المتابعين","category":"متنوع"},{"id":"NU9Z4qDmSYc","title":"262- التَّمَنِّي - شرح الإتقان في علوم القرآن","publishedAt":"2024-10-29T06:00:21Z","duration":"PT22M1S","thumbnail":"https://i.ytimg.com/vi/NU9Z4qDmSYc/mqdefault.jpg","viewCount":"547","playlistId":"PLEkQk5xrP-tlPw10KGJKagu7zm4Ry2Tge","playlistName":"شرح الإتقان في علوم القرآن","category":"تفسير"},{"id":"IJinhSJm9OY","title":"هل ترك الصلاة عمداً من الكبائر؟","publishedAt":"2024-10-29T18:49:54Z","duration":"PT13M46S","thumbnail":"https://i.ytimg.com/vi/IJinhSJm9OY/mqdefault.jpg","viewCount":"3166","playlistId":"PLEkQk5xrP-tnZyxWbCSqTSMV9BJLUL-zN","playlistName":"شرح كتاب تنوير البصيرة ببيان علامات الكبيرة","category":"متنوع"},{"id":"jHNGngxEGFU","title":"132- نصيحة مهمة للمحافظة على صحة الكبد - شرح مسند الإمام أحمد رضي الله تعالى عنه","publishedAt":"2024-10-30T06:00:31Z","duration":"PT28M12S","thumbnail":"https://i.ytimg.com/vi/jHNGngxEGFU/mqdefault.jpg","viewCount":"2000","playlistId":"PLEkQk5xrP-tkKprIuGrSdEuBSMsyg5We1","playlistName":"شرح مسند الإمام أحمد بن حنبل","category":"متنوع"},{"id":"lpP6DRNmKhM","title":"50- الانبساط والدلال في الطريق إلى الله | شرح منازل السائرين","publishedAt":"2024-10-30T13:31:59Z","duration":"PT39M54S","thumbnail":"https://i.ytimg.com/vi/lpP6DRNmKhM/mqdefault.jpg","viewCount":"6338","playlistId":"PLEkQk5xrP-tmiUfQ-2Tsn7QIak4EsvaZW","playlistName":"كتاب التيسير المعين بشرح معاني منازل السائرين (تصوف) - د.يسري جبر","category":"تصوف"},{"id":"FKebcgEeWfs","title":"263- بدائع القرآن - شرح الإتقان في علوم القرآن","publishedAt":"2024-10-31T06:00:06Z","duration":"PT37M39S","thumbnail":"https://i.ytimg.com/vi/FKebcgEeWfs/mqdefault.jpg","viewCount":"683","playlistId":"PLEkQk5xrP-tlPw10KGJKagu7zm4Ry2Tge","playlistName":"شرح الإتقان في علوم القرآن","category":"تفسير"},{"id":"_g4WM0wK4q0","title":"133- غزوة أحد - شرح مسند الإمام أحمد رضي الله تعالى عنه","publishedAt":"2024-11-01T06:00:17Z","duration":"PT24M54S","thumbnail":"https://i.ytimg.com/vi/_g4WM0wK4q0/mqdefault.jpg","viewCount":"662","playlistId":"PLEkQk5xrP-tkKprIuGrSdEuBSMsyg5We1","playlistName":"شرح مسند الإمام أحمد بن حنبل","category":"متنوع"},{"id":"l9YEXC8KUVI","title":"ما هو العلم النافع؟","publishedAt":"2024-11-01T18:25:49Z","duration":"PT13M27S","thumbnail":"https://i.ytimg.com/vi/l9YEXC8KUVI/mqdefault.jpg","viewCount":"2489","playlistId":"PLEkQk5xrP-tlArtGpeLWaqNM7h7IDeAVC","playlistName":"خطب الجمعة أ.د. يسري جبر","category":"خطب"},{"id":"7vPk0JeXRYA","title":"264- أسلوب الاستخدام - شرح الإتقان في علوم القرآن","publishedAt":"2024-11-02T06:00:06Z","duration":"PT28M13S","thumbnail":"https://i.ytimg.com/vi/7vPk0JeXRYA/mqdefault.jpg","viewCount":"565","playlistId":"PLEkQk5xrP-tlPw10KGJKagu7zm4Ry2Tge","playlistName":"شرح الإتقان في علوم القرآن","category":"تفسير"},{"id":"h2xW-LC0OAM","title":"134- درء الحدود بالشبهات - شرح مسند الإمام أحمد رضي الله تعالى عنه","publishedAt":"2024-11-03T06:00:21Z","duration":"PT36M23S","thumbnail":"https://i.ytimg.com/vi/h2xW-LC0OAM/mqdefault.jpg","viewCount":"724","playlistId":"PLEkQk5xrP-tkKprIuGrSdEuBSMsyg5We1","playlistName":"شرح مسند الإمام أحمد بن حنبل","category":"متنوع"},{"id":"s7PtrL2VXh0","title":"كيف نصبر على الابتلاءات والمصائب؟","publishedAt":"2024-11-03T17:00:55Z","duration":"PT25M9S","thumbnail":"https://i.ytimg.com/vi/s7PtrL2VXh0/mqdefault.jpg","viewCount":"8965","playlistId":"PLEkQk5xrP-tlArtGpeLWaqNM7h7IDeAVC","playlistName":"خطب الجمعة أ.د. يسري جبر","category":"خطب"},{"id":"SwX--YoIkxA","title":"265- أسلوب الالتفات - شرح الإتقان في علوم القرآن","publishedAt":"2024-11-04T06:00:19Z","duration":"PT22M16S","thumbnail":"https://i.ytimg.com/vi/SwX--YoIkxA/mqdefault.jpg","viewCount":"604","playlistId":"PLEkQk5xrP-tlPw10KGJKagu7zm4Ry2Tge","playlistName":"شرح الإتقان في علوم القرآن","category":"تفسير"},{"id":"3uXvn2lb3ps","title":"أنا لا أستطيع المواظبة على الذكر فماذا أفعل؟","publishedAt":"2024-11-04T17:18:24Z","duration":"PT8M3S","thumbnail":"https://i.ytimg.com/vi/3uXvn2lb3ps/mqdefault.jpg","viewCount":"12341","playlistId":"PLEkQk5xrP-tkGXuZ9atE3k_7it12rUPTs","playlistName":"أسئلة المتابعين","category":"متنوع"},{"id":"czQG-2M2F3A","title":"135- إنَّ الحُمَّى من فيح جهنم فأبردوها بالماء - شرح مسند الإمام أحمد رضي الله تعالى عنه","publishedAt":"2024-11-05T06:00:30Z","duration":"PT28M55S","thumbnail":"https://i.ytimg.com/vi/czQG-2M2F3A/mqdefault.jpg","viewCount":"971","playlistId":"PLEkQk5xrP-tkKprIuGrSdEuBSMsyg5We1","playlistName":"شرح مسند الإمام أحمد بن حنبل","category":"متنوع"},{"id":"nvksZcamCp4","title":"ما هي أسباب الخلود فى النار؟","publishedAt":"2024-11-05T18:37:43Z","duration":"PT16M13S","thumbnail":"https://i.ytimg.com/vi/nvksZcamCp4/mqdefault.jpg","viewCount":"2863","playlistId":"PLEkQk5xrP-tnZyxWbCSqTSMV9BJLUL-zN","playlistName":"شرح كتاب تنوير البصيرة ببيان علامات الكبيرة","category":"متنوع"},{"id":"1yipzbz4P2o","title":"266- أسلوب الاطِّراد - شرح الإتقان في علوم القرآن","publishedAt":"2024-11-07T06:00:01Z","duration":"PT14M33S","thumbnail":"https://i.ytimg.com/vi/1yipzbz4P2o/mqdefault.jpg","viewCount":"546","playlistId":"PLEkQk5xrP-tlPw10KGJKagu7zm4Ry2Tge","playlistName":"شرح الإتقان في علوم القرآن","category":"تفسير"},{"id":"OBuo2tDEQxA","title":"ما هو التصوف وكيف تكون من الصوفية؟","publishedAt":"2024-11-07T18:00:16Z","duration":"PT48M50S","thumbnail":"https://i.ytimg.com/vi/OBuo2tDEQxA/mqdefault.jpg","viewCount":"2037","playlistId":"PLEkQk5xrP-tm8ZIu74nTOZN9KJUJu416J","playlistName":"مقاطع مُهمَّة (يُسريَّات) أ.د. يسري جبر","category":"متنوع"},{"id":"E1m2qi8HdzU","title":"136- كيفية دفن الميت والفرق بين الشق واللحد - شرح مسند الإمام أحمد رضي الله تعالى عنه","publishedAt":"2024-11-08T06:41:08Z","duration":"PT40M10S","thumbnail":"https://i.ytimg.com/vi/E1m2qi8HdzU/mqdefault.jpg","viewCount":"876","playlistId":"PLEkQk5xrP-tkKprIuGrSdEuBSMsyg5We1","playlistName":"شرح مسند الإمام أحمد بن حنبل","category":"متنوع"},{"id":"nKpyN3Grvkw","title":"51- لطائف في الطريق إلى الله | شرح منازل السائرين","publishedAt":"2024-11-08T15:44:32Z","duration":"PT31M19S","thumbnail":"https://i.ytimg.com/vi/nKpyN3Grvkw/mqdefault.jpg","viewCount":"3575","playlistId":"PLEkQk5xrP-tmiUfQ-2Tsn7QIak4EsvaZW","playlistName":"كتاب التيسير المعين بشرح معاني منازل السائرين (تصوف) - د.يسري جبر","category":"تصوف"},{"id":"Fej_E13hbEw","title":"267- أسلوب الاقتدار - شرح الإتقان في علوم القرآن","publishedAt":"2024-11-09T06:07:11Z","duration":"PT20M11S","thumbnail":"https://i.ytimg.com/vi/Fej_E13hbEw/mqdefault.jpg","viewCount":"505","playlistId":"PLEkQk5xrP-tlPw10KGJKagu7zm4Ry2Tge","playlistName":"شرح الإتقان في علوم القرآن","category":"تفسير"},{"id":"cUm5WW0_o4M","title":"هل تفسير وفهم القرآن أفضل من الحفظ بدون فهم؟","publishedAt":"2024-11-09T18:06:38Z","duration":"PT10M57S","thumbnail":"https://i.ytimg.com/vi/cUm5WW0_o4M/mqdefault.jpg","viewCount":"4627","playlistId":"PLEkQk5xrP-tkGXuZ9atE3k_7it12rUPTs","playlistName":"أسئلة المتابعين","category":"متنوع"},{"id":"UFmzj_ZtQiY","title":"هل يجوز للمرأة الزواج بدون علم أهلها؟","publishedAt":"2024-11-11T18:27:01Z","duration":"PT11M32S","thumbnail":"https://i.ytimg.com/vi/UFmzj_ZtQiY/mqdefault.jpg","viewCount":"3302","playlistId":"PLEkQk5xrP-tkGXuZ9atE3k_7it12rUPTs","playlistName":"أسئلة المتابعين","category":"متنوع"}],"total":7675,"page":299,"pageSize":24,"totalPages":320}