{"items":[{"id":"X91TNNJf5_M","title":"شرح كتاب منازل السائرين للإمام الهروى-المجلس السابع والثلاثون قسم الأُصول باب الغنى وباب مقام المراد","publishedAt":"2015-02-02T22:23:25Z","duration":"PT53M47S","thumbnail":"https://i.ytimg.com/vi/X91TNNJf5_M/mqdefault.jpg","viewCount":"1237","playlistId":"PLEkQk5xrP-tnLYi_5_tSRVBwqcs7ISV7Y","playlistName":"شرح كتاب منازل السائرين للإمام الهروي","category":"متنوع"},{"id":"Lsa4tvJ9XUo","title":"شرح كتاب منازل السائرين للإمام الهروى-المجلس الثامن والثلاثون قسم الأَودية باب الإحسان وباب العلم","publishedAt":"2015-02-09T18:03:26Z","duration":"PT1H11M14S","thumbnail":"https://i.ytimg.com/vi/Lsa4tvJ9XUo/mqdefault.jpg","viewCount":"1446","playlistId":"PLEkQk5xrP-tnLYi_5_tSRVBwqcs7ISV7Y","playlistName":"شرح كتاب منازل السائرين للإمام الهروي","category":"متنوع"},{"id":"jk9ZRENOoIE","title":"شرح كتاب منازل السائرين للإمام الهروى-المجلس التاسع والثلاثون قسم الأَودية باب الحكمة وباب البصيرة","publishedAt":"2015-03-03T05:02:56Z","duration":"PT47M44S","thumbnail":"https://i.ytimg.com/vi/jk9ZRENOoIE/mqdefault.jpg","viewCount":"1480","playlistId":"PLEkQk5xrP-tnLYi_5_tSRVBwqcs7ISV7Y","playlistName":"شرح كتاب منازل السائرين للإمام الهروي","category":"متنوع"},{"id":"kDwIwkOfjUM","title":"شرح كتاب منازل السائرين للإمام الهروى - المجلس الأربعون قسم الأَودية باب الفِراسة وباب التعظيم","publishedAt":"2015-03-16T18:25:43Z","duration":"PT1H6M46S","thumbnail":"https://i.ytimg.com/vi/kDwIwkOfjUM/mqdefault.jpg","viewCount":"1412","playlistId":"PLEkQk5xrP-tnLYi_5_tSRVBwqcs7ISV7Y","playlistName":"شرح كتاب منازل السائرين للإمام الهروي","category":"متنوع"},{"id":"V7S8oSvdrOo","title":"شرح كتاب منازل السائرين للإمام الهروى المجلس الحادى والأربعون قسم الأَودية باب الإلهام وباب السكينة","publishedAt":"2015-03-23T21:01:30Z","duration":"PT1H15M24S","thumbnail":"https://i.ytimg.com/vi/V7S8oSvdrOo/mqdefault.jpg","viewCount":"1506","playlistId":"PLEkQk5xrP-tnLYi_5_tSRVBwqcs7ISV7Y","playlistName":"شرح كتاب منازل السائرين للإمام الهروي","category":"متنوع"},{"id":"MGpAq0K_aAk","title":"شرح كتاب منازل السائرين للإمام الهروى المجلس الثانى والأربعون قسم الأَودية باب الطمأنينة وباب الهمة","publishedAt":"2015-03-31T05:47:00Z","duration":"PT1H8M28S","thumbnail":"https://i.ytimg.com/vi/MGpAq0K_aAk/mqdefault.jpg","viewCount":"1467","playlistId":"PLEkQk5xrP-tnLYi_5_tSRVBwqcs7ISV7Y","playlistName":"شرح كتاب منازل السائرين للإمام الهروي","category":"متنوع"},{"id":"weUv6xaf2EU","title":"شرح كتاب منازل السائرين للإمام الهروى المجلس الثالث والأربعون قسم الأَحوال باب المحبّة وباب الغَيْرة","publishedAt":"2015-04-07T04:18:21Z","duration":"PT1H9M49S","thumbnail":"https://i.ytimg.com/vi/weUv6xaf2EU/mqdefault.jpg","viewCount":"1195","playlistId":"PLEkQk5xrP-tnLYi_5_tSRVBwqcs7ISV7Y","playlistName":"شرح كتاب منازل السائرين للإمام الهروي","category":"متنوع"},{"id":"cWqgAfpd4Fc","title":"شرح كتاب منازل السائرين للإمام الهروى المجلس الرابع والأربعون قسم الأَحوال باب الشوق وباب القلق","publishedAt":"2015-04-13T04:58:41Z","duration":"PT44M35S","thumbnail":"https://i.ytimg.com/vi/cWqgAfpd4Fc/mqdefault.jpg","viewCount":"1061","playlistId":"PLEkQk5xrP-tnLYi_5_tSRVBwqcs7ISV7Y","playlistName":"شرح كتاب منازل السائرين للإمام الهروي","category":"متنوع"},{"id":"SjXHmEfCwoU","title":"شرح كتاب منازل السائرين للإمام الهروى المجلس الخامس والأربعون قسم الأَحوال باب العطش وباب الوجد","publishedAt":"2015-04-20T12:15:33Z","duration":"PT1H6M31S","thumbnail":"https://i.ytimg.com/vi/SjXHmEfCwoU/mqdefault.jpg","viewCount":"1193","playlistId":"PLEkQk5xrP-tnLYi_5_tSRVBwqcs7ISV7Y","playlistName":"شرح كتاب منازل السائرين للإمام الهروي","category":"متنوع"},{"id":"Bio1m0b4nfg","title":"شرح كتاب منازل السائرين للإمام الهروى المجلس السادس والأربعون قسم الأَحوال باب الدهْشة وباب الهيَمان","publishedAt":"2015-04-28T13:36:03Z","duration":"PT47M24S","thumbnail":"https://i.ytimg.com/vi/Bio1m0b4nfg/mqdefault.jpg","viewCount":"1036","playlistId":"PLEkQk5xrP-tnLYi_5_tSRVBwqcs7ISV7Y","playlistName":"شرح كتاب منازل السائرين للإمام الهروي","category":"متنوع"},{"id":"vb_eSE-5JFI","title":"شرح كتاب منازل السائرين للإمام الهروى المجلس السابع والأربعون قسم الأَحوال باب البرق وباب الذوق","publishedAt":"2015-05-04T19:26:05Z","duration":"PT45M28S","thumbnail":"https://i.ytimg.com/vi/vb_eSE-5JFI/mqdefault.jpg","viewCount":"995","playlistId":"PLEkQk5xrP-tnLYi_5_tSRVBwqcs7ISV7Y","playlistName":"شرح كتاب منازل السائرين للإمام الهروي","category":"متنوع"},{"id":"BpTk-nqD5o0","title":"شرح كتاب منازل السائرين للإمام الهروى المجلس الثامن والأربعون قسم الولايات باب اللحظ وباب الوقت","publishedAt":"2015-05-11T18:48:32Z","duration":"PT1H23M35S","thumbnail":"https://i.ytimg.com/vi/BpTk-nqD5o0/mqdefault.jpg","viewCount":"1291","playlistId":"PLEkQk5xrP-tnLYi_5_tSRVBwqcs7ISV7Y","playlistName":"شرح كتاب منازل السائرين للإمام الهروي","category":"متنوع"},{"id":"a_11jlvl864","title":"شرح كتاب منازل السائرين للإمام الهروى المجلس التاسع والأربعون قسم الولايات باب الصفاء وباب السرور","publishedAt":"2015-05-18T21:36:46Z","duration":"PT1H7M13S","thumbnail":"https://i.ytimg.com/vi/a_11jlvl864/mqdefault.jpg","viewCount":"1147","playlistId":"PLEkQk5xrP-tnLYi_5_tSRVBwqcs7ISV7Y","playlistName":"شرح كتاب منازل السائرين للإمام الهروي","category":"متنوع"},{"id":"MKdIgzJaUBY","title":"شرح كتاب منازل السائرين للإمام الهروى المجلس الخمسون قسم الولايات باب السر وباب النَفَس","publishedAt":"2015-05-26T04:11:17Z","duration":"PT1H15M22S","thumbnail":"https://i.ytimg.com/vi/MKdIgzJaUBY/mqdefault.jpg","viewCount":"1563","playlistId":"PLEkQk5xrP-tnLYi_5_tSRVBwqcs7ISV7Y","playlistName":"شرح كتاب منازل السائرين للإمام الهروي","category":"متنوع"},{"id":"JLiJyDcukuM","title":"منازل السائرين للإمام الهروى المجلس الواحد والخمسون قسم الولايات أبواب الغربة والغرق والغيبة والتمكن","publishedAt":"2015-06-01T13:26:40Z","duration":"PT55M27S","thumbnail":"https://i.ytimg.com/vi/JLiJyDcukuM/mqdefault.jpg","viewCount":"1329","playlistId":"PLEkQk5xrP-tnLYi_5_tSRVBwqcs7ISV7Y","playlistName":"شرح كتاب منازل السائرين للإمام الهروي","category":"متنوع"},{"id":"03hsNTI7N8c","title":"منازل السائرين للإمام الهروى المجلس الثانى والخمسون قسم الحقائق أبواب المكاشفة والمشاهدة والمعاينة","publishedAt":"2015-08-22T18:27:26Z","duration":"PT1H3M27S","thumbnail":"https://i.ytimg.com/vi/03hsNTI7N8c/mqdefault.jpg","viewCount":"2105","playlistId":"PLEkQk5xrP-tnLYi_5_tSRVBwqcs7ISV7Y","playlistName":"شرح كتاب منازل السائرين للإمام الهروي","category":"متنوع"},{"id":"1Rfndz7VdRI","title":"منازل السائرين للإمام الهروى المجلس الثالث والخمسون قسم الحقائق أبواب الحياة والقبض والبسط","publishedAt":"2015-08-23T02:04:17Z","duration":"PT1H9M32S","thumbnail":"https://i.ytimg.com/vi/1Rfndz7VdRI/mqdefault.jpg","viewCount":"1302","playlistId":"PLEkQk5xrP-tnLYi_5_tSRVBwqcs7ISV7Y","playlistName":"شرح كتاب منازل السائرين للإمام الهروي","category":"متنوع"},{"id":"XRmvg83MDzY","title":"منازل السائرين للإمام الهروى المجلس الرابع والخمسون قسم الحقائق بابُ السُّكْر وبابُ الصَّحْو","publishedAt":"2015-11-06T07:07:42Z","duration":"PT1H1M23S","thumbnail":"https://i.ytimg.com/vi/XRmvg83MDzY/mqdefault.jpg","viewCount":"1095","playlistId":"PLEkQk5xrP-tnLYi_5_tSRVBwqcs7ISV7Y","playlistName":"شرح كتاب منازل السائرين للإمام الهروي","category":"متنوع"},{"id":"SU0aUc8SIRE","title":"ِمنازل السائرين للإمام الهروى المجلس الخامس والخمسون قسم الحقائق بَابُ الاتصَالِ وبَابُ الانفِصَالِ","publishedAt":"2015-11-11T22:28:14Z","duration":"PT27M2S","thumbnail":"https://i.ytimg.com/vi/SU0aUc8SIRE/mqdefault.jpg","viewCount":"1268","playlistId":"PLEkQk5xrP-tnLYi_5_tSRVBwqcs7ISV7Y","playlistName":"شرح كتاب منازل السائرين للإمام الهروي","category":"متنوع"},{"id":"CoERdT85iVM","title":"منازل السائرين للإمام الهروى المجلس السادس والخمسون قسم النهايات بَابُ المَعْرِفَة","publishedAt":"2015-11-30T17:44:14Z","duration":"PT1H3M57S","thumbnail":"https://i.ytimg.com/vi/CoERdT85iVM/mqdefault.jpg","viewCount":"5978","playlistId":"PLEkQk5xrP-tnLYi_5_tSRVBwqcs7ISV7Y","playlistName":"شرح كتاب منازل السائرين للإمام الهروي","category":"متنوع"},{"id":"j0oQ6DQKqPs","title":"منازل السائرين للإمام الهروى المجلس السابع والخمسون قسم النهايات بَابُ الفناء و باب البقاء","publishedAt":"2015-12-03T16:39:00Z","duration":"PT53M45S","thumbnail":"https://i.ytimg.com/vi/j0oQ6DQKqPs/mqdefault.jpg","viewCount":"5088","playlistId":"PLEkQk5xrP-tnLYi_5_tSRVBwqcs7ISV7Y","playlistName":"شرح كتاب منازل السائرين للإمام الهروي","category":"متنوع"},{"id":"ppQK9RrZlkY","title":"منازل السائرين للإمام الهروى المجلس الثامن والخمسون قسم النهايات بَابُ التحقيق و باب التلبيس","publishedAt":"2015-12-07T09:30:21Z","duration":"PT1H16M24S","thumbnail":"https://i.ytimg.com/vi/ppQK9RrZlkY/mqdefault.jpg","viewCount":"5324","playlistId":"PLEkQk5xrP-tnLYi_5_tSRVBwqcs7ISV7Y","playlistName":"شرح كتاب منازل السائرين للإمام الهروي","category":"متنوع"},{"id":"WMrUe8vGp8E","title":"منازل السائرين للإمام الهروى المجلس التاسع والخمسون قسم النهايات بَابُ الوُجُودِ وبَابُ التَجْرِيدِ","publishedAt":"2015-12-15T13:49:33Z","duration":"PT32M24S","thumbnail":"https://i.ytimg.com/vi/WMrUe8vGp8E/mqdefault.jpg","viewCount":"2996","playlistId":"PLEkQk5xrP-tnLYi_5_tSRVBwqcs7ISV7Y","playlistName":"شرح كتاب منازل السائرين للإمام الهروي","category":"متنوع"},{"id":"sghbTYYAP_4","title":"منازل السائرين للإمام الهروى المجلس الستون - قسم النهايات  بَابُ التَفْرِيدِ وَبَابُ الْجَمْعِ","publishedAt":"2015-12-21T17:03:57Z","duration":"PT58M38S","thumbnail":"https://i.ytimg.com/vi/sghbTYYAP_4/mqdefault.jpg","viewCount":"4247","playlistId":"PLEkQk5xrP-tnLYi_5_tSRVBwqcs7ISV7Y","playlistName":"شرح كتاب منازل السائرين للإمام الهروي","category":"متنوع"}],"total":61,"page":2,"pageSize":24,"totalPages":3}