{"items":[{"id":"Lkho4XMm9-Y","title":"Ø¥Ø­ÙŠØ§Ø¡ Ù„ÙŠÙ„Ø© Ø§Ù„Ø¥Ø³Ø±Ø§Ø¡ ÙˆØ§Ù„Ù…Ø¹Ø±Ø§Ø¬ | Ù…Ù† Ù„ÙŠØ§Ù„ÙŠ Ø§Ù„Ù…Ø¯ÙŠÙ†Ø© Ø§Ù„Ù…Ù†ÙˆØ±Ø©ğŸ“","publishedAt":"2025-01-26T17:15:00Z","duration":"PT1H3M10S","thumbnail":"https://i.ytimg.com/vi/Lkho4XMm9-Y/mqdefault.jpg","viewCount":"11156","playlistId":"PLEkQk5xrP-tm8ZIu74nTOZN9KJUJu416J","playlistName":"Ù…Ù‚Ø§Ø·Ø¹ Ù…ÙÙ‡Ù…ÙÙ‘Ø© (ÙŠÙØ³Ø±ÙŠÙ‘ÙØ§Øª) Ø£.Ø¯. ÙŠØ³Ø±ÙŠ Ø¬Ø¨Ø±","category":"Ù…ØªÙ†ÙˆØ¹"},{"id":"vMZqPuqv9-s","title":"Ø£Ø³Ø±Ø§Ø± ÙˆÙ…Ø¹Ø§Ù†ÙŠ Ø­ÙˆÙ„ Ø§Ù„Ø¥Ø³Ø±Ø§Ø¡ ÙˆØ§Ù„Ù…Ø¹Ø±Ø§Ø¬ | Ù…Ù† Ù„ÙŠØ§Ù„ÙŠ Ø§Ù„Ù…Ø¯ÙŠÙ†Ø© Ø§Ù„Ù…Ù†ÙˆØ±Ø© ğŸ“","publishedAt":"2025-01-25T18:50:20Z","duration":"PT39M36S","thumbnail":"https://i.ytimg.com/vi/vMZqPuqv9-s/mqdefault.jpg","viewCount":"7696","playlistId":"PLEkQk5xrP-tm8ZIu74nTOZN9KJUJu416J","playlistName":"Ù…Ù‚Ø§Ø·Ø¹ Ù…ÙÙ‡Ù…ÙÙ‘Ø© (ÙŠÙØ³Ø±ÙŠÙ‘ÙØ§Øª) Ø£.Ø¯. ÙŠØ³Ø±ÙŠ Ø¬Ø¨Ø±","category":"Ù…ØªÙ†ÙˆØ¹"},{"id":"zBD-D5Oz8gg","title":"Ø³ÙŠØ¯ÙŠ Ø£Ø¨Ùˆ Ø§Ù„Ø­Ø³Ù† Ø§Ù„Ø´Ø§Ø°Ù„ÙŠ | Ø£.Ø¯. ÙŠØ³Ø±ÙŠ Ø¬Ø¨Ø±","publishedAt":"2021-06-28T21:15:01Z","duration":"PT17M57S","thumbnail":"https://i.ytimg.com/vi/zBD-D5Oz8gg/mqdefault.jpg","viewCount":"68481","playlistId":"PLEkQk5xrP-tm8ZIu74nTOZN9KJUJu416J","playlistName":"Ù…Ù‚Ø§Ø·Ø¹ Ù…ÙÙ‡Ù…ÙÙ‘Ø© (ÙŠÙØ³Ø±ÙŠÙ‘ÙØ§Øª) Ø£.Ø¯. ÙŠØ³Ø±ÙŠ Ø¬Ø¨Ø±","category":"Ù…ØªÙ†ÙˆØ¹"},{"id":"HTw6em2Bulk","title":"Ù‡Ù„ ÙÙˆØ§Ø¦Ø¯ Ø§Ù„Ø¨Ù†ÙˆÙƒ Ø­Ù„Ø§Ù„ØŸ","publishedAt":"2022-10-10T19:00:06Z","duration":"PT9M47S","thumbnail":"https://i.ytimg.com/vi/HTw6em2Bulk/mqdefault.jpg","viewCount":"16509","playlistId":"PLEkQk5xrP-tm8ZIu74nTOZN9KJUJu416J","playlistName":"Ù…Ù‚Ø§Ø·Ø¹ Ù…ÙÙ‡Ù…ÙÙ‘Ø© (ÙŠÙØ³Ø±ÙŠÙ‘ÙØ§Øª) Ø£.Ø¯. ÙŠØ³Ø±ÙŠ Ø¬Ø¨Ø±","category":"Ù…ØªÙ†ÙˆØ¹"},{"id":"6ozxo2oJ2W4","title":"Ù†ØµÙŠØ­Ø© Ù„Ø­ÙƒØ§Ù… Ø§Ù„Ù…Ø³Ù„Ù…ÙŠÙ† Ø¹Ù„Ù‰ Ù‡Ø§Ù…Ø´ Ø²ÙŠØ§Ø±Ø© Ø±Ø¦ÙŠØ³ Ø§Ù„ÙˆØ²Ø±Ø§Ø¡ Ø§Ù„Ù…Ø§Ù„ÙŠØ²ÙŠ","publishedAt":"2023-03-18T18:00:04Z","duration":"PT21M35S","thumbnail":"https://i.ytimg.com/vi/6ozxo2oJ2W4/mqdefault.jpg","viewCount":"3389","playlistId":"PLEkQk5xrP-tm8ZIu74nTOZN9KJUJu416J","playlistName":"Ù…Ù‚Ø§Ø·Ø¹ Ù…ÙÙ‡Ù…ÙÙ‘Ø© (ÙŠÙØ³Ø±ÙŠÙ‘ÙØ§Øª) Ø£.Ø¯. ÙŠØ³Ø±ÙŠ Ø¬Ø¨Ø±","category":"Ù…ØªÙ†ÙˆØ¹"},{"id":"t5StMhXfILU","title":"Ù†Ø¸Ø±Ø© ÙˆÙ…Ø¯Ø¯ ÙŠØ§ Ø±Ø³ÙˆÙ„ Ø§Ù„Ù„Ù‡ Ø¯. ÙŠØ³Ø±ÙŠ Ø¬Ø¨Ø±","publishedAt":"2017-05-02T20:27:30Z","duration":"PT1M44S","thumbnail":"https://i.ytimg.com/vi/t5StMhXfILU/mqdefault.jpg","viewCount":"3717","playlistId":"PLEkQk5xrP-tm8ZIu74nTOZN9KJUJu416J","playlistName":"Ù…Ù‚Ø§Ø·Ø¹ Ù…ÙÙ‡Ù…ÙÙ‘Ø© (ÙŠÙØ³Ø±ÙŠÙ‘ÙØ§Øª) Ø£.Ø¯. ÙŠØ³Ø±ÙŠ Ø¬Ø¨Ø±","category":"Ù…ØªÙ†ÙˆØ¹"},{"id":"2Pfx7TdQX00","title":"ÙØ¶Ù„ Ø§Ù„Ù…Ø¯Ø§ÙˆÙ…Ø© Ø¹Ù„Ù‰ Ø°ÙƒØ± Ø§Ù„Ù„Ù‡","publishedAt":"2023-04-13T19:00:01Z","duration":"PT12M10S","thumbnail":"https://i.ytimg.com/vi/2Pfx7TdQX00/mqdefault.jpg","viewCount":"21167","playlistId":"PLEkQk5xrP-tm8ZIu74nTOZN9KJUJu416J","playlistName":"Ù…Ù‚Ø§Ø·Ø¹ Ù…ÙÙ‡Ù…ÙÙ‘Ø© (ÙŠÙØ³Ø±ÙŠÙ‘ÙØ§Øª) Ø£.Ø¯. ÙŠØ³Ø±ÙŠ Ø¬Ø¨Ø±","category":"Ù…ØªÙ†ÙˆØ¹"},{"id":"f0B6tDzI8AU","title":"ÙƒÙŠÙ ØªÙÙ‡Ù… Ù…Ø¹Ù†Ù‰ Ø§Ù„ØªÙØ§Ø¤Ù„ Ø§Ù„ØªØ´Ø§Ø¤Ù…ØŸ","publishedAt":"2022-03-18T18:00:34Z","duration":"PT14M58S","thumbnail":"https://i.ytimg.com/vi/f0B6tDzI8AU/mqdefault.jpg","viewCount":"4737","playlistId":"PLEkQk5xrP-tm8ZIu74nTOZN9KJUJu416J","playlistName":"Ù…Ù‚Ø§Ø·Ø¹ Ù…ÙÙ‡Ù…ÙÙ‘Ø© (ÙŠÙØ³Ø±ÙŠÙ‘ÙØ§Øª) Ø£.Ø¯. ÙŠØ³Ø±ÙŠ Ø¬Ø¨Ø±","category":"Ù…ØªÙ†ÙˆØ¹"},{"id":"013WOM4gGJw","title":"ÙƒÙŠÙ ØªØ¯Ø±Ùƒ Ù…Ø­Ø§Ø³Ù† Ø§Ù„Ø£Ø®Ù„Ø§Ù‚ - Ø¯. ÙŠØ³Ø±ÙŠ Ø¬Ø¨Ø±","publishedAt":"2014-12-22T13:33:53Z","duration":"PT7M56S","thumbnail":"https://i.ytimg.com/vi/013WOM4gGJw/mqdefault.jpg","viewCount":"4470","playlistId":"PLEkQk5xrP-tm8ZIu74nTOZN9KJUJu416J","playlistName":"Ù…Ù‚Ø§Ø·Ø¹ Ù…ÙÙ‡Ù…ÙÙ‘Ø© (ÙŠÙØ³Ø±ÙŠÙ‘ÙØ§Øª) Ø£.Ø¯. ÙŠØ³Ø±ÙŠ Ø¬Ø¨Ø±","category":"Ù…ØªÙ†ÙˆØ¹"},{"id":"DiptGJ5AI5E","title":"Ù…Ù‚Ø§Ù… Ø§Ù„Ø¹Ø¨ÙˆØ¯ÙŠØ© - Ø¯.ÙŠØ³Ø±ÙŠ Ø¬Ø¨Ø±","publishedAt":"2014-12-19T20:47:59Z","duration":"PT4M15S","thumbnail":"https://i.ytimg.com/vi/DiptGJ5AI5E/mqdefault.jpg","viewCount":"3654","playlistId":"PLEkQk5xrP-tm8ZIu74nTOZN9KJUJu416J","playlistName":"Ù…Ù‚Ø§Ø·Ø¹ Ù…ÙÙ‡Ù…ÙÙ‘Ø© (ÙŠÙØ³Ø±ÙŠÙ‘ÙØ§Øª) Ø£.Ø¯. ÙŠØ³Ø±ÙŠ Ø¬Ø¨Ø±","category":"Ù…ØªÙ†ÙˆØ¹"},{"id":"mCj-KBYtjqk","title":"Ø§Ù„ÙØ±Ù‚ Ø¨ÙŠÙ† Ø§Ù„Ø£Ø­Ø¯ÙŠØ© ÙˆØ§Ù„ÙˆØ§Ø­Ø¯ÙŠØ© ÙˆØ§Ù„ØªÙˆØ­ÙŠØ¯ ÙˆØ§Ù„ÙØ±Ù‚ Ø¨ÙŠÙ† Ø§Ù„Ø£Ù„ÙˆÙ‡ÙŠØ© ÙˆØ§Ù„Ø±Ø¨ÙˆØ¨ÙŠØ© - Ø¯. ÙŠØ³Ø±ÙŠ Ø¬Ø¨Ø±","publishedAt":"2014-12-19T19:48:48Z","duration":"PT5M43S","thumbnail":"https://i.ytimg.com/vi/mCj-KBYtjqk/mqdefault.jpg","viewCount":"17196","playlistId":"PLEkQk5xrP-tm8ZIu74nTOZN9KJUJu416J","playlistName":"Ù…Ù‚Ø§Ø·Ø¹ Ù…ÙÙ‡Ù…ÙÙ‘Ø© (ÙŠÙØ³Ø±ÙŠÙ‘ÙØ§Øª) Ø£.Ø¯. ÙŠØ³Ø±ÙŠ Ø¬Ø¨Ø±","category":"Ù…ØªÙ†ÙˆØ¹"},{"id":"6nQTGIbHX74","title":"ØªØ¬Ø§Ø±Ø¨ Ø­ÙŠØ§ØªÙŠØ© Ù…Ù† Ø­ÙŠØ§Ø© Ø§Ù„Ø¯ÙƒØªÙˆØ± ÙŠØ³Ø±ÙŠ Ø¬Ø¨Ø±","publishedAt":"2021-06-09T19:14:36Z","duration":"PT16M36S","thumbnail":"https://i.ytimg.com/vi/6nQTGIbHX74/mqdefault.jpg","viewCount":"65129","playlistId":"PLEkQk5xrP-tm8ZIu74nTOZN9KJUJu416J","playlistName":"Ù…Ù‚Ø§Ø·Ø¹ Ù…ÙÙ‡Ù…ÙÙ‘Ø© (ÙŠÙØ³Ø±ÙŠÙ‘ÙØ§Øª) Ø£.Ø¯. ÙŠØ³Ø±ÙŠ Ø¬Ø¨Ø±","category":"Ù…ØªÙ†ÙˆØ¹"},{"id":"IJFBj4cQyZU","title":"Ù…Ø¬Ù„Ø³ Ù…Ø±ÙƒØ² ÙƒØ§Ù…Ø¨Ø±ÙŠØ¯Ø¬ Ø§Ù„Ù‚Ø±Ø¢Ù†ÙŠ | Ø§Ù†Ø¬Ù„ØªØ±Ø§ğŸ“","publishedAt":"2025-05-31T18:17:55Z","duration":"PT21M36S","thumbnail":"https://i.ytimg.com/vi/IJFBj4cQyZU/mqdefault.jpg","viewCount":"2507","playlistId":"PLEkQk5xrP-tm8ZIu74nTOZN9KJUJu416J","playlistName":"Ù…Ù‚Ø§Ø·Ø¹ Ù…ÙÙ‡Ù…ÙÙ‘Ø© (ÙŠÙØ³Ø±ÙŠÙ‘ÙØ§Øª) Ø£.Ø¯. ÙŠØ³Ø±ÙŠ Ø¬Ø¨Ø±","category":"Ù…ØªÙ†ÙˆØ¹"},{"id":"-6wXTmNvwj8","title":"Ù‚ØµØ© Ø§Ù„Ø¨Ø±Ø¯Ø© ÙˆÙØ¶Ø§Ø¦Ù„Ù‡Ø§ ÙˆÙƒØ±Ø§Ù…ØªÙ‡Ø§ | Ù„Ù†Ø¯Ù†ğŸ“","publishedAt":"2025-05-29T19:15:14Z","duration":"PT16M33S","thumbnail":"https://i.ytimg.com/vi/-6wXTmNvwj8/mqdefault.jpg","viewCount":"6190","playlistId":"PLEkQk5xrP-tm8ZIu74nTOZN9KJUJu416J","playlistName":"Ù…Ù‚Ø§Ø·Ø¹ Ù…ÙÙ‡Ù…ÙÙ‘Ø© (ÙŠÙØ³Ø±ÙŠÙ‘ÙØ§Øª) Ø£.Ø¯. ÙŠØ³Ø±ÙŠ Ø¬Ø¨Ø±","category":"Ù…ØªÙ†ÙˆØ¹"},{"id":"W0RQV9kqLIU","title":"ÙƒÙŠÙ Ø£Ø°Ø§ÙƒØ± Ø¨Ø¯ÙˆÙ† Ù…Ù„Ù„ØŸ","publishedAt":"2021-06-06T19:40:22Z","duration":"PT8M5S","thumbnail":"https://i.ytimg.com/vi/W0RQV9kqLIU/mqdefault.jpg","viewCount":"15841","playlistId":"PLEkQk5xrP-tm8ZIu74nTOZN9KJUJu416J","playlistName":"Ù…Ù‚Ø§Ø·Ø¹ Ù…ÙÙ‡Ù…ÙÙ‘Ø© (ÙŠÙØ³Ø±ÙŠÙ‘ÙØ§Øª) Ø£.Ø¯. ÙŠØ³Ø±ÙŠ Ø¬Ø¨Ø±","category":"Ù…ØªÙ†ÙˆØ¹"},{"id":"7M_eS9qI0MM","title":"Ø¨Ø°ÙƒØ±Ù‰ Ø§Ù„Ù…ÙˆÙ„Ø¯ Ù†Ø­ÙŠØ§","publishedAt":"2023-09-17T18:00:03Z","duration":"PT19M42S","thumbnail":"https://i.ytimg.com/vi/7M_eS9qI0MM/mqdefault.jpg","viewCount":"18782","playlistId":"PLEkQk5xrP-tm8ZIu74nTOZN9KJUJu416J","playlistName":"Ù…Ù‚Ø§Ø·Ø¹ Ù…ÙÙ‡Ù…ÙÙ‘Ø© (ÙŠÙØ³Ø±ÙŠÙ‘ÙØ§Øª) Ø£.Ø¯. ÙŠØ³Ø±ÙŠ Ø¬Ø¨Ø±","category":"Ù…ØªÙ†ÙˆØ¹"},{"id":"Z5S2aNTe1pI","title":"Ù‚ÙˆØ© Ø§Ù„Ø§Ø³ØªÙ…Ø§Ø¹","publishedAt":"2021-12-23T19:12:14Z","duration":"PT12M41S","thumbnail":"https://i.ytimg.com/vi/Z5S2aNTe1pI/mqdefault.jpg","viewCount":"6461","playlistId":"PLEkQk5xrP-tm8ZIu74nTOZN9KJUJu416J","playlistName":"Ù…Ù‚Ø§Ø·Ø¹ Ù…ÙÙ‡Ù…ÙÙ‘Ø© (ÙŠÙØ³Ø±ÙŠÙ‘ÙØ§Øª) Ø£.Ø¯. ÙŠØ³Ø±ÙŠ Ø¬Ø¨Ø±","category":"Ù…ØªÙ†ÙˆØ¹"},{"id":"jt5L1_r9wXk","title":"ÙƒÙ…Ø§Ù„ Ø§Ù„Ø±Ø¶Ø§","publishedAt":"2020-09-02T18:37:53Z","duration":"PT5M15S","thumbnail":"https://i.ytimg.com/vi/jt5L1_r9wXk/mqdefault.jpg","viewCount":"3212","playlistId":"PLEkQk5xrP-tm8ZIu74nTOZN9KJUJu416J","playlistName":"Ù…Ù‚Ø§Ø·Ø¹ Ù…ÙÙ‡Ù…ÙÙ‘Ø© (ÙŠÙØ³Ø±ÙŠÙ‘ÙØ§Øª) Ø£.Ø¯. ÙŠØ³Ø±ÙŠ Ø¬Ø¨Ø±","category":"Ù…ØªÙ†ÙˆØ¹"},{"id":"C2eyJHjmUa0","title":"Ø¯ÙˆØ§Ù… Ø§Ù„Ù…Ø±Ø§Ù‚Ø¨Ø©","publishedAt":"2020-09-01T19:17:24Z","duration":"PT5M42S","thumbnail":"https://i.ytimg.com/vi/C2eyJHjmUa0/mqdefault.jpg","viewCount":"2159","playlistId":"PLEkQk5xrP-tm8ZIu74nTOZN9KJUJu416J","playlistName":"Ù…Ù‚Ø§Ø·Ø¹ Ù…ÙÙ‡Ù…ÙÙ‘Ø© (ÙŠÙØ³Ø±ÙŠÙ‘ÙØ§Øª) Ø£.Ø¯. ÙŠØ³Ø±ÙŠ Ø¬Ø¨Ø±","category":"Ù…ØªÙ†ÙˆØ¹"},{"id":"P4gNRrBwFyQ","title":"ÙƒÙŠÙ ØªØ¯Ø§ÙˆÙ… Ø¹Ù„Ù‰ Ø§Ù„Ø·Ø§Ø¹Ø©","publishedAt":"2020-08-31T19:47:31Z","duration":"PT7M14S","thumbnail":"https://i.ytimg.com/vi/P4gNRrBwFyQ/mqdefault.jpg","viewCount":"5221","playlistId":"PLEkQk5xrP-tm8ZIu74nTOZN9KJUJu416J","playlistName":"Ù…Ù‚Ø§Ø·Ø¹ Ù…ÙÙ‡Ù…ÙÙ‘Ø© (ÙŠÙØ³Ø±ÙŠÙ‘ÙØ§Øª) Ø£.Ø¯. ÙŠØ³Ø±ÙŠ Ø¬Ø¨Ø±","category":"Ù…ØªÙ†ÙˆØ¹"},{"id":"0lGIe1Bpggw","title":"ØªÙØ³ÙŠØ± Ø§Ù„Ø¢ÙŠØ§Øª Ø§Ù„Ù‚Ø±Ø¢Ù†ÙŠØ© Ø§Ù„ÙˆØ§Ø±Ø¯Ø© ÙÙŠ Ø­Ù‚ Ø§Ù„Ù†Ø¨ÙŠ ï·º","publishedAt":"2023-11-12T12:37:20Z","duration":"PT55M21S","thumbnail":"https://i.ytimg.com/vi/0lGIe1Bpggw/mqdefault.jpg","viewCount":"8640","playlistId":"PLEkQk5xrP-tm8ZIu74nTOZN9KJUJu416J","playlistName":"Ù…Ù‚Ø§Ø·Ø¹ Ù…ÙÙ‡Ù…ÙÙ‘Ø© (ÙŠÙØ³Ø±ÙŠÙ‘ÙØ§Øª) Ø£.Ø¯. ÙŠØ³Ø±ÙŠ Ø¬Ø¨Ø±","category":"Ù…ØªÙ†ÙˆØ¹"},{"id":"Wn-XAVRMFJE","title":"Ø§Ù…Ø¯Ø§Ø¯Ø§Øª Ø§Ù„Ù†Ù‘ÙØ¨ÙŠÙ‘ ï·º","publishedAt":"2021-09-12T18:00:17Z","duration":"PT26M47S","thumbnail":"https://i.ytimg.com/vi/Wn-XAVRMFJE/mqdefault.jpg","viewCount":"10557","playlistId":"PLEkQk5xrP-tm8ZIu74nTOZN9KJUJu416J","playlistName":"Ù…Ù‚Ø§Ø·Ø¹ Ù…ÙÙ‡Ù…ÙÙ‘Ø© (ÙŠÙØ³Ø±ÙŠÙ‘ÙØ§Øª) Ø£.Ø¯. ÙŠØ³Ø±ÙŠ Ø¬Ø¨Ø±","category":"Ù…ØªÙ†ÙˆØ¹"},{"id":"xpNqY1lLdxI","title":"Ø§Ù„ÙÙØ±Ù’Ù‚Ù Ø¨ÙÙŠÙ’Ù†Ù Ø§Ù„ØªÙØºÙØ§ÙÙÙ„Ù ÙˆØ§Ù„ØºÙÙÙ’Ù„ÙØ©Ù - Ø¯.ÙŠØ³Ø±ÙŠ Ø¬Ø¨Ø±","publishedAt":"2015-02-14T18:58:02Z","duration":"PT7M32S","thumbnail":"https://i.ytimg.com/vi/xpNqY1lLdxI/mqdefault.jpg","viewCount":"3794","playlistId":"PLEkQk5xrP-tm8ZIu74nTOZN9KJUJu416J","playlistName":"Ù…Ù‚Ø§Ø·Ø¹ Ù…ÙÙ‡Ù…ÙÙ‘Ø© (ÙŠÙØ³Ø±ÙŠÙ‘ÙØ§Øª) Ø£.Ø¯. ÙŠØ³Ø±ÙŠ Ø¬Ø¨Ø±","category":"Ù…ØªÙ†ÙˆØ¹"},{"id":"yCHW_ThdVS4","title":"Ø§Ù„ÙØ±Ù‚ Ø¨ÙŠÙ† Ø§Ù„Ø¥Ø³Ù„Ø§Ù… ÙˆØ§Ù„Ø¥ÙŠÙ…Ø§Ù† ÙˆØ§Ù„Ø¥Ø­Ø³Ø§Ù† | Ø²ÙŠØ§Ø±Ø© Ø¨Ù†ØºÙ„Ø§Ø¯ÙŠØ´","publishedAt":"2023-02-05T18:10:40Z","duration":"PT22M19S","thumbnail":"https://i.ytimg.com/vi/yCHW_ThdVS4/mqdefault.jpg","viewCount":"4796","playlistId":"PLEkQk5xrP-tm8ZIu74nTOZN9KJUJu416J","playlistName":"Ù…Ù‚Ø§Ø·Ø¹ Ù…ÙÙ‡Ù…ÙÙ‘Ø© (ÙŠÙØ³Ø±ÙŠÙ‘ÙØ§Øª) Ø£.Ø¯. ÙŠØ³Ø±ÙŠ Ø¬Ø¨Ø±","category":"Ù…ØªÙ†ÙˆØ¹"}],"total":560,"page":16,"pageSize":24,"totalPages":24}