{"items":[{"id":"datzEoo9P64","title":"فضل وكنوز الصلاة على النبي ﷺ","publishedAt":"2025-11-08T17:01:05Z","duration":"PT28M54S","thumbnail":"https://i.ytimg.com/vi/datzEoo9P64/mqdefault.jpg","viewCount":"10131","playlistId":"PLEkQk5xrP-tm8ZIu74nTOZN9KJUJu416J","playlistName":"مقاطع مُهمَّة (يُسريَّات) أ.د. يسري جبر","category":"متنوع"},{"id":"Qp0jxVeeLSQ","title":"بركة الأُمّة المُحمّدّية - د.يسري جبر","publishedAt":"2015-01-16T08:28:48Z","duration":"PT19M29S","thumbnail":"https://i.ytimg.com/vi/Qp0jxVeeLSQ/mqdefault.jpg","viewCount":"4322","playlistId":"PLEkQk5xrP-tm8ZIu74nTOZN9KJUJu416J","playlistName":"مقاطع مُهمَّة (يُسريَّات) أ.د. يسري جبر","category":"متنوع"},{"id":"ZC7NQSRLLnk","title":"النورالدائم - د.يسري جبر","publishedAt":"2015-01-10T18:04:01Z","duration":"PT3M12S","thumbnail":"https://i.ytimg.com/vi/ZC7NQSRLLnk/mqdefault.jpg","viewCount":"19455","playlistId":"PLEkQk5xrP-tm8ZIu74nTOZN9KJUJu416J","playlistName":"مقاطع مُهمَّة (يُسريَّات) أ.د. يسري جبر","category":"متنوع"},{"id":"j1XHz6Sutlo","title":"خصائص النبي فى الأكوان د يسري جبر احتفال المولد النبوي بمضيفة الدح","publishedAt":"2016-12-07T11:56:02Z","duration":"PT25M59S","thumbnail":"https://i.ytimg.com/vi/j1XHz6Sutlo/mqdefault.jpg","viewCount":"45748","playlistId":"PLEkQk5xrP-tm8ZIu74nTOZN9KJUJu416J","playlistName":"مقاطع مُهمَّة (يُسريَّات) أ.د. يسري جبر","category":"متنوع"},{"id":"aIxRo9B_jGw","title":"كيف تعطي بلا مقابل؟","publishedAt":"2021-11-19T20:18:13Z","duration":"PT15M41S","thumbnail":"https://i.ytimg.com/vi/aIxRo9B_jGw/mqdefault.jpg","viewCount":"6378","playlistId":"PLEkQk5xrP-tm8ZIu74nTOZN9KJUJu416J","playlistName":"مقاطع مُهمَّة (يُسريَّات) أ.د. يسري جبر","category":"متنوع"},{"id":"GSLXoeETu1U","title":"الفرق بين الشريعة والحقيقة والطريقة؟","publishedAt":"2021-11-15T20:23:50Z","duration":"PT26M50S","thumbnail":"https://i.ytimg.com/vi/GSLXoeETu1U/mqdefault.jpg","viewCount":"23267","playlistId":"PLEkQk5xrP-tm8ZIu74nTOZN9KJUJu416J","playlistName":"مقاطع مُهمَّة (يُسريَّات) أ.د. يسري جبر","category":"متنوع"},{"id":"FtnXMBhpVEQ","title":"هل يُستفاد بالأنبياء بعد وفاتهم     د.يسري جبر","publishedAt":"2017-05-27T15:27:43Z","duration":"PT7M26S","thumbnail":"https://i.ytimg.com/vi/FtnXMBhpVEQ/mqdefault.jpg","viewCount":"4753","playlistId":"PLEkQk5xrP-tm8ZIu74nTOZN9KJUJu416J","playlistName":"مقاطع مُهمَّة (يُسريَّات) أ.د. يسري جبر","category":"متنوع"},{"id":"u_kY-Q6xlFY","title":"الجمال كله    د. يسري جبر","publishedAt":"2017-05-27T15:06:39Z","duration":"PT1M45S","thumbnail":"https://i.ytimg.com/vi/u_kY-Q6xlFY/mqdefault.jpg","viewCount":"3064","playlistId":"PLEkQk5xrP-tm8ZIu74nTOZN9KJUJu416J","playlistName":"مقاطع مُهمَّة (يُسريَّات) أ.د. يسري جبر","category":"متنوع"},{"id":"TcqnEzDjyks","title":"قصة الدعاء اللي غير حياتي!","publishedAt":"2024-08-28T18:00:45Z","duration":"PT8M59S","thumbnail":"https://i.ytimg.com/vi/TcqnEzDjyks/mqdefault.jpg","viewCount":"67060","playlistId":"PLEkQk5xrP-tm8ZIu74nTOZN9KJUJu416J","playlistName":"مقاطع مُهمَّة (يُسريَّات) أ.د. يسري جبر","category":"متنوع"},{"id":"cHbV-w27-SE","title":"كيف أتعامل مع الأولياء والمشايخ وما هي آداب زيارتهم؟","publishedAt":"2024-08-27T17:07:52Z","duration":"PT8M42S","thumbnail":"https://i.ytimg.com/vi/cHbV-w27-SE/mqdefault.jpg","viewCount":"4130","playlistId":"PLEkQk5xrP-tm8ZIu74nTOZN9KJUJu416J","playlistName":"مقاطع مُهمَّة (يُسريَّات) أ.د. يسري جبر","category":"متنوع"},{"id":"gURr9YYmYqY","title":"كيف تختار وتُفرق بين الحق والباطل؟","publishedAt":"2021-04-30T19:15:00Z","duration":"PT57M22S","thumbnail":"https://i.ytimg.com/vi/gURr9YYmYqY/mqdefault.jpg","viewCount":"2635","playlistId":"PLEkQk5xrP-tm8ZIu74nTOZN9KJUJu416J","playlistName":"مقاطع مُهمَّة (يُسريَّات) أ.د. يسري جبر","category":"متنوع"},{"id":"SQBaqy9eM-g","title":"معنى قوله ﷺ \"أنا من حسين\"","publishedAt":"2021-04-27T19:15:01Z","duration":"PT4M34S","thumbnail":"https://i.ytimg.com/vi/SQBaqy9eM-g/mqdefault.jpg","viewCount":"5397","playlistId":"PLEkQk5xrP-tm8ZIu74nTOZN9KJUJu416J","playlistName":"مقاطع مُهمَّة (يُسريَّات) أ.د. يسري جبر","category":"متنوع"},{"id":"7g-nmlwrXn8","title":"التصوف يحمي من التطرف","publishedAt":"2021-04-25T19:15:00Z","duration":"PT29M32S","thumbnail":"https://i.ytimg.com/vi/7g-nmlwrXn8/mqdefault.jpg","viewCount":"5187","playlistId":"PLEkQk5xrP-tm8ZIu74nTOZN9KJUJu416J","playlistName":"مقاطع مُهمَّة (يُسريَّات) أ.د. يسري جبر","category":"متنوع"},{"id":"gYelGCOkXDM","title":"الكُلُّ موجودٌ به سبحانه","publishedAt":"2020-10-16T19:58:08Z","duration":"PT6M53S","thumbnail":"https://i.ytimg.com/vi/gYelGCOkXDM/mqdefault.jpg","viewCount":"2241","playlistId":"PLEkQk5xrP-tm8ZIu74nTOZN9KJUJu416J","playlistName":"مقاطع مُهمَّة (يُسريَّات) أ.د. يسري جبر","category":"متنوع"},{"id":"8r00V77EqF0","title":"هو الله","publishedAt":"2020-10-12T18:38:16Z","duration":"PT6M19S","thumbnail":"https://i.ytimg.com/vi/8r00V77EqF0/mqdefault.jpg","viewCount":"6466","playlistId":"PLEkQk5xrP-tm8ZIu74nTOZN9KJUJu416J","playlistName":"مقاطع مُهمَّة (يُسريَّات) أ.د. يسري جبر","category":"متنوع"},{"id":"OsWCSlTvyD8","title":"كيف تفوض الأمر لله؟","publishedAt":"2020-10-11T18:35:57Z","duration":"PT14M26S","thumbnail":"https://i.ytimg.com/vi/OsWCSlTvyD8/mqdefault.jpg","viewCount":"63649","playlistId":"PLEkQk5xrP-tm8ZIu74nTOZN9KJUJu416J","playlistName":"مقاطع مُهمَّة (يُسريَّات) أ.د. يسري جبر","category":"متنوع"},{"id":"P6xYfPpYZmw","title":"النَّبيُّ الجامعُ ﷺ","publishedAt":"2020-10-10T19:21:48Z","duration":"PT8M31S","thumbnail":"https://i.ytimg.com/vi/P6xYfPpYZmw/mqdefault.jpg","viewCount":"1646","playlistId":"PLEkQk5xrP-tm8ZIu74nTOZN9KJUJu416J","playlistName":"مقاطع مُهمَّة (يُسريَّات) أ.د. يسري جبر","category":"متنوع"},{"id":"7XesWbbtJXI","title":"الفرق بين المُتوكِّل والمُفوِّض","publishedAt":"2020-10-09T20:37:39Z","duration":"PT12M13S","thumbnail":"https://i.ytimg.com/vi/7XesWbbtJXI/mqdefault.jpg","viewCount":"12373","playlistId":"PLEkQk5xrP-tm8ZIu74nTOZN9KJUJu416J","playlistName":"مقاطع مُهمَّة (يُسريَّات) أ.د. يسري جبر","category":"متنوع"},{"id":"EXTsO4uDw9E","title":"التَّوكُّل رخصة والتَّفويض عزيمة","publishedAt":"2020-10-08T19:00:35Z","duration":"PT5M36S","thumbnail":"https://i.ytimg.com/vi/EXTsO4uDw9E/mqdefault.jpg","viewCount":"3000","playlistId":"PLEkQk5xrP-tm8ZIu74nTOZN9KJUJu416J","playlistName":"مقاطع مُهمَّة (يُسريَّات) أ.د. يسري جبر","category":"متنوع"},{"id":"mxBSRzEeFxs","title":"ازاي تتحرر من إدمان التليفون والسوشيال ميديا؟","publishedAt":"2025-03-08T18:30:42Z","duration":"PT8M51S","thumbnail":"https://i.ytimg.com/vi/mxBSRzEeFxs/mqdefault.jpg","viewCount":"16708","playlistId":"PLEkQk5xrP-tm8ZIu74nTOZN9KJUJu416J","playlistName":"مقاطع مُهمَّة (يُسريَّات) أ.د. يسري جبر","category":"متنوع"},{"id":"cR2bTxvbyBc","title":"سِرُّ تعلُّق المصريين بالأضرحة والمقامات","publishedAt":"2021-04-23T19:15:02Z","duration":"PT29M16S","thumbnail":"https://i.ytimg.com/vi/cR2bTxvbyBc/mqdefault.jpg","viewCount":"10551","playlistId":"PLEkQk5xrP-tm8ZIu74nTOZN9KJUJu416J","playlistName":"مقاطع مُهمَّة (يُسريَّات) أ.د. يسري جبر","category":"متنوع"},{"id":"nFl6XCJ8_Ec","title":"الفرقُ بَينَ صَلِّ وَصَلَّى","publishedAt":"2020-01-05T16:29:15Z","duration":"PT1M8S","thumbnail":"https://i.ytimg.com/vi/nFl6XCJ8_Ec/mqdefault.jpg","viewCount":"1171","playlistId":"PLEkQk5xrP-tm8ZIu74nTOZN9KJUJu416J","playlistName":"مقاطع مُهمَّة (يُسريَّات) أ.د. يسري جبر","category":"متنوع"},{"id":"a8LmQXKMvuM","title":"دعاء وإحياء يوم عرفة","publishedAt":"2024-06-15T18:24:54Z","duration":"PT29M45S","thumbnail":"https://i.ytimg.com/vi/a8LmQXKMvuM/mqdefault.jpg","viewCount":"2493","playlistId":"PLEkQk5xrP-tm8ZIu74nTOZN9KJUJu416J","playlistName":"مقاطع مُهمَّة (يُسريَّات) أ.د. يسري جبر","category":"متنوع"},{"id":"H3gnsEstlBU","title":"هل يجوز الحلف بالنَّبيّ؟","publishedAt":"2022-06-01T17:30:02Z","duration":"PT8M32S","thumbnail":"https://i.ytimg.com/vi/H3gnsEstlBU/mqdefault.jpg","viewCount":"6449","playlistId":"PLEkQk5xrP-tm8ZIu74nTOZN9KJUJu416J","playlistName":"مقاطع مُهمَّة (يُسريَّات) أ.د. يسري جبر","category":"متنوع"}],"total":560,"page":4,"pageSize":24,"totalPages":24}