{"items":[{"id":"GHGt6Pmwg80","title":"Ù…Ø¹Ù†Ù‰ ÙˆØ­Ø¯Ø© Ø§Ù„ÙˆØ¬ÙˆØ¯ Ø¹Ù†Ø¯ Ø§Ù„ØµÙˆÙÙŠØ© | Ø§Ù†Ø¬Ù„ØªØ±Ø§ğŸ“","publishedAt":"2025-06-01T19:14:37Z","duration":"PT20M14S","thumbnail":"https://i.ytimg.com/vi/GHGt6Pmwg80/mqdefault.jpg","viewCount":"7827","playlistId":"PLEkQk5xrP-tm8ZIu74nTOZN9KJUJu416J","playlistName":"Ù…Ù‚Ø§Ø·Ø¹ Ù…ÙÙ‡Ù…ÙÙ‘Ø© (ÙŠÙØ³Ø±ÙŠÙ‘ÙØ§Øª) Ø£.Ø¯. ÙŠØ³Ø±ÙŠ Ø¬Ø¨Ø±","category":"Ù…ØªÙ†ÙˆØ¹"},{"id":"IJFBj4cQyZU","title":"Ù…Ø¬Ù„Ø³ Ù…Ø±ÙƒØ² ÙƒØ§Ù…Ø¨Ø±ÙŠØ¯Ø¬ Ø§Ù„Ù‚Ø±Ø¢Ù†ÙŠ | Ø§Ù†Ø¬Ù„ØªØ±Ø§ğŸ“","publishedAt":"2025-05-31T18:17:55Z","duration":"PT21M36S","thumbnail":"https://i.ytimg.com/vi/IJFBj4cQyZU/mqdefault.jpg","viewCount":"2507","playlistId":"PLEkQk5xrP-tm8ZIu74nTOZN9KJUJu416J","playlistName":"Ù…Ù‚Ø§Ø·Ø¹ Ù…ÙÙ‡Ù…ÙÙ‘Ø© (ÙŠÙØ³Ø±ÙŠÙ‘ÙØ§Øª) Ø£.Ø¯. ÙŠØ³Ø±ÙŠ Ø¬Ø¨Ø±","category":"Ù…ØªÙ†ÙˆØ¹"},{"id":"-6wXTmNvwj8","title":"Ù‚ØµØ© Ø§Ù„Ø¨Ø±Ø¯Ø© ÙˆÙØ¶Ø§Ø¦Ù„Ù‡Ø§ ÙˆÙƒØ±Ø§Ù…ØªÙ‡Ø§ | Ù„Ù†Ø¯Ù†ğŸ“","publishedAt":"2025-05-29T19:15:14Z","duration":"PT16M33S","thumbnail":"https://i.ytimg.com/vi/-6wXTmNvwj8/mqdefault.jpg","viewCount":"6190","playlistId":"PLEkQk5xrP-tm8ZIu74nTOZN9KJUJu416J","playlistName":"Ù…Ù‚Ø§Ø·Ø¹ Ù…ÙÙ‡Ù…ÙÙ‘Ø© (ÙŠÙØ³Ø±ÙŠÙ‘ÙØ§Øª) Ø£.Ø¯. ÙŠØ³Ø±ÙŠ Ø¬Ø¨Ø±","category":"Ù…ØªÙ†ÙˆØ¹"},{"id":"xTd-SgLdn_o","title":"ÙƒÙŠÙ ØªØªØ¹Ø§Ù…Ù„ Ù…Ø¹ Ø®Ù„Ø§ÙØ§Øª Ø§Ù„Ø¥Ø®ÙˆØ© ÙˆØ§Ù„Ø£Ù‚Ø§Ø±Ø¨ØŸ","publishedAt":"2022-05-17T18:00:26Z","duration":"PT8M32S","thumbnail":"https://i.ytimg.com/vi/xTd-SgLdn_o/mqdefault.jpg","viewCount":"11191","playlistId":"PLEkQk5xrP-tm8ZIu74nTOZN9KJUJu416J","playlistName":"Ù…Ù‚Ø§Ø·Ø¹ Ù…ÙÙ‡Ù…ÙÙ‘Ø© (ÙŠÙØ³Ø±ÙŠÙ‘ÙØ§Øª) Ø£.Ø¯. ÙŠØ³Ø±ÙŠ Ø¬Ø¨Ø±","category":"Ù…ØªÙ†ÙˆØ¹"},{"id":"YHtfYfGUIOA","title":"Ù…ÙŠÙ† Ø§Ù„Ø­Ù…Ø§Ø± Ø§Ù„ÙŠ Ø§Ø´ØªØºÙ„ Ù‚Ø¨Ù„ÙŠğŸ˜¡| Ø§Ù„Ù…Ù†Ø§ÙØ³Ø© ÙÙŠ Ø³ÙˆÙ‚ Ø§Ù„Ø¹Ù…Ù„","publishedAt":"2022-05-16T19:31:56Z","duration":"PT12M43S","thumbnail":"https://i.ytimg.com/vi/YHtfYfGUIOA/mqdefault.jpg","viewCount":"10516","playlistId":"PLEkQk5xrP-tm8ZIu74nTOZN9KJUJu416J","playlistName":"Ù…Ù‚Ø§Ø·Ø¹ Ù…ÙÙ‡Ù…ÙÙ‘Ø© (ÙŠÙØ³Ø±ÙŠÙ‘ÙØ§Øª) Ø£.Ø¯. ÙŠØ³Ø±ÙŠ Ø¬Ø¨Ø±","category":"Ù…ØªÙ†ÙˆØ¹"},{"id":"XVZs0GKGVm0","title":"ÙƒÙŠÙÙŠØ© ØµÙ„Ø§Ø© Ø§Ù„ÙƒØ³ÙˆÙ ÙˆØ§Ù„Ø®Ø³ÙˆÙ","publishedAt":"2022-05-15T20:49:26Z","duration":"PT11M12S","thumbnail":"https://i.ytimg.com/vi/XVZs0GKGVm0/mqdefault.jpg","viewCount":"15096","playlistId":"PLEkQk5xrP-tm8ZIu74nTOZN9KJUJu416J","playlistName":"Ù…Ù‚Ø§Ø·Ø¹ Ù…ÙÙ‡Ù…ÙÙ‘Ø© (ÙŠÙØ³Ø±ÙŠÙ‘ÙØ§Øª) Ø£.Ø¯. ÙŠØ³Ø±ÙŠ Ø¬Ø¨Ø±","category":"Ù…ØªÙ†ÙˆØ¹"},{"id":"e6-ZwqpmqJ0","title":"Ù‡Ù„ ÙŠØ¬ÙˆØ² Ø§Ù„ØªØ±Ø­Ù… Ø¹Ù„Ù‰ ØºÙŠØ± Ø§Ù„Ù…Ø³Ù„Ù…ÙŠÙ†ØŸ","publishedAt":"2022-05-13T19:00:39Z","duration":"PT15M57S","thumbnail":"https://i.ytimg.com/vi/e6-ZwqpmqJ0/mqdefault.jpg","viewCount":"64981","playlistId":"PLEkQk5xrP-tm8ZIu74nTOZN9KJUJu416J","playlistName":"Ù…Ù‚Ø§Ø·Ø¹ Ù…ÙÙ‡Ù…ÙÙ‘Ø© (ÙŠÙØ³Ø±ÙŠÙ‘ÙØ§Øª) Ø£.Ø¯. ÙŠØ³Ø±ÙŠ Ø¬Ø¨Ø±","category":"Ù…ØªÙ†ÙˆØ¹"},{"id":"Tt1IHeksHvI","title":"ÙƒÙŠÙ ØªØªÙˆÙƒÙ„ Ø¹Ù„Ù‰ Ø§Ù„Ù„Ù‡ Ø­Ù‚ Ø§Ù„ØªÙˆÙƒÙ„ØŸ","publishedAt":"2022-05-12T19:00:15Z","duration":"PT17M15S","thumbnail":"https://i.ytimg.com/vi/Tt1IHeksHvI/mqdefault.jpg","viewCount":"72075","playlistId":"PLEkQk5xrP-tm8ZIu74nTOZN9KJUJu416J","playlistName":"Ù…Ù‚Ø§Ø·Ø¹ Ù…ÙÙ‡Ù…ÙÙ‘Ø© (ÙŠÙØ³Ø±ÙŠÙ‘ÙØ§Øª) Ø£.Ø¯. ÙŠØ³Ø±ÙŠ Ø¬Ø¨Ø±","category":"Ù…ØªÙ†ÙˆØ¹"},{"id":"V3AglBHgm8Y","title":"ÙƒÙŠÙ Ù†ÙˆØ§Ø¬Ù‡ ØºÙ„Ø§Ø¡ Ø§Ù„Ø£Ø³Ø¹Ø§Ø±ØŸ","publishedAt":"2022-05-10T18:00:11Z","duration":"PT10M30S","thumbnail":"https://i.ytimg.com/vi/V3AglBHgm8Y/mqdefault.jpg","viewCount":"5405","playlistId":"PLEkQk5xrP-tm8ZIu74nTOZN9KJUJu416J","playlistName":"Ù…Ù‚Ø§Ø·Ø¹ Ù…ÙÙ‡Ù…ÙÙ‘Ø© (ÙŠÙØ³Ø±ÙŠÙ‘ÙØ§Øª) Ø£.Ø¯. ÙŠØ³Ø±ÙŠ Ø¬Ø¨Ø±","category":"Ù…ØªÙ†ÙˆØ¹"},{"id":"J5fwRVtLIR4","title":"Ù‡Ù„ ÙŠÙˆØ¬Ø¯ Ù…Ø¬Ø§Ø² ÙÙŠ Ø§Ù„Ù‚Ø±Ø¢Ù† Ø§Ù„ÙƒØ±ÙŠÙ…ØŸ","publishedAt":"2022-05-06T18:00:06Z","duration":"PT8M42S","thumbnail":"https://i.ytimg.com/vi/J5fwRVtLIR4/mqdefault.jpg","viewCount":"4620","playlistId":"PLEkQk5xrP-tm8ZIu74nTOZN9KJUJu416J","playlistName":"Ù…Ù‚Ø§Ø·Ø¹ Ù…ÙÙ‡Ù…ÙÙ‘Ø© (ÙŠÙØ³Ø±ÙŠÙ‘ÙØ§Øª) Ø£.Ø¯. ÙŠØ³Ø±ÙŠ Ø¬Ø¨Ø±","category":"Ù…ØªÙ†ÙˆØ¹"},{"id":"aVJ65Boy-aU","title":"Ù‡Ù„ Ø§Ù„Ø§Ø³ØªÙ…Ø§Ø¹ Ø¥Ù„Ù‰ Ø§Ù„Ø£ØºØ§Ù†ÙŠ Ø­Ø±Ø§Ù…ØŸ","publishedAt":"2022-05-05T18:00:00Z","duration":"PT11M40S","thumbnail":"https://i.ytimg.com/vi/aVJ65Boy-aU/mqdefault.jpg","viewCount":"21286","playlistId":"PLEkQk5xrP-tm8ZIu74nTOZN9KJUJu416J","playlistName":"Ù…Ù‚Ø§Ø·Ø¹ Ù…ÙÙ‡Ù…ÙÙ‘Ø© (ÙŠÙØ³Ø±ÙŠÙ‘ÙØ§Øª) Ø£.Ø¯. ÙŠØ³Ø±ÙŠ Ø¬Ø¨Ø±","category":"Ù…ØªÙ†ÙˆØ¹"},{"id":"TwtgQDgfrSQ","title":"Ø­ÙƒÙ… ÙÙˆØ§Ø¦Ø¯ Ø§Ù„Ø¨Ù†ÙˆÙƒ | Ø£.Ø¯. ÙŠØ³Ø±ÙŠ Ø¬Ø¨Ø±","publishedAt":"2022-05-04T18:15:02Z","duration":"PT12M10S","thumbnail":"https://i.ytimg.com/vi/TwtgQDgfrSQ/mqdefault.jpg","viewCount":"202064","playlistId":"PLEkQk5xrP-tm8ZIu74nTOZN9KJUJu416J","playlistName":"Ù…Ù‚Ø§Ø·Ø¹ Ù…ÙÙ‡Ù…ÙÙ‘Ø© (ÙŠÙØ³Ø±ÙŠÙ‘ÙØ§Øª) Ø£.Ø¯. ÙŠØ³Ø±ÙŠ Ø¬Ø¨Ø±","category":"Ù…ØªÙ†ÙˆØ¹"},{"id":"p4p6ejFBsLY","title":"Ø¨Ø¹Ø¯ Ø±Ù…Ø¶Ø§Ù† ,, Ù†ØµÙŠØ­Ø© Ù„Ù…Ù† ÙŠØ±ÙŠØ¯ Ø­ÙØ¸ Ø§Ù„Ù‚Ø±Ø§Ù“Ù†","publishedAt":"2022-05-02T19:00:23Z","duration":"PT11M46S","thumbnail":"https://i.ytimg.com/vi/p4p6ejFBsLY/mqdefault.jpg","viewCount":"29191","playlistId":"PLEkQk5xrP-tm8ZIu74nTOZN9KJUJu416J","playlistName":"Ù…Ù‚Ø§Ø·Ø¹ Ù…ÙÙ‡Ù…ÙÙ‘Ø© (ÙŠÙØ³Ø±ÙŠÙ‘ÙØ§Øª) Ø£.Ø¯. ÙŠØ³Ø±ÙŠ Ø¬Ø¨Ø±","category":"Ù…ØªÙ†ÙˆØ¹"},{"id":"T6SzvUQDn_I","title":"Ù…Ø§ Ø§Ù„ÙØ±Ù‚ Ø¨ÙŠÙ† Ø§Ù„Ù…Ø¯Ø§Ø±Ø³ Ø§Ù„Ø­ÙƒÙˆÙ…ÙŠØ© ÙˆØ§Ù„Ø®Ø§ØµØ©ØŸ","publishedAt":"2022-04-25T19:30:01Z","duration":"PT8M15S","thumbnail":"https://i.ytimg.com/vi/T6SzvUQDn_I/mqdefault.jpg","viewCount":"6939","playlistId":"PLEkQk5xrP-tm8ZIu74nTOZN9KJUJu416J","playlistName":"Ù…Ù‚Ø§Ø·Ø¹ Ù…ÙÙ‡Ù…ÙÙ‘Ø© (ÙŠÙØ³Ø±ÙŠÙ‘ÙØ§Øª) Ø£.Ø¯. ÙŠØ³Ø±ÙŠ Ø¬Ø¨Ø±","category":"Ù…ØªÙ†ÙˆØ¹"},{"id":"7SliqxPymwM","title":"ÙØ¶Ù„ Ø§Ù„Ø¹Ø´Ø± Ø§Ù„Ø£ÙˆØ§Ø®Ø± Ù…Ù† Ø±Ù…Ø¶Ø§Ù†","publishedAt":"2022-04-21T15:30:02Z","duration":"PT16M56S","thumbnail":"https://i.ytimg.com/vi/7SliqxPymwM/mqdefault.jpg","viewCount":"22134","playlistId":"PLEkQk5xrP-tm8ZIu74nTOZN9KJUJu416J","playlistName":"Ù…Ù‚Ø§Ø·Ø¹ Ù…ÙÙ‡Ù…ÙÙ‘Ø© (ÙŠÙØ³Ø±ÙŠÙ‘ÙØ§Øª) Ø£.Ø¯. ÙŠØ³Ø±ÙŠ Ø¬Ø¨Ø±","category":"Ù…ØªÙ†ÙˆØ¹"},{"id":"7gAOK-tidTs","title":"Ù‡Ù„ ØµÙ„Ø§Ø© Ø§Ù„ØªØ±Ø§ÙˆÙŠØ­ 20 Ø±ÙƒØ¹Ø© Ø³Ù†Ø© Ù†Ø¨ÙˆÙŠØ©ØŸ","publishedAt":"2022-04-20T19:30:00Z","duration":"PT12M46S","thumbnail":"https://i.ytimg.com/vi/7gAOK-tidTs/mqdefault.jpg","viewCount":"4651","playlistId":"PLEkQk5xrP-tm8ZIu74nTOZN9KJUJu416J","playlistName":"Ù…Ù‚Ø§Ø·Ø¹ Ù…ÙÙ‡Ù…ÙÙ‘Ø© (ÙŠÙØ³Ø±ÙŠÙ‘ÙØ§Øª) Ø£.Ø¯. ÙŠØ³Ø±ÙŠ Ø¬Ø¨Ø±","category":"Ù…ØªÙ†ÙˆØ¹"},{"id":"ipAwxGCAXiI","title":"Ù…Ø§ Ù‡ÙŠ Ø¢Ø¯Ø§Ø¨ Ø²ÙŠØ§Ø±Ø© Ø§Ù„Ø£ÙˆÙ„ÙŠØ§Ø¡ ÙˆØ§Ù„ØµØ§Ù„Ø­ÙŠÙ†ØŸ","publishedAt":"2022-04-14T19:30:03Z","duration":"PT8M36S","thumbnail":"https://i.ytimg.com/vi/ipAwxGCAXiI/mqdefault.jpg","viewCount":"12422","playlistId":"PLEkQk5xrP-tm8ZIu74nTOZN9KJUJu416J","playlistName":"Ù…Ù‚Ø§Ø·Ø¹ Ù…ÙÙ‡Ù…ÙÙ‘Ø© (ÙŠÙØ³Ø±ÙŠÙ‘ÙØ§Øª) Ø£.Ø¯. ÙŠØ³Ø±ÙŠ Ø¬Ø¨Ø±","category":"Ù…ØªÙ†ÙˆØ¹"},{"id":"cmmVjRBuGsU","title":"ÙƒÙŠÙ ØªØ³ØªÙ‚Ø¨Ù„ Ø±Ù…Ø¶Ø§Ù† Ø¨Ù‚Ù„Ø¨ Ø³Ù„ÙŠÙ…ØŸ","publishedAt":"2022-03-31T19:54:58Z","duration":"PT16M58S","thumbnail":"https://i.ytimg.com/vi/cmmVjRBuGsU/mqdefault.jpg","viewCount":"6535","playlistId":"PLEkQk5xrP-tm8ZIu74nTOZN9KJUJu416J","playlistName":"Ù…Ù‚Ø§Ø·Ø¹ Ù…ÙÙ‡Ù…ÙÙ‘Ø© (ÙŠÙØ³Ø±ÙŠÙ‘ÙØ§Øª) Ø£.Ø¯. ÙŠØ³Ø±ÙŠ Ø¬Ø¨Ø±","category":"Ù…ØªÙ†ÙˆØ¹"},{"id":"L0nD824YrEE","title":"ÙƒÙŠÙ ØªØ·Ù„Ø¨ Ø­Ø§Ø¬ØªÙƒ Ù…Ù† Ø§Ù„Ù„Ù‡ØŸ","publishedAt":"2022-03-21T17:44:15Z","duration":"PT8M4S","thumbnail":"https://i.ytimg.com/vi/L0nD824YrEE/mqdefault.jpg","viewCount":"11992","playlistId":"PLEkQk5xrP-tm8ZIu74nTOZN9KJUJu416J","playlistName":"Ù…Ù‚Ø§Ø·Ø¹ Ù…ÙÙ‡Ù…ÙÙ‘Ø© (ÙŠÙØ³Ø±ÙŠÙ‘ÙØ§Øª) Ø£.Ø¯. ÙŠØ³Ø±ÙŠ Ø¬Ø¨Ø±","category":"Ù…ØªÙ†ÙˆØ¹"},{"id":"f0B6tDzI8AU","title":"ÙƒÙŠÙ ØªÙÙ‡Ù… Ù…Ø¹Ù†Ù‰ Ø§Ù„ØªÙØ§Ø¤Ù„ Ø§Ù„ØªØ´Ø§Ø¤Ù…ØŸ","publishedAt":"2022-03-18T18:00:34Z","duration":"PT14M58S","thumbnail":"https://i.ytimg.com/vi/f0B6tDzI8AU/mqdefault.jpg","viewCount":"4737","playlistId":"PLEkQk5xrP-tm8ZIu74nTOZN9KJUJu416J","playlistName":"Ù…Ù‚Ø§Ø·Ø¹ Ù…ÙÙ‡Ù…ÙÙ‘Ø© (ÙŠÙØ³Ø±ÙŠÙ‘ÙØ§Øª) Ø£.Ø¯. ÙŠØ³Ø±ÙŠ Ø¬Ø¨Ø±","category":"Ù…ØªÙ†ÙˆØ¹"},{"id":"kW-x03FbiMU","title":"Ù…ÙÙ†Ù’ Ù†Ø§Ø²Ø¹Ùƒ Ø¹Ù„Ù‰ Ø¯ÙÙ†Ù’ÙŠÙØ§ØŒ Ø§ØªØ±ÙƒÙ’Ù‡Ø§ Ù„Ù‡ ÙˆÙ‚Ù„Ù’ Ø³ÙÙ„ÙØ§Ù…ÙŒ","publishedAt":"2022-03-09T18:22:08Z","duration":"PT12M8S","thumbnail":"https://i.ytimg.com/vi/kW-x03FbiMU/mqdefault.jpg","viewCount":"15090","playlistId":"PLEkQk5xrP-tm8ZIu74nTOZN9KJUJu416J","playlistName":"Ù…Ù‚Ø§Ø·Ø¹ Ù…ÙÙ‡Ù…ÙÙ‘Ø© (ÙŠÙØ³Ø±ÙŠÙ‘ÙØ§Øª) Ø£.Ø¯. ÙŠØ³Ø±ÙŠ Ø¬Ø¨Ø±","category":"Ù…ØªÙ†ÙˆØ¹"},{"id":"3lQyCUlQy4A","title":"ÙƒÙŠÙ Ù†ÙÙ‡Ù… Ø´Ø·Ø­Ø§Øª Ø¨Ø¹Ø¶ Ø§Ù„Ø£ÙˆÙ„ÙŠØ§Ø¡ØŸ","publishedAt":"2022-02-04T18:16:14Z","duration":"PT17M19S","thumbnail":"https://i.ytimg.com/vi/3lQyCUlQy4A/mqdefault.jpg","viewCount":"143074","playlistId":"PLEkQk5xrP-tm8ZIu74nTOZN9KJUJu416J","playlistName":"Ù…Ù‚Ø§Ø·Ø¹ Ù…ÙÙ‡Ù…ÙÙ‘Ø© (ÙŠÙØ³Ø±ÙŠÙ‘ÙØ§Øª) Ø£.Ø¯. ÙŠØ³Ø±ÙŠ Ø¬Ø¨Ø±","category":"Ù…ØªÙ†ÙˆØ¹"},{"id":"i8xFY8yBPzk","title":"Ø§Ù„Ø³ÙØ± Ø¹Ø¨Ø± Ø§Ù„Ø²Ù…Ù† Ø¨ÙŠÙ† Ø§Ù„Ù†Ø³Ø¨ÙŠØ© ÙˆØ§Ù„Ù…Ø¹Ø±Ø§Ø¬","publishedAt":"2021-03-17T19:38:25Z","duration":"PT10M11S","thumbnail":"https://i.ytimg.com/vi/i8xFY8yBPzk/mqdefault.jpg","viewCount":"21664","playlistId":"PLEkQk5xrP-tm8ZIu74nTOZN9KJUJu416J","playlistName":"Ù…Ù‚Ø§Ø·Ø¹ Ù…ÙÙ‡Ù…ÙÙ‘Ø© (ÙŠÙØ³Ø±ÙŠÙ‘ÙØ§Øª) Ø£.Ø¯. ÙŠØ³Ø±ÙŠ Ø¬Ø¨Ø±","category":"Ù…ØªÙ†ÙˆØ¹"},{"id":"80e2Oo8iWnY","title":"Ù‡Ù„ ÙŠØ¬ÙˆØ² ÙˆÙ‡Ø¨ Ø«ÙˆØ§Ø¨ Ø§Ù„ØµÙ„Ø§Ø© Ù„Ù„Ù…ÙŠØªØŸ","publishedAt":"2021-03-16T19:14:40Z","duration":"PT9M52S","thumbnail":"https://i.ytimg.com/vi/80e2Oo8iWnY/mqdefault.jpg","viewCount":"8008","playlistId":"PLEkQk5xrP-tm8ZIu74nTOZN9KJUJu416J","playlistName":"Ù…Ù‚Ø§Ø·Ø¹ Ù…ÙÙ‡Ù…ÙÙ‘Ø© (ÙŠÙØ³Ø±ÙŠÙ‘ÙØ§Øª) Ø£.Ø¯. ÙŠØ³Ø±ÙŠ Ø¬Ø¨Ø±","category":"Ù…ØªÙ†ÙˆØ¹"}],"total":560,"page":13,"pageSize":24,"totalPages":24}