{"items":[{"id":"0cujUKajvNM","title":"أنا مش بعرف أكمل حاجة لأخرها وبفقد الأمل ,, فماذا أفعل؟","publishedAt":"2024-03-17T14:00:01Z","duration":"PT16M32S","thumbnail":"https://i.ytimg.com/vi/0cujUKajvNM/mqdefault.jpg","viewCount":"60127","playlistId":"PLEkQk5xrP-tm8ZIu74nTOZN9KJUJu416J","playlistName":"مقاطع مُهمَّة (يُسريَّات) أ.د. يسري جبر","category":"متنوع"},{"id":"oXz8FgR1g8k","title":"هل يجوز الاحتفال بموالد الأولياء والصالحين؟","publishedAt":"2023-03-15T18:00:20Z","duration":"PT20M28S","thumbnail":"https://i.ytimg.com/vi/oXz8FgR1g8k/mqdefault.jpg","viewCount":"2961","playlistId":"PLEkQk5xrP-tm8ZIu74nTOZN9KJUJu416J","playlistName":"مقاطع مُهمَّة (يُسريَّات) أ.د. يسري جبر","category":"متنوع"},{"id":"vrk0kW3UKqM","title":"ما هو التصوف وما هي الطريقة ومتى آخذها؟","publishedAt":"2023-03-14T18:00:31Z","duration":"PT28M43S","thumbnail":"https://i.ytimg.com/vi/vrk0kW3UKqM/mqdefault.jpg","viewCount":"145961","playlistId":"PLEkQk5xrP-tm8ZIu74nTOZN9KJUJu416J","playlistName":"مقاطع مُهمَّة (يُسريَّات) أ.د. يسري جبر","category":"متنوع"},{"id":"v5Ijm107NkA","title":"ماذا أفعل حتى أرى النبي ﷺ يقظة؟","publishedAt":"2023-03-13T18:00:31Z","duration":"PT9M25S","thumbnail":"https://i.ytimg.com/vi/v5Ijm107NkA/mqdefault.jpg","viewCount":"13782","playlistId":"PLEkQk5xrP-tm8ZIu74nTOZN9KJUJu416J","playlistName":"مقاطع مُهمَّة (يُسريَّات) أ.د. يسري جبر","category":"متنوع"},{"id":"8ZI-e_UE1ho","title":"ما هو نور القديم؟","publishedAt":"2023-03-12T18:09:07Z","duration":"PT14M5S","thumbnail":"https://i.ytimg.com/vi/8ZI-e_UE1ho/mqdefault.jpg","viewCount":"4104","playlistId":"PLEkQk5xrP-tm8ZIu74nTOZN9KJUJu416J","playlistName":"مقاطع مُهمَّة (يُسريَّات) أ.د. يسري جبر","category":"متنوع"},{"id":"z5lzUf6iEr4","title":"ما هي آداب طالب العلم؟","publishedAt":"2023-03-11T18:00:32Z","duration":"PT31M38S","thumbnail":"https://i.ytimg.com/vi/z5lzUf6iEr4/mqdefault.jpg","viewCount":"1799","playlistId":"PLEkQk5xrP-tm8ZIu74nTOZN9KJUJu416J","playlistName":"مقاطع مُهمَّة (يُسريَّات) أ.د. يسري جبر","category":"متنوع"},{"id":"nb5JccA9g7s","title":"فضل الصلاة على النبي ﷺ","publishedAt":"2023-03-10T18:00:22Z","duration":"PT10M12S","thumbnail":"https://i.ytimg.com/vi/nb5JccA9g7s/mqdefault.jpg","viewCount":"9870","playlistId":"PLEkQk5xrP-tm8ZIu74nTOZN9KJUJu416J","playlistName":"مقاطع مُهمَّة (يُسريَّات) أ.د. يسري جبر","category":"متنوع"},{"id":"xUGlRzl1i2Q","title":"تعرف على سيدنا النبي ﷺ","publishedAt":"2023-03-09T18:00:33Z","duration":"PT22M39S","thumbnail":"https://i.ytimg.com/vi/xUGlRzl1i2Q/mqdefault.jpg","viewCount":"6968","playlistId":"PLEkQk5xrP-tm8ZIu74nTOZN9KJUJu416J","playlistName":"مقاطع مُهمَّة (يُسريَّات) أ.د. يسري جبر","category":"متنوع"},{"id":"6zqc1WKNsGE","title":"كيف كان خُلُق النَّبيّ  ﷺ","publishedAt":"2021-01-15T20:52:22Z","duration":"PT11M34S","thumbnail":"https://i.ytimg.com/vi/6zqc1WKNsGE/mqdefault.jpg","viewCount":"4786","playlistId":"PLEkQk5xrP-tm8ZIu74nTOZN9KJUJu416J","playlistName":"مقاطع مُهمَّة (يُسريَّات) أ.د. يسري جبر","category":"متنوع"},{"id":"Ab6YwjOAK8k","title":"وصفُ النَّبيّ ﷺ أ.د. يسري جبر","publishedAt":"2021-01-14T17:37:24Z","duration":"PT8M15S","thumbnail":"https://i.ytimg.com/vi/Ab6YwjOAK8k/mqdefault.jpg","viewCount":"11114","playlistId":"PLEkQk5xrP-tm8ZIu74nTOZN9KJUJu416J","playlistName":"مقاطع مُهمَّة (يُسريَّات) أ.د. يسري جبر","category":"متنوع"},{"id":"APo0n61iVwQ","title":"لماذا لا يطبق حد السرقة والزنا في مصر؟","publishedAt":"2021-01-13T21:56:50Z","duration":"PT10M19S","thumbnail":"https://i.ytimg.com/vi/APo0n61iVwQ/mqdefault.jpg","viewCount":"28631","playlistId":"PLEkQk5xrP-tm8ZIu74nTOZN9KJUJu416J","playlistName":"مقاطع مُهمَّة (يُسريَّات) أ.د. يسري جبر","category":"متنوع"},{"id":"Sud5BTJ7liY","title":"كيف تصبح غنيا؟","publishedAt":"2021-01-12T18:42:48Z","duration":"PT12M10S","thumbnail":"https://i.ytimg.com/vi/Sud5BTJ7liY/mqdefault.jpg","viewCount":"91637","playlistId":"PLEkQk5xrP-tm8ZIu74nTOZN9KJUJu416J","playlistName":"مقاطع مُهمَّة (يُسريَّات) أ.د. يسري جبر","category":"متنوع"},{"id":"reBsvD53jQY","title":"الفرق بين القَدَر والعِلْم والإرادة والقُدرة","publishedAt":"2021-01-11T19:00:09Z","duration":"PT13M55S","thumbnail":"https://i.ytimg.com/vi/reBsvD53jQY/mqdefault.jpg","viewCount":"33206","playlistId":"PLEkQk5xrP-tm8ZIu74nTOZN9KJUJu416J","playlistName":"مقاطع مُهمَّة (يُسريَّات) أ.د. يسري جبر","category":"متنوع"},{"id":"8DBEEvVl5Jo","title":"الرضا بالإقامة عين الكرامة","publishedAt":"2023-03-07T18:00:06Z","duration":"PT23M54S","thumbnail":"https://i.ytimg.com/vi/8DBEEvVl5Jo/mqdefault.jpg","viewCount":"7262","playlistId":"PLEkQk5xrP-tm8ZIu74nTOZN9KJUJu416J","playlistName":"مقاطع مُهمَّة (يُسريَّات) أ.د. يسري جبر","category":"متنوع"},{"id":"t8PPlMc32v8","title":"هل التلفظ بالنية بدعة؟","publishedAt":"2022-07-19T19:01:33Z","duration":"PT10M11S","thumbnail":"https://i.ytimg.com/vi/t8PPlMc32v8/mqdefault.jpg","viewCount":"5867","playlistId":"PLEkQk5xrP-tm8ZIu74nTOZN9KJUJu416J","playlistName":"مقاطع مُهمَّة (يُسريَّات) أ.د. يسري جبر","category":"متنوع"},{"id":"KMzAi84kip4","title":"هل الذكر الجماعي سنة | وما هي الأعمال التي تجنبنا المعاصي؟","publishedAt":"2022-07-17T19:19:31Z","duration":"PT9M35S","thumbnail":"https://i.ytimg.com/vi/KMzAi84kip4/mqdefault.jpg","viewCount":"7338","playlistId":"PLEkQk5xrP-tm8ZIu74nTOZN9KJUJu416J","playlistName":"مقاطع مُهمَّة (يُسريَّات) أ.د. يسري جبر","category":"متنوع"},{"id":"EzkcmcevKoE","title":"أريد الزواج مرة أخرى فماذا أفعل؟","publishedAt":"2022-07-16T19:30:01Z","duration":"PT13M6S","thumbnail":"https://i.ytimg.com/vi/EzkcmcevKoE/mqdefault.jpg","viewCount":"28967","playlistId":"PLEkQk5xrP-tm8ZIu74nTOZN9KJUJu416J","playlistName":"مقاطع مُهمَّة (يُسريَّات) أ.د. يسري جبر","category":"متنوع"},{"id":"ONgO4xybcok","title":"بَرَكَةُ النَّبيّ ﷺ في لمس الأشياء","publishedAt":"2022-07-14T18:30:20Z","duration":"PT8M34S","thumbnail":"https://i.ytimg.com/vi/ONgO4xybcok/mqdefault.jpg","viewCount":"7365","playlistId":"PLEkQk5xrP-tm8ZIu74nTOZN9KJUJu416J","playlistName":"مقاطع مُهمَّة (يُسريَّات) أ.د. يسري جبر","category":"متنوع"},{"id":"kW-x03FbiMU","title":"مَنْ نازعك على دُنْيَا، اتركْها له وقلْ سَلَامٌ","publishedAt":"2022-03-09T18:22:08Z","duration":"PT12M8S","thumbnail":"https://i.ytimg.com/vi/kW-x03FbiMU/mqdefault.jpg","viewCount":"15090","playlistId":"PLEkQk5xrP-tm8ZIu74nTOZN9KJUJu416J","playlistName":"مقاطع مُهمَّة (يُسريَّات) أ.د. يسري جبر","category":"متنوع"},{"id":"grKuX971Q3E","title":"ما الفرق بين العارف بالله والعالِم؟","publishedAt":"2021-11-01T17:00:37Z","duration":"PT11M40S","thumbnail":"https://i.ytimg.com/vi/grKuX971Q3E/mqdefault.jpg","viewCount":"11433","playlistId":"PLEkQk5xrP-tm8ZIu74nTOZN9KJUJu416J","playlistName":"مقاطع مُهمَّة (يُسريَّات) أ.د. يسري جبر","category":"متنوع"},{"id":"r7B3o6yqND0","title":"الفُتوّة","publishedAt":"2021-11-01T04:24:42Z","duration":"PT7M33S","thumbnail":"https://i.ytimg.com/vi/r7B3o6yqND0/mqdefault.jpg","viewCount":"4507","playlistId":"PLEkQk5xrP-tm8ZIu74nTOZN9KJUJu416J","playlistName":"مقاطع مُهمَّة (يُسريَّات) أ.د. يسري جبر","category":"متنوع"},{"id":"vw0xI3BYB_4","title":"!إذا خفت من الله ففر إليه","publishedAt":"2022-11-02T18:00:31Z","duration":"PT9M31S","thumbnail":"https://i.ytimg.com/vi/vw0xI3BYB_4/mqdefault.jpg","viewCount":"6701","playlistId":"PLEkQk5xrP-tm8ZIu74nTOZN9KJUJu416J","playlistName":"مقاطع مُهمَّة (يُسريَّات) أ.د. يسري جبر","category":"متنوع"},{"id":"zuraUNK6v8U","title":"شروط الدخول في التصوف وما هي الطريقة ومتى آخذها؟","publishedAt":"2025-05-07T18:44:36Z","duration":"PT14M9S","thumbnail":"https://i.ytimg.com/vi/zuraUNK6v8U/mqdefault.jpg","viewCount":"6666","playlistId":"PLEkQk5xrP-tm8ZIu74nTOZN9KJUJu416J","playlistName":"مقاطع مُهمَّة (يُسريَّات) أ.د. يسري جبر","category":"متنوع"},{"id":"En4BPx8mJ0s","title":"كيف كنت تذاكر قبل الامتحانات أثناء حياتك الجامعية؟","publishedAt":"2025-05-06T18:00:13Z","duration":"PT10M2S","thumbnail":"https://i.ytimg.com/vi/En4BPx8mJ0s/mqdefault.jpg","viewCount":"4319","playlistId":"PLEkQk5xrP-tm8ZIu74nTOZN9KJUJu416J","playlistName":"مقاطع مُهمَّة (يُسريَّات) أ.د. يسري جبر","category":"متنوع"}],"total":560,"page":14,"pageSize":24,"totalPages":24}