{"items":[{"id":"-WAmZ3WTEQE","title":"الحبة السوداء شفاء من كل داء","publishedAt":"2020-06-11T21:14:11Z","duration":"PT12M18S","thumbnail":"https://i.ytimg.com/vi/-WAmZ3WTEQE/mqdefault.jpg","viewCount":"5461","playlistId":"PLEkQk5xrP-tm8ZIu74nTOZN9KJUJu416J","playlistName":"مقاطع مُهمَّة (يُسريَّات) أ.د. يسري جبر","category":"متنوع"},{"id":"AWk6HJgyQmM","title":"كيف تختم القرآن ولا تنساه؟","publishedAt":"2020-06-10T16:10:59Z","duration":"PT3M17S","thumbnail":"https://i.ytimg.com/vi/AWk6HJgyQmM/mqdefault.jpg","viewCount":"14641","playlistId":"PLEkQk5xrP-tm8ZIu74nTOZN9KJUJu416J","playlistName":"مقاطع مُهمَّة (يُسريَّات) أ.د. يسري جبر","category":"متنوع"},{"id":"pvuFOXGKzTM","title":"علمُ اليقين وعينُ اليقين","publishedAt":"2020-06-08T18:59:40Z","duration":"PT5M3S","thumbnail":"https://i.ytimg.com/vi/pvuFOXGKzTM/mqdefault.jpg","viewCount":"2807","playlistId":"PLEkQk5xrP-tm8ZIu74nTOZN9KJUJu416J","playlistName":"مقاطع مُهمَّة (يُسريَّات) أ.د. يسري جبر","category":"متنوع"},{"id":"b_dex_oduI8","title":"شِدَّةُ المرض","publishedAt":"2020-06-07T17:53:57Z","duration":"PT5M56S","thumbnail":"https://i.ytimg.com/vi/b_dex_oduI8/mqdefault.jpg","viewCount":"2218","playlistId":"PLEkQk5xrP-tm8ZIu74nTOZN9KJUJu416J","playlistName":"مقاطع مُهمَّة (يُسريَّات) أ.د. يسري جبر","category":"متنوع"},{"id":"4hecIOB6pwI","title":"مجيب قبل الطلب مفضال بلا سبب","publishedAt":"2020-06-06T16:19:03Z","duration":"PT8M39S","thumbnail":"https://i.ytimg.com/vi/4hecIOB6pwI/mqdefault.jpg","viewCount":"4551","playlistId":"PLEkQk5xrP-tm8ZIu74nTOZN9KJUJu416J","playlistName":"مقاطع مُهمَّة (يُسريَّات) أ.د. يسري جبر","category":"متنوع"},{"id":"B2XjrreiNHE","title":"وَحدةُ الوُجود ووَحدةُ الشُهود","publishedAt":"2020-06-05T19:43:56Z","duration":"PT11M40S","thumbnail":"https://i.ytimg.com/vi/B2XjrreiNHE/mqdefault.jpg","viewCount":"23441","playlistId":"PLEkQk5xrP-tm8ZIu74nTOZN9KJUJu416J","playlistName":"مقاطع مُهمَّة (يُسريَّات) أ.د. يسري جبر","category":"متنوع"},{"id":"MCyxiJ2B7mQ","title":"الأحديَّة والواحديَّة","publishedAt":"2020-06-04T14:48:53Z","duration":"PT20M59S","thumbnail":"https://i.ytimg.com/vi/MCyxiJ2B7mQ/mqdefault.jpg","viewCount":"3381","playlistId":"PLEkQk5xrP-tm8ZIu74nTOZN9KJUJu416J","playlistName":"مقاطع مُهمَّة (يُسريَّات) أ.د. يسري جبر","category":"متنوع"},{"id":"R1t_Mg7Z6Xk","title":"ثواب المرض عند الله","publishedAt":"2020-06-03T16:21:26Z","duration":"PT9M28S","thumbnail":"https://i.ytimg.com/vi/R1t_Mg7Z6Xk/mqdefault.jpg","viewCount":"3730","playlistId":"PLEkQk5xrP-tm8ZIu74nTOZN9KJUJu416J","playlistName":"مقاطع مُهمَّة (يُسريَّات) أ.د. يسري جبر","category":"متنوع"},{"id":"bFv0sE0r8yM","title":"حب النبي ﷺ عبادة يتوسل بها إلى الله","publishedAt":"2020-06-02T17:20:37Z","duration":"PT13M","thumbnail":"https://i.ytimg.com/vi/bFv0sE0r8yM/mqdefault.jpg","viewCount":"6764","playlistId":"PLEkQk5xrP-tm8ZIu74nTOZN9KJUJu416J","playlistName":"مقاطع مُهمَّة (يُسريَّات) أ.د. يسري جبر","category":"متنوع"},{"id":"ikwfZQXvG4U","title":"ما هي أنواع الحب؟","publishedAt":"2023-03-29T19:00:27Z","duration":"PT8M20S","thumbnail":"https://i.ytimg.com/vi/ikwfZQXvG4U/mqdefault.jpg","viewCount":"6064","playlistId":"PLEkQk5xrP-tm8ZIu74nTOZN9KJUJu416J","playlistName":"مقاطع مُهمَّة (يُسريَّات) أ.د. يسري جبر","category":"متنوع"},{"id":"SmIpGsvOxGA","title":"نور المصطفى ملأ الأكوان","publishedAt":"2016-07-09T18:46:02Z","duration":"PT13M32S","thumbnail":"https://i.ytimg.com/vi/SmIpGsvOxGA/mqdefault.jpg","viewCount":"12481","playlistId":"PLEkQk5xrP-tm8ZIu74nTOZN9KJUJu416J","playlistName":"مقاطع مُهمَّة (يُسريَّات) أ.د. يسري جبر","category":"متنوع"},{"id":"p4P6hqktAOQ","title":"أنا من أهوى ومن أهوى أنا","publishedAt":"2016-07-07T12:39:37Z","duration":"PT1M9S","thumbnail":"https://i.ytimg.com/vi/p4P6hqktAOQ/mqdefault.jpg","viewCount":"4142","playlistId":"PLEkQk5xrP-tm8ZIu74nTOZN9KJUJu416J","playlistName":"مقاطع مُهمَّة (يُسريَّات) أ.د. يسري جبر","category":"متنوع"},{"id":"k8e0ahrCd10","title":"ربنا نجاني من الموت بفضل حزب البحر!","publishedAt":"2022-06-06T19:09:26Z","duration":"PT9M41S","thumbnail":"https://i.ytimg.com/vi/k8e0ahrCd10/mqdefault.jpg","viewCount":"22738","playlistId":"PLEkQk5xrP-tm8ZIu74nTOZN9KJUJu416J","playlistName":"مقاطع مُهمَّة (يُسريَّات) أ.د. يسري جبر","category":"متنوع"},{"id":"gnpZk3tIsmE","title":"رسالة إلى كل شاتم ومعترض!","publishedAt":"2022-06-03T19:06:15Z","duration":"PT16M11S","thumbnail":"https://i.ytimg.com/vi/gnpZk3tIsmE/mqdefault.jpg","viewCount":"16322","playlistId":"PLEkQk5xrP-tm8ZIu74nTOZN9KJUJu416J","playlistName":"مقاطع مُهمَّة (يُسريَّات) أ.د. يسري جبر","category":"متنوع"},{"id":"kDaf1MBH_oQ","title":"ما هو سر زيادة الرزق؟","publishedAt":"2022-06-02T18:29:57Z","duration":"PT8M30S","thumbnail":"https://i.ytimg.com/vi/kDaf1MBH_oQ/mqdefault.jpg","viewCount":"29842","playlistId":"PLEkQk5xrP-tm8ZIu74nTOZN9KJUJu416J","playlistName":"مقاطع مُهمَّة (يُسريَّات) أ.د. يسري جبر","category":"متنوع"},{"id":"oy4G-AxSdiA","title":"الصراط على متن جهنم","publishedAt":"2020-12-05T17:45:02Z","duration":"PT4M44S","thumbnail":"https://i.ytimg.com/vi/oy4G-AxSdiA/mqdefault.jpg","viewCount":"2506","playlistId":"PLEkQk5xrP-tm8ZIu74nTOZN9KJUJu416J","playlistName":"مقاطع مُهمَّة (يُسريَّات) أ.د. يسري جبر","category":"متنوع"},{"id":"HHWYvGOwKBc","title":"لذة المعارف والترقّي","publishedAt":"2020-12-04T18:05:55Z","duration":"PT4M32S","thumbnail":"https://i.ytimg.com/vi/HHWYvGOwKBc/mqdefault.jpg","viewCount":"5653","playlistId":"PLEkQk5xrP-tm8ZIu74nTOZN9KJUJu416J","playlistName":"مقاطع مُهمَّة (يُسريَّات) أ.د. يسري جبر","category":"متنوع"},{"id":"b2M0ADuF9ak","title":"هل ترك السيد البدوي الصلاة؟","publishedAt":"2025-10-25T19:25:18Z","duration":"PT8M3S","thumbnail":"https://i.ytimg.com/vi/b2M0ADuF9ak/mqdefault.jpg","viewCount":"9643","playlistId":"PLEkQk5xrP-tm8ZIu74nTOZN9KJUJu416J","playlistName":"مقاطع مُهمَّة (يُسريَّات) أ.د. يسري جبر","category":"متنوع"},{"id":"JyV-JnoqbJU","title":"كيف تتعرف على خصائص وكمالات النبي ﷺ؟","publishedAt":"2025-10-24T17:00:25Z","duration":"PT23M40S","thumbnail":"https://i.ytimg.com/vi/JyV-JnoqbJU/mqdefault.jpg","viewCount":"1840","playlistId":"PLEkQk5xrP-tm8ZIu74nTOZN9KJUJu416J","playlistName":"مقاطع مُهمَّة (يُسريَّات) أ.د. يسري جبر","category":"متنوع"},{"id":"0xvKxu6V9Es","title":"كيف تصبر على البلاء كما صبر آل البيت؟","publishedAt":"2025-10-21T18:45:54Z","duration":"PT16M13S","thumbnail":"https://i.ytimg.com/vi/0xvKxu6V9Es/mqdefault.jpg","viewCount":"2577","playlistId":"PLEkQk5xrP-tm8ZIu74nTOZN9KJUJu416J","playlistName":"مقاطع مُهمَّة (يُسريَّات) أ.د. يسري جبر","category":"متنوع"},{"id":"yjvPI50k5do","title":"ما هي صفات الأولياء وما فضل زيارة مقامتهم؟","publishedAt":"2025-10-17T18:34:59Z","duration":"PT21M9S","thumbnail":"https://i.ytimg.com/vi/yjvPI50k5do/mqdefault.jpg","viewCount":"8378","playlistId":"PLEkQk5xrP-tm8ZIu74nTOZN9KJUJu416J","playlistName":"مقاطع مُهمَّة (يُسريَّات) أ.د. يسري جبر","category":"متنوع"},{"id":"e7K9FRvlI_Y","title":"تكلم مع الله","publishedAt":"2020-11-28T18:52:51Z","duration":"PT4M27S","thumbnail":"https://i.ytimg.com/vi/e7K9FRvlI_Y/mqdefault.jpg","viewCount":"13322","playlistId":"PLEkQk5xrP-tm8ZIu74nTOZN9KJUJu416J","playlistName":"مقاطع مُهمَّة (يُسريَّات) أ.د. يسري جبر","category":"متنوع"},{"id":"BDr0PAj_rVo","title":"أحكام الرضاعة","publishedAt":"2020-11-27T17:50:18Z","duration":"PT9M12S","thumbnail":"https://i.ytimg.com/vi/BDr0PAj_rVo/mqdefault.jpg","viewCount":"4401","playlistId":"PLEkQk5xrP-tm8ZIu74nTOZN9KJUJu416J","playlistName":"مقاطع مُهمَّة (يُسريَّات) أ.د. يسري جبر","category":"متنوع"},{"id":"RK8mAOrG7kE","title":"كيف تنسب لنفسك شيئا لا تملكه!","publishedAt":"2020-11-26T18:16:45Z","duration":"PT8M10S","thumbnail":"https://i.ytimg.com/vi/RK8mAOrG7kE/mqdefault.jpg","viewCount":"2738","playlistId":"PLEkQk5xrP-tm8ZIu74nTOZN9KJUJu416J","playlistName":"مقاطع مُهمَّة (يُسريَّات) أ.د. يسري جبر","category":"متنوع"}],"total":560,"page":12,"pageSize":24,"totalPages":24}