{"items":[{"id":"6ZAlOj3Dcqo","title":"Ø§Ù„ØªÙˆØ§Ø¶Ø¹","publishedAt":"2020-06-01T16:53:38Z","duration":"PT15M29S","thumbnail":"https://i.ytimg.com/vi/6ZAlOj3Dcqo/mqdefault.jpg","viewCount":"5213","playlistId":"PLEkQk5xrP-tm8ZIu74nTOZN9KJUJu416J","playlistName":"Ù…Ù‚Ø§Ø·Ø¹ Ù…ÙÙ‡Ù…ÙÙ‘Ø© (ÙŠÙØ³Ø±ÙŠÙ‘ÙØ§Øª) Ø£.Ø¯. ÙŠØ³Ø±ÙŠ Ø¬Ø¨Ø±","category":"Ù…ØªÙ†ÙˆØ¹"},{"id":"w5YR4VtWmtI","title":"Ù…Ø§ ÙŠØ¬Ø¯Ù‡ Ø§Ù„Ø³Ø§Ø¦Ø± ÙÙŠ Ø·Ø±ÙŠÙ‚Ù‡ Ø¥Ù„Ù‰ Ø§Ù„Ù„Ù‡","publishedAt":"2020-05-31T16:26:47Z","duration":"PT6M43S","thumbnail":"https://i.ytimg.com/vi/w5YR4VtWmtI/mqdefault.jpg","viewCount":"15967","playlistId":"PLEkQk5xrP-tm8ZIu74nTOZN9KJUJu416J","playlistName":"Ù…Ù‚Ø§Ø·Ø¹ Ù…ÙÙ‡Ù…ÙÙ‘Ø© (ÙŠÙØ³Ø±ÙŠÙ‘ÙØ§Øª) Ø£.Ø¯. ÙŠØ³Ø±ÙŠ Ø¬Ø¨Ø±","category":"Ù…ØªÙ†ÙˆØ¹"},{"id":"EJ0ErvShWlg","title":"Ø§Ù„ØªØµÙˆÙ Ø¨ÙŠÙ† Ø§Ù„Ø¹Ù„Ù… ÙˆØ§Ù„Ø³Ù„ÙˆÙƒ","publishedAt":"2020-05-29T18:49:42Z","duration":"PT9M20S","thumbnail":"https://i.ytimg.com/vi/EJ0ErvShWlg/mqdefault.jpg","viewCount":"4037","playlistId":"PLEkQk5xrP-tm8ZIu74nTOZN9KJUJu416J","playlistName":"Ù…Ù‚Ø§Ø·Ø¹ Ù…ÙÙ‡Ù…ÙÙ‘Ø© (ÙŠÙØ³Ø±ÙŠÙ‘ÙØ§Øª) Ø£.Ø¯. ÙŠØ³Ø±ÙŠ Ø¬Ø¨Ø±","category":"Ù…ØªÙ†ÙˆØ¹"},{"id":"QN3lRL2_sl4","title":"Ø§Ù„ØµÙ„Ø§Ø©Ù Ø¹Ù„Ù‰ Ø§Ù„Ù†Ù‘ÙØ¨ÙÙŠÙ‘ ï·º 100 Ù…Ø±Ø©","publishedAt":"2020-05-26T14:22:52Z","duration":"PT10M3S","thumbnail":"https://i.ytimg.com/vi/QN3lRL2_sl4/mqdefault.jpg","viewCount":"12829","playlistId":"PLEkQk5xrP-tm8ZIu74nTOZN9KJUJu416J","playlistName":"Ù…Ù‚Ø§Ø·Ø¹ Ù…ÙÙ‡Ù…ÙÙ‘Ø© (ÙŠÙØ³Ø±ÙŠÙ‘ÙØ§Øª) Ø£.Ø¯. ÙŠØ³Ø±ÙŠ Ø¬Ø¨Ø±","category":"Ù…ØªÙ†ÙˆØ¹"},{"id":"-kD6fHiKv_4","title":"ÙØ¶Ù„ Ø§Ù„Ø¹Ø´Ø± Ø§Ù„Ø£ÙˆØ§Ø®Ø± Ù…Ù† Ø±Ù…Ø¶Ø§Ù† ÙˆÙ…ÙˆØ¹Ø¯ Ù„ÙŠÙ„Ø© Ø§Ù„Ù‚Ø¯Ø± Ø¨Ù†Ø³Ø¨Ø© ÙƒØ¨ÙŠØ±Ø©! ğŸ¤²ğŸŒ™","publishedAt":"2025-03-20T19:00:00Z","duration":"PT15M12S","thumbnail":"https://i.ytimg.com/vi/-kD6fHiKv_4/mqdefault.jpg","viewCount":"13721","playlistId":"PLEkQk5xrP-tm8ZIu74nTOZN9KJUJu416J","playlistName":"Ù…Ù‚Ø§Ø·Ø¹ Ù…ÙÙ‡Ù…ÙÙ‘Ø© (ÙŠÙØ³Ø±ÙŠÙ‘ÙØ§Øª) Ø£.Ø¯. ÙŠØ³Ø±ÙŠ Ø¬Ø¨Ø±","category":"Ù…ØªÙ†ÙˆØ¹"},{"id":"BLYT_LxZ6Tc","title":"3 Ø¹Ø¨Ø§Ø¯Ø§Øª ØªØ¶Ù…Ù† Ù„Ùƒ Ø§Ù„Ø¬Ù†Ø©","publishedAt":"2025-03-17T19:00:12Z","duration":"PT8M16S","thumbnail":"https://i.ytimg.com/vi/BLYT_LxZ6Tc/mqdefault.jpg","viewCount":"2389","playlistId":"PLEkQk5xrP-tm8ZIu74nTOZN9KJUJu416J","playlistName":"Ù…Ù‚Ø§Ø·Ø¹ Ù…ÙÙ‡Ù…ÙÙ‘Ø© (ÙŠÙØ³Ø±ÙŠÙ‘ÙØ§Øª) Ø£.Ø¯. ÙŠØ³Ø±ÙŠ Ø¬Ø¨Ø±","category":"Ù…ØªÙ†ÙˆØ¹"},{"id":"b2M0ADuF9ak","title":"Ù‡Ù„ ØªØ±Ùƒ Ø§Ù„Ø³ÙŠØ¯ Ø§Ù„Ø¨Ø¯ÙˆÙŠ Ø§Ù„ØµÙ„Ø§Ø©ØŸ","publishedAt":"2025-10-25T19:25:18Z","duration":"PT8M3S","thumbnail":"https://i.ytimg.com/vi/b2M0ADuF9ak/mqdefault.jpg","viewCount":"9643","playlistId":"PLEkQk5xrP-tm8ZIu74nTOZN9KJUJu416J","playlistName":"Ù…Ù‚Ø§Ø·Ø¹ Ù…ÙÙ‡Ù…ÙÙ‘Ø© (ÙŠÙØ³Ø±ÙŠÙ‘ÙØ§Øª) Ø£.Ø¯. ÙŠØ³Ø±ÙŠ Ø¬Ø¨Ø±","category":"Ù…ØªÙ†ÙˆØ¹"},{"id":"JyV-JnoqbJU","title":"ÙƒÙŠÙ ØªØªØ¹Ø±Ù Ø¹Ù„Ù‰ Ø®ØµØ§Ø¦Øµ ÙˆÙƒÙ…Ø§Ù„Ø§Øª Ø§Ù„Ù†Ø¨ÙŠ ï·ºØŸ","publishedAt":"2025-10-24T17:00:25Z","duration":"PT23M40S","thumbnail":"https://i.ytimg.com/vi/JyV-JnoqbJU/mqdefault.jpg","viewCount":"1840","playlistId":"PLEkQk5xrP-tm8ZIu74nTOZN9KJUJu416J","playlistName":"Ù…Ù‚Ø§Ø·Ø¹ Ù…ÙÙ‡Ù…ÙÙ‘Ø© (ÙŠÙØ³Ø±ÙŠÙ‘ÙØ§Øª) Ø£.Ø¯. ÙŠØ³Ø±ÙŠ Ø¬Ø¨Ø±","category":"Ù…ØªÙ†ÙˆØ¹"},{"id":"0xvKxu6V9Es","title":"ÙƒÙŠÙ ØªØµØ¨Ø± Ø¹Ù„Ù‰ Ø§Ù„Ø¨Ù„Ø§Ø¡ ÙƒÙ…Ø§ ØµØ¨Ø± Ø¢Ù„ Ø§Ù„Ø¨ÙŠØªØŸ","publishedAt":"2025-10-21T18:45:54Z","duration":"PT16M13S","thumbnail":"https://i.ytimg.com/vi/0xvKxu6V9Es/mqdefault.jpg","viewCount":"2577","playlistId":"PLEkQk5xrP-tm8ZIu74nTOZN9KJUJu416J","playlistName":"Ù…Ù‚Ø§Ø·Ø¹ Ù…ÙÙ‡Ù…ÙÙ‘Ø© (ÙŠÙØ³Ø±ÙŠÙ‘ÙØ§Øª) Ø£.Ø¯. ÙŠØ³Ø±ÙŠ Ø¬Ø¨Ø±","category":"Ù…ØªÙ†ÙˆØ¹"},{"id":"yjvPI50k5do","title":"Ù…Ø§ Ù‡ÙŠ ØµÙØ§Øª Ø§Ù„Ø£ÙˆÙ„ÙŠØ§Ø¡ ÙˆÙ…Ø§ ÙØ¶Ù„ Ø²ÙŠØ§Ø±Ø© Ù…Ù‚Ø§Ù…ØªÙ‡Ù…ØŸ","publishedAt":"2025-10-17T18:34:59Z","duration":"PT21M9S","thumbnail":"https://i.ytimg.com/vi/yjvPI50k5do/mqdefault.jpg","viewCount":"8378","playlistId":"PLEkQk5xrP-tm8ZIu74nTOZN9KJUJu416J","playlistName":"Ù…Ù‚Ø§Ø·Ø¹ Ù…ÙÙ‡Ù…ÙÙ‘Ø© (ÙŠÙØ³Ø±ÙŠÙ‘ÙØ§Øª) Ø£.Ø¯. ÙŠØ³Ø±ÙŠ Ø¬Ø¨Ø±","category":"Ù…ØªÙ†ÙˆØ¹"},{"id":"h2tgBh9ulmk","title":"Ù‡Ù„ Ø±Ø¤ÙŠØ© Ø§Ù„Ù†Ø¨ÙŠ ï·º ÙÙŠ Ø§Ù„Ù…Ù†Ø§Ù… Ø¯Ù„ÙŠÙ„ Ø¹Ù„Ù‰ Ø§Ù„ÙˆÙ„Ø§ÙŠØ©ØŸØŸ","publishedAt":"2020-12-29T18:15:46Z","duration":"PT10M4S","thumbnail":"https://i.ytimg.com/vi/h2tgBh9ulmk/mqdefault.jpg","viewCount":"105620","playlistId":"PLEkQk5xrP-tm8ZIu74nTOZN9KJUJu416J","playlistName":"Ù…Ù‚Ø§Ø·Ø¹ Ù…ÙÙ‡Ù…ÙÙ‘Ø© (ÙŠÙØ³Ø±ÙŠÙ‘ÙØ§Øª) Ø£.Ø¯. ÙŠØ³Ø±ÙŠ Ø¬Ø¨Ø±","category":"Ù…ØªÙ†ÙˆØ¹"},{"id":"wu5-JMDGU5s","title":"Ø­ÙƒÙ… ØªÙ‡Ù†Ø¦Ø© Ø¥Ø®ÙˆØ§Ù†Ù†Ø§ Ø§Ù„Ù…Ø³ÙŠØ­ÙŠÙŠÙ† Ø¨Ø£Ø¹ÙŠØ§Ø¯Ù‡Ù…","publishedAt":"2020-12-27T19:22:09Z","duration":"PT10M50S","thumbnail":"https://i.ytimg.com/vi/wu5-JMDGU5s/mqdefault.jpg","viewCount":"20484","playlistId":"PLEkQk5xrP-tm8ZIu74nTOZN9KJUJu416J","playlistName":"Ù…Ù‚Ø§Ø·Ø¹ Ù…ÙÙ‡Ù…ÙÙ‘Ø© (ÙŠÙØ³Ø±ÙŠÙ‘ÙØ§Øª) Ø£.Ø¯. ÙŠØ³Ø±ÙŠ Ø¬Ø¨Ø±","category":"Ù…ØªÙ†ÙˆØ¹"},{"id":"dLAge3TdIOA","title":"Ø§Ù„Ø¹Ù„Ù… Ø¨Ø§Ù„Ù†Ù‘ÙØ¨ÙŠÙ‘ ï·º","publishedAt":"2020-12-25T19:07:39Z","duration":"PT10M12S","thumbnail":"https://i.ytimg.com/vi/dLAge3TdIOA/mqdefault.jpg","viewCount":"5343","playlistId":"PLEkQk5xrP-tm8ZIu74nTOZN9KJUJu416J","playlistName":"Ù…Ù‚Ø§Ø·Ø¹ Ù…ÙÙ‡Ù…ÙÙ‘Ø© (ÙŠÙØ³Ø±ÙŠÙ‘ÙØ§Øª) Ø£.Ø¯. ÙŠØ³Ø±ÙŠ Ø¬Ø¨Ø±","category":"Ù…ØªÙ†ÙˆØ¹"},{"id":"Mo7k-9_JDQQ","title":"Ù…Ø§ Ù‡Ùˆ Ø§Ù„ØªØµÙˆÙØŸ","publishedAt":"2020-12-23T17:45:00Z","duration":"PT11M59S","thumbnail":"https://i.ytimg.com/vi/Mo7k-9_JDQQ/mqdefault.jpg","viewCount":"5665","playlistId":"PLEkQk5xrP-tm8ZIu74nTOZN9KJUJu416J","playlistName":"Ù…Ù‚Ø§Ø·Ø¹ Ù…ÙÙ‡Ù…ÙÙ‘Ø© (ÙŠÙØ³Ø±ÙŠÙ‘ÙØ§Øª) Ø£.Ø¯. ÙŠØ³Ø±ÙŠ Ø¬Ø¨Ø±","category":"Ù…ØªÙ†ÙˆØ¹"},{"id":"wC-rrnchtBo","title":"Ù…Ø¹Ù†Ù‰ Ù…Ø¯Ø¯ ÙŠØ§ Ù…ÙˆÙ„Ø§Ù†Ø§ ÙŠØ§Ø­Ø³ÙŠÙ†ØŸ","publishedAt":"2020-12-22T18:32:54Z","duration":"PT11M17S","thumbnail":"https://i.ytimg.com/vi/wC-rrnchtBo/mqdefault.jpg","viewCount":"85818","playlistId":"PLEkQk5xrP-tm8ZIu74nTOZN9KJUJu416J","playlistName":"Ù…Ù‚Ø§Ø·Ø¹ Ù…ÙÙ‡Ù…ÙÙ‘Ø© (ÙŠÙØ³Ø±ÙŠÙ‘ÙØ§Øª) Ø£.Ø¯. ÙŠØ³Ø±ÙŠ Ø¬Ø¨Ø±","category":"Ù…ØªÙ†ÙˆØ¹"},{"id":"bK9o9t_OuiI","title":"Ù…ÙÙ†Ù Ø§Ù„ÙÙÙˆØ§Ø¦ÙØ¯Ù Ø§Ù„ÙŠÙØ³Ù’Ø±ÙÙŠÙ‘ÙØ©Ù  (Ù‚ÙÙ„Ù‘Ù Ù…ÙÙ† Ù†Ø¨Ù‘ÙÙ‡Ù Ø¹ÙÙ„ÙŠÙ‡ÙØ§ )","publishedAt":"2015-03-19T19:30:37Z","duration":"PT2M23S","thumbnail":"https://i.ytimg.com/vi/bK9o9t_OuiI/mqdefault.jpg","viewCount":"1494","playlistId":"PLEkQk5xrP-tm8ZIu74nTOZN9KJUJu416J","playlistName":"Ù…Ù‚Ø§Ø·Ø¹ Ù…ÙÙ‡Ù…ÙÙ‘Ø© (ÙŠÙØ³Ø±ÙŠÙ‘ÙØ§Øª) Ø£.Ø¯. ÙŠØ³Ø±ÙŠ Ø¬Ø¨Ø±","category":"Ù…ØªÙ†ÙˆØ¹"},{"id":"efkpSUwxdL4","title":"Ø§Ù„Ø­ÙØ¨Ù‘Ù ÙŠÙØ¯Ù’ÙÙØ¹ÙÙƒÙ Ø¥ÙÙ„ÙÙ‰ Ø²ÙÙŠÙØ§Ø±ÙØ©Ù Ø§Ù„Ù†Ù‘ÙØ¨ÙÙ‰Ù‘Ù ØµÙÙ„Ù‘ÙÙ‰ Ø§Ù„Ù„Ù‡Ù Ø¹ÙÙ„ÙÙŠÙ‡Ù ÙˆÙØ¢Ù„ÙÙ‡Ù ÙˆØ³Ù„Ù‘ÙÙ… - Ø¯. ÙŠØ³Ø±ÙŠ Ø¬Ø¨Ø±","publishedAt":"2015-03-12T16:20:03Z","duration":"PT5M12S","thumbnail":"https://i.ytimg.com/vi/efkpSUwxdL4/mqdefault.jpg","viewCount":"9906","playlistId":"PLEkQk5xrP-tm8ZIu74nTOZN9KJUJu416J","playlistName":"Ù…Ù‚Ø§Ø·Ø¹ Ù…ÙÙ‡Ù…ÙÙ‘Ø© (ÙŠÙØ³Ø±ÙŠÙ‘ÙØ§Øª) Ø£.Ø¯. ÙŠØ³Ø±ÙŠ Ø¬Ø¨Ø±","category":"Ù…ØªÙ†ÙˆØ¹"},{"id":"2SjtW_v-vBw","title":"Ø§Ù„Ø¬Ù…Ø¹ Ø¨ÙŠÙ† Ø­Ø¯ÙŠØ« (Ø¹Ø±Ø¶ Ø§Ù„Ø£Ø¹Ù…Ø§Ù„ ÙˆØ­Ø¯ÙŠØ« Ø£ÙˆÙ„Ø§ ØªØ¯Ø±ÙŠ Ù…Ø§ Ø£Ø­Ø¯Ø«ÙˆØ§ Ø¨Ø¹Ø¯Ùƒ) Ù…ÙˆÙ„Ø§Ù†Ø§ Ø¯. ÙŠØ³Ø±ÙŠ Ø¬Ø¨Ø±","publishedAt":"2014-12-06T08:10:18Z","duration":"PT4M35S","thumbnail":"https://i.ytimg.com/vi/2SjtW_v-vBw/mqdefault.jpg","viewCount":"2532","playlistId":"PLEkQk5xrP-tm8ZIu74nTOZN9KJUJu416J","playlistName":"Ù…Ù‚Ø§Ø·Ø¹ Ù…ÙÙ‡Ù…ÙÙ‘Ø© (ÙŠÙØ³Ø±ÙŠÙ‘ÙØ§Øª) Ø£.Ø¯. ÙŠØ³Ø±ÙŠ Ø¬Ø¨Ø±","category":"Ù…ØªÙ†ÙˆØ¹"},{"id":"X3P9KsY4ffs","title":"Ù‡Ù„ ÙŠØ¬ÙˆØ² Ø¥Ø³Ù‚Ø§Ø· Ø§Ù„Ø¬Ù†ÙŠÙ† Ø¨Ø³Ø¨Ø¨ Ù…Ø±Ø¶Ù‡ØŸ","publishedAt":"2022-07-09T18:00:10Z","duration":"PT9M6S","thumbnail":"https://i.ytimg.com/vi/X3P9KsY4ffs/mqdefault.jpg","viewCount":"4684","playlistId":"PLEkQk5xrP-tm8ZIu74nTOZN9KJUJu416J","playlistName":"Ù…Ù‚Ø§Ø·Ø¹ Ù…ÙÙ‡Ù…ÙÙ‘Ø© (ÙŠÙØ³Ø±ÙŠÙ‘ÙØ§Øª) Ø£.Ø¯. ÙŠØ³Ø±ÙŠ Ø¬Ø¨Ø±","category":"Ù…ØªÙ†ÙˆØ¹"},{"id":"7Rk05HRFRK0","title":"Ù…Ø§ Ù‡ÙŠ Ø´Ø±ÙˆØ· Ø§Ù„Ø£Ø¶Ø­ÙŠØ©ØŸ","publishedAt":"2022-07-08T19:30:01Z","duration":"PT9M9S","thumbnail":"https://i.ytimg.com/vi/7Rk05HRFRK0/mqdefault.jpg","viewCount":"2878","playlistId":"PLEkQk5xrP-tm8ZIu74nTOZN9KJUJu416J","playlistName":"Ù…Ù‚Ø§Ø·Ø¹ Ù…ÙÙ‡Ù…ÙÙ‘Ø© (ÙŠÙØ³Ø±ÙŠÙ‘ÙØ§Øª) Ø£.Ø¯. ÙŠØ³Ø±ÙŠ Ø¬Ø¨Ø±","category":"Ù…ØªÙ†ÙˆØ¹"},{"id":"NLdReIqGXj0","title":"Ù…Ø§ Ù‡ÙŠ Ø£ÙØ¶Ù„ ØµÙŠØºØ© Ù„Ù„ØµÙ„Ø§Ø© Ø¹Ù„Ù‰ Ø§Ù„Ù†Ø¨ÙŠ ï·ºØŸ","publishedAt":"2025-11-11T18:30:22Z","duration":"PT8M5S","thumbnail":"https://i.ytimg.com/vi/NLdReIqGXj0/mqdefault.jpg","viewCount":"13390","playlistId":"PLEkQk5xrP-tm8ZIu74nTOZN9KJUJu416J","playlistName":"Ù…Ù‚Ø§Ø·Ø¹ Ù…ÙÙ‡Ù…ÙÙ‘Ø© (ÙŠÙØ³Ø±ÙŠÙ‘ÙØ§Øª) Ø£.Ø¯. ÙŠØ³Ø±ÙŠ Ø¬Ø¨Ø±","category":"Ù…ØªÙ†ÙˆØ¹"},{"id":"XTgah0TfI6k","title":"ÙƒÙŠÙ ØªØ¹Ø±Ù Ø£Ù†Ùƒ ØªØ±Ù‚ÙŠØª ÙÙŠ Ø·Ø±ÙŠÙ‚ Ø§Ù„ØªØµÙˆÙØŸ","publishedAt":"2025-11-10T19:30:06Z","duration":"PT38M5S","thumbnail":"https://i.ytimg.com/vi/XTgah0TfI6k/mqdefault.jpg","viewCount":"3908","playlistId":"PLEkQk5xrP-tm8ZIu74nTOZN9KJUJu416J","playlistName":"Ù…Ù‚Ø§Ø·Ø¹ Ù…ÙÙ‡Ù…ÙÙ‘Ø© (ÙŠÙØ³Ø±ÙŠÙ‘ÙØ§Øª) Ø£.Ø¯. ÙŠØ³Ø±ÙŠ Ø¬Ø¨Ø±","category":"Ù…ØªÙ†ÙˆØ¹"},{"id":"AgZucIKsTbQ","title":"Ø´Ø±Ø­ ÙƒØ§Ù…Ù„ Ù„Ù…Ø¹Ø¬Ø²Ø§Øª ÙˆØ´Ù…Ø§Ø¦Ù„ Ø§Ù„Ù†Ø¨ÙŠ ï·º","publishedAt":"2025-11-09T20:15:00Z","duration":"PT20M57S","thumbnail":"https://i.ytimg.com/vi/AgZucIKsTbQ/mqdefault.jpg","viewCount":"2253","playlistId":"PLEkQk5xrP-tm8ZIu74nTOZN9KJUJu416J","playlistName":"Ù…Ù‚Ø§Ø·Ø¹ Ù…ÙÙ‡Ù…ÙÙ‘Ø© (ÙŠÙØ³Ø±ÙŠÙ‘ÙØ§Øª) Ø£.Ø¯. ÙŠØ³Ø±ÙŠ Ø¬Ø¨Ø±","category":"Ù…ØªÙ†ÙˆØ¹"},{"id":"datzEoo9P64","title":"ÙØ¶Ù„ ÙˆÙƒÙ†ÙˆØ² Ø§Ù„ØµÙ„Ø§Ø© Ø¹Ù„Ù‰ Ø§Ù„Ù†Ø¨ÙŠ ï·º","publishedAt":"2025-11-08T17:01:05Z","duration":"PT28M54S","thumbnail":"https://i.ytimg.com/vi/datzEoo9P64/mqdefault.jpg","viewCount":"10131","playlistId":"PLEkQk5xrP-tm8ZIu74nTOZN9KJUJu416J","playlistName":"Ù…Ù‚Ø§Ø·Ø¹ Ù…ÙÙ‡Ù…ÙÙ‘Ø© (ÙŠÙØ³Ø±ÙŠÙ‘ÙØ§Øª) Ø£.Ø¯. ÙŠØ³Ø±ÙŠ Ø¬Ø¨Ø±","category":"Ù…ØªÙ†ÙˆØ¹"}],"total":560,"page":9,"pageSize":24,"totalPages":24}