{"items":[{"id":"IJFBj4cQyZU","title":"Ù…Ø¬Ù„Ø³ Ù…Ø±ÙƒØ² ÙƒØ§Ù…Ø¨Ø±ÙŠØ¯Ø¬ Ø§Ù„Ù‚Ø±Ø¢Ù†ÙŠ | Ø§Ù†Ø¬Ù„ØªØ±Ø§ğŸ“","publishedAt":"2025-05-31T18:17:55Z","duration":"PT21M36S","thumbnail":"https://i.ytimg.com/vi/IJFBj4cQyZU/mqdefault.jpg","viewCount":"2507","playlistId":"PLEkQk5xrP-tm8ZIu74nTOZN9KJUJu416J","playlistName":"Ù…Ù‚Ø§Ø·Ø¹ Ù…ÙÙ‡Ù…ÙÙ‘Ø© (ÙŠÙØ³Ø±ÙŠÙ‘ÙØ§Øª) Ø£.Ø¯. ÙŠØ³Ø±ÙŠ Ø¬Ø¨Ø±","category":"Ù…ØªÙ†ÙˆØ¹"},{"id":"-6wXTmNvwj8","title":"Ù‚ØµØ© Ø§Ù„Ø¨Ø±Ø¯Ø© ÙˆÙØ¶Ø§Ø¦Ù„Ù‡Ø§ ÙˆÙƒØ±Ø§Ù…ØªÙ‡Ø§ | Ù„Ù†Ø¯Ù†ğŸ“","publishedAt":"2025-05-29T19:15:14Z","duration":"PT16M33S","thumbnail":"https://i.ytimg.com/vi/-6wXTmNvwj8/mqdefault.jpg","viewCount":"6190","playlistId":"PLEkQk5xrP-tm8ZIu74nTOZN9KJUJu416J","playlistName":"Ù…Ù‚Ø§Ø·Ø¹ Ù…ÙÙ‡Ù…ÙÙ‘Ø© (ÙŠÙØ³Ø±ÙŠÙ‘ÙØ§Øª) Ø£.Ø¯. ÙŠØ³Ø±ÙŠ Ø¬Ø¨Ø±","category":"Ù…ØªÙ†ÙˆØ¹"},{"id":"gM6XmKdZLHo","title":"ÙƒÙŠÙ ØªØ­ÙØ¸ Ù‚Ù„Ø¨Ùƒ Ù…Ù† Ø´Ø¨Ù‡Ø§Øª Ø§Ù„Ø¹Ù‚ÙŠØ¯Ø©ØŸ","publishedAt":"2025-10-29T20:00:49Z","duration":"PT27M48S","thumbnail":"https://i.ytimg.com/vi/gM6XmKdZLHo/mqdefault.jpg","viewCount":"3176","playlistId":"PLEkQk5xrP-tm8ZIu74nTOZN9KJUJu416J","playlistName":"Ù…Ù‚Ø§Ø·Ø¹ Ù…ÙÙ‡Ù…ÙÙ‘Ø© (ÙŠÙØ³Ø±ÙŠÙ‘ÙØ§Øª) Ø£.Ø¯. ÙŠØ³Ø±ÙŠ Ø¬Ø¨Ø±","category":"Ù…ØªÙ†ÙˆØ¹"},{"id":"pt9RKWnDUvc","title":"Ø§Ù„Ø­Ù…Ø¯Ù Ù„Ù„Ù‡Ù Ø£Ù†ÙØ§ Ø¨ÙƒÙ ÙˆÙØ¥Ù„ÙŠÙƒÙ  Ø£.Ø¯ ÙŠØ³Ø±ÙŠ Ø¬Ø¨Ø±","publishedAt":"2016-07-11T20:56:28Z","duration":"PT1M32S","thumbnail":"https://i.ytimg.com/vi/pt9RKWnDUvc/mqdefault.jpg","viewCount":"1506","playlistId":"PLEkQk5xrP-tm8ZIu74nTOZN9KJUJu416J","playlistName":"Ù…Ù‚Ø§Ø·Ø¹ Ù…ÙÙ‡Ù…ÙÙ‘Ø© (ÙŠÙØ³Ø±ÙŠÙ‘ÙØ§Øª) Ø£.Ø¯. ÙŠØ³Ø±ÙŠ Ø¬Ø¨Ø±","category":"Ù…ØªÙ†ÙˆØ¹"},{"id":"C-jjE-3oO9U","title":"Ù…ÙÙ†Ù Ø§Ù„ÙÙÙˆÙØ§Ø¦ÙØ¯Ù Ø§Ù„ÙŠÙØ³Ø±ÙÙŠÙ‘ÙØ©Ù Ø­ÙÙˆÙ’Ù„Ù Ù…ÙØ¹Ù’Ù†ÙÙ‰ Ø§Ù„Ø¯ÙÙ‡ÙØ´Ù ÙˆÙØ§Ù„Ù‡ÙÙŠÙÙ…ÙØ§Ù†Ù - Ø¯. ÙŠØ³Ø±ÙŠ Ø¬Ø¨Ø±","publishedAt":"2015-04-28T13:10:27Z","duration":"PT1M4S","thumbnail":"https://i.ytimg.com/vi/C-jjE-3oO9U/mqdefault.jpg","viewCount":"1460","playlistId":"PLEkQk5xrP-tm8ZIu74nTOZN9KJUJu416J","playlistName":"Ù…Ù‚Ø§Ø·Ø¹ Ù…ÙÙ‡Ù…ÙÙ‘Ø© (ÙŠÙØ³Ø±ÙŠÙ‘ÙØ§Øª) Ø£.Ø¯. ÙŠØ³Ø±ÙŠ Ø¬Ø¨Ø±","category":"Ù…ØªÙ†ÙˆØ¹"},{"id":"DNe2ohGlRUo","title":"Ù…Ø§ Ù…Ø¹Ù†Ù‰ ÙƒÙ„Ù…Ø© Ù…Ø¯Ø¯ ÙˆØºÙˆØ«ØŸ","publishedAt":"2015-04-25T19:31:25Z","duration":"PT13M56S","thumbnail":"https://i.ytimg.com/vi/DNe2ohGlRUo/mqdefault.jpg","viewCount":"59333","playlistId":"PLEkQk5xrP-tm8ZIu74nTOZN9KJUJu416J","playlistName":"Ù…Ù‚Ø§Ø·Ø¹ Ù…ÙÙ‡Ù…ÙÙ‘Ø© (ÙŠÙØ³Ø±ÙŠÙ‘ÙØ§Øª) Ø£.Ø¯. ÙŠØ³Ø±ÙŠ Ø¬Ø¨Ø±","category":"Ù…ØªÙ†ÙˆØ¹"},{"id":"r_X8AIUg7iw","title":"Ø§Ù„Ø§Ø­ØªÙØ§Ù„ Ø¨Ø®ØªØ§Ù… Ø±Ø¨ÙŠØ¹ Ø§Ù„Ø£Ù†ÙˆØ± ÙˆÙƒÙ„Ù…Ø© Ø¥Ù…Ø§Ù… Ù…Ø³Ø¬Ø¯ Ø³ÙŠØ¯Ù†Ø§ Ø§Ù„Ø­Ø³ÙŠÙ† Ø±Ø¶ÙŠ Ø§Ù„Ù„Ù‡ Ø¹Ù†Ù‡","publishedAt":"2021-11-09T21:06:30Z","duration":"PT23M25S","thumbnail":"https://i.ytimg.com/vi/r_X8AIUg7iw/mqdefault.jpg","viewCount":"2389","playlistId":"PLEkQk5xrP-tm8ZIu74nTOZN9KJUJu416J","playlistName":"Ù…Ù‚Ø§Ø·Ø¹ Ù…ÙÙ‡Ù…ÙÙ‘Ø© (ÙŠÙØ³Ø±ÙŠÙ‘ÙØ§Øª) Ø£.Ø¯. ÙŠØ³Ø±ÙŠ Ø¬Ø¨Ø±","category":"Ù…ØªÙ†ÙˆØ¹"},{"id":"YbDIkHPa_4M","title":"Ø´Ø±Ø­ Ø§Ù„ØµÙ„Ø§Ø© Ø§Ù„Ù†ÙˆØ±Ø§Ù†ÙŠØ© Ù„Ø³ÙŠØ¯ÙŠ Ø£Ø­Ù…Ø¯ Ø§Ù„Ø¨Ø¯ÙˆÙŠ Ø±Ø¶ÙŠ Ø§Ù„Ù„Ù‡ Ø¹Ù†Ù‡  Ø£.Ø¯. ÙŠØ³Ø±ÙŠ Ø¬Ø¨Ø±","publishedAt":"2019-09-08T17:44:30Z","duration":"PT18M1S","thumbnail":"https://i.ytimg.com/vi/YbDIkHPa_4M/mqdefault.jpg","viewCount":"56841","playlistId":"PLEkQk5xrP-tm8ZIu74nTOZN9KJUJu416J","playlistName":"Ù…Ù‚Ø§Ø·Ø¹ Ù…ÙÙ‡Ù…ÙÙ‘Ø© (ÙŠÙØ³Ø±ÙŠÙ‘ÙØ§Øª) Ø£.Ø¯. ÙŠØ³Ø±ÙŠ Ø¬Ø¨Ø±","category":"Ù…ØªÙ†ÙˆØ¹"},{"id":"B_MEA3mC5Qc","title":"Ø¨Ø°ÙƒØ±Ù‰ Ø§Ù„Ù…ÙˆÙ„Ø¯ Ù†Ø­ÙŠØ§","publishedAt":"2025-08-25T18:15:15Z","duration":"PT19M49S","thumbnail":"https://i.ytimg.com/vi/B_MEA3mC5Qc/mqdefault.jpg","viewCount":"7684","playlistId":"PLEkQk5xrP-tm8ZIu74nTOZN9KJUJu416J","playlistName":"Ù…Ù‚Ø§Ø·Ø¹ Ù…ÙÙ‡Ù…ÙÙ‘Ø© (ÙŠÙØ³Ø±ÙŠÙ‘ÙØ§Øª) Ø£.Ø¯. ÙŠØ³Ø±ÙŠ Ø¬Ø¨Ø±","category":"Ù…ØªÙ†ÙˆØ¹"},{"id":"kLEvrx3sWvQ","title":"Ù…Ù† Ù‡Ù… Ø§Ù„Ø£Ø´Ø§Ø¹Ø±Ø© ÙˆÙ…Ø§ Ù‡ÙŠ Ø§Ù„Ø¹Ù‚ÙŠØ¯Ø© Ø§Ù„Ø£Ø´Ø¹Ø±ÙŠØ© Ø§Ù„ØµØ­ÙŠØ­Ø©ØŸ","publishedAt":"2025-08-18T19:00:47Z","duration":"PT11M10S","thumbnail":"https://i.ytimg.com/vi/kLEvrx3sWvQ/mqdefault.jpg","viewCount":"6851","playlistId":"PLEkQk5xrP-tm8ZIu74nTOZN9KJUJu416J","playlistName":"Ù…Ù‚Ø§Ø·Ø¹ Ù…ÙÙ‡Ù…ÙÙ‘Ø© (ÙŠÙØ³Ø±ÙŠÙ‘ÙØ§Øª) Ø£.Ø¯. ÙŠØ³Ø±ÙŠ Ø¬Ø¨Ø±","category":"Ù…ØªÙ†ÙˆØ¹"},{"id":"lWTAr-wyemc","title":"Ø¥Ø°Ø§ Ø§Ù†ÙÙƒÙ‘ÙØª Ø§Ù„Ø¬Ù‡Ø© Ø§Ø±ØªÙØ¹ Ø§Ù„Ø®Ù„Ø§Ù","publishedAt":"2020-06-13T17:01:31Z","duration":"PT8M40S","thumbnail":"https://i.ytimg.com/vi/lWTAr-wyemc/mqdefault.jpg","viewCount":"1856","playlistId":"PLEkQk5xrP-tm8ZIu74nTOZN9KJUJu416J","playlistName":"Ù…Ù‚Ø§Ø·Ø¹ Ù…ÙÙ‡Ù…ÙÙ‘Ø© (ÙŠÙØ³Ø±ÙŠÙ‘ÙØ§Øª) Ø£.Ø¯. ÙŠØ³Ø±ÙŠ Ø¬Ø¨Ø±","category":"Ù…ØªÙ†ÙˆØ¹"},{"id":"-WAmZ3WTEQE","title":"Ø§Ù„Ø­Ø¨Ø© Ø§Ù„Ø³ÙˆØ¯Ø§Ø¡ Ø´ÙØ§Ø¡ Ù…Ù† ÙƒÙ„ Ø¯Ø§Ø¡","publishedAt":"2020-06-11T21:14:11Z","duration":"PT12M18S","thumbnail":"https://i.ytimg.com/vi/-WAmZ3WTEQE/mqdefault.jpg","viewCount":"5461","playlistId":"PLEkQk5xrP-tm8ZIu74nTOZN9KJUJu416J","playlistName":"Ù…Ù‚Ø§Ø·Ø¹ Ù…ÙÙ‡Ù…ÙÙ‘Ø© (ÙŠÙØ³Ø±ÙŠÙ‘ÙØ§Øª) Ø£.Ø¯. ÙŠØ³Ø±ÙŠ Ø¬Ø¨Ø±","category":"Ù…ØªÙ†ÙˆØ¹"},{"id":"AWk6HJgyQmM","title":"ÙƒÙŠÙ ØªØ®ØªÙ… Ø§Ù„Ù‚Ø±Ø¢Ù† ÙˆÙ„Ø§ ØªÙ†Ø³Ø§Ù‡ØŸ","publishedAt":"2020-06-10T16:10:59Z","duration":"PT3M17S","thumbnail":"https://i.ytimg.com/vi/AWk6HJgyQmM/mqdefault.jpg","viewCount":"14641","playlistId":"PLEkQk5xrP-tm8ZIu74nTOZN9KJUJu416J","playlistName":"Ù…Ù‚Ø§Ø·Ø¹ Ù…ÙÙ‡Ù…ÙÙ‘Ø© (ÙŠÙØ³Ø±ÙŠÙ‘ÙØ§Øª) Ø£.Ø¯. ÙŠØ³Ø±ÙŠ Ø¬Ø¨Ø±","category":"Ù…ØªÙ†ÙˆØ¹"},{"id":"pvuFOXGKzTM","title":"Ø¹Ù„Ù…Ù Ø§Ù„ÙŠÙ‚ÙŠÙ† ÙˆØ¹ÙŠÙ†Ù Ø§Ù„ÙŠÙ‚ÙŠÙ†","publishedAt":"2020-06-08T18:59:40Z","duration":"PT5M3S","thumbnail":"https://i.ytimg.com/vi/pvuFOXGKzTM/mqdefault.jpg","viewCount":"2807","playlistId":"PLEkQk5xrP-tm8ZIu74nTOZN9KJUJu416J","playlistName":"Ù…Ù‚Ø§Ø·Ø¹ Ù…ÙÙ‡Ù…ÙÙ‘Ø© (ÙŠÙØ³Ø±ÙŠÙ‘ÙØ§Øª) Ø£.Ø¯. ÙŠØ³Ø±ÙŠ Ø¬Ø¨Ø±","category":"Ù…ØªÙ†ÙˆØ¹"},{"id":"b_dex_oduI8","title":"Ø´ÙØ¯Ù‘ÙØ©Ù Ø§Ù„Ù…Ø±Ø¶","publishedAt":"2020-06-07T17:53:57Z","duration":"PT5M56S","thumbnail":"https://i.ytimg.com/vi/b_dex_oduI8/mqdefault.jpg","viewCount":"2218","playlistId":"PLEkQk5xrP-tm8ZIu74nTOZN9KJUJu416J","playlistName":"Ù…Ù‚Ø§Ø·Ø¹ Ù…ÙÙ‡Ù…ÙÙ‘Ø© (ÙŠÙØ³Ø±ÙŠÙ‘ÙØ§Øª) Ø£.Ø¯. ÙŠØ³Ø±ÙŠ Ø¬Ø¨Ø±","category":"Ù…ØªÙ†ÙˆØ¹"},{"id":"4hecIOB6pwI","title":"Ù…Ø¬ÙŠØ¨ Ù‚Ø¨Ù„ Ø§Ù„Ø·Ù„Ø¨ Ù…ÙØ¶Ø§Ù„ Ø¨Ù„Ø§ Ø³Ø¨Ø¨","publishedAt":"2020-06-06T16:19:03Z","duration":"PT8M39S","thumbnail":"https://i.ytimg.com/vi/4hecIOB6pwI/mqdefault.jpg","viewCount":"4551","playlistId":"PLEkQk5xrP-tm8ZIu74nTOZN9KJUJu416J","playlistName":"Ù…Ù‚Ø§Ø·Ø¹ Ù…ÙÙ‡Ù…ÙÙ‘Ø© (ÙŠÙØ³Ø±ÙŠÙ‘ÙØ§Øª) Ø£.Ø¯. ÙŠØ³Ø±ÙŠ Ø¬Ø¨Ø±","category":"Ù…ØªÙ†ÙˆØ¹"},{"id":"B2XjrreiNHE","title":"ÙˆÙØ­Ø¯Ø©Ù Ø§Ù„ÙˆÙØ¬ÙˆØ¯ ÙˆÙˆÙØ­Ø¯Ø©Ù Ø§Ù„Ø´ÙÙ‡ÙˆØ¯","publishedAt":"2020-06-05T19:43:56Z","duration":"PT11M40S","thumbnail":"https://i.ytimg.com/vi/B2XjrreiNHE/mqdefault.jpg","viewCount":"23441","playlistId":"PLEkQk5xrP-tm8ZIu74nTOZN9KJUJu416J","playlistName":"Ù…Ù‚Ø§Ø·Ø¹ Ù…ÙÙ‡Ù…ÙÙ‘Ø© (ÙŠÙØ³Ø±ÙŠÙ‘ÙØ§Øª) Ø£.Ø¯. ÙŠØ³Ø±ÙŠ Ø¬Ø¨Ø±","category":"Ù…ØªÙ†ÙˆØ¹"},{"id":"MCyxiJ2B7mQ","title":"Ø§Ù„Ø£Ø­Ø¯ÙŠÙ‘ÙØ© ÙˆØ§Ù„ÙˆØ§Ø­Ø¯ÙŠÙ‘ÙØ©","publishedAt":"2020-06-04T14:48:53Z","duration":"PT20M59S","thumbnail":"https://i.ytimg.com/vi/MCyxiJ2B7mQ/mqdefault.jpg","viewCount":"3381","playlistId":"PLEkQk5xrP-tm8ZIu74nTOZN9KJUJu416J","playlistName":"Ù…Ù‚Ø§Ø·Ø¹ Ù…ÙÙ‡Ù…ÙÙ‘Ø© (ÙŠÙØ³Ø±ÙŠÙ‘ÙØ§Øª) Ø£.Ø¯. ÙŠØ³Ø±ÙŠ Ø¬Ø¨Ø±","category":"Ù…ØªÙ†ÙˆØ¹"},{"id":"R1t_Mg7Z6Xk","title":"Ø«ÙˆØ§Ø¨ Ø§Ù„Ù…Ø±Ø¶ Ø¹Ù†Ø¯ Ø§Ù„Ù„Ù‡","publishedAt":"2020-06-03T16:21:26Z","duration":"PT9M28S","thumbnail":"https://i.ytimg.com/vi/R1t_Mg7Z6Xk/mqdefault.jpg","viewCount":"3730","playlistId":"PLEkQk5xrP-tm8ZIu74nTOZN9KJUJu416J","playlistName":"Ù…Ù‚Ø§Ø·Ø¹ Ù…ÙÙ‡Ù…ÙÙ‘Ø© (ÙŠÙØ³Ø±ÙŠÙ‘ÙØ§Øª) Ø£.Ø¯. ÙŠØ³Ø±ÙŠ Ø¬Ø¨Ø±","category":"Ù…ØªÙ†ÙˆØ¹"},{"id":"bFv0sE0r8yM","title":"Ø­Ø¨ Ø§Ù„Ù†Ø¨ÙŠ ï·º Ø¹Ø¨Ø§Ø¯Ø© ÙŠØªÙˆØ³Ù„ Ø¨Ù‡Ø§ Ø¥Ù„Ù‰ Ø§Ù„Ù„Ù‡","publishedAt":"2020-06-02T17:20:37Z","duration":"PT13M","thumbnail":"https://i.ytimg.com/vi/bFv0sE0r8yM/mqdefault.jpg","viewCount":"6764","playlistId":"PLEkQk5xrP-tm8ZIu74nTOZN9KJUJu416J","playlistName":"Ù…Ù‚Ø§Ø·Ø¹ Ù…ÙÙ‡Ù…ÙÙ‘Ø© (ÙŠÙØ³Ø±ÙŠÙ‘ÙØ§Øª) Ø£.Ø¯. ÙŠØ³Ø±ÙŠ Ø¬Ø¨Ø±","category":"Ù…ØªÙ†ÙˆØ¹"},{"id":"ikwfZQXvG4U","title":"Ù…Ø§ Ù‡ÙŠ Ø£Ù†ÙˆØ§Ø¹ Ø§Ù„Ø­Ø¨ØŸ","publishedAt":"2023-03-29T19:00:27Z","duration":"PT8M20S","thumbnail":"https://i.ytimg.com/vi/ikwfZQXvG4U/mqdefault.jpg","viewCount":"6064","playlistId":"PLEkQk5xrP-tm8ZIu74nTOZN9KJUJu416J","playlistName":"Ù…Ù‚Ø§Ø·Ø¹ Ù…ÙÙ‡Ù…ÙÙ‘Ø© (ÙŠÙØ³Ø±ÙŠÙ‘ÙØ§Øª) Ø£.Ø¯. ÙŠØ³Ø±ÙŠ Ø¬Ø¨Ø±","category":"Ù…ØªÙ†ÙˆØ¹"},{"id":"SmIpGsvOxGA","title":"Ù†ÙˆØ± Ø§Ù„Ù…ØµØ·ÙÙ‰ Ù…Ù„Ø£ Ø§Ù„Ø£ÙƒÙˆØ§Ù†","publishedAt":"2016-07-09T18:46:02Z","duration":"PT13M32S","thumbnail":"https://i.ytimg.com/vi/SmIpGsvOxGA/mqdefault.jpg","viewCount":"12481","playlistId":"PLEkQk5xrP-tm8ZIu74nTOZN9KJUJu416J","playlistName":"Ù…Ù‚Ø§Ø·Ø¹ Ù…ÙÙ‡Ù…ÙÙ‘Ø© (ÙŠÙØ³Ø±ÙŠÙ‘ÙØ§Øª) Ø£.Ø¯. ÙŠØ³Ø±ÙŠ Ø¬Ø¨Ø±","category":"Ù…ØªÙ†ÙˆØ¹"},{"id":"p4P6hqktAOQ","title":"Ø£Ù†Ø§ Ù…Ù† Ø£Ù‡ÙˆÙ‰ ÙˆÙ…Ù† Ø£Ù‡ÙˆÙ‰ Ø£Ù†Ø§","publishedAt":"2016-07-07T12:39:37Z","duration":"PT1M9S","thumbnail":"https://i.ytimg.com/vi/p4P6hqktAOQ/mqdefault.jpg","viewCount":"4142","playlistId":"PLEkQk5xrP-tm8ZIu74nTOZN9KJUJu416J","playlistName":"Ù…Ù‚Ø§Ø·Ø¹ Ù…ÙÙ‡Ù…ÙÙ‘Ø© (ÙŠÙØ³Ø±ÙŠÙ‘ÙØ§Øª) Ø£.Ø¯. ÙŠØ³Ø±ÙŠ Ø¬Ø¨Ø±","category":"Ù…ØªÙ†ÙˆØ¹"},{"id":"k8e0ahrCd10","title":"Ø±Ø¨Ù†Ø§ Ù†Ø¬Ø§Ù†ÙŠ Ù…Ù† Ø§Ù„Ù…ÙˆØª Ø¨ÙØ¶Ù„ Ø­Ø²Ø¨ Ø§Ù„Ø¨Ø­Ø±!","publishedAt":"2022-06-06T19:09:26Z","duration":"PT9M41S","thumbnail":"https://i.ytimg.com/vi/k8e0ahrCd10/mqdefault.jpg","viewCount":"22738","playlistId":"PLEkQk5xrP-tm8ZIu74nTOZN9KJUJu416J","playlistName":"Ù…Ù‚Ø§Ø·Ø¹ Ù…ÙÙ‡Ù…ÙÙ‘Ø© (ÙŠÙØ³Ø±ÙŠÙ‘ÙØ§Øª) Ø£.Ø¯. ÙŠØ³Ø±ÙŠ Ø¬Ø¨Ø±","category":"Ù…ØªÙ†ÙˆØ¹"}],"total":560,"page":2,"pageSize":24,"totalPages":24}