{"items":[{"id":"-WWtH1n4p8k","title":"Ø¨Ø±Ø­Ù…ØªÙƒ Ø£Ø³ØªØºÙŠØ«,, Ù‡Ù„ Ø§Ù„Ù†Ø¨ÙŠ ï·º Ù‡Ùˆ Ø§Ù„Ø±Ø­Ù…Ø©ØŸ","publishedAt":"2021-08-31T16:30:01Z","duration":"PT12M37S","thumbnail":"https://i.ytimg.com/vi/-WWtH1n4p8k/mqdefault.jpg","viewCount":"6876","playlistId":"PLEkQk5xrP-tm8ZIu74nTOZN9KJUJu416J","playlistName":"Ù…Ù‚Ø§Ø·Ø¹ Ù…ÙÙ‡Ù…ÙÙ‘Ø© (ÙŠÙØ³Ø±ÙŠÙ‘ÙØ§Øª) Ø£.Ø¯. ÙŠØ³Ø±ÙŠ Ø¬Ø¨Ø±","category":"Ù…ØªÙ†ÙˆØ¹"},{"id":"Z5QPSibhzwk","title":"Ù…Ø§ Ù…ÙˆÙ‚ÙÙƒ Ù…Ù† Ù…Ø¹Ø§ÙˆÙŠØ© Ø¨Ù† Ø£Ø¨ÙŠ Ø³ÙÙŠØ§Ù†ØŸ","publishedAt":"2021-08-30T19:08:43Z","duration":"PT11M40S","thumbnail":"https://i.ytimg.com/vi/Z5QPSibhzwk/mqdefault.jpg","viewCount":"49050","playlistId":"PLEkQk5xrP-tm8ZIu74nTOZN9KJUJu416J","playlistName":"Ù…Ù‚Ø§Ø·Ø¹ Ù…ÙÙ‡Ù…ÙÙ‘Ø© (ÙŠÙØ³Ø±ÙŠÙ‘ÙØ§Øª) Ø£.Ø¯. ÙŠØ³Ø±ÙŠ Ø¬Ø¨Ø±","category":"Ù…ØªÙ†ÙˆØ¹"},{"id":"Mfw_VtgJdjY","title":"Ù…Ø§ Ù‡ÙŠ Ø´Ø±ÙˆØ· Ø±Ø¤ÙŠØ© Ø§Ù„Ù†Ø¨ÙŠï·º ØŸ","publishedAt":"2021-08-29T18:30:10Z","duration":"PT12M57S","thumbnail":"https://i.ytimg.com/vi/Mfw_VtgJdjY/mqdefault.jpg","viewCount":"28984","playlistId":"PLEkQk5xrP-tm8ZIu74nTOZN9KJUJu416J","playlistName":"Ù…Ù‚Ø§Ø·Ø¹ Ù…ÙÙ‡Ù…ÙÙ‘Ø© (ÙŠÙØ³Ø±ÙŠÙ‘ÙØ§Øª) Ø£.Ø¯. ÙŠØ³Ø±ÙŠ Ø¬Ø¨Ø±","category":"Ù…ØªÙ†ÙˆØ¹"},{"id":"QDU_Yh73u5c","title":"ÙƒÙ„Ù…Ø© ÙØ¶ÙŠÙ„Ø© Ø§Ù„Ø¯ÙƒØªÙˆØ± ÙŠØ³Ø±ÙŠ Ø¬Ø¨Ø± ÙÙŠ Ù…Ø¤ØªÙ…Ø± Ø§Ù„ØªØµÙˆÙ Ø§Ù„Ø¹Ø§Ù„Ù…ÙŠ Ø§Ù„Ø³Ø§Ø¨Ø¹ ÙÙ‰ Ù…Ù‚Ø¯ÙŠØ´Ùˆ 2/2","publishedAt":"2018-04-19T19:06:40Z","duration":"PT8M46S","thumbnail":"https://i.ytimg.com/vi/QDU_Yh73u5c/mqdefault.jpg","viewCount":"937","playlistId":"PLEkQk5xrP-tm8ZIu74nTOZN9KJUJu416J","playlistName":"Ù…Ù‚Ø§Ø·Ø¹ Ù…ÙÙ‡Ù…ÙÙ‘Ø© (ÙŠÙØ³Ø±ÙŠÙ‘ÙØ§Øª) Ø£.Ø¯. ÙŠØ³Ø±ÙŠ Ø¬Ø¨Ø±","category":"Ù…ØªÙ†ÙˆØ¹"},{"id":"jLytC9QaPv4","title":"ÙƒÙ„Ù…Ø© ÙØ¶ÙŠÙ„Ø© Ø§Ù„Ø¯ÙƒØªÙˆØ± ÙŠØ³Ø±ÙŠ Ø¬Ø¨Ø± ÙÙŠ Ù…Ø¤ØªÙ…Ø± Ø§Ù„ØªØµÙˆÙ Ø§Ù„Ø¹Ø§Ù„Ù…ÙŠ Ø§Ù„Ø³Ø§Ø¨Ø¹ ÙÙ‰ Ù…Ù‚Ø¯ÙŠØ´Ùˆ 1/2","publishedAt":"2018-04-13T11:42:59Z","duration":"PT16M47S","thumbnail":"https://i.ytimg.com/vi/jLytC9QaPv4/mqdefault.jpg","viewCount":"2557","playlistId":"PLEkQk5xrP-tm8ZIu74nTOZN9KJUJu416J","playlistName":"Ù…Ù‚Ø§Ø·Ø¹ Ù…ÙÙ‡Ù…ÙÙ‘Ø© (ÙŠÙØ³Ø±ÙŠÙ‘ÙØ§Øª) Ø£.Ø¯. ÙŠØ³Ø±ÙŠ Ø¬Ø¨Ø±","category":"Ù…ØªÙ†ÙˆØ¹"},{"id":"KVzUO026dYU","title":"ÙƒÙŠÙ ØªÙƒÙˆÙ† Ù…Ù† Ø£Ù‡Ù„ Ù„ÙŠÙ„Ø© Ø§Ù„Ù‚Ø¯Ø±ØŸğŸ¤²ğŸŒ™","publishedAt":"2025-03-25T19:00:22Z","duration":"PT13M57S","thumbnail":"https://i.ytimg.com/vi/KVzUO026dYU/mqdefault.jpg","viewCount":"6845","playlistId":"PLEkQk5xrP-tm8ZIu74nTOZN9KJUJu416J","playlistName":"Ù…Ù‚Ø§Ø·Ø¹ Ù…ÙÙ‡Ù…ÙÙ‘Ø© (ÙŠÙØ³Ø±ÙŠÙ‘ÙØ§Øª) Ø£.Ø¯. ÙŠØ³Ø±ÙŠ Ø¬Ø¨Ø±","category":"Ù…ØªÙ†ÙˆØ¹"},{"id":"Qp0jxVeeLSQ","title":"Ø¨Ø±ÙƒØ© Ø§Ù„Ø£ÙÙ…Ù‘Ø© Ø§Ù„Ù…ÙØ­Ù…Ù‘Ø¯Ù‘ÙŠØ© - Ø¯.ÙŠØ³Ø±ÙŠ Ø¬Ø¨Ø±","publishedAt":"2015-01-16T08:28:48Z","duration":"PT19M29S","thumbnail":"https://i.ytimg.com/vi/Qp0jxVeeLSQ/mqdefault.jpg","viewCount":"4322","playlistId":"PLEkQk5xrP-tm8ZIu74nTOZN9KJUJu416J","playlistName":"Ù…Ù‚Ø§Ø·Ø¹ Ù…ÙÙ‡Ù…ÙÙ‘Ø© (ÙŠÙØ³Ø±ÙŠÙ‘ÙØ§Øª) Ø£.Ø¯. ÙŠØ³Ø±ÙŠ Ø¬Ø¨Ø±","category":"Ù…ØªÙ†ÙˆØ¹"},{"id":"ZC7NQSRLLnk","title":"Ø§Ù„Ù†ÙˆØ±Ø§Ù„Ø¯Ø§Ø¦Ù… - Ø¯.ÙŠØ³Ø±ÙŠ Ø¬Ø¨Ø±","publishedAt":"2015-01-10T18:04:01Z","duration":"PT3M12S","thumbnail":"https://i.ytimg.com/vi/ZC7NQSRLLnk/mqdefault.jpg","viewCount":"19455","playlistId":"PLEkQk5xrP-tm8ZIu74nTOZN9KJUJu416J","playlistName":"Ù…Ù‚Ø§Ø·Ø¹ Ù…ÙÙ‡Ù…ÙÙ‘Ø© (ÙŠÙØ³Ø±ÙŠÙ‘ÙØ§Øª) Ø£.Ø¯. ÙŠØ³Ø±ÙŠ Ø¬Ø¨Ø±","category":"Ù…ØªÙ†ÙˆØ¹"},{"id":"Drp9JH7JraI","title":"Ù…Ù† Ø§Ù„ÙÙˆØ§Ø¦Ø¯ Ø§Ù„ÙŠØ³Ø±ÙŠØ© ÙÙ‰ ÙƒÙŠÙÙŠØ© ØµÙ„Ø§Ø© Ø§Ù„Ù„Ù‡ ÙˆÙ…Ù„Ø§Ø¦ÙƒØªÙ‡ Ø¹Ù„Ù‰ Ø®ÙŠØ± Ø§Ù„Ø¨Ø±ÙŠØ©","publishedAt":"2015-01-05T20:00:34Z","duration":"PT4M45S","thumbnail":"https://i.ytimg.com/vi/Drp9JH7JraI/mqdefault.jpg","viewCount":"9084","playlistId":"PLEkQk5xrP-tm8ZIu74nTOZN9KJUJu416J","playlistName":"Ù…Ù‚Ø§Ø·Ø¹ Ù…ÙÙ‡Ù…ÙÙ‘Ø© (ÙŠÙØ³Ø±ÙŠÙ‘ÙØ§Øª) Ø£.Ø¯. ÙŠØ³Ø±ÙŠ Ø¬Ø¨Ø±","category":"Ù…ØªÙ†ÙˆØ¹"},{"id":"2Rt4vryPX78","title":"Ø£Ø­ÙƒØ§Ù… Ø§Ù„Ø­ÙŠØ¶ ÙˆØ§Ù„Ù†ÙØ§Ø³ | Ø£.Ø¯. ÙŠØ³Ø±ÙŠ Ø¬Ø¨Ø±","publishedAt":"2021-03-24T18:00:00Z","duration":"PT26M8S","thumbnail":"https://i.ytimg.com/vi/2Rt4vryPX78/mqdefault.jpg","viewCount":"6632","playlistId":"PLEkQk5xrP-tm8ZIu74nTOZN9KJUJu416J","playlistName":"Ù…Ù‚Ø§Ø·Ø¹ Ù…ÙÙ‡Ù…ÙÙ‘Ø© (ÙŠÙØ³Ø±ÙŠÙ‘ÙØ§Øª) Ø£.Ø¯. ÙŠØ³Ø±ÙŠ Ø¬Ø¨Ø±","category":"Ù…ØªÙ†ÙˆØ¹"},{"id":"E0l8YrdXmbA","title":"Ù‡Ù„ ØªØ­Ù„ÙŠÙ„ ÙƒÙˆØ±ÙˆÙ†Ø§ ÙŠÙØ³Ø¯ Ø§Ù„ØµÙŠØ§Ù…ØŸ","publishedAt":"2021-03-23T19:40:16Z","duration":"PT8M54S","thumbnail":"https://i.ytimg.com/vi/E0l8YrdXmbA/mqdefault.jpg","viewCount":"4356","playlistId":"PLEkQk5xrP-tm8ZIu74nTOZN9KJUJu416J","playlistName":"Ù…Ù‚Ø§Ø·Ø¹ Ù…ÙÙ‡Ù…ÙÙ‘Ø© (ÙŠÙØ³Ø±ÙŠÙ‘ÙØ§Øª) Ø£.Ø¯. ÙŠØ³Ø±ÙŠ Ø¬Ø¨Ø±","category":"Ù…ØªÙ†ÙˆØ¹"},{"id":"EKqpe6NEO8U","title":"Ø¯Ø¹Ø§Ø¡ ÙˆØ¥Ø­ÙŠØ§Ø¡ ÙŠÙˆÙ… Ø¹Ø±ÙØ©","publishedAt":"2025-06-05T11:04:36Z","duration":"PT29M45S","thumbnail":"https://i.ytimg.com/vi/EKqpe6NEO8U/mqdefault.jpg","viewCount":"6508","playlistId":"PLEkQk5xrP-tm8ZIu74nTOZN9KJUJu416J","playlistName":"Ù…Ù‚Ø§Ø·Ø¹ Ù…ÙÙ‡Ù…ÙÙ‘Ø© (ÙŠÙØ³Ø±ÙŠÙ‘ÙØ§Øª) Ø£.Ø¯. ÙŠØ³Ø±ÙŠ Ø¬Ø¨Ø±","category":"Ù…ØªÙ†ÙˆØ¹"},{"id":"GHGt6Pmwg80","title":"Ù…Ø¹Ù†Ù‰ ÙˆØ­Ø¯Ø© Ø§Ù„ÙˆØ¬ÙˆØ¯ Ø¹Ù†Ø¯ Ø§Ù„ØµÙˆÙÙŠØ© | Ø§Ù†Ø¬Ù„ØªØ±Ø§ğŸ“","publishedAt":"2025-06-01T19:14:37Z","duration":"PT20M14S","thumbnail":"https://i.ytimg.com/vi/GHGt6Pmwg80/mqdefault.jpg","viewCount":"7827","playlistId":"PLEkQk5xrP-tm8ZIu74nTOZN9KJUJu416J","playlistName":"Ù…Ù‚Ø§Ø·Ø¹ Ù…ÙÙ‡Ù…ÙÙ‘Ø© (ÙŠÙØ³Ø±ÙŠÙ‘ÙØ§Øª) Ø£.Ø¯. ÙŠØ³Ø±ÙŠ Ø¬Ø¨Ø±","category":"Ù…ØªÙ†ÙˆØ¹"},{"id":"IJFBj4cQyZU","title":"Ù…Ø¬Ù„Ø³ Ù…Ø±ÙƒØ² ÙƒØ§Ù…Ø¨Ø±ÙŠØ¯Ø¬ Ø§Ù„Ù‚Ø±Ø¢Ù†ÙŠ | Ø§Ù†Ø¬Ù„ØªØ±Ø§ğŸ“","publishedAt":"2025-05-31T18:17:55Z","duration":"PT21M36S","thumbnail":"https://i.ytimg.com/vi/IJFBj4cQyZU/mqdefault.jpg","viewCount":"2507","playlistId":"PLEkQk5xrP-tm8ZIu74nTOZN9KJUJu416J","playlistName":"Ù…Ù‚Ø§Ø·Ø¹ Ù…ÙÙ‡Ù…ÙÙ‘Ø© (ÙŠÙØ³Ø±ÙŠÙ‘ÙØ§Øª) Ø£.Ø¯. ÙŠØ³Ø±ÙŠ Ø¬Ø¨Ø±","category":"Ù…ØªÙ†ÙˆØ¹"},{"id":"-6wXTmNvwj8","title":"Ù‚ØµØ© Ø§Ù„Ø¨Ø±Ø¯Ø© ÙˆÙØ¶Ø§Ø¦Ù„Ù‡Ø§ ÙˆÙƒØ±Ø§Ù…ØªÙ‡Ø§ | Ù„Ù†Ø¯Ù†ğŸ“","publishedAt":"2025-05-29T19:15:14Z","duration":"PT16M33S","thumbnail":"https://i.ytimg.com/vi/-6wXTmNvwj8/mqdefault.jpg","viewCount":"6190","playlistId":"PLEkQk5xrP-tm8ZIu74nTOZN9KJUJu416J","playlistName":"Ù…Ù‚Ø§Ø·Ø¹ Ù…ÙÙ‡Ù…ÙÙ‘Ø© (ÙŠÙØ³Ø±ÙŠÙ‘ÙØ§Øª) Ø£.Ø¯. ÙŠØ³Ø±ÙŠ Ø¬Ø¨Ø±","category":"Ù…ØªÙ†ÙˆØ¹"},{"id":"9SijymE11Ls","title":"Ø­ÙØ¸ Ø§Ù„Ù‚Ø±Ø¢Ù†  Ø£.Ø¯. ÙŠØ³Ø±ÙŠ Ø¬Ø¨Ø±","publishedAt":"2020-03-31T11:43:57Z","duration":"PT10M15S","thumbnail":"https://i.ytimg.com/vi/9SijymE11Ls/mqdefault.jpg","viewCount":"26872","playlistId":"PLEkQk5xrP-tm8ZIu74nTOZN9KJUJu416J","playlistName":"Ù…Ù‚Ø§Ø·Ø¹ Ù…ÙÙ‡Ù…ÙÙ‘Ø© (ÙŠÙØ³Ø±ÙŠÙ‘ÙØ§Øª) Ø£.Ø¯. ÙŠØ³Ø±ÙŠ Ø¬Ø¨Ø±","category":"Ù…ØªÙ†ÙˆØ¹"},{"id":"0uuWh8fHq_Q","title":"Ø³Ø§Ø¹Ø© Ø§Ù„Ø¥Ø¬Ø§Ø¨Ø© ÙÙŠ ÙŠÙˆÙ… Ø§Ù„Ø¬Ù…Ø¹Ø©   Ø¯. ÙŠØ³Ø±ÙŠ Ø¬Ø¨Ø±","publishedAt":"2017-07-28T09:02:54Z","duration":"PT7M43S","thumbnail":"https://i.ytimg.com/vi/0uuWh8fHq_Q/mqdefault.jpg","viewCount":"17554","playlistId":"PLEkQk5xrP-tm8ZIu74nTOZN9KJUJu416J","playlistName":"Ù…Ù‚Ø§Ø·Ø¹ Ù…ÙÙ‡Ù…ÙÙ‘Ø© (ÙŠÙØ³Ø±ÙŠÙ‘ÙØ§Øª) Ø£.Ø¯. ÙŠØ³Ø±ÙŠ Ø¬Ø¨Ø±","category":"Ù…ØªÙ†ÙˆØ¹"},{"id":"0XVn-u7YZBk","title":"Ù…ÙØ±Ù’Ø­ÙØ¨Ù‹Ø§ Ø´ÙØ¹Ù’Ø¨ÙØ§Ù†.  Ø£.Ø¯. ÙŠØ³Ø±ÙŠ Ø¬Ø¨Ø±","publishedAt":"2020-03-29T15:06:11Z","duration":"PT10M24S","thumbnail":"https://i.ytimg.com/vi/0XVn-u7YZBk/mqdefault.jpg","viewCount":"3532","playlistId":"PLEkQk5xrP-tm8ZIu74nTOZN9KJUJu416J","playlistName":"Ù…Ù‚Ø§Ø·Ø¹ Ù…ÙÙ‡Ù…ÙÙ‘Ø© (ÙŠÙØ³Ø±ÙŠÙ‘ÙØ§Øª) Ø£.Ø¯. ÙŠØ³Ø±ÙŠ Ø¬Ø¨Ø±","category":"Ù…ØªÙ†ÙˆØ¹"},{"id":"oXz8FgR1g8k","title":"Ù‡Ù„ ÙŠØ¬ÙˆØ² Ø§Ù„Ø§Ø­ØªÙØ§Ù„ Ø¨Ù…ÙˆØ§Ù„Ø¯ Ø§Ù„Ø£ÙˆÙ„ÙŠØ§Ø¡ ÙˆØ§Ù„ØµØ§Ù„Ø­ÙŠÙ†ØŸ","publishedAt":"2023-03-15T18:00:20Z","duration":"PT20M28S","thumbnail":"https://i.ytimg.com/vi/oXz8FgR1g8k/mqdefault.jpg","viewCount":"2961","playlistId":"PLEkQk5xrP-tm8ZIu74nTOZN9KJUJu416J","playlistName":"Ù…Ù‚Ø§Ø·Ø¹ Ù…ÙÙ‡Ù…ÙÙ‘Ø© (ÙŠÙØ³Ø±ÙŠÙ‘ÙØ§Øª) Ø£.Ø¯. ÙŠØ³Ø±ÙŠ Ø¬Ø¨Ø±","category":"Ù…ØªÙ†ÙˆØ¹"},{"id":"vrk0kW3UKqM","title":"Ù…Ø§ Ù‡Ùˆ Ø§Ù„ØªØµÙˆÙ ÙˆÙ…Ø§ Ù‡ÙŠ Ø§Ù„Ø·Ø±ÙŠÙ‚Ø© ÙˆÙ…ØªÙ‰ Ø¢Ø®Ø°Ù‡Ø§ØŸ","publishedAt":"2023-03-14T18:00:31Z","duration":"PT28M43S","thumbnail":"https://i.ytimg.com/vi/vrk0kW3UKqM/mqdefault.jpg","viewCount":"145961","playlistId":"PLEkQk5xrP-tm8ZIu74nTOZN9KJUJu416J","playlistName":"Ù…Ù‚Ø§Ø·Ø¹ Ù…ÙÙ‡Ù…ÙÙ‘Ø© (ÙŠÙØ³Ø±ÙŠÙ‘ÙØ§Øª) Ø£.Ø¯. ÙŠØ³Ø±ÙŠ Ø¬Ø¨Ø±","category":"Ù…ØªÙ†ÙˆØ¹"},{"id":"v5Ijm107NkA","title":"Ù…Ø§Ø°Ø§ Ø£ÙØ¹Ù„ Ø­ØªÙ‰ Ø£Ø±Ù‰ Ø§Ù„Ù†Ø¨ÙŠ ï·º ÙŠÙ‚Ø¸Ø©ØŸ","publishedAt":"2023-03-13T18:00:31Z","duration":"PT9M25S","thumbnail":"https://i.ytimg.com/vi/v5Ijm107NkA/mqdefault.jpg","viewCount":"13782","playlistId":"PLEkQk5xrP-tm8ZIu74nTOZN9KJUJu416J","playlistName":"Ù…Ù‚Ø§Ø·Ø¹ Ù…ÙÙ‡Ù…ÙÙ‘Ø© (ÙŠÙØ³Ø±ÙŠÙ‘ÙØ§Øª) Ø£.Ø¯. ÙŠØ³Ø±ÙŠ Ø¬Ø¨Ø±","category":"Ù…ØªÙ†ÙˆØ¹"},{"id":"8ZI-e_UE1ho","title":"Ù…Ø§ Ù‡Ùˆ Ù†ÙˆØ± Ø§Ù„Ù‚Ø¯ÙŠÙ…ØŸ","publishedAt":"2023-03-12T18:09:07Z","duration":"PT14M5S","thumbnail":"https://i.ytimg.com/vi/8ZI-e_UE1ho/mqdefault.jpg","viewCount":"4104","playlistId":"PLEkQk5xrP-tm8ZIu74nTOZN9KJUJu416J","playlistName":"Ù…Ù‚Ø§Ø·Ø¹ Ù…ÙÙ‡Ù…ÙÙ‘Ø© (ÙŠÙØ³Ø±ÙŠÙ‘ÙØ§Øª) Ø£.Ø¯. ÙŠØ³Ø±ÙŠ Ø¬Ø¨Ø±","category":"Ù…ØªÙ†ÙˆØ¹"},{"id":"z5lzUf6iEr4","title":"Ù…Ø§ Ù‡ÙŠ Ø¢Ø¯Ø§Ø¨ Ø·Ø§Ù„Ø¨ Ø§Ù„Ø¹Ù„Ù…ØŸ","publishedAt":"2023-03-11T18:00:32Z","duration":"PT31M38S","thumbnail":"https://i.ytimg.com/vi/z5lzUf6iEr4/mqdefault.jpg","viewCount":"1799","playlistId":"PLEkQk5xrP-tm8ZIu74nTOZN9KJUJu416J","playlistName":"Ù…Ù‚Ø§Ø·Ø¹ Ù…ÙÙ‡Ù…ÙÙ‘Ø© (ÙŠÙØ³Ø±ÙŠÙ‘ÙØ§Øª) Ø£.Ø¯. ÙŠØ³Ø±ÙŠ Ø¬Ø¨Ø±","category":"Ù…ØªÙ†ÙˆØ¹"},{"id":"nb5JccA9g7s","title":"ÙØ¶Ù„ Ø§Ù„ØµÙ„Ø§Ø© Ø¹Ù„Ù‰ Ø§Ù„Ù†Ø¨ÙŠ ï·º","publishedAt":"2023-03-10T18:00:22Z","duration":"PT10M12S","thumbnail":"https://i.ytimg.com/vi/nb5JccA9g7s/mqdefault.jpg","viewCount":"9870","playlistId":"PLEkQk5xrP-tm8ZIu74nTOZN9KJUJu416J","playlistName":"Ù…Ù‚Ø§Ø·Ø¹ Ù…ÙÙ‡Ù…ÙÙ‘Ø© (ÙŠÙØ³Ø±ÙŠÙ‘ÙØ§Øª) Ø£.Ø¯. ÙŠØ³Ø±ÙŠ Ø¬Ø¨Ø±","category":"Ù…ØªÙ†ÙˆØ¹"}],"total":560,"page":17,"pageSize":24,"totalPages":24}