{"items":[{"id":"TwtgQDgfrSQ","title":"حكم فوائد البنوك | أ.د. يسري جبر","publishedAt":"2022-05-04T18:15:02Z","duration":"PT12M10S","thumbnail":"https://i.ytimg.com/vi/TwtgQDgfrSQ/mqdefault.jpg","viewCount":"202064","playlistId":"PLEkQk5xrP-tm8ZIu74nTOZN9KJUJu416J","playlistName":"مقاطع مُهمَّة (يُسريَّات) أ.د. يسري جبر","category":"متنوع"},{"id":"p4p6ejFBsLY","title":"بعد رمضان ,, نصيحة لمن يريد حفظ القرآن","publishedAt":"2022-05-02T19:00:23Z","duration":"PT11M46S","thumbnail":"https://i.ytimg.com/vi/p4p6ejFBsLY/mqdefault.jpg","viewCount":"29191","playlistId":"PLEkQk5xrP-tm8ZIu74nTOZN9KJUJu416J","playlistName":"مقاطع مُهمَّة (يُسريَّات) أ.د. يسري جبر","category":"متنوع"},{"id":"EtEcpp2v2Gs","title":"التصوف ودوره في مواجهة الوباء والمحن","publishedAt":"2021-08-12T06:13:59Z","duration":"PT29M34S","thumbnail":"https://i.ytimg.com/vi/EtEcpp2v2Gs/mqdefault.jpg","viewCount":"7310","playlistId":"PLEkQk5xrP-tm8ZIu74nTOZN9KJUJu416J","playlistName":"مقاطع مُهمَّة (يُسريَّات) أ.د. يسري جبر","category":"متنوع"},{"id":"dBbJgGLGGyk","title":"هل ضرب الزوجة مباح؟","publishedAt":"2021-08-05T19:02:17Z","duration":"PT16M20S","thumbnail":"https://i.ytimg.com/vi/dBbJgGLGGyk/mqdefault.jpg","viewCount":"13685","playlistId":"PLEkQk5xrP-tm8ZIu74nTOZN9KJUJu416J","playlistName":"مقاطع مُهمَّة (يُسريَّات) أ.د. يسري جبر","category":"متنوع"},{"id":"QRsidHhS2bc","title":"فائدة الدخول فى طريق التصوف ومبايعة الشيخ | أ.د. يسري جبر","publishedAt":"2014-10-15T18:58:15Z","duration":"PT10M13S","thumbnail":"https://i.ytimg.com/vi/QRsidHhS2bc/mqdefault.jpg","viewCount":"98166","playlistId":"PLEkQk5xrP-tm8ZIu74nTOZN9KJUJu416J","playlistName":"مقاطع مُهمَّة (يُسريَّات) أ.د. يسري جبر","category":"متنوع"},{"id":"3ZPrwr-dtM4","title":"شرح صلاة المُتَرَدِّي   د. يسري جبر","publishedAt":"2017-01-18T17:32:18Z","duration":"PT17M47S","thumbnail":"https://i.ytimg.com/vi/3ZPrwr-dtM4/mqdefault.jpg","viewCount":"9206","playlistId":"PLEkQk5xrP-tm8ZIu74nTOZN9KJUJu416J","playlistName":"مقاطع مُهمَّة (يُسريَّات) أ.د. يسري جبر","category":"متنوع"},{"id":"ZcExG620sCI","title":"من صلى علىّ مرة صلى الله عليه بهاعشرا د. يسري جبر","publishedAt":"2016-08-06T16:37:39Z","duration":"PT1M9S","thumbnail":"https://i.ytimg.com/vi/ZcExG620sCI/mqdefault.jpg","viewCount":"748","playlistId":"PLEkQk5xrP-tm8ZIu74nTOZN9KJUJu416J","playlistName":"مقاطع مُهمَّة (يُسريَّات) أ.د. يسري جبر","category":"متنوع"},{"id":"KoPPNzEB6fU","title":"شرح الصلاة الأنموذجية د. يسري جبر","publishedAt":"2017-01-10T18:56:58Z","duration":"PT8M17S","thumbnail":"https://i.ytimg.com/vi/KoPPNzEB6fU/mqdefault.jpg","viewCount":"12871","playlistId":"PLEkQk5xrP-tm8ZIu74nTOZN9KJUJu416J","playlistName":"مقاطع مُهمَّة (يُسريَّات) أ.د. يسري جبر","category":"متنوع"},{"id":"Nvo-GJF1B-Y","title":"الليلة الختامية لأسبوع الاحتفالات بالمولد النبوي 2016","publishedAt":"2016-12-14T20:32:09Z","duration":"PT21S","thumbnail":"https://i.ytimg.com/vi/Nvo-GJF1B-Y/mqdefault.jpg","viewCount":"777","playlistId":"PLEkQk5xrP-tm8ZIu74nTOZN9KJUJu416J","playlistName":"مقاطع مُهمَّة (يُسريَّات) أ.د. يسري جبر","category":"متنوع"},{"id":"T6SzvUQDn_I","title":"ما الفرق بين المدارس الحكومية والخاصة؟","publishedAt":"2022-04-25T19:30:01Z","duration":"PT8M15S","thumbnail":"https://i.ytimg.com/vi/T6SzvUQDn_I/mqdefault.jpg","viewCount":"6939","playlistId":"PLEkQk5xrP-tm8ZIu74nTOZN9KJUJu416J","playlistName":"مقاطع مُهمَّة (يُسريَّات) أ.د. يسري جبر","category":"متنوع"},{"id":"7SliqxPymwM","title":"فضل العشر الأواخر من رمضان","publishedAt":"2022-04-21T15:30:02Z","duration":"PT16M56S","thumbnail":"https://i.ytimg.com/vi/7SliqxPymwM/mqdefault.jpg","viewCount":"22134","playlistId":"PLEkQk5xrP-tm8ZIu74nTOZN9KJUJu416J","playlistName":"مقاطع مُهمَّة (يُسريَّات) أ.د. يسري جبر","category":"متنوع"},{"id":"7gAOK-tidTs","title":"هل صلاة التراويح 20 ركعة سنة نبوية؟","publishedAt":"2022-04-20T19:30:00Z","duration":"PT12M46S","thumbnail":"https://i.ytimg.com/vi/7gAOK-tidTs/mqdefault.jpg","viewCount":"4651","playlistId":"PLEkQk5xrP-tm8ZIu74nTOZN9KJUJu416J","playlistName":"مقاطع مُهمَّة (يُسريَّات) أ.د. يسري جبر","category":"متنوع"},{"id":"j1XHz6Sutlo","title":"خصائص النبي فى الأكوان د يسري جبر احتفال المولد النبوي بمضيفة الدح","publishedAt":"2016-12-07T11:56:02Z","duration":"PT25M59S","thumbnail":"https://i.ytimg.com/vi/j1XHz6Sutlo/mqdefault.jpg","viewCount":"45748","playlistId":"PLEkQk5xrP-tm8ZIu74nTOZN9KJUJu416J","playlistName":"مقاطع مُهمَّة (يُسريَّات) أ.د. يسري جبر","category":"متنوع"},{"id":"a8LmQXKMvuM","title":"دعاء وإحياء يوم عرفة","publishedAt":"2024-06-15T18:24:54Z","duration":"PT29M45S","thumbnail":"https://i.ytimg.com/vi/a8LmQXKMvuM/mqdefault.jpg","viewCount":"2493","playlistId":"PLEkQk5xrP-tm8ZIu74nTOZN9KJUJu416J","playlistName":"مقاطع مُهمَّة (يُسريَّات) أ.د. يسري جبر","category":"متنوع"},{"id":"ipAwxGCAXiI","title":"ما هي آداب زيارة الأولياء والصالحين؟","publishedAt":"2022-04-14T19:30:03Z","duration":"PT8M36S","thumbnail":"https://i.ytimg.com/vi/ipAwxGCAXiI/mqdefault.jpg","viewCount":"12422","playlistId":"PLEkQk5xrP-tm8ZIu74nTOZN9KJUJu416J","playlistName":"مقاطع مُهمَّة (يُسريَّات) أ.د. يسري جبر","category":"متنوع"},{"id":"YyO-HUnFH4M","title":"كلمة فضيلة الدكتور يسري جبر في الملتقى العالمي الثاني عشر للتصوف بالمغرب","publishedAt":"2017-11-30T12:21:12Z","duration":"PT22M44S","thumbnail":"https://i.ytimg.com/vi/YyO-HUnFH4M/mqdefault.jpg","viewCount":"7486","playlistId":"PLEkQk5xrP-tm8ZIu74nTOZN9KJUJu416J","playlistName":"مقاطع مُهمَّة (يُسريَّات) أ.د. يسري جبر","category":"متنوع"},{"id":"djn4vMWEgBc","title":"ما هي عقيدة الأشاعرة؟","publishedAt":"2021-06-14T19:30:02Z","duration":"PT11M45S","thumbnail":"https://i.ytimg.com/vi/djn4vMWEgBc/mqdefault.jpg","viewCount":"110148","playlistId":"PLEkQk5xrP-tm8ZIu74nTOZN9KJUJu416J","playlistName":"مقاطع مُهمَّة (يُسريَّات) أ.د. يسري جبر","category":"متنوع"},{"id":"ekTmY6pKRGg","title":"أسهل طريقة لفهم علم التوحيد","publishedAt":"2021-06-13T19:30:06Z","duration":"PT12M52S","thumbnail":"https://i.ytimg.com/vi/ekTmY6pKRGg/mqdefault.jpg","viewCount":"23555","playlistId":"PLEkQk5xrP-tm8ZIu74nTOZN9KJUJu416J","playlistName":"مقاطع مُهمَّة (يُسريَّات) أ.د. يسري جبر","category":"متنوع"},{"id":"8fyqx28hTW8","title":"لماذا يخبر الأولياء كراماتهم للناس؟","publishedAt":"2021-06-12T19:45:51Z","duration":"PT8M30S","thumbnail":"https://i.ytimg.com/vi/8fyqx28hTW8/mqdefault.jpg","viewCount":"57114","playlistId":"PLEkQk5xrP-tm8ZIu74nTOZN9KJUJu416J","playlistName":"مقاطع مُهمَّة (يُسريَّات) أ.د. يسري جبر","category":"متنوع"},{"id":"phgtD0crRFY","title":"ما الحكمة من قراءة سورة الكهف يوم الجمعة؟","publishedAt":"2021-06-11T19:00:04Z","duration":"PT9M23S","thumbnail":"https://i.ytimg.com/vi/phgtD0crRFY/mqdefault.jpg","viewCount":"8342","playlistId":"PLEkQk5xrP-tm8ZIu74nTOZN9KJUJu416J","playlistName":"مقاطع مُهمَّة (يُسريَّات) أ.د. يسري جبر","category":"متنوع"},{"id":"DKaxczAjOv0","title":"مقطع من قراءة وشرح كتاب الشفا بتعريف حقوق المصطفى (باب عصمة الأنبياء ) عليهم الصلاة والسلام","publishedAt":"2014-10-11T21:05:27Z","duration":"PT33M44S","thumbnail":"https://i.ytimg.com/vi/DKaxczAjOv0/mqdefault.jpg","viewCount":"2298","playlistId":"PLEkQk5xrP-tm8ZIu74nTOZN9KJUJu416J","playlistName":"مقاطع مُهمَّة (يُسريَّات) أ.د. يسري جبر","category":"متنوع"},{"id":"GuyLIA4eiy8","title":"كيف تكون مسلمًا مؤمنًا محسنًا عليمًا بفتن زمانك د.يسري جبر","publishedAt":"2014-10-09T03:26:29Z","duration":"PT19M36S","thumbnail":"https://i.ytimg.com/vi/GuyLIA4eiy8/mqdefault.jpg","viewCount":"26293","playlistId":"PLEkQk5xrP-tm8ZIu74nTOZN9KJUJu416J","playlistName":"مقاطع مُهمَّة (يُسريَّات) أ.د. يسري جبر","category":"متنوع"},{"id":"IzgdyjQQJ5s","title":"ظهر الفساد فى البر والبحر بما كسبت أيدى الناس","publishedAt":"2014-10-03T19:26:38Z","duration":"PT36M57S","thumbnail":"https://i.ytimg.com/vi/IzgdyjQQJ5s/mqdefault.jpg","viewCount":"2580","playlistId":"PLEkQk5xrP-tm8ZIu74nTOZN9KJUJu416J","playlistName":"مقاطع مُهمَّة (يُسريَّات) أ.د. يسري جبر","category":"متنوع"},{"id":"b6MNH1ekDuk","title":"الفتوحات الربانية حول المعانى القرآنية - د. يسري جبر","publishedAt":"2014-09-29T19:49:21Z","duration":"PT24M20S","thumbnail":"https://i.ytimg.com/vi/b6MNH1ekDuk/mqdefault.jpg","viewCount":"68905","playlistId":"PLEkQk5xrP-tm8ZIu74nTOZN9KJUJu416J","playlistName":"مقاطع مُهمَّة (يُسريَّات) أ.د. يسري جبر","category":"متنوع"}],"total":560,"page":7,"pageSize":24,"totalPages":24}