{"items":[{"id":"5HVPVJs--OM","title":"الرسالة القشيرية المجلس السادس والأربعون - باب الورع - أ.د. يسري جبر","publishedAt":"2019-01-29T07:21:46Z","duration":"PT1H11M52S","thumbnail":"https://i.ytimg.com/vi/5HVPVJs--OM/mqdefault.jpg","viewCount":"6108","playlistId":"PLEkQk5xrP-tkHAGOwIKr4pc5ehhyQ5HMJ","playlistName":"كتاب الرسالة القشيرية (تصوف) - د. يسري جبر","category":"تصوف"},{"id":"nctWHmx0hpA","title":"الرسالة القشيرية - المجلس العشرون - باب في ذكر مشايخ هذه الطريقة - المجلس الثاني عشر","publishedAt":"2018-07-03T18:19:18Z","duration":"PT51M5S","thumbnail":"https://i.ytimg.com/vi/nctWHmx0hpA/mqdefault.jpg","viewCount":"5580","playlistId":"PLEkQk5xrP-tkHAGOwIKr4pc5ehhyQ5HMJ","playlistName":"كتاب الرسالة القشيرية (تصوف) - د. يسري جبر","category":"تصوف"},{"id":"1y8T7IVVWO8","title":"الرسالة القشيرية - المجلس (60)  بابُ التَّوَكُّلِ. أ.د. يسري جبر","publishedAt":"2019-08-06T01:05:45Z","duration":"PT48M58S","thumbnail":"https://i.ytimg.com/vi/1y8T7IVVWO8/mqdefault.jpg","viewCount":"8301","playlistId":"PLEkQk5xrP-tkHAGOwIKr4pc5ehhyQ5HMJ","playlistName":"كتاب الرسالة القشيرية (تصوف) - د. يسري جبر","category":"تصوف"},{"id":"vaGOHWJ-UDo","title":"الرسالة القشيرية - المجلس (59) بابُ القَنَاعَة. أ.د. يسري جبر","publishedAt":"2019-07-27T17:26:28Z","duration":"PT50M44S","thumbnail":"https://i.ytimg.com/vi/vaGOHWJ-UDo/mqdefault.jpg","viewCount":"5262","playlistId":"PLEkQk5xrP-tkHAGOwIKr4pc5ehhyQ5HMJ","playlistName":"كتاب الرسالة القشيرية (تصوف) - د. يسري جبر","category":"تصوف"},{"id":"XQZHYD3kKDY","title":"الرسالة القشيرية - المجلس (58) بابُ الحَسَدِ وبابُ الغِيبَة أ.د. يسري جبر","publishedAt":"2019-07-20T19:09:20Z","duration":"PT47M30S","thumbnail":"https://i.ytimg.com/vi/XQZHYD3kKDY/mqdefault.jpg","viewCount":"6754","playlistId":"PLEkQk5xrP-tkHAGOwIKr4pc5ehhyQ5HMJ","playlistName":"كتاب الرسالة القشيرية (تصوف) - د. يسري جبر","category":"تصوف"},{"id":"xRVV4p4QVTI","title":"الرسالة القشيرية - المجلس (57) بابُ مُخَالَفٍةِ النَّفْسِ وَذِكْرِ عُيُوبِهَا. أ.د. يسري جبر","publishedAt":"2019-07-16T18:44:58Z","duration":"PT40M17S","thumbnail":"https://i.ytimg.com/vi/xRVV4p4QVTI/mqdefault.jpg","viewCount":"5905","playlistId":"PLEkQk5xrP-tkHAGOwIKr4pc5ehhyQ5HMJ","playlistName":"كتاب الرسالة القشيرية (تصوف) - د. يسري جبر","category":"تصوف"},{"id":"C5FwsPz8rdA","title":"الرسالة القشيرية - المجلس (56) تكملةُ بابِ الخُشُوعِ وَالتَّوَاضِعِ. أ.د. يسري جبر","publishedAt":"2019-07-04T18:43:33Z","duration":"PT54M57S","thumbnail":"https://i.ytimg.com/vi/C5FwsPz8rdA/mqdefault.jpg","viewCount":"4406","playlistId":"PLEkQk5xrP-tkHAGOwIKr4pc5ehhyQ5HMJ","playlistName":"كتاب الرسالة القشيرية (تصوف) - د. يسري جبر","category":"تصوف"},{"id":"Qfm5Qotpb48","title":"الرسالة القشيرية - المجلس (55) بابُ الخُشُوعِ وَالتَّوَاضِعِ. أ.د. يسري جبر","publishedAt":"2019-06-29T16:11:01Z","duration":"PT54M36S","thumbnail":"https://i.ytimg.com/vi/Qfm5Qotpb48/mqdefault.jpg","viewCount":"6815","playlistId":"PLEkQk5xrP-tkHAGOwIKr4pc5ehhyQ5HMJ","playlistName":"كتاب الرسالة القشيرية (تصوف) - د. يسري جبر","category":"تصوف"},{"id":"gLdJRej8J9k","title":"الرسالة القشيرية - المجلس (97) بَابُ المعرفة بالله ۲ | أ.د. يسري جبر","publishedAt":"2021-11-02T19:00:11Z","duration":"PT1H9M41S","thumbnail":"https://i.ytimg.com/vi/gLdJRej8J9k/mqdefault.jpg","viewCount":"30649","playlistId":"PLEkQk5xrP-tkHAGOwIKr4pc5ehhyQ5HMJ","playlistName":"كتاب الرسالة القشيرية (تصوف) - د. يسري جبر","category":"تصوف"},{"id":"-2c1UfiRNVY","title":"الرسالة القشيرية - المجلس (54) باب الحُزن وباب الجوع وترك الشهوة  أ.د. يسري جبر","publishedAt":"2019-03-30T09:23:41Z","duration":"PT1H9M8S","thumbnail":"https://i.ytimg.com/vi/-2c1UfiRNVY/mqdefault.jpg","viewCount":"11092","playlistId":"PLEkQk5xrP-tkHAGOwIKr4pc5ehhyQ5HMJ","playlistName":"كتاب الرسالة القشيرية (تصوف) - د. يسري جبر","category":"تصوف"},{"id":"bI56egvcr_s","title":"الرسالة القشيرية - المجلس (53) تكملة ما جاء في باب الرجاء    أ.د. يسري جبر","publishedAt":"2019-03-23T17:56:45Z","duration":"PT41M37S","thumbnail":"https://i.ytimg.com/vi/bI56egvcr_s/mqdefault.jpg","viewCount":"3733","playlistId":"PLEkQk5xrP-tkHAGOwIKr4pc5ehhyQ5HMJ","playlistName":"كتاب الرسالة القشيرية (تصوف) - د. يسري جبر","category":"تصوف"},{"id":"ad-ap9WFU0s","title":"الرسالة القشيرية - المجلس (52)  باب الرجاء   أ.د. يسري جبر","publishedAt":"2019-03-14T17:58:28Z","duration":"PT45M4S","thumbnail":"https://i.ytimg.com/vi/ad-ap9WFU0s/mqdefault.jpg","viewCount":"4077","playlistId":"PLEkQk5xrP-tkHAGOwIKr4pc5ehhyQ5HMJ","playlistName":"كتاب الرسالة القشيرية (تصوف) - د. يسري جبر","category":"تصوف"},{"id":"piBaPADC8Co","title":"الرسالة القشيرية - المجلس (51) تكملة باب الخوف  أ.د. يسري جبر","publishedAt":"2019-03-13T20:37:18Z","duration":"PT34M52S","thumbnail":"https://i.ytimg.com/vi/piBaPADC8Co/mqdefault.jpg","viewCount":"3530","playlistId":"PLEkQk5xrP-tkHAGOwIKr4pc5ehhyQ5HMJ","playlistName":"كتاب الرسالة القشيرية (تصوف) - د. يسري جبر","category":"تصوف"},{"id":"4qKENDf3XPE","title":"الرسالة القشيرية - المجلس (50) تكملة باب الصمت - باب الخوف أ.د. يسري جبر","publishedAt":"2019-03-13T15:23:36Z","duration":"PT53M34S","thumbnail":"https://i.ytimg.com/vi/4qKENDf3XPE/mqdefault.jpg","viewCount":"7951","playlistId":"PLEkQk5xrP-tkHAGOwIKr4pc5ehhyQ5HMJ","playlistName":"كتاب الرسالة القشيرية (تصوف) - د. يسري جبر","category":"تصوف"},{"id":"kAwsLwlB92U","title":"الرسالة القشيرية - المجلس التاسع والأربعون - باب الصمت - أ.د. يسري جبر","publishedAt":"2019-02-15T14:52:26Z","duration":"PT52M49S","thumbnail":"https://i.ytimg.com/vi/kAwsLwlB92U/mqdefault.jpg","viewCount":"9797","playlistId":"PLEkQk5xrP-tkHAGOwIKr4pc5ehhyQ5HMJ","playlistName":"كتاب الرسالة القشيرية (تصوف) - د. يسري جبر","category":"تصوف"},{"id":"vxhbzGROpgw","title":"الرسالة القشيرية - المجلس الثامن والأربعون - تكملة باب الزهد - أ.د. يسري جبر","publishedAt":"2019-02-09T18:24:36Z","duration":"PT42M35S","thumbnail":"https://i.ytimg.com/vi/vxhbzGROpgw/mqdefault.jpg","viewCount":"3785","playlistId":"PLEkQk5xrP-tkHAGOwIKr4pc5ehhyQ5HMJ","playlistName":"كتاب الرسالة القشيرية (تصوف) - د. يسري جبر","category":"تصوف"},{"id":"gY7bhosUX-M","title":"الرسالة القشيرية - المجلس التاسع عشر (باب في ذكر مشايخ هذه الطريقة - المجلس الحادي عشر)","publishedAt":"2018-05-12T20:49:18Z","duration":"PT54M50S","thumbnail":"https://i.ytimg.com/vi/gY7bhosUX-M/mqdefault.jpg","viewCount":"5809","playlistId":"PLEkQk5xrP-tkHAGOwIKr4pc5ehhyQ5HMJ","playlistName":"كتاب الرسالة القشيرية (تصوف) - د. يسري جبر","category":"تصوف"},{"id":"EJDwwjr8C4Y","title":"الرسالة القشيرية - المجلس الثامن عشر (باب في ذكر مشايخ هذه الطريقة - المجلس العاشر)","publishedAt":"2018-05-03T23:33:12Z","duration":"PT56M55S","thumbnail":"https://i.ytimg.com/vi/EJDwwjr8C4Y/mqdefault.jpg","viewCount":"7722","playlistId":"PLEkQk5xrP-tkHAGOwIKr4pc5ehhyQ5HMJ","playlistName":"كتاب الرسالة القشيرية (تصوف) - د. يسري جبر","category":"تصوف"},{"id":"BeadQpCbJHM","title":"الرسالة القشيرية - المجلس الخامس عشر (باب في ذكر مشايخ هذه الطريقة - المجلس السابع)","publishedAt":"2018-04-09T11:34:47Z","duration":"PT54M28S","thumbnail":"https://i.ytimg.com/vi/BeadQpCbJHM/mqdefault.jpg","viewCount":"7414","playlistId":"PLEkQk5xrP-tkHAGOwIKr4pc5ehhyQ5HMJ","playlistName":"كتاب الرسالة القشيرية (تصوف) - د. يسري جبر","category":"تصوف"},{"id":"y14BPvUuB-4","title":"(الرسالة القشيرية - المجلس السادس عشر (باب في ذكر مشايخ هذه الطريقة - المجلس الثامن","publishedAt":"2018-03-25T19:42:02Z","duration":"PT58M13S","thumbnail":"https://i.ytimg.com/vi/y14BPvUuB-4/mqdefault.jpg","viewCount":"8502","playlistId":"PLEkQk5xrP-tkHAGOwIKr4pc5ehhyQ5HMJ","playlistName":"كتاب الرسالة القشيرية (تصوف) - د. يسري جبر","category":"تصوف"},{"id":"20dLZPt5JlU","title":"الرسالة القشيرية - المجلس الرابع عشر (باب في ذكر مشايخ هذه الطريقة - المجلس السادس)","publishedAt":"2018-03-08T14:38:42Z","duration":"PT1H1M41S","thumbnail":"https://i.ytimg.com/vi/20dLZPt5JlU/mqdefault.jpg","viewCount":"10341","playlistId":"PLEkQk5xrP-tkHAGOwIKr4pc5ehhyQ5HMJ","playlistName":"كتاب الرسالة القشيرية (تصوف) - د. يسري جبر","category":"تصوف"},{"id":"IcHfH5VnxXU","title":"الرسالة القشيرية - المجلس (92) بَابُ السفر | أ.د. يسري جبر","publishedAt":"2021-09-28T18:30:11Z","duration":"PT1H11M47S","thumbnail":"https://i.ytimg.com/vi/IcHfH5VnxXU/mqdefault.jpg","viewCount":"7425","playlistId":"PLEkQk5xrP-tkHAGOwIKr4pc5ehhyQ5HMJ","playlistName":"كتاب الرسالة القشيرية (تصوف) - د. يسري جبر","category":"تصوف"},{"id":"hPTav_6eXIg","title":"الرسالة القشيرية - المجلس (91) بَابُ الأدب | أ.د. يسري جبر","publishedAt":"2021-09-21T18:41:30Z","duration":"PT1H6M39S","thumbnail":"https://i.ytimg.com/vi/hPTav_6eXIg/mqdefault.jpg","viewCount":"10256","playlistId":"PLEkQk5xrP-tkHAGOwIKr4pc5ehhyQ5HMJ","playlistName":"كتاب الرسالة القشيرية (تصوف) - د. يسري جبر","category":"تصوف"},{"id":"ISkSXbhFCc8","title":"الرسالة القشيرية - المجلس الثالث عشر (باب في ذكر مشايخ هذه الطريقة - المجلس الخامس)","publishedAt":"2018-03-01T13:22:04Z","duration":"PT45M34S","thumbnail":"https://i.ytimg.com/vi/ISkSXbhFCc8/mqdefault.jpg","viewCount":"6996","playlistId":"PLEkQk5xrP-tkHAGOwIKr4pc5ehhyQ5HMJ","playlistName":"كتاب الرسالة القشيرية (تصوف) - د. يسري جبر","category":"تصوف"}],"total":120,"page":4,"pageSize":24,"totalPages":5}