{"items":[{"id":"pazss1wyxzs","title":"شرح كتاب الرسالة القشيرية - المجلس الرابع - الفصل الأول (1)","publishedAt":"2017-12-07T13:11:40Z","duration":"PT56M16S","thumbnail":"https://i.ytimg.com/vi/pazss1wyxzs/mqdefault.jpg","viewCount":"21460","playlistId":"PLEkQk5xrP-tkHAGOwIKr4pc5ehhyQ5HMJ","playlistName":"كتاب الرسالة القشيرية (تصوف) - د. يسري جبر","category":"تصوف"},{"id":"y14BPvUuB-4","title":"(الرسالة القشيرية - المجلس السادس عشر (باب في ذكر مشايخ هذه الطريقة - المجلس الثامن","publishedAt":"2018-03-25T19:42:02Z","duration":"PT58M13S","thumbnail":"https://i.ytimg.com/vi/y14BPvUuB-4/mqdefault.jpg","viewCount":"8502","playlistId":"PLEkQk5xrP-tkHAGOwIKr4pc5ehhyQ5HMJ","playlistName":"كتاب الرسالة القشيرية (تصوف) - د. يسري جبر","category":"تصوف"},{"id":"bO4CroQih0Q","title":"الرسالة القشيرية - المجلس الخامس و العشرون - (القبض والبسط - الهيبة والأُنس).","publishedAt":"2018-08-02T10:19:47Z","duration":"PT52M47S","thumbnail":"https://i.ytimg.com/vi/bO4CroQih0Q/mqdefault.jpg","viewCount":"12436","playlistId":"PLEkQk5xrP-tkHAGOwIKr4pc5ehhyQ5HMJ","playlistName":"كتاب الرسالة القشيرية (تصوف) - د. يسري جبر","category":"تصوف"},{"id":"2lSAM2JFu2Y","title":"‎الرسالة القشيرية - المجلس (85) بَابُ الدعاء | أ.د. يسري جبر","publishedAt":"2020-03-21T20:46:35Z","duration":"PT47M56S","thumbnail":"https://i.ytimg.com/vi/2lSAM2JFu2Y/mqdefault.jpg","viewCount":"5957","playlistId":"PLEkQk5xrP-tkHAGOwIKr4pc5ehhyQ5HMJ","playlistName":"كتاب الرسالة القشيرية (تصوف) - د. يسري جبر","category":"تصوف"},{"id":"bI56egvcr_s","title":"الرسالة القشيرية - المجلس (53) تكملة ما جاء في باب الرجاء    أ.د. يسري جبر","publishedAt":"2019-03-23T17:56:45Z","duration":"PT41M37S","thumbnail":"https://i.ytimg.com/vi/bI56egvcr_s/mqdefault.jpg","viewCount":"3733","playlistId":"PLEkQk5xrP-tkHAGOwIKr4pc5ehhyQ5HMJ","playlistName":"كتاب الرسالة القشيرية (تصوف) - د. يسري جبر","category":"تصوف"},{"id":"dfny3k4ZI_Q","title":"الرسالة القشيرية - المجلس (117) بَابُ رؤيا القوم | أ.د. يسري جبر","publishedAt":"2022-04-01T17:00:59Z","duration":"PT58M39S","thumbnail":"https://i.ytimg.com/vi/dfny3k4ZI_Q/mqdefault.jpg","viewCount":"15133","playlistId":"PLEkQk5xrP-tkHAGOwIKr4pc5ehhyQ5HMJ","playlistName":"كتاب الرسالة القشيرية (تصوف) - د. يسري جبر","category":"تصوف"},{"id":"V7NMxZEeT1o","title":"‎الرسالة القشيرية - المجلس (84) بَابُ الولاية . أ.د. يسري جبر","publishedAt":"2020-03-20T17:30:07Z","duration":"PT41M53S","thumbnail":"https://i.ytimg.com/vi/V7NMxZEeT1o/mqdefault.jpg","viewCount":"11162","playlistId":"PLEkQk5xrP-tkHAGOwIKr4pc5ehhyQ5HMJ","playlistName":"كتاب الرسالة القشيرية (تصوف) - د. يسري جبر","category":"تصوف"},{"id":"C5FwsPz8rdA","title":"الرسالة القشيرية - المجلس (56) تكملةُ بابِ الخُشُوعِ وَالتَّوَاضِعِ. أ.د. يسري جبر","publishedAt":"2019-07-04T18:43:33Z","duration":"PT54M57S","thumbnail":"https://i.ytimg.com/vi/C5FwsPz8rdA/mqdefault.jpg","viewCount":"4406","playlistId":"PLEkQk5xrP-tkHAGOwIKr4pc5ehhyQ5HMJ","playlistName":"كتاب الرسالة القشيرية (تصوف) - د. يسري جبر","category":"تصوف"},{"id":"0vmPcyLaQfg","title":"الرسالة القشيرية - المجلس الثاني و العشرون - باب في ذكر مشايخ هذه الطريقة - المجلس الرابع عشر","publishedAt":"2018-07-12T14:57:34Z","duration":"PT1H4M4S","thumbnail":"https://i.ytimg.com/vi/0vmPcyLaQfg/mqdefault.jpg","viewCount":"6187","playlistId":"PLEkQk5xrP-tkHAGOwIKr4pc5ehhyQ5HMJ","playlistName":"كتاب الرسالة القشيرية (تصوف) - د. يسري جبر","category":"تصوف"},{"id":"MGb4gIy4UQE","title":"الرسالة القشيرية - المجلس الحادي و العشرون - باب في ذكر مشايخ هذه الطريقة - المجلس الثالث عشر","publishedAt":"2018-07-05T19:01:28Z","duration":"PT46M10S","thumbnail":"https://i.ytimg.com/vi/MGb4gIy4UQE/mqdefault.jpg","viewCount":"5427","playlistId":"PLEkQk5xrP-tkHAGOwIKr4pc5ehhyQ5HMJ","playlistName":"كتاب الرسالة القشيرية (تصوف) - د. يسري جبر","category":"تصوف"},{"id":"8s6LiWSnCUw","title":"الرسالة القشيرية - المجلس (104) بَابُ السماع | أ.د. يسري جبر","publishedAt":"2021-12-21T17:30:00Z","duration":"PT53M20S","thumbnail":"https://i.ytimg.com/vi/8s6LiWSnCUw/mqdefault.jpg","viewCount":"8728","playlistId":"PLEkQk5xrP-tkHAGOwIKr4pc5ehhyQ5HMJ","playlistName":"كتاب الرسالة القشيرية (تصوف) - د. يسري جبر","category":"تصوف"},{"id":"7yfZ_aSM8Rw","title":"‎ الرسالة القشيرية - المجلس (79) بَابُ الفِرَاسَةِ ٢. أ.د. يسري جبر","publishedAt":"2020-01-26T21:21:36Z","duration":"PT50M9S","thumbnail":"https://i.ytimg.com/vi/7yfZ_aSM8Rw/mqdefault.jpg","viewCount":"3458","playlistId":"PLEkQk5xrP-tkHAGOwIKr4pc5ehhyQ5HMJ","playlistName":"كتاب الرسالة القشيرية (تصوف) - د. يسري جبر","category":"تصوف"},{"id":"6Pbb6Kah5nE","title":"الرسالة القشيرية - المجلس (78) بَابُ ‎الفِرَاسَةِ. أ.د. يسري جبر","publishedAt":"2020-01-22T18:32:54Z","duration":"PT50M45S","thumbnail":"https://i.ytimg.com/vi/6Pbb6Kah5nE/mqdefault.jpg","viewCount":"4383","playlistId":"PLEkQk5xrP-tkHAGOwIKr4pc5ehhyQ5HMJ","playlistName":"كتاب الرسالة القشيرية (تصوف) - د. يسري جبر","category":"تصوف"},{"id":"t_dq16zmdyc","title":"الرسالة القشيرية - المجلس (65)  بابُ الصَّبْر . أ.د. يسري جبر","publishedAt":"2020-01-20T17:44:22Z","duration":"PT51M14S","thumbnail":"https://i.ytimg.com/vi/t_dq16zmdyc/mqdefault.jpg","viewCount":"6339","playlistId":"PLEkQk5xrP-tkHAGOwIKr4pc5ehhyQ5HMJ","playlistName":"كتاب الرسالة القشيرية (تصوف) - د. يسري جبر","category":"تصوف"},{"id":"ysTQigvxWuE","title":"‎الرسالة القشيرية - المجلس (83) بَابُ الغَيْرَة . أ.د. يسري جبر","publishedAt":"2020-02-25T15:07:33Z","duration":"PT45M58S","thumbnail":"https://i.ytimg.com/vi/ysTQigvxWuE/mqdefault.jpg","viewCount":"2730","playlistId":"PLEkQk5xrP-tkHAGOwIKr4pc5ehhyQ5HMJ","playlistName":"كتاب الرسالة القشيرية (تصوف) - د. يسري جبر","category":"تصوف"},{"id":"krSDFCigd6o","title":"الرسالة القشيرية المجلس السابع و الثلاثون(النَّفْس والروح والسرّ) د. يسري جبر","publishedAt":"2018-11-25T18:34:55Z","duration":"PT1H12M15S","thumbnail":"https://i.ytimg.com/vi/krSDFCigd6o/mqdefault.jpg","viewCount":"12400","playlistId":"PLEkQk5xrP-tkHAGOwIKr4pc5ehhyQ5HMJ","playlistName":"كتاب الرسالة القشيرية (تصوف) - د. يسري جبر","category":"تصوف"},{"id":"se41rUHZgbs","title":"الرسالة القشيرية المجلس السادس والثلاثون(علم اليقين وعين اليقين وحق اليقين-الوارد-الشاهد)د. يسري جبر","publishedAt":"2018-11-25T17:15:58Z","duration":"PT48M30S","thumbnail":"https://i.ytimg.com/vi/se41rUHZgbs/mqdefault.jpg","viewCount":"5602","playlistId":"PLEkQk5xrP-tkHAGOwIKr4pc5ehhyQ5HMJ","playlistName":"كتاب الرسالة القشيرية (تصوف) - د. يسري جبر","category":"تصوف"},{"id":"Nkyzqw4jpnI","title":"الرسالة القشيرية المجلس الثالث و الثلاثون (البواده والهجوم - التلوين والتمكين) د. يسري جبر","publishedAt":"2018-11-25T16:13:15Z","duration":"PT42M51S","thumbnail":"https://i.ytimg.com/vi/Nkyzqw4jpnI/mqdefault.jpg","viewCount":"5532","playlistId":"PLEkQk5xrP-tkHAGOwIKr4pc5ehhyQ5HMJ","playlistName":"كتاب الرسالة القشيرية (تصوف) - د. يسري جبر","category":"تصوف"},{"id":"E65b4xNCFUY","title":"الرسالة القشيرية - المجلس (77) بَابُ الفُتُوَّةِ ۲. أ.د. يسري جبر","publishedAt":"2020-01-12T17:53:33Z","duration":"PT32M48S","thumbnail":"https://i.ytimg.com/vi/E65b4xNCFUY/mqdefault.jpg","viewCount":"2358","playlistId":"PLEkQk5xrP-tkHAGOwIKr4pc5ehhyQ5HMJ","playlistName":"كتاب الرسالة القشيرية (تصوف) - د. يسري جبر","category":"تصوف"},{"id":"Ef9JY5SlOq4","title":"الرسالة القشيرية - المجلس (76) بَابُ الفُتُوَّةِ. أ.د. يسري جبر","publishedAt":"2020-01-07T17:21:26Z","duration":"PT42M32S","thumbnail":"https://i.ytimg.com/vi/Ef9JY5SlOq4/mqdefault.jpg","viewCount":"3286","playlistId":"PLEkQk5xrP-tkHAGOwIKr4pc5ehhyQ5HMJ","playlistName":"كتاب الرسالة القشيرية (تصوف) - د. يسري جبر","category":"تصوف"},{"id":"TFWDRfZR2Tk","title":"شرح كتاب الرسالة القشيرية - المجلس السادس - الفصل الأول (3)","publishedAt":"2017-12-22T14:24:00Z","duration":"PT1H17M44S","thumbnail":"https://i.ytimg.com/vi/TFWDRfZR2Tk/mqdefault.jpg","viewCount":"14554","playlistId":"PLEkQk5xrP-tkHAGOwIKr4pc5ehhyQ5HMJ","playlistName":"كتاب الرسالة القشيرية (تصوف) - د. يسري جبر","category":"تصوف"},{"id":"fW-r7sAAuYE","title":"الرسالة القشيرية - المجلس (115) بَابُ كرامات الأولياء ٨ | أ.د. يسري جبر","publishedAt":"2022-03-10T19:22:56Z","duration":"PT51M17S","thumbnail":"https://i.ytimg.com/vi/fW-r7sAAuYE/mqdefault.jpg","viewCount":"15037","playlistId":"PLEkQk5xrP-tkHAGOwIKr4pc5ehhyQ5HMJ","playlistName":"كتاب الرسالة القشيرية (تصوف) - د. يسري جبر","category":"تصوف"},{"id":"R6GDrSjlYKo","title":"الرسالة القشيرية - المجلس (116) بَابُ كرامات الأولياء ۹ والأخير | أ.د. يسري جبر","publishedAt":"2022-03-20T17:00:29Z","duration":"PT51M16S","thumbnail":"https://i.ytimg.com/vi/R6GDrSjlYKo/mqdefault.jpg","viewCount":"27195","playlistId":"PLEkQk5xrP-tkHAGOwIKr4pc5ehhyQ5HMJ","playlistName":"كتاب الرسالة القشيرية (تصوف) - د. يسري جبر","category":"تصوف"},{"id":"qBrzlXWuESo","title":"الرسالة القشيرية المجلس التاسع و العشرون (الغَيْبَةُ والحُضُور)     د. يسري جبر","publishedAt":"2018-09-21T20:43:29Z","duration":"PT30M52S","thumbnail":"https://i.ytimg.com/vi/qBrzlXWuESo/mqdefault.jpg","viewCount":"5750","playlistId":"PLEkQk5xrP-tkHAGOwIKr4pc5ehhyQ5HMJ","playlistName":"كتاب الرسالة القشيرية (تصوف) - د. يسري جبر","category":"تصوف"}],"total":120,"page":5,"pageSize":24,"totalPages":5}