{"items":[{"id":"5dLsIVN3TUY","title":"7- أسماءُ النَّبيّ ﷺ | سَيّدُنَا مُختار ﷺ","publishedAt":"2022-07-18T04:30:01Z","duration":"PT38M6S","thumbnail":"https://i.ytimg.com/vi/5dLsIVN3TUY/mqdefault.jpg","viewCount":"1660","playlistId":"PLEkQk5xrP-tkFEtMu56Xb9U9FCZBTXiLf","playlistName":"شرح صلوات الأولياء على خاتم الأنبياء ﷺ","category":"صلوات"},{"id":"82D6JeUu-kg","title":"5- صلوات اليوم الخامس - صلوات الأسماء الحسنى، شرح الصلوات اليسرية على خير البرية ﷺ","publishedAt":"2025-03-01T06:30:02Z","duration":"PT16M18S","thumbnail":"https://i.ytimg.com/vi/82D6JeUu-kg/mqdefault.jpg","viewCount":"1509","playlistId":"PLEkQk5xrP-tk92TNE3xhWCFNr9VshA9Zj","playlistName":"الصلوات اليسرية على خير البرية ﷺ","category":"صلوات"},{"id":"7tecGV1bOGs","title":"4- صلوات اليوم الرابع - صلوات الأسماء الحسنى، شرح الصلوات اليسرية على خير البرية ﷺ","publishedAt":"2025-02-28T07:00:07Z","duration":"PT16M50S","thumbnail":"https://i.ytimg.com/vi/7tecGV1bOGs/mqdefault.jpg","viewCount":"1411","playlistId":"PLEkQk5xrP-tk92TNE3xhWCFNr9VshA9Zj","playlistName":"الصلوات اليسرية على خير البرية ﷺ","category":"صلوات"}],"total":27,"page":2,"pageSize":24,"totalPages":2}