{"items":[{"id":"QX3UPs20D4g","title":"شرح كتاب الزهد من سنن الترمذي - المجلس الثالث","publishedAt":"2016-01-04T20:39:45Z","duration":"PT12M18S","thumbnail":"https://i.ytimg.com/vi/QX3UPs20D4g/mqdefault.jpg","viewCount":"114","playlistId":"PLEkQk5xrP-tnu6of679SvxdVx0qSrJzmb","playlistName":"شرح سنن الإمام الترمذي رضى الله عنه د. يسري جبر","category":"متنوع"},{"id":"Izcq5DX-rpY","title":"شرح كتاب الأدب من سنن الترمذي - المجلس العاشر","publishedAt":"2016-03-17T11:13:46Z","duration":"PT44M21S","thumbnail":"https://i.ytimg.com/vi/Izcq5DX-rpY/mqdefault.jpg","viewCount":"113","playlistId":"PLEkQk5xrP-tnu6of679SvxdVx0qSrJzmb","playlistName":"شرح سنن الإمام الترمذي رضى الله عنه د. يسري جبر","category":"متنوع"},{"id":"8u6ZY3JhP7c","title":"شرح كتاب اللباس من جامع الترمذي - المجلس الثاني","publishedAt":"2015-08-12T04:25:45Z","duration":"PT26M46S","thumbnail":"https://i.ytimg.com/vi/8u6ZY3JhP7c/mqdefault.jpg","viewCount":"113","playlistId":"PLEkQk5xrP-tnu6of679SvxdVx0qSrJzmb","playlistName":"شرح سنن الإمام الترمذي رضى الله عنه د. يسري جبر","category":"متنوع"},{"id":"hHOhEl8wsvk","title":"شرح كتاب فضائل الجهاد من سنن الترمذي - المجلس الأول","publishedAt":"2015-07-29T04:25:08Z","duration":"PT35M16S","thumbnail":"https://i.ytimg.com/vi/hHOhEl8wsvk/mqdefault.jpg","viewCount":"113","playlistId":"PLEkQk5xrP-tnu6of679SvxdVx0qSrJzmb","playlistName":"شرح سنن الإمام الترمذي رضى الله عنه د. يسري جبر","category":"متنوع"},{"id":"gkXtyNmcEhQ","title":"شرح كتاب تفسير القرآن من سنن الترمذي - المجلس السابع","publishedAt":"2016-04-10T11:03:24Z","duration":"PT20M22S","thumbnail":"https://i.ytimg.com/vi/gkXtyNmcEhQ/mqdefault.jpg","viewCount":"111","playlistId":"PLEkQk5xrP-tnu6of679SvxdVx0qSrJzmb","playlistName":"شرح سنن الإمام الترمذي رضى الله عنه د. يسري جبر","category":"متنوع"},{"id":"6Wf0JS_bos8","title":"شرح كتاب الأحكام من سنن الترمذي - المجلس الثامن","publishedAt":"2015-06-15T03:43:59Z","duration":"PT24M51S","thumbnail":"https://i.ytimg.com/vi/6Wf0JS_bos8/mqdefault.jpg","viewCount":"111","playlistId":"PLEkQk5xrP-tnu6of679SvxdVx0qSrJzmb","playlistName":"شرح سنن الإمام الترمذي رضى الله عنه د. يسري جبر","category":"متنوع"},{"id":"ZsDW_Ot1sMs","title":"شرح كتاب المناقب من سنن الترمذي - المجلس السابع عشر","publishedAt":"2016-07-12T07:03:46Z","duration":"PT13M8S","thumbnail":"https://i.ytimg.com/vi/ZsDW_Ot1sMs/mqdefault.jpg","viewCount":"110","playlistId":"PLEkQk5xrP-tnu6of679SvxdVx0qSrJzmb","playlistName":"شرح سنن الإمام الترمذي رضى الله عنه د. يسري جبر","category":"متنوع"},{"id":"KHxnkeG7UJk","title":"شرح كتاب المناقب من سنن الترمذي - المجلس الخامس عشر","publishedAt":"2016-07-11T21:32:00Z","duration":"PT12M44S","thumbnail":"https://i.ytimg.com/vi/KHxnkeG7UJk/mqdefault.jpg","viewCount":"110","playlistId":"PLEkQk5xrP-tnu6of679SvxdVx0qSrJzmb","playlistName":"شرح سنن الإمام الترمذي رضى الله عنه د. يسري جبر","category":"متنوع"},{"id":"iu0hkM4OH3E","title":"شرح كتاب الأدب من سنن الترمذي - المجلس الثاني","publishedAt":"2016-03-10T13:10:46Z","duration":"PT41M16S","thumbnail":"https://i.ytimg.com/vi/iu0hkM4OH3E/mqdefault.jpg","viewCount":"110","playlistId":"PLEkQk5xrP-tnu6of679SvxdVx0qSrJzmb","playlistName":"شرح سنن الإمام الترمذي رضى الله عنه د. يسري جبر","category":"متنوع"},{"id":"OYqohOOP1lA","title":"شرح كتاب الطب من سنن الترمذي - المجلس السادس","publishedAt":"2015-12-07T01:51:15Z","duration":"PT33M7S","thumbnail":"https://i.ytimg.com/vi/OYqohOOP1lA/mqdefault.jpg","viewCount":"110","playlistId":"PLEkQk5xrP-tnu6of679SvxdVx0qSrJzmb","playlistName":"شرح سنن الإمام الترمذي رضى الله عنه د. يسري جبر","category":"متنوع"},{"id":"pEyHP2CwAv8","title":"شرح كتاب الصيد والذبائح من سنن الترمذي - المجلس الرابع","publishedAt":"2015-07-04T03:40:45Z","duration":"PT24M16S","thumbnail":"https://i.ytimg.com/vi/pEyHP2CwAv8/mqdefault.jpg","viewCount":"110","playlistId":"PLEkQk5xrP-tnu6of679SvxdVx0qSrJzmb","playlistName":"شرح سنن الإمام الترمذي رضى الله عنه د. يسري جبر","category":"متنوع"},{"id":"105bBH9M1_k","title":"شرح كتاب تفسير القرآن من سنن الترمذي - المجلس التاسع عشر","publishedAt":"2016-04-26T02:56:36Z","duration":"PT31M39S","thumbnail":"https://i.ytimg.com/vi/105bBH9M1_k/mqdefault.jpg","viewCount":"110","playlistId":"PLEkQk5xrP-tnu6of679SvxdVx0qSrJzmb","playlistName":"شرح سنن الإمام الترمذي رضى الله عنه د. يسري جبر","category":"متنوع"},{"id":"O2SXLE2RcXI","title":"شرح كتاب الوصايا من سنن الترمذي","publishedAt":"2015-12-08T05:59:22Z","duration":"PT46M","thumbnail":"https://i.ytimg.com/vi/O2SXLE2RcXI/mqdefault.jpg","viewCount":"110","playlistId":"PLEkQk5xrP-tnu6of679SvxdVx0qSrJzmb","playlistName":"شرح سنن الإمام الترمذي رضى الله عنه د. يسري جبر","category":"متنوع"},{"id":"UYKvYBNBkUQ","title":"شرح كتاب المناقب من سنن الترمذي - المجلس العشرون","publishedAt":"2016-07-14T13:05:05Z","duration":"PT14M3S","thumbnail":"https://i.ytimg.com/vi/UYKvYBNBkUQ/mqdefault.jpg","viewCount":"109","playlistId":"PLEkQk5xrP-tnu6of679SvxdVx0qSrJzmb","playlistName":"شرح سنن الإمام الترمذي رضى الله عنه د. يسري جبر","category":"متنوع"},{"id":"S3CbrdI-BlA","title":"شرح كتاب الأطعمة من سنن الترمذي - المجلس السادس","publishedAt":"2015-08-22T07:21:22Z","duration":"PT36M46S","thumbnail":"https://i.ytimg.com/vi/S3CbrdI-BlA/mqdefault.jpg","viewCount":"109","playlistId":"PLEkQk5xrP-tnu6of679SvxdVx0qSrJzmb","playlistName":"شرح سنن الإمام الترمذي رضى الله عنه د. يسري جبر","category":"متنوع"},{"id":"OuPo0ewQxt0","title":"شرح كتاب الإيمان من سنن الترمذي - المجلس الخامس","publishedAt":"2016-02-28T08:38:20Z","duration":"PT34M26S","thumbnail":"https://i.ytimg.com/vi/OuPo0ewQxt0/mqdefault.jpg","viewCount":"108","playlistId":"PLEkQk5xrP-tnu6of679SvxdVx0qSrJzmb","playlistName":"شرح سنن الإمام الترمذي رضى الله عنه د. يسري جبر","category":"متنوع"},{"id":"mmdI2jCrPas","title":"شرح كتاب الدعوات من سنن الترمذي - المجلس الثامن","publishedAt":"2016-05-24T01:30:43Z","duration":"PT26M1S","thumbnail":"https://i.ytimg.com/vi/mmdI2jCrPas/mqdefault.jpg","viewCount":"108","playlistId":"PLEkQk5xrP-tnu6of679SvxdVx0qSrJzmb","playlistName":"شرح سنن الإمام الترمذي رضى الله عنه د. يسري جبر","category":"متنوع"},{"id":"WA_Lg-AnOK8","title":"شرح كتاب الأطعمة من جامع الترمذي - المجلس الثالث","publishedAt":"2015-08-19T04:40:23Z","duration":"PT32M30S","thumbnail":"https://i.ytimg.com/vi/WA_Lg-AnOK8/mqdefault.jpg","viewCount":"108","playlistId":"PLEkQk5xrP-tnu6of679SvxdVx0qSrJzmb","playlistName":"شرح سنن الإمام الترمذي رضى الله عنه د. يسري جبر","category":"متنوع"},{"id":"pWHOOnqFKiw","title":"شرح كتاب العلم من سنن الترمذي - المجلس الرابع","publishedAt":"2016-03-05T10:17:52Z","duration":"PT39M35S","thumbnail":"https://i.ytimg.com/vi/pWHOOnqFKiw/mqdefault.jpg","viewCount":"107","playlistId":"PLEkQk5xrP-tnu6of679SvxdVx0qSrJzmb","playlistName":"شرح سنن الإمام الترمذي رضى الله عنه د. يسري جبر","category":"متنوع"},{"id":"tmaJJEO8uzE","title":"شرح كتاب الحدود من سنن الترمذي - المجلس الخامس","publishedAt":"2015-06-27T05:07:47Z","duration":"PT18M58S","thumbnail":"https://i.ytimg.com/vi/tmaJJEO8uzE/mqdefault.jpg","viewCount":"106","playlistId":"PLEkQk5xrP-tnu6of679SvxdVx0qSrJzmb","playlistName":"شرح سنن الإمام الترمذي رضى الله عنه د. يسري جبر","category":"متنوع"},{"id":"2WtAPi-hUuI","title":"شرح كتاب الاستئذان والآداب من سنن الترمذي - المجلس الثالث","publishedAt":"2016-03-07T12:58:10Z","duration":"PT33M57S","thumbnail":"https://i.ytimg.com/vi/2WtAPi-hUuI/mqdefault.jpg","viewCount":"106","playlistId":"PLEkQk5xrP-tnu6of679SvxdVx0qSrJzmb","playlistName":"شرح سنن الإمام الترمذي رضى الله عنه د. يسري جبر","category":"متنوع"},{"id":"4BS4OHGo6bo","title":"شرح كتاب الأضاحي من سنن الترمذى - المجلس الرابع","publishedAt":"2015-07-08T03:58:02Z","duration":"PT28M50S","thumbnail":"https://i.ytimg.com/vi/4BS4OHGo6bo/mqdefault.jpg","viewCount":"106","playlistId":"PLEkQk5xrP-tnu6of679SvxdVx0qSrJzmb","playlistName":"شرح سنن الإمام الترمذي رضى الله عنه د. يسري جبر","category":"متنوع"},{"id":"KE4ER6eV3SY","title":"شرح كتاب تفسير القرآن من سنن الترمذي - المجلس التاسع والعشرون","publishedAt":"2016-05-06T09:25:48Z","duration":"PT30M39S","thumbnail":"https://i.ytimg.com/vi/KE4ER6eV3SY/mqdefault.jpg","viewCount":"106","playlistId":"PLEkQk5xrP-tnu6of679SvxdVx0qSrJzmb","playlistName":"شرح سنن الإمام الترمذي رضى الله عنه د. يسري جبر","category":"متنوع"},{"id":"iZli3a-8oyY","title":"شرح كتاب المناقب من سنن الترمذي - المجلس السادس عشر","publishedAt":"2016-07-12T03:26:50Z","duration":"PT11M1S","thumbnail":"https://i.ytimg.com/vi/iZli3a-8oyY/mqdefault.jpg","viewCount":"105","playlistId":"PLEkQk5xrP-tnu6of679SvxdVx0qSrJzmb","playlistName":"شرح سنن الإمام الترمذي رضى الله عنه د. يسري جبر","category":"متنوع"}],"total":244,"page":8,"pageSize":24,"totalPages":11}