{"items":[{"id":"qISR3J_Vycw","title":"شرح كتاب صفة الجنة من سنن الترمذي - المجلس الخامس","publishedAt":"2016-02-01T04:38:55Z","duration":"PT37M11S","thumbnail":"https://i.ytimg.com/vi/qISR3J_Vycw/mqdefault.jpg","viewCount":"195","playlistId":"PLEkQk5xrP-tnu6of679SvxdVx0qSrJzmb","playlistName":"شرح سنن الإمام الترمذي رضى الله عنه د. يسري جبر","category":"متنوع"},{"id":"4ErNdFE51NQ","title":"شرح كتاب الأحكام من سنن الترمذي - المجلس الأول","publishedAt":"2015-06-09T02:33:36Z","duration":"PT29M39S","thumbnail":"https://i.ytimg.com/vi/4ErNdFE51NQ/mqdefault.jpg","viewCount":"195","playlistId":"PLEkQk5xrP-tnu6of679SvxdVx0qSrJzmb","playlistName":"شرح سنن الإمام الترمذي رضى الله عنه د. يسري جبر","category":"متنوع"},{"id":"5vL9ArZpU8k","title":"شرح كتاب صفة القيامة والرقائق والورع من سنن الترمذي - المجلس السادس","publishedAt":"2016-01-21T10:20:22Z","duration":"PT36M52S","thumbnail":"https://i.ytimg.com/vi/5vL9ArZpU8k/mqdefault.jpg","viewCount":"194","playlistId":"PLEkQk5xrP-tnu6of679SvxdVx0qSrJzmb","playlistName":"شرح سنن الإمام الترمذي رضى الله عنه د. يسري جبر","category":"متنوع"},{"id":"y2q6_UK_8_Q","title":"شرح كتاب الفتن من سنن الترمذي - المجلس الثالث عشر","publishedAt":"2015-12-28T06:02:47Z","duration":"PT42M37S","thumbnail":"https://i.ytimg.com/vi/y2q6_UK_8_Q/mqdefault.jpg","viewCount":"194","playlistId":"PLEkQk5xrP-tnu6of679SvxdVx0qSrJzmb","playlistName":"شرح سنن الإمام الترمذي رضى الله عنه د. يسري جبر","category":"متنوع"},{"id":"eoXOm7Iaj7E","title":"شرح كتاب الفتن من سنن الترمذي - المجلس العاشر","publishedAt":"2015-12-27T04:38:02Z","duration":"PT36M51S","thumbnail":"https://i.ytimg.com/vi/eoXOm7Iaj7E/mqdefault.jpg","viewCount":"192","playlistId":"PLEkQk5xrP-tnu6of679SvxdVx0qSrJzmb","playlistName":"شرح سنن الإمام الترمذي رضى الله عنه د. يسري جبر","category":"متنوع"},{"id":"Cckpe7UDRxs","title":"شرح كتاب المناقب من سنن الترمذي - المجلس الثاني","publishedAt":"2016-06-03T14:05:49Z","duration":"PT48M59S","thumbnail":"https://i.ytimg.com/vi/Cckpe7UDRxs/mqdefault.jpg","viewCount":"190","playlistId":"PLEkQk5xrP-tnu6of679SvxdVx0qSrJzmb","playlistName":"شرح سنن الإمام الترمذي رضى الله عنه د. يسري جبر","category":"متنوع"},{"id":"6TOTLEYwxuQ","title":"شرح كتاب تفسير القرآن من سنن الترمذي - المجلس الثاني","publishedAt":"2016-04-06T02:39:52Z","duration":"PT49M30S","thumbnail":"https://i.ytimg.com/vi/6TOTLEYwxuQ/mqdefault.jpg","viewCount":"189","playlistId":"PLEkQk5xrP-tnu6of679SvxdVx0qSrJzmb","playlistName":"شرح سنن الإمام الترمذي رضى الله عنه د. يسري جبر","category":"متنوع"},{"id":"lHYTWF1Ypk8","title":"شرح كتاب الزهد من سنن الترمذي - المجلس الخامس","publishedAt":"2016-01-06T06:17:06Z","duration":"PT37M59S","thumbnail":"https://i.ytimg.com/vi/lHYTWF1Ypk8/mqdefault.jpg","viewCount":"188","playlistId":"PLEkQk5xrP-tnu6of679SvxdVx0qSrJzmb","playlistName":"شرح سنن الإمام الترمذي رضى الله عنه د. يسري جبر","category":"متنوع"},{"id":"viLCUlYrSas","title":"شرح كتاب الزهد من سنن الترمذي - المجلس الرابع","publishedAt":"2016-01-05T06:03:10Z","duration":"PT31M51S","thumbnail":"https://i.ytimg.com/vi/viLCUlYrSas/mqdefault.jpg","viewCount":"186","playlistId":"PLEkQk5xrP-tnu6of679SvxdVx0qSrJzmb","playlistName":"شرح سنن الإمام الترمذي رضى الله عنه د. يسري جبر","category":"متنوع"},{"id":"kNDSLY2jtBY","title":"شرح كتاب القدر من سنن الترمذي - المجلس الثالث","publishedAt":"2015-12-12T06:05:15Z","duration":"PT41M51S","thumbnail":"https://i.ytimg.com/vi/kNDSLY2jtBY/mqdefault.jpg","viewCount":"186","playlistId":"PLEkQk5xrP-tnu6of679SvxdVx0qSrJzmb","playlistName":"شرح سنن الإمام الترمذي رضى الله عنه د. يسري جبر","category":"متنوع"},{"id":"RjQy80Zy8N4","title":"شرح كتاب الطب من سنن الترمذي - المجلس الثانى","publishedAt":"2015-12-02T02:14:06Z","duration":"PT36M34S","thumbnail":"https://i.ytimg.com/vi/RjQy80Zy8N4/mqdefault.jpg","viewCount":"186","playlistId":"PLEkQk5xrP-tnu6of679SvxdVx0qSrJzmb","playlistName":"شرح سنن الإمام الترمذي رضى الله عنه د. يسري جبر","category":"متنوع"},{"id":"oHspDPc7bkE","title":"شرح كتاب القراءات من سنن الترمذي - المجلس الأول","publishedAt":"2016-04-03T03:16:59Z","duration":"PT33M1S","thumbnail":"https://i.ytimg.com/vi/oHspDPc7bkE/mqdefault.jpg","viewCount":"186","playlistId":"PLEkQk5xrP-tnu6of679SvxdVx0qSrJzmb","playlistName":"شرح سنن الإمام الترمذي رضى الله عنه د. يسري جبر","category":"متنوع"},{"id":"rC5OIlSkJiI","title":"شرح كتاب الإيمان من سنن الترمذي - المجلس الأول","publishedAt":"2016-02-23T10:49:50Z","duration":"PT39M3S","thumbnail":"https://i.ytimg.com/vi/rC5OIlSkJiI/mqdefault.jpg","viewCount":"182","playlistId":"PLEkQk5xrP-tnu6of679SvxdVx0qSrJzmb","playlistName":"شرح سنن الإمام الترمذي رضى الله عنه د. يسري جبر","category":"متنوع"},{"id":"IzqYD_OT5Rc","title":"شرح كتاب الأطعمة من جامع الترمذي - المجلس الثاني","publishedAt":"2015-08-18T16:58:26Z","duration":"PT33M47S","thumbnail":"https://i.ytimg.com/vi/IzqYD_OT5Rc/mqdefault.jpg","viewCount":"177","playlistId":"PLEkQk5xrP-tnu6of679SvxdVx0qSrJzmb","playlistName":"شرح سنن الإمام الترمذي رضى الله عنه د. يسري جبر","category":"متنوع"},{"id":"3vtbWzLm3aM","title":"شرح كتاب الزهد من سنن الترمذي - المجلس الثامن","publishedAt":"2016-01-09T08:04:52Z","duration":"PT31M17S","thumbnail":"https://i.ytimg.com/vi/3vtbWzLm3aM/mqdefault.jpg","viewCount":"175","playlistId":"PLEkQk5xrP-tnu6of679SvxdVx0qSrJzmb","playlistName":"شرح سنن الإمام الترمذي رضى الله عنه د. يسري جبر","category":"متنوع"},{"id":"xMowNvJYzZc","title":"شرح كتاب الأمثال من سنن الترمذي - المجلس الأول","publishedAt":"2016-03-27T02:18:15Z","duration":"PT33M32S","thumbnail":"https://i.ytimg.com/vi/xMowNvJYzZc/mqdefault.jpg","viewCount":"174","playlistId":"PLEkQk5xrP-tnu6of679SvxdVx0qSrJzmb","playlistName":"شرح سنن الإمام الترمذي رضى الله عنه د. يسري جبر","category":"متنوع"},{"id":"u4PWJCE6Yn0","title":"شرح كتاب الاستئذان والآداب من سنن الترمذي - المجلس الأول","publishedAt":"2016-03-05T10:18:11Z","duration":"PT43M38S","thumbnail":"https://i.ytimg.com/vi/u4PWJCE6Yn0/mqdefault.jpg","viewCount":"174","playlistId":"PLEkQk5xrP-tnu6of679SvxdVx0qSrJzmb","playlistName":"شرح سنن الإمام الترمذي رضى الله عنه د. يسري جبر","category":"متنوع"},{"id":"zndQPWdROq8","title":"شرح كتاب الأمثال من سنن الترمذي - المجلس الثاني","publishedAt":"2016-03-28T02:25:19Z","duration":"PT42M52S","thumbnail":"https://i.ytimg.com/vi/zndQPWdROq8/mqdefault.jpg","viewCount":"173","playlistId":"PLEkQk5xrP-tnu6of679SvxdVx0qSrJzmb","playlistName":"شرح سنن الإمام الترمذي رضى الله عنه د. يسري جبر","category":"متنوع"},{"id":"jxrvdokgukI","title":"شرح كتاب صفة الجنة من سنن الترمذي - المجلس الثالث","publishedAt":"2016-01-29T09:01:11Z","duration":"PT28M45S","thumbnail":"https://i.ytimg.com/vi/jxrvdokgukI/mqdefault.jpg","viewCount":"171","playlistId":"PLEkQk5xrP-tnu6of679SvxdVx0qSrJzmb","playlistName":"شرح سنن الإمام الترمذي رضى الله عنه د. يسري جبر","category":"متنوع"},{"id":"D7BJHpjsO3Q","title":"شرح كتاب فضائل القرآن من سنن الترمذي - المجلس الخامس","publishedAt":"2016-04-02T02:21:34Z","duration":"PT28M56S","thumbnail":"https://i.ytimg.com/vi/D7BJHpjsO3Q/mqdefault.jpg","viewCount":"171","playlistId":"PLEkQk5xrP-tnu6of679SvxdVx0qSrJzmb","playlistName":"شرح سنن الإمام الترمذي رضى الله عنه د. يسري جبر","category":"متنوع"},{"id":"GhjsVLLOEnk","title":"شرح كتاب الأشربة من سنن الترمذي - المجلس الثالث","publishedAt":"2015-08-27T05:11:22Z","duration":"PT27M40S","thumbnail":"https://i.ytimg.com/vi/GhjsVLLOEnk/mqdefault.jpg","viewCount":"170","playlistId":"PLEkQk5xrP-tnu6of679SvxdVx0qSrJzmb","playlistName":"شرح سنن الإمام الترمذي رضى الله عنه د. يسري جبر","category":"متنوع"},{"id":"FrESYW6FLMQ","title":"شرح كتاب الدعوات من سنن الترمذي - المجلس الرابع","publishedAt":"2016-05-17T02:40:48Z","duration":"PT41M45S","thumbnail":"https://i.ytimg.com/vi/FrESYW6FLMQ/mqdefault.jpg","viewCount":"170","playlistId":"PLEkQk5xrP-tnu6of679SvxdVx0qSrJzmb","playlistName":"شرح سنن الإمام الترمذي رضى الله عنه د. يسري جبر","category":"متنوع"},{"id":"Bt1U1poB-hs","title":"شرح كتاب صفة القيامة والرقائق والورع من سنن الترمذي - المجلس الثامن","publishedAt":"2016-01-23T22:16:47Z","duration":"PT38M33S","thumbnail":"https://i.ytimg.com/vi/Bt1U1poB-hs/mqdefault.jpg","viewCount":"169","playlistId":"PLEkQk5xrP-tnu6of679SvxdVx0qSrJzmb","playlistName":"شرح سنن الإمام الترمذي رضى الله عنه د. يسري جبر","category":"متنوع"},{"id":"CHNATKDJAb8","title":"شرح كتاب السِّيَر من سنن الترمذي - المجلس الثالث","publishedAt":"2015-07-14T03:53:01Z","duration":"PT19M16S","thumbnail":"https://i.ytimg.com/vi/CHNATKDJAb8/mqdefault.jpg","viewCount":"168","playlistId":"PLEkQk5xrP-tnu6of679SvxdVx0qSrJzmb","playlistName":"شرح سنن الإمام الترمذي رضى الله عنه د. يسري جبر","category":"متنوع"}],"total":244,"page":3,"pageSize":24,"totalPages":11}