{"items":[{"id":"iZli3a-8oyY","title":"شرح كتاب المناقب من سنن الترمذي - المجلس السادس عشر","publishedAt":"2016-07-12T03:26:50Z","duration":"PT11M1S","thumbnail":"https://i.ytimg.com/vi/iZli3a-8oyY/mqdefault.jpg","viewCount":"105","playlistId":"PLEkQk5xrP-tnu6of679SvxdVx0qSrJzmb","playlistName":"شرح سنن الإمام الترمذي رضى الله عنه د. يسري جبر","category":"متنوع"},{"id":"xq1uZ4-K30s","title":"شرح كتاب الإيمان من سنن الترمذي - المجلس الرابع","publishedAt":"2016-02-28T06:20:57Z","duration":"PT41M20S","thumbnail":"https://i.ytimg.com/vi/xq1uZ4-K30s/mqdefault.jpg","viewCount":"104","playlistId":"PLEkQk5xrP-tnu6of679SvxdVx0qSrJzmb","playlistName":"شرح سنن الإمام الترمذي رضى الله عنه د. يسري جبر","category":"متنوع"},{"id":"jcxOn-nolD4","title":"شرح كتاب المناقب من سنن الترمذي - المجلس الثامن عشر","publishedAt":"2016-07-14T10:42:09Z","duration":"PT14M34S","thumbnail":"https://i.ytimg.com/vi/jcxOn-nolD4/mqdefault.jpg","viewCount":"104","playlistId":"PLEkQk5xrP-tnu6of679SvxdVx0qSrJzmb","playlistName":"شرح سنن الإمام الترمذي رضى الله عنه د. يسري جبر","category":"متنوع"},{"id":"GPk3yn2gqEU","title":"شرح كتاب تفسير القرآن من سنن الترمذي - المجلس الثلاثون","publishedAt":"2016-05-08T02:35:51Z","duration":"PT30M26S","thumbnail":"https://i.ytimg.com/vi/GPk3yn2gqEU/mqdefault.jpg","viewCount":"104","playlistId":"PLEkQk5xrP-tnu6of679SvxdVx0qSrJzmb","playlistName":"شرح سنن الإمام الترمذي رضى الله عنه د. يسري جبر","category":"متنوع"},{"id":"lyU3MUatGjQ","title":"شرح كتاب النذور و الأيمان من سنن الترمذى - المجلس الثاني","publishedAt":"2015-07-10T04:04:46Z","duration":"PT24M15S","thumbnail":"https://i.ytimg.com/vi/lyU3MUatGjQ/mqdefault.jpg","viewCount":"103","playlistId":"PLEkQk5xrP-tnu6of679SvxdVx0qSrJzmb","playlistName":"شرح سنن الإمام الترمذي رضى الله عنه د. يسري جبر","category":"متنوع"},{"id":"9Oo5EawPSBg","title":"شرح كتاب الديات من سنن الترمذي - المجلس الثالث","publishedAt":"2015-06-20T03:36:40Z","duration":"PT35M11S","thumbnail":"https://i.ytimg.com/vi/9Oo5EawPSBg/mqdefault.jpg","viewCount":"103","playlistId":"PLEkQk5xrP-tnu6of679SvxdVx0qSrJzmb","playlistName":"شرح سنن الإمام الترمذي رضى الله عنه د. يسري جبر","category":"متنوع"},{"id":"DMVupGvdt6E","title":"شرح كتاب تفسير القرآن من سنن الترمذي - المجلس الثالث عشر","publishedAt":"2016-04-20T03:09:09Z","duration":"PT40M52S","thumbnail":"https://i.ytimg.com/vi/DMVupGvdt6E/mqdefault.jpg","viewCount":"102","playlistId":"PLEkQk5xrP-tnu6of679SvxdVx0qSrJzmb","playlistName":"شرح سنن الإمام الترمذي رضى الله عنه د. يسري جبر","category":"متنوع"},{"id":"VBS8G7vlO-I","title":"شرح كتاب الدعوات من سنن الترمذي - المجلس العاشر","publishedAt":"2016-05-26T02:29:06Z","duration":"PT27M11S","thumbnail":"https://i.ytimg.com/vi/VBS8G7vlO-I/mqdefault.jpg","viewCount":"102","playlistId":"PLEkQk5xrP-tnu6of679SvxdVx0qSrJzmb","playlistName":"شرح سنن الإمام الترمذي رضى الله عنه د. يسري جبر","category":"متنوع"},{"id":"zBxkZNoQeoA","title":"شرح كتاب تفسير القرآن من سنن الترمذي - المجلس السادس عشر","publishedAt":"2016-04-22T18:23:29Z","duration":"PT37M50S","thumbnail":"https://i.ytimg.com/vi/zBxkZNoQeoA/mqdefault.jpg","viewCount":"102","playlistId":"PLEkQk5xrP-tnu6of679SvxdVx0qSrJzmb","playlistName":"شرح سنن الإمام الترمذي رضى الله عنه د. يسري جبر","category":"متنوع"},{"id":"8W1FNXH2PTA","title":"شرح كتاب اللباس من جامع الترمذي - المجلس السادس","publishedAt":"2015-08-16T04:53:28Z","duration":"PT40M8S","thumbnail":"https://i.ytimg.com/vi/8W1FNXH2PTA/mqdefault.jpg","viewCount":"101","playlistId":"PLEkQk5xrP-tnu6of679SvxdVx0qSrJzmb","playlistName":"شرح سنن الإمام الترمذي رضى الله عنه د. يسري جبر","category":"متنوع"},{"id":"MxIG5-Yce9Y","title":"شرح كتاب اللباس من جامع الترمذي - المجلس الثالث","publishedAt":"2015-08-13T04:41:23Z","duration":"PT42M41S","thumbnail":"https://i.ytimg.com/vi/MxIG5-Yce9Y/mqdefault.jpg","viewCount":"100","playlistId":"PLEkQk5xrP-tnu6of679SvxdVx0qSrJzmb","playlistName":"شرح سنن الإمام الترمذي رضى الله عنه د. يسري جبر","category":"متنوع"},{"id":"xqICkQBKN9U","title":"شرح كتاب الجهاد من سنن الترمذي - المجلس الخامس","publishedAt":"2015-08-10T04:17:24Z","duration":"PT42M32S","thumbnail":"https://i.ytimg.com/vi/xqICkQBKN9U/mqdefault.jpg","viewCount":"100","playlistId":"PLEkQk5xrP-tnu6of679SvxdVx0qSrJzmb","playlistName":"شرح سنن الإمام الترمذي رضى الله عنه د. يسري جبر","category":"متنوع"},{"id":"GcBM0tMKhrU","title":"شرح كتاب تفسير القرآن من سنن الترمذي - المجلس الرابع والعشرون","publishedAt":"2016-05-01T02:53:01Z","duration":"PT33M12S","thumbnail":"https://i.ytimg.com/vi/GcBM0tMKhrU/mqdefault.jpg","viewCount":"100","playlistId":"PLEkQk5xrP-tnu6of679SvxdVx0qSrJzmb","playlistName":"شرح سنن الإمام الترمذي رضى الله عنه د. يسري جبر","category":"متنوع"},{"id":"Z-jSaXDwnoE","title":"شرح كتاب الطب من سنن الترمذي - المجلس الخامس","publishedAt":"2015-12-07T01:51:15Z","duration":"PT30M","thumbnail":"https://i.ytimg.com/vi/Z-jSaXDwnoE/mqdefault.jpg","viewCount":"99","playlistId":"PLEkQk5xrP-tnu6of679SvxdVx0qSrJzmb","playlistName":"شرح سنن الإمام الترمذي رضى الله عنه د. يسري جبر","category":"متنوع"},{"id":"3EMsbVFeeDg","title":"شرح كتاب الجهاد من سنن الترمذي - المجلس الأول","publishedAt":"2015-08-06T04:27:01Z","duration":"PT27M","thumbnail":"https://i.ytimg.com/vi/3EMsbVFeeDg/mqdefault.jpg","viewCount":"99","playlistId":"PLEkQk5xrP-tnu6of679SvxdVx0qSrJzmb","playlistName":"شرح سنن الإمام الترمذي رضى الله عنه د. يسري جبر","category":"متنوع"},{"id":"Blh3mvtpQsg","title":"شرح كتاب تفسير القرآن من سنن الترمذي - المجلس الرابع والثلاثون","publishedAt":"2016-05-12T09:51:08Z","duration":"PT41M19S","thumbnail":"https://i.ytimg.com/vi/Blh3mvtpQsg/mqdefault.jpg","viewCount":"99","playlistId":"PLEkQk5xrP-tnu6of679SvxdVx0qSrJzmb","playlistName":"شرح سنن الإمام الترمذي رضى الله عنه د. يسري جبر","category":"متنوع"},{"id":"iIWDX0C7gcI","title":"شرح كتاب الفرائض من سنن الترمذي - المجلس الرابع","publishedAt":"2015-12-09T00:47:50Z","duration":"PT37M41S","thumbnail":"https://i.ytimg.com/vi/iIWDX0C7gcI/mqdefault.jpg","viewCount":"98","playlistId":"PLEkQk5xrP-tnu6of679SvxdVx0qSrJzmb","playlistName":"شرح سنن الإمام الترمذي رضى الله عنه د. يسري جبر","category":"متنوع"},{"id":"lw5cdq_vX7E","title":"شرح كتاب الجهاد من سنن الترمذي - المجلس الرابع","publishedAt":"2015-08-09T04:19:38Z","duration":"PT41M11S","thumbnail":"https://i.ytimg.com/vi/lw5cdq_vX7E/mqdefault.jpg","viewCount":"98","playlistId":"PLEkQk5xrP-tnu6of679SvxdVx0qSrJzmb","playlistName":"شرح سنن الإمام الترمذي رضى الله عنه د. يسري جبر","category":"متنوع"},{"id":"o4Nj_5TdcD8","title":"شرح كتاب الأضاحي من سنن الترمذى - المجلس الثاني","publishedAt":"2015-07-06T03:31:41Z","duration":"PT17M10S","thumbnail":"https://i.ytimg.com/vi/o4Nj_5TdcD8/mqdefault.jpg","viewCount":"98","playlistId":"PLEkQk5xrP-tnu6of679SvxdVx0qSrJzmb","playlistName":"شرح سنن الإمام الترمذي رضى الله عنه د. يسري جبر","category":"متنوع"},{"id":"h6kD_P9g9b4","title":"شرح كتاب الحدود من سنن الترمذي - المجلس الثالث","publishedAt":"2015-06-25T03:57:12Z","duration":"PT32M52S","thumbnail":"https://i.ytimg.com/vi/h6kD_P9g9b4/mqdefault.jpg","viewCount":"97","playlistId":"PLEkQk5xrP-tnu6of679SvxdVx0qSrJzmb","playlistName":"شرح سنن الإمام الترمذي رضى الله عنه د. يسري جبر","category":"متنوع"},{"id":"5fq-q45Du_s","title":"شرح كتاب الديات من سنن الترمذي - المجلس الرابع","publishedAt":"2015-06-21T03:47:14Z","duration":"PT34M56S","thumbnail":"https://i.ytimg.com/vi/5fq-q45Du_s/mqdefault.jpg","viewCount":"97","playlistId":"PLEkQk5xrP-tnu6of679SvxdVx0qSrJzmb","playlistName":"شرح سنن الإمام الترمذي رضى الله عنه د. يسري جبر","category":"متنوع"},{"id":"yNtLXZcpLNc","title":"شرح كتاب تفسير القرآن من سنن الترمذي - المجلس الخامس","publishedAt":"2016-04-08T09:16:45Z","duration":"PT43M40S","thumbnail":"https://i.ytimg.com/vi/yNtLXZcpLNc/mqdefault.jpg","viewCount":"96","playlistId":"PLEkQk5xrP-tnu6of679SvxdVx0qSrJzmb","playlistName":"شرح سنن الإمام الترمذي رضى الله عنه د. يسري جبر","category":"متنوع"},{"id":"ET4FVXJrbnI","title":"شرح كتاب تفسير القرآن من سنن الترمذي - المجلس الرابع","publishedAt":"2016-04-08T08:45:20Z","duration":"PT35M51S","thumbnail":"https://i.ytimg.com/vi/ET4FVXJrbnI/mqdefault.jpg","viewCount":"96","playlistId":"PLEkQk5xrP-tnu6of679SvxdVx0qSrJzmb","playlistName":"شرح سنن الإمام الترمذي رضى الله عنه د. يسري جبر","category":"متنوع"},{"id":"q08VoPOvBXQ","title":"شرح كتاب الأدب من سنن الترمذي - المجلس الثامن","publishedAt":"2016-03-16T03:39:48Z","duration":"PT39M12S","thumbnail":"https://i.ytimg.com/vi/q08VoPOvBXQ/mqdefault.jpg","viewCount":"96","playlistId":"PLEkQk5xrP-tnu6of679SvxdVx0qSrJzmb","playlistName":"شرح سنن الإمام الترمذي رضى الله عنه د. يسري جبر","category":"متنوع"}],"total":244,"page":9,"pageSize":24,"totalPages":11}