{"items":[{"id":"bNpaZxaqEdg","title":"شرح كتاب الفتن من سنن الترمذي - المجلس الثاني","publishedAt":"2015-12-15T05:57:43Z","duration":"PT34M36S","thumbnail":"https://i.ytimg.com/vi/bNpaZxaqEdg/mqdefault.jpg","viewCount":"263","playlistId":"PLEkQk5xrP-tnu6of679SvxdVx0qSrJzmb","playlistName":"شرح سنن الإمام الترمذي رضى الله عنه د. يسري جبر","category":"متنوع"},{"id":"ktJ0_EsKDFk","title":"شرح كتاب صفة الجنة من سنن الترمذي - المجلس الرابع","publishedAt":"2016-01-30T15:23:51Z","duration":"PT44M3S","thumbnail":"https://i.ytimg.com/vi/ktJ0_EsKDFk/mqdefault.jpg","viewCount":"254","playlistId":"PLEkQk5xrP-tnu6of679SvxdVx0qSrJzmb","playlistName":"شرح سنن الإمام الترمذي رضى الله عنه د. يسري جبر","category":"متنوع"},{"id":"9AUpei8NFic","title":"شرح كتاب الفتن من سنن الترمذي - المجلس الرابع عشر","publishedAt":"2015-12-29T06:20:18Z","duration":"PT54M26S","thumbnail":"https://i.ytimg.com/vi/9AUpei8NFic/mqdefault.jpg","viewCount":"254","playlistId":"PLEkQk5xrP-tnu6of679SvxdVx0qSrJzmb","playlistName":"شرح سنن الإمام الترمذي رضى الله عنه د. يسري جبر","category":"متنوع"},{"id":"yGu1QiqvE_4","title":"شرح كتاب الفتن من سنن الترمذي - المجلس السادس","publishedAt":"2015-12-19T07:19:53Z","duration":"PT35M44S","thumbnail":"https://i.ytimg.com/vi/yGu1QiqvE_4/mqdefault.jpg","viewCount":"246","playlistId":"PLEkQk5xrP-tnu6of679SvxdVx0qSrJzmb","playlistName":"شرح سنن الإمام الترمذي رضى الله عنه د. يسري جبر","category":"متنوع"},{"id":"VBJnawCzUVs","title":"شرح كتاب السِّيَرمن سنن الترمذى - المجلس الأول","publishedAt":"2015-07-12T04:08:12Z","duration":"PT23M35S","thumbnail":"https://i.ytimg.com/vi/VBJnawCzUVs/mqdefault.jpg","viewCount":"245","playlistId":"PLEkQk5xrP-tnu6of679SvxdVx0qSrJzmb","playlistName":"شرح سنن الإمام الترمذي رضى الله عنه د. يسري جبر","category":"متنوع"},{"id":"Cbf-nWWQH2E","title":"شرح كتاب البيوع من سنن الترمذي - المجلس الرابع","publishedAt":"2015-05-27T03:57:21Z","duration":"PT44M6S","thumbnail":"https://i.ytimg.com/vi/Cbf-nWWQH2E/mqdefault.jpg","viewCount":"244","playlistId":"PLEkQk5xrP-tnu6of679SvxdVx0qSrJzmb","playlistName":"شرح سنن الإمام الترمذي رضى الله عنه د. يسري جبر","category":"متنوع"},{"id":"LOP7RFzpJPc","title":"شرح كتاب الرؤيا من سنن الترمذي - المجلس الثاني","publishedAt":"2015-12-31T06:19:23Z","duration":"PT38M41S","thumbnail":"https://i.ytimg.com/vi/LOP7RFzpJPc/mqdefault.jpg","viewCount":"243","playlistId":"PLEkQk5xrP-tnu6of679SvxdVx0qSrJzmb","playlistName":"شرح سنن الإمام الترمذي رضى الله عنه د. يسري جبر","category":"متنوع"},{"id":"0EOglmbFD74","title":"شرح كتاب النذور و الأيمان  من سنن الترمذى - المجلس الأول","publishedAt":"2015-07-09T04:03:41Z","duration":"PT19M55S","thumbnail":"https://i.ytimg.com/vi/0EOglmbFD74/mqdefault.jpg","viewCount":"240","playlistId":"PLEkQk5xrP-tnu6of679SvxdVx0qSrJzmb","playlistName":"شرح سنن الإمام الترمذي رضى الله عنه د. يسري جبر","category":"متنوع"},{"id":"HOGWSrespeY","title":"شرح كتاب الزهد من سنن الترمذي - المجلس التاسع","publishedAt":"2016-01-10T08:41:27Z","duration":"PT38M26S","thumbnail":"https://i.ytimg.com/vi/HOGWSrespeY/mqdefault.jpg","viewCount":"239","playlistId":"PLEkQk5xrP-tnu6of679SvxdVx0qSrJzmb","playlistName":"شرح سنن الإمام الترمذي رضى الله عنه د. يسري جبر","category":"متنوع"},{"id":"C1ln8BD_E-M","title":"شرح كتاب الفتن من سنن الترمذي - المجلس الحادي عشر","publishedAt":"2015-12-26T05:59:24Z","duration":"PT32M6S","thumbnail":"https://i.ytimg.com/vi/C1ln8BD_E-M/mqdefault.jpg","viewCount":"237","playlistId":"PLEkQk5xrP-tnu6of679SvxdVx0qSrJzmb","playlistName":"شرح سنن الإمام الترمذي رضى الله عنه د. يسري جبر","category":"متنوع"},{"id":"rRfAjCYxiuw","title":"شرح كتاب تفسير القرآن من سنن الترمذي - المجلس الأول","publishedAt":"2016-04-05T03:13:44Z","duration":"PT40M49S","thumbnail":"https://i.ytimg.com/vi/rRfAjCYxiuw/mqdefault.jpg","viewCount":"234","playlistId":"PLEkQk5xrP-tnu6of679SvxdVx0qSrJzmb","playlistName":"شرح سنن الإمام الترمذي رضى الله عنه د. يسري جبر","category":"متنوع"},{"id":"iF-nEJtDIY8","title":"شرح كتاب البيوع من سنن الترمذي - المجلس الخامس","publishedAt":"2015-05-28T04:02:52Z","duration":"PT38M32S","thumbnail":"https://i.ytimg.com/vi/iF-nEJtDIY8/mqdefault.jpg","viewCount":"231","playlistId":"PLEkQk5xrP-tnu6of679SvxdVx0qSrJzmb","playlistName":"شرح سنن الإمام الترمذي رضى الله عنه د. يسري جبر","category":"متنوع"},{"id":"Xre46v0yeQM","title":"شرح كتاب صفة القيامة والرقائق والورع من سنن الترمذي - المجلس الثالث","publishedAt":"2016-01-18T08:18:13Z","duration":"PT48M16S","thumbnail":"https://i.ytimg.com/vi/Xre46v0yeQM/mqdefault.jpg","viewCount":"231","playlistId":"PLEkQk5xrP-tnu6of679SvxdVx0qSrJzmb","playlistName":"شرح سنن الإمام الترمذي رضى الله عنه د. يسري جبر","category":"متنوع"},{"id":"fMq_bAY5Ulk","title":"شرح كتاب الصيد والذبائح من سنن الترمذي - المجلس الأول","publishedAt":"2015-07-01T03:54:58Z","duration":"PT17M15S","thumbnail":"https://i.ytimg.com/vi/fMq_bAY5Ulk/mqdefault.jpg","viewCount":"229","playlistId":"PLEkQk5xrP-tnu6of679SvxdVx0qSrJzmb","playlistName":"شرح سنن الإمام الترمذي رضى الله عنه د. يسري جبر","category":"متنوع"},{"id":"X6LRrRmsUTw","title":"شرح كتاب المناقب من سنن الترمذي - المجلس الأول","publishedAt":"2016-06-03T02:16:36Z","duration":"PT52M34S","thumbnail":"https://i.ytimg.com/vi/X6LRrRmsUTw/mqdefault.jpg","viewCount":"221","playlistId":"PLEkQk5xrP-tnu6of679SvxdVx0qSrJzmb","playlistName":"شرح سنن الإمام الترمذي رضى الله عنه د. يسري جبر","category":"متنوع"},{"id":"xb9N_YNAElo","title":"شرح كتاب الفتن من سنن الترمذي - المجلس الثاني عشر","publishedAt":"2015-12-27T06:10:36Z","duration":"PT41M31S","thumbnail":"https://i.ytimg.com/vi/xb9N_YNAElo/mqdefault.jpg","viewCount":"219","playlistId":"PLEkQk5xrP-tnu6of679SvxdVx0qSrJzmb","playlistName":"شرح سنن الإمام الترمذي رضى الله عنه د. يسري جبر","category":"متنوع"},{"id":"92sDrseOqLw","title":"شرح كتاب القدر من سنن الترمذي - المجلس الأول","publishedAt":"2015-12-10T05:54:26Z","duration":"PT30M6S","thumbnail":"https://i.ytimg.com/vi/92sDrseOqLw/mqdefault.jpg","viewCount":"217","playlistId":"PLEkQk5xrP-tnu6of679SvxdVx0qSrJzmb","playlistName":"شرح سنن الإمام الترمذي رضى الله عنه د. يسري جبر","category":"متنوع"},{"id":"Phx6oOmDSxA","title":"شرح كتاب فضائل القرآن من سنن الترمذي - المجلس الأول","publishedAt":"2016-03-29T02:21:01Z","duration":"PT32M14S","thumbnail":"https://i.ytimg.com/vi/Phx6oOmDSxA/mqdefault.jpg","viewCount":"216","playlistId":"PLEkQk5xrP-tnu6of679SvxdVx0qSrJzmb","playlistName":"شرح سنن الإمام الترمذي رضى الله عنه د. يسري جبر","category":"متنوع"},{"id":"YO0sxIIHqvg","title":"شرح كتاب البيوع من سنن الترمذي - المجلس السادس","publishedAt":"2015-05-29T04:12:20Z","duration":"PT32M15S","thumbnail":"https://i.ytimg.com/vi/YO0sxIIHqvg/mqdefault.jpg","viewCount":"216","playlistId":"PLEkQk5xrP-tnu6of679SvxdVx0qSrJzmb","playlistName":"شرح سنن الإمام الترمذي رضى الله عنه د. يسري جبر","category":"متنوع"},{"id":"YjxOk-zhOsE","title":"شرح كتاب صفة القيامة والرقائق والورع من سنن الترمذي - المجلس الرابع","publishedAt":"2016-01-19T10:06:04Z","duration":"PT45M39S","thumbnail":"https://i.ytimg.com/vi/YjxOk-zhOsE/mqdefault.jpg","viewCount":"203","playlistId":"PLEkQk5xrP-tnu6of679SvxdVx0qSrJzmb","playlistName":"شرح سنن الإمام الترمذي رضى الله عنه د. يسري جبر","category":"متنوع"},{"id":"LG7lfH5rstE","title":"شرح كتاب البيوع من سنن الترمذي - المجلس الثالث عشر","publishedAt":"2015-06-05T06:03:22Z","duration":"PT36M52S","thumbnail":"https://i.ytimg.com/vi/LG7lfH5rstE/mqdefault.jpg","viewCount":"201","playlistId":"PLEkQk5xrP-tnu6of679SvxdVx0qSrJzmb","playlistName":"شرح سنن الإمام الترمذي رضى الله عنه د. يسري جبر","category":"متنوع"},{"id":"8cI5GlgzRHk","title":"شرح كتاب الزهد من سنن الترمذي - المجلس الثاني","publishedAt":"2016-01-03T06:08:01Z","duration":"PT31M41S","thumbnail":"https://i.ytimg.com/vi/8cI5GlgzRHk/mqdefault.jpg","viewCount":"200","playlistId":"PLEkQk5xrP-tnu6of679SvxdVx0qSrJzmb","playlistName":"شرح سنن الإمام الترمذي رضى الله عنه د. يسري جبر","category":"متنوع"},{"id":"CWn1_KVdnVM","title":"شرح كتاب البيوع من سنن الترمذي - المجلس السابع","publishedAt":"2015-05-30T03:51:09Z","duration":"PT32M31S","thumbnail":"https://i.ytimg.com/vi/CWn1_KVdnVM/mqdefault.jpg","viewCount":"197","playlistId":"PLEkQk5xrP-tnu6of679SvxdVx0qSrJzmb","playlistName":"شرح سنن الإمام الترمذي رضى الله عنه د. يسري جبر","category":"متنوع"},{"id":"QrLysP0MXyI","title":"شرح كتاب صفة جهنم من سنن الترمذي - المجلس الثاني","publishedAt":"2016-02-23T08:29:50Z","duration":"PT44M15S","thumbnail":"https://i.ytimg.com/vi/QrLysP0MXyI/mqdefault.jpg","viewCount":"196","playlistId":"PLEkQk5xrP-tnu6of679SvxdVx0qSrJzmb","playlistName":"شرح سنن الإمام الترمذي رضى الله عنه د. يسري جبر","category":"متنوع"}],"total":244,"page":2,"pageSize":24,"totalPages":11}