{"items":[{"id":"y0LkCZb7gwg","title":"115- مَن استعاذ بالله فأعيذوه، ومَن سألكم بوجه الله فأعطوه | ما معنى العُمرى؟","publishedAt":"2024-07-08T08:00:37Z","duration":"PT43M48S","thumbnail":"https://i.ytimg.com/vi/y0LkCZb7gwg/mqdefault.jpg","viewCount":"1366","playlistId":"PLEkQk5xrP-tkKprIuGrSdEuBSMsyg5We1","playlistName":"شرح مسند الإمام أحمد بن حنبل","category":"متنوع"},{"id":"0BvcNpTwxPI","title":"114- حكم مَن اتُّهِمَ زُورًا - شرح مسند الإمام أحمد رضي الله تعالى عنه","publishedAt":"2024-06-29T07:03:44Z","duration":"PT36M36S","thumbnail":"https://i.ytimg.com/vi/0BvcNpTwxPI/mqdefault.jpg","viewCount":"935","playlistId":"PLEkQk5xrP-tkKprIuGrSdEuBSMsyg5We1","playlistName":"شرح مسند الإمام أحمد بن حنبل","category":"متنوع"},{"id":"87fQ_8mHgPs","title":"113- حكم فرق شعر الرأس - شرح مسند الإمام أحمد رضي الله تعالى عنه","publishedAt":"2024-06-22T09:10:00Z","duration":"PT27M11S","thumbnail":"https://i.ytimg.com/vi/87fQ_8mHgPs/mqdefault.jpg","viewCount":"956","playlistId":"PLEkQk5xrP-tkKprIuGrSdEuBSMsyg5We1","playlistName":"شرح مسند الإمام أحمد بن حنبل","category":"متنوع"},{"id":"BwzJWv5AZ_Y","title":"112- حُجَّ عن أبيك - شرح مسند الإمام أحمد رضي الله تعالى عنه","publishedAt":"2024-06-19T09:01:00Z","duration":"PT40M49S","thumbnail":"https://i.ytimg.com/vi/BwzJWv5AZ_Y/mqdefault.jpg","viewCount":"817","playlistId":"PLEkQk5xrP-tkKprIuGrSdEuBSMsyg5We1","playlistName":"شرح مسند الإمام أحمد بن حنبل","category":"متنوع"},{"id":"CLRy0GEzAmc","title":"111-أهمية تقديم الصلاة على الخطبة يوم العيد - شرح مسند الإمام أحمد رضي الله تعالى عنه","publishedAt":"2024-06-17T06:00:09Z","duration":"PT21M31S","thumbnail":"https://i.ytimg.com/vi/CLRy0GEzAmc/mqdefault.jpg","viewCount":"926","playlistId":"PLEkQk5xrP-tkKprIuGrSdEuBSMsyg5We1","playlistName":"شرح مسند الإمام أحمد بن حنبل","category":"متنوع"},{"id":"8qNA1oHfAD8","title":"110- صفات الدجال - شرح مسند الإمام أحمد رضي الله تعالى عنه","publishedAt":"2024-06-02T05:30:03Z","duration":"PT56M57S","thumbnail":"https://i.ytimg.com/vi/8qNA1oHfAD8/mqdefault.jpg","viewCount":"2711","playlistId":"PLEkQk5xrP-tkKprIuGrSdEuBSMsyg5We1","playlistName":"شرح مسند الإمام أحمد بن حنبل","category":"متنوع"},{"id":"3VdOSC6Hvxs","title":"109 - علِّموا ويسِّروا ولا تعسِّروا وإذا غضب أحدكم فليسكت - شرح مسند الإمام أحمد رضي الله تعالى عنه","publishedAt":"2024-05-28T05:00:03Z","duration":"PT21M6S","thumbnail":"https://i.ytimg.com/vi/3VdOSC6Hvxs/mqdefault.jpg","viewCount":"1947","playlistId":"PLEkQk5xrP-tkKprIuGrSdEuBSMsyg5We1","playlistName":"شرح مسند الإمام أحمد بن حنبل","category":"متنوع"},{"id":"rdunYXXmU10","title":"108- حكم اللعان - شرح مسند الإمام أحمد رضي الله تعالى عنه","publishedAt":"2024-05-26T06:04:25Z","duration":"PT27M5S","thumbnail":"https://i.ytimg.com/vi/rdunYXXmU10/mqdefault.jpg","viewCount":"832","playlistId":"PLEkQk5xrP-tkKprIuGrSdEuBSMsyg5We1","playlistName":"شرح مسند الإمام أحمد بن حنبل","category":"متنوع"},{"id":"tmYsy7XPlUg","title":"107- فضل الإحسان إلى الأخوات والبنات - شرح مسند الإمام أحمد رضي الله تعالى عنه","publishedAt":"2024-05-23T05:42:30Z","duration":"PT33M53S","thumbnail":"https://i.ytimg.com/vi/tmYsy7XPlUg/mqdefault.jpg","viewCount":"1672","playlistId":"PLEkQk5xrP-tkKprIuGrSdEuBSMsyg5We1","playlistName":"شرح مسند الإمام أحمد بن حنبل","category":"متنوع"},{"id":"-BMP4SshhR8","title":"106- حكم العمل على الأرض ببعض ما يخرج منها - شرح مسند الإمام أحمد رضي الله تعالى عنه","publishedAt":"2024-05-19T06:18:40Z","duration":"PT30M27S","thumbnail":"https://i.ytimg.com/vi/-BMP4SshhR8/mqdefault.jpg","viewCount":"893","playlistId":"PLEkQk5xrP-tkKprIuGrSdEuBSMsyg5We1","playlistName":"شرح مسند الإمام أحمد بن حنبل","category":"متنوع"},{"id":"oveeCWvwPBU","title":"105- حكم الأكل من صيد الكلب المعلم - شرح مسند الإمام أحمد رضي الله تعالى عنه","publishedAt":"2024-05-18T05:54:18Z","duration":"PT36M51S","thumbnail":"https://i.ytimg.com/vi/oveeCWvwPBU/mqdefault.jpg","viewCount":"854","playlistId":"PLEkQk5xrP-tkKprIuGrSdEuBSMsyg5We1","playlistName":"شرح مسند الإمام أحمد بن حنبل","category":"متنوع"},{"id":"vtPBUQaWpsI","title":"104- الوصية الجامعة البالغة - شرح مسند الإمام أحمد رضي الله تعالى عنه","publishedAt":"2024-05-12T05:38:26Z","duration":"PT31M23S","thumbnail":"https://i.ytimg.com/vi/vtPBUQaWpsI/mqdefault.jpg","viewCount":"1501","playlistId":"PLEkQk5xrP-tkKprIuGrSdEuBSMsyg5We1","playlistName":"شرح مسند الإمام أحمد بن حنبل","category":"متنوع"},{"id":"6U4bNZ_WZrg","title":"103- فتن آخر الزمان | دعاء الشدة والكرب - شرح مسند الإمام أحمد رضي الله تعالى عنه","publishedAt":"2024-05-09T05:18:44Z","duration":"PT42M50S","thumbnail":"https://i.ytimg.com/vi/6U4bNZ_WZrg/mqdefault.jpg","viewCount":"2414","playlistId":"PLEkQk5xrP-tkKprIuGrSdEuBSMsyg5We1","playlistName":"شرح مسند الإمام أحمد بن حنبل","category":"متنوع"},{"id":"bUWXQ-XGysA","title":"102- لا هجرةَ بعد الفتح، ولكنْ جهادٌ ونيَّةٌ - شرح مسند الإمام أحمد رضي الله تعالى عنه","publishedAt":"2024-05-07T05:15:02Z","duration":"PT25M2S","thumbnail":"https://i.ytimg.com/vi/bUWXQ-XGysA/mqdefault.jpg","viewCount":"931","playlistId":"PLEkQk5xrP-tkKprIuGrSdEuBSMsyg5We1","playlistName":"شرح مسند الإمام أحمد بن حنبل","category":"متنوع"},{"id":"rejKMd9gEIA","title":"101- حكم مَن انشغل بالنافلة عن الفريضة - شرح مسند الإمام أحمد رضي الله تعالى عنه","publishedAt":"2024-05-05T09:00:39Z","duration":"PT39M18S","thumbnail":"https://i.ytimg.com/vi/rejKMd9gEIA/mqdefault.jpg","viewCount":"1097","playlistId":"PLEkQk5xrP-tkKprIuGrSdEuBSMsyg5We1","playlistName":"شرح مسند الإمام أحمد بن حنبل","category":"متنوع"},{"id":"v7K4Pwr1Gtg","title":"100- حكم ختام الصلاة جهرًا - شرح مسند الإمام أحمد رضي الله تعالى عنه","publishedAt":"2024-05-03T05:00:29Z","duration":"PT35M3S","thumbnail":"https://i.ytimg.com/vi/v7K4Pwr1Gtg/mqdefault.jpg","viewCount":"960","playlistId":"PLEkQk5xrP-tkKprIuGrSdEuBSMsyg5We1","playlistName":"شرح مسند الإمام أحمد بن حنبل","category":"متنوع"},{"id":"IkusFyibm8Y","title":"99- من مبشرات النبوة الرؤيا الصالحة - شرح مسند الإمام أحمد رضي الله تعالى عنه","publishedAt":"2024-05-01T06:00:11Z","duration":"PT42M47S","thumbnail":"https://i.ytimg.com/vi/IkusFyibm8Y/mqdefault.jpg","viewCount":"1749","playlistId":"PLEkQk5xrP-tkKprIuGrSdEuBSMsyg5We1","playlistName":"شرح مسند الإمام أحمد بن حنبل","category":"متنوع"},{"id":"EwMLwB5ho2s","title":"98- هل النجوم يُعرف بها علم الغيب؟ - شرح مسند الإمام أحمد رضي الله تعالى عنه","publishedAt":"2024-04-30T05:45:00Z","duration":"PT30M18S","thumbnail":"https://i.ytimg.com/vi/EwMLwB5ho2s/mqdefault.jpg","viewCount":"2537","playlistId":"PLEkQk5xrP-tkKprIuGrSdEuBSMsyg5We1","playlistName":"شرح مسند الإمام أحمد بن حنبل","category":"متنوع"},{"id":"Sr4s5C8En8Y","title":"97- كيفية تغسيل المُحْرِم وتكفينه | آداب رمي الجمرات - شرح مسند الإمام أحمد رضي الله تعالى عنه","publishedAt":"2024-04-24T06:00:19Z","duration":"PT43M40S","thumbnail":"https://i.ytimg.com/vi/Sr4s5C8En8Y/mqdefault.jpg","viewCount":"1023","playlistId":"PLEkQk5xrP-tkKprIuGrSdEuBSMsyg5We1","playlistName":"شرح مسند الإمام أحمد بن حنبل","category":"متنوع"},{"id":"6e3akMZ5kXM","title":"96- نبذة عن سيدنا عبد الله بن عباس رضي اللهُ تعالى عنهما - شرح مسند الإمام أحمد رضي الله تعالى عنه","publishedAt":"2024-04-21T06:00:02Z","duration":"PT36M55S","thumbnail":"https://i.ytimg.com/vi/6e3akMZ5kXM/mqdefault.jpg","viewCount":"1721","playlistId":"PLEkQk5xrP-tkKprIuGrSdEuBSMsyg5We1","playlistName":"شرح مسند الإمام أحمد بن حنبل","category":"متنوع"},{"id":"2IsGxVhH-Uk","title":"95- تكملة ما جاء في مسند سيدنا الفضل بن العباس رضي اللهُ تعالى عنهما (2)","publishedAt":"2024-04-19T07:00:02Z","duration":"PT26M27S","thumbnail":"https://i.ytimg.com/vi/2IsGxVhH-Uk/mqdefault.jpg","viewCount":"973","playlistId":"PLEkQk5xrP-tkKprIuGrSdEuBSMsyg5We1","playlistName":"شرح مسند الإمام أحمد بن حنبل","category":"متنوع"},{"id":"HHfFPrwe4QU","title":"94- نبذة عن سيدنا الفضل بن العباس رضي اللهُ تعالى عنهما - شرح مسند الإمام أحمد رضي الله تعالى عنه","publishedAt":"2024-04-17T06:31:15Z","duration":"PT22M41S","thumbnail":"https://i.ytimg.com/vi/HHfFPrwe4QU/mqdefault.jpg","viewCount":"1581","playlistId":"PLEkQk5xrP-tkKprIuGrSdEuBSMsyg5We1","playlistName":"شرح مسند الإمام أحمد بن حنبل","category":"متنوع"},{"id":"Vb7DvCeDiRQ","title":"93- تكملة ما جاء في مسند سيدنا العباس بن عبد المطلب رضي الله تعالى عنه (2)","publishedAt":"2024-04-14T07:16:57Z","duration":"PT27M39S","thumbnail":"https://i.ytimg.com/vi/Vb7DvCeDiRQ/mqdefault.jpg","viewCount":"949","playlistId":"PLEkQk5xrP-tkKprIuGrSdEuBSMsyg5We1","playlistName":"شرح مسند الإمام أحمد بن حنبل","category":"متنوع"},{"id":"WgVGHBkT7Vs","title":"92- نبذة عن سيدنا العباس بن عبد المطلب رضي الله تعالى عنه - شرح مسند الإمام أحمد رضي الله تعالى عنه","publishedAt":"2024-04-11T07:00:11Z","duration":"PT34M1S","thumbnail":"https://i.ytimg.com/vi/WgVGHBkT7Vs/mqdefault.jpg","viewCount":"1382","playlistId":"PLEkQk5xrP-tkKprIuGrSdEuBSMsyg5We1","playlistName":"شرح مسند الإمام أحمد بن حنبل","category":"متنوع"}],"total":187,"page":4,"pageSize":24,"totalPages":8}