{"items":[{"id":"y14BPvUuB-4","title":"(الرسالة القشيرية - المجلس السادس عشر (باب في ذكر مشايخ هذه الطريقة - المجلس الثامن","publishedAt":"2018-03-25T19:42:02Z","duration":"PT58M13S","thumbnail":"https://i.ytimg.com/vi/y14BPvUuB-4/mqdefault.jpg","viewCount":"8507","playlistId":"PLEkQk5xrP-tkHAGOwIKr4pc5ehhyQ5HMJ","playlistName":"كتاب الرسالة القشيرية (تصوف) - د. يسري جبر","category":"تصوف"},{"id":"1tdDdzOfpSk","title":"الرسالة القشيرية - المجلس (71) بَابُ الإخْلَاصِ. أ.د. يسري جبر","publishedAt":"2019-11-28T22:11:47Z","duration":"PT54M47S","thumbnail":"https://i.ytimg.com/vi/1tdDdzOfpSk/mqdefault.jpg","viewCount":"8339","playlistId":"PLEkQk5xrP-tkHAGOwIKr4pc5ehhyQ5HMJ","playlistName":"كتاب الرسالة القشيرية (تصوف) - د. يسري جبر","category":"تصوف"},{"id":"oDwbMNiVSc4","title":"الرسالة القشيرية - المجلس (86) بَابُ الفقر | أ.د. يسري جبر","publishedAt":"2021-08-14T17:26:14Z","duration":"PT54M7S","thumbnail":"https://i.ytimg.com/vi/oDwbMNiVSc4/mqdefault.jpg","viewCount":"8328","playlistId":"PLEkQk5xrP-tkHAGOwIKr4pc5ehhyQ5HMJ","playlistName":"كتاب الرسالة القشيرية (تصوف) - د. يسري جبر","category":"تصوف"},{"id":"1y8T7IVVWO8","title":"الرسالة القشيرية - المجلس (60)  بابُ التَّوَكُّلِ. أ.د. يسري جبر","publishedAt":"2019-08-06T01:05:45Z","duration":"PT48M58S","thumbnail":"https://i.ytimg.com/vi/1y8T7IVVWO8/mqdefault.jpg","viewCount":"8307","playlistId":"PLEkQk5xrP-tkHAGOwIKr4pc5ehhyQ5HMJ","playlistName":"كتاب الرسالة القشيرية (تصوف) - د. يسري جبر","category":"تصوف"},{"id":"ft3nkyFDqdo","title":"الرسالة القشيرية المجلس الرابع و الثلاثون (القرب والبعد - الشريعة والحقيقة) د. يسري جبر","publishedAt":"2018-11-01T15:23:43Z","duration":"PT50M33S","thumbnail":"https://i.ytimg.com/vi/ft3nkyFDqdo/mqdefault.jpg","viewCount":"8279","playlistId":"PLEkQk5xrP-tkHAGOwIKr4pc5ehhyQ5HMJ","playlistName":"كتاب الرسالة القشيرية (تصوف) - د. يسري جبر","category":"تصوف"},{"id":"vl1UjGb1zSI","title":"الرسالة القشيرية - المجلس (99) بَابُ المحبة ٢ | أ.د. يسري جبر","publishedAt":"2021-11-16T18:59:55Z","duration":"PT38M16S","thumbnail":"https://i.ytimg.com/vi/vl1UjGb1zSI/mqdefault.jpg","viewCount":"8149","playlistId":"PLEkQk5xrP-tkHAGOwIKr4pc5ehhyQ5HMJ","playlistName":"كتاب الرسالة القشيرية (تصوف) - د. يسري جبر","category":"تصوف"},{"id":"ZLGMkzhC_98","title":"الرسالة القشيرية - المجلس (89) بَابُ التصوف | أ.د. يسري جبر","publishedAt":"2021-09-08T18:15:02Z","duration":"PT58M22S","thumbnail":"https://i.ytimg.com/vi/ZLGMkzhC_98/mqdefault.jpg","viewCount":"8119","playlistId":"PLEkQk5xrP-tkHAGOwIKr4pc5ehhyQ5HMJ","playlistName":"كتاب الرسالة القشيرية (تصوف) - د. يسري جبر","category":"تصوف"},{"id":"WI-85HOTOOY","title":"الرسالة القشيرية - المجلس السادس و العشرون - (التواجد والوجد والوجود).","publishedAt":"2018-08-09T05:34:32Z","duration":"PT50M52S","thumbnail":"https://i.ytimg.com/vi/WI-85HOTOOY/mqdefault.jpg","viewCount":"7993","playlistId":"PLEkQk5xrP-tkHAGOwIKr4pc5ehhyQ5HMJ","playlistName":"كتاب الرسالة القشيرية (تصوف) - د. يسري جبر","category":"تصوف"},{"id":"4qKENDf3XPE","title":"الرسالة القشيرية - المجلس (50) تكملة باب الصمت - باب الخوف أ.د. يسري جبر","publishedAt":"2019-03-13T15:23:36Z","duration":"PT53M34S","thumbnail":"https://i.ytimg.com/vi/4qKENDf3XPE/mqdefault.jpg","viewCount":"7952","playlistId":"PLEkQk5xrP-tkHAGOwIKr4pc5ehhyQ5HMJ","playlistName":"كتاب الرسالة القشيرية (تصوف) - د. يسري جبر","category":"تصوف"},{"id":"Y3SmvO9np-I","title":"الرسالة القشيرية - المجلس (90) بَابُ التصوف۲ | أ.د. يسري جبر","publishedAt":"2021-09-15T19:30:04Z","duration":"PT58M20S","thumbnail":"https://i.ytimg.com/vi/Y3SmvO9np-I/mqdefault.jpg","viewCount":"7900","playlistId":"PLEkQk5xrP-tkHAGOwIKr4pc5ehhyQ5HMJ","playlistName":"كتاب الرسالة القشيرية (تصوف) - د. يسري جبر","category":"تصوف"},{"id":"EJDwwjr8C4Y","title":"الرسالة القشيرية - المجلس الثامن عشر (باب في ذكر مشايخ هذه الطريقة - المجلس العاشر)","publishedAt":"2018-05-03T23:33:12Z","duration":"PT56M55S","thumbnail":"https://i.ytimg.com/vi/EJDwwjr8C4Y/mqdefault.jpg","viewCount":"7729","playlistId":"PLEkQk5xrP-tkHAGOwIKr4pc5ehhyQ5HMJ","playlistName":"كتاب الرسالة القشيرية (تصوف) - د. يسري جبر","category":"تصوف"},{"id":"9aPofSxJj50","title":"الرسالة القشيرية المجلس الثامن و الثلاثون (باب التوبة) د. يسري جبر","publishedAt":"2018-11-30T17:49:56Z","duration":"PT45M7S","thumbnail":"https://i.ytimg.com/vi/9aPofSxJj50/mqdefault.jpg","viewCount":"7672","playlistId":"PLEkQk5xrP-tkHAGOwIKr4pc5ehhyQ5HMJ","playlistName":"كتاب الرسالة القشيرية (تصوف) - د. يسري جبر","category":"تصوف"},{"id":"66EEx6lgD4U","title":"الرسالة القشيرية المجلس الخامس و الثلاثون (النَّفَس - الخواطر) د. يسري جبر","publishedAt":"2018-11-09T16:28:15Z","duration":"PT41M43S","thumbnail":"https://i.ytimg.com/vi/66EEx6lgD4U/mqdefault.jpg","viewCount":"7630","playlistId":"PLEkQk5xrP-tkHAGOwIKr4pc5ehhyQ5HMJ","playlistName":"كتاب الرسالة القشيرية (تصوف) - د. يسري جبر","category":"تصوف"},{"id":"IcHfH5VnxXU","title":"الرسالة القشيرية - المجلس (92) بَابُ السفر | أ.د. يسري جبر","publishedAt":"2021-09-28T18:30:11Z","duration":"PT1H11M47S","thumbnail":"https://i.ytimg.com/vi/IcHfH5VnxXU/mqdefault.jpg","viewCount":"7426","playlistId":"PLEkQk5xrP-tkHAGOwIKr4pc5ehhyQ5HMJ","playlistName":"كتاب الرسالة القشيرية (تصوف) - د. يسري جبر","category":"تصوف"},{"id":"BeadQpCbJHM","title":"الرسالة القشيرية - المجلس الخامس عشر (باب في ذكر مشايخ هذه الطريقة - المجلس السابع)","publishedAt":"2018-04-09T11:34:47Z","duration":"PT54M28S","thumbnail":"https://i.ytimg.com/vi/BeadQpCbJHM/mqdefault.jpg","viewCount":"7418","playlistId":"PLEkQk5xrP-tkHAGOwIKr4pc5ehhyQ5HMJ","playlistName":"كتاب الرسالة القشيرية (تصوف) - د. يسري جبر","category":"تصوف"},{"id":"dzkwSjkfjmk","title":"الرسالة القشيرية - المجلس (101) بَابُ المحبة ٤ | أ.د. يسري جبر","publishedAt":"2021-12-02T19:00:08Z","duration":"PT40M54S","thumbnail":"https://i.ytimg.com/vi/dzkwSjkfjmk/mqdefault.jpg","viewCount":"7363","playlistId":"PLEkQk5xrP-tkHAGOwIKr4pc5ehhyQ5HMJ","playlistName":"كتاب الرسالة القشيرية (تصوف) - د. يسري جبر","category":"تصوف"},{"id":"KgukMU92Tr8","title":"الرسالة القشيرية-المجلس الثالث و العشرون- باب في تفسير ألفاظ تدور بين هذه الطائفة وبيان ما يشكل منها","publishedAt":"2018-07-19T18:35:04Z","duration":"PT50M11S","thumbnail":"https://i.ytimg.com/vi/KgukMU92Tr8/mqdefault.jpg","viewCount":"7282","playlistId":"PLEkQk5xrP-tkHAGOwIKr4pc5ehhyQ5HMJ","playlistName":"كتاب الرسالة القشيرية (تصوف) - د. يسري جبر","category":"تصوف"},{"id":"D9yI-C0lICg","title":"الرسالة القشيرية - المجلس السابع و العشرون - (الجمع والفرق وجمع الجمع).","publishedAt":"2018-08-16T06:49:49Z","duration":"PT40M8S","thumbnail":"https://i.ytimg.com/vi/D9yI-C0lICg/mqdefault.jpg","viewCount":"7069","playlistId":"PLEkQk5xrP-tkHAGOwIKr4pc5ehhyQ5HMJ","playlistName":"كتاب الرسالة القشيرية (تصوف) - د. يسري جبر","category":"تصوف"},{"id":"ISkSXbhFCc8","title":"الرسالة القشيرية - المجلس الثالث عشر (باب في ذكر مشايخ هذه الطريقة - المجلس الخامس)","publishedAt":"2018-03-01T13:22:04Z","duration":"PT45M34S","thumbnail":"https://i.ytimg.com/vi/ISkSXbhFCc8/mqdefault.jpg","viewCount":"7000","playlistId":"PLEkQk5xrP-tkHAGOwIKr4pc5ehhyQ5HMJ","playlistName":"كتاب الرسالة القشيرية (تصوف) - د. يسري جبر","category":"تصوف"},{"id":"09ENj-0GgiQ","title":"الرسالة القشيرية المجلس الثلاثون (الصَحْو والسُكْر - الذَوق والشُرب) د. يسري جبر","publishedAt":"2018-10-06T17:29:22Z","duration":"PT45M31S","thumbnail":"https://i.ytimg.com/vi/09ENj-0GgiQ/mqdefault.jpg","viewCount":"6967","playlistId":"PLEkQk5xrP-tkHAGOwIKr4pc5ehhyQ5HMJ","playlistName":"كتاب الرسالة القشيرية (تصوف) - د. يسري جبر","category":"تصوف"},{"id":"toWLIAnUNg8","title":"الرسالة القشيرية - المجلس (93) بَابُ الصحبة | أ.د. يسري جبر","publishedAt":"2021-10-08T17:07:12Z","duration":"PT1H3M35S","thumbnail":"https://i.ytimg.com/vi/toWLIAnUNg8/mqdefault.jpg","viewCount":"6893","playlistId":"PLEkQk5xrP-tkHAGOwIKr4pc5ehhyQ5HMJ","playlistName":"كتاب الرسالة القشيرية (تصوف) - د. يسري جبر","category":"تصوف"},{"id":"Qfm5Qotpb48","title":"الرسالة القشيرية - المجلس (55) بابُ الخُشُوعِ وَالتَّوَاضِعِ. أ.د. يسري جبر","publishedAt":"2019-06-29T16:11:01Z","duration":"PT54M36S","thumbnail":"https://i.ytimg.com/vi/Qfm5Qotpb48/mqdefault.jpg","viewCount":"6816","playlistId":"PLEkQk5xrP-tkHAGOwIKr4pc5ehhyQ5HMJ","playlistName":"كتاب الرسالة القشيرية (تصوف) - د. يسري جبر","category":"تصوف"},{"id":"XQZHYD3kKDY","title":"الرسالة القشيرية - المجلس (58) بابُ الحَسَدِ وبابُ الغِيبَة أ.د. يسري جبر","publishedAt":"2019-07-20T19:09:20Z","duration":"PT47M30S","thumbnail":"https://i.ytimg.com/vi/XQZHYD3kKDY/mqdefault.jpg","viewCount":"6754","playlistId":"PLEkQk5xrP-tkHAGOwIKr4pc5ehhyQ5HMJ","playlistName":"كتاب الرسالة القشيرية (تصوف) - د. يسري جبر","category":"تصوف"},{"id":"Y2FURtG0sJM","title":"الرسالة القشيرية - المجلس (69) بَابُ الإِرَادَةِ. أ.د. يسري جبر","publishedAt":"2019-11-08T08:37:43Z","duration":"PT55M20S","thumbnail":"https://i.ytimg.com/vi/Y2FURtG0sJM/mqdefault.jpg","viewCount":"6701","playlistId":"PLEkQk5xrP-tkHAGOwIKr4pc5ehhyQ5HMJ","playlistName":"كتاب الرسالة القشيرية (تصوف) - د. يسري جبر","category":"تصوف"}],"total":120,"page":3,"pageSize":24,"totalPages":5}