{"items":[{"id":"Yj5Lr0WKzDY","title":"أحوال القلب فضل من الله","publishedAt":"2020-09-30T19:26:11Z","duration":"PT13M29S","thumbnail":"https://i.ytimg.com/vi/Yj5Lr0WKzDY/mqdefault.jpg","viewCount":"10213","playlistId":"PLEkQk5xrP-tm8ZIu74nTOZN9KJUJu416J","playlistName":"مقاطع مُهمَّة (يُسريَّات) أ.د. يسري جبر","category":"متنوع"},{"id":"v4Jpdo788cg","title":"المداومة وعدم المبالغة","publishedAt":"2020-09-29T21:52:00Z","duration":"PT16M58S","thumbnail":"https://i.ytimg.com/vi/v4Jpdo788cg/mqdefault.jpg","viewCount":"6557","playlistId":"PLEkQk5xrP-tm8ZIu74nTOZN9KJUJu416J","playlistName":"مقاطع مُهمَّة (يُسريَّات) أ.د. يسري جبر","category":"متنوع"},{"id":"OlVyZD6J2mQ","title":"الفرق والجمع","publishedAt":"2020-09-27T20:17:16Z","duration":"PT6M56S","thumbnail":"https://i.ytimg.com/vi/OlVyZD6J2mQ/mqdefault.jpg","viewCount":"2182","playlistId":"PLEkQk5xrP-tm8ZIu74nTOZN9KJUJu416J","playlistName":"مقاطع مُهمَّة (يُسريَّات) أ.د. يسري جبر","category":"متنوع"},{"id":"fVwYgc8BmT0","title":"كن صاحب استقامة ولا تكن طالب كرامة","publishedAt":"2020-09-26T20:01:47Z","duration":"PT6M10S","thumbnail":"https://i.ytimg.com/vi/fVwYgc8BmT0/mqdefault.jpg","viewCount":"3826","playlistId":"PLEkQk5xrP-tm8ZIu74nTOZN9KJUJu416J","playlistName":"مقاطع مُهمَّة (يُسريَّات) أ.د. يسري جبر","category":"متنوع"},{"id":"GBMd7pEcyPE","title":"الواسطة العظـمى ﷺ.","publishedAt":"2020-09-25T18:35:27Z","duration":"PT6M11S","thumbnail":"https://i.ytimg.com/vi/GBMd7pEcyPE/mqdefault.jpg","viewCount":"3801","playlistId":"PLEkQk5xrP-tm8ZIu74nTOZN9KJUJu416J","playlistName":"مقاطع مُهمَّة (يُسريَّات) أ.د. يسري جبر","category":"متنوع"},{"id":"DtzVyjmeyqQ","title":"إضافة يسرية للخصائص النبوية","publishedAt":"2020-09-24T17:59:45Z","duration":"PT2M26S","thumbnail":"https://i.ytimg.com/vi/DtzVyjmeyqQ/mqdefault.jpg","viewCount":"1791","playlistId":"PLEkQk5xrP-tm8ZIu74nTOZN9KJUJu416J","playlistName":"مقاطع مُهمَّة (يُسريَّات) أ.د. يسري جبر","category":"متنوع"},{"id":"LJ8HDvJsAVc","title":"اختراعات إسلامية","publishedAt":"2020-09-23T19:39:11Z","duration":"PT12M1S","thumbnail":"https://i.ytimg.com/vi/LJ8HDvJsAVc/mqdefault.jpg","viewCount":"1300","playlistId":"PLEkQk5xrP-tm8ZIu74nTOZN9KJUJu416J","playlistName":"مقاطع مُهمَّة (يُسريَّات) أ.د. يسري جبر","category":"متنوع"},{"id":"9SUG3wQ5RbE","title":"اللقم تدفع النقم","publishedAt":"2020-09-18T19:02:02Z","duration":"PT3M20S","thumbnail":"https://i.ytimg.com/vi/9SUG3wQ5RbE/mqdefault.jpg","viewCount":"7099","playlistId":"PLEkQk5xrP-tm8ZIu74nTOZN9KJUJu416J","playlistName":"مقاطع مُهمَّة (يُسريَّات) أ.د. يسري جبر","category":"متنوع"},{"id":"im2HysUhoVU","title":"التخلي والتحلي والتجلي","publishedAt":"2020-09-14T18:39:28Z","duration":"PT3M37S","thumbnail":"https://i.ytimg.com/vi/im2HysUhoVU/mqdefault.jpg","viewCount":"4138","playlistId":"PLEkQk5xrP-tm8ZIu74nTOZN9KJUJu416J","playlistName":"مقاطع مُهمَّة (يُسريَّات) أ.د. يسري جبر","category":"متنوع"},{"id":"EQHsoM2ljmA","title":"آداب الطريقة","publishedAt":"2020-09-12T14:44:11Z","duration":"PT14M18S","thumbnail":"https://i.ytimg.com/vi/EQHsoM2ljmA/mqdefault.jpg","viewCount":"3224","playlistId":"PLEkQk5xrP-tm8ZIu74nTOZN9KJUJu416J","playlistName":"مقاطع مُهمَّة (يُسريَّات) أ.د. يسري جبر","category":"متنوع"},{"id":"hST8DOv5UOA","title":"حلاوة الذكر","publishedAt":"2020-09-11T19:00:08Z","duration":"PT2M44S","thumbnail":"https://i.ytimg.com/vi/hST8DOv5UOA/mqdefault.jpg","viewCount":"9140","playlistId":"PLEkQk5xrP-tm8ZIu74nTOZN9KJUJu416J","playlistName":"مقاطع مُهمَّة (يُسريَّات) أ.د. يسري جبر","category":"متنوع"},{"id":"daAnVSGJ8Sg","title":"كيف دخل إبليس الجنة ؟","publishedAt":"2020-09-10T19:58:23Z","duration":"PT11M30S","thumbnail":"https://i.ytimg.com/vi/daAnVSGJ8Sg/mqdefault.jpg","viewCount":"25824","playlistId":"PLEkQk5xrP-tm8ZIu74nTOZN9KJUJu416J","playlistName":"مقاطع مُهمَّة (يُسريَّات) أ.د. يسري جبر","category":"متنوع"},{"id":"fZ_fTtDobdA","title":"الأدب حال الكشف","publishedAt":"2020-09-08T18:54:28Z","duration":"PT9M8S","thumbnail":"https://i.ytimg.com/vi/fZ_fTtDobdA/mqdefault.jpg","viewCount":"9201","playlistId":"PLEkQk5xrP-tm8ZIu74nTOZN9KJUJu416J","playlistName":"مقاطع مُهمَّة (يُسريَّات) أ.د. يسري جبر","category":"متنوع"},{"id":"gL0dm-dg9WU","title":"معرفة الله","publishedAt":"2020-09-07T19:21:47Z","duration":"PT12M8S","thumbnail":"https://i.ytimg.com/vi/gL0dm-dg9WU/mqdefault.jpg","viewCount":"21388","playlistId":"PLEkQk5xrP-tm8ZIu74nTOZN9KJUJu416J","playlistName":"مقاطع مُهمَّة (يُسريَّات) أ.د. يسري جبر","category":"متنوع"},{"id":"xSCgQog0aVc","title":"المحب لا ينصرف عن الباب","publishedAt":"2020-09-06T19:35:12Z","duration":"PT13M33S","thumbnail":"https://i.ytimg.com/vi/xSCgQog0aVc/mqdefault.jpg","viewCount":"7220","playlistId":"PLEkQk5xrP-tm8ZIu74nTOZN9KJUJu416J","playlistName":"مقاطع مُهمَّة (يُسريَّات) أ.د. يسري جبر","category":"متنوع"},{"id":"dm0KKYwll34","title":"تعظيم ما عظم الله","publishedAt":"2020-09-05T18:14:11Z","duration":"PT4M12S","thumbnail":"https://i.ytimg.com/vi/dm0KKYwll34/mqdefault.jpg","viewCount":"2203","playlistId":"PLEkQk5xrP-tm8ZIu74nTOZN9KJUJu416J","playlistName":"مقاطع مُهمَّة (يُسريَّات) أ.د. يسري جبر","category":"متنوع"},{"id":"kNVRUANCbVc","title":"أمورٌ يُبديها ولا يبتديها","publishedAt":"2020-09-03T18:17:29Z","duration":"PT7M13S","thumbnail":"https://i.ytimg.com/vi/kNVRUANCbVc/mqdefault.jpg","viewCount":"6762","playlistId":"PLEkQk5xrP-tm8ZIu74nTOZN9KJUJu416J","playlistName":"مقاطع مُهمَّة (يُسريَّات) أ.د. يسري جبر","category":"متنوع"},{"id":"jt5L1_r9wXk","title":"كمال الرضا","publishedAt":"2020-09-02T18:37:53Z","duration":"PT5M15S","thumbnail":"https://i.ytimg.com/vi/jt5L1_r9wXk/mqdefault.jpg","viewCount":"3212","playlistId":"PLEkQk5xrP-tm8ZIu74nTOZN9KJUJu416J","playlistName":"مقاطع مُهمَّة (يُسريَّات) أ.د. يسري جبر","category":"متنوع"},{"id":"C2eyJHjmUa0","title":"دوام المراقبة","publishedAt":"2020-09-01T19:17:24Z","duration":"PT5M42S","thumbnail":"https://i.ytimg.com/vi/C2eyJHjmUa0/mqdefault.jpg","viewCount":"2159","playlistId":"PLEkQk5xrP-tm8ZIu74nTOZN9KJUJu416J","playlistName":"مقاطع مُهمَّة (يُسريَّات) أ.د. يسري جبر","category":"متنوع"},{"id":"P4gNRrBwFyQ","title":"كيف تداوم على الطاعة","publishedAt":"2020-08-31T19:47:31Z","duration":"PT7M14S","thumbnail":"https://i.ytimg.com/vi/P4gNRrBwFyQ/mqdefault.jpg","viewCount":"5221","playlistId":"PLEkQk5xrP-tm8ZIu74nTOZN9KJUJu416J","playlistName":"مقاطع مُهمَّة (يُسريَّات) أ.د. يسري جبر","category":"متنوع"},{"id":"UJBzeJptj9Q","title":"لا تركن لزائل","publishedAt":"2020-08-30T20:04:09Z","duration":"PT6M14S","thumbnail":"https://i.ytimg.com/vi/UJBzeJptj9Q/mqdefault.jpg","viewCount":"3319","playlistId":"PLEkQk5xrP-tm8ZIu74nTOZN9KJUJu416J","playlistName":"مقاطع مُهمَّة (يُسريَّات) أ.د. يسري جبر","category":"متنوع"},{"id":"_OUf57PGHJ8","title":"لا تُلهِك التجليات عن المتجلِّي","publishedAt":"2020-08-29T19:13:28Z","duration":"PT8M38S","thumbnail":"https://i.ytimg.com/vi/_OUf57PGHJ8/mqdefault.jpg","viewCount":"4540","playlistId":"PLEkQk5xrP-tm8ZIu74nTOZN9KJUJu416J","playlistName":"مقاطع مُهمَّة (يُسريَّات) أ.د. يسري جبر","category":"متنوع"},{"id":"aiiGUzEj-z4","title":"حديث مسلسل عاشوراء والدعاء","publishedAt":"2020-08-29T10:44:42Z","duration":"PT43M30S","thumbnail":"https://i.ytimg.com/vi/aiiGUzEj-z4/mqdefault.jpg","viewCount":"4893","playlistId":"PLEkQk5xrP-tm8ZIu74nTOZN9KJUJu416J","playlistName":"مقاطع مُهمَّة (يُسريَّات) أ.د. يسري جبر","category":"متنوع"},{"id":"7vnoE1J4h7s","title":"كيف تعبد ربك؟","publishedAt":"2020-08-28T19:00:14Z","duration":"PT15M11S","thumbnail":"https://i.ytimg.com/vi/7vnoE1J4h7s/mqdefault.jpg","viewCount":"12777","playlistId":"PLEkQk5xrP-tm8ZIu74nTOZN9KJUJu416J","playlistName":"مقاطع مُهمَّة (يُسريَّات) أ.د. يسري جبر","category":"متنوع"}],"total":560,"page":15,"pageSize":24,"totalPages":24}