{"items":[{"id":"ZC7NQSRLLnk","title":"النورالدائم - د.يسري جبر","publishedAt":"2015-01-10T18:04:01Z","duration":"PT3M12S","thumbnail":"https://i.ytimg.com/vi/ZC7NQSRLLnk/mqdefault.jpg","viewCount":"19456","playlistId":"PLEkQk5xrP-tm8ZIu74nTOZN9KJUJu416J","playlistName":"مقاطع مُهمَّة (يُسريَّات) أ.د. يسري جبر","category":"متنوع"},{"id":"Drp9JH7JraI","title":"من الفوائد اليسرية فى كيفية صلاة الله وملائكته على خير البرية","publishedAt":"2015-01-05T20:00:34Z","duration":"PT4M45S","thumbnail":"https://i.ytimg.com/vi/Drp9JH7JraI/mqdefault.jpg","viewCount":"9085","playlistId":"PLEkQk5xrP-tm8ZIu74nTOZN9KJUJu416J","playlistName":"مقاطع مُهمَّة (يُسريَّات) أ.د. يسري جبر","category":"متنوع"},{"id":"013WOM4gGJw","title":"كيف تدرك محاسن الأخلاق - د. يسري جبر","publishedAt":"2014-12-22T13:33:53Z","duration":"PT7M56S","thumbnail":"https://i.ytimg.com/vi/013WOM4gGJw/mqdefault.jpg","viewCount":"4471","playlistId":"PLEkQk5xrP-tm8ZIu74nTOZN9KJUJu416J","playlistName":"مقاطع مُهمَّة (يُسريَّات) أ.د. يسري جبر","category":"متنوع"},{"id":"DiptGJ5AI5E","title":"مقام العبودية - د.يسري جبر","publishedAt":"2014-12-19T20:47:59Z","duration":"PT4M15S","thumbnail":"https://i.ytimg.com/vi/DiptGJ5AI5E/mqdefault.jpg","viewCount":"3654","playlistId":"PLEkQk5xrP-tm8ZIu74nTOZN9KJUJu416J","playlistName":"مقاطع مُهمَّة (يُسريَّات) أ.د. يسري جبر","category":"متنوع"},{"id":"mCj-KBYtjqk","title":"الفرق بين الأحدية والواحدية والتوحيد والفرق بين الألوهية والربوبية - د. يسري جبر","publishedAt":"2014-12-19T19:48:48Z","duration":"PT5M43S","thumbnail":"https://i.ytimg.com/vi/mCj-KBYtjqk/mqdefault.jpg","viewCount":"17198","playlistId":"PLEkQk5xrP-tm8ZIu74nTOZN9KJUJu416J","playlistName":"مقاطع مُهمَّة (يُسريَّات) أ.د. يسري جبر","category":"متنوع"},{"id":"2SjtW_v-vBw","title":"الجمع بين حديث (عرض الأعمال وحديث أولا تدري ما أحدثوا بعدك) مولانا د. يسري جبر","publishedAt":"2014-12-06T08:10:18Z","duration":"PT4M35S","thumbnail":"https://i.ytimg.com/vi/2SjtW_v-vBw/mqdefault.jpg","viewCount":"2533","playlistId":"PLEkQk5xrP-tm8ZIu74nTOZN9KJUJu416J","playlistName":"مقاطع مُهمَّة (يُسريَّات) أ.د. يسري جبر","category":"متنوع"},{"id":"ABuVV5OkLxY","title":"ما المقصود بتقارب الزمان كما أخبر النبي؟ (مفهوم عصري)","publishedAt":"2014-11-11T11:35:00Z","duration":"PT11M30S","thumbnail":"https://i.ytimg.com/vi/ABuVV5OkLxY/mqdefault.jpg","viewCount":"10738","playlistId":"PLEkQk5xrP-tm8ZIu74nTOZN9KJUJu416J","playlistName":"مقاطع مُهمَّة (يُسريَّات) أ.د. يسري جبر","category":"متنوع"},{"id":"QRsidHhS2bc","title":"فائدة الدخول فى طريق التصوف ومبايعة الشيخ | أ.د. يسري جبر","publishedAt":"2014-10-15T18:58:15Z","duration":"PT10M13S","thumbnail":"https://i.ytimg.com/vi/QRsidHhS2bc/mqdefault.jpg","viewCount":"98174","playlistId":"PLEkQk5xrP-tm8ZIu74nTOZN9KJUJu416J","playlistName":"مقاطع مُهمَّة (يُسريَّات) أ.د. يسري جبر","category":"متنوع"},{"id":"DKaxczAjOv0","title":"مقطع من قراءة وشرح كتاب الشفا بتعريف حقوق المصطفى (باب عصمة الأنبياء ) عليهم الصلاة والسلام","publishedAt":"2014-10-11T21:05:27Z","duration":"PT33M44S","thumbnail":"https://i.ytimg.com/vi/DKaxczAjOv0/mqdefault.jpg","viewCount":"2298","playlistId":"PLEkQk5xrP-tm8ZIu74nTOZN9KJUJu416J","playlistName":"مقاطع مُهمَّة (يُسريَّات) أ.د. يسري جبر","category":"متنوع"},{"id":"GuyLIA4eiy8","title":"كيف تكون مسلمًا مؤمنًا محسنًا عليمًا بفتن زمانك د.يسري جبر","publishedAt":"2014-10-09T03:26:29Z","duration":"PT19M36S","thumbnail":"https://i.ytimg.com/vi/GuyLIA4eiy8/mqdefault.jpg","viewCount":"26296","playlistId":"PLEkQk5xrP-tm8ZIu74nTOZN9KJUJu416J","playlistName":"مقاطع مُهمَّة (يُسريَّات) أ.د. يسري جبر","category":"متنوع"},{"id":"IzgdyjQQJ5s","title":"ظهر الفساد فى البر والبحر بما كسبت أيدى الناس","publishedAt":"2014-10-03T19:26:38Z","duration":"PT36M57S","thumbnail":"https://i.ytimg.com/vi/IzgdyjQQJ5s/mqdefault.jpg","viewCount":"2580","playlistId":"PLEkQk5xrP-tm8ZIu74nTOZN9KJUJu416J","playlistName":"مقاطع مُهمَّة (يُسريَّات) أ.د. يسري جبر","category":"متنوع"},{"id":"b6MNH1ekDuk","title":"الفتوحات الربانية حول المعانى القرآنية - د. يسري جبر","publishedAt":"2014-09-29T19:49:21Z","duration":"PT24M20S","thumbnail":"https://i.ytimg.com/vi/b6MNH1ekDuk/mqdefault.jpg","viewCount":"68911","playlistId":"PLEkQk5xrP-tm8ZIu74nTOZN9KJUJu416J","playlistName":"مقاطع مُهمَّة (يُسريَّات) أ.د. يسري جبر","category":"متنوع"},{"id":"8yuU3JvfbO0","title":"تأبير النخل بين أهل الحقيقة والشريعة","publishedAt":"2014-09-12T07:41:06Z","duration":"PT27M16S","thumbnail":"https://i.ytimg.com/vi/8yuU3JvfbO0/mqdefault.jpg","viewCount":"3668","playlistId":"PLEkQk5xrP-tm8ZIu74nTOZN9KJUJu416J","playlistName":"مقاطع مُهمَّة (يُسريَّات) أ.د. يسري جبر","category":"متنوع"},{"id":"-nQr7nvjyqU","title":"الكتب التي ينصح بقراءتها لنتخلق بأخلاق المحمدية","publishedAt":"2014-09-11T07:09:15Z","duration":"PT3M51S","thumbnail":"https://i.ytimg.com/vi/-nQr7nvjyqU/mqdefault.jpg","viewCount":"7102","playlistId":"PLEkQk5xrP-tm8ZIu74nTOZN9KJUJu416J","playlistName":"مقاطع مُهمَّة (يُسريَّات) أ.د. يسري جبر","category":"متنوع"},{"id":"jEMc1lQzJMM","title":"ماذا تفعل في زمن الفتنة","publishedAt":"2014-09-08T17:14:16Z","duration":"PT17M16S","thumbnail":"https://i.ytimg.com/vi/jEMc1lQzJMM/mqdefault.jpg","viewCount":"4456","playlistId":"PLEkQk5xrP-tm8ZIu74nTOZN9KJUJu416J","playlistName":"مقاطع مُهمَّة (يُسريَّات) أ.د. يسري جبر","category":"متنوع"},{"id":"MbHZ4_nfSvY","title":"شرح صحيح البخاري_ كتاب (بدء الخلق) «حديث الذبابة» ورد الشبهات حولها د. يسري جبر","publishedAt":"2014-08-25T01:39:24Z","duration":"PT1H16M17S","thumbnail":"https://i.ytimg.com/vi/MbHZ4_nfSvY/mqdefault.jpg","viewCount":"7408","playlistId":"PLEkQk5xrP-tm8ZIu74nTOZN9KJUJu416J","playlistName":"مقاطع مُهمَّة (يُسريَّات) أ.د. يسري جبر","category":"متنوع"},{"id":"xxztBdVV4wY","title":"شرح حديث سحر النبي من صحيح الإمام مسلم","publishedAt":"2014-08-20T09:46:59Z","duration":"PT46M1S","thumbnail":"https://i.ytimg.com/vi/xxztBdVV4wY/mqdefault.jpg","viewCount":"13015","playlistId":"PLEkQk5xrP-tm8ZIu74nTOZN9KJUJu416J","playlistName":"مقاطع مُهمَّة (يُسريَّات) أ.د. يسري جبر","category":"متنوع"},{"id":"OgXSD7oZ-Fs","title":"سورة الأنبياء والحج وقصة الغرانيق","publishedAt":"2014-08-15T23:40:47Z","duration":"PT59M9S","thumbnail":"https://i.ytimg.com/vi/OgXSD7oZ-Fs/mqdefault.jpg","viewCount":"1411","playlistId":"PLEkQk5xrP-tm8ZIu74nTOZN9KJUJu416J","playlistName":"مقاطع مُهمَّة (يُسريَّات) أ.د. يسري جبر","category":"متنوع"},{"id":"tQZ7ndCfiko","title":"نبذة عن عالم الخيال - د. يسري جبر","publishedAt":"2014-06-28T16:31:14Z","duration":"PT24M13S","thumbnail":"https://i.ytimg.com/vi/tQZ7ndCfiko/mqdefault.jpg","viewCount":"54408","playlistId":"PLEkQk5xrP-tm8ZIu74nTOZN9KJUJu416J","playlistName":"مقاطع مُهمَّة (يُسريَّات) أ.د. يسري جبر","category":"متنوع"},{"id":"dBkzbNYqqIE","title":"فتنة الأهل والمال وكفارتها","publishedAt":"2014-05-04T06:03:46Z","duration":"PT35M57S","thumbnail":"https://i.ytimg.com/vi/dBkzbNYqqIE/mqdefault.jpg","viewCount":"1699","playlistId":"PLEkQk5xrP-tm8ZIu74nTOZN9KJUJu416J","playlistName":"مقاطع مُهمَّة (يُسريَّات) أ.د. يسري جبر","category":"متنوع"},{"id":"gf12TKOWgtQ","title":"كيف تختار شيخ الطريقة؟","publishedAt":"2014-04-29T14:21:01Z","duration":"PT2M27S","thumbnail":"https://i.ytimg.com/vi/gf12TKOWgtQ/mqdefault.jpg","viewCount":"29886","playlistId":"PLEkQk5xrP-tm8ZIu74nTOZN9KJUJu416J","playlistName":"مقاطع مُهمَّة (يُسريَّات) أ.د. يسري جبر","category":"متنوع"},{"id":"n_fTJ578dj0","title":"الفرق بين الأحدية والواحدية والفردانية - د. يسري جبر","publishedAt":"2014-04-22T19:25:54Z","duration":"PT22M35S","thumbnail":"https://i.ytimg.com/vi/n_fTJ578dj0/mqdefault.jpg","viewCount":"19844","playlistId":"PLEkQk5xrP-tm8ZIu74nTOZN9KJUJu416J","playlistName":"مقاطع مُهمَّة (يُسريَّات) أ.د. يسري جبر","category":"متنوع"},{"id":"ISBi95KWyr0","title":"نبذة عن سيدى أحمد البدوى رضى الله عنه","publishedAt":"2014-04-21T20:05:32Z","duration":"PT24M55S","thumbnail":"https://i.ytimg.com/vi/ISBi95KWyr0/mqdefault.jpg","viewCount":"234353","playlistId":"PLEkQk5xrP-tm8ZIu74nTOZN9KJUJu416J","playlistName":"مقاطع مُهمَّة (يُسريَّات) أ.د. يسري جبر","category":"متنوع"},{"id":"xyZKY-ki9qE","title":"ثمرة مجالس الاحتفال بالمولد النبوى الشريف - د. يسري جبر","publishedAt":"2014-04-20T02:52:55Z","duration":"PT5M11S","thumbnail":"https://i.ytimg.com/vi/xyZKY-ki9qE/mqdefault.jpg","viewCount":"4136","playlistId":"PLEkQk5xrP-tm8ZIu74nTOZN9KJUJu416J","playlistName":"مقاطع مُهمَّة (يُسريَّات) أ.د. يسري جبر","category":"متنوع"}],"total":560,"page":23,"pageSize":24,"totalPages":24}