{"items":[{"id":"RQRp90DazEw","title":"Ø´Ø±Ø­ Ø§Ù„Ù…Ù†Ø§Ø¬Ø§Ø© Ø§Ù„Ø¥Ù„Ù‡ÙŠØ© Ù„Ø§Ø¨Ù† Ø¹Ø·Ø§Ø¡ Ø§Ù„Ù„Ù‡ Ø§Ù„Ø³ÙƒÙ†Ø¯Ø±ÙŠ ÙƒØ§Ù…Ù„Ø§ | Ø£.Ø¯.ÙŠØ³Ø±ÙŠ Ø¬Ø¨Ø±","publishedAt":"2025-01-28T17:59:37Z","duration":"PT1H55M47S","thumbnail":"https://i.ytimg.com/vi/RQRp90DazEw/mqdefault.jpg","viewCount":"2466","playlistId":"PLEkQk5xrP-tm8ZIu74nTOZN9KJUJu416J","playlistName":"Ù…Ù‚Ø§Ø·Ø¹ Ù…ÙÙ‡Ù…ÙÙ‘Ø© (ÙŠÙØ³Ø±ÙŠÙ‘ÙØ§Øª) Ø£.Ø¯. ÙŠØ³Ø±ÙŠ Ø¬Ø¨Ø±","category":"Ù…ØªÙ†ÙˆØ¹"},{"id":"Lkho4XMm9-Y","title":"Ø¥Ø­ÙŠØ§Ø¡ Ù„ÙŠÙ„Ø© Ø§Ù„Ø¥Ø³Ø±Ø§Ø¡ ÙˆØ§Ù„Ù…Ø¹Ø±Ø§Ø¬ | Ù…Ù† Ù„ÙŠØ§Ù„ÙŠ Ø§Ù„Ù…Ø¯ÙŠÙ†Ø© Ø§Ù„Ù…Ù†ÙˆØ±Ø©ğŸ“","publishedAt":"2025-01-26T17:15:00Z","duration":"PT1H3M10S","thumbnail":"https://i.ytimg.com/vi/Lkho4XMm9-Y/mqdefault.jpg","viewCount":"11158","playlistId":"PLEkQk5xrP-tm8ZIu74nTOZN9KJUJu416J","playlistName":"Ù…Ù‚Ø§Ø·Ø¹ Ù…ÙÙ‡Ù…ÙÙ‘Ø© (ÙŠÙØ³Ø±ÙŠÙ‘ÙØ§Øª) Ø£.Ø¯. ÙŠØ³Ø±ÙŠ Ø¬Ø¨Ø±","category":"Ù…ØªÙ†ÙˆØ¹"},{"id":"vMZqPuqv9-s","title":"Ø£Ø³Ø±Ø§Ø± ÙˆÙ…Ø¹Ø§Ù†ÙŠ Ø­ÙˆÙ„ Ø§Ù„Ø¥Ø³Ø±Ø§Ø¡ ÙˆØ§Ù„Ù…Ø¹Ø±Ø§Ø¬ | Ù…Ù† Ù„ÙŠØ§Ù„ÙŠ Ø§Ù„Ù…Ø¯ÙŠÙ†Ø© Ø§Ù„Ù…Ù†ÙˆØ±Ø© ğŸ“","publishedAt":"2025-01-25T18:50:20Z","duration":"PT39M36S","thumbnail":"https://i.ytimg.com/vi/vMZqPuqv9-s/mqdefault.jpg","viewCount":"7699","playlistId":"PLEkQk5xrP-tm8ZIu74nTOZN9KJUJu416J","playlistName":"Ù…Ù‚Ø§Ø·Ø¹ Ù…ÙÙ‡Ù…ÙÙ‘Ø© (ÙŠÙØ³Ø±ÙŠÙ‘ÙØ§Øª) Ø£.Ø¯. ÙŠØ³Ø±ÙŠ Ø¬Ø¨Ø±","category":"Ù…ØªÙ†ÙˆØ¹"},{"id":"OBuo2tDEQxA","title":"Ù…Ø§ Ù‡Ùˆ Ø§Ù„ØªØµÙˆÙ ÙˆÙƒÙŠÙ ØªÙƒÙˆÙ† Ù…Ù† Ø§Ù„ØµÙˆÙÙŠØ©ØŸ","publishedAt":"2024-11-07T18:00:16Z","duration":"PT48M50S","thumbnail":"https://i.ytimg.com/vi/OBuo2tDEQxA/mqdefault.jpg","viewCount":"2037","playlistId":"PLEkQk5xrP-tm8ZIu74nTOZN9KJUJu416J","playlistName":"Ù…Ù‚Ø§Ø·Ø¹ Ù…ÙÙ‡Ù…ÙÙ‘Ø© (ÙŠÙØ³Ø±ÙŠÙ‘ÙØ§Øª) Ø£.Ø¯. ÙŠØ³Ø±ÙŠ Ø¬Ø¨Ø±","category":"Ù…ØªÙ†ÙˆØ¹"},{"id":"OBh1XwJJuv8","title":"ÙƒÙŠÙ ØªØ¹Ø±Ù Ø£ÙˆÙ„ÙŠØ§Ø¡ Ø§Ù„Ù„Ù‡ Ø§Ù„ØµØ§Ù„Ø­ÙŠÙ†ØŸ","publishedAt":"2024-10-17T18:46:19Z","duration":"PT18M36S","thumbnail":"https://i.ytimg.com/vi/OBh1XwJJuv8/mqdefault.jpg","viewCount":"16554","playlistId":"PLEkQk5xrP-tm8ZIu74nTOZN9KJUJu416J","playlistName":"Ù…Ù‚Ø§Ø·Ø¹ Ù…ÙÙ‡Ù…ÙÙ‘Ø© (ÙŠÙØ³Ø±ÙŠÙ‘ÙØ§Øª) Ø£.Ø¯. ÙŠØ³Ø±ÙŠ Ø¬Ø¨Ø±","category":"Ù…ØªÙ†ÙˆØ¹"},{"id":"MYDWOsFv5uQ","title":"Ù…Ø§ Ù‡Ùˆ Ø§Ù„ÙØªØ­ Ø¹Ù†Ø¯ Ø§Ù„ØµÙˆÙÙŠØ© ÙˆÙ‡Ù„ ÙŠÙƒÙˆÙ† Ù„Ù„Ø£ÙˆÙ„ÙŠØ§Ø¡ ÙÙ‚Ø·ØŸ","publishedAt":"2024-09-08T17:18:36Z","duration":"PT8M34S","thumbnail":"https://i.ytimg.com/vi/MYDWOsFv5uQ/mqdefault.jpg","viewCount":"11000","playlistId":"PLEkQk5xrP-tm8ZIu74nTOZN9KJUJu416J","playlistName":"Ù…Ù‚Ø§Ø·Ø¹ Ù…ÙÙ‡Ù…ÙÙ‘Ø© (ÙŠÙØ³Ø±ÙŠÙ‘ÙØ§Øª) Ø£.Ø¯. ÙŠØ³Ø±ÙŠ Ø¬Ø¨Ø±","category":"Ù…ØªÙ†ÙˆØ¹"},{"id":"rLlYdiuA1bE","title":"Ø¨Ø°ÙƒØ±Ù‰ Ø§Ù„Ù…ÙˆÙ„Ø¯ Ù†Ø­ÙŠØ§","publishedAt":"2024-09-04T16:38:42Z","duration":"PT19M42S","thumbnail":"https://i.ytimg.com/vi/rLlYdiuA1bE/mqdefault.jpg","viewCount":"9377","playlistId":"PLEkQk5xrP-tm8ZIu74nTOZN9KJUJu416J","playlistName":"Ù…Ù‚Ø§Ø·Ø¹ Ù…ÙÙ‡Ù…ÙÙ‘Ø© (ÙŠÙØ³Ø±ÙŠÙ‘ÙØ§Øª) Ø£.Ø¯. ÙŠØ³Ø±ÙŠ Ø¬Ø¨Ø±","category":"Ù…ØªÙ†ÙˆØ¹"},{"id":"TcqnEzDjyks","title":"Ù‚ØµØ© Ø§Ù„Ø¯Ø¹Ø§Ø¡ Ø§Ù„Ù„ÙŠ ØºÙŠØ± Ø­ÙŠØ§ØªÙŠ!","publishedAt":"2024-08-28T18:00:45Z","duration":"PT8M59S","thumbnail":"https://i.ytimg.com/vi/TcqnEzDjyks/mqdefault.jpg","viewCount":"67072","playlistId":"PLEkQk5xrP-tm8ZIu74nTOZN9KJUJu416J","playlistName":"Ù…Ù‚Ø§Ø·Ø¹ Ù…ÙÙ‡Ù…ÙÙ‘Ø© (ÙŠÙØ³Ø±ÙŠÙ‘ÙØ§Øª) Ø£.Ø¯. ÙŠØ³Ø±ÙŠ Ø¬Ø¨Ø±","category":"Ù…ØªÙ†ÙˆØ¹"},{"id":"cHbV-w27-SE","title":"ÙƒÙŠÙ Ø£ØªØ¹Ø§Ù…Ù„ Ù…Ø¹ Ø§Ù„Ø£ÙˆÙ„ÙŠØ§Ø¡ ÙˆØ§Ù„Ù…Ø´Ø§ÙŠØ® ÙˆÙ…Ø§ Ù‡ÙŠ Ø¢Ø¯Ø§Ø¨ Ø²ÙŠØ§Ø±ØªÙ‡Ù…ØŸ","publishedAt":"2024-08-27T17:07:52Z","duration":"PT8M42S","thumbnail":"https://i.ytimg.com/vi/cHbV-w27-SE/mqdefault.jpg","viewCount":"4131","playlistId":"PLEkQk5xrP-tm8ZIu74nTOZN9KJUJu416J","playlistName":"Ù…Ù‚Ø§Ø·Ø¹ Ù…ÙÙ‡Ù…ÙÙ‘Ø© (ÙŠÙØ³Ø±ÙŠÙ‘ÙØ§Øª) Ø£.Ø¯. ÙŠØ³Ø±ÙŠ Ø¬Ø¨Ø±","category":"Ù…ØªÙ†ÙˆØ¹"},{"id":"lz0mk8nOr6w","title":"Ø£Ø­Ø§ÙˆÙ„ ØªØ¹Ù„ÙŠÙ… Ø²Ù…Ù„Ø§Ø¦ÙŠ ÙˆÙ„ÙƒÙ†Ù‡Ù… ÙŠØ³ØªØºÙ„ÙˆÙ†Ù†ÙŠ ÙÙŠ Ø§Ù„Ø­ØµÙˆÙ„ Ø¹Ù„Ù‰ ØªØ±Ù‚ÙŠØ© ÙÙ…Ø§Ø°Ø§ Ø£ÙØ¹Ù„ØŸ | Ø§Ù„Ù…Ù†Ø§ÙØ³Ø© ÙÙŠ Ø³ÙˆÙ‚ Ø§Ù„Ø¹Ù…Ù„","publishedAt":"2024-08-03T17:03:35Z","duration":"PT12M37S","thumbnail":"https://i.ytimg.com/vi/lz0mk8nOr6w/mqdefault.jpg","viewCount":"3838","playlistId":"PLEkQk5xrP-tm8ZIu74nTOZN9KJUJu416J","playlistName":"Ù…Ù‚Ø§Ø·Ø¹ Ù…ÙÙ‡Ù…ÙÙ‘Ø© (ÙŠÙØ³Ø±ÙŠÙ‘ÙØ§Øª) Ø£.Ø¯. ÙŠØ³Ø±ÙŠ Ø¬Ø¨Ø±","category":"Ù…ØªÙ†ÙˆØ¹"},{"id":"i9sv0qOF-HY","title":"ÙƒÙŠÙ Ù†Ø­Ù…ÙŠ Ø£Ù†ÙØ³Ù†Ø§ Ù…Ù† Ù…Ø¯Ø¹ÙŠ Ø§Ù„ØªØµÙˆÙØŸ","publishedAt":"2024-07-18T18:00:19Z","duration":"PT10M1S","thumbnail":"https://i.ytimg.com/vi/i9sv0qOF-HY/mqdefault.jpg","viewCount":"6997","playlistId":"PLEkQk5xrP-tm8ZIu74nTOZN9KJUJu416J","playlistName":"Ù…Ù‚Ø§Ø·Ø¹ Ù…ÙÙ‡Ù…ÙÙ‘Ø© (ÙŠÙØ³Ø±ÙŠÙ‘ÙØ§Øª) Ø£.Ø¯. ÙŠØ³Ø±ÙŠ Ø¬Ø¨Ø±","category":"Ù…ØªÙ†ÙˆØ¹"},{"id":"7VNWMMUL9HY","title":"Ù‚ØµØ© ÙŠÙˆÙ… Ø¹Ø§Ø´ÙˆØ±Ø§Ø¡ ÙˆÙ…Ø§ Ù‡Ùˆ ÙØ¶Ù„ ØµÙŠØ§Ù…Ù‡ØŸ","publishedAt":"2024-07-15T17:30:00Z","duration":"PT13M55S","thumbnail":"https://i.ytimg.com/vi/7VNWMMUL9HY/mqdefault.jpg","viewCount":"9248","playlistId":"PLEkQk5xrP-tm8ZIu74nTOZN9KJUJu416J","playlistName":"Ù…Ù‚Ø§Ø·Ø¹ Ù…ÙÙ‡Ù…ÙÙ‘Ø© (ÙŠÙØ³Ø±ÙŠÙ‘ÙØ§Øª) Ø£.Ø¯. ÙŠØ³Ø±ÙŠ Ø¬Ø¨Ø±","category":"Ù…ØªÙ†ÙˆØ¹"},{"id":"84QcRRSifKo","title":"Ù…Ø§ Ø­ÙƒÙ… Ø­Ø¶ÙˆØ± Ø­ÙÙ„Ø§Øª Ø§Ù„Ø¥Ù†Ø´Ø§Ø¯ Ø§Ù„Ø¯ÙŠÙ†ÙŠØŸ","publishedAt":"2024-07-09T17:23:45Z","duration":"PT8M43S","thumbnail":"https://i.ytimg.com/vi/84QcRRSifKo/mqdefault.jpg","viewCount":"3290","playlistId":"PLEkQk5xrP-tm8ZIu74nTOZN9KJUJu416J","playlistName":"Ù…Ù‚Ø§Ø·Ø¹ Ù…ÙÙ‡Ù…ÙÙ‘Ø© (ÙŠÙØ³Ø±ÙŠÙ‘ÙØ§Øª) Ø£.Ø¯. ÙŠØ³Ø±ÙŠ Ø¬Ø¨Ø±","category":"Ù…ØªÙ†ÙˆØ¹"},{"id":"HXn5icCCkOk","title":"Ù…Ø§ Ø­ÙƒÙ… Ø§Ù„Ø§Ø­ØªÙØ§Ù„ Ø¨Ù…ÙˆØ§Ù„Ø¯ Ø§Ù„ØµØ§Ù„Ø­ÙŠÙ† ÙˆÙ…Ø§ ÙŠØ­Ø¯Ø« ÙÙŠÙ‡Ø§ Ù…Ù† ØªÙ…Ø§ÙŠÙ„ØŸ","publishedAt":"2024-07-05T17:15:00Z","duration":"PT10M58S","thumbnail":"https://i.ytimg.com/vi/HXn5icCCkOk/mqdefault.jpg","viewCount":"4948","playlistId":"PLEkQk5xrP-tm8ZIu74nTOZN9KJUJu416J","playlistName":"Ù…Ù‚Ø§Ø·Ø¹ Ù…ÙÙ‡Ù…ÙÙ‘Ø© (ÙŠÙØ³Ø±ÙŠÙ‘ÙØ§Øª) Ø£.Ø¯. ÙŠØ³Ø±ÙŠ Ø¬Ø¨Ø±","category":"Ù…ØªÙ†ÙˆØ¹"},{"id":"YWILVpKBuEA","title":"ØªÙØ³ÙŠØ± Ø´Ø·Ø­Ø§Øª Ø¨Ø¹Ø¶ Ø§Ù„Ø£ÙˆÙ„ÙŠØ§Ø¡ ÙˆÙ„Ù…Ø§Ø°Ø§ ÙŠØ®ØªÙ„Ù Ø¹Ù„ÙŠÙ‡Ù… Ø§Ù„Ø¹Ù„Ù…Ø§Ø¡ØŸ","publishedAt":"2024-07-04T19:54:10Z","duration":"PT22M19S","thumbnail":"https://i.ytimg.com/vi/YWILVpKBuEA/mqdefault.jpg","viewCount":"13032","playlistId":"PLEkQk5xrP-tm8ZIu74nTOZN9KJUJu416J","playlistName":"Ù…Ù‚Ø§Ø·Ø¹ Ù…ÙÙ‡Ù…ÙÙ‘Ø© (ÙŠÙØ³Ø±ÙŠÙ‘ÙØ§Øª) Ø£.Ø¯. ÙŠØ³Ø±ÙŠ Ø¬Ø¨Ø±","category":"Ù…ØªÙ†ÙˆØ¹"},{"id":"ZfU68ePzf0I","title":"ÙƒÙŠÙ Ù†ÙˆØ§Ø¬Ù‡ Ø§Ù†Ø¨Ù‡Ø§Ø± Ø£Ø¨Ù†Ø§Ø¦Ù†Ø§ Ø¨Ø§Ù„Ø­Ø¶Ø§Ø±Ø© Ø§Ù„Ø§ÙˆØ±ÙˆØ¨ÙŠØ©ØŸ","publishedAt":"2024-06-28T17:00:33Z","duration":"PT8M25S","thumbnail":"https://i.ytimg.com/vi/ZfU68ePzf0I/mqdefault.jpg","viewCount":"4936","playlistId":"PLEkQk5xrP-tm8ZIu74nTOZN9KJUJu416J","playlistName":"Ù…Ù‚Ø§Ø·Ø¹ Ù…ÙÙ‡Ù…ÙÙ‘Ø© (ÙŠÙØ³Ø±ÙŠÙ‘ÙØ§Øª) Ø£.Ø¯. ÙŠØ³Ø±ÙŠ Ø¬Ø¨Ø±","category":"Ù…ØªÙ†ÙˆØ¹"},{"id":"_K_9V5DsqQ0","title":"Ù†ØµØ§Ø¦Ø­ Ù…Ù‡Ù…Ø© Ù„ÙƒÙ„ Ø´Ø®Øµ Ù…Ù‚Ø¨Ù„ Ø¹Ù„Ù‰ Ø§Ù„Ø²ÙˆØ§Ø¬!","publishedAt":"2024-06-26T18:03:38Z","duration":"PT8M33S","thumbnail":"https://i.ytimg.com/vi/_K_9V5DsqQ0/mqdefault.jpg","viewCount":"6898","playlistId":"PLEkQk5xrP-tm8ZIu74nTOZN9KJUJu416J","playlistName":"Ù…Ù‚Ø§Ø·Ø¹ Ù…ÙÙ‡Ù…ÙÙ‘Ø© (ÙŠÙØ³Ø±ÙŠÙ‘ÙØ§Øª) Ø£.Ø¯. ÙŠØ³Ø±ÙŠ Ø¬Ø¨Ø±","category":"Ù…ØªÙ†ÙˆØ¹"},{"id":"a8LmQXKMvuM","title":"Ø¯Ø¹Ø§Ø¡ ÙˆØ¥Ø­ÙŠØ§Ø¡ ÙŠÙˆÙ… Ø¹Ø±ÙØ©","publishedAt":"2024-06-15T18:24:54Z","duration":"PT29M45S","thumbnail":"https://i.ytimg.com/vi/a8LmQXKMvuM/mqdefault.jpg","viewCount":"2493","playlistId":"PLEkQk5xrP-tm8ZIu74nTOZN9KJUJu416J","playlistName":"Ù…Ù‚Ø§Ø·Ø¹ Ù…ÙÙ‡Ù…ÙÙ‘Ø© (ÙŠÙØ³Ø±ÙŠÙ‘ÙØ§Øª) Ø£.Ø¯. ÙŠØ³Ø±ÙŠ Ø¬Ø¨Ø±","category":"Ù…ØªÙ†ÙˆØ¹"},{"id":"mi30BQRfmIo","title":"Ù…Ø§ Ù‡ÙŠ Ø§Ù„Ø¹Ù‚ÙŠØ¯Ø© Ø§Ù„Ø£Ø´Ø¹Ø±ÙŠØ©ØŸ","publishedAt":"2024-04-12T19:00:23Z","duration":"PT40M27S","thumbnail":"https://i.ytimg.com/vi/mi30BQRfmIo/mqdefault.jpg","viewCount":"28785","playlistId":"PLEkQk5xrP-tm8ZIu74nTOZN9KJUJu416J","playlistName":"Ù…Ù‚Ø§Ø·Ø¹ Ù…ÙÙ‡Ù…ÙÙ‘Ø© (ÙŠÙØ³Ø±ÙŠÙ‘ÙØ§Øª) Ø£.Ø¯. ÙŠØ³Ø±ÙŠ Ø¬Ø¨Ø±","category":"Ù…ØªÙ†ÙˆØ¹"},{"id":"oLc1MjMO34c","title":"Ø¨Ø¹Ø¯ Ø±Ù…Ø¶Ø§Ù† ,, Ù†ØµÙŠØ­Ø© Ù„Ù…Ù† ÙŠØ±ÙŠØ¯ Ø­ÙØ¸ Ø§Ù„Ù‚Ø±Ø§Ù“Ù†","publishedAt":"2024-04-11T18:00:19Z","duration":"PT11M46S","thumbnail":"https://i.ytimg.com/vi/oLc1MjMO34c/mqdefault.jpg","viewCount":"12729","playlistId":"PLEkQk5xrP-tm8ZIu74nTOZN9KJUJu416J","playlistName":"Ù…Ù‚Ø§Ø·Ø¹ Ù…ÙÙ‡Ù…ÙÙ‘Ø© (ÙŠÙØ³Ø±ÙŠÙ‘ÙØ§Øª) Ø£.Ø¯. ÙŠØ³Ø±ÙŠ Ø¬Ø¨Ø±","category":"Ù…ØªÙ†ÙˆØ¹"},{"id":"9hSLGmgI1nY","title":"ÙØ¶Ù„ Ø§Ù„Ø¹Ø´Ø± Ø§Ù„Ø£ÙˆØ§Ø®Ø± Ù…Ù† Ø±Ù…Ø¶Ø§Ù†","publishedAt":"2024-03-29T18:00:10Z","duration":"PT15M37S","thumbnail":"https://i.ytimg.com/vi/9hSLGmgI1nY/mqdefault.jpg","viewCount":"20902","playlistId":"PLEkQk5xrP-tm8ZIu74nTOZN9KJUJu416J","playlistName":"Ù…Ù‚Ø§Ø·Ø¹ Ù…ÙÙ‡Ù…ÙÙ‘Ø© (ÙŠÙØ³Ø±ÙŠÙ‘ÙØ§Øª) Ø£.Ø¯. ÙŠØ³Ø±ÙŠ Ø¬Ø¨Ø±","category":"Ù…ØªÙ†ÙˆØ¹"},{"id":"08BwwCU6uyk","title":"ÙƒÙŠÙ Ø£Ø³ØªØ­Ø¶Ø± Ù‚Ù„Ø¨ÙŠ ÙˆØ£Ø®Ø´Ø¹ ÙÙŠ Ø§Ù„ØµÙ„Ø§Ø©ØŸ","publishedAt":"2024-03-20T18:00:00Z","duration":"PT8M1S","thumbnail":"https://i.ytimg.com/vi/08BwwCU6uyk/mqdefault.jpg","viewCount":"5886","playlistId":"PLEkQk5xrP-tm8ZIu74nTOZN9KJUJu416J","playlistName":"Ù…Ù‚Ø§Ø·Ø¹ Ù…ÙÙ‡Ù…ÙÙ‘Ø© (ÙŠÙØ³Ø±ÙŠÙ‘ÙØ§Øª) Ø£.Ø¯. ÙŠØ³Ø±ÙŠ Ø¬Ø¨Ø±","category":"Ù…ØªÙ†ÙˆØ¹"},{"id":"pZYeUl2IWek","title":"Ø£Ø¨ÙˆÙŠØ§ Ø¹Ø§ÙŠØ²Ù†ÙŠ Ù…Ù‡Ù†Ø¯Ø³ ÙˆØ£Ù†Ø§ Ø­Ù„Ù…ÙŠ Ø£ÙƒÙˆÙ† Ø¯ÙƒØªÙˆØ±! | Ù†ØµÙŠØ­Ø© Ù„Ù„ÙˆØ§Ù„Ø¯ÙŠÙ† Ø§Ù„Ù…ØªØ­ÙƒÙ…ÙŠÙ† ÙÙŠ Ø­ÙŠØ§Ø© Ø£Ø¨Ù†Ø§Ø¦Ù‡Ù…","publishedAt":"2024-03-19T18:00:25Z","duration":"PT10M47S","thumbnail":"https://i.ytimg.com/vi/pZYeUl2IWek/mqdefault.jpg","viewCount":"2094","playlistId":"PLEkQk5xrP-tm8ZIu74nTOZN9KJUJu416J","playlistName":"Ù…Ù‚Ø§Ø·Ø¹ Ù…ÙÙ‡Ù…ÙÙ‘Ø© (ÙŠÙØ³Ø±ÙŠÙ‘ÙØ§Øª) Ø£.Ø¯. ÙŠØ³Ø±ÙŠ Ø¬Ø¨Ø±","category":"Ù…ØªÙ†ÙˆØ¹"},{"id":"N8Dn2TDH8UU","title":"Ø§Ù„Ø§Ø¨ØªÙ„Ø§Ø¡ Ø¹Ù‚ÙˆØ¨Ø© Ø£Ù… Ù…Ø­Ø¨Ø©ØŸ","publishedAt":"2024-03-17T20:00:11Z","duration":"PT8M4S","thumbnail":"https://i.ytimg.com/vi/N8Dn2TDH8UU/mqdefault.jpg","viewCount":"5835","playlistId":"PLEkQk5xrP-tm8ZIu74nTOZN9KJUJu416J","playlistName":"Ù…Ù‚Ø§Ø·Ø¹ Ù…ÙÙ‡Ù…ÙÙ‘Ø© (ÙŠÙØ³Ø±ÙŠÙ‘ÙØ§Øª) Ø£.Ø¯. ÙŠØ³Ø±ÙŠ Ø¬Ø¨Ø±","category":"Ù…ØªÙ†ÙˆØ¹"}],"total":560,"page":3,"pageSize":24,"totalPages":24}