{"items":[{"id":"I3AQ4jO8dJ4","title":"شرح البرهان في علوم القرآن - النوع ١٤ - معرفة تقسيمه بحسب سوره وترتيب السور والآيات وعددها","publishedAt":"2019-11-02T23:27:34Z","duration":"PT16M44S","thumbnail":"https://i.ytimg.com/vi/I3AQ4jO8dJ4/mqdefault.jpg","viewCount":"617","playlistId":"PLEkQk5xrP-tnW3iBL7HkKziOFCFZbTlf0","playlistName":"شرح البرهان في علوم القرآن - أ.د. يسري جبر","category":"تفسير"},{"id":"-L6Goc50zfI","title":"شرح البرهان في علوم القرآن - النوع ٩ - ما يشبه تنزيل المدينة في السور المكية","publishedAt":"2019-10-10T11:19:58Z","duration":"PT15M35S","thumbnail":"https://i.ytimg.com/vi/-L6Goc50zfI/mqdefault.jpg","viewCount":"616","playlistId":"PLEkQk5xrP-tnW3iBL7HkKziOFCFZbTlf0","playlistName":"شرح البرهان في علوم القرآن - أ.د. يسري جبر","category":"تفسير"},{"id":"yEtaYmtIxZM","title":"547- معنى حرف (إذ) - شرح البرهان في علوم القرآن","publishedAt":"2022-08-16T05:35:00Z","duration":"PT18M58S","thumbnail":"https://i.ytimg.com/vi/yEtaYmtIxZM/mqdefault.jpg","viewCount":"615","playlistId":"PLEkQk5xrP-tnW3iBL7HkKziOFCFZbTlf0","playlistName":"شرح البرهان في علوم القرآن - أ.د. يسري جبر","category":"تفسير"},{"id":"Q3kUqqtTSxw","title":"شرح البرهان في علوم القرآن - النوع ١٣ - نسخ القرآن في المصاحف","publishedAt":"2019-10-31T10:47:41Z","duration":"PT24M28S","thumbnail":"https://i.ytimg.com/vi/Q3kUqqtTSxw/mqdefault.jpg","viewCount":"615","playlistId":"PLEkQk5xrP-tnW3iBL7HkKziOFCFZbTlf0","playlistName":"شرح البرهان في علوم القرآن - أ.د. يسري جبر","category":"تفسير"},{"id":"XhvPk_4S3Mg","title":"شرح البرهان في علوم القرآن - النوع ١١ - القول في القراءات السبع ٥","publishedAt":"2019-10-25T19:12:13Z","duration":"PT23M27S","thumbnail":"https://i.ytimg.com/vi/XhvPk_4S3Mg/mqdefault.jpg","viewCount":"614","playlistId":"PLEkQk5xrP-tnW3iBL7HkKziOFCFZbTlf0","playlistName":"شرح البرهان في علوم القرآن - أ.د. يسري جبر","category":"تفسير"},{"id":"oUQ1_Ti8NDY","title":"وضع النداء موضع التعجّب - شرح البرهان في علوم القرآن","publishedAt":"2021-12-09T21:19:19Z","duration":"PT8M34S","thumbnail":"https://i.ytimg.com/vi/oUQ1_Ti8NDY/mqdefault.jpg","viewCount":"613","playlistId":"PLEkQk5xrP-tnW3iBL7HkKziOFCFZbTlf0","playlistName":"شرح البرهان في علوم القرآن - أ.د. يسري جبر","category":"تفسير"},{"id":"OJc4-jJN7Jk","title":"شرح البرهان في علوم القرآن - النوع ١٤ - فائدة : سبب سقوط البسملة أول براءة","publishedAt":"2019-12-10T14:23:38Z","duration":"PT14M41S","thumbnail":"https://i.ytimg.com/vi/OJc4-jJN7Jk/mqdefault.jpg","viewCount":"611","playlistId":"PLEkQk5xrP-tnW3iBL7HkKziOFCFZbTlf0","playlistName":"شرح البرهان في علوم القرآن - أ.د. يسري جبر","category":"تفسير"},{"id":"gCEVL-BiWqI","title":"550- حروف المعاني(11) حرف (إن) - شرح البرهان في علوم القرآن","publishedAt":"2022-08-25T06:15:03Z","duration":"PT29M7S","thumbnail":"https://i.ytimg.com/vi/gCEVL-BiWqI/mqdefault.jpg","viewCount":"610","playlistId":"PLEkQk5xrP-tnW3iBL7HkKziOFCFZbTlf0","playlistName":"شرح البرهان في علوم القرآن - أ.د. يسري جبر","category":"تفسير"},{"id":"U1YXfmyKKSI","title":"نَفْي الشَّيءِ مقيَّدًا والمُرادُ به مُطْلَقًا (2)  - شرح البرهان في علوم القرآن","publishedAt":"2022-01-14T07:22:19Z","duration":"PT20M3S","thumbnail":"https://i.ytimg.com/vi/U1YXfmyKKSI/mqdefault.jpg","viewCount":"608","playlistId":"PLEkQk5xrP-tnW3iBL7HkKziOFCFZbTlf0","playlistName":"شرح البرهان في علوم القرآن - أ.د. يسري جبر","category":"تفسير"},{"id":"1B9aNmUGFXk","title":"شرح البرهان في علوم القرآن - النوع ٢٤ - معرفة الوقف والابتداء","publishedAt":"2020-01-02T09:38:57Z","duration":"PT30M1S","thumbnail":"https://i.ytimg.com/vi/1B9aNmUGFXk/mqdefault.jpg","viewCount":"608","playlistId":"PLEkQk5xrP-tnW3iBL7HkKziOFCFZbTlf0","playlistName":"شرح البرهان في علوم القرآن - أ.د. يسري جبر","category":"تفسير"},{"id":"Rix0NdBRPrU","title":"شرح البرهان في علوم القرآن - النوع ٢٠ - معرفة الأحكام من جهة أفرادها وتركيبها ٢","publishedAt":"2019-11-28T10:44:32Z","duration":"PT20M57S","thumbnail":"https://i.ytimg.com/vi/Rix0NdBRPrU/mqdefault.jpg","viewCount":"606","playlistId":"PLEkQk5xrP-tnW3iBL7HkKziOFCFZbTlf0","playlistName":"شرح البرهان في علوم القرآن - أ.د. يسري جبر","category":"تفسير"},{"id":"L5wSgUSAARE","title":"إقامة صيغة مقام أخرى","publishedAt":"2020-10-24T07:43:53Z","duration":"PT10M36S","thumbnail":"https://i.ytimg.com/vi/L5wSgUSAARE/mqdefault.jpg","viewCount":"603","playlistId":"PLEkQk5xrP-tnW3iBL7HkKziOFCFZbTlf0","playlistName":"شرح البرهان في علوم القرآن - أ.د. يسري جبر","category":"تفسير"},{"id":"mcUQr_RsVOs","title":"القَسَمُ وجَوابُه","publishedAt":"2020-12-21T07:28:53Z","duration":"PT9M23S","thumbnail":"https://i.ytimg.com/vi/mcUQr_RsVOs/mqdefault.jpg","viewCount":"602","playlistId":"PLEkQk5xrP-tnW3iBL7HkKziOFCFZbTlf0","playlistName":"شرح البرهان في علوم القرآن - أ.د. يسري جبر","category":"تفسير"},{"id":"unOIv9E6-CM","title":"التَّجْرِيد - شرح البرهان في علوم القرآن","publishedAt":"2022-02-21T11:10:19Z","duration":"PT11M24S","thumbnail":"https://i.ytimg.com/vi/unOIv9E6-CM/mqdefault.jpg","viewCount":"600","playlistId":"PLEkQk5xrP-tnW3iBL7HkKziOFCFZbTlf0","playlistName":"شرح البرهان في علوم القرآن - أ.د. يسري جبر","category":"تفسير"},{"id":"AZfieLu7sFs","title":"شرح البرهان في علوم القرآن - النوع ٩ - فصل","publishedAt":"2019-10-06T20:26:48Z","duration":"PT10M14S","thumbnail":"https://i.ytimg.com/vi/AZfieLu7sFs/mqdefault.jpg","viewCount":"600","playlistId":"PLEkQk5xrP-tnW3iBL7HkKziOFCFZbTlf0","playlistName":"شرح البرهان في علوم القرآن - أ.د. يسري جبر","category":"تفسير"},{"id":"QK_3DxDUgok","title":"شرح البرهان في علوم القرآن - النوع ٢١ - معرفة كون اللفظ والتركيب أحسن وأفصح","publishedAt":"2019-12-17T08:48:48Z","duration":"PT28M51S","thumbnail":"https://i.ytimg.com/vi/QK_3DxDUgok/mqdefault.jpg","viewCount":"599","playlistId":"PLEkQk5xrP-tnW3iBL7HkKziOFCFZbTlf0","playlistName":"شرح البرهان في علوم القرآن - أ.د. يسري جبر","category":"تفسير"},{"id":"z0_BY0JhUXs","title":"شرح البرهان في علوم القرآن - النوع ١٧ - معرفة ما فيه من غير لغة العرب","publishedAt":"2019-12-14T18:54:03Z","duration":"PT22M36S","thumbnail":"https://i.ytimg.com/vi/z0_BY0JhUXs/mqdefault.jpg","viewCount":"599","playlistId":"PLEkQk5xrP-tnW3iBL7HkKziOFCFZbTlf0","playlistName":"شرح البرهان في علوم القرآن - أ.د. يسري جبر","category":"تفسير"},{"id":"7_nrFaHsPH8","title":"نَفْي الشَّيءِ مقيَّدًا والمُرادُ به مُطْلَقًا - شرح البرهان في علوم القرآن","publishedAt":"2022-01-12T07:20:10Z","duration":"PT13M35S","thumbnail":"https://i.ytimg.com/vi/7_nrFaHsPH8/mqdefault.jpg","viewCount":"598","playlistId":"PLEkQk5xrP-tnW3iBL7HkKziOFCFZbTlf0","playlistName":"شرح البرهان في علوم القرآن - أ.د. يسري جبر","category":"تفسير"},{"id":"X0RaKu8W9Uw","title":"إطلاق اسم المحلِّ على الحال","publishedAt":"2020-10-22T19:19:13Z","duration":"PT19M45S","thumbnail":"https://i.ytimg.com/vi/X0RaKu8W9Uw/mqdefault.jpg","viewCount":"597","playlistId":"PLEkQk5xrP-tnW3iBL7HkKziOFCFZbTlf0","playlistName":"شرح البرهان في علوم القرآن - أ.د. يسري جبر","category":"تفسير"},{"id":"VB_q2bL5-bg","title":"شرح البرهان في علوم القرآن - النوع ١٣ - نسخ القرآن في المصاحف ٢","publishedAt":"2019-11-01T22:21:21Z","duration":"PT19M26S","thumbnail":"https://i.ytimg.com/vi/VB_q2bL5-bg/mqdefault.jpg","viewCount":"597","playlistId":"PLEkQk5xrP-tnW3iBL7HkKziOFCFZbTlf0","playlistName":"شرح البرهان في علوم القرآن - أ.د. يسري جبر","category":"تفسير"},{"id":"sVhgVNZdgmg","title":"قَاعِدَةٌ فِيمَا وَرَدَ في القُرْآنِ مَجْمُوعًا ومُفْرَدًا - شرح البرهان في علوم القرآن","publishedAt":"2022-03-10T04:17:55Z","duration":"PT25M38S","thumbnail":"https://i.ytimg.com/vi/sVhgVNZdgmg/mqdefault.jpg","viewCount":"594","playlistId":"PLEkQk5xrP-tnW3iBL7HkKziOFCFZbTlf0","playlistName":"شرح البرهان في علوم القرآن - أ.د. يسري جبر","category":"تفسير"},{"id":"nQ623bZ2WCA","title":"شرح البرهان في علوم القرآن - النوع ١١ - القول في القراءات السبع ٣","publishedAt":"2019-10-23T10:44:38Z","duration":"PT11M11S","thumbnail":"https://i.ytimg.com/vi/nQ623bZ2WCA/mqdefault.jpg","viewCount":"593","playlistId":"PLEkQk5xrP-tnW3iBL7HkKziOFCFZbTlf0","playlistName":"شرح البرهان في علوم القرآن - أ.د. يسري جبر","category":"تفسير"},{"id":"YSWQWqxUyH0","title":"558- حرف (إِلَّا) يأتي بمعنى (بدل) - شرح البرهان في علوم القرآن","publishedAt":"2022-09-07T06:15:01Z","duration":"PT15M55S","thumbnail":"https://i.ytimg.com/vi/YSWQWqxUyH0/mqdefault.jpg","viewCount":"592","playlistId":"PLEkQk5xrP-tnW3iBL7HkKziOFCFZbTlf0","playlistName":"شرح البرهان في علوم القرآن - أ.د. يسري جبر","category":"تفسير"},{"id":"nUCqR76_Q-I","title":"الإعراض عن صريح الحُكْم - شرح البرهان في علوم القرآن","publishedAt":"2022-01-22T20:33:08Z","duration":"PT8M9S","thumbnail":"https://i.ytimg.com/vi/nUCqR76_Q-I/mqdefault.jpg","viewCount":"591","playlistId":"PLEkQk5xrP-tnW3iBL7HkKziOFCFZbTlf0","playlistName":"شرح البرهان في علوم القرآن - أ.د. يسري جبر","category":"تفسير"}],"total":631,"page":9,"pageSize":24,"totalPages":27}