{"items":[{"id":"JPKw_XbZyr4","title":"اشتراك اللفظ بين حقيقتين أو حقيقة ومجاز","publishedAt":"2020-09-15T05:43:38Z","duration":"PT31M16S","thumbnail":"https://i.ytimg.com/vi/JPKw_XbZyr4/mqdefault.jpg","viewCount":"797","playlistId":"PLEkQk5xrP-tnW3iBL7HkKziOFCFZbTlf0","playlistName":"شرح البرهان في علوم القرآن - أ.د. يسري جبر","category":"تفسير"},{"id":"im2HysUhoVU","title":"التخلي والتحلي والتجلي","publishedAt":"2020-09-14T18:39:28Z","duration":"PT3M37S","thumbnail":"https://i.ytimg.com/vi/im2HysUhoVU/mqdefault.jpg","viewCount":"4138","playlistId":"PLEkQk5xrP-tm8ZIu74nTOZN9KJUJu416J","playlistName":"مقاطع مُهمَّة (يُسريَّات) أ.د. يسري جبر","category":"متنوع"},{"id":"oF0ezQr7D_4","title":"131- النهي عن التَّكنِّي بأبي القاسم وبيان ما يُستحبُّ من الأسماء","publishedAt":"2020-09-14T13:21:48Z","duration":"PT25M20S","thumbnail":"https://i.ytimg.com/vi/oF0ezQr7D_4/mqdefault.jpg","viewCount":"911","playlistId":"PLEkQk5xrP-tmKNjtYLfhATC37QdIsTMe0","playlistName":"شرح كتاب اللؤلؤ والمرجان فيما اتفق عليه الشيخان إماما المحدثين البخاري ومسلم. أ.د. يسري جبر","category":"حديث"},{"id":"GKAcv-UkpbA","title":"الظاهر والمُؤول","publishedAt":"2020-09-14T06:06:52Z","duration":"PT26M53S","thumbnail":"https://i.ytimg.com/vi/GKAcv-UkpbA/mqdefault.jpg","viewCount":"808","playlistId":"PLEkQk5xrP-tnW3iBL7HkKziOFCFZbTlf0","playlistName":"شرح البرهان في علوم القرآن - أ.د. يسري جبر","category":"تفسير"},{"id":"4heQbfOxWWE","title":"النبي ﷺ له التصريف في الجنة  أ.د. يسري جبر","publishedAt":"2020-09-13T19:29:27Z","duration":"PT30M25S","thumbnail":"https://i.ytimg.com/vi/4heQbfOxWWE/mqdefault.jpg","viewCount":"5450","playlistId":"PLEkQk5xrP-tlArtGpeLWaqNM7h7IDeAVC","playlistName":"خطب الجمعة أ.د. يسري جبر","category":"خطب"},{"id":"H-8oRSC3SqQ","title":"130- باب جواز وسْم الحيوان غير الْآدَمِيِّ في غَيْرِ الوجْه، وندْبه في نَعَم الزَّكاة وَالْجِزْيَة","publishedAt":"2020-09-13T12:37:20Z","duration":"PT27M17S","thumbnail":"https://i.ytimg.com/vi/H-8oRSC3SqQ/mqdefault.jpg","viewCount":"593","playlistId":"PLEkQk5xrP-tmKNjtYLfhATC37QdIsTMe0","playlistName":"شرح كتاب اللؤلؤ والمرجان فيما اتفق عليه الشيخان إماما المحدثين البخاري ومسلم. أ.د. يسري جبر","category":"حديث"},{"id":"wxFDxsr8k7k","title":"معرفة النزول","publishedAt":"2020-09-13T05:45:10Z","duration":"PT24M35S","thumbnail":"https://i.ytimg.com/vi/wxFDxsr8k7k/mqdefault.jpg","viewCount":"1196","playlistId":"PLEkQk5xrP-tnW3iBL7HkKziOFCFZbTlf0","playlistName":"شرح البرهان في علوم القرآن - أ.د. يسري جبر","category":"تفسير"},{"id":"EQHsoM2ljmA","title":"آداب الطريقة","publishedAt":"2020-09-12T14:44:11Z","duration":"PT14M18S","thumbnail":"https://i.ytimg.com/vi/EQHsoM2ljmA/mqdefault.jpg","viewCount":"3224","playlistId":"PLEkQk5xrP-tm8ZIu74nTOZN9KJUJu416J","playlistName":"مقاطع مُهمَّة (يُسريَّات) أ.د. يسري جبر","category":"متنوع"},{"id":"hST8DOv5UOA","title":"حلاوة الذكر","publishedAt":"2020-09-11T19:00:08Z","duration":"PT2M44S","thumbnail":"https://i.ytimg.com/vi/hST8DOv5UOA/mqdefault.jpg","viewCount":"9140","playlistId":"PLEkQk5xrP-tm8ZIu74nTOZN9KJUJu416J","playlistName":"مقاطع مُهمَّة (يُسريَّات) أ.د. يسري جبر","category":"متنوع"},{"id":"daAnVSGJ8Sg","title":"كيف دخل إبليس الجنة ؟","publishedAt":"2020-09-10T19:58:23Z","duration":"PT11M30S","thumbnail":"https://i.ytimg.com/vi/daAnVSGJ8Sg/mqdefault.jpg","viewCount":"25824","playlistId":"PLEkQk5xrP-tm8ZIu74nTOZN9KJUJu416J","playlistName":"مقاطع مُهمَّة (يُسريَّات) أ.د. يسري جبر","category":"متنوع"},{"id":"2cIhPkDiFDU","title":"129- بابٌ في طرح خاتم الذهب","publishedAt":"2020-09-10T11:57:55Z","duration":"PT33M10S","thumbnail":"https://i.ytimg.com/vi/2cIhPkDiFDU/mqdefault.jpg","viewCount":"973","playlistId":"PLEkQk5xrP-tmKNjtYLfhATC37QdIsTMe0","playlistName":"شرح كتاب اللؤلؤ والمرجان فيما اتفق عليه الشيخان إماما المحدثين البخاري ومسلم. أ.د. يسري جبر","category":"حديث"},{"id":"u74HH6Ek8Dg","title":"فصلٌ في ذِكر الأمور التي تعين على المعنى عند الإشكال","publishedAt":"2020-09-10T05:12:57Z","duration":"PT21M48S","thumbnail":"https://i.ytimg.com/vi/u74HH6Ek8Dg/mqdefault.jpg","viewCount":"829","playlistId":"PLEkQk5xrP-tnW3iBL7HkKziOFCFZbTlf0","playlistName":"شرح البرهان في علوم القرآن - أ.د. يسري جبر","category":"تفسير"},{"id":"d69visWWRRM","title":"بِدَعُ التَفَاسِيرِ - المجلس الرابع عشر. أ.د. يسري جبر","publishedAt":"2020-09-09T19:13:13Z","duration":"PT14M57S","thumbnail":"https://i.ytimg.com/vi/d69visWWRRM/mqdefault.jpg","viewCount":"2023","playlistId":"PLEkQk5xrP-tkSGrPLMt1BEmJ54cGWYgtp","playlistName":"كتابُ بِدَعِ التَفَاسِيرِ - أ.د. يسري جبر","category":"متنوع"},{"id":"8BIRS5JuOyU","title":"128- تحريم استعمال أواني الذهب والفضة في الشرب وغيره على الرجال والنساء","publishedAt":"2020-09-09T10:39:40Z","duration":"PT29M47S","thumbnail":"https://i.ytimg.com/vi/8BIRS5JuOyU/mqdefault.jpg","viewCount":"565","playlistId":"PLEkQk5xrP-tmKNjtYLfhATC37QdIsTMe0","playlistName":"شرح كتاب اللؤلؤ والمرجان فيما اتفق عليه الشيخان إماما المحدثين البخاري ومسلم. أ.د. يسري جبر","category":"حديث"},{"id":"lF3pKF1bpHQ","title":"قد يكون اللفظ مقتضيا لأمر ويُحمل على غيره","publishedAt":"2020-09-09T05:12:11Z","duration":"PT18M7S","thumbnail":"https://i.ytimg.com/vi/lF3pKF1bpHQ/mqdefault.jpg","viewCount":"791","playlistId":"PLEkQk5xrP-tnW3iBL7HkKziOFCFZbTlf0","playlistName":"شرح البرهان في علوم القرآن - أ.د. يسري جبر","category":"تفسير"},{"id":"fZ_fTtDobdA","title":"الأدب حال الكشف","publishedAt":"2020-09-08T18:54:28Z","duration":"PT9M8S","thumbnail":"https://i.ytimg.com/vi/fZ_fTtDobdA/mqdefault.jpg","viewCount":"9201","playlistId":"PLEkQk5xrP-tm8ZIu74nTOZN9KJUJu416J","playlistName":"مقاطع مُهمَّة (يُسريَّات) أ.د. يسري جبر","category":"متنوع"},{"id":"gL0dm-dg9WU","title":"معرفة الله","publishedAt":"2020-09-07T19:21:47Z","duration":"PT12M8S","thumbnail":"https://i.ytimg.com/vi/gL0dm-dg9WU/mqdefault.jpg","viewCount":"21388","playlistId":"PLEkQk5xrP-tm8ZIu74nTOZN9KJUJu416J","playlistName":"مقاطع مُهمَّة (يُسريَّات) أ.د. يسري جبر","category":"متنوع"},{"id":"1P_6R_beDFM","title":"127- جواز أكل المَرَق واستحباب أكل اليقطين","publishedAt":"2020-09-07T05:22:40Z","duration":"PT32M23S","thumbnail":"https://i.ytimg.com/vi/1P_6R_beDFM/mqdefault.jpg","viewCount":"977","playlistId":"PLEkQk5xrP-tmKNjtYLfhATC37QdIsTMe0","playlistName":"شرح كتاب اللؤلؤ والمرجان فيما اتفق عليه الشيخان إماما المحدثين البخاري ومسلم. أ.د. يسري جبر","category":"حديث"},{"id":"Zf2pmsOPh2E","title":"تكملة المُجْمل والمُبيَّن","publishedAt":"2020-09-07T05:22:28Z","duration":"PT16M36S","thumbnail":"https://i.ytimg.com/vi/Zf2pmsOPh2E/mqdefault.jpg","viewCount":"373","playlistId":"PLEkQk5xrP-tnW3iBL7HkKziOFCFZbTlf0","playlistName":"شرح البرهان في علوم القرآن - أ.د. يسري جبر","category":"تفسير"},{"id":"xSCgQog0aVc","title":"المحب لا ينصرف عن الباب","publishedAt":"2020-09-06T19:35:12Z","duration":"PT13M33S","thumbnail":"https://i.ytimg.com/vi/xSCgQog0aVc/mqdefault.jpg","viewCount":"7220","playlistId":"PLEkQk5xrP-tm8ZIu74nTOZN9KJUJu416J","playlistName":"مقاطع مُهمَّة (يُسريَّات) أ.د. يسري جبر","category":"متنوع"},{"id":"vNRtNmkF6Vs","title":"126- استحباب إدارة الماء واللبن ونحوهما عن يمين المبتدي","publishedAt":"2020-09-06T05:02:30Z","duration":"PT21M52S","thumbnail":"https://i.ytimg.com/vi/vNRtNmkF6Vs/mqdefault.jpg","viewCount":"715","playlistId":"PLEkQk5xrP-tmKNjtYLfhATC37QdIsTMe0","playlistName":"شرح كتاب اللؤلؤ والمرجان فيما اتفق عليه الشيخان إماما المحدثين البخاري ومسلم. أ.د. يسري جبر","category":"حديث"},{"id":"eehR9LwZmHI","title":"المُجْمَلُ والمُبَيَّن","publishedAt":"2020-09-06T05:02:19Z","duration":"PT26M29S","thumbnail":"https://i.ytimg.com/vi/eehR9LwZmHI/mqdefault.jpg","viewCount":"913","playlistId":"PLEkQk5xrP-tnW3iBL7HkKziOFCFZbTlf0","playlistName":"شرح البرهان في علوم القرآن - أ.د. يسري جبر","category":"تفسير"},{"id":"dm0KKYwll34","title":"تعظيم ما عظم الله","publishedAt":"2020-09-05T18:14:11Z","duration":"PT4M12S","thumbnail":"https://i.ytimg.com/vi/dm0KKYwll34/mqdefault.jpg","viewCount":"2203","playlistId":"PLEkQk5xrP-tm8ZIu74nTOZN9KJUJu416J","playlistName":"مقاطع مُهمَّة (يُسريَّات) أ.د. يسري جبر","category":"متنوع"},{"id":"ajENrVFYcqo","title":"تقسيم القرآن إلى ما هو بيِّن بنفسه، وإلى ما ليس بيِّن بنفسه فيحتاج إلى بيان","publishedAt":"2020-09-05T05:20:16Z","duration":"PT20M32S","thumbnail":"https://i.ytimg.com/vi/ajENrVFYcqo/mqdefault.jpg","viewCount":"1010","playlistId":"PLEkQk5xrP-tnW3iBL7HkKziOFCFZbTlf0","playlistName":"شرح البرهان في علوم القرآن - أ.د. يسري جبر","category":"تفسير"}],"total":7675,"page":142,"pageSize":24,"totalPages":320}