{"items":[{"id":"ax3RrD76TaI","title":"شرح صحيح البخاري كتاب الطلاق من باب 14","publishedAt":"2018-06-19T04:57:15Z","duration":"PT13M51S","thumbnail":"https://i.ytimg.com/vi/ax3RrD76TaI/mqdefault.jpg","viewCount":"323","playlistId":"PLEkQk5xrP-tlEerGoLa1AFy-2XvQ-sovv","playlistName":"شرح صحيح البخاري - أ.د. يسري جبر (كاملا)","category":"حديث"},{"id":"GocS-FPCRuI","title":"شرح كتاب الإشارات الزروقيّة علی الآيات القرآنية - المجلس الثالث","publishedAt":"2018-06-18T17:36:05Z","duration":"PT31M58S","thumbnail":"https://i.ytimg.com/vi/GocS-FPCRuI/mqdefault.jpg","viewCount":"1761","playlistId":"PLEkQk5xrP-tl1OLT5J2vthcf9QHpjNkWx","playlistName":"شرح كتاب الإشارات الزروقيّة علی الآيات القرآنية  د. يسري جبر","category":"تفسير"},{"id":"4DAFvfz4LVM","title":"شرح كتاب الإشارات الزروقيّة علی الآيات القرآنية - المجلس الثاني","publishedAt":"2018-06-18T17:35:08Z","duration":"PT24M35S","thumbnail":"https://i.ytimg.com/vi/4DAFvfz4LVM/mqdefault.jpg","viewCount":"2227","playlistId":"PLEkQk5xrP-tl1OLT5J2vthcf9QHpjNkWx","playlistName":"شرح كتاب الإشارات الزروقيّة علی الآيات القرآنية  د. يسري جبر","category":"تفسير"},{"id":"j0ztncrjPsM","title":"شرح كتاب الإشارات الزروقيّة علی الآيات القرآنية - المجلس الرابع","publishedAt":"2018-06-18T17:33:03Z","duration":"PT35M49S","thumbnail":"https://i.ytimg.com/vi/j0ztncrjPsM/mqdefault.jpg","viewCount":"1467","playlistId":"PLEkQk5xrP-tl1OLT5J2vthcf9QHpjNkWx","playlistName":"شرح كتاب الإشارات الزروقيّة علی الآيات القرآنية  د. يسري جبر","category":"تفسير"},{"id":"Q12lbrR8AuQ","title":"مقرأة سورة الروم من آية ١١","publishedAt":"2018-06-18T12:41:54Z","duration":"PT18M54S","thumbnail":"https://i.ytimg.com/vi/Q12lbrR8AuQ/mqdefault.jpg","viewCount":"311","playlistId":"PLEkQk5xrP-tnmTYsyW6xNdyfhPq0Bhrhj","playlistName":"مقرأة الفجر - القُرْآنُ الكَرِيمُ - خَتْمَةُ التَّدَبُّرِ  أ.د. يسري جبر","category":"متنوع"},{"id":"dllROz2PD4g","title":"شرح صحيح البخاري كتاب الطلاق من باب 12","publishedAt":"2018-06-17T16:11:24Z","duration":"PT23M18S","thumbnail":"https://i.ytimg.com/vi/dllROz2PD4g/mqdefault.jpg","viewCount":"374","playlistId":"PLEkQk5xrP-tlEerGoLa1AFy-2XvQ-sovv","playlistName":"شرح صحيح البخاري - أ.د. يسري جبر (كاملا)","category":"حديث"},{"id":"eHOoa9XwZyE","title":"مقرأة سورة الروم من آية ٨","publishedAt":"2018-06-17T10:29:58Z","duration":"PT10M9S","thumbnail":"https://i.ytimg.com/vi/eHOoa9XwZyE/mqdefault.jpg","viewCount":"361","playlistId":"PLEkQk5xrP-tnmTYsyW6xNdyfhPq0Bhrhj","playlistName":"مقرأة الفجر - القُرْآنُ الكَرِيمُ - خَتْمَةُ التَّدَبُّرِ  أ.د. يسري جبر","category":"متنوع"},{"id":"qtmT9nEU0Zs","title":"شرح صحيح البخاري كتاب الطلاق من باب 11","publishedAt":"2018-06-17T04:18:43Z","duration":"PT32M51S","thumbnail":"https://i.ytimg.com/vi/qtmT9nEU0Zs/mqdefault.jpg","viewCount":"535","playlistId":"PLEkQk5xrP-tlEerGoLa1AFy-2XvQ-sovv","playlistName":"شرح صحيح البخاري - أ.د. يسري جبر (كاملا)","category":"حديث"},{"id":"x-BgW46K5jU","title":"ومَا كُنتَ تَتْلُو من قَبْلِه من كتَابٍ وَلَا تَخُطُّهُ بِيَمِينِكَ ۖ إِذًا لَّارْتَابَ الْمُبْطِلون","publishedAt":"2018-06-16T20:41:47Z","duration":"PT7M49S","thumbnail":"https://i.ytimg.com/vi/x-BgW46K5jU/mqdefault.jpg","viewCount":"4929","playlistId":"PLEkQk5xrP-tm8ZIu74nTOZN9KJUJu416J","playlistName":"مقاطع مُهمَّة (يُسريَّات) أ.د. يسري جبر","category":"متنوع"},{"id":"X3Se7tKcMFA","title":"الرسول ﷺ له التصريف في الأكوان والأحكام...  أ.د. يسري جبر","publishedAt":"2018-06-16T16:12:00Z","duration":"PT9M32S","thumbnail":"https://i.ytimg.com/vi/X3Se7tKcMFA/mqdefault.jpg","viewCount":"16238","playlistId":"PLEkQk5xrP-tm8ZIu74nTOZN9KJUJu416J","playlistName":"مقاطع مُهمَّة (يُسريَّات) أ.د. يسري جبر","category":"متنوع"},{"id":"S86l_9O42Vw","title":"مقرأة سورة الروم من أولها","publishedAt":"2018-06-16T09:54:29Z","duration":"PT12M15S","thumbnail":"https://i.ytimg.com/vi/S86l_9O42Vw/mqdefault.jpg","viewCount":"435","playlistId":"PLEkQk5xrP-tnmTYsyW6xNdyfhPq0Bhrhj","playlistName":"مقرأة الفجر - القُرْآنُ الكَرِيمُ - خَتْمَةُ التَّدَبُّرِ  أ.د. يسري جبر","category":"متنوع"},{"id":"3cavBa9Cfac","title":"شرح صحيح البخاري كتاب الطلاق من باب 6","publishedAt":"2018-06-15T21:32:37Z","duration":"PT27M56S","thumbnail":"https://i.ytimg.com/vi/3cavBa9Cfac/mqdefault.jpg","viewCount":"551","playlistId":"PLEkQk5xrP-tlEerGoLa1AFy-2XvQ-sovv","playlistName":"شرح صحيح البخاري - أ.د. يسري جبر (كاملا)","category":"حديث"},{"id":"iFMZeOTfkMU","title":"مقرأة سورة العنكبوت من آية ٦٥","publishedAt":"2018-06-15T08:34:43Z","duration":"PT11M55S","thumbnail":"https://i.ytimg.com/vi/iFMZeOTfkMU/mqdefault.jpg","viewCount":"310","playlistId":"PLEkQk5xrP-tnmTYsyW6xNdyfhPq0Bhrhj","playlistName":"مقرأة الفجر - القُرْآنُ الكَرِيمُ - خَتْمَةُ التَّدَبُّرِ  أ.د. يسري جبر","category":"متنوع"},{"id":"qPYn0ySYmjc","title":"شرح صحيح البخاري كتاب الطلاق من باب 4","publishedAt":"2018-06-14T16:00:38Z","duration":"PT27M3S","thumbnail":"https://i.ytimg.com/vi/qPYn0ySYmjc/mqdefault.jpg","viewCount":"605","playlistId":"PLEkQk5xrP-tlEerGoLa1AFy-2XvQ-sovv","playlistName":"شرح صحيح البخاري - أ.د. يسري جبر (كاملا)","category":"حديث"},{"id":"lA3IWmRBNME","title":"62- باب مَا جَاءَ فِى الصَّدَاقِ وَالْحِبَاءِ ك الموطأ د يسري جبر الأزهري","publishedAt":"2018-06-14T14:06:19Z","duration":"PT47M37S","thumbnail":"https://i.ytimg.com/vi/lA3IWmRBNME/mqdefault.jpg","viewCount":"279","playlistId":"PLEkQk5xrP-tnC6BRuqMjyO-484iqXeg0o","playlistName":"شرح كتاب الموطأ للإمام مالك","category":"متنوع"},{"id":"R9tZRebhhLc","title":"مقرأة سورة العنكبوت من آية ٥٨","publishedAt":"2018-06-14T09:58:56Z","duration":"PT23M54S","thumbnail":"https://i.ytimg.com/vi/R9tZRebhhLc/mqdefault.jpg","viewCount":"357","playlistId":"PLEkQk5xrP-tnmTYsyW6xNdyfhPq0Bhrhj","playlistName":"مقرأة الفجر - القُرْآنُ الكَرِيمُ - خَتْمَةُ التَّدَبُّرِ  أ.د. يسري جبر","category":"متنوع"},{"id":"b2B-vIrOoNE","title":"شرح صحيح البخاري كتاب الطلاق من أوله","publishedAt":"2018-06-13T19:14:53Z","duration":"PT32M50S","thumbnail":"https://i.ytimg.com/vi/b2B-vIrOoNE/mqdefault.jpg","viewCount":"909","playlistId":"PLEkQk5xrP-tlEerGoLa1AFy-2XvQ-sovv","playlistName":"شرح صحيح البخاري - أ.د. يسري جبر (كاملا)","category":"حديث"},{"id":"GZ2FSEiy554","title":"مقرأة سورة العنكبوت من آية ٥٣","publishedAt":"2018-06-13T09:09:09Z","duration":"PT13M6S","thumbnail":"https://i.ytimg.com/vi/GZ2FSEiy554/mqdefault.jpg","viewCount":"288","playlistId":"PLEkQk5xrP-tnmTYsyW6xNdyfhPq0Bhrhj","playlistName":"مقرأة الفجر - القُرْآنُ الكَرِيمُ - خَتْمَةُ التَّدَبُّرِ  أ.د. يسري جبر","category":"متنوع"},{"id":"SaetOACGeVw","title":"شرح صحيح البخاري كتاب النكاح من باب ١١٩","publishedAt":"2018-06-12T16:02:48Z","duration":"PT28M21S","thumbnail":"https://i.ytimg.com/vi/SaetOACGeVw/mqdefault.jpg","viewCount":"485","playlistId":"PLEkQk5xrP-tlEerGoLa1AFy-2XvQ-sovv","playlistName":"شرح صحيح البخاري - أ.د. يسري جبر (كاملا)","category":"حديث"},{"id":"OZ6uRIRngak","title":"مقرأة سورة العنكبوت من آية ٥٠","publishedAt":"2018-06-12T10:23:22Z","duration":"PT8M55S","thumbnail":"https://i.ytimg.com/vi/OZ6uRIRngak/mqdefault.jpg","viewCount":"278","playlistId":"PLEkQk5xrP-tnmTYsyW6xNdyfhPq0Bhrhj","playlistName":"مقرأة الفجر - القُرْآنُ الكَرِيمُ - خَتْمَةُ التَّدَبُّرِ  أ.د. يسري جبر","category":"متنوع"},{"id":"el4iI0BkQ8k","title":"شرح صحيح البخاري كتاب النكاح من باب ١١٢","publishedAt":"2018-06-11T15:50:06Z","duration":"PT23M14S","thumbnail":"https://i.ytimg.com/vi/el4iI0BkQ8k/mqdefault.jpg","viewCount":"613","playlistId":"PLEkQk5xrP-tlEerGoLa1AFy-2XvQ-sovv","playlistName":"شرح صحيح البخاري - أ.د. يسري جبر (كاملا)","category":"حديث"},{"id":"yvkvlM1aLuk","title":"مقرأة سورة العنكبوت من آية ٤٦","publishedAt":"2018-06-11T07:24:19Z","duration":"PT23M27S","thumbnail":"https://i.ytimg.com/vi/yvkvlM1aLuk/mqdefault.jpg","viewCount":"247","playlistId":"PLEkQk5xrP-tnmTYsyW6xNdyfhPq0Bhrhj","playlistName":"مقرأة الفجر - القُرْآنُ الكَرِيمُ - خَتْمَةُ التَّدَبُّرِ  أ.د. يسري جبر","category":"متنوع"},{"id":"c10gBnxag_0","title":"شرح صحيح البخاري كتاب النكاح من باب ١٠٧","publishedAt":"2018-06-10T20:04:32Z","duration":"PT27M54S","thumbnail":"https://i.ytimg.com/vi/c10gBnxag_0/mqdefault.jpg","viewCount":"475","playlistId":"PLEkQk5xrP-tlEerGoLa1AFy-2XvQ-sovv","playlistName":"شرح صحيح البخاري - أ.د. يسري جبر (كاملا)","category":"حديث"},{"id":"szV2FMEndgs","title":"6- حديث الإسراء والمعراج بنبينا صلى الله عليه وآله وسلم (المجلس السادس). د. يسري جبر","publishedAt":"2018-06-10T18:29:00Z","duration":"PT32M14S","thumbnail":"https://i.ytimg.com/vi/szV2FMEndgs/mqdefault.jpg","viewCount":"1612","playlistId":"PLEkQk5xrP-tnl7vb7KeAoPd5ZlqKKW8KV","playlistName":"شرح كتاب بهجة النفوس أ.د . يسرى جبر","category":"متنوع"}],"total":7675,"page":212,"pageSize":24,"totalPages":320}