{"items":[{"id":"gmVusj_fz2U","title":"القِسمُ التاسع من التوكيد: وضع الظاهر موضع المُضْمَر - شرح البرهان في علوم القرآن","publishedAt":"2021-03-22T07:09:05Z","duration":"PT16M23S","thumbnail":"https://i.ytimg.com/vi/gmVusj_fz2U/mqdefault.jpg","viewCount":"524","playlistId":"PLEkQk5xrP-tnW3iBL7HkKziOFCFZbTlf0","playlistName":"شرح البرهان في علوم القرآن - أ.د. يسري جبر","category":"تفسير"},{"id":"y_qcOj8itQw","title":"وصايا النبي لدخول الجنة","publishedAt":"2021-03-21T19:58:47Z","duration":"PT8M8S","thumbnail":"https://i.ytimg.com/vi/y_qcOj8itQw/mqdefault.jpg","viewCount":"3996","playlistId":"PLEkQk5xrP-tlArtGpeLWaqNM7h7IDeAVC","playlistName":"خطب الجمعة أ.د. يسري جبر","category":"خطب"},{"id":"iROGHTNUlZ4","title":"32- باب التوبة: الحديث التاسع (5) شرح دليل الفالحين لطُرُق رياض الصالحين","publishedAt":"2021-03-21T07:10:44Z","duration":"PT37M46S","thumbnail":"https://i.ytimg.com/vi/iROGHTNUlZ4/mqdefault.jpg","viewCount":"1158","playlistId":"PLEkQk5xrP-tkc9DXvSLguqX5-FYp6ASR4","playlistName":"دليل الفالحين لطرق رياض الصالحين","category":"متنوع"},{"id":"JGlMRn1XN6s","title":"القِسمُ الثامن من التوكيد: الإيضاح بعد الإبهام - شرح البرهان في علوم القرآن","publishedAt":"2021-03-20T09:05:23Z","duration":"PT27M20S","thumbnail":"https://i.ytimg.com/vi/JGlMRn1XN6s/mqdefault.jpg","viewCount":"436","playlistId":"PLEkQk5xrP-tnW3iBL7HkKziOFCFZbTlf0","playlistName":"شرح البرهان في علوم القرآن - أ.د. يسري جبر","category":"تفسير"},{"id":"hMtLsl09v-o","title":"هل يجب الصلاة على المبتدع والعاصي؟","publishedAt":"2021-03-19T19:56:20Z","duration":"PT10M55S","thumbnail":"https://i.ytimg.com/vi/hMtLsl09v-o/mqdefault.jpg","viewCount":"1642","playlistId":"PLEkQk5xrP-tnAJa3yfebXD7wNC_ECfZNt","playlistName":"كتاب النفحة الذكية في أن الهجر بدعة شركية","category":"متنوع"},{"id":"A6iwn2_5NWc","title":"31- باب التوبة: الحديث التاسع (4) شرح دليل الفالحين لطُرُق رياض الصالحين","publishedAt":"2021-03-19T07:15:17Z","duration":"PT41M32S","thumbnail":"https://i.ytimg.com/vi/A6iwn2_5NWc/mqdefault.jpg","viewCount":"1218","playlistId":"PLEkQk5xrP-tkc9DXvSLguqX5-FYp6ASR4","playlistName":"دليل الفالحين لطرق رياض الصالحين","category":"متنوع"},{"id":"QvJE4zitAm0","title":"عناية الله برسوله ﷺ","publishedAt":"2021-03-18T18:00:04Z","duration":"PT31M50S","thumbnail":"https://i.ytimg.com/vi/QvJE4zitAm0/mqdefault.jpg","viewCount":"5457","playlistId":"PLEkQk5xrP-tlArtGpeLWaqNM7h7IDeAVC","playlistName":"خطب الجمعة أ.د. يسري جبر","category":"خطب"},{"id":"9HfGbtrc5Ns","title":"القِسمُ السابع من التوكيد: عطف أحد المترادفيْن على الآخر -  شرح البرهان في علوم القرآن","publishedAt":"2021-03-18T06:49:00Z","duration":"PT21M47S","thumbnail":"https://i.ytimg.com/vi/9HfGbtrc5Ns/mqdefault.jpg","viewCount":"374","playlistId":"PLEkQk5xrP-tnW3iBL7HkKziOFCFZbTlf0","playlistName":"شرح البرهان في علوم القرآن - أ.د. يسري جبر","category":"تفسير"},{"id":"i8xFY8yBPzk","title":"السفر عبر الزمن بين النسبية والمعراج","publishedAt":"2021-03-17T19:38:25Z","duration":"PT10M11S","thumbnail":"https://i.ytimg.com/vi/i8xFY8yBPzk/mqdefault.jpg","viewCount":"21664","playlistId":"PLEkQk5xrP-tm8ZIu74nTOZN9KJUJu416J","playlistName":"مقاطع مُهمَّة (يُسريَّات) أ.د. يسري جبر","category":"متنوع"},{"id":"jWvaIDImBFY","title":"30- باب التوبة: الحديث التاسع (3) شرح دليل الفالحين لطُرُق رياض الصالحين","publishedAt":"2021-03-17T08:28:02Z","duration":"PT41M53S","thumbnail":"https://i.ytimg.com/vi/jWvaIDImBFY/mqdefault.jpg","viewCount":"1412","playlistId":"PLEkQk5xrP-tkc9DXvSLguqX5-FYp6ASR4","playlistName":"دليل الفالحين لطرق رياض الصالحين","category":"متنوع"},{"id":"80e2Oo8iWnY","title":"هل يجوز وهب ثواب الصلاة للميت؟","publishedAt":"2021-03-16T19:14:40Z","duration":"PT9M52S","thumbnail":"https://i.ytimg.com/vi/80e2Oo8iWnY/mqdefault.jpg","viewCount":"8011","playlistId":"PLEkQk5xrP-tm8ZIu74nTOZN9KJUJu416J","playlistName":"مقاطع مُهمَّة (يُسريَّات) أ.د. يسري جبر","category":"متنوع"},{"id":"51VRN8ri1YQ","title":"أريد الانتقام من شخص ظلمني ماذا أفعل؟","publishedAt":"2021-03-15T18:45:00Z","duration":"PT9M41S","thumbnail":"https://i.ytimg.com/vi/51VRN8ri1YQ/mqdefault.jpg","viewCount":"27211","playlistId":"PLEkQk5xrP-tm8ZIu74nTOZN9KJUJu416J","playlistName":"مقاطع مُهمَّة (يُسريَّات) أ.د. يسري جبر","category":"متنوع"},{"id":"2XFtrvIZg_A","title":"29- باب التوبة: الحديث التاسع (2) شرح دليل الفالحين لطُرُق رياض الصالحين","publishedAt":"2021-03-15T06:25:13Z","duration":"PT48M14S","thumbnail":"https://i.ytimg.com/vi/2XFtrvIZg_A/mqdefault.jpg","viewCount":"1301","playlistId":"PLEkQk5xrP-tkc9DXvSLguqX5-FYp6ASR4","playlistName":"دليل الفالحين لطرق رياض الصالحين","category":"متنوع"},{"id":"WxvbDgCi8a0","title":"هل يوجد تفسير للأحاديث الشاذة في السنة النبوية؟","publishedAt":"2021-03-14T18:59:16Z","duration":"PT11M57S","thumbnail":"https://i.ytimg.com/vi/WxvbDgCi8a0/mqdefault.jpg","viewCount":"6198","playlistId":"PLEkQk5xrP-tm8ZIu74nTOZN9KJUJu416J","playlistName":"مقاطع مُهمَّة (يُسريَّات) أ.د. يسري جبر","category":"متنوع"},{"id":"Flw7hVwA-q4","title":"الرد على من ينكر ​الإسراء والمعراج","publishedAt":"2021-03-14T08:00:07Z","duration":"PT12M22S","thumbnail":"https://i.ytimg.com/vi/Flw7hVwA-q4/mqdefault.jpg","viewCount":"4745","playlistId":"PLEkQk5xrP-tkUKP083yQli9ADnyTpMmgU","playlistName":"شرح كتاب الآية الكبرى في الإسراء والعراج","category":"تفسير"},{"id":"aGVt8PjG-Ps","title":"كيف نواجه انتشار الفكر الوهابي؟","publishedAt":"2021-03-13T20:02:02Z","duration":"PT10M44S","thumbnail":"https://i.ytimg.com/vi/aGVt8PjG-Ps/mqdefault.jpg","viewCount":"25947","playlistId":"PLEkQk5xrP-tm8ZIu74nTOZN9KJUJu416J","playlistName":"مقاطع مُهمَّة (يُسريَّات) أ.د. يسري جبر","category":"متنوع"},{"id":"NiVIV6NELcI","title":"كيف غار اللهُ على نبيّه ﷺ","publishedAt":"2021-03-13T09:51:49Z","duration":"PT49M5S","thumbnail":"https://i.ytimg.com/vi/NiVIV6NELcI/mqdefault.jpg","viewCount":"2082","playlistId":"PLEkQk5xrP-tlArtGpeLWaqNM7h7IDeAVC","playlistName":"خطب الجمعة أ.د. يسري جبر","category":"خطب"},{"id":"kcj_1iXrnYE","title":"القِسمُ الخامس من التوكيد: ذِكْر الخاص بعد العام - شرح البرهان في علوم القرآن","publishedAt":"2021-03-13T07:58:56Z","duration":"PT32M54S","thumbnail":"https://i.ytimg.com/vi/kcj_1iXrnYE/mqdefault.jpg","viewCount":"368","playlistId":"PLEkQk5xrP-tnW3iBL7HkKziOFCFZbTlf0","playlistName":"شرح البرهان في علوم القرآن - أ.د. يسري جبر","category":"تفسير"},{"id":"Atrli-ecdUY","title":"تفسير\"سبحان الذي أسرى بعبده ليلاً\" | كما لم تسمعه من قبل","publishedAt":"2021-03-12T19:19:37Z","duration":"PT15M29S","thumbnail":"https://i.ytimg.com/vi/Atrli-ecdUY/mqdefault.jpg","viewCount":"6453","playlistId":"PLEkQk5xrP-tlArtGpeLWaqNM7h7IDeAVC","playlistName":"خطب الجمعة أ.د. يسري جبر","category":"خطب"},{"id":"ZaEOCOb2MXw","title":"28- باب التوبة: الحديث التاسع - شرح دليل الفالحين لطُرُق رياض الصالحين","publishedAt":"2021-03-12T06:51:28Z","duration":"PT23M","thumbnail":"https://i.ytimg.com/vi/ZaEOCOb2MXw/mqdefault.jpg","viewCount":"1303","playlistId":"PLEkQk5xrP-tkc9DXvSLguqX5-FYp6ASR4","playlistName":"دليل الفالحين لطرق رياض الصالحين","category":"متنوع"},{"id":"ke3cXkjuA_M","title":"ماذا حدث في الإسراء والمعراج؟","publishedAt":"2021-03-11T18:16:23Z","duration":"PT9M53S","thumbnail":"https://i.ytimg.com/vi/ke3cXkjuA_M/mqdefault.jpg","viewCount":"6613","playlistId":"PLEkQk5xrP-tm8ZIu74nTOZN9KJUJu416J","playlistName":"مقاطع مُهمَّة (يُسريَّات) أ.د. يسري جبر","category":"متنوع"},{"id":"Vjt35CJ2Njc","title":"القِسمُ الرابع من التوكيد: عطف البيان - شرح البرهان في علوم القرآن","publishedAt":"2021-03-11T07:35:13Z","duration":"PT22M14S","thumbnail":"https://i.ytimg.com/vi/Vjt35CJ2Njc/mqdefault.jpg","viewCount":"408","playlistId":"PLEkQk5xrP-tnW3iBL7HkKziOFCFZbTlf0","playlistName":"شرح البرهان في علوم القرآن - أ.د. يسري جبر","category":"تفسير"},{"id":"N2QvIGvOrwk","title":"أسرار الإسراء والمعراج!","publishedAt":"2021-03-10T18:30:00Z","duration":"PT17M48S","thumbnail":"https://i.ytimg.com/vi/N2QvIGvOrwk/mqdefault.jpg","viewCount":"16394","playlistId":"PLEkQk5xrP-tlArtGpeLWaqNM7h7IDeAVC","playlistName":"خطب الجمعة أ.د. يسري جبر","category":"خطب"},{"id":"G9nBAqXWc5c","title":"27- \"كان فيمن كان قبلكم رجلٌ قتل تسعة وتسعين نفسًا، فسأل عن أعلم أهل الأرض..\" - شرح دليل الفالحين","publishedAt":"2021-03-10T07:53:52Z","duration":"PT35M14S","thumbnail":"https://i.ytimg.com/vi/G9nBAqXWc5c/mqdefault.jpg","viewCount":"2728","playlistId":"PLEkQk5xrP-tkc9DXvSLguqX5-FYp6ASR4","playlistName":"دليل الفالحين لطرق رياض الصالحين","category":"متنوع"}],"total":7675,"page":127,"pageSize":24,"totalPages":320}