{"items":[{"id":"kNRc4VBNiwA","title":"الاختزال (37) حذف الحرف (5) فائدة في حذف الجارّ - شرح البرهان في علوم القرآن","publishedAt":"2021-08-31T05:40:50Z","duration":"PT37M12S","thumbnail":"https://i.ytimg.com/vi/kNRc4VBNiwA/mqdefault.jpg","viewCount":"479","playlistId":"PLEkQk5xrP-tnW3iBL7HkKziOFCFZbTlf0","playlistName":"شرح البرهان في علوم القرآن - أ.د. يسري جبر","category":"تفسير"},{"id":"Z5QPSibhzwk","title":"ما موقفك من معاوية بن أبي سفيان؟","publishedAt":"2021-08-30T19:08:43Z","duration":"PT11M40S","thumbnail":"https://i.ytimg.com/vi/Z5QPSibhzwk/mqdefault.jpg","viewCount":"49077","playlistId":"PLEkQk5xrP-tm8ZIu74nTOZN9KJUJu416J","playlistName":"مقاطع مُهمَّة (يُسريَّات) أ.د. يسري جبر","category":"متنوع"},{"id":"FwqIcR0RaFA","title":"19- \" …أنَّ النَّبيَّ ﷺ صام في سفره إلى مكة عام الفتح…\" - شرح مسند الإمام الشافعيّ رضي الله عنه.","publishedAt":"2021-08-30T07:34:01Z","duration":"PT58M39S","thumbnail":"https://i.ytimg.com/vi/FwqIcR0RaFA/mqdefault.jpg","viewCount":"1321","playlistId":"PLEkQk5xrP-tlDtaqY0qhNXAiZ19gaGzKI","playlistName":"شرح مسند الإمام محمد بن إدريس الشافعيّ رضي الله تعالى عنه","category":"فقه"},{"id":"Mfw_VtgJdjY","title":"ما هي شروط رؤية النبيﷺ ؟","publishedAt":"2021-08-29T18:30:10Z","duration":"PT12M57S","thumbnail":"https://i.ytimg.com/vi/Mfw_VtgJdjY/mqdefault.jpg","viewCount":"28996","playlistId":"PLEkQk5xrP-tm8ZIu74nTOZN9KJUJu416J","playlistName":"مقاطع مُهمَّة (يُسريَّات) أ.د. يسري جبر","category":"متنوع"},{"id":"pUPdIk-6GCY","title":"119- فضلُ قضاء حوائج المسلمين - شرح دليل الفالحين","publishedAt":"2021-08-29T07:27:41Z","duration":"PT52M31S","thumbnail":"https://i.ytimg.com/vi/pUPdIk-6GCY/mqdefault.jpg","viewCount":"3068","playlistId":"PLEkQk5xrP-tkc9DXvSLguqX5-FYp6ASR4","playlistName":"دليل الفالحين لطرق رياض الصالحين","category":"متنوع"},{"id":"pIVc5d95zvA","title":"كيف تتغلب على شهوة النفس؟","publishedAt":"2021-08-28T17:15:00Z","duration":"PT12M31S","thumbnail":"https://i.ytimg.com/vi/pIVc5d95zvA/mqdefault.jpg","viewCount":"53135","playlistId":"PLEkQk5xrP-tkGXuZ9atE3k_7it12rUPTs","playlistName":"أسئلة المتابعين","category":"متنوع"},{"id":"R0fx5tHgDM0","title":"الاختزال (36) حذف الحرف (4) حذف ( لو ) - شرح البرهان في علوم القرآن","publishedAt":"2021-08-28T06:21:25Z","duration":"PT15M22S","thumbnail":"https://i.ytimg.com/vi/R0fx5tHgDM0/mqdefault.jpg","viewCount":"382","playlistId":"PLEkQk5xrP-tnW3iBL7HkKziOFCFZbTlf0","playlistName":"شرح البرهان في علوم القرآن - أ.د. يسري جبر","category":"تفسير"},{"id":"VGefpDU0M4w","title":"118- ستر عورات المسلمين والنَّهي عن إشاعتها لغير ضرورة -  شرح دليل الفالحين","publishedAt":"2021-08-27T06:08:20Z","duration":"PT41M24S","thumbnail":"https://i.ytimg.com/vi/VGefpDU0M4w/mqdefault.jpg","viewCount":"1892","playlistId":"PLEkQk5xrP-tkc9DXvSLguqX5-FYp6ASR4","playlistName":"دليل الفالحين لطرق رياض الصالحين","category":"متنوع"},{"id":"QPyt_W26M0E","title":"الرد على تساؤلات الوهابية","publishedAt":"2021-08-26T17:15:01Z","duration":"PT12M42S","thumbnail":"https://i.ytimg.com/vi/QPyt_W26M0E/mqdefault.jpg","viewCount":"56152","playlistId":"PLEkQk5xrP-tkGXuZ9atE3k_7it12rUPTs","playlistName":"أسئلة المتابعين","category":"متنوع"},{"id":"-Nh64ZyN9_g","title":"الاختزال (35) حذف الحرف (3) حرف الفاء - شرح البرهان في علوم القرآن","publishedAt":"2021-08-26T06:01:48Z","duration":"PT19M1S","thumbnail":"https://i.ytimg.com/vi/-Nh64ZyN9_g/mqdefault.jpg","viewCount":"438","playlistId":"PLEkQk5xrP-tnW3iBL7HkKziOFCFZbTlf0","playlistName":"شرح البرهان في علوم القرآن - أ.د. يسري جبر","category":"تفسير"},{"id":"vIu6OORGjjg","title":"كيف تتعامل مع مشاعر الغضب؟","publishedAt":"2021-08-25T17:00:35Z","duration":"PT41M56S","thumbnail":"https://i.ytimg.com/vi/vIu6OORGjjg/mqdefault.jpg","viewCount":"31895","playlistId":"PLEkQk5xrP-tlArtGpeLWaqNM7h7IDeAVC","playlistName":"خطب الجمعة أ.د. يسري جبر","category":"خطب"},{"id":"Ov2syHdZHnY","title":"117-\"لا يؤمِنُ أحدُكُم حتَّى يُحِبَّ لأخيهِ ما يحبُّ لنفسِه\" شرح دليل الفالحين","publishedAt":"2021-08-25T06:02:46Z","duration":"PT52M39S","thumbnail":"https://i.ytimg.com/vi/Ov2syHdZHnY/mqdefault.jpg","viewCount":"1266","playlistId":"PLEkQk5xrP-tkc9DXvSLguqX5-FYp6ASR4","playlistName":"دليل الفالحين لطرق رياض الصالحين","category":"متنوع"},{"id":"sV-7yhg9I1Q","title":"الرسالة القشيرية - المجلس (87) بَابُ الفقر (۲) | أ.د. يسري جبر","publishedAt":"2021-08-24T19:00:12Z","duration":"PT51M33S","thumbnail":"https://i.ytimg.com/vi/sV-7yhg9I1Q/mqdefault.jpg","viewCount":"5463","playlistId":"PLEkQk5xrP-tkHAGOwIKr4pc5ehhyQ5HMJ","playlistName":"كتاب الرسالة القشيرية (تصوف) - د. يسري جبر","category":"تصوف"},{"id":"2d00-DdFUs4","title":"الاختزال (34) حذف الحرف (2) حرف الواو - شرح البرهان في علوم القرآن","publishedAt":"2021-08-24T05:28:39Z","duration":"PT15M9S","thumbnail":"https://i.ytimg.com/vi/2d00-DdFUs4/mqdefault.jpg","viewCount":"315","playlistId":"PLEkQk5xrP-tnW3iBL7HkKziOFCFZbTlf0","playlistName":"شرح البرهان في علوم القرآن - أ.د. يسري جبر","category":"تفسير"},{"id":"J2EGWFp7y4s","title":"هل انتشر الإسلام بحد السيف؟","publishedAt":"2021-08-23T18:30:28Z","duration":"PT9M47S","thumbnail":"https://i.ytimg.com/vi/J2EGWFp7y4s/mqdefault.jpg","viewCount":"3429","playlistId":"PLEkQk5xrP-tkGXuZ9atE3k_7it12rUPTs","playlistName":"أسئلة المتابعين","category":"متنوع"},{"id":"_p7ynQ7XlM4","title":"116-\"المسلم أخو المسلم، لا يخونه، ولا يكذبه، ولا يخذله، كل المسلم على المسلم حرام…\"شرح دليل الفالحين","publishedAt":"2021-08-23T05:55:42Z","duration":"PT53M8S","thumbnail":"https://i.ytimg.com/vi/_p7ynQ7XlM4/mqdefault.jpg","viewCount":"1714","playlistId":"PLEkQk5xrP-tkc9DXvSLguqX5-FYp6ASR4","playlistName":"دليل الفالحين لطرق رياض الصالحين","category":"متنوع"},{"id":"cCTGnrGJeV4","title":"أريد الانتحار,, هل سأموت كافرا؟","publishedAt":"2021-08-22T18:58:48Z","duration":"PT9M12S","thumbnail":"https://i.ytimg.com/vi/cCTGnrGJeV4/mqdefault.jpg","viewCount":"11047","playlistId":"PLEkQk5xrP-tkGXuZ9atE3k_7it12rUPTs","playlistName":"أسئلة المتابعين","category":"متنوع"},{"id":"voqzrF5N9RI","title":"18- \"ليس السَّنَةُ بأنْ لا تُمطَروا…\" - شرح مسند الإمام الشافعي رضي الله عنه","publishedAt":"2021-08-22T06:07:28Z","duration":"PT52M43S","thumbnail":"https://i.ytimg.com/vi/voqzrF5N9RI/mqdefault.jpg","viewCount":"2639","playlistId":"PLEkQk5xrP-tlDtaqY0qhNXAiZ19gaGzKI","playlistName":"شرح مسند الإمام محمد بن إدريس الشافعيّ رضي الله تعالى عنه","category":"فقه"},{"id":"jGxSxZSOzpk","title":"نصيحة لأهالي وطلاب الثانوية العامة","publishedAt":"2021-08-21T17:00:39Z","duration":"PT8M55S","thumbnail":"https://i.ytimg.com/vi/jGxSxZSOzpk/mqdefault.jpg","viewCount":"4015","playlistId":"PLEkQk5xrP-tkGXuZ9atE3k_7it12rUPTs","playlistName":"أسئلة المتابعين","category":"متنوع"},{"id":"mfjob1pny-4","title":"الاختزال (33) حذف الحرف - شرح البرهان في علوم القرآن","publishedAt":"2021-08-21T06:21:05Z","duration":"PT22M37S","thumbnail":"https://i.ytimg.com/vi/mfjob1pny-4/mqdefault.jpg","viewCount":"404","playlistId":"PLEkQk5xrP-tnW3iBL7HkKziOFCFZbTlf0","playlistName":"شرح البرهان في علوم القرآن - أ.د. يسري جبر","category":"تفسير"},{"id":"49LdZNokzRw","title":"هل نأخذ بالأحاديث الآحاد في العقيدة؟","publishedAt":"2021-08-20T17:00:02Z","duration":"PT10M21S","thumbnail":"https://i.ytimg.com/vi/49LdZNokzRw/mqdefault.jpg","viewCount":"6918","playlistId":"PLEkQk5xrP-tm8ZIu74nTOZN9KJUJu416J","playlistName":"مقاطع مُهمَّة (يُسريَّات) أ.د. يسري جبر","category":"متنوع"},{"id":"LI2-uglktIk","title":"115-\"إنِّي لأقوم إلى الصَّلاة وأريدُ أن أطوِّل فيها فأسمع بُكاءَ الطفل فأتجوَّز …\" شرح دليل الفالحين","publishedAt":"2021-08-20T06:03:17Z","duration":"PT39M2S","thumbnail":"https://i.ytimg.com/vi/LI2-uglktIk/mqdefault.jpg","viewCount":"1527","playlistId":"PLEkQk5xrP-tkc9DXvSLguqX5-FYp6ASR4","playlistName":"دليل الفالحين لطرق رياض الصالحين","category":"متنوع"},{"id":"ewayINKQNns","title":"هل الله موجود في السماء؟","publishedAt":"2021-08-19T18:00:22Z","duration":"PT11M34S","thumbnail":"https://i.ytimg.com/vi/ewayINKQNns/mqdefault.jpg","viewCount":"54647","playlistId":"PLEkQk5xrP-tm8ZIu74nTOZN9KJUJu416J","playlistName":"مقاطع مُهمَّة (يُسريَّات) أ.د. يسري جبر","category":"متنوع"},{"id":"OdZz_gpO_xw","title":"الاختزال (32) حذف الفعل (6)- شرح البرهان في علوم القرآن","publishedAt":"2021-08-19T05:46:54Z","duration":"PT13M19S","thumbnail":"https://i.ytimg.com/vi/OdZz_gpO_xw/mqdefault.jpg","viewCount":"438","playlistId":"PLEkQk5xrP-tnW3iBL7HkKziOFCFZbTlf0","playlistName":"شرح البرهان في علوم القرآن - أ.د. يسري جبر","category":"تفسير"}],"total":7675,"page":113,"pageSize":24,"totalPages":320}