{"items":[{"id":"nGwCo3AvDVM","title":"شرح كتاب نور اليقين في سيرة سيد المرسلين للشيخ الخضري رحمه الله (المجلس64) د. يسري جبر","publishedAt":"2018-11-05T17:14:40Z","duration":"PT45M6S","thumbnail":"https://i.ytimg.com/vi/nGwCo3AvDVM/mqdefault.jpg","viewCount":"8266","playlistId":"PLEkQk5xrP-tl2t4NQx1IhKnAJCMzF0Nli","playlistName":"شرح كتاب نور اليقين في سيرة سيد المرسلين   د. يسري جبر","category":"سيرة"},{"id":"O7Dh1wMScPE","title":"نصائح تربوية  د. يسري جبر","publishedAt":"2018-11-04T18:23:46Z","duration":"PT45M11S","thumbnail":"https://i.ytimg.com/vi/O7Dh1wMScPE/mqdefault.jpg","viewCount":"1468","playlistId":"PLEkQk5xrP-tlArtGpeLWaqNM7h7IDeAVC","playlistName":"خطب الجمعة أ.د. يسري جبر","category":"خطب"},{"id":"WXuREW2Kqhk","title":"شرح صحيح البخاري كتاب الرقاق من باب ٥١","publishedAt":"2018-11-04T17:39:29Z","duration":"PT48M49S","thumbnail":"https://i.ytimg.com/vi/WXuREW2Kqhk/mqdefault.jpg","viewCount":"546","playlistId":"PLEkQk5xrP-tlEerGoLa1AFy-2XvQ-sovv","playlistName":"شرح صحيح البخاري - أ.د. يسري جبر (كاملا)","category":"حديث"},{"id":"H9Zpf5MRxXM","title":"مقرأة سورة غافر من آية ١٠","publishedAt":"2018-11-04T10:17:06Z","duration":"PT18M49S","thumbnail":"https://i.ytimg.com/vi/H9Zpf5MRxXM/mqdefault.jpg","viewCount":"395","playlistId":"PLEkQk5xrP-tnmTYsyW6xNdyfhPq0Bhrhj","playlistName":"مقرأة الفجر - القُرْآنُ الكَرِيمُ - خَتْمَةُ التَّدَبُّرِ  أ.د. يسري جبر","category":"متنوع"},{"id":"dvxougby87g","title":"شرح صحيح البخاري كتاب الرقاق من باب ٤٧","publishedAt":"2018-11-03T07:38:06Z","duration":"PT33M5S","thumbnail":"https://i.ytimg.com/vi/dvxougby87g/mqdefault.jpg","viewCount":"511","playlistId":"PLEkQk5xrP-tlEerGoLa1AFy-2XvQ-sovv","playlistName":"شرح صحيح البخاري - أ.د. يسري جبر (كاملا)","category":"حديث"},{"id":"2V8Uk4wda7I","title":"مقرأة سورة غافر من آية ٥","publishedAt":"2018-11-02T18:06:07Z","duration":"PT17M26S","thumbnail":"https://i.ytimg.com/vi/2V8Uk4wda7I/mqdefault.jpg","viewCount":"428","playlistId":"PLEkQk5xrP-tnmTYsyW6xNdyfhPq0Bhrhj","playlistName":"مقرأة الفجر - القُرْآنُ الكَرِيمُ - خَتْمَةُ التَّدَبُّرِ  أ.د. يسري جبر","category":"متنوع"},{"id":"dxRonZbvO4A","title":"شرح صحيح البخاري كتاب الرقاق من باب ٤٤","publishedAt":"2018-11-01T20:06:19Z","duration":"PT32M23S","thumbnail":"https://i.ytimg.com/vi/dxRonZbvO4A/mqdefault.jpg","viewCount":"481","playlistId":"PLEkQk5xrP-tlEerGoLa1AFy-2XvQ-sovv","playlistName":"شرح صحيح البخاري - أ.د. يسري جبر (كاملا)","category":"حديث"},{"id":"ft3nkyFDqdo","title":"الرسالة القشيرية المجلس الرابع و الثلاثون (القرب والبعد - الشريعة والحقيقة) د. يسري جبر","publishedAt":"2018-11-01T15:23:43Z","duration":"PT50M33S","thumbnail":"https://i.ytimg.com/vi/ft3nkyFDqdo/mqdefault.jpg","viewCount":"8279","playlistId":"PLEkQk5xrP-tkHAGOwIKr4pc5ehhyQ5HMJ","playlistName":"كتاب الرسالة القشيرية (تصوف) - د. يسري جبر","category":"تصوف"},{"id":"s6hDAUOJO_U","title":"مقرأة سورة غافر من أولها","publishedAt":"2018-11-01T06:43:36Z","duration":"PT20M7S","thumbnail":"https://i.ytimg.com/vi/s6hDAUOJO_U/mqdefault.jpg","viewCount":"1229","playlistId":"PLEkQk5xrP-tnmTYsyW6xNdyfhPq0Bhrhj","playlistName":"مقرأة الفجر - القُرْآنُ الكَرِيمُ - خَتْمَةُ التَّدَبُّرِ  أ.د. يسري جبر","category":"متنوع"},{"id":"rKt-h9tS0Js","title":"شرح صحيح البخاري كتاب الرقاق من باب ٤١","publishedAt":"2018-10-31T12:05:33Z","duration":"PT31M42S","thumbnail":"https://i.ytimg.com/vi/rKt-h9tS0Js/mqdefault.jpg","viewCount":"441","playlistId":"PLEkQk5xrP-tlEerGoLa1AFy-2XvQ-sovv","playlistName":"شرح صحيح البخاري - أ.د. يسري جبر (كاملا)","category":"حديث"},{"id":"004Su5QaV40","title":"مقرأة سورة الزمر من آية ٦٧","publishedAt":"2018-10-30T21:42:46Z","duration":"PT24M14S","thumbnail":"https://i.ytimg.com/vi/004Su5QaV40/mqdefault.jpg","viewCount":"381","playlistId":"PLEkQk5xrP-tnmTYsyW6xNdyfhPq0Bhrhj","playlistName":"مقرأة الفجر - القُرْآنُ الكَرِيمُ - خَتْمَةُ التَّدَبُّرِ  أ.د. يسري جبر","category":"متنوع"},{"id":"etNPJsW_blQ","title":"شرح صحيح الإمام البخاري رضي الله تعالى عنه - ختام كتاب الحِيَل  د. يسري جبر","publishedAt":"2018-10-30T17:29:24Z","duration":"PT35M27S","thumbnail":"https://i.ytimg.com/vi/etNPJsW_blQ/mqdefault.jpg","viewCount":"105","playlistId":"PLEkQk5xrP-tmJuzaj4GWRenFoFx9gdbFX","playlistName":"شرح كتاب صحيح الإمام البخاري رضي الله تعالى عنه   أ.د. يسرى جبر","category":"حديث"},{"id":"0QuXMiUkjQA","title":"شرح كتاب نور اليقين في سيرة سيد المرسلين للشيخ الخضري رحمه الله (المجلس63) د.يسري جبر","publishedAt":"2018-10-30T17:05:37Z","duration":"PT49M14S","thumbnail":"https://i.ytimg.com/vi/0QuXMiUkjQA/mqdefault.jpg","viewCount":"8878","playlistId":"PLEkQk5xrP-tl2t4NQx1IhKnAJCMzF0Nli","playlistName":"شرح كتاب نور اليقين في سيرة سيد المرسلين   د. يسري جبر","category":"سيرة"},{"id":"NUgR9jVoi2M","title":"شرح صحيح البخاري كتاب الرقاق من باب ٣٦","publishedAt":"2018-10-30T09:53:37Z","duration":"PT35M55S","thumbnail":"https://i.ytimg.com/vi/NUgR9jVoi2M/mqdefault.jpg","viewCount":"485","playlistId":"PLEkQk5xrP-tlEerGoLa1AFy-2XvQ-sovv","playlistName":"شرح صحيح البخاري - أ.د. يسري جبر (كاملا)","category":"حديث"},{"id":"3KzEJqSphJY","title":"فوائد الابتلاء د. يسري جبر","publishedAt":"2018-10-29T20:27:01Z","duration":"PT42M54S","thumbnail":"https://i.ytimg.com/vi/3KzEJqSphJY/mqdefault.jpg","viewCount":"16522","playlistId":"PLEkQk5xrP-tlArtGpeLWaqNM7h7IDeAVC","playlistName":"خطب الجمعة أ.د. يسري جبر","category":"خطب"},{"id":"z6iTLPy5004","title":"مقرأة سورة الزمر من آية ٦٠","publishedAt":"2018-10-29T09:37:55Z","duration":"PT13M11S","thumbnail":"https://i.ytimg.com/vi/z6iTLPy5004/mqdefault.jpg","viewCount":"351","playlistId":"PLEkQk5xrP-tnmTYsyW6xNdyfhPq0Bhrhj","playlistName":"مقرأة الفجر - القُرْآنُ الكَرِيمُ - خَتْمَةُ التَّدَبُّرِ  أ.د. يسري جبر","category":"متنوع"},{"id":"nktXsga_24U","title":"شرح صحيح البخاري كتاب الرقاق من باب ٣٠","publishedAt":"2018-10-28T12:45:15Z","duration":"PT37M55S","thumbnail":"https://i.ytimg.com/vi/nktXsga_24U/mqdefault.jpg","viewCount":"565","playlistId":"PLEkQk5xrP-tlEerGoLa1AFy-2XvQ-sovv","playlistName":"شرح صحيح البخاري - أ.د. يسري جبر (كاملا)","category":"حديث"},{"id":"wlKwfcNocoo","title":"شرح صحيح الإمام البخاري رضي الله تعالى عنه - كتاب الحِيَل. د. يسري جبر","publishedAt":"2018-10-27T13:51:41Z","duration":"PT36M","thumbnail":"https://i.ytimg.com/vi/wlKwfcNocoo/mqdefault.jpg","viewCount":"282","playlistId":"PLEkQk5xrP-tmJuzaj4GWRenFoFx9gdbFX","playlistName":"شرح كتاب صحيح الإمام البخاري رضي الله تعالى عنه   أ.د. يسرى جبر","category":"حديث"},{"id":"mH7Asvbi1d8","title":"مقرأة سورة الزمر من آية ٤٩","publishedAt":"2018-10-27T12:28:46Z","duration":"PT10M27S","thumbnail":"https://i.ytimg.com/vi/mH7Asvbi1d8/mqdefault.jpg","viewCount":"351","playlistId":"PLEkQk5xrP-tnmTYsyW6xNdyfhPq0Bhrhj","playlistName":"مقرأة الفجر - القُرْآنُ الكَرِيمُ - خَتْمَةُ التَّدَبُّرِ  أ.د. يسري جبر","category":"متنوع"},{"id":"Wg4qH0L-OeE","title":"81- باب السُّلْفَةِ فِى الْعُرُوضِ ك الموطأ د يسري جبر الأزهري","publishedAt":"2018-10-25T14:21:51Z","duration":"PT49M40S","thumbnail":"https://i.ytimg.com/vi/Wg4qH0L-OeE/mqdefault.jpg","viewCount":"221","playlistId":"PLEkQk5xrP-tnC6BRuqMjyO-484iqXeg0o","playlistName":"شرح كتاب الموطأ للإمام مالك","category":"متنوع"},{"id":"UN1GAwvbTSc","title":"شرح صحيح البخاري كتاب الرقاق من باب ١٩","publishedAt":"2018-10-25T10:00:02Z","duration":"PT32M36S","thumbnail":"https://i.ytimg.com/vi/UN1GAwvbTSc/mqdefault.jpg","viewCount":"566","playlistId":"PLEkQk5xrP-tlEerGoLa1AFy-2XvQ-sovv","playlistName":"شرح صحيح البخاري - أ.د. يسري جبر (كاملا)","category":"حديث"},{"id":"5_JS6ho7JFI","title":"مقرأة سورة الزمر من آية ٤٣","publishedAt":"2018-10-25T00:08:40Z","duration":"PT26M58S","thumbnail":"https://i.ytimg.com/vi/5_JS6ho7JFI/mqdefault.jpg","viewCount":"391","playlistId":"PLEkQk5xrP-tnmTYsyW6xNdyfhPq0Bhrhj","playlistName":"مقرأة الفجر - القُرْآنُ الكَرِيمُ - خَتْمَةُ التَّدَبُّرِ  أ.د. يسري جبر","category":"متنوع"},{"id":"k28OEB-6fd0","title":"شرح صحيح البخاري كتاب الرقاق من باب ١٨","publishedAt":"2018-10-24T11:56:57Z","duration":"PT30M46S","thumbnail":"https://i.ytimg.com/vi/k28OEB-6fd0/mqdefault.jpg","viewCount":"487","playlistId":"PLEkQk5xrP-tlEerGoLa1AFy-2XvQ-sovv","playlistName":"شرح صحيح البخاري - أ.د. يسري جبر (كاملا)","category":"حديث"},{"id":"N7LbI1FJZRQ","title":"مقرأة سورة الزمر من آية ٣٩","publishedAt":"2018-10-23T12:44:21Z","duration":"PT26M35S","thumbnail":"https://i.ytimg.com/vi/N7LbI1FJZRQ/mqdefault.jpg","viewCount":"345","playlistId":"PLEkQk5xrP-tnmTYsyW6xNdyfhPq0Bhrhj","playlistName":"مقرأة الفجر - القُرْآنُ الكَرِيمُ - خَتْمَةُ التَّدَبُّرِ  أ.د. يسري جبر","category":"متنوع"}],"total":7675,"page":198,"pageSize":24,"totalPages":320}