{"items":[{"id":"uZRZREYBpsc","title":"65-  كيف يصلي المريض؟ وكيفية قضاء الصلاة الفائتة | شرح سنن الإمام الدارقطني","publishedAt":"2025-10-18T10:01:36Z","duration":"PT33M58S","thumbnail":"https://i.ytimg.com/vi/uZRZREYBpsc/mqdefault.jpg","viewCount":"601","playlistId":"PLEkQk5xrP-tk_MCBZ706ORCw6gFtFyaGj","playlistName":"شرح سنن الإمام الدارقطني","category":"متنوع"},{"id":"yjvPI50k5do","title":"ما هي صفات الأولياء وما فضل زيارة مقامتهم؟","publishedAt":"2025-10-17T18:34:59Z","duration":"PT21M9S","thumbnail":"https://i.ytimg.com/vi/yjvPI50k5do/mqdefault.jpg","viewCount":"8392","playlistId":"PLEkQk5xrP-tm8ZIu74nTOZN9KJUJu416J","playlistName":"مقاطع مُهمَّة (يُسريَّات) أ.د. يسري جبر","category":"متنوع"},{"id":"Ru-QUaf9J3k","title":"306- مبهمات الجموع الذين عرفت أسماء بعضهم - شرح الإتقان في علوم القرآن","publishedAt":"2025-10-17T09:00:50Z","duration":"PT14M14S","thumbnail":"https://i.ytimg.com/vi/Ru-QUaf9J3k/mqdefault.jpg","viewCount":"323","playlistId":"PLEkQk5xrP-tlPw10KGJKagu7zm4Ry2Tge","playlistName":"شرح الإتقان في علوم القرآن","category":"تفسير"},{"id":"SRHCgzLohGc","title":"كيف أتخلص من الأرق المستمر ومشاكل النوم؟","publishedAt":"2025-10-16T17:30:07Z","duration":"PT8M1S","thumbnail":"https://i.ytimg.com/vi/SRHCgzLohGc/mqdefault.jpg","viewCount":"1908","playlistId":"PLEkQk5xrP-tkGXuZ9atE3k_7it12rUPTs","playlistName":"أسئلة المتابعين","category":"متنوع"},{"id":"xlJTUnVYBLM","title":"174- ما معنى الركاز؟ | كيفية التصرف في الكنز المدفون - شرح مسند الإمام أحمد رضي الله عنه","publishedAt":"2025-10-16T09:01:35Z","duration":"PT35M33S","thumbnail":"https://i.ytimg.com/vi/xlJTUnVYBLM/mqdefault.jpg","viewCount":"607","playlistId":"PLEkQk5xrP-tkKprIuGrSdEuBSMsyg5We1","playlistName":"شرح مسند الإمام أحمد بن حنبل","category":"متنوع"},{"id":"-KRpcDGP1-w","title":"لماذا لا نشعر بالقرب من الله رغم كثرة الطاعات؟","publishedAt":"2025-10-15T19:00:00Z","duration":"PT11M24S","thumbnail":"https://i.ytimg.com/vi/-KRpcDGP1-w/mqdefault.jpg","viewCount":"2590","playlistId":"PLEkQk5xrP-tlArtGpeLWaqNM7h7IDeAVC","playlistName":"خطب الجمعة أ.د. يسري جبر","category":"خطب"},{"id":"H_f1SuulmcY","title":"305- المبهم من أسماء الأعلام في الآيات القرآنية - شرح الإتقان في علوم القرآن","publishedAt":"2025-10-15T09:00:23Z","duration":"PT26M21S","thumbnail":"https://i.ytimg.com/vi/H_f1SuulmcY/mqdefault.jpg","viewCount":"427","playlistId":"PLEkQk5xrP-tlPw10KGJKagu7zm4Ry2Tge","playlistName":"شرح الإتقان في علوم القرآن","category":"تفسير"},{"id":"MkaN6E3YLGU","title":"لماذا تنازل سيدنا الحسن عن الخلافة لمعاوية؟ | القصة الكاملة","publishedAt":"2025-10-14T18:39:27Z","duration":"PT10M47S","thumbnail":"https://i.ytimg.com/vi/MkaN6E3YLGU/mqdefault.jpg","viewCount":"9609","playlistId":"PLEkQk5xrP-tlArtGpeLWaqNM7h7IDeAVC","playlistName":"خطب الجمعة أ.د. يسري جبر","category":"خطب"},{"id":"VRfMC2ycBvE","title":"173- بشرى لأصحاب الأمراض المزمنة - شرح مسند الإمام أحمد رضي الله تعالى عنه","publishedAt":"2025-10-14T04:30:21Z","duration":"PT27M54S","thumbnail":"https://i.ytimg.com/vi/VRfMC2ycBvE/mqdefault.jpg","viewCount":"1153","playlistId":"PLEkQk5xrP-tkKprIuGrSdEuBSMsyg5We1","playlistName":"شرح مسند الإمام أحمد بن حنبل","category":"متنوع"},{"id":"cbj3zyCs5oU","title":"ازاي يكون عندي يقين بالله؟ | خطوات بسيطة توصلك لليقين بالله","publishedAt":"2025-10-13T18:00:15Z","duration":"PT11M39S","thumbnail":"https://i.ytimg.com/vi/cbj3zyCs5oU/mqdefault.jpg","viewCount":"4926","playlistId":"PLEkQk5xrP-tlArtGpeLWaqNM7h7IDeAVC","playlistName":"خطب الجمعة أ.د. يسري جبر","category":"خطب"},{"id":"KSKt7LB9vnI","title":"304- المبهمات في القرآن - شرح الإتقان في علوم القرآن","publishedAt":"2025-10-13T05:07:30Z","duration":"PT24M17S","thumbnail":"https://i.ytimg.com/vi/KSKt7LB9vnI/mqdefault.jpg","viewCount":"450","playlistId":"PLEkQk5xrP-tlPw10KGJKagu7zm4Ry2Tge","playlistName":"شرح الإتقان في علوم القرآن","category":"تفسير"},{"id":"pMmPsU62wgQ","title":"هل نحتاج واسطة لنصل إلى الله؟","publishedAt":"2025-10-12T18:15:04Z","duration":"PT12M21S","thumbnail":"https://i.ytimg.com/vi/pMmPsU62wgQ/mqdefault.jpg","viewCount":"3184","playlistId":"PLEkQk5xrP-tlArtGpeLWaqNM7h7IDeAVC","playlistName":"خطب الجمعة أ.د. يسري جبر","category":"خطب"},{"id":"15JMEdPFHVU","title":"172- حكم سفر المرأة للدراسة بغير محرم - شرح مسند الإمام أحمد رضي الله تعالى عنه","publishedAt":"2025-10-12T04:30:04Z","duration":"PT27M52S","thumbnail":"https://i.ytimg.com/vi/15JMEdPFHVU/mqdefault.jpg","viewCount":"786","playlistId":"PLEkQk5xrP-tkKprIuGrSdEuBSMsyg5We1","playlistName":"شرح مسند الإمام أحمد بن حنبل","category":"متنوع"},{"id":"G3yZ2fiLA8o","title":"هل يوجد عمل ينجيك من دخول النار؟ الجواب الذي غاب عن كثيرين!","publishedAt":"2025-10-11T18:10:18Z","duration":"PT20M32S","thumbnail":"https://i.ytimg.com/vi/G3yZ2fiLA8o/mqdefault.jpg","viewCount":"3087","playlistId":"PLEkQk5xrP-tlArtGpeLWaqNM7h7IDeAVC","playlistName":"خطب الجمعة أ.د. يسري جبر","category":"خطب"},{"id":"0gWozUYF6uw","title":"أسرار ومعاني حول روحانية النبي ﷺ","publishedAt":"2025-10-10T19:48:36Z","duration":"PT16M35S","thumbnail":"https://i.ytimg.com/vi/0gWozUYF6uw/mqdefault.jpg","viewCount":"1677","playlistId":"PLEkQk5xrP-tlArtGpeLWaqNM7h7IDeAVC","playlistName":"خطب الجمعة أ.د. يسري جبر","category":"خطب"},{"id":"vjlN0NsF6t0","title":"ما هو سبب المشاكل بين الزوجين؟ وكيف تعيش حياة سعيدة مع أولادك؟","publishedAt":"2025-10-09T17:41:00Z","duration":"PT11M58S","thumbnail":"https://i.ytimg.com/vi/vjlN0NsF6t0/mqdefault.jpg","viewCount":"1503","playlistId":"PLEkQk5xrP-tm8ZIu74nTOZN9KJUJu416J","playlistName":"مقاطع مُهمَّة (يُسريَّات) أ.د. يسري جبر","category":"متنوع"},{"id":"RvL1maGsP1s","title":"303- أسباب الإبهام في القرآن - شرح الإتقان في علوم القرآن","publishedAt":"2025-10-09T09:00:47Z","duration":"PT25M37S","thumbnail":"https://i.ytimg.com/vi/RvL1maGsP1s/mqdefault.jpg","viewCount":"248","playlistId":"PLEkQk5xrP-tlPw10KGJKagu7zm4Ry2Tge","playlistName":"شرح الإتقان في علوم القرآن","category":"تفسير"},{"id":"e2OuWp8709U","title":"كيف تحمي نفسك من فتنة المسيح الدجال؟","publishedAt":"2025-10-08T17:01:01Z","duration":"PT11M17S","thumbnail":"https://i.ytimg.com/vi/e2OuWp8709U/mqdefault.jpg","viewCount":"1905","playlistId":"PLEkQk5xrP-tlArtGpeLWaqNM7h7IDeAVC","playlistName":"خطب الجمعة أ.د. يسري جبر","category":"خطب"},{"id":"Ok25C2myFzk","title":"معنى التصوف ومن هو الصوفي؟","publishedAt":"2025-10-07T17:00:35Z","duration":"PT16M38S","thumbnail":"https://i.ytimg.com/vi/Ok25C2myFzk/mqdefault.jpg","viewCount":"2417","playlistId":"PLEkQk5xrP-tlArtGpeLWaqNM7h7IDeAVC","playlistName":"خطب الجمعة أ.د. يسري جبر","category":"خطب"},{"id":"hwuNKz9YNYQ","title":"كيف تنظم وقتك بطريقة نبوية؟ | أفضل نظام لإدارة الوقت","publishedAt":"2025-10-06T17:55:25Z","duration":"PT11M22S","thumbnail":"https://i.ytimg.com/vi/hwuNKz9YNYQ/mqdefault.jpg","viewCount":"4555","playlistId":"PLEkQk5xrP-tlArtGpeLWaqNM7h7IDeAVC","playlistName":"خطب الجمعة أ.د. يسري جبر","category":"خطب"},{"id":"dSRxVX5KQIk","title":"كيف تشكر الله على نعمه وتحافظ عليها؟","publishedAt":"2025-10-05T19:15:41Z","duration":"PT16M17S","thumbnail":"https://i.ytimg.com/vi/dSRxVX5KQIk/mqdefault.jpg","viewCount":"1702","playlistId":"PLEkQk5xrP-tlArtGpeLWaqNM7h7IDeAVC","playlistName":"خطب الجمعة أ.د. يسري جبر","category":"خطب"},{"id":"1bKFmHd5288","title":"‫كيف ترضى بقضاء الله وقدره؟","publishedAt":"2025-10-04T18:20:22Z","duration":"PT11M6S","thumbnail":"https://i.ytimg.com/vi/1bKFmHd5288/mqdefault.jpg","viewCount":"1938","playlistId":"PLEkQk5xrP-tlArtGpeLWaqNM7h7IDeAVC","playlistName":"خطب الجمعة أ.د. يسري جبر","category":"خطب"},{"id":"gKZYc3GWVJA","title":"ما حكم الكلام أثناء خطبة الجمعة؟","publishedAt":"2025-10-03T18:00:31Z","duration":"PT11M33S","thumbnail":"https://i.ytimg.com/vi/gKZYc3GWVJA/mqdefault.jpg","viewCount":"947","playlistId":"PLEkQk5xrP-tkGXuZ9atE3k_7it12rUPTs","playlistName":"أسئلة المتابعين","category":"متنوع"},{"id":"mz66IJ65Ymw","title":"كيف تختار صديقك؟ | معايير اختيار الأصدقاء","publishedAt":"2025-10-02T17:44:39Z","duration":"PT13M51S","thumbnail":"https://i.ytimg.com/vi/mz66IJ65Ymw/mqdefault.jpg","viewCount":"1362","playlistId":"PLEkQk5xrP-tlArtGpeLWaqNM7h7IDeAVC","playlistName":"خطب الجمعة أ.د. يسري جبر","category":"خطب"}],"total":7675,"page":4,"pageSize":24,"totalPages":320}