{"items":[{"id":"1kek6EQrkJc","title":"الناس تائهون عن الحق بالعقل","publishedAt":"2021-12-11T17:30:00Z","duration":"PT45M47S","thumbnail":"https://i.ytimg.com/vi/1kek6EQrkJc/mqdefault.jpg","viewCount":"7055","playlistId":"PLEkQk5xrP-tlArtGpeLWaqNM7h7IDeAVC","playlistName":"خطب الجمعة أ.د. يسري جبر","category":"خطب"},{"id":"dE7p0KCLW7o","title":"وضعُ جَمْع القِلَّة موضع الكَثرة - شرح البرهان في علوم القرآن","publishedAt":"2021-12-11T07:10:36Z","duration":"PT24M49S","thumbnail":"https://i.ytimg.com/vi/dE7p0KCLW7o/mqdefault.jpg","viewCount":"653","playlistId":"PLEkQk5xrP-tnW3iBL7HkKziOFCFZbTlf0","playlistName":"شرح البرهان في علوم القرآن - أ.د. يسري جبر","category":"تفسير"},{"id":"dL_1iG8cl4k","title":"الرسالة القشيرية - المجلس (102) بَابُ الشوق | أ.د. يسري جبر","publishedAt":"2021-12-10T19:46:30Z","duration":"PT53M58S","thumbnail":"https://i.ytimg.com/vi/dL_1iG8cl4k/mqdefault.jpg","viewCount":"12130","playlistId":"PLEkQk5xrP-tkHAGOwIKr4pc5ehhyQ5HMJ","playlistName":"كتاب الرسالة القشيرية (تصوف) - د. يسري جبر","category":"تصوف"},{"id":"oUQ1_Ti8NDY","title":"وضع النداء موضع التعجّب - شرح البرهان في علوم القرآن","publishedAt":"2021-12-09T21:19:19Z","duration":"PT8M34S","thumbnail":"https://i.ytimg.com/vi/oUQ1_Ti8NDY/mqdefault.jpg","viewCount":"613","playlistId":"PLEkQk5xrP-tnW3iBL7HkKziOFCFZbTlf0","playlistName":"شرح البرهان في علوم القرآن - أ.د. يسري جبر","category":"تفسير"},{"id":"ga_FuqR4s-c","title":"وضعُ الطلب موضع الخبر  - شرح البرهان في علوم القرآن","publishedAt":"2021-12-09T06:02:30Z","duration":"PT28M6S","thumbnail":"https://i.ytimg.com/vi/ga_FuqR4s-c/mqdefault.jpg","viewCount":"681","playlistId":"PLEkQk5xrP-tnW3iBL7HkKziOFCFZbTlf0","playlistName":"شرح البرهان في علوم القرآن - أ.د. يسري جبر","category":"تفسير"},{"id":"gpFMv41opr4","title":"166- \"سَبْعَةٌ يُظِلُّهُمُ اللَّهُ في ظِلِّهِ، يَومَ لا ظِلَّ إِلَّا ظِلُّهُ…\" - شرح دليل الفالحين","publishedAt":"2021-12-08T20:39:37Z","duration":"PT44M48S","thumbnail":"https://i.ytimg.com/vi/gpFMv41opr4/mqdefault.jpg","viewCount":"1291","playlistId":"PLEkQk5xrP-tkc9DXvSLguqX5-FYp6ASR4","playlistName":"دليل الفالحين لطرق رياض الصالحين","category":"متنوع"},{"id":"_qy5rsOD0Wg","title":"165- الحُبُّ في الله والحَثُّ عليه - شرح دليل الفالحين","publishedAt":"2021-12-08T06:46:29Z","duration":"PT28M57S","thumbnail":"https://i.ytimg.com/vi/_qy5rsOD0Wg/mqdefault.jpg","viewCount":"1346","playlistId":"PLEkQk5xrP-tkc9DXvSLguqX5-FYp6ASR4","playlistName":"دليل الفالحين لطرق رياض الصالحين","category":"متنوع"},{"id":"S6Iw7WYVx2Q","title":"كم تكون نفقة الزوجة بعد الطلاق؟","publishedAt":"2021-12-07T18:48:43Z","duration":"PT8M1S","thumbnail":"https://i.ytimg.com/vi/S6Iw7WYVx2Q/mqdefault.jpg","viewCount":"12403","playlistId":"PLEkQk5xrP-tm8ZIu74nTOZN9KJUJu416J","playlistName":"مقاطع مُهمَّة (يُسريَّات) أ.د. يسري جبر","category":"متنوع"},{"id":"tAKb31kL62g","title":"وضعُ الخبر موضع الطلب في الأمر والنهي - شرح البرهان في علوم القرآن","publishedAt":"2021-12-07T06:32:18Z","duration":"PT30M9S","thumbnail":"https://i.ytimg.com/vi/tAKb31kL62g/mqdefault.jpg","viewCount":"846","playlistId":"PLEkQk5xrP-tnW3iBL7HkKziOFCFZbTlf0","playlistName":"شرح البرهان في علوم القرآن - أ.د. يسري جبر","category":"تفسير"},{"id":"-spUMEnoxm0","title":"164-  \"…لاَ تَنْسَنَا يَا أُخَيَّ مِنْ دُعَائِكَ…\" - شرح دليل الفالحين","publishedAt":"2021-12-06T19:58:09Z","duration":"PT22M9S","thumbnail":"https://i.ytimg.com/vi/-spUMEnoxm0/mqdefault.jpg","viewCount":"1015","playlistId":"PLEkQk5xrP-tkc9DXvSLguqX5-FYp6ASR4","playlistName":"دليل الفالحين لطرق رياض الصالحين","category":"متنوع"},{"id":"TXswahghWeQ","title":"التضمين: تنبيهات - شرح البرهان في علوم القرآن","publishedAt":"2021-12-06T06:34:51Z","duration":"PT35M16S","thumbnail":"https://i.ytimg.com/vi/TXswahghWeQ/mqdefault.jpg","viewCount":"680","playlistId":"PLEkQk5xrP-tnW3iBL7HkKziOFCFZbTlf0","playlistName":"شرح البرهان في علوم القرآن - أ.د. يسري جبر","category":"تفسير"},{"id":"47TxVnmEEAg","title":"ما أهمية الأذكار الصوفية والرد على من ينكرها؟","publishedAt":"2021-12-05T18:45:53Z","duration":"PT14M41S","thumbnail":"https://i.ytimg.com/vi/47TxVnmEEAg/mqdefault.jpg","viewCount":"28529","playlistId":"PLEkQk5xrP-tm8ZIu74nTOZN9KJUJu416J","playlistName":"مقاطع مُهمَّة (يُسريَّات) أ.د. يسري جبر","category":"متنوع"},{"id":"OOC84Do31RM","title":"163-\"…يَأْتي علَيْكُم أُوَيْسُ بنُ عَامِرٍ مع أَمْدَادِ أَهْلِ اليَمَنِ…\" - شرح دليل الفالحين","publishedAt":"2021-12-05T06:54:44Z","duration":"PT40M8S","thumbnail":"https://i.ytimg.com/vi/OOC84Do31RM/mqdefault.jpg","viewCount":"2035","playlistId":"PLEkQk5xrP-tkc9DXvSLguqX5-FYp6ASR4","playlistName":"دليل الفالحين لطرق رياض الصالحين","category":"متنوع"},{"id":"0HmHl1_GvyE","title":"كيف أسامح من ظلمني؟","publishedAt":"2021-12-04T18:56:16Z","duration":"PT8M35S","thumbnail":"https://i.ytimg.com/vi/0HmHl1_GvyE/mqdefault.jpg","viewCount":"5465","playlistId":"PLEkQk5xrP-tkGXuZ9atE3k_7it12rUPTs","playlistName":"أسئلة المتابعين","category":"متنوع"},{"id":"D00bifiICAY","title":"الأسلوب الثالث عشر: التضمين - شرح البرهان في علوم القرآن","publishedAt":"2021-12-04T06:46:11Z","duration":"PT45M41S","thumbnail":"https://i.ytimg.com/vi/D00bifiICAY/mqdefault.jpg","viewCount":"588","playlistId":"PLEkQk5xrP-tnW3iBL7HkKziOFCFZbTlf0","playlistName":"شرح البرهان في علوم القرآن - أ.د. يسري جبر","category":"تفسير"},{"id":"3EUuj_xrTi8","title":"162- \"…أنتَ مع مَن أَحببتَ\" شرح دليل الفالحين","publishedAt":"2021-12-03T20:14:34Z","duration":"PT19M15S","thumbnail":"https://i.ytimg.com/vi/3EUuj_xrTi8/mqdefault.jpg","viewCount":"1437","playlistId":"PLEkQk5xrP-tkc9DXvSLguqX5-FYp6ASR4","playlistName":"دليل الفالحين لطرق رياض الصالحين","category":"متنوع"},{"id":"itPmGHa8GU0","title":"الالتفات: البحث الخامس: نقل الكلام إلى غيره - شرح البرهان في علوم القرآن","publishedAt":"2021-12-03T07:00:36Z","duration":"PT32M14S","thumbnail":"https://i.ytimg.com/vi/itPmGHa8GU0/mqdefault.jpg","viewCount":"702","playlistId":"PLEkQk5xrP-tnW3iBL7HkKziOFCFZbTlf0","playlistName":"شرح البرهان في علوم القرآن - أ.د. يسري جبر","category":"تفسير"},{"id":"dzkwSjkfjmk","title":"الرسالة القشيرية - المجلس (101) بَابُ المحبة ٤ | أ.د. يسري جبر","publishedAt":"2021-12-02T19:00:08Z","duration":"PT40M54S","thumbnail":"https://i.ytimg.com/vi/dzkwSjkfjmk/mqdefault.jpg","viewCount":"7363","playlistId":"PLEkQk5xrP-tkHAGOwIKr4pc5ehhyQ5HMJ","playlistName":"كتاب الرسالة القشيرية (تصوف) - د. يسري جبر","category":"تصوف"},{"id":"PDTbWiOrBMU","title":"161- \"تُنْكَحُ الْمَرْأَةُ لِأَرْبَعٍ  …\" - شرح دليل الفالحين","publishedAt":"2021-12-01T22:40:15Z","duration":"PT33M45S","thumbnail":"https://i.ytimg.com/vi/PDTbWiOrBMU/mqdefault.jpg","viewCount":"1753","playlistId":"PLEkQk5xrP-tkc9DXvSLguqX5-FYp6ASR4","playlistName":"دليل الفالحين لطرق رياض الصالحين","category":"متنوع"},{"id":"8nsVHJJbQGg","title":"البحث الرابع: شرط الالتفات - شرح البرهان في علوم القرآن","publishedAt":"2021-12-01T06:45:33Z","duration":"PT15M15S","thumbnail":"https://i.ytimg.com/vi/8nsVHJJbQGg/mqdefault.jpg","viewCount":"617","playlistId":"PLEkQk5xrP-tnW3iBL7HkKziOFCFZbTlf0","playlistName":"شرح البرهان في علوم القرآن - أ.د. يسري جبر","category":"تفسير"},{"id":"cC99eXFhL_0","title":"الرد على بعض شُبهات ابن تيمية","publishedAt":"2021-11-30T15:47:32Z","duration":"PT15M54S","thumbnail":"https://i.ytimg.com/vi/cC99eXFhL_0/mqdefault.jpg","viewCount":"20729","playlistId":"PLEkQk5xrP-tlArtGpeLWaqNM7h7IDeAVC","playlistName":"خطب الجمعة أ.د. يسري جبر","category":"خطب"},{"id":"2EZcAsRBNKE","title":"160- الحُبُّ في الله  - شرح دليل الفالحين","publishedAt":"2021-11-30T06:44:59Z","duration":"PT46M18S","thumbnail":"https://i.ytimg.com/vi/2EZcAsRBNKE/mqdefault.jpg","viewCount":"1211","playlistId":"PLEkQk5xrP-tkc9DXvSLguqX5-FYp6ASR4","playlistName":"دليل الفالحين لطرق رياض الصالحين","category":"متنوع"},{"id":"ePWz15Pqg3U","title":"ذكرى ميلاد سيدنا الحسين -رضي الله عنه- وقصة استشهاده","publishedAt":"2021-11-29T18:47:21Z","duration":"PT16M47S","thumbnail":"https://i.ytimg.com/vi/ePWz15Pqg3U/mqdefault.jpg","viewCount":"9029","playlistId":"PLEkQk5xrP-tlArtGpeLWaqNM7h7IDeAVC","playlistName":"خطب الجمعة أ.د. يسري جبر","category":"خطب"},{"id":"7S4-4RtsFIk","title":"أسباب الالتفات: السبب الثالث - شرح البرهان في علوم القرآن","publishedAt":"2021-11-29T06:55:14Z","duration":"PT12M23S","thumbnail":"https://i.ytimg.com/vi/7S4-4RtsFIk/mqdefault.jpg","viewCount":"578","playlistId":"PLEkQk5xrP-tnW3iBL7HkKziOFCFZbTlf0","playlistName":"شرح البرهان في علوم القرآن - أ.د. يسري جبر","category":"تفسير"}],"total":7675,"page":104,"pageSize":24,"totalPages":320}