{"items":[{"id":"QcWx6hn7EFo","title":"أنا مقبل على الزواج ,, كيف أعالج قسوة طباعي؟","publishedAt":"2022-12-10T18:00:14Z","duration":"PT9M42S","thumbnail":"https://i.ytimg.com/vi/QcWx6hn7EFo/mqdefault.jpg","viewCount":"7225","playlistId":"PLEkQk5xrP-tkGXuZ9atE3k_7it12rUPTs","playlistName":"أسئلة المتابعين","category":"متنوع"},{"id":"KdTabLB6Wsc","title":"657- فضل قيام الليل - شرح دليل الفالحين","publishedAt":"2022-12-10T09:00:08Z","duration":"PT48M","thumbnail":"https://i.ytimg.com/vi/KdTabLB6Wsc/mqdefault.jpg","viewCount":"2641","playlistId":"PLEkQk5xrP-tkc9DXvSLguqX5-FYp6ASR4","playlistName":"دليل الفالحين لطرق رياض الصالحين","category":"متنوع"},{"id":"3xCu8wPbjVs","title":"617- (لَيْسَ - لَدُنْ) - شرح البرهان في علوم القرآن","publishedAt":"2022-12-10T05:00:02Z","duration":"PT18M54S","thumbnail":"https://i.ytimg.com/vi/3xCu8wPbjVs/mqdefault.jpg","viewCount":"347","playlistId":"PLEkQk5xrP-tnW3iBL7HkKziOFCFZbTlf0","playlistName":"شرح البرهان في علوم القرآن - أ.د. يسري جبر","category":"تفسير"},{"id":"pGZl5W9kSMA","title":"ما الفرق بين الافتقار إلى الله والغنى بالله؟","publishedAt":"2022-12-09T18:00:20Z","duration":"PT14M32S","thumbnail":"https://i.ytimg.com/vi/pGZl5W9kSMA/mqdefault.jpg","viewCount":"3569","playlistId":"PLEkQk5xrP-tlArtGpeLWaqNM7h7IDeAVC","playlistName":"خطب الجمعة أ.د. يسري جبر","category":"خطب"},{"id":"l5EizyX18D4","title":"356- استحباب سجود الشكر عند حدوث نعمة ظاهرة أو اندفاع بلية ظاهرة - شرح دليل الفالحين","publishedAt":"2022-12-09T09:00:23Z","duration":"PT20M7S","thumbnail":"https://i.ytimg.com/vi/l5EizyX18D4/mqdefault.jpg","viewCount":"909","playlistId":"PLEkQk5xrP-tkc9DXvSLguqX5-FYp6ASR4","playlistName":"دليل الفالحين لطرق رياض الصالحين","category":"متنوع"},{"id":"uJ_NQAAhnr0","title":"616- حرف (لَعَلَّ) - شرح البرهان في علوم القرآن","publishedAt":"2022-12-09T05:00:17Z","duration":"PT30M28S","thumbnail":"https://i.ytimg.com/vi/uJ_NQAAhnr0/mqdefault.jpg","viewCount":"272","playlistId":"PLEkQk5xrP-tnW3iBL7HkKziOFCFZbTlf0","playlistName":"شرح البرهان في علوم القرآن - أ.د. يسري جبر","category":"تفسير"},{"id":"6lBrRrSX8O0","title":"كيف تشكر نعم الله عليك؟","publishedAt":"2022-12-08T18:00:06Z","duration":"PT14M8S","thumbnail":"https://i.ytimg.com/vi/6lBrRrSX8O0/mqdefault.jpg","viewCount":"5351","playlistId":"PLEkQk5xrP-tlArtGpeLWaqNM7h7IDeAVC","playlistName":"خطب الجمعة أ.د. يسري جبر","category":"خطب"},{"id":"FtYYqopfTzk","title":"355- فضل التبكير إلى صلاة الجمعة وساعة الإجابة فيها - شرح دليل الفالحين","publishedAt":"2022-12-08T09:00:05Z","duration":"PT38M28S","thumbnail":"https://i.ytimg.com/vi/FtYYqopfTzk/mqdefault.jpg","viewCount":"732","playlistId":"PLEkQk5xrP-tkc9DXvSLguqX5-FYp6ASR4","playlistName":"دليل الفالحين لطرق رياض الصالحين","category":"متنوع"},{"id":"_sN9rB8RWdA","title":"615- حرف (لَكن - لَكنَّ) - شرح البرهان في علوم القرآن","publishedAt":"2022-12-08T05:00:11Z","duration":"PT28M35S","thumbnail":"https://i.ytimg.com/vi/_sN9rB8RWdA/mqdefault.jpg","viewCount":"359","playlistId":"PLEkQk5xrP-tnW3iBL7HkKziOFCFZbTlf0","playlistName":"شرح البرهان في علوم القرآن - أ.د. يسري جبر","category":"تفسير"},{"id":"EmV3I5kk4CE","title":"شرح منازل السائرين - المجلس (17) باب الحزن | أ.د. يسري جبر","publishedAt":"2022-12-07T18:00:07Z","duration":"PT43M4S","thumbnail":"https://i.ytimg.com/vi/EmV3I5kk4CE/mqdefault.jpg","viewCount":"8738","playlistId":"PLEkQk5xrP-tmiUfQ-2Tsn7QIak4EsvaZW","playlistName":"كتاب التيسير المعين بشرح معاني منازل السائرين (تصوف) - د.يسري جبر","category":"تصوف"},{"id":"AFV3vtHciQo","title":"354- فضل يوم الجمعة والصلاة على النبي ﷺ فيه - شرح دليل الفالحين","publishedAt":"2022-12-07T09:00:03Z","duration":"PT40M1S","thumbnail":"https://i.ytimg.com/vi/AFV3vtHciQo/mqdefault.jpg","viewCount":"1315","playlistId":"PLEkQk5xrP-tkc9DXvSLguqX5-FYp6ASR4","playlistName":"دليل الفالحين لطرق رياض الصالحين","category":"متنوع"},{"id":"Gb1xEY7_ooc","title":"614- حرف (لَمَا) - شرح البرهان في علوم القرآن","publishedAt":"2022-12-07T05:00:05Z","duration":"PT19M52S","thumbnail":"https://i.ytimg.com/vi/Gb1xEY7_ooc/mqdefault.jpg","viewCount":"407","playlistId":"PLEkQk5xrP-tnW3iBL7HkKziOFCFZbTlf0","playlistName":"شرح البرهان في علوم القرآن - أ.د. يسري جبر","category":"تفسير"},{"id":"yxyCWEVP1gQ","title":"لطائف ومعاني حول الشهادتين","publishedAt":"2022-12-06T18:00:30Z","duration":"PT16M33S","thumbnail":"https://i.ytimg.com/vi/yxyCWEVP1gQ/mqdefault.jpg","viewCount":"2538","playlistId":"PLEkQk5xrP-tlArtGpeLWaqNM7h7IDeAVC","playlistName":"خطب الجمعة أ.د. يسري جبر","category":"خطب"},{"id":"eESdrwgWEdQ","title":"535- الحث على صلاة تحية المسجد ركعتين وكراهة الجلوس قبل أن يصلي ركعتين في أي وقت دخل","publishedAt":"2022-12-06T09:05:00Z","duration":"PT29M55S","thumbnail":"https://i.ytimg.com/vi/eESdrwgWEdQ/mqdefault.jpg","viewCount":"900","playlistId":"PLEkQk5xrP-tkc9DXvSLguqX5-FYp6ASR4","playlistName":"دليل الفالحين لطرق رياض الصالحين","category":"متنوع"},{"id":"KRqcihzf5Ko","title":"613- حرف (لمَّا) - شرح البرهان في علوم القرآن","publishedAt":"2022-12-06T05:00:05Z","duration":"PT30M38S","thumbnail":"https://i.ytimg.com/vi/KRqcihzf5Ko/mqdefault.jpg","viewCount":"354","playlistId":"PLEkQk5xrP-tnW3iBL7HkKziOFCFZbTlf0","playlistName":"شرح البرهان في علوم القرآن - أ.د. يسري جبر","category":"تفسير"},{"id":"PtSLowwEx7s","title":"كيف تتخلق بأخلاق النبي ﷺ؟","publishedAt":"2022-12-05T18:00:09Z","duration":"PT17M19S","thumbnail":"https://i.ytimg.com/vi/PtSLowwEx7s/mqdefault.jpg","viewCount":"3626","playlistId":"PLEkQk5xrP-tlArtGpeLWaqNM7h7IDeAVC","playlistName":"خطب الجمعة أ.د. يسري جبر","category":"خطب"},{"id":"OTAm7FrAOrk","title":"352- فضل صلاة الضحى وبيان أقلها وأكثرها وأوسطها والحث على المحافظة عليها - شرح دليل الفالحين","publishedAt":"2022-12-05T09:00:18Z","duration":"PT40M58S","thumbnail":"https://i.ytimg.com/vi/OTAm7FrAOrk/mqdefault.jpg","viewCount":"1629","playlistId":"PLEkQk5xrP-tkc9DXvSLguqX5-FYp6ASR4","playlistName":"دليل الفالحين لطرق رياض الصالحين","category":"متنوع"},{"id":"d-bJOM6os7Q","title":"612- حرف (لوما) - شرح البرهان في علوم القرآن","publishedAt":"2022-12-05T05:00:11Z","duration":"PT19M37S","thumbnail":"https://i.ytimg.com/vi/d-bJOM6os7Q/mqdefault.jpg","viewCount":"368","playlistId":"PLEkQk5xrP-tnW3iBL7HkKziOFCFZbTlf0","playlistName":"شرح البرهان في علوم القرآن - أ.د. يسري جبر","category":"تفسير"},{"id":"rOeSsJpxGjA","title":"كيف أفنى في شيخي وأجعله قدوتي؟","publishedAt":"2022-12-04T18:00:27Z","duration":"PT8M4S","thumbnail":"https://i.ytimg.com/vi/rOeSsJpxGjA/mqdefault.jpg","viewCount":"5708","playlistId":"PLEkQk5xrP-tkGXuZ9atE3k_7it12rUPTs","playlistName":"أسئلة المتابعين","category":"متنوع"},{"id":"3bdL4EeDuNM","title":"351- الحث على صلاة الوتر  وبيان أنه سنة مؤكدة وبيان وقته - شرح دليل الفالحين","publishedAt":"2022-12-04T09:00:03Z","duration":"PT24M23S","thumbnail":"https://i.ytimg.com/vi/3bdL4EeDuNM/mqdefault.jpg","viewCount":"982","playlistId":"PLEkQk5xrP-tkc9DXvSLguqX5-FYp6ASR4","playlistName":"دليل الفالحين لطرق رياض الصالحين","category":"متنوع"},{"id":"NaFQxHveOCI","title":"611- حرف (لولا) - شرح البرهان في علوم القرآن","publishedAt":"2022-12-04T05:00:14Z","duration":"PT23M30S","thumbnail":"https://i.ytimg.com/vi/NaFQxHveOCI/mqdefault.jpg","viewCount":"279","playlistId":"PLEkQk5xrP-tnW3iBL7HkKziOFCFZbTlf0","playlistName":"شرح البرهان في علوم القرآن - أ.د. يسري جبر","category":"تفسير"},{"id":"gEKUusEOArw","title":"هل يجوز استخدام السحر في عمل الخير؟","publishedAt":"2022-12-03T18:00:13Z","duration":"PT8M1S","thumbnail":"https://i.ytimg.com/vi/gEKUusEOArw/mqdefault.jpg","viewCount":"11211","playlistId":"PLEkQk5xrP-tkGXuZ9atE3k_7it12rUPTs","playlistName":"أسئلة المتابعين","category":"متنوع"},{"id":"vQNvlRldN1s","title":"624- قوله تعالى\"قُلْ فَأْتُوا بِالتَّوْرَاةِ فَاتْلُوهَا\" - ختام شرح صحيح الإمام البخاري","publishedAt":"2022-12-03T09:00:22Z","duration":"PT1H8M39S","thumbnail":"https://i.ytimg.com/vi/vQNvlRldN1s/mqdefault.jpg","viewCount":"1143","playlistId":"PLEkQk5xrP-tmJuzaj4GWRenFoFx9gdbFX","playlistName":"شرح كتاب صحيح الإمام البخاري رضي الله تعالى عنه   أ.د. يسرى جبر","category":"حديث"},{"id":"TXIWLRJuHh0","title":"610- (لو) المصدرية - شرح البرهان في علوم القرآن","publishedAt":"2022-12-03T05:00:09Z","duration":"PT14M25S","thumbnail":"https://i.ytimg.com/vi/TXIWLRJuHh0/mqdefault.jpg","viewCount":"301","playlistId":"PLEkQk5xrP-tnW3iBL7HkKziOFCFZbTlf0","playlistName":"شرح البرهان في علوم القرآن - أ.د. يسري جبر","category":"تفسير"}],"total":7675,"page":71,"pageSize":24,"totalPages":320}