{"items":[{"id":"PAQMfoGACnI","title":"شرح كتاب نوراليقين في سيرة سيد المرسلين - المجلس الثاني عشر(هجرة الطائف) د.يسري جبر","publishedAt":"2017-05-27T12:49:54Z","duration":"PT58M51S","thumbnail":"https://i.ytimg.com/vi/PAQMfoGACnI/mqdefault.jpg","viewCount":"31236","playlistId":"PLEkQk5xrP-tl2t4NQx1IhKnAJCMzF0Nli","playlistName":"شرح كتاب نور اليقين في سيرة سيد المرسلين   د. يسري جبر","category":"سيرة"},{"id":"gpM4dDRJ6U4","title":"شرح صحيح البخاري - كتاب المظالم من باب ٢٦","publishedAt":"2017-05-26T19:25:54Z","duration":"PT47M11S","thumbnail":"https://i.ytimg.com/vi/gpM4dDRJ6U4/mqdefault.jpg","viewCount":"874","playlistId":"PLEkQk5xrP-tlEerGoLa1AFy-2XvQ-sovv","playlistName":"شرح صحيح البخاري - أ.د. يسري جبر (كاملا)","category":"حديث"},{"id":"5Quu1qhnQ6M","title":"مقرأة سورة هود من أولها","publishedAt":"2017-05-26T17:24:04Z","duration":"PT16M18S","thumbnail":"https://i.ytimg.com/vi/5Quu1qhnQ6M/mqdefault.jpg","viewCount":"515","playlistId":"PLEkQk5xrP-tnmTYsyW6xNdyfhPq0Bhrhj","playlistName":"مقرأة الفجر - القُرْآنُ الكَرِيمُ - خَتْمَةُ التَّدَبُّرِ  أ.د. يسري جبر","category":"متنوع"},{"id":"7bMK5lHDHFA","title":"( 119 ) حديث الإفك وبراءة السيدة عائشة أم المؤمنين منه - المجلس الثاني عشر","publishedAt":"2017-05-25T17:54:22Z","duration":"PT28M26S","thumbnail":"https://i.ytimg.com/vi/7bMK5lHDHFA/mqdefault.jpg","viewCount":"217","playlistId":"PLEkQk5xrP-tnl7vb7KeAoPd5ZlqKKW8KV","playlistName":"شرح كتاب بهجة النفوس أ.د . يسرى جبر","category":"متنوع"},{"id":"52xe17EYIJ0","title":"شرح صحيح البخاري - كتاب المظالم من باب ٢١","publishedAt":"2017-05-25T15:54:45Z","duration":"PT44M13S","thumbnail":"https://i.ytimg.com/vi/52xe17EYIJ0/mqdefault.jpg","viewCount":"794","playlistId":"PLEkQk5xrP-tlEerGoLa1AFy-2XvQ-sovv","playlistName":"شرح صحيح البخاري - أ.د. يسري جبر (كاملا)","category":"حديث"},{"id":"9P5VM9dVHco","title":"سورة يونس آية 99","publishedAt":"2017-05-25T12:13:36Z","duration":"PT23M20S","thumbnail":"https://i.ytimg.com/vi/9P5VM9dVHco/mqdefault.jpg","viewCount":"570","playlistId":"PLEkQk5xrP-tnmTYsyW6xNdyfhPq0Bhrhj","playlistName":"مقرأة الفجر - القُرْآنُ الكَرِيمُ - خَتْمَةُ التَّدَبُّرِ  أ.د. يسري جبر","category":"متنوع"},{"id":"4lx6LArfXPE","title":"( 119 ) حديث الإفك وبراءة السيدة عائشة أم المؤمنين منه - المجلس الحادي عشر","publishedAt":"2017-05-24T22:07:15Z","duration":"PT34M16S","thumbnail":"https://i.ytimg.com/vi/4lx6LArfXPE/mqdefault.jpg","viewCount":"230","playlistId":"PLEkQk5xrP-tnl7vb7KeAoPd5ZlqKKW8KV","playlistName":"شرح كتاب بهجة النفوس أ.د . يسرى جبر","category":"متنوع"},{"id":"JnMzvfjGRCs","title":"شرح صحيح البخاري - كتاب المظالم من باب١١","publishedAt":"2017-05-24T20:28:43Z","duration":"PT39M59S","thumbnail":"https://i.ytimg.com/vi/JnMzvfjGRCs/mqdefault.jpg","viewCount":"777","playlistId":"PLEkQk5xrP-tlEerGoLa1AFy-2XvQ-sovv","playlistName":"شرح صحيح البخاري - أ.د. يسري جبر (كاملا)","category":"حديث"},{"id":"-IOfYBfyIM4","title":"( 119 ) حديث الإفك وبراءة السيدة عائشة أم المؤمنين منه - المجلس العاشر","publishedAt":"2017-05-24T18:03:10Z","duration":"PT20M59S","thumbnail":"https://i.ytimg.com/vi/-IOfYBfyIM4/mqdefault.jpg","viewCount":"205","playlistId":"PLEkQk5xrP-tnl7vb7KeAoPd5ZlqKKW8KV","playlistName":"شرح كتاب بهجة النفوس أ.د . يسرى جبر","category":"متنوع"},{"id":"7ZqfJ7651_E","title":"مقرأة سورة يونس من آية ٩٠","publishedAt":"2017-05-24T12:05:57Z","duration":"PT22M47S","thumbnail":"https://i.ytimg.com/vi/7ZqfJ7651_E/mqdefault.jpg","viewCount":"430","playlistId":"PLEkQk5xrP-tnmTYsyW6xNdyfhPq0Bhrhj","playlistName":"مقرأة الفجر - القُرْآنُ الكَرِيمُ - خَتْمَةُ التَّدَبُّرِ  أ.د. يسري جبر","category":"متنوع"},{"id":"wDhc7rSohkA","title":"شرح صحيح البخاري - كتاب المظالم من أوله","publishedAt":"2017-05-23T19:51:09Z","duration":"PT37M30S","thumbnail":"https://i.ytimg.com/vi/wDhc7rSohkA/mqdefault.jpg","viewCount":"1140","playlistId":"PLEkQk5xrP-tlEerGoLa1AFy-2XvQ-sovv","playlistName":"شرح صحيح البخاري - أ.د. يسري جبر (كاملا)","category":"حديث"},{"id":"xYEjrKJ45Yw","title":"مقرأة سورة يونس من آية ٨٣","publishedAt":"2017-05-23T07:26:27Z","duration":"PT23M10S","thumbnail":"https://i.ytimg.com/vi/xYEjrKJ45Yw/mqdefault.jpg","viewCount":"820","playlistId":"PLEkQk5xrP-tnmTYsyW6xNdyfhPq0Bhrhj","playlistName":"مقرأة الفجر - القُرْآنُ الكَرِيمُ - خَتْمَةُ التَّدَبُّرِ  أ.د. يسري جبر","category":"متنوع"},{"id":"NgvjZq-weU4","title":"الاستعداد لرمضان      د. يسري جبر","publishedAt":"2017-05-22T19:25:48Z","duration":"PT28M5S","thumbnail":"https://i.ytimg.com/vi/NgvjZq-weU4/mqdefault.jpg","viewCount":"3009","playlistId":"PLEkQk5xrP-tlArtGpeLWaqNM7h7IDeAVC","playlistName":"خطب الجمعة أ.د. يسري جبر","category":"خطب"},{"id":"dmYIBOU36KY","title":"شرح صحيح البخاري - كتاب الخصومات من باب ٧ وكتاب اللقطة","publishedAt":"2017-05-22T18:54:21Z","duration":"PT45M23S","thumbnail":"https://i.ytimg.com/vi/dmYIBOU36KY/mqdefault.jpg","viewCount":"1036","playlistId":"PLEkQk5xrP-tlEerGoLa1AFy-2XvQ-sovv","playlistName":"شرح صحيح البخاري - أ.د. يسري جبر (كاملا)","category":"حديث"},{"id":"oSJeWLWea9M","title":"50- تَقْدِيمِ النِّسَاءِ وَالصِّبْيَانِ كتاب الحج ك الموطأ د يسري جبر الأزهري","publishedAt":"2017-05-21T22:16:36Z","duration":"PT57M53S","thumbnail":"https://i.ytimg.com/vi/oSJeWLWea9M/mqdefault.jpg","viewCount":"276","playlistId":"PLEkQk5xrP-tnC6BRuqMjyO-484iqXeg0o","playlistName":"شرح كتاب الموطأ للإمام مالك","category":"متنوع"},{"id":"rJy5l7evH8g","title":"شرح صحيح البخاري - كتاب الخصومات من أوله","publishedAt":"2017-05-21T15:48:44Z","duration":"PT35M27S","thumbnail":"https://i.ytimg.com/vi/rJy5l7evH8g/mqdefault.jpg","viewCount":"810","playlistId":"PLEkQk5xrP-tlEerGoLa1AFy-2XvQ-sovv","playlistName":"شرح صحيح البخاري - أ.د. يسري جبر (كاملا)","category":"حديث"},{"id":"w7SU35LeYoc","title":"رُبَّما دلَّهم الأدب على ترك الطلب، اعتمادا على قسمته، واشتغالا بذكره عن مسألته","publishedAt":"2017-05-20T18:03:53Z","duration":"PT10M2S","thumbnail":"https://i.ytimg.com/vi/w7SU35LeYoc/mqdefault.jpg","viewCount":"1230","playlistId":"PLEkQk5xrP-tkI_meE148wc7V7XHlB0WPb","playlistName":"من الحكم العطائية  د. يسري جبر","category":"متنوع"},{"id":"xzYcZf23m5Q","title":"شرح كتاب نوراليقين في سيرة سيد المرسلين - المجلس الحادي عشر(كتابة الصحيفة) د.يسري جبر","publishedAt":"2017-05-20T15:05:53Z","duration":"PT55M42S","thumbnail":"https://i.ytimg.com/vi/xzYcZf23m5Q/mqdefault.jpg","viewCount":"29454","playlistId":"PLEkQk5xrP-tl2t4NQx1IhKnAJCMzF0Nli","playlistName":"شرح كتاب نور اليقين في سيرة سيد المرسلين   د. يسري جبر","category":"سيرة"},{"id":"I5RpuHNu-yc","title":"مقرأة سورة يونس من آية ٧١","publishedAt":"2017-05-20T13:19:30Z","duration":"PT19M40S","thumbnail":"https://i.ytimg.com/vi/I5RpuHNu-yc/mqdefault.jpg","viewCount":"291","playlistId":"PLEkQk5xrP-tnmTYsyW6xNdyfhPq0Bhrhj","playlistName":"مقرأة الفجر - القُرْآنُ الكَرِيمُ - خَتْمَةُ التَّدَبُّرِ  أ.د. يسري جبر","category":"متنوع"},{"id":"I5VDmxVLjDY","title":"شرح صحيح البخاري - كتاب الاستقراض من باب ١١","publishedAt":"2017-05-20T07:31:28Z","duration":"PT43M34S","thumbnail":"https://i.ytimg.com/vi/I5VDmxVLjDY/mqdefault.jpg","viewCount":"721","playlistId":"PLEkQk5xrP-tlEerGoLa1AFy-2XvQ-sovv","playlistName":"شرح صحيح البخاري - أ.د. يسري جبر (كاملا)","category":"حديث"},{"id":"Fafg5VF3yvY","title":"مقرأة سورة يونس من آية ٦٦","publishedAt":"2017-05-19T08:46:22Z","duration":"PT16M13S","thumbnail":"https://i.ytimg.com/vi/Fafg5VF3yvY/mqdefault.jpg","viewCount":"362","playlistId":"PLEkQk5xrP-tnmTYsyW6xNdyfhPq0Bhrhj","playlistName":"مقرأة الفجر - القُرْآنُ الكَرِيمُ - خَتْمَةُ التَّدَبُّرِ  أ.د. يسري جبر","category":"متنوع"},{"id":"MV4coTplpLY","title":"شرح صحيح البخاري - كتاب الاستقراض من أوله","publishedAt":"2017-05-18T19:58:42Z","duration":"PT31M31S","thumbnail":"https://i.ytimg.com/vi/MV4coTplpLY/mqdefault.jpg","viewCount":"702","playlistId":"PLEkQk5xrP-tlEerGoLa1AFy-2XvQ-sovv","playlistName":"شرح صحيح البخاري - أ.د. يسري جبر (كاملا)","category":"حديث"},{"id":"K_q6RpJZDw8","title":"مقرأة سورة يونس من آية ٦١","publishedAt":"2017-05-18T11:04:16Z","duration":"PT21M10S","thumbnail":"https://i.ytimg.com/vi/K_q6RpJZDw8/mqdefault.jpg","viewCount":"302","playlistId":"PLEkQk5xrP-tnmTYsyW6xNdyfhPq0Bhrhj","playlistName":"مقرأة الفجر - القُرْآنُ الكَرِيمُ - خَتْمَةُ التَّدَبُّرِ  أ.د. يسري جبر","category":"متنوع"},{"id":"W3LbRY43jOg","title":"شرح صحيح البخاري - كتاب المساقاة من باب ١٠","publishedAt":"2017-05-17T19:09:21Z","duration":"PT47M4S","thumbnail":"https://i.ytimg.com/vi/W3LbRY43jOg/mqdefault.jpg","viewCount":"769","playlistId":"PLEkQk5xrP-tlEerGoLa1AFy-2XvQ-sovv","playlistName":"شرح صحيح البخاري - أ.د. يسري جبر (كاملا)","category":"حديث"}],"total":7675,"page":250,"pageSize":24,"totalPages":320}