{"items":[{"id":"LQA5nD65uOA","title":"تكملة الأسلوب العشرين - فَتُصْبِحُ الْأَرْضُ مُخْضَرَّةً ۗ - شرح البرهان في علوم القرآن","publishedAt":"2021-12-24T07:11:51Z","duration":"PT22M41S","thumbnail":"https://i.ytimg.com/vi/LQA5nD65uOA/mqdefault.jpg","viewCount":"686","playlistId":"PLEkQk5xrP-tnW3iBL7HkKziOFCFZbTlf0","playlistName":"شرح البرهان في علوم القرآن - أ.د. يسري جبر","category":"تفسير"},{"id":"Z5S2aNTe1pI","title":"قوة الاستماع","publishedAt":"2021-12-23T19:12:14Z","duration":"PT12M41S","thumbnail":"https://i.ytimg.com/vi/Z5S2aNTe1pI/mqdefault.jpg","viewCount":"6463","playlistId":"PLEkQk5xrP-tm8ZIu74nTOZN9KJUJu416J","playlistName":"مقاطع مُهمَّة (يُسريَّات) أ.د. يسري جبر","category":"متنوع"},{"id":"-Lvb-_Hb81M","title":"172- إجراءُ أحكام الناس على الظاهر وسرائرهم إلى الله تعالى - شرح دليل الفالحين","publishedAt":"2021-12-23T07:09:28Z","duration":"PT42M44S","thumbnail":"https://i.ytimg.com/vi/-Lvb-_Hb81M/mqdefault.jpg","viewCount":"1628","playlistId":"PLEkQk5xrP-tkc9DXvSLguqX5-FYp6ASR4","playlistName":"دليل الفالحين لطرق رياض الصالحين","category":"متنوع"},{"id":"KFv79lGeFQ8","title":"ما هي عقوبة القتل؟","publishedAt":"2021-12-22T17:30:06Z","duration":"PT10M45S","thumbnail":"https://i.ytimg.com/vi/KFv79lGeFQ8/mqdefault.jpg","viewCount":"2495","playlistId":"PLEkQk5xrP-tkGXuZ9atE3k_7it12rUPTs","playlistName":"أسئلة المتابعين","category":"متنوع"},{"id":"jWvwvT9j6-4","title":"التعبير عن المستقبل بلفظ الماضي وعكسه - شرح البرهان في علوم القرآن","publishedAt":"2021-12-22T07:15:55Z","duration":"PT17M55S","thumbnail":"https://i.ytimg.com/vi/jWvwvT9j6-4/mqdefault.jpg","viewCount":"882","playlistId":"PLEkQk5xrP-tnW3iBL7HkKziOFCFZbTlf0","playlistName":"شرح البرهان في علوم القرآن - أ.د. يسري جبر","category":"تفسير"},{"id":"8s6LiWSnCUw","title":"الرسالة القشيرية - المجلس (104) بَابُ السماع | أ.د. يسري جبر","publishedAt":"2021-12-21T17:30:00Z","duration":"PT53M20S","thumbnail":"https://i.ytimg.com/vi/8s6LiWSnCUw/mqdefault.jpg","viewCount":"8729","playlistId":"PLEkQk5xrP-tkHAGOwIKr4pc5ehhyQ5HMJ","playlistName":"كتاب الرسالة القشيرية (تصوف) - د. يسري جبر","category":"تصوف"},{"id":"FI4KwtZFxrA","title":"171- التحذير من إيذاء الصالحين والضعفاء والمساكين - شرح دليل الفالحين","publishedAt":"2021-12-21T07:55:45Z","duration":"PT21M42S","thumbnail":"https://i.ytimg.com/vi/FI4KwtZFxrA/mqdefault.jpg","viewCount":"3107","playlistId":"PLEkQk5xrP-tkc9DXvSLguqX5-FYp6ASR4","playlistName":"دليل الفالحين لطرق رياض الصالحين","category":"متنوع"},{"id":"NUCPQsX0QT0","title":"هل يمكننا رؤية الجن؟","publishedAt":"2021-12-20T17:30:01Z","duration":"PT10M12S","thumbnail":"https://i.ytimg.com/vi/NUCPQsX0QT0/mqdefault.jpg","viewCount":"109051","playlistId":"PLEkQk5xrP-tkGXuZ9atE3k_7it12rUPTs","playlistName":"أسئلة المتابعين","category":"متنوع"},{"id":"8mw2FufKn_Q","title":"تكملة ما جاء في أسلوب(تأنيث المذكَّر) شرح البرهان في علوم القرآن","publishedAt":"2021-12-20T06:37:54Z","duration":"PT23M","thumbnail":"https://i.ytimg.com/vi/8mw2FufKn_Q/mqdefault.jpg","viewCount":"529","playlistId":"PLEkQk5xrP-tnW3iBL7HkKziOFCFZbTlf0","playlistName":"شرح البرهان في علوم القرآن - أ.د. يسري جبر","category":"تفسير"},{"id":"jiyyeRyZhD8","title":"ما سر حديث \"العلماء ورثة الانبياء\"؟","publishedAt":"2021-12-19T18:00:13Z","duration":"PT12M8S","thumbnail":"https://i.ytimg.com/vi/jiyyeRyZhD8/mqdefault.jpg","viewCount":"7703","playlistId":"PLEkQk5xrP-tkGXuZ9atE3k_7it12rUPTs","playlistName":"أسئلة المتابعين","category":"متنوع"},{"id":"QQ2J31qxlHw","title":"170- إِذا أحبَّ اللَّهُ العبدَ نادى جِبْرِيل: إنَّ اللَّهَ يُحبُّ فلانًا فأحْببه - شرح دليل الفالحين","publishedAt":"2021-12-19T07:23:02Z","duration":"PT27M24S","thumbnail":"https://i.ytimg.com/vi/QQ2J31qxlHw/mqdefault.jpg","viewCount":"1926","playlistId":"PLEkQk5xrP-tkc9DXvSLguqX5-FYp6ASR4","playlistName":"دليل الفالحين لطرق رياض الصالحين","category":"متنوع"},{"id":"TiK-mWtZlcQ","title":"نصائح ستغير حياتك!","publishedAt":"2021-12-18T18:00:10Z","duration":"PT8M1S","thumbnail":"https://i.ytimg.com/vi/TiK-mWtZlcQ/mqdefault.jpg","viewCount":"10811","playlistId":"PLEkQk5xrP-tlArtGpeLWaqNM7h7IDeAVC","playlistName":"خطب الجمعة أ.د. يسري جبر","category":"خطب"},{"id":"Xj4E8w1y85o","title":"\"الَّذِينَ يَرِثُونَ ٱلْفِرْدَوْسَ هُمْ فِيهَا\" - تأنيث المذكَّر - شرح البرهان في علوم القرآن","publishedAt":"2021-12-18T06:34:07Z","duration":"PT22M40S","thumbnail":"https://i.ytimg.com/vi/Xj4E8w1y85o/mqdefault.jpg","viewCount":"872","playlistId":"PLEkQk5xrP-tnW3iBL7HkKziOFCFZbTlf0","playlistName":"شرح البرهان في علوم القرآن - أ.د. يسري جبر","category":"تفسير"},{"id":"feJdVubaISQ","title":"169- علاماتُ حُبِّ الله تعالى العبدَ والحَثِّ على التَّخلُّق بها - شرح دليل الفالحين","publishedAt":"2021-12-17T19:34:22Z","duration":"PT40M4S","thumbnail":"https://i.ytimg.com/vi/feJdVubaISQ/mqdefault.jpg","viewCount":"4108","playlistId":"PLEkQk5xrP-tkc9DXvSLguqX5-FYp6ASR4","playlistName":"دليل الفالحين لطرق رياض الصالحين","category":"متنوع"},{"id":"sbwB09bxYAA","title":"كيف تكون مسلما صالحا؟","publishedAt":"2021-12-16T17:30:09Z","duration":"PT45M47S","thumbnail":"https://i.ytimg.com/vi/sbwB09bxYAA/mqdefault.jpg","viewCount":"8129","playlistId":"PLEkQk5xrP-tlArtGpeLWaqNM7h7IDeAVC","playlistName":"خطب الجمعة أ.د. يسري جبر","category":"خطب"},{"id":"h3TvPnlTLm0","title":"\"السَّمَآءُ مُنفَطِرٌۢ بِهِ\" تكملة تذكير المؤنث - شرح البرهان في علوم القرآن","publishedAt":"2021-12-16T07:46:39Z","duration":"PT13M10S","thumbnail":"https://i.ytimg.com/vi/h3TvPnlTLm0/mqdefault.jpg","viewCount":"754","playlistId":"PLEkQk5xrP-tnW3iBL7HkKziOFCFZbTlf0","playlistName":"شرح البرهان في علوم القرآن - أ.د. يسري جبر","category":"تفسير"},{"id":"7gdXTIjoOPA","title":"متى يفتح الله على المريد؟","publishedAt":"2021-12-15T15:45:01Z","duration":"PT9M12S","thumbnail":"https://i.ytimg.com/vi/7gdXTIjoOPA/mqdefault.jpg","viewCount":"29815","playlistId":"PLEkQk5xrP-tm8ZIu74nTOZN9KJUJu416J","playlistName":"مقاطع مُهمَّة (يُسريَّات) أ.د. يسري جبر","category":"متنوع"},{"id":"-u6O--y7hSc","title":"168- \"…وجبت محبَّتي للمُتحابِّين فيَّ ، والمُتجالسين فيَّ…\" شرح دليل الفالحين","publishedAt":"2021-12-15T06:47:17Z","duration":"PT34M50S","thumbnail":"https://i.ytimg.com/vi/-u6O--y7hSc/mqdefault.jpg","viewCount":"1176","playlistId":"PLEkQk5xrP-tkc9DXvSLguqX5-FYp6ASR4","playlistName":"دليل الفالحين لطرق رياض الصالحين","category":"متنوع"},{"id":"VB8uSBpIKwI","title":"الرسالة القشيرية - المجلس (103) بَابُ حفظ قلوب المشايخ | أ.د. يسري جبر","publishedAt":"2021-12-14T19:07:33Z","duration":"PT37M54S","thumbnail":"https://i.ytimg.com/vi/VB8uSBpIKwI/mqdefault.jpg","viewCount":"9887","playlistId":"PLEkQk5xrP-tkHAGOwIKr4pc5ehhyQ5HMJ","playlistName":"كتاب الرسالة القشيرية (تصوف) - د. يسري جبر","category":"تصوف"},{"id":"eCrEyu-Y4KE","title":"1- الفُتُوحات اليُسريَّة في عقائد الأُمَّة المُحمَّديَّة - المُقدِّمة","publishedAt":"2021-12-14T07:25:41Z","duration":"PT57M45S","thumbnail":"https://i.ytimg.com/vi/eCrEyu-Y4KE/mqdefault.jpg","viewCount":"23560","playlistId":"PLEkQk5xrP-tmNuYT8JAh6clwa4krsgkNo","playlistName":"شرح كتاب الفُتُوحات اليُسريَّة في عقائد الأُمَّة المُحمَّديَّة","category":"متنوع"},{"id":"rCMlvvldiMs","title":"كيف نفهم حديث \"رأيتُ ربِّي في أحسنِ صورة\" بغير تشبيه؟","publishedAt":"2021-12-13T17:30:04Z","duration":"PT8M39S","thumbnail":"https://i.ytimg.com/vi/rCMlvvldiMs/mqdefault.jpg","viewCount":"9615","playlistId":"PLEkQk5xrP-tkGXuZ9atE3k_7it12rUPTs","playlistName":"أسئلة المتابعين","category":"متنوع"},{"id":"19I21S_mob8","title":"تذكير المؤنث - شرح البرهان في علوم القرآن","publishedAt":"2021-12-13T07:16:57Z","duration":"PT19M6S","thumbnail":"https://i.ytimg.com/vi/19I21S_mob8/mqdefault.jpg","viewCount":"1028","playlistId":"PLEkQk5xrP-tnW3iBL7HkKziOFCFZbTlf0","playlistName":"شرح البرهان في علوم القرآن - أ.د. يسري جبر","category":"تفسير"},{"id":"p0yfvThd-68","title":"كيف أسيطر على شهوتي؟","publishedAt":"2021-12-12T17:15:00Z","duration":"PT8M53S","thumbnail":"https://i.ytimg.com/vi/p0yfvThd-68/mqdefault.jpg","viewCount":"13282","playlistId":"PLEkQk5xrP-tkGXuZ9atE3k_7it12rUPTs","playlistName":"أسئلة المتابعين","category":"متنوع"},{"id":"rssnj0vsf_c","title":"167- \"إنَّ اللهَ تعالى يقولُ: أين المُتحَابُّون بجَلالي؟…\" شرح دليل الفالحين","publishedAt":"2021-12-12T07:19:39Z","duration":"PT28M22S","thumbnail":"https://i.ytimg.com/vi/rssnj0vsf_c/mqdefault.jpg","viewCount":"1464","playlistId":"PLEkQk5xrP-tkc9DXvSLguqX5-FYp6ASR4","playlistName":"دليل الفالحين لطرق رياض الصالحين","category":"متنوع"}],"total":7675,"page":103,"pageSize":24,"totalPages":320}