{"items":[{"id":"nltVpcSXYMk","title":"84- باب مَا جَاءَ فِى الْقِرَاضِ شرح الموطأ د يسري جبر","publishedAt":"2018-10-09T14:15:56Z","duration":"PT48M33S","thumbnail":"https://i.ytimg.com/vi/nltVpcSXYMk/mqdefault.jpg","viewCount":"600","playlistId":"PLEkQk5xrP-tnC6BRuqMjyO-484iqXeg0o","playlistName":"شرح كتاب الموطأ للإمام مالك","category":"متنوع"},{"id":"SZcSy8ugG4E","title":"مقرأة سورة الزمر من أولها","publishedAt":"2018-10-09T09:08:08Z","duration":"PT18M31S","thumbnail":"https://i.ytimg.com/vi/SZcSy8ugG4E/mqdefault.jpg","viewCount":"761","playlistId":"PLEkQk5xrP-tnmTYsyW6xNdyfhPq0Bhrhj","playlistName":"مقرأة الفجر - القُرْآنُ الكَرِيمُ - خَتْمَةُ التَّدَبُّرِ  أ.د. يسري جبر","category":"متنوع"},{"id":"b_a-aj6veCI","title":"شرح صحيح البخاري كتاب الدعوات من باب ٣٣","publishedAt":"2018-10-08T21:45:35Z","duration":"PT20M25S","thumbnail":"https://i.ytimg.com/vi/b_a-aj6veCI/mqdefault.jpg","viewCount":"459","playlistId":"PLEkQk5xrP-tlEerGoLa1AFy-2XvQ-sovv","playlistName":"شرح صحيح البخاري - أ.د. يسري جبر (كاملا)","category":"حديث"},{"id":"YvQ5dm7zirM","title":"مفاهيم حول تصحيح العقيدة ومحبة آل البيت رضي الله تعالى عنهم وعليهم السلام.  د. يسري جبر","publishedAt":"2018-10-08T17:36:50Z","duration":"PT42M10S","thumbnail":"https://i.ytimg.com/vi/YvQ5dm7zirM/mqdefault.jpg","viewCount":"3221","playlistId":"PLEkQk5xrP-tlArtGpeLWaqNM7h7IDeAVC","playlistName":"خطب الجمعة أ.د. يسري جبر","category":"خطب"},{"id":"qOjDsHlEdAs","title":"مقرأة سورة ص من آية ٦٥","publishedAt":"2018-10-08T12:51:18Z","duration":"PT45M45S","thumbnail":"https://i.ytimg.com/vi/qOjDsHlEdAs/mqdefault.jpg","viewCount":"467","playlistId":"PLEkQk5xrP-tnmTYsyW6xNdyfhPq0Bhrhj","playlistName":"مقرأة الفجر - القُرْآنُ الكَرِيمُ - خَتْمَةُ التَّدَبُّرِ  أ.د. يسري جبر","category":"متنوع"},{"id":"kRUFNiOrzMw","title":"شرح صحيح البخاري كتاب الدعوات من باب ٢٨","publishedAt":"2018-10-07T14:17:40Z","duration":"PT36M23S","thumbnail":"https://i.ytimg.com/vi/kRUFNiOrzMw/mqdefault.jpg","viewCount":"499","playlistId":"PLEkQk5xrP-tlEerGoLa1AFy-2XvQ-sovv","playlistName":"شرح صحيح البخاري - أ.د. يسري جبر (كاملا)","category":"حديث"},{"id":"gyPPnxZqVLE","title":"مقرأة سورة ص من آية 55","publishedAt":"2018-10-06T20:15:25Z","duration":"PT19M8S","thumbnail":"https://i.ytimg.com/vi/gyPPnxZqVLE/mqdefault.jpg","viewCount":"362","playlistId":"PLEkQk5xrP-tnmTYsyW6xNdyfhPq0Bhrhj","playlistName":"مقرأة الفجر - القُرْآنُ الكَرِيمُ - خَتْمَةُ التَّدَبُّرِ  أ.د. يسري جبر","category":"متنوع"},{"id":"09ENj-0GgiQ","title":"الرسالة القشيرية المجلس الثلاثون (الصَحْو والسُكْر - الذَوق والشُرب) د. يسري جبر","publishedAt":"2018-10-06T17:29:22Z","duration":"PT45M31S","thumbnail":"https://i.ytimg.com/vi/09ENj-0GgiQ/mqdefault.jpg","viewCount":"6967","playlistId":"PLEkQk5xrP-tkHAGOwIKr4pc5ehhyQ5HMJ","playlistName":"كتاب الرسالة القشيرية (تصوف) - د. يسري جبر","category":"تصوف"},{"id":"N_hR593tSks","title":"شرح صحيح البخاري كتاب الدعوات من باب ١٨","publishedAt":"2018-10-06T06:31:33Z","duration":"PT38M9S","thumbnail":"https://i.ytimg.com/vi/N_hR593tSks/mqdefault.jpg","viewCount":"577","playlistId":"PLEkQk5xrP-tlEerGoLa1AFy-2XvQ-sovv","playlistName":"شرح صحيح البخاري - أ.د. يسري جبر (كاملا)","category":"حديث"},{"id":"wwTptGo-wBY","title":"حبُّ الصَّالِحِينَ والتَّعلُّق بِهِم  د. يسري جبر","publishedAt":"2018-10-05T17:45:16Z","duration":"PT24M49S","thumbnail":"https://i.ytimg.com/vi/wwTptGo-wBY/mqdefault.jpg","viewCount":"46009","playlistId":"PLEkQk5xrP-tnzc5Igd5ZE8_G2H6afJ4L5","playlistName":"مجالس رحلة سيدي أبي الحسن الشاذلي رضي الله تعالى عنه.","category":"متنوع"},{"id":"grDs_z2qC_4","title":"مقرأة سورة ص من آية ٤٥","publishedAt":"2018-10-05T14:24:35Z","duration":"PT14M2S","thumbnail":"https://i.ytimg.com/vi/grDs_z2qC_4/mqdefault.jpg","viewCount":"409","playlistId":"PLEkQk5xrP-tnmTYsyW6xNdyfhPq0Bhrhj","playlistName":"مقرأة الفجر - القُرْآنُ الكَرِيمُ - خَتْمَةُ التَّدَبُّرِ  أ.د. يسري جبر","category":"متنوع"},{"id":"6ga3JGviNNM","title":"شرح صحيح البخاري كتاب الدعوات من باب ١١","publishedAt":"2018-10-04T17:18:07Z","duration":"PT36M19S","thumbnail":"https://i.ytimg.com/vi/6ga3JGviNNM/mqdefault.jpg","viewCount":"512","playlistId":"PLEkQk5xrP-tlEerGoLa1AFy-2XvQ-sovv","playlistName":"شرح صحيح البخاري - أ.د. يسري جبر (كاملا)","category":"حديث"},{"id":"iOAeskBcDEc","title":"مقرأة سورة ص من آية ٤١","publishedAt":"2018-10-04T11:12:14Z","duration":"PT18M26S","thumbnail":"https://i.ytimg.com/vi/iOAeskBcDEc/mqdefault.jpg","viewCount":"610","playlistId":"PLEkQk5xrP-tnmTYsyW6xNdyfhPq0Bhrhj","playlistName":"مقرأة الفجر - القُرْآنُ الكَرِيمُ - خَتْمَةُ التَّدَبُّرِ  أ.د. يسري جبر","category":"متنوع"},{"id":"fM8mWdrE4cQ","title":"شرح صحيح البخاري كتاب الدعوات من باب ٥","publishedAt":"2018-10-03T21:37:35Z","duration":"PT35M51S","thumbnail":"https://i.ytimg.com/vi/fM8mWdrE4cQ/mqdefault.jpg","viewCount":"580","playlistId":"PLEkQk5xrP-tlEerGoLa1AFy-2XvQ-sovv","playlistName":"شرح صحيح البخاري - أ.د. يسري جبر (كاملا)","category":"حديث"},{"id":"hVk67GdjVmI","title":"مقرأة سورة ص من آية ٢٧","publishedAt":"2018-10-03T10:51:56Z","duration":"PT25M54S","thumbnail":"https://i.ytimg.com/vi/hVk67GdjVmI/mqdefault.jpg","viewCount":"505","playlistId":"PLEkQk5xrP-tnmTYsyW6xNdyfhPq0Bhrhj","playlistName":"مقرأة الفجر - القُرْآنُ الكَرِيمُ - خَتْمَةُ التَّدَبُّرِ  أ.د. يسري جبر","category":"متنوع"},{"id":"lrSFCRZDlmc","title":"شرح صحيح البخاري كتاب الدعوات من أوله","publishedAt":"2018-10-02T10:18:09Z","duration":"PT16M46S","thumbnail":"https://i.ytimg.com/vi/lrSFCRZDlmc/mqdefault.jpg","viewCount":"936","playlistId":"PLEkQk5xrP-tlEerGoLa1AFy-2XvQ-sovv","playlistName":"شرح صحيح البخاري - أ.د. يسري جبر (كاملا)","category":"حديث"},{"id":"4ETddfGONPk","title":"مقرأة سورة ص من آية٢١","publishedAt":"2018-10-01T21:45:30Z","duration":"PT28M5S","thumbnail":"https://i.ytimg.com/vi/4ETddfGONPk/mqdefault.jpg","viewCount":"636","playlistId":"PLEkQk5xrP-tnmTYsyW6xNdyfhPq0Bhrhj","playlistName":"مقرأة الفجر - القُرْآنُ الكَرِيمُ - خَتْمَةُ التَّدَبُّرِ  أ.د. يسري جبر","category":"متنوع"},{"id":"IttDs2ibA9I","title":"شرح صحيح البخاري كتاب الاستئذان من باب ٤٤","publishedAt":"2018-10-01T09:32:56Z","duration":"PT49M43S","thumbnail":"https://i.ytimg.com/vi/IttDs2ibA9I/mqdefault.jpg","viewCount":"512","playlistId":"PLEkQk5xrP-tlEerGoLa1AFy-2XvQ-sovv","playlistName":"شرح صحيح البخاري - أ.د. يسري جبر (كاملا)","category":"حديث"},{"id":"QzkKoD0W3t4","title":"مقرأة سورة ص من آية ٩","publishedAt":"2018-09-30T22:44:09Z","duration":"PT19M14S","thumbnail":"https://i.ytimg.com/vi/QzkKoD0W3t4/mqdefault.jpg","viewCount":"566","playlistId":"PLEkQk5xrP-tnmTYsyW6xNdyfhPq0Bhrhj","playlistName":"مقرأة الفجر - القُرْآنُ الكَرِيمُ - خَتْمَةُ التَّدَبُّرِ  أ.د. يسري جبر","category":"متنوع"},{"id":"PdDMo4K_oYQ","title":"الافتقار إلى الله هو أصل الطريق  د. يسري جبر","publishedAt":"2018-09-30T18:47:09Z","duration":"PT13M59S","thumbnail":"https://i.ytimg.com/vi/PdDMo4K_oYQ/mqdefault.jpg","viewCount":"9184","playlistId":"PLEkQk5xrP-tnzc5Igd5ZE8_G2H6afJ4L5","playlistName":"مجالس رحلة سيدي أبي الحسن الشاذلي رضي الله تعالى عنه.","category":"متنوع"},{"id":"rdh1PafqiQ4","title":"كلمة الدكتور حسين عبد المجيد","publishedAt":"2018-09-30T15:25:03Z","duration":"PT3M20S","thumbnail":"https://i.ytimg.com/vi/rdh1PafqiQ4/mqdefault.jpg","viewCount":"1697","playlistId":"PLEkQk5xrP-tnzc5Igd5ZE8_G2H6afJ4L5","playlistName":"مجالس رحلة سيدي أبي الحسن الشاذلي رضي الله تعالى عنه.","category":"متنوع"},{"id":"i7puLmXOIio","title":"فضل زيارة الأولياء  د. يسري جبر","publishedAt":"2018-09-30T14:35:05Z","duration":"PT5M16S","thumbnail":"https://i.ytimg.com/vi/i7puLmXOIio/mqdefault.jpg","viewCount":"9134","playlistId":"PLEkQk5xrP-tnzc5Igd5ZE8_G2H6afJ4L5","playlistName":"مجالس رحلة سيدي أبي الحسن الشاذلي رضي الله تعالى عنه.","category":"متنوع"},{"id":"eH8uekDI6MU","title":"80- باب الْحُكْرَةِ وَالتَّرَبُّصِ ك الموطأ د يسري جبر الأزهري","publishedAt":"2018-09-29T13:29:04Z","duration":"PT47M23S","thumbnail":"https://i.ytimg.com/vi/eH8uekDI6MU/mqdefault.jpg","viewCount":"245","playlistId":"PLEkQk5xrP-tnC6BRuqMjyO-484iqXeg0o","playlistName":"شرح كتاب الموطأ للإمام مالك","category":"متنوع"},{"id":"fNQ8kGbcf5o","title":"شرح صحيح البخاري كتاب الاستئذان من باب ٤٠","publishedAt":"2018-09-29T11:27:54Z","duration":"PT32M40S","thumbnail":"https://i.ytimg.com/vi/fNQ8kGbcf5o/mqdefault.jpg","viewCount":"459","playlistId":"PLEkQk5xrP-tlEerGoLa1AFy-2XvQ-sovv","playlistName":"شرح صحيح البخاري - أ.د. يسري جبر (كاملا)","category":"حديث"}],"total":7675,"page":200,"pageSize":24,"totalPages":320}