{"items":[{"id":"DBy_hfyuViA","title":"ุฎุทุฉ ุงูุนุจุงุฏุฉ ูู ุดูุฑ ุฑูุถุงู๐","publishedAt":"2025-02-28T16:44:56Z","duration":"PT16M51S","thumbnail":"https://i.ytimg.com/vi/DBy_hfyuViA/mqdefault.jpg","viewCount":"7864","playlistId":"PLEkQk5xrP-tlArtGpeLWaqNM7h7IDeAVC","playlistName":"ุฎุทุจ ุงูุฌูุนุฉ ุฃ.ุฏ. ูุณุฑู ุฌุจุฑ","category":"ุฎุทุจ"},{"id":"7tecGV1bOGs","title":"4- ุตููุงุช ุงูููู ุงูุฑุงุจุน - ุตููุงุช ุงูุฃุณูุงุก ุงูุญุณููุ ุดุฑุญ ุงูุตููุงุช ุงููุณุฑูุฉ ุนูู ุฎูุฑ ุงูุจุฑูุฉ ๏ทบ","publishedAt":"2025-02-28T07:00:07Z","duration":"PT16M50S","thumbnail":"https://i.ytimg.com/vi/7tecGV1bOGs/mqdefault.jpg","viewCount":"1411","playlistId":"PLEkQk5xrP-tk92TNE3xhWCFNr9VshA9Zj","playlistName":"ุงูุตููุงุช ุงููุณุฑูุฉ ุนูู ุฎูุฑ ุงูุจุฑูุฉ ๏ทบ","category":"ุตููุงุช"},{"id":"DHgrRlIb-3U","title":"ุฃุณุจุงุจ ูุจูู ุงูุนุจุงุฏุงุช | ูุฌุงูุณ ุฑูุถุงููุฉ","publishedAt":"2025-02-27T17:15:12Z","duration":"PT32M55S","thumbnail":"https://i.ytimg.com/vi/DHgrRlIb-3U/mqdefault.jpg","viewCount":"2324","playlistId":"PLEkQk5xrP-tkeI_WVPfuoTJO46aVkpaz0","playlistName":"ุดุฑุญ ูุชุงุจ ููุฒุงู ุงูุงุนุชุฏุงู ูุญูุธ ุงูุฏูู ูุงูุฃุญูุงู","category":"ูุชููุน"},{"id":"98SzrZ0bvSE","title":"3- ุตููุงุช ุงูููู ุงูุซุงูุซ - ุตููุงุช ุงูุฃุณูุงุก ุงูุญุณููุ ุดุฑุญ ุงูุตููุงุช ุงููุณุฑูุฉ ุนูู ุฎูุฑ ุงูุจุฑูุฉ ๏ทบ","publishedAt":"2025-02-27T07:00:04Z","duration":"PT14M26S","thumbnail":"https://i.ytimg.com/vi/98SzrZ0bvSE/mqdefault.jpg","viewCount":"1671","playlistId":"PLEkQk5xrP-tk92TNE3xhWCFNr9VshA9Zj","playlistName":"ุงูุตููุงุช ุงููุณุฑูุฉ ุนูู ุฎูุฑ ุงูุจุฑูุฉ ๏ทบ","category":"ุตููุงุช"},{"id":"esRT6wJvvk0","title":"2- ุตููุงุช ุงูููู ุงูุซุงูู - ุตููุงุช ุงูุฃุณูุงุก ุงูุญุณููุ ุดุฑุญ ุงูุตููุงุช ุงููุณุฑูุฉ ุนูู ุฎูุฑ ุงูุจุฑูุฉ ๏ทบ","publishedAt":"2025-02-26T07:00:21Z","duration":"PT16M26S","thumbnail":"https://i.ytimg.com/vi/esRT6wJvvk0/mqdefault.jpg","viewCount":"1993","playlistId":"PLEkQk5xrP-tk92TNE3xhWCFNr9VshA9Zj","playlistName":"ุงูุตููุงุช ุงููุณุฑูุฉ ุนูู ุฎูุฑ ุงูุจุฑูุฉ ๏ทบ","category":"ุตููุงุช"},{"id":"hFgqQx0sHng","title":"ุฃูุง ูุนูุฏูุด ุจุฑูุฉ ูู ุงูููุช ูุงููุงู ,, ููุงุฐุง ุฃูุนูุ","publishedAt":"2025-02-25T19:41:54Z","duration":"PT12M22S","thumbnail":"https://i.ytimg.com/vi/hFgqQx0sHng/mqdefault.jpg","viewCount":"7080","playlistId":"PLEkQk5xrP-tkGXuZ9atE3k_7it12rUPTs","playlistName":"ุฃุณุฆูุฉ ุงููุชุงุจุนูู","category":"ูุชููุน"},{"id":"WnOQKX68zsg","title":"1- ุตููุงุช ุงูููู ุงูุฃูู - ุตููุงุช ุงูุฃุณูุงุก ุงูุญุณููุ ุดุฑุญ ุงูุตููุงุช ุงููุณุฑูุฉ ุนูู ุฎูุฑ ุงูุจุฑูุฉ ๏ทบ","publishedAt":"2025-02-25T07:00:30Z","duration":"PT12M24S","thumbnail":"https://i.ytimg.com/vi/WnOQKX68zsg/mqdefault.jpg","viewCount":"3066","playlistId":"PLEkQk5xrP-tk92TNE3xhWCFNr9VshA9Zj","playlistName":"ุงูุตููุงุช ุงููุณุฑูุฉ ุนูู ุฎูุฑ ุงูุจุฑูุฉ ๏ทบ","category":"ุตููุงุช"},{"id":"CZmGY5Qd7o8","title":"ุฎุทุฉ ูุถูููุฉ ูุฎุชู ุงููุฑุขู ูู ุฑูุถุงู ุจุณูููุฉ!","publishedAt":"2025-02-24T19:15:32Z","duration":"PT21M46S","thumbnail":"https://i.ytimg.com/vi/CZmGY5Qd7o8/mqdefault.jpg","viewCount":"5178","playlistId":"PLEkQk5xrP-tlArtGpeLWaqNM7h7IDeAVC","playlistName":"ุฎุทุจ ุงูุฌูุนุฉ ุฃ.ุฏ. ูุณุฑู ุฌุจุฑ","category":"ุฎุทุจ"},{"id":"guAWY6a3lOs","title":"153- ูุง ููุงู ุจูู ุงูุณุฌุฏุชูู - ุดุฑุญ ูุณูุฏ ุงูุฅูุงู ุฃุญูุฏ ุฑุถู ุงููู ุชุนุงูู ุนูู","publishedAt":"2025-02-23T07:00:22Z","duration":"PT32M43S","thumbnail":"https://i.ytimg.com/vi/guAWY6a3lOs/mqdefault.jpg","viewCount":"887","playlistId":"PLEkQk5xrP-tkKprIuGrSdEuBSMsyg5We1","playlistName":"ุดุฑุญ ูุณูุฏ ุงูุฅูุงู ุฃุญูุฏ ุจู ุญูุจู","category":"ูุชููุน"},{"id":"yQBFfqX_ij0","title":"ุฃุนูู ุงูู ุนูุดุงู ุฑุจูุง ููุจู ุนุจุงุฏุชูุ","publishedAt":"2025-02-22T18:00:45Z","duration":"PT14M38S","thumbnail":"https://i.ytimg.com/vi/yQBFfqX_ij0/mqdefault.jpg","viewCount":"2548","playlistId":"PLEkQk5xrP-tlArtGpeLWaqNM7h7IDeAVC","playlistName":"ุฎุทุจ ุงูุฌูุนุฉ ุฃ.ุฏ. ูุณุฑู ุฌุจุฑ","category":"ุฎุทุจ"},{"id":"TIILTQu0YL8","title":"284- ููุงุณุจุฉ ุงูุขูุงุช ูุงูุณูุฑ (3) - ุดุฑุญ ุงูุฅุชูุงู ูู ุนููู ุงููุฑุขู","publishedAt":"2025-02-22T07:00:27Z","duration":"PT24M33S","thumbnail":"https://i.ytimg.com/vi/TIILTQu0YL8/mqdefault.jpg","viewCount":"482","playlistId":"PLEkQk5xrP-tlPw10KGJKagu7zm4Ry2Tge","playlistName":"ุดุฑุญ ุงูุฅุชูุงู ูู ุนููู ุงููุฑุขู","category":"ุชูุณูุฑ"},{"id":"r9Qv0JpS-ro","title":"ุญูุงุฆู ููุนุงูู ุญูู ุฑูุญุงููุฉ ุงููุจู ๏ทบ","publishedAt":"2025-02-20T20:02:42Z","duration":"PT27M28S","thumbnail":"https://i.ytimg.com/vi/r9Qv0JpS-ro/mqdefault.jpg","viewCount":"3792","playlistId":"PLEkQk5xrP-tlArtGpeLWaqNM7h7IDeAVC","playlistName":"ุฎุทุจ ุงูุฌูุนุฉ ุฃ.ุฏ. ูุณุฑู ุฌุจุฑ","category":"ุฎุทุจ"},{"id":"mEsKC0gpJmE","title":"ููู ูููู ุงููุจู ๏ทบ ูุฏูุชู ูู ุงูุญูุงุฉุ","publishedAt":"2025-02-19T19:29:55Z","duration":"PT22M35S","thumbnail":"https://i.ytimg.com/vi/mEsKC0gpJmE/mqdefault.jpg","viewCount":"3293","playlistId":"PLEkQk5xrP-tlArtGpeLWaqNM7h7IDeAVC","playlistName":"ุฎุทุจ ุงูุฌูุนุฉ ุฃ.ุฏ. ูุณุฑู ุฌุจุฑ","category":"ุฎุทุจ"},{"id":"-S4VyAx2S6k","title":"39- ุดุฑูุท ุตุญุฉ ููุจูู ุงูุตูุงุฉ | ุดุฑุญ ูุฎุชุตุฑ ุงููุชูุญุงุช ุงููููุฉ","publishedAt":"2025-02-18T20:08:39Z","duration":"PT54M48S","thumbnail":"https://i.ytimg.com/vi/-S4VyAx2S6k/mqdefault.jpg","viewCount":"4050","playlistId":"PLEkQk5xrP-tnpkdZki6rPTtMak1bnI5g-","playlistName":"ุดุฑุญ ูุชุงุจ ูุฎุชุตุฑ ุงููุชูุญุงุช ุงููููุฉ ุงููุณูู ููุงูุญ ุงูุฃููุงุฑ ุงููุฏุณูุฉ","category":"ูุชููุน"},{"id":"liICWeY-shI","title":"ูุง ูู ุงูุจุฏุนุฉ ููุง ุงููุฑู ุจูู ุงูุจุฏุน ุงูุณูุฆุฉ ูุงูุญุณูุฉุ","publishedAt":"2025-02-17T17:31:10Z","duration":"PT17M","thumbnail":"https://i.ytimg.com/vi/liICWeY-shI/mqdefault.jpg","viewCount":"3267","playlistId":"PLEkQk5xrP-tkGXuZ9atE3k_7it12rUPTs","playlistName":"ุฃุณุฆูุฉ ุงููุชุงุจุนูู","category":"ูุชููุน"},{"id":"WzQbCYi70TE","title":"ูู ูุฌูุฒ ุงูุฐูุฑ ุจุงูููุจ ุฏูู ุชุญุฑูู ุงููุณุงูุ","publishedAt":"2025-02-16T19:17:40Z","duration":"PT10M7S","thumbnail":"https://i.ytimg.com/vi/WzQbCYi70TE/mqdefault.jpg","viewCount":"8304","playlistId":"PLEkQk5xrP-tkGXuZ9atE3k_7it12rUPTs","playlistName":"ุฃุณุฆูุฉ ุงููุชุงุจุนูู","category":"ูุชููุน"},{"id":"-0chXj_fmWs","title":"152- ุขุฏุงุจ ุงูููู - ุดุฑุญ ูุณูุฏ ุงูุฅูุงู ุฃุญูุฏ ุฑุถู ุงููู ุชุนุงูู ุนูู","publishedAt":"2025-02-16T07:11:05Z","duration":"PT14M","thumbnail":"https://i.ytimg.com/vi/-0chXj_fmWs/mqdefault.jpg","viewCount":"996","playlistId":"PLEkQk5xrP-tkKprIuGrSdEuBSMsyg5We1","playlistName":"ุดุฑุญ ูุณูุฏ ุงูุฅูุงู ุฃุญูุฏ ุจู ุญูุจู","category":"ูุชููุน"},{"id":"BgomuzQsNzw","title":"151- ุดุฑูุท ุงูุฃุถุญูุฉ | ุงูุงุณุชุนุงุฐุฉ ูู ูุชูุฉ ุงูุฏุฌุงู","publishedAt":"2025-02-15T07:30:05Z","duration":"PT43M12S","thumbnail":"https://i.ytimg.com/vi/BgomuzQsNzw/mqdefault.jpg","viewCount":"745","playlistId":"PLEkQk5xrP-tkKprIuGrSdEuBSMsyg5We1","playlistName":"ุดุฑุญ ูุณูุฏ ุงูุฅูุงู ุฃุญูุฏ ุจู ุญูุจู","category":"ูุชููุน"},{"id":"zjs6rQx_i1g","title":"ุณุจุจ ุชุญููู ุงููุจูุฉ ููุชู ุชุญููุชุ","publishedAt":"2025-02-14T19:00:10Z","duration":"PT19M54S","thumbnail":"https://i.ytimg.com/vi/zjs6rQx_i1g/mqdefault.jpg","viewCount":"1995","playlistId":"PLEkQk5xrP-tlArtGpeLWaqNM7h7IDeAVC","playlistName":"ุฎุทุจ ุงูุฌูุนุฉ ุฃ.ุฏ. ูุณุฑู ุฌุจุฑ","category":"ุฎุทุจ"},{"id":"sfChufgPpic","title":"ุฏุนุงุก ูุฅุญูุงุก ูููุฉ ุงููุตู ูู ุดุนุจุงู","publishedAt":"2025-02-13T17:01:04Z","duration":"PT25M36S","thumbnail":"https://i.ytimg.com/vi/sfChufgPpic/mqdefault.jpg","viewCount":"8123","playlistId":"PLEkQk5xrP-tm8ZIu74nTOZN9KJUJu416J","playlistName":"ููุงุทุน ููููููุฉ (ููุณุฑูููุงุช) ุฃ.ุฏ. ูุณุฑู ุฌุจุฑ","category":"ูุชููุน"},{"id":"Niw42C1NunE","title":"ูุงุฐุง ุฃูุนู ูู ูููุฉ ุงููุตู ูู ุดุนุจุงูุ","publishedAt":"2025-02-12T18:36:29Z","duration":"PT16M59S","thumbnail":"https://i.ytimg.com/vi/Niw42C1NunE/mqdefault.jpg","viewCount":"17503","playlistId":"PLEkQk5xrP-tlArtGpeLWaqNM7h7IDeAVC","playlistName":"ุฎุทุจ ุงูุฌูุนุฉ ุฃ.ุฏ. ูุณุฑู ุฌุจุฑ","category":"ุฎุทุจ"},{"id":"KFWJj3jaHnY","title":"ูุถู ูููุฉ ุงููุตู ูู ุดุนุจุงู","publishedAt":"2025-02-11T18:31:48Z","duration":"PT18M31S","thumbnail":"https://i.ytimg.com/vi/KFWJj3jaHnY/mqdefault.jpg","viewCount":"17815","playlistId":"PLEkQk5xrP-tm8ZIu74nTOZN9KJUJu416J","playlistName":"ููุงุทุน ููููููุฉ (ููุณุฑูููุงุช) ุฃ.ุฏ. ูุณุฑู ุฌุจุฑ","category":"ูุชููุน"},{"id":"xZKidzZAaes","title":"283- ููุงุณุจุฉ ุงูุขูุงุช ูุงูุณูุฑ (2) - ุดุฑุญ ุงูุฅุชูุงู ูู ุนููู ุงููุฑุขู","publishedAt":"2025-02-11T06:30:32Z","duration":"PT27M12S","thumbnail":"https://i.ytimg.com/vi/xZKidzZAaes/mqdefault.jpg","viewCount":"627","playlistId":"PLEkQk5xrP-tlPw10KGJKagu7zm4Ry2Tge","playlistName":"ุดุฑุญ ุงูุฅุชูุงู ูู ุนููู ุงููุฑุขู","category":"ุชูุณูุฑ"},{"id":"aOp-sIduhmc","title":"ูููุฉ ูุฅุฌุงุฒุฉ ุฃ.ุฏ.ูุณุฑู ุฌุจุฑ ูู ุฎุชุงู ูุฌุงูุณ ูุฑุงุกุฉ ุตุญูุญ ุงูุจุฎุงุฑู | ุฅูุฏูููุณูุง","publishedAt":"2025-02-10T18:30:06Z","duration":"PT15M40S","thumbnail":"https://i.ytimg.com/vi/aOp-sIduhmc/mqdefault.jpg","viewCount":"2083","playlistId":"PLEkQk5xrP-tmJzNvLntpzW0uPanPzxA0c","playlistName":"ููุงุกุงุช ููุญุงุถุฑุงุช","category":"ูุชููุน"}],"total":7675,"page":15,"pageSize":24,"totalPages":320}