{"items":[{"id":"6TPGQOltXVc","title":"قيمة زكاة الفطر,, ومتى تخرجها؟","publishedAt":"2023-04-19T19:00:04Z","duration":"PT10M55S","thumbnail":"https://i.ytimg.com/vi/6TPGQOltXVc/mqdefault.jpg","viewCount":"5166","playlistId":"PLEkQk5xrP-tlArtGpeLWaqNM7h7IDeAVC","playlistName":"خطب الجمعة أ.د. يسري جبر","category":"خطب"},{"id":"wq66SIv64e8","title":"درجات القرابة في الإسلام | مجالس رمضانية","publishedAt":"2023-04-19T15:00:48Z","duration":"PT43M52S","thumbnail":"https://i.ytimg.com/vi/wq66SIv64e8/mqdefault.jpg","viewCount":"1471","playlistId":"PLEkQk5xrP-tnl7vb7KeAoPd5ZlqKKW8KV","playlistName":"شرح كتاب بهجة النفوس أ.د . يسرى جبر","category":"متنوع"},{"id":"dMMpI0mO07M","title":"هل يجوز الانتفاع بجلد الميتة؟ | مجالس رمضانية","publishedAt":"2023-04-19T10:21:24Z","duration":"PT1H8M21S","thumbnail":"https://i.ytimg.com/vi/dMMpI0mO07M/mqdefault.jpg","viewCount":"742","playlistId":"PLEkQk5xrP-tnl7vb7KeAoPd5ZlqKKW8KV","playlistName":"شرح كتاب بهجة النفوس أ.د . يسرى جبر","category":"متنوع"},{"id":"ryIrH1GxkTU","title":"ما حكم من أكل ناسيا في الصيام؟ | مجالس رمضانية","publishedAt":"2023-04-18T15:00:39Z","duration":"PT43M17S","thumbnail":"https://i.ytimg.com/vi/ryIrH1GxkTU/mqdefault.jpg","viewCount":"775","playlistId":"PLEkQk5xrP-tnl7vb7KeAoPd5ZlqKKW8KV","playlistName":"شرح كتاب بهجة النفوس أ.د . يسرى جبر","category":"متنوع"},{"id":"9HqBYqbspFA","title":"ماذا سيحدث للكفار يوم القيامة؟ | مجالس رمضانية","publishedAt":"2023-04-18T10:00:09Z","duration":"PT38M52S","thumbnail":"https://i.ytimg.com/vi/9HqBYqbspFA/mqdefault.jpg","viewCount":"2175","playlistId":"PLEkQk5xrP-tnl7vb7KeAoPd5ZlqKKW8KV","playlistName":"شرح كتاب بهجة النفوس أ.د . يسرى جبر","category":"متنوع"},{"id":"oJXWL3IlZwc","title":"لماذا نهى النبي ﷺ عن النذر؟ | مجالس رمضانية","publishedAt":"2023-04-18T07:06:05Z","duration":"PT42M16S","thumbnail":"https://i.ytimg.com/vi/oJXWL3IlZwc/mqdefault.jpg","viewCount":"1062","playlistId":"PLEkQk5xrP-tnl7vb7KeAoPd5ZlqKKW8KV","playlistName":"شرح كتاب بهجة النفوس أ.د . يسرى جبر","category":"متنوع"},{"id":"OH4aafWfeAw","title":"الخلود في الجنة والنار | مجالس رمضانية","publishedAt":"2023-04-17T19:00:09Z","duration":"PT22M16S","thumbnail":"https://i.ytimg.com/vi/OH4aafWfeAw/mqdefault.jpg","viewCount":"3112","playlistId":"PLEkQk5xrP-tnl7vb7KeAoPd5ZlqKKW8KV","playlistName":"شرح كتاب بهجة النفوس أ.د . يسرى جبر","category":"متنوع"},{"id":"G_nQl4g2XWQ","title":"فضل ليلة القدر","publishedAt":"2023-04-17T15:00:11Z","duration":"PT16M55S","thumbnail":"https://i.ytimg.com/vi/G_nQl4g2XWQ/mqdefault.jpg","viewCount":"6247","playlistId":"PLEkQk5xrP-tlArtGpeLWaqNM7h7IDeAVC","playlistName":"خطب الجمعة أ.د. يسري جبر","category":"خطب"},{"id":"ocp90tmTY3k","title":"حل أزمة الفقر في مصر | ماذا لو قامت الدولة المصرية بتحصيل الزكاة؟","publishedAt":"2023-04-16T19:00:14Z","duration":"PT15M50S","thumbnail":"https://i.ytimg.com/vi/ocp90tmTY3k/mqdefault.jpg","viewCount":"2435","playlistId":"PLEkQk5xrP-tm8ZIu74nTOZN9KJUJu416J","playlistName":"مقاطع مُهمَّة (يُسريَّات) أ.د. يسري جبر","category":"متنوع"},{"id":"KxbpFG5SzyQ","title":"فضل الصدقة وأثرها على كل مسلم | مجالس رمضانية","publishedAt":"2023-04-16T15:00:22Z","duration":"PT41M19S","thumbnail":"https://i.ytimg.com/vi/KxbpFG5SzyQ/mqdefault.jpg","viewCount":"2747","playlistId":"PLEkQk5xrP-tnl7vb7KeAoPd5ZlqKKW8KV","playlistName":"شرح كتاب بهجة النفوس أ.د . يسرى جبر","category":"متنوع"},{"id":"DRknIVxS09M","title":"حال الناس يوم القيامة | مجالس رمضانية","publishedAt":"2023-04-16T10:00:08Z","duration":"PT31M45S","thumbnail":"https://i.ytimg.com/vi/DRknIVxS09M/mqdefault.jpg","viewCount":"2231","playlistId":"PLEkQk5xrP-tnl7vb7KeAoPd5ZlqKKW8KV","playlistName":"شرح كتاب بهجة النفوس أ.د . يسرى جبر","category":"متنوع"},{"id":"lpgdKoUcsj8","title":"ماذا سيحدث فى أول الدقائق يوم القيامة؟","publishedAt":"2023-04-15T19:00:17Z","duration":"PT8M53S","thumbnail":"https://i.ytimg.com/vi/lpgdKoUcsj8/mqdefault.jpg","viewCount":"8773","playlistId":"PLEkQk5xrP-tm8ZIu74nTOZN9KJUJu416J","playlistName":"مقاطع مُهمَّة (يُسريَّات) أ.د. يسري جبر","category":"متنوع"},{"id":"y2feOz9SxAA","title":"كيف سيكون شكل الناس يوم القيامة؟ | مجالس رمضانية","publishedAt":"2023-04-15T15:00:43Z","duration":"PT26M","thumbnail":"https://i.ytimg.com/vi/y2feOz9SxAA/mqdefault.jpg","viewCount":"4023","playlistId":"PLEkQk5xrP-tnl7vb7KeAoPd5ZlqKKW8KV","playlistName":"شرح كتاب بهجة النفوس أ.د . يسرى جبر","category":"متنوع"},{"id":"PgrMb_LKmGA","title":"51- بيان مَن جمع القرآن ومَن اشتهر بإقرائه - شرح الإتقان في علوم القرآن","publishedAt":"2023-04-15T10:01:00Z","duration":"PT25M48S","thumbnail":"https://i.ytimg.com/vi/PgrMb_LKmGA/mqdefault.jpg","viewCount":"691","playlistId":"PLEkQk5xrP-tlPw10KGJKagu7zm4Ry2Tge","playlistName":"شرح الإتقان في علوم القرآن","category":"تفسير"},{"id":"l0nUwPs1evo","title":"لو حاسس أني ضيعت رمضان أعمل إيه فيما تبقى؟","publishedAt":"2023-04-14T19:00:28Z","duration":"PT9M47S","thumbnail":"https://i.ytimg.com/vi/l0nUwPs1evo/mqdefault.jpg","viewCount":"9906","playlistId":"PLEkQk5xrP-tlArtGpeLWaqNM7h7IDeAVC","playlistName":"خطب الجمعة أ.د. يسري جبر","category":"خطب"},{"id":"44H46W09p6E","title":"وصف أرض المحشر يوم القيامة | مجالس رمضانية","publishedAt":"2023-04-14T15:00:06Z","duration":"PT36M5S","thumbnail":"https://i.ytimg.com/vi/44H46W09p6E/mqdefault.jpg","viewCount":"2839","playlistId":"PLEkQk5xrP-tnl7vb7KeAoPd5ZlqKKW8KV","playlistName":"شرح كتاب بهجة النفوس أ.د . يسرى جبر","category":"متنوع"},{"id":"5499_-C2v8Y","title":"ما حكم سب الأموات؟ | مجالس رمضانية","publishedAt":"2023-04-14T10:00:04Z","duration":"PT30M31S","thumbnail":"https://i.ytimg.com/vi/5499_-C2v8Y/mqdefault.jpg","viewCount":"882","playlistId":"PLEkQk5xrP-tnl7vb7KeAoPd5ZlqKKW8KV","playlistName":"شرح كتاب بهجة النفوس أ.د . يسرى جبر","category":"متنوع"},{"id":"2Pfx7TdQX00","title":"فضل المداومة على ذكر الله","publishedAt":"2023-04-13T19:00:01Z","duration":"PT12M10S","thumbnail":"https://i.ytimg.com/vi/2Pfx7TdQX00/mqdefault.jpg","viewCount":"21182","playlistId":"PLEkQk5xrP-tm8ZIu74nTOZN9KJUJu416J","playlistName":"مقاطع مُهمَّة (يُسريَّات) أ.د. يسري جبر","category":"متنوع"},{"id":"MwKFESYF3GU","title":"فرح المؤمن عند لقاء ربه | مجالس رمضانية","publishedAt":"2023-04-13T15:00:12Z","duration":"PT27M45S","thumbnail":"https://i.ytimg.com/vi/MwKFESYF3GU/mqdefault.jpg","viewCount":"1617","playlistId":"PLEkQk5xrP-tnl7vb7KeAoPd5ZlqKKW8KV","playlistName":"شرح كتاب بهجة النفوس أ.د . يسرى جبر","category":"متنوع"},{"id":"nVN9BTbjeyY","title":"ما هى أنواع الذكر؟ | مجالس رمضانية","publishedAt":"2023-04-13T10:00:39Z","duration":"PT29M3S","thumbnail":"https://i.ytimg.com/vi/nVN9BTbjeyY/mqdefault.jpg","viewCount":"2726","playlistId":"PLEkQk5xrP-tnl7vb7KeAoPd5ZlqKKW8KV","playlistName":"شرح كتاب بهجة النفوس أ.د . يسرى جبر","category":"متنوع"},{"id":"MZCMZJZ-ogU","title":"ما حكم سماع الأغاني في رمضان؟","publishedAt":"2023-04-12T19:00:07Z","duration":"PT9M56S","thumbnail":"https://i.ytimg.com/vi/MZCMZJZ-ogU/mqdefault.jpg","viewCount":"6549","playlistId":"PLEkQk5xrP-tkGXuZ9atE3k_7it12rUPTs","playlistName":"أسئلة المتابعين","category":"متنوع"},{"id":"dHGpirZmLaU","title":"هل يفرح الله بتوبة عباده؟ | مجالس رمضانية","publishedAt":"2023-04-12T15:00:25Z","duration":"PT55M15S","thumbnail":"https://i.ytimg.com/vi/dHGpirZmLaU/mqdefault.jpg","viewCount":"1515","playlistId":"PLEkQk5xrP-tnl7vb7KeAoPd5ZlqKKW8KV","playlistName":"شرح كتاب بهجة النفوس أ.د . يسرى جبر","category":"متنوع"},{"id":"ubrQ4rC1gxI","title":"الخوف من الذنب | مجالس رمضانية","publishedAt":"2023-04-12T10:00:42Z","duration":"PT47M10S","thumbnail":"https://i.ytimg.com/vi/ubrQ4rC1gxI/mqdefault.jpg","viewCount":"2143","playlistId":"PLEkQk5xrP-tnl7vb7KeAoPd5ZlqKKW8KV","playlistName":"شرح كتاب بهجة النفوس أ.د . يسرى جبر","category":"متنوع"},{"id":"5QHuwh7bKHk","title":"حكم الحلف بالنبي ﷺ والحلف بغير الله وما الفرق؟","publishedAt":"2023-04-11T19:00:06Z","duration":"PT11M18S","thumbnail":"https://i.ytimg.com/vi/5QHuwh7bKHk/mqdefault.jpg","viewCount":"4671","playlistId":"PLEkQk5xrP-tkGXuZ9atE3k_7it12rUPTs","playlistName":"أسئلة المتابعين","category":"متنوع"}],"total":7675,"page":58,"pageSize":24,"totalPages":320}