{"items":[{"id":"EJ8w38iAtIw","title":"شرح سنن الدارمي كتاب الديات من باب ٥","publishedAt":"2019-08-21T18:16:43Z","duration":"PT32M58S","thumbnail":"https://i.ytimg.com/vi/EJ8w38iAtIw/mqdefault.jpg","viewCount":"300","playlistId":"PLEkQk5xrP-tmAg-FuWjY057X_h5NmGmAa","playlistName":"شرح سنن الدارمي - أ.د. يسري جبر (كاملا)","category":"متنوع"},{"id":"42rWRT9_NVs","title":"شرح البرهان في علوم القرآن - فصل في علوم القرآن","publishedAt":"2019-08-21T09:15:42Z","duration":"PT27M34S","thumbnail":"https://i.ytimg.com/vi/42rWRT9_NVs/mqdefault.jpg","viewCount":"4163","playlistId":"PLEkQk5xrP-tnW3iBL7HkKziOFCFZbTlf0","playlistName":"شرح البرهان في علوم القرآن - أ.د. يسري جبر","category":"تفسير"},{"id":"d-0ex34wNaI","title":"شرح سنن الدارمي كتاب الديات من أوله","publishedAt":"2019-08-20T17:21:49Z","duration":"PT30M9S","thumbnail":"https://i.ytimg.com/vi/d-0ex34wNaI/mqdefault.jpg","viewCount":"367","playlistId":"PLEkQk5xrP-tmAg-FuWjY057X_h5NmGmAa","playlistName":"شرح سنن الدارمي - أ.د. يسري جبر (كاملا)","category":"متنوع"},{"id":"Z9iOZ43j4a0","title":"شرح البرهان في علوم القرآن - فصل في علم التفسير","publishedAt":"2019-08-20T07:21:52Z","duration":"PT36M23S","thumbnail":"https://i.ytimg.com/vi/Z9iOZ43j4a0/mqdefault.jpg","viewCount":"6544","playlistId":"PLEkQk5xrP-tnW3iBL7HkKziOFCFZbTlf0","playlistName":"شرح البرهان في علوم القرآن - أ.د. يسري جبر","category":"تفسير"},{"id":"lv050bJwBDM","title":"شرح سنن الدارمي كتاب النذور والأيمان من أوله","publishedAt":"2019-08-19T16:26:00Z","duration":"PT24M31S","thumbnail":"https://i.ytimg.com/vi/lv050bJwBDM/mqdefault.jpg","viewCount":"339","playlistId":"PLEkQk5xrP-tmAg-FuWjY057X_h5NmGmAa","playlistName":"شرح سنن الدارمي - أ.د. يسري جبر (كاملا)","category":"متنوع"},{"id":"VB0Aunmfr34","title":"شرح البرهان في علوم القرآن - تكملة مقدمة المؤلف","publishedAt":"2019-08-19T09:41:00Z","duration":"PT29M23S","thumbnail":"https://i.ytimg.com/vi/VB0Aunmfr34/mqdefault.jpg","viewCount":"5693","playlistId":"PLEkQk5xrP-tnW3iBL7HkKziOFCFZbTlf0","playlistName":"شرح البرهان في علوم القرآن - أ.د. يسري جبر","category":"تفسير"},{"id":"P8l-RNMEK2I","title":"شرح سنن الدارمي كتاب الحدود من باب ١٥","publishedAt":"2019-08-18T17:34:32Z","duration":"PT30M56S","thumbnail":"https://i.ytimg.com/vi/P8l-RNMEK2I/mqdefault.jpg","viewCount":"417","playlistId":"PLEkQk5xrP-tmAg-FuWjY057X_h5NmGmAa","playlistName":"شرح سنن الدارمي - أ.د. يسري جبر (كاملا)","category":"متنوع"},{"id":"OzL4hAp9YOE","title":"شرح البرهان في علوم القرآن - مقدمة المؤلف","publishedAt":"2019-08-18T11:26:07Z","duration":"PT34M46S","thumbnail":"https://i.ytimg.com/vi/OzL4hAp9YOE/mqdefault.jpg","viewCount":"15773","playlistId":"PLEkQk5xrP-tnW3iBL7HkKziOFCFZbTlf0","playlistName":"شرح البرهان في علوم القرآن - أ.د. يسري جبر","category":"تفسير"},{"id":"Hx19thMT_Fc","title":"شرح سنن الدارمي كتاب الحدود من باب ١٢","publishedAt":"2019-08-18T09:41:13Z","duration":"PT27M7S","thumbnail":"https://i.ytimg.com/vi/Hx19thMT_Fc/mqdefault.jpg","viewCount":"228","playlistId":"PLEkQk5xrP-tmAg-FuWjY057X_h5NmGmAa","playlistName":"شرح سنن الدارمي - أ.د. يسري جبر (كاملا)","category":"متنوع"},{"id":"rUn5bwp14Yc","title":"مقرأة سورة الناس من أولها","publishedAt":"2019-08-17T22:07:10Z","duration":"PT26M56S","thumbnail":"https://i.ytimg.com/vi/rUn5bwp14Yc/mqdefault.jpg","viewCount":"2269","playlistId":"PLEkQk5xrP-tnmTYsyW6xNdyfhPq0Bhrhj","playlistName":"مقرأة الفجر - القُرْآنُ الكَرِيمُ - خَتْمَةُ التَّدَبُّرِ  أ.د. يسري جبر","category":"متنوع"},{"id":"zQdjh27Zob0","title":"شرح سنن الدارمي كتاب الحدود من باب ٧","publishedAt":"2019-08-17T17:09:43Z","duration":"PT30M41S","thumbnail":"https://i.ytimg.com/vi/zQdjh27Zob0/mqdefault.jpg","viewCount":"311","playlistId":"PLEkQk5xrP-tmAg-FuWjY057X_h5NmGmAa","playlistName":"شرح سنن الدارمي - أ.د. يسري جبر (كاملا)","category":"متنوع"},{"id":"O8A484glFRM","title":"مقرأة سورة الفلق من أولها","publishedAt":"2019-08-17T11:23:10Z","duration":"PT14M22S","thumbnail":"https://i.ytimg.com/vi/O8A484glFRM/mqdefault.jpg","viewCount":"1294","playlistId":"PLEkQk5xrP-tnmTYsyW6xNdyfhPq0Bhrhj","playlistName":"مقرأة الفجر - القُرْآنُ الكَرِيمُ - خَتْمَةُ التَّدَبُّرِ  أ.د. يسري جبر","category":"متنوع"},{"id":"xR3ma_nKRcc","title":"شرح سنن الدارمي كتاب الحدود من أوله","publishedAt":"2019-08-16T22:02:28Z","duration":"PT34M38S","thumbnail":"https://i.ytimg.com/vi/xR3ma_nKRcc/mqdefault.jpg","viewCount":"413","playlistId":"PLEkQk5xrP-tmAg-FuWjY057X_h5NmGmAa","playlistName":"شرح سنن الدارمي - أ.د. يسري جبر (كاملا)","category":"متنوع"},{"id":"n3WrpYSmDis","title":"مقرأة سورة الإخلاص من أولها","publishedAt":"2019-08-16T16:23:50Z","duration":"PT13M22S","thumbnail":"https://i.ytimg.com/vi/n3WrpYSmDis/mqdefault.jpg","viewCount":"1838","playlistId":"PLEkQk5xrP-tnmTYsyW6xNdyfhPq0Bhrhj","playlistName":"مقرأة الفجر - القُرْآنُ الكَرِيمُ - خَتْمَةُ التَّدَبُّرِ  أ.د. يسري جبر","category":"متنوع"},{"id":"o9xlJwtCjBs","title":"شرح سنن الدارمي كتاب الطلا‎ق من باب ١٢","publishedAt":"2019-08-16T11:34:54Z","duration":"PT36M14S","thumbnail":"https://i.ytimg.com/vi/o9xlJwtCjBs/mqdefault.jpg","viewCount":"376","playlistId":"PLEkQk5xrP-tmAg-FuWjY057X_h5NmGmAa","playlistName":"شرح سنن الدارمي - أ.د. يسري جبر (كاملا)","category":"متنوع"},{"id":"1LW1kCy2McA","title":"مقرأة سورة المسد من أولها","publishedAt":"2019-08-16T04:14:58Z","duration":"PT20M6S","thumbnail":"https://i.ytimg.com/vi/1LW1kCy2McA/mqdefault.jpg","viewCount":"901","playlistId":"PLEkQk5xrP-tnmTYsyW6xNdyfhPq0Bhrhj","playlistName":"مقرأة الفجر - القُرْآنُ الكَرِيمُ - خَتْمَةُ التَّدَبُّرِ  أ.د. يسري جبر","category":"متنوع"},{"id":"kiEcQlsN10k","title":"شرح سنن الدارمي كتاب الطلا‎ق من باب ٧","publishedAt":"2019-08-15T16:34:40Z","duration":"PT35M52S","thumbnail":"https://i.ytimg.com/vi/kiEcQlsN10k/mqdefault.jpg","viewCount":"337","playlistId":"PLEkQk5xrP-tmAg-FuWjY057X_h5NmGmAa","playlistName":"شرح سنن الدارمي - أ.د. يسري جبر (كاملا)","category":"متنوع"},{"id":"jXLBGkeyk5Y","title":"مقرأة سورة النصر من أولها","publishedAt":"2019-08-15T10:21:57Z","duration":"PT5M2S","thumbnail":"https://i.ytimg.com/vi/jXLBGkeyk5Y/mqdefault.jpg","viewCount":"641","playlistId":"PLEkQk5xrP-tnmTYsyW6xNdyfhPq0Bhrhj","playlistName":"مقرأة الفجر - القُرْآنُ الكَرِيمُ - خَتْمَةُ التَّدَبُّرِ  أ.د. يسري جبر","category":"متنوع"},{"id":"YDPjh_hySJQ","title":"شرح سنن الدارمي كتاب الطلا‎ق من أوله","publishedAt":"2019-08-15T04:17:16Z","duration":"PT32M34S","thumbnail":"https://i.ytimg.com/vi/YDPjh_hySJQ/mqdefault.jpg","viewCount":"276","playlistId":"PLEkQk5xrP-tmAg-FuWjY057X_h5NmGmAa","playlistName":"شرح سنن الدارمي - أ.د. يسري جبر (كاملا)","category":"متنوع"},{"id":"MLh50WimpSI","title":"مقرأة سورة الكافرون من أولها","publishedAt":"2019-08-14T22:36:21Z","duration":"PT5M42S","thumbnail":"https://i.ytimg.com/vi/MLh50WimpSI/mqdefault.jpg","viewCount":"546","playlistId":"PLEkQk5xrP-tnmTYsyW6xNdyfhPq0Bhrhj","playlistName":"مقرأة الفجر - القُرْآنُ الكَرِيمُ - خَتْمَةُ التَّدَبُّرِ  أ.د. يسري جبر","category":"متنوع"},{"id":"jB6msMShj90","title":"شرح سنن الدارمي كتاب النكاح من باب ٥١","publishedAt":"2019-08-14T14:09:38Z","duration":"PT42M10S","thumbnail":"https://i.ytimg.com/vi/jB6msMShj90/mqdefault.jpg","viewCount":"407","playlistId":"PLEkQk5xrP-tmAg-FuWjY057X_h5NmGmAa","playlistName":"شرح سنن الدارمي - أ.د. يسري جبر (كاملا)","category":"متنوع"},{"id":"KlXupWwB9PM","title":"مقرأة سورة الكوثر من أولها","publishedAt":"2019-08-14T08:12:21Z","duration":"PT7M48S","thumbnail":"https://i.ytimg.com/vi/KlXupWwB9PM/mqdefault.jpg","viewCount":"928","playlistId":"PLEkQk5xrP-tnmTYsyW6xNdyfhPq0Bhrhj","playlistName":"مقرأة الفجر - القُرْآنُ الكَرِيمُ - خَتْمَةُ التَّدَبُّرِ  أ.د. يسري جبر","category":"متنوع"},{"id":"brbBhkuLyoA","title":"شرح سنن الدارمي كتاب النكاح من باب ٤٨","publishedAt":"2019-08-13T19:41:06Z","duration":"PT33M18S","thumbnail":"https://i.ytimg.com/vi/brbBhkuLyoA/mqdefault.jpg","viewCount":"452","playlistId":"PLEkQk5xrP-tmAg-FuWjY057X_h5NmGmAa","playlistName":"شرح سنن الدارمي - أ.د. يسري جبر (كاملا)","category":"متنوع"},{"id":"tzytPbeXfpk","title":"مقرأة سورة الماعون من أولها","publishedAt":"2019-08-13T11:07:32Z","duration":"PT17M8S","thumbnail":"https://i.ytimg.com/vi/tzytPbeXfpk/mqdefault.jpg","viewCount":"722","playlistId":"PLEkQk5xrP-tnmTYsyW6xNdyfhPq0Bhrhj","playlistName":"مقرأة الفجر - القُرْآنُ الكَرِيمُ - خَتْمَةُ التَّدَبُّرِ  أ.د. يسري جبر","category":"متنوع"}],"total":7675,"page":172,"pageSize":24,"totalPages":320}