{"items":[{"id":"6ab8M6awrkk","title":"مقرأة سورة العلق من أولها","publishedAt":"2019-07-29T10:01:54Z","duration":"PT21M50S","thumbnail":"https://i.ytimg.com/vi/6ab8M6awrkk/mqdefault.jpg","viewCount":"1035","playlistId":"PLEkQk5xrP-tnmTYsyW6xNdyfhPq0Bhrhj","playlistName":"مقرأة الفجر - القُرْآنُ الكَرِيمُ - خَتْمَةُ التَّدَبُّرِ  أ.د. يسري جبر","category":"متنوع"},{"id":"aUkavjOWpKQ","title":"شرح سنن الدارمي كتاب الأطعمة من باب ١٨","publishedAt":"2019-07-28T21:44:38Z","duration":"PT36M10S","thumbnail":"https://i.ytimg.com/vi/aUkavjOWpKQ/mqdefault.jpg","viewCount":"491","playlistId":"PLEkQk5xrP-tmAg-FuWjY057X_h5NmGmAa","playlistName":"شرح سنن الدارمي - أ.د. يسري جبر (كاملا)","category":"متنوع"},{"id":"BDJGsTO4Yvg","title":"كَيفيَّة الحَجِّ وأفضلها  أ.د. يسري جبر","publishedAt":"2019-07-28T15:28:12Z","duration":"PT40M25S","thumbnail":"https://i.ytimg.com/vi/BDJGsTO4Yvg/mqdefault.jpg","viewCount":"1464","playlistId":"PLEkQk5xrP-tlArtGpeLWaqNM7h7IDeAVC","playlistName":"خطب الجمعة أ.د. يسري جبر","category":"خطب"},{"id":"SG9Dxhixqlg","title":"مقرأة سورة التين من أولها","publishedAt":"2019-07-28T11:28:41Z","duration":"PT14M38S","thumbnail":"https://i.ytimg.com/vi/SG9Dxhixqlg/mqdefault.jpg","viewCount":"724","playlistId":"PLEkQk5xrP-tnmTYsyW6xNdyfhPq0Bhrhj","playlistName":"مقرأة الفجر - القُرْآنُ الكَرِيمُ - خَتْمَةُ التَّدَبُّرِ  أ.د. يسري جبر","category":"متنوع"},{"id":"_v8rpWFF-cU","title":"شرح سنن الدارمي كتاب الأطعمة من باب ٣٠","publishedAt":"2019-07-28T06:27:53Z","duration":"PT28M","thumbnail":"https://i.ytimg.com/vi/_v8rpWFF-cU/mqdefault.jpg","viewCount":"211","playlistId":"PLEkQk5xrP-tmAg-FuWjY057X_h5NmGmAa","playlistName":"شرح سنن الدارمي - أ.د. يسري جبر (كاملا)","category":"متنوع"},{"id":"vaGOHWJ-UDo","title":"الرسالة القشيرية - المجلس (59) بابُ القَنَاعَة. أ.د. يسري جبر","publishedAt":"2019-07-27T17:26:28Z","duration":"PT50M44S","thumbnail":"https://i.ytimg.com/vi/vaGOHWJ-UDo/mqdefault.jpg","viewCount":"5262","playlistId":"PLEkQk5xrP-tkHAGOwIKr4pc5ehhyQ5HMJ","playlistName":"كتاب الرسالة القشيرية (تصوف) - د. يسري جبر","category":"تصوف"},{"id":"hcrUS9Web0E","title":"شرح سنن الدارمي كتاب الأطعمة من باب١١","publishedAt":"2019-07-25T19:56:28Z","duration":"PT33M43S","thumbnail":"https://i.ytimg.com/vi/hcrUS9Web0E/mqdefault.jpg","viewCount":"526","playlistId":"PLEkQk5xrP-tmAg-FuWjY057X_h5NmGmAa","playlistName":"شرح سنن الدارمي - أ.د. يسري جبر (كاملا)","category":"متنوع"},{"id":"Srjp2NhG4LQ","title":"مقرأة سورة الشرح من أولها","publishedAt":"2019-07-25T10:46:57Z","duration":"PT20M22S","thumbnail":"https://i.ytimg.com/vi/Srjp2NhG4LQ/mqdefault.jpg","viewCount":"1433","playlistId":"PLEkQk5xrP-tnmTYsyW6xNdyfhPq0Bhrhj","playlistName":"مقرأة الفجر - القُرْآنُ الكَرِيمُ - خَتْمَةُ التَّدَبُّرِ  أ.د. يسري جبر","category":"متنوع"},{"id":"0m1IR4ffrs8","title":"شرح سنن الدارمي كتاب الأطعمة من أوله","publishedAt":"2019-07-24T22:38:27Z","duration":"PT27M22S","thumbnail":"https://i.ytimg.com/vi/0m1IR4ffrs8/mqdefault.jpg","viewCount":"458","playlistId":"PLEkQk5xrP-tmAg-FuWjY057X_h5NmGmAa","playlistName":"شرح سنن الدارمي - أ.د. يسري جبر (كاملا)","category":"متنوع"},{"id":"aEQsCHpYZ18","title":"مقرأة سورة الضحی من أولها","publishedAt":"2019-07-24T09:12:30Z","duration":"PT14M47S","thumbnail":"https://i.ytimg.com/vi/aEQsCHpYZ18/mqdefault.jpg","viewCount":"1120","playlistId":"PLEkQk5xrP-tnmTYsyW6xNdyfhPq0Bhrhj","playlistName":"مقرأة الفجر - القُرْآنُ الكَرِيمُ - خَتْمَةُ التَّدَبُّرِ  أ.د. يسري جبر","category":"متنوع"},{"id":"jSvHRsHN0a0","title":"شرح سنن الدارمي كتاب الصيد من أوله","publishedAt":"2019-07-23T22:15:23Z","duration":"PT30M25S","thumbnail":"https://i.ytimg.com/vi/jSvHRsHN0a0/mqdefault.jpg","viewCount":"371","playlistId":"PLEkQk5xrP-tmAg-FuWjY057X_h5NmGmAa","playlistName":"شرح سنن الدارمي - أ.د. يسري جبر (كاملا)","category":"متنوع"},{"id":"n4fEpeYvVCw","title":"علاقة الرُّوح بالجسد من حيث الاتصال والانفصال","publishedAt":"2019-07-23T18:00:43Z","duration":"PT2M37S","thumbnail":"https://i.ytimg.com/vi/n4fEpeYvVCw/mqdefault.jpg","viewCount":"1980","playlistId":"PLEkQk5xrP-tm8ZIu74nTOZN9KJUJu416J","playlistName":"مقاطع مُهمَّة (يُسريَّات) أ.د. يسري جبر","category":"متنوع"},{"id":"L5CTdHKSD6U","title":"شرح صحيح الإمام البخاري رضي الله تعالى عنه - كتابُِ الأَحْكَامِ أ.د. يسري جبر","publishedAt":"2019-07-23T11:33:47Z","duration":"PT36M47S","thumbnail":"https://i.ytimg.com/vi/L5CTdHKSD6U/mqdefault.jpg","viewCount":"427","playlistId":"PLEkQk5xrP-tmJuzaj4GWRenFoFx9gdbFX","playlistName":"شرح كتاب صحيح الإمام البخاري رضي الله تعالى عنه   أ.د. يسرى جبر","category":"حديث"},{"id":"SAz9palSlyI","title":"مقرأة سورة الليل من أولها","publishedAt":"2019-07-23T10:46:58Z","duration":"PT19M44S","thumbnail":"https://i.ytimg.com/vi/SAz9palSlyI/mqdefault.jpg","viewCount":"638","playlistId":"PLEkQk5xrP-tnmTYsyW6xNdyfhPq0Bhrhj","playlistName":"مقرأة الفجر - القُرْآنُ الكَرِيمُ - خَتْمَةُ التَّدَبُّرِ  أ.د. يسري جبر","category":"متنوع"},{"id":"0ILP5gFk1gI","title":"شرح سنن الدارمي كتاب الأضاحي من باب ١٩","publishedAt":"2019-07-22T20:56:28Z","duration":"PT34M3S","thumbnail":"https://i.ytimg.com/vi/0ILP5gFk1gI/mqdefault.jpg","viewCount":"319","playlistId":"PLEkQk5xrP-tmAg-FuWjY057X_h5NmGmAa","playlistName":"شرح سنن الدارمي - أ.د. يسري جبر (كاملا)","category":"متنوع"},{"id":"68wcmyJYXNc","title":"مقرأة سورة الشمس من أولها","publishedAt":"2019-07-22T09:07:41Z","duration":"PT16M7S","thumbnail":"https://i.ytimg.com/vi/68wcmyJYXNc/mqdefault.jpg","viewCount":"589","playlistId":"PLEkQk5xrP-tnmTYsyW6xNdyfhPq0Bhrhj","playlistName":"مقرأة الفجر - القُرْآنُ الكَرِيمُ - خَتْمَةُ التَّدَبُّرِ  أ.د. يسري جبر","category":"متنوع"},{"id":"j4Z-Sr-cRPo","title":"اعْبُدْ رَبَّكَ كَمَا يُرِيدُ لَا كَمَا تُرِيدُ.  أ.د. يسري جبر","publishedAt":"2019-07-21T17:37:59Z","duration":"PT44M40S","thumbnail":"https://i.ytimg.com/vi/j4Z-Sr-cRPo/mqdefault.jpg","viewCount":"5427","playlistId":"PLEkQk5xrP-tlArtGpeLWaqNM7h7IDeAVC","playlistName":"خطب الجمعة أ.د. يسري جبر","category":"خطب"},{"id":"0w5gqtXvYCY","title":"شرح سنن الدارمي كتاب الأضاحي من باب ١٠","publishedAt":"2019-07-21T16:00:42Z","duration":"PT30M11S","thumbnail":"https://i.ytimg.com/vi/0w5gqtXvYCY/mqdefault.jpg","viewCount":"326","playlistId":"PLEkQk5xrP-tmAg-FuWjY057X_h5NmGmAa","playlistName":"شرح سنن الدارمي - أ.د. يسري جبر (كاملا)","category":"متنوع"},{"id":"coq1V_cD880","title":"مقرأة سورة البلد من أولها","publishedAt":"2019-07-21T08:16:27Z","duration":"PT18M1S","thumbnail":"https://i.ytimg.com/vi/coq1V_cD880/mqdefault.jpg","viewCount":"672","playlistId":"PLEkQk5xrP-tnmTYsyW6xNdyfhPq0Bhrhj","playlistName":"مقرأة الفجر - القُرْآنُ الكَرِيمُ - خَتْمَةُ التَّدَبُّرِ  أ.د. يسري جبر","category":"متنوع"},{"id":"XQZHYD3kKDY","title":"الرسالة القشيرية - المجلس (58) بابُ الحَسَدِ وبابُ الغِيبَة أ.د. يسري جبر","publishedAt":"2019-07-20T19:09:20Z","duration":"PT47M30S","thumbnail":"https://i.ytimg.com/vi/XQZHYD3kKDY/mqdefault.jpg","viewCount":"6754","playlistId":"PLEkQk5xrP-tkHAGOwIKr4pc5ehhyQ5HMJ","playlistName":"كتاب الرسالة القشيرية (تصوف) - د. يسري جبر","category":"تصوف"},{"id":"Wxn8nvIXm6I","title":"شرح سنن الدارمي كتاب الأضاحي من باب ٨","publishedAt":"2019-07-18T17:43:22Z","duration":"PT23M28S","thumbnail":"https://i.ytimg.com/vi/Wxn8nvIXm6I/mqdefault.jpg","viewCount":"403","playlistId":"PLEkQk5xrP-tmAg-FuWjY057X_h5NmGmAa","playlistName":"شرح سنن الدارمي - أ.د. يسري جبر (كاملا)","category":"متنوع"},{"id":"X1NUbcJD5co","title":"مقرأة سورة الفجر من آية ١٥","publishedAt":"2019-07-18T11:03:08Z","duration":"PT23M1S","thumbnail":"https://i.ytimg.com/vi/X1NUbcJD5co/mqdefault.jpg","viewCount":"658","playlistId":"PLEkQk5xrP-tnmTYsyW6xNdyfhPq0Bhrhj","playlistName":"مقرأة الفجر - القُرْآنُ الكَرِيمُ - خَتْمَةُ التَّدَبُّرِ  أ.د. يسري جبر","category":"متنوع"},{"id":"RNcdBqpXmUU","title":"شرح سنن الدارمي كتاب الأضاحي من أوله","publishedAt":"2019-07-18T07:58:41Z","duration":"PT33M43S","thumbnail":"https://i.ytimg.com/vi/RNcdBqpXmUU/mqdefault.jpg","viewCount":"301","playlistId":"PLEkQk5xrP-tmAg-FuWjY057X_h5NmGmAa","playlistName":"شرح سنن الدارمي - أ.د. يسري جبر (كاملا)","category":"متنوع"},{"id":"UIOYQExZrN0","title":"مقرأة سورة الفجر من أولها","publishedAt":"2019-07-17T10:12:34Z","duration":"PT15M45S","thumbnail":"https://i.ytimg.com/vi/UIOYQExZrN0/mqdefault.jpg","viewCount":"823","playlistId":"PLEkQk5xrP-tnmTYsyW6xNdyfhPq0Bhrhj","playlistName":"مقرأة الفجر - القُرْآنُ الكَرِيمُ - خَتْمَةُ التَّدَبُّرِ  أ.د. يسري جبر","category":"متنوع"}],"total":7675,"page":174,"pageSize":24,"totalPages":320}