{"items":[{"id":"SSz1MxzNlTc","title":"ما حكم الذكر بدون حضور القلب؟","publishedAt":"2023-04-02T19:00:09Z","duration":"PT8M53S","thumbnail":"https://i.ytimg.com/vi/SSz1MxzNlTc/mqdefault.jpg","viewCount":"27700","playlistId":"PLEkQk5xrP-tkGXuZ9atE3k_7it12rUPTs","playlistName":"أسئلة المتابعين","category":"متنوع"},{"id":"HJdwhCnDcyI","title":"ما حكم سب الدهر؟ | مجالس رمضانية","publishedAt":"2023-04-02T15:08:08Z","duration":"PT46M42S","thumbnail":"https://i.ytimg.com/vi/HJdwhCnDcyI/mqdefault.jpg","viewCount":"1435","playlistId":"PLEkQk5xrP-tnl7vb7KeAoPd5ZlqKKW8KV","playlistName":"شرح كتاب بهجة النفوس أ.د . يسرى جبر","category":"متنوع"},{"id":"93HDugg_g34","title":"421- ما كُنَّا نَأخُذُ مِن لُقْمةٍ إلَّا رَبَا مِن أسفَلِها - بركة طعام الصالحين والاجتماع عليه","publishedAt":"2023-04-02T05:05:00Z","duration":"PT33M22S","thumbnail":"https://i.ytimg.com/vi/93HDugg_g34/mqdefault.jpg","viewCount":"894","playlistId":"PLEkQk5xrP-tkc9DXvSLguqX5-FYp6ASR4","playlistName":"دليل الفالحين لطرق رياض الصالحين","category":"متنوع"},{"id":"hYGR5FU6LeI","title":"هل استعمال البنج الكلي أو الموضعي يفسد الصيام؟","publishedAt":"2023-04-01T19:00:15Z","duration":"PT13M8S","thumbnail":"https://i.ytimg.com/vi/hYGR5FU6LeI/mqdefault.jpg","viewCount":"2788","playlistId":"PLEkQk5xrP-tkGXuZ9atE3k_7it12rUPTs","playlistName":"أسئلة المتابعين","category":"متنوع"},{"id":"gSrvVHl4Xpc","title":"عواقب الألفاظ الخبيثة | مجالس رمضانية","publishedAt":"2023-04-01T15:00:22Z","duration":"PT47M3S","thumbnail":"https://i.ytimg.com/vi/gSrvVHl4Xpc/mqdefault.jpg","viewCount":"4178","playlistId":"PLEkQk5xrP-tnl7vb7KeAoPd5ZlqKKW8KV","playlistName":"شرح كتاب بهجة النفوس أ.د . يسرى جبر","category":"متنوع"},{"id":"bPpjcpj2Zp8","title":"46- عدد سور القرآن وآياته وكلماته وحروفه  - شرح الإتقان في علوم القرآن","publishedAt":"2023-04-01T05:00:12Z","duration":"PT24M43S","thumbnail":"https://i.ytimg.com/vi/bPpjcpj2Zp8/mqdefault.jpg","viewCount":"1078","playlistId":"PLEkQk5xrP-tlPw10KGJKagu7zm4Ry2Tge","playlistName":"شرح الإتقان في علوم القرآن","category":"تفسير"},{"id":"ZcR0IRnKNAo","title":"كيف تغتنم ليالي رمضان؟","publishedAt":"2023-03-31T19:00:17Z","duration":"PT8M23S","thumbnail":"https://i.ytimg.com/vi/ZcR0IRnKNAo/mqdefault.jpg","viewCount":"5449","playlistId":"PLEkQk5xrP-tlArtGpeLWaqNM7h7IDeAVC","playlistName":"خطب الجمعة أ.د. يسري جبر","category":"خطب"},{"id":"rEPdGBI_7A4","title":"عقوبة الغدر والخيانة | مجالس رمضانية","publishedAt":"2023-03-31T15:00:41Z","duration":"PT39M27S","thumbnail":"https://i.ytimg.com/vi/rEPdGBI_7A4/mqdefault.jpg","viewCount":"1706","playlistId":"PLEkQk5xrP-tnl7vb7KeAoPd5ZlqKKW8KV","playlistName":"شرح كتاب بهجة النفوس أ.د . يسرى جبر","category":"متنوع"},{"id":"IniGToUyha8","title":"420- كرامات الأولياء وفضلهم - شرح دليل الفالحين","publishedAt":"2023-03-31T05:00:07Z","duration":"PT31M25S","thumbnail":"https://i.ytimg.com/vi/IniGToUyha8/mqdefault.jpg","viewCount":"1741","playlistId":"PLEkQk5xrP-tkc9DXvSLguqX5-FYp6ASR4","playlistName":"دليل الفالحين لطرق رياض الصالحين","category":"متنوع"},{"id":"L6TpFMwrARY","title":"هل يجوز الاستماع الى الأغاني والموسيقى؟","publishedAt":"2023-03-30T19:00:09Z","duration":"PT8M12S","thumbnail":"https://i.ytimg.com/vi/L6TpFMwrARY/mqdefault.jpg","viewCount":"23785","playlistId":"PLEkQk5xrP-tkGXuZ9atE3k_7it12rUPTs","playlistName":"أسئلة المتابعين","category":"متنوع"},{"id":"hq4o9O4Lcv8","title":"حكم الاستماع للموسيقى والشعر | مجالس رمضانية","publishedAt":"2023-03-30T15:00:35Z","duration":"PT46M4S","thumbnail":"https://i.ytimg.com/vi/hq4o9O4Lcv8/mqdefault.jpg","viewCount":"1753","playlistId":"PLEkQk5xrP-tnl7vb7KeAoPd5ZlqKKW8KV","playlistName":"شرح كتاب بهجة النفوس أ.د . يسرى جبر","category":"متنوع"},{"id":"kFzV8BytyGY","title":"45- السبع الطوال - شرح الإتقان في علوم القرآن","publishedAt":"2023-03-30T05:00:30Z","duration":"PT27M13S","thumbnail":"https://i.ytimg.com/vi/kFzV8BytyGY/mqdefault.jpg","viewCount":"898","playlistId":"PLEkQk5xrP-tlPw10KGJKagu7zm4Ry2Tge","playlistName":"شرح الإتقان في علوم القرآن","category":"تفسير"},{"id":"ikwfZQXvG4U","title":"ما هي أنواع الحب؟","publishedAt":"2023-03-29T19:00:27Z","duration":"PT8M20S","thumbnail":"https://i.ytimg.com/vi/ikwfZQXvG4U/mqdefault.jpg","viewCount":"6065","playlistId":"PLEkQk5xrP-tm8ZIu74nTOZN9KJUJu416J","playlistName":"مقاطع مُهمَّة (يُسريَّات) أ.د. يسري جبر","category":"متنوع"},{"id":"8lG1Wo7iEHg","title":"عجائب صنائع المعروف | مجالس رمضانية","publishedAt":"2023-03-29T15:00:09Z","duration":"PT50M5S","thumbnail":"https://i.ytimg.com/vi/8lG1Wo7iEHg/mqdefault.jpg","viewCount":"4216","playlistId":"PLEkQk5xrP-tnl7vb7KeAoPd5ZlqKKW8KV","playlistName":"شرح كتاب بهجة النفوس أ.د . يسرى جبر","category":"متنوع"},{"id":"b7onwVLa72M","title":"419- فضل الدعاء بظهر الغيب - شرح دليل الفالحين","publishedAt":"2023-03-29T05:00:15Z","duration":"PT46M29S","thumbnail":"https://i.ytimg.com/vi/b7onwVLa72M/mqdefault.jpg","viewCount":"1043","playlistId":"PLEkQk5xrP-tkc9DXvSLguqX5-FYp6ASR4","playlistName":"دليل الفالحين لطرق رياض الصالحين","category":"متنوع"},{"id":"YHM69x2CsAM","title":"ما معنى الحب في الله وكيف يكون؟","publishedAt":"2023-03-28T19:00:12Z","duration":"PT11M35S","thumbnail":"https://i.ytimg.com/vi/YHM69x2CsAM/mqdefault.jpg","viewCount":"8835","playlistId":"PLEkQk5xrP-tm8ZIu74nTOZN9KJUJu416J","playlistName":"مقاطع مُهمَّة (يُسريَّات) أ.د. يسري جبر","category":"متنوع"},{"id":"aCAWh3m8mJ8","title":"أنواع الصدقات | مجالس رمضانية","publishedAt":"2023-03-28T15:00:00Z","duration":"PT41M57S","thumbnail":"https://i.ytimg.com/vi/aCAWh3m8mJ8/mqdefault.jpg","viewCount":"2081","playlistId":"PLEkQk5xrP-tnl7vb7KeAoPd5ZlqKKW8KV","playlistName":"شرح كتاب بهجة النفوس أ.د . يسرى جبر","category":"متنوع"},{"id":"cLi8M4d26GY","title":"44- ترتيب سور القرآن الكريم - شرح الإتقان في علوم القرآن","publishedAt":"2023-03-28T05:00:25Z","duration":"PT20M43S","thumbnail":"https://i.ytimg.com/vi/cLi8M4d26GY/mqdefault.jpg","viewCount":"926","playlistId":"PLEkQk5xrP-tlPw10KGJKagu7zm4Ry2Tge","playlistName":"شرح الإتقان في علوم القرآن","category":"تفسير"},{"id":"2LDOSw-cCZM","title":"هل يجوز تقبيل القبور والتبرك بها؟","publishedAt":"2023-03-27T19:00:01Z","duration":"PT8M21S","thumbnail":"https://i.ytimg.com/vi/2LDOSw-cCZM/mqdefault.jpg","viewCount":"10617","playlistId":"PLEkQk5xrP-tkGXuZ9atE3k_7it12rUPTs","playlistName":"أسئلة المتابعين","category":"متنوع"},{"id":"vdz0pf_tE44","title":"المودة بين الجيران | مجالس رمضانية","publishedAt":"2023-03-27T15:00:47Z","duration":"PT29M7S","thumbnail":"https://i.ytimg.com/vi/vdz0pf_tE44/mqdefault.jpg","viewCount":"1013","playlistId":"PLEkQk5xrP-tnl7vb7KeAoPd5ZlqKKW8KV","playlistName":"شرح كتاب بهجة النفوس أ.د . يسرى جبر","category":"متنوع"},{"id":"78cyQyWH840","title":"418- سَلوا اللهَ العافيةَ  في الدنيا والآخرة - شرح دليل الفالحين","publishedAt":"2023-03-27T05:00:03Z","duration":"PT32M24S","thumbnail":"https://i.ytimg.com/vi/78cyQyWH840/mqdefault.jpg","viewCount":"1121","playlistId":"PLEkQk5xrP-tkc9DXvSLguqX5-FYp6ASR4","playlistName":"دليل الفالحين لطرق رياض الصالحين","category":"متنوع"},{"id":"w7e8Bg5O4P8","title":"هل يجوز قراءة القرآن من المصحف أو الموبيل في الصلاة؟","publishedAt":"2023-03-26T19:00:19Z","duration":"PT9M46S","thumbnail":"https://i.ytimg.com/vi/w7e8Bg5O4P8/mqdefault.jpg","viewCount":"11678","playlistId":"PLEkQk5xrP-tm8ZIu74nTOZN9KJUJu416J","playlistName":"مقاطع مُهمَّة (يُسريَّات) أ.د. يسري جبر","category":"متنوع"},{"id":"424fAVM0480","title":"كيف تتعامل مع الناس؟ | مجالس رمضانية","publishedAt":"2023-03-26T15:00:02Z","duration":"PT50M35S","thumbnail":"https://i.ytimg.com/vi/424fAVM0480/mqdefault.jpg","viewCount":"4864","playlistId":"PLEkQk5xrP-tnl7vb7KeAoPd5ZlqKKW8KV","playlistName":"شرح كتاب بهجة النفوس أ.د . يسرى جبر","category":"متنوع"},{"id":"vlKPfctXsys","title":"43- ترتيب آيات القرآن الكريم - شرح الإتقان في علوم القرآن","publishedAt":"2023-03-26T05:00:21Z","duration":"PT23M42S","thumbnail":"https://i.ytimg.com/vi/vlKPfctXsys/mqdefault.jpg","viewCount":"956","playlistId":"PLEkQk5xrP-tlPw10KGJKagu7zm4Ry2Tge","playlistName":"شرح الإتقان في علوم القرآن","category":"تفسير"}],"total":7675,"page":60,"pageSize":24,"totalPages":320}