{"items":[{"id":"Wv0KFxLaATI","title":"شرح منازل السائرين - المجلس (20) باب الخشوع | أ.د. يسري جبر","publishedAt":"2022-12-28T18:00:12Z","duration":"PT48M29S","thumbnail":"https://i.ytimg.com/vi/Wv0KFxLaATI/mqdefault.jpg","viewCount":"5645","playlistId":"PLEkQk5xrP-tmiUfQ-2Tsn7QIak4EsvaZW","playlistName":"كتاب التيسير المعين بشرح معاني منازل السائرين (تصوف) - د.يسري جبر","category":"تصوف"},{"id":"HrsmnAu0AQ8","title":"368- وجوب صوم رمضان وبيان فضل الصيام وما يتعلق به - شرح دليل الفالحين","publishedAt":"2022-12-28T09:00:13Z","duration":"PT31M25S","thumbnail":"https://i.ytimg.com/vi/HrsmnAu0AQ8/mqdefault.jpg","viewCount":"475","playlistId":"PLEkQk5xrP-tkc9DXvSLguqX5-FYp6ASR4","playlistName":"دليل الفالحين لطرق رياض الصالحين","category":"متنوع"},{"id":"PP3STaZONnM","title":"631- حرف (الهاء - ها) - شرح دليل الفالحين","publishedAt":"2022-12-28T05:00:09Z","duration":"PT19M4S","thumbnail":"https://i.ytimg.com/vi/PP3STaZONnM/mqdefault.jpg","viewCount":"326","playlistId":"PLEkQk5xrP-tnW3iBL7HkKziOFCFZbTlf0","playlistName":"شرح البرهان في علوم القرآن - أ.د. يسري جبر","category":"تفسير"},{"id":"n6jvRyrRyCo","title":"كيف تتحلى بالقناعة والرضا؟","publishedAt":"2022-12-27T18:00:28Z","duration":"PT8M41S","thumbnail":"https://i.ytimg.com/vi/n6jvRyrRyCo/mqdefault.jpg","viewCount":"4738","playlistId":"PLEkQk5xrP-tlArtGpeLWaqNM7h7IDeAVC","playlistName":"خطب الجمعة أ.د. يسري جبر","category":"خطب"},{"id":"dH-EFGpI7zQ","title":"367- حكم كَنز المال وعدم إنفاقه - شرح دليل الفالحين","publishedAt":"2022-12-27T09:00:29Z","duration":"PT46M28S","thumbnail":"https://i.ytimg.com/vi/dH-EFGpI7zQ/mqdefault.jpg","viewCount":"982","playlistId":"PLEkQk5xrP-tkc9DXvSLguqX5-FYp6ASR4","playlistName":"دليل الفالحين لطرق رياض الصالحين","category":"متنوع"},{"id":"zmKl9wPiN5s","title":"630- حرف (النون) - شرح البرهان في علوم القرآن","publishedAt":"2022-12-27T05:00:31Z","duration":"PT18M2S","thumbnail":"https://i.ytimg.com/vi/zmKl9wPiN5s/mqdefault.jpg","viewCount":"378","playlistId":"PLEkQk5xrP-tnW3iBL7HkKziOFCFZbTlf0","playlistName":"شرح البرهان في علوم القرآن - أ.د. يسري جبر","category":"تفسير"},{"id":"fGENFLKbwwE","title":"كيف تتعامل مع الناس بتواضع؟","publishedAt":"2022-12-26T18:00:13Z","duration":"PT12M28S","thumbnail":"https://i.ytimg.com/vi/fGENFLKbwwE/mqdefault.jpg","viewCount":"4098","playlistId":"PLEkQk5xrP-tlArtGpeLWaqNM7h7IDeAVC","playlistName":"خطب الجمعة أ.د. يسري جبر","category":"خطب"},{"id":"cOD40Y2-sS8","title":"366- حكم مَن فَرَّقَ بيْنَ الصَّلَاةِ والزَّكَاةِ - شرح دليل الفالحين","publishedAt":"2022-12-26T09:00:16Z","duration":"PT34M35S","thumbnail":"https://i.ytimg.com/vi/cOD40Y2-sS8/mqdefault.jpg","viewCount":"580","playlistId":"PLEkQk5xrP-tkc9DXvSLguqX5-FYp6ASR4","playlistName":"دليل الفالحين لطرق رياض الصالحين","category":"متنوع"},{"id":"dMkxLTzt2W8","title":"629- حرف (مع) - شرح البرهان في علوم القرآن","publishedAt":"2022-12-26T05:00:10Z","duration":"PT24M19S","thumbnail":"https://i.ytimg.com/vi/dMkxLTzt2W8/mqdefault.jpg","viewCount":"270","playlistId":"PLEkQk5xrP-tnW3iBL7HkKziOFCFZbTlf0","playlistName":"شرح البرهان في علوم القرآن - أ.د. يسري جبر","category":"تفسير"},{"id":"sf_a8bxKQUo","title":"مظاهر قدرة الله في خلق الإنسان","publishedAt":"2022-12-25T18:00:14Z","duration":"PT10M53S","thumbnail":"https://i.ytimg.com/vi/sf_a8bxKQUo/mqdefault.jpg","viewCount":"3443","playlistId":"PLEkQk5xrP-tlArtGpeLWaqNM7h7IDeAVC","playlistName":"خطب الجمعة أ.د. يسري جبر","category":"خطب"},{"id":"nMT1j-dZqK8","title":"628- (مِن) الزائدة - شرح البرهان في علوم القرآن","publishedAt":"2022-12-25T05:00:30Z","duration":"PT32M43S","thumbnail":"https://i.ytimg.com/vi/nMT1j-dZqK8/mqdefault.jpg","viewCount":"464","playlistId":"PLEkQk5xrP-tnW3iBL7HkKziOFCFZbTlf0","playlistName":"شرح البرهان في علوم القرآن - أ.د. يسري جبر","category":"تفسير"},{"id":"ItFaqA6nMdA","title":"كيفية علاج النسيان وعدم التركيز؟","publishedAt":"2022-12-24T18:00:13Z","duration":"PT8M4S","thumbnail":"https://i.ytimg.com/vi/ItFaqA6nMdA/mqdefault.jpg","viewCount":"44480","playlistId":"PLEkQk5xrP-tkGXuZ9atE3k_7it12rUPTs","playlistName":"أسئلة المتابعين","category":"متنوع"},{"id":"BwjP_qlAnuw","title":"3- الفرق بين الماء إذا تغير بمجاور أو بمخالط، ومعنى التطهير بالمكاثرة","publishedAt":"2022-12-24T09:00:06Z","duration":"PT39M43S","thumbnail":"https://i.ytimg.com/vi/BwjP_qlAnuw/mqdefault.jpg","viewCount":"1012","playlistId":"PLEkQk5xrP-tk_MCBZ706ORCw6gFtFyaGj","playlistName":"شرح سنن الإمام الدارقطني","category":"متنوع"},{"id":"y5cRL1FeUuE","title":"627- حرف (مِن) بمعنى البدل - شرح البرهان في علوم القرآن","publishedAt":"2022-12-24T05:00:20Z","duration":"PT12M9S","thumbnail":"https://i.ytimg.com/vi/y5cRL1FeUuE/mqdefault.jpg","viewCount":"257","playlistId":"PLEkQk5xrP-tnW3iBL7HkKziOFCFZbTlf0","playlistName":"شرح البرهان في علوم القرآن - أ.د. يسري جبر","category":"تفسير"},{"id":"MFVceomZljc","title":"هل علم الفراسة وقراءة الوجوه حرام؟","publishedAt":"2022-12-23T18:00:07Z","duration":"PT11M18S","thumbnail":"https://i.ytimg.com/vi/MFVceomZljc/mqdefault.jpg","viewCount":"20916","playlistId":"PLEkQk5xrP-tkGXuZ9atE3k_7it12rUPTs","playlistName":"أسئلة المتابعين","category":"متنوع"},{"id":"OeIPEpQz5eQ","title":"365- \"..فأعْلِمهم أنَّ اللَّهَ افْترض عليهم صدقة في أموالهم تُؤخذ مِن أغنيائِهم وتُردّ على فقرائهِم\"","publishedAt":"2022-12-23T09:00:12Z","duration":"PT34M59S","thumbnail":"https://i.ytimg.com/vi/OeIPEpQz5eQ/mqdefault.jpg","viewCount":"676","playlistId":"PLEkQk5xrP-tkc9DXvSLguqX5-FYp6ASR4","playlistName":"دليل الفالحين لطرق رياض الصالحين","category":"متنوع"},{"id":"MY6_tqTho3o","title":"626- حرف (مِن) لبيان الجنس - شرح البرهان في علوم القرآن","publishedAt":"2022-12-23T05:00:09Z","duration":"PT18M37S","thumbnail":"https://i.ytimg.com/vi/MY6_tqTho3o/mqdefault.jpg","viewCount":"381","playlistId":"PLEkQk5xrP-tnW3iBL7HkKziOFCFZbTlf0","playlistName":"شرح البرهان في علوم القرآن - أ.د. يسري جبر","category":"تفسير"},{"id":"QwAa5Bdz5NQ","title":"أهمية الأمانة في الاسلام","publishedAt":"2022-12-22T18:00:16Z","duration":"PT25M58S","thumbnail":"https://i.ytimg.com/vi/QwAa5Bdz5NQ/mqdefault.jpg","viewCount":"3506","playlistId":"PLEkQk5xrP-tlArtGpeLWaqNM7h7IDeAVC","playlistName":"خطب الجمعة أ.د. يسري جبر","category":"خطب"},{"id":"z25MTs3bX3o","title":"20- معرفة الله عزَّ وجلَّ - عقيدةُ العارفينَ بالله وأولياء الله الصالحين.","publishedAt":"2022-12-22T09:00:35Z","duration":"PT58M59S","thumbnail":"https://i.ytimg.com/vi/z25MTs3bX3o/mqdefault.jpg","viewCount":"9618","playlistId":"PLEkQk5xrP-tmNuYT8JAh6clwa4krsgkNo","playlistName":"شرح كتاب الفُتُوحات اليُسريَّة في عقائد الأُمَّة المُحمَّديَّة","category":"متنوع"},{"id":"qKwaxuW3dtY","title":"شرح منازل السائرين - المجلس (19) باب الإشفاق | أ.د. يسري جبر","publishedAt":"2022-12-21T18:00:46Z","duration":"PT38M54S","thumbnail":"https://i.ytimg.com/vi/qKwaxuW3dtY/mqdefault.jpg","viewCount":"4706","playlistId":"PLEkQk5xrP-tmiUfQ-2Tsn7QIak4EsvaZW","playlistName":"كتاب التيسير المعين بشرح معاني منازل السائرين (تصوف) - د.يسري جبر","category":"تصوف"},{"id":"-xJQy6t2gX4","title":"19- سبحان الواحد: المعروف قبل الحدود وقبل الحروف - عقيدةُ العارفينَ بالله وأولياء الله الصالحين","publishedAt":"2022-12-21T09:00:00Z","duration":"PT49M14S","thumbnail":"https://i.ytimg.com/vi/-xJQy6t2gX4/mqdefault.jpg","viewCount":"2636","playlistId":"PLEkQk5xrP-tmNuYT8JAh6clwa4krsgkNo","playlistName":"شرح كتاب الفُتُوحات اليُسريَّة في عقائد الأُمَّة المُحمَّديَّة","category":"متنوع"},{"id":"5BVxH2qwFCg","title":"625- حرف (مِن) - شرح البرهان في علوم القرآن","publishedAt":"2022-12-21T05:00:02Z","duration":"PT12M54S","thumbnail":"https://i.ytimg.com/vi/5BVxH2qwFCg/mqdefault.jpg","viewCount":"275","playlistId":"PLEkQk5xrP-tnW3iBL7HkKziOFCFZbTlf0","playlistName":"شرح البرهان في علوم القرآن - أ.د. يسري جبر","category":"تفسير"},{"id":"wQKAFZJ0WbA","title":"هل يطلع الله بعض الأولياء علي الغيب؟","publishedAt":"2022-12-20T18:03:09Z","duration":"PT11M54S","thumbnail":"https://i.ytimg.com/vi/wQKAFZJ0WbA/mqdefault.jpg","viewCount":"32289","playlistId":"PLEkQk5xrP-tkGXuZ9atE3k_7it12rUPTs","playlistName":"أسئلة المتابعين","category":"متنوع"},{"id":"_egWf4sU7eM","title":"364- حكم قطع عبادة التَّطَوُّعِ بعد الشروع فيها - شرح دليل الفالحين","publishedAt":"2022-12-20T09:00:27Z","duration":"PT20M12S","thumbnail":"https://i.ytimg.com/vi/_egWf4sU7eM/mqdefault.jpg","viewCount":"810","playlistId":"PLEkQk5xrP-tkc9DXvSLguqX5-FYp6ASR4","playlistName":"دليل الفالحين لطرق رياض الصالحين","category":"متنوع"}],"total":7675,"page":69,"pageSize":24,"totalPages":320}