{"items":[{"id":"amKntmImocQ","title":"114- \"قدمَ ناسٌ منَ الأعرابِ على النَّبيِّ ﷺ فقالوا أتُقبِّلون صبيانَكم…\" -  شرح دليل الفالحين","publishedAt":"2021-08-18T05:54:17Z","duration":"PT54M12S","thumbnail":"https://i.ytimg.com/vi/amKntmImocQ/mqdefault.jpg","viewCount":"1462","playlistId":"PLEkQk5xrP-tkc9DXvSLguqX5-FYp6ASR4","playlistName":"دليل الفالحين لطرق رياض الصالحين","category":"متنوع"},{"id":"fZls46rmda4","title":"الفوائد اليسرية فى الهجرة النبوية","publishedAt":"2021-08-17T19:28:53Z","duration":"PT45M28S","thumbnail":"https://i.ytimg.com/vi/fZls46rmda4/mqdefault.jpg","viewCount":"2171","playlistId":"PLEkQk5xrP-tlArtGpeLWaqNM7h7IDeAVC","playlistName":"خطب الجمعة أ.د. يسري جبر","category":"خطب"},{"id":"lUUNPJ4XW0o","title":"الاختزال (31) حذف الفعل (5)- شرح البرهان في علوم القرآن","publishedAt":"2021-08-17T06:35:46Z","duration":"PT7M8S","thumbnail":"https://i.ytimg.com/vi/lUUNPJ4XW0o/mqdefault.jpg","viewCount":"330","playlistId":"PLEkQk5xrP-tnW3iBL7HkKziOFCFZbTlf0","playlistName":"شرح البرهان في علوم القرآن - أ.د. يسري جبر","category":"تفسير"},{"id":"Ly3euchevw8","title":"ما هو فضل يوم عاشوراء؟","publishedAt":"2021-08-16T19:15:01Z","duration":"PT8M1S","thumbnail":"https://i.ytimg.com/vi/Ly3euchevw8/mqdefault.jpg","viewCount":"7151","playlistId":"PLEkQk5xrP-tlArtGpeLWaqNM7h7IDeAVC","playlistName":"خطب الجمعة أ.د. يسري جبر","category":"خطب"},{"id":"OZS75wFCNwU","title":"17- الأحاديث الواردة في صلاة الكسوف - شرح مسند الإمام الشافعي المجلس 17","publishedAt":"2021-08-16T05:39:09Z","duration":"PT53M21S","thumbnail":"https://i.ytimg.com/vi/OZS75wFCNwU/mqdefault.jpg","viewCount":"953","playlistId":"PLEkQk5xrP-tlDtaqY0qhNXAiZ19gaGzKI","playlistName":"شرح مسند الإمام محمد بن إدريس الشافعيّ رضي الله تعالى عنه","category":"فقه"},{"id":"JYZL3vD5grQ","title":"الدروس المستفادة من الهجرة النبوية","publishedAt":"2021-08-15T18:45:01Z","duration":"PT11M59S","thumbnail":"https://i.ytimg.com/vi/JYZL3vD5grQ/mqdefault.jpg","viewCount":"1666","playlistId":"PLEkQk5xrP-tlArtGpeLWaqNM7h7IDeAVC","playlistName":"خطب الجمعة أ.د. يسري جبر","category":"خطب"},{"id":"3hWHPkHzuHY","title":"113- تعظيم حرمات المسلمين وبيان حقوقهم والشفقة عليهم ورحمتهم -  شرح دليل الفالحين","publishedAt":"2021-08-15T06:08:49Z","duration":"PT51M41S","thumbnail":"https://i.ytimg.com/vi/3hWHPkHzuHY/mqdefault.jpg","viewCount":"1164","playlistId":"PLEkQk5xrP-tkc9DXvSLguqX5-FYp6ASR4","playlistName":"دليل الفالحين لطرق رياض الصالحين","category":"متنوع"},{"id":"oDwbMNiVSc4","title":"الرسالة القشيرية - المجلس (86) بَابُ الفقر | أ.د. يسري جبر","publishedAt":"2021-08-14T17:26:14Z","duration":"PT54M7S","thumbnail":"https://i.ytimg.com/vi/oDwbMNiVSc4/mqdefault.jpg","viewCount":"8328","playlistId":"PLEkQk5xrP-tkHAGOwIKr4pc5ehhyQ5HMJ","playlistName":"كتاب الرسالة القشيرية (تصوف) - د. يسري جبر","category":"تصوف"},{"id":"tVr3qzlagDI","title":"الاختزال (30) حذف الفعل (4)- شرح البرهان في علوم القرآن","publishedAt":"2021-08-14T07:05:09Z","duration":"PT12M1S","thumbnail":"https://i.ytimg.com/vi/tVr3qzlagDI/mqdefault.jpg","viewCount":"387","playlistId":"PLEkQk5xrP-tnW3iBL7HkKziOFCFZbTlf0","playlistName":"شرح البرهان في علوم القرآن - أ.د. يسري جبر","category":"تفسير"},{"id":"is4X2R6VqJU","title":"112- \"أتَدْرُون مَن المُفْلِسُ؟ قالوا: المُفْلِسُ فِينا مَن لا دِرْهمَ له …” شرح دليل الفالحين","publishedAt":"2021-08-13T20:28:19Z","duration":"PT42M2S","thumbnail":"https://i.ytimg.com/vi/is4X2R6VqJU/mqdefault.jpg","viewCount":"1298","playlistId":"PLEkQk5xrP-tkc9DXvSLguqX5-FYp6ASR4","playlistName":"دليل الفالحين لطرق رياض الصالحين","category":"متنوع"},{"id":"MO41E9Fzb6w","title":"الاختزال (29) حذف الفعل (3) - شرح البرهان في علوم القرآن","publishedAt":"2021-08-13T07:04:47Z","duration":"PT14M15S","thumbnail":"https://i.ytimg.com/vi/MO41E9Fzb6w/mqdefault.jpg","viewCount":"280","playlistId":"PLEkQk5xrP-tnW3iBL7HkKziOFCFZbTlf0","playlistName":"شرح البرهان في علوم القرآن - أ.د. يسري جبر","category":"تفسير"},{"id":"iEJWoGoUe2I","title":"111- “مَن اسْتَعْمَلْنَاهُ منكُمْ علَى عَمَل، فَكَتَمَنَا مِخْيَطاً فَمَا فوقهُ…”- شرح دليل الفالحين","publishedAt":"2021-08-12T19:51:23Z","duration":"PT46M40S","thumbnail":"https://i.ytimg.com/vi/iEJWoGoUe2I/mqdefault.jpg","viewCount":"1695","playlistId":"PLEkQk5xrP-tkc9DXvSLguqX5-FYp6ASR4","playlistName":"دليل الفالحين لطرق رياض الصالحين","category":"متنوع"},{"id":"EtEcpp2v2Gs","title":"التصوف ودوره في مواجهة الوباء والمحن","publishedAt":"2021-08-12T06:13:59Z","duration":"PT29M34S","thumbnail":"https://i.ytimg.com/vi/EtEcpp2v2Gs/mqdefault.jpg","viewCount":"7310","playlistId":"PLEkQk5xrP-tm8ZIu74nTOZN9KJUJu416J","playlistName":"مقاطع مُهمَّة (يُسريَّات) أ.د. يسري جبر","category":"متنوع"},{"id":"qFsFHCPLp04","title":"هل يجوز ترك العلاج والصبر على المرض؟","publishedAt":"2021-08-11T17:15:01Z","duration":"PT10M23S","thumbnail":"https://i.ytimg.com/vi/qFsFHCPLp04/mqdefault.jpg","viewCount":"4185","playlistId":"PLEkQk5xrP-tkGXuZ9atE3k_7it12rUPTs","playlistName":"أسئلة المتابعين","category":"متنوع"},{"id":"KNmdLX6Tlbk","title":"الاختزال (28) حذف الفعل (2) - شرح البرهان في علوم القرآن","publishedAt":"2021-08-11T05:54:40Z","duration":"PT24M4S","thumbnail":"https://i.ytimg.com/vi/KNmdLX6Tlbk/mqdefault.jpg","viewCount":"357","playlistId":"PLEkQk5xrP-tnW3iBL7HkKziOFCFZbTlf0","playlistName":"شرح البرهان في علوم القرآن - أ.د. يسري جبر","category":"تفسير"},{"id":"ZZhYHI2NDqo","title":"أفضل الأعمال لاستقبال العام الهجري الجديد","publishedAt":"2021-08-10T18:15:03Z","duration":"PT40M26S","thumbnail":"https://i.ytimg.com/vi/ZZhYHI2NDqo/mqdefault.jpg","viewCount":"2592","playlistId":"PLEkQk5xrP-tlArtGpeLWaqNM7h7IDeAVC","playlistName":"خطب الجمعة أ.د. يسري جبر","category":"خطب"},{"id":"AwX-7jv6qkE","title":"110- “إنَّ الزَّمانَ قد استدار كهيئتِه يومَ خَلَق اللهُ السَّمواتِ والأرض…”- شرح دليل الفالحين","publishedAt":"2021-08-10T06:01:08Z","duration":"PT59M4S","thumbnail":"https://i.ytimg.com/vi/AwX-7jv6qkE/mqdefault.jpg","viewCount":"3734","playlistId":"PLEkQk5xrP-tkc9DXvSLguqX5-FYp6ASR4","playlistName":"دليل الفالحين لطرق رياض الصالحين","category":"متنوع"},{"id":"nNzFnitMP8g","title":"كيف نستقبل العام الهجري الجديد؟","publishedAt":"2021-08-09T18:30:36Z","duration":"PT16M5S","thumbnail":"https://i.ytimg.com/vi/nNzFnitMP8g/mqdefault.jpg","viewCount":"5182","playlistId":"PLEkQk5xrP-tlArtGpeLWaqNM7h7IDeAVC","playlistName":"خطب الجمعة أ.د. يسري جبر","category":"خطب"},{"id":"aP167cb6AuM","title":"الاختزال (27) حذف الفعل - شرح البرهان في علوم القرآن","publishedAt":"2021-08-08T05:31:18Z","duration":"PT23M36S","thumbnail":"https://i.ytimg.com/vi/aP167cb6AuM/mqdefault.jpg","viewCount":"428","playlistId":"PLEkQk5xrP-tnW3iBL7HkKziOFCFZbTlf0","playlistName":"شرح البرهان في علوم القرآن - أ.د. يسري جبر","category":"تفسير"},{"id":"0D9b1vIb7H0","title":"”تفسير قوله تعالى \"يَوْمَ نَطْوِي السَّمَاءَ كَطَيِّ السِّجِلِّ لِلْكُتُب","publishedAt":"2021-08-07T18:00:01Z","duration":"PT12M","thumbnail":"https://i.ytimg.com/vi/0D9b1vIb7H0/mqdefault.jpg","viewCount":"3352","playlistId":"PLEkQk5xrP-tkSGrPLMt1BEmJ54cGWYgtp","playlistName":"كتابُ بِدَعِ التَفَاسِيرِ - أ.د. يسري جبر","category":"متنوع"},{"id":"4R9Wen0nti0","title":"109- “استعمل النبيُّ ﷺ رجلًا من الأزد يُقال له: ابْنُ اللُّتْبِيَّة على الصَّدقة”- شرح دليل الفالحين","publishedAt":"2021-08-07T05:58:04Z","duration":"PT41M49S","thumbnail":"https://i.ytimg.com/vi/4R9Wen0nti0/mqdefault.jpg","viewCount":"3189","playlistId":"PLEkQk5xrP-tkc9DXvSLguqX5-FYp6ASR4","playlistName":"دليل الفالحين لطرق رياض الصالحين","category":"متنوع"},{"id":"FFqhdgKwR9M","title":"هل الانقطاع عن الأوراد خروج عن الطريق؟","publishedAt":"2021-08-06T17:30:00Z","duration":"PT10M9S","thumbnail":"https://i.ytimg.com/vi/FFqhdgKwR9M/mqdefault.jpg","viewCount":"12323","playlistId":"PLEkQk5xrP-tkGXuZ9atE3k_7it12rUPTs","playlistName":"أسئلة المتابعين","category":"متنوع"},{"id":"wKKrhGqeItE","title":"الاختزال (26) حذف القول - شرح البرهان في علوم القرآن","publishedAt":"2021-08-06T05:32:22Z","duration":"PT11M47S","thumbnail":"https://i.ytimg.com/vi/wKKrhGqeItE/mqdefault.jpg","viewCount":"399","playlistId":"PLEkQk5xrP-tnW3iBL7HkKziOFCFZbTlf0","playlistName":"شرح البرهان في علوم القرآن - أ.د. يسري جبر","category":"تفسير"},{"id":"dBbJgGLGGyk","title":"هل ضرب الزوجة مباح؟","publishedAt":"2021-08-05T19:02:17Z","duration":"PT16M20S","thumbnail":"https://i.ytimg.com/vi/dBbJgGLGGyk/mqdefault.jpg","viewCount":"13690","playlistId":"PLEkQk5xrP-tm8ZIu74nTOZN9KJUJu416J","playlistName":"مقاطع مُهمَّة (يُسريَّات) أ.د. يسري جبر","category":"متنوع"}],"total":7675,"page":114,"pageSize":24,"totalPages":320}