{"items":[{"id":"cVHc8mbJmAA","title":"شرح سنن الدارمي كتاب النكاح من باب ٤١","publishedAt":"2019-08-12T18:54:26Z","duration":"PT29M1S","thumbnail":"https://i.ytimg.com/vi/cVHc8mbJmAA/mqdefault.jpg","viewCount":"412","playlistId":"PLEkQk5xrP-tmAg-FuWjY057X_h5NmGmAa","playlistName":"شرح سنن الدارمي - أ.د. يسري جبر (كاملا)","category":"متنوع"},{"id":"b_EIyU_-FLs","title":"مقرأة سورة قريش من أولها","publishedAt":"2019-08-11T20:25:20Z","duration":"PT7M33S","thumbnail":"https://i.ytimg.com/vi/b_EIyU_-FLs/mqdefault.jpg","viewCount":"717","playlistId":"PLEkQk5xrP-tnmTYsyW6xNdyfhPq0Bhrhj","playlistName":"مقرأة الفجر - القُرْآنُ الكَرِيمُ - خَتْمَةُ التَّدَبُّرِ  أ.د. يسري جبر","category":"متنوع"},{"id":"-uTb_ermtF0","title":"شرح سنن الدارمي كتاب النكاح من باب ٣٦","publishedAt":"2019-08-11T08:51:06Z","duration":"PT33M43S","thumbnail":"https://i.ytimg.com/vi/-uTb_ermtF0/mqdefault.jpg","viewCount":"470","playlistId":"PLEkQk5xrP-tmAg-FuWjY057X_h5NmGmAa","playlistName":"شرح سنن الدارمي - أ.د. يسري جبر (كاملا)","category":"متنوع"},{"id":"KH1Q4a_avD4","title":"مقرأة سورة الفيل من أولها","publishedAt":"2019-08-10T21:27:07Z","duration":"PT9M45S","thumbnail":"https://i.ytimg.com/vi/KH1Q4a_avD4/mqdefault.jpg","viewCount":"634","playlistId":"PLEkQk5xrP-tnmTYsyW6xNdyfhPq0Bhrhj","playlistName":"مقرأة الفجر - القُرْآنُ الكَرِيمُ - خَتْمَةُ التَّدَبُّرِ  أ.د. يسري جبر","category":"متنوع"},{"id":"NPECoa1QDg0","title":"شرح سنن الدارمي كتاب النكاح من باب ٢٩","publishedAt":"2019-08-10T09:10:01Z","duration":"PT35M1S","thumbnail":"https://i.ytimg.com/vi/NPECoa1QDg0/mqdefault.jpg","viewCount":"455","playlistId":"PLEkQk5xrP-tmAg-FuWjY057X_h5NmGmAa","playlistName":"شرح سنن الدارمي - أ.د. يسري جبر (كاملا)","category":"متنوع"},{"id":"8cM-G7bs2LU","title":"قراءة الأربعين النووية في الروضة الشريفة","publishedAt":"2019-08-09T10:12:00Z","duration":"PT57M54S","thumbnail":"https://i.ytimg.com/vi/8cM-G7bs2LU/mqdefault.jpg","viewCount":"1842","playlistId":"PLEkQk5xrP-tmJzNvLntpzW0uPanPzxA0c","playlistName":"لقاءات ومحاضرات","category":"متنوع"},{"id":"eyDe4Uk3u8I","title":"مقرأة سورة الهمزة من أولها","publishedAt":"2019-08-08T20:49:18Z","duration":"PT14M48S","thumbnail":"https://i.ytimg.com/vi/eyDe4Uk3u8I/mqdefault.jpg","viewCount":"673","playlistId":"PLEkQk5xrP-tnmTYsyW6xNdyfhPq0Bhrhj","playlistName":"مقرأة الفجر - القُرْآنُ الكَرِيمُ - خَتْمَةُ التَّدَبُّرِ  أ.د. يسري جبر","category":"متنوع"},{"id":"zlkMF1kR5yM","title":"شرح سنن الدارمي كتاب النكاح من باب ١٨","publishedAt":"2019-08-08T09:24:31Z","duration":"PT41M27S","thumbnail":"https://i.ytimg.com/vi/zlkMF1kR5yM/mqdefault.jpg","viewCount":"439","playlistId":"PLEkQk5xrP-tmAg-FuWjY057X_h5NmGmAa","playlistName":"شرح سنن الدارمي - أ.د. يسري جبر (كاملا)","category":"متنوع"},{"id":"hLhQ6BBIQjM","title":"مقرأة سورة العصر من أولها","publishedAt":"2019-08-07T20:29:02Z","duration":"PT11M28S","thumbnail":"https://i.ytimg.com/vi/hLhQ6BBIQjM/mqdefault.jpg","viewCount":"781","playlistId":"PLEkQk5xrP-tnmTYsyW6xNdyfhPq0Bhrhj","playlistName":"مقرأة الفجر - القُرْآنُ الكَرِيمُ - خَتْمَةُ التَّدَبُّرِ  أ.د. يسري جبر","category":"متنوع"},{"id":"zV1QVlcL1KM","title":"شرح سنن الدارمي كتاب النكاح من باب ١٤","publishedAt":"2019-08-07T12:15:01Z","duration":"PT26M5S","thumbnail":"https://i.ytimg.com/vi/zV1QVlcL1KM/mqdefault.jpg","viewCount":"410","playlistId":"PLEkQk5xrP-tmAg-FuWjY057X_h5NmGmAa","playlistName":"شرح سنن الدارمي - أ.د. يسري جبر (كاملا)","category":"متنوع"},{"id":"fT13ER_ktCA","title":"مقرأة سورة التكاثر من أولها","publishedAt":"2019-08-06T19:33:38Z","duration":"PT10M47S","thumbnail":"https://i.ytimg.com/vi/fT13ER_ktCA/mqdefault.jpg","viewCount":"603","playlistId":"PLEkQk5xrP-tnmTYsyW6xNdyfhPq0Bhrhj","playlistName":"مقرأة الفجر - القُرْآنُ الكَرِيمُ - خَتْمَةُ التَّدَبُّرِ  أ.د. يسري جبر","category":"متنوع"},{"id":"hlJkjSMH8_A","title":"شرح سنن الدارمي كتاب النكاح من باب ٩","publishedAt":"2019-08-06T12:37:07Z","duration":"PT37M40S","thumbnail":"https://i.ytimg.com/vi/hlJkjSMH8_A/mqdefault.jpg","viewCount":"508","playlistId":"PLEkQk5xrP-tmAg-FuWjY057X_h5NmGmAa","playlistName":"شرح سنن الدارمي - أ.د. يسري جبر (كاملا)","category":"متنوع"},{"id":"1y8T7IVVWO8","title":"الرسالة القشيرية - المجلس (60)  بابُ التَّوَكُّلِ. أ.د. يسري جبر","publishedAt":"2019-08-06T01:05:45Z","duration":"PT48M58S","thumbnail":"https://i.ytimg.com/vi/1y8T7IVVWO8/mqdefault.jpg","viewCount":"8307","playlistId":"PLEkQk5xrP-tkHAGOwIKr4pc5ehhyQ5HMJ","playlistName":"كتاب الرسالة القشيرية (تصوف) - د. يسري جبر","category":"تصوف"},{"id":"LsvXZTKwXMg","title":"مقرأة سورة القارعة من أولها","publishedAt":"2019-08-05T16:59:28Z","duration":"PT10M49S","thumbnail":"https://i.ytimg.com/vi/LsvXZTKwXMg/mqdefault.jpg","viewCount":"502","playlistId":"PLEkQk5xrP-tnmTYsyW6xNdyfhPq0Bhrhj","playlistName":"مقرأة الفجر - القُرْآنُ الكَرِيمُ - خَتْمَةُ التَّدَبُّرِ  أ.د. يسري جبر","category":"متنوع"},{"id":"5kJ8TmyU9po","title":"شرح سنن الدارمي كتاب النكاح من أوله","publishedAt":"2019-08-05T11:20:27Z","duration":"PT45M5S","thumbnail":"https://i.ytimg.com/vi/5kJ8TmyU9po/mqdefault.jpg","viewCount":"613","playlistId":"PLEkQk5xrP-tmAg-FuWjY057X_h5NmGmAa","playlistName":"شرح سنن الدارمي - أ.د. يسري جبر (كاملا)","category":"متنوع"},{"id":"KwT7gBsV69A","title":"مقرأة سورة العاديات من أولها","publishedAt":"2019-08-04T21:27:57Z","duration":"PT10M48S","thumbnail":"https://i.ytimg.com/vi/KwT7gBsV69A/mqdefault.jpg","viewCount":"619","playlistId":"PLEkQk5xrP-tnmTYsyW6xNdyfhPq0Bhrhj","playlistName":"مقرأة الفجر - القُرْآنُ الكَرِيمُ - خَتْمَةُ التَّدَبُّرِ  أ.د. يسري جبر","category":"متنوع"},{"id":"aK7X31rJXHI","title":"شرح سنن الدارمي كتاب الرؤيا من أوله","publishedAt":"2019-08-04T09:02:04Z","duration":"PT1H8M22S","thumbnail":"https://i.ytimg.com/vi/aK7X31rJXHI/mqdefault.jpg","viewCount":"896","playlistId":"PLEkQk5xrP-tmAg-FuWjY057X_h5NmGmAa","playlistName":"شرح سنن الدارمي - أ.د. يسري جبر (كاملا)","category":"متنوع"},{"id":"255-dzXOh8A","title":"شرح سنن الدارمي كتاب الأشربة من باب ٢٠","publishedAt":"2019-08-01T17:23:30Z","duration":"PT26M39S","thumbnail":"https://i.ytimg.com/vi/255-dzXOh8A/mqdefault.jpg","viewCount":"390","playlistId":"PLEkQk5xrP-tmAg-FuWjY057X_h5NmGmAa","playlistName":"شرح سنن الدارمي - أ.د. يسري جبر (كاملا)","category":"متنوع"},{"id":"O5-60N5pecI","title":"شرح صحيح الإمام البخاري رضي الله تعالى عنه - كتابُِ الأَحْكَامِ  أ.د. يسري جبر","publishedAt":"2019-08-01T17:11:50Z","duration":"PT40M47S","thumbnail":"https://i.ytimg.com/vi/O5-60N5pecI/mqdefault.jpg","viewCount":"446","playlistId":"PLEkQk5xrP-tmJuzaj4GWRenFoFx9gdbFX","playlistName":"شرح كتاب صحيح الإمام البخاري رضي الله تعالى عنه   أ.د. يسرى جبر","category":"حديث"},{"id":"tbma2gPMR9k","title":"مقرأة سورة الزلزلة من أولها","publishedAt":"2019-08-01T10:47:35Z","duration":"PT16M3S","thumbnail":"https://i.ytimg.com/vi/tbma2gPMR9k/mqdefault.jpg","viewCount":"749","playlistId":"PLEkQk5xrP-tnmTYsyW6xNdyfhPq0Bhrhj","playlistName":"مقرأة الفجر - القُرْآنُ الكَرِيمُ - خَتْمَةُ التَّدَبُّرِ  أ.د. يسري جبر","category":"متنوع"},{"id":"b4Ks848jUEw","title":"شرح سنن الدارمي كتاب الأشربة من باب ١٢","publishedAt":"2019-07-31T22:24:58Z","duration":"PT27M58S","thumbnail":"https://i.ytimg.com/vi/b4Ks848jUEw/mqdefault.jpg","viewCount":"364","playlistId":"PLEkQk5xrP-tmAg-FuWjY057X_h5NmGmAa","playlistName":"شرح سنن الدارمي - أ.د. يسري جبر (كاملا)","category":"متنوع"},{"id":"DehKzxyo_4I","title":"مقرأة سورة البينة من أولها","publishedAt":"2019-07-31T11:41:25Z","duration":"PT16M8S","thumbnail":"https://i.ytimg.com/vi/DehKzxyo_4I/mqdefault.jpg","viewCount":"644","playlistId":"PLEkQk5xrP-tnmTYsyW6xNdyfhPq0Bhrhj","playlistName":"مقرأة الفجر - القُرْآنُ الكَرِيمُ - خَتْمَةُ التَّدَبُّرِ  أ.د. يسري جبر","category":"متنوع"},{"id":"sr8SOaQ-Cf4","title":"شرح سنن الدارمي كتاب الأشربة من أوله","publishedAt":"2019-07-30T23:05:35Z","duration":"PT39M58S","thumbnail":"https://i.ytimg.com/vi/sr8SOaQ-Cf4/mqdefault.jpg","viewCount":"426","playlistId":"PLEkQk5xrP-tmAg-FuWjY057X_h5NmGmAa","playlistName":"شرح سنن الدارمي - أ.د. يسري جبر (كاملا)","category":"متنوع"},{"id":"SpsGwq2D-ks","title":"مقرأة سورة القدر من أولها","publishedAt":"2019-07-30T09:33:35Z","duration":"PT11M26S","thumbnail":"https://i.ytimg.com/vi/SpsGwq2D-ks/mqdefault.jpg","viewCount":"677","playlistId":"PLEkQk5xrP-tnmTYsyW6xNdyfhPq0Bhrhj","playlistName":"مقرأة الفجر - القُرْآنُ الكَرِيمُ - خَتْمَةُ التَّدَبُّرِ  أ.د. يسري جبر","category":"متنوع"}],"total":7675,"page":173,"pageSize":24,"totalPages":320}