{"items":[{"id":"YJLUbGNMDfc","title":"لماذا يقتصر دور العلماء على دعوة الناس في المساجد فقط؟","publishedAt":"2022-11-07T18:00:23Z","duration":"PT8M48S","thumbnail":"https://i.ytimg.com/vi/YJLUbGNMDfc/mqdefault.jpg","viewCount":"3719","playlistId":"PLEkQk5xrP-tkGXuZ9atE3k_7it12rUPTs","playlistName":"أسئلة المتابعين","category":"متنوع"},{"id":"zNNfI4tmz-M","title":"57- الوَلاءُ لمن أعتق - شرح مسند الإمام الشافعي رضي الله عنه","publishedAt":"2022-11-07T09:00:35Z","duration":"PT58M36S","thumbnail":"https://i.ytimg.com/vi/zNNfI4tmz-M/mqdefault.jpg","viewCount":"606","playlistId":"PLEkQk5xrP-tlDtaqY0qhNXAiZ19gaGzKI","playlistName":"شرح مسند الإمام محمد بن إدريس الشافعيّ رضي الله تعالى عنه","category":"فقه"},{"id":"PrOcirwuqn8","title":"589- المفردة (كل): تأتي: مؤكِّدَة - مبتدأ - مقطوعة عن الإضافة - شرح البرهان في علوم القرآن","publishedAt":"2022-11-07T05:00:10Z","duration":"PT12M58S","thumbnail":"https://i.ytimg.com/vi/PrOcirwuqn8/mqdefault.jpg","viewCount":"357","playlistId":"PLEkQk5xrP-tnW3iBL7HkKziOFCFZbTlf0","playlistName":"شرح البرهان في علوم القرآن - أ.د. يسري جبر","category":"تفسير"},{"id":"0rHtgwkYA-4","title":"كيف تتخلص من جلد الذات المستمر؟","publishedAt":"2022-11-06T18:00:00Z","duration":"PT12M27S","thumbnail":"https://i.ytimg.com/vi/0rHtgwkYA-4/mqdefault.jpg","viewCount":"23129","playlistId":"PLEkQk5xrP-tkGXuZ9atE3k_7it12rUPTs","playlistName":"أسئلة المتابعين","category":"متنوع"},{"id":"nQC86WnR7Gc","title":"328- تحسينُ الصوتِ بالقرآن - شرح دليل الفالحين","publishedAt":"2022-11-06T09:00:33Z","duration":"PT41M46S","thumbnail":"https://i.ytimg.com/vi/nQC86WnR7Gc/mqdefault.jpg","viewCount":"760","playlistId":"PLEkQk5xrP-tkc9DXvSLguqX5-FYp6ASR4","playlistName":"دليل الفالحين لطرق رياض الصالحين","category":"متنوع"},{"id":"a7IjONRMArw","title":"588- حروف المعاني(49): المُفردة (52)(كل)","publishedAt":"2022-11-06T05:00:00Z","duration":"PT12M35S","thumbnail":"https://i.ytimg.com/vi/a7IjONRMArw/mqdefault.jpg","viewCount":"390","playlistId":"PLEkQk5xrP-tnW3iBL7HkKziOFCFZbTlf0","playlistName":"شرح البرهان في علوم القرآن - أ.د. يسري جبر","category":"تفسير"},{"id":"FU-zD_EbvHA","title":"لماذا لا تقوم الدولة المصرية بتحصيل الزكاة من الأغنياء؟","publishedAt":"2022-11-05T18:00:04Z","duration":"PT13M3S","thumbnail":"https://i.ytimg.com/vi/FU-zD_EbvHA/mqdefault.jpg","viewCount":"3003","playlistId":"PLEkQk5xrP-tl6tFiMFGUucCTvLgnWyAfz","playlistName":"حياة الأستاذ الدكتور يسري جبر","category":"متنوع"},{"id":"7BX_7MrzQBs","title":"620- حادثةُ الإِفْكِ - شرح صحيح الإمام البخاري رضي الله تعالى عنه","publishedAt":"2022-11-05T08:55:01Z","duration":"PT42M55S","thumbnail":"https://i.ytimg.com/vi/7BX_7MrzQBs/mqdefault.jpg","viewCount":"1289","playlistId":"PLEkQk5xrP-tmJuzaj4GWRenFoFx9gdbFX","playlistName":"شرح كتاب صحيح الإمام البخاري رضي الله تعالى عنه   أ.د. يسرى جبر","category":"حديث"},{"id":"4ImqjtImXhg","title":"327- الأمرُ بتَعَهُّد القُرآن، والتحذير مِن تَعْرِيضِه للنِسْيَان - شرح دليل الفالحين","publishedAt":"2022-11-05T05:00:02Z","duration":"PT14M5S","thumbnail":"https://i.ytimg.com/vi/4ImqjtImXhg/mqdefault.jpg","viewCount":"677","playlistId":"PLEkQk5xrP-tkc9DXvSLguqX5-FYp6ASR4","playlistName":"دليل الفالحين لطرق رياض الصالحين","category":"متنوع"},{"id":"B4q-xfgHRdk","title":"كيف انتشر الإسلامُ في جميع أنحاء العالم؟","publishedAt":"2022-11-04T18:00:03Z","duration":"PT9M16S","thumbnail":"https://i.ytimg.com/vi/B4q-xfgHRdk/mqdefault.jpg","viewCount":"2152","playlistId":"PLEkQk5xrP-tlArtGpeLWaqNM7h7IDeAVC","playlistName":"خطب الجمعة أ.د. يسري جبر","category":"خطب"},{"id":"YLhNkPJN-cc","title":"326- فضلُ قراءة القرآن - شرح دليل الفالحين","publishedAt":"2022-11-04T09:00:29Z","duration":"PT1H1M14S","thumbnail":"https://i.ytimg.com/vi/YLhNkPJN-cc/mqdefault.jpg","viewCount":"1333","playlistId":"PLEkQk5xrP-tkc9DXvSLguqX5-FYp6ASR4","playlistName":"دليل الفالحين لطرق رياض الصالحين","category":"متنوع"},{"id":"he4BZgtKRLk","title":"587- حكم الوقف على (كَلَّا) - شرح البرهان في علوم القرآن","publishedAt":"2022-11-04T05:00:16Z","duration":"PT23M7S","thumbnail":"https://i.ytimg.com/vi/he4BZgtKRLk/mqdefault.jpg","viewCount":"332","playlistId":"PLEkQk5xrP-tnW3iBL7HkKziOFCFZbTlf0","playlistName":"شرح البرهان في علوم القرآن - أ.د. يسري جبر","category":"تفسير"},{"id":"49fhYlffJX0","title":"حقيقة وأسرار الأولية المحمدية","publishedAt":"2022-11-03T18:00:03Z","duration":"PT21M28S","thumbnail":"https://i.ytimg.com/vi/49fhYlffJX0/mqdefault.jpg","viewCount":"9767","playlistId":"PLEkQk5xrP-tlArtGpeLWaqNM7h7IDeAVC","playlistName":"خطب الجمعة أ.د. يسري جبر","category":"خطب"},{"id":"fdmLv_wY86g","title":"325- استحبابُ تعجيل المسافر الرجوع إلى أهله إذا قضى حاجته - شرح دليل الفالحين","publishedAt":"2022-11-03T09:00:30Z","duration":"PT31M57S","thumbnail":"https://i.ytimg.com/vi/fdmLv_wY86g/mqdefault.jpg","viewCount":"700","playlistId":"PLEkQk5xrP-tkc9DXvSLguqX5-FYp6ASR4","playlistName":"دليل الفالحين لطرق رياض الصالحين","category":"متنوع"},{"id":"kBxRHueJ4pI","title":"586- حروف المعاني(47): الحرف (51)(كلَّا) - شرح البرهان في علوم القرآن","publishedAt":"2022-11-03T05:00:16Z","duration":"PT10M51S","thumbnail":"https://i.ytimg.com/vi/kBxRHueJ4pI/mqdefault.jpg","viewCount":"350","playlistId":"PLEkQk5xrP-tnW3iBL7HkKziOFCFZbTlf0","playlistName":"شرح البرهان في علوم القرآن - أ.د. يسري جبر","category":"تفسير"},{"id":"vw0xI3BYB_4","title":"!إذا خفت من الله ففر إليه","publishedAt":"2022-11-02T18:00:31Z","duration":"PT9M31S","thumbnail":"https://i.ytimg.com/vi/vw0xI3BYB_4/mqdefault.jpg","viewCount":"6701","playlistId":"PLEkQk5xrP-tm8ZIu74nTOZN9KJUJu416J","playlistName":"مقاطع مُهمَّة (يُسريَّات) أ.د. يسري جبر","category":"متنوع"},{"id":"LDN50RPJ6zc","title":"324- الدُّعاءُ المُستجاب - شرح دليل الفالحين","publishedAt":"2022-11-02T09:00:08Z","duration":"PT40M7S","thumbnail":"https://i.ytimg.com/vi/LDN50RPJ6zc/mqdefault.jpg","viewCount":"1535","playlistId":"PLEkQk5xrP-tkc9DXvSLguqX5-FYp6ASR4","playlistName":"دليل الفالحين لطرق رياض الصالحين","category":"متنوع"},{"id":"a_bHt1ugnoM","title":"585- حروف المعاني(46): الحرف (46)(الكاف) - شرح البرهان في علوم القرآن","publishedAt":"2022-11-02T05:00:02Z","duration":"PT19M27S","thumbnail":"https://i.ytimg.com/vi/a_bHt1ugnoM/mqdefault.jpg","viewCount":"387","playlistId":"PLEkQk5xrP-tnW3iBL7HkKziOFCFZbTlf0","playlistName":"شرح البرهان في علوم القرآن - أ.د. يسري جبر","category":"تفسير"},{"id":"MfimGAhT5_0","title":"ما تقسير أن النبيﷺ هو أول خلق الله؟","publishedAt":"2022-11-01T18:00:15Z","duration":"PT15M24S","thumbnail":"https://i.ytimg.com/vi/MfimGAhT5_0/mqdefault.jpg","viewCount":"17414","playlistId":"PLEkQk5xrP-tkGXuZ9atE3k_7it12rUPTs","playlistName":"أسئلة المتابعين","category":"متنوع"},{"id":"IGLMWDkdUSs","title":"323- تكبير المسافر إِذَا صعد الثنايا وشبهها، وتسبيحه إِذَا هبط الأودية - شرح دليل الفالحين","publishedAt":"2022-11-01T09:00:17Z","duration":"PT31M56S","thumbnail":"https://i.ytimg.com/vi/IGLMWDkdUSs/mqdefault.jpg","viewCount":"649","playlistId":"PLEkQk5xrP-tkc9DXvSLguqX5-FYp6ASR4","playlistName":"دليل الفالحين لطرق رياض الصالحين","category":"متنوع"},{"id":"nHUn5AwLvCk","title":"584- الحرف (45)(قَدْ) يستخدم في التقليل - شرح البرهان في علوم القرآن","publishedAt":"2022-11-01T05:00:20Z","duration":"PT11M34S","thumbnail":"https://i.ytimg.com/vi/nHUn5AwLvCk/mqdefault.jpg","viewCount":"317","playlistId":"PLEkQk5xrP-tnW3iBL7HkKziOFCFZbTlf0","playlistName":"شرح البرهان في علوم القرآن - أ.د. يسري جبر","category":"تفسير"},{"id":"I7Wy4FsgLxs","title":"شرح منازل السائرين - المجلس (13) باب الاعتصام | أ.د. يسري جبر","publishedAt":"2022-10-31T18:00:10Z","duration":"PT51M41S","thumbnail":"https://i.ytimg.com/vi/I7Wy4FsgLxs/mqdefault.jpg","viewCount":"6239","playlistId":"PLEkQk5xrP-tmiUfQ-2Tsn7QIak4EsvaZW","playlistName":"كتاب التيسير المعين بشرح معاني منازل السائرين (تصوف) - د.يسري جبر","category":"تصوف"},{"id":"SUBDBbkmtS0","title":"56- الخُلْعُ و النُّشُوز - شرح مسند الإمام الشافعي رضي الله عنه","publishedAt":"2022-10-31T09:00:15Z","duration":"PT52M30S","thumbnail":"https://i.ytimg.com/vi/SUBDBbkmtS0/mqdefault.jpg","viewCount":"630","playlistId":"PLEkQk5xrP-tlDtaqY0qhNXAiZ19gaGzKI","playlistName":"شرح مسند الإمام محمد بن إدريس الشافعيّ رضي الله تعالى عنه","category":"فقه"},{"id":"ph5lWotLVYU","title":"583- حروف المعاني(44): الحرف (45) (قَدْ) - شرح البرهان في علوم القرآن","publishedAt":"2022-10-31T05:00:32Z","duration":"PT24M18S","thumbnail":"https://i.ytimg.com/vi/ph5lWotLVYU/mqdefault.jpg","viewCount":"303","playlistId":"PLEkQk5xrP-tnW3iBL7HkKziOFCFZbTlf0","playlistName":"شرح البرهان في علوم القرآن - أ.د. يسري جبر","category":"تفسير"}],"total":7675,"page":75,"pageSize":24,"totalPages":320}