{"items":[{"id":"-74Ub3yHZjk","title":"49-“بينما نحنُ جلوسُ عندَ رسول الله ﷺ ذات يوم ...”الحديث (1) باب المراقبة - شرح دليل الفالحين","publishedAt":"2021-04-24T04:57:33Z","duration":"PT39M5S","thumbnail":"https://i.ytimg.com/vi/-74Ub3yHZjk/mqdefault.jpg","viewCount":"2367","playlistId":"PLEkQk5xrP-tkc9DXvSLguqX5-FYp6ASR4","playlistName":"دليل الفالحين لطرق رياض الصالحين","category":"متنوع"},{"id":"C3-uNaIaYvM","title":"50- “...قال جبريلُ: فأخبرني عن الإيمان ...”تكملة الحديث (1) باب المراقبة - شرح دليل الفالحين","publishedAt":"2021-04-26T05:18:12Z","duration":"PT35M3S","thumbnail":"https://i.ytimg.com/vi/C3-uNaIaYvM/mqdefault.jpg","viewCount":"1027","playlistId":"PLEkQk5xrP-tkc9DXvSLguqX5-FYp6ASR4","playlistName":"دليل الفالحين لطرق رياض الصالحين","category":"متنوع"},{"id":"M8waa0-WG_M","title":"51- أمَارات الساعة“...قال فأخبرني عن الساعة ...”تكملة الحديث (1) باب المراقبة - شرح دليل الفالحين","publishedAt":"2021-04-28T05:37:51Z","duration":"PT26M43S","thumbnail":"https://i.ytimg.com/vi/M8waa0-WG_M/mqdefault.jpg","viewCount":"1149","playlistId":"PLEkQk5xrP-tkc9DXvSLguqX5-FYp6ASR4","playlistName":"دليل الفالحين لطرق رياض الصالحين","category":"متنوع"},{"id":"1MhPmuB0k1s","title":"52-“اتق اللهَ حيثما كنت، وأتْبع السيئةَ الحسنةَ تمحها...”الحديث (2) باب المراقبة - شرح دليل الفالحين","publishedAt":"2021-05-01T05:06:04Z","duration":"PT27M28S","thumbnail":"https://i.ytimg.com/vi/1MhPmuB0k1s/mqdefault.jpg","viewCount":"2152","playlistId":"PLEkQk5xrP-tkc9DXvSLguqX5-FYp6ASR4","playlistName":"دليل الفالحين لطرق رياض الصالحين","category":"متنوع"},{"id":"9-HI-Z8BZoY","title":"53-“يا غُلامُ إنِّي أعلِّمُكَ كلِماتٍ...”الحديث (3) باب المراقبة - شرح دليل الفالحين","publishedAt":"2021-05-04T05:26:34Z","duration":"PT38M52S","thumbnail":"https://i.ytimg.com/vi/9-HI-Z8BZoY/mqdefault.jpg","viewCount":"1826","playlistId":"PLEkQk5xrP-tkc9DXvSLguqX5-FYp6ASR4","playlistName":"دليل الفالحين لطرق رياض الصالحين","category":"متنوع"},{"id":"4WUuJEtLInY","title":"54-“إنكم لتعملون أعمالاً هي أدقُّ في أعينكم من الشَّعر...”الحديث(4) باب المراقبة - شرح دليل الفالحين","publishedAt":"2021-05-06T06:01:34Z","duration":"PT39M49S","thumbnail":"https://i.ytimg.com/vi/4WUuJEtLInY/mqdefault.jpg","viewCount":"1613","playlistId":"PLEkQk5xrP-tkc9DXvSLguqX5-FYp6ASR4","playlistName":"دليل الفالحين لطرق رياض الصالحين","category":"متنوع"},{"id":"ziMc7KdSBLA","title":"55-“الكَيِّسُ مَن دان نفسَه وعمِل لما بعدَ الموتِ ...”الحديث(7) باب المراقبة - شرح دليل الفالحين","publishedAt":"2021-05-08T05:53:48Z","duration":"PT16M50S","thumbnail":"https://i.ytimg.com/vi/ziMc7KdSBLA/mqdefault.jpg","viewCount":"1655","playlistId":"PLEkQk5xrP-tkc9DXvSLguqX5-FYp6ASR4","playlistName":"دليل الفالحين لطرق رياض الصالحين","category":"متنوع"},{"id":"EhGePsqjb6U","title":"56- باب التقوى - شرح دليل الفالحين","publishedAt":"2021-05-10T05:56:20Z","duration":"PT28M43S","thumbnail":"https://i.ytimg.com/vi/EhGePsqjb6U/mqdefault.jpg","viewCount":"1098","playlistId":"PLEkQk5xrP-tkc9DXvSLguqX5-FYp6ASR4","playlistName":"دليل الفالحين لطرق رياض الصالحين","category":"متنوع"},{"id":"xJBxtAA3cTU","title":"57-\"إنَّ الدُّنيا حُلْوَةٌ خَضِرةٌ، وإنَّ اللَّهَ مُسْتَخلِفُكم فيها…\"باب التقوى - شرح دليل الفالحين","publishedAt":"2021-05-12T05:09:10Z","duration":"PT25M51S","thumbnail":"https://i.ytimg.com/vi/xJBxtAA3cTU/mqdefault.jpg","viewCount":"1696","playlistId":"PLEkQk5xrP-tkc9DXvSLguqX5-FYp6ASR4","playlistName":"دليل الفالحين لطرق رياض الصالحين","category":"متنوع"},{"id":"nd0g_jWGR3E","title":"58- اليقينُ والتَّوكُّلُ\"…عُرِضَتْ عَلَيَّ الأُمَمُ…\"الحديث الأول - شرح دليل الفالحين","publishedAt":"2021-05-14T06:27:24Z","duration":"PT38M14S","thumbnail":"https://i.ytimg.com/vi/nd0g_jWGR3E/mqdefault.jpg","viewCount":"1679","playlistId":"PLEkQk5xrP-tkc9DXvSLguqX5-FYp6ASR4","playlistName":"دليل الفالحين لطرق رياض الصالحين","category":"متنوع"},{"id":"itBdioRZQ10","title":"59- \"اللَّهمَّ لكَ أسلمتُ وبكَ آمنتُ وعليك توكَّلتُ…\"الحديث(2)اليقين والتَّوكُّل - شرح دليل الفالحين","publishedAt":"2021-05-16T05:26:52Z","duration":"PT40M45S","thumbnail":"https://i.ytimg.com/vi/itBdioRZQ10/mqdefault.jpg","viewCount":"2021","playlistId":"PLEkQk5xrP-tkc9DXvSLguqX5-FYp6ASR4","playlistName":"دليل الفالحين لطرق رياض الصالحين","category":"متنوع"},{"id":"m61Fc3qJB6w","title":"60- \"لو أنكم تتوكّلون على الله حقَّ توكُّله؛ لرزقكم…\"الحديث(6)اليقين والتَّوكُّل - شرح دليل الفالحين","publishedAt":"2021-05-17T05:37:23Z","duration":"PT38M37S","thumbnail":"https://i.ytimg.com/vi/m61Fc3qJB6w/mqdefault.jpg","viewCount":"3053","playlistId":"PLEkQk5xrP-tkc9DXvSLguqX5-FYp6ASR4","playlistName":"دليل الفالحين لطرق رياض الصالحين","category":"متنوع"},{"id":"ehKocBS8mHA","title":"61- \"إذا خرَجَ الرَّجُلُ من بيتِه، فقال: بسم الله…\"الحديث(9)اليقين والتَّوكُّل - شرح دليل الفالحين","publishedAt":"2021-05-18T20:22:33Z","duration":"PT32M2S","thumbnail":"https://i.ytimg.com/vi/ehKocBS8mHA/mqdefault.jpg","viewCount":"1894","playlistId":"PLEkQk5xrP-tkc9DXvSLguqX5-FYp6ASR4","playlistName":"دليل الفالحين لطرق رياض الصالحين","category":"متنوع"},{"id":"HALLUn7oSCo","title":"62- الاستقامة \"…قُلْ لي في الإسْلامِ قَوْلًا لا أسْأَلُ عنْه أحَدًا بَعْدَكَ…\" شرح دليل الفالحين","publishedAt":"2021-05-19T22:19:11Z","duration":"PT21M59S","thumbnail":"https://i.ytimg.com/vi/HALLUn7oSCo/mqdefault.jpg","viewCount":"1653","playlistId":"PLEkQk5xrP-tkc9DXvSLguqX5-FYp6ASR4","playlistName":"دليل الفالحين لطرق رياض الصالحين","category":"متنوع"},{"id":"wOf59LACOXc","title":"63- \"…التَّفكُّر في عظيم مخلوقات الله تعالى وفناء الدنيا…\" شرح دليل الفالحين","publishedAt":"2021-05-20T20:38:19Z","duration":"PT30M34S","thumbnail":"https://i.ytimg.com/vi/wOf59LACOXc/mqdefault.jpg","viewCount":"2108","playlistId":"PLEkQk5xrP-tkc9DXvSLguqX5-FYp6ASR4","playlistName":"دليل الفالحين لطرق رياض الصالحين","category":"متنوع"},{"id":"RRKT42AObHI","title":"64- المبادرة إلى الخيرات\"بادروا بالأعمال الصالحة…\" شرح دليل الفالحين","publishedAt":"2021-05-21T22:34:26Z","duration":"PT39M30S","thumbnail":"https://i.ytimg.com/vi/RRKT42AObHI/mqdefault.jpg","viewCount":"1523","playlistId":"PLEkQk5xrP-tkc9DXvSLguqX5-FYp6ASR4","playlistName":"دليل الفالحين لطرق رياض الصالحين","category":"متنوع"},{"id":"pfHUoK67cEM","title":"65- المبادرة إلى الخيرات\"أَخَذَ سَيْفًا يَومَ أُحُدٍ فَقالَ:…\"الحديث (5) شرح دليل الفالحين","publishedAt":"2021-05-22T20:10:49Z","duration":"PT29M50S","thumbnail":"https://i.ytimg.com/vi/pfHUoK67cEM/mqdefault.jpg","viewCount":"1071","playlistId":"PLEkQk5xrP-tkc9DXvSLguqX5-FYp6ASR4","playlistName":"دليل الفالحين لطرق رياض الصالحين","category":"متنوع"},{"id":"pqCQuGhTUaM","title":"66- المُجَاهَدة\"إنَّ اللهَ تعالى قال: مَن عادى لي وليًّا، فقد آذنتُه بالحرب…\" شرح دليل الفالحين","publishedAt":"2021-05-23T19:31:13Z","duration":"PT39M40S","thumbnail":"https://i.ytimg.com/vi/pqCQuGhTUaM/mqdefault.jpg","viewCount":"6692","playlistId":"PLEkQk5xrP-tkc9DXvSLguqX5-FYp6ASR4","playlistName":"دليل الفالحين لطرق رياض الصالحين","category":"متنوع"},{"id":"YmyxdtWEitM","title":"67- \"نِعْمَتان مَغْبُونٌ فيهِما كثيرٌ من النَّاسِ: الصِّحَّة والفَراغ\" الحديث(3) شرح دليل الفالحين","publishedAt":"2021-05-24T19:58:38Z","duration":"PT41M40S","thumbnail":"https://i.ytimg.com/vi/YmyxdtWEitM/mqdefault.jpg","viewCount":"1889","playlistId":"PLEkQk5xrP-tkc9DXvSLguqX5-FYp6ASR4","playlistName":"دليل الفالحين لطرق رياض الصالحين","category":"متنوع"},{"id":"LfkyMo-raBw","title":"68- \"…حُجِبَتِ النَّارُ بالشَّهَواتِ، وحُجِبَتِ الجَنَّةُ بالمَكارِهِ.\" الحديث (7) شرح دليل الفالحين","publishedAt":"2021-05-26T05:08:44Z","duration":"PT41M21S","thumbnail":"https://i.ytimg.com/vi/LfkyMo-raBw/mqdefault.jpg","viewCount":"1808","playlistId":"PLEkQk5xrP-tkc9DXvSLguqX5-FYp6ASR4","playlistName":"دليل الفالحين لطرق رياض الصالحين","category":"متنوع"},{"id":"b_PpZUo2eQI","title":"69- \"…فأعِنِّي علَى نَفْسِكَ بكَثْرَةِ السُّجُودِ...\" الحديث (12) شرح دليل الفالحين","publishedAt":"2021-05-28T05:00:34Z","duration":"PT36M41S","thumbnail":"https://i.ytimg.com/vi/b_PpZUo2eQI/mqdefault.jpg","viewCount":"2293","playlistId":"PLEkQk5xrP-tkc9DXvSLguqX5-FYp6ASR4","playlistName":"دليل الفالحين لطرق رياض الصالحين","category":"متنوع"},{"id":"xBE_mQ8aL2M","title":"70-\"…لَمَّا نزلتْ آيةُ الصَّدقة، كُنَّا نُحَامِلُ، فجاءَ رجلٌ فتصدق...\"الحديث (16) شرح دليل الفالحين","publishedAt":"2021-05-29T19:59:13Z","duration":"PT38M52S","thumbnail":"https://i.ytimg.com/vi/xBE_mQ8aL2M/mqdefault.jpg","viewCount":"1234","playlistId":"PLEkQk5xrP-tkc9DXvSLguqX5-FYp6ASR4","playlistName":"دليل الفالحين لطرق رياض الصالحين","category":"متنوع"},{"id":"5ylDh1KooMM","title":"71-\"…كُلُّكمْ جائعٌ إلَّا منْ أطْعمْته، فاسْتَطْعمُوني أُطْعِمْكمْ....\"الحديث (17) شرح دليل الفالحين","publishedAt":"2021-05-31T08:05:39Z","duration":"PT32M20S","thumbnail":"https://i.ytimg.com/vi/5ylDh1KooMM/mqdefault.jpg","viewCount":"1575","playlistId":"PLEkQk5xrP-tkc9DXvSLguqX5-FYp6ASR4","playlistName":"دليل الفالحين لطرق رياض الصالحين","category":"متنوع"},{"id":"6pMzIkmm4FA","title":"72- الحث على الازدياد من الخير في أواخر العمر - شرح دليل الفالحين","publishedAt":"2021-06-01T22:06:05Z","duration":"PT32M11S","thumbnail":"https://i.ytimg.com/vi/6pMzIkmm4FA/mqdefault.jpg","viewCount":"4164","playlistId":"PLEkQk5xrP-tkc9DXvSLguqX5-FYp6ASR4","playlistName":"دليل الفالحين لطرق رياض الصالحين","category":"متنوع"}],"total":504,"page":3,"pageSize":24,"totalPages":21}