{"items":[{"id":"9Ita1ZgEBUM","title":"شرح صحيح البخاري - كتاب التهجد من باب ٥","publishedAt":"2016-12-26T13:01:28Z","duration":"PT36M10S","thumbnail":"https://i.ytimg.com/vi/9Ita1ZgEBUM/mqdefault.jpg","viewCount":"1149","playlistId":"PLEkQk5xrP-tlEerGoLa1AFy-2XvQ-sovv","playlistName":"شرح صحيح البخاري - أ.د. يسري جبر (كاملا)","category":"حديث"},{"id":"wDhc7rSohkA","title":"شرح صحيح البخاري - كتاب المظالم من أوله","publishedAt":"2017-05-23T19:51:09Z","duration":"PT37M30S","thumbnail":"https://i.ytimg.com/vi/wDhc7rSohkA/mqdefault.jpg","viewCount":"1140","playlistId":"PLEkQk5xrP-tlEerGoLa1AFy-2XvQ-sovv","playlistName":"شرح صحيح البخاري - أ.د. يسري جبر (كاملا)","category":"حديث"},{"id":"x3KEa4nk7cE","title":"شرح صحيح البخاري - كتاب الزكاة من باب ٣","publishedAt":"2017-02-13T12:30:57Z","duration":"PT39M18S","thumbnail":"https://i.ytimg.com/vi/x3KEa4nk7cE/mqdefault.jpg","viewCount":"1138","playlistId":"PLEkQk5xrP-tlEerGoLa1AFy-2XvQ-sovv","playlistName":"شرح صحيح البخاري - أ.د. يسري جبر (كاملا)","category":"حديث"},{"id":"2T5XlckgRhs","title":"شرح صحيح البخاري كتاب الأذان من باب ١٨","publishedAt":"2016-11-11T12:48:34Z","duration":"PT34M51S","thumbnail":"https://i.ytimg.com/vi/2T5XlckgRhs/mqdefault.jpg","viewCount":"1121","playlistId":"PLEkQk5xrP-tlEerGoLa1AFy-2XvQ-sovv","playlistName":"شرح صحيح البخاري - أ.د. يسري جبر (كاملا)","category":"حديث"},{"id":"yKGbzxvXnz4","title":"شرح صحيح البخاري - كتاب بدء الخلق من باب ٣","publishedAt":"2017-09-11T19:35:57Z","duration":"PT41M44S","thumbnail":"https://i.ytimg.com/vi/yKGbzxvXnz4/mqdefault.jpg","viewCount":"1116","playlistId":"PLEkQk5xrP-tlEerGoLa1AFy-2XvQ-sovv","playlistName":"شرح صحيح البخاري - أ.د. يسري جبر (كاملا)","category":"حديث"},{"id":"AL95aG4UJuI","title":"شرح صحيح البخاري كتاب الجمعة من باب ١٠","publishedAt":"2016-12-01T07:50:57Z","duration":"PT40M28S","thumbnail":"https://i.ytimg.com/vi/AL95aG4UJuI/mqdefault.jpg","viewCount":"1114","playlistId":"PLEkQk5xrP-tlEerGoLa1AFy-2XvQ-sovv","playlistName":"شرح صحيح البخاري - أ.د. يسري جبر (كاملا)","category":"حديث"},{"id":"w5ZJZqinK1g","title":"شرح صحيح البخاري كتاب التعبير من أوله","publishedAt":"2018-12-20T17:52:44Z","duration":"PT40M45S","thumbnail":"https://i.ytimg.com/vi/w5ZJZqinK1g/mqdefault.jpg","viewCount":"1106","playlistId":"PLEkQk5xrP-tlEerGoLa1AFy-2XvQ-sovv","playlistName":"شرح صحيح البخاري - أ.د. يسري جبر (كاملا)","category":"حديث"},{"id":"Yry7Udiy2ms","title":"شرح صحيح البخاري- كتاب فضائل الصحابة من أوله","publishedAt":"2017-11-08T13:27:14Z","duration":"PT46M3S","thumbnail":"https://i.ytimg.com/vi/Yry7Udiy2ms/mqdefault.jpg","viewCount":"1089","playlistId":"PLEkQk5xrP-tlEerGoLa1AFy-2XvQ-sovv","playlistName":"شرح صحيح البخاري - أ.د. يسري جبر (كاملا)","category":"حديث"},{"id":"_HntS0-LZb8","title":"شرح صحيح البخاري - كتاب الشفعة وكتاب الإجارة من أوله","publishedAt":"2017-05-07T12:00:08Z","duration":"PT37M1S","thumbnail":"https://i.ytimg.com/vi/_HntS0-LZb8/mqdefault.jpg","viewCount":"1076","playlistId":"PLEkQk5xrP-tlEerGoLa1AFy-2XvQ-sovv","playlistName":"شرح صحيح البخاري - أ.د. يسري جبر (كاملا)","category":"حديث"},{"id":"NJlIPRLOQSQ","title":"شرح صحيح البخاري كتاب الأذان من باب ٦١","publishedAt":"2016-11-20T19:19:23Z","duration":"PT41M57S","thumbnail":"https://i.ytimg.com/vi/NJlIPRLOQSQ/mqdefault.jpg","viewCount":"1072","playlistId":"PLEkQk5xrP-tlEerGoLa1AFy-2XvQ-sovv","playlistName":"شرح صحيح البخاري - أ.د. يسري جبر (كاملا)","category":"حديث"},{"id":"CVSMyRAp1y0","title":"شرح صحيح البخاري - كتاب أحاديث الأنبياء من أوله","publishedAt":"2017-09-25T14:47:02Z","duration":"PT37M22S","thumbnail":"https://i.ytimg.com/vi/CVSMyRAp1y0/mqdefault.jpg","viewCount":"1070","playlistId":"PLEkQk5xrP-tlEerGoLa1AFy-2XvQ-sovv","playlistName":"شرح صحيح البخاري - أ.د. يسري جبر (كاملا)","category":"حديث"},{"id":"TqT7SnqOe64","title":"شرح صحيح البخاري كتاب الأذان من باب ١١٨","publishedAt":"2016-11-24T13:40:22Z","duration":"PT38M30S","thumbnail":"https://i.ytimg.com/vi/TqT7SnqOe64/mqdefault.jpg","viewCount":"1070","playlistId":"PLEkQk5xrP-tlEerGoLa1AFy-2XvQ-sovv","playlistName":"شرح صحيح البخاري - أ.د. يسري جبر (كاملا)","category":"حديث"},{"id":"HcO40BU3PBA","title":"شرح صحيح البخاري - كتاب الصوم من باب ٢٠","publishedAt":"2017-03-30T13:16:34Z","duration":"PT41M3S","thumbnail":"https://i.ytimg.com/vi/HcO40BU3PBA/mqdefault.jpg","viewCount":"1065","playlistId":"PLEkQk5xrP-tlEerGoLa1AFy-2XvQ-sovv","playlistName":"شرح صحيح البخاري - أ.د. يسري جبر (كاملا)","category":"حديث"},{"id":"ekR_RKDRpH0","title":"شرح صحيح البخاري كتاب الخوف من أوله","publishedAt":"2016-12-05T06:36:30Z","duration":"PT35M55S","thumbnail":"https://i.ytimg.com/vi/ekR_RKDRpH0/mqdefault.jpg","viewCount":"1065","playlistId":"PLEkQk5xrP-tlEerGoLa1AFy-2XvQ-sovv","playlistName":"شرح صحيح البخاري - أ.د. يسري جبر (كاملا)","category":"حديث"},{"id":"ikPCcfrtmqI","title":"شرح صحيح البخاري كتاب العِيدَين من أوله","publishedAt":"2016-12-06T07:55:44Z","duration":"PT39M20S","thumbnail":"https://i.ytimg.com/vi/ikPCcfrtmqI/mqdefault.jpg","viewCount":"1062","playlistId":"PLEkQk5xrP-tlEerGoLa1AFy-2XvQ-sovv","playlistName":"شرح صحيح البخاري - أ.د. يسري جبر (كاملا)","category":"حديث"},{"id":"TbQiQd9fhsw","title":"شرح صحيح البخاري - كتاب الجنائز من باب ٩٤","publishedAt":"2017-02-11T13:18:52Z","duration":"PT49M3S","thumbnail":"https://i.ytimg.com/vi/TbQiQd9fhsw/mqdefault.jpg","viewCount":"1056","playlistId":"PLEkQk5xrP-tlEerGoLa1AFy-2XvQ-sovv","playlistName":"شرح صحيح البخاري - أ.د. يسري جبر (كاملا)","category":"حديث"},{"id":"cIX4q76Kpsg","title":"شرح صحيح البخاري كتاب الأذان من باب ٢٩","publishedAt":"2016-11-12T04:01:26Z","duration":"PT34M14S","thumbnail":"https://i.ytimg.com/vi/cIX4q76Kpsg/mqdefault.jpg","viewCount":"1052","playlistId":"PLEkQk5xrP-tlEerGoLa1AFy-2XvQ-sovv","playlistName":"شرح صحيح البخاري - أ.د. يسري جبر (كاملا)","category":"حديث"},{"id":"1wB9ywdEOnY","title":"شرح صحيح البخاري - كتاب تقصير الصلا‎ة من أوله","publishedAt":"2016-12-22T08:43:44Z","duration":"PT39M11S","thumbnail":"https://i.ytimg.com/vi/1wB9ywdEOnY/mqdefault.jpg","viewCount":"1050","playlistId":"PLEkQk5xrP-tlEerGoLa1AFy-2XvQ-sovv","playlistName":"شرح صحيح البخاري - أ.د. يسري جبر (كاملا)","category":"حديث"},{"id":"13fXq0uaxiI","title":"شرح صحيح البخاري كتاب الأذان من باب ١٠٦","publishedAt":"2016-11-23T14:42:30Z","duration":"PT38M40S","thumbnail":"https://i.ytimg.com/vi/13fXq0uaxiI/mqdefault.jpg","viewCount":"1050","playlistId":"PLEkQk5xrP-tlEerGoLa1AFy-2XvQ-sovv","playlistName":"شرح صحيح البخاري - أ.د. يسري جبر (كاملا)","category":"حديث"},{"id":"FSWo8xGC_m0","title":"شرح صحيح البخاري كتاب مواقيت الصلاة من باب ٣٩","publishedAt":"2016-11-10T04:29:40Z","duration":"PT23M45S","thumbnail":"https://i.ytimg.com/vi/FSWo8xGC_m0/mqdefault.jpg","viewCount":"1050","playlistId":"PLEkQk5xrP-tlEerGoLa1AFy-2XvQ-sovv","playlistName":"شرح صحيح البخاري - أ.د. يسري جبر (كاملا)","category":"حديث"},{"id":"B474MyWjLL0","title":"شرح صحيح البخاري كتاب الوتر من أوله","publishedAt":"2016-12-08T07:43:04Z","duration":"PT27M28S","thumbnail":"https://i.ytimg.com/vi/B474MyWjLL0/mqdefault.jpg","viewCount":"1047","playlistId":"PLEkQk5xrP-tlEerGoLa1AFy-2XvQ-sovv","playlistName":"شرح صحيح البخاري - أ.د. يسري جبر (كاملا)","category":"حديث"},{"id":"mMgWOLUcW38","title":"شرح صحيح البخاري كتاب التوحيد من أوله","publishedAt":"2019-01-31T22:04:03Z","duration":"PT32M28S","thumbnail":"https://i.ytimg.com/vi/mMgWOLUcW38/mqdefault.jpg","viewCount":"1043","playlistId":"PLEkQk5xrP-tlEerGoLa1AFy-2XvQ-sovv","playlistName":"شرح صحيح البخاري - أ.د. يسري جبر (كاملا)","category":"حديث"},{"id":"cRZVp6DJZcs","title":"شرح صحيح البخاري كتاب الأذان من باب ٥٢","publishedAt":"2016-11-20T12:14:37Z","duration":"PT38M11S","thumbnail":"https://i.ytimg.com/vi/cRZVp6DJZcs/mqdefault.jpg","viewCount":"1040","playlistId":"PLEkQk5xrP-tlEerGoLa1AFy-2XvQ-sovv","playlistName":"شرح صحيح البخاري - أ.د. يسري جبر (كاملا)","category":"حديث"},{"id":"NMPcFRjzUps","title":"شرح صحيح البخاري- كتاب المناقب من أوله","publishedAt":"2017-10-25T23:59:41Z","duration":"PT31M52S","thumbnail":"https://i.ytimg.com/vi/NMPcFRjzUps/mqdefault.jpg","viewCount":"1036","playlistId":"PLEkQk5xrP-tlEerGoLa1AFy-2XvQ-sovv","playlistName":"شرح صحيح البخاري - أ.د. يسري جبر (كاملا)","category":"حديث"}],"total":719,"page":5,"pageSize":24,"totalPages":30}