{"items":[{"id":"LkYSwnPt1IE","title":"42- حَجْرُ السَّفِيهِ والمُفْلِس","publishedAt":"2022-03-27T05:54:17Z","duration":"PT47M3S","thumbnail":"https://i.ytimg.com/vi/LkYSwnPt1IE/mqdefault.jpg","viewCount":"2089","playlistId":"PLEkQk5xrP-tkXuPs-0sXfWQDWzBKmcjWN","playlistName":"\"فتح القريب المجيب في شرح ألفاظ التقريب\"( فقه شافعيّ)  أ. د. يسري جبر","category":"فقه"},{"id":"T9a0VBkeysg","title":"41- أحكامُ الرَّهْن","publishedAt":"2022-03-22T07:21:51Z","duration":"PT53M52S","thumbnail":"https://i.ytimg.com/vi/T9a0VBkeysg/mqdefault.jpg","viewCount":"1099","playlistId":"PLEkQk5xrP-tkXuPs-0sXfWQDWzBKmcjWN","playlistName":"\"فتح القريب المجيب في شرح ألفاظ التقريب\"( فقه شافعيّ)  أ. د. يسري جبر","category":"فقه"},{"id":"5iFSiHfbtkQ","title":"40- أحكام السَّلَم - شرح كتاب فتح القريب المجيب","publishedAt":"2021-11-11T21:38:43Z","duration":"PT35M4S","thumbnail":"https://i.ytimg.com/vi/5iFSiHfbtkQ/mqdefault.jpg","viewCount":"1093","playlistId":"PLEkQk5xrP-tkXuPs-0sXfWQDWzBKmcjWN","playlistName":"\"فتح القريب المجيب في شرح ألفاظ التقريب\"( فقه شافعيّ)  أ. د. يسري جبر","category":"فقه"},{"id":"pHGIhe3Flic","title":"39- الاختيار - شرح كتاب فتح القريب المجيب","publishedAt":"2021-11-11T06:40:17Z","duration":"PT41M6S","thumbnail":"https://i.ytimg.com/vi/pHGIhe3Flic/mqdefault.jpg","viewCount":"843","playlistId":"PLEkQk5xrP-tkXuPs-0sXfWQDWzBKmcjWN","playlistName":"\"فتح القريب المجيب في شرح ألفاظ التقريب\"( فقه شافعيّ)  أ. د. يسري جبر","category":"فقه"},{"id":"tJZkDHhVuRw","title":"38- الرِّبَا - شرح كتاب فتح القريب المجيب","publishedAt":"2021-11-10T06:19:02Z","duration":"PT49M32S","thumbnail":"https://i.ytimg.com/vi/tJZkDHhVuRw/mqdefault.jpg","viewCount":"1032","playlistId":"PLEkQk5xrP-tkXuPs-0sXfWQDWzBKmcjWN","playlistName":"\"فتح القريب المجيب في شرح ألفاظ التقريب\"( فقه شافعيّ)  أ. د. يسري جبر","category":"فقه"},{"id":"83Y0D5hI3kg","title":"37- أحكام البيوع وغيرها من المعاملات - شرح كتاب فتح القريب المجيب","publishedAt":"2021-11-09T06:09:36Z","duration":"PT45M16S","thumbnail":"https://i.ytimg.com/vi/83Y0D5hI3kg/mqdefault.jpg","viewCount":"1076","playlistId":"PLEkQk5xrP-tkXuPs-0sXfWQDWzBKmcjWN","playlistName":"\"فتح القريب المجيب في شرح ألفاظ التقريب\"( فقه شافعيّ)  أ. د. يسري جبر","category":"فقه"},{"id":"u1xEqhh9_XU","title":"32- يَحرُمُ صيام خمسة أيام - شرح كتاب فتح القريب المجيب","publishedAt":"2021-11-02T10:55:10Z","duration":"PT1H13M52S","thumbnail":"https://i.ytimg.com/vi/u1xEqhh9_XU/mqdefault.jpg","viewCount":"914","playlistId":"PLEkQk5xrP-tkXuPs-0sXfWQDWzBKmcjWN","playlistName":"\"فتح القريب المجيب في شرح ألفاظ التقريب\"( فقه شافعيّ)  أ. د. يسري جبر","category":"فقه"},{"id":"a83_n2r7cVs","title":"31- نواقض الصيام - شرح كتاب فتح القريب المجيب","publishedAt":"2021-10-31T03:12:09Z","duration":"PT1H22M21S","thumbnail":"https://i.ytimg.com/vi/a83_n2r7cVs/mqdefault.jpg","viewCount":"884","playlistId":"PLEkQk5xrP-tkXuPs-0sXfWQDWzBKmcjWN","playlistName":"\"فتح القريب المجيب في شرح ألفاظ التقريب\"( فقه شافعيّ)  أ. د. يسري جبر","category":"فقه"},{"id":"SCaeqWVIC4E","title":"30- أحكام الصيام - شرح كتاب فتح القريب المجيب","publishedAt":"2021-10-30T02:51:37Z","duration":"PT28M37S","thumbnail":"https://i.ytimg.com/vi/SCaeqWVIC4E/mqdefault.jpg","viewCount":"700","playlistId":"PLEkQk5xrP-tkXuPs-0sXfWQDWzBKmcjWN","playlistName":"\"فتح القريب المجيب في شرح ألفاظ التقريب\"( فقه شافعيّ)  أ. د. يسري جبر","category":"فقه"},{"id":"1Fn1Ci45xi0","title":"29- نصاب الزروع - شرح كتاب فتح القريب المجيب","publishedAt":"2021-10-27T01:48:28Z","duration":"PT1H36M4S","thumbnail":"https://i.ytimg.com/vi/1Fn1Ci45xi0/mqdefault.jpg","viewCount":"851","playlistId":"PLEkQk5xrP-tkXuPs-0sXfWQDWzBKmcjWN","playlistName":"\"فتح القريب المجيب في شرح ألفاظ التقريب\"( فقه شافعيّ)  أ. د. يسري جبر","category":"فقه"},{"id":"5aeRnn0Wg_Y","title":"28- فصلٌ في نِصاب الِإبل - شرح كتاب فتح القريب المجيب","publishedAt":"2021-10-24T11:28:36Z","duration":"PT25M21S","thumbnail":"https://i.ytimg.com/vi/5aeRnn0Wg_Y/mqdefault.jpg","viewCount":"610","playlistId":"PLEkQk5xrP-tkXuPs-0sXfWQDWzBKmcjWN","playlistName":"\"فتح القريب المجيب في شرح ألفاظ التقريب\"( فقه شافعيّ)  أ. د. يسري جبر","category":"فقه"},{"id":"arv1ohzTqyQ","title":"27- كتاب أحكام الزكاة - شرح كتاب فتح القريب المجيب","publishedAt":"2021-10-22T20:34:36Z","duration":"PT45M29S","thumbnail":"https://i.ytimg.com/vi/arv1ohzTqyQ/mqdefault.jpg","viewCount":"904","playlistId":"PLEkQk5xrP-tkXuPs-0sXfWQDWzBKmcjWN","playlistName":"\"فتح القريب المجيب في شرح ألفاظ التقريب\"( فقه شافعيّ)  أ. د. يسري جبر","category":"فقه"},{"id":"5gaobAwj5QQ","title":"26- فصل فيما يتعلق بالميت من غسله وتكفينه والصلاة عليه ودفنه - شرح كتاب فتح القريب المجيب","publishedAt":"2021-10-19T23:13:03Z","duration":"PT1H33M15S","thumbnail":"https://i.ytimg.com/vi/5gaobAwj5QQ/mqdefault.jpg","viewCount":"717","playlistId":"PLEkQk5xrP-tkXuPs-0sXfWQDWzBKmcjWN","playlistName":"\"فتح القريب المجيب في شرح ألفاظ التقريب\"( فقه شافعيّ)  أ. د. يسري جبر","category":"فقه"},{"id":"UjleIgMprcM","title":"25- فصلٌ في اللباس - شرح كتاب فتح القريب المجيب","publishedAt":"2021-10-17T10:40:45Z","duration":"PT1H6M36S","thumbnail":"https://i.ytimg.com/vi/UjleIgMprcM/mqdefault.jpg","viewCount":"928","playlistId":"PLEkQk5xrP-tkXuPs-0sXfWQDWzBKmcjWN","playlistName":"\"فتح القريب المجيب في شرح ألفاظ التقريب\"( فقه شافعيّ)  أ. د. يسري جبر","category":"فقه"},{"id":"2keSnqhuxWg","title":"24- صلاةُ الكسوف والخسوف","publishedAt":"2021-10-16T11:21:11Z","duration":"PT1H7M47S","thumbnail":"https://i.ytimg.com/vi/2keSnqhuxWg/mqdefault.jpg","viewCount":"680","playlistId":"PLEkQk5xrP-tkXuPs-0sXfWQDWzBKmcjWN","playlistName":"\"فتح القريب المجيب في شرح ألفاظ التقريب\"( فقه شافعيّ)  أ. د. يسري جبر","category":"فقه"},{"id":"hotUJ4071Pg","title":"23- صلاة العيدين - شرح كتاب فتح القريب المجيب","publishedAt":"2021-10-15T14:19:53Z","duration":"PT50M30S","thumbnail":"https://i.ytimg.com/vi/hotUJ4071Pg/mqdefault.jpg","viewCount":"763","playlistId":"PLEkQk5xrP-tkXuPs-0sXfWQDWzBKmcjWN","playlistName":"\"فتح القريب المجيب في شرح ألفاظ التقريب\"( فقه شافعيّ)  أ. د. يسري جبر","category":"فقه"},{"id":"sFFqWm9aK7Y","title":"22- أحكام صلاة الجمعة - شرح كتاب فتح القريب المجيب","publishedAt":"2021-10-14T10:41:24Z","duration":"PT1H26M36S","thumbnail":"https://i.ytimg.com/vi/sFFqWm9aK7Y/mqdefault.jpg","viewCount":"1058","playlistId":"PLEkQk5xrP-tkXuPs-0sXfWQDWzBKmcjWN","playlistName":"\"فتح القريب المجيب في شرح ألفاظ التقريب\"( فقه شافعيّ)  أ. د. يسري جبر","category":"فقه"},{"id":"jCXZS_fngBo","title":"21- باب قصر الصلاة وجمعها - شرح كتاب فتح القريب المجيب","publishedAt":"2021-10-13T10:57:05Z","duration":"PT1H5M52S","thumbnail":"https://i.ytimg.com/vi/jCXZS_fngBo/mqdefault.jpg","viewCount":"1440","playlistId":"PLEkQk5xrP-tkXuPs-0sXfWQDWzBKmcjWN","playlistName":"\"فتح القريب المجيب في شرح ألفاظ التقريب\"( فقه شافعيّ)  أ. د. يسري جبر","category":"فقه"},{"id":"uMJZndErreU","title":"20- الأوقاتُ التى تُكْرَهُ الصلاة فيها - شرح كتاب فتح القريب المجيب","publishedAt":"2021-10-12T11:15:38Z","duration":"PT1H31M45S","thumbnail":"https://i.ytimg.com/vi/uMJZndErreU/mqdefault.jpg","viewCount":"1305","playlistId":"PLEkQk5xrP-tkXuPs-0sXfWQDWzBKmcjWN","playlistName":"\"فتح القريب المجيب في شرح ألفاظ التقريب\"( فقه شافعيّ)  أ. د. يسري جبر","category":"فقه"},{"id":"-2z3z0NGHu8","title":"19- تابع ركعات الفرائض  - شرح كتاب فتح القريب المجيب","publishedAt":"2021-10-11T10:53:16Z","duration":"PT1H15M7S","thumbnail":"https://i.ytimg.com/vi/-2z3z0NGHu8/mqdefault.jpg","viewCount":"1209","playlistId":"PLEkQk5xrP-tkXuPs-0sXfWQDWzBKmcjWN","playlistName":"\"فتح القريب المجيب في شرح ألفاظ التقريب\"( فقه شافعيّ)  أ. د. يسري جبر","category":"فقه"},{"id":"eWG58bNAYZQ","title":"18- فصلٌ في أمور تخالفُ فيها المرأةُ الرجلَ في الصلاة - شرح كتاب فتح القريب المجيب","publishedAt":"2021-10-10T10:47:12Z","duration":"PT1H1M57S","thumbnail":"https://i.ytimg.com/vi/eWG58bNAYZQ/mqdefault.jpg","viewCount":"1292","playlistId":"PLEkQk5xrP-tkXuPs-0sXfWQDWzBKmcjWN","playlistName":"\"فتح القريب المجيب في شرح ألفاظ التقريب\"( فقه شافعيّ)  أ. د. يسري جبر","category":"فقه"},{"id":"YgdrH7bLAZI","title":"17- سنن الصلاة بعد الدخول فيها - شرح كتاب فتح القريب المجيب","publishedAt":"2021-10-09T11:18:31Z","duration":"PT1H14M13S","thumbnail":"https://i.ytimg.com/vi/YgdrH7bLAZI/mqdefault.jpg","viewCount":"1415","playlistId":"PLEkQk5xrP-tkXuPs-0sXfWQDWzBKmcjWN","playlistName":"\"فتح القريب المجيب في شرح ألفاظ التقريب\"( فقه شافعيّ)  أ. د. يسري جبر","category":"فقه"},{"id":"8S8bwLVYqpw","title":"16- أركان الصلاة - شرح كتاب فتح القريب المجيب","publishedAt":"2021-10-08T11:12:11Z","duration":"PT1H6M5S","thumbnail":"https://i.ytimg.com/vi/8S8bwLVYqpw/mqdefault.jpg","viewCount":"1305","playlistId":"PLEkQk5xrP-tkXuPs-0sXfWQDWzBKmcjWN","playlistName":"\"فتح القريب المجيب في شرح ألفاظ التقريب\"( فقه شافعيّ)  أ. د. يسري جبر","category":"فقه"},{"id":"0VIAeWvvE5I","title":"15-  شرائط الصلاة قبل الدخول فيها خمسة أشياء - شرح فتح القريب المجيب","publishedAt":"2021-10-06T10:33:38Z","duration":"PT1H7M1S","thumbnail":"https://i.ytimg.com/vi/0VIAeWvvE5I/mqdefault.jpg","viewCount":"1336","playlistId":"PLEkQk5xrP-tkXuPs-0sXfWQDWzBKmcjWN","playlistName":"\"فتح القريب المجيب في شرح ألفاظ التقريب\"( فقه شافعيّ)  أ. د. يسري جبر","category":"فقه"}],"total":38,"page":1,"pageSize":24,"totalPages":2}