{"items":[{"id":"RjdTiq1mPJE","title":"شرح صحيح البخاري - كتاب الجنائز من باب ٣١","publishedAt":"2017-01-13T05:45:49Z","duration":"PT31M28S","thumbnail":"https://i.ytimg.com/vi/RjdTiq1mPJE/mqdefault.jpg","viewCount":"995","playlistId":"PLEkQk5xrP-tlEerGoLa1AFy-2XvQ-sovv","playlistName":"شرح صحيح البخاري - أ.د. يسري جبر (كاملا)","category":"حديث"},{"id":"mCXem_KztTE","title":"شرح صحيح البخاري - كتاب الجنائز من باب ٣٦","publishedAt":"2017-01-14T18:26:01Z","duration":"PT27M18S","thumbnail":"https://i.ytimg.com/vi/mCXem_KztTE/mqdefault.jpg","viewCount":"858","playlistId":"PLEkQk5xrP-tlEerGoLa1AFy-2XvQ-sovv","playlistName":"شرح صحيح البخاري - أ.د. يسري جبر (كاملا)","category":"حديث"},{"id":"dVF9f0sleQk","title":"شرح صحيح البخاري - كتاب الجنائز من باب ٤٢","publishedAt":"2017-02-02T09:06:40Z","duration":"PT32M43S","thumbnail":"https://i.ytimg.com/vi/dVF9f0sleQk/mqdefault.jpg","viewCount":"982","playlistId":"PLEkQk5xrP-tlEerGoLa1AFy-2XvQ-sovv","playlistName":"شرح صحيح البخاري - أ.د. يسري جبر (كاملا)","category":"حديث"},{"id":"L7kNkVUy__A","title":"شرح صحيح البخاري - كتاب الجنائز من باب ٤٩","publishedAt":"2017-02-04T04:56:40Z","duration":"PT25M48S","thumbnail":"https://i.ytimg.com/vi/L7kNkVUy__A/mqdefault.jpg","viewCount":"751","playlistId":"PLEkQk5xrP-tlEerGoLa1AFy-2XvQ-sovv","playlistName":"شرح صحيح البخاري - أ.د. يسري جبر (كاملا)","category":"حديث"},{"id":"9xSRgs4ZjW0","title":"شرح صحيح البخاري - كتاب الجنائز من باب ٥٧","publishedAt":"2017-02-05T07:03:03Z","duration":"PT22M10S","thumbnail":"https://i.ytimg.com/vi/9xSRgs4ZjW0/mqdefault.jpg","viewCount":"885","playlistId":"PLEkQk5xrP-tlEerGoLa1AFy-2XvQ-sovv","playlistName":"شرح صحيح البخاري - أ.د. يسري جبر (كاملا)","category":"حديث"},{"id":"UC_y1o7ExQs","title":"شرح صحيح البخاري - كتاب الجنائز من باب ٦٨","publishedAt":"2017-02-06T12:43:33Z","duration":"PT44M56S","thumbnail":"https://i.ytimg.com/vi/UC_y1o7ExQs/mqdefault.jpg","viewCount":"956","playlistId":"PLEkQk5xrP-tlEerGoLa1AFy-2XvQ-sovv","playlistName":"شرح صحيح البخاري - أ.د. يسري جبر (كاملا)","category":"حديث"},{"id":"vR0i1GLOjQI","title":"شرح صحيح البخاري - كتاب الجنائز من باب ٧٧","publishedAt":"2017-02-07T08:30:48Z","duration":"PT40M26S","thumbnail":"https://i.ytimg.com/vi/vR0i1GLOjQI/mqdefault.jpg","viewCount":"865","playlistId":"PLEkQk5xrP-tlEerGoLa1AFy-2XvQ-sovv","playlistName":"شرح صحيح البخاري - أ.د. يسري جبر (كاملا)","category":"حديث"},{"id":"KA8YF_zKOA8","title":"شرح صحيح البخاري - كتاب الجنائز من باب 80","publishedAt":"2017-02-08T08:11:32Z","duration":"PT40M42S","thumbnail":"https://i.ytimg.com/vi/KA8YF_zKOA8/mqdefault.jpg","viewCount":"874","playlistId":"PLEkQk5xrP-tlEerGoLa1AFy-2XvQ-sovv","playlistName":"شرح صحيح البخاري - أ.د. يسري جبر (كاملا)","category":"حديث"},{"id":"IHAhoIUrFkQ","title":"شرح صحيح البخاري - كتاب الجنائز من باب ٨٥","publishedAt":"2017-02-09T12:29:37Z","duration":"PT33M20S","thumbnail":"https://i.ytimg.com/vi/IHAhoIUrFkQ/mqdefault.jpg","viewCount":"885","playlistId":"PLEkQk5xrP-tlEerGoLa1AFy-2XvQ-sovv","playlistName":"شرح صحيح البخاري - أ.د. يسري جبر (كاملا)","category":"حديث"},{"id":"46U9EXFBTWk","title":"شرح صحيح البخاري - كتاب الجنائز من باب ٩١","publishedAt":"2017-02-10T09:48:31Z","duration":"PT34M12S","thumbnail":"https://i.ytimg.com/vi/46U9EXFBTWk/mqdefault.jpg","viewCount":"898","playlistId":"PLEkQk5xrP-tlEerGoLa1AFy-2XvQ-sovv","playlistName":"شرح صحيح البخاري - أ.د. يسري جبر (كاملا)","category":"حديث"},{"id":"TbQiQd9fhsw","title":"شرح صحيح البخاري - كتاب الجنائز من باب ٩٤","publishedAt":"2017-02-11T13:18:52Z","duration":"PT49M3S","thumbnail":"https://i.ytimg.com/vi/TbQiQd9fhsw/mqdefault.jpg","viewCount":"1056","playlistId":"PLEkQk5xrP-tlEerGoLa1AFy-2XvQ-sovv","playlistName":"شرح صحيح البخاري - أ.د. يسري جبر (كاملا)","category":"حديث"},{"id":"45Rc-vqz2zg","title":"شرح صحيح البخاري - كتاب الزكاة من أوله","publishedAt":"2017-02-12T14:27:38Z","duration":"PT30M54S","thumbnail":"https://i.ytimg.com/vi/45Rc-vqz2zg/mqdefault.jpg","viewCount":"1388","playlistId":"PLEkQk5xrP-tlEerGoLa1AFy-2XvQ-sovv","playlistName":"شرح صحيح البخاري - أ.د. يسري جبر (كاملا)","category":"حديث"},{"id":"x3KEa4nk7cE","title":"شرح صحيح البخاري - كتاب الزكاة من باب ٣","publishedAt":"2017-02-13T12:30:57Z","duration":"PT39M18S","thumbnail":"https://i.ytimg.com/vi/x3KEa4nk7cE/mqdefault.jpg","viewCount":"1138","playlistId":"PLEkQk5xrP-tlEerGoLa1AFy-2XvQ-sovv","playlistName":"شرح صحيح البخاري - أ.د. يسري جبر (كاملا)","category":"حديث"},{"id":"mrEvDrKSZXs","title":"شرح صحيح البخاري - كتاب الزكاة من باب ٨","publishedAt":"2017-02-14T14:29:24Z","duration":"PT36M45S","thumbnail":"https://i.ytimg.com/vi/mrEvDrKSZXs/mqdefault.jpg","viewCount":"1022","playlistId":"PLEkQk5xrP-tlEerGoLa1AFy-2XvQ-sovv","playlistName":"شرح صحيح البخاري - أ.د. يسري جبر (كاملا)","category":"حديث"},{"id":"lQCjPq6flaU","title":"شرح صحيح البخاري - كتاب الزكاة من باب ١٧","publishedAt":"2017-02-15T20:05:44Z","duration":"PT41M21S","thumbnail":"https://i.ytimg.com/vi/lQCjPq6flaU/mqdefault.jpg","viewCount":"928","playlistId":"PLEkQk5xrP-tlEerGoLa1AFy-2XvQ-sovv","playlistName":"شرح صحيح البخاري - أ.د. يسري جبر (كاملا)","category":"حديث"},{"id":"7-b3fPy78Cw","title":"شرح صحيح البخاري - كتاب الزكاة من باب ٢٠","publishedAt":"2017-02-16T18:35:12Z","duration":"PT36M37S","thumbnail":"https://i.ytimg.com/vi/7-b3fPy78Cw/mqdefault.jpg","viewCount":"930","playlistId":"PLEkQk5xrP-tlEerGoLa1AFy-2XvQ-sovv","playlistName":"شرح صحيح البخاري - أ.د. يسري جبر (كاملا)","category":"حديث"},{"id":"dspKJ6OE7TQ","title":"شرح صحيح البخاري -  كتاب الزكاة من باب ٢٩","publishedAt":"2017-02-17T08:32:33Z","duration":"PT36M47S","thumbnail":"https://i.ytimg.com/vi/dspKJ6OE7TQ/mqdefault.jpg","viewCount":"1004","playlistId":"PLEkQk5xrP-tlEerGoLa1AFy-2XvQ-sovv","playlistName":"شرح صحيح البخاري - أ.د. يسري جبر (كاملا)","category":"حديث"},{"id":"YuXNj4ZcV3I","title":"شرح صحيح البخاري   كتاب الزكاة من باب ٣٦","publishedAt":"2017-02-18T14:47:51Z","duration":"PT31M4S","thumbnail":"https://i.ytimg.com/vi/YuXNj4ZcV3I/mqdefault.jpg","viewCount":"893","playlistId":"PLEkQk5xrP-tlEerGoLa1AFy-2XvQ-sovv","playlistName":"شرح صحيح البخاري - أ.د. يسري جبر (كاملا)","category":"حديث"},{"id":"KV70E_YtrmE","title":"شرح صحيح البخاري   كتاب الزكاة من باب ٤٠","publishedAt":"2017-02-19T16:35:37Z","duration":"PT42M48S","thumbnail":"https://i.ytimg.com/vi/KV70E_YtrmE/mqdefault.jpg","viewCount":"895","playlistId":"PLEkQk5xrP-tlEerGoLa1AFy-2XvQ-sovv","playlistName":"شرح صحيح البخاري - أ.د. يسري جبر (كاملا)","category":"حديث"},{"id":"S6V4niDve-E","title":"شرح صحيح البخاري   كتاب الزكاة من باب ٤٨","publishedAt":"2017-02-20T21:41:55Z","duration":"PT35M55S","thumbnail":"https://i.ytimg.com/vi/S6V4niDve-E/mqdefault.jpg","viewCount":"895","playlistId":"PLEkQk5xrP-tlEerGoLa1AFy-2XvQ-sovv","playlistName":"شرح صحيح البخاري - أ.د. يسري جبر (كاملا)","category":"حديث"},{"id":"BKGhfPPo9Go","title":"شرح صحيح البخاري   كتاب الزكاة من باب ٥١","publishedAt":"2017-02-21T15:14:10Z","duration":"PT47M56S","thumbnail":"https://i.ytimg.com/vi/BKGhfPPo9Go/mqdefault.jpg","viewCount":"962","playlistId":"PLEkQk5xrP-tlEerGoLa1AFy-2XvQ-sovv","playlistName":"شرح صحيح البخاري - أ.د. يسري جبر (كاملا)","category":"حديث"},{"id":"i3CId7ps0Ks","title":"شرح صحيح البخاري   كتاب الزكاة من باب ٥٥","publishedAt":"2017-02-22T19:30:38Z","duration":"PT32M37S","thumbnail":"https://i.ytimg.com/vi/i3CId7ps0Ks/mqdefault.jpg","viewCount":"868","playlistId":"PLEkQk5xrP-tlEerGoLa1AFy-2XvQ-sovv","playlistName":"شرح صحيح البخاري - أ.د. يسري جبر (كاملا)","category":"حديث"},{"id":"kl9ltSKZ5e8","title":"شرح صحيح البخاري   كتاب الزكاة من باب ٥٨","publishedAt":"2017-02-23T20:37:43Z","duration":"PT29M21S","thumbnail":"https://i.ytimg.com/vi/kl9ltSKZ5e8/mqdefault.jpg","viewCount":"814","playlistId":"PLEkQk5xrP-tlEerGoLa1AFy-2XvQ-sovv","playlistName":"شرح صحيح البخاري - أ.د. يسري جبر (كاملا)","category":"حديث"},{"id":"naz6VXIxK6M","title":"شرح صحيح البخاري   كتاب الزكاة من باب ٦٤","publishedAt":"2017-02-24T15:20:52Z","duration":"PT41M49S","thumbnail":"https://i.ytimg.com/vi/naz6VXIxK6M/mqdefault.jpg","viewCount":"883","playlistId":"PLEkQk5xrP-tlEerGoLa1AFy-2XvQ-sovv","playlistName":"شرح صحيح البخاري - أ.د. يسري جبر (كاملا)","category":"حديث"}],"total":719,"page":6,"pageSize":24,"totalPages":30}