{"items":[{"id":"fM8mWdrE4cQ","title":"شرح صحيح البخاري كتاب الدعوات من باب ٥","publishedAt":"2018-10-03T21:37:35Z","duration":"PT35M51S","thumbnail":"https://i.ytimg.com/vi/fM8mWdrE4cQ/mqdefault.jpg","viewCount":"580","playlistId":"PLEkQk5xrP-tlEerGoLa1AFy-2XvQ-sovv","playlistName":"شرح صحيح البخاري - أ.د. يسري جبر (كاملا)","category":"حديث"},{"id":"6ga3JGviNNM","title":"شرح صحيح البخاري كتاب الدعوات من باب ١١","publishedAt":"2018-10-04T17:18:07Z","duration":"PT36M19S","thumbnail":"https://i.ytimg.com/vi/6ga3JGviNNM/mqdefault.jpg","viewCount":"512","playlistId":"PLEkQk5xrP-tlEerGoLa1AFy-2XvQ-sovv","playlistName":"شرح صحيح البخاري - أ.د. يسري جبر (كاملا)","category":"حديث"},{"id":"N_hR593tSks","title":"شرح صحيح البخاري كتاب الدعوات من باب ١٨","publishedAt":"2018-10-06T06:31:33Z","duration":"PT38M9S","thumbnail":"https://i.ytimg.com/vi/N_hR593tSks/mqdefault.jpg","viewCount":"577","playlistId":"PLEkQk5xrP-tlEerGoLa1AFy-2XvQ-sovv","playlistName":"شرح صحيح البخاري - أ.د. يسري جبر (كاملا)","category":"حديث"},{"id":"kRUFNiOrzMw","title":"شرح صحيح البخاري كتاب الدعوات من باب ٢٨","publishedAt":"2018-10-07T14:17:40Z","duration":"PT36M23S","thumbnail":"https://i.ytimg.com/vi/kRUFNiOrzMw/mqdefault.jpg","viewCount":"499","playlistId":"PLEkQk5xrP-tlEerGoLa1AFy-2XvQ-sovv","playlistName":"شرح صحيح البخاري - أ.د. يسري جبر (كاملا)","category":"حديث"},{"id":"b_a-aj6veCI","title":"شرح صحيح البخاري كتاب الدعوات من باب ٣٣","publishedAt":"2018-10-08T21:45:35Z","duration":"PT20M25S","thumbnail":"https://i.ytimg.com/vi/b_a-aj6veCI/mqdefault.jpg","viewCount":"459","playlistId":"PLEkQk5xrP-tlEerGoLa1AFy-2XvQ-sovv","playlistName":"شرح صحيح البخاري - أ.د. يسري جبر (كاملا)","category":"حديث"},{"id":"DgvoEYR-w1g","title":"شرح صحيح البخاري كتاب الدعوات من باب ٣٨","publishedAt":"2018-10-09T17:13:13Z","duration":"PT23M33S","thumbnail":"https://i.ytimg.com/vi/DgvoEYR-w1g/mqdefault.jpg","viewCount":"417","playlistId":"PLEkQk5xrP-tlEerGoLa1AFy-2XvQ-sovv","playlistName":"شرح صحيح البخاري - أ.د. يسري جبر (كاملا)","category":"حديث"},{"id":"6ou70ssly2Q","title":"شرح صحيح البخاري كتاب الدعوات من باب ٤٨","publishedAt":"2018-10-12T21:04:25Z","duration":"PT33M30S","thumbnail":"https://i.ytimg.com/vi/6ou70ssly2Q/mqdefault.jpg","viewCount":"461","playlistId":"PLEkQk5xrP-tlEerGoLa1AFy-2XvQ-sovv","playlistName":"شرح صحيح البخاري - أ.د. يسري جبر (كاملا)","category":"حديث"},{"id":"Afui6Xk9l44","title":"شرح صحيح البخاري كتاب الدعوات من باب ٥٦","publishedAt":"2018-10-14T08:46:55Z","duration":"PT36M38S","thumbnail":"https://i.ytimg.com/vi/Afui6Xk9l44/mqdefault.jpg","viewCount":"461","playlistId":"PLEkQk5xrP-tlEerGoLa1AFy-2XvQ-sovv","playlistName":"شرح صحيح البخاري - أ.د. يسري جبر (كاملا)","category":"حديث"},{"id":"un8jAfjM9qs","title":"شرح صحيح البخاري كتاب الدعوات من باب ٦٤","publishedAt":"2018-10-15T12:39:08Z","duration":"PT41M","thumbnail":"https://i.ytimg.com/vi/un8jAfjM9qs/mqdefault.jpg","viewCount":"560","playlistId":"PLEkQk5xrP-tlEerGoLa1AFy-2XvQ-sovv","playlistName":"شرح صحيح البخاري - أ.د. يسري جبر (كاملا)","category":"حديث"},{"id":"2pRhbRL9DQI","title":"شرح صحيح البخاري كتاب الرقاق من أوله","publishedAt":"2018-10-17T13:08:20Z","duration":"PT30M51S","thumbnail":"https://i.ytimg.com/vi/2pRhbRL9DQI/mqdefault.jpg","viewCount":"730","playlistId":"PLEkQk5xrP-tlEerGoLa1AFy-2XvQ-sovv","playlistName":"شرح صحيح البخاري - أ.د. يسري جبر (كاملا)","category":"حديث"},{"id":"FBENCXar6Vg","title":"شرح صحيح البخاري كتاب الرقاق من باب ٣","publishedAt":"2018-10-18T12:44:20Z","duration":"PT22M48S","thumbnail":"https://i.ytimg.com/vi/FBENCXar6Vg/mqdefault.jpg","viewCount":"456","playlistId":"PLEkQk5xrP-tlEerGoLa1AFy-2XvQ-sovv","playlistName":"شرح صحيح البخاري - أ.د. يسري جبر (كاملا)","category":"حديث"},{"id":"p7ZzmILwE-I","title":"شرح صحيح البخاري كتاب الرقاق من باب ٦","publishedAt":"2018-10-19T12:57:48Z","duration":"PT40M58S","thumbnail":"https://i.ytimg.com/vi/p7ZzmILwE-I/mqdefault.jpg","viewCount":"585","playlistId":"PLEkQk5xrP-tlEerGoLa1AFy-2XvQ-sovv","playlistName":"شرح صحيح البخاري - أ.د. يسري جبر (كاملا)","category":"حديث"},{"id":"lJG1pwhTEu8","title":"شرح صحيح البخاري كتاب الرقاق من باب ١٠","publishedAt":"2018-10-20T17:01:50Z","duration":"PT31M2S","thumbnail":"https://i.ytimg.com/vi/lJG1pwhTEu8/mqdefault.jpg","viewCount":"508","playlistId":"PLEkQk5xrP-tlEerGoLa1AFy-2XvQ-sovv","playlistName":"شرح صحيح البخاري - أ.د. يسري جبر (كاملا)","category":"حديث"},{"id":"rahWcQkKgIU","title":"شرح صحيح البخاري كتاب الرقاق من باب ١٧","publishedAt":"2018-10-22T20:22:14Z","duration":"PT43M53S","thumbnail":"https://i.ytimg.com/vi/rahWcQkKgIU/mqdefault.jpg","viewCount":"619","playlistId":"PLEkQk5xrP-tlEerGoLa1AFy-2XvQ-sovv","playlistName":"شرح صحيح البخاري - أ.د. يسري جبر (كاملا)","category":"حديث"},{"id":"k28OEB-6fd0","title":"شرح صحيح البخاري كتاب الرقاق من باب ١٨","publishedAt":"2018-10-24T11:56:57Z","duration":"PT30M46S","thumbnail":"https://i.ytimg.com/vi/k28OEB-6fd0/mqdefault.jpg","viewCount":"487","playlistId":"PLEkQk5xrP-tlEerGoLa1AFy-2XvQ-sovv","playlistName":"شرح صحيح البخاري - أ.د. يسري جبر (كاملا)","category":"حديث"},{"id":"UN1GAwvbTSc","title":"شرح صحيح البخاري كتاب الرقاق من باب ١٩","publishedAt":"2018-10-25T10:00:02Z","duration":"PT32M36S","thumbnail":"https://i.ytimg.com/vi/UN1GAwvbTSc/mqdefault.jpg","viewCount":"566","playlistId":"PLEkQk5xrP-tlEerGoLa1AFy-2XvQ-sovv","playlistName":"شرح صحيح البخاري - أ.د. يسري جبر (كاملا)","category":"حديث"},{"id":"nktXsga_24U","title":"شرح صحيح البخاري كتاب الرقاق من باب ٣٠","publishedAt":"2018-10-28T12:45:15Z","duration":"PT37M55S","thumbnail":"https://i.ytimg.com/vi/nktXsga_24U/mqdefault.jpg","viewCount":"565","playlistId":"PLEkQk5xrP-tlEerGoLa1AFy-2XvQ-sovv","playlistName":"شرح صحيح البخاري - أ.د. يسري جبر (كاملا)","category":"حديث"},{"id":"NUgR9jVoi2M","title":"شرح صحيح البخاري كتاب الرقاق من باب ٣٦","publishedAt":"2018-10-30T09:53:37Z","duration":"PT35M55S","thumbnail":"https://i.ytimg.com/vi/NUgR9jVoi2M/mqdefault.jpg","viewCount":"485","playlistId":"PLEkQk5xrP-tlEerGoLa1AFy-2XvQ-sovv","playlistName":"شرح صحيح البخاري - أ.د. يسري جبر (كاملا)","category":"حديث"},{"id":"rKt-h9tS0Js","title":"شرح صحيح البخاري كتاب الرقاق من باب ٤١","publishedAt":"2018-10-31T12:05:33Z","duration":"PT31M42S","thumbnail":"https://i.ytimg.com/vi/rKt-h9tS0Js/mqdefault.jpg","viewCount":"441","playlistId":"PLEkQk5xrP-tlEerGoLa1AFy-2XvQ-sovv","playlistName":"شرح صحيح البخاري - أ.د. يسري جبر (كاملا)","category":"حديث"},{"id":"dxRonZbvO4A","title":"شرح صحيح البخاري كتاب الرقاق من باب ٤٤","publishedAt":"2018-11-01T20:06:19Z","duration":"PT32M23S","thumbnail":"https://i.ytimg.com/vi/dxRonZbvO4A/mqdefault.jpg","viewCount":"481","playlistId":"PLEkQk5xrP-tlEerGoLa1AFy-2XvQ-sovv","playlistName":"شرح صحيح البخاري - أ.د. يسري جبر (كاملا)","category":"حديث"},{"id":"dvxougby87g","title":"شرح صحيح البخاري كتاب الرقاق من باب ٤٧","publishedAt":"2018-11-03T07:38:06Z","duration":"PT33M5S","thumbnail":"https://i.ytimg.com/vi/dvxougby87g/mqdefault.jpg","viewCount":"511","playlistId":"PLEkQk5xrP-tlEerGoLa1AFy-2XvQ-sovv","playlistName":"شرح صحيح البخاري - أ.د. يسري جبر (كاملا)","category":"حديث"},{"id":"WXuREW2Kqhk","title":"شرح صحيح البخاري كتاب الرقاق من باب ٥١","publishedAt":"2018-11-04T17:39:29Z","duration":"PT48M49S","thumbnail":"https://i.ytimg.com/vi/WXuREW2Kqhk/mqdefault.jpg","viewCount":"546","playlistId":"PLEkQk5xrP-tlEerGoLa1AFy-2XvQ-sovv","playlistName":"شرح صحيح البخاري - أ.د. يسري جبر (كاملا)","category":"حديث"},{"id":"FxT5T6Fd9GA","title":"شرح صحيح البخاري كتاب الرقاق من باب ٥٣","publishedAt":"2018-11-06T08:05:41Z","duration":"PT33M2S","thumbnail":"https://i.ytimg.com/vi/FxT5T6Fd9GA/mqdefault.jpg","viewCount":"479","playlistId":"PLEkQk5xrP-tlEerGoLa1AFy-2XvQ-sovv","playlistName":"شرح صحيح البخاري - أ.د. يسري جبر (كاملا)","category":"حديث"},{"id":"-G6o03CiKJY","title":"شرح صحيح البخاري كتاب القدر من أوله","publishedAt":"2018-11-07T14:11:48Z","duration":"PT36M23S","thumbnail":"https://i.ytimg.com/vi/-G6o03CiKJY/mqdefault.jpg","viewCount":"875","playlistId":"PLEkQk5xrP-tlEerGoLa1AFy-2XvQ-sovv","playlistName":"شرح صحيح البخاري - أ.د. يسري جبر (كاملا)","category":"حديث"}],"total":719,"page":26,"pageSize":24,"totalPages":30}