{"items":[{"id":"z1Z158tDO7E","title":"فَإِذَا فَرَغْتَ فَانصَبْ.  أ.د. يسري جبر","publishedAt":"2019-06-08T18:50:37Z","duration":"PT29M6S","thumbnail":"https://i.ytimg.com/vi/z1Z158tDO7E/mqdefault.jpg","viewCount":"1961","playlistId":"PLEkQk5xrP-tlArtGpeLWaqNM7h7IDeAVC","playlistName":"خطب الجمعة أ.د. يسري جبر","category":"خطب"},{"id":"ut_zP-FfGgw","title":"كَيفَ نُوَدِّعُ شَهْرَ رَمَضَانَ   أ.د. يسري جبر","publishedAt":"2019-06-01T23:33:41Z","duration":"PT39M30S","thumbnail":"https://i.ytimg.com/vi/ut_zP-FfGgw/mqdefault.jpg","viewCount":"1539","playlistId":"PLEkQk5xrP-tlArtGpeLWaqNM7h7IDeAVC","playlistName":"خطب الجمعة أ.د. يسري جبر","category":"خطب"},{"id":"E3_-o1whcK4","title":"إِنَّا أَنزَلْنَاهُ فِي لَيْلَةِ الْقَدْرِ\"   أ.د. يسري جبر\"","publishedAt":"2019-05-29T17:58:09Z","duration":"PT30M14S","thumbnail":"https://i.ytimg.com/vi/E3_-o1whcK4/mqdefault.jpg","viewCount":"1815","playlistId":"PLEkQk5xrP-tlArtGpeLWaqNM7h7IDeAVC","playlistName":"خطب الجمعة أ.د. يسري جبر","category":"خطب"},{"id":"XkhhPbKkmgM","title":"رَمَضَانُ شَهْرُ الجِهَادَيْنِ أ.د. يسري جبر","publishedAt":"2019-05-18T14:11:17Z","duration":"PT36M1S","thumbnail":"https://i.ytimg.com/vi/XkhhPbKkmgM/mqdefault.jpg","viewCount":"1638","playlistId":"PLEkQk5xrP-tlArtGpeLWaqNM7h7IDeAVC","playlistName":"خطب الجمعة أ.د. يسري جبر","category":"خطب"},{"id":"Y0GEATT1R7I","title":"كيف بدء الوحي؟","publishedAt":"2021-11-06T14:03:07Z","duration":"PT42M34S","thumbnail":"https://i.ytimg.com/vi/Y0GEATT1R7I/mqdefault.jpg","viewCount":"6219","playlistId":"PLEkQk5xrP-tlArtGpeLWaqNM7h7IDeAVC","playlistName":"خطب الجمعة أ.د. يسري جبر","category":"خطب"},{"id":"_8L6uvZqIiE","title":"خطبة الاحتفال بالمولد النبوي","publishedAt":"2021-10-27T19:55:08Z","duration":"PT43M28S","thumbnail":"https://i.ytimg.com/vi/_8L6uvZqIiE/mqdefault.jpg","viewCount":"3686","playlistId":"PLEkQk5xrP-tlArtGpeLWaqNM7h7IDeAVC","playlistName":"خطب الجمعة أ.د. يسري جبر","category":"خطب"},{"id":"jA438oSvwdc","title":"لماذا يبتلي الله عباده؟","publishedAt":"2025-01-11T18:15:02Z","duration":"PT11M42S","thumbnail":"https://i.ytimg.com/vi/jA438oSvwdc/mqdefault.jpg","viewCount":"3671","playlistId":"PLEkQk5xrP-tlArtGpeLWaqNM7h7IDeAVC","playlistName":"خطب الجمعة أ.د. يسري جبر","category":"خطب"},{"id":"CqSwCrVyhZ8","title":"أهم 5 أعمال في شهر رجب","publishedAt":"2025-01-05T18:00:07Z","duration":"PT22M52S","thumbnail":"https://i.ytimg.com/vi/CqSwCrVyhZ8/mqdefault.jpg","viewCount":"13960","playlistId":"PLEkQk5xrP-tlArtGpeLWaqNM7h7IDeAVC","playlistName":"خطب الجمعة أ.د. يسري جبر","category":"خطب"},{"id":"5qXt7FWjqC0","title":"أفضل الأعمال فى شهر رجب","publishedAt":"2025-01-01T16:00:04Z","duration":"PT17M42S","thumbnail":"https://i.ytimg.com/vi/5qXt7FWjqC0/mqdefault.jpg","viewCount":"13205","playlistId":"PLEkQk5xrP-tlArtGpeLWaqNM7h7IDeAVC","playlistName":"خطب الجمعة أ.د. يسري جبر","category":"خطب"},{"id":"7pbXZbIW6sk","title":"هل يجوز شرب الخمر بدون الوصول إلى حد السكر؟","publishedAt":"2024-12-30T20:00:04Z","duration":"PT29M46S","thumbnail":"https://i.ytimg.com/vi/7pbXZbIW6sk/mqdefault.jpg","viewCount":"2343","playlistId":"PLEkQk5xrP-tlArtGpeLWaqNM7h7IDeAVC","playlistName":"خطب الجمعة أ.د. يسري جبر","category":"خطب"},{"id":"FtQHmIBNEyU","title":"الطَّاعَةُ بِالتَّرْكِ أوْلَى عِندَ اللَّه    أ.د. يسري جبر","publishedAt":"2019-05-12T15:50:18Z","duration":"PT46M19S","thumbnail":"https://i.ytimg.com/vi/FtQHmIBNEyU/mqdefault.jpg","viewCount":"1134","playlistId":"PLEkQk5xrP-tlArtGpeLWaqNM7h7IDeAVC","playlistName":"خطب الجمعة أ.د. يسري جبر","category":"خطب"},{"id":"jdDoI8-1pIs","title":"حول إسراء النبي صلى الله عليه وآله وسلم ومعراجه.  أ.د. يسري جبر","publishedAt":"2019-03-31T15:27:49Z","duration":"PT40M35S","thumbnail":"https://i.ytimg.com/vi/jdDoI8-1pIs/mqdefault.jpg","viewCount":"897","playlistId":"PLEkQk5xrP-tlArtGpeLWaqNM7h7IDeAVC","playlistName":"خطب الجمعة أ.د. يسري جبر","category":"خطب"},{"id":"C8tFE-f3B5o","title":"بِدَع رجبيَّة.  أ.د. يسري جبر","publishedAt":"2019-03-18T18:27:01Z","duration":"PT40M3S","thumbnail":"https://i.ytimg.com/vi/C8tFE-f3B5o/mqdefault.jpg","viewCount":"1525","playlistId":"PLEkQk5xrP-tlArtGpeLWaqNM7h7IDeAVC","playlistName":"خطب الجمعة أ.د. يسري جبر","category":"خطب"},{"id":"Gjgh_RapXRM","title":"آدَابُ الأشْهُرِ الحُرُمِ  أ.د. يسري جبر","publishedAt":"2019-03-11T14:25:52Z","duration":"PT30M39S","thumbnail":"https://i.ytimg.com/vi/Gjgh_RapXRM/mqdefault.jpg","viewCount":"893","playlistId":"PLEkQk5xrP-tlArtGpeLWaqNM7h7IDeAVC","playlistName":"خطب الجمعة أ.د. يسري جبر","category":"خطب"},{"id":"IqbPSUEcTUA","title":"ظَهَرَ الْفَسَادُ فِي الْبَرِّ وَالْبَحْرِ بِمَا كَسَبَتْ أَيْدِي النَّاسِ\"  أ.د. يسري جبر\"","publishedAt":"2019-03-08T20:02:36Z","duration":"PT33M45S","thumbnail":"https://i.ytimg.com/vi/IqbPSUEcTUA/mqdefault.jpg","viewCount":"991","playlistId":"PLEkQk5xrP-tlArtGpeLWaqNM7h7IDeAVC","playlistName":"خطب الجمعة أ.د. يسري جبر","category":"خطب"},{"id":"upsqCfo9mcc","title":"حول مولد سيدتنا فاطمة الزهراء البتول رضي الله عنها وعليها السلام  أ.د. يسري جبر","publishedAt":"2019-02-24T18:36:12Z","duration":"PT37M14S","thumbnail":"https://i.ytimg.com/vi/upsqCfo9mcc/mqdefault.jpg","viewCount":"939","playlistId":"PLEkQk5xrP-tlArtGpeLWaqNM7h7IDeAVC","playlistName":"خطب الجمعة أ.د. يسري جبر","category":"خطب"},{"id":"viN_L4eDlZA","title":"العِلْمُ النَّافِعُ - أ. د. يسري جبر","publishedAt":"2019-02-16T18:03:49Z","duration":"PT30M29S","thumbnail":"https://i.ytimg.com/vi/viN_L4eDlZA/mqdefault.jpg","viewCount":"990","playlistId":"PLEkQk5xrP-tlArtGpeLWaqNM7h7IDeAVC","playlistName":"خطب الجمعة أ.د. يسري جبر","category":"خطب"},{"id":"juB0rfvYYks","title":"رمضانيات (4) د. يسري جبر","publishedAt":"2018-06-10T16:06:28Z","duration":"PT37M12S","thumbnail":"https://i.ytimg.com/vi/juB0rfvYYks/mqdefault.jpg","viewCount":"294","playlistId":"PLEkQk5xrP-tlArtGpeLWaqNM7h7IDeAVC","playlistName":"خطب الجمعة أ.د. يسري جبر","category":"خطب"},{"id":"SoIIMxybv6w","title":"يَا أَيُّهَا الَّذِينَ آمَنُوا اتَّقُوا اللَّهَ وَكُونُوا مَعَ الصَّادِقِينَ - أ. د. يسري جبر","publishedAt":"2019-02-10T19:47:19Z","duration":"PT33M27S","thumbnail":"https://i.ytimg.com/vi/SoIIMxybv6w/mqdefault.jpg","viewCount":"693","playlistId":"PLEkQk5xrP-tlArtGpeLWaqNM7h7IDeAVC","playlistName":"خطب الجمعة أ.د. يسري جبر","category":"خطب"},{"id":"g3Ji0Lwlnws","title":"رُؤْيَةُ الله في الآخِرَةِ -    أ.د. يسري جبر","publishedAt":"2019-02-04T14:31:38Z","duration":"PT43M54S","thumbnail":"https://i.ytimg.com/vi/g3Ji0Lwlnws/mqdefault.jpg","viewCount":"3473","playlistId":"PLEkQk5xrP-tlArtGpeLWaqNM7h7IDeAVC","playlistName":"خطب الجمعة أ.د. يسري جبر","category":"خطب"},{"id":"rL3Gdc4O1R4","title":"رمضانيات (۳) د. يسري جبر","publishedAt":"2018-06-02T00:17:04Z","duration":"PT35M56S","thumbnail":"https://i.ytimg.com/vi/rL3Gdc4O1R4/mqdefault.jpg","viewCount":"478","playlistId":"PLEkQk5xrP-tlArtGpeLWaqNM7h7IDeAVC","playlistName":"خطب الجمعة أ.د. يسري جبر","category":"خطب"},{"id":"96U3BG48zD8","title":"رمضانيات (۲)  د. يسري جبر","publishedAt":"2018-05-27T12:41:52Z","duration":"PT32M22S","thumbnail":"https://i.ytimg.com/vi/96U3BG48zD8/mqdefault.jpg","viewCount":"539","playlistId":"PLEkQk5xrP-tlArtGpeLWaqNM7h7IDeAVC","playlistName":"خطب الجمعة أ.د. يسري جبر","category":"خطب"},{"id":"8JGat1IL-Vw","title":"كيف تكون رحيمًا بمن حولك؟","publishedAt":"2025-04-21T18:00:09Z","duration":"PT8M37S","thumbnail":"https://i.ytimg.com/vi/8JGat1IL-Vw/mqdefault.jpg","viewCount":"3661","playlistId":"PLEkQk5xrP-tlArtGpeLWaqNM7h7IDeAVC","playlistName":"خطب الجمعة أ.د. يسري جبر","category":"خطب"},{"id":"KovBDFuvNqQ","title":"هل النبي ﷺ نور؟","publishedAt":"2025-04-17T19:34:50Z","duration":"PT22M49S","thumbnail":"https://i.ytimg.com/vi/KovBDFuvNqQ/mqdefault.jpg","viewCount":"4968","playlistId":"PLEkQk5xrP-tlArtGpeLWaqNM7h7IDeAVC","playlistName":"خطب الجمعة أ.د. يسري جبر","category":"خطب"}],"total":659,"page":23,"pageSize":24,"totalPages":28}