{"items":[{"id":"T80dE3mxFPI","title":"الرد على من يدعي أن والدي النبي ﷺ في النار","publishedAt":"2024-09-28T15:42:53Z","duration":"PT16M45S","thumbnail":"https://i.ytimg.com/vi/T80dE3mxFPI/mqdefault.jpg","viewCount":"2046","playlistId":"PLEkQk5xrP-tlArtGpeLWaqNM7h7IDeAVC","playlistName":"خطب الجمعة أ.د. يسري جبر","category":"خطب"},{"id":"ZifPBqEUobk","title":"سيرة السيدة فاطمة الزهراء ومواقفها مع النبي ﷺ","publishedAt":"2025-02-06T19:00:21Z","duration":"PT14M56S","thumbnail":"https://i.ytimg.com/vi/ZifPBqEUobk/mqdefault.jpg","viewCount":"7397","playlistId":"PLEkQk5xrP-tlArtGpeLWaqNM7h7IDeAVC","playlistName":"خطب الجمعة أ.د. يسري جبر","category":"خطب"},{"id":"UnvLkl60qcA","title":"الإِيمَانُ بِالرُّسُلِ  أ.د. يسري جبر","publishedAt":"2020-01-15T15:51:35Z","duration":"PT40M24S","thumbnail":"https://i.ytimg.com/vi/UnvLkl60qcA/mqdefault.jpg","viewCount":"878","playlistId":"PLEkQk5xrP-tlArtGpeLWaqNM7h7IDeAVC","playlistName":"خطب الجمعة أ.د. يسري جبر","category":"خطب"},{"id":"Z5QyWOu5D-A","title":"ما حكم الخروج على الحاكم؟","publishedAt":"2022-11-11T18:00:30Z","duration":"PT15M43S","thumbnail":"https://i.ytimg.com/vi/Z5QyWOu5D-A/mqdefault.jpg","viewCount":"5630","playlistId":"PLEkQk5xrP-tlArtGpeLWaqNM7h7IDeAVC","playlistName":"خطب الجمعة أ.د. يسري جبر","category":"خطب"},{"id":"oCbg9palcDA","title":"كَيفَ نُودِّعُ وَكَيفَ نَسْتَقْبِلُ   د. يسرى جبر","publishedAt":"2015-10-14T03:49:51Z","duration":"PT34M54S","thumbnail":"https://i.ytimg.com/vi/oCbg9palcDA/mqdefault.jpg","viewCount":"266","playlistId":"PLEkQk5xrP-tlArtGpeLWaqNM7h7IDeAVC","playlistName":"خطب الجمعة أ.د. يسري جبر","category":"خطب"},{"id":"B4q-xfgHRdk","title":"كيف انتشر الإسلامُ في جميع أنحاء العالم؟","publishedAt":"2022-11-04T18:00:03Z","duration":"PT9M16S","thumbnail":"https://i.ytimg.com/vi/B4q-xfgHRdk/mqdefault.jpg","viewCount":"2152","playlistId":"PLEkQk5xrP-tlArtGpeLWaqNM7h7IDeAVC","playlistName":"خطب الجمعة أ.د. يسري جبر","category":"خطب"},{"id":"49fhYlffJX0","title":"حقيقة وأسرار الأولية المحمدية","publishedAt":"2022-11-03T18:00:03Z","duration":"PT21M28S","thumbnail":"https://i.ytimg.com/vi/49fhYlffJX0/mqdefault.jpg","viewCount":"9765","playlistId":"PLEkQk5xrP-tlArtGpeLWaqNM7h7IDeAVC","playlistName":"خطب الجمعة أ.د. يسري جبر","category":"خطب"},{"id":"6uWDM_zotv4","title":"كيف يعبر الناس الصراط يوم القيامة؟","publishedAt":"2022-10-30T18:00:03Z","duration":"PT9M23S","thumbnail":"https://i.ytimg.com/vi/6uWDM_zotv4/mqdefault.jpg","viewCount":"5115","playlistId":"PLEkQk5xrP-tlArtGpeLWaqNM7h7IDeAVC","playlistName":"خطب الجمعة أ.د. يسري جبر","category":"خطب"},{"id":"x56TnjoCNeQ","title":"كيف تعامل النبي ﷺ مع الأزمات السياسية؟","publishedAt":"2022-10-29T18:00:32Z","duration":"PT20M57S","thumbnail":"https://i.ytimg.com/vi/x56TnjoCNeQ/mqdefault.jpg","viewCount":"3763","playlistId":"PLEkQk5xrP-tlArtGpeLWaqNM7h7IDeAVC","playlistName":"خطب الجمعة أ.د. يسري جبر","category":"خطب"},{"id":"COS9TtPa4gI","title":"كيف نتعامل مع غلاء الأسعار وارتفاع الدولار؟","publishedAt":"2022-10-28T18:00:07Z","duration":"PT13M42S","thumbnail":"https://i.ytimg.com/vi/COS9TtPa4gI/mqdefault.jpg","viewCount":"9549","playlistId":"PLEkQk5xrP-tlArtGpeLWaqNM7h7IDeAVC","playlistName":"خطب الجمعة أ.د. يسري جبر","category":"خطب"},{"id":"QXxRvtCpRao","title":"حولَ عِصْمَةِ الأنبياءِ (2)  أ.د/ يسري جبر","publishedAt":"2020-01-23T20:05:04Z","duration":"PT45M35S","thumbnail":"https://i.ytimg.com/vi/QXxRvtCpRao/mqdefault.jpg","viewCount":"976","playlistId":"PLEkQk5xrP-tlArtGpeLWaqNM7h7IDeAVC","playlistName":"خطب الجمعة أ.د. يسري جبر","category":"خطب"},{"id":"58F6l8vVOKQ","title":"أول خطوة إلى الله الأدب مع سيدنا رسول الله صلى الله عليه وآله وسلم","publishedAt":"2017-12-23T07:04:59Z","duration":"PT40M53S","thumbnail":"https://i.ytimg.com/vi/58F6l8vVOKQ/mqdefault.jpg","viewCount":"6261","playlistId":"PLEkQk5xrP-tlArtGpeLWaqNM7h7IDeAVC","playlistName":"خطب الجمعة أ.د. يسري جبر","category":"خطب"},{"id":"vQTOAA9wFwY","title":"كيف تكون فى معية الله تعالى؟","publishedAt":"2024-10-18T17:51:40Z","duration":"PT9M19S","thumbnail":"https://i.ytimg.com/vi/vQTOAA9wFwY/mqdefault.jpg","viewCount":"9483","playlistId":"PLEkQk5xrP-tlArtGpeLWaqNM7h7IDeAVC","playlistName":"خطب الجمعة أ.د. يسري جبر","category":"خطب"},{"id":"C21jb5K0xqc","title":"‏هل النبي ﷺ ‏حي في قبره؟","publishedAt":"2024-10-15T18:45:17Z","duration":"PT14M15S","thumbnail":"https://i.ytimg.com/vi/C21jb5K0xqc/mqdefault.jpg","viewCount":"5003","playlistId":"PLEkQk5xrP-tlArtGpeLWaqNM7h7IDeAVC","playlistName":"خطب الجمعة أ.د. يسري جبر","category":"خطب"},{"id":"RGzIXfArzO4","title":"هل الابتلاء عقوبة أم محبة من الله؟","publishedAt":"2024-10-14T18:01:36Z","duration":"PT28M15S","thumbnail":"https://i.ytimg.com/vi/RGzIXfArzO4/mqdefault.jpg","viewCount":"7989","playlistId":"PLEkQk5xrP-tlArtGpeLWaqNM7h7IDeAVC","playlistName":"خطب الجمعة أ.د. يسري جبر","category":"خطب"},{"id":"N_IM3NUiv9c","title":"بيفطر ولا لأ؟ | كل ما تريد معرفته عن مفطرات الصيام!","publishedAt":"2024-03-15T18:07:59Z","duration":"PT15M15S","thumbnail":"https://i.ytimg.com/vi/N_IM3NUiv9c/mqdefault.jpg","viewCount":"2873","playlistId":"PLEkQk5xrP-tlArtGpeLWaqNM7h7IDeAVC","playlistName":"خطب الجمعة أ.د. يسري جبر","category":"خطب"},{"id":"40Q6141zbDw","title":"ماذا بعد الموت؟","publishedAt":"2022-10-26T18:00:00Z","duration":"PT21M9S","thumbnail":"https://i.ytimg.com/vi/40Q6141zbDw/mqdefault.jpg","viewCount":"48533","playlistId":"PLEkQk5xrP-tlArtGpeLWaqNM7h7IDeAVC","playlistName":"خطب الجمعة أ.د. يسري جبر","category":"خطب"},{"id":"BuqKsmZj8P0","title":"الحياة كفاح    د. يسري جبر","publishedAt":"2016-11-05T21:20:06Z","duration":"PT49M49S","thumbnail":"https://i.ytimg.com/vi/BuqKsmZj8P0/mqdefault.jpg","viewCount":"2572","playlistId":"PLEkQk5xrP-tlArtGpeLWaqNM7h7IDeAVC","playlistName":"خطب الجمعة أ.د. يسري جبر","category":"خطب"},{"id":"XaFyeHhfwb8","title":"عصمة الأنبياء من الكذب","publishedAt":"2022-10-21T18:00:18Z","duration":"PT8M30S","thumbnail":"https://i.ytimg.com/vi/XaFyeHhfwb8/mqdefault.jpg","viewCount":"1820","playlistId":"PLEkQk5xrP-tlArtGpeLWaqNM7h7IDeAVC","playlistName":"خطب الجمعة أ.د. يسري جبر","category":"خطب"},{"id":"QpLtvEjZpqc","title":"التزكية وسائلها ومُعوِّقاتها  د. يسري جبر","publishedAt":"2017-02-11T19:07:16Z","duration":"PT33M58S","thumbnail":"https://i.ytimg.com/vi/QpLtvEjZpqc/mqdefault.jpg","viewCount":"8798","playlistId":"PLEkQk5xrP-tlArtGpeLWaqNM7h7IDeAVC","playlistName":"خطب الجمعة أ.د. يسري جبر","category":"خطب"},{"id":"3BrlwZ8JXE0","title":"كيف تواجه فتن هذا الزمان  د. يسري جبر","publishedAt":"2017-02-04T18:25:13Z","duration":"PT51M1S","thumbnail":"https://i.ytimg.com/vi/3BrlwZ8JXE0/mqdefault.jpg","viewCount":"41073","playlistId":"PLEkQk5xrP-tlArtGpeLWaqNM7h7IDeAVC","playlistName":"خطب الجمعة أ.د. يسري جبر","category":"خطب"},{"id":"x-Fp7apjQmk","title":"كيف تكون صادقا؟","publishedAt":"2022-10-16T18:00:23Z","duration":"PT16M46S","thumbnail":"https://i.ytimg.com/vi/x-Fp7apjQmk/mqdefault.jpg","viewCount":"8488","playlistId":"PLEkQk5xrP-tlArtGpeLWaqNM7h7IDeAVC","playlistName":"خطب الجمعة أ.د. يسري جبر","category":"خطب"},{"id":"lpgCei0A-IU","title":"ما هي صفات المؤمن الصادق؟","publishedAt":"2022-10-15T18:00:22Z","duration":"PT13M","thumbnail":"https://i.ytimg.com/vi/lpgCei0A-IU/mqdefault.jpg","viewCount":"3689","playlistId":"PLEkQk5xrP-tlArtGpeLWaqNM7h7IDeAVC","playlistName":"خطب الجمعة أ.د. يسري جبر","category":"خطب"},{"id":"UHZ6pvU2sUY","title":"نور الوجود والسبب في كل موجود ﷺ","publishedAt":"2022-08-15T18:00:12Z","duration":"PT24M42S","thumbnail":"https://i.ytimg.com/vi/UHZ6pvU2sUY/mqdefault.jpg","viewCount":"6652","playlistId":"PLEkQk5xrP-tlArtGpeLWaqNM7h7IDeAVC","playlistName":"خطب الجمعة أ.د. يسري جبر","category":"خطب"}],"total":659,"page":11,"pageSize":24,"totalPages":28}