{"items":[{"id":"REBja2xXSMk","title":"رسالة لكل شخص بيصعب على الناس حياتهم!","publishedAt":"2023-01-19T18:00:19Z","duration":"PT12M13S","thumbnail":"https://i.ytimg.com/vi/REBja2xXSMk/mqdefault.jpg","viewCount":"3282","playlistId":"PLEkQk5xrP-tlArtGpeLWaqNM7h7IDeAVC","playlistName":"خطب الجمعة أ.د. يسري جبر","category":"خطب"},{"id":"MfMF0U8wc2A","title":"نبذة عن السيدة فاطمة الزهراء البتول في ذكرى مولدها رضي الله عنها وعليها السلام   د. يسري جبر","publishedAt":"2017-03-18T14:53:17Z","duration":"PT40M53S","thumbnail":"https://i.ytimg.com/vi/MfMF0U8wc2A/mqdefault.jpg","viewCount":"14556","playlistId":"PLEkQk5xrP-tlArtGpeLWaqNM7h7IDeAVC","playlistName":"خطب الجمعة أ.د. يسري جبر","category":"خطب"},{"id":"Jos96dmiEfk","title":"نبذة عن السيدة نفيسة رضي الله تعالى عنها    د. يسري جبر","publishedAt":"2017-03-12T15:30:28Z","duration":"PT29M9S","thumbnail":"https://i.ytimg.com/vi/Jos96dmiEfk/mqdefault.jpg","viewCount":"62457","playlistId":"PLEkQk5xrP-tlArtGpeLWaqNM7h7IDeAVC","playlistName":"خطب الجمعة أ.د. يسري جبر","category":"خطب"},{"id":"zQ1JCRud1l0","title":"التَبَتُّل    د. يسري جبر","publishedAt":"2017-03-04T18:14:07Z","duration":"PT33M24S","thumbnail":"https://i.ytimg.com/vi/zQ1JCRud1l0/mqdefault.jpg","viewCount":"2384","playlistId":"PLEkQk5xrP-tlArtGpeLWaqNM7h7IDeAVC","playlistName":"خطب الجمعة أ.د. يسري جبر","category":"خطب"},{"id":"Z5d3BmLpUIY","title":"تِلْكَ حُدُودُ اللهِ فَلا تَقْرَبُوهَا ( تِلْكَ حُدُودُ اللهِ فلا تَعْتَدُوهَا  ) الفرق بينهما","publishedAt":"2017-02-25T19:03:41Z","duration":"PT42M40S","thumbnail":"https://i.ytimg.com/vi/Z5d3BmLpUIY/mqdefault.jpg","viewCount":"1265","playlistId":"PLEkQk5xrP-tlArtGpeLWaqNM7h7IDeAVC","playlistName":"خطب الجمعة أ.د. يسري جبر","category":"خطب"},{"id":"tho1wTqC51g","title":"ما معنى التقوى وكيف تتقي الله سبحانه وتعالى؟","publishedAt":"2024-08-13T17:00:39Z","duration":"PT9M2S","thumbnail":"https://i.ytimg.com/vi/tho1wTqC51g/mqdefault.jpg","viewCount":"3867","playlistId":"PLEkQk5xrP-tlArtGpeLWaqNM7h7IDeAVC","playlistName":"خطب الجمعة أ.د. يسري جبر","category":"خطب"},{"id":"QZlDD_dGFOY","title":"ما هي شروط قبول العمل الصالح؟","publishedAt":"2024-08-12T18:13:32Z","duration":"PT8M12S","thumbnail":"https://i.ytimg.com/vi/QZlDD_dGFOY/mqdefault.jpg","viewCount":"2122","playlistId":"PLEkQk5xrP-tlArtGpeLWaqNM7h7IDeAVC","playlistName":"خطب الجمعة أ.د. يسري جبر","category":"خطب"},{"id":"IyAYIbMOkz4","title":"فضل جبر الخواطر عند الله","publishedAt":"2024-08-10T17:18:54Z","duration":"PT10M","thumbnail":"https://i.ytimg.com/vi/IyAYIbMOkz4/mqdefault.jpg","viewCount":"4697","playlistId":"PLEkQk5xrP-tlArtGpeLWaqNM7h7IDeAVC","playlistName":"خطب الجمعة أ.د. يسري جبر","category":"خطب"},{"id":"nUY8svTWXsM","title":"كيف أتغلب على هم الرزق والخوف من الخلق | أسباب زيادة الرزق","publishedAt":"2024-08-08T17:59:54Z","duration":"PT22M41S","thumbnail":"https://i.ytimg.com/vi/nUY8svTWXsM/mqdefault.jpg","viewCount":"16853","playlistId":"PLEkQk5xrP-tlArtGpeLWaqNM7h7IDeAVC","playlistName":"خطب الجمعة أ.د. يسري جبر","category":"خطب"},{"id":"AIV0i10FDBA","title":"حول المولد النبوي الشريف (5)   أ.د. يسري جبر","publishedAt":"2018-12-15T17:19:19Z","duration":"PT34M19S","thumbnail":"https://i.ytimg.com/vi/AIV0i10FDBA/mqdefault.jpg","viewCount":"652","playlistId":"PLEkQk5xrP-tlArtGpeLWaqNM7h7IDeAVC","playlistName":"خطب الجمعة أ.د. يسري جبر","category":"خطب"},{"id":"UhTyp08m78M","title":"تفسير ما يحدث في المنطقة العربية وهل اقترب ظهور المسيح الدجال؟","publishedAt":"2024-10-07T18:14:21Z","duration":"PT32M25S","thumbnail":"https://i.ytimg.com/vi/UhTyp08m78M/mqdefault.jpg","viewCount":"71560","playlistId":"PLEkQk5xrP-tlArtGpeLWaqNM7h7IDeAVC","playlistName":"خطب الجمعة أ.د. يسري جبر","category":"خطب"},{"id":"sA5VDfNyW58","title":"ازاي تربي أولادك زي تربية النبي ﷺ لأولاده؟","publishedAt":"2024-10-05T18:49:13Z","duration":"PT10M32S","thumbnail":"https://i.ytimg.com/vi/sA5VDfNyW58/mqdefault.jpg","viewCount":"3261","playlistId":"PLEkQk5xrP-tlArtGpeLWaqNM7h7IDeAVC","playlistName":"خطب الجمعة أ.د. يسري جبر","category":"خطب"},{"id":"UxaGgQtm4Pw","title":"ما الفرق بين الروح والجسد والنفس؟","publishedAt":"2024-10-03T18:57:23Z","duration":"PT19M55S","thumbnail":"https://i.ytimg.com/vi/UxaGgQtm4Pw/mqdefault.jpg","viewCount":"4877","playlistId":"PLEkQk5xrP-tlArtGpeLWaqNM7h7IDeAVC","playlistName":"خطب الجمعة أ.د. يسري جبر","category":"خطب"},{"id":"JMdHpodu8zM","title":"كيف أكون من المؤمنين وأتحقق بمقام الإحسان؟","publishedAt":"2024-10-02T18:35:38Z","duration":"PT18M53S","thumbnail":"https://i.ytimg.com/vi/JMdHpodu8zM/mqdefault.jpg","viewCount":"3905","playlistId":"PLEkQk5xrP-tlArtGpeLWaqNM7h7IDeAVC","playlistName":"خطب الجمعة أ.د. يسري جبر","category":"خطب"},{"id":"LXgWvOsnyxg","title":"شروط قبول العمل الصالح","publishedAt":"2024-09-30T18:04:55Z","duration":"PT8M21S","thumbnail":"https://i.ytimg.com/vi/LXgWvOsnyxg/mqdefault.jpg","viewCount":"2391","playlistId":"PLEkQk5xrP-tlArtGpeLWaqNM7h7IDeAVC","playlistName":"خطب الجمعة أ.د. يسري جبر","category":"خطب"},{"id":"gffbhZiBBGo","title":"كيفية الصبر على الابتلاءات؟","publishedAt":"2024-09-29T18:59:20Z","duration":"PT17M21S","thumbnail":"https://i.ytimg.com/vi/gffbhZiBBGo/mqdefault.jpg","viewCount":"5821","playlistId":"PLEkQk5xrP-tlArtGpeLWaqNM7h7IDeAVC","playlistName":"خطب الجمعة أ.د. يسري جبر","category":"خطب"},{"id":"T80dE3mxFPI","title":"الرد على من يدعي أن والدي النبي ﷺ في النار","publishedAt":"2024-09-28T15:42:53Z","duration":"PT16M45S","thumbnail":"https://i.ytimg.com/vi/T80dE3mxFPI/mqdefault.jpg","viewCount":"2046","playlistId":"PLEkQk5xrP-tlArtGpeLWaqNM7h7IDeAVC","playlistName":"خطب الجمعة أ.د. يسري جبر","category":"خطب"},{"id":"KTtL_MbAvPQ","title":"أهمية التعرف على النبي صلى الله عليه وآله وسلم فى السلوك إلى الله  د . يسري جبر","publishedAt":"2016-03-12T07:27:32Z","duration":"PT48M4S","thumbnail":"https://i.ytimg.com/vi/KTtL_MbAvPQ/mqdefault.jpg","viewCount":"4836","playlistId":"PLEkQk5xrP-tlArtGpeLWaqNM7h7IDeAVC","playlistName":"خطب الجمعة أ.د. يسري جبر","category":"خطب"},{"id":"gB7tQjP6uJI","title":"الشريعة والحقيقة في حديث لا عَدْوى ولا طِيَرة  د. يسري جبر","publishedAt":"2018-10-14T18:55:07Z","duration":"PT54M43S","thumbnail":"https://i.ytimg.com/vi/gB7tQjP6uJI/mqdefault.jpg","viewCount":"3355","playlistId":"PLEkQk5xrP-tlArtGpeLWaqNM7h7IDeAVC","playlistName":"خطب الجمعة أ.د. يسري جبر","category":"خطب"},{"id":"YvQ5dm7zirM","title":"مفاهيم حول تصحيح العقيدة ومحبة آل البيت رضي الله تعالى عنهم وعليهم السلام.  د. يسري جبر","publishedAt":"2018-10-08T17:36:50Z","duration":"PT42M10S","thumbnail":"https://i.ytimg.com/vi/YvQ5dm7zirM/mqdefault.jpg","viewCount":"3221","playlistId":"PLEkQk5xrP-tlArtGpeLWaqNM7h7IDeAVC","playlistName":"خطب الجمعة أ.د. يسري جبر","category":"خطب"},{"id":"U7fTFILsagU","title":"أَدَبُ الكَلامِ مَعَ الخَلْقِ د. يسري جبر","publishedAt":"2015-06-06T16:39:52Z","duration":"PT46M49S","thumbnail":"https://i.ytimg.com/vi/U7fTFILsagU/mqdefault.jpg","viewCount":"415","playlistId":"PLEkQk5xrP-tlArtGpeLWaqNM7h7IDeAVC","playlistName":"خطب الجمعة أ.د. يسري جبر","category":"خطب"},{"id":"wZRIqF2hnWk","title":"كيف تتخلق بأخلاق رمضان طول العام؟","publishedAt":"2022-05-03T18:30:45Z","duration":"PT21M37S","thumbnail":"https://i.ytimg.com/vi/wZRIqF2hnWk/mqdefault.jpg","viewCount":"3649","playlistId":"PLEkQk5xrP-tlArtGpeLWaqNM7h7IDeAVC","playlistName":"خطب الجمعة أ.د. يسري جبر","category":"خطب"},{"id":"12L6TWxgwG0","title":"خطبة عيد الفطر المبارك","publishedAt":"2022-05-02T07:00:01Z","duration":"PT28M54S","thumbnail":"https://i.ytimg.com/vi/12L6TWxgwG0/mqdefault.jpg","viewCount":"3810","playlistId":"PLEkQk5xrP-tlArtGpeLWaqNM7h7IDeAVC","playlistName":"خطب الجمعة أ.د. يسري جبر","category":"خطب"},{"id":"ZLk33LkX9EM","title":"قيمة زكاة الفطر,, ومتى تخرجها؟","publishedAt":"2022-04-30T19:30:03Z","duration":"PT16M41S","thumbnail":"https://i.ytimg.com/vi/ZLk33LkX9EM/mqdefault.jpg","viewCount":"4007","playlistId":"PLEkQk5xrP-tlArtGpeLWaqNM7h7IDeAVC","playlistName":"خطب الجمعة أ.د. يسري جبر","category":"خطب"}],"total":659,"page":9,"pageSize":24,"totalPages":28}