{"items":[{"id":"G3VvgUl2Bng","title":"حَولَ مُعْجِزَةِالإِسْرَاءِ والمِعْرَاج د.يسري جبر","publishedAt":"2016-04-30T06:54:41Z","duration":"PT47M8S","thumbnail":"https://i.ytimg.com/vi/G3VvgUl2Bng/mqdefault.jpg","viewCount":"584","playlistId":"PLEkQk5xrP-tlArtGpeLWaqNM7h7IDeAVC","playlistName":"خطب الجمعة أ.د. يسري جبر","category":"خطب"},{"id":"m0Z4JydP5PU","title":"حول ذكرى المولد النبوي الشريف بالتاريخ الميلادي د. يسري جبر","publishedAt":"2016-04-23T07:34:25Z","duration":"PT36M26S","thumbnail":"https://i.ytimg.com/vi/m0Z4JydP5PU/mqdefault.jpg","viewCount":"526","playlistId":"PLEkQk5xrP-tlArtGpeLWaqNM7h7IDeAVC","playlistName":"خطب الجمعة أ.د. يسري جبر","category":"خطب"},{"id":"zNK49m4mhuU","title":"مراتب الناس في الخوف من الله د. يسري جبر","publishedAt":"2016-04-09T06:16:51Z","duration":"PT42M37S","thumbnail":"https://i.ytimg.com/vi/zNK49m4mhuU/mqdefault.jpg","viewCount":"3064","playlistId":"PLEkQk5xrP-tlArtGpeLWaqNM7h7IDeAVC","playlistName":"خطب الجمعة أ.د. يسري جبر","category":"خطب"},{"id":"QAJSV1MwOi0","title":"مولد سيدة نساء العالمين فاطمة الزهراء البتول رضى الله تعالى عنها وأرضاها وعليها السلام د. يسري جبر","publishedAt":"2016-04-01T20:26:40Z","duration":"PT50M24S","thumbnail":"https://i.ytimg.com/vi/QAJSV1MwOi0/mqdefault.jpg","viewCount":"783","playlistId":"PLEkQk5xrP-tlArtGpeLWaqNM7h7IDeAVC","playlistName":"خطب الجمعة أ.د. يسري جبر","category":"خطب"},{"id":"KTtL_MbAvPQ","title":"أهمية التعرف على النبي صلى الله عليه وآله وسلم فى السلوك إلى الله  د . يسري جبر","publishedAt":"2016-03-12T07:27:32Z","duration":"PT48M4S","thumbnail":"https://i.ytimg.com/vi/KTtL_MbAvPQ/mqdefault.jpg","viewCount":"4836","playlistId":"PLEkQk5xrP-tlArtGpeLWaqNM7h7IDeAVC","playlistName":"خطب الجمعة أ.د. يسري جبر","category":"خطب"},{"id":"eOVptzahNcc","title":"الصفات الذميمة التي يتجنبها المسلم  د . يسرى جبر","publishedAt":"2016-03-05T06:49:18Z","duration":"PT37M14S","thumbnail":"https://i.ytimg.com/vi/eOVptzahNcc/mqdefault.jpg","viewCount":"618","playlistId":"PLEkQk5xrP-tlArtGpeLWaqNM7h7IDeAVC","playlistName":"خطب الجمعة أ.د. يسري جبر","category":"خطب"},{"id":"EBfrPQtwkUI","title":"شُبهات حول أُمّيّة النبىِ صلى الله عليه وآله وسلم وحول الغنائم فى عصرنا   د. يسرى جبر","publishedAt":"2016-02-26T19:34:17Z","duration":"PT44M3S","thumbnail":"https://i.ytimg.com/vi/EBfrPQtwkUI/mqdefault.jpg","viewCount":"520","playlistId":"PLEkQk5xrP-tlArtGpeLWaqNM7h7IDeAVC","playlistName":"خطب الجمعة أ.د. يسري جبر","category":"خطب"},{"id":"572I8M0JAEc","title":"من مظاهر الحياء ( الأمر بالمعروف والنهى عن المنكر ) د. يسرى جبر","publishedAt":"2016-01-31T20:54:44Z","duration":"PT39M6S","thumbnail":"https://i.ytimg.com/vi/572I8M0JAEc/mqdefault.jpg","viewCount":"260","playlistId":"PLEkQk5xrP-tlArtGpeLWaqNM7h7IDeAVC","playlistName":"خطب الجمعة أ.د. يسري جبر","category":"خطب"},{"id":"lr8jeYJqOUk","title":"الحَيَاءُ د. يسرى جبر","publishedAt":"2016-01-22T21:20:18Z","duration":"PT42M37S","thumbnail":"https://i.ytimg.com/vi/lr8jeYJqOUk/mqdefault.jpg","viewCount":"246","playlistId":"PLEkQk5xrP-tlArtGpeLWaqNM7h7IDeAVC","playlistName":"خطب الجمعة أ.د. يسري جبر","category":"خطب"},{"id":"R0hVD4KWC70","title":"مَا هِى عَوائِقُ المَعْرِفَةِ وَالعِلْمِ د. يسري جبر","publishedAt":"2016-01-16T16:05:23Z","duration":"PT30M52S","thumbnail":"https://i.ytimg.com/vi/R0hVD4KWC70/mqdefault.jpg","viewCount":"289","playlistId":"PLEkQk5xrP-tlArtGpeLWaqNM7h7IDeAVC","playlistName":"خطب الجمعة أ.د. يسري جبر","category":"خطب"},{"id":"6t21XuhJZyU","title":"حول قضية اجتهاد النبى صلى الله عليه وآله وسلم وفهم بعض الآيات القرآنية د. يسري جبر","publishedAt":"2016-01-09T06:41:47Z","duration":"PT49M23S","thumbnail":"https://i.ytimg.com/vi/6t21XuhJZyU/mqdefault.jpg","viewCount":"723","playlistId":"PLEkQk5xrP-tlArtGpeLWaqNM7h7IDeAVC","playlistName":"خطب الجمعة أ.د. يسري جبر","category":"خطب"},{"id":"dW2BbzX6e7U","title":"حول ميلاد النَّبِىِّ صَلَّى اللهُ علَيه وَآله وَسَلَّمَ وخَلْقه الشرِيف د. يسري جبر","publishedAt":"2016-01-03T20:15:52Z","duration":"PT41M27S","thumbnail":"https://i.ytimg.com/vi/dW2BbzX6e7U/mqdefault.jpg","viewCount":"140","playlistId":"PLEkQk5xrP-tlArtGpeLWaqNM7h7IDeAVC","playlistName":"خطب الجمعة أ.د. يسري جبر","category":"خطب"},{"id":"evFrTbq8CdM","title":"حول ميلاد النَّبِىِّ صَلَّى اللهُ عليه وآله وسَلَّمَ وأَخْلاقه التى افْتَقَدْناها د. يسري جبر","publishedAt":"2015-12-27T12:01:47Z","duration":"PT53M54S","thumbnail":"https://i.ytimg.com/vi/evFrTbq8CdM/mqdefault.jpg","viewCount":"215","playlistId":"PLEkQk5xrP-tlArtGpeLWaqNM7h7IDeAVC","playlistName":"خطب الجمعة أ.د. يسري جبر","category":"خطب"},{"id":"XLn-rq6fGm8","title":"فى شهرِ ميلاد النَّبِىِّ يحلُو الكلام عنِ الَّنبِىِّ صَلَّى اللهُ عليه وآله وسلَّم د. يسري جبر","publishedAt":"2015-12-19T17:20:29Z","duration":"PT49M3S","thumbnail":"https://i.ytimg.com/vi/XLn-rq6fGm8/mqdefault.jpg","viewCount":"296","playlistId":"PLEkQk5xrP-tlArtGpeLWaqNM7h7IDeAVC","playlistName":"خطب الجمعة أ.د. يسري جبر","category":"خطب"},{"id":"gYcZcik-wzM","title":"كَيفَ تَكُونُ زَوْجَاً صَالِحَاً    د. يسري جبر","publishedAt":"2015-12-12T17:06:43Z","duration":"PT43M42S","thumbnail":"https://i.ytimg.com/vi/gYcZcik-wzM/mqdefault.jpg","viewCount":"1281","playlistId":"PLEkQk5xrP-tlArtGpeLWaqNM7h7IDeAVC","playlistName":"خطب الجمعة أ.د. يسري جبر","category":"خطب"},{"id":"fA00nBU5vVI","title":"صلاح المجتمع بصلاح الأسرة    د. يسري جبر","publishedAt":"2015-12-05T10:36:17Z","duration":"PT50M16S","thumbnail":"https://i.ytimg.com/vi/fA00nBU5vVI/mqdefault.jpg","viewCount":"265","playlistId":"PLEkQk5xrP-tlArtGpeLWaqNM7h7IDeAVC","playlistName":"خطب الجمعة أ.د. يسري جبر","category":"خطب"},{"id":"DTOZ4ueS9Zs","title":"خَيرُ مَا يَكْنِزُ المَرْءُ    د. يسري جبر","publishedAt":"2015-12-03T19:52:24Z","duration":"PT49M32S","thumbnail":"https://i.ytimg.com/vi/DTOZ4ueS9Zs/mqdefault.jpg","viewCount":"207","playlistId":"PLEkQk5xrP-tlArtGpeLWaqNM7h7IDeAVC","playlistName":"خطب الجمعة أ.د. يسري جبر","category":"خطب"},{"id":"Mi5zW3NjGJ8","title":"بَعْضُ صِفَاتِ المُؤْمِنِ د. يسرى جبر","publishedAt":"2015-12-02T17:07:52Z","duration":"PT48M46S","thumbnail":"https://i.ytimg.com/vi/Mi5zW3NjGJ8/mqdefault.jpg","viewCount":"297","playlistId":"PLEkQk5xrP-tlArtGpeLWaqNM7h7IDeAVC","playlistName":"خطب الجمعة أ.د. يسري جبر","category":"خطب"},{"id":"7PIZ2poqIhU","title":"ثَلَاثٌ لَا يَسْلَمُ مِنْهُنَّ كَثِيرٌ مِنَ النَّاسِ - د. يسري جبر","publishedAt":"2015-11-29T17:21:24Z","duration":"PT34M40S","thumbnail":"https://i.ytimg.com/vi/7PIZ2poqIhU/mqdefault.jpg","viewCount":"777","playlistId":"PLEkQk5xrP-tlArtGpeLWaqNM7h7IDeAVC","playlistName":"خطب الجمعة أ.د. يسري جبر","category":"خطب"},{"id":"gcRQzlaoDI4","title":"( وَإِنَّكَ لَعَلَى خُلُقٍ عَظِيمٍ ) د.يسرى جبر","publishedAt":"2015-11-06T20:19:38Z","duration":"PT48M57S","thumbnail":"https://i.ytimg.com/vi/gcRQzlaoDI4/mqdefault.jpg","viewCount":"814","playlistId":"PLEkQk5xrP-tlArtGpeLWaqNM7h7IDeAVC","playlistName":"خطب الجمعة أ.د. يسري جبر","category":"خطب"},{"id":"oCbg9palcDA","title":"كَيفَ نُودِّعُ وَكَيفَ نَسْتَقْبِلُ   د. يسرى جبر","publishedAt":"2015-10-14T03:49:51Z","duration":"PT34M54S","thumbnail":"https://i.ytimg.com/vi/oCbg9palcDA/mqdefault.jpg","viewCount":"266","playlistId":"PLEkQk5xrP-tlArtGpeLWaqNM7h7IDeAVC","playlistName":"خطب الجمعة أ.د. يسري جبر","category":"خطب"},{"id":"DjznyNwQN0o","title":"يوم عرفة -  د.يسري جبر","publishedAt":"2015-09-22T10:03:00Z","duration":"PT27M48S","thumbnail":"https://i.ytimg.com/vi/DjznyNwQN0o/mqdefault.jpg","viewCount":"1311","playlistId":"PLEkQk5xrP-tlArtGpeLWaqNM7h7IDeAVC","playlistName":"خطب الجمعة أ.د. يسري جبر","category":"خطب"},{"id":"RRNd0V9MM8w","title":"الاستعداد للعشر الأوائل من ذي الحجة - د. يسري جبر","publishedAt":"2015-09-15T18:42:33Z","duration":"PT32M15S","thumbnail":"https://i.ytimg.com/vi/RRNd0V9MM8w/mqdefault.jpg","viewCount":"1437","playlistId":"PLEkQk5xrP-tlArtGpeLWaqNM7h7IDeAVC","playlistName":"خطب الجمعة أ.د. يسري جبر","category":"خطب"},{"id":"1maCqKtd0uc","title":"وَلَقَدْ كَرَّمْنَا بَنِى ءَادَمَ - د. يسرى جبر","publishedAt":"2015-08-22T18:42:24Z","duration":"PT41M36S","thumbnail":"https://i.ytimg.com/vi/1maCqKtd0uc/mqdefault.jpg","viewCount":"229","playlistId":"PLEkQk5xrP-tlArtGpeLWaqNM7h7IDeAVC","playlistName":"خطب الجمعة أ.د. يسري جبر","category":"خطب"}],"total":660,"page":26,"pageSize":24,"totalPages":28}