{"items":[{"id":"LCQAHVMZMow","title":"شرح قضية الكسب والاختيار","publishedAt":"2022-04-18T19:30:01Z","duration":"PT16M2S","thumbnail":"https://i.ytimg.com/vi/LCQAHVMZMow/mqdefault.jpg","viewCount":"3297","playlistId":"PLEkQk5xrP-tlArtGpeLWaqNM7h7IDeAVC","playlistName":"خطب الجمعة أ.د. يسري جبر","category":"خطب"},{"id":"g5MpaEwGhIM","title":"هل يقبل الله عبادة المتخاصمين؟","publishedAt":"2024-12-14T17:04:06Z","duration":"PT9M18S","thumbnail":"https://i.ytimg.com/vi/g5MpaEwGhIM/mqdefault.jpg","viewCount":"1834","playlistId":"PLEkQk5xrP-tlArtGpeLWaqNM7h7IDeAVC","playlistName":"خطب الجمعة أ.د. يسري جبر","category":"خطب"},{"id":"GfpG1382sb8","title":"الحكمة في الخلق والتدبير  د. يسري جبر","publishedAt":"2018-01-29T18:41:26Z","duration":"PT29M26S","thumbnail":"https://i.ytimg.com/vi/GfpG1382sb8/mqdefault.jpg","viewCount":"1966","playlistId":"PLEkQk5xrP-tlArtGpeLWaqNM7h7IDeAVC","playlistName":"خطب الجمعة أ.د. يسري جبر","category":"خطب"},{"id":"wbzjTfg7zlk","title":"العِلْمُ النافع","publishedAt":"2021-07-05T19:29:13Z","duration":"PT48M42S","thumbnail":"https://i.ytimg.com/vi/wbzjTfg7zlk/mqdefault.jpg","viewCount":"2352","playlistId":"PLEkQk5xrP-tlArtGpeLWaqNM7h7IDeAVC","playlistName":"خطب الجمعة أ.د. يسري جبر","category":"خطب"},{"id":"T4FQxRbzElc","title":"كيف يكون لكل منا دور إيجابي في الأزمة الحالية؟","publishedAt":"2023-10-31T18:16:51Z","duration":"PT19M1S","thumbnail":"https://i.ytimg.com/vi/T4FQxRbzElc/mqdefault.jpg","viewCount":"8039","playlistId":"PLEkQk5xrP-tlArtGpeLWaqNM7h7IDeAVC","playlistName":"خطب الجمعة أ.د. يسري جبر","category":"خطب"},{"id":"51jKF42OSy0","title":"سبب ضعف دول المسلمين وعدم المشاركة للدفاع عن أرضهم","publishedAt":"2023-10-29T19:30:10Z","duration":"PT14M44S","thumbnail":"https://i.ytimg.com/vi/51jKF42OSy0/mqdefault.jpg","viewCount":"21430","playlistId":"PLEkQk5xrP-tlArtGpeLWaqNM7h7IDeAVC","playlistName":"خطب الجمعة أ.د. يسري جبر","category":"خطب"},{"id":"JxS1ZPwqjzw","title":"نصرة المسجد الأقصى وفلسطين","publishedAt":"2021-05-14T15:00:01Z","duration":"PT12M48S","thumbnail":"https://i.ytimg.com/vi/JxS1ZPwqjzw/mqdefault.jpg","viewCount":"14227","playlistId":"PLEkQk5xrP-tlArtGpeLWaqNM7h7IDeAVC","playlistName":"خطب الجمعة أ.د. يسري جبر","category":"خطب"},{"id":"699O9Fxza24","title":"وصية العام الجديد  أ.د. يسري جبر","publishedAt":"2019-01-07T13:33:11Z","duration":"PT34M17S","thumbnail":"https://i.ytimg.com/vi/699O9Fxza24/mqdefault.jpg","viewCount":"1862","playlistId":"PLEkQk5xrP-tlArtGpeLWaqNM7h7IDeAVC","playlistName":"خطب الجمعة أ.د. يسري جبر","category":"خطب"},{"id":"wzUPm8jihYo","title":"حول القطب سيدي إبراهيم الدسوقي","publishedAt":"2017-10-21T07:10:14Z","duration":"PT42M32S","thumbnail":"https://i.ytimg.com/vi/wzUPm8jihYo/mqdefault.jpg","viewCount":"111106","playlistId":"PLEkQk5xrP-tlArtGpeLWaqNM7h7IDeAVC","playlistName":"خطب الجمعة أ.د. يسري جبر","category":"خطب"},{"id":"RjNj9q4sASQ","title":"خطورة الوهابية","publishedAt":"2021-07-02T18:59:16Z","duration":"PT48M17S","thumbnail":"https://i.ytimg.com/vi/RjNj9q4sASQ/mqdefault.jpg","viewCount":"20941","playlistId":"PLEkQk5xrP-tlArtGpeLWaqNM7h7IDeAVC","playlistName":"خطب الجمعة أ.د. يسري جبر","category":"خطب"},{"id":"er_CzM3RVqU","title":"تفسير سورة الهُمَزَة  د. يسري جبر","publishedAt":"2018-03-17T15:30:04Z","duration":"PT37M5S","thumbnail":"https://i.ytimg.com/vi/er_CzM3RVqU/mqdefault.jpg","viewCount":"996","playlistId":"PLEkQk5xrP-tlArtGpeLWaqNM7h7IDeAVC","playlistName":"خطب الجمعة أ.د. يسري جبر","category":"خطب"},{"id":"a4TaYKig-Mc","title":"الأعمال المستحبة في شهر شعبان","publishedAt":"2025-01-31T19:45:13Z","duration":"PT9M33S","thumbnail":"https://i.ytimg.com/vi/a4TaYKig-Mc/mqdefault.jpg","viewCount":"5733","playlistId":"PLEkQk5xrP-tlArtGpeLWaqNM7h7IDeAVC","playlistName":"خطب الجمعة أ.د. يسري جبر","category":"خطب"},{"id":"7DfwHf7fgyk","title":"ما هي أفضل الأعمال في شهر شعبان؟","publishedAt":"2025-01-30T19:32:57Z","duration":"PT17M42S","thumbnail":"https://i.ytimg.com/vi/7DfwHf7fgyk/mqdefault.jpg","viewCount":"24403","playlistId":"PLEkQk5xrP-tlArtGpeLWaqNM7h7IDeAVC","playlistName":"خطب الجمعة أ.د. يسري جبر","category":"خطب"},{"id":"BbnoLqLPJVs","title":"كيف تتخلص من سوء الظن بالناس؟","publishedAt":"2025-01-29T19:25:09Z","duration":"PT18M56S","thumbnail":"https://i.ytimg.com/vi/BbnoLqLPJVs/mqdefault.jpg","viewCount":"3420","playlistId":"PLEkQk5xrP-tlArtGpeLWaqNM7h7IDeAVC","playlistName":"خطب الجمعة أ.د. يسري جبر","category":"خطب"},{"id":"y_qcOj8itQw","title":"وصايا النبي لدخول الجنة","publishedAt":"2021-03-21T19:58:47Z","duration":"PT8M8S","thumbnail":"https://i.ytimg.com/vi/y_qcOj8itQw/mqdefault.jpg","viewCount":"3996","playlistId":"PLEkQk5xrP-tlArtGpeLWaqNM7h7IDeAVC","playlistName":"خطب الجمعة أ.د. يسري جبر","category":"خطب"},{"id":"DiNLzDEmATU","title":"هل صلاة العيد تسقط فرض الجمعة؟ | خطبة عيد الأضحى","publishedAt":"2025-06-06T06:00:21Z","duration":"PT23M39S","thumbnail":"https://i.ytimg.com/vi/DiNLzDEmATU/mqdefault.jpg","viewCount":"3916","playlistId":"PLEkQk5xrP-tlArtGpeLWaqNM7h7IDeAVC","playlistName":"خطب الجمعة أ.د. يسري جبر","category":"خطب"},{"id":"l1qeNnLttDY","title":"ماذا تفعل في يوم عرفة؟","publishedAt":"2025-06-04T18:15:04Z","duration":"PT14M44S","thumbnail":"https://i.ytimg.com/vi/l1qeNnLttDY/mqdefault.jpg","viewCount":"10144","playlistId":"PLEkQk5xrP-tlArtGpeLWaqNM7h7IDeAVC","playlistName":"خطب الجمعة أ.د. يسري جبر","category":"خطب"},{"id":"qXMXbog7_oY","title":"ماذا تفعل إن لم تستطع الحج هذا العام؟","publishedAt":"2025-06-03T18:51:35Z","duration":"PT18M29S","thumbnail":"https://i.ytimg.com/vi/qXMXbog7_oY/mqdefault.jpg","viewCount":"3492","playlistId":"PLEkQk5xrP-tlArtGpeLWaqNM7h7IDeAVC","playlistName":"خطب الجمعة أ.د. يسري جبر","category":"خطب"},{"id":"lxWmI5yIupk","title":"حولَ عِصْمَةِ الأنبياءِ (4)  أ.د/ يسري جبر","publishedAt":"2020-02-07T14:51:22Z","duration":"PT40M23S","thumbnail":"https://i.ytimg.com/vi/lxWmI5yIupk/mqdefault.jpg","viewCount":"703","playlistId":"PLEkQk5xrP-tlArtGpeLWaqNM7h7IDeAVC","playlistName":"خطب الجمعة أ.د. يسري جبر","category":"خطب"},{"id":"684VYcPo-OI","title":"كيف تأخذ بالأسباب ولا تعتمد عليها؟","publishedAt":"2022-06-25T18:02:19Z","duration":"PT20M26S","thumbnail":"https://i.ytimg.com/vi/684VYcPo-OI/mqdefault.jpg","viewCount":"21508","playlistId":"PLEkQk5xrP-tlArtGpeLWaqNM7h7IDeAVC","playlistName":"خطب الجمعة أ.د. يسري جبر","category":"خطب"},{"id":"qvg7SWM3Bes","title":"قصة مولد النبي ﷺ من الميلاد إلى المعجزات!","publishedAt":"2025-09-06T19:15:06Z","duration":"PT39M31S","thumbnail":"https://i.ytimg.com/vi/qvg7SWM3Bes/mqdefault.jpg","viewCount":"5348","playlistId":"PLEkQk5xrP-tlArtGpeLWaqNM7h7IDeAVC","playlistName":"خطب الجمعة أ.د. يسري جبر","category":"خطب"},{"id":"u05lu_CXs_s","title":"حقائق ومعاني حول روحانية النبي ﷺ في يوم مولده","publishedAt":"2025-09-04T18:45:45Z","duration":"PT23M21S","thumbnail":"https://i.ytimg.com/vi/u05lu_CXs_s/mqdefault.jpg","viewCount":"3980","playlistId":"PLEkQk5xrP-tlArtGpeLWaqNM7h7IDeAVC","playlistName":"خطب الجمعة أ.د. يسري جبر","category":"خطب"},{"id":"r9Qv0JpS-ro","title":"حقائق ومعاني حول روحانية النبي ﷺ","publishedAt":"2025-02-20T20:02:42Z","duration":"PT27M28S","thumbnail":"https://i.ytimg.com/vi/r9Qv0JpS-ro/mqdefault.jpg","viewCount":"3792","playlistId":"PLEkQk5xrP-tlArtGpeLWaqNM7h7IDeAVC","playlistName":"خطب الجمعة أ.د. يسري جبر","category":"خطب"},{"id":"mEsKC0gpJmE","title":"كيف يكون النبي ﷺ قدوتي في الحياة؟","publishedAt":"2025-02-19T19:29:55Z","duration":"PT22M35S","thumbnail":"https://i.ytimg.com/vi/mEsKC0gpJmE/mqdefault.jpg","viewCount":"3293","playlistId":"PLEkQk5xrP-tlArtGpeLWaqNM7h7IDeAVC","playlistName":"خطب الجمعة أ.د. يسري جبر","category":"خطب"}],"total":659,"page":27,"pageSize":24,"totalPages":28}