{"items":[{"id":"hyRZdSuojGA","title":"كيف تتوكل على الله مع الأخذ بالأسباب؟","publishedAt":"2024-11-28T19:26:51Z","duration":"PT28M18S","thumbnail":"https://i.ytimg.com/vi/hyRZdSuojGA/mqdefault.jpg","viewCount":"3501","playlistId":"PLEkQk5xrP-tlArtGpeLWaqNM7h7IDeAVC","playlistName":"خطب الجمعة أ.د. يسري جبر","category":"خطب"},{"id":"psbFNfIG7no","title":"مظاهر قدرة الله في الأكوان","publishedAt":"2024-11-25T17:30:06Z","duration":"PT10M32S","thumbnail":"https://i.ytimg.com/vi/psbFNfIG7no/mqdefault.jpg","viewCount":"2797","playlistId":"PLEkQk5xrP-tlArtGpeLWaqNM7h7IDeAVC","playlistName":"خطب الجمعة أ.د. يسري جبر","category":"خطب"},{"id":"4_npXVprV-A","title":"دليلك حول معرفة حقيقة النبي ﷺ","publishedAt":"2024-11-24T17:30:00Z","duration":"PT32M50S","thumbnail":"https://i.ytimg.com/vi/4_npXVprV-A/mqdefault.jpg","viewCount":"3869","playlistId":"PLEkQk5xrP-tlArtGpeLWaqNM7h7IDeAVC","playlistName":"خطب الجمعة أ.د. يسري جبر","category":"خطب"},{"id":"WLW4G30GDps","title":"أنواع الخطابات الموجهة للنبي ﷺ في القرآن","publishedAt":"2024-11-23T17:17:41Z","duration":"PT17M42S","thumbnail":"https://i.ytimg.com/vi/WLW4G30GDps/mqdefault.jpg","viewCount":"2117","playlistId":"PLEkQk5xrP-tlArtGpeLWaqNM7h7IDeAVC","playlistName":"خطب الجمعة أ.د. يسري جبر","category":"خطب"},{"id":"NH13QDV0j5k","title":"برحمتك أستغيث ,, هل النبي ﷺ هو الرحمة للأكوان؟","publishedAt":"2024-11-22T19:43:41Z","duration":"PT22M40S","thumbnail":"https://i.ytimg.com/vi/NH13QDV0j5k/mqdefault.jpg","viewCount":"2725","playlistId":"PLEkQk5xrP-tlArtGpeLWaqNM7h7IDeAVC","playlistName":"خطب الجمعة أ.د. يسري جبر","category":"خطب"},{"id":"HjUV-VmreM4","title":"كيف تُحصِّل ثواب الهجرة في هذا الزمان    د. يسري جبر","publishedAt":"2016-10-01T14:39:33Z","duration":"PT34M28S","thumbnail":"https://i.ytimg.com/vi/HjUV-VmreM4/mqdefault.jpg","viewCount":"976","playlistId":"PLEkQk5xrP-tlArtGpeLWaqNM7h7IDeAVC","playlistName":"خطب الجمعة أ.د. يسري جبر","category":"خطب"},{"id":"q1H3bV6Etvs","title":"كيف تبدأ رمضان بقلب سيلم؟","publishedAt":"2024-03-10T18:00:19Z","duration":"PT17M26S","thumbnail":"https://i.ytimg.com/vi/q1H3bV6Etvs/mqdefault.jpg","viewCount":"13174","playlistId":"PLEkQk5xrP-tlArtGpeLWaqNM7h7IDeAVC","playlistName":"خطب الجمعة أ.د. يسري جبر","category":"خطب"},{"id":"jiPKwmMbw2U","title":"لماذا فرض الله الحج على المسلمين؟","publishedAt":"2023-06-19T18:00:25Z","duration":"PT14M44S","thumbnail":"https://i.ytimg.com/vi/jiPKwmMbw2U/mqdefault.jpg","viewCount":"4010","playlistId":"PLEkQk5xrP-tlArtGpeLWaqNM7h7IDeAVC","playlistName":"خطب الجمعة أ.د. يسري جبر","category":"خطب"},{"id":"zCuEnwt7k-8","title":"كيف تنتمي إلى دينك ووطنك؟","publishedAt":"2022-12-16T18:00:25Z","duration":"PT12M47S","thumbnail":"https://i.ytimg.com/vi/zCuEnwt7k-8/mqdefault.jpg","viewCount":"2116","playlistId":"PLEkQk5xrP-tlArtGpeLWaqNM7h7IDeAVC","playlistName":"خطب الجمعة أ.د. يسري جبر","category":"خطب"},{"id":"3p2JHReVl4s","title":"إزاي تصبر على عدم استجابة الدعاء؟","publishedAt":"2022-12-15T18:00:03Z","duration":"PT12M46S","thumbnail":"https://i.ytimg.com/vi/3p2JHReVl4s/mqdefault.jpg","viewCount":"8289","playlistId":"PLEkQk5xrP-tlArtGpeLWaqNM7h7IDeAVC","playlistName":"خطب الجمعة أ.د. يسري جبر","category":"خطب"},{"id":"a-8Gx12BLww","title":"كيف تتحقق بقول لا إلهَ إلاَّ اللَّه؟","publishedAt":"2022-12-14T18:00:00Z","duration":"PT11M53S","thumbnail":"https://i.ytimg.com/vi/a-8Gx12BLww/mqdefault.jpg","viewCount":"7861","playlistId":"PLEkQk5xrP-tlArtGpeLWaqNM7h7IDeAVC","playlistName":"خطب الجمعة أ.د. يسري جبر","category":"خطب"},{"id":"Ry2OgyxIYQk","title":"ما أهمية الدعاء في الوضع الحالي؟ | قصة تغير القبلة","publishedAt":"2024-02-29T19:00:18Z","duration":"PT19M19S","thumbnail":"https://i.ytimg.com/vi/Ry2OgyxIYQk/mqdefault.jpg","viewCount":"3026","playlistId":"PLEkQk5xrP-tlArtGpeLWaqNM7h7IDeAVC","playlistName":"خطب الجمعة أ.د. يسري جبر","category":"خطب"},{"id":"ncXuedCSSv4","title":"ماذا أفعل في ليلة النصف من شعبان؟","publishedAt":"2024-02-23T18:17:50Z","duration":"PT16M59S","thumbnail":"https://i.ytimg.com/vi/ncXuedCSSv4/mqdefault.jpg","viewCount":"43782","playlistId":"PLEkQk5xrP-tlArtGpeLWaqNM7h7IDeAVC","playlistName":"خطب الجمعة أ.د. يسري جبر","category":"خطب"},{"id":"eJQhLeiS5eY","title":"ما هي أفضل الأعمال في شهر شعبان؟","publishedAt":"2024-02-11T18:12:36Z","duration":"PT13M54S","thumbnail":"https://i.ytimg.com/vi/eJQhLeiS5eY/mqdefault.jpg","viewCount":"18908","playlistId":"PLEkQk5xrP-tlArtGpeLWaqNM7h7IDeAVC","playlistName":"خطب الجمعة أ.د. يسري جبر","category":"خطب"},{"id":"Wx5kIUig-Ig","title":"فضائل العبادة في شهر رجب","publishedAt":"2024-01-15T18:36:12Z","duration":"PT16M6S","thumbnail":"https://i.ytimg.com/vi/Wx5kIUig-Ig/mqdefault.jpg","viewCount":"7152","playlistId":"PLEkQk5xrP-tlArtGpeLWaqNM7h7IDeAVC","playlistName":"خطب الجمعة أ.د. يسري جبر","category":"خطب"},{"id":"EKr1fgpPClw","title":"ما هي أفضل الأعمال فى شهر رجب؟","publishedAt":"2024-01-14T18:16:08Z","duration":"PT17M42S","thumbnail":"https://i.ytimg.com/vi/EKr1fgpPClw/mqdefault.jpg","viewCount":"37661","playlistId":"PLEkQk5xrP-tlArtGpeLWaqNM7h7IDeAVC","playlistName":"خطب الجمعة أ.د. يسري جبر","category":"خطب"},{"id":"-KRpcDGP1-w","title":"لماذا لا نشعر بالقرب من الله رغم كثرة الطاعات؟","publishedAt":"2025-10-15T19:00:00Z","duration":"PT11M24S","thumbnail":"https://i.ytimg.com/vi/-KRpcDGP1-w/mqdefault.jpg","viewCount":"2584","playlistId":"PLEkQk5xrP-tlArtGpeLWaqNM7h7IDeAVC","playlistName":"خطب الجمعة أ.د. يسري جبر","category":"خطب"},{"id":"MkaN6E3YLGU","title":"لماذا تنازل سيدنا الحسن عن الخلافة لمعاوية؟ | القصة الكاملة","publishedAt":"2025-10-14T18:39:27Z","duration":"PT10M47S","thumbnail":"https://i.ytimg.com/vi/MkaN6E3YLGU/mqdefault.jpg","viewCount":"9604","playlistId":"PLEkQk5xrP-tlArtGpeLWaqNM7h7IDeAVC","playlistName":"خطب الجمعة أ.د. يسري جبر","category":"خطب"},{"id":"cbj3zyCs5oU","title":"ازاي يكون عندي يقين بالله؟ | خطوات بسيطة توصلك لليقين بالله","publishedAt":"2025-10-13T18:00:15Z","duration":"PT11M39S","thumbnail":"https://i.ytimg.com/vi/cbj3zyCs5oU/mqdefault.jpg","viewCount":"4909","playlistId":"PLEkQk5xrP-tlArtGpeLWaqNM7h7IDeAVC","playlistName":"خطب الجمعة أ.د. يسري جبر","category":"خطب"},{"id":"pMmPsU62wgQ","title":"هل نحتاج واسطة لنصل إلى الله؟","publishedAt":"2025-10-12T18:15:04Z","duration":"PT12M21S","thumbnail":"https://i.ytimg.com/vi/pMmPsU62wgQ/mqdefault.jpg","viewCount":"3176","playlistId":"PLEkQk5xrP-tlArtGpeLWaqNM7h7IDeAVC","playlistName":"خطب الجمعة أ.د. يسري جبر","category":"خطب"},{"id":"G3yZ2fiLA8o","title":"هل يوجد عمل ينجيك من دخول النار؟ الجواب الذي غاب عن كثيرين!","publishedAt":"2025-10-11T18:10:18Z","duration":"PT20M32S","thumbnail":"https://i.ytimg.com/vi/G3yZ2fiLA8o/mqdefault.jpg","viewCount":"3081","playlistId":"PLEkQk5xrP-tlArtGpeLWaqNM7h7IDeAVC","playlistName":"خطب الجمعة أ.د. يسري جبر","category":"خطب"},{"id":"0gWozUYF6uw","title":"أسرار ومعاني حول روحانية النبي ﷺ","publishedAt":"2025-10-10T19:48:36Z","duration":"PT16M35S","thumbnail":"https://i.ytimg.com/vi/0gWozUYF6uw/mqdefault.jpg","viewCount":"1677","playlistId":"PLEkQk5xrP-tlArtGpeLWaqNM7h7IDeAVC","playlistName":"خطب الجمعة أ.د. يسري جبر","category":"خطب"},{"id":"e2OuWp8709U","title":"كيف تحمي نفسك من فتنة المسيح الدجال؟","publishedAt":"2025-10-08T17:01:01Z","duration":"PT11M17S","thumbnail":"https://i.ytimg.com/vi/e2OuWp8709U/mqdefault.jpg","viewCount":"1902","playlistId":"PLEkQk5xrP-tlArtGpeLWaqNM7h7IDeAVC","playlistName":"خطب الجمعة أ.د. يسري جبر","category":"خطب"},{"id":"Ok25C2myFzk","title":"معنى التصوف ومن هو الصوفي؟","publishedAt":"2025-10-07T17:00:35Z","duration":"PT16M38S","thumbnail":"https://i.ytimg.com/vi/Ok25C2myFzk/mqdefault.jpg","viewCount":"2407","playlistId":"PLEkQk5xrP-tlArtGpeLWaqNM7h7IDeAVC","playlistName":"خطب الجمعة أ.د. يسري جبر","category":"خطب"}],"total":659,"page":12,"pageSize":24,"totalPages":28}