{"items":[{"id":"ySL0oiHv6hw","title":"الحَجُّ أَشْهُرٌ مَعْلُومَات    د.يسري جبر","publishedAt":"2017-08-13T19:04:38Z","duration":"PT35M18S","thumbnail":"https://i.ytimg.com/vi/ySL0oiHv6hw/mqdefault.jpg","viewCount":"368","playlistId":"PLEkQk5xrP-tlArtGpeLWaqNM7h7IDeAVC","playlistName":"خطب الجمعة أ.د. يسري جبر","category":"خطب"},{"id":"Gjgh_RapXRM","title":"آدَابُ الأشْهُرِ الحُرُمِ  أ.د. يسري جبر","publishedAt":"2019-03-11T14:25:52Z","duration":"PT30M39S","thumbnail":"https://i.ytimg.com/vi/Gjgh_RapXRM/mqdefault.jpg","viewCount":"893","playlistId":"PLEkQk5xrP-tlArtGpeLWaqNM7h7IDeAVC","playlistName":"خطب الجمعة أ.د. يسري جبر","category":"خطب"},{"id":"IqbPSUEcTUA","title":"ظَهَرَ الْفَسَادُ فِي الْبَرِّ وَالْبَحْرِ بِمَا كَسَبَتْ أَيْدِي النَّاسِ\"  أ.د. يسري جبر\"","publishedAt":"2019-03-08T20:02:36Z","duration":"PT33M45S","thumbnail":"https://i.ytimg.com/vi/IqbPSUEcTUA/mqdefault.jpg","viewCount":"991","playlistId":"PLEkQk5xrP-tlArtGpeLWaqNM7h7IDeAVC","playlistName":"خطب الجمعة أ.د. يسري جبر","category":"خطب"},{"id":"Wh23wLKvEKA","title":"العقل بين الاعتراض والانقياد د. يسري جبر","publishedAt":"2015-05-02T18:26:12Z","duration":"PT38M8S","thumbnail":"https://i.ytimg.com/vi/Wh23wLKvEKA/mqdefault.jpg","viewCount":"440","playlistId":"PLEkQk5xrP-tlArtGpeLWaqNM7h7IDeAVC","playlistName":"خطب الجمعة أ.د. يسري جبر","category":"خطب"},{"id":"tJAa4oqz9yI","title":"أفَلا يَتَدَبَّرُونَ القُراءَنَ وَلَوكَانَ مِن عِندِ غَيرِ اللهِ لَوَجَدُوافِيهِ اخۡتِلَافَا كَثيرًا","publishedAt":"2015-04-24T21:14:44Z","duration":"PT40M14S","thumbnail":"https://i.ytimg.com/vi/tJAa4oqz9yI/mqdefault.jpg","viewCount":"240","playlistId":"PLEkQk5xrP-tlArtGpeLWaqNM7h7IDeAVC","playlistName":"خطب الجمعة أ.د. يسري جبر","category":"خطب"},{"id":"qBvPf2d0Ffg","title":"الْكِبْرُ وَالْغُلُولُ وَالدَّيْن  أ.د. يسري جبر","publishedAt":"2019-09-09T18:45:20Z","duration":"PT44M14S","thumbnail":"https://i.ytimg.com/vi/qBvPf2d0Ffg/mqdefault.jpg","viewCount":"2023","playlistId":"PLEkQk5xrP-tlArtGpeLWaqNM7h7IDeAVC","playlistName":"خطب الجمعة أ.د. يسري جبر","category":"خطب"},{"id":"2rLVN0kvkao","title":"الوَفَاءُ بِالعَهْدِ.   أ.د. يسري جبر","publishedAt":"2019-01-27T18:37:05Z","duration":"PT35M29S","thumbnail":"https://i.ytimg.com/vi/2rLVN0kvkao/mqdefault.jpg","viewCount":"451","playlistId":"PLEkQk5xrP-tlArtGpeLWaqNM7h7IDeAVC","playlistName":"خطب الجمعة أ.د. يسري جبر","category":"خطب"},{"id":"fGJsx9pESew","title":"لماذا نحتفل بمولد النبي ﷺ وهل الاحتفال بدعة؟","publishedAt":"2025-08-26T17:30:12Z","duration":"PT21M27S","thumbnail":"https://i.ytimg.com/vi/fGJsx9pESew/mqdefault.jpg","viewCount":"9117","playlistId":"PLEkQk5xrP-tlArtGpeLWaqNM7h7IDeAVC","playlistName":"خطب الجمعة أ.د. يسري جبر","category":"خطب"},{"id":"As3mTPewN5A","title":"كيف نحتفل بمولد النبي ﷺ؟","publishedAt":"2025-08-24T17:00:10Z","duration":"PT21M49S","thumbnail":"https://i.ytimg.com/vi/As3mTPewN5A/mqdefault.jpg","viewCount":"6233","playlistId":"PLEkQk5xrP-tlArtGpeLWaqNM7h7IDeAVC","playlistName":"خطب الجمعة أ.د. يسري جبر","category":"خطب"},{"id":"ZcR0IRnKNAo","title":"كيف تغتنم ليالي رمضان؟","publishedAt":"2023-03-31T19:00:17Z","duration":"PT8M23S","thumbnail":"https://i.ytimg.com/vi/ZcR0IRnKNAo/mqdefault.jpg","viewCount":"5449","playlistId":"PLEkQk5xrP-tlArtGpeLWaqNM7h7IDeAVC","playlistName":"خطب الجمعة أ.د. يسري جبر","category":"خطب"},{"id":"zwDOpQeWmPA","title":"سُنَنُ النَّبيِّ صلى الله عليه وآله وسلم في الأزمات   د. يسري جبر","publishedAt":"2018-07-01T08:56:28Z","duration":"PT42M12S","thumbnail":"https://i.ytimg.com/vi/zwDOpQeWmPA/mqdefault.jpg","viewCount":"772","playlistId":"PLEkQk5xrP-tlArtGpeLWaqNM7h7IDeAVC","playlistName":"خطب الجمعة أ.د. يسري جبر","category":"خطب"},{"id":"CTent5MJL00","title":"عَقِيدَةُ السَّلَف أ.د. يسري جبر","publishedAt":"2019-08-26T16:23:36Z","duration":"PT43M32S","thumbnail":"https://i.ytimg.com/vi/CTent5MJL00/mqdefault.jpg","viewCount":"3241","playlistId":"PLEkQk5xrP-tlArtGpeLWaqNM7h7IDeAVC","playlistName":"خطب الجمعة أ.د. يسري جبر","category":"خطب"},{"id":"L3Se63T5bnY","title":"الْمَلَائِكَةُ  د.يسري جبر","publishedAt":"2018-07-22T11:32:41Z","duration":"PT52M25S","thumbnail":"https://i.ytimg.com/vi/L3Se63T5bnY/mqdefault.jpg","viewCount":"10656","playlistId":"PLEkQk5xrP-tlArtGpeLWaqNM7h7IDeAVC","playlistName":"خطب الجمعة أ.د. يسري جبر","category":"خطب"},{"id":"J3gE6pSRhyI","title":"ولَوْ رَحِمْنَاهُمْ وَكَشَفْنَا مَا بِهِم مِّن ضُرٍّ لَّلَجُّوا فِي طُغْيَانِهِمْ يَعْمَهُونَ","publishedAt":"2018-07-15T18:29:29Z","duration":"PT35M54S","thumbnail":"https://i.ytimg.com/vi/J3gE6pSRhyI/mqdefault.jpg","viewCount":"985","playlistId":"PLEkQk5xrP-tlArtGpeLWaqNM7h7IDeAVC","playlistName":"خطب الجمعة أ.د. يسري جبر","category":"خطب"},{"id":"BDJGsTO4Yvg","title":"كَيفيَّة الحَجِّ وأفضلها  أ.د. يسري جبر","publishedAt":"2019-07-28T15:28:12Z","duration":"PT40M25S","thumbnail":"https://i.ytimg.com/vi/BDJGsTO4Yvg/mqdefault.jpg","viewCount":"1464","playlistId":"PLEkQk5xrP-tlArtGpeLWaqNM7h7IDeAVC","playlistName":"خطب الجمعة أ.د. يسري جبر","category":"خطب"},{"id":"bWGXmvXSsS8","title":"ماذا حدث ليلة الإسراء والمعراج؟","publishedAt":"2023-02-17T10:04:14Z","duration":"PT49M5S","thumbnail":"https://i.ytimg.com/vi/bWGXmvXSsS8/mqdefault.jpg","viewCount":"8155","playlistId":"PLEkQk5xrP-tlArtGpeLWaqNM7h7IDeAVC","playlistName":"خطب الجمعة أ.د. يسري جبر","category":"خطب"},{"id":"e7a73L9Ek_I","title":"هل الغاية تبرر الوسيلة؟","publishedAt":"2023-02-14T18:00:17Z","duration":"PT11M39S","thumbnail":"https://i.ytimg.com/vi/e7a73L9Ek_I/mqdefault.jpg","viewCount":"2850","playlistId":"PLEkQk5xrP-tlArtGpeLWaqNM7h7IDeAVC","playlistName":"خطب الجمعة أ.د. يسري جبر","category":"خطب"},{"id":"NfIcf4ovFMM","title":"أخلاق النبي ﷺ مع أعدائه","publishedAt":"2023-02-13T18:00:13Z","duration":"PT8M17S","thumbnail":"https://i.ytimg.com/vi/NfIcf4ovFMM/mqdefault.jpg","viewCount":"2091","playlistId":"PLEkQk5xrP-tlArtGpeLWaqNM7h7IDeAVC","playlistName":"خطب الجمعة أ.د. يسري جبر","category":"خطب"},{"id":"QuzjpcvBXig","title":"لماذا خلقنا الله؟","publishedAt":"2023-02-12T18:00:10Z","duration":"PT11M29S","thumbnail":"https://i.ytimg.com/vi/QuzjpcvBXig/mqdefault.jpg","viewCount":"5833","playlistId":"PLEkQk5xrP-tlArtGpeLWaqNM7h7IDeAVC","playlistName":"خطب الجمعة أ.د. يسري جبر","category":"خطب"},{"id":"_4xaxI7hqb8","title":"الجمال والجلال في حياة النبي ﷺ","publishedAt":"2023-02-10T18:00:16Z","duration":"PT8M2S","thumbnail":"https://i.ytimg.com/vi/_4xaxI7hqb8/mqdefault.jpg","viewCount":"2664","playlistId":"PLEkQk5xrP-tlArtGpeLWaqNM7h7IDeAVC","playlistName":"خطب الجمعة أ.د. يسري جبر","category":"خطب"},{"id":"j4Z-Sr-cRPo","title":"اعْبُدْ رَبَّكَ كَمَا يُرِيدُ لَا كَمَا تُرِيدُ.  أ.د. يسري جبر","publishedAt":"2019-07-21T17:37:59Z","duration":"PT44M40S","thumbnail":"https://i.ytimg.com/vi/j4Z-Sr-cRPo/mqdefault.jpg","viewCount":"5427","playlistId":"PLEkQk5xrP-tlArtGpeLWaqNM7h7IDeAVC","playlistName":"خطب الجمعة أ.د. يسري جبر","category":"خطب"},{"id":"upsqCfo9mcc","title":"حول مولد سيدتنا فاطمة الزهراء البتول رضي الله عنها وعليها السلام  أ.د. يسري جبر","publishedAt":"2019-02-24T18:36:12Z","duration":"PT37M14S","thumbnail":"https://i.ytimg.com/vi/upsqCfo9mcc/mqdefault.jpg","viewCount":"939","playlistId":"PLEkQk5xrP-tlArtGpeLWaqNM7h7IDeAVC","playlistName":"خطب الجمعة أ.د. يسري جبر","category":"خطب"},{"id":"viN_L4eDlZA","title":"العِلْمُ النَّافِعُ - أ. د. يسري جبر","publishedAt":"2019-02-16T18:03:49Z","duration":"PT30M29S","thumbnail":"https://i.ytimg.com/vi/viN_L4eDlZA/mqdefault.jpg","viewCount":"990","playlistId":"PLEkQk5xrP-tlArtGpeLWaqNM7h7IDeAVC","playlistName":"خطب الجمعة أ.د. يسري جبر","category":"خطب"},{"id":"2lCdGCR3PsE","title":"حول ليلة النصف من شعبان د. يسري جبر","publishedAt":"2015-05-30T19:17:57Z","duration":"PT48M24S","thumbnail":"https://i.ytimg.com/vi/2lCdGCR3PsE/mqdefault.jpg","viewCount":"3753","playlistId":"PLEkQk5xrP-tlArtGpeLWaqNM7h7IDeAVC","playlistName":"خطب الجمعة أ.د. يسري جبر","category":"خطب"}],"total":659,"page":22,"pageSize":24,"totalPages":28}