{"items":[{"id":"7q1AsTfm3n4","title":"لمْ يكنْ للنَّبيِّ ﷺ راحة","publishedAt":"2020-05-29T10:15:09Z","duration":"PT29M6S","thumbnail":"https://i.ytimg.com/vi/7q1AsTfm3n4/mqdefault.jpg","viewCount":"3057","playlistId":"PLEkQk5xrP-tlArtGpeLWaqNM7h7IDeAVC","playlistName":"خطب الجمعة أ.د. يسري جبر","category":"خطب"},{"id":"JESq49xXRDU","title":"حول الروحانية المحمدية ونصيب المسلم المعاصر من الهجرة النبوية    د. يسري جبر","publishedAt":"2016-10-12T04:26:32Z","duration":"PT51M9S","thumbnail":"https://i.ytimg.com/vi/JESq49xXRDU/mqdefault.jpg","viewCount":"8211","playlistId":"PLEkQk5xrP-tlArtGpeLWaqNM7h7IDeAVC","playlistName":"خطب الجمعة أ.د. يسري جبر","category":"خطب"},{"id":"iKJEFy_TaDc","title":"لماذا خرج الوهابية من أهل السنة ولم يخرجوا من الإسلام | أ.د. يسري جبر","publishedAt":"2016-10-02T03:13:26Z","duration":"PT1H27M10S","thumbnail":"https://i.ytimg.com/vi/iKJEFy_TaDc/mqdefault.jpg","viewCount":"130119","playlistId":"PLEkQk5xrP-tlArtGpeLWaqNM7h7IDeAVC","playlistName":"خطب الجمعة أ.د. يسري جبر","category":"خطب"},{"id":"R0hVD4KWC70","title":"مَا هِى عَوائِقُ المَعْرِفَةِ وَالعِلْمِ د. يسري جبر","publishedAt":"2016-01-16T16:05:23Z","duration":"PT30M52S","thumbnail":"https://i.ytimg.com/vi/R0hVD4KWC70/mqdefault.jpg","viewCount":"289","playlistId":"PLEkQk5xrP-tlArtGpeLWaqNM7h7IDeAVC","playlistName":"خطب الجمعة أ.د. يسري جبر","category":"خطب"},{"id":"6t21XuhJZyU","title":"حول قضية اجتهاد النبى صلى الله عليه وآله وسلم وفهم بعض الآيات القرآنية د. يسري جبر","publishedAt":"2016-01-09T06:41:47Z","duration":"PT49M23S","thumbnail":"https://i.ytimg.com/vi/6t21XuhJZyU/mqdefault.jpg","viewCount":"722","playlistId":"PLEkQk5xrP-tlArtGpeLWaqNM7h7IDeAVC","playlistName":"خطب الجمعة أ.د. يسري جبر","category":"خطب"},{"id":"dW2BbzX6e7U","title":"حول ميلاد النَّبِىِّ صَلَّى اللهُ علَيه وَآله وَسَلَّمَ وخَلْقه الشرِيف د. يسري جبر","publishedAt":"2016-01-03T20:15:52Z","duration":"PT41M27S","thumbnail":"https://i.ytimg.com/vi/dW2BbzX6e7U/mqdefault.jpg","viewCount":"140","playlistId":"PLEkQk5xrP-tlArtGpeLWaqNM7h7IDeAVC","playlistName":"خطب الجمعة أ.د. يسري جبر","category":"خطب"},{"id":"YZuas-t1cJI","title":"( وسَارعوا إِلى مَغفِرةٍ مِن ربِّكم )","publishedAt":"2014-11-15T20:49:00Z","duration":"PT36M5S","thumbnail":"https://i.ytimg.com/vi/YZuas-t1cJI/mqdefault.jpg","viewCount":"1046","playlistId":"PLEkQk5xrP-tlArtGpeLWaqNM7h7IDeAVC","playlistName":"خطب الجمعة أ.د. يسري جبر","category":"خطب"},{"id":"PRQBzMA7Rfo","title":"ذكرى عاشوراء وماحدث فى كربلاء","publishedAt":"2014-11-12T13:42:38Z","duration":"PT39M54S","thumbnail":"https://i.ytimg.com/vi/PRQBzMA7Rfo/mqdefault.jpg","viewCount":"1549","playlistId":"PLEkQk5xrP-tlArtGpeLWaqNM7h7IDeAVC","playlistName":"خطب الجمعة أ.د. يسري جبر","category":"خطب"},{"id":"evFrTbq8CdM","title":"حول ميلاد النَّبِىِّ صَلَّى اللهُ عليه وآله وسَلَّمَ وأَخْلاقه التى افْتَقَدْناها د. يسري جبر","publishedAt":"2015-12-27T12:01:47Z","duration":"PT53M54S","thumbnail":"https://i.ytimg.com/vi/evFrTbq8CdM/mqdefault.jpg","viewCount":"215","playlistId":"PLEkQk5xrP-tlArtGpeLWaqNM7h7IDeAVC","playlistName":"خطب الجمعة أ.د. يسري جبر","category":"خطب"},{"id":"XLn-rq6fGm8","title":"فى شهرِ ميلاد النَّبِىِّ يحلُو الكلام عنِ الَّنبِىِّ صَلَّى اللهُ عليه وآله وسلَّم د. يسري جبر","publishedAt":"2015-12-19T17:20:29Z","duration":"PT49M3S","thumbnail":"https://i.ytimg.com/vi/XLn-rq6fGm8/mqdefault.jpg","viewCount":"296","playlistId":"PLEkQk5xrP-tlArtGpeLWaqNM7h7IDeAVC","playlistName":"خطب الجمعة أ.د. يسري جبر","category":"خطب"},{"id":"R-ES8PJfQWA","title":"خطورة إهدار المال العام","publishedAt":"2021-08-02T17:30:02Z","duration":"PT14M12S","thumbnail":"https://i.ytimg.com/vi/R-ES8PJfQWA/mqdefault.jpg","viewCount":"2023","playlistId":"PLEkQk5xrP-tlArtGpeLWaqNM7h7IDeAVC","playlistName":"خطب الجمعة أ.د. يسري جبر","category":"خطب"}],"total":659,"page":28,"pageSize":24,"totalPages":28}