{"items":[{"id":"7WxrYljr3YQ","title":"الفرق بين الإرادة والمشيئة","publishedAt":"2022-04-10T19:30:00Z","duration":"PT18M13S","thumbnail":"https://i.ytimg.com/vi/7WxrYljr3YQ/mqdefault.jpg","viewCount":"5870","playlistId":"PLEkQk5xrP-tlArtGpeLWaqNM7h7IDeAVC","playlistName":"خطب الجمعة أ.د. يسري جبر","category":"خطب"},{"id":"g5TcudoYi6o","title":"أفضل الأعمال في الأشهر الحرم","publishedAt":"2021-06-25T18:14:21Z","duration":"PT12M15S","thumbnail":"https://i.ytimg.com/vi/g5TcudoYi6o/mqdefault.jpg","viewCount":"5217","playlistId":"PLEkQk5xrP-tlArtGpeLWaqNM7h7IDeAVC","playlistName":"خطب الجمعة أ.د. يسري جبر","category":"خطب"},{"id":"yTOOXtcp9NA","title":"هل للصدقة أوجه غير المال؟","publishedAt":"2021-06-15T18:46:35Z","duration":"PT18M58S","thumbnail":"https://i.ytimg.com/vi/yTOOXtcp9NA/mqdefault.jpg","viewCount":"3747","playlistId":"PLEkQk5xrP-tlArtGpeLWaqNM7h7IDeAVC","playlistName":"خطب الجمعة أ.د. يسري جبر","category":"خطب"},{"id":"fA00nBU5vVI","title":"صلاح المجتمع بصلاح الأسرة    د. يسري جبر","publishedAt":"2015-12-05T10:36:17Z","duration":"PT50M16S","thumbnail":"https://i.ytimg.com/vi/fA00nBU5vVI/mqdefault.jpg","viewCount":"265","playlistId":"PLEkQk5xrP-tlArtGpeLWaqNM7h7IDeAVC","playlistName":"خطب الجمعة أ.د. يسري جبر","category":"خطب"},{"id":"DTOZ4ueS9Zs","title":"خَيرُ مَا يَكْنِزُ المَرْءُ    د. يسري جبر","publishedAt":"2015-12-03T19:52:24Z","duration":"PT49M32S","thumbnail":"https://i.ytimg.com/vi/DTOZ4ueS9Zs/mqdefault.jpg","viewCount":"207","playlistId":"PLEkQk5xrP-tlArtGpeLWaqNM7h7IDeAVC","playlistName":"خطب الجمعة أ.د. يسري جبر","category":"خطب"},{"id":"Mi5zW3NjGJ8","title":"بَعْضُ صِفَاتِ المُؤْمِنِ د. يسرى جبر","publishedAt":"2015-12-02T17:07:52Z","duration":"PT48M46S","thumbnail":"https://i.ytimg.com/vi/Mi5zW3NjGJ8/mqdefault.jpg","viewCount":"297","playlistId":"PLEkQk5xrP-tlArtGpeLWaqNM7h7IDeAVC","playlistName":"خطب الجمعة أ.د. يسري جبر","category":"خطب"},{"id":"7PIZ2poqIhU","title":"ثَلَاثٌ لَا يَسْلَمُ مِنْهُنَّ كَثِيرٌ مِنَ النَّاسِ - د. يسري جبر","publishedAt":"2015-11-29T17:21:24Z","duration":"PT34M40S","thumbnail":"https://i.ytimg.com/vi/7PIZ2poqIhU/mqdefault.jpg","viewCount":"777","playlistId":"PLEkQk5xrP-tlArtGpeLWaqNM7h7IDeAVC","playlistName":"خطب الجمعة أ.د. يسري جبر","category":"خطب"},{"id":"gcRQzlaoDI4","title":"( وَإِنَّكَ لَعَلَى خُلُقٍ عَظِيمٍ ) د.يسرى جبر","publishedAt":"2015-11-06T20:19:38Z","duration":"PT48M57S","thumbnail":"https://i.ytimg.com/vi/gcRQzlaoDI4/mqdefault.jpg","viewCount":"814","playlistId":"PLEkQk5xrP-tlArtGpeLWaqNM7h7IDeAVC","playlistName":"خطب الجمعة أ.د. يسري جبر","category":"خطب"},{"id":"oCbg9palcDA","title":"كَيفَ نُودِّعُ وَكَيفَ نَسْتَقْبِلُ   د. يسرى جبر","publishedAt":"2015-10-14T03:49:51Z","duration":"PT34M54S","thumbnail":"https://i.ytimg.com/vi/oCbg9palcDA/mqdefault.jpg","viewCount":"266","playlistId":"PLEkQk5xrP-tlArtGpeLWaqNM7h7IDeAVC","playlistName":"خطب الجمعة أ.د. يسري جبر","category":"خطب"},{"id":"HtJfdImWgvM","title":"راجع نفسك قبل أن يحاسبك الله","publishedAt":"2023-01-08T18:00:05Z","duration":"PT19M18S","thumbnail":"https://i.ytimg.com/vi/HtJfdImWgvM/mqdefault.jpg","viewCount":"6774","playlistId":"PLEkQk5xrP-tlArtGpeLWaqNM7h7IDeAVC","playlistName":"خطب الجمعة أ.د. يسري جبر","category":"خطب"},{"id":"wO_5TjnzuO4","title":"ما الفرق بين الشخص المحمدي والروحانية المحمدية؟","publishedAt":"2023-01-07T18:00:18Z","duration":"PT8M12S","thumbnail":"https://i.ytimg.com/vi/wO_5TjnzuO4/mqdefault.jpg","viewCount":"3920","playlistId":"PLEkQk5xrP-tlArtGpeLWaqNM7h7IDeAVC","playlistName":"خطب الجمعة أ.د. يسري جبر","category":"خطب"},{"id":"T_pzsOQnJss","title":"صفات الذات الإلهية","publishedAt":"2023-01-06T18:00:10Z","duration":"PT10M57S","thumbnail":"https://i.ytimg.com/vi/T_pzsOQnJss/mqdefault.jpg","viewCount":"7660","playlistId":"PLEkQk5xrP-tlArtGpeLWaqNM7h7IDeAVC","playlistName":"خطب الجمعة أ.د. يسري جبر","category":"خطب"},{"id":"rO-07spL5q4","title":"كيف تتعود على الرضا بالقضاء؟","publishedAt":"2023-01-22T18:00:27Z","duration":"PT8M6S","thumbnail":"https://i.ytimg.com/vi/rO-07spL5q4/mqdefault.jpg","viewCount":"15604","playlistId":"PLEkQk5xrP-tlArtGpeLWaqNM7h7IDeAVC","playlistName":"خطب الجمعة أ.د. يسري جبر","category":"خطب"},{"id":"PDmC12CaHxQ","title":"هل العبادة هى الصلاة والصوم فقط؟","publishedAt":"2023-01-21T18:00:08Z","duration":"PT8M15S","thumbnail":"https://i.ytimg.com/vi/PDmC12CaHxQ/mqdefault.jpg","viewCount":"2701","playlistId":"PLEkQk5xrP-tlArtGpeLWaqNM7h7IDeAVC","playlistName":"خطب الجمعة أ.د. يسري جبر","category":"خطب"},{"id":"2estmgLo49s","title":"كيف تتخلص من الغضب والعصبية؟","publishedAt":"2023-01-20T18:00:04Z","duration":"PT8M22S","thumbnail":"https://i.ytimg.com/vi/2estmgLo49s/mqdefault.jpg","viewCount":"8563","playlistId":"PLEkQk5xrP-tlArtGpeLWaqNM7h7IDeAVC","playlistName":"خطب الجمعة أ.د. يسري جبر","category":"خطب"},{"id":"REBja2xXSMk","title":"رسالة لكل شخص بيصعب على الناس حياتهم!","publishedAt":"2023-01-19T18:00:19Z","duration":"PT12M13S","thumbnail":"https://i.ytimg.com/vi/REBja2xXSMk/mqdefault.jpg","viewCount":"3282","playlistId":"PLEkQk5xrP-tlArtGpeLWaqNM7h7IDeAVC","playlistName":"خطب الجمعة أ.د. يسري جبر","category":"خطب"},{"id":"6Brrs_Kkto4","title":"إسلام الوجه لله","publishedAt":"2017-11-21T13:40:59Z","duration":"PT39M59S","thumbnail":"https://i.ytimg.com/vi/6Brrs_Kkto4/mqdefault.jpg","viewCount":"375","playlistId":"PLEkQk5xrP-tlArtGpeLWaqNM7h7IDeAVC","playlistName":"خطب الجمعة أ.د. يسري جبر","category":"خطب"},{"id":"XnxnI5DVnWw","title":"\"فَاطِمَةُ بَضْعَةٌ مِنِّي\" رضي اللهُ عنها وأرضاها وعليها السلام أ.د. يسري جبر","publishedAt":"2020-02-20T17:08:40Z","duration":"PT45M24S","thumbnail":"https://i.ytimg.com/vi/XnxnI5DVnWw/mqdefault.jpg","viewCount":"1607","playlistId":"PLEkQk5xrP-tlArtGpeLWaqNM7h7IDeAVC","playlistName":"خطب الجمعة أ.د. يسري جبر","category":"خطب"},{"id":"DjznyNwQN0o","title":"يوم عرفة -  د.يسري جبر","publishedAt":"2015-09-22T10:03:00Z","duration":"PT27M48S","thumbnail":"https://i.ytimg.com/vi/DjznyNwQN0o/mqdefault.jpg","viewCount":"1311","playlistId":"PLEkQk5xrP-tlArtGpeLWaqNM7h7IDeAVC","playlistName":"خطب الجمعة أ.د. يسري جبر","category":"خطب"},{"id":"RRNd0V9MM8w","title":"الاستعداد للعشر الأوائل من ذي الحجة - د. يسري جبر","publishedAt":"2015-09-15T18:42:33Z","duration":"PT32M15S","thumbnail":"https://i.ytimg.com/vi/RRNd0V9MM8w/mqdefault.jpg","viewCount":"1437","playlistId":"PLEkQk5xrP-tlArtGpeLWaqNM7h7IDeAVC","playlistName":"خطب الجمعة أ.د. يسري جبر","category":"خطب"},{"id":"atg50GCWXLE","title":"كيف تحمي نفسك من مظاهر الفساد في الأرض؟","publishedAt":"2025-10-28T17:15:01Z","duration":"PT12M6S","thumbnail":"https://i.ytimg.com/vi/atg50GCWXLE/mqdefault.jpg","viewCount":"1818","playlistId":"PLEkQk5xrP-tlArtGpeLWaqNM7h7IDeAVC","playlistName":"خطب الجمعة أ.د. يسري جبر","category":"خطب"},{"id":"2tqn4REEN0s","title":"ما حكم التخلص من كلاب الشوارع؟","publishedAt":"2025-10-27T19:04:58Z","duration":"PT10M55S","thumbnail":"https://i.ytimg.com/vi/2tqn4REEN0s/mqdefault.jpg","viewCount":"1714","playlistId":"PLEkQk5xrP-tlArtGpeLWaqNM7h7IDeAVC","playlistName":"خطب الجمعة أ.د. يسري جبر","category":"خطب"},{"id":"rStqYitI2-Q","title":"ماذا حدث في معركة كربلاء وقصة استشهاد سيدنا الحسين؟","publishedAt":"2025-10-20T15:59:42Z","duration":"PT15M58S","thumbnail":"https://i.ytimg.com/vi/rStqYitI2-Q/mqdefault.jpg","viewCount":"2780","playlistId":"PLEkQk5xrP-tlArtGpeLWaqNM7h7IDeAVC","playlistName":"خطب الجمعة أ.د. يسري جبر","category":"خطب"},{"id":"3KzEJqSphJY","title":"فوائد الابتلاء د. يسري جبر","publishedAt":"2018-10-29T20:27:01Z","duration":"PT42M54S","thumbnail":"https://i.ytimg.com/vi/3KzEJqSphJY/mqdefault.jpg","viewCount":"16519","playlistId":"PLEkQk5xrP-tlArtGpeLWaqNM7h7IDeAVC","playlistName":"خطب الجمعة أ.د. يسري جبر","category":"خطب"}],"total":659,"page":24,"pageSize":24,"totalPages":28}