{"items":[{"id":"EoIihwMNT2w","title":"11- باب مَا جَاءَ فِى النِّدَاءِ لِلصَّلاَةِ ك الصلاة ك الموطأ د يسري جبر الأزهري بمضيفة الدح","publishedAt":"2016-04-23T11:23:25Z","duration":"PT57M37S","thumbnail":"https://i.ytimg.com/vi/EoIihwMNT2w/mqdefault.jpg","viewCount":"690","playlistId":"PLEkQk5xrP-tnC6BRuqMjyO-484iqXeg0o","playlistName":"شرح كتاب الموطأ للإمام مالك","category":"متنوع"},{"id":"Sq9jsHBc7AY","title":"10- مَا جَاءَ فِى النِّدَاءِ لِلصَّلاَةِ ك الصلاة ك الموطأ د يسري جبر الأزهري بمضيفة الشيخ سعيد الدح","publishedAt":"2016-04-20T09:29:39Z","duration":"PT58M35S","thumbnail":"https://i.ytimg.com/vi/Sq9jsHBc7AY/mqdefault.jpg","viewCount":"700","playlistId":"PLEkQk5xrP-tnC6BRuqMjyO-484iqXeg0o","playlistName":"شرح كتاب الموطأ للإمام مالك","category":"متنوع"},{"id":"UFGBYllbTdo","title":"9- باب الْمُسْتَحَاضَةِ ك الطهارة ك الموطأ د يسري جبر الأزهري بمضيفة الشيخ سعيد الدح","publishedAt":"2016-04-17T20:23:05Z","duration":"PT42M58S","thumbnail":"https://i.ytimg.com/vi/UFGBYllbTdo/mqdefault.jpg","viewCount":"745","playlistId":"PLEkQk5xrP-tnC6BRuqMjyO-484iqXeg0o","playlistName":"شرح كتاب الموطأ للإمام مالك","category":"متنوع"},{"id":"b1flEIwMp6s","title":"8- باب فِى التَّيَمُّمِ ك الطهارة ك الموطأ د يسري جبر الأزهري بمضيفة الشيخ سعيد الدح","publishedAt":"2016-04-14T11:51:21Z","duration":"PT47M32S","thumbnail":"https://i.ytimg.com/vi/b1flEIwMp6s/mqdefault.jpg","viewCount":"874","playlistId":"PLEkQk5xrP-tnC6BRuqMjyO-484iqXeg0o","playlistName":"شرح كتاب الموطأ للإمام مالك","category":"متنوع"},{"id":"eSd8Ufb2MPc","title":"7- الرُّخْصَةِ فِى تَرْكِ الْوُضُوءِ مِنَ الْمَذْىِ ك الطهارة ك الموطأ د يسري جبر الأزهري بمضيفةالدح","publishedAt":"2016-04-11T11:08:34Z","duration":"PT1H10M57S","thumbnail":"https://i.ytimg.com/vi/eSd8Ufb2MPc/mqdefault.jpg","viewCount":"987","playlistId":"PLEkQk5xrP-tnC6BRuqMjyO-484iqXeg0o","playlistName":"شرح كتاب الموطأ للإمام مالك","category":"متنوع"},{"id":"O50aumFqcUQ","title":"6- مَا جَاءَ فِى الْمَسْحِ بِالرَّأْسِ وَالأُذُنَيْنِ ك الطهارة ك الموطأ د يسري جبر الأزهري","publishedAt":"2016-04-07T11:45:26Z","duration":"PT49M42S","thumbnail":"https://i.ytimg.com/vi/O50aumFqcUQ/mqdefault.jpg","viewCount":"1029","playlistId":"PLEkQk5xrP-tnC6BRuqMjyO-484iqXeg0o","playlistName":"شرح كتاب الموطأ للإمام مالك","category":"متنوع"},{"id":"zHvZfo2VQ4U","title":"5- وُضُوءِ النَّائِمِ إِذَا قَامَ إِلَى الصَّلاَةِ ك الطهارة ك الموطأ د- يسري جبر الأزهري","publishedAt":"2016-04-04T22:22:20Z","duration":"PT1H5M36S","thumbnail":"https://i.ytimg.com/vi/zHvZfo2VQ4U/mqdefault.jpg","viewCount":"1409","playlistId":"PLEkQk5xrP-tnC6BRuqMjyO-484iqXeg0o","playlistName":"شرح كتاب الموطأ للإمام مالك","category":"متنوع"},{"id":"H1MX-NYG64Y","title":"4- النَّهْىِ عَنِ الصَّلاَةِ بِالْهَاجِرَةِ ك وقوت الصلاة ك الموطأ د- يسري جبرالأزهري بمضيفة الدح","publishedAt":"2016-03-31T22:40:50Z","duration":"PT46M56S","thumbnail":"https://i.ytimg.com/vi/H1MX-NYG64Y/mqdefault.jpg","viewCount":"1614","playlistId":"PLEkQk5xrP-tnC6BRuqMjyO-484iqXeg0o","playlistName":"شرح كتاب الموطأ للإمام مالك","category":"متنوع"},{"id":"Dd9XqIRSybE","title":"3- النَّوْمِ عَنِ الصَّلاَةِ ك وقوت الصلاة ك الموطأ د- يسري جبر الأزهري","publishedAt":"2016-03-30T11:21:23Z","duration":"PT19M51S","thumbnail":"https://i.ytimg.com/vi/Dd9XqIRSybE/mqdefault.jpg","viewCount":"1625","playlistId":"PLEkQk5xrP-tnC6BRuqMjyO-484iqXeg0o","playlistName":"شرح كتاب الموطأ للإمام مالك","category":"متنوع"},{"id":"QIh4PIS6LTc","title":"2- كتاب وقوت الصلاة وَصَلَّى اللَّهُ عَلَى سَيِّدِنَا مُحَمَّدٍ الموطأ للإمام مالك د- يسري جبر","publishedAt":"2016-03-07T11:00:00Z","duration":"PT1H18M21S","thumbnail":"https://i.ytimg.com/vi/QIh4PIS6LTc/mqdefault.jpg","viewCount":"3236","playlistId":"PLEkQk5xrP-tnC6BRuqMjyO-484iqXeg0o","playlistName":"شرح كتاب الموطأ للإمام مالك","category":"متنوع"},{"id":"iKTIHH5L9Fw","title":"1- كتاب وقوت الصلاة وَصَلَّى اللَّهُ عَلَى سَيِّدِنَا مُحَمَّدٍ الموطأ للإمام مالك د- يسري جبر","publishedAt":"2016-03-03T20:20:14Z","duration":"PT58M45S","thumbnail":"https://i.ytimg.com/vi/iKTIHH5L9Fw/mqdefault.jpg","viewCount":"10587","playlistId":"PLEkQk5xrP-tnC6BRuqMjyO-484iqXeg0o","playlistName":"شرح كتاب الموطأ للإمام مالك","category":"متنوع"}],"total":83,"page":4,"pageSize":24,"totalPages":4}