{"items":[{"id":"i7puLmXOIio","title":"فضل زيارة الأولياء  د. يسري جبر","publishedAt":"2018-09-30T14:35:05Z","duration":"PT5M16S","thumbnail":"https://i.ytimg.com/vi/i7puLmXOIio/mqdefault.jpg","viewCount":"9134","playlistId":"PLEkQk5xrP-tnzc5Igd5ZE8_G2H6afJ4L5","playlistName":"مجالس رحلة سيدي أبي الحسن الشاذلي رضي الله تعالى عنه.","category":"متنوع"},{"id":"39rZZqUtdQc","title":"هل يجوز ذكر الله أثناء التصفح على الانترنت؟","publishedAt":"2023-12-09T18:42:32Z","duration":"PT8M30S","thumbnail":"https://i.ytimg.com/vi/39rZZqUtdQc/mqdefault.jpg","viewCount":"9126","playlistId":"PLEkQk5xrP-tkGXuZ9atE3k_7it12rUPTs","playlistName":"أسئلة المتابعين","category":"متنوع"},{"id":"wzLk7rf18xc","title":"13- هل يمكننا رؤية الله يوم القيامة؟ | شرح مختصر الفتوحات المكية","publishedAt":"2024-04-14T18:18:39Z","duration":"PT53M31S","thumbnail":"https://i.ytimg.com/vi/wzLk7rf18xc/mqdefault.jpg","viewCount":"9119","playlistId":"PLEkQk5xrP-tnpkdZki6rPTtMak1bnI5g-","playlistName":"شرح كتاب مختصر الفتوحات المكية المسمى لواقح الأنوار القدسية","category":"متنوع"},{"id":"R69gCmC-Jb0","title":"هل فوائد شهادات الاستثمار حلال؟","publishedAt":"2022-12-17T18:00:14Z","duration":"PT10M30S","thumbnail":"https://i.ytimg.com/vi/R69gCmC-Jb0/mqdefault.jpg","viewCount":"9102","playlistId":"PLEkQk5xrP-tkGXuZ9atE3k_7it12rUPTs","playlistName":"أسئلة المتابعين","category":"متنوع"},{"id":"dotMxIOoosI","title":"ماذا حدث في رحلة أوروبا والعراق؟","publishedAt":"2024-02-27T18:00:31Z","duration":"PT13M34S","thumbnail":"https://i.ytimg.com/vi/dotMxIOoosI/mqdefault.jpg","viewCount":"9087","playlistId":"PLEkQk5xrP-tm8ZIu74nTOZN9KJUJu416J","playlistName":"مقاطع مُهمَّة (يُسريَّات) أ.د. يسري جبر","category":"متنوع"},{"id":"Drp9JH7JraI","title":"من الفوائد اليسرية فى كيفية صلاة الله وملائكته على خير البرية","publishedAt":"2015-01-05T20:00:34Z","duration":"PT4M45S","thumbnail":"https://i.ytimg.com/vi/Drp9JH7JraI/mqdefault.jpg","viewCount":"9085","playlistId":"PLEkQk5xrP-tm8ZIu74nTOZN9KJUJu416J","playlistName":"مقاطع مُهمَّة (يُسريَّات) أ.د. يسري جبر","category":"متنوع"},{"id":"9LJDxqX9a9o","title":"بشوف أشياء غريبة وخايفة يكون جن ,, ماذا أفعل؟","publishedAt":"2021-06-27T18:55:25Z","duration":"PT10M5S","thumbnail":"https://i.ytimg.com/vi/9LJDxqX9a9o/mqdefault.jpg","viewCount":"9084","playlistId":"PLEkQk5xrP-tm8ZIu74nTOZN9KJUJu416J","playlistName":"مقاطع مُهمَّة (يُسريَّات) أ.د. يسري جبر","category":"متنوع"},{"id":"fWben66GGSg","title":"برنامج - عصمة الأنبياء - الحلقة الأولى - مفهوم العصمة - @alerthTV","publishedAt":"2016-03-19T16:17:13Z","duration":"PT23M30S","thumbnail":"https://i.ytimg.com/vi/fWben66GGSg/mqdefault.jpg","viewCount":"9074","playlistId":"PLEkQk5xrP-tnBp9yUT_R2vtqSPOlcyAZe","playlistName":"برنامج - عصمة الأنبياء","category":"متنوع"},{"id":"poc9MZ2Sz-c","title":"سبحان من لم يجعل الدليل على أوليائه إلا من حيث الدليل عليه، ولم يوصل إليهم إلا من أراد أن يوصله إليه","publishedAt":"2017-04-11T19:28:12Z","duration":"PT13M34S","thumbnail":"https://i.ytimg.com/vi/poc9MZ2Sz-c/mqdefault.jpg","viewCount":"9046","playlistId":"PLEkQk5xrP-tkI_meE148wc7V7XHlB0WPb","playlistName":"من الحكم العطائية  د. يسري جبر","category":"متنوع"},{"id":"11jz1O1G7K8","title":"بكاء النبي صلى الله عليه وسلم عند وفاة ابنه إبراهيم | اعرف نبيك","publishedAt":"2015-08-26T15:22:06Z","duration":"PT7M6S","thumbnail":"https://i.ytimg.com/vi/11jz1O1G7K8/mqdefault.jpg","viewCount":"9036","playlistId":"PLEkQk5xrP-tl6Mu_Mz3QMUSv5T6XBH-Dg","playlistName":"برنامج اعرف نبيك","category":"متنوع"},{"id":"nfeAZGWnc6s","title":"صلوات اليوم الثاني أ.د. يسري جبر","publishedAt":"2015-03-05T19:53:10Z","duration":"PT16M25S","thumbnail":"https://i.ytimg.com/vi/nfeAZGWnc6s/mqdefault.jpg","viewCount":"9013","playlistId":"PLEkQk5xrP-tmuP5s2o33O9gAOC4ACxsma","playlistName":"صَلَواتُ الأَسْمَاءِ الْحُسْنَى شَرْحُ الصَّلَواتِ الْيُسْرِيَّةِ عَلَى خَيرِ الْبَرِيَّةِ  أ.د. يسرى جبر","category":"متنوع"},{"id":"fL0MTNIEla8","title":"كيف أتقنت عملك في الطب مع دراسة العلم الشرعي؟","publishedAt":"2022-10-22T18:00:30Z","duration":"PT14M28S","thumbnail":"https://i.ytimg.com/vi/fL0MTNIEla8/mqdefault.jpg","viewCount":"9004","playlistId":"PLEkQk5xrP-tl6tFiMFGUucCTvLgnWyAfz","playlistName":"حياة الأستاذ الدكتور يسري جبر","category":"متنوع"},{"id":"po-x2WEfE1o","title":"كيف أطلب شيئا من الله وأنا عاصٍ؟","publishedAt":"2021-07-11T17:30:02Z","duration":"PT11M32S","thumbnail":"https://i.ytimg.com/vi/po-x2WEfE1o/mqdefault.jpg","viewCount":"8989","playlistId":"PLEkQk5xrP-tkGXuZ9atE3k_7it12rUPTs","playlistName":"أسئلة المتابعين","category":"متنوع"},{"id":"HYGfIQoy4qc","title":"1- \"حديث المسلسل بالأوليَّة والمحبَّة\" قراءة كتاب الشمائل المحمَّديَّة للإمام الترمذيّ رضي الله عنه","publishedAt":"2021-02-13T06:53:26Z","duration":"PT1H3M45S","thumbnail":"https://i.ytimg.com/vi/HYGfIQoy4qc/mqdefault.jpg","viewCount":"8959","playlistId":"PLEkQk5xrP-tkCtkJ_fVpP3CmkJhWYYZtt","playlistName":"قراءةُ كتابِ الشَّمَائِلِ المُحَمَّدِيَّة للإِمام التِّرمذيّ رضي الله عن","category":"متنوع"},{"id":"cuKhw5cxRvg","title":"شرح حديث لاتشد الرحال إلا إلى ثلاثة مساجد","publishedAt":"2012-09-28T07:13:36Z","duration":"PT14M43S","thumbnail":"https://i.ytimg.com/vi/cuKhw5cxRvg/mqdefault.jpg","viewCount":"8958","playlistId":"PLEkQk5xrP-tm8ZIu74nTOZN9KJUJu416J","playlistName":"مقاطع مُهمَّة (يُسريَّات) أ.د. يسري جبر","category":"متنوع"},{"id":"UnWbzdr92CU","title":"شرح كتاب منازل السائرين للإمام الهروى - المجلس السادس - باب التفكُّر","publishedAt":"2016-01-02T18:48:06Z","duration":"PT1H30M35S","thumbnail":"https://i.ytimg.com/vi/UnWbzdr92CU/mqdefault.jpg","viewCount":"8952","playlistId":"PLEkQk5xrP-tnLYi_5_tSRVBwqcs7ISV7Y","playlistName":"شرح كتاب منازل السائرين للإمام الهروي","category":"متنوع"},{"id":"upEZQE5WhKc","title":"أريد التوبة ولكن أكرر الذنب ,, ماذا أفعل؟","publishedAt":"2021-06-26T19:10:09Z","duration":"PT11M28S","thumbnail":"https://i.ytimg.com/vi/upEZQE5WhKc/mqdefault.jpg","viewCount":"8950","playlistId":"PLEkQk5xrP-tm8ZIu74nTOZN9KJUJu416J","playlistName":"مقاطع مُهمَّة (يُسريَّات) أ.د. يسري جبر","category":"متنوع"},{"id":"YHM69x2CsAM","title":"ما معنى الحب في الله وكيف يكون؟","publishedAt":"2023-03-28T19:00:12Z","duration":"PT11M35S","thumbnail":"https://i.ytimg.com/vi/YHM69x2CsAM/mqdefault.jpg","viewCount":"8835","playlistId":"PLEkQk5xrP-tm8ZIu74nTOZN9KJUJu416J","playlistName":"مقاطع مُهمَّة (يُسريَّات) أ.د. يسري جبر","category":"متنوع"},{"id":"b5W3rlSjJio","title":"هل يجوز تهنئة المسيحيين بأعيادهم؟","publishedAt":"2024-12-25T17:00:37Z","duration":"PT9M44S","thumbnail":"https://i.ytimg.com/vi/b5W3rlSjJio/mqdefault.jpg","viewCount":"8829","playlistId":"PLEkQk5xrP-tkGXuZ9atE3k_7it12rUPTs","playlistName":"أسئلة المتابعين","category":"متنوع"},{"id":"X0GR2YbAaB4","title":"هل الصلاة على النبي ﷺ أفضل من الاستغفار؟","publishedAt":"2024-09-20T17:25:54Z","duration":"PT9M7S","thumbnail":"https://i.ytimg.com/vi/X0GR2YbAaB4/mqdefault.jpg","viewCount":"8825","playlistId":"PLEkQk5xrP-tkGXuZ9atE3k_7it12rUPTs","playlistName":"أسئلة المتابعين","category":"متنوع"},{"id":"hP8Z3xgx-hU","title":"كيف أنزع حب الدنيا من قلبي؟","publishedAt":"2022-08-11T18:00:14Z","duration":"PT11M4S","thumbnail":"https://i.ytimg.com/vi/hP8Z3xgx-hU/mqdefault.jpg","viewCount":"8816","playlistId":"PLEkQk5xrP-tkGXuZ9atE3k_7it12rUPTs","playlistName":"أسئلة المتابعين","category":"متنوع"},{"id":"7pakbyPl24I","title":"شرح مبسط لعلم الإلهيات والنبوات","publishedAt":"2022-01-17T18:31:57Z","duration":"PT12M20S","thumbnail":"https://i.ytimg.com/vi/7pakbyPl24I/mqdefault.jpg","viewCount":"8815","playlistId":"PLEkQk5xrP-tkGXuZ9atE3k_7it12rUPTs","playlistName":"أسئلة المتابعين","category":"متنوع"},{"id":"HFmOBlc5ODg","title":"ما تجدُ القلوبُ من الهُمُومِ والأحزانِ، فلأجلِ ما مُنِعَت من وُجُودِ العيَانِ.","publishedAt":"2018-01-15T17:22:43Z","duration":"PT6M46S","thumbnail":"https://i.ytimg.com/vi/HFmOBlc5ODg/mqdefault.jpg","viewCount":"8779","playlistId":"PLEkQk5xrP-tkI_meE148wc7V7XHlB0WPb","playlistName":"من الحكم العطائية  د. يسري جبر","category":"متنوع"},{"id":"lpgdKoUcsj8","title":"ماذا سيحدث فى أول الدقائق يوم القيامة؟","publishedAt":"2023-04-15T19:00:17Z","duration":"PT8M53S","thumbnail":"https://i.ytimg.com/vi/lpgdKoUcsj8/mqdefault.jpg","viewCount":"8773","playlistId":"PLEkQk5xrP-tm8ZIu74nTOZN9KJUJu416J","playlistName":"مقاطع مُهمَّة (يُسريَّات) أ.د. يسري جبر","category":"متنوع"}],"total":4129,"page":22,"pageSize":24,"totalPages":173}