{"items":[{"id":"TlOWXiKWM44","title":"120- الشفاعة - شرح دليل الفالحين","publishedAt":"2021-09-01T05:44:36Z","duration":"PT30M32S","thumbnail":"https://i.ytimg.com/vi/TlOWXiKWM44/mqdefault.jpg","viewCount":"1775","playlistId":"PLEkQk5xrP-tkc9DXvSLguqX5-FYp6ASR4","playlistName":"دليل الفالحين لطرق رياض الصالحين","category":"متنوع"},{"id":"n4JZM5JJgGs","title":"الحالُ يحكمُ على العِلْمِ  د. يسرى جبر","publishedAt":"2015-12-23T08:38:08Z","duration":"PT24M15S","thumbnail":"https://i.ytimg.com/vi/n4JZM5JJgGs/mqdefault.jpg","viewCount":"1773","playlistId":"PLEkQk5xrP-tlJd4vTDfdmzoQf4xWWKMby","playlistName":"الاحتفال بالمولد النبوى الشريف 1437 - 1438","category":"متنوع"},{"id":"g_duznd_RPs","title":"أنا مقاطع أهلي لأنهم حرموني من الورث ,, فماذا أفعل؟","publishedAt":"2025-03-11T18:33:21Z","duration":"PT8M27S","thumbnail":"https://i.ytimg.com/vi/g_duznd_RPs/mqdefault.jpg","viewCount":"1772","playlistId":"PLEkQk5xrP-tkGXuZ9atE3k_7it12rUPTs","playlistName":"أسئلة المتابعين","category":"متنوع"},{"id":"J7nUoGwzsgk","title":"405- أَقْرَبُ ما يَكونُ العَبْدُ مِن رَبِّهِ، وهو ساجِدٌ، فأكْثِرُوا الدُّعاءَ - شرح دليل الفالحين","publishedAt":"2023-03-01T05:00:13Z","duration":"PT49M51S","thumbnail":"https://i.ytimg.com/vi/J7nUoGwzsgk/mqdefault.jpg","viewCount":"1772","playlistId":"PLEkQk5xrP-tkc9DXvSLguqX5-FYp6ASR4","playlistName":"دليل الفالحين لطرق رياض الصالحين","category":"متنوع"},{"id":"ZgMX1BQvWoQ","title":"كفى من جزائه إياك على الطاعة أن رضيك لها أهل","publishedAt":"2016-11-06T20:48:54Z","duration":"PT2M49S","thumbnail":"https://i.ytimg.com/vi/ZgMX1BQvWoQ/mqdefault.jpg","viewCount":"1770","playlistId":"PLEkQk5xrP-tkI_meE148wc7V7XHlB0WPb","playlistName":"من الحكم العطائية  د. يسري جبر","category":"متنوع"},{"id":"y0cv-flzt8s","title":"١٧٢) حديثُ أول زمرة تدخل الجنة. أ.د. يسري جبر)","publishedAt":"2019-05-25T17:04:40Z","duration":"PT22M6S","thumbnail":"https://i.ytimg.com/vi/y0cv-flzt8s/mqdefault.jpg","viewCount":"1762","playlistId":"PLEkQk5xrP-tnl7vb7KeAoPd5ZlqKKW8KV","playlistName":"شرح كتاب بهجة النفوس أ.د . يسرى جبر","category":"متنوع"},{"id":"qPDifLQxYY0","title":"حاجات بنعملها بتفسد التوازن اللي ربنا خلقه في الأرض!","publishedAt":"2025-10-23T18:30:05Z","duration":"PT16M44S","thumbnail":"https://i.ytimg.com/vi/qPDifLQxYY0/mqdefault.jpg","viewCount":"1761","playlistId":"PLEkQk5xrP-tkGXuZ9atE3k_7it12rUPTs","playlistName":"أسئلة المتابعين","category":"متنوع"},{"id":"-FRvGh8jtqI","title":"حكم الوشم ووصل الشعر في الإسلام | أ.د. يسري جبر","publishedAt":"2022-04-23T19:30:00Z","duration":"PT32M52S","thumbnail":"https://i.ytimg.com/vi/-FRvGh8jtqI/mqdefault.jpg","viewCount":"1761","playlistId":"PLEkQk5xrP-tnl7vb7KeAoPd5ZlqKKW8KV","playlistName":"شرح كتاب بهجة النفوس أ.د . يسرى جبر","category":"متنوع"},{"id":"i_XeUYyKXc4","title":"271- الوَقَار والسَّكِينة - شرح دليل الفالحين","publishedAt":"2022-06-22T05:15:03Z","duration":"PT32M56S","thumbnail":"https://i.ytimg.com/vi/i_XeUYyKXc4/mqdefault.jpg","viewCount":"1760","playlistId":"PLEkQk5xrP-tkc9DXvSLguqX5-FYp6ASR4","playlistName":"دليل الفالحين لطرق رياض الصالحين","category":"متنوع"},{"id":"IZTV0s6d1hM","title":"الاحتفال بالمولد النبوي الشريف ١٤٤١هـ - مديح عمرو خطاب.","publishedAt":"2019-11-22T12:01:14Z","duration":"PT19M14S","thumbnail":"https://i.ytimg.com/vi/IZTV0s6d1hM/mqdefault.jpg","viewCount":"1760","playlistId":"PLEkQk5xrP-tlB8lmbwjAKR8KRgiykGKhb","playlistName":"حضرات يسرية ومدائح نبوية","category":"متنوع"},{"id":"RontIqQsLqQ","title":"40- \"مرَّ النبيُّ ﷺ بامرأة تبكي عند قبر...\"الحديث السابع: باب الصَّبر - شرح دليل الفالحين","publishedAt":"2021-04-05T06:28:26Z","duration":"PT29M24S","thumbnail":"https://i.ytimg.com/vi/RontIqQsLqQ/mqdefault.jpg","viewCount":"1755","playlistId":"PLEkQk5xrP-tkc9DXvSLguqX5-FYp6ASR4","playlistName":"دليل الفالحين لطرق رياض الصالحين","category":"متنوع"},{"id":"aa3bpIS9S_M","title":"21- حديث السقيفة - شرح مسند الإمام أحمد","publishedAt":"2023-09-25T05:40:50Z","duration":"PT42M59S","thumbnail":"https://i.ytimg.com/vi/aa3bpIS9S_M/mqdefault.jpg","viewCount":"1754","playlistId":"PLEkQk5xrP-tkKprIuGrSdEuBSMsyg5We1","playlistName":"شرح مسند الإمام أحمد بن حنبل","category":"متنوع"},{"id":"A8MdPi7Rj30","title":"486- بيان فتنة الدجال وما يظهر على يديه من شبهات - شرح دليل الفالحين","publishedAt":"2023-06-26T08:59:00Z","duration":"PT1H10M36S","thumbnail":"https://i.ytimg.com/vi/A8MdPi7Rj30/mqdefault.jpg","viewCount":"1754","playlistId":"PLEkQk5xrP-tkc9DXvSLguqX5-FYp6ASR4","playlistName":"دليل الفالحين لطرق رياض الصالحين","category":"متنوع"},{"id":"hq4o9O4Lcv8","title":"حكم الاستماع للموسيقى والشعر | مجالس رمضانية","publishedAt":"2023-03-30T15:00:35Z","duration":"PT46M4S","thumbnail":"https://i.ytimg.com/vi/hq4o9O4Lcv8/mqdefault.jpg","viewCount":"1753","playlistId":"PLEkQk5xrP-tnl7vb7KeAoPd5ZlqKKW8KV","playlistName":"شرح كتاب بهجة النفوس أ.د . يسرى جبر","category":"متنوع"},{"id":"PDTbWiOrBMU","title":"161- \"تُنْكَحُ الْمَرْأَةُ لِأَرْبَعٍ  …\" - شرح دليل الفالحين","publishedAt":"2021-12-01T22:40:15Z","duration":"PT33M45S","thumbnail":"https://i.ytimg.com/vi/PDTbWiOrBMU/mqdefault.jpg","viewCount":"1753","playlistId":"PLEkQk5xrP-tkc9DXvSLguqX5-FYp6ASR4","playlistName":"دليل الفالحين لطرق رياض الصالحين","category":"متنوع"},{"id":"Tg5CrgiT_oA","title":"47- كيفية قضاء الصلوات الفائتة؟ | شرح مختصر الفتوحات المكية","publishedAt":"2025-07-14T18:33:40Z","duration":"PT50M49S","thumbnail":"https://i.ytimg.com/vi/Tg5CrgiT_oA/mqdefault.jpg","viewCount":"1752","playlistId":"PLEkQk5xrP-tnpkdZki6rPTtMak1bnI5g-","playlistName":"شرح كتاب مختصر الفتوحات المكية المسمى لواقح الأنوار القدسية","category":"متنوع"},{"id":"5kQprcyNI2s","title":"199- انظُرُوا إلى مَن أسفلَ منكم، ولا تَنظُرُوا إلى مَن هو فوقَكم… - شرح دليل الفالحين","publishedAt":"2022-02-11T07:02:42Z","duration":"PT45M16S","thumbnail":"https://i.ytimg.com/vi/5kQprcyNI2s/mqdefault.jpg","viewCount":"1750","playlistId":"PLEkQk5xrP-tkc9DXvSLguqX5-FYp6ASR4","playlistName":"دليل الفالحين لطرق رياض الصالحين","category":"متنوع"},{"id":"IR5Mu13inKA","title":"5- صِفةُ مِزاح رسول الله ﷺ - قراءة كتاب الشمائل المحمَّديَّة للإمام الترمذيّ رضي الله عنه","publishedAt":"2021-02-25T08:54:26Z","duration":"PT40M1S","thumbnail":"https://i.ytimg.com/vi/IR5Mu13inKA/mqdefault.jpg","viewCount":"1750","playlistId":"PLEkQk5xrP-tkCtkJ_fVpP3CmkJhWYYZtt","playlistName":"قراءةُ كتابِ الشَّمَائِلِ المُحَمَّدِيَّة للإِمام التِّرمذيّ رضي الله عن","category":"متنوع"},{"id":"IkusFyibm8Y","title":"99- من مبشرات النبوة الرؤيا الصالحة - شرح مسند الإمام أحمد رضي الله تعالى عنه","publishedAt":"2024-05-01T06:00:11Z","duration":"PT42M47S","thumbnail":"https://i.ytimg.com/vi/IkusFyibm8Y/mqdefault.jpg","viewCount":"1749","playlistId":"PLEkQk5xrP-tkKprIuGrSdEuBSMsyg5We1","playlistName":"شرح مسند الإمام أحمد بن حنبل","category":"متنوع"},{"id":"s-4U9bcnU8g","title":"89- \"مثلي ومثلُكم كمثلِ رجلٍ أوقدَ نارًا ، فجعل الفراشُ ، والجنادِبُ يقعْنَ فيها…\" شرح دليل الفالحين","publishedAt":"2021-07-04T05:32:54Z","duration":"PT49M39S","thumbnail":"https://i.ytimg.com/vi/s-4U9bcnU8g/mqdefault.jpg","viewCount":"1749","playlistId":"PLEkQk5xrP-tkc9DXvSLguqX5-FYp6ASR4","playlistName":"دليل الفالحين لطرق رياض الصالحين","category":"متنوع"},{"id":"_XeShWdutNA","title":"توْفِيَةُ الحقوقِ وحسْمُ التَّفَرَُق","publishedAt":"2020-07-13T19:29:42Z","duration":"PT6M42S","thumbnail":"https://i.ytimg.com/vi/_XeShWdutNA/mqdefault.jpg","viewCount":"1749","playlistId":"PLEkQk5xrP-tm8ZIu74nTOZN9KJUJu416J","playlistName":"مقاطع مُهمَّة (يُسريَّات) أ.د. يسري جبر","category":"متنوع"},{"id":"xZJBAUEwFAs","title":"33- لا طاعة في معصية، إنما الطاعة في المعروف - شرح مسند الإمام أحمد","publishedAt":"2023-10-26T05:30:15Z","duration":"PT29M22S","thumbnail":"https://i.ytimg.com/vi/xZJBAUEwFAs/mqdefault.jpg","viewCount":"1748","playlistId":"PLEkQk5xrP-tkKprIuGrSdEuBSMsyg5We1","playlistName":"شرح مسند الإمام أحمد بن حنبل","category":"متنوع"},{"id":"UYU41DPgY-M","title":"107- تحريم الظلم والأمر برد المظالم - شرح دليل الفالحين","publishedAt":"2021-08-03T05:23:57Z","duration":"PT56M45S","thumbnail":"https://i.ytimg.com/vi/UYU41DPgY-M/mqdefault.jpg","viewCount":"1748","playlistId":"PLEkQk5xrP-tkc9DXvSLguqX5-FYp6ASR4","playlistName":"دليل الفالحين لطرق رياض الصالحين","category":"متنوع"},{"id":"IniGToUyha8","title":"420- كرامات الأولياء وفضلهم - شرح دليل الفالحين","publishedAt":"2023-03-31T05:00:07Z","duration":"PT31M25S","thumbnail":"https://i.ytimg.com/vi/IniGToUyha8/mqdefault.jpg","viewCount":"1741","playlistId":"PLEkQk5xrP-tkc9DXvSLguqX5-FYp6ASR4","playlistName":"دليل الفالحين لطرق رياض الصالحين","category":"متنوع"}],"total":4129,"page":70,"pageSize":24,"totalPages":173}