{"items":[{"id":"jNoB0ZX3LdI","title":"هل ربنا هيحاسبنا على حديث وخاطر النفس الأمارة بالسوء؟","publishedAt":"2023-12-25T19:09:14Z","duration":"PT8M38S","thumbnail":"https://i.ytimg.com/vi/jNoB0ZX3LdI/mqdefault.jpg","viewCount":"9536","playlistId":"PLEkQk5xrP-tkGXuZ9atE3k_7it12rUPTs","playlistName":"أسئلة المتابعين","category":"متنوع"},{"id":"XM-QoKlykPI","title":"ختام شرح كتاب دلائل الخيرات - المجلس الثالث والعشرون  أ.د. يسري جبر","publishedAt":"2020-04-17T18:10:38Z","duration":"PT25M50S","thumbnail":"https://i.ytimg.com/vi/XM-QoKlykPI/mqdefault.jpg","viewCount":"9532","playlistId":"PLEkQk5xrP-tlAzcbIpuqjdFICW-knvTlR","playlistName":"شرح كتاب دلائل الخيرات وشوارق الأنوار","category":"متنوع"},{"id":"tMsWjMdX3K0","title":"هل يمكن الجمع بين الطب والعلم الشرعي والتصوف؟","publishedAt":"2022-08-26T06:15:02Z","duration":"PT1H32M23S","thumbnail":"https://i.ytimg.com/vi/tMsWjMdX3K0/mqdefault.jpg","viewCount":"9423","playlistId":"PLEkQk5xrP-tm8ZIu74nTOZN9KJUJu416J","playlistName":"مقاطع مُهمَّة (يُسريَّات) أ.د. يسري جبر","category":"متنوع"},{"id":"M8w0WA8Ik1Q","title":"4- ادفن وجودك في أرض الخمول فما نبت مما لم يدفن لا يتم نتاجه | شرح الحكم العطائية","publishedAt":"2024-08-09T18:30:31Z","duration":"PT46M38S","thumbnail":"https://i.ytimg.com/vi/M8w0WA8Ik1Q/mqdefault.jpg","viewCount":"9401","playlistId":"PLEkQk5xrP-tmf5ToOwmW-q0JwxkapbrMN","playlistName":"شرح كتاب إرشاد البرية إلى بعض معاني الحكم العطائية","category":"متنوع"},{"id":"HhE82ZR3IHU","title":"عتاب ولوم الله للنبي في جميع المواضع في القرآن | تفسير هتسمعه لأول مرة!","publishedAt":"2023-02-20T18:00:07Z","duration":"PT12M42S","thumbnail":"https://i.ytimg.com/vi/HhE82ZR3IHU/mqdefault.jpg","viewCount":"9385","playlistId":"PLEkQk5xrP-tm8ZIu74nTOZN9KJUJu416J","playlistName":"مقاطع مُهمَّة (يُسريَّات) أ.د. يسري جبر","category":"متنوع"},{"id":"rLlYdiuA1bE","title":"بذكرى المولد نحيا","publishedAt":"2024-09-04T16:38:42Z","duration":"PT19M42S","thumbnail":"https://i.ytimg.com/vi/rLlYdiuA1bE/mqdefault.jpg","viewCount":"9377","playlistId":"PLEkQk5xrP-tm8ZIu74nTOZN9KJUJu416J","playlistName":"مقاطع مُهمَّة (يُسريَّات) أ.د. يسري جبر","category":"متنوع"},{"id":"SRXmxnGkm5k","title":"أقربُ إليك منك","publishedAt":"2020-07-06T19:51:41Z","duration":"PT11M47S","thumbnail":"https://i.ytimg.com/vi/SRXmxnGkm5k/mqdefault.jpg","viewCount":"9327","playlistId":"PLEkQk5xrP-tm8ZIu74nTOZN9KJUJu416J","playlistName":"مقاطع مُهمَّة (يُسريَّات) أ.د. يسري جبر","category":"متنوع"},{"id":"t5qVByQkmoI","title":"كيف أواظب على الصلاة وأتخلص من شهوة مشاهدة الإباحية؟","publishedAt":"2023-12-02T18:29:03Z","duration":"PT8M48S","thumbnail":"https://i.ytimg.com/vi/t5qVByQkmoI/mqdefault.jpg","viewCount":"9292","playlistId":"PLEkQk5xrP-tkGXuZ9atE3k_7it12rUPTs","playlistName":"أسئلة المتابعين","category":"متنوع"},{"id":"b_nFeUevxzY","title":"أنا أعبد ربنا بس مش بحس بأي مشاعر ,, أعمل ايه؟","publishedAt":"2023-12-28T19:30:10Z","duration":"PT9M53S","thumbnail":"https://i.ytimg.com/vi/b_nFeUevxzY/mqdefault.jpg","viewCount":"9281","playlistId":"PLEkQk5xrP-tkGXuZ9atE3k_7it12rUPTs","playlistName":"أسئلة المتابعين","category":"متنوع"},{"id":"_cpEU-iYGig","title":"25- درجات الوصول إلى الله | شرح مختصر الفتوحات المكية","publishedAt":"2024-07-13T18:00:30Z","duration":"PT46M14S","thumbnail":"https://i.ytimg.com/vi/_cpEU-iYGig/mqdefault.jpg","viewCount":"9278","playlistId":"PLEkQk5xrP-tnpkdZki6rPTtMak1bnI5g-","playlistName":"شرح كتاب مختصر الفتوحات المكية المسمى لواقح الأنوار القدسية","category":"متنوع"},{"id":"i0tTZk_Cjus","title":"ربما أفادك في ليل القبض ما لم تستفدْه في إشراق نهار البسط .","publishedAt":"2017-03-20T19:35:52Z","duration":"PT14M17S","thumbnail":"https://i.ytimg.com/vi/i0tTZk_Cjus/mqdefault.jpg","viewCount":"9278","playlistId":"PLEkQk5xrP-tkI_meE148wc7V7XHlB0WPb","playlistName":"من الحكم العطائية  د. يسري جبر","category":"متنوع"},{"id":"7_VA61XhHcY","title":"كيف تكون محبوبا؟","publishedAt":"2021-01-22T18:00:35Z","duration":"PT15M57S","thumbnail":"https://i.ytimg.com/vi/7_VA61XhHcY/mqdefault.jpg","viewCount":"9267","playlistId":"PLEkQk5xrP-tm8ZIu74nTOZN9KJUJu416J","playlistName":"مقاطع مُهمَّة (يُسريَّات) أ.د. يسري جبر","category":"متنوع"},{"id":"gx21C59ahzY","title":"شرح كتاب دلائل الخيرات - المجلس العشرون. أ.د. يسري جبر","publishedAt":"2020-02-15T21:35:10Z","duration":"PT33M9S","thumbnail":"https://i.ytimg.com/vi/gx21C59ahzY/mqdefault.jpg","viewCount":"9262","playlistId":"PLEkQk5xrP-tlAzcbIpuqjdFICW-knvTlR","playlistName":"شرح كتاب دلائل الخيرات وشوارق الأنوار","category":"متنوع"},{"id":"UukH6LhtVBE","title":"32- ما هو الزمكان و هل الزمن نسبي؟ | شرح مختصر الفتوحات المكية","publishedAt":"2024-09-01T16:00:04Z","duration":"PT34M58S","thumbnail":"https://i.ytimg.com/vi/UukH6LhtVBE/mqdefault.jpg","viewCount":"9252","playlistId":"PLEkQk5xrP-tnpkdZki6rPTtMak1bnI5g-","playlistName":"شرح كتاب مختصر الفتوحات المكية المسمى لواقح الأنوار القدسية","category":"متنوع"},{"id":"7VNWMMUL9HY","title":"قصة يوم عاشوراء وما هو فضل صيامه؟","publishedAt":"2024-07-15T17:30:00Z","duration":"PT13M55S","thumbnail":"https://i.ytimg.com/vi/7VNWMMUL9HY/mqdefault.jpg","viewCount":"9248","playlistId":"PLEkQk5xrP-tm8ZIu74nTOZN9KJUJu416J","playlistName":"مقاطع مُهمَّة (يُسريَّات) أ.د. يسري جبر","category":"متنوع"},{"id":"siOGt_19cKs","title":"ما هي أسباب زيادة الرزق وهل يوجد ورد مخصص؟","publishedAt":"2024-06-01T17:28:14Z","duration":"PT8M54S","thumbnail":"https://i.ytimg.com/vi/siOGt_19cKs/mqdefault.jpg","viewCount":"9245","playlistId":"PLEkQk5xrP-tkGXuZ9atE3k_7it12rUPTs","playlistName":"أسئلة المتابعين","category":"متنوع"},{"id":"5nSZ3D6YaeU","title":"هل يجوز تفسير الأحلام؟","publishedAt":"2022-06-08T18:00:01Z","duration":"PT8M1S","thumbnail":"https://i.ytimg.com/vi/5nSZ3D6YaeU/mqdefault.jpg","viewCount":"9238","playlistId":"PLEkQk5xrP-tm8ZIu74nTOZN9KJUJu416J","playlistName":"مقاطع مُهمَّة (يُسريَّات) أ.د. يسري جبر","category":"متنوع"},{"id":"trZOb6jk35w","title":"الرد على تعليقات بعض المتابعين","publishedAt":"2021-10-16T17:36:42Z","duration":"PT10M53S","thumbnail":"https://i.ytimg.com/vi/trZOb6jk35w/mqdefault.jpg","viewCount":"9230","playlistId":"PLEkQk5xrP-tkGXuZ9atE3k_7it12rUPTs","playlistName":"أسئلة المتابعين","category":"متنوع"},{"id":"MqJxV5cvt0k","title":"سُهُولِةِ الوِلايَةِ وَالعِلْمِ وَالإِجِازِةِ عَن بُعْد","publishedAt":"2015-06-28T18:03:01Z","duration":"PT4M53S","thumbnail":"https://i.ytimg.com/vi/MqJxV5cvt0k/mqdefault.jpg","viewCount":"9217","playlistId":"PLEkQk5xrP-tm8ZIu74nTOZN9KJUJu416J","playlistName":"مقاطع مُهمَّة (يُسريَّات) أ.د. يسري جبر","category":"متنوع"},{"id":"3ZPrwr-dtM4","title":"شرح صلاة المُتَرَدِّي   د. يسري جبر","publishedAt":"2017-01-18T17:32:18Z","duration":"PT17M47S","thumbnail":"https://i.ytimg.com/vi/3ZPrwr-dtM4/mqdefault.jpg","viewCount":"9211","playlistId":"PLEkQk5xrP-tm8ZIu74nTOZN9KJUJu416J","playlistName":"مقاطع مُهمَّة (يُسريَّات) أ.د. يسري جبر","category":"متنوع"},{"id":"fZ_fTtDobdA","title":"الأدب حال الكشف","publishedAt":"2020-09-08T18:54:28Z","duration":"PT9M8S","thumbnail":"https://i.ytimg.com/vi/fZ_fTtDobdA/mqdefault.jpg","viewCount":"9201","playlistId":"PLEkQk5xrP-tm8ZIu74nTOZN9KJUJu416J","playlistName":"مقاطع مُهمَّة (يُسريَّات) أ.د. يسري جبر","category":"متنوع"},{"id":"PdDMo4K_oYQ","title":"الافتقار إلى الله هو أصل الطريق  د. يسري جبر","publishedAt":"2018-09-30T18:47:09Z","duration":"PT13M59S","thumbnail":"https://i.ytimg.com/vi/PdDMo4K_oYQ/mqdefault.jpg","viewCount":"9184","playlistId":"PLEkQk5xrP-tnzc5Igd5ZE8_G2H6afJ4L5","playlistName":"مجالس رحلة سيدي أبي الحسن الشاذلي رضي الله تعالى عنه.","category":"متنوع"},{"id":"E1B-ZSCAt8A","title":"شرح كتاب بهجة النفوس - المجلس الأول","publishedAt":"2020-04-23T20:00:12Z","duration":"PT40M48S","thumbnail":"https://i.ytimg.com/vi/E1B-ZSCAt8A/mqdefault.jpg","viewCount":"9172","playlistId":"PLEkQk5xrP-tlyEB2iywk4VchTQROnBrU6","playlistName":"بهجة النفوس من أوله  أ.د. يسري جبر","category":"متنوع"},{"id":"hST8DOv5UOA","title":"حلاوة الذكر","publishedAt":"2020-09-11T19:00:08Z","duration":"PT2M44S","thumbnail":"https://i.ytimg.com/vi/hST8DOv5UOA/mqdefault.jpg","viewCount":"9140","playlistId":"PLEkQk5xrP-tm8ZIu74nTOZN9KJUJu416J","playlistName":"مقاطع مُهمَّة (يُسريَّات) أ.د. يسري جبر","category":"متنوع"}],"total":4129,"page":21,"pageSize":24,"totalPages":173}