{"items":[{"id":"JqfxbVe4kBY","title":"ูุง ูู ุงููุนุงุตู ุงูุชู ุชุญุจุท ุงูุนููุ","publishedAt":"2024-12-08T18:31:27Z","duration":"PT9M28S","thumbnail":"https://i.ytimg.com/vi/JqfxbVe4kBY/mqdefault.jpg","viewCount":"2857","playlistId":"PLEkQk5xrP-tnZyxWbCSqTSMV9BJLUL-zN","playlistName":"ุดุฑุญ ูุชุงุจ ุชูููุฑ ุงูุจุตูุฑุฉ ุจุจูุงู ุนูุงูุงุช ุงููุจูุฑุฉ","category":"ูุชููุน"},{"id":"GfhSE06wCSg","title":"ูุถู ูุซุฑุฉ ุงูุณุฌูุฏ ูุณุฑ ุงููุฑุจ ูู ุงููุจู ูู ุงูุฌูุฉ | ูุฌุงูุณ ุฑูุถุงููุฉ","publishedAt":"2025-03-03T15:00:20Z","duration":"PT20M43S","thumbnail":"https://i.ytimg.com/vi/GfhSE06wCSg/mqdefault.jpg","viewCount":"2849","playlistId":"PLEkQk5xrP-tkeI_WVPfuoTJO46aVkpaz0","playlistName":"ุดุฑุญ ูุชุงุจ ููุฒุงู ุงูุงุนุชุฏุงู ูุญูุธ ุงูุฏูู ูุงูุฃุญูุงู","category":"ูุชููุน"},{"id":"44H46W09p6E","title":"ูุตู ุฃุฑุถ ุงููุญุดุฑ ููู ุงูููุงูุฉ | ูุฌุงูุณ ุฑูุถุงููุฉ","publishedAt":"2023-04-14T15:00:06Z","duration":"PT36M5S","thumbnail":"https://i.ytimg.com/vi/44H46W09p6E/mqdefault.jpg","viewCount":"2839","playlistId":"PLEkQk5xrP-tnl7vb7KeAoPd5ZlqKKW8KV","playlistName":"ุดุฑุญ ูุชุงุจ ุจูุฌุฉ ุงููููุณ ุฃ.ุฏ . ูุณุฑู ุฌุจุฑ","category":"ูุชููุน"},{"id":"GFBTCnb8sXc","title":"ูู ูุชุนุงุฑุถ ูุงููู ุงูุทูุงู ูู ูุตุฑ ูุน ุงูุดุฑูุนุฉ ุงูุฅุณูุงููุฉุ","publishedAt":"2023-07-26T18:01:09Z","duration":"PT9M15S","thumbnail":"https://i.ytimg.com/vi/GFBTCnb8sXc/mqdefault.jpg","viewCount":"2830","playlistId":"PLEkQk5xrP-tkGXuZ9atE3k_7it12rUPTs","playlistName":"ุฃุณุฆูุฉ ุงููุชุงุจุนูู","category":"ูุชููุน"},{"id":"u6tOsmONWjk","title":"ุฌุงูุจ ูู ุงูุงุญุชูุงู ุจุงููููุฏ ุงููุจูู ุงูุดุฑูู 1447","publishedAt":"2025-09-10T13:01:46Z","duration":"PT2H20M26S","thumbnail":"https://i.ytimg.com/vi/u6tOsmONWjk/mqdefault.jpg","viewCount":"2822","playlistId":"PLEkQk5xrP-tlB8lmbwjAKR8KRgiykGKhb","playlistName":"ุญุถุฑุงุช ูุณุฑูุฉ ููุฏุงุฆุญ ูุจููุฉ","category":"ูุชููุน"},{"id":"pvuFOXGKzTM","title":"ุนููู ุงููููู ูุนููู ุงููููู","publishedAt":"2020-06-08T18:59:40Z","duration":"PT5M3S","thumbnail":"https://i.ytimg.com/vi/pvuFOXGKzTM/mqdefault.jpg","viewCount":"2807","playlistId":"PLEkQk5xrP-tm8ZIu74nTOZN9KJUJu416J","playlistName":"ููุงุทุน ููููููุฉ (ููุณุฑูููุงุช) ุฃ.ุฏ. ูุณุฑู ุฌุจุฑ","category":"ูุชููุน"},{"id":"3bobscuD7ns","title":"ุญุธ ุงูููุณ ูู ุงููุนุตูุฉ ุธุงูุฑ ุฌูููุ ูุญุธูุง ูู ุงูุทุงุนุฉ ุจุงุทู ุฎูููุ ููุฏุงูุฉ ูุง ูุฎูู ุตุนุจ ุนูุงุฌู","publishedAt":"2017-04-17T20:24:43Z","duration":"PT6M28S","thumbnail":"https://i.ytimg.com/vi/3bobscuD7ns/mqdefault.jpg","viewCount":"2802","playlistId":"PLEkQk5xrP-tkI_meE148wc7V7XHlB0WPb","playlistName":"ูู ุงูุญูู ุงูุนุทุงุฆูุฉ  ุฏ. ูุณุฑู ุฌุจุฑ","category":"ูุชููุน"},{"id":"4NF0YVQRuh8","title":"ุชูุณูุฑ ูููู ุชุนุงูู \"ูุง ุฃููุง ุงููุจู ูู ุชุญุฑู ูุง ุฃุญู ุงููู ูู ุชุจุชุบู ูุฑุถุงุฉ ุฃุฒูุงุฌู\"","publishedAt":"2024-07-27T17:09:16Z","duration":"PT19M36S","thumbnail":"https://i.ytimg.com/vi/4NF0YVQRuh8/mqdefault.jpg","viewCount":"2801","playlistId":"PLEkQk5xrP-tkSGrPLMt1BEmJ54cGWYgtp","playlistName":"ูุชุงุจู ุจูุฏูุนู ุงูุชูููุงุณููุฑู - ุฃ.ุฏ. ูุณุฑู ุฌุจุฑ","category":"ูุชููุน"},{"id":"gWKmvpIFrq0","title":"ูุง ูู ุขุฏุงุจ ุงูุฏุฎูู ูู ุทุฑูู ุงูุชุตููุ","publishedAt":"2025-08-05T19:30:06Z","duration":"PT30M21S","thumbnail":"https://i.ytimg.com/vi/gWKmvpIFrq0/mqdefault.jpg","viewCount":"2796","playlistId":"PLEkQk5xrP-tmsEDdkkXMM1ca2-AquQYad","playlistName":"ุดุฑุญ ูุชุงุจ ูุฏุงุฑุฌ ุงูุญูููุฉ ูู ุงูุฑุงุจุทุฉ ุนูุฏ ุฃูู ุงูุทุฑููุฉ","category":"ูุชููุน"},{"id":"kFV12_vRIKY","title":"ูุง ุญูููุฉ ุนุฐุงุจ ุงููุจุฑ ููุนููู ููุงุฐุง ูุญุฏุซ ุจุนุฏ ุงูููุชุ","publishedAt":"2025-09-02T19:00:42Z","duration":"PT34M15S","thumbnail":"https://i.ytimg.com/vi/kFV12_vRIKY/mqdefault.jpg","viewCount":"2788","playlistId":"PLEkQk5xrP-tmsEDdkkXMM1ca2-AquQYad","playlistName":"ุดุฑุญ ูุชุงุจ ูุฏุงุฑุฌ ุงูุญูููุฉ ูู ุงูุฑุงุจุทุฉ ุนูุฏ ุฃูู ุงูุทุฑููุฉ","category":"ูุชููุน"},{"id":"hYGR5FU6LeI","title":"ูู ุงุณุชุนูุงู ุงูุจูุฌ ุงูููู ุฃู ุงูููุถุนู ููุณุฏ ุงูุตูุงูุ","publishedAt":"2023-04-01T19:00:15Z","duration":"PT13M8S","thumbnail":"https://i.ytimg.com/vi/hYGR5FU6LeI/mqdefault.jpg","viewCount":"2788","playlistId":"PLEkQk5xrP-tkGXuZ9atE3k_7it12rUPTs","playlistName":"ุฃุณุฆูุฉ ุงููุชุงุจุนูู","category":"ูุชููุน"},{"id":"WFImrIx-XAg","title":"ุชูุณูุฑ ูููู ุชุนุงูู\"ููููุงู ุฃูุฑูุณูููููุง ููู ููุจููููู ูู ุฑููุณููููข ููููุง ููุจูููู ุฅููููุงู ุฅูุฐูุง ุชูููููููโฆ\"","publishedAt":"2021-09-10T17:21:08Z","duration":"PT10M24S","thumbnail":"https://i.ytimg.com/vi/WFImrIx-XAg/mqdefault.jpg","viewCount":"2785","playlistId":"PLEkQk5xrP-tkSGrPLMt1BEmJ54cGWYgtp","playlistName":"ูุชุงุจู ุจูุฏูุนู ุงูุชูููุงุณููุฑู - ุฃ.ุฏ. ูุณุฑู ุฌุจุฑ","category":"ูุชููุน"},{"id":"J1MNCtwkSNM","title":"ููุฑ ูุณุชูุฏุน ูู ุงููููุจุ ูุฏุฏู ูู ุงูููุฑ ุงููุงุฑุฏ ูู ุฎุฒุงุฆู ุงูุบููุจ .","publishedAt":"2017-03-27T18:08:50Z","duration":"PT15M22S","thumbnail":"https://i.ytimg.com/vi/J1MNCtwkSNM/mqdefault.jpg","viewCount":"2781","playlistId":"PLEkQk5xrP-tkI_meE148wc7V7XHlB0WPb","playlistName":"ูู ุงูุญูู ุงูุนุทุงุฆูุฉ  ุฏ. ูุณุฑู ุฌุจุฑ","category":"ูุชููุน"},{"id":"gZHEI6jr5cE","title":"67- ุนูุงุฌ ุดุฏุฉ ุงูุนูุด ููุดูุฉ ุงูุนูู - ุดุฑุญ ูุณูุฏ ุงูุฅูุงู ุฃุญูุฏ ุฑุถู ุงููู ุนูู","publishedAt":"2024-01-24T07:20:55Z","duration":"PT38M11S","thumbnail":"https://i.ytimg.com/vi/gZHEI6jr5cE/mqdefault.jpg","viewCount":"2776","playlistId":"PLEkQk5xrP-tkKprIuGrSdEuBSMsyg5We1","playlistName":"ุดุฑุญ ูุณูุฏ ุงูุฅูุงู ุฃุญูุฏ ุจู ุญูุจู","category":"ูุชููุน"},{"id":"sYnGBbTHD0c","title":"ุงููุฑู ุจูู ุงูุฎูู ูุงูุฎุดูุฉ ูู ุงููู ุชุนุงูู | ูุฌุงูุณ ุฑูุถุงููุฉ","publishedAt":"2025-03-29T19:00:39Z","duration":"PT35M53S","thumbnail":"https://i.ytimg.com/vi/sYnGBbTHD0c/mqdefault.jpg","viewCount":"2770","playlistId":"PLEkQk5xrP-tkeI_WVPfuoTJO46aVkpaz0","playlistName":"ุดุฑุญ ูุชุงุจ ููุฒุงู ุงูุงุนุชุฏุงู ูุญูุธ ุงูุฏูู ูุงูุฃุญูุงู","category":"ูุชููุน"},{"id":"LfYUg_LyhCU","title":"ูู ูููููุง ุฑุคูุฉ ุงููู ููู ุงูููุงูุฉ ููู ุฑุฃู ุงููุจู ุฑุจูุ","publishedAt":"2024-12-03T18:21:30Z","duration":"PT11M50S","thumbnail":"https://i.ytimg.com/vi/LfYUg_LyhCU/mqdefault.jpg","viewCount":"2757","playlistId":"PLEkQk5xrP-tkGXuZ9atE3k_7it12rUPTs","playlistName":"ุฃุณุฆูุฉ ุงููุชุงุจุนูู","category":"ูุชููุน"},{"id":"wj3G164j6iI","title":"ุญูุธ ุงูุญูุฑูุฉ","publishedAt":"2020-08-04T19:36:21Z","duration":"PT8M20S","thumbnail":"https://i.ytimg.com/vi/wj3G164j6iI/mqdefault.jpg","viewCount":"2757","playlistId":"PLEkQk5xrP-tm8ZIu74nTOZN9KJUJu416J","playlistName":"ููุงุทุน ููููููุฉ (ููุณุฑูููุงุช) ุฃ.ุฏ. ูุณุฑู ุฌุจุฑ","category":"ูุชููุน"},{"id":"4u34d3TLKak","title":"22- ููุงุฐุง ููุนู ุงููู ุนูููุง ุฑุบู ุฃููุง ูุนุตููุ | ุดุฑุญ ุงูุญูู ุงูุนุทุงุฆูุฉ","publishedAt":"2025-07-24T18:00:07Z","duration":"PT35M24S","thumbnail":"https://i.ytimg.com/vi/4u34d3TLKak/mqdefault.jpg","viewCount":"2750","playlistId":"PLEkQk5xrP-tmf5ToOwmW-q0JwxkapbrMN","playlistName":"ุดุฑุญ ูุชุงุจ ุฅุฑุดุงุฏ ุงูุจุฑูุฉ ุฅูู ุจุนุถ ูุนุงูู ุงูุญูู ุงูุนุทุงุฆูุฉ","category":"ูุชููุน"},{"id":"KxbpFG5SzyQ","title":"ูุถู ุงูุตุฏูุฉ ูุฃุซุฑูุง ุนูู ูู ูุณูู | ูุฌุงูุณ ุฑูุถุงููุฉ","publishedAt":"2023-04-16T15:00:22Z","duration":"PT41M19S","thumbnail":"https://i.ytimg.com/vi/KxbpFG5SzyQ/mqdefault.jpg","viewCount":"2747","playlistId":"PLEkQk5xrP-tnl7vb7KeAoPd5ZlqKKW8KV","playlistName":"ุดุฑุญ ูุชุงุจ ุจูุฌุฉ ุงููููุณ ุฃ.ุฏ . ูุณุฑู ุฌุจุฑ","category":"ูุชููุน"},{"id":"HGOyEUvA0Vc","title":"259- ุงูุบุถุจ ุฅุฐุง ุงูุชููููุช ุญูุฑููุงุช ุงูุดููุฑุน ูุงูุงูุชุตุงุฑ ูุฏูู ุงููู ุชุนุงูู - ุดุฑุญ ุฏููู ุงููุงูุญูู","publishedAt":"2022-06-01T05:00:06Z","duration":"PT43M50S","thumbnail":"https://i.ytimg.com/vi/HGOyEUvA0Vc/mqdefault.jpg","viewCount":"2747","playlistId":"PLEkQk5xrP-tkc9DXvSLguqX5-FYp6ASR4","playlistName":"ุฏููู ุงููุงูุญูู ูุทุฑู ุฑูุงุถ ุงูุตุงูุญูู","category":"ูุชููุน"},{"id":"DC4H7pcCAO0","title":"ูุตุงูุง ูููุณูููู ูู ุฃูุฑูุจุง ูุจูุงุฏ ุงูุบุฑุจ | ุฅุดุจูููุฉ - ุงุณุจุงููุง๐","publishedAt":"2025-10-31T19:30:06Z","duration":"PT14M3S","thumbnail":"https://i.ytimg.com/vi/DC4H7pcCAO0/mqdefault.jpg","viewCount":"2746","playlistId":"PLEkQk5xrP-tm8ZIu74nTOZN9KJUJu416J","playlistName":"ููุงุทุน ููููููุฉ (ููุณุฑูููุงุช) ุฃ.ุฏ. ูุณุฑู ุฌุจุฑ","category":"ูุชููุน"},{"id":"RK8mAOrG7kE","title":"ููู ุชูุณุจ ูููุณู ุดูุฆุง ูุง ุชูููู!","publishedAt":"2020-11-26T18:16:45Z","duration":"PT8M10S","thumbnail":"https://i.ytimg.com/vi/RK8mAOrG7kE/mqdefault.jpg","viewCount":"2738","playlistId":"PLEkQk5xrP-tm8ZIu74nTOZN9KJUJu416J","playlistName":"ููุงุทุน ููููููุฉ (ููุณุฑูููุงุช) ุฃ.ุฏ. ูุณุฑู ุฌุจุฑ","category":"ูุชููุน"},{"id":"6DEEQ3TRD_Q","title":"27- ูุนูู ุฃุญูุงู ุงููุจุถ ูุงูุจุณุท ุนูุฏ ุงูุตูููุฉ | ุดุฑุญ ุงูุญูู ุงูุนุทุงุฆูุฉ","publishedAt":"2025-10-22T18:15:00Z","duration":"PT32M19S","thumbnail":"https://i.ytimg.com/vi/6DEEQ3TRD_Q/mqdefault.jpg","viewCount":"2737","playlistId":"PLEkQk5xrP-tmf5ToOwmW-q0JwxkapbrMN","playlistName":"ุดุฑุญ ูุชุงุจ ุฅุฑุดุงุฏ ุงูุจุฑูุฉ ุฅูู ุจุนุถ ูุนุงูู ุงูุญูู ุงูุนุทุงุฆูุฉ","category":"ูุชููุน"},{"id":"sx9YZ0Ow3bo","title":"ูุง ูู ุฃููุงุน ุงููุจุงุฆุฑุ","publishedAt":"2024-09-25T15:39:57Z","duration":"PT21M6S","thumbnail":"https://i.ytimg.com/vi/sx9YZ0Ow3bo/mqdefault.jpg","viewCount":"2737","playlistId":"PLEkQk5xrP-tnZyxWbCSqTSMV9BJLUL-zN","playlistName":"ุดุฑุญ ูุชุงุจ ุชูููุฑ ุงูุจุตูุฑุฉ ุจุจูุงู ุนูุงูุงุช ุงููุจูุฑุฉ","category":"ูุชููุน"}],"total":4129,"page":54,"pageSize":24,"totalPages":173}