{"items":[{"id":"RokkzmzA5sQ","title":"ما تعليقك على صورة د.أسامة الأزهري المنتشرة؟ | دفاعًا عن علماء الأزهر","publishedAt":"2023-05-13T18:00:06Z","duration":"PT19M33S","thumbnail":"https://i.ytimg.com/vi/RokkzmzA5sQ/mqdefault.jpg","viewCount":"48075","playlistId":"PLEkQk5xrP-tm8ZIu74nTOZN9KJUJu416J","playlistName":"مقاطع مُهمَّة (يُسريَّات) أ.د. يسري جبر","category":"متنوع"},{"id":"src2EZoJt88","title":"!مشاكل العلاقات الزوجية,,  للكبار فقط","publishedAt":"2023-02-09T18:00:32Z","duration":"PT11M51S","thumbnail":"https://i.ytimg.com/vi/src2EZoJt88/mqdefault.jpg","viewCount":"47933","playlistId":"PLEkQk5xrP-tkGXuZ9atE3k_7it12rUPTs","playlistName":"أسئلة المتابعين","category":"متنوع"},{"id":"bdq5dT2lfGI","title":"هل يجوز المسح على الشراب في الوضوء؟","publishedAt":"2024-01-07T18:44:26Z","duration":"PT10M5S","thumbnail":"https://i.ytimg.com/vi/bdq5dT2lfGI/mqdefault.jpg","viewCount":"47613","playlistId":"PLEkQk5xrP-tkGXuZ9atE3k_7it12rUPTs","playlistName":"أسئلة المتابعين","category":"متنوع"},{"id":"JFjgDQY7xUg","title":"قصة حصولي على الدكتوراه | وكيف أتخلص من هم الخلق والرزق؟","publishedAt":"2024-01-02T19:08:12Z","duration":"PT12M45S","thumbnail":"https://i.ytimg.com/vi/JFjgDQY7xUg/mqdefault.jpg","viewCount":"47494","playlistId":"PLEkQk5xrP-tl6tFiMFGUucCTvLgnWyAfz","playlistName":"حياة الأستاذ الدكتور يسري جبر","category":"متنوع"},{"id":"zv0FDnPP7Ak","title":"الرد على اعتراضات بعض المتابعين في الفترة الأخيرة","publishedAt":"2023-04-28T18:41:19Z","duration":"PT26M24S","thumbnail":"https://i.ytimg.com/vi/zv0FDnPP7Ak/mqdefault.jpg","viewCount":"47476","playlistId":"PLEkQk5xrP-tkGXuZ9atE3k_7it12rUPTs","playlistName":"أسئلة المتابعين","category":"متنوع"},{"id":"SOdtAQlGiIk","title":"أفضل طرق المذاكرة","publishedAt":"2021-01-05T18:29:08Z","duration":"PT15M40S","thumbnail":"https://i.ytimg.com/vi/SOdtAQlGiIk/mqdefault.jpg","viewCount":"47194","playlistId":"PLEkQk5xrP-tm8ZIu74nTOZN9KJUJu416J","playlistName":"مقاطع مُهمَّة (يُسريَّات) أ.د. يسري جبر","category":"متنوع"},{"id":"xm8vSm5oZw0","title":"2- الإِلَهِيَّات - صِفَاتُ الله عزَّ وجلَّ","publishedAt":"2021-12-27T18:06:01Z","duration":"PT1H27M16S","thumbnail":"https://i.ytimg.com/vi/xm8vSm5oZw0/mqdefault.jpg","viewCount":"46980","playlistId":"PLEkQk5xrP-tmNuYT8JAh6clwa4krsgkNo","playlistName":"شرح كتاب الفُتُوحات اليُسريَّة في عقائد الأُمَّة المُحمَّديَّة","category":"متنوع"},{"id":"7NIA7_OZigM","title":"هل ابن تيمية من أهل التصوف؟","publishedAt":"2022-01-30T19:00:02Z","duration":"PT8M49S","thumbnail":"https://i.ytimg.com/vi/7NIA7_OZigM/mqdefault.jpg","viewCount":"46500","playlistId":"PLEkQk5xrP-tkGXuZ9atE3k_7it12rUPTs","playlistName":"أسئلة المتابعين","category":"متنوع"},{"id":"4CnFB9j-4Es","title":"هل يوجد أسرار في التصوف؟","publishedAt":"2022-09-06T18:30:03Z","duration":"PT11M6S","thumbnail":"https://i.ytimg.com/vi/4CnFB9j-4Es/mqdefault.jpg","viewCount":"46261","playlistId":"PLEkQk5xrP-tkGXuZ9atE3k_7it12rUPTs","playlistName":"أسئلة المتابعين","category":"متنوع"},{"id":"wwTptGo-wBY","title":"حبُّ الصَّالِحِينَ والتَّعلُّق بِهِم  د. يسري جبر","publishedAt":"2018-10-05T17:45:16Z","duration":"PT24M49S","thumbnail":"https://i.ytimg.com/vi/wwTptGo-wBY/mqdefault.jpg","viewCount":"46009","playlistId":"PLEkQk5xrP-tnzc5Igd5ZE8_G2H6afJ4L5","playlistName":"مجالس رحلة سيدي أبي الحسن الشاذلي رضي الله تعالى عنه.","category":"متنوع"},{"id":"M_kdSWpAxQ0","title":"هل يجوز زواج المسلمة من غير المسلم؟","publishedAt":"2020-11-21T18:00:06Z","duration":"PT18M57S","thumbnail":"https://i.ytimg.com/vi/M_kdSWpAxQ0/mqdefault.jpg","viewCount":"45810","playlistId":"PLEkQk5xrP-tm8ZIu74nTOZN9KJUJu416J","playlistName":"مقاطع مُهمَّة (يُسريَّات) أ.د. يسري جبر","category":"متنوع"},{"id":"j1XHz6Sutlo","title":"خصائص النبي فى الأكوان د يسري جبر احتفال المولد النبوي بمضيفة الدح","publishedAt":"2016-12-07T11:56:02Z","duration":"PT25M59S","thumbnail":"https://i.ytimg.com/vi/j1XHz6Sutlo/mqdefault.jpg","viewCount":"45761","playlistId":"PLEkQk5xrP-tm8ZIu74nTOZN9KJUJu416J","playlistName":"مقاطع مُهمَّة (يُسريَّات) أ.د. يسري جبر","category":"متنوع"},{"id":"GyU1OrYzCe4","title":"متى وَرَدَت الوَارِدَاتُ الإلهيةِ إليك، َهَدمَت العوائِدَ عليك.","publishedAt":"2018-01-04T23:48:16Z","duration":"PT19M59S","thumbnail":"https://i.ytimg.com/vi/GyU1OrYzCe4/mqdefault.jpg","viewCount":"45460","playlistId":"PLEkQk5xrP-tkI_meE148wc7V7XHlB0WPb","playlistName":"من الحكم العطائية  د. يسري جبر","category":"متنوع"},{"id":"hQ4DKI72YOA","title":"كيف تعرف الشيخ المُربـّـِى ؟","publishedAt":"2014-04-09T16:41:08Z","duration":"PT5M12S","thumbnail":"https://i.ytimg.com/vi/hQ4DKI72YOA/mqdefault.jpg","viewCount":"44848","playlistId":"PLEkQk5xrP-tm8ZIu74nTOZN9KJUJu416J","playlistName":"مقاطع مُهمَّة (يُسريَّات) أ.د. يسري جبر","category":"متنوع"},{"id":"ItFaqA6nMdA","title":"كيفية علاج النسيان وعدم التركيز؟","publishedAt":"2022-12-24T18:00:13Z","duration":"PT8M4S","thumbnail":"https://i.ytimg.com/vi/ItFaqA6nMdA/mqdefault.jpg","viewCount":"44480","playlistId":"PLEkQk5xrP-tkGXuZ9atE3k_7it12rUPTs","playlistName":"أسئلة المتابعين","category":"متنوع"},{"id":"uFI7mGX3GUU","title":"الرد على التساؤلات الوهابية","publishedAt":"2021-03-02T18:42:00Z","duration":"PT12M34S","thumbnail":"https://i.ytimg.com/vi/uFI7mGX3GUU/mqdefault.jpg","viewCount":"43455","playlistId":"PLEkQk5xrP-tm8ZIu74nTOZN9KJUJu416J","playlistName":"مقاطع مُهمَّة (يُسريَّات) أ.د. يسري جبر","category":"متنوع"},{"id":"D9t5xlKfS_s","title":"متى حصلت نقطة التحول في حياتك؟","publishedAt":"2022-03-22T18:00:34Z","duration":"PT8M12S","thumbnail":"https://i.ytimg.com/vi/D9t5xlKfS_s/mqdefault.jpg","viewCount":"42374","playlistId":"PLEkQk5xrP-tl6tFiMFGUucCTvLgnWyAfz","playlistName":"حياة الأستاذ الدكتور يسري جبر","category":"متنوع"},{"id":"ARAJjneBGuw","title":"كيف اتخلص من التفكير السلبي؟","publishedAt":"2023-04-03T19:00:06Z","duration":"PT10M2S","thumbnail":"https://i.ytimg.com/vi/ARAJjneBGuw/mqdefault.jpg","viewCount":"41672","playlistId":"PLEkQk5xrP-tkGXuZ9atE3k_7it12rUPTs","playlistName":"أسئلة المتابعين","category":"متنوع"},{"id":"x9ewQtN9FiM","title":"كيف تتخلص من العادة السرية بشكل نهائي؟","publishedAt":"2022-05-07T18:00:30Z","duration":"PT8M37S","thumbnail":"https://i.ytimg.com/vi/x9ewQtN9FiM/mqdefault.jpg","viewCount":"41376","playlistId":"PLEkQk5xrP-tkGXuZ9atE3k_7it12rUPTs","playlistName":"أسئلة المتابعين","category":"متنوع"},{"id":"_RRARFp6g00","title":"ما هو التصوف؟","publishedAt":"2021-03-03T19:55:40Z","duration":"PT15M44S","thumbnail":"https://i.ytimg.com/vi/_RRARFp6g00/mqdefault.jpg","viewCount":"40975","playlistId":"PLEkQk5xrP-tm8ZIu74nTOZN9KJUJu416J","playlistName":"مقاطع مُهمَّة (يُسريَّات) أ.د. يسري جبر","category":"متنوع"},{"id":"spXV2XOFOes","title":"شرح كتاب دلائل الخيرات - المجلس الخامس | أ.د. يسري جبر","publishedAt":"2019-03-19T18:08:51Z","duration":"PT47M26S","thumbnail":"https://i.ytimg.com/vi/spXV2XOFOes/mqdefault.jpg","viewCount":"39786","playlistId":"PLEkQk5xrP-tlAzcbIpuqjdFICW-knvTlR","playlistName":"شرح كتاب دلائل الخيرات وشوارق الأنوار","category":"متنوع"},{"id":"Z5f0IpqVoT8","title":"الوظيفة الزروقيّة لسيدي أحمد زَرُّوق رضي الله تعالى عنه  د. يسري جبر","publishedAt":"2018-08-27T19:33:33Z","duration":"PT34M22S","thumbnail":"https://i.ytimg.com/vi/Z5f0IpqVoT8/mqdefault.jpg","viewCount":"38519","playlistId":"PLEkQk5xrP-tk3OeVFoMfKhOhyINnlPeYZ","playlistName":"الحَضْرَةُ الصِّدِّيقِيَّة والأوْرَاد","category":"متنوع"},{"id":"-h4UDUM08TY","title":"كن متمسكا بدلائل الخيرات","publishedAt":"2020-10-26T19:11:27Z","duration":"PT7M4S","thumbnail":"https://i.ytimg.com/vi/-h4UDUM08TY/mqdefault.jpg","viewCount":"37974","playlistId":"PLEkQk5xrP-tm8ZIu74nTOZN9KJUJu416J","playlistName":"مقاطع مُهمَّة (يُسريَّات) أ.د. يسري جبر","category":"متنوع"},{"id":"Rz0NwmbPdSY","title":"شرح كتاب دلائل الخيرات - المجلس السادس أ.د. يسري جبر","publishedAt":"2019-03-24T18:10:16Z","duration":"PT47M37S","thumbnail":"https://i.ytimg.com/vi/Rz0NwmbPdSY/mqdefault.jpg","viewCount":"37877","playlistId":"PLEkQk5xrP-tlAzcbIpuqjdFICW-knvTlR","playlistName":"شرح كتاب دلائل الخيرات وشوارق الأنوار","category":"متنوع"}],"total":4129,"page":4,"pageSize":24,"totalPages":173}