{"items":[{"id":"8BYUdSpPYl8","title":"3- مقدمة كتاب رياض الصالحين  للإمام النوويّ رضي الله عنه أ.د. يسري جبر","publishedAt":"2021-01-13T08:56:27Z","duration":"PT37M48S","thumbnail":"https://i.ytimg.com/vi/8BYUdSpPYl8/mqdefault.jpg","viewCount":"6530","playlistId":"PLEkQk5xrP-tkc9DXvSLguqX5-FYp6ASR4","playlistName":"دليل الفالحين لطرق رياض الصالحين","category":"متنوع"},{"id":"EKqpe6NEO8U","title":"دعاء وإحياء يوم عرفة","publishedAt":"2025-06-05T11:04:36Z","duration":"PT29M45S","thumbnail":"https://i.ytimg.com/vi/EKqpe6NEO8U/mqdefault.jpg","viewCount":"6508","playlistId":"PLEkQk5xrP-tm8ZIu74nTOZN9KJUJu416J","playlistName":"مقاطع مُهمَّة (يُسريَّات) أ.د. يسري جبر","category":"متنوع"},{"id":"hn-SxX42y2Y","title":"قراءة قصيدة التوسلية وكاشفة الكروب","publishedAt":"2020-05-23T20:00:11Z","duration":"PT32M41S","thumbnail":"https://i.ytimg.com/vi/hn-SxX42y2Y/mqdefault.jpg","viewCount":"6493","playlistId":"PLEkQk5xrP-tlB8lmbwjAKR8KRgiykGKhb","playlistName":"حضرات يسرية ومدائح نبوية","category":"متنوع"},{"id":"seEtdrhv_Zo","title":"أسباب القبول","publishedAt":"2020-08-02T19:42:10Z","duration":"PT4M45S","thumbnail":"https://i.ytimg.com/vi/seEtdrhv_Zo/mqdefault.jpg","viewCount":"6469","playlistId":"PLEkQk5xrP-tm8ZIu74nTOZN9KJUJu416J","playlistName":"مقاطع مُهمَّة (يُسريَّات) أ.د. يسري جبر","category":"متنوع"},{"id":"8r00V77EqF0","title":"هو الله","publishedAt":"2020-10-12T18:38:16Z","duration":"PT6M19S","thumbnail":"https://i.ytimg.com/vi/8r00V77EqF0/mqdefault.jpg","viewCount":"6466","playlistId":"PLEkQk5xrP-tm8ZIu74nTOZN9KJUJu416J","playlistName":"مقاطع مُهمَّة (يُسريَّات) أ.د. يسري جبر","category":"متنوع"},{"id":"lcsUn_QC9YA","title":"رؤية ولقاء الله بأهل الجنة | مجالس رمضانية","publishedAt":"2024-04-02T14:00:37Z","duration":"PT52M14S","thumbnail":"https://i.ytimg.com/vi/lcsUn_QC9YA/mqdefault.jpg","viewCount":"6464","playlistId":"PLEkQk5xrP-tnl7vb7KeAoPd5ZlqKKW8KV","playlistName":"شرح كتاب بهجة النفوس أ.د . يسرى جبر","category":"متنوع"},{"id":"Z5S2aNTe1pI","title":"قوة الاستماع","publishedAt":"2021-12-23T19:12:14Z","duration":"PT12M41S","thumbnail":"https://i.ytimg.com/vi/Z5S2aNTe1pI/mqdefault.jpg","viewCount":"6463","playlistId":"PLEkQk5xrP-tm8ZIu74nTOZN9KJUJu416J","playlistName":"مقاطع مُهمَّة (يُسريَّات) أ.د. يسري جبر","category":"متنوع"},{"id":"MqfdAVOA57w","title":"غيِّبْ نظر الخلق إليك بنظر الحق إليك، وغِبْ عن وجود إقبالهم عليك بشهود إقباله عليك.","publishedAt":"2017-04-26T19:47:12Z","duration":"PT13M31S","thumbnail":"https://i.ytimg.com/vi/MqfdAVOA57w/mqdefault.jpg","viewCount":"6460","playlistId":"PLEkQk5xrP-tkI_meE148wc7V7XHlB0WPb","playlistName":"من الحكم العطائية  د. يسري جبر","category":"متنوع"},{"id":"fofLUBTbIoE","title":"ما معنى الجذب وما أنواعه؟","publishedAt":"2025-03-23T19:00:34Z","duration":"PT8M9S","thumbnail":"https://i.ytimg.com/vi/fofLUBTbIoE/mqdefault.jpg","viewCount":"6452","playlistId":"PLEkQk5xrP-tkGXuZ9atE3k_7it12rUPTs","playlistName":"أسئلة المتابعين","category":"متنوع"},{"id":"H3gnsEstlBU","title":"هل يجوز الحلف بالنَّبيّ؟","publishedAt":"2022-06-01T17:30:02Z","duration":"PT8M32S","thumbnail":"https://i.ytimg.com/vi/H3gnsEstlBU/mqdefault.jpg","viewCount":"6450","playlistId":"PLEkQk5xrP-tm8ZIu74nTOZN9KJUJu416J","playlistName":"مقاطع مُهمَّة (يُسريَّات) أ.د. يسري جبر","category":"متنوع"},{"id":"8IfJFpwKgM0","title":"بُردة المديح للإمام البوصيري رضي الله تعالى عنه","publishedAt":"2018-08-23T09:52:05Z","duration":"PT29M42S","thumbnail":"https://i.ytimg.com/vi/8IfJFpwKgM0/mqdefault.jpg","viewCount":"6429","playlistId":"PLEkQk5xrP-tk3OeVFoMfKhOhyINnlPeYZ","playlistName":"الحَضْرَةُ الصِّدِّيقِيَّة والأوْرَاد","category":"متنوع"},{"id":"h1pBJGYNex4","title":"كيف أتخلص من التركيز الزائد في أمور الدنيا؟ | مجالس رمضانية","publishedAt":"2025-03-07T15:01:01Z","duration":"PT33M41S","thumbnail":"https://i.ytimg.com/vi/h1pBJGYNex4/mqdefault.jpg","viewCount":"6415","playlistId":"PLEkQk5xrP-tkeI_WVPfuoTJO46aVkpaz0","playlistName":"شرح كتاب ميزان الاعتدال لحفظ الدين والأحوال","category":"متنوع"},{"id":"pNbHd5qrNws","title":"هل التصوف كان موجودا أيام النبي ﷺ؟","publishedAt":"2023-01-02T18:00:28Z","duration":"PT8M51S","thumbnail":"https://i.ytimg.com/vi/pNbHd5qrNws/mqdefault.jpg","viewCount":"6414","playlistId":"PLEkQk5xrP-tkGXuZ9atE3k_7it12rUPTs","playlistName":"أسئلة المتابعين","category":"متنوع"},{"id":"OpLZ-Sqt_CM","title":"١٤٢ حديث من أشراط الساعة  د. يسري جبر","publishedAt":"2018-05-20T23:09:57Z","duration":"PT14M44S","thumbnail":"https://i.ytimg.com/vi/OpLZ-Sqt_CM/mqdefault.jpg","viewCount":"6411","playlistId":"PLEkQk5xrP-tnl7vb7KeAoPd5ZlqKKW8KV","playlistName":"شرح كتاب بهجة النفوس أ.د . يسرى جبر","category":"متنوع"},{"id":"9LZCHzx9mt8","title":"ختام كتاب منازل السائرين للإمام الهروى المجلس الواحد والستون -  قسم النهايات بَابُ التَوْحِيدِ","publishedAt":"2015-12-28T17:40:51Z","duration":"PT1H9M49S","thumbnail":"https://i.ytimg.com/vi/9LZCHzx9mt8/mqdefault.jpg","viewCount":"6408","playlistId":"PLEkQk5xrP-tnLYi_5_tSRVBwqcs7ISV7Y","playlistName":"شرح كتاب منازل السائرين للإمام الهروي","category":"متنوع"},{"id":"-Gd8BnxSb9s","title":"أنوار ونفحات.  أ.د يسري جبر","publishedAt":"2020-03-09T18:38:07Z","duration":"PT22M29S","thumbnail":"https://i.ytimg.com/vi/-Gd8BnxSb9s/mqdefault.jpg","viewCount":"6380","playlistId":"PLEkQk5xrP-tm8ZIu74nTOZN9KJUJu416J","playlistName":"مقاطع مُهمَّة (يُسريَّات) أ.د. يسري جبر","category":"متنوع"},{"id":"aIxRo9B_jGw","title":"كيف تعطي بلا مقابل؟","publishedAt":"2021-11-19T20:18:13Z","duration":"PT15M41S","thumbnail":"https://i.ytimg.com/vi/aIxRo9B_jGw/mqdefault.jpg","viewCount":"6378","playlistId":"PLEkQk5xrP-tm8ZIu74nTOZN9KJUJu416J","playlistName":"مقاطع مُهمَّة (يُسريَّات) أ.د. يسري جبر","category":"متنوع"},{"id":"noH7DBoNUqk","title":"هل يجوز قراءة الأوراد مع عدم فهمي لبعضها؟","publishedAt":"2024-01-25T19:15:05Z","duration":"PT9M24S","thumbnail":"https://i.ytimg.com/vi/noH7DBoNUqk/mqdefault.jpg","viewCount":"6376","playlistId":"PLEkQk5xrP-tkGXuZ9atE3k_7it12rUPTs","playlistName":"أسئلة المتابعين","category":"متنوع"},{"id":"BCJlzN4z2XU","title":"كيفية حل المشاكل الزوجية؟","publishedAt":"2022-12-19T18:00:04Z","duration":"PT8M11S","thumbnail":"https://i.ytimg.com/vi/BCJlzN4z2XU/mqdefault.jpg","viewCount":"6366","playlistId":"PLEkQk5xrP-tkGXuZ9atE3k_7it12rUPTs","playlistName":"أسئلة المتابعين","category":"متنوع"},{"id":"56MVO-z0Y6A","title":"”تفسير قوله تعالى \"وَاذْكُرْ رَبَّكَ إِذَا نَسِيتَ","publishedAt":"2021-07-21T17:15:00Z","duration":"PT38M39S","thumbnail":"https://i.ytimg.com/vi/56MVO-z0Y6A/mqdefault.jpg","viewCount":"6364","playlistId":"PLEkQk5xrP-tkSGrPLMt1BEmJ54cGWYgtp","playlistName":"كتابُ بِدَعِ التَفَاسِيرِ - أ.د. يسري جبر","category":"متنوع"},{"id":"qlfT-yHT8jw","title":"‎شرح كتاب دلائل الخيرات - المجلس الحادي والعشرون. أ.د. يسري جبر","publishedAt":"2020-02-24T12:47:58Z","duration":"PT15M53S","thumbnail":"https://i.ytimg.com/vi/qlfT-yHT8jw/mqdefault.jpg","viewCount":"6353","playlistId":"PLEkQk5xrP-tlAzcbIpuqjdFICW-knvTlR","playlistName":"شرح كتاب دلائل الخيرات وشوارق الأنوار","category":"متنوع"},{"id":"vxjkKV3QykU","title":"زوجي بيضربني دايما بدون سبب فماذا أفعل؟","publishedAt":"2023-05-16T18:00:23Z","duration":"PT8M14S","thumbnail":"https://i.ytimg.com/vi/vxjkKV3QykU/mqdefault.jpg","viewCount":"6351","playlistId":"PLEkQk5xrP-tkGXuZ9atE3k_7it12rUPTs","playlistName":"أسئلة المتابعين","category":"متنوع"},{"id":"ZAKGiUr0CaY","title":"قيادة النَّفْس بحذر","publishedAt":"2020-07-25T20:12:11Z","duration":"PT5M20S","thumbnail":"https://i.ytimg.com/vi/ZAKGiUr0CaY/mqdefault.jpg","viewCount":"6347","playlistId":"PLEkQk5xrP-tm8ZIu74nTOZN9KJUJu416J","playlistName":"مقاطع مُهمَّة (يُسريَّات) أ.د. يسري جبر","category":"متنوع"},{"id":"UoIIcgnhNVY","title":"!احذر المَلل","publishedAt":"2020-07-27T19:46:23Z","duration":"PT5M21S","thumbnail":"https://i.ytimg.com/vi/UoIIcgnhNVY/mqdefault.jpg","viewCount":"6340","playlistId":"PLEkQk5xrP-tm8ZIu74nTOZN9KJUJu416J","playlistName":"مقاطع مُهمَّة (يُسريَّات) أ.د. يسري جبر","category":"متنوع"}],"total":4129,"page":30,"pageSize":24,"totalPages":173}