{"items":[{"id":"Wg4qH0L-OeE","title":"81- باب السُّلْفَةِ فِى الْعُرُوضِ ك الموطأ د يسري جبر الأزهري","publishedAt":"2018-10-25T14:21:51Z","duration":"PT49M40S","thumbnail":"https://i.ytimg.com/vi/Wg4qH0L-OeE/mqdefault.jpg","viewCount":"221","playlistId":"PLEkQk5xrP-tnC6BRuqMjyO-484iqXeg0o","playlistName":"شرح كتاب الموطأ للإمام مالك","category":"متنوع"},{"id":"nltVpcSXYMk","title":"84- باب مَا جَاءَ فِى الْقِرَاضِ شرح الموطأ د يسري جبر","publishedAt":"2018-10-09T14:15:56Z","duration":"PT48M33S","thumbnail":"https://i.ytimg.com/vi/nltVpcSXYMk/mqdefault.jpg","viewCount":"600","playlistId":"PLEkQk5xrP-tnC6BRuqMjyO-484iqXeg0o","playlistName":"شرح كتاب الموطأ للإمام مالك","category":"متنوع"},{"id":"Aiz-CnAREB8","title":"31- مَا تَجِبُ فِيهِ الزَّكَاةُ كتاب الزكاة ك الموطأ د يسري جبر الأزهري","publishedAt":"2016-10-26T10:57:12Z","duration":"PT1H12M20S","thumbnail":"https://i.ytimg.com/vi/Aiz-CnAREB8/mqdefault.jpg","viewCount":"513","playlistId":"PLEkQk5xrP-tnC6BRuqMjyO-484iqXeg0o","playlistName":"شرح كتاب الموطأ للإمام مالك","category":"متنوع"},{"id":"HnjAwh2VDNo","title":"30- التَّكْبِيرِ عَلَى الْجَنَائِزِ كتاب الْجَنَائِزِ ك الموطأ د يسري جبر الأزهري","publishedAt":"2016-10-21T23:44:21Z","duration":"PT1H17M32S","thumbnail":"https://i.ytimg.com/vi/HnjAwh2VDNo/mqdefault.jpg","viewCount":"405","playlistId":"PLEkQk5xrP-tnC6BRuqMjyO-484iqXeg0o","playlistName":"شرح كتاب الموطأ للإمام مالك","category":"متنوع"},{"id":"yG6LBmJ8xWo","title":"29- النَّهْىِ عَنِ الصَّلاَةِ بَعْدَ الصُّبْحِ وَبَعْدَ الْعَصْرِ كتاب القرآن ك الموطأ د يسري جبر","publishedAt":"2016-10-07T10:58:15Z","duration":"PT50M58S","thumbnail":"https://i.ytimg.com/vi/yG6LBmJ8xWo/mqdefault.jpg","viewCount":"409","playlistId":"PLEkQk5xrP-tnC6BRuqMjyO-484iqXeg0o","playlistName":"شرح كتاب الموطأ للإمام مالك","category":"متنوع"},{"id":"vI-nGacWqwk","title":"28- ما جاء في الدعاء كتاب القرآن ك الموطأ د يسري جبر الأزهري بمضيفة الشيخ سعيد الدح","publishedAt":"2016-10-02T14:50:27Z","duration":"PT1H16M53S","thumbnail":"https://i.ytimg.com/vi/vI-nGacWqwk/mqdefault.jpg","viewCount":"509","playlistId":"PLEkQk5xrP-tnC6BRuqMjyO-484iqXeg0o","playlistName":"شرح كتاب الموطأ للإمام مالك","category":"متنوع"},{"id":"7wAtbuewv3w","title":"27- كتاب القرآن ك الموطأ د يسري جبر الأزهري  بمضيفة الشيخ سعيد الدح","publishedAt":"2016-09-26T21:48:18Z","duration":"PT56M13S","thumbnail":"https://i.ytimg.com/vi/7wAtbuewv3w/mqdefault.jpg","viewCount":"485","playlistId":"PLEkQk5xrP-tnC6BRuqMjyO-484iqXeg0o","playlistName":"شرح كتاب الموطأ للإمام مالك","category":"متنوع"},{"id":"YqC48I0l-4s","title":"26- كتاب الاستسقاء ك الموطأ د يسري جبر الأزهري بمضيفة الشيخ سعيد الدح","publishedAt":"2016-09-23T12:36:24Z","duration":"PT48M2S","thumbnail":"https://i.ytimg.com/vi/YqC48I0l-4s/mqdefault.jpg","viewCount":"444","playlistId":"PLEkQk5xrP-tnC6BRuqMjyO-484iqXeg0o","playlistName":"شرح كتاب الموطأ للإمام مالك","category":"متنوع"},{"id":"PMsJ7ehzTKc","title":"25- كتاب صلاة الخوف والكسوف ك الموطأ د يسري جبر الأزهري بمضيفة الشيخ سعيد الدح","publishedAt":"2016-09-12T14:57:43Z","duration":"PT53M47S","thumbnail":"https://i.ytimg.com/vi/PMsJ7ehzTKc/mqdefault.jpg","viewCount":"459","playlistId":"PLEkQk5xrP-tnC6BRuqMjyO-484iqXeg0o","playlistName":"شرح كتاب الموطأ للإمام مالك","category":"متنوع"},{"id":"BExiEJM-Xkg","title":"24- كتاب العيدين ك الموطأ د يسري جبر الأزهري  بمضيفة الشيخ سعيد الدح","publishedAt":"2016-09-04T14:58:57Z","duration":"PT47M28S","thumbnail":"https://i.ytimg.com/vi/BExiEJM-Xkg/mqdefault.jpg","viewCount":"515","playlistId":"PLEkQk5xrP-tnC6BRuqMjyO-484iqXeg0o","playlistName":"شرح كتاب الموطأ للإمام مالك","category":"متنوع"},{"id":"eH8uekDI6MU","title":"80- باب الْحُكْرَةِ وَالتَّرَبُّصِ ك الموطأ د يسري جبر الأزهري","publishedAt":"2018-09-29T13:29:04Z","duration":"PT47M23S","thumbnail":"https://i.ytimg.com/vi/eH8uekDI6MU/mqdefault.jpg","viewCount":"245","playlistId":"PLEkQk5xrP-tnC6BRuqMjyO-484iqXeg0o","playlistName":"شرح كتاب الموطأ للإمام مالك","category":"متنوع"}],"total":83,"page":4,"pageSize":24,"totalPages":4}