{"items":[{"id":"FtQHmIBNEyU","title":"الطَّاعَةُ بِالتَّرْكِ أوْلَى عِندَ اللَّه    أ.د. يسري جبر","publishedAt":"2019-05-12T15:50:18Z","duration":"PT46M19S","thumbnail":"https://i.ytimg.com/vi/FtQHmIBNEyU/mqdefault.jpg","viewCount":"1134","playlistId":"PLEkQk5xrP-tlArtGpeLWaqNM7h7IDeAVC","playlistName":"خطب الجمعة أ.د. يسري جبر","category":"خطب"},{"id":"XkhhPbKkmgM","title":"رَمَضَانُ شَهْرُ الجِهَادَيْنِ أ.د. يسري جبر","publishedAt":"2019-05-18T14:11:17Z","duration":"PT36M1S","thumbnail":"https://i.ytimg.com/vi/XkhhPbKkmgM/mqdefault.jpg","viewCount":"1638","playlistId":"PLEkQk5xrP-tlArtGpeLWaqNM7h7IDeAVC","playlistName":"خطب الجمعة أ.د. يسري جبر","category":"خطب"},{"id":"E3_-o1whcK4","title":"إِنَّا أَنزَلْنَاهُ فِي لَيْلَةِ الْقَدْرِ\"   أ.د. يسري جبر\"","publishedAt":"2019-05-29T17:58:09Z","duration":"PT30M14S","thumbnail":"https://i.ytimg.com/vi/E3_-o1whcK4/mqdefault.jpg","viewCount":"1815","playlistId":"PLEkQk5xrP-tlArtGpeLWaqNM7h7IDeAVC","playlistName":"خطب الجمعة أ.د. يسري جبر","category":"خطب"},{"id":"ut_zP-FfGgw","title":"كَيفَ نُوَدِّعُ شَهْرَ رَمَضَانَ   أ.د. يسري جبر","publishedAt":"2019-06-01T23:33:41Z","duration":"PT39M30S","thumbnail":"https://i.ytimg.com/vi/ut_zP-FfGgw/mqdefault.jpg","viewCount":"1539","playlistId":"PLEkQk5xrP-tlArtGpeLWaqNM7h7IDeAVC","playlistName":"خطب الجمعة أ.د. يسري جبر","category":"خطب"},{"id":"HMhr0xJNpFY","title":"خطبة عيد الفطرالمبارك   أ.د. يسري جبر","publishedAt":"2019-06-07T18:26:35Z","duration":"PT29M31S","thumbnail":"https://i.ytimg.com/vi/HMhr0xJNpFY/mqdefault.jpg","viewCount":"1070","playlistId":"PLEkQk5xrP-tnTGoEr4TI_tnp8L7Ujv9dx","playlistName":"خطب العيد","category":"خطب"},{"id":"z1Z158tDO7E","title":"فَإِذَا فَرَغْتَ فَانصَبْ.  أ.د. يسري جبر","publishedAt":"2019-06-08T18:50:37Z","duration":"PT29M6S","thumbnail":"https://i.ytimg.com/vi/z1Z158tDO7E/mqdefault.jpg","viewCount":"1961","playlistId":"PLEkQk5xrP-tlArtGpeLWaqNM7h7IDeAVC","playlistName":"خطب الجمعة أ.د. يسري جبر","category":"خطب"},{"id":"zYezdR3FqRk","title":"شُبُهَات مُعَاصِرَة (1)  أ.د. يسري جبر","publishedAt":"2019-06-22T16:10:13Z","duration":"PT45M55S","thumbnail":"https://i.ytimg.com/vi/zYezdR3FqRk/mqdefault.jpg","viewCount":"3292","playlistId":"PLEkQk5xrP-tlArtGpeLWaqNM7h7IDeAVC","playlistName":"خطب الجمعة أ.د. يسري جبر","category":"خطب"},{"id":"fqSCVtP8wwE","title":"شُبُهَات مُعَاصِرَة (2) أ.د. يسري جبر","publishedAt":"2019-06-29T20:44:11Z","duration":"PT52M25S","thumbnail":"https://i.ytimg.com/vi/fqSCVtP8wwE/mqdefault.jpg","viewCount":"2143","playlistId":"PLEkQk5xrP-tlArtGpeLWaqNM7h7IDeAVC","playlistName":"خطب الجمعة أ.د. يسري جبر","category":"خطب"},{"id":"5kAhROKojwc","title":"شُبُهَات مُعَاصِرَة (3) أ.د. يسري جبر","publishedAt":"2019-07-07T18:42:46Z","duration":"PT44M26S","thumbnail":"https://i.ytimg.com/vi/5kAhROKojwc/mqdefault.jpg","viewCount":"1274","playlistId":"PLEkQk5xrP-tlArtGpeLWaqNM7h7IDeAVC","playlistName":"خطب الجمعة أ.د. يسري جبر","category":"خطب"},{"id":"kfK9TukzmKo","title":"شُبُهَات مُعَاصِرَة (4) أ.د. يسري جبر","publishedAt":"2019-07-13T20:38:18Z","duration":"PT44M25S","thumbnail":"https://i.ytimg.com/vi/kfK9TukzmKo/mqdefault.jpg","viewCount":"1301","playlistId":"PLEkQk5xrP-tlArtGpeLWaqNM7h7IDeAVC","playlistName":"خطب الجمعة أ.د. يسري جبر","category":"خطب"},{"id":"j4Z-Sr-cRPo","title":"اعْبُدْ رَبَّكَ كَمَا يُرِيدُ لَا كَمَا تُرِيدُ.  أ.د. يسري جبر","publishedAt":"2019-07-21T17:37:59Z","duration":"PT44M40S","thumbnail":"https://i.ytimg.com/vi/j4Z-Sr-cRPo/mqdefault.jpg","viewCount":"5427","playlistId":"PLEkQk5xrP-tlArtGpeLWaqNM7h7IDeAVC","playlistName":"خطب الجمعة أ.د. يسري جبر","category":"خطب"},{"id":"BDJGsTO4Yvg","title":"كَيفيَّة الحَجِّ وأفضلها  أ.د. يسري جبر","publishedAt":"2019-07-28T15:28:12Z","duration":"PT40M25S","thumbnail":"https://i.ytimg.com/vi/BDJGsTO4Yvg/mqdefault.jpg","viewCount":"1464","playlistId":"PLEkQk5xrP-tlArtGpeLWaqNM7h7IDeAVC","playlistName":"خطب الجمعة أ.د. يسري جبر","category":"خطب"},{"id":"CTent5MJL00","title":"عَقِيدَةُ السَّلَف أ.د. يسري جبر","publishedAt":"2019-08-26T16:23:36Z","duration":"PT43M32S","thumbnail":"https://i.ytimg.com/vi/CTent5MJL00/mqdefault.jpg","viewCount":"3242","playlistId":"PLEkQk5xrP-tlArtGpeLWaqNM7h7IDeAVC","playlistName":"خطب الجمعة أ.د. يسري جبر","category":"خطب"},{"id":"qBvPf2d0Ffg","title":"الْكِبْرُ وَالْغُلُولُ وَالدَّيْن  أ.د. يسري جبر","publishedAt":"2019-09-09T18:45:20Z","duration":"PT44M14S","thumbnail":"https://i.ytimg.com/vi/qBvPf2d0Ffg/mqdefault.jpg","viewCount":"2023","playlistId":"PLEkQk5xrP-tlArtGpeLWaqNM7h7IDeAVC","playlistName":"خطب الجمعة أ.د. يسري جبر","category":"خطب"},{"id":"OrP6wWCjB6Y","title":"إِلَّا تَنصُرُوهُ فَقَدْ نَصَرَهُ اللَّهُ أ.د. يسري جبر","publishedAt":"2019-09-17T15:50:05Z","duration":"PT32M38S","thumbnail":"https://i.ytimg.com/vi/OrP6wWCjB6Y/mqdefault.jpg","viewCount":"1340","playlistId":"PLEkQk5xrP-tlArtGpeLWaqNM7h7IDeAVC","playlistName":"خطب الجمعة أ.د. يسري جبر","category":"خطب"},{"id":"WDN3kqi5XeU","title":"كن مهاجرا إلى الله في كل حال أ.د. يسري جبر","publishedAt":"2019-09-22T22:01:21Z","duration":"PT39M16S","thumbnail":"https://i.ytimg.com/vi/WDN3kqi5XeU/mqdefault.jpg","viewCount":"22678","playlistId":"PLEkQk5xrP-tlArtGpeLWaqNM7h7IDeAVC","playlistName":"خطب الجمعة أ.د. يسري جبر","category":"خطب"},{"id":"B-2C7h99QnI","title":"بَلِ الْإِنسَانُ عَلَىٰ نَفْسِهِ بَصِيرَةٌ     أ.د.يسري جبر","publishedAt":"2019-10-18T18:47:57Z","duration":"PT43M17S","thumbnail":"https://i.ytimg.com/vi/B-2C7h99QnI/mqdefault.jpg","viewCount":"3729","playlistId":"PLEkQk5xrP-tlArtGpeLWaqNM7h7IDeAVC","playlistName":"خطب الجمعة أ.د. يسري جبر","category":"خطب"},{"id":"h1IeU_WTHWQ","title":"كُنْ صَالِحًا مُصْلِحًا حيثُ حَلَلْتَ","publishedAt":"2019-10-19T21:02:58Z","duration":"PT41M57S","thumbnail":"https://i.ytimg.com/vi/h1IeU_WTHWQ/mqdefault.jpg","viewCount":"5649","playlistId":"PLEkQk5xrP-tlArtGpeLWaqNM7h7IDeAVC","playlistName":"خطب الجمعة أ.د. يسري جبر","category":"خطب"},{"id":"ppnNFX3TD0A","title":"خَيْرُ مَا تَطْلُبُهُ مِنْهُ مَا هُوَ طَالِبُهُ مِنْكَ.  أ.د.يسري جبر","publishedAt":"2019-10-20T18:18:15Z","duration":"PT32M49S","thumbnail":"https://i.ytimg.com/vi/ppnNFX3TD0A/mqdefault.jpg","viewCount":"2944","playlistId":"PLEkQk5xrP-tlArtGpeLWaqNM7h7IDeAVC","playlistName":"خطب الجمعة أ.د. يسري جبر","category":"خطب"},{"id":"jHRvh6oxUjc","title":"لطائف وإشارات في الطريق إلى الله  أ.د.يسري جبر","publishedAt":"2019-10-26T18:08:43Z","duration":"PT44M22S","thumbnail":"https://i.ytimg.com/vi/jHRvh6oxUjc/mqdefault.jpg","viewCount":"75843","playlistId":"PLEkQk5xrP-tlArtGpeLWaqNM7h7IDeAVC","playlistName":"خطب الجمعة أ.د. يسري جبر","category":"خطب"},{"id":"yfctgtF6kZk","title":"الأدلة اليُسرية على مشروعية الاحتفال بمولد خير البرية ﷺ  أ.د. يسري جبر","publishedAt":"2019-11-04T17:44:23Z","duration":"PT46M42S","thumbnail":"https://i.ytimg.com/vi/yfctgtF6kZk/mqdefault.jpg","viewCount":"13664","playlistId":"PLEkQk5xrP-tlArtGpeLWaqNM7h7IDeAVC","playlistName":"خطب الجمعة أ.د. يسري جبر","category":"خطب"},{"id":"qEbf535WF9Y","title":"تعليقات حول مناسك الحج","publishedAt":"2019-11-05T14:10:50Z","duration":"PT45M28S","thumbnail":"https://i.ytimg.com/vi/qEbf535WF9Y/mqdefault.jpg","viewCount":"433","playlistId":"PLEkQk5xrP-tlArtGpeLWaqNM7h7IDeAVC","playlistName":"خطب الجمعة أ.د. يسري جبر","category":"خطب"},{"id":"QDJr8J7I8x4","title":"دقائق في العقيدة.  أ.د. يسري جبر","publishedAt":"2019-11-16T21:54:49Z","duration":"PT51M25S","thumbnail":"https://i.ytimg.com/vi/QDJr8J7I8x4/mqdefault.jpg","viewCount":"17285","playlistId":"PLEkQk5xrP-tlArtGpeLWaqNM7h7IDeAVC","playlistName":"خطب الجمعة أ.د. يسري جبر","category":"خطب"},{"id":"uu8FJdoQutY","title":"نَجَاةُ النَّسَبِ الشَّرِيفِ مِنَ النَّارِ. أ.د. يسري جبر","publishedAt":"2019-12-01T12:32:40Z","duration":"PT49M51S","thumbnail":"https://i.ytimg.com/vi/uu8FJdoQutY/mqdefault.jpg","viewCount":"5911","playlistId":"PLEkQk5xrP-tlArtGpeLWaqNM7h7IDeAVC","playlistName":"خطب الجمعة أ.د. يسري جبر","category":"خطب"}],"total":676,"page":9,"pageSize":24,"totalPages":29}