{"items":[{"id":"wyyyj1S9iUc","title":"سورة التوبة آية 34","publishedAt":"2017-04-15T07:59:11Z","duration":"PT12M30S","thumbnail":"https://i.ytimg.com/vi/wyyyj1S9iUc/mqdefault.jpg","viewCount":"299","playlistId":"PLEkQk5xrP-tnmTYsyW6xNdyfhPq0Bhrhj","playlistName":"مقرأة الفجر - القُرْآنُ الكَرِيمُ - خَتْمَةُ التَّدَبُّرِ  أ.د. يسري جبر","category":"متنوع"},{"id":"5YJNASeHTSM","title":"سورة التوبة  آية 30","publishedAt":"2017-04-13T06:23:18Z","duration":"PT11M48S","thumbnail":"https://i.ytimg.com/vi/5YJNASeHTSM/mqdefault.jpg","viewCount":"385","playlistId":"PLEkQk5xrP-tnmTYsyW6xNdyfhPq0Bhrhj","playlistName":"مقرأة الفجر - القُرْآنُ الكَرِيمُ - خَتْمَةُ التَّدَبُّرِ  أ.د. يسري جبر","category":"متنوع"},{"id":"KDZ5Uyo5kN4","title":"سورة التوبة آية 28","publishedAt":"2017-04-11T15:30:09Z","duration":"PT20M54S","thumbnail":"https://i.ytimg.com/vi/KDZ5Uyo5kN4/mqdefault.jpg","viewCount":"460","playlistId":"PLEkQk5xrP-tnmTYsyW6xNdyfhPq0Bhrhj","playlistName":"مقرأة الفجر - القُرْآنُ الكَرِيمُ - خَتْمَةُ التَّدَبُّرِ  أ.د. يسري جبر","category":"متنوع"},{"id":"PRgzw7Jrt30","title":"سورة التوبة آية 24","publishedAt":"2017-04-09T17:13:52Z","duration":"PT14M21S","thumbnail":"https://i.ytimg.com/vi/PRgzw7Jrt30/mqdefault.jpg","viewCount":"440","playlistId":"PLEkQk5xrP-tnmTYsyW6xNdyfhPq0Bhrhj","playlistName":"مقرأة الفجر - القُرْآنُ الكَرِيمُ - خَتْمَةُ التَّدَبُّرِ  أ.د. يسري جبر","category":"متنوع"},{"id":"loUzDnqV9zw","title":"سورة التوبة آية 20","publishedAt":"2017-04-08T21:28:31Z","duration":"PT22M19S","thumbnail":"https://i.ytimg.com/vi/loUzDnqV9zw/mqdefault.jpg","viewCount":"497","playlistId":"PLEkQk5xrP-tnmTYsyW6xNdyfhPq0Bhrhj","playlistName":"مقرأة الفجر - القُرْآنُ الكَرِيمُ - خَتْمَةُ التَّدَبُّرِ  أ.د. يسري جبر","category":"متنوع"},{"id":"h7Cj6VwuOd0","title":"سورة التوبة آية 16","publishedAt":"2017-03-31T04:42:00Z","duration":"PT18M2S","thumbnail":"https://i.ytimg.com/vi/h7Cj6VwuOd0/mqdefault.jpg","viewCount":"470","playlistId":"PLEkQk5xrP-tnmTYsyW6xNdyfhPq0Bhrhj","playlistName":"مقرأة الفجر - القُرْآنُ الكَرِيمُ - خَتْمَةُ التَّدَبُّرِ  أ.د. يسري جبر","category":"متنوع"},{"id":"8K1hZUKDDFI","title":"سورة التوبة آية 7","publishedAt":"2017-03-30T07:06:21Z","duration":"PT14M55S","thumbnail":"https://i.ytimg.com/vi/8K1hZUKDDFI/mqdefault.jpg","viewCount":"694","playlistId":"PLEkQk5xrP-tnmTYsyW6xNdyfhPq0Bhrhj","playlistName":"مقرأة الفجر - القُرْآنُ الكَرِيمُ - خَتْمَةُ التَّدَبُّرِ  أ.د. يسري جبر","category":"متنوع"},{"id":"Yu5PvKsAHw4","title":"سورة التوبة من أولها","publishedAt":"2017-03-29T08:45:05Z","duration":"PT22M48S","thumbnail":"https://i.ytimg.com/vi/Yu5PvKsAHw4/mqdefault.jpg","viewCount":"1030","playlistId":"PLEkQk5xrP-tnmTYsyW6xNdyfhPq0Bhrhj","playlistName":"مقرأة الفجر - القُرْآنُ الكَرِيمُ - خَتْمَةُ التَّدَبُّرِ  أ.د. يسري جبر","category":"متنوع"},{"id":"2ofBcqT8qnQ","title":"سورة الأنفال آية 70","publishedAt":"2017-03-28T04:41:51Z","duration":"PT12M15S","thumbnail":"https://i.ytimg.com/vi/2ofBcqT8qnQ/mqdefault.jpg","viewCount":"339","playlistId":"PLEkQk5xrP-tnmTYsyW6xNdyfhPq0Bhrhj","playlistName":"مقرأة الفجر - القُرْآنُ الكَرِيمُ - خَتْمَةُ التَّدَبُّرِ  أ.د. يسري جبر","category":"متنوع"},{"id":"lzDDc5YsYls","title":"سورة الأنفال آية 64","publishedAt":"2017-03-27T06:10:24Z","duration":"PT23M18S","thumbnail":"https://i.ytimg.com/vi/lzDDc5YsYls/mqdefault.jpg","viewCount":"495","playlistId":"PLEkQk5xrP-tnmTYsyW6xNdyfhPq0Bhrhj","playlistName":"مقرأة الفجر - القُرْآنُ الكَرِيمُ - خَتْمَةُ التَّدَبُّرِ  أ.د. يسري جبر","category":"متنوع"},{"id":"PUB_gC8J17s","title":"مقرأة سورة الأنفال من آية ٥٩","publishedAt":"2017-03-26T07:32:58Z","duration":"PT19M48S","thumbnail":"https://i.ytimg.com/vi/PUB_gC8J17s/mqdefault.jpg","viewCount":"392","playlistId":"PLEkQk5xrP-tnmTYsyW6xNdyfhPq0Bhrhj","playlistName":"مقرأة الفجر - القُرْآنُ الكَرِيمُ - خَتْمَةُ التَّدَبُّرِ  أ.د. يسري جبر","category":"متنوع"},{"id":"kSCYTZ-Alv0","title":"سورة الأنفال آية 50","publishedAt":"2017-03-25T07:07:14Z","duration":"PT18M23S","thumbnail":"https://i.ytimg.com/vi/kSCYTZ-Alv0/mqdefault.jpg","viewCount":"413","playlistId":"PLEkQk5xrP-tnmTYsyW6xNdyfhPq0Bhrhj","playlistName":"مقرأة الفجر - القُرْآنُ الكَرِيمُ - خَتْمَةُ التَّدَبُّرِ  أ.د. يسري جبر","category":"متنوع"},{"id":"vbytXmL-EMw","title":"سورة الأنفال آية 45","publishedAt":"2017-03-24T07:42:46Z","duration":"PT15M6S","thumbnail":"https://i.ytimg.com/vi/vbytXmL-EMw/mqdefault.jpg","viewCount":"376","playlistId":"PLEkQk5xrP-tnmTYsyW6xNdyfhPq0Bhrhj","playlistName":"مقرأة الفجر - القُرْآنُ الكَرِيمُ - خَتْمَةُ التَّدَبُّرِ  أ.د. يسري جبر","category":"متنوع"},{"id":"ItHP6HFV-r8","title":"مقرأة سورة الأنفال من آية ٤١","publishedAt":"2017-03-23T06:34:42Z","duration":"PT26M36S","thumbnail":"https://i.ytimg.com/vi/ItHP6HFV-r8/mqdefault.jpg","viewCount":"344","playlistId":"PLEkQk5xrP-tnmTYsyW6xNdyfhPq0Bhrhj","playlistName":"مقرأة الفجر - القُرْآنُ الكَرِيمُ - خَتْمَةُ التَّدَبُّرِ  أ.د. يسري جبر","category":"متنوع"},{"id":"tXLNjDM_z-I","title":"سورة الأنفال آية 36","publishedAt":"2017-03-22T08:09:02Z","duration":"PT14M43S","thumbnail":"https://i.ytimg.com/vi/tXLNjDM_z-I/mqdefault.jpg","viewCount":"399","playlistId":"PLEkQk5xrP-tnmTYsyW6xNdyfhPq0Bhrhj","playlistName":"مقرأة الفجر - القُرْآنُ الكَرِيمُ - خَتْمَةُ التَّدَبُّرِ  أ.د. يسري جبر","category":"متنوع"},{"id":"wq4iJq7vmDo","title":"سورة الأنفال آية 31","publishedAt":"2017-03-21T07:32:14Z","duration":"PT19M12S","thumbnail":"https://i.ytimg.com/vi/wq4iJq7vmDo/mqdefault.jpg","viewCount":"437","playlistId":"PLEkQk5xrP-tnmTYsyW6xNdyfhPq0Bhrhj","playlistName":"مقرأة الفجر - القُرْآنُ الكَرِيمُ - خَتْمَةُ التَّدَبُّرِ  أ.د. يسري جبر","category":"متنوع"},{"id":"ob2YvEW_VFc","title":"سورة الأنفال آية 27","publishedAt":"2017-03-20T11:11:32Z","duration":"PT13M34S","thumbnail":"https://i.ytimg.com/vi/ob2YvEW_VFc/mqdefault.jpg","viewCount":"394","playlistId":"PLEkQk5xrP-tnmTYsyW6xNdyfhPq0Bhrhj","playlistName":"مقرأة الفجر - القُرْآنُ الكَرِيمُ - خَتْمَةُ التَّدَبُّرِ  أ.د. يسري جبر","category":"متنوع"},{"id":"TRyw7Ue1hM4","title":"سورة الأنفال آية 24","publishedAt":"2017-03-19T07:06:40Z","duration":"PT13M23S","thumbnail":"https://i.ytimg.com/vi/TRyw7Ue1hM4/mqdefault.jpg","viewCount":"405","playlistId":"PLEkQk5xrP-tnmTYsyW6xNdyfhPq0Bhrhj","playlistName":"مقرأة الفجر - القُرْآنُ الكَرِيمُ - خَتْمَةُ التَّدَبُّرِ  أ.د. يسري جبر","category":"متنوع"},{"id":"MKO4R6J9Gb0","title":"سورة الأنفال آية 15","publishedAt":"2017-03-18T09:17:24Z","duration":"PT22M36S","thumbnail":"https://i.ytimg.com/vi/MKO4R6J9Gb0/mqdefault.jpg","viewCount":"436","playlistId":"PLEkQk5xrP-tnmTYsyW6xNdyfhPq0Bhrhj","playlistName":"مقرأة الفجر - القُرْآنُ الكَرِيمُ - خَتْمَةُ التَّدَبُّرِ  أ.د. يسري جبر","category":"متنوع"},{"id":"c0MVuY1U6II","title":"سورة الأنفال آية 11","publishedAt":"2017-03-17T15:55:12Z","duration":"PT14M16S","thumbnail":"https://i.ytimg.com/vi/c0MVuY1U6II/mqdefault.jpg","viewCount":"515","playlistId":"PLEkQk5xrP-tnmTYsyW6xNdyfhPq0Bhrhj","playlistName":"مقرأة الفجر - القُرْآنُ الكَرِيمُ - خَتْمَةُ التَّدَبُّرِ  أ.د. يسري جبر","category":"متنوع"},{"id":"RZVZ5uwvrpg","title":"سورة الأنفال آية 5","publishedAt":"2017-03-17T03:36:28Z","duration":"PT25M1S","thumbnail":"https://i.ytimg.com/vi/RZVZ5uwvrpg/mqdefault.jpg","viewCount":"473","playlistId":"PLEkQk5xrP-tnmTYsyW6xNdyfhPq0Bhrhj","playlistName":"مقرأة الفجر - القُرْآنُ الكَرِيمُ - خَتْمَةُ التَّدَبُّرِ  أ.د. يسري جبر","category":"متنوع"},{"id":"cblB5BSWDxU","title":"سورة الأنفال من أولها","publishedAt":"2017-03-15T08:36:33Z","duration":"PT20M21S","thumbnail":"https://i.ytimg.com/vi/cblB5BSWDxU/mqdefault.jpg","viewCount":"626","playlistId":"PLEkQk5xrP-tnmTYsyW6xNdyfhPq0Bhrhj","playlistName":"مقرأة الفجر - القُرْآنُ الكَرِيمُ - خَتْمَةُ التَّدَبُّرِ  أ.د. يسري جبر","category":"متنوع"},{"id":"ug-F0R7lCDE","title":"سورة الأعراف آية 199","publishedAt":"2017-03-14T11:39:05Z","duration":"PT27M3S","thumbnail":"https://i.ytimg.com/vi/ug-F0R7lCDE/mqdefault.jpg","viewCount":"483","playlistId":"PLEkQk5xrP-tnmTYsyW6xNdyfhPq0Bhrhj","playlistName":"مقرأة الفجر - القُرْآنُ الكَرِيمُ - خَتْمَةُ التَّدَبُّرِ  أ.د. يسري جبر","category":"متنوع"},{"id":"_2ZMA4ecZAs","title":"سورة الأعراف آية 194","publishedAt":"2017-03-13T07:17:20Z","duration":"PT16M48S","thumbnail":"https://i.ytimg.com/vi/_2ZMA4ecZAs/mqdefault.jpg","viewCount":"351","playlistId":"PLEkQk5xrP-tnmTYsyW6xNdyfhPq0Bhrhj","playlistName":"مقرأة الفجر - القُرْآنُ الكَرِيمُ - خَتْمَةُ التَّدَبُّرِ  أ.د. يسري جبر","category":"متنوع"}],"total":942,"page":30,"pageSize":24,"totalPages":40}