{"items":[{"id":"s-TEi3-e4Ls","title":"سورة المائدة آية 17","publishedAt":"2016-10-31T03:42:51Z","duration":"PT11M58S","thumbnail":"https://i.ytimg.com/vi/s-TEi3-e4Ls/mqdefault.jpg","viewCount":"393","playlistId":"PLEkQk5xrP-tnmTYsyW6xNdyfhPq0Bhrhj","playlistName":"مقرأة الفجر - القُرْآنُ الكَرِيمُ - خَتْمَةُ التَّدَبُّرِ  أ.د. يسري جبر","category":"متنوع"},{"id":"cN7ntqC4OOM","title":"سورة المائدة آية 14","publishedAt":"2016-10-30T04:05:04Z","duration":"PT12M24S","thumbnail":"https://i.ytimg.com/vi/cN7ntqC4OOM/mqdefault.jpg","viewCount":"418","playlistId":"PLEkQk5xrP-tnmTYsyW6xNdyfhPq0Bhrhj","playlistName":"مقرأة الفجر - القُرْآنُ الكَرِيمُ - خَتْمَةُ التَّدَبُّرِ  أ.د. يسري جبر","category":"متنوع"},{"id":"sJGsfUbVbdE","title":"سورة المائدة آية 12","publishedAt":"2016-10-29T03:42:56Z","duration":"PT10M52S","thumbnail":"https://i.ytimg.com/vi/sJGsfUbVbdE/mqdefault.jpg","viewCount":"385","playlistId":"PLEkQk5xrP-tnmTYsyW6xNdyfhPq0Bhrhj","playlistName":"مقرأة الفجر - القُرْآنُ الكَرِيمُ - خَتْمَةُ التَّدَبُّرِ  أ.د. يسري جبر","category":"متنوع"},{"id":"7yFAVlNDbtU","title":"قراءة وتفسير سورة المائدة من آية ٨","publishedAt":"2016-10-28T12:36:31Z","duration":"PT23M39S","thumbnail":"https://i.ytimg.com/vi/7yFAVlNDbtU/mqdefault.jpg","viewCount":"496","playlistId":"PLEkQk5xrP-tnmTYsyW6xNdyfhPq0Bhrhj","playlistName":"مقرأة الفجر - القُرْآنُ الكَرِيمُ - خَتْمَةُ التَّدَبُّرِ  أ.د. يسري جبر","category":"متنوع"},{"id":"qax-pwEppCk","title":"قراءة وتفسير سورة المائدة آية 6","publishedAt":"2016-10-27T03:55:02Z","duration":"PT33M58S","thumbnail":"https://i.ytimg.com/vi/qax-pwEppCk/mqdefault.jpg","viewCount":"631","playlistId":"PLEkQk5xrP-tnmTYsyW6xNdyfhPq0Bhrhj","playlistName":"مقرأة الفجر - القُرْآنُ الكَرِيمُ - خَتْمَةُ التَّدَبُّرِ  أ.د. يسري جبر","category":"متنوع"},{"id":"RDBE2Z47i3U","title":"سورة المائدة ايه 5","publishedAt":"2016-10-06T03:28:25Z","duration":"PT8M23S","thumbnail":"https://i.ytimg.com/vi/RDBE2Z47i3U/mqdefault.jpg","viewCount":"447","playlistId":"PLEkQk5xrP-tnmTYsyW6xNdyfhPq0Bhrhj","playlistName":"مقرأة الفجر - القُرْآنُ الكَرِيمُ - خَتْمَةُ التَّدَبُّرِ  أ.د. يسري جبر","category":"متنوع"},{"id":"pfqpvUxWBNg","title":"سورة المائدة آية 4","publishedAt":"2016-10-04T08:21:07Z","duration":"PT13M5S","thumbnail":"https://i.ytimg.com/vi/pfqpvUxWBNg/mqdefault.jpg","viewCount":"546","playlistId":"PLEkQk5xrP-tnmTYsyW6xNdyfhPq0Bhrhj","playlistName":"مقرأة الفجر - القُرْآنُ الكَرِيمُ - خَتْمَةُ التَّدَبُّرِ  أ.د. يسري جبر","category":"متنوع"},{"id":"2hoN_QcWj9c","title":"سورة المائدة آية 2","publishedAt":"2016-10-03T08:00:15Z","duration":"PT24M7S","thumbnail":"https://i.ytimg.com/vi/2hoN_QcWj9c/mqdefault.jpg","viewCount":"655","playlistId":"PLEkQk5xrP-tnmTYsyW6xNdyfhPq0Bhrhj","playlistName":"مقرأة الفجر - القُرْآنُ الكَرِيمُ - خَتْمَةُ التَّدَبُّرِ  أ.د. يسري جبر","category":"متنوع"},{"id":"YQReGr1S2J8","title":"سورة المائدة آية 1","publishedAt":"2016-10-02T07:17:41Z","duration":"PT18M34S","thumbnail":"https://i.ytimg.com/vi/YQReGr1S2J8/mqdefault.jpg","viewCount":"705","playlistId":"PLEkQk5xrP-tnmTYsyW6xNdyfhPq0Bhrhj","playlistName":"مقرأة الفجر - القُرْآنُ الكَرِيمُ - خَتْمَةُ التَّدَبُّرِ  أ.د. يسري جبر","category":"متنوع"},{"id":"aal6JoVDDmM","title":"سورة النساء آية 163","publishedAt":"2016-10-01T21:03:22Z","duration":"PT13M30S","thumbnail":"https://i.ytimg.com/vi/aal6JoVDDmM/mqdefault.jpg","viewCount":"378","playlistId":"PLEkQk5xrP-tnmTYsyW6xNdyfhPq0Bhrhj","playlistName":"مقرأة الفجر - القُرْآنُ الكَرِيمُ - خَتْمَةُ التَّدَبُّرِ  أ.د. يسري جبر","category":"متنوع"},{"id":"nDTLcZ7rvAk","title":"سورة النساء  آية 174","publishedAt":"2016-10-01T09:23:54Z","duration":"PT14M53S","thumbnail":"https://i.ytimg.com/vi/nDTLcZ7rvAk/mqdefault.jpg","viewCount":"484","playlistId":"PLEkQk5xrP-tnmTYsyW6xNdyfhPq0Bhrhj","playlistName":"مقرأة الفجر - القُرْآنُ الكَرِيمُ - خَتْمَةُ التَّدَبُّرِ  أ.د. يسري جبر","category":"متنوع"},{"id":"fsG4swbTtZ8","title":"سورة النساء آية 153","publishedAt":"2016-09-29T20:49:24Z","duration":"PT24M36S","thumbnail":"https://i.ytimg.com/vi/fsG4swbTtZ8/mqdefault.jpg","viewCount":"407","playlistId":"PLEkQk5xrP-tnmTYsyW6xNdyfhPq0Bhrhj","playlistName":"مقرأة الفجر - القُرْآنُ الكَرِيمُ - خَتْمَةُ التَّدَبُّرِ  أ.د. يسري جبر","category":"متنوع"},{"id":"szkAg9zPhhk","title":"سورة النساء آية 148","publishedAt":"2016-09-29T20:26:19Z","duration":"PT11M51S","thumbnail":"https://i.ytimg.com/vi/szkAg9zPhhk/mqdefault.jpg","viewCount":"328","playlistId":"PLEkQk5xrP-tnmTYsyW6xNdyfhPq0Bhrhj","playlistName":"مقرأة الفجر - القُرْآنُ الكَرِيمُ - خَتْمَةُ التَّدَبُّرِ  أ.د. يسري جبر","category":"متنوع"},{"id":"NAqzD0Pzksw","title":"سورة النساء آية 136","publishedAt":"2016-09-29T20:22:30Z","duration":"PT30M4S","thumbnail":"https://i.ytimg.com/vi/NAqzD0Pzksw/mqdefault.jpg","viewCount":"420","playlistId":"PLEkQk5xrP-tnmTYsyW6xNdyfhPq0Bhrhj","playlistName":"مقرأة الفجر - القُرْآنُ الكَرِيمُ - خَتْمَةُ التَّدَبُّرِ  أ.د. يسري جبر","category":"متنوع"},{"id":"Q5LWMZfPsXA","title":"سورة النساء آية 101","publishedAt":"2016-09-29T19:52:40Z","duration":"PT16M15S","thumbnail":"https://i.ytimg.com/vi/Q5LWMZfPsXA/mqdefault.jpg","viewCount":"364","playlistId":"PLEkQk5xrP-tnmTYsyW6xNdyfhPq0Bhrhj","playlistName":"مقرأة الفجر - القُرْآنُ الكَرِيمُ - خَتْمَةُ التَّدَبُّرِ  أ.د. يسري جبر","category":"متنوع"},{"id":"1py6cHf2N6E","title":"سورة النساء آية 131","publishedAt":"2016-09-27T20:47:48Z","duration":"PT18M44S","thumbnail":"https://i.ytimg.com/vi/1py6cHf2N6E/mqdefault.jpg","viewCount":"385","playlistId":"PLEkQk5xrP-tnmTYsyW6xNdyfhPq0Bhrhj","playlistName":"مقرأة الفجر - القُرْآنُ الكَرِيمُ - خَتْمَةُ التَّدَبُّرِ  أ.د. يسري جبر","category":"متنوع"},{"id":"VTjQHFUM48U","title":"سورة النساء آية 127","publishedAt":"2016-09-27T20:46:31Z","duration":"PT22M54S","thumbnail":"https://i.ytimg.com/vi/VTjQHFUM48U/mqdefault.jpg","viewCount":"394","playlistId":"PLEkQk5xrP-tnmTYsyW6xNdyfhPq0Bhrhj","playlistName":"مقرأة الفجر - القُرْآنُ الكَرِيمُ - خَتْمَةُ التَّدَبُّرِ  أ.د. يسري جبر","category":"متنوع"},{"id":"TZeYWHNQZmk","title":"سورة النساء آية 123","publishedAt":"2016-09-27T20:45:09Z","duration":"PT16M48S","thumbnail":"https://i.ytimg.com/vi/TZeYWHNQZmk/mqdefault.jpg","viewCount":"349","playlistId":"PLEkQk5xrP-tnmTYsyW6xNdyfhPq0Bhrhj","playlistName":"مقرأة الفجر - القُرْآنُ الكَرِيمُ - خَتْمَةُ التَّدَبُّرِ  أ.د. يسري جبر","category":"متنوع"},{"id":"bR1uQyRudgU","title":"سورة النساء آية 116","publishedAt":"2016-09-25T05:04:03Z","duration":"PT28M21S","thumbnail":"https://i.ytimg.com/vi/bR1uQyRudgU/mqdefault.jpg","viewCount":"447","playlistId":"PLEkQk5xrP-tnmTYsyW6xNdyfhPq0Bhrhj","playlistName":"مقرأة الفجر - القُرْآنُ الكَرِيمُ - خَتْمَةُ التَّدَبُّرِ  أ.د. يسري جبر","category":"متنوع"},{"id":"eoSl5idfOno","title":"سورة النساء آية 114","publishedAt":"2016-09-24T03:24:04Z","duration":"PT19M10S","thumbnail":"https://i.ytimg.com/vi/eoSl5idfOno/mqdefault.jpg","viewCount":"380","playlistId":"PLEkQk5xrP-tnmTYsyW6xNdyfhPq0Bhrhj","playlistName":"مقرأة الفجر - القُرْآنُ الكَرِيمُ - خَتْمَةُ التَّدَبُّرِ  أ.د. يسري جبر","category":"متنوع"},{"id":"zmnTlhgTjMQ","title":"سورة النساء آية 105","publishedAt":"2016-09-20T06:36:01Z","duration":"PT16M40S","thumbnail":"https://i.ytimg.com/vi/zmnTlhgTjMQ/mqdefault.jpg","viewCount":"382","playlistId":"PLEkQk5xrP-tnmTYsyW6xNdyfhPq0Bhrhj","playlistName":"مقرأة الفجر - القُرْآنُ الكَرِيمُ - خَتْمَةُ التَّدَبُّرِ  أ.د. يسري جبر","category":"متنوع"},{"id":"XjlgljR_NQ4","title":"سورة النساء آية 103","publishedAt":"2016-09-19T06:39:01Z","duration":"PT12M3S","thumbnail":"https://i.ytimg.com/vi/XjlgljR_NQ4/mqdefault.jpg","viewCount":"365","playlistId":"PLEkQk5xrP-tnmTYsyW6xNdyfhPq0Bhrhj","playlistName":"مقرأة الفجر - القُرْآنُ الكَرِيمُ - خَتْمَةُ التَّدَبُّرِ  أ.د. يسري جبر","category":"متنوع"},{"id":"W1Pjepxb17M","title":"سورة النساء آية 102","publishedAt":"2016-09-18T06:07:54Z","duration":"PT10M7S","thumbnail":"https://i.ytimg.com/vi/W1Pjepxb17M/mqdefault.jpg","viewCount":"351","playlistId":"PLEkQk5xrP-tnmTYsyW6xNdyfhPq0Bhrhj","playlistName":"مقرأة الفجر - القُرْآنُ الكَرِيمُ - خَتْمَةُ التَّدَبُّرِ  أ.د. يسري جبر","category":"متنوع"},{"id":"yIxXFnoYOqY","title":"سورة النساء آية 95","publishedAt":"2016-09-05T06:06:34Z","duration":"PT10M22S","thumbnail":"https://i.ytimg.com/vi/yIxXFnoYOqY/mqdefault.jpg","viewCount":"403","playlistId":"PLEkQk5xrP-tnmTYsyW6xNdyfhPq0Bhrhj","playlistName":"مقرأة الفجر - القُرْآنُ الكَرِيمُ - خَتْمَةُ التَّدَبُّرِ  أ.د. يسري جبر","category":"متنوع"}],"total":942,"page":35,"pageSize":24,"totalPages":40}