{"items":[{"id":"PBthxU-xzh0","title":"مقرأة سورة الفرقان من آية ٤١","publishedAt":"2018-04-02T07:05:12Z","duration":"PT19M44S","thumbnail":"https://i.ytimg.com/vi/PBthxU-xzh0/mqdefault.jpg","viewCount":"287","playlistId":"PLEkQk5xrP-tnmTYsyW6xNdyfhPq0Bhrhj","playlistName":"مقرأة الفجر - القُرْآنُ الكَرِيمُ - خَتْمَةُ التَّدَبُّرِ  أ.د. يسري جبر","category":"متنوع"},{"id":"bwWqD1-4wJI","title":"مقرأة سورة الفرقان من آية ٣٢","publishedAt":"2018-04-01T08:31:52Z","duration":"PT18M42S","thumbnail":"https://i.ytimg.com/vi/bwWqD1-4wJI/mqdefault.jpg","viewCount":"233","playlistId":"PLEkQk5xrP-tnmTYsyW6xNdyfhPq0Bhrhj","playlistName":"مقرأة الفجر - القُرْآنُ الكَرِيمُ - خَتْمَةُ التَّدَبُّرِ  أ.د. يسري جبر","category":"متنوع"},{"id":"p6tyWmZ0Ddo","title":"مقرأة سورة الفرقان من آية ٢٧","publishedAt":"2018-03-31T08:11:25Z","duration":"PT7M14S","thumbnail":"https://i.ytimg.com/vi/p6tyWmZ0Ddo/mqdefault.jpg","viewCount":"251","playlistId":"PLEkQk5xrP-tnmTYsyW6xNdyfhPq0Bhrhj","playlistName":"مقرأة الفجر - القُرْآنُ الكَرِيمُ - خَتْمَةُ التَّدَبُّرِ  أ.د. يسري جبر","category":"متنوع"},{"id":"WS36N7yxZQQ","title":"مقرأة سورة الفرقان من آية ٢١","publishedAt":"2018-03-30T15:07:20Z","duration":"PT11M18S","thumbnail":"https://i.ytimg.com/vi/WS36N7yxZQQ/mqdefault.jpg","viewCount":"246","playlistId":"PLEkQk5xrP-tnmTYsyW6xNdyfhPq0Bhrhj","playlistName":"مقرأة الفجر - القُرْآنُ الكَرِيمُ - خَتْمَةُ التَّدَبُّرِ  أ.د. يسري جبر","category":"متنوع"},{"id":"CCccxQac2Yw","title":"مقرأة سورة الفرقان من آية ١٧","publishedAt":"2018-03-29T09:29:54Z","duration":"PT14M52S","thumbnail":"https://i.ytimg.com/vi/CCccxQac2Yw/mqdefault.jpg","viewCount":"217","playlistId":"PLEkQk5xrP-tnmTYsyW6xNdyfhPq0Bhrhj","playlistName":"مقرأة الفجر - القُرْآنُ الكَرِيمُ - خَتْمَةُ التَّدَبُّرِ  أ.د. يسري جبر","category":"متنوع"},{"id":"yfeictJB6Ao","title":"مقرأة سورة الفرقان من آية ١٠","publishedAt":"2018-03-28T07:37:23Z","duration":"PT10M45S","thumbnail":"https://i.ytimg.com/vi/yfeictJB6Ao/mqdefault.jpg","viewCount":"235","playlistId":"PLEkQk5xrP-tnmTYsyW6xNdyfhPq0Bhrhj","playlistName":"مقرأة الفجر - القُرْآنُ الكَرِيمُ - خَتْمَةُ التَّدَبُّرِ  أ.د. يسري جبر","category":"متنوع"},{"id":"e2VGG0CXBII","title":"مقرأة سورة الفرقان من آية ٤","publishedAt":"2018-03-27T06:05:59Z","duration":"PT21M27S","thumbnail":"https://i.ytimg.com/vi/e2VGG0CXBII/mqdefault.jpg","viewCount":"415","playlistId":"PLEkQk5xrP-tnmTYsyW6xNdyfhPq0Bhrhj","playlistName":"مقرأة الفجر - القُرْآنُ الكَرِيمُ - خَتْمَةُ التَّدَبُّرِ  أ.د. يسري جبر","category":"متنوع"},{"id":"rfmjpK64kJ0","title":"مقرأة سورة الفرقان من أولها","publishedAt":"2018-03-26T04:35:54Z","duration":"PT12M33S","thumbnail":"https://i.ytimg.com/vi/rfmjpK64kJ0/mqdefault.jpg","viewCount":"322","playlistId":"PLEkQk5xrP-tnmTYsyW6xNdyfhPq0Bhrhj","playlistName":"مقرأة الفجر - القُرْآنُ الكَرِيمُ - خَتْمَةُ التَّدَبُّرِ  أ.د. يسري جبر","category":"متنوع"},{"id":"_pzm_bID0w4","title":"مقرأة سورة النور من آية ٦١","publishedAt":"2018-03-25T03:17:05Z","duration":"PT28M59S","thumbnail":"https://i.ytimg.com/vi/_pzm_bID0w4/mqdefault.jpg","viewCount":"343","playlistId":"PLEkQk5xrP-tnmTYsyW6xNdyfhPq0Bhrhj","playlistName":"مقرأة الفجر - القُرْآنُ الكَرِيمُ - خَتْمَةُ التَّدَبُّرِ  أ.د. يسري جبر","category":"متنوع"},{"id":"btlw_8-P-P0","title":"مقرأة سورة النور من آية 58","publishedAt":"2018-03-24T06:32:06Z","duration":"PT15M8S","thumbnail":"https://i.ytimg.com/vi/btlw_8-P-P0/mqdefault.jpg","viewCount":"335","playlistId":"PLEkQk5xrP-tnmTYsyW6xNdyfhPq0Bhrhj","playlistName":"مقرأة الفجر - القُرْآنُ الكَرِيمُ - خَتْمَةُ التَّدَبُّرِ  أ.د. يسري جبر","category":"متنوع"},{"id":"699MRxYfARY","title":"مقرأة سورة النور من آية ٥٣","publishedAt":"2018-03-23T08:02:54Z","duration":"PT17M55S","thumbnail":"https://i.ytimg.com/vi/699MRxYfARY/mqdefault.jpg","viewCount":"252","playlistId":"PLEkQk5xrP-tnmTYsyW6xNdyfhPq0Bhrhj","playlistName":"مقرأة الفجر - القُرْآنُ الكَرِيمُ - خَتْمَةُ التَّدَبُّرِ  أ.د. يسري جبر","category":"متنوع"},{"id":"mSaEHCPDt18","title":"مقرأة سورة النور من آية ٤٧","publishedAt":"2018-03-22T04:07:43Z","duration":"PT20M27S","thumbnail":"https://i.ytimg.com/vi/mSaEHCPDt18/mqdefault.jpg","viewCount":"348","playlistId":"PLEkQk5xrP-tnmTYsyW6xNdyfhPq0Bhrhj","playlistName":"مقرأة الفجر - القُرْآنُ الكَرِيمُ - خَتْمَةُ التَّدَبُّرِ  أ.د. يسري جبر","category":"متنوع"},{"id":"CGPnBbDUS5w","title":"مقرأة سورة النور من آية ٤٥","publishedAt":"2018-03-21T07:45:00Z","duration":"PT12M33S","thumbnail":"https://i.ytimg.com/vi/CGPnBbDUS5w/mqdefault.jpg","viewCount":"279","playlistId":"PLEkQk5xrP-tnmTYsyW6xNdyfhPq0Bhrhj","playlistName":"مقرأة الفجر - القُرْآنُ الكَرِيمُ - خَتْمَةُ التَّدَبُّرِ  أ.د. يسري جبر","category":"متنوع"},{"id":"JeCJUOtZd9A","title":"مقرأة سورة النور من آية ٤١","publishedAt":"2018-03-20T14:45:48Z","duration":"PT17M17S","thumbnail":"https://i.ytimg.com/vi/JeCJUOtZd9A/mqdefault.jpg","viewCount":"298","playlistId":"PLEkQk5xrP-tnmTYsyW6xNdyfhPq0Bhrhj","playlistName":"مقرأة الفجر - القُرْآنُ الكَرِيمُ - خَتْمَةُ التَّدَبُّرِ  أ.د. يسري جبر","category":"متنوع"},{"id":"kLqIMQaNOug","title":"مقرأة سورة النور من آية ٣٩","publishedAt":"2018-03-19T09:52:54Z","duration":"PT10M9S","thumbnail":"https://i.ytimg.com/vi/kLqIMQaNOug/mqdefault.jpg","viewCount":"305","playlistId":"PLEkQk5xrP-tnmTYsyW6xNdyfhPq0Bhrhj","playlistName":"مقرأة الفجر - القُرْآنُ الكَرِيمُ - خَتْمَةُ التَّدَبُّرِ  أ.د. يسري جبر","category":"متنوع"},{"id":"hHl0UNzBq7A","title":"مقرأة سورة النور من آية ٣٦","publishedAt":"2018-03-18T08:28:00Z","duration":"PT8M3S","thumbnail":"https://i.ytimg.com/vi/hHl0UNzBq7A/mqdefault.jpg","viewCount":"317","playlistId":"PLEkQk5xrP-tnmTYsyW6xNdyfhPq0Bhrhj","playlistName":"مقرأة الفجر - القُرْآنُ الكَرِيمُ - خَتْمَةُ التَّدَبُّرِ  أ.د. يسري جبر","category":"متنوع"},{"id":"eNzJtu0jJLs","title":"مقرأة سورة النور من آية ٣٥","publishedAt":"2018-03-17T13:05:36Z","duration":"PT17M42S","thumbnail":"https://i.ytimg.com/vi/eNzJtu0jJLs/mqdefault.jpg","viewCount":"870","playlistId":"PLEkQk5xrP-tnmTYsyW6xNdyfhPq0Bhrhj","playlistName":"مقرأة الفجر - القُرْآنُ الكَرِيمُ - خَتْمَةُ التَّدَبُّرِ  أ.د. يسري جبر","category":"متنوع"},{"id":"j6uVNYh3G84","title":"مقرأة سورة النور من آية ٣٢","publishedAt":"2018-03-16T08:23:39Z","duration":"PT16M7S","thumbnail":"https://i.ytimg.com/vi/j6uVNYh3G84/mqdefault.jpg","viewCount":"277","playlistId":"PLEkQk5xrP-tnmTYsyW6xNdyfhPq0Bhrhj","playlistName":"مقرأة الفجر - القُرْآنُ الكَرِيمُ - خَتْمَةُ التَّدَبُّرِ  أ.د. يسري جبر","category":"متنوع"},{"id":"H07ObVnqsK4","title":"مقرأة سورة النور من آية ٣٠","publishedAt":"2018-03-15T10:41:50Z","duration":"PT36M36S","thumbnail":"https://i.ytimg.com/vi/H07ObVnqsK4/mqdefault.jpg","viewCount":"501","playlistId":"PLEkQk5xrP-tnmTYsyW6xNdyfhPq0Bhrhj","playlistName":"مقرأة الفجر - القُرْآنُ الكَرِيمُ - خَتْمَةُ التَّدَبُّرِ  أ.د. يسري جبر","category":"متنوع"},{"id":"H2oDHuTxp_g","title":"مقرأة سورة النور من آية ٢٦","publishedAt":"2018-03-14T10:29:58Z","duration":"PT16M4S","thumbnail":"https://i.ytimg.com/vi/H2oDHuTxp_g/mqdefault.jpg","viewCount":"378","playlistId":"PLEkQk5xrP-tnmTYsyW6xNdyfhPq0Bhrhj","playlistName":"مقرأة الفجر - القُرْآنُ الكَرِيمُ - خَتْمَةُ التَّدَبُّرِ  أ.د. يسري جبر","category":"متنوع"},{"id":"Mtw_ccajJR4","title":"مقرأة سورة النور من آية ٢٢","publishedAt":"2018-03-13T10:16:47Z","duration":"PT10M21S","thumbnail":"https://i.ytimg.com/vi/Mtw_ccajJR4/mqdefault.jpg","viewCount":"297","playlistId":"PLEkQk5xrP-tnmTYsyW6xNdyfhPq0Bhrhj","playlistName":"مقرأة الفجر - القُرْآنُ الكَرِيمُ - خَتْمَةُ التَّدَبُّرِ  أ.د. يسري جبر","category":"متنوع"},{"id":"zgb_e44hkL0","title":"مقرأة سورة النور من آية ١٩","publishedAt":"2018-03-12T11:17:21Z","duration":"PT12M31S","thumbnail":"https://i.ytimg.com/vi/zgb_e44hkL0/mqdefault.jpg","viewCount":"310","playlistId":"PLEkQk5xrP-tnmTYsyW6xNdyfhPq0Bhrhj","playlistName":"مقرأة الفجر - القُرْآنُ الكَرِيمُ - خَتْمَةُ التَّدَبُّرِ  أ.د. يسري جبر","category":"متنوع"},{"id":"TIICbexo2Z4","title":"مقرأة سورة النور من آية ١١","publishedAt":"2018-03-11T11:36:42Z","duration":"PT21M17S","thumbnail":"https://i.ytimg.com/vi/TIICbexo2Z4/mqdefault.jpg","viewCount":"456","playlistId":"PLEkQk5xrP-tnmTYsyW6xNdyfhPq0Bhrhj","playlistName":"مقرأة الفجر - القُرْآنُ الكَرِيمُ - خَتْمَةُ التَّدَبُّرِ  أ.د. يسري جبر","category":"متنوع"},{"id":"FyDGelPU0jw","title":"مقرأة سورة النور من آية ٦","publishedAt":"2018-03-10T14:08:56Z","duration":"PT17M24S","thumbnail":"https://i.ytimg.com/vi/FyDGelPU0jw/mqdefault.jpg","viewCount":"338","playlistId":"PLEkQk5xrP-tnmTYsyW6xNdyfhPq0Bhrhj","playlistName":"مقرأة الفجر - القُرْآنُ الكَرِيمُ - خَتْمَةُ التَّدَبُّرِ  أ.د. يسري جبر","category":"متنوع"}],"total":942,"page":19,"pageSize":24,"totalPages":40}