{"items":[{"id":"NABO4m3Nisk","title":"كيف تتغلب على شهواتك في رمضان؟","publishedAt":"2025-03-07T18:30:25Z","duration":"PT15M6S","thumbnail":"https://i.ytimg.com/vi/NABO4m3Nisk/mqdefault.jpg","viewCount":"2128","playlistId":"PLEkQk5xrP-tlArtGpeLWaqNM7h7IDeAVC","playlistName":"خطب الجمعة أ.د. يسري جبر","category":"خطب"},{"id":"H79K50fmMwQ","title":"لماذا يحاسبنا الله على أعمالنا وهي مكتوبة علينا؟","publishedAt":"2025-03-09T18:30:16Z","duration":"PT14M45S","thumbnail":"https://i.ytimg.com/vi/H79K50fmMwQ/mqdefault.jpg","viewCount":"2580","playlistId":"PLEkQk5xrP-tlArtGpeLWaqNM7h7IDeAVC","playlistName":"خطب الجمعة أ.د. يسري جبر","category":"خطب"},{"id":"qyXeQSAUne8","title":"أول فرصة لليلة القدر هذا العام!","publishedAt":"2025-03-15T19:00:42Z","duration":"PT8M8S","thumbnail":"https://i.ytimg.com/vi/qyXeQSAUne8/mqdefault.jpg","viewCount":"3326","playlistId":"PLEkQk5xrP-tlArtGpeLWaqNM7h7IDeAVC","playlistName":"خطب الجمعة أ.د. يسري جبر","category":"خطب"},{"id":"PMwJpUTqzJQ","title":"لطائف وإشارات في ذكرى غزوة بدر","publishedAt":"2025-03-16T19:00:15Z","duration":"PT13M2S","thumbnail":"https://i.ytimg.com/vi/PMwJpUTqzJQ/mqdefault.jpg","viewCount":"3425","playlistId":"PLEkQk5xrP-tlArtGpeLWaqNM7h7IDeAVC","playlistName":"خطب الجمعة أ.د. يسري جبر","category":"خطب"},{"id":"zNgVtJd4FlA","title":"بداية العشر الأواخر ومتى ستكون ليلة القدر؟","publishedAt":"2025-03-19T19:00:52Z","duration":"PT11M49S","thumbnail":"https://i.ytimg.com/vi/zNgVtJd4FlA/mqdefault.jpg","viewCount":"8015","playlistId":"PLEkQk5xrP-tlArtGpeLWaqNM7h7IDeAVC","playlistName":"خطب الجمعة أ.د. يسري جبر","category":"خطب"},{"id":"84rzM7EXRMo","title":"كيف تتضاعف حسناتك في الأيام المتبقية من رمضان؟","publishedAt":"2025-03-21T19:00:06Z","duration":"PT14M37S","thumbnail":"https://i.ytimg.com/vi/84rzM7EXRMo/mqdefault.jpg","viewCount":"4809","playlistId":"PLEkQk5xrP-tlArtGpeLWaqNM7h7IDeAVC","playlistName":"خطب الجمعة أ.د. يسري جبر","category":"خطب"},{"id":"EeT3tSoohFY","title":"كيف تكون من أهل التقوى؟","publishedAt":"2025-03-22T19:00:08Z","duration":"PT8M48S","thumbnail":"https://i.ytimg.com/vi/EeT3tSoohFY/mqdefault.jpg","viewCount":"1639","playlistId":"PLEkQk5xrP-tlArtGpeLWaqNM7h7IDeAVC","playlistName":"خطب الجمعة أ.د. يسري جبر","category":"خطب"},{"id":"i25976i_398","title":"علشان ربنا يقبلك في ليلة القدر لازم تعمل كده!","publishedAt":"2025-03-26T19:00:30Z","duration":"PT8M35S","thumbnail":"https://i.ytimg.com/vi/i25976i_398/mqdefault.jpg","viewCount":"4438","playlistId":"PLEkQk5xrP-tlArtGpeLWaqNM7h7IDeAVC","playlistName":"خطب الجمعة أ.د. يسري جبر","category":"خطب"},{"id":"tVOJ_WFWgHw","title":"قيمة زكاة الفطر,, ومتى تخرجها؟","publishedAt":"2025-03-28T19:00:51Z","duration":"PT21M38S","thumbnail":"https://i.ytimg.com/vi/tVOJ_WFWgHw/mqdefault.jpg","viewCount":"1600","playlistId":"PLEkQk5xrP-tlArtGpeLWaqNM7h7IDeAVC","playlistName":"خطب الجمعة أ.د. يسري جبر","category":"خطب"},{"id":"x3YUxOjCwAU","title":"حقائق ومعاني حول النبي ﷺ","publishedAt":"2025-04-14T18:00:51Z","duration":"PT25M34S","thumbnail":"https://i.ytimg.com/vi/x3YUxOjCwAU/mqdefault.jpg","viewCount":"2019","playlistId":"PLEkQk5xrP-tlArtGpeLWaqNM7h7IDeAVC","playlistName":"خطب الجمعة أ.د. يسري جبر","category":"خطب"},{"id":"KovBDFuvNqQ","title":"هل النبي ﷺ نور؟","publishedAt":"2025-04-17T19:34:50Z","duration":"PT22M49S","thumbnail":"https://i.ytimg.com/vi/KovBDFuvNqQ/mqdefault.jpg","viewCount":"4968","playlistId":"PLEkQk5xrP-tlArtGpeLWaqNM7h7IDeAVC","playlistName":"خطب الجمعة أ.د. يسري جبر","category":"خطب"},{"id":"8JGat1IL-Vw","title":"كيف تكون رحيمًا بمن حولك؟","publishedAt":"2025-04-21T18:00:09Z","duration":"PT8M37S","thumbnail":"https://i.ytimg.com/vi/8JGat1IL-Vw/mqdefault.jpg","viewCount":"3661","playlistId":"PLEkQk5xrP-tlArtGpeLWaqNM7h7IDeAVC","playlistName":"خطب الجمعة أ.د. يسري جبر","category":"خطب"},{"id":"Tl9gm7DaNAM","title":"خطر الفكر الوهابي على المسلمين!","publishedAt":"2025-05-20T19:50:48Z","duration":"PT43M","thumbnail":"https://i.ytimg.com/vi/Tl9gm7DaNAM/mqdefault.jpg","viewCount":"36521","playlistId":"PLEkQk5xrP-tlArtGpeLWaqNM7h7IDeAVC","playlistName":"خطب الجمعة أ.د. يسري جبر","category":"خطب"},{"id":"_0E6A6EoxXI","title":"كيف تحمي نفسك من أوحال التوحيد؟","publishedAt":"2025-05-21T17:00:55Z","duration":"PT8M40S","thumbnail":"https://i.ytimg.com/vi/_0E6A6EoxXI/mqdefault.jpg","viewCount":"5054","playlistId":"PLEkQk5xrP-tlArtGpeLWaqNM7h7IDeAVC","playlistName":"خطب الجمعة أ.د. يسري جبر","category":"خطب"},{"id":"QVu_UZULqqQ","title":"الرد على من ينكر خصوصية النبي ﷺ","publishedAt":"2025-05-22T17:40:04Z","duration":"PT17M18S","thumbnail":"https://i.ytimg.com/vi/QVu_UZULqqQ/mqdefault.jpg","viewCount":"2804","playlistId":"PLEkQk5xrP-tlArtGpeLWaqNM7h7IDeAVC","playlistName":"خطب الجمعة أ.د. يسري جبر","category":"خطب"},{"id":"wgVd-VBs9Dw","title":"خطبة الجمعة | مسجد هونسلو لندن","publishedAt":"2025-05-23T14:39:08Z","duration":"PT24M1S","thumbnail":"https://i.ytimg.com/vi/wgVd-VBs9Dw/mqdefault.jpg","viewCount":"3185","playlistId":"PLEkQk5xrP-tlArtGpeLWaqNM7h7IDeAVC","playlistName":"خطب الجمعة أ.د. يسري جبر","category":"خطب"},{"id":"2RRMFn04TMo","title":"كيف يكون النبي ﷺ قدوتك في حياتك؟","publishedAt":"2025-05-25T18:23:38Z","duration":"PT10M8S","thumbnail":"https://i.ytimg.com/vi/2RRMFn04TMo/mqdefault.jpg","viewCount":"2217","playlistId":"PLEkQk5xrP-tlArtGpeLWaqNM7h7IDeAVC","playlistName":"خطب الجمعة أ.د. يسري جبر","category":"خطب"},{"id":"Vc5Ea7OKFck","title":"أفضل الأعمال في العشر الأوائل من ذي الحجة","publishedAt":"2025-05-26T20:19:42Z","duration":"PT21M48S","thumbnail":"https://i.ytimg.com/vi/Vc5Ea7OKFck/mqdefault.jpg","viewCount":"19595","playlistId":"PLEkQk5xrP-tlArtGpeLWaqNM7h7IDeAVC","playlistName":"خطب الجمعة أ.د. يسري جبر","category":"خطب"},{"id":"wFfvwzlGx-o","title":"كيف تغتنم العشر الأوائل من ذي الحجة؟","publishedAt":"2025-05-27T17:01:23Z","duration":"PT8M51S","thumbnail":"https://i.ytimg.com/vi/wFfvwzlGx-o/mqdefault.jpg","viewCount":"4361","playlistId":"PLEkQk5xrP-tlArtGpeLWaqNM7h7IDeAVC","playlistName":"خطب الجمعة أ.د. يسري جبر","category":"خطب"},{"id":"5zdVVADYWfA","title":"علوم الطاقة بين الحقيقة والخرافات وحكم العلاج بالطاقة؟","publishedAt":"2025-05-28T19:54:31Z","duration":"PT41M13S","thumbnail":"https://i.ytimg.com/vi/5zdVVADYWfA/mqdefault.jpg","viewCount":"16560","playlistId":"PLEkQk5xrP-tlArtGpeLWaqNM7h7IDeAVC","playlistName":"خطب الجمعة أ.د. يسري جبر","category":"خطب"},{"id":"qXMXbog7_oY","title":"ماذا تفعل إن لم تستطع الحج هذا العام؟","publishedAt":"2025-06-03T18:51:35Z","duration":"PT18M29S","thumbnail":"https://i.ytimg.com/vi/qXMXbog7_oY/mqdefault.jpg","viewCount":"3492","playlistId":"PLEkQk5xrP-tlArtGpeLWaqNM7h7IDeAVC","playlistName":"خطب الجمعة أ.د. يسري جبر","category":"خطب"},{"id":"l1qeNnLttDY","title":"ماذا تفعل في يوم عرفة؟","publishedAt":"2025-06-04T18:15:04Z","duration":"PT14M44S","thumbnail":"https://i.ytimg.com/vi/l1qeNnLttDY/mqdefault.jpg","viewCount":"10144","playlistId":"PLEkQk5xrP-tlArtGpeLWaqNM7h7IDeAVC","playlistName":"خطب الجمعة أ.د. يسري جبر","category":"خطب"},{"id":"DiNLzDEmATU","title":"هل صلاة العيد تسقط فرض الجمعة؟ | خطبة عيد الأضحى","publishedAt":"2025-06-06T06:00:21Z","duration":"PT23M39S","thumbnail":"https://i.ytimg.com/vi/DiNLzDEmATU/mqdefault.jpg","viewCount":"3916","playlistId":"PLEkQk5xrP-tlArtGpeLWaqNM7h7IDeAVC","playlistName":"خطب الجمعة أ.د. يسري جبر","category":"خطب"},{"id":"GGN_LVl2bSA","title":"كيف نستقبل العام الهجري الجديد؟","publishedAt":"2025-06-26T18:33:09Z","duration":"PT16M2S","thumbnail":"https://i.ytimg.com/vi/GGN_LVl2bSA/mqdefault.jpg","viewCount":"3038","playlistId":"PLEkQk5xrP-tlArtGpeLWaqNM7h7IDeAVC","playlistName":"خطب الجمعة أ.د. يسري جبر","category":"خطب"}],"total":659,"page":26,"pageSize":24,"totalPages":28}