{"items":[{"id":"RGzIXfArzO4","title":"هل الابتلاء عقوبة أم محبة من الله؟","publishedAt":"2024-10-14T18:01:36Z","duration":"PT28M15S","thumbnail":"https://i.ytimg.com/vi/RGzIXfArzO4/mqdefault.jpg","viewCount":"7989","playlistId":"PLEkQk5xrP-tlArtGpeLWaqNM7h7IDeAVC","playlistName":"خطب الجمعة أ.د. يسري جبر","category":"خطب"},{"id":"C21jb5K0xqc","title":"‏هل النبي ﷺ ‏حي في قبره؟","publishedAt":"2024-10-15T18:45:17Z","duration":"PT14M15S","thumbnail":"https://i.ytimg.com/vi/C21jb5K0xqc/mqdefault.jpg","viewCount":"5003","playlistId":"PLEkQk5xrP-tlArtGpeLWaqNM7h7IDeAVC","playlistName":"خطب الجمعة أ.د. يسري جبر","category":"خطب"},{"id":"vQTOAA9wFwY","title":"كيف تكون فى معية الله تعالى؟","publishedAt":"2024-10-18T17:51:40Z","duration":"PT9M19S","thumbnail":"https://i.ytimg.com/vi/vQTOAA9wFwY/mqdefault.jpg","viewCount":"9483","playlistId":"PLEkQk5xrP-tlArtGpeLWaqNM7h7IDeAVC","playlistName":"خطب الجمعة أ.د. يسري جبر","category":"خطب"},{"id":"bI60C7XGrbY","title":"كيف تعود قلبك على الرضا بالقضاء والقدر؟","publishedAt":"2024-10-27T18:32:20Z","duration":"PT31M37S","thumbnail":"https://i.ytimg.com/vi/bI60C7XGrbY/mqdefault.jpg","viewCount":"21005","playlistId":"PLEkQk5xrP-tlArtGpeLWaqNM7h7IDeAVC","playlistName":"خطب الجمعة أ.د. يسري جبر","category":"خطب"},{"id":"l9YEXC8KUVI","title":"ما هو العلم النافع؟","publishedAt":"2024-11-01T18:25:49Z","duration":"PT13M27S","thumbnail":"https://i.ytimg.com/vi/l9YEXC8KUVI/mqdefault.jpg","viewCount":"2486","playlistId":"PLEkQk5xrP-tlArtGpeLWaqNM7h7IDeAVC","playlistName":"خطب الجمعة أ.د. يسري جبر","category":"خطب"},{"id":"s7PtrL2VXh0","title":"كيف نصبر على الابتلاءات والمصائب؟","publishedAt":"2024-11-03T17:00:55Z","duration":"PT25M9S","thumbnail":"https://i.ytimg.com/vi/s7PtrL2VXh0/mqdefault.jpg","viewCount":"8957","playlistId":"PLEkQk5xrP-tlArtGpeLWaqNM7h7IDeAVC","playlistName":"خطب الجمعة أ.د. يسري جبر","category":"خطب"},{"id":"8ogkyjfhydo","title":"الرد على شبهات وادعاءات الوهابية!","publishedAt":"2024-11-14T18:50:40Z","duration":"PT25M29S","thumbnail":"https://i.ytimg.com/vi/8ogkyjfhydo/mqdefault.jpg","viewCount":"6559","playlistId":"PLEkQk5xrP-tlArtGpeLWaqNM7h7IDeAVC","playlistName":"خطب الجمعة أ.د. يسري جبر","category":"خطب"},{"id":"pVjZMWpcXoo","title":"هل يمكن الانتفاع بالأنساب يوم القيامة؟","publishedAt":"2024-11-15T18:47:01Z","duration":"PT11M20S","thumbnail":"https://i.ytimg.com/vi/pVjZMWpcXoo/mqdefault.jpg","viewCount":"2597","playlistId":"PLEkQk5xrP-tlArtGpeLWaqNM7h7IDeAVC","playlistName":"خطب الجمعة أ.د. يسري جبر","category":"خطب"},{"id":"MIR5iUP-K2Q","title":"هل الإنسان مسير أم مخير؟","publishedAt":"2024-11-16T19:17:42Z","duration":"PT27M38S","thumbnail":"https://i.ytimg.com/vi/MIR5iUP-K2Q/mqdefault.jpg","viewCount":"3335","playlistId":"PLEkQk5xrP-tlArtGpeLWaqNM7h7IDeAVC","playlistName":"خطب الجمعة أ.د. يسري جبر","category":"خطب"},{"id":"0UPfgF33Nx8","title":"كيف تكون من أولياء الله الصالحين وما هي صفاتهم؟","publishedAt":"2024-11-17T19:43:37Z","duration":"PT25M4S","thumbnail":"https://i.ytimg.com/vi/0UPfgF33Nx8/mqdefault.jpg","viewCount":"42755","playlistId":"PLEkQk5xrP-tlArtGpeLWaqNM7h7IDeAVC","playlistName":"خطب الجمعة أ.د. يسري جبر","category":"خطب"},{"id":"2Vru-9PMb5Y","title":"كيف أواجه اختبارات الحياة وأرضى بقضاء الله؟","publishedAt":"2024-11-18T18:14:03Z","duration":"PT22M23S","thumbnail":"https://i.ytimg.com/vi/2Vru-9PMb5Y/mqdefault.jpg","viewCount":"7856","playlistId":"PLEkQk5xrP-tlArtGpeLWaqNM7h7IDeAVC","playlistName":"خطب الجمعة أ.د. يسري جبر","category":"خطب"},{"id":"VphX3E1hrOE","title":"فضل قضاء حوائج الناس | قصص في حياتي","publishedAt":"2024-11-19T17:30:05Z","duration":"PT16M19S","thumbnail":"https://i.ytimg.com/vi/VphX3E1hrOE/mqdefault.jpg","viewCount":"6206","playlistId":"PLEkQk5xrP-tlArtGpeLWaqNM7h7IDeAVC","playlistName":"خطب الجمعة أ.د. يسري جبر","category":"خطب"},{"id":"NH13QDV0j5k","title":"برحمتك أستغيث ,, هل النبي ﷺ هو الرحمة للأكوان؟","publishedAt":"2024-11-22T19:43:41Z","duration":"PT22M40S","thumbnail":"https://i.ytimg.com/vi/NH13QDV0j5k/mqdefault.jpg","viewCount":"2725","playlistId":"PLEkQk5xrP-tlArtGpeLWaqNM7h7IDeAVC","playlistName":"خطب الجمعة أ.د. يسري جبر","category":"خطب"},{"id":"WLW4G30GDps","title":"أنواع الخطابات الموجهة للنبي ﷺ في القرآن","publishedAt":"2024-11-23T17:17:41Z","duration":"PT17M42S","thumbnail":"https://i.ytimg.com/vi/WLW4G30GDps/mqdefault.jpg","viewCount":"2117","playlistId":"PLEkQk5xrP-tlArtGpeLWaqNM7h7IDeAVC","playlistName":"خطب الجمعة أ.د. يسري جبر","category":"خطب"},{"id":"4_npXVprV-A","title":"دليلك حول معرفة حقيقة النبي ﷺ","publishedAt":"2024-11-24T17:30:00Z","duration":"PT32M50S","thumbnail":"https://i.ytimg.com/vi/4_npXVprV-A/mqdefault.jpg","viewCount":"3869","playlistId":"PLEkQk5xrP-tlArtGpeLWaqNM7h7IDeAVC","playlistName":"خطب الجمعة أ.د. يسري جبر","category":"خطب"},{"id":"psbFNfIG7no","title":"مظاهر قدرة الله في الأكوان","publishedAt":"2024-11-25T17:30:06Z","duration":"PT10M32S","thumbnail":"https://i.ytimg.com/vi/psbFNfIG7no/mqdefault.jpg","viewCount":"2797","playlistId":"PLEkQk5xrP-tlArtGpeLWaqNM7h7IDeAVC","playlistName":"خطب الجمعة أ.د. يسري جبر","category":"خطب"},{"id":"hyRZdSuojGA","title":"كيف تتوكل على الله مع الأخذ بالأسباب؟","publishedAt":"2024-11-28T19:26:51Z","duration":"PT28M18S","thumbnail":"https://i.ytimg.com/vi/hyRZdSuojGA/mqdefault.jpg","viewCount":"3501","playlistId":"PLEkQk5xrP-tlArtGpeLWaqNM7h7IDeAVC","playlistName":"خطب الجمعة أ.د. يسري جبر","category":"خطب"},{"id":"wUSesCN9Oig","title":"كيف تعبد الله كأنك تراه وتتخلق بخلق الحياء؟","publishedAt":"2024-12-01T19:00:44Z","duration":"PT29M","thumbnail":"https://i.ytimg.com/vi/wUSesCN9Oig/mqdefault.jpg","viewCount":"4110","playlistId":"PLEkQk5xrP-tlArtGpeLWaqNM7h7IDeAVC","playlistName":"خطب الجمعة أ.د. يسري جبر","category":"خطب"},{"id":"g5MpaEwGhIM","title":"هل يقبل الله عبادة المتخاصمين؟","publishedAt":"2024-12-14T17:04:06Z","duration":"PT9M18S","thumbnail":"https://i.ytimg.com/vi/g5MpaEwGhIM/mqdefault.jpg","viewCount":"1834","playlistId":"PLEkQk5xrP-tlArtGpeLWaqNM7h7IDeAVC","playlistName":"خطب الجمعة أ.د. يسري جبر","category":"خطب"},{"id":"ScINot-2Vpo","title":"ما هي سبل النجاة من فتن آخر الزمان؟","publishedAt":"2024-12-18T15:59:39Z","duration":"PT17M52S","thumbnail":"https://i.ytimg.com/vi/ScINot-2Vpo/mqdefault.jpg","viewCount":"8203","playlistId":"PLEkQk5xrP-tlArtGpeLWaqNM7h7IDeAVC","playlistName":"خطب الجمعة أ.د. يسري جبر","category":"خطب"},{"id":"37Bv05s49WI","title":"كيف نحصن أنفسنا من فتن هذا الزمان؟","publishedAt":"2024-12-23T21:18:58Z","duration":"PT31M10S","thumbnail":"https://i.ytimg.com/vi/37Bv05s49WI/mqdefault.jpg","viewCount":"8606","playlistId":"PLEkQk5xrP-tlArtGpeLWaqNM7h7IDeAVC","playlistName":"خطب الجمعة أ.د. يسري جبر","category":"خطب"},{"id":"7pbXZbIW6sk","title":"هل يجوز شرب الخمر بدون الوصول إلى حد السكر؟","publishedAt":"2024-12-30T20:00:04Z","duration":"PT29M46S","thumbnail":"https://i.ytimg.com/vi/7pbXZbIW6sk/mqdefault.jpg","viewCount":"2343","playlistId":"PLEkQk5xrP-tlArtGpeLWaqNM7h7IDeAVC","playlistName":"خطب الجمعة أ.د. يسري جبر","category":"خطب"},{"id":"5qXt7FWjqC0","title":"أفضل الأعمال فى شهر رجب","publishedAt":"2025-01-01T16:00:04Z","duration":"PT17M42S","thumbnail":"https://i.ytimg.com/vi/5qXt7FWjqC0/mqdefault.jpg","viewCount":"13205","playlistId":"PLEkQk5xrP-tlArtGpeLWaqNM7h7IDeAVC","playlistName":"خطب الجمعة أ.د. يسري جبر","category":"خطب"},{"id":"CqSwCrVyhZ8","title":"أهم 5 أعمال في شهر رجب","publishedAt":"2025-01-05T18:00:07Z","duration":"PT22M52S","thumbnail":"https://i.ytimg.com/vi/CqSwCrVyhZ8/mqdefault.jpg","viewCount":"13960","playlistId":"PLEkQk5xrP-tlArtGpeLWaqNM7h7IDeAVC","playlistName":"خطب الجمعة أ.د. يسري جبر","category":"خطب"}],"total":659,"page":24,"pageSize":24,"totalPages":28}