{"items":[{"id":"dW2BbzX6e7U","title":"حول ميلاد النَّبِىِّ صَلَّى اللهُ علَيه وَآله وَسَلَّمَ وخَلْقه الشرِيف د. يسري جبر","publishedAt":"2016-01-03T20:15:52Z","duration":"PT41M27S","thumbnail":"https://i.ytimg.com/vi/dW2BbzX6e7U/mqdefault.jpg","viewCount":"140","playlistId":"PLEkQk5xrP-tlArtGpeLWaqNM7h7IDeAVC","playlistName":"خطب الجمعة أ.د. يسري جبر","category":"خطب"},{"id":"6t21XuhJZyU","title":"حول قضية اجتهاد النبى صلى الله عليه وآله وسلم وفهم بعض الآيات القرآنية د. يسري جبر","publishedAt":"2016-01-09T06:41:47Z","duration":"PT49M23S","thumbnail":"https://i.ytimg.com/vi/6t21XuhJZyU/mqdefault.jpg","viewCount":"722","playlistId":"PLEkQk5xrP-tlArtGpeLWaqNM7h7IDeAVC","playlistName":"خطب الجمعة أ.د. يسري جبر","category":"خطب"},{"id":"R0hVD4KWC70","title":"مَا هِى عَوائِقُ المَعْرِفَةِ وَالعِلْمِ د. يسري جبر","publishedAt":"2016-01-16T16:05:23Z","duration":"PT30M52S","thumbnail":"https://i.ytimg.com/vi/R0hVD4KWC70/mqdefault.jpg","viewCount":"289","playlistId":"PLEkQk5xrP-tlArtGpeLWaqNM7h7IDeAVC","playlistName":"خطب الجمعة أ.د. يسري جبر","category":"خطب"},{"id":"lr8jeYJqOUk","title":"الحَيَاءُ د. يسرى جبر","publishedAt":"2016-01-22T21:20:18Z","duration":"PT42M37S","thumbnail":"https://i.ytimg.com/vi/lr8jeYJqOUk/mqdefault.jpg","viewCount":"246","playlistId":"PLEkQk5xrP-tlArtGpeLWaqNM7h7IDeAVC","playlistName":"خطب الجمعة أ.د. يسري جبر","category":"خطب"},{"id":"572I8M0JAEc","title":"من مظاهر الحياء ( الأمر بالمعروف والنهى عن المنكر ) د. يسرى جبر","publishedAt":"2016-01-31T20:54:44Z","duration":"PT39M6S","thumbnail":"https://i.ytimg.com/vi/572I8M0JAEc/mqdefault.jpg","viewCount":"260","playlistId":"PLEkQk5xrP-tlArtGpeLWaqNM7h7IDeAVC","playlistName":"خطب الجمعة أ.د. يسري جبر","category":"خطب"},{"id":"EBfrPQtwkUI","title":"شُبهات حول أُمّيّة النبىِ صلى الله عليه وآله وسلم وحول الغنائم فى عصرنا   د. يسرى جبر","publishedAt":"2016-02-26T19:34:17Z","duration":"PT44M3S","thumbnail":"https://i.ytimg.com/vi/EBfrPQtwkUI/mqdefault.jpg","viewCount":"520","playlistId":"PLEkQk5xrP-tlArtGpeLWaqNM7h7IDeAVC","playlistName":"خطب الجمعة أ.د. يسري جبر","category":"خطب"},{"id":"eOVptzahNcc","title":"الصفات الذميمة التي يتجنبها المسلم  د . يسرى جبر","publishedAt":"2016-03-05T06:49:18Z","duration":"PT37M14S","thumbnail":"https://i.ytimg.com/vi/eOVptzahNcc/mqdefault.jpg","viewCount":"618","playlistId":"PLEkQk5xrP-tlArtGpeLWaqNM7h7IDeAVC","playlistName":"خطب الجمعة أ.د. يسري جبر","category":"خطب"},{"id":"KTtL_MbAvPQ","title":"أهمية التعرف على النبي صلى الله عليه وآله وسلم فى السلوك إلى الله  د . يسري جبر","publishedAt":"2016-03-12T07:27:32Z","duration":"PT48M4S","thumbnail":"https://i.ytimg.com/vi/KTtL_MbAvPQ/mqdefault.jpg","viewCount":"4836","playlistId":"PLEkQk5xrP-tlArtGpeLWaqNM7h7IDeAVC","playlistName":"خطب الجمعة أ.د. يسري جبر","category":"خطب"},{"id":"QAJSV1MwOi0","title":"مولد سيدة نساء العالمين فاطمة الزهراء البتول رضى الله تعالى عنها وأرضاها وعليها السلام د. يسري جبر","publishedAt":"2016-04-01T20:26:40Z","duration":"PT50M24S","thumbnail":"https://i.ytimg.com/vi/QAJSV1MwOi0/mqdefault.jpg","viewCount":"783","playlistId":"PLEkQk5xrP-tlArtGpeLWaqNM7h7IDeAVC","playlistName":"خطب الجمعة أ.د. يسري جبر","category":"خطب"},{"id":"zNK49m4mhuU","title":"مراتب الناس في الخوف من الله د. يسري جبر","publishedAt":"2016-04-09T06:16:51Z","duration":"PT42M37S","thumbnail":"https://i.ytimg.com/vi/zNK49m4mhuU/mqdefault.jpg","viewCount":"3064","playlistId":"PLEkQk5xrP-tlArtGpeLWaqNM7h7IDeAVC","playlistName":"خطب الجمعة أ.د. يسري جبر","category":"خطب"},{"id":"m0Z4JydP5PU","title":"حول ذكرى المولد النبوي الشريف بالتاريخ الميلادي د. يسري جبر","publishedAt":"2016-04-23T07:34:25Z","duration":"PT36M26S","thumbnail":"https://i.ytimg.com/vi/m0Z4JydP5PU/mqdefault.jpg","viewCount":"526","playlistId":"PLEkQk5xrP-tlArtGpeLWaqNM7h7IDeAVC","playlistName":"خطب الجمعة أ.د. يسري جبر","category":"خطب"},{"id":"G3VvgUl2Bng","title":"حَولَ مُعْجِزَةِالإِسْرَاءِ والمِعْرَاج د.يسري جبر","publishedAt":"2016-04-30T06:54:41Z","duration":"PT47M8S","thumbnail":"https://i.ytimg.com/vi/G3VvgUl2Bng/mqdefault.jpg","viewCount":"584","playlistId":"PLEkQk5xrP-tlArtGpeLWaqNM7h7IDeAVC","playlistName":"خطب الجمعة أ.د. يسري جبر","category":"خطب"},{"id":"BZnzZYnaCu4","title":"الصدق والإخلاص د . يسري جبر","publishedAt":"2016-05-12T17:10:05Z","duration":"PT41M38S","thumbnail":"https://i.ytimg.com/vi/BZnzZYnaCu4/mqdefault.jpg","viewCount":"1506","playlistId":"PLEkQk5xrP-tlArtGpeLWaqNM7h7IDeAVC","playlistName":"خطب الجمعة أ.د. يسري جبر","category":"خطب"},{"id":"eYtwLgD1kvY","title":"قضية الجبر والاختيار د. يسري جبر","publishedAt":"2016-05-14T19:31:05Z","duration":"PT45M27S","thumbnail":"https://i.ytimg.com/vi/eYtwLgD1kvY/mqdefault.jpg","viewCount":"3277","playlistId":"PLEkQk5xrP-tlArtGpeLWaqNM7h7IDeAVC","playlistName":"خطب الجمعة أ.د. يسري جبر","category":"خطب"},{"id":"6ba9DdA95nI","title":"كل الناس يغدو فبائع نفسه فمعتقها أو موبقها د. يسري جبر","publishedAt":"2016-06-04T14:19:17Z","duration":"PT42M29S","thumbnail":"https://i.ytimg.com/vi/6ba9DdA95nI/mqdefault.jpg","viewCount":"1601","playlistId":"PLEkQk5xrP-tlArtGpeLWaqNM7h7IDeAVC","playlistName":"خطب الجمعة أ.د. يسري جبر","category":"خطب"},{"id":"gKPcrU0dNPQ","title":"كيفية التأسي بالنبي صلى الله عليه وآله وسلم د. يسري جبر","publishedAt":"2016-06-14T14:25:13Z","duration":"PT49M29S","thumbnail":"https://i.ytimg.com/vi/gKPcrU0dNPQ/mqdefault.jpg","viewCount":"628","playlistId":"PLEkQk5xrP-tlArtGpeLWaqNM7h7IDeAVC","playlistName":"خطب الجمعة أ.د. يسري جبر","category":"خطب"},{"id":"w3S4csS_ZjI","title":"تعامل مع المباح كأنه دواء د. يسري جبر","publishedAt":"2016-07-10T19:12:40Z","duration":"PT44M9S","thumbnail":"https://i.ytimg.com/vi/w3S4csS_ZjI/mqdefault.jpg","viewCount":"656","playlistId":"PLEkQk5xrP-tlArtGpeLWaqNM7h7IDeAVC","playlistName":"خطب الجمعة أ.د. يسري جبر","category":"خطب"},{"id":"FfKCsB8yTqQ","title":"منوعات إيمانية د. يسري جبر","publishedAt":"2016-07-16T15:04:51Z","duration":"PT46M25S","thumbnail":"https://i.ytimg.com/vi/FfKCsB8yTqQ/mqdefault.jpg","viewCount":"946","playlistId":"PLEkQk5xrP-tlArtGpeLWaqNM7h7IDeAVC","playlistName":"خطب الجمعة أ.د. يسري جبر","category":"خطب"},{"id":"2vtEEhBipMQ","title":"ما هو الحب  د.يسري جبر","publishedAt":"2016-08-04T08:31:38Z","duration":"PT43M25S","thumbnail":"https://i.ytimg.com/vi/2vtEEhBipMQ/mqdefault.jpg","viewCount":"6970","playlistId":"PLEkQk5xrP-tlArtGpeLWaqNM7h7IDeAVC","playlistName":"خطب الجمعة أ.د. يسري جبر","category":"خطب"},{"id":"v4URe6lCyLU","title":"ما معنى الاعتصام وما الفرق بين الاعتصام بحبل الله والاعتصام بالله  د.يسري جبر","publishedAt":"2016-08-06T18:13:00Z","duration":"PT48M48S","thumbnail":"https://i.ytimg.com/vi/v4URe6lCyLU/mqdefault.jpg","viewCount":"1300","playlistId":"PLEkQk5xrP-tlArtGpeLWaqNM7h7IDeAVC","playlistName":"خطب الجمعة أ.د. يسري جبر","category":"خطب"},{"id":"Eqw5fw_Xsjo","title":"الاستقامة  د.يسري جبر","publishedAt":"2016-08-17T19:14:06Z","duration":"PT39M21S","thumbnail":"https://i.ytimg.com/vi/Eqw5fw_Xsjo/mqdefault.jpg","viewCount":"787","playlistId":"PLEkQk5xrP-tlArtGpeLWaqNM7h7IDeAVC","playlistName":"خطب الجمعة أ.د. يسري جبر","category":"خطب"},{"id":"i8I_f0Gw0Ik","title":"العلم قبل العمل  د. يسري جبر","publishedAt":"2016-08-20T20:06:44Z","duration":"PT39M31S","thumbnail":"https://i.ytimg.com/vi/i8I_f0Gw0Ik/mqdefault.jpg","viewCount":"1061","playlistId":"PLEkQk5xrP-tlArtGpeLWaqNM7h7IDeAVC","playlistName":"خطب الجمعة أ.د. يسري جبر","category":"خطب"},{"id":"0twNV7FpQag","title":"سرقة يقع فيها كثير من الناس  د. يسري جبر","publishedAt":"2016-08-27T18:25:23Z","duration":"PT41M24S","thumbnail":"https://i.ytimg.com/vi/0twNV7FpQag/mqdefault.jpg","viewCount":"2402","playlistId":"PLEkQk5xrP-tlArtGpeLWaqNM7h7IDeAVC","playlistName":"خطب الجمعة أ.د. يسري جبر","category":"خطب"},{"id":"ucPdjBNZalM","title":"حسن الخُلق من أعظم ما يُتقرب به إلى الله    د. يسري جبر","publishedAt":"2016-09-09T19:35:56Z","duration":"PT28M50S","thumbnail":"https://i.ytimg.com/vi/ucPdjBNZalM/mqdefault.jpg","viewCount":"1253","playlistId":"PLEkQk5xrP-tlArtGpeLWaqNM7h7IDeAVC","playlistName":"خطب الجمعة أ.د. يسري جبر","category":"خطب"}],"total":659,"page":3,"pageSize":24,"totalPages":28}