{"items":[{"id":"J3gE6pSRhyI","title":"ولَوْ رَحِمْنَاهُمْ وَكَشَفْنَا مَا بِهِم مِّن ضُرٍّ لَّلَجُّوا فِي طُغْيَانِهِمْ يَعْمَهُونَ","publishedAt":"2018-07-15T18:29:29Z","duration":"PT35M54S","thumbnail":"https://i.ytimg.com/vi/J3gE6pSRhyI/mqdefault.jpg","viewCount":"985","playlistId":"PLEkQk5xrP-tlArtGpeLWaqNM7h7IDeAVC","playlistName":"خطب الجمعة أ.د. يسري جبر","category":"خطب"},{"id":"L3Se63T5bnY","title":"الْمَلَائِكَةُ  د.يسري جبر","publishedAt":"2018-07-22T11:32:41Z","duration":"PT52M25S","thumbnail":"https://i.ytimg.com/vi/L3Se63T5bnY/mqdefault.jpg","viewCount":"10657","playlistId":"PLEkQk5xrP-tlArtGpeLWaqNM7h7IDeAVC","playlistName":"خطب الجمعة أ.د. يسري جبر","category":"خطب"},{"id":"TFhJe4hvU64","title":"الْمَلَائِكَةُ (۲) د.يسري جبر","publishedAt":"2018-07-28T14:38:58Z","duration":"PT58M43S","thumbnail":"https://i.ytimg.com/vi/TFhJe4hvU64/mqdefault.jpg","viewCount":"7476","playlistId":"PLEkQk5xrP-tlArtGpeLWaqNM7h7IDeAVC","playlistName":"خطب الجمعة أ.د. يسري جبر","category":"خطب"},{"id":"_a57UiO-rIc","title":"مُعامَلةُ الحَقِّ في الخَلْق د.يسري جبر","publishedAt":"2018-08-03T22:54:51Z","duration":"PT41M8S","thumbnail":"https://i.ytimg.com/vi/_a57UiO-rIc/mqdefault.jpg","viewCount":"936","playlistId":"PLEkQk5xrP-tlArtGpeLWaqNM7h7IDeAVC","playlistName":"خطب الجمعة أ.د. يسري جبر","category":"خطب"},{"id":"YSfllCSoGqA","title":"تصحيحُ العَقائِدِ في العَشْر الأَوائل   د. يسري جبر","publishedAt":"2018-08-12T13:07:02Z","duration":"PT41M25S","thumbnail":"https://i.ytimg.com/vi/YSfllCSoGqA/mqdefault.jpg","viewCount":"925","playlistId":"PLEkQk5xrP-tlArtGpeLWaqNM7h7IDeAVC","playlistName":"خطب الجمعة أ.د. يسري جبر","category":"خطب"},{"id":"aHhfAnrayGU","title":"نصائح من الأيام العشر  د. يسري جبر","publishedAt":"2018-08-18T01:20:07Z","duration":"PT38M41S","thumbnail":"https://i.ytimg.com/vi/aHhfAnrayGU/mqdefault.jpg","viewCount":"962","playlistId":"PLEkQk5xrP-tlArtGpeLWaqNM7h7IDeAVC","playlistName":"خطب الجمعة أ.د. يسري جبر","category":"خطب"},{"id":"eJEy89vRBCo","title":"حَقَائِقُ مُحَمَّدِيَّة    د. يسري جبر","publishedAt":"2018-09-09T13:12:52Z","duration":"PT45M","thumbnail":"https://i.ytimg.com/vi/eJEy89vRBCo/mqdefault.jpg","viewCount":"3351","playlistId":"PLEkQk5xrP-tlArtGpeLWaqNM7h7IDeAVC","playlistName":"خطب الجمعة أ.د. يسري جبر","category":"خطب"},{"id":"-i-i9DBZgHE","title":"عاشوراء ومقتل مولانا الإمام الحسين رضي الله تعالى عنه وعليه السلام  د. يسري جبر","publishedAt":"2018-09-26T15:14:33Z","duration":"PT36M34S","thumbnail":"https://i.ytimg.com/vi/-i-i9DBZgHE/mqdefault.jpg","viewCount":"6823","playlistId":"PLEkQk5xrP-tlArtGpeLWaqNM7h7IDeAVC","playlistName":"خطب الجمعة أ.د. يسري جبر","category":"خطب"},{"id":"YvQ5dm7zirM","title":"مفاهيم حول تصحيح العقيدة ومحبة آل البيت رضي الله تعالى عنهم وعليهم السلام.  د. يسري جبر","publishedAt":"2018-10-08T17:36:50Z","duration":"PT42M10S","thumbnail":"https://i.ytimg.com/vi/YvQ5dm7zirM/mqdefault.jpg","viewCount":"3221","playlistId":"PLEkQk5xrP-tlArtGpeLWaqNM7h7IDeAVC","playlistName":"خطب الجمعة أ.د. يسري جبر","category":"خطب"},{"id":"gB7tQjP6uJI","title":"الشريعة والحقيقة في حديث لا عَدْوى ولا طِيَرة  د. يسري جبر","publishedAt":"2018-10-14T18:55:07Z","duration":"PT54M43S","thumbnail":"https://i.ytimg.com/vi/gB7tQjP6uJI/mqdefault.jpg","viewCount":"3357","playlistId":"PLEkQk5xrP-tlArtGpeLWaqNM7h7IDeAVC","playlistName":"خطب الجمعة أ.د. يسري جبر","category":"خطب"},{"id":"4gXg1NSZLaU","title":"حرية الاعتقاد لا تُعارض حدّ الرِّدَّة د. يسري جبر","publishedAt":"2018-10-20T17:39:45Z","duration":"PT26M20S","thumbnail":"https://i.ytimg.com/vi/4gXg1NSZLaU/mqdefault.jpg","viewCount":"781","playlistId":"PLEkQk5xrP-tlArtGpeLWaqNM7h7IDeAVC","playlistName":"خطب الجمعة أ.د. يسري جبر","category":"خطب"},{"id":"3KzEJqSphJY","title":"فوائد الابتلاء د. يسري جبر","publishedAt":"2018-10-29T20:27:01Z","duration":"PT42M54S","thumbnail":"https://i.ytimg.com/vi/3KzEJqSphJY/mqdefault.jpg","viewCount":"16522","playlistId":"PLEkQk5xrP-tlArtGpeLWaqNM7h7IDeAVC","playlistName":"خطب الجمعة أ.د. يسري جبر","category":"خطب"},{"id":"O7Dh1wMScPE","title":"نصائح تربوية  د. يسري جبر","publishedAt":"2018-11-04T18:23:46Z","duration":"PT45M11S","thumbnail":"https://i.ytimg.com/vi/O7Dh1wMScPE/mqdefault.jpg","viewCount":"1468","playlistId":"PLEkQk5xrP-tlArtGpeLWaqNM7h7IDeAVC","playlistName":"خطب الجمعة أ.د. يسري جبر","category":"خطب"},{"id":"NX9koGQvZ9s","title":"حول المولد النبوي الشريف (1)   د. يسري جبر","publishedAt":"2018-11-18T18:34:19Z","duration":"PT39M13S","thumbnail":"https://i.ytimg.com/vi/NX9koGQvZ9s/mqdefault.jpg","viewCount":"4875","playlistId":"PLEkQk5xrP-tlArtGpeLWaqNM7h7IDeAVC","playlistName":"خطب الجمعة أ.د. يسري جبر","category":"خطب"},{"id":"i83VVRngwRA","title":"حول المولد النبوي الشريف (2)   د. يسري جبر","publishedAt":"2018-11-18T18:41:31Z","duration":"PT40M52S","thumbnail":"https://i.ytimg.com/vi/i83VVRngwRA/mqdefault.jpg","viewCount":"1971","playlistId":"PLEkQk5xrP-tlArtGpeLWaqNM7h7IDeAVC","playlistName":"خطب الجمعة أ.د. يسري جبر","category":"خطب"},{"id":"4r-CD4P4_J8","title":"حول المولد النبوي الشريف (3)   د. يسري جبر","publishedAt":"2018-11-25T17:34:08Z","duration":"PT42M15S","thumbnail":"https://i.ytimg.com/vi/4r-CD4P4_J8/mqdefault.jpg","viewCount":"1042","playlistId":"PLEkQk5xrP-tlArtGpeLWaqNM7h7IDeAVC","playlistName":"خطب الجمعة أ.د. يسري جبر","category":"خطب"},{"id":"mz7J85KwugU","title":"حول المولد النبوي الشريف (4)   د. يسري جبر","publishedAt":"2018-12-01T17:02:52Z","duration":"PT39M2S","thumbnail":"https://i.ytimg.com/vi/mz7J85KwugU/mqdefault.jpg","viewCount":"951","playlistId":"PLEkQk5xrP-tlArtGpeLWaqNM7h7IDeAVC","playlistName":"خطب الجمعة أ.د. يسري جبر","category":"خطب"},{"id":"AIV0i10FDBA","title":"حول المولد النبوي الشريف (5)   أ.د. يسري جبر","publishedAt":"2018-12-15T17:19:19Z","duration":"PT34M19S","thumbnail":"https://i.ytimg.com/vi/AIV0i10FDBA/mqdefault.jpg","viewCount":"652","playlistId":"PLEkQk5xrP-tlArtGpeLWaqNM7h7IDeAVC","playlistName":"خطب الجمعة أ.د. يسري جبر","category":"خطب"},{"id":"bOoBopey4To","title":"حول معاني سورة الماعون أ.د. يسري جبر","publishedAt":"2018-12-18T18:31:18Z","duration":"PT41M38S","thumbnail":"https://i.ytimg.com/vi/bOoBopey4To/mqdefault.jpg","viewCount":"489","playlistId":"PLEkQk5xrP-tlArtGpeLWaqNM7h7IDeAVC","playlistName":"خطب الجمعة أ.د. يسري جبر","category":"خطب"},{"id":"TWoR4q4nn6o","title":"المراقبة   أ.د. يسري جبر","publishedAt":"2018-12-24T19:24:39Z","duration":"PT33M16S","thumbnail":"https://i.ytimg.com/vi/TWoR4q4nn6o/mqdefault.jpg","viewCount":"1291","playlistId":"PLEkQk5xrP-tlArtGpeLWaqNM7h7IDeAVC","playlistName":"خطب الجمعة أ.د. يسري جبر","category":"خطب"},{"id":"rfer__cwTqM","title":"ميلاد سيدنا عيسى عليه السلام  أ.د. يسري جبر","publishedAt":"2018-12-30T17:06:05Z","duration":"PT42M33S","thumbnail":"https://i.ytimg.com/vi/rfer__cwTqM/mqdefault.jpg","viewCount":"2388","playlistId":"PLEkQk5xrP-tlArtGpeLWaqNM7h7IDeAVC","playlistName":"خطب الجمعة أ.د. يسري جبر","category":"خطب"},{"id":"699O9Fxza24","title":"وصية العام الجديد  أ.د. يسري جبر","publishedAt":"2019-01-07T13:33:11Z","duration":"PT34M17S","thumbnail":"https://i.ytimg.com/vi/699O9Fxza24/mqdefault.jpg","viewCount":"1862","playlistId":"PLEkQk5xrP-tlArtGpeLWaqNM7h7IDeAVC","playlistName":"خطب الجمعة أ.د. يسري جبر","category":"خطب"},{"id":"CoLSHS3fRBs","title":"هَدْمُ الإِنسَانِ أَخْطَرُ مِنْ هَدْمِ البُنْيَانِ.   أ.د. يسري جبر","publishedAt":"2019-01-14T20:29:54Z","duration":"PT29M28S","thumbnail":"https://i.ytimg.com/vi/CoLSHS3fRBs/mqdefault.jpg","viewCount":"791","playlistId":"PLEkQk5xrP-tlArtGpeLWaqNM7h7IDeAVC","playlistName":"خطب الجمعة أ.د. يسري جبر","category":"خطب"},{"id":"1bXzwfeMp0E","title":"حول صلاة خسوف القمر    أ.د. يسري جبر","publishedAt":"2019-01-19T18:25:52Z","duration":"PT35M7S","thumbnail":"https://i.ytimg.com/vi/1bXzwfeMp0E/mqdefault.jpg","viewCount":"535","playlistId":"PLEkQk5xrP-tlArtGpeLWaqNM7h7IDeAVC","playlistName":"خطب الجمعة أ.د. يسري جبر","category":"خطب"}],"total":660,"page":7,"pageSize":24,"totalPages":28}