{"items":[{"id":"SDDI7wuy93M","title":"الحقائق المحمدية بمناسبة مولد النبي ﷺ","publishedAt":"2017-11-26T11:59:51Z","duration":"PT39M3S","thumbnail":"https://i.ytimg.com/vi/SDDI7wuy93M/mqdefault.jpg","viewCount":"10083","playlistId":"PLEkQk5xrP-tlArtGpeLWaqNM7h7IDeAVC","playlistName":"خطب الجمعة أ.د. يسري جبر","category":"خطب"},{"id":"RVi4_nuUhz8","title":"القدس إسلامية","publishedAt":"2017-12-09T14:47:39Z","duration":"PT33M10S","thumbnail":"https://i.ytimg.com/vi/RVi4_nuUhz8/mqdefault.jpg","viewCount":"912","playlistId":"PLEkQk5xrP-tlArtGpeLWaqNM7h7IDeAVC","playlistName":"خطب الجمعة أ.د. يسري جبر","category":"خطب"},{"id":"LP7W-reiHMc","title":"حول النبي في ذكرى مولده صلى الله عليه وآله وسلم","publishedAt":"2017-12-15T21:09:53Z","duration":"PT50M57S","thumbnail":"https://i.ytimg.com/vi/LP7W-reiHMc/mqdefault.jpg","viewCount":"383","playlistId":"PLEkQk5xrP-tlArtGpeLWaqNM7h7IDeAVC","playlistName":"خطب الجمعة أ.د. يسري جبر","category":"خطب"},{"id":"58F6l8vVOKQ","title":"أول خطوة إلى الله الأدب مع سيدنا رسول الله صلى الله عليه وآله وسلم","publishedAt":"2017-12-23T07:04:59Z","duration":"PT40M53S","thumbnail":"https://i.ytimg.com/vi/58F6l8vVOKQ/mqdefault.jpg","viewCount":"6261","playlistId":"PLEkQk5xrP-tlArtGpeLWaqNM7h7IDeAVC","playlistName":"خطب الجمعة أ.د. يسري جبر","category":"خطب"},{"id":"j73t_n7tuuM","title":"عبادة الشكر  د. يسري جبر","publishedAt":"2017-12-30T18:45:52Z","duration":"PT32M43S","thumbnail":"https://i.ytimg.com/vi/j73t_n7tuuM/mqdefault.jpg","viewCount":"3726","playlistId":"PLEkQk5xrP-tlArtGpeLWaqNM7h7IDeAVC","playlistName":"خطب الجمعة أ.د. يسري جبر","category":"خطب"},{"id":"GfpG1382sb8","title":"الحكمة في الخلق والتدبير  د. يسري جبر","publishedAt":"2018-01-29T18:41:26Z","duration":"PT29M26S","thumbnail":"https://i.ytimg.com/vi/GfpG1382sb8/mqdefault.jpg","viewCount":"1966","playlistId":"PLEkQk5xrP-tlArtGpeLWaqNM7h7IDeAVC","playlistName":"خطب الجمعة أ.د. يسري جبر","category":"خطب"},{"id":"PYWFnPIpYDY","title":"خُلُقُ الإِيثَارِ  د.يسري جبر","publishedAt":"2018-02-04T21:17:46Z","duration":"PT37M9S","thumbnail":"https://i.ytimg.com/vi/PYWFnPIpYDY/mqdefault.jpg","viewCount":"195","playlistId":"PLEkQk5xrP-tlArtGpeLWaqNM7h7IDeAVC","playlistName":"خطب الجمعة أ.د. يسري جبر","category":"خطب"},{"id":"wXa8LgyBUbs","title":"آفةُ الكِبْرِ وَكَيفِيَّةُ عِلاجِهَا  د.يسري جبر","publishedAt":"2018-02-10T09:15:48Z","duration":"PT32M47S","thumbnail":"https://i.ytimg.com/vi/wXa8LgyBUbs/mqdefault.jpg","viewCount":"1100","playlistId":"PLEkQk5xrP-tlArtGpeLWaqNM7h7IDeAVC","playlistName":"خطب الجمعة أ.د. يسري جبر","category":"خطب"},{"id":"rSYsHnNlFGQ","title":"كُنْ عَابِدا لله عَلى كل حَال د.يسري جبر","publishedAt":"2018-02-18T14:13:34Z","duration":"PT44M51S","thumbnail":"https://i.ytimg.com/vi/rSYsHnNlFGQ/mqdefault.jpg","viewCount":"9447","playlistId":"PLEkQk5xrP-tlArtGpeLWaqNM7h7IDeAVC","playlistName":"خطب الجمعة أ.د. يسري جبر","category":"خطب"},{"id":"rbCQC6pAl-E","title":"يا أَيُّها الَّذِين آمَنُوا إِذَا قُمْتُم إِلى الصَّلاةِ فاغْسِلوا وُجُوهَكم وأيديَكم ..  د.يسري جبر","publishedAt":"2018-02-24T18:20:33Z","duration":"PT39M4S","thumbnail":"https://i.ytimg.com/vi/rbCQC6pAl-E/mqdefault.jpg","viewCount":"567","playlistId":"PLEkQk5xrP-tlArtGpeLWaqNM7h7IDeAVC","playlistName":"خطب الجمعة أ.د. يسري جبر","category":"خطب"},{"id":"sB2lQcrTcto","title":"أحسنُ الناس مَن أسلم وأحسنُ مَن أسلم مَن سَلِم وأحسنُ مَن سَلِم مَن استسلم  د. يسري جبر","publishedAt":"2018-03-03T18:35:51Z","duration":"PT35M45S","thumbnail":"https://i.ytimg.com/vi/sB2lQcrTcto/mqdefault.jpg","viewCount":"570","playlistId":"PLEkQk5xrP-tlArtGpeLWaqNM7h7IDeAVC","playlistName":"خطب الجمعة أ.د. يسري جبر","category":"خطب"},{"id":"8iuXTt1-94Q","title":"حول مولد أمّنا السيدة فاطمة الزهراء البتول رضي الله تعالى عنها وعليها السلام د. يسري جبر","publishedAt":"2018-03-10T21:10:25Z","duration":"PT43M22S","thumbnail":"https://i.ytimg.com/vi/8iuXTt1-94Q/mqdefault.jpg","viewCount":"1034","playlistId":"PLEkQk5xrP-tlArtGpeLWaqNM7h7IDeAVC","playlistName":"خطب الجمعة أ.د. يسري جبر","category":"خطب"},{"id":"er_CzM3RVqU","title":"تفسير سورة الهُمَزَة  د. يسري جبر","publishedAt":"2018-03-17T15:30:04Z","duration":"PT37M5S","thumbnail":"https://i.ytimg.com/vi/er_CzM3RVqU/mqdefault.jpg","viewCount":"996","playlistId":"PLEkQk5xrP-tlArtGpeLWaqNM7h7IDeAVC","playlistName":"خطب الجمعة أ.د. يسري جبر","category":"خطب"},{"id":"v9pHBA_oSWI","title":"نَصَائِحُ رَجَبِيَّة   د. يسري جبر","publishedAt":"2018-03-25T02:45:04Z","duration":"PT29M53S","thumbnail":"https://i.ytimg.com/vi/v9pHBA_oSWI/mqdefault.jpg","viewCount":"5864","playlistId":"PLEkQk5xrP-tlArtGpeLWaqNM7h7IDeAVC","playlistName":"خطب الجمعة أ.د. يسري جبر","category":"خطب"},{"id":"O1LyLHFcGew","title":"ما على المسلم زمن الفتنة  د. يسري جبر","publishedAt":"2018-04-01T14:29:06Z","duration":"PT36M56S","thumbnail":"https://i.ytimg.com/vi/O1LyLHFcGew/mqdefault.jpg","viewCount":"3000","playlistId":"PLEkQk5xrP-tlArtGpeLWaqNM7h7IDeAVC","playlistName":"خطب الجمعة أ.د. يسري جبر","category":"خطب"},{"id":"zaLts1IMcKA","title":"حول معاني سُورة \"التَّكَاثُر\" د. يسري جبر","publishedAt":"2018-04-07T14:39:06Z","duration":"PT41M52S","thumbnail":"https://i.ytimg.com/vi/zaLts1IMcKA/mqdefault.jpg","viewCount":"6352","playlistId":"PLEkQk5xrP-tlArtGpeLWaqNM7h7IDeAVC","playlistName":"خطب الجمعة أ.د. يسري جبر","category":"خطب"},{"id":"H5GyX7Y84kE","title":"أسلحة هذا الزمان لا تصلح للجهاد بالسلاح باسم الإسلام   د. يسري جبر","publishedAt":"2018-05-10T17:32:53Z","duration":"PT47M25S","thumbnail":"https://i.ytimg.com/vi/H5GyX7Y84kE/mqdefault.jpg","viewCount":"2384","playlistId":"PLEkQk5xrP-tlArtGpeLWaqNM7h7IDeAVC","playlistName":"خطب الجمعة أ.د. يسري جبر","category":"خطب"},{"id":"1x1_W05SK-s","title":"فقه الصيام (أحكامه وشروطه وآدابه) د. يسري جبر","publishedAt":"2018-05-15T10:58:52Z","duration":"PT39M53S","thumbnail":"https://i.ytimg.com/vi/1x1_W05SK-s/mqdefault.jpg","viewCount":"1774","playlistId":"PLEkQk5xrP-tlArtGpeLWaqNM7h7IDeAVC","playlistName":"خطب الجمعة أ.د. يسري جبر","category":"خطب"},{"id":"O4tAHZxBUMQ","title":"رمضانيات  د. يسري جبر","publishedAt":"2018-05-19T15:48:04Z","duration":"PT36M5S","thumbnail":"https://i.ytimg.com/vi/O4tAHZxBUMQ/mqdefault.jpg","viewCount":"1078","playlistId":"PLEkQk5xrP-tlArtGpeLWaqNM7h7IDeAVC","playlistName":"خطب الجمعة أ.د. يسري جبر","category":"خطب"},{"id":"96U3BG48zD8","title":"رمضانيات (۲)  د. يسري جبر","publishedAt":"2018-05-27T12:41:52Z","duration":"PT32M22S","thumbnail":"https://i.ytimg.com/vi/96U3BG48zD8/mqdefault.jpg","viewCount":"539","playlistId":"PLEkQk5xrP-tlArtGpeLWaqNM7h7IDeAVC","playlistName":"خطب الجمعة أ.د. يسري جبر","category":"خطب"},{"id":"rL3Gdc4O1R4","title":"رمضانيات (۳) د. يسري جبر","publishedAt":"2018-06-02T00:17:04Z","duration":"PT35M56S","thumbnail":"https://i.ytimg.com/vi/rL3Gdc4O1R4/mqdefault.jpg","viewCount":"478","playlistId":"PLEkQk5xrP-tlArtGpeLWaqNM7h7IDeAVC","playlistName":"خطب الجمعة أ.د. يسري جبر","category":"خطب"},{"id":"juB0rfvYYks","title":"رمضانيات (4) د. يسري جبر","publishedAt":"2018-06-10T16:06:28Z","duration":"PT37M12S","thumbnail":"https://i.ytimg.com/vi/juB0rfvYYks/mqdefault.jpg","viewCount":"294","playlistId":"PLEkQk5xrP-tlArtGpeLWaqNM7h7IDeAVC","playlistName":"خطب الجمعة أ.د. يسري جبر","category":"خطب"},{"id":"zwDOpQeWmPA","title":"سُنَنُ النَّبيِّ صلى الله عليه وآله وسلم في الأزمات   د. يسري جبر","publishedAt":"2018-07-01T08:56:28Z","duration":"PT42M12S","thumbnail":"https://i.ytimg.com/vi/zwDOpQeWmPA/mqdefault.jpg","viewCount":"772","playlistId":"PLEkQk5xrP-tlArtGpeLWaqNM7h7IDeAVC","playlistName":"خطب الجمعة أ.د. يسري جبر","category":"خطب"},{"id":"VpVbDGeR-9E","title":"لا يظِلمُ رَبٌك أحدًا","publishedAt":"2018-07-08T02:05:38Z","duration":"PT36M53S","thumbnail":"https://i.ytimg.com/vi/VpVbDGeR-9E/mqdefault.jpg","viewCount":"900","playlistId":"PLEkQk5xrP-tlArtGpeLWaqNM7h7IDeAVC","playlistName":"خطب الجمعة أ.د. يسري جبر","category":"خطب"}],"total":660,"page":6,"pageSize":24,"totalPages":28}