{"items":[{"id":"Q6fBN_GEy2A","title":"دليلك للمواظبة على صلاتك | مجالس رمضانية","publishedAt":"2025-03-01T15:00:36Z","duration":"PT27M28S","thumbnail":"https://i.ytimg.com/vi/Q6fBN_GEy2A/mqdefault.jpg","viewCount":"2958","playlistId":"PLEkQk5xrP-tkeI_WVPfuoTJO46aVkpaz0","playlistName":"شرح كتاب ميزان الاعتدال لحفظ الدين والأحوال","category":"متنوع"},{"id":"5vnp581FDgs","title":"ما هي درجات أهل التقوى؟ | مجالس رمضانية","publishedAt":"2024-04-07T11:00:06Z","duration":"PT26M16S","thumbnail":"https://i.ytimg.com/vi/5vnp581FDgs/mqdefault.jpg","viewCount":"2869","playlistId":"PLEkQk5xrP-tkeI_WVPfuoTJO46aVkpaz0","playlistName":"شرح كتاب ميزان الاعتدال لحفظ الدين والأحوال","category":"متنوع"},{"id":"GfhSE06wCSg","title":"فضل كثرة السجود وسر القرب من النبي في الجنة | مجالس رمضانية","publishedAt":"2025-03-03T15:00:20Z","duration":"PT20M43S","thumbnail":"https://i.ytimg.com/vi/GfhSE06wCSg/mqdefault.jpg","viewCount":"2849","playlistId":"PLEkQk5xrP-tkeI_WVPfuoTJO46aVkpaz0","playlistName":"شرح كتاب ميزان الاعتدال لحفظ الدين والأحوال","category":"متنوع"},{"id":"sYnGBbTHD0c","title":"الفرق بين الخوف والخشية من الله تعالى | مجالس رمضانية","publishedAt":"2025-03-29T19:00:39Z","duration":"PT35M53S","thumbnail":"https://i.ytimg.com/vi/sYnGBbTHD0c/mqdefault.jpg","viewCount":"2770","playlistId":"PLEkQk5xrP-tkeI_WVPfuoTJO46aVkpaz0","playlistName":"شرح كتاب ميزان الاعتدال لحفظ الدين والأحوال","category":"متنوع"},{"id":"FGzmm9lPeR0","title":"إطعام الطعام مفتاح لدخول الجنة! | مجالس رمضانية","publishedAt":"2025-03-17T15:30:04Z","duration":"PT45M8S","thumbnail":"https://i.ytimg.com/vi/FGzmm9lPeR0/mqdefault.jpg","viewCount":"2672","playlistId":"PLEkQk5xrP-tkeI_WVPfuoTJO46aVkpaz0","playlistName":"شرح كتاب ميزان الاعتدال لحفظ الدين والأحوال","category":"متنوع"},{"id":"M7Q9jUt2gv4","title":"كيف تجعل صلاتك مقبولة عند الله؟ | مجالس رمضانية","publishedAt":"2025-03-06T15:00:32Z","duration":"PT15M15S","thumbnail":"https://i.ytimg.com/vi/M7Q9jUt2gv4/mqdefault.jpg","viewCount":"2471","playlistId":"PLEkQk5xrP-tkeI_WVPfuoTJO46aVkpaz0","playlistName":"شرح كتاب ميزان الاعتدال لحفظ الدين والأحوال","category":"متنوع"},{"id":"DHgrRlIb-3U","title":"أسباب قبول العبادات | مجالس رمضانية","publishedAt":"2025-02-27T17:15:12Z","duration":"PT32M55S","thumbnail":"https://i.ytimg.com/vi/DHgrRlIb-3U/mqdefault.jpg","viewCount":"2324","playlistId":"PLEkQk5xrP-tkeI_WVPfuoTJO46aVkpaz0","playlistName":"شرح كتاب ميزان الاعتدال لحفظ الدين والأحوال","category":"متنوع"},{"id":"rMqs5UZ6ZzE","title":"ما هي صفات الشخص البخيل وكيفية علاجه؟ | مجالس رمضانية","publishedAt":"2025-03-19T15:01:17Z","duration":"PT26M50S","thumbnail":"https://i.ytimg.com/vi/rMqs5UZ6ZzE/mqdefault.jpg","viewCount":"2120","playlistId":"PLEkQk5xrP-tkeI_WVPfuoTJO46aVkpaz0","playlistName":"شرح كتاب ميزان الاعتدال لحفظ الدين والأحوال","category":"متنوع"},{"id":"5BwdhUEgkhI","title":"كيفية الاختلاف مع العلماء | مجالس رمضانية","publishedAt":"2024-04-03T14:30:04Z","duration":"PT34M13S","thumbnail":"https://i.ytimg.com/vi/5BwdhUEgkhI/mqdefault.jpg","viewCount":"2113","playlistId":"PLEkQk5xrP-tkeI_WVPfuoTJO46aVkpaz0","playlistName":"شرح كتاب ميزان الاعتدال لحفظ الدين والأحوال","category":"متنوع"},{"id":"JtYUm3IHLdg","title":"قصص النبي والصحابة مع الإنفاق في سبيل الله | مجالس رمضانية","publishedAt":"2025-03-18T15:00:29Z","duration":"PT29M18S","thumbnail":"https://i.ytimg.com/vi/JtYUm3IHLdg/mqdefault.jpg","viewCount":"2038","playlistId":"PLEkQk5xrP-tkeI_WVPfuoTJO46aVkpaz0","playlistName":"شرح كتاب ميزان الاعتدال لحفظ الدين والأحوال","category":"متنوع"},{"id":"HbTScUzbRws","title":"كيف تكون عبادتنا مقبولة عند الله؟ | مجالس رمضانية","publishedAt":"2025-03-24T15:00:22Z","duration":"PT23M41S","thumbnail":"https://i.ytimg.com/vi/HbTScUzbRws/mqdefault.jpg","viewCount":"1897","playlistId":"PLEkQk5xrP-tkeI_WVPfuoTJO46aVkpaz0","playlistName":"شرح كتاب ميزان الاعتدال لحفظ الدين والأحوال","category":"متنوع"},{"id":"QtD2ClPUbvk","title":"هل يجب التأكد من حاجة الفقير قبل التصدق عليه؟ | مجالس رمضانية","publishedAt":"2025-03-20T15:00:29Z","duration":"PT21M34S","thumbnail":"https://i.ytimg.com/vi/QtD2ClPUbvk/mqdefault.jpg","viewCount":"1864","playlistId":"PLEkQk5xrP-tkeI_WVPfuoTJO46aVkpaz0","playlistName":"شرح كتاب ميزان الاعتدال لحفظ الدين والأحوال","category":"متنوع"},{"id":"3QpWeDl64fw","title":"كيف تختم رمضان بأعلى درجات الصوم؟ | مجالس رمضانية","publishedAt":"2025-03-23T15:00:04Z","duration":"PT17M3S","thumbnail":"https://i.ytimg.com/vi/3QpWeDl64fw/mqdefault.jpg","viewCount":"1799","playlistId":"PLEkQk5xrP-tkeI_WVPfuoTJO46aVkpaz0","playlistName":"شرح كتاب ميزان الاعتدال لحفظ الدين والأحوال","category":"متنوع"},{"id":"U9gsf5B7Shw","title":"لماذا خص الله الصيام بأجر من عنده؟ | مجالس رمضانية","publishedAt":"2025-03-22T15:00:37Z","duration":"PT24M13S","thumbnail":"https://i.ytimg.com/vi/U9gsf5B7Shw/mqdefault.jpg","viewCount":"1574","playlistId":"PLEkQk5xrP-tkeI_WVPfuoTJO46aVkpaz0","playlistName":"شرح كتاب ميزان الاعتدال لحفظ الدين والأحوال","category":"متنوع"},{"id":"njGhMc4ECic","title":"كيف تكون صلاتي مقبولة؟ | مجالس رمضانية","publishedAt":"2025-03-08T15:00:57Z","duration":"PT14M33S","thumbnail":"https://i.ytimg.com/vi/njGhMc4ECic/mqdefault.jpg","viewCount":"1479","playlistId":"PLEkQk5xrP-tkeI_WVPfuoTJO46aVkpaz0","playlistName":"شرح كتاب ميزان الاعتدال لحفظ الدين والأحوال","category":"متنوع"},{"id":"cpFkM74nI5g","title":"فضل وثواب صلاة الجماعة | مجالس رمضانية","publishedAt":"2025-03-09T15:00:50Z","duration":"PT18M55S","thumbnail":"https://i.ytimg.com/vi/cpFkM74nI5g/mqdefault.jpg","viewCount":"1385","playlistId":"PLEkQk5xrP-tkeI_WVPfuoTJO46aVkpaz0","playlistName":"شرح كتاب ميزان الاعتدال لحفظ الدين والأحوال","category":"متنوع"},{"id":"AfdehqiYnIQ","title":"هل صلاة الجمعة تسقط فرض الظهر؟ | مجالس رمضانية","publishedAt":"2025-03-10T15:00:19Z","duration":"PT25M7S","thumbnail":"https://i.ytimg.com/vi/AfdehqiYnIQ/mqdefault.jpg","viewCount":"1296","playlistId":"PLEkQk5xrP-tkeI_WVPfuoTJO46aVkpaz0","playlistName":"شرح كتاب ميزان الاعتدال لحفظ الدين والأحوال","category":"متنوع"},{"id":"MwPpnh2BESc","title":"ما هي أركان الصيام | مجالس رمضانية","publishedAt":"2025-03-21T15:00:27Z","duration":"PT28M11S","thumbnail":"https://i.ytimg.com/vi/MwPpnh2BESc/mqdefault.jpg","viewCount":"1211","playlistId":"PLEkQk5xrP-tkeI_WVPfuoTJO46aVkpaz0","playlistName":"شرح كتاب ميزان الاعتدال لحفظ الدين والأحوال","category":"متنوع"},{"id":"vJsw8uY66QI","title":"كيف سيعاقب الله مانع الزكاة يوم القيامة؟ | مجالس رمضانية","publishedAt":"2025-03-14T15:30:22Z","duration":"PT24M27S","thumbnail":"https://i.ytimg.com/vi/vJsw8uY66QI/mqdefault.jpg","viewCount":"1209","playlistId":"PLEkQk5xrP-tkeI_WVPfuoTJO46aVkpaz0","playlistName":"شرح كتاب ميزان الاعتدال لحفظ الدين والأحوال","category":"متنوع"},{"id":"wbLk-Pv-9B0","title":"متى وكيف تم بناء الكعبة؟ | مجالس رمضانية","publishedAt":"2025-03-27T15:01:20Z","duration":"PT24M36S","thumbnail":"https://i.ytimg.com/vi/wbLk-Pv-9B0/mqdefault.jpg","viewCount":"1164","playlistId":"PLEkQk5xrP-tkeI_WVPfuoTJO46aVkpaz0","playlistName":"شرح كتاب ميزان الاعتدال لحفظ الدين والأحوال","category":"متنوع"},{"id":"6KDDsOOu_f8","title":"ماهى شروط العبادة؟ | مجالس رمضانية","publishedAt":"2025-03-29T15:00:07Z","duration":"PT18M33S","thumbnail":"https://i.ytimg.com/vi/6KDDsOOu_f8/mqdefault.jpg","viewCount":"1041","playlistId":"PLEkQk5xrP-tkeI_WVPfuoTJO46aVkpaz0","playlistName":"شرح كتاب ميزان الاعتدال لحفظ الدين والأحوال","category":"متنوع"},{"id":"nj7BC7Pwpeo","title":"فضل الإنفاق في سبيل الله | مجالس رمضانية","publishedAt":"2025-03-29T10:00:57Z","duration":"PT38M5S","thumbnail":"https://i.ytimg.com/vi/nj7BC7Pwpeo/mqdefault.jpg","viewCount":"933","playlistId":"PLEkQk5xrP-tkeI_WVPfuoTJO46aVkpaz0","playlistName":"شرح كتاب ميزان الاعتدال لحفظ الدين والأحوال","category":"متنوع"},{"id":"ejS0WCOzkAo","title":"كيف يرفع الصيام درجات المؤمن في الجنة؟ | مجالس رمضانية","publishedAt":"2025-03-25T15:00:58Z","duration":"PT15M51S","thumbnail":"https://i.ytimg.com/vi/ejS0WCOzkAo/mqdefault.jpg","viewCount":"924","playlistId":"PLEkQk5xrP-tkeI_WVPfuoTJO46aVkpaz0","playlistName":"شرح كتاب ميزان الاعتدال لحفظ الدين والأحوال","category":"متنوع"},{"id":"BgqSnC5v62U","title":"لو ناوي تحج السنادي فالفيديو ده ليك! | مجالس رمضانية","publishedAt":"2025-03-26T15:00:12Z","duration":"PT22M18S","thumbnail":"https://i.ytimg.com/vi/BgqSnC5v62U/mqdefault.jpg","viewCount":"860","playlistId":"PLEkQk5xrP-tkeI_WVPfuoTJO46aVkpaz0","playlistName":"شرح كتاب ميزان الاعتدال لحفظ الدين والأحوال","category":"متنوع"}],"total":48,"page":2,"pageSize":24,"totalPages":2}