{"items":[{"id":"7ngJ-fHxYOs","title":"كيفية التغلب على النفس الأمارة بالسوء؟ | مجالس رمضانية","publishedAt":"2024-04-08T11:00:06Z","duration":"PT34M43S","thumbnail":"https://i.ytimg.com/vi/7ngJ-fHxYOs/mqdefault.jpg","viewCount":"16224","playlistId":"PLEkQk5xrP-tkeI_WVPfuoTJO46aVkpaz0","playlistName":"شرح كتاب ميزان الاعتدال لحفظ الدين والأحوال","category":"متنوع"},{"id":"7M6v3vdPLOU","title":"كيف تكون أكثر حكمة؟ | مجالس رمضانية","publishedAt":"2024-04-09T11:00:08Z","duration":"PT27M11S","thumbnail":"https://i.ytimg.com/vi/7M6v3vdPLOU/mqdefault.jpg","viewCount":"11803","playlistId":"PLEkQk5xrP-tkeI_WVPfuoTJO46aVkpaz0","playlistName":"شرح كتاب ميزان الاعتدال لحفظ الدين والأحوال","category":"متنوع"},{"id":"FfmepGpEq3Y","title":"صفات الأولياء | مجالس رمضانية","publishedAt":"2024-04-06T11:00:21Z","duration":"PT34M59S","thumbnail":"https://i.ytimg.com/vi/FfmepGpEq3Y/mqdefault.jpg","viewCount":"9540","playlistId":"PLEkQk5xrP-tkeI_WVPfuoTJO46aVkpaz0","playlistName":"شرح كتاب ميزان الاعتدال لحفظ الدين والأحوال","category":"متنوع"},{"id":"2NDIQc7zX2k","title":"خطوات تخلصك من عاداتك السيئة | مجالس رمضانية","publishedAt":"2024-04-08T14:30:01Z","duration":"PT29M40S","thumbnail":"https://i.ytimg.com/vi/2NDIQc7zX2k/mqdefault.jpg","viewCount":"8659","playlistId":"PLEkQk5xrP-tkeI_WVPfuoTJO46aVkpaz0","playlistName":"شرح كتاب ميزان الاعتدال لحفظ الدين والأحوال","category":"متنوع"},{"id":"FxVjt2PO1V4","title":"من هم أولياء ﷲ الصالحين؟ | مجالس رمضانية","publishedAt":"2024-04-09T14:30:07Z","duration":"PT33M56S","thumbnail":"https://i.ytimg.com/vi/FxVjt2PO1V4/mqdefault.jpg","viewCount":"8220","playlistId":"PLEkQk5xrP-tkeI_WVPfuoTJO46aVkpaz0","playlistName":"شرح كتاب ميزان الاعتدال لحفظ الدين والأحوال","category":"متنوع"},{"id":"dgvjTeWwdPg","title":"كيف أصل إلى حب الله والرضا بقضائه؟ | مجالس رمضانية","publishedAt":"2025-03-30T15:00:49Z","duration":"PT28M45S","thumbnail":"https://i.ytimg.com/vi/dgvjTeWwdPg/mqdefault.jpg","viewCount":"7818","playlistId":"PLEkQk5xrP-tkeI_WVPfuoTJO46aVkpaz0","playlistName":"شرح كتاب ميزان الاعتدال لحفظ الدين والأحوال","category":"متنوع"},{"id":"h1pBJGYNex4","title":"كيف أتخلص من التركيز الزائد في أمور الدنيا؟ | مجالس رمضانية","publishedAt":"2025-03-07T15:01:01Z","duration":"PT33M41S","thumbnail":"https://i.ytimg.com/vi/h1pBJGYNex4/mqdefault.jpg","viewCount":"6415","playlistId":"PLEkQk5xrP-tkeI_WVPfuoTJO46aVkpaz0","playlistName":"شرح كتاب ميزان الاعتدال لحفظ الدين والأحوال","category":"متنوع"},{"id":"YCKToSCFGKk","title":"كيف تصل إلى أعلى درجات الإيمان؟ | مجالس رمضانية","publishedAt":"2025-03-15T15:30:11Z","duration":"PT31M22S","thumbnail":"https://i.ytimg.com/vi/YCKToSCFGKk/mqdefault.jpg","viewCount":"6033","playlistId":"PLEkQk5xrP-tkeI_WVPfuoTJO46aVkpaz0","playlistName":"شرح كتاب ميزان الاعتدال لحفظ الدين والأحوال","category":"متنوع"},{"id":"LdYfqYKT_os","title":"كيف تتغلب على وساوس الشيطان؟ | مجالس رمضانية","publishedAt":"2025-03-12T15:30:14Z","duration":"PT33M2S","thumbnail":"https://i.ytimg.com/vi/LdYfqYKT_os/mqdefault.jpg","viewCount":"5988","playlistId":"PLEkQk5xrP-tkeI_WVPfuoTJO46aVkpaz0","playlistName":"شرح كتاب ميزان الاعتدال لحفظ الدين والأحوال","category":"متنوع"},{"id":"XVGvSEfr5WU","title":"تعرف على عجائب الصدقة واثرها في حياتك | مجالس رمضانية","publishedAt":"2025-03-16T15:30:09Z","duration":"PT26M21S","thumbnail":"https://i.ytimg.com/vi/XVGvSEfr5WU/mqdefault.jpg","viewCount":"5699","playlistId":"PLEkQk5xrP-tkeI_WVPfuoTJO46aVkpaz0","playlistName":"شرح كتاب ميزان الاعتدال لحفظ الدين والأحوال","category":"متنوع"},{"id":"bMzpYqzlLaw","title":"كيف تكون من أهل التقوى؟ | مجالس رمضانية","publishedAt":"2024-04-06T14:30:19Z","duration":"PT28M47S","thumbnail":"https://i.ytimg.com/vi/bMzpYqzlLaw/mqdefault.jpg","viewCount":"5219","playlistId":"PLEkQk5xrP-tkeI_WVPfuoTJO46aVkpaz0","playlistName":"شرح كتاب ميزان الاعتدال لحفظ الدين والأحوال","category":"متنوع"},{"id":"tZ24xySBMWc","title":"عبادة تجعلك مستعدًا لدخول الجنة في أي لحظة! | مجالس رمضانية","publishedAt":"2025-03-04T15:01:22Z","duration":"PT22M32S","thumbnail":"https://i.ytimg.com/vi/tZ24xySBMWc/mqdefault.jpg","viewCount":"5069","playlistId":"PLEkQk5xrP-tkeI_WVPfuoTJO46aVkpaz0","playlistName":"شرح كتاب ميزان الاعتدال لحفظ الدين والأحوال","category":"متنوع"},{"id":"PcKjXPlQ3hA","title":"كيف أستحضر النية في جميع الأعمال؟ | مجالس رمضانية","publishedAt":"2024-04-07T14:30:12Z","duration":"PT30M15S","thumbnail":"https://i.ytimg.com/vi/PcKjXPlQ3hA/mqdefault.jpg","viewCount":"4688","playlistId":"PLEkQk5xrP-tkeI_WVPfuoTJO46aVkpaz0","playlistName":"شرح كتاب ميزان الاعتدال لحفظ الدين والأحوال","category":"متنوع"},{"id":"GTFZOl6TJ3g","title":"قبول العبادات | مجالس رمضانية","publishedAt":"2024-04-09T18:00:06Z","duration":"PT41M43S","thumbnail":"https://i.ytimg.com/vi/GTFZOl6TJ3g/mqdefault.jpg","viewCount":"4415","playlistId":"PLEkQk5xrP-tkeI_WVPfuoTJO46aVkpaz0","playlistName":"شرح كتاب ميزان الاعتدال لحفظ الدين والأحوال","category":"متنوع"},{"id":"Md-3rQJRhDQ","title":"ما الفرق بين التوكل والتفويض؟ | مجالس رمضانية","publishedAt":"2025-03-30T19:00:12Z","duration":"PT39M50S","thumbnail":"https://i.ytimg.com/vi/Md-3rQJRhDQ/mqdefault.jpg","viewCount":"4382","playlistId":"PLEkQk5xrP-tkeI_WVPfuoTJO46aVkpaz0","playlistName":"شرح كتاب ميزان الاعتدال لحفظ الدين والأحوال","category":"متنوع"},{"id":"wZ5m8avk_F4","title":"كيف تشكر نعم الله عليك؟ | مجالس رمضانية","publishedAt":"2025-03-11T15:01:24Z","duration":"PT24M23S","thumbnail":"https://i.ytimg.com/vi/wZ5m8avk_F4/mqdefault.jpg","viewCount":"3877","playlistId":"PLEkQk5xrP-tkeI_WVPfuoTJO46aVkpaz0","playlistName":"شرح كتاب ميزان الاعتدال لحفظ الدين والأحوال","category":"متنوع"},{"id":"njEyiDbNXcU","title":"آداب طالب العلم | مجالس رمضانية","publishedAt":"2024-04-03T10:30:15Z","duration":"PT38M3S","thumbnail":"https://i.ytimg.com/vi/njEyiDbNXcU/mqdefault.jpg","viewCount":"3863","playlistId":"PLEkQk5xrP-tkeI_WVPfuoTJO46aVkpaz0","playlistName":"شرح كتاب ميزان الاعتدال لحفظ الدين والأحوال","category":"متنوع"},{"id":"PmbHe3S2cfU","title":"هل يجوز التفاخر بالأنساب؟ | مجالس رمضانية","publishedAt":"2024-04-04T14:30:07Z","duration":"PT31M44S","thumbnail":"https://i.ytimg.com/vi/PmbHe3S2cfU/mqdefault.jpg","viewCount":"3812","playlistId":"PLEkQk5xrP-tkeI_WVPfuoTJO46aVkpaz0","playlistName":"شرح كتاب ميزان الاعتدال لحفظ الدين والأحوال","category":"متنوع"},{"id":"JeAuYap3w-Q","title":"لا أستطيع الخشوع في الصلاة ,, فماذا أفعل؟ | مجالس رمضانية","publishedAt":"2025-03-05T15:00:20Z","duration":"PT20M29S","thumbnail":"https://i.ytimg.com/vi/JeAuYap3w-Q/mqdefault.jpg","viewCount":"3742","playlistId":"PLEkQk5xrP-tkeI_WVPfuoTJO46aVkpaz0","playlistName":"شرح كتاب ميزان الاعتدال لحفظ الدين والأحوال","category":"متنوع"},{"id":"Ah8Gc0tiarI","title":"هل تعرف قدر نبيك ﷺ؟ | مجالس رمضانية","publishedAt":"2024-04-05T11:00:08Z","duration":"PT31M43S","thumbnail":"https://i.ytimg.com/vi/Ah8Gc0tiarI/mqdefault.jpg","viewCount":"3643","playlistId":"PLEkQk5xrP-tkeI_WVPfuoTJO46aVkpaz0","playlistName":"شرح كتاب ميزان الاعتدال لحفظ الدين والأحوال","category":"متنوع"},{"id":"Fg_eRBIY42w","title":"ما أهم مفاتيح الخير وزيادة الرزق؟ | مجالس رمضانية","publishedAt":"2025-03-13T15:30:07Z","duration":"PT27M47S","thumbnail":"https://i.ytimg.com/vi/Fg_eRBIY42w/mqdefault.jpg","viewCount":"3438","playlistId":"PLEkQk5xrP-tkeI_WVPfuoTJO46aVkpaz0","playlistName":"شرح كتاب ميزان الاعتدال لحفظ الدين والأحوال","category":"متنوع"},{"id":"4nEcEUzoRjU","title":"هل يجوز النهى عن المنكر وأنا واقع فيه؟ | مجالس رمضانية","publishedAt":"2024-04-04T10:30:02Z","duration":"PT35M20S","thumbnail":"https://i.ytimg.com/vi/4nEcEUzoRjU/mqdefault.jpg","viewCount":"3391","playlistId":"PLEkQk5xrP-tkeI_WVPfuoTJO46aVkpaz0","playlistName":"شرح كتاب ميزان الاعتدال لحفظ الدين والأحوال","category":"متنوع"},{"id":"WBcW2MWxt8k","title":"ما الفرق بين الإلحاد والكفر؟ | مجالس رمضانية","publishedAt":"2024-04-05T14:30:09Z","duration":"PT43M7S","thumbnail":"https://i.ytimg.com/vi/WBcW2MWxt8k/mqdefault.jpg","viewCount":"3283","playlistId":"PLEkQk5xrP-tkeI_WVPfuoTJO46aVkpaz0","playlistName":"شرح كتاب ميزان الاعتدال لحفظ الدين والأحوال","category":"متنوع"},{"id":"VbG120MA-F4","title":"سنن بسيطة تبني لك بيتا في الجنة | مجالس رمضانية","publishedAt":"2025-03-02T15:00:39Z","duration":"PT21M47S","thumbnail":"https://i.ytimg.com/vi/VbG120MA-F4/mqdefault.jpg","viewCount":"3052","playlistId":"PLEkQk5xrP-tkeI_WVPfuoTJO46aVkpaz0","playlistName":"شرح كتاب ميزان الاعتدال لحفظ الدين والأحوال","category":"متنوع"}],"total":48,"page":1,"pageSize":24,"totalPages":2}