{"items":[{"id":"Ur_cX3z-yQs","title":"أهمية التقويم الهجري في حياتنا وما هي الصلاة الوسطى؟","publishedAt":"2025-06-24T16:00:48Z","duration":"PT9M4S","thumbnail":"https://i.ytimg.com/vi/Ur_cX3z-yQs/mqdefault.jpg","viewCount":"1995","playlistId":"PLEkQk5xrP-tkGXuZ9atE3k_7it12rUPTs","playlistName":"أسئلة المتابعين","category":"متنوع"},{"id":"x5ojFfZH_xc","title":"كيف أتغلب على ضعف الهمة والفتور في العبادة؟","publishedAt":"2025-07-01T18:12:59Z","duration":"PT12M22S","thumbnail":"https://i.ytimg.com/vi/x5ojFfZH_xc/mqdefault.jpg","viewCount":"9547","playlistId":"PLEkQk5xrP-tkGXuZ9atE3k_7it12rUPTs","playlistName":"أسئلة المتابعين","category":"متنوع"},{"id":"RzbT6icmoPM","title":"أنا زهقان وحاسس أني مش مستمتع بالحياة ,, فماذا أفعل؟","publishedAt":"2025-07-07T19:03:22Z","duration":"PT8M17S","thumbnail":"https://i.ytimg.com/vi/RzbT6icmoPM/mqdefault.jpg","viewCount":"6994","playlistId":"PLEkQk5xrP-tkGXuZ9atE3k_7it12rUPTs","playlistName":"أسئلة المتابعين","category":"متنوع"},{"id":"6T4cr5in24M","title":"أنا عندي وسواس في الطهارة وحاسس أن صلاتي مش مقبولة ,, فماذا أفعل ؟","publishedAt":"2025-07-10T18:15:00Z","duration":"PT8M48S","thumbnail":"https://i.ytimg.com/vi/6T4cr5in24M/mqdefault.jpg","viewCount":"2345","playlistId":"PLEkQk5xrP-tkGXuZ9atE3k_7it12rUPTs","playlistName":"أسئلة المتابعين","category":"متنوع"},{"id":"zrymLO-sNrs","title":"ليه المجتمع شايف ماضي الست عار وماضي الراجل تجربة؟","publishedAt":"2025-07-22T17:01:29Z","duration":"PT10M2S","thumbnail":"https://i.ytimg.com/vi/zrymLO-sNrs/mqdefault.jpg","viewCount":"4044","playlistId":"PLEkQk5xrP-tkGXuZ9atE3k_7it12rUPTs","playlistName":"أسئلة المتابعين","category":"متنوع"},{"id":"BchcO_TubYA","title":"لكل شاب مقبل على الزواج ,, دي الحاجات اللي لازم تعرفها!","publishedAt":"2025-07-23T18:15:00Z","duration":"PT15M32S","thumbnail":"https://i.ytimg.com/vi/BchcO_TubYA/mqdefault.jpg","viewCount":"4520","playlistId":"PLEkQk5xrP-tkGXuZ9atE3k_7it12rUPTs","playlistName":"أسئلة المتابعين","category":"متنوع"},{"id":"GHWlfN_BXhk","title":"هل من حقي الدعاء على من ظلمني؟","publishedAt":"2025-07-25T17:15:01Z","duration":"PT8M29S","thumbnail":"https://i.ytimg.com/vi/GHWlfN_BXhk/mqdefault.jpg","viewCount":"3127","playlistId":"PLEkQk5xrP-tkGXuZ9atE3k_7it12rUPTs","playlistName":"أسئلة المتابعين","category":"متنوع"},{"id":"rjgZU3tYsio","title":"هل الكشف حقيقة أم خيال من النفس؟","publishedAt":"2025-07-27T18:31:14Z","duration":"PT11M43S","thumbnail":"https://i.ytimg.com/vi/rjgZU3tYsio/mqdefault.jpg","viewCount":"13644","playlistId":"PLEkQk5xrP-tkGXuZ9atE3k_7it12rUPTs","playlistName":"أسئلة المتابعين","category":"متنوع"},{"id":"n_v3dvJl3Ek","title":"كيف تبدأ طلب العلم الشرعي خطوة بخطوة؟","publishedAt":"2025-07-28T18:15:08Z","duration":"PT8M22S","thumbnail":"https://i.ytimg.com/vi/n_v3dvJl3Ek/mqdefault.jpg","viewCount":"2705","playlistId":"PLEkQk5xrP-tkGXuZ9atE3k_7it12rUPTs","playlistName":"أسئلة المتابعين","category":"متنوع"},{"id":"tq41bTmuplU","title":"كيف نفهم صفات الله مثل اليد وغيرها بلا تجسيم أو تشبيه؟","publishedAt":"2025-08-02T18:31:08Z","duration":"PT9M22S","thumbnail":"https://i.ytimg.com/vi/tq41bTmuplU/mqdefault.jpg","viewCount":"1929","playlistId":"PLEkQk5xrP-tkGXuZ9atE3k_7it12rUPTs","playlistName":"أسئلة المتابعين","category":"متنوع"},{"id":"YTX7be3sk_4","title":"هل أدعي ربنا بكل حاجة حتى لو كانت مستحيلة؟","publishedAt":"2025-08-04T18:15:02Z","duration":"PT9M11S","thumbnail":"https://i.ytimg.com/vi/YTX7be3sk_4/mqdefault.jpg","viewCount":"5818","playlistId":"PLEkQk5xrP-tkGXuZ9atE3k_7it12rUPTs","playlistName":"أسئلة المتابعين","category":"متنوع"},{"id":"RpnQzYuRtQ8","title":"كيف أصل إلى السلام النفسي في حياتي؟","publishedAt":"2025-08-17T18:00:17Z","duration":"PT9M7S","thumbnail":"https://i.ytimg.com/vi/RpnQzYuRtQ8/mqdefault.jpg","viewCount":"4313","playlistId":"PLEkQk5xrP-tkGXuZ9atE3k_7it12rUPTs","playlistName":"أسئلة المتابعين","category":"متنوع"},{"id":"5hECAoOzTM0","title":"ازاي أتغلب على نفسي الأمارة بالسوء؟","publishedAt":"2025-08-20T17:00:17Z","duration":"PT8M49S","thumbnail":"https://i.ytimg.com/vi/5hECAoOzTM0/mqdefault.jpg","viewCount":"2680","playlistId":"PLEkQk5xrP-tkGXuZ9atE3k_7it12rUPTs","playlistName":"أسئلة المتابعين","category":"متنوع"},{"id":"bBr6AONS2VQ","title":"ما حدود الكلام والشات بين الشباب والفتيات قبل الزواج؟","publishedAt":"2025-08-27T18:00:39Z","duration":"PT8M9S","thumbnail":"https://i.ytimg.com/vi/bBr6AONS2VQ/mqdefault.jpg","viewCount":"5993","playlistId":"PLEkQk5xrP-tkGXuZ9atE3k_7it12rUPTs","playlistName":"أسئلة المتابعين","category":"متنوع"},{"id":"6H8JkUyksRg","title":"عندي مشكلة في نومي ولا أستطيع الاستيقاظ للفجر فماذا أفعل؟","publishedAt":"2025-08-28T18:06:30Z","duration":"PT9M8S","thumbnail":"https://i.ytimg.com/vi/6H8JkUyksRg/mqdefault.jpg","viewCount":"4272","playlistId":"PLEkQk5xrP-tkGXuZ9atE3k_7it12rUPTs","playlistName":"أسئلة المتابعين","category":"متنوع"},{"id":"oFj_QOX27TQ","title":"ازاي تكسر الرهبة والخوف عند مواجهة الناس؟","publishedAt":"2025-08-30T18:14:59Z","duration":"PT11M10S","thumbnail":"https://i.ytimg.com/vi/oFj_QOX27TQ/mqdefault.jpg","viewCount":"4244","playlistId":"PLEkQk5xrP-tkGXuZ9atE3k_7it12rUPTs","playlistName":"أسئلة المتابعين","category":"متنوع"},{"id":"SIFdaGB65AI","title":"ما حكم زيارة مقامات آل البيت والصالحين؟","publishedAt":"2025-08-31T18:50:17Z","duration":"PT8M13S","thumbnail":"https://i.ytimg.com/vi/SIFdaGB65AI/mqdefault.jpg","viewCount":"1664","playlistId":"PLEkQk5xrP-tkGXuZ9atE3k_7it12rUPTs","playlistName":"أسئلة المتابعين","category":"متنوع"},{"id":"obWIJXaJmvo","title":"ما حكم تجسس الزوجة على هاتف زوجها؟","publishedAt":"2025-09-01T19:00:46Z","duration":"PT9M30S","thumbnail":"https://i.ytimg.com/vi/obWIJXaJmvo/mqdefault.jpg","viewCount":"2638","playlistId":"PLEkQk5xrP-tkGXuZ9atE3k_7it12rUPTs","playlistName":"أسئلة المتابعين","category":"متنوع"},{"id":"8ZNe06qNKG0","title":"هل يجوز قراءة روايات الخيال والسفر بالزمن؟","publishedAt":"2025-09-09T19:30:00Z","duration":"PT9M26S","thumbnail":"https://i.ytimg.com/vi/8ZNe06qNKG0/mqdefault.jpg","viewCount":"2224","playlistId":"PLEkQk5xrP-tkGXuZ9atE3k_7it12rUPTs","playlistName":"أسئلة المتابعين","category":"متنوع"},{"id":"gKZYc3GWVJA","title":"ما حكم الكلام أثناء خطبة الجمعة؟","publishedAt":"2025-10-03T18:00:31Z","duration":"PT11M33S","thumbnail":"https://i.ytimg.com/vi/gKZYc3GWVJA/mqdefault.jpg","viewCount":"947","playlistId":"PLEkQk5xrP-tkGXuZ9atE3k_7it12rUPTs","playlistName":"أسئلة المتابعين","category":"متنوع"},{"id":"SRHCgzLohGc","title":"كيف أتخلص من الأرق المستمر ومشاكل النوم؟","publishedAt":"2025-10-16T17:30:07Z","duration":"PT8M1S","thumbnail":"https://i.ytimg.com/vi/SRHCgzLohGc/mqdefault.jpg","viewCount":"1909","playlistId":"PLEkQk5xrP-tkGXuZ9atE3k_7it12rUPTs","playlistName":"أسئلة المتابعين","category":"متنوع"},{"id":"qPDifLQxYY0","title":"حاجات بنعملها بتفسد التوازن اللي ربنا خلقه في الأرض!","publishedAt":"2025-10-23T18:30:05Z","duration":"PT16M44S","thumbnail":"https://i.ytimg.com/vi/qPDifLQxYY0/mqdefault.jpg","viewCount":"1758","playlistId":"PLEkQk5xrP-tkGXuZ9atE3k_7it12rUPTs","playlistName":"أسئلة المتابعين","category":"متنوع"},{"id":"2Y0QGnJH6HA","title":"اعمل ايه لو اكتشفت إن زوجتي بتخوني مع شخص آخر؟","publishedAt":"2025-11-26T19:30:00Z","duration":"PT10M11S","thumbnail":"https://i.ytimg.com/vi/2Y0QGnJH6HA/mqdefault.jpg","viewCount":"3236","playlistId":"PLEkQk5xrP-tkGXuZ9atE3k_7it12rUPTs","playlistName":"أسئلة المتابعين","category":"متنوع"}],"total":335,"page":14,"pageSize":24,"totalPages":14}