{"items":[{"id":"zahhbECU8Jk","title":"العُمدةُ قي شرحِ البُردةِ - المجلس الثالث","publishedAt":"2020-05-15T23:00:11Z","duration":"PT54M41S","thumbnail":"https://i.ytimg.com/vi/zahhbECU8Jk/mqdefault.jpg","viewCount":"1557","playlistId":"PLEkQk5xrP-tmobcu_1bgkLNfeJXVsmjFZ","playlistName":"شرح بردة الإمام البوصيري أ.د/ يسري جبر","category":"ردود"},{"id":"ronsJF0mUx4","title":"العُمدةُ قي شرحِ البُردةِ - المجلس الرابع","publishedAt":"2020-05-16T23:00:10Z","duration":"PT43M51S","thumbnail":"https://i.ytimg.com/vi/ronsJF0mUx4/mqdefault.jpg","viewCount":"1387","playlistId":"PLEkQk5xrP-tmobcu_1bgkLNfeJXVsmjFZ","playlistName":"شرح بردة الإمام البوصيري أ.د/ يسري جبر","category":"ردود"},{"id":"w0m1xpt7jfc","title":"لو قال النبي لا تحتفلوا بيوم مولدي لاحتفلنا! هل أخطأ د. يسري جبر؟| وعي","publishedAt":"2023-05-29T18:59:29Z","duration":"PT2M4S","thumbnail":"https://i.ytimg.com/vi/w0m1xpt7jfc/mqdefault.jpg","viewCount":"7204","playlistId":"PLEkQk5xrP-tlG4r6Zxis5AqEnE9aNyJdV","playlistName":"الرد على المعترضين على د. يسري جبر","category":"ردود"},{"id":"OMTO_tj99fs","title":"ردا على الفيديو المقتطع (العبد رب والرب عبد)","publishedAt":"2024-03-11T15:38:22Z","duration":"PT3M14S","thumbnail":"https://i.ytimg.com/vi/OMTO_tj99fs/mqdefault.jpg","viewCount":"739","playlistId":"PLEkQk5xrP-tlG4r6Zxis5AqEnE9aNyJdV","playlistName":"الرد على المعترضين على د. يسري جبر","category":"ردود"},{"id":"xhfq3sjKjRk","title":"لولا الأنبياء لما اهتديت | ردا على الفيديو المقتطع لسيدي أبو الحسن الشاذلي","publishedAt":"2024-03-13T12:11:53Z","duration":"PT1M35S","thumbnail":"https://i.ytimg.com/vi/xhfq3sjKjRk/mqdefault.jpg","viewCount":"319","playlistId":"PLEkQk5xrP-tlG4r6Zxis5AqEnE9aNyJdV","playlistName":"الرد على المعترضين على د. يسري جبر","category":"ردود"}],"total":29,"page":2,"pageSize":24,"totalPages":2}