{"items":[{"id":"Jp3u8BQzgAw","title":"215- مُشْكِله ومُوهِم الاختلاف والتناقض - شرح الإتقان في علوم القرآن","publishedAt":"2024-03-05T06:30:04Z","duration":"PT27M22S","thumbnail":"https://i.ytimg.com/vi/Jp3u8BQzgAw/mqdefault.jpg","viewCount":"909","playlistId":"PLEkQk5xrP-tlPw10KGJKagu7zm4Ry2Tge","playlistName":"شرح الإتقان في علوم القرآن","category":"تفسير"},{"id":"c5uKQKw3RY4","title":"115- الأدوات التي يحتاج إليها المُفَسِّر - شرح الإتقان في علوم القرآن","publishedAt":"2023-07-02T05:00:26Z","duration":"PT27M39S","thumbnail":"https://i.ytimg.com/vi/c5uKQKw3RY4/mqdefault.jpg","viewCount":"909","playlistId":"PLEkQk5xrP-tlPw10KGJKagu7zm4Ry2Tge","playlistName":"شرح الإتقان في علوم القرآن","category":"تفسير"},{"id":"hP8iemeWsMA","title":"التَّعَدُّدِيَّة - شرح البرهان في علوم القرآن","publishedAt":"2022-03-06T06:48:01Z","duration":"PT26M28S","thumbnail":"https://i.ytimg.com/vi/hP8iemeWsMA/mqdefault.jpg","viewCount":"907","playlistId":"PLEkQk5xrP-tnW3iBL7HkKziOFCFZbTlf0","playlistName":"شرح البرهان في علوم القرآن - أ.د. يسري جبر","category":"تفسير"},{"id":"o3ePvH7AmFw","title":"تقديم الظلمة على النور والليل على النهار - تكملة أنواع التقديم والتأخير  شرح البرهان في علوم القرآن","publishedAt":"2021-09-16T06:30:35Z","duration":"PT27M10S","thumbnail":"https://i.ytimg.com/vi/o3ePvH7AmFw/mqdefault.jpg","viewCount":"904","playlistId":"PLEkQk5xrP-tnW3iBL7HkKziOFCFZbTlf0","playlistName":"شرح البرهان في علوم القرآن - أ.د. يسري جبر","category":"تفسير"},{"id":"hub_eZe3L1Q","title":"170- كيفية إعراب القرآن وأنواعه وشروطه - شرح الإتقان في علوم القرآن","publishedAt":"2023-11-15T06:37:31Z","duration":"PT32M48S","thumbnail":"https://i.ytimg.com/vi/hub_eZe3L1Q/mqdefault.jpg","viewCount":"902","playlistId":"PLEkQk5xrP-tlPw10KGJKagu7zm4Ry2Tge","playlistName":"شرح الإتقان في علوم القرآن","category":"تفسير"},{"id":"zUBmspEmWLA","title":"288- مراتب تأليف الكلام - شرح الإتقان في علوم القرآن","publishedAt":"2025-04-08T10:01:21Z","duration":"PT33M2S","thumbnail":"https://i.ytimg.com/vi/zUBmspEmWLA/mqdefault.jpg","viewCount":"901","playlistId":"PLEkQk5xrP-tlPw10KGJKagu7zm4Ry2Tge","playlistName":"شرح الإتقان في علوم القرآن","category":"تفسير"},{"id":"wrWHcpijO30","title":"شرح البرهان في علوم القرآن - النوع ٦ - علم المبهمات - تنبيهات","publishedAt":"2019-09-23T21:09:59Z","duration":"PT22M3S","thumbnail":"https://i.ytimg.com/vi/wrWHcpijO30/mqdefault.jpg","viewCount":"900","playlistId":"PLEkQk5xrP-tnW3iBL7HkKziOFCFZbTlf0","playlistName":"شرح البرهان في علوم القرآن - أ.د. يسري جبر","category":"تفسير"},{"id":"kFzV8BytyGY","title":"45- السبع الطوال - شرح الإتقان في علوم القرآن","publishedAt":"2023-03-30T05:00:30Z","duration":"PT27M13S","thumbnail":"https://i.ytimg.com/vi/kFzV8BytyGY/mqdefault.jpg","viewCount":"897","playlistId":"PLEkQk5xrP-tlPw10KGJKagu7zm4Ry2Tge","playlistName":"شرح الإتقان في علوم القرآن","category":"تفسير"},{"id":"CA9teS8tWFw","title":"12- ما نزل بمكَّة وحكمه مدني - شرح الإتقان في علوم القرآن","publishedAt":"2023-01-19T05:00:04Z","duration":"PT13M12S","thumbnail":"https://i.ytimg.com/vi/CA9teS8tWFw/mqdefault.jpg","viewCount":"896","playlistId":"PLEkQk5xrP-tlPw10KGJKagu7zm4Ry2Tge","playlistName":"شرح الإتقان في علوم القرآن","category":"تفسير"},{"id":"hsPp16Dgsxw","title":"شرح كتاب الإشارات الزروقيّة علی الآيات القرآنية - المجلس السابع","publishedAt":"2018-06-29T09:13:28Z","duration":"PT1H3M38S","thumbnail":"https://i.ytimg.com/vi/hsPp16Dgsxw/mqdefault.jpg","viewCount":"891","playlistId":"PLEkQk5xrP-tl1OLT5J2vthcf9QHpjNkWx","playlistName":"شرح كتاب الإشارات الزروقيّة علی الآيات القرآنية  د. يسري جبر","category":"تفسير"},{"id":"AmT6_OBYXbc","title":"102- ما وقع في القرآن بغير لغة الحجاز - شرح الإتقان في علوم القرآن","publishedAt":"2023-06-15T05:01:00Z","duration":"PT12M23S","thumbnail":"https://i.ytimg.com/vi/AmT6_OBYXbc/mqdefault.jpg","viewCount":"890","playlistId":"PLEkQk5xrP-tlPw10KGJKagu7zm4Ry2Tge","playlistName":"شرح الإتقان في علوم القرآن","category":"تفسير"},{"id":"apEZgOxrEck","title":"76- فائدة في كيفية تلقّي القرآن (3) - شرح الإتقان في علوم القرآن","publishedAt":"2023-05-20T05:00:01Z","duration":"PT30M4S","thumbnail":"https://i.ytimg.com/vi/apEZgOxrEck/mqdefault.jpg","viewCount":"890","playlistId":"PLEkQk5xrP-tlPw10KGJKagu7zm4Ry2Tge","playlistName":"شرح الإتقان في علوم القرآن","category":"تفسير"},{"id":"VfXysW24T_g","title":"280- فواتح السور - شرح الإتقان في علوم القرآن","publishedAt":"2025-01-18T06:30:10Z","duration":"PT22M19S","thumbnail":"https://i.ytimg.com/vi/VfXysW24T_g/mqdefault.jpg","viewCount":"890","playlistId":"PLEkQk5xrP-tlPw10KGJKagu7zm4Ry2Tge","playlistName":"شرح الإتقان في علوم القرآن","category":"تفسير"},{"id":"peYjM5vfghg","title":"508- التعريف والتنكير - شرح البرهان في علوم القرآن","publishedAt":"2022-05-15T07:15:03Z","duration":"PT52M10S","thumbnail":"https://i.ytimg.com/vi/peYjM5vfghg/mqdefault.jpg","viewCount":"887","playlistId":"PLEkQk5xrP-tnW3iBL7HkKziOFCFZbTlf0","playlistName":"شرح البرهان في علوم القرآن - أ.د. يسري جبر","category":"تفسير"},{"id":"btJHDoVkllg","title":"80- كيفية قراءة التَّدَبُّر - آداب تلاوة القرآن (4) - شرح الإتقان في علوم القرآن","publishedAt":"2023-05-26T05:00:18Z","duration":"PT24M59S","thumbnail":"https://i.ytimg.com/vi/btJHDoVkllg/mqdefault.jpg","viewCount":"882","playlistId":"PLEkQk5xrP-tlPw10KGJKagu7zm4Ry2Tge","playlistName":"شرح الإتقان في علوم القرآن","category":"تفسير"},{"id":"jWvwvT9j6-4","title":"التعبير عن المستقبل بلفظ الماضي وعكسه - شرح البرهان في علوم القرآن","publishedAt":"2021-12-22T07:15:55Z","duration":"PT17M55S","thumbnail":"https://i.ytimg.com/vi/jWvwvT9j6-4/mqdefault.jpg","viewCount":"882","playlistId":"PLEkQk5xrP-tnW3iBL7HkKziOFCFZbTlf0","playlistName":"شرح البرهان في علوم القرآن - أ.د. يسري جبر","category":"تفسير"},{"id":"B3Z-7x7eG6M","title":"503- النَّفي بين الْكَلَامَيْنِ يفيد الإخبار  - شرح البرهان في علوم القرآن","publishedAt":"2022-05-08T05:00:02Z","duration":"PT30M9S","thumbnail":"https://i.ytimg.com/vi/B3Z-7x7eG6M/mqdefault.jpg","viewCount":"881","playlistId":"PLEkQk5xrP-tnW3iBL7HkKziOFCFZbTlf0","playlistName":"شرح البرهان في علوم القرآن - أ.د. يسري جبر","category":"تفسير"},{"id":"VySH166-xxU","title":"208- المُجْمَل والمُبَيَّن - شرح الإتقان في علوم القرآن","publishedAt":"2024-02-14T06:36:43Z","duration":"PT33M14S","thumbnail":"https://i.ytimg.com/vi/VySH166-xxU/mqdefault.jpg","viewCount":"881","playlistId":"PLEkQk5xrP-tlPw10KGJKagu7zm4Ry2Tge","playlistName":"شرح الإتقان في علوم القرآن","category":"تفسير"},{"id":"80rpmTWfss8","title":"بيان حقيقته ومجازه","publishedAt":"2020-10-09T05:28:25Z","duration":"PT30M52S","thumbnail":"https://i.ytimg.com/vi/80rpmTWfss8/mqdefault.jpg","viewCount":"879","playlistId":"PLEkQk5xrP-tnW3iBL7HkKziOFCFZbTlf0","playlistName":"شرح البرهان في علوم القرآن - أ.د. يسري جبر","category":"تفسير"},{"id":"QG5do8rvqXc","title":"55- تنبيهات - شرح الإتقان في علوم القرآن","publishedAt":"2023-04-28T05:00:16Z","duration":"PT37M56S","thumbnail":"https://i.ytimg.com/vi/QG5do8rvqXc/mqdefault.jpg","viewCount":"878","playlistId":"PLEkQk5xrP-tlPw10KGJKagu7zm4Ry2Tge","playlistName":"شرح الإتقان في علوم القرآن","category":"تفسير"},{"id":"D9hmxJG40mk","title":"164- معنى (ماذا) - شرح الإتقان في علوم القرآن","publishedAt":"2023-10-24T05:45:00Z","duration":"PT25M28S","thumbnail":"https://i.ytimg.com/vi/D9hmxJG40mk/mqdefault.jpg","viewCount":"877","playlistId":"PLEkQk5xrP-tlPw10KGJKagu7zm4Ry2Tge","playlistName":"شرح الإتقان في علوم القرآن","category":"تفسير"},{"id":"eO1d7gLTO70","title":"مُقَابَلَةُ الجَمْعِ بالجَمْعِ - شرح البرهان في علوم القرآن","publishedAt":"2022-03-08T06:42:54Z","duration":"PT12M15S","thumbnail":"https://i.ytimg.com/vi/eO1d7gLTO70/mqdefault.jpg","viewCount":"877","playlistId":"PLEkQk5xrP-tnW3iBL7HkKziOFCFZbTlf0","playlistName":"شرح البرهان في علوم القرآن - أ.د. يسري جبر","category":"تفسير"},{"id":"zdiGDF0SOQc","title":"214- ما نُسِخَ تلاوته دون حُكْمِه - شرح الإتقان في علوم القرآن","publishedAt":"2024-02-29T06:30:26Z","duration":"PT29M54S","thumbnail":"https://i.ytimg.com/vi/zdiGDF0SOQc/mqdefault.jpg","viewCount":"873","playlistId":"PLEkQk5xrP-tlPw10KGJKagu7zm4Ry2Tge","playlistName":"شرح الإتقان في علوم القرآن","category":"تفسير"},{"id":"4pCB164dK-w","title":"شرح البرهان في علوم القرآن - النوع ٥ - علم المتشابه ٣","publishedAt":"2019-09-14T18:35:32Z","duration":"PT23M29S","thumbnail":"https://i.ytimg.com/vi/4pCB164dK-w/mqdefault.jpg","viewCount":"873","playlistId":"PLEkQk5xrP-tnW3iBL7HkKziOFCFZbTlf0","playlistName":"شرح البرهان في علوم القرآن - أ.د. يسري جبر","category":"تفسير"}],"total":1096,"page":8,"pageSize":24,"totalPages":46}