{"items":[{"id":"9U7EBDL0LB8","title":"قراءة القرآن (من آية ٧ سورة المجادلة)","publishedAt":"2016-01-14T10:46:56Z","duration":"PT14M38S","thumbnail":"https://i.ytimg.com/vi/9U7EBDL0LB8/mqdefault.jpg","viewCount":"99","playlistId":"PLEkQk5xrP-tnUSUj0uyJhA-kwNC7Gkx_j","playlistName":"مقرأة الفجر - بداية من سورة الإسراء حتى سورة الناس","category":"تفسير"},{"id":"1Ub0SDKsIXc","title":"قراءة القرآن ( من آية 15 سورة فاطر)","publishedAt":"2015-08-17T03:52:05Z","duration":"PT20M16S","thumbnail":"https://i.ytimg.com/vi/1Ub0SDKsIXc/mqdefault.jpg","viewCount":"98","playlistId":"PLEkQk5xrP-tnUSUj0uyJhA-kwNC7Gkx_j","playlistName":"مقرأة الفجر - بداية من سورة الإسراء حتى سورة الناس","category":"تفسير"},{"id":"fgihPinq3Fk","title":"قراءة القرآن (من أول سورة القيامة)","publishedAt":"2016-03-01T08:39:35Z","duration":"PT22M1S","thumbnail":"https://i.ytimg.com/vi/fgihPinq3Fk/mqdefault.jpg","viewCount":"98","playlistId":"PLEkQk5xrP-tnUSUj0uyJhA-kwNC7Gkx_j","playlistName":"مقرأة الفجر - بداية من سورة الإسراء حتى سورة الناس","category":"تفسير"},{"id":"Q-crMFYO3Yc","title":"قراءة القرآن (من أول سورة التكاثر)","publishedAt":"2016-04-06T02:39:27Z","duration":"PT11M4S","thumbnail":"https://i.ytimg.com/vi/Q-crMFYO3Yc/mqdefault.jpg","viewCount":"97","playlistId":"PLEkQk5xrP-tnUSUj0uyJhA-kwNC7Gkx_j","playlistName":"مقرأة الفجر - بداية من سورة الإسراء حتى سورة الناس","category":"تفسير"},{"id":"pO3kb8IABnc","title":"قراءة القرآن (من أول سورة الليل)","publishedAt":"2016-03-26T21:33:45Z","duration":"PT12M32S","thumbnail":"https://i.ytimg.com/vi/pO3kb8IABnc/mqdefault.jpg","viewCount":"96","playlistId":"PLEkQk5xrP-tnUSUj0uyJhA-kwNC7Gkx_j","playlistName":"مقرأة الفجر - بداية من سورة الإسراء حتى سورة الناس","category":"تفسير"},{"id":"8NLMoRdobI8","title":"قراءة القرآن (من أول سورة النمل)","publishedAt":"2015-07-05T03:26:00Z","duration":"PT18M52S","thumbnail":"https://i.ytimg.com/vi/8NLMoRdobI8/mqdefault.jpg","viewCount":"94","playlistId":"PLEkQk5xrP-tnUSUj0uyJhA-kwNC7Gkx_j","playlistName":"مقرأة الفجر - بداية من سورة الإسراء حتى سورة الناس","category":"تفسير"},{"id":"GKu4ua4yu5U","title":"قراءة القرآن (من آية 35 سورة الأحزاب)","publishedAt":"2015-08-09T03:35:54Z","duration":"PT11M11S","thumbnail":"https://i.ytimg.com/vi/GKu4ua4yu5U/mqdefault.jpg","viewCount":"93","playlistId":"PLEkQk5xrP-tnUSUj0uyJhA-kwNC7Gkx_j","playlistName":"مقرأة الفجر - بداية من سورة الإسراء حتى سورة الناس","category":"تفسير"},{"id":"xkp_ySkWilM","title":"قراءة القرآن (من آية ١٤ سورة المجادلة)","publishedAt":"2016-01-15T07:34:50Z","duration":"PT21M25S","thumbnail":"https://i.ytimg.com/vi/xkp_ySkWilM/mqdefault.jpg","viewCount":"92","playlistId":"PLEkQk5xrP-tnUSUj0uyJhA-kwNC7Gkx_j","playlistName":"مقرأة الفجر - بداية من سورة الإسراء حتى سورة الناس","category":"تفسير"},{"id":"keMosDU-6E8","title":"قراءة القرآن (من أول سورة الروم)","publishedAt":"2015-07-26T03:48:41Z","duration":"PT30M37S","thumbnail":"https://i.ytimg.com/vi/keMosDU-6E8/mqdefault.jpg","viewCount":"92","playlistId":"PLEkQk5xrP-tnUSUj0uyJhA-kwNC7Gkx_j","playlistName":"مقرأة الفجر - بداية من سورة الإسراء حتى سورة الناس","category":"تفسير"},{"id":"UOIs7Rt8UNA","title":"قراءة القرآن (من أول سورة المدثر)","publishedAt":"2016-02-29T08:47:20Z","duration":"PT31M54S","thumbnail":"https://i.ytimg.com/vi/UOIs7Rt8UNA/mqdefault.jpg","viewCount":"92","playlistId":"PLEkQk5xrP-tnUSUj0uyJhA-kwNC7Gkx_j","playlistName":"مقرأة الفجر - بداية من سورة الإسراء حتى سورة الناس","category":"تفسير"},{"id":"Tx3rtrzFfzQ","title":"قراءة القرآن ( من أول سورة الصافات)","publishedAt":"2015-08-22T03:59:12Z","duration":"PT20M31S","thumbnail":"https://i.ytimg.com/vi/Tx3rtrzFfzQ/mqdefault.jpg","viewCount":"92","playlistId":"PLEkQk5xrP-tnUSUj0uyJhA-kwNC7Gkx_j","playlistName":"مقرأة الفجر - بداية من سورة الإسراء حتى سورة الناس","category":"تفسير"},{"id":"1k9PrNTzn14","title":"قراءة القرآن (من آية 51 سورة القصص)","publishedAt":"2015-07-12T03:41:33Z","duration":"PT8M26S","thumbnail":"https://i.ytimg.com/vi/1k9PrNTzn14/mqdefault.jpg","viewCount":"91","playlistId":"PLEkQk5xrP-tnUSUj0uyJhA-kwNC7Gkx_j","playlistName":"مقرأة الفجر - بداية من سورة الإسراء حتى سورة الناس","category":"تفسير"},{"id":"Z0gwqgX7pX8","title":"قراءة القرآن (من أول سورة البينة)","publishedAt":"2016-04-02T02:21:32Z","duration":"PT13M53S","thumbnail":"https://i.ytimg.com/vi/Z0gwqgX7pX8/mqdefault.jpg","viewCount":"91","playlistId":"PLEkQk5xrP-tnUSUj0uyJhA-kwNC7Gkx_j","playlistName":"مقرأة الفجر - بداية من سورة الإسراء حتى سورة الناس","category":"تفسير"},{"id":"cKNaL6TiSw4","title":"قراءة القرآن (من أول سورة المزمل)","publishedAt":"2016-02-28T09:23:47Z","duration":"PT21M48S","thumbnail":"https://i.ytimg.com/vi/cKNaL6TiSw4/mqdefault.jpg","viewCount":"91","playlistId":"PLEkQk5xrP-tnUSUj0uyJhA-kwNC7Gkx_j","playlistName":"مقرأة الفجر - بداية من سورة الإسراء حتى سورة الناس","category":"تفسير"},{"id":"71sSbYutEns","title":"قراءة القرآن (من أول سورة الحشر)","publishedAt":"2016-01-16T19:50:02Z","duration":"PT26M53S","thumbnail":"https://i.ytimg.com/vi/71sSbYutEns/mqdefault.jpg","viewCount":"89","playlistId":"PLEkQk5xrP-tnUSUj0uyJhA-kwNC7Gkx_j","playlistName":"مقرأة الفجر - بداية من سورة الإسراء حتى سورة الناس","category":"تفسير"},{"id":"jUw3Ea2Kr54","title":"قراءة القرآن (من أول سورة الطارق)","publishedAt":"2016-03-12T11:19:36Z","duration":"PT16M11S","thumbnail":"https://i.ytimg.com/vi/jUw3Ea2Kr54/mqdefault.jpg","viewCount":"89","playlistId":"PLEkQk5xrP-tnUSUj0uyJhA-kwNC7Gkx_j","playlistName":"مقرأة الفجر - بداية من سورة الإسراء حتى سورة الناس","category":"تفسير"},{"id":"F1nPq0zg8b4","title":"قراءة القرآن (من أول سورة الأحزاب)","publishedAt":"2015-08-05T03:39:04Z","duration":"PT8M36S","thumbnail":"https://i.ytimg.com/vi/F1nPq0zg8b4/mqdefault.jpg","viewCount":"88","playlistId":"PLEkQk5xrP-tnUSUj0uyJhA-kwNC7Gkx_j","playlistName":"مقرأة الفجر - بداية من سورة الإسراء حتى سورة الناس","category":"تفسير"},{"id":"i7dxDTHX8zI","title":"قراءة القرآن (من أول سورة العنكبون)","publishedAt":"2015-07-15T03:51:05Z","duration":"PT13M20S","thumbnail":"https://i.ytimg.com/vi/i7dxDTHX8zI/mqdefault.jpg","viewCount":"88","playlistId":"PLEkQk5xrP-tnUSUj0uyJhA-kwNC7Gkx_j","playlistName":"مقرأة الفجر - بداية من سورة الإسراء حتى سورة الناس","category":"تفسير"},{"id":"HpRyWJkxFJ8","title":"قراءة القرآن (من أول سورة الإنسان)","publishedAt":"2016-03-02T07:20:27Z","duration":"PT25M5S","thumbnail":"https://i.ytimg.com/vi/HpRyWJkxFJ8/mqdefault.jpg","viewCount":"88","playlistId":"PLEkQk5xrP-tnUSUj0uyJhA-kwNC7Gkx_j","playlistName":"مقرأة الفجر - بداية من سورة الإسراء حتى سورة الناس","category":"تفسير"},{"id":"xRQJ4xa3dLs","title":"قراءة القرآن (من أول سورة الحاقة)","publishedAt":"2016-02-23T07:14:24Z","duration":"PT18M41S","thumbnail":"https://i.ytimg.com/vi/xRQJ4xa3dLs/mqdefault.jpg","viewCount":"87","playlistId":"PLEkQk5xrP-tnUSUj0uyJhA-kwNC7Gkx_j","playlistName":"مقرأة الفجر - بداية من سورة الإسراء حتى سورة الناس","category":"تفسير"},{"id":"77Fnywjqqrk","title":"قراءة القرآن (من أول سورة الصف)","publishedAt":"2016-01-21T07:21:56Z","duration":"PT17M19S","thumbnail":"https://i.ytimg.com/vi/77Fnywjqqrk/mqdefault.jpg","viewCount":"86","playlistId":"PLEkQk5xrP-tnUSUj0uyJhA-kwNC7Gkx_j","playlistName":"مقرأة الفجر - بداية من سورة الإسراء حتى سورة الناس","category":"تفسير"},{"id":"EHDlqO7Y4VU","title":"قراءة القرآن (من أول سورة العاديات)","publishedAt":"2016-04-04T03:19:36Z","duration":"PT6M56S","thumbnail":"https://i.ytimg.com/vi/EHDlqO7Y4VU/mqdefault.jpg","viewCount":"86","playlistId":"PLEkQk5xrP-tnUSUj0uyJhA-kwNC7Gkx_j","playlistName":"مقرأة الفجر - بداية من سورة الإسراء حتى سورة الناس","category":"تفسير"},{"id":"2yWAEXOEnXM","title":"قراءة القرآن (من أول سورة الانشقاق)","publishedAt":"2016-03-10T13:11:55Z","duration":"PT10M52S","thumbnail":"https://i.ytimg.com/vi/2yWAEXOEnXM/mqdefault.jpg","viewCount":"85","playlistId":"PLEkQk5xrP-tnUSUj0uyJhA-kwNC7Gkx_j","playlistName":"مقرأة الفجر - بداية من سورة الإسراء حتى سورة الناس","category":"تفسير"},{"id":"HNMWALLByAI","title":"قراءة القرآن (من أول سورة التغابن)","publishedAt":"2016-01-25T07:13:58Z","duration":"PT22M26S","thumbnail":"https://i.ytimg.com/vi/HNMWALLByAI/mqdefault.jpg","viewCount":"83","playlistId":"PLEkQk5xrP-tnUSUj0uyJhA-kwNC7Gkx_j","playlistName":"مقرأة الفجر - بداية من سورة الإسراء حتى سورة الناس","category":"تفسير"}],"total":1096,"page":45,"pageSize":24,"totalPages":46}