{"items":[{"id":"7_nrFaHsPH8","title":"نَفْي الشَّيءِ مقيَّدًا والمُرادُ به مُطْلَقًا - شرح البرهان في علوم القرآن","publishedAt":"2022-01-12T07:20:10Z","duration":"PT13M35S","thumbnail":"https://i.ytimg.com/vi/7_nrFaHsPH8/mqdefault.jpg","viewCount":"598","playlistId":"PLEkQk5xrP-tnW3iBL7HkKziOFCFZbTlf0","playlistName":"شرح البرهان في علوم القرآن - أ.د. يسري جبر","category":"تفسير"},{"id":"IlUwp5elvrs","title":"234- تنبيه: تقديم المعمول يفيد الحصر  - شرح الإتقان في علوم القرآن","publishedAt":"2024-05-10T05:15:01Z","duration":"PT24M41S","thumbnail":"https://i.ytimg.com/vi/IlUwp5elvrs/mqdefault.jpg","viewCount":"597","playlistId":"PLEkQk5xrP-tlPw10KGJKagu7zm4Ry2Tge","playlistName":"شرح الإتقان في علوم القرآن","category":"تفسير"},{"id":"X0RaKu8W9Uw","title":"إطلاق اسم المحلِّ على الحال","publishedAt":"2020-10-22T19:19:13Z","duration":"PT19M45S","thumbnail":"https://i.ytimg.com/vi/X0RaKu8W9Uw/mqdefault.jpg","viewCount":"597","playlistId":"PLEkQk5xrP-tnW3iBL7HkKziOFCFZbTlf0","playlistName":"شرح البرهان في علوم القرآن - أ.د. يسري جبر","category":"تفسير"},{"id":"VB_q2bL5-bg","title":"شرح البرهان في علوم القرآن - النوع ١٣ - نسخ القرآن في المصاحف ٢","publishedAt":"2019-11-01T22:21:21Z","duration":"PT19M26S","thumbnail":"https://i.ytimg.com/vi/VB_q2bL5-bg/mqdefault.jpg","viewCount":"596","playlistId":"PLEkQk5xrP-tnW3iBL7HkKziOFCFZbTlf0","playlistName":"شرح البرهان في علوم القرآن - أ.د. يسري جبر","category":"تفسير"},{"id":"mPIenwnTlFc","title":"230- الكناية والتعريض - شرح الإتقان في علوم القرآن","publishedAt":"2024-05-02T05:17:03Z","duration":"PT28M22S","thumbnail":"https://i.ytimg.com/vi/mPIenwnTlFc/mqdefault.jpg","viewCount":"596","playlistId":"PLEkQk5xrP-tlPw10KGJKagu7zm4Ry2Tge","playlistName":"شرح الإتقان في علوم القرآن","category":"تفسير"},{"id":"_llUMlMIBxI","title":"202- النوع 44: في مقدمه ومؤخره- القسم الأول: ما أُشكل معناه بحسب الظاهر- شرح الإتقان في علوم القرآن","publishedAt":"2024-02-01T20:49:40Z","duration":"PT19M","thumbnail":"https://i.ytimg.com/vi/_llUMlMIBxI/mqdefault.jpg","viewCount":"594","playlistId":"PLEkQk5xrP-tlPw10KGJKagu7zm4Ry2Tge","playlistName":"شرح الإتقان في علوم القرآن","category":"تفسير"},{"id":"sVhgVNZdgmg","title":"قَاعِدَةٌ فِيمَا وَرَدَ في القُرْآنِ مَجْمُوعًا ومُفْرَدًا - شرح البرهان في علوم القرآن","publishedAt":"2022-03-10T04:17:55Z","duration":"PT25M38S","thumbnail":"https://i.ytimg.com/vi/sVhgVNZdgmg/mqdefault.jpg","viewCount":"594","playlistId":"PLEkQk5xrP-tnW3iBL7HkKziOFCFZbTlf0","playlistName":"شرح البرهان في علوم القرآن - أ.د. يسري جبر","category":"تفسير"},{"id":"nQ623bZ2WCA","title":"شرح البرهان في علوم القرآن - النوع ١١ - القول في القراءات السبع ٣","publishedAt":"2019-10-23T10:44:38Z","duration":"PT11M11S","thumbnail":"https://i.ytimg.com/vi/nQ623bZ2WCA/mqdefault.jpg","viewCount":"592","playlistId":"PLEkQk5xrP-tnW3iBL7HkKziOFCFZbTlf0","playlistName":"شرح البرهان في علوم القرآن - أ.د. يسري جبر","category":"تفسير"},{"id":"YSWQWqxUyH0","title":"558- حرف (إِلَّا) يأتي بمعنى (بدل) - شرح البرهان في علوم القرآن","publishedAt":"2022-09-07T06:15:01Z","duration":"PT15M55S","thumbnail":"https://i.ytimg.com/vi/YSWQWqxUyH0/mqdefault.jpg","viewCount":"592","playlistId":"PLEkQk5xrP-tnW3iBL7HkKziOFCFZbTlf0","playlistName":"شرح البرهان في علوم القرآن - أ.د. يسري جبر","category":"تفسير"},{"id":"iMSU6GPfbA8","title":"256- الخبر والإنشاء - شرح الإتقان في علوم القرآن","publishedAt":"2024-09-23T06:31:37Z","duration":"PT32M","thumbnail":"https://i.ytimg.com/vi/iMSU6GPfbA8/mqdefault.jpg","viewCount":"591","playlistId":"PLEkQk5xrP-tlPw10KGJKagu7zm4Ry2Tge","playlistName":"شرح الإتقان في علوم القرآن","category":"تفسير"},{"id":"nUCqR76_Q-I","title":"الإعراض عن صريح الحُكْم - شرح البرهان في علوم القرآن","publishedAt":"2022-01-22T20:33:08Z","duration":"PT8M9S","thumbnail":"https://i.ytimg.com/vi/nUCqR76_Q-I/mqdefault.jpg","viewCount":"591","playlistId":"PLEkQk5xrP-tnW3iBL7HkKziOFCFZbTlf0","playlistName":"شرح البرهان في علوم القرآن - أ.د. يسري جبر","category":"تفسير"},{"id":"9DXuB4q3QFY","title":"176- شروط الإعراب (6) تنبيهات - شرح الإتقان في علوم القرآن","publishedAt":"2023-11-29T06:37:40Z","duration":"PT23M2S","thumbnail":"https://i.ytimg.com/vi/9DXuB4q3QFY/mqdefault.jpg","viewCount":"590","playlistId":"PLEkQk5xrP-tlPw10KGJKagu7zm4Ry2Tge","playlistName":"شرح الإتقان في علوم القرآن","category":"تفسير"},{"id":"m6e_FoLP7V4","title":"توكيد الفعل بمصدره - شرح البرهان في علوم القرآن أ.د. يسري جبر","publishedAt":"2021-01-10T07:17:28Z","duration":"PT11M15S","thumbnail":"https://i.ytimg.com/vi/m6e_FoLP7V4/mqdefault.jpg","viewCount":"588","playlistId":"PLEkQk5xrP-tnW3iBL7HkKziOFCFZbTlf0","playlistName":"شرح البرهان في علوم القرآن - أ.د. يسري جبر","category":"تفسير"},{"id":"D00bifiICAY","title":"الأسلوب الثالث عشر: التضمين - شرح البرهان في علوم القرآن","publishedAt":"2021-12-04T06:46:11Z","duration":"PT45M41S","thumbnail":"https://i.ytimg.com/vi/D00bifiICAY/mqdefault.jpg","viewCount":"588","playlistId":"PLEkQk5xrP-tnW3iBL7HkKziOFCFZbTlf0","playlistName":"شرح البرهان في علوم القرآن - أ.د. يسري جبر","category":"تفسير"},{"id":"RWzSjpK76JA","title":"قراءة القرآن من سورة الإسراء (من آية 70)","publishedAt":"2015-05-31T03:25:53Z","duration":"PT25M16S","thumbnail":"https://i.ytimg.com/vi/RWzSjpK76JA/mqdefault.jpg","viewCount":"587","playlistId":"PLEkQk5xrP-tnUSUj0uyJhA-kwNC7Gkx_j","playlistName":"مقرأة الفجر - بداية من سورة الإسراء حتى سورة الناس","category":"تفسير"},{"id":"fEtJ8dGapuk","title":"231- من أنواع البديع التي تشبه الكناية (الإرداف) - شرح الإتقان في علوم القرآن","publishedAt":"2024-05-04T04:45:48Z","duration":"PT23M27S","thumbnail":"https://i.ytimg.com/vi/fEtJ8dGapuk/mqdefault.jpg","viewCount":"587","playlistId":"PLEkQk5xrP-tlPw10KGJKagu7zm4Ry2Tge","playlistName":"شرح الإتقان في علوم القرآن","category":"تفسير"},{"id":"rm_i8dCSazI","title":"دُخُولُ أدَاةِ التَشْبِيهِ عَلَى المُشَبَّه - شرح البرهان في علوم القرآن","publishedAt":"2022-02-07T07:01:54Z","duration":"PT12M45S","thumbnail":"https://i.ytimg.com/vi/rm_i8dCSazI/mqdefault.jpg","viewCount":"586","playlistId":"PLEkQk5xrP-tnW3iBL7HkKziOFCFZbTlf0","playlistName":"شرح البرهان في علوم القرآن - أ.د. يسري جبر","category":"تفسير"},{"id":"6OjApf3WAts","title":"125- معنى (أم) - شرح الإتقان في علوم القرآن","publishedAt":"2023-07-14T05:00:03Z","duration":"PT16M6S","thumbnail":"https://i.ytimg.com/vi/6OjApf3WAts/mqdefault.jpg","viewCount":"585","playlistId":"PLEkQk5xrP-tlPw10KGJKagu7zm4Ry2Tge","playlistName":"شرح الإتقان في علوم القرآن","category":"تفسير"},{"id":"Ln_Cv3GVOfA","title":"309- فضائل سور القرآن - شرح الإتقان في علوم القرآن","publishedAt":"2025-10-27T09:00:33Z","duration":"PT17M32S","thumbnail":"https://i.ytimg.com/vi/Ln_Cv3GVOfA/mqdefault.jpg","viewCount":"583","playlistId":"PLEkQk5xrP-tlPw10KGJKagu7zm4Ry2Tge","playlistName":"شرح الإتقان في علوم القرآن","category":"تفسير"},{"id":"8fZvypl2xKE","title":"237- الإيجاز الجامع - شرح الإتقان في علوم القرآن","publishedAt":"2024-05-21T08:34:28Z","duration":"PT23M18S","thumbnail":"https://i.ytimg.com/vi/8fZvypl2xKE/mqdefault.jpg","viewCount":"581","playlistId":"PLEkQk5xrP-tlPw10KGJKagu7zm4Ry2Tge","playlistName":"شرح الإتقان في علوم القرآن","category":"تفسير"},{"id":"v3ZlEcoy2b4","title":"90- غريب القرآن(5) - ما جاء في سورة النبأ - شرح الإتقان في علوم القرآن","publishedAt":"2023-06-03T05:00:31Z","duration":"PT25M31S","thumbnail":"https://i.ytimg.com/vi/v3ZlEcoy2b4/mqdefault.jpg","viewCount":"580","playlistId":"PLEkQk5xrP-tlPw10KGJKagu7zm4Ry2Tge","playlistName":"شرح الإتقان في علوم القرآن","category":"تفسير"},{"id":"7Rqx7TXComc","title":"شرح البرهان في علوم القرآن - النوع ١١ - القول في القراءات السبع ٤","publishedAt":"2019-10-24T10:17:44Z","duration":"PT17M14S","thumbnail":"https://i.ytimg.com/vi/7Rqx7TXComc/mqdefault.jpg","viewCount":"579","playlistId":"PLEkQk5xrP-tnW3iBL7HkKziOFCFZbTlf0","playlistName":"شرح البرهان في علوم القرآن - أ.د. يسري جبر","category":"تفسير"},{"id":"OSGj5u05cP0","title":"486- قاعدة في الضمائر (ألَّا يعود على مذكور، ولا معلوم بالسياق، أو غيره)- شرح البرهان في علوم القرآن","publishedAt":"2022-03-28T06:12:24Z","duration":"PT6M34S","thumbnail":"https://i.ytimg.com/vi/OSGj5u05cP0/mqdefault.jpg","viewCount":"578","playlistId":"PLEkQk5xrP-tnW3iBL7HkKziOFCFZbTlf0","playlistName":"شرح البرهان في علوم القرآن - أ.د. يسري جبر","category":"تفسير"},{"id":"tyNalDBqpMs","title":"ما ورد فيه مبيِّنًا للإجمال","publishedAt":"2020-09-19T05:19:00Z","duration":"PT23M45S","thumbnail":"https://i.ytimg.com/vi/tyNalDBqpMs/mqdefault.jpg","viewCount":"578","playlistId":"PLEkQk5xrP-tnW3iBL7HkKziOFCFZbTlf0","playlistName":"شرح البرهان في علوم القرآن - أ.د. يسري جبر","category":"تفسير"}],"total":1096,"page":19,"pageSize":24,"totalPages":46}