{"items":[{"id":"Zx5av_tDfEs","title":"292- العلوم المستنبطة من القرآن (2) - شرح الإتقان في علوم القرآن","publishedAt":"2025-07-17T09:03:32Z","duration":"PT24M48S","thumbnail":"https://i.ytimg.com/vi/Zx5av_tDfEs/mqdefault.jpg","viewCount":"317","playlistId":"PLEkQk5xrP-tlPw10KGJKagu7zm4Ry2Tge","playlistName":"شرح الإتقان في علوم القرآن","category":"تفسير"},{"id":"Ebp49Zh1t08","title":"الاختزال (15) حذف المفعول (6) - شرح البرهان في علوم القرآن","publishedAt":"2021-07-14T05:34:53Z","duration":"PT12M8S","thumbnail":"https://i.ytimg.com/vi/Ebp49Zh1t08/mqdefault.jpg","viewCount":"317","playlistId":"PLEkQk5xrP-tnW3iBL7HkKziOFCFZbTlf0","playlistName":"شرح البرهان في علوم القرآن - أ.د. يسري جبر","category":"تفسير"},{"id":"6at8mUK9wPo","title":"شرح البرهان في علوم القرآن - النوع ٤١ - أقسام التفسير","publishedAt":"2020-04-13T11:00:02Z","duration":"PT22M20S","thumbnail":"https://i.ytimg.com/vi/6at8mUK9wPo/mqdefault.jpg","viewCount":"317","playlistId":"PLEkQk5xrP-tnW3iBL7HkKziOFCFZbTlf0","playlistName":"شرح البرهان في علوم القرآن - أ.د. يسري جبر","category":"تفسير"},{"id":"AXPuAwB_U8Y","title":"قراءة القرآن (من آية 42 سورة المؤمنون)","publishedAt":"2015-06-22T03:05:04Z","duration":"PT12M","thumbnail":"https://i.ytimg.com/vi/AXPuAwB_U8Y/mqdefault.jpg","viewCount":"316","playlistId":"PLEkQk5xrP-tnUSUj0uyJhA-kwNC7Gkx_j","playlistName":"مقرأة الفجر - بداية من سورة الإسراء حتى سورة الناس","category":"تفسير"},{"id":"2d00-DdFUs4","title":"الاختزال (34) حذف الحرف (2) حرف الواو - شرح البرهان في علوم القرآن","publishedAt":"2021-08-24T05:28:39Z","duration":"PT15M9S","thumbnail":"https://i.ytimg.com/vi/2d00-DdFUs4/mqdefault.jpg","viewCount":"315","playlistId":"PLEkQk5xrP-tnW3iBL7HkKziOFCFZbTlf0","playlistName":"شرح البرهان في علوم القرآن - أ.د. يسري جبر","category":"تفسير"},{"id":"VUlH7Dqm9pk","title":"الاختزال (11) الغرض من حذف المفعول (2) - شرح البرهان في علوم القرآن","publishedAt":"2021-07-07T22:08:28Z","duration":"PT15M11S","thumbnail":"https://i.ytimg.com/vi/VUlH7Dqm9pk/mqdefault.jpg","viewCount":"314","playlistId":"PLEkQk5xrP-tnW3iBL7HkKziOFCFZbTlf0","playlistName":"شرح البرهان في علوم القرآن - أ.د. يسري جبر","category":"تفسير"},{"id":"Hu9HFH-rtPU","title":"شرح البرهان في علوم القرآن - النوع ٢٩ - مسألة في استحباب الجهر بالقراءة","publishedAt":"2020-02-07T06:00:02Z","duration":"PT22M49S","thumbnail":"https://i.ytimg.com/vi/Hu9HFH-rtPU/mqdefault.jpg","viewCount":"314","playlistId":"PLEkQk5xrP-tnW3iBL7HkKziOFCFZbTlf0","playlistName":"شرح البرهان في علوم القرآن - أ.د. يسري جبر","category":"تفسير"},{"id":"Vh0liiEid5w","title":"شرح البرهان في علوم القرآن - النوع ٣٢ - فصل","publishedAt":"2020-02-19T06:00:07Z","duration":"PT32M20S","thumbnail":"https://i.ytimg.com/vi/Vh0liiEid5w/mqdefault.jpg","viewCount":"313","playlistId":"PLEkQk5xrP-tnW3iBL7HkKziOFCFZbTlf0","playlistName":"شرح البرهان في علوم القرآن - أ.د. يسري جبر","category":"تفسير"},{"id":"qSSJyr5f43Y","title":"316- خواص القرآن (2) - شرح الإتقان في علوم القرآن","publishedAt":"2025-11-22T10:01:26Z","duration":"PT23M55S","thumbnail":"https://i.ytimg.com/vi/qSSJyr5f43Y/mqdefault.jpg","viewCount":"312","playlistId":"PLEkQk5xrP-tlPw10KGJKagu7zm4Ry2Tge","playlistName":"شرح الإتقان في علوم القرآن","category":"تفسير"},{"id":"iCZiHyv2XFY","title":"شرح البرهان في علوم القرآن - النوع ٣٤ - التنبيه الثاني في ضروب النسخ في القرآن","publishedAt":"2020-02-27T06:00:11Z","duration":"PT16M55S","thumbnail":"https://i.ytimg.com/vi/iCZiHyv2XFY/mqdefault.jpg","viewCount":"312","playlistId":"PLEkQk5xrP-tnW3iBL7HkKziOFCFZbTlf0","playlistName":"شرح البرهان في علوم القرآن - أ.د. يسري جبر","category":"تفسير"},{"id":"k8-FJVaoYWQ","title":"شرح البرهان في علوم القرآن - النوع ٢٩ - فصل في ختم القرأن","publishedAt":"2020-02-10T06:00:06Z","duration":"PT17M46S","thumbnail":"https://i.ytimg.com/vi/k8-FJVaoYWQ/mqdefault.jpg","viewCount":"311","playlistId":"PLEkQk5xrP-tnW3iBL7HkKziOFCFZbTlf0","playlistName":"شرح البرهان في علوم القرآن - أ.د. يسري جبر","category":"تفسير"},{"id":"fexKlLJd5Hs","title":"603- (لا) الزائدة - شرح البرهان في علوم القرآن","publishedAt":"2022-11-25T05:00:16Z","duration":"PT24M45S","thumbnail":"https://i.ytimg.com/vi/fexKlLJd5Hs/mqdefault.jpg","viewCount":"310","playlistId":"PLEkQk5xrP-tnW3iBL7HkKziOFCFZbTlf0","playlistName":"شرح البرهان في علوم القرآن - أ.د. يسري جبر","category":"تفسير"},{"id":"aKj_DJDZWgc","title":"الاختزال (10) حذف المفعول - شرح البرهان في علوم القرآن","publishedAt":"2021-07-07T05:27:07Z","duration":"PT7M24S","thumbnail":"https://i.ytimg.com/vi/aKj_DJDZWgc/mqdefault.jpg","viewCount":"309","playlistId":"PLEkQk5xrP-tnW3iBL7HkKziOFCFZbTlf0","playlistName":"شرح البرهان في علوم القرآن - أ.د. يسري جبر","category":"تفسير"},{"id":"ThnrgkOPgRs","title":"شرح البرهان في علوم القرآن - النوع ٢٥ - علم مرسوم الخط (فصل في الفصل والوصل)","publishedAt":"2020-01-21T07:02:01Z","duration":"PT26M35S","thumbnail":"https://i.ytimg.com/vi/ThnrgkOPgRs/mqdefault.jpg","viewCount":"309","playlistId":"PLEkQk5xrP-tnW3iBL7HkKziOFCFZbTlf0","playlistName":"شرح البرهان في علوم القرآن - أ.د. يسري جبر","category":"تفسير"},{"id":"q6SLdv55ilQ","title":"شرح البرهان في علوم القرآن - النوع ٢٥ - علم مرسوم الخط (الناقص وأقسامه : حذف الألف)","publishedAt":"2020-01-15T09:59:04Z","duration":"PT21M29S","thumbnail":"https://i.ytimg.com/vi/q6SLdv55ilQ/mqdefault.jpg","viewCount":"309","playlistId":"PLEkQk5xrP-tnW3iBL7HkKziOFCFZbTlf0","playlistName":"شرح البرهان في علوم القرآن - أ.د. يسري جبر","category":"تفسير"},{"id":"JuRfuHW5y3U","title":"شرح البرهان في علوم القرآن - النوع ٢٥ - علم مرسوم الخط (فصل فيما كتبت الألف فيه واوا...)","publishedAt":"2020-01-18T22:10:27Z","duration":"PT13M35S","thumbnail":"https://i.ytimg.com/vi/JuRfuHW5y3U/mqdefault.jpg","viewCount":"308","playlistId":"PLEkQk5xrP-tnW3iBL7HkKziOFCFZbTlf0","playlistName":"شرح البرهان في علوم القرآن - أ.د. يسري جبر","category":"تفسير"},{"id":"q6I2Aw7Z8uA","title":"شرح البرهان في علوم القرآن - النوع ٣٩ - فصل","publishedAt":"2020-03-30T07:00:24Z","duration":"PT11M22S","thumbnail":"https://i.ytimg.com/vi/q6I2Aw7Z8uA/mqdefault.jpg","viewCount":"308","playlistId":"PLEkQk5xrP-tnW3iBL7HkKziOFCFZbTlf0","playlistName":"شرح البرهان في علوم القرآن - أ.د. يسري جبر","category":"تفسير"},{"id":"_z_aY7e6WnQ","title":"شرح البرهان في علوم القرآن - النوع ٣٨ - فصل في قدر المعجز من القرآن","publishedAt":"2020-03-23T07:00:08Z","duration":"PT17M21S","thumbnail":"https://i.ytimg.com/vi/_z_aY7e6WnQ/mqdefault.jpg","viewCount":"306","playlistId":"PLEkQk5xrP-tnW3iBL7HkKziOFCFZbTlf0","playlistName":"شرح البرهان في علوم القرآن - أ.د. يسري جبر","category":"تفسير"},{"id":"iN9q4d0EQmw","title":"قراءة القرآن ( من آية 30 سورة ص)","publishedAt":"2015-08-26T04:28:07Z","duration":"PT26M1S","thumbnail":"https://i.ytimg.com/vi/iN9q4d0EQmw/mqdefault.jpg","viewCount":"306","playlistId":"PLEkQk5xrP-tnUSUj0uyJhA-kwNC7Gkx_j","playlistName":"مقرأة الفجر - بداية من سورة الإسراء حتى سورة الناس","category":"تفسير"},{"id":"3DJ-sj1lRns","title":"294- العلوم المستنبطة من القرآن (4) - شرح الإتقان في علوم القرآن","publishedAt":"2025-07-31T09:00:09Z","duration":"PT15M30S","thumbnail":"https://i.ytimg.com/vi/3DJ-sj1lRns/mqdefault.jpg","viewCount":"306","playlistId":"PLEkQk5xrP-tlPw10KGJKagu7zm4Ry2Tge","playlistName":"شرح الإتقان في علوم القرآن","category":"تفسير"},{"id":"8JxPxc_NBDw","title":"القِسمُ التاسع من التوكيد: وضع الظاهر موضع المُضْمَر (6) شرح البرهان في علوم القرآن","publishedAt":"2021-03-31T18:10:55Z","duration":"PT30M59S","thumbnail":"https://i.ytimg.com/vi/8JxPxc_NBDw/mqdefault.jpg","viewCount":"305","playlistId":"PLEkQk5xrP-tnW3iBL7HkKziOFCFZbTlf0","playlistName":"شرح البرهان في علوم القرآن - أ.د. يسري جبر","category":"تفسير"},{"id":"TH17_FIfZY4","title":"الأسلوب الثاني الحذف(12)أقسام الحذف: الثامن:الاختزال(3)حذف الفاعل - شرح البرهان في علوم القرآن","publishedAt":"2021-06-30T07:59:17Z","duration":"PT17M41S","thumbnail":"https://i.ytimg.com/vi/TH17_FIfZY4/mqdefault.jpg","viewCount":"304","playlistId":"PLEkQk5xrP-tnW3iBL7HkKziOFCFZbTlf0","playlistName":"شرح البرهان في علوم القرآن - أ.د. يسري جبر","category":"تفسير"},{"id":"ph5lWotLVYU","title":"583- حروف المعاني(44): الحرف (45) (قَدْ) - شرح البرهان في علوم القرآن","publishedAt":"2022-10-31T05:00:32Z","duration":"PT24M18S","thumbnail":"https://i.ytimg.com/vi/ph5lWotLVYU/mqdefault.jpg","viewCount":"303","playlistId":"PLEkQk5xrP-tnW3iBL7HkKziOFCFZbTlf0","playlistName":"شرح البرهان في علوم القرآن - أ.د. يسري جبر","category":"تفسير"},{"id":"OJbk4Ilq8VM","title":"شرح البرهان في علوم القرآن - النوع ٤٠ - في بيان معاضدة السنة للقرآن","publishedAt":"2020-03-31T07:30:04Z","duration":"PT21M17S","thumbnail":"https://i.ytimg.com/vi/OJbk4Ilq8VM/mqdefault.jpg","viewCount":"303","playlistId":"PLEkQk5xrP-tnW3iBL7HkKziOFCFZbTlf0","playlistName":"شرح البرهان في علوم القرآن - أ.د. يسري جبر","category":"تفسير"}],"total":1096,"page":39,"pageSize":24,"totalPages":46}