{"items":[{"id":"uKPv6tO82kk","title":"207- فروع منثورة تتعلق بالعموم والخصوص - شرح الإتقان في علوم القرآن","publishedAt":"2024-02-12T06:30:25Z","duration":"PT22M18S","thumbnail":"https://i.ytimg.com/vi/uKPv6tO82kk/mqdefault.jpg","viewCount":"474","playlistId":"PLEkQk5xrP-tlPw10KGJKagu7zm4Ry2Tge","playlistName":"شرح الإتقان في علوم القرآن","category":"تفسير"},{"id":"yv29BH87_Bg","title":"شرح البرهان في علوم القرآن - النوع ٢٤ - فصل ملخص في تقسيمات الوقف ٢","publishedAt":"2020-01-07T07:48:29Z","duration":"PT21M15S","thumbnail":"https://i.ytimg.com/vi/yv29BH87_Bg/mqdefault.jpg","viewCount":"474","playlistId":"PLEkQk5xrP-tnW3iBL7HkKziOFCFZbTlf0","playlistName":"شرح البرهان في علوم القرآن - أ.د. يسري جبر","category":"تفسير"},{"id":"_bJUq8mDhbA","title":"شرح البرهان في علوم القرآن - النوع ٢٤ - فصل في الكلام على \"كلّا\" في القرآن","publishedAt":"2020-01-08T19:28:21Z","duration":"PT21M43S","thumbnail":"https://i.ytimg.com/vi/_bJUq8mDhbA/mqdefault.jpg","viewCount":"473","playlistId":"PLEkQk5xrP-tnW3iBL7HkKziOFCFZbTlf0","playlistName":"شرح البرهان في علوم القرآن - أ.د. يسري جبر","category":"تفسير"},{"id":"ZtNG-vNgVZE","title":"أدوات التوكيد - تأكيد الضمير - شرح البرهان في علوم القرآن أ.د. يسري جبر","publishedAt":"2021-01-23T07:53:17Z","duration":"PT10M35S","thumbnail":"https://i.ytimg.com/vi/ZtNG-vNgVZE/mqdefault.jpg","viewCount":"472","playlistId":"PLEkQk5xrP-tnW3iBL7HkKziOFCFZbTlf0","playlistName":"شرح البرهان في علوم القرآن - أ.د. يسري جبر","category":"تفسير"},{"id":"X-eFVykmiHM","title":"548- حرف العطف (أو) - شرح البرهان في علوم القرآن","publishedAt":"2022-08-19T05:30:10Z","duration":"PT24M4S","thumbnail":"https://i.ytimg.com/vi/X-eFVykmiHM/mqdefault.jpg","viewCount":"471","playlistId":"PLEkQk5xrP-tnW3iBL7HkKziOFCFZbTlf0","playlistName":"شرح البرهان في علوم القرآن - أ.د. يسري جبر","category":"تفسير"},{"id":"4MOVey1KE8A","title":"الجِنَاسُ مِنَ المَحَاسِنِ اللّفْظِيَّةِ لا المَعنَويَّة - شرح البرهان في علوم القرآن","publishedAt":"2022-02-23T11:10:23Z","duration":"PT15M58S","thumbnail":"https://i.ytimg.com/vi/4MOVey1KE8A/mqdefault.jpg","viewCount":"470","playlistId":"PLEkQk5xrP-tnW3iBL7HkKziOFCFZbTlf0","playlistName":"شرح البرهان في علوم القرآن - أ.د. يسري جبر","category":"تفسير"},{"id":"Lxu2BfJCmAo","title":"إطلاق الفعل والمراد مقاربته ومشارفته لا حقيقته","publishedAt":"2020-10-28T08:08:43Z","duration":"PT14M31S","thumbnail":"https://i.ytimg.com/vi/Lxu2BfJCmAo/mqdefault.jpg","viewCount":"468","playlistId":"PLEkQk5xrP-tnW3iBL7HkKziOFCFZbTlf0","playlistName":"شرح البرهان في علوم القرآن - أ.د. يسري جبر","category":"تفسير"},{"id":"1uVes5zxfR0","title":"أسماء الاستفهام","publishedAt":"2020-11-28T10:37:45Z","duration":"PT25M55S","thumbnail":"https://i.ytimg.com/vi/1uVes5zxfR0/mqdefault.jpg","viewCount":"468","playlistId":"PLEkQk5xrP-tnW3iBL7HkKziOFCFZbTlf0","playlistName":"شرح البرهان في علوم القرآن - أ.د. يسري جبر","category":"تفسير"},{"id":"gvA1FpHDsZA","title":"الأسلوب السابع: الاختصاص - شرح البرهان في علوم القرآن","publishedAt":"2021-10-28T04:15:03Z","duration":"PT8M20S","thumbnail":"https://i.ytimg.com/vi/gvA1FpHDsZA/mqdefault.jpg","viewCount":"468","playlistId":"PLEkQk5xrP-tnW3iBL7HkKziOFCFZbTlf0","playlistName":"شرح البرهان في علوم القرآن - أ.د. يسري جبر","category":"تفسير"},{"id":"9HMwL0vHrN0","title":"120- معاني كلمة (إذًا) وإعراب ما بعدها - شرح الإتقان في علوم القرآن","publishedAt":"2023-07-07T05:00:08Z","duration":"PT18M15S","thumbnail":"https://i.ytimg.com/vi/9HMwL0vHrN0/mqdefault.jpg","viewCount":"467","playlistId":"PLEkQk5xrP-tlPw10KGJKagu7zm4Ry2Tge","playlistName":"شرح الإتقان في علوم القرآن","category":"تفسير"},{"id":"lvad8wMaRCg","title":"599- اللام الناصبة: لام كي - اللام النافية - شرح البرهان في علوم القرآن","publishedAt":"2022-11-20T05:00:21Z","duration":"PT32M29S","thumbnail":"https://i.ytimg.com/vi/lvad8wMaRCg/mqdefault.jpg","viewCount":"467","playlistId":"PLEkQk5xrP-tnW3iBL7HkKziOFCFZbTlf0","playlistName":"شرح البرهان في علوم القرآن - أ.د. يسري جبر","category":"تفسير"},{"id":"as0Moy_AV58","title":"94- غريب القرآن (9) - شرح الإتقان في علوم القرآن","publishedAt":"2023-06-06T05:00:01Z","duration":"PT25M9S","thumbnail":"https://i.ytimg.com/vi/as0Moy_AV58/mqdefault.jpg","viewCount":"466","playlistId":"PLEkQk5xrP-tlPw10KGJKagu7zm4Ry2Tge","playlistName":"شرح الإتقان في علوم القرآن","category":"تفسير"},{"id":"2ja2-Q9i3Xg","title":"الاستفهام والمراد به الإنشاء","publishedAt":"2020-11-23T08:27:52Z","duration":"PT19M19S","thumbnail":"https://i.ytimg.com/vi/2ja2-Q9i3Xg/mqdefault.jpg","viewCount":"466","playlistId":"PLEkQk5xrP-tnW3iBL7HkKziOFCFZbTlf0","playlistName":"شرح البرهان في علوم القرآن - أ.د. يسري جبر","category":"تفسير"},{"id":"5uSYed_xqHo","title":"شرح البرهان في علوم القرآن - النوع ٣٥ - فائدة في القول في الاختلاف والتناقض","publishedAt":"2020-03-04T06:00:00Z","duration":"PT24M42S","thumbnail":"https://i.ytimg.com/vi/5uSYed_xqHo/mqdefault.jpg","viewCount":"466","playlistId":"PLEkQk5xrP-tnW3iBL7HkKziOFCFZbTlf0","playlistName":"شرح البرهان في علوم القرآن - أ.د. يسري جبر","category":"تفسير"},{"id":"6MZnt3KVkYg","title":"6- فوائد تتعلق بالصفة - شرح البرهان في علوم القرآن","publishedAt":"2021-02-14T07:16:42Z","duration":"PT15M41S","thumbnail":"https://i.ytimg.com/vi/6MZnt3KVkYg/mqdefault.jpg","viewCount":"464","playlistId":"PLEkQk5xrP-tnW3iBL7HkKziOFCFZbTlf0","playlistName":"شرح البرهان في علوم القرآن - أ.د. يسري جبر","category":"تفسير"},{"id":"Zuv_O-ARMa4","title":"شرح البرهان في علوم القرآن - النوع ٩ - ما حمل من مكة إلى المدينة","publishedAt":"2019-10-14T16:48:22Z","duration":"PT10M25S","thumbnail":"https://i.ytimg.com/vi/Zuv_O-ARMa4/mqdefault.jpg","viewCount":"464","playlistId":"PLEkQk5xrP-tnW3iBL7HkKziOFCFZbTlf0","playlistName":"شرح البرهان في علوم القرآن - أ.د. يسري جبر","category":"تفسير"},{"id":"nMT1j-dZqK8","title":"628- (مِن) الزائدة - شرح البرهان في علوم القرآن","publishedAt":"2022-12-25T05:00:30Z","duration":"PT32M43S","thumbnail":"https://i.ytimg.com/vi/nMT1j-dZqK8/mqdefault.jpg","viewCount":"464","playlistId":"PLEkQk5xrP-tnW3iBL7HkKziOFCFZbTlf0","playlistName":"شرح البرهان في علوم القرآن - أ.د. يسري جبر","category":"تفسير"},{"id":"KXD9LOM4zQc","title":"بقية النوع 45: في أقسام معنى الكلام - ومنها الأمر","publishedAt":"2020-11-11T07:32:10Z","duration":"PT10M40S","thumbnail":"https://i.ytimg.com/vi/KXD9LOM4zQc/mqdefault.jpg","viewCount":"463","playlistId":"PLEkQk5xrP-tnW3iBL7HkKziOFCFZbTlf0","playlistName":"شرح البرهان في علوم القرآن - أ.د. يسري جبر","category":"تفسير"},{"id":"U-zhrfCB-BQ","title":"556- حروف المعاني(17): (أَلا) و (أَلَّا) - شرح البرهان في علوم القرآن","publishedAt":"2022-09-03T20:10:00Z","duration":"PT14M51S","thumbnail":"https://i.ytimg.com/vi/U-zhrfCB-BQ/mqdefault.jpg","viewCount":"460","playlistId":"PLEkQk5xrP-tnW3iBL7HkKziOFCFZbTlf0","playlistName":"شرح البرهان في علوم القرآن - أ.د. يسري جبر","category":"تفسير"},{"id":"ksb1_lhzsas","title":"قراءة القرآن (من أول سورة الإخلاص وسورة الفلق وسورة الناس) ودعاء هذه الختمة المباركة","publishedAt":"2016-04-10T11:03:17Z","duration":"PT45M39S","thumbnail":"https://i.ytimg.com/vi/ksb1_lhzsas/mqdefault.jpg","viewCount":"460","playlistId":"PLEkQk5xrP-tnUSUj0uyJhA-kwNC7Gkx_j","playlistName":"مقرأة الفجر - بداية من سورة الإسراء حتى سورة الناس","category":"تفسير"},{"id":"N5IeEwxjjdc","title":"312- أفضل القرآن وفاضله (2) - شرح الإتقان في علوم القرآن","publishedAt":"2025-11-06T05:30:11Z","duration":"PT27M26S","thumbnail":"https://i.ytimg.com/vi/N5IeEwxjjdc/mqdefault.jpg","viewCount":"460","playlistId":"PLEkQk5xrP-tlPw10KGJKagu7zm4Ry2Tge","playlistName":"شرح الإتقان في علوم القرآن","category":"تفسير"},{"id":"OsaaxPP2-LM","title":"البرهان في علوم القرآن - فصل في تقسيم التأويل","publishedAt":"2020-09-01T05:36:23Z","duration":"PT22M57S","thumbnail":"https://i.ytimg.com/vi/OsaaxPP2-LM/mqdefault.jpg","viewCount":"458","playlistId":"PLEkQk5xrP-tnW3iBL7HkKziOFCFZbTlf0","playlistName":"شرح البرهان في علوم القرآن - أ.د. يسري جبر","category":"تفسير"},{"id":"VIqAqDEXbN8","title":"92- غريب القرآن (7)  - شرح الإتقان في علوم القرآن","publishedAt":"2023-06-04T08:59:00Z","duration":"PT20M44S","thumbnail":"https://i.ytimg.com/vi/VIqAqDEXbN8/mqdefault.jpg","viewCount":"458","playlistId":"PLEkQk5xrP-tlPw10KGJKagu7zm4Ry2Tge","playlistName":"شرح الإتقان في علوم القرآن","category":"تفسير"},{"id":"c2C4MXxuoEY","title":"313- مفردات القرآن - شرح الإتقان في علوم القرآن","publishedAt":"2025-11-08T05:30:20Z","duration":"PT31M24S","thumbnail":"https://i.ytimg.com/vi/c2C4MXxuoEY/mqdefault.jpg","viewCount":"458","playlistId":"PLEkQk5xrP-tlPw10KGJKagu7zm4Ry2Tge","playlistName":"شرح الإتقان في علوم القرآن","category":"تفسير"}],"total":1096,"page":27,"pageSize":24,"totalPages":46}