{"items":[{"id":"KxpIycXXevw","title":"578- حروف المعاني(39): الحرف 41: (عند) - شرح البرهان في علوم القرآن","publishedAt":"2022-10-25T05:00:06Z","duration":"PT11M45S","thumbnail":"https://i.ytimg.com/vi/KxpIycXXevw/mqdefault.jpg","viewCount":"355","playlistId":"PLEkQk5xrP-tnW3iBL7HkKziOFCFZbTlf0","playlistName":"شرح البرهان في علوم القرآن - أ.د. يسري جبر","category":"تفسير"},{"id":"KRqcihzf5Ko","title":"613- حرف (لمَّا) - شرح البرهان في علوم القرآن","publishedAt":"2022-12-06T05:00:05Z","duration":"PT30M38S","thumbnail":"https://i.ytimg.com/vi/KRqcihzf5Ko/mqdefault.jpg","viewCount":"354","playlistId":"PLEkQk5xrP-tnW3iBL7HkKziOFCFZbTlf0","playlistName":"شرح البرهان في علوم القرآن - أ.د. يسري جبر","category":"تفسير"},{"id":"-XGsV6dhPms","title":"شرح البرهان في علوم القرآن - النوع ٢٥ - علم مرسوم الخط (فصل في مد التاء وقبضها)","publishedAt":"2020-01-18T22:10:27Z","duration":"PT21M13S","thumbnail":"https://i.ytimg.com/vi/-XGsV6dhPms/mqdefault.jpg","viewCount":"354","playlistId":"PLEkQk5xrP-tnW3iBL7HkKziOFCFZbTlf0","playlistName":"شرح البرهان في علوم القرآن - أ.د. يسري جبر","category":"تفسير"},{"id":"pCuupYitNN4","title":"القِسمُ (22) من التوكيد: الاعتراض (2) شرح البرهان في علوم القرآن","publishedAt":"2021-05-19T06:13:32Z","duration":"PT30M5S","thumbnail":"https://i.ytimg.com/vi/pCuupYitNN4/mqdefault.jpg","viewCount":"353","playlistId":"PLEkQk5xrP-tnW3iBL7HkKziOFCFZbTlf0","playlistName":"شرح البرهان في علوم القرآن - أ.د. يسري جبر","category":"تفسير"},{"id":"xmmX2aw4Beo","title":"شرح البرهان في علوم القرآن - النوع ٣٤ - التنبيه الثاني في ضروب النسخ في القرآن ٢","publishedAt":"2020-02-28T06:00:13Z","duration":"PT40M","thumbnail":"https://i.ytimg.com/vi/xmmX2aw4Beo/mqdefault.jpg","viewCount":"352","playlistId":"PLEkQk5xrP-tnW3iBL7HkKziOFCFZbTlf0","playlistName":"شرح البرهان في علوم القرآن - أ.د. يسري جبر","category":"تفسير"},{"id":"ATDBu82kBi4","title":"582- حروف المعاني(43): الحرف (44) (في) - شرح البرهان في علوم القرآن","publishedAt":"2022-10-30T05:00:04Z","duration":"PT26M34S","thumbnail":"https://i.ytimg.com/vi/ATDBu82kBi4/mqdefault.jpg","viewCount":"351","playlistId":"PLEkQk5xrP-tnW3iBL7HkKziOFCFZbTlf0","playlistName":"شرح البرهان في علوم القرآن - أ.د. يسري جبر","category":"تفسير"},{"id":"Ut-0_GbczB0","title":"شرح البرهان في علوم القرآن - النوع ٣٧ - في حكم الآيات المتشابهات الواردة في الصفات ٤","publishedAt":"2020-03-15T06:30:00Z","duration":"PT29M1S","thumbnail":"https://i.ytimg.com/vi/Ut-0_GbczB0/mqdefault.jpg","viewCount":"350","playlistId":"PLEkQk5xrP-tnW3iBL7HkKziOFCFZbTlf0","playlistName":"شرح البرهان في علوم القرآن - أ.د. يسري جبر","category":"تفسير"},{"id":"kBxRHueJ4pI","title":"586- حروف المعاني(47): الحرف (51)(كلَّا) - شرح البرهان في علوم القرآن","publishedAt":"2022-11-03T05:00:16Z","duration":"PT10M51S","thumbnail":"https://i.ytimg.com/vi/kBxRHueJ4pI/mqdefault.jpg","viewCount":"350","playlistId":"PLEkQk5xrP-tnW3iBL7HkKziOFCFZbTlf0","playlistName":"شرح البرهان في علوم القرآن - أ.د. يسري جبر","category":"تفسير"},{"id":"twPrE5RKKd8","title":"568- حروف المعاني(29): الحرف(27) (ثُمَّ) - شرح البرهان في علوم القرآن","publishedAt":"2022-10-12T21:00:23Z","duration":"PT17M58S","thumbnail":"https://i.ytimg.com/vi/twPrE5RKKd8/mqdefault.jpg","viewCount":"350","playlistId":"PLEkQk5xrP-tnW3iBL7HkKziOFCFZbTlf0","playlistName":"شرح البرهان في علوم القرآن - أ.د. يسري جبر","category":"تفسير"},{"id":"QoNAJDNv6Xc","title":"شرح البرهان في علوم القرآن - النوع ٢٥ - علم مرسوم الخط (فصل في بعض حروف الإدغام)","publishedAt":"2020-01-23T11:43:01Z","duration":"PT23M11S","thumbnail":"https://i.ytimg.com/vi/QoNAJDNv6Xc/mqdefault.jpg","viewCount":"349","playlistId":"PLEkQk5xrP-tnW3iBL7HkKziOFCFZbTlf0","playlistName":"شرح البرهان في علوم القرآن - أ.د. يسري جبر","category":"تفسير"},{"id":"-4jQR2BXCoA","title":"شرح البرهان في علوم القرآن - النوع ٣٣ - في معرفة جدله","publishedAt":"2020-02-24T06:00:00Z","duration":"PT29M48S","thumbnail":"https://i.ytimg.com/vi/-4jQR2BXCoA/mqdefault.jpg","viewCount":"348","playlistId":"PLEkQk5xrP-tnW3iBL7HkKziOFCFZbTlf0","playlistName":"شرح البرهان في علوم القرآن - أ.د. يسري جبر","category":"تفسير"},{"id":"3xCu8wPbjVs","title":"617- (لَيْسَ - لَدُنْ) - شرح البرهان في علوم القرآن","publishedAt":"2022-12-10T05:00:02Z","duration":"PT18M54S","thumbnail":"https://i.ytimg.com/vi/3xCu8wPbjVs/mqdefault.jpg","viewCount":"347","playlistId":"PLEkQk5xrP-tnW3iBL7HkKziOFCFZbTlf0","playlistName":"شرح البرهان في علوم القرآن - أ.د. يسري جبر","category":"تفسير"},{"id":"9-sAcuH8QDU","title":"شرح البرهان في علوم القرآن - النوع ٢٩ - مسألة في جواز أخذ الأجر على تعليم القرآن","publishedAt":"2020-02-06T06:00:00Z","duration":"PT30M52S","thumbnail":"https://i.ytimg.com/vi/9-sAcuH8QDU/mqdefault.jpg","viewCount":"347","playlistId":"PLEkQk5xrP-tnW3iBL7HkKziOFCFZbTlf0","playlistName":"شرح البرهان في علوم القرآن - أ.د. يسري جبر","category":"تفسير"},{"id":"ubub00A5zXI","title":"596- الحرف 56: (اللام) - شرح البرهان في علوم القرآن","publishedAt":"2022-11-15T05:00:24Z","duration":"PT18M54S","thumbnail":"https://i.ytimg.com/vi/ubub00A5zXI/mqdefault.jpg","viewCount":"347","playlistId":"PLEkQk5xrP-tnW3iBL7HkKziOFCFZbTlf0","playlistName":"شرح البرهان في علوم القرآن - أ.د. يسري جبر","category":"تفسير"},{"id":"N0MhxhCZLsM","title":"الأسلوب الثاني: الحذف(8)\"أقسام الحذف\" النوع الخامس - شرح البرهان في علوم القرآن","publishedAt":"2021-06-21T07:23:48Z","duration":"PT10M46S","thumbnail":"https://i.ytimg.com/vi/N0MhxhCZLsM/mqdefault.jpg","viewCount":"346","playlistId":"PLEkQk5xrP-tnW3iBL7HkKziOFCFZbTlf0","playlistName":"شرح البرهان في علوم القرآن - أ.د. يسري جبر","category":"تفسير"},{"id":"9um22N8G8-4","title":"القِسمُ التاسع من التوكيد: وضع الظاهر موضع المُضْمَر (5) شرح البرهان في علوم القرآن","publishedAt":"2021-03-30T06:33:15Z","duration":"PT13M27S","thumbnail":"https://i.ytimg.com/vi/9um22N8G8-4/mqdefault.jpg","viewCount":"345","playlistId":"PLEkQk5xrP-tnW3iBL7HkKziOFCFZbTlf0","playlistName":"شرح البرهان في علوم القرآن - أ.د. يسري جبر","category":"تفسير"},{"id":"4NE4abxP-lk","title":"621- (ما) النافية - شرح البرهان في علوم القرآن","publishedAt":"2022-12-17T05:00:02Z","duration":"PT33M1S","thumbnail":"https://i.ytimg.com/vi/4NE4abxP-lk/mqdefault.jpg","viewCount":"344","playlistId":"PLEkQk5xrP-tnW3iBL7HkKziOFCFZbTlf0","playlistName":"شرح البرهان في علوم القرآن - أ.د. يسري جبر","category":"تفسير"},{"id":"4q-bpfhBqIs","title":"شرح البرهان في علوم القرآن - النوع ٢٤ - مسألة","publishedAt":"2020-01-05T08:40:13Z","duration":"PT13M50S","thumbnail":"https://i.ytimg.com/vi/4q-bpfhBqIs/mqdefault.jpg","viewCount":"344","playlistId":"PLEkQk5xrP-tnW3iBL7HkKziOFCFZbTlf0","playlistName":"شرح البرهان في علوم القرآن - أ.د. يسري جبر","category":"تفسير"},{"id":"Dx2UtVVyYls","title":"شرح البرهان في علوم القرآن - النوع ٢٦ - معرفة فضائله","publishedAt":"2020-01-27T22:03:27Z","duration":"PT7M36S","thumbnail":"https://i.ytimg.com/vi/Dx2UtVVyYls/mqdefault.jpg","viewCount":"343","playlistId":"PLEkQk5xrP-tnW3iBL7HkKziOFCFZbTlf0","playlistName":"شرح البرهان في علوم القرآن - أ.د. يسري جبر","category":"تفسير"},{"id":"ByglztZpnGA","title":"الاختزال (12) الغرض من حذف المفعول (3) - شرح البرهان في علوم القرآن","publishedAt":"2021-07-08T16:17:54Z","duration":"PT17M39S","thumbnail":"https://i.ytimg.com/vi/ByglztZpnGA/mqdefault.jpg","viewCount":"343","playlistId":"PLEkQk5xrP-tnW3iBL7HkKziOFCFZbTlf0","playlistName":"شرح البرهان في علوم القرآن - أ.د. يسري جبر","category":"تفسير"},{"id":"vLMMfgXnK2g","title":"شرح البرهان في علوم القرآن - النوع ٣٨ - تنبيه في أن معرفة مقامات الكلام لا تدرك إلا بالذوق","publishedAt":"2020-03-29T07:00:11Z","duration":"PT19M53S","thumbnail":"https://i.ytimg.com/vi/vLMMfgXnK2g/mqdefault.jpg","viewCount":"342","playlistId":"PLEkQk5xrP-tnW3iBL7HkKziOFCFZbTlf0","playlistName":"شرح البرهان في علوم القرآن - أ.د. يسري جبر","category":"تفسير"},{"id":"H8uH_MDxJ0Q","title":"شرح البرهان في علوم القرآن - النوع ٣٧ - في حكم الآيات المتشابهات الواردة في الصفات ٢","publishedAt":"2020-03-13T06:30:01Z","duration":"PT34M36S","thumbnail":"https://i.ytimg.com/vi/H8uH_MDxJ0Q/mqdefault.jpg","viewCount":"341","playlistId":"PLEkQk5xrP-tnW3iBL7HkKziOFCFZbTlf0","playlistName":"شرح البرهان في علوم القرآن - أ.د. يسري جبر","category":"تفسير"},{"id":"sVJqXR7usj0","title":"القِسمُ (14) من التوكيد: فوائد التَّكرار: الفائدة الخامسة - شرح البرهان في علوم القرآن","publishedAt":"2021-04-23T04:18:33Z","duration":"PT22M7S","thumbnail":"https://i.ytimg.com/vi/sVJqXR7usj0/mqdefault.jpg","viewCount":"341","playlistId":"PLEkQk5xrP-tnW3iBL7HkKziOFCFZbTlf0","playlistName":"شرح البرهان في علوم القرآن - أ.د. يسري جبر","category":"تفسير"},{"id":"ZpsG8Chws8c","title":"القِسمُ الحادي عشر من التوكيد: المثنَّى وإرادة الواحد - شرح البرهان في علوم القرآن","publishedAt":"2021-04-12T06:05:18Z","duration":"PT16M27S","thumbnail":"https://i.ytimg.com/vi/ZpsG8Chws8c/mqdefault.jpg","viewCount":"341","playlistId":"PLEkQk5xrP-tnW3iBL7HkKziOFCFZbTlf0","playlistName":"شرح البرهان في علوم القرآن - أ.د. يسري جبر","category":"تفسير"}],"total":1096,"page":36,"pageSize":24,"totalPages":46}