{"items":[{"id":"tVRFnz_Ys5Y","title":"خطاب الجمع بلفظ الواحد","publishedAt":"2020-09-29T06:41:46Z","duration":"PT28M4S","thumbnail":"https://i.ytimg.com/vi/tVRFnz_Ys5Y/mqdefault.jpg","viewCount":"702","playlistId":"PLEkQk5xrP-tnW3iBL7HkKziOFCFZbTlf0","playlistName":"شرح البرهان في علوم القرآن - أ.د. يسري جبر","category":"تفسير"},{"id":"itPmGHa8GU0","title":"الالتفات: البحث الخامس: نقل الكلام إلى غيره - شرح البرهان في علوم القرآن","publishedAt":"2021-12-03T07:00:36Z","duration":"PT32M14S","thumbnail":"https://i.ytimg.com/vi/itPmGHa8GU0/mqdefault.jpg","viewCount":"702","playlistId":"PLEkQk5xrP-tnW3iBL7HkKziOFCFZbTlf0","playlistName":"شرح البرهان في علوم القرآن - أ.د. يسري جبر","category":"تفسير"},{"id":"iY9CX6tOdKo","title":"227- الاستعارة - شرح الإتقان في علوم القرآن","publishedAt":"2024-04-23T05:30:15Z","duration":"PT24M18S","thumbnail":"https://i.ytimg.com/vi/iY9CX6tOdKo/mqdefault.jpg","viewCount":"701","playlistId":"PLEkQk5xrP-tlPw10KGJKagu7zm4Ry2Tge","playlistName":"شرح الإتقان في علوم القرآن","category":"تفسير"},{"id":"Oh8exxIPKbM","title":"228- أقسام الاستعارة: أصلية ، تبعية - شرح الإتقان في علوم القرآن","publishedAt":"2024-04-25T06:15:01Z","duration":"PT32M57S","thumbnail":"https://i.ytimg.com/vi/Oh8exxIPKbM/mqdefault.jpg","viewCount":"699","playlistId":"PLEkQk5xrP-tlPw10KGJKagu7zm4Ry2Tge","playlistName":"شرح الإتقان في علوم القرآن","category":"تفسير"},{"id":"lHjQtTKEF1s","title":"165- معنى (مِن - مَن) - شرح الإتقان في علوم القرآن","publishedAt":"2023-10-29T06:00:27Z","duration":"PT33M37S","thumbnail":"https://i.ytimg.com/vi/lHjQtTKEF1s/mqdefault.jpg","viewCount":"699","playlistId":"PLEkQk5xrP-tlPw10KGJKagu7zm4Ry2Tge","playlistName":"شرح الإتقان في علوم القرآن","category":"تفسير"},{"id":"FjAuoJvNByo","title":"152- معنى (كلَّا) - شرح الإتقان في علوم القرآن","publishedAt":"2023-09-24T05:15:01Z","duration":"PT21M7S","thumbnail":"https://i.ytimg.com/vi/FjAuoJvNByo/mqdefault.jpg","viewCount":"699","playlistId":"PLEkQk5xrP-tlPw10KGJKagu7zm4Ry2Tge","playlistName":"شرح الإتقان في علوم القرآن","category":"تفسير"},{"id":"-y3riLwaGjI","title":"245- الاختزال: أمثلة حذف أكثر من كلمة - شرح الإتقان في علوم القرآن","publishedAt":"2024-06-30T05:00:00Z","duration":"PT17M32S","thumbnail":"https://i.ytimg.com/vi/-y3riLwaGjI/mqdefault.jpg","viewCount":"698","playlistId":"PLEkQk5xrP-tlPw10KGJKagu7zm4Ry2Tge","playlistName":"شرح الإتقان في علوم القرآن","category":"تفسير"},{"id":"bVDO0y5fWi4","title":"212- أقسام سور القرآن باعتبار الناسخ والمنسوخ (2) - شرح الإتقان في علوم القرآن","publishedAt":"2024-02-22T08:06:53Z","duration":"PT34M28S","thumbnail":"https://i.ytimg.com/vi/bVDO0y5fWi4/mqdefault.jpg","viewCount":"698","playlistId":"PLEkQk5xrP-tlPw10KGJKagu7zm4Ry2Tge","playlistName":"شرح الإتقان في علوم القرآن","category":"تفسير"},{"id":"40NVO7BucX4","title":"شرح البرهان في علوم القرآن - النوع ٥ - الفصل ٢ : ما جاء على حرفين","publishedAt":"2019-09-16T21:58:30Z","duration":"PT13M31S","thumbnail":"https://i.ytimg.com/vi/40NVO7BucX4/mqdefault.jpg","viewCount":"698","playlistId":"PLEkQk5xrP-tnW3iBL7HkKziOFCFZbTlf0","playlistName":"شرح البرهان في علوم القرآن - أ.د. يسري جبر","category":"تفسير"},{"id":"FAD5QhKCoas","title":"المُقَابَلَة - شرح البرهان في علوم القرآن","publishedAt":"2022-02-25T20:18:42Z","duration":"PT12M59S","thumbnail":"https://i.ytimg.com/vi/FAD5QhKCoas/mqdefault.jpg","viewCount":"693","playlistId":"PLEkQk5xrP-tnW3iBL7HkKziOFCFZbTlf0","playlistName":"شرح البرهان في علوم القرآن - أ.د. يسري جبر","category":"تفسير"},{"id":"QuahGy6o3CA","title":"160- معنى (لو) - شرح الإتقان في علوم القرآن","publishedAt":"2023-10-15T05:15:00Z","duration":"PT33M","thumbnail":"https://i.ytimg.com/vi/QuahGy6o3CA/mqdefault.jpg","viewCount":"691","playlistId":"PLEkQk5xrP-tlPw10KGJKagu7zm4Ry2Tge","playlistName":"شرح الإتقان في علوم القرآن","category":"تفسير"},{"id":"PgrMb_LKmGA","title":"51- بيان مَن جمع القرآن ومَن اشتهر بإقرائه - شرح الإتقان في علوم القرآن","publishedAt":"2023-04-15T10:01:00Z","duration":"PT25M48S","thumbnail":"https://i.ytimg.com/vi/PgrMb_LKmGA/mqdefault.jpg","viewCount":"691","playlistId":"PLEkQk5xrP-tlPw10KGJKagu7zm4Ry2Tge","playlistName":"شرح الإتقان في علوم القرآن","category":"تفسير"},{"id":"kGEA566Om8w","title":"291- العلوم المستنبطة من القرآن - شرح الإتقان في علوم القرآن","publishedAt":"2025-04-29T09:01:07Z","duration":"PT16M23S","thumbnail":"https://i.ytimg.com/vi/kGEA566Om8w/mqdefault.jpg","viewCount":"690","playlistId":"PLEkQk5xrP-tlPw10KGJKagu7zm4Ry2Tge","playlistName":"شرح الإتقان في علوم القرآن","category":"تفسير"},{"id":"-3uKNiTQYZk","title":"(هاء) التنبيه - من أدوات التأكيد\"مؤكِّدات الجُمَل الإسميَّة\" شرح البرهان في علوم القرآن","publishedAt":"2021-01-26T08:18:03Z","duration":"PT18M14S","thumbnail":"https://i.ytimg.com/vi/-3uKNiTQYZk/mqdefault.jpg","viewCount":"690","playlistId":"PLEkQk5xrP-tnW3iBL7HkKziOFCFZbTlf0","playlistName":"شرح البرهان في علوم القرآن - أ.د. يسري جبر","category":"تفسير"},{"id":"y0k5D7v9AlE","title":"68- أحكام التلاوة (2): الإدغام والإظهار والإخفاء والإقلاب - شرح الإتقان في علوم القرآن","publishedAt":"2023-05-11T05:30:12Z","duration":"PT11M5S","thumbnail":"https://i.ytimg.com/vi/y0k5D7v9AlE/mqdefault.jpg","viewCount":"689","playlistId":"PLEkQk5xrP-tlPw10KGJKagu7zm4Ry2Tge","playlistName":"شرح الإتقان في علوم القرآن","category":"تفسير"},{"id":"jHNEkOdzCO0","title":"282- مناسبة الآيات والسور - شرح الإتقان في علوم القرآن","publishedAt":"2025-02-04T07:29:11Z","duration":"PT42M58S","thumbnail":"https://i.ytimg.com/vi/jHNEkOdzCO0/mqdefault.jpg","viewCount":"688","playlistId":"PLEkQk5xrP-tlPw10KGJKagu7zm4Ry2Tge","playlistName":"شرح الإتقان في علوم القرآن","category":"تفسير"},{"id":"0vMX5T_VLKo","title":"تكملة أنواع التقديم والتأخير (10) - شرح البرهان في علوم القرآن","publishedAt":"2021-09-30T10:40:31Z","duration":"PT35M8S","thumbnail":"https://i.ytimg.com/vi/0vMX5T_VLKo/mqdefault.jpg","viewCount":"686","playlistId":"PLEkQk5xrP-tnW3iBL7HkKziOFCFZbTlf0","playlistName":"شرح البرهان في علوم القرآن - أ.د. يسري جبر","category":"تفسير"},{"id":"LQA5nD65uOA","title":"تكملة الأسلوب العشرين - فَتُصْبِحُ الْأَرْضُ مُخْضَرَّةً ۗ - شرح البرهان في علوم القرآن","publishedAt":"2021-12-24T07:11:51Z","duration":"PT22M41S","thumbnail":"https://i.ytimg.com/vi/LQA5nD65uOA/mqdefault.jpg","viewCount":"686","playlistId":"PLEkQk5xrP-tnW3iBL7HkKziOFCFZbTlf0","playlistName":"شرح البرهان في علوم القرآن - أ.د. يسري جبر","category":"تفسير"},{"id":"jJJPseN-OjI","title":"84- حكم سجود التِّلاوة ومواضعها -آداب تلاوة القرآن (7) - شرح الإتقان في علوم القرآن","publishedAt":"2023-05-29T05:00:30Z","duration":"PT30M5S","thumbnail":"https://i.ytimg.com/vi/jJJPseN-OjI/mqdefault.jpg","viewCount":"685","playlistId":"PLEkQk5xrP-tlPw10KGJKagu7zm4Ry2Tge","playlistName":"شرح الإتقان في علوم القرآن","category":"تفسير"},{"id":"rZB5Kr0rtGw","title":"شرح البرهان في علوم القرآن - النوع ١٤ - تنبيه : ترتيب وضع السور في المصحف","publishedAt":"2019-11-13T14:45:14Z","duration":"PT13M12S","thumbnail":"https://i.ytimg.com/vi/rZB5Kr0rtGw/mqdefault.jpg","viewCount":"685","playlistId":"PLEkQk5xrP-tnW3iBL7HkKziOFCFZbTlf0","playlistName":"شرح البرهان في علوم القرآن - أ.د. يسري جبر","category":"تفسير"},{"id":"-YmrWz1SxGM","title":"153- معاني (كم - كي - كيف) - شرح الإتقان في علوم القرآن","publishedAt":"2023-09-26T05:15:00Z","duration":"PT32M6S","thumbnail":"https://i.ytimg.com/vi/-YmrWz1SxGM/mqdefault.jpg","viewCount":"684","playlistId":"PLEkQk5xrP-tlPw10KGJKagu7zm4Ry2Tge","playlistName":"شرح الإتقان في علوم القرآن","category":"تفسير"},{"id":"FKebcgEeWfs","title":"263- بدائع القرآن - شرح الإتقان في علوم القرآن","publishedAt":"2024-10-31T06:00:06Z","duration":"PT37M39S","thumbnail":"https://i.ytimg.com/vi/FKebcgEeWfs/mqdefault.jpg","viewCount":"682","playlistId":"PLEkQk5xrP-tlPw10KGJKagu7zm4Ry2Tge","playlistName":"شرح الإتقان في علوم القرآن","category":"تفسير"},{"id":"ga_FuqR4s-c","title":"وضعُ الطلب موضع الخبر  - شرح البرهان في علوم القرآن","publishedAt":"2021-12-09T06:02:30Z","duration":"PT28M6S","thumbnail":"https://i.ytimg.com/vi/ga_FuqR4s-c/mqdefault.jpg","viewCount":"681","playlistId":"PLEkQk5xrP-tnW3iBL7HkKziOFCFZbTlf0","playlistName":"شرح البرهان في علوم القرآن - أ.د. يسري جبر","category":"تفسير"},{"id":"_QF2cMnYOjM","title":"شرح البرهان في علوم القرآن - النوع ٢٩ - مسألة في حكم من يشرب شيئا كتب من القرآن","publishedAt":"2020-02-12T06:00:06Z","duration":"PT25M5S","thumbnail":"https://i.ytimg.com/vi/_QF2cMnYOjM/mqdefault.jpg","viewCount":"681","playlistId":"PLEkQk5xrP-tnW3iBL7HkKziOFCFZbTlf0","playlistName":"شرح البرهان في علوم القرآن - أ.د. يسري جبر","category":"تفسير"}],"total":1096,"page":14,"pageSize":24,"totalPages":46}