{"items":[{"id":"u74HH6Ek8Dg","title":"فصلٌ في ذِكر الأمور التي تعين على المعنى عند الإشكال","publishedAt":"2020-09-10T05:12:57Z","duration":"PT21M48S","thumbnail":"https://i.ytimg.com/vi/u74HH6Ek8Dg/mqdefault.jpg","viewCount":"829","playlistId":"PLEkQk5xrP-tnW3iBL7HkKziOFCFZbTlf0","playlistName":"شرح البرهان في علوم القرآن - أ.د. يسري جبر","category":"تفسير"},{"id":"Hyv032b85NM","title":"المفعول المطلق","publishedAt":"2021-01-08T06:51:33Z","duration":"PT23M33S","thumbnail":"https://i.ytimg.com/vi/Hyv032b85NM/mqdefault.jpg","viewCount":"828","playlistId":"PLEkQk5xrP-tnW3iBL7HkKziOFCFZbTlf0","playlistName":"شرح البرهان في علوم القرآن - أ.د. يسري جبر","category":"تفسير"},{"id":"6By00-2MLHc","title":"ختام شرح كتاب الإشارات الزروقيّة علی الآيات القرآنية - المجلس الثامن","publishedAt":"2018-07-01T09:02:07Z","duration":"PT59M17S","thumbnail":"https://i.ytimg.com/vi/6By00-2MLHc/mqdefault.jpg","viewCount":"827","playlistId":"PLEkQk5xrP-tl1OLT5J2vthcf9QHpjNkWx","playlistName":"شرح كتاب الإشارات الزروقيّة علی الآيات القرآنية  د. يسري جبر","category":"تفسير"},{"id":"w2EJEXQbqlg","title":"قراءة القرآن (من آية 25 سورة الأحزاب)","publishedAt":"2015-08-08T04:00:52Z","duration":"PT29M46S","thumbnail":"https://i.ytimg.com/vi/w2EJEXQbqlg/mqdefault.jpg","viewCount":"823","playlistId":"PLEkQk5xrP-tnUSUj0uyJhA-kwNC7Gkx_j","playlistName":"مقرأة الفجر - بداية من سورة الإسراء حتى سورة الناس","category":"تفسير"},{"id":"Ab0FPvaMGR0","title":"527- معنى كلمة \"أرأيت\" - شرح البرهان في علوم القرآن","publishedAt":"2022-06-12T20:50:00Z","duration":"PT16M52S","thumbnail":"https://i.ytimg.com/vi/Ab0FPvaMGR0/mqdefault.jpg","viewCount":"821","playlistId":"PLEkQk5xrP-tnW3iBL7HkKziOFCFZbTlf0","playlistName":"شرح البرهان في علوم القرآن - أ.د. يسري جبر","category":"تفسير"},{"id":"MBsAZw0Vcqs","title":"253- من غرائب التفسير وعجائب التأويل - شرح الإتقان في علوم القرآن","publishedAt":"2024-09-05T08:03:32Z","duration":"PT48M","thumbnail":"https://i.ytimg.com/vi/MBsAZw0Vcqs/mqdefault.jpg","viewCount":"816","playlistId":"PLEkQk5xrP-tlPw10KGJKagu7zm4Ry2Tge","playlistName":"شرح الإتقان في علوم القرآن","category":"تفسير"},{"id":"e71G9EWqdtU","title":"قراءة القرآن (من آية 53 في سورة الأحزاب)","publishedAt":"2015-08-11T03:51:47Z","duration":"PT22M21S","thumbnail":"https://i.ytimg.com/vi/e71G9EWqdtU/mqdefault.jpg","viewCount":"813","playlistId":"PLEkQk5xrP-tnUSUj0uyJhA-kwNC7Gkx_j","playlistName":"مقرأة الفجر - بداية من سورة الإسراء حتى سورة الناس","category":"تفسير"},{"id":"v7ynP3H3xzQ","title":"59- معرفة الوقف والابتداء (2) - شرح الإتقان في علوم القرآن","publishedAt":"2023-05-03T05:00:23Z","duration":"PT42M15S","thumbnail":"https://i.ytimg.com/vi/v7ynP3H3xzQ/mqdefault.jpg","viewCount":"811","playlistId":"PLEkQk5xrP-tlPw10KGJKagu7zm4Ry2Tge","playlistName":"شرح الإتقان في علوم القرآن","category":"تفسير"},{"id":"biONh84eJGg","title":"نَفْي الشَّيءِ رَأْسًا - شرح البرهان في علوم القرآن","publishedAt":"2022-01-10T06:43:48Z","duration":"PT33M22S","thumbnail":"https://i.ytimg.com/vi/biONh84eJGg/mqdefault.jpg","viewCount":"810","playlistId":"PLEkQk5xrP-tnW3iBL7HkKziOFCFZbTlf0","playlistName":"شرح البرهان في علوم القرآن - أ.د. يسري جبر","category":"تفسير"},{"id":"GKAcv-UkpbA","title":"الظاهر والمُؤول","publishedAt":"2020-09-14T06:06:52Z","duration":"PT26M53S","thumbnail":"https://i.ytimg.com/vi/GKAcv-UkpbA/mqdefault.jpg","viewCount":"808","playlistId":"PLEkQk5xrP-tnW3iBL7HkKziOFCFZbTlf0","playlistName":"شرح البرهان في علوم القرآن - أ.د. يسري جبر","category":"تفسير"},{"id":"A-9ehOH0Byc","title":"194- قاعدةٌ في العطف - شرح الإتقان في علوم القرآن","publishedAt":"2024-01-07T06:15:00Z","duration":"PT43M28S","thumbnail":"https://i.ytimg.com/vi/A-9ehOH0Byc/mqdefault.jpg","viewCount":"806","playlistId":"PLEkQk5xrP-tlPw10KGJKagu7zm4Ry2Tge","playlistName":"شرح الإتقان في علوم القرآن","category":"تفسير"},{"id":"X2Rsyh1KIPc","title":"الاستفهام التقريري","publishedAt":"2020-11-19T06:56:55Z","duration":"PT13M49S","thumbnail":"https://i.ytimg.com/vi/X2Rsyh1KIPc/mqdefault.jpg","viewCount":"805","playlistId":"PLEkQk5xrP-tnW3iBL7HkKziOFCFZbTlf0","playlistName":"شرح البرهان في علوم القرآن - أ.د. يسري جبر","category":"تفسير"},{"id":"3qhLlAnr0pk","title":"211- أقسام سور القرآن باعتبار الناسخ والمنسوخ - شرح الإتقان في علوم القرآن","publishedAt":"2024-02-20T06:30:00Z","duration":"PT40M32S","thumbnail":"https://i.ytimg.com/vi/3qhLlAnr0pk/mqdefault.jpg","viewCount":"804","playlistId":"PLEkQk5xrP-tlPw10KGJKagu7zm4Ry2Tge","playlistName":"شرح الإتقان في علوم القرآن","category":"تفسير"},{"id":"4DTE3cgL8YQ","title":"شرح البرهان في علوم القرآن - النوع ٢٩ - مسألة في التكبير بين السور ابتداء من سورة الضحى","publishedAt":"2020-02-11T06:00:01Z","duration":"PT19M13S","thumbnail":"https://i.ytimg.com/vi/4DTE3cgL8YQ/mqdefault.jpg","viewCount":"802","playlistId":"PLEkQk5xrP-tnW3iBL7HkKziOFCFZbTlf0","playlistName":"شرح البرهان في علوم القرآن - أ.د. يسري جبر","category":"تفسير"},{"id":"clLhwptuPaY","title":"شرح البرهان في علوم القرآن - النوع ٢٠ - معرفة الأحكام من جهة أفرادها وتركيبها","publishedAt":"2019-11-27T12:16:00Z","duration":"PT33M47S","thumbnail":"https://i.ytimg.com/vi/clLhwptuPaY/mqdefault.jpg","viewCount":"799","playlistId":"PLEkQk5xrP-tnW3iBL7HkKziOFCFZbTlf0","playlistName":"شرح البرهان في علوم القرآن - أ.د. يسري جبر","category":"تفسير"},{"id":"JPKw_XbZyr4","title":"اشتراك اللفظ بين حقيقتين أو حقيقة ومجاز","publishedAt":"2020-09-15T05:43:38Z","duration":"PT31M16S","thumbnail":"https://i.ytimg.com/vi/JPKw_XbZyr4/mqdefault.jpg","viewCount":"797","playlistId":"PLEkQk5xrP-tnW3iBL7HkKziOFCFZbTlf0","playlistName":"شرح البرهان في علوم القرآن - أ.د. يسري جبر","category":"تفسير"},{"id":"34c_tXNbH94","title":"185- أسباب التعريف - شرح الإتقان في علوم القرآن","publishedAt":"2023-12-18T06:54:13Z","duration":"PT30M18S","thumbnail":"https://i.ytimg.com/vi/34c_tXNbH94/mqdefault.jpg","viewCount":"796","playlistId":"PLEkQk5xrP-tlPw10KGJKagu7zm4Ry2Tge","playlistName":"شرح الإتقان في علوم القرآن","category":"تفسير"},{"id":"Yh306frLCr0","title":"163- معنى (ما) - شرح الإتقان في علوم القرآن","publishedAt":"2023-10-22T05:30:08Z","duration":"PT24M36S","thumbnail":"https://i.ytimg.com/vi/Yh306frLCr0/mqdefault.jpg","viewCount":"794","playlistId":"PLEkQk5xrP-tlPw10KGJKagu7zm4Ry2Tge","playlistName":"شرح الإتقان في علوم القرآن","category":"تفسير"},{"id":"wAJlnlCk-gk","title":"75- أهمّية تجويد القرآن - شرح الإتقان في علوم القرآن","publishedAt":"2023-05-19T05:00:33Z","duration":"PT33M41S","thumbnail":"https://i.ytimg.com/vi/wAJlnlCk-gk/mqdefault.jpg","viewCount":"792","playlistId":"PLEkQk5xrP-tlPw10KGJKagu7zm4Ry2Tge","playlistName":"شرح الإتقان في علوم القرآن","category":"تفسير"},{"id":"OddD4KGY9bI","title":"إطلاق اسم الكُلّ على الجزء","publishedAt":"2020-10-13T07:42:29Z","duration":"PT26M31S","thumbnail":"https://i.ytimg.com/vi/OddD4KGY9bI/mqdefault.jpg","viewCount":"792","playlistId":"PLEkQk5xrP-tnW3iBL7HkKziOFCFZbTlf0","playlistName":"شرح البرهان في علوم القرآن - أ.د. يسري جبر","category":"تفسير"},{"id":"U03-YMmtg-Y","title":"191- قاعدةٌ في السؤال والجواب - شرح الإتقان في علوم القرآن","publishedAt":"2024-01-01T07:00:17Z","duration":"PT25M59S","thumbnail":"https://i.ytimg.com/vi/U03-YMmtg-Y/mqdefault.jpg","viewCount":"791","playlistId":"PLEkQk5xrP-tlPw10KGJKagu7zm4Ry2Tge","playlistName":"شرح الإتقان في علوم القرآن","category":"تفسير"},{"id":"lF3pKF1bpHQ","title":"قد يكون اللفظ مقتضيا لأمر ويُحمل على غيره","publishedAt":"2020-09-09T05:12:11Z","duration":"PT18M7S","thumbnail":"https://i.ytimg.com/vi/lF3pKF1bpHQ/mqdefault.jpg","viewCount":"791","playlistId":"PLEkQk5xrP-tnW3iBL7HkKziOFCFZbTlf0","playlistName":"شرح البرهان في علوم القرآن - أ.د. يسري جبر","category":"تفسير"},{"id":"a0QARaqmAGQ","title":"254- الإيغال وهو الإمعان - شرح الإتقان في علوم القرآن","publishedAt":"2024-09-11T05:55:52Z","duration":"PT28M40S","thumbnail":"https://i.ytimg.com/vi/a0QARaqmAGQ/mqdefault.jpg","viewCount":"790","playlistId":"PLEkQk5xrP-tlPw10KGJKagu7zm4Ry2Tge","playlistName":"شرح الإتقان في علوم القرآن","category":"تفسير"},{"id":"RCqwGssFptA","title":"162- معنى (ليت - ليس)- شرح الإتقان في علوم القرآن","publishedAt":"2023-10-19T05:30:07Z","duration":"PT35M38S","thumbnail":"https://i.ytimg.com/vi/RCqwGssFptA/mqdefault.jpg","viewCount":"788","playlistId":"PLEkQk5xrP-tlPw10KGJKagu7zm4Ry2Tge","playlistName":"شرح الإتقان في علوم القرآن","category":"تفسير"}],"total":1097,"page":10,"pageSize":24,"totalPages":46}