{"items":[{"id":"YmzXzUH0DQw","title":"نُبْذةٌ عن الإمام السيوطي رضي الله عنه | فهرس الكتاب - شرح الإتقان في علوم القرآن","publishedAt":"2023-01-06T05:00:25Z","duration":"PT36M56S","thumbnail":"https://i.ytimg.com/vi/YmzXzUH0DQw/mqdefault.jpg","viewCount":"17653","playlistId":"PLEkQk5xrP-tlPw10KGJKagu7zm4Ry2Tge","playlistName":"شرح الإتقان في علوم القرآن","category":"تفسير"},{"id":"OzL4hAp9YOE","title":"شرح البرهان في علوم القرآن - مقدمة المؤلف","publishedAt":"2019-08-18T11:26:07Z","duration":"PT34M46S","thumbnail":"https://i.ytimg.com/vi/OzL4hAp9YOE/mqdefault.jpg","viewCount":"15763","playlistId":"PLEkQk5xrP-tnW3iBL7HkKziOFCFZbTlf0","playlistName":"شرح البرهان في علوم القرآن - أ.د. يسري جبر","category":"تفسير"},{"id":"Z9iOZ43j4a0","title":"شرح البرهان في علوم القرآن - فصل في علم التفسير","publishedAt":"2019-08-20T07:21:52Z","duration":"PT36M23S","thumbnail":"https://i.ytimg.com/vi/Z9iOZ43j4a0/mqdefault.jpg","viewCount":"6543","playlistId":"PLEkQk5xrP-tnW3iBL7HkKziOFCFZbTlf0","playlistName":"شرح البرهان في علوم القرآن - أ.د. يسري جبر","category":"تفسير"},{"id":"VB0Aunmfr34","title":"شرح البرهان في علوم القرآن - تكملة مقدمة المؤلف","publishedAt":"2019-08-19T09:41:00Z","duration":"PT29M23S","thumbnail":"https://i.ytimg.com/vi/VB0Aunmfr34/mqdefault.jpg","viewCount":"5690","playlistId":"PLEkQk5xrP-tnW3iBL7HkKziOFCFZbTlf0","playlistName":"شرح البرهان في علوم القرآن - أ.د. يسري جبر","category":"تفسير"},{"id":"qjIOYpIZQs4","title":"شرح البرهان في علوم القرآن - النوع ١ - معرفة أسباب النزول","publishedAt":"2019-08-22T09:25:58Z","duration":"PT35M22S","thumbnail":"https://i.ytimg.com/vi/qjIOYpIZQs4/mqdefault.jpg","viewCount":"5076","playlistId":"PLEkQk5xrP-tnW3iBL7HkKziOFCFZbTlf0","playlistName":"شرح البرهان في علوم القرآن - أ.د. يسري جبر","category":"تفسير"},{"id":"ibAR_99gbTI","title":"شرح كتاب الإشارات الزروقيّة علی الآيات القرآنية - المجلس الأول","publishedAt":"2018-06-28T04:03:04Z","duration":"PT35M20S","thumbnail":"https://i.ytimg.com/vi/ibAR_99gbTI/mqdefault.jpg","viewCount":"5050","playlistId":"PLEkQk5xrP-tl1OLT5J2vthcf9QHpjNkWx","playlistName":"شرح كتاب الإشارات الزروقيّة علی الآيات القرآنية  د. يسري جبر","category":"تفسير"},{"id":"Flw7hVwA-q4","title":"الرد على من ينكر ​الإسراء والمعراج","publishedAt":"2021-03-14T08:00:07Z","duration":"PT12M22S","thumbnail":"https://i.ytimg.com/vi/Flw7hVwA-q4/mqdefault.jpg","viewCount":"4744","playlistId":"PLEkQk5xrP-tkUKP083yQli9ADnyTpMmgU","playlistName":"شرح كتاب الآية الكبرى في الإسراء والعراج","category":"تفسير"},{"id":"z0DLSxxQYRU","title":"2- المقدمة أول ما يقرأ القارئ وآخر ما يكتبه الكاتب - شرح الإتقان في علوم القرآن","publishedAt":"2023-01-07T05:00:23Z","duration":"PT23M58S","thumbnail":"https://i.ytimg.com/vi/z0DLSxxQYRU/mqdefault.jpg","viewCount":"4717","playlistId":"PLEkQk5xrP-tlPw10KGJKagu7zm4Ry2Tge","playlistName":"شرح الإتقان في علوم القرآن","category":"تفسير"},{"id":"LcATst9bpZs","title":"3- النوع الأول في معرفة المَكّي والمَدَني  - شرح الإتقان في علوم القرآن","publishedAt":"2023-01-08T05:00:13Z","duration":"PT28M8S","thumbnail":"https://i.ytimg.com/vi/LcATst9bpZs/mqdefault.jpg","viewCount":"4199","playlistId":"PLEkQk5xrP-tlPw10KGJKagu7zm4Ry2Tge","playlistName":"شرح الإتقان في علوم القرآن","category":"تفسير"},{"id":"42rWRT9_NVs","title":"شرح البرهان في علوم القرآن - فصل في علوم القرآن","publishedAt":"2019-08-21T09:15:42Z","duration":"PT27M34S","thumbnail":"https://i.ytimg.com/vi/42rWRT9_NVs/mqdefault.jpg","viewCount":"4160","playlistId":"PLEkQk5xrP-tnW3iBL7HkKziOFCFZbTlf0","playlistName":"شرح البرهان في علوم القرآن - أ.د. يسري جبر","category":"تفسير"},{"id":"kq4RU0aWMN4","title":"قراءة القرآن من سورة الإسراء (من آية 49)","publishedAt":"2015-05-30T03:15:16Z","duration":"PT12M6S","thumbnail":"https://i.ytimg.com/vi/kq4RU0aWMN4/mqdefault.jpg","viewCount":"4088","playlistId":"PLEkQk5xrP-tnUSUj0uyJhA-kwNC7Gkx_j","playlistName":"مقرأة الفجر - بداية من سورة الإسراء حتى سورة الناس","category":"تفسير"},{"id":"T7v1Rwp9bAo","title":"شرح البرهان في علوم القرآن - النوع ١ - فصل فيما نزل مكررا","publishedAt":"2019-08-24T10:04:37Z","duration":"PT27M16S","thumbnail":"https://i.ytimg.com/vi/T7v1Rwp9bAo/mqdefault.jpg","viewCount":"3591","playlistId":"PLEkQk5xrP-tnW3iBL7HkKziOFCFZbTlf0","playlistName":"شرح البرهان في علوم القرآن - أ.د. يسري جبر","category":"تفسير"},{"id":"uTW3b3QLU30","title":"شرح البرهان في علوم القرآن - النوع ٢ - معرفة المناسبات بين الآيات","publishedAt":"2019-08-25T08:53:35Z","duration":"PT33M34S","thumbnail":"https://i.ytimg.com/vi/uTW3b3QLU30/mqdefault.jpg","viewCount":"3319","playlistId":"PLEkQk5xrP-tnW3iBL7HkKziOFCFZbTlf0","playlistName":"شرح البرهان في علوم القرآن - أ.د. يسري جبر","category":"تفسير"},{"id":"2xSsN31zq7M","title":"507- الفرق بين الإتيان والإعطاء - شرح البرهان في علوم القرآن","publishedAt":"2022-05-14T05:45:01Z","duration":"PT15M21S","thumbnail":"https://i.ytimg.com/vi/2xSsN31zq7M/mqdefault.jpg","viewCount":"2895","playlistId":"PLEkQk5xrP-tnW3iBL7HkKziOFCFZbTlf0","playlistName":"شرح البرهان في علوم القرآن - أ.د. يسري جبر","category":"تفسير"},{"id":"5arkjNhQQhE","title":"510- قاعدة فيما إذا ذكر الاسم مرتين: 1- أن يكونا مُعَرَّفتين - شرح البرهان في علوم القرآن","publishedAt":"2022-05-20T05:15:00Z","duration":"PT37M19S","thumbnail":"https://i.ytimg.com/vi/5arkjNhQQhE/mqdefault.jpg","viewCount":"2813","playlistId":"PLEkQk5xrP-tnW3iBL7HkKziOFCFZbTlf0","playlistName":"شرح البرهان في علوم القرآن - أ.د. يسري جبر","category":"تفسير"},{"id":"37Zui8ESMjs","title":"520- جَعَلَ - خَلَقَ: ما الفرق بينهما؟ - شرح البرهان في علوم القرآن","publishedAt":"2022-06-01T17:00:02Z","duration":"PT29M16S","thumbnail":"https://i.ytimg.com/vi/37Zui8ESMjs/mqdefault.jpg","viewCount":"2694","playlistId":"PLEkQk5xrP-tnW3iBL7HkKziOFCFZbTlf0","playlistName":"شرح البرهان في علوم القرآن - أ.د. يسري جبر","category":"تفسير"},{"id":"bHNraVVvB_8","title":"4- معرفة ما نزل من القرآن بمكّة - شرح الإتقان في علوم القرآن","publishedAt":"2023-01-09T05:00:23Z","duration":"PT22M1S","thumbnail":"https://i.ytimg.com/vi/bHNraVVvB_8/mqdefault.jpg","viewCount":"2658","playlistId":"PLEkQk5xrP-tlPw10KGJKagu7zm4Ry2Tge","playlistName":"شرح الإتقان في علوم القرآن","category":"تفسير"},{"id":"L1r9Y-Cdpks","title":"522- حَسِبَ - كَادَ: ما الفرقُ بينهما؟ - شرح البرهان في علوم القرآن","publishedAt":"2022-06-05T05:00:07Z","duration":"PT31M46S","thumbnail":"https://i.ytimg.com/vi/L1r9Y-Cdpks/mqdefault.jpg","viewCount":"2611","playlistId":"PLEkQk5xrP-tnW3iBL7HkKziOFCFZbTlf0","playlistName":"شرح البرهان في علوم القرآن - أ.د. يسري جبر","category":"تفسير"},{"id":"joU3ciSZR9g","title":"شرح البرهان في علوم القرآن - النوع ٢ - أنواع ارتباط الآي بعضها ببعض","publishedAt":"2019-08-26T10:19:44Z","duration":"PT29M58S","thumbnail":"https://i.ytimg.com/vi/joU3ciSZR9g/mqdefault.jpg","viewCount":"2556","playlistId":"PLEkQk5xrP-tnW3iBL7HkKziOFCFZbTlf0","playlistName":"شرح البرهان في علوم القرآن - أ.د. يسري جبر","category":"تفسير"},{"id":"IOiOtUY1ZSY","title":"489- إذا اجتمع ضمائر فحيث أمكن عودها لواحد فهو أولى من عودها لمختلف - شرح البرهان في علوغالقرآن","publishedAt":"2022-04-06T05:37:19Z","duration":"PT19M34S","thumbnail":"https://i.ytimg.com/vi/IOiOtUY1ZSY/mqdefault.jpg","viewCount":"2484","playlistId":"PLEkQk5xrP-tnW3iBL7HkKziOFCFZbTlf0","playlistName":"شرح البرهان في علوم القرآن - أ.د. يسري جبر","category":"تفسير"},{"id":"JWYVVqqn-o0","title":"528- الفرق بين اليقين والظن والشك والوهم والجهل - شرح البرهان في علوم القرآن","publishedAt":"2022-06-14T06:20:00Z","duration":"PT29M7S","thumbnail":"https://i.ytimg.com/vi/JWYVVqqn-o0/mqdefault.jpg","viewCount":"2450","playlistId":"PLEkQk5xrP-tnW3iBL7HkKziOFCFZbTlf0","playlistName":"شرح البرهان في علوم القرآن - أ.د. يسري جبر","category":"تفسير"},{"id":"dyhrkZDq0lI","title":"495- أقَلُّ الأُمَمِ سُؤَالًا؛ أُمَّةُ سَيّدنَا مُحَمَّد ﷺ - شرح البرهان في علوم القرآن","publishedAt":"2022-04-17T05:00:19Z","duration":"PT13M27S","thumbnail":"https://i.ytimg.com/vi/dyhrkZDq0lI/mqdefault.jpg","viewCount":"2335","playlistId":"PLEkQk5xrP-tnW3iBL7HkKziOFCFZbTlf0","playlistName":"شرح البرهان في علوم القرآن - أ.د. يسري جبر","category":"تفسير"},{"id":"pm0KzmOrNQs","title":"286- خوارق العادات وأنواعها - شرح الإتقان في علوم القرآن","publishedAt":"2025-04-03T10:01:13Z","duration":"PT28M","thumbnail":"https://i.ytimg.com/vi/pm0KzmOrNQs/mqdefault.jpg","viewCount":"2276","playlistId":"PLEkQk5xrP-tlPw10KGJKagu7zm4Ry2Tge","playlistName":"شرح الإتقان في علوم القرآن","category":"تفسير"},{"id":"4DAFvfz4LVM","title":"شرح كتاب الإشارات الزروقيّة علی الآيات القرآنية - المجلس الثاني","publishedAt":"2018-06-18T17:35:08Z","duration":"PT24M35S","thumbnail":"https://i.ytimg.com/vi/4DAFvfz4LVM/mqdefault.jpg","viewCount":"2226","playlistId":"PLEkQk5xrP-tl1OLT5J2vthcf9QHpjNkWx","playlistName":"شرح كتاب الإشارات الزروقيّة علی الآيات القرآنية  د. يسري جبر","category":"تفسير"}],"total":1096,"page":1,"pageSize":24,"totalPages":46}