{"items":[{"id":"23yPXZBqlQ4","title":"63- كيفية الوقْفِ على أواخر الكَلِم - شرح الإتقان في علوم القرآن","publishedAt":"2023-05-06T08:59:00Z","duration":"PT25M52S","thumbnail":"https://i.ytimg.com/vi/23yPXZBqlQ4/mqdefault.jpg","viewCount":"787","playlistId":"PLEkQk5xrP-tlPw10KGJKagu7zm4Ry2Tge","playlistName":"شرح الإتقان في علوم القرآن","category":"تفسير"},{"id":"cZDlINX1jK8","title":"108- الألفاظ الواردة في القرآن التي لها معاني في لغات أخرى - حرف الراء - شرح الإتقان في علوم القرآن","publishedAt":"2023-06-25T05:00:25Z","duration":"PT39M9S","thumbnail":"https://i.ytimg.com/vi/cZDlINX1jK8/mqdefault.jpg","viewCount":"781","playlistId":"PLEkQk5xrP-tlPw10KGJKagu7zm4Ry2Tge","playlistName":"شرح الإتقان في علوم القرآن","category":"تفسير"},{"id":"vAjTbTzaUJ0","title":"تقسيم طَرَفَي التشبيه: المُشَبَّه والمُشَبَّه به - شرح البرهان في علوم القرآن","publishedAt":"2022-01-31T06:53:29Z","duration":"PT22M18S","thumbnail":"https://i.ytimg.com/vi/vAjTbTzaUJ0/mqdefault.jpg","viewCount":"780","playlistId":"PLEkQk5xrP-tnW3iBL7HkKziOFCFZbTlf0","playlistName":"شرح البرهان في علوم القرآن - أ.د. يسري جبر","category":"تفسير"},{"id":"7in1C7MpqjU","title":"200- فصلٌ: من المتشابه أوائل السور - شرح الإتقان في علوم القرآن","publishedAt":"2024-01-27T07:07:08Z","duration":"PT35M39S","thumbnail":"https://i.ytimg.com/vi/7in1C7MpqjU/mqdefault.jpg","viewCount":"777","playlistId":"PLEkQk5xrP-tlPw10KGJKagu7zm4Ry2Tge","playlistName":"شرح الإتقان في علوم القرآن","category":"تفسير"},{"id":"RwgWCkawn58","title":"42- الجمع الثالث للقرآن - شرح الإتقان في علوم القرآن","publishedAt":"2023-03-24T05:00:07Z","duration":"PT25M56S","thumbnail":"https://i.ytimg.com/vi/RwgWCkawn58/mqdefault.jpg","viewCount":"772","playlistId":"PLEkQk5xrP-tlPw10KGJKagu7zm4Ry2Tge","playlistName":"شرح الإتقان في علوم القرآن","category":"تفسير"},{"id":"c9peSk9mCGA","title":"173- شروط الإعراب (3) - شرح الإتقان في علوم القرآن","publishedAt":"2023-11-21T06:36:44Z","duration":"PT18M18S","thumbnail":"https://i.ytimg.com/vi/c9peSk9mCGA/mqdefault.jpg","viewCount":"771","playlistId":"PLEkQk5xrP-tlPw10KGJKagu7zm4Ry2Tge","playlistName":"شرح الإتقان في علوم القرآن","category":"تفسير"},{"id":"_7zDn6D_HTw","title":"شرح البرهان في علوم القرآن - النوع ١٨ - معرفة غريبه","publishedAt":"2019-12-15T08:41:56Z","duration":"PT35M47S","thumbnail":"https://i.ytimg.com/vi/_7zDn6D_HTw/mqdefault.jpg","viewCount":"770","playlistId":"PLEkQk5xrP-tnW3iBL7HkKziOFCFZbTlf0","playlistName":"شرح البرهان في علوم القرآن - أ.د. يسري جبر","category":"تفسير"},{"id":"Fe2k2MF8ktQ","title":"الالتفات: البحث الثالث: أسباب الالتفات - شرح البرهان في علوم القرآن","publishedAt":"2021-11-27T08:04:32Z","duration":"PT28M10S","thumbnail":"https://i.ytimg.com/vi/Fe2k2MF8ktQ/mqdefault.jpg","viewCount":"768","playlistId":"PLEkQk5xrP-tnW3iBL7HkKziOFCFZbTlf0","playlistName":"شرح البرهان في علوم القرآن - أ.د. يسري جبر","category":"تفسير"},{"id":"DIoSDW6qOGA","title":"201- هل للمحكم مزية على المتشابه أم لا ؟ - شرح الإتقان في علوم القرآن","publishedAt":"2024-01-31T06:30:03Z","duration":"PT15M43S","thumbnail":"https://i.ytimg.com/vi/DIoSDW6qOGA/mqdefault.jpg","viewCount":"767","playlistId":"PLEkQk5xrP-tlPw10KGJKagu7zm4Ry2Tge","playlistName":"شرح الإتقان في علوم القرآن","category":"تفسير"},{"id":"-SfhdEmr1Hw","title":"87- غريب القرآن (2) - ما جاء في سورة النساء وما بعدها - شرح الإتقان في علوم القرآن","publishedAt":"2023-05-31T05:00:00Z","duration":"PT28M29S","thumbnail":"https://i.ytimg.com/vi/-SfhdEmr1Hw/mqdefault.jpg","viewCount":"767","playlistId":"PLEkQk5xrP-tlPw10KGJKagu7zm4Ry2Tge","playlistName":"شرح الإتقان في علوم القرآن","category":"تفسير"},{"id":"hg6B9wZhML8","title":"خطاب العام والمراد الخصوص","publishedAt":"2020-09-22T21:09:20Z","duration":"PT25M53S","thumbnail":"https://i.ytimg.com/vi/hg6B9wZhML8/mqdefault.jpg","viewCount":"767","playlistId":"PLEkQk5xrP-tnW3iBL7HkKziOFCFZbTlf0","playlistName":"شرح البرهان في علوم القرآن - أ.د. يسري جبر","category":"تفسير"},{"id":"-FLkP4vXyU8","title":"529- معنى ألفاظ (شَعَرَ - عَسَى - لعل) والفرق بينهم - شرح البرهان في علوم القرآن","publishedAt":"2022-06-16T05:20:00Z","duration":"PT21M58S","thumbnail":"https://i.ytimg.com/vi/-FLkP4vXyU8/mqdefault.jpg","viewCount":"766","playlistId":"PLEkQk5xrP-tnW3iBL7HkKziOFCFZbTlf0","playlistName":"شرح البرهان في علوم القرآن - أ.د. يسري جبر","category":"تفسير"},{"id":"ve3zJnOoH3g","title":"التَّوَسُّع - شرح البرهان في علوم القرآن","publishedAt":"2022-01-25T06:48:48Z","duration":"PT6M18S","thumbnail":"https://i.ytimg.com/vi/ve3zJnOoH3g/mqdefault.jpg","viewCount":"765","playlistId":"PLEkQk5xrP-tnW3iBL7HkKziOFCFZbTlf0","playlistName":"شرح البرهان في علوم القرآن - أ.د. يسري جبر","category":"تفسير"},{"id":"xMmluhaWOxQ","title":"أقسام التشبيه - شرح البرهان في علوم القرآن","publishedAt":"2022-01-29T06:54:09Z","duration":"PT21M38S","thumbnail":"https://i.ytimg.com/vi/xMmluhaWOxQ/mqdefault.jpg","viewCount":"765","playlistId":"PLEkQk5xrP-tnW3iBL7HkKziOFCFZbTlf0","playlistName":"شرح البرهان في علوم القرآن - أ.د. يسري جبر","category":"تفسير"},{"id":"kBFNftu23OA","title":"257- الوعد والوعيد - شرح الإتقان في علوم القرآن","publishedAt":"2024-10-10T06:00:22Z","duration":"PT25M51S","thumbnail":"https://i.ytimg.com/vi/kBFNftu23OA/mqdefault.jpg","viewCount":"764","playlistId":"PLEkQk5xrP-tlPw10KGJKagu7zm4Ry2Tge","playlistName":"شرح الإتقان في علوم القرآن","category":"تفسير"},{"id":"nUiftOL3DO4","title":"47- فصلٌ في عدِّ آي القرآن الكريم - شرح الإتقان في علوم القرآن","publishedAt":"2023-04-03T05:00:27Z","duration":"PT25M49S","thumbnail":"https://i.ytimg.com/vi/nUiftOL3DO4/mqdefault.jpg","viewCount":"763","playlistId":"PLEkQk5xrP-tlPw10KGJKagu7zm4Ry2Tge","playlistName":"شرح الإتقان في علوم القرآن","category":"تفسير"},{"id":"Sl7JtQZYeEk","title":"77- آداب تلاوة القرآن - شرح الإتقان في علوم القرآن","publishedAt":"2023-05-23T05:00:11Z","duration":"PT31M7S","thumbnail":"https://i.ytimg.com/vi/Sl7JtQZYeEk/mqdefault.jpg","viewCount":"761","playlistId":"PLEkQk5xrP-tlPw10KGJKagu7zm4Ry2Tge","playlistName":"شرح الإتقان في علوم القرآن","category":"تفسير"},{"id":"iQasc6ivZXI","title":"الالتفات - شرح البرهان في علوم القرآن","publishedAt":"2021-11-08T05:14:55Z","duration":"PT13M53S","thumbnail":"https://i.ytimg.com/vi/iQasc6ivZXI/mqdefault.jpg","viewCount":"760","playlistId":"PLEkQk5xrP-tnW3iBL7HkKziOFCFZbTlf0","playlistName":"شرح البرهان في علوم القرآن - أ.د. يسري جبر","category":"تفسير"},{"id":"dwDd2yEtT4k","title":"311- أفضل القرآن وفاضله - شرح الإتقان في علوم القرآن","publishedAt":"2025-11-04T05:30:32Z","duration":"PT21M15S","thumbnail":"https://i.ytimg.com/vi/dwDd2yEtT4k/mqdefault.jpg","viewCount":"758","playlistId":"PLEkQk5xrP-tlPw10KGJKagu7zm4Ry2Tge","playlistName":"شرح الإتقان في علوم القرآن","category":"تفسير"},{"id":"TqeZxq9tevw","title":"التشبيه: التقسيم الثالث: ينقسم إلى مُفْرَد ومُرَكَّب - شرح البرهان في علوم القرآن","publishedAt":"2022-02-01T06:51:52Z","duration":"PT17M3S","thumbnail":"https://i.ytimg.com/vi/TqeZxq9tevw/mqdefault.jpg","viewCount":"757","playlistId":"PLEkQk5xrP-tnW3iBL7HkKziOFCFZbTlf0","playlistName":"شرح البرهان في علوم القرآن - أ.د. يسري جبر","category":"تفسير"},{"id":"VzJItUUEEmw","title":"243-النوع الرابع من أنواع الحذف: الاختزال - شرح الإتقان في علوم القرآن","publishedAt":"2024-06-20T05:00:14Z","duration":"PT35M25S","thumbnail":"https://i.ytimg.com/vi/VzJItUUEEmw/mqdefault.jpg","viewCount":"756","playlistId":"PLEkQk5xrP-tlPw10KGJKagu7zm4Ry2Tge","playlistName":"شرح الإتقان في علوم القرآن","category":"تفسير"},{"id":"bKHxRiC6KSU","title":"الاسْتعارةُ فَرعُ التشبيهِ وأنواعُها خَمْسةٌ - شرح البرهان في علوم القرآن","publishedAt":"2022-02-16T07:47:49Z","duration":"PT18M24S","thumbnail":"https://i.ytimg.com/vi/bKHxRiC6KSU/mqdefault.jpg","viewCount":"756","playlistId":"PLEkQk5xrP-tnW3iBL7HkKziOFCFZbTlf0","playlistName":"شرح البرهان في علوم القرآن - أ.د. يسري جبر","category":"تفسير"},{"id":"h3TvPnlTLm0","title":"\"السَّمَآءُ مُنفَطِرٌۢ بِهِ\" تكملة تذكير المؤنث - شرح البرهان في علوم القرآن","publishedAt":"2021-12-16T07:46:39Z","duration":"PT13M10S","thumbnail":"https://i.ytimg.com/vi/h3TvPnlTLm0/mqdefault.jpg","viewCount":"754","playlistId":"PLEkQk5xrP-tnW3iBL7HkKziOFCFZbTlf0","playlistName":"شرح البرهان في علوم القرآن - أ.د. يسري جبر","category":"تفسير"},{"id":"6ND26M7d07o","title":"الشَّرْط","publishedAt":"2020-11-30T08:11:01Z","duration":"PT14M5S","thumbnail":"https://i.ytimg.com/vi/6ND26M7d07o/mqdefault.jpg","viewCount":"753","playlistId":"PLEkQk5xrP-tnW3iBL7HkKziOFCFZbTlf0","playlistName":"شرح البرهان في علوم القرآن - أ.د. يسري جبر","category":"تفسير"}],"total":1096,"page":11,"pageSize":24,"totalPages":46}