{"items":[{"id":"4r-CD4P4_J8","title":"حول المولد النبوي الشريف (3)   د. يسري جبر","publishedAt":"2018-11-25T17:34:08Z","duration":"PT42M15S","thumbnail":"https://i.ytimg.com/vi/4r-CD4P4_J8/mqdefault.jpg","viewCount":"1042","playlistId":"PLEkQk5xrP-tlArtGpeLWaqNM7h7IDeAVC","playlistName":"خطب الجمعة أ.د. يسري جبر","category":"خطب"},{"id":"8iuXTt1-94Q","title":"حول مولد أمّنا السيدة فاطمة الزهراء البتول رضي الله تعالى عنها وعليها السلام د. يسري جبر","publishedAt":"2018-03-10T21:10:25Z","duration":"PT43M22S","thumbnail":"https://i.ytimg.com/vi/8iuXTt1-94Q/mqdefault.jpg","viewCount":"1032","playlistId":"PLEkQk5xrP-tlArtGpeLWaqNM7h7IDeAVC","playlistName":"خطب الجمعة أ.د. يسري جبر","category":"خطب"},{"id":"CvDaH7eo-p0","title":"كيف تتحقق بالشهادتين في طريقك إلى الله؟","publishedAt":"2025-03-05T18:30:13Z","duration":"PT11M51S","thumbnail":"https://i.ytimg.com/vi/CvDaH7eo-p0/mqdefault.jpg","viewCount":"1013","playlistId":"PLEkQk5xrP-tlArtGpeLWaqNM7h7IDeAVC","playlistName":"خطب الجمعة أ.د. يسري جبر","category":"خطب"},{"id":"er_CzM3RVqU","title":"تفسير سورة الهُمَزَة  د. يسري جبر","publishedAt":"2018-03-17T15:30:04Z","duration":"PT37M5S","thumbnail":"https://i.ytimg.com/vi/er_CzM3RVqU/mqdefault.jpg","viewCount":"996","playlistId":"PLEkQk5xrP-tlArtGpeLWaqNM7h7IDeAVC","playlistName":"خطب الجمعة أ.د. يسري جبر","category":"خطب"},{"id":"IqbPSUEcTUA","title":"ظَهَرَ الْفَسَادُ فِي الْبَرِّ وَالْبَحْرِ بِمَا كَسَبَتْ أَيْدِي النَّاسِ\"  أ.د. يسري جبر\"","publishedAt":"2019-03-08T20:02:36Z","duration":"PT33M45S","thumbnail":"https://i.ytimg.com/vi/IqbPSUEcTUA/mqdefault.jpg","viewCount":"991","playlistId":"PLEkQk5xrP-tlArtGpeLWaqNM7h7IDeAVC","playlistName":"خطب الجمعة أ.د. يسري جبر","category":"خطب"},{"id":"viN_L4eDlZA","title":"العِلْمُ النَّافِعُ - أ. د. يسري جبر","publishedAt":"2019-02-16T18:03:49Z","duration":"PT30M29S","thumbnail":"https://i.ytimg.com/vi/viN_L4eDlZA/mqdefault.jpg","viewCount":"990","playlistId":"PLEkQk5xrP-tlArtGpeLWaqNM7h7IDeAVC","playlistName":"خطب الجمعة أ.د. يسري جبر","category":"خطب"},{"id":"J3gE6pSRhyI","title":"ولَوْ رَحِمْنَاهُمْ وَكَشَفْنَا مَا بِهِم مِّن ضُرٍّ لَّلَجُّوا فِي طُغْيَانِهِمْ يَعْمَهُونَ","publishedAt":"2018-07-15T18:29:29Z","duration":"PT35M54S","thumbnail":"https://i.ytimg.com/vi/J3gE6pSRhyI/mqdefault.jpg","viewCount":"985","playlistId":"PLEkQk5xrP-tlArtGpeLWaqNM7h7IDeAVC","playlistName":"خطب الجمعة أ.د. يسري جبر","category":"خطب"},{"id":"HjUV-VmreM4","title":"كيف تُحصِّل ثواب الهجرة في هذا الزمان    د. يسري جبر","publishedAt":"2016-10-01T14:39:33Z","duration":"PT34M28S","thumbnail":"https://i.ytimg.com/vi/HjUV-VmreM4/mqdefault.jpg","viewCount":"976","playlistId":"PLEkQk5xrP-tlArtGpeLWaqNM7h7IDeAVC","playlistName":"خطب الجمعة أ.د. يسري جبر","category":"خطب"},{"id":"QXxRvtCpRao","title":"حولَ عِصْمَةِ الأنبياءِ (2)  أ.د/ يسري جبر","publishedAt":"2020-01-23T20:05:04Z","duration":"PT45M35S","thumbnail":"https://i.ytimg.com/vi/QXxRvtCpRao/mqdefault.jpg","viewCount":"976","playlistId":"PLEkQk5xrP-tlArtGpeLWaqNM7h7IDeAVC","playlistName":"خطب الجمعة أ.د. يسري جبر","category":"خطب"},{"id":"TbvQkBK5wwk","title":"مِن العبادات المهجورة","publishedAt":"2014-12-12T18:02:10Z","duration":"PT30M22S","thumbnail":"https://i.ytimg.com/vi/TbvQkBK5wwk/mqdefault.jpg","viewCount":"975","playlistId":"PLEkQk5xrP-tlArtGpeLWaqNM7h7IDeAVC","playlistName":"خطب الجمعة أ.د. يسري جبر","category":"خطب"},{"id":"6xumJjZdSiU","title":"حول الحج   د.يسري جبر","publishedAt":"2017-08-05T19:24:15Z","duration":"PT42M8S","thumbnail":"https://i.ytimg.com/vi/6xumJjZdSiU/mqdefault.jpg","viewCount":"969","playlistId":"PLEkQk5xrP-tlArtGpeLWaqNM7h7IDeAVC","playlistName":"خطب الجمعة أ.د. يسري جبر","category":"خطب"},{"id":"WaiUe1Mk7D8","title":"حول الهجرة وفتنة الأسرة المعاصرة د.يسري جبر","publishedAt":"2017-10-02T19:52:50Z","duration":"PT41M51S","thumbnail":"https://i.ytimg.com/vi/WaiUe1Mk7D8/mqdefault.jpg","viewCount":"965","playlistId":"PLEkQk5xrP-tlArtGpeLWaqNM7h7IDeAVC","playlistName":"خطب الجمعة أ.د. يسري جبر","category":"خطب"},{"id":"aHhfAnrayGU","title":"نصائح من الأيام العشر  د. يسري جبر","publishedAt":"2018-08-18T01:20:07Z","duration":"PT38M41S","thumbnail":"https://i.ytimg.com/vi/aHhfAnrayGU/mqdefault.jpg","viewCount":"962","playlistId":"PLEkQk5xrP-tlArtGpeLWaqNM7h7IDeAVC","playlistName":"خطب الجمعة أ.د. يسري جبر","category":"خطب"},{"id":"mz7J85KwugU","title":"حول المولد النبوي الشريف (4)   د. يسري جبر","publishedAt":"2018-12-01T17:02:52Z","duration":"PT39M2S","thumbnail":"https://i.ytimg.com/vi/mz7J85KwugU/mqdefault.jpg","viewCount":"951","playlistId":"PLEkQk5xrP-tlArtGpeLWaqNM7h7IDeAVC","playlistName":"خطب الجمعة أ.د. يسري جبر","category":"خطب"},{"id":"FfKCsB8yTqQ","title":"منوعات إيمانية د. يسري جبر","publishedAt":"2016-07-16T15:04:51Z","duration":"PT46M25S","thumbnail":"https://i.ytimg.com/vi/FfKCsB8yTqQ/mqdefault.jpg","viewCount":"946","playlistId":"PLEkQk5xrP-tlArtGpeLWaqNM7h7IDeAVC","playlistName":"خطب الجمعة أ.د. يسري جبر","category":"خطب"},{"id":"upsqCfo9mcc","title":"حول مولد سيدتنا فاطمة الزهراء البتول رضي الله عنها وعليها السلام  أ.د. يسري جبر","publishedAt":"2019-02-24T18:36:12Z","duration":"PT37M14S","thumbnail":"https://i.ytimg.com/vi/upsqCfo9mcc/mqdefault.jpg","viewCount":"939","playlistId":"PLEkQk5xrP-tlArtGpeLWaqNM7h7IDeAVC","playlistName":"خطب الجمعة أ.د. يسري جبر","category":"خطب"},{"id":"_a57UiO-rIc","title":"مُعامَلةُ الحَقِّ في الخَلْق د.يسري جبر","publishedAt":"2018-08-03T22:54:51Z","duration":"PT41M8S","thumbnail":"https://i.ytimg.com/vi/_a57UiO-rIc/mqdefault.jpg","viewCount":"936","playlistId":"PLEkQk5xrP-tlArtGpeLWaqNM7h7IDeAVC","playlistName":"خطب الجمعة أ.د. يسري جبر","category":"خطب"},{"id":"YSfllCSoGqA","title":"تصحيحُ العَقائِدِ في العَشْر الأَوائل   د. يسري جبر","publishedAt":"2018-08-12T13:07:02Z","duration":"PT41M25S","thumbnail":"https://i.ytimg.com/vi/YSfllCSoGqA/mqdefault.jpg","viewCount":"925","playlistId":"PLEkQk5xrP-tlArtGpeLWaqNM7h7IDeAVC","playlistName":"خطب الجمعة أ.د. يسري جبر","category":"خطب"},{"id":"kmWW-3pNj9I","title":"الرد على من ينكر رؤية النبي ﷺ في المنام!","publishedAt":"2025-12-02T18:15:06Z","duration":"PT10M10S","thumbnail":"https://i.ytimg.com/vi/kmWW-3pNj9I/mqdefault.jpg","viewCount":"914","playlistId":"PLEkQk5xrP-tlArtGpeLWaqNM7h7IDeAVC","playlistName":"خطب الجمعة أ.د. يسري جبر","category":"خطب"},{"id":"RVi4_nuUhz8","title":"القدس إسلامية","publishedAt":"2017-12-09T14:47:39Z","duration":"PT33M10S","thumbnail":"https://i.ytimg.com/vi/RVi4_nuUhz8/mqdefault.jpg","viewCount":"912","playlistId":"PLEkQk5xrP-tlArtGpeLWaqNM7h7IDeAVC","playlistName":"خطب الجمعة أ.د. يسري جبر","category":"خطب"},{"id":"9ysgXZsUVec","title":"مولد سيدة نساء العالمين الزهراء فاطمة البتول رضى الله تعالى عنها وعليها السلام","publishedAt":"2015-04-11T04:53:00Z","duration":"PT37M21S","thumbnail":"https://i.ytimg.com/vi/9ysgXZsUVec/mqdefault.jpg","viewCount":"908","playlistId":"PLEkQk5xrP-tlArtGpeLWaqNM7h7IDeAVC","playlistName":"خطب الجمعة أ.د. يسري جبر","category":"خطب"},{"id":"VpVbDGeR-9E","title":"لا يظِلمُ رَبٌك أحدًا","publishedAt":"2018-07-08T02:05:38Z","duration":"PT36M53S","thumbnail":"https://i.ytimg.com/vi/VpVbDGeR-9E/mqdefault.jpg","viewCount":"900","playlistId":"PLEkQk5xrP-tlArtGpeLWaqNM7h7IDeAVC","playlistName":"خطب الجمعة أ.د. يسري جبر","category":"خطب"},{"id":"jdDoI8-1pIs","title":"حول إسراء النبي صلى الله عليه وآله وسلم ومعراجه.  أ.د. يسري جبر","publishedAt":"2019-03-31T15:27:49Z","duration":"PT40M35S","thumbnail":"https://i.ytimg.com/vi/jdDoI8-1pIs/mqdefault.jpg","viewCount":"897","playlistId":"PLEkQk5xrP-tlArtGpeLWaqNM7h7IDeAVC","playlistName":"خطب الجمعة أ.د. يسري جبر","category":"خطب"},{"id":"Gjgh_RapXRM","title":"آدَابُ الأشْهُرِ الحُرُمِ  أ.د. يسري جبر","publishedAt":"2019-03-11T14:25:52Z","duration":"PT30M39S","thumbnail":"https://i.ytimg.com/vi/Gjgh_RapXRM/mqdefault.jpg","viewCount":"893","playlistId":"PLEkQk5xrP-tlArtGpeLWaqNM7h7IDeAVC","playlistName":"خطب الجمعة أ.د. يسري جبر","category":"خطب"}],"total":659,"page":24,"pageSize":24,"totalPages":28}