{"items":[{"id":"QSwagL61KFk","title":"كيف تتأسى بالنَّبيّ ﷺ في حياتك؟","publishedAt":"2022-09-22T18:00:18Z","duration":"PT18M51S","thumbnail":"https://i.ytimg.com/vi/QSwagL61KFk/mqdefault.jpg","viewCount":"3578","playlistId":"PLEkQk5xrP-tlArtGpeLWaqNM7h7IDeAVC","playlistName":"خطب الجمعة أ.د. يسري جبر","category":"خطب"},{"id":"pGZl5W9kSMA","title":"ما الفرق بين الافتقار إلى الله والغنى بالله؟","publishedAt":"2022-12-09T18:00:20Z","duration":"PT14M32S","thumbnail":"https://i.ytimg.com/vi/pGZl5W9kSMA/mqdefault.jpg","viewCount":"3568","playlistId":"PLEkQk5xrP-tlArtGpeLWaqNM7h7IDeAVC","playlistName":"خطب الجمعة أ.د. يسري جبر","category":"خطب"},{"id":"9qxMqbhkyZA","title":"الرَّحمةُ المُهْدَاةُ ﷺ","publishedAt":"2021-09-03T10:04:48Z","duration":"PT45M4S","thumbnail":"https://i.ytimg.com/vi/9qxMqbhkyZA/mqdefault.jpg","viewCount":"3537","playlistId":"PLEkQk5xrP-tlArtGpeLWaqNM7h7IDeAVC","playlistName":"خطب الجمعة أ.د. يسري جبر","category":"خطب"},{"id":"MUD4rkqHVBw","title":"ما هي خطورة التنمر وكيف تتعامل مع المتنمرين؟","publishedAt":"2024-05-30T17:00:15Z","duration":"PT12M57S","thumbnail":"https://i.ytimg.com/vi/MUD4rkqHVBw/mqdefault.jpg","viewCount":"3517","playlistId":"PLEkQk5xrP-tlArtGpeLWaqNM7h7IDeAVC","playlistName":"خطب الجمعة أ.د. يسري جبر","category":"خطب"},{"id":"QwAa5Bdz5NQ","title":"أهمية الأمانة في الاسلام","publishedAt":"2022-12-22T18:00:16Z","duration":"PT25M58S","thumbnail":"https://i.ytimg.com/vi/QwAa5Bdz5NQ/mqdefault.jpg","viewCount":"3505","playlistId":"PLEkQk5xrP-tlArtGpeLWaqNM7h7IDeAVC","playlistName":"خطب الجمعة أ.د. يسري جبر","category":"خطب"},{"id":"hyRZdSuojGA","title":"كيف تتوكل على الله مع الأخذ بالأسباب؟","publishedAt":"2024-11-28T19:26:51Z","duration":"PT28M18S","thumbnail":"https://i.ytimg.com/vi/hyRZdSuojGA/mqdefault.jpg","viewCount":"3501","playlistId":"PLEkQk5xrP-tlArtGpeLWaqNM7h7IDeAVC","playlistName":"خطب الجمعة أ.د. يسري جبر","category":"خطب"},{"id":"qXMXbog7_oY","title":"ماذا تفعل إن لم تستطع الحج هذا العام؟","publishedAt":"2025-06-03T18:51:35Z","duration":"PT18M29S","thumbnail":"https://i.ytimg.com/vi/qXMXbog7_oY/mqdefault.jpg","viewCount":"3492","playlistId":"PLEkQk5xrP-tlArtGpeLWaqNM7h7IDeAVC","playlistName":"خطب الجمعة أ.د. يسري جبر","category":"خطب"},{"id":"9Eua1uSocMI","title":"كيف ولد رسول الله ﷺ؟","publishedAt":"2023-09-30T17:00:05Z","duration":"PT14M10S","thumbnail":"https://i.ytimg.com/vi/9Eua1uSocMI/mqdefault.jpg","viewCount":"3477","playlistId":"PLEkQk5xrP-tlArtGpeLWaqNM7h7IDeAVC","playlistName":"خطب الجمعة أ.د. يسري جبر","category":"خطب"},{"id":"g3Ji0Lwlnws","title":"رُؤْيَةُ الله في الآخِرَةِ -    أ.د. يسري جبر","publishedAt":"2019-02-04T14:31:38Z","duration":"PT43M54S","thumbnail":"https://i.ytimg.com/vi/g3Ji0Lwlnws/mqdefault.jpg","viewCount":"3473","playlistId":"PLEkQk5xrP-tlArtGpeLWaqNM7h7IDeAVC","playlistName":"خطب الجمعة أ.د. يسري جبر","category":"خطب"},{"id":"sf_a8bxKQUo","title":"مظاهر قدرة الله في خلق الإنسان","publishedAt":"2022-12-25T18:00:14Z","duration":"PT10M53S","thumbnail":"https://i.ytimg.com/vi/sf_a8bxKQUo/mqdefault.jpg","viewCount":"3443","playlistId":"PLEkQk5xrP-tlArtGpeLWaqNM7h7IDeAVC","playlistName":"خطب الجمعة أ.د. يسري جبر","category":"خطب"},{"id":"PMwJpUTqzJQ","title":"لطائف وإشارات في ذكرى غزوة بدر","publishedAt":"2025-03-16T19:00:15Z","duration":"PT13M2S","thumbnail":"https://i.ytimg.com/vi/PMwJpUTqzJQ/mqdefault.jpg","viewCount":"3425","playlistId":"PLEkQk5xrP-tlArtGpeLWaqNM7h7IDeAVC","playlistName":"خطب الجمعة أ.د. يسري جبر","category":"خطب"},{"id":"BbnoLqLPJVs","title":"كيف تتخلص من سوء الظن بالناس؟","publishedAt":"2025-01-29T19:25:09Z","duration":"PT18M56S","thumbnail":"https://i.ytimg.com/vi/BbnoLqLPJVs/mqdefault.jpg","viewCount":"3420","playlistId":"PLEkQk5xrP-tlArtGpeLWaqNM7h7IDeAVC","playlistName":"خطب الجمعة أ.د. يسري جبر","category":"خطب"},{"id":"gB7tQjP6uJI","title":"الشريعة والحقيقة في حديث لا عَدْوى ولا طِيَرة  د. يسري جبر","publishedAt":"2018-10-14T18:55:07Z","duration":"PT54M43S","thumbnail":"https://i.ytimg.com/vi/gB7tQjP6uJI/mqdefault.jpg","viewCount":"3355","playlistId":"PLEkQk5xrP-tlArtGpeLWaqNM7h7IDeAVC","playlistName":"خطب الجمعة أ.د. يسري جبر","category":"خطب"},{"id":"eJEy89vRBCo","title":"حَقَائِقُ مُحَمَّدِيَّة    د. يسري جبر","publishedAt":"2018-09-09T13:12:52Z","duration":"PT45M","thumbnail":"https://i.ytimg.com/vi/eJEy89vRBCo/mqdefault.jpg","viewCount":"3351","playlistId":"PLEkQk5xrP-tlArtGpeLWaqNM7h7IDeAVC","playlistName":"خطب الجمعة أ.د. يسري جبر","category":"خطب"},{"id":"MIR5iUP-K2Q","title":"هل الإنسان مسير أم مخير؟","publishedAt":"2024-11-16T19:17:42Z","duration":"PT27M38S","thumbnail":"https://i.ytimg.com/vi/MIR5iUP-K2Q/mqdefault.jpg","viewCount":"3335","playlistId":"PLEkQk5xrP-tlArtGpeLWaqNM7h7IDeAVC","playlistName":"خطب الجمعة أ.د. يسري جبر","category":"خطب"},{"id":"qyXeQSAUne8","title":"أول فرصة لليلة القدر هذا العام!","publishedAt":"2025-03-15T19:00:42Z","duration":"PT8M8S","thumbnail":"https://i.ytimg.com/vi/qyXeQSAUne8/mqdefault.jpg","viewCount":"3326","playlistId":"PLEkQk5xrP-tlArtGpeLWaqNM7h7IDeAVC","playlistName":"خطب الجمعة أ.د. يسري جبر","category":"خطب"},{"id":"QX-tHl1_ftI","title":"حَولَ لَيلةِ القَدْرِ  د. يسري جبر","publishedAt":"2017-06-17T09:40:10Z","duration":"PT34M23S","thumbnail":"https://i.ytimg.com/vi/QX-tHl1_ftI/mqdefault.jpg","viewCount":"3313","playlistId":"PLEkQk5xrP-tlArtGpeLWaqNM7h7IDeAVC","playlistName":"خطب الجمعة أ.د. يسري جبر","category":"خطب"},{"id":"LCQAHVMZMow","title":"شرح قضية الكسب والاختيار","publishedAt":"2022-04-18T19:30:01Z","duration":"PT16M2S","thumbnail":"https://i.ytimg.com/vi/LCQAHVMZMow/mqdefault.jpg","viewCount":"3297","playlistId":"PLEkQk5xrP-tlArtGpeLWaqNM7h7IDeAVC","playlistName":"خطب الجمعة أ.د. يسري جبر","category":"خطب"},{"id":"mEsKC0gpJmE","title":"كيف يكون النبي ﷺ قدوتي في الحياة؟","publishedAt":"2025-02-19T19:29:55Z","duration":"PT22M35S","thumbnail":"https://i.ytimg.com/vi/mEsKC0gpJmE/mqdefault.jpg","viewCount":"3293","playlistId":"PLEkQk5xrP-tlArtGpeLWaqNM7h7IDeAVC","playlistName":"خطب الجمعة أ.د. يسري جبر","category":"خطب"},{"id":"zYezdR3FqRk","title":"شُبُهَات مُعَاصِرَة (1)  أ.د. يسري جبر","publishedAt":"2019-06-22T16:10:13Z","duration":"PT45M55S","thumbnail":"https://i.ytimg.com/vi/zYezdR3FqRk/mqdefault.jpg","viewCount":"3292","playlistId":"PLEkQk5xrP-tlArtGpeLWaqNM7h7IDeAVC","playlistName":"خطب الجمعة أ.د. يسري جبر","category":"خطب"},{"id":"REBja2xXSMk","title":"رسالة لكل شخص بيصعب على الناس حياتهم!","publishedAt":"2023-01-19T18:00:19Z","duration":"PT12M13S","thumbnail":"https://i.ytimg.com/vi/REBja2xXSMk/mqdefault.jpg","viewCount":"3282","playlistId":"PLEkQk5xrP-tlArtGpeLWaqNM7h7IDeAVC","playlistName":"خطب الجمعة أ.د. يسري جبر","category":"خطب"},{"id":"eYtwLgD1kvY","title":"قضية الجبر والاختيار د. يسري جبر","publishedAt":"2016-05-14T19:31:05Z","duration":"PT45M27S","thumbnail":"https://i.ytimg.com/vi/eYtwLgD1kvY/mqdefault.jpg","viewCount":"3277","playlistId":"PLEkQk5xrP-tlArtGpeLWaqNM7h7IDeAVC","playlistName":"خطب الجمعة أ.د. يسري جبر","category":"خطب"},{"id":"Or6lqbi8JoA","title":"هل تعرف قدر النبي ﷺ ؟","publishedAt":"2024-09-16T17:17:04Z","duration":"PT18M36S","thumbnail":"https://i.ytimg.com/vi/Or6lqbi8JoA/mqdefault.jpg","viewCount":"3273","playlistId":"PLEkQk5xrP-tlArtGpeLWaqNM7h7IDeAVC","playlistName":"خطب الجمعة أ.د. يسري جبر","category":"خطب"},{"id":"03M5TYoDvfs","title":"حقيقة الشهادتين","publishedAt":"2020-12-12T17:41:25Z","duration":"PT8M1S","thumbnail":"https://i.ytimg.com/vi/03M5TYoDvfs/mqdefault.jpg","viewCount":"3268","playlistId":"PLEkQk5xrP-tlArtGpeLWaqNM7h7IDeAVC","playlistName":"خطب الجمعة أ.د. يسري جبر","category":"خطب"}],"total":659,"page":16,"pageSize":24,"totalPages":28}