{"items":[{"id":"mz66IJ65Ymw","title":"كيف تختار صديقك؟ | معايير اختيار الأصدقاء","publishedAt":"2025-10-02T17:44:39Z","duration":"PT13M51S","thumbnail":"https://i.ytimg.com/vi/mz66IJ65Ymw/mqdefault.jpg","viewCount":"1362","playlistId":"PLEkQk5xrP-tlArtGpeLWaqNM7h7IDeAVC","playlistName":"خطب الجمعة أ.د. يسري جبر","category":"خطب"},{"id":"OrP6wWCjB6Y","title":"إِلَّا تَنصُرُوهُ فَقَدْ نَصَرَهُ اللَّهُ أ.د. يسري جبر","publishedAt":"2019-09-17T15:50:05Z","duration":"PT32M38S","thumbnail":"https://i.ytimg.com/vi/OrP6wWCjB6Y/mqdefault.jpg","viewCount":"1340","playlistId":"PLEkQk5xrP-tlArtGpeLWaqNM7h7IDeAVC","playlistName":"خطب الجمعة أ.د. يسري جبر","category":"خطب"},{"id":"DjznyNwQN0o","title":"يوم عرفة -  د.يسري جبر","publishedAt":"2015-09-22T10:03:00Z","duration":"PT27M48S","thumbnail":"https://i.ytimg.com/vi/DjznyNwQN0o/mqdefault.jpg","viewCount":"1311","playlistId":"PLEkQk5xrP-tlArtGpeLWaqNM7h7IDeAVC","playlistName":"خطب الجمعة أ.د. يسري جبر","category":"خطب"},{"id":"kmWW-3pNj9I","title":"الرد على من ينكر رؤية النبي ﷺ في المنام!","publishedAt":"2025-12-02T18:15:06Z","duration":"PT10M10S","thumbnail":"https://i.ytimg.com/vi/kmWW-3pNj9I/mqdefault.jpg","viewCount":"1309","playlistId":"PLEkQk5xrP-tlArtGpeLWaqNM7h7IDeAVC","playlistName":"خطب الجمعة أ.د. يسري جبر","category":"خطب"},{"id":"JOIhcrICNNQ","title":"ذِكْرَى مَولِدِ النَّبِىِّ صَلَّى اللهُ عَلَيهِ وَآلِهِ وَسَلَّمَ بالتاريخ الميلادى","publishedAt":"2015-04-18T19:51:02Z","duration":"PT35M46S","thumbnail":"https://i.ytimg.com/vi/JOIhcrICNNQ/mqdefault.jpg","viewCount":"1306","playlistId":"PLEkQk5xrP-tlArtGpeLWaqNM7h7IDeAVC","playlistName":"خطب الجمعة أ.د. يسري جبر","category":"خطب"},{"id":"kfK9TukzmKo","title":"شُبُهَات مُعَاصِرَة (4) أ.د. يسري جبر","publishedAt":"2019-07-13T20:38:18Z","duration":"PT44M25S","thumbnail":"https://i.ytimg.com/vi/kfK9TukzmKo/mqdefault.jpg","viewCount":"1301","playlistId":"PLEkQk5xrP-tlArtGpeLWaqNM7h7IDeAVC","playlistName":"خطب الجمعة أ.د. يسري جبر","category":"خطب"},{"id":"v4URe6lCyLU","title":"ما معنى الاعتصام وما الفرق بين الاعتصام بحبل الله والاعتصام بالله  د.يسري جبر","publishedAt":"2016-08-06T18:13:00Z","duration":"PT48M48S","thumbnail":"https://i.ytimg.com/vi/v4URe6lCyLU/mqdefault.jpg","viewCount":"1300","playlistId":"PLEkQk5xrP-tlArtGpeLWaqNM7h7IDeAVC","playlistName":"خطب الجمعة أ.د. يسري جبر","category":"خطب"},{"id":"TWoR4q4nn6o","title":"المراقبة   أ.د. يسري جبر","publishedAt":"2018-12-24T19:24:39Z","duration":"PT33M16S","thumbnail":"https://i.ytimg.com/vi/TWoR4q4nn6o/mqdefault.jpg","viewCount":"1291","playlistId":"PLEkQk5xrP-tlArtGpeLWaqNM7h7IDeAVC","playlistName":"خطب الجمعة أ.د. يسري جبر","category":"خطب"},{"id":"9pJe_HWPhi0","title":"ميلاد الكمالات الإنسانية الأعظم ﷺ    أ.د  يسري جبر","publishedAt":"2020-04-20T09:22:56Z","duration":"PT36M25S","thumbnail":"https://i.ytimg.com/vi/9pJe_HWPhi0/mqdefault.jpg","viewCount":"1282","playlistId":"PLEkQk5xrP-tlArtGpeLWaqNM7h7IDeAVC","playlistName":"خطب الجمعة أ.د. يسري جبر","category":"خطب"},{"id":"gYcZcik-wzM","title":"كَيفَ تَكُونُ زَوْجَاً صَالِحَاً    د. يسري جبر","publishedAt":"2015-12-12T17:06:43Z","duration":"PT43M42S","thumbnail":"https://i.ytimg.com/vi/gYcZcik-wzM/mqdefault.jpg","viewCount":"1281","playlistId":"PLEkQk5xrP-tlArtGpeLWaqNM7h7IDeAVC","playlistName":"خطب الجمعة أ.د. يسري جبر","category":"خطب"},{"id":"5kAhROKojwc","title":"شُبُهَات مُعَاصِرَة (3) أ.د. يسري جبر","publishedAt":"2019-07-07T18:42:46Z","duration":"PT44M26S","thumbnail":"https://i.ytimg.com/vi/5kAhROKojwc/mqdefault.jpg","viewCount":"1274","playlistId":"PLEkQk5xrP-tlArtGpeLWaqNM7h7IDeAVC","playlistName":"خطب الجمعة أ.د. يسري جبر","category":"خطب"},{"id":"Z5d3BmLpUIY","title":"تِلْكَ حُدُودُ اللهِ فَلا تَقْرَبُوهَا ( تِلْكَ حُدُودُ اللهِ فلا تَعْتَدُوهَا  ) الفرق بينهما","publishedAt":"2017-02-25T19:03:41Z","duration":"PT42M40S","thumbnail":"https://i.ytimg.com/vi/Z5d3BmLpUIY/mqdefault.jpg","viewCount":"1265","playlistId":"PLEkQk5xrP-tlArtGpeLWaqNM7h7IDeAVC","playlistName":"خطب الجمعة أ.د. يسري جبر","category":"خطب"},{"id":"ucPdjBNZalM","title":"حسن الخُلق من أعظم ما يُتقرب به إلى الله    د. يسري جبر","publishedAt":"2016-09-09T19:35:56Z","duration":"PT28M50S","thumbnail":"https://i.ytimg.com/vi/ucPdjBNZalM/mqdefault.jpg","viewCount":"1253","playlistId":"PLEkQk5xrP-tlArtGpeLWaqNM7h7IDeAVC","playlistName":"خطب الجمعة أ.د. يسري جبر","category":"خطب"},{"id":"RZDsLB_gfXA","title":"رحلة في الكمالات المحمدية","publishedAt":"2025-09-17T18:17:33Z","duration":"PT12M45S","thumbnail":"https://i.ytimg.com/vi/RZDsLB_gfXA/mqdefault.jpg","viewCount":"1238","playlistId":"PLEkQk5xrP-tlArtGpeLWaqNM7h7IDeAVC","playlistName":"خطب الجمعة أ.د. يسري جبر","category":"خطب"},{"id":"Id_gKV_f8Gg","title":"نصائح مهمة للحجاج قبل بداية الحج","publishedAt":"2024-06-11T19:02:45Z","duration":"PT15M14S","thumbnail":"https://i.ytimg.com/vi/Id_gKV_f8Gg/mqdefault.jpg","viewCount":"1230","playlistId":"PLEkQk5xrP-tlArtGpeLWaqNM7h7IDeAVC","playlistName":"خطب الجمعة أ.د. يسري جبر","category":"خطب"},{"id":"OJtJVcasBDc","title":"ذِكْرَى مَولِدِ النَّبِىِّ صَلَّى اللهُ عَلَيهِ وَآلِهِ وَسَلَّمَ بالتاريخ الميلادى - مسجلة","publishedAt":"2020-04-17T10:15:10Z","duration":"PT35M46S","thumbnail":"https://i.ytimg.com/vi/OJtJVcasBDc/mqdefault.jpg","viewCount":"1227","playlistId":"PLEkQk5xrP-tlArtGpeLWaqNM7h7IDeAVC","playlistName":"خطب الجمعة أ.د. يسري جبر","category":"خطب"},{"id":"qvn2amnc0SI","title":"حول تربية الأولاد في الإسلام","publishedAt":"2017-10-14T10:09:31Z","duration":"PT41M19S","thumbnail":"https://i.ytimg.com/vi/qvn2amnc0SI/mqdefault.jpg","viewCount":"1202","playlistId":"PLEkQk5xrP-tlArtGpeLWaqNM7h7IDeAVC","playlistName":"خطب الجمعة أ.د. يسري جبر","category":"خطب"},{"id":"QkZVa75skdA","title":"اتق الله حيثما كنت   د. يسري جبر","publishedAt":"2017-07-09T19:11:41Z","duration":"PT42M36S","thumbnail":"https://i.ytimg.com/vi/QkZVa75skdA/mqdefault.jpg","viewCount":"1192","playlistId":"PLEkQk5xrP-tlArtGpeLWaqNM7h7IDeAVC","playlistName":"خطب الجمعة أ.د. يسري جبر","category":"خطب"},{"id":"FtQHmIBNEyU","title":"الطَّاعَةُ بِالتَّرْكِ أوْلَى عِندَ اللَّه    أ.د. يسري جبر","publishedAt":"2019-05-12T15:50:18Z","duration":"PT46M19S","thumbnail":"https://i.ytimg.com/vi/FtQHmIBNEyU/mqdefault.jpg","viewCount":"1134","playlistId":"PLEkQk5xrP-tlArtGpeLWaqNM7h7IDeAVC","playlistName":"خطب الجمعة أ.د. يسري جبر","category":"خطب"},{"id":"PyZcuoSQQOQ","title":"متى ترفع الأعمال إلى الله؟","publishedAt":"2021-04-03T20:00:03Z","duration":"PT13M8S","thumbnail":"https://i.ytimg.com/vi/PyZcuoSQQOQ/mqdefault.jpg","viewCount":"1125","playlistId":"PLEkQk5xrP-tlArtGpeLWaqNM7h7IDeAVC","playlistName":"خطب الجمعة أ.د. يسري جبر","category":"خطب"},{"id":"wXa8LgyBUbs","title":"آفةُ الكِبْرِ وَكَيفِيَّةُ عِلاجِهَا  د.يسري جبر","publishedAt":"2018-02-10T09:15:48Z","duration":"PT32M47S","thumbnail":"https://i.ytimg.com/vi/wXa8LgyBUbs/mqdefault.jpg","viewCount":"1100","playlistId":"PLEkQk5xrP-tlArtGpeLWaqNM7h7IDeAVC","playlistName":"خطب الجمعة أ.د. يسري جبر","category":"خطب"},{"id":"TNeDkG9QdR4","title":"آداب التعامل مع القرآن الكريم","publishedAt":"2014-11-29T19:34:04Z","duration":"PT40M14S","thumbnail":"https://i.ytimg.com/vi/TNeDkG9QdR4/mqdefault.jpg","viewCount":"1100","playlistId":"PLEkQk5xrP-tlArtGpeLWaqNM7h7IDeAVC","playlistName":"خطب الجمعة أ.د. يسري جبر","category":"خطب"},{"id":"vvetyQQ_9qU","title":"قابلت مسلمين اسلموا بعد 60 سنة من الكفر!!","publishedAt":"2025-11-24T17:59:56Z","duration":"PT9M26S","thumbnail":"https://i.ytimg.com/vi/vvetyQQ_9qU/mqdefault.jpg","viewCount":"1082","playlistId":"PLEkQk5xrP-tlArtGpeLWaqNM7h7IDeAVC","playlistName":"خطب الجمعة أ.د. يسري جبر","category":"خطب"},{"id":"O4tAHZxBUMQ","title":"رمضانيات  د. يسري جبر","publishedAt":"2018-05-19T15:48:04Z","duration":"PT36M5S","thumbnail":"https://i.ytimg.com/vi/O4tAHZxBUMQ/mqdefault.jpg","viewCount":"1078","playlistId":"PLEkQk5xrP-tlArtGpeLWaqNM7h7IDeAVC","playlistName":"خطب الجمعة أ.د. يسري جبر","category":"خطب"}],"total":660,"page":23,"pageSize":24,"totalPages":28}