{"items":[{"id":"cSd620OLYSw","title":"إضافات يسرية لخصائص خير البرية","publishedAt":"2021-03-09T20:20:33Z","duration":"PT10M23S","thumbnail":"https://i.ytimg.com/vi/cSd620OLYSw/mqdefault.jpg","viewCount":"3268","playlistId":"PLEkQk5xrP-tlArtGpeLWaqNM7h7IDeAVC","playlistName":"خطب الجمعة أ.د. يسري جبر","category":"خطب"},{"id":"sA5VDfNyW58","title":"ازاي تربي أولادك زي تربية النبي ﷺ لأولاده؟","publishedAt":"2024-10-05T18:49:13Z","duration":"PT10M32S","thumbnail":"https://i.ytimg.com/vi/sA5VDfNyW58/mqdefault.jpg","viewCount":"3261","playlistId":"PLEkQk5xrP-tlArtGpeLWaqNM7h7IDeAVC","playlistName":"خطب الجمعة أ.د. يسري جبر","category":"خطب"},{"id":"CTent5MJL00","title":"عَقِيدَةُ السَّلَف أ.د. يسري جبر","publishedAt":"2019-08-26T16:23:36Z","duration":"PT43M32S","thumbnail":"https://i.ytimg.com/vi/CTent5MJL00/mqdefault.jpg","viewCount":"3241","playlistId":"PLEkQk5xrP-tlArtGpeLWaqNM7h7IDeAVC","playlistName":"خطب الجمعة أ.د. يسري جبر","category":"خطب"},{"id":"YvQ5dm7zirM","title":"مفاهيم حول تصحيح العقيدة ومحبة آل البيت رضي الله تعالى عنهم وعليهم السلام.  د. يسري جبر","publishedAt":"2018-10-08T17:36:50Z","duration":"PT42M10S","thumbnail":"https://i.ytimg.com/vi/YvQ5dm7zirM/mqdefault.jpg","viewCount":"3221","playlistId":"PLEkQk5xrP-tlArtGpeLWaqNM7h7IDeAVC","playlistName":"خطب الجمعة أ.د. يسري جبر","category":"خطب"},{"id":"wgVd-VBs9Dw","title":"خطبة الجمعة | مسجد هونسلو لندن","publishedAt":"2025-05-23T14:39:08Z","duration":"PT24M1S","thumbnail":"https://i.ytimg.com/vi/wgVd-VBs9Dw/mqdefault.jpg","viewCount":"3185","playlistId":"PLEkQk5xrP-tlArtGpeLWaqNM7h7IDeAVC","playlistName":"خطب الجمعة أ.د. يسري جبر","category":"خطب"},{"id":"pMmPsU62wgQ","title":"هل نحتاج واسطة لنصل إلى الله؟","publishedAt":"2025-10-12T18:15:04Z","duration":"PT12M21S","thumbnail":"https://i.ytimg.com/vi/pMmPsU62wgQ/mqdefault.jpg","viewCount":"3176","playlistId":"PLEkQk5xrP-tlArtGpeLWaqNM7h7IDeAVC","playlistName":"خطب الجمعة أ.د. يسري جبر","category":"خطب"},{"id":"99P1DDlC6ZA","title":"ما الفرق بين الأحدية والفردانية والرحمانية؟","publishedAt":"2024-06-13T18:56:19Z","duration":"PT21M27S","thumbnail":"https://i.ytimg.com/vi/99P1DDlC6ZA/mqdefault.jpg","viewCount":"3171","playlistId":"PLEkQk5xrP-tlArtGpeLWaqNM7h7IDeAVC","playlistName":"خطب الجمعة أ.د. يسري جبر","category":"خطب"},{"id":"Pcc84dbqfqI","title":"أجمل ما خلق الله | أ.د. يسري جبر","publishedAt":"2021-05-25T17:15:00Z","duration":"PT15M36S","thumbnail":"https://i.ytimg.com/vi/Pcc84dbqfqI/mqdefault.jpg","viewCount":"3157","playlistId":"PLEkQk5xrP-tlArtGpeLWaqNM7h7IDeAVC","playlistName":"خطب الجمعة أ.د. يسري جبر","category":"خطب"},{"id":"t2TEDn8wupM","title":"ما هي صفات الله تعالى وكيف نفهمها بدون تشبيه؟","publishedAt":"2024-08-23T17:48:53Z","duration":"PT15M28S","thumbnail":"https://i.ytimg.com/vi/t2TEDn8wupM/mqdefault.jpg","viewCount":"3118","playlistId":"PLEkQk5xrP-tlArtGpeLWaqNM7h7IDeAVC","playlistName":"خطب الجمعة أ.د. يسري جبر","category":"خطب"},{"id":"G3yZ2fiLA8o","title":"هل يوجد عمل ينجيك من دخول النار؟ الجواب الذي غاب عن كثيرين!","publishedAt":"2025-10-11T18:10:18Z","duration":"PT20M32S","thumbnail":"https://i.ytimg.com/vi/G3yZ2fiLA8o/mqdefault.jpg","viewCount":"3081","playlistId":"PLEkQk5xrP-tlArtGpeLWaqNM7h7IDeAVC","playlistName":"خطب الجمعة أ.د. يسري جبر","category":"خطب"},{"id":"zNK49m4mhuU","title":"مراتب الناس في الخوف من الله د. يسري جبر","publishedAt":"2016-04-09T06:16:51Z","duration":"PT42M37S","thumbnail":"https://i.ytimg.com/vi/zNK49m4mhuU/mqdefault.jpg","viewCount":"3064","playlistId":"PLEkQk5xrP-tlArtGpeLWaqNM7h7IDeAVC","playlistName":"خطب الجمعة أ.د. يسري جبر","category":"خطب"},{"id":"7q1AsTfm3n4","title":"لمْ يكنْ للنَّبيِّ ﷺ راحة","publishedAt":"2020-05-29T10:15:09Z","duration":"PT29M6S","thumbnail":"https://i.ytimg.com/vi/7q1AsTfm3n4/mqdefault.jpg","viewCount":"3057","playlistId":"PLEkQk5xrP-tlArtGpeLWaqNM7h7IDeAVC","playlistName":"خطب الجمعة أ.د. يسري جبر","category":"خطب"},{"id":"GGN_LVl2bSA","title":"كيف نستقبل العام الهجري الجديد؟","publishedAt":"2025-06-26T18:33:09Z","duration":"PT16M2S","thumbnail":"https://i.ytimg.com/vi/GGN_LVl2bSA/mqdefault.jpg","viewCount":"3038","playlistId":"PLEkQk5xrP-tlArtGpeLWaqNM7h7IDeAVC","playlistName":"خطب الجمعة أ.د. يسري جبر","category":"خطب"},{"id":"ZeGuK9xlS2I","title":"فضل النبي ﷺ على الامة","publishedAt":"2023-04-07T19:00:20Z","duration":"PT15M17S","thumbnail":"https://i.ytimg.com/vi/ZeGuK9xlS2I/mqdefault.jpg","viewCount":"3032","playlistId":"PLEkQk5xrP-tlArtGpeLWaqNM7h7IDeAVC","playlistName":"خطب الجمعة أ.د. يسري جبر","category":"خطب"},{"id":"aAO1RtPm704","title":"شكر النعم | أ.د. يسري جبر","publishedAt":"2021-06-03T17:15:01Z","duration":"PT9M17S","thumbnail":"https://i.ytimg.com/vi/aAO1RtPm704/mqdefault.jpg","viewCount":"3028","playlistId":"PLEkQk5xrP-tlArtGpeLWaqNM7h7IDeAVC","playlistName":"خطب الجمعة أ.د. يسري جبر","category":"خطب"},{"id":"Ry2OgyxIYQk","title":"ما أهمية الدعاء في الوضع الحالي؟ | قصة تغير القبلة","publishedAt":"2024-02-29T19:00:18Z","duration":"PT19M19S","thumbnail":"https://i.ytimg.com/vi/Ry2OgyxIYQk/mqdefault.jpg","viewCount":"3026","playlistId":"PLEkQk5xrP-tlArtGpeLWaqNM7h7IDeAVC","playlistName":"خطب الجمعة أ.د. يسري جبر","category":"خطب"},{"id":"NgvjZq-weU4","title":"الاستعداد لرمضان      د. يسري جبر","publishedAt":"2017-05-22T19:25:48Z","duration":"PT28M5S","thumbnail":"https://i.ytimg.com/vi/NgvjZq-weU4/mqdefault.jpg","viewCount":"3009","playlistId":"PLEkQk5xrP-tlArtGpeLWaqNM7h7IDeAVC","playlistName":"خطب الجمعة أ.د. يسري جبر","category":"خطب"},{"id":"O1LyLHFcGew","title":"ما على المسلم زمن الفتنة  د. يسري جبر","publishedAt":"2018-04-01T14:29:06Z","duration":"PT36M56S","thumbnail":"https://i.ytimg.com/vi/O1LyLHFcGew/mqdefault.jpg","viewCount":"3000","playlistId":"PLEkQk5xrP-tlArtGpeLWaqNM7h7IDeAVC","playlistName":"خطب الجمعة أ.د. يسري جبر","category":"خطب"},{"id":"ppnNFX3TD0A","title":"خَيْرُ مَا تَطْلُبُهُ مِنْهُ مَا هُوَ طَالِبُهُ مِنْكَ.  أ.د.يسري جبر","publishedAt":"2019-10-20T18:18:15Z","duration":"PT32M49S","thumbnail":"https://i.ytimg.com/vi/ppnNFX3TD0A/mqdefault.jpg","viewCount":"2944","playlistId":"PLEkQk5xrP-tlArtGpeLWaqNM7h7IDeAVC","playlistName":"خطب الجمعة أ.د. يسري جبر","category":"خطب"},{"id":"UuFHkRWw6fg","title":"كيف تتحقق بالعبودية في طريقك إلى الله؟","publishedAt":"2025-02-07T17:00:39Z","duration":"PT13M52S","thumbnail":"https://i.ytimg.com/vi/UuFHkRWw6fg/mqdefault.jpg","viewCount":"2919","playlistId":"PLEkQk5xrP-tlArtGpeLWaqNM7h7IDeAVC","playlistName":"خطب الجمعة أ.د. يسري جبر","category":"خطب"},{"id":"1Lmp0JQI3vs","title":"حول مولد سيدي علي زين العابدين رضي الله عنه.  أ.د. يسري جبر","publishedAt":"2020-03-13T19:39:04Z","duration":"PT32M48S","thumbnail":"https://i.ytimg.com/vi/1Lmp0JQI3vs/mqdefault.jpg","viewCount":"2915","playlistId":"PLEkQk5xrP-tlArtGpeLWaqNM7h7IDeAVC","playlistName":"خطب الجمعة أ.د. يسري جبر","category":"خطب"},{"id":"VRb3zaddWO4","title":"الرد على الشبهات التي تقول أن الله عاتب النبي ﷺ","publishedAt":"2021-05-04T19:15:01Z","duration":"PT9M20S","thumbnail":"https://i.ytimg.com/vi/VRb3zaddWO4/mqdefault.jpg","viewCount":"2907","playlistId":"PLEkQk5xrP-tlArtGpeLWaqNM7h7IDeAVC","playlistName":"خطب الجمعة أ.د. يسري جبر","category":"خطب"},{"id":"U473amEsySM","title":"يوم الفرقان | أ.د. يسري جبر","publishedAt":"2022-04-17T21:45:00Z","duration":"PT12M4S","thumbnail":"https://i.ytimg.com/vi/U473amEsySM/mqdefault.jpg","viewCount":"2896","playlistId":"PLEkQk5xrP-tlArtGpeLWaqNM7h7IDeAVC","playlistName":"خطب الجمعة أ.د. يسري جبر","category":"خطب"},{"id":"N_IM3NUiv9c","title":"بيفطر ولا لأ؟ | كل ما تريد معرفته عن مفطرات الصيام!","publishedAt":"2024-03-15T18:07:59Z","duration":"PT15M15S","thumbnail":"https://i.ytimg.com/vi/N_IM3NUiv9c/mqdefault.jpg","viewCount":"2873","playlistId":"PLEkQk5xrP-tlArtGpeLWaqNM7h7IDeAVC","playlistName":"خطب الجمعة أ.د. يسري جبر","category":"خطب"}],"total":659,"page":17,"pageSize":24,"totalPages":28}