{"items":[{"id":"pgQBNSPwdB0","title":"ماذا أفعل إن لم أستطع الحج هذا العام؟","publishedAt":"2023-06-25T18:04:46Z","duration":"PT8M41S","thumbnail":"https://i.ytimg.com/vi/pgQBNSPwdB0/mqdefault.jpg","viewCount":"4894","playlistId":"PLEkQk5xrP-tlArtGpeLWaqNM7h7IDeAVC","playlistName":"خطب الجمعة أ.د. يسري جبر","category":"خطب"},{"id":"WsXkdz15ENI","title":"الافتقار إلى الله والغنى بالله","publishedAt":"2022-01-09T18:01:17Z","duration":"PT22M17S","thumbnail":"https://i.ytimg.com/vi/WsXkdz15ENI/mqdefault.jpg","viewCount":"4890","playlistId":"PLEkQk5xrP-tlArtGpeLWaqNM7h7IDeAVC","playlistName":"خطب الجمعة أ.د. يسري جبر","category":"خطب"},{"id":"UxaGgQtm4Pw","title":"ما الفرق بين الروح والجسد والنفس؟","publishedAt":"2024-10-03T18:57:23Z","duration":"PT19M55S","thumbnail":"https://i.ytimg.com/vi/UxaGgQtm4Pw/mqdefault.jpg","viewCount":"4883","playlistId":"PLEkQk5xrP-tlArtGpeLWaqNM7h7IDeAVC","playlistName":"خطب الجمعة أ.د. يسري جبر","category":"خطب"},{"id":"NX9koGQvZ9s","title":"حول المولد النبوي الشريف (1)   د. يسري جبر","publishedAt":"2018-11-18T18:34:19Z","duration":"PT39M13S","thumbnail":"https://i.ytimg.com/vi/NX9koGQvZ9s/mqdefault.jpg","viewCount":"4875","playlistId":"PLEkQk5xrP-tlArtGpeLWaqNM7h7IDeAVC","playlistName":"خطب الجمعة أ.د. يسري جبر","category":"خطب"},{"id":"KTtL_MbAvPQ","title":"أهمية التعرف على النبي صلى الله عليه وآله وسلم فى السلوك إلى الله  د . يسري جبر","publishedAt":"2016-03-12T07:27:32Z","duration":"PT48M4S","thumbnail":"https://i.ytimg.com/vi/KTtL_MbAvPQ/mqdefault.jpg","viewCount":"4836","playlistId":"PLEkQk5xrP-tlArtGpeLWaqNM7h7IDeAVC","playlistName":"خطب الجمعة أ.د. يسري جبر","category":"خطب"},{"id":"84rzM7EXRMo","title":"كيف تتضاعف حسناتك في الأيام المتبقية من رمضان؟","publishedAt":"2025-03-21T19:00:06Z","duration":"PT14M37S","thumbnail":"https://i.ytimg.com/vi/84rzM7EXRMo/mqdefault.jpg","viewCount":"4809","playlistId":"PLEkQk5xrP-tlArtGpeLWaqNM7h7IDeAVC","playlistName":"خطب الجمعة أ.د. يسري جبر","category":"خطب"},{"id":"qXzPIN4wwwI","title":"قيمة المرء فيما يتقن","publishedAt":"2020-12-19T18:30:04Z","duration":"PT17M17S","thumbnail":"https://i.ytimg.com/vi/qXzPIN4wwwI/mqdefault.jpg","viewCount":"4742","playlistId":"PLEkQk5xrP-tlArtGpeLWaqNM7h7IDeAVC","playlistName":"خطب الجمعة أ.د. يسري جبر","category":"خطب"},{"id":"n6jvRyrRyCo","title":"كيف تتحلى بالقناعة والرضا؟","publishedAt":"2022-12-27T18:00:28Z","duration":"PT8M41S","thumbnail":"https://i.ytimg.com/vi/n6jvRyrRyCo/mqdefault.jpg","viewCount":"4738","playlistId":"PLEkQk5xrP-tlArtGpeLWaqNM7h7IDeAVC","playlistName":"خطب الجمعة أ.د. يسري جبر","category":"خطب"},{"id":"SN3HNoqvsvo","title":"مظاهر قدرة الله ﷻ","publishedAt":"2022-11-13T18:00:20Z","duration":"PT12M39S","thumbnail":"https://i.ytimg.com/vi/SN3HNoqvsvo/mqdefault.jpg","viewCount":"4717","playlistId":"PLEkQk5xrP-tlArtGpeLWaqNM7h7IDeAVC","playlistName":"خطب الجمعة أ.د. يسري جبر","category":"خطب"},{"id":"IyAYIbMOkz4","title":"فضل جبر الخواطر عند الله","publishedAt":"2024-08-10T17:18:54Z","duration":"PT10M","thumbnail":"https://i.ytimg.com/vi/IyAYIbMOkz4/mqdefault.jpg","viewCount":"4703","playlistId":"PLEkQk5xrP-tlArtGpeLWaqNM7h7IDeAVC","playlistName":"خطب الجمعة أ.د. يسري جبر","category":"خطب"},{"id":"lE0W4twba6w","title":"ما هي أفضل الأعمال في شهر رمضان؟","publishedAt":"2025-03-03T18:30:38Z","duration":"PT19M1S","thumbnail":"https://i.ytimg.com/vi/lE0W4twba6w/mqdefault.jpg","viewCount":"4668","playlistId":"PLEkQk5xrP-tlArtGpeLWaqNM7h7IDeAVC","playlistName":"خطب الجمعة أ.د. يسري جبر","category":"خطب"},{"id":"WvStWLfjX2M","title":"الإنسان بين الوجود والعدم","publishedAt":"2022-06-14T18:53:01Z","duration":"PT8M41S","thumbnail":"https://i.ytimg.com/vi/WvStWLfjX2M/mqdefault.jpg","viewCount":"4662","playlistId":"PLEkQk5xrP-tlArtGpeLWaqNM7h7IDeAVC","playlistName":"خطب الجمعة أ.د. يسري جبر","category":"خطب"},{"id":"7_eKe9oO44g","title":"فَضْلُ النَّبيّ ﷺ عَلَى أُمَّتِه","publishedAt":"2022-03-16T17:30:56Z","duration":"PT12M34S","thumbnail":"https://i.ytimg.com/vi/7_eKe9oO44g/mqdefault.jpg","viewCount":"4619","playlistId":"PLEkQk5xrP-tlArtGpeLWaqNM7h7IDeAVC","playlistName":"خطب الجمعة أ.د. يسري جبر","category":"خطب"},{"id":"CfOQeiPR0K0","title":"بدعي كتير وربنا لا يستجيب دعائي ,, فماذا أفعل؟","publishedAt":"2024-05-07T17:47:52Z","duration":"PT15M3S","thumbnail":"https://i.ytimg.com/vi/CfOQeiPR0K0/mqdefault.jpg","viewCount":"4611","playlistId":"PLEkQk5xrP-tlArtGpeLWaqNM7h7IDeAVC","playlistName":"خطب الجمعة أ.د. يسري جبر","category":"خطب"},{"id":"d_jle3xxjwo","title":"بقية الله خير  د. يسري جبر","publishedAt":"2017-02-18T17:04:13Z","duration":"PT44M51S","thumbnail":"https://i.ytimg.com/vi/d_jle3xxjwo/mqdefault.jpg","viewCount":"4597","playlistId":"PLEkQk5xrP-tlArtGpeLWaqNM7h7IDeAVC","playlistName":"خطب الجمعة أ.د. يسري جبر","category":"خطب"},{"id":"IRL0cKdkTxk","title":"حاسس ان إيماني ضعيف ,, فماذا أفعل؟","publishedAt":"2025-02-05T19:46:49Z","duration":"PT22M12S","thumbnail":"https://i.ytimg.com/vi/IRL0cKdkTxk/mqdefault.jpg","viewCount":"4589","playlistId":"PLEkQk5xrP-tlArtGpeLWaqNM7h7IDeAVC","playlistName":"خطب الجمعة أ.د. يسري جبر","category":"خطب"},{"id":"0BXJC17KA0c","title":"ماذا تفعل إن لم تستطع الحج هذا العام؟","publishedAt":"2024-06-10T18:47:25Z","duration":"PT18M29S","thumbnail":"https://i.ytimg.com/vi/0BXJC17KA0c/mqdefault.jpg","viewCount":"4587","playlistId":"PLEkQk5xrP-tlArtGpeLWaqNM7h7IDeAVC","playlistName":"خطب الجمعة أ.د. يسري جبر","category":"خطب"},{"id":"vTKmg9cwhV4","title":"لماذا خلقنا الله في ابتلاءات مستمرة؟","publishedAt":"2025-02-03T18:41:54Z","duration":"PT17M40S","thumbnail":"https://i.ytimg.com/vi/vTKmg9cwhV4/mqdefault.jpg","viewCount":"4571","playlistId":"PLEkQk5xrP-tlArtGpeLWaqNM7h7IDeAVC","playlistName":"خطب الجمعة أ.د. يسري جبر","category":"خطب"},{"id":"_Ux_kKpS_to","title":"لماذا اختار النَّبيُّ ﷺ الرفيقَ الأعلى؟","publishedAt":"2020-11-15T17:52:54Z","duration":"PT9M32S","thumbnail":"https://i.ytimg.com/vi/_Ux_kKpS_to/mqdefault.jpg","viewCount":"4569","playlistId":"PLEkQk5xrP-tlArtGpeLWaqNM7h7IDeAVC","playlistName":"خطب الجمعة أ.د. يسري جبر","category":"خطب"},{"id":"hwuNKz9YNYQ","title":"كيف تنظم وقتك بطريقة نبوية؟ | أفضل نظام لإدارة الوقت","publishedAt":"2025-10-06T17:55:25Z","duration":"PT11M22S","thumbnail":"https://i.ytimg.com/vi/hwuNKz9YNYQ/mqdefault.jpg","viewCount":"4555","playlistId":"PLEkQk5xrP-tlArtGpeLWaqNM7h7IDeAVC","playlistName":"خطب الجمعة أ.د. يسري جبر","category":"خطب"},{"id":"MyGfEzryW0Y","title":"كيف تحج وأنت في بلدك","publishedAt":"2021-07-18T19:09:01Z","duration":"PT38M30S","thumbnail":"https://i.ytimg.com/vi/MyGfEzryW0Y/mqdefault.jpg","viewCount":"4530","playlistId":"PLEkQk5xrP-tlArtGpeLWaqNM7h7IDeAVC","playlistName":"خطب الجمعة أ.د. يسري جبر","category":"خطب"},{"id":"HI1QCks0ex0","title":"فضل يوم عاشوراء والدعاء فيه","publishedAt":"2024-07-16T12:30:06Z","duration":"PT43M30S","thumbnail":"https://i.ytimg.com/vi/HI1QCks0ex0/mqdefault.jpg","viewCount":"4519","playlistId":"PLEkQk5xrP-tlArtGpeLWaqNM7h7IDeAVC","playlistName":"خطب الجمعة أ.د. يسري جبر","category":"خطب"},{"id":"rsWyl_6xSbI","title":"شجرةُ الأصل النُّورانيَّة","publishedAt":"2020-12-26T17:59:09Z","duration":"PT8M1S","thumbnail":"https://i.ytimg.com/vi/rsWyl_6xSbI/mqdefault.jpg","viewCount":"4501","playlistId":"PLEkQk5xrP-tlArtGpeLWaqNM7h7IDeAVC","playlistName":"خطب الجمعة أ.د. يسري جبر","category":"خطب"},{"id":"QRhR543s3_o","title":"ما معنى محمد رسول الله؟","publishedAt":"2022-11-15T18:00:21Z","duration":"PT16M30S","thumbnail":"https://i.ytimg.com/vi/QRhR543s3_o/mqdefault.jpg","viewCount":"4492","playlistId":"PLEkQk5xrP-tlArtGpeLWaqNM7h7IDeAVC","playlistName":"خطب الجمعة أ.د. يسري جبر","category":"خطب"}],"total":660,"page":13,"pageSize":24,"totalPages":28}