{"items":[{"id":"1rMj7BIzUck","title":"كيف تكون مستجاب الدعاء؟","publishedAt":"2022-09-27T18:00:01Z","duration":"PT10M14S","thumbnail":"https://i.ytimg.com/vi/1rMj7BIzUck/mqdefault.jpg","viewCount":"5748","playlistId":"PLEkQk5xrP-tlArtGpeLWaqNM7h7IDeAVC","playlistName":"خطب الجمعة أ.د. يسري جبر","category":"خطب"},{"id":"a4TaYKig-Mc","title":"الأعمال المستحبة في شهر شعبان","publishedAt":"2025-01-31T19:45:13Z","duration":"PT9M33S","thumbnail":"https://i.ytimg.com/vi/a4TaYKig-Mc/mqdefault.jpg","viewCount":"5733","playlistId":"PLEkQk5xrP-tlArtGpeLWaqNM7h7IDeAVC","playlistName":"خطب الجمعة أ.د. يسري جبر","category":"خطب"},{"id":"sBPNlT37wsY","title":"خطورة سوء الظن والتجسس","publishedAt":"2021-02-14T17:15:01Z","duration":"PT8M27S","thumbnail":"https://i.ytimg.com/vi/sBPNlT37wsY/mqdefault.jpg","viewCount":"5716","playlistId":"PLEkQk5xrP-tlArtGpeLWaqNM7h7IDeAVC","playlistName":"خطب الجمعة أ.د. يسري جبر","category":"خطب"},{"id":"LuJ7GDxYoyY","title":"ليه ربنا هيحاسبنا وهو كتب علينا المعصية؟","publishedAt":"2024-07-23T18:20:40Z","duration":"PT18M39S","thumbnail":"https://i.ytimg.com/vi/LuJ7GDxYoyY/mqdefault.jpg","viewCount":"5669","playlistId":"PLEkQk5xrP-tlArtGpeLWaqNM7h7IDeAVC","playlistName":"خطب الجمعة أ.د. يسري جبر","category":"خطب"},{"id":"zXxEuotW1JE","title":"كيف تختار أصحابك؟","publishedAt":"2023-08-19T18:00:34Z","duration":"PT11M36S","thumbnail":"https://i.ytimg.com/vi/zXxEuotW1JE/mqdefault.jpg","viewCount":"5660","playlistId":"PLEkQk5xrP-tlArtGpeLWaqNM7h7IDeAVC","playlistName":"خطب الجمعة أ.د. يسري جبر","category":"خطب"},{"id":"h1IeU_WTHWQ","title":"كُنْ صَالِحًا مُصْلِحًا حيثُ حَلَلْتَ","publishedAt":"2019-10-19T21:02:58Z","duration":"PT41M57S","thumbnail":"https://i.ytimg.com/vi/h1IeU_WTHWQ/mqdefault.jpg","viewCount":"5649","playlistId":"PLEkQk5xrP-tlArtGpeLWaqNM7h7IDeAVC","playlistName":"خطب الجمعة أ.د. يسري جبر","category":"خطب"},{"id":"Z5QyWOu5D-A","title":"ما حكم الخروج على الحاكم؟","publishedAt":"2022-11-11T18:00:30Z","duration":"PT15M43S","thumbnail":"https://i.ytimg.com/vi/Z5QyWOu5D-A/mqdefault.jpg","viewCount":"5630","playlistId":"PLEkQk5xrP-tlArtGpeLWaqNM7h7IDeAVC","playlistName":"خطب الجمعة أ.د. يسري جبر","category":"خطب"},{"id":"lba-csfMZ7k","title":"كيف أكون عبدًا شكورًا؟","publishedAt":"2021-06-02T17:15:00Z","duration":"PT10M4S","thumbnail":"https://i.ytimg.com/vi/lba-csfMZ7k/mqdefault.jpg","viewCount":"5580","playlistId":"PLEkQk5xrP-tlArtGpeLWaqNM7h7IDeAVC","playlistName":"خطب الجمعة أ.د. يسري جبر","category":"خطب"},{"id":"jAIQTavYE48","title":"طُرُقُ شُكْر الله على نِعَمِه","publishedAt":"2021-06-07T12:14:41Z","duration":"PT36M24S","thumbnail":"https://i.ytimg.com/vi/jAIQTavYE48/mqdefault.jpg","viewCount":"5541","playlistId":"PLEkQk5xrP-tlArtGpeLWaqNM7h7IDeAVC","playlistName":"خطب الجمعة أ.د. يسري جبر","category":"خطب"},{"id":"adfsmtnrOqA","title":"حول الكمالات المحمدية","publishedAt":"2021-05-27T18:00:01Z","duration":"PT38M2S","thumbnail":"https://i.ytimg.com/vi/adfsmtnrOqA/mqdefault.jpg","viewCount":"5539","playlistId":"PLEkQk5xrP-tlArtGpeLWaqNM7h7IDeAVC","playlistName":"خطب الجمعة أ.د. يسري جبر","category":"خطب"},{"id":"Cy-5m5pLQ2k","title":"أفضل الأعمال في شهر شعبان","publishedAt":"2021-03-25T18:30:05Z","duration":"PT28M8S","thumbnail":"https://i.ytimg.com/vi/Cy-5m5pLQ2k/mqdefault.jpg","viewCount":"5513","playlistId":"PLEkQk5xrP-tlArtGpeLWaqNM7h7IDeAVC","playlistName":"خطب الجمعة أ.د. يسري جبر","category":"خطب"},{"id":"D359hh1POys","title":"ليلة القدر خير من ألف شهر","publishedAt":"2022-04-27T15:30:02Z","duration":"PT16M55S","thumbnail":"https://i.ytimg.com/vi/D359hh1POys/mqdefault.jpg","viewCount":"5461","playlistId":"PLEkQk5xrP-tlArtGpeLWaqNM7h7IDeAVC","playlistName":"خطب الجمعة أ.د. يسري جبر","category":"خطب"},{"id":"QvJE4zitAm0","title":"عناية الله برسوله ﷺ","publishedAt":"2021-03-18T18:00:04Z","duration":"PT31M50S","thumbnail":"https://i.ytimg.com/vi/QvJE4zitAm0/mqdefault.jpg","viewCount":"5457","playlistId":"PLEkQk5xrP-tlArtGpeLWaqNM7h7IDeAVC","playlistName":"خطب الجمعة أ.د. يسري جبر","category":"خطب"},{"id":"tNb4U7UsYV4","title":"كيف يكون لنا دور في نصرة القضية الفلس/طينية؟","publishedAt":"2023-11-09T19:36:25Z","duration":"PT19M45S","thumbnail":"https://i.ytimg.com/vi/tNb4U7UsYV4/mqdefault.jpg","viewCount":"5454","playlistId":"PLEkQk5xrP-tlArtGpeLWaqNM7h7IDeAVC","playlistName":"خطب الجمعة أ.د. يسري جبر","category":"خطب"},{"id":"4heQbfOxWWE","title":"النبي ﷺ له التصريف في الجنة  أ.د. يسري جبر","publishedAt":"2020-09-13T19:29:27Z","duration":"PT30M25S","thumbnail":"https://i.ytimg.com/vi/4heQbfOxWWE/mqdefault.jpg","viewCount":"5450","playlistId":"PLEkQk5xrP-tlArtGpeLWaqNM7h7IDeAVC","playlistName":"خطب الجمعة أ.د. يسري جبر","category":"خطب"},{"id":"ZcR0IRnKNAo","title":"كيف تغتنم ليالي رمضان؟","publishedAt":"2023-03-31T19:00:17Z","duration":"PT8M23S","thumbnail":"https://i.ytimg.com/vi/ZcR0IRnKNAo/mqdefault.jpg","viewCount":"5449","playlistId":"PLEkQk5xrP-tlArtGpeLWaqNM7h7IDeAVC","playlistName":"خطب الجمعة أ.د. يسري جبر","category":"خطب"},{"id":"N_VVvg1pXHs","title":"بداية العشر الأواخر ومتى ستكون ليلة القدر؟","publishedAt":"2024-03-30T18:00:19Z","duration":"PT8M33S","thumbnail":"https://i.ytimg.com/vi/N_VVvg1pXHs/mqdefault.jpg","viewCount":"5445","playlistId":"PLEkQk5xrP-tlArtGpeLWaqNM7h7IDeAVC","playlistName":"خطب الجمعة أ.د. يسري جبر","category":"خطب"},{"id":"twOxOtO9Ivc","title":"كيف تكون عبدًا شكورًا","publishedAt":"2020-09-21T18:57:18Z","duration":"PT36M15S","thumbnail":"https://i.ytimg.com/vi/twOxOtO9Ivc/mqdefault.jpg","viewCount":"5435","playlistId":"PLEkQk5xrP-tlArtGpeLWaqNM7h7IDeAVC","playlistName":"خطب الجمعة أ.د. يسري جبر","category":"خطب"},{"id":"j4Z-Sr-cRPo","title":"اعْبُدْ رَبَّكَ كَمَا يُرِيدُ لَا كَمَا تُرِيدُ.  أ.د. يسري جبر","publishedAt":"2019-07-21T17:37:59Z","duration":"PT44M40S","thumbnail":"https://i.ytimg.com/vi/j4Z-Sr-cRPo/mqdefault.jpg","viewCount":"5427","playlistId":"PLEkQk5xrP-tlArtGpeLWaqNM7h7IDeAVC","playlistName":"خطب الجمعة أ.د. يسري جبر","category":"خطب"},{"id":"wnlfNj73q7Y","title":"هل يرحم الله الكافر بعد موته؟","publishedAt":"2022-05-22T18:44:17Z","duration":"PT16M45S","thumbnail":"https://i.ytimg.com/vi/wnlfNj73q7Y/mqdefault.jpg","viewCount":"5410","playlistId":"PLEkQk5xrP-tlArtGpeLWaqNM7h7IDeAVC","playlistName":"خطب الجمعة أ.د. يسري جبر","category":"خطب"},{"id":"2uGIZbcYDIs","title":"كيف نفهم صفات الله تعالى؟","publishedAt":"2022-11-29T18:00:01Z","duration":"PT9M20S","thumbnail":"https://i.ytimg.com/vi/2uGIZbcYDIs/mqdefault.jpg","viewCount":"5388","playlistId":"PLEkQk5xrP-tlArtGpeLWaqNM7h7IDeAVC","playlistName":"خطب الجمعة أ.د. يسري جبر","category":"خطب"},{"id":"qvg7SWM3Bes","title":"قصة مولد النبي ﷺ من الميلاد إلى المعجزات!","publishedAt":"2025-09-06T19:15:06Z","duration":"PT39M31S","thumbnail":"https://i.ytimg.com/vi/qvg7SWM3Bes/mqdefault.jpg","viewCount":"5348","playlistId":"PLEkQk5xrP-tlArtGpeLWaqNM7h7IDeAVC","playlistName":"خطب الجمعة أ.د. يسري جبر","category":"خطب"},{"id":"6lBrRrSX8O0","title":"كيف تشكر نعم الله عليك؟","publishedAt":"2022-12-08T18:00:06Z","duration":"PT14M8S","thumbnail":"https://i.ytimg.com/vi/6lBrRrSX8O0/mqdefault.jpg","viewCount":"5348","playlistId":"PLEkQk5xrP-tlArtGpeLWaqNM7h7IDeAVC","playlistName":"خطب الجمعة أ.د. يسري جبر","category":"خطب"},{"id":"31qPQGVIGM8","title":"الرضا بالقضاء والقدر","publishedAt":"2024-09-03T17:51:21Z","duration":"PT17M44S","thumbnail":"https://i.ytimg.com/vi/31qPQGVIGM8/mqdefault.jpg","viewCount":"5331","playlistId":"PLEkQk5xrP-tlArtGpeLWaqNM7h7IDeAVC","playlistName":"خطب الجمعة أ.د. يسري جبر","category":"خطب"}],"total":659,"page":11,"pageSize":24,"totalPages":28}