{"items":[{"id":"isdm9697-AY","title":"رمضانيات  د.يسري جبر","publishedAt":"2017-06-06T17:12:48Z","duration":"PT39M48S","thumbnail":"https://i.ytimg.com/vi/isdm9697-AY/mqdefault.jpg","viewCount":"682","playlistId":"PLEkQk5xrP-tlArtGpeLWaqNM7h7IDeAVC","playlistName":"خطب الجمعة أ.د. يسري جبر","category":"خطب"},{"id":"w3S4csS_ZjI","title":"تعامل مع المباح كأنه دواء د. يسري جبر","publishedAt":"2016-07-10T19:12:40Z","duration":"PT44M9S","thumbnail":"https://i.ytimg.com/vi/w3S4csS_ZjI/mqdefault.jpg","viewCount":"656","playlistId":"PLEkQk5xrP-tlArtGpeLWaqNM7h7IDeAVC","playlistName":"خطب الجمعة أ.د. يسري جبر","category":"خطب"},{"id":"PoJkTWsOZzA","title":"حولَ عِصْمَةِ الأنبياءِ (5)  أ.د/ يسري جبر","publishedAt":"2020-02-12T14:28:25Z","duration":"PT45M17S","thumbnail":"https://i.ytimg.com/vi/PoJkTWsOZzA/mqdefault.jpg","viewCount":"654","playlistId":"PLEkQk5xrP-tlArtGpeLWaqNM7h7IDeAVC","playlistName":"خطب الجمعة أ.د. يسري جبر","category":"خطب"},{"id":"AIV0i10FDBA","title":"حول المولد النبوي الشريف (5)   أ.د. يسري جبر","publishedAt":"2018-12-15T17:19:19Z","duration":"PT34M19S","thumbnail":"https://i.ytimg.com/vi/AIV0i10FDBA/mqdefault.jpg","viewCount":"652","playlistId":"PLEkQk5xrP-tlArtGpeLWaqNM7h7IDeAVC","playlistName":"خطب الجمعة أ.د. يسري جبر","category":"خطب"},{"id":"aDzIOQcMyWE","title":"منوعات رمضانية   د. يسري جبر","publishedAt":"2017-06-10T17:45:11Z","duration":"PT35M56S","thumbnail":"https://i.ytimg.com/vi/aDzIOQcMyWE/mqdefault.jpg","viewCount":"645","playlistId":"PLEkQk5xrP-tlArtGpeLWaqNM7h7IDeAVC","playlistName":"خطب الجمعة أ.د. يسري جبر","category":"خطب"},{"id":"gKPcrU0dNPQ","title":"كيفية التأسي بالنبي صلى الله عليه وآله وسلم د. يسري جبر","publishedAt":"2016-06-14T14:25:13Z","duration":"PT49M29S","thumbnail":"https://i.ytimg.com/vi/gKPcrU0dNPQ/mqdefault.jpg","viewCount":"628","playlistId":"PLEkQk5xrP-tlArtGpeLWaqNM7h7IDeAVC","playlistName":"خطب الجمعة أ.د. يسري جبر","category":"خطب"},{"id":"0zC3tNcoBR4","title":"الإِسْتِعْدَادُ لِلْعَشْرِالآوَاخِرِ مِن رَمَضَانَ  د. يسري جبر","publishedAt":"2015-07-03T19:24:02Z","duration":"PT39M15S","thumbnail":"https://i.ytimg.com/vi/0zC3tNcoBR4/mqdefault.jpg","viewCount":"622","playlistId":"PLEkQk5xrP-tlArtGpeLWaqNM7h7IDeAVC","playlistName":"خطب الجمعة أ.د. يسري جبر","category":"خطب"},{"id":"eOVptzahNcc","title":"الصفات الذميمة التي يتجنبها المسلم  د . يسرى جبر","publishedAt":"2016-03-05T06:49:18Z","duration":"PT37M14S","thumbnail":"https://i.ytimg.com/vi/eOVptzahNcc/mqdefault.jpg","viewCount":"618","playlistId":"PLEkQk5xrP-tlArtGpeLWaqNM7h7IDeAVC","playlistName":"خطب الجمعة أ.د. يسري جبر","category":"خطب"},{"id":"JXsaRtjiWiQ","title":"(وَالَّذِينَ هُمْ لِأَمَانَاتِهِمْ وَعَهْدِهِمْ رَاعُونَ)   د. يسري جبر","publishedAt":"2017-03-25T17:17:30Z","duration":"PT36M41S","thumbnail":"https://i.ytimg.com/vi/JXsaRtjiWiQ/mqdefault.jpg","viewCount":"613","playlistId":"PLEkQk5xrP-tlArtGpeLWaqNM7h7IDeAVC","playlistName":"خطب الجمعة أ.د. يسري جبر","category":"خطب"},{"id":"HTdbUDXV1DA","title":"الصِراع بَيْنَ العِلْمِ والثَقَافة","publishedAt":"2015-01-24T17:55:09Z","duration":"PT51M4S","thumbnail":"https://i.ytimg.com/vi/HTdbUDXV1DA/mqdefault.jpg","viewCount":"601","playlistId":"PLEkQk5xrP-tlArtGpeLWaqNM7h7IDeAVC","playlistName":"خطب الجمعة أ.د. يسري جبر","category":"خطب"},{"id":"G3VvgUl2Bng","title":"حَولَ مُعْجِزَةِالإِسْرَاءِ والمِعْرَاج د.يسري جبر","publishedAt":"2016-04-30T06:54:41Z","duration":"PT47M8S","thumbnail":"https://i.ytimg.com/vi/G3VvgUl2Bng/mqdefault.jpg","viewCount":"584","playlistId":"PLEkQk5xrP-tlArtGpeLWaqNM7h7IDeAVC","playlistName":"خطب الجمعة أ.د. يسري جبر","category":"خطب"},{"id":"p1PUxEr9iJg","title":"وصفُ النبّى صلّى الله عليه وآله وسلّم","publishedAt":"2015-01-09T19:16:35Z","duration":"PT40M28S","thumbnail":"https://i.ytimg.com/vi/p1PUxEr9iJg/mqdefault.jpg","viewCount":"571","playlistId":"PLEkQk5xrP-tlArtGpeLWaqNM7h7IDeAVC","playlistName":"خطب الجمعة أ.د. يسري جبر","category":"خطب"},{"id":"sB2lQcrTcto","title":"أحسنُ الناس مَن أسلم وأحسنُ مَن أسلم مَن سَلِم وأحسنُ مَن سَلِم مَن استسلم  د. يسري جبر","publishedAt":"2018-03-03T18:35:51Z","duration":"PT35M45S","thumbnail":"https://i.ytimg.com/vi/sB2lQcrTcto/mqdefault.jpg","viewCount":"570","playlistId":"PLEkQk5xrP-tlArtGpeLWaqNM7h7IDeAVC","playlistName":"خطب الجمعة أ.د. يسري جبر","category":"خطب"},{"id":"rbCQC6pAl-E","title":"يا أَيُّها الَّذِين آمَنُوا إِذَا قُمْتُم إِلى الصَّلاةِ فاغْسِلوا وُجُوهَكم وأيديَكم ..  د.يسري جبر","publishedAt":"2018-02-24T18:20:33Z","duration":"PT39M4S","thumbnail":"https://i.ytimg.com/vi/rbCQC6pAl-E/mqdefault.jpg","viewCount":"567","playlistId":"PLEkQk5xrP-tlArtGpeLWaqNM7h7IDeAVC","playlistName":"خطب الجمعة أ.د. يسري جبر","category":"خطب"},{"id":"LW77HqEydys","title":"كن مع الله د. يسري جبر","publishedAt":"2015-04-02T21:31:58Z","duration":"PT16M38S","thumbnail":"https://i.ytimg.com/vi/LW77HqEydys/mqdefault.jpg","viewCount":"540","playlistId":"PLEkQk5xrP-tlArtGpeLWaqNM7h7IDeAVC","playlistName":"خطب الجمعة أ.د. يسري جبر","category":"خطب"},{"id":"96U3BG48zD8","title":"رمضانيات (۲)  د. يسري جبر","publishedAt":"2018-05-27T12:41:52Z","duration":"PT32M22S","thumbnail":"https://i.ytimg.com/vi/96U3BG48zD8/mqdefault.jpg","viewCount":"539","playlistId":"PLEkQk5xrP-tlArtGpeLWaqNM7h7IDeAVC","playlistName":"خطب الجمعة أ.د. يسري جبر","category":"خطب"},{"id":"1bXzwfeMp0E","title":"حول صلاة خسوف القمر    أ.د. يسري جبر","publishedAt":"2019-01-19T18:25:52Z","duration":"PT35M7S","thumbnail":"https://i.ytimg.com/vi/1bXzwfeMp0E/mqdefault.jpg","viewCount":"535","playlistId":"PLEkQk5xrP-tlArtGpeLWaqNM7h7IDeAVC","playlistName":"خطب الجمعة أ.د. يسري جبر","category":"خطب"},{"id":"BUyje5Zs5zQ","title":"مَنْ مِثْلُهُ ؟ صلّى اللهُ عليه وآله وسلّم","publishedAt":"2015-01-17T17:26:43Z","duration":"PT34M20S","thumbnail":"https://i.ytimg.com/vi/BUyje5Zs5zQ/mqdefault.jpg","viewCount":"535","playlistId":"PLEkQk5xrP-tlArtGpeLWaqNM7h7IDeAVC","playlistName":"خطب الجمعة أ.د. يسري جبر","category":"خطب"},{"id":"m0Z4JydP5PU","title":"حول ذكرى المولد النبوي الشريف بالتاريخ الميلادي د. يسري جبر","publishedAt":"2016-04-23T07:34:25Z","duration":"PT36M26S","thumbnail":"https://i.ytimg.com/vi/m0Z4JydP5PU/mqdefault.jpg","viewCount":"526","playlistId":"PLEkQk5xrP-tlArtGpeLWaqNM7h7IDeAVC","playlistName":"خطب الجمعة أ.د. يسري جبر","category":"خطب"},{"id":"EBfrPQtwkUI","title":"شُبهات حول أُمّيّة النبىِ صلى الله عليه وآله وسلم وحول الغنائم فى عصرنا   د. يسرى جبر","publishedAt":"2016-02-26T19:34:17Z","duration":"PT44M3S","thumbnail":"https://i.ytimg.com/vi/EBfrPQtwkUI/mqdefault.jpg","viewCount":"520","playlistId":"PLEkQk5xrP-tlArtGpeLWaqNM7h7IDeAVC","playlistName":"خطب الجمعة أ.د. يسري جبر","category":"خطب"},{"id":"O3C02pfagF4","title":"الإحتفال بذكرى سيّد الأكوان صلى الله عليه وآله وسلم","publishedAt":"2015-01-03T07:15:05Z","duration":"PT42M1S","thumbnail":"https://i.ytimg.com/vi/O3C02pfagF4/mqdefault.jpg","viewCount":"513","playlistId":"PLEkQk5xrP-tlArtGpeLWaqNM7h7IDeAVC","playlistName":"خطب الجمعة أ.د. يسري جبر","category":"خطب"},{"id":"deVcBZYmPC0","title":"نصائح حول اختيار المدرسة في مصر","publishedAt":"2017-10-07T13:53:04Z","duration":"PT30M32S","thumbnail":"https://i.ytimg.com/vi/deVcBZYmPC0/mqdefault.jpg","viewCount":"493","playlistId":"PLEkQk5xrP-tlArtGpeLWaqNM7h7IDeAVC","playlistName":"خطب الجمعة أ.د. يسري جبر","category":"خطب"},{"id":"bOoBopey4To","title":"حول معاني سورة الماعون أ.د. يسري جبر","publishedAt":"2018-12-18T18:31:18Z","duration":"PT41M38S","thumbnail":"https://i.ytimg.com/vi/bOoBopey4To/mqdefault.jpg","viewCount":"489","playlistId":"PLEkQk5xrP-tlArtGpeLWaqNM7h7IDeAVC","playlistName":"خطب الجمعة أ.د. يسري جبر","category":"خطب"},{"id":"rL3Gdc4O1R4","title":"رمضانيات (۳) د. يسري جبر","publishedAt":"2018-06-02T00:17:04Z","duration":"PT35M56S","thumbnail":"https://i.ytimg.com/vi/rL3Gdc4O1R4/mqdefault.jpg","viewCount":"478","playlistId":"PLEkQk5xrP-tlArtGpeLWaqNM7h7IDeAVC","playlistName":"خطب الجمعة أ.د. يسري جبر","category":"خطب"}],"total":660,"page":26,"pageSize":24,"totalPages":28}