{"items":[{"id":"hcrUS9Web0E","title":"شرح سنن الدارمي كتاب الأطعمة من باب١١","publishedAt":"2019-07-25T19:56:28Z","duration":"PT33M43S","thumbnail":"https://i.ytimg.com/vi/hcrUS9Web0E/mqdefault.jpg","viewCount":"526","playlistId":"PLEkQk5xrP-tmAg-FuWjY057X_h5NmGmAa","playlistName":"شرح سنن الدارمي - أ.د. يسري جبر (كاملا)","category":"متنوع"},{"id":"_v8rpWFF-cU","title":"شرح سنن الدارمي كتاب الأطعمة من باب ٣٠","publishedAt":"2019-07-28T06:27:53Z","duration":"PT28M","thumbnail":"https://i.ytimg.com/vi/_v8rpWFF-cU/mqdefault.jpg","viewCount":"211","playlistId":"PLEkQk5xrP-tmAg-FuWjY057X_h5NmGmAa","playlistName":"شرح سنن الدارمي - أ.د. يسري جبر (كاملا)","category":"متنوع"},{"id":"aUkavjOWpKQ","title":"شرح سنن الدارمي كتاب الأطعمة من باب ١٨","publishedAt":"2019-07-28T21:44:38Z","duration":"PT36M10S","thumbnail":"https://i.ytimg.com/vi/aUkavjOWpKQ/mqdefault.jpg","viewCount":"491","playlistId":"PLEkQk5xrP-tmAg-FuWjY057X_h5NmGmAa","playlistName":"شرح سنن الدارمي - أ.د. يسري جبر (كاملا)","category":"متنوع"},{"id":"sr8SOaQ-Cf4","title":"شرح سنن الدارمي كتاب الأشربة من أوله","publishedAt":"2019-07-30T23:05:35Z","duration":"PT39M58S","thumbnail":"https://i.ytimg.com/vi/sr8SOaQ-Cf4/mqdefault.jpg","viewCount":"426","playlistId":"PLEkQk5xrP-tmAg-FuWjY057X_h5NmGmAa","playlistName":"شرح سنن الدارمي - أ.د. يسري جبر (كاملا)","category":"متنوع"},{"id":"b4Ks848jUEw","title":"شرح سنن الدارمي كتاب الأشربة من باب ١٢","publishedAt":"2019-07-31T22:24:58Z","duration":"PT27M58S","thumbnail":"https://i.ytimg.com/vi/b4Ks848jUEw/mqdefault.jpg","viewCount":"364","playlistId":"PLEkQk5xrP-tmAg-FuWjY057X_h5NmGmAa","playlistName":"شرح سنن الدارمي - أ.د. يسري جبر (كاملا)","category":"متنوع"},{"id":"255-dzXOh8A","title":"شرح سنن الدارمي كتاب الأشربة من باب ٢٠","publishedAt":"2019-08-01T17:23:30Z","duration":"PT26M39S","thumbnail":"https://i.ytimg.com/vi/255-dzXOh8A/mqdefault.jpg","viewCount":"390","playlistId":"PLEkQk5xrP-tmAg-FuWjY057X_h5NmGmAa","playlistName":"شرح سنن الدارمي - أ.د. يسري جبر (كاملا)","category":"متنوع"},{"id":"aK7X31rJXHI","title":"شرح سنن الدارمي كتاب الرؤيا من أوله","publishedAt":"2019-08-04T09:02:04Z","duration":"PT1H8M22S","thumbnail":"https://i.ytimg.com/vi/aK7X31rJXHI/mqdefault.jpg","viewCount":"896","playlistId":"PLEkQk5xrP-tmAg-FuWjY057X_h5NmGmAa","playlistName":"شرح سنن الدارمي - أ.د. يسري جبر (كاملا)","category":"متنوع"},{"id":"5kJ8TmyU9po","title":"شرح سنن الدارمي كتاب النكاح من أوله","publishedAt":"2019-08-05T11:20:27Z","duration":"PT45M5S","thumbnail":"https://i.ytimg.com/vi/5kJ8TmyU9po/mqdefault.jpg","viewCount":"613","playlistId":"PLEkQk5xrP-tmAg-FuWjY057X_h5NmGmAa","playlistName":"شرح سنن الدارمي - أ.د. يسري جبر (كاملا)","category":"متنوع"},{"id":"hlJkjSMH8_A","title":"شرح سنن الدارمي كتاب النكاح من باب ٩","publishedAt":"2019-08-06T12:37:07Z","duration":"PT37M40S","thumbnail":"https://i.ytimg.com/vi/hlJkjSMH8_A/mqdefault.jpg","viewCount":"508","playlistId":"PLEkQk5xrP-tmAg-FuWjY057X_h5NmGmAa","playlistName":"شرح سنن الدارمي - أ.د. يسري جبر (كاملا)","category":"متنوع"},{"id":"zV1QVlcL1KM","title":"شرح سنن الدارمي كتاب النكاح من باب ١٤","publishedAt":"2019-08-07T12:15:01Z","duration":"PT26M5S","thumbnail":"https://i.ytimg.com/vi/zV1QVlcL1KM/mqdefault.jpg","viewCount":"410","playlistId":"PLEkQk5xrP-tmAg-FuWjY057X_h5NmGmAa","playlistName":"شرح سنن الدارمي - أ.د. يسري جبر (كاملا)","category":"متنوع"},{"id":"zlkMF1kR5yM","title":"شرح سنن الدارمي كتاب النكاح من باب ١٨","publishedAt":"2019-08-08T09:24:31Z","duration":"PT41M27S","thumbnail":"https://i.ytimg.com/vi/zlkMF1kR5yM/mqdefault.jpg","viewCount":"439","playlistId":"PLEkQk5xrP-tmAg-FuWjY057X_h5NmGmAa","playlistName":"شرح سنن الدارمي - أ.د. يسري جبر (كاملا)","category":"متنوع"},{"id":"NPECoa1QDg0","title":"شرح سنن الدارمي كتاب النكاح من باب ٢٩","publishedAt":"2019-08-10T09:10:01Z","duration":"PT35M1S","thumbnail":"https://i.ytimg.com/vi/NPECoa1QDg0/mqdefault.jpg","viewCount":"455","playlistId":"PLEkQk5xrP-tmAg-FuWjY057X_h5NmGmAa","playlistName":"شرح سنن الدارمي - أ.د. يسري جبر (كاملا)","category":"متنوع"},{"id":"-uTb_ermtF0","title":"شرح سنن الدارمي كتاب النكاح من باب ٣٦","publishedAt":"2019-08-11T08:51:06Z","duration":"PT33M43S","thumbnail":"https://i.ytimg.com/vi/-uTb_ermtF0/mqdefault.jpg","viewCount":"470","playlistId":"PLEkQk5xrP-tmAg-FuWjY057X_h5NmGmAa","playlistName":"شرح سنن الدارمي - أ.د. يسري جبر (كاملا)","category":"متنوع"},{"id":"cVHc8mbJmAA","title":"شرح سنن الدارمي كتاب النكاح من باب ٤١","publishedAt":"2019-08-12T18:54:26Z","duration":"PT29M1S","thumbnail":"https://i.ytimg.com/vi/cVHc8mbJmAA/mqdefault.jpg","viewCount":"412","playlistId":"PLEkQk5xrP-tmAg-FuWjY057X_h5NmGmAa","playlistName":"شرح سنن الدارمي - أ.د. يسري جبر (كاملا)","category":"متنوع"},{"id":"brbBhkuLyoA","title":"شرح سنن الدارمي كتاب النكاح من باب ٤٨","publishedAt":"2019-08-13T19:41:06Z","duration":"PT33M18S","thumbnail":"https://i.ytimg.com/vi/brbBhkuLyoA/mqdefault.jpg","viewCount":"452","playlistId":"PLEkQk5xrP-tmAg-FuWjY057X_h5NmGmAa","playlistName":"شرح سنن الدارمي - أ.د. يسري جبر (كاملا)","category":"متنوع"},{"id":"jB6msMShj90","title":"شرح سنن الدارمي كتاب النكاح من باب ٥١","publishedAt":"2019-08-14T14:09:38Z","duration":"PT42M10S","thumbnail":"https://i.ytimg.com/vi/jB6msMShj90/mqdefault.jpg","viewCount":"407","playlistId":"PLEkQk5xrP-tmAg-FuWjY057X_h5NmGmAa","playlistName":"شرح سنن الدارمي - أ.د. يسري جبر (كاملا)","category":"متنوع"},{"id":"YDPjh_hySJQ","title":"شرح سنن الدارمي كتاب الطلا‎ق من أوله","publishedAt":"2019-08-15T04:17:16Z","duration":"PT32M34S","thumbnail":"https://i.ytimg.com/vi/YDPjh_hySJQ/mqdefault.jpg","viewCount":"276","playlistId":"PLEkQk5xrP-tmAg-FuWjY057X_h5NmGmAa","playlistName":"شرح سنن الدارمي - أ.د. يسري جبر (كاملا)","category":"متنوع"},{"id":"kiEcQlsN10k","title":"شرح سنن الدارمي كتاب الطلا‎ق من باب ٧","publishedAt":"2019-08-15T16:34:40Z","duration":"PT35M52S","thumbnail":"https://i.ytimg.com/vi/kiEcQlsN10k/mqdefault.jpg","viewCount":"337","playlistId":"PLEkQk5xrP-tmAg-FuWjY057X_h5NmGmAa","playlistName":"شرح سنن الدارمي - أ.د. يسري جبر (كاملا)","category":"متنوع"},{"id":"o9xlJwtCjBs","title":"شرح سنن الدارمي كتاب الطلا‎ق من باب ١٢","publishedAt":"2019-08-16T11:34:54Z","duration":"PT36M14S","thumbnail":"https://i.ytimg.com/vi/o9xlJwtCjBs/mqdefault.jpg","viewCount":"376","playlistId":"PLEkQk5xrP-tmAg-FuWjY057X_h5NmGmAa","playlistName":"شرح سنن الدارمي - أ.د. يسري جبر (كاملا)","category":"متنوع"},{"id":"xR3ma_nKRcc","title":"شرح سنن الدارمي كتاب الحدود من أوله","publishedAt":"2019-08-16T22:02:28Z","duration":"PT34M38S","thumbnail":"https://i.ytimg.com/vi/xR3ma_nKRcc/mqdefault.jpg","viewCount":"413","playlistId":"PLEkQk5xrP-tmAg-FuWjY057X_h5NmGmAa","playlistName":"شرح سنن الدارمي - أ.د. يسري جبر (كاملا)","category":"متنوع"},{"id":"zQdjh27Zob0","title":"شرح سنن الدارمي كتاب الحدود من باب ٧","publishedAt":"2019-08-17T17:09:43Z","duration":"PT30M41S","thumbnail":"https://i.ytimg.com/vi/zQdjh27Zob0/mqdefault.jpg","viewCount":"311","playlistId":"PLEkQk5xrP-tmAg-FuWjY057X_h5NmGmAa","playlistName":"شرح سنن الدارمي - أ.د. يسري جبر (كاملا)","category":"متنوع"},{"id":"Hx19thMT_Fc","title":"شرح سنن الدارمي كتاب الحدود من باب ١٢","publishedAt":"2019-08-18T09:41:13Z","duration":"PT27M7S","thumbnail":"https://i.ytimg.com/vi/Hx19thMT_Fc/mqdefault.jpg","viewCount":"228","playlistId":"PLEkQk5xrP-tmAg-FuWjY057X_h5NmGmAa","playlistName":"شرح سنن الدارمي - أ.د. يسري جبر (كاملا)","category":"متنوع"},{"id":"P8l-RNMEK2I","title":"شرح سنن الدارمي كتاب الحدود من باب ١٥","publishedAt":"2019-08-18T17:34:32Z","duration":"PT30M56S","thumbnail":"https://i.ytimg.com/vi/P8l-RNMEK2I/mqdefault.jpg","viewCount":"417","playlistId":"PLEkQk5xrP-tmAg-FuWjY057X_h5NmGmAa","playlistName":"شرح سنن الدارمي - أ.د. يسري جبر (كاملا)","category":"متنوع"},{"id":"lv050bJwBDM","title":"شرح سنن الدارمي كتاب النذور والأيمان من أوله","publishedAt":"2019-08-19T16:26:00Z","duration":"PT24M31S","thumbnail":"https://i.ytimg.com/vi/lv050bJwBDM/mqdefault.jpg","viewCount":"339","playlistId":"PLEkQk5xrP-tmAg-FuWjY057X_h5NmGmAa","playlistName":"شرح سنن الدارمي - أ.د. يسري جبر (كاملا)","category":"متنوع"}],"total":213,"page":6,"pageSize":24,"totalPages":9}