{"items":[{"id":"lu8NJwWSg9Y","title":"كيف تكون صاحب همة عالية؟ | أ.د. يسري جبر","publishedAt":"2022-04-16T15:30:06Z","duration":"PT30M28S","thumbnail":"https://i.ytimg.com/vi/lu8NJwWSg9Y/mqdefault.jpg","viewCount":"23120","playlistId":"PLEkQk5xrP-tnl7vb7KeAoPd5ZlqKKW8KV","playlistName":"شرح كتاب بهجة النفوس أ.د . يسرى جبر","category":"متنوع"},{"id":"7NemxkkhjVE","title":"كيف تتوكل على الله حق التوكل؟ | أ.د. يسري جبر","publishedAt":"2022-04-15T15:30:01Z","duration":"PT37M54S","thumbnail":"https://i.ytimg.com/vi/7NemxkkhjVE/mqdefault.jpg","viewCount":"9720","playlistId":"PLEkQk5xrP-tnl7vb7KeAoPd5ZlqKKW8KV","playlistName":"شرح كتاب بهجة النفوس أ.د . يسرى جبر","category":"متنوع"},{"id":"9YS1_BVKLAM","title":"الأخذ بالأسباب والتوكل على الله | أ.د. يسري جبر","publishedAt":"2022-04-14T15:30:03Z","duration":"PT20M12S","thumbnail":"https://i.ytimg.com/vi/9YS1_BVKLAM/mqdefault.jpg","viewCount":"3727","playlistId":"PLEkQk5xrP-tnl7vb7KeAoPd5ZlqKKW8KV","playlistName":"شرح كتاب بهجة النفوس أ.د . يسرى جبر","category":"متنوع"},{"id":"4ZO0KUqNgR0","title":"آداب شرب الماء في الإسلام | أ.د. يسري جبر","publishedAt":"2022-04-13T15:30:00Z","duration":"PT39M47S","thumbnail":"https://i.ytimg.com/vi/4ZO0KUqNgR0/mqdefault.jpg","viewCount":"2109","playlistId":"PLEkQk5xrP-tnl7vb7KeAoPd5ZlqKKW8KV","playlistName":"شرح كتاب بهجة النفوس أ.د . يسرى جبر","category":"متنوع"},{"id":"A686tGZkUuI","title":"الفرق بين العادة والعبادة | أ.د. يسري جبر","publishedAt":"2022-04-12T19:40:02Z","duration":"PT19M58S","thumbnail":"https://i.ytimg.com/vi/A686tGZkUuI/mqdefault.jpg","viewCount":"2437","playlistId":"PLEkQk5xrP-tnl7vb7KeAoPd5ZlqKKW8KV","playlistName":"شرح كتاب بهجة النفوس أ.د . يسرى جبر","category":"متنوع"},{"id":"rGKurQiTMHQ","title":"وَصِيَّةُ النَّبيّ ﷺ للأُمَّة ٤ والأخير | أ.د. يسري جبر","publishedAt":"2022-04-11T17:53:58Z","duration":"PT20M29S","thumbnail":"https://i.ytimg.com/vi/rGKurQiTMHQ/mqdefault.jpg","viewCount":"1171","playlistId":"PLEkQk5xrP-tnl7vb7KeAoPd5ZlqKKW8KV","playlistName":"شرح كتاب بهجة النفوس أ.د . يسرى جبر","category":"متنوع"},{"id":"FKHBcXk8psQ","title":"وَصِيَّةُ النَّبيّ ﷺ للأُمَّة ۳ | أ.د. يسري جبر","publishedAt":"2022-04-10T17:14:15Z","duration":"PT23M14S","thumbnail":"https://i.ytimg.com/vi/FKHBcXk8psQ/mqdefault.jpg","viewCount":"918","playlistId":"PLEkQk5xrP-tnl7vb7KeAoPd5ZlqKKW8KV","playlistName":"شرح كتاب بهجة النفوس أ.د . يسرى جبر","category":"متنوع"},{"id":"SfBTomMgGbI","title":"وَصِيَّةُ النَّبيّ ﷺ للأُمَّة ۲ | أ.د. يسري جبر","publishedAt":"2022-04-09T15:30:04Z","duration":"PT29M31S","thumbnail":"https://i.ytimg.com/vi/SfBTomMgGbI/mqdefault.jpg","viewCount":"1114","playlistId":"PLEkQk5xrP-tnl7vb7KeAoPd5ZlqKKW8KV","playlistName":"شرح كتاب بهجة النفوس أ.د . يسرى جبر","category":"متنوع"},{"id":"cDOuhrsISXA","title":"وَصِيَّةُ النَّبيّ ﷺ للأُمَّة | أ.د. يسري جبر","publishedAt":"2022-04-08T15:30:06Z","duration":"PT17M46S","thumbnail":"https://i.ytimg.com/vi/cDOuhrsISXA/mqdefault.jpg","viewCount":"2176","playlistId":"PLEkQk5xrP-tnl7vb7KeAoPd5ZlqKKW8KV","playlistName":"شرح كتاب بهجة النفوس أ.د . يسرى جبر","category":"متنوع"},{"id":"ziF7Ja2hX9E","title":"هل يجوز تأخير الطواف في الحج | أ.د. يسري جبر","publishedAt":"2022-04-07T15:30:09Z","duration":"PT25M37S","thumbnail":"https://i.ytimg.com/vi/ziF7Ja2hX9E/mqdefault.jpg","viewCount":"487","playlistId":"PLEkQk5xrP-tnl7vb7KeAoPd5ZlqKKW8KV","playlistName":"شرح كتاب بهجة النفوس أ.د . يسرى جبر","category":"متنوع"},{"id":"WS1eBf89Fdk","title":"بيان وقت ذبح الأضحية | أ.د. يسري جبر","publishedAt":"2022-04-06T15:30:09Z","duration":"PT31M48S","thumbnail":"https://i.ytimg.com/vi/WS1eBf89Fdk/mqdefault.jpg","viewCount":"2305","playlistId":"PLEkQk5xrP-tnl7vb7KeAoPd5ZlqKKW8KV","playlistName":"شرح كتاب بهجة النفوس أ.د . يسرى جبر","category":"متنوع"},{"id":"C-mIgIa6NQk","title":"كيفية إزالة النجاسة ومتى يطهر الطعام المتنجس؟ | أ.د. يسري جبر","publishedAt":"2022-04-05T15:30:02Z","duration":"PT31M51S","thumbnail":"https://i.ytimg.com/vi/C-mIgIa6NQk/mqdefault.jpg","viewCount":"1072","playlistId":"PLEkQk5xrP-tnl7vb7KeAoPd5ZlqKKW8KV","playlistName":"شرح كتاب بهجة النفوس أ.د . يسرى جبر","category":"متنوع"},{"id":"8YrqcbsRqcU","title":"هل يجوز الانتفاع بجلود الحيوانات؟ | أ.د. يسري جبر","publishedAt":"2022-04-04T15:30:03Z","duration":"PT32M47S","thumbnail":"https://i.ytimg.com/vi/8YrqcbsRqcU/mqdefault.jpg","viewCount":"715","playlistId":"PLEkQk5xrP-tnl7vb7KeAoPd5ZlqKKW8KV","playlistName":"شرح كتاب بهجة النفوس أ.د . يسرى جبر","category":"متنوع"},{"id":"oPsGhO0Fuhc","title":"النهي عن أكل لحوم كل ذي ناب من السباع | أ.د. يسري جبر","publishedAt":"2022-04-03T15:30:07Z","duration":"PT27M2S","thumbnail":"https://i.ytimg.com/vi/oPsGhO0Fuhc/mqdefault.jpg","viewCount":"840","playlistId":"PLEkQk5xrP-tnl7vb7KeAoPd5ZlqKKW8KV","playlistName":"شرح كتاب بهجة النفوس أ.د . يسرى جبر","category":"متنوع"},{"id":"RMbMg2igu_s","title":"النهي عن قتل الحيوان صبرًا | أ.د. يسري جبر","publishedAt":"2022-04-02T15:30:04Z","duration":"PT37M34S","thumbnail":"https://i.ytimg.com/vi/RMbMg2igu_s/mqdefault.jpg","viewCount":"1098","playlistId":"PLEkQk5xrP-tnl7vb7KeAoPd5ZlqKKW8KV","playlistName":"شرح كتاب بهجة النفوس أ.د . يسرى جبر","category":"متنوع"},{"id":"6n4VJmM4RBE","title":"هل يجوز الأكل في أواني غير المسلمين؟ | أ.د. يسري جبر","publishedAt":"2021-05-12T17:05:15Z","duration":"PT27M46S","thumbnail":"https://i.ytimg.com/vi/6n4VJmM4RBE/mqdefault.jpg","viewCount":"2247","playlistId":"PLEkQk5xrP-tnl7vb7KeAoPd5ZlqKKW8KV","playlistName":"شرح كتاب بهجة النفوس أ.د . يسرى جبر","category":"متنوع"},{"id":"3ldxdXs_d1o","title":"من سنن النبيﷺ في النظافة | أ.د. يسري جبر","publishedAt":"2021-05-11T17:00:02Z","duration":"PT31M12S","thumbnail":"https://i.ytimg.com/vi/3ldxdXs_d1o/mqdefault.jpg","viewCount":"1632","playlistId":"PLEkQk5xrP-tnl7vb7KeAoPd5ZlqKKW8KV","playlistName":"شرح كتاب بهجة النفوس أ.د . يسرى جبر","category":"متنوع"},{"id":"apcCdnNfaMU","title":"سر إفطار النبي ﷺ علي التمر | أ.د. يسري جبر","publishedAt":"2021-05-10T16:00:02Z","duration":"PT34M39S","thumbnail":"https://i.ytimg.com/vi/apcCdnNfaMU/mqdefault.jpg","viewCount":"3336","playlistId":"PLEkQk5xrP-tnl7vb7KeAoPd5ZlqKKW8KV","playlistName":"شرح كتاب بهجة النفوس أ.د . يسرى جبر","category":"متنوع"},{"id":"1KCg0rAEMWc","title":"ذكر الله تعالى على الطعام | أ.د. يسري جبر","publishedAt":"2021-05-09T15:30:30Z","duration":"PT38M7S","thumbnail":"https://i.ytimg.com/vi/1KCg0rAEMWc/mqdefault.jpg","viewCount":"1610","playlistId":"PLEkQk5xrP-tnl7vb7KeAoPd5ZlqKKW8KV","playlistName":"شرح كتاب بهجة النفوس أ.د . يسرى جبر","category":"متنوع"},{"id":"23ZGzo3sN-g","title":"مساعدة الرجل لزوجته | أ.د. يسري جبر","publishedAt":"2021-05-08T16:00:02Z","duration":"PT25M46S","thumbnail":"https://i.ytimg.com/vi/23ZGzo3sN-g/mqdefault.jpg","viewCount":"1631","playlistId":"PLEkQk5xrP-tnl7vb7KeAoPd5ZlqKKW8KV","playlistName":"شرح كتاب بهجة النفوس أ.د . يسرى جبر","category":"متنوع"},{"id":"HU1n6pC0Ydk","title":"إدخار الطعام | أ.د. يسري جبر","publishedAt":"2021-05-07T16:00:07Z","duration":"PT25M28S","thumbnail":"https://i.ytimg.com/vi/HU1n6pC0Ydk/mqdefault.jpg","viewCount":"1562","playlistId":"PLEkQk5xrP-tnl7vb7KeAoPd5ZlqKKW8KV","playlistName":"شرح كتاب بهجة النفوس أ.د . يسرى جبر","category":"متنوع"},{"id":"8M26Evt_5Qw","title":"هل تجوز الشفاعة؟ | أ.د. يسري جبر","publishedAt":"2021-05-06T16:10:01Z","duration":"PT28M10S","thumbnail":"https://i.ytimg.com/vi/8M26Evt_5Qw/mqdefault.jpg","viewCount":"1210","playlistId":"PLEkQk5xrP-tnl7vb7KeAoPd5ZlqKKW8KV","playlistName":"شرح كتاب بهجة النفوس أ.د . يسرى جبر","category":"متنوع"},{"id":"IDe0AwsQcmQ","title":"كراهية التجسس بين الزوجين | أ.د. يسري جبر","publishedAt":"2021-05-05T16:09:42Z","duration":"PT26M25S","thumbnail":"https://i.ytimg.com/vi/IDe0AwsQcmQ/mqdefault.jpg","viewCount":"1851","playlistId":"PLEkQk5xrP-tnl7vb7KeAoPd5ZlqKKW8KV","playlistName":"شرح كتاب بهجة النفوس أ.د . يسرى جبر","category":"متنوع"},{"id":"I-0i20kPs0c","title":"جواز التحلل من الحج | أ.د. يسري جبر","publishedAt":"2021-05-04T16:00:16Z","duration":"PT37M58S","thumbnail":"https://i.ytimg.com/vi/I-0i20kPs0c/mqdefault.jpg","viewCount":"489","playlistId":"PLEkQk5xrP-tnl7vb7KeAoPd5ZlqKKW8KV","playlistName":"شرح كتاب بهجة النفوس أ.د . يسرى جبر","category":"متنوع"}],"total":237,"page":4,"pageSize":24,"totalPages":10}