{"items":[{"id":"vQNvlRldN1s","title":"624- قوله تعالى\"قُلْ فَأْتُوا بِالتَّوْرَاةِ فَاتْلُوهَا\" - ختام شرح صحيح الإمام البخاري","publishedAt":"2022-12-03T09:00:22Z","duration":"PT1H8M39S","thumbnail":"https://i.ytimg.com/vi/vQNvlRldN1s/mqdefault.jpg","viewCount":"1143","playlistId":"PLEkQk5xrP-tmJuzaj4GWRenFoFx9gdbFX","playlistName":"شرح كتاب صحيح الإمام البخاري رضي الله تعالى عنه   أ.د. يسرى جبر","category":"حديث"},{"id":"ulMqXavMygs","title":"623- قوله تعالى \"وما كُنتُم تستَتِرُونَ أَن يشهَدَ علَيكُم سمعُكُم ولَا أَبصَارُكُم ولَا جُلودُكُم…\"","publishedAt":"2022-11-26T09:00:36Z","duration":"PT41M13S","thumbnail":"https://i.ytimg.com/vi/ulMqXavMygs/mqdefault.jpg","viewCount":"976","playlistId":"PLEkQk5xrP-tmJuzaj4GWRenFoFx9gdbFX","playlistName":"شرح كتاب صحيح الإمام البخاري رضي الله تعالى عنه   أ.د. يسرى جبر","category":"حديث"},{"id":"jLS-4ZY6iOk","title":"622- كَلَامُ الرَّبِّ مع أَهلِ الجَنَّة  - شرح صحيح الإمام البخاري رضي الله تعالى عنه","publishedAt":"2022-11-19T09:00:33Z","duration":"PT45M39S","thumbnail":"https://i.ytimg.com/vi/jLS-4ZY6iOk/mqdefault.jpg","viewCount":"1157","playlistId":"PLEkQk5xrP-tmJuzaj4GWRenFoFx9gdbFX","playlistName":"شرح كتاب صحيح الإمام البخاري رضي الله تعالى عنه   أ.د. يسرى جبر","category":"حديث"},{"id":"Ejom6cahmJA","title":"621- كَلامُ الرَّبِّ عَزَّ وجَلَّ يومَ القِيامةِ مع الأَنبِيَاءِ وغَيرِهم - شرح صحيح الإمام البخاري","publishedAt":"2022-11-12T09:00:07Z","duration":"PT42M33S","thumbnail":"https://i.ytimg.com/vi/Ejom6cahmJA/mqdefault.jpg","viewCount":"1515","playlistId":"PLEkQk5xrP-tmJuzaj4GWRenFoFx9gdbFX","playlistName":"شرح كتاب صحيح الإمام البخاري رضي الله تعالى عنه   أ.د. يسرى جبر","category":"حديث"},{"id":"7BX_7MrzQBs","title":"620- حادثةُ الإِفْكِ - شرح صحيح الإمام البخاري رضي الله تعالى عنه","publishedAt":"2022-11-05T08:55:01Z","duration":"PT42M55S","thumbnail":"https://i.ytimg.com/vi/7BX_7MrzQBs/mqdefault.jpg","viewCount":"1289","playlistId":"PLEkQk5xrP-tmJuzaj4GWRenFoFx9gdbFX","playlistName":"شرح كتاب صحيح الإمام البخاري رضي الله تعالى عنه   أ.د. يسرى جبر","category":"حديث"},{"id":"r6yEdUVWMA8","title":"619- كلامُ الرَّبّ مع جبريلَ ونِداءُ الله الملائكة - شرح صحيح الإمام البخاري","publishedAt":"2022-10-29T09:00:25Z","duration":"PT45M47S","thumbnail":"https://i.ytimg.com/vi/r6yEdUVWMA8/mqdefault.jpg","viewCount":"1934","playlistId":"PLEkQk5xrP-tmJuzaj4GWRenFoFx9gdbFX","playlistName":"شرح كتاب صحيح الإمام البخاري رضي الله تعالى عنه   أ.د. يسرى جبر","category":"حديث"},{"id":"8kYfrNUQWIE","title":"618- اشْفَعُوا فلْتُؤجَرُوا، ويَقْضِي الله على لسانِ نَبِيِّه ما شاء - شرح صحيح الإمام البخاري","publishedAt":"2022-10-22T09:00:04Z","duration":"PT45M41S","thumbnail":"https://i.ytimg.com/vi/8kYfrNUQWIE/mqdefault.jpg","viewCount":"1218","playlistId":"PLEkQk5xrP-tmJuzaj4GWRenFoFx9gdbFX","playlistName":"شرح كتاب صحيح الإمام البخاري رضي الله تعالى عنه   أ.د. يسرى جبر","category":"حديث"},{"id":"r_zVRx5qRCc","title":"617- المشيئة والإرادة - شرح صحيح الإمام البخاري رضي الله تعالى عنه","publishedAt":"2022-10-15T09:00:32Z","duration":"PT37M2S","thumbnail":"https://i.ytimg.com/vi/r_zVRx5qRCc/mqdefault.jpg","viewCount":"1520","playlistId":"PLEkQk5xrP-tmJuzaj4GWRenFoFx9gdbFX","playlistName":"شرح كتاب صحيح الإمام البخاري رضي الله تعالى عنه   أ.د. يسرى جبر","category":"حديث"},{"id":"8_a7ihX0260","title":"616- قوله تعالى\"قُل لَّوْ كَانَ الْبَحْرُ مِدَادًا لِّكَلِمَاتِ رَبِّي\"","publishedAt":"2022-10-09T05:15:00Z","duration":"PT45M30S","thumbnail":"https://i.ytimg.com/vi/8_a7ihX0260/mqdefault.jpg","viewCount":"1933","playlistId":"PLEkQk5xrP-tmJuzaj4GWRenFoFx9gdbFX","playlistName":"شرح كتاب صحيح الإمام البخاري رضي الله تعالى عنه   أ.د. يسرى جبر","category":"حديث"},{"id":"IIKH56VEFk0","title":"615- قوله تعالى\"وَلَقَدْ سَبَقَتْ كَلِمَتُنَا لِعِبَادِنَا الْمُرْسَلِينَ\" شرح صحيح الامام البخاري","publishedAt":"2022-10-01T07:15:09Z","duration":"PT40M53S","thumbnail":"https://i.ytimg.com/vi/IIKH56VEFk0/mqdefault.jpg","viewCount":"1144","playlistId":"PLEkQk5xrP-tmJuzaj4GWRenFoFx9gdbFX","playlistName":"شرح كتاب صحيح الإمام البخاري رضي الله تعالى عنه   أ.د. يسرى جبر","category":"حديث"},{"id":"xX32cmdSBPo","title":"613- (3) قوله تعالى: وُجُوهٌ يَوْمَئِذٍ نَّاضِرَةٌ(22) إِلَىٰ رَبِّهَا نَاظِرَةٌ (23)\"","publishedAt":"2022-09-24T06:00:14Z","duration":"PT53M28S","thumbnail":"https://i.ytimg.com/vi/xX32cmdSBPo/mqdefault.jpg","viewCount":"1352","playlistId":"PLEkQk5xrP-tmJuzaj4GWRenFoFx9gdbFX","playlistName":"شرح كتاب صحيح الإمام البخاري رضي الله تعالى عنه   أ.د. يسرى جبر","category":"حديث"},{"id":"EkFY7a8ibM8","title":"614-  قولُه تعالى\"إِنَّ رَحْمَتَ اللَّهِ قَرِيبٌ مِّنَ الْمُحْسِنِينَ\" - شرح صحيح الإمام البخاري","publishedAt":"2022-09-17T07:00:10Z","duration":"PT35M52S","thumbnail":"https://i.ytimg.com/vi/EkFY7a8ibM8/mqdefault.jpg","viewCount":"1834","playlistId":"PLEkQk5xrP-tmJuzaj4GWRenFoFx9gdbFX","playlistName":"شرح كتاب صحيح الإمام البخاري رضي الله تعالى عنه   أ.د. يسرى جبر","category":"حديث"},{"id":"czpFex-9zq4","title":"612- هلْ نَرَى رَبَّنَا يَومَ القِيَامَةِ؟ - شرح صحيح الإمام البخاري رضي الله عنه","publishedAt":"2022-09-10T06:30:12Z","duration":"PT51M11S","thumbnail":"https://i.ytimg.com/vi/czpFex-9zq4/mqdefault.jpg","viewCount":"3349","playlistId":"PLEkQk5xrP-tmJuzaj4GWRenFoFx9gdbFX","playlistName":"شرح كتاب صحيح الإمام البخاري رضي الله تعالى عنه   أ.د. يسرى جبر","category":"حديث"},{"id":"mAhBnWNMoK0","title":"611- قوله تعالى\"وُجُوهٌ يَوْمَئِذٍ نَّاضِرَةٌ *إِلَىٰ رَبِّهَا نَاظِرَةٌ\" - شرح صحيح الإمام البخاري","publishedAt":"2022-09-03T06:15:02Z","duration":"PT49M49S","thumbnail":"https://i.ytimg.com/vi/mAhBnWNMoK0/mqdefault.jpg","viewCount":"4818","playlistId":"PLEkQk5xrP-tmJuzaj4GWRenFoFx9gdbFX","playlistName":"شرح كتاب صحيح الإمام البخاري رضي الله تعالى عنه   أ.د. يسرى جبر","category":"حديث"},{"id":"CwlXDnkxlVI","title":"610- قوله تعالى\"تَعْرُجُ الْمَلائِكَةُ وَالرُّوحُ إِلَيْهِ\" - كتاب التوحيد - شرح صحيح الإمام البخاري","publishedAt":"2022-08-27T05:45:00Z","duration":"PT46M39S","thumbnail":"https://i.ytimg.com/vi/CwlXDnkxlVI/mqdefault.jpg","viewCount":"2230","playlistId":"PLEkQk5xrP-tmJuzaj4GWRenFoFx9gdbFX","playlistName":"شرح كتاب صحيح الإمام البخاري رضي الله تعالى عنه   أ.د. يسرى جبر","category":"حديث"},{"id":"Y7VZhDWCmp4","title":"609- قوله تعالى\"وَكَانَ عَرْشُهُ عَلَى الْمَاءِ\" -  شرح صحيح الإمام البخاري رضي الله تعالى عنه","publishedAt":"2022-08-19T19:15:01Z","duration":"PT40M28S","thumbnail":"https://i.ytimg.com/vi/Y7VZhDWCmp4/mqdefault.jpg","viewCount":"5058","playlistId":"PLEkQk5xrP-tmJuzaj4GWRenFoFx9gdbFX","playlistName":"شرح كتاب صحيح الإمام البخاري رضي الله تعالى عنه   أ.د. يسرى جبر","category":"حديث"},{"id":"G0bL7KIcM0Y","title":"608- قولُه تعالى \"لِمَا خَلَقْتُ بِيَدَيَّ\" شرح صحيح الإمام البخاري رضي الله عنه","publishedAt":"2022-08-13T05:30:02Z","duration":"PT49M19S","thumbnail":"https://i.ytimg.com/vi/G0bL7KIcM0Y/mqdefault.jpg","viewCount":"2422","playlistId":"PLEkQk5xrP-tmJuzaj4GWRenFoFx9gdbFX","playlistName":"شرح كتاب صحيح الإمام البخاري رضي الله تعالى عنه   أ.د. يسرى جبر","category":"حديث"},{"id":"cpXRgoJCOos","title":"تأمُّلات ونفحات في حديث الشَّفاعة","publishedAt":"2022-07-16T08:05:00Z","duration":"PT41M15S","thumbnail":"https://i.ytimg.com/vi/cpXRgoJCOos/mqdefault.jpg","viewCount":"2701","playlistId":"PLEkQk5xrP-tmJuzaj4GWRenFoFx9gdbFX","playlistName":"شرح كتاب صحيح الإمام البخاري رضي الله تعالى عنه   أ.د. يسرى جبر","category":"حديث"},{"id":"rR_hsUk18Vk","title":"قوله تعالى \"كُلُّ شَيْءٍ هَالِكٌ إِلَّا وَجْهَهُ\" - كتاب التوحيد - شرح صحيح الإمام البخاري","publishedAt":"2022-07-04T05:00:17Z","duration":"PT44M10S","thumbnail":"https://i.ytimg.com/vi/rR_hsUk18Vk/mqdefault.jpg","viewCount":"5376","playlistId":"PLEkQk5xrP-tmJuzaj4GWRenFoFx9gdbFX","playlistName":"شرح كتاب صحيح الإمام البخاري رضي الله تعالى عنه   أ.د. يسرى جبر","category":"حديث"},{"id":"fW_0xDoRH-8","title":"السؤال بأسماء الله تعالى والاستعاذة بها","publishedAt":"2022-06-28T05:00:15Z","duration":"PT49M8S","thumbnail":"https://i.ytimg.com/vi/fW_0xDoRH-8/mqdefault.jpg","viewCount":"5414","playlistId":"PLEkQk5xrP-tmJuzaj4GWRenFoFx9gdbFX","playlistName":"شرح كتاب صحيح الإمام البخاري رضي الله تعالى عنه   أ.د. يسرى جبر","category":"حديث"},{"id":"M6lZ_zWxT5k","title":"قوله تعالى \"وَكَانَ ٱللَّهُ سَمِیعَۢا بَصِيرًا\"","publishedAt":"2022-06-25T05:00:07Z","duration":"PT42M31S","thumbnail":"https://i.ytimg.com/vi/M6lZ_zWxT5k/mqdefault.jpg","viewCount":"2006","playlistId":"PLEkQk5xrP-tmJuzaj4GWRenFoFx9gdbFX","playlistName":"شرح كتاب صحيح الإمام البخاري رضي الله تعالى عنه   أ.د. يسرى جبر","category":"حديث"},{"id":"85U5x-QopCc","title":"\"باب قول الله تعالى\"وَهُوَ الَّذِي خَلَقَ السَّمَاوَاتِ وَالْأَرْضَ بِالْحَقِّ","publishedAt":"2022-06-19T05:00:01Z","duration":"PT51M51S","thumbnail":"https://i.ytimg.com/vi/85U5x-QopCc/mqdefault.jpg","viewCount":"2956","playlistId":"PLEkQk5xrP-tmJuzaj4GWRenFoFx9gdbFX","playlistName":"شرح كتاب صحيح الإمام البخاري رضي الله تعالى عنه   أ.د. يسرى جبر","category":"حديث"},{"id":"QjwKSezIfj4","title":"‎شرح صحيح الإمام البخاري رضي الله تعالى عنه - كتابُ التوحيد.","publishedAt":"2020-02-23T14:58:45Z","duration":"PT48M42S","thumbnail":"https://i.ytimg.com/vi/QjwKSezIfj4/mqdefault.jpg","viewCount":"592","playlistId":"PLEkQk5xrP-tmJuzaj4GWRenFoFx9gdbFX","playlistName":"شرح كتاب صحيح الإمام البخاري رضي الله تعالى عنه   أ.د. يسرى جبر","category":"حديث"},{"id":"4redUdCrriU","title":"‎شرح صحيح الإمام البخاري رضي الله تعالى عنه - كتابُ الاعتصَامِ بالكِتابِ والسُّنَّةِ. أ.د. يسري جبر","publishedAt":"2020-02-13T12:24:26Z","duration":"PT39M6S","thumbnail":"https://i.ytimg.com/vi/4redUdCrriU/mqdefault.jpg","viewCount":"338","playlistId":"PLEkQk5xrP-tmJuzaj4GWRenFoFx9gdbFX","playlistName":"شرح كتاب صحيح الإمام البخاري رضي الله تعالى عنه   أ.د. يسرى جبر","category":"حديث"}],"total":219,"page":1,"pageSize":24,"totalPages":10}