{"items":[{"id":"nYvPp5YnRMc","title":"215- كان رسولُ اللَّه ﷺ يبيتُ اللَّيالي المتتابعة طاويًا وأهلُه لا يجدون عَشاءً - شرح دليل الفالحين","publishedAt":"2022-03-08T19:00:48Z","duration":"PT30M54S","thumbnail":"https://i.ytimg.com/vi/nYvPp5YnRMc/mqdefault.jpg","viewCount":"1797","playlistId":"PLEkQk5xrP-tkc9DXvSLguqX5-FYp6ASR4","playlistName":"دليل الفالحين لطرق رياض الصالحين","category":"متنوع"},{"id":"kW-x03FbiMU","title":"مَنْ نازعك على دُنْيَا، اتركْها له وقلْ سَلَامٌ","publishedAt":"2022-03-09T18:22:08Z","duration":"PT12M8S","thumbnail":"https://i.ytimg.com/vi/kW-x03FbiMU/mqdefault.jpg","viewCount":"15093","playlistId":"PLEkQk5xrP-tm8ZIu74nTOZN9KJUJu416J","playlistName":"مقاطع مُهمَّة (يُسريَّات) أ.د. يسري جبر","category":"متنوع"},{"id":"jnT8vWurdyc","title":"كيف أتخلص من الكسل وفقدان الشغف؟","publishedAt":"2022-03-11T19:48:50Z","duration":"PT8M20S","thumbnail":"https://i.ytimg.com/vi/jnT8vWurdyc/mqdefault.jpg","viewCount":"14332","playlistId":"PLEkQk5xrP-tkGXuZ9atE3k_7it12rUPTs","playlistName":"أسئلة المتابعين","category":"متنوع"},{"id":"l5m5hVx_Ihs","title":"216- ألا تسمعون؟ ألا تسمعون؟ إنَّ البَذَاذَةَ من الإيمان - شرح دليل الفالحين","publishedAt":"2022-03-12T05:29:39Z","duration":"PT52M59S","thumbnail":"https://i.ytimg.com/vi/l5m5hVx_Ihs/mqdefault.jpg","viewCount":"1784","playlistId":"PLEkQk5xrP-tkc9DXvSLguqX5-FYp6ASR4","playlistName":"دليل الفالحين لطرق رياض الصالحين","category":"متنوع"},{"id":"c8RGFwlvfl8","title":"كيف قابلت الدكتور علي جمعة؟","publishedAt":"2022-03-12T19:24:04Z","duration":"PT9M36S","thumbnail":"https://i.ytimg.com/vi/c8RGFwlvfl8/mqdefault.jpg","viewCount":"13845","playlistId":"PLEkQk5xrP-tkGXuZ9atE3k_7it12rUPTs","playlistName":"أسئلة المتابعين","category":"متنوع"},{"id":"XMIB7dao-uk","title":"هل النبي ﷺ يعرف حقيقته الروحانية؟","publishedAt":"2022-03-13T18:08:49Z","duration":"PT10M47S","thumbnail":"https://i.ytimg.com/vi/XMIB7dao-uk/mqdefault.jpg","viewCount":"9962","playlistId":"PLEkQk5xrP-tkGXuZ9atE3k_7it12rUPTs","playlistName":"أسئلة المتابعين","category":"متنوع"},{"id":"7OzeDrxWVdc","title":"تفسير قوله تعالى\"وَرَبُّكَ يَخْلُقُ مَا يَشَاءُ وَيَخْتَار\"","publishedAt":"2022-03-14T18:00:21Z","duration":"PT9M45S","thumbnail":"https://i.ytimg.com/vi/7OzeDrxWVdc/mqdefault.jpg","viewCount":"4035","playlistId":"PLEkQk5xrP-tkSGrPLMt1BEmJ54cGWYgtp","playlistName":"كتابُ بِدَعِ التَفَاسِيرِ - أ.د. يسري جبر","category":"متنوع"},{"id":"nXZCxT-MepQ","title":"217- تَكثيرُ الطَّعامِ ببَرَكَتِه ﷺ | الفرقُ بينَ الكَرامةِ والمُعجزة - شرح دليل الفالحين","publishedAt":"2022-03-15T06:03:32Z","duration":"PT1H11M53S","thumbnail":"https://i.ytimg.com/vi/nXZCxT-MepQ/mqdefault.jpg","viewCount":"2249","playlistId":"PLEkQk5xrP-tkc9DXvSLguqX5-FYp6ASR4","playlistName":"دليل الفالحين لطرق رياض الصالحين","category":"متنوع"},{"id":"_PGpy7-onW4","title":"هل حركات المولوية أثناء الذكر جائزة؟","publishedAt":"2022-03-15T19:03:53Z","duration":"PT12M29S","thumbnail":"https://i.ytimg.com/vi/_PGpy7-onW4/mqdefault.jpg","viewCount":"13373","playlistId":"PLEkQk5xrP-tkGXuZ9atE3k_7it12rUPTs","playlistName":"أسئلة المتابعين","category":"متنوع"},{"id":"rYfW9-b08iM","title":"218- الحِرصُ على إطعامِ الطَّعام | بَرَكَةُ النَّبيّ ﷺ في إطعام القوم حتى شبِعوا - شرح دليل الفالحين","publishedAt":"2022-03-17T07:58:26Z","duration":"PT44M52S","thumbnail":"https://i.ytimg.com/vi/rYfW9-b08iM/mqdefault.jpg","viewCount":"2510","playlistId":"PLEkQk5xrP-tkc9DXvSLguqX5-FYp6ASR4","playlistName":"دليل الفالحين لطرق رياض الصالحين","category":"متنوع"},{"id":"f0B6tDzI8AU","title":"كيف تفهم معنى التفاؤل التشاؤم؟","publishedAt":"2022-03-18T18:00:34Z","duration":"PT14M58S","thumbnail":"https://i.ytimg.com/vi/f0B6tDzI8AU/mqdefault.jpg","viewCount":"4737","playlistId":"PLEkQk5xrP-tm8ZIu74nTOZN9KJUJu416J","playlistName":"مقاطع مُهمَّة (يُسريَّات) أ.د. يسري جبر","category":"متنوع"},{"id":"jXDlHtqHlWM","title":"هل الدعاء يغير القدر؟","publishedAt":"2022-03-19T19:16:37Z","duration":"PT9M10S","thumbnail":"https://i.ytimg.com/vi/jXDlHtqHlWM/mqdefault.jpg","viewCount":"11317","playlistId":"PLEkQk5xrP-tkGXuZ9atE3k_7it12rUPTs","playlistName":"أسئلة المتابعين","category":"متنوع"},{"id":"L0nD824YrEE","title":"كيف تطلب حاجتك من الله؟","publishedAt":"2022-03-21T17:44:15Z","duration":"PT8M4S","thumbnail":"https://i.ytimg.com/vi/L0nD824YrEE/mqdefault.jpg","viewCount":"11995","playlistId":"PLEkQk5xrP-tm8ZIu74nTOZN9KJUJu416J","playlistName":"مقاطع مُهمَّة (يُسريَّات) أ.د. يسري جبر","category":"متنوع"},{"id":"D9t5xlKfS_s","title":"متى حصلت نقطة التحول في حياتك؟","publishedAt":"2022-03-22T18:00:34Z","duration":"PT8M12S","thumbnail":"https://i.ytimg.com/vi/D9t5xlKfS_s/mqdefault.jpg","viewCount":"42374","playlistId":"PLEkQk5xrP-tl6tFiMFGUucCTvLgnWyAfz","playlistName":"حياة الأستاذ الدكتور يسري جبر","category":"متنوع"},{"id":"sqvJcmi5DLI","title":"تفسير قوله تعالى\"يَا بُنَيَّ إِنَّهَا إِن تَكُ مِثْقَالَ حَبَّةٍ مِّنْ خَرْدَل\"","publishedAt":"2022-03-23T18:44:26Z","duration":"PT9M46S","thumbnail":"https://i.ytimg.com/vi/sqvJcmi5DLI/mqdefault.jpg","viewCount":"2211","playlistId":"PLEkQk5xrP-tkSGrPLMt1BEmJ54cGWYgtp","playlistName":"كتابُ بِدَعِ التَفَاسِيرِ - أ.د. يسري جبر","category":"متنوع"},{"id":"tfPf3HH5jiQ","title":"219- لَيسَ الغِنَى عن كَثْرةِ العَرَضِ ولَكِنَّ الغِنَى غِنَى النَّفْسِ - شرح دليل الفالحين","publishedAt":"2022-03-24T07:36:06Z","duration":"PT39M51S","thumbnail":"https://i.ytimg.com/vi/tfPf3HH5jiQ/mqdefault.jpg","viewCount":"3117","playlistId":"PLEkQk5xrP-tkc9DXvSLguqX5-FYp6ASR4","playlistName":"دليل الفالحين لطرق رياض الصالحين","category":"متنوع"},{"id":"awXcOjBhuBM","title":"220- قَدْ أفْلَحَ مَن أَسْلَمَ، ورُزِقَ كَفَافًا، وقَنَّعَهُ اللَّهُ بما آتَاهُ - شرح دليل الفالحين","publishedAt":"2022-03-24T21:54:53Z","duration":"PT35M49S","thumbnail":"https://i.ytimg.com/vi/awXcOjBhuBM/mqdefault.jpg","viewCount":"1537","playlistId":"PLEkQk5xrP-tkc9DXvSLguqX5-FYp6ASR4","playlistName":"دليل الفالحين لطرق رياض الصالحين","category":"متنوع"},{"id":"AT8HX3INHKQ","title":"221- اليَدُ العُلْيَا خَيْرٌ مِنَ اليَدِ السُّفْلَى، وابْدَأْ بمَن تَعُولُ - شرح دليل الفالحين","publishedAt":"2022-03-25T20:44:54Z","duration":"PT37M14S","thumbnail":"https://i.ytimg.com/vi/AT8HX3INHKQ/mqdefault.jpg","viewCount":"1484","playlistId":"PLEkQk5xrP-tkc9DXvSLguqX5-FYp6ASR4","playlistName":"دليل الفالحين لطرق رياض الصالحين","category":"متنوع"},{"id":"4r9QReW8aBY","title":"222- حُكمُ مَا أُخِذَ بسَيفِ الحَيَاء - شرح دليل الفالحين","publishedAt":"2022-03-29T20:57:35Z","duration":"PT1H11M58S","thumbnail":"https://i.ytimg.com/vi/4r9QReW8aBY/mqdefault.jpg","viewCount":"1542","playlistId":"PLEkQk5xrP-tkc9DXvSLguqX5-FYp6ASR4","playlistName":"دليل الفالحين لطرق رياض الصالحين","category":"متنوع"},{"id":"Shjg0phEPIA","title":"223- أهمية حُسنِ المُعامَلَةِ، وحُسنِ الطَّلبِ بعزَّةِ نَفْسٍ في الأُمور كلِّها - شرح دليل الفالحين","publishedAt":"2022-03-30T07:37:45Z","duration":"PT28M52S","thumbnail":"https://i.ytimg.com/vi/Shjg0phEPIA/mqdefault.jpg","viewCount":"1576","playlistId":"PLEkQk5xrP-tkc9DXvSLguqX5-FYp6ASR4","playlistName":"دليل الفالحين لطرق رياض الصالحين","category":"متنوع"},{"id":"XYphWHvHBvs","title":"224- جوازُ الأخْذِ من غير مَسْألةٍ ولا تطلُّع إليه - شرح دليل الفالحين","publishedAt":"2022-03-31T07:00:52Z","duration":"PT50M34S","thumbnail":"https://i.ytimg.com/vi/XYphWHvHBvs/mqdefault.jpg","viewCount":"1201","playlistId":"PLEkQk5xrP-tkc9DXvSLguqX5-FYp6ASR4","playlistName":"دليل الفالحين لطرق رياض الصالحين","category":"متنوع"},{"id":"cmmVjRBuGsU","title":"كيف تستقبل رمضان بقلب سليم؟","publishedAt":"2022-03-31T19:54:58Z","duration":"PT16M58S","thumbnail":"https://i.ytimg.com/vi/cmmVjRBuGsU/mqdefault.jpg","viewCount":"6535","playlistId":"PLEkQk5xrP-tm8ZIu74nTOZN9KJUJu416J","playlistName":"مقاطع مُهمَّة (يُسريَّات) أ.د. يسري جبر","category":"متنوع"},{"id":"m9tWJoVXv7I","title":"225- الكَرَم والجُود والإنفاق في وجُوهِ الخيرِ ثقة بالله تعالى - شرح دليل الفالحين","publishedAt":"2022-04-01T05:52:38Z","duration":"PT28M11S","thumbnail":"https://i.ytimg.com/vi/m9tWJoVXv7I/mqdefault.jpg","viewCount":"1307","playlistId":"PLEkQk5xrP-tkc9DXvSLguqX5-FYp6ASR4","playlistName":"دليل الفالحين لطرق رياض الصالحين","category":"متنوع"},{"id":"5ElBDTlku-Y","title":"226- ما من يومٍ يُصبحُ العبادُ فيه إلا وملَكانِ ينزلانِ ، فيقولُ أحدُهما…\" - شرح دليل الفالحين","publishedAt":"2022-04-02T05:17:01Z","duration":"PT31M28S","thumbnail":"https://i.ytimg.com/vi/5ElBDTlku-Y/mqdefault.jpg","viewCount":"1552","playlistId":"PLEkQk5xrP-tkc9DXvSLguqX5-FYp6ASR4","playlistName":"دليل الفالحين لطرق رياض الصالحين","category":"متنوع"}],"total":4129,"page":118,"pageSize":24,"totalPages":173}