{"items":[{"id":"312ztm9HUV0","title":"مقرأة سورة الشورى من آية ٢٣","publishedAt":"2018-12-02T09:20:55Z","duration":"PT15M18S","thumbnail":"https://i.ytimg.com/vi/312ztm9HUV0/mqdefault.jpg","viewCount":"273","playlistId":"PLEkQk5xrP-tnmTYsyW6xNdyfhPq0Bhrhj","playlistName":"مقرأة الفجر - القُرْآنُ الكَرِيمُ - خَتْمَةُ التَّدَبُّرِ  أ.د. يسري جبر","category":"متنوع"},{"id":"2qdWr4sl9d8","title":"مقرأة سورة الشورى من آية ٢٧","publishedAt":"2018-12-03T09:34:33Z","duration":"PT21M11S","thumbnail":"https://i.ytimg.com/vi/2qdWr4sl9d8/mqdefault.jpg","viewCount":"537","playlistId":"PLEkQk5xrP-tnmTYsyW6xNdyfhPq0Bhrhj","playlistName":"مقرأة الفجر - القُرْآنُ الكَرِيمُ - خَتْمَةُ التَّدَبُّرِ  أ.د. يسري جبر","category":"متنوع"},{"id":"9ZUChKd-dLA","title":"مقرأة سورة الشورى من آية ٣٠","publishedAt":"2018-12-04T11:39:05Z","duration":"PT13M32S","thumbnail":"https://i.ytimg.com/vi/9ZUChKd-dLA/mqdefault.jpg","viewCount":"301","playlistId":"PLEkQk5xrP-tnmTYsyW6xNdyfhPq0Bhrhj","playlistName":"مقرأة الفجر - القُرْآنُ الكَرِيمُ - خَتْمَةُ التَّدَبُّرِ  أ.د. يسري جبر","category":"متنوع"},{"id":"aUszkX_EqCU","title":"مقرأة سورة الشورى من آية ٣٦","publishedAt":"2018-12-05T11:43:24Z","duration":"PT28M8S","thumbnail":"https://i.ytimg.com/vi/aUszkX_EqCU/mqdefault.jpg","viewCount":"274","playlistId":"PLEkQk5xrP-tnmTYsyW6xNdyfhPq0Bhrhj","playlistName":"مقرأة الفجر - القُرْآنُ الكَرِيمُ - خَتْمَةُ التَّدَبُّرِ  أ.د. يسري جبر","category":"متنوع"},{"id":"tVyDwEEFC-0","title":"مقرأة سورة الشورى من آية ٣٩","publishedAt":"2018-12-06T11:12:16Z","duration":"PT16M51S","thumbnail":"https://i.ytimg.com/vi/tVyDwEEFC-0/mqdefault.jpg","viewCount":"315","playlistId":"PLEkQk5xrP-tnmTYsyW6xNdyfhPq0Bhrhj","playlistName":"مقرأة الفجر - القُرْآنُ الكَرِيمُ - خَتْمَةُ التَّدَبُّرِ  أ.د. يسري جبر","category":"متنوع"},{"id":"jUj0EXLPezE","title":"مقرأة سورة الشورى من آية ٤٤","publishedAt":"2018-12-08T12:44:26Z","duration":"PT19M9S","thumbnail":"https://i.ytimg.com/vi/jUj0EXLPezE/mqdefault.jpg","viewCount":"310","playlistId":"PLEkQk5xrP-tnmTYsyW6xNdyfhPq0Bhrhj","playlistName":"مقرأة الفجر - القُرْآنُ الكَرِيمُ - خَتْمَةُ التَّدَبُّرِ  أ.د. يسري جبر","category":"متنوع"},{"id":"UpdDA1UDI1Q","title":"مقرأة سورة الشورى من آية ٤٩","publishedAt":"2018-12-09T11:51:07Z","duration":"PT18M42S","thumbnail":"https://i.ytimg.com/vi/UpdDA1UDI1Q/mqdefault.jpg","viewCount":"331","playlistId":"PLEkQk5xrP-tnmTYsyW6xNdyfhPq0Bhrhj","playlistName":"مقرأة الفجر - القُرْآنُ الكَرِيمُ - خَتْمَةُ التَّدَبُّرِ  أ.د. يسري جبر","category":"متنوع"},{"id":"wRX_QHUQIGs","title":"مقرأة سورة الزخرف من أولها","publishedAt":"2018-12-10T13:15:12Z","duration":"PT31M37S","thumbnail":"https://i.ytimg.com/vi/wRX_QHUQIGs/mqdefault.jpg","viewCount":"359","playlistId":"PLEkQk5xrP-tnmTYsyW6xNdyfhPq0Bhrhj","playlistName":"مقرأة الفجر - القُرْآنُ الكَرِيمُ - خَتْمَةُ التَّدَبُّرِ  أ.د. يسري جبر","category":"متنوع"},{"id":"4eGboMvrqIc","title":"مقرأة سورة الزخرف من آية ٦","publishedAt":"2018-12-11T09:36:23Z","duration":"PT20M28S","thumbnail":"https://i.ytimg.com/vi/4eGboMvrqIc/mqdefault.jpg","viewCount":"365","playlistId":"PLEkQk5xrP-tnmTYsyW6xNdyfhPq0Bhrhj","playlistName":"مقرأة الفجر - القُرْآنُ الكَرِيمُ - خَتْمَةُ التَّدَبُّرِ  أ.د. يسري جبر","category":"متنوع"},{"id":"7HLRwtHfvvc","title":"مقرأة سورة الزخرف من آية ١٥","publishedAt":"2018-12-13T18:42:44Z","duration":"PT30M8S","thumbnail":"https://i.ytimg.com/vi/7HLRwtHfvvc/mqdefault.jpg","viewCount":"393","playlistId":"PLEkQk5xrP-tnmTYsyW6xNdyfhPq0Bhrhj","playlistName":"مقرأة الفجر - القُرْآنُ الكَرِيمُ - خَتْمَةُ التَّدَبُّرِ  أ.د. يسري جبر","category":"متنوع"},{"id":"9mznw-aeQkw","title":"مقرأة سورة الزخرف من آية ٢٦","publishedAt":"2018-12-14T07:35:02Z","duration":"PT25M33S","thumbnail":"https://i.ytimg.com/vi/9mznw-aeQkw/mqdefault.jpg","viewCount":"285","playlistId":"PLEkQk5xrP-tnmTYsyW6xNdyfhPq0Bhrhj","playlistName":"مقرأة الفجر - القُرْآنُ الكَرِيمُ - خَتْمَةُ التَّدَبُّرِ  أ.د. يسري جبر","category":"متنوع"},{"id":"x8V0Nzd3LS8","title":"مقرأة سورة الزخرف من آية ٣٣","publishedAt":"2018-12-15T09:45:33Z","duration":"PT20M48S","thumbnail":"https://i.ytimg.com/vi/x8V0Nzd3LS8/mqdefault.jpg","viewCount":"318","playlistId":"PLEkQk5xrP-tnmTYsyW6xNdyfhPq0Bhrhj","playlistName":"مقرأة الفجر - القُرْآنُ الكَرِيمُ - خَتْمَةُ التَّدَبُّرِ  أ.د. يسري جبر","category":"متنوع"},{"id":"f0LxsT8kCzc","title":"مقرأة سورة الزخرف من آية ٤٠","publishedAt":"2018-12-16T11:09:15Z","duration":"PT9M38S","thumbnail":"https://i.ytimg.com/vi/f0LxsT8kCzc/mqdefault.jpg","viewCount":"248","playlistId":"PLEkQk5xrP-tnmTYsyW6xNdyfhPq0Bhrhj","playlistName":"مقرأة الفجر - القُرْآنُ الكَرِيمُ - خَتْمَةُ التَّدَبُّرِ  أ.د. يسري جبر","category":"متنوع"},{"id":"92OVqgL0H8M","title":"مقرأة سورة الزخرف من آية ٤٦","publishedAt":"2018-12-17T12:16:02Z","duration":"PT28M35S","thumbnail":"https://i.ytimg.com/vi/92OVqgL0H8M/mqdefault.jpg","viewCount":"381","playlistId":"PLEkQk5xrP-tnmTYsyW6xNdyfhPq0Bhrhj","playlistName":"مقرأة الفجر - القُرْآنُ الكَرِيمُ - خَتْمَةُ التَّدَبُّرِ  أ.د. يسري جبر","category":"متنوع"},{"id":"nLnWgQ_PlKE","title":"مقرأة سورة الزخرف من آية ٥٦","publishedAt":"2018-12-18T12:09:07Z","duration":"PT17M18S","thumbnail":"https://i.ytimg.com/vi/nLnWgQ_PlKE/mqdefault.jpg","viewCount":"322","playlistId":"PLEkQk5xrP-tnmTYsyW6xNdyfhPq0Bhrhj","playlistName":"مقرأة الفجر - القُرْآنُ الكَرِيمُ - خَتْمَةُ التَّدَبُّرِ  أ.د. يسري جبر","category":"متنوع"},{"id":"j5Ub4GZqFII","title":"مقرأة سورة الزخرف من آية ٦٣","publishedAt":"2018-12-19T10:37:45Z","duration":"PT18M45S","thumbnail":"https://i.ytimg.com/vi/j5Ub4GZqFII/mqdefault.jpg","viewCount":"327","playlistId":"PLEkQk5xrP-tnmTYsyW6xNdyfhPq0Bhrhj","playlistName":"مقرأة الفجر - القُرْآنُ الكَرِيمُ - خَتْمَةُ التَّدَبُّرِ  أ.د. يسري جبر","category":"متنوع"},{"id":"-5T7SM8aUFk","title":"مقرأة سورة الزخرف من آية ٦٩","publishedAt":"2018-12-20T12:48:14Z","duration":"PT17M59S","thumbnail":"https://i.ytimg.com/vi/-5T7SM8aUFk/mqdefault.jpg","viewCount":"267","playlistId":"PLEkQk5xrP-tnmTYsyW6xNdyfhPq0Bhrhj","playlistName":"مقرأة الفجر - القُرْآنُ الكَرِيمُ - خَتْمَةُ التَّدَبُّرِ  أ.د. يسري جبر","category":"متنوع"},{"id":"6d-H1eF6QhE","title":"مقرأة سورة الزخرف من آية ٧٩","publishedAt":"2018-12-21T08:10:04Z","duration":"PT24M2S","thumbnail":"https://i.ytimg.com/vi/6d-H1eF6QhE/mqdefault.jpg","viewCount":"362","playlistId":"PLEkQk5xrP-tnmTYsyW6xNdyfhPq0Bhrhj","playlistName":"مقرأة الفجر - القُرْآنُ الكَرِيمُ - خَتْمَةُ التَّدَبُّرِ  أ.د. يسري جبر","category":"متنوع"},{"id":"E9yIHhUFWNM","title":"مقرأة سورة الدخان من أولها","publishedAt":"2018-12-22T09:54:01Z","duration":"PT33M47S","thumbnail":"https://i.ytimg.com/vi/E9yIHhUFWNM/mqdefault.jpg","viewCount":"1009","playlistId":"PLEkQk5xrP-tnmTYsyW6xNdyfhPq0Bhrhj","playlistName":"مقرأة الفجر - القُرْآنُ الكَرِيمُ - خَتْمَةُ التَّدَبُّرِ  أ.د. يسري جبر","category":"متنوع"},{"id":"1w45NDXJO4g","title":"مقرأة سورة الدخان من آية ١٧","publishedAt":"2018-12-23T11:55:33Z","duration":"PT17M29S","thumbnail":"https://i.ytimg.com/vi/1w45NDXJO4g/mqdefault.jpg","viewCount":"407","playlistId":"PLEkQk5xrP-tnmTYsyW6xNdyfhPq0Bhrhj","playlistName":"مقرأة الفجر - القُرْآنُ الكَرِيمُ - خَتْمَةُ التَّدَبُّرِ  أ.د. يسري جبر","category":"متنوع"},{"id":"bTQ-XyeRY44","title":"مقرأة سورة الدخان من آية ٢٨","publishedAt":"2018-12-24T10:12:49Z","duration":"PT9M19S","thumbnail":"https://i.ytimg.com/vi/bTQ-XyeRY44/mqdefault.jpg","viewCount":"360","playlistId":"PLEkQk5xrP-tnmTYsyW6xNdyfhPq0Bhrhj","playlistName":"مقرأة الفجر - القُرْآنُ الكَرِيمُ - خَتْمَةُ التَّدَبُّرِ  أ.د. يسري جبر","category":"متنوع"},{"id":"6K-LYgKtGDk","title":"مقرأة سورة الدخان من آية ٣٧","publishedAt":"2018-12-25T12:40:23Z","duration":"PT22M","thumbnail":"https://i.ytimg.com/vi/6K-LYgKtGDk/mqdefault.jpg","viewCount":"780","playlistId":"PLEkQk5xrP-tnmTYsyW6xNdyfhPq0Bhrhj","playlistName":"مقرأة الفجر - القُرْآنُ الكَرِيمُ - خَتْمَةُ التَّدَبُّرِ  أ.د. يسري جبر","category":"متنوع"},{"id":"l8nh1QyxV2c","title":"مقرأة سورة الدخان من آية ٥١","publishedAt":"2018-12-26T12:12:45Z","duration":"PT14M5S","thumbnail":"https://i.ytimg.com/vi/l8nh1QyxV2c/mqdefault.jpg","viewCount":"304","playlistId":"PLEkQk5xrP-tnmTYsyW6xNdyfhPq0Bhrhj","playlistName":"مقرأة الفجر - القُرْآنُ الكَرِيمُ - خَتْمَةُ التَّدَبُّرِ  أ.د. يسري جبر","category":"متنوع"},{"id":"_owxWqgFhSQ","title":"مقرأة سورة الجاثية من أولها","publishedAt":"2018-12-27T12:48:01Z","duration":"PT16M21S","thumbnail":"https://i.ytimg.com/vi/_owxWqgFhSQ/mqdefault.jpg","viewCount":"1122","playlistId":"PLEkQk5xrP-tnmTYsyW6xNdyfhPq0Bhrhj","playlistName":"مقرأة الفجر - القُرْآنُ الكَرِيمُ - خَتْمَةُ التَّدَبُّرِ  أ.د. يسري جبر","category":"متنوع"}],"total":4129,"page":67,"pageSize":24,"totalPages":173}