{"items":[{"id":"l9Oj6eKVzSo","title":"مقرأة سورة الفتح من آية ١١","publishedAt":"2019-01-19T15:29:52Z","duration":"PT18M48S","thumbnail":"https://i.ytimg.com/vi/l9Oj6eKVzSo/mqdefault.jpg","viewCount":"405","playlistId":"PLEkQk5xrP-tnmTYsyW6xNdyfhPq0Bhrhj","playlistName":"مقرأة الفجر - القُرْآنُ الكَرِيمُ - خَتْمَةُ التَّدَبُّرِ  أ.د. يسري جبر","category":"متنوع"},{"id":"s7SmBZ45pJg","title":"مقرأة سورة الفتح من آية ١٥","publishedAt":"2019-01-20T12:01:26Z","duration":"PT9M31S","thumbnail":"https://i.ytimg.com/vi/s7SmBZ45pJg/mqdefault.jpg","viewCount":"360","playlistId":"PLEkQk5xrP-tnmTYsyW6xNdyfhPq0Bhrhj","playlistName":"مقرأة الفجر - القُرْآنُ الكَرِيمُ - خَتْمَةُ التَّدَبُّرِ  أ.د. يسري جبر","category":"متنوع"},{"id":"Cal-8hu-oGg","title":"مقرأة سورة الفتح من آية ١٨","publishedAt":"2019-01-21T16:15:34Z","duration":"PT14M25S","thumbnail":"https://i.ytimg.com/vi/Cal-8hu-oGg/mqdefault.jpg","viewCount":"374","playlistId":"PLEkQk5xrP-tnmTYsyW6xNdyfhPq0Bhrhj","playlistName":"مقرأة الفجر - القُرْآنُ الكَرِيمُ - خَتْمَةُ التَّدَبُّرِ  أ.د. يسري جبر","category":"متنوع"},{"id":"t3MnyijjKDE","title":"مقرأة سورة الفتح من آية ٢٢","publishedAt":"2019-01-22T10:27:57Z","duration":"PT14M40S","thumbnail":"https://i.ytimg.com/vi/t3MnyijjKDE/mqdefault.jpg","viewCount":"412","playlistId":"PLEkQk5xrP-tnmTYsyW6xNdyfhPq0Bhrhj","playlistName":"مقرأة الفجر - القُرْآنُ الكَرِيمُ - خَتْمَةُ التَّدَبُّرِ  أ.د. يسري جبر","category":"متنوع"},{"id":"wSiKKza_smE","title":"مقرأة سورة الفتح من آية ٢٧","publishedAt":"2019-01-23T20:59:00Z","duration":"PT16M25S","thumbnail":"https://i.ytimg.com/vi/wSiKKza_smE/mqdefault.jpg","viewCount":"414","playlistId":"PLEkQk5xrP-tnmTYsyW6xNdyfhPq0Bhrhj","playlistName":"مقرأة الفجر - القُرْآنُ الكَرِيمُ - خَتْمَةُ التَّدَبُّرِ  أ.د. يسري جبر","category":"متنوع"},{"id":"BtF-RJicc28","title":"كلمة أ.د. يسري جبر في مولد مولانا الإمام الحسين رضي الله عنه وعليه السلام.","publishedAt":"2019-01-24T17:38:12Z","duration":"PT43M","thumbnail":"https://i.ytimg.com/vi/BtF-RJicc28/mqdefault.jpg","viewCount":"1696","playlistId":"PLEkQk5xrP-tm8ZIu74nTOZN9KJUJu416J","playlistName":"مقاطع مُهمَّة (يُسريَّات) أ.د. يسري جبر","category":"متنوع"},{"id":"LD4jCfFWUWs","title":"قرأة سورة الحجرات من أولها","publishedAt":"2019-01-24T20:36:59Z","duration":"PT12M49S","thumbnail":"https://i.ytimg.com/vi/LD4jCfFWUWs/mqdefault.jpg","viewCount":"494","playlistId":"PLEkQk5xrP-tnmTYsyW6xNdyfhPq0Bhrhj","playlistName":"مقرأة الفجر - القُرْآنُ الكَرِيمُ - خَتْمَةُ التَّدَبُّرِ  أ.د. يسري جبر","category":"متنوع"},{"id":"IkVszKGW9As","title":"مقرأة سورة الحجرات من آية ٣","publishedAt":"2019-01-25T21:36:41Z","duration":"PT16M40S","thumbnail":"https://i.ytimg.com/vi/IkVszKGW9As/mqdefault.jpg","viewCount":"457","playlistId":"PLEkQk5xrP-tnmTYsyW6xNdyfhPq0Bhrhj","playlistName":"مقرأة الفجر - القُرْآنُ الكَرِيمُ - خَتْمَةُ التَّدَبُّرِ  أ.د. يسري جبر","category":"متنوع"},{"id":"EluNH_Wu-8o","title":"مقرأة سورة الحجرات من آية ٩","publishedAt":"2019-01-26T20:49:51Z","duration":"PT9M38S","thumbnail":"https://i.ytimg.com/vi/EluNH_Wu-8o/mqdefault.jpg","viewCount":"391","playlistId":"PLEkQk5xrP-tnmTYsyW6xNdyfhPq0Bhrhj","playlistName":"مقرأة الفجر - القُرْآنُ الكَرِيمُ - خَتْمَةُ التَّدَبُّرِ  أ.د. يسري جبر","category":"متنوع"},{"id":"CkSrOYu1eQA","title":"مقرأة سورة الحجرات من آية ١١","publishedAt":"2019-01-27T22:15:58Z","duration":"PT25M21S","thumbnail":"https://i.ytimg.com/vi/CkSrOYu1eQA/mqdefault.jpg","viewCount":"469","playlistId":"PLEkQk5xrP-tnmTYsyW6xNdyfhPq0Bhrhj","playlistName":"مقرأة الفجر - القُرْآنُ الكَرِيمُ - خَتْمَةُ التَّدَبُّرِ  أ.د. يسري جبر","category":"متنوع"},{"id":"-oK1LdYvAKQ","title":"مقرأة سورة الحجرات من آية ١٣","publishedAt":"2019-01-28T23:12:30Z","duration":"PT21M59S","thumbnail":"https://i.ytimg.com/vi/-oK1LdYvAKQ/mqdefault.jpg","viewCount":"560","playlistId":"PLEkQk5xrP-tnmTYsyW6xNdyfhPq0Bhrhj","playlistName":"مقرأة الفجر - القُرْآنُ الكَرِيمُ - خَتْمَةُ التَّدَبُّرِ  أ.د. يسري جبر","category":"متنوع"},{"id":"0X999sBycdg","title":"مقرأة سورة ق من أولها","publishedAt":"2019-01-30T12:02:28Z","duration":"PT15M6S","thumbnail":"https://i.ytimg.com/vi/0X999sBycdg/mqdefault.jpg","viewCount":"585","playlistId":"PLEkQk5xrP-tnmTYsyW6xNdyfhPq0Bhrhj","playlistName":"مقرأة الفجر - القُرْآنُ الكَرِيمُ - خَتْمَةُ التَّدَبُّرِ  أ.د. يسري جبر","category":"متنوع"},{"id":"ZjD3NuRycZE","title":"مقرأة سورة ق من آية ١٢","publishedAt":"2019-01-31T11:08:32Z","duration":"PT12M8S","thumbnail":"https://i.ytimg.com/vi/ZjD3NuRycZE/mqdefault.jpg","viewCount":"580","playlistId":"PLEkQk5xrP-tnmTYsyW6xNdyfhPq0Bhrhj","playlistName":"مقرأة الفجر - القُرْآنُ الكَرِيمُ - خَتْمَةُ التَّدَبُّرِ  أ.د. يسري جبر","category":"متنوع"},{"id":"JsDsOFRmeLQ","title":"مقرأة سورة ق من آية ٢٧","publishedAt":"2019-02-01T16:29:00Z","duration":"PT13M46S","thumbnail":"https://i.ytimg.com/vi/JsDsOFRmeLQ/mqdefault.jpg","viewCount":"385","playlistId":"PLEkQk5xrP-tnmTYsyW6xNdyfhPq0Bhrhj","playlistName":"مقرأة الفجر - القُرْآنُ الكَرِيمُ - خَتْمَةُ التَّدَبُّرِ  أ.د. يسري جبر","category":"متنوع"},{"id":"sr11rBEIrrQ","title":"مقرأة سورة ق من آية ٣٨","publishedAt":"2019-02-02T14:33:45Z","duration":"PT12M51S","thumbnail":"https://i.ytimg.com/vi/sr11rBEIrrQ/mqdefault.jpg","viewCount":"256","playlistId":"PLEkQk5xrP-tnmTYsyW6xNdyfhPq0Bhrhj","playlistName":"مقرأة الفجر - القُرْآنُ الكَرِيمُ - خَتْمَةُ التَّدَبُّرِ  أ.د. يسري جبر","category":"متنوع"},{"id":"lD42HbToNwY","title":"مقرأة سورة الذاريات من أولها","publishedAt":"2019-02-03T12:27:53Z","duration":"PT14M58S","thumbnail":"https://i.ytimg.com/vi/lD42HbToNwY/mqdefault.jpg","viewCount":"574","playlistId":"PLEkQk5xrP-tnmTYsyW6xNdyfhPq0Bhrhj","playlistName":"مقرأة الفجر - القُرْآنُ الكَرِيمُ - خَتْمَةُ التَّدَبُّرِ  أ.د. يسري جبر","category":"متنوع"},{"id":"CEEvX9I312Q","title":"مقرأة سورة الذاريات من آية ١٥","publishedAt":"2019-02-04T11:21:08Z","duration":"PT10M35S","thumbnail":"https://i.ytimg.com/vi/CEEvX9I312Q/mqdefault.jpg","viewCount":"456","playlistId":"PLEkQk5xrP-tnmTYsyW6xNdyfhPq0Bhrhj","playlistName":"مقرأة الفجر - القُرْآنُ الكَرِيمُ - خَتْمَةُ التَّدَبُّرِ  أ.د. يسري جبر","category":"متنوع"},{"id":"qEqNXJ_iSBM","title":"مقرأة سورة الذاريات من آية ٢٤","publishedAt":"2019-02-05T11:20:42Z","duration":"PT21M47S","thumbnail":"https://i.ytimg.com/vi/qEqNXJ_iSBM/mqdefault.jpg","viewCount":"442","playlistId":"PLEkQk5xrP-tnmTYsyW6xNdyfhPq0Bhrhj","playlistName":"مقرأة الفجر - القُرْآنُ الكَرِيمُ - خَتْمَةُ التَّدَبُّرِ  أ.د. يسري جبر","category":"متنوع"},{"id":"b_N96Tzhcl8","title":"سورة الذاريات من آية ٣٨","publishedAt":"2019-02-06T13:17:39Z","duration":"PT19M11S","thumbnail":"https://i.ytimg.com/vi/b_N96Tzhcl8/mqdefault.jpg","viewCount":"512","playlistId":"PLEkQk5xrP-tnmTYsyW6xNdyfhPq0Bhrhj","playlistName":"مقرأة الفجر - القُرْآنُ الكَرِيمُ - خَتْمَةُ التَّدَبُّرِ  أ.د. يسري جبر","category":"متنوع"},{"id":"KVg1O8kM6ds","title":"مقرأة سورة الذاريات من آية ٤٧","publishedAt":"2019-02-07T10:34:49Z","duration":"PT16M12S","thumbnail":"https://i.ytimg.com/vi/KVg1O8kM6ds/mqdefault.jpg","viewCount":"1203","playlistId":"PLEkQk5xrP-tnmTYsyW6xNdyfhPq0Bhrhj","playlistName":"مقرأة الفجر - القُرْآنُ الكَرِيمُ - خَتْمَةُ التَّدَبُّرِ  أ.د. يسري جبر","category":"متنوع"},{"id":"kVT5DgQ_g0o","title":"مقرأة سورة الطورمن أولها","publishedAt":"2019-02-08T21:35:09Z","duration":"PT13M51S","thumbnail":"https://i.ytimg.com/vi/kVT5DgQ_g0o/mqdefault.jpg","viewCount":"422","playlistId":"PLEkQk5xrP-tnmTYsyW6xNdyfhPq0Bhrhj","playlistName":"مقرأة الفجر - القُرْآنُ الكَرِيمُ - خَتْمَةُ التَّدَبُّرِ  أ.د. يسري جبر","category":"متنوع"},{"id":"b8GJ0kD132w","title":"مقرأة سورة الطور من آية ١٧","publishedAt":"2019-02-10T14:26:55Z","duration":"PT18M16S","thumbnail":"https://i.ytimg.com/vi/b8GJ0kD132w/mqdefault.jpg","viewCount":"413","playlistId":"PLEkQk5xrP-tnmTYsyW6xNdyfhPq0Bhrhj","playlistName":"مقرأة الفجر - القُرْآنُ الكَرِيمُ - خَتْمَةُ التَّدَبُّرِ  أ.د. يسري جبر","category":"متنوع"},{"id":"0Bgem5C-nTs","title":"مقرأة سورة الطور من آية 25","publishedAt":"2019-02-11T09:17:34Z","duration":"PT25M37S","thumbnail":"https://i.ytimg.com/vi/0Bgem5C-nTs/mqdefault.jpg","viewCount":"641","playlistId":"PLEkQk5xrP-tnmTYsyW6xNdyfhPq0Bhrhj","playlistName":"مقرأة الفجر - القُرْآنُ الكَرِيمُ - خَتْمَةُ التَّدَبُّرِ  أ.د. يسري جبر","category":"متنوع"},{"id":"QHxA--ukckU","title":"شرح كتاب دلائل الخيرات - المجلس الأول | أ.د. يسري جبر","publishedAt":"2019-02-11T18:47:07Z","duration":"PT52M15S","thumbnail":"https://i.ytimg.com/vi/QHxA--ukckU/mqdefault.jpg","viewCount":"418789","playlistId":"PLEkQk5xrP-tlAzcbIpuqjdFICW-knvTlR","playlistName":"شرح كتاب دلائل الخيرات وشوارق الأنوار","category":"متنوع"}],"total":4129,"page":69,"pageSize":24,"totalPages":173}