{"items":[{"id":"ySU6WYBdxpA","title":"كن بأوصاف ربوبيته متعلقا وبأوصاف عبوديتك متحققا","publishedAt":"2016-10-16T17:54:18Z","duration":"PT18M28S","thumbnail":"https://i.ytimg.com/vi/ySU6WYBdxpA/mqdefault.jpg","viewCount":"3818","playlistId":"PLEkQk5xrP-tkI_meE148wc7V7XHlB0WPb","playlistName":"من الحكم العطائية  د. يسري جبر","category":"متنوع"},{"id":"RC64W9LvysY","title":"كيف تُخرق لك العوائد وأنت لم تخرق من نفسك العوائد","publishedAt":"2016-10-17T17:55:47Z","duration":"PT12M37S","thumbnail":"https://i.ytimg.com/vi/RC64W9LvysY/mqdefault.jpg","viewCount":"15378","playlistId":"PLEkQk5xrP-tkI_meE148wc7V7XHlB0WPb","playlistName":"من الحكم العطائية  د. يسري جبر","category":"متنوع"},{"id":"t2pYiELIY8U","title":"لو أنك لا تصل إليه إلا بعد فناء مساويك ، ومحو دعاويك ، لم تصل إليه أبدا.","publishedAt":"2016-10-18T19:30:13Z","duration":"PT6M23S","thumbnail":"https://i.ytimg.com/vi/t2pYiELIY8U/mqdefault.jpg","viewCount":"3554","playlistId":"PLEkQk5xrP-tkI_meE148wc7V7XHlB0WPb","playlistName":"من الحكم العطائية  د. يسري جبر","category":"متنوع"},{"id":"KFU0kQzKB2k","title":"لولا جميلُ ستره ، لم يكن عملٌ أهلا للقبول","publishedAt":"2016-10-20T18:05:14Z","duration":"PT12M39S","thumbnail":"https://i.ytimg.com/vi/KFU0kQzKB2k/mqdefault.jpg","viewCount":"1704","playlistId":"PLEkQk5xrP-tkI_meE148wc7V7XHlB0WPb","playlistName":"من الحكم العطائية  د. يسري جبر","category":"متنوع"},{"id":"NstftfJUVR8","title":"الستر على قسمين : ستر عن المعصية ، وستر فيها","publishedAt":"2016-10-21T19:12:53Z","duration":"PT4M13S","thumbnail":"https://i.ytimg.com/vi/NstftfJUVR8/mqdefault.jpg","viewCount":"1886","playlistId":"PLEkQk5xrP-tkI_meE148wc7V7XHlB0WPb","playlistName":"من الحكم العطائية  د. يسري جبر","category":"متنوع"},{"id":"DSzTYgrkalE","title":"من أكرمك فإنما أكرم فيك جميل ستره","publishedAt":"2016-10-21T19:16:23Z","duration":"PT4M18S","thumbnail":"https://i.ytimg.com/vi/DSzTYgrkalE/mqdefault.jpg","viewCount":"908","playlistId":"PLEkQk5xrP-tkI_meE148wc7V7XHlB0WPb","playlistName":"من الحكم العطائية  د. يسري جبر","category":"متنوع"},{"id":"HnjAwh2VDNo","title":"30- التَّكْبِيرِ عَلَى الْجَنَائِزِ كتاب الْجَنَائِزِ ك الموطأ د يسري جبر الأزهري","publishedAt":"2016-10-21T23:44:21Z","duration":"PT1H17M32S","thumbnail":"https://i.ytimg.com/vi/HnjAwh2VDNo/mqdefault.jpg","viewCount":"405","playlistId":"PLEkQk5xrP-tnC6BRuqMjyO-484iqXeg0o","playlistName":"شرح كتاب الموطأ للإمام مالك","category":"متنوع"},{"id":"SWgcVxRcKc8","title":"ما صحبك إلا من صحبك وهو بعيبك عليم ، وليس ذلك إلا مولاك الكريم","publishedAt":"2016-10-23T04:29:21Z","duration":"PT7M17S","thumbnail":"https://i.ytimg.com/vi/SWgcVxRcKc8/mqdefault.jpg","viewCount":"1455","playlistId":"PLEkQk5xrP-tkI_meE148wc7V7XHlB0WPb","playlistName":"من الحكم العطائية  د. يسري جبر","category":"متنوع"},{"id":"ZSDyJKZxg3U","title":"لو أشرق لك نور اليقين ، لرأيت الآخرة أقرب إليك من أن ترحل إليها","publishedAt":"2016-10-23T21:02:52Z","duration":"PT14M11S","thumbnail":"https://i.ytimg.com/vi/ZSDyJKZxg3U/mqdefault.jpg","viewCount":"20148","playlistId":"PLEkQk5xrP-tkI_meE148wc7V7XHlB0WPb","playlistName":"من الحكم العطائية  د. يسري جبر","category":"متنوع"},{"id":"Aiz-CnAREB8","title":"31- مَا تَجِبُ فِيهِ الزَّكَاةُ كتاب الزكاة ك الموطأ د يسري جبر الأزهري","publishedAt":"2016-10-26T10:57:12Z","duration":"PT1H12M20S","thumbnail":"https://i.ytimg.com/vi/Aiz-CnAREB8/mqdefault.jpg","viewCount":"513","playlistId":"PLEkQk5xrP-tnC6BRuqMjyO-484iqXeg0o","playlistName":"شرح كتاب الموطأ للإمام مالك","category":"متنوع"},{"id":"qax-pwEppCk","title":"قراءة وتفسير سورة المائدة آية 6","publishedAt":"2016-10-27T03:55:02Z","duration":"PT33M58S","thumbnail":"https://i.ytimg.com/vi/qax-pwEppCk/mqdefault.jpg","viewCount":"631","playlistId":"PLEkQk5xrP-tnmTYsyW6xNdyfhPq0Bhrhj","playlistName":"مقرأة الفجر - القُرْآنُ الكَرِيمُ - خَتْمَةُ التَّدَبُّرِ  أ.د. يسري جبر","category":"متنوع"},{"id":"shRoteu8ih4","title":"أنت حُرٌ مما أنت عنه آيسٌ، وعبدٌ لما أنت له طامع","publishedAt":"2016-10-27T17:58:04Z","duration":"PT9M16S","thumbnail":"https://i.ytimg.com/vi/shRoteu8ih4/mqdefault.jpg","viewCount":"11112","playlistId":"PLEkQk5xrP-tkI_meE148wc7V7XHlB0WPb","playlistName":"من الحكم العطائية  د. يسري جبر","category":"متنوع"},{"id":"rZA-cqpR3UM","title":"منْ لم يشْكر النِعَم ، فقد تعرَّضَ لزوالها ، ومنْ شَكَرَها فقد قيَّدها بعِقَالِها.","publishedAt":"2016-10-27T20:17:56Z","duration":"PT14M47S","thumbnail":"https://i.ytimg.com/vi/rZA-cqpR3UM/mqdefault.jpg","viewCount":"4776","playlistId":"PLEkQk5xrP-tkI_meE148wc7V7XHlB0WPb","playlistName":"من الحكم العطائية  د. يسري جبر","category":"متنوع"},{"id":"7yFAVlNDbtU","title":"قراءة وتفسير سورة المائدة من آية ٨","publishedAt":"2016-10-28T12:36:31Z","duration":"PT23M39S","thumbnail":"https://i.ytimg.com/vi/7yFAVlNDbtU/mqdefault.jpg","viewCount":"496","playlistId":"PLEkQk5xrP-tnmTYsyW6xNdyfhPq0Bhrhj","playlistName":"مقرأة الفجر - القُرْآنُ الكَرِيمُ - خَتْمَةُ التَّدَبُّرِ  أ.د. يسري جبر","category":"متنوع"},{"id":"VHRogFju0VY","title":"قومٌ أقامهم الحقُّ لخدمته ، وقومٌ اختصَّهم بمحبَّته","publishedAt":"2016-10-28T20:56:09Z","duration":"PT5M2S","thumbnail":"https://i.ytimg.com/vi/VHRogFju0VY/mqdefault.jpg","viewCount":"4609","playlistId":"PLEkQk5xrP-tkI_meE148wc7V7XHlB0WPb","playlistName":"من الحكم العطائية  د. يسري جبر","category":"متنوع"},{"id":"sJGsfUbVbdE","title":"سورة المائدة آية 12","publishedAt":"2016-10-29T03:42:56Z","duration":"PT10M52S","thumbnail":"https://i.ytimg.com/vi/sJGsfUbVbdE/mqdefault.jpg","viewCount":"385","playlistId":"PLEkQk5xrP-tnmTYsyW6xNdyfhPq0Bhrhj","playlistName":"مقرأة الفجر - القُرْآنُ الكَرِيمُ - خَتْمَةُ التَّدَبُّرِ  أ.د. يسري جبر","category":"متنوع"},{"id":"cN7ntqC4OOM","title":"سورة المائدة آية 14","publishedAt":"2016-10-30T04:05:04Z","duration":"PT12M24S","thumbnail":"https://i.ytimg.com/vi/cN7ntqC4OOM/mqdefault.jpg","viewCount":"418","playlistId":"PLEkQk5xrP-tnmTYsyW6xNdyfhPq0Bhrhj","playlistName":"مقرأة الفجر - القُرْآنُ الكَرِيمُ - خَتْمَةُ التَّدَبُّرِ  أ.د. يسري جبر","category":"متنوع"},{"id":"-LQMIvvPOrc","title":"الحزن على فقدان الطاعة مع عدم النهوض إليها من علامات الاغترار","publishedAt":"2016-10-30T14:21:37Z","duration":"PT4M54S","thumbnail":"https://i.ytimg.com/vi/-LQMIvvPOrc/mqdefault.jpg","viewCount":"4555","playlistId":"PLEkQk5xrP-tkI_meE148wc7V7XHlB0WPb","playlistName":"من الحكم العطائية  د. يسري جبر","category":"متنوع"},{"id":"s-TEi3-e4Ls","title":"سورة المائدة آية 17","publishedAt":"2016-10-31T03:42:51Z","duration":"PT11M58S","thumbnail":"https://i.ytimg.com/vi/s-TEi3-e4Ls/mqdefault.jpg","viewCount":"393","playlistId":"PLEkQk5xrP-tnmTYsyW6xNdyfhPq0Bhrhj","playlistName":"مقرأة الفجر - القُرْآنُ الكَرِيمُ - خَتْمَةُ التَّدَبُّرِ  أ.د. يسري جبر","category":"متنوع"},{"id":"MVUXEIvWZfc","title":"مقامُ الفَرْقِ ومقامُ الجَمْعِ","publishedAt":"2016-10-31T13:20:31Z","duration":"PT13M2S","thumbnail":"https://i.ytimg.com/vi/MVUXEIvWZfc/mqdefault.jpg","viewCount":"7255","playlistId":"PLEkQk5xrP-tkI_meE148wc7V7XHlB0WPb","playlistName":"من الحكم العطائية  د. يسري جبر","category":"متنوع"},{"id":"7myZezN3sN0","title":"سورة المائدة آية 20","publishedAt":"2016-11-01T05:38:33Z","duration":"PT16M29S","thumbnail":"https://i.ytimg.com/vi/7myZezN3sN0/mqdefault.jpg","viewCount":"433","playlistId":"PLEkQk5xrP-tnmTYsyW6xNdyfhPq0Bhrhj","playlistName":"مقرأة الفجر - القُرْآنُ الكَرِيمُ - خَتْمَةُ التَّدَبُّرِ  أ.د. يسري جبر","category":"متنوع"},{"id":"O3I3NWmLqbc","title":"الرَّجَاءُ مَا قارنَه عَمَلٌ ، وإلَّا .. فهُو أُمْنِيَةٌ !","publishedAt":"2016-11-01T18:50:37Z","duration":"PT4M26S","thumbnail":"https://i.ytimg.com/vi/O3I3NWmLqbc/mqdefault.jpg","viewCount":"2412","playlistId":"PLEkQk5xrP-tkI_meE148wc7V7XHlB0WPb","playlistName":"من الحكم العطائية  د. يسري جبر","category":"متنوع"},{"id":"Z6hL97JKP68","title":"مطلبُ العارفين من الله الصدقُ في العُبُوديَّة ، والقيامُ بحقوق الرُّبُوبَِّية","publishedAt":"2016-11-01T19:51:09Z","duration":"PT5M55S","thumbnail":"https://i.ytimg.com/vi/Z6hL97JKP68/mqdefault.jpg","viewCount":"3189","playlistId":"PLEkQk5xrP-tkI_meE148wc7V7XHlB0WPb","playlistName":"من الحكم العطائية  د. يسري جبر","category":"متنوع"},{"id":"ee5NpOB-5-M","title":"سورة المائدة آية 27","publishedAt":"2016-11-03T04:28:41Z","duration":"PT19M51S","thumbnail":"https://i.ytimg.com/vi/ee5NpOB-5-M/mqdefault.jpg","viewCount":"425","playlistId":"PLEkQk5xrP-tnmTYsyW6xNdyfhPq0Bhrhj","playlistName":"مقرأة الفجر - القُرْآنُ الكَرِيمُ - خَتْمَةُ التَّدَبُّرِ  أ.د. يسري جبر","category":"متنوع"}],"total":4129,"page":30,"pageSize":24,"totalPages":173}