{"items":[{"id":"LI2-uglktIk","title":"115-\"إنِّي لأقوم إلى الصَّلاة وأريدُ أن أطوِّل فيها فأسمع بُكاءَ الطفل فأتجوَّز …\" شرح دليل الفالحين","publishedAt":"2021-08-20T06:03:17Z","duration":"PT39M2S","thumbnail":"https://i.ytimg.com/vi/LI2-uglktIk/mqdefault.jpg","viewCount":"1527","playlistId":"PLEkQk5xrP-tkc9DXvSLguqX5-FYp6ASR4","playlistName":"دليل الفالحين لطرق رياض الصالحين","category":"متنوع"},{"id":"49LdZNokzRw","title":"هل نأخذ بالأحاديث الآحاد في العقيدة؟","publishedAt":"2021-08-20T17:00:02Z","duration":"PT10M21S","thumbnail":"https://i.ytimg.com/vi/49LdZNokzRw/mqdefault.jpg","viewCount":"6918","playlistId":"PLEkQk5xrP-tm8ZIu74nTOZN9KJUJu416J","playlistName":"مقاطع مُهمَّة (يُسريَّات) أ.د. يسري جبر","category":"متنوع"},{"id":"jGxSxZSOzpk","title":"نصيحة لأهالي وطلاب الثانوية العامة","publishedAt":"2021-08-21T17:00:39Z","duration":"PT8M55S","thumbnail":"https://i.ytimg.com/vi/jGxSxZSOzpk/mqdefault.jpg","viewCount":"4015","playlistId":"PLEkQk5xrP-tkGXuZ9atE3k_7it12rUPTs","playlistName":"أسئلة المتابعين","category":"متنوع"},{"id":"cCTGnrGJeV4","title":"أريد الانتحار,, هل سأموت كافرا؟","publishedAt":"2021-08-22T18:58:48Z","duration":"PT9M12S","thumbnail":"https://i.ytimg.com/vi/cCTGnrGJeV4/mqdefault.jpg","viewCount":"11047","playlistId":"PLEkQk5xrP-tkGXuZ9atE3k_7it12rUPTs","playlistName":"أسئلة المتابعين","category":"متنوع"},{"id":"_p7ynQ7XlM4","title":"116-\"المسلم أخو المسلم، لا يخونه، ولا يكذبه، ولا يخذله، كل المسلم على المسلم حرام…\"شرح دليل الفالحين","publishedAt":"2021-08-23T05:55:42Z","duration":"PT53M8S","thumbnail":"https://i.ytimg.com/vi/_p7ynQ7XlM4/mqdefault.jpg","viewCount":"1714","playlistId":"PLEkQk5xrP-tkc9DXvSLguqX5-FYp6ASR4","playlistName":"دليل الفالحين لطرق رياض الصالحين","category":"متنوع"},{"id":"J2EGWFp7y4s","title":"هل انتشر الإسلام بحد السيف؟","publishedAt":"2021-08-23T18:30:28Z","duration":"PT9M47S","thumbnail":"https://i.ytimg.com/vi/J2EGWFp7y4s/mqdefault.jpg","viewCount":"3429","playlistId":"PLEkQk5xrP-tkGXuZ9atE3k_7it12rUPTs","playlistName":"أسئلة المتابعين","category":"متنوع"},{"id":"Ov2syHdZHnY","title":"117-\"لا يؤمِنُ أحدُكُم حتَّى يُحِبَّ لأخيهِ ما يحبُّ لنفسِه\" شرح دليل الفالحين","publishedAt":"2021-08-25T06:02:46Z","duration":"PT52M39S","thumbnail":"https://i.ytimg.com/vi/Ov2syHdZHnY/mqdefault.jpg","viewCount":"1266","playlistId":"PLEkQk5xrP-tkc9DXvSLguqX5-FYp6ASR4","playlistName":"دليل الفالحين لطرق رياض الصالحين","category":"متنوع"},{"id":"QPyt_W26M0E","title":"الرد على تساؤلات الوهابية","publishedAt":"2021-08-26T17:15:01Z","duration":"PT12M42S","thumbnail":"https://i.ytimg.com/vi/QPyt_W26M0E/mqdefault.jpg","viewCount":"56152","playlistId":"PLEkQk5xrP-tkGXuZ9atE3k_7it12rUPTs","playlistName":"أسئلة المتابعين","category":"متنوع"},{"id":"VGefpDU0M4w","title":"118- ستر عورات المسلمين والنَّهي عن إشاعتها لغير ضرورة -  شرح دليل الفالحين","publishedAt":"2021-08-27T06:08:20Z","duration":"PT41M24S","thumbnail":"https://i.ytimg.com/vi/VGefpDU0M4w/mqdefault.jpg","viewCount":"1892","playlistId":"PLEkQk5xrP-tkc9DXvSLguqX5-FYp6ASR4","playlistName":"دليل الفالحين لطرق رياض الصالحين","category":"متنوع"},{"id":"pIVc5d95zvA","title":"كيف تتغلب على شهوة النفس؟","publishedAt":"2021-08-28T17:15:00Z","duration":"PT12M31S","thumbnail":"https://i.ytimg.com/vi/pIVc5d95zvA/mqdefault.jpg","viewCount":"53135","playlistId":"PLEkQk5xrP-tkGXuZ9atE3k_7it12rUPTs","playlistName":"أسئلة المتابعين","category":"متنوع"},{"id":"pUPdIk-6GCY","title":"119- فضلُ قضاء حوائج المسلمين - شرح دليل الفالحين","publishedAt":"2021-08-29T07:27:41Z","duration":"PT52M31S","thumbnail":"https://i.ytimg.com/vi/pUPdIk-6GCY/mqdefault.jpg","viewCount":"3068","playlistId":"PLEkQk5xrP-tkc9DXvSLguqX5-FYp6ASR4","playlistName":"دليل الفالحين لطرق رياض الصالحين","category":"متنوع"},{"id":"Mfw_VtgJdjY","title":"ما هي شروط رؤية النبيﷺ ؟","publishedAt":"2021-08-29T18:30:10Z","duration":"PT12M57S","thumbnail":"https://i.ytimg.com/vi/Mfw_VtgJdjY/mqdefault.jpg","viewCount":"28996","playlistId":"PLEkQk5xrP-tm8ZIu74nTOZN9KJUJu416J","playlistName":"مقاطع مُهمَّة (يُسريَّات) أ.د. يسري جبر","category":"متنوع"},{"id":"Z5QPSibhzwk","title":"ما موقفك من معاوية بن أبي سفيان؟","publishedAt":"2021-08-30T19:08:43Z","duration":"PT11M40S","thumbnail":"https://i.ytimg.com/vi/Z5QPSibhzwk/mqdefault.jpg","viewCount":"49077","playlistId":"PLEkQk5xrP-tm8ZIu74nTOZN9KJUJu416J","playlistName":"مقاطع مُهمَّة (يُسريَّات) أ.د. يسري جبر","category":"متنوع"},{"id":"-WWtH1n4p8k","title":"برحمتك أستغيث,, هل النبي ﷺ هو الرحمة؟","publishedAt":"2021-08-31T16:30:01Z","duration":"PT12M37S","thumbnail":"https://i.ytimg.com/vi/-WWtH1n4p8k/mqdefault.jpg","viewCount":"6877","playlistId":"PLEkQk5xrP-tm8ZIu74nTOZN9KJUJu416J","playlistName":"مقاطع مُهمَّة (يُسريَّات) أ.د. يسري جبر","category":"متنوع"},{"id":"TlOWXiKWM44","title":"120- الشفاعة - شرح دليل الفالحين","publishedAt":"2021-09-01T05:44:36Z","duration":"PT30M32S","thumbnail":"https://i.ytimg.com/vi/TlOWXiKWM44/mqdefault.jpg","viewCount":"1775","playlistId":"PLEkQk5xrP-tkc9DXvSLguqX5-FYp6ASR4","playlistName":"دليل الفالحين لطرق رياض الصالحين","category":"متنوع"},{"id":"WdFc0sTqEMk","title":"كيف أطلب العلم عن بعد؟","publishedAt":"2021-09-02T19:30:04Z","duration":"PT11M49S","thumbnail":"https://i.ytimg.com/vi/WdFc0sTqEMk/mqdefault.jpg","viewCount":"14441","playlistId":"PLEkQk5xrP-tkGXuZ9atE3k_7it12rUPTs","playlistName":"أسئلة المتابعين","category":"متنوع"},{"id":"BcLnroBMKEM","title":"121- البِشارة في وُجُوب شَفاعته ﷺ يوم القيامة - شرح دليل الفالحين","publishedAt":"2021-09-03T04:57:33Z","duration":"PT53M59S","thumbnail":"https://i.ytimg.com/vi/BcLnroBMKEM/mqdefault.jpg","viewCount":"1652","playlistId":"PLEkQk5xrP-tkc9DXvSLguqX5-FYp6ASR4","playlistName":"دليل الفالحين لطرق رياض الصالحين","category":"متنوع"},{"id":"tAfVIjts4LY","title":"هل التدخين حرام؟؟","publishedAt":"2021-09-03T19:09:43Z","duration":"PT8M46S","thumbnail":"https://i.ytimg.com/vi/tAfVIjts4LY/mqdefault.jpg","viewCount":"17280","playlistId":"PLEkQk5xrP-tkGXuZ9atE3k_7it12rUPTs","playlistName":"أسئلة المتابعين","category":"متنوع"},{"id":"v6fqIIWN_98","title":"هل يجوز تعنيف الأطفال المشاغبين في المسجد؟","publishedAt":"2021-09-04T19:01:25Z","duration":"PT9M1S","thumbnail":"https://i.ytimg.com/vi/v6fqIIWN_98/mqdefault.jpg","viewCount":"4074","playlistId":"PLEkQk5xrP-tkGXuZ9atE3k_7it12rUPTs","playlistName":"أسئلة المتابعين","category":"متنوع"},{"id":"DdBFIEjWU2s","title":"122- الإصلاح بين الناس - شرح دليل الفالحين","publishedAt":"2021-09-05T06:13:09Z","duration":"PT45M27S","thumbnail":"https://i.ytimg.com/vi/DdBFIEjWU2s/mqdefault.jpg","viewCount":"1470","playlistId":"PLEkQk5xrP-tkc9DXvSLguqX5-FYp6ASR4","playlistName":"دليل الفالحين لطرق رياض الصالحين","category":"متنوع"},{"id":"Ia4eh8MNbQA","title":"أريد تناول المهدّئات.. بماذا تنصحني؟","publishedAt":"2021-09-05T17:37:14Z","duration":"PT9M23S","thumbnail":"https://i.ytimg.com/vi/Ia4eh8MNbQA/mqdefault.jpg","viewCount":"7564","playlistId":"PLEkQk5xrP-tkGXuZ9atE3k_7it12rUPTs","playlistName":"أسئلة المتابعين","category":"متنوع"},{"id":"K6H1ytWqfAE","title":"123- فضل ضعفة المسلمين والفقراء والخاملين - شرح دليل الفالحين","publishedAt":"2021-09-07T08:00:55Z","duration":"PT28M15S","thumbnail":"https://i.ytimg.com/vi/K6H1ytWqfAE/mqdefault.jpg","viewCount":"1531","playlistId":"PLEkQk5xrP-tkc9DXvSLguqX5-FYp6ASR4","playlistName":"دليل الفالحين لطرق رياض الصالحين","category":"متنوع"},{"id":"115ELEvz1_U","title":"ما هو التصوف,, ومن هم الصوفية؟؟","publishedAt":"2021-09-07T17:41:42Z","duration":"PT18M51S","thumbnail":"https://i.ytimg.com/vi/115ELEvz1_U/mqdefault.jpg","viewCount":"36716","playlistId":"PLEkQk5xrP-tm8ZIu74nTOZN9KJUJu416J","playlistName":"مقاطع مُهمَّة (يُسريَّات) أ.د. يسري جبر","category":"متنوع"},{"id":"b_65benHTUA","title":"124- \"احْتَجَّتِ الجنَّة والنَّار، فقالت النَّار: فيَّ الجبَّارون والمُتَكَبِّرون…\"شرح دليل الفالحين","publishedAt":"2021-09-09T06:35:11Z","duration":"PT44M6S","thumbnail":"https://i.ytimg.com/vi/b_65benHTUA/mqdefault.jpg","viewCount":"1136","playlistId":"PLEkQk5xrP-tkc9DXvSLguqX5-FYp6ASR4","playlistName":"دليل الفالحين لطرق رياض الصالحين","category":"متنوع"}],"total":4129,"page":110,"pageSize":24,"totalPages":173}