{"items":[{"id":"uyq0ejH8J4E","title":"قسمة الله في عباده","publishedAt":"2020-10-23T17:46:50Z","duration":"PT4M16S","thumbnail":"https://i.ytimg.com/vi/uyq0ejH8J4E/mqdefault.jpg","viewCount":"3747","playlistId":"PLEkQk5xrP-tm8ZIu74nTOZN9KJUJu416J","playlistName":"مقاطع مُهمَّة (يُسريَّات) أ.د. يسري جبر","category":"متنوع"},{"id":"Wi8VAdX56sc","title":"تحويل الأهوال إلى كمال الأحوال","publishedAt":"2020-10-24T18:18:58Z","duration":"PT10M53S","thumbnail":"https://i.ytimg.com/vi/Wi8VAdX56sc/mqdefault.jpg","viewCount":"3937","playlistId":"PLEkQk5xrP-tm8ZIu74nTOZN9KJUJu416J","playlistName":"مقاطع مُهمَّة (يُسريَّات) أ.د. يسري جبر","category":"متنوع"},{"id":"_ycXPZWRWpA","title":"سبب تصنيف دلائل الخيرات","publishedAt":"2020-10-25T18:46:48Z","duration":"PT11M46S","thumbnail":"https://i.ytimg.com/vi/_ycXPZWRWpA/mqdefault.jpg","viewCount":"12875","playlistId":"PLEkQk5xrP-tm8ZIu74nTOZN9KJUJu416J","playlistName":"مقاطع مُهمَّة (يُسريَّات) أ.د. يسري جبر","category":"متنوع"},{"id":"-h4UDUM08TY","title":"كن متمسكا بدلائل الخيرات","publishedAt":"2020-10-26T19:11:27Z","duration":"PT7M4S","thumbnail":"https://i.ytimg.com/vi/-h4UDUM08TY/mqdefault.jpg","viewCount":"37974","playlistId":"PLEkQk5xrP-tm8ZIu74nTOZN9KJUJu416J","playlistName":"مقاطع مُهمَّة (يُسريَّات) أ.د. يسري جبر","category":"متنوع"},{"id":"haEn1rN0m2I","title":"فضل الصلاة على النبي ﷺ","publishedAt":"2020-10-28T19:18:08Z","duration":"PT17M55S","thumbnail":"https://i.ytimg.com/vi/haEn1rN0m2I/mqdefault.jpg","viewCount":"99843","playlistId":"PLEkQk5xrP-tm8ZIu74nTOZN9KJUJu416J","playlistName":"مقاطع مُهمَّة (يُسريَّات) أ.د. يسري جبر","category":"متنوع"},{"id":"geeyVSBH8x4","title":"كيف تعرف نبيك؟","publishedAt":"2020-10-29T15:01:44Z","duration":"PT1H1M50S","thumbnail":"https://i.ytimg.com/vi/geeyVSBH8x4/mqdefault.jpg","viewCount":"18188","playlistId":"PLEkQk5xrP-tm8ZIu74nTOZN9KJUJu416J","playlistName":"مقاطع مُهمَّة (يُسريَّات) أ.د. يسري جبر","category":"متنوع"},{"id":"5X2nNe5tJoI","title":"كيف تعرف نبيك؟ (2)","publishedAt":"2020-10-30T20:49:52Z","duration":"PT49M9S","thumbnail":"https://i.ytimg.com/vi/5X2nNe5tJoI/mqdefault.jpg","viewCount":"8362","playlistId":"PLEkQk5xrP-tm8ZIu74nTOZN9KJUJu416J","playlistName":"مقاطع مُهمَّة (يُسريَّات) أ.د. يسري جبر","category":"متنوع"},{"id":"yTg_K-dBElo","title":"كيف نرد الإساءة عن النَّبيّ ﷺ؟","publishedAt":"2020-10-31T18:05:27Z","duration":"PT12M37S","thumbnail":"https://i.ytimg.com/vi/yTg_K-dBElo/mqdefault.jpg","viewCount":"13007","playlistId":"PLEkQk5xrP-tm8ZIu74nTOZN9KJUJu416J","playlistName":"مقاطع مُهمَّة (يُسريَّات) أ.د. يسري جبر","category":"متنوع"},{"id":"ZO5JFAdwJaY","title":"بذِكْرَى المولدِ نحيا","publishedAt":"2020-11-01T18:05:30Z","duration":"PT19M42S","thumbnail":"https://i.ytimg.com/vi/ZO5JFAdwJaY/mqdefault.jpg","viewCount":"11193","playlistId":"PLEkQk5xrP-tm8ZIu74nTOZN9KJUJu416J","playlistName":"مقاطع مُهمَّة (يُسريَّات) أ.د. يسري جبر","category":"متنوع"},{"id":"Ih6fnet2q74","title":"ألا لا إيمان لمن لا محبة له","publishedAt":"2020-11-02T20:18:55Z","duration":"PT29M","thumbnail":"https://i.ytimg.com/vi/Ih6fnet2q74/mqdefault.jpg","viewCount":"17357","playlistId":"PLEkQk5xrP-tm8ZIu74nTOZN9KJUJu416J","playlistName":"مقاطع مُهمَّة (يُسريَّات) أ.د. يسري جبر","category":"متنوع"},{"id":"h5TUiEbIS0A","title":"كثرة الأسماء تدل على شرف المُسَمَّى ﷺ","publishedAt":"2020-11-04T17:26:36Z","duration":"PT11M56S","thumbnail":"https://i.ytimg.com/vi/h5TUiEbIS0A/mqdefault.jpg","viewCount":"1919","playlistId":"PLEkQk5xrP-tm8ZIu74nTOZN9KJUJu416J","playlistName":"مقاطع مُهمَّة (يُسريَّات) أ.د. يسري جبر","category":"متنوع"},{"id":"eREj4x3Dtmg","title":"بِدَعُ التَفَاسِيرِ - المجلس الثامن عشر. أ.د. يسري جبر","publishedAt":"2020-11-05T17:54:53Z","duration":"PT12M13S","thumbnail":"https://i.ytimg.com/vi/eREj4x3Dtmg/mqdefault.jpg","viewCount":"1155","playlistId":"PLEkQk5xrP-tkSGrPLMt1BEmJ54cGWYgtp","playlistName":"كتابُ بِدَعِ التَفَاسِيرِ - أ.د. يسري جبر","category":"متنوع"},{"id":"4C1q83iP6Uw","title":"أسماءُ النَّبيّ ﷺ","publishedAt":"2020-11-06T19:01:17Z","duration":"PT19M55S","thumbnail":"https://i.ytimg.com/vi/4C1q83iP6Uw/mqdefault.jpg","viewCount":"2865","playlistId":"PLEkQk5xrP-tm8ZIu74nTOZN9KJUJu416J","playlistName":"مقاطع مُهمَّة (يُسريَّات) أ.د. يسري جبر","category":"متنوع"},{"id":"HIRQfEAq3h8","title":"أسماءُ النَّبيّ ﷺ  2","publishedAt":"2020-11-09T18:34:28Z","duration":"PT29M38S","thumbnail":"https://i.ytimg.com/vi/HIRQfEAq3h8/mqdefault.jpg","viewCount":"1838","playlistId":"PLEkQk5xrP-tm8ZIu74nTOZN9KJUJu416J","playlistName":"مقاطع مُهمَّة (يُسريَّات) أ.د. يسري جبر","category":"متنوع"},{"id":"PuxAX0dM7wY","title":"كيف تتقن عملك؟","publishedAt":"2020-11-10T18:03:23Z","duration":"PT11M15S","thumbnail":"https://i.ytimg.com/vi/PuxAX0dM7wY/mqdefault.jpg","viewCount":"21197","playlistId":"PLEkQk5xrP-tm8ZIu74nTOZN9KJUJu416J","playlistName":"مقاطع مُهمَّة (يُسريَّات) أ.د. يسري جبر","category":"متنوع"},{"id":"KqvHQXrACvk","title":"أسماءُ النَّبيّ ﷺ 3","publishedAt":"2020-11-12T20:54:54Z","duration":"PT25M12S","thumbnail":"https://i.ytimg.com/vi/KqvHQXrACvk/mqdefault.jpg","viewCount":"1209","playlistId":"PLEkQk5xrP-tm8ZIu74nTOZN9KJUJu416J","playlistName":"مقاطع مُهمَّة (يُسريَّات) أ.د. يسري جبر","category":"متنوع"},{"id":"sEDqIbZ4srQ","title":"فتنة الدجال وظهور المهدي","publishedAt":"2020-11-14T18:05:35Z","duration":"PT10M13S","thumbnail":"https://i.ytimg.com/vi/sEDqIbZ4srQ/mqdefault.jpg","viewCount":"36817","playlistId":"PLEkQk5xrP-tm8ZIu74nTOZN9KJUJu416J","playlistName":"مقاطع مُهمَّة (يُسريَّات) أ.د. يسري جبر","category":"متنوع"},{"id":"zzLtFeqcCs4","title":"كيف يوافق اختيارك اختيار الله؟","publishedAt":"2020-11-18T18:21:40Z","duration":"PT4M39S","thumbnail":"https://i.ytimg.com/vi/zzLtFeqcCs4/mqdefault.jpg","viewCount":"16038","playlistId":"PLEkQk5xrP-tm8ZIu74nTOZN9KJUJu416J","playlistName":"مقاطع مُهمَّة (يُسريَّات) أ.د. يسري جبر","category":"متنوع"},{"id":"BznBg7HC5yg","title":"حقيقة التوحيد أ.د.يسري جبر","publishedAt":"2020-11-19T18:10:19Z","duration":"PT8M27S","thumbnail":"https://i.ytimg.com/vi/BznBg7HC5yg/mqdefault.jpg","viewCount":"6899","playlistId":"PLEkQk5xrP-tm8ZIu74nTOZN9KJUJu416J","playlistName":"مقاطع مُهمَّة (يُسريَّات) أ.د. يسري جبر","category":"متنوع"},{"id":"CwjXYaXDnQw","title":"كيف تصبر عند الصدمة؟","publishedAt":"2020-11-20T18:52:46Z","duration":"PT15M38S","thumbnail":"https://i.ytimg.com/vi/CwjXYaXDnQw/mqdefault.jpg","viewCount":"4889","playlistId":"PLEkQk5xrP-tm8ZIu74nTOZN9KJUJu416J","playlistName":"مقاطع مُهمَّة (يُسريَّات) أ.د. يسري جبر","category":"متنوع"},{"id":"M_kdSWpAxQ0","title":"هل يجوز زواج المسلمة من غير المسلم؟","publishedAt":"2020-11-21T18:00:06Z","duration":"PT18M57S","thumbnail":"https://i.ytimg.com/vi/M_kdSWpAxQ0/mqdefault.jpg","viewCount":"45810","playlistId":"PLEkQk5xrP-tm8ZIu74nTOZN9KJUJu416J","playlistName":"مقاطع مُهمَّة (يُسريَّات) أ.د. يسري جبر","category":"متنوع"},{"id":"8hsWqSOyHcE","title":"موت الشباب المفاجئ!","publishedAt":"2020-11-22T17:45:00Z","duration":"PT2M48S","thumbnail":"https://i.ytimg.com/vi/8hsWqSOyHcE/mqdefault.jpg","viewCount":"7175","playlistId":"PLEkQk5xrP-tm8ZIu74nTOZN9KJUJu416J","playlistName":"مقاطع مُهمَّة (يُسريَّات) أ.د. يسري جبر","category":"متنوع"},{"id":"zbB7vnhxtOE","title":"نهاية العالم","publishedAt":"2020-11-23T19:12:48Z","duration":"PT10M47S","thumbnail":"https://i.ytimg.com/vi/zbB7vnhxtOE/mqdefault.jpg","viewCount":"151469","playlistId":"PLEkQk5xrP-tm8ZIu74nTOZN9KJUJu416J","playlistName":"مقاطع مُهمَّة (يُسريَّات) أ.د. يسري جبر","category":"متنوع"},{"id":"TNw5L8Ni4E4","title":"أحداث يوم القيامة","publishedAt":"2020-11-24T18:03:35Z","duration":"PT8M7S","thumbnail":"https://i.ytimg.com/vi/TNw5L8Ni4E4/mqdefault.jpg","viewCount":"10516","playlistId":"PLEkQk5xrP-tm8ZIu74nTOZN9KJUJu416J","playlistName":"مقاطع مُهمَّة (يُسريَّات) أ.د. يسري جبر","category":"متنوع"}],"total":4129,"page":97,"pageSize":24,"totalPages":173}