{"items":[{"id":"V3j-JAu7ICY","title":"26- كيفية التعامل مع النفس الأماره بالسوء | شرح مختصر الفتوحات المكية","publishedAt":"2024-07-21T17:00:15Z","duration":"PT45M57S","thumbnail":"https://i.ytimg.com/vi/V3j-JAu7ICY/mqdefault.jpg","viewCount":"7063","playlistId":"PLEkQk5xrP-tnpkdZki6rPTtMak1bnI5g-","playlistName":"شرح كتاب مختصر الفتوحات المكية المسمى لواقح الأنوار القدسية","category":"متنوع"},{"id":"ylrN6ig0ogs","title":"ما الدليل على جواز التوسل بالأنبياء والأولياء؟","publishedAt":"2024-07-22T06:00:33Z","duration":"PT30M8S","thumbnail":"https://i.ytimg.com/vi/ylrN6ig0ogs/mqdefault.jpg","viewCount":"4904","playlistId":"PLEkQk5xrP-tm5wKaFaltLbztkXrGxixKu","playlistName":"شرح كتاب اتحاف الاذكياء بجواز التوسل بالأنبياء والأولياء","category":"متنوع"},{"id":"XABiNkbidxA","title":"لماذا يخفي بعض المشايخ عقيدتهم الأشعرية؟","publishedAt":"2024-07-22T18:35:49Z","duration":"PT8M40S","thumbnail":"https://i.ytimg.com/vi/XABiNkbidxA/mqdefault.jpg","viewCount":"4383","playlistId":"PLEkQk5xrP-tkGXuZ9atE3k_7it12rUPTs","playlistName":"أسئلة المتابعين","category":"متنوع"},{"id":"qliN3VJqTdA","title":"تفسير قوله تعالى \"شهد عليهم سمعهم وأبصارهم وجلودهم\"","publishedAt":"2024-07-23T07:48:21Z","duration":"PT17M17S","thumbnail":"https://i.ytimg.com/vi/qliN3VJqTdA/mqdefault.jpg","viewCount":"1273","playlistId":"PLEkQk5xrP-tkSGrPLMt1BEmJ54cGWYgtp","playlistName":"كتابُ بِدَعِ التَفَاسِيرِ - أ.د. يسري جبر","category":"متنوع"},{"id":"GlY8gHXPIfE","title":"39- أحكام الحيض | شرح سنن الدار قطني رضي الله عنه","publishedAt":"2024-07-25T06:00:09Z","duration":"PT45M3S","thumbnail":"https://i.ytimg.com/vi/GlY8gHXPIfE/mqdefault.jpg","viewCount":"548","playlistId":"PLEkQk5xrP-tk_MCBZ706ORCw6gFtFyaGj","playlistName":"شرح سنن الإمام الدارقطني","category":"متنوع"},{"id":"9gdLvBubrX0","title":"1- علامة الاعتماد على العمل ومعنى إرادتك التجريد أو الأسباب | شرح الحكم العطائية","publishedAt":"2024-07-25T17:00:05Z","duration":"PT52M40S","thumbnail":"https://i.ytimg.com/vi/9gdLvBubrX0/mqdefault.jpg","viewCount":"11149","playlistId":"PLEkQk5xrP-tmf5ToOwmW-q0JwxkapbrMN","playlistName":"شرح كتاب إرشاد البرية إلى بعض معاني الحكم العطائية","category":"متنوع"},{"id":"bgc_2DseGrs","title":"تفسير قوله تعالى \"وجعلوا له من عباده جزءا\"","publishedAt":"2024-07-26T06:00:22Z","duration":"PT13M57S","thumbnail":"https://i.ytimg.com/vi/bgc_2DseGrs/mqdefault.jpg","viewCount":"1959","playlistId":"PLEkQk5xrP-tkSGrPLMt1BEmJ54cGWYgtp","playlistName":"كتابُ بِدَعِ التَفَاسِيرِ - أ.د. يسري جبر","category":"متنوع"},{"id":"G34DS04K8f8","title":"40- أحكام الاستحاضة | شرح سنن الدار قطني رضي الله عنه","publishedAt":"2024-07-27T06:00:06Z","duration":"PT41M25S","thumbnail":"https://i.ytimg.com/vi/G34DS04K8f8/mqdefault.jpg","viewCount":"723","playlistId":"PLEkQk5xrP-tk_MCBZ706ORCw6gFtFyaGj","playlistName":"شرح سنن الإمام الدارقطني","category":"متنوع"},{"id":"4NF0YVQRuh8","title":"تفسير قوله تعالى \"يا أيها النبي لم تحرم ما أحل الله لك تبتغي مرضاة أزواجك\"","publishedAt":"2024-07-27T17:09:16Z","duration":"PT19M36S","thumbnail":"https://i.ytimg.com/vi/4NF0YVQRuh8/mqdefault.jpg","viewCount":"2801","playlistId":"PLEkQk5xrP-tkSGrPLMt1BEmJ54cGWYgtp","playlistName":"كتابُ بِدَعِ التَفَاسِيرِ - أ.د. يسري جبر","category":"متنوع"},{"id":"nrdXeTnGd4w","title":"27- هل العالم قديم أم حادث؟ | الحيرة في معرفة الذات الإلهية | شرح مختصر الفتوحات المكية","publishedAt":"2024-07-28T17:00:37Z","duration":"PT1H2M17S","thumbnail":"https://i.ytimg.com/vi/nrdXeTnGd4w/mqdefault.jpg","viewCount":"6336","playlistId":"PLEkQk5xrP-tnpkdZki6rPTtMak1bnI5g-","playlistName":"شرح كتاب مختصر الفتوحات المكية المسمى لواقح الأنوار القدسية","category":"متنوع"},{"id":"q3wo9L5DMlg","title":"118- حكم النوم أثناء السجود - شرح مسند الإمام أحمد رضي الله تعالى عنه","publishedAt":"2024-07-29T06:00:21Z","duration":"PT25M26S","thumbnail":"https://i.ytimg.com/vi/q3wo9L5DMlg/mqdefault.jpg","viewCount":"997","playlistId":"PLEkQk5xrP-tkKprIuGrSdEuBSMsyg5We1","playlistName":"شرح مسند الإمام أحمد بن حنبل","category":"متنوع"},{"id":"y3mUD_q-HlY","title":"2- سوابق الهمم لا تخرق أسوار الأقدار | كيف تريح نفسك من التدبير؟ | شرح الحكم العطائية","publishedAt":"2024-07-29T18:33:09Z","duration":"PT46M28S","thumbnail":"https://i.ytimg.com/vi/y3mUD_q-HlY/mqdefault.jpg","viewCount":"17977","playlistId":"PLEkQk5xrP-tmf5ToOwmW-q0JwxkapbrMN","playlistName":"شرح كتاب إرشاد البرية إلى بعض معاني الحكم العطائية","category":"متنوع"},{"id":"YZWhiaL7WPA","title":"تفسير قوله تعالى \"وإن لك لأجرا غير ممنون\"","publishedAt":"2024-07-30T19:07:21Z","duration":"PT16M28S","thumbnail":"https://i.ytimg.com/vi/YZWhiaL7WPA/mqdefault.jpg","viewCount":"1881","playlistId":"PLEkQk5xrP-tkSGrPLMt1BEmJ54cGWYgtp","playlistName":"كتابُ بِدَعِ التَفَاسِيرِ - أ.د. يسري جبر","category":"متنوع"},{"id":"yeOpCGrN8iA","title":"أنا كنت في ثانوية عامة ونفسي أدخل كلية الطب بماذا تنصحني؟","publishedAt":"2024-08-01T18:14:00Z","duration":"PT8M12S","thumbnail":"https://i.ytimg.com/vi/yeOpCGrN8iA/mqdefault.jpg","viewCount":"2867","playlistId":"PLEkQk5xrP-tkGXuZ9atE3k_7it12rUPTs","playlistName":"أسئلة المتابعين","category":"متنوع"},{"id":"37iKSTBX5a4","title":"ما هي بدع التفاسير في جزء عم؟","publishedAt":"2024-08-02T06:00:01Z","duration":"PT22M23S","thumbnail":"https://i.ytimg.com/vi/37iKSTBX5a4/mqdefault.jpg","viewCount":"1108","playlistId":"PLEkQk5xrP-tkSGrPLMt1BEmJ54cGWYgtp","playlistName":"كتابُ بِدَعِ التَفَاسِيرِ - أ.د. يسري جبر","category":"متنوع"},{"id":"hfLYqtYaS18","title":"3- اجتهادك فيما ضُمِنَ لك، وتقصيرك فيما طُلِبَ منك، دليل على انطماس البصيرة منك | شرح الحكم العطائية","publishedAt":"2024-08-02T17:00:39Z","duration":"PT37M58S","thumbnail":"https://i.ytimg.com/vi/hfLYqtYaS18/mqdefault.jpg","viewCount":"8152","playlistId":"PLEkQk5xrP-tmf5ToOwmW-q0JwxkapbrMN","playlistName":"شرح كتاب إرشاد البرية إلى بعض معاني الحكم العطائية","category":"متنوع"},{"id":"lz0mk8nOr6w","title":"أحاول تعليم زملائي ولكنهم يستغلونني في الحصول على ترقية فماذا أفعل؟ | المنافسة في سوق العمل","publishedAt":"2024-08-03T17:03:35Z","duration":"PT12M37S","thumbnail":"https://i.ytimg.com/vi/lz0mk8nOr6w/mqdefault.jpg","viewCount":"3838","playlistId":"PLEkQk5xrP-tm8ZIu74nTOZN9KJUJu416J","playlistName":"مقاطع مُهمَّة (يُسريَّات) أ.د. يسري جبر","category":"متنوع"},{"id":"1mIsBoZzgzY","title":"28- صفات أولياء الله الصالحين | شرح مختصر الفتوحات المكية","publishedAt":"2024-08-04T17:00:02Z","duration":"PT49M57S","thumbnail":"https://i.ytimg.com/vi/1mIsBoZzgzY/mqdefault.jpg","viewCount":"8495","playlistId":"PLEkQk5xrP-tnpkdZki6rPTtMak1bnI5g-","playlistName":"شرح كتاب مختصر الفتوحات المكية المسمى لواقح الأنوار القدسية","category":"متنوع"},{"id":"gbyXtCa5NXw","title":"أنا في بداية طريقي إلى الله ,, ما هي الكتب التي تنصحني بها؟","publishedAt":"2024-08-05T18:00:19Z","duration":"PT9M20S","thumbnail":"https://i.ytimg.com/vi/gbyXtCa5NXw/mqdefault.jpg","viewCount":"6861","playlistId":"PLEkQk5xrP-tkGXuZ9atE3k_7it12rUPTs","playlistName":"أسئلة المتابعين","category":"متنوع"},{"id":"plqdHDqUTQM","title":"رسالة مهمة لأهالي وطلاب الثانوية العامة","publishedAt":"2024-08-06T17:33:54Z","duration":"PT8M55S","thumbnail":"https://i.ytimg.com/vi/plqdHDqUTQM/mqdefault.jpg","viewCount":"2405","playlistId":"PLEkQk5xrP-tkGXuZ9atE3k_7it12rUPTs","playlistName":"أسئلة المتابعين","category":"متنوع"},{"id":"qh4Wq45OkQM","title":"أدلة جواز التوسل بالأنبياء والأولياء في القرآن والسنة","publishedAt":"2024-08-07T17:00:47Z","duration":"PT21M43S","thumbnail":"https://i.ytimg.com/vi/qh4Wq45OkQM/mqdefault.jpg","viewCount":"3888","playlistId":"PLEkQk5xrP-tm5wKaFaltLbztkXrGxixKu","playlistName":"شرح كتاب اتحاف الاذكياء بجواز التوسل بالأنبياء والأولياء","category":"متنوع"},{"id":"mrXR3YE7lDU","title":"119- سبحان الله عدد ما خلق الله، سبحان الله رضا نفسه، سبحان زنة عرشه، سبحان الله مداد كلماته.","publishedAt":"2024-08-08T06:00:30Z","duration":"PT10M56S","thumbnail":"https://i.ytimg.com/vi/mrXR3YE7lDU/mqdefault.jpg","viewCount":"1775","playlistId":"PLEkQk5xrP-tkKprIuGrSdEuBSMsyg5We1","playlistName":"شرح مسند الإمام أحمد بن حنبل","category":"متنوع"},{"id":"M8w0WA8Ik1Q","title":"4- ادفن وجودك في أرض الخمول فما نبت مما لم يدفن لا يتم نتاجه | شرح الحكم العطائية","publishedAt":"2024-08-09T18:30:31Z","duration":"PT46M38S","thumbnail":"https://i.ytimg.com/vi/M8w0WA8Ik1Q/mqdefault.jpg","viewCount":"9401","playlistId":"PLEkQk5xrP-tmf5ToOwmW-q0JwxkapbrMN","playlistName":"شرح كتاب إرشاد البرية إلى بعض معاني الحكم العطائية","category":"متنوع"},{"id":"GkVufY-TVyA","title":"41-  هل يجوز الصلاة والصيام والطواف في فترة الاستحاضة؟ | شرح سنن الدار قطني رضي الله عنه","publishedAt":"2024-08-10T09:00:18Z","duration":"PT48M50S","thumbnail":"https://i.ytimg.com/vi/GkVufY-TVyA/mqdefault.jpg","viewCount":"562","playlistId":"PLEkQk5xrP-tk_MCBZ706ORCw6gFtFyaGj","playlistName":"شرح سنن الإمام الدارقطني","category":"متنوع"}],"total":4129,"page":157,"pageSize":24,"totalPages":173}