{"items":[{"id":"W-f_TlEd3kM","title":"جانب من الاحتفال بالمولد النبوي الشريف","publishedAt":"2021-10-28T19:51:54Z","duration":"PT32M17S","thumbnail":"https://i.ytimg.com/vi/W-f_TlEd3kM/mqdefault.jpg","viewCount":"5274","playlistId":"PLEkQk5xrP-tlB8lmbwjAKR8KRgiykGKhb","playlistName":"حضرات يسرية ومدائح نبوية","category":"متنوع"},{"id":"zUQXgs-fVPo","title":"150- تحريم العقوق وقطيعة الرحم - شرح دليل الفالحين","publishedAt":"2021-10-29T06:24:21Z","duration":"PT33M14S","thumbnail":"https://i.ytimg.com/vi/zUQXgs-fVPo/mqdefault.jpg","viewCount":"1038","playlistId":"PLEkQk5xrP-tkc9DXvSLguqX5-FYp6ASR4","playlistName":"دليل الفالحين لطرق رياض الصالحين","category":"متنوع"},{"id":"d_gXy0jXICs","title":"151- لَا يَدْخُلُ الجَنَّةَ قَاطِعٌ - شرح دليل الفالحين","publishedAt":"2021-10-30T19:27:09Z","duration":"PT41M55S","thumbnail":"https://i.ytimg.com/vi/d_gXy0jXICs/mqdefault.jpg","viewCount":"1072","playlistId":"PLEkQk5xrP-tkc9DXvSLguqX5-FYp6ASR4","playlistName":"دليل الفالحين لطرق رياض الصالحين","category":"متنوع"},{"id":"sOWGLHoLFZA","title":"152- \"أَبَرُّ البِرِّ أنْ يَصِلَ الرَّجُلُ وُدَّ أبِيهِ\" - شرح دليل الفالحين","publishedAt":"2021-10-31T18:31:31Z","duration":"PT44M47S","thumbnail":"https://i.ytimg.com/vi/sOWGLHoLFZA/mqdefault.jpg","viewCount":"788","playlistId":"PLEkQk5xrP-tkc9DXvSLguqX5-FYp6ASR4","playlistName":"دليل الفالحين لطرق رياض الصالحين","category":"متنوع"},{"id":"r7B3o6yqND0","title":"الفُتوّة","publishedAt":"2021-11-01T04:24:42Z","duration":"PT7M33S","thumbnail":"https://i.ytimg.com/vi/r7B3o6yqND0/mqdefault.jpg","viewCount":"4507","playlistId":"PLEkQk5xrP-tm8ZIu74nTOZN9KJUJu416J","playlistName":"مقاطع مُهمَّة (يُسريَّات) أ.د. يسري جبر","category":"متنوع"},{"id":"grKuX971Q3E","title":"ما الفرق بين العارف بالله والعالِم؟","publishedAt":"2021-11-01T17:00:37Z","duration":"PT11M40S","thumbnail":"https://i.ytimg.com/vi/grKuX971Q3E/mqdefault.jpg","viewCount":"11446","playlistId":"PLEkQk5xrP-tm8ZIu74nTOZN9KJUJu416J","playlistName":"مقاطع مُهمَّة (يُسريَّات) أ.د. يسري جبر","category":"متنوع"},{"id":"eB2eaajmFJE","title":"153- \"ما غِرْتُ علَى أحَدٍ مِن نِسَاءِ النَّبيِّ ﷺ، ما غِرْتُ علَى خَدِيجَةَ…\" - شرح دليل الفالحين","publishedAt":"2021-11-03T02:27:52Z","duration":"PT31M8S","thumbnail":"https://i.ytimg.com/vi/eB2eaajmFJE/mqdefault.jpg","viewCount":"1430","playlistId":"PLEkQk5xrP-tkc9DXvSLguqX5-FYp6ASR4","playlistName":"دليل الفالحين لطرق رياض الصالحين","category":"متنوع"},{"id":"4xYCAPEPOxY","title":"154- إكرامُ أهل بيت رسول ﷺ وبيان فضلهم - شرح دليل الفالحين","publishedAt":"2021-11-07T06:06:58Z","duration":"PT51M45S","thumbnail":"https://i.ytimg.com/vi/4xYCAPEPOxY/mqdefault.jpg","viewCount":"4226","playlistId":"PLEkQk5xrP-tkc9DXvSLguqX5-FYp6ASR4","playlistName":"دليل الفالحين لطرق رياض الصالحين","category":"متنوع"},{"id":"HYt25-P_G6o","title":"هل التصوير حرام؟","publishedAt":"2021-11-07T19:35:42Z","duration":"PT8M46S","thumbnail":"https://i.ytimg.com/vi/HYt25-P_G6o/mqdefault.jpg","viewCount":"8504","playlistId":"PLEkQk5xrP-tkGXuZ9atE3k_7it12rUPTs","playlistName":"أسئلة المتابعين","category":"متنوع"},{"id":"yhcdvl4eFSY","title":"الإثبات العلمي لوجود الله","publishedAt":"2021-11-08T19:30:04Z","duration":"PT9M38S","thumbnail":"https://i.ytimg.com/vi/yhcdvl4eFSY/mqdefault.jpg","viewCount":"6974","playlistId":"PLEkQk5xrP-tlnvX_MSpJzq0sTimnumdYK","playlistName":"كيف تعرفُ نبيّك؟","category":"متنوع"},{"id":"r_X8AIUg7iw","title":"الاحتفال بختام ربيع الأنور وكلمة إمام مسجد سيدنا الحسين رضي الله عنه","publishedAt":"2021-11-09T21:06:30Z","duration":"PT23M25S","thumbnail":"https://i.ytimg.com/vi/r_X8AIUg7iw/mqdefault.jpg","viewCount":"2389","playlistId":"PLEkQk5xrP-tm8ZIu74nTOZN9KJUJu416J","playlistName":"مقاطع مُهمَّة (يُسريَّات) أ.د. يسري جبر","category":"متنوع"},{"id":"0IdotzWdclE","title":"كيف تُدافع عن نبيك ﷺ؟","publishedAt":"2021-11-13T18:00:01Z","duration":"PT11M20S","thumbnail":"https://i.ytimg.com/vi/0IdotzWdclE/mqdefault.jpg","viewCount":"3544","playlistId":"PLEkQk5xrP-tm8ZIu74nTOZN9KJUJu416J","playlistName":"مقاطع مُهمَّة (يُسريَّات) أ.د. يسري جبر","category":"متنوع"},{"id":"P6r3yavMOJ8","title":"علاج الضعف أمام المعاصي","publishedAt":"2021-11-14T19:23:48Z","duration":"PT9M50S","thumbnail":"https://i.ytimg.com/vi/P6r3yavMOJ8/mqdefault.jpg","viewCount":"7765","playlistId":"PLEkQk5xrP-tkGXuZ9atE3k_7it12rUPTs","playlistName":"أسئلة المتابعين","category":"متنوع"},{"id":"GSLXoeETu1U","title":"الفرق بين الشريعة والحقيقة والطريقة؟","publishedAt":"2021-11-15T20:23:50Z","duration":"PT26M50S","thumbnail":"https://i.ytimg.com/vi/GSLXoeETu1U/mqdefault.jpg","viewCount":"23297","playlistId":"PLEkQk5xrP-tm8ZIu74nTOZN9KJUJu416J","playlistName":"مقاطع مُهمَّة (يُسريَّات) أ.د. يسري جبر","category":"متنوع"},{"id":"zgipwNlsPEU","title":"155-  توقير العلماء والكبار وأهل الفضل - شرح دليل الفالحين","publishedAt":"2021-11-17T08:43:10Z","duration":"PT30M38S","thumbnail":"https://i.ytimg.com/vi/zgipwNlsPEU/mqdefault.jpg","viewCount":"962","playlistId":"PLEkQk5xrP-tkc9DXvSLguqX5-FYp6ASR4","playlistName":"دليل الفالحين لطرق رياض الصالحين","category":"متنوع"},{"id":"aIxRo9B_jGw","title":"كيف تعطي بلا مقابل؟","publishedAt":"2021-11-19T20:18:13Z","duration":"PT15M41S","thumbnail":"https://i.ytimg.com/vi/aIxRo9B_jGw/mqdefault.jpg","viewCount":"6378","playlistId":"PLEkQk5xrP-tm8ZIu74nTOZN9KJUJu416J","playlistName":"مقاطع مُهمَّة (يُسريَّات) أ.د. يسري جبر","category":"متنوع"},{"id":"50gnniZqpXc","title":"بمدح المصطفى تحيا القلوب","publishedAt":"2021-11-21T17:32:44Z","duration":"PT15M33S","thumbnail":"https://i.ytimg.com/vi/50gnniZqpXc/mqdefault.jpg","viewCount":"3660","playlistId":"PLEkQk5xrP-tlB8lmbwjAKR8KRgiykGKhb","playlistName":"حضرات يسرية ومدائح نبوية","category":"متنوع"},{"id":"Qa41-lgfvXU","title":"156- \"…لِيَلِنِي مِنكُم أُولو الأحْلَامِ والنُّهَى…\" - شرح دليل الفالحين","publishedAt":"2021-11-22T06:08:50Z","duration":"PT22M45S","thumbnail":"https://i.ytimg.com/vi/Qa41-lgfvXU/mqdefault.jpg","viewCount":"1351","playlistId":"PLEkQk5xrP-tkc9DXvSLguqX5-FYp6ASR4","playlistName":"دليل الفالحين لطرق رياض الصالحين","category":"متنوع"},{"id":"jkXtWErymgY","title":"157- “… إنَّ من إجلال الله تعالى إكرامَ ذي الشيبة المسلم…\" شرح دليل الفالحين","publishedAt":"2021-11-24T06:33:54Z","duration":"PT32M4S","thumbnail":"https://i.ytimg.com/vi/jkXtWErymgY/mqdefault.jpg","viewCount":"1310","playlistId":"PLEkQk5xrP-tkc9DXvSLguqX5-FYp6ASR4","playlistName":"دليل الفالحين لطرق رياض الصالحين","category":"متنوع"},{"id":"Ywju_GLi3Zs","title":"هل يجوز للمسلم دخول الكنيسة؟","publishedAt":"2021-11-24T19:58:02Z","duration":"PT10M7S","thumbnail":"https://i.ytimg.com/vi/Ywju_GLi3Zs/mqdefault.jpg","viewCount":"6264","playlistId":"PLEkQk5xrP-tkGXuZ9atE3k_7it12rUPTs","playlistName":"أسئلة المتابعين","category":"متنوع"},{"id":"2-Cm6rnxV-g","title":"158- \"…أَنزِلُوا النَّاسَ مَنازلَهُمْ…\" شرح دليل الفالحين","publishedAt":"2021-11-26T07:15:33Z","duration":"PT35M27S","thumbnail":"https://i.ytimg.com/vi/2-Cm6rnxV-g/mqdefault.jpg","viewCount":"1251","playlistId":"PLEkQk5xrP-tkc9DXvSLguqX5-FYp6ASR4","playlistName":"دليل الفالحين لطرق رياض الصالحين","category":"متنوع"},{"id":"jaEzU8YF6a0","title":"كيف نتعامل مع الجن؟","publishedAt":"2021-11-27T19:00:10Z","duration":"PT9M11S","thumbnail":"https://i.ytimg.com/vi/jaEzU8YF6a0/mqdefault.jpg","viewCount":"263112","playlistId":"PLEkQk5xrP-tkGXuZ9atE3k_7it12rUPTs","playlistName":"أسئلة المتابعين","category":"متنوع"},{"id":"-wqRcT4cLfU","title":"159- \"زيارة أهل الخير ومجالستهم وصحبتهم ومحبتهم…\" - شرح دليل الفالحين","publishedAt":"2021-11-28T06:51:57Z","duration":"PT38M50S","thumbnail":"https://i.ytimg.com/vi/-wqRcT4cLfU/mqdefault.jpg","viewCount":"1689","playlistId":"PLEkQk5xrP-tkc9DXvSLguqX5-FYp6ASR4","playlistName":"دليل الفالحين لطرق رياض الصالحين","category":"متنوع"},{"id":"Qll_nH7zXz0","title":"كيف يكون لك دور في نهضة الإسلام؟","publishedAt":"2021-11-28T18:00:08Z","duration":"PT10M49S","thumbnail":"https://i.ytimg.com/vi/Qll_nH7zXz0/mqdefault.jpg","viewCount":"5218","playlistId":"PLEkQk5xrP-tkGXuZ9atE3k_7it12rUPTs","playlistName":"أسئلة المتابعين","category":"متنوع"}],"total":4129,"page":113,"pageSize":24,"totalPages":173}