{"items":[{"id":"xNgj6HkDHo8","title":"كيف أنظم وقتي؟","publishedAt":"2022-08-21T18:00:30Z","duration":"PT8M48S","thumbnail":"https://i.ytimg.com/vi/xNgj6HkDHo8/mqdefault.jpg","viewCount":"22656","playlistId":"PLEkQk5xrP-tkGXuZ9atE3k_7it12rUPTs","playlistName":"أسئلة المتابعين","category":"متنوع"},{"id":"Zhw4TePuyDc","title":"290- حكم لبس العمامة السوداء - شرح دليل الفالحين","publishedAt":"2022-08-24T05:30:10Z","duration":"PT34M3S","thumbnail":"https://i.ytimg.com/vi/Zhw4TePuyDc/mqdefault.jpg","viewCount":"1224","playlistId":"PLEkQk5xrP-tkc9DXvSLguqX5-FYp6ASR4","playlistName":"دليل الفالحين لطرق رياض الصالحين","category":"متنوع"},{"id":"QefZZTur1Uo","title":"ما معنى قراءة الفاتحة لسيدنا محمد ﷺ؟","publishedAt":"2022-08-25T18:00:15Z","duration":"PT10M17S","thumbnail":"https://i.ytimg.com/vi/QefZZTur1Uo/mqdefault.jpg","viewCount":"7347","playlistId":"PLEkQk5xrP-tkGXuZ9atE3k_7it12rUPTs","playlistName":"أسئلة المتابعين","category":"متنوع"},{"id":"tMsWjMdX3K0","title":"هل يمكن الجمع بين الطب والعلم الشرعي والتصوف؟","publishedAt":"2022-08-26T06:15:02Z","duration":"PT1H32M23S","thumbnail":"https://i.ytimg.com/vi/tMsWjMdX3K0/mqdefault.jpg","viewCount":"9423","playlistId":"PLEkQk5xrP-tm8ZIu74nTOZN9KJUJu416J","playlistName":"مقاطع مُهمَّة (يُسريَّات) أ.د. يسري جبر","category":"متنوع"},{"id":"QAy9qvNTUvo","title":"291- استحباب القميص - شرح دليل الفالحين","publishedAt":"2022-08-27T18:15:03Z","duration":"PT52M41S","thumbnail":"https://i.ytimg.com/vi/QAy9qvNTUvo/mqdefault.jpg","viewCount":"1082","playlistId":"PLEkQk5xrP-tkc9DXvSLguqX5-FYp6ASR4","playlistName":"دليل الفالحين لطرق رياض الصالحين","category":"متنوع"},{"id":"06Ry9VJCvhM","title":"13- كَلَامُهُ وَالسَّمْعُ وَالإِبْصَارُ *** فَهْوَ الإِلَهُ الفَاعِلُ المُخْتَارُ","publishedAt":"2022-08-28T19:45:00Z","duration":"PT52M38S","thumbnail":"https://i.ytimg.com/vi/06Ry9VJCvhM/mqdefault.jpg","viewCount":"2602","playlistId":"PLEkQk5xrP-tmNuYT8JAh6clwa4krsgkNo","playlistName":"شرح كتاب الفُتُوحات اليُسريَّة في عقائد الأُمَّة المُحمَّديَّة","category":"متنوع"},{"id":"OCb270j89o4","title":"292- صفة طُول القَميصِ والكُمِّ والإزارِ وطرفِ العِمَامةِ… - شرح دليل الفالحين","publishedAt":"2022-08-29T06:15:00Z","duration":"PT57M27S","thumbnail":"https://i.ytimg.com/vi/OCb270j89o4/mqdefault.jpg","viewCount":"1043","playlistId":"PLEkQk5xrP-tkc9DXvSLguqX5-FYp6ASR4","playlistName":"دليل الفالحين لطرق رياض الصالحين","category":"متنوع"},{"id":"dOCmnLHZLbM","title":"293- استحبابُ تركِ التَّرفُّعِ في اللباسِ تواضُعًا - شرح دليل الفالحين","publishedAt":"2022-08-30T06:15:03Z","duration":"PT51M14S","thumbnail":"https://i.ytimg.com/vi/dOCmnLHZLbM/mqdefault.jpg","viewCount":"801","playlistId":"PLEkQk5xrP-tkc9DXvSLguqX5-FYp6ASR4","playlistName":"دليل الفالحين لطرق رياض الصالحين","category":"متنوع"},{"id":"NPuPePQnnbY","title":"294- النهي عن افتراش جلود النمور والركوب عليها - شرح دليل الفالحين","publishedAt":"2022-08-30T18:30:32Z","duration":"PT35M32S","thumbnail":"https://i.ytimg.com/vi/NPuPePQnnbY/mqdefault.jpg","viewCount":"918","playlistId":"PLEkQk5xrP-tkc9DXvSLguqX5-FYp6ASR4","playlistName":"دليل الفالحين لطرق رياض الصالحين","category":"متنوع"},{"id":"Lkpahq5GGYc","title":"295- آدَابُ النَّومِ - شرح دليل الفالحين","publishedAt":"2022-09-01T06:30:06Z","duration":"PT35M13S","thumbnail":"https://i.ytimg.com/vi/Lkpahq5GGYc/mqdefault.jpg","viewCount":"1362","playlistId":"PLEkQk5xrP-tkc9DXvSLguqX5-FYp6ASR4","playlistName":"دليل الفالحين لطرق رياض الصالحين","category":"متنوع"},{"id":"_uGA8Aet6-U","title":"قدسية عقد الزواج وسر نجاحه","publishedAt":"2022-09-01T19:00:24Z","duration":"PT20M35S","thumbnail":"https://i.ytimg.com/vi/_uGA8Aet6-U/mqdefault.jpg","viewCount":"4174","playlistId":"PLEkQk5xrP-tm8ZIu74nTOZN9KJUJu416J","playlistName":"مقاطع مُهمَّة (يُسريَّات) أ.د. يسري جبر","category":"متنوع"},{"id":"4rLIylIeJLY","title":"296- آدابُ النَّومِ وهَيْئَتهِ (2) - شرح دليل الفالحين","publishedAt":"2022-09-02T19:20:00Z","duration":"PT51M53S","thumbnail":"https://i.ytimg.com/vi/4rLIylIeJLY/mqdefault.jpg","viewCount":"1112","playlistId":"PLEkQk5xrP-tkc9DXvSLguqX5-FYp6ASR4","playlistName":"دليل الفالحين لطرق رياض الصالحين","category":"متنوع"},{"id":"EhRF8fKyRnQ","title":"297- آدابُ المجلس والجليس - شرح دليل الفالحين","publishedAt":"2022-09-04T06:20:00Z","duration":"PT1H1M21S","thumbnail":"https://i.ytimg.com/vi/EhRF8fKyRnQ/mqdefault.jpg","viewCount":"1134","playlistId":"PLEkQk5xrP-tkc9DXvSLguqX5-FYp6ASR4","playlistName":"دليل الفالحين لطرق رياض الصالحين","category":"متنوع"},{"id":"wyj6UMP9Jm4","title":"كيفية تعليم الثقافة الجنسية للأطفال بشكل صحيح؟","publishedAt":"2022-09-04T19:01:51Z","duration":"PT10M5S","thumbnail":"https://i.ytimg.com/vi/wyj6UMP9Jm4/mqdefault.jpg","viewCount":"8393","playlistId":"PLEkQk5xrP-tkGXuZ9atE3k_7it12rUPTs","playlistName":"أسئلة المتابعين","category":"متنوع"},{"id":"-V7AJoSJJlE","title":"298- باب الرُّؤْيَا - شرح دليل الفالحين","publishedAt":"2022-09-06T08:09:33Z","duration":"PT50M27S","thumbnail":"https://i.ytimg.com/vi/-V7AJoSJJlE/mqdefault.jpg","viewCount":"1474","playlistId":"PLEkQk5xrP-tkc9DXvSLguqX5-FYp6ASR4","playlistName":"دليل الفالحين لطرق رياض الصالحين","category":"متنوع"},{"id":"4CnFB9j-4Es","title":"هل يوجد أسرار في التصوف؟","publishedAt":"2022-09-06T18:30:03Z","duration":"PT11M6S","thumbnail":"https://i.ytimg.com/vi/4CnFB9j-4Es/mqdefault.jpg","viewCount":"46261","playlistId":"PLEkQk5xrP-tkGXuZ9atE3k_7it12rUPTs","playlistName":"أسئلة المتابعين","category":"متنوع"},{"id":"xabAto0zmZs","title":"299- فَضْلُ السَّلامِ والأَمْرُ بِه - شرح دليل الفالحين","publishedAt":"2022-09-08T06:00:13Z","duration":"PT49M52S","thumbnail":"https://i.ytimg.com/vi/xabAto0zmZs/mqdefault.jpg","viewCount":"800","playlistId":"PLEkQk5xrP-tkc9DXvSLguqX5-FYp6ASR4","playlistName":"دليل الفالحين لطرق رياض الصالحين","category":"متنوع"},{"id":"-_uKnDI8yxU","title":"ما الدليل على أن العوالم خلقت من نور سيدنا محمد ﷺ؟","publishedAt":"2022-09-08T19:01:47Z","duration":"PT9M30S","thumbnail":"https://i.ytimg.com/vi/-_uKnDI8yxU/mqdefault.jpg","viewCount":"13534","playlistId":"PLEkQk5xrP-tkGXuZ9atE3k_7it12rUPTs","playlistName":"أسئلة المتابعين","category":"متنوع"},{"id":"5MBNPCyEZXI","title":"ما حكم الخروج على الحاكم الظالم؟","publishedAt":"2022-09-09T18:00:02Z","duration":"PT10M55S","thumbnail":"https://i.ytimg.com/vi/5MBNPCyEZXI/mqdefault.jpg","viewCount":"7688","playlistId":"PLEkQk5xrP-tkGXuZ9atE3k_7it12rUPTs","playlistName":"أسئلة المتابعين","category":"متنوع"},{"id":"cll9vq-m3yE","title":"ما معنى الجذب ومن هم المجاذيب؟","publishedAt":"2022-09-10T18:00:24Z","duration":"PT8M17S","thumbnail":"https://i.ytimg.com/vi/cll9vq-m3yE/mqdefault.jpg","viewCount":"64491","playlistId":"PLEkQk5xrP-tkGXuZ9atE3k_7it12rUPTs","playlistName":"أسئلة المتابعين","category":"متنوع"},{"id":"kLyuLkiIm3w","title":"300- كَيْفِيَّةُ السَّلَامِ - شرح دليل الفالحين","publishedAt":"2022-09-11T06:15:02Z","duration":"PT47M22S","thumbnail":"https://i.ytimg.com/vi/kLyuLkiIm3w/mqdefault.jpg","viewCount":"913","playlistId":"PLEkQk5xrP-tkc9DXvSLguqX5-FYp6ASR4","playlistName":"دليل الفالحين لطرق رياض الصالحين","category":"متنوع"},{"id":"5myVDsmu5oE","title":"1- شرح منظومة منجية العبيد في علم التوحيد","publishedAt":"2022-09-13T05:15:00Z","duration":"PT27M25S","thumbnail":"https://i.ytimg.com/vi/5myVDsmu5oE/mqdefault.jpg","viewCount":"2539","playlistId":"PLEkQk5xrP-tk3OeVFoMfKhOhyINnlPeYZ","playlistName":"الحَضْرَةُ الصِّدِّيقِيَّة والأوْرَاد","category":"متنوع"},{"id":"GIajV8B-55k","title":"14- ومَن يقُلْ فِعْلُ الصَّلاحِ وَجَبَا *** على الإِلَه قَدْ أَسَاءَ الأَدَبَا - شرح الخريدة البهيّة","publishedAt":"2022-09-14T06:00:08Z","duration":"PT59M39S","thumbnail":"https://i.ytimg.com/vi/GIajV8B-55k/mqdefault.jpg","viewCount":"2534","playlistId":"PLEkQk5xrP-tmNuYT8JAh6clwa4krsgkNo","playlistName":"شرح كتاب الفُتُوحات اليُسريَّة في عقائد الأُمَّة المُحمَّديَّة","category":"متنوع"},{"id":"YH_lk_77LdY","title":"301- آدَابُ السَّلَام - شرح دليل الفالحين","publishedAt":"2022-09-16T06:00:09Z","duration":"PT33M15S","thumbnail":"https://i.ytimg.com/vi/YH_lk_77LdY/mqdefault.jpg","viewCount":"702","playlistId":"PLEkQk5xrP-tkc9DXvSLguqX5-FYp6ASR4","playlistName":"دليل الفالحين لطرق رياض الصالحين","category":"متنوع"}],"total":4129,"page":126,"pageSize":24,"totalPages":173}