{"items":[{"id":"sJpwFQv1aKY","title":"مقرأة سورة النبأ من آية ٣١","publishedAt":"2019-06-13T11:09:08Z","duration":"PT8M18S","thumbnail":"https://i.ytimg.com/vi/sJpwFQv1aKY/mqdefault.jpg","viewCount":"544","playlistId":"PLEkQk5xrP-tnmTYsyW6xNdyfhPq0Bhrhj","playlistName":"مقرأة الفجر - القُرْآنُ الكَرِيمُ - خَتْمَةُ التَّدَبُّرِ  أ.د. يسري جبر","category":"متنوع"},{"id":"5H7PFClJnGE","title":"شرح سنن الدارمي كتاب الصوم من باب ٧","publishedAt":"2019-06-13T21:41:17Z","duration":"PT25M31S","thumbnail":"https://i.ytimg.com/vi/5H7PFClJnGE/mqdefault.jpg","viewCount":"333","playlistId":"PLEkQk5xrP-tmAg-FuWjY057X_h5NmGmAa","playlistName":"شرح سنن الدارمي - أ.د. يسري جبر (كاملا)","category":"متنوع"},{"id":"P6Xmq9Og32s","title":"مقرأة سورة النازعات من أولها","publishedAt":"2019-06-14T12:31:06Z","duration":"PT9M3S","thumbnail":"https://i.ytimg.com/vi/P6Xmq9Og32s/mqdefault.jpg","viewCount":"769","playlistId":"PLEkQk5xrP-tnmTYsyW6xNdyfhPq0Bhrhj","playlistName":"مقرأة الفجر - القُرْآنُ الكَرِيمُ - خَتْمَةُ التَّدَبُّرِ  أ.د. يسري جبر","category":"متنوع"},{"id":"i4VvgPBq378","title":"شرح سنن الدارمي كتاب الصوم من باب ١٤","publishedAt":"2019-06-14T20:11:06Z","duration":"PT22M10S","thumbnail":"https://i.ytimg.com/vi/i4VvgPBq378/mqdefault.jpg","viewCount":"325","playlistId":"PLEkQk5xrP-tmAg-FuWjY057X_h5NmGmAa","playlistName":"شرح سنن الدارمي - أ.د. يسري جبر (كاملا)","category":"متنوع"},{"id":"ZhMhaam8PSk","title":"مقرأة سورة النازعات من آية ١٥","publishedAt":"2019-06-15T09:22:21Z","duration":"PT9M57S","thumbnail":"https://i.ytimg.com/vi/ZhMhaam8PSk/mqdefault.jpg","viewCount":"683","playlistId":"PLEkQk5xrP-tnmTYsyW6xNdyfhPq0Bhrhj","playlistName":"مقرأة الفجر - القُرْآنُ الكَرِيمُ - خَتْمَةُ التَّدَبُّرِ  أ.د. يسري جبر","category":"متنوع"},{"id":"Zssc6IS69n0","title":"شرح سنن الدارمي كتاب الصوم من باب ١٨","publishedAt":"2019-06-16T00:04:47Z","duration":"PT22M47S","thumbnail":"https://i.ytimg.com/vi/Zssc6IS69n0/mqdefault.jpg","viewCount":"312","playlistId":"PLEkQk5xrP-tmAg-FuWjY057X_h5NmGmAa","playlistName":"شرح سنن الدارمي - أ.د. يسري جبر (كاملا)","category":"متنوع"},{"id":"ymfaihOL1yI","title":"مقرأة سورة النازعات من آية ٢٧","publishedAt":"2019-06-16T14:32:26Z","duration":"PT6M27S","thumbnail":"https://i.ytimg.com/vi/ymfaihOL1yI/mqdefault.jpg","viewCount":"494","playlistId":"PLEkQk5xrP-tnmTYsyW6xNdyfhPq0Bhrhj","playlistName":"مقرأة الفجر - القُرْآنُ الكَرِيمُ - خَتْمَةُ التَّدَبُّرِ  أ.د. يسري جبر","category":"متنوع"},{"id":"988NJsRVRgk","title":"شرح سنن الدارمي كتاب الصوم من باب ٢٤","publishedAt":"2019-06-16T23:38:45Z","duration":"PT21M42S","thumbnail":"https://i.ytimg.com/vi/988NJsRVRgk/mqdefault.jpg","viewCount":"341","playlistId":"PLEkQk5xrP-tmAg-FuWjY057X_h5NmGmAa","playlistName":"شرح سنن الدارمي - أ.د. يسري جبر (كاملا)","category":"متنوع"},{"id":"gfHyv3O5zlo","title":"مقرأة سورة النازعات من آية ٣٤","publishedAt":"2019-06-17T20:50:52Z","duration":"PT10M19S","thumbnail":"https://i.ytimg.com/vi/gfHyv3O5zlo/mqdefault.jpg","viewCount":"481","playlistId":"PLEkQk5xrP-tnmTYsyW6xNdyfhPq0Bhrhj","playlistName":"مقرأة الفجر - القُرْآنُ الكَرِيمُ - خَتْمَةُ التَّدَبُّرِ  أ.د. يسري جبر","category":"متنوع"},{"id":"ctQeeLxiqa8","title":"شرح سنن الدارمي كتاب الصوم من باب ٣٣","publishedAt":"2019-06-18T01:42:44Z","duration":"PT21M57S","thumbnail":"https://i.ytimg.com/vi/ctQeeLxiqa8/mqdefault.jpg","viewCount":"348","playlistId":"PLEkQk5xrP-tmAg-FuWjY057X_h5NmGmAa","playlistName":"شرح سنن الدارمي - أ.د. يسري جبر (كاملا)","category":"متنوع"},{"id":"ESiWL0gaAlk","title":"مقرأة سورة عبس من أولها","publishedAt":"2019-06-19T10:55:21Z","duration":"PT18M51S","thumbnail":"https://i.ytimg.com/vi/ESiWL0gaAlk/mqdefault.jpg","viewCount":"1911","playlistId":"PLEkQk5xrP-tnmTYsyW6xNdyfhPq0Bhrhj","playlistName":"مقرأة الفجر - القُرْآنُ الكَرِيمُ - خَتْمَةُ التَّدَبُّرِ  أ.د. يسري جبر","category":"متنوع"},{"id":"2OuovZrHx7Q","title":"شرح سنن الدارمي كتاب الصوم من باب ٤٥","publishedAt":"2019-06-19T21:29:58Z","duration":"PT29M23S","thumbnail":"https://i.ytimg.com/vi/2OuovZrHx7Q/mqdefault.jpg","viewCount":"357","playlistId":"PLEkQk5xrP-tmAg-FuWjY057X_h5NmGmAa","playlistName":"شرح سنن الدارمي - أ.د. يسري جبر (كاملا)","category":"متنوع"},{"id":"s4_2FraYEXQ","title":"مقرأة سورة عبس من آية ١٣","publishedAt":"2019-06-20T15:06:42Z","duration":"PT20M11S","thumbnail":"https://i.ytimg.com/vi/s4_2FraYEXQ/mqdefault.jpg","viewCount":"764","playlistId":"PLEkQk5xrP-tnmTYsyW6xNdyfhPq0Bhrhj","playlistName":"مقرأة الفجر - القُرْآنُ الكَرِيمُ - خَتْمَةُ التَّدَبُّرِ  أ.د. يسري جبر","category":"متنوع"},{"id":"tT9CP4eSCMs","title":"شرح سنن الدارمي كتاب المناسك من أوله","publishedAt":"2019-06-20T22:54:32Z","duration":"PT10M29S","thumbnail":"https://i.ytimg.com/vi/tT9CP4eSCMs/mqdefault.jpg","viewCount":"441","playlistId":"PLEkQk5xrP-tmAg-FuWjY057X_h5NmGmAa","playlistName":"شرح سنن الدارمي - أ.د. يسري جبر (كاملا)","category":"متنوع"},{"id":"gqU4a0Xkvcs","title":"مقرأة سورة التكوير من أولها","publishedAt":"2019-06-30T10:16:54Z","duration":"PT14M","thumbnail":"https://i.ytimg.com/vi/gqU4a0Xkvcs/mqdefault.jpg","viewCount":"808","playlistId":"PLEkQk5xrP-tnmTYsyW6xNdyfhPq0Bhrhj","playlistName":"مقرأة الفجر - القُرْآنُ الكَرِيمُ - خَتْمَةُ التَّدَبُّرِ  أ.د. يسري جبر","category":"متنوع"},{"id":"pGjXHEDhSY8","title":"شرح سنن الدارمي كتاب المناسك من باب ٥","publishedAt":"2019-06-30T20:13:51Z","duration":"PT24M40S","thumbnail":"https://i.ytimg.com/vi/pGjXHEDhSY8/mqdefault.jpg","viewCount":"330","playlistId":"PLEkQk5xrP-tmAg-FuWjY057X_h5NmGmAa","playlistName":"شرح سنن الدارمي - أ.د. يسري جبر (كاملا)","category":"متنوع"},{"id":"VmwXdgGlES0","title":"مقرأة سورة التكوير من آية ١٥","publishedAt":"2019-07-01T10:52:46Z","duration":"PT17M27S","thumbnail":"https://i.ytimg.com/vi/VmwXdgGlES0/mqdefault.jpg","viewCount":"567","playlistId":"PLEkQk5xrP-tnmTYsyW6xNdyfhPq0Bhrhj","playlistName":"مقرأة الفجر - القُرْآنُ الكَرِيمُ - خَتْمَةُ التَّدَبُّرِ  أ.د. يسري جبر","category":"متنوع"},{"id":"31Z8AFpwIEs","title":"شرح سنن الدارمي كتاب المناسك من باب ١٠","publishedAt":"2019-07-01T22:49:14Z","duration":"PT28M1S","thumbnail":"https://i.ytimg.com/vi/31Z8AFpwIEs/mqdefault.jpg","viewCount":"303","playlistId":"PLEkQk5xrP-tmAg-FuWjY057X_h5NmGmAa","playlistName":"شرح سنن الدارمي - أ.د. يسري جبر (كاملا)","category":"متنوع"},{"id":"KkIx-fFCmN0","title":"مقرأة سورة الانفطار من أولها","publishedAt":"2019-07-02T09:32:07Z","duration":"PT21M5S","thumbnail":"https://i.ytimg.com/vi/KkIx-fFCmN0/mqdefault.jpg","viewCount":"613","playlistId":"PLEkQk5xrP-tnmTYsyW6xNdyfhPq0Bhrhj","playlistName":"مقرأة الفجر - القُرْآنُ الكَرِيمُ - خَتْمَةُ التَّدَبُّرِ  أ.د. يسري جبر","category":"متنوع"},{"id":"rhdAhbVORQI","title":"شرح سنن الدارمي كتاب المناسك من باب ١٦","publishedAt":"2019-07-02T21:20:01Z","duration":"PT27M36S","thumbnail":"https://i.ytimg.com/vi/rhdAhbVORQI/mqdefault.jpg","viewCount":"341","playlistId":"PLEkQk5xrP-tmAg-FuWjY057X_h5NmGmAa","playlistName":"شرح سنن الدارمي - أ.د. يسري جبر (كاملا)","category":"متنوع"},{"id":"W5c279DY37o","title":"مقرأة سورة المطففين من أولها","publishedAt":"2019-07-03T11:21:33Z","duration":"PT17M2S","thumbnail":"https://i.ytimg.com/vi/W5c279DY37o/mqdefault.jpg","viewCount":"675","playlistId":"PLEkQk5xrP-tnmTYsyW6xNdyfhPq0Bhrhj","playlistName":"مقرأة الفجر - القُرْآنُ الكَرِيمُ - خَتْمَةُ التَّدَبُّرِ  أ.د. يسري جبر","category":"متنوع"},{"id":"_G2tuhOxE2I","title":"شرح سنن الدارمي كتاب المناسك من باب ٢٢","publishedAt":"2019-07-03T21:56:40Z","duration":"PT25M20S","thumbnail":"https://i.ytimg.com/vi/_G2tuhOxE2I/mqdefault.jpg","viewCount":"282","playlistId":"PLEkQk5xrP-tmAg-FuWjY057X_h5NmGmAa","playlistName":"شرح سنن الدارمي - أ.د. يسري جبر (كاملا)","category":"متنوع"},{"id":"cRH2BwXS7UQ","title":"مقرأة سورة المطففين من آية ١٨","publishedAt":"2019-07-04T10:15:49Z","duration":"PT9M55S","thumbnail":"https://i.ytimg.com/vi/cRH2BwXS7UQ/mqdefault.jpg","viewCount":"378","playlistId":"PLEkQk5xrP-tnmTYsyW6xNdyfhPq0Bhrhj","playlistName":"مقرأة الفجر - القُرْآنُ الكَرِيمُ - خَتْمَةُ التَّدَبُّرِ  أ.د. يسري جبر","category":"متنوع"},{"id":"vrvplf6AoDI","title":"شرح سنن الدارمي كتاب المناسك من باب ٢٧","publishedAt":"2019-07-04T20:46:06Z","duration":"PT25M","thumbnail":"https://i.ytimg.com/vi/vrvplf6AoDI/mqdefault.jpg","viewCount":"350","playlistId":"PLEkQk5xrP-tmAg-FuWjY057X_h5NmGmAa","playlistName":"شرح سنن الدارمي - أ.د. يسري جبر (كاملا)","category":"متنوع"}],"total":4129,"page":80,"pageSize":24,"totalPages":173}