{"items":[{"id":"mRlXW9wYFzg","title":"8- حديث الإسراء والمعراج بنبينا صلى الله عليه وآله وسلم (المجلس الثامن). د. يسري جبر","publishedAt":"2018-06-28T09:57:53Z","duration":"PT31M41S","thumbnail":"https://i.ytimg.com/vi/mRlXW9wYFzg/mqdefault.jpg","viewCount":"866","playlistId":"PLEkQk5xrP-tnl7vb7KeAoPd5ZlqKKW8KV","playlistName":"شرح كتاب بهجة النفوس أ.د . يسرى جبر","category":"متنوع"},{"id":"x_dGxQL1ozY","title":"9- حديث الإسراء والمعراج بنبينا صلى الله عليه وآله وسلم (المجلس التاسع). د. يسري جبر","publishedAt":"2018-06-28T10:00:39Z","duration":"PT36M48S","thumbnail":"https://i.ytimg.com/vi/x_dGxQL1ozY/mqdefault.jpg","viewCount":"730","playlistId":"PLEkQk5xrP-tnl7vb7KeAoPd5ZlqKKW8KV","playlistName":"شرح كتاب بهجة النفوس أ.د . يسرى جبر","category":"متنوع"},{"id":"mIOLPOwAR7s","title":"مقرأة سورة لقمان من أولها","publishedAt":"2018-06-28T13:38:02Z","duration":"PT11M6S","thumbnail":"https://i.ytimg.com/vi/mIOLPOwAR7s/mqdefault.jpg","viewCount":"383","playlistId":"PLEkQk5xrP-tnmTYsyW6xNdyfhPq0Bhrhj","playlistName":"مقرأة الفجر - القُرْآنُ الكَرِيمُ - خَتْمَةُ التَّدَبُّرِ  أ.د. يسري جبر","category":"متنوع"},{"id":"BZpI2EwGoC4","title":"10- حديث الإسراء والمعراج بنبينا صلى الله عليه وآله وسلم (المجلس العاشر). د. يسري جبر","publishedAt":"2018-06-29T09:14:15Z","duration":"PT34M48S","thumbnail":"https://i.ytimg.com/vi/BZpI2EwGoC4/mqdefault.jpg","viewCount":"711","playlistId":"PLEkQk5xrP-tnl7vb7KeAoPd5ZlqKKW8KV","playlistName":"شرح كتاب بهجة النفوس أ.د . يسرى جبر","category":"متنوع"},{"id":"mWlu2v3Bd_g","title":"مقرأة سورة لقمان من آية ٦","publishedAt":"2018-06-30T13:05:03Z","duration":"PT21M6S","thumbnail":"https://i.ytimg.com/vi/mWlu2v3Bd_g/mqdefault.jpg","viewCount":"520","playlistId":"PLEkQk5xrP-tnmTYsyW6xNdyfhPq0Bhrhj","playlistName":"مقرأة الفجر - القُرْآنُ الكَرِيمُ - خَتْمَةُ التَّدَبُّرِ  أ.د. يسري جبر","category":"متنوع"},{"id":"zU3hXFiLW1c","title":"مقرأة سورة لقمان من آية ١٠","publishedAt":"2018-07-01T12:48:57Z","duration":"PT14M46S","thumbnail":"https://i.ytimg.com/vi/zU3hXFiLW1c/mqdefault.jpg","viewCount":"317","playlistId":"PLEkQk5xrP-tnmTYsyW6xNdyfhPq0Bhrhj","playlistName":"مقرأة الفجر - القُرْآنُ الكَرِيمُ - خَتْمَةُ التَّدَبُّرِ  أ.د. يسري جبر","category":"متنوع"},{"id":"LcQBOvB3qBU","title":"مقرأة سورة لقمان من آية ١٣","publishedAt":"2018-07-02T19:19:19Z","duration":"PT13M55S","thumbnail":"https://i.ytimg.com/vi/LcQBOvB3qBU/mqdefault.jpg","viewCount":"432","playlistId":"PLEkQk5xrP-tnmTYsyW6xNdyfhPq0Bhrhj","playlistName":"مقرأة الفجر - القُرْآنُ الكَرِيمُ - خَتْمَةُ التَّدَبُّرِ  أ.د. يسري جبر","category":"متنوع"},{"id":"AD8t0he8Gr0","title":"مقرأة سورة لقمان من آية ١٦","publishedAt":"2018-07-03T11:51:22Z","duration":"PT30M35S","thumbnail":"https://i.ytimg.com/vi/AD8t0he8Gr0/mqdefault.jpg","viewCount":"409","playlistId":"PLEkQk5xrP-tnmTYsyW6xNdyfhPq0Bhrhj","playlistName":"مقرأة الفجر - القُرْآنُ الكَرِيمُ - خَتْمَةُ التَّدَبُّرِ  أ.د. يسري جبر","category":"متنوع"},{"id":"fZ4KctCHYuU","title":"64- باب مَا جَاءَ فِى الإِحْصَانِ ك الموطأ د يسري جبر الأزهري","publishedAt":"2018-07-03T16:29:24Z","duration":"PT51M28S","thumbnail":"https://i.ytimg.com/vi/fZ4KctCHYuU/mqdefault.jpg","viewCount":"244","playlistId":"PLEkQk5xrP-tnC6BRuqMjyO-484iqXeg0o","playlistName":"شرح كتاب الموطأ للإمام مالك","category":"متنوع"},{"id":"qBD1eRIOG0g","title":"مقرأة سورة لقمان من آية ٢٠","publishedAt":"2018-07-04T10:37:44Z","duration":"PT25M29S","thumbnail":"https://i.ytimg.com/vi/qBD1eRIOG0g/mqdefault.jpg","viewCount":"352","playlistId":"PLEkQk5xrP-tnmTYsyW6xNdyfhPq0Bhrhj","playlistName":"مقرأة الفجر - القُرْآنُ الكَرِيمُ - خَتْمَةُ التَّدَبُّرِ  أ.د. يسري جبر","category":"متنوع"},{"id":"5qkLlf_sL_s","title":"مقرأة سورة لقمان من آية ٢٥","publishedAt":"2018-07-05T10:25:10Z","duration":"PT19M31S","thumbnail":"https://i.ytimg.com/vi/5qkLlf_sL_s/mqdefault.jpg","viewCount":"350","playlistId":"PLEkQk5xrP-tnmTYsyW6xNdyfhPq0Bhrhj","playlistName":"مقرأة الفجر - القُرْآنُ الكَرِيمُ - خَتْمَةُ التَّدَبُّرِ  أ.د. يسري جبر","category":"متنوع"},{"id":"XdtEAiaZhXA","title":"مقرأة سورة لقمان من آية ٢٩","publishedAt":"2018-07-07T14:38:00Z","duration":"PT16M26S","thumbnail":"https://i.ytimg.com/vi/XdtEAiaZhXA/mqdefault.jpg","viewCount":"259","playlistId":"PLEkQk5xrP-tnmTYsyW6xNdyfhPq0Bhrhj","playlistName":"مقرأة الفجر - القُرْآنُ الكَرِيمُ - خَتْمَةُ التَّدَبُّرِ  أ.د. يسري جبر","category":"متنوع"},{"id":"9u12O0ga7XM","title":"مقرأة سورة لقمان من آية ٣٣","publishedAt":"2018-07-09T13:41:50Z","duration":"PT17M7S","thumbnail":"https://i.ytimg.com/vi/9u12O0ga7XM/mqdefault.jpg","viewCount":"272","playlistId":"PLEkQk5xrP-tnmTYsyW6xNdyfhPq0Bhrhj","playlistName":"مقرأة الفجر - القُرْآنُ الكَرِيمُ - خَتْمَةُ التَّدَبُّرِ  أ.د. يسري جبر","category":"متنوع"},{"id":"RBNqT9xFSzQ","title":"مقرأة سورة السجدة من أولها","publishedAt":"2018-07-10T10:19:59Z","duration":"PT14M42S","thumbnail":"https://i.ytimg.com/vi/RBNqT9xFSzQ/mqdefault.jpg","viewCount":"692","playlistId":"PLEkQk5xrP-tnmTYsyW6xNdyfhPq0Bhrhj","playlistName":"مقرأة الفجر - القُرْآنُ الكَرِيمُ - خَتْمَةُ التَّدَبُّرِ  أ.د. يسري جبر","category":"متنوع"},{"id":"5fGwp3iUsyc","title":"مقرأة سورة السجدة من آية ٦","publishedAt":"2018-07-11T10:59:42Z","duration":"PT7M33S","thumbnail":"https://i.ytimg.com/vi/5fGwp3iUsyc/mqdefault.jpg","viewCount":"320","playlistId":"PLEkQk5xrP-tnmTYsyW6xNdyfhPq0Bhrhj","playlistName":"مقرأة الفجر - القُرْآنُ الكَرِيمُ - خَتْمَةُ التَّدَبُّرِ  أ.د. يسري جبر","category":"متنوع"},{"id":"W0x8mZ-VnT0","title":"65- باب مَا جَاءَ فِى الْبَتَّةِ  ك الموطأ د يسري جبر الأزهري","publishedAt":"2018-07-11T11:03:37Z","duration":"PT46M34S","thumbnail":"https://i.ytimg.com/vi/W0x8mZ-VnT0/mqdefault.jpg","viewCount":"272","playlistId":"PLEkQk5xrP-tnC6BRuqMjyO-484iqXeg0o","playlistName":"شرح كتاب الموطأ للإمام مالك","category":"متنوع"},{"id":"qVglRk1fgB8","title":"مقرأة سورة السجدة من آية ١١","publishedAt":"2018-07-12T10:45:19Z","duration":"PT19M37S","thumbnail":"https://i.ytimg.com/vi/qVglRk1fgB8/mqdefault.jpg","viewCount":"408","playlistId":"PLEkQk5xrP-tnmTYsyW6xNdyfhPq0Bhrhj","playlistName":"مقرأة الفجر - القُرْآنُ الكَرِيمُ - خَتْمَةُ التَّدَبُّرِ  أ.د. يسري جبر","category":"متنوع"},{"id":"X85gmxsHtSU","title":"مقرأة سورة السجدة من آية ١٨","publishedAt":"2018-07-14T15:01:38Z","duration":"PT14M25S","thumbnail":"https://i.ytimg.com/vi/X85gmxsHtSU/mqdefault.jpg","viewCount":"372","playlistId":"PLEkQk5xrP-tnmTYsyW6xNdyfhPq0Bhrhj","playlistName":"مقرأة الفجر - القُرْآنُ الكَرِيمُ - خَتْمَةُ التَّدَبُّرِ  أ.د. يسري جبر","category":"متنوع"},{"id":"gyZ2W8A1Bbo","title":"مقرأة سورة السجدة من آية ٢٤","publishedAt":"2018-07-15T12:01:54Z","duration":"PT13M9S","thumbnail":"https://i.ytimg.com/vi/gyZ2W8A1Bbo/mqdefault.jpg","viewCount":"410","playlistId":"PLEkQk5xrP-tnmTYsyW6xNdyfhPq0Bhrhj","playlistName":"مقرأة الفجر - القُرْآنُ الكَرِيمُ - خَتْمَةُ التَّدَبُّرِ  أ.د. يسري جبر","category":"متنوع"},{"id":"1mLMR9GbjiI","title":"مقرأة سورة الأحزاب من أولها","publishedAt":"2018-07-16T11:19:03Z","duration":"PT16M58S","thumbnail":"https://i.ytimg.com/vi/1mLMR9GbjiI/mqdefault.jpg","viewCount":"661","playlistId":"PLEkQk5xrP-tnmTYsyW6xNdyfhPq0Bhrhj","playlistName":"مقرأة الفجر - القُرْآنُ الكَرِيمُ - خَتْمَةُ التَّدَبُّرِ  أ.د. يسري جبر","category":"متنوع"},{"id":"G8s3nIv_tf8","title":"83- باب مَا جَاءَ فِى الشَّرِكَةِ وَالتَّوْلِيَةِ وَالإِقَالَةِ شرح الموطأ د يسري جبر","publishedAt":"2018-07-16T22:26:46Z","duration":"PT1H1M11S","thumbnail":"https://i.ytimg.com/vi/G8s3nIv_tf8/mqdefault.jpg","viewCount":"295","playlistId":"PLEkQk5xrP-tnC6BRuqMjyO-484iqXeg0o","playlistName":"شرح كتاب الموطأ للإمام مالك","category":"متنوع"},{"id":"jajlXeX8Ru8","title":"مقرأة سورة الأحزاب من ٱية ٦","publishedAt":"2018-07-17T10:55:52Z","duration":"PT19M41S","thumbnail":"https://i.ytimg.com/vi/jajlXeX8Ru8/mqdefault.jpg","viewCount":"378","playlistId":"PLEkQk5xrP-tnmTYsyW6xNdyfhPq0Bhrhj","playlistName":"مقرأة الفجر - القُرْآنُ الكَرِيمُ - خَتْمَةُ التَّدَبُّرِ  أ.د. يسري جبر","category":"متنوع"},{"id":"F7jrQT5yUZY","title":"مقرأة سورة الأحزاب من ٱية ٩","publishedAt":"2018-07-18T11:33:19Z","duration":"PT20M5S","thumbnail":"https://i.ytimg.com/vi/F7jrQT5yUZY/mqdefault.jpg","viewCount":"343","playlistId":"PLEkQk5xrP-tnmTYsyW6xNdyfhPq0Bhrhj","playlistName":"مقرأة الفجر - القُرْآنُ الكَرِيمُ - خَتْمَةُ التَّدَبُّرِ  أ.د. يسري جبر","category":"متنوع"},{"id":"uQfUnMbc03w","title":"مقرأة سورة الأحزاب من ٱية ١٤","publishedAt":"2018-07-19T08:28:44Z","duration":"PT5M23S","thumbnail":"https://i.ytimg.com/vi/uQfUnMbc03w/mqdefault.jpg","viewCount":"327","playlistId":"PLEkQk5xrP-tnmTYsyW6xNdyfhPq0Bhrhj","playlistName":"مقرأة الفجر - القُرْآنُ الكَرِيمُ - خَتْمَةُ التَّدَبُّرِ  أ.د. يسري جبر","category":"متنوع"}],"total":4129,"page":60,"pageSize":24,"totalPages":173}