{"items":[{"id":"KE4ER6eV3SY","title":"شرح كتاب تفسير القرآن من سنن الترمذي - المجلس التاسع والعشرون","publishedAt":"2016-05-06T09:25:48Z","duration":"PT30M39S","thumbnail":"https://i.ytimg.com/vi/KE4ER6eV3SY/mqdefault.jpg","viewCount":"106","playlistId":"PLEkQk5xrP-tnu6of679SvxdVx0qSrJzmb","playlistName":"شرح سنن الإمام الترمذي رضى الله عنه د. يسري جبر","category":"متنوع"},{"id":"FyFW-cXltQc","title":"برنامج - عصمة الأنبياء - الحلقة الثانية - عصمة الأنبياء في الأمور التشريعية - @alerthTV","publishedAt":"2016-05-06T16:36:28Z","duration":"PT26M19S","thumbnail":"https://i.ytimg.com/vi/FyFW-cXltQc/mqdefault.jpg","viewCount":"3193","playlistId":"PLEkQk5xrP-tnBp9yUT_R2vtqSPOlcyAZe","playlistName":"برنامج - عصمة الأنبياء","category":"متنوع"},{"id":"xIlsw94Q-eM","title":"برنامج - عصمة الأنبياء - الحلقة الثالثة - عصمة الأنبياء في الأمور الدنيوية - @alerthTV","publishedAt":"2016-05-06T16:55:57Z","duration":"PT25M8S","thumbnail":"https://i.ytimg.com/vi/xIlsw94Q-eM/mqdefault.jpg","viewCount":"2444","playlistId":"PLEkQk5xrP-tnBp9yUT_R2vtqSPOlcyAZe","playlistName":"برنامج - عصمة الأنبياء","category":"متنوع"},{"id":"lKDaQNlvAF0","title":"قراءة القرآن (من آية ١٨٠ سورة البقرة)","publishedAt":"2016-05-08T02:34:05Z","duration":"PT18M47S","thumbnail":"https://i.ytimg.com/vi/lKDaQNlvAF0/mqdefault.jpg","viewCount":"997","playlistId":"PLEkQk5xrP-tnmTYsyW6xNdyfhPq0Bhrhj","playlistName":"مقرأة الفجر - القُرْآنُ الكَرِيمُ - خَتْمَةُ التَّدَبُّرِ  أ.د. يسري جبر","category":"متنوع"},{"id":"GPk3yn2gqEU","title":"شرح كتاب تفسير القرآن من سنن الترمذي - المجلس الثلاثون","publishedAt":"2016-05-08T02:35:51Z","duration":"PT30M26S","thumbnail":"https://i.ytimg.com/vi/GPk3yn2gqEU/mqdefault.jpg","viewCount":"104","playlistId":"PLEkQk5xrP-tnu6of679SvxdVx0qSrJzmb","playlistName":"شرح سنن الإمام الترمذي رضى الله عنه د. يسري جبر","category":"متنوع"},{"id":"Kav3HT7LGCk","title":"برنامج - عصمة الأنبياء - الحلقة الرابعة - سيدنا آدم ( شبهة وعصى أدم فغوى ) - @alerthTV","publishedAt":"2016-05-08T07:10:33Z","duration":"PT26M31S","thumbnail":"https://i.ytimg.com/vi/Kav3HT7LGCk/mqdefault.jpg","viewCount":"3607","playlistId":"PLEkQk5xrP-tnBp9yUT_R2vtqSPOlcyAZe","playlistName":"برنامج - عصمة الأنبياء","category":"متنوع"},{"id":"M8nkQ-CxYTY","title":"قراءة القرآن (من آية ١٨٥ سورة البقرة)","publishedAt":"2016-05-08T08:52:03Z","duration":"PT14M34S","thumbnail":"https://i.ytimg.com/vi/M8nkQ-CxYTY/mqdefault.jpg","viewCount":"849","playlistId":"PLEkQk5xrP-tnmTYsyW6xNdyfhPq0Bhrhj","playlistName":"مقرأة الفجر - القُرْآنُ الكَرِيمُ - خَتْمَةُ التَّدَبُّرِ  أ.د. يسري جبر","category":"متنوع"},{"id":"AamrbR1-OYQ","title":"شرح كتاب تفسير القرآن من سنن الترمذي - المجلس الحادي والثلاثون","publishedAt":"2016-05-08T08:54:22Z","duration":"PT31M44S","thumbnail":"https://i.ytimg.com/vi/AamrbR1-OYQ/mqdefault.jpg","viewCount":"116","playlistId":"PLEkQk5xrP-tnu6of679SvxdVx0qSrJzmb","playlistName":"شرح سنن الإمام الترمذي رضى الله عنه د. يسري جبر","category":"متنوع"},{"id":"JQZuddACh0Q","title":"12- الْقِرَاءَةِ خَلْفَ الإِمَامِ فِيمَا لاَ يَجْهَرُ فِيهِ بِالْقِرَاءَةِالصلاة ك الموطأ د يسري جبر","publishedAt":"2016-05-08T12:31:00Z","duration":"PT54M16S","thumbnail":"https://i.ytimg.com/vi/JQZuddACh0Q/mqdefault.jpg","viewCount":"671","playlistId":"PLEkQk5xrP-tnC6BRuqMjyO-484iqXeg0o","playlistName":"شرح كتاب الموطأ للإمام مالك","category":"متنوع"},{"id":"ANVyS4hTFRE","title":"قراءة القرآن (من آية ١٨٩ سورة البقرة)","publishedAt":"2016-05-09T02:38:33Z","duration":"PT18M44S","thumbnail":"https://i.ytimg.com/vi/ANVyS4hTFRE/mqdefault.jpg","viewCount":"887","playlistId":"PLEkQk5xrP-tnmTYsyW6xNdyfhPq0Bhrhj","playlistName":"مقرأة الفجر - القُرْآنُ الكَرِيمُ - خَتْمَةُ التَّدَبُّرِ  أ.د. يسري جبر","category":"متنوع"},{"id":"J5N_n5SAxGs","title":"برنامج - عصمة الأنبياء - الحلقة 5 - شبهة ( ولا تقربا هذه الشجرة فتكونا من الظالمين ) - @alerthTV","publishedAt":"2016-05-09T09:33:37Z","duration":"PT25M48S","thumbnail":"https://i.ytimg.com/vi/J5N_n5SAxGs/mqdefault.jpg","viewCount":"2301","playlistId":"PLEkQk5xrP-tnBp9yUT_R2vtqSPOlcyAZe","playlistName":"برنامج - عصمة الأنبياء","category":"متنوع"},{"id":"XHI7IvLkFQY","title":"برنامج - عصمة الأنبياء - الحلقة السادسة - سيدنا نوح : شبهة \" ابنه وزوجه \" - @alerthTV","publishedAt":"2016-05-10T08:52:12Z","duration":"PT25M37S","thumbnail":"https://i.ytimg.com/vi/XHI7IvLkFQY/mqdefault.jpg","viewCount":"1989","playlistId":"PLEkQk5xrP-tnBp9yUT_R2vtqSPOlcyAZe","playlistName":"برنامج - عصمة الأنبياء","category":"متنوع"},{"id":"eigKuN-GGC8","title":"شرح كتاب تفسير القرآن من سنن الترمذي - المجلس الثاني والثلاثون","publishedAt":"2016-05-11T02:36:57Z","duration":"PT35M54S","thumbnail":"https://i.ytimg.com/vi/eigKuN-GGC8/mqdefault.jpg","viewCount":"167","playlistId":"PLEkQk5xrP-tnu6of679SvxdVx0qSrJzmb","playlistName":"شرح سنن الإمام الترمذي رضى الله عنه د. يسري جبر","category":"متنوع"},{"id":"oqUEoPYt9hg","title":"قراءة القرآن (من آية ١٩٦ سورة البقرة)","publishedAt":"2016-05-11T09:25:04Z","duration":"PT30M16S","thumbnail":"https://i.ytimg.com/vi/oqUEoPYt9hg/mqdefault.jpg","viewCount":"1024","playlistId":"PLEkQk5xrP-tnmTYsyW6xNdyfhPq0Bhrhj","playlistName":"مقرأة الفجر - القُرْآنُ الكَرِيمُ - خَتْمَةُ التَّدَبُّرِ  أ.د. يسري جبر","category":"متنوع"},{"id":"DInZQn0Zmys","title":"شرح كتاب تفسير القرآن من سنن الترمذي - المجلس الثالث والثلاثون","publishedAt":"2016-05-11T17:27:39Z","duration":"PT25M1S","thumbnail":"https://i.ytimg.com/vi/DInZQn0Zmys/mqdefault.jpg","viewCount":"95","playlistId":"PLEkQk5xrP-tnu6of679SvxdVx0qSrJzmb","playlistName":"شرح سنن الإمام الترمذي رضى الله عنه د. يسري جبر","category":"متنوع"},{"id":"R3d3tdOB14w","title":"قراءة القرآن (من آية ٢٠٠ سورة البقرة)","publishedAt":"2016-05-12T04:32:20Z","duration":"PT5M56S","thumbnail":"https://i.ytimg.com/vi/R3d3tdOB14w/mqdefault.jpg","viewCount":"846","playlistId":"PLEkQk5xrP-tnmTYsyW6xNdyfhPq0Bhrhj","playlistName":"مقرأة الفجر - القُرْآنُ الكَرِيمُ - خَتْمَةُ التَّدَبُّرِ  أ.د. يسري جبر","category":"متنوع"},{"id":"Blh3mvtpQsg","title":"شرح كتاب تفسير القرآن من سنن الترمذي - المجلس الرابع والثلاثون","publishedAt":"2016-05-12T09:51:08Z","duration":"PT41M19S","thumbnail":"https://i.ytimg.com/vi/Blh3mvtpQsg/mqdefault.jpg","viewCount":"99","playlistId":"PLEkQk5xrP-tnu6of679SvxdVx0qSrJzmb","playlistName":"شرح سنن الإمام الترمذي رضى الله عنه د. يسري جبر","category":"متنوع"},{"id":"V56AkD37YmU","title":"قراءة القرآن (من آية ٢٠٤ سورة البقرة)","publishedAt":"2016-05-12T11:34:44Z","duration":"PT19M24S","thumbnail":"https://i.ytimg.com/vi/V56AkD37YmU/mqdefault.jpg","viewCount":"774","playlistId":"PLEkQk5xrP-tnmTYsyW6xNdyfhPq0Bhrhj","playlistName":"مقرأة الفجر - القُرْآنُ الكَرِيمُ - خَتْمَةُ التَّدَبُّرِ  أ.د. يسري جبر","category":"متنوع"},{"id":"9xs4LhRkiKA","title":"برنامج - عصمة الأنبياء - الحلقة السابعة - سيدنا لوط : شبهات ( امرأة لوط - هؤلاء بناتي) - @alerthTV","publishedAt":"2016-05-12T15:13:28Z","duration":"PT24M22S","thumbnail":"https://i.ytimg.com/vi/9xs4LhRkiKA/mqdefault.jpg","viewCount":"1500","playlistId":"PLEkQk5xrP-tnBp9yUT_R2vtqSPOlcyAZe","playlistName":"برنامج - عصمة الأنبياء","category":"متنوع"},{"id":"1iyYIVfADos","title":"شرح كتاب تفسير القرآن من سنن الترمذي - المجلس الخامس والثلاثون","publishedAt":"2016-05-12T15:26:20Z","duration":"PT39M33S","thumbnail":"https://i.ytimg.com/vi/1iyYIVfADos/mqdefault.jpg","viewCount":"93","playlistId":"PLEkQk5xrP-tnu6of679SvxdVx0qSrJzmb","playlistName":"شرح سنن الإمام الترمذي رضى الله عنه د. يسري جبر","category":"متنوع"},{"id":"gOZqunnKx1o","title":"قراءة القرآن (من آية ٢١١ سورة البقرة)","publishedAt":"2016-05-12T20:30:53Z","duration":"PT13M10S","thumbnail":"https://i.ytimg.com/vi/gOZqunnKx1o/mqdefault.jpg","viewCount":"794","playlistId":"PLEkQk5xrP-tnmTYsyW6xNdyfhPq0Bhrhj","playlistName":"مقرأة الفجر - القُرْآنُ الكَرِيمُ - خَتْمَةُ التَّدَبُّرِ  أ.د. يسري جبر","category":"متنوع"},{"id":"dGDQ3RMvTA0","title":"شرح كتاب تفسير القرآن من سنن الترمذي - المجلس السادس والثلاثون","publishedAt":"2016-05-13T01:28:43Z","duration":"PT47M3S","thumbnail":"https://i.ytimg.com/vi/dGDQ3RMvTA0/mqdefault.jpg","viewCount":"124","playlistId":"PLEkQk5xrP-tnu6of679SvxdVx0qSrJzmb","playlistName":"شرح سنن الإمام الترمذي رضى الله عنه د. يسري جبر","category":"متنوع"},{"id":"hhnkOHsrp5U","title":"قراءة القرآن (من آية ٢١٦ سورة البقرة)","publishedAt":"2016-05-13T09:18:32Z","duration":"PT15M28S","thumbnail":"https://i.ytimg.com/vi/hhnkOHsrp5U/mqdefault.jpg","viewCount":"761","playlistId":"PLEkQk5xrP-tnmTYsyW6xNdyfhPq0Bhrhj","playlistName":"مقرأة الفجر - القُرْآنُ الكَرِيمُ - خَتْمَةُ التَّدَبُّرِ  أ.د. يسري جبر","category":"متنوع"},{"id":"euievgGixKA","title":"شرح كتاب الدعوات من سنن الترمذي - المجلس الأول","publishedAt":"2016-05-14T01:33:39Z","duration":"PT44M33S","thumbnail":"https://i.ytimg.com/vi/euievgGixKA/mqdefault.jpg","viewCount":"301","playlistId":"PLEkQk5xrP-tnu6of679SvxdVx0qSrJzmb","playlistName":"شرح سنن الإمام الترمذي رضى الله عنه د. يسري جبر","category":"متنوع"}],"total":4129,"page":21,"pageSize":24,"totalPages":173}