{"items":[{"id":"-kD6fHiKv_4","title":"ูุถู ุงูุนุดุฑ ุงูุฃูุงุฎุฑ ูู ุฑูุถุงู ูููุนุฏ ูููุฉ ุงููุฏุฑ ุจูุณุจุฉ ูุจูุฑุฉ! ๐คฒ๐","publishedAt":"2025-03-20T19:00:00Z","duration":"PT15M12S","thumbnail":"https://i.ytimg.com/vi/-kD6fHiKv_4/mqdefault.jpg","viewCount":"13721","playlistId":"PLEkQk5xrP-tm8ZIu74nTOZN9KJUJu416J","playlistName":"ููุงุทุน ููููููุฉ (ููุณุฑูููุงุช) ุฃ.ุฏ. ูุณุฑู ุฌุจุฑ","category":"ูุชููุน"},{"id":"MwPpnh2BESc","title":"ูุง ูู ุฃุฑูุงู ุงูุตูุงู | ูุฌุงูุณ ุฑูุถุงููุฉ","publishedAt":"2025-03-21T15:00:27Z","duration":"PT28M11S","thumbnail":"https://i.ytimg.com/vi/MwPpnh2BESc/mqdefault.jpg","viewCount":"1211","playlistId":"PLEkQk5xrP-tkeI_WVPfuoTJO46aVkpaz0","playlistName":"ุดุฑุญ ูุชุงุจ ููุฒุงู ุงูุงุนุชุฏุงู ูุญูุธ ุงูุฏูู ูุงูุฃุญูุงู","category":"ูุชููุน"},{"id":"B9mA5zW-OAY","title":"ุนุงูู ููุฏู ูุชุญุฏู ูุดุงูุฎ ุงูููุงุจูุฉ! | ูุฌุงูุณ ุงูุงุนุชูุงู","publishedAt":"2025-03-22T10:00:10Z","duration":"PT33M28S","thumbnail":"https://i.ytimg.com/vi/B9mA5zW-OAY/mqdefault.jpg","viewCount":"14228","playlistId":"PLEkQk5xrP-tly7ti7Qb_lS7xjUg_fwlNP","playlistName":"ุดุฑุญ ูุชุงุจ ุงูุฏููุฉ ุงููููุฉ ุจุงููุงุฏุฉ ุงูุบูุจูุฉ","category":"ูุชููุน"},{"id":"U9gsf5B7Shw","title":"ููุงุฐุง ุฎุต ุงููู ุงูุตูุงู ุจุฃุฌุฑ ูู ุนูุฏูุ | ูุฌุงูุณ ุฑูุถุงููุฉ","publishedAt":"2025-03-22T15:00:37Z","duration":"PT24M13S","thumbnail":"https://i.ytimg.com/vi/U9gsf5B7Shw/mqdefault.jpg","viewCount":"1574","playlistId":"PLEkQk5xrP-tkeI_WVPfuoTJO46aVkpaz0","playlistName":"ุดุฑุญ ูุชุงุจ ููุฒุงู ุงูุงุนุชุฏุงู ูุญูุธ ุงูุฏูู ูุงูุฃุญูุงู","category":"ูุชููุน"},{"id":"XStctykjS0c","title":"ุงูุฑุฏ ุนูู ุดุจูุงุช ุงูููุงุจูุฉ ุญูู ุงููุงุณุทุฉ! | ูุฌุงูุณ ุงูุงุนุชูุงู","publishedAt":"2025-03-23T10:00:41Z","duration":"PT36M1S","thumbnail":"https://i.ytimg.com/vi/XStctykjS0c/mqdefault.jpg","viewCount":"4860","playlistId":"PLEkQk5xrP-tly7ti7Qb_lS7xjUg_fwlNP","playlistName":"ุดุฑุญ ูุชุงุจ ุงูุฏููุฉ ุงููููุฉ ุจุงููุงุฏุฉ ุงูุบูุจูุฉ","category":"ูุชููุน"},{"id":"3QpWeDl64fw","title":"ููู ุชุฎุชู ุฑูุถุงู ุจุฃุนูู ุฏุฑุฌุงุช ุงูุตููุ | ูุฌุงูุณ ุฑูุถุงููุฉ","publishedAt":"2025-03-23T15:00:04Z","duration":"PT17M3S","thumbnail":"https://i.ytimg.com/vi/3QpWeDl64fw/mqdefault.jpg","viewCount":"1799","playlistId":"PLEkQk5xrP-tkeI_WVPfuoTJO46aVkpaz0","playlistName":"ุดุฑุญ ูุชุงุจ ููุฒุงู ุงูุงุนุชุฏุงู ูุญูุธ ุงูุฏูู ูุงูุฃุญูุงู","category":"ูุชููุน"},{"id":"fofLUBTbIoE","title":"ูุง ูุนูู ุงูุฌุฐุจ ููุง ุฃููุงุนูุ","publishedAt":"2025-03-23T19:00:34Z","duration":"PT8M9S","thumbnail":"https://i.ytimg.com/vi/fofLUBTbIoE/mqdefault.jpg","viewCount":"6452","playlistId":"PLEkQk5xrP-tkGXuZ9atE3k_7it12rUPTs","playlistName":"ุฃุณุฆูุฉ ุงููุชุงุจุนูู","category":"ูุชููุน"},{"id":"pfxgW_qrWXM","title":"ุงูุฑุฏ ุนูู ูู ูููุฑ ุฎุตูุตูุฉ ุงููุจู ๏ทบ | ูุฌุงูุณ ุงูุงุนุชูุงู","publishedAt":"2025-03-24T10:01:04Z","duration":"PT35M21S","thumbnail":"https://i.ytimg.com/vi/pfxgW_qrWXM/mqdefault.jpg","viewCount":"3190","playlistId":"PLEkQk5xrP-tly7ti7Qb_lS7xjUg_fwlNP","playlistName":"ุดุฑุญ ูุชุงุจ ุงูุฏููุฉ ุงููููุฉ ุจุงููุงุฏุฉ ุงูุบูุจูุฉ","category":"ูุชููุน"},{"id":"HbTScUzbRws","title":"ููู ุชููู ุนุจุงุฏุชูุง ููุจููุฉ ุนูุฏ ุงูููุ | ูุฌุงูุณ ุฑูุถุงููุฉ","publishedAt":"2025-03-24T15:00:22Z","duration":"PT23M41S","thumbnail":"https://i.ytimg.com/vi/HbTScUzbRws/mqdefault.jpg","viewCount":"1897","playlistId":"PLEkQk5xrP-tkeI_WVPfuoTJO46aVkpaz0","playlistName":"ุดุฑุญ ูุชุงุจ ููุฒุงู ุงูุงุนุชุฏุงู ูุญูุธ ุงูุฏูู ูุงูุฃุญูุงู","category":"ูุชููุน"},{"id":"_D3jcDwKvz8","title":"ูู ุงูุดูุทุงู ุณุจุจ ุงูุฐููุจ ุฃู ุฃูู ูุฌุฑุฏ ูุจุฑุฑุ","publishedAt":"2025-03-24T19:00:26Z","duration":"PT9M29S","thumbnail":"https://i.ytimg.com/vi/_D3jcDwKvz8/mqdefault.jpg","viewCount":"2371","playlistId":"PLEkQk5xrP-tkGXuZ9atE3k_7it12rUPTs","playlistName":"ุฃุณุฆูุฉ ุงููุชุงุจุนูู","category":"ูุชููุน"},{"id":"jN-_SqWB2j4","title":"ูู ุงููุจู ๏ทบ ุฃูุซุฑ ุนููุง ูู ุณูุฏูุง ุฌุจุฑููุ | ูุฌุงูุณ ุงูุงุนุชูุงู","publishedAt":"2025-03-25T10:00:55Z","duration":"PT26M38S","thumbnail":"https://i.ytimg.com/vi/jN-_SqWB2j4/mqdefault.jpg","viewCount":"3365","playlistId":"PLEkQk5xrP-tly7ti7Qb_lS7xjUg_fwlNP","playlistName":"ุดุฑุญ ูุชุงุจ ุงูุฏููุฉ ุงููููุฉ ุจุงููุงุฏุฉ ุงูุบูุจูุฉ","category":"ูุชููุน"},{"id":"ejS0WCOzkAo","title":"ููู ูุฑูุน ุงูุตูุงู ุฏุฑุฌุงุช ุงููุคูู ูู ุงูุฌูุฉุ | ูุฌุงูุณ ุฑูุถุงููุฉ","publishedAt":"2025-03-25T15:00:58Z","duration":"PT15M51S","thumbnail":"https://i.ytimg.com/vi/ejS0WCOzkAo/mqdefault.jpg","viewCount":"924","playlistId":"PLEkQk5xrP-tkeI_WVPfuoTJO46aVkpaz0","playlistName":"ุดุฑุญ ูุชุงุจ ููุฒุงู ุงูุงุนุชุฏุงู ูุญูุธ ุงูุฏูู ูุงูุฃุญูุงู","category":"ูุชููุน"},{"id":"KVzUO026dYU","title":"ููู ุชููู ูู ุฃูู ูููุฉ ุงููุฏุฑุ๐คฒ๐","publishedAt":"2025-03-25T19:00:22Z","duration":"PT13M57S","thumbnail":"https://i.ytimg.com/vi/KVzUO026dYU/mqdefault.jpg","viewCount":"6845","playlistId":"PLEkQk5xrP-tm8ZIu74nTOZN9KJUJu416J","playlistName":"ููุงุทุน ููููููุฉ (ููุณุฑูููุงุช) ุฃ.ุฏ. ูุณุฑู ุฌุจุฑ","category":"ูุชููุน"},{"id":"V_SOudL6WZo","title":"ุนููู ุงูุฃูููุงุก ุงูุชู ูู ุชุฌุฏูุง ูู ุงููุชุจ! | ูุฌุงูุณ ุงูุงุนุชูุงู","publishedAt":"2025-03-26T10:00:39Z","duration":"PT37M1S","thumbnail":"https://i.ytimg.com/vi/V_SOudL6WZo/mqdefault.jpg","viewCount":"18204","playlistId":"PLEkQk5xrP-tly7ti7Qb_lS7xjUg_fwlNP","playlistName":"ุดุฑุญ ูุชุงุจ ุงูุฏููุฉ ุงููููุฉ ุจุงููุงุฏุฉ ุงูุบูุจูุฉ","category":"ูุชููุน"},{"id":"BgqSnC5v62U","title":"ูู ูุงูู ุชุญุฌ ุงูุณูุงุฏู ูุงูููุฏูู ุฏู ููู! | ูุฌุงูุณ ุฑูุถุงููุฉ","publishedAt":"2025-03-26T15:00:12Z","duration":"PT22M18S","thumbnail":"https://i.ytimg.com/vi/BgqSnC5v62U/mqdefault.jpg","viewCount":"860","playlistId":"PLEkQk5xrP-tkeI_WVPfuoTJO46aVkpaz0","playlistName":"ุดุฑุญ ูุชุงุจ ููุฒุงู ุงูุงุนุชุฏุงู ูุญูุธ ุงูุฏูู ูุงูุฃุญูุงู","category":"ูุชููุน"},{"id":"8zD_j4FtYyQ","title":"5 ุฃุณุฑุงุฑ ูุง ูุนูููุง ุฅูุง ุงููู! | ูุฌุงูุณ ุงูุงุนุชูุงู","publishedAt":"2025-03-27T10:00:08Z","duration":"PT37M11S","thumbnail":"https://i.ytimg.com/vi/8zD_j4FtYyQ/mqdefault.jpg","viewCount":"7346","playlistId":"PLEkQk5xrP-tly7ti7Qb_lS7xjUg_fwlNP","playlistName":"ุดุฑุญ ูุชุงุจ ุงูุฏููุฉ ุงููููุฉ ุจุงููุงุฏุฉ ุงูุบูุจูุฉ","category":"ูุชููุน"},{"id":"wbLk-Pv-9B0","title":"ูุชู ูููู ุชู ุจูุงุก ุงููุนุจุฉุ | ูุฌุงูุณ ุฑูุถุงููุฉ","publishedAt":"2025-03-27T15:01:20Z","duration":"PT24M36S","thumbnail":"https://i.ytimg.com/vi/wbLk-Pv-9B0/mqdefault.jpg","viewCount":"1164","playlistId":"PLEkQk5xrP-tkeI_WVPfuoTJO46aVkpaz0","playlistName":"ุดุฑุญ ูุชุงุจ ููุฒุงู ุงูุงุนุชุฏุงู ูุญูุธ ุงูุฏูู ูุงูุฃุญูุงู","category":"ูุชููุน"},{"id":"8umGwDevU10","title":"ูุตูุญุฉ ููู ูุฑูุฏ ุญูุธ ุงููุฑุงูู ุจุนุฏ ุฑูุถุงู","publishedAt":"2025-03-27T19:30:01Z","duration":"PT11M47S","thumbnail":"https://i.ytimg.com/vi/8umGwDevU10/mqdefault.jpg","viewCount":"99870","playlistId":"PLEkQk5xrP-tm8ZIu74nTOZN9KJUJu416J","playlistName":"ููุงุทุน ููููููุฉ (ููุณุฑูููุงุช) ุฃ.ุฏ. ูุณุฑู ุฌุจุฑ","category":"ูุชููุน"},{"id":"Gk32yjMonsE","title":"ููู ูููู ููุงู ุงูุฃูููุงุกุ | ูุฌุงูุณ ุงูุงุนุชูุงู","publishedAt":"2025-03-28T15:00:21Z","duration":"PT30M8S","thumbnail":"https://i.ytimg.com/vi/Gk32yjMonsE/mqdefault.jpg","viewCount":"4966","playlistId":"PLEkQk5xrP-tly7ti7Qb_lS7xjUg_fwlNP","playlistName":"ุดุฑุญ ูุชุงุจ ุงูุฏููุฉ ุงููููุฉ ุจุงููุงุฏุฉ ุงูุบูุจูุฉ","category":"ูุชููุน"},{"id":"nj7BC7Pwpeo","title":"ูุถู ุงูุฅููุงู ูู ุณุจูู ุงููู | ูุฌุงูุณ ุฑูุถุงููุฉ","publishedAt":"2025-03-29T10:00:57Z","duration":"PT38M5S","thumbnail":"https://i.ytimg.com/vi/nj7BC7Pwpeo/mqdefault.jpg","viewCount":"933","playlistId":"PLEkQk5xrP-tkeI_WVPfuoTJO46aVkpaz0","playlistName":"ุดุฑุญ ูุชุงุจ ููุฒุงู ุงูุงุนุชุฏุงู ูุญูุธ ุงูุฏูู ูุงูุฃุญูุงู","category":"ูุชููุน"},{"id":"6KDDsOOu_f8","title":"ูุงูู ุดุฑูุท ุงูุนุจุงุฏุฉุ | ูุฌุงูุณ ุฑูุถุงููุฉ","publishedAt":"2025-03-29T15:00:07Z","duration":"PT18M33S","thumbnail":"https://i.ytimg.com/vi/6KDDsOOu_f8/mqdefault.jpg","viewCount":"1041","playlistId":"PLEkQk5xrP-tkeI_WVPfuoTJO46aVkpaz0","playlistName":"ุดุฑุญ ูุชุงุจ ููุฒุงู ุงูุงุนุชุฏุงู ูุญูุธ ุงูุฏูู ูุงูุฃุญูุงู","category":"ูุชููุน"},{"id":"sYnGBbTHD0c","title":"ุงููุฑู ุจูู ุงูุฎูู ูุงูุฎุดูุฉ ูู ุงููู ุชุนุงูู | ูุฌุงูุณ ุฑูุถุงููุฉ","publishedAt":"2025-03-29T19:00:39Z","duration":"PT35M53S","thumbnail":"https://i.ytimg.com/vi/sYnGBbTHD0c/mqdefault.jpg","viewCount":"2770","playlistId":"PLEkQk5xrP-tkeI_WVPfuoTJO46aVkpaz0","playlistName":"ุดุฑุญ ูุชุงุจ ููุฒุงู ุงูุงุนุชุฏุงู ูุญูุธ ุงูุฏูู ูุงูุฃุญูุงู","category":"ูุชููุน"},{"id":"dgvjTeWwdPg","title":"ููู ุฃุตู ุฅูู ุญุจ ุงููู ูุงูุฑุถุง ุจูุถุงุฆูุ | ูุฌุงูุณ ุฑูุถุงููุฉ","publishedAt":"2025-03-30T15:00:49Z","duration":"PT28M45S","thumbnail":"https://i.ytimg.com/vi/dgvjTeWwdPg/mqdefault.jpg","viewCount":"7818","playlistId":"PLEkQk5xrP-tkeI_WVPfuoTJO46aVkpaz0","playlistName":"ุดุฑุญ ูุชุงุจ ููุฒุงู ุงูุงุนุชุฏุงู ูุญูุธ ุงูุฏูู ูุงูุฃุญูุงู","category":"ูุชููุน"},{"id":"Md-3rQJRhDQ","title":"ูุง ุงููุฑู ุจูู ุงูุชููู ูุงูุชูููุถุ | ูุฌุงูุณ ุฑูุถุงููุฉ","publishedAt":"2025-03-30T19:00:12Z","duration":"PT39M50S","thumbnail":"https://i.ytimg.com/vi/Md-3rQJRhDQ/mqdefault.jpg","viewCount":"4382","playlistId":"PLEkQk5xrP-tkeI_WVPfuoTJO46aVkpaz0","playlistName":"ุดุฑุญ ูุชุงุจ ููุฒุงู ุงูุงุนุชุฏุงู ูุญูุธ ุงูุฏูู ูุงูุฃุญูุงู","category":"ูุชููุน"}],"total":4129,"page":165,"pageSize":24,"totalPages":173}