{"items":[{"id":"QgOGSaYn98M","title":"مقرأة سورة القصص من آية ١٢","publishedAt":"2018-05-15T17:58:30Z","duration":"PT7M49S","thumbnail":"https://i.ytimg.com/vi/QgOGSaYn98M/mqdefault.jpg","viewCount":"336","playlistId":"PLEkQk5xrP-tnmTYsyW6xNdyfhPq0Bhrhj","playlistName":"مقرأة الفجر - القُرْآنُ الكَرِيمُ - خَتْمَةُ التَّدَبُّرِ  أ.د. يسري جبر","category":"متنوع"},{"id":"YYsZvj-afbU","title":"( 138 ) حديث درجات النية في ربط الخيل  د. يسري جبر","publishedAt":"2018-05-17T09:31:52Z","duration":"PT22M38S","thumbnail":"https://i.ytimg.com/vi/YYsZvj-afbU/mqdefault.jpg","viewCount":"726","playlistId":"PLEkQk5xrP-tnl7vb7KeAoPd5ZlqKKW8KV","playlistName":"شرح كتاب بهجة النفوس أ.د . يسرى جبر","category":"متنوع"},{"id":"Sj-DwVzbbCI","title":"مقرأة سورة القصص من آية ٣٦","publishedAt":"2018-05-17T18:24:53Z","duration":"PT27M32S","thumbnail":"https://i.ytimg.com/vi/Sj-DwVzbbCI/mqdefault.jpg","viewCount":"238","playlistId":"PLEkQk5xrP-tnmTYsyW6xNdyfhPq0Bhrhj","playlistName":"مقرأة الفجر - القُرْآنُ الكَرِيمُ - خَتْمَةُ التَّدَبُّرِ  أ.د. يسري جبر","category":"متنوع"},{"id":"Sk3HN9HXsLw","title":"مقرأة سورة القصص من آية ١٥","publishedAt":"2018-05-17T18:32:33Z","duration":"PT15M23S","thumbnail":"https://i.ytimg.com/vi/Sk3HN9HXsLw/mqdefault.jpg","viewCount":"428","playlistId":"PLEkQk5xrP-tnmTYsyW6xNdyfhPq0Bhrhj","playlistName":"مقرأة الفجر - القُرْآنُ الكَرِيمُ - خَتْمَةُ التَّدَبُّرِ  أ.د. يسري جبر","category":"متنوع"},{"id":"l3wvWFxAW8I","title":"وِرْد ما بعد عصر الجمعة - الصلاة على النبي صلى الله عليه وآله وسلم ( 80 مرة )  د. يسري جبر","publishedAt":"2018-05-18T02:02:26Z","duration":"PT7M32S","thumbnail":"https://i.ytimg.com/vi/l3wvWFxAW8I/mqdefault.jpg","viewCount":"9573","playlistId":"PLEkQk5xrP-tk3OeVFoMfKhOhyINnlPeYZ","playlistName":"الحَضْرَةُ الصِّدِّيقِيَّة والأوْرَاد","category":"متنوع"},{"id":"klXbysRaRLM","title":"( 139 ) حديث اللعب بآلات الحرب ومنع البيع والشراء في المساجد د. يسري جبر","publishedAt":"2018-05-18T08:14:28Z","duration":"PT39M55S","thumbnail":"https://i.ytimg.com/vi/klXbysRaRLM/mqdefault.jpg","viewCount":"242","playlistId":"PLEkQk5xrP-tnl7vb7KeAoPd5ZlqKKW8KV","playlistName":"شرح كتاب بهجة النفوس أ.د . يسرى جبر","category":"متنوع"},{"id":"rCnLPwfTF7Y","title":"مقرأة سورة القصص من آية ٢٢","publishedAt":"2018-05-18T18:26:19Z","duration":"PT27M12S","thumbnail":"https://i.ytimg.com/vi/rCnLPwfTF7Y/mqdefault.jpg","viewCount":"483","playlistId":"PLEkQk5xrP-tnmTYsyW6xNdyfhPq0Bhrhj","playlistName":"مقرأة الفجر - القُرْآنُ الكَرِيمُ - خَتْمَةُ التَّدَبُّرِ  أ.د. يسري جبر","category":"متنوع"},{"id":"1FYbAtLbLXM","title":"١٤٠ حديث عز المؤمن بطاعة الله ورسوله  د. يسري جبر","publishedAt":"2018-05-19T15:51:10Z","duration":"PT30M53S","thumbnail":"https://i.ytimg.com/vi/1FYbAtLbLXM/mqdefault.jpg","viewCount":"696","playlistId":"PLEkQk5xrP-tnl7vb7KeAoPd5ZlqKKW8KV","playlistName":"شرح كتاب بهجة النفوس أ.د . يسرى جبر","category":"متنوع"},{"id":"dYbeHJTA4xE","title":"مقرأة سورة القصص من آية ٢٩","publishedAt":"2018-05-20T14:31:33Z","duration":"PT37M2S","thumbnail":"https://i.ytimg.com/vi/dYbeHJTA4xE/mqdefault.jpg","viewCount":"370","playlistId":"PLEkQk5xrP-tnmTYsyW6xNdyfhPq0Bhrhj","playlistName":"مقرأة الفجر - القُرْآنُ الكَرِيمُ - خَتْمَةُ التَّدَبُّرِ  أ.د. يسري جبر","category":"متنوع"},{"id":"5a3_Q17u3Ks","title":"من السنن المهجورة في التربية   د. يسري جبر","publishedAt":"2018-05-20T18:05:12Z","duration":"PT6M44S","thumbnail":"https://i.ytimg.com/vi/5a3_Q17u3Ks/mqdefault.jpg","viewCount":"10375","playlistId":"PLEkQk5xrP-tm8ZIu74nTOZN9KJUJu416J","playlistName":"مقاطع مُهمَّة (يُسريَّات) أ.د. يسري جبر","category":"متنوع"},{"id":"OpLZ-Sqt_CM","title":"١٤٢ حديث من أشراط الساعة  د. يسري جبر","publishedAt":"2018-05-20T23:09:57Z","duration":"PT14M44S","thumbnail":"https://i.ytimg.com/vi/OpLZ-Sqt_CM/mqdefault.jpg","viewCount":"6411","playlistId":"PLEkQk5xrP-tnl7vb7KeAoPd5ZlqKKW8KV","playlistName":"شرح كتاب بهجة النفوس أ.د . يسرى جبر","category":"متنوع"},{"id":"m650j4HSECo","title":"١٤٣ حديث قتال المشركين حتى يعلنوا بكلمة التوحيد د. يسري جبر","publishedAt":"2018-05-20T23:12:35Z","duration":"PT27M6S","thumbnail":"https://i.ytimg.com/vi/m650j4HSECo/mqdefault.jpg","viewCount":"1295","playlistId":"PLEkQk5xrP-tnl7vb7KeAoPd5ZlqKKW8KV","playlistName":"شرح كتاب بهجة النفوس أ.د . يسرى جبر","category":"متنوع"},{"id":"7Kpb9i5iLn8","title":"مقرأة سورة القصص من آية ٤٣","publishedAt":"2018-05-20T23:14:02Z","duration":"PT22M48S","thumbnail":"https://i.ytimg.com/vi/7Kpb9i5iLn8/mqdefault.jpg","viewCount":"290","playlistId":"PLEkQk5xrP-tnmTYsyW6xNdyfhPq0Bhrhj","playlistName":"مقرأة الفجر - القُرْآنُ الكَرِيمُ - خَتْمَةُ التَّدَبُّرِ  أ.د. يسري جبر","category":"متنوع"},{"id":"qgz6OeXfblo","title":"١٤٤ حديث وعظ المجاهدين د. يسري جبر","publishedAt":"2018-05-21T02:51:47Z","duration":"PT39M","thumbnail":"https://i.ytimg.com/vi/qgz6OeXfblo/mqdefault.jpg","viewCount":"442","playlistId":"PLEkQk5xrP-tnl7vb7KeAoPd5ZlqKKW8KV","playlistName":"شرح كتاب بهجة النفوس أ.د . يسرى جبر","category":"متنوع"},{"id":"7YGgfff8XdA","title":"١٤٥ حديث صدقات أعضاء بدن الإنسان د. يسري جبر","publishedAt":"2018-05-23T01:47:38Z","duration":"PT38M50S","thumbnail":"https://i.ytimg.com/vi/7YGgfff8XdA/mqdefault.jpg","viewCount":"2679","playlistId":"PLEkQk5xrP-tnl7vb7KeAoPd5ZlqKKW8KV","playlistName":"شرح كتاب بهجة النفوس أ.د . يسرى جبر","category":"متنوع"},{"id":"TkPf_6yYvSM","title":"١٤٥ حديث صدقات أعضاء بدن الإنسان (2) د. يسري جبر","publishedAt":"2018-05-23T05:17:12Z","duration":"PT27M31S","thumbnail":"https://i.ytimg.com/vi/TkPf_6yYvSM/mqdefault.jpg","viewCount":"522","playlistId":"PLEkQk5xrP-tnl7vb7KeAoPd5ZlqKKW8KV","playlistName":"شرح كتاب بهجة النفوس أ.د . يسرى جبر","category":"متنوع"},{"id":"JUm9kgg1vmQ","title":"مقرأة سورة القصص من آية ٥١","publishedAt":"2018-05-23T09:38:00Z","duration":"PT23M46S","thumbnail":"https://i.ytimg.com/vi/JUm9kgg1vmQ/mqdefault.jpg","viewCount":"334","playlistId":"PLEkQk5xrP-tnmTYsyW6xNdyfhPq0Bhrhj","playlistName":"مقرأة الفجر - القُرْآنُ الكَرِيمُ - خَتْمَةُ التَّدَبُّرِ  أ.د. يسري جبر","category":"متنوع"},{"id":"13JsHS4trz0","title":"١٤٦ حديث الحث على اتخاذ الرفيق في السفر د. يسري جبر","publishedAt":"2018-05-24T14:00:48Z","duration":"PT19M32S","thumbnail":"https://i.ytimg.com/vi/13JsHS4trz0/mqdefault.jpg","viewCount":"403","playlistId":"PLEkQk5xrP-tnl7vb7KeAoPd5ZlqKKW8KV","playlistName":"شرح كتاب بهجة النفوس أ.د . يسرى جبر","category":"متنوع"},{"id":"CjFDpZiIDZI","title":"١٤٧ حديث من الجهاد بر الوالدين د. يسري جبر","publishedAt":"2018-05-26T16:21:05Z","duration":"PT26M16S","thumbnail":"https://i.ytimg.com/vi/CjFDpZiIDZI/mqdefault.jpg","viewCount":"1218","playlistId":"PLEkQk5xrP-tnl7vb7KeAoPd5ZlqKKW8KV","playlistName":"شرح كتاب بهجة النفوس أ.د . يسرى جبر","category":"متنوع"},{"id":"Z3IvLJnfUdQ","title":"(١٤۸) حديث تحريم الخلوة بالمرآة الأجنبية د. يسري جبر","publishedAt":"2018-05-26T16:21:05Z","duration":"PT21M47S","thumbnail":"https://i.ytimg.com/vi/Z3IvLJnfUdQ/mqdefault.jpg","viewCount":"730","playlistId":"PLEkQk5xrP-tnl7vb7KeAoPd5ZlqKKW8KV","playlistName":"شرح كتاب بهجة النفوس أ.د . يسرى جبر","category":"متنوع"},{"id":"sMVA3ICAqZw","title":"مقرأة سورة القصص من آية ٦٢","publishedAt":"2018-05-27T12:35:18Z","duration":"PT20M45S","thumbnail":"https://i.ytimg.com/vi/sMVA3ICAqZw/mqdefault.jpg","viewCount":"236","playlistId":"PLEkQk5xrP-tnmTYsyW6xNdyfhPq0Bhrhj","playlistName":"مقرأة الفجر - القُرْآنُ الكَرِيمُ - خَتْمَةُ التَّدَبُّرِ  أ.د. يسري جبر","category":"متنوع"},{"id":"us7EOK5uat0","title":"١٤٩ حديث زيادة الأجر د. يسري جبر","publishedAt":"2018-05-28T17:19:32Z","duration":"PT31M42S","thumbnail":"https://i.ytimg.com/vi/us7EOK5uat0/mqdefault.jpg","viewCount":"377","playlistId":"PLEkQk5xrP-tnl7vb7KeAoPd5ZlqKKW8KV","playlistName":"شرح كتاب بهجة النفوس أ.د . يسرى جبر","category":"متنوع"},{"id":"0rIyTQpfN-k","title":"مقرأة سورة القصص من آية ٥٨","publishedAt":"2018-05-28T23:09:04Z","duration":"PT10M31S","thumbnail":"https://i.ytimg.com/vi/0rIyTQpfN-k/mqdefault.jpg","viewCount":"343","playlistId":"PLEkQk5xrP-tnmTYsyW6xNdyfhPq0Bhrhj","playlistName":"مقرأة الفجر - القُرْآنُ الكَرِيمُ - خَتْمَةُ التَّدَبُّرِ  أ.د. يسري جبر","category":"متنوع"},{"id":"Z-taisPqicI","title":"١٥١ حديث النهي عن التعذيب بالنار. د. يسري جبر","publishedAt":"2018-05-29T01:56:26Z","duration":"PT21M25S","thumbnail":"https://i.ytimg.com/vi/Z-taisPqicI/mqdefault.jpg","viewCount":"237","playlistId":"PLEkQk5xrP-tnl7vb7KeAoPd5ZlqKKW8KV","playlistName":"شرح كتاب بهجة النفوس أ.د . يسرى جبر","category":"متنوع"}],"total":4129,"page":57,"pageSize":24,"totalPages":173}