{"items":[{"id":"105bBH9M1_k","title":"شرح كتاب تفسير القرآن من سنن الترمذي - المجلس التاسع عشر","publishedAt":"2016-04-26T02:56:36Z","duration":"PT31M39S","thumbnail":"https://i.ytimg.com/vi/105bBH9M1_k/mqdefault.jpg","viewCount":"110","playlistId":"PLEkQk5xrP-tnu6of679SvxdVx0qSrJzmb","playlistName":"شرح سنن الإمام الترمذي رضى الله عنه د. يسري جبر","category":"متنوع"},{"id":"WQz5smOu7tI","title":"معنى التصوف في الإسلام | مع الناس","publishedAt":"2016-04-26T21:51:00Z","duration":"PT7M8S","thumbnail":"https://i.ytimg.com/vi/WQz5smOu7tI/mqdefault.jpg","viewCount":"14615","playlistId":"PLEkQk5xrP-tmJzNvLntpzW0uPanPzxA0c","playlistName":"لقاءات ومحاضرات","category":"متنوع"},{"id":"YUkDvdXyh18","title":"الفرق بين النفس والروح | مع الناس","publishedAt":"2016-04-26T21:54:13Z","duration":"PT4M54S","thumbnail":"https://i.ytimg.com/vi/YUkDvdXyh18/mqdefault.jpg","viewCount":"19331","playlistId":"PLEkQk5xrP-tmJzNvLntpzW0uPanPzxA0c","playlistName":"لقاءات ومحاضرات","category":"متنوع"},{"id":"QAbJPIc2byI","title":"معنى الجهاد في سبيل الله | مع الناس","publishedAt":"2016-04-26T21:56:47Z","duration":"PT3M13S","thumbnail":"https://i.ytimg.com/vi/QAbJPIc2byI/mqdefault.jpg","viewCount":"1661","playlistId":"PLEkQk5xrP-tmJzNvLntpzW0uPanPzxA0c","playlistName":"لقاءات ومحاضرات","category":"متنوع"},{"id":"LBuSNHfYZ_c","title":"سورة البقرة آية 101","publishedAt":"2016-04-27T03:03:01Z","duration":"PT18M49S","thumbnail":"https://i.ytimg.com/vi/LBuSNHfYZ_c/mqdefault.jpg","viewCount":"1476","playlistId":"PLEkQk5xrP-tnmTYsyW6xNdyfhPq0Bhrhj","playlistName":"مقرأة الفجر - القُرْآنُ الكَرِيمُ - خَتْمَةُ التَّدَبُّرِ  أ.د. يسري جبر","category":"متنوع"},{"id":"ZqLr0fkoAZI","title":"شرح كتاب تفسير القرآن من سنن الترمذي - المجلس العشرون","publishedAt":"2016-04-27T03:03:53Z","duration":"PT38M43S","thumbnail":"https://i.ytimg.com/vi/ZqLr0fkoAZI/mqdefault.jpg","viewCount":"120","playlistId":"PLEkQk5xrP-tnu6of679SvxdVx0qSrJzmb","playlistName":"شرح سنن الإمام الترمذي رضى الله عنه د. يسري جبر","category":"متنوع"},{"id":"Eva82eq-Mq8","title":"سورة البقرة آية 106","publishedAt":"2016-04-28T02:06:49Z","duration":"PT22M56S","thumbnail":"https://i.ytimg.com/vi/Eva82eq-Mq8/mqdefault.jpg","viewCount":"1449","playlistId":"PLEkQk5xrP-tnmTYsyW6xNdyfhPq0Bhrhj","playlistName":"مقرأة الفجر - القُرْآنُ الكَرِيمُ - خَتْمَةُ التَّدَبُّرِ  أ.د. يسري جبر","category":"متنوع"},{"id":"XtRbyFU70jM","title":"شرح كتاب تفسير القرآن من سنن الترمذي - المجلس الحادي والعشرون","publishedAt":"2016-04-28T02:08:29Z","duration":"PT35M20S","thumbnail":"https://i.ytimg.com/vi/XtRbyFU70jM/mqdefault.jpg","viewCount":"89","playlistId":"PLEkQk5xrP-tnu6of679SvxdVx0qSrJzmb","playlistName":"شرح سنن الإمام الترمذي رضى الله عنه د. يسري جبر","category":"متنوع"},{"id":"5mwPABuNVYI","title":"سورة البقرة آية 114","publishedAt":"2016-04-29T00:39:56Z","duration":"PT11M5S","thumbnail":"https://i.ytimg.com/vi/5mwPABuNVYI/mqdefault.jpg","viewCount":"1231","playlistId":"PLEkQk5xrP-tnmTYsyW6xNdyfhPq0Bhrhj","playlistName":"مقرأة الفجر - القُرْآنُ الكَرِيمُ - خَتْمَةُ التَّدَبُّرِ  أ.د. يسري جبر","category":"متنوع"},{"id":"32_86IEtzkI","title":"شرح كتاب تفسير القرآن من سنن الترمذي - المجلس الثاني والعشرون","publishedAt":"2016-04-29T00:39:56Z","duration":"PT34M32S","thumbnail":"https://i.ytimg.com/vi/32_86IEtzkI/mqdefault.jpg","viewCount":"80","playlistId":"PLEkQk5xrP-tnu6of679SvxdVx0qSrJzmb","playlistName":"شرح سنن الإمام الترمذي رضى الله عنه د. يسري جبر","category":"متنوع"},{"id":"A8szgQVTlcw","title":"سورة البقرة آية 124","publishedAt":"2016-04-29T09:15:20Z","duration":"PT27M17S","thumbnail":"https://i.ytimg.com/vi/A8szgQVTlcw/mqdefault.jpg","viewCount":"1244","playlistId":"PLEkQk5xrP-tnmTYsyW6xNdyfhPq0Bhrhj","playlistName":"مقرأة الفجر - القُرْآنُ الكَرِيمُ - خَتْمَةُ التَّدَبُّرِ  أ.د. يسري جبر","category":"متنوع"},{"id":"rRsua6dsPSI","title":"شرح كتاب تفسير القرآن من سنن الترمذي - المجلس الثالث والعشرون","publishedAt":"2016-04-29T09:15:27Z","duration":"PT32M19S","thumbnail":"https://i.ytimg.com/vi/rRsua6dsPSI/mqdefault.jpg","viewCount":"77","playlistId":"PLEkQk5xrP-tnu6of679SvxdVx0qSrJzmb","playlistName":"شرح سنن الإمام الترمذي رضى الله عنه د. يسري جبر","category":"متنوع"},{"id":"gR_T3WwL7Xk","title":"الأنانية وحب الذات - د. يسري جبر","publishedAt":"2016-04-30T01:37:32Z","duration":"PT40M53S","thumbnail":"https://i.ytimg.com/vi/gR_T3WwL7Xk/mqdefault.jpg","viewCount":"1716","playlistId":"PLEkQk5xrP-tmJzNvLntpzW0uPanPzxA0c","playlistName":"لقاءات ومحاضرات","category":"متنوع"},{"id":"Ai25MbyFGpU","title":"سورة البقرة آية 133","publishedAt":"2016-05-01T02:53:01Z","duration":"PT8M39S","thumbnail":"https://i.ytimg.com/vi/Ai25MbyFGpU/mqdefault.jpg","viewCount":"1119","playlistId":"PLEkQk5xrP-tnmTYsyW6xNdyfhPq0Bhrhj","playlistName":"مقرأة الفجر - القُرْآنُ الكَرِيمُ - خَتْمَةُ التَّدَبُّرِ  أ.د. يسري جبر","category":"متنوع"},{"id":"GcBM0tMKhrU","title":"شرح كتاب تفسير القرآن من سنن الترمذي - المجلس الرابع والعشرون","publishedAt":"2016-05-01T02:53:01Z","duration":"PT33M12S","thumbnail":"https://i.ytimg.com/vi/GcBM0tMKhrU/mqdefault.jpg","viewCount":"100","playlistId":"PLEkQk5xrP-tnu6of679SvxdVx0qSrJzmb","playlistName":"شرح سنن الإمام الترمذي رضى الله عنه د. يسري جبر","category":"متنوع"},{"id":"FHrdOfBRlSU","title":"سورة البقرة آية 142","publishedAt":"2016-05-02T07:51:25Z","duration":"PT19M9S","thumbnail":"https://i.ytimg.com/vi/FHrdOfBRlSU/mqdefault.jpg","viewCount":"1185","playlistId":"PLEkQk5xrP-tnmTYsyW6xNdyfhPq0Bhrhj","playlistName":"مقرأة الفجر - القُرْآنُ الكَرِيمُ - خَتْمَةُ التَّدَبُّرِ  أ.د. يسري جبر","category":"متنوع"},{"id":"3X_gXg5SkAM","title":"شرح كتاب تفسير القرآن من سنن الترمذي - المجلس الخامس والعشرون","publishedAt":"2016-05-02T09:32:56Z","duration":"PT34M23S","thumbnail":"https://i.ytimg.com/vi/3X_gXg5SkAM/mqdefault.jpg","viewCount":"73","playlistId":"PLEkQk5xrP-tnu6of679SvxdVx0qSrJzmb","playlistName":"شرح سنن الإمام الترمذي رضى الله عنه د. يسري جبر","category":"متنوع"},{"id":"3bvccTFZCGg","title":"سورة البقرة آية 148","publishedAt":"2016-05-02T10:14:25Z","duration":"PT21M17S","thumbnail":"https://i.ytimg.com/vi/3bvccTFZCGg/mqdefault.jpg","viewCount":"1239","playlistId":"PLEkQk5xrP-tnmTYsyW6xNdyfhPq0Bhrhj","playlistName":"مقرأة الفجر - القُرْآنُ الكَرِيمُ - خَتْمَةُ التَّدَبُّرِ  أ.د. يسري جبر","category":"متنوع"},{"id":"_uXTRxhz9MY","title":"شرح كتاب تفسير القرآن من سنن الترمذي - المجلس السادس والعشرون","publishedAt":"2016-05-02T11:12:15Z","duration":"PT41M56S","thumbnail":"https://i.ytimg.com/vi/_uXTRxhz9MY/mqdefault.jpg","viewCount":"115","playlistId":"PLEkQk5xrP-tnu6of679SvxdVx0qSrJzmb","playlistName":"شرح سنن الإمام الترمذي رضى الله عنه د. يسري جبر","category":"متنوع"},{"id":"i7Eo2ddo2kw","title":"سورة البقرة آية 158","publishedAt":"2016-05-05T02:39:45Z","duration":"PT13M48S","thumbnail":"https://i.ytimg.com/vi/i7Eo2ddo2kw/mqdefault.jpg","viewCount":"1067","playlistId":"PLEkQk5xrP-tnmTYsyW6xNdyfhPq0Bhrhj","playlistName":"مقرأة الفجر - القُرْآنُ الكَرِيمُ - خَتْمَةُ التَّدَبُّرِ  أ.د. يسري جبر","category":"متنوع"},{"id":"v6HRT3igAgY","title":"شرح كتاب تفسير القرآن من سنن الترمذي - المجلس السابع والعشرون","publishedAt":"2016-05-05T02:40:30Z","duration":"PT29M23S","thumbnail":"https://i.ytimg.com/vi/v6HRT3igAgY/mqdefault.jpg","viewCount":"72","playlistId":"PLEkQk5xrP-tnu6of679SvxdVx0qSrJzmb","playlistName":"شرح سنن الإمام الترمذي رضى الله عنه د. يسري جبر","category":"متنوع"},{"id":"n9h14uMd-_o","title":"قراءة القرآن (من آية ١٦٦ سورة البقرة)","publishedAt":"2016-05-05T02:45:27Z","duration":"PT25M","thumbnail":"https://i.ytimg.com/vi/n9h14uMd-_o/mqdefault.jpg","viewCount":"1108","playlistId":"PLEkQk5xrP-tnmTYsyW6xNdyfhPq0Bhrhj","playlistName":"مقرأة الفجر - القُرْآنُ الكَرِيمُ - خَتْمَةُ التَّدَبُّرِ  أ.د. يسري جبر","category":"متنوع"},{"id":"hMk84T_HTtk","title":"شرح كتاب تفسير القرآن من سنن الترمذي - المجلس الثامن والعشرون","publishedAt":"2016-05-05T02:46:27Z","duration":"PT36M52S","thumbnail":"https://i.ytimg.com/vi/hMk84T_HTtk/mqdefault.jpg","viewCount":"124","playlistId":"PLEkQk5xrP-tnu6of679SvxdVx0qSrJzmb","playlistName":"شرح سنن الإمام الترمذي رضى الله عنه د. يسري جبر","category":"متنوع"},{"id":"gkZ5x1s6dAM","title":"قراءة القرآن (من آية ١٧٧ سورة البقرة)","publishedAt":"2016-05-06T09:24:43Z","duration":"PT16M1S","thumbnail":"https://i.ytimg.com/vi/gkZ5x1s6dAM/mqdefault.jpg","viewCount":"940","playlistId":"PLEkQk5xrP-tnmTYsyW6xNdyfhPq0Bhrhj","playlistName":"مقرأة الفجر - القُرْآنُ الكَرِيمُ - خَتْمَةُ التَّدَبُّرِ  أ.د. يسري جبر","category":"متنوع"}],"total":4129,"page":20,"pageSize":24,"totalPages":173}