{"items":[{"id":"c5hhs5xsOj4","title":"شرح كتاب نور اليقين في سيرة سيد المرسلين للشيخ الخضري رحمه الله (المجلس68) أ.د. يسري جبر","publishedAt":"2018-12-16T16:04:31Z","duration":"PT47M54S","thumbnail":"https://i.ytimg.com/vi/c5hhs5xsOj4/mqdefault.jpg","viewCount":"6399","playlistId":"PLEkQk5xrP-tl2t4NQx1IhKnAJCMzF0Nli","playlistName":"شرح كتاب نور اليقين في سيرة سيد المرسلين   د. يسري جبر","category":"سيرة"},{"id":"B2ESM4fqbgk","title":"شرح كتاب نور اليقين في سيرة سيد المرسلين للشيخ الخضري رحمه الله (المجلس70) أ.د. يسري جبر","publishedAt":"2018-12-25T15:47:11Z","duration":"PT50M50S","thumbnail":"https://i.ytimg.com/vi/B2ESM4fqbgk/mqdefault.jpg","viewCount":"6249","playlistId":"PLEkQk5xrP-tl2t4NQx1IhKnAJCMzF0Nli","playlistName":"شرح كتاب نور اليقين في سيرة سيد المرسلين   د. يسري جبر","category":"سيرة"},{"id":"ZJoYO7M5Q-0","title":"شرح كتاب نور اليقين في سيرة سيد المرسلين للشيخ الخضري رحمه الله (المجلس73) أ.د. يسري جبر","publishedAt":"2019-01-16T19:43:57Z","duration":"PT48M15S","thumbnail":"https://i.ytimg.com/vi/ZJoYO7M5Q-0/mqdefault.jpg","viewCount":"6215","playlistId":"PLEkQk5xrP-tl2t4NQx1IhKnAJCMzF0Nli","playlistName":"شرح كتاب نور اليقين في سيرة سيد المرسلين   د. يسري جبر","category":"سيرة"},{"id":"aEWx3xAGntg","title":"شرح كتاب نور اليقين في سيرة سيد المرسلين للشيخ الخضري رحمه الله (المجلس74) أ.د. يسري جبر","publishedAt":"2019-01-22T14:40:38Z","duration":"PT46M36S","thumbnail":"https://i.ytimg.com/vi/aEWx3xAGntg/mqdefault.jpg","viewCount":"6206","playlistId":"PLEkQk5xrP-tl2t4NQx1IhKnAJCMzF0Nli","playlistName":"شرح كتاب نور اليقين في سيرة سيد المرسلين   د. يسري جبر","category":"سيرة"}],"total":76,"page":4,"pageSize":24,"totalPages":4}