{"items":[{"id":"RM8yUAqnut8","title":"قراءة القرآن (من آية 53 سورة الفرقان)","publishedAt":"2015-06-30T03:21:56Z","duration":"PT20M51S","thumbnail":"https://i.ytimg.com/vi/RM8yUAqnut8/mqdefault.jpg","viewCount":"125","playlistId":"PLEkQk5xrP-tnUSUj0uyJhA-kwNC7Gkx_j","playlistName":"مقرأة الفجر - بداية من سورة الإسراء حتى سورة الناس","category":"تفسير"},{"id":"1Rk-V6-oZtk","title":"قراءة القرآن ( آية  1 من سورة الشعراء)","publishedAt":"2015-07-01T03:39:35Z","duration":"PT30M31S","thumbnail":"https://i.ytimg.com/vi/1Rk-V6-oZtk/mqdefault.jpg","viewCount":"124","playlistId":"PLEkQk5xrP-tnUSUj0uyJhA-kwNC7Gkx_j","playlistName":"مقرأة الفجر - بداية من سورة الإسراء حتى سورة الناس","category":"تفسير"},{"id":"m47XfuEIIV4","title":"قراءة القرآن (من أول سورة التين)","publishedAt":"2016-03-30T02:22:02Z","duration":"PT22M40S","thumbnail":"https://i.ytimg.com/vi/m47XfuEIIV4/mqdefault.jpg","viewCount":"123","playlistId":"PLEkQk5xrP-tnUSUj0uyJhA-kwNC7Gkx_j","playlistName":"مقرأة الفجر - بداية من سورة الإسراء حتى سورة الناس","category":"تفسير"},{"id":"GzNjiiVVvPU","title":"قراءة القرآن (من آية ٢٩ سورة المعارج)","publishedAt":"2016-02-24T07:24:02Z","duration":"PT17M59S","thumbnail":"https://i.ytimg.com/vi/GzNjiiVVvPU/mqdefault.jpg","viewCount":"122","playlistId":"PLEkQk5xrP-tnUSUj0uyJhA-kwNC7Gkx_j","playlistName":"مقرأة الفجر - بداية من سورة الإسراء حتى سورة الناس","category":"تفسير"},{"id":"6KHITiNuipw","title":"قراءة القرآن (من أول سورة القمر)","publishedAt":"2016-01-02T05:34:59Z","duration":"PT9M27S","thumbnail":"https://i.ytimg.com/vi/6KHITiNuipw/mqdefault.jpg","viewCount":"122","playlistId":"PLEkQk5xrP-tnUSUj0uyJhA-kwNC7Gkx_j","playlistName":"مقرأة الفجر - بداية من سورة الإسراء حتى سورة الناس","category":"تفسير"},{"id":"YUjygd_IYqc","title":"قراءة القرآن (من أول سورة الزلزلة)","publishedAt":"2016-04-03T02:22:41Z","duration":"PT5M28S","thumbnail":"https://i.ytimg.com/vi/YUjygd_IYqc/mqdefault.jpg","viewCount":"120","playlistId":"PLEkQk5xrP-tnUSUj0uyJhA-kwNC7Gkx_j","playlistName":"مقرأة الفجر - بداية من سورة الإسراء حتى سورة الناس","category":"تفسير"},{"id":"vablJh7kcLg","title":"قراءة القرآن (من أول سورة التحريم)","publishedAt":"2016-01-27T07:16:01Z","duration":"PT20M45S","thumbnail":"https://i.ytimg.com/vi/vablJh7kcLg/mqdefault.jpg","viewCount":"120","playlistId":"PLEkQk5xrP-tnUSUj0uyJhA-kwNC7Gkx_j","playlistName":"مقرأة الفجر - بداية من سورة الإسراء حتى سورة الناس","category":"تفسير"},{"id":"blUxPCRQAcA","title":"قراءة القرآن (من آية 76 سورة القصص)","publishedAt":"2015-07-14T03:33:50Z","duration":"PT21M11S","thumbnail":"https://i.ytimg.com/vi/blUxPCRQAcA/mqdefault.jpg","viewCount":"120","playlistId":"PLEkQk5xrP-tnUSUj0uyJhA-kwNC7Gkx_j","playlistName":"مقرأة الفجر - بداية من سورة الإسراء حتى سورة الناس","category":"تفسير"},{"id":"KiVHcQMxhlU","title":"قراءة القرآن (من آية 21 سورة الفرقان)","publishedAt":"2015-06-29T03:09:20Z","duration":"PT10M11S","thumbnail":"https://i.ytimg.com/vi/KiVHcQMxhlU/mqdefault.jpg","viewCount":"119","playlistId":"PLEkQk5xrP-tnUSUj0uyJhA-kwNC7Gkx_j","playlistName":"مقرأة الفجر - بداية من سورة الإسراء حتى سورة الناس","category":"تفسير"},{"id":"VrXxek8lgLg","title":"قراءة القرآن (من آية ٧٥ سورة الواقعة)","publishedAt":"2016-01-08T06:00:35Z","duration":"PT19M56S","thumbnail":"https://i.ytimg.com/vi/VrXxek8lgLg/mqdefault.jpg","viewCount":"117","playlistId":"PLEkQk5xrP-tnUSUj0uyJhA-kwNC7Gkx_j","playlistName":"مقرأة الفجر - بداية من سورة الإسراء حتى سورة الناس","category":"تفسير"},{"id":"nmTRYHuGSx4","title":"قراءة القرآن (من آية 45 سورة الأحزاب)","publishedAt":"2015-08-10T03:31:00Z","duration":"PT7M32S","thumbnail":"https://i.ytimg.com/vi/nmTRYHuGSx4/mqdefault.jpg","viewCount":"116","playlistId":"PLEkQk5xrP-tnUSUj0uyJhA-kwNC7Gkx_j","playlistName":"مقرأة الفجر - بداية من سورة الإسراء حتى سورة الناس","category":"تفسير"},{"id":"WdmgRr0cUBw","title":"قراءة القرآن ( من آية 114 سورة الصافات)","publishedAt":"2015-08-24T04:11:51Z","duration":"PT30M52S","thumbnail":"https://i.ytimg.com/vi/WdmgRr0cUBw/mqdefault.jpg","viewCount":"115","playlistId":"PLEkQk5xrP-tnUSUj0uyJhA-kwNC7Gkx_j","playlistName":"مقرأة الفجر - بداية من سورة الإسراء حتى سورة الناس","category":"تفسير"},{"id":"4yR9JMWM3FA","title":"قراءة القرآن (من أول سورة التكوير)","publishedAt":"2016-03-07T13:35:45Z","duration":"PT32M19S","thumbnail":"https://i.ytimg.com/vi/4yR9JMWM3FA/mqdefault.jpg","viewCount":"113","playlistId":"PLEkQk5xrP-tnUSUj0uyJhA-kwNC7Gkx_j","playlistName":"مقرأة الفجر - بداية من سورة الإسراء حتى سورة الناس","category":"تفسير"},{"id":"7Z0rjVeHg54","title":"قراءة القرآن (من آية 75 سورة المؤمنون)","publishedAt":"2015-06-23T03:18:57Z","duration":"PT21M36S","thumbnail":"https://i.ytimg.com/vi/7Z0rjVeHg54/mqdefault.jpg","viewCount":"113","playlistId":"PLEkQk5xrP-tnUSUj0uyJhA-kwNC7Gkx_j","playlistName":"مقرأة الفجر - بداية من سورة الإسراء حتى سورة الناس","category":"تفسير"},{"id":"aAeU9lZIeAc","title":"قراءة القرآن (من أول سورة النور)","publishedAt":"2015-06-24T03:14:20Z","duration":"PT15M45S","thumbnail":"https://i.ytimg.com/vi/aAeU9lZIeAc/mqdefault.jpg","viewCount":"112","playlistId":"PLEkQk5xrP-tnUSUj0uyJhA-kwNC7Gkx_j","playlistName":"مقرأة الفجر - بداية من سورة الإسراء حتى سورة الناس","category":"تفسير"},{"id":"O8vkKv_I_sg","title":"قراءة القرآن (من أول سورة نوح)","publishedAt":"2016-02-25T07:47:49Z","duration":"PT26M54S","thumbnail":"https://i.ytimg.com/vi/O8vkKv_I_sg/mqdefault.jpg","viewCount":"111","playlistId":"PLEkQk5xrP-tnUSUj0uyJhA-kwNC7Gkx_j","playlistName":"مقرأة الفجر - بداية من سورة الإسراء حتى سورة الناس","category":"تفسير"},{"id":"gMJ39YZc-ks","title":"قراءة القرآن (من أول سورة الفرقان)","publishedAt":"2015-06-28T03:06:30Z","duration":"PT13M31S","thumbnail":"https://i.ytimg.com/vi/gMJ39YZc-ks/mqdefault.jpg","viewCount":"110","playlistId":"PLEkQk5xrP-tnUSUj0uyJhA-kwNC7Gkx_j","playlistName":"مقرأة الفجر - بداية من سورة الإسراء حتى سورة الناس","category":"تفسير"},{"id":"pnh-rsuBe8k","title":"قراءة القرآن (من آية ٢٢ سورة الحديد)","publishedAt":"2016-01-14T07:08:44Z","duration":"PT19M4S","thumbnail":"https://i.ytimg.com/vi/pnh-rsuBe8k/mqdefault.jpg","viewCount":"108","playlistId":"PLEkQk5xrP-tnUSUj0uyJhA-kwNC7Gkx_j","playlistName":"مقرأة الفجر - بداية من سورة الإسراء حتى سورة الناس","category":"تفسير"},{"id":"vo22AQYmH5g","title":"قراءة القرآن (من أول سورة النازعات)","publishedAt":"2016-03-05T10:55:23Z","duration":"PT31M30S","thumbnail":"https://i.ytimg.com/vi/vo22AQYmH5g/mqdefault.jpg","viewCount":"106","playlistId":"PLEkQk5xrP-tnUSUj0uyJhA-kwNC7Gkx_j","playlistName":"مقرأة الفجر - بداية من سورة الإسراء حتى سورة الناس","category":"تفسير"},{"id":"8LxEN-Cl_D4","title":"قراءة القرآن (من أول سورة الماعون)","publishedAt":"2016-04-08T08:48:52Z","duration":"PT14M15S","thumbnail":"https://i.ytimg.com/vi/8LxEN-Cl_D4/mqdefault.jpg","viewCount":"105","playlistId":"PLEkQk5xrP-tnUSUj0uyJhA-kwNC7Gkx_j","playlistName":"مقرأة الفجر - بداية من سورة الإسراء حتى سورة الناس","category":"تفسير"},{"id":"xKN1fwtM360","title":"قراءة القرآن (من أول سورة الفجر)","publishedAt":"2016-03-16T03:39:40Z","duration":"PT35M59S","thumbnail":"https://i.ytimg.com/vi/xKN1fwtM360/mqdefault.jpg","viewCount":"105","playlistId":"PLEkQk5xrP-tnUSUj0uyJhA-kwNC7Gkx_j","playlistName":"مقرأة الفجر - بداية من سورة الإسراء حتى سورة الناس","category":"تفسير"},{"id":"Ldfz5DS8Ch0","title":"قراءة القرآن (من أول سورة المعارج)","publishedAt":"2016-02-23T09:49:02Z","duration":"PT27M58S","thumbnail":"https://i.ytimg.com/vi/Ldfz5DS8Ch0/mqdefault.jpg","viewCount":"105","playlistId":"PLEkQk5xrP-tnUSUj0uyJhA-kwNC7Gkx_j","playlistName":"مقرأة الفجر - بداية من سورة الإسراء حتى سورة الناس","category":"تفسير"},{"id":"xU41Hn_m3MY","title":"قراءة القرآن (من آية ١٠ سورة الممتحنة)","publishedAt":"2016-01-19T07:10:38Z","duration":"PT17M34S","thumbnail":"https://i.ytimg.com/vi/xU41Hn_m3MY/mqdefault.jpg","viewCount":"103","playlistId":"PLEkQk5xrP-tnUSUj0uyJhA-kwNC7Gkx_j","playlistName":"مقرأة الفجر - بداية من سورة الإسراء حتى سورة الناس","category":"تفسير"},{"id":"1kanSe9bSpI","title":"قراءة القرآن ( من آية 40 سورة سبإ)","publishedAt":"2015-08-15T03:42:42Z","duration":"PT15M17S","thumbnail":"https://i.ytimg.com/vi/1kanSe9bSpI/mqdefault.jpg","viewCount":"103","playlistId":"PLEkQk5xrP-tnUSUj0uyJhA-kwNC7Gkx_j","playlistName":"مقرأة الفجر - بداية من سورة الإسراء حتى سورة الناس","category":"تفسير"}],"total":142,"page":4,"pageSize":24,"totalPages":6}