{"items":[{"id":"i7dxDTHX8zI","title":"قراءة القرآن (من أول سورة العنكبون)","publishedAt":"2015-07-15T03:51:05Z","duration":"PT13M20S","thumbnail":"https://i.ytimg.com/vi/i7dxDTHX8zI/mqdefault.jpg","viewCount":"88","playlistId":"PLEkQk5xrP-tnUSUj0uyJhA-kwNC7Gkx_j","playlistName":"مقرأة الفجر - بداية من سورة الإسراء حتى سورة الناس","category":"تفسير"},{"id":"xRQJ4xa3dLs","title":"قراءة القرآن (من أول سورة الحاقة)","publishedAt":"2016-02-23T07:14:24Z","duration":"PT18M41S","thumbnail":"https://i.ytimg.com/vi/xRQJ4xa3dLs/mqdefault.jpg","viewCount":"87","playlistId":"PLEkQk5xrP-tnUSUj0uyJhA-kwNC7Gkx_j","playlistName":"مقرأة الفجر - بداية من سورة الإسراء حتى سورة الناس","category":"تفسير"},{"id":"EHDlqO7Y4VU","title":"قراءة القرآن (من أول سورة العاديات)","publishedAt":"2016-04-04T03:19:36Z","duration":"PT6M56S","thumbnail":"https://i.ytimg.com/vi/EHDlqO7Y4VU/mqdefault.jpg","viewCount":"86","playlistId":"PLEkQk5xrP-tnUSUj0uyJhA-kwNC7Gkx_j","playlistName":"مقرأة الفجر - بداية من سورة الإسراء حتى سورة الناس","category":"تفسير"},{"id":"77Fnywjqqrk","title":"قراءة القرآن (من أول سورة الصف)","publishedAt":"2016-01-21T07:21:56Z","duration":"PT17M19S","thumbnail":"https://i.ytimg.com/vi/77Fnywjqqrk/mqdefault.jpg","viewCount":"86","playlistId":"PLEkQk5xrP-tnUSUj0uyJhA-kwNC7Gkx_j","playlistName":"مقرأة الفجر - بداية من سورة الإسراء حتى سورة الناس","category":"تفسير"},{"id":"2yWAEXOEnXM","title":"قراءة القرآن (من أول سورة الانشقاق)","publishedAt":"2016-03-10T13:11:55Z","duration":"PT10M52S","thumbnail":"https://i.ytimg.com/vi/2yWAEXOEnXM/mqdefault.jpg","viewCount":"85","playlistId":"PLEkQk5xrP-tnUSUj0uyJhA-kwNC7Gkx_j","playlistName":"مقرأة الفجر - بداية من سورة الإسراء حتى سورة الناس","category":"تفسير"},{"id":"HNMWALLByAI","title":"قراءة القرآن (من أول سورة التغابن)","publishedAt":"2016-01-25T07:13:58Z","duration":"PT22M26S","thumbnail":"https://i.ytimg.com/vi/HNMWALLByAI/mqdefault.jpg","viewCount":"83","playlistId":"PLEkQk5xrP-tnUSUj0uyJhA-kwNC7Gkx_j","playlistName":"مقرأة الفجر - بداية من سورة الإسراء حتى سورة الناس","category":"تفسير"},{"id":"Pmv19ulMRuo","title":"قراءة القرآن (من أول سورة القارعة)","publishedAt":"2016-04-05T03:13:41Z","duration":"PT5M21S","thumbnail":"https://i.ytimg.com/vi/Pmv19ulMRuo/mqdefault.jpg","viewCount":"82","playlistId":"PLEkQk5xrP-tnUSUj0uyJhA-kwNC7Gkx_j","playlistName":"مقرأة الفجر - بداية من سورة الإسراء حتى سورة الناس","category":"تفسير"},{"id":"bJf3Jzbkx2c","title":"قراءة القرآن (من آية ١٨ سورة الحشر)","publishedAt":"2016-01-17T06:28:04Z","duration":"PT8M5S","thumbnail":"https://i.ytimg.com/vi/bJf3Jzbkx2c/mqdefault.jpg","viewCount":"81","playlistId":"PLEkQk5xrP-tnUSUj0uyJhA-kwNC7Gkx_j","playlistName":"مقرأة الفجر - بداية من سورة الإسراء حتى سورة الناس","category":"تفسير"},{"id":"n7fmobcCccQ","title":"قراءة القرآن (من أول سورة الشمس)","publishedAt":"2016-03-17T08:40:59Z","duration":"PT8M7S","thumbnail":"https://i.ytimg.com/vi/n7fmobcCccQ/mqdefault.jpg","viewCount":"80","playlistId":"PLEkQk5xrP-tnUSUj0uyJhA-kwNC7Gkx_j","playlistName":"مقرأة الفجر - بداية من سورة الإسراء حتى سورة الناس","category":"تفسير"},{"id":"DDfiWgM8_os","title":"قراءة القرآن (من أول سورة الطلاق)","publishedAt":"2016-01-25T09:25:25Z","duration":"PT30M41S","thumbnail":"https://i.ytimg.com/vi/DDfiWgM8_os/mqdefault.jpg","viewCount":"80","playlistId":"PLEkQk5xrP-tnUSUj0uyJhA-kwNC7Gkx_j","playlistName":"مقرأة الفجر - بداية من سورة الإسراء حتى سورة الناس","category":"تفسير"},{"id":"tQ2mTUIcrNw","title":"قراءة القرآن (من آية 18 سورة الأحزاب)","publishedAt":"2015-08-07T03:55:26Z","duration":"PT9M26S","thumbnail":"https://i.ytimg.com/vi/tQ2mTUIcrNw/mqdefault.jpg","viewCount":"80","playlistId":"PLEkQk5xrP-tnUSUj0uyJhA-kwNC7Gkx_j","playlistName":"مقرأة الفجر - بداية من سورة الإسراء حتى سورة الناس","category":"تفسير"},{"id":"5Oei6jQ_3TE","title":"قراءة القرآن (من أول سورة البروج)","publishedAt":"2016-03-12T11:09:57Z","duration":"PT16M20S","thumbnail":"https://i.ytimg.com/vi/5Oei6jQ_3TE/mqdefault.jpg","viewCount":"79","playlistId":"PLEkQk5xrP-tnUSUj0uyJhA-kwNC7Gkx_j","playlistName":"مقرأة الفجر - بداية من سورة الإسراء حتى سورة الناس","category":"تفسير"},{"id":"PirGYZ50ulE","title":"قراءة القرآن (من أول سورة القدر)","publishedAt":"2016-04-01T02:17:11Z","duration":"PT16M39S","thumbnail":"https://i.ytimg.com/vi/PirGYZ50ulE/mqdefault.jpg","viewCount":"79","playlistId":"PLEkQk5xrP-tnUSUj0uyJhA-kwNC7Gkx_j","playlistName":"مقرأة الفجر - بداية من سورة الإسراء حتى سورة الناس","category":"تفسير"},{"id":"wFUZoty_Tv8","title":"قراءة القرآن (من أول سورة الغاشية)","publishedAt":"2016-03-15T11:39:50Z","duration":"PT21M11S","thumbnail":"https://i.ytimg.com/vi/wFUZoty_Tv8/mqdefault.jpg","viewCount":"78","playlistId":"PLEkQk5xrP-tnUSUj0uyJhA-kwNC7Gkx_j","playlistName":"مقرأة الفجر - بداية من سورة الإسراء حتى سورة الناس","category":"تفسير"},{"id":"hLUxHbxakuw","title":"قراءة القرآن (من أول سورة المرسلات)","publishedAt":"2016-03-05T10:17:18Z","duration":"PT22M19S","thumbnail":"https://i.ytimg.com/vi/hLUxHbxakuw/mqdefault.jpg","viewCount":"76","playlistId":"PLEkQk5xrP-tnUSUj0uyJhA-kwNC7Gkx_j","playlistName":"مقرأة الفجر - بداية من سورة الإسراء حتى سورة الناس","category":"تفسير"},{"id":"XmePbgiaUvw","title":"قراءة القرآن (من أول سورة المنافقون)","publishedAt":"2016-01-23T22:41:46Z","duration":"PT12M25S","thumbnail":"https://i.ytimg.com/vi/XmePbgiaUvw/mqdefault.jpg","viewCount":"76","playlistId":"PLEkQk5xrP-tnUSUj0uyJhA-kwNC7Gkx_j","playlistName":"مقرأة الفجر - بداية من سورة الإسراء حتى سورة الناس","category":"تفسير"},{"id":"ESyKPcT-vs8","title":"قراءة القرآن (من أول سورة الأعلى)","publishedAt":"2016-03-15T09:17:55Z","duration":"PT19M23S","thumbnail":"https://i.ytimg.com/vi/ESyKPcT-vs8/mqdefault.jpg","viewCount":"74","playlistId":"PLEkQk5xrP-tnUSUj0uyJhA-kwNC7Gkx_j","playlistName":"مقرأة الفجر - بداية من سورة الإسراء حتى سورة الناس","category":"تفسير"},{"id":"V8r4-_fVHRQ","title":"قراءة القرآن (من أول سورة الجمعة)","publishedAt":"2016-01-22T07:32:51Z","duration":"PT18M21S","thumbnail":"https://i.ytimg.com/vi/V8r4-_fVHRQ/mqdefault.jpg","viewCount":"74","playlistId":"PLEkQk5xrP-tnUSUj0uyJhA-kwNC7Gkx_j","playlistName":"مقرأة الفجر - بداية من سورة الإسراء حتى سورة الناس","category":"تفسير"},{"id":"hK9yWyXk3uo","title":"قراءة القرآن (من آية ٧ سورة التحريم)","publishedAt":"2016-01-29T04:25:11Z","duration":"PT14M28S","thumbnail":"https://i.ytimg.com/vi/hK9yWyXk3uo/mqdefault.jpg","viewCount":"69","playlistId":"PLEkQk5xrP-tnUSUj0uyJhA-kwNC7Gkx_j","playlistName":"مقرأة الفجر - بداية من سورة الإسراء حتى سورة الناس","category":"تفسير"},{"id":"fkBuUGh4fsE","title":"قراءة القرآن (من آية ٧ سورة الصف)","publishedAt":"2016-01-22T04:45:30Z","duration":"PT5M20S","thumbnail":"https://i.ytimg.com/vi/fkBuUGh4fsE/mqdefault.jpg","viewCount":"69","playlistId":"PLEkQk5xrP-tnUSUj0uyJhA-kwNC7Gkx_j","playlistName":"مقرأة الفجر - بداية من سورة الإسراء حتى سورة الناس","category":"تفسير"},{"id":"w353xitboB8","title":"قراءة القرآن (من أول سورة المطففين)","publishedAt":"2016-03-10T13:10:01Z","duration":"PT11M58S","thumbnail":"https://i.ytimg.com/vi/w353xitboB8/mqdefault.jpg","viewCount":"66","playlistId":"PLEkQk5xrP-tnUSUj0uyJhA-kwNC7Gkx_j","playlistName":"مقرأة الفجر - بداية من سورة الإسراء حتى سورة الناس","category":"تفسير"},{"id":"EIOUQVBLlBY","title":"قراءة القرآن (من أول سورة الانفطار)","publishedAt":"2016-03-10T10:40:02Z","duration":"PT10M19S","thumbnail":"https://i.ytimg.com/vi/EIOUQVBLlBY/mqdefault.jpg","viewCount":"61","playlistId":"PLEkQk5xrP-tnUSUj0uyJhA-kwNC7Gkx_j","playlistName":"مقرأة الفجر - بداية من سورة الإسراء حتى سورة الناس","category":"تفسير"}],"total":142,"page":6,"pageSize":24,"totalPages":6}