{"items":[{"id":"ENDw4lMBlCg","title":"قراءة القرآن (من آية ١٦ سورة الملك)","publishedAt":"2016-01-30T08:46:18Z","duration":"PT12M12S","thumbnail":"https://i.ytimg.com/vi/ENDw4lMBlCg/mqdefault.jpg","viewCount":"160","playlistId":"PLEkQk5xrP-tnUSUj0uyJhA-kwNC7Gkx_j","playlistName":"مقرأة الفجر - بداية من سورة الإسراء حتى سورة الناس","category":"تفسير"},{"id":"grcUwcD3oCk","title":"قراءة القرآن (من أول سورة الجن)","publishedAt":"2016-02-28T07:27:00Z","duration":"PT25M8S","thumbnail":"https://i.ytimg.com/vi/grcUwcD3oCk/mqdefault.jpg","viewCount":"158","playlistId":"PLEkQk5xrP-tnUSUj0uyJhA-kwNC7Gkx_j","playlistName":"مقرأة الفجر - بداية من سورة الإسراء حتى سورة الناس","category":"تفسير"},{"id":"tpeIWwiMGE4","title":"قراءة القرآن (من آية ١٨  سورة القمر)","publishedAt":"2016-01-03T05:33:30Z","duration":"PT12M32S","thumbnail":"https://i.ytimg.com/vi/tpeIWwiMGE4/mqdefault.jpg","viewCount":"155","playlistId":"PLEkQk5xrP-tnUSUj0uyJhA-kwNC7Gkx_j","playlistName":"مقرأة الفجر - بداية من سورة الإسراء حتى سورة الناس","category":"تفسير"},{"id":"ETjuh9eKIOU","title":"قراءة القرآن ( من أول سورة سبإ )","publishedAt":"2015-08-12T03:57:26Z","duration":"PT21M10S","thumbnail":"https://i.ytimg.com/vi/ETjuh9eKIOU/mqdefault.jpg","viewCount":"152","playlistId":"PLEkQk5xrP-tnUSUj0uyJhA-kwNC7Gkx_j","playlistName":"مقرأة الفجر - بداية من سورة الإسراء حتى سورة الناس","category":"تفسير"},{"id":"1VetnXY1KY8","title":"قراءة القرآن (من أول سورة الحج)","publishedAt":"2015-06-17T03:06:26Z","duration":"PT11M11S","thumbnail":"https://i.ytimg.com/vi/1VetnXY1KY8/mqdefault.jpg","viewCount":"150","playlistId":"PLEkQk5xrP-tnUSUj0uyJhA-kwNC7Gkx_j","playlistName":"مقرأة الفجر - بداية من سورة الإسراء حتى سورة الناس","category":"تفسير"},{"id":"ABig3duE9G8","title":"قراءة القرآن (من أول سورة العلق)","publishedAt":"2016-03-31T02:18:26Z","duration":"PT24M17S","thumbnail":"https://i.ytimg.com/vi/ABig3duE9G8/mqdefault.jpg","viewCount":"148","playlistId":"PLEkQk5xrP-tnUSUj0uyJhA-kwNC7Gkx_j","playlistName":"مقرأة الفجر - بداية من سورة الإسراء حتى سورة الناس","category":"تفسير"},{"id":"cp9i8luGaBs","title":"قراءة القرآن (من آية ٤١ سورة الواقعة)","publishedAt":"2016-01-07T05:45:36Z","duration":"PT14M35S","thumbnail":"https://i.ytimg.com/vi/cp9i8luGaBs/mqdefault.jpg","viewCount":"147","playlistId":"PLEkQk5xrP-tnUSUj0uyJhA-kwNC7Gkx_j","playlistName":"مقرأة الفجر - بداية من سورة الإسراء حتى سورة الناس","category":"تفسير"},{"id":"ESmgdlCcFp4","title":"قراءة القرآن (من آية 31 سورة الروم)","publishedAt":"2015-07-27T03:27:46Z","duration":"PT17M56S","thumbnail":"https://i.ytimg.com/vi/ESmgdlCcFp4/mqdefault.jpg","viewCount":"144","playlistId":"PLEkQk5xrP-tnUSUj0uyJhA-kwNC7Gkx_j","playlistName":"مقرأة الفجر - بداية من سورة الإسراء حتى سورة الناس","category":"تفسير"},{"id":"EXzdg2kkm9k","title":"قراءة القرآن (من أول سورة الرحمن)","publishedAt":"2016-01-04T05:27:00Z","duration":"PT25M41S","thumbnail":"https://i.ytimg.com/vi/EXzdg2kkm9k/mqdefault.jpg","viewCount":"143","playlistId":"PLEkQk5xrP-tnUSUj0uyJhA-kwNC7Gkx_j","playlistName":"مقرأة الفجر - بداية من سورة الإسراء حتى سورة الناس","category":"تفسير"},{"id":"VA5OOeD7v18","title":"قراءة القرآن (من آية 35 سورة النور)","publishedAt":"2015-06-26T03:30:14Z","duration":"PT17M32S","thumbnail":"https://i.ytimg.com/vi/VA5OOeD7v18/mqdefault.jpg","viewCount":"141","playlistId":"PLEkQk5xrP-tnUSUj0uyJhA-kwNC7Gkx_j","playlistName":"مقرأة الفجر - بداية من سورة الإسراء حتى سورة الناس","category":"تفسير"},{"id":"k_7s-qeOQSk","title":"قراءة القرآن (من أول سورة العصر)","publishedAt":"2016-04-07T02:17:41Z","duration":"PT25M52S","thumbnail":"https://i.ytimg.com/vi/k_7s-qeOQSk/mqdefault.jpg","viewCount":"141","playlistId":"PLEkQk5xrP-tnUSUj0uyJhA-kwNC7Gkx_j","playlistName":"مقرأة الفجر - بداية من سورة الإسراء حتى سورة الناس","category":"تفسير"},{"id":"teDCmLb-Bhs","title":"قراءة القرآن ( من آية 75 سورة الصافات)","publishedAt":"2015-08-23T04:07:05Z","duration":"PT24M","thumbnail":"https://i.ytimg.com/vi/teDCmLb-Bhs/mqdefault.jpg","viewCount":"138","playlistId":"PLEkQk5xrP-tnUSUj0uyJhA-kwNC7Gkx_j","playlistName":"مقرأة الفجر - بداية من سورة الإسراء حتى سورة الناس","category":"تفسير"},{"id":"Rl2tiLPLG18","title":"قراءة القرآن (من آية 9 سورة الأحزاب)","publishedAt":"2015-08-06T03:56:57Z","duration":"PT7M11S","thumbnail":"https://i.ytimg.com/vi/Rl2tiLPLG18/mqdefault.jpg","viewCount":"138","playlistId":"PLEkQk5xrP-tnUSUj0uyJhA-kwNC7Gkx_j","playlistName":"مقرأة الفجر - بداية من سورة الإسراء حتى سورة الناس","category":"تفسير"},{"id":"Tie5cFqjiJw","title":"قراءة القرآن (من أول سورة الأنبياء)","publishedAt":"2015-06-13T03:33:29Z","duration":"PT18M30S","thumbnail":"https://i.ytimg.com/vi/Tie5cFqjiJw/mqdefault.jpg","viewCount":"136","playlistId":"PLEkQk5xrP-tnUSUj0uyJhA-kwNC7Gkx_j","playlistName":"مقرأة الفجر - بداية من سورة الإسراء حتى سورة الناس","category":"تفسير"},{"id":"oeqdy5pB93k","title":"قراءة القرآن (من أول سورة الملك)","publishedAt":"2016-01-29T07:10:36Z","duration":"PT18M46S","thumbnail":"https://i.ytimg.com/vi/oeqdy5pB93k/mqdefault.jpg","viewCount":"136","playlistId":"PLEkQk5xrP-tnUSUj0uyJhA-kwNC7Gkx_j","playlistName":"مقرأة الفجر - بداية من سورة الإسراء حتى سورة الناس","category":"تفسير"},{"id":"RljOHJmABkc","title":"قراءة القرآن (من أول سورة المؤمنون)","publishedAt":"2015-06-21T03:11:42Z","duration":"PT18M56S","thumbnail":"https://i.ytimg.com/vi/RljOHJmABkc/mqdefault.jpg","viewCount":"135","playlistId":"PLEkQk5xrP-tnUSUj0uyJhA-kwNC7Gkx_j","playlistName":"مقرأة الفجر - بداية من سورة الإسراء حتى سورة الناس","category":"تفسير"},{"id":"S9oMaEPPFkY","title":"قراءة القرآن (من آية 59 سورة النمل)","publishedAt":"2015-07-07T03:22:10Z","duration":"PT13M11S","thumbnail":"https://i.ytimg.com/vi/S9oMaEPPFkY/mqdefault.jpg","viewCount":"135","playlistId":"PLEkQk5xrP-tnUSUj0uyJhA-kwNC7Gkx_j","playlistName":"مقرأة الفجر - بداية من سورة الإسراء حتى سورة الناس","category":"تفسير"},{"id":"4Jz37mBQVPg","title":"قراءة القرآن ( من أول سورة النبأ )","publishedAt":"2016-03-05T10:18:06Z","duration":"PT14M14S","thumbnail":"https://i.ytimg.com/vi/4Jz37mBQVPg/mqdefault.jpg","viewCount":"134","playlistId":"PLEkQk5xrP-tnUSUj0uyJhA-kwNC7Gkx_j","playlistName":"مقرأة الفجر - بداية من سورة الإسراء حتى سورة الناس","category":"تفسير"},{"id":"r_VeippPn3E","title":"قراءة القرآن (من أول سورة المجادلة)","publishedAt":"2016-01-14T08:46:46Z","duration":"PT17M38S","thumbnail":"https://i.ytimg.com/vi/r_VeippPn3E/mqdefault.jpg","viewCount":"131","playlistId":"PLEkQk5xrP-tnUSUj0uyJhA-kwNC7Gkx_j","playlistName":"مقرأة الفجر - بداية من سورة الإسراء حتى سورة الناس","category":"تفسير"},{"id":"_ZaAjn6CWcA","title":"قراءة القرآن (من آية ٧ سورة الحديد)","publishedAt":"2016-01-10T07:28:44Z","duration":"PT23M34S","thumbnail":"https://i.ytimg.com/vi/_ZaAjn6CWcA/mqdefault.jpg","viewCount":"127","playlistId":"PLEkQk5xrP-tnUSUj0uyJhA-kwNC7Gkx_j","playlistName":"مقرأة الفجر - بداية من سورة الإسراء حتى سورة الناس","category":"تفسير"},{"id":"XhPK1vXVhUo","title":"قراءة القرآن ( من أول سورة الزمر)","publishedAt":"2015-11-06T05:27:25Z","duration":"PT21M51S","thumbnail":"https://i.ytimg.com/vi/XhPK1vXVhUo/mqdefault.jpg","viewCount":"126","playlistId":"PLEkQk5xrP-tnUSUj0uyJhA-kwNC7Gkx_j","playlistName":"مقرأة الفجر - بداية من سورة الإسراء حتى سورة الناس","category":"تفسير"},{"id":"1zFG65YA5sQ","title":"قراءة القرآن ( من أول سورة ص)","publishedAt":"2015-08-25T04:22:26Z","duration":"PT35M36S","thumbnail":"https://i.ytimg.com/vi/1zFG65YA5sQ/mqdefault.jpg","viewCount":"125","playlistId":"PLEkQk5xrP-tnUSUj0uyJhA-kwNC7Gkx_j","playlistName":"مقرأة الفجر - بداية من سورة الإسراء حتى سورة الناس","category":"تفسير"},{"id":"RM8yUAqnut8","title":"قراءة القرآن (من آية 53 سورة الفرقان)","publishedAt":"2015-06-30T03:21:56Z","duration":"PT20M51S","thumbnail":"https://i.ytimg.com/vi/RM8yUAqnut8/mqdefault.jpg","viewCount":"125","playlistId":"PLEkQk5xrP-tnUSUj0uyJhA-kwNC7Gkx_j","playlistName":"مقرأة الفجر - بداية من سورة الإسراء حتى سورة الناس","category":"تفسير"},{"id":"Rk00KTPOC9I","title":"قراءة القرآن (من آية 105 سورة الشعراء)","publishedAt":"2015-07-03T03:36:25Z","duration":"PT14M26S","thumbnail":"https://i.ytimg.com/vi/Rk00KTPOC9I/mqdefault.jpg","viewCount":"125","playlistId":"PLEkQk5xrP-tnUSUj0uyJhA-kwNC7Gkx_j","playlistName":"مقرأة الفجر - بداية من سورة الإسراء حتى سورة الناس","category":"تفسير"}],"total":142,"page":3,"pageSize":24,"totalPages":6}