{"items":[{"id":"uBaiacOIKdU","title":"427- تحريم الغِيبة والأمر بحفظ اللسان - شرح دليل الفالحين","publishedAt":"2023-04-26T05:00:32Z","duration":"PT36M45S","thumbnail":"https://i.ytimg.com/vi/uBaiacOIKdU/mqdefault.jpg","viewCount":"1138","playlistId":"PLEkQk5xrP-tkc9DXvSLguqX5-FYp6ASR4","playlistName":"دليل الفالحين لطرق رياض الصالحين","category":"متنوع"},{"id":"9vinIDSmd8I","title":"526- أَوَّلُ مَن سنَّ ركعتَي الشَّهادة - شرح دليل الفالحين","publishedAt":"2023-04-25T18:00:03Z","duration":"PT31M51S","thumbnail":"https://i.ytimg.com/vi/9vinIDSmd8I/mqdefault.jpg","viewCount":"799","playlistId":"PLEkQk5xrP-tkc9DXvSLguqX5-FYp6ASR4","playlistName":"دليل الفالحين لطرق رياض الصالحين","category":"متنوع"},{"id":"4WUuJEtLInY","title":"54-“إنكم لتعملون أعمالاً هي أدقُّ في أعينكم من الشَّعر...”الحديث(4) باب المراقبة - شرح دليل الفالحين","publishedAt":"2021-05-06T06:01:34Z","duration":"PT39M49S","thumbnail":"https://i.ytimg.com/vi/4WUuJEtLInY/mqdefault.jpg","viewCount":"1613","playlistId":"PLEkQk5xrP-tkc9DXvSLguqX5-FYp6ASR4","playlistName":"دليل الفالحين لطرق رياض الصالحين","category":"متنوع"},{"id":"9-HI-Z8BZoY","title":"53-“يا غُلامُ إنِّي أعلِّمُكَ كلِماتٍ...”الحديث (3) باب المراقبة - شرح دليل الفالحين","publishedAt":"2021-05-04T05:26:34Z","duration":"PT38M52S","thumbnail":"https://i.ytimg.com/vi/9-HI-Z8BZoY/mqdefault.jpg","viewCount":"1826","playlistId":"PLEkQk5xrP-tkc9DXvSLguqX5-FYp6ASR4","playlistName":"دليل الفالحين لطرق رياض الصالحين","category":"متنوع"},{"id":"1MhPmuB0k1s","title":"52-“اتق اللهَ حيثما كنت، وأتْبع السيئةَ الحسنةَ تمحها...”الحديث (2) باب المراقبة - شرح دليل الفالحين","publishedAt":"2021-05-01T05:06:04Z","duration":"PT27M28S","thumbnail":"https://i.ytimg.com/vi/1MhPmuB0k1s/mqdefault.jpg","viewCount":"2149","playlistId":"PLEkQk5xrP-tkc9DXvSLguqX5-FYp6ASR4","playlistName":"دليل الفالحين لطرق رياض الصالحين","category":"متنوع"},{"id":"IC6sD9lwZVQ","title":"288- استحباب كون ساقي القوم آخرهم شُربًا - شرح دليل الفالحين","publishedAt":"2022-08-18T18:45:01Z","duration":"PT35M14S","thumbnail":"https://i.ytimg.com/vi/IC6sD9lwZVQ/mqdefault.jpg","viewCount":"789","playlistId":"PLEkQk5xrP-tkc9DXvSLguqX5-FYp6ASR4","playlistName":"دليل الفالحين لطرق رياض الصالحين","category":"متنوع"},{"id":"G9zuezXSAV0","title":"413- ما يُقالُ عند النوم - شرح دليل الفالحين","publishedAt":"2023-03-17T05:00:05Z","duration":"PT38M54S","thumbnail":"https://i.ytimg.com/vi/G9zuezXSAV0/mqdefault.jpg","viewCount":"1247","playlistId":"PLEkQk5xrP-tkc9DXvSLguqX5-FYp6ASR4","playlistName":"دليل الفالحين لطرق رياض الصالحين","category":"متنوع"},{"id":"s_pkd3y5nnc","title":"412- بيان ما يُقال إذا أمسيْت وإذا أصبحْت وإذا أخذْت مضجعك - شرح دليل الفالحين","publishedAt":"2023-03-15T05:35:00Z","duration":"PT30M18S","thumbnail":"https://i.ytimg.com/vi/s_pkd3y5nnc/mqdefault.jpg","viewCount":"995","playlistId":"PLEkQk5xrP-tkc9DXvSLguqX5-FYp6ASR4","playlistName":"دليل الفالحين لطرق رياض الصالحين","category":"متنوع"},{"id":"coMCGvsdBhI","title":"411- الذكر عند الصباح والمساء وبيان وقته - شرح دليل الفالحين","publishedAt":"2023-03-13T05:00:14Z","duration":"PT26M10S","thumbnail":"https://i.ytimg.com/vi/coMCGvsdBhI/mqdefault.jpg","viewCount":"1918","playlistId":"PLEkQk5xrP-tkc9DXvSLguqX5-FYp6ASR4","playlistName":"دليل الفالحين لطرق رياض الصالحين","category":"متنوع"},{"id":"5mhTZ4lK7iQ","title":"410- لا يَقْعُدُ قَومٌ يذْكُرون اللَّهَ عزَّ وجلَّ إِلّا حفَّتْهمُ الملَائكةُ، وغشيَتْهمُ الرَّحْمةُ","publishedAt":"2023-03-11T05:00:02Z","duration":"PT26M22S","thumbnail":"https://i.ytimg.com/vi/5mhTZ4lK7iQ/mqdefault.jpg","viewCount":"1127","playlistId":"PLEkQk5xrP-tkc9DXvSLguqX5-FYp6ASR4","playlistName":"دليل الفالحين لطرق رياض الصالحين","category":"متنوع"},{"id":"RXa4VbAx1JA","title":"409- فضل حِلَقِ الذِكر والندب على ملازمتها والنهي عن مفارقتها لغير عذر - شرح دليل الفالحين","publishedAt":"2023-03-09T05:00:16Z","duration":"PT30M5S","thumbnail":"https://i.ytimg.com/vi/RXa4VbAx1JA/mqdefault.jpg","viewCount":"1806","playlistId":"PLEkQk5xrP-tkc9DXvSLguqX5-FYp6ASR4","playlistName":"دليل الفالحين لطرق رياض الصالحين","category":"متنوع"},{"id":"cIpcCFQwEUU","title":"408- أَلَا أُنَبِّئُكم بِخَيْرِ أعمالِكُم، وأَزْكاها عِندَ مَلِيكِكُم، وأَرفعِها في دَرَجاتِكُم…","publishedAt":"2023-03-07T05:00:15Z","duration":"PT36M11S","thumbnail":"https://i.ytimg.com/vi/cIpcCFQwEUU/mqdefault.jpg","viewCount":"1466","playlistId":"PLEkQk5xrP-tkc9DXvSLguqX5-FYp6ASR4","playlistName":"دليل الفالحين لطرق رياض الصالحين","category":"متنوع"},{"id":"keTcAWuR-xk","title":"334- مَنْ هم الغُرُّ المُحجَّلَين؟ - شرح دليل الفالحين","publishedAt":"2022-11-15T09:00:35Z","duration":"PT32M24S","thumbnail":"https://i.ytimg.com/vi/keTcAWuR-xk/mqdefault.jpg","viewCount":"899","playlistId":"PLEkQk5xrP-tkc9DXvSLguqX5-FYp6ASR4","playlistName":"دليل الفالحين لطرق رياض الصالحين","category":"متنوع"},{"id":"a5KoLQ9IGQI","title":"333- فضلُ الوُضُوء - شرح دليل الفالحين","publishedAt":"2022-11-13T09:00:00Z","duration":"PT54M37S","thumbnail":"https://i.ytimg.com/vi/a5KoLQ9IGQI/mqdefault.jpg","viewCount":"882","playlistId":"PLEkQk5xrP-tkc9DXvSLguqX5-FYp6ASR4","playlistName":"دليل الفالحين لطرق رياض الصالحين","category":"متنوع"},{"id":"tK9ww_wgxyM","title":"455- تحريم تشبُّه الرجال بالنساء وتشبُّه النساء بالرجال في لباسٍ وحركةٍ وغير ذلك - شرح دليل الفالحين","publishedAt":"2023-05-25T05:00:21Z","duration":"PT29M1S","thumbnail":"https://i.ytimg.com/vi/tK9ww_wgxyM/mqdefault.jpg","viewCount":"947","playlistId":"PLEkQk5xrP-tkc9DXvSLguqX5-FYp6ASR4","playlistName":"دليل الفالحين لطرق رياض الصالحين","category":"متنوع"},{"id":"6YOfAFitJ_8","title":"454- تحريم الخلوة بالأجنبية - شرح دليل الفالحين","publishedAt":"2023-05-24T08:59:00Z","duration":"PT15M43S","thumbnail":"https://i.ytimg.com/vi/6YOfAFitJ_8/mqdefault.jpg","viewCount":"741","playlistId":"PLEkQk5xrP-tkc9DXvSLguqX5-FYp6ASR4","playlistName":"دليل الفالحين لطرق رياض الصالحين","category":"متنوع"},{"id":"KqeNpslX2H4","title":"453- تحريم النظر إلى المرأة الأجنبية والأمرد الحسن لغير حاجة شرعية - شرح دليل الفالحين","publishedAt":"2023-05-23T08:59:00Z","duration":"PT30M35S","thumbnail":"https://i.ytimg.com/vi/KqeNpslX2H4/mqdefault.jpg","viewCount":"1332","playlistId":"PLEkQk5xrP-tkc9DXvSLguqX5-FYp6ASR4","playlistName":"دليل الفالحين لطرق رياض الصالحين","category":"متنوع"},{"id":"hLHHJIhtkz0","title":"452- تحريم الرياء  - شرح دليل الفالحين","publishedAt":"2023-05-22T05:00:20Z","duration":"PT32M1S","thumbnail":"https://i.ytimg.com/vi/hLHHJIhtkz0/mqdefault.jpg","viewCount":"870","playlistId":"PLEkQk5xrP-tkc9DXvSLguqX5-FYp6ASR4","playlistName":"دليل الفالحين لطرق رياض الصالحين","category":"متنوع"},{"id":"txiPVGj-VQo","title":"451- تغليظ تحريم الرِّبا - شرح دليل الفالحين","publishedAt":"2023-05-21T05:00:32Z","duration":"PT31M47S","thumbnail":"https://i.ytimg.com/vi/txiPVGj-VQo/mqdefault.jpg","viewCount":"794","playlistId":"PLEkQk5xrP-tkc9DXvSLguqX5-FYp6ASR4","playlistName":"دليل الفالحين لطرق رياض الصالحين","category":"متنوع"},{"id":"Vw7zOW8Pifg","title":"450- حكم الرجوع في الهِبة أو الصدقة - شرح دليل الفالحين","publishedAt":"2023-05-19T08:59:00Z","duration":"PT25M40S","thumbnail":"https://i.ytimg.com/vi/Vw7zOW8Pifg/mqdefault.jpg","viewCount":"803","playlistId":"PLEkQk5xrP-tkc9DXvSLguqX5-FYp6ASR4","playlistName":"دليل الفالحين لطرق رياض الصالحين","category":"متنوع"},{"id":"oALNF66HP9A","title":"449- النهي عن تعذيب العبد والدَّابَّة والمرأة والولد بغير سبب شرعيِّ أو زائد على قدْر الأدب","publishedAt":"2023-05-18T08:59:01Z","duration":"PT32M29S","thumbnail":"https://i.ytimg.com/vi/oALNF66HP9A/mqdefault.jpg","viewCount":"736","playlistId":"PLEkQk5xrP-tkc9DXvSLguqX5-FYp6ASR4","playlistName":"دليل الفالحين لطرق رياض الصالحين","category":"متنوع"},{"id":"nYvPp5YnRMc","title":"215- كان رسولُ اللَّه ﷺ يبيتُ اللَّيالي المتتابعة طاويًا وأهلُه لا يجدون عَشاءً - شرح دليل الفالحين","publishedAt":"2022-03-08T19:00:48Z","duration":"PT30M54S","thumbnail":"https://i.ytimg.com/vi/nYvPp5YnRMc/mqdefault.jpg","viewCount":"1797","playlistId":"PLEkQk5xrP-tkc9DXvSLguqX5-FYp6ASR4","playlistName":"دليل الفالحين لطرق رياض الصالحين","category":"متنوع"},{"id":"N1dRQRXTMko","title":"214- \"خَيْرُكُمْ قَرْنِي، ثُمَّ الَّذينَ يَلُونَهُم، ثُمَّ الَّذينَ يَلُونَهُم…\" - شرح دليل الفالحين","publishedAt":"2022-03-07T19:29:40Z","duration":"PT33M3S","thumbnail":"https://i.ytimg.com/vi/N1dRQRXTMko/mqdefault.jpg","viewCount":"1236","playlistId":"PLEkQk5xrP-tkc9DXvSLguqX5-FYp6ASR4","playlistName":"دليل الفالحين لطرق رياض الصالحين","category":"متنوع"},{"id":"JooOq6Y92Zo","title":"332-  أبشِرْ بنورَينِ أوتيتَهما لم يؤتَهُما نبيٌّ قبلكَ - شرح دليل الفالحين","publishedAt":"2022-11-11T09:00:10Z","duration":"PT30M15S","thumbnail":"https://i.ytimg.com/vi/JooOq6Y92Zo/mqdefault.jpg","viewCount":"1077","playlistId":"PLEkQk5xrP-tkc9DXvSLguqX5-FYp6ASR4","playlistName":"دليل الفالحين لطرق رياض الصالحين","category":"متنوع"}],"total":504,"page":6,"pageSize":24,"totalPages":21}