{"items":[{"id":"BXq8WyWC94Q","title":"10- تكملة شرح حديث \"إِنَّمَا الأَعْمَالُ بِالنِّيَّاتِ، وَإِنَّمَا لِكُلِّ امْرِئٍ مَا نَوَى\"","publishedAt":"2021-01-27T07:14:19Z","duration":"PT32M10S","thumbnail":"https://i.ytimg.com/vi/BXq8WyWC94Q/mqdefault.jpg","viewCount":"3460","playlistId":"PLEkQk5xrP-tkc9DXvSLguqX5-FYp6ASR4","playlistName":"دليل الفالحين لطرق رياض الصالحين","category":"متنوع"},{"id":"YEsbag9lF-I","title":"9- شرح حديث \"إِنَّمَا الأَعْمَالُ بِالنِّيَّاتِ، وَإِنَّمَا لِكُلِّ امْرِئٍ مَا نَوَى\"","publishedAt":"2021-01-25T19:44:22Z","duration":"PT37M38S","thumbnail":"https://i.ytimg.com/vi/YEsbag9lF-I/mqdefault.jpg","viewCount":"7393","playlistId":"PLEkQk5xrP-tkc9DXvSLguqX5-FYp6ASR4","playlistName":"دليل الفالحين لطرق رياض الصالحين","category":"متنوع"},{"id":"zSL-WBrEQyM","title":"8- الإخلاص وإحضار النية في جميع الأعمال... شرح دليل الفالحين أ.د. يسري جبر","publishedAt":"2021-01-24T06:56:29Z","duration":"PT29M28S","thumbnail":"https://i.ytimg.com/vi/zSL-WBrEQyM/mqdefault.jpg","viewCount":"7633","playlistId":"PLEkQk5xrP-tkc9DXvSLguqX5-FYp6ASR4","playlistName":"دليل الفالحين لطرق رياض الصالحين","category":"متنوع"},{"id":"bmGVhOKuRXk","title":"7- آخر مقدمة كتاب رياض الصالحين وتعليق الشارح عليها - شرح دليل الفالحين أ.د. يسري جبر","publishedAt":"2021-01-21T08:28:05Z","duration":"PT36M2S","thumbnail":"https://i.ytimg.com/vi/bmGVhOKuRXk/mqdefault.jpg","viewCount":"2019","playlistId":"PLEkQk5xrP-tkc9DXvSLguqX5-FYp6ASR4","playlistName":"دليل الفالحين لطرق رياض الصالحين","category":"متنوع"},{"id":"XzLJ0uEIuVU","title":"6- تكملة مقدمة كتاب رياض الصالحين وتعليق الشارح عليها - شرح دليل الفالحين أ.د. يسري جبر","publishedAt":"2021-01-19T07:46:35Z","duration":"PT39M9S","thumbnail":"https://i.ytimg.com/vi/XzLJ0uEIuVU/mqdefault.jpg","viewCount":"2331","playlistId":"PLEkQk5xrP-tkc9DXvSLguqX5-FYp6ASR4","playlistName":"دليل الفالحين لطرق رياض الصالحين","category":"متنوع"},{"id":"GaCtERIPIxM","title":"5- تكملة مقدمة كتاب رياض الصالحين وتعليق الشارح عليها - شرح دليل الفالحين أ.د. يسري جبر","publishedAt":"2021-01-17T08:33:35Z","duration":"PT38M","thumbnail":"https://i.ytimg.com/vi/GaCtERIPIxM/mqdefault.jpg","viewCount":"2653","playlistId":"PLEkQk5xrP-tkc9DXvSLguqX5-FYp6ASR4","playlistName":"دليل الفالحين لطرق رياض الصالحين","category":"متنوع"},{"id":"l_TvV12zKTI","title":"4- تكملة مقدمة كتاب رياض الصالحين وتعليق الشارح عليها - شرح دليل الفالحين أ.د. يسري جبر","publishedAt":"2021-01-15T07:52:06Z","duration":"PT40M41S","thumbnail":"https://i.ytimg.com/vi/l_TvV12zKTI/mqdefault.jpg","viewCount":"3492","playlistId":"PLEkQk5xrP-tkc9DXvSLguqX5-FYp6ASR4","playlistName":"دليل الفالحين لطرق رياض الصالحين","category":"متنوع"},{"id":"8BYUdSpPYl8","title":"3- مقدمة كتاب رياض الصالحين  للإمام النوويّ رضي الله عنه أ.د. يسري جبر","publishedAt":"2021-01-13T08:56:27Z","duration":"PT37M48S","thumbnail":"https://i.ytimg.com/vi/8BYUdSpPYl8/mqdefault.jpg","viewCount":"6527","playlistId":"PLEkQk5xrP-tkc9DXvSLguqX5-FYp6ASR4","playlistName":"دليل الفالحين لطرق رياض الصالحين","category":"متنوع"},{"id":"2X7fNyCiEYQ","title":"2- التعريفُ بالشيخ ‎محمد بن علَّان صاحب كتاب دليل الفالحين أ.د. يسري جبر","publishedAt":"2021-01-11T07:18:11Z","duration":"PT24M17S","thumbnail":"https://i.ytimg.com/vi/2X7fNyCiEYQ/mqdefault.jpg","viewCount":"5212","playlistId":"PLEkQk5xrP-tkc9DXvSLguqX5-FYp6ASR4","playlistName":"دليل الفالحين لطرق رياض الصالحين","category":"متنوع"},{"id":"fCa_pu465-Q","title":"1- التعريفُ بالإمام النوويّ - شرح كتاب دليل الفالحين أ.د يسري جبر","publishedAt":"2021-01-09T09:10:21Z","duration":"PT39M16S","thumbnail":"https://i.ytimg.com/vi/fCa_pu465-Q/mqdefault.jpg","viewCount":"13514","playlistId":"PLEkQk5xrP-tkc9DXvSLguqX5-FYp6ASR4","playlistName":"دليل الفالحين لطرق رياض الصالحين","category":"متنوع"},{"id":"QPNKkWfOd0A","title":"185- \"…إذا أَذْنَبَ عَبْدٌ ذَنْبًا، فَقالَ: اللَّهُمَّ اغْفِرْ لي ذَنْبِي…\" شرح دليل الفالحين","publishedAt":"2022-01-15T07:04:24Z","duration":"PT28M2S","thumbnail":"https://i.ytimg.com/vi/QPNKkWfOd0A/mqdefault.jpg","viewCount":"2545","playlistId":"PLEkQk5xrP-tkc9DXvSLguqX5-FYp6ASR4","playlistName":"دليل الفالحين لطرق رياض الصالحين","category":"متنوع"},{"id":"QWdIKxTW6Bs","title":"184- \"الله أرْحَمُ بعِبَادِهِ مِن هذِه بوَلَدِهَا\" - شرح دليل الفالحين","publishedAt":"2022-01-13T07:48:03Z","duration":"PT39M1S","thumbnail":"https://i.ytimg.com/vi/QWdIKxTW6Bs/mqdefault.jpg","viewCount":"1646","playlistId":"PLEkQk5xrP-tkc9DXvSLguqX5-FYp6ASR4","playlistName":"دليل الفالحين لطرق رياض الصالحين","category":"متنوع"},{"id":"F4lNTIPmyqw","title":"183- \"…أين تُحِبُّ أنْ أُصَلِّيَ من بيتِك؟…\" - شرح دليل الفالحين","publishedAt":"2022-01-11T07:20:23Z","duration":"PT43M34S","thumbnail":"https://i.ytimg.com/vi/F4lNTIPmyqw/mqdefault.jpg","viewCount":"1903","playlistId":"PLEkQk5xrP-tkc9DXvSLguqX5-FYp6ASR4","playlistName":"دليل الفالحين لطرق رياض الصالحين","category":"متنوع"},{"id":"vd7YLbbuSmo","title":"182- \"…ما من عبدٍ يشهدُ أنَّ لا إله إلَّا اللَّه، وأنَّ مُحَمَّدا عبدُه ورسولُه…\"- شرح دليل الفالحين","publishedAt":"2022-01-09T06:53:27Z","duration":"PT31M20S","thumbnail":"https://i.ytimg.com/vi/vd7YLbbuSmo/mqdefault.jpg","viewCount":"1560","playlistId":"PLEkQk5xrP-tkc9DXvSLguqX5-FYp6ASR4","playlistName":"دليل الفالحين لطرق رياض الصالحين","category":"متنوع"},{"id":"5lxv0_XPxjk","title":"181- \"…وَمَن تَقَرَّبَ مِنِّي شِبْرًا تَقَرَّبْتُ منه ذِرَاعًا…\" شرح دليل الفالحين","publishedAt":"2022-01-08T08:26:49Z","duration":"PT32M54S","thumbnail":"https://i.ytimg.com/vi/5lxv0_XPxjk/mqdefault.jpg","viewCount":"1978","playlistId":"PLEkQk5xrP-tkc9DXvSLguqX5-FYp6ASR4","playlistName":"دليل الفالحين لطرق رياض الصالحين","category":"متنوع"},{"id":"WUlw4JmDJSE","title":"180- الرَّجَاء - شرح دليل الفالحين","publishedAt":"2022-01-06T07:19:37Z","duration":"PT43M59S","thumbnail":"https://i.ytimg.com/vi/WUlw4JmDJSE/mqdefault.jpg","viewCount":"1447","playlistId":"PLEkQk5xrP-tkc9DXvSLguqX5-FYp6ASR4","playlistName":"دليل الفالحين لطرق رياض الصالحين","category":"متنوع"},{"id":"PYCxDDbeB2s","title":"179- لا تَزولُ قَدَمَا عبْدٍ يومَ القيامة، حتَّى يُسألَ عن عُمُرِه؛ فيمَ أفناه؟ - شرح دليل الفالحين","publishedAt":"2022-01-03T20:34:57Z","duration":"PT33M30S","thumbnail":"https://i.ytimg.com/vi/PYCxDDbeB2s/mqdefault.jpg","viewCount":"1339","playlistId":"PLEkQk5xrP-tkc9DXvSLguqX5-FYp6ASR4","playlistName":"دليل الفالحين لطرق رياض الصالحين","category":"متنوع"},{"id":"gRGr5UZ2ka8","title":"438- بيان ما يجوز من الكذب - شرح دليل الفالحين","publishedAt":"2023-05-07T05:00:15Z","duration":"PT37M3S","thumbnail":"https://i.ytimg.com/vi/gRGr5UZ2ka8/mqdefault.jpg","viewCount":"820","playlistId":"PLEkQk5xrP-tkc9DXvSLguqX5-FYp6ASR4","playlistName":"دليل الفالحين لطرق رياض الصالحين","category":"متنوع"},{"id":"q9mRaihGHEI","title":"437- الرواية الثانية لحديث رؤيا النَّبيّ ﷺ - شرح دليل الفالحين","publishedAt":"2023-05-06T05:00:18Z","duration":"PT36M22S","thumbnail":"https://i.ytimg.com/vi/q9mRaihGHEI/mqdefault.jpg","viewCount":"781","playlistId":"PLEkQk5xrP-tkc9DXvSLguqX5-FYp6ASR4","playlistName":"دليل الفالحين لطرق رياض الصالحين","category":"متنوع"},{"id":"MlipHcMahps","title":"436- تكملة حديث رؤيا النَّبيّ ﷺ - شرح دليل الفالحين","publishedAt":"2023-05-05T05:00:18Z","duration":"PT27M9S","thumbnail":"https://i.ytimg.com/vi/MlipHcMahps/mqdefault.jpg","viewCount":"827","playlistId":"PLEkQk5xrP-tkc9DXvSLguqX5-FYp6ASR4","playlistName":"دليل الفالحين لطرق رياض الصالحين","category":"متنوع"},{"id":"NjjQfl9Q6fU","title":"435- كيف تكونُ الرؤْيا صادقة، وحديث\" هلْ رَأَى أحَدٌ مِنكُم مِن رُؤْيا\" - شرح دليل الفالحين","publishedAt":"2023-05-04T08:59:00Z","duration":"PT37M38S","thumbnail":"https://i.ytimg.com/vi/NjjQfl9Q6fU/mqdefault.jpg","viewCount":"2046","playlistId":"PLEkQk5xrP-tkc9DXvSLguqX5-FYp6ASR4","playlistName":"دليل الفالحين لطرق رياض الصالحين","category":"متنوع"},{"id":"5Hp8nVZ8Qrk","title":"434- تحريم الكذب - شرح دليل الفالحين","publishedAt":"2023-05-03T08:59:00Z","duration":"PT22M2S","thumbnail":"https://i.ytimg.com/vi/5Hp8nVZ8Qrk/mqdefault.jpg","viewCount":"1192","playlistId":"PLEkQk5xrP-tkc9DXvSLguqX5-FYp6ASR4","playlistName":"دليل الفالحين لطرق رياض الصالحين","category":"متنوع"},{"id":"LfmuOL4WzBg","title":"433- تحريم النميمة - شرح دليل الفالحين","publishedAt":"2023-05-02T08:59:00Z","duration":"PT30M16S","thumbnail":"https://i.ytimg.com/vi/LfmuOL4WzBg/mqdefault.jpg","viewCount":"1089","playlistId":"PLEkQk5xrP-tkc9DXvSLguqX5-FYp6ASR4","playlistName":"دليل الفالحين لطرق رياض الصالحين","category":"متنوع"},{"id":"AXeiUnJfTWQ","title":"432- ما يُباحُ مِن الغِيبة - شرح دليل الفالحين","publishedAt":"2023-04-30T08:59:00Z","duration":"PT18M49S","thumbnail":"https://i.ytimg.com/vi/AXeiUnJfTWQ/mqdefault.jpg","viewCount":"1064","playlistId":"PLEkQk5xrP-tkc9DXvSLguqX5-FYp6ASR4","playlistName":"دليل الفالحين لطرق رياض الصالحين","category":"متنوع"}],"total":504,"page":8,"pageSize":24,"totalPages":21}