{"items":[{"id":"h_QSbQuRe7E","title":"488- بيان الأماكن التي لا يدخلها الدجال - شرح دليل الفالحين","publishedAt":"2023-06-29T08:59:00Z","duration":"PT26M4S","thumbnail":"https://i.ytimg.com/vi/h_QSbQuRe7E/mqdefault.jpg","viewCount":"1476","playlistId":"PLEkQk5xrP-tkc9DXvSLguqX5-FYp6ASR4","playlistName":"دليل الفالحين لطرق رياض الصالحين","category":"متنوع"},{"id":"5mIUdTgSeaM","title":"487- بيان ما يخرج مع الدجال وكيفية النجاة منه - شرح دليل الفالحين","publishedAt":"2023-06-27T08:59:00Z","duration":"PT30M16S","thumbnail":"https://i.ytimg.com/vi/5mIUdTgSeaM/mqdefault.jpg","viewCount":"1317","playlistId":"PLEkQk5xrP-tkc9DXvSLguqX5-FYp6ASR4","playlistName":"دليل الفالحين لطرق رياض الصالحين","category":"متنوع"},{"id":"A8MdPi7Rj30","title":"486- بيان فتنة الدجال وما يظهر على يديه من شبهات - شرح دليل الفالحين","publishedAt":"2023-06-26T08:59:00Z","duration":"PT1H10M36S","thumbnail":"https://i.ytimg.com/vi/A8MdPi7Rj30/mqdefault.jpg","viewCount":"1754","playlistId":"PLEkQk5xrP-tkc9DXvSLguqX5-FYp6ASR4","playlistName":"دليل الفالحين لطرق رياض الصالحين","category":"متنوع"},{"id":"IuXnwF1lISg","title":"485- حكم انتساب الإنسان إلى غير أبيه وتولِّيه إلى غير مواليه - شرح دليل الفالحين","publishedAt":"2023-06-24T18:00:07Z","duration":"PT38M2S","thumbnail":"https://i.ytimg.com/vi/IuXnwF1lISg/mqdefault.jpg","viewCount":"430","playlistId":"PLEkQk5xrP-tkc9DXvSLguqX5-FYp6ASR4","playlistName":"دليل الفالحين لطرق رياض الصالحين","category":"متنوع"},{"id":"e5hVuL8SbJg","title":"484- حكم صمت يوم إلى الليل - شرح دليل الفالحين","publishedAt":"2023-06-24T08:59:00Z","duration":"PT22M47S","thumbnail":"https://i.ytimg.com/vi/e5hVuL8SbJg/mqdefault.jpg","viewCount":"1138","playlistId":"PLEkQk5xrP-tkc9DXvSLguqX5-FYp6ASR4","playlistName":"دليل الفالحين لطرق رياض الصالحين","category":"متنوع"},{"id":"QimJT_ua9so","title":"483- حكم استعمال آنية الذهب الفضة في الأكل والشرب والطهارة وسائر وجوه الاستعمال - شرح دليل الفالحين","publishedAt":"2023-06-22T08:59:00Z","duration":"PT21M12S","thumbnail":"https://i.ytimg.com/vi/QimJT_ua9so/mqdefault.jpg","viewCount":"580","playlistId":"PLEkQk5xrP-tkc9DXvSLguqX5-FYp6ASR4","playlistName":"دليل الفالحين لطرق رياض الصالحين","category":"متنوع"},{"id":"ORTSxon2-Kg","title":"482- التغليظ في تحريم السحر - شرح دليل الفالحين","publishedAt":"2023-06-21T08:59:00Z","duration":"PT21M15S","thumbnail":"https://i.ytimg.com/vi/ORTSxon2-Kg/mqdefault.jpg","viewCount":"996","playlistId":"PLEkQk5xrP-tkc9DXvSLguqX5-FYp6ASR4","playlistName":"دليل الفالحين لطرق رياض الصالحين","category":"متنوع"},{"id":"yu9MkjpP78M","title":"481- كراهة الخروج من بلد وقع فيها الوباء فِرارا منه وكراهة القدوم عليه - شرح دليل الفالحين","publishedAt":"2023-06-20T08:59:00Z","duration":"PT26M39S","thumbnail":"https://i.ytimg.com/vi/yu9MkjpP78M/mqdefault.jpg","viewCount":"432","playlistId":"PLEkQk5xrP-tkc9DXvSLguqX5-FYp6ASR4","playlistName":"دليل الفالحين لطرق رياض الصالحين","category":"متنوع"},{"id":"CWUJACdZZVY","title":"480- حكم رد الريحان وسائر أنواع الطِيب بغير عذر - شرح دليل الفالحين","publishedAt":"2023-06-19T08:59:00Z","duration":"PT25M13S","thumbnail":"https://i.ytimg.com/vi/CWUJACdZZVY/mqdefault.jpg","viewCount":"704","playlistId":"PLEkQk5xrP-tkc9DXvSLguqX5-FYp6ASR4","playlistName":"دليل الفالحين لطرق رياض الصالحين","category":"متنوع"},{"id":"o56FohOjQpE","title":"479- النهي عن إضاعة المال في غير وجوهِه التي أَذِنَ الشرعُ فيها - شرح دليل الفالحين","publishedAt":"2023-06-18T08:59:00Z","duration":"PT32M27S","thumbnail":"https://i.ytimg.com/vi/o56FohOjQpE/mqdefault.jpg","viewCount":"1331","playlistId":"PLEkQk5xrP-tkc9DXvSLguqX5-FYp6ASR4","playlistName":"دليل الفالحين لطرق رياض الصالحين","category":"متنوع"},{"id":"HndA14EuBr0","title":"478- حكم إحداد المرأة على ميت فوق ثلاثة أيام - شرح دليل الفالحين","publishedAt":"2023-06-17T08:59:00Z","duration":"PT26M31S","thumbnail":"https://i.ytimg.com/vi/HndA14EuBr0/mqdefault.jpg","viewCount":"670","playlistId":"PLEkQk5xrP-tkc9DXvSLguqX5-FYp6ASR4","playlistName":"دليل الفالحين لطرق رياض الصالحين","category":"متنوع"},{"id":"dL6BnYKEmo4","title":"477- حكم تفضيل الوالد بعضَ أولادِه على بعضٍ في الهِبة - شرح دليل الفالحين","publishedAt":"2023-06-16T08:59:00Z","duration":"PT24M45S","thumbnail":"https://i.ytimg.com/vi/dL6BnYKEmo4/mqdefault.jpg","viewCount":"945","playlistId":"PLEkQk5xrP-tkc9DXvSLguqX5-FYp6ASR4","playlistName":"دليل الفالحين لطرق رياض الصالحين","category":"متنوع"},{"id":"yHGwAtHOj3o","title":"476- حكم الشفاعة في الحدود - شرح دليل الفالحين","publishedAt":"2023-06-13T08:59:00Z","duration":"PT26M31S","thumbnail":"https://i.ytimg.com/vi/yHGwAtHOj3o/mqdefault.jpg","viewCount":"632","playlistId":"PLEkQk5xrP-tkc9DXvSLguqX5-FYp6ASR4","playlistName":"دليل الفالحين لطرق رياض الصالحين","category":"متنوع"},{"id":"amnN1zIodDM","title":"475- حكم الجلوس على القبر - شرح دليل الفالحين","publishedAt":"2023-06-12T08:59:00Z","duration":"PT18M50S","thumbnail":"https://i.ytimg.com/vi/amnN1zIodDM/mqdefault.jpg","viewCount":"829","playlistId":"PLEkQk5xrP-tkc9DXvSLguqX5-FYp6ASR4","playlistName":"دليل الفالحين لطرق رياض الصالحين","category":"متنوع"},{"id":"0f3RsekIQUw","title":"474- حكم صَلاةِ النَّافِلةِ إذا أُقيمتْ صَلاةُ الفَريضة - شرح دليل الفالحين","publishedAt":"2023-06-11T18:00:00Z","duration":"PT33M14S","thumbnail":"https://i.ytimg.com/vi/0f3RsekIQUw/mqdefault.jpg","viewCount":"600","playlistId":"PLEkQk5xrP-tkc9DXvSLguqX5-FYp6ASR4","playlistName":"دليل الفالحين لطرق رياض الصالحين","category":"متنوع"},{"id":"ffNSEyndCfk","title":"473- حكم الصلاة بحضرة الطعام حال الجوع أو مدافعة الأخبثين - شرح دليل الفالحين","publishedAt":"2023-06-11T08:59:00Z","duration":"PT42M54S","thumbnail":"https://i.ytimg.com/vi/ffNSEyndCfk/mqdefault.jpg","viewCount":"827","playlistId":"PLEkQk5xrP-tkc9DXvSLguqX5-FYp6ASR4","playlistName":"دليل الفالحين لطرق رياض الصالحين","category":"متنوع"},{"id":"AszaBuyebXU","title":"472- حكم السهر بعد العِشاء الآخرة - شرح دليل الفالحين","publishedAt":"2023-06-09T08:59:00Z","duration":"PT42M16S","thumbnail":"https://i.ytimg.com/vi/AszaBuyebXU/mqdefault.jpg","viewCount":"1341","playlistId":"PLEkQk5xrP-tkc9DXvSLguqX5-FYp6ASR4","playlistName":"دليل الفالحين لطرق رياض الصالحين","category":"متنوع"},{"id":"EhGePsqjb6U","title":"56- باب التقوى - شرح دليل الفالحين","publishedAt":"2021-05-10T05:56:20Z","duration":"PT28M43S","thumbnail":"https://i.ytimg.com/vi/EhGePsqjb6U/mqdefault.jpg","viewCount":"1098","playlistId":"PLEkQk5xrP-tkc9DXvSLguqX5-FYp6ASR4","playlistName":"دليل الفالحين لطرق رياض الصالحين","category":"متنوع"},{"id":"ziMc7KdSBLA","title":"55-“الكَيِّسُ مَن دان نفسَه وعمِل لما بعدَ الموتِ ...”الحديث(7) باب المراقبة - شرح دليل الفالحين","publishedAt":"2021-05-08T05:53:48Z","duration":"PT16M50S","thumbnail":"https://i.ytimg.com/vi/ziMc7KdSBLA/mqdefault.jpg","viewCount":"1650","playlistId":"PLEkQk5xrP-tkc9DXvSLguqX5-FYp6ASR4","playlistName":"دليل الفالحين لطرق رياض الصالحين","category":"متنوع"},{"id":"4WUuJEtLInY","title":"54-“إنكم لتعملون أعمالاً هي أدقُّ في أعينكم من الشَّعر...”الحديث(4) باب المراقبة - شرح دليل الفالحين","publishedAt":"2021-05-06T06:01:34Z","duration":"PT39M49S","thumbnail":"https://i.ytimg.com/vi/4WUuJEtLInY/mqdefault.jpg","viewCount":"1613","playlistId":"PLEkQk5xrP-tkc9DXvSLguqX5-FYp6ASR4","playlistName":"دليل الفالحين لطرق رياض الصالحين","category":"متنوع"},{"id":"9-HI-Z8BZoY","title":"53-“يا غُلامُ إنِّي أعلِّمُكَ كلِماتٍ...”الحديث (3) باب المراقبة - شرح دليل الفالحين","publishedAt":"2021-05-04T05:26:34Z","duration":"PT38M52S","thumbnail":"https://i.ytimg.com/vi/9-HI-Z8BZoY/mqdefault.jpg","viewCount":"1826","playlistId":"PLEkQk5xrP-tkc9DXvSLguqX5-FYp6ASR4","playlistName":"دليل الفالحين لطرق رياض الصالحين","category":"متنوع"},{"id":"1MhPmuB0k1s","title":"52-“اتق اللهَ حيثما كنت، وأتْبع السيئةَ الحسنةَ تمحها...”الحديث (2) باب المراقبة - شرح دليل الفالحين","publishedAt":"2021-05-01T05:06:04Z","duration":"PT27M28S","thumbnail":"https://i.ytimg.com/vi/1MhPmuB0k1s/mqdefault.jpg","viewCount":"2149","playlistId":"PLEkQk5xrP-tkc9DXvSLguqX5-FYp6ASR4","playlistName":"دليل الفالحين لطرق رياض الصالحين","category":"متنوع"},{"id":"TH0zj7Ft_Cg","title":"471- لا يَقُولَنَّ أحَدُكُمْ خَبُثَتْ نَفْسِي - شرح دليل الفالحين","publishedAt":"2023-06-08T08:59:00Z","duration":"PT28M41S","thumbnail":"https://i.ytimg.com/vi/TH0zj7Ft_Cg/mqdefault.jpg","viewCount":"667","playlistId":"PLEkQk5xrP-tkc9DXvSLguqX5-FYp6ASR4","playlistName":"دليل الفالحين لطرق رياض الصالحين","category":"متنوع"},{"id":"71u5Z4nB8SM","title":"470- حكم مَنْ يعتقد أنَّ النُّجومَ سَببٌ في نُزولِ المطرِ - شرح دليل الفالحين","publishedAt":"2023-06-07T08:59:01Z","duration":"PT38M11S","thumbnail":"https://i.ytimg.com/vi/71u5Z4nB8SM/mqdefault.jpg","viewCount":"550","playlistId":"PLEkQk5xrP-tkc9DXvSLguqX5-FYp6ASR4","playlistName":"دليل الفالحين لطرق رياض الصالحين","category":"متنوع"}],"total":504,"page":4,"pageSize":24,"totalPages":21}