{"items":[{"id":"8Xnz3exag6U","title":"461- النهي عن التَّطَيُّر - شرح دليل الفالحين","publishedAt":"2023-05-30T18:00:04Z","duration":"PT22M15S","thumbnail":"https://i.ytimg.com/vi/8Xnz3exag6U/mqdefault.jpg","viewCount":"605","playlistId":"PLEkQk5xrP-tkc9DXvSLguqX5-FYp6ASR4","playlistName":"دليل الفالحين لطرق رياض الصالحين","category":"متنوع"},{"id":"BoFyOZODmT4","title":"38- هل البكاء ضد الصَّبر؟ من بابُ الصَّبر: الحديثُ الخامس - شرح دليل الفالحين","publishedAt":"2021-04-01T05:50:08Z","duration":"PT35M33S","thumbnail":"https://i.ytimg.com/vi/BoFyOZODmT4/mqdefault.jpg","viewCount":"1690","playlistId":"PLEkQk5xrP-tkc9DXvSLguqX5-FYp6ASR4","playlistName":"دليل الفالحين لطرق رياض الصالحين","category":"متنوع"},{"id":"k7W8mMw6LdM","title":"37- بابُ الصَّبر: الحديثُ الرابع\"..ليسَ علَى أبِيكِ كَرْبٌ بَعْدَ اليَومِ..\"شرح دليل الفالحين","publishedAt":"2021-03-31T05:54:07Z","duration":"PT22M55S","thumbnail":"https://i.ytimg.com/vi/k7W8mMw6LdM/mqdefault.jpg","viewCount":"1046","playlistId":"PLEkQk5xrP-tkc9DXvSLguqX5-FYp6ASR4","playlistName":"دليل الفالحين لطرق رياض الصالحين","category":"متنوع"},{"id":"4w-utGfQa2w","title":"36- باب الصَّبر:الحديث الثاني\"أنَّ ناسًا من الأنصارِ سألوا رسولَ الله ﷺ فأعطاهم...\"شرح دليل الفالحين","publishedAt":"2021-03-29T05:13:28Z","duration":"PT33M46S","thumbnail":"https://i.ytimg.com/vi/4w-utGfQa2w/mqdefault.jpg","viewCount":"1458","playlistId":"PLEkQk5xrP-tkc9DXvSLguqX5-FYp6ASR4","playlistName":"دليل الفالحين لطرق رياض الصالحين","category":"متنوع"},{"id":"BcLnroBMKEM","title":"121- البِشارة في وُجُوب شَفاعته ﷺ يوم القيامة - شرح دليل الفالحين","publishedAt":"2021-09-03T04:57:33Z","duration":"PT53M59S","thumbnail":"https://i.ytimg.com/vi/BcLnroBMKEM/mqdefault.jpg","viewCount":"1652","playlistId":"PLEkQk5xrP-tkc9DXvSLguqX5-FYp6ASR4","playlistName":"دليل الفالحين لطرق رياض الصالحين","category":"متنوع"},{"id":"TlOWXiKWM44","title":"120- الشفاعة - شرح دليل الفالحين","publishedAt":"2021-09-01T05:44:36Z","duration":"PT30M32S","thumbnail":"https://i.ytimg.com/vi/TlOWXiKWM44/mqdefault.jpg","viewCount":"1775","playlistId":"PLEkQk5xrP-tkc9DXvSLguqX5-FYp6ASR4","playlistName":"دليل الفالحين لطرق رياض الصالحين","category":"متنوع"},{"id":"pUPdIk-6GCY","title":"119- فضلُ قضاء حوائج المسلمين - شرح دليل الفالحين","publishedAt":"2021-08-29T07:27:41Z","duration":"PT52M31S","thumbnail":"https://i.ytimg.com/vi/pUPdIk-6GCY/mqdefault.jpg","viewCount":"3067","playlistId":"PLEkQk5xrP-tkc9DXvSLguqX5-FYp6ASR4","playlistName":"دليل الفالحين لطرق رياض الصالحين","category":"متنوع"},{"id":"lOcCFJqLM-0","title":"35- بابُ الصَّبر:الحديثُ الأول \"...والحمدُ للهِ تملأُ الميزانَ...\" شرح دليل الفالحين","publishedAt":"2021-03-27T05:49:09Z","duration":"PT33M36S","thumbnail":"https://i.ytimg.com/vi/lOcCFJqLM-0/mqdefault.jpg","viewCount":"1533","playlistId":"PLEkQk5xrP-tkc9DXvSLguqX5-FYp6ASR4","playlistName":"دليل الفالحين لطرق رياض الصالحين","category":"متنوع"},{"id":"XoaJT7MnFaw","title":"34- باب الثالث: باب الصبر - شرح دليل الفالحين لطُرُق رياض الصالحين","publishedAt":"2021-03-25T07:34:49Z","duration":"PT31M6S","thumbnail":"https://i.ytimg.com/vi/XoaJT7MnFaw/mqdefault.jpg","viewCount":"2261","playlistId":"PLEkQk5xrP-tkc9DXvSLguqX5-FYp6ASR4","playlistName":"دليل الفالحين لطرق رياض الصالحين","category":"متنوع"},{"id":"xIe0VWe0i6o","title":"33- باب التوبة: الحديث العاشر - شرح دليل الفالحين لطُرُق رياض الصالحين","publishedAt":"2021-03-22T20:43:11Z","duration":"PT31M10S","thumbnail":"https://i.ytimg.com/vi/xIe0VWe0i6o/mqdefault.jpg","viewCount":"1202","playlistId":"PLEkQk5xrP-tkc9DXvSLguqX5-FYp6ASR4","playlistName":"دليل الفالحين لطرق رياض الصالحين","category":"متنوع"},{"id":"iROGHTNUlZ4","title":"32- باب التوبة: الحديث التاسع (5) شرح دليل الفالحين لطُرُق رياض الصالحين","publishedAt":"2021-03-21T07:10:44Z","duration":"PT37M46S","thumbnail":"https://i.ytimg.com/vi/iROGHTNUlZ4/mqdefault.jpg","viewCount":"1158","playlistId":"PLEkQk5xrP-tkc9DXvSLguqX5-FYp6ASR4","playlistName":"دليل الفالحين لطرق رياض الصالحين","category":"متنوع"},{"id":"G9zuezXSAV0","title":"413- ما يُقالُ عند النوم - شرح دليل الفالحين","publishedAt":"2023-03-17T05:00:05Z","duration":"PT38M54S","thumbnail":"https://i.ytimg.com/vi/G9zuezXSAV0/mqdefault.jpg","viewCount":"1247","playlistId":"PLEkQk5xrP-tkc9DXvSLguqX5-FYp6ASR4","playlistName":"دليل الفالحين لطرق رياض الصالحين","category":"متنوع"},{"id":"s_pkd3y5nnc","title":"412- بيان ما يُقال إذا أمسيْت وإذا أصبحْت وإذا أخذْت مضجعك - شرح دليل الفالحين","publishedAt":"2023-03-15T05:35:00Z","duration":"PT30M18S","thumbnail":"https://i.ytimg.com/vi/s_pkd3y5nnc/mqdefault.jpg","viewCount":"995","playlistId":"PLEkQk5xrP-tkc9DXvSLguqX5-FYp6ASR4","playlistName":"دليل الفالحين لطرق رياض الصالحين","category":"متنوع"},{"id":"coMCGvsdBhI","title":"411- الذكر عند الصباح والمساء وبيان وقته - شرح دليل الفالحين","publishedAt":"2023-03-13T05:00:14Z","duration":"PT26M10S","thumbnail":"https://i.ytimg.com/vi/coMCGvsdBhI/mqdefault.jpg","viewCount":"1918","playlistId":"PLEkQk5xrP-tkc9DXvSLguqX5-FYp6ASR4","playlistName":"دليل الفالحين لطرق رياض الصالحين","category":"متنوع"},{"id":"5mhTZ4lK7iQ","title":"410- لا يَقْعُدُ قَومٌ يذْكُرون اللَّهَ عزَّ وجلَّ إِلّا حفَّتْهمُ الملَائكةُ، وغشيَتْهمُ الرَّحْمةُ","publishedAt":"2023-03-11T05:00:02Z","duration":"PT26M22S","thumbnail":"https://i.ytimg.com/vi/5mhTZ4lK7iQ/mqdefault.jpg","viewCount":"1127","playlistId":"PLEkQk5xrP-tkc9DXvSLguqX5-FYp6ASR4","playlistName":"دليل الفالحين لطرق رياض الصالحين","category":"متنوع"},{"id":"RXa4VbAx1JA","title":"409- فضل حِلَقِ الذِكر والندب على ملازمتها والنهي عن مفارقتها لغير عذر - شرح دليل الفالحين","publishedAt":"2023-03-09T05:00:16Z","duration":"PT30M5S","thumbnail":"https://i.ytimg.com/vi/RXa4VbAx1JA/mqdefault.jpg","viewCount":"1806","playlistId":"PLEkQk5xrP-tkc9DXvSLguqX5-FYp6ASR4","playlistName":"دليل الفالحين لطرق رياض الصالحين","category":"متنوع"},{"id":"cIpcCFQwEUU","title":"408- أَلَا أُنَبِّئُكم بِخَيْرِ أعمالِكُم، وأَزْكاها عِندَ مَلِيكِكُم، وأَرفعِها في دَرَجاتِكُم…","publishedAt":"2023-03-07T05:00:15Z","duration":"PT36M11S","thumbnail":"https://i.ytimg.com/vi/cIpcCFQwEUU/mqdefault.jpg","viewCount":"1466","playlistId":"PLEkQk5xrP-tkc9DXvSLguqX5-FYp6ASR4","playlistName":"دليل الفالحين لطرق رياض الصالحين","category":"متنوع"},{"id":"tAHfGIRCxCA","title":"407- سبق المُفَرِّدون قالوا وما المُفَرِّدون يا رسولَ الله قال الذَّاكرون اللهَ كثيرًا والذَّاكرات.","publishedAt":"2023-03-05T05:00:19Z","duration":"PT32M3S","thumbnail":"https://i.ytimg.com/vi/tAHfGIRCxCA/mqdefault.jpg","viewCount":"1644","playlistId":"PLEkQk5xrP-tkc9DXvSLguqX5-FYp6ASR4","playlistName":"دليل الفالحين لطرق رياض الصالحين","category":"متنوع"},{"id":"iZ604pGi3lk","title":"133- \"لَا يَفْرَكْ مُؤْمِنٌ مُؤْمِنَةً، إنْ كَرِهَ منها خُلُقًا رَضِيَ منها آخَر…\" شرح دليل الفالحين","publishedAt":"2021-09-29T03:20:13Z","duration":"PT35M35S","thumbnail":"https://i.ytimg.com/vi/iZ604pGi3lk/mqdefault.jpg","viewCount":"1927","playlistId":"PLEkQk5xrP-tkc9DXvSLguqX5-FYp6ASR4","playlistName":"دليل الفالحين لطرق رياض الصالحين","category":"متنوع"},{"id":"2OoXVh0pPDQ","title":"132- الوصية بالنساء - شرح دليل الفالحين","publishedAt":"2021-09-27T02:10:34Z","duration":"PT40M22S","thumbnail":"https://i.ytimg.com/vi/2OoXVh0pPDQ/mqdefault.jpg","viewCount":"1189","playlistId":"PLEkQk5xrP-tkc9DXvSLguqX5-FYp6ASR4","playlistName":"دليل الفالحين لطرق رياض الصالحين","category":"متنوع"},{"id":"d9EB-i_-mfY","title":"131- \"اللَّهمَّ إنِّي أحرِّجُ حقَّ الضَّعيفينِ : اليتيمِ ، والمرأَةِ\" - شرح دليل الفالحين","publishedAt":"2021-09-24T06:05:50Z","duration":"PT32M59S","thumbnail":"https://i.ytimg.com/vi/d9EB-i_-mfY/mqdefault.jpg","viewCount":"1304","playlistId":"PLEkQk5xrP-tkc9DXvSLguqX5-FYp6ASR4","playlistName":"دليل الفالحين لطرق رياض الصالحين","category":"متنوع"},{"id":"94xiZegcYDs","title":"130- مَن عالَ جارِيَتَيْنِ حتَّى تَبْلُغا، جاءَ يَومَ القِيامَةِ أنا وهو كهاتين وضَمَّ أصابِعَهُ","publishedAt":"2021-09-21T06:27:36Z","duration":"PT51M16S","thumbnail":"https://i.ytimg.com/vi/94xiZegcYDs/mqdefault.jpg","viewCount":"1065","playlistId":"PLEkQk5xrP-tkc9DXvSLguqX5-FYp6ASR4","playlistName":"دليل الفالحين لطرق رياض الصالحين","category":"متنوع"},{"id":"bph_Ez2eSJs","title":"238- استحبابُ زِيَارةِ القبورِ للرِّجالِ ومَا يَقُولُه الزَّائرُ - شرح دليل الفالحين","publishedAt":"2022-04-25T05:00:08Z","duration":"PT49M24S","thumbnail":"https://i.ytimg.com/vi/bph_Ez2eSJs/mqdefault.jpg","viewCount":"1128","playlistId":"PLEkQk5xrP-tkc9DXvSLguqX5-FYp6ASR4","playlistName":"دليل الفالحين لطرق رياض الصالحين","category":"متنوع"},{"id":"RWcKPJuy0Xk","title":"237- بادِروا بالأعمالِ سَبعًا - شرح دليل الفالحين","publishedAt":"2022-04-23T05:00:08Z","duration":"PT39M29S","thumbnail":"https://i.ytimg.com/vi/RWcKPJuy0Xk/mqdefault.jpg","viewCount":"1614","playlistId":"PLEkQk5xrP-tkc9DXvSLguqX5-FYp6ASR4","playlistName":"دليل الفالحين لطرق رياض الصالحين","category":"متنوع"}],"total":504,"page":15,"pageSize":24,"totalPages":21}