{"items":[{"id":"tOZ9tSFqYyU","title":"467- تغليظ تحريم اليمين الكاذبة عمدًا - شرح دليل الفالحين","publishedAt":"2023-06-04T18:00:19Z","duration":"PT30M37S","thumbnail":"https://i.ytimg.com/vi/tOZ9tSFqYyU/mqdefault.jpg","viewCount":"383","playlistId":"PLEkQk5xrP-tkc9DXvSLguqX5-FYp6ASR4","playlistName":"دليل الفالحين لطرق رياض الصالحين","category":"متنوع"},{"id":"0XvEAinEK4A","title":"466- حكم الحَلِف بمخلوقٍ كالنَّبيّ والكعبة والملائكة والسماء والآباء والحياة - شرح دليل الفالحين","publishedAt":"2023-06-03T18:00:00Z","duration":"PT15M24S","thumbnail":"https://i.ytimg.com/vi/0XvEAinEK4A/mqdefault.jpg","viewCount":"703","playlistId":"PLEkQk5xrP-tkc9DXvSLguqX5-FYp6ASR4","playlistName":"دليل الفالحين لطرق رياض الصالحين","category":"متنوع"},{"id":"GVXNbYXbORE","title":"465- حكم الذهاب إلى المسجد لمن أكل ثومًا أو بصلًا أو غيرها ممَّا له رائحة كريهة - شرح دليل الفالحين","publishedAt":"2023-06-03T08:59:00Z","duration":"PT35M19S","thumbnail":"https://i.ytimg.com/vi/GVXNbYXbORE/mqdefault.jpg","viewCount":"590","playlistId":"PLEkQk5xrP-tkc9DXvSLguqX5-FYp6ASR4","playlistName":"دليل الفالحين لطرق رياض الصالحين","category":"متنوع"},{"id":"zrXAvhKCE1o","title":"464- النهي عن البصاق في المسجد والأمر بإزالته منه إذا وُجد فيه والأمر بتنزيه المسجد عن الأقذار","publishedAt":"2023-06-02T08:59:00Z","duration":"PT32M32S","thumbnail":"https://i.ytimg.com/vi/zrXAvhKCE1o/mqdefault.jpg","viewCount":"463","playlistId":"PLEkQk5xrP-tkc9DXvSLguqX5-FYp6ASR4","playlistName":"دليل الفالحين لطرق رياض الصالحين","category":"متنوع"},{"id":"zhL2k0i4Da0","title":"463- تحريم اتخاذ الكلب إلا لصيد أو ماشية أو زرع  - شرح دليل الفالحين","publishedAt":"2023-06-01T18:00:19Z","duration":"PT22M29S","thumbnail":"https://i.ytimg.com/vi/zhL2k0i4Da0/mqdefault.jpg","viewCount":"567","playlistId":"PLEkQk5xrP-tkc9DXvSLguqX5-FYp6ASR4","playlistName":"دليل الفالحين لطرق رياض الصالحين","category":"متنوع"},{"id":"w7SapB2Q7nU","title":"462- حكم تصوير الحيوان واتخاذ الصورة في حائط وغيره - شرح دليل الفالحين","publishedAt":"2023-05-31T08:59:00Z","duration":"PT35M45S","thumbnail":"https://i.ytimg.com/vi/w7SapB2Q7nU/mqdefault.jpg","viewCount":"990","playlistId":"PLEkQk5xrP-tkc9DXvSLguqX5-FYp6ASR4","playlistName":"دليل الفالحين لطرق رياض الصالحين","category":"متنوع"},{"id":"8Xnz3exag6U","title":"461- النهي عن التَّطَيُّر - شرح دليل الفالحين","publishedAt":"2023-05-30T18:00:04Z","duration":"PT22M15S","thumbnail":"https://i.ytimg.com/vi/8Xnz3exag6U/mqdefault.jpg","viewCount":"605","playlistId":"PLEkQk5xrP-tkc9DXvSLguqX5-FYp6ASR4","playlistName":"دليل الفالحين لطرق رياض الصالحين","category":"متنوع"},{"id":"BoFyOZODmT4","title":"38- هل البكاء ضد الصَّبر؟ من بابُ الصَّبر: الحديثُ الخامس - شرح دليل الفالحين","publishedAt":"2021-04-01T05:50:08Z","duration":"PT35M33S","thumbnail":"https://i.ytimg.com/vi/BoFyOZODmT4/mqdefault.jpg","viewCount":"1690","playlistId":"PLEkQk5xrP-tkc9DXvSLguqX5-FYp6ASR4","playlistName":"دليل الفالحين لطرق رياض الصالحين","category":"متنوع"},{"id":"k7W8mMw6LdM","title":"37- بابُ الصَّبر: الحديثُ الرابع\"..ليسَ علَى أبِيكِ كَرْبٌ بَعْدَ اليَومِ..\"شرح دليل الفالحين","publishedAt":"2021-03-31T05:54:07Z","duration":"PT22M55S","thumbnail":"https://i.ytimg.com/vi/k7W8mMw6LdM/mqdefault.jpg","viewCount":"1046","playlistId":"PLEkQk5xrP-tkc9DXvSLguqX5-FYp6ASR4","playlistName":"دليل الفالحين لطرق رياض الصالحين","category":"متنوع"},{"id":"4w-utGfQa2w","title":"36- باب الصَّبر:الحديث الثاني\"أنَّ ناسًا من الأنصارِ سألوا رسولَ الله ﷺ فأعطاهم...\"شرح دليل الفالحين","publishedAt":"2021-03-29T05:13:28Z","duration":"PT33M46S","thumbnail":"https://i.ytimg.com/vi/4w-utGfQa2w/mqdefault.jpg","viewCount":"1458","playlistId":"PLEkQk5xrP-tkc9DXvSLguqX5-FYp6ASR4","playlistName":"دليل الفالحين لطرق رياض الصالحين","category":"متنوع"},{"id":"lOcCFJqLM-0","title":"35- بابُ الصَّبر:الحديثُ الأول \"...والحمدُ للهِ تملأُ الميزانَ...\" شرح دليل الفالحين","publishedAt":"2021-03-27T05:49:09Z","duration":"PT33M36S","thumbnail":"https://i.ytimg.com/vi/lOcCFJqLM-0/mqdefault.jpg","viewCount":"1533","playlistId":"PLEkQk5xrP-tkc9DXvSLguqX5-FYp6ASR4","playlistName":"دليل الفالحين لطرق رياض الصالحين","category":"متنوع"},{"id":"XoaJT7MnFaw","title":"34- باب الثالث: باب الصبر - شرح دليل الفالحين لطُرُق رياض الصالحين","publishedAt":"2021-03-25T07:34:49Z","duration":"PT31M6S","thumbnail":"https://i.ytimg.com/vi/XoaJT7MnFaw/mqdefault.jpg","viewCount":"2261","playlistId":"PLEkQk5xrP-tkc9DXvSLguqX5-FYp6ASR4","playlistName":"دليل الفالحين لطرق رياض الصالحين","category":"متنوع"},{"id":"xIe0VWe0i6o","title":"33- باب التوبة: الحديث العاشر - شرح دليل الفالحين لطُرُق رياض الصالحين","publishedAt":"2021-03-22T20:43:11Z","duration":"PT31M10S","thumbnail":"https://i.ytimg.com/vi/xIe0VWe0i6o/mqdefault.jpg","viewCount":"1202","playlistId":"PLEkQk5xrP-tkc9DXvSLguqX5-FYp6ASR4","playlistName":"دليل الفالحين لطرق رياض الصالحين","category":"متنوع"},{"id":"iROGHTNUlZ4","title":"32- باب التوبة: الحديث التاسع (5) شرح دليل الفالحين لطُرُق رياض الصالحين","publishedAt":"2021-03-21T07:10:44Z","duration":"PT37M46S","thumbnail":"https://i.ytimg.com/vi/iROGHTNUlZ4/mqdefault.jpg","viewCount":"1158","playlistId":"PLEkQk5xrP-tkc9DXvSLguqX5-FYp6ASR4","playlistName":"دليل الفالحين لطرق رياض الصالحين","category":"متنوع"},{"id":"lmFUyH0YiQA","title":"248- تحريمُ الكِبْرِ والإعجاب - شرح دليل الفالحين","publishedAt":"2022-05-17T05:10:00Z","duration":"PT37M45S","thumbnail":"https://i.ytimg.com/vi/lmFUyH0YiQA/mqdefault.jpg","viewCount":"1916","playlistId":"PLEkQk5xrP-tkc9DXvSLguqX5-FYp6ASR4","playlistName":"دليل الفالحين لطرق رياض الصالحين","category":"متنوع"},{"id":"bGYPZ0-XSBU","title":"247- حكم لعق الأصابع بعد الطعام - شرح دليل الفالحين","publishedAt":"2022-05-16T05:00:12Z","duration":"PT29M41S","thumbnail":"https://i.ytimg.com/vi/bGYPZ0-XSBU/mqdefault.jpg","viewCount":"2185","playlistId":"PLEkQk5xrP-tkc9DXvSLguqX5-FYp6ASR4","playlistName":"دليل الفالحين لطرق رياض الصالحين","category":"متنوع"},{"id":"krK02-HIa7k","title":"246- رحمةُ النَّبيّ ﷺ بالأطفال والصبيان والإماء - شرح دليل الفالحين","publishedAt":"2022-05-13T05:15:01Z","duration":"PT32M20S","thumbnail":"https://i.ytimg.com/vi/krK02-HIa7k/mqdefault.jpg","viewCount":"1372","playlistId":"PLEkQk5xrP-tkc9DXvSLguqX5-FYp6ASR4","playlistName":"دليل الفالحين لطرق رياض الصالحين","category":"متنوع"},{"id":"BK9nuOBoaM0","title":"245- التواضع وخفض الجناح - شرح دليل الفالحين","publishedAt":"2022-05-11T19:30:00Z","duration":"PT43M53S","thumbnail":"https://i.ytimg.com/vi/BK9nuOBoaM0/mqdefault.jpg","viewCount":"2469","playlistId":"PLEkQk5xrP-tkc9DXvSLguqX5-FYp6ASR4","playlistName":"دليل الفالحين لطرق رياض الصالحين","category":"متنوع"},{"id":"SDuzaiKL3Vs","title":"244- فضلُ الاختلاط بالناس - شرح دليل الفالحين","publishedAt":"2022-05-10T05:15:00Z","duration":"PT31M8S","thumbnail":"https://i.ytimg.com/vi/SDuzaiKL3Vs/mqdefault.jpg","viewCount":"2387","playlistId":"PLEkQk5xrP-tkc9DXvSLguqX5-FYp6ASR4","playlistName":"دليل الفالحين لطرق رياض الصالحين","category":"متنوع"},{"id":"c0KaIgF_v7Q","title":"243- استحباب العُزْلة عند فساد الزمان - شرح دليل الفالحين","publishedAt":"2022-05-08T20:00:05Z","duration":"PT47M55S","thumbnail":"https://i.ytimg.com/vi/c0KaIgF_v7Q/mqdefault.jpg","viewCount":"5597","playlistId":"PLEkQk5xrP-tkc9DXvSLguqX5-FYp6ASR4","playlistName":"دليل الفالحين لطرق رياض الصالحين","category":"متنوع"},{"id":"gpFMv41opr4","title":"166- \"سَبْعَةٌ يُظِلُّهُمُ اللَّهُ في ظِلِّهِ، يَومَ لا ظِلَّ إِلَّا ظِلُّهُ…\" - شرح دليل الفالحين","publishedAt":"2021-12-08T20:39:37Z","duration":"PT44M48S","thumbnail":"https://i.ytimg.com/vi/gpFMv41opr4/mqdefault.jpg","viewCount":"1291","playlistId":"PLEkQk5xrP-tkc9DXvSLguqX5-FYp6ASR4","playlistName":"دليل الفالحين لطرق رياض الصالحين","category":"متنوع"},{"id":"_qy5rsOD0Wg","title":"165- الحُبُّ في الله والحَثُّ عليه - شرح دليل الفالحين","publishedAt":"2021-12-08T06:46:29Z","duration":"PT28M57S","thumbnail":"https://i.ytimg.com/vi/_qy5rsOD0Wg/mqdefault.jpg","viewCount":"1346","playlistId":"PLEkQk5xrP-tkc9DXvSLguqX5-FYp6ASR4","playlistName":"دليل الفالحين لطرق رياض الصالحين","category":"متنوع"},{"id":"-spUMEnoxm0","title":"164-  \"…لاَ تَنْسَنَا يَا أُخَيَّ مِنْ دُعَائِكَ…\" - شرح دليل الفالحين","publishedAt":"2021-12-06T19:58:09Z","duration":"PT22M9S","thumbnail":"https://i.ytimg.com/vi/-spUMEnoxm0/mqdefault.jpg","viewCount":"1015","playlistId":"PLEkQk5xrP-tkc9DXvSLguqX5-FYp6ASR4","playlistName":"دليل الفالحين لطرق رياض الصالحين","category":"متنوع"},{"id":"OOC84Do31RM","title":"163-\"…يَأْتي علَيْكُم أُوَيْسُ بنُ عَامِرٍ مع أَمْدَادِ أَهْلِ اليَمَنِ…\" - شرح دليل الفالحين","publishedAt":"2021-12-05T06:54:44Z","duration":"PT40M8S","thumbnail":"https://i.ytimg.com/vi/OOC84Do31RM/mqdefault.jpg","viewCount":"2035","playlistId":"PLEkQk5xrP-tkc9DXvSLguqX5-FYp6ASR4","playlistName":"دليل الفالحين لطرق رياض الصالحين","category":"متنوع"}],"total":504,"page":10,"pageSize":24,"totalPages":21}