{"items":[{"id":"q9mRaihGHEI","title":"437- الرواية الثانية لحديث رؤيا النَّبيّ ﷺ - شرح دليل الفالحين","publishedAt":"2023-05-06T05:00:18Z","duration":"PT36M22S","thumbnail":"https://i.ytimg.com/vi/q9mRaihGHEI/mqdefault.jpg","viewCount":"781","playlistId":"PLEkQk5xrP-tkc9DXvSLguqX5-FYp6ASR4","playlistName":"دليل الفالحين لطرق رياض الصالحين","category":"متنوع"},{"id":"MlipHcMahps","title":"436- تكملة حديث رؤيا النَّبيّ ﷺ - شرح دليل الفالحين","publishedAt":"2023-05-05T05:00:18Z","duration":"PT27M9S","thumbnail":"https://i.ytimg.com/vi/MlipHcMahps/mqdefault.jpg","viewCount":"827","playlistId":"PLEkQk5xrP-tkc9DXvSLguqX5-FYp6ASR4","playlistName":"دليل الفالحين لطرق رياض الصالحين","category":"متنوع"},{"id":"NjjQfl9Q6fU","title":"435- كيف تكونُ الرؤْيا صادقة، وحديث\" هلْ رَأَى أحَدٌ مِنكُم مِن رُؤْيا\" - شرح دليل الفالحين","publishedAt":"2023-05-04T08:59:00Z","duration":"PT37M38S","thumbnail":"https://i.ytimg.com/vi/NjjQfl9Q6fU/mqdefault.jpg","viewCount":"2046","playlistId":"PLEkQk5xrP-tkc9DXvSLguqX5-FYp6ASR4","playlistName":"دليل الفالحين لطرق رياض الصالحين","category":"متنوع"},{"id":"5Hp8nVZ8Qrk","title":"434- تحريم الكذب - شرح دليل الفالحين","publishedAt":"2023-05-03T08:59:00Z","duration":"PT22M2S","thumbnail":"https://i.ytimg.com/vi/5Hp8nVZ8Qrk/mqdefault.jpg","viewCount":"1192","playlistId":"PLEkQk5xrP-tkc9DXvSLguqX5-FYp6ASR4","playlistName":"دليل الفالحين لطرق رياض الصالحين","category":"متنوع"},{"id":"LfmuOL4WzBg","title":"433- تحريم النميمة - شرح دليل الفالحين","publishedAt":"2023-05-02T08:59:00Z","duration":"PT30M16S","thumbnail":"https://i.ytimg.com/vi/LfmuOL4WzBg/mqdefault.jpg","viewCount":"1089","playlistId":"PLEkQk5xrP-tkc9DXvSLguqX5-FYp6ASR4","playlistName":"دليل الفالحين لطرق رياض الصالحين","category":"متنوع"},{"id":"AXeiUnJfTWQ","title":"432- ما يُباحُ مِن الغِيبة - شرح دليل الفالحين","publishedAt":"2023-04-30T08:59:00Z","duration":"PT18M49S","thumbnail":"https://i.ytimg.com/vi/AXeiUnJfTWQ/mqdefault.jpg","viewCount":"1064","playlistId":"PLEkQk5xrP-tkc9DXvSLguqX5-FYp6ASR4","playlistName":"دليل الفالحين لطرق رياض الصالحين","category":"متنوع"},{"id":"47HJir50jes","title":"431- متى تُباح الغِيبة؟ - شرح دليل الفالحين","publishedAt":"2023-04-28T08:59:00Z","duration":"PT38M41S","thumbnail":"https://i.ytimg.com/vi/47HJir50jes/mqdefault.jpg","viewCount":"1579","playlistId":"PLEkQk5xrP-tkc9DXvSLguqX5-FYp6ASR4","playlistName":"دليل الفالحين لطرق رياض الصالحين","category":"متنوع"},{"id":"TAYOeidkm8A","title":"430- تحريم سماع الغِيبة - شرح دليل الفالحين","publishedAt":"2023-04-27T09:00:28Z","duration":"PT15M45S","thumbnail":"https://i.ytimg.com/vi/TAYOeidkm8A/mqdefault.jpg","viewCount":"1277","playlistId":"PLEkQk5xrP-tkc9DXvSLguqX5-FYp6ASR4","playlistName":"دليل الفالحين لطرق رياض الصالحين","category":"متنوع"},{"id":"t93UPfaqU3I","title":"178- \"ما منكم من أحدٍ إلا سيُكلِّمُه ربُّهُ ليس بينه وبينه تَرجمانُ…\" - شرح دليل الفالحين","publishedAt":"2022-01-02T20:43:22Z","duration":"PT31M6S","thumbnail":"https://i.ytimg.com/vi/t93UPfaqU3I/mqdefault.jpg","viewCount":"2400","playlistId":"PLEkQk5xrP-tkc9DXvSLguqX5-FYp6ASR4","playlistName":"دليل الفالحين لطرق رياض الصالحين","category":"متنوع"},{"id":"MX6m6o4g5qw","title":"177- «لو تَعْلَمُونَ ما أَعْلَمُ، لَضَحِكْتُمْ قَلِيلًا وَلَبَكَيْتُمْ كَثِيرًا»  شرح دليل الفالحين","publishedAt":"2021-12-31T19:03:05Z","duration":"PT22M51S","thumbnail":"https://i.ytimg.com/vi/MX6m6o4g5qw/mqdefault.jpg","viewCount":"1310","playlistId":"PLEkQk5xrP-tkc9DXvSLguqX5-FYp6ASR4","playlistName":"دليل الفالحين لطرق رياض الصالحين","category":"متنوع"},{"id":"qLj8_AGU5NQ","title":"176- \"يُؤْتَى بجَهَنَّمَ يَومَئذٍ لها سَبْعُونَ ألْفَ زِِمَامٍ…\" - شرح دليل الفالحين","publishedAt":"2021-12-29T20:24:02Z","duration":"PT23M41S","thumbnail":"https://i.ytimg.com/vi/qLj8_AGU5NQ/mqdefault.jpg","viewCount":"1191","playlistId":"PLEkQk5xrP-tkc9DXvSLguqX5-FYp6ASR4","playlistName":"دليل الفالحين لطرق رياض الصالحين","category":"متنوع"},{"id":"MBv8B6U3GHY","title":"175- الإعجاز النبوي - شرح دليل الفالحين","publishedAt":"2021-12-27T07:33:08Z","duration":"PT36M53S","thumbnail":"https://i.ytimg.com/vi/MBv8B6U3GHY/mqdefault.jpg","viewCount":"1499","playlistId":"PLEkQk5xrP-tkc9DXvSLguqX5-FYp6ASR4","playlistName":"دليل الفالحين لطرق رياض الصالحين","category":"متنوع"},{"id":"gnvcVzXicrc","title":"174- الخوف - شرح دليل الفالحين","publishedAt":"2021-12-25T20:15:13Z","duration":"PT50M40S","thumbnail":"https://i.ytimg.com/vi/gnvcVzXicrc/mqdefault.jpg","viewCount":"1618","playlistId":"PLEkQk5xrP-tkc9DXvSLguqX5-FYp6ASR4","playlistName":"دليل الفالحين لطرق رياض الصالحين","category":"متنوع"},{"id":"c3gNlBB1uw4","title":"173- \"أَقتَلْتَهُ بَعْدَمَا قالَ لَا إِلهَ إِلَّا الله؟!\" - شرح دليل الفالحين","publishedAt":"2021-12-24T20:16:23Z","duration":"PT31M52S","thumbnail":"https://i.ytimg.com/vi/c3gNlBB1uw4/mqdefault.jpg","viewCount":"986","playlistId":"PLEkQk5xrP-tkc9DXvSLguqX5-FYp6ASR4","playlistName":"دليل الفالحين لطرق رياض الصالحين","category":"متنوع"},{"id":"-Lvb-_Hb81M","title":"172- إجراءُ أحكام الناس على الظاهر وسرائرهم إلى الله تعالى - شرح دليل الفالحين","publishedAt":"2021-12-23T07:09:28Z","duration":"PT42M44S","thumbnail":"https://i.ytimg.com/vi/-Lvb-_Hb81M/mqdefault.jpg","viewCount":"1628","playlistId":"PLEkQk5xrP-tkc9DXvSLguqX5-FYp6ASR4","playlistName":"دليل الفالحين لطرق رياض الصالحين","category":"متنوع"},{"id":"jkXtWErymgY","title":"157- “… إنَّ من إجلال الله تعالى إكرامَ ذي الشيبة المسلم…\" شرح دليل الفالحين","publishedAt":"2021-11-24T06:33:54Z","duration":"PT32M4S","thumbnail":"https://i.ytimg.com/vi/jkXtWErymgY/mqdefault.jpg","viewCount":"1309","playlistId":"PLEkQk5xrP-tkc9DXvSLguqX5-FYp6ASR4","playlistName":"دليل الفالحين لطرق رياض الصالحين","category":"متنوع"},{"id":"Qa41-lgfvXU","title":"156- \"…لِيَلِنِي مِنكُم أُولو الأحْلَامِ والنُّهَى…\" - شرح دليل الفالحين","publishedAt":"2021-11-22T06:08:50Z","duration":"PT22M45S","thumbnail":"https://i.ytimg.com/vi/Qa41-lgfvXU/mqdefault.jpg","viewCount":"1350","playlistId":"PLEkQk5xrP-tkc9DXvSLguqX5-FYp6ASR4","playlistName":"دليل الفالحين لطرق رياض الصالحين","category":"متنوع"},{"id":"zgipwNlsPEU","title":"155-  توقير العلماء والكبار وأهل الفضل - شرح دليل الفالحين","publishedAt":"2021-11-17T08:43:10Z","duration":"PT30M38S","thumbnail":"https://i.ytimg.com/vi/zgipwNlsPEU/mqdefault.jpg","viewCount":"962","playlistId":"PLEkQk5xrP-tkc9DXvSLguqX5-FYp6ASR4","playlistName":"دليل الفالحين لطرق رياض الصالحين","category":"متنوع"},{"id":"IniGToUyha8","title":"420- كرامات الأولياء وفضلهم - شرح دليل الفالحين","publishedAt":"2023-03-31T05:00:07Z","duration":"PT31M25S","thumbnail":"https://i.ytimg.com/vi/IniGToUyha8/mqdefault.jpg","viewCount":"1740","playlistId":"PLEkQk5xrP-tkc9DXvSLguqX5-FYp6ASR4","playlistName":"دليل الفالحين لطرق رياض الصالحين","category":"متنوع"},{"id":"b7onwVLa72M","title":"419- فضل الدعاء بظهر الغيب - شرح دليل الفالحين","publishedAt":"2023-03-29T05:00:15Z","duration":"PT46M29S","thumbnail":"https://i.ytimg.com/vi/b7onwVLa72M/mqdefault.jpg","viewCount":"1043","playlistId":"PLEkQk5xrP-tkc9DXvSLguqX5-FYp6ASR4","playlistName":"دليل الفالحين لطرق رياض الصالحين","category":"متنوع"},{"id":"78cyQyWH840","title":"418- سَلوا اللهَ العافيةَ  في الدنيا والآخرة - شرح دليل الفالحين","publishedAt":"2023-03-27T05:00:03Z","duration":"PT32M24S","thumbnail":"https://i.ytimg.com/vi/78cyQyWH840/mqdefault.jpg","viewCount":"1121","playlistId":"PLEkQk5xrP-tkc9DXvSLguqX5-FYp6ASR4","playlistName":"دليل الفالحين لطرق رياض الصالحين","category":"متنوع"},{"id":"fcttccFvhqQ","title":"417-  اللهمّ لك أسلمت وبك آمنت وعليك توكلت وإليك أنبت وبك خاصمت أعوذ بعزّتك لا إله إلا أنت أن تُضلني","publishedAt":"2023-03-25T05:00:14Z","duration":"PT35M30S","thumbnail":"https://i.ytimg.com/vi/fcttccFvhqQ/mqdefault.jpg","viewCount":"980","playlistId":"PLEkQk5xrP-tkc9DXvSLguqX5-FYp6ASR4","playlistName":"دليل الفالحين لطرق رياض الصالحين","category":"متنوع"},{"id":"yP1YqMrllO8","title":"416- اللَّهمَّ إنِّي ظلَمتُ نَفسي ظلمًا كثيرًا ولا يغفرُ الذُّنوب إلَّا أنت فاغفِر لي مغفرةً من عندك","publishedAt":"2023-03-23T05:00:19Z","duration":"PT29M13S","thumbnail":"https://i.ytimg.com/vi/yP1YqMrllO8/mqdefault.jpg","viewCount":"1674","playlistId":"PLEkQk5xrP-tkc9DXvSLguqX5-FYp6ASR4","playlistName":"دليل الفالحين لطرق رياض الصالحين","category":"متنوع"},{"id":"yzANa_fO1Oo","title":"415- اللَّهُمَّ اغفر لي وارحمني واهدني وعافني وارزقني - شرح دليل الفالحين","publishedAt":"2023-03-21T05:00:31Z","duration":"PT36M18S","thumbnail":"https://i.ytimg.com/vi/yzANa_fO1Oo/mqdefault.jpg","viewCount":"1448","playlistId":"PLEkQk5xrP-tkc9DXvSLguqX5-FYp6ASR4","playlistName":"دليل الفالحين لطرق رياض الصالحين","category":"متنوع"}],"total":504,"page":20,"pageSize":24,"totalPages":21}