{"items":[{"id":"2XFtrvIZg_A","title":"29- باب التوبة: الحديث التاسع (2) شرح دليل الفالحين لطُرُق رياض الصالحين","publishedAt":"2021-03-15T06:25:13Z","duration":"PT48M14S","thumbnail":"https://i.ytimg.com/vi/2XFtrvIZg_A/mqdefault.jpg","viewCount":"1301","playlistId":"PLEkQk5xrP-tkc9DXvSLguqX5-FYp6ASR4","playlistName":"دليل الفالحين لطرق رياض الصالحين","category":"متنوع"},{"id":"4w-utGfQa2w","title":"36- باب الصَّبر:الحديث الثاني\"أنَّ ناسًا من الأنصارِ سألوا رسولَ الله ﷺ فأعطاهم...\"شرح دليل الفالحين","publishedAt":"2021-03-29T05:13:28Z","duration":"PT33M46S","thumbnail":"https://i.ytimg.com/vi/4w-utGfQa2w/mqdefault.jpg","viewCount":"1458","playlistId":"PLEkQk5xrP-tkc9DXvSLguqX5-FYp6ASR4","playlistName":"دليل الفالحين لطرق رياض الصالحين","category":"متنوع"},{"id":"2OoXVh0pPDQ","title":"132- الوصية بالنساء - شرح دليل الفالحين","publishedAt":"2021-09-27T02:10:34Z","duration":"PT40M22S","thumbnail":"https://i.ytimg.com/vi/2OoXVh0pPDQ/mqdefault.jpg","viewCount":"1189","playlistId":"PLEkQk5xrP-tkc9DXvSLguqX5-FYp6ASR4","playlistName":"دليل الفالحين لطرق رياض الصالحين","category":"متنوع"},{"id":"d9EB-i_-mfY","title":"131- \"اللَّهمَّ إنِّي أحرِّجُ حقَّ الضَّعيفينِ : اليتيمِ ، والمرأَةِ\" - شرح دليل الفالحين","publishedAt":"2021-09-24T06:05:50Z","duration":"PT32M59S","thumbnail":"https://i.ytimg.com/vi/d9EB-i_-mfY/mqdefault.jpg","viewCount":"1304","playlistId":"PLEkQk5xrP-tkc9DXvSLguqX5-FYp6ASR4","playlistName":"دليل الفالحين لطرق رياض الصالحين","category":"متنوع"},{"id":"ZaEOCOb2MXw","title":"28- باب التوبة: الحديث التاسع - شرح دليل الفالحين لطُرُق رياض الصالحين","publishedAt":"2021-03-12T06:51:28Z","duration":"PT23M","thumbnail":"https://i.ytimg.com/vi/ZaEOCOb2MXw/mqdefault.jpg","viewCount":"1303","playlistId":"PLEkQk5xrP-tkc9DXvSLguqX5-FYp6ASR4","playlistName":"دليل الفالحين لطرق رياض الصالحين","category":"متنوع"},{"id":"G9nBAqXWc5c","title":"27- \"كان فيمن كان قبلكم رجلٌ قتل تسعة وتسعين نفسًا، فسأل عن أعلم أهل الأرض..\" - شرح دليل الفالحين","publishedAt":"2021-03-10T07:53:52Z","duration":"PT35M14S","thumbnail":"https://i.ytimg.com/vi/G9nBAqXWc5c/mqdefault.jpg","viewCount":"2728","playlistId":"PLEkQk5xrP-tkc9DXvSLguqX5-FYp6ASR4","playlistName":"دليل الفالحين لطرق رياض الصالحين","category":"متنوع"},{"id":"Eb__BTXrsQU","title":"242- حكم مَن تزوج أخته من الرضاع وأنجب منها - شرح دليل الفالحين","publishedAt":"2022-05-07T05:00:04Z","duration":"PT39M7S","thumbnail":"https://i.ytimg.com/vi/Eb__BTXrsQU/mqdefault.jpg","viewCount":"4308","playlistId":"PLEkQk5xrP-tkc9DXvSLguqX5-FYp6ASR4","playlistName":"دليل الفالحين لطرق رياض الصالحين","category":"متنوع"},{"id":"RwMvKq1Wt7Q","title":"241- البِرُّ حُسنُ الخُلُق، والإِثْمُ ما حاك في صدرك ، وكرهت أن يطلع عليه الناس - شرح دليل الفالحين","publishedAt":"2022-04-30T05:00:10Z","duration":"PT46M21S","thumbnail":"https://i.ytimg.com/vi/RwMvKq1Wt7Q/mqdefault.jpg","viewCount":"1789","playlistId":"PLEkQk5xrP-tkc9DXvSLguqX5-FYp6ASR4","playlistName":"دليل الفالحين لطرق رياض الصالحين","category":"متنوع"},{"id":"5n6DaWNBKoo","title":"240- الورعُ وتركُ الشُبُهات - شرح دليل الفالحين","publishedAt":"2022-04-29T05:00:04Z","duration":"PT43M40S","thumbnail":"https://i.ytimg.com/vi/5n6DaWNBKoo/mqdefault.jpg","viewCount":"1063","playlistId":"PLEkQk5xrP-tkc9DXvSLguqX5-FYp6ASR4","playlistName":"دليل الفالحين لطرق رياض الصالحين","category":"متنوع"},{"id":"QLDMN4qdwfM","title":"239- كراهية تمنِّي الموت - شرح دليل الفالحين","publishedAt":"2022-04-27T05:00:13Z","duration":"PT38M20S","thumbnail":"https://i.ytimg.com/vi/QLDMN4qdwfM/mqdefault.jpg","viewCount":"1185","playlistId":"PLEkQk5xrP-tkc9DXvSLguqX5-FYp6ASR4","playlistName":"دليل الفالحين لطرق رياض الصالحين","category":"متنوع"},{"id":"lOcCFJqLM-0","title":"35- بابُ الصَّبر:الحديثُ الأول \"...والحمدُ للهِ تملأُ الميزانَ...\" شرح دليل الفالحين","publishedAt":"2021-03-27T05:49:09Z","duration":"PT33M36S","thumbnail":"https://i.ytimg.com/vi/lOcCFJqLM-0/mqdefault.jpg","viewCount":"1533","playlistId":"PLEkQk5xrP-tkc9DXvSLguqX5-FYp6ASR4","playlistName":"دليل الفالحين لطرق رياض الصالحين","category":"متنوع"},{"id":"XoaJT7MnFaw","title":"34- باب الثالث: باب الصبر - شرح دليل الفالحين لطُرُق رياض الصالحين","publishedAt":"2021-03-25T07:34:49Z","duration":"PT31M6S","thumbnail":"https://i.ytimg.com/vi/XoaJT7MnFaw/mqdefault.jpg","viewCount":"2261","playlistId":"PLEkQk5xrP-tkc9DXvSLguqX5-FYp6ASR4","playlistName":"دليل الفالحين لطرق رياض الصالحين","category":"متنوع"},{"id":"b7onwVLa72M","title":"419- فضل الدعاء بظهر الغيب - شرح دليل الفالحين","publishedAt":"2023-03-29T05:00:15Z","duration":"PT46M29S","thumbnail":"https://i.ytimg.com/vi/b7onwVLa72M/mqdefault.jpg","viewCount":"1043","playlistId":"PLEkQk5xrP-tkc9DXvSLguqX5-FYp6ASR4","playlistName":"دليل الفالحين لطرق رياض الصالحين","category":"متنوع"},{"id":"lmFUyH0YiQA","title":"248- تحريمُ الكِبْرِ والإعجاب - شرح دليل الفالحين","publishedAt":"2022-05-17T05:10:00Z","duration":"PT37M45S","thumbnail":"https://i.ytimg.com/vi/lmFUyH0YiQA/mqdefault.jpg","viewCount":"1916","playlistId":"PLEkQk5xrP-tkc9DXvSLguqX5-FYp6ASR4","playlistName":"دليل الفالحين لطرق رياض الصالحين","category":"متنوع"},{"id":"bGYPZ0-XSBU","title":"247- حكم لعق الأصابع بعد الطعام - شرح دليل الفالحين","publishedAt":"2022-05-16T05:00:12Z","duration":"PT29M41S","thumbnail":"https://i.ytimg.com/vi/bGYPZ0-XSBU/mqdefault.jpg","viewCount":"2185","playlistId":"PLEkQk5xrP-tkc9DXvSLguqX5-FYp6ASR4","playlistName":"دليل الفالحين لطرق رياض الصالحين","category":"متنوع"},{"id":"krK02-HIa7k","title":"246- رحمةُ النَّبيّ ﷺ بالأطفال والصبيان والإماء - شرح دليل الفالحين","publishedAt":"2022-05-13T05:15:01Z","duration":"PT32M20S","thumbnail":"https://i.ytimg.com/vi/krK02-HIa7k/mqdefault.jpg","viewCount":"1372","playlistId":"PLEkQk5xrP-tkc9DXvSLguqX5-FYp6ASR4","playlistName":"دليل الفالحين لطرق رياض الصالحين","category":"متنوع"},{"id":"BK9nuOBoaM0","title":"245- التواضع وخفض الجناح - شرح دليل الفالحين","publishedAt":"2022-05-11T19:30:00Z","duration":"PT43M53S","thumbnail":"https://i.ytimg.com/vi/BK9nuOBoaM0/mqdefault.jpg","viewCount":"2469","playlistId":"PLEkQk5xrP-tkc9DXvSLguqX5-FYp6ASR4","playlistName":"دليل الفالحين لطرق رياض الصالحين","category":"متنوع"},{"id":"uJcXc8cv9Y8","title":"26 - المسح على الخُفَّين (2) - شرح دليل الفالحين","publishedAt":"2021-03-08T07:03:31Z","duration":"PT29M22S","thumbnail":"https://i.ytimg.com/vi/uJcXc8cv9Y8/mqdefault.jpg","viewCount":"1251","playlistId":"PLEkQk5xrP-tkc9DXvSLguqX5-FYp6ASR4","playlistName":"دليل الفالحين لطرق رياض الصالحين","category":"متنوع"},{"id":"QZ9hMnyBu-8","title":"194- مُرُوا أبَا بَكْرٍ فَلْيُصَلِّ بالنَّاسِ…\" شرح دليل الفالحين","publishedAt":"2022-02-02T07:02:48Z","duration":"PT34M16S","thumbnail":"https://i.ytimg.com/vi/QZ9hMnyBu-8/mqdefault.jpg","viewCount":"1127","playlistId":"PLEkQk5xrP-tkc9DXvSLguqX5-FYp6ASR4","playlistName":"دليل الفالحين لطرق رياض الصالحين","category":"متنوع"},{"id":"49OhbQ35Rkc","title":"386- اللَّهُمَّ، بَلِّغْ عَنَّا نَبِيَّنَا أنَّا قدْ لَقِينَاكَ فَرَضِينَا عَنْكَ، وَرَضِيتَ عَنَّا","publishedAt":"2023-01-19T09:00:02Z","duration":"PT41M32S","thumbnail":"https://i.ytimg.com/vi/49OhbQ35Rkc/mqdefault.jpg","viewCount":"700","playlistId":"PLEkQk5xrP-tkc9DXvSLguqX5-FYp6ASR4","playlistName":"دليل الفالحين لطرق رياض الصالحين","category":"متنوع"},{"id":"kKbwU117_2U","title":"385- أفضلُ الصدقاتِ ظِلُّ فُسْطاطٍ في سبيلِ اللهِ عزَّ و جلَّ - شرح دليل الفالحين","publishedAt":"2023-01-18T09:00:21Z","duration":"PT51M57S","thumbnail":"https://i.ytimg.com/vi/kKbwU117_2U/mqdefault.jpg","viewCount":"856","playlistId":"PLEkQk5xrP-tkc9DXvSLguqX5-FYp6ASR4","playlistName":"دليل الفالحين لطرق رياض الصالحين","category":"متنوع"},{"id":"iWlqf7-arTg","title":"146- \"…أَنَّهَا أَعْتَقَتْ ولِيدَةً ولَمْ تَسْتَأْذِنِ النَّبيَّ ﷺ…\" - شرح دليل الفالحين","publishedAt":"2021-10-23T06:26:02Z","duration":"PT30M30S","thumbnail":"https://i.ytimg.com/vi/iWlqf7-arTg/mqdefault.jpg","viewCount":"1163","playlistId":"PLEkQk5xrP-tkc9DXvSLguqX5-FYp6ASR4","playlistName":"دليل الفالحين لطرق رياض الصالحين","category":"متنوع"},{"id":"6C9ILSEKLG8","title":"275- وداع الصاحب ووصيته عند فراقه لسفر  أو غيره والدعاء له وطلب الدعاء منه - شرح دليل الفالحين","publishedAt":"2022-07-03T05:00:03Z","duration":"PT31M41S","thumbnail":"https://i.ytimg.com/vi/6C9ILSEKLG8/mqdefault.jpg","viewCount":"778","playlistId":"PLEkQk5xrP-tkc9DXvSLguqX5-FYp6ASR4","playlistName":"دليل الفالحين لطرق رياض الصالحين","category":"متنوع"},{"id":"XQoyyGJDbJs","title":"274- التبشيرُ بالجَنَّة - شرح دليل الفالحين","publishedAt":"2022-06-30T05:30:06Z","duration":"PT50M22S","thumbnail":"https://i.ytimg.com/vi/XQoyyGJDbJs/mqdefault.jpg","viewCount":"1572","playlistId":"PLEkQk5xrP-tkc9DXvSLguqX5-FYp6ASR4","playlistName":"دليل الفالحين لطرق رياض الصالحين","category":"متنوع"}],"total":504,"page":19,"pageSize":24,"totalPages":21}