{"items":[{"id":"QAy9qvNTUvo","title":"291- استحباب القميص - شرح دليل الفالحين","publishedAt":"2022-08-27T18:15:03Z","duration":"PT52M41S","thumbnail":"https://i.ytimg.com/vi/QAy9qvNTUvo/mqdefault.jpg","viewCount":"1082","playlistId":"PLEkQk5xrP-tkc9DXvSLguqX5-FYp6ASR4","playlistName":"دليل الفالحين لطرق رياض الصالحين","category":"متنوع"},{"id":"Zhw4TePuyDc","title":"290- حكم لبس العمامة السوداء - شرح دليل الفالحين","publishedAt":"2022-08-24T05:30:10Z","duration":"PT34M3S","thumbnail":"https://i.ytimg.com/vi/Zhw4TePuyDc/mqdefault.jpg","viewCount":"1224","playlistId":"PLEkQk5xrP-tkc9DXvSLguqX5-FYp6ASR4","playlistName":"دليل الفالحين لطرق رياض الصالحين","category":"متنوع"},{"id":"NwP9QeElMAA","title":"289- استحباب الثوب الأبيض وجواز الأخضر والأحمر والأصفر والأسود - شرح دليل الفالحين","publishedAt":"2022-08-21T05:30:05Z","duration":"PT35M46S","thumbnail":"https://i.ytimg.com/vi/NwP9QeElMAA/mqdefault.jpg","viewCount":"1019","playlistId":"PLEkQk5xrP-tkc9DXvSLguqX5-FYp6ASR4","playlistName":"دليل الفالحين لطرق رياض الصالحين","category":"متنوع"},{"id":"ehKocBS8mHA","title":"61- \"إذا خرَجَ الرَّجُلُ من بيتِه، فقال: بسم الله…\"الحديث(9)اليقين والتَّوكُّل - شرح دليل الفالحين","publishedAt":"2021-05-18T20:22:33Z","duration":"PT32M2S","thumbnail":"https://i.ytimg.com/vi/ehKocBS8mHA/mqdefault.jpg","viewCount":"1894","playlistId":"PLEkQk5xrP-tkc9DXvSLguqX5-FYp6ASR4","playlistName":"دليل الفالحين لطرق رياض الصالحين","category":"متنوع"},{"id":"m61Fc3qJB6w","title":"60- \"لو أنكم تتوكّلون على الله حقَّ توكُّله؛ لرزقكم…\"الحديث(6)اليقين والتَّوكُّل - شرح دليل الفالحين","publishedAt":"2021-05-17T05:37:23Z","duration":"PT38M37S","thumbnail":"https://i.ytimg.com/vi/m61Fc3qJB6w/mqdefault.jpg","viewCount":"3053","playlistId":"PLEkQk5xrP-tkc9DXvSLguqX5-FYp6ASR4","playlistName":"دليل الفالحين لطرق رياض الصالحين","category":"متنوع"},{"id":"itBdioRZQ10","title":"59- \"اللَّهمَّ لكَ أسلمتُ وبكَ آمنتُ وعليك توكَّلتُ…\"الحديث(2)اليقين والتَّوكُّل - شرح دليل الفالحين","publishedAt":"2021-05-16T05:26:52Z","duration":"PT40M45S","thumbnail":"https://i.ytimg.com/vi/itBdioRZQ10/mqdefault.jpg","viewCount":"2021","playlistId":"PLEkQk5xrP-tkc9DXvSLguqX5-FYp6ASR4","playlistName":"دليل الفالحين لطرق رياض الصالحين","category":"متنوع"},{"id":"xJBxtAA3cTU","title":"57-\"إنَّ الدُّنيا حُلْوَةٌ خَضِرةٌ، وإنَّ اللَّهَ مُسْتَخلِفُكم فيها…\"باب التقوى - شرح دليل الفالحين","publishedAt":"2021-05-12T05:09:10Z","duration":"PT25M51S","thumbnail":"https://i.ytimg.com/vi/xJBxtAA3cTU/mqdefault.jpg","viewCount":"1694","playlistId":"PLEkQk5xrP-tkc9DXvSLguqX5-FYp6ASR4","playlistName":"دليل الفالحين لطرق رياض الصالحين","category":"متنوع"},{"id":"nd0g_jWGR3E","title":"58- اليقينُ والتَّوكُّلُ\"…عُرِضَتْ عَلَيَّ الأُمَمُ…\"الحديث الأول - شرح دليل الفالحين","publishedAt":"2021-05-14T06:27:24Z","duration":"PT38M14S","thumbnail":"https://i.ytimg.com/vi/nd0g_jWGR3E/mqdefault.jpg","viewCount":"1679","playlistId":"PLEkQk5xrP-tkc9DXvSLguqX5-FYp6ASR4","playlistName":"دليل الفالحين لطرق رياض الصالحين","category":"متنوع"},{"id":"s-4U9bcnU8g","title":"89- \"مثلي ومثلُكم كمثلِ رجلٍ أوقدَ نارًا ، فجعل الفراشُ ، والجنادِبُ يقعْنَ فيها…\" شرح دليل الفالحين","publishedAt":"2021-07-04T05:32:54Z","duration":"PT49M39S","thumbnail":"https://i.ytimg.com/vi/s-4U9bcnU8g/mqdefault.jpg","viewCount":"1748","playlistId":"PLEkQk5xrP-tkc9DXvSLguqX5-FYp6ASR4","playlistName":"دليل الفالحين لطرق رياض الصالحين","category":"متنوع"},{"id":"WGW5zN9INfM","title":"88- \"أنَّ رَجُلًا أَكَلَ عِنْدَ رَسولِ اللهِ ﷺ بشِمَالِه، فَقال: كُلْ بيَمِينِكَ…\" شرح دليل الفالحين","publishedAt":"2021-07-03T09:47:01Z","duration":"PT52M24S","thumbnail":"https://i.ytimg.com/vi/WGW5zN9INfM/mqdefault.jpg","viewCount":"1349","playlistId":"PLEkQk5xrP-tkc9DXvSLguqX5-FYp6ASR4","playlistName":"دليل الفالحين لطرق رياض الصالحين","category":"متنوع"},{"id":"k52w4U53VgM","title":"87- \"وعَظَنَا رسولُ الله ﷺ مَوْعظَةً وجِلَتْ منها القلوبُ، وذَرَفَت منها العيونُ…\" شرح دليل الفالحين","publishedAt":"2021-07-01T18:04:48Z","duration":"PT36M59S","thumbnail":"https://i.ytimg.com/vi/k52w4U53VgM/mqdefault.jpg","viewCount":"3412","playlistId":"PLEkQk5xrP-tkc9DXvSLguqX5-FYp6ASR4","playlistName":"دليل الفالحين لطرق رياض الصالحين","category":"متنوع"},{"id":"Yf2S7BIPbAY","title":"86- المحافظةُ على السُّنَّة وآدابها \"دَعُونِي مَا تَرَكْتُكُم…\" شرح دليل الفالحين","publishedAt":"2021-06-30T19:49:49Z","duration":"PT37M29S","thumbnail":"https://i.ytimg.com/vi/Yf2S7BIPbAY/mqdefault.jpg","viewCount":"1741","playlistId":"PLEkQk5xrP-tkc9DXvSLguqX5-FYp6ASR4","playlistName":"دليل الفالحين لطرق رياض الصالحين","category":"متنوع"},{"id":"tAHfGIRCxCA","title":"407- سبق المُفَرِّدون قالوا وما المُفَرِّدون يا رسولَ الله قال الذَّاكرون اللهَ كثيرًا والذَّاكرات.","publishedAt":"2023-03-05T05:00:19Z","duration":"PT32M3S","thumbnail":"https://i.ytimg.com/vi/tAHfGIRCxCA/mqdefault.jpg","viewCount":"1644","playlistId":"PLEkQk5xrP-tkc9DXvSLguqX5-FYp6ASR4","playlistName":"دليل الفالحين لطرق رياض الصالحين","category":"متنوع"},{"id":"qlua6Idnp2Y","title":"85- المحافظة على الأعمال - شرح دليل الفالحين","publishedAt":"2021-06-29T08:39:15Z","duration":"PT28M52S","thumbnail":"https://i.ytimg.com/vi/qlua6Idnp2Y/mqdefault.jpg","viewCount":"1217","playlistId":"PLEkQk5xrP-tkc9DXvSLguqX5-FYp6ASR4","playlistName":"دليل الفالحين لطرق رياض الصالحين","category":"متنوع"},{"id":"93HDugg_g34","title":"421- ما كُنَّا نَأخُذُ مِن لُقْمةٍ إلَّا رَبَا مِن أسفَلِها - بركة طعام الصالحين والاجتماع عليه","publishedAt":"2023-04-02T05:05:00Z","duration":"PT33M22S","thumbnail":"https://i.ytimg.com/vi/93HDugg_g34/mqdefault.jpg","viewCount":"894","playlistId":"PLEkQk5xrP-tkc9DXvSLguqX5-FYp6ASR4","playlistName":"دليل الفالحين لطرق رياض الصالحين","category":"متنوع"},{"id":"qLj8_AGU5NQ","title":"176- \"يُؤْتَى بجَهَنَّمَ يَومَئذٍ لها سَبْعُونَ ألْفَ زِِمَامٍ…\" - شرح دليل الفالحين","publishedAt":"2021-12-29T20:24:02Z","duration":"PT23M41S","thumbnail":"https://i.ytimg.com/vi/qLj8_AGU5NQ/mqdefault.jpg","viewCount":"1191","playlistId":"PLEkQk5xrP-tkc9DXvSLguqX5-FYp6ASR4","playlistName":"دليل الفالحين لطرق رياض الصالحين","category":"متنوع"},{"id":"MBv8B6U3GHY","title":"175- الإعجاز النبوي - شرح دليل الفالحين","publishedAt":"2021-12-27T07:33:08Z","duration":"PT36M53S","thumbnail":"https://i.ytimg.com/vi/MBv8B6U3GHY/mqdefault.jpg","viewCount":"1499","playlistId":"PLEkQk5xrP-tkc9DXvSLguqX5-FYp6ASR4","playlistName":"دليل الفالحين لطرق رياض الصالحين","category":"متنوع"},{"id":"yzANa_fO1Oo","title":"415- اللَّهُمَّ اغفر لي وارحمني واهدني وعافني وارزقني - شرح دليل الفالحين","publishedAt":"2023-03-21T05:00:31Z","duration":"PT36M18S","thumbnail":"https://i.ytimg.com/vi/yzANa_fO1Oo/mqdefault.jpg","viewCount":"1448","playlistId":"PLEkQk5xrP-tkc9DXvSLguqX5-FYp6ASR4","playlistName":"دليل الفالحين لطرق رياض الصالحين","category":"متنوع"},{"id":"Rh_3VCZRwqg","title":"414- الدعاء أَمْ تفويض الأمر إلى الله تعالى - شرح دليل الفالحين","publishedAt":"2023-03-19T05:00:18Z","duration":"PT31M6S","thumbnail":"https://i.ytimg.com/vi/Rh_3VCZRwqg/mqdefault.jpg","viewCount":"2696","playlistId":"PLEkQk5xrP-tkc9DXvSLguqX5-FYp6ASR4","playlistName":"دليل الفالحين لطرق رياض الصالحين","category":"متنوع"},{"id":"rYfW9-b08iM","title":"218- الحِرصُ على إطعامِ الطَّعام | بَرَكَةُ النَّبيّ ﷺ في إطعام القوم حتى شبِعوا - شرح دليل الفالحين","publishedAt":"2022-03-17T07:58:26Z","duration":"PT44M52S","thumbnail":"https://i.ytimg.com/vi/rYfW9-b08iM/mqdefault.jpg","viewCount":"2510","playlistId":"PLEkQk5xrP-tkc9DXvSLguqX5-FYp6ASR4","playlistName":"دليل الفالحين لطرق رياض الصالحين","category":"متنوع"},{"id":"nXZCxT-MepQ","title":"217- تَكثيرُ الطَّعامِ ببَرَكَتِه ﷺ | الفرقُ بينَ الكَرامةِ والمُعجزة - شرح دليل الفالحين","publishedAt":"2022-03-15T06:03:32Z","duration":"PT1H11M53S","thumbnail":"https://i.ytimg.com/vi/nXZCxT-MepQ/mqdefault.jpg","viewCount":"2249","playlistId":"PLEkQk5xrP-tkc9DXvSLguqX5-FYp6ASR4","playlistName":"دليل الفالحين لطرق رياض الصالحين","category":"متنوع"},{"id":"l5m5hVx_Ihs","title":"216- ألا تسمعون؟ ألا تسمعون؟ إنَّ البَذَاذَةَ من الإيمان - شرح دليل الفالحين","publishedAt":"2022-03-12T05:29:39Z","duration":"PT52M59S","thumbnail":"https://i.ytimg.com/vi/l5m5hVx_Ihs/mqdefault.jpg","viewCount":"1784","playlistId":"PLEkQk5xrP-tkc9DXvSLguqX5-FYp6ASR4","playlistName":"دليل الفالحين لطرق رياض الصالحين","category":"متنوع"},{"id":"2Y5Wz5gzYco","title":"460- حكم قراءة الفنجان والكفَّ وغيرهما - شرح دليل الفالحين","publishedAt":"2023-05-29T18:00:01Z","duration":"PT42M47S","thumbnail":"https://i.ytimg.com/vi/2Y5Wz5gzYco/mqdefault.jpg","viewCount":"1465","playlistId":"PLEkQk5xrP-tkc9DXvSLguqX5-FYp6ASR4","playlistName":"دليل الفالحين لطرق رياض الصالحين","category":"متنوع"},{"id":"xSJiZEAsF8s","title":"459- النَّهي عن التَّكلُّف وهو فعل وقول ما لا مصلحة فيه بمشقَّة - شرح دليل الفالحين","publishedAt":"2023-05-29T08:59:01Z","duration":"PT34M52S","thumbnail":"https://i.ytimg.com/vi/xSJiZEAsF8s/mqdefault.jpg","viewCount":"686","playlistId":"PLEkQk5xrP-tkc9DXvSLguqX5-FYp6ASR4","playlistName":"دليل الفالحين لطرق رياض الصالحين","category":"متنوع"}],"total":504,"page":18,"pageSize":24,"totalPages":21}