{"items":[{"id":"3Bsj_t5oIcs","title":"504- بيان أقلّ  أهل الجنَّة منزلة - شرح دليل الفالحين","publishedAt":"2023-07-23T08:59:00Z","duration":"PT41M50S","thumbnail":"https://i.ytimg.com/vi/3Bsj_t5oIcs/mqdefault.jpg","viewCount":"685","playlistId":"PLEkQk5xrP-tkc9DXvSLguqX5-FYp6ASR4","playlistName":"دليل الفالحين لطرق رياض الصالحين","category":"متنوع"},{"id":"Wytq_i_MY3Y","title":"503- بيان ما أعدَّ اللهُ تعالى للمؤمنين في الجنة - شرح دليل الفالحين","publishedAt":"2023-07-22T08:59:00Z","duration":"PT37M29S","thumbnail":"https://i.ytimg.com/vi/Wytq_i_MY3Y/mqdefault.jpg","viewCount":"907","playlistId":"PLEkQk5xrP-tkc9DXvSLguqX5-FYp6ASR4","playlistName":"دليل الفالحين لطرق رياض الصالحين","category":"متنوع"},{"id":"i_XeUYyKXc4","title":"271- الوَقَار والسَّكِينة - شرح دليل الفالحين","publishedAt":"2022-06-22T05:15:03Z","duration":"PT32M56S","thumbnail":"https://i.ytimg.com/vi/i_XeUYyKXc4/mqdefault.jpg","viewCount":"1760","playlistId":"PLEkQk5xrP-tkc9DXvSLguqX5-FYp6ASR4","playlistName":"دليل الفالحين لطرق رياض الصالحين","category":"متنوع"},{"id":"mmS0Ig7yWYE","title":"270- إصغاءُ الجَليسِ لحديثِ جَليسهِ الذي ليس بحرام - شرح دليل الفالحين","publishedAt":"2022-06-20T05:16:00Z","duration":"PT1H6M28S","thumbnail":"https://i.ytimg.com/vi/mmS0Ig7yWYE/mqdefault.jpg","viewCount":"1114","playlistId":"PLEkQk5xrP-tkc9DXvSLguqX5-FYp6ASR4","playlistName":"دليل الفالحين لطرق رياض الصالحين","category":"متنوع"},{"id":"j2VUuW4KpNs","title":"425-فضيلة قضاء دَيْن الأب بعد موته ووصيته بالبنات خيرًا","publishedAt":"2023-04-10T05:00:25Z","duration":"PT41M20S","thumbnail":"https://i.ytimg.com/vi/j2VUuW4KpNs/mqdefault.jpg","viewCount":"951","playlistId":"PLEkQk5xrP-tkc9DXvSLguqX5-FYp6ASR4","playlistName":"دليل الفالحين لطرق رياض الصالحين","category":"متنوع"},{"id":"yfk0m1yx60w","title":"76- \"…لا تَحْقِرَنَّ مِنَ المَعروفِ شيئًا، ولو أنْ تَلْقَى أخاكَ بوَجْهٍ طَلْقٍ\" شرح دليل الفالحين","publishedAt":"2021-06-10T05:36:59Z","duration":"PT40M43S","thumbnail":"https://i.ytimg.com/vi/yfk0m1yx60w/mqdefault.jpg","viewCount":"1492","playlistId":"PLEkQk5xrP-tkc9DXvSLguqX5-FYp6ASR4","playlistName":"دليل الفالحين لطرق رياض الصالحين","category":"متنوع"},{"id":"5Ia_Dhcpr5Q","title":"75- \"يُصْبِحُ على كُلِّ سُلامَى من أحدكُمْ صدَقَةٌ، فكُلُّ تَسْبِيحَةٍ صدَقَةٌ، …\" شرح دليل الفالحين","publishedAt":"2021-06-08T07:01:06Z","duration":"PT35M13S","thumbnail":"https://i.ytimg.com/vi/5Ia_Dhcpr5Q/mqdefault.jpg","viewCount":"1192","playlistId":"PLEkQk5xrP-tkc9DXvSLguqX5-FYp6ASR4","playlistName":"دليل الفالحين لطرق رياض الصالحين","category":"متنوع"},{"id":"l_TvV12zKTI","title":"4- تكملة مقدمة كتاب رياض الصالحين وتعليق الشارح عليها - شرح دليل الفالحين أ.د. يسري جبر","publishedAt":"2021-01-15T07:52:06Z","duration":"PT40M41S","thumbnail":"https://i.ytimg.com/vi/l_TvV12zKTI/mqdefault.jpg","viewCount":"3492","playlistId":"PLEkQk5xrP-tkc9DXvSLguqX5-FYp6ASR4","playlistName":"دليل الفالحين لطرق رياض الصالحين","category":"متنوع"},{"id":"8BYUdSpPYl8","title":"3- مقدمة كتاب رياض الصالحين  للإمام النوويّ رضي الله عنه أ.د. يسري جبر","publishedAt":"2021-01-13T08:56:27Z","duration":"PT37M48S","thumbnail":"https://i.ytimg.com/vi/8BYUdSpPYl8/mqdefault.jpg","viewCount":"6527","playlistId":"PLEkQk5xrP-tkc9DXvSLguqX5-FYp6ASR4","playlistName":"دليل الفالحين لطرق رياض الصالحين","category":"متنوع"},{"id":"2X7fNyCiEYQ","title":"2- التعريفُ بالشيخ ‎محمد بن علَّان صاحب كتاب دليل الفالحين أ.د. يسري جبر","publishedAt":"2021-01-11T07:18:11Z","duration":"PT24M17S","thumbnail":"https://i.ytimg.com/vi/2X7fNyCiEYQ/mqdefault.jpg","viewCount":"5212","playlistId":"PLEkQk5xrP-tkc9DXvSLguqX5-FYp6ASR4","playlistName":"دليل الفالحين لطرق رياض الصالحين","category":"متنوع"},{"id":"GzpjyJIuX6o","title":"74- بيان كثرة طُرُق الخير\"…أيُّ الأعمالِ أفْضَلُ ؟…\" شرح دليل الفالحين","publishedAt":"2021-06-06T07:27:18Z","duration":"PT34M3S","thumbnail":"https://i.ytimg.com/vi/GzpjyJIuX6o/mqdefault.jpg","viewCount":"1659","playlistId":"PLEkQk5xrP-tkc9DXvSLguqX5-FYp6ASR4","playlistName":"دليل الفالحين لطرق رياض الصالحين","category":"متنوع"},{"id":"efHCbnJcdA0","title":"424- قصة سيدنا سعد رضي الله عنه مع أهل الكوفة - شرح دليل الفالحين","publishedAt":"2023-04-08T05:20:00Z","duration":"PT36M56S","thumbnail":"https://i.ytimg.com/vi/efHCbnJcdA0/mqdefault.jpg","viewCount":"683","playlistId":"PLEkQk5xrP-tkc9DXvSLguqX5-FYp6ASR4","playlistName":"دليل الفالحين لطرق رياض الصالحين","category":"متنوع"},{"id":"2wadLsWWlsk","title":"422- بركة الطعام في منزل سيدنا أبي بكر _رضيَ اللهُ عنه_ وفيه كَرامةٌ ظاهرةٌ له _رضي الله عنه_","publishedAt":"2023-04-04T05:25:00Z","duration":"PT27M5S","thumbnail":"https://i.ytimg.com/vi/2wadLsWWlsk/mqdefault.jpg","viewCount":"732","playlistId":"PLEkQk5xrP-tkc9DXvSLguqX5-FYp6ASR4","playlistName":"دليل الفالحين لطرق رياض الصالحين","category":"متنوع"},{"id":"snzMJoq9JZk","title":"423- لقَدْ كان فيما قبْلَكُم مِن الأُممِ ناسٌ مُحَدَّثُونَ، فإنْ يَكُ في أُمَّتي أحدٌ فإنَّه عُمَرُ.","publishedAt":"2023-04-06T05:00:21Z","duration":"PT33M35S","thumbnail":"https://i.ytimg.com/vi/snzMJoq9JZk/mqdefault.jpg","viewCount":"1001","playlistId":"PLEkQk5xrP-tkc9DXvSLguqX5-FYp6ASR4","playlistName":"دليل الفالحين لطرق رياض الصالحين","category":"متنوع"},{"id":"gnvcVzXicrc","title":"174- الخوف - شرح دليل الفالحين","publishedAt":"2021-12-25T20:15:13Z","duration":"PT50M40S","thumbnail":"https://i.ytimg.com/vi/gnvcVzXicrc/mqdefault.jpg","viewCount":"1618","playlistId":"PLEkQk5xrP-tkc9DXvSLguqX5-FYp6ASR4","playlistName":"دليل الفالحين لطرق رياض الصالحين","category":"متنوع"},{"id":"c3gNlBB1uw4","title":"173- \"أَقتَلْتَهُ بَعْدَمَا قالَ لَا إِلهَ إِلَّا الله؟!\" - شرح دليل الفالحين","publishedAt":"2021-12-24T20:16:23Z","duration":"PT31M52S","thumbnail":"https://i.ytimg.com/vi/c3gNlBB1uw4/mqdefault.jpg","viewCount":"986","playlistId":"PLEkQk5xrP-tkc9DXvSLguqX5-FYp6ASR4","playlistName":"دليل الفالحين لطرق رياض الصالحين","category":"متنوع"},{"id":"-Lvb-_Hb81M","title":"172- إجراءُ أحكام الناس على الظاهر وسرائرهم إلى الله تعالى - شرح دليل الفالحين","publishedAt":"2021-12-23T07:09:28Z","duration":"PT42M44S","thumbnail":"https://i.ytimg.com/vi/-Lvb-_Hb81M/mqdefault.jpg","viewCount":"1628","playlistId":"PLEkQk5xrP-tkc9DXvSLguqX5-FYp6ASR4","playlistName":"دليل الفالحين لطرق رياض الصالحين","category":"متنوع"},{"id":"eYHuf7pXbHw","title":"127- تكملة حديث مَن تكلّم في المَهْد (الطفل الذي تكّلم في المَهْد)  -  شرح دليل الفالحين","publishedAt":"2021-09-15T05:50:35Z","duration":"PT37M2S","thumbnail":"https://i.ytimg.com/vi/eYHuf7pXbHw/mqdefault.jpg","viewCount":"841","playlistId":"PLEkQk5xrP-tkc9DXvSLguqX5-FYp6ASR4","playlistName":"دليل الفالحين لطرق رياض الصالحين","category":"متنوع"},{"id":"FtAsTAu8iKU","title":"126- \"…لمْ يتكلّمْ في المهْد إلَّا ثلاثةٌ عِيسى ابنُ مَرْيمَ، وصاحِبُ جُرَيْجٍ…\" - شرح دليل الفاتحين","publishedAt":"2021-09-13T06:07:13Z","duration":"PT48M1S","thumbnail":"https://i.ytimg.com/vi/FtAsTAu8iKU/mqdefault.jpg","viewCount":"2197","playlistId":"PLEkQk5xrP-tkc9DXvSLguqX5-FYp6ASR4","playlistName":"دليل الفالحين لطرق رياض الصالحين","category":"متنوع"},{"id":"bvGLzj4ugBM","title":"269- المحافظة على ما اعتاده من الخير - شرح دليل الفالحين","publishedAt":"2022-06-17T05:00:11Z","duration":"PT37M2S","thumbnail":"https://i.ytimg.com/vi/bvGLzj4ugBM/mqdefault.jpg","viewCount":"1464","playlistId":"PLEkQk5xrP-tkc9DXvSLguqX5-FYp6ASR4","playlistName":"دليل الفالحين لطرق رياض الصالحين","category":"متنوع"},{"id":"jkXtWErymgY","title":"157- “… إنَّ من إجلال الله تعالى إكرامَ ذي الشيبة المسلم…\" شرح دليل الفالحين","publishedAt":"2021-11-24T06:33:54Z","duration":"PT32M4S","thumbnail":"https://i.ytimg.com/vi/jkXtWErymgY/mqdefault.jpg","viewCount":"1309","playlistId":"PLEkQk5xrP-tkc9DXvSLguqX5-FYp6ASR4","playlistName":"دليل الفالحين لطرق رياض الصالحين","category":"متنوع"},{"id":"KdTabLB6Wsc","title":"657- فضل قيام الليل - شرح دليل الفالحين","publishedAt":"2022-12-10T09:00:08Z","duration":"PT48M","thumbnail":"https://i.ytimg.com/vi/KdTabLB6Wsc/mqdefault.jpg","viewCount":"2639","playlistId":"PLEkQk5xrP-tkc9DXvSLguqX5-FYp6ASR4","playlistName":"دليل الفالحين لطرق رياض الصالحين","category":"متنوع"},{"id":"l5EizyX18D4","title":"356- استحباب سجود الشكر عند حدوث نعمة ظاهرة أو اندفاع بلية ظاهرة - شرح دليل الفالحين","publishedAt":"2022-12-09T09:00:23Z","duration":"PT20M7S","thumbnail":"https://i.ytimg.com/vi/l5EizyX18D4/mqdefault.jpg","viewCount":"909","playlistId":"PLEkQk5xrP-tkc9DXvSLguqX5-FYp6ASR4","playlistName":"دليل الفالحين لطرق رياض الصالحين","category":"متنوع"},{"id":"Zp9yIAEArgI","title":"263- اسمعوا وأطيعوا فإنّما عليهم ما حُمّّلوا ، وعليكُم ما حُمّلتُم - شرح دليل الفالحين","publishedAt":"2022-06-08T05:15:02Z","duration":"PT45M48S","thumbnail":"https://i.ytimg.com/vi/Zp9yIAEArgI/mqdefault.jpg","viewCount":"1370","playlistId":"PLEkQk5xrP-tkc9DXvSLguqX5-FYp6ASR4","playlistName":"دليل الفالحين لطرق رياض الصالحين","category":"متنوع"}],"total":504,"page":1,"pageSize":24,"totalPages":21}