{"items":[{"id":"d_gXy0jXICs","title":"151- لَا يَدْخُلُ الجَنَّةَ قَاطِعٌ - شرح دليل الفالحين","publishedAt":"2021-10-30T19:27:09Z","duration":"PT41M55S","thumbnail":"https://i.ytimg.com/vi/d_gXy0jXICs/mqdefault.jpg","viewCount":"1072","playlistId":"PLEkQk5xrP-tkc9DXvSLguqX5-FYp6ASR4","playlistName":"دليل الفالحين لطرق رياض الصالحين","category":"متنوع"},{"id":"zUQXgs-fVPo","title":"150- تحريم العقوق وقطيعة الرحم - شرح دليل الفالحين","publishedAt":"2021-10-29T06:24:21Z","duration":"PT33M14S","thumbnail":"https://i.ytimg.com/vi/zUQXgs-fVPo/mqdefault.jpg","viewCount":"1037","playlistId":"PLEkQk5xrP-tkc9DXvSLguqX5-FYp6ASR4","playlistName":"دليل الفالحين لطرق رياض الصالحين","category":"متنوع"},{"id":"4ImqjtImXhg","title":"327- الأمرُ بتَعَهُّد القُرآن، والتحذير مِن تَعْرِيضِه للنِسْيَان - شرح دليل الفالحين","publishedAt":"2022-11-05T05:00:02Z","duration":"PT14M5S","thumbnail":"https://i.ytimg.com/vi/4ImqjtImXhg/mqdefault.jpg","viewCount":"677","playlistId":"PLEkQk5xrP-tkc9DXvSLguqX5-FYp6ASR4","playlistName":"دليل الفالحين لطرق رياض الصالحين","category":"متنوع"},{"id":"YLhNkPJN-cc","title":"326- فضلُ قراءة القرآن - شرح دليل الفالحين","publishedAt":"2022-11-04T09:00:29Z","duration":"PT1H1M14S","thumbnail":"https://i.ytimg.com/vi/YLhNkPJN-cc/mqdefault.jpg","viewCount":"1332","playlistId":"PLEkQk5xrP-tkc9DXvSLguqX5-FYp6ASR4","playlistName":"دليل الفالحين لطرق رياض الصالحين","category":"متنوع"},{"id":"fdmLv_wY86g","title":"325- استحبابُ تعجيل المسافر الرجوع إلى أهله إذا قضى حاجته - شرح دليل الفالحين","publishedAt":"2022-11-03T09:00:30Z","duration":"PT31M57S","thumbnail":"https://i.ytimg.com/vi/fdmLv_wY86g/mqdefault.jpg","viewCount":"700","playlistId":"PLEkQk5xrP-tkc9DXvSLguqX5-FYp6ASR4","playlistName":"دليل الفالحين لطرق رياض الصالحين","category":"متنوع"},{"id":"LDN50RPJ6zc","title":"324- الدُّعاءُ المُستجاب - شرح دليل الفالحين","publishedAt":"2022-11-02T09:00:08Z","duration":"PT40M7S","thumbnail":"https://i.ytimg.com/vi/LDN50RPJ6zc/mqdefault.jpg","viewCount":"1535","playlistId":"PLEkQk5xrP-tkc9DXvSLguqX5-FYp6ASR4","playlistName":"دليل الفالحين لطرق رياض الصالحين","category":"متنوع"},{"id":"IGLMWDkdUSs","title":"323- تكبير المسافر إِذَا صعد الثنايا وشبهها، وتسبيحه إِذَا هبط الأودية - شرح دليل الفالحين","publishedAt":"2022-11-01T09:00:17Z","duration":"PT31M56S","thumbnail":"https://i.ytimg.com/vi/IGLMWDkdUSs/mqdefault.jpg","viewCount":"649","playlistId":"PLEkQk5xrP-tkc9DXvSLguqX5-FYp6ASR4","playlistName":"دليل الفالحين لطرق رياض الصالحين","category":"متنوع"},{"id":"6F_C2W7wC0M","title":"322- إعانة الرفيق - شرح دليل الفالحين","publishedAt":"2022-10-30T09:00:05Z","duration":"PT51M41S","thumbnail":"https://i.ytimg.com/vi/6F_C2W7wC0M/mqdefault.jpg","viewCount":"602","playlistId":"PLEkQk5xrP-tkc9DXvSLguqX5-FYp6ASR4","playlistName":"دليل الفالحين لطرق رياض الصالحين","category":"متنوع"},{"id":"3y3lm9c0EJg","title":"321- آدَابُ السَّيرِ والنِّزول والمَبيت والنَّومِ في السَّفر - شرح دليل الفالحين","publishedAt":"2022-10-29T05:00:01Z","duration":"PT1H6M4S","thumbnail":"https://i.ytimg.com/vi/3y3lm9c0EJg/mqdefault.jpg","viewCount":"632","playlistId":"PLEkQk5xrP-tkc9DXvSLguqX5-FYp6ASR4","playlistName":"دليل الفالحين لطرق رياض الصالحين","category":"متنوع"},{"id":"cf8gemAJQXw","title":"320- استحباب طلب الرِفْقَة في السفر - شرح دليل الفالحين","publishedAt":"2022-10-28T09:00:21Z","duration":"PT32M44S","thumbnail":"https://i.ytimg.com/vi/cf8gemAJQXw/mqdefault.jpg","viewCount":"475","playlistId":"PLEkQk5xrP-tkc9DXvSLguqX5-FYp6ASR4","playlistName":"دليل الفالحين لطرق رياض الصالحين","category":"متنوع"},{"id":"A5tNEKJlQEo","title":"319- استحباب الخروج يومَ الخميس واستحبابه أوَّلَ النَّهار - شرح دليل الفالحين","publishedAt":"2022-10-25T09:00:05Z","duration":"PT16M55S","thumbnail":"https://i.ytimg.com/vi/A5tNEKJlQEo/mqdefault.jpg","viewCount":"1177","playlistId":"PLEkQk5xrP-tkc9DXvSLguqX5-FYp6ASR4","playlistName":"دليل الفالحين لطرق رياض الصالحين","category":"متنوع"},{"id":"-u6O--y7hSc","title":"168- \"…وجبت محبَّتي للمُتحابِّين فيَّ ، والمُتجالسين فيَّ…\" شرح دليل الفالحين","publishedAt":"2021-12-15T06:47:17Z","duration":"PT34M50S","thumbnail":"https://i.ytimg.com/vi/-u6O--y7hSc/mqdefault.jpg","viewCount":"1174","playlistId":"PLEkQk5xrP-tkc9DXvSLguqX5-FYp6ASR4","playlistName":"دليل الفالحين لطرق رياض الصالحين","category":"متنوع"},{"id":"I-m5QAPwBtA","title":"318- فضلُ مَن ماتَ له أولادٌ صِغار - شرح دليل الفالحين","publishedAt":"2022-10-24T09:00:17Z","duration":"PT43M10S","thumbnail":"https://i.ytimg.com/vi/I-m5QAPwBtA/mqdefault.jpg","viewCount":"661","playlistId":"PLEkQk5xrP-tkc9DXvSLguqX5-FYp6ASR4","playlistName":"دليل الفالحين لطرق رياض الصالحين","category":"متنوع"},{"id":"D05e7li9Wlg","title":"317- الصَّدقة عن الميت والدُّعاء له - شرح دليل الفالحين","publishedAt":"2022-10-23T09:00:05Z","duration":"PT33M1S","thumbnail":"https://i.ytimg.com/vi/D05e7li9Wlg/mqdefault.jpg","viewCount":"872","playlistId":"PLEkQk5xrP-tkc9DXvSLguqX5-FYp6ASR4","playlistName":"دليل الفالحين لطرق رياض الصالحين","category":"متنوع"},{"id":"4vDNRIsha1w","title":"316- تعجيل قضاء الدَّينِ عن الميت والمبادرة إلى تجهيزه إلا أن يموتَ فجأةً، فيُترك حتى يُتيقن موتُه","publishedAt":"2022-10-22T05:00:05Z","duration":"PT41M51S","thumbnail":"https://i.ytimg.com/vi/4vDNRIsha1w/mqdefault.jpg","viewCount":"479","playlistId":"PLEkQk5xrP-tkc9DXvSLguqX5-FYp6ASR4","playlistName":"دليل الفالحين لطرق رياض الصالحين","category":"متنوع"},{"id":"MzlujKISOB4","title":"315- ما يُقرأ في الصَّلاة على الجنازة - شرح دليل الفالحين","publishedAt":"2022-10-21T07:30:06Z","duration":"PT41M13S","thumbnail":"https://i.ytimg.com/vi/MzlujKISOB4/mqdefault.jpg","viewCount":"608","playlistId":"PLEkQk5xrP-tkc9DXvSLguqX5-FYp6ASR4","playlistName":"دليل الفالحين لطرق رياض الصالحين","category":"متنوع"},{"id":"5Q43KNbneEg","title":"314- استحباب تكثير المصلين على الجنازة، وجعل صفوفهم ثلاثة ثلاثة فأكثر","publishedAt":"2022-10-20T07:30:01Z","duration":"PT49M7S","thumbnail":"https://i.ytimg.com/vi/5Q43KNbneEg/mqdefault.jpg","viewCount":"576","playlistId":"PLEkQk5xrP-tkc9DXvSLguqX5-FYp6ASR4","playlistName":"دليل الفالحين لطرق رياض الصالحين","category":"متنوع"},{"id":"e_Q6Qbk30Cw","title":"313- الصََلاةُ على الميت وتشْيِيعه وحضورِ دفنِه وكراهة اتِّباع النساءِ الجنائزَ","publishedAt":"2022-10-19T05:00:27Z","duration":"PT40M28S","thumbnail":"https://i.ytimg.com/vi/e_Q6Qbk30Cw/mqdefault.jpg","viewCount":"276","playlistId":"PLEkQk5xrP-tkc9DXvSLguqX5-FYp6ASR4","playlistName":"دليل الفالحين لطرق رياض الصالحين","category":"متنوع"},{"id":"c6LnBCBE4MM","title":"312- حكمُ البُكاءِ على الميت - شرح دليل الفالحين","publishedAt":"2022-10-18T07:30:04Z","duration":"PT38M2S","thumbnail":"https://i.ytimg.com/vi/c6LnBCBE4MM/mqdefault.jpg","viewCount":"690","playlistId":"PLEkQk5xrP-tkc9DXvSLguqX5-FYp6ASR4","playlistName":"دليل الفالحين لطرق رياض الصالحين","category":"متنوع"},{"id":"5V4qxrlfQvE","title":"311- ما يُقالُ عندَ الميت وما يقُولُه مَن مات له ميت - شرح دليل الفالحين","publishedAt":"2022-10-16T09:00:03Z","duration":"PT37M24S","thumbnail":"https://i.ytimg.com/vi/5V4qxrlfQvE/mqdefault.jpg","viewCount":"756","playlistId":"PLEkQk5xrP-tkc9DXvSLguqX5-FYp6ASR4","playlistName":"دليل الفالحين لطرق رياض الصالحين","category":"متنوع"},{"id":"Bd-d9IqLi6o","title":"287- حُكمُ النفْخِ في الشراب - شرح دليل الفالحين","publishedAt":"2022-08-15T05:30:01Z","duration":"PT25M26S","thumbnail":"https://i.ytimg.com/vi/Bd-d9IqLi6o/mqdefault.jpg","viewCount":"903","playlistId":"PLEkQk5xrP-tkc9DXvSLguqX5-FYp6ASR4","playlistName":"دليل الفالحين لطرق رياض الصالحين","category":"متنوع"},{"id":"PLg0ctqIcUU","title":"286- حكمُ الشربِ مِن فم القِربة ونحوِها - شرح دليل الفالحين","publishedAt":"2022-08-12T05:30:04Z","duration":"PT28M7S","thumbnail":"https://i.ytimg.com/vi/PLg0ctqIcUU/mqdefault.jpg","viewCount":"970","playlistId":"PLEkQk5xrP-tkc9DXvSLguqX5-FYp6ASR4","playlistName":"دليل الفالحين لطرق رياض الصالحين","category":"متنوع"},{"id":"7STAq9AtfI8","title":"285- تكثير الأيدي على الطعام - شرح دليل الفالحين","publishedAt":"2022-08-07T05:45:00Z","duration":"PT46M25S","thumbnail":"https://i.ytimg.com/vi/7STAq9AtfI8/mqdefault.jpg","viewCount":"951","playlistId":"PLEkQk5xrP-tkc9DXvSLguqX5-FYp6ASR4","playlistName":"دليل الفالحين لطرق رياض الصالحين","category":"متنوع"},{"id":"bHoxCnc9z7A","title":"284- كراهية الأكل مُتَّكِئًا - شرح دليل الفالحين","publishedAt":"2022-08-04T06:15:02Z","duration":"PT40M49S","thumbnail":"https://i.ytimg.com/vi/bHoxCnc9z7A/mqdefault.jpg","viewCount":"734","playlistId":"PLEkQk5xrP-tkc9DXvSLguqX5-FYp6ASR4","playlistName":"دليل الفالحين لطرق رياض الصالحين","category":"متنوع"}],"total":504,"page":16,"pageSize":24,"totalPages":21}