{"items":[{"id":"oLc1MjMO34c","title":"بعد رمضان ,, نصيحة لمن يريد حفظ القرآن","publishedAt":"2024-04-11T18:00:19Z","duration":"PT11M46S","thumbnail":"https://i.ytimg.com/vi/oLc1MjMO34c/mqdefault.jpg","viewCount":"12729","playlistId":"PLEkQk5xrP-tm8ZIu74nTOZN9KJUJu416J","playlistName":"مقاطع مُهمَّة (يُسريَّات) أ.د. يسري جبر","category":"متنوع"},{"id":"qt4VpE_5BVs","title":"المُلتفِت لا يَصِل","publishedAt":"2020-07-14T18:18:30Z","duration":"PT6M2S","thumbnail":"https://i.ytimg.com/vi/qt4VpE_5BVs/mqdefault.jpg","viewCount":"12671","playlistId":"PLEkQk5xrP-tm8ZIu74nTOZN9KJUJu416J","playlistName":"مقاطع مُهمَّة (يُسريَّات) أ.د. يسري جبر","category":"متنوع"},{"id":"SlDtV8z9uZ4","title":"مَن وجَد اللهَ وجَد كلَّ شيء","publishedAt":"2020-07-07T19:49:26Z","duration":"PT13M28S","thumbnail":"https://i.ytimg.com/vi/SlDtV8z9uZ4/mqdefault.jpg","viewCount":"12634","playlistId":"PLEkQk5xrP-tm8ZIu74nTOZN9KJUJu416J","playlistName":"مقاطع مُهمَّة (يُسريَّات) أ.د. يسري جبر","category":"متنوع"},{"id":"SmIpGsvOxGA","title":"نور المصطفى ملأ الأكوان","publishedAt":"2016-07-09T18:46:02Z","duration":"PT13M32S","thumbnail":"https://i.ytimg.com/vi/SmIpGsvOxGA/mqdefault.jpg","viewCount":"12484","playlistId":"PLEkQk5xrP-tm8ZIu74nTOZN9KJUJu416J","playlistName":"مقاطع مُهمَّة (يُسريَّات) أ.د. يسري جبر","category":"متنوع"},{"id":"dfW4xYJqybY","title":"ما هي أفضل العبادات في رحلتك إلى العمرة ومسجد النبي ﷺ؟","publishedAt":"2023-02-19T18:00:25Z","duration":"PT10M11S","thumbnail":"https://i.ytimg.com/vi/dfW4xYJqybY/mqdefault.jpg","viewCount":"12475","playlistId":"PLEkQk5xrP-tm8ZIu74nTOZN9KJUJu416J","playlistName":"مقاطع مُهمَّة (يُسريَّات) أ.د. يسري جبر","category":"متنوع"},{"id":"ipAwxGCAXiI","title":"ما هي آداب زيارة الأولياء والصالحين؟","publishedAt":"2022-04-14T19:30:03Z","duration":"PT8M36S","thumbnail":"https://i.ytimg.com/vi/ipAwxGCAXiI/mqdefault.jpg","viewCount":"12429","playlistId":"PLEkQk5xrP-tm8ZIu74nTOZN9KJUJu416J","playlistName":"مقاطع مُهمَّة (يُسريَّات) أ.د. يسري جبر","category":"متنوع"},{"id":"uLDRb4XTsqs","title":"مِنْ عَجَائِبِ التَوبَةِ أَنَّهَا تُغَيِّرِ المَاضِى  د. يسرى جبر","publishedAt":"2015-07-01T17:45:47Z","duration":"PT7M6S","thumbnail":"https://i.ytimg.com/vi/uLDRb4XTsqs/mqdefault.jpg","viewCount":"12414","playlistId":"PLEkQk5xrP-tm8ZIu74nTOZN9KJUJu416J","playlistName":"مقاطع مُهمَّة (يُسريَّات) أ.د. يسري جبر","category":"متنوع"},{"id":"S6Iw7WYVx2Q","title":"كم تكون نفقة الزوجة بعد الطلاق؟","publishedAt":"2021-12-07T18:48:43Z","duration":"PT8M1S","thumbnail":"https://i.ytimg.com/vi/S6Iw7WYVx2Q/mqdefault.jpg","viewCount":"12403","playlistId":"PLEkQk5xrP-tm8ZIu74nTOZN9KJUJu416J","playlistName":"مقاطع مُهمَّة (يُسريَّات) أ.د. يسري جبر","category":"متنوع"},{"id":"7XesWbbtJXI","title":"الفرق بين المُتوكِّل والمُفوِّض","publishedAt":"2020-10-09T20:37:39Z","duration":"PT12M13S","thumbnail":"https://i.ytimg.com/vi/7XesWbbtJXI/mqdefault.jpg","viewCount":"12375","playlistId":"PLEkQk5xrP-tm8ZIu74nTOZN9KJUJu416J","playlistName":"مقاطع مُهمَّة (يُسريَّات) أ.د. يسري جبر","category":"متنوع"},{"id":"SpgXb8o9yqk","title":"ما الفرق بين الخاطر الرحماني والشيطاني والنفساني؟","publishedAt":"2022-10-11T18:00:17Z","duration":"PT8M7S","thumbnail":"https://i.ytimg.com/vi/SpgXb8o9yqk/mqdefault.jpg","viewCount":"12156","playlistId":"PLEkQk5xrP-tm8ZIu74nTOZN9KJUJu416J","playlistName":"مقاطع مُهمَّة (يُسريَّات) أ.د. يسري جبر","category":"متنوع"},{"id":"L0nD824YrEE","title":"كيف تطلب حاجتك من الله؟","publishedAt":"2022-03-21T17:44:15Z","duration":"PT8M4S","thumbnail":"https://i.ytimg.com/vi/L0nD824YrEE/mqdefault.jpg","viewCount":"11995","playlistId":"PLEkQk5xrP-tm8ZIu74nTOZN9KJUJu416J","playlistName":"مقاطع مُهمَّة (يُسريَّات) أ.د. يسري جبر","category":"متنوع"},{"id":"4xjwfPT8B1U","title":"الصَّلاةُ عَلَى النَّبِيِّ ﷺ ذِكْرٌ.  أ.د. يسري جبر","publishedAt":"2019-11-11T11:57:40Z","duration":"PT1M56S","thumbnail":"https://i.ytimg.com/vi/4xjwfPT8B1U/mqdefault.jpg","viewCount":"11949","playlistId":"PLEkQk5xrP-tm8ZIu74nTOZN9KJUJu416J","playlistName":"مقاطع مُهمَّة (يُسريَّات) أ.د. يسري جبر","category":"متنوع"},{"id":"0HLAmaVKsUo","title":"شرح الصلاة المحمدية لسيدي محيي الدين بن العربي","publishedAt":"2021-05-17T17:30:01Z","duration":"PT20M24S","thumbnail":"https://i.ytimg.com/vi/0HLAmaVKsUo/mqdefault.jpg","viewCount":"11867","playlistId":"PLEkQk5xrP-tm8ZIu74nTOZN9KJUJu416J","playlistName":"مقاطع مُهمَّة (يُسريَّات) أ.د. يسري جبر","category":"متنوع"},{"id":"KTE1P_WPGCw","title":"أريد الهجرة مع أولادي ,, بماذا تنصحني؟","publishedAt":"2022-08-09T18:00:06Z","duration":"PT12M11S","thumbnail":"https://i.ytimg.com/vi/KTE1P_WPGCw/mqdefault.jpg","viewCount":"11827","playlistId":"PLEkQk5xrP-tm8ZIu74nTOZN9KJUJu416J","playlistName":"مقاطع مُهمَّة (يُسريَّات) أ.د. يسري جبر","category":"متنوع"},{"id":"uFA1ut--7D8","title":"كيف أتعامل مع عدم نجاح أولادي في الدراسة؟","publishedAt":"2023-04-30T18:00:31Z","duration":"PT8M41S","thumbnail":"https://i.ytimg.com/vi/uFA1ut--7D8/mqdefault.jpg","viewCount":"11817","playlistId":"PLEkQk5xrP-tm8ZIu74nTOZN9KJUJu416J","playlistName":"مقاطع مُهمَّة (يُسريَّات) أ.د. يسري جبر","category":"متنوع"},{"id":"G7pFRIiceco","title":"كيف أتخلص من الكبر والغرور؟","publishedAt":"2021-03-05T18:30:56Z","duration":"PT10M48S","thumbnail":"https://i.ytimg.com/vi/G7pFRIiceco/mqdefault.jpg","viewCount":"11816","playlistId":"PLEkQk5xrP-tm8ZIu74nTOZN9KJUJu416J","playlistName":"مقاطع مُهمَّة (يُسريَّات) أ.د. يسري جبر","category":"متنوع"},{"id":"9SA__lVXiSE","title":"لولاكَ لولاكَ ما خَلقتُ الأفلاكَ  د. يسري جبر","publishedAt":"2018-05-29T15:07:38Z","duration":"PT3M4S","thumbnail":"https://i.ytimg.com/vi/9SA__lVXiSE/mqdefault.jpg","viewCount":"11733","playlistId":"PLEkQk5xrP-tm8ZIu74nTOZN9KJUJu416J","playlistName":"مقاطع مُهمَّة (يُسريَّات) أ.د. يسري جبر","category":"متنوع"},{"id":"w7e8Bg5O4P8","title":"هل يجوز قراءة القرآن من المصحف أو الموبيل في الصلاة؟","publishedAt":"2023-03-26T19:00:19Z","duration":"PT9M46S","thumbnail":"https://i.ytimg.com/vi/w7e8Bg5O4P8/mqdefault.jpg","viewCount":"11678","playlistId":"PLEkQk5xrP-tm8ZIu74nTOZN9KJUJu416J","playlistName":"مقاطع مُهمَّة (يُسريَّات) أ.د. يسري جبر","category":"متنوع"},{"id":"T6Bafpkb1ZI","title":"إحياء ليلة الإسراء والمعراج | المدينة المنورة","publishedAt":"2024-02-07T18:30:08Z","duration":"PT39M36S","thumbnail":"https://i.ytimg.com/vi/T6Bafpkb1ZI/mqdefault.jpg","viewCount":"11654","playlistId":"PLEkQk5xrP-tm8ZIu74nTOZN9KJUJu416J","playlistName":"مقاطع مُهمَّة (يُسريَّات) أ.د. يسري جبر","category":"متنوع"},{"id":"QeLaU7G0jzg","title":"كيف تعيش الحب؟","publishedAt":"2020-12-09T18:34:31Z","duration":"PT9M32S","thumbnail":"https://i.ytimg.com/vi/QeLaU7G0jzg/mqdefault.jpg","viewCount":"11628","playlistId":"PLEkQk5xrP-tm8ZIu74nTOZN9KJUJu416J","playlistName":"مقاطع مُهمَّة (يُسريَّات) أ.د. يسري جبر","category":"متنوع"},{"id":"Nm-uG-KbhV4","title":"كيف تأخذ بالأسباب مع عدم اعتمادك عليها؟","publishedAt":"2024-01-29T18:16:40Z","duration":"PT10M14S","thumbnail":"https://i.ytimg.com/vi/Nm-uG-KbhV4/mqdefault.jpg","viewCount":"11586","playlistId":"PLEkQk5xrP-tm8ZIu74nTOZN9KJUJu416J","playlistName":"مقاطع مُهمَّة (يُسريَّات) أ.د. يسري جبر","category":"متنوع"},{"id":"oo_NF_ndYQE","title":"كيف أواجه صعوبات الحياة وأتغلب على الضغوطات النفسية؟","publishedAt":"2025-09-20T19:00:43Z","duration":"PT14M35S","thumbnail":"https://i.ytimg.com/vi/oo_NF_ndYQE/mqdefault.jpg","viewCount":"11571","playlistId":"PLEkQk5xrP-tm8ZIu74nTOZN9KJUJu416J","playlistName":"مقاطع مُهمَّة (يُسريَّات) أ.د. يسري جبر","category":"متنوع"},{"id":"n_IQFaCtyJo","title":"كيف تكون من السالكين - د. يسري جبر","publishedAt":"2015-04-15T20:14:07Z","duration":"PT45S","thumbnail":"https://i.ytimg.com/vi/n_IQFaCtyJo/mqdefault.jpg","viewCount":"11522","playlistId":"PLEkQk5xrP-tm8ZIu74nTOZN9KJUJu416J","playlistName":"مقاطع مُهمَّة (يُسريَّات) أ.د. يسري جبر","category":"متنوع"},{"id":"grKuX971Q3E","title":"ما الفرق بين العارف بالله والعالِم؟","publishedAt":"2021-11-01T17:00:37Z","duration":"PT11M40S","thumbnail":"https://i.ytimg.com/vi/grKuX971Q3E/mqdefault.jpg","viewCount":"11446","playlistId":"PLEkQk5xrP-tm8ZIu74nTOZN9KJUJu416J","playlistName":"مقاطع مُهمَّة (يُسريَّات) أ.د. يسري جبر","category":"متنوع"}],"total":560,"page":8,"pageSize":24,"totalPages":24}