{"items":[{"id":"jLytC9QaPv4","title":"ÙƒÙ„Ù…Ø© ÙØ¶ÙŠÙ„Ø© Ø§Ù„Ø¯ÙƒØªÙˆØ± ÙŠØ³Ø±ÙŠ Ø¬Ø¨Ø± ÙÙŠ Ù…Ø¤ØªÙ…Ø± Ø§Ù„ØªØµÙˆÙ Ø§Ù„Ø¹Ø§Ù„Ù…ÙŠ Ø§Ù„Ø³Ø§Ø¨Ø¹ ÙÙ‰ Ù…Ù‚Ø¯ÙŠØ´Ùˆ 1/2","publishedAt":"2018-04-13T11:42:59Z","duration":"PT16M47S","thumbnail":"https://i.ytimg.com/vi/jLytC9QaPv4/mqdefault.jpg","viewCount":"2557","playlistId":"PLEkQk5xrP-tm8ZIu74nTOZN9KJUJu416J","playlistName":"Ù…Ù‚Ø§Ø·Ø¹ Ù…ÙÙ‡Ù…ÙÙ‘Ø© (ÙŠÙØ³Ø±ÙŠÙ‘ÙØ§Øª) Ø£.Ø¯. ÙŠØ³Ø±ÙŠ Ø¬Ø¨Ø±","category":"Ù…ØªÙ†ÙˆØ¹"},{"id":"2SjtW_v-vBw","title":"Ø§Ù„Ø¬Ù…Ø¹ Ø¨ÙŠÙ† Ø­Ø¯ÙŠØ« (Ø¹Ø±Ø¶ Ø§Ù„Ø£Ø¹Ù…Ø§Ù„ ÙˆØ­Ø¯ÙŠØ« Ø£ÙˆÙ„Ø§ ØªØ¯Ø±ÙŠ Ù…Ø§ Ø£Ø­Ø¯Ø«ÙˆØ§ Ø¨Ø¹Ø¯Ùƒ) Ù…ÙˆÙ„Ø§Ù†Ø§ Ø¯. ÙŠØ³Ø±ÙŠ Ø¬Ø¨Ø±","publishedAt":"2014-12-06T08:10:18Z","duration":"PT4M35S","thumbnail":"https://i.ytimg.com/vi/2SjtW_v-vBw/mqdefault.jpg","viewCount":"2532","playlistId":"PLEkQk5xrP-tm8ZIu74nTOZN9KJUJu416J","playlistName":"Ù…Ù‚Ø§Ø·Ø¹ Ù…ÙÙ‡Ù…ÙÙ‘Ø© (ÙŠÙØ³Ø±ÙŠÙ‘ÙØ§Øª) Ø£.Ø¯. ÙŠØ³Ø±ÙŠ Ø¬Ø¨Ø±","category":"Ù…ØªÙ†ÙˆØ¹"},{"id":"IJFBj4cQyZU","title":"Ù…Ø¬Ù„Ø³ Ù…Ø±ÙƒØ² ÙƒØ§Ù…Ø¨Ø±ÙŠØ¯Ø¬ Ø§Ù„Ù‚Ø±Ø¢Ù†ÙŠ | Ø§Ù†Ø¬Ù„ØªØ±Ø§ğŸ“","publishedAt":"2025-05-31T18:17:55Z","duration":"PT21M36S","thumbnail":"https://i.ytimg.com/vi/IJFBj4cQyZU/mqdefault.jpg","viewCount":"2507","playlistId":"PLEkQk5xrP-tm8ZIu74nTOZN9KJUJu416J","playlistName":"Ù…Ù‚Ø§Ø·Ø¹ Ù…ÙÙ‡Ù…ÙÙ‘Ø© (ÙŠÙØ³Ø±ÙŠÙ‘ÙØ§Øª) Ø£.Ø¯. ÙŠØ³Ø±ÙŠ Ø¬Ø¨Ø±","category":"Ù…ØªÙ†ÙˆØ¹"},{"id":"oy4G-AxSdiA","title":"Ø§Ù„ØµØ±Ø§Ø· Ø¹Ù„Ù‰ Ù…ØªÙ† Ø¬Ù‡Ù†Ù…","publishedAt":"2020-12-05T17:45:02Z","duration":"PT4M44S","thumbnail":"https://i.ytimg.com/vi/oy4G-AxSdiA/mqdefault.jpg","viewCount":"2506","playlistId":"PLEkQk5xrP-tm8ZIu74nTOZN9KJUJu416J","playlistName":"Ù…Ù‚Ø§Ø·Ø¹ Ù…ÙÙ‡Ù…ÙÙ‘Ø© (ÙŠÙØ³Ø±ÙŠÙ‘ÙØ§Øª) Ø£.Ø¯. ÙŠØ³Ø±ÙŠ Ø¬Ø¨Ø±","category":"Ù…ØªÙ†ÙˆØ¹"},{"id":"a8LmQXKMvuM","title":"Ø¯Ø¹Ø§Ø¡ ÙˆØ¥Ø­ÙŠØ§Ø¡ ÙŠÙˆÙ… Ø¹Ø±ÙØ©","publishedAt":"2024-06-15T18:24:54Z","duration":"PT29M45S","thumbnail":"https://i.ytimg.com/vi/a8LmQXKMvuM/mqdefault.jpg","viewCount":"2493","playlistId":"PLEkQk5xrP-tm8ZIu74nTOZN9KJUJu416J","playlistName":"Ù…Ù‚Ø§Ø·Ø¹ Ù…ÙÙ‡Ù…ÙÙ‘Ø© (ÙŠÙØ³Ø±ÙŠÙ‘ÙØ§Øª) Ø£.Ø¯. ÙŠØ³Ø±ÙŠ Ø¬Ø¨Ø±","category":"Ù…ØªÙ†ÙˆØ¹"},{"id":"RQRp90DazEw","title":"Ø´Ø±Ø­ Ø§Ù„Ù…Ù†Ø§Ø¬Ø§Ø© Ø§Ù„Ø¥Ù„Ù‡ÙŠØ© Ù„Ø§Ø¨Ù† Ø¹Ø·Ø§Ø¡ Ø§Ù„Ù„Ù‡ Ø§Ù„Ø³ÙƒÙ†Ø¯Ø±ÙŠ ÙƒØ§Ù…Ù„Ø§ | Ø£.Ø¯.ÙŠØ³Ø±ÙŠ Ø¬Ø¨Ø±","publishedAt":"2025-01-28T17:59:37Z","duration":"PT1H55M47S","thumbnail":"https://i.ytimg.com/vi/RQRp90DazEw/mqdefault.jpg","viewCount":"2464","playlistId":"PLEkQk5xrP-tm8ZIu74nTOZN9KJUJu416J","playlistName":"Ù…Ù‚Ø§Ø·Ø¹ Ù…ÙÙ‡Ù…ÙÙ‘Ø© (ÙŠÙØ³Ø±ÙŠÙ‘ÙØ§Øª) Ø£.Ø¯. ÙŠØ³Ø±ÙŠ Ø¬Ø¨Ø±","category":"Ù…ØªÙ†ÙˆØ¹"},{"id":"ocp90tmTY3k","title":"Ø­Ù„ Ø£Ø²Ù…Ø© Ø§Ù„ÙÙ‚Ø± ÙÙŠ Ù…ØµØ± | Ù…Ø§Ø°Ø§ Ù„Ùˆ Ù‚Ø§Ù…Øª Ø§Ù„Ø¯ÙˆÙ„Ø© Ø§Ù„Ù…ØµØ±ÙŠØ© Ø¨ØªØ­ØµÙŠÙ„ Ø§Ù„Ø²ÙƒØ§Ø©ØŸ","publishedAt":"2023-04-16T19:00:14Z","duration":"PT15M50S","thumbnail":"https://i.ytimg.com/vi/ocp90tmTY3k/mqdefault.jpg","viewCount":"2435","playlistId":"PLEkQk5xrP-tm8ZIu74nTOZN9KJUJu416J","playlistName":"Ù…Ù‚Ø§Ø·Ø¹ Ù…ÙÙ‡Ù…ÙÙ‘Ø© (ÙŠÙØ³Ø±ÙŠÙ‘ÙØ§Øª) Ø£.Ø¯. ÙŠØ³Ø±ÙŠ Ø¬Ø¨Ø±","category":"Ù…ØªÙ†ÙˆØ¹"},{"id":"AXCppTz54EQ","title":"Ø§Ù„Ø±Ø¹Ø§ÙŠØ©","publishedAt":"2020-08-24T19:39:44Z","duration":"PT6M55S","thumbnail":"https://i.ytimg.com/vi/AXCppTz54EQ/mqdefault.jpg","viewCount":"2426","playlistId":"PLEkQk5xrP-tm8ZIu74nTOZN9KJUJu416J","playlistName":"Ù…Ù‚Ø§Ø·Ø¹ Ù…ÙÙ‡Ù…ÙÙ‘Ø© (ÙŠÙØ³Ø±ÙŠÙ‘ÙØ§Øª) Ø£.Ø¯. ÙŠØ³Ø±ÙŠ Ø¬Ø¨Ø±","category":"Ù…ØªÙ†ÙˆØ¹"},{"id":"dFq9qyfAtCA","title":"Ø§Ù„Ø±ØºØ¨Ø©","publishedAt":"2020-08-21T19:00:44Z","duration":"PT3M29S","thumbnail":"https://i.ytimg.com/vi/dFq9qyfAtCA/mqdefault.jpg","viewCount":"2421","playlistId":"PLEkQk5xrP-tm8ZIu74nTOZN9KJUJu416J","playlistName":"Ù…Ù‚Ø§Ø·Ø¹ Ù…ÙÙ‡Ù…ÙÙ‘Ø© (ÙŠÙØ³Ø±ÙŠÙ‘ÙØ§Øª) Ø£.Ø¯. ÙŠØ³Ø±ÙŠ Ø¬Ø¨Ø±","category":"Ù…ØªÙ†ÙˆØ¹"},{"id":"BLYT_LxZ6Tc","title":"3 Ø¹Ø¨Ø§Ø¯Ø§Øª ØªØ¶Ù…Ù† Ù„Ùƒ Ø§Ù„Ø¬Ù†Ø©","publishedAt":"2025-03-17T19:00:12Z","duration":"PT8M16S","thumbnail":"https://i.ytimg.com/vi/BLYT_LxZ6Tc/mqdefault.jpg","viewCount":"2389","playlistId":"PLEkQk5xrP-tm8ZIu74nTOZN9KJUJu416J","playlistName":"Ù…Ù‚Ø§Ø·Ø¹ Ù…ÙÙ‡Ù…ÙÙ‘Ø© (ÙŠÙØ³Ø±ÙŠÙ‘ÙØ§Øª) Ø£.Ø¯. ÙŠØ³Ø±ÙŠ Ø¬Ø¨Ø±","category":"Ù…ØªÙ†ÙˆØ¹"},{"id":"r_X8AIUg7iw","title":"Ø§Ù„Ø§Ø­ØªÙØ§Ù„ Ø¨Ø®ØªØ§Ù… Ø±Ø¨ÙŠØ¹ Ø§Ù„Ø£Ù†ÙˆØ± ÙˆÙƒÙ„Ù…Ø© Ø¥Ù…Ø§Ù… Ù…Ø³Ø¬Ø¯ Ø³ÙŠØ¯Ù†Ø§ Ø§Ù„Ø­Ø³ÙŠÙ† Ø±Ø¶ÙŠ Ø§Ù„Ù„Ù‡ Ø¹Ù†Ù‡","publishedAt":"2021-11-09T21:06:30Z","duration":"PT23M25S","thumbnail":"https://i.ytimg.com/vi/r_X8AIUg7iw/mqdefault.jpg","viewCount":"2389","playlistId":"PLEkQk5xrP-tm8ZIu74nTOZN9KJUJu416J","playlistName":"Ù…Ù‚Ø§Ø·Ø¹ Ù…ÙÙ‡Ù…ÙÙ‘Ø© (ÙŠÙØ³Ø±ÙŠÙ‘ÙØ§Øª) Ø£.Ø¯. ÙŠØ³Ø±ÙŠ Ø¬Ø¨Ø±","category":"Ù…ØªÙ†ÙˆØ¹"},{"id":"EIIB0F1Nzvc","title":"Ù„Ø§ ØªØ­Ø²Ù† Ø¥Ù† Ø§Ù„Ù„Ù‡ Ù…Ø¹Ù†Ø§","publishedAt":"2020-08-20T14:24:34Z","duration":"PT7M55S","thumbnail":"https://i.ytimg.com/vi/EIIB0F1Nzvc/mqdefault.jpg","viewCount":"2381","playlistId":"PLEkQk5xrP-tm8ZIu74nTOZN9KJUJu416J","playlistName":"Ù…Ù‚Ø§Ø·Ø¹ Ù…ÙÙ‡Ù…ÙÙ‘Ø© (ÙŠÙØ³Ø±ÙŠÙ‘ÙØ§Øª) Ø£.Ø¯. ÙŠØ³Ø±ÙŠ Ø¬Ø¨Ø±","category":"Ù…ØªÙ†ÙˆØ¹"},{"id":"8oscJalkqDk","title":"Ù‡Ù„ Ù†ÙƒØ±Ù‡ Ø´Ø®Øµ Ø§Ù„ÙƒØ§ÙØ±ØŸ","publishedAt":"2019-12-27T16:11:16Z","duration":"PT14M28S","thumbnail":"https://i.ytimg.com/vi/8oscJalkqDk/mqdefault.jpg","viewCount":"2377","playlistId":"PLEkQk5xrP-tm8ZIu74nTOZN9KJUJu416J","playlistName":"Ù…Ù‚Ø§Ø·Ø¹ Ù…ÙÙ‡Ù…ÙÙ‘Ø© (ÙŠÙØ³Ø±ÙŠÙ‘ÙØ§Øª) Ø£.Ø¯. ÙŠØ³Ø±ÙŠ Ø¬Ø¨Ø±","category":"Ù…ØªÙ†ÙˆØ¹"},{"id":"0qzG2mAySWM","title":"Ø¯Ø±Ø¬Ø§Øª Ø§Ù„ØªÙˆØ§Ø¶Ø¹ Ù…Ù†Ù‡Ø¬ Ø­ÙŠØ§Ø©","publishedAt":"2022-07-23T11:00:02Z","duration":"PT24M59S","thumbnail":"https://i.ytimg.com/vi/0qzG2mAySWM/mqdefault.jpg","viewCount":"2345","playlistId":"PLEkQk5xrP-tm8ZIu74nTOZN9KJUJu416J","playlistName":"Ù…Ù‚Ø§Ø·Ø¹ Ù…ÙÙ‡Ù…ÙÙ‘Ø© (ÙŠÙØ³Ø±ÙŠÙ‘ÙØ§Øª) Ø£.Ø¯. ÙŠØ³Ø±ÙŠ Ø¬Ø¨Ø±","category":"Ù…ØªÙ†ÙˆØ¹"},{"id":"DKaxczAjOv0","title":"Ù…Ù‚Ø·Ø¹ Ù…Ù† Ù‚Ø±Ø§Ø¡Ø© ÙˆØ´Ø±Ø­ ÙƒØªØ§Ø¨ Ø§Ù„Ø´ÙØ§ Ø¨ØªØ¹Ø±ÙŠÙ Ø­Ù‚ÙˆÙ‚ Ø§Ù„Ù…ØµØ·ÙÙ‰ (Ø¨Ø§Ø¨ Ø¹ØµÙ…Ø© Ø§Ù„Ø£Ù†Ø¨ÙŠØ§Ø¡ ) Ø¹Ù„ÙŠÙ‡Ù… Ø§Ù„ØµÙ„Ø§Ø© ÙˆØ§Ù„Ø³Ù„Ø§Ù…","publishedAt":"2014-10-11T21:05:27Z","duration":"PT33M44S","thumbnail":"https://i.ytimg.com/vi/DKaxczAjOv0/mqdefault.jpg","viewCount":"2298","playlistId":"PLEkQk5xrP-tm8ZIu74nTOZN9KJUJu416J","playlistName":"Ù…Ù‚Ø§Ø·Ø¹ Ù…ÙÙ‡Ù…ÙÙ‘Ø© (ÙŠÙØ³Ø±ÙŠÙ‘ÙØ§Øª) Ø£.Ø¯. ÙŠØ³Ø±ÙŠ Ø¬Ø¨Ø±","category":"Ù…ØªÙ†ÙˆØ¹"},{"id":"9EkSn5ofjpE","title":"Ù…Ø§Ù„Ø§ ØªØ¹Ø±ÙÙ‡ Ø¹Ù† Ø³ÙŠØ±Ø© Ø¢Ù„ Ø§Ù„Ø¨ÙŠØª ÙˆÙƒÙŠÙ ØµØ¨Ø±ÙˆØ§ Ø¹Ù„Ù‰ Ø§Ù„Ø¨Ù„Ø§Ø¡ØŸ","publishedAt":"2025-11-27T20:05:43Z","duration":"PT16M","thumbnail":"https://i.ytimg.com/vi/9EkSn5ofjpE/mqdefault.jpg","viewCount":"2274","playlistId":"PLEkQk5xrP-tm8ZIu74nTOZN9KJUJu416J","playlistName":"Ù…Ù‚Ø§Ø·Ø¹ Ù…ÙÙ‡Ù…ÙÙ‘Ø© (ÙŠÙØ³Ø±ÙŠÙ‘ÙØ§Øª) Ø£.Ø¯. ÙŠØ³Ø±ÙŠ Ø¬Ø¨Ø±","category":"Ù…ØªÙ†ÙˆØ¹"},{"id":"nsXH_yWyq24","title":"ÙƒÙŠÙ Ø¯Ø§ÙØ¹ Ø§Ù„Ù„Ù‡ Ø¹Ù† Ù†Ø¨ÙŠÙ‡ ï·ºØŸ","publishedAt":"2021-03-07T19:16:07Z","duration":"PT8M31S","thumbnail":"https://i.ytimg.com/vi/nsXH_yWyq24/mqdefault.jpg","viewCount":"2269","playlistId":"PLEkQk5xrP-tm8ZIu74nTOZN9KJUJu416J","playlistName":"Ù…Ù‚Ø§Ø·Ø¹ Ù…ÙÙ‡Ù…ÙÙ‘Ø© (ÙŠÙØ³Ø±ÙŠÙ‘ÙØ§Øª) Ø£.Ø¯. ÙŠØ³Ø±ÙŠ Ø¬Ø¨Ø±","category":"Ù…ØªÙ†ÙˆØ¹"},{"id":"AgZucIKsTbQ","title":"Ø´Ø±Ø­ ÙƒØ§Ù…Ù„ Ù„Ù…Ø¹Ø¬Ø²Ø§Øª ÙˆØ´Ù…Ø§Ø¦Ù„ Ø§Ù„Ù†Ø¨ÙŠ ï·º","publishedAt":"2025-11-09T20:15:00Z","duration":"PT20M57S","thumbnail":"https://i.ytimg.com/vi/AgZucIKsTbQ/mqdefault.jpg","viewCount":"2253","playlistId":"PLEkQk5xrP-tm8ZIu74nTOZN9KJUJu416J","playlistName":"Ù…Ù‚Ø§Ø·Ø¹ Ù…ÙÙ‡Ù…ÙÙ‘Ø© (ÙŠÙØ³Ø±ÙŠÙ‘ÙØ§Øª) Ø£.Ø¯. ÙŠØ³Ø±ÙŠ Ø¬Ø¨Ø±","category":"Ù…ØªÙ†ÙˆØ¹"},{"id":"gYelGCOkXDM","title":"Ø§Ù„ÙƒÙÙ„Ù‘Ù Ù…ÙˆØ¬ÙˆØ¯ÙŒ Ø¨Ù‡ Ø³Ø¨Ø­Ø§Ù†Ù‡","publishedAt":"2020-10-16T19:58:08Z","duration":"PT6M53S","thumbnail":"https://i.ytimg.com/vi/gYelGCOkXDM/mqdefault.jpg","viewCount":"2241","playlistId":"PLEkQk5xrP-tm8ZIu74nTOZN9KJUJu416J","playlistName":"Ù…Ù‚Ø§Ø·Ø¹ Ù…ÙÙ‡Ù…ÙÙ‘Ø© (ÙŠÙØ³Ø±ÙŠÙ‘ÙØ§Øª) Ø£.Ø¯. ÙŠØ³Ø±ÙŠ Ø¬Ø¨Ø±","category":"Ù…ØªÙ†ÙˆØ¹"},{"id":"GSbZlLo0DLM","title":"Ø§Ù„ÙØ±Ù‚ Ø¨ÙŠÙ† Ø§Ù„Ø²Ù‡Ø¯ ÙˆØ§Ù„ÙˆØ±Ø¹","publishedAt":"2020-08-06T20:05:26Z","duration":"PT4M48S","thumbnail":"https://i.ytimg.com/vi/GSbZlLo0DLM/mqdefault.jpg","viewCount":"2238","playlistId":"PLEkQk5xrP-tm8ZIu74nTOZN9KJUJu416J","playlistName":"Ù…Ù‚Ø§Ø·Ø¹ Ù…ÙÙ‡Ù…ÙÙ‘Ø© (ÙŠÙØ³Ø±ÙŠÙ‘ÙØ§Øª) Ø£.Ø¯. ÙŠØ³Ø±ÙŠ Ø¬Ø¨Ø±","category":"Ù…ØªÙ†ÙˆØ¹"},{"id":"b_dex_oduI8","title":"Ø´ÙØ¯Ù‘ÙØ©Ù Ø§Ù„Ù…Ø±Ø¶","publishedAt":"2020-06-07T17:53:57Z","duration":"PT5M56S","thumbnail":"https://i.ytimg.com/vi/b_dex_oduI8/mqdefault.jpg","viewCount":"2218","playlistId":"PLEkQk5xrP-tm8ZIu74nTOZN9KJUJu416J","playlistName":"Ù…Ù‚Ø§Ø·Ø¹ Ù…ÙÙ‡Ù…ÙÙ‘Ø© (ÙŠÙØ³Ø±ÙŠÙ‘ÙØ§Øª) Ø£.Ø¯. ÙŠØ³Ø±ÙŠ Ø¬Ø¨Ø±","category":"Ù…ØªÙ†ÙˆØ¹"},{"id":"dm0KKYwll34","title":"ØªØ¹Ø¸ÙŠÙ… Ù…Ø§ Ø¹Ø¸Ù… Ø§Ù„Ù„Ù‡","publishedAt":"2020-09-05T18:14:11Z","duration":"PT4M12S","thumbnail":"https://i.ytimg.com/vi/dm0KKYwll34/mqdefault.jpg","viewCount":"2203","playlistId":"PLEkQk5xrP-tm8ZIu74nTOZN9KJUJu416J","playlistName":"Ù…Ù‚Ø§Ø·Ø¹ Ù…ÙÙ‡Ù…ÙÙ‘Ø© (ÙŠÙØ³Ø±ÙŠÙ‘ÙØ§Øª) Ø£.Ø¯. ÙŠØ³Ø±ÙŠ Ø¬Ø¨Ø±","category":"Ù…ØªÙ†ÙˆØ¹"},{"id":"nmH0qqVyaq0","title":"Ù„ÙÙ†ÙØ±ÙÙŠÙÙ‡Ù Ù…ÙÙ†Ù’ Ø¢ÙŠÙØ§ØªÙÙ†ÙØ§  Ø£.Ø¯/ ÙŠØ³Ø±ÙŠ Ø¬Ø¨Ø±","publishedAt":"2020-03-12T18:03:16Z","duration":"PT41M48S","thumbnail":"https://i.ytimg.com/vi/nmH0qqVyaq0/mqdefault.jpg","viewCount":"2199","playlistId":"PLEkQk5xrP-tm8ZIu74nTOZN9KJUJu416J","playlistName":"Ù…Ù‚Ø§Ø·Ø¹ Ù…ÙÙ‡Ù…ÙÙ‘Ø© (ÙŠÙØ³Ø±ÙŠÙ‘ÙØ§Øª) Ø£.Ø¯. ÙŠØ³Ø±ÙŠ Ø¬Ø¨Ø±","category":"Ù…ØªÙ†ÙˆØ¹"},{"id":"zovYOmtBXfQ","title":"Ø§Ù„ÙÙØ±Ø§Ø± Ù…Ù†Ù‡ ÙˆØ¥Ù„ÙŠÙ‡","publishedAt":"2020-07-18T20:19:44Z","duration":"PT2M26S","thumbnail":"https://i.ytimg.com/vi/zovYOmtBXfQ/mqdefault.jpg","viewCount":"2194","playlistId":"PLEkQk5xrP-tm8ZIu74nTOZN9KJUJu416J","playlistName":"Ù…Ù‚Ø§Ø·Ø¹ Ù…ÙÙ‡Ù…ÙÙ‘Ø© (ÙŠÙØ³Ø±ÙŠÙ‘ÙØ§Øª) Ø£.Ø¯. ÙŠØ³Ø±ÙŠ Ø¬Ø¨Ø±","category":"Ù…ØªÙ†ÙˆØ¹"}],"total":560,"page":21,"pageSize":24,"totalPages":24}