{"items":[{"id":"-NfOvRhQ_tU","title":"Ø§Ù„Ø®Ø´ÙˆØ¹","publishedAt":"2020-07-30T20:09:26Z","duration":"PT6M37S","thumbnail":"https://i.ytimg.com/vi/-NfOvRhQ_tU/mqdefault.jpg","viewCount":"3980","playlistId":"PLEkQk5xrP-tm8ZIu74nTOZN9KJUJu416J","playlistName":"Ù…Ù‚Ø§Ø·Ø¹ Ù…ÙÙ‡Ù…ÙÙ‘Ø© (ÙŠÙØ³Ø±ÙŠÙ‘ÙØ§Øª) Ø£.Ø¯. ÙŠØ³Ø±ÙŠ Ø¬Ø¨Ø±","category":"Ù…ØªÙ†ÙˆØ¹"},{"id":"TueWzIJMqFg","title":"Ø´Ø±Ø­ ÙƒØ§Ù…Ù„ Ù„Ø¥Ø³Ù†Ø§Ø¯ Ø§Ù„Ø·Ø±ÙŠÙ‚Ø© Ø§Ù„ØµØ¯ÙŠÙ‚ÙŠØ© Ø§Ù„Ø´Ø§Ø°Ù„ÙŠØ© |ğŸ“ Ù…Ø¹Ù‡Ø¯ Ø§Ø¨Ùˆ Ù…Ù†ØµÙˆØ± - Ø´Ø±Ø¨ÙˆÙ† - Ø¥Ù†Ø¯ÙˆÙ†ÙŠØ³ÙŠØ§ Ù£","publishedAt":"2023-02-26T18:00:10Z","duration":"PT29M34S","thumbnail":"https://i.ytimg.com/vi/TueWzIJMqFg/mqdefault.jpg","viewCount":"3973","playlistId":"PLEkQk5xrP-tm8ZIu74nTOZN9KJUJu416J","playlistName":"Ù…Ù‚Ø§Ø·Ø¹ Ù…ÙÙ‡Ù…ÙÙ‘Ø© (ÙŠÙØ³Ø±ÙŠÙ‘ÙØ§Øª) Ø£.Ø¯. ÙŠØ³Ø±ÙŠ Ø¬Ø¨Ø±","category":"Ù…ØªÙ†ÙˆØ¹"},{"id":"me6o4MCKe_Y","title":"Ø¯Ø±Ø¬Ø§Øª Ø§Ù„Ø´ÙƒØ±","publishedAt":"2020-07-02T20:36:15Z","duration":"PT25M37S","thumbnail":"https://i.ytimg.com/vi/me6o4MCKe_Y/mqdefault.jpg","viewCount":"3968","playlistId":"PLEkQk5xrP-tm8ZIu74nTOZN9KJUJu416J","playlistName":"Ù…Ù‚Ø§Ø·Ø¹ Ù…ÙÙ‡Ù…ÙÙ‘Ø© (ÙŠÙØ³Ø±ÙŠÙ‘ÙØ§Øª) Ø£.Ø¯. ÙŠØ³Ø±ÙŠ Ø¬Ø¨Ø±","category":"Ù…ØªÙ†ÙˆØ¹"},{"id":"Wi8VAdX56sc","title":"ØªØ­ÙˆÙŠÙ„ Ø§Ù„Ø£Ù‡ÙˆØ§Ù„ Ø¥Ù„Ù‰ ÙƒÙ…Ø§Ù„ Ø§Ù„Ø£Ø­ÙˆØ§Ù„","publishedAt":"2020-10-24T18:18:58Z","duration":"PT10M53S","thumbnail":"https://i.ytimg.com/vi/Wi8VAdX56sc/mqdefault.jpg","viewCount":"3937","playlistId":"PLEkQk5xrP-tm8ZIu74nTOZN9KJUJu416J","playlistName":"Ù…Ù‚Ø§Ø·Ø¹ Ù…ÙÙ‡Ù…ÙÙ‘Ø© (ÙŠÙØ³Ø±ÙŠÙ‘ÙØ§Øª) Ø£.Ø¯. ÙŠØ³Ø±ÙŠ Ø¬Ø¨Ø±","category":"Ù…ØªÙ†ÙˆØ¹"},{"id":"XTgah0TfI6k","title":"ÙƒÙŠÙ ØªØ¹Ø±Ù Ø£Ù†Ùƒ ØªØ±Ù‚ÙŠØª ÙÙŠ Ø·Ø±ÙŠÙ‚ Ø§Ù„ØªØµÙˆÙØŸ","publishedAt":"2025-11-10T19:30:06Z","duration":"PT38M5S","thumbnail":"https://i.ytimg.com/vi/XTgah0TfI6k/mqdefault.jpg","viewCount":"3908","playlistId":"PLEkQk5xrP-tm8ZIu74nTOZN9KJUJu416J","playlistName":"Ù…Ù‚Ø§Ø·Ø¹ Ù…ÙÙ‡Ù…ÙÙ‘Ø© (ÙŠÙØ³Ø±ÙŠÙ‘ÙØ§Øª) Ø£.Ø¯. ÙŠØ³Ø±ÙŠ Ø¬Ø¨Ø±","category":"Ù…ØªÙ†ÙˆØ¹"},{"id":"m8GVpJRyffQ","title":"Ø¥Ù†Ù‡ Ù„ÙŠØºØ§Ù† Ø¹Ù„Ù‰ Ù‚Ù„Ø¨ÙŠ","publishedAt":"2020-07-10T19:45:04Z","duration":"PT7M5S","thumbnail":"https://i.ytimg.com/vi/m8GVpJRyffQ/mqdefault.jpg","viewCount":"3908","playlistId":"PLEkQk5xrP-tm8ZIu74nTOZN9KJUJu416J","playlistName":"Ù…Ù‚Ø§Ø·Ø¹ Ù…ÙÙ‡Ù…ÙÙ‘Ø© (ÙŠÙØ³Ø±ÙŠÙ‘ÙØ§Øª) Ø£.Ø¯. ÙŠØ³Ø±ÙŠ Ø¬Ø¨Ø±","category":"Ù…ØªÙ†ÙˆØ¹"},{"id":"gMqGXajQDTg","title":"Ù‡Ù„ ÙŠØ¬ÙˆØ² Ù„ÙŠ Ø§Ù„Ø¥ÙØ·Ø§Ø± Ø¨Ø³Ø¨Ø¨ Ù…Ø´Ù‚Ø© Ø§Ù„Ø¹Ù…Ù„ØŸ","publishedAt":"2021-04-18T19:15:01Z","duration":"PT8M47S","thumbnail":"https://i.ytimg.com/vi/gMqGXajQDTg/mqdefault.jpg","viewCount":"3871","playlistId":"PLEkQk5xrP-tm8ZIu74nTOZN9KJUJu416J","playlistName":"Ù…Ù‚Ø§Ø·Ø¹ Ù…ÙÙ‡Ù…ÙÙ‘Ø© (ÙŠÙØ³Ø±ÙŠÙ‘ÙØ§Øª) Ø£.Ø¯. ÙŠØ³Ø±ÙŠ Ø¬Ø¨Ø±","category":"Ù…ØªÙ†ÙˆØ¹"},{"id":"lz0mk8nOr6w","title":"Ø£Ø­Ø§ÙˆÙ„ ØªØ¹Ù„ÙŠÙ… Ø²Ù…Ù„Ø§Ø¦ÙŠ ÙˆÙ„ÙƒÙ†Ù‡Ù… ÙŠØ³ØªØºÙ„ÙˆÙ†Ù†ÙŠ ÙÙŠ Ø§Ù„Ø­ØµÙˆÙ„ Ø¹Ù„Ù‰ ØªØ±Ù‚ÙŠØ© ÙÙ…Ø§Ø°Ø§ Ø£ÙØ¹Ù„ØŸ | Ø§Ù„Ù…Ù†Ø§ÙØ³Ø© ÙÙŠ Ø³ÙˆÙ‚ Ø§Ù„Ø¹Ù…Ù„","publishedAt":"2024-08-03T17:03:35Z","duration":"PT12M37S","thumbnail":"https://i.ytimg.com/vi/lz0mk8nOr6w/mqdefault.jpg","viewCount":"3834","playlistId":"PLEkQk5xrP-tm8ZIu74nTOZN9KJUJu416J","playlistName":"Ù…Ù‚Ø§Ø·Ø¹ Ù…ÙÙ‡Ù…ÙÙ‘Ø© (ÙŠÙØ³Ø±ÙŠÙ‘ÙØ§Øª) Ø£.Ø¯. ÙŠØ³Ø±ÙŠ Ø¬Ø¨Ø±","category":"Ù…ØªÙ†ÙˆØ¹"},{"id":"fVwYgc8BmT0","title":"ÙƒÙ† ØµØ§Ø­Ø¨ Ø§Ø³ØªÙ‚Ø§Ù…Ø© ÙˆÙ„Ø§ ØªÙƒÙ† Ø·Ø§Ù„Ø¨ ÙƒØ±Ø§Ù…Ø©","publishedAt":"2020-09-26T20:01:47Z","duration":"PT6M10S","thumbnail":"https://i.ytimg.com/vi/fVwYgc8BmT0/mqdefault.jpg","viewCount":"3826","playlistId":"PLEkQk5xrP-tm8ZIu74nTOZN9KJUJu416J","playlistName":"Ù…Ù‚Ø§Ø·Ø¹ Ù…ÙÙ‡Ù…ÙÙ‘Ø© (ÙŠÙØ³Ø±ÙŠÙ‘ÙØ§Øª) Ø£.Ø¯. ÙŠØ³Ø±ÙŠ Ø¬Ø¨Ø±","category":"Ù…ØªÙ†ÙˆØ¹"},{"id":"GBMd7pEcyPE","title":"Ø§Ù„ÙˆØ§Ø³Ø·Ø© Ø§Ù„Ø¹Ø¸Ù€Ù…Ù‰ ï·º.","publishedAt":"2020-09-25T18:35:27Z","duration":"PT6M11S","thumbnail":"https://i.ytimg.com/vi/GBMd7pEcyPE/mqdefault.jpg","viewCount":"3797","playlistId":"PLEkQk5xrP-tm8ZIu74nTOZN9KJUJu416J","playlistName":"Ù…Ù‚Ø§Ø·Ø¹ Ù…ÙÙ‡Ù…ÙÙ‘Ø© (ÙŠÙØ³Ø±ÙŠÙ‘ÙØ§Øª) Ø£.Ø¯. ÙŠØ³Ø±ÙŠ Ø¬Ø¨Ø±","category":"Ù…ØªÙ†ÙˆØ¹"},{"id":"xpNqY1lLdxI","title":"Ø§Ù„ÙÙØ±Ù’Ù‚Ù Ø¨ÙÙŠÙ’Ù†Ù Ø§Ù„ØªÙØºÙØ§ÙÙÙ„Ù ÙˆØ§Ù„ØºÙÙÙ’Ù„ÙØ©Ù - Ø¯.ÙŠØ³Ø±ÙŠ Ø¬Ø¨Ø±","publishedAt":"2015-02-14T18:58:02Z","duration":"PT7M32S","thumbnail":"https://i.ytimg.com/vi/xpNqY1lLdxI/mqdefault.jpg","viewCount":"3794","playlistId":"PLEkQk5xrP-tm8ZIu74nTOZN9KJUJu416J","playlistName":"Ù…Ù‚Ø§Ø·Ø¹ Ù…ÙÙ‡Ù…ÙÙ‘Ø© (ÙŠÙØ³Ø±ÙŠÙ‘ÙØ§Øª) Ø£.Ø¯. ÙŠØ³Ø±ÙŠ Ø¬Ø¨Ø±","category":"Ù…ØªÙ†ÙˆØ¹"},{"id":"IG5p6beeDbs","title":"ÙÙˆØ§Ø¦Ø¯Ù Ø§Ù„ØªÙ„Ù’Ø¨ÙŠÙ†Ø©Ù Ù„Ù„Ù…Ø±ÙŠØ¶ ÙˆØ§Ù„Ù…ÙÙƒØªØ¦ÙØ¨","publishedAt":"2020-06-14T15:51:11Z","duration":"PT9M57S","thumbnail":"https://i.ytimg.com/vi/IG5p6beeDbs/mqdefault.jpg","viewCount":"3780","playlistId":"PLEkQk5xrP-tm8ZIu74nTOZN9KJUJu416J","playlistName":"Ù…Ù‚Ø§Ø·Ø¹ Ù…ÙÙ‡Ù…ÙÙ‘Ø© (ÙŠÙØ³Ø±ÙŠÙ‘ÙØ§Øª) Ø£.Ø¯. ÙŠØ³Ø±ÙŠ Ø¬Ø¨Ø±","category":"Ù…ØªÙ†ÙˆØ¹"},{"id":"uyq0ejH8J4E","title":"Ù‚Ø³Ù…Ø© Ø§Ù„Ù„Ù‡ ÙÙŠ Ø¹Ø¨Ø§Ø¯Ù‡","publishedAt":"2020-10-23T17:46:50Z","duration":"PT4M16S","thumbnail":"https://i.ytimg.com/vi/uyq0ejH8J4E/mqdefault.jpg","viewCount":"3747","playlistId":"PLEkQk5xrP-tm8ZIu74nTOZN9KJUJu416J","playlistName":"Ù…Ù‚Ø§Ø·Ø¹ Ù…ÙÙ‡Ù…ÙÙ‘Ø© (ÙŠÙØ³Ø±ÙŠÙ‘ÙØ§Øª) Ø£.Ø¯. ÙŠØ³Ø±ÙŠ Ø¬Ø¨Ø±","category":"Ù…ØªÙ†ÙˆØ¹"},{"id":"R1t_Mg7Z6Xk","title":"Ø«ÙˆØ§Ø¨ Ø§Ù„Ù…Ø±Ø¶ Ø¹Ù†Ø¯ Ø§Ù„Ù„Ù‡","publishedAt":"2020-06-03T16:21:26Z","duration":"PT9M28S","thumbnail":"https://i.ytimg.com/vi/R1t_Mg7Z6Xk/mqdefault.jpg","viewCount":"3730","playlistId":"PLEkQk5xrP-tm8ZIu74nTOZN9KJUJu416J","playlistName":"Ù…Ù‚Ø§Ø·Ø¹ Ù…ÙÙ‡Ù…ÙÙ‘Ø© (ÙŠÙØ³Ø±ÙŠÙ‘ÙØ§Øª) Ø£.Ø¯. ÙŠØ³Ø±ÙŠ Ø¬Ø¨Ø±","category":"Ù…ØªÙ†ÙˆØ¹"},{"id":"t5StMhXfILU","title":"Ù†Ø¸Ø±Ø© ÙˆÙ…Ø¯Ø¯ ÙŠØ§ Ø±Ø³ÙˆÙ„ Ø§Ù„Ù„Ù‡ Ø¯. ÙŠØ³Ø±ÙŠ Ø¬Ø¨Ø±","publishedAt":"2017-05-02T20:27:30Z","duration":"PT1M44S","thumbnail":"https://i.ytimg.com/vi/t5StMhXfILU/mqdefault.jpg","viewCount":"3717","playlistId":"PLEkQk5xrP-tm8ZIu74nTOZN9KJUJu416J","playlistName":"Ù…Ù‚Ø§Ø·Ø¹ Ù…ÙÙ‡Ù…ÙÙ‘Ø© (ÙŠÙØ³Ø±ÙŠÙ‘ÙØ§Øª) Ø£.Ø¯. ÙŠØ³Ø±ÙŠ Ø¬Ø¨Ø±","category":"Ù…ØªÙ†ÙˆØ¹"},{"id":"-DoH-Ucrq3U","title":"Ø§Ù„Ø±Ø¯ Ø¹Ù„Ù‰ Ù…Ù† ÙŠÙ†ÙƒØ± ÙØ¶Ù„ Ù„ÙŠÙ„Ø© Ø§Ù„Ù†ØµÙ Ù…Ù† Ø´Ø¹Ø¨Ø§Ù†","publishedAt":"2024-02-26T18:30:10Z","duration":"PT25M36S","thumbnail":"https://i.ytimg.com/vi/-DoH-Ucrq3U/mqdefault.jpg","viewCount":"3693","playlistId":"PLEkQk5xrP-tm8ZIu74nTOZN9KJUJu416J","playlistName":"Ù…Ù‚Ø§Ø·Ø¹ Ù…ÙÙ‡Ù…ÙÙ‘Ø© (ÙŠÙØ³Ø±ÙŠÙ‘ÙØ§Øª) Ø£.Ø¯. ÙŠØ³Ø±ÙŠ Ø¬Ø¨Ø±","category":"Ù…ØªÙ†ÙˆØ¹"},{"id":"8yuU3JvfbO0","title":"ØªØ£Ø¨ÙŠØ± Ø§Ù„Ù†Ø®Ù„ Ø¨ÙŠÙ† Ø£Ù‡Ù„ Ø§Ù„Ø­Ù‚ÙŠÙ‚Ø© ÙˆØ§Ù„Ø´Ø±ÙŠØ¹Ø©","publishedAt":"2014-09-12T07:41:06Z","duration":"PT27M16S","thumbnail":"https://i.ytimg.com/vi/8yuU3JvfbO0/mqdefault.jpg","viewCount":"3667","playlistId":"PLEkQk5xrP-tm8ZIu74nTOZN9KJUJu416J","playlistName":"Ù…Ù‚Ø§Ø·Ø¹ Ù…ÙÙ‡Ù…ÙÙ‘Ø© (ÙŠÙØ³Ø±ÙŠÙ‘ÙØ§Øª) Ø£.Ø¯. ÙŠØ³Ø±ÙŠ Ø¬Ø¨Ø±","category":"Ù…ØªÙ†ÙˆØ¹"},{"id":"DiptGJ5AI5E","title":"Ù…Ù‚Ø§Ù… Ø§Ù„Ø¹Ø¨ÙˆØ¯ÙŠØ© - Ø¯.ÙŠØ³Ø±ÙŠ Ø¬Ø¨Ø±","publishedAt":"2014-12-19T20:47:59Z","duration":"PT4M15S","thumbnail":"https://i.ytimg.com/vi/DiptGJ5AI5E/mqdefault.jpg","viewCount":"3654","playlistId":"PLEkQk5xrP-tm8ZIu74nTOZN9KJUJu416J","playlistName":"Ù…Ù‚Ø§Ø·Ø¹ Ù…ÙÙ‡Ù…ÙÙ‘Ø© (ÙŠÙØ³Ø±ÙŠÙ‘ÙØ§Øª) Ø£.Ø¯. ÙŠØ³Ø±ÙŠ Ø¬Ø¨Ø±","category":"Ù…ØªÙ†ÙˆØ¹"},{"id":"6Ms3PfF8D6U","title":"ØªÙ‡Ø°ÙŠØ¨ Ø§Ù„Ø£Ø®Ù„Ø§Ù‚ Ø¨Ø§Ù„Ø¹Ù„Ù… Ø§Ù„Ø´Ø±Ø¹ÙŠ","publishedAt":"2020-07-12T20:44:33Z","duration":"PT10M28S","thumbnail":"https://i.ytimg.com/vi/6Ms3PfF8D6U/mqdefault.jpg","viewCount":"3647","playlistId":"PLEkQk5xrP-tm8ZIu74nTOZN9KJUJu416J","playlistName":"Ù…Ù‚Ø§Ø·Ø¹ Ù…ÙÙ‡Ù…ÙÙ‘Ø© (ÙŠÙØ³Ø±ÙŠÙ‘ÙØ§Øª) Ø£.Ø¯. ÙŠØ³Ø±ÙŠ Ø¬Ø¨Ø±","category":"Ù…ØªÙ†ÙˆØ¹"},{"id":"uHbn2gUaycg","title":"Ø§Ù„Ù…ÙˆØªÙ Ù„Ù„Ù…ÙØ¤Ù…ÙÙ†Ù Ù†ÙØ¹Ù’Ù…ÙØ©ÙŒ ÙˆÙƒÙØ±ÙØ§Ù…ÙØ©ÙŒ    Ø£.Ø¯.ÙŠØ³Ø±ÙŠ Ø¬Ø¨Ø±","publishedAt":"2019-12-29T16:27:18Z","duration":"PT2M10S","thumbnail":"https://i.ytimg.com/vi/uHbn2gUaycg/mqdefault.jpg","viewCount":"3612","playlistId":"PLEkQk5xrP-tm8ZIu74nTOZN9KJUJu416J","playlistName":"Ù…Ù‚Ø§Ø·Ø¹ Ù…ÙÙ‡Ù…ÙÙ‘Ø© (ÙŠÙØ³Ø±ÙŠÙ‘ÙØ§Øª) Ø£.Ø¯. ÙŠØ³Ø±ÙŠ Ø¬Ø¨Ø±","category":"Ù…ØªÙ†ÙˆØ¹"},{"id":"WAZkiaUFIxE","title":"Ø²ÙŠØ§Ø±Ø© Ø³ÙŠØ¯ Ø§Ù„Ø´Ù‡Ø¯Ø§Ø¡ Ø³ÙŠØ¯Ù†Ø§ Ø­Ù…Ø²Ø© ÙˆØ´Ù‡Ø¯Ø§Ø¡ Ø£Ø­Ø¯ Ø±Ø¶ÙˆØ§Ù† Ø§Ù„Ù„Ù‡ Ø¹Ù„ÙŠÙ‡Ù… Ø£Ø¬Ù…Ø¹ÙŠÙ†.","publishedAt":"2020-03-14T18:39:40Z","duration":"PT1M38S","thumbnail":"https://i.ytimg.com/vi/WAZkiaUFIxE/mqdefault.jpg","viewCount":"3568","playlistId":"PLEkQk5xrP-tm8ZIu74nTOZN9KJUJu416J","playlistName":"Ù…Ù‚Ø§Ø·Ø¹ Ù…ÙÙ‡Ù…ÙÙ‘Ø© (ÙŠÙØ³Ø±ÙŠÙ‘ÙØ§Øª) Ø£.Ø¯. ÙŠØ³Ø±ÙŠ Ø¬Ø¨Ø±","category":"Ù…ØªÙ†ÙˆØ¹"},{"id":"0IdotzWdclE","title":"ÙƒÙŠÙ ØªÙØ¯Ø§ÙØ¹ Ø¹Ù† Ù†Ø¨ÙŠÙƒ ï·ºØŸ","publishedAt":"2021-11-13T18:00:01Z","duration":"PT11M20S","thumbnail":"https://i.ytimg.com/vi/0IdotzWdclE/mqdefault.jpg","viewCount":"3544","playlistId":"PLEkQk5xrP-tm8ZIu74nTOZN9KJUJu416J","playlistName":"Ù…Ù‚Ø§Ø·Ø¹ Ù…ÙÙ‡Ù…ÙÙ‘Ø© (ÙŠÙØ³Ø±ÙŠÙ‘ÙØ§Øª) Ø£.Ø¯. ÙŠØ³Ø±ÙŠ Ø¬Ø¨Ø±","category":"Ù…ØªÙ†ÙˆØ¹"},{"id":"0XVn-u7YZBk","title":"Ù…ÙØ±Ù’Ø­ÙØ¨Ù‹Ø§ Ø´ÙØ¹Ù’Ø¨ÙØ§Ù†.  Ø£.Ø¯. ÙŠØ³Ø±ÙŠ Ø¬Ø¨Ø±","publishedAt":"2020-03-29T15:06:11Z","duration":"PT10M24S","thumbnail":"https://i.ytimg.com/vi/0XVn-u7YZBk/mqdefault.jpg","viewCount":"3532","playlistId":"PLEkQk5xrP-tm8ZIu74nTOZN9KJUJu416J","playlistName":"Ù…Ù‚Ø§Ø·Ø¹ Ù…ÙÙ‡Ù…ÙÙ‘Ø© (ÙŠÙØ³Ø±ÙŠÙ‘ÙØ§Øª) Ø£.Ø¯. ÙŠØ³Ø±ÙŠ Ø¬Ø¨Ø±","category":"Ù…ØªÙ†ÙˆØ¹"},{"id":"uOGT8w9tOp8","title":"ØªØ¹Ø±ÙŠÙ Ø§Ù„Ø­Ø¨","publishedAt":"2019-11-03T17:21:33Z","duration":"PT3M49S","thumbnail":"https://i.ytimg.com/vi/uOGT8w9tOp8/mqdefault.jpg","viewCount":"3514","playlistId":"PLEkQk5xrP-tm8ZIu74nTOZN9KJUJu416J","playlistName":"Ù…Ù‚Ø§Ø·Ø¹ Ù…ÙÙ‡Ù…ÙÙ‘Ø© (ÙŠÙØ³Ø±ÙŠÙ‘ÙØ§Øª) Ø£.Ø¯. ÙŠØ³Ø±ÙŠ Ø¬Ø¨Ø±","category":"Ù…ØªÙ†ÙˆØ¹"}],"total":560,"page":18,"pageSize":24,"totalPages":24}