{"items":[{"id":"Xv-jzhnL2XU","title":"ÙƒÙŠÙ ØªØªØ¹Ø§Ù…Ù„ Ù…Ø¹ Ø§Ù„Ù„Ù‡","publishedAt":"2020-07-21T19:45:08Z","duration":"PT13M22S","thumbnail":"https://i.ytimg.com/vi/Xv-jzhnL2XU/mqdefault.jpg","viewCount":"15572","playlistId":"PLEkQk5xrP-tm8ZIu74nTOZN9KJUJu416J","playlistName":"Ù…Ù‚Ø§Ø·Ø¹ Ù…ÙÙ‡Ù…ÙÙ‘Ø© (ÙŠÙØ³Ø±ÙŠÙ‘ÙØ§Øª) Ø£.Ø¯. ÙŠØ³Ø±ÙŠ Ø¬Ø¨Ø±","category":"Ù…ØªÙ†ÙˆØ¹"},{"id":"XVZs0GKGVm0","title":"ÙƒÙŠÙÙŠØ© ØµÙ„Ø§Ø© Ø§Ù„ÙƒØ³ÙˆÙ ÙˆØ§Ù„Ø®Ø³ÙˆÙ","publishedAt":"2022-05-15T20:49:26Z","duration":"PT11M12S","thumbnail":"https://i.ytimg.com/vi/XVZs0GKGVm0/mqdefault.jpg","viewCount":"15096","playlistId":"PLEkQk5xrP-tm8ZIu74nTOZN9KJUJu416J","playlistName":"Ù…Ù‚Ø§Ø·Ø¹ Ù…ÙÙ‡Ù…ÙÙ‘Ø© (ÙŠÙØ³Ø±ÙŠÙ‘ÙØ§Øª) Ø£.Ø¯. ÙŠØ³Ø±ÙŠ Ø¬Ø¨Ø±","category":"Ù…ØªÙ†ÙˆØ¹"},{"id":"kW-x03FbiMU","title":"Ù…ÙÙ†Ù’ Ù†Ø§Ø²Ø¹Ùƒ Ø¹Ù„Ù‰ Ø¯ÙÙ†Ù’ÙŠÙØ§ØŒ Ø§ØªØ±ÙƒÙ’Ù‡Ø§ Ù„Ù‡ ÙˆÙ‚Ù„Ù’ Ø³ÙÙ„ÙØ§Ù…ÙŒ","publishedAt":"2022-03-09T18:22:08Z","duration":"PT12M8S","thumbnail":"https://i.ytimg.com/vi/kW-x03FbiMU/mqdefault.jpg","viewCount":"15090","playlistId":"PLEkQk5xrP-tm8ZIu74nTOZN9KJUJu416J","playlistName":"Ù…Ù‚Ø§Ø·Ø¹ Ù…ÙÙ‡Ù…ÙÙ‘Ø© (ÙŠÙØ³Ø±ÙŠÙ‘ÙØ§Øª) Ø£.Ø¯. ÙŠØ³Ø±ÙŠ Ø¬Ø¨Ø±","category":"Ù…ØªÙ†ÙˆØ¹"},{"id":"drF67sIkXZM","title":"ÙƒÙŠÙ ØªØ±ÙˆØ¶ Ù†ÙØ³ÙƒØŸ","publishedAt":"2022-11-17T18:00:16Z","duration":"PT9M6S","thumbnail":"https://i.ytimg.com/vi/drF67sIkXZM/mqdefault.jpg","viewCount":"14911","playlistId":"PLEkQk5xrP-tm8ZIu74nTOZN9KJUJu416J","playlistName":"Ù…Ù‚Ø§Ø·Ø¹ Ù…ÙÙ‡Ù…ÙÙ‘Ø© (ÙŠÙØ³Ø±ÙŠÙ‘ÙØ§Øª) Ø£.Ø¯. ÙŠØ³Ø±ÙŠ Ø¬Ø¨Ø±","category":"Ù…ØªÙ†ÙˆØ¹"},{"id":"AWk6HJgyQmM","title":"ÙƒÙŠÙ ØªØ®ØªÙ… Ø§Ù„Ù‚Ø±Ø¢Ù† ÙˆÙ„Ø§ ØªÙ†Ø³Ø§Ù‡ØŸ","publishedAt":"2020-06-10T16:10:59Z","duration":"PT3M17S","thumbnail":"https://i.ytimg.com/vi/AWk6HJgyQmM/mqdefault.jpg","viewCount":"14641","playlistId":"PLEkQk5xrP-tm8ZIu74nTOZN9KJUJu416J","playlistName":"Ù…Ù‚Ø§Ø·Ø¹ Ù…ÙÙ‡Ù…ÙÙ‘Ø© (ÙŠÙØ³Ø±ÙŠÙ‘ÙØ§Øª) Ø£.Ø¯. ÙŠØ³Ø±ÙŠ Ø¬Ø¨Ø±","category":"Ù…ØªÙ†ÙˆØ¹"},{"id":"v5Ijm107NkA","title":"Ù…Ø§Ø°Ø§ Ø£ÙØ¹Ù„ Ø­ØªÙ‰ Ø£Ø±Ù‰ Ø§Ù„Ù†Ø¨ÙŠ ï·º ÙŠÙ‚Ø¸Ø©ØŸ","publishedAt":"2023-03-13T18:00:31Z","duration":"PT9M25S","thumbnail":"https://i.ytimg.com/vi/v5Ijm107NkA/mqdefault.jpg","viewCount":"13782","playlistId":"PLEkQk5xrP-tm8ZIu74nTOZN9KJUJu416J","playlistName":"Ù…Ù‚Ø§Ø·Ø¹ Ù…ÙÙ‡Ù…ÙÙ‘Ø© (ÙŠÙØ³Ø±ÙŠÙ‘ÙØ§Øª) Ø£.Ø¯. ÙŠØ³Ø±ÙŠ Ø¬Ø¨Ø±","category":"Ù…ØªÙ†ÙˆØ¹"},{"id":"Gaow_s8zZe0","title":"Ø­ÙˆÙ„Ù Ø§Ù„Ø­Ù‚ÙŠÙ‚Ø©Ù Ø§Ù„Ù…ÙØ­ÙÙ…Ù‘ÙØ¯ÙÙŠÙ‘ÙØ©.    Ø£.Ø¯ ÙŠØ³Ø±ÙŠ  Ø¬Ø¨Ø±","publishedAt":"2020-03-08T22:10:13Z","duration":"PT26M33S","thumbnail":"https://i.ytimg.com/vi/Gaow_s8zZe0/mqdefault.jpg","viewCount":"13745","playlistId":"PLEkQk5xrP-tm8ZIu74nTOZN9KJUJu416J","playlistName":"Ù…Ù‚Ø§Ø·Ø¹ Ù…ÙÙ‡Ù…ÙÙ‘Ø© (ÙŠÙØ³Ø±ÙŠÙ‘ÙØ§Øª) Ø£.Ø¯. ÙŠØ³Ø±ÙŠ Ø¬Ø¨Ø±","category":"Ù…ØªÙ†ÙˆØ¹"},{"id":"-kD6fHiKv_4","title":"ÙØ¶Ù„ Ø§Ù„Ø¹Ø´Ø± Ø§Ù„Ø£ÙˆØ§Ø®Ø± Ù…Ù† Ø±Ù…Ø¶Ø§Ù† ÙˆÙ…ÙˆØ¹Ø¯ Ù„ÙŠÙ„Ø© Ø§Ù„Ù‚Ø¯Ø± Ø¨Ù†Ø³Ø¨Ø© ÙƒØ¨ÙŠØ±Ø©! ğŸ¤²ğŸŒ™","publishedAt":"2025-03-20T19:00:00Z","duration":"PT15M12S","thumbnail":"https://i.ytimg.com/vi/-kD6fHiKv_4/mqdefault.jpg","viewCount":"13721","playlistId":"PLEkQk5xrP-tm8ZIu74nTOZN9KJUJu416J","playlistName":"Ù…Ù‚Ø§Ø·Ø¹ Ù…ÙÙ‡Ù…ÙÙ‘Ø© (ÙŠÙØ³Ø±ÙŠÙ‘ÙØ§Øª) Ø£.Ø¯. ÙŠØ³Ø±ÙŠ Ø¬Ø¨Ø±","category":"Ù…ØªÙ†ÙˆØ¹"},{"id":"dBbJgGLGGyk","title":"Ù‡Ù„ Ø¶Ø±Ø¨ Ø§Ù„Ø²ÙˆØ¬Ø© Ù…Ø¨Ø§Ø­ØŸ","publishedAt":"2021-08-05T19:02:17Z","duration":"PT16M20S","thumbnail":"https://i.ytimg.com/vi/dBbJgGLGGyk/mqdefault.jpg","viewCount":"13685","playlistId":"PLEkQk5xrP-tm8ZIu74nTOZN9KJUJu416J","playlistName":"Ù…Ù‚Ø§Ø·Ø¹ Ù…ÙÙ‡Ù…ÙÙ‘Ø© (ÙŠÙØ³Ø±ÙŠÙ‘ÙØ§Øª) Ø£.Ø¯. ÙŠØ³Ø±ÙŠ Ø¬Ø¨Ø±","category":"Ù…ØªÙ†ÙˆØ¹"},{"id":"JPexzZ7v50Q","title":"Ù‡Ù„ Ø§Ù„Ù…Ø±Ø£Ø© ØºÙŠØ± Ø§Ù„Ù…Ø­Ø¬Ø¨Ø© ØªØ¯Ø®Ù„ Ø§Ù„Ù†Ø§Ø±ØŸ","publishedAt":"2022-06-30T18:30:30Z","duration":"PT9M35S","thumbnail":"https://i.ytimg.com/vi/JPexzZ7v50Q/mqdefault.jpg","viewCount":"13650","playlistId":"PLEkQk5xrP-tm8ZIu74nTOZN9KJUJu416J","playlistName":"Ù…Ù‚Ø§Ø·Ø¹ Ù…ÙÙ‡Ù…ÙÙ‘Ø© (ÙŠÙØ³Ø±ÙŠÙ‘ÙØ§Øª) Ø£.Ø¯. ÙŠØ³Ø±ÙŠ Ø¬Ø¨Ø±","category":"Ù…ØªÙ†ÙˆØ¹"},{"id":"NLdReIqGXj0","title":"Ù…Ø§ Ù‡ÙŠ Ø£ÙØ¶Ù„ ØµÙŠØºØ© Ù„Ù„ØµÙ„Ø§Ø© Ø¹Ù„Ù‰ Ø§Ù„Ù†Ø¨ÙŠ ï·ºØŸ","publishedAt":"2025-11-11T18:30:22Z","duration":"PT8M5S","thumbnail":"https://i.ytimg.com/vi/NLdReIqGXj0/mqdefault.jpg","viewCount":"13390","playlistId":"PLEkQk5xrP-tm8ZIu74nTOZN9KJUJu416J","playlistName":"Ù…Ù‚Ø§Ø·Ø¹ Ù…ÙÙ‡Ù…ÙÙ‘Ø© (ÙŠÙØ³Ø±ÙŠÙ‘ÙØ§Øª) Ø£.Ø¯. ÙŠØ³Ø±ÙŠ Ø¬Ø¨Ø±","category":"Ù…ØªÙ†ÙˆØ¹"},{"id":"BA0aXMsFZlY","title":"Ù„Ø·Ø§Ø¦Ù ÙˆØ¥Ø´Ø§Ø±Ø§Øª ÙÙŠ Ø§Ù„Ø·Ø±ÙŠÙ‚ Ø¥Ù„Ù‰ Ø§Ù„Ù„Ù‡","publishedAt":"2020-08-07T10:30:11Z","duration":"PT44M22S","thumbnail":"https://i.ytimg.com/vi/BA0aXMsFZlY/mqdefault.jpg","viewCount":"13385","playlistId":"PLEkQk5xrP-tm8ZIu74nTOZN9KJUJu416J","playlistName":"Ù…Ù‚Ø§Ø·Ø¹ Ù…ÙÙ‡Ù…ÙÙ‘Ø© (ÙŠÙØ³Ø±ÙŠÙ‘ÙØ§Øª) Ø£.Ø¯. ÙŠØ³Ø±ÙŠ Ø¬Ø¨Ø±","category":"Ù…ØªÙ†ÙˆØ¹"},{"id":"e7K9FRvlI_Y","title":"ØªÙƒÙ„Ù… Ù…Ø¹ Ø§Ù„Ù„Ù‡","publishedAt":"2020-11-28T18:52:51Z","duration":"PT4M27S","thumbnail":"https://i.ytimg.com/vi/e7K9FRvlI_Y/mqdefault.jpg","viewCount":"13322","playlistId":"PLEkQk5xrP-tm8ZIu74nTOZN9KJUJu416J","playlistName":"Ù…Ù‚Ø§Ø·Ø¹ Ù…ÙÙ‡Ù…ÙÙ‘Ø© (ÙŠÙØ³Ø±ÙŠÙ‘ÙØ§Øª) Ø£.Ø¯. ÙŠØ³Ø±ÙŠ Ø¬Ø¨Ø±","category":"Ù…ØªÙ†ÙˆØ¹"},{"id":"zvo0DQzuG14","title":"Ø§Ù„Ø§Ù†Ù‚Ø·Ø§Ø¹ Ø¹Ù† Ø§Ù„Ù†Ø§Ø³","publishedAt":"2020-08-13T18:38:47Z","duration":"PT6M24S","thumbnail":"https://i.ytimg.com/vi/zvo0DQzuG14/mqdefault.jpg","viewCount":"13289","playlistId":"PLEkQk5xrP-tm8ZIu74nTOZN9KJUJu416J","playlistName":"Ù…Ù‚Ø§Ø·Ø¹ Ù…ÙÙ‡Ù…ÙÙ‘Ø© (ÙŠÙØ³Ø±ÙŠÙ‘ÙØ§Øª) Ø£.Ø¯. ÙŠØ³Ø±ÙŠ Ø¬Ø¨Ø±","category":"Ù…ØªÙ†ÙˆØ¹"},{"id":"4M0DKKCk_Ic","title":"Ø­Ù‚ÙŠÙ‚Ø© Ø§Ù„Ø£ÙˆÙ„ÙŠØ© Ø§Ù„Ù…Ø­Ù…Ø¯ÙŠØ© Ø¨Ø¯Ù„ÙŠÙ„ Ø§Ù„Ù‚Ø±Ø¢Ù† ÙˆØ§Ù„Ø³Ù†Ø©","publishedAt":"2013-11-07T02:25:36Z","duration":"PT5M22S","thumbnail":"https://i.ytimg.com/vi/4M0DKKCk_Ic/mqdefault.jpg","viewCount":"13074","playlistId":"PLEkQk5xrP-tm8ZIu74nTOZN9KJUJu416J","playlistName":"Ù…Ù‚Ø§Ø·Ø¹ Ù…ÙÙ‡Ù…ÙÙ‘Ø© (ÙŠÙØ³Ø±ÙŠÙ‘ÙØ§Øª) Ø£.Ø¯. ÙŠØ³Ø±ÙŠ Ø¬Ø¨Ø±","category":"Ù…ØªÙ†ÙˆØ¹"},{"id":"xxztBdVV4wY","title":"Ø´Ø±Ø­ Ø­Ø¯ÙŠØ« Ø³Ø­Ø± Ø§Ù„Ù†Ø¨ÙŠ Ù…Ù† ØµØ­ÙŠØ­ Ø§Ù„Ø¥Ù…Ø§Ù… Ù…Ø³Ù„Ù…","publishedAt":"2014-08-20T09:46:59Z","duration":"PT46M1S","thumbnail":"https://i.ytimg.com/vi/xxztBdVV4wY/mqdefault.jpg","viewCount":"13012","playlistId":"PLEkQk5xrP-tm8ZIu74nTOZN9KJUJu416J","playlistName":"Ù…Ù‚Ø§Ø·Ø¹ Ù…ÙÙ‡Ù…ÙÙ‘Ø© (ÙŠÙØ³Ø±ÙŠÙ‘ÙØ§Øª) Ø£.Ø¯. ÙŠØ³Ø±ÙŠ Ø¬Ø¨Ø±","category":"Ù…ØªÙ†ÙˆØ¹"},{"id":"VLjrhAFVe7E","title":"Ø­ÙÙƒÙ… Ø§Ø³ØªØ®Ø¯Ø§Ù… ØµØ¨ØºØ© Ø§Ù„Ø´Ø¹Ø± ÙˆØ§Ù„Ø­Ù†Ø§Ø¡ ÙˆØ§Ù„ÙƒØ­Ù„ Ù„Ù„Ø±Ø¬Ø§Ù„","publishedAt":"2021-01-29T19:15:00Z","duration":"PT11M16S","thumbnail":"https://i.ytimg.com/vi/VLjrhAFVe7E/mqdefault.jpg","viewCount":"13011","playlistId":"PLEkQk5xrP-tm8ZIu74nTOZN9KJUJu416J","playlistName":"Ù…Ù‚Ø§Ø·Ø¹ Ù…ÙÙ‡Ù…ÙÙ‘Ø© (ÙŠÙØ³Ø±ÙŠÙ‘ÙØ§Øª) Ø£.Ø¯. ÙŠØ³Ø±ÙŠ Ø¬Ø¨Ø±","category":"Ù…ØªÙ†ÙˆØ¹"},{"id":"yTg_K-dBElo","title":"ÙƒÙŠÙ Ù†Ø±Ø¯ Ø§Ù„Ø¥Ø³Ø§Ø¡Ø© Ø¹Ù† Ø§Ù„Ù†Ù‘ÙØ¨ÙŠÙ‘ ï·ºØŸ","publishedAt":"2020-10-31T18:05:27Z","duration":"PT12M37S","thumbnail":"https://i.ytimg.com/vi/yTg_K-dBElo/mqdefault.jpg","viewCount":"13007","playlistId":"PLEkQk5xrP-tm8ZIu74nTOZN9KJUJu416J","playlistName":"Ù…Ù‚Ø§Ø·Ø¹ Ù…ÙÙ‡Ù…ÙÙ‘Ø© (ÙŠÙØ³Ø±ÙŠÙ‘ÙØ§Øª) Ø£.Ø¯. ÙŠØ³Ø±ÙŠ Ø¬Ø¨Ø±","category":"Ù…ØªÙ†ÙˆØ¹"},{"id":"YWILVpKBuEA","title":"ØªÙØ³ÙŠØ± Ø´Ø·Ø­Ø§Øª Ø¨Ø¹Ø¶ Ø§Ù„Ø£ÙˆÙ„ÙŠØ§Ø¡ ÙˆÙ„Ù…Ø§Ø°Ø§ ÙŠØ®ØªÙ„Ù Ø¹Ù„ÙŠÙ‡Ù… Ø§Ù„Ø¹Ù„Ù…Ø§Ø¡ØŸ","publishedAt":"2024-07-04T19:54:10Z","duration":"PT22M19S","thumbnail":"https://i.ytimg.com/vi/YWILVpKBuEA/mqdefault.jpg","viewCount":"12991","playlistId":"PLEkQk5xrP-tm8ZIu74nTOZN9KJUJu416J","playlistName":"Ù…Ù‚Ø§Ø·Ø¹ Ù…ÙÙ‡Ù…ÙÙ‘Ø© (ÙŠÙØ³Ø±ÙŠÙ‘ÙØ§Øª) Ø£.Ø¯. ÙŠØ³Ø±ÙŠ Ø¬Ø¨Ø±","category":"Ù…ØªÙ†ÙˆØ¹"},{"id":"RbFbsr_lvWk","title":"ÙƒÙŠÙ ØªØ¹Ø§Ù„Ø¬ Ù‚Ø³ÙˆØ© Ø§Ù„Ù‚Ù„Ø¨ØŸ","publishedAt":"2022-06-20T18:30:33Z","duration":"PT11M26S","thumbnail":"https://i.ytimg.com/vi/RbFbsr_lvWk/mqdefault.jpg","viewCount":"12917","playlistId":"PLEkQk5xrP-tm8ZIu74nTOZN9KJUJu416J","playlistName":"Ù…Ù‚Ø§Ø·Ø¹ Ù…ÙÙ‡Ù…ÙÙ‘Ø© (ÙŠÙØ³Ø±ÙŠÙ‘ÙØ§Øª) Ø£.Ø¯. ÙŠØ³Ø±ÙŠ Ø¬Ø¨Ø±","category":"Ù…ØªÙ†ÙˆØ¹"},{"id":"_ycXPZWRWpA","title":"Ø³Ø¨Ø¨ ØªØµÙ†ÙŠÙ Ø¯Ù„Ø§Ø¦Ù„ Ø§Ù„Ø®ÙŠØ±Ø§Øª","publishedAt":"2020-10-25T18:46:48Z","duration":"PT11M46S","thumbnail":"https://i.ytimg.com/vi/_ycXPZWRWpA/mqdefault.jpg","viewCount":"12874","playlistId":"PLEkQk5xrP-tm8ZIu74nTOZN9KJUJu416J","playlistName":"Ù…Ù‚Ø§Ø·Ø¹ Ù…ÙÙ‡Ù…ÙÙ‘Ø© (ÙŠÙØ³Ø±ÙŠÙ‘ÙØ§Øª) Ø£.Ø¯. ÙŠØ³Ø±ÙŠ Ø¬Ø¨Ø±","category":"Ù…ØªÙ†ÙˆØ¹"},{"id":"KoPPNzEB6fU","title":"Ø´Ø±Ø­ Ø§Ù„ØµÙ„Ø§Ø© Ø§Ù„Ø£Ù†Ù…ÙˆØ°Ø¬ÙŠØ© Ø¯. ÙŠØ³Ø±ÙŠ Ø¬Ø¨Ø±","publishedAt":"2017-01-10T18:56:58Z","duration":"PT8M17S","thumbnail":"https://i.ytimg.com/vi/KoPPNzEB6fU/mqdefault.jpg","viewCount":"12871","playlistId":"PLEkQk5xrP-tm8ZIu74nTOZN9KJUJu416J","playlistName":"Ù…Ù‚Ø§Ø·Ø¹ Ù…ÙÙ‡Ù…ÙÙ‘Ø© (ÙŠÙØ³Ø±ÙŠÙ‘ÙØ§Øª) Ø£.Ø¯. ÙŠØ³Ø±ÙŠ Ø¬Ø¨Ø±","category":"Ù…ØªÙ†ÙˆØ¹"},{"id":"QN3lRL2_sl4","title":"Ø§Ù„ØµÙ„Ø§Ø©Ù Ø¹Ù„Ù‰ Ø§Ù„Ù†Ù‘ÙØ¨ÙÙŠÙ‘ ï·º 100 Ù…Ø±Ø©","publishedAt":"2020-05-26T14:22:52Z","duration":"PT10M3S","thumbnail":"https://i.ytimg.com/vi/QN3lRL2_sl4/mqdefault.jpg","viewCount":"12829","playlistId":"PLEkQk5xrP-tm8ZIu74nTOZN9KJUJu416J","playlistName":"Ù…Ù‚Ø§Ø·Ø¹ Ù…ÙÙ‡Ù…ÙÙ‘Ø© (ÙŠÙØ³Ø±ÙŠÙ‘ÙØ§Øª) Ø£.Ø¯. ÙŠØ³Ø±ÙŠ Ø¬Ø¨Ø±","category":"Ù…ØªÙ†ÙˆØ¹"},{"id":"7vnoE1J4h7s","title":"ÙƒÙŠÙ ØªØ¹Ø¨Ø¯ Ø±Ø¨ÙƒØŸ","publishedAt":"2020-08-28T19:00:14Z","duration":"PT15M11S","thumbnail":"https://i.ytimg.com/vi/7vnoE1J4h7s/mqdefault.jpg","viewCount":"12768","playlistId":"PLEkQk5xrP-tm8ZIu74nTOZN9KJUJu416J","playlistName":"Ù…Ù‚Ø§Ø·Ø¹ Ù…ÙÙ‡Ù…ÙÙ‘Ø© (ÙŠÙØ³Ø±ÙŠÙ‘ÙØ§Øª) Ø£.Ø¯. ÙŠØ³Ø±ÙŠ Ø¬Ø¨Ø±","category":"Ù…ØªÙ†ÙˆØ¹"}],"total":560,"page":7,"pageSize":24,"totalPages":24}