{"items":[{"id":"u_h6yoe-Q8U","title":"Ù„Ù…Ø§Ø°Ø§ Ø®Ù„Ù‚Ù†Ø§ Ø§Ù„Ù„Ù‡ ÙˆÙ„Ù…Ø§Ø°Ø§ Ø£Ù…Ø±Ù†Ø§ Ø¨Ø¹Ø¨Ø§Ø¯ØªÙ‡ØŸ","publishedAt":"2025-11-04T21:00:58Z","duration":"PT26M17S","thumbnail":"https://i.ytimg.com/vi/u_h6yoe-Q8U/mqdefault.jpg","viewCount":"1731","playlistId":"PLEkQk5xrP-tm8ZIu74nTOZN9KJUJu416J","playlistName":"Ù…Ù‚Ø§Ø·Ø¹ Ù…ÙÙ‡Ù…ÙÙ‘Ø© (ÙŠÙØ³Ø±ÙŠÙ‘ÙØ§Øª) Ø£.Ø¯. ÙŠØ³Ø±ÙŠ Ø¬Ø¨Ø±","category":"Ù…ØªÙ†ÙˆØ¹"},{"id":"jbDE57q0nvw","title":"Ø­Ù‚Ù‘Ù Ø§Ù„Ø­ÙŠØ§Ø¡","publishedAt":"2020-07-09T19:52:53Z","duration":"PT5M35S","thumbnail":"https://i.ytimg.com/vi/jbDE57q0nvw/mqdefault.jpg","viewCount":"1713","playlistId":"PLEkQk5xrP-tm8ZIu74nTOZN9KJUJu416J","playlistName":"Ù…Ù‚Ø§Ø·Ø¹ Ù…ÙÙ‡Ù…ÙÙ‘Ø© (ÙŠÙØ³Ø±ÙŠÙ‘ÙØ§Øª) Ø£.Ø¯. ÙŠØ³Ø±ÙŠ Ø¬Ø¨Ø±","category":"Ù…ØªÙ†ÙˆØ¹"},{"id":"dBkzbNYqqIE","title":"ÙØªÙ†Ø© Ø§Ù„Ø£Ù‡Ù„ ÙˆØ§Ù„Ù…Ø§Ù„ ÙˆÙƒÙØ§Ø±ØªÙ‡Ø§","publishedAt":"2014-05-04T06:03:46Z","duration":"PT35M57S","thumbnail":"https://i.ytimg.com/vi/dBkzbNYqqIE/mqdefault.jpg","viewCount":"1699","playlistId":"PLEkQk5xrP-tm8ZIu74nTOZN9KJUJu416J","playlistName":"Ù…Ù‚Ø§Ø·Ø¹ Ù…ÙÙ‡Ù…ÙÙ‘Ø© (ÙŠÙØ³Ø±ÙŠÙ‘ÙØ§Øª) Ø£.Ø¯. ÙŠØ³Ø±ÙŠ Ø¬Ø¨Ø±","category":"Ù…ØªÙ†ÙˆØ¹"},{"id":"BtF-RJicc28","title":"ÙƒÙ„Ù…Ø© Ø£.Ø¯. ÙŠØ³Ø±ÙŠ Ø¬Ø¨Ø± ÙÙŠ Ù…ÙˆÙ„Ø¯ Ù…ÙˆÙ„Ø§Ù†Ø§ Ø§Ù„Ø¥Ù…Ø§Ù… Ø§Ù„Ø­Ø³ÙŠÙ† Ø±Ø¶ÙŠ Ø§Ù„Ù„Ù‡ Ø¹Ù†Ù‡ ÙˆØ¹Ù„ÙŠÙ‡ Ø§Ù„Ø³Ù„Ø§Ù….","publishedAt":"2019-01-24T17:38:12Z","duration":"PT43M","thumbnail":"https://i.ytimg.com/vi/BtF-RJicc28/mqdefault.jpg","viewCount":"1696","playlistId":"PLEkQk5xrP-tm8ZIu74nTOZN9KJUJu416J","playlistName":"Ù…Ù‚Ø§Ø·Ø¹ Ù…ÙÙ‡Ù…ÙÙ‘Ø© (ÙŠÙØ³Ø±ÙŠÙ‘ÙØ§Øª) Ø£.Ø¯. ÙŠØ³Ø±ÙŠ Ø¬Ø¨Ø±","category":"Ù…ØªÙ†ÙˆØ¹"},{"id":"UfyzebjAApA","title":"Ø£Ø³Ø±Ù‰ Ø¨Ø¯Ø± ÙˆØ§Ø®ØªÙŠØ§Ø± Ø§Ù„ÙØ¯Ø§Ø¡    Ø£.Ø¯. ÙŠØ³Ø±ÙŠ Ø¬Ø¨Ø±","publishedAt":"2020-05-12T00:26:57Z","duration":"PT11M51S","thumbnail":"https://i.ytimg.com/vi/UfyzebjAApA/mqdefault.jpg","viewCount":"1657","playlistId":"PLEkQk5xrP-tm8ZIu74nTOZN9KJUJu416J","playlistName":"Ù…Ù‚Ø§Ø·Ø¹ Ù…ÙÙ‡Ù…ÙÙ‘Ø© (ÙŠÙØ³Ø±ÙŠÙ‘ÙØ§Øª) Ø£.Ø¯. ÙŠØ³Ø±ÙŠ Ø¬Ø¨Ø±","category":"Ù…ØªÙ†ÙˆØ¹"},{"id":"P6xYfPpYZmw","title":"Ø§Ù„Ù†Ù‘ÙØ¨ÙŠÙ‘Ù Ø§Ù„Ø¬Ø§Ù…Ø¹Ù ï·º","publishedAt":"2020-10-10T19:21:48Z","duration":"PT8M31S","thumbnail":"https://i.ytimg.com/vi/P6xYfPpYZmw/mqdefault.jpg","viewCount":"1646","playlistId":"PLEkQk5xrP-tm8ZIu74nTOZN9KJUJu416J","playlistName":"Ù…Ù‚Ø§Ø·Ø¹ Ù…ÙÙ‡Ù…ÙÙ‘Ø© (ÙŠÙØ³Ø±ÙŠÙ‘ÙØ§Øª) Ø£.Ø¯. ÙŠØ³Ø±ÙŠ Ø¬Ø¨Ø±","category":"Ù…ØªÙ†ÙˆØ¹"},{"id":"xxBDI0Ftv18","title":"Ù„ÙØºÙØªÙÙ†ÙØ§ Ø§Ù„Ø¬ÙÙ…ÙÙŠÙ„ÙØ©Ù. Ø£.Ø¯. ÙŠØ³Ø±ÙŠ Ø¬Ø¨Ø±","publishedAt":"2019-11-17T18:49:51Z","duration":"PT3M50S","thumbnail":"https://i.ytimg.com/vi/xxBDI0Ftv18/mqdefault.jpg","viewCount":"1536","playlistId":"PLEkQk5xrP-tm8ZIu74nTOZN9KJUJu416J","playlistName":"Ù…Ù‚Ø§Ø·Ø¹ Ù…ÙÙ‡Ù…ÙÙ‘Ø© (ÙŠÙØ³Ø±ÙŠÙ‘ÙØ§Øª) Ø£.Ø¯. ÙŠØ³Ø±ÙŠ Ø¬Ø¨Ø±","category":"Ù…ØªÙ†ÙˆØ¹"},{"id":"pt9RKWnDUvc","title":"Ø§Ù„Ø­Ù…Ø¯Ù Ù„Ù„Ù‡Ù Ø£Ù†ÙØ§ Ø¨ÙƒÙ ÙˆÙØ¥Ù„ÙŠÙƒÙ  Ø£.Ø¯ ÙŠØ³Ø±ÙŠ Ø¬Ø¨Ø±","publishedAt":"2016-07-11T20:56:28Z","duration":"PT1M32S","thumbnail":"https://i.ytimg.com/vi/pt9RKWnDUvc/mqdefault.jpg","viewCount":"1506","playlistId":"PLEkQk5xrP-tm8ZIu74nTOZN9KJUJu416J","playlistName":"Ù…Ù‚Ø§Ø·Ø¹ Ù…ÙÙ‡Ù…ÙÙ‘Ø© (ÙŠÙØ³Ø±ÙŠÙ‘ÙØ§Øª) Ø£.Ø¯. ÙŠØ³Ø±ÙŠ Ø¬Ø¨Ø±","category":"Ù…ØªÙ†ÙˆØ¹"},{"id":"vjlN0NsF6t0","title":"Ù…Ø§ Ù‡Ùˆ Ø³Ø¨Ø¨ Ø§Ù„Ù…Ø´Ø§ÙƒÙ„ Ø¨ÙŠÙ† Ø§Ù„Ø²ÙˆØ¬ÙŠÙ†ØŸ ÙˆÙƒÙŠÙ ØªØ¹ÙŠØ´ Ø­ÙŠØ§Ø© Ø³Ø¹ÙŠØ¯Ø© Ù…Ø¹ Ø£ÙˆÙ„Ø§Ø¯ÙƒØŸ","publishedAt":"2025-10-09T17:41:00Z","duration":"PT11M58S","thumbnail":"https://i.ytimg.com/vi/vjlN0NsF6t0/mqdefault.jpg","viewCount":"1499","playlistId":"PLEkQk5xrP-tm8ZIu74nTOZN9KJUJu416J","playlistName":"Ù…Ù‚Ø§Ø·Ø¹ Ù…ÙÙ‡Ù…ÙÙ‘Ø© (ÙŠÙØ³Ø±ÙŠÙ‘ÙØ§Øª) Ø£.Ø¯. ÙŠØ³Ø±ÙŠ Ø¬Ø¨Ø±","category":"Ù…ØªÙ†ÙˆØ¹"},{"id":"bK9o9t_OuiI","title":"Ù…ÙÙ†Ù Ø§Ù„ÙÙÙˆØ§Ø¦ÙØ¯Ù Ø§Ù„ÙŠÙØ³Ù’Ø±ÙÙŠÙ‘ÙØ©Ù  (Ù‚ÙÙ„Ù‘Ù Ù…ÙÙ† Ù†Ø¨Ù‘ÙÙ‡Ù Ø¹ÙÙ„ÙŠÙ‡ÙØ§ )","publishedAt":"2015-03-19T19:30:37Z","duration":"PT2M23S","thumbnail":"https://i.ytimg.com/vi/bK9o9t_OuiI/mqdefault.jpg","viewCount":"1494","playlistId":"PLEkQk5xrP-tm8ZIu74nTOZN9KJUJu416J","playlistName":"Ù…Ù‚Ø§Ø·Ø¹ Ù…ÙÙ‡Ù…ÙÙ‘Ø© (ÙŠÙØ³Ø±ÙŠÙ‘ÙØ§Øª) Ø£.Ø¯. ÙŠØ³Ø±ÙŠ Ø¬Ø¨Ø±","category":"Ù…ØªÙ†ÙˆØ¹"},{"id":"dXoFlCB_lOA","title":"Ù„ÙƒÙ„ Ù†Ø¨ÙŠ Ø¯Ø¹ÙˆØ© Ù…Ø³ØªØ¬Ø§Ø¨Ø©    Ø¯. ÙŠØ³Ø±ÙŠ Ø¬Ø¨Ø±","publishedAt":"2017-04-27T16:55:44Z","duration":"PT10M19S","thumbnail":"https://i.ytimg.com/vi/dXoFlCB_lOA/mqdefault.jpg","viewCount":"1469","playlistId":"PLEkQk5xrP-tm8ZIu74nTOZN9KJUJu416J","playlistName":"Ù…Ù‚Ø§Ø·Ø¹ Ù…ÙÙ‡Ù…ÙÙ‘Ø© (ÙŠÙØ³Ø±ÙŠÙ‘ÙØ§Øª) Ø£.Ø¯. ÙŠØ³Ø±ÙŠ Ø¬Ø¨Ø±","category":"Ù…ØªÙ†ÙˆØ¹"},{"id":"Pj15CTxcvko","title":"Ø¥ÙÙ„Ù‘ÙØ§ ØªÙÙ†ØµÙØ±ÙÙˆÙ‡Ù ÙÙÙ‚ÙØ¯Ù’ Ù†ÙØµÙØ±ÙÙ‡Ù Ø§Ù„Ù„Ù‘ÙÙ‡Ù","publishedAt":"2020-08-28T10:30:26Z","duration":"PT32M38S","thumbnail":"https://i.ytimg.com/vi/Pj15CTxcvko/mqdefault.jpg","viewCount":"1469","playlistId":"PLEkQk5xrP-tm8ZIu74nTOZN9KJUJu416J","playlistName":"Ù…Ù‚Ø§Ø·Ø¹ Ù…ÙÙ‡Ù…ÙÙ‘Ø© (ÙŠÙØ³Ø±ÙŠÙ‘ÙØ§Øª) Ø£.Ø¯. ÙŠØ³Ø±ÙŠ Ø¬Ø¨Ø±","category":"Ù…ØªÙ†ÙˆØ¹"},{"id":"C-jjE-3oO9U","title":"Ù…ÙÙ†Ù Ø§Ù„ÙÙÙˆÙØ§Ø¦ÙØ¯Ù Ø§Ù„ÙŠÙØ³Ø±ÙÙŠÙ‘ÙØ©Ù Ø­ÙÙˆÙ’Ù„Ù Ù…ÙØ¹Ù’Ù†ÙÙ‰ Ø§Ù„Ø¯ÙÙ‡ÙØ´Ù ÙˆÙØ§Ù„Ù‡ÙÙŠÙÙ…ÙØ§Ù†Ù - Ø¯. ÙŠØ³Ø±ÙŠ Ø¬Ø¨Ø±","publishedAt":"2015-04-28T13:10:27Z","duration":"PT1M4S","thumbnail":"https://i.ytimg.com/vi/C-jjE-3oO9U/mqdefault.jpg","viewCount":"1460","playlistId":"PLEkQk5xrP-tm8ZIu74nTOZN9KJUJu416J","playlistName":"Ù…Ù‚Ø§Ø·Ø¹ Ù…ÙÙ‡Ù…ÙÙ‘Ø© (ÙŠÙØ³Ø±ÙŠÙ‘ÙØ§Øª) Ø£.Ø¯. ÙŠØ³Ø±ÙŠ Ø¬Ø¨Ø±","category":"Ù…ØªÙ†ÙˆØ¹"},{"id":"YCg4Uyl_dsA","title":"Ø§Ù„ÙÙØªÙ’Ø­   Ø£.Ø¯. ÙŠØ³Ø±ÙŠ Ø¬Ø¨Ø±","publishedAt":"2019-01-06T20:23:04Z","duration":"PT3M44S","thumbnail":"https://i.ytimg.com/vi/YCg4Uyl_dsA/mqdefault.jpg","viewCount":"1447","playlistId":"PLEkQk5xrP-tm8ZIu74nTOZN9KJUJu416J","playlistName":"Ù…Ù‚Ø§Ø·Ø¹ Ù…ÙÙ‡Ù…ÙÙ‘Ø© (ÙŠÙØ³Ø±ÙŠÙ‘ÙØ§Øª) Ø£.Ø¯. ÙŠØ³Ø±ÙŠ Ø¬Ø¨Ø±","category":"Ù…ØªÙ†ÙˆØ¹"},{"id":"OgXSD7oZ-Fs","title":"Ø³ÙˆØ±Ø© Ø§Ù„Ø£Ù†Ø¨ÙŠØ§Ø¡ ÙˆØ§Ù„Ø­Ø¬ ÙˆÙ‚ØµØ© Ø§Ù„ØºØ±Ø§Ù†ÙŠÙ‚","publishedAt":"2014-08-15T23:40:47Z","duration":"PT59M9S","thumbnail":"https://i.ytimg.com/vi/OgXSD7oZ-Fs/mqdefault.jpg","viewCount":"1411","playlistId":"PLEkQk5xrP-tm8ZIu74nTOZN9KJUJu416J","playlistName":"Ù…Ù‚Ø§Ø·Ø¹ Ù…ÙÙ‡Ù…ÙÙ‘Ø© (ÙŠÙØ³Ø±ÙŠÙ‘ÙØ§Øª) Ø£.Ø¯. ÙŠØ³Ø±ÙŠ Ø¬Ø¨Ø±","category":"Ù…ØªÙ†ÙˆØ¹"},{"id":"MCk_un62AAw","title":"Ø®Ø·Ø¨Ø© Ø§Ù„Ø¬Ù…Ø¹Ø© | Ø¨Ø±Ø´Ù„ÙˆÙ†Ø© - Ø¥Ø³Ø¨Ø§Ù†ÙŠØ§ğŸ“","publishedAt":"2025-11-07T18:00:21Z","duration":"PT20M20S","thumbnail":"https://i.ytimg.com/vi/MCk_un62AAw/mqdefault.jpg","viewCount":"1406","playlistId":"PLEkQk5xrP-tm8ZIu74nTOZN9KJUJu416J","playlistName":"Ù…Ù‚Ø§Ø·Ø¹ Ù…ÙÙ‡Ù…ÙÙ‘Ø© (ÙŠÙØ³Ø±ÙŠÙ‘ÙØ§Øª) Ø£.Ø¯. ÙŠØ³Ø±ÙŠ Ø¬Ø¨Ø±","category":"Ù…ØªÙ†ÙˆØ¹"},{"id":"ezqYiYnTCkc","title":"Ù…ÙÙ‡ÙˆÙ… Ø§Ù„Ø£ÙÙ…Ù‘ÙÙŠÙ‘ÙØ© ÙÙŠ Ø§Ù„Ù‚Ø±Ø¢Ù†.  Ø£.Ø¯/ ÙŠØ³Ø±ÙŠ Ø¬Ø¨Ø±","publishedAt":"2020-01-19T20:48:21Z","duration":"PT6M2S","thumbnail":"https://i.ytimg.com/vi/ezqYiYnTCkc/mqdefault.jpg","viewCount":"1401","playlistId":"PLEkQk5xrP-tm8ZIu74nTOZN9KJUJu416J","playlistName":"Ù…Ù‚Ø§Ø·Ø¹ Ù…ÙÙ‡Ù…ÙÙ‘Ø© (ÙŠÙØ³Ø±ÙŠÙ‘ÙØ§Øª) Ø£.Ø¯. ÙŠØ³Ø±ÙŠ Ø¬Ø¨Ø±","category":"Ù…ØªÙ†ÙˆØ¹"},{"id":"q3TysWWyoZ0","title":"ÙƒÙŠÙ ÙŠØªØ¹Ø§Ù…Ù„ Ø§Ù„Ù…Ø³Ù„Ù… ÙÙŠ Ø£ÙˆØ±ÙˆØ¨Ø§ ÙˆØ¨Ù„Ø§Ø¯ Ø§Ù„ØºØ±Ø¨ Ù…Ø¹ Ø§Ù„ØªØ­Ø¯ÙŠØ§Øª Ø§Ù„ØªÙŠ ØªÙˆØ§Ø¬Ù‡Ù‡ØŸ","publishedAt":"2025-11-06T18:01:03Z","duration":"PT20M30S","thumbnail":"https://i.ytimg.com/vi/q3TysWWyoZ0/mqdefault.jpg","viewCount":"1330","playlistId":"PLEkQk5xrP-tm8ZIu74nTOZN9KJUJu416J","playlistName":"Ù…Ù‚Ø§Ø·Ø¹ Ù…ÙÙ‡Ù…ÙÙ‘Ø© (ÙŠÙØ³Ø±ÙŠÙ‘ÙØ§Øª) Ø£.Ø¯. ÙŠØ³Ø±ÙŠ Ø¬Ø¨Ø±","category":"Ù…ØªÙ†ÙˆØ¹"},{"id":"LJ8HDvJsAVc","title":"Ø§Ø®ØªØ±Ø§Ø¹Ø§Øª Ø¥Ø³Ù„Ø§Ù…ÙŠØ©","publishedAt":"2020-09-23T19:39:11Z","duration":"PT12M1S","thumbnail":"https://i.ytimg.com/vi/LJ8HDvJsAVc/mqdefault.jpg","viewCount":"1300","playlistId":"PLEkQk5xrP-tm8ZIu74nTOZN9KJUJu416J","playlistName":"Ù…Ù‚Ø§Ø·Ø¹ Ù…ÙÙ‡Ù…ÙÙ‘Ø© (ÙŠÙØ³Ø±ÙŠÙ‘ÙØ§Øª) Ø£.Ø¯. ÙŠØ³Ø±ÙŠ Ø¬Ø¨Ø±","category":"Ù…ØªÙ†ÙˆØ¹"},{"id":"lKZvveB0FEw","title":"ØµÙ„Ø§Ø©Ù Ø§Ù„ÙƒÙØ³ÙÙˆÙ ÙˆÙƒÙŠÙÙŠØªÙ‡Ø§","publishedAt":"2020-06-21T01:16:32Z","duration":"PT6M20S","thumbnail":"https://i.ytimg.com/vi/lKZvveB0FEw/mqdefault.jpg","viewCount":"1240","playlistId":"PLEkQk5xrP-tm8ZIu74nTOZN9KJUJu416J","playlistName":"Ù…Ù‚Ø§Ø·Ø¹ Ù…ÙÙ‡Ù…ÙÙ‘Ø© (ÙŠÙØ³Ø±ÙŠÙ‘ÙØ§Øª) Ø£.Ø¯. ÙŠØ³Ø±ÙŠ Ø¬Ø¨Ø±","category":"Ù…ØªÙ†ÙˆØ¹"},{"id":"x9oqTvfjzP0","title":"Ø£Ø­ÙƒØ§Ù… Ø§Ù„Ø£Ø¶Ø­ÙŠØ©","publishedAt":"2020-07-23T15:33:20Z","duration":"PT22M23S","thumbnail":"https://i.ytimg.com/vi/x9oqTvfjzP0/mqdefault.jpg","viewCount":"1232","playlistId":"PLEkQk5xrP-tm8ZIu74nTOZN9KJUJu416J","playlistName":"Ù…Ù‚Ø§Ø·Ø¹ Ù…ÙÙ‡Ù…ÙÙ‘Ø© (ÙŠÙØ³Ø±ÙŠÙ‘ÙØ§Øª) Ø£.Ø¯. ÙŠØ³Ø±ÙŠ Ø¬Ø¨Ø±","category":"Ù…ØªÙ†ÙˆØ¹"},{"id":"KqvHQXrACvk","title":"Ø£Ø³Ù…Ø§Ø¡Ù Ø§Ù„Ù†ÙÙ‘Ø¨ÙŠÙ‘ ï·º 3","publishedAt":"2020-11-12T20:54:54Z","duration":"PT25M12S","thumbnail":"https://i.ytimg.com/vi/KqvHQXrACvk/mqdefault.jpg","viewCount":"1209","playlistId":"PLEkQk5xrP-tm8ZIu74nTOZN9KJUJu416J","playlistName":"Ù…Ù‚Ø§Ø·Ø¹ Ù…ÙÙ‡Ù…ÙÙ‘Ø© (ÙŠÙØ³Ø±ÙŠÙ‘ÙØ§Øª) Ø£.Ø¯. ÙŠØ³Ø±ÙŠ Ø¬Ø¨Ø±","category":"Ù…ØªÙ†ÙˆØ¹"},{"id":"nFl6XCJ8_Ec","title":"Ø§Ù„ÙØ±Ù‚Ù Ø¨ÙÙŠÙ†Ù ØµÙÙ„Ù‘Ù ÙˆÙØµÙÙ„Ù‘ÙÙ‰","publishedAt":"2020-01-05T16:29:15Z","duration":"PT1M8S","thumbnail":"https://i.ytimg.com/vi/nFl6XCJ8_Ec/mqdefault.jpg","viewCount":"1171","playlistId":"PLEkQk5xrP-tm8ZIu74nTOZN9KJUJu416J","playlistName":"Ù…Ù‚Ø§Ø·Ø¹ Ù…ÙÙ‡Ù…ÙÙ‘Ø© (ÙŠÙØ³Ø±ÙŠÙ‘ÙØ§Øª) Ø£.Ø¯. ÙŠØ³Ø±ÙŠ Ø¬Ø¨Ø±","category":"Ù…ØªÙ†ÙˆØ¹"},{"id":"MDTc19LCwx8","title":"Ø¥Ø­ÙŠØ§Ø¡ Ù„ÙŠÙ„Ø© Ø§Ù„Ù†ØµÙ Ù…Ù† Ø´Ø¹Ø¨Ø§Ù† Ø¯. ÙŠØ³Ø±ÙŠ Ø¬Ø¨Ø±","publishedAt":"2018-05-01T10:48:49Z","duration":"PT40M58S","thumbnail":"https://i.ytimg.com/vi/MDTc19LCwx8/mqdefault.jpg","viewCount":"1154","playlistId":"PLEkQk5xrP-tm8ZIu74nTOZN9KJUJu416J","playlistName":"Ù…Ù‚Ø§Ø·Ø¹ Ù…ÙÙ‡Ù…ÙÙ‘Ø© (ÙŠÙØ³Ø±ÙŠÙ‘ÙØ§Øª) Ø£.Ø¯. ÙŠØ³Ø±ÙŠ Ø¬Ø¨Ø±","category":"Ù…ØªÙ†ÙˆØ¹"}],"total":560,"page":23,"pageSize":24,"totalPages":24}