{"items":[{"id":"aa-ymM-PBpo","title":"Ø§Ù„Ø¥Ø´ÙØ§Ù‚ Ø¹Ù„Ù‰ Ø§Ù„Ø®ÙÙ„Ù’Ù‚ ÙˆØ±Ø§Ø«Ø© Ù†Ø¨ÙˆÙŠØ©","publishedAt":"2020-07-26T19:58:39Z","duration":"PT16M11S","thumbnail":"https://i.ytimg.com/vi/aa-ymM-PBpo/mqdefault.jpg","viewCount":"11421","playlistId":"PLEkQk5xrP-tm8ZIu74nTOZN9KJUJu416J","playlistName":"Ù…Ù‚Ø§Ø·Ø¹ Ù…ÙÙ‡Ù…ÙÙ‘Ø© (ÙŠÙØ³Ø±ÙŠÙ‘ÙØ§Øª) Ø£.Ø¯. ÙŠØ³Ø±ÙŠ Ø¬Ø¨Ø±","category":"Ù…ØªÙ†ÙˆØ¹"},{"id":"STe23jnJQdc","title":"Ù…Ø§ Ø³Ø± Ø²ÙŠØ§Ø¯Ø© Ø§Ù„Ø±Ø²Ù‚ØŸ","publishedAt":"2023-06-08T17:00:26Z","duration":"PT8M10S","thumbnail":"https://i.ytimg.com/vi/STe23jnJQdc/mqdefault.jpg","viewCount":"11384","playlistId":"PLEkQk5xrP-tm8ZIu74nTOZN9KJUJu416J","playlistName":"Ù…Ù‚Ø§Ø·Ø¹ Ù…ÙÙ‡Ù…ÙÙ‘Ø© (ÙŠÙØ³Ø±ÙŠÙ‘ÙØ§Øª) Ø£.Ø¯. ÙŠØ³Ø±ÙŠ Ø¬Ø¨Ø±","category":"Ù…ØªÙ†ÙˆØ¹"},{"id":"ZO5JFAdwJaY","title":"Ø¨Ø°ÙÙƒÙ’Ø±ÙÙ‰ Ø§Ù„Ù…ÙˆÙ„Ø¯Ù Ù†Ø­ÙŠØ§","publishedAt":"2020-11-01T18:05:30Z","duration":"PT19M42S","thumbnail":"https://i.ytimg.com/vi/ZO5JFAdwJaY/mqdefault.jpg","viewCount":"11193","playlistId":"PLEkQk5xrP-tm8ZIu74nTOZN9KJUJu416J","playlistName":"Ù…Ù‚Ø§Ø·Ø¹ Ù…ÙÙ‡Ù…ÙÙ‘Ø© (ÙŠÙØ³Ø±ÙŠÙ‘ÙØ§Øª) Ø£.Ø¯. ÙŠØ³Ø±ÙŠ Ø¬Ø¨Ø±","category":"Ù…ØªÙ†ÙˆØ¹"},{"id":"xTd-SgLdn_o","title":"ÙƒÙŠÙ ØªØªØ¹Ø§Ù…Ù„ Ù…Ø¹ Ø®Ù„Ø§ÙØ§Øª Ø§Ù„Ø¥Ø®ÙˆØ© ÙˆØ§Ù„Ø£Ù‚Ø§Ø±Ø¨ØŸ","publishedAt":"2022-05-17T18:00:26Z","duration":"PT8M32S","thumbnail":"https://i.ytimg.com/vi/xTd-SgLdn_o/mqdefault.jpg","viewCount":"11191","playlistId":"PLEkQk5xrP-tm8ZIu74nTOZN9KJUJu416J","playlistName":"Ù…Ù‚Ø§Ø·Ø¹ Ù…ÙÙ‡Ù…ÙÙ‘Ø© (ÙŠÙØ³Ø±ÙŠÙ‘ÙØ§Øª) Ø£.Ø¯. ÙŠØ³Ø±ÙŠ Ø¬Ø¨Ø±","category":"Ù…ØªÙ†ÙˆØ¹"},{"id":"Lkho4XMm9-Y","title":"Ø¥Ø­ÙŠØ§Ø¡ Ù„ÙŠÙ„Ø© Ø§Ù„Ø¥Ø³Ø±Ø§Ø¡ ÙˆØ§Ù„Ù…Ø¹Ø±Ø§Ø¬ | Ù…Ù† Ù„ÙŠØ§Ù„ÙŠ Ø§Ù„Ù…Ø¯ÙŠÙ†Ø© Ø§Ù„Ù…Ù†ÙˆØ±Ø©ğŸ“","publishedAt":"2025-01-26T17:15:00Z","duration":"PT1H3M10S","thumbnail":"https://i.ytimg.com/vi/Lkho4XMm9-Y/mqdefault.jpg","viewCount":"11156","playlistId":"PLEkQk5xrP-tm8ZIu74nTOZN9KJUJu416J","playlistName":"Ù…Ù‚Ø§Ø·Ø¹ Ù…ÙÙ‡Ù…ÙÙ‘Ø© (ÙŠÙØ³Ø±ÙŠÙ‘ÙØ§Øª) Ø£.Ø¯. ÙŠØ³Ø±ÙŠ Ø¬Ø¨Ø±","category":"Ù…ØªÙ†ÙˆØ¹"},{"id":"FaznfDbYnBs","title":"Ù…ÙÙ‡ÙˆÙ… Ø·Ø¨ÙŠ Ù„Ù„Ø³Ø¹ÙŠ Ø¥Ù„Ù‰ Ø§Ù„ØµÙ„Ø§Ø©","publishedAt":"2021-07-24T17:30:01Z","duration":"PT26M12S","thumbnail":"https://i.ytimg.com/vi/FaznfDbYnBs/mqdefault.jpg","viewCount":"11148","playlistId":"PLEkQk5xrP-tm8ZIu74nTOZN9KJUJu416J","playlistName":"Ù…Ù‚Ø§Ø·Ø¹ Ù…ÙÙ‡Ù…ÙÙ‘Ø© (ÙŠÙØ³Ø±ÙŠÙ‘ÙØ§Øª) Ø£.Ø¯. ÙŠØ³Ø±ÙŠ Ø¬Ø¨Ø±","category":"Ù…ØªÙ†ÙˆØ¹"},{"id":"Ab6YwjOAK8k","title":"ÙˆØµÙÙ Ø§Ù„Ù†Ù‘ÙØ¨ÙŠÙ‘ ï·º Ø£.Ø¯. ÙŠØ³Ø±ÙŠ Ø¬Ø¨Ø±","publishedAt":"2021-01-14T17:37:24Z","duration":"PT8M15S","thumbnail":"https://i.ytimg.com/vi/Ab6YwjOAK8k/mqdefault.jpg","viewCount":"11114","playlistId":"PLEkQk5xrP-tm8ZIu74nTOZN9KJUJu416J","playlistName":"Ù…Ù‚Ø§Ø·Ø¹ Ù…ÙÙ‡Ù…ÙÙ‘Ø© (ÙŠÙØ³Ø±ÙŠÙ‘ÙØ§Øª) Ø£.Ø¯. ÙŠØ³Ø±ÙŠ Ø¬Ø¨Ø±","category":"Ù…ØªÙ†ÙˆØ¹"},{"id":"MYDWOsFv5uQ","title":"Ù…Ø§ Ù‡Ùˆ Ø§Ù„ÙØªØ­ Ø¹Ù†Ø¯ Ø§Ù„ØµÙˆÙÙŠØ© ÙˆÙ‡Ù„ ÙŠÙƒÙˆÙ† Ù„Ù„Ø£ÙˆÙ„ÙŠØ§Ø¡ ÙÙ‚Ø·ØŸ","publishedAt":"2024-09-08T17:18:36Z","duration":"PT8M34S","thumbnail":"https://i.ytimg.com/vi/MYDWOsFv5uQ/mqdefault.jpg","viewCount":"10977","playlistId":"PLEkQk5xrP-tm8ZIu74nTOZN9KJUJu416J","playlistName":"Ù…Ù‚Ø§Ø·Ø¹ Ù…ÙÙ‡Ù…ÙÙ‘Ø© (ÙŠÙØ³Ø±ÙŠÙ‘ÙØ§Øª) Ø£.Ø¯. ÙŠØ³Ø±ÙŠ Ø¬Ø¨Ø±","category":"Ù…ØªÙ†ÙˆØ¹"},{"id":"ABuVV5OkLxY","title":"Ù…Ø§ Ø§Ù„Ù…Ù‚ØµÙˆØ¯ Ø¨ØªÙ‚Ø§Ø±Ø¨ Ø§Ù„Ø²Ù…Ø§Ù† ÙƒÙ…Ø§ Ø£Ø®Ø¨Ø± Ø§Ù„Ù†Ø¨ÙŠØŸ (Ù…ÙÙ‡ÙˆÙ… Ø¹ØµØ±ÙŠ)","publishedAt":"2014-11-11T11:35:00Z","duration":"PT11M30S","thumbnail":"https://i.ytimg.com/vi/ABuVV5OkLxY/mqdefault.jpg","viewCount":"10736","playlistId":"PLEkQk5xrP-tm8ZIu74nTOZN9KJUJu416J","playlistName":"Ù…Ù‚Ø§Ø·Ø¹ Ù…ÙÙ‡Ù…ÙÙ‘Ø© (ÙŠÙØ³Ø±ÙŠÙ‘ÙØ§Øª) Ø£.Ø¯. ÙŠØ³Ø±ÙŠ Ø¬Ø¨Ø±","category":"Ù…ØªÙ†ÙˆØ¹"},{"id":"Wn-XAVRMFJE","title":"Ø§Ù…Ø¯Ø§Ø¯Ø§Øª Ø§Ù„Ù†Ù‘ÙØ¨ÙŠÙ‘ ï·º","publishedAt":"2021-09-12T18:00:17Z","duration":"PT26M47S","thumbnail":"https://i.ytimg.com/vi/Wn-XAVRMFJE/mqdefault.jpg","viewCount":"10557","playlistId":"PLEkQk5xrP-tm8ZIu74nTOZN9KJUJu416J","playlistName":"Ù…Ù‚Ø§Ø·Ø¹ Ù…ÙÙ‡Ù…ÙÙ‘Ø© (ÙŠÙØ³Ø±ÙŠÙ‘ÙØ§Øª) Ø£.Ø¯. ÙŠØ³Ø±ÙŠ Ø¬Ø¨Ø±","category":"Ù…ØªÙ†ÙˆØ¹"},{"id":"cR2bTxvbyBc","title":"Ø³ÙØ±Ù‘Ù ØªØ¹Ù„Ù‘ÙÙ‚ Ø§Ù„Ù…ØµØ±ÙŠÙŠÙ† Ø¨Ø§Ù„Ø£Ø¶Ø±Ø­Ø© ÙˆØ§Ù„Ù…Ù‚Ø§Ù…Ø§Øª","publishedAt":"2021-04-23T19:15:02Z","duration":"PT29M16S","thumbnail":"https://i.ytimg.com/vi/cR2bTxvbyBc/mqdefault.jpg","viewCount":"10551","playlistId":"PLEkQk5xrP-tm8ZIu74nTOZN9KJUJu416J","playlistName":"Ù…Ù‚Ø§Ø·Ø¹ Ù…ÙÙ‡Ù…ÙÙ‘Ø© (ÙŠÙØ³Ø±ÙŠÙ‘ÙØ§Øª) Ø£.Ø¯. ÙŠØ³Ø±ÙŠ Ø¬Ø¨Ø±","category":"Ù…ØªÙ†ÙˆØ¹"},{"id":"TKslnPSM0DQ","title":"ÙƒÙŠÙ ØªØ±Ø¨ÙŠ Ø£ÙˆÙ„Ø§Ø¯Ùƒ ØªØ±Ø¨ÙŠØ© ØµØ­ÙŠØ­Ø© ÙÙŠ Ù‡Ø°Ø§ Ø§Ù„Ø²Ù…Ø§Ù†ØŸ","publishedAt":"2022-01-24T19:00:10Z","duration":"PT13M3S","thumbnail":"https://i.ytimg.com/vi/TKslnPSM0DQ/mqdefault.jpg","viewCount":"10532","playlistId":"PLEkQk5xrP-tm8ZIu74nTOZN9KJUJu416J","playlistName":"Ù…Ù‚Ø§Ø·Ø¹ Ù…ÙÙ‡Ù…ÙÙ‘Ø© (ÙŠÙØ³Ø±ÙŠÙ‘ÙØ§Øª) Ø£.Ø¯. ÙŠØ³Ø±ÙŠ Ø¬Ø¨Ø±","category":"Ù…ØªÙ†ÙˆØ¹"},{"id":"TNw5L8Ni4E4","title":"Ø£Ø­Ø¯Ø§Ø« ÙŠÙˆÙ… Ø§Ù„Ù‚ÙŠØ§Ù…Ø©","publishedAt":"2020-11-24T18:03:35Z","duration":"PT8M7S","thumbnail":"https://i.ytimg.com/vi/TNw5L8Ni4E4/mqdefault.jpg","viewCount":"10517","playlistId":"PLEkQk5xrP-tm8ZIu74nTOZN9KJUJu416J","playlistName":"Ù…Ù‚Ø§Ø·Ø¹ Ù…ÙÙ‡Ù…ÙÙ‘Ø© (ÙŠÙØ³Ø±ÙŠÙ‘ÙØ§Øª) Ø£.Ø¯. ÙŠØ³Ø±ÙŠ Ø¬Ø¨Ø±","category":"Ù…ØªÙ†ÙˆØ¹"},{"id":"YHtfYfGUIOA","title":"Ù…ÙŠÙ† Ø§Ù„Ø­Ù…Ø§Ø± Ø§Ù„ÙŠ Ø§Ø´ØªØºÙ„ Ù‚Ø¨Ù„ÙŠğŸ˜¡| Ø§Ù„Ù…Ù†Ø§ÙØ³Ø© ÙÙŠ Ø³ÙˆÙ‚ Ø§Ù„Ø¹Ù…Ù„","publishedAt":"2022-05-16T19:31:56Z","duration":"PT12M43S","thumbnail":"https://i.ytimg.com/vi/YHtfYfGUIOA/mqdefault.jpg","viewCount":"10516","playlistId":"PLEkQk5xrP-tm8ZIu74nTOZN9KJUJu416J","playlistName":"Ù…Ù‚Ø§Ø·Ø¹ Ù…ÙÙ‡Ù…ÙÙ‘Ø© (ÙŠÙØ³Ø±ÙŠÙ‘ÙØ§Øª) Ø£.Ø¯. ÙŠØ³Ø±ÙŠ Ø¬Ø¨Ø±","category":"Ù…ØªÙ†ÙˆØ¹"},{"id":"yoMApCrOtT0","title":"Ù‡Ù„ ÙŠØ¬Ø¨ Ø£Ø®Ø° Ø§Ù„Ø¥Ø°Ù† Ø¹Ù†Ø¯ Ø§Ù„Ø°ÙƒØ±ØŸ","publishedAt":"2021-06-23T17:58:22Z","duration":"PT10M33S","thumbnail":"https://i.ytimg.com/vi/yoMApCrOtT0/mqdefault.jpg","viewCount":"10414","playlistId":"PLEkQk5xrP-tm8ZIu74nTOZN9KJUJu416J","playlistName":"Ù…Ù‚Ø§Ø·Ø¹ Ù…ÙÙ‡Ù…ÙÙ‘Ø© (ÙŠÙØ³Ø±ÙŠÙ‘ÙØ§Øª) Ø£.Ø¯. ÙŠØ³Ø±ÙŠ Ø¬Ø¨Ø±","category":"Ù…ØªÙ†ÙˆØ¹"},{"id":"aJJ8Z8Rd6I4","title":"Ø£ÙØ«ÙØ±Ù Ø§Ù„ØµÙÙˆÙ’ØªÙ Ø¹ÙÙ„ÙÙ‰ Ø§Ù„Ø¥ÙØ¯Ù’Ø±ÙØ§ÙƒÙ ÙˆÙØ¹ÙÙ„ÙÙ‰ Ø§Ù„ÙˆØ¬ÙÙˆØ¯Ù . Ø¯. ÙŠØ³Ø±Ù‰ Ø¬Ø¨Ø±","publishedAt":"2015-07-04T13:06:22Z","duration":"PT24M42S","thumbnail":"https://i.ytimg.com/vi/aJJ8Z8Rd6I4/mqdefault.jpg","viewCount":"10410","playlistId":"PLEkQk5xrP-tm8ZIu74nTOZN9KJUJu416J","playlistName":"Ù…Ù‚Ø§Ø·Ø¹ Ù…ÙÙ‡Ù…ÙÙ‘Ø© (ÙŠÙØ³Ø±ÙŠÙ‘ÙØ§Øª) Ø£.Ø¯. ÙŠØ³Ø±ÙŠ Ø¬Ø¨Ø±","category":"Ù…ØªÙ†ÙˆØ¹"},{"id":"5a3_Q17u3Ks","title":"Ù…Ù† Ø§Ù„Ø³Ù†Ù† Ø§Ù„Ù…Ù‡Ø¬ÙˆØ±Ø© ÙÙŠ Ø§Ù„ØªØ±Ø¨ÙŠØ©   Ø¯. ÙŠØ³Ø±ÙŠ Ø¬Ø¨Ø±","publishedAt":"2018-05-20T18:05:12Z","duration":"PT6M44S","thumbnail":"https://i.ytimg.com/vi/5a3_Q17u3Ks/mqdefault.jpg","viewCount":"10374","playlistId":"PLEkQk5xrP-tm8ZIu74nTOZN9KJUJu416J","playlistName":"Ù…Ù‚Ø§Ø·Ø¹ Ù…ÙÙ‡Ù…ÙÙ‘Ø© (ÙŠÙØ³Ø±ÙŠÙ‘ÙØ§Øª) Ø£.Ø¯. ÙŠØ³Ø±ÙŠ Ø¬Ø¨Ø±","category":"Ù…ØªÙ†ÙˆØ¹"},{"id":"P7GEy823OZ0","title":"Ø­ØµØ§Ø¯ 2023","publishedAt":"2023-12-30T18:38:41Z","duration":"PT31M13S","thumbnail":"https://i.ytimg.com/vi/P7GEy823OZ0/mqdefault.jpg","viewCount":"10323","playlistId":"PLEkQk5xrP-tm8ZIu74nTOZN9KJUJu416J","playlistName":"Ù…Ù‚Ø§Ø·Ø¹ Ù…ÙÙ‡Ù…ÙÙ‘Ø© (ÙŠÙØ³Ø±ÙŠÙ‘ÙØ§Øª) Ø£.Ø¯. ÙŠØ³Ø±ÙŠ Ø¬Ø¨Ø±","category":"Ù…ØªÙ†ÙˆØ¹"},{"id":"-zpF6IDpihs","title":"Ù„ÙƒÙ„ Ù…Ù† ÙÙ‚Ø¯ Ø¹Ø²ÙŠØ²Ù‹Ø§ Ø¹Ù„Ù‰ Ù‚Ù„Ø¨Ù‡ â€‹| Ù†ØµØ§Ø¦Ø­ Ù…Ù‡Ù…Ø©","publishedAt":"2021-06-04T19:27:05Z","duration":"PT12M24S","thumbnail":"https://i.ytimg.com/vi/-zpF6IDpihs/mqdefault.jpg","viewCount":"10300","playlistId":"PLEkQk5xrP-tm8ZIu74nTOZN9KJUJu416J","playlistName":"Ù…Ù‚Ø§Ø·Ø¹ Ù…ÙÙ‡Ù…ÙÙ‘Ø© (ÙŠÙØ³Ø±ÙŠÙ‘ÙØ§Øª) Ø£.Ø¯. ÙŠØ³Ø±ÙŠ Ø¬Ø¨Ø±","category":"Ù…ØªÙ†ÙˆØ¹"},{"id":"Gx2FLVypVC4","title":"Ø£Ø³Ø±Ø§Ø± ÙˆÙ…Ø¹Ø§Ù†ÙŠ Ø­ÙˆÙ„ Ø§Ù„Ø­Ù‚ÙŠÙ‚Ø© Ø§Ù„Ù…Ø­Ù…Ø¯ÙŠØ©","publishedAt":"2023-03-02T18:00:11Z","duration":"PT22M30S","thumbnail":"https://i.ytimg.com/vi/Gx2FLVypVC4/mqdefault.jpg","viewCount":"10259","playlistId":"PLEkQk5xrP-tm8ZIu74nTOZN9KJUJu416J","playlistName":"Ù…Ù‚Ø§Ø·Ø¹ Ù…ÙÙ‡Ù…ÙÙ‘Ø© (ÙŠÙØ³Ø±ÙŠÙ‘ÙØ§Øª) Ø£.Ø¯. ÙŠØ³Ø±ÙŠ Ø¬Ø¨Ø±","category":"Ù…ØªÙ†ÙˆØ¹"},{"id":"D-gyJ81l7TY","title":"ÙƒÙŠÙ Ù†Ø±Ø¨ÙŠ Ø£ÙˆÙ„Ø§Ø¯Ù†Ø§ ØªØ±Ø¨ÙŠØ© ØµØ­ÙŠØ­Ø©ØŸ","publishedAt":"2022-10-23T18:00:05Z","duration":"PT15M29S","thumbnail":"https://i.ytimg.com/vi/D-gyJ81l7TY/mqdefault.jpg","viewCount":"10247","playlistId":"PLEkQk5xrP-tm8ZIu74nTOZN9KJUJu416J","playlistName":"Ù…Ù‚Ø§Ø·Ø¹ Ù…ÙÙ‡Ù…ÙÙ‘Ø© (ÙŠÙØ³Ø±ÙŠÙ‘ÙØ§Øª) Ø£.Ø¯. ÙŠØ³Ø±ÙŠ Ø¬Ø¨Ø±","category":"Ù…ØªÙ†ÙˆØ¹"},{"id":"Yj5Lr0WKzDY","title":"Ø£Ø­ÙˆØ§Ù„ Ø§Ù„Ù‚Ù„Ø¨ ÙØ¶Ù„ Ù…Ù† Ø§Ù„Ù„Ù‡","publishedAt":"2020-09-30T19:26:11Z","duration":"PT13M29S","thumbnail":"https://i.ytimg.com/vi/Yj5Lr0WKzDY/mqdefault.jpg","viewCount":"10210","playlistId":"PLEkQk5xrP-tm8ZIu74nTOZN9KJUJu416J","playlistName":"Ù…Ù‚Ø§Ø·Ø¹ Ù…ÙÙ‡Ù…ÙÙ‘Ø© (ÙŠÙØ³Ø±ÙŠÙ‘ÙØ§Øª) Ø£.Ø¯. ÙŠØ³Ø±ÙŠ Ø¬Ø¨Ø±","category":"Ù…ØªÙ†ÙˆØ¹"},{"id":"datzEoo9P64","title":"ÙØ¶Ù„ ÙˆÙƒÙ†ÙˆØ² Ø§Ù„ØµÙ„Ø§Ø© Ø¹Ù„Ù‰ Ø§Ù„Ù†Ø¨ÙŠ ï·º","publishedAt":"2025-11-08T17:01:05Z","duration":"PT28M54S","thumbnail":"https://i.ytimg.com/vi/datzEoo9P64/mqdefault.jpg","viewCount":"10131","playlistId":"PLEkQk5xrP-tm8ZIu74nTOZN9KJUJu416J","playlistName":"Ù…Ù‚Ø§Ø·Ø¹ Ù…ÙÙ‡Ù…ÙÙ‘Ø© (ÙŠÙØ³Ø±ÙŠÙ‘ÙØ§Øª) Ø£.Ø¯. ÙŠØ³Ø±ÙŠ Ø¬Ø¨Ø±","category":"Ù…ØªÙ†ÙˆØ¹"},{"id":"xwX4vcjJnZc","title":"ÙƒÙ… ÙƒØ§Ù† Ø¹Ù…Ø± Ø§Ù„Ø³ÙŠØ¯Ø© Ø¹Ø§Ø¦Ø´Ø© Ø¹Ù†Ø¯Ù…Ø§ ØªØ²ÙˆØ¬Ù‡Ø§ Ø§Ù„Ù†Ø¨ÙŠ ï·ºØŸ","publishedAt":"2022-07-02T18:00:32Z","duration":"PT10M25S","thumbnail":"https://i.ytimg.com/vi/xwX4vcjJnZc/mqdefault.jpg","viewCount":"10051","playlistId":"PLEkQk5xrP-tm8ZIu74nTOZN9KJUJu416J","playlistName":"Ù…Ù‚Ø§Ø·Ø¹ Ù…ÙÙ‡Ù…ÙÙ‘Ø© (ÙŠÙØ³Ø±ÙŠÙ‘ÙØ§Øª) Ø£.Ø¯. ÙŠØ³Ø±ÙŠ Ø¬Ø¨Ø±","category":"Ù…ØªÙ†ÙˆØ¹"}],"total":560,"page":9,"pageSize":24,"totalPages":24}