{"items":[{"id":"2U_a6PJkTgc","title":"صحيح البخاري - كتاب الفرائض - باب قول النبي صلى الله عليه وسلم \"لا نورث ما تركنا صدقه","publishedAt":"2017-12-31T09:49:48Z","duration":"PT43M27S","thumbnail":"https://i.ytimg.com/vi/2U_a6PJkTgc/mqdefault.jpg","viewCount":"197","playlistId":"PLEkQk5xrP-tmJuzaj4GWRenFoFx9gdbFX","playlistName":"شرح كتاب صحيح الإمام البخاري رضي الله تعالى عنه   أ.د. يسرى جبر","category":"حديث"},{"id":"dqHRvrCprpc","title":"صحيح البخاري - كتاب الفرائض - باب ميراث الزوج مع الولد وغيره","publishedAt":"2018-01-30T13:15:08Z","duration":"PT1H5M4S","thumbnail":"https://i.ytimg.com/vi/dqHRvrCprpc/mqdefault.jpg","viewCount":"118","playlistId":"PLEkQk5xrP-tmJuzaj4GWRenFoFx9gdbFX","playlistName":"شرح كتاب صحيح الإمام البخاري رضي الله تعالى عنه   أ.د. يسرى جبر","category":"حديث"},{"id":"hJHfk6zoDGY","title":"صحيح البخاري - كتاب الفرائض - باب الولاء لمن اعتق وميراث اللقيط","publishedAt":"2018-02-04T23:39:20Z","duration":"PT47M49S","thumbnail":"https://i.ytimg.com/vi/hJHfk6zoDGY/mqdefault.jpg","viewCount":"48","playlistId":"PLEkQk5xrP-tmJuzaj4GWRenFoFx9gdbFX","playlistName":"شرح كتاب صحيح الإمام البخاري رضي الله تعالى عنه   أ.د. يسرى جبر","category":"حديث"},{"id":"IvxztUWp7Y0","title":"صحيح البخاري - كتاب الحدود","publishedAt":"2018-02-19T07:28:56Z","duration":"PT56M26S","thumbnail":"https://i.ytimg.com/vi/IvxztUWp7Y0/mqdefault.jpg","viewCount":"185","playlistId":"PLEkQk5xrP-tmJuzaj4GWRenFoFx9gdbFX","playlistName":"شرح كتاب صحيح الإمام البخاري رضي الله تعالى عنه   أ.د. يسرى جبر","category":"حديث"},{"id":"b-WLdyO9nLc","title":"صحيح البخاري - كتاب المحاربين من أهل الكفر والردة","publishedAt":"2018-03-05T18:57:45Z","duration":"PT25M48S","thumbnail":"https://i.ytimg.com/vi/b-WLdyO9nLc/mqdefault.jpg","viewCount":"159","playlistId":"PLEkQk5xrP-tmJuzaj4GWRenFoFx9gdbFX","playlistName":"شرح كتاب صحيح الإمام البخاري رضي الله تعالى عنه   أ.د. يسرى جبر","category":"حديث"},{"id":"jlu-_U0h48w","title":"شرح صحيح الإمام البخاري رضي الله عنه - كتاب الحدود باب رجم الحُبْلى من الزنا إذا أحصنت  د.يسري جبر","publishedAt":"2018-03-13T18:54:56Z","duration":"PT45M31S","thumbnail":"https://i.ytimg.com/vi/jlu-_U0h48w/mqdefault.jpg","viewCount":"332","playlistId":"PLEkQk5xrP-tmJuzaj4GWRenFoFx9gdbFX","playlistName":"شرح كتاب صحيح الإمام البخاري رضي الله تعالى عنه   أ.د. يسرى جبر","category":"حديث"},{"id":"D7kE8QWxxug","title":"صحيح الإمام البخاري رضي الله عنه - كتاب الحدود (باب نَفْي أَهْل المَعَاصِي وَالمُخَنَّثِن)د.يسري جبر","publishedAt":"2018-03-30T05:49:26Z","duration":"PT33M48S","thumbnail":"https://i.ytimg.com/vi/D7kE8QWxxug/mqdefault.jpg","viewCount":"128","playlistId":"PLEkQk5xrP-tmJuzaj4GWRenFoFx9gdbFX","playlistName":"شرح كتاب صحيح الإمام البخاري رضي الله تعالى عنه   أ.د. يسرى جبر","category":"حديث"},{"id":"mlMmU3jh_1s","title":"صحيح الإمام البخاري رضي الله عنه - كتاب الحدود ( باب كّمِ التَّعْزِيرُ والأَدَبُ ؟ ) د.يسري جبر","publishedAt":"2018-03-30T05:50:38Z","duration":"PT43M29S","thumbnail":"https://i.ytimg.com/vi/mlMmU3jh_1s/mqdefault.jpg","viewCount":"148","playlistId":"PLEkQk5xrP-tmJuzaj4GWRenFoFx9gdbFX","playlistName":"شرح كتاب صحيح الإمام البخاري رضي الله تعالى عنه   أ.د. يسرى جبر","category":"حديث"},{"id":"2bu51_cSZ7E","title":"صحيح الإمام البخاري رضي الله عنه - كتاب الديَاتِ  د.يسري جبر","publishedAt":"2018-04-01T20:53:03Z","duration":"PT37M21S","thumbnail":"https://i.ytimg.com/vi/2bu51_cSZ7E/mqdefault.jpg","viewCount":"100","playlistId":"PLEkQk5xrP-tmJuzaj4GWRenFoFx9gdbFX","playlistName":"شرح كتاب صحيح الإمام البخاري رضي الله تعالى عنه   أ.د. يسرى جبر","category":"حديث"},{"id":"wqeBDPSAEQM","title":"صحيح الإمام البخاري رضي الله عنه - كتاب الدِّيات المجلس الثاني ( د.يسري جبر)","publishedAt":"2018-04-08T16:51:47Z","duration":"PT32M1S","thumbnail":"https://i.ytimg.com/vi/wqeBDPSAEQM/mqdefault.jpg","viewCount":"137","playlistId":"PLEkQk5xrP-tmJuzaj4GWRenFoFx9gdbFX","playlistName":"شرح كتاب صحيح الإمام البخاري رضي الله تعالى عنه   أ.د. يسرى جبر","category":"حديث"},{"id":"Waqqq31HJRM","title":"صحيح الإمام البخاري رضي الله عنه - كتاب الدِّيات المجلس الثالث ( د.يسري جبر)","publishedAt":"2018-05-12T20:57:13Z","duration":"PT19M23S","thumbnail":"https://i.ytimg.com/vi/Waqqq31HJRM/mqdefault.jpg","viewCount":"120","playlistId":"PLEkQk5xrP-tmJuzaj4GWRenFoFx9gdbFX","playlistName":"شرح كتاب صحيح الإمام البخاري رضي الله تعالى عنه   أ.د. يسرى جبر","category":"حديث"},{"id":"LoC7xzp1qzI","title":"صحيح الإمام البخاري رضي الله عنه - كتاب الدِّيات المجلس الرابع ( د.يسري جبر)","publishedAt":"2018-05-22T23:25:09Z","duration":"PT34M42S","thumbnail":"https://i.ytimg.com/vi/LoC7xzp1qzI/mqdefault.jpg","viewCount":"128","playlistId":"PLEkQk5xrP-tmJuzaj4GWRenFoFx9gdbFX","playlistName":"شرح كتاب صحيح الإمام البخاري رضي الله تعالى عنه   أ.د. يسرى جبر","category":"حديث"},{"id":"ze6Zz-IK5zQ","title":"صحيح الإمام البخاري رضي الله عنه - كتاب الدِّيات - باب السن بالسن المجلس الخامس د.يسري جبر","publishedAt":"2018-07-04T17:31:13Z","duration":"PT59M27S","thumbnail":"https://i.ytimg.com/vi/ze6Zz-IK5zQ/mqdefault.jpg","viewCount":"95","playlistId":"PLEkQk5xrP-tmJuzaj4GWRenFoFx9gdbFX","playlistName":"شرح كتاب صحيح الإمام البخاري رضي الله تعالى عنه   أ.د. يسرى جبر","category":"حديث"},{"id":"arKYZiSE6y4","title":"صحيح الإمام البخاري رضي الله عنه - كتاب الدِّيات المجلس السادس د.يسري جبر","publishedAt":"2018-07-07T21:22:12Z","duration":"PT45M34S","thumbnail":"https://i.ytimg.com/vi/arKYZiSE6y4/mqdefault.jpg","viewCount":"115","playlistId":"PLEkQk5xrP-tmJuzaj4GWRenFoFx9gdbFX","playlistName":"شرح كتاب صحيح الإمام البخاري رضي الله تعالى عنه   أ.د. يسرى جبر","category":"حديث"},{"id":"iLI8CWxKCfQ","title":"صحيح الإمام البخاري رضي الله عنه - كتاب استتابة المُرْتدِّين والمُعاندين وقتالهم المجلس الأول","publishedAt":"2018-07-16T07:48:03Z","duration":"PT42M49S","thumbnail":"https://i.ytimg.com/vi/iLI8CWxKCfQ/mqdefault.jpg","viewCount":"243","playlistId":"PLEkQk5xrP-tmJuzaj4GWRenFoFx9gdbFX","playlistName":"شرح كتاب صحيح الإمام البخاري رضي الله تعالى عنه   أ.د. يسرى جبر","category":"حديث"},{"id":"t4edptwOFEY","title":"صحيح الإمام البخاري رضي الله عنه - كتاب استتابة المُرْتدِّين والمُعاندين وقتالهم المجلس الثاني.","publishedAt":"2018-07-22T22:11:27Z","duration":"PT49M37S","thumbnail":"https://i.ytimg.com/vi/t4edptwOFEY/mqdefault.jpg","viewCount":"203","playlistId":"PLEkQk5xrP-tmJuzaj4GWRenFoFx9gdbFX","playlistName":"شرح كتاب صحيح الإمام البخاري رضي الله تعالى عنه   أ.د. يسرى جبر","category":"حديث"},{"id":"z1PvjvFYYlM","title":"صحيح الإمام البخاري رضي الله عنه - كتاب استتابة المُرْتدِّين والمُعاندين وقتالهم - المجلس الثالث.","publishedAt":"2018-08-01T21:03:55Z","duration":"PT44M46S","thumbnail":"https://i.ytimg.com/vi/z1PvjvFYYlM/mqdefault.jpg","viewCount":"162","playlistId":"PLEkQk5xrP-tmJuzaj4GWRenFoFx9gdbFX","playlistName":"شرح كتاب صحيح الإمام البخاري رضي الله تعالى عنه   أ.د. يسرى جبر","category":"حديث"},{"id":"Ji_8lkAyxsk","title":"صحيح الإمام البخاري رضي الله عنه - كتاب استتابة المُرْتدِّين والمُعاندين وقتالهم - المجلس الرابع.","publishedAt":"2018-08-07T09:29:53Z","duration":"PT41M22S","thumbnail":"https://i.ytimg.com/vi/Ji_8lkAyxsk/mqdefault.jpg","viewCount":"134","playlistId":"PLEkQk5xrP-tmJuzaj4GWRenFoFx9gdbFX","playlistName":"شرح كتاب صحيح الإمام البخاري رضي الله تعالى عنه   أ.د. يسرى جبر","category":"حديث"},{"id":"6mMUK5u-Nkg","title":"صحيح الإمام البخاري رضي الله عنه - كتاب الإكراه - المجلس الأول.","publishedAt":"2018-08-15T12:08:01Z","duration":"PT34M21S","thumbnail":"https://i.ytimg.com/vi/6mMUK5u-Nkg/mqdefault.jpg","viewCount":"160","playlistId":"PLEkQk5xrP-tmJuzaj4GWRenFoFx9gdbFX","playlistName":"شرح كتاب صحيح الإمام البخاري رضي الله تعالى عنه   أ.د. يسرى جبر","category":"حديث"},{"id":"QiM4Yqv14r8","title":"شرح صحيح الإمام البخاري رضي الله تعالى عنه - كتاب الإكراه - المجلس الثاني.   د. يسري جبر","publishedAt":"2018-09-12T20:47:23Z","duration":"PT19M33S","thumbnail":"https://i.ytimg.com/vi/QiM4Yqv14r8/mqdefault.jpg","viewCount":"178","playlistId":"PLEkQk5xrP-tmJuzaj4GWRenFoFx9gdbFX","playlistName":"شرح كتاب صحيح الإمام البخاري رضي الله تعالى عنه   أ.د. يسرى جبر","category":"حديث"},{"id":"Tt8lVi9qZ7g","title":"شرح صحيح الإمام البخاري رضي الله تعالى عنه - كتاب الحِيَل ( باب في الصلاة)  د. يسري جبر","publishedAt":"2018-09-26T17:28:03Z","duration":"PT43M14S","thumbnail":"https://i.ytimg.com/vi/Tt8lVi9qZ7g/mqdefault.jpg","viewCount":"156","playlistId":"PLEkQk5xrP-tmJuzaj4GWRenFoFx9gdbFX","playlistName":"شرح كتاب صحيح الإمام البخاري رضي الله تعالى عنه   أ.د. يسرى جبر","category":"حديث"},{"id":"_x8V1crAwCY","title":"شرح صحيح الإمام البخاري رضي الله تعالى عنه - كتاب الحِيَل.  د. يسري جبر","publishedAt":"2018-10-09T17:46:05Z","duration":"PT37M22S","thumbnail":"https://i.ytimg.com/vi/_x8V1crAwCY/mqdefault.jpg","viewCount":"290","playlistId":"PLEkQk5xrP-tmJuzaj4GWRenFoFx9gdbFX","playlistName":"شرح كتاب صحيح الإمام البخاري رضي الله تعالى عنه   أ.د. يسرى جبر","category":"حديث"},{"id":"NrXZl71HD_E","title":"شرح صحيح الإمام البخاري رضي الله تعالى عنه - كتاب الحِيَل.  د. يسري جبر","publishedAt":"2018-10-17T19:56:05Z","duration":"PT30M47S","thumbnail":"https://i.ytimg.com/vi/NrXZl71HD_E/mqdefault.jpg","viewCount":"251","playlistId":"PLEkQk5xrP-tmJuzaj4GWRenFoFx9gdbFX","playlistName":"شرح كتاب صحيح الإمام البخاري رضي الله تعالى عنه   أ.د. يسرى جبر","category":"حديث"},{"id":"wlKwfcNocoo","title":"شرح صحيح الإمام البخاري رضي الله تعالى عنه - كتاب الحِيَل. د. يسري جبر","publishedAt":"2018-10-27T13:51:41Z","duration":"PT36M","thumbnail":"https://i.ytimg.com/vi/wlKwfcNocoo/mqdefault.jpg","viewCount":"282","playlistId":"PLEkQk5xrP-tmJuzaj4GWRenFoFx9gdbFX","playlistName":"شرح كتاب صحيح الإمام البخاري رضي الله تعالى عنه   أ.د. يسرى جبر","category":"حديث"}],"total":219,"page":7,"pageSize":24,"totalPages":10}