{"items":[{"id":"z25MTs3bX3o","title":"20- معرفة الله عزَّ وجلَّ - عقيدةُ العارفينَ بالله وأولياء الله الصالحين.","publishedAt":"2022-12-22T09:00:35Z","duration":"PT58M59S","thumbnail":"https://i.ytimg.com/vi/z25MTs3bX3o/mqdefault.jpg","viewCount":"9602","playlistId":"PLEkQk5xrP-tmNuYT8JAh6clwa4krsgkNo","playlistName":"شرح كتاب الفُتُوحات اليُسريَّة في عقائد الأُمَّة المُحمَّديَّة","category":"متنوع"},{"id":"QwAa5Bdz5NQ","title":"أهمية الأمانة في الاسلام","publishedAt":"2022-12-22T18:00:16Z","duration":"PT25M58S","thumbnail":"https://i.ytimg.com/vi/QwAa5Bdz5NQ/mqdefault.jpg","viewCount":"3505","playlistId":"PLEkQk5xrP-tlArtGpeLWaqNM7h7IDeAVC","playlistName":"خطب الجمعة أ.د. يسري جبر","category":"خطب"},{"id":"MY6_tqTho3o","title":"626- حرف (مِن) لبيان الجنس - شرح البرهان في علوم القرآن","publishedAt":"2022-12-23T05:00:09Z","duration":"PT18M37S","thumbnail":"https://i.ytimg.com/vi/MY6_tqTho3o/mqdefault.jpg","viewCount":"381","playlistId":"PLEkQk5xrP-tnW3iBL7HkKziOFCFZbTlf0","playlistName":"شرح البرهان في علوم القرآن - أ.د. يسري جبر","category":"تفسير"},{"id":"OeIPEpQz5eQ","title":"365- \"..فأعْلِمهم أنَّ اللَّهَ افْترض عليهم صدقة في أموالهم تُؤخذ مِن أغنيائِهم وتُردّ على فقرائهِم\"","publishedAt":"2022-12-23T09:00:12Z","duration":"PT34M59S","thumbnail":"https://i.ytimg.com/vi/OeIPEpQz5eQ/mqdefault.jpg","viewCount":"676","playlistId":"PLEkQk5xrP-tkc9DXvSLguqX5-FYp6ASR4","playlistName":"دليل الفالحين لطرق رياض الصالحين","category":"متنوع"},{"id":"MFVceomZljc","title":"هل علم الفراسة وقراءة الوجوه حرام؟","publishedAt":"2022-12-23T18:00:07Z","duration":"PT11M18S","thumbnail":"https://i.ytimg.com/vi/MFVceomZljc/mqdefault.jpg","viewCount":"20912","playlistId":"PLEkQk5xrP-tkGXuZ9atE3k_7it12rUPTs","playlistName":"أسئلة المتابعين","category":"متنوع"},{"id":"y5cRL1FeUuE","title":"627- حرف (مِن) بمعنى البدل - شرح البرهان في علوم القرآن","publishedAt":"2022-12-24T05:00:20Z","duration":"PT12M9S","thumbnail":"https://i.ytimg.com/vi/y5cRL1FeUuE/mqdefault.jpg","viewCount":"257","playlistId":"PLEkQk5xrP-tnW3iBL7HkKziOFCFZbTlf0","playlistName":"شرح البرهان في علوم القرآن - أ.د. يسري جبر","category":"تفسير"},{"id":"BwjP_qlAnuw","title":"3- الفرق بين الماء إذا تغير بمجاور أو بمخالط، ومعنى التطهير بالمكاثرة","publishedAt":"2022-12-24T09:00:06Z","duration":"PT39M43S","thumbnail":"https://i.ytimg.com/vi/BwjP_qlAnuw/mqdefault.jpg","viewCount":"1011","playlistId":"PLEkQk5xrP-tk_MCBZ706ORCw6gFtFyaGj","playlistName":"شرح سنن الإمام الدارقطني","category":"متنوع"},{"id":"ItFaqA6nMdA","title":"كيفية علاج النسيان وعدم التركيز؟","publishedAt":"2022-12-24T18:00:13Z","duration":"PT8M4S","thumbnail":"https://i.ytimg.com/vi/ItFaqA6nMdA/mqdefault.jpg","viewCount":"44473","playlistId":"PLEkQk5xrP-tkGXuZ9atE3k_7it12rUPTs","playlistName":"أسئلة المتابعين","category":"متنوع"},{"id":"nMT1j-dZqK8","title":"628- (مِن) الزائدة - شرح البرهان في علوم القرآن","publishedAt":"2022-12-25T05:00:30Z","duration":"PT32M43S","thumbnail":"https://i.ytimg.com/vi/nMT1j-dZqK8/mqdefault.jpg","viewCount":"464","playlistId":"PLEkQk5xrP-tnW3iBL7HkKziOFCFZbTlf0","playlistName":"شرح البرهان في علوم القرآن - أ.د. يسري جبر","category":"تفسير"},{"id":"sf_a8bxKQUo","title":"مظاهر قدرة الله في خلق الإنسان","publishedAt":"2022-12-25T18:00:14Z","duration":"PT10M53S","thumbnail":"https://i.ytimg.com/vi/sf_a8bxKQUo/mqdefault.jpg","viewCount":"3443","playlistId":"PLEkQk5xrP-tlArtGpeLWaqNM7h7IDeAVC","playlistName":"خطب الجمعة أ.د. يسري جبر","category":"خطب"},{"id":"dMkxLTzt2W8","title":"629- حرف (مع) - شرح البرهان في علوم القرآن","publishedAt":"2022-12-26T05:00:10Z","duration":"PT24M19S","thumbnail":"https://i.ytimg.com/vi/dMkxLTzt2W8/mqdefault.jpg","viewCount":"270","playlistId":"PLEkQk5xrP-tnW3iBL7HkKziOFCFZbTlf0","playlistName":"شرح البرهان في علوم القرآن - أ.د. يسري جبر","category":"تفسير"},{"id":"cOD40Y2-sS8","title":"366- حكم مَن فَرَّقَ بيْنَ الصَّلَاةِ والزَّكَاةِ - شرح دليل الفالحين","publishedAt":"2022-12-26T09:00:16Z","duration":"PT34M35S","thumbnail":"https://i.ytimg.com/vi/cOD40Y2-sS8/mqdefault.jpg","viewCount":"580","playlistId":"PLEkQk5xrP-tkc9DXvSLguqX5-FYp6ASR4","playlistName":"دليل الفالحين لطرق رياض الصالحين","category":"متنوع"},{"id":"fGENFLKbwwE","title":"كيف تتعامل مع الناس بتواضع؟","publishedAt":"2022-12-26T18:00:13Z","duration":"PT12M28S","thumbnail":"https://i.ytimg.com/vi/fGENFLKbwwE/mqdefault.jpg","viewCount":"4097","playlistId":"PLEkQk5xrP-tlArtGpeLWaqNM7h7IDeAVC","playlistName":"خطب الجمعة أ.د. يسري جبر","category":"خطب"},{"id":"zmKl9wPiN5s","title":"630- حرف (النون) - شرح البرهان في علوم القرآن","publishedAt":"2022-12-27T05:00:31Z","duration":"PT18M2S","thumbnail":"https://i.ytimg.com/vi/zmKl9wPiN5s/mqdefault.jpg","viewCount":"378","playlistId":"PLEkQk5xrP-tnW3iBL7HkKziOFCFZbTlf0","playlistName":"شرح البرهان في علوم القرآن - أ.د. يسري جبر","category":"تفسير"},{"id":"dH-EFGpI7zQ","title":"367- حكم كَنز المال وعدم إنفاقه - شرح دليل الفالحين","publishedAt":"2022-12-27T09:00:29Z","duration":"PT46M28S","thumbnail":"https://i.ytimg.com/vi/dH-EFGpI7zQ/mqdefault.jpg","viewCount":"982","playlistId":"PLEkQk5xrP-tkc9DXvSLguqX5-FYp6ASR4","playlistName":"دليل الفالحين لطرق رياض الصالحين","category":"متنوع"},{"id":"n6jvRyrRyCo","title":"كيف تتحلى بالقناعة والرضا؟","publishedAt":"2022-12-27T18:00:28Z","duration":"PT8M41S","thumbnail":"https://i.ytimg.com/vi/n6jvRyrRyCo/mqdefault.jpg","viewCount":"4735","playlistId":"PLEkQk5xrP-tlArtGpeLWaqNM7h7IDeAVC","playlistName":"خطب الجمعة أ.د. يسري جبر","category":"خطب"},{"id":"PP3STaZONnM","title":"631- حرف (الهاء - ها) - شرح دليل الفالحين","publishedAt":"2022-12-28T05:00:09Z","duration":"PT19M4S","thumbnail":"https://i.ytimg.com/vi/PP3STaZONnM/mqdefault.jpg","viewCount":"326","playlistId":"PLEkQk5xrP-tnW3iBL7HkKziOFCFZbTlf0","playlistName":"شرح البرهان في علوم القرآن - أ.د. يسري جبر","category":"تفسير"},{"id":"HrsmnAu0AQ8","title":"368- وجوب صوم رمضان وبيان فضل الصيام وما يتعلق به - شرح دليل الفالحين","publishedAt":"2022-12-28T09:00:13Z","duration":"PT31M25S","thumbnail":"https://i.ytimg.com/vi/HrsmnAu0AQ8/mqdefault.jpg","viewCount":"475","playlistId":"PLEkQk5xrP-tkc9DXvSLguqX5-FYp6ASR4","playlistName":"دليل الفالحين لطرق رياض الصالحين","category":"متنوع"},{"id":"Wv0KFxLaATI","title":"شرح منازل السائرين - المجلس (20) باب الخشوع | أ.د. يسري جبر","publishedAt":"2022-12-28T18:00:12Z","duration":"PT48M29S","thumbnail":"https://i.ytimg.com/vi/Wv0KFxLaATI/mqdefault.jpg","viewCount":"5641","playlistId":"PLEkQk5xrP-tmiUfQ-2Tsn7QIak4EsvaZW","playlistName":"كتاب التيسير المعين بشرح معاني منازل السائرين (تصوف) - د.يسري جبر","category":"تصوف"},{"id":"Z9LKzeFY8RU","title":"632 - حرف (هل - هيهات) - شرح البرهان في علوم القرآن","publishedAt":"2022-12-29T05:00:13Z","duration":"PT22M53S","thumbnail":"https://i.ytimg.com/vi/Z9LKzeFY8RU/mqdefault.jpg","viewCount":"395","playlistId":"PLEkQk5xrP-tnW3iBL7HkKziOFCFZbTlf0","playlistName":"شرح البرهان في علوم القرآن - أ.د. يسري جبر","category":"تفسير"},{"id":"kFTcJSBojCo","title":"هل يوجد ربا في فوائد البنوك,, وما هي أنواع الربا؟","publishedAt":"2022-12-29T18:00:14Z","duration":"PT10M23S","thumbnail":"https://i.ytimg.com/vi/kFTcJSBojCo/mqdefault.jpg","viewCount":"113292","playlistId":"PLEkQk5xrP-tm8ZIu74nTOZN9KJUJu416J","playlistName":"مقاطع مُهمَّة (يُسريَّات) أ.د. يسري جبر","category":"متنوع"},{"id":"QVU5NxccDD8","title":"369- مَن أنفق زوجين في سبيل الله، نُوديَ مِن أبواب الجَنَّة يا عبد الله هذا خير - شرح دليل الفالحين","publishedAt":"2022-12-30T05:00:09Z","duration":"PT38M14S","thumbnail":"https://i.ytimg.com/vi/QVU5NxccDD8/mqdefault.jpg","viewCount":"945","playlistId":"PLEkQk5xrP-tkc9DXvSLguqX5-FYp6ASR4","playlistName":"دليل الفالحين لطرق رياض الصالحين","category":"متنوع"},{"id":"Njek90-MJNY","title":"21- مفهوم التوحيد - عقيدة العارفين بالله وأولياء الله الصالحين","publishedAt":"2022-12-30T09:00:11Z","duration":"PT44M48S","thumbnail":"https://i.ytimg.com/vi/Njek90-MJNY/mqdefault.jpg","viewCount":"3065","playlistId":"PLEkQk5xrP-tmNuYT8JAh6clwa4krsgkNo","playlistName":"شرح كتاب الفُتُوحات اليُسريَّة في عقائد الأُمَّة المُحمَّديَّة","category":"متنوع"},{"id":"pNR1M1fZI1s","title":"370- ما الفرق بين الجُودِ والكَرَمِ والسَّخَاءِ؟ - شرح دليل الفالحين","publishedAt":"2022-12-31T05:00:30Z","duration":"PT34M","thumbnail":"https://i.ytimg.com/vi/pNR1M1fZI1s/mqdefault.jpg","viewCount":"675","playlistId":"PLEkQk5xrP-tkc9DXvSLguqX5-FYp6ASR4","playlistName":"دليل الفالحين لطرق رياض الصالحين","category":"متنوع"}],"total":7670,"page":252,"pageSize":24,"totalPages":320}