{"items":[{"id":"u_IH3b7eU9k","title":"صحيح الإمام البخاري رضي الله عنه - كتاب اللباس المجلس الخامس د. يسري جبر","publishedAt":"2016-10-06T20:50:11Z","duration":"PT1H16M28S","thumbnail":"https://i.ytimg.com/vi/u_IH3b7eU9k/mqdefault.jpg","viewCount":"145","playlistId":"PLEkQk5xrP-tmJuzaj4GWRenFoFx9gdbFX","playlistName":"شرح كتاب صحيح الإمام البخاري رضي الله تعالى عنه   أ.د. يسرى جبر","category":"حديث"},{"id":"yG6LBmJ8xWo","title":"29- النَّهْىِ عَنِ الصَّلاَةِ بَعْدَ الصُّبْحِ وَبَعْدَ الْعَصْرِ كتاب القرآن ك الموطأ د يسري جبر","publishedAt":"2016-10-07T10:58:15Z","duration":"PT50M58S","thumbnail":"https://i.ytimg.com/vi/yG6LBmJ8xWo/mqdefault.jpg","viewCount":"409","playlistId":"PLEkQk5xrP-tnC6BRuqMjyO-484iqXeg0o","playlistName":"شرح كتاب الموطأ للإمام مالك","category":"متنوع"},{"id":"A4FI_7e4bMA","title":"شرح صحيح البخاري ( كتاب الصلاة مجلس 10)","publishedAt":"2016-10-12T04:19:29Z","duration":"PT36M16S","thumbnail":"https://i.ytimg.com/vi/A4FI_7e4bMA/mqdefault.jpg","viewCount":"1425","playlistId":"PLEkQk5xrP-tlEerGoLa1AFy-2XvQ-sovv","playlistName":"شرح صحيح البخاري - أ.د. يسري جبر (كاملا)","category":"حديث"},{"id":"JESq49xXRDU","title":"حول الروحانية المحمدية ونصيب المسلم المعاصر من الهجرة النبوية    د. يسري جبر","publishedAt":"2016-10-12T04:26:32Z","duration":"PT51M9S","thumbnail":"https://i.ytimg.com/vi/JESq49xXRDU/mqdefault.jpg","viewCount":"8211","playlistId":"PLEkQk5xrP-tlArtGpeLWaqNM7h7IDeAVC","playlistName":"خطب الجمعة أ.د. يسري جبر","category":"خطب"},{"id":"ySU6WYBdxpA","title":"كن بأوصاف ربوبيته متعلقا وبأوصاف عبوديتك متحققا","publishedAt":"2016-10-16T17:54:18Z","duration":"PT18M28S","thumbnail":"https://i.ytimg.com/vi/ySU6WYBdxpA/mqdefault.jpg","viewCount":"3817","playlistId":"PLEkQk5xrP-tkI_meE148wc7V7XHlB0WPb","playlistName":"من الحكم العطائية  د. يسري جبر","category":"متنوع"},{"id":"RC64W9LvysY","title":"كيف تُخرق لك العوائد وأنت لم تخرق من نفسك العوائد","publishedAt":"2016-10-17T17:55:47Z","duration":"PT12M37S","thumbnail":"https://i.ytimg.com/vi/RC64W9LvysY/mqdefault.jpg","viewCount":"15377","playlistId":"PLEkQk5xrP-tkI_meE148wc7V7XHlB0WPb","playlistName":"من الحكم العطائية  د. يسري جبر","category":"متنوع"},{"id":"t2pYiELIY8U","title":"لو أنك لا تصل إليه إلا بعد فناء مساويك ، ومحو دعاويك ، لم تصل إليه أبدا.","publishedAt":"2016-10-18T19:30:13Z","duration":"PT6M23S","thumbnail":"https://i.ytimg.com/vi/t2pYiELIY8U/mqdefault.jpg","viewCount":"3554","playlistId":"PLEkQk5xrP-tkI_meE148wc7V7XHlB0WPb","playlistName":"من الحكم العطائية  د. يسري جبر","category":"متنوع"},{"id":"KFU0kQzKB2k","title":"لولا جميلُ ستره ، لم يكن عملٌ أهلا للقبول","publishedAt":"2016-10-20T18:05:14Z","duration":"PT12M39S","thumbnail":"https://i.ytimg.com/vi/KFU0kQzKB2k/mqdefault.jpg","viewCount":"1704","playlistId":"PLEkQk5xrP-tkI_meE148wc7V7XHlB0WPb","playlistName":"من الحكم العطائية  د. يسري جبر","category":"متنوع"},{"id":"NstftfJUVR8","title":"الستر على قسمين : ستر عن المعصية ، وستر فيها","publishedAt":"2016-10-21T19:12:53Z","duration":"PT4M13S","thumbnail":"https://i.ytimg.com/vi/NstftfJUVR8/mqdefault.jpg","viewCount":"1886","playlistId":"PLEkQk5xrP-tkI_meE148wc7V7XHlB0WPb","playlistName":"من الحكم العطائية  د. يسري جبر","category":"متنوع"},{"id":"DSzTYgrkalE","title":"من أكرمك فإنما أكرم فيك جميل ستره","publishedAt":"2016-10-21T19:16:23Z","duration":"PT4M18S","thumbnail":"https://i.ytimg.com/vi/DSzTYgrkalE/mqdefault.jpg","viewCount":"908","playlistId":"PLEkQk5xrP-tkI_meE148wc7V7XHlB0WPb","playlistName":"من الحكم العطائية  د. يسري جبر","category":"متنوع"},{"id":"HnjAwh2VDNo","title":"30- التَّكْبِيرِ عَلَى الْجَنَائِزِ كتاب الْجَنَائِزِ ك الموطأ د يسري جبر الأزهري","publishedAt":"2016-10-21T23:44:21Z","duration":"PT1H17M32S","thumbnail":"https://i.ytimg.com/vi/HnjAwh2VDNo/mqdefault.jpg","viewCount":"405","playlistId":"PLEkQk5xrP-tnC6BRuqMjyO-484iqXeg0o","playlistName":"شرح كتاب الموطأ للإمام مالك","category":"متنوع"},{"id":"SWgcVxRcKc8","title":"ما صحبك إلا من صحبك وهو بعيبك عليم ، وليس ذلك إلا مولاك الكريم","publishedAt":"2016-10-23T04:29:21Z","duration":"PT7M17S","thumbnail":"https://i.ytimg.com/vi/SWgcVxRcKc8/mqdefault.jpg","viewCount":"1455","playlistId":"PLEkQk5xrP-tkI_meE148wc7V7XHlB0WPb","playlistName":"من الحكم العطائية  د. يسري جبر","category":"متنوع"},{"id":"ZSDyJKZxg3U","title":"لو أشرق لك نور اليقين ، لرأيت الآخرة أقرب إليك من أن ترحل إليها","publishedAt":"2016-10-23T21:02:52Z","duration":"PT14M11S","thumbnail":"https://i.ytimg.com/vi/ZSDyJKZxg3U/mqdefault.jpg","viewCount":"20147","playlistId":"PLEkQk5xrP-tkI_meE148wc7V7XHlB0WPb","playlistName":"من الحكم العطائية  د. يسري جبر","category":"متنوع"},{"id":"Aiz-CnAREB8","title":"31- مَا تَجِبُ فِيهِ الزَّكَاةُ كتاب الزكاة ك الموطأ د يسري جبر الأزهري","publishedAt":"2016-10-26T10:57:12Z","duration":"PT1H12M20S","thumbnail":"https://i.ytimg.com/vi/Aiz-CnAREB8/mqdefault.jpg","viewCount":"513","playlistId":"PLEkQk5xrP-tnC6BRuqMjyO-484iqXeg0o","playlistName":"شرح كتاب الموطأ للإمام مالك","category":"متنوع"},{"id":"qax-pwEppCk","title":"قراءة وتفسير سورة المائدة آية 6","publishedAt":"2016-10-27T03:55:02Z","duration":"PT33M58S","thumbnail":"https://i.ytimg.com/vi/qax-pwEppCk/mqdefault.jpg","viewCount":"629","playlistId":"PLEkQk5xrP-tnmTYsyW6xNdyfhPq0Bhrhj","playlistName":"مقرأة الفجر - القُرْآنُ الكَرِيمُ - خَتْمَةُ التَّدَبُّرِ  أ.د. يسري جبر","category":"متنوع"},{"id":"shRoteu8ih4","title":"أنت حُرٌ مما أنت عنه آيسٌ، وعبدٌ لما أنت له طامع","publishedAt":"2016-10-27T17:58:04Z","duration":"PT9M16S","thumbnail":"https://i.ytimg.com/vi/shRoteu8ih4/mqdefault.jpg","viewCount":"11107","playlistId":"PLEkQk5xrP-tkI_meE148wc7V7XHlB0WPb","playlistName":"من الحكم العطائية  د. يسري جبر","category":"متنوع"},{"id":"rZA-cqpR3UM","title":"منْ لم يشْكر النِعَم ، فقد تعرَّضَ لزوالها ، ومنْ شَكَرَها فقد قيَّدها بعِقَالِها.","publishedAt":"2016-10-27T20:17:56Z","duration":"PT14M47S","thumbnail":"https://i.ytimg.com/vi/rZA-cqpR3UM/mqdefault.jpg","viewCount":"4774","playlistId":"PLEkQk5xrP-tkI_meE148wc7V7XHlB0WPb","playlistName":"من الحكم العطائية  د. يسري جبر","category":"متنوع"},{"id":"N3DduHbejz4","title":"شرح صحيح البخاري - كتاب الصلاة من باب ٧٤","publishedAt":"2016-10-28T04:38:22Z","duration":"PT31M43S","thumbnail":"https://i.ytimg.com/vi/N3DduHbejz4/mqdefault.jpg","viewCount":"1233","playlistId":"PLEkQk5xrP-tlEerGoLa1AFy-2XvQ-sovv","playlistName":"شرح صحيح البخاري - أ.د. يسري جبر (كاملا)","category":"حديث"},{"id":"7yFAVlNDbtU","title":"قراءة وتفسير سورة المائدة من آية ٨","publishedAt":"2016-10-28T12:36:31Z","duration":"PT23M39S","thumbnail":"https://i.ytimg.com/vi/7yFAVlNDbtU/mqdefault.jpg","viewCount":"496","playlistId":"PLEkQk5xrP-tnmTYsyW6xNdyfhPq0Bhrhj","playlistName":"مقرأة الفجر - القُرْآنُ الكَرِيمُ - خَتْمَةُ التَّدَبُّرِ  أ.د. يسري جبر","category":"متنوع"},{"id":"VHRogFju0VY","title":"قومٌ أقامهم الحقُّ لخدمته ، وقومٌ اختصَّهم بمحبَّته","publishedAt":"2016-10-28T20:56:09Z","duration":"PT5M2S","thumbnail":"https://i.ytimg.com/vi/VHRogFju0VY/mqdefault.jpg","viewCount":"4608","playlistId":"PLEkQk5xrP-tkI_meE148wc7V7XHlB0WPb","playlistName":"من الحكم العطائية  د. يسري جبر","category":"متنوع"},{"id":"XOHv13JqIhQ","title":"شرح صحيح البخاري - كتاب الصلاة من باب ٨١","publishedAt":"2016-10-29T03:41:34Z","duration":"PT35M18S","thumbnail":"https://i.ytimg.com/vi/XOHv13JqIhQ/mqdefault.jpg","viewCount":"1213","playlistId":"PLEkQk5xrP-tlEerGoLa1AFy-2XvQ-sovv","playlistName":"شرح صحيح البخاري - أ.د. يسري جبر (كاملا)","category":"حديث"},{"id":"sJGsfUbVbdE","title":"سورة المائدة آية 12","publishedAt":"2016-10-29T03:42:56Z","duration":"PT10M52S","thumbnail":"https://i.ytimg.com/vi/sJGsfUbVbdE/mqdefault.jpg","viewCount":"384","playlistId":"PLEkQk5xrP-tnmTYsyW6xNdyfhPq0Bhrhj","playlistName":"مقرأة الفجر - القُرْآنُ الكَرِيمُ - خَتْمَةُ التَّدَبُّرِ  أ.د. يسري جبر","category":"متنوع"},{"id":"JvaL0YArOno","title":"شرح صحيح البخاري - كتاب الصلاة من باب 89","publishedAt":"2016-10-30T03:55:29Z","duration":"PT34M19S","thumbnail":"https://i.ytimg.com/vi/JvaL0YArOno/mqdefault.jpg","viewCount":"1238","playlistId":"PLEkQk5xrP-tlEerGoLa1AFy-2XvQ-sovv","playlistName":"شرح صحيح البخاري - أ.د. يسري جبر (كاملا)","category":"حديث"},{"id":"cN7ntqC4OOM","title":"سورة المائدة آية 14","publishedAt":"2016-10-30T04:05:04Z","duration":"PT12M24S","thumbnail":"https://i.ytimg.com/vi/cN7ntqC4OOM/mqdefault.jpg","viewCount":"418","playlistId":"PLEkQk5xrP-tnmTYsyW6xNdyfhPq0Bhrhj","playlistName":"مقرأة الفجر - القُرْآنُ الكَرِيمُ - خَتْمَةُ التَّدَبُّرِ  أ.د. يسري جبر","category":"متنوع"}],"total":7670,"page":50,"pageSize":24,"totalPages":320}