{"items":[{"id":"o68TC9Z37s0","title":"شرح صحيح البخاري (  كتاب الغسل مجلس ١ )","publishedAt":"2016-09-05T06:41:46Z","duration":"PT33M11S","thumbnail":"https://i.ytimg.com/vi/o68TC9Z37s0/mqdefault.jpg","viewCount":"1936","playlistId":"PLEkQk5xrP-tlEerGoLa1AFy-2XvQ-sovv","playlistName":"شرح صحيح البخاري - أ.د. يسري جبر (كاملا)","category":"حديث"},{"id":"ucPdjBNZalM","title":"حسن الخُلق من أعظم ما يُتقرب به إلى الله    د. يسري جبر","publishedAt":"2016-09-09T19:35:56Z","duration":"PT28M50S","thumbnail":"https://i.ytimg.com/vi/ucPdjBNZalM/mqdefault.jpg","viewCount":"1253","playlistId":"PLEkQk5xrP-tlArtGpeLWaqNM7h7IDeAVC","playlistName":"خطب الجمعة أ.د. يسري جبر","category":"خطب"},{"id":"PMsJ7ehzTKc","title":"25- كتاب صلاة الخوف والكسوف ك الموطأ د يسري جبر الأزهري بمضيفة الشيخ سعيد الدح","publishedAt":"2016-09-12T14:57:43Z","duration":"PT53M47S","thumbnail":"https://i.ytimg.com/vi/PMsJ7ehzTKc/mqdefault.jpg","viewCount":"459","playlistId":"PLEkQk5xrP-tnC6BRuqMjyO-484iqXeg0o","playlistName":"شرح كتاب الموطأ للإمام مالك","category":"متنوع"},{"id":"v-OgQiEL9co","title":"شرح صحيح البخاري ( كتاب الغسل مجلس ٢ )","publishedAt":"2016-09-16T05:17:36Z","duration":"PT32M36S","thumbnail":"https://i.ytimg.com/vi/v-OgQiEL9co/mqdefault.jpg","viewCount":"1869","playlistId":"PLEkQk5xrP-tlEerGoLa1AFy-2XvQ-sovv","playlistName":"شرح صحيح البخاري - أ.د. يسري جبر (كاملا)","category":"حديث"},{"id":"W1Pjepxb17M","title":"سورة النساء آية 102","publishedAt":"2016-09-18T06:07:54Z","duration":"PT10M7S","thumbnail":"https://i.ytimg.com/vi/W1Pjepxb17M/mqdefault.jpg","viewCount":"351","playlistId":"PLEkQk5xrP-tnmTYsyW6xNdyfhPq0Bhrhj","playlistName":"مقرأة الفجر - القُرْآنُ الكَرِيمُ - خَتْمَةُ التَّدَبُّرِ  أ.د. يسري جبر","category":"متنوع"},{"id":"z6Dyl2GX49Y","title":"شرح صحيح البخاري ( كتاب الغسل مجلس ٤ )","publishedAt":"2016-09-18T06:22:06Z","duration":"PT24M29S","thumbnail":"https://i.ytimg.com/vi/z6Dyl2GX49Y/mqdefault.jpg","viewCount":"1309","playlistId":"PLEkQk5xrP-tlEerGoLa1AFy-2XvQ-sovv","playlistName":"شرح صحيح البخاري - أ.د. يسري جبر (كاملا)","category":"حديث"},{"id":"XjlgljR_NQ4","title":"سورة النساء آية 103","publishedAt":"2016-09-19T06:39:01Z","duration":"PT12M3S","thumbnail":"https://i.ytimg.com/vi/XjlgljR_NQ4/mqdefault.jpg","viewCount":"365","playlistId":"PLEkQk5xrP-tnmTYsyW6xNdyfhPq0Bhrhj","playlistName":"مقرأة الفجر - القُرْآنُ الكَرِيمُ - خَتْمَةُ التَّدَبُّرِ  أ.د. يسري جبر","category":"متنوع"},{"id":"c6_Bycnks2Q","title":"شرح صحيح البخاري ( كتاب الحيض مجلس ١ )","publishedAt":"2016-09-19T07:06:18Z","duration":"PT35M18S","thumbnail":"https://i.ytimg.com/vi/c6_Bycnks2Q/mqdefault.jpg","viewCount":"1832","playlistId":"PLEkQk5xrP-tlEerGoLa1AFy-2XvQ-sovv","playlistName":"شرح صحيح البخاري - أ.د. يسري جبر (كاملا)","category":"حديث"},{"id":"zmnTlhgTjMQ","title":"سورة النساء آية 105","publishedAt":"2016-09-20T06:36:01Z","duration":"PT16M40S","thumbnail":"https://i.ytimg.com/vi/zmnTlhgTjMQ/mqdefault.jpg","viewCount":"382","playlistId":"PLEkQk5xrP-tnmTYsyW6xNdyfhPq0Bhrhj","playlistName":"مقرأة الفجر - القُرْآنُ الكَرِيمُ - خَتْمَةُ التَّدَبُّرِ  أ.د. يسري جبر","category":"متنوع"},{"id":"6PKdTmx5F9Q","title":"شرح صحيح البخاري ( كتاب الحيض مجلس ٢ )","publishedAt":"2016-09-20T06:51:40Z","duration":"PT36M38S","thumbnail":"https://i.ytimg.com/vi/6PKdTmx5F9Q/mqdefault.jpg","viewCount":"1454","playlistId":"PLEkQk5xrP-tlEerGoLa1AFy-2XvQ-sovv","playlistName":"شرح صحيح البخاري - أ.د. يسري جبر (كاملا)","category":"حديث"},{"id":"YqC48I0l-4s","title":"26- كتاب الاستسقاء ك الموطأ د يسري جبر الأزهري بمضيفة الشيخ سعيد الدح","publishedAt":"2016-09-23T12:36:24Z","duration":"PT48M2S","thumbnail":"https://i.ytimg.com/vi/YqC48I0l-4s/mqdefault.jpg","viewCount":"444","playlistId":"PLEkQk5xrP-tnC6BRuqMjyO-484iqXeg0o","playlistName":"شرح كتاب الموطأ للإمام مالك","category":"متنوع"},{"id":"eoSl5idfOno","title":"سورة النساء آية 114","publishedAt":"2016-09-24T03:24:04Z","duration":"PT19M10S","thumbnail":"https://i.ytimg.com/vi/eoSl5idfOno/mqdefault.jpg","viewCount":"380","playlistId":"PLEkQk5xrP-tnmTYsyW6xNdyfhPq0Bhrhj","playlistName":"مقرأة الفجر - القُرْآنُ الكَرِيمُ - خَتْمَةُ التَّدَبُّرِ  أ.د. يسري جبر","category":"متنوع"},{"id":"SHZa9RaHlJs","title":"شرح صحيح البخاري ( كتاب الحيض مجلس ٣ )","publishedAt":"2016-09-24T04:06:38Z","duration":"PT33M4S","thumbnail":"https://i.ytimg.com/vi/SHZa9RaHlJs/mqdefault.jpg","viewCount":"1357","playlistId":"PLEkQk5xrP-tlEerGoLa1AFy-2XvQ-sovv","playlistName":"شرح صحيح البخاري - أ.د. يسري جبر (كاملا)","category":"حديث"},{"id":"bR1uQyRudgU","title":"سورة النساء آية 116","publishedAt":"2016-09-25T05:04:03Z","duration":"PT28M21S","thumbnail":"https://i.ytimg.com/vi/bR1uQyRudgU/mqdefault.jpg","viewCount":"447","playlistId":"PLEkQk5xrP-tnmTYsyW6xNdyfhPq0Bhrhj","playlistName":"مقرأة الفجر - القُرْآنُ الكَرِيمُ - خَتْمَةُ التَّدَبُّرِ  أ.د. يسري جبر","category":"متنوع"},{"id":"sQwUFYy1g2M","title":"صحيح الإمام البخاري رضي الله عنه - كتاب اللباس المجلس الثاني د. يسري جبر","publishedAt":"2016-09-26T14:34:31Z","duration":"PT27M32S","thumbnail":"https://i.ytimg.com/vi/sQwUFYy1g2M/mqdefault.jpg","viewCount":"181","playlistId":"PLEkQk5xrP-tmJuzaj4GWRenFoFx9gdbFX","playlistName":"شرح كتاب صحيح الإمام البخاري رضي الله تعالى عنه   أ.د. يسرى جبر","category":"حديث"},{"id":"CEAYhTd9e2s","title":"صحيح الإمام البخاري رضي الله عنه - كتاب اللباس المجلس الثالث د. يسري جبر","publishedAt":"2016-09-26T19:20:12Z","duration":"PT1H1M33S","thumbnail":"https://i.ytimg.com/vi/CEAYhTd9e2s/mqdefault.jpg","viewCount":"156","playlistId":"PLEkQk5xrP-tmJuzaj4GWRenFoFx9gdbFX","playlistName":"شرح كتاب صحيح الإمام البخاري رضي الله تعالى عنه   أ.د. يسرى جبر","category":"حديث"},{"id":"7wAtbuewv3w","title":"27- كتاب القرآن ك الموطأ د يسري جبر الأزهري  بمضيفة الشيخ سعيد الدح","publishedAt":"2016-09-26T21:48:18Z","duration":"PT56M13S","thumbnail":"https://i.ytimg.com/vi/7wAtbuewv3w/mqdefault.jpg","viewCount":"485","playlistId":"PLEkQk5xrP-tnC6BRuqMjyO-484iqXeg0o","playlistName":"شرح كتاب الموطأ للإمام مالك","category":"متنوع"},{"id":"t1D843XFFfw","title":"شرح صحيح البخاري ( كتاب الحيض مجلس ٤ )","publishedAt":"2016-09-27T20:33:44Z","duration":"PT36M3S","thumbnail":"https://i.ytimg.com/vi/t1D843XFFfw/mqdefault.jpg","viewCount":"1215","playlistId":"PLEkQk5xrP-tlEerGoLa1AFy-2XvQ-sovv","playlistName":"شرح صحيح البخاري - أ.د. يسري جبر (كاملا)","category":"حديث"},{"id":"TZeYWHNQZmk","title":"سورة النساء آية 123","publishedAt":"2016-09-27T20:45:09Z","duration":"PT16M48S","thumbnail":"https://i.ytimg.com/vi/TZeYWHNQZmk/mqdefault.jpg","viewCount":"349","playlistId":"PLEkQk5xrP-tnmTYsyW6xNdyfhPq0Bhrhj","playlistName":"مقرأة الفجر - القُرْآنُ الكَرِيمُ - خَتْمَةُ التَّدَبُّرِ  أ.د. يسري جبر","category":"متنوع"},{"id":"HPTIGsxh6CU","title":"شرح صحيح البخاري ( كتاب التيمم مجلس ١ )","publishedAt":"2016-09-27T20:45:55Z","duration":"PT30M59S","thumbnail":"https://i.ytimg.com/vi/HPTIGsxh6CU/mqdefault.jpg","viewCount":"1407","playlistId":"PLEkQk5xrP-tlEerGoLa1AFy-2XvQ-sovv","playlistName":"شرح صحيح البخاري - أ.د. يسري جبر (كاملا)","category":"حديث"},{"id":"VTjQHFUM48U","title":"سورة النساء آية 127","publishedAt":"2016-09-27T20:46:31Z","duration":"PT22M54S","thumbnail":"https://i.ytimg.com/vi/VTjQHFUM48U/mqdefault.jpg","viewCount":"394","playlistId":"PLEkQk5xrP-tnmTYsyW6xNdyfhPq0Bhrhj","playlistName":"مقرأة الفجر - القُرْآنُ الكَرِيمُ - خَتْمَةُ التَّدَبُّرِ  أ.د. يسري جبر","category":"متنوع"},{"id":"Thv3-oMW5xY","title":"شرح صحيح البخاري ( كتاب التيمم مجلس ٢ )","publishedAt":"2016-09-27T20:47:10Z","duration":"PT45M20S","thumbnail":"https://i.ytimg.com/vi/Thv3-oMW5xY/mqdefault.jpg","viewCount":"1346","playlistId":"PLEkQk5xrP-tlEerGoLa1AFy-2XvQ-sovv","playlistName":"شرح صحيح البخاري - أ.د. يسري جبر (كاملا)","category":"حديث"},{"id":"1py6cHf2N6E","title":"سورة النساء آية 131","publishedAt":"2016-09-27T20:47:48Z","duration":"PT18M44S","thumbnail":"https://i.ytimg.com/vi/1py6cHf2N6E/mqdefault.jpg","viewCount":"385","playlistId":"PLEkQk5xrP-tnmTYsyW6xNdyfhPq0Bhrhj","playlistName":"مقرأة الفجر - القُرْآنُ الكَرِيمُ - خَتْمَةُ التَّدَبُّرِ  أ.د. يسري جبر","category":"متنوع"},{"id":"be6LYh1g4mc","title":"شرح صحيح البخاري ( كتاب التيمم مجلس ٣ )","publishedAt":"2016-09-27T20:48:18Z","duration":"PT21M32S","thumbnail":"https://i.ytimg.com/vi/be6LYh1g4mc/mqdefault.jpg","viewCount":"1019","playlistId":"PLEkQk5xrP-tlEerGoLa1AFy-2XvQ-sovv","playlistName":"شرح صحيح البخاري - أ.د. يسري جبر (كاملا)","category":"حديث"}],"total":7675,"page":48,"pageSize":24,"totalPages":320}