{"items":[{"id":"JFCVB7zd1xM","title":"شرح كتاب الأذكار من كلام سيد الأبرار للإمام النووى رضى الله عنه - المجلس الرابع","publishedAt":"2014-12-05T18:42:15Z","duration":"PT25M6S","thumbnail":"https://i.ytimg.com/vi/JFCVB7zd1xM/mqdefault.jpg","viewCount":"1376","playlistId":"PLEkQk5xrP-tkWS57Ubysh0ifJR8dmuEtE","playlistName":"شرح كتاب الأذكار للإمام النووي د. يسرى جبر","category":"حديث"},{"id":"2SjtW_v-vBw","title":"الجمع بين حديث (عرض الأعمال وحديث أولا تدري ما أحدثوا بعدك) مولانا د. يسري جبر","publishedAt":"2014-12-06T08:10:18Z","duration":"PT4M35S","thumbnail":"https://i.ytimg.com/vi/2SjtW_v-vBw/mqdefault.jpg","viewCount":"2532","playlistId":"PLEkQk5xrP-tm8ZIu74nTOZN9KJUJu416J","playlistName":"مقاطع مُهمَّة (يُسريَّات) أ.د. يسري جبر","category":"متنوع"},{"id":"5GrokMGoBvQ","title":"صحيح الإمام البخارى رضى الله عنه - كتاب فضائل القرآن - المجلس الثانى","publishedAt":"2014-12-06T20:01:18Z","duration":"PT1H2M26S","thumbnail":"https://i.ytimg.com/vi/5GrokMGoBvQ/mqdefault.jpg","viewCount":"509","playlistId":"PLEkQk5xrP-tmJuzaj4GWRenFoFx9gdbFX","playlistName":"شرح كتاب صحيح الإمام البخاري رضي الله تعالى عنه   أ.د. يسرى جبر","category":"حديث"},{"id":"70tNdxC8OcY","title":"شرح كتاب منازل السائرين للإمام الهروى - المجلس التاسع والعشرون - قسم الأخلاق باب الخُلُق","publishedAt":"2014-12-08T05:20:58Z","duration":"PT1H6M27S","thumbnail":"https://i.ytimg.com/vi/70tNdxC8OcY/mqdefault.jpg","viewCount":"1339","playlistId":"PLEkQk5xrP-tnLYi_5_tSRVBwqcs7ISV7Y","playlistName":"شرح كتاب منازل السائرين للإمام الهروي","category":"متنوع"},{"id":"1QDi-O5dSVE","title":"دعوة فضيلة الشيخ عبدالله بن مسعود لفضيلة الدكتور يسرى رشدى والدكتور يحي الغوثانى","publishedAt":"2014-12-12T16:58:33Z","duration":"PT41M57S","thumbnail":"https://i.ytimg.com/vi/1QDi-O5dSVE/mqdefault.jpg","viewCount":"759","playlistId":"PLEkQk5xrP-tlB8lmbwjAKR8KRgiykGKhb","playlistName":"حضرات يسرية ومدائح نبوية","category":"متنوع"},{"id":"TbvQkBK5wwk","title":"مِن العبادات المهجورة","publishedAt":"2014-12-12T18:02:10Z","duration":"PT30M22S","thumbnail":"https://i.ytimg.com/vi/TbvQkBK5wwk/mqdefault.jpg","viewCount":"975","playlistId":"PLEkQk5xrP-tlArtGpeLWaqNM7h7IDeAVC","playlistName":"خطب الجمعة أ.د. يسري جبر","category":"خطب"},{"id":"7PWrYhBBuXM","title":"شرح كتاب الأذكار من كلام سيد الأبرار للإمام النووى رضى الله عنه - المجلس الخامس","publishedAt":"2014-12-12T19:04:26Z","duration":"PT16M35S","thumbnail":"https://i.ytimg.com/vi/7PWrYhBBuXM/mqdefault.jpg","viewCount":"1041","playlistId":"PLEkQk5xrP-tkWS57Ubysh0ifJR8dmuEtE","playlistName":"شرح كتاب الأذكار للإمام النووي د. يسرى جبر","category":"حديث"},{"id":"y_ewIfPxZPM","title":"شرح كتاب فتح القريب المجيب «نواقض الوضوء» د. يسري جبر","publishedAt":"2014-12-12T21:40:25Z","duration":"PT54M29S","thumbnail":"https://i.ytimg.com/vi/y_ewIfPxZPM/mqdefault.jpg","viewCount":"2629","playlistId":"PLEkQk5xrP-tlyOgfNBZTZgoATzVW4mI20","playlistName":"كتاب فتح القريب المجيب (علم الفقه الشافعي)","category":"فقه"},{"id":"wGXrWAk47BA","title":"صحيح الإمام البخارى رضى الله عنه - كتاب فضائل القرآن - المجلس الثالث","publishedAt":"2014-12-14T04:28:42Z","duration":"PT1H4M18S","thumbnail":"https://i.ytimg.com/vi/wGXrWAk47BA/mqdefault.jpg","viewCount":"329","playlistId":"PLEkQk5xrP-tmJuzaj4GWRenFoFx9gdbFX","playlistName":"شرح كتاب صحيح الإمام البخاري رضي الله تعالى عنه   أ.د. يسرى جبر","category":"حديث"},{"id":"f8MnWWm_d6M","title":"شرح كتاب منازل السائرين للإمام الهروى - المجلس الثلاثون - قسم الأخلاق باب التواضع","publishedAt":"2014-12-15T04:08:04Z","duration":"PT56M44S","thumbnail":"https://i.ytimg.com/vi/f8MnWWm_d6M/mqdefault.jpg","viewCount":"1290","playlistId":"PLEkQk5xrP-tnLYi_5_tSRVBwqcs7ISV7Y","playlistName":"شرح كتاب منازل السائرين للإمام الهروي","category":"متنوع"},{"id":"mCj-KBYtjqk","title":"الفرق بين الأحدية والواحدية والتوحيد والفرق بين الألوهية والربوبية - د. يسري جبر","publishedAt":"2014-12-19T19:48:48Z","duration":"PT5M43S","thumbnail":"https://i.ytimg.com/vi/mCj-KBYtjqk/mqdefault.jpg","viewCount":"17196","playlistId":"PLEkQk5xrP-tm8ZIu74nTOZN9KJUJu416J","playlistName":"مقاطع مُهمَّة (يُسريَّات) أ.د. يسري جبر","category":"متنوع"},{"id":"Gi0ml7zkSv0","title":"من العبادات المهجورة 2","publishedAt":"2014-12-19T20:09:20Z","duration":"PT41M48S","thumbnail":"https://i.ytimg.com/vi/Gi0ml7zkSv0/mqdefault.jpg","viewCount":"717","playlistId":"PLEkQk5xrP-tlArtGpeLWaqNM7h7IDeAVC","playlistName":"خطب الجمعة أ.د. يسري جبر","category":"خطب"},{"id":"DiptGJ5AI5E","title":"مقام العبودية - د.يسري جبر","publishedAt":"2014-12-19T20:47:59Z","duration":"PT4M15S","thumbnail":"https://i.ytimg.com/vi/DiptGJ5AI5E/mqdefault.jpg","viewCount":"3654","playlistId":"PLEkQk5xrP-tm8ZIu74nTOZN9KJUJu416J","playlistName":"مقاطع مُهمَّة (يُسريَّات) أ.د. يسري جبر","category":"متنوع"},{"id":"1IiUwZMhChQ","title":"صحيح الإمام البخارى رضى الله عنه - كتاب فضائل القرآن - المجلس الرابع","publishedAt":"2014-12-20T20:01:49Z","duration":"PT59M41S","thumbnail":"https://i.ytimg.com/vi/1IiUwZMhChQ/mqdefault.jpg","viewCount":"385","playlistId":"PLEkQk5xrP-tmJuzaj4GWRenFoFx9gdbFX","playlistName":"شرح كتاب صحيح الإمام البخاري رضي الله تعالى عنه   أ.د. يسرى جبر","category":"حديث"},{"id":"u7kbmtc0IvA","title":"شرح كتاب منازل السائرين للإمام الهروى - المجلس الحادى و الثلاثون - قسم الأخلاق باب الفُتوّة","publishedAt":"2014-12-22T04:09:04Z","duration":"PT59M17S","thumbnail":"https://i.ytimg.com/vi/u7kbmtc0IvA/mqdefault.jpg","viewCount":"1326","playlistId":"PLEkQk5xrP-tnLYi_5_tSRVBwqcs7ISV7Y","playlistName":"شرح كتاب منازل السائرين للإمام الهروي","category":"متنوع"},{"id":"013WOM4gGJw","title":"كيف تدرك محاسن الأخلاق - د. يسري جبر","publishedAt":"2014-12-22T13:33:53Z","duration":"PT7M56S","thumbnail":"https://i.ytimg.com/vi/013WOM4gGJw/mqdefault.jpg","viewCount":"4470","playlistId":"PLEkQk5xrP-tm8ZIu74nTOZN9KJUJu416J","playlistName":"مقاطع مُهمَّة (يُسريَّات) أ.د. يسري جبر","category":"متنوع"},{"id":"5t_lOdcafX8","title":"رأيت الهلال ووجه الحبيب فكانا هلالين عند النظر","publishedAt":"2014-12-23T17:38:22Z","duration":"PT8M36S","thumbnail":"https://i.ytimg.com/vi/5t_lOdcafX8/mqdefault.jpg","viewCount":"20336","playlistId":"PLEkQk5xrP-tlB8lmbwjAKR8KRgiykGKhb","playlistName":"حضرات يسرية ومدائح نبوية","category":"متنوع"},{"id":"iCOXHjadJqk","title":"بردة المديح للإمام البوصيرى رضى الله عنه - كاملة","publishedAt":"2014-12-23T19:47:39Z","duration":"PT26M6S","thumbnail":"https://i.ytimg.com/vi/iCOXHjadJqk/mqdefault.jpg","viewCount":"5365","playlistId":"PLEkQk5xrP-tlB8lmbwjAKR8KRgiykGKhb","playlistName":"حضرات يسرية ومدائح نبوية","category":"متنوع"},{"id":"X5-Mw2IgP5M","title":"والليلة عندكم عيد ياأحبابىَ مولد رسول الله خير البريّة","publishedAt":"2014-12-24T18:08:39Z","duration":"PT5M47S","thumbnail":"https://i.ytimg.com/vi/X5-Mw2IgP5M/mqdefault.jpg","viewCount":"2226","playlistId":"PLEkQk5xrP-tlB8lmbwjAKR8KRgiykGKhb","playlistName":"حضرات يسرية ومدائح نبوية","category":"متنوع"},{"id":"tYJ1Bau7UX8","title":"نور المصطفى ملأ الأكوان حبيبى محمد خير المرسلين","publishedAt":"2014-12-24T19:12:52Z","duration":"PT5M31S","thumbnail":"https://i.ytimg.com/vi/tYJ1Bau7UX8/mqdefault.jpg","viewCount":"2010","playlistId":"PLEkQk5xrP-tlB8lmbwjAKR8KRgiykGKhb","playlistName":"حضرات يسرية ومدائح نبوية","category":"متنوع"},{"id":"neRRjY4QrEQ","title":"اللهُ اللهُ لمّا نادانى هُو فصرت عبدا مملوكا له هُو","publishedAt":"2014-12-26T18:19:34Z","duration":"PT8M53S","thumbnail":"https://i.ytimg.com/vi/neRRjY4QrEQ/mqdefault.jpg","viewCount":"2428","playlistId":"PLEkQk5xrP-tlB8lmbwjAKR8KRgiykGKhb","playlistName":"حضرات يسرية ومدائح نبوية","category":"متنوع"},{"id":"4AuDkJ2Pv3I","title":"شرح كتاب فتح القريب المجيب «أحكام الغسل» د. يسري جبر","publishedAt":"2014-12-26T21:32:24Z","duration":"PT1H14M2S","thumbnail":"https://i.ytimg.com/vi/4AuDkJ2Pv3I/mqdefault.jpg","viewCount":"2605","playlistId":"PLEkQk5xrP-tlyOgfNBZTZgoATzVW4mI20","playlistName":"كتاب فتح القريب المجيب (علم الفقه الشافعي)","category":"فقه"},{"id":"dG5Vg_m9pfE","title":"شرح كتاب الأذكار من كلام سيد الأبرار للإمام النووى رضى الله عنه - المجلس السادس","publishedAt":"2014-12-27T19:00:33Z","duration":"PT15M24S","thumbnail":"https://i.ytimg.com/vi/dG5Vg_m9pfE/mqdefault.jpg","viewCount":"1102","playlistId":"PLEkQk5xrP-tkWS57Ubysh0ifJR8dmuEtE","playlistName":"شرح كتاب الأذكار للإمام النووي د. يسرى جبر","category":"حديث"},{"id":"AwPhe_RiduM","title":"شرح كتاب منازل السائرين للإمام الهروى - المجلس الثانى والثلاثون - قسم الأخلاق باب الانبساط","publishedAt":"2014-12-29T05:48:06Z","duration":"PT54M59S","thumbnail":"https://i.ytimg.com/vi/AwPhe_RiduM/mqdefault.jpg","viewCount":"1291","playlistId":"PLEkQk5xrP-tnLYi_5_tSRVBwqcs7ISV7Y","playlistName":"شرح كتاب منازل السائرين للإمام الهروي","category":"متنوع"}],"total":7670,"page":6,"pageSize":24,"totalPages":320}