{"items":[{"id":"QZ9hMnyBu-8","title":"194- مُرُوا أبَا بَكْرٍ فَلْيُصَلِّ بالنَّاسِ…\" شرح دليل الفالحين","publishedAt":"2022-02-02T07:02:48Z","duration":"PT34M16S","thumbnail":"https://i.ytimg.com/vi/QZ9hMnyBu-8/mqdefault.jpg","viewCount":"1127","playlistId":"PLEkQk5xrP-tkc9DXvSLguqX5-FYp6ASR4","playlistName":"دليل الفالحين لطرق رياض الصالحين","category":"متنوع"},{"id":"jqZ6SCdjGMA","title":"أسرار ذكر الله","publishedAt":"2022-02-02T18:00:18Z","duration":"PT40M15S","thumbnail":"https://i.ytimg.com/vi/jqZ6SCdjGMA/mqdefault.jpg","viewCount":"147122","playlistId":"PLEkQk5xrP-tlArtGpeLWaqNM7h7IDeAVC","playlistName":"خطب الجمعة أ.د. يسري جبر","category":"خطب"},{"id":"1qvBORU2Bb4","title":"قواعدُ تتعلّقُ بالتشبيه - شرح البرهان في علوم القرآن","publishedAt":"2022-02-03T07:37:25Z","duration":"PT15M2S","thumbnail":"https://i.ytimg.com/vi/1qvBORU2Bb4/mqdefault.jpg","viewCount":"629","playlistId":"PLEkQk5xrP-tnW3iBL7HkKziOFCFZbTlf0","playlistName":"شرح البرهان في علوم القرآن - أ.د. يسري جبر","category":"تفسير"},{"id":"IyCMVX4bz3c","title":"هل النفقة واجبة على الرجل بعد الطلاق؟","publishedAt":"2022-02-03T18:00:06Z","duration":"PT9M41S","thumbnail":"https://i.ytimg.com/vi/IyCMVX4bz3c/mqdefault.jpg","viewCount":"3734","playlistId":"PLEkQk5xrP-tkGXuZ9atE3k_7it12rUPTs","playlistName":"أسئلة المتابعين","category":"متنوع"},{"id":"2ne44ojG5tY","title":"195- فضلُ الزُّهْدِ في الدنيا والحَثُّ على التَّقلُّلِ منها وفضلُ الفقر - شرح دليل الفالحين","publishedAt":"2022-02-04T07:10:07Z","duration":"PT54M7S","thumbnail":"https://i.ytimg.com/vi/2ne44ojG5tY/mqdefault.jpg","viewCount":"2863","playlistId":"PLEkQk5xrP-tkc9DXvSLguqX5-FYp6ASR4","playlistName":"دليل الفالحين لطرق رياض الصالحين","category":"متنوع"},{"id":"3lQyCUlQy4A","title":"كيف نفهم شطحات بعض الأولياء؟","publishedAt":"2022-02-04T18:16:14Z","duration":"PT17M19S","thumbnail":"https://i.ytimg.com/vi/3lQyCUlQy4A/mqdefault.jpg","viewCount":"143074","playlistId":"PLEkQk5xrP-tm8ZIu74nTOZN9KJUJu416J","playlistName":"مقاطع مُهمَّة (يُسريَّات) أ.د. يسري جبر","category":"متنوع"},{"id":"wrfCyekjfEc","title":"قواعدُ تتعلّقُ بالتشبيه (القاعدة الرابعة) شرح البرهان في علوم القرآن","publishedAt":"2022-02-05T06:46:01Z","duration":"PT16M10S","thumbnail":"https://i.ytimg.com/vi/wrfCyekjfEc/mqdefault.jpg","viewCount":"639","playlistId":"PLEkQk5xrP-tnW3iBL7HkKziOFCFZbTlf0","playlistName":"شرح البرهان في علوم القرآن - أ.د. يسري جبر","category":"تفسير"},{"id":"wnObsaWKTkU","title":"196- أبْشِرُوا وأمِّلُوا ما يَسُرُّكُمْ، فَوَالله ما الفقْرَ أخْشَى عليكُم - شرح دليل الفالحين","publishedAt":"2022-02-06T07:09:37Z","duration":"PT47M8S","thumbnail":"https://i.ytimg.com/vi/wnObsaWKTkU/mqdefault.jpg","viewCount":"1590","playlistId":"PLEkQk5xrP-tkc9DXvSLguqX5-FYp6ASR4","playlistName":"دليل الفالحين لطرق رياض الصالحين","category":"متنوع"},{"id":"APJqexHQxF4","title":"هل الطلاق الشفوي يقع أم لابد من التوثيق؟","publishedAt":"2022-02-06T18:00:24Z","duration":"PT10M49S","thumbnail":"https://i.ytimg.com/vi/APJqexHQxF4/mqdefault.jpg","viewCount":"3969","playlistId":"PLEkQk5xrP-tkGXuZ9atE3k_7it12rUPTs","playlistName":"أسئلة المتابعين","category":"متنوع"},{"id":"rm_i8dCSazI","title":"دُخُولُ أدَاةِ التَشْبِيهِ عَلَى المُشَبَّه - شرح البرهان في علوم القرآن","publishedAt":"2022-02-07T07:01:54Z","duration":"PT12M45S","thumbnail":"https://i.ytimg.com/vi/rm_i8dCSazI/mqdefault.jpg","viewCount":"586","playlistId":"PLEkQk5xrP-tnW3iBL7HkKziOFCFZbTlf0","playlistName":"شرح البرهان في علوم القرآن - أ.د. يسري جبر","category":"تفسير"},{"id":"TZNb_V1_kBs","title":"5- السَّمْعِيَّات (المَلاَئِكَةُ عَلَيْهِمُ السَّلَامُ)","publishedAt":"2022-02-07T18:00:33Z","duration":"PT1H6M48S","thumbnail":"https://i.ytimg.com/vi/TZNb_V1_kBs/mqdefault.jpg","viewCount":"11314","playlistId":"PLEkQk5xrP-tmNuYT8JAh6clwa4krsgkNo","playlistName":"شرح كتاب الفُتُوحات اليُسريَّة في عقائد الأُمَّة المُحمَّديَّة","category":"متنوع"},{"id":"1SowLd7CC0M","title":"197- يُؤْتَى بأَنْعَمِ أهْلِ الدُّنْيا مِن أهْلِ النَّارِ يَومَ القِيامَةِ… - شرح دليل الفالحين","publishedAt":"2022-02-08T07:00:37Z","duration":"PT44M50S","thumbnail":"https://i.ytimg.com/vi/1SowLd7CC0M/mqdefault.jpg","viewCount":"1214","playlistId":"PLEkQk5xrP-tkc9DXvSLguqX5-FYp6ASR4","playlistName":"دليل الفالحين لطرق رياض الصالحين","category":"متنوع"},{"id":"tEmLbvhC-cA","title":"ما الفرق بين التأويل والتفسير؟","publishedAt":"2022-02-08T18:00:45Z","duration":"PT8M23S","thumbnail":"https://i.ytimg.com/vi/tEmLbvhC-cA/mqdefault.jpg","viewCount":"3770","playlistId":"PLEkQk5xrP-tkGXuZ9atE3k_7it12rUPTs","playlistName":"أسئلة المتابعين","category":"متنوع"},{"id":"hmvKJrAbz4M","title":"حَذْفُ المُشَبَّه - شرح البرهان في علوم القرآن","publishedAt":"2022-02-09T06:41:14Z","duration":"PT20M4S","thumbnail":"https://i.ytimg.com/vi/hmvKJrAbz4M/mqdefault.jpg","viewCount":"677","playlistId":"PLEkQk5xrP-tnW3iBL7HkKziOFCFZbTlf0","playlistName":"شرح البرهان في علوم القرآن - أ.د. يسري جبر","category":"تفسير"},{"id":"0PfOAKwaAYo","title":"198- إنَّ الأكثرين هُمُ الأَقَلُّونَ يومَ القيامة إلّا مَن قال هكذا وهكذا وهكذا… - شرح دليل الفالحين","publishedAt":"2022-02-09T22:25:21Z","duration":"PT30M38S","thumbnail":"https://i.ytimg.com/vi/0PfOAKwaAYo/mqdefault.jpg","viewCount":"1633","playlistId":"PLEkQk5xrP-tkc9DXvSLguqX5-FYp6ASR4","playlistName":"دليل الفالحين لطرق رياض الصالحين","category":"متنوع"},{"id":"6GvRyf_MuNo","title":"الاستعارة - شرح البرهان في علوم القرآن","publishedAt":"2022-02-10T08:34:34Z","duration":"PT31M45S","thumbnail":"https://i.ytimg.com/vi/6GvRyf_MuNo/mqdefault.jpg","viewCount":"637","playlistId":"PLEkQk5xrP-tnW3iBL7HkKziOFCFZbTlf0","playlistName":"شرح البرهان في علوم القرآن - أ.د. يسري جبر","category":"تفسير"},{"id":"DDJL-lGtR20","title":"الرسالة القشيرية - المجلس (111) بَابُ كرامات الأولياء ٤ | أ.د. يسري جبر","publishedAt":"2022-02-10T20:05:10Z","duration":"PT51M26S","thumbnail":"https://i.ytimg.com/vi/DDJL-lGtR20/mqdefault.jpg","viewCount":"19583","playlistId":"PLEkQk5xrP-tkHAGOwIKr4pc5ehhyQ5HMJ","playlistName":"كتاب الرسالة القشيرية (تصوف) - د. يسري جبر","category":"تصوف"},{"id":"5kQprcyNI2s","title":"199- انظُرُوا إلى مَن أسفلَ منكم، ولا تَنظُرُوا إلى مَن هو فوقَكم… - شرح دليل الفالحين","publishedAt":"2022-02-11T07:02:42Z","duration":"PT45M16S","thumbnail":"https://i.ytimg.com/vi/5kQprcyNI2s/mqdefault.jpg","viewCount":"1750","playlistId":"PLEkQk5xrP-tkc9DXvSLguqX5-FYp6ASR4","playlistName":"دليل الفالحين لطرق رياض الصالحين","category":"متنوع"},{"id":"5v5qH7o0-dg","title":"هل يمكن للمريد الدخول في طريقتين؟","publishedAt":"2022-02-11T18:00:29Z","duration":"PT11M55S","thumbnail":"https://i.ytimg.com/vi/5v5qH7o0-dg/mqdefault.jpg","viewCount":"10345","playlistId":"PLEkQk5xrP-tkGXuZ9atE3k_7it12rUPTs","playlistName":"أسئلة المتابعين","category":"متنوع"},{"id":"fyZwx_EWqTc","title":"مباحث في الاستعارة - شرح البرهان في علوم القرآن","publishedAt":"2022-02-12T07:42:56Z","duration":"PT18M59S","thumbnail":"https://i.ytimg.com/vi/fyZwx_EWqTc/mqdefault.jpg","viewCount":"619","playlistId":"PLEkQk5xrP-tnW3iBL7HkKziOFCFZbTlf0","playlistName":"شرح البرهان في علوم القرآن - أ.د. يسري جبر","category":"تفسير"},{"id":"BiuKZcjVeiQ","title":"200- كُنْ في الدُّنيا كَأنَّكَ غَريبٌ أو عَابِر سَبيلٍ - شرح دليل الفالحين","publishedAt":"2022-02-12T19:32:23Z","duration":"PT32M40S","thumbnail":"https://i.ytimg.com/vi/BiuKZcjVeiQ/mqdefault.jpg","viewCount":"2672","playlistId":"PLEkQk5xrP-tkc9DXvSLguqX5-FYp6ASR4","playlistName":"دليل الفالحين لطرق رياض الصالحين","category":"متنوع"},{"id":"cxACcwSGwvU","title":"الاستعارة قِسْمٌ من أقسام المجاز - شرح البرهان في علوم القرآن","publishedAt":"2022-02-13T08:51:20Z","duration":"PT31M29S","thumbnail":"https://i.ytimg.com/vi/cxACcwSGwvU/mqdefault.jpg","viewCount":"671","playlistId":"PLEkQk5xrP-tnW3iBL7HkKziOFCFZbTlf0","playlistName":"شرح البرهان في علوم القرآن - أ.د. يسري جبر","category":"تفسير"},{"id":"JBCm-4CFPq8","title":"201- حُبُّ الدنيا وكثرةُ المال - شرح دليل الفالحين","publishedAt":"2022-02-13T22:39:01Z","duration":"PT27M57S","thumbnail":"https://i.ytimg.com/vi/JBCm-4CFPq8/mqdefault.jpg","viewCount":"2860","playlistId":"PLEkQk5xrP-tkc9DXvSLguqX5-FYp6ASR4","playlistName":"دليل الفالحين لطرق رياض الصالحين","category":"متنوع"},{"id":"qlqkesUuGNc","title":"34- فضائل يوم عاشوراء","publishedAt":"2022-02-14T08:16:09Z","duration":"PT57M37S","thumbnail":"https://i.ytimg.com/vi/qlqkesUuGNc/mqdefault.jpg","viewCount":"1101","playlistId":"PLEkQk5xrP-tlDtaqY0qhNXAiZ19gaGzKI","playlistName":"شرح مسند الإمام محمد بن إدريس الشافعيّ رضي الله تعالى عنه","category":"فقه"}],"total":7670,"page":222,"pageSize":24,"totalPages":320}