{"items":[{"id":"_fD79t8g4Cw","title":"مقرأة سورة المؤمنون آية ١٧","publishedAt":"2018-02-22T08:24:40Z","duration":"PT26M32S","thumbnail":"https://i.ytimg.com/vi/_fD79t8g4Cw/mqdefault.jpg","viewCount":"332","playlistId":"PLEkQk5xrP-tnmTYsyW6xNdyfhPq0Bhrhj","playlistName":"مقرأة الفجر - القُرْآنُ الكَرِيمُ - خَتْمَةُ التَّدَبُّرِ  أ.د. يسري جبر","category":"متنوع"},{"id":"edh3XB8WOMY","title":"شرح صحيح البخاري - كتاب المغازي تكملة باب ٥٨","publishedAt":"2018-02-22T14:50:08Z","duration":"PT23M23S","thumbnail":"https://i.ytimg.com/vi/edh3XB8WOMY/mqdefault.jpg","viewCount":"478","playlistId":"PLEkQk5xrP-tlEerGoLa1AFy-2XvQ-sovv","playlistName":"شرح صحيح البخاري - أ.د. يسري جبر (كاملا)","category":"حديث"},{"id":"RY_Q4KCDNHE","title":"الرسالة القشيرية - المجلس الثاني عشر (باب في ذكر مشايخ هذه الطريقة - المجلس الرابع)","publishedAt":"2018-02-22T18:06:32Z","duration":"PT54M54S","thumbnail":"https://i.ytimg.com/vi/RY_Q4KCDNHE/mqdefault.jpg","viewCount":"9209","playlistId":"PLEkQk5xrP-tkHAGOwIKr4pc5ehhyQ5HMJ","playlistName":"كتاب الرسالة القشيرية (تصوف) - د. يسري جبر","category":"تصوف"},{"id":"XFS70b5ax0g","title":"مقرأة سورة المؤمنون آية ٢٣","publishedAt":"2018-02-23T08:34:27Z","duration":"PT22M41S","thumbnail":"https://i.ytimg.com/vi/XFS70b5ax0g/mqdefault.jpg","viewCount":"301","playlistId":"PLEkQk5xrP-tnmTYsyW6xNdyfhPq0Bhrhj","playlistName":"مقرأة الفجر - القُرْآنُ الكَرِيمُ - خَتْمَةُ التَّدَبُّرِ  أ.د. يسري جبر","category":"متنوع"},{"id":"nJ7fUp3Ptvs","title":"شرح صحيح البخاري - كتاب المغازي من باب ٦١","publishedAt":"2018-02-23T18:34:20Z","duration":"PT31M19S","thumbnail":"https://i.ytimg.com/vi/nJ7fUp3Ptvs/mqdefault.jpg","viewCount":"600","playlistId":"PLEkQk5xrP-tlEerGoLa1AFy-2XvQ-sovv","playlistName":"شرح صحيح البخاري - أ.د. يسري جبر (كاملا)","category":"حديث"},{"id":"-_0fel8_IZ0","title":"مقرأة سورة المؤمنون آية ٣١","publishedAt":"2018-02-24T12:18:41Z","duration":"PT19M21S","thumbnail":"https://i.ytimg.com/vi/-_0fel8_IZ0/mqdefault.jpg","viewCount":"600","playlistId":"PLEkQk5xrP-tnmTYsyW6xNdyfhPq0Bhrhj","playlistName":"مقرأة الفجر - القُرْآنُ الكَرِيمُ - خَتْمَةُ التَّدَبُّرِ  أ.د. يسري جبر","category":"متنوع"},{"id":"G0Ouyu9UwgQ","title":"شرح صحيح البخاري - كتاب المغازي من باب ٦٣","publishedAt":"2018-02-24T17:53:20Z","duration":"PT28M8S","thumbnail":"https://i.ytimg.com/vi/G0Ouyu9UwgQ/mqdefault.jpg","viewCount":"548","playlistId":"PLEkQk5xrP-tlEerGoLa1AFy-2XvQ-sovv","playlistName":"شرح صحيح البخاري - أ.د. يسري جبر (كاملا)","category":"حديث"},{"id":"4fQwbmamtZg","title":"العِلمُ إنْ قَارَنَتْهُ الخَشْيَةُ .. فَلَكَ، وَإِلَّا فَعَلَيكَ.","publishedAt":"2018-02-24T18:04:10Z","duration":"PT10M29S","thumbnail":"https://i.ytimg.com/vi/4fQwbmamtZg/mqdefault.jpg","viewCount":"781","playlistId":"PLEkQk5xrP-tkI_meE148wc7V7XHlB0WPb","playlistName":"من الحكم العطائية  د. يسري جبر","category":"متنوع"},{"id":"rbCQC6pAl-E","title":"يا أَيُّها الَّذِين آمَنُوا إِذَا قُمْتُم إِلى الصَّلاةِ فاغْسِلوا وُجُوهَكم وأيديَكم ..  د.يسري جبر","publishedAt":"2018-02-24T18:20:33Z","duration":"PT39M4S","thumbnail":"https://i.ytimg.com/vi/rbCQC6pAl-E/mqdefault.jpg","viewCount":"567","playlistId":"PLEkQk5xrP-tlArtGpeLWaqNM7h7IDeAVC","playlistName":"خطب الجمعة أ.د. يسري جبر","category":"خطب"},{"id":"88LJFTh6RoY","title":"مقرأة سورة المؤمنون آية ٤٢","publishedAt":"2018-02-25T09:50:49Z","duration":"PT17M34S","thumbnail":"https://i.ytimg.com/vi/88LJFTh6RoY/mqdefault.jpg","viewCount":"242","playlistId":"PLEkQk5xrP-tnmTYsyW6xNdyfhPq0Bhrhj","playlistName":"مقرأة الفجر - القُرْآنُ الكَرِيمُ - خَتْمَةُ التَّدَبُّرِ  أ.د. يسري جبر","category":"متنوع"},{"id":"MtoA8SIGk38","title":"شرح صحيح البخاري كتاب المغازي من باب ٦٥","publishedAt":"2018-02-25T15:25:58Z","duration":"PT26M7S","thumbnail":"https://i.ytimg.com/vi/MtoA8SIGk38/mqdefault.jpg","viewCount":"561","playlistId":"PLEkQk5xrP-tlEerGoLa1AFy-2XvQ-sovv","playlistName":"شرح صحيح البخاري - أ.د. يسري جبر (كاملا)","category":"حديث"},{"id":"iUeGtqM45tU","title":"مقرأة سورة المؤمنون آية ٥٠","publishedAt":"2018-02-26T11:31:03Z","duration":"PT14M46S","thumbnail":"https://i.ytimg.com/vi/iUeGtqM45tU/mqdefault.jpg","viewCount":"531","playlistId":"PLEkQk5xrP-tnmTYsyW6xNdyfhPq0Bhrhj","playlistName":"مقرأة الفجر - القُرْآنُ الكَرِيمُ - خَتْمَةُ التَّدَبُّرِ  أ.د. يسري جبر","category":"متنوع"},{"id":"Z5JqsZtnX5k","title":"شرح صحيح البخاري كتاب المغازي من باب ٦٨","publishedAt":"2018-02-26T14:32:40Z","duration":"PT33M37S","thumbnail":"https://i.ytimg.com/vi/Z5JqsZtnX5k/mqdefault.jpg","viewCount":"585","playlistId":"PLEkQk5xrP-tlEerGoLa1AFy-2XvQ-sovv","playlistName":"شرح صحيح البخاري - أ.د. يسري جبر (كاملا)","category":"حديث"},{"id":"ZlyVxXzsVp8","title":"متى آلَمَكَ عدمُ إقبال الناس عليك، أو توجُّهُهم بالذَّمّ إليك، فارجِعْ إلى عِلْم اللهِ فيك..","publishedAt":"2018-02-26T18:25:47Z","duration":"PT12M34S","thumbnail":"https://i.ytimg.com/vi/ZlyVxXzsVp8/mqdefault.jpg","viewCount":"14139","playlistId":"PLEkQk5xrP-tkI_meE148wc7V7XHlB0WPb","playlistName":"من الحكم العطائية  د. يسري جبر","category":"متنوع"},{"id":"JB2qBpxn44w","title":"مقرأة سورة المؤمنون آية ٥٧","publishedAt":"2018-02-27T14:05:38Z","duration":"PT9M59S","thumbnail":"https://i.ytimg.com/vi/JB2qBpxn44w/mqdefault.jpg","viewCount":"346","playlistId":"PLEkQk5xrP-tnmTYsyW6xNdyfhPq0Bhrhj","playlistName":"مقرأة الفجر - القُرْآنُ الكَرِيمُ - خَتْمَةُ التَّدَبُّرِ  أ.د. يسري جبر","category":"متنوع"},{"id":"Ykc_sBHA4xU","title":"شرح صحيح البخاري كتاب المغازي من باب ٧٢","publishedAt":"2018-02-27T21:30:06Z","duration":"PT20M58S","thumbnail":"https://i.ytimg.com/vi/Ykc_sBHA4xU/mqdefault.jpg","viewCount":"500","playlistId":"PLEkQk5xrP-tlEerGoLa1AFy-2XvQ-sovv","playlistName":"شرح صحيح البخاري - أ.د. يسري جبر (كاملا)","category":"حديث"},{"id":"9TxxO_4H0x4","title":"إنَّمَا أجْرَى الأذَى عَلى أيديهم كَي لا تَكُونَ سَاكِنًا إِلَيهم..","publishedAt":"2018-02-28T19:57:22Z","duration":"PT9M39S","thumbnail":"https://i.ytimg.com/vi/9TxxO_4H0x4/mqdefault.jpg","viewCount":"12573","playlistId":"PLEkQk5xrP-tkI_meE148wc7V7XHlB0WPb","playlistName":"من الحكم العطائية  د. يسري جبر","category":"متنوع"},{"id":"WjN2AdiPOGM","title":"مقرأة سورة المؤمنون آية ٦٣","publishedAt":"2018-02-28T20:22:31Z","duration":"PT13M2S","thumbnail":"https://i.ytimg.com/vi/WjN2AdiPOGM/mqdefault.jpg","viewCount":"322","playlistId":"PLEkQk5xrP-tnmTYsyW6xNdyfhPq0Bhrhj","playlistName":"مقرأة الفجر - القُرْآنُ الكَرِيمُ - خَتْمَةُ التَّدَبُّرِ  أ.د. يسري جبر","category":"متنوع"},{"id":"411x7VE18bA","title":"شرح صحيح البخاري كتاب المغازي من باب ٧٤","publishedAt":"2018-02-28T21:29:21Z","duration":"PT28M22S","thumbnail":"https://i.ytimg.com/vi/411x7VE18bA/mqdefault.jpg","viewCount":"450","playlistId":"PLEkQk5xrP-tlEerGoLa1AFy-2XvQ-sovv","playlistName":"شرح صحيح البخاري - أ.د. يسري جبر (كاملا)","category":"حديث"},{"id":"hXsB_2rL4zY","title":"كتاب نوراليقين في سيرة سيد المرسلين للشيخ الخضري رحمه الله - المجلس 40 (تكملة غزوة خيبر) د.يسري جبر","publishedAt":"2018-03-01T03:02:27Z","duration":"PT49M3S","thumbnail":"https://i.ytimg.com/vi/hXsB_2rL4zY/mqdefault.jpg","viewCount":"13325","playlistId":"PLEkQk5xrP-tl2t4NQx1IhKnAJCMzF0Nli","playlistName":"شرح كتاب نور اليقين في سيرة سيد المرسلين   د. يسري جبر","category":"سيرة"},{"id":"PqtarSYVpG8","title":"مقرأة سورة المؤمنون آية ٧١","publishedAt":"2018-03-01T10:43:20Z","duration":"PT11M45S","thumbnail":"https://i.ytimg.com/vi/PqtarSYVpG8/mqdefault.jpg","viewCount":"372","playlistId":"PLEkQk5xrP-tnmTYsyW6xNdyfhPq0Bhrhj","playlistName":"مقرأة الفجر - القُرْآنُ الكَرِيمُ - خَتْمَةُ التَّدَبُّرِ  أ.د. يسري جبر","category":"متنوع"},{"id":"ISkSXbhFCc8","title":"الرسالة القشيرية - المجلس الثالث عشر (باب في ذكر مشايخ هذه الطريقة - المجلس الخامس)","publishedAt":"2018-03-01T13:22:04Z","duration":"PT45M34S","thumbnail":"https://i.ytimg.com/vi/ISkSXbhFCc8/mqdefault.jpg","viewCount":"7000","playlistId":"PLEkQk5xrP-tkHAGOwIKr4pc5ehhyQ5HMJ","playlistName":"كتاب الرسالة القشيرية (تصوف) - د. يسري جبر","category":"تصوف"},{"id":"CTVY3hSlwps","title":"شرح صحيح البخاري كتاب المغازي من باب ٧٧","publishedAt":"2018-03-01T16:59:16Z","duration":"PT46M11S","thumbnail":"https://i.ytimg.com/vi/CTVY3hSlwps/mqdefault.jpg","viewCount":"603","playlistId":"PLEkQk5xrP-tlEerGoLa1AFy-2XvQ-sovv","playlistName":"شرح صحيح البخاري - أ.د. يسري جبر (كاملا)","category":"حديث"},{"id":"0m347AXFgBA","title":"مَنْ أَثْبَتَ لِنَفْسِهِ تَوَاضُعًا فَهُو المُتَكَبِّرُ حَقًّا..","publishedAt":"2018-03-01T19:26:59Z","duration":"PT11M11S","thumbnail":"https://i.ytimg.com/vi/0m347AXFgBA/mqdefault.jpg","viewCount":"5556","playlistId":"PLEkQk5xrP-tkI_meE148wc7V7XHlB0WPb","playlistName":"من الحكم العطائية  د. يسري جبر","category":"متنوع"}],"total":7675,"page":96,"pageSize":24,"totalPages":320}