{"items":[{"id":"szWdTubAXao","title":"التنقُّل - تكملة أنواع التقديم والتأخير(16) - شرح البرهان في علوم القرآن -","publishedAt":"2021-10-12T19:44:48Z","duration":"PT14M27S","thumbnail":"https://i.ytimg.com/vi/szWdTubAXao/mqdefault.jpg","viewCount":"378","playlistId":"PLEkQk5xrP-tnW3iBL7HkKziOFCFZbTlf0","playlistName":"شرح البرهان في علوم القرآن - أ.د. يسري جبر","category":"تفسير"},{"id":"81XMhMKxaGw","title":"140- حَقُّ الجَارِ والوَصِيَّةُ به - شرح دليل الفالحين","publishedAt":"2021-10-13T05:54:42Z","duration":"PT32M41S","thumbnail":"https://i.ytimg.com/vi/81XMhMKxaGw/mqdefault.jpg","viewCount":"741","playlistId":"PLEkQk5xrP-tkc9DXvSLguqX5-FYp6ASR4","playlistName":"دليل الفالحين لطرق رياض الصالحين","category":"متنوع"},{"id":"jCXZS_fngBo","title":"21- باب قصر الصلاة وجمعها - شرح كتاب فتح القريب المجيب","publishedAt":"2021-10-13T10:57:05Z","duration":"PT1H5M52S","thumbnail":"https://i.ytimg.com/vi/jCXZS_fngBo/mqdefault.jpg","viewCount":"1436","playlistId":"PLEkQk5xrP-tkXuPs-0sXfWQDWzBKmcjWN","playlistName":"\"فتح القريب المجيب في شرح ألفاظ التقريب\"( فقه شافعيّ)  أ. د. يسري جبر","category":"فقه"},{"id":"KHTBzK42yPw","title":"حكم الاحتفال بالمولد النبوي","publishedAt":"2021-10-13T21:00:04Z","duration":"PT8M41S","thumbnail":"https://i.ytimg.com/vi/KHTBzK42yPw/mqdefault.jpg","viewCount":"18053","playlistId":"PLEkQk5xrP-tkGXuZ9atE3k_7it12rUPTs","playlistName":"أسئلة المتابعين","category":"متنوع"},{"id":"Tp8UQxNwci8","title":"مراعاة الإفراد - تكملة أنواع التقديم والتأخير(17) - شرح البرهان في علوم القرآن -","publishedAt":"2021-10-14T06:18:02Z","duration":"PT30M39S","thumbnail":"https://i.ytimg.com/vi/Tp8UQxNwci8/mqdefault.jpg","viewCount":"512","playlistId":"PLEkQk5xrP-tnW3iBL7HkKziOFCFZbTlf0","playlistName":"شرح البرهان في علوم القرآن - أ.د. يسري جبر","category":"تفسير"},{"id":"sFFqWm9aK7Y","title":"22- أحكام صلاة الجمعة - شرح كتاب فتح القريب المجيب","publishedAt":"2021-10-14T10:41:24Z","duration":"PT1H26M36S","thumbnail":"https://i.ytimg.com/vi/sFFqWm9aK7Y/mqdefault.jpg","viewCount":"1056","playlistId":"PLEkQk5xrP-tkXuPs-0sXfWQDWzBKmcjWN","playlistName":"\"فتح القريب المجيب في شرح ألفاظ التقريب\"( فقه شافعيّ)  أ. د. يسري جبر","category":"فقه"},{"id":"zuG_2ASwjmM","title":"الرسالة القشيرية - المجلس (94) بَابُ التوحيد | أ.د. يسري جبر","publishedAt":"2021-10-14T19:00:16Z","duration":"PT1H33M47S","thumbnail":"https://i.ytimg.com/vi/zuG_2ASwjmM/mqdefault.jpg","viewCount":"46516","playlistId":"PLEkQk5xrP-tkHAGOwIKr4pc5ehhyQ5HMJ","playlistName":"كتاب الرسالة القشيرية (تصوف) - د. يسري جبر","category":"تصوف"},{"id":"JzyKvHpkw7I","title":"141- \"لا يمنعُ أحدُكم جارَه أن يغرِزَ خشبةً في جدارِه…\" - شرح دليل الفالحين","publishedAt":"2021-10-15T06:10:38Z","duration":"PT25M41S","thumbnail":"https://i.ytimg.com/vi/JzyKvHpkw7I/mqdefault.jpg","viewCount":"765","playlistId":"PLEkQk5xrP-tkc9DXvSLguqX5-FYp6ASR4","playlistName":"دليل الفالحين لطرق رياض الصالحين","category":"متنوع"},{"id":"hotUJ4071Pg","title":"23- صلاة العيدين - شرح كتاب فتح القريب المجيب","publishedAt":"2021-10-15T14:19:53Z","duration":"PT50M30S","thumbnail":"https://i.ytimg.com/vi/hotUJ4071Pg/mqdefault.jpg","viewCount":"763","playlistId":"PLEkQk5xrP-tkXuPs-0sXfWQDWzBKmcjWN","playlistName":"\"فتح القريب المجيب في شرح ألفاظ التقريب\"( فقه شافعيّ)  أ. د. يسري جبر","category":"فقه"},{"id":"-fxD0nmUMjU","title":"رعاية الفواصل - تكملة أنواع التقديم والتأخير(18) - شرح البرهان في علوم القرآن -","publishedAt":"2021-10-15T19:42:58Z","duration":"PT27M21S","thumbnail":"https://i.ytimg.com/vi/-fxD0nmUMjU/mqdefault.jpg","viewCount":"496","playlistId":"PLEkQk5xrP-tnW3iBL7HkKziOFCFZbTlf0","playlistName":"شرح البرهان في علوم القرآن - أ.د. يسري جبر","category":"تفسير"},{"id":"2dYcFCF3Y8k","title":"142- بِرُّ الوالدَيْن وصِلةُ الأرحام - شرح دليل الفالحين","publishedAt":"2021-10-16T07:20:55Z","duration":"PT39M43S","thumbnail":"https://i.ytimg.com/vi/2dYcFCF3Y8k/mqdefault.jpg","viewCount":"1570","playlistId":"PLEkQk5xrP-tkc9DXvSLguqX5-FYp6ASR4","playlistName":"دليل الفالحين لطرق رياض الصالحين","category":"متنوع"},{"id":"2keSnqhuxWg","title":"24- صلاةُ الكسوف والخسوف","publishedAt":"2021-10-16T11:21:11Z","duration":"PT1H7M47S","thumbnail":"https://i.ytimg.com/vi/2keSnqhuxWg/mqdefault.jpg","viewCount":"680","playlistId":"PLEkQk5xrP-tkXuPs-0sXfWQDWzBKmcjWN","playlistName":"\"فتح القريب المجيب في شرح ألفاظ التقريب\"( فقه شافعيّ)  أ. د. يسري جبر","category":"فقه"},{"id":"trZOb6jk35w","title":"الرد على تعليقات بعض المتابعين","publishedAt":"2021-10-16T17:36:42Z","duration":"PT10M53S","thumbnail":"https://i.ytimg.com/vi/trZOb6jk35w/mqdefault.jpg","viewCount":"9230","playlistId":"PLEkQk5xrP-tkGXuZ9atE3k_7it12rUPTs","playlistName":"أسئلة المتابعين","category":"متنوع"},{"id":"0-PLkgj1Klg","title":"26- حُكْمُ استخدام الطِيب للمُحْرِم - من كتاب المناسك - شرح مسند الإمام الشافعيّ رضي الله عنه","publishedAt":"2021-10-17T06:39:32Z","duration":"PT59M7S","thumbnail":"https://i.ytimg.com/vi/0-PLkgj1Klg/mqdefault.jpg","viewCount":"868","playlistId":"PLEkQk5xrP-tlDtaqY0qhNXAiZ19gaGzKI","playlistName":"شرح مسند الإمام محمد بن إدريس الشافعيّ رضي الله تعالى عنه","category":"فقه"},{"id":"UjleIgMprcM","title":"25- فصلٌ في اللباس - شرح كتاب فتح القريب المجيب","publishedAt":"2021-10-17T10:40:45Z","duration":"PT1H6M36S","thumbnail":"https://i.ytimg.com/vi/UjleIgMprcM/mqdefault.jpg","viewCount":"928","playlistId":"PLEkQk5xrP-tkXuPs-0sXfWQDWzBKmcjWN","playlistName":"\"فتح القريب المجيب في شرح ألفاظ التقريب\"( فقه شافعيّ)  أ. د. يسري جبر","category":"فقه"},{"id":"-xG1tGl-id8","title":"هل صلاة الجمعة تسقط فرض الظهر؟","publishedAt":"2021-10-17T18:30:01Z","duration":"PT8M46S","thumbnail":"https://i.ytimg.com/vi/-xG1tGl-id8/mqdefault.jpg","viewCount":"19742","playlistId":"PLEkQk5xrP-tkGXuZ9atE3k_7it12rUPTs","playlistName":"أسئلة المتابعين","category":"متنوع"},{"id":"Q9ohcGaFF6o","title":"النوع الثاني مما قدّم والنية به التأخير - تكملة أنواع التقديم والتأخير(19)شرح البرهان في علوم القرآن","publishedAt":"2021-10-17T21:52:35Z","duration":"PT17M44S","thumbnail":"https://i.ytimg.com/vi/Q9ohcGaFF6o/mqdefault.jpg","viewCount":"369","playlistId":"PLEkQk5xrP-tnW3iBL7HkKziOFCFZbTlf0","playlistName":"شرح البرهان في علوم القرآن - أ.د. يسري جبر","category":"تفسير"},{"id":"QJ0aZoaejhw","title":"143- لا يَجزي ولدٌ والدًا إلَّا أنْ يجِدهُ مملوكًا فيشتريَهُ فيُعتقَهُ - شرح دليل الفالحين","publishedAt":"2021-10-18T06:21:37Z","duration":"PT25M28S","thumbnail":"https://i.ytimg.com/vi/QJ0aZoaejhw/mqdefault.jpg","viewCount":"834","playlistId":"PLEkQk5xrP-tkc9DXvSLguqX5-FYp6ASR4","playlistName":"دليل الفالحين لطرق رياض الصالحين","category":"متنوع"},{"id":"DlL777Mpk8w","title":"ماذا حدث أثناء مولد النبي ﷺ؟","publishedAt":"2021-10-18T18:50:32Z","duration":"PT19M34S","thumbnail":"https://i.ytimg.com/vi/DlL777Mpk8w/mqdefault.jpg","viewCount":"14043","playlistId":"PLEkQk5xrP-tlnvX_MSpJzq0sTimnumdYK","playlistName":"كيف تعرفُ نبيّك؟","category":"متنوع"},{"id":"LnORgwmHjHs","title":"النوع الثاني مما قُدِّم ورتبته التأخير(٢)تكملة أنواع التقديم والتأخير(20)شرح البرهان في علوم القرآن","publishedAt":"2021-10-19T03:30:31Z","duration":"PT25M40S","thumbnail":"https://i.ytimg.com/vi/LnORgwmHjHs/mqdefault.jpg","viewCount":"404","playlistId":"PLEkQk5xrP-tnW3iBL7HkKziOFCFZbTlf0","playlistName":"شرح البرهان في علوم القرآن - أ.د. يسري جبر","category":"تفسير"},{"id":"8DCF27yts-I","title":"واعلموا أن فيكم رسول الله","publishedAt":"2021-10-19T18:30:05Z","duration":"PT32M37S","thumbnail":"https://i.ytimg.com/vi/8DCF27yts-I/mqdefault.jpg","viewCount":"22483","playlistId":"PLEkQk5xrP-tlArtGpeLWaqNM7h7IDeAVC","playlistName":"خطب الجمعة أ.د. يسري جبر","category":"خطب"},{"id":"5gaobAwj5QQ","title":"26- فصل فيما يتعلق بالميت من غسله وتكفينه والصلاة عليه ودفنه - شرح كتاب فتح القريب المجيب","publishedAt":"2021-10-19T23:13:03Z","duration":"PT1H33M15S","thumbnail":"https://i.ytimg.com/vi/5gaobAwj5QQ/mqdefault.jpg","viewCount":"717","playlistId":"PLEkQk5xrP-tkXuPs-0sXfWQDWzBKmcjWN","playlistName":"\"فتح القريب المجيب في شرح ألفاظ التقريب\"( فقه شافعيّ)  أ. د. يسري جبر","category":"فقه"},{"id":"H23FCoJORIw","title":"144- \"…مَن أحَقُّ النَّاسِ بحُسْنِ صَحَابَتِي؟ قالَ: أُمُّكَ، قال: ثُمَّ مَنْ؟…\"- شرح دليل الفالحين","publishedAt":"2021-10-20T05:58:09Z","duration":"PT36M31S","thumbnail":"https://i.ytimg.com/vi/H23FCoJORIw/mqdefault.jpg","viewCount":"1065","playlistId":"PLEkQk5xrP-tkc9DXvSLguqX5-FYp6ASR4","playlistName":"دليل الفالحين لطرق رياض الصالحين","category":"متنوع"},{"id":"U3mRjAGfc1I","title":"النوع الثالث: ما قُدّم في آية وأُخّر في أخرى تكملة أنواع التقديم والتأخير(21) البرهان في علوم القرآن","publishedAt":"2021-10-20T10:25:27Z","duration":"PT26M59S","thumbnail":"https://i.ytimg.com/vi/U3mRjAGfc1I/mqdefault.jpg","viewCount":"415","playlistId":"PLEkQk5xrP-tnW3iBL7HkKziOFCFZbTlf0","playlistName":"شرح البرهان في علوم القرآن - أ.د. يسري جبر","category":"تفسير"}],"total":7670,"page":213,"pageSize":24,"totalPages":320}