{"items":[{"id":"PseDI6dXZ3w","title":"188- \"…أنَّ رَجُلًا أصابَ مِن امْرَأَةٍ قُبْلَةً، فأتَى النَّبيَّ ﷺ فأخْبَرَهُ…\"- شرح دليل الفالحين","publishedAt":"2022-01-21T07:21:23Z","duration":"PT56M38S","thumbnail":"https://i.ytimg.com/vi/PseDI6dXZ3w/mqdefault.jpg","viewCount":"2556","playlistId":"PLEkQk5xrP-tkc9DXvSLguqX5-FYp6ASR4","playlistName":"دليل الفالحين لطرق رياض الصالحين","category":"متنوع"},{"id":"0xPNr8bpGbM","title":"لماذا اختلف العلماء في تحديد أسماء الله؟","publishedAt":"2022-01-21T18:24:59Z","duration":"PT12M17S","thumbnail":"https://i.ytimg.com/vi/0xPNr8bpGbM/mqdefault.jpg","viewCount":"6026","playlistId":"PLEkQk5xrP-tkGXuZ9atE3k_7it12rUPTs","playlistName":"أسئلة المتابعين","category":"متنوع"},{"id":"v0nUrHDjh-k","title":"32- طُرُقُ إثْبَاتِ الحُقُوق - من كتاب اليمين مع الشاهد الواحد","publishedAt":"2022-01-22T07:26:58Z","duration":"PT46M33S","thumbnail":"https://i.ytimg.com/vi/v0nUrHDjh-k/mqdefault.jpg","viewCount":"1295","playlistId":"PLEkQk5xrP-tlDtaqY0qhNXAiZ19gaGzKI","playlistName":"شرح مسند الإمام محمد بن إدريس الشافعيّ رضي الله تعالى عنه","category":"فقه"},{"id":"nUCqR76_Q-I","title":"الإعراض عن صريح الحُكْم - شرح البرهان في علوم القرآن","publishedAt":"2022-01-22T20:33:08Z","duration":"PT8M9S","thumbnail":"https://i.ytimg.com/vi/nUCqR76_Q-I/mqdefault.jpg","viewCount":"591","playlistId":"PLEkQk5xrP-tnW3iBL7HkKziOFCFZbTlf0","playlistName":"شرح البرهان في علوم القرآن - أ.د. يسري جبر","category":"تفسير"},{"id":"DgzgYNbdxl8","title":"189- وقت الزوال ومعنى ظل الزوال - شرح دليل الفالحين","publishedAt":"2022-01-23T08:14:23Z","duration":"PT51M22S","thumbnail":"https://i.ytimg.com/vi/DgzgYNbdxl8/mqdefault.jpg","viewCount":"991","playlistId":"PLEkQk5xrP-tkc9DXvSLguqX5-FYp6ASR4","playlistName":"دليل الفالحين لطرق رياض الصالحين","category":"متنوع"},{"id":"XMxejr7KHog","title":"4- عددُ الرُّسُل المَذْكُورينَ في القرآن","publishedAt":"2022-01-23T17:44:22Z","duration":"PT1H6M25S","thumbnail":"https://i.ytimg.com/vi/XMxejr7KHog/mqdefault.jpg","viewCount":"5740","playlistId":"PLEkQk5xrP-tmNuYT8JAh6clwa4krsgkNo","playlistName":"شرح كتاب الفُتُوحات اليُسريَّة في عقائد الأُمَّة المُحمَّديَّة","category":"متنوع"},{"id":"czpocw-HWnQ","title":"33 -اختلاف الحديث وتَرْك المُعَاد منها","publishedAt":"2022-01-24T07:09:32Z","duration":"PT46M55S","thumbnail":"https://i.ytimg.com/vi/czpocw-HWnQ/mqdefault.jpg","viewCount":"1449","playlistId":"PLEkQk5xrP-tlDtaqY0qhNXAiZ19gaGzKI","playlistName":"شرح مسند الإمام محمد بن إدريس الشافعيّ رضي الله تعالى عنه","category":"فقه"},{"id":"TKslnPSM0DQ","title":"كيف تربي أولادك تربية صحيحة في هذا الزمان؟","publishedAt":"2022-01-24T19:00:10Z","duration":"PT13M3S","thumbnail":"https://i.ytimg.com/vi/TKslnPSM0DQ/mqdefault.jpg","viewCount":"10533","playlistId":"PLEkQk5xrP-tm8ZIu74nTOZN9KJUJu416J","playlistName":"مقاطع مُهمَّة (يُسريَّات) أ.د. يسري جبر","category":"متنوع"},{"id":"ve3zJnOoH3g","title":"التَّوَسُّع - شرح البرهان في علوم القرآن","publishedAt":"2022-01-25T06:48:48Z","duration":"PT6M18S","thumbnail":"https://i.ytimg.com/vi/ve3zJnOoH3g/mqdefault.jpg","viewCount":"765","playlistId":"PLEkQk5xrP-tnW3iBL7HkKziOFCFZbTlf0","playlistName":"شرح البرهان في علوم القرآن - أ.د. يسري جبر","category":"تفسير"},{"id":"deMGiEgSb3g","title":"الرسالة القشيرية - المجلس (109) بَابُ كرامات الأولياء ٢ | أ.د. يسري جبر","publishedAt":"2022-01-25T18:00:11Z","duration":"PT53M5S","thumbnail":"https://i.ytimg.com/vi/deMGiEgSb3g/mqdefault.jpg","viewCount":"21800","playlistId":"PLEkQk5xrP-tkHAGOwIKr4pc5ehhyQ5HMJ","playlistName":"كتاب الرسالة القشيرية (تصوف) - د. يسري جبر","category":"تصوف"},{"id":"qQAGwLjEFb0","title":"190- فَضْلُ الرَّجَاء - شرح دليل الفالحين","publishedAt":"2022-01-26T07:04:38Z","duration":"PT39M58S","thumbnail":"https://i.ytimg.com/vi/qQAGwLjEFb0/mqdefault.jpg","viewCount":"1488","playlistId":"PLEkQk5xrP-tkc9DXvSLguqX5-FYp6ASR4","playlistName":"دليل الفالحين لطرق رياض الصالحين","category":"متنوع"},{"id":"NFg6n2JGfvY","title":"ما معنى كلمة مدد؟","publishedAt":"2022-01-26T20:15:14Z","duration":"PT10M32S","thumbnail":"https://i.ytimg.com/vi/NFg6n2JGfvY/mqdefault.jpg","viewCount":"24745","playlistId":"PLEkQk5xrP-tkGXuZ9atE3k_7it12rUPTs","playlistName":"أسئلة المتابعين","category":"متنوع"},{"id":"V5MBNI5Nock","title":"التشبيه - شرح البرهان في علوم القرآن","publishedAt":"2022-01-27T08:15:33Z","duration":"PT15M26S","thumbnail":"https://i.ytimg.com/vi/V5MBNI5Nock/mqdefault.jpg","viewCount":"648","playlistId":"PLEkQk5xrP-tnW3iBL7HkKziOFCFZbTlf0","playlistName":"شرح البرهان في علوم القرآن - أ.د. يسري جبر","category":"تفسير"},{"id":"ZOE3d3tr_40","title":"كيف نغير الواقع؟","publishedAt":"2022-01-27T20:00:50Z","duration":"PT41M30S","thumbnail":"https://i.ytimg.com/vi/ZOE3d3tr_40/mqdefault.jpg","viewCount":"21268","playlistId":"PLEkQk5xrP-tlArtGpeLWaqNM7h7IDeAVC","playlistName":"خطب الجمعة أ.د. يسري جبر","category":"خطب"},{"id":"N4f7WiaYjNI","title":"191- الجَمْعُ بَينَ الخَوفِ والرَّجَاء - شرح دليل الفالحين","publishedAt":"2022-01-28T07:55:24Z","duration":"PT39M35S","thumbnail":"https://i.ytimg.com/vi/N4f7WiaYjNI/mqdefault.jpg","viewCount":"1482","playlistId":"PLEkQk5xrP-tkc9DXvSLguqX5-FYp6ASR4","playlistName":"دليل الفالحين لطرق رياض الصالحين","category":"متنوع"},{"id":"DaVm9RfIBVU","title":"كيف نواجه الأفلام الموجهة لدعم الشذوذ؟","publishedAt":"2022-01-28T18:15:03Z","duration":"PT23M53S","thumbnail":"https://i.ytimg.com/vi/DaVm9RfIBVU/mqdefault.jpg","viewCount":"12313","playlistId":"PLEkQk5xrP-tlArtGpeLWaqNM7h7IDeAVC","playlistName":"خطب الجمعة أ.د. يسري جبر","category":"خطب"},{"id":"xMmluhaWOxQ","title":"أقسام التشبيه - شرح البرهان في علوم القرآن","publishedAt":"2022-01-29T06:54:09Z","duration":"PT21M38S","thumbnail":"https://i.ytimg.com/vi/xMmluhaWOxQ/mqdefault.jpg","viewCount":"765","playlistId":"PLEkQk5xrP-tnW3iBL7HkKziOFCFZbTlf0","playlistName":"شرح البرهان في علوم القرآن - أ.د. يسري جبر","category":"تفسير"},{"id":"qz-mUTXSH_k","title":"هل يجوز زيارة القبور للنساء؟","publishedAt":"2022-01-29T18:00:13Z","duration":"PT12M32S","thumbnail":"https://i.ytimg.com/vi/qz-mUTXSH_k/mqdefault.jpg","viewCount":"6598","playlistId":"PLEkQk5xrP-tkGXuZ9atE3k_7it12rUPTs","playlistName":"أسئلة المتابعين","category":"متنوع"},{"id":"8iZTE7jVcPU","title":"192- فَضْلُ البُكَاءِ مِن خَشية الله تعالى وشَوقًا إليه - شرح دليل الفالحين","publishedAt":"2022-01-30T06:40:32Z","duration":"PT38M11S","thumbnail":"https://i.ytimg.com/vi/8iZTE7jVcPU/mqdefault.jpg","viewCount":"3242","playlistId":"PLEkQk5xrP-tkc9DXvSLguqX5-FYp6ASR4","playlistName":"دليل الفالحين لطرق رياض الصالحين","category":"متنوع"},{"id":"7NIA7_OZigM","title":"هل ابن تيمية من أهل التصوف؟","publishedAt":"2022-01-30T19:00:02Z","duration":"PT8M49S","thumbnail":"https://i.ytimg.com/vi/7NIA7_OZigM/mqdefault.jpg","viewCount":"46500","playlistId":"PLEkQk5xrP-tkGXuZ9atE3k_7it12rUPTs","playlistName":"أسئلة المتابعين","category":"متنوع"},{"id":"vAjTbTzaUJ0","title":"تقسيم طَرَفَي التشبيه: المُشَبَّه والمُشَبَّه به - شرح البرهان في علوم القرآن","publishedAt":"2022-01-31T06:53:29Z","duration":"PT22M18S","thumbnail":"https://i.ytimg.com/vi/vAjTbTzaUJ0/mqdefault.jpg","viewCount":"780","playlistId":"PLEkQk5xrP-tnW3iBL7HkKziOFCFZbTlf0","playlistName":"شرح البرهان في علوم القرآن - أ.د. يسري جبر","category":"تفسير"},{"id":"CKw7IZmCoWI","title":"193- تَجَلِّي صِفَاتُ الجَلَالِ والجَمَالِ مَعًا - شرح دليل الفالحين","publishedAt":"2022-01-31T21:05:55Z","duration":"PT28M22S","thumbnail":"https://i.ytimg.com/vi/CKw7IZmCoWI/mqdefault.jpg","viewCount":"2159","playlistId":"PLEkQk5xrP-tkc9DXvSLguqX5-FYp6ASR4","playlistName":"دليل الفالحين لطرق رياض الصالحين","category":"متنوع"},{"id":"TqeZxq9tevw","title":"التشبيه: التقسيم الثالث: ينقسم إلى مُفْرَد ومُرَكَّب - شرح البرهان في علوم القرآن","publishedAt":"2022-02-01T06:51:52Z","duration":"PT17M3S","thumbnail":"https://i.ytimg.com/vi/TqeZxq9tevw/mqdefault.jpg","viewCount":"757","playlistId":"PLEkQk5xrP-tnW3iBL7HkKziOFCFZbTlf0","playlistName":"شرح البرهان في علوم القرآن - أ.د. يسري جبر","category":"تفسير"},{"id":"iQpWLiwZtdI","title":"الرسالة القشيرية - المجلس (110) بَابُ كرامات الأولياء ۳ | أ.د. يسري جبر","publishedAt":"2022-02-01T19:36:24Z","duration":"PT53M58S","thumbnail":"https://i.ytimg.com/vi/iQpWLiwZtdI/mqdefault.jpg","viewCount":"23564","playlistId":"PLEkQk5xrP-tkHAGOwIKr4pc5ehhyQ5HMJ","playlistName":"كتاب الرسالة القشيرية (تصوف) - د. يسري جبر","category":"تصوف"}],"total":7675,"page":221,"pageSize":24,"totalPages":320}