{"items":[{"id":"rBAhWWgFFrk","title":"26- ما الفرق بين أحوال القبض والبسط؟ | شرح الحكم العطائية","publishedAt":"2025-08-23T18:15:10Z","duration":"PT35M33S","thumbnail":"https://i.ytimg.com/vi/rBAhWWgFFrk/mqdefault.jpg","viewCount":"3511","playlistId":"PLEkQk5xrP-tmf5ToOwmW-q0JwxkapbrMN","playlistName":"شرح كتاب إرشاد البرية إلى بعض معاني الحكم العطائية","category":"متنوع"},{"id":"As3mTPewN5A","title":"كيف نحتفل بمولد النبي ﷺ؟","publishedAt":"2025-08-24T17:00:10Z","duration":"PT21M49S","thumbnail":"https://i.ytimg.com/vi/As3mTPewN5A/mqdefault.jpg","viewCount":"6233","playlistId":"PLEkQk5xrP-tlArtGpeLWaqNM7h7IDeAVC","playlistName":"خطب الجمعة أ.د. يسري جبر","category":"خطب"},{"id":"B_MEA3mC5Qc","title":"بذكرى المولد نحيا","publishedAt":"2025-08-25T18:15:15Z","duration":"PT19M49S","thumbnail":"https://i.ytimg.com/vi/B_MEA3mC5Qc/mqdefault.jpg","viewCount":"7684","playlistId":"PLEkQk5xrP-tm8ZIu74nTOZN9KJUJu416J","playlistName":"مقاطع مُهمَّة (يُسريَّات) أ.د. يسري جبر","category":"متنوع"},{"id":"fGJsx9pESew","title":"لماذا نحتفل بمولد النبي ﷺ وهل الاحتفال بدعة؟","publishedAt":"2025-08-26T17:30:12Z","duration":"PT21M27S","thumbnail":"https://i.ytimg.com/vi/fGJsx9pESew/mqdefault.jpg","viewCount":"9117","playlistId":"PLEkQk5xrP-tlArtGpeLWaqNM7h7IDeAVC","playlistName":"خطب الجمعة أ.د. يسري جبر","category":"خطب"},{"id":"bBr6AONS2VQ","title":"ما حدود الكلام والشات بين الشباب والفتيات قبل الزواج؟","publishedAt":"2025-08-27T18:00:39Z","duration":"PT8M9S","thumbnail":"https://i.ytimg.com/vi/bBr6AONS2VQ/mqdefault.jpg","viewCount":"5993","playlistId":"PLEkQk5xrP-tkGXuZ9atE3k_7it12rUPTs","playlistName":"أسئلة المتابعين","category":"متنوع"},{"id":"6H8JkUyksRg","title":"عندي مشكلة في نومي ولا أستطيع الاستيقاظ للفجر فماذا أفعل؟","publishedAt":"2025-08-28T18:06:30Z","duration":"PT9M8S","thumbnail":"https://i.ytimg.com/vi/6H8JkUyksRg/mqdefault.jpg","viewCount":"4272","playlistId":"PLEkQk5xrP-tkGXuZ9atE3k_7it12rUPTs","playlistName":"أسئلة المتابعين","category":"متنوع"},{"id":"5qJaJxrl2v8","title":"كيف تستمد علو الهمة من شيخك؟","publishedAt":"2025-08-29T18:00:11Z","duration":"PT27M50S","thumbnail":"https://i.ytimg.com/vi/5qJaJxrl2v8/mqdefault.jpg","viewCount":"2900","playlistId":"PLEkQk5xrP-tmsEDdkkXMM1ca2-AquQYad","playlistName":"شرح كتاب مدارج الحقيقة في الرابطة عند أهل الطريقة","category":"متنوع"},{"id":"g_Q4sH3lsaI","title":"64- متى نسجد للسهو وهل على المأموم سجود سهو؟ | شرح سنن الإمام الدارقطني","publishedAt":"2025-08-30T09:00:57Z","duration":"PT36M41S","thumbnail":"https://i.ytimg.com/vi/g_Q4sH3lsaI/mqdefault.jpg","viewCount":"266","playlistId":"PLEkQk5xrP-tk_MCBZ706ORCw6gFtFyaGj","playlistName":"شرح سنن الإمام الدارقطني","category":"متنوع"},{"id":"oFj_QOX27TQ","title":"ازاي تكسر الرهبة والخوف عند مواجهة الناس؟","publishedAt":"2025-08-30T18:14:59Z","duration":"PT11M10S","thumbnail":"https://i.ytimg.com/vi/oFj_QOX27TQ/mqdefault.jpg","viewCount":"4244","playlistId":"PLEkQk5xrP-tkGXuZ9atE3k_7it12rUPTs","playlistName":"أسئلة المتابعين","category":"متنوع"},{"id":"SIFdaGB65AI","title":"ما حكم زيارة مقامات آل البيت والصالحين؟","publishedAt":"2025-08-31T18:50:17Z","duration":"PT8M13S","thumbnail":"https://i.ytimg.com/vi/SIFdaGB65AI/mqdefault.jpg","viewCount":"1664","playlistId":"PLEkQk5xrP-tkGXuZ9atE3k_7it12rUPTs","playlistName":"أسئلة المتابعين","category":"متنوع"},{"id":"obWIJXaJmvo","title":"ما حكم تجسس الزوجة على هاتف زوجها؟","publishedAt":"2025-09-01T19:00:46Z","duration":"PT9M30S","thumbnail":"https://i.ytimg.com/vi/obWIJXaJmvo/mqdefault.jpg","viewCount":"2638","playlistId":"PLEkQk5xrP-tkGXuZ9atE3k_7it12rUPTs","playlistName":"أسئلة المتابعين","category":"متنوع"},{"id":"rKFW8Gg9b9A","title":"299- الأسماء والكنى والألقاب في القرآن الكريم - شرح الإتقان في علوم القرآن","publishedAt":"2025-09-02T09:01:22Z","duration":"PT30M33S","thumbnail":"https://i.ytimg.com/vi/rKFW8Gg9b9A/mqdefault.jpg","viewCount":"493","playlistId":"PLEkQk5xrP-tlPw10KGJKagu7zm4Ry2Tge","playlistName":"شرح الإتقان في علوم القرآن","category":"تفسير"},{"id":"kFV12_vRIKY","title":"ما حقيقة عذاب القبر ونعيمه وماذا يحدث بعد الموت؟","publishedAt":"2025-09-02T19:00:42Z","duration":"PT34M15S","thumbnail":"https://i.ytimg.com/vi/kFV12_vRIKY/mqdefault.jpg","viewCount":"2778","playlistId":"PLEkQk5xrP-tmsEDdkkXMM1ca2-AquQYad","playlistName":"شرح كتاب مدارج الحقيقة في الرابطة عند أهل الطريقة","category":"متنوع"},{"id":"KYd54QZZKdY","title":"67- متى ينزل الله السكينة على قلبك؟ | شرح منازل السائرين","publishedAt":"2025-09-03T19:00:13Z","duration":"PT30M36S","thumbnail":"https://i.ytimg.com/vi/KYd54QZZKdY/mqdefault.jpg","viewCount":"9985","playlistId":"PLEkQk5xrP-tmiUfQ-2Tsn7QIak4EsvaZW","playlistName":"كتاب التيسير المعين بشرح معاني منازل السائرين (تصوف) - د.يسري جبر","category":"تصوف"},{"id":"u05lu_CXs_s","title":"حقائق ومعاني حول روحانية النبي ﷺ في يوم مولده","publishedAt":"2025-09-04T18:45:45Z","duration":"PT23M21S","thumbnail":"https://i.ytimg.com/vi/u05lu_CXs_s/mqdefault.jpg","viewCount":"3980","playlistId":"PLEkQk5xrP-tlArtGpeLWaqNM7h7IDeAVC","playlistName":"خطب الجمعة أ.د. يسري جبر","category":"خطب"},{"id":"qvg7SWM3Bes","title":"قصة مولد النبي ﷺ من الميلاد إلى المعجزات!","publishedAt":"2025-09-06T19:15:06Z","duration":"PT39M31S","thumbnail":"https://i.ytimg.com/vi/qvg7SWM3Bes/mqdefault.jpg","viewCount":"5348","playlistId":"PLEkQk5xrP-tlArtGpeLWaqNM7h7IDeAVC","playlistName":"خطب الجمعة أ.د. يسري جبر","category":"خطب"},{"id":"yffaCPgAW_c","title":"ظاهرة خسوف القمر وكيفية صلاة الخسوف؟","publishedAt":"2025-09-07T09:15:13Z","duration":"PT12M45S","thumbnail":"https://i.ytimg.com/vi/yffaCPgAW_c/mqdefault.jpg","viewCount":"82769","playlistId":"PLEkQk5xrP-tm8ZIu74nTOZN9KJUJu416J","playlistName":"مقاطع مُهمَّة (يُسريَّات) أ.د. يسري جبر","category":"متنوع"},{"id":"8ZNe06qNKG0","title":"هل يجوز قراءة روايات الخيال والسفر بالزمن؟","publishedAt":"2025-09-09T19:30:00Z","duration":"PT9M26S","thumbnail":"https://i.ytimg.com/vi/8ZNe06qNKG0/mqdefault.jpg","viewCount":"2224","playlistId":"PLEkQk5xrP-tkGXuZ9atE3k_7it12rUPTs","playlistName":"أسئلة المتابعين","category":"متنوع"},{"id":"u6tOsmONWjk","title":"جانب من الاحتفال بالمولد النبوي الشريف 1447","publishedAt":"2025-09-10T13:01:46Z","duration":"PT2H20M26S","thumbnail":"https://i.ytimg.com/vi/u6tOsmONWjk/mqdefault.jpg","viewCount":"2820","playlistId":"PLEkQk5xrP-tlB8lmbwjAKR8KRgiykGKhb","playlistName":"حضرات يسرية ومدائح نبوية","category":"متنوع"},{"id":"k6UH4dNUX2Y","title":"رحلة الروح بعد الوفاة وماذا يحدث بعد الموت؟","publishedAt":"2025-09-11T17:01:08Z","duration":"PT26M54S","thumbnail":"https://i.ytimg.com/vi/k6UH4dNUX2Y/mqdefault.jpg","viewCount":"6193","playlistId":"PLEkQk5xrP-tmsEDdkkXMM1ca2-AquQYad","playlistName":"شرح كتاب مدارج الحقيقة في الرابطة عند أهل الطريقة","category":"متنوع"},{"id":"dNukwytgzWA","title":"كلمة د. مجدي عاشور و د. أحمد ممدوح احتفالًا بالمولد النبوي","publishedAt":"2025-09-12T18:45:02Z","duration":"PT15M20S","thumbnail":"https://i.ytimg.com/vi/dNukwytgzWA/mqdefault.jpg","viewCount":"1928","playlistId":"PLEkQk5xrP-tm8ZIu74nTOZN9KJUJu416J","playlistName":"مقاطع مُهمَّة (يُسريَّات) أ.د. يسري جبر","category":"متنوع"},{"id":"Zr_H7F1VvgY","title":"كلمة أ.د. يسري جبر احتفالًا بالمولد النبوي الشريف","publishedAt":"2025-09-13T18:30:53Z","duration":"PT31M54S","thumbnail":"https://i.ytimg.com/vi/Zr_H7F1VvgY/mqdefault.jpg","viewCount":"879","playlistId":"PLEkQk5xrP-tm8ZIu74nTOZN9KJUJu416J","playlistName":"مقاطع مُهمَّة (يُسريَّات) أ.د. يسري جبر","category":"متنوع"},{"id":"Maj_wP5wRf8","title":"ما تفسير عتاب الله للنبي في جميع مواضع القرآن؟","publishedAt":"2025-09-15T18:45:02Z","duration":"PT28M56S","thumbnail":"https://i.ytimg.com/vi/Maj_wP5wRf8/mqdefault.jpg","viewCount":"2354","playlistId":"PLEkQk5xrP-tlArtGpeLWaqNM7h7IDeAVC","playlistName":"خطب الجمعة أ.د. يسري جبر","category":"خطب"},{"id":"75M4uDbnamQ","title":"68- كيف تشعر بالطمأنينة وراحة البال في حياتك؟ | شرح منازل السائرين","publishedAt":"2025-09-16T17:45:20Z","duration":"PT35M59S","thumbnail":"https://i.ytimg.com/vi/75M4uDbnamQ/mqdefault.jpg","viewCount":"10342","playlistId":"PLEkQk5xrP-tmiUfQ-2Tsn7QIak4EsvaZW","playlistName":"كتاب التيسير المعين بشرح معاني منازل السائرين (تصوف) - د.يسري جبر","category":"تصوف"}],"total":7670,"page":315,"pageSize":24,"totalPages":320}