{"items":[{"id":"5Oei6jQ_3TE","title":"قراءة القرآن (من أول سورة البروج)","publishedAt":"2016-03-12T11:09:57Z","duration":"PT16M20S","thumbnail":"https://i.ytimg.com/vi/5Oei6jQ_3TE/mqdefault.jpg","viewCount":"79","playlistId":"PLEkQk5xrP-tnUSUj0uyJhA-kwNC7Gkx_j","playlistName":"مقرأة الفجر - بداية من سورة الإسراء حتى سورة الناس","category":"تفسير"},{"id":"-kpmCoFjUB8","title":"شرح كتاب الأدب من سنن الترمذي - المجلس الرابع","publishedAt":"2016-03-12T11:15:01Z","duration":"PT33M46S","thumbnail":"https://i.ytimg.com/vi/-kpmCoFjUB8/mqdefault.jpg","viewCount":"136","playlistId":"PLEkQk5xrP-tnu6of679SvxdVx0qSrJzmb","playlistName":"شرح سنن الإمام الترمذي رضى الله عنه د. يسري جبر","category":"متنوع"},{"id":"jUw3Ea2Kr54","title":"قراءة القرآن (من أول سورة الطارق)","publishedAt":"2016-03-12T11:19:36Z","duration":"PT16M11S","thumbnail":"https://i.ytimg.com/vi/jUw3Ea2Kr54/mqdefault.jpg","viewCount":"89","playlistId":"PLEkQk5xrP-tnUSUj0uyJhA-kwNC7Gkx_j","playlistName":"مقرأة الفجر - بداية من سورة الإسراء حتى سورة الناس","category":"تفسير"},{"id":"_PXc3XXQ24s","title":"شرح كتاب الأدب من سنن الترمذي - المجلس الخامس","publishedAt":"2016-03-12T11:21:02Z","duration":"PT42M59S","thumbnail":"https://i.ytimg.com/vi/_PXc3XXQ24s/mqdefault.jpg","viewCount":"136","playlistId":"PLEkQk5xrP-tnu6of679SvxdVx0qSrJzmb","playlistName":"شرح سنن الإمام الترمذي رضى الله عنه د. يسري جبر","category":"متنوع"},{"id":"ESyKPcT-vs8","title":"قراءة القرآن (من أول سورة الأعلى)","publishedAt":"2016-03-15T09:17:55Z","duration":"PT19M23S","thumbnail":"https://i.ytimg.com/vi/ESyKPcT-vs8/mqdefault.jpg","viewCount":"74","playlistId":"PLEkQk5xrP-tnUSUj0uyJhA-kwNC7Gkx_j","playlistName":"مقرأة الفجر - بداية من سورة الإسراء حتى سورة الناس","category":"تفسير"},{"id":"ciIRQE7IjT8","title":"شرح كتاب الأدب من سنن الترمذي - المجلس السادس","publishedAt":"2016-03-15T11:04:15Z","duration":"PT35M13S","thumbnail":"https://i.ytimg.com/vi/ciIRQE7IjT8/mqdefault.jpg","viewCount":"158","playlistId":"PLEkQk5xrP-tnu6of679SvxdVx0qSrJzmb","playlistName":"شرح سنن الإمام الترمذي رضى الله عنه د. يسري جبر","category":"متنوع"},{"id":"wFUZoty_Tv8","title":"قراءة القرآن (من أول سورة الغاشية)","publishedAt":"2016-03-15T11:39:50Z","duration":"PT21M11S","thumbnail":"https://i.ytimg.com/vi/wFUZoty_Tv8/mqdefault.jpg","viewCount":"78","playlistId":"PLEkQk5xrP-tnUSUj0uyJhA-kwNC7Gkx_j","playlistName":"مقرأة الفجر - بداية من سورة الإسراء حتى سورة الناس","category":"تفسير"},{"id":"xKN1fwtM360","title":"قراءة القرآن (من أول سورة الفجر)","publishedAt":"2016-03-16T03:39:40Z","duration":"PT35M59S","thumbnail":"https://i.ytimg.com/vi/xKN1fwtM360/mqdefault.jpg","viewCount":"105","playlistId":"PLEkQk5xrP-tnUSUj0uyJhA-kwNC7Gkx_j","playlistName":"مقرأة الفجر - بداية من سورة الإسراء حتى سورة الناس","category":"تفسير"},{"id":"q08VoPOvBXQ","title":"شرح كتاب الأدب من سنن الترمذي - المجلس الثامن","publishedAt":"2016-03-16T03:39:48Z","duration":"PT39M12S","thumbnail":"https://i.ytimg.com/vi/q08VoPOvBXQ/mqdefault.jpg","viewCount":"96","playlistId":"PLEkQk5xrP-tnu6of679SvxdVx0qSrJzmb","playlistName":"شرح سنن الإمام الترمذي رضى الله عنه د. يسري جبر","category":"متنوع"},{"id":"mWvkmqav1As","title":"شرح كتاب الأدب من سنن الترمذي - المجلس السابع","publishedAt":"2016-03-16T03:39:56Z","duration":"PT35M49S","thumbnail":"https://i.ytimg.com/vi/mWvkmqav1As/mqdefault.jpg","viewCount":"95","playlistId":"PLEkQk5xrP-tnu6of679SvxdVx0qSrJzmb","playlistName":"شرح سنن الإمام الترمذي رضى الله عنه د. يسري جبر","category":"متنوع"},{"id":"D1opCHa29b8","title":"قراءة القرآن (من أول سورة البلد)","publishedAt":"2016-03-16T11:15:09Z","duration":"PT17M46S","thumbnail":"https://i.ytimg.com/vi/D1opCHa29b8/mqdefault.jpg","viewCount":"101","playlistId":"PLEkQk5xrP-tnUSUj0uyJhA-kwNC7Gkx_j","playlistName":"مقرأة الفجر - بداية من سورة الإسراء حتى سورة الناس","category":"تفسير"},{"id":"_7dFHKyOUfY","title":"شرح كتاب الأدب من سنن الترمذي - المجلس التاسع","publishedAt":"2016-03-16T11:34:54Z","duration":"PT45M22S","thumbnail":"https://i.ytimg.com/vi/_7dFHKyOUfY/mqdefault.jpg","viewCount":"119","playlistId":"PLEkQk5xrP-tnu6of679SvxdVx0qSrJzmb","playlistName":"شرح سنن الإمام الترمذي رضى الله عنه د. يسري جبر","category":"متنوع"},{"id":"n7fmobcCccQ","title":"قراءة القرآن (من أول سورة الشمس)","publishedAt":"2016-03-17T08:40:59Z","duration":"PT8M7S","thumbnail":"https://i.ytimg.com/vi/n7fmobcCccQ/mqdefault.jpg","viewCount":"80","playlistId":"PLEkQk5xrP-tnUSUj0uyJhA-kwNC7Gkx_j","playlistName":"مقرأة الفجر - بداية من سورة الإسراء حتى سورة الناس","category":"تفسير"},{"id":"Izcq5DX-rpY","title":"شرح كتاب الأدب من سنن الترمذي - المجلس العاشر","publishedAt":"2016-03-17T11:13:46Z","duration":"PT44M21S","thumbnail":"https://i.ytimg.com/vi/Izcq5DX-rpY/mqdefault.jpg","viewCount":"113","playlistId":"PLEkQk5xrP-tnu6of679SvxdVx0qSrJzmb","playlistName":"شرح سنن الإمام الترمذي رضى الله عنه د. يسري جبر","category":"متنوع"},{"id":"WZ8RgU-fZUM","title":"صحيح الإمام البخاري رضي الله تعالى عنه - كتاب الأطعمة - المجلس الثامن","publishedAt":"2016-03-18T14:20:39Z","duration":"PT1H49S","thumbnail":"https://i.ytimg.com/vi/WZ8RgU-fZUM/mqdefault.jpg","viewCount":"123","playlistId":"PLEkQk5xrP-tmJuzaj4GWRenFoFx9gdbFX","playlistName":"شرح كتاب صحيح الإمام البخاري رضي الله تعالى عنه   أ.د. يسرى جبر","category":"حديث"},{"id":"YrFAIynXGms","title":"صحيح الإمام البخاري رضي الله تعالى عنه - كتاب الأطعمة - المجلس التاسع والأخير","publishedAt":"2016-03-19T11:18:16Z","duration":"PT39M55S","thumbnail":"https://i.ytimg.com/vi/YrFAIynXGms/mqdefault.jpg","viewCount":"125","playlistId":"PLEkQk5xrP-tmJuzaj4GWRenFoFx9gdbFX","playlistName":"شرح كتاب صحيح الإمام البخاري رضي الله تعالى عنه   أ.د. يسرى جبر","category":"حديث"},{"id":"fWben66GGSg","title":"برنامج - عصمة الأنبياء - الحلقة الأولى - مفهوم العصمة - @alerthTV","publishedAt":"2016-03-19T16:17:13Z","duration":"PT23M30S","thumbnail":"https://i.ytimg.com/vi/fWben66GGSg/mqdefault.jpg","viewCount":"9074","playlistId":"PLEkQk5xrP-tnBp9yUT_R2vtqSPOlcyAZe","playlistName":"برنامج - عصمة الأنبياء","category":"متنوع"},{"id":"oLRgNnghg_8","title":"صحيح الإمام البخاري رضي الله تعالى عنه - كتاب العقيقة  د. يسري جبر","publishedAt":"2016-03-21T19:51:56Z","duration":"PT32M43S","thumbnail":"https://i.ytimg.com/vi/oLRgNnghg_8/mqdefault.jpg","viewCount":"198","playlistId":"PLEkQk5xrP-tmJuzaj4GWRenFoFx9gdbFX","playlistName":"شرح كتاب صحيح الإمام البخاري رضي الله تعالى عنه   أ.د. يسرى جبر","category":"حديث"},{"id":"dp6AbrUDgzo","title":"صلوات اليوم الرابع أ.د. يسري جبر","publishedAt":"2016-03-26T19:21:39Z","duration":"PT16M42S","thumbnail":"https://i.ytimg.com/vi/dp6AbrUDgzo/mqdefault.jpg","viewCount":"7548","playlistId":"PLEkQk5xrP-tmuP5s2o33O9gAOC4ACxsma","playlistName":"صَلَواتُ الأَسْمَاءِ الْحُسْنَى شَرْحُ الصَّلَواتِ الْيُسْرِيَّةِ عَلَى خَيرِ الْبَرِيَّةِ  أ.د. يسرى جبر","category":"متنوع"},{"id":"pO3kb8IABnc","title":"قراءة القرآن (من أول سورة الليل)","publishedAt":"2016-03-26T21:33:45Z","duration":"PT12M32S","thumbnail":"https://i.ytimg.com/vi/pO3kb8IABnc/mqdefault.jpg","viewCount":"96","playlistId":"PLEkQk5xrP-tnUSUj0uyJhA-kwNC7Gkx_j","playlistName":"مقرأة الفجر - بداية من سورة الإسراء حتى سورة الناس","category":"تفسير"},{"id":"xMowNvJYzZc","title":"شرح كتاب الأمثال من سنن الترمذي - المجلس الأول","publishedAt":"2016-03-27T02:18:15Z","duration":"PT33M32S","thumbnail":"https://i.ytimg.com/vi/xMowNvJYzZc/mqdefault.jpg","viewCount":"174","playlistId":"PLEkQk5xrP-tnu6of679SvxdVx0qSrJzmb","playlistName":"شرح سنن الإمام الترمذي رضى الله عنه د. يسري جبر","category":"متنوع"},{"id":"_o7TCjHNbB4","title":"صحيح الإمام البخاري رضي الله عنه - كتاب الذبائح والصيد والتسمية على الصيد - المجلس الأول د. يسري جبر","publishedAt":"2016-03-27T04:48:15Z","duration":"PT44M43S","thumbnail":"https://i.ytimg.com/vi/_o7TCjHNbB4/mqdefault.jpg","viewCount":"185","playlistId":"PLEkQk5xrP-tmJuzaj4GWRenFoFx9gdbFX","playlistName":"شرح كتاب صحيح الإمام البخاري رضي الله تعالى عنه   أ.د. يسرى جبر","category":"حديث"},{"id":"RyfCQUhIrSI","title":"قراءة القرآن (من أول سورة الضحى)","publishedAt":"2016-03-28T02:25:12Z","duration":"PT27M48S","thumbnail":"https://i.ytimg.com/vi/RyfCQUhIrSI/mqdefault.jpg","viewCount":"447","playlistId":"PLEkQk5xrP-tnUSUj0uyJhA-kwNC7Gkx_j","playlistName":"مقرأة الفجر - بداية من سورة الإسراء حتى سورة الناس","category":"تفسير"},{"id":"zndQPWdROq8","title":"شرح كتاب الأمثال من سنن الترمذي - المجلس الثاني","publishedAt":"2016-03-28T02:25:19Z","duration":"PT42M52S","thumbnail":"https://i.ytimg.com/vi/zndQPWdROq8/mqdefault.jpg","viewCount":"173","playlistId":"PLEkQk5xrP-tnu6of679SvxdVx0qSrJzmb","playlistName":"شرح سنن الإمام الترمذي رضى الله عنه د. يسري جبر","category":"متنوع"}],"total":7675,"page":32,"pageSize":24,"totalPages":320}