{"items":[{"id":"sOWGLHoLFZA","title":"152- \"أَبَرُّ البِرِّ أنْ يَصِلَ الرَّجُلُ وُدَّ أبِيهِ\" - شرح دليل الفالحين","publishedAt":"2021-10-31T18:31:31Z","duration":"PT44M47S","thumbnail":"https://i.ytimg.com/vi/sOWGLHoLFZA/mqdefault.jpg","viewCount":"788","playlistId":"PLEkQk5xrP-tkc9DXvSLguqX5-FYp6ASR4","playlistName":"دليل الفالحين لطرق رياض الصالحين","category":"متنوع"},{"id":"r7B3o6yqND0","title":"الفُتوّة","publishedAt":"2021-11-01T04:24:42Z","duration":"PT7M33S","thumbnail":"https://i.ytimg.com/vi/r7B3o6yqND0/mqdefault.jpg","viewCount":"4507","playlistId":"PLEkQk5xrP-tm8ZIu74nTOZN9KJUJu416J","playlistName":"مقاطع مُهمَّة (يُسريَّات) أ.د. يسري جبر","category":"متنوع"},{"id":"grKuX971Q3E","title":"ما الفرق بين العارف بالله والعالِم؟","publishedAt":"2021-11-01T17:00:37Z","duration":"PT11M40S","thumbnail":"https://i.ytimg.com/vi/grKuX971Q3E/mqdefault.jpg","viewCount":"11433","playlistId":"PLEkQk5xrP-tm8ZIu74nTOZN9KJUJu416J","playlistName":"مقاطع مُهمَّة (يُسريَّات) أ.د. يسري جبر","category":"متنوع"},{"id":"RSJxbj1IYM4","title":"تغليب الموصوف على غير الموصوف - شرح البرهان في علوم القرآن","publishedAt":"2021-11-02T02:44:17Z","duration":"PT25M25S","thumbnail":"https://i.ytimg.com/vi/RSJxbj1IYM4/mqdefault.jpg","viewCount":"425","playlistId":"PLEkQk5xrP-tnW3iBL7HkKziOFCFZbTlf0","playlistName":"شرح البرهان في علوم القرآن - أ.د. يسري جبر","category":"تفسير"},{"id":"u1xEqhh9_XU","title":"32- يَحرُمُ صيام خمسة أيام - شرح كتاب فتح القريب المجيب","publishedAt":"2021-11-02T10:55:10Z","duration":"PT1H13M52S","thumbnail":"https://i.ytimg.com/vi/u1xEqhh9_XU/mqdefault.jpg","viewCount":"914","playlistId":"PLEkQk5xrP-tkXuPs-0sXfWQDWzBKmcjWN","playlistName":"\"فتح القريب المجيب في شرح ألفاظ التقريب\"( فقه شافعيّ)  أ. د. يسري جبر","category":"فقه"},{"id":"gLdJRej8J9k","title":"الرسالة القشيرية - المجلس (97) بَابُ المعرفة بالله ۲ | أ.د. يسري جبر","publishedAt":"2021-11-02T19:00:11Z","duration":"PT1H9M41S","thumbnail":"https://i.ytimg.com/vi/gLdJRej8J9k/mqdefault.jpg","viewCount":"30649","playlistId":"PLEkQk5xrP-tkHAGOwIKr4pc5ehhyQ5HMJ","playlistName":"كتاب الرسالة القشيرية (تصوف) - د. يسري جبر","category":"تصوف"},{"id":"eB2eaajmFJE","title":"153- \"ما غِرْتُ علَى أحَدٍ مِن نِسَاءِ النَّبيِّ ﷺ، ما غِرْتُ علَى خَدِيجَةَ…\" - شرح دليل الفالحين","publishedAt":"2021-11-03T02:27:52Z","duration":"PT31M8S","thumbnail":"https://i.ytimg.com/vi/eB2eaajmFJE/mqdefault.jpg","viewCount":"1430","playlistId":"PLEkQk5xrP-tkc9DXvSLguqX5-FYp6ASR4","playlistName":"دليل الفالحين لطرق رياض الصالحين","category":"متنوع"},{"id":"Y0GEATT1R7I","title":"كيف بدء الوحي؟","publishedAt":"2021-11-06T14:03:07Z","duration":"PT42M34S","thumbnail":"https://i.ytimg.com/vi/Y0GEATT1R7I/mqdefault.jpg","viewCount":"6219","playlistId":"PLEkQk5xrP-tlArtGpeLWaqNM7h7IDeAVC","playlistName":"خطب الجمعة أ.د. يسري جبر","category":"خطب"},{"id":"7mjUOsrsnXU","title":"تغليب الإسلام - شرح البرهان في علوم القرآن","publishedAt":"2021-11-06T20:58:53Z","duration":"PT30M30S","thumbnail":"https://i.ytimg.com/vi/7mjUOsrsnXU/mqdefault.jpg","viewCount":"655","playlistId":"PLEkQk5xrP-tnW3iBL7HkKziOFCFZbTlf0","playlistName":"شرح البرهان في علوم القرآن - أ.د. يسري جبر","category":"تفسير"},{"id":"4xYCAPEPOxY","title":"154- إكرامُ أهل بيت رسول ﷺ وبيان فضلهم - شرح دليل الفالحين","publishedAt":"2021-11-07T06:06:58Z","duration":"PT51M45S","thumbnail":"https://i.ytimg.com/vi/4xYCAPEPOxY/mqdefault.jpg","viewCount":"4226","playlistId":"PLEkQk5xrP-tkc9DXvSLguqX5-FYp6ASR4","playlistName":"دليل الفالحين لطرق رياض الصالحين","category":"متنوع"},{"id":"HYt25-P_G6o","title":"هل التصوير حرام؟","publishedAt":"2021-11-07T19:35:42Z","duration":"PT8M46S","thumbnail":"https://i.ytimg.com/vi/HYt25-P_G6o/mqdefault.jpg","viewCount":"8502","playlistId":"PLEkQk5xrP-tkGXuZ9atE3k_7it12rUPTs","playlistName":"أسئلة المتابعين","category":"متنوع"},{"id":"iQasc6ivZXI","title":"الالتفات - شرح البرهان في علوم القرآن","publishedAt":"2021-11-08T05:14:55Z","duration":"PT13M53S","thumbnail":"https://i.ytimg.com/vi/iQasc6ivZXI/mqdefault.jpg","viewCount":"760","playlistId":"PLEkQk5xrP-tnW3iBL7HkKziOFCFZbTlf0","playlistName":"شرح البرهان في علوم القرآن - أ.د. يسري جبر","category":"تفسير"},{"id":"yhcdvl4eFSY","title":"الإثبات العلمي لوجود الله","publishedAt":"2021-11-08T19:30:04Z","duration":"PT9M38S","thumbnail":"https://i.ytimg.com/vi/yhcdvl4eFSY/mqdefault.jpg","viewCount":"6973","playlistId":"PLEkQk5xrP-tlnvX_MSpJzq0sTimnumdYK","playlistName":"كيف تعرفُ نبيّك؟","category":"متنوع"},{"id":"83Y0D5hI3kg","title":"37- أحكام البيوع وغيرها من المعاملات - شرح كتاب فتح القريب المجيب","publishedAt":"2021-11-09T06:09:36Z","duration":"PT45M16S","thumbnail":"https://i.ytimg.com/vi/83Y0D5hI3kg/mqdefault.jpg","viewCount":"1075","playlistId":"PLEkQk5xrP-tkXuPs-0sXfWQDWzBKmcjWN","playlistName":"\"فتح القريب المجيب في شرح ألفاظ التقريب\"( فقه شافعيّ)  أ. د. يسري جبر","category":"فقه"},{"id":"r_X8AIUg7iw","title":"الاحتفال بختام ربيع الأنور وكلمة إمام مسجد سيدنا الحسين رضي الله عنه","publishedAt":"2021-11-09T21:06:30Z","duration":"PT23M25S","thumbnail":"https://i.ytimg.com/vi/r_X8AIUg7iw/mqdefault.jpg","viewCount":"2389","playlistId":"PLEkQk5xrP-tm8ZIu74nTOZN9KJUJu416J","playlistName":"مقاطع مُهمَّة (يُسريَّات) أ.د. يسري جبر","category":"متنوع"},{"id":"tJZkDHhVuRw","title":"38- الرِّبَا - شرح كتاب فتح القريب المجيب","publishedAt":"2021-11-10T06:19:02Z","duration":"PT49M32S","thumbnail":"https://i.ytimg.com/vi/tJZkDHhVuRw/mqdefault.jpg","viewCount":"1032","playlistId":"PLEkQk5xrP-tkXuPs-0sXfWQDWzBKmcjWN","playlistName":"\"فتح القريب المجيب في شرح ألفاظ التقريب\"( فقه شافعيّ)  أ. د. يسري جبر","category":"فقه"},{"id":"qfWqsy7PwQE","title":"الرسالة القشيرية - المجلس (98) بَابُ المحبة | أ.د. يسري جبر","publishedAt":"2021-11-10T19:06:18Z","duration":"PT1H3M46S","thumbnail":"https://i.ytimg.com/vi/qfWqsy7PwQE/mqdefault.jpg","viewCount":"25291","playlistId":"PLEkQk5xrP-tkHAGOwIKr4pc5ehhyQ5HMJ","playlistName":"كتاب الرسالة القشيرية (تصوف) - د. يسري جبر","category":"تصوف"},{"id":"pHGIhe3Flic","title":"39- الاختيار - شرح كتاب فتح القريب المجيب","publishedAt":"2021-11-11T06:40:17Z","duration":"PT41M6S","thumbnail":"https://i.ytimg.com/vi/pHGIhe3Flic/mqdefault.jpg","viewCount":"842","playlistId":"PLEkQk5xrP-tkXuPs-0sXfWQDWzBKmcjWN","playlistName":"\"فتح القريب المجيب في شرح ألفاظ التقريب\"( فقه شافعيّ)  أ. د. يسري جبر","category":"فقه"},{"id":"5iFSiHfbtkQ","title":"40- أحكام السَّلَم - شرح كتاب فتح القريب المجيب","publishedAt":"2021-11-11T21:38:43Z","duration":"PT35M4S","thumbnail":"https://i.ytimg.com/vi/5iFSiHfbtkQ/mqdefault.jpg","viewCount":"1092","playlistId":"PLEkQk5xrP-tkXuPs-0sXfWQDWzBKmcjWN","playlistName":"\"فتح القريب المجيب في شرح ألفاظ التقريب\"( فقه شافعيّ)  أ. د. يسري جبر","category":"فقه"},{"id":"b792bfIjD3I","title":"ما الحكمة التي خلقنا من أجلها؟","publishedAt":"2021-11-12T17:48:20Z","duration":"PT52M58S","thumbnail":"https://i.ytimg.com/vi/b792bfIjD3I/mqdefault.jpg","viewCount":"61288","playlistId":"PLEkQk5xrP-tlArtGpeLWaqNM7h7IDeAVC","playlistName":"خطب الجمعة أ.د. يسري جبر","category":"خطب"},{"id":"0IdotzWdclE","title":"كيف تُدافع عن نبيك ﷺ؟","publishedAt":"2021-11-13T18:00:01Z","duration":"PT11M20S","thumbnail":"https://i.ytimg.com/vi/0IdotzWdclE/mqdefault.jpg","viewCount":"3544","playlistId":"PLEkQk5xrP-tm8ZIu74nTOZN9KJUJu416J","playlistName":"مقاطع مُهمَّة (يُسريَّات) أ.د. يسري جبر","category":"متنوع"},{"id":"P6r3yavMOJ8","title":"علاج الضعف أمام المعاصي","publishedAt":"2021-11-14T19:23:48Z","duration":"PT9M50S","thumbnail":"https://i.ytimg.com/vi/P6r3yavMOJ8/mqdefault.jpg","viewCount":"7757","playlistId":"PLEkQk5xrP-tkGXuZ9atE3k_7it12rUPTs","playlistName":"أسئلة المتابعين","category":"متنوع"},{"id":"GSLXoeETu1U","title":"الفرق بين الشريعة والحقيقة والطريقة؟","publishedAt":"2021-11-15T20:23:50Z","duration":"PT26M50S","thumbnail":"https://i.ytimg.com/vi/GSLXoeETu1U/mqdefault.jpg","viewCount":"23267","playlistId":"PLEkQk5xrP-tm8ZIu74nTOZN9KJUJu416J","playlistName":"مقاطع مُهمَّة (يُسريَّات) أ.د. يسري جبر","category":"متنوع"},{"id":"vl1UjGb1zSI","title":"الرسالة القشيرية - المجلس (99) بَابُ المحبة ٢ | أ.د. يسري جبر","publishedAt":"2021-11-16T18:59:55Z","duration":"PT38M16S","thumbnail":"https://i.ytimg.com/vi/vl1UjGb1zSI/mqdefault.jpg","viewCount":"8143","playlistId":"PLEkQk5xrP-tkHAGOwIKr4pc5ehhyQ5HMJ","playlistName":"كتاب الرسالة القشيرية (تصوف) - د. يسري جبر","category":"تصوف"}],"total":7670,"page":215,"pageSize":24,"totalPages":320}