{"items":[{"id":"uF_7lpDdKmw","title":"مقرأة سورة غافر من آية ٢٩","publishedAt":"2018-11-08T09:01:18Z","duration":"PT18M3S","thumbnail":"https://i.ytimg.com/vi/uF_7lpDdKmw/mqdefault.jpg","viewCount":"293","playlistId":"PLEkQk5xrP-tnmTYsyW6xNdyfhPq0Bhrhj","playlistName":"مقرأة الفجر - القُرْآنُ الكَرِيمُ - خَتْمَةُ التَّدَبُّرِ  أ.د. يسري جبر","category":"متنوع"},{"id":"RRhSrkVxAbA","title":"شرح صحيح البخاري كتاب القدر من باب ٦","publishedAt":"2018-11-08T17:25:18Z","duration":"PT41M41S","thumbnail":"https://i.ytimg.com/vi/RRhSrkVxAbA/mqdefault.jpg","viewCount":"687","playlistId":"PLEkQk5xrP-tlEerGoLa1AFy-2XvQ-sovv","playlistName":"شرح صحيح البخاري - أ.د. يسري جبر (كاملا)","category":"حديث"},{"id":"9E_-YKIusIA","title":"مقرأة سورة غافر من آية ٣٥","publishedAt":"2018-11-09T09:06:28Z","duration":"PT22M20S","thumbnail":"https://i.ytimg.com/vi/9E_-YKIusIA/mqdefault.jpg","viewCount":"636","playlistId":"PLEkQk5xrP-tnmTYsyW6xNdyfhPq0Bhrhj","playlistName":"مقرأة الفجر - القُرْآنُ الكَرِيمُ - خَتْمَةُ التَّدَبُّرِ  أ.د. يسري جبر","category":"متنوع"},{"id":"66EEx6lgD4U","title":"الرسالة القشيرية المجلس الخامس و الثلاثون (النَّفَس - الخواطر) د. يسري جبر","publishedAt":"2018-11-09T16:28:15Z","duration":"PT41M43S","thumbnail":"https://i.ytimg.com/vi/66EEx6lgD4U/mqdefault.jpg","viewCount":"7627","playlistId":"PLEkQk5xrP-tkHAGOwIKr4pc5ehhyQ5HMJ","playlistName":"كتاب الرسالة القشيرية (تصوف) - د. يسري جبر","category":"تصوف"},{"id":"7NkqtKAf-DY","title":"شرح صحيح البخاري كتاب الأيمان والنذور من أوله","publishedAt":"2018-11-10T14:25:23Z","duration":"PT32M55S","thumbnail":"https://i.ytimg.com/vi/7NkqtKAf-DY/mqdefault.jpg","viewCount":"592","playlistId":"PLEkQk5xrP-tlEerGoLa1AFy-2XvQ-sovv","playlistName":"شرح صحيح البخاري - أ.د. يسري جبر (كاملا)","category":"حديث"},{"id":"v7s5Uo6s6Go","title":"مقرأة سورة غافر من آية 41","publishedAt":"2018-11-11T08:32:01Z","duration":"PT25M15S","thumbnail":"https://i.ytimg.com/vi/v7s5Uo6s6Go/mqdefault.jpg","viewCount":"368","playlistId":"PLEkQk5xrP-tnmTYsyW6xNdyfhPq0Bhrhj","playlistName":"مقرأة الفجر - القُرْآنُ الكَرِيمُ - خَتْمَةُ التَّدَبُّرِ  أ.د. يسري جبر","category":"متنوع"},{"id":"MLNVUgkGYdk","title":"شرح صحيح البخاري كتاب الأيمان والنذور من باب ٣","publishedAt":"2018-11-11T16:45:54Z","duration":"PT37M40S","thumbnail":"https://i.ytimg.com/vi/MLNVUgkGYdk/mqdefault.jpg","viewCount":"449","playlistId":"PLEkQk5xrP-tlEerGoLa1AFy-2XvQ-sovv","playlistName":"شرح صحيح البخاري - أ.د. يسري جبر (كاملا)","category":"حديث"},{"id":"4LUG3PoXl5s","title":"مقرأة سورة غافر من آية ٤٩","publishedAt":"2018-11-12T10:15:15Z","duration":"PT14M39S","thumbnail":"https://i.ytimg.com/vi/4LUG3PoXl5s/mqdefault.jpg","viewCount":"333","playlistId":"PLEkQk5xrP-tnmTYsyW6xNdyfhPq0Bhrhj","playlistName":"مقرأة الفجر - القُرْآنُ الكَرِيمُ - خَتْمَةُ التَّدَبُّرِ  أ.د. يسري جبر","category":"متنوع"},{"id":"IeMyIT5sH_4","title":"شرح صحيح البخاري كتاب الأيمان والنذور من باب ٥","publishedAt":"2018-11-12T14:47:45Z","duration":"PT36M50S","thumbnail":"https://i.ytimg.com/vi/IeMyIT5sH_4/mqdefault.jpg","viewCount":"435","playlistId":"PLEkQk5xrP-tlEerGoLa1AFy-2XvQ-sovv","playlistName":"شرح صحيح البخاري - أ.د. يسري جبر (كاملا)","category":"حديث"},{"id":"TF5ZRX-X33c","title":"مقرأة سورة غافر من آية ٥٦","publishedAt":"2018-11-13T06:12:53Z","duration":"PT34M14S","thumbnail":"https://i.ytimg.com/vi/TF5ZRX-X33c/mqdefault.jpg","viewCount":"397","playlistId":"PLEkQk5xrP-tnmTYsyW6xNdyfhPq0Bhrhj","playlistName":"مقرأة الفجر - القُرْآنُ الكَرِيمُ - خَتْمَةُ التَّدَبُّرِ  أ.د. يسري جبر","category":"متنوع"},{"id":"4yNDZJRfRK4","title":"شرح صحيح البخاري كتاب الأيمان والنذور من باب ١١","publishedAt":"2018-11-13T21:20:59Z","duration":"PT24M45S","thumbnail":"https://i.ytimg.com/vi/4yNDZJRfRK4/mqdefault.jpg","viewCount":"389","playlistId":"PLEkQk5xrP-tlEerGoLa1AFy-2XvQ-sovv","playlistName":"شرح صحيح البخاري - أ.د. يسري جبر (كاملا)","category":"حديث"},{"id":"QsELJCl-ZLw","title":"مقرأة سورة غافر من آية ٦٦","publishedAt":"2018-11-14T06:23:43Z","duration":"PT21M","thumbnail":"https://i.ytimg.com/vi/QsELJCl-ZLw/mqdefault.jpg","viewCount":"272","playlistId":"PLEkQk5xrP-tnmTYsyW6xNdyfhPq0Bhrhj","playlistName":"مقرأة الفجر - القُرْآنُ الكَرِيمُ - خَتْمَةُ التَّدَبُّرِ  أ.د. يسري جبر","category":"متنوع"},{"id":"txYh2x50SIM","title":"شرح صحيح البخاري كتاب الأيمان والنذور من باب ١٥","publishedAt":"2018-11-14T20:02:41Z","duration":"PT28M26S","thumbnail":"https://i.ytimg.com/vi/txYh2x50SIM/mqdefault.jpg","viewCount":"385","playlistId":"PLEkQk5xrP-tlEerGoLa1AFy-2XvQ-sovv","playlistName":"شرح صحيح البخاري - أ.د. يسري جبر (كاملا)","category":"حديث"},{"id":"3TFZz2BDT5M","title":"مقرأة سورة غافر من آية ٧١","publishedAt":"2018-11-15T07:04:27Z","duration":"PT29M30S","thumbnail":"https://i.ytimg.com/vi/3TFZz2BDT5M/mqdefault.jpg","viewCount":"381","playlistId":"PLEkQk5xrP-tnmTYsyW6xNdyfhPq0Bhrhj","playlistName":"مقرأة الفجر - القُرْآنُ الكَرِيمُ - خَتْمَةُ التَّدَبُّرِ  أ.د. يسري جبر","category":"متنوع"},{"id":"kd4C9piLp5M","title":"شرح صحيح البخاري كتاب الأيمان والنذور من باب ١٧","publishedAt":"2018-11-15T15:39:33Z","duration":"PT33M51S","thumbnail":"https://i.ytimg.com/vi/kd4C9piLp5M/mqdefault.jpg","viewCount":"450","playlistId":"PLEkQk5xrP-tlEerGoLa1AFy-2XvQ-sovv","playlistName":"شرح صحيح البخاري - أ.د. يسري جبر (كاملا)","category":"حديث"},{"id":"2FK6y-hO-1c","title":"مقرأة سورة غافر من آية ٧٩","publishedAt":"2018-11-17T15:21:45Z","duration":"PT20M48S","thumbnail":"https://i.ytimg.com/vi/2FK6y-hO-1c/mqdefault.jpg","viewCount":"347","playlistId":"PLEkQk5xrP-tnmTYsyW6xNdyfhPq0Bhrhj","playlistName":"مقرأة الفجر - القُرْآنُ الكَرِيمُ - خَتْمَةُ التَّدَبُّرِ  أ.د. يسري جبر","category":"متنوع"},{"id":"C3Li883IOt8","title":"شرح صحيح البخاري كتاب الأيمان والنذور من باب ٢٢","publishedAt":"2018-11-18T08:56:41Z","duration":"PT41M10S","thumbnail":"https://i.ytimg.com/vi/C3Li883IOt8/mqdefault.jpg","viewCount":"427","playlistId":"PLEkQk5xrP-tlEerGoLa1AFy-2XvQ-sovv","playlistName":"شرح صحيح البخاري - أ.د. يسري جبر (كاملا)","category":"حديث"},{"id":"7YTAsBDAXbs","title":"مقرأة سورة فصلت من أولها","publishedAt":"2018-11-18T17:33:59Z","duration":"PT19M29S","thumbnail":"https://i.ytimg.com/vi/7YTAsBDAXbs/mqdefault.jpg","viewCount":"622","playlistId":"PLEkQk5xrP-tnmTYsyW6xNdyfhPq0Bhrhj","playlistName":"مقرأة الفجر - القُرْآنُ الكَرِيمُ - خَتْمَةُ التَّدَبُّرِ  أ.د. يسري جبر","category":"متنوع"},{"id":"NX9koGQvZ9s","title":"حول المولد النبوي الشريف (1)   د. يسري جبر","publishedAt":"2018-11-18T18:34:19Z","duration":"PT39M13S","thumbnail":"https://i.ytimg.com/vi/NX9koGQvZ9s/mqdefault.jpg","viewCount":"4875","playlistId":"PLEkQk5xrP-tlArtGpeLWaqNM7h7IDeAVC","playlistName":"خطب الجمعة أ.د. يسري جبر","category":"خطب"},{"id":"i83VVRngwRA","title":"حول المولد النبوي الشريف (2)   د. يسري جبر","publishedAt":"2018-11-18T18:41:31Z","duration":"PT40M52S","thumbnail":"https://i.ytimg.com/vi/i83VVRngwRA/mqdefault.jpg","viewCount":"1971","playlistId":"PLEkQk5xrP-tlArtGpeLWaqNM7h7IDeAVC","playlistName":"خطب الجمعة أ.د. يسري جبر","category":"خطب"},{"id":"AVCuUAWuzGs","title":"شرح صحيح البخاري كتاب الأيمان والنذور من باب ٢٩","publishedAt":"2018-11-19T09:16:10Z","duration":"PT21M56S","thumbnail":"https://i.ytimg.com/vi/AVCuUAWuzGs/mqdefault.jpg","viewCount":"369","playlistId":"PLEkQk5xrP-tlEerGoLa1AFy-2XvQ-sovv","playlistName":"شرح صحيح البخاري - أ.د. يسري جبر (كاملا)","category":"حديث"},{"id":"Yv-MF6WMvqI","title":"مقرأة سورة فصلت من آية ٩","publishedAt":"2018-11-20T07:09:50Z","duration":"PT14M3S","thumbnail":"https://i.ytimg.com/vi/Yv-MF6WMvqI/mqdefault.jpg","viewCount":"439","playlistId":"PLEkQk5xrP-tnmTYsyW6xNdyfhPq0Bhrhj","playlistName":"مقرأة الفجر - القُرْآنُ الكَرِيمُ - خَتْمَةُ التَّدَبُّرِ  أ.د. يسري جبر","category":"متنوع"},{"id":"_nET-sJo2ng","title":"شرح صحيح البخاري كتاب كفارات الأيمان من أوله","publishedAt":"2018-11-20T16:48:22Z","duration":"PT48M26S","thumbnail":"https://i.ytimg.com/vi/_nET-sJo2ng/mqdefault.jpg","viewCount":"533","playlistId":"PLEkQk5xrP-tlEerGoLa1AFy-2XvQ-sovv","playlistName":"شرح صحيح البخاري - أ.د. يسري جبر (كاملا)","category":"حديث"},{"id":"ot1jJmxiXTE","title":"مقرأة سورة فصلت من آية ١٣","publishedAt":"2018-11-21T15:14:42Z","duration":"PT18M23S","thumbnail":"https://i.ytimg.com/vi/ot1jJmxiXTE/mqdefault.jpg","viewCount":"342","playlistId":"PLEkQk5xrP-tnmTYsyW6xNdyfhPq0Bhrhj","playlistName":"مقرأة الفجر - القُرْآنُ الكَرِيمُ - خَتْمَةُ التَّدَبُّرِ  أ.د. يسري جبر","category":"متنوع"}],"total":7670,"page":124,"pageSize":24,"totalPages":320}