{"items":[{"id":"avDW585674o","title":"١- حول ظاهرة الكسوف وكيفية صلاتها ٢- الفرق بين الجهاد فى الله والجهاد فى سبيل الله","publishedAt":"2015-03-21T03:19:07Z","duration":"PT34M50S","thumbnail":"https://i.ytimg.com/vi/avDW585674o/mqdefault.jpg","viewCount":"138","playlistId":"PLEkQk5xrP-tlArtGpeLWaqNM7h7IDeAVC","playlistName":"خطب الجمعة أ.د. يسري جبر","category":"خطب"},{"id":"UrmSjt2Ww0w","title":"شرح فتح القريب المجيب «شرائط الصلاة قبل الدخول فيها خمسة أشياء» د. يسري جبر","publishedAt":"2015-03-21T16:19:25Z","duration":"PT1H7M1S","thumbnail":"https://i.ytimg.com/vi/UrmSjt2Ww0w/mqdefault.jpg","viewCount":"2212","playlistId":"PLEkQk5xrP-tlyOgfNBZTZgoATzVW4mI20","playlistName":"كتاب فتح القريب المجيب (علم الفقه الشافعي)","category":"فقه"},{"id":"RFRNPc_6pXE","title":"زِيَارَةُ أُمِّنَا وَأُمِّ المُؤْمِنِينَ السَّيِّدَةِ خَدِيجَةَ رَِضىَ اللهُ عَنْهَا وَأَرْضَاهَا","publishedAt":"2015-03-21T17:57:30Z","duration":"PT19M58S","thumbnail":"https://i.ytimg.com/vi/RFRNPc_6pXE/mqdefault.jpg","viewCount":"514","playlistId":"PLEkQk5xrP-tlB8lmbwjAKR8KRgiykGKhb","playlistName":"حضرات يسرية ومدائح نبوية","category":"متنوع"},{"id":"u2Z8nk7xGH0","title":"صحيح الإمام البخارى رضى الله عنه - كتاب النكاح المجلس الحادى عشر","publishedAt":"2015-03-22T14:48:08Z","duration":"PT43M14S","thumbnail":"https://i.ytimg.com/vi/u2Z8nk7xGH0/mqdefault.jpg","viewCount":"141","playlistId":"PLEkQk5xrP-tmJuzaj4GWRenFoFx9gdbFX","playlistName":"شرح كتاب صحيح الإمام البخاري رضي الله تعالى عنه   أ.د. يسرى جبر","category":"حديث"},{"id":"V7S8oSvdrOo","title":"شرح كتاب منازل السائرين للإمام الهروى المجلس الحادى والأربعون قسم الأَودية باب الإلهام وباب السكينة","publishedAt":"2015-03-23T21:01:30Z","duration":"PT1H15M24S","thumbnail":"https://i.ytimg.com/vi/V7S8oSvdrOo/mqdefault.jpg","viewCount":"1506","playlistId":"PLEkQk5xrP-tnLYi_5_tSRVBwqcs7ISV7Y","playlistName":"شرح كتاب منازل السائرين للإمام الهروي","category":"متنوع"},{"id":"LjOuGzvOoNE","title":"احتكار الجماعات المتطرفة وعد الإلهي والاستعلاء به على الناس","publishedAt":"2015-03-27T22:39:26Z","duration":"PT17M47S","thumbnail":"https://i.ytimg.com/vi/LjOuGzvOoNE/mqdefault.jpg","viewCount":"1377","playlistId":"PLEkQk5xrP-tl5sZd_31jJw-5LldLW46Dv","playlistName":"كتاب الحق المبين في الرد على من تطاول على الدين","category":"ردود"},{"id":"c7jb_0qwDcM","title":"صحيح الإمام البخارى رضى الله عنه - كتاب النكاح المجلس الثانى عشر","publishedAt":"2015-03-29T20:47:02Z","duration":"PT1H1M49S","thumbnail":"https://i.ytimg.com/vi/c7jb_0qwDcM/mqdefault.jpg","viewCount":"209","playlistId":"PLEkQk5xrP-tmJuzaj4GWRenFoFx9gdbFX","playlistName":"شرح كتاب صحيح الإمام البخاري رضي الله تعالى عنه   أ.د. يسرى جبر","category":"حديث"},{"id":"RUj1ShkWqUQ","title":"شرح كتاب فتح القريب المجيب فصل في «أركان الصلاة» د. يسري رشدي جبر","publishedAt":"2015-03-30T22:03:37Z","duration":"PT1H6M5S","thumbnail":"https://i.ytimg.com/vi/RUj1ShkWqUQ/mqdefault.jpg","viewCount":"2723","playlistId":"PLEkQk5xrP-tlyOgfNBZTZgoATzVW4mI20","playlistName":"كتاب فتح القريب المجيب (علم الفقه الشافعي)","category":"فقه"},{"id":"MGpAq0K_aAk","title":"شرح كتاب منازل السائرين للإمام الهروى المجلس الثانى والأربعون قسم الأَودية باب الطمأنينة وباب الهمة","publishedAt":"2015-03-31T05:47:00Z","duration":"PT1H8M28S","thumbnail":"https://i.ytimg.com/vi/MGpAq0K_aAk/mqdefault.jpg","viewCount":"1467","playlistId":"PLEkQk5xrP-tnLYi_5_tSRVBwqcs7ISV7Y","playlistName":"شرح كتاب منازل السائرين للإمام الهروي","category":"متنوع"},{"id":"y_6Me76M6S8","title":"شرح كتاب الأذكار من كلام سيد الأبرار للإمام النووى رضى الله عنه - المجلس الحادى والثانى عشر","publishedAt":"2015-04-02T15:51:09Z","duration":"PT41M56S","thumbnail":"https://i.ytimg.com/vi/y_6Me76M6S8/mqdefault.jpg","viewCount":"754","playlistId":"PLEkQk5xrP-tkWS57Ubysh0ifJR8dmuEtE","playlistName":"شرح كتاب الأذكار للإمام النووي د. يسرى جبر","category":"حديث"},{"id":"LW77HqEydys","title":"كن مع الله د. يسري جبر","publishedAt":"2015-04-02T21:31:58Z","duration":"PT16M38S","thumbnail":"https://i.ytimg.com/vi/LW77HqEydys/mqdefault.jpg","viewCount":"540","playlistId":"PLEkQk5xrP-tlArtGpeLWaqNM7h7IDeAVC","playlistName":"خطب الجمعة أ.د. يسري جبر","category":"خطب"},{"id":"ChNJX9lBXOY","title":"شرح كتاب الأذكار من كلام سيد الأبرار للإمام النووى رضى الله عنه - المجلس الثالث عشر","publishedAt":"2015-04-02T22:48:08Z","duration":"PT19M15S","thumbnail":"https://i.ytimg.com/vi/ChNJX9lBXOY/mqdefault.jpg","viewCount":"510","playlistId":"PLEkQk5xrP-tkWS57Ubysh0ifJR8dmuEtE","playlistName":"شرح كتاب الأذكار للإمام النووي د. يسرى جبر","category":"حديث"},{"id":"h1ZeadGKiV8","title":"صلوات اليوم الثالث أ.د. يسري جبر","publishedAt":"2015-04-03T05:02:17Z","duration":"PT14M19S","thumbnail":"https://i.ytimg.com/vi/h1ZeadGKiV8/mqdefault.jpg","viewCount":"6113","playlistId":"PLEkQk5xrP-tmuP5s2o33O9gAOC4ACxsma","playlistName":"صَلَواتُ الأَسْمَاءِ الْحُسْنَى شَرْحُ الصَّلَواتِ الْيُسْرِيَّةِ عَلَى خَيرِ الْبَرِيَّةِ  أ.د. يسرى جبر","category":"متنوع"},{"id":"1eYYCSazEO0","title":"خُطُورَةُ التَّأَلِّى عَلَى الله  د. يسرى جبر","publishedAt":"2015-04-04T14:30:24Z","duration":"PT43M41S","thumbnail":"https://i.ytimg.com/vi/1eYYCSazEO0/mqdefault.jpg","viewCount":"444","playlistId":"PLEkQk5xrP-tlArtGpeLWaqNM7h7IDeAVC","playlistName":"خطب الجمعة أ.د. يسري جبر","category":"خطب"},{"id":"mBupko4I82g","title":"مفهوم الجهاد عند الجماعات المتطرفة","publishedAt":"2015-04-04T18:32:12Z","duration":"PT25M10S","thumbnail":"https://i.ytimg.com/vi/mBupko4I82g/mqdefault.jpg","viewCount":"1500","playlistId":"PLEkQk5xrP-tl5sZd_31jJw-5LldLW46Dv","playlistName":"كتاب الحق المبين في الرد على من تطاول على الدين","category":"ردود"},{"id":"mMqtrW77iRs","title":"صحيح الإمام البخارى رضى الله عنه - كتاب النكاح المجلس الثالث عشر","publishedAt":"2015-04-06T14:36:44Z","duration":"PT1H1M30S","thumbnail":"https://i.ytimg.com/vi/mMqtrW77iRs/mqdefault.jpg","viewCount":"164","playlistId":"PLEkQk5xrP-tmJuzaj4GWRenFoFx9gdbFX","playlistName":"شرح كتاب صحيح الإمام البخاري رضي الله تعالى عنه   أ.د. يسرى جبر","category":"حديث"},{"id":"weUv6xaf2EU","title":"شرح كتاب منازل السائرين للإمام الهروى المجلس الثالث والأربعون قسم الأَحوال باب المحبّة وباب الغَيْرة","publishedAt":"2015-04-07T04:18:21Z","duration":"PT1H9M49S","thumbnail":"https://i.ytimg.com/vi/weUv6xaf2EU/mqdefault.jpg","viewCount":"1195","playlistId":"PLEkQk5xrP-tnLYi_5_tSRVBwqcs7ISV7Y","playlistName":"شرح كتاب منازل السائرين للإمام الهروي","category":"متنوع"},{"id":"tIVXTzN_ThE","title":"شرح كتاب الأذكار من كلام سيد الأبرار للإمام النووى رضى الله عنه - المجلس الرابع عشر","publishedAt":"2015-04-10T20:08:43Z","duration":"PT6M8S","thumbnail":"https://i.ytimg.com/vi/tIVXTzN_ThE/mqdefault.jpg","viewCount":"413","playlistId":"PLEkQk5xrP-tkWS57Ubysh0ifJR8dmuEtE","playlistName":"شرح كتاب الأذكار للإمام النووي د. يسرى جبر","category":"حديث"},{"id":"9ysgXZsUVec","title":"مولد سيدة نساء العالمين الزهراء فاطمة البتول رضى الله تعالى عنها وعليها السلام","publishedAt":"2015-04-11T04:53:00Z","duration":"PT37M21S","thumbnail":"https://i.ytimg.com/vi/9ysgXZsUVec/mqdefault.jpg","viewCount":"908","playlistId":"PLEkQk5xrP-tlArtGpeLWaqNM7h7IDeAVC","playlistName":"خطب الجمعة أ.د. يسري جبر","category":"خطب"},{"id":"1W9l6yIZmB4","title":"صحيح الإمام البخارى رضى الله عنه - كتاب النكاح المجلس الرابع عشر","publishedAt":"2015-04-12T05:16:11Z","duration":"PT1H8M22S","thumbnail":"https://i.ytimg.com/vi/1W9l6yIZmB4/mqdefault.jpg","viewCount":"142","playlistId":"PLEkQk5xrP-tmJuzaj4GWRenFoFx9gdbFX","playlistName":"شرح كتاب صحيح الإمام البخاري رضي الله تعالى عنه   أ.د. يسرى جبر","category":"حديث"},{"id":"Lp60RAi2zIk","title":"شرح كتاب الأذكار من كلام سيد الأبرار للإمام النووى رضى الله عنه - المجلس الخامس عشر","publishedAt":"2015-04-12T21:11:45Z","duration":"PT21M11S","thumbnail":"https://i.ytimg.com/vi/Lp60RAi2zIk/mqdefault.jpg","viewCount":"470","playlistId":"PLEkQk5xrP-tkWS57Ubysh0ifJR8dmuEtE","playlistName":"شرح كتاب الأذكار للإمام النووي د. يسرى جبر","category":"حديث"},{"id":"cWqgAfpd4Fc","title":"شرح كتاب منازل السائرين للإمام الهروى المجلس الرابع والأربعون قسم الأَحوال باب الشوق وباب القلق","publishedAt":"2015-04-13T04:58:41Z","duration":"PT44M35S","thumbnail":"https://i.ytimg.com/vi/cWqgAfpd4Fc/mqdefault.jpg","viewCount":"1061","playlistId":"PLEkQk5xrP-tnLYi_5_tSRVBwqcs7ISV7Y","playlistName":"شرح كتاب منازل السائرين للإمام الهروي","category":"متنوع"},{"id":"N635YYAR-o0","title":"شرح كتاب الأذكار من كلام سيد الأبرار للإمام النووى رضى الله عنه - المجلس السادس عشر","publishedAt":"2015-04-13T20:36:48Z","duration":"PT31M48S","thumbnail":"https://i.ytimg.com/vi/N635YYAR-o0/mqdefault.jpg","viewCount":"497","playlistId":"PLEkQk5xrP-tkWS57Ubysh0ifJR8dmuEtE","playlistName":"شرح كتاب الأذكار للإمام النووي د. يسرى جبر","category":"حديث"},{"id":"EYSCSpihdEM","title":"شرح كتاب فتح القريب المجيب «سنن الصلاة بعد الدخول فيها» د. يسري رشدي جبر","publishedAt":"2015-04-14T10:25:20Z","duration":"PT1H14M13S","thumbnail":"https://i.ytimg.com/vi/EYSCSpihdEM/mqdefault.jpg","viewCount":"2259","playlistId":"PLEkQk5xrP-tlyOgfNBZTZgoATzVW4mI20","playlistName":"كتاب فتح القريب المجيب (علم الفقه الشافعي)","category":"فقه"}],"total":7675,"page":9,"pageSize":24,"totalPages":320}