{"items":[{"id":"6qYAvmOXr5M","title":"148- فضائل أبي بكر الصديق رضي الله عنه","publishedAt":"2020-10-12T07:47:19Z","duration":"PT14M59S","thumbnail":"https://i.ytimg.com/vi/6qYAvmOXr5M/mqdefault.jpg","viewCount":"3219","playlistId":"PLEkQk5xrP-tmKNjtYLfhATC37QdIsTMe0","playlistName":"شرح كتاب اللؤلؤ والمرجان فيما اتفق عليه الشيخان إماما المحدثين البخاري ومسلم. أ.د. يسري جبر","category":"حديث"},{"id":"8r00V77EqF0","title":"هو الله","publishedAt":"2020-10-12T18:38:16Z","duration":"PT6M19S","thumbnail":"https://i.ytimg.com/vi/8r00V77EqF0/mqdefault.jpg","viewCount":"6466","playlistId":"PLEkQk5xrP-tm8ZIu74nTOZN9KJUJu416J","playlistName":"مقاطع مُهمَّة (يُسريَّات) أ.د. يسري جبر","category":"متنوع"},{"id":"OddD4KGY9bI","title":"إطلاق اسم الكُلّ على الجزء","publishedAt":"2020-10-13T07:42:29Z","duration":"PT26M31S","thumbnail":"https://i.ytimg.com/vi/OddD4KGY9bI/mqdefault.jpg","viewCount":"792","playlistId":"PLEkQk5xrP-tnW3iBL7HkKziOFCFZbTlf0","playlistName":"شرح البرهان في علوم القرآن - أ.د. يسري جبر","category":"تفسير"},{"id":"BKdpr1DVslE","title":"149- فضائل عمر بن الخطاب رضي الله تعالى عنه","publishedAt":"2020-10-13T18:15:58Z","duration":"PT22M17S","thumbnail":"https://i.ytimg.com/vi/BKdpr1DVslE/mqdefault.jpg","viewCount":"2233","playlistId":"PLEkQk5xrP-tmKNjtYLfhATC37QdIsTMe0","playlistName":"شرح كتاب اللؤلؤ والمرجان فيما اتفق عليه الشيخان إماما المحدثين البخاري ومسلم. أ.د. يسري جبر","category":"حديث"},{"id":"oGncqwg994o","title":"تكملة ما جاء في النوع 43 في بيان حقيقته ومجازه","publishedAt":"2020-10-14T08:58:24Z","duration":"PT17M2S","thumbnail":"https://i.ytimg.com/vi/oGncqwg994o/mqdefault.jpg","viewCount":"479","playlistId":"PLEkQk5xrP-tnW3iBL7HkKziOFCFZbTlf0","playlistName":"شرح البرهان في علوم القرآن - أ.د. يسري جبر","category":"تفسير"},{"id":"t-imnyib9gw","title":"بِدَعُ التَفَاسِيرِ - المجلس السابع عشر. أ.د. يسري جبر","publishedAt":"2020-10-15T19:00:15Z","duration":"PT13M47S","thumbnail":"https://i.ytimg.com/vi/t-imnyib9gw/mqdefault.jpg","viewCount":"1352","playlistId":"PLEkQk5xrP-tkSGrPLMt1BEmJ54cGWYgtp","playlistName":"كتابُ بِدَعِ التَفَاسِيرِ - أ.د. يسري جبر","category":"متنوع"},{"id":"vEVUi4V0M04","title":"150- فضائل عثمان بن عفَّان رضي الله عنه","publishedAt":"2020-10-16T07:07:19Z","duration":"PT20M30S","thumbnail":"https://i.ytimg.com/vi/vEVUi4V0M04/mqdefault.jpg","viewCount":"1791","playlistId":"PLEkQk5xrP-tmKNjtYLfhATC37QdIsTMe0","playlistName":"شرح كتاب اللؤلؤ والمرجان فيما اتفق عليه الشيخان إماما المحدثين البخاري ومسلم. أ.د. يسري جبر","category":"حديث"},{"id":"gYelGCOkXDM","title":"الكُلُّ موجودٌ به سبحانه","publishedAt":"2020-10-16T19:58:08Z","duration":"PT6M53S","thumbnail":"https://i.ytimg.com/vi/gYelGCOkXDM/mqdefault.jpg","viewCount":"2241","playlistId":"PLEkQk5xrP-tm8ZIu74nTOZN9KJUJu416J","playlistName":"مقاطع مُهمَّة (يُسريَّات) أ.د. يسري جبر","category":"متنوع"},{"id":"kxpv0svl3HY","title":"إطلاق اسم المطلق على المُقيَّد","publishedAt":"2020-10-17T08:23:20Z","duration":"PT23M50S","thumbnail":"https://i.ytimg.com/vi/kxpv0svl3HY/mqdefault.jpg","viewCount":"546","playlistId":"PLEkQk5xrP-tnW3iBL7HkKziOFCFZbTlf0","playlistName":"شرح البرهان في علوم القرآن - أ.د. يسري جبر","category":"تفسير"},{"id":"AasBPGDz78g","title":"الرحمة والتسامح أ.د.يسري جبر","publishedAt":"2020-10-17T18:29:52Z","duration":"PT34M","thumbnail":"https://i.ytimg.com/vi/AasBPGDz78g/mqdefault.jpg","viewCount":"1885","playlistId":"PLEkQk5xrP-tlArtGpeLWaqNM7h7IDeAVC","playlistName":"خطب الجمعة أ.د. يسري جبر","category":"خطب"},{"id":"OkaAyockQTA","title":"151- فضل سعد بن أبي وقَّاص رضي اللهُ عنه","publishedAt":"2020-10-18T07:01:59Z","duration":"PT18M18S","thumbnail":"https://i.ytimg.com/vi/OkaAyockQTA/mqdefault.jpg","viewCount":"957","playlistId":"PLEkQk5xrP-tmKNjtYLfhATC37QdIsTMe0","playlistName":"شرح كتاب اللؤلؤ والمرجان فيما اتفق عليه الشيخان إماما المحدثين البخاري ومسلم. أ.د. يسري جبر","category":"حديث"},{"id":"ULS0o6o5-Gs","title":"كيف تتبرأ من العِلل؟","publishedAt":"2020-10-18T19:10:21Z","duration":"PT14M36S","thumbnail":"https://i.ytimg.com/vi/ULS0o6o5-Gs/mqdefault.jpg","viewCount":"5112","playlistId":"PLEkQk5xrP-tm8ZIu74nTOZN9KJUJu416J","playlistName":"مقاطع مُهمَّة (يُسريَّات) أ.د. يسري جبر","category":"متنوع"},{"id":"W8Mzr--ONDQ","title":"إطلاق الجَمْع وإرادة المُثَنَّى","publishedAt":"2020-10-19T06:59:43Z","duration":"PT18M49S","thumbnail":"https://i.ytimg.com/vi/W8Mzr--ONDQ/mqdefault.jpg","viewCount":"475","playlistId":"PLEkQk5xrP-tnW3iBL7HkKziOFCFZbTlf0","playlistName":"شرح البرهان في علوم القرآن - أ.د. يسري جبر","category":"تفسير"},{"id":"y67IllfDeaw","title":"كيف تتخلص من الوهم؟","publishedAt":"2020-10-20T19:05:27Z","duration":"PT13M53S","thumbnail":"https://i.ytimg.com/vi/y67IllfDeaw/mqdefault.jpg","viewCount":"18684","playlistId":"PLEkQk5xrP-tm8ZIu74nTOZN9KJUJu416J","playlistName":"مقاطع مُهمَّة (يُسريَّات) أ.د. يسري جبر","category":"متنوع"},{"id":"tHbxVk7dOZU","title":"152- فضائل عبد الله بن جعفر رضي الله عنهما","publishedAt":"2020-10-21T10:46:16Z","duration":"PT16M16S","thumbnail":"https://i.ytimg.com/vi/tHbxVk7dOZU/mqdefault.jpg","viewCount":"870","playlistId":"PLEkQk5xrP-tmKNjtYLfhATC37QdIsTMe0","playlistName":"شرح كتاب اللؤلؤ والمرجان فيما اتفق عليه الشيخان إماما المحدثين البخاري ومسلم. أ.د. يسري جبر","category":"حديث"},{"id":"f6jHnt6yQu4","title":"تَسْمِيَةُ الشَّيْءِ بِمَا يَؤُولُ إِلَيْهِ","publishedAt":"2020-10-21T21:32:28Z","duration":"PT20M11S","thumbnail":"https://i.ytimg.com/vi/f6jHnt6yQu4/mqdefault.jpg","viewCount":"751","playlistId":"PLEkQk5xrP-tnW3iBL7HkKziOFCFZbTlf0","playlistName":"شرح البرهان في علوم القرآن - أ.د. يسري جبر","category":"تفسير"},{"id":"WM4LX6mcdhU","title":"153- فضل السيدة عائشة أم المؤمنين رضي الله عنها وعن أبيها","publishedAt":"2020-10-22T08:31:02Z","duration":"PT18M4S","thumbnail":"https://i.ytimg.com/vi/WM4LX6mcdhU/mqdefault.jpg","viewCount":"1502","playlistId":"PLEkQk5xrP-tmKNjtYLfhATC37QdIsTMe0","playlistName":"شرح كتاب اللؤلؤ والمرجان فيما اتفق عليه الشيخان إماما المحدثين البخاري ومسلم. أ.د. يسري جبر","category":"حديث"},{"id":"X0RaKu8W9Uw","title":"إطلاق اسم المحلِّ على الحال","publishedAt":"2020-10-22T19:19:13Z","duration":"PT19M45S","thumbnail":"https://i.ytimg.com/vi/X0RaKu8W9Uw/mqdefault.jpg","viewCount":"597","playlistId":"PLEkQk5xrP-tnW3iBL7HkKziOFCFZbTlf0","playlistName":"شرح البرهان في علوم القرآن - أ.د. يسري جبر","category":"تفسير"},{"id":"oeYdp54JRKQ","title":"154- حديثُ أُمِّ زَرْع","publishedAt":"2020-10-23T07:44:26Z","duration":"PT42M57S","thumbnail":"https://i.ytimg.com/vi/oeYdp54JRKQ/mqdefault.jpg","viewCount":"2717","playlistId":"PLEkQk5xrP-tmKNjtYLfhATC37QdIsTMe0","playlistName":"شرح كتاب اللؤلؤ والمرجان فيما اتفق عليه الشيخان إماما المحدثين البخاري ومسلم. أ.د. يسري جبر","category":"حديث"},{"id":"uyq0ejH8J4E","title":"قسمة الله في عباده","publishedAt":"2020-10-23T17:46:50Z","duration":"PT4M16S","thumbnail":"https://i.ytimg.com/vi/uyq0ejH8J4E/mqdefault.jpg","viewCount":"3747","playlistId":"PLEkQk5xrP-tm8ZIu74nTOZN9KJUJu416J","playlistName":"مقاطع مُهمَّة (يُسريَّات) أ.د. يسري جبر","category":"متنوع"},{"id":"L5wSgUSAARE","title":"إقامة صيغة مقام أخرى","publishedAt":"2020-10-24T07:43:53Z","duration":"PT10M36S","thumbnail":"https://i.ytimg.com/vi/L5wSgUSAARE/mqdefault.jpg","viewCount":"603","playlistId":"PLEkQk5xrP-tnW3iBL7HkKziOFCFZbTlf0","playlistName":"شرح البرهان في علوم القرآن - أ.د. يسري جبر","category":"تفسير"},{"id":"Wi8VAdX56sc","title":"تحويل الأهوال إلى كمال الأحوال","publishedAt":"2020-10-24T18:18:58Z","duration":"PT10M53S","thumbnail":"https://i.ytimg.com/vi/Wi8VAdX56sc/mqdefault.jpg","viewCount":"3937","playlistId":"PLEkQk5xrP-tm8ZIu74nTOZN9KJUJu416J","playlistName":"مقاطع مُهمَّة (يُسريَّات) أ.د. يسري جبر","category":"متنوع"},{"id":"ke57UcwRiAg","title":"155- السيدة فاطمة بنت النَّبيّ ﷺ رضي الله عنها وعليها السلام","publishedAt":"2020-10-25T07:31:00Z","duration":"PT18M20S","thumbnail":"https://i.ytimg.com/vi/ke57UcwRiAg/mqdefault.jpg","viewCount":"4707","playlistId":"PLEkQk5xrP-tmKNjtYLfhATC37QdIsTMe0","playlistName":"شرح كتاب اللؤلؤ والمرجان فيما اتفق عليه الشيخان إماما المحدثين البخاري ومسلم. أ.د. يسري جبر","category":"حديث"},{"id":"_ycXPZWRWpA","title":"سبب تصنيف دلائل الخيرات","publishedAt":"2020-10-25T18:46:48Z","duration":"PT11M46S","thumbnail":"https://i.ytimg.com/vi/_ycXPZWRWpA/mqdefault.jpg","viewCount":"12874","playlistId":"PLEkQk5xrP-tm8ZIu74nTOZN9KJUJu416J","playlistName":"مقاطع مُهمَّة (يُسريَّات) أ.د. يسري جبر","category":"متنوع"}],"total":7670,"page":182,"pageSize":24,"totalPages":320}