{"items":[{"id":"2LDOSw-cCZM","title":"هل يجوز تقبيل القبور والتبرك بها؟","publishedAt":"2023-03-27T19:00:01Z","duration":"PT8M21S","thumbnail":"https://i.ytimg.com/vi/2LDOSw-cCZM/mqdefault.jpg","viewCount":"10611","playlistId":"PLEkQk5xrP-tkGXuZ9atE3k_7it12rUPTs","playlistName":"أسئلة المتابعين","category":"متنوع"},{"id":"cLi8M4d26GY","title":"44- ترتيب سور القرآن الكريم - شرح الإتقان في علوم القرآن","publishedAt":"2023-03-28T05:00:25Z","duration":"PT20M43S","thumbnail":"https://i.ytimg.com/vi/cLi8M4d26GY/mqdefault.jpg","viewCount":"922","playlistId":"PLEkQk5xrP-tlPw10KGJKagu7zm4Ry2Tge","playlistName":"شرح الإتقان في علوم القرآن","category":"تفسير"},{"id":"aCAWh3m8mJ8","title":"أنواع الصدقات | مجالس رمضانية","publishedAt":"2023-03-28T15:00:00Z","duration":"PT41M57S","thumbnail":"https://i.ytimg.com/vi/aCAWh3m8mJ8/mqdefault.jpg","viewCount":"2081","playlistId":"PLEkQk5xrP-tnl7vb7KeAoPd5ZlqKKW8KV","playlistName":"شرح كتاب بهجة النفوس أ.د . يسرى جبر","category":"متنوع"},{"id":"YHM69x2CsAM","title":"ما معنى الحب في الله وكيف يكون؟","publishedAt":"2023-03-28T19:00:12Z","duration":"PT11M35S","thumbnail":"https://i.ytimg.com/vi/YHM69x2CsAM/mqdefault.jpg","viewCount":"8832","playlistId":"PLEkQk5xrP-tm8ZIu74nTOZN9KJUJu416J","playlistName":"مقاطع مُهمَّة (يُسريَّات) أ.د. يسري جبر","category":"متنوع"},{"id":"b7onwVLa72M","title":"419- فضل الدعاء بظهر الغيب - شرح دليل الفالحين","publishedAt":"2023-03-29T05:00:15Z","duration":"PT46M29S","thumbnail":"https://i.ytimg.com/vi/b7onwVLa72M/mqdefault.jpg","viewCount":"1043","playlistId":"PLEkQk5xrP-tkc9DXvSLguqX5-FYp6ASR4","playlistName":"دليل الفالحين لطرق رياض الصالحين","category":"متنوع"},{"id":"8lG1Wo7iEHg","title":"عجائب صنائع المعروف | مجالس رمضانية","publishedAt":"2023-03-29T15:00:09Z","duration":"PT50M5S","thumbnail":"https://i.ytimg.com/vi/8lG1Wo7iEHg/mqdefault.jpg","viewCount":"4216","playlistId":"PLEkQk5xrP-tnl7vb7KeAoPd5ZlqKKW8KV","playlistName":"شرح كتاب بهجة النفوس أ.د . يسرى جبر","category":"متنوع"},{"id":"ikwfZQXvG4U","title":"ما هي أنواع الحب؟","publishedAt":"2023-03-29T19:00:27Z","duration":"PT8M20S","thumbnail":"https://i.ytimg.com/vi/ikwfZQXvG4U/mqdefault.jpg","viewCount":"6064","playlistId":"PLEkQk5xrP-tm8ZIu74nTOZN9KJUJu416J","playlistName":"مقاطع مُهمَّة (يُسريَّات) أ.د. يسري جبر","category":"متنوع"},{"id":"kFzV8BytyGY","title":"45- السبع الطوال - شرح الإتقان في علوم القرآن","publishedAt":"2023-03-30T05:00:30Z","duration":"PT27M13S","thumbnail":"https://i.ytimg.com/vi/kFzV8BytyGY/mqdefault.jpg","viewCount":"897","playlistId":"PLEkQk5xrP-tlPw10KGJKagu7zm4Ry2Tge","playlistName":"شرح الإتقان في علوم القرآن","category":"تفسير"},{"id":"hq4o9O4Lcv8","title":"حكم الاستماع للموسيقى والشعر | مجالس رمضانية","publishedAt":"2023-03-30T15:00:35Z","duration":"PT46M4S","thumbnail":"https://i.ytimg.com/vi/hq4o9O4Lcv8/mqdefault.jpg","viewCount":"1753","playlistId":"PLEkQk5xrP-tnl7vb7KeAoPd5ZlqKKW8KV","playlistName":"شرح كتاب بهجة النفوس أ.د . يسرى جبر","category":"متنوع"},{"id":"L6TpFMwrARY","title":"هل يجوز الاستماع الى الأغاني والموسيقى؟","publishedAt":"2023-03-30T19:00:09Z","duration":"PT8M12S","thumbnail":"https://i.ytimg.com/vi/L6TpFMwrARY/mqdefault.jpg","viewCount":"23758","playlistId":"PLEkQk5xrP-tkGXuZ9atE3k_7it12rUPTs","playlistName":"أسئلة المتابعين","category":"متنوع"},{"id":"IniGToUyha8","title":"420- كرامات الأولياء وفضلهم - شرح دليل الفالحين","publishedAt":"2023-03-31T05:00:07Z","duration":"PT31M25S","thumbnail":"https://i.ytimg.com/vi/IniGToUyha8/mqdefault.jpg","viewCount":"1740","playlistId":"PLEkQk5xrP-tkc9DXvSLguqX5-FYp6ASR4","playlistName":"دليل الفالحين لطرق رياض الصالحين","category":"متنوع"},{"id":"rEPdGBI_7A4","title":"عقوبة الغدر والخيانة | مجالس رمضانية","publishedAt":"2023-03-31T15:00:41Z","duration":"PT39M27S","thumbnail":"https://i.ytimg.com/vi/rEPdGBI_7A4/mqdefault.jpg","viewCount":"1706","playlistId":"PLEkQk5xrP-tnl7vb7KeAoPd5ZlqKKW8KV","playlistName":"شرح كتاب بهجة النفوس أ.د . يسرى جبر","category":"متنوع"},{"id":"ZcR0IRnKNAo","title":"كيف تغتنم ليالي رمضان؟","publishedAt":"2023-03-31T19:00:17Z","duration":"PT8M23S","thumbnail":"https://i.ytimg.com/vi/ZcR0IRnKNAo/mqdefault.jpg","viewCount":"5449","playlistId":"PLEkQk5xrP-tlArtGpeLWaqNM7h7IDeAVC","playlistName":"خطب الجمعة أ.د. يسري جبر","category":"خطب"},{"id":"bPpjcpj2Zp8","title":"46- عدد سور القرآن وآياته وكلماته وحروفه  - شرح الإتقان في علوم القرآن","publishedAt":"2023-04-01T05:00:12Z","duration":"PT24M43S","thumbnail":"https://i.ytimg.com/vi/bPpjcpj2Zp8/mqdefault.jpg","viewCount":"1073","playlistId":"PLEkQk5xrP-tlPw10KGJKagu7zm4Ry2Tge","playlistName":"شرح الإتقان في علوم القرآن","category":"تفسير"},{"id":"gSrvVHl4Xpc","title":"عواقب الألفاظ الخبيثة | مجالس رمضانية","publishedAt":"2023-04-01T15:00:22Z","duration":"PT47M3S","thumbnail":"https://i.ytimg.com/vi/gSrvVHl4Xpc/mqdefault.jpg","viewCount":"4178","playlistId":"PLEkQk5xrP-tnl7vb7KeAoPd5ZlqKKW8KV","playlistName":"شرح كتاب بهجة النفوس أ.د . يسرى جبر","category":"متنوع"},{"id":"hYGR5FU6LeI","title":"هل استعمال البنج الكلي أو الموضعي يفسد الصيام؟","publishedAt":"2023-04-01T19:00:15Z","duration":"PT13M8S","thumbnail":"https://i.ytimg.com/vi/hYGR5FU6LeI/mqdefault.jpg","viewCount":"2785","playlistId":"PLEkQk5xrP-tkGXuZ9atE3k_7it12rUPTs","playlistName":"أسئلة المتابعين","category":"متنوع"},{"id":"93HDugg_g34","title":"421- ما كُنَّا نَأخُذُ مِن لُقْمةٍ إلَّا رَبَا مِن أسفَلِها - بركة طعام الصالحين والاجتماع عليه","publishedAt":"2023-04-02T05:05:00Z","duration":"PT33M22S","thumbnail":"https://i.ytimg.com/vi/93HDugg_g34/mqdefault.jpg","viewCount":"894","playlistId":"PLEkQk5xrP-tkc9DXvSLguqX5-FYp6ASR4","playlistName":"دليل الفالحين لطرق رياض الصالحين","category":"متنوع"},{"id":"HJdwhCnDcyI","title":"ما حكم سب الدهر؟ | مجالس رمضانية","publishedAt":"2023-04-02T15:08:08Z","duration":"PT46M42S","thumbnail":"https://i.ytimg.com/vi/HJdwhCnDcyI/mqdefault.jpg","viewCount":"1435","playlistId":"PLEkQk5xrP-tnl7vb7KeAoPd5ZlqKKW8KV","playlistName":"شرح كتاب بهجة النفوس أ.د . يسرى جبر","category":"متنوع"},{"id":"SSz1MxzNlTc","title":"ما حكم الذكر بدون حضور القلب؟","publishedAt":"2023-04-02T19:00:09Z","duration":"PT8M53S","thumbnail":"https://i.ytimg.com/vi/SSz1MxzNlTc/mqdefault.jpg","viewCount":"27698","playlistId":"PLEkQk5xrP-tkGXuZ9atE3k_7it12rUPTs","playlistName":"أسئلة المتابعين","category":"متنوع"},{"id":"nUiftOL3DO4","title":"47- فصلٌ في عدِّ آي القرآن الكريم - شرح الإتقان في علوم القرآن","publishedAt":"2023-04-03T05:00:27Z","duration":"PT25M49S","thumbnail":"https://i.ytimg.com/vi/nUiftOL3DO4/mqdefault.jpg","viewCount":"763","playlistId":"PLEkQk5xrP-tlPw10KGJKagu7zm4Ry2Tge","playlistName":"شرح الإتقان في علوم القرآن","category":"تفسير"},{"id":"6saAK9g_oFQ","title":"الكرم قلب المؤمن | مجالس رمضانية","publishedAt":"2023-04-03T15:00:04Z","duration":"PT16M21S","thumbnail":"https://i.ytimg.com/vi/6saAK9g_oFQ/mqdefault.jpg","viewCount":"1898","playlistId":"PLEkQk5xrP-tnl7vb7KeAoPd5ZlqKKW8KV","playlistName":"شرح كتاب بهجة النفوس أ.د . يسرى جبر","category":"متنوع"},{"id":"ARAJjneBGuw","title":"كيف اتخلص من التفكير السلبي؟","publishedAt":"2023-04-03T19:00:06Z","duration":"PT10M2S","thumbnail":"https://i.ytimg.com/vi/ARAJjneBGuw/mqdefault.jpg","viewCount":"41640","playlistId":"PLEkQk5xrP-tkGXuZ9atE3k_7it12rUPTs","playlistName":"أسئلة المتابعين","category":"متنوع"},{"id":"2wadLsWWlsk","title":"422- بركة الطعام في منزل سيدنا أبي بكر _رضيَ اللهُ عنه_ وفيه كَرامةٌ ظاهرةٌ له _رضي الله عنه_","publishedAt":"2023-04-04T05:25:00Z","duration":"PT27M5S","thumbnail":"https://i.ytimg.com/vi/2wadLsWWlsk/mqdefault.jpg","viewCount":"732","playlistId":"PLEkQk5xrP-tkc9DXvSLguqX5-FYp6ASR4","playlistName":"دليل الفالحين لطرق رياض الصالحين","category":"متنوع"},{"id":"IOC77yJhTkg","title":"فضل التسمّي باسم النَّبيّ ﷺ | مجالس رمضانية","publishedAt":"2023-04-04T15:05:13Z","duration":"PT1H3S","thumbnail":"https://i.ytimg.com/vi/IOC77yJhTkg/mqdefault.jpg","viewCount":"2296","playlistId":"PLEkQk5xrP-tnl7vb7KeAoPd5ZlqKKW8KV","playlistName":"شرح كتاب بهجة النفوس أ.د . يسرى جبر","category":"متنوع"}],"total":7670,"page":261,"pageSize":24,"totalPages":320}