{"items":[{"id":"9PB9zztGewY","title":"شرح كتاب الطب من سنن الترمذي - المجلس السابع","publishedAt":"2015-12-02T06:03:54Z","duration":"PT35M55S","thumbnail":"https://i.ytimg.com/vi/9PB9zztGewY/mqdefault.jpg","viewCount":"153","playlistId":"PLEkQk5xrP-tnu6of679SvxdVx0qSrJzmb","playlistName":"شرح سنن الإمام الترمذي رضى الله عنه د. يسري جبر","category":"متنوع"},{"id":"Mi5zW3NjGJ8","title":"بَعْضُ صِفَاتِ المُؤْمِنِ د. يسرى جبر","publishedAt":"2015-12-02T17:07:52Z","duration":"PT48M46S","thumbnail":"https://i.ytimg.com/vi/Mi5zW3NjGJ8/mqdefault.jpg","viewCount":"297","playlistId":"PLEkQk5xrP-tlArtGpeLWaqNM7h7IDeAVC","playlistName":"خطب الجمعة أ.د. يسري جبر","category":"خطب"},{"id":"h1wgUuJt2V0","title":"صحيح الإمام البخاري رضي الله عنه - كتاب الطلاق - المجلس العاشر","publishedAt":"2015-12-02T17:57:06Z","duration":"PT35M39S","thumbnail":"https://i.ytimg.com/vi/h1wgUuJt2V0/mqdefault.jpg","viewCount":"105","playlistId":"PLEkQk5xrP-tmJuzaj4GWRenFoFx9gdbFX","playlistName":"شرح كتاب صحيح الإمام البخاري رضي الله تعالى عنه   أ.د. يسرى جبر","category":"حديث"},{"id":"k22pTZdV6is","title":"شرح كتاب الطب من سنن الترمذي - المجلس الثامن","publishedAt":"2015-12-03T06:03:32Z","duration":"PT41M51S","thumbnail":"https://i.ytimg.com/vi/k22pTZdV6is/mqdefault.jpg","viewCount":"143","playlistId":"PLEkQk5xrP-tnu6of679SvxdVx0qSrJzmb","playlistName":"شرح سنن الإمام الترمذي رضى الله عنه د. يسري جبر","category":"متنوع"},{"id":"j0oQ6DQKqPs","title":"منازل السائرين للإمام الهروى المجلس السابع والخمسون قسم النهايات بَابُ الفناء و باب البقاء","publishedAt":"2015-12-03T16:39:00Z","duration":"PT53M45S","thumbnail":"https://i.ytimg.com/vi/j0oQ6DQKqPs/mqdefault.jpg","viewCount":"5085","playlistId":"PLEkQk5xrP-tnLYi_5_tSRVBwqcs7ISV7Y","playlistName":"شرح كتاب منازل السائرين للإمام الهروي","category":"متنوع"},{"id":"DTOZ4ueS9Zs","title":"خَيرُ مَا يَكْنِزُ المَرْءُ    د. يسري جبر","publishedAt":"2015-12-03T19:52:24Z","duration":"PT49M32S","thumbnail":"https://i.ytimg.com/vi/DTOZ4ueS9Zs/mqdefault.jpg","viewCount":"207","playlistId":"PLEkQk5xrP-tlArtGpeLWaqNM7h7IDeAVC","playlistName":"خطب الجمعة أ.د. يسري جبر","category":"خطب"},{"id":"ZKiiUTydNoc","title":"صحيح الإمام البخاري رضي الله عنه - كتاب الطلاق - المجلس الحادي عشر","publishedAt":"2015-12-03T20:59:06Z","duration":"PT49M33S","thumbnail":"https://i.ytimg.com/vi/ZKiiUTydNoc/mqdefault.jpg","viewCount":"87","playlistId":"PLEkQk5xrP-tmJuzaj4GWRenFoFx9gdbFX","playlistName":"شرح كتاب صحيح الإمام البخاري رضي الله تعالى عنه   أ.د. يسرى جبر","category":"حديث"},{"id":"tDYmq3TFPio","title":"درس الجمعة ٢٢ صفر ١٤٣٧هـ","publishedAt":"2015-12-04T12:55:43Z","duration":"PT54M11S","thumbnail":"https://i.ytimg.com/vi/tDYmq3TFPio/mqdefault.jpg","viewCount":"227","playlistId":"PLEkQk5xrP-tmYN0y2PQUkx881GYBxD16g","playlistName":"درس الجمعة","category":"خطب"},{"id":"fA00nBU5vVI","title":"صلاح المجتمع بصلاح الأسرة    د. يسري جبر","publishedAt":"2015-12-05T10:36:17Z","duration":"PT50M16S","thumbnail":"https://i.ytimg.com/vi/fA00nBU5vVI/mqdefault.jpg","viewCount":"265","playlistId":"PLEkQk5xrP-tlArtGpeLWaqNM7h7IDeAVC","playlistName":"خطب الجمعة أ.د. يسري جبر","category":"خطب"},{"id":"qxjYUtvb3zA","title":"شرح كتاب الطب من سنن الترمذي - المجلس الرابع","publishedAt":"2015-12-07T01:51:15Z","duration":"PT24M51S","thumbnail":"https://i.ytimg.com/vi/qxjYUtvb3zA/mqdefault.jpg","viewCount":"95","playlistId":"PLEkQk5xrP-tnu6of679SvxdVx0qSrJzmb","playlistName":"شرح سنن الإمام الترمذي رضى الله عنه د. يسري جبر","category":"متنوع"},{"id":"Z-jSaXDwnoE","title":"شرح كتاب الطب من سنن الترمذي - المجلس الخامس","publishedAt":"2015-12-07T01:51:15Z","duration":"PT30M","thumbnail":"https://i.ytimg.com/vi/Z-jSaXDwnoE/mqdefault.jpg","viewCount":"99","playlistId":"PLEkQk5xrP-tnu6of679SvxdVx0qSrJzmb","playlistName":"شرح سنن الإمام الترمذي رضى الله عنه د. يسري جبر","category":"متنوع"},{"id":"OYqohOOP1lA","title":"شرح كتاب الطب من سنن الترمذي - المجلس السادس","publishedAt":"2015-12-07T01:51:15Z","duration":"PT33M7S","thumbnail":"https://i.ytimg.com/vi/OYqohOOP1lA/mqdefault.jpg","viewCount":"110","playlistId":"PLEkQk5xrP-tnu6of679SvxdVx0qSrJzmb","playlistName":"شرح سنن الإمام الترمذي رضى الله عنه د. يسري جبر","category":"متنوع"},{"id":"AZKhf92SrD8","title":"صحيح الإمام البخاري رضي الله عنه - كتاب الطلاق - المجلس الثاني عشر","publishedAt":"2015-12-07T09:04:32Z","duration":"PT27M43S","thumbnail":"https://i.ytimg.com/vi/AZKhf92SrD8/mqdefault.jpg","viewCount":"101","playlistId":"PLEkQk5xrP-tmJuzaj4GWRenFoFx9gdbFX","playlistName":"شرح كتاب صحيح الإمام البخاري رضي الله تعالى عنه   أ.د. يسرى جبر","category":"حديث"},{"id":"ppQK9RrZlkY","title":"منازل السائرين للإمام الهروى المجلس الثامن والخمسون قسم النهايات بَابُ التحقيق و باب التلبيس","publishedAt":"2015-12-07T09:30:21Z","duration":"PT1H16M24S","thumbnail":"https://i.ytimg.com/vi/ppQK9RrZlkY/mqdefault.jpg","viewCount":"5323","playlistId":"PLEkQk5xrP-tnLYi_5_tSRVBwqcs7ISV7Y","playlistName":"شرح كتاب منازل السائرين للإمام الهروي","category":"متنوع"},{"id":"C0aa-l2R8oc","title":"الموقف تجاه الفتنة الكبرى بين الصحابة  د. يسرى جبر","publishedAt":"2015-12-07T16:30:59Z","duration":"PT3M28S","thumbnail":"https://i.ytimg.com/vi/C0aa-l2R8oc/mqdefault.jpg","viewCount":"4066","playlistId":"PLEkQk5xrP-tm8ZIu74nTOZN9KJUJu416J","playlistName":"مقاطع مُهمَّة (يُسريَّات) أ.د. يسري جبر","category":"متنوع"},{"id":"O2SXLE2RcXI","title":"شرح كتاب الوصايا من سنن الترمذي","publishedAt":"2015-12-08T05:59:22Z","duration":"PT46M","thumbnail":"https://i.ytimg.com/vi/O2SXLE2RcXI/mqdefault.jpg","viewCount":"110","playlistId":"PLEkQk5xrP-tnu6of679SvxdVx0qSrJzmb","playlistName":"شرح سنن الإمام الترمذي رضى الله عنه د. يسري جبر","category":"متنوع"},{"id":"BlLQfHCPa70","title":"شرح كتاب الفرائض من سنن الترمذي - المجلس الأول","publishedAt":"2015-12-08T21:04:43Z","duration":"PT42M47S","thumbnail":"https://i.ytimg.com/vi/BlLQfHCPa70/mqdefault.jpg","viewCount":"148","playlistId":"PLEkQk5xrP-tnu6of679SvxdVx0qSrJzmb","playlistName":"شرح سنن الإمام الترمذي رضى الله عنه د. يسري جبر","category":"متنوع"},{"id":"iIWDX0C7gcI","title":"شرح كتاب الفرائض من سنن الترمذي - المجلس الرابع","publishedAt":"2015-12-09T00:47:50Z","duration":"PT37M41S","thumbnail":"https://i.ytimg.com/vi/iIWDX0C7gcI/mqdefault.jpg","viewCount":"98","playlistId":"PLEkQk5xrP-tnu6of679SvxdVx0qSrJzmb","playlistName":"شرح سنن الإمام الترمذي رضى الله عنه د. يسري جبر","category":"متنوع"},{"id":"f0FS1dccsdU","title":"شرح كتاب الفرائض من سنن الترمذي - المجلس الثالث","publishedAt":"2015-12-09T00:55:09Z","duration":"PT31M12S","thumbnail":"https://i.ytimg.com/vi/f0FS1dccsdU/mqdefault.jpg","viewCount":"77","playlistId":"PLEkQk5xrP-tnu6of679SvxdVx0qSrJzmb","playlistName":"شرح سنن الإمام الترمذي رضى الله عنه د. يسري جبر","category":"متنوع"},{"id":"yRzUtqnlXpM","title":"شرح كتاب الفرائض من سنن الترمذي - المجلس الثاني","publishedAt":"2015-12-09T04:02:44Z","duration":"PT30M31S","thumbnail":"https://i.ytimg.com/vi/yRzUtqnlXpM/mqdefault.jpg","viewCount":"120","playlistId":"PLEkQk5xrP-tnu6of679SvxdVx0qSrJzmb","playlistName":"شرح سنن الإمام الترمذي رضى الله عنه د. يسري جبر","category":"متنوع"},{"id":"pEC5IbuPrHk","title":"شرح كتاب الولاء والهبة من سنن الترمذي","publishedAt":"2015-12-09T06:05:23Z","duration":"PT50M6S","thumbnail":"https://i.ytimg.com/vi/pEC5IbuPrHk/mqdefault.jpg","viewCount":"91","playlistId":"PLEkQk5xrP-tnu6of679SvxdVx0qSrJzmb","playlistName":"شرح سنن الإمام الترمذي رضى الله عنه د. يسري جبر","category":"متنوع"},{"id":"92sDrseOqLw","title":"شرح كتاب القدر من سنن الترمذي - المجلس الأول","publishedAt":"2015-12-10T05:54:26Z","duration":"PT30M6S","thumbnail":"https://i.ytimg.com/vi/92sDrseOqLw/mqdefault.jpg","viewCount":"217","playlistId":"PLEkQk5xrP-tnu6of679SvxdVx0qSrJzmb","playlistName":"شرح سنن الإمام الترمذي رضى الله عنه د. يسري جبر","category":"متنوع"},{"id":"KF7vbjl0LKU","title":"آداب طالب العلم","publishedAt":"2015-12-10T20:21:09Z","duration":"PT1H9M40S","thumbnail":"https://i.ytimg.com/vi/KF7vbjl0LKU/mqdefault.jpg","viewCount":"731","playlistId":"PLEkQk5xrP-tmJzNvLntpzW0uPanPzxA0c","playlistName":"لقاءات ومحاضرات","category":"متنوع"},{"id":"9L2NriAeSTg","title":"شرح كتاب القدر من سنن الترمذي - المجلس الثاني","publishedAt":"2015-12-11T06:10:00Z","duration":"PT37M1S","thumbnail":"https://i.ytimg.com/vi/9L2NriAeSTg/mqdefault.jpg","viewCount":"161","playlistId":"PLEkQk5xrP-tnu6of679SvxdVx0qSrJzmb","playlistName":"شرح سنن الإمام الترمذي رضى الله عنه د. يسري جبر","category":"متنوع"}],"total":7670,"page":24,"pageSize":24,"totalPages":320}