{"items":[{"id":"lk_B5vSeXaA","title":"488- مجيء الضميرُ متَّصلًا بشيء وهو لغيره - شرح البرهان في علوم القرآن","publishedAt":"2022-04-03T05:31:28Z","duration":"PT15M44S","thumbnail":"https://i.ytimg.com/vi/lk_B5vSeXaA/mqdefault.jpg","viewCount":"490","playlistId":"PLEkQk5xrP-tnW3iBL7HkKziOFCFZbTlf0","playlistName":"شرح البرهان في علوم القرآن - أ.د. يسري جبر","category":"تفسير"},{"id":"oPsGhO0Fuhc","title":"النهي عن أكل لحوم كل ذي ناب من السباع | أ.د. يسري جبر","publishedAt":"2022-04-03T15:30:07Z","duration":"PT27M2S","thumbnail":"https://i.ytimg.com/vi/oPsGhO0Fuhc/mqdefault.jpg","viewCount":"840","playlistId":"PLEkQk5xrP-tnl7vb7KeAoPd5ZlqKKW8KV","playlistName":"شرح كتاب بهجة النفوس أ.د . يسرى جبر","category":"متنوع"},{"id":"jFvNCGmH9bY","title":"227- \"ما سُئِلَ رَسُولُ الله ﷺ عَلَى الإسْلَامِ شَيئًا إلَّا أَعْطَاهُ…\" - شرح دليل الفالحين","publishedAt":"2022-04-04T06:05:12Z","duration":"PT35M","thumbnail":"https://i.ytimg.com/vi/jFvNCGmH9bY/mqdefault.jpg","viewCount":"962","playlistId":"PLEkQk5xrP-tkc9DXvSLguqX5-FYp6ASR4","playlistName":"دليل الفالحين لطرق رياض الصالحين","category":"متنوع"},{"id":"8YrqcbsRqcU","title":"هل يجوز الانتفاع بجلود الحيوانات؟ | أ.د. يسري جبر","publishedAt":"2022-04-04T15:30:03Z","duration":"PT32M47S","thumbnail":"https://i.ytimg.com/vi/8YrqcbsRqcU/mqdefault.jpg","viewCount":"715","playlistId":"PLEkQk5xrP-tnl7vb7KeAoPd5ZlqKKW8KV","playlistName":"شرح كتاب بهجة النفوس أ.د . يسرى جبر","category":"متنوع"},{"id":"L0SwsmNGrsk","title":"الفرق بين عالم الخلق وعالم الأمر؟","publishedAt":"2022-04-04T19:30:04Z","duration":"PT8M38S","thumbnail":"https://i.ytimg.com/vi/L0SwsmNGrsk/mqdefault.jpg","viewCount":"7705","playlistId":"PLEkQk5xrP-tlArtGpeLWaqNM7h7IDeAVC","playlistName":"خطب الجمعة أ.د. يسري جبر","category":"خطب"},{"id":"1VAetw4yECc","title":"228- ثَلاثةٌ أُقسِمُ عَليْهنَّ وأُحَدِّثُكُم حَدِيثًا فَاحْفَظُوهُ…\" - شرح دليل الفالحين","publishedAt":"2022-04-05T06:31:33Z","duration":"PT40M31S","thumbnail":"https://i.ytimg.com/vi/1VAetw4yECc/mqdefault.jpg","viewCount":"1250","playlistId":"PLEkQk5xrP-tkc9DXvSLguqX5-FYp6ASR4","playlistName":"دليل الفالحين لطرق رياض الصالحين","category":"متنوع"},{"id":"C-mIgIa6NQk","title":"كيفية إزالة النجاسة ومتى يطهر الطعام المتنجس؟ | أ.د. يسري جبر","publishedAt":"2022-04-05T15:30:02Z","duration":"PT31M51S","thumbnail":"https://i.ytimg.com/vi/C-mIgIa6NQk/mqdefault.jpg","viewCount":"1072","playlistId":"PLEkQk5xrP-tnl7vb7KeAoPd5ZlqKKW8KV","playlistName":"شرح كتاب بهجة النفوس أ.د . يسرى جبر","category":"متنوع"},{"id":"UfHp_kGmFiE","title":"هل الحركة والتمايل أثناء الذكر حرام؟","publishedAt":"2022-04-05T19:30:03Z","duration":"PT11M57S","thumbnail":"https://i.ytimg.com/vi/UfHp_kGmFiE/mqdefault.jpg","viewCount":"7494","playlistId":"PLEkQk5xrP-tkGXuZ9atE3k_7it12rUPTs","playlistName":"أسئلة المتابعين","category":"متنوع"},{"id":"IOiOtUY1ZSY","title":"489- إذا اجتمع ضمائر فحيث أمكن عودها لواحد فهو أولى من عودها لمختلف - شرح البرهان في علوغالقرآن","publishedAt":"2022-04-06T05:37:19Z","duration":"PT19M34S","thumbnail":"https://i.ytimg.com/vi/IOiOtUY1ZSY/mqdefault.jpg","viewCount":"2484","playlistId":"PLEkQk5xrP-tnW3iBL7HkKziOFCFZbTlf0","playlistName":"شرح البرهان في علوم القرآن - أ.د. يسري جبر","category":"تفسير"},{"id":"WS1eBf89Fdk","title":"بيان وقت ذبح الأضحية | أ.د. يسري جبر","publishedAt":"2022-04-06T15:30:09Z","duration":"PT31M48S","thumbnail":"https://i.ytimg.com/vi/WS1eBf89Fdk/mqdefault.jpg","viewCount":"2305","playlistId":"PLEkQk5xrP-tnl7vb7KeAoPd5ZlqKKW8KV","playlistName":"شرح كتاب بهجة النفوس أ.د . يسرى جبر","category":"متنوع"},{"id":"RuKY1iYlYmw","title":"هل الملائكة أفضل أم البشر؟","publishedAt":"2022-04-06T19:30:01Z","duration":"PT9M12S","thumbnail":"https://i.ytimg.com/vi/RuKY1iYlYmw/mqdefault.jpg","viewCount":"3566","playlistId":"PLEkQk5xrP-tkGXuZ9atE3k_7it12rUPTs","playlistName":"أسئلة المتابعين","category":"متنوع"},{"id":"s6dWohKhwmg","title":"229- مَثَلُ البَخِيلِ والمُنْفِق كَمَثَلِ رَجُلَين عَليهِما جُبَّتَان مِنْ حَديد - شرح دليل الفالحين","publishedAt":"2022-04-07T06:35:42Z","duration":"PT51M7S","thumbnail":"https://i.ytimg.com/vi/s6dWohKhwmg/mqdefault.jpg","viewCount":"1104","playlistId":"PLEkQk5xrP-tkc9DXvSLguqX5-FYp6ASR4","playlistName":"دليل الفالحين لطرق رياض الصالحين","category":"متنوع"},{"id":"ziF7Ja2hX9E","title":"هل يجوز تأخير الطواف في الحج | أ.د. يسري جبر","publishedAt":"2022-04-07T15:30:09Z","duration":"PT25M37S","thumbnail":"https://i.ytimg.com/vi/ziF7Ja2hX9E/mqdefault.jpg","viewCount":"487","playlistId":"PLEkQk5xrP-tnl7vb7KeAoPd5ZlqKKW8KV","playlistName":"شرح كتاب بهجة النفوس أ.د . يسرى جبر","category":"متنوع"},{"id":"ShE4wbGjceI","title":"تفسير قوله تعالى\"ثُمَّ أَوْرَثْنَا الْكِتَابَ الَّذِينَ اصْطَفَيْنَا مِنْ عِبَادِنَا\"","publishedAt":"2022-04-07T19:30:02Z","duration":"PT10M40S","thumbnail":"https://i.ytimg.com/vi/ShE4wbGjceI/mqdefault.jpg","viewCount":"3989","playlistId":"PLEkQk5xrP-tkSGrPLMt1BEmJ54cGWYgtp","playlistName":"كتابُ بِدَعِ التَفَاسِيرِ - أ.د. يسري جبر","category":"متنوع"},{"id":"vRlyiceRfWg","title":"490- الضمير\" قد يعود على لفظ شيءٍ والمراد به الجنس من ذلك الشيءٍ - شرح البرهان في علوم القرآن","publishedAt":"2022-04-08T05:35:48Z","duration":"PT28M12S","thumbnail":"https://i.ytimg.com/vi/vRlyiceRfWg/mqdefault.jpg","viewCount":"326","playlistId":"PLEkQk5xrP-tnW3iBL7HkKziOFCFZbTlf0","playlistName":"شرح البرهان في علوم القرآن - أ.د. يسري جبر","category":"تفسير"},{"id":"cDOuhrsISXA","title":"وَصِيَّةُ النَّبيّ ﷺ للأُمَّة | أ.د. يسري جبر","publishedAt":"2022-04-08T15:30:06Z","duration":"PT17M46S","thumbnail":"https://i.ytimg.com/vi/cDOuhrsISXA/mqdefault.jpg","viewCount":"2176","playlistId":"PLEkQk5xrP-tnl7vb7KeAoPd5ZlqKKW8KV","playlistName":"شرح كتاب بهجة النفوس أ.د . يسرى جبر","category":"متنوع"},{"id":"DcmBQPi8UZ4","title":"كيف تفوز بشهر رمضان؟","publishedAt":"2022-04-08T19:30:00Z","duration":"PT14M41S","thumbnail":"https://i.ytimg.com/vi/DcmBQPi8UZ4/mqdefault.jpg","viewCount":"4412","playlistId":"PLEkQk5xrP-tlArtGpeLWaqNM7h7IDeAVC","playlistName":"خطب الجمعة أ.د. يسري جبر","category":"خطب"},{"id":"RlXYLV-yBD8","title":"230- النَّهْي عن البُخلِ والشُّح - شرح دليل الفالحين","publishedAt":"2022-04-09T05:37:31Z","duration":"PT21M29S","thumbnail":"https://i.ytimg.com/vi/RlXYLV-yBD8/mqdefault.jpg","viewCount":"729","playlistId":"PLEkQk5xrP-tkc9DXvSLguqX5-FYp6ASR4","playlistName":"دليل الفالحين لطرق رياض الصالحين","category":"متنوع"},{"id":"SfBTomMgGbI","title":"وَصِيَّةُ النَّبيّ ﷺ للأُمَّة ۲ | أ.د. يسري جبر","publishedAt":"2022-04-09T15:30:04Z","duration":"PT29M31S","thumbnail":"https://i.ytimg.com/vi/SfBTomMgGbI/mqdefault.jpg","viewCount":"1114","playlistId":"PLEkQk5xrP-tnl7vb7KeAoPd5ZlqKKW8KV","playlistName":"شرح كتاب بهجة النفوس أ.د . يسرى جبر","category":"متنوع"},{"id":"j1I1u5-vCFE","title":"لماذا يتم إزالة بعض المساجد في مصر؟","publishedAt":"2022-04-09T19:30:16Z","duration":"PT8M1S","thumbnail":"https://i.ytimg.com/vi/j1I1u5-vCFE/mqdefault.jpg","viewCount":"5460","playlistId":"PLEkQk5xrP-tkGXuZ9atE3k_7it12rUPTs","playlistName":"أسئلة المتابعين","category":"متنوع"},{"id":"gfiASBjXw28","title":"491- قاعدة: إِذَا عَطَفَ بِـ: (أَوْ) وَجَبَ إِفْرَادُ الضَّمِيرِ - شرح البرهان في علوم القرآن","publishedAt":"2022-04-10T06:00:16Z","duration":"PT14M23S","thumbnail":"https://i.ytimg.com/vi/gfiASBjXw28/mqdefault.jpg","viewCount":"675","playlistId":"PLEkQk5xrP-tnW3iBL7HkKziOFCFZbTlf0","playlistName":"شرح البرهان في علوم القرآن - أ.د. يسري جبر","category":"تفسير"},{"id":"FKHBcXk8psQ","title":"وَصِيَّةُ النَّبيّ ﷺ للأُمَّة ۳ | أ.د. يسري جبر","publishedAt":"2022-04-10T17:14:15Z","duration":"PT23M14S","thumbnail":"https://i.ytimg.com/vi/FKHBcXk8psQ/mqdefault.jpg","viewCount":"918","playlistId":"PLEkQk5xrP-tnl7vb7KeAoPd5ZlqKKW8KV","playlistName":"شرح كتاب بهجة النفوس أ.د . يسرى جبر","category":"متنوع"},{"id":"7WxrYljr3YQ","title":"الفرق بين الإرادة والمشيئة","publishedAt":"2022-04-10T19:30:00Z","duration":"PT18M13S","thumbnail":"https://i.ytimg.com/vi/7WxrYljr3YQ/mqdefault.jpg","viewCount":"5870","playlistId":"PLEkQk5xrP-tlArtGpeLWaqNM7h7IDeAVC","playlistName":"خطب الجمعة أ.د. يسري جبر","category":"خطب"},{"id":"9cwZLLgjYz4","title":"231- الإيثارُ والمُوَاسَاة - شرح دليل الفالحين","publishedAt":"2022-04-11T05:56:25Z","duration":"PT29M27S","thumbnail":"https://i.ytimg.com/vi/9cwZLLgjYz4/mqdefault.jpg","viewCount":"785","playlistId":"PLEkQk5xrP-tkc9DXvSLguqX5-FYp6ASR4","playlistName":"دليل الفالحين لطرق رياض الصالحين","category":"متنوع"}],"total":7675,"page":227,"pageSize":24,"totalPages":320}