{"items":[{"id":"CiLHa_7Eosk","title":"مفاتيح علو الهمة عند المسلم | دمشق, سوريا","publishedAt":"2024-05-19T18:00:06Z","duration":"PT58M59S","thumbnail":"https://i.ytimg.com/vi/CiLHa_7Eosk/mqdefault.jpg","viewCount":"25009","playlistId":"PLEkQk5xrP-tmJzNvLntpzW0uPanPzxA0c","playlistName":"لقاءات ومحاضرات","category":"متنوع"},{"id":"mIBJpIVfB5Y","title":"18- تفسير ما أصابك من حسنة فمن الله وما أصابك من سيئة فمن نفسك | شرح مختصر الفتوحات المكية","publishedAt":"2024-05-20T17:00:33Z","duration":"PT50M18S","thumbnail":"https://i.ytimg.com/vi/mIBJpIVfB5Y/mqdefault.jpg","viewCount":"10765","playlistId":"PLEkQk5xrP-tnpkdZki6rPTtMak1bnI5g-","playlistName":"شرح كتاب مختصر الفتوحات المكية المسمى لواقح الأنوار القدسية","category":"متنوع"},{"id":"8fZvypl2xKE","title":"237- الإيجاز الجامع - شرح الإتقان في علوم القرآن","publishedAt":"2024-05-21T08:34:28Z","duration":"PT23M18S","thumbnail":"https://i.ytimg.com/vi/8fZvypl2xKE/mqdefault.jpg","viewCount":"581","playlistId":"PLEkQk5xrP-tlPw10KGJKagu7zm4Ry2Tge","playlistName":"شرح الإتقان في علوم القرآن","category":"تفسير"},{"id":"KYW1A30OsWE","title":"لطائف وإشارات في الطريق إلى الله | دمشق, سوريا","publishedAt":"2024-05-21T17:02:01Z","duration":"PT47M50S","thumbnail":"https://i.ytimg.com/vi/KYW1A30OsWE/mqdefault.jpg","viewCount":"17957","playlistId":"PLEkQk5xrP-tmJzNvLntpzW0uPanPzxA0c","playlistName":"لقاءات ومحاضرات","category":"متنوع"},{"id":"tmYsy7XPlUg","title":"107- فضل الإحسان إلى الأخوات والبنات - شرح مسند الإمام أحمد رضي الله تعالى عنه","publishedAt":"2024-05-23T05:42:30Z","duration":"PT33M53S","thumbnail":"https://i.ytimg.com/vi/tmYsy7XPlUg/mqdefault.jpg","viewCount":"1670","playlistId":"PLEkQk5xrP-tkKprIuGrSdEuBSMsyg5We1","playlistName":"شرح مسند الإمام أحمد بن حنبل","category":"متنوع"},{"id":"F26vx0wFNa8","title":"شرح منازل السائرين - المجلس (45) باب الإيثار | أ.د. يسري جبر","publishedAt":"2024-05-23T17:00:14Z","duration":"PT46M28S","thumbnail":"https://i.ytimg.com/vi/F26vx0wFNa8/mqdefault.jpg","viewCount":"3519","playlistId":"PLEkQk5xrP-tmiUfQ-2Tsn7QIak4EsvaZW","playlistName":"كتاب التيسير المعين بشرح معاني منازل السائرين (تصوف) - د.يسري جبر","category":"تصوف"},{"id":"k4zASJFj3Lk","title":"238- إيجاز القصر - شرح الإتقان في علوم القرآن","publishedAt":"2024-05-24T05:00:31Z","duration":"PT31M34S","thumbnail":"https://i.ytimg.com/vi/k4zASJFj3Lk/mqdefault.jpg","viewCount":"626","playlistId":"PLEkQk5xrP-tlPw10KGJKagu7zm4Ry2Tge","playlistName":"شرح الإتقان في علوم القرآن","category":"تفسير"},{"id":"WPfM_4ulKtE","title":"ما أهمية أخذ الإجازة وهل يجوز قراءة الأحاديث بدونها؟","publishedAt":"2024-05-24T17:35:05Z","duration":"PT10M47S","thumbnail":"https://i.ytimg.com/vi/WPfM_4ulKtE/mqdefault.jpg","viewCount":"2935","playlistId":"PLEkQk5xrP-tkGXuZ9atE3k_7it12rUPTs","playlistName":"أسئلة المتابعين","category":"متنوع"},{"id":"uRHpuAMeTaU","title":"36- ما هو الصعيد الطيب الذي يصح به التيمم؟ | شرح سنن الدار قطني رضي الله عنه","publishedAt":"2024-05-25T09:01:00Z","duration":"PT43M22S","thumbnail":"https://i.ytimg.com/vi/uRHpuAMeTaU/mqdefault.jpg","viewCount":"1101","playlistId":"PLEkQk5xrP-tk_MCBZ706ORCw6gFtFyaGj","playlistName":"شرح سنن الإمام الدارقطني","category":"متنوع"},{"id":"rdunYXXmU10","title":"108- حكم اللعان - شرح مسند الإمام أحمد رضي الله تعالى عنه","publishedAt":"2024-05-26T06:04:25Z","duration":"PT27M5S","thumbnail":"https://i.ytimg.com/vi/rdunYXXmU10/mqdefault.jpg","viewCount":"830","playlistId":"PLEkQk5xrP-tkKprIuGrSdEuBSMsyg5We1","playlistName":"شرح مسند الإمام أحمد بن حنبل","category":"متنوع"},{"id":"x1Z1qRW2v1c","title":"19- الإيمان بالغيب ونعمة الستر | شرح مختصر الفتوحات المكية","publishedAt":"2024-05-26T17:20:51Z","duration":"PT50M34S","thumbnail":"https://i.ytimg.com/vi/x1Z1qRW2v1c/mqdefault.jpg","viewCount":"8705","playlistId":"PLEkQk5xrP-tnpkdZki6rPTtMak1bnI5g-","playlistName":"شرح كتاب مختصر الفتوحات المكية المسمى لواقح الأنوار القدسية","category":"متنوع"},{"id":"FrKtxA0b7WA","title":"239- قاعدة في حذف المفعول اختصارا - شرح الإتقان في علوم القرآن","publishedAt":"2024-05-27T08:55:07Z","duration":"PT37M11S","thumbnail":"https://i.ytimg.com/vi/FrKtxA0b7WA/mqdefault.jpg","viewCount":"618","playlistId":"PLEkQk5xrP-tlPw10KGJKagu7zm4Ry2Tge","playlistName":"شرح الإتقان في علوم القرآن","category":"تفسير"},{"id":"YGunXTkhu4s","title":"هل خلقنا الله ليعذبنا؟","publishedAt":"2024-05-27T18:47:33Z","duration":"PT26M43S","thumbnail":"https://i.ytimg.com/vi/YGunXTkhu4s/mqdefault.jpg","viewCount":"6547","playlistId":"PLEkQk5xrP-tlArtGpeLWaqNM7h7IDeAVC","playlistName":"خطب الجمعة أ.د. يسري جبر","category":"خطب"},{"id":"3VdOSC6Hvxs","title":"109 - علِّموا ويسِّروا ولا تعسِّروا وإذا غضب أحدكم فليسكت - شرح مسند الإمام أحمد رضي الله تعالى عنه","publishedAt":"2024-05-28T05:00:03Z","duration":"PT21M6S","thumbnail":"https://i.ytimg.com/vi/3VdOSC6Hvxs/mqdefault.jpg","viewCount":"1944","playlistId":"PLEkQk5xrP-tkKprIuGrSdEuBSMsyg5We1","playlistName":"شرح مسند الإمام أحمد بن حنبل","category":"متنوع"},{"id":"W62Imr5rBFg","title":"240- الإيجاز بالحذف: شروط الحذف - شرح الإتقان في علوم القرآن","publishedAt":"2024-05-29T06:07:04Z","duration":"PT10M10S","thumbnail":"https://i.ytimg.com/vi/W62Imr5rBFg/mqdefault.jpg","viewCount":"550","playlistId":"PLEkQk5xrP-tlPw10KGJKagu7zm4Ry2Tge","playlistName":"شرح الإتقان في علوم القرآن","category":"تفسير"},{"id":"LJA4G2XXyQA","title":"شرح منازل السائرين - المجلس (46) مقدمة باب الخُلُق | أ.د. يسري جبر","publishedAt":"2024-05-29T18:38:10Z","duration":"PT53M14S","thumbnail":"https://i.ytimg.com/vi/LJA4G2XXyQA/mqdefault.jpg","viewCount":"4132","playlistId":"PLEkQk5xrP-tmiUfQ-2Tsn7QIak4EsvaZW","playlistName":"كتاب التيسير المعين بشرح معاني منازل السائرين (تصوف) - د.يسري جبر","category":"تصوف"},{"id":"MUD4rkqHVBw","title":"ما هي خطورة التنمر وكيف تتعامل مع المتنمرين؟","publishedAt":"2024-05-30T17:00:15Z","duration":"PT12M57S","thumbnail":"https://i.ytimg.com/vi/MUD4rkqHVBw/mqdefault.jpg","viewCount":"3517","playlistId":"PLEkQk5xrP-tlArtGpeLWaqNM7h7IDeAVC","playlistName":"خطب الجمعة أ.د. يسري جبر","category":"خطب"},{"id":"HFeGIvnJilo","title":"37- أهمية النية في طلب العلم وسائر العبادات | شرح سنن الدار قطني رضي الله عنه","publishedAt":"2024-06-01T09:00:18Z","duration":"PT44M34S","thumbnail":"https://i.ytimg.com/vi/HFeGIvnJilo/mqdefault.jpg","viewCount":"1259","playlistId":"PLEkQk5xrP-tk_MCBZ706ORCw6gFtFyaGj","playlistName":"شرح سنن الإمام الدارقطني","category":"متنوع"},{"id":"siOGt_19cKs","title":"ما هي أسباب زيادة الرزق وهل يوجد ورد مخصص؟","publishedAt":"2024-06-01T17:28:14Z","duration":"PT8M54S","thumbnail":"https://i.ytimg.com/vi/siOGt_19cKs/mqdefault.jpg","viewCount":"9239","playlistId":"PLEkQk5xrP-tkGXuZ9atE3k_7it12rUPTs","playlistName":"أسئلة المتابعين","category":"متنوع"},{"id":"8qNA1oHfAD8","title":"110- صفات الدجال - شرح مسند الإمام أحمد رضي الله تعالى عنه","publishedAt":"2024-06-02T05:30:03Z","duration":"PT56M57S","thumbnail":"https://i.ytimg.com/vi/8qNA1oHfAD8/mqdefault.jpg","viewCount":"2710","playlistId":"PLEkQk5xrP-tkKprIuGrSdEuBSMsyg5We1","playlistName":"شرح مسند الإمام أحمد بن حنبل","category":"متنوع"},{"id":"LMwGvILsufY","title":"20- ما هو الإدراك وما أنواعه؟ | شرح مختصر الفتوحات المكية","publishedAt":"2024-06-02T18:00:10Z","duration":"PT45M11S","thumbnail":"https://i.ytimg.com/vi/LMwGvILsufY/mqdefault.jpg","viewCount":"8152","playlistId":"PLEkQk5xrP-tnpkdZki6rPTtMak1bnI5g-","playlistName":"شرح كتاب مختصر الفتوحات المكية المسمى لواقح الأنوار القدسية","category":"متنوع"},{"id":"tqd3ltVk50Q","title":"ما حكم مخالفة القانون أو التحايل عليه؟","publishedAt":"2024-06-03T17:43:38Z","duration":"PT8M7S","thumbnail":"https://i.ytimg.com/vi/tqd3ltVk50Q/mqdefault.jpg","viewCount":"2518","playlistId":"PLEkQk5xrP-tkGXuZ9atE3k_7it12rUPTs","playlistName":"أسئلة المتابعين","category":"متنوع"},{"id":"hxxB98BCwRA","title":"صديقي انتحر ,, هل ممكن ربنا يغفرله؟","publishedAt":"2024-06-04T18:10:33Z","duration":"PT8M24S","thumbnail":"https://i.ytimg.com/vi/hxxB98BCwRA/mqdefault.jpg","viewCount":"8559","playlistId":"PLEkQk5xrP-tkGXuZ9atE3k_7it12rUPTs","playlistName":"أسئلة المتابعين","category":"متنوع"},{"id":"-bc_kQg_CCM","title":"241- الشرط الثامن من شروط الحذف - شرح الإتقان في علوم القرآن","publishedAt":"2024-06-05T07:36:11Z","duration":"PT27M36S","thumbnail":"https://i.ytimg.com/vi/-bc_kQg_CCM/mqdefault.jpg","viewCount":"544","playlistId":"PLEkQk5xrP-tlPw10KGJKagu7zm4Ry2Tge","playlistName":"شرح الإتقان في علوم القرآن","category":"تفسير"}],"total":7670,"page":291,"pageSize":24,"totalPages":320}