{"items":[{"id":"u3wO-Rf0LeI","title":"شرح صحيح البخاري - كتاب الشروط من أوله","publishedAt":"2017-07-06T14:43:33Z","duration":"PT35M42S","thumbnail":"https://i.ytimg.com/vi/u3wO-Rf0LeI/mqdefault.jpg","viewCount":"730","playlistId":"PLEkQk5xrP-tlEerGoLa1AFy-2XvQ-sovv","playlistName":"شرح صحيح البخاري - أ.د. يسري جبر (كاملا)","category":"حديث"},{"id":"bKuleCIm2_I","title":"شرح الحزب الكبير- المجلس السادس   د.يسري جبر","publishedAt":"2017-07-06T18:13:13Z","duration":"PT46M49S","thumbnail":"https://i.ytimg.com/vi/bKuleCIm2_I/mqdefault.jpg","viewCount":"3815","playlistId":"PLEkQk5xrP-tlm5F9ID5I_--LMV7PcWjp_","playlistName":"شرح الحزب الكبير لسيدى أبي الحسن الشاذلي د.يسري جبر","category":"متنوع"},{"id":"HrD7G8h3xxA","title":"مقرأة سورة يوسف آية ٩٥","publishedAt":"2017-07-07T09:20:27Z","duration":"PT19M38S","thumbnail":"https://i.ytimg.com/vi/HrD7G8h3xxA/mqdefault.jpg","viewCount":"442","playlistId":"PLEkQk5xrP-tnmTYsyW6xNdyfhPq0Bhrhj","playlistName":"مقرأة الفجر - القُرْآنُ الكَرِيمُ - خَتْمَةُ التَّدَبُّرِ  أ.د. يسري جبر","category":"متنوع"},{"id":"53LJFgpyb9M","title":"شرح صحيح البخاري - كتاب الشروط من باب ٦","publishedAt":"2017-07-07T14:37:39Z","duration":"PT28M10S","thumbnail":"https://i.ytimg.com/vi/53LJFgpyb9M/mqdefault.jpg","viewCount":"587","playlistId":"PLEkQk5xrP-tlEerGoLa1AFy-2XvQ-sovv","playlistName":"شرح صحيح البخاري - أ.د. يسري جبر (كاملا)","category":"حديث"},{"id":"qAUt4VG8AZQ","title":"مقرأة سورة يوسف من آية ١٠١","publishedAt":"2017-07-08T08:12:08Z","duration":"PT10M42S","thumbnail":"https://i.ytimg.com/vi/qAUt4VG8AZQ/mqdefault.jpg","viewCount":"384","playlistId":"PLEkQk5xrP-tnmTYsyW6xNdyfhPq0Bhrhj","playlistName":"مقرأة الفجر - القُرْآنُ الكَرِيمُ - خَتْمَةُ التَّدَبُّرِ  أ.د. يسري جبر","category":"متنوع"},{"id":"K7foAwLzvBw","title":"شرح صحيح البخاري - كتاب الشروط من باب ١٤","publishedAt":"2017-07-08T17:37:10Z","duration":"PT45M9S","thumbnail":"https://i.ytimg.com/vi/K7foAwLzvBw/mqdefault.jpg","viewCount":"659","playlistId":"PLEkQk5xrP-tlEerGoLa1AFy-2XvQ-sovv","playlistName":"شرح صحيح البخاري - أ.د. يسري جبر (كاملا)","category":"حديث"},{"id":"M09qA82NKls","title":"مقرأة سورة يوسف من آية ١٠٩","publishedAt":"2017-07-09T10:13:47Z","duration":"PT17M39S","thumbnail":"https://i.ytimg.com/vi/M09qA82NKls/mqdefault.jpg","viewCount":"436","playlistId":"PLEkQk5xrP-tnmTYsyW6xNdyfhPq0Bhrhj","playlistName":"مقرأة الفجر - القُرْآنُ الكَرِيمُ - خَتْمَةُ التَّدَبُّرِ  أ.د. يسري جبر","category":"متنوع"},{"id":"Rpd3PrA8l9E","title":"شرح صحيح البخاري - كتاب الشروط من باب 19","publishedAt":"2017-07-09T18:25:21Z","duration":"PT20M29S","thumbnail":"https://i.ytimg.com/vi/Rpd3PrA8l9E/mqdefault.jpg","viewCount":"531","playlistId":"PLEkQk5xrP-tlEerGoLa1AFy-2XvQ-sovv","playlistName":"شرح صحيح البخاري - أ.د. يسري جبر (كاملا)","category":"حديث"},{"id":"QkZVa75skdA","title":"اتق الله حيثما كنت   د. يسري جبر","publishedAt":"2017-07-09T19:11:41Z","duration":"PT42M36S","thumbnail":"https://i.ytimg.com/vi/QkZVa75skdA/mqdefault.jpg","viewCount":"1192","playlistId":"PLEkQk5xrP-tlArtGpeLWaqNM7h7IDeAVC","playlistName":"خطب الجمعة أ.د. يسري جبر","category":"خطب"},{"id":"YilobH6thzs","title":"مقدمة شرح كتاب نور اليقين في سيرة سيد المرسلين ونسب النبي صلى الله عليه وآله وسلم د. يسري جبر","publishedAt":"2017-07-09T19:50:51Z","duration":"PT1H46S","thumbnail":"https://i.ytimg.com/vi/YilobH6thzs/mqdefault.jpg","viewCount":"43632","playlistId":"PLEkQk5xrP-tl2t4NQx1IhKnAJCMzF0Nli","playlistName":"شرح كتاب نور اليقين في سيرة سيد المرسلين   د. يسري جبر","category":"سيرة"},{"id":"P01Nu0f64MU","title":"مقرأة سورة الرعد من أولها","publishedAt":"2017-07-10T06:55:26Z","duration":"PT22M53S","thumbnail":"https://i.ytimg.com/vi/P01Nu0f64MU/mqdefault.jpg","viewCount":"1424","playlistId":"PLEkQk5xrP-tnmTYsyW6xNdyfhPq0Bhrhj","playlistName":"مقرأة الفجر - القُرْآنُ الكَرِيمُ - خَتْمَةُ التَّدَبُّرِ  أ.د. يسري جبر","category":"متنوع"},{"id":"WkXPYPsrGdQ","title":"شرح صحيح البخاري - كتاب الوصايا من أوله","publishedAt":"2017-07-10T17:24:15Z","duration":"PT24M4S","thumbnail":"https://i.ytimg.com/vi/WkXPYPsrGdQ/mqdefault.jpg","viewCount":"710","playlistId":"PLEkQk5xrP-tlEerGoLa1AFy-2XvQ-sovv","playlistName":"شرح صحيح البخاري - أ.د. يسري جبر (كاملا)","category":"حديث"},{"id":"7vuqDXNfm4I","title":"مقرأة سورة الرعد من آية ٥","publishedAt":"2017-07-17T11:03:43Z","duration":"PT16M39S","thumbnail":"https://i.ytimg.com/vi/7vuqDXNfm4I/mqdefault.jpg","viewCount":"462","playlistId":"PLEkQk5xrP-tnmTYsyW6xNdyfhPq0Bhrhj","playlistName":"مقرأة الفجر - القُرْآنُ الكَرِيمُ - خَتْمَةُ التَّدَبُّرِ  أ.د. يسري جبر","category":"متنوع"},{"id":"848OtqTdwBg","title":"شرح صحيح البخاري - كتاب الوصايا من باب ٥","publishedAt":"2017-07-17T14:20:12Z","duration":"PT21M54S","thumbnail":"https://i.ytimg.com/vi/848OtqTdwBg/mqdefault.jpg","viewCount":"512","playlistId":"PLEkQk5xrP-tlEerGoLa1AFy-2XvQ-sovv","playlistName":"شرح صحيح البخاري - أ.د. يسري جبر (كاملا)","category":"حديث"},{"id":"dUuBo8qAnPY","title":"مقرأة سورة الرعد من آية ٨","publishedAt":"2017-07-18T08:58:01Z","duration":"PT15M20S","thumbnail":"https://i.ytimg.com/vi/dUuBo8qAnPY/mqdefault.jpg","viewCount":"458","playlistId":"PLEkQk5xrP-tnmTYsyW6xNdyfhPq0Bhrhj","playlistName":"مقرأة الفجر - القُرْآنُ الكَرِيمُ - خَتْمَةُ التَّدَبُّرِ  أ.د. يسري جبر","category":"متنوع"},{"id":"RdHnbGKnC3E","title":"شرح صحيح البخاري - كتاب الوصايا من باب ٩","publishedAt":"2017-07-18T15:26:57Z","duration":"PT23M38S","thumbnail":"https://i.ytimg.com/vi/RdHnbGKnC3E/mqdefault.jpg","viewCount":"554","playlistId":"PLEkQk5xrP-tlEerGoLa1AFy-2XvQ-sovv","playlistName":"شرح صحيح البخاري - أ.د. يسري جبر (كاملا)","category":"حديث"},{"id":"wGsD0WQAmUU","title":"مقرأة سورة الرعد من آية ١٢","publishedAt":"2017-07-19T11:23:38Z","duration":"PT12M40S","thumbnail":"https://i.ytimg.com/vi/wGsD0WQAmUU/mqdefault.jpg","viewCount":"380","playlistId":"PLEkQk5xrP-tnmTYsyW6xNdyfhPq0Bhrhj","playlistName":"مقرأة الفجر - القُرْآنُ الكَرِيمُ - خَتْمَةُ التَّدَبُّرِ  أ.د. يسري جبر","category":"متنوع"},{"id":"EfZOwovOcjE","title":"شرح صحيح البخاري - كتاب الوصايا من باب ١٣","publishedAt":"2017-07-19T15:16:45Z","duration":"PT22M59S","thumbnail":"https://i.ytimg.com/vi/EfZOwovOcjE/mqdefault.jpg","viewCount":"534","playlistId":"PLEkQk5xrP-tlEerGoLa1AFy-2XvQ-sovv","playlistName":"شرح صحيح البخاري - أ.د. يسري جبر (كاملا)","category":"حديث"},{"id":"pienVb1A8lI","title":"مقرأة سورة الرعد من آية ١٦","publishedAt":"2017-07-20T10:41:37Z","duration":"PT15M42S","thumbnail":"https://i.ytimg.com/vi/pienVb1A8lI/mqdefault.jpg","viewCount":"354","playlistId":"PLEkQk5xrP-tnmTYsyW6xNdyfhPq0Bhrhj","playlistName":"مقرأة الفجر - القُرْآنُ الكَرِيمُ - خَتْمَةُ التَّدَبُّرِ  أ.د. يسري جبر","category":"متنوع"},{"id":"4-Se6nktWak","title":"شرح صحيح البخاري - كتاب الوصايا من باب ١٨","publishedAt":"2017-07-20T17:36:26Z","duration":"PT30M38S","thumbnail":"https://i.ytimg.com/vi/4-Se6nktWak/mqdefault.jpg","viewCount":"569","playlistId":"PLEkQk5xrP-tlEerGoLa1AFy-2XvQ-sovv","playlistName":"شرح صحيح البخاري - أ.د. يسري جبر (كاملا)","category":"حديث"},{"id":"UkUBuVr6rEQ","title":"سورة الرعد آية 19","publishedAt":"2017-07-21T13:23:52Z","duration":"PT15M29S","thumbnail":"https://i.ytimg.com/vi/UkUBuVr6rEQ/mqdefault.jpg","viewCount":"330","playlistId":"PLEkQk5xrP-tnmTYsyW6xNdyfhPq0Bhrhj","playlistName":"مقرأة الفجر - القُرْآنُ الكَرِيمُ - خَتْمَةُ التَّدَبُّرِ  أ.د. يسري جبر","category":"متنوع"},{"id":"-dpSCAERQdA","title":"شرح صحيح البخاري - كتاب الوصايا من باب ٢٣","publishedAt":"2017-07-21T18:55:58Z","duration":"PT19M31S","thumbnail":"https://i.ytimg.com/vi/-dpSCAERQdA/mqdefault.jpg","viewCount":"503","playlistId":"PLEkQk5xrP-tlEerGoLa1AFy-2XvQ-sovv","playlistName":"شرح صحيح البخاري - أ.د. يسري جبر (كاملا)","category":"حديث"},{"id":"z3ICzL8cDyk","title":"مقرأة سورة الرعد من آية ٢٥","publishedAt":"2017-07-22T11:02:50Z","duration":"PT22M52S","thumbnail":"https://i.ytimg.com/vi/z3ICzL8cDyk/mqdefault.jpg","viewCount":"469","playlistId":"PLEkQk5xrP-tnmTYsyW6xNdyfhPq0Bhrhj","playlistName":"مقرأة الفجر - القُرْآنُ الكَرِيمُ - خَتْمَةُ التَّدَبُّرِ  أ.د. يسري جبر","category":"متنوع"},{"id":"a8u9o-Hz6ig","title":"شرح صحيح البخاري - كتاب الوصايا من باب ٢٧","publishedAt":"2017-07-22T20:10:15Z","duration":"PT15M26S","thumbnail":"https://i.ytimg.com/vi/a8u9o-Hz6ig/mqdefault.jpg","viewCount":"461","playlistId":"PLEkQk5xrP-tlEerGoLa1AFy-2XvQ-sovv","playlistName":"شرح صحيح البخاري - أ.د. يسري جبر (كاملا)","category":"حديث"}],"total":7675,"page":76,"pageSize":24,"totalPages":320}