{"items":[{"id":"l-siBlIVPtY","title":"صحيح الإمام البخاري رضي الله عنه - كتاب الذبائح والصيد والتسمية على الصيد -المجلس الثاني د. يسري جبر","publishedAt":"2016-03-28T05:12:33Z","duration":"PT1H30S","thumbnail":"https://i.ytimg.com/vi/l-siBlIVPtY/mqdefault.jpg","viewCount":"133","playlistId":"PLEkQk5xrP-tmJuzaj4GWRenFoFx9gdbFX","playlistName":"شرح كتاب صحيح الإمام البخاري رضي الله تعالى عنه   أ.د. يسرى جبر","category":"حديث"},{"id":"hR-5OhNPmys","title":"قراءة القرآن (من أول سورة الشرح)","publishedAt":"2016-03-29T02:20:55Z","duration":"PT25M20S","thumbnail":"https://i.ytimg.com/vi/hR-5OhNPmys/mqdefault.jpg","viewCount":"173","playlistId":"PLEkQk5xrP-tnUSUj0uyJhA-kwNC7Gkx_j","playlistName":"مقرأة الفجر - بداية من سورة الإسراء حتى سورة الناس","category":"تفسير"},{"id":"Phx6oOmDSxA","title":"شرح كتاب فضائل القرآن من سنن الترمذي - المجلس الأول","publishedAt":"2016-03-29T02:21:01Z","duration":"PT32M14S","thumbnail":"https://i.ytimg.com/vi/Phx6oOmDSxA/mqdefault.jpg","viewCount":"216","playlistId":"PLEkQk5xrP-tnu6of679SvxdVx0qSrJzmb","playlistName":"شرح سنن الإمام الترمذي رضى الله عنه د. يسري جبر","category":"متنوع"},{"id":"m47XfuEIIV4","title":"قراءة القرآن (من أول سورة التين)","publishedAt":"2016-03-30T02:22:02Z","duration":"PT22M40S","thumbnail":"https://i.ytimg.com/vi/m47XfuEIIV4/mqdefault.jpg","viewCount":"123","playlistId":"PLEkQk5xrP-tnUSUj0uyJhA-kwNC7Gkx_j","playlistName":"مقرأة الفجر - بداية من سورة الإسراء حتى سورة الناس","category":"تفسير"},{"id":"Ut_bthceU3I","title":"شرح كتاب فضائل القرآن من سنن الترمذي - المجلس الثاني","publishedAt":"2016-03-30T02:22:06Z","duration":"PT36M4S","thumbnail":"https://i.ytimg.com/vi/Ut_bthceU3I/mqdefault.jpg","viewCount":"143","playlistId":"PLEkQk5xrP-tnu6of679SvxdVx0qSrJzmb","playlistName":"شرح سنن الإمام الترمذي رضى الله عنه د. يسري جبر","category":"متنوع"},{"id":"Dd9XqIRSybE","title":"3- النَّوْمِ عَنِ الصَّلاَةِ ك وقوت الصلاة ك الموطأ د- يسري جبر الأزهري","publishedAt":"2016-03-30T11:21:23Z","duration":"PT19M51S","thumbnail":"https://i.ytimg.com/vi/Dd9XqIRSybE/mqdefault.jpg","viewCount":"1625","playlistId":"PLEkQk5xrP-tnC6BRuqMjyO-484iqXeg0o","playlistName":"شرح كتاب الموطأ للإمام مالك","category":"متنوع"},{"id":"ABig3duE9G8","title":"قراءة القرآن (من أول سورة العلق)","publishedAt":"2016-03-31T02:18:26Z","duration":"PT24M17S","thumbnail":"https://i.ytimg.com/vi/ABig3duE9G8/mqdefault.jpg","viewCount":"148","playlistId":"PLEkQk5xrP-tnUSUj0uyJhA-kwNC7Gkx_j","playlistName":"مقرأة الفجر - بداية من سورة الإسراء حتى سورة الناس","category":"تفسير"},{"id":"PMWijDf5SYg","title":"شرح كتاب فضائل القرآن من سنن الترمذي - المجلس الثالث","publishedAt":"2016-03-31T02:18:26Z","duration":"PT32M58S","thumbnail":"https://i.ytimg.com/vi/PMWijDf5SYg/mqdefault.jpg","viewCount":"143","playlistId":"PLEkQk5xrP-tnu6of679SvxdVx0qSrJzmb","playlistName":"شرح سنن الإمام الترمذي رضى الله عنه د. يسري جبر","category":"متنوع"},{"id":"H1MX-NYG64Y","title":"4- النَّهْىِ عَنِ الصَّلاَةِ بِالْهَاجِرَةِ ك وقوت الصلاة ك الموطأ د- يسري جبرالأزهري بمضيفة الدح","publishedAt":"2016-03-31T22:40:50Z","duration":"PT46M56S","thumbnail":"https://i.ytimg.com/vi/H1MX-NYG64Y/mqdefault.jpg","viewCount":"1614","playlistId":"PLEkQk5xrP-tnC6BRuqMjyO-484iqXeg0o","playlistName":"شرح كتاب الموطأ للإمام مالك","category":"متنوع"},{"id":"PirGYZ50ulE","title":"قراءة القرآن (من أول سورة القدر)","publishedAt":"2016-04-01T02:17:11Z","duration":"PT16M39S","thumbnail":"https://i.ytimg.com/vi/PirGYZ50ulE/mqdefault.jpg","viewCount":"79","playlistId":"PLEkQk5xrP-tnUSUj0uyJhA-kwNC7Gkx_j","playlistName":"مقرأة الفجر - بداية من سورة الإسراء حتى سورة الناس","category":"تفسير"},{"id":"j3oitisY0VI","title":"شرح كتاب فضائل القرآن من سنن الترمذي - المجلس الرابع","publishedAt":"2016-04-01T02:17:17Z","duration":"PT33M18S","thumbnail":"https://i.ytimg.com/vi/j3oitisY0VI/mqdefault.jpg","viewCount":"141","playlistId":"PLEkQk5xrP-tnu6of679SvxdVx0qSrJzmb","playlistName":"شرح سنن الإمام الترمذي رضى الله عنه د. يسري جبر","category":"متنوع"},{"id":"IHyfhF6hcpA","title":"قراءة وتعليق كتاب عقد اللول في سيرة البتول للشيخ محمد الحداد","publishedAt":"2016-04-01T13:21:35Z","duration":"PT1H11M41S","thumbnail":"https://i.ytimg.com/vi/IHyfhF6hcpA/mqdefault.jpg","viewCount":"1185","playlistId":"PLEkQk5xrP-tmYN0y2PQUkx881GYBxD16g","playlistName":"درس الجمعة","category":"خطب"},{"id":"QAJSV1MwOi0","title":"مولد سيدة نساء العالمين فاطمة الزهراء البتول رضى الله تعالى عنها وأرضاها وعليها السلام د. يسري جبر","publishedAt":"2016-04-01T20:26:40Z","duration":"PT50M24S","thumbnail":"https://i.ytimg.com/vi/QAJSV1MwOi0/mqdefault.jpg","viewCount":"783","playlistId":"PLEkQk5xrP-tlArtGpeLWaqNM7h7IDeAVC","playlistName":"خطب الجمعة أ.د. يسري جبر","category":"خطب"},{"id":"Z0gwqgX7pX8","title":"قراءة القرآن (من أول سورة البينة)","publishedAt":"2016-04-02T02:21:32Z","duration":"PT13M53S","thumbnail":"https://i.ytimg.com/vi/Z0gwqgX7pX8/mqdefault.jpg","viewCount":"91","playlistId":"PLEkQk5xrP-tnUSUj0uyJhA-kwNC7Gkx_j","playlistName":"مقرأة الفجر - بداية من سورة الإسراء حتى سورة الناس","category":"تفسير"},{"id":"D7BJHpjsO3Q","title":"شرح كتاب فضائل القرآن من سنن الترمذي - المجلس الخامس","publishedAt":"2016-04-02T02:21:34Z","duration":"PT28M56S","thumbnail":"https://i.ytimg.com/vi/D7BJHpjsO3Q/mqdefault.jpg","viewCount":"171","playlistId":"PLEkQk5xrP-tnu6of679SvxdVx0qSrJzmb","playlistName":"شرح سنن الإمام الترمذي رضى الله عنه د. يسري جبر","category":"متنوع"},{"id":"eOGnXVkaOvg","title":"صحيح الإمام البخاري رضي الله عنه - كتاب الذبائح والصيد والتسمية على الصيد -المجلس الثالث د. يسري جبر","publishedAt":"2016-04-02T20:28:29Z","duration":"PT37M12S","thumbnail":"https://i.ytimg.com/vi/eOGnXVkaOvg/mqdefault.jpg","viewCount":"91","playlistId":"PLEkQk5xrP-tmJuzaj4GWRenFoFx9gdbFX","playlistName":"شرح كتاب صحيح الإمام البخاري رضي الله تعالى عنه   أ.د. يسرى جبر","category":"حديث"},{"id":"YUjygd_IYqc","title":"قراءة القرآن (من أول سورة الزلزلة)","publishedAt":"2016-04-03T02:22:41Z","duration":"PT5M28S","thumbnail":"https://i.ytimg.com/vi/YUjygd_IYqc/mqdefault.jpg","viewCount":"120","playlistId":"PLEkQk5xrP-tnUSUj0uyJhA-kwNC7Gkx_j","playlistName":"مقرأة الفجر - بداية من سورة الإسراء حتى سورة الناس","category":"تفسير"},{"id":"oHspDPc7bkE","title":"شرح كتاب القراءات من سنن الترمذي - المجلس الأول","publishedAt":"2016-04-03T03:16:59Z","duration":"PT33M1S","thumbnail":"https://i.ytimg.com/vi/oHspDPc7bkE/mqdefault.jpg","viewCount":"186","playlistId":"PLEkQk5xrP-tnu6of679SvxdVx0qSrJzmb","playlistName":"شرح سنن الإمام الترمذي رضى الله عنه د. يسري جبر","category":"متنوع"},{"id":"9pBYE8EtzkM","title":"صحيح الإمام البخاري رضي الله عنه - كتاب الذبائح والصيد والتسمية على الصيد -المجلس الرابع د. يسري جبر","publishedAt":"2016-04-04T03:02:12Z","duration":"PT1H4M10S","thumbnail":"https://i.ytimg.com/vi/9pBYE8EtzkM/mqdefault.jpg","viewCount":"110","playlistId":"PLEkQk5xrP-tmJuzaj4GWRenFoFx9gdbFX","playlistName":"شرح كتاب صحيح الإمام البخاري رضي الله تعالى عنه   أ.د. يسرى جبر","category":"حديث"},{"id":"EHDlqO7Y4VU","title":"قراءة القرآن (من أول سورة العاديات)","publishedAt":"2016-04-04T03:19:36Z","duration":"PT6M56S","thumbnail":"https://i.ytimg.com/vi/EHDlqO7Y4VU/mqdefault.jpg","viewCount":"86","playlistId":"PLEkQk5xrP-tnUSUj0uyJhA-kwNC7Gkx_j","playlistName":"مقرأة الفجر - بداية من سورة الإسراء حتى سورة الناس","category":"تفسير"},{"id":"A0oPVwoUp30","title":"شرح كتاب القراءات من سنن الترمذي - المجلس الثاني","publishedAt":"2016-04-04T03:19:42Z","duration":"PT44M57S","thumbnail":"https://i.ytimg.com/vi/A0oPVwoUp30/mqdefault.jpg","viewCount":"119","playlistId":"PLEkQk5xrP-tnu6of679SvxdVx0qSrJzmb","playlistName":"شرح سنن الإمام الترمذي رضى الله عنه د. يسري جبر","category":"متنوع"},{"id":"zHvZfo2VQ4U","title":"5- وُضُوءِ النَّائِمِ إِذَا قَامَ إِلَى الصَّلاَةِ ك الطهارة ك الموطأ د- يسري جبر الأزهري","publishedAt":"2016-04-04T22:22:20Z","duration":"PT1H5M36S","thumbnail":"https://i.ytimg.com/vi/zHvZfo2VQ4U/mqdefault.jpg","viewCount":"1409","playlistId":"PLEkQk5xrP-tnC6BRuqMjyO-484iqXeg0o","playlistName":"شرح كتاب الموطأ للإمام مالك","category":"متنوع"},{"id":"Pmv19ulMRuo","title":"قراءة القرآن (من أول سورة القارعة)","publishedAt":"2016-04-05T03:13:41Z","duration":"PT5M21S","thumbnail":"https://i.ytimg.com/vi/Pmv19ulMRuo/mqdefault.jpg","viewCount":"82","playlistId":"PLEkQk5xrP-tnUSUj0uyJhA-kwNC7Gkx_j","playlistName":"مقرأة الفجر - بداية من سورة الإسراء حتى سورة الناس","category":"تفسير"},{"id":"rRfAjCYxiuw","title":"شرح كتاب تفسير القرآن من سنن الترمذي - المجلس الأول","publishedAt":"2016-04-05T03:13:44Z","duration":"PT40M49S","thumbnail":"https://i.ytimg.com/vi/rRfAjCYxiuw/mqdefault.jpg","viewCount":"234","playlistId":"PLEkQk5xrP-tnu6of679SvxdVx0qSrJzmb","playlistName":"شرح سنن الإمام الترمذي رضى الله عنه د. يسري جبر","category":"متنوع"}],"total":7670,"page":33,"pageSize":24,"totalPages":320}