{"items":[{"id":"8K1hZUKDDFI","title":"سورة التوبة آية 7","publishedAt":"2017-03-30T07:06:21Z","duration":"PT14M55S","thumbnail":"https://i.ytimg.com/vi/8K1hZUKDDFI/mqdefault.jpg","viewCount":"693","playlistId":"PLEkQk5xrP-tnmTYsyW6xNdyfhPq0Bhrhj","playlistName":"مقرأة الفجر - القُرْآنُ الكَرِيمُ - خَتْمَةُ التَّدَبُّرِ  أ.د. يسري جبر","category":"متنوع"},{"id":"HcO40BU3PBA","title":"شرح صحيح البخاري - كتاب الصوم من باب ٢٠","publishedAt":"2017-03-30T13:16:34Z","duration":"PT41M3S","thumbnail":"https://i.ytimg.com/vi/HcO40BU3PBA/mqdefault.jpg","viewCount":"1065","playlistId":"PLEkQk5xrP-tlEerGoLa1AFy-2XvQ-sovv","playlistName":"شرح صحيح البخاري - أ.د. يسري جبر (كاملا)","category":"حديث"},{"id":"h7Cj6VwuOd0","title":"سورة التوبة آية 16","publishedAt":"2017-03-31T04:42:00Z","duration":"PT18M2S","thumbnail":"https://i.ytimg.com/vi/h7Cj6VwuOd0/mqdefault.jpg","viewCount":"469","playlistId":"PLEkQk5xrP-tnmTYsyW6xNdyfhPq0Bhrhj","playlistName":"مقرأة الفجر - القُرْآنُ الكَرِيمُ - خَتْمَةُ التَّدَبُّرِ  أ.د. يسري جبر","category":"متنوع"},{"id":"gWt6ZSEkImo","title":"شرح صحيح البخاري - كتاب الصوم من باب ٢٨","publishedAt":"2017-03-31T08:37:48Z","duration":"PT36M58S","thumbnail":"https://i.ytimg.com/vi/gWt6ZSEkImo/mqdefault.jpg","viewCount":"1010","playlistId":"PLEkQk5xrP-tlEerGoLa1AFy-2XvQ-sovv","playlistName":"شرح صحيح البخاري - أ.د. يسري جبر (كاملا)","category":"حديث"},{"id":"Ih4MhsxX6JE","title":"ستر أنوار السرائر بكثائف الظواهر، إجلالا لها أن تبتذل بوجود الإظهار،...","publishedAt":"2017-04-01T15:52:35Z","duration":"PT22M9S","thumbnail":"https://i.ytimg.com/vi/Ih4MhsxX6JE/mqdefault.jpg","viewCount":"10072","playlistId":"PLEkQk5xrP-tkI_meE148wc7V7XHlB0WPb","playlistName":"من الحكم العطائية  د. يسري جبر","category":"متنوع"},{"id":"loUzDnqV9zw","title":"سورة التوبة آية 20","publishedAt":"2017-04-08T21:28:31Z","duration":"PT22M19S","thumbnail":"https://i.ytimg.com/vi/loUzDnqV9zw/mqdefault.jpg","viewCount":"496","playlistId":"PLEkQk5xrP-tnmTYsyW6xNdyfhPq0Bhrhj","playlistName":"مقرأة الفجر - القُرْآنُ الكَرِيمُ - خَتْمَةُ التَّدَبُّرِ  أ.د. يسري جبر","category":"متنوع"},{"id":"AvoHeof2Ctc","title":"شرح صحيح البخاري - كتاب الصوم من باب ٣٢","publishedAt":"2017-04-08T22:06:59Z","duration":"PT34M16S","thumbnail":"https://i.ytimg.com/vi/AvoHeof2Ctc/mqdefault.jpg","viewCount":"862","playlistId":"PLEkQk5xrP-tlEerGoLa1AFy-2XvQ-sovv","playlistName":"شرح صحيح البخاري - أ.د. يسري جبر (كاملا)","category":"حديث"},{"id":"PRgzw7Jrt30","title":"سورة التوبة آية 24","publishedAt":"2017-04-09T17:13:52Z","duration":"PT14M21S","thumbnail":"https://i.ytimg.com/vi/PRgzw7Jrt30/mqdefault.jpg","viewCount":"440","playlistId":"PLEkQk5xrP-tnmTYsyW6xNdyfhPq0Bhrhj","playlistName":"مقرأة الفجر - القُرْآنُ الكَرِيمُ - خَتْمَةُ التَّدَبُّرِ  أ.د. يسري جبر","category":"متنوع"},{"id":"yfys4A3qrGE","title":"أنا بك وإليك   د.يسري جبر","publishedAt":"2017-04-10T20:24:17Z","duration":"PT33M56S","thumbnail":"https://i.ytimg.com/vi/yfys4A3qrGE/mqdefault.jpg","viewCount":"10071","playlistId":"PLEkQk5xrP-tlArtGpeLWaqNM7h7IDeAVC","playlistName":"خطب الجمعة أ.د. يسري جبر","category":"خطب"},{"id":"bvbyJjbewuY","title":"شرح صحيح البخاري - كتاب الصوم من باب ٣٩","publishedAt":"2017-04-11T01:59:17Z","duration":"PT39M56S","thumbnail":"https://i.ytimg.com/vi/bvbyJjbewuY/mqdefault.jpg","viewCount":"985","playlistId":"PLEkQk5xrP-tlEerGoLa1AFy-2XvQ-sovv","playlistName":"شرح صحيح البخاري - أ.د. يسري جبر (كاملا)","category":"حديث"},{"id":"KDZ5Uyo5kN4","title":"سورة التوبة آية 28","publishedAt":"2017-04-11T15:30:09Z","duration":"PT20M54S","thumbnail":"https://i.ytimg.com/vi/KDZ5Uyo5kN4/mqdefault.jpg","viewCount":"460","playlistId":"PLEkQk5xrP-tnmTYsyW6xNdyfhPq0Bhrhj","playlistName":"مقرأة الفجر - القُرْآنُ الكَرِيمُ - خَتْمَةُ التَّدَبُّرِ  أ.د. يسري جبر","category":"متنوع"},{"id":"zKty3avlyX0","title":"نوراليقين في سيرة سيد المرسلين - المجلس الخامس- معيشته صلى الله عليه وآله وسلم قبل البعثة د.يسري جبر","publishedAt":"2017-04-11T18:35:54Z","duration":"PT47M38S","thumbnail":"https://i.ytimg.com/vi/zKty3avlyX0/mqdefault.jpg","viewCount":"43107","playlistId":"PLEkQk5xrP-tl2t4NQx1IhKnAJCMzF0Nli","playlistName":"شرح كتاب نور اليقين في سيرة سيد المرسلين   د. يسري جبر","category":"سيرة"},{"id":"poc9MZ2Sz-c","title":"سبحان من لم يجعل الدليل على أوليائه إلا من حيث الدليل عليه، ولم يوصل إليهم إلا من أراد أن يوصله إليه","publishedAt":"2017-04-11T19:28:12Z","duration":"PT13M34S","thumbnail":"https://i.ytimg.com/vi/poc9MZ2Sz-c/mqdefault.jpg","viewCount":"9045","playlistId":"PLEkQk5xrP-tkI_meE148wc7V7XHlB0WPb","playlistName":"من الحكم العطائية  د. يسري جبر","category":"متنوع"},{"id":"q2Ed5sA0qYg","title":"شرح صحيح البخاري - كتاب الصوم من باب ٤٨","publishedAt":"2017-04-12T11:35:53Z","duration":"PT32M19S","thumbnail":"https://i.ytimg.com/vi/q2Ed5sA0qYg/mqdefault.jpg","viewCount":"877","playlistId":"PLEkQk5xrP-tlEerGoLa1AFy-2XvQ-sovv","playlistName":"شرح صحيح البخاري - أ.د. يسري جبر (كاملا)","category":"حديث"},{"id":"5YJNASeHTSM","title":"سورة التوبة  آية 30","publishedAt":"2017-04-13T06:23:18Z","duration":"PT11M48S","thumbnail":"https://i.ytimg.com/vi/5YJNASeHTSM/mqdefault.jpg","viewCount":"385","playlistId":"PLEkQk5xrP-tnmTYsyW6xNdyfhPq0Bhrhj","playlistName":"مقرأة الفجر - القُرْآنُ الكَرِيمُ - خَتْمَةُ التَّدَبُّرِ  أ.د. يسري جبر","category":"متنوع"},{"id":"62fr6W-dySk","title":"شرح صحيح البخاري - كتاب الصوم من باب 55","publishedAt":"2017-04-13T11:37:30Z","duration":"PT30M54S","thumbnail":"https://i.ytimg.com/vi/62fr6W-dySk/mqdefault.jpg","viewCount":"811","playlistId":"PLEkQk5xrP-tlEerGoLa1AFy-2XvQ-sovv","playlistName":"شرح صحيح البخاري - أ.د. يسري جبر (كاملا)","category":"حديث"},{"id":"zeVW_oUWTuo","title":"شرح صحيح البخاري - كتاب الصوم من باب ٦٣","publishedAt":"2017-04-14T18:01:40Z","duration":"PT40M3S","thumbnail":"https://i.ytimg.com/vi/zeVW_oUWTuo/mqdefault.jpg","viewCount":"859","playlistId":"PLEkQk5xrP-tlEerGoLa1AFy-2XvQ-sovv","playlistName":"شرح صحيح البخاري - أ.د. يسري جبر (كاملا)","category":"حديث"},{"id":"wyyyj1S9iUc","title":"سورة التوبة آية 34","publishedAt":"2017-04-15T07:59:11Z","duration":"PT12M30S","thumbnail":"https://i.ytimg.com/vi/wyyyj1S9iUc/mqdefault.jpg","viewCount":"299","playlistId":"PLEkQk5xrP-tnmTYsyW6xNdyfhPq0Bhrhj","playlistName":"مقرأة الفجر - القُرْآنُ الكَرِيمُ - خَتْمَةُ التَّدَبُّرِ  أ.د. يسري جبر","category":"متنوع"},{"id":"yi3MTmSaIwk","title":"فِتَنٌ تَمُوجُ مَوْجَ البَحْرِ.    د. يسري جبر","publishedAt":"2017-04-15T12:45:11Z","duration":"PT37M2S","thumbnail":"https://i.ytimg.com/vi/yi3MTmSaIwk/mqdefault.jpg","viewCount":"2424","playlistId":"PLEkQk5xrP-tlArtGpeLWaqNM7h7IDeAVC","playlistName":"خطب الجمعة أ.د. يسري جبر","category":"خطب"},{"id":"SPqazVh8jD8","title":"كتاب نوراليقين في سيرة سيد المرسلين - المجلس السادس حركة الأفكار قبل البعثة. د.يسري جبر","publishedAt":"2017-04-15T18:26:51Z","duration":"PT50M37S","thumbnail":"https://i.ytimg.com/vi/SPqazVh8jD8/mqdefault.jpg","viewCount":"40310","playlistId":"PLEkQk5xrP-tl2t4NQx1IhKnAJCMzF0Nli","playlistName":"شرح كتاب نور اليقين في سيرة سيد المرسلين   د. يسري جبر","category":"سيرة"},{"id":"CI-mQAoCp80","title":"ربما أطلعك على غيب ملكوته، وحجب عنك الاستشراف على أسرار العباد.","publishedAt":"2017-04-16T11:45:28Z","duration":"PT19M39S","thumbnail":"https://i.ytimg.com/vi/CI-mQAoCp80/mqdefault.jpg","viewCount":"16955","playlistId":"PLEkQk5xrP-tkI_meE148wc7V7XHlB0WPb","playlistName":"من الحكم العطائية  د. يسري جبر","category":"متنوع"},{"id":"rToSXp9DG9c","title":"مقرأة سورة التوبة من آية ٣٦","publishedAt":"2017-04-16T12:42:55Z","duration":"PT23M37S","thumbnail":"https://i.ytimg.com/vi/rToSXp9DG9c/mqdefault.jpg","viewCount":"349","playlistId":"PLEkQk5xrP-tnmTYsyW6xNdyfhPq0Bhrhj","playlistName":"مقرأة الفجر - القُرْآنُ الكَرِيمُ - خَتْمَةُ التَّدَبُّرِ  أ.د. يسري جبر","category":"متنوع"},{"id":"fJXst5LJl3Y","title":"شرح صحيح البخاري - كتاب صلا‎ة التراويح","publishedAt":"2017-04-16T12:56:07Z","duration":"PT32M52S","thumbnail":"https://i.ytimg.com/vi/fJXst5LJl3Y/mqdefault.jpg","viewCount":"945","playlistId":"PLEkQk5xrP-tlEerGoLa1AFy-2XvQ-sovv","playlistName":"شرح صحيح البخاري - أ.د. يسري جبر (كاملا)","category":"حديث"},{"id":"yx_2bjGCMng","title":"عِقد اللول من سيرة الزهراء البتول رضي الله تعالى عنها وعليها السلام - المجلس االثالث د. يسري جبر","publishedAt":"2017-04-16T20:45:02Z","duration":"PT26M8S","thumbnail":"https://i.ytimg.com/vi/yx_2bjGCMng/mqdefault.jpg","viewCount":"650","playlistId":"PLEkQk5xrP-tkxpL07FfuZbVfwJKhAVbcE","playlistName":"عِقد اللول من سيرة الزهراء البتول رضي الله عنها وعليها السلام  د . يسري جبر","category":"سيرة"}],"total":7670,"page":66,"pageSize":24,"totalPages":320}