{"items":[{"id":"mWlu2v3Bd_g","title":"مقرأة سورة لقمان من آية ٦","publishedAt":"2018-06-30T13:05:03Z","duration":"PT21M6S","thumbnail":"https://i.ytimg.com/vi/mWlu2v3Bd_g/mqdefault.jpg","viewCount":"520","playlistId":"PLEkQk5xrP-tnmTYsyW6xNdyfhPq0Bhrhj","playlistName":"مقرأة الفجر - القُرْآنُ الكَرِيمُ - خَتْمَةُ التَّدَبُّرِ  أ.د. يسري جبر","category":"متنوع"},{"id":"II3nmqxdDdA","title":"شرح صحيح البخاري كتاب النفقات من أوله","publishedAt":"2018-06-30T22:19:20Z","duration":"PT29M35S","thumbnail":"https://i.ytimg.com/vi/II3nmqxdDdA/mqdefault.jpg","viewCount":"533","playlistId":"PLEkQk5xrP-tlEerGoLa1AFy-2XvQ-sovv","playlistName":"شرح صحيح البخاري - أ.د. يسري جبر (كاملا)","category":"حديث"},{"id":"zwDOpQeWmPA","title":"سُنَنُ النَّبيِّ صلى الله عليه وآله وسلم في الأزمات   د. يسري جبر","publishedAt":"2018-07-01T08:56:28Z","duration":"PT42M12S","thumbnail":"https://i.ytimg.com/vi/zwDOpQeWmPA/mqdefault.jpg","viewCount":"772","playlistId":"PLEkQk5xrP-tlArtGpeLWaqNM7h7IDeAVC","playlistName":"خطب الجمعة أ.د. يسري جبر","category":"خطب"},{"id":"6By00-2MLHc","title":"ختام شرح كتاب الإشارات الزروقيّة علی الآيات القرآنية - المجلس الثامن","publishedAt":"2018-07-01T09:02:07Z","duration":"PT59M17S","thumbnail":"https://i.ytimg.com/vi/6By00-2MLHc/mqdefault.jpg","viewCount":"827","playlistId":"PLEkQk5xrP-tl1OLT5J2vthcf9QHpjNkWx","playlistName":"شرح كتاب الإشارات الزروقيّة علی الآيات القرآنية  د. يسري جبر","category":"تفسير"},{"id":"zU3hXFiLW1c","title":"مقرأة سورة لقمان من آية ١٠","publishedAt":"2018-07-01T12:48:57Z","duration":"PT14M46S","thumbnail":"https://i.ytimg.com/vi/zU3hXFiLW1c/mqdefault.jpg","viewCount":"317","playlistId":"PLEkQk5xrP-tnmTYsyW6xNdyfhPq0Bhrhj","playlistName":"مقرأة الفجر - القُرْآنُ الكَرِيمُ - خَتْمَةُ التَّدَبُّرِ  أ.د. يسري جبر","category":"متنوع"},{"id":"qeUrgGYLeQY","title":"شرح صحيح البخاري كتاب النفقات من باب ٥","publishedAt":"2018-07-01T23:09:41Z","duration":"PT39M5S","thumbnail":"https://i.ytimg.com/vi/qeUrgGYLeQY/mqdefault.jpg","viewCount":"512","playlistId":"PLEkQk5xrP-tlEerGoLa1AFy-2XvQ-sovv","playlistName":"شرح صحيح البخاري - أ.د. يسري جبر (كاملا)","category":"حديث"},{"id":"LcQBOvB3qBU","title":"مقرأة سورة لقمان من آية ١٣","publishedAt":"2018-07-02T19:19:19Z","duration":"PT13M55S","thumbnail":"https://i.ytimg.com/vi/LcQBOvB3qBU/mqdefault.jpg","viewCount":"432","playlistId":"PLEkQk5xrP-tnmTYsyW6xNdyfhPq0Bhrhj","playlistName":"مقرأة الفجر - القُرْآنُ الكَرِيمُ - خَتْمَةُ التَّدَبُّرِ  أ.د. يسري جبر","category":"متنوع"},{"id":"mJpsuK477k0","title":"شرح صحيح البخاري كتاب الأطعمة من أوله","publishedAt":"2018-07-03T00:16:30Z","duration":"PT30M36S","thumbnail":"https://i.ytimg.com/vi/mJpsuK477k0/mqdefault.jpg","viewCount":"760","playlistId":"PLEkQk5xrP-tlEerGoLa1AFy-2XvQ-sovv","playlistName":"شرح صحيح البخاري - أ.د. يسري جبر (كاملا)","category":"حديث"},{"id":"AD8t0he8Gr0","title":"مقرأة سورة لقمان من آية ١٦","publishedAt":"2018-07-03T11:51:22Z","duration":"PT30M35S","thumbnail":"https://i.ytimg.com/vi/AD8t0he8Gr0/mqdefault.jpg","viewCount":"409","playlistId":"PLEkQk5xrP-tnmTYsyW6xNdyfhPq0Bhrhj","playlistName":"مقرأة الفجر - القُرْآنُ الكَرِيمُ - خَتْمَةُ التَّدَبُّرِ  أ.د. يسري جبر","category":"متنوع"},{"id":"fZ4KctCHYuU","title":"64- باب مَا جَاءَ فِى الإِحْصَانِ ك الموطأ د يسري جبر الأزهري","publishedAt":"2018-07-03T16:29:24Z","duration":"PT51M28S","thumbnail":"https://i.ytimg.com/vi/fZ4KctCHYuU/mqdefault.jpg","viewCount":"244","playlistId":"PLEkQk5xrP-tnC6BRuqMjyO-484iqXeg0o","playlistName":"شرح كتاب الموطأ للإمام مالك","category":"متنوع"},{"id":"nctWHmx0hpA","title":"الرسالة القشيرية - المجلس العشرون - باب في ذكر مشايخ هذه الطريقة - المجلس الثاني عشر","publishedAt":"2018-07-03T18:19:18Z","duration":"PT51M5S","thumbnail":"https://i.ytimg.com/vi/nctWHmx0hpA/mqdefault.jpg","viewCount":"5582","playlistId":"PLEkQk5xrP-tkHAGOwIKr4pc5ehhyQ5HMJ","playlistName":"كتاب الرسالة القشيرية (تصوف) - د. يسري جبر","category":"تصوف"},{"id":"8gXZTE9jkvw","title":"شرح صحيح البخاري كتاب الأطعمة من باب ٦","publishedAt":"2018-07-03T21:55:31Z","duration":"PT36M18S","thumbnail":"https://i.ytimg.com/vi/8gXZTE9jkvw/mqdefault.jpg","viewCount":"557","playlistId":"PLEkQk5xrP-tlEerGoLa1AFy-2XvQ-sovv","playlistName":"شرح صحيح البخاري - أ.د. يسري جبر (كاملا)","category":"حديث"},{"id":"qBD1eRIOG0g","title":"مقرأة سورة لقمان من آية ٢٠","publishedAt":"2018-07-04T10:37:44Z","duration":"PT25M29S","thumbnail":"https://i.ytimg.com/vi/qBD1eRIOG0g/mqdefault.jpg","viewCount":"352","playlistId":"PLEkQk5xrP-tnmTYsyW6xNdyfhPq0Bhrhj","playlistName":"مقرأة الفجر - القُرْآنُ الكَرِيمُ - خَتْمَةُ التَّدَبُّرِ  أ.د. يسري جبر","category":"متنوع"},{"id":"1v7wTgtxi8I","title":"شرح صحيح البخاري كتاب الأطعمة من باب ٩","publishedAt":"2018-07-04T15:45:25Z","duration":"PT32M11S","thumbnail":"https://i.ytimg.com/vi/1v7wTgtxi8I/mqdefault.jpg","viewCount":"505","playlistId":"PLEkQk5xrP-tlEerGoLa1AFy-2XvQ-sovv","playlistName":"شرح صحيح البخاري - أ.د. يسري جبر (كاملا)","category":"حديث"},{"id":"TaeXIs7f6Ck","title":"شرح كتاب نور اليقين في سيرة سيد المرسلين - المجلس 51 (حديث الثلاثة الذين خُلِّفوا) د.يسري جبر","publishedAt":"2018-07-04T17:14:58Z","duration":"PT47M33S","thumbnail":"https://i.ytimg.com/vi/TaeXIs7f6Ck/mqdefault.jpg","viewCount":"10401","playlistId":"PLEkQk5xrP-tl2t4NQx1IhKnAJCMzF0Nli","playlistName":"شرح كتاب نور اليقين في سيرة سيد المرسلين   د. يسري جبر","category":"سيرة"},{"id":"ze6Zz-IK5zQ","title":"صحيح الإمام البخاري رضي الله عنه - كتاب الدِّيات - باب السن بالسن المجلس الخامس د.يسري جبر","publishedAt":"2018-07-04T17:31:13Z","duration":"PT59M27S","thumbnail":"https://i.ytimg.com/vi/ze6Zz-IK5zQ/mqdefault.jpg","viewCount":"95","playlistId":"PLEkQk5xrP-tmJuzaj4GWRenFoFx9gdbFX","playlistName":"شرح كتاب صحيح الإمام البخاري رضي الله تعالى عنه   أ.د. يسرى جبر","category":"حديث"},{"id":"5qkLlf_sL_s","title":"مقرأة سورة لقمان من آية ٢٥","publishedAt":"2018-07-05T10:25:10Z","duration":"PT19M31S","thumbnail":"https://i.ytimg.com/vi/5qkLlf_sL_s/mqdefault.jpg","viewCount":"350","playlistId":"PLEkQk5xrP-tnmTYsyW6xNdyfhPq0Bhrhj","playlistName":"مقرأة الفجر - القُرْآنُ الكَرِيمُ - خَتْمَةُ التَّدَبُّرِ  أ.د. يسري جبر","category":"متنوع"},{"id":"MGb4gIy4UQE","title":"الرسالة القشيرية - المجلس الحادي و العشرون - باب في ذكر مشايخ هذه الطريقة - المجلس الثالث عشر","publishedAt":"2018-07-05T19:01:28Z","duration":"PT46M10S","thumbnail":"https://i.ytimg.com/vi/MGb4gIy4UQE/mqdefault.jpg","viewCount":"5428","playlistId":"PLEkQk5xrP-tkHAGOwIKr4pc5ehhyQ5HMJ","playlistName":"كتاب الرسالة القشيرية (تصوف) - د. يسري جبر","category":"تصوف"},{"id":"QR5GbdN46Pg","title":"شرح صحيح البخاري كتاب الأطعمة من باب ١٥","publishedAt":"2018-07-05T21:43:23Z","duration":"PT37M35S","thumbnail":"https://i.ytimg.com/vi/QR5GbdN46Pg/mqdefault.jpg","viewCount":"573","playlistId":"PLEkQk5xrP-tlEerGoLa1AFy-2XvQ-sovv","playlistName":"شرح صحيح البخاري - أ.د. يسري جبر (كاملا)","category":"حديث"},{"id":"4GA1JUZH7Gw","title":"شرح كتاب نور اليقين في سيرة سيد المرسلين - المجلس 52 ( وفاة ابن أُبيٍّ ) د.يسري جبر","publishedAt":"2018-07-07T12:51:58Z","duration":"PT49M32S","thumbnail":"https://i.ytimg.com/vi/4GA1JUZH7Gw/mqdefault.jpg","viewCount":"10789","playlistId":"PLEkQk5xrP-tl2t4NQx1IhKnAJCMzF0Nli","playlistName":"شرح كتاب نور اليقين في سيرة سيد المرسلين   د. يسري جبر","category":"سيرة"},{"id":"XdtEAiaZhXA","title":"مقرأة سورة لقمان من آية ٢٩","publishedAt":"2018-07-07T14:38:00Z","duration":"PT16M26S","thumbnail":"https://i.ytimg.com/vi/XdtEAiaZhXA/mqdefault.jpg","viewCount":"259","playlistId":"PLEkQk5xrP-tnmTYsyW6xNdyfhPq0Bhrhj","playlistName":"مقرأة الفجر - القُرْآنُ الكَرِيمُ - خَتْمَةُ التَّدَبُّرِ  أ.د. يسري جبر","category":"متنوع"},{"id":"arKYZiSE6y4","title":"صحيح الإمام البخاري رضي الله عنه - كتاب الدِّيات المجلس السادس د.يسري جبر","publishedAt":"2018-07-07T21:22:12Z","duration":"PT45M34S","thumbnail":"https://i.ytimg.com/vi/arKYZiSE6y4/mqdefault.jpg","viewCount":"115","playlistId":"PLEkQk5xrP-tmJuzaj4GWRenFoFx9gdbFX","playlistName":"شرح كتاب صحيح الإمام البخاري رضي الله تعالى عنه   أ.د. يسرى جبر","category":"حديث"},{"id":"VpVbDGeR-9E","title":"لا يظِلمُ رَبٌك أحدًا","publishedAt":"2018-07-08T02:05:38Z","duration":"PT36M53S","thumbnail":"https://i.ytimg.com/vi/VpVbDGeR-9E/mqdefault.jpg","viewCount":"900","playlistId":"PLEkQk5xrP-tlArtGpeLWaqNM7h7IDeAVC","playlistName":"خطب الجمعة أ.د. يسري جبر","category":"خطب"},{"id":"MaHO2c87PlM","title":"شرح صحيح البخاري كتاب الأطعمة من باب ٢٣","publishedAt":"2018-07-08T09:01:47Z","duration":"PT35M37S","thumbnail":"https://i.ytimg.com/vi/MaHO2c87PlM/mqdefault.jpg","viewCount":"529","playlistId":"PLEkQk5xrP-tlEerGoLa1AFy-2XvQ-sovv","playlistName":"شرح صحيح البخاري - أ.د. يسري جبر (كاملا)","category":"حديث"}],"total":7675,"page":111,"pageSize":24,"totalPages":320}