{"items":[{"id":"6d-H1eF6QhE","title":"مقرأة سورة الزخرف من آية ٧٩","publishedAt":"2018-12-21T08:10:04Z","duration":"PT24M2S","thumbnail":"https://i.ytimg.com/vi/6d-H1eF6QhE/mqdefault.jpg","viewCount":"362","playlistId":"PLEkQk5xrP-tnmTYsyW6xNdyfhPq0Bhrhj","playlistName":"مقرأة الفجر - القُرْآنُ الكَرِيمُ - خَتْمَةُ التَّدَبُّرِ  أ.د. يسري جبر","category":"متنوع"},{"id":"imxRzxMlabE","title":"شرح صحيح البخاري كتاب التعبير من باب ٢","publishedAt":"2018-12-21T17:52:06Z","duration":"PT20M36S","thumbnail":"https://i.ytimg.com/vi/imxRzxMlabE/mqdefault.jpg","viewCount":"572","playlistId":"PLEkQk5xrP-tlEerGoLa1AFy-2XvQ-sovv","playlistName":"شرح صحيح البخاري - أ.د. يسري جبر (كاملا)","category":"حديث"},{"id":"E9yIHhUFWNM","title":"مقرأة سورة الدخان من أولها","publishedAt":"2018-12-22T09:54:01Z","duration":"PT33M47S","thumbnail":"https://i.ytimg.com/vi/E9yIHhUFWNM/mqdefault.jpg","viewCount":"1008","playlistId":"PLEkQk5xrP-tnmTYsyW6xNdyfhPq0Bhrhj","playlistName":"مقرأة الفجر - القُرْآنُ الكَرِيمُ - خَتْمَةُ التَّدَبُّرِ  أ.د. يسري جبر","category":"متنوع"},{"id":"Gx_lETe_yKo","title":"شرح صحيح البخاري كتاب التعبير من باب ٦","publishedAt":"2018-12-22T21:31:05Z","duration":"PT21M18S","thumbnail":"https://i.ytimg.com/vi/Gx_lETe_yKo/mqdefault.jpg","viewCount":"479","playlistId":"PLEkQk5xrP-tlEerGoLa1AFy-2XvQ-sovv","playlistName":"شرح صحيح البخاري - أ.د. يسري جبر (كاملا)","category":"حديث"},{"id":"1w45NDXJO4g","title":"مقرأة سورة الدخان من آية ١٧","publishedAt":"2018-12-23T11:55:33Z","duration":"PT17M29S","thumbnail":"https://i.ytimg.com/vi/1w45NDXJO4g/mqdefault.jpg","viewCount":"406","playlistId":"PLEkQk5xrP-tnmTYsyW6xNdyfhPq0Bhrhj","playlistName":"مقرأة الفجر - القُرْآنُ الكَرِيمُ - خَتْمَةُ التَّدَبُّرِ  أ.د. يسري جبر","category":"متنوع"},{"id":"ze2jjrdP-6s","title":"الرسالة القشيرية المجلس الواحد و الأربعون - باب المجاهدة  أ.د. يسري جبر","publishedAt":"2018-12-23T17:08:14Z","duration":"PT42M48S","thumbnail":"https://i.ytimg.com/vi/ze2jjrdP-6s/mqdefault.jpg","viewCount":"8674","playlistId":"PLEkQk5xrP-tkHAGOwIKr4pc5ehhyQ5HMJ","playlistName":"كتاب الرسالة القشيرية (تصوف) - د. يسري جبر","category":"تصوف"},{"id":"RES1DPc0rKA","title":"شرح صحيح البخاري كتاب التعبير من باب ٩","publishedAt":"2018-12-23T19:52:41Z","duration":"PT42M48S","thumbnail":"https://i.ytimg.com/vi/RES1DPc0rKA/mqdefault.jpg","viewCount":"588","playlistId":"PLEkQk5xrP-tlEerGoLa1AFy-2XvQ-sovv","playlistName":"شرح صحيح البخاري - أ.د. يسري جبر (كاملا)","category":"حديث"},{"id":"bTQ-XyeRY44","title":"مقرأة سورة الدخان من آية ٢٨","publishedAt":"2018-12-24T10:12:49Z","duration":"PT9M19S","thumbnail":"https://i.ytimg.com/vi/bTQ-XyeRY44/mqdefault.jpg","viewCount":"359","playlistId":"PLEkQk5xrP-tnmTYsyW6xNdyfhPq0Bhrhj","playlistName":"مقرأة الفجر - القُرْآنُ الكَرِيمُ - خَتْمَةُ التَّدَبُّرِ  أ.د. يسري جبر","category":"متنوع"},{"id":"TWoR4q4nn6o","title":"المراقبة   أ.د. يسري جبر","publishedAt":"2018-12-24T19:24:39Z","duration":"PT33M16S","thumbnail":"https://i.ytimg.com/vi/TWoR4q4nn6o/mqdefault.jpg","viewCount":"1291","playlistId":"PLEkQk5xrP-tlArtGpeLWaqNM7h7IDeAVC","playlistName":"خطب الجمعة أ.د. يسري جبر","category":"خطب"},{"id":"CiMArjosH44","title":"شرح صحيح البخاري كتاب التعبير من باب ١٢","publishedAt":"2018-12-24T21:47:34Z","duration":"PT39M46S","thumbnail":"https://i.ytimg.com/vi/CiMArjosH44/mqdefault.jpg","viewCount":"513","playlistId":"PLEkQk5xrP-tlEerGoLa1AFy-2XvQ-sovv","playlistName":"شرح صحيح البخاري - أ.د. يسري جبر (كاملا)","category":"حديث"},{"id":"6K-LYgKtGDk","title":"مقرأة سورة الدخان من آية ٣٧","publishedAt":"2018-12-25T12:40:23Z","duration":"PT22M","thumbnail":"https://i.ytimg.com/vi/6K-LYgKtGDk/mqdefault.jpg","viewCount":"780","playlistId":"PLEkQk5xrP-tnmTYsyW6xNdyfhPq0Bhrhj","playlistName":"مقرأة الفجر - القُرْآنُ الكَرِيمُ - خَتْمَةُ التَّدَبُّرِ  أ.د. يسري جبر","category":"متنوع"},{"id":"B2ESM4fqbgk","title":"شرح كتاب نور اليقين في سيرة سيد المرسلين للشيخ الخضري رحمه الله (المجلس70) أ.د. يسري جبر","publishedAt":"2018-12-25T15:47:11Z","duration":"PT50M50S","thumbnail":"https://i.ytimg.com/vi/B2ESM4fqbgk/mqdefault.jpg","viewCount":"6243","playlistId":"PLEkQk5xrP-tl2t4NQx1IhKnAJCMzF0Nli","playlistName":"شرح كتاب نور اليقين في سيرة سيد المرسلين   د. يسري جبر","category":"سيرة"},{"id":"axQxU9xBoVE","title":"شرح صحيح البخاري كتاب التعبير من باب ٢٢","publishedAt":"2018-12-25T21:05:42Z","duration":"PT27M30S","thumbnail":"https://i.ytimg.com/vi/axQxU9xBoVE/mqdefault.jpg","viewCount":"453","playlistId":"PLEkQk5xrP-tlEerGoLa1AFy-2XvQ-sovv","playlistName":"شرح صحيح البخاري - أ.د. يسري جبر (كاملا)","category":"حديث"},{"id":"l8nh1QyxV2c","title":"مقرأة سورة الدخان من آية ٥١","publishedAt":"2018-12-26T12:12:45Z","duration":"PT14M5S","thumbnail":"https://i.ytimg.com/vi/l8nh1QyxV2c/mqdefault.jpg","viewCount":"304","playlistId":"PLEkQk5xrP-tnmTYsyW6xNdyfhPq0Bhrhj","playlistName":"مقرأة الفجر - القُرْآنُ الكَرِيمُ - خَتْمَةُ التَّدَبُّرِ  أ.د. يسري جبر","category":"متنوع"},{"id":"m4xa2pTClXI","title":"شرح صحيح البخاري كتاب التعبير من باب ٣٠","publishedAt":"2018-12-26T20:44:51Z","duration":"PT35M52S","thumbnail":"https://i.ytimg.com/vi/m4xa2pTClXI/mqdefault.jpg","viewCount":"462","playlistId":"PLEkQk5xrP-tlEerGoLa1AFy-2XvQ-sovv","playlistName":"شرح صحيح البخاري - أ.د. يسري جبر (كاملا)","category":"حديث"},{"id":"_owxWqgFhSQ","title":"مقرأة سورة الجاثية من أولها","publishedAt":"2018-12-27T12:48:01Z","duration":"PT16M21S","thumbnail":"https://i.ytimg.com/vi/_owxWqgFhSQ/mqdefault.jpg","viewCount":"1120","playlistId":"PLEkQk5xrP-tnmTYsyW6xNdyfhPq0Bhrhj","playlistName":"مقرأة الفجر - القُرْآنُ الكَرِيمُ - خَتْمَةُ التَّدَبُّرِ  أ.د. يسري جبر","category":"متنوع"},{"id":"KDefv3e8Bxc","title":"شرح صحيح البخاري كتاب التعبير من باب ٤٠","publishedAt":"2018-12-27T20:16:27Z","duration":"PT42M25S","thumbnail":"https://i.ytimg.com/vi/KDefv3e8Bxc/mqdefault.jpg","viewCount":"537","playlistId":"PLEkQk5xrP-tlEerGoLa1AFy-2XvQ-sovv","playlistName":"شرح صحيح البخاري - أ.د. يسري جبر (كاملا)","category":"حديث"},{"id":"-_etqhr3f7k","title":"مقرأة سورة الجاثية من آية ٧","publishedAt":"2018-12-28T08:15:51Z","duration":"PT13M40S","thumbnail":"https://i.ytimg.com/vi/-_etqhr3f7k/mqdefault.jpg","viewCount":"270","playlistId":"PLEkQk5xrP-tnmTYsyW6xNdyfhPq0Bhrhj","playlistName":"مقرأة الفجر - القُرْآنُ الكَرِيمُ - خَتْمَةُ التَّدَبُّرِ  أ.د. يسري جبر","category":"متنوع"},{"id":"b057IdMVr3U","title":"شرح صحيح البخاري كتاب الفتن من أوله","publishedAt":"2018-12-28T12:22:48Z","duration":"PT34M57S","thumbnail":"https://i.ytimg.com/vi/b057IdMVr3U/mqdefault.jpg","viewCount":"2124","playlistId":"PLEkQk5xrP-tlEerGoLa1AFy-2XvQ-sovv","playlistName":"شرح صحيح البخاري - أ.د. يسري جبر (كاملا)","category":"حديث"},{"id":"AvdJPtXhyOI","title":"الرسالة القشيرية المجلس الثاني و الأربعون - تكملة باب المجاهدة (2)  أ.د. يسري جبر","publishedAt":"2018-12-28T19:55:17Z","duration":"PT53M6S","thumbnail":"https://i.ytimg.com/vi/AvdJPtXhyOI/mqdefault.jpg","viewCount":"6303","playlistId":"PLEkQk5xrP-tkHAGOwIKr4pc5ehhyQ5HMJ","playlistName":"كتاب الرسالة القشيرية (تصوف) - د. يسري جبر","category":"تصوف"},{"id":"nj7r1lHq_nM","title":"المُسَبَّعَات  أ.د. يسري جبر","publishedAt":"2018-12-29T08:24:47Z","duration":"PT18M4S","thumbnail":"https://i.ytimg.com/vi/nj7r1lHq_nM/mqdefault.jpg","viewCount":"19663","playlistId":"PLEkQk5xrP-tk3OeVFoMfKhOhyINnlPeYZ","playlistName":"الحَضْرَةُ الصِّدِّيقِيَّة والأوْرَاد","category":"متنوع"},{"id":"e4r1XJsEf7g","title":"مقرأة سورة الجاثية من آية ١٢","publishedAt":"2018-12-29T12:56:58Z","duration":"PT19M55S","thumbnail":"https://i.ytimg.com/vi/e4r1XJsEf7g/mqdefault.jpg","viewCount":"292","playlistId":"PLEkQk5xrP-tnmTYsyW6xNdyfhPq0Bhrhj","playlistName":"مقرأة الفجر - القُرْآنُ الكَرِيمُ - خَتْمَةُ التَّدَبُّرِ  أ.د. يسري جبر","category":"متنوع"},{"id":"PPlLyZXGeZA","title":"شرح صحيح البخاري كتاب الفتن من باب ٣","publishedAt":"2018-12-29T20:02:39Z","duration":"PT29M37S","thumbnail":"https://i.ytimg.com/vi/PPlLyZXGeZA/mqdefault.jpg","viewCount":"1027","playlistId":"PLEkQk5xrP-tlEerGoLa1AFy-2XvQ-sovv","playlistName":"شرح صحيح البخاري - أ.د. يسري جبر (كاملا)","category":"حديث"},{"id":"-M1N-fvn0Bw","title":"مقرأة سورة الجاثية من آية ١٨","publishedAt":"2018-12-30T09:44:48Z","duration":"PT20M47S","thumbnail":"https://i.ytimg.com/vi/-M1N-fvn0Bw/mqdefault.jpg","viewCount":"317","playlistId":"PLEkQk5xrP-tnmTYsyW6xNdyfhPq0Bhrhj","playlistName":"مقرأة الفجر - القُرْآنُ الكَرِيمُ - خَتْمَةُ التَّدَبُّرِ  أ.د. يسري جبر","category":"متنوع"}],"total":7670,"page":128,"pageSize":24,"totalPages":320}