{"items":[{"id":"rfer__cwTqM","title":"ميلاد سيدنا عيسى عليه السلام  أ.د. يسري جبر","publishedAt":"2018-12-30T17:06:05Z","duration":"PT42M33S","thumbnail":"https://i.ytimg.com/vi/rfer__cwTqM/mqdefault.jpg","viewCount":"2388","playlistId":"PLEkQk5xrP-tlArtGpeLWaqNM7h7IDeAVC","playlistName":"خطب الجمعة أ.د. يسري جبر","category":"خطب"},{"id":"BO-wWqOPTgM","title":"شرح كتاب نور اليقين في سيرة سيد المرسلين للشيخ الخضري رحمه الله (المجلس71) أ.د. يسري جبر","publishedAt":"2018-12-30T18:24:56Z","duration":"PT50M1S","thumbnail":"https://i.ytimg.com/vi/BO-wWqOPTgM/mqdefault.jpg","viewCount":"6638","playlistId":"PLEkQk5xrP-tl2t4NQx1IhKnAJCMzF0Nli","playlistName":"شرح كتاب نور اليقين في سيرة سيد المرسلين   د. يسري جبر","category":"سيرة"},{"id":"-xaBcDnSWjY","title":"شرح صحيح البخاري كتاب الفتن من باب ٦","publishedAt":"2018-12-30T20:43:12Z","duration":"PT38M28S","thumbnail":"https://i.ytimg.com/vi/-xaBcDnSWjY/mqdefault.jpg","viewCount":"956","playlistId":"PLEkQk5xrP-tlEerGoLa1AFy-2XvQ-sovv","playlistName":"شرح صحيح البخاري - أ.د. يسري جبر (كاملا)","category":"حديث"},{"id":"OSxokTcUDnc","title":"مقرأة سورة الجاثية من آية ٢٤","publishedAt":"2018-12-31T11:26:38Z","duration":"PT13M42S","thumbnail":"https://i.ytimg.com/vi/OSxokTcUDnc/mqdefault.jpg","viewCount":"290","playlistId":"PLEkQk5xrP-tnmTYsyW6xNdyfhPq0Bhrhj","playlistName":"مقرأة الفجر - القُرْآنُ الكَرِيمُ - خَتْمَةُ التَّدَبُّرِ  أ.د. يسري جبر","category":"متنوع"},{"id":"5LfCEeXGNOs","title":"شرح صحيح البخاري كتاب الفتن من باب ١٠","publishedAt":"2018-12-31T21:18:36Z","duration":"PT36M22S","thumbnail":"https://i.ytimg.com/vi/5LfCEeXGNOs/mqdefault.jpg","viewCount":"821","playlistId":"PLEkQk5xrP-tlEerGoLa1AFy-2XvQ-sovv","playlistName":"شرح صحيح البخاري - أ.د. يسري جبر (كاملا)","category":"حديث"},{"id":"BbrNmh_p8ns","title":"مقرأة سورة الجاثية من آية ٢٨","publishedAt":"2019-01-01T10:44:54Z","duration":"PT21M4S","thumbnail":"https://i.ytimg.com/vi/BbrNmh_p8ns/mqdefault.jpg","viewCount":"296","playlistId":"PLEkQk5xrP-tnmTYsyW6xNdyfhPq0Bhrhj","playlistName":"مقرأة الفجر - القُرْآنُ الكَرِيمُ - خَتْمَةُ التَّدَبُّرِ  أ.د. يسري جبر","category":"متنوع"},{"id":"wdbWM9I45_c","title":"شرح صحيح البخاري كتاب الفتن من باب ١٥","publishedAt":"2019-01-01T22:07:47Z","duration":"PT30M18S","thumbnail":"https://i.ytimg.com/vi/wdbWM9I45_c/mqdefault.jpg","viewCount":"820","playlistId":"PLEkQk5xrP-tlEerGoLa1AFy-2XvQ-sovv","playlistName":"شرح صحيح البخاري - أ.د. يسري جبر (كاملا)","category":"حديث"},{"id":"4_hJ4AuNboc","title":"مقرأة سورة الأحقاف من أولها","publishedAt":"2019-01-02T11:59:13Z","duration":"PT14M27S","thumbnail":"https://i.ytimg.com/vi/4_hJ4AuNboc/mqdefault.jpg","viewCount":"993","playlistId":"PLEkQk5xrP-tnmTYsyW6xNdyfhPq0Bhrhj","playlistName":"مقرأة الفجر - القُرْآنُ الكَرِيمُ - خَتْمَةُ التَّدَبُّرِ  أ.د. يسري جبر","category":"متنوع"},{"id":"40f988d2itw","title":"شرح صحيح البخاري كتاب الفتن من باب ١٨","publishedAt":"2019-01-03T09:36:52Z","duration":"PT40M26S","thumbnail":"https://i.ytimg.com/vi/40f988d2itw/mqdefault.jpg","viewCount":"867","playlistId":"PLEkQk5xrP-tlEerGoLa1AFy-2XvQ-sovv","playlistName":"شرح صحيح البخاري - أ.د. يسري جبر (كاملا)","category":"حديث"},{"id":"z1MttsLLuU0","title":"مقرأة سورة الأحقاف من آية ٨","publishedAt":"2019-01-03T18:21:12Z","duration":"PT17M59S","thumbnail":"https://i.ytimg.com/vi/z1MttsLLuU0/mqdefault.jpg","viewCount":"444","playlistId":"PLEkQk5xrP-tnmTYsyW6xNdyfhPq0Bhrhj","playlistName":"مقرأة الفجر - القُرْآنُ الكَرِيمُ - خَتْمَةُ التَّدَبُّرِ  أ.د. يسري جبر","category":"متنوع"},{"id":"ISFAFflOiVg","title":"شرح صحيح البخاري كتاب الفتن من باب ٢٢","publishedAt":"2019-01-04T09:18:25Z","duration":"PT29M48S","thumbnail":"https://i.ytimg.com/vi/ISFAFflOiVg/mqdefault.jpg","viewCount":"705","playlistId":"PLEkQk5xrP-tlEerGoLa1AFy-2XvQ-sovv","playlistName":"شرح صحيح البخاري - أ.د. يسري جبر (كاملا)","category":"حديث"},{"id":"TA6Igaosi5U","title":"مقرأة سورة الأحقاف من آية ١١","publishedAt":"2019-01-05T12:39:05Z","duration":"PT10M3S","thumbnail":"https://i.ytimg.com/vi/TA6Igaosi5U/mqdefault.jpg","viewCount":"394","playlistId":"PLEkQk5xrP-tnmTYsyW6xNdyfhPq0Bhrhj","playlistName":"مقرأة الفجر - القُرْآنُ الكَرِيمُ - خَتْمَةُ التَّدَبُّرِ  أ.د. يسري جبر","category":"متنوع"},{"id":"kzJr4I0UFLg","title":"شرح صحيح البخاري كتاب الفتن من باب ٢٧","publishedAt":"2019-01-05T18:28:53Z","duration":"PT39M50S","thumbnail":"https://i.ytimg.com/vi/kzJr4I0UFLg/mqdefault.jpg","viewCount":"870","playlistId":"PLEkQk5xrP-tlEerGoLa1AFy-2XvQ-sovv","playlistName":"شرح صحيح البخاري - أ.د. يسري جبر (كاملا)","category":"حديث"},{"id":"DdeN58uCwc8","title":"مقرأة سورة الأحقاف من آية ١٥","publishedAt":"2019-01-06T11:41:43Z","duration":"PT25M5S","thumbnail":"https://i.ytimg.com/vi/DdeN58uCwc8/mqdefault.jpg","viewCount":"350","playlistId":"PLEkQk5xrP-tnmTYsyW6xNdyfhPq0Bhrhj","playlistName":"مقرأة الفجر - القُرْآنُ الكَرِيمُ - خَتْمَةُ التَّدَبُّرِ  أ.د. يسري جبر","category":"متنوع"},{"id":"YCg4Uyl_dsA","title":"الفَتْح   أ.د. يسري جبر","publishedAt":"2019-01-06T20:23:04Z","duration":"PT3M44S","thumbnail":"https://i.ytimg.com/vi/YCg4Uyl_dsA/mqdefault.jpg","viewCount":"1447","playlistId":"PLEkQk5xrP-tm8ZIu74nTOZN9KJUJu416J","playlistName":"مقاطع مُهمَّة (يُسريَّات) أ.د. يسري جبر","category":"متنوع"},{"id":"arRAZ_97Weo","title":"شرح صحيح البخاري كتاب الأحكام من أوله","publishedAt":"2019-01-06T21:23:24Z","duration":"PT34M47S","thumbnail":"https://i.ytimg.com/vi/arRAZ_97Weo/mqdefault.jpg","viewCount":"501","playlistId":"PLEkQk5xrP-tlEerGoLa1AFy-2XvQ-sovv","playlistName":"شرح صحيح البخاري - أ.د. يسري جبر (كاملا)","category":"حديث"},{"id":"N00xK6bRlA8","title":"مقرأة سورة الأحقاف من آية ١٧","publishedAt":"2019-01-07T09:29:15Z","duration":"PT15M59S","thumbnail":"https://i.ytimg.com/vi/N00xK6bRlA8/mqdefault.jpg","viewCount":"350","playlistId":"PLEkQk5xrP-tnmTYsyW6xNdyfhPq0Bhrhj","playlistName":"مقرأة الفجر - القُرْآنُ الكَرِيمُ - خَتْمَةُ التَّدَبُّرِ  أ.د. يسري جبر","category":"متنوع"},{"id":"699O9Fxza24","title":"وصية العام الجديد  أ.د. يسري جبر","publishedAt":"2019-01-07T13:33:11Z","duration":"PT34M17S","thumbnail":"https://i.ytimg.com/vi/699O9Fxza24/mqdefault.jpg","viewCount":"1862","playlistId":"PLEkQk5xrP-tlArtGpeLWaqNM7h7IDeAVC","playlistName":"خطب الجمعة أ.د. يسري جبر","category":"خطب"},{"id":"gBdOGkVcxf8","title":"شرح كتاب نور اليقين في سيرة سيد المرسلين للشيخ الخضري رحمه الله (المجلس72) أ.د. يسري جبر","publishedAt":"2019-01-07T14:45:10Z","duration":"PT47M30S","thumbnail":"https://i.ytimg.com/vi/gBdOGkVcxf8/mqdefault.jpg","viewCount":"6748","playlistId":"PLEkQk5xrP-tl2t4NQx1IhKnAJCMzF0Nli","playlistName":"شرح كتاب نور اليقين في سيرة سيد المرسلين   د. يسري جبر","category":"سيرة"},{"id":"mHNDPM2PCnc","title":"شرح صحيح البخاري كتاب الأحكام من باب ٤","publishedAt":"2019-01-07T19:34:02Z","duration":"PT40M39S","thumbnail":"https://i.ytimg.com/vi/mHNDPM2PCnc/mqdefault.jpg","viewCount":"426","playlistId":"PLEkQk5xrP-tlEerGoLa1AFy-2XvQ-sovv","playlistName":"شرح صحيح البخاري - أ.د. يسري جبر (كاملا)","category":"حديث"},{"id":"Ei1GJTV2TnY","title":"مقرأة سورة الأحقاف من آية ٢١","publishedAt":"2019-01-08T09:07:34Z","duration":"PT25M9S","thumbnail":"https://i.ytimg.com/vi/Ei1GJTV2TnY/mqdefault.jpg","viewCount":"379","playlistId":"PLEkQk5xrP-tnmTYsyW6xNdyfhPq0Bhrhj","playlistName":"مقرأة الفجر - القُرْآنُ الكَرِيمُ - خَتْمَةُ التَّدَبُّرِ  أ.د. يسري جبر","category":"متنوع"},{"id":"d3rBqG_XA9k","title":"شرح صحيح البخاري كتاب الأحكام من باب ١١","publishedAt":"2019-01-08T21:25:27Z","duration":"PT40M53S","thumbnail":"https://i.ytimg.com/vi/d3rBqG_XA9k/mqdefault.jpg","viewCount":"446","playlistId":"PLEkQk5xrP-tlEerGoLa1AFy-2XvQ-sovv","playlistName":"شرح صحيح البخاري - أ.د. يسري جبر (كاملا)","category":"حديث"},{"id":"gkncDxRl7Dw","title":"مقرأة سورة الأحقاف من آية ٢٩","publishedAt":"2019-01-09T11:33:54Z","duration":"PT22M48S","thumbnail":"https://i.ytimg.com/vi/gkncDxRl7Dw/mqdefault.jpg","viewCount":"366","playlistId":"PLEkQk5xrP-tnmTYsyW6xNdyfhPq0Bhrhj","playlistName":"مقرأة الفجر - القُرْآنُ الكَرِيمُ - خَتْمَةُ التَّدَبُّرِ  أ.د. يسري جبر","category":"متنوع"},{"id":"eQo-rSw2zDc","title":"شرح صحيح البخاري كتاب الأحكام من باب ١٦","publishedAt":"2019-01-09T22:17:16Z","duration":"PT27M21S","thumbnail":"https://i.ytimg.com/vi/eQo-rSw2zDc/mqdefault.jpg","viewCount":"397","playlistId":"PLEkQk5xrP-tlEerGoLa1AFy-2XvQ-sovv","playlistName":"شرح صحيح البخاري - أ.د. يسري جبر (كاملا)","category":"حديث"}],"total":7670,"page":129,"pageSize":24,"totalPages":320}