{"items":[{"id":"6e3akMZ5kXM","title":"96- نبذة عن سيدنا عبد الله بن عباس رضي اللهُ تعالى عنهما - شرح مسند الإمام أحمد رضي الله تعالى عنه","publishedAt":"2024-04-21T06:00:02Z","duration":"PT36M55S","thumbnail":"https://i.ytimg.com/vi/6e3akMZ5kXM/mqdefault.jpg","viewCount":"1721","playlistId":"PLEkQk5xrP-tkKprIuGrSdEuBSMsyg5We1","playlistName":"شرح مسند الإمام أحمد بن حنبل","category":"متنوع"},{"id":"5cdqxDDUQ7g","title":"14- هل للنبي ﷺ ذنب يستغفر منه؟ | شرح مختصر الفتوحات المكية","publishedAt":"2024-04-21T19:03:09Z","duration":"PT1H3M51S","thumbnail":"https://i.ytimg.com/vi/5cdqxDDUQ7g/mqdefault.jpg","viewCount":"7816","playlistId":"PLEkQk5xrP-tnpkdZki6rPTtMak1bnI5g-","playlistName":"شرح كتاب مختصر الفتوحات المكية المسمى لواقح الأنوار القدسية","category":"متنوع"},{"id":"ao1M19t3oFg","title":"كيف يكون لي رابطة روحية مع الشيخ؟","publishedAt":"2024-04-22T18:00:03Z","duration":"PT8M11S","thumbnail":"https://i.ytimg.com/vi/ao1M19t3oFg/mqdefault.jpg","viewCount":"10516","playlistId":"PLEkQk5xrP-tl6tFiMFGUucCTvLgnWyAfz","playlistName":"حياة الأستاذ الدكتور يسري جبر","category":"متنوع"},{"id":"iY9CX6tOdKo","title":"227- الاستعارة - شرح الإتقان في علوم القرآن","publishedAt":"2024-04-23T05:30:15Z","duration":"PT24M18S","thumbnail":"https://i.ytimg.com/vi/iY9CX6tOdKo/mqdefault.jpg","viewCount":"702","playlistId":"PLEkQk5xrP-tlPw10KGJKagu7zm4Ry2Tge","playlistName":"شرح الإتقان في علوم القرآن","category":"تفسير"},{"id":"kYFR7QBZizc","title":"هل العقيدة الأشعرية هي عقيدة الصحابة؟","publishedAt":"2024-04-23T18:00:23Z","duration":"PT8M42S","thumbnail":"https://i.ytimg.com/vi/kYFR7QBZizc/mqdefault.jpg","viewCount":"4902","playlistId":"PLEkQk5xrP-tkGXuZ9atE3k_7it12rUPTs","playlistName":"أسئلة المتابعين","category":"متنوع"},{"id":"Sr4s5C8En8Y","title":"97- كيفية تغسيل المُحْرِم وتكفينه | آداب رمي الجمرات - شرح مسند الإمام أحمد رضي الله تعالى عنه","publishedAt":"2024-04-24T06:00:19Z","duration":"PT43M40S","thumbnail":"https://i.ytimg.com/vi/Sr4s5C8En8Y/mqdefault.jpg","viewCount":"1023","playlistId":"PLEkQk5xrP-tkKprIuGrSdEuBSMsyg5We1","playlistName":"شرح مسند الإمام أحمد بن حنبل","category":"متنوع"},{"id":"Yy1JynmJfxg","title":"شرح منازل السائرين - المجلس (41) باب الرضا | أ.د. يسري جبر","publishedAt":"2024-04-24T18:33:49Z","duration":"PT40M47S","thumbnail":"https://i.ytimg.com/vi/Yy1JynmJfxg/mqdefault.jpg","viewCount":"7164","playlistId":"PLEkQk5xrP-tmiUfQ-2Tsn7QIak4EsvaZW","playlistName":"كتاب التيسير المعين بشرح معاني منازل السائرين (تصوف) - د.يسري جبر","category":"تصوف"},{"id":"Oh8exxIPKbM","title":"228- أقسام الاستعارة: أصلية ، تبعية - شرح الإتقان في علوم القرآن","publishedAt":"2024-04-25T06:15:01Z","duration":"PT32M57S","thumbnail":"https://i.ytimg.com/vi/Oh8exxIPKbM/mqdefault.jpg","viewCount":"700","playlistId":"PLEkQk5xrP-tlPw10KGJKagu7zm4Ry2Tge","playlistName":"شرح الإتقان في علوم القرآن","category":"تفسير"},{"id":"cze9xqHYh0M","title":"229- فائدة التشبيه والمجاز والاستعارة في فهم معاني القرآن الكريم - شرح الإتقان في علوم القرآن","publishedAt":"2024-04-26T06:16:35Z","duration":"PT21M47S","thumbnail":"https://i.ytimg.com/vi/cze9xqHYh0M/mqdefault.jpg","viewCount":"953","playlistId":"PLEkQk5xrP-tlPw10KGJKagu7zm4Ry2Tge","playlistName":"شرح الإتقان في علوم القرآن","category":"تفسير"},{"id":"IDErcP3LwXE","title":"34- حكم التيمم مع وجود الماء - كتاب الطهارة - شرح سنن الإمام الدار قطني رضي الله عنه","publishedAt":"2024-04-27T10:00:14Z","duration":"PT36M7S","thumbnail":"https://i.ytimg.com/vi/IDErcP3LwXE/mqdefault.jpg","viewCount":"725","playlistId":"PLEkQk5xrP-tk_MCBZ706ORCw6gFtFyaGj","playlistName":"شرح سنن الإمام الدارقطني","category":"متنوع"},{"id":"LY2j7U51qwM","title":"كيف تعرف النبي ﷺ من حيث روحانيته؟","publishedAt":"2024-04-27T18:24:22Z","duration":"PT56M27S","thumbnail":"https://i.ytimg.com/vi/LY2j7U51qwM/mqdefault.jpg","viewCount":"6134","playlistId":"PLEkQk5xrP-tmJzNvLntpzW0uPanPzxA0c","playlistName":"لقاءات ومحاضرات","category":"متنوع"},{"id":"NjdRDgiOnmI","title":"15- ما هي خرقة التصوف؟ | شرح مختصر الفتوحات المكية","publishedAt":"2024-04-28T18:30:14Z","duration":"PT56M16S","thumbnail":"https://i.ytimg.com/vi/NjdRDgiOnmI/mqdefault.jpg","viewCount":"7793","playlistId":"PLEkQk5xrP-tnpkdZki6rPTtMak1bnI5g-","playlistName":"شرح كتاب مختصر الفتوحات المكية المسمى لواقح الأنوار القدسية","category":"متنوع"},{"id":"vY7aeNs0DDM","title":"‫كيف ترضى بما قسمه الله لك؟","publishedAt":"2024-04-29T18:00:31Z","duration":"PT14M12S","thumbnail":"https://i.ytimg.com/vi/vY7aeNs0DDM/mqdefault.jpg","viewCount":"8456","playlistId":"PLEkQk5xrP-tlArtGpeLWaqNM7h7IDeAVC","playlistName":"خطب الجمعة أ.د. يسري جبر","category":"خطب"},{"id":"EwMLwB5ho2s","title":"98- هل النجوم يُعرف بها علم الغيب؟ - شرح مسند الإمام أحمد رضي الله تعالى عنه","publishedAt":"2024-04-30T05:45:00Z","duration":"PT30M18S","thumbnail":"https://i.ytimg.com/vi/EwMLwB5ho2s/mqdefault.jpg","viewCount":"2537","playlistId":"PLEkQk5xrP-tkKprIuGrSdEuBSMsyg5We1","playlistName":"شرح مسند الإمام أحمد بن حنبل","category":"متنوع"},{"id":"9wkD9gNbzgs","title":"سلوك بسيط سيشعرك بلذة الطاعة وحلاوة الإيمان!","publishedAt":"2024-04-30T18:31:44Z","duration":"PT20M56S","thumbnail":"https://i.ytimg.com/vi/9wkD9gNbzgs/mqdefault.jpg","viewCount":"11842","playlistId":"PLEkQk5xrP-tlArtGpeLWaqNM7h7IDeAVC","playlistName":"خطب الجمعة أ.د. يسري جبر","category":"خطب"},{"id":"IkusFyibm8Y","title":"99- من مبشرات النبوة الرؤيا الصالحة - شرح مسند الإمام أحمد رضي الله تعالى عنه","publishedAt":"2024-05-01T06:00:11Z","duration":"PT42M47S","thumbnail":"https://i.ytimg.com/vi/IkusFyibm8Y/mqdefault.jpg","viewCount":"1749","playlistId":"PLEkQk5xrP-tkKprIuGrSdEuBSMsyg5We1","playlistName":"شرح مسند الإمام أحمد بن حنبل","category":"متنوع"},{"id":"92Y1dBpr-lI","title":"شرح منازل السائرين - المجلس (42) باب الشكر | أ.د. يسري جبر","publishedAt":"2024-05-01T19:15:32Z","duration":"PT42M32S","thumbnail":"https://i.ytimg.com/vi/92Y1dBpr-lI/mqdefault.jpg","viewCount":"5638","playlistId":"PLEkQk5xrP-tmiUfQ-2Tsn7QIak4EsvaZW","playlistName":"كتاب التيسير المعين بشرح معاني منازل السائرين (تصوف) - د.يسري جبر","category":"تصوف"},{"id":"mPIenwnTlFc","title":"230- الكناية والتعريض - شرح الإتقان في علوم القرآن","publishedAt":"2024-05-02T05:17:03Z","duration":"PT28M22S","thumbnail":"https://i.ytimg.com/vi/mPIenwnTlFc/mqdefault.jpg","viewCount":"596","playlistId":"PLEkQk5xrP-tlPw10KGJKagu7zm4Ry2Tge","playlistName":"شرح الإتقان في علوم القرآن","category":"تفسير"},{"id":"y5bgcxbl48E","title":"هل الحسد والعين ممكن يكونوا سبب للموت؟","publishedAt":"2024-05-02T18:10:38Z","duration":"PT10M30S","thumbnail":"https://i.ytimg.com/vi/y5bgcxbl48E/mqdefault.jpg","viewCount":"6292","playlistId":"PLEkQk5xrP-tkGXuZ9atE3k_7it12rUPTs","playlistName":"أسئلة المتابعين","category":"متنوع"},{"id":"v7K4Pwr1Gtg","title":"100- حكم ختام الصلاة جهرًا - شرح مسند الإمام أحمد رضي الله تعالى عنه","publishedAt":"2024-05-03T05:00:29Z","duration":"PT35M3S","thumbnail":"https://i.ytimg.com/vi/v7K4Pwr1Gtg/mqdefault.jpg","viewCount":"960","playlistId":"PLEkQk5xrP-tkKprIuGrSdEuBSMsyg5We1","playlistName":"شرح مسند الإمام أحمد بن حنبل","category":"متنوع"},{"id":"0ULNy_e72LU","title":"هل يجوز العمل عند شخص ماله حرام؟","publishedAt":"2024-05-03T17:15:00Z","duration":"PT9M33S","thumbnail":"https://i.ytimg.com/vi/0ULNy_e72LU/mqdefault.jpg","viewCount":"5007","playlistId":"PLEkQk5xrP-tkGXuZ9atE3k_7it12rUPTs","playlistName":"أسئلة المتابعين","category":"متنوع"},{"id":"fEtJ8dGapuk","title":"231- من أنواع البديع التي تشبه الكناية (الإرداف) - شرح الإتقان في علوم القرآن","publishedAt":"2024-05-04T04:45:48Z","duration":"PT23M27S","thumbnail":"https://i.ytimg.com/vi/fEtJ8dGapuk/mqdefault.jpg","viewCount":"587","playlistId":"PLEkQk5xrP-tlPw10KGJKagu7zm4Ry2Tge","playlistName":"شرح الإتقان في علوم القرآن","category":"تفسير"},{"id":"DcFLyk7LGxU","title":"35- حكم التيمم لكل صلاة وبيان كيفيته | حكم إمامة المتيمم للمتوضئين | شرح سنن الدار قطني رضي الله عنه","publishedAt":"2024-05-04T09:00:10Z","duration":"PT48M34S","thumbnail":"https://i.ytimg.com/vi/DcFLyk7LGxU/mqdefault.jpg","viewCount":"683","playlistId":"PLEkQk5xrP-tk_MCBZ706ORCw6gFtFyaGj","playlistName":"شرح سنن الإمام الدارقطني","category":"متنوع"},{"id":"1z-jbc079SA","title":"هل مات فرعون مسلما ويمكن أن يدخله الله الجنة؟","publishedAt":"2024-05-04T18:04:18Z","duration":"PT10M8S","thumbnail":"https://i.ytimg.com/vi/1z-jbc079SA/mqdefault.jpg","viewCount":"34435","playlistId":"PLEkQk5xrP-tkGXuZ9atE3k_7it12rUPTs","playlistName":"أسئلة المتابعين","category":"متنوع"}],"total":7675,"page":289,"pageSize":24,"totalPages":320}