{"items":[{"id":"xZJBAUEwFAs","title":"33- لا طاعة في معصية، إنما الطاعة في المعروف - شرح مسند الإمام أحمد","publishedAt":"2023-10-26T05:30:15Z","duration":"PT29M22S","thumbnail":"https://i.ytimg.com/vi/xZJBAUEwFAs/mqdefault.jpg","viewCount":"1747","playlistId":"PLEkQk5xrP-tkKprIuGrSdEuBSMsyg5We1","playlistName":"شرح مسند الإمام أحمد بن حنبل","category":"متنوع"},{"id":"MI1TB8M7a5Q","title":"34- خير نساء العالمين - شرح مسند الإمام أحمد","publishedAt":"2023-10-27T06:07:36Z","duration":"PT31M40S","thumbnail":"https://i.ytimg.com/vi/MI1TB8M7a5Q/mqdefault.jpg","viewCount":"2112","playlistId":"PLEkQk5xrP-tkKprIuGrSdEuBSMsyg5We1","playlistName":"شرح مسند الإمام أحمد بن حنبل","category":"متنوع"},{"id":"Dln6vfh_RSk","title":"18- فضل الوضوء واستيعاب جميع القدم بالماء - كتاب الطهارة","publishedAt":"2023-10-28T07:19:33Z","duration":"PT25M54S","thumbnail":"https://i.ytimg.com/vi/Dln6vfh_RSk/mqdefault.jpg","viewCount":"869","playlistId":"PLEkQk5xrP-tk_MCBZ706ORCw6gFtFyaGj","playlistName":"شرح سنن الإمام الدارقطني","category":"متنوع"},{"id":"OrNvLDXmG0M","title":"أهمية الاجتماع على صلاة الخسوف وكيفيتها","publishedAt":"2023-10-28T14:53:38Z","duration":"PT12M31S","thumbnail":"https://i.ytimg.com/vi/OrNvLDXmG0M/mqdefault.jpg","viewCount":"3408","playlistId":"PLEkQk5xrP-tm8ZIu74nTOZN9KJUJu416J","playlistName":"مقاطع مُهمَّة (يُسريَّات) أ.د. يسري جبر","category":"متنوع"},{"id":"lHjQtTKEF1s","title":"165- معنى (مِن - مَن) - شرح الإتقان في علوم القرآن","publishedAt":"2023-10-29T06:00:27Z","duration":"PT33M37S","thumbnail":"https://i.ytimg.com/vi/lHjQtTKEF1s/mqdefault.jpg","viewCount":"699","playlistId":"PLEkQk5xrP-tlPw10KGJKagu7zm4Ry2Tge","playlistName":"شرح الإتقان في علوم القرآن","category":"تفسير"},{"id":"51jKF42OSy0","title":"سبب ضعف دول المسلمين وعدم المشاركة للدفاع عن أرضهم","publishedAt":"2023-10-29T19:30:10Z","duration":"PT14M44S","thumbnail":"https://i.ytimg.com/vi/51jKF42OSy0/mqdefault.jpg","viewCount":"21430","playlistId":"PLEkQk5xrP-tlArtGpeLWaqNM7h7IDeAVC","playlistName":"خطب الجمعة أ.د. يسري جبر","category":"خطب"},{"id":"_rsq1cJ88Jc","title":"166- معنى (النون - التنوين - نَعَمْ - نِعْمَ)  - شرح الإتقان في علوم القرآن","publishedAt":"2023-10-30T06:00:24Z","duration":"PT26M21S","thumbnail":"https://i.ytimg.com/vi/_rsq1cJ88Jc/mqdefault.jpg","viewCount":"839","playlistId":"PLEkQk5xrP-tlPw10KGJKagu7zm4Ry2Tge","playlistName":"شرح الإتقان في علوم القرآن","category":"تفسير"},{"id":"T4FQxRbzElc","title":"كيف يكون لكل منا دور إيجابي في الأزمة الحالية؟","publishedAt":"2023-10-31T18:16:51Z","duration":"PT19M1S","thumbnail":"https://i.ytimg.com/vi/T4FQxRbzElc/mqdefault.jpg","viewCount":"8039","playlistId":"PLEkQk5xrP-tlArtGpeLWaqNM7h7IDeAVC","playlistName":"خطب الجمعة أ.د. يسري جبر","category":"خطب"},{"id":"Q1N9zZNi06I","title":"35- أهميّة فهم القرآن فهمًا صحيحًا - شرح مسند الإمام أحمد","publishedAt":"2023-11-01T06:39:54Z","duration":"PT42M1S","thumbnail":"https://i.ytimg.com/vi/Q1N9zZNi06I/mqdefault.jpg","viewCount":"2172","playlistId":"PLEkQk5xrP-tkKprIuGrSdEuBSMsyg5We1","playlistName":"شرح مسند الإمام أحمد بن حنبل","category":"متنوع"},{"id":"H_Tb4BU05_0","title":"167- معنى (الهاء - ها - هات - هل - هلُمَّ - هنا - هيت - هيهات)  - شرح الإتقان في علوم القرآن","publishedAt":"2023-11-02T06:15:00Z","duration":"PT30M17S","thumbnail":"https://i.ytimg.com/vi/H_Tb4BU05_0/mqdefault.jpg","viewCount":"622","playlistId":"PLEkQk5xrP-tlPw10KGJKagu7zm4Ry2Tge","playlistName":"شرح الإتقان في علوم القرآن","category":"تفسير"},{"id":"MHd2NiFCRZ4","title":"ماذا فعل النبي ﷺ قبل الفتح الإسلامي؟","publishedAt":"2023-11-02T16:14:20Z","duration":"PT8M32S","thumbnail":"https://i.ytimg.com/vi/MHd2NiFCRZ4/mqdefault.jpg","viewCount":"5080","playlistId":"PLEkQk5xrP-tlArtGpeLWaqNM7h7IDeAVC","playlistName":"خطب الجمعة أ.د. يسري جبر","category":"خطب"},{"id":"Tzj9xWV4BYw","title":"36- فضل الزبير بن العوام | كيف نفهم الأمر بتسوية القبور وإزالة الأصنام - شرح مسند الإمام أحمد","publishedAt":"2023-11-04T06:30:14Z","duration":"PT30M37S","thumbnail":"https://i.ytimg.com/vi/Tzj9xWV4BYw/mqdefault.jpg","viewCount":"2146","playlistId":"PLEkQk5xrP-tkKprIuGrSdEuBSMsyg5We1","playlistName":"شرح مسند الإمام أحمد بن حنبل","category":"متنوع"},{"id":"PMDhsxCDRa4","title":"19- حكم مَن رأى لمعة في عقبه لم يصلها الماء - كتاب الطهارة","publishedAt":"2023-11-05T06:15:00Z","duration":"PT33M58S","thumbnail":"https://i.ytimg.com/vi/PMDhsxCDRa4/mqdefault.jpg","viewCount":"1045","playlistId":"PLEkQk5xrP-tk_MCBZ706ORCw6gFtFyaGj","playlistName":"شرح سنن الإمام الدارقطني","category":"متنوع"},{"id":"nIR65ixxlWs","title":"168- حرف ( الواو ) - شرح الإتقان في علوم القرآن","publishedAt":"2023-11-06T06:15:02Z","duration":"PT44M32S","thumbnail":"https://i.ytimg.com/vi/nIR65ixxlWs/mqdefault.jpg","viewCount":"847","playlistId":"PLEkQk5xrP-tlPw10KGJKagu7zm4Ry2Tge","playlistName":"شرح الإتقان في علوم القرآن","category":"تفسير"},{"id":"x_MWrwiy0Nc","title":"37- حكم إهداء ما يحرم لبسه - شرح مسند الإمام أحمد","publishedAt":"2023-11-07T06:33:03Z","duration":"PT13M33S","thumbnail":"https://i.ytimg.com/vi/x_MWrwiy0Nc/mqdefault.jpg","viewCount":"1045","playlistId":"PLEkQk5xrP-tkKprIuGrSdEuBSMsyg5We1","playlistName":"شرح مسند الإمام أحمد بن حنبل","category":"متنوع"},{"id":"_bmO4pymJNw","title":"اعرف تاريخ الي/هود مع المسلمين","publishedAt":"2023-11-07T18:30:23Z","duration":"PT8M21S","thumbnail":"https://i.ytimg.com/vi/_bmO4pymJNw/mqdefault.jpg","viewCount":"11912","playlistId":"PLEkQk5xrP-tlArtGpeLWaqNM7h7IDeAVC","playlistName":"خطب الجمعة أ.د. يسري جبر","category":"خطب"},{"id":"dXUjcbNiL7g","title":"169- معنى ( وَيْكَأَنَّ - ويل - يا )- شرح الإتقان في علوم القرآن","publishedAt":"2023-11-08T06:30:18Z","duration":"PT32M19S","thumbnail":"https://i.ytimg.com/vi/dXUjcbNiL7g/mqdefault.jpg","viewCount":"977","playlistId":"PLEkQk5xrP-tlPw10KGJKagu7zm4Ry2Tge","playlistName":"شرح الإتقان في علوم القرآن","category":"تفسير"},{"id":"tNb4U7UsYV4","title":"كيف يكون لنا دور في نصرة القضية الفلس/طينية؟","publishedAt":"2023-11-09T19:36:25Z","duration":"PT19M45S","thumbnail":"https://i.ytimg.com/vi/tNb4U7UsYV4/mqdefault.jpg","viewCount":"5454","playlistId":"PLEkQk5xrP-tlArtGpeLWaqNM7h7IDeAVC","playlistName":"خطب الجمعة أ.د. يسري جبر","category":"خطب"},{"id":"ymmcp_HVnwo","title":"20- كيفية علاج الوسواس في الوضوء | موجبات الغسل","publishedAt":"2023-11-11T08:37:39Z","duration":"PT31M42S","thumbnail":"https://i.ytimg.com/vi/ymmcp_HVnwo/mqdefault.jpg","viewCount":"1448","playlistId":"PLEkQk5xrP-tk_MCBZ706ORCw6gFtFyaGj","playlistName":"شرح سنن الإمام الدارقطني","category":"متنوع"},{"id":"0lGIe1Bpggw","title":"تفسير الآيات القرآنية الواردة في حق النبي ﷺ","publishedAt":"2023-11-12T12:37:20Z","duration":"PT55M21S","thumbnail":"https://i.ytimg.com/vi/0lGIe1Bpggw/mqdefault.jpg","viewCount":"8640","playlistId":"PLEkQk5xrP-tm8ZIu74nTOZN9KJUJu416J","playlistName":"مقاطع مُهمَّة (يُسريَّات) أ.د. يسري جبر","category":"متنوع"},{"id":"0nZSI5WzoSs","title":"ضعف العرب وصبر ورباط أهل غ/زة","publishedAt":"2023-11-13T19:07:23Z","duration":"PT9M40S","thumbnail":"https://i.ytimg.com/vi/0nZSI5WzoSs/mqdefault.jpg","viewCount":"15134","playlistId":"PLEkQk5xrP-tlArtGpeLWaqNM7h7IDeAVC","playlistName":"خطب الجمعة أ.د. يسري جبر","category":"خطب"},{"id":"jabxIZiuSUo","title":"38- خطورة الجهل بالدين والاستبداد بالرأي - شرح مسند الإمام أحمد","publishedAt":"2023-11-14T06:30:17Z","duration":"PT38M28S","thumbnail":"https://i.ytimg.com/vi/jabxIZiuSUo/mqdefault.jpg","viewCount":"2089","playlistId":"PLEkQk5xrP-tkKprIuGrSdEuBSMsyg5We1","playlistName":"شرح مسند الإمام أحمد بن حنبل","category":"متنوع"},{"id":"hub_eZe3L1Q","title":"170- كيفية إعراب القرآن وأنواعه وشروطه - شرح الإتقان في علوم القرآن","publishedAt":"2023-11-15T06:37:31Z","duration":"PT32M48S","thumbnail":"https://i.ytimg.com/vi/hub_eZe3L1Q/mqdefault.jpg","viewCount":"902","playlistId":"PLEkQk5xrP-tlPw10KGJKagu7zm4Ry2Tge","playlistName":"شرح الإتقان في علوم القرآن","category":"تفسير"},{"id":"sT3uQUFVIow","title":"39- ماذا تفعل عند الكرب - شرح مسند الإمام أحمد","publishedAt":"2023-11-16T06:38:39Z","duration":"PT36M15S","thumbnail":"https://i.ytimg.com/vi/sT3uQUFVIow/mqdefault.jpg","viewCount":"3043","playlistId":"PLEkQk5xrP-tkKprIuGrSdEuBSMsyg5We1","playlistName":"شرح مسند الإمام أحمد بن حنبل","category":"متنوع"}],"total":7670,"page":277,"pageSize":24,"totalPages":320}