{"items":[{"id":"8xophfKbppw","title":"2- فوائد تتعلق بالصفة -الخامسة: قد يحتمل اللفظ كثيرا من الأسباب السابقة - شرح البرهان في علوم القرآن","publishedAt":"2021-02-05T06:58:11Z","duration":"PT9M10S","thumbnail":"https://i.ytimg.com/vi/8xophfKbppw/mqdefault.jpg","viewCount":"504","playlistId":"PLEkQk5xrP-tnW3iBL7HkKziOFCFZbTlf0","playlistName":"شرح البرهان في علوم القرآن - أ.د. يسري جبر","category":"تفسير"},{"id":"Uu0cRwADfP4","title":"كيف يشعر بنا الأموات؟","publishedAt":"2021-02-05T20:08:38Z","duration":"PT12M25S","thumbnail":"https://i.ytimg.com/vi/Uu0cRwADfP4/mqdefault.jpg","viewCount":"25715","playlistId":"PLEkQk5xrP-tm8ZIu74nTOZN9KJUJu416J","playlistName":"مقاطع مُهمَّة (يُسريَّات) أ.د. يسري جبر","category":"متنوع"},{"id":"TgFpCd5dQEw","title":"15- الحديث السادس - شرح كتاب دليل الفالحين لطرق رياض الصالحين","publishedAt":"2021-02-06T08:10:59Z","duration":"PT18M29S","thumbnail":"https://i.ytimg.com/vi/TgFpCd5dQEw/mqdefault.jpg","viewCount":"1997","playlistId":"PLEkQk5xrP-tkc9DXvSLguqX5-FYp6ASR4","playlistName":"دليل الفالحين لطرق رياض الصالحين","category":"متنوع"},{"id":"dOfLo8-VhXE","title":"من هو أول خلق الله؟","publishedAt":"2021-02-06T18:56:05Z","duration":"PT15M12S","thumbnail":"https://i.ytimg.com/vi/dOfLo8-VhXE/mqdefault.jpg","viewCount":"29939","playlistId":"PLEkQk5xrP-tm8ZIu74nTOZN9KJUJu416J","playlistName":"مقاطع مُهمَّة (يُسريَّات) أ.د. يسري جبر","category":"متنوع"},{"id":"k94su8XDI4I","title":"3- فوائد تتعلق بالصفة -الخامسة: قد يحتمل اللفظ كثيرا من الأسباب السابقة - شرح البرهان في علوم القرآن","publishedAt":"2021-02-07T07:31:49Z","duration":"PT21M54S","thumbnail":"https://i.ytimg.com/vi/k94su8XDI4I/mqdefault.jpg","viewCount":"497","playlistId":"PLEkQk5xrP-tnW3iBL7HkKziOFCFZbTlf0","playlistName":"شرح البرهان في علوم القرآن - أ.د. يسري جبر","category":"تفسير"},{"id":"NYIq7_xWUGc","title":"إرادة الإنسان بين الجبر والاختيار!","publishedAt":"2021-02-07T17:57:11Z","duration":"PT8M28S","thumbnail":"https://i.ytimg.com/vi/NYIq7_xWUGc/mqdefault.jpg","viewCount":"9447","playlistId":"PLEkQk5xrP-tlArtGpeLWaqNM7h7IDeAVC","playlistName":"خطب الجمعة أ.د. يسري جبر","category":"خطب"},{"id":"dJaGQ8EB41E","title":"16- الحديث السابع - شرح كتاب دليل الفالحين لطرق رياض الصالحين","publishedAt":"2021-02-08T07:08:13Z","duration":"PT33M59S","thumbnail":"https://i.ytimg.com/vi/dJaGQ8EB41E/mqdefault.jpg","viewCount":"1972","playlistId":"PLEkQk5xrP-tkc9DXvSLguqX5-FYp6ASR4","playlistName":"دليل الفالحين لطرق رياض الصالحين","category":"متنوع"},{"id":"-k7mdV2BmH0","title":"الزهراءُ البتول قُرَّةُ عين الرسول ﷺ","publishedAt":"2021-02-08T19:38:07Z","duration":"PT9M49S","thumbnail":"https://i.ytimg.com/vi/-k7mdV2BmH0/mqdefault.jpg","viewCount":"5726","playlistId":"PLEkQk5xrP-tm8ZIu74nTOZN9KJUJu416J","playlistName":"مقاطع مُهمَّة (يُسريَّات) أ.د. يسري جبر","category":"متنوع"},{"id":"mqIArPebHXc","title":"4- فوائد تتعلق بالصفة - شرح البرهان في علوم القرآن","publishedAt":"2021-02-09T07:10:07Z","duration":"PT22M47S","thumbnail":"https://i.ytimg.com/vi/mqIArPebHXc/mqdefault.jpg","viewCount":"523","playlistId":"PLEkQk5xrP-tnW3iBL7HkKziOFCFZbTlf0","playlistName":"شرح البرهان في علوم القرآن - أ.د. يسري جبر","category":"تفسير"},{"id":"hEple_gfKbg","title":"تزوجت على زوجتي .. ماذا أفعل؟","publishedAt":"2021-02-09T18:33:08Z","duration":"PT8M17S","thumbnail":"https://i.ytimg.com/vi/hEple_gfKbg/mqdefault.jpg","viewCount":"27366","playlistId":"PLEkQk5xrP-tm8ZIu74nTOZN9KJUJu416J","playlistName":"مقاطع مُهمَّة (يُسريَّات) أ.د. يسري جبر","category":"متنوع"},{"id":"sQVNfOyWcOY","title":"17- \"إنَّ الله تعالى لا ينظر إلى أجسامكم ولا إلى صوركم ولكن ينظر إلى قلوبكم\" شرح كتاب دليل الفالحين","publishedAt":"2021-02-10T08:57:36Z","duration":"PT39M53S","thumbnail":"https://i.ytimg.com/vi/sQVNfOyWcOY/mqdefault.jpg","viewCount":"5270","playlistId":"PLEkQk5xrP-tkc9DXvSLguqX5-FYp6ASR4","playlistName":"دليل الفالحين لطرق رياض الصالحين","category":"متنوع"},{"id":"Y6hX6N47YKg","title":"كيف أتعامل مع صديقي الوهابي؟","publishedAt":"2021-02-10T19:56:08Z","duration":"PT8M2S","thumbnail":"https://i.ytimg.com/vi/Y6hX6N47YKg/mqdefault.jpg","viewCount":"31616","playlistId":"PLEkQk5xrP-tm8ZIu74nTOZN9KJUJu416J","playlistName":"مقاطع مُهمَّة (يُسريَّات) أ.د. يسري جبر","category":"متنوع"},{"id":"HVY4Wr6vKn4","title":"5- فوائد تتعلق بالصفة - شرح البرهان في علوم القرآن","publishedAt":"2021-02-11T07:02:45Z","duration":"PT12M34S","thumbnail":"https://i.ytimg.com/vi/HVY4Wr6vKn4/mqdefault.jpg","viewCount":"421","playlistId":"PLEkQk5xrP-tnW3iBL7HkKziOFCFZbTlf0","playlistName":"شرح البرهان في علوم القرآن - أ.د. يسري جبر","category":"تفسير"},{"id":"kREQDe3-xYU","title":"هل يجب هجر المؤمن العاصي؟","publishedAt":"2021-02-11T18:17:58Z","duration":"PT30M35S","thumbnail":"https://i.ytimg.com/vi/kREQDe3-xYU/mqdefault.jpg","viewCount":"4216","playlistId":"PLEkQk5xrP-tnAJa3yfebXD7wNC_ECfZNt","playlistName":"كتاب النفحة الذكية في أن الهجر بدعة شركية","category":"متنوع"},{"id":"CsxTwOR8WkA","title":"18- صلاة الرجل جماعة تزيد على صلاته في سُوقه وبيته بضعا وعشرين درجة... - شرح كتاب دليل الفالحين","publishedAt":"2021-02-12T07:18:19Z","duration":"PT34M58S","thumbnail":"https://i.ytimg.com/vi/CsxTwOR8WkA/mqdefault.jpg","viewCount":"2151","playlistId":"PLEkQk5xrP-tkc9DXvSLguqX5-FYp6ASR4","playlistName":"دليل الفالحين لطرق رياض الصالحين","category":"متنوع"},{"id":"HYGfIQoy4qc","title":"1- \"حديث المسلسل بالأوليَّة والمحبَّة\" قراءة كتاب الشمائل المحمَّديَّة للإمام الترمذيّ رضي الله عنه","publishedAt":"2021-02-13T06:53:26Z","duration":"PT1H3M45S","thumbnail":"https://i.ytimg.com/vi/HYGfIQoy4qc/mqdefault.jpg","viewCount":"8959","playlistId":"PLEkQk5xrP-tkCtkJ_fVpP3CmkJhWYYZtt","playlistName":"قراءةُ كتابِ الشَّمَائِلِ المُحَمَّدِيَّة للإِمام التِّرمذيّ رضي الله عن","category":"متنوع"},{"id":"ZQX44SYwJ5E","title":"الفرق بين الأحدية والواحدية","publishedAt":"2021-02-13T17:43:45Z","duration":"PT12M38S","thumbnail":"https://i.ytimg.com/vi/ZQX44SYwJ5E/mqdefault.jpg","viewCount":"6307","playlistId":"PLEkQk5xrP-tlArtGpeLWaqNM7h7IDeAVC","playlistName":"خطب الجمعة أ.د. يسري جبر","category":"خطب"},{"id":"6MZnt3KVkYg","title":"6- فوائد تتعلق بالصفة - شرح البرهان في علوم القرآن","publishedAt":"2021-02-14T07:16:42Z","duration":"PT15M41S","thumbnail":"https://i.ytimg.com/vi/6MZnt3KVkYg/mqdefault.jpg","viewCount":"465","playlistId":"PLEkQk5xrP-tnW3iBL7HkKziOFCFZbTlf0","playlistName":"شرح البرهان في علوم القرآن - أ.د. يسري جبر","category":"تفسير"},{"id":"sBPNlT37wsY","title":"خطورة سوء الظن والتجسس","publishedAt":"2021-02-14T17:15:01Z","duration":"PT8M27S","thumbnail":"https://i.ytimg.com/vi/sBPNlT37wsY/mqdefault.jpg","viewCount":"5720","playlistId":"PLEkQk5xrP-tlArtGpeLWaqNM7h7IDeAVC","playlistName":"خطب الجمعة أ.د. يسري جبر","category":"خطب"},{"id":"4cQBTbsNE6s","title":"19- إنَّ اللهَ كتبَ الحسَناتِ والسَّيِّئَاتِ ثمَّ بَيَّنَ ذلك...\" شرح كتاب دليل الفالحين.","publishedAt":"2021-02-15T07:12:59Z","duration":"PT31M6S","thumbnail":"https://i.ytimg.com/vi/4cQBTbsNE6s/mqdefault.jpg","viewCount":"2609","playlistId":"PLEkQk5xrP-tkc9DXvSLguqX5-FYp6ASR4","playlistName":"دليل الفالحين لطرق رياض الصالحين","category":"متنوع"},{"id":"bWrnh6YL3-0","title":"كيف تتخلص من سوء الظن؟؟","publishedAt":"2021-02-15T18:47:23Z","duration":"PT12M5S","thumbnail":"https://i.ytimg.com/vi/bWrnh6YL3-0/mqdefault.jpg","viewCount":"11152","playlistId":"PLEkQk5xrP-tlArtGpeLWaqNM7h7IDeAVC","playlistName":"خطب الجمعة أ.د. يسري جبر","category":"خطب"},{"id":"r05v10vMebw","title":"2- ما جاء في عَيْش رسُول الله ﷺ - قراءة كتاب الشمائل المحمَّديَّة للإمام الترمذيّ رضي الله عنه","publishedAt":"2021-02-16T07:36:49Z","duration":"PT52M33S","thumbnail":"https://i.ytimg.com/vi/r05v10vMebw/mqdefault.jpg","viewCount":"3805","playlistId":"PLEkQk5xrP-tkCtkJ_fVpP3CmkJhWYYZtt","playlistName":"قراءةُ كتابِ الشَّمَائِلِ المُحَمَّدِيَّة للإِمام التِّرمذيّ رضي الله عن","category":"متنوع"},{"id":"KQ0gxvXO5tE","title":"كيف أتخلص من الوسواس؟","publishedAt":"2021-02-16T20:20:37Z","duration":"PT13M31S","thumbnail":"https://i.ytimg.com/vi/KQ0gxvXO5tE/mqdefault.jpg","viewCount":"64975","playlistId":"PLEkQk5xrP-tm8ZIu74nTOZN9KJUJu416J","playlistName":"مقاطع مُهمَّة (يُسريَّات) أ.د. يسري جبر","category":"متنوع"},{"id":"HD4LXSDLsmA","title":"7- فوائد تتعلق بالصفة\" اجتماع التابع والمتبوع\" شرح البرهان في علوم القرآن","publishedAt":"2021-02-17T07:18:08Z","duration":"PT14M52S","thumbnail":"https://i.ytimg.com/vi/HD4LXSDLsmA/mqdefault.jpg","viewCount":"568","playlistId":"PLEkQk5xrP-tnW3iBL7HkKziOFCFZbTlf0","playlistName":"شرح البرهان في علوم القرآن - أ.د. يسري جبر","category":"تفسير"}],"total":7675,"page":191,"pageSize":24,"totalPages":320}