{"items":[{"id":"m_AOIep7lyc","title":"84- شرح اللؤلؤ والمرجان كتاب الطلاق من أوله","publishedAt":"2020-03-03T06:00:05Z","duration":"PT29M18S","thumbnail":"https://i.ytimg.com/vi/m_AOIep7lyc/mqdefault.jpg","viewCount":"476","playlistId":"PLEkQk5xrP-tmKNjtYLfhATC37QdIsTMe0","playlistName":"شرح كتاب اللؤلؤ والمرجان فيما اتفق عليه الشيخان إماما المحدثين البخاري ومسلم. أ.د. يسري جبر","category":"حديث"},{"id":"5uSYed_xqHo","title":"شرح البرهان في علوم القرآن - النوع ٣٥ - فائدة في القول في الاختلاف والتناقض","publishedAt":"2020-03-04T06:00:00Z","duration":"PT24M42S","thumbnail":"https://i.ytimg.com/vi/5uSYed_xqHo/mqdefault.jpg","viewCount":"466","playlistId":"PLEkQk5xrP-tnW3iBL7HkKziOFCFZbTlf0","playlistName":"شرح البرهان في علوم القرآن - أ.د. يسري جبر","category":"تفسير"},{"id":"PPBkI5OI1tk","title":"85- شرح اللؤلؤ والمرجان كتاب الطلاق من الباب الرابع","publishedAt":"2020-03-04T06:00:05Z","duration":"PT30M37S","thumbnail":"https://i.ytimg.com/vi/PPBkI5OI1tk/mqdefault.jpg","viewCount":"414","playlistId":"PLEkQk5xrP-tmKNjtYLfhATC37QdIsTMe0","playlistName":"شرح كتاب اللؤلؤ والمرجان فيما اتفق عليه الشيخان إماما المحدثين البخاري ومسلم. أ.د. يسري جبر","category":"حديث"},{"id":"PFe9d2xe_ps","title":"86- شرح اللؤلؤ والمرجان كتاب الطلاق من الباب السادس","publishedAt":"2020-03-05T06:00:02Z","duration":"PT21M8S","thumbnail":"https://i.ytimg.com/vi/PFe9d2xe_ps/mqdefault.jpg","viewCount":"301","playlistId":"PLEkQk5xrP-tmKNjtYLfhATC37QdIsTMe0","playlistName":"شرح كتاب اللؤلؤ والمرجان فيما اتفق عليه الشيخان إماما المحدثين البخاري ومسلم. أ.د. يسري جبر","category":"حديث"},{"id":"bcaLDzw3D4w","title":"شرح البرهان في علوم القرآن - النوع ٣٥ - فصل في الأسباب الموهمة الاختلاف ٢","publishedAt":"2020-03-05T06:00:03Z","duration":"PT18M36S","thumbnail":"https://i.ytimg.com/vi/bcaLDzw3D4w/mqdefault.jpg","viewCount":"443","playlistId":"PLEkQk5xrP-tnW3iBL7HkKziOFCFZbTlf0","playlistName":"شرح البرهان في علوم القرآن - أ.د. يسري جبر","category":"تفسير"},{"id":"GX6drwwZb84","title":"شرح البرهان في علوم القرآن - النوع ٣٥ - فصل في الأسباب الموهمة الاختلاف ٣","publishedAt":"2020-03-06T06:00:04Z","duration":"PT12M49S","thumbnail":"https://i.ytimg.com/vi/GX6drwwZb84/mqdefault.jpg","viewCount":"249","playlistId":"PLEkQk5xrP-tnW3iBL7HkKziOFCFZbTlf0","playlistName":"شرح البرهان في علوم القرآن - أ.د. يسري جبر","category":"تفسير"},{"id":"iX7gPmBkoVE","title":"87- شرح اللؤلؤ والمرجان كتاب اللعان من أوله","publishedAt":"2020-03-06T06:00:05Z","duration":"PT21M38S","thumbnail":"https://i.ytimg.com/vi/iX7gPmBkoVE/mqdefault.jpg","viewCount":"421","playlistId":"PLEkQk5xrP-tmKNjtYLfhATC37QdIsTMe0","playlistName":"شرح كتاب اللؤلؤ والمرجان فيما اتفق عليه الشيخان إماما المحدثين البخاري ومسلم. أ.د. يسري جبر","category":"حديث"},{"id":"9GHZGwNm3hY","title":"88- شرح اللؤلؤ والمرجان كتاب العتق من أوله","publishedAt":"2020-03-07T06:00:00Z","duration":"PT21M45S","thumbnail":"https://i.ytimg.com/vi/9GHZGwNm3hY/mqdefault.jpg","viewCount":"327","playlistId":"PLEkQk5xrP-tmKNjtYLfhATC37QdIsTMe0","playlistName":"شرح كتاب اللؤلؤ والمرجان فيما اتفق عليه الشيخان إماما المحدثين البخاري ومسلم. أ.د. يسري جبر","category":"حديث"},{"id":"FxdYHsAoYSs","title":"شرح البرهان في علوم القرآن - النوع ٣٥ - فصل في الأسباب الموهمة الاختلاف ٤","publishedAt":"2020-03-07T06:00:02Z","duration":"PT25M49S","thumbnail":"https://i.ytimg.com/vi/FxdYHsAoYSs/mqdefault.jpg","viewCount":"425","playlistId":"PLEkQk5xrP-tnW3iBL7HkKziOFCFZbTlf0","playlistName":"شرح البرهان في علوم القرآن - أ.د. يسري جبر","category":"تفسير"},{"id":"FPWSXrI8aI0","title":"89- شرح اللؤلؤ والمرجان كتاب البيوع من أوله","publishedAt":"2020-03-08T06:00:04Z","duration":"PT34M50S","thumbnail":"https://i.ytimg.com/vi/FPWSXrI8aI0/mqdefault.jpg","viewCount":"381","playlistId":"PLEkQk5xrP-tmKNjtYLfhATC37QdIsTMe0","playlistName":"شرح كتاب اللؤلؤ والمرجان فيما اتفق عليه الشيخان إماما المحدثين البخاري ومسلم. أ.د. يسري جبر","category":"حديث"},{"id":"OiPEZaQ9LZ0","title":"شرح البرهان في علوم القرآن - النوع ٣٥ - فصل في الإجابة عن بعض الاستشكالات","publishedAt":"2020-03-08T06:00:04Z","duration":"PT17M54S","thumbnail":"https://i.ytimg.com/vi/OiPEZaQ9LZ0/mqdefault.jpg","viewCount":"424","playlistId":"PLEkQk5xrP-tnW3iBL7HkKziOFCFZbTlf0","playlistName":"شرح البرهان في علوم القرآن - أ.د. يسري جبر","category":"تفسير"},{"id":"Gaow_s8zZe0","title":"حولَ الحقيقةِ المُحَمَّدِيَّة.    أ.د يسري  جبر","publishedAt":"2020-03-08T22:10:13Z","duration":"PT26M33S","thumbnail":"https://i.ytimg.com/vi/Gaow_s8zZe0/mqdefault.jpg","viewCount":"13745","playlistId":"PLEkQk5xrP-tm8ZIu74nTOZN9KJUJu416J","playlistName":"مقاطع مُهمَّة (يُسريَّات) أ.د. يسري جبر","category":"متنوع"},{"id":"V0aS9gymQas","title":"شرح البرهان في علوم القرآن - النوع ٣٦ -   معرفة المحكم من المتشابه","publishedAt":"2020-03-09T06:00:03Z","duration":"PT15M51S","thumbnail":"https://i.ytimg.com/vi/V0aS9gymQas/mqdefault.jpg","viewCount":"575","playlistId":"PLEkQk5xrP-tnW3iBL7HkKziOFCFZbTlf0","playlistName":"شرح البرهان في علوم القرآن - أ.د. يسري جبر","category":"تفسير"},{"id":"ShqOOS6lmDU","title":"90- شرح اللؤلؤ والمرجان كتاب البيوع من الباب العاشر","publishedAt":"2020-03-09T06:00:04Z","duration":"PT32M16S","thumbnail":"https://i.ytimg.com/vi/ShqOOS6lmDU/mqdefault.jpg","viewCount":"370","playlistId":"PLEkQk5xrP-tmKNjtYLfhATC37QdIsTMe0","playlistName":"شرح كتاب اللؤلؤ والمرجان فيما اتفق عليه الشيخان إماما المحدثين البخاري ومسلم. أ.د. يسري جبر","category":"حديث"},{"id":"-Gd8BnxSb9s","title":"أنوار ونفحات.  أ.د يسري جبر","publishedAt":"2020-03-09T18:38:07Z","duration":"PT22M29S","thumbnail":"https://i.ytimg.com/vi/-Gd8BnxSb9s/mqdefault.jpg","viewCount":"6380","playlistId":"PLEkQk5xrP-tm8ZIu74nTOZN9KJUJu416J","playlistName":"مقاطع مُهمَّة (يُسريَّات) أ.د. يسري جبر","category":"متنوع"},{"id":"BM1xm5u_7-Q","title":"شرح البرهان في علوم القرآن - النوع ٣٦ - تفريعات","publishedAt":"2020-03-10T06:00:00Z","duration":"PT26M22S","thumbnail":"https://i.ytimg.com/vi/BM1xm5u_7-Q/mqdefault.jpg","viewCount":"389","playlistId":"PLEkQk5xrP-tnW3iBL7HkKziOFCFZbTlf0","playlistName":"شرح البرهان في علوم القرآن - أ.د. يسري جبر","category":"تفسير"},{"id":"YlIPeNKqzWg","title":"91- شرح اللؤلؤ والمرجان كتاب البيوع من الباب السادس عشر","publishedAt":"2020-03-10T06:00:03Z","duration":"PT17M24S","thumbnail":"https://i.ytimg.com/vi/YlIPeNKqzWg/mqdefault.jpg","viewCount":"394","playlistId":"PLEkQk5xrP-tmKNjtYLfhATC37QdIsTMe0","playlistName":"شرح كتاب اللؤلؤ والمرجان فيما اتفق عليه الشيخان إماما المحدثين البخاري ومسلم. أ.د. يسري جبر","category":"حديث"},{"id":"VkyrAxdu9N0","title":"92- شرح اللؤلؤ والمرجان كتاب المساقاة من أوله","publishedAt":"2020-03-11T09:15:00Z","duration":"PT25M4S","thumbnail":"https://i.ytimg.com/vi/VkyrAxdu9N0/mqdefault.jpg","viewCount":"379","playlistId":"PLEkQk5xrP-tmKNjtYLfhATC37QdIsTMe0","playlistName":"شرح كتاب اللؤلؤ والمرجان فيما اتفق عليه الشيخان إماما المحدثين البخاري ومسلم. أ.د. يسري جبر","category":"حديث"},{"id":"q_YJ7u0p7RU","title":"شرح البرهان في علوم القرآن - النوع ٣٦ - تفريعات ٢","publishedAt":"2020-03-11T09:15:00Z","duration":"PT22M54S","thumbnail":"https://i.ytimg.com/vi/q_YJ7u0p7RU/mqdefault.jpg","viewCount":"392","playlistId":"PLEkQk5xrP-tnW3iBL7HkKziOFCFZbTlf0","playlistName":"شرح البرهان في علوم القرآن - أ.د. يسري جبر","category":"تفسير"},{"id":"2djKqtLo_YY","title":"93- شرح اللؤلؤ والمرجان كتاب المساقاة من الباب السابع","publishedAt":"2020-03-12T06:30:00Z","duration":"PT32M5S","thumbnail":"https://i.ytimg.com/vi/2djKqtLo_YY/mqdefault.jpg","viewCount":"415","playlistId":"PLEkQk5xrP-tmKNjtYLfhATC37QdIsTMe0","playlistName":"شرح كتاب اللؤلؤ والمرجان فيما اتفق عليه الشيخان إماما المحدثين البخاري ومسلم. أ.د. يسري جبر","category":"حديث"},{"id":"Nq-xg-MA3Cc","title":"شرح البرهان في علوم القرآن - النوع ٣٧ - في حكم الآيات المتشابهات الواردة في الصفات","publishedAt":"2020-03-12T06:30:00Z","duration":"PT31M28S","thumbnail":"https://i.ytimg.com/vi/Nq-xg-MA3Cc/mqdefault.jpg","viewCount":"381","playlistId":"PLEkQk5xrP-tnW3iBL7HkKziOFCFZbTlf0","playlistName":"شرح البرهان في علوم القرآن - أ.د. يسري جبر","category":"تفسير"},{"id":"nmH0qqVyaq0","title":"لِنُرِيَهُ مِنْ آيَاتِنَا  أ.د/ يسري جبر","publishedAt":"2020-03-12T18:03:16Z","duration":"PT41M48S","thumbnail":"https://i.ytimg.com/vi/nmH0qqVyaq0/mqdefault.jpg","viewCount":"2199","playlistId":"PLEkQk5xrP-tm8ZIu74nTOZN9KJUJu416J","playlistName":"مقاطع مُهمَّة (يُسريَّات) أ.د. يسري جبر","category":"متنوع"},{"id":"H8uH_MDxJ0Q","title":"شرح البرهان في علوم القرآن - النوع ٣٧ - في حكم الآيات المتشابهات الواردة في الصفات ٢","publishedAt":"2020-03-13T06:30:01Z","duration":"PT34M36S","thumbnail":"https://i.ytimg.com/vi/H8uH_MDxJ0Q/mqdefault.jpg","viewCount":"341","playlistId":"PLEkQk5xrP-tnW3iBL7HkKziOFCFZbTlf0","playlistName":"شرح البرهان في علوم القرآن - أ.د. يسري جبر","category":"تفسير"},{"id":"eWj6gNTS5x0","title":"94- شرح اللؤلؤ والمرجان كتاب المساقاة من الباب الرابع عشر","publishedAt":"2020-03-13T06:30:04Z","duration":"PT28M28S","thumbnail":"https://i.ytimg.com/vi/eWj6gNTS5x0/mqdefault.jpg","viewCount":"404","playlistId":"PLEkQk5xrP-tmKNjtYLfhATC37QdIsTMe0","playlistName":"شرح كتاب اللؤلؤ والمرجان فيما اتفق عليه الشيخان إماما المحدثين البخاري ومسلم. أ.د. يسري جبر","category":"حديث"}],"total":7670,"page":169,"pageSize":24,"totalPages":320}