{"items":[{"id":"5vL9ArZpU8k","title":"شرح كتاب صفة القيامة والرقائق والورع من سنن الترمذي - المجلس السادس","publishedAt":"2016-01-21T10:20:22Z","duration":"PT36M52S","thumbnail":"https://i.ytimg.com/vi/5vL9ArZpU8k/mqdefault.jpg","viewCount":"194","playlistId":"PLEkQk5xrP-tnu6of679SvxdVx0qSrJzmb","playlistName":"شرح سنن الإمام الترمذي رضى الله عنه د. يسري جبر","category":"متنوع"},{"id":"fkBuUGh4fsE","title":"قراءة القرآن (من آية ٧ سورة الصف)","publishedAt":"2016-01-22T04:45:30Z","duration":"PT5M20S","thumbnail":"https://i.ytimg.com/vi/fkBuUGh4fsE/mqdefault.jpg","viewCount":"69","playlistId":"PLEkQk5xrP-tnUSUj0uyJhA-kwNC7Gkx_j","playlistName":"مقرأة الفجر - بداية من سورة الإسراء حتى سورة الناس","category":"تفسير"},{"id":"V8r4-_fVHRQ","title":"قراءة القرآن (من أول سورة الجمعة)","publishedAt":"2016-01-22T07:32:51Z","duration":"PT18M21S","thumbnail":"https://i.ytimg.com/vi/V8r4-_fVHRQ/mqdefault.jpg","viewCount":"74","playlistId":"PLEkQk5xrP-tnUSUj0uyJhA-kwNC7Gkx_j","playlistName":"مقرأة الفجر - بداية من سورة الإسراء حتى سورة الناس","category":"تفسير"},{"id":"lr8jeYJqOUk","title":"الحَيَاءُ د. يسرى جبر","publishedAt":"2016-01-22T21:20:18Z","duration":"PT42M37S","thumbnail":"https://i.ytimg.com/vi/lr8jeYJqOUk/mqdefault.jpg","viewCount":"246","playlistId":"PLEkQk5xrP-tlArtGpeLWaqNM7h7IDeAVC","playlistName":"خطب الجمعة أ.د. يسري جبر","category":"خطب"},{"id":"Fb4cVcm-HKc","title":"درس الجمعة ١٢ ربيع الآخر ١٤٣٧ هـ","publishedAt":"2016-01-23T06:30:12Z","duration":"PT39M6S","thumbnail":"https://i.ytimg.com/vi/Fb4cVcm-HKc/mqdefault.jpg","viewCount":"145","playlistId":"PLEkQk5xrP-tmYN0y2PQUkx881GYBxD16g","playlistName":"درس الجمعة","category":"خطب"},{"id":"Bt1U1poB-hs","title":"شرح كتاب صفة القيامة والرقائق والورع من سنن الترمذي - المجلس الثامن","publishedAt":"2016-01-23T22:16:47Z","duration":"PT38M33S","thumbnail":"https://i.ytimg.com/vi/Bt1U1poB-hs/mqdefault.jpg","viewCount":"169","playlistId":"PLEkQk5xrP-tnu6of679SvxdVx0qSrJzmb","playlistName":"شرح سنن الإمام الترمذي رضى الله عنه د. يسري جبر","category":"متنوع"},{"id":"XmePbgiaUvw","title":"قراءة القرآن (من أول سورة المنافقون)","publishedAt":"2016-01-23T22:41:46Z","duration":"PT12M25S","thumbnail":"https://i.ytimg.com/vi/XmePbgiaUvw/mqdefault.jpg","viewCount":"76","playlistId":"PLEkQk5xrP-tnUSUj0uyJhA-kwNC7Gkx_j","playlistName":"مقرأة الفجر - بداية من سورة الإسراء حتى سورة الناس","category":"تفسير"},{"id":"mqfjC6qXo4E","title":"صحيح الإمام البخاري رضي الله عنه - كتاب الأطعمة - المجلس الثانى","publishedAt":"2016-01-24T12:14:28Z","duration":"PT1H9M6S","thumbnail":"https://i.ytimg.com/vi/mqfjC6qXo4E/mqdefault.jpg","viewCount":"142","playlistId":"PLEkQk5xrP-tmJuzaj4GWRenFoFx9gdbFX","playlistName":"شرح كتاب صحيح الإمام البخاري رضي الله تعالى عنه   أ.د. يسرى جبر","category":"حديث"},{"id":"HNMWALLByAI","title":"قراءة القرآن (من أول سورة التغابن)","publishedAt":"2016-01-25T07:13:58Z","duration":"PT22M26S","thumbnail":"https://i.ytimg.com/vi/HNMWALLByAI/mqdefault.jpg","viewCount":"83","playlistId":"PLEkQk5xrP-tnUSUj0uyJhA-kwNC7Gkx_j","playlistName":"مقرأة الفجر - بداية من سورة الإسراء حتى سورة الناس","category":"تفسير"},{"id":"DDfiWgM8_os","title":"قراءة القرآن (من أول سورة الطلاق)","publishedAt":"2016-01-25T09:25:25Z","duration":"PT30M41S","thumbnail":"https://i.ytimg.com/vi/DDfiWgM8_os/mqdefault.jpg","viewCount":"80","playlistId":"PLEkQk5xrP-tnUSUj0uyJhA-kwNC7Gkx_j","playlistName":"مقرأة الفجر - بداية من سورة الإسراء حتى سورة الناس","category":"تفسير"},{"id":"vablJh7kcLg","title":"قراءة القرآن (من أول سورة التحريم)","publishedAt":"2016-01-27T07:16:01Z","duration":"PT20M45S","thumbnail":"https://i.ytimg.com/vi/vablJh7kcLg/mqdefault.jpg","viewCount":"120","playlistId":"PLEkQk5xrP-tnUSUj0uyJhA-kwNC7Gkx_j","playlistName":"مقرأة الفجر - بداية من سورة الإسراء حتى سورة الناس","category":"تفسير"},{"id":"audZ7vD6c-0","title":"شرح كتاب صفة الجنة من سنن الترمذي - المجلس الأول","publishedAt":"2016-01-27T08:12:32Z","duration":"PT22M45S","thumbnail":"https://i.ytimg.com/vi/audZ7vD6c-0/mqdefault.jpg","viewCount":"296","playlistId":"PLEkQk5xrP-tnu6of679SvxdVx0qSrJzmb","playlistName":"شرح سنن الإمام الترمذي رضى الله عنه د. يسري جبر","category":"متنوع"},{"id":"G_cjIWZ-Jro","title":"صحيح الإمام البخاري رضي الله تعالى عنه - كتاب الأطعمة - المجلس الثالث","publishedAt":"2016-01-27T20:18:51Z","duration":"PT1H4M","thumbnail":"https://i.ytimg.com/vi/G_cjIWZ-Jro/mqdefault.jpg","viewCount":"157","playlistId":"PLEkQk5xrP-tmJuzaj4GWRenFoFx9gdbFX","playlistName":"شرح كتاب صحيح الإمام البخاري رضي الله تعالى عنه   أ.د. يسرى جبر","category":"حديث"},{"id":"hK9yWyXk3uo","title":"قراءة القرآن (من آية ٧ سورة التحريم)","publishedAt":"2016-01-29T04:25:11Z","duration":"PT14M28S","thumbnail":"https://i.ytimg.com/vi/hK9yWyXk3uo/mqdefault.jpg","viewCount":"69","playlistId":"PLEkQk5xrP-tnUSUj0uyJhA-kwNC7Gkx_j","playlistName":"مقرأة الفجر - بداية من سورة الإسراء حتى سورة الناس","category":"تفسير"},{"id":"oeqdy5pB93k","title":"قراءة القرآن (من أول سورة الملك)","publishedAt":"2016-01-29T07:10:36Z","duration":"PT18M46S","thumbnail":"https://i.ytimg.com/vi/oeqdy5pB93k/mqdefault.jpg","viewCount":"136","playlistId":"PLEkQk5xrP-tnUSUj0uyJhA-kwNC7Gkx_j","playlistName":"مقرأة الفجر - بداية من سورة الإسراء حتى سورة الناس","category":"تفسير"},{"id":"jxrvdokgukI","title":"شرح كتاب صفة الجنة من سنن الترمذي - المجلس الثالث","publishedAt":"2016-01-29T09:01:11Z","duration":"PT28M45S","thumbnail":"https://i.ytimg.com/vi/jxrvdokgukI/mqdefault.jpg","viewCount":"171","playlistId":"PLEkQk5xrP-tnu6of679SvxdVx0qSrJzmb","playlistName":"شرح سنن الإمام الترمذي رضى الله عنه د. يسري جبر","category":"متنوع"},{"id":"71SroGBOh_g","title":"درس الجمعة ١٩ ربيع الآخر ١٤٣٧هـ","publishedAt":"2016-01-29T13:33:50Z","duration":"PT1H11S","thumbnail":"https://i.ytimg.com/vi/71SroGBOh_g/mqdefault.jpg","viewCount":"186","playlistId":"PLEkQk5xrP-tmYN0y2PQUkx881GYBxD16g","playlistName":"درس الجمعة","category":"خطب"},{"id":"ENDw4lMBlCg","title":"قراءة القرآن (من آية ١٦ سورة الملك)","publishedAt":"2016-01-30T08:46:18Z","duration":"PT12M12S","thumbnail":"https://i.ytimg.com/vi/ENDw4lMBlCg/mqdefault.jpg","viewCount":"160","playlistId":"PLEkQk5xrP-tnUSUj0uyJhA-kwNC7Gkx_j","playlistName":"مقرأة الفجر - بداية من سورة الإسراء حتى سورة الناس","category":"تفسير"},{"id":"ktJ0_EsKDFk","title":"شرح كتاب صفة الجنة من سنن الترمذي - المجلس الرابع","publishedAt":"2016-01-30T15:23:51Z","duration":"PT44M3S","thumbnail":"https://i.ytimg.com/vi/ktJ0_EsKDFk/mqdefault.jpg","viewCount":"254","playlistId":"PLEkQk5xrP-tnu6of679SvxdVx0qSrJzmb","playlistName":"شرح سنن الإمام الترمذي رضى الله عنه د. يسري جبر","category":"متنوع"},{"id":"D9Y1ElMtBOE","title":"صحيح الإمام البخاري رضي الله تعالى عنه - كتاب الأطعمة - المجلس الرابع","publishedAt":"2016-01-31T20:40:03Z","duration":"PT1H5M44S","thumbnail":"https://i.ytimg.com/vi/D9Y1ElMtBOE/mqdefault.jpg","viewCount":"133","playlistId":"PLEkQk5xrP-tmJuzaj4GWRenFoFx9gdbFX","playlistName":"شرح كتاب صحيح الإمام البخاري رضي الله تعالى عنه   أ.د. يسرى جبر","category":"حديث"},{"id":"572I8M0JAEc","title":"من مظاهر الحياء ( الأمر بالمعروف والنهى عن المنكر ) د. يسرى جبر","publishedAt":"2016-01-31T20:54:44Z","duration":"PT39M6S","thumbnail":"https://i.ytimg.com/vi/572I8M0JAEc/mqdefault.jpg","viewCount":"260","playlistId":"PLEkQk5xrP-tlArtGpeLWaqNM7h7IDeAVC","playlistName":"خطب الجمعة أ.د. يسري جبر","category":"خطب"},{"id":"QiL1oss_BOc","title":"قراءة القرآن (من أول سورة القلم)","publishedAt":"2016-02-01T02:57:27Z","duration":"PT31M1S","thumbnail":"https://i.ytimg.com/vi/QiL1oss_BOc/mqdefault.jpg","viewCount":"213","playlistId":"PLEkQk5xrP-tnUSUj0uyJhA-kwNC7Gkx_j","playlistName":"مقرأة الفجر - بداية من سورة الإسراء حتى سورة الناس","category":"تفسير"},{"id":"qISR3J_Vycw","title":"شرح كتاب صفة الجنة من سنن الترمذي - المجلس الخامس","publishedAt":"2016-02-01T04:38:55Z","duration":"PT37M11S","thumbnail":"https://i.ytimg.com/vi/qISR3J_Vycw/mqdefault.jpg","viewCount":"195","playlistId":"PLEkQk5xrP-tnu6of679SvxdVx0qSrJzmb","playlistName":"شرح سنن الإمام الترمذي رضى الله عنه د. يسري جبر","category":"متنوع"},{"id":"nDZfqkPZqII","title":"قراءة القرآن (من آية ٣٤ سورة القلم)","publishedAt":"2016-02-01T16:00:14Z","duration":"PT10M6S","thumbnail":"https://i.ytimg.com/vi/nDZfqkPZqII/mqdefault.jpg","viewCount":"100","playlistId":"PLEkQk5xrP-tnUSUj0uyJhA-kwNC7Gkx_j","playlistName":"مقرأة الفجر - بداية من سورة الإسراء حتى سورة الناس","category":"تفسير"}],"total":7670,"page":29,"pageSize":24,"totalPages":320}