{"items":[{"id":"nQZnhEST5qw","title":"شرح صحيح البخاري -  كتاب المغازي تكملة باب ١٢","publishedAt":"2017-12-27T03:21:19Z","duration":"PT31M35S","thumbnail":"https://i.ytimg.com/vi/nQZnhEST5qw/mqdefault.jpg","viewCount":"599","playlistId":"PLEkQk5xrP-tlEerGoLa1AFy-2XvQ-sovv","playlistName":"شرح صحيح البخاري - أ.د. يسري جبر (كاملا)","category":"حديث"},{"id":"SNh1g6tkTP4","title":"مقرأة سورة الأنبياء من آية ٩٢","publishedAt":"2017-12-27T11:54:07Z","duration":"PT13M51S","thumbnail":"https://i.ytimg.com/vi/SNh1g6tkTP4/mqdefault.jpg","viewCount":"232","playlistId":"PLEkQk5xrP-tnmTYsyW6xNdyfhPq0Bhrhj","playlistName":"مقرأة الفجر - القُرْآنُ الكَرِيمُ - خَتْمَةُ التَّدَبُّرِ  أ.د. يسري جبر","category":"متنوع"},{"id":"gf5GUX8A1tM","title":"شرح صحيح البخاري -  كتاب المغازي تكملة باب ١٢ المجلس الثاني","publishedAt":"2017-12-27T13:04:06Z","duration":"PT33M35S","thumbnail":"https://i.ytimg.com/vi/gf5GUX8A1tM/mqdefault.jpg","viewCount":"592","playlistId":"PLEkQk5xrP-tlEerGoLa1AFy-2XvQ-sovv","playlistName":"شرح صحيح البخاري - أ.د. يسري جبر (كاملا)","category":"حديث"},{"id":"rtgSoi3fPas","title":"حقوق في الأوقات يمكن قضاؤها، وحقوق الأوقات لا يمكن قضاؤها ...","publishedAt":"2017-12-27T19:54:31Z","duration":"PT3M41S","thumbnail":"https://i.ytimg.com/vi/rtgSoi3fPas/mqdefault.jpg","viewCount":"825","playlistId":"PLEkQk5xrP-tkI_meE148wc7V7XHlB0WPb","playlistName":"من الحكم العطائية  د. يسري جبر","category":"متنوع"},{"id":"Ul60He33NjQ","title":"(شرح كتاب الرسالة القشيرية - المجلس السابع (الفصل الأول 4/4","publishedAt":"2017-12-28T11:40:04Z","duration":"PT59M44S","thumbnail":"https://i.ytimg.com/vi/Ul60He33NjQ/mqdefault.jpg","viewCount":"11132","playlistId":"PLEkQk5xrP-tkHAGOwIKr4pc5ehhyQ5HMJ","playlistName":"كتاب الرسالة القشيرية (تصوف) - د. يسري جبر","category":"تصوف"},{"id":"gDn0c4Rw1bk","title":"مَا فَاتَ مِنْ عُمُرِكَ لا عِوضَ لَه، وما حَصَلَ لَكَ مِنْه لا قِيمَةَ لَه.","publishedAt":"2017-12-29T18:05:34Z","duration":"PT7M15S","thumbnail":"https://i.ytimg.com/vi/gDn0c4Rw1bk/mqdefault.jpg","viewCount":"2404","playlistId":"PLEkQk5xrP-tkI_meE148wc7V7XHlB0WPb","playlistName":"من الحكم العطائية  د. يسري جبر","category":"متنوع"},{"id":"rLsa3RWKMd4","title":"مقرأة سورة الأنبياء من آية ٩٨","publishedAt":"2017-12-30T15:00:56Z","duration":"PT15M18S","thumbnail":"https://i.ytimg.com/vi/rLsa3RWKMd4/mqdefault.jpg","viewCount":"397","playlistId":"PLEkQk5xrP-tnmTYsyW6xNdyfhPq0Bhrhj","playlistName":"مقرأة الفجر - القُرْآنُ الكَرِيمُ - خَتْمَةُ التَّدَبُّرِ  أ.د. يسري جبر","category":"متنوع"},{"id":"brqXQzII2Jk","title":"شرح صحيح البخاري   كتاب المغازي من باب ١٤","publishedAt":"2017-12-30T15:06:56Z","duration":"PT36M53S","thumbnail":"https://i.ytimg.com/vi/brqXQzII2Jk/mqdefault.jpg","viewCount":"637","playlistId":"PLEkQk5xrP-tlEerGoLa1AFy-2XvQ-sovv","playlistName":"شرح صحيح البخاري - أ.د. يسري جبر (كاملا)","category":"حديث"},{"id":"j73t_n7tuuM","title":"عبادة الشكر  د. يسري جبر","publishedAt":"2017-12-30T18:45:52Z","duration":"PT32M43S","thumbnail":"https://i.ytimg.com/vi/j73t_n7tuuM/mqdefault.jpg","viewCount":"3726","playlistId":"PLEkQk5xrP-tlArtGpeLWaqNM7h7IDeAVC","playlistName":"خطب الجمعة أ.د. يسري جبر","category":"خطب"},{"id":"0Tj3gaZrc28","title":"شرح كتاب نوراليقين في سيرة سيد المرسلين - المجلس 35 ( سرية ) د.يسري جبر","publishedAt":"2017-12-30T19:11:05Z","duration":"PT47M","thumbnail":"https://i.ytimg.com/vi/0Tj3gaZrc28/mqdefault.jpg","viewCount":"13721","playlistId":"PLEkQk5xrP-tl2t4NQx1IhKnAJCMzF0Nli","playlistName":"شرح كتاب نور اليقين في سيرة سيد المرسلين   د. يسري جبر","category":"سيرة"},{"id":"d8sZc7g6mD4","title":"مقرأة سورة الأنبياء من آية ١٠٥","publishedAt":"2017-12-31T06:03:18Z","duration":"PT23M57S","thumbnail":"https://i.ytimg.com/vi/d8sZc7g6mD4/mqdefault.jpg","viewCount":"265","playlistId":"PLEkQk5xrP-tnmTYsyW6xNdyfhPq0Bhrhj","playlistName":"مقرأة الفجر - القُرْآنُ الكَرِيمُ - خَتْمَةُ التَّدَبُّرِ  أ.د. يسري جبر","category":"متنوع"},{"id":"2U_a6PJkTgc","title":"صحيح البخاري - كتاب الفرائض - باب قول النبي صلى الله عليه وسلم \"لا نورث ما تركنا صدقه","publishedAt":"2017-12-31T09:49:48Z","duration":"PT43M27S","thumbnail":"https://i.ytimg.com/vi/2U_a6PJkTgc/mqdefault.jpg","viewCount":"197","playlistId":"PLEkQk5xrP-tmJuzaj4GWRenFoFx9gdbFX","playlistName":"شرح كتاب صحيح الإمام البخاري رضي الله تعالى عنه   أ.د. يسرى جبر","category":"حديث"},{"id":"SJhnsubNccU","title":"شرح صحيح البخاري   كتاب المغازي من باب ١٥","publishedAt":"2017-12-31T11:58:42Z","duration":"PT28M2S","thumbnail":"https://i.ytimg.com/vi/SJhnsubNccU/mqdefault.jpg","viewCount":"539","playlistId":"PLEkQk5xrP-tlEerGoLa1AFy-2XvQ-sovv","playlistName":"شرح صحيح البخاري - أ.د. يسري جبر (كاملا)","category":"حديث"},{"id":"hEC3l0V7KIc","title":"وُصُولك إلى الله وُصُولك إلى العِلْم به، وإلا .. فجلَّ ربُّنا أن يتَّصل به شيء، أو يتَّصل هو بشيء.","publishedAt":"2017-12-31T21:02:22Z","duration":"PT13M16S","thumbnail":"https://i.ytimg.com/vi/hEC3l0V7KIc/mqdefault.jpg","viewCount":"5726","playlistId":"PLEkQk5xrP-tkI_meE148wc7V7XHlB0WPb","playlistName":"من الحكم العطائية  د. يسري جبر","category":"متنوع"},{"id":"JEx3R1hV-C0","title":"مقرأة سورة الحج من أولها","publishedAt":"2017-12-31T23:44:03Z","duration":"PT11M18S","thumbnail":"https://i.ytimg.com/vi/JEx3R1hV-C0/mqdefault.jpg","viewCount":"409","playlistId":"PLEkQk5xrP-tnmTYsyW6xNdyfhPq0Bhrhj","playlistName":"مقرأة الفجر - القُرْآنُ الكَرِيمُ - خَتْمَةُ التَّدَبُّرِ  أ.د. يسري جبر","category":"متنوع"},{"id":"OkAnxMR4mN0","title":"شرح صحيح البخاري   كتاب المغازي من باب ١٧","publishedAt":"2018-01-01T00:25:15Z","duration":"PT35M32S","thumbnail":"https://i.ytimg.com/vi/OkAnxMR4mN0/mqdefault.jpg","viewCount":"517","playlistId":"PLEkQk5xrP-tlEerGoLa1AFy-2XvQ-sovv","playlistName":"شرح صحيح البخاري - أ.د. يسري جبر (كاملا)","category":"حديث"},{"id":"C33y-dfrd7Y","title":"مقرأة سورة الحج من آية ٥","publishedAt":"2018-01-01T13:55:48Z","duration":"PT16M34S","thumbnail":"https://i.ytimg.com/vi/C33y-dfrd7Y/mqdefault.jpg","viewCount":"351","playlistId":"PLEkQk5xrP-tnmTYsyW6xNdyfhPq0Bhrhj","playlistName":"مقرأة الفجر - القُرْآنُ الكَرِيمُ - خَتْمَةُ التَّدَبُّرِ  أ.د. يسري جبر","category":"متنوع"},{"id":"kpZXwW5dnS8","title":"شرح صحيح البخاري -  كتاب المغازي من باب ١٨","publishedAt":"2018-01-01T13:57:35Z","duration":"PT35M8S","thumbnail":"https://i.ytimg.com/vi/kpZXwW5dnS8/mqdefault.jpg","viewCount":"551","playlistId":"PLEkQk5xrP-tlEerGoLa1AFy-2XvQ-sovv","playlistName":"شرح صحيح البخاري - أ.د. يسري جبر (كاملا)","category":"حديث"},{"id":"wvpz5_ltsFE","title":"الحقائقُ تَرِدُ في حَالِ التَّجَلِّي مُجْمَلَةً وبعْدَ الوَعْي يكونُ البيانُ","publishedAt":"2018-01-02T18:50:17Z","duration":"PT13M30S","thumbnail":"https://i.ytimg.com/vi/wvpz5_ltsFE/mqdefault.jpg","viewCount":"7453","playlistId":"PLEkQk5xrP-tkI_meE148wc7V7XHlB0WPb","playlistName":"من الحكم العطائية  د. يسري جبر","category":"متنوع"},{"id":"pBgMJpzI3QY","title":"شرح كتاب الرسالة القشيرية - المجلس الثامن (الفصل الثاني)","publishedAt":"2018-01-04T16:30:47Z","duration":"PT1H3M55S","thumbnail":"https://i.ytimg.com/vi/pBgMJpzI3QY/mqdefault.jpg","viewCount":"11368","playlistId":"PLEkQk5xrP-tkHAGOwIKr4pc5ehhyQ5HMJ","playlistName":"كتاب الرسالة القشيرية (تصوف) - د. يسري جبر","category":"تصوف"},{"id":"GyU1OrYzCe4","title":"متى وَرَدَت الوَارِدَاتُ الإلهيةِ إليك، َهَدمَت العوائِدَ عليك.","publishedAt":"2018-01-04T23:48:16Z","duration":"PT19M59S","thumbnail":"https://i.ytimg.com/vi/GyU1OrYzCe4/mqdefault.jpg","viewCount":"45442","playlistId":"PLEkQk5xrP-tkI_meE148wc7V7XHlB0WPb","playlistName":"من الحكم العطائية  د. يسري جبر","category":"متنوع"},{"id":"DzFNQ7B1Xuc","title":"كيف يَحْتَجِبُ الحقُّ بشئ ، والذي يَحْتَجِبُ به ، هُو فيه ظاهرٌ ، وموجودٌ حاضِرٌ.","publishedAt":"2018-01-08T17:04:54Z","duration":"PT14M24S","thumbnail":"https://i.ytimg.com/vi/DzFNQ7B1Xuc/mqdefault.jpg","viewCount":"963","playlistId":"PLEkQk5xrP-tkI_meE148wc7V7XHlB0WPb","playlistName":"من الحكم العطائية  د. يسري جبر","category":"متنوع"},{"id":"xLzwKq8H0r4","title":"لا تيأس من قَبول عمل لم تجدْ فيه وجود الحُضور، فرُبَّما قبِلَ من العمل ما لم تُدْرِكْ ثمرته عاجلا.","publishedAt":"2018-01-09T18:57:24Z","duration":"PT4M57S","thumbnail":"https://i.ytimg.com/vi/xLzwKq8H0r4/mqdefault.jpg","viewCount":"4963","playlistId":"PLEkQk5xrP-tkI_meE148wc7V7XHlB0WPb","playlistName":"من الحكم العطائية  د. يسري جبر","category":"متنوع"},{"id":"mXFmkUunaBU","title":"لا تزكّينَّ واردا لا تعلمُ ثمرتَه، فليس المرادُ من السحابة الإمطار، وإنما المرادُ منها وجود الإثمار.","publishedAt":"2018-01-12T18:41:14Z","duration":"PT7M58S","thumbnail":"https://i.ytimg.com/vi/mXFmkUunaBU/mqdefault.jpg","viewCount":"5842","playlistId":"PLEkQk5xrP-tkI_meE148wc7V7XHlB0WPb","playlistName":"من الحكم العطائية  د. يسري جبر","category":"متنوع"}],"total":7670,"page":92,"pageSize":24,"totalPages":320}