{"items":[{"id":"WGW5zN9INfM","title":"88- \"أنَّ رَجُلًا أَكَلَ عِنْدَ رَسولِ اللهِ ﷺ بشِمَالِه، فَقال: كُلْ بيَمِينِكَ…\" شرح دليل الفالحين","publishedAt":"2021-07-03T09:47:01Z","duration":"PT52M24S","thumbnail":"https://i.ytimg.com/vi/WGW5zN9INfM/mqdefault.jpg","viewCount":"1349","playlistId":"PLEkQk5xrP-tkc9DXvSLguqX5-FYp6ASR4","playlistName":"دليل الفالحين لطرق رياض الصالحين","category":"متنوع"},{"id":"rhAvct19W8c","title":"الاختزال (6) حذف المضاف إليه - شرح البرهان في علوم القرآن","publishedAt":"2021-07-03T18:17:28Z","duration":"PT13M26S","thumbnail":"https://i.ytimg.com/vi/rhAvct19W8c/mqdefault.jpg","viewCount":"336","playlistId":"PLEkQk5xrP-tnW3iBL7HkKziOFCFZbTlf0","playlistName":"شرح البرهان في علوم القرآن - أ.د. يسري جبر","category":"تفسير"},{"id":"s-4U9bcnU8g","title":"89- \"مثلي ومثلُكم كمثلِ رجلٍ أوقدَ نارًا ، فجعل الفراشُ ، والجنادِبُ يقعْنَ فيها…\" شرح دليل الفالحين","publishedAt":"2021-07-04T05:32:54Z","duration":"PT49M39S","thumbnail":"https://i.ytimg.com/vi/s-4U9bcnU8g/mqdefault.jpg","viewCount":"1748","playlistId":"PLEkQk5xrP-tkc9DXvSLguqX5-FYp6ASR4","playlistName":"دليل الفالحين لطرق رياض الصالحين","category":"متنوع"},{"id":"gUC0pF4PEQA","title":"الاختزال (7) حذف الموصوف - شرح البرهان في علوم القرآن","publishedAt":"2021-07-04T13:32:55Z","duration":"PT13M58S","thumbnail":"https://i.ytimg.com/vi/gUC0pF4PEQA/mqdefault.jpg","viewCount":"371","playlistId":"PLEkQk5xrP-tnW3iBL7HkKziOFCFZbTlf0","playlistName":"شرح البرهان في علوم القرآن - أ.د. يسري جبر","category":"تفسير"},{"id":"hSbijMb06cA","title":"90- بابٌ في وُجُوبِ الانقيادِ لحُكْمِ الله تَعالَى… - شرح دليل الفالحين","publishedAt":"2021-07-04T20:44:05Z","duration":"PT48M30S","thumbnail":"https://i.ytimg.com/vi/hSbijMb06cA/mqdefault.jpg","viewCount":"1334","playlistId":"PLEkQk5xrP-tkc9DXvSLguqX5-FYp6ASR4","playlistName":"دليل الفالحين لطرق رياض الصالحين","category":"متنوع"},{"id":"7PTZsVBKZBQ","title":"الاختزال (8) حذف المعطوف عليه - شرح البرهان في علوم القرآن","publishedAt":"2021-07-05T05:40:18Z","duration":"PT11M48S","thumbnail":"https://i.ytimg.com/vi/7PTZsVBKZBQ/mqdefault.jpg","viewCount":"329","playlistId":"PLEkQk5xrP-tnW3iBL7HkKziOFCFZbTlf0","playlistName":"شرح البرهان في علوم القرآن - أ.د. يسري جبر","category":"تفسير"},{"id":"wbzjTfg7zlk","title":"العِلْمُ النافع","publishedAt":"2021-07-05T19:29:13Z","duration":"PT48M42S","thumbnail":"https://i.ytimg.com/vi/wbzjTfg7zlk/mqdefault.jpg","viewCount":"2352","playlistId":"PLEkQk5xrP-tlArtGpeLWaqNM7h7IDeAVC","playlistName":"خطب الجمعة أ.د. يسري جبر","category":"خطب"},{"id":"4bF2TSaCJNk","title":"91- بابٌ في النَّهْي عن البِدَعِ ومُحْدَثَاتِ الأُمُور - شرح دليل الفالحين","publishedAt":"2021-07-06T05:37:39Z","duration":"PT34M17S","thumbnail":"https://i.ytimg.com/vi/4bF2TSaCJNk/mqdefault.jpg","viewCount":"1715","playlistId":"PLEkQk5xrP-tkc9DXvSLguqX5-FYp6ASR4","playlistName":"دليل الفالحين لطرق رياض الصالحين","category":"متنوع"},{"id":"3TXhb5m542g","title":"الاختزال (9) حذف المخصوص في باب ( نِعْمَ وبِئْسَ ) شرح البرهان في علوم القرآن","publishedAt":"2021-07-06T12:50:11Z","duration":"PT21M45S","thumbnail":"https://i.ytimg.com/vi/3TXhb5m542g/mqdefault.jpg","viewCount":"267","playlistId":"PLEkQk5xrP-tnW3iBL7HkKziOFCFZbTlf0","playlistName":"شرح البرهان في علوم القرآن - أ.د. يسري جبر","category":"تفسير"},{"id":"pQgC8c-o6h8","title":"92- مَنْ سَنَّ سُنَّةً حَسَنةً أو سَيِّئةً - شرح دليل الفالحين","publishedAt":"2021-07-06T19:49:49Z","duration":"PT45M42S","thumbnail":"https://i.ytimg.com/vi/pQgC8c-o6h8/mqdefault.jpg","viewCount":"1599","playlistId":"PLEkQk5xrP-tkc9DXvSLguqX5-FYp6ASR4","playlistName":"دليل الفالحين لطرق رياض الصالحين","category":"متنوع"},{"id":"aKj_DJDZWgc","title":"الاختزال (10) حذف المفعول - شرح البرهان في علوم القرآن","publishedAt":"2021-07-07T05:27:07Z","duration":"PT7M24S","thumbnail":"https://i.ytimg.com/vi/aKj_DJDZWgc/mqdefault.jpg","viewCount":"309","playlistId":"PLEkQk5xrP-tnW3iBL7HkKziOFCFZbTlf0","playlistName":"شرح البرهان في علوم القرآن - أ.د. يسري جبر","category":"تفسير"},{"id":"xLCfweLKY8U","title":"93- الدلالة على خير والدعاء إلى هدى أو ضلالة - شرح دليل الفالحين","publishedAt":"2021-07-07T13:27:22Z","duration":"PT44M15S","thumbnail":"https://i.ytimg.com/vi/xLCfweLKY8U/mqdefault.jpg","viewCount":"1214","playlistId":"PLEkQk5xrP-tkc9DXvSLguqX5-FYp6ASR4","playlistName":"دليل الفالحين لطرق رياض الصالحين","category":"متنوع"},{"id":"VUlH7Dqm9pk","title":"الاختزال (11) الغرض من حذف المفعول (2) - شرح البرهان في علوم القرآن","publishedAt":"2021-07-07T22:08:28Z","duration":"PT15M11S","thumbnail":"https://i.ytimg.com/vi/VUlH7Dqm9pk/mqdefault.jpg","viewCount":"314","playlistId":"PLEkQk5xrP-tnW3iBL7HkKziOFCFZbTlf0","playlistName":"شرح البرهان في علوم القرآن - أ.د. يسري جبر","category":"تفسير"},{"id":"4GbYMUQMH3c","title":"94- التعاون على البِرِّ والتَّقْوى - شرح دليل الفالحين","publishedAt":"2021-07-08T05:32:35Z","duration":"PT45M15S","thumbnail":"https://i.ytimg.com/vi/4GbYMUQMH3c/mqdefault.jpg","viewCount":"1066","playlistId":"PLEkQk5xrP-tkc9DXvSLguqX5-FYp6ASR4","playlistName":"دليل الفالحين لطرق رياض الصالحين","category":"متنوع"},{"id":"ByglztZpnGA","title":"الاختزال (12) الغرض من حذف المفعول (3) - شرح البرهان في علوم القرآن","publishedAt":"2021-07-08T16:17:54Z","duration":"PT17M39S","thumbnail":"https://i.ytimg.com/vi/ByglztZpnGA/mqdefault.jpg","viewCount":"343","playlistId":"PLEkQk5xrP-tnW3iBL7HkKziOFCFZbTlf0","playlistName":"شرح البرهان في علوم القرآن - أ.د. يسري جبر","category":"تفسير"},{"id":"4PeYKM2TPdE","title":"95- \"الدِّينُ النَّصِيحَة…\" - شرح دليل الفالحين","publishedAt":"2021-07-09T05:21:50Z","duration":"PT31M38S","thumbnail":"https://i.ytimg.com/vi/4PeYKM2TPdE/mqdefault.jpg","viewCount":"1228","playlistId":"PLEkQk5xrP-tkc9DXvSLguqX5-FYp6ASR4","playlistName":"دليل الفالحين لطرق رياض الصالحين","category":"متنوع"},{"id":"SnlA-XRi4A8","title":"سبب دارستي للعلوم الدينية,, ونصيحة للمريدين في أول الطريق","publishedAt":"2021-07-09T18:45:01Z","duration":"PT15M38S","thumbnail":"https://i.ytimg.com/vi/SnlA-XRi4A8/mqdefault.jpg","viewCount":"53781","playlistId":"PLEkQk5xrP-tl6tFiMFGUucCTvLgnWyAfz","playlistName":"حياة الأستاذ الدكتور يسري جبر","category":"متنوع"},{"id":"D_qBmQFUy98","title":"الاختزال (13) حذف المفعول (4) - شرح البرهان في علوم القرآن","publishedAt":"2021-07-10T05:20:50Z","duration":"PT14M25S","thumbnail":"https://i.ytimg.com/vi/D_qBmQFUy98/mqdefault.jpg","viewCount":"326","playlistId":"PLEkQk5xrP-tnW3iBL7HkKziOFCFZbTlf0","playlistName":"شرح البرهان في علوم القرآن - أ.د. يسري جبر","category":"تفسير"},{"id":"dNF5OkVznDE","title":"فضل العشر الأوائل من ذي الحجة","publishedAt":"2021-07-10T19:14:53Z","duration":"PT35M36S","thumbnail":"https://i.ytimg.com/vi/dNF5OkVznDE/mqdefault.jpg","viewCount":"16827","playlistId":"PLEkQk5xrP-tlArtGpeLWaqNM7h7IDeAVC","playlistName":"خطب الجمعة أ.د. يسري جبر","category":"خطب"},{"id":"X5TsaZIfvDI","title":"96- الأمر بالمعروف والنهي عن المنكر - شرح دليل الفالحين","publishedAt":"2021-07-11T06:49:33Z","duration":"PT17M38S","thumbnail":"https://i.ytimg.com/vi/X5TsaZIfvDI/mqdefault.jpg","viewCount":"1022","playlistId":"PLEkQk5xrP-tkc9DXvSLguqX5-FYp6ASR4","playlistName":"دليل الفالحين لطرق رياض الصالحين","category":"متنوع"},{"id":"po-x2WEfE1o","title":"كيف أطلب شيئا من الله وأنا عاصٍ؟","publishedAt":"2021-07-11T17:30:02Z","duration":"PT11M32S","thumbnail":"https://i.ytimg.com/vi/po-x2WEfE1o/mqdefault.jpg","viewCount":"8989","playlistId":"PLEkQk5xrP-tkGXuZ9atE3k_7it12rUPTs","playlistName":"أسئلة المتابعين","category":"متنوع"},{"id":"x1nlLZsBNdE","title":"الاختزال (14) حذف المفعول (5) تنبيهات - شرح البرهان في علوم القرآن","publishedAt":"2021-07-12T05:46:43Z","duration":"PT36M56S","thumbnail":"https://i.ytimg.com/vi/x1nlLZsBNdE/mqdefault.jpg","viewCount":"488","playlistId":"PLEkQk5xrP-tnW3iBL7HkKziOFCFZbTlf0","playlistName":"شرح البرهان في علوم القرآن - أ.د. يسري جبر","category":"تفسير"},{"id":"s9yiv0Tp9g0","title":"33- شرائط وُجُوب الحَجِّ - شرح كتاب فتح القريب المجيب","publishedAt":"2021-07-12T19:00:16Z","duration":"PT1H7S","thumbnail":"https://i.ytimg.com/vi/s9yiv0Tp9g0/mqdefault.jpg","viewCount":"1994","playlistId":"PLEkQk5xrP-tnXN9VywgB4qmBFO8geIZTV","playlistName":"أحكام الحج من كتاب فتح القريب المجيب","category":"فقه"},{"id":"pmOVzUJ9xQA","title":"97- \"مَنْ رأى منكم مُنكراً فلْيُغيِّرْه بيده، فإن لم يستطِعْ فبلسانه…\" شرح دليل الفالحين","publishedAt":"2021-07-13T05:24:44Z","duration":"PT39M20S","thumbnail":"https://i.ytimg.com/vi/pmOVzUJ9xQA/mqdefault.jpg","viewCount":"3265","playlistId":"PLEkQk5xrP-tkc9DXvSLguqX5-FYp6ASR4","playlistName":"دليل الفالحين لطرق رياض الصالحين","category":"متنوع"}],"total":7670,"page":204,"pageSize":24,"totalPages":320}