{"items":[{"id":"SE0qGOyqDqA","title":"مقرأة سورة محمد من أولها","publishedAt":"2019-01-10T11:47:53Z","duration":"PT19M14S","thumbnail":"https://i.ytimg.com/vi/SE0qGOyqDqA/mqdefault.jpg","viewCount":"946","playlistId":"PLEkQk5xrP-tnmTYsyW6xNdyfhPq0Bhrhj","playlistName":"مقرأة الفجر - القُرْآنُ الكَرِيمُ - خَتْمَةُ التَّدَبُّرِ  أ.د. يسري جبر","category":"متنوع"},{"id":"h5hdM7gT3dg","title":"شرح صحيح البخاري كتاب الأحكام من باب ٢١","publishedAt":"2019-01-10T21:35:24Z","duration":"PT27M18S","thumbnail":"https://i.ytimg.com/vi/h5hdM7gT3dg/mqdefault.jpg","viewCount":"443","playlistId":"PLEkQk5xrP-tlEerGoLa1AFy-2XvQ-sovv","playlistName":"شرح صحيح البخاري - أ.د. يسري جبر (كاملا)","category":"حديث"},{"id":"xLaXE5fp3GU","title":"مقرأة سورة محمد من آية ٣","publishedAt":"2019-01-11T11:53:23Z","duration":"PT14M48S","thumbnail":"https://i.ytimg.com/vi/xLaXE5fp3GU/mqdefault.jpg","viewCount":"424","playlistId":"PLEkQk5xrP-tnmTYsyW6xNdyfhPq0Bhrhj","playlistName":"مقرأة الفجر - القُرْآنُ الكَرِيمُ - خَتْمَةُ التَّدَبُّرِ  أ.د. يسري جبر","category":"متنوع"},{"id":"r76hc5VYv7o","title":"كلمة مولانا الدكتور يسري في الاحتفال  بمولد مولانا الإمام الحسين رضي الله تعالى عنه وعليه السلام","publishedAt":"2019-01-11T18:16:50Z","duration":"PT23M35S","thumbnail":"https://i.ytimg.com/vi/r76hc5VYv7o/mqdefault.jpg","viewCount":"1970","playlistId":"PLEkQk5xrP-tm8ZIu74nTOZN9KJUJu416J","playlistName":"مقاطع مُهمَّة (يُسريَّات) أ.د. يسري جبر","category":"متنوع"},{"id":"QGuSKprTzbw","title":"شرح صحيح البخاري كتاب الأحكام من باب ٢٥","publishedAt":"2019-01-11T21:18:18Z","duration":"PT26M3S","thumbnail":"https://i.ytimg.com/vi/QGuSKprTzbw/mqdefault.jpg","viewCount":"347","playlistId":"PLEkQk5xrP-tlEerGoLa1AFy-2XvQ-sovv","playlistName":"شرح صحيح البخاري - أ.د. يسري جبر (كاملا)","category":"حديث"},{"id":"pnKDpfvCCBM","title":"مقرأة سورة محمد من آية ٧","publishedAt":"2019-01-12T13:32:14Z","duration":"PT16M22S","thumbnail":"https://i.ytimg.com/vi/pnKDpfvCCBM/mqdefault.jpg","viewCount":"391","playlistId":"PLEkQk5xrP-tnmTYsyW6xNdyfhPq0Bhrhj","playlistName":"مقرأة الفجر - القُرْآنُ الكَرِيمُ - خَتْمَةُ التَّدَبُّرِ  أ.د. يسري جبر","category":"متنوع"},{"id":"RNJEhtQa4j4","title":"شرح صحيح البخاري كتاب الأحكام من باب ٣٠","publishedAt":"2019-01-12T21:50:01Z","duration":"PT29M26S","thumbnail":"https://i.ytimg.com/vi/RNJEhtQa4j4/mqdefault.jpg","viewCount":"412","playlistId":"PLEkQk5xrP-tlEerGoLa1AFy-2XvQ-sovv","playlistName":"شرح صحيح البخاري - أ.د. يسري جبر (كاملا)","category":"حديث"},{"id":"YjZDoc9iQhA","title":"مقرأة سورة محمد من آية ١٣","publishedAt":"2019-01-13T10:06:36Z","duration":"PT19M4S","thumbnail":"https://i.ytimg.com/vi/YjZDoc9iQhA/mqdefault.jpg","viewCount":"407","playlistId":"PLEkQk5xrP-tnmTYsyW6xNdyfhPq0Bhrhj","playlistName":"مقرأة الفجر - القُرْآنُ الكَرِيمُ - خَتْمَةُ التَّدَبُّرِ  أ.د. يسري جبر","category":"متنوع"},{"id":"dr5e8ZtzXrk","title":"شرح صحيح البخاري كتاب الأحكام من باب ٣٧","publishedAt":"2019-01-13T22:12:56Z","duration":"PT33M42S","thumbnail":"https://i.ytimg.com/vi/dr5e8ZtzXrk/mqdefault.jpg","viewCount":"426","playlistId":"PLEkQk5xrP-tlEerGoLa1AFy-2XvQ-sovv","playlistName":"شرح صحيح البخاري - أ.د. يسري جبر (كاملا)","category":"حديث"},{"id":"hNJfqII5wQM","title":"مقرأة سورة محمد من آية ٢٠","publishedAt":"2019-01-14T11:13:01Z","duration":"PT7M32S","thumbnail":"https://i.ytimg.com/vi/hNJfqII5wQM/mqdefault.jpg","viewCount":"319","playlistId":"PLEkQk5xrP-tnmTYsyW6xNdyfhPq0Bhrhj","playlistName":"مقرأة الفجر - القُرْآنُ الكَرِيمُ - خَتْمَةُ التَّدَبُّرِ  أ.د. يسري جبر","category":"متنوع"},{"id":"CoLSHS3fRBs","title":"هَدْمُ الإِنسَانِ أَخْطَرُ مِنْ هَدْمِ البُنْيَانِ.   أ.د. يسري جبر","publishedAt":"2019-01-14T20:29:54Z","duration":"PT29M28S","thumbnail":"https://i.ytimg.com/vi/CoLSHS3fRBs/mqdefault.jpg","viewCount":"791","playlistId":"PLEkQk5xrP-tlArtGpeLWaqNM7h7IDeAVC","playlistName":"خطب الجمعة أ.د. يسري جبر","category":"خطب"},{"id":"y03RGRMj1ZU","title":"شرح صحيح البخاري كتاب الأحكام من باب ٤٣","publishedAt":"2019-01-14T21:16:06Z","duration":"PT43M47S","thumbnail":"https://i.ytimg.com/vi/y03RGRMj1ZU/mqdefault.jpg","viewCount":"367","playlistId":"PLEkQk5xrP-tlEerGoLa1AFy-2XvQ-sovv","playlistName":"شرح صحيح البخاري - أ.د. يسري جبر (كاملا)","category":"حديث"},{"id":"KZ_mWOAnHEM","title":"مقرأة سورة محمد من آية ٢٥","publishedAt":"2019-01-15T15:11:57Z","duration":"PT13M8S","thumbnail":"https://i.ytimg.com/vi/KZ_mWOAnHEM/mqdefault.jpg","viewCount":"325","playlistId":"PLEkQk5xrP-tnmTYsyW6xNdyfhPq0Bhrhj","playlistName":"مقرأة الفجر - القُرْآنُ الكَرِيمُ - خَتْمَةُ التَّدَبُّرِ  أ.د. يسري جبر","category":"متنوع"},{"id":"NTfvE45mwNY","title":"شرح صحيح البخاري كتاب الأحكام من باب ٤٤","publishedAt":"2019-01-15T22:08:35Z","duration":"PT30M17S","thumbnail":"https://i.ytimg.com/vi/NTfvE45mwNY/mqdefault.jpg","viewCount":"396","playlistId":"PLEkQk5xrP-tlEerGoLa1AFy-2XvQ-sovv","playlistName":"شرح صحيح البخاري - أ.د. يسري جبر (كاملا)","category":"حديث"},{"id":"ZCXMg5ChUFQ","title":"مقرأة سورة محمد من آية ٣٣","publishedAt":"2019-01-16T15:04:28Z","duration":"PT19M29S","thumbnail":"https://i.ytimg.com/vi/ZCXMg5ChUFQ/mqdefault.jpg","viewCount":"315","playlistId":"PLEkQk5xrP-tnmTYsyW6xNdyfhPq0Bhrhj","playlistName":"مقرأة الفجر - القُرْآنُ الكَرِيمُ - خَتْمَةُ التَّدَبُّرِ  أ.د. يسري جبر","category":"متنوع"},{"id":"ZJoYO7M5Q-0","title":"شرح كتاب نور اليقين في سيرة سيد المرسلين للشيخ الخضري رحمه الله (المجلس73) أ.د. يسري جبر","publishedAt":"2019-01-16T19:43:57Z","duration":"PT48M15S","thumbnail":"https://i.ytimg.com/vi/ZJoYO7M5Q-0/mqdefault.jpg","viewCount":"6209","playlistId":"PLEkQk5xrP-tl2t4NQx1IhKnAJCMzF0Nli","playlistName":"شرح كتاب نور اليقين في سيرة سيد المرسلين   د. يسري جبر","category":"سيرة"},{"id":"PI2aNsBc9v8","title":"شرح صحيح البخاري كتاب الأحكام من باب ٥١","publishedAt":"2019-01-16T22:26:03Z","duration":"PT28M45S","thumbnail":"https://i.ytimg.com/vi/PI2aNsBc9v8/mqdefault.jpg","viewCount":"365","playlistId":"PLEkQk5xrP-tlEerGoLa1AFy-2XvQ-sovv","playlistName":"شرح صحيح البخاري - أ.د. يسري جبر (كاملا)","category":"حديث"},{"id":"Yqwj10NsEpE","title":"مقرأة سورة الفتح من أولها","publishedAt":"2019-01-17T11:28:12Z","duration":"PT16M35S","thumbnail":"https://i.ytimg.com/vi/Yqwj10NsEpE/mqdefault.jpg","viewCount":"1408","playlistId":"PLEkQk5xrP-tnmTYsyW6xNdyfhPq0Bhrhj","playlistName":"مقرأة الفجر - القُرْآنُ الكَرِيمُ - خَتْمَةُ التَّدَبُّرِ  أ.د. يسري جبر","category":"متنوع"},{"id":"UHHQAWSsaMY","title":"شرح صحيح البخاري كتاب التمني من أوله","publishedAt":"2019-01-17T21:35:50Z","duration":"PT32M18S","thumbnail":"https://i.ytimg.com/vi/UHHQAWSsaMY/mqdefault.jpg","viewCount":"505","playlistId":"PLEkQk5xrP-tlEerGoLa1AFy-2XvQ-sovv","playlistName":"شرح صحيح البخاري - أ.د. يسري جبر (كاملا)","category":"حديث"},{"id":"Vx302Q2wZQI","title":"مقرأة سورة الفتح من آية ٨","publishedAt":"2019-01-18T14:58:27Z","duration":"PT15M25S","thumbnail":"https://i.ytimg.com/vi/Vx302Q2wZQI/mqdefault.jpg","viewCount":"454","playlistId":"PLEkQk5xrP-tnmTYsyW6xNdyfhPq0Bhrhj","playlistName":"مقرأة الفجر - القُرْآنُ الكَرِيمُ - خَتْمَةُ التَّدَبُّرِ  أ.د. يسري جبر","category":"متنوع"},{"id":"-DydqfY85PM","title":"شرح صحيح البخاري كتاب التمني من باب ٨","publishedAt":"2019-01-18T19:00:25Z","duration":"PT33M11S","thumbnail":"https://i.ytimg.com/vi/-DydqfY85PM/mqdefault.jpg","viewCount":"440","playlistId":"PLEkQk5xrP-tlEerGoLa1AFy-2XvQ-sovv","playlistName":"شرح صحيح البخاري - أ.د. يسري جبر (كاملا)","category":"حديث"},{"id":"l9Oj6eKVzSo","title":"مقرأة سورة الفتح من آية ١١","publishedAt":"2019-01-19T15:29:52Z","duration":"PT18M48S","thumbnail":"https://i.ytimg.com/vi/l9Oj6eKVzSo/mqdefault.jpg","viewCount":"405","playlistId":"PLEkQk5xrP-tnmTYsyW6xNdyfhPq0Bhrhj","playlistName":"مقرأة الفجر - القُرْآنُ الكَرِيمُ - خَتْمَةُ التَّدَبُّرِ  أ.د. يسري جبر","category":"متنوع"},{"id":"1bXzwfeMp0E","title":"حول صلاة خسوف القمر    أ.د. يسري جبر","publishedAt":"2019-01-19T18:25:52Z","duration":"PT35M7S","thumbnail":"https://i.ytimg.com/vi/1bXzwfeMp0E/mqdefault.jpg","viewCount":"535","playlistId":"PLEkQk5xrP-tlArtGpeLWaqNM7h7IDeAVC","playlistName":"خطب الجمعة أ.د. يسري جبر","category":"خطب"},{"id":"bE_c1u4mBfs","title":"شرح صحيح البخاري كتاب أخبار الآحاد من أوله","publishedAt":"2019-01-19T21:28:18Z","duration":"PT42M27S","thumbnail":"https://i.ytimg.com/vi/bE_c1u4mBfs/mqdefault.jpg","viewCount":"556","playlistId":"PLEkQk5xrP-tlEerGoLa1AFy-2XvQ-sovv","playlistName":"شرح صحيح البخاري - أ.د. يسري جبر (كاملا)","category":"حديث"}],"total":7670,"page":130,"pageSize":24,"totalPages":320}