{"items":[{"id":"1mIsBoZzgzY","title":"28- صفات أولياء الله الصالحين | شرح مختصر الفتوحات المكية","publishedAt":"2024-08-04T17:00:02Z","duration":"PT49M57S","thumbnail":"https://i.ytimg.com/vi/1mIsBoZzgzY/mqdefault.jpg","viewCount":"8486","playlistId":"PLEkQk5xrP-tnpkdZki6rPTtMak1bnI5g-","playlistName":"شرح كتاب مختصر الفتوحات المكية المسمى لواقح الأنوار القدسية","category":"متنوع"},{"id":"gbyXtCa5NXw","title":"أنا في بداية طريقي إلى الله ,, ما هي الكتب التي تنصحني بها؟","publishedAt":"2024-08-05T18:00:19Z","duration":"PT9M20S","thumbnail":"https://i.ytimg.com/vi/gbyXtCa5NXw/mqdefault.jpg","viewCount":"6857","playlistId":"PLEkQk5xrP-tkGXuZ9atE3k_7it12rUPTs","playlistName":"أسئلة المتابعين","category":"متنوع"},{"id":"plqdHDqUTQM","title":"رسالة مهمة لأهالي وطلاب الثانوية العامة","publishedAt":"2024-08-06T17:33:54Z","duration":"PT8M55S","thumbnail":"https://i.ytimg.com/vi/plqdHDqUTQM/mqdefault.jpg","viewCount":"2405","playlistId":"PLEkQk5xrP-tkGXuZ9atE3k_7it12rUPTs","playlistName":"أسئلة المتابعين","category":"متنوع"},{"id":"qh4Wq45OkQM","title":"أدلة جواز التوسل بالأنبياء والأولياء في القرآن والسنة","publishedAt":"2024-08-07T17:00:47Z","duration":"PT21M43S","thumbnail":"https://i.ytimg.com/vi/qh4Wq45OkQM/mqdefault.jpg","viewCount":"3886","playlistId":"PLEkQk5xrP-tm5wKaFaltLbztkXrGxixKu","playlistName":"شرح كتاب اتحاف الاذكياء بجواز التوسل بالأنبياء والأولياء","category":"متنوع"},{"id":"mrXR3YE7lDU","title":"119- سبحان الله عدد ما خلق الله، سبحان الله رضا نفسه، سبحان زنة عرشه، سبحان الله مداد كلماته.","publishedAt":"2024-08-08T06:00:30Z","duration":"PT10M56S","thumbnail":"https://i.ytimg.com/vi/mrXR3YE7lDU/mqdefault.jpg","viewCount":"1775","playlistId":"PLEkQk5xrP-tkKprIuGrSdEuBSMsyg5We1","playlistName":"شرح مسند الإمام أحمد بن حنبل","category":"متنوع"},{"id":"nUY8svTWXsM","title":"كيف أتغلب على هم الرزق والخوف من الخلق | أسباب زيادة الرزق","publishedAt":"2024-08-08T17:59:54Z","duration":"PT22M41S","thumbnail":"https://i.ytimg.com/vi/nUY8svTWXsM/mqdefault.jpg","viewCount":"16853","playlistId":"PLEkQk5xrP-tlArtGpeLWaqNM7h7IDeAVC","playlistName":"خطب الجمعة أ.د. يسري جبر","category":"خطب"},{"id":"M8w0WA8Ik1Q","title":"4- ادفن وجودك في أرض الخمول فما نبت مما لم يدفن لا يتم نتاجه | شرح الحكم العطائية","publishedAt":"2024-08-09T18:30:31Z","duration":"PT46M38S","thumbnail":"https://i.ytimg.com/vi/M8w0WA8Ik1Q/mqdefault.jpg","viewCount":"9384","playlistId":"PLEkQk5xrP-tmf5ToOwmW-q0JwxkapbrMN","playlistName":"شرح كتاب إرشاد البرية إلى بعض معاني الحكم العطائية","category":"متنوع"},{"id":"GkVufY-TVyA","title":"41-  هل يجوز الصلاة والصيام والطواف في فترة الاستحاضة؟ | شرح سنن الدار قطني رضي الله عنه","publishedAt":"2024-08-10T09:00:18Z","duration":"PT48M50S","thumbnail":"https://i.ytimg.com/vi/GkVufY-TVyA/mqdefault.jpg","viewCount":"562","playlistId":"PLEkQk5xrP-tk_MCBZ706ORCw6gFtFyaGj","playlistName":"شرح سنن الإمام الدارقطني","category":"متنوع"},{"id":"IyAYIbMOkz4","title":"فضل جبر الخواطر عند الله","publishedAt":"2024-08-10T17:18:54Z","duration":"PT10M","thumbnail":"https://i.ytimg.com/vi/IyAYIbMOkz4/mqdefault.jpg","viewCount":"4697","playlistId":"PLEkQk5xrP-tlArtGpeLWaqNM7h7IDeAVC","playlistName":"خطب الجمعة أ.د. يسري جبر","category":"خطب"},{"id":"YvEI7KuGdnE","title":"250- الإطناب بالزيادة بالصفة - شرح الإتقان في علوم القرآن","publishedAt":"2024-08-11T06:15:01Z","duration":"PT33M40S","thumbnail":"https://i.ytimg.com/vi/YvEI7KuGdnE/mqdefault.jpg","viewCount":"389","playlistId":"PLEkQk5xrP-tlPw10KGJKagu7zm4Ry2Tge","playlistName":"شرح الإتقان في علوم القرآن","category":"تفسير"},{"id":"Ex0CFchshOw","title":"29- شرح وحدة الوجود عند الصوفية | شرح مختصر الفتوحات المكية","publishedAt":"2024-08-11T17:00:09Z","duration":"PT43M32S","thumbnail":"https://i.ytimg.com/vi/Ex0CFchshOw/mqdefault.jpg","viewCount":"7132","playlistId":"PLEkQk5xrP-tnpkdZki6rPTtMak1bnI5g-","playlistName":"شرح كتاب مختصر الفتوحات المكية المسمى لواقح الأنوار القدسية","category":"متنوع"},{"id":"SBFLtI9034U","title":"120- كيف نحافظ على نعمتي الصحة و الفراغ - شرح مسند الإمام أحمد رضي الله تعالى عنه","publishedAt":"2024-08-12T06:48:32Z","duration":"PT37M4S","thumbnail":"https://i.ytimg.com/vi/SBFLtI9034U/mqdefault.jpg","viewCount":"1596","playlistId":"PLEkQk5xrP-tkKprIuGrSdEuBSMsyg5We1","playlistName":"شرح مسند الإمام أحمد بن حنبل","category":"متنوع"},{"id":"QZlDD_dGFOY","title":"ما هي شروط قبول العمل الصالح؟","publishedAt":"2024-08-12T18:13:32Z","duration":"PT8M12S","thumbnail":"https://i.ytimg.com/vi/QZlDD_dGFOY/mqdefault.jpg","viewCount":"2122","playlistId":"PLEkQk5xrP-tlArtGpeLWaqNM7h7IDeAVC","playlistName":"خطب الجمعة أ.د. يسري جبر","category":"خطب"},{"id":"tho1wTqC51g","title":"ما معنى التقوى وكيف تتقي الله سبحانه وتعالى؟","publishedAt":"2024-08-13T17:00:39Z","duration":"PT9M2S","thumbnail":"https://i.ytimg.com/vi/tho1wTqC51g/mqdefault.jpg","viewCount":"3867","playlistId":"PLEkQk5xrP-tlArtGpeLWaqNM7h7IDeAVC","playlistName":"خطب الجمعة أ.د. يسري جبر","category":"خطب"},{"id":"vjlOe0oCqBY","title":"251- الإطناب بالبدل - شرح الإتقان في علوم القرآن","publishedAt":"2024-08-15T06:30:18Z","duration":"PT43M55S","thumbnail":"https://i.ytimg.com/vi/vjlOe0oCqBY/mqdefault.jpg","viewCount":"484","playlistId":"PLEkQk5xrP-tlPw10KGJKagu7zm4Ry2Tge","playlistName":"شرح الإتقان في علوم القرآن","category":"تفسير"},{"id":"dQxLaTK6kIA","title":"5- ما نفع القلب شيء مثل عزلة يدخل بها ميدان فكرة | شرح الحكم العطائية","publishedAt":"2024-08-15T18:24:52Z","duration":"PT40M51S","thumbnail":"https://i.ytimg.com/vi/dQxLaTK6kIA/mqdefault.jpg","viewCount":"8615","playlistId":"PLEkQk5xrP-tmf5ToOwmW-q0JwxkapbrMN","playlistName":"شرح كتاب إرشاد البرية إلى بعض معاني الحكم العطائية","category":"متنوع"},{"id":"PndGcgKOEAU","title":"42- كتاب الصلاة | شرح سنن الدار قطني رضي الله عنه","publishedAt":"2024-08-17T09:00:24Z","duration":"PT1H1M43S","thumbnail":"https://i.ytimg.com/vi/PndGcgKOEAU/mqdefault.jpg","viewCount":"944","playlistId":"PLEkQk5xrP-tk_MCBZ706ORCw6gFtFyaGj","playlistName":"شرح سنن الإمام الدارقطني","category":"متنوع"},{"id":"PU5gOn6TEUU","title":"ما هي أفضل طريقة لصلاة السنن والنوافل؟","publishedAt":"2024-08-17T17:26:26Z","duration":"PT9M32S","thumbnail":"https://i.ytimg.com/vi/PU5gOn6TEUU/mqdefault.jpg","viewCount":"3237","playlistId":"PLEkQk5xrP-tkGXuZ9atE3k_7it12rUPTs","playlistName":"أسئلة المتابعين","category":"متنوع"},{"id":"f1uN5njXN80","title":"30- كيف تفرق بين الخاطر الرحماني والشيطاني والنفساني؟ | شرح مختصر الفتوحات المكية","publishedAt":"2024-08-18T17:04:54Z","duration":"PT44M26S","thumbnail":"https://i.ytimg.com/vi/f1uN5njXN80/mqdefault.jpg","viewCount":"6664","playlistId":"PLEkQk5xrP-tnpkdZki6rPTtMak1bnI5g-","playlistName":"شرح كتاب مختصر الفتوحات المكية المسمى لواقح الأنوار القدسية","category":"متنوع"},{"id":"6TYZBlGBFYg","title":"كيف أحسن ظني بالله وهو لا يستجيب دعائي؟","publishedAt":"2024-08-19T17:16:51Z","duration":"PT8M4S","thumbnail":"https://i.ytimg.com/vi/6TYZBlGBFYg/mqdefault.jpg","viewCount":"5507","playlistId":"PLEkQk5xrP-tkGXuZ9atE3k_7it12rUPTs","playlistName":"أسئلة المتابعين","category":"متنوع"},{"id":"Rb-EQ1vL2Dk","title":"6- كيف يشرق قلب صور الأكوان منطبعة فى مرآته؟! | شرح الحكم العطائية","publishedAt":"2024-08-20T17:00:19Z","duration":"PT32M4S","thumbnail":"https://i.ytimg.com/vi/Rb-EQ1vL2Dk/mqdefault.jpg","viewCount":"6098","playlistId":"PLEkQk5xrP-tmf5ToOwmW-q0JwxkapbrMN","playlistName":"شرح كتاب إرشاد البرية إلى بعض معاني الحكم العطائية","category":"متنوع"},{"id":"CrTwIClUFLo","title":"48- كيف أتخلص من الكبر؟ وما هو التواضع؟ | شرح منازل السائرين","publishedAt":"2024-08-21T17:00:21Z","duration":"PT41M11S","thumbnail":"https://i.ytimg.com/vi/CrTwIClUFLo/mqdefault.jpg","viewCount":"4491","playlistId":"PLEkQk5xrP-tmiUfQ-2Tsn7QIak4EsvaZW","playlistName":"كتاب التيسير المعين بشرح معاني منازل السائرين (تصوف) - د.يسري جبر","category":"تصوف"},{"id":"_uKVQsLEOXk","title":"أدلة جواز التوسل بالأنبياء والأولياء في السنة النبوية","publishedAt":"2024-08-22T17:45:36Z","duration":"PT58M9S","thumbnail":"https://i.ytimg.com/vi/_uKVQsLEOXk/mqdefault.jpg","viewCount":"3743","playlistId":"PLEkQk5xrP-tm5wKaFaltLbztkXrGxixKu","playlistName":"شرح كتاب اتحاف الاذكياء بجواز التوسل بالأنبياء والأولياء","category":"متنوع"},{"id":"t2TEDn8wupM","title":"ما هي صفات الله تعالى وكيف نفهمها بدون تشبيه؟","publishedAt":"2024-08-23T17:48:53Z","duration":"PT15M28S","thumbnail":"https://i.ytimg.com/vi/t2TEDn8wupM/mqdefault.jpg","viewCount":"3118","playlistId":"PLEkQk5xrP-tlArtGpeLWaqNM7h7IDeAVC","playlistName":"خطب الجمعة أ.د. يسري جبر","category":"خطب"}],"total":7670,"page":295,"pageSize":24,"totalPages":320}