{"items":[{"id":"Lkho4XMm9-Y","title":"Ø¥Ø­ÙŠØ§Ø¡ Ù„ÙŠÙ„Ø© Ø§Ù„Ø¥Ø³Ø±Ø§Ø¡ ÙˆØ§Ù„Ù…Ø¹Ø±Ø§Ø¬ | Ù…Ù† Ù„ÙŠØ§Ù„ÙŠ Ø§Ù„Ù…Ø¯ÙŠÙ†Ø© Ø§Ù„Ù…Ù†ÙˆØ±Ø©ğŸ“","publishedAt":"2025-01-26T17:15:00Z","duration":"PT1H3M10S","thumbnail":"https://i.ytimg.com/vi/Lkho4XMm9-Y/mqdefault.jpg","viewCount":"11156","playlistId":"PLEkQk5xrP-tm8ZIu74nTOZN9KJUJu416J","playlistName":"Ù…Ù‚Ø§Ø·Ø¹ Ù…ÙÙ‡Ù…ÙÙ‘Ø© (ÙŠÙØ³Ø±ÙŠÙ‘ÙØ§Øª) Ø£.Ø¯. ÙŠØ³Ø±ÙŠ Ø¬Ø¨Ø±","category":"Ù…ØªÙ†ÙˆØ¹"},{"id":"RQRp90DazEw","title":"Ø´Ø±Ø­ Ø§Ù„Ù…Ù†Ø§Ø¬Ø§Ø© Ø§Ù„Ø¥Ù„Ù‡ÙŠØ© Ù„Ø§Ø¨Ù† Ø¹Ø·Ø§Ø¡ Ø§Ù„Ù„Ù‡ Ø§Ù„Ø³ÙƒÙ†Ø¯Ø±ÙŠ ÙƒØ§Ù…Ù„Ø§ | Ø£.Ø¯.ÙŠØ³Ø±ÙŠ Ø¬Ø¨Ø±","publishedAt":"2025-01-28T17:59:37Z","duration":"PT1H55M47S","thumbnail":"https://i.ytimg.com/vi/RQRp90DazEw/mqdefault.jpg","viewCount":"2464","playlistId":"PLEkQk5xrP-tm8ZIu74nTOZN9KJUJu416J","playlistName":"Ù…Ù‚Ø§Ø·Ø¹ Ù…ÙÙ‡Ù…ÙÙ‘Ø© (ÙŠÙØ³Ø±ÙŠÙ‘ÙØ§Øª) Ø£.Ø¯. ÙŠØ³Ø±ÙŠ Ø¬Ø¨Ø±","category":"Ù…ØªÙ†ÙˆØ¹"},{"id":"BbnoLqLPJVs","title":"ÙƒÙŠÙ ØªØªØ®Ù„Øµ Ù…Ù† Ø³ÙˆØ¡ Ø§Ù„Ø¸Ù† Ø¨Ø§Ù„Ù†Ø§Ø³ØŸ","publishedAt":"2025-01-29T19:25:09Z","duration":"PT18M56S","thumbnail":"https://i.ytimg.com/vi/BbnoLqLPJVs/mqdefault.jpg","viewCount":"3420","playlistId":"PLEkQk5xrP-tlArtGpeLWaqNM7h7IDeAVC","playlistName":"Ø®Ø·Ø¨ Ø§Ù„Ø¬Ù…Ø¹Ø© Ø£.Ø¯. ÙŠØ³Ø±ÙŠ Ø¬Ø¨Ø±","category":"Ø®Ø·Ø¨"},{"id":"7DfwHf7fgyk","title":"Ù…Ø§ Ù‡ÙŠ Ø£ÙØ¶Ù„ Ø§Ù„Ø£Ø¹Ù…Ø§Ù„ ÙÙŠ Ø´Ù‡Ø± Ø´Ø¹Ø¨Ø§Ù†ØŸ","publishedAt":"2025-01-30T19:32:57Z","duration":"PT17M42S","thumbnail":"https://i.ytimg.com/vi/7DfwHf7fgyk/mqdefault.jpg","viewCount":"24403","playlistId":"PLEkQk5xrP-tlArtGpeLWaqNM7h7IDeAVC","playlistName":"Ø®Ø·Ø¨ Ø§Ù„Ø¬Ù…Ø¹Ø© Ø£.Ø¯. ÙŠØ³Ø±ÙŠ Ø¬Ø¨Ø±","category":"Ø®Ø·Ø¨"},{"id":"a4TaYKig-Mc","title":"Ø§Ù„Ø£Ø¹Ù…Ø§Ù„ Ø§Ù„Ù…Ø³ØªØ­Ø¨Ø© ÙÙŠ Ø´Ù‡Ø± Ø´Ø¹Ø¨Ø§Ù†","publishedAt":"2025-01-31T19:45:13Z","duration":"PT9M33S","thumbnail":"https://i.ytimg.com/vi/a4TaYKig-Mc/mqdefault.jpg","viewCount":"5733","playlistId":"PLEkQk5xrP-tlArtGpeLWaqNM7h7IDeAVC","playlistName":"Ø®Ø·Ø¨ Ø§Ù„Ø¬Ù…Ø¹Ø© Ø£.Ø¯. ÙŠØ³Ø±ÙŠ Ø¬Ø¨Ø±","category":"Ø®Ø·Ø¨"},{"id":"ryp5JB8yfo8","title":"ğŸ”´ Pembukaan Majelis Sama' Hadits Shahih Bukhari 2025 | Pesantren Progresif Bumi Shalawat","publishedAt":"2025-02-01T17:36:32Z","duration":"PT2H33M39S","thumbnail":"https://i.ytimg.com/vi/ryp5JB8yfo8/mqdefault.jpg","viewCount":"10200","playlistId":"PLEkQk5xrP-tkKcTKLIthzWrdXY7QaOjh_","playlistName":"Ù‚Ø±Ø§Ø¡Ø© ØµØ­ÙŠØ­ Ø§Ù„Ø¨Ø®Ø§Ø±ÙŠ ÙƒØ§Ù…Ù„Ø§Ù‹ ÙÙŠ Ø¥Ù†Ø¯ÙˆÙ†ÙŠØ³ÙŠØ§","category":"Ø­Ø¯ÙŠØ«"},{"id":"Th4sS-y7FfY","title":"Ù„Ø§ Ø£Ø´Ø¹Ø± Ø¨Ø§Ù„Ø³Ø¹Ø§Ø¯Ø© Ø¥Ù„Ø§ Ø¹Ù†Ø¯ Ø°ÙƒØ± Ø§Ù„Ù„Ù‡ ÙˆÙ‚Ø±Ø§Ø¡Ø© Ø§Ù„Ø£ÙˆØ±Ø§Ø¯ ,, ÙÙ…Ø§Ø°Ø§ Ø£ÙØ¹Ù„ØŸ","publishedAt":"2025-02-01T19:30:34Z","duration":"PT11M51S","thumbnail":"https://i.ytimg.com/vi/Th4sS-y7FfY/mqdefault.jpg","viewCount":"6998","playlistId":"PLEkQk5xrP-tkGXuZ9atE3k_7it12rUPTs","playlistName":"Ø£Ø³Ø¦Ù„Ø© Ø§Ù„Ù…ØªØ§Ø¨Ø¹ÙŠÙ†","category":"Ù…ØªÙ†ÙˆØ¹"},{"id":"yS38eQ0mfD4","title":"ğŸ”´ Majelis Sama' Hadits Shahih Bukhari - PP Progresif Bumi Shalawat (Sabtu, 1 Februari 2025 | Sesi 2)","publishedAt":"2025-02-01T23:34:44Z","duration":"PT2H12M25S","thumbnail":"https://i.ytimg.com/vi/yS38eQ0mfD4/mqdefault.jpg","viewCount":"3164","playlistId":"PLEkQk5xrP-tkKcTKLIthzWrdXY7QaOjh_","playlistName":"Ù‚Ø±Ø§Ø¡Ø© ØµØ­ÙŠØ­ Ø§Ù„Ø¨Ø®Ø§Ø±ÙŠ ÙƒØ§Ù…Ù„Ø§Ù‹ ÙÙŠ Ø¥Ù†Ø¯ÙˆÙ†ÙŠØ³ÙŠØ§","category":"Ø­Ø¯ÙŠØ«"},{"id":"3Inm9eA45Sk","title":"ğŸ”´ Majelis Sama' Hadits Shahih Bukhari - PP Progresif Bumi Shalawat (Sabtu, 1 Februari 2025 | Sesi 3)","publishedAt":"2025-02-02T05:02:21Z","duration":"PT3H39M47S","thumbnail":"https://i.ytimg.com/vi/3Inm9eA45Sk/mqdefault.jpg","viewCount":"3539","playlistId":"PLEkQk5xrP-tkKcTKLIthzWrdXY7QaOjh_","playlistName":"Ù‚Ø±Ø§Ø¡Ø© ØµØ­ÙŠØ­ Ø§Ù„Ø¨Ø®Ø§Ø±ÙŠ ÙƒØ§Ù…Ù„Ø§Ù‹ ÙÙŠ Ø¥Ù†Ø¯ÙˆÙ†ÙŠØ³ÙŠØ§","category":"Ø­Ø¯ÙŠØ«"},{"id":"1RHHAaOdjpg","title":"ğŸ”´ Majelis Sama' Hadits Shahih Bukhari - PP. Progresif Bumi Shalawat (Ahad, 2 Februari 2025 | Sesi 1)","publishedAt":"2025-02-02T16:52:55Z","duration":"PT3H7M59S","thumbnail":"https://i.ytimg.com/vi/1RHHAaOdjpg/mqdefault.jpg","viewCount":"2970","playlistId":"PLEkQk5xrP-tkKcTKLIthzWrdXY7QaOjh_","playlistName":"Ù‚Ø±Ø§Ø¡Ø© ØµØ­ÙŠØ­ Ø§Ù„Ø¨Ø®Ø§Ø±ÙŠ ÙƒØ§Ù…Ù„Ø§Ù‹ ÙÙŠ Ø¥Ù†Ø¯ÙˆÙ†ÙŠØ³ÙŠØ§","category":"Ø­Ø¯ÙŠØ«"},{"id":"oFvUMRrXjBQ","title":"ğŸ”´ Majelis Sama' Hadits Shahih Bukhari - PP. Progresif Bumi Shalawat (Ahad, 2 Februari 2025 | Sesi 3)","publishedAt":"2025-02-02T17:38:43Z","duration":"PT4H15M6S","thumbnail":"https://i.ytimg.com/vi/oFvUMRrXjBQ/mqdefault.jpg","viewCount":"3109","playlistId":"PLEkQk5xrP-tkKcTKLIthzWrdXY7QaOjh_","playlistName":"Ù‚Ø±Ø§Ø¡Ø© ØµØ­ÙŠØ­ Ø§Ù„Ø¨Ø®Ø§Ø±ÙŠ ÙƒØ§Ù…Ù„Ø§Ù‹ ÙÙŠ Ø¥Ù†Ø¯ÙˆÙ†ÙŠØ³ÙŠØ§","category":"Ø­Ø¯ÙŠØ«"},{"id":"86hLlqUpA0U","title":"Ù…ØªÙ‰ ÙŠÙƒÙˆÙ† Ø§Ù„ÙƒØ°Ø¨ Ù…Ø¨Ø§Ø­Ù‹Ø§ ÙÙŠ Ø§Ù„Ø¥Ø³Ù„Ø§Ù…ØŸ","publishedAt":"2025-02-02T19:40:16Z","duration":"PT12M44S","thumbnail":"https://i.ytimg.com/vi/86hLlqUpA0U/mqdefault.jpg","viewCount":"3563","playlistId":"PLEkQk5xrP-tkGXuZ9atE3k_7it12rUPTs","playlistName":"Ø£Ø³Ø¦Ù„Ø© Ø§Ù„Ù…ØªØ§Ø¨Ø¹ÙŠÙ†","category":"Ù…ØªÙ†ÙˆØ¹"},{"id":"6dxI6Frav1o","title":"ğŸ”´ Majelis Sama' Hadits Shahih Bukhari - PP. Progresif Bumi Shalawat (Ahad, 2 Februari 2025 | Sesi 2)","publishedAt":"2025-02-02T23:20:19Z","duration":"PT2H12M20S","thumbnail":"https://i.ytimg.com/vi/6dxI6Frav1o/mqdefault.jpg","viewCount":"2906","playlistId":"PLEkQk5xrP-tkKcTKLIthzWrdXY7QaOjh_","playlistName":"Ù‚Ø±Ø§Ø¡Ø© ØµØ­ÙŠØ­ Ø§Ù„Ø¨Ø®Ø§Ø±ÙŠ ÙƒØ§Ù…Ù„Ø§Ù‹ ÙÙŠ Ø¥Ù†Ø¯ÙˆÙ†ÙŠØ³ÙŠØ§","category":"Ø­Ø¯ÙŠØ«"},{"id":"omDcJX0_NEw","title":"ğŸ”´ Majelis Sama' Hadits Shahih Bukhari - PP Progresif Bumi Shalawat (Senin, 3 Februari 2025 | Sesi 1)","publishedAt":"2025-02-03T06:01:11Z","duration":"PT4H22M22S","thumbnail":"https://i.ytimg.com/vi/omDcJX0_NEw/mqdefault.jpg","viewCount":"2771","playlistId":"PLEkQk5xrP-tkKcTKLIthzWrdXY7QaOjh_","playlistName":"Ù‚Ø±Ø§Ø¡Ø© ØµØ­ÙŠØ­ Ø§Ù„Ø¨Ø®Ø§Ø±ÙŠ ÙƒØ§Ù…Ù„Ø§Ù‹ ÙÙŠ Ø¥Ù†Ø¯ÙˆÙ†ÙŠØ³ÙŠØ§","category":"Ø­Ø¯ÙŠØ«"},{"id":"3pzxQUlbJAs","title":"ğŸ”´ Majelis Sama' Hadits Shahih Bukhari - PP Progresif Bumi Shalawat (Senin, 3 Februari 2025 | Sesi 3)","publishedAt":"2025-02-03T16:39:55Z","duration":"PT4H1M31S","thumbnail":"https://i.ytimg.com/vi/3pzxQUlbJAs/mqdefault.jpg","viewCount":"2238","playlistId":"PLEkQk5xrP-tkKcTKLIthzWrdXY7QaOjh_","playlistName":"Ù‚Ø±Ø§Ø¡Ø© ØµØ­ÙŠØ­ Ø§Ù„Ø¨Ø®Ø§Ø±ÙŠ ÙƒØ§Ù…Ù„Ø§Ù‹ ÙÙŠ Ø¥Ù†Ø¯ÙˆÙ†ÙŠØ³ÙŠØ§","category":"Ø­Ø¯ÙŠØ«"},{"id":"vTKmg9cwhV4","title":"Ù„Ù…Ø§Ø°Ø§ Ø®Ù„Ù‚Ù†Ø§ Ø§Ù„Ù„Ù‡ ÙÙŠ Ø§Ø¨ØªÙ„Ø§Ø¡Ø§Øª Ù…Ø³ØªÙ…Ø±Ø©ØŸ","publishedAt":"2025-02-03T18:41:54Z","duration":"PT17M40S","thumbnail":"https://i.ytimg.com/vi/vTKmg9cwhV4/mqdefault.jpg","viewCount":"4547","playlistId":"PLEkQk5xrP-tlArtGpeLWaqNM7h7IDeAVC","playlistName":"Ø®Ø·Ø¨ Ø§Ù„Ø¬Ù…Ø¹Ø© Ø£.Ø¯. ÙŠØ³Ø±ÙŠ Ø¬Ø¨Ø±","category":"Ø®Ø·Ø¨"},{"id":"EgFaTHjHjMo","title":"ğŸ”´ Majelis Sama' Hadits Shahih Bukhari - PP Progresif Bumi Shalawat (Senin, 3 Februari 2025 | Sesi 2)","publishedAt":"2025-02-03T23:19:50Z","duration":"PT2H47M26S","thumbnail":"https://i.ytimg.com/vi/EgFaTHjHjMo/mqdefault.jpg","viewCount":"1821","playlistId":"PLEkQk5xrP-tkKcTKLIthzWrdXY7QaOjh_","playlistName":"Ù‚Ø±Ø§Ø¡Ø© ØµØ­ÙŠØ­ Ø§Ù„Ø¨Ø®Ø§Ø±ÙŠ ÙƒØ§Ù…Ù„Ø§Ù‹ ÙÙŠ Ø¥Ù†Ø¯ÙˆÙ†ÙŠØ³ÙŠØ§","category":"Ø­Ø¯ÙŠØ«"},{"id":"PbgR1Wj9XXA","title":"ğŸ”´ Majelis Sama Hadits Shahih Bukhari - PP Progresif Bumi Shalawat (Selasa, 4 Februari 2025 | Sesi 1)","publishedAt":"2025-02-04T05:47:44Z","duration":"PT4H16M6S","thumbnail":"https://i.ytimg.com/vi/PbgR1Wj9XXA/mqdefault.jpg","viewCount":"1924","playlistId":"PLEkQk5xrP-tkKcTKLIthzWrdXY7QaOjh_","playlistName":"Ù‚Ø±Ø§Ø¡Ø© ØµØ­ÙŠØ­ Ø§Ù„Ø¨Ø®Ø§Ø±ÙŠ ÙƒØ§Ù…Ù„Ø§Ù‹ ÙÙŠ Ø¥Ù†Ø¯ÙˆÙ†ÙŠØ³ÙŠØ§","category":"Ø­Ø¯ÙŠØ«"},{"id":"jHNEkOdzCO0","title":"282- Ù…Ù†Ø§Ø³Ø¨Ø© Ø§Ù„Ø¢ÙŠØ§Øª ÙˆØ§Ù„Ø³ÙˆØ± - Ø´Ø±Ø­ Ø§Ù„Ø¥ØªÙ‚Ø§Ù† ÙÙŠ Ø¹Ù„ÙˆÙ… Ø§Ù„Ù‚Ø±Ø¢Ù†","publishedAt":"2025-02-04T07:29:11Z","duration":"PT42M58S","thumbnail":"https://i.ytimg.com/vi/jHNEkOdzCO0/mqdefault.jpg","viewCount":"688","playlistId":"PLEkQk5xrP-tlPw10KGJKagu7zm4Ry2Tge","playlistName":"Ø´Ø±Ø­ Ø§Ù„Ø¥ØªÙ‚Ø§Ù† ÙÙŠ Ø¹Ù„ÙˆÙ… Ø§Ù„Ù‚Ø±Ø¢Ù†","category":"ØªÙØ³ÙŠØ±"},{"id":"cTOzu721-rk","title":"ğŸ”´ Majelis Sama Hadits Shahih Bukhari - PP Progresif Bumi Shalawat (Selasa, 4 Februari 2025 | Sesi 3)","publishedAt":"2025-02-04T17:47:24Z","duration":"PT4H23M35S","thumbnail":"https://i.ytimg.com/vi/cTOzu721-rk/mqdefault.jpg","viewCount":"2143","playlistId":"PLEkQk5xrP-tkKcTKLIthzWrdXY7QaOjh_","playlistName":"Ù‚Ø±Ø§Ø¡Ø© ØµØ­ÙŠØ­ Ø§Ù„Ø¨Ø®Ø§Ø±ÙŠ ÙƒØ§Ù…Ù„Ø§Ù‹ ÙÙŠ Ø¥Ù†Ø¯ÙˆÙ†ÙŠØ³ÙŠØ§","category":"Ø­Ø¯ÙŠØ«"},{"id":"J3FwQo0Cdyo","title":"Ù…ØªÙ‰ Ø³ÙŠØ¸Ù‡Ø± Ø§Ù„Ù…Ø³ÙŠØ­ Ø§Ù„Ø¯Ø¬Ø§Ù„ ÙˆÙƒÙŠÙ ØªÙ†Ø¬Ùˆ Ù…Ù† ÙØªÙ†ØªÙ‡ØŸ","publishedAt":"2025-02-04T18:16:56Z","duration":"PT19M56S","thumbnail":"https://i.ytimg.com/vi/J3FwQo0Cdyo/mqdefault.jpg","viewCount":"9714","playlistId":"PLEkQk5xrP-tlArtGpeLWaqNM7h7IDeAVC","playlistName":"Ø®Ø·Ø¨ Ø§Ù„Ø¬Ù…Ø¹Ø© Ø£.Ø¯. ÙŠØ³Ø±ÙŠ Ø¬Ø¨Ø±","category":"Ø®Ø·Ø¨"},{"id":"t4Xo4-eKY-A","title":"ğŸ”´ Majelis Sama Hadits Shahih Bukhari - PP Progresif Bumi Shalawat (Selasa, 4 Februari 2025 | Sesi 2)","publishedAt":"2025-02-04T23:43:40Z","duration":"PT2H29M57S","thumbnail":"https://i.ytimg.com/vi/t4Xo4-eKY-A/mqdefault.jpg","viewCount":"1427","playlistId":"PLEkQk5xrP-tkKcTKLIthzWrdXY7QaOjh_","playlistName":"Ù‚Ø±Ø§Ø¡Ø© ØµØ­ÙŠØ­ Ø§Ù„Ø¨Ø®Ø§Ø±ÙŠ ÙƒØ§Ù…Ù„Ø§Ù‹ ÙÙŠ Ø¥Ù†Ø¯ÙˆÙ†ÙŠØ³ÙŠØ§","category":"Ø­Ø¯ÙŠØ«"},{"id":"3-rAOyS3V18","title":"ğŸ”´ Majelis Sama' Hadits Shahih Bukhari - PP Progresif Bumi Shalawat (Rabu, 5  Februari 2025 | Sesi 3)","publishedAt":"2025-02-05T06:24:06Z","duration":"PT4H19M26S","thumbnail":"https://i.ytimg.com/vi/3-rAOyS3V18/mqdefault.jpg","viewCount":"3114","playlistId":"PLEkQk5xrP-tkKcTKLIthzWrdXY7QaOjh_","playlistName":"Ù‚Ø±Ø§Ø¡Ø© ØµØ­ÙŠØ­ Ø§Ù„Ø¨Ø®Ø§Ø±ÙŠ ÙƒØ§Ù…Ù„Ø§Ù‹ ÙÙŠ Ø¥Ù†Ø¯ÙˆÙ†ÙŠØ³ÙŠØ§","category":"Ø­Ø¯ÙŠØ«"},{"id":"ebjcIacZb84","title":"150- Ù…ØªÙ‰ ÙŠØ¬Ø¨ Ø§Ù„Ø¬Ù‡Ø§Ø¯ ÙÙŠ Ø³Ø¨ÙŠÙ„ Ø§Ù„Ù„Ù‡ØŸ","publishedAt":"2025-02-05T07:00:23Z","duration":"PT23M17S","thumbnail":"https://i.ytimg.com/vi/ebjcIacZb84/mqdefault.jpg","viewCount":"1013","playlistId":"PLEkQk5xrP-tkKprIuGrSdEuBSMsyg5We1","playlistName":"Ø´Ø±Ø­ Ù…Ø³Ù†Ø¯ Ø§Ù„Ø¥Ù…Ø§Ù… Ø£Ø­Ù…Ø¯ Ø¨Ù† Ø­Ù†Ø¨Ù„","category":"Ù…ØªÙ†ÙˆØ¹"}],"total":7670,"page":304,"pageSize":24,"totalPages":320}