{"items":[{"id":"yfPMx-hUlY0","title":"يَا غَادِيًا نَحْوَ الحَبِيبِ عَسَاكَ *** بَلِّغْ سَلَامِي إَذَا وَصَلْتَ هُنَاكَ","publishedAt":"2019-10-01T19:32:28Z","duration":"PT5M6S","thumbnail":"https://i.ytimg.com/vi/yfPMx-hUlY0/mqdefault.jpg","viewCount":"2315","playlistId":"PLEkQk5xrP-tlB8lmbwjAKR8KRgiykGKhb","playlistName":"حضرات يسرية ومدائح نبوية","category":"متنوع"},{"id":"Kml7DpxTrB4","title":"شرح البرهان في علوم القرآن - النوع ٧ - فی أسرار الفواتح والسور - الاستفتاح بحروف التهجي ـ فصل","publishedAt":"2019-10-01T23:17:49Z","duration":"PT16M","thumbnail":"https://i.ytimg.com/vi/Kml7DpxTrB4/mqdefault.jpg","viewCount":"667","playlistId":"PLEkQk5xrP-tnW3iBL7HkKziOFCFZbTlf0","playlistName":"شرح البرهان في علوم القرآن - أ.د. يسري جبر","category":"تفسير"},{"id":"H5NXIFze9uw","title":"شرح سنن الدارمي كتاب الرقاق من باب ٣٤","publishedAt":"2019-10-02T12:38:27Z","duration":"PT31M38S","thumbnail":"https://i.ytimg.com/vi/H5NXIFze9uw/mqdefault.jpg","viewCount":"419","playlistId":"PLEkQk5xrP-tmAg-FuWjY057X_h5NmGmAa","playlistName":"شرح سنن الدارمي - أ.د. يسري جبر (كاملا)","category":"متنوع"},{"id":"Hp69K7VC0h0","title":"شرح البرهان في علوم القرآن - النوع ٨ - فی خواتم السور","publishedAt":"2019-10-03T09:15:39Z","duration":"PT14M18S","thumbnail":"https://i.ytimg.com/vi/Hp69K7VC0h0/mqdefault.jpg","viewCount":"750","playlistId":"PLEkQk5xrP-tnW3iBL7HkKziOFCFZbTlf0","playlistName":"شرح البرهان في علوم القرآن - أ.د. يسري جبر","category":"تفسير"},{"id":"doBBE703GgA","title":"شرح سنن الدارمي كتاب الرقاق من باب ٤٥","publishedAt":"2019-10-03T19:32:04Z","duration":"PT26M50S","thumbnail":"https://i.ytimg.com/vi/doBBE703GgA/mqdefault.jpg","viewCount":"376","playlistId":"PLEkQk5xrP-tmAg-FuWjY057X_h5NmGmAa","playlistName":"شرح سنن الدارمي - أ.د. يسري جبر (كاملا)","category":"متنوع"},{"id":"vXK2PhD4UFA","title":"شرح البرهان في علوم القرآن - النوع ٩ - معرفة المكي والمدني وما نزل بمكة والمدينة وترتيب ذلك","publishedAt":"2019-10-04T09:40:17Z","duration":"PT18M38S","thumbnail":"https://i.ytimg.com/vi/vXK2PhD4UFA/mqdefault.jpg","viewCount":"852","playlistId":"PLEkQk5xrP-tnW3iBL7HkKziOFCFZbTlf0","playlistName":"شرح البرهان في علوم القرآن - أ.د. يسري جبر","category":"تفسير"},{"id":"AYviZseVQuI","title":"شرح سنن الدارمي كتاب الرقاق من باب ٦١","publishedAt":"2019-10-04T22:39:40Z","duration":"PT28M47S","thumbnail":"https://i.ytimg.com/vi/AYviZseVQuI/mqdefault.jpg","viewCount":"395","playlistId":"PLEkQk5xrP-tmAg-FuWjY057X_h5NmGmAa","playlistName":"شرح سنن الدارمي - أ.د. يسري جبر (كاملا)","category":"متنوع"},{"id":"ZUQmyGEbd2g","title":"شرح سنن الدارمي كتاب الرقاق من باب ٧٢","publishedAt":"2019-10-05T17:40:28Z","duration":"PT27M38S","thumbnail":"https://i.ytimg.com/vi/ZUQmyGEbd2g/mqdefault.jpg","viewCount":"449","playlistId":"PLEkQk5xrP-tmAg-FuWjY057X_h5NmGmAa","playlistName":"شرح سنن الدارمي - أ.د. يسري جبر (كاملا)","category":"متنوع"},{"id":"Q6A7xK5YmC4","title":"شرح سنن الدارمي كتاب الرقاق من باب ٨١","publishedAt":"2019-10-06T10:46:59Z","duration":"PT39M39S","thumbnail":"https://i.ytimg.com/vi/Q6A7xK5YmC4/mqdefault.jpg","viewCount":"402","playlistId":"PLEkQk5xrP-tmAg-FuWjY057X_h5NmGmAa","playlistName":"شرح سنن الدارمي - أ.د. يسري جبر (كاملا)","category":"متنوع"},{"id":"AZfieLu7sFs","title":"شرح البرهان في علوم القرآن - النوع ٩ - فصل","publishedAt":"2019-10-06T20:26:48Z","duration":"PT10M14S","thumbnail":"https://i.ytimg.com/vi/AZfieLu7sFs/mqdefault.jpg","viewCount":"600","playlistId":"PLEkQk5xrP-tnW3iBL7HkKziOFCFZbTlf0","playlistName":"شرح البرهان في علوم القرآن - أ.د. يسري جبر","category":"تفسير"},{"id":"5EBnGtL-GCM","title":"شرح صلاة القاسم لسيدي أبي الفيض محمد بن عبد الكبير الكِتَّانِي رضي الله عنه . أ.د. يسري جبر","publishedAt":"2019-10-07T10:41:47Z","duration":"PT27M16S","thumbnail":"https://i.ytimg.com/vi/5EBnGtL-GCM/mqdefault.jpg","viewCount":"7542","playlistId":"PLEkQk5xrP-tknLQLcWmVVpecUHkbu7cHh","playlistName":"شرح صلوات مختارة على النبي صلى الله عليه وآله وسلم  أ.د. يسري جبر","category":"سيرة"},{"id":"nPdD1_P5ce4","title":"شرح سنن الدارمي كتاب الرقاق من باب ١٠٠","publishedAt":"2019-10-08T11:56:16Z","duration":"PT38M49S","thumbnail":"https://i.ytimg.com/vi/nPdD1_P5ce4/mqdefault.jpg","viewCount":"422","playlistId":"PLEkQk5xrP-tmAg-FuWjY057X_h5NmGmAa","playlistName":"شرح سنن الدارمي - أ.د. يسري جبر (كاملا)","category":"متنوع"},{"id":"LzIgvVP3ceU","title":"شرح البرهان في علوم القرآن - النوع ٩ - ذكر ما نزل من القرآن بمكة ثم ترتيبه","publishedAt":"2019-10-08T20:30:47Z","duration":"PT16M54S","thumbnail":"https://i.ytimg.com/vi/LzIgvVP3ceU/mqdefault.jpg","viewCount":"623","playlistId":"PLEkQk5xrP-tnW3iBL7HkKziOFCFZbTlf0","playlistName":"شرح البرهان في علوم القرآن - أ.د. يسري جبر","category":"تفسير"},{"id":"LSn60rJEbUI","title":"شرح سنن الدارمي كتاب الفرائض من أوله","publishedAt":"2019-10-09T11:10:35Z","duration":"PT41M20S","thumbnail":"https://i.ytimg.com/vi/LSn60rJEbUI/mqdefault.jpg","viewCount":"402","playlistId":"PLEkQk5xrP-tmAg-FuWjY057X_h5NmGmAa","playlistName":"شرح سنن الدارمي - أ.د. يسري جبر (كاملا)","category":"متنوع"},{"id":"-L6Goc50zfI","title":"شرح البرهان في علوم القرآن - النوع ٩ - ما يشبه تنزيل المدينة في السور المكية","publishedAt":"2019-10-10T11:19:58Z","duration":"PT15M35S","thumbnail":"https://i.ytimg.com/vi/-L6Goc50zfI/mqdefault.jpg","viewCount":"616","playlistId":"PLEkQk5xrP-tnW3iBL7HkKziOFCFZbTlf0","playlistName":"شرح البرهان في علوم القرآن - أ.د. يسري جبر","category":"تفسير"},{"id":"crm8u38YLrI","title":"شرح سنن الدارمي كتاب الفرائض من باب ٦","publishedAt":"2019-10-10T18:41:05Z","duration":"PT30M","thumbnail":"https://i.ytimg.com/vi/crm8u38YLrI/mqdefault.jpg","viewCount":"362","playlistId":"PLEkQk5xrP-tmAg-FuWjY057X_h5NmGmAa","playlistName":"شرح سنن الدارمي - أ.د. يسري جبر (كاملا)","category":"متنوع"},{"id":"oQ8QzAhcYjs","title":"شرح البرهان في علوم القرآن - النوع ٩ - الآيات المدنيات في السور المكية","publishedAt":"2019-10-12T17:01:52Z","duration":"PT15M54S","thumbnail":"https://i.ytimg.com/vi/oQ8QzAhcYjs/mqdefault.jpg","viewCount":"569","playlistId":"PLEkQk5xrP-tnW3iBL7HkKziOFCFZbTlf0","playlistName":"شرح البرهان في علوم القرآن - أ.د. يسري جبر","category":"تفسير"},{"id":"XQq2-t2N7Ww","title":"شرح صحيح الإمام البخاري رضي الله تعالى عنه - كتابُ التَّمَنِّي     أ.د. يسري جبر","publishedAt":"2019-10-13T08:04:19Z","duration":"PT25M36S","thumbnail":"https://i.ytimg.com/vi/XQq2-t2N7Ww/mqdefault.jpg","viewCount":"420","playlistId":"PLEkQk5xrP-tmJuzaj4GWRenFoFx9gdbFX","playlistName":"شرح كتاب صحيح الإمام البخاري رضي الله تعالى عنه   أ.د. يسرى جبر","category":"حديث"},{"id":"do7Z0GoZGCk","title":"الحبُّ والعِرفانُ لأهلِ (بقيع مصر) بالبهنسا    أ.د. يسري جبر","publishedAt":"2019-10-13T14:33:26Z","duration":"PT2M17S","thumbnail":"https://i.ytimg.com/vi/do7Z0GoZGCk/mqdefault.jpg","viewCount":"1146","playlistId":"PLEkQk5xrP-tm8ZIu74nTOZN9KJUJu416J","playlistName":"مقاطع مُهمَّة (يُسريَّات) أ.د. يسري جبر","category":"متنوع"},{"id":"ag0ALoymNqM","title":"قُطْبُ الأَقْطَابِ بصوت الشيخ / عبد الله الجاوي.","publishedAt":"2019-10-13T18:28:12Z","duration":"PT9M48S","thumbnail":"https://i.ytimg.com/vi/ag0ALoymNqM/mqdefault.jpg","viewCount":"3201","playlistId":"PLEkQk5xrP-tlB8lmbwjAKR8KRgiykGKhb","playlistName":"حضرات يسرية ومدائح نبوية","category":"متنوع"},{"id":"ZmY2_EAY3Uw","title":"شرح سنن الدارمي كتاب الفرائض من باب ١٠","publishedAt":"2019-10-14T10:29:16Z","duration":"PT30M57S","thumbnail":"https://i.ytimg.com/vi/ZmY2_EAY3Uw/mqdefault.jpg","viewCount":"217","playlistId":"PLEkQk5xrP-tmAg-FuWjY057X_h5NmGmAa","playlistName":"شرح سنن الدارمي - أ.د. يسري جبر (كاملا)","category":"متنوع"},{"id":"Zuv_O-ARMa4","title":"شرح البرهان في علوم القرآن - النوع ٩ - ما حمل من مكة إلى المدينة","publishedAt":"2019-10-14T16:48:22Z","duration":"PT10M25S","thumbnail":"https://i.ytimg.com/vi/Zuv_O-ARMa4/mqdefault.jpg","viewCount":"465","playlistId":"PLEkQk5xrP-tnW3iBL7HkKziOFCFZbTlf0","playlistName":"شرح البرهان في علوم القرآن - أ.د. يسري جبر","category":"تفسير"},{"id":"hv6NbxdJ76U","title":"شرح سنن الدارمي كتاب الفرائض من باب ١٨","publishedAt":"2019-10-14T22:56:05Z","duration":"PT30M51S","thumbnail":"https://i.ytimg.com/vi/hv6NbxdJ76U/mqdefault.jpg","viewCount":"241","playlistId":"PLEkQk5xrP-tmAg-FuWjY057X_h5NmGmAa","playlistName":"شرح سنن الدارمي - أ.د. يسري جبر (كاملا)","category":"متنوع"},{"id":"ppamWGHHnqk","title":"شرح البرهان في علوم القرآن - النوع ١٠ - معرفة أول ما نزل من القرآن وآخر ما نزل","publishedAt":"2019-10-15T10:06:18Z","duration":"PT27M50S","thumbnail":"https://i.ytimg.com/vi/ppamWGHHnqk/mqdefault.jpg","viewCount":"1018","playlistId":"PLEkQk5xrP-tnW3iBL7HkKziOFCFZbTlf0","playlistName":"شرح البرهان في علوم القرآن - أ.د. يسري جبر","category":"تفسير"}],"total":7675,"page":154,"pageSize":24,"totalPages":320}