{"items":[{"id":"9TEms_yh-E0","title":"168- دعاء الكرب - شرح مسند الإمام أحمد رضي الله تعالى عنه","publishedAt":"2025-09-17T04:15:01Z","duration":"PT18M56S","thumbnail":"https://i.ytimg.com/vi/9TEms_yh-E0/mqdefault.jpg","viewCount":"646","playlistId":"PLEkQk5xrP-tkKprIuGrSdEuBSMsyg5We1","playlistName":"شرح مسند الإمام أحمد بن حنبل","category":"متنوع"},{"id":"RZDsLB_gfXA","title":"رحلة في الكمالات المحمدية","publishedAt":"2025-09-17T18:17:33Z","duration":"PT12M45S","thumbnail":"https://i.ytimg.com/vi/RZDsLB_gfXA/mqdefault.jpg","viewCount":"1238","playlistId":"PLEkQk5xrP-tlArtGpeLWaqNM7h7IDeAVC","playlistName":"خطب الجمعة أ.د. يسري جبر","category":"خطب"},{"id":"oa3PFwEC17s","title":"300- الأسماء والكنى والألقاب في القرآن الكريم | سيدنا شعيب عليه السلام - شرح الإتقان في علوم القرآن","publishedAt":"2025-09-18T04:15:02Z","duration":"PT39M30S","thumbnail":"https://i.ytimg.com/vi/oa3PFwEC17s/mqdefault.jpg","viewCount":"739","playlistId":"PLEkQk5xrP-tlPw10KGJKagu7zm4Ry2Tge","playlistName":"شرح الإتقان في علوم القرآن","category":"تفسير"},{"id":"xthaH1I4aBc","title":"لماذا يختلف الكثير من العلماء مع الصوفية؟","publishedAt":"2025-09-18T17:37:12Z","duration":"PT17M45S","thumbnail":"https://i.ytimg.com/vi/xthaH1I4aBc/mqdefault.jpg","viewCount":"2477","playlistId":"PLEkQk5xrP-tmsEDdkkXMM1ca2-AquQYad","playlistName":"شرح كتاب مدارج الحقيقة في الرابطة عند أهل الطريقة","category":"متنوع"},{"id":"ywauUyoPVv4","title":"169- حكم أولاد المشركين - شرح مسند الإمام أحمد رضي الله تعالى عنه","publishedAt":"2025-09-19T04:30:49Z","duration":"PT15M49S","thumbnail":"https://i.ytimg.com/vi/ywauUyoPVv4/mqdefault.jpg","viewCount":"486","playlistId":"PLEkQk5xrP-tkKprIuGrSdEuBSMsyg5We1","playlistName":"شرح مسند الإمام أحمد بن حنبل","category":"متنوع"},{"id":"aBW4ma4u6iQ","title":"كيف تعرف نبيك؟ | سيرة النبي ﷺ كاملة","publishedAt":"2025-09-19T19:00:00Z","duration":"PT2H10M25S","thumbnail":"https://i.ytimg.com/vi/aBW4ma4u6iQ/mqdefault.jpg","viewCount":"4684","playlistId":"PLEkQk5xrP-tm8ZIu74nTOZN9KJUJu416J","playlistName":"مقاطع مُهمَّة (يُسريَّات) أ.د. يسري جبر","category":"متنوع"},{"id":"oo_NF_ndYQE","title":"كيف أواجه صعوبات الحياة وأتغلب على الضغوطات النفسية؟","publishedAt":"2025-09-20T19:00:43Z","duration":"PT14M35S","thumbnail":"https://i.ytimg.com/vi/oo_NF_ndYQE/mqdefault.jpg","viewCount":"11571","playlistId":"PLEkQk5xrP-tm8ZIu74nTOZN9KJUJu416J","playlistName":"مقاطع مُهمَّة (يُسريَّات) أ.د. يسري جبر","category":"متنوع"},{"id":"guxUDlTWSPc","title":"فضل حضور مجالس الذكر","publishedAt":"2025-09-22T20:29:53Z","duration":"PT20M58S","thumbnail":"https://i.ytimg.com/vi/guxUDlTWSPc/mqdefault.jpg","viewCount":"2031","playlistId":"PLEkQk5xrP-tmsEDdkkXMM1ca2-AquQYad","playlistName":"شرح كتاب مدارج الحقيقة في الرابطة عند أهل الطريقة","category":"متنوع"},{"id":"jbhf5ASDXcE","title":"301- أسماء الملائكة - شرح الإتقان في علوم القرآن","publishedAt":"2025-09-25T09:01:14Z","duration":"PT32M22S","thumbnail":"https://i.ytimg.com/vi/jbhf5ASDXcE/mqdefault.jpg","viewCount":"1023","playlistId":"PLEkQk5xrP-tlPw10KGJKagu7zm4Ry2Tge","playlistName":"شرح الإتقان في علوم القرآن","category":"تفسير"},{"id":"jMHYUl2p8wU","title":"كيف نرد على من يسأل أين الله؟","publishedAt":"2025-09-25T18:58:13Z","duration":"PT19M8S","thumbnail":"https://i.ytimg.com/vi/jMHYUl2p8wU/mqdefault.jpg","viewCount":"2539","playlistId":"PLEkQk5xrP-tlArtGpeLWaqNM7h7IDeAVC","playlistName":"خطب الجمعة أ.د. يسري جبر","category":"خطب"},{"id":"dWz81uEoJo0","title":"ابني بيسأل فين ربنا؟ إزاي أرد عليه صح؟","publishedAt":"2025-09-26T19:45:25Z","duration":"PT25M42S","thumbnail":"https://i.ytimg.com/vi/dWz81uEoJo0/mqdefault.jpg","viewCount":"2572","playlistId":"PLEkQk5xrP-tlArtGpeLWaqNM7h7IDeAVC","playlistName":"خطب الجمعة أ.د. يسري جبر","category":"خطب"},{"id":"NRfPLh4XuX8","title":"إجازة حديث الرحمة المسلسل بالأولية","publishedAt":"2025-09-27T19:30:02Z","duration":"PT4M29S","thumbnail":"https://i.ytimg.com/vi/NRfPLh4XuX8/mqdefault.jpg","viewCount":"795","playlistId":"PLEkQk5xrP-tmsEDdkkXMM1ca2-AquQYad","playlistName":"شرح كتاب مدارج الحقيقة في الرابطة عند أهل الطريقة","category":"متنوع"},{"id":"KB0zJnrYeGM","title":"170- ابتسم النبي ﷺ ورضي عن أدب الصحابة معه ﷺ - شرح مسند الإمام أحمد رضي الله تعالى عنه","publishedAt":"2025-09-28T09:00:25Z","duration":"PT14M16S","thumbnail":"https://i.ytimg.com/vi/KB0zJnrYeGM/mqdefault.jpg","viewCount":"535","playlistId":"PLEkQk5xrP-tkKprIuGrSdEuBSMsyg5We1","playlistName":"شرح مسند الإمام أحمد بن حنبل","category":"متنوع"},{"id":"-uZ4RCZ7u4A","title":"وصايا ونصائح للدخول في طريق التصوف","publishedAt":"2025-09-28T18:02:36Z","duration":"PT22M20S","thumbnail":"https://i.ytimg.com/vi/-uZ4RCZ7u4A/mqdefault.jpg","viewCount":"2230","playlistId":"PLEkQk5xrP-tmsEDdkkXMM1ca2-AquQYad","playlistName":"شرح كتاب مدارج الحقيقة في الرابطة عند أهل الطريقة","category":"متنوع"},{"id":"XrFDwHQrOyY","title":"302- أسماء البلاد والأمكنة - شرح الإتقان في علوم القرآن","publishedAt":"2025-09-29T09:00:48Z","duration":"PT25M5S","thumbnail":"https://i.ytimg.com/vi/XrFDwHQrOyY/mqdefault.jpg","viewCount":"415","playlistId":"PLEkQk5xrP-tlPw10KGJKagu7zm4Ry2Tge","playlistName":"شرح الإتقان في علوم القرآن","category":"تفسير"},{"id":"ribnonDgVto","title":"كيف تجعل حب آل البيت طريقك إلى الجنة؟","publishedAt":"2025-09-29T16:30:31Z","duration":"PT8M32S","thumbnail":"https://i.ytimg.com/vi/ribnonDgVto/mqdefault.jpg","viewCount":"2111","playlistId":"PLEkQk5xrP-tlArtGpeLWaqNM7h7IDeAVC","playlistName":"خطب الجمعة أ.د. يسري جبر","category":"خطب"},{"id":"E8R_tod_uQQ","title":"ماذا حدث في فتنة الخوارج وقصة استشهاد سيدنا علي بن أبي طالب؟","publishedAt":"2025-09-30T18:00:33Z","duration":"PT28M10S","thumbnail":"https://i.ytimg.com/vi/E8R_tod_uQQ/mqdefault.jpg","viewCount":"8692","playlistId":"PLEkQk5xrP-tlArtGpeLWaqNM7h7IDeAVC","playlistName":"خطب الجمعة أ.د. يسري جبر","category":"خطب"},{"id":"ZOpuLIRgu0I","title":"171- نعمتان مغبون فيهما كثير من الناس الصحة والفراغ - شرح مسند الإمام أحمد رضي الله تعالى عنه","publishedAt":"2025-10-01T09:00:56Z","duration":"PT23M19S","thumbnail":"https://i.ytimg.com/vi/ZOpuLIRgu0I/mqdefault.jpg","viewCount":"752","playlistId":"PLEkQk5xrP-tkKprIuGrSdEuBSMsyg5We1","playlistName":"شرح مسند الإمام أحمد بن حنبل","category":"متنوع"},{"id":"l1YjqxnHeYM","title":"كيف أخرج حب الدنيا والتعلق بها من قلبي؟","publishedAt":"2025-10-01T18:31:00Z","duration":"PT17M45S","thumbnail":"https://i.ytimg.com/vi/l1YjqxnHeYM/mqdefault.jpg","viewCount":"2788","playlistId":"PLEkQk5xrP-tlArtGpeLWaqNM7h7IDeAVC","playlistName":"خطب الجمعة أ.د. يسري جبر","category":"خطب"},{"id":"mz66IJ65Ymw","title":"كيف تختار صديقك؟ | معايير اختيار الأصدقاء","publishedAt":"2025-10-02T17:44:39Z","duration":"PT13M51S","thumbnail":"https://i.ytimg.com/vi/mz66IJ65Ymw/mqdefault.jpg","viewCount":"1362","playlistId":"PLEkQk5xrP-tlArtGpeLWaqNM7h7IDeAVC","playlistName":"خطب الجمعة أ.د. يسري جبر","category":"خطب"},{"id":"gKZYc3GWVJA","title":"ما حكم الكلام أثناء خطبة الجمعة؟","publishedAt":"2025-10-03T18:00:31Z","duration":"PT11M33S","thumbnail":"https://i.ytimg.com/vi/gKZYc3GWVJA/mqdefault.jpg","viewCount":"947","playlistId":"PLEkQk5xrP-tkGXuZ9atE3k_7it12rUPTs","playlistName":"أسئلة المتابعين","category":"متنوع"},{"id":"1bKFmHd5288","title":"‫كيف ترضى بقضاء الله وقدره؟","publishedAt":"2025-10-04T18:20:22Z","duration":"PT11M6S","thumbnail":"https://i.ytimg.com/vi/1bKFmHd5288/mqdefault.jpg","viewCount":"1938","playlistId":"PLEkQk5xrP-tlArtGpeLWaqNM7h7IDeAVC","playlistName":"خطب الجمعة أ.د. يسري جبر","category":"خطب"},{"id":"dSRxVX5KQIk","title":"كيف تشكر الله على نعمه وتحافظ عليها؟","publishedAt":"2025-10-05T19:15:41Z","duration":"PT16M17S","thumbnail":"https://i.ytimg.com/vi/dSRxVX5KQIk/mqdefault.jpg","viewCount":"1702","playlistId":"PLEkQk5xrP-tlArtGpeLWaqNM7h7IDeAVC","playlistName":"خطب الجمعة أ.د. يسري جبر","category":"خطب"},{"id":"hwuNKz9YNYQ","title":"كيف تنظم وقتك بطريقة نبوية؟ | أفضل نظام لإدارة الوقت","publishedAt":"2025-10-06T17:55:25Z","duration":"PT11M22S","thumbnail":"https://i.ytimg.com/vi/hwuNKz9YNYQ/mqdefault.jpg","viewCount":"4555","playlistId":"PLEkQk5xrP-tlArtGpeLWaqNM7h7IDeAVC","playlistName":"خطب الجمعة أ.د. يسري جبر","category":"خطب"}],"total":7675,"page":316,"pageSize":24,"totalPages":320}