{"items":[{"id":"eynk7pNOi6k","title":"55- Ø£Ø«Ø± ØµØ­Ø¨Ø© Ø§Ù„ØµØ§Ù„Ø­ÙŠÙ† ÙÙŠ Ø§Ù„Ù‚Ù„Ø¨Â | Ø´Ø±Ø­ Ø³Ù†Ù† Ø§Ù„Ø¥Ù…Ø§Ù… Ø§Ù„Ø¯Ø§Ø± Ù‚Ø·Ù†ÙŠ","publishedAt":"2025-05-10T09:01:03Z","duration":"PT38M57S","thumbnail":"https://i.ytimg.com/vi/eynk7pNOi6k/mqdefault.jpg","viewCount":"1163","playlistId":"PLEkQk5xrP-tk_MCBZ706ORCw6gFtFyaGj","playlistName":"Ø´Ø±Ø­ Ø³Ù†Ù† Ø§Ù„Ø¥Ù…Ø§Ù… Ø§Ù„Ø¯Ø§Ø±Ù‚Ø·Ù†ÙŠ","category":"Ù…ØªÙ†ÙˆØ¹"},{"id":"9zlafNifljE","title":"ÙƒÙŠÙÙŠØ© Ø­Ù„ Ø§Ù„Ø®Ù„Ø§ÙØ§Øª Ø§Ù„Ø²ÙˆØ¬ÙŠØ©ØŸ","publishedAt":"2025-05-10T18:00:14Z","duration":"PT13M30S","thumbnail":"https://i.ytimg.com/vi/9zlafNifljE/mqdefault.jpg","viewCount":"50","playlistId":"PLEkQk5xrP-tkGXuZ9atE3k_7it12rUPTs","playlistName":"Ø£Ø³Ø¦Ù„Ø© Ø§Ù„Ù…ØªØ§Ø¨Ø¹ÙŠÙ†","category":"Ù…ØªÙ†ÙˆØ¹"},{"id":"oxEF0Phkcv0","title":"ÙƒÙŠÙ ØªØªØ®Ø·Ù‰ Ø§Ù„Ø®Ù„Ø§ÙØ§Øª Ø§Ù„Ø²ÙˆØ¬ÙŠØ© Ø¨Ø£ÙØ¶Ù„ Ø·Ø±ÙŠÙ‚Ø©ØŸ","publishedAt":"2025-05-10T19:35:11Z","duration":"PT13M30S","thumbnail":"https://i.ytimg.com/vi/oxEF0Phkcv0/mqdefault.jpg","viewCount":"3968","playlistId":"PLEkQk5xrP-tkGXuZ9atE3k_7it12rUPTs","playlistName":"Ø£Ø³Ø¦Ù„Ø© Ø§Ù„Ù…ØªØ§Ø¨Ø¹ÙŠÙ†","category":"Ù…ØªÙ†ÙˆØ¹"},{"id":"AnaQAgRVkY0","title":"Ø§Ù„Ø±Ø¯ Ø¹Ù„Ù‰ Ù…Ù† ÙŠÙ†ÙƒØ± Ø£Ù† Ø§Ù„Ù†Ø¨ÙŠï·º Ù‡Ùˆ Ø£ÙˆÙ„ Ø®Ù„Ù‚ Ø§Ù„Ù„Ù‡!","publishedAt":"2025-05-11T17:00:11Z","duration":"PT9M38S","thumbnail":"https://i.ytimg.com/vi/AnaQAgRVkY0/mqdefault.jpg","viewCount":"3330","playlistId":"PLEkQk5xrP-tkGXuZ9atE3k_7it12rUPTs","playlistName":"Ø£Ø³Ø¦Ù„Ø© Ø§Ù„Ù…ØªØ§Ø¨Ø¹ÙŠÙ†","category":"Ù…ØªÙ†ÙˆØ¹"},{"id":"jjYy9_fxIwM","title":"42- Ù…Ø§ Ø§Ù„ÙØ±Ù‚ Ø¨ÙŠÙ† Ø·Ù‡Ø§Ø±Ø© Ø§Ù„Ø¸Ø§Ù‡Ø± ÙˆØ§Ù„Ø¨Ø§Ø·Ù†ØŸ | Ø´Ø±Ø­ Ù…Ø®ØªØµØ± Ø§Ù„ÙØªÙˆØ­Ø§Øª Ø§Ù„Ù…ÙƒÙŠØ©","publishedAt":"2025-05-12T17:00:56Z","duration":"PT42M43S","thumbnail":"https://i.ytimg.com/vi/jjYy9_fxIwM/mqdefault.jpg","viewCount":"1819","playlistId":"PLEkQk5xrP-tnpkdZki6rPTtMak1bnI5g-","playlistName":"Ø´Ø±Ø­ ÙƒØªØ§Ø¨ Ù…Ø®ØªØµØ± Ø§Ù„ÙØªÙˆØ­Ø§Øª Ø§Ù„Ù…ÙƒÙŠØ© Ø§Ù„Ù…Ø³Ù…Ù‰ Ù„ÙˆØ§Ù‚Ø­ Ø§Ù„Ø£Ù†ÙˆØ§Ø± Ø§Ù„Ù‚Ø¯Ø³ÙŠØ©","category":"Ù…ØªÙ†ÙˆØ¹"},{"id":"xFMZaRsyAPU","title":"Ù‡Ù„ ÙŠÙ…ÙƒÙ† Ù„ÙØ¹Ù„ Ø§Ù„Ù†Ø¨ÙŠ ï·º Ø£Ù† ÙŠØ³Ø¨Ù‚ ÙØ¹Ù„ Ø§Ù„Ù„Ù‡ØŸ","publishedAt":"2025-05-13T18:31:09Z","duration":"PT8M10S","thumbnail":"https://i.ytimg.com/vi/xFMZaRsyAPU/mqdefault.jpg","viewCount":"2952","playlistId":"PLEkQk5xrP-tkGXuZ9atE3k_7it12rUPTs","playlistName":"Ø£Ø³Ø¦Ù„Ø© Ø§Ù„Ù…ØªØ§Ø¨Ø¹ÙŠÙ†","category":"Ù…ØªÙ†ÙˆØ¹"},{"id":"uCzlM-1UFhM","title":"ÙƒÙŠÙ ØªØ­Ù…ÙŠ Ø£Ø¨Ù†Ø§Ø¡Ùƒ Ù…Ù† Ø§Ù„Ø­Ø³Ø¯ØŸ","publishedAt":"2025-05-14T18:00:48Z","duration":"PT9M2S","thumbnail":"https://i.ytimg.com/vi/uCzlM-1UFhM/mqdefault.jpg","viewCount":"18626","playlistId":"PLEkQk5xrP-tkGXuZ9atE3k_7it12rUPTs","playlistName":"Ø£Ø³Ø¦Ù„Ø© Ø§Ù„Ù…ØªØ§Ø¨Ø¹ÙŠÙ†","category":"Ù…ØªÙ†ÙˆØ¹"},{"id":"wNxfUwj0vc4","title":"18- Ù…Ø§ Ø­ÙƒÙ… â€Ø§Ù„Ø°ÙƒØ± Ø¨Ø§Ù„Ù„Ø³Ø§Ù† Ø¨Ø¯ÙˆÙ† Ø­Ø¶ÙˆØ± Ø§Ù„Ù‚Ù„Ø¨ØŸ | Ø´Ø±Ø­ Ø§Ù„Ø­ÙƒÙ… Ø§Ù„Ø¹Ø·Ø§Ø¦ÙŠØ©","publishedAt":"2025-05-15T17:01:12Z","duration":"PT42M50S","thumbnail":"https://i.ytimg.com/vi/wNxfUwj0vc4/mqdefault.jpg","viewCount":"4760","playlistId":"PLEkQk5xrP-tmf5ToOwmW-q0JwxkapbrMN","playlistName":"Ø´Ø±Ø­ ÙƒØªØ§Ø¨ Ø¥Ø±Ø´Ø§Ø¯ Ø§Ù„Ø¨Ø±ÙŠØ© Ø¥Ù„Ù‰ Ø¨Ø¹Ø¶ Ù…Ø¹Ø§Ù†ÙŠ Ø§Ù„Ø­ÙƒÙ… Ø§Ù„Ø¹Ø·Ø§Ø¦ÙŠØ©","category":"Ù…ØªÙ†ÙˆØ¹"},{"id":"X9IA-dm_mB8","title":"56- ÙƒÙŠÙ ØªØ¹Ø§Ù„Ø¬ Ø¢Ù„Ø§Ù… Ø§Ù„Ø¸Ù‡Ø± Ø¨Ø§Ù„Ø³Ù†Ø© Ø§Ù„Ù†Ø¨ÙˆÙŠØ©ØŸÂ | Ø´Ø±Ø­ Ø³Ù†Ù† Ø§Ù„Ø¥Ù…Ø§Ù… Ø§Ù„Ø¯Ø§Ø± Ù‚Ø·Ù†ÙŠ","publishedAt":"2025-05-17T09:00:57Z","duration":"PT41M54S","thumbnail":"https://i.ytimg.com/vi/X9IA-dm_mB8/mqdefault.jpg","viewCount":"2006","playlistId":"PLEkQk5xrP-tk_MCBZ706ORCw6gFtFyaGj","playlistName":"Ø´Ø±Ø­ Ø³Ù†Ù† Ø§Ù„Ø¥Ù…Ø§Ù… Ø§Ù„Ø¯Ø§Ø±Ù‚Ø·Ù†ÙŠ","category":"Ù…ØªÙ†ÙˆØ¹"},{"id":"L5RFsLNrvoM","title":"19- Ù…Ø§ Ù‡Ùˆ Ø§Ù„ÙˆØ§Ø±Ø¯ ÙˆÙƒÙŠÙ ÙŠØªØ¹Ø§Ù…Ù„ Ø§Ù„Ù…Ø±ÙŠØ¯ Ù…Ø¹ Ø§Ù„ÙˆØ§Ø±Ø¯Ø§ØªØŸ | Ø´Ø±Ø­ Ø§Ù„Ø­ÙƒÙ… Ø§Ù„Ø¹Ø·Ø§Ø¦ÙŠØ©","publishedAt":"2025-05-18T19:24:31Z","duration":"PT49M53S","thumbnail":"https://i.ytimg.com/vi/L5RFsLNrvoM/mqdefault.jpg","viewCount":"4155","playlistId":"PLEkQk5xrP-tmf5ToOwmW-q0JwxkapbrMN","playlistName":"Ø´Ø±Ø­ ÙƒØªØ§Ø¨ Ø¥Ø±Ø´Ø§Ø¯ Ø§Ù„Ø¨Ø±ÙŠØ© Ø¥Ù„Ù‰ Ø¨Ø¹Ø¶ Ù…Ø¹Ø§Ù†ÙŠ Ø§Ù„Ø­ÙƒÙ… Ø§Ù„Ø¹Ø·Ø§Ø¦ÙŠØ©","category":"Ù…ØªÙ†ÙˆØ¹"},{"id":"TXrGjefO2NE","title":"43- Ù…Ø§Ø°Ø§ ØªÙØ¹Ù„ Ø§Ø°Ø§ Ø§Ø®ØªÙ„Ù Ø§Ù„Ø¹Ù„Ù…Ø§Ø¡ ÙÙŠ Ø§Ù„ÙØªØ§ÙˆÙ‰ØŸ | Ø´Ø±Ø­ Ù…Ø®ØªØµØ± Ø§Ù„ÙØªÙˆØ­Ø§Øª Ø§Ù„Ù…ÙƒÙŠØ©","publishedAt":"2025-05-19T18:00:34Z","duration":"PT51M26S","thumbnail":"https://i.ytimg.com/vi/TXrGjefO2NE/mqdefault.jpg","viewCount":"2109","playlistId":"PLEkQk5xrP-tnpkdZki6rPTtMak1bnI5g-","playlistName":"Ø´Ø±Ø­ ÙƒØªØ§Ø¨ Ù…Ø®ØªØµØ± Ø§Ù„ÙØªÙˆØ­Ø§Øª Ø§Ù„Ù…ÙƒÙŠØ© Ø§Ù„Ù…Ø³Ù…Ù‰ Ù„ÙˆØ§Ù‚Ø­ Ø§Ù„Ø£Ù†ÙˆØ§Ø± Ø§Ù„Ù‚Ø¯Ø³ÙŠØ©","category":"Ù…ØªÙ†ÙˆØ¹"},{"id":"Tl9gm7DaNAM","title":"Ø®Ø·Ø± Ø§Ù„ÙÙƒØ± Ø§Ù„ÙˆÙ‡Ø§Ø¨ÙŠ Ø¹Ù„Ù‰ Ø§Ù„Ù…Ø³Ù„Ù…ÙŠÙ†!","publishedAt":"2025-05-20T19:50:48Z","duration":"PT43M","thumbnail":"https://i.ytimg.com/vi/Tl9gm7DaNAM/mqdefault.jpg","viewCount":"36521","playlistId":"PLEkQk5xrP-tlArtGpeLWaqNM7h7IDeAVC","playlistName":"Ø®Ø·Ø¨ Ø§Ù„Ø¬Ù…Ø¹Ø© Ø£.Ø¯. ÙŠØ³Ø±ÙŠ Ø¬Ø¨Ø±","category":"Ø®Ø·Ø¨"},{"id":"_0E6A6EoxXI","title":"ÙƒÙŠÙ ØªØ­Ù…ÙŠ Ù†ÙØ³Ùƒ Ù…Ù† Ø£ÙˆØ­Ø§Ù„ Ø§Ù„ØªÙˆØ­ÙŠØ¯ØŸ","publishedAt":"2025-05-21T17:00:55Z","duration":"PT8M40S","thumbnail":"https://i.ytimg.com/vi/_0E6A6EoxXI/mqdefault.jpg","viewCount":"5054","playlistId":"PLEkQk5xrP-tlArtGpeLWaqNM7h7IDeAVC","playlistName":"Ø®Ø·Ø¨ Ø§Ù„Ø¬Ù…Ø¹Ø© Ø£.Ø¯. ÙŠØ³Ø±ÙŠ Ø¬Ø¨Ø±","category":"Ø®Ø·Ø¨"},{"id":"QVu_UZULqqQ","title":"Ø§Ù„Ø±Ø¯ Ø¹Ù„Ù‰ Ù…Ù† ÙŠÙ†ÙƒØ± Ø®ØµÙˆØµÙŠØ© Ø§Ù„Ù†Ø¨ÙŠ ï·º","publishedAt":"2025-05-22T17:40:04Z","duration":"PT17M18S","thumbnail":"https://i.ytimg.com/vi/QVu_UZULqqQ/mqdefault.jpg","viewCount":"2804","playlistId":"PLEkQk5xrP-tlArtGpeLWaqNM7h7IDeAVC","playlistName":"Ø®Ø·Ø¨ Ø§Ù„Ø¬Ù…Ø¹Ø© Ø£.Ø¯. ÙŠØ³Ø±ÙŠ Ø¬Ø¨Ø±","category":"Ø®Ø·Ø¨"},{"id":"wgVd-VBs9Dw","title":"Ø®Ø·Ø¨Ø© Ø§Ù„Ø¬Ù…Ø¹Ø© | Ù…Ø³Ø¬Ø¯ Ù‡ÙˆÙ†Ø³Ù„Ùˆ Ù„Ù†Ø¯Ù†","publishedAt":"2025-05-23T14:39:08Z","duration":"PT24M1S","thumbnail":"https://i.ytimg.com/vi/wgVd-VBs9Dw/mqdefault.jpg","viewCount":"3185","playlistId":"PLEkQk5xrP-tlArtGpeLWaqNM7h7IDeAVC","playlistName":"Ø®Ø·Ø¨ Ø§Ù„Ø¬Ù…Ø¹Ø© Ø£.Ø¯. ÙŠØ³Ø±ÙŠ Ø¬Ø¨Ø±","category":"Ø®Ø·Ø¨"},{"id":"VwyF9qFoF_A","title":"44- ÙƒÙ„ Ù…Ø§ ØªØ±ÙŠØ¯ Ù…Ø¹Ø±ÙØªÙ‡ Ø¹Ù† Ø§Ù„Ø·Ù‡Ø§Ø±Ø© ÙˆØ§Ù„Ø§ØºØªØ³Ø§Ù„ | Ø´Ø±Ø­ Ù…Ø®ØªØµØ± Ø§Ù„ÙØªÙˆØ­Ø§Øª Ø§Ù„Ù…ÙƒÙŠØ©","publishedAt":"2025-05-24T18:07:48Z","duration":"PT52M39S","thumbnail":"https://i.ytimg.com/vi/VwyF9qFoF_A/mqdefault.jpg","viewCount":"2052","playlistId":"PLEkQk5xrP-tnpkdZki6rPTtMak1bnI5g-","playlistName":"Ø´Ø±Ø­ ÙƒØªØ§Ø¨ Ù…Ø®ØªØµØ± Ø§Ù„ÙØªÙˆØ­Ø§Øª Ø§Ù„Ù…ÙƒÙŠØ© Ø§Ù„Ù…Ø³Ù…Ù‰ Ù„ÙˆØ§Ù‚Ø­ Ø§Ù„Ø£Ù†ÙˆØ§Ø± Ø§Ù„Ù‚Ø¯Ø³ÙŠØ©","category":"Ù…ØªÙ†ÙˆØ¹"},{"id":"2RRMFn04TMo","title":"ÙƒÙŠÙ ÙŠÙƒÙˆÙ† Ø§Ù„Ù†Ø¨ÙŠ ï·º Ù‚Ø¯ÙˆØªÙƒ ÙÙŠ Ø­ÙŠØ§ØªÙƒØŸ","publishedAt":"2025-05-25T18:23:38Z","duration":"PT10M8S","thumbnail":"https://i.ytimg.com/vi/2RRMFn04TMo/mqdefault.jpg","viewCount":"2217","playlistId":"PLEkQk5xrP-tlArtGpeLWaqNM7h7IDeAVC","playlistName":"Ø®Ø·Ø¨ Ø§Ù„Ø¬Ù…Ø¹Ø© Ø£.Ø¯. ÙŠØ³Ø±ÙŠ Ø¬Ø¨Ø±","category":"Ø®Ø·Ø¨"},{"id":"Vc5Ea7OKFck","title":"Ø£ÙØ¶Ù„ Ø§Ù„Ø£Ø¹Ù…Ø§Ù„ ÙÙŠ Ø§Ù„Ø¹Ø´Ø± Ø§Ù„Ø£ÙˆØ§Ø¦Ù„ Ù…Ù† Ø°ÙŠ Ø§Ù„Ø­Ø¬Ø©","publishedAt":"2025-05-26T20:19:42Z","duration":"PT21M48S","thumbnail":"https://i.ytimg.com/vi/Vc5Ea7OKFck/mqdefault.jpg","viewCount":"19595","playlistId":"PLEkQk5xrP-tlArtGpeLWaqNM7h7IDeAVC","playlistName":"Ø®Ø·Ø¨ Ø§Ù„Ø¬Ù…Ø¹Ø© Ø£.Ø¯. ÙŠØ³Ø±ÙŠ Ø¬Ø¨Ø±","category":"Ø®Ø·Ø¨"},{"id":"wFfvwzlGx-o","title":"ÙƒÙŠÙ ØªØºØªÙ†Ù… Ø§Ù„Ø¹Ø´Ø± Ø§Ù„Ø£ÙˆØ§Ø¦Ù„ Ù…Ù† Ø°ÙŠ Ø§Ù„Ø­Ø¬Ø©ØŸ","publishedAt":"2025-05-27T17:01:23Z","duration":"PT8M51S","thumbnail":"https://i.ytimg.com/vi/wFfvwzlGx-o/mqdefault.jpg","viewCount":"4361","playlistId":"PLEkQk5xrP-tlArtGpeLWaqNM7h7IDeAVC","playlistName":"Ø®Ø·Ø¨ Ø§Ù„Ø¬Ù…Ø¹Ø© Ø£.Ø¯. ÙŠØ³Ø±ÙŠ Ø¬Ø¨Ø±","category":"Ø®Ø·Ø¨"},{"id":"5zdVVADYWfA","title":"Ø¹Ù„ÙˆÙ… Ø§Ù„Ø·Ø§Ù‚Ø© Ø¨ÙŠÙ† Ø§Ù„Ø­Ù‚ÙŠÙ‚Ø© ÙˆØ§Ù„Ø®Ø±Ø§ÙØ§Øª ÙˆØ­ÙƒÙ… Ø§Ù„Ø¹Ù„Ø§Ø¬ Ø¨Ø§Ù„Ø·Ø§Ù‚Ø©ØŸ","publishedAt":"2025-05-28T19:54:31Z","duration":"PT41M13S","thumbnail":"https://i.ytimg.com/vi/5zdVVADYWfA/mqdefault.jpg","viewCount":"16560","playlistId":"PLEkQk5xrP-tlArtGpeLWaqNM7h7IDeAVC","playlistName":"Ø®Ø·Ø¨ Ø§Ù„Ø¬Ù…Ø¹Ø© Ø£.Ø¯. ÙŠØ³Ø±ÙŠ Ø¬Ø¨Ø±","category":"Ø®Ø·Ø¨"},{"id":"-6wXTmNvwj8","title":"Ù‚ØµØ© Ø§Ù„Ø¨Ø±Ø¯Ø© ÙˆÙØ¶Ø§Ø¦Ù„Ù‡Ø§ ÙˆÙƒØ±Ø§Ù…ØªÙ‡Ø§ | Ù„Ù†Ø¯Ù†ğŸ“","publishedAt":"2025-05-29T19:15:14Z","duration":"PT16M33S","thumbnail":"https://i.ytimg.com/vi/-6wXTmNvwj8/mqdefault.jpg","viewCount":"6190","playlistId":"PLEkQk5xrP-tm8ZIu74nTOZN9KJUJu416J","playlistName":"Ù…Ù‚Ø§Ø·Ø¹ Ù…ÙÙ‡Ù…ÙÙ‘Ø© (ÙŠÙØ³Ø±ÙŠÙ‘ÙØ§Øª) Ø£.Ø¯. ÙŠØ³Ø±ÙŠ Ø¬Ø¨Ø±","category":"Ù…ØªÙ†ÙˆØ¹"},{"id":"IJFBj4cQyZU","title":"Ù…Ø¬Ù„Ø³ Ù…Ø±ÙƒØ² ÙƒØ§Ù…Ø¨Ø±ÙŠØ¯Ø¬ Ø§Ù„Ù‚Ø±Ø¢Ù†ÙŠ | Ø§Ù†Ø¬Ù„ØªØ±Ø§ğŸ“","publishedAt":"2025-05-31T18:17:55Z","duration":"PT21M36S","thumbnail":"https://i.ytimg.com/vi/IJFBj4cQyZU/mqdefault.jpg","viewCount":"2507","playlistId":"PLEkQk5xrP-tm8ZIu74nTOZN9KJUJu416J","playlistName":"Ù…Ù‚Ø§Ø·Ø¹ Ù…ÙÙ‡Ù…ÙÙ‘Ø© (ÙŠÙØ³Ø±ÙŠÙ‘ÙØ§Øª) Ø£.Ø¯. ÙŠØ³Ø±ÙŠ Ø¬Ø¨Ø±","category":"Ù…ØªÙ†ÙˆØ¹"},{"id":"GHGt6Pmwg80","title":"Ù…Ø¹Ù†Ù‰ ÙˆØ­Ø¯Ø© Ø§Ù„ÙˆØ¬ÙˆØ¯ Ø¹Ù†Ø¯ Ø§Ù„ØµÙˆÙÙŠØ© | Ø§Ù†Ø¬Ù„ØªØ±Ø§ğŸ“","publishedAt":"2025-06-01T19:14:37Z","duration":"PT20M14S","thumbnail":"https://i.ytimg.com/vi/GHGt6Pmwg80/mqdefault.jpg","viewCount":"7827","playlistId":"PLEkQk5xrP-tm8ZIu74nTOZN9KJUJu416J","playlistName":"Ù…Ù‚Ø§Ø·Ø¹ Ù…ÙÙ‡Ù…ÙÙ‘Ø© (ÙŠÙØ³Ø±ÙŠÙ‘ÙØ§Øª) Ø£.Ø¯. ÙŠØ³Ø±ÙŠ Ø¬Ø¨Ø±","category":"Ù…ØªÙ†ÙˆØ¹"},{"id":"PfFCdy_YK8E","title":"Ø§Ù„Ø±Ø¯ Ø¹Ù„Ù‰ Ø¬Ù…ÙŠØ¹ Ø´Ø¨Ù‡Ø§Øª ÙˆØ§Ø¯Ø¹Ø§Ø¡Ø§Øª Ø§Ù„ÙˆÙ‡Ø§Ø¨ÙŠØ© | Ø§Ù†Ø¬Ù„ØªØ±Ø§ğŸ“","publishedAt":"2025-06-02T19:27:30Z","duration":"PT1H17M38S","thumbnail":"https://i.ytimg.com/vi/PfFCdy_YK8E/mqdefault.jpg","viewCount":"15715","playlistId":"PLEkQk5xrP-tmJzNvLntpzW0uPanPzxA0c","playlistName":"Ù„Ù‚Ø§Ø¡Ø§Øª ÙˆÙ…Ø­Ø§Ø¶Ø±Ø§Øª","category":"Ù…ØªÙ†ÙˆØ¹"}],"total":7670,"page":311,"pageSize":24,"totalPages":320}