{"items":[{"id":"YDPjh_hySJQ","title":"شرح سنن الدارمي كتاب الطلا‎ق من أوله","publishedAt":"2019-08-15T04:17:16Z","duration":"PT32M34S","thumbnail":"https://i.ytimg.com/vi/YDPjh_hySJQ/mqdefault.jpg","viewCount":"276","playlistId":"PLEkQk5xrP-tmAg-FuWjY057X_h5NmGmAa","playlistName":"شرح سنن الدارمي - أ.د. يسري جبر (كاملا)","category":"متنوع"},{"id":"jXLBGkeyk5Y","title":"مقرأة سورة النصر من أولها","publishedAt":"2019-08-15T10:21:57Z","duration":"PT5M2S","thumbnail":"https://i.ytimg.com/vi/jXLBGkeyk5Y/mqdefault.jpg","viewCount":"641","playlistId":"PLEkQk5xrP-tnmTYsyW6xNdyfhPq0Bhrhj","playlistName":"مقرأة الفجر - القُرْآنُ الكَرِيمُ - خَتْمَةُ التَّدَبُّرِ  أ.د. يسري جبر","category":"متنوع"},{"id":"kiEcQlsN10k","title":"شرح سنن الدارمي كتاب الطلا‎ق من باب ٧","publishedAt":"2019-08-15T16:34:40Z","duration":"PT35M52S","thumbnail":"https://i.ytimg.com/vi/kiEcQlsN10k/mqdefault.jpg","viewCount":"337","playlistId":"PLEkQk5xrP-tmAg-FuWjY057X_h5NmGmAa","playlistName":"شرح سنن الدارمي - أ.د. يسري جبر (كاملا)","category":"متنوع"},{"id":"1LW1kCy2McA","title":"مقرأة سورة المسد من أولها","publishedAt":"2019-08-16T04:14:58Z","duration":"PT20M6S","thumbnail":"https://i.ytimg.com/vi/1LW1kCy2McA/mqdefault.jpg","viewCount":"900","playlistId":"PLEkQk5xrP-tnmTYsyW6xNdyfhPq0Bhrhj","playlistName":"مقرأة الفجر - القُرْآنُ الكَرِيمُ - خَتْمَةُ التَّدَبُّرِ  أ.د. يسري جبر","category":"متنوع"},{"id":"o9xlJwtCjBs","title":"شرح سنن الدارمي كتاب الطلا‎ق من باب ١٢","publishedAt":"2019-08-16T11:34:54Z","duration":"PT36M14S","thumbnail":"https://i.ytimg.com/vi/o9xlJwtCjBs/mqdefault.jpg","viewCount":"376","playlistId":"PLEkQk5xrP-tmAg-FuWjY057X_h5NmGmAa","playlistName":"شرح سنن الدارمي - أ.د. يسري جبر (كاملا)","category":"متنوع"},{"id":"n3WrpYSmDis","title":"مقرأة سورة الإخلاص من أولها","publishedAt":"2019-08-16T16:23:50Z","duration":"PT13M22S","thumbnail":"https://i.ytimg.com/vi/n3WrpYSmDis/mqdefault.jpg","viewCount":"1838","playlistId":"PLEkQk5xrP-tnmTYsyW6xNdyfhPq0Bhrhj","playlistName":"مقرأة الفجر - القُرْآنُ الكَرِيمُ - خَتْمَةُ التَّدَبُّرِ  أ.د. يسري جبر","category":"متنوع"},{"id":"xR3ma_nKRcc","title":"شرح سنن الدارمي كتاب الحدود من أوله","publishedAt":"2019-08-16T22:02:28Z","duration":"PT34M38S","thumbnail":"https://i.ytimg.com/vi/xR3ma_nKRcc/mqdefault.jpg","viewCount":"413","playlistId":"PLEkQk5xrP-tmAg-FuWjY057X_h5NmGmAa","playlistName":"شرح سنن الدارمي - أ.د. يسري جبر (كاملا)","category":"متنوع"},{"id":"O8A484glFRM","title":"مقرأة سورة الفلق من أولها","publishedAt":"2019-08-17T11:23:10Z","duration":"PT14M22S","thumbnail":"https://i.ytimg.com/vi/O8A484glFRM/mqdefault.jpg","viewCount":"1294","playlistId":"PLEkQk5xrP-tnmTYsyW6xNdyfhPq0Bhrhj","playlistName":"مقرأة الفجر - القُرْآنُ الكَرِيمُ - خَتْمَةُ التَّدَبُّرِ  أ.د. يسري جبر","category":"متنوع"},{"id":"zQdjh27Zob0","title":"شرح سنن الدارمي كتاب الحدود من باب ٧","publishedAt":"2019-08-17T17:09:43Z","duration":"PT30M41S","thumbnail":"https://i.ytimg.com/vi/zQdjh27Zob0/mqdefault.jpg","viewCount":"311","playlistId":"PLEkQk5xrP-tmAg-FuWjY057X_h5NmGmAa","playlistName":"شرح سنن الدارمي - أ.د. يسري جبر (كاملا)","category":"متنوع"},{"id":"rUn5bwp14Yc","title":"مقرأة سورة الناس من أولها","publishedAt":"2019-08-17T22:07:10Z","duration":"PT26M56S","thumbnail":"https://i.ytimg.com/vi/rUn5bwp14Yc/mqdefault.jpg","viewCount":"2265","playlistId":"PLEkQk5xrP-tnmTYsyW6xNdyfhPq0Bhrhj","playlistName":"مقرأة الفجر - القُرْآنُ الكَرِيمُ - خَتْمَةُ التَّدَبُّرِ  أ.د. يسري جبر","category":"متنوع"},{"id":"Hx19thMT_Fc","title":"شرح سنن الدارمي كتاب الحدود من باب ١٢","publishedAt":"2019-08-18T09:41:13Z","duration":"PT27M7S","thumbnail":"https://i.ytimg.com/vi/Hx19thMT_Fc/mqdefault.jpg","viewCount":"228","playlistId":"PLEkQk5xrP-tmAg-FuWjY057X_h5NmGmAa","playlistName":"شرح سنن الدارمي - أ.د. يسري جبر (كاملا)","category":"متنوع"},{"id":"OzL4hAp9YOE","title":"شرح البرهان في علوم القرآن - مقدمة المؤلف","publishedAt":"2019-08-18T11:26:07Z","duration":"PT34M46S","thumbnail":"https://i.ytimg.com/vi/OzL4hAp9YOE/mqdefault.jpg","viewCount":"15763","playlistId":"PLEkQk5xrP-tnW3iBL7HkKziOFCFZbTlf0","playlistName":"شرح البرهان في علوم القرآن - أ.د. يسري جبر","category":"تفسير"},{"id":"P8l-RNMEK2I","title":"شرح سنن الدارمي كتاب الحدود من باب ١٥","publishedAt":"2019-08-18T17:34:32Z","duration":"PT30M56S","thumbnail":"https://i.ytimg.com/vi/P8l-RNMEK2I/mqdefault.jpg","viewCount":"417","playlistId":"PLEkQk5xrP-tmAg-FuWjY057X_h5NmGmAa","playlistName":"شرح سنن الدارمي - أ.د. يسري جبر (كاملا)","category":"متنوع"},{"id":"VB0Aunmfr34","title":"شرح البرهان في علوم القرآن - تكملة مقدمة المؤلف","publishedAt":"2019-08-19T09:41:00Z","duration":"PT29M23S","thumbnail":"https://i.ytimg.com/vi/VB0Aunmfr34/mqdefault.jpg","viewCount":"5690","playlistId":"PLEkQk5xrP-tnW3iBL7HkKziOFCFZbTlf0","playlistName":"شرح البرهان في علوم القرآن - أ.د. يسري جبر","category":"تفسير"},{"id":"lv050bJwBDM","title":"شرح سنن الدارمي كتاب النذور والأيمان من أوله","publishedAt":"2019-08-19T16:26:00Z","duration":"PT24M31S","thumbnail":"https://i.ytimg.com/vi/lv050bJwBDM/mqdefault.jpg","viewCount":"339","playlistId":"PLEkQk5xrP-tmAg-FuWjY057X_h5NmGmAa","playlistName":"شرح سنن الدارمي - أ.د. يسري جبر (كاملا)","category":"متنوع"},{"id":"Z9iOZ43j4a0","title":"شرح البرهان في علوم القرآن - فصل في علم التفسير","publishedAt":"2019-08-20T07:21:52Z","duration":"PT36M23S","thumbnail":"https://i.ytimg.com/vi/Z9iOZ43j4a0/mqdefault.jpg","viewCount":"6543","playlistId":"PLEkQk5xrP-tnW3iBL7HkKziOFCFZbTlf0","playlistName":"شرح البرهان في علوم القرآن - أ.د. يسري جبر","category":"تفسير"},{"id":"d-0ex34wNaI","title":"شرح سنن الدارمي كتاب الديات من أوله","publishedAt":"2019-08-20T17:21:49Z","duration":"PT30M9S","thumbnail":"https://i.ytimg.com/vi/d-0ex34wNaI/mqdefault.jpg","viewCount":"367","playlistId":"PLEkQk5xrP-tmAg-FuWjY057X_h5NmGmAa","playlistName":"شرح سنن الدارمي - أ.د. يسري جبر (كاملا)","category":"متنوع"},{"id":"42rWRT9_NVs","title":"شرح البرهان في علوم القرآن - فصل في علوم القرآن","publishedAt":"2019-08-21T09:15:42Z","duration":"PT27M34S","thumbnail":"https://i.ytimg.com/vi/42rWRT9_NVs/mqdefault.jpg","viewCount":"4160","playlistId":"PLEkQk5xrP-tnW3iBL7HkKziOFCFZbTlf0","playlistName":"شرح البرهان في علوم القرآن - أ.د. يسري جبر","category":"تفسير"},{"id":"EJ8w38iAtIw","title":"شرح سنن الدارمي كتاب الديات من باب ٥","publishedAt":"2019-08-21T18:16:43Z","duration":"PT32M58S","thumbnail":"https://i.ytimg.com/vi/EJ8w38iAtIw/mqdefault.jpg","viewCount":"300","playlistId":"PLEkQk5xrP-tmAg-FuWjY057X_h5NmGmAa","playlistName":"شرح سنن الدارمي - أ.د. يسري جبر (كاملا)","category":"متنوع"},{"id":"qjIOYpIZQs4","title":"شرح البرهان في علوم القرآن - النوع ١ - معرفة أسباب النزول","publishedAt":"2019-08-22T09:25:58Z","duration":"PT35M22S","thumbnail":"https://i.ytimg.com/vi/qjIOYpIZQs4/mqdefault.jpg","viewCount":"5076","playlistId":"PLEkQk5xrP-tnW3iBL7HkKziOFCFZbTlf0","playlistName":"شرح البرهان في علوم القرآن - أ.د. يسري جبر","category":"تفسير"},{"id":"y1Ov4YPsNfU","title":"شرح سنن الدارمي كتاب الديات من باب ١٣","publishedAt":"2019-08-22T18:50:52Z","duration":"PT36M38S","thumbnail":"https://i.ytimg.com/vi/y1Ov4YPsNfU/mqdefault.jpg","viewCount":"399","playlistId":"PLEkQk5xrP-tmAg-FuWjY057X_h5NmGmAa","playlistName":"شرح سنن الدارمي - أ.د. يسري جبر (كاملا)","category":"متنوع"},{"id":"T7v1Rwp9bAo","title":"شرح البرهان في علوم القرآن - النوع ١ - فصل فيما نزل مكررا","publishedAt":"2019-08-24T10:04:37Z","duration":"PT27M16S","thumbnail":"https://i.ytimg.com/vi/T7v1Rwp9bAo/mqdefault.jpg","viewCount":"3591","playlistId":"PLEkQk5xrP-tnW3iBL7HkKziOFCFZbTlf0","playlistName":"شرح البرهان في علوم القرآن - أ.د. يسري جبر","category":"تفسير"},{"id":"VuVENK1Bfko","title":"شرح سنن الدارمي كتاب الجهاد من أوله","publishedAt":"2019-08-24T16:52:55Z","duration":"PT16M47S","thumbnail":"https://i.ytimg.com/vi/VuVENK1Bfko/mqdefault.jpg","viewCount":"367","playlistId":"PLEkQk5xrP-tmAg-FuWjY057X_h5NmGmAa","playlistName":"شرح سنن الدارمي - أ.د. يسري جبر (كاملا)","category":"متنوع"},{"id":"uTW3b3QLU30","title":"شرح البرهان في علوم القرآن - النوع ٢ - معرفة المناسبات بين الآيات","publishedAt":"2019-08-25T08:53:35Z","duration":"PT33M34S","thumbnail":"https://i.ytimg.com/vi/uTW3b3QLU30/mqdefault.jpg","viewCount":"3319","playlistId":"PLEkQk5xrP-tnW3iBL7HkKziOFCFZbTlf0","playlistName":"شرح البرهان في علوم القرآن - أ.د. يسري جبر","category":"تفسير"}],"total":7670,"page":149,"pageSize":24,"totalPages":320}