{"items":[{"id":"O4tAHZxBUMQ","title":"رمضانيات  د. يسري جبر","publishedAt":"2018-05-19T15:48:04Z","duration":"PT36M5S","thumbnail":"https://i.ytimg.com/vi/O4tAHZxBUMQ/mqdefault.jpg","viewCount":"1078","playlistId":"PLEkQk5xrP-tlArtGpeLWaqNM7h7IDeAVC","playlistName":"خطب الجمعة أ.د. يسري جبر","category":"خطب"},{"id":"1FYbAtLbLXM","title":"١٤٠ حديث عز المؤمن بطاعة الله ورسوله  د. يسري جبر","publishedAt":"2018-05-19T15:51:10Z","duration":"PT30M53S","thumbnail":"https://i.ytimg.com/vi/1FYbAtLbLXM/mqdefault.jpg","viewCount":"696","playlistId":"PLEkQk5xrP-tnl7vb7KeAoPd5ZlqKKW8KV","playlistName":"شرح كتاب بهجة النفوس أ.د . يسرى جبر","category":"متنوع"},{"id":"dYbeHJTA4xE","title":"مقرأة سورة القصص من آية ٢٩","publishedAt":"2018-05-20T14:31:33Z","duration":"PT37M2S","thumbnail":"https://i.ytimg.com/vi/dYbeHJTA4xE/mqdefault.jpg","viewCount":"370","playlistId":"PLEkQk5xrP-tnmTYsyW6xNdyfhPq0Bhrhj","playlistName":"مقرأة الفجر - القُرْآنُ الكَرِيمُ - خَتْمَةُ التَّدَبُّرِ  أ.د. يسري جبر","category":"متنوع"},{"id":"5a3_Q17u3Ks","title":"من السنن المهجورة في التربية   د. يسري جبر","publishedAt":"2018-05-20T18:05:12Z","duration":"PT6M44S","thumbnail":"https://i.ytimg.com/vi/5a3_Q17u3Ks/mqdefault.jpg","viewCount":"10374","playlistId":"PLEkQk5xrP-tm8ZIu74nTOZN9KJUJu416J","playlistName":"مقاطع مُهمَّة (يُسريَّات) أ.د. يسري جبر","category":"متنوع"},{"id":"nvTDu3CZtpU","title":"شرح صحيح البخاري كتاب النكاح من باب ١١","publishedAt":"2018-05-20T18:54:43Z","duration":"PT33M15S","thumbnail":"https://i.ytimg.com/vi/nvTDu3CZtpU/mqdefault.jpg","viewCount":"681","playlistId":"PLEkQk5xrP-tlEerGoLa1AFy-2XvQ-sovv","playlistName":"شرح صحيح البخاري - أ.د. يسري جبر (كاملا)","category":"حديث"},{"id":"OpLZ-Sqt_CM","title":"١٤٢ حديث من أشراط الساعة  د. يسري جبر","publishedAt":"2018-05-20T23:09:57Z","duration":"PT14M44S","thumbnail":"https://i.ytimg.com/vi/OpLZ-Sqt_CM/mqdefault.jpg","viewCount":"6411","playlistId":"PLEkQk5xrP-tnl7vb7KeAoPd5ZlqKKW8KV","playlistName":"شرح كتاب بهجة النفوس أ.د . يسرى جبر","category":"متنوع"},{"id":"m650j4HSECo","title":"١٤٣ حديث قتال المشركين حتى يعلنوا بكلمة التوحيد د. يسري جبر","publishedAt":"2018-05-20T23:12:35Z","duration":"PT27M6S","thumbnail":"https://i.ytimg.com/vi/m650j4HSECo/mqdefault.jpg","viewCount":"1295","playlistId":"PLEkQk5xrP-tnl7vb7KeAoPd5ZlqKKW8KV","playlistName":"شرح كتاب بهجة النفوس أ.د . يسرى جبر","category":"متنوع"},{"id":"KGi98UGcKV8","title":"شرح صحيح البخاري كتاب النكاح من باب ١٨","publishedAt":"2018-05-20T23:13:58Z","duration":"PT44M15S","thumbnail":"https://i.ytimg.com/vi/KGi98UGcKV8/mqdefault.jpg","viewCount":"592","playlistId":"PLEkQk5xrP-tlEerGoLa1AFy-2XvQ-sovv","playlistName":"شرح صحيح البخاري - أ.د. يسري جبر (كاملا)","category":"حديث"},{"id":"7Kpb9i5iLn8","title":"مقرأة سورة القصص من آية ٤٣","publishedAt":"2018-05-20T23:14:02Z","duration":"PT22M48S","thumbnail":"https://i.ytimg.com/vi/7Kpb9i5iLn8/mqdefault.jpg","viewCount":"290","playlistId":"PLEkQk5xrP-tnmTYsyW6xNdyfhPq0Bhrhj","playlistName":"مقرأة الفجر - القُرْآنُ الكَرِيمُ - خَتْمَةُ التَّدَبُّرِ  أ.د. يسري جبر","category":"متنوع"},{"id":"PzfW_BKw1jE","title":"شرح كتاب نور اليقين في سيرة سيد المرسلين - المجلس 47 (غزوة الطائف)  د.يسري جبر","publishedAt":"2018-05-20T23:17:03Z","duration":"PT49M54S","thumbnail":"https://i.ytimg.com/vi/PzfW_BKw1jE/mqdefault.jpg","viewCount":"11299","playlistId":"PLEkQk5xrP-tl2t4NQx1IhKnAJCMzF0Nli","playlistName":"شرح كتاب نور اليقين في سيرة سيد المرسلين   د. يسري جبر","category":"سيرة"},{"id":"qgz6OeXfblo","title":"١٤٤ حديث وعظ المجاهدين د. يسري جبر","publishedAt":"2018-05-21T02:51:47Z","duration":"PT39M","thumbnail":"https://i.ytimg.com/vi/qgz6OeXfblo/mqdefault.jpg","viewCount":"442","playlistId":"PLEkQk5xrP-tnl7vb7KeAoPd5ZlqKKW8KV","playlistName":"شرح كتاب بهجة النفوس أ.د . يسرى جبر","category":"متنوع"},{"id":"wRGQliOb7PA","title":"شرح صحيح البخاري كتاب النكاح من باب ١٦","publishedAt":"2018-05-21T14:36:12Z","duration":"PT36M32S","thumbnail":"https://i.ytimg.com/vi/wRGQliOb7PA/mqdefault.jpg","viewCount":"592","playlistId":"PLEkQk5xrP-tlEerGoLa1AFy-2XvQ-sovv","playlistName":"شرح صحيح البخاري - أ.د. يسري جبر (كاملا)","category":"حديث"},{"id":"LoC7xzp1qzI","title":"صحيح الإمام البخاري رضي الله عنه - كتاب الدِّيات المجلس الرابع ( د.يسري جبر)","publishedAt":"2018-05-22T23:25:09Z","duration":"PT34M42S","thumbnail":"https://i.ytimg.com/vi/LoC7xzp1qzI/mqdefault.jpg","viewCount":"128","playlistId":"PLEkQk5xrP-tmJuzaj4GWRenFoFx9gdbFX","playlistName":"شرح كتاب صحيح الإمام البخاري رضي الله تعالى عنه   أ.د. يسرى جبر","category":"حديث"},{"id":"7YGgfff8XdA","title":"١٤٥ حديث صدقات أعضاء بدن الإنسان د. يسري جبر","publishedAt":"2018-05-23T01:47:38Z","duration":"PT38M50S","thumbnail":"https://i.ytimg.com/vi/7YGgfff8XdA/mqdefault.jpg","viewCount":"2679","playlistId":"PLEkQk5xrP-tnl7vb7KeAoPd5ZlqKKW8KV","playlistName":"شرح كتاب بهجة النفوس أ.د . يسرى جبر","category":"متنوع"},{"id":"TkPf_6yYvSM","title":"١٤٥ حديث صدقات أعضاء بدن الإنسان (2) د. يسري جبر","publishedAt":"2018-05-23T05:17:12Z","duration":"PT27M31S","thumbnail":"https://i.ytimg.com/vi/TkPf_6yYvSM/mqdefault.jpg","viewCount":"522","playlistId":"PLEkQk5xrP-tnl7vb7KeAoPd5ZlqKKW8KV","playlistName":"شرح كتاب بهجة النفوس أ.د . يسرى جبر","category":"متنوع"},{"id":"JUm9kgg1vmQ","title":"مقرأة سورة القصص من آية ٥١","publishedAt":"2018-05-23T09:38:00Z","duration":"PT23M46S","thumbnail":"https://i.ytimg.com/vi/JUm9kgg1vmQ/mqdefault.jpg","viewCount":"334","playlistId":"PLEkQk5xrP-tnmTYsyW6xNdyfhPq0Bhrhj","playlistName":"مقرأة الفجر - القُرْآنُ الكَرِيمُ - خَتْمَةُ التَّدَبُّرِ  أ.د. يسري جبر","category":"متنوع"},{"id":"13JsHS4trz0","title":"١٤٦ حديث الحث على اتخاذ الرفيق في السفر د. يسري جبر","publishedAt":"2018-05-24T14:00:48Z","duration":"PT19M32S","thumbnail":"https://i.ytimg.com/vi/13JsHS4trz0/mqdefault.jpg","viewCount":"403","playlistId":"PLEkQk5xrP-tnl7vb7KeAoPd5ZlqKKW8KV","playlistName":"شرح كتاب بهجة النفوس أ.د . يسرى جبر","category":"متنوع"},{"id":"CjFDpZiIDZI","title":"١٤٧ حديث من الجهاد بر الوالدين د. يسري جبر","publishedAt":"2018-05-26T16:21:05Z","duration":"PT26M16S","thumbnail":"https://i.ytimg.com/vi/CjFDpZiIDZI/mqdefault.jpg","viewCount":"1218","playlistId":"PLEkQk5xrP-tnl7vb7KeAoPd5ZlqKKW8KV","playlistName":"شرح كتاب بهجة النفوس أ.د . يسرى جبر","category":"متنوع"},{"id":"Z3IvLJnfUdQ","title":"(١٤۸) حديث تحريم الخلوة بالمرآة الأجنبية د. يسري جبر","publishedAt":"2018-05-26T16:21:05Z","duration":"PT21M47S","thumbnail":"https://i.ytimg.com/vi/Z3IvLJnfUdQ/mqdefault.jpg","viewCount":"730","playlistId":"PLEkQk5xrP-tnl7vb7KeAoPd5ZlqKKW8KV","playlistName":"شرح كتاب بهجة النفوس أ.د . يسرى جبر","category":"متنوع"},{"id":"BCSS0itZZKw","title":"شرح صحيح البخاري كتاب النكاح من باب ٣٣","publishedAt":"2018-05-27T12:35:14Z","duration":"PT33M11S","thumbnail":"https://i.ytimg.com/vi/BCSS0itZZKw/mqdefault.jpg","viewCount":"500","playlistId":"PLEkQk5xrP-tlEerGoLa1AFy-2XvQ-sovv","playlistName":"شرح صحيح البخاري - أ.د. يسري جبر (كاملا)","category":"حديث"},{"id":"sMVA3ICAqZw","title":"مقرأة سورة القصص من آية ٦٢","publishedAt":"2018-05-27T12:35:18Z","duration":"PT20M45S","thumbnail":"https://i.ytimg.com/vi/sMVA3ICAqZw/mqdefault.jpg","viewCount":"236","playlistId":"PLEkQk5xrP-tnmTYsyW6xNdyfhPq0Bhrhj","playlistName":"مقرأة الفجر - القُرْآنُ الكَرِيمُ - خَتْمَةُ التَّدَبُّرِ  أ.د. يسري جبر","category":"متنوع"},{"id":"96U3BG48zD8","title":"رمضانيات (۲)  د. يسري جبر","publishedAt":"2018-05-27T12:41:52Z","duration":"PT32M22S","thumbnail":"https://i.ytimg.com/vi/96U3BG48zD8/mqdefault.jpg","viewCount":"539","playlistId":"PLEkQk5xrP-tlArtGpeLWaqNM7h7IDeAVC","playlistName":"خطب الجمعة أ.د. يسري جبر","category":"خطب"},{"id":"m7RKK5AgjXU","title":"شرح كتاب نور اليقين في سيرة سيد المرسلين - المجلس 48 (وفود هوازن)  د.يسري جبر","publishedAt":"2018-05-27T19:22:10Z","duration":"PT49M26S","thumbnail":"https://i.ytimg.com/vi/m7RKK5AgjXU/mqdefault.jpg","viewCount":"11281","playlistId":"PLEkQk5xrP-tl2t4NQx1IhKnAJCMzF0Nli","playlistName":"شرح كتاب نور اليقين في سيرة سيد المرسلين   د. يسري جبر","category":"سيرة"},{"id":"JHkHuicf_gE","title":"شرح صحيح البخاري كتاب النكاح من باب ٢٥","publishedAt":"2018-05-28T15:47:49Z","duration":"PT28M36S","thumbnail":"https://i.ytimg.com/vi/JHkHuicf_gE/mqdefault.jpg","viewCount":"683","playlistId":"PLEkQk5xrP-tlEerGoLa1AFy-2XvQ-sovv","playlistName":"شرح صحيح البخاري - أ.د. يسري جبر (كاملا)","category":"حديث"}],"total":7670,"page":106,"pageSize":24,"totalPages":320}