{"items":[{"id":"LP7W-reiHMc","title":"حول النبي في ذكرى مولده صلى الله عليه وآله وسلم","publishedAt":"2017-12-15T21:09:53Z","duration":"PT50M57S","thumbnail":"https://i.ytimg.com/vi/LP7W-reiHMc/mqdefault.jpg","viewCount":"383","playlistId":"PLEkQk5xrP-tlArtGpeLWaqNM7h7IDeAVC","playlistName":"خطب الجمعة أ.د. يسري جبر","category":"خطب"},{"id":"3PTKI75OPcA","title":"مقرأة سورة الأنبياء من آية ٤٤","publishedAt":"2017-12-16T16:44:54Z","duration":"PT21M38S","thumbnail":"https://i.ytimg.com/vi/3PTKI75OPcA/mqdefault.jpg","viewCount":"280","playlistId":"PLEkQk5xrP-tnmTYsyW6xNdyfhPq0Bhrhj","playlistName":"مقرأة الفجر - القُرْآنُ الكَرِيمُ - خَتْمَةُ التَّدَبُّرِ  أ.د. يسري جبر","category":"متنوع"},{"id":"dP-brcBi9GY","title":"شرح صحيح البخاري   كتاب مناقب الأنصار تكملة باب ٤٥ المجلس الرابع","publishedAt":"2017-12-16T20:21:27Z","duration":"PT34M16S","thumbnail":"https://i.ytimg.com/vi/dP-brcBi9GY/mqdefault.jpg","viewCount":"526","playlistId":"PLEkQk5xrP-tlEerGoLa1AFy-2XvQ-sovv","playlistName":"شرح صحيح البخاري - أ.د. يسري جبر (كاملا)","category":"حديث"},{"id":"sQgivjziTV0","title":"مقرأة سورة الأنبياء من آية ٥١","publishedAt":"2017-12-17T08:39:52Z","duration":"PT21M4S","thumbnail":"https://i.ytimg.com/vi/sQgivjziTV0/mqdefault.jpg","viewCount":"332","playlistId":"PLEkQk5xrP-tnmTYsyW6xNdyfhPq0Bhrhj","playlistName":"مقرأة الفجر - القُرْآنُ الكَرِيمُ - خَتْمَةُ التَّدَبُّرِ  أ.د. يسري جبر","category":"متنوع"},{"id":"b4Tf9hBk65s","title":"كما لايحب العمل المشترك كذلك لايحب القلب المشترك،العمل المشترك لا يقبله،والقلب المشترك لايُقبل عليه.","publishedAt":"2017-12-17T12:00:19Z","duration":"PT7M54S","thumbnail":"https://i.ytimg.com/vi/b4Tf9hBk65s/mqdefault.jpg","viewCount":"919","playlistId":"PLEkQk5xrP-tkI_meE148wc7V7XHlB0WPb","playlistName":"من الحكم العطائية  د. يسري جبر","category":"متنوع"},{"id":"lkmJnDaAY-g","title":"شرح صحيح البخاري   كتاب مناقب الأنصار تكملة باب ٤٦ المجلس الثاني","publishedAt":"2017-12-17T19:58:53Z","duration":"PT44M24S","thumbnail":"https://i.ytimg.com/vi/lkmJnDaAY-g/mqdefault.jpg","viewCount":"526","playlistId":"PLEkQk5xrP-tlEerGoLa1AFy-2XvQ-sovv","playlistName":"شرح صحيح البخاري - أ.د. يسري جبر (كاملا)","category":"حديث"},{"id":"HSuJ9KHa4aM","title":"شرح كتاب نوراليقين في سيرة سيد المرسلين - المجلس 33 ( الحجاب ) د.يسري جبر","publishedAt":"2017-12-18T09:03:50Z","duration":"PT50M10S","thumbnail":"https://i.ytimg.com/vi/HSuJ9KHa4aM/mqdefault.jpg","viewCount":"14986","playlistId":"PLEkQk5xrP-tl2t4NQx1IhKnAJCMzF0Nli","playlistName":"شرح كتاب نور اليقين في سيرة سيد المرسلين   د. يسري جبر","category":"سيرة"},{"id":"9e5fj6c6S90","title":"مقرأة سورة الأنبياء من آية ٦٨","publishedAt":"2017-12-19T09:51:18Z","duration":"PT8M41S","thumbnail":"https://i.ytimg.com/vi/9e5fj6c6S90/mqdefault.jpg","viewCount":"506","playlistId":"PLEkQk5xrP-tnmTYsyW6xNdyfhPq0Bhrhj","playlistName":"مقرأة الفجر - القُرْآنُ الكَرِيمُ - خَتْمَةُ التَّدَبُّرِ  أ.د. يسري جبر","category":"متنوع"},{"id":"QuWkqSNbMNI","title":"شرح صحيح البخاري - كتاب المغازي من أوله","publishedAt":"2017-12-19T16:41:59Z","duration":"PT32M29S","thumbnail":"https://i.ytimg.com/vi/QuWkqSNbMNI/mqdefault.jpg","viewCount":"1475","playlistId":"PLEkQk5xrP-tlEerGoLa1AFy-2XvQ-sovv","playlistName":"شرح صحيح البخاري - أ.د. يسري جبر (كاملا)","category":"حديث"},{"id":"D-4kllhcB-g","title":"مقرأة سورة الأنبياء من آية ٧٤","publishedAt":"2017-12-20T09:35:36Z","duration":"PT26M45S","thumbnail":"https://i.ytimg.com/vi/D-4kllhcB-g/mqdefault.jpg","viewCount":"318","playlistId":"PLEkQk5xrP-tnmTYsyW6xNdyfhPq0Bhrhj","playlistName":"مقرأة الفجر - القُرْآنُ الكَرِيمُ - خَتْمَةُ التَّدَبُّرِ  أ.د. يسري جبر","category":"متنوع"},{"id":"OaHHcK0saLw","title":"شرح صحيح البخاري - كتاب المغازي من باب ٦","publishedAt":"2017-12-20T14:02:12Z","duration":"PT28M51S","thumbnail":"https://i.ytimg.com/vi/OaHHcK0saLw/mqdefault.jpg","viewCount":"597","playlistId":"PLEkQk5xrP-tlEerGoLa1AFy-2XvQ-sovv","playlistName":"شرح صحيح البخاري - أ.د. يسري جبر (كاملا)","category":"حديث"},{"id":"JE2viEmMdks","title":"مقرأة سورة الأنبياء من آية ٨٣","publishedAt":"2017-12-21T09:23:34Z","duration":"PT18M15S","thumbnail":"https://i.ytimg.com/vi/JE2viEmMdks/mqdefault.jpg","viewCount":"298","playlistId":"PLEkQk5xrP-tnmTYsyW6xNdyfhPq0Bhrhj","playlistName":"مقرأة الفجر - القُرْآنُ الكَرِيمُ - خَتْمَةُ التَّدَبُّرِ  أ.د. يسري جبر","category":"متنوع"},{"id":"W-3QC6gA_Aw","title":"شرح صحيح البخاري   كتاب المغازي من باب ٩","publishedAt":"2017-12-21T16:09:13Z","duration":"PT34M38S","thumbnail":"https://i.ytimg.com/vi/W-3QC6gA_Aw/mqdefault.jpg","viewCount":"612","playlistId":"PLEkQk5xrP-tlEerGoLa1AFy-2XvQ-sovv","playlistName":"شرح صحيح البخاري - أ.د. يسري جبر (كاملا)","category":"حديث"},{"id":"TFWDRfZR2Tk","title":"شرح كتاب الرسالة القشيرية - المجلس السادس - الفصل الأول (3)","publishedAt":"2017-12-22T14:24:00Z","duration":"PT1H17M44S","thumbnail":"https://i.ytimg.com/vi/TFWDRfZR2Tk/mqdefault.jpg","viewCount":"14554","playlistId":"PLEkQk5xrP-tkHAGOwIKr4pc5ehhyQ5HMJ","playlistName":"كتاب الرسالة القشيرية (تصوف) - د. يسري جبر","category":"تصوف"},{"id":"58F6l8vVOKQ","title":"أول خطوة إلى الله الأدب مع سيدنا رسول الله صلى الله عليه وآله وسلم","publishedAt":"2017-12-23T07:04:59Z","duration":"PT40M53S","thumbnail":"https://i.ytimg.com/vi/58F6l8vVOKQ/mqdefault.jpg","viewCount":"6261","playlistId":"PLEkQk5xrP-tlArtGpeLWaqNM7h7IDeAVC","playlistName":"خطب الجمعة أ.د. يسري جبر","category":"خطب"},{"id":"mj4UYVvn8dA","title":"شرح كتاب نوراليقين في سيرة سيد المرسلين - المجلس 34 ( فرض الحج) د.يسري جبر","publishedAt":"2017-12-24T09:48:57Z","duration":"PT49M41S","thumbnail":"https://i.ytimg.com/vi/mj4UYVvn8dA/mqdefault.jpg","viewCount":"13712","playlistId":"PLEkQk5xrP-tl2t4NQx1IhKnAJCMzF0Nli","playlistName":"شرح كتاب نور اليقين في سيرة سيد المرسلين   د. يسري جبر","category":"سيرة"},{"id":"TRAj3QK0YP4","title":"صحيح البخاري - كتاب الأيمان والنذور - باب صاع المدينة","publishedAt":"2017-12-24T15:56:16Z","duration":"PT53M31S","thumbnail":"https://i.ytimg.com/vi/TRAj3QK0YP4/mqdefault.jpg","viewCount":"86","playlistId":"PLEkQk5xrP-tmJuzaj4GWRenFoFx9gdbFX","playlistName":"شرح كتاب صحيح الإمام البخاري رضي الله تعالى عنه   أ.د. يسرى جبر","category":"حديث"},{"id":"w9un83u2_Jg","title":"أنوارٌ أُذِنَ لها في الوصول وأنوارٌ أُذِنَ لها في الدخول.","publishedAt":"2017-12-24T18:52:02Z","duration":"PT23M23S","thumbnail":"https://i.ytimg.com/vi/w9un83u2_Jg/mqdefault.jpg","viewCount":"8102","playlistId":"PLEkQk5xrP-tkI_meE148wc7V7XHlB0WPb","playlistName":"من الحكم العطائية  د. يسري جبر","category":"متنوع"},{"id":"DSC-gV5YwRg","title":"مقرأة سورة الأنبياء من آية ٨٧","publishedAt":"2017-12-25T13:52:15Z","duration":"PT12M3S","thumbnail":"https://i.ytimg.com/vi/DSC-gV5YwRg/mqdefault.jpg","viewCount":"242","playlistId":"PLEkQk5xrP-tnmTYsyW6xNdyfhPq0Bhrhj","playlistName":"مقرأة الفجر - القُرْآنُ الكَرِيمُ - خَتْمَةُ التَّدَبُّرِ  أ.د. يسري جبر","category":"متنوع"},{"id":"Xm8QRpInecM","title":"شرح صحيح البخاري -  كتاب المغازي تكملة باب ١٠","publishedAt":"2017-12-25T15:00:47Z","duration":"PT39M31S","thumbnail":"https://i.ytimg.com/vi/Xm8QRpInecM/mqdefault.jpg","viewCount":"594","playlistId":"PLEkQk5xrP-tlEerGoLa1AFy-2XvQ-sovv","playlistName":"شرح صحيح البخاري - أ.د. يسري جبر (كاملا)","category":"حديث"},{"id":"jQcXiRQR9hw","title":"صحيح البخاري - كتاب الفرائض - باب (يُوصِيكُمُ اللَّهُ فِي أَوْلَادِكُمْ )","publishedAt":"2017-12-25T18:23:31Z","duration":"PT46M","thumbnail":"https://i.ytimg.com/vi/jQcXiRQR9hw/mqdefault.jpg","viewCount":"158","playlistId":"PLEkQk5xrP-tmJuzaj4GWRenFoFx9gdbFX","playlistName":"شرح كتاب صحيح الإمام البخاري رضي الله تعالى عنه   أ.د. يسرى جبر","category":"حديث"},{"id":"9EwKnJEFt4w","title":"فَرِّغْ قَلْبَكَ منَ الأغْيارِ، يُمْلأْ بالمعَارِفِ والأسْرارِ.","publishedAt":"2017-12-25T19:29:11Z","duration":"PT7M23S","thumbnail":"https://i.ytimg.com/vi/9EwKnJEFt4w/mqdefault.jpg","viewCount":"7162","playlistId":"PLEkQk5xrP-tkI_meE148wc7V7XHlB0WPb","playlistName":"من الحكم العطائية  د. يسري جبر","category":"متنوع"},{"id":"hXfJXDf6kXc","title":"لا تَسْتَبْطِئْ منه النَّوالَ، ولكن اسْتَبْطِئْ من نَفْسِكَ وُجُودَ الإِقْبَالِ.","publishedAt":"2017-12-26T17:32:09Z","duration":"PT6M10S","thumbnail":"https://i.ytimg.com/vi/hXfJXDf6kXc/mqdefault.jpg","viewCount":"1157","playlistId":"PLEkQk5xrP-tkI_meE148wc7V7XHlB0WPb","playlistName":"من الحكم العطائية  د. يسري جبر","category":"متنوع"},{"id":"VUYBAnIxZME","title":"مقرأة سورة الأنبياء من آية ٨٩","publishedAt":"2017-12-27T00:55:41Z","duration":"PT14M36S","thumbnail":"https://i.ytimg.com/vi/VUYBAnIxZME/mqdefault.jpg","viewCount":"234","playlistId":"PLEkQk5xrP-tnmTYsyW6xNdyfhPq0Bhrhj","playlistName":"مقرأة الفجر - القُرْآنُ الكَرِيمُ - خَتْمَةُ التَّدَبُّرِ  أ.د. يسري جبر","category":"متنوع"}],"total":7670,"page":91,"pageSize":24,"totalPages":320}