{"items":[{"id":"SaetOACGeVw","title":"شرح صحيح البخاري كتاب النكاح من باب ١١٩","publishedAt":"2018-06-12T16:02:48Z","duration":"PT28M21S","thumbnail":"https://i.ytimg.com/vi/SaetOACGeVw/mqdefault.jpg","viewCount":"484","playlistId":"PLEkQk5xrP-tlEerGoLa1AFy-2XvQ-sovv","playlistName":"شرح صحيح البخاري - أ.د. يسري جبر (كاملا)","category":"حديث"},{"id":"GZ2FSEiy554","title":"مقرأة سورة العنكبوت من آية ٥٣","publishedAt":"2018-06-13T09:09:09Z","duration":"PT13M6S","thumbnail":"https://i.ytimg.com/vi/GZ2FSEiy554/mqdefault.jpg","viewCount":"288","playlistId":"PLEkQk5xrP-tnmTYsyW6xNdyfhPq0Bhrhj","playlistName":"مقرأة الفجر - القُرْآنُ الكَرِيمُ - خَتْمَةُ التَّدَبُّرِ  أ.د. يسري جبر","category":"متنوع"},{"id":"b2B-vIrOoNE","title":"شرح صحيح البخاري كتاب الطلاق من أوله","publishedAt":"2018-06-13T19:14:53Z","duration":"PT32M50S","thumbnail":"https://i.ytimg.com/vi/b2B-vIrOoNE/mqdefault.jpg","viewCount":"908","playlistId":"PLEkQk5xrP-tlEerGoLa1AFy-2XvQ-sovv","playlistName":"شرح صحيح البخاري - أ.د. يسري جبر (كاملا)","category":"حديث"},{"id":"R9tZRebhhLc","title":"مقرأة سورة العنكبوت من آية ٥٨","publishedAt":"2018-06-14T09:58:56Z","duration":"PT23M54S","thumbnail":"https://i.ytimg.com/vi/R9tZRebhhLc/mqdefault.jpg","viewCount":"356","playlistId":"PLEkQk5xrP-tnmTYsyW6xNdyfhPq0Bhrhj","playlistName":"مقرأة الفجر - القُرْآنُ الكَرِيمُ - خَتْمَةُ التَّدَبُّرِ  أ.د. يسري جبر","category":"متنوع"},{"id":"lA3IWmRBNME","title":"62- باب مَا جَاءَ فِى الصَّدَاقِ وَالْحِبَاءِ ك الموطأ د يسري جبر الأزهري","publishedAt":"2018-06-14T14:06:19Z","duration":"PT47M37S","thumbnail":"https://i.ytimg.com/vi/lA3IWmRBNME/mqdefault.jpg","viewCount":"279","playlistId":"PLEkQk5xrP-tnC6BRuqMjyO-484iqXeg0o","playlistName":"شرح كتاب الموطأ للإمام مالك","category":"متنوع"},{"id":"qPYn0ySYmjc","title":"شرح صحيح البخاري كتاب الطلاق من باب 4","publishedAt":"2018-06-14T16:00:38Z","duration":"PT27M3S","thumbnail":"https://i.ytimg.com/vi/qPYn0ySYmjc/mqdefault.jpg","viewCount":"604","playlistId":"PLEkQk5xrP-tlEerGoLa1AFy-2XvQ-sovv","playlistName":"شرح صحيح البخاري - أ.د. يسري جبر (كاملا)","category":"حديث"},{"id":"iFMZeOTfkMU","title":"مقرأة سورة العنكبوت من آية ٦٥","publishedAt":"2018-06-15T08:34:43Z","duration":"PT11M55S","thumbnail":"https://i.ytimg.com/vi/iFMZeOTfkMU/mqdefault.jpg","viewCount":"310","playlistId":"PLEkQk5xrP-tnmTYsyW6xNdyfhPq0Bhrhj","playlistName":"مقرأة الفجر - القُرْآنُ الكَرِيمُ - خَتْمَةُ التَّدَبُّرِ  أ.د. يسري جبر","category":"متنوع"},{"id":"3cavBa9Cfac","title":"شرح صحيح البخاري كتاب الطلاق من باب 6","publishedAt":"2018-06-15T21:32:37Z","duration":"PT27M56S","thumbnail":"https://i.ytimg.com/vi/3cavBa9Cfac/mqdefault.jpg","viewCount":"551","playlistId":"PLEkQk5xrP-tlEerGoLa1AFy-2XvQ-sovv","playlistName":"شرح صحيح البخاري - أ.د. يسري جبر (كاملا)","category":"حديث"},{"id":"S86l_9O42Vw","title":"مقرأة سورة الروم من أولها","publishedAt":"2018-06-16T09:54:29Z","duration":"PT12M15S","thumbnail":"https://i.ytimg.com/vi/S86l_9O42Vw/mqdefault.jpg","viewCount":"435","playlistId":"PLEkQk5xrP-tnmTYsyW6xNdyfhPq0Bhrhj","playlistName":"مقرأة الفجر - القُرْآنُ الكَرِيمُ - خَتْمَةُ التَّدَبُّرِ  أ.د. يسري جبر","category":"متنوع"},{"id":"X3Se7tKcMFA","title":"الرسول ﷺ له التصريف في الأكوان والأحكام...  أ.د. يسري جبر","publishedAt":"2018-06-16T16:12:00Z","duration":"PT9M32S","thumbnail":"https://i.ytimg.com/vi/X3Se7tKcMFA/mqdefault.jpg","viewCount":"16199","playlistId":"PLEkQk5xrP-tm8ZIu74nTOZN9KJUJu416J","playlistName":"مقاطع مُهمَّة (يُسريَّات) أ.د. يسري جبر","category":"متنوع"},{"id":"x-BgW46K5jU","title":"ومَا كُنتَ تَتْلُو من قَبْلِه من كتَابٍ وَلَا تَخُطُّهُ بِيَمِينِكَ ۖ إِذًا لَّارْتَابَ الْمُبْطِلون","publishedAt":"2018-06-16T20:41:47Z","duration":"PT7M49S","thumbnail":"https://i.ytimg.com/vi/x-BgW46K5jU/mqdefault.jpg","viewCount":"4926","playlistId":"PLEkQk5xrP-tm8ZIu74nTOZN9KJUJu416J","playlistName":"مقاطع مُهمَّة (يُسريَّات) أ.د. يسري جبر","category":"متنوع"},{"id":"qtmT9nEU0Zs","title":"شرح صحيح البخاري كتاب الطلاق من باب 11","publishedAt":"2018-06-17T04:18:43Z","duration":"PT32M51S","thumbnail":"https://i.ytimg.com/vi/qtmT9nEU0Zs/mqdefault.jpg","viewCount":"535","playlistId":"PLEkQk5xrP-tlEerGoLa1AFy-2XvQ-sovv","playlistName":"شرح صحيح البخاري - أ.د. يسري جبر (كاملا)","category":"حديث"},{"id":"eHOoa9XwZyE","title":"مقرأة سورة الروم من آية ٨","publishedAt":"2018-06-17T10:29:58Z","duration":"PT10M9S","thumbnail":"https://i.ytimg.com/vi/eHOoa9XwZyE/mqdefault.jpg","viewCount":"361","playlistId":"PLEkQk5xrP-tnmTYsyW6xNdyfhPq0Bhrhj","playlistName":"مقرأة الفجر - القُرْآنُ الكَرِيمُ - خَتْمَةُ التَّدَبُّرِ  أ.د. يسري جبر","category":"متنوع"},{"id":"dllROz2PD4g","title":"شرح صحيح البخاري كتاب الطلاق من باب 12","publishedAt":"2018-06-17T16:11:24Z","duration":"PT23M18S","thumbnail":"https://i.ytimg.com/vi/dllROz2PD4g/mqdefault.jpg","viewCount":"374","playlistId":"PLEkQk5xrP-tlEerGoLa1AFy-2XvQ-sovv","playlistName":"شرح صحيح البخاري - أ.د. يسري جبر (كاملا)","category":"حديث"},{"id":"Q12lbrR8AuQ","title":"مقرأة سورة الروم من آية ١١","publishedAt":"2018-06-18T12:41:54Z","duration":"PT18M54S","thumbnail":"https://i.ytimg.com/vi/Q12lbrR8AuQ/mqdefault.jpg","viewCount":"311","playlistId":"PLEkQk5xrP-tnmTYsyW6xNdyfhPq0Bhrhj","playlistName":"مقرأة الفجر - القُرْآنُ الكَرِيمُ - خَتْمَةُ التَّدَبُّرِ  أ.د. يسري جبر","category":"متنوع"},{"id":"j0ztncrjPsM","title":"شرح كتاب الإشارات الزروقيّة علی الآيات القرآنية - المجلس الرابع","publishedAt":"2018-06-18T17:33:03Z","duration":"PT35M49S","thumbnail":"https://i.ytimg.com/vi/j0ztncrjPsM/mqdefault.jpg","viewCount":"1467","playlistId":"PLEkQk5xrP-tl1OLT5J2vthcf9QHpjNkWx","playlistName":"شرح كتاب الإشارات الزروقيّة علی الآيات القرآنية  د. يسري جبر","category":"تفسير"},{"id":"4DAFvfz4LVM","title":"شرح كتاب الإشارات الزروقيّة علی الآيات القرآنية - المجلس الثاني","publishedAt":"2018-06-18T17:35:08Z","duration":"PT24M35S","thumbnail":"https://i.ytimg.com/vi/4DAFvfz4LVM/mqdefault.jpg","viewCount":"2226","playlistId":"PLEkQk5xrP-tl1OLT5J2vthcf9QHpjNkWx","playlistName":"شرح كتاب الإشارات الزروقيّة علی الآيات القرآنية  د. يسري جبر","category":"تفسير"},{"id":"GocS-FPCRuI","title":"شرح كتاب الإشارات الزروقيّة علی الآيات القرآنية - المجلس الثالث","publishedAt":"2018-06-18T17:36:05Z","duration":"PT31M58S","thumbnail":"https://i.ytimg.com/vi/GocS-FPCRuI/mqdefault.jpg","viewCount":"1761","playlistId":"PLEkQk5xrP-tl1OLT5J2vthcf9QHpjNkWx","playlistName":"شرح كتاب الإشارات الزروقيّة علی الآيات القرآنية  د. يسري جبر","category":"تفسير"},{"id":"ax3RrD76TaI","title":"شرح صحيح البخاري كتاب الطلاق من باب 14","publishedAt":"2018-06-19T04:57:15Z","duration":"PT13M51S","thumbnail":"https://i.ytimg.com/vi/ax3RrD76TaI/mqdefault.jpg","viewCount":"323","playlistId":"PLEkQk5xrP-tlEerGoLa1AFy-2XvQ-sovv","playlistName":"شرح صحيح البخاري - أ.د. يسري جبر (كاملا)","category":"حديث"},{"id":"Xy1R5-h7TLY","title":"مقرأة سورة الروم من آية ١٩","publishedAt":"2018-06-19T13:37:45Z","duration":"PT19M18S","thumbnail":"https://i.ytimg.com/vi/Xy1R5-h7TLY/mqdefault.jpg","viewCount":"339","playlistId":"PLEkQk5xrP-tnmTYsyW6xNdyfhPq0Bhrhj","playlistName":"مقرأة الفجر - القُرْآنُ الكَرِيمُ - خَتْمَةُ التَّدَبُّرِ  أ.د. يسري جبر","category":"متنوع"},{"id":"Q4JeorQcmmU","title":"شرح صحيح البخاري كتاب الطلاق من باب 18","publishedAt":"2018-06-19T22:48:27Z","duration":"PT28M8S","thumbnail":"https://i.ytimg.com/vi/Q4JeorQcmmU/mqdefault.jpg","viewCount":"447","playlistId":"PLEkQk5xrP-tlEerGoLa1AFy-2XvQ-sovv","playlistName":"شرح صحيح البخاري - أ.د. يسري جبر (كاملا)","category":"حديث"},{"id":"hbJ2CGYvzs8","title":"مقرأة سورة الروم من آية ٢٤","publishedAt":"2018-06-20T08:52:31Z","duration":"PT9M41S","thumbnail":"https://i.ytimg.com/vi/hbJ2CGYvzs8/mqdefault.jpg","viewCount":"295","playlistId":"PLEkQk5xrP-tnmTYsyW6xNdyfhPq0Bhrhj","playlistName":"مقرأة الفجر - القُرْآنُ الكَرِيمُ - خَتْمَةُ التَّدَبُّرِ  أ.د. يسري جبر","category":"متنوع"},{"id":"rISdoE6w0pU","title":"شرح صحيح البخاري كتاب الطلاق من باب 21","publishedAt":"2018-06-20T18:56:02Z","duration":"PT25M51S","thumbnail":"https://i.ytimg.com/vi/rISdoE6w0pU/mqdefault.jpg","viewCount":"426","playlistId":"PLEkQk5xrP-tlEerGoLa1AFy-2XvQ-sovv","playlistName":"شرح صحيح البخاري - أ.د. يسري جبر (كاملا)","category":"حديث"},{"id":"a3QpE3GGJo0","title":"مقرأة سورة الروم من آية ٢٨","publishedAt":"2018-06-21T07:50:36Z","duration":"PT9M48S","thumbnail":"https://i.ytimg.com/vi/a3QpE3GGJo0/mqdefault.jpg","viewCount":"343","playlistId":"PLEkQk5xrP-tnmTYsyW6xNdyfhPq0Bhrhj","playlistName":"مقرأة الفجر - القُرْآنُ الكَرِيمُ - خَتْمَةُ التَّدَبُّرِ  أ.د. يسري جبر","category":"متنوع"}],"total":7670,"page":109,"pageSize":24,"totalPages":320}