{"items":[{"id":"8JNiITtGTBg","title":"خطبة عيد الفطر المبارك  د. يسري جبر","publishedAt":"2016-07-07T08:28:19Z","duration":"PT22M19S","thumbnail":"https://i.ytimg.com/vi/8JNiITtGTBg/mqdefault.jpg","viewCount":"1329","playlistId":"PLEkQk5xrP-tnTGoEr4TI_tnp8L7Ujv9dx","playlistName":"خطب العيد","category":"خطب"},{"id":"p4P6hqktAOQ","title":"أنا من أهوى ومن أهوى أنا","publishedAt":"2016-07-07T12:39:37Z","duration":"PT1M9S","thumbnail":"https://i.ytimg.com/vi/p4P6hqktAOQ/mqdefault.jpg","viewCount":"4144","playlistId":"PLEkQk5xrP-tm8ZIu74nTOZN9KJUJu416J","playlistName":"مقاطع مُهمَّة (يُسريَّات) أ.د. يسري جبر","category":"متنوع"},{"id":"SmIpGsvOxGA","title":"نور المصطفى ملأ الأكوان","publishedAt":"2016-07-09T18:46:02Z","duration":"PT13M32S","thumbnail":"https://i.ytimg.com/vi/SmIpGsvOxGA/mqdefault.jpg","viewCount":"12484","playlistId":"PLEkQk5xrP-tm8ZIu74nTOZN9KJUJu416J","playlistName":"مقاطع مُهمَّة (يُسريَّات) أ.د. يسري جبر","category":"متنوع"},{"id":"w3S4csS_ZjI","title":"تعامل مع المباح كأنه دواء د. يسري جبر","publishedAt":"2016-07-10T19:12:40Z","duration":"PT44M9S","thumbnail":"https://i.ytimg.com/vi/w3S4csS_ZjI/mqdefault.jpg","viewCount":"656","playlistId":"PLEkQk5xrP-tlArtGpeLWaqNM7h7IDeAVC","playlistName":"خطب الجمعة أ.د. يسري جبر","category":"خطب"},{"id":"m_EKiNRJdwc","title":"قراءة القرآن (من آية ٦٢ سورة آل عمران)","publishedAt":"2016-07-11T17:15:12Z","duration":"PT16M25S","thumbnail":"https://i.ytimg.com/vi/m_EKiNRJdwc/mqdefault.jpg","viewCount":"554","playlistId":"PLEkQk5xrP-tnmTYsyW6xNdyfhPq0Bhrhj","playlistName":"مقرأة الفجر - القُرْآنُ الكَرِيمُ - خَتْمَةُ التَّدَبُّرِ  أ.د. يسري جبر","category":"متنوع"},{"id":"kYxziUzTpq4","title":"شرح كتاب المناقب من سنن الترمذي - المجلس الرابع عشر","publishedAt":"2016-07-11T19:08:10Z","duration":"PT21M10S","thumbnail":"https://i.ytimg.com/vi/kYxziUzTpq4/mqdefault.jpg","viewCount":"120","playlistId":"PLEkQk5xrP-tnu6of679SvxdVx0qSrJzmb","playlistName":"شرح سنن الإمام الترمذي رضى الله عنه د. يسري جبر","category":"متنوع"},{"id":"5n92_ffe6ts","title":"( 119 ) حديث الإفك وبراءة السيدة عائشة أم المؤمنين منه - المجلس الخامس","publishedAt":"2016-07-11T19:11:57Z","duration":"PT16M20S","thumbnail":"https://i.ytimg.com/vi/5n92_ffe6ts/mqdefault.jpg","viewCount":"161","playlistId":"PLEkQk5xrP-tnl7vb7KeAoPd5ZlqKKW8KV","playlistName":"شرح كتاب بهجة النفوس أ.د . يسرى جبر","category":"متنوع"},{"id":"pt9RKWnDUvc","title":"الحمدُ للهٍ أنَا بكَ وَإليكَ  أ.د يسري جبر","publishedAt":"2016-07-11T20:56:28Z","duration":"PT1M32S","thumbnail":"https://i.ytimg.com/vi/pt9RKWnDUvc/mqdefault.jpg","viewCount":"1507","playlistId":"PLEkQk5xrP-tm8ZIu74nTOZN9KJUJu416J","playlistName":"مقاطع مُهمَّة (يُسريَّات) أ.د. يسري جبر","category":"متنوع"},{"id":"3fluTVksOtQ","title":"قراءة القرآن (من آية ٦٩ سورة آل عمران)","publishedAt":"2016-07-11T21:31:33Z","duration":"PT13M38S","thumbnail":"https://i.ytimg.com/vi/3fluTVksOtQ/mqdefault.jpg","viewCount":"504","playlistId":"PLEkQk5xrP-tnmTYsyW6xNdyfhPq0Bhrhj","playlistName":"مقرأة الفجر - القُرْآنُ الكَرِيمُ - خَتْمَةُ التَّدَبُّرِ  أ.د. يسري جبر","category":"متنوع"},{"id":"KHxnkeG7UJk","title":"شرح كتاب المناقب من سنن الترمذي - المجلس الخامس عشر","publishedAt":"2016-07-11T21:32:00Z","duration":"PT12M44S","thumbnail":"https://i.ytimg.com/vi/KHxnkeG7UJk/mqdefault.jpg","viewCount":"110","playlistId":"PLEkQk5xrP-tnu6of679SvxdVx0qSrJzmb","playlistName":"شرح سنن الإمام الترمذي رضى الله عنه د. يسري جبر","category":"متنوع"},{"id":"iZli3a-8oyY","title":"شرح كتاب المناقب من سنن الترمذي - المجلس السادس عشر","publishedAt":"2016-07-12T03:26:50Z","duration":"PT11M1S","thumbnail":"https://i.ytimg.com/vi/iZli3a-8oyY/mqdefault.jpg","viewCount":"105","playlistId":"PLEkQk5xrP-tnu6of679SvxdVx0qSrJzmb","playlistName":"شرح سنن الإمام الترمذي رضى الله عنه د. يسري جبر","category":"متنوع"},{"id":"J1juSDqHYRQ","title":"قراءة القرآن (من آية  ٧٥سورة آل عمران)","publishedAt":"2016-07-12T03:30:43Z","duration":"PT13M47S","thumbnail":"https://i.ytimg.com/vi/J1juSDqHYRQ/mqdefault.jpg","viewCount":"517","playlistId":"PLEkQk5xrP-tnmTYsyW6xNdyfhPq0Bhrhj","playlistName":"مقرأة الفجر - القُرْآنُ الكَرِيمُ - خَتْمَةُ التَّدَبُّرِ  أ.د. يسري جبر","category":"متنوع"},{"id":"ZsDW_Ot1sMs","title":"شرح كتاب المناقب من سنن الترمذي - المجلس السابع عشر","publishedAt":"2016-07-12T07:03:46Z","duration":"PT13M8S","thumbnail":"https://i.ytimg.com/vi/ZsDW_Ot1sMs/mqdefault.jpg","viewCount":"110","playlistId":"PLEkQk5xrP-tnu6of679SvxdVx0qSrJzmb","playlistName":"شرح سنن الإمام الترمذي رضى الله عنه د. يسري جبر","category":"متنوع"},{"id":"FxlxLjpBglw","title":"قراءة القرآن (من آية ٧٩ سورة آل عمران)","publishedAt":"2016-07-12T07:06:21Z","duration":"PT12M9S","thumbnail":"https://i.ytimg.com/vi/FxlxLjpBglw/mqdefault.jpg","viewCount":"516","playlistId":"PLEkQk5xrP-tnmTYsyW6xNdyfhPq0Bhrhj","playlistName":"مقرأة الفجر - القُرْآنُ الكَرِيمُ - خَتْمَةُ التَّدَبُّرِ  أ.د. يسري جبر","category":"متنوع"},{"id":"rZC9oBtYaJ0","title":"( 119 ) حديث الإفك وبراءة السيدة عائشة أم المؤمنين منه - المجلس السادس","publishedAt":"2016-07-12T20:29:41Z","duration":"PT20M14S","thumbnail":"https://i.ytimg.com/vi/rZC9oBtYaJ0/mqdefault.jpg","viewCount":"238","playlistId":"PLEkQk5xrP-tnl7vb7KeAoPd5ZlqKKW8KV","playlistName":"شرح كتاب بهجة النفوس أ.د . يسرى جبر","category":"متنوع"},{"id":"rv9s9Qom2FY","title":"قراءة القرآن (من آية ٨٦ سورة آل عمران)","publishedAt":"2016-07-14T10:40:40Z","duration":"PT12M33S","thumbnail":"https://i.ytimg.com/vi/rv9s9Qom2FY/mqdefault.jpg","viewCount":"558","playlistId":"PLEkQk5xrP-tnmTYsyW6xNdyfhPq0Bhrhj","playlistName":"مقرأة الفجر - القُرْآنُ الكَرِيمُ - خَتْمَةُ التَّدَبُّرِ  أ.د. يسري جبر","category":"متنوع"},{"id":"f7MWKf4pDrE","title":"شرح كتاب المناقب من سنن الترمذي - المجلس التاسع عشر","publishedAt":"2016-07-14T10:41:21Z","duration":"PT12M33S","thumbnail":"https://i.ytimg.com/vi/f7MWKf4pDrE/mqdefault.jpg","viewCount":"94","playlistId":"PLEkQk5xrP-tnu6of679SvxdVx0qSrJzmb","playlistName":"شرح سنن الإمام الترمذي رضى الله عنه د. يسري جبر","category":"متنوع"},{"id":"Ir5Zcn1hMX0","title":"قراءة القرآن (من آية ٨٣ سورة آل عمران)","publishedAt":"2016-07-14T10:41:45Z","duration":"PT16M30S","thumbnail":"https://i.ytimg.com/vi/Ir5Zcn1hMX0/mqdefault.jpg","viewCount":"515","playlistId":"PLEkQk5xrP-tnmTYsyW6xNdyfhPq0Bhrhj","playlistName":"مقرأة الفجر - القُرْآنُ الكَرِيمُ - خَتْمَةُ التَّدَبُّرِ  أ.د. يسري جبر","category":"متنوع"},{"id":"jcxOn-nolD4","title":"شرح كتاب المناقب من سنن الترمذي - المجلس الثامن عشر","publishedAt":"2016-07-14T10:42:09Z","duration":"PT14M34S","thumbnail":"https://i.ytimg.com/vi/jcxOn-nolD4/mqdefault.jpg","viewCount":"104","playlistId":"PLEkQk5xrP-tnu6of679SvxdVx0qSrJzmb","playlistName":"شرح سنن الإمام الترمذي رضى الله عنه د. يسري جبر","category":"متنوع"},{"id":"ttEDtbySDo4","title":"قراءة القرآن (من آية ٩٣ سورة آل عمران)","publishedAt":"2016-07-14T13:04:40Z","duration":"PT13M36S","thumbnail":"https://i.ytimg.com/vi/ttEDtbySDo4/mqdefault.jpg","viewCount":"481","playlistId":"PLEkQk5xrP-tnmTYsyW6xNdyfhPq0Bhrhj","playlistName":"مقرأة الفجر - القُرْآنُ الكَرِيمُ - خَتْمَةُ التَّدَبُّرِ  أ.د. يسري جبر","category":"متنوع"},{"id":"UYKvYBNBkUQ","title":"شرح كتاب المناقب من سنن الترمذي - المجلس العشرون","publishedAt":"2016-07-14T13:05:05Z","duration":"PT14M3S","thumbnail":"https://i.ytimg.com/vi/UYKvYBNBkUQ/mqdefault.jpg","viewCount":"109","playlistId":"PLEkQk5xrP-tnu6of679SvxdVx0qSrJzmb","playlistName":"شرح سنن الإمام الترمذي رضى الله عنه د. يسري جبر","category":"متنوع"},{"id":"Eta6cvFIKKY","title":"شرح كتاب المناقب من سنن الترمذي - المجلس الحادي والعشرون","publishedAt":"2016-07-14T15:21:42Z","duration":"PT13M18S","thumbnail":"https://i.ytimg.com/vi/Eta6cvFIKKY/mqdefault.jpg","viewCount":"141","playlistId":"PLEkQk5xrP-tnu6of679SvxdVx0qSrJzmb","playlistName":"شرح سنن الإمام الترمذي رضى الله عنه د. يسري جبر","category":"متنوع"},{"id":"u8mPRWHVxpU","title":"قراءة القرآن (من آية ٩٦ سورة آل عمران)","publishedAt":"2016-07-14T15:38:27Z","duration":"PT17M37S","thumbnail":"https://i.ytimg.com/vi/u8mPRWHVxpU/mqdefault.jpg","viewCount":"530","playlistId":"PLEkQk5xrP-tnmTYsyW6xNdyfhPq0Bhrhj","playlistName":"مقرأة الفجر - القُرْآنُ الكَرِيمُ - خَتْمَةُ التَّدَبُّرِ  أ.د. يسري جبر","category":"متنوع"},{"id":"FfKCsB8yTqQ","title":"منوعات إيمانية د. يسري جبر","publishedAt":"2016-07-16T15:04:51Z","duration":"PT46M25S","thumbnail":"https://i.ytimg.com/vi/FfKCsB8yTqQ/mqdefault.jpg","viewCount":"946","playlistId":"PLEkQk5xrP-tlArtGpeLWaqNM7h7IDeAVC","playlistName":"خطب الجمعة أ.د. يسري جبر","category":"خطب"}],"total":7675,"page":43,"pageSize":24,"totalPages":320}