{"items":[{"id":"cvN9NLtfPuU","title":"مقرأة سورة الكهف من آية ٦٠","publishedAt":"2017-10-30T04:03:24Z","duration":"PT24M5S","thumbnail":"https://i.ytimg.com/vi/cvN9NLtfPuU/mqdefault.jpg","viewCount":"487","playlistId":"PLEkQk5xrP-tnmTYsyW6xNdyfhPq0Bhrhj","playlistName":"مقرأة الفجر - القُرْآنُ الكَرِيمُ - خَتْمَةُ التَّدَبُّرِ  أ.د. يسري جبر","category":"متنوع"},{"id":"6eC1gOHxKKU","title":"شرح صحيح البخاري- كتاب المناقب من باب ١٦","publishedAt":"2017-10-30T04:04:22Z","duration":"PT27M41S","thumbnail":"https://i.ytimg.com/vi/6eC1gOHxKKU/mqdefault.jpg","viewCount":"598","playlistId":"PLEkQk5xrP-tlEerGoLa1AFy-2XvQ-sovv","playlistName":"شرح صحيح البخاري - أ.د. يسري جبر (كاملا)","category":"حديث"},{"id":"LU8pPhM05DI","title":"مقرأة سورة الكهف من آية ٧١","publishedAt":"2017-10-30T18:28:23Z","duration":"PT15M34S","thumbnail":"https://i.ytimg.com/vi/LU8pPhM05DI/mqdefault.jpg","viewCount":"423","playlistId":"PLEkQk5xrP-tnmTYsyW6xNdyfhPq0Bhrhj","playlistName":"مقرأة الفجر - القُرْآنُ الكَرِيمُ - خَتْمَةُ التَّدَبُّرِ  أ.د. يسري جبر","category":"متنوع"},{"id":"pRA3dAxfJHw","title":"شرح صحيح البخاري- كتاب المناقب من باب ٢٤","publishedAt":"2017-10-30T18:29:07Z","duration":"PT45M51S","thumbnail":"https://i.ytimg.com/vi/pRA3dAxfJHw/mqdefault.jpg","viewCount":"679","playlistId":"PLEkQk5xrP-tlEerGoLa1AFy-2XvQ-sovv","playlistName":"شرح صحيح البخاري - أ.د. يسري جبر (كاملا)","category":"حديث"},{"id":"RchZXC9ApwA","title":"مقرأة سورة الكهف من آية ٧٩","publishedAt":"2017-10-31T16:30:49Z","duration":"PT28M8S","thumbnail":"https://i.ytimg.com/vi/RchZXC9ApwA/mqdefault.jpg","viewCount":"495","playlistId":"PLEkQk5xrP-tnmTYsyW6xNdyfhPq0Bhrhj","playlistName":"مقرأة الفجر - القُرْآنُ الكَرِيمُ - خَتْمَةُ التَّدَبُّرِ  أ.د. يسري جبر","category":"متنوع"},{"id":"CEjIw9yNg0U","title":"شرح صحيح البخاري- كتاب المناقب من باب ٢٥","publishedAt":"2017-10-31T22:15:46Z","duration":"PT39M23S","thumbnail":"https://i.ytimg.com/vi/CEjIw9yNg0U/mqdefault.jpg","viewCount":"647","playlistId":"PLEkQk5xrP-tlEerGoLa1AFy-2XvQ-sovv","playlistName":"شرح صحيح البخاري - أ.د. يسري جبر (كاملا)","category":"حديث"},{"id":"uiATWML_An8","title":"مقرأة سورة الكهف من آية ٨٣","publishedAt":"2017-11-01T20:55:05Z","duration":"PT30M15S","thumbnail":"https://i.ytimg.com/vi/uiATWML_An8/mqdefault.jpg","viewCount":"538","playlistId":"PLEkQk5xrP-tnmTYsyW6xNdyfhPq0Bhrhj","playlistName":"مقرأة الفجر - القُرْآنُ الكَرِيمُ - خَتْمَةُ التَّدَبُّرِ  أ.د. يسري جبر","category":"متنوع"},{"id":"BQ-hnZN1DlM","title":"شرح صحيح البخاري - كتاب المناقب تكملة باب ٢٦ المجلس الثاني","publishedAt":"2017-11-01T23:37:52Z","duration":"PT41M40S","thumbnail":"https://i.ytimg.com/vi/BQ-hnZN1DlM/mqdefault.jpg","viewCount":"708","playlistId":"PLEkQk5xrP-tlEerGoLa1AFy-2XvQ-sovv","playlistName":"شرح صحيح البخاري - أ.د. يسري جبر (كاملا)","category":"حديث"},{"id":"PD1XQ4bKVIY","title":"مقرأة سورة الكهف من آية ٩٩","publishedAt":"2017-11-02T11:44:32Z","duration":"PT36M30S","thumbnail":"https://i.ytimg.com/vi/PD1XQ4bKVIY/mqdefault.jpg","viewCount":"573","playlistId":"PLEkQk5xrP-tnmTYsyW6xNdyfhPq0Bhrhj","playlistName":"مقرأة الفجر - القُرْآنُ الكَرِيمُ - خَتْمَةُ التَّدَبُّرِ  أ.د. يسري جبر","category":"متنوع"},{"id":"jJnYgI8iUoQ","title":"شرح صحيح البخاري- كتاب المناقب تكملة باب ٢٦ المجلس الثالث","publishedAt":"2017-11-02T15:56:14Z","duration":"PT24M30S","thumbnail":"https://i.ytimg.com/vi/jJnYgI8iUoQ/mqdefault.jpg","viewCount":"507","playlistId":"PLEkQk5xrP-tlEerGoLa1AFy-2XvQ-sovv","playlistName":"شرح صحيح البخاري - أ.د. يسري جبر (كاملا)","category":"حديث"},{"id":"WMDHEL3rq3o","title":"مقرأة سورة مريم من أولها","publishedAt":"2017-11-03T07:05:43Z","duration":"PT19M43S","thumbnail":"https://i.ytimg.com/vi/WMDHEL3rq3o/mqdefault.jpg","viewCount":"815","playlistId":"PLEkQk5xrP-tnmTYsyW6xNdyfhPq0Bhrhj","playlistName":"مقرأة الفجر - القُرْآنُ الكَرِيمُ - خَتْمَةُ التَّدَبُّرِ  أ.د. يسري جبر","category":"متنوع"},{"id":"s_NJBM7w9cY","title":"شرح صحيح البخاري- كتاب المناقب تكملة باب ٢٦ المجلس الرابع","publishedAt":"2017-11-03T10:54:11Z","duration":"PT35M3S","thumbnail":"https://i.ytimg.com/vi/s_NJBM7w9cY/mqdefault.jpg","viewCount":"593","playlistId":"PLEkQk5xrP-tlEerGoLa1AFy-2XvQ-sovv","playlistName":"شرح صحيح البخاري - أ.د. يسري جبر (كاملا)","category":"حديث"},{"id":"m0mAsyAHlLM","title":"مقرأة سورة مريم من آية ٩","publishedAt":"2017-11-03T16:07:02Z","duration":"PT13M46S","thumbnail":"https://i.ytimg.com/vi/m0mAsyAHlLM/mqdefault.jpg","viewCount":"471","playlistId":"PLEkQk5xrP-tnmTYsyW6xNdyfhPq0Bhrhj","playlistName":"مقرأة الفجر - القُرْآنُ الكَرِيمُ - خَتْمَةُ التَّدَبُّرِ  أ.د. يسري جبر","category":"متنوع"},{"id":"uFRDlzfIxbs","title":"شرح صحيح البخاري- كتاب المناقب تكملة باب ٢٦ المجلس الخامس","publishedAt":"2017-11-03T19:11:41Z","duration":"PT38M29S","thumbnail":"https://i.ytimg.com/vi/uFRDlzfIxbs/mqdefault.jpg","viewCount":"609","playlistId":"PLEkQk5xrP-tlEerGoLa1AFy-2XvQ-sovv","playlistName":"شرح صحيح البخاري - أ.د. يسري جبر (كاملا)","category":"حديث"},{"id":"AJf1HyTMt00","title":"مقرأة سورة مريم من آية ١٦","publishedAt":"2017-11-04T07:20:50Z","duration":"PT18M3S","thumbnail":"https://i.ytimg.com/vi/AJf1HyTMt00/mqdefault.jpg","viewCount":"491","playlistId":"PLEkQk5xrP-tnmTYsyW6xNdyfhPq0Bhrhj","playlistName":"مقرأة الفجر - القُرْآنُ الكَرِيمُ - خَتْمَةُ التَّدَبُّرِ  أ.د. يسري جبر","category":"متنوع"},{"id":"IOUFAy3DgiY","title":"شرح صحيح البخاري- كتاب المناقب تكملة باب ٢٦ المجلس السادس","publishedAt":"2017-11-04T13:36:48Z","duration":"PT29M52S","thumbnail":"https://i.ytimg.com/vi/IOUFAy3DgiY/mqdefault.jpg","viewCount":"548","playlistId":"PLEkQk5xrP-tlEerGoLa1AFy-2XvQ-sovv","playlistName":"شرح صحيح البخاري - أ.د. يسري جبر (كاملا)","category":"حديث"},{"id":"Uq8xaL9JIFc","title":"مقرأة سورة مريم من آية ٢٧","publishedAt":"2017-11-05T11:18:43Z","duration":"PT16M22S","thumbnail":"https://i.ytimg.com/vi/Uq8xaL9JIFc/mqdefault.jpg","viewCount":"408","playlistId":"PLEkQk5xrP-tnmTYsyW6xNdyfhPq0Bhrhj","playlistName":"مقرأة الفجر - القُرْآنُ الكَرِيمُ - خَتْمَةُ التَّدَبُّرِ  أ.د. يسري جبر","category":"متنوع"},{"id":"4xcMw0xqpg4","title":"شرح صحيح البخاري- كتاب المناقب من باب ٢٧","publishedAt":"2017-11-05T21:05:00Z","duration":"PT31M41S","thumbnail":"https://i.ytimg.com/vi/4xcMw0xqpg4/mqdefault.jpg","viewCount":"589","playlistId":"PLEkQk5xrP-tlEerGoLa1AFy-2XvQ-sovv","playlistName":"شرح صحيح البخاري - أ.د. يسري جبر (كاملا)","category":"حديث"},{"id":"XRZu3PJAfiY","title":"منظور الحب في الإسلام","publishedAt":"2017-11-06T04:39:03Z","duration":"PT36M42S","thumbnail":"https://i.ytimg.com/vi/XRZu3PJAfiY/mqdefault.jpg","viewCount":"786","playlistId":"PLEkQk5xrP-tlArtGpeLWaqNM7h7IDeAVC","playlistName":"خطب الجمعة أ.د. يسري جبر","category":"خطب"},{"id":"Z45mk4FamSI","title":"شرح كتاب نوراليقين في سيرة سيد المرسلين - المجلس الثامن والعشرون ( غزوة بدر الآخرة ) د.يسري جبر","publishedAt":"2017-11-06T17:53:20Z","duration":"PT56M5S","thumbnail":"https://i.ytimg.com/vi/Z45mk4FamSI/mqdefault.jpg","viewCount":"16931","playlistId":"PLEkQk5xrP-tl2t4NQx1IhKnAJCMzF0Nli","playlistName":"شرح كتاب نور اليقين في سيرة سيد المرسلين   د. يسري جبر","category":"سيرة"},{"id":"jji8m9x1Mac","title":"صحيح الإمام البخاري رضي الله عنه - كتاب الأيمان والنذور (باب اليمين الغموس) د.يسري جبر","publishedAt":"2017-11-07T06:08:37Z","duration":"PT46M16S","thumbnail":"https://i.ytimg.com/vi/jji8m9x1Mac/mqdefault.jpg","viewCount":"104","playlistId":"PLEkQk5xrP-tmJuzaj4GWRenFoFx9gdbFX","playlistName":"شرح كتاب صحيح الإمام البخاري رضي الله تعالى عنه   أ.د. يسرى جبر","category":"حديث"},{"id":"l7SRm5qKL1c","title":"صحيح البخاري - كتاب الأيمان والنذور (باب مَن حلف ألا يدخل على أهله شهرًا وكان الشهر تسعًا وعشرين)","publishedAt":"2017-11-07T06:13:20Z","duration":"PT40M5S","thumbnail":"https://i.ytimg.com/vi/l7SRm5qKL1c/mqdefault.jpg","viewCount":"153","playlistId":"PLEkQk5xrP-tmJuzaj4GWRenFoFx9gdbFX","playlistName":"شرح كتاب صحيح الإمام البخاري رضي الله تعالى عنه   أ.د. يسرى جبر","category":"حديث"},{"id":"OwfQCQrvQMY","title":"صحيح الإمام البخاري رضي الله عنه - كتاب الأيمان والنذور (باب قول الرجل \"لَعَمْرُ الله\") د.يسري جبر","publishedAt":"2017-11-07T12:09:10Z","duration":"PT31M46S","thumbnail":"https://i.ytimg.com/vi/OwfQCQrvQMY/mqdefault.jpg","viewCount":"110","playlistId":"PLEkQk5xrP-tmJuzaj4GWRenFoFx9gdbFX","playlistName":"شرح كتاب صحيح الإمام البخاري رضي الله تعالى عنه   أ.د. يسرى جبر","category":"حديث"},{"id":"KcqkpPS0rGw","title":"مقرأة سورة مريم من آية ٣٧","publishedAt":"2017-11-08T08:54:32Z","duration":"PT6M31S","thumbnail":"https://i.ytimg.com/vi/KcqkpPS0rGw/mqdefault.jpg","viewCount":"327","playlistId":"PLEkQk5xrP-tnmTYsyW6xNdyfhPq0Bhrhj","playlistName":"مقرأة الفجر - القُرْآنُ الكَرِيمُ - خَتْمَةُ التَّدَبُّرِ  أ.د. يسري جبر","category":"متنوع"}],"total":7675,"page":87,"pageSize":24,"totalPages":320}