{"items":[{"id":"vJsw8uY66QI","title":"ููู ุณูุนุงูุจ ุงููู ูุงูุน ุงูุฒูุงุฉ ููู ุงูููุงูุฉุ | ูุฌุงูุณ ุฑูุถุงููุฉ","publishedAt":"2025-03-14T15:30:22Z","duration":"PT24M27S","thumbnail":"https://i.ytimg.com/vi/vJsw8uY66QI/mqdefault.jpg","viewCount":"1209","playlistId":"PLEkQk5xrP-tkeI_WVPfuoTJO46aVkpaz0","playlistName":"ุดุฑุญ ูุชุงุจ ููุฒุงู ุงูุงุนุชุฏุงู ูุญูุธ ุงูุฏูู ูุงูุฃุญูุงู","category":"ูุชููุน"},{"id":"uh-LE5X6QhY","title":"ุงุจูู ูุด ุจูุตูู ููุงุฐุง ุฃูุนู ูุนูุ","publishedAt":"2025-03-14T19:00:50Z","duration":"PT8M1S","thumbnail":"https://i.ytimg.com/vi/uh-LE5X6QhY/mqdefault.jpg","viewCount":"2269","playlistId":"PLEkQk5xrP-tkGXuZ9atE3k_7it12rUPTs","playlistName":"ุฃุณุฆูุฉ ุงููุชุงุจุนูู","category":"ูุชููุน"},{"id":"YCKToSCFGKk","title":"ููู ุชุตู ุฅูู ุฃุนูู ุฏุฑุฌุงุช ุงูุฅููุงูุ | ูุฌุงูุณ ุฑูุถุงููุฉ","publishedAt":"2025-03-15T15:30:11Z","duration":"PT31M22S","thumbnail":"https://i.ytimg.com/vi/YCKToSCFGKk/mqdefault.jpg","viewCount":"6033","playlistId":"PLEkQk5xrP-tkeI_WVPfuoTJO46aVkpaz0","playlistName":"ุดุฑุญ ูุชุงุจ ููุฒุงู ุงูุงุนุชุฏุงู ูุญูุธ ุงูุฏูู ูุงูุฃุญูุงู","category":"ูุชููุน"},{"id":"qyXeQSAUne8","title":"ุฃูู ูุฑุตุฉ ููููุฉ ุงููุฏุฑ ูุฐุง ุงูุนุงู!","publishedAt":"2025-03-15T19:00:42Z","duration":"PT8M8S","thumbnail":"https://i.ytimg.com/vi/qyXeQSAUne8/mqdefault.jpg","viewCount":"3327","playlistId":"PLEkQk5xrP-tlArtGpeLWaqNM7h7IDeAVC","playlistName":"ุฎุทุจ ุงูุฌูุนุฉ ุฃ.ุฏ. ูุณุฑู ุฌุจุฑ","category":"ุฎุทุจ"},{"id":"XVGvSEfr5WU","title":"ุชุนุฑู ุนูู ุนุฌุงุฆุจ ุงูุตุฏูุฉ ูุงุซุฑูุง ูู ุญูุงุชู | ูุฌุงูุณ ุฑูุถุงููุฉ","publishedAt":"2025-03-16T15:30:09Z","duration":"PT26M21S","thumbnail":"https://i.ytimg.com/vi/XVGvSEfr5WU/mqdefault.jpg","viewCount":"5699","playlistId":"PLEkQk5xrP-tkeI_WVPfuoTJO46aVkpaz0","playlistName":"ุดุฑุญ ูุชุงุจ ููุฒุงู ุงูุงุนุชุฏุงู ูุญูุธ ุงูุฏูู ูุงูุฃุญูุงู","category":"ูุชููุน"},{"id":"PMwJpUTqzJQ","title":"ูุทุงุฆู ูุฅุดุงุฑุงุช ูู ุฐูุฑู ุบุฒูุฉ ุจุฏุฑ","publishedAt":"2025-03-16T19:00:15Z","duration":"PT13M2S","thumbnail":"https://i.ytimg.com/vi/PMwJpUTqzJQ/mqdefault.jpg","viewCount":"3427","playlistId":"PLEkQk5xrP-tlArtGpeLWaqNM7h7IDeAVC","playlistName":"ุฎุทุจ ุงูุฌูุนุฉ ุฃ.ุฏ. ูุณุฑู ุฌุจุฑ","category":"ุฎุทุจ"},{"id":"FGzmm9lPeR0","title":"ุฅุทุนุงู ุงูุทุนุงู ููุชุงุญ ูุฏุฎูู ุงูุฌูุฉ! | ูุฌุงูุณ ุฑูุถุงููุฉ","publishedAt":"2025-03-17T15:30:04Z","duration":"PT45M8S","thumbnail":"https://i.ytimg.com/vi/FGzmm9lPeR0/mqdefault.jpg","viewCount":"2672","playlistId":"PLEkQk5xrP-tkeI_WVPfuoTJO46aVkpaz0","playlistName":"ุดุฑุญ ูุชุงุจ ููุฒุงู ุงูุงุนุชุฏุงู ูุญูุธ ุงูุฏูู ูุงูุฃุญูุงู","category":"ูุชููุน"},{"id":"BLYT_LxZ6Tc","title":"3 ุนุจุงุฏุงุช ุชุถูู ูู ุงูุฌูุฉ","publishedAt":"2025-03-17T19:00:12Z","duration":"PT8M16S","thumbnail":"https://i.ytimg.com/vi/BLYT_LxZ6Tc/mqdefault.jpg","viewCount":"2389","playlistId":"PLEkQk5xrP-tm8ZIu74nTOZN9KJUJu416J","playlistName":"ููุงุทุน ููููููุฉ (ููุณุฑูููุงุช) ุฃ.ุฏ. ูุณุฑู ุฌุจุฑ","category":"ูุชููุน"},{"id":"JtYUm3IHLdg","title":"ูุตุต ุงููุจู ูุงูุตุญุงุจุฉ ูุน ุงูุฅููุงู ูู ุณุจูู ุงููู | ูุฌุงูุณ ุฑูุถุงููุฉ","publishedAt":"2025-03-18T15:00:29Z","duration":"PT29M18S","thumbnail":"https://i.ytimg.com/vi/JtYUm3IHLdg/mqdefault.jpg","viewCount":"2038","playlistId":"PLEkQk5xrP-tkeI_WVPfuoTJO46aVkpaz0","playlistName":"ุดุฑุญ ูุชุงุจ ููุฒุงู ุงูุงุนุชุฏุงู ูุญูุธ ุงูุฏูู ูุงูุฃุญูุงู","category":"ูุชููุน"},{"id":"Xv4qryaPm6Y","title":"ูุง ุญูู ุงูุตูุงุฉ ุฌุงูุณุง ูุน ูุฏุฑุชู ุนูู ุงูููููุ","publishedAt":"2025-03-18T19:00:23Z","duration":"PT15M43S","thumbnail":"https://i.ytimg.com/vi/Xv4qryaPm6Y/mqdefault.jpg","viewCount":"3808","playlistId":"PLEkQk5xrP-tkGXuZ9atE3k_7it12rUPTs","playlistName":"ุฃุณุฆูุฉ ุงููุชุงุจุนูู","category":"ูุชููุน"},{"id":"rMqs5UZ6ZzE","title":"ูุง ูู ุตูุงุช ุงูุดุฎุต ุงูุจุฎูู ูููููุฉ ุนูุงุฌูุ | ูุฌุงูุณ ุฑูุถุงููุฉ","publishedAt":"2025-03-19T15:01:17Z","duration":"PT26M50S","thumbnail":"https://i.ytimg.com/vi/rMqs5UZ6ZzE/mqdefault.jpg","viewCount":"2120","playlistId":"PLEkQk5xrP-tkeI_WVPfuoTJO46aVkpaz0","playlistName":"ุดุฑุญ ูุชุงุจ ููุฒุงู ุงูุงุนุชุฏุงู ูุญูุธ ุงูุฏูู ูุงูุฃุญูุงู","category":"ูุชููุน"},{"id":"zNgVtJd4FlA","title":"ุจุฏุงูุฉ ุงูุนุดุฑ ุงูุฃูุงุฎุฑ ููุชู ุณุชููู ูููุฉ ุงููุฏุฑุ","publishedAt":"2025-03-19T19:00:52Z","duration":"PT11M49S","thumbnail":"https://i.ytimg.com/vi/zNgVtJd4FlA/mqdefault.jpg","viewCount":"8019","playlistId":"PLEkQk5xrP-tlArtGpeLWaqNM7h7IDeAVC","playlistName":"ุฎุทุจ ุงูุฌูุนุฉ ุฃ.ุฏ. ูุณุฑู ุฌุจุฑ","category":"ุฎุทุจ"},{"id":"QtD2ClPUbvk","title":"ูู ูุฌุจ ุงูุชุฃูุฏ ูู ุญุงุฌุฉ ุงููููุฑ ูุจู ุงูุชุตุฏู ุนูููุ | ูุฌุงูุณ ุฑูุถุงููุฉ","publishedAt":"2025-03-20T15:00:29Z","duration":"PT21M34S","thumbnail":"https://i.ytimg.com/vi/QtD2ClPUbvk/mqdefault.jpg","viewCount":"1864","playlistId":"PLEkQk5xrP-tkeI_WVPfuoTJO46aVkpaz0","playlistName":"ุดุฑุญ ูุชุงุจ ููุฒุงู ุงูุงุนุชุฏุงู ูุญูุธ ุงูุฏูู ูุงูุฃุญูุงู","category":"ูุชููุน"},{"id":"-kD6fHiKv_4","title":"ูุถู ุงูุนุดุฑ ุงูุฃูุงุฎุฑ ูู ุฑูุถุงู ูููุนุฏ ูููุฉ ุงููุฏุฑ ุจูุณุจุฉ ูุจูุฑุฉ! ๐คฒ๐","publishedAt":"2025-03-20T19:00:00Z","duration":"PT15M12S","thumbnail":"https://i.ytimg.com/vi/-kD6fHiKv_4/mqdefault.jpg","viewCount":"13721","playlistId":"PLEkQk5xrP-tm8ZIu74nTOZN9KJUJu416J","playlistName":"ููุงุทุน ููููููุฉ (ููุณุฑูููุงุช) ุฃ.ุฏ. ูุณุฑู ุฌุจุฑ","category":"ูุชููุน"},{"id":"MwPpnh2BESc","title":"ูุง ูู ุฃุฑูุงู ุงูุตูุงู | ูุฌุงูุณ ุฑูุถุงููุฉ","publishedAt":"2025-03-21T15:00:27Z","duration":"PT28M11S","thumbnail":"https://i.ytimg.com/vi/MwPpnh2BESc/mqdefault.jpg","viewCount":"1211","playlistId":"PLEkQk5xrP-tkeI_WVPfuoTJO46aVkpaz0","playlistName":"ุดุฑุญ ูุชุงุจ ููุฒุงู ุงูุงุนุชุฏุงู ูุญูุธ ุงูุฏูู ูุงูุฃุญูุงู","category":"ูุชููุน"},{"id":"84rzM7EXRMo","title":"ููู ุชุชุถุงุนู ุญุณูุงุชู ูู ุงูุฃูุงู ุงููุชุจููุฉ ูู ุฑูุถุงูุ","publishedAt":"2025-03-21T19:00:06Z","duration":"PT14M37S","thumbnail":"https://i.ytimg.com/vi/84rzM7EXRMo/mqdefault.jpg","viewCount":"4809","playlistId":"PLEkQk5xrP-tlArtGpeLWaqNM7h7IDeAVC","playlistName":"ุฎุทุจ ุงูุฌูุนุฉ ุฃ.ุฏ. ูุณุฑู ุฌุจุฑ","category":"ุฎุทุจ"},{"id":"B9mA5zW-OAY","title":"ุนุงูู ููุฏู ูุชุญุฏู ูุดุงูุฎ ุงูููุงุจูุฉ! | ูุฌุงูุณ ุงูุงุนุชูุงู","publishedAt":"2025-03-22T10:00:10Z","duration":"PT33M28S","thumbnail":"https://i.ytimg.com/vi/B9mA5zW-OAY/mqdefault.jpg","viewCount":"14228","playlistId":"PLEkQk5xrP-tly7ti7Qb_lS7xjUg_fwlNP","playlistName":"ุดุฑุญ ูุชุงุจ ุงูุฏููุฉ ุงููููุฉ ุจุงููุงุฏุฉ ุงูุบูุจูุฉ","category":"ูุชููุน"},{"id":"U9gsf5B7Shw","title":"ููุงุฐุง ุฎุต ุงููู ุงูุตูุงู ุจุฃุฌุฑ ูู ุนูุฏูุ | ูุฌุงูุณ ุฑูุถุงููุฉ","publishedAt":"2025-03-22T15:00:37Z","duration":"PT24M13S","thumbnail":"https://i.ytimg.com/vi/U9gsf5B7Shw/mqdefault.jpg","viewCount":"1574","playlistId":"PLEkQk5xrP-tkeI_WVPfuoTJO46aVkpaz0","playlistName":"ุดุฑุญ ูุชุงุจ ููุฒุงู ุงูุงุนุชุฏุงู ูุญูุธ ุงูุฏูู ูุงูุฃุญูุงู","category":"ูุชููุน"},{"id":"EeT3tSoohFY","title":"ููู ุชููู ูู ุฃูู ุงูุชูููุ","publishedAt":"2025-03-22T19:00:08Z","duration":"PT8M48S","thumbnail":"https://i.ytimg.com/vi/EeT3tSoohFY/mqdefault.jpg","viewCount":"1639","playlistId":"PLEkQk5xrP-tlArtGpeLWaqNM7h7IDeAVC","playlistName":"ุฎุทุจ ุงูุฌูุนุฉ ุฃ.ุฏ. ูุณุฑู ุฌุจุฑ","category":"ุฎุทุจ"},{"id":"XStctykjS0c","title":"ุงูุฑุฏ ุนูู ุดุจูุงุช ุงูููุงุจูุฉ ุญูู ุงููุงุณุทุฉ! | ูุฌุงูุณ ุงูุงุนุชูุงู","publishedAt":"2025-03-23T10:00:41Z","duration":"PT36M1S","thumbnail":"https://i.ytimg.com/vi/XStctykjS0c/mqdefault.jpg","viewCount":"4860","playlistId":"PLEkQk5xrP-tly7ti7Qb_lS7xjUg_fwlNP","playlistName":"ุดุฑุญ ูุชุงุจ ุงูุฏููุฉ ุงููููุฉ ุจุงููุงุฏุฉ ุงูุบูุจูุฉ","category":"ูุชููุน"},{"id":"3QpWeDl64fw","title":"ููู ุชุฎุชู ุฑูุถุงู ุจุฃุนูู ุฏุฑุฌุงุช ุงูุตููุ | ูุฌุงูุณ ุฑูุถุงููุฉ","publishedAt":"2025-03-23T15:00:04Z","duration":"PT17M3S","thumbnail":"https://i.ytimg.com/vi/3QpWeDl64fw/mqdefault.jpg","viewCount":"1799","playlistId":"PLEkQk5xrP-tkeI_WVPfuoTJO46aVkpaz0","playlistName":"ุดุฑุญ ูุชุงุจ ููุฒุงู ุงูุงุนุชุฏุงู ูุญูุธ ุงูุฏูู ูุงูุฃุญูุงู","category":"ูุชููุน"},{"id":"fofLUBTbIoE","title":"ูุง ูุนูู ุงูุฌุฐุจ ููุง ุฃููุงุนูุ","publishedAt":"2025-03-23T19:00:34Z","duration":"PT8M9S","thumbnail":"https://i.ytimg.com/vi/fofLUBTbIoE/mqdefault.jpg","viewCount":"6452","playlistId":"PLEkQk5xrP-tkGXuZ9atE3k_7it12rUPTs","playlistName":"ุฃุณุฆูุฉ ุงููุชุงุจุนูู","category":"ูุชููุน"},{"id":"pfxgW_qrWXM","title":"ุงูุฑุฏ ุนูู ูู ูููุฑ ุฎุตูุตูุฉ ุงููุจู ๏ทบ | ูุฌุงูุณ ุงูุงุนุชูุงู","publishedAt":"2025-03-24T10:01:04Z","duration":"PT35M21S","thumbnail":"https://i.ytimg.com/vi/pfxgW_qrWXM/mqdefault.jpg","viewCount":"3190","playlistId":"PLEkQk5xrP-tly7ti7Qb_lS7xjUg_fwlNP","playlistName":"ุดุฑุญ ูุชุงุจ ุงูุฏููุฉ ุงููููุฉ ุจุงููุงุฏุฉ ุงูุบูุจูุฉ","category":"ูุชููุน"},{"id":"HbTScUzbRws","title":"ููู ุชููู ุนุจุงุฏุชูุง ููุจููุฉ ุนูุฏ ุงูููุ | ูุฌุงูุณ ุฑูุถุงููุฉ","publishedAt":"2025-03-24T15:00:22Z","duration":"PT23M41S","thumbnail":"https://i.ytimg.com/vi/HbTScUzbRws/mqdefault.jpg","viewCount":"1897","playlistId":"PLEkQk5xrP-tkeI_WVPfuoTJO46aVkpaz0","playlistName":"ุดุฑุญ ูุชุงุจ ููุฒุงู ุงูุงุนุชุฏุงู ูุญูุธ ุงูุฏูู ูุงูุฃุญูุงู","category":"ูุชููุน"}],"total":7675,"page":308,"pageSize":24,"totalPages":320}