{"items":[{"id":"N0MhxhCZLsM","title":"الأسلوب الثاني: الحذف(8)\"أقسام الحذف\" النوع الخامس - شرح البرهان في علوم القرآن","publishedAt":"2021-06-21T07:23:48Z","duration":"PT10M46S","thumbnail":"https://i.ytimg.com/vi/N0MhxhCZLsM/mqdefault.jpg","viewCount":"347","playlistId":"PLEkQk5xrP-tnW3iBL7HkKziOFCFZbTlf0","playlistName":"شرح البرهان في علوم القرآن - أ.د. يسري جبر","category":"تفسير"},{"id":"SOxirrqzFlA","title":"تفسير الأحلام حقيقة أم خرافة؟","publishedAt":"2021-06-21T18:45:00Z","duration":"PT13M37S","thumbnail":"https://i.ytimg.com/vi/SOxirrqzFlA/mqdefault.jpg","viewCount":"23488","playlistId":"PLEkQk5xrP-tm8ZIu74nTOZN9KJUJu416J","playlistName":"مقاطع مُهمَّة (يُسريَّات) أ.د. يسري جبر","category":"متنوع"},{"id":"rFnjA0wgwK8","title":"82- \"هَلَكَ المُتَنَطِّعُونَ\" قَالَهَا ثلاثًا - شرح دليل الفالحين","publishedAt":"2021-06-22T06:45:24Z","duration":"PT31M43S","thumbnail":"https://i.ytimg.com/vi/rFnjA0wgwK8/mqdefault.jpg","viewCount":"1921","playlistId":"PLEkQk5xrP-tkc9DXvSLguqX5-FYp6ASR4","playlistName":"دليل الفالحين لطرق رياض الصالحين","category":"متنوع"},{"id":"hmJPnQlkY5k","title":"ما حكم الغش في الامتحان؟","publishedAt":"2021-06-22T18:00:16Z","duration":"PT10M57S","thumbnail":"https://i.ytimg.com/vi/hmJPnQlkY5k/mqdefault.jpg","viewCount":"4757","playlistId":"PLEkQk5xrP-tkGXuZ9atE3k_7it12rUPTs","playlistName":"أسئلة المتابعين","category":"متنوع"},{"id":"yoMApCrOtT0","title":"هل يجب أخذ الإذن عند الذكر؟","publishedAt":"2021-06-23T17:58:22Z","duration":"PT10M33S","thumbnail":"https://i.ytimg.com/vi/yoMApCrOtT0/mqdefault.jpg","viewCount":"10428","playlistId":"PLEkQk5xrP-tm8ZIu74nTOZN9KJUJu416J","playlistName":"مقاطع مُهمَّة (يُسريَّات) أ.د. يسري جبر","category":"متنوع"},{"id":"1T3Pzf-tfTc","title":"الأسلوب الثاني: الحذف(9)\"أقسام الحذف\" النوع السابع - شرح البرهان في علوم القرآن","publishedAt":"2021-06-24T06:04:28Z","duration":"PT43M5S","thumbnail":"https://i.ytimg.com/vi/1T3Pzf-tfTc/mqdefault.jpg","viewCount":"395","playlistId":"PLEkQk5xrP-tnW3iBL7HkKziOFCFZbTlf0","playlistName":"شرح البرهان في علوم القرآن - أ.د. يسري جبر","category":"تفسير"},{"id":"_fhRb0bE5Vg","title":"إزاي اتعامل مع الفساد والرشوة في شغلي؟","publishedAt":"2021-06-24T17:30:05Z","duration":"PT9M47S","thumbnail":"https://i.ytimg.com/vi/_fhRb0bE5Vg/mqdefault.jpg","viewCount":"8641","playlistId":"PLEkQk5xrP-tl6tFiMFGUucCTvLgnWyAfz","playlistName":"حياة الأستاذ الدكتور يسري جبر","category":"متنوع"},{"id":"LnaLUJ33M_w","title":"83- \"آخى النَّبيُّ ﷺ بين سلمان وأبي الدَّرداء، فزار سلمانُ أبا الدَّرداء…،\" - شرح دليل الفالحين","publishedAt":"2021-06-25T07:51:01Z","duration":"PT52M8S","thumbnail":"https://i.ytimg.com/vi/LnaLUJ33M_w/mqdefault.jpg","viewCount":"1406","playlistId":"PLEkQk5xrP-tkc9DXvSLguqX5-FYp6ASR4","playlistName":"دليل الفالحين لطرق رياض الصالحين","category":"متنوع"},{"id":"g5TcudoYi6o","title":"أفضل الأعمال في الأشهر الحرم","publishedAt":"2021-06-25T18:14:21Z","duration":"PT12M15S","thumbnail":"https://i.ytimg.com/vi/g5TcudoYi6o/mqdefault.jpg","viewCount":"5218","playlistId":"PLEkQk5xrP-tlArtGpeLWaqNM7h7IDeAVC","playlistName":"خطب الجمعة أ.د. يسري جبر","category":"خطب"},{"id":"N6jwjmXOIqs","title":"الأسلوب الثاني: الحذف(10)\"أقسام الحذف\" النوع الثامن\"الاختزال\" - شرح البرهان في علوم القرآن","publishedAt":"2021-06-26T06:33:38Z","duration":"PT12M40S","thumbnail":"https://i.ytimg.com/vi/N6jwjmXOIqs/mqdefault.jpg","viewCount":"403","playlistId":"PLEkQk5xrP-tnW3iBL7HkKziOFCFZbTlf0","playlistName":"شرح البرهان في علوم القرآن - أ.د. يسري جبر","category":"تفسير"},{"id":"upEZQE5WhKc","title":"أريد التوبة ولكن أكرر الذنب ,, ماذا أفعل؟","publishedAt":"2021-06-26T19:10:09Z","duration":"PT11M28S","thumbnail":"https://i.ytimg.com/vi/upEZQE5WhKc/mqdefault.jpg","viewCount":"8950","playlistId":"PLEkQk5xrP-tm8ZIu74nTOZN9KJUJu416J","playlistName":"مقاطع مُهمَّة (يُسريَّات) أ.د. يسري جبر","category":"متنوع"},{"id":"UwtlTXhbySc","title":"84- \"لا صام مَن صام الأبد\" - شرح دليل الفالحين","publishedAt":"2021-06-27T05:49:46Z","duration":"PT44M6S","thumbnail":"https://i.ytimg.com/vi/UwtlTXhbySc/mqdefault.jpg","viewCount":"1163","playlistId":"PLEkQk5xrP-tkc9DXvSLguqX5-FYp6ASR4","playlistName":"دليل الفالحين لطرق رياض الصالحين","category":"متنوع"},{"id":"9LJDxqX9a9o","title":"بشوف أشياء غريبة وخايفة يكون جن ,, ماذا أفعل؟","publishedAt":"2021-06-27T18:55:25Z","duration":"PT10M5S","thumbnail":"https://i.ytimg.com/vi/9LJDxqX9a9o/mqdefault.jpg","viewCount":"9084","playlistId":"PLEkQk5xrP-tm8ZIu74nTOZN9KJUJu416J","playlistName":"مقاطع مُهمَّة (يُسريَّات) أ.د. يسري جبر","category":"متنوع"},{"id":"IYCnaPkPI14","title":"الأسلوب الثاني:الحذف(11) أقسام الحذف: النوع الثامن:الاختزال(2)حذف الخبر - شرح البرهان في علوم القرآن","publishedAt":"2021-06-28T06:30:10Z","duration":"PT29M17S","thumbnail":"https://i.ytimg.com/vi/IYCnaPkPI14/mqdefault.jpg","viewCount":"394","playlistId":"PLEkQk5xrP-tnW3iBL7HkKziOFCFZbTlf0","playlistName":"شرح البرهان في علوم القرآن - أ.د. يسري جبر","category":"تفسير"},{"id":"pexvPXkfAS0","title":"خطر الوهابية على المسلمين","publishedAt":"2021-06-28T19:02:10Z","duration":"PT15M14S","thumbnail":"https://i.ytimg.com/vi/pexvPXkfAS0/mqdefault.jpg","viewCount":"118541","playlistId":"PLEkQk5xrP-tlArtGpeLWaqNM7h7IDeAVC","playlistName":"خطب الجمعة أ.د. يسري جبر","category":"خطب"},{"id":"zBD-D5Oz8gg","title":"سيدي أبو الحسن الشاذلي | أ.د. يسري جبر","publishedAt":"2021-06-28T21:15:01Z","duration":"PT17M57S","thumbnail":"https://i.ytimg.com/vi/zBD-D5Oz8gg/mqdefault.jpg","viewCount":"68516","playlistId":"PLEkQk5xrP-tm8ZIu74nTOZN9KJUJu416J","playlistName":"مقاطع مُهمَّة (يُسريَّات) أ.د. يسري جبر","category":"متنوع"},{"id":"qlua6Idnp2Y","title":"85- المحافظة على الأعمال - شرح دليل الفالحين","publishedAt":"2021-06-29T08:39:15Z","duration":"PT28M52S","thumbnail":"https://i.ytimg.com/vi/qlua6Idnp2Y/mqdefault.jpg","viewCount":"1217","playlistId":"PLEkQk5xrP-tkc9DXvSLguqX5-FYp6ASR4","playlistName":"دليل الفالحين لطرق رياض الصالحين","category":"متنوع"},{"id":"VQCqBxVdHjE","title":"لماذا خرج الوهابية عن أهل السنة والجماعة؟","publishedAt":"2021-06-29T20:15:01Z","duration":"PT14M35S","thumbnail":"https://i.ytimg.com/vi/VQCqBxVdHjE/mqdefault.jpg","viewCount":"35303","playlistId":"PLEkQk5xrP-tlArtGpeLWaqNM7h7IDeAVC","playlistName":"خطب الجمعة أ.د. يسري جبر","category":"خطب"},{"id":"TH17_FIfZY4","title":"الأسلوب الثاني الحذف(12)أقسام الحذف: الثامن:الاختزال(3)حذف الفاعل - شرح البرهان في علوم القرآن","publishedAt":"2021-06-30T07:59:17Z","duration":"PT17M41S","thumbnail":"https://i.ytimg.com/vi/TH17_FIfZY4/mqdefault.jpg","viewCount":"304","playlistId":"PLEkQk5xrP-tnW3iBL7HkKziOFCFZbTlf0","playlistName":"شرح البرهان في علوم القرآن - أ.د. يسري جبر","category":"تفسير"},{"id":"Yf2S7BIPbAY","title":"86- المحافظةُ على السُّنَّة وآدابها \"دَعُونِي مَا تَرَكْتُكُم…\" شرح دليل الفالحين","publishedAt":"2021-06-30T19:49:49Z","duration":"PT37M29S","thumbnail":"https://i.ytimg.com/vi/Yf2S7BIPbAY/mqdefault.jpg","viewCount":"1741","playlistId":"PLEkQk5xrP-tkc9DXvSLguqX5-FYp6ASR4","playlistName":"دليل الفالحين لطرق رياض الصالحين","category":"متنوع"},{"id":"K3VA1dWGVAo","title":"الأسلوب الثاني: الحذف(13):أقسام الحذف\"الثامن:الاختزال(4) حذف المضاف وإقامة… - البرهان في علوم القرآن","publishedAt":"2021-07-01T08:26:56Z","duration":"PT21M12S","thumbnail":"https://i.ytimg.com/vi/K3VA1dWGVAo/mqdefault.jpg","viewCount":"434","playlistId":"PLEkQk5xrP-tnW3iBL7HkKziOFCFZbTlf0","playlistName":"شرح البرهان في علوم القرآن - أ.د. يسري جبر","category":"تفسير"},{"id":"k52w4U53VgM","title":"87- \"وعَظَنَا رسولُ الله ﷺ مَوْعظَةً وجِلَتْ منها القلوبُ، وذَرَفَت منها العيونُ…\" شرح دليل الفالحين","publishedAt":"2021-07-01T18:04:48Z","duration":"PT36M59S","thumbnail":"https://i.ytimg.com/vi/k52w4U53VgM/mqdefault.jpg","viewCount":"3412","playlistId":"PLEkQk5xrP-tkc9DXvSLguqX5-FYp6ASR4","playlistName":"دليل الفالحين لطرق رياض الصالحين","category":"متنوع"},{"id":"enwGDNQCSmA","title":"الاختزال(5)حذف المضاف وإقامة المضاف إليه مقامه(أمثلة) شرح البرهان في علوم القرآن","publishedAt":"2021-07-02T07:01:31Z","duration":"PT21M12S","thumbnail":"https://i.ytimg.com/vi/enwGDNQCSmA/mqdefault.jpg","viewCount":"389","playlistId":"PLEkQk5xrP-tnW3iBL7HkKziOFCFZbTlf0","playlistName":"شرح البرهان في علوم القرآن - أ.د. يسري جبر","category":"تفسير"},{"id":"RjNj9q4sASQ","title":"خطورة الوهابية","publishedAt":"2021-07-02T18:59:16Z","duration":"PT48M17S","thumbnail":"https://i.ytimg.com/vi/RjNj9q4sASQ/mqdefault.jpg","viewCount":"20972","playlistId":"PLEkQk5xrP-tlArtGpeLWaqNM7h7IDeAVC","playlistName":"خطب الجمعة أ.د. يسري جبر","category":"خطب"}],"total":7675,"page":203,"pageSize":24,"totalPages":320}