{"items":[{"id":"8m6QREa2mms","title":"2012-02-19 أحتفال د  يسري جبر بالمولد بالبدرشين.avi","publishedAt":"2012-03-11T04:23:29Z","duration":"PT2H26M15S","thumbnail":"https://i.ytimg.com/vi/8m6QREa2mms/mqdefault.jpg","viewCount":"2575","playlistId":"PLEkQk5xrP-tmJzNvLntpzW0uPanPzxA0c","playlistName":"لقاءات ومحاضرات","category":"متنوع"},{"id":"CU-0zkB4MzE","title":"وصف النبي صل الله عليه وسلم","publishedAt":"2012-05-27T07:53:47Z","duration":"PT2H22M28S","thumbnail":"https://i.ytimg.com/vi/CU-0zkB4MzE/mqdefault.jpg","viewCount":"51437","playlistId":"PLEkQk5xrP-tmJzNvLntpzW0uPanPzxA0c","playlistName":"لقاءات ومحاضرات","category":"متنوع"},{"id":"ionvxx04Hgs","title":"حكم الاضرحة وهدمها واتخاذها المقابر | الحلقة 12 من فتاوى الدكتور يسري جبر | قناة أزهر تى فى Azhar TV","publishedAt":"2012-09-16T10:49:45Z","duration":"PT1H33M21S","thumbnail":"https://i.ytimg.com/vi/ionvxx04Hgs/mqdefault.jpg","viewCount":"23437","playlistId":"PLEkQk5xrP-tmJzNvLntpzW0uPanPzxA0c","playlistName":"لقاءات ومحاضرات","category":"متنوع"},{"id":"cuKhw5cxRvg","title":"شرح حديث لاتشد الرحال إلا إلى ثلاثة مساجد","publishedAt":"2012-09-28T07:13:36Z","duration":"PT14M43S","thumbnail":"https://i.ytimg.com/vi/cuKhw5cxRvg/mqdefault.jpg","viewCount":"8953","playlistId":"PLEkQk5xrP-tm8ZIu74nTOZN9KJUJu416J","playlistName":"مقاطع مُهمَّة (يُسريَّات) أ.د. يسري جبر","category":"متنوع"},{"id":"tcOFrmq0v9M","title":"مقطع من احتفال المولد 2013 - د. يسري رشدي","publishedAt":"2013-04-24T11:49:31Z","duration":"PT1M6S","thumbnail":"https://i.ytimg.com/vi/tcOFrmq0v9M/mqdefault.jpg","viewCount":"617","playlistId":"PLEkQk5xrP-tm8ZIu74nTOZN9KJUJu416J","playlistName":"مقاطع مُهمَّة (يُسريَّات) أ.د. يسري جبر","category":"متنوع"},{"id":"oFKjzTDDwCA","title":"دليل حرمة التدخين وأنه من الكبائر","publishedAt":"2013-07-18T16:20:28Z","duration":"PT12M48S","thumbnail":"https://i.ytimg.com/vi/oFKjzTDDwCA/mqdefault.jpg","viewCount":"5254","playlistId":"PLEkQk5xrP-tm8ZIu74nTOZN9KJUJu416J","playlistName":"مقاطع مُهمَّة (يُسريَّات) أ.د. يسري جبر","category":"متنوع"},{"id":"ff0cuGAVzVk","title":"المجلس الأول من شرح الخريدة البهية","publishedAt":"2013-07-31T16:40:04Z","duration":"PT1H7M20S","thumbnail":"https://i.ytimg.com/vi/ff0cuGAVzVk/mqdefault.jpg","viewCount":"53927","playlistId":"PLEkQk5xrP-tnI6h_R1hvYgrrstFAJCvv9","playlistName":"شرح الخريدة البهية د. يسري جبر","category":"متنوع"},{"id":"cvukvpUXjNc","title":"المجلس الثاني من شرح الخريدة البهية","publishedAt":"2013-08-02T13:10:41Z","duration":"PT52M49S","thumbnail":"https://i.ytimg.com/vi/cvukvpUXjNc/mqdefault.jpg","viewCount":"20651","playlistId":"PLEkQk5xrP-tnI6h_R1hvYgrrstFAJCvv9","playlistName":"شرح الخريدة البهية د. يسري جبر","category":"متنوع"},{"id":"AsFKJEv0V1o","title":"المجلس الثالث من شرح الخريدة البهية","publishedAt":"2013-08-03T11:30:54Z","duration":"PT1H2M25S","thumbnail":"https://i.ytimg.com/vi/AsFKJEv0V1o/mqdefault.jpg","viewCount":"15293","playlistId":"PLEkQk5xrP-tnI6h_R1hvYgrrstFAJCvv9","playlistName":"شرح الخريدة البهية د. يسري جبر","category":"متنوع"},{"id":"H7PJSsNAxHI","title":"المجلس الرابع من شرح الخريدة البهية","publishedAt":"2013-08-03T16:06:02Z","duration":"PT55M35S","thumbnail":"https://i.ytimg.com/vi/H7PJSsNAxHI/mqdefault.jpg","viewCount":"12195","playlistId":"PLEkQk5xrP-tnI6h_R1hvYgrrstFAJCvv9","playlistName":"شرح الخريدة البهية د. يسري جبر","category":"متنوع"},{"id":"Me9e5ZwM_pA","title":"المجلس الخامس من شرح الخريدة البهية","publishedAt":"2013-08-04T16:23:14Z","duration":"PT1H1M43S","thumbnail":"https://i.ytimg.com/vi/Me9e5ZwM_pA/mqdefault.jpg","viewCount":"10226","playlistId":"PLEkQk5xrP-tnI6h_R1hvYgrrstFAJCvv9","playlistName":"شرح الخريدة البهية د. يسري جبر","category":"متنوع"},{"id":"py_52YiKAuM","title":"المجلس السادس من شرح الخريدة البهية","publishedAt":"2013-08-06T13:03:41Z","duration":"PT1H4M28S","thumbnail":"https://i.ytimg.com/vi/py_52YiKAuM/mqdefault.jpg","viewCount":"10113","playlistId":"PLEkQk5xrP-tnI6h_R1hvYgrrstFAJCvv9","playlistName":"شرح الخريدة البهية د. يسري جبر","category":"متنوع"},{"id":"VA50fhbVQKw","title":"المجلس السابع من شرح الخريدة البهية","publishedAt":"2013-08-07T14:41:13Z","duration":"PT1H10M45S","thumbnail":"https://i.ytimg.com/vi/VA50fhbVQKw/mqdefault.jpg","viewCount":"8760","playlistId":"PLEkQk5xrP-tnI6h_R1hvYgrrstFAJCvv9","playlistName":"شرح الخريدة البهية د. يسري جبر","category":"متنوع"},{"id":"hLxVUzlP4Ls","title":"معنى حديث الجارية عند أهل السنة والجماعة والرد على الوهابية المجسمة","publishedAt":"2013-10-09T10:59:46Z","duration":"PT7M33S","thumbnail":"https://i.ytimg.com/vi/hLxVUzlP4Ls/mqdefault.jpg","viewCount":"31847","playlistId":"PLEkQk5xrP-tm8ZIu74nTOZN9KJUJu416J","playlistName":"مقاطع مُهمَّة (يُسريَّات) أ.د. يسري جبر","category":"متنوع"},{"id":"4M0DKKCk_Ic","title":"حقيقة الأولية المحمدية بدليل القرآن والسنة","publishedAt":"2013-11-07T02:25:36Z","duration":"PT5M22S","thumbnail":"https://i.ytimg.com/vi/4M0DKKCk_Ic/mqdefault.jpg","viewCount":"13074","playlistId":"PLEkQk5xrP-tm8ZIu74nTOZN9KJUJu416J","playlistName":"مقاطع مُهمَّة (يُسريَّات) أ.د. يسري جبر","category":"متنوع"},{"id":"UCwuM4av7l4","title":"مقدمة شرح كتاب فتح القريب المجيب - فقه شافعي","publishedAt":"2013-11-17T12:43:06Z","duration":"PT1H34M9S","thumbnail":"https://i.ytimg.com/vi/UCwuM4av7l4/mqdefault.jpg","viewCount":"23268","playlistId":"PLEkQk5xrP-tlyOgfNBZTZgoATzVW4mI20","playlistName":"كتاب فتح القريب المجيب (علم الفقه الشافعي)","category":"فقه"},{"id":"lHE8vtw6qA4","title":"معنى وحدة الوجود عند أهل السنة والجماعة","publishedAt":"2013-11-30T19:12:47Z","duration":"PT7M43S","thumbnail":"https://i.ytimg.com/vi/lHE8vtw6qA4/mqdefault.jpg","viewCount":"35875","playlistId":"PLEkQk5xrP-tm8ZIu74nTOZN9KJUJu416J","playlistName":"مقاطع مُهمَّة (يُسريَّات) أ.د. يسري جبر","category":"متنوع"},{"id":"DecPcbYzTvo","title":"شرح صلوات سيدى أحمد الدردير رضي الله عنه- حرف الهمزة","publishedAt":"2013-12-25T19:07:11Z","duration":"PT26M52S","thumbnail":"https://i.ytimg.com/vi/DecPcbYzTvo/mqdefault.jpg","viewCount":"5777","playlistId":"PLEkQk5xrP-tlXZQuhEiJGJka1QcRw7fbW","playlistName":"شرح الصلوات الدرديرية لسيدي أحمد الدردير رضي الله عنه","category":"ردود"},{"id":"TUbtSVFKhHc","title":"شرح صلوات سيدى أحمد الدردير رضي الله عنه - حرف الباء","publishedAt":"2013-12-29T21:49:18Z","duration":"PT12M43S","thumbnail":"https://i.ytimg.com/vi/TUbtSVFKhHc/mqdefault.jpg","viewCount":"1572","playlistId":"PLEkQk5xrP-tlXZQuhEiJGJka1QcRw7fbW","playlistName":"شرح الصلوات الدرديرية لسيدي أحمد الدردير رضي الله عنه","category":"ردود"},{"id":"brMRJ-61F7U","title":"مقطع من شرح صلوات سيدى أحمد الدردير رضي الله عنه - حرف التاء","publishedAt":"2014-01-01T18:49:07Z","duration":"PT15M58S","thumbnail":"https://i.ytimg.com/vi/brMRJ-61F7U/mqdefault.jpg","viewCount":"1154","playlistId":"PLEkQk5xrP-tlXZQuhEiJGJka1QcRw7fbW","playlistName":"شرح الصلوات الدرديرية لسيدي أحمد الدردير رضي الله عنه","category":"ردود"},{"id":"ufTMfYtFQrg","title":"شرح صلوات سيدى أحمد الدردير رضي الله عنه - حرف الثاء والجيم والحاء والخاء","publishedAt":"2014-01-09T17:41:49Z","duration":"PT36M52S","thumbnail":"https://i.ytimg.com/vi/ufTMfYtFQrg/mqdefault.jpg","viewCount":"959","playlistId":"PLEkQk5xrP-tlXZQuhEiJGJka1QcRw7fbW","playlistName":"شرح الصلوات الدرديرية لسيدي أحمد الدردير رضي الله عنه","category":"ردود"},{"id":"EyidV0rHy_0","title":"شرح صلوات سيدى أحمد الدردير رضي الله عنه - حرفا الدال و الذال","publishedAt":"2014-01-25T20:04:28Z","duration":"PT21M18S","thumbnail":"https://i.ytimg.com/vi/EyidV0rHy_0/mqdefault.jpg","viewCount":"799","playlistId":"PLEkQk5xrP-tlXZQuhEiJGJka1QcRw7fbW","playlistName":"شرح الصلوات الدرديرية لسيدي أحمد الدردير رضي الله عنه","category":"ردود"},{"id":"HS3GDLTEqvo","title":"شرح صلوات سيدى أحمد الدردير رضي الله عنه - حرف الراء والزاى والسين والشين والصاد","publishedAt":"2014-02-20T13:09:36Z","duration":"PT33M39S","thumbnail":"https://i.ytimg.com/vi/HS3GDLTEqvo/mqdefault.jpg","viewCount":"767","playlistId":"PLEkQk5xrP-tlXZQuhEiJGJka1QcRw7fbW","playlistName":"شرح الصلوات الدرديرية لسيدي أحمد الدردير رضي الله عنه","category":"ردود"},{"id":"Q50aoGlqekU","title":"شرح صلوات سيدى أحمد الدردير رضي الله عنه - حرف الضاد والطاء والظاء والعين والغين","publishedAt":"2014-02-20T14:47:15Z","duration":"PT27M21S","thumbnail":"https://i.ytimg.com/vi/Q50aoGlqekU/mqdefault.jpg","viewCount":"643","playlistId":"PLEkQk5xrP-tlXZQuhEiJGJka1QcRw7fbW","playlistName":"شرح الصلوات الدرديرية لسيدي أحمد الدردير رضي الله عنه","category":"ردود"}],"total":7670,"page":1,"pageSize":24,"totalPages":320}