{"items":[{"id":"eYHuf7pXbHw","title":"127- تكملة حديث مَن تكلّم في المَهْد (الطفل الذي تكّلم في المَهْد)  -  شرح دليل الفالحين","publishedAt":"2021-09-15T05:50:35Z","duration":"PT37M2S","thumbnail":"https://i.ytimg.com/vi/eYHuf7pXbHw/mqdefault.jpg","viewCount":"841","playlistId":"PLEkQk5xrP-tkc9DXvSLguqX5-FYp6ASR4","playlistName":"دليل الفالحين لطرق رياض الصالحين","category":"متنوع"},{"id":"Y3SmvO9np-I","title":"الرسالة القشيرية - المجلس (90) بَابُ التصوف۲ | أ.د. يسري جبر","publishedAt":"2021-09-15T19:30:04Z","duration":"PT58M20S","thumbnail":"https://i.ytimg.com/vi/Y3SmvO9np-I/mqdefault.jpg","viewCount":"7900","playlistId":"PLEkQk5xrP-tkHAGOwIKr4pc5ehhyQ5HMJ","playlistName":"كتاب الرسالة القشيرية (تصوف) - د. يسري جبر","category":"تصوف"},{"id":"o3ePvH7AmFw","title":"تقديم الظلمة على النور والليل على النهار - تكملة أنواع التقديم والتأخير  شرح البرهان في علوم القرآن","publishedAt":"2021-09-16T06:30:35Z","duration":"PT27M10S","thumbnail":"https://i.ytimg.com/vi/o3ePvH7AmFw/mqdefault.jpg","viewCount":"904","playlistId":"PLEkQk5xrP-tnW3iBL7HkKziOFCFZbTlf0","playlistName":"شرح البرهان في علوم القرآن - أ.د. يسري جبر","category":"تفسير"},{"id":"PIhPm_I1XjI","title":"حقائق وإشارات في الطريق إلى الله","publishedAt":"2021-09-16T18:23:24Z","duration":"PT41M18S","thumbnail":"https://i.ytimg.com/vi/PIhPm_I1XjI/mqdefault.jpg","viewCount":"7789","playlistId":"PLEkQk5xrP-tlArtGpeLWaqNM7h7IDeAVC","playlistName":"خطب الجمعة أ.د. يسري جبر","category":"خطب"},{"id":"zEWirUxs1_8","title":"128- ملاطفة اليتيم والبنات وسائر الضعفة والمساكين والمنكسرين، والإحسان إليهم… - شرح دليل الفالحين","publishedAt":"2021-09-17T06:48:04Z","duration":"PT49M3S","thumbnail":"https://i.ytimg.com/vi/zEWirUxs1_8/mqdefault.jpg","viewCount":"992","playlistId":"PLEkQk5xrP-tkc9DXvSLguqX5-FYp6ASR4","playlistName":"دليل الفالحين لطرق رياض الصالحين","category":"متنوع"},{"id":"1yL5ic2o33Y","title":"تفسير قوله تعالى\"وَيُنَزِّلُ مِنَ السَّمَاءِ مِنْ جِبَالٍ فِيهَا مِنْ بَرَد\"","publishedAt":"2021-09-17T17:00:01Z","duration":"PT7M21S","thumbnail":"https://i.ytimg.com/vi/1yL5ic2o33Y/mqdefault.jpg","viewCount":"3210","playlistId":"PLEkQk5xrP-tkSGrPLMt1BEmJ54cGWYgtp","playlistName":"كتابُ بِدَعِ التَفَاسِيرِ - أ.د. يسري جبر","category":"متنوع"},{"id":"2yeLoSrVRy4","title":"21- من كتاب الزكاة من أوله إلا ما كان معادا - الحديث (434)","publishedAt":"2021-09-18T03:20:37Z","duration":"PT54M53S","thumbnail":"https://i.ytimg.com/vi/2yeLoSrVRy4/mqdefault.jpg","viewCount":"563","playlistId":"PLEkQk5xrP-tlDtaqY0qhNXAiZ19gaGzKI","playlistName":"شرح مسند الإمام محمد بن إدريس الشافعيّ رضي الله تعالى عنه","category":"فقه"},{"id":"VE5q-6Cgq7w","title":"تقديم المكان على الزمان - تكملة أسباب التقديم والتأخير - شرح البرهان في علوم القرآن","publishedAt":"2021-09-18T09:23:36Z","duration":"PT15M31S","thumbnail":"https://i.ytimg.com/vi/VE5q-6Cgq7w/mqdefault.jpg","viewCount":"929","playlistId":"PLEkQk5xrP-tnW3iBL7HkKziOFCFZbTlf0","playlistName":"شرح البرهان في علوم القرآن - أ.د. يسري جبر","category":"تفسير"},{"id":"ruOT_pUF4wY","title":"هل رؤية النبي ﷺ يقظة ممكنة أم هلاوس؟","publishedAt":"2021-09-18T17:44:36Z","duration":"PT10M17S","thumbnail":"https://i.ytimg.com/vi/ruOT_pUF4wY/mqdefault.jpg","viewCount":"49501","playlistId":"PLEkQk5xrP-tkGXuZ9atE3k_7it12rUPTs","playlistName":"أسئلة المتابعين","category":"متنوع"},{"id":"RKs6kvGlxy8","title":"129- \"أنا وكافِلُ اليتِيم في الجَنَّة هكذا وأشار  بالسَّبَّابَة والوُسْطى\" - شرح دليل الفالحين","publishedAt":"2021-09-19T06:29:50Z","duration":"PT1H4M22S","thumbnail":"https://i.ytimg.com/vi/RKs6kvGlxy8/mqdefault.jpg","viewCount":"1337","playlistId":"PLEkQk5xrP-tkc9DXvSLguqX5-FYp6ASR4","playlistName":"دليل الفالحين لطرق رياض الصالحين","category":"متنوع"},{"id":"7LApRtit9AE","title":"كيف تكون أبًا صالحًا؟","publishedAt":"2021-09-19T18:28:54Z","duration":"PT8M30S","thumbnail":"https://i.ytimg.com/vi/7LApRtit9AE/mqdefault.jpg","viewCount":"4989","playlistId":"PLEkQk5xrP-tkGXuZ9atE3k_7it12rUPTs","playlistName":"أسئلة المتابعين","category":"متنوع"},{"id":"Kjf2bOlxGOw","title":"1- شرح كتاب \"فتح القريب المجيب في شرح ألفاظ التقريب\"( فقه شافعيّ) - المقدمة","publishedAt":"2021-09-20T06:55:15Z","duration":"PT1H34M9S","thumbnail":"https://i.ytimg.com/vi/Kjf2bOlxGOw/mqdefault.jpg","viewCount":"16145","playlistId":"PLEkQk5xrP-tkXuPs-0sXfWQDWzBKmcjWN","playlistName":"\"فتح القريب المجيب في شرح ألفاظ التقريب\"( فقه شافعيّ)  أ. د. يسري جبر","category":"فقه"},{"id":"3Y9Yfx1VwTE","title":"تكملة أنواع التقديم والتأخير (6) (السَّبْق) - شرح البرهان في علوم القرآن","publishedAt":"2021-09-20T12:13:53Z","duration":"PT8M33S","thumbnail":"https://i.ytimg.com/vi/3Y9Yfx1VwTE/mqdefault.jpg","viewCount":"362","playlistId":"PLEkQk5xrP-tnW3iBL7HkKziOFCFZbTlf0","playlistName":"شرح البرهان في علوم القرآن - أ.د. يسري جبر","category":"تفسير"},{"id":"fXC3kgwIb5c","title":"2- كتاب أحكام الطهارة  - أنواع المياه - شرح كتاب فتح القريب المجيب","publishedAt":"2021-09-20T19:35:01Z","duration":"PT1H41M45S","thumbnail":"https://i.ytimg.com/vi/fXC3kgwIb5c/mqdefault.jpg","viewCount":"6447","playlistId":"PLEkQk5xrP-tkXuPs-0sXfWQDWzBKmcjWN","playlistName":"\"فتح القريب المجيب في شرح ألفاظ التقريب\"( فقه شافعيّ)  أ. د. يسري جبر","category":"فقه"},{"id":"94xiZegcYDs","title":"130- مَن عالَ جارِيَتَيْنِ حتَّى تَبْلُغا، جاءَ يَومَ القِيامَةِ أنا وهو كهاتين وضَمَّ أصابِعَهُ","publishedAt":"2021-09-21T06:27:36Z","duration":"PT51M16S","thumbnail":"https://i.ytimg.com/vi/94xiZegcYDs/mqdefault.jpg","viewCount":"1065","playlistId":"PLEkQk5xrP-tkc9DXvSLguqX5-FYp6ASR4","playlistName":"دليل الفالحين لطرق رياض الصالحين","category":"متنوع"},{"id":"1EVjkD73CNY","title":"3- تطهير جلود الميتة واستعمال الأواني والسواك - شرح كتاب فتح القريب المجيب","publishedAt":"2021-09-21T12:51:08Z","duration":"PT1H24M36S","thumbnail":"https://i.ytimg.com/vi/1EVjkD73CNY/mqdefault.jpg","viewCount":"2711","playlistId":"PLEkQk5xrP-tkXuPs-0sXfWQDWzBKmcjWN","playlistName":"\"فتح القريب المجيب في شرح ألفاظ التقريب\"( فقه شافعيّ)  أ. د. يسري جبر","category":"فقه"},{"id":"hPTav_6eXIg","title":"الرسالة القشيرية - المجلس (91) بَابُ الأدب | أ.د. يسري جبر","publishedAt":"2021-09-21T18:41:30Z","duration":"PT1H6M39S","thumbnail":"https://i.ytimg.com/vi/hPTav_6eXIg/mqdefault.jpg","viewCount":"10256","playlistId":"PLEkQk5xrP-tkHAGOwIKr4pc5ehhyQ5HMJ","playlistName":"كتاب الرسالة القشيرية (تصوف) - د. يسري جبر","category":"تصوف"},{"id":"tlxYtOhCiM4","title":"4- فروض الوضوء - شرح كتاب فتح القريب المجيب","publishedAt":"2021-09-22T06:26:53Z","duration":"PT1H23M42S","thumbnail":"https://i.ytimg.com/vi/tlxYtOhCiM4/mqdefault.jpg","viewCount":"3120","playlistId":"PLEkQk5xrP-tkXuPs-0sXfWQDWzBKmcjWN","playlistName":"\"فتح القريب المجيب في شرح ألفاظ التقريب\"( فقه شافعيّ)  أ. د. يسري جبر","category":"فقه"},{"id":"hImQ40hiHAw","title":"ماذا أفعل إذا أخذت العهد ولم أستطع الوفاء به؟","publishedAt":"2021-09-22T16:24:05Z","duration":"PT11M33S","thumbnail":"https://i.ytimg.com/vi/hImQ40hiHAw/mqdefault.jpg","viewCount":"7774","playlistId":"PLEkQk5xrP-tkGXuZ9atE3k_7it12rUPTs","playlistName":"أسئلة المتابعين","category":"متنوع"},{"id":"TAZaVtKFU2w","title":"تكملة أنواع التقديم والتأخير (7) - شرح البرهان في علوم القرآن","publishedAt":"2021-09-23T04:53:20Z","duration":"PT12M28S","thumbnail":"https://i.ytimg.com/vi/TAZaVtKFU2w/mqdefault.jpg","viewCount":"322","playlistId":"PLEkQk5xrP-tnW3iBL7HkKziOFCFZbTlf0","playlistName":"شرح البرهان في علوم القرآن - أ.د. يسري جبر","category":"تفسير"},{"id":"iekE1Wr4xVM","title":"بضعٌ وستون عامًا من العلم والعطاء","publishedAt":"2021-09-23T13:54:58Z","duration":"PT11M39S","thumbnail":"https://i.ytimg.com/vi/iekE1Wr4xVM/mqdefault.jpg","viewCount":"7764","playlistId":"PLEkQk5xrP-tl6tFiMFGUucCTvLgnWyAfz","playlistName":"حياة الأستاذ الدكتور يسري جبر","category":"متنوع"},{"id":"kb9LXDqkJAk","title":"لطائف وإشارات في الطريق إلى الله","publishedAt":"2021-09-23T18:00:12Z","duration":"PT48M23S","thumbnail":"https://i.ytimg.com/vi/kb9LXDqkJAk/mqdefault.jpg","viewCount":"9991","playlistId":"PLEkQk5xrP-tlArtGpeLWaqNM7h7IDeAVC","playlistName":"خطب الجمعة أ.د. يسري جبر","category":"خطب"},{"id":"d9EB-i_-mfY","title":"131- \"اللَّهمَّ إنِّي أحرِّجُ حقَّ الضَّعيفينِ : اليتيمِ ، والمرأَةِ\" - شرح دليل الفالحين","publishedAt":"2021-09-24T06:05:50Z","duration":"PT32M59S","thumbnail":"https://i.ytimg.com/vi/d9EB-i_-mfY/mqdefault.jpg","viewCount":"1304","playlistId":"PLEkQk5xrP-tkc9DXvSLguqX5-FYp6ASR4","playlistName":"دليل الفالحين لطرق رياض الصالحين","category":"متنوع"},{"id":"q3DAKHBEzOo","title":"5-  سنن الوضوء - شرح كتاب فتح القريب المجيب","publishedAt":"2021-09-24T18:17:59Z","duration":"PT1H1M26S","thumbnail":"https://i.ytimg.com/vi/q3DAKHBEzOo/mqdefault.jpg","viewCount":"2073","playlistId":"PLEkQk5xrP-tkXuPs-0sXfWQDWzBKmcjWN","playlistName":"\"فتح القريب المجيب في شرح ألفاظ التقريب\"( فقه شافعيّ)  أ. د. يسري جبر","category":"فقه"}],"total":7670,"page":210,"pageSize":24,"totalPages":320}