{"items":[{"id":"kLyuLkiIm3w","title":"300- كَيْفِيَّةُ السَّلَامِ - شرح دليل الفالحين","publishedAt":"2022-09-11T06:15:02Z","duration":"PT47M22S","thumbnail":"https://i.ytimg.com/vi/kLyuLkiIm3w/mqdefault.jpg","viewCount":"913","playlistId":"PLEkQk5xrP-tkc9DXvSLguqX5-FYp6ASR4","playlistName":"دليل الفالحين لطرق رياض الصالحين","category":"متنوع"},{"id":"KIdHeT_JPD8","title":"كيف استُشهد سيدنا علي بن أبي طالب؟","publishedAt":"2022-09-11T18:15:08Z","duration":"PT14M33S","thumbnail":"https://i.ytimg.com/vi/KIdHeT_JPD8/mqdefault.jpg","viewCount":"19040","playlistId":"PLEkQk5xrP-tlArtGpeLWaqNM7h7IDeAVC","playlistName":"خطب الجمعة أ.د. يسري جبر","category":"خطب"},{"id":"rDsNDmsKEZo","title":"48- كيف نفهم معنى(رضاع الكبير)؟","publishedAt":"2022-09-12T07:15:02Z","duration":"PT1H2M55S","thumbnail":"https://i.ytimg.com/vi/rDsNDmsKEZo/mqdefault.jpg","viewCount":"1582","playlistId":"PLEkQk5xrP-tlDtaqY0qhNXAiZ19gaGzKI","playlistName":"شرح مسند الإمام محمد بن إدريس الشافعيّ رضي الله تعالى عنه","category":"فقه"},{"id":"_phdi4Crt8Q","title":"شرح منازل السائرين - المجلس (7) باب المحاسبة | أ.د. يسري جبر","publishedAt":"2022-09-12T18:00:14Z","duration":"PT50M24S","thumbnail":"https://i.ytimg.com/vi/_phdi4Crt8Q/mqdefault.jpg","viewCount":"10656","playlistId":"PLEkQk5xrP-tmiUfQ-2Tsn7QIak4EsvaZW","playlistName":"كتاب التيسير المعين بشرح معاني منازل السائرين (تصوف) - د.يسري جبر","category":"تصوف"},{"id":"5myVDsmu5oE","title":"1- شرح منظومة منجية العبيد في علم التوحيد","publishedAt":"2022-09-13T05:15:00Z","duration":"PT27M25S","thumbnail":"https://i.ytimg.com/vi/5myVDsmu5oE/mqdefault.jpg","viewCount":"2539","playlistId":"PLEkQk5xrP-tk3OeVFoMfKhOhyINnlPeYZ","playlistName":"الحَضْرَةُ الصِّدِّيقِيَّة والأوْرَاد","category":"متنوع"},{"id":"7fXeCioRRaQ","title":"قصة استشهاد سيدنا الحسين رضي الله عنه","publishedAt":"2022-09-13T18:00:03Z","duration":"PT15M56S","thumbnail":"https://i.ytimg.com/vi/7fXeCioRRaQ/mqdefault.jpg","viewCount":"11179","playlistId":"PLEkQk5xrP-tlArtGpeLWaqNM7h7IDeAVC","playlistName":"خطب الجمعة أ.د. يسري جبر","category":"خطب"},{"id":"GIajV8B-55k","title":"14- ومَن يقُلْ فِعْلُ الصَّلاحِ وَجَبَا *** على الإِلَه قَدْ أَسَاءَ الأَدَبَا - شرح الخريدة البهيّة","publishedAt":"2022-09-14T06:00:08Z","duration":"PT59M39S","thumbnail":"https://i.ytimg.com/vi/GIajV8B-55k/mqdefault.jpg","viewCount":"2534","playlistId":"PLEkQk5xrP-tmNuYT8JAh6clwa4krsgkNo","playlistName":"شرح كتاب الفُتُوحات اليُسريَّة في عقائد الأُمَّة المُحمَّديَّة","category":"متنوع"},{"id":"fGgqn2a8uZU","title":"شرح منازل السائرين - المجلس (8) باب الإنابةِ والتَّفَكُّرِ | أ.د. يسري جبر","publishedAt":"2022-09-14T18:00:31Z","duration":"PT51M28S","thumbnail":"https://i.ytimg.com/vi/fGgqn2a8uZU/mqdefault.jpg","viewCount":"10832","playlistId":"PLEkQk5xrP-tmiUfQ-2Tsn7QIak4EsvaZW","playlistName":"كتاب التيسير المعين بشرح معاني منازل السائرين (تصوف) - د.يسري جبر","category":"تصوف"},{"id":"ybKFY_B6ISk","title":"560- حروف المعاني(21): الحرف السابع عشر (إِمَّا) - شرح البرهان في علوم القرآن","publishedAt":"2022-09-15T06:00:15Z","duration":"PT16M51S","thumbnail":"https://i.ytimg.com/vi/ybKFY_B6ISk/mqdefault.jpg","viewCount":"568","playlistId":"PLEkQk5xrP-tnW3iBL7HkKziOFCFZbTlf0","playlistName":"شرح البرهان في علوم القرآن - أ.د. يسري جبر","category":"تفسير"},{"id":"6eBu-0KJmq8","title":"ماذا سيحدث يوم القيامة؟","publishedAt":"2022-09-15T18:00:03Z","duration":"PT14M11S","thumbnail":"https://i.ytimg.com/vi/6eBu-0KJmq8/mqdefault.jpg","viewCount":"11287","playlistId":"PLEkQk5xrP-tlArtGpeLWaqNM7h7IDeAVC","playlistName":"خطب الجمعة أ.د. يسري جبر","category":"خطب"},{"id":"YH_lk_77LdY","title":"301- آدَابُ السَّلَام - شرح دليل الفالحين","publishedAt":"2022-09-16T06:00:09Z","duration":"PT33M15S","thumbnail":"https://i.ytimg.com/vi/YH_lk_77LdY/mqdefault.jpg","viewCount":"702","playlistId":"PLEkQk5xrP-tkc9DXvSLguqX5-FYp6ASR4","playlistName":"دليل الفالحين لطرق رياض الصالحين","category":"متنوع"},{"id":"9otLnR0igz8","title":"بدع التفاسير في سورة يس و ص","publishedAt":"2022-09-16T18:00:05Z","duration":"PT10M18S","thumbnail":"https://i.ytimg.com/vi/9otLnR0igz8/mqdefault.jpg","viewCount":"4510","playlistId":"PLEkQk5xrP-tkSGrPLMt1BEmJ54cGWYgtp","playlistName":"كتابُ بِدَعِ التَفَاسِيرِ - أ.د. يسري جبر","category":"متنوع"},{"id":"EkFY7a8ibM8","title":"614-  قولُه تعالى\"إِنَّ رَحْمَتَ اللَّهِ قَرِيبٌ مِّنَ الْمُحْسِنِينَ\" - شرح صحيح الإمام البخاري","publishedAt":"2022-09-17T07:00:10Z","duration":"PT35M52S","thumbnail":"https://i.ytimg.com/vi/EkFY7a8ibM8/mqdefault.jpg","viewCount":"1834","playlistId":"PLEkQk5xrP-tmJuzaj4GWRenFoFx9gdbFX","playlistName":"شرح كتاب صحيح الإمام البخاري رضي الله تعالى عنه   أ.د. يسرى جبر","category":"حديث"},{"id":"ArnlvcPAY7o","title":"ما موقف الصوفية من سيدنا معاوية بن أبي سفيان؟","publishedAt":"2022-09-17T18:41:33Z","duration":"PT11M34S","thumbnail":"https://i.ytimg.com/vi/ArnlvcPAY7o/mqdefault.jpg","viewCount":"12347","playlistId":"PLEkQk5xrP-tkGXuZ9atE3k_7it12rUPTs","playlistName":"أسئلة المتابعين","category":"متنوع"},{"id":"zaT8fTTlR64","title":"49- كيف نفهمُ حَدّ السَّرِقَة؟","publishedAt":"2022-09-18T06:00:26Z","duration":"PT51M37S","thumbnail":"https://i.ytimg.com/vi/zaT8fTTlR64/mqdefault.jpg","viewCount":"882","playlistId":"PLEkQk5xrP-tlDtaqY0qhNXAiZ19gaGzKI","playlistName":"شرح مسند الإمام محمد بن إدريس الشافعيّ رضي الله تعالى عنه","category":"فقه"},{"id":"bydtfcr2Hzc","title":"هل يجوز ابتغاء الوسيلة للتقرب إلى الله؟","publishedAt":"2022-09-18T18:23:29Z","duration":"PT9M36S","thumbnail":"https://i.ytimg.com/vi/bydtfcr2Hzc/mqdefault.jpg","viewCount":"5653","playlistId":"PLEkQk5xrP-tkGXuZ9atE3k_7it12rUPTs","playlistName":"أسئلة المتابعين","category":"متنوع"},{"id":"YuUNYB56gtg","title":"50- حكم إفطار المرأة الحامل إذا خافت على ولدها","publishedAt":"2022-09-19T06:00:07Z","duration":"PT42M24S","thumbnail":"https://i.ytimg.com/vi/YuUNYB56gtg/mqdefault.jpg","viewCount":"534","playlistId":"PLEkQk5xrP-tlDtaqY0qhNXAiZ19gaGzKI","playlistName":"شرح مسند الإمام محمد بن إدريس الشافعيّ رضي الله تعالى عنه","category":"فقه"},{"id":"VSPLl46b0k4","title":"بدع التفاسير في فتنة سيدنا داود عليه السلام","publishedAt":"2022-09-19T18:00:20Z","duration":"PT9M33S","thumbnail":"https://i.ytimg.com/vi/VSPLl46b0k4/mqdefault.jpg","viewCount":"4268","playlistId":"PLEkQk5xrP-tkSGrPLMt1BEmJ54cGWYgtp","playlistName":"كتابُ بِدَعِ التَفَاسِيرِ - أ.د. يسري جبر","category":"متنوع"},{"id":"AfdLeQWjTw4","title":"561- حروف المعاني(22): الحرف التاسع عشر (الآن) - شرح البرهان في علوم القرآن","publishedAt":"2022-09-20T06:00:02Z","duration":"PT25M52S","thumbnail":"https://i.ytimg.com/vi/AfdLeQWjTw4/mqdefault.jpg","viewCount":"537","playlistId":"PLEkQk5xrP-tnW3iBL7HkKziOFCFZbTlf0","playlistName":"شرح البرهان في علوم القرآن - أ.د. يسري جبر","category":"تفسير"},{"id":"QAbrGqgApdI","title":"كيف تعرف إذا كان الابتلاء عقوبة أم امتحان؟","publishedAt":"2022-09-20T18:00:14Z","duration":"PT14M37S","thumbnail":"https://i.ytimg.com/vi/QAbrGqgApdI/mqdefault.jpg","viewCount":"36239","playlistId":"PLEkQk5xrP-tlArtGpeLWaqNM7h7IDeAVC","playlistName":"خطب الجمعة أ.د. يسري جبر","category":"خطب"},{"id":"LJ71eZ-Wydc","title":"302- سَلَامُ الرَّجُلِ عَلَى زَوجَتِه - شرح دليل الفالحين","publishedAt":"2022-09-21T06:00:04Z","duration":"PT36M24S","thumbnail":"https://i.ytimg.com/vi/LJ71eZ-Wydc/mqdefault.jpg","viewCount":"981","playlistId":"PLEkQk5xrP-tkc9DXvSLguqX5-FYp6ASR4","playlistName":"دليل الفالحين لطرق رياض الصالحين","category":"متنوع"},{"id":"S5J5qvApxsI","title":"2-  أحكام حكم العقل - شرح منظومة منجية العبيد في علم التوحيد","publishedAt":"2022-09-21T18:00:10Z","duration":"PT43M16S","thumbnail":"https://i.ytimg.com/vi/S5J5qvApxsI/mqdefault.jpg","viewCount":"1919","playlistId":"PLEkQk5xrP-tk3OeVFoMfKhOhyINnlPeYZ","playlistName":"الحَضْرَةُ الصِّدِّيقِيَّة والأوْرَاد","category":"متنوع"},{"id":"OjfLrNe2ijo","title":"562- حروف المعاني(23): الحرف(22) (أَيَّان) - شرح البرهان في علوم القرآن","publishedAt":"2022-09-22T06:00:08Z","duration":"PT8M4S","thumbnail":"https://i.ytimg.com/vi/OjfLrNe2ijo/mqdefault.jpg","viewCount":"417","playlistId":"PLEkQk5xrP-tnW3iBL7HkKziOFCFZbTlf0","playlistName":"شرح البرهان في علوم القرآن - أ.د. يسري جبر","category":"تفسير"},{"id":"QSwagL61KFk","title":"كيف تتأسى بالنَّبيّ ﷺ في حياتك؟","publishedAt":"2022-09-22T18:00:18Z","duration":"PT18M51S","thumbnail":"https://i.ytimg.com/vi/QSwagL61KFk/mqdefault.jpg","viewCount":"3578","playlistId":"PLEkQk5xrP-tlArtGpeLWaqNM7h7IDeAVC","playlistName":"خطب الجمعة أ.د. يسري جبر","category":"خطب"}],"total":7670,"page":241,"pageSize":24,"totalPages":320}