{"items":[{"id":"sZGx1IPZSsU","title":"صحيح الإمام البخاري رضي الله عنه - كتاب الذبائح والصيد والتسمية على الصيد -المجلس السابع د. يسري جبر","publishedAt":"2016-04-16T20:10:29Z","duration":"PT40M55S","thumbnail":"https://i.ytimg.com/vi/sZGx1IPZSsU/mqdefault.jpg","viewCount":"92","playlistId":"PLEkQk5xrP-tmJuzaj4GWRenFoFx9gdbFX","playlistName":"شرح كتاب صحيح الإمام البخاري رضي الله تعالى عنه   أ.د. يسرى جبر","category":"حديث"},{"id":"YLGlvhcF9gg","title":"سُورة البقرة آية 17","publishedAt":"2016-04-17T05:15:37Z","duration":"PT16M37S","thumbnail":"https://i.ytimg.com/vi/YLGlvhcF9gg/mqdefault.jpg","viewCount":"4748","playlistId":"PLEkQk5xrP-tnmTYsyW6xNdyfhPq0Bhrhj","playlistName":"مقرأة الفجر - القُرْآنُ الكَرِيمُ - خَتْمَةُ التَّدَبُّرِ  أ.د. يسري جبر","category":"متنوع"},{"id":"uVsZICF2jKk","title":"شرح كتاب تفسير القرآن من سنن الترمذي - المجلس العاشر","publishedAt":"2016-04-17T05:17:31Z","duration":"PT38M14S","thumbnail":"https://i.ytimg.com/vi/uVsZICF2jKk/mqdefault.jpg","viewCount":"127","playlistId":"PLEkQk5xrP-tnu6of679SvxdVx0qSrJzmb","playlistName":"شرح سنن الإمام الترمذي رضى الله عنه د. يسري جبر","category":"متنوع"},{"id":"UFGBYllbTdo","title":"9- باب الْمُسْتَحَاضَةِ ك الطهارة ك الموطأ د يسري جبر الأزهري بمضيفة الشيخ سعيد الدح","publishedAt":"2016-04-17T20:23:05Z","duration":"PT42M58S","thumbnail":"https://i.ytimg.com/vi/UFGBYllbTdo/mqdefault.jpg","viewCount":"744","playlistId":"PLEkQk5xrP-tnC6BRuqMjyO-484iqXeg0o","playlistName":"شرح كتاب الموطأ للإمام مالك","category":"متنوع"},{"id":"cInXJeOy7Ow","title":"سُورة البقرة آية 26","publishedAt":"2016-04-18T03:15:14Z","duration":"PT27M17S","thumbnail":"https://i.ytimg.com/vi/cInXJeOy7Ow/mqdefault.jpg","viewCount":"3501","playlistId":"PLEkQk5xrP-tnmTYsyW6xNdyfhPq0Bhrhj","playlistName":"مقرأة الفجر - القُرْآنُ الكَرِيمُ - خَتْمَةُ التَّدَبُّرِ  أ.د. يسري جبر","category":"متنوع"},{"id":"FAP8ZcQj5nA","title":"شرح كتاب تفسير القرآن من سنن الترمذي - المجلس الحادي عشر","publishedAt":"2016-04-19T01:54:58Z","duration":"PT35M21S","thumbnail":"https://i.ytimg.com/vi/FAP8ZcQj5nA/mqdefault.jpg","viewCount":"120","playlistId":"PLEkQk5xrP-tnu6of679SvxdVx0qSrJzmb","playlistName":"شرح سنن الإمام الترمذي رضى الله عنه د. يسري جبر","category":"متنوع"},{"id":"ZFn-FzHK3E0","title":"سورة البقرة آية 29","publishedAt":"2016-04-19T10:37:32Z","duration":"PT32M55S","thumbnail":"https://i.ytimg.com/vi/ZFn-FzHK3E0/mqdefault.jpg","viewCount":"2926","playlistId":"PLEkQk5xrP-tnmTYsyW6xNdyfhPq0Bhrhj","playlistName":"مقرأة الفجر - القُرْآنُ الكَرِيمُ - خَتْمَةُ التَّدَبُّرِ  أ.د. يسري جبر","category":"متنوع"},{"id":"-GYaus2hmNw","title":"صحيح الإمام البخاري رضي الله عنه - كتاب الذبائح والصيد والتسمية على الصيد -المجلس الثامن د. يسري جبر","publishedAt":"2016-04-19T15:46:12Z","duration":"PT1H7M3S","thumbnail":"https://i.ytimg.com/vi/-GYaus2hmNw/mqdefault.jpg","viewCount":"99","playlistId":"PLEkQk5xrP-tmJuzaj4GWRenFoFx9gdbFX","playlistName":"شرح كتاب صحيح الإمام البخاري رضي الله تعالى عنه   أ.د. يسرى جبر","category":"حديث"},{"id":"QopIJXIauao","title":"سُورة البقرة آية 40","publishedAt":"2016-04-20T03:07:50Z","duration":"PT25M39S","thumbnail":"https://i.ytimg.com/vi/QopIJXIauao/mqdefault.jpg","viewCount":"2369","playlistId":"PLEkQk5xrP-tnmTYsyW6xNdyfhPq0Bhrhj","playlistName":"مقرأة الفجر - القُرْآنُ الكَرِيمُ - خَتْمَةُ التَّدَبُّرِ  أ.د. يسري جبر","category":"متنوع"},{"id":"DMVupGvdt6E","title":"شرح كتاب تفسير القرآن من سنن الترمذي - المجلس الثالث عشر","publishedAt":"2016-04-20T03:09:09Z","duration":"PT40M52S","thumbnail":"https://i.ytimg.com/vi/DMVupGvdt6E/mqdefault.jpg","viewCount":"102","playlistId":"PLEkQk5xrP-tnu6of679SvxdVx0qSrJzmb","playlistName":"شرح سنن الإمام الترمذي رضى الله عنه د. يسري جبر","category":"متنوع"},{"id":"Sq9jsHBc7AY","title":"10- مَا جَاءَ فِى النِّدَاءِ لِلصَّلاَةِ ك الصلاة ك الموطأ د يسري جبر الأزهري بمضيفة الشيخ سعيد الدح","publishedAt":"2016-04-20T09:29:39Z","duration":"PT58M35S","thumbnail":"https://i.ytimg.com/vi/Sq9jsHBc7AY/mqdefault.jpg","viewCount":"699","playlistId":"PLEkQk5xrP-tnC6BRuqMjyO-484iqXeg0o","playlistName":"شرح كتاب الموطأ للإمام مالك","category":"متنوع"},{"id":"Wk-XDwhSIxQ","title":"سُورة البقرة آية 50","publishedAt":"2016-04-21T03:18:07Z","duration":"PT25M43S","thumbnail":"https://i.ytimg.com/vi/Wk-XDwhSIxQ/mqdefault.jpg","viewCount":"2031","playlistId":"PLEkQk5xrP-tnmTYsyW6xNdyfhPq0Bhrhj","playlistName":"مقرأة الفجر - القُرْآنُ الكَرِيمُ - خَتْمَةُ التَّدَبُّرِ  أ.د. يسري جبر","category":"متنوع"},{"id":"Uzplm_0g23A","title":"شرح كتاب تفسير القرآن من سنن الترمذي - المجلس الرابع عشر","publishedAt":"2016-04-21T03:18:43Z","duration":"PT29M2S","thumbnail":"https://i.ytimg.com/vi/Uzplm_0g23A/mqdefault.jpg","viewCount":"82","playlistId":"PLEkQk5xrP-tnu6of679SvxdVx0qSrJzmb","playlistName":"شرح سنن الإمام الترمذي رضى الله عنه د. يسري جبر","category":"متنوع"},{"id":"PKX9JiV8b6E","title":"سورة البقرة آية 60","publishedAt":"2016-04-22T09:22:24Z","duration":"PT22M23S","thumbnail":"https://i.ytimg.com/vi/PKX9JiV8b6E/mqdefault.jpg","viewCount":"1828","playlistId":"PLEkQk5xrP-tnmTYsyW6xNdyfhPq0Bhrhj","playlistName":"مقرأة الفجر - القُرْآنُ الكَرِيمُ - خَتْمَةُ التَّدَبُّرِ  أ.د. يسري جبر","category":"متنوع"},{"id":"rQ9a_wq9qLg","title":"شرح كتاب تفسير القرآن من سنن الترمذي - المجلس الخامس عشر","publishedAt":"2016-04-22T09:23:37Z","duration":"PT33M4S","thumbnail":"https://i.ytimg.com/vi/rQ9a_wq9qLg/mqdefault.jpg","viewCount":"83","playlistId":"PLEkQk5xrP-tnu6of679SvxdVx0qSrJzmb","playlistName":"شرح سنن الإمام الترمذي رضى الله عنه د. يسري جبر","category":"متنوع"},{"id":"zBxkZNoQeoA","title":"شرح كتاب تفسير القرآن من سنن الترمذي - المجلس السادس عشر","publishedAt":"2016-04-22T18:23:29Z","duration":"PT37M50S","thumbnail":"https://i.ytimg.com/vi/zBxkZNoQeoA/mqdefault.jpg","viewCount":"102","playlistId":"PLEkQk5xrP-tnu6of679SvxdVx0qSrJzmb","playlistName":"شرح سنن الإمام الترمذي رضى الله عنه د. يسري جبر","category":"متنوع"},{"id":"NmRcTsStrAE","title":"درس الجمعة ١٥ رجب ١٤٣٧هـ","publishedAt":"2016-04-22T19:35:36Z","duration":"PT1H37M27S","thumbnail":"https://i.ytimg.com/vi/NmRcTsStrAE/mqdefault.jpg","viewCount":"289","playlistId":"PLEkQk5xrP-tmYN0y2PQUkx881GYBxD16g","playlistName":"درس الجمعة","category":"خطب"},{"id":"YWi9EJdROWU","title":"سُورة البقرة آية 67","publishedAt":"2016-04-22T20:22:40Z","duration":"PT25M8S","thumbnail":"https://i.ytimg.com/vi/YWi9EJdROWU/mqdefault.jpg","viewCount":"1709","playlistId":"PLEkQk5xrP-tnmTYsyW6xNdyfhPq0Bhrhj","playlistName":"مقرأة الفجر - القُرْآنُ الكَرِيمُ - خَتْمَةُ التَّدَبُّرِ  أ.د. يسري جبر","category":"متنوع"},{"id":"m0Z4JydP5PU","title":"حول ذكرى المولد النبوي الشريف بالتاريخ الميلادي د. يسري جبر","publishedAt":"2016-04-23T07:34:25Z","duration":"PT36M26S","thumbnail":"https://i.ytimg.com/vi/m0Z4JydP5PU/mqdefault.jpg","viewCount":"526","playlistId":"PLEkQk5xrP-tlArtGpeLWaqNM7h7IDeAVC","playlistName":"خطب الجمعة أ.د. يسري جبر","category":"خطب"},{"id":"EoIihwMNT2w","title":"11- باب مَا جَاءَ فِى النِّدَاءِ لِلصَّلاَةِ ك الصلاة ك الموطأ د يسري جبر الأزهري بمضيفة الدح","publishedAt":"2016-04-23T11:23:25Z","duration":"PT57M37S","thumbnail":"https://i.ytimg.com/vi/EoIihwMNT2w/mqdefault.jpg","viewCount":"690","playlistId":"PLEkQk5xrP-tnC6BRuqMjyO-484iqXeg0o","playlistName":"شرح كتاب الموطأ للإمام مالك","category":"متنوع"},{"id":"6_d1wjQvVU4","title":"شرح كتاب الأذكار من كلام سيد الأبرار للإمام النووى رضى الله عنه - المجلس الثامن والثلاثون","publishedAt":"2016-04-23T19:18:49Z","duration":"PT18M59S","thumbnail":"https://i.ytimg.com/vi/6_d1wjQvVU4/mqdefault.jpg","viewCount":"233","playlistId":"PLEkQk5xrP-tkWS57Ubysh0ifJR8dmuEtE","playlistName":"شرح كتاب الأذكار للإمام النووي د. يسرى جبر","category":"حديث"},{"id":"6_mRnr7ox6k","title":"صحيح الإمام البخاري رضي الله عنه - كتاب الأضاحي- المجلس الأول د. يسري جبر","publishedAt":"2016-04-23T19:29:27Z","duration":"PT44M58S","thumbnail":"https://i.ytimg.com/vi/6_mRnr7ox6k/mqdefault.jpg","viewCount":"153","playlistId":"PLEkQk5xrP-tmJuzaj4GWRenFoFx9gdbFX","playlistName":"شرح كتاب صحيح الإمام البخاري رضي الله تعالى عنه   أ.د. يسرى جبر","category":"حديث"},{"id":"Tfdf1YiWe9Y","title":"سورة البقرة آية 75","publishedAt":"2016-04-24T22:46:50Z","duration":"PT20M16S","thumbnail":"https://i.ytimg.com/vi/Tfdf1YiWe9Y/mqdefault.jpg","viewCount":"1686","playlistId":"PLEkQk5xrP-tnmTYsyW6xNdyfhPq0Bhrhj","playlistName":"مقرأة الفجر - القُرْآنُ الكَرِيمُ - خَتْمَةُ التَّدَبُّرِ  أ.د. يسري جبر","category":"متنوع"},{"id":"aq8LN-3HIsw","title":"شرح كتاب تفسير القرآن من سنن الترمذي - المجلس السابع عشر","publishedAt":"2016-04-24T22:47:15Z","duration":"PT39M37S","thumbnail":"https://i.ytimg.com/vi/aq8LN-3HIsw/mqdefault.jpg","viewCount":"85","playlistId":"PLEkQk5xrP-tnu6of679SvxdVx0qSrJzmb","playlistName":"شرح سنن الإمام الترمذي رضى الله عنه د. يسري جبر","category":"متنوع"}],"total":7670,"page":35,"pageSize":24,"totalPages":320}