{"items":[{"id":"eImXfzyoFOs","title":"حقائق ومعاني حول الروحانية المحمدية","publishedAt":"2023-08-05T18:00:14Z","duration":"PT21M19S","thumbnail":"https://i.ytimg.com/vi/eImXfzyoFOs/mqdefault.jpg","viewCount":"11011","playlistId":"PLEkQk5xrP-tlArtGpeLWaqNM7h7IDeAVC","playlistName":"خطب الجمعة أ.د. يسري جبر","category":"خطب"},{"id":"uFdZbySN7Ns","title":"143- حرف العين (عَسَىٰ - عِند) - شرح الإتقان في علوم القرآن","publishedAt":"2023-08-06T05:00:27Z","duration":"PT33M10S","thumbnail":"https://i.ytimg.com/vi/uFdZbySN7Ns/mqdefault.jpg","viewCount":"721","playlistId":"PLEkQk5xrP-tlPw10KGJKagu7zm4Ry2Tge","playlistName":"شرح الإتقان في علوم القرآن","category":"تفسير"},{"id":"UPNuWGar_wA","title":"الرد على من ينكر زيارة الأولياء","publishedAt":"2023-08-06T18:00:25Z","duration":"PT8M10S","thumbnail":"https://i.ytimg.com/vi/UPNuWGar_wA/mqdefault.jpg","viewCount":"10766","playlistId":"PLEkQk5xrP-tlArtGpeLWaqNM7h7IDeAVC","playlistName":"خطب الجمعة أ.د. يسري جبر","category":"خطب"},{"id":"hI6P7a9-HRg","title":"144- حرف الغين (غير) - شرح الإتقان في علوم القرآن","publishedAt":"2023-08-07T05:00:30Z","duration":"PT18M8S","thumbnail":"https://i.ytimg.com/vi/hI6P7a9-HRg/mqdefault.jpg","viewCount":"547","playlistId":"PLEkQk5xrP-tlPw10KGJKagu7zm4Ry2Tge","playlistName":"شرح الإتقان في علوم القرآن","category":"تفسير"},{"id":"df6OH5zhl6g","title":"12- حكم ثبوت الهلال بشهادة الواحد| حكم المسح على الخفّين|بيان ما يجوز من اللباس والنهي عن ثوب الشهرة","publishedAt":"2023-08-08T05:00:30Z","duration":"PT41M35S","thumbnail":"https://i.ytimg.com/vi/df6OH5zhl6g/mqdefault.jpg","viewCount":"918","playlistId":"PLEkQk5xrP-tkKprIuGrSdEuBSMsyg5We1","playlistName":"شرح مسند الإمام أحمد بن حنبل","category":"متنوع"},{"id":"fq5F5b2VG-0","title":"13- حكم العزل وأسبابه | حكم الحلف بغير الله - شرح مسند الإمام أحمد","publishedAt":"2023-08-08T08:59:00Z","duration":"PT46M52S","thumbnail":"https://i.ytimg.com/vi/fq5F5b2VG-0/mqdefault.jpg","viewCount":"1351","playlistId":"PLEkQk5xrP-tkKprIuGrSdEuBSMsyg5We1","playlistName":"شرح مسند الإمام أحمد بن حنبل","category":"متنوع"},{"id":"MxNkPl4XFBs","title":"لطائف ومعاني حول أسماء الله الحسنى","publishedAt":"2023-08-08T18:00:11Z","duration":"PT11M14S","thumbnail":"https://i.ytimg.com/vi/MxNkPl4XFBs/mqdefault.jpg","viewCount":"6004","playlistId":"PLEkQk5xrP-tlArtGpeLWaqNM7h7IDeAVC","playlistName":"خطب الجمعة أ.د. يسري جبر","category":"خطب"},{"id":"rdlu242xHEM","title":"145- حرف الفاء (أنواعها) - شرح الإتقان في علوم القرآن","publishedAt":"2023-08-09T05:01:23Z","duration":"PT35M29S","thumbnail":"https://i.ytimg.com/vi/rdlu242xHEM/mqdefault.jpg","viewCount":"669","playlistId":"PLEkQk5xrP-tlPw10KGJKagu7zm4Ry2Tge","playlistName":"شرح الإتقان في علوم القرآن","category":"تفسير"},{"id":"KNPUIfA8tWc","title":"شرح منازل السائرين - المجلس (28) باب المراقبة | أ.د. يسري جبر","publishedAt":"2023-08-09T18:00:14Z","duration":"PT32M8S","thumbnail":"https://i.ytimg.com/vi/KNPUIfA8tWc/mqdefault.jpg","viewCount":"4475","playlistId":"PLEkQk5xrP-tmiUfQ-2Tsn7QIak4EsvaZW","playlistName":"كتاب التيسير المعين بشرح معاني منازل السائرين (تصوف) - د.يسري جبر","category":"تصوف"},{"id":"V93fZEyTTXo","title":"146- معاني حرف (في) - شرح الإتقان في علوم القرآن","publishedAt":"2023-08-10T05:15:47Z","duration":"PT19M24S","thumbnail":"https://i.ytimg.com/vi/V93fZEyTTXo/mqdefault.jpg","viewCount":"994","playlistId":"PLEkQk5xrP-tlPw10KGJKagu7zm4Ry2Tge","playlistName":"شرح الإتقان في علوم القرآن","category":"تفسير"},{"id":"flithzVV4bY","title":"هو ليه ربنا مش بيستجيب دعائي؟","publishedAt":"2023-08-10T18:00:27Z","duration":"PT8M35S","thumbnail":"https://i.ytimg.com/vi/flithzVV4bY/mqdefault.jpg","viewCount":"5861","playlistId":"PLEkQk5xrP-tlArtGpeLWaqNM7h7IDeAVC","playlistName":"خطب الجمعة أ.د. يسري جبر","category":"خطب"},{"id":"0azIKLnrWSU","title":"14- حكم السمر بعد العشاء لأمر هام | ما الحكمة من تقبيل الحجر الأسود؟","publishedAt":"2023-08-11T05:11:51Z","duration":"PT38M47S","thumbnail":"https://i.ytimg.com/vi/0azIKLnrWSU/mqdefault.jpg","viewCount":"1719","playlistId":"PLEkQk5xrP-tkKprIuGrSdEuBSMsyg5We1","playlistName":"شرح مسند الإمام أحمد بن حنبل","category":"متنوع"},{"id":"lnvHPkID2v8","title":"فصاحة وبلاغة النبي ﷺ","publishedAt":"2023-08-11T18:00:23Z","duration":"PT12M24S","thumbnail":"https://i.ytimg.com/vi/lnvHPkID2v8/mqdefault.jpg","viewCount":"3579","playlistId":"PLEkQk5xrP-tlArtGpeLWaqNM7h7IDeAVC","playlistName":"خطب الجمعة أ.د. يسري جبر","category":"خطب"},{"id":"Xo8ex05XQSY","title":"15- كيف نفهم الربا وما هي الأجناس الربوية؟|هل يُعذََب الميت بنياحة غيره عليه؟- شرح مسند الإمام أحمد","publishedAt":"2023-08-12T05:00:31Z","duration":"PT28M43S","thumbnail":"https://i.ytimg.com/vi/Xo8ex05XQSY/mqdefault.jpg","viewCount":"2681","playlistId":"PLEkQk5xrP-tkKprIuGrSdEuBSMsyg5We1","playlistName":"شرح مسند الإمام أحمد بن حنبل","category":"متنوع"},{"id":"4zIM3ztRors","title":"12- حديث الوضوء بالنبيذ ليلة الجِنّ وبيان لقاء النَّبيّ ﷺ بهم والمكان الذي قابلهم فيه","publishedAt":"2023-08-12T18:00:06Z","duration":"PT41M33S","thumbnail":"https://i.ytimg.com/vi/4zIM3ztRors/mqdefault.jpg","viewCount":"2726","playlistId":"PLEkQk5xrP-tk_MCBZ706ORCw6gFtFyaGj","playlistName":"شرح سنن الإمام الدارقطني","category":"متنوع"},{"id":"iNXnV0l76Oo","title":"كيف تتغلب على شهوة نفسك؟","publishedAt":"2023-08-15T18:00:18Z","duration":"PT17M15S","thumbnail":"https://i.ytimg.com/vi/iNXnV0l76Oo/mqdefault.jpg","viewCount":"37588","playlistId":"PLEkQk5xrP-tlArtGpeLWaqNM7h7IDeAVC","playlistName":"خطب الجمعة أ.د. يسري جبر","category":"خطب"},{"id":"eoVmAJPeGN0","title":"أين الله ﷻ؟","publishedAt":"2023-08-17T17:00:22Z","duration":"PT8M5S","thumbnail":"https://i.ytimg.com/vi/eoVmAJPeGN0/mqdefault.jpg","viewCount":"10763","playlistId":"PLEkQk5xrP-tlArtGpeLWaqNM7h7IDeAVC","playlistName":"خطب الجمعة أ.د. يسري جبر","category":"خطب"},{"id":"zXxEuotW1JE","title":"كيف تختار أصحابك؟","publishedAt":"2023-08-19T18:00:34Z","duration":"PT11M36S","thumbnail":"https://i.ytimg.com/vi/zXxEuotW1JE/mqdefault.jpg","viewCount":"5662","playlistId":"PLEkQk5xrP-tlArtGpeLWaqNM7h7IDeAVC","playlistName":"خطب الجمعة أ.د. يسري جبر","category":"خطب"},{"id":"WNIlb2FT_hQ","title":"13- كيف كان سيدنا رسول الله ﷺ يتوضأ - كتاب الطَّهارة - شرح سنن الإمام الدار قطني رضي الله عنه","publishedAt":"2023-08-20T05:00:12Z","duration":"PT41M6S","thumbnail":"https://i.ytimg.com/vi/WNIlb2FT_hQ/mqdefault.jpg","viewCount":"1379","playlistId":"PLEkQk5xrP-tk_MCBZ706ORCw6gFtFyaGj","playlistName":"شرح سنن الإمام الدارقطني","category":"متنوع"},{"id":"r8UQCKhZaAA","title":"أفضل طريقة لإنهاء المشاكل الزوجية","publishedAt":"2023-08-20T18:00:32Z","duration":"PT13M29S","thumbnail":"https://i.ytimg.com/vi/r8UQCKhZaAA/mqdefault.jpg","viewCount":"10950","playlistId":"PLEkQk5xrP-tkGXuZ9atE3k_7it12rUPTs","playlistName":"أسئلة المتابعين","category":"متنوع"},{"id":"xxQ0OYnxbXs","title":"أنا شاب ولا استطيع غض بصري فماذا أفعل؟","publishedAt":"2023-08-21T18:00:26Z","duration":"PT8M34S","thumbnail":"https://i.ytimg.com/vi/xxQ0OYnxbXs/mqdefault.jpg","viewCount":"12917","playlistId":"PLEkQk5xrP-tkGXuZ9atE3k_7it12rUPTs","playlistName":"أسئلة المتابعين","category":"متنوع"},{"id":"4HqGkhaxq_0","title":"شرح منازل السائرين - المجلس (29) باب الحرمة | أ.د. يسري جبر","publishedAt":"2023-08-22T18:00:02Z","duration":"PT41M53S","thumbnail":"https://i.ytimg.com/vi/4HqGkhaxq_0/mqdefault.jpg","viewCount":"5341","playlistId":"PLEkQk5xrP-tmiUfQ-2Tsn7QIak4EsvaZW","playlistName":"كتاب التيسير المعين بشرح معاني منازل السائرين (تصوف) - د.يسري جبر","category":"تصوف"},{"id":"XG-JXar4D84","title":"توضيح معنى حديث الجارية وقول النَّبيَ ﷺ لها أين الله | تكملة حديث \"إن الدين يسر\"","publishedAt":"2023-08-25T18:54:34Z","duration":"PT23M31S","thumbnail":"https://i.ytimg.com/vi/XG-JXar4D84/mqdefault.jpg","viewCount":"8019","playlistId":"PLEkQk5xrP-tm8ZIu74nTOZN9KJUJu416J","playlistName":"مقاطع مُهمَّة (يُسريَّات) أ.د. يسري جبر","category":"متنوع"},{"id":"3iRgP2lxE4U","title":"14- حكم غسل أعضاء الوضوء مرة وهل الترتيب واجب - كتاب الطَّهارة","publishedAt":"2023-08-27T05:00:01Z","duration":"PT43M41S","thumbnail":"https://i.ytimg.com/vi/3iRgP2lxE4U/mqdefault.jpg","viewCount":"1588","playlistId":"PLEkQk5xrP-tk_MCBZ706ORCw6gFtFyaGj","playlistName":"شرح سنن الإمام الدارقطني","category":"متنوع"}],"total":7675,"page":273,"pageSize":24,"totalPages":320}