{"items":[{"id":"adfsmtnrOqA","title":"حول الكمالات المحمدية","publishedAt":"2021-05-27T18:00:01Z","duration":"PT38M2S","thumbnail":"https://i.ytimg.com/vi/adfsmtnrOqA/mqdefault.jpg","viewCount":"5541","playlistId":"PLEkQk5xrP-tlArtGpeLWaqNM7h7IDeAVC","playlistName":"خطب الجمعة أ.د. يسري جبر","category":"خطب"},{"id":"b_PpZUo2eQI","title":"69- \"…فأعِنِّي علَى نَفْسِكَ بكَثْرَةِ السُّجُودِ...\" الحديث (12) شرح دليل الفالحين","publishedAt":"2021-05-28T05:00:34Z","duration":"PT36M41S","thumbnail":"https://i.ytimg.com/vi/b_PpZUo2eQI/mqdefault.jpg","viewCount":"2293","playlistId":"PLEkQk5xrP-tkc9DXvSLguqX5-FYp6ASR4","playlistName":"دليل الفالحين لطرق رياض الصالحين","category":"متنوع"},{"id":"fIszxmLQb4o","title":"الفقر الحقيقي وأسباب الغنى","publishedAt":"2021-05-28T19:50:06Z","duration":"PT8M36S","thumbnail":"https://i.ytimg.com/vi/fIszxmLQb4o/mqdefault.jpg","viewCount":"21014","playlistId":"PLEkQk5xrP-tkGXuZ9atE3k_7it12rUPTs","playlistName":"أسئلة المتابعين","category":"متنوع"},{"id":"19MZJxPSMj0","title":"القِسمُ (26) من التوكيد: الزيادة (6) حروف الزيادة - شرح البرهان في علوم القرآن","publishedAt":"2021-05-29T07:03:47Z","duration":"PT29M27S","thumbnail":"https://i.ytimg.com/vi/19MZJxPSMj0/mqdefault.jpg","viewCount":"272","playlistId":"PLEkQk5xrP-tnW3iBL7HkKziOFCFZbTlf0","playlistName":"شرح البرهان في علوم القرآن - أ.د. يسري جبر","category":"تفسير"},{"id":"xBE_mQ8aL2M","title":"70-\"…لَمَّا نزلتْ آيةُ الصَّدقة، كُنَّا نُحَامِلُ، فجاءَ رجلٌ فتصدق...\"الحديث (16) شرح دليل الفالحين","publishedAt":"2021-05-29T19:59:13Z","duration":"PT38M52S","thumbnail":"https://i.ytimg.com/vi/xBE_mQ8aL2M/mqdefault.jpg","viewCount":"1234","playlistId":"PLEkQk5xrP-tkc9DXvSLguqX5-FYp6ASR4","playlistName":"دليل الفالحين لطرق رياض الصالحين","category":"متنوع"},{"id":"avMg-AnSuKs","title":"القِسمُ (27) من التوكيد: الاشتغال - شرح البرهان في علوم القرآن","publishedAt":"2021-05-30T05:36:02Z","duration":"PT12M8S","thumbnail":"https://i.ytimg.com/vi/avMg-AnSuKs/mqdefault.jpg","viewCount":"320","playlistId":"PLEkQk5xrP-tnW3iBL7HkKziOFCFZbTlf0","playlistName":"شرح البرهان في علوم القرآن - أ.د. يسري جبر","category":"تفسير"},{"id":"C0NxdGHHWKs","title":"أريد الزواج مرة أخرى ,, ماذا أفعل؟","publishedAt":"2021-05-30T17:00:05Z","duration":"PT8M18S","thumbnail":"https://i.ytimg.com/vi/C0NxdGHHWKs/mqdefault.jpg","viewCount":"4800","playlistId":"PLEkQk5xrP-tkGXuZ9atE3k_7it12rUPTs","playlistName":"أسئلة المتابعين","category":"متنوع"},{"id":"y7Ev2NM6OVE","title":"كرامات الأولياء | أ.د. يسري جبر","publishedAt":"2021-05-30T20:30:00Z","duration":"PT14M38S","thumbnail":"https://i.ytimg.com/vi/y7Ev2NM6OVE/mqdefault.jpg","viewCount":"20458","playlistId":"PLEkQk5xrP-tm8ZIu74nTOZN9KJUJu416J","playlistName":"مقاطع مُهمَّة (يُسريَّات) أ.د. يسري جبر","category":"متنوع"},{"id":"5ylDh1KooMM","title":"71-\"…كُلُّكمْ جائعٌ إلَّا منْ أطْعمْته، فاسْتَطْعمُوني أُطْعِمْكمْ....\"الحديث (17) شرح دليل الفالحين","publishedAt":"2021-05-31T08:05:39Z","duration":"PT32M20S","thumbnail":"https://i.ytimg.com/vi/5ylDh1KooMM/mqdefault.jpg","viewCount":"1575","playlistId":"PLEkQk5xrP-tkc9DXvSLguqX5-FYp6ASR4","playlistName":"دليل الفالحين لطرق رياض الصالحين","category":"متنوع"},{"id":"4uF3Y6CODEk","title":"قصة سيدنا يوسف وتفسير قوله تعالى \"وَلَقَدْ هَمَّتْ بِهِ وَهَمَّ بِهَا”","publishedAt":"2021-05-31T17:00:15Z","duration":"PT17M8S","thumbnail":"https://i.ytimg.com/vi/4uF3Y6CODEk/mqdefault.jpg","viewCount":"5232","playlistId":"PLEkQk5xrP-tkSGrPLMt1BEmJ54cGWYgtp","playlistName":"كتابُ بِدَعِ التَفَاسِيرِ - أ.د. يسري جبر","category":"متنوع"},{"id":"-lu-aZteDV4","title":"القِسمُ (28) من التوكيد: التعليل - شرح البرهان في علوم القرآن","publishedAt":"2021-06-01T05:31:56Z","duration":"PT25M36S","thumbnail":"https://i.ytimg.com/vi/-lu-aZteDV4/mqdefault.jpg","viewCount":"361","playlistId":"PLEkQk5xrP-tnW3iBL7HkKziOFCFZbTlf0","playlistName":"شرح البرهان في علوم القرآن - أ.د. يسري جبر","category":"تفسير"},{"id":"6pMzIkmm4FA","title":"72- الحث على الازدياد من الخير في أواخر العمر - شرح دليل الفالحين","publishedAt":"2021-06-01T22:06:05Z","duration":"PT32M11S","thumbnail":"https://i.ytimg.com/vi/6pMzIkmm4FA/mqdefault.jpg","viewCount":"4164","playlistId":"PLEkQk5xrP-tkc9DXvSLguqX5-FYp6ASR4","playlistName":"دليل الفالحين لطرق رياض الصالحين","category":"متنوع"},{"id":"lba-csfMZ7k","title":"كيف أكون عبدًا شكورًا؟","publishedAt":"2021-06-02T17:15:00Z","duration":"PT10M4S","thumbnail":"https://i.ytimg.com/vi/lba-csfMZ7k/mqdefault.jpg","viewCount":"5581","playlistId":"PLEkQk5xrP-tlArtGpeLWaqNM7h7IDeAVC","playlistName":"خطب الجمعة أ.د. يسري جبر","category":"خطب"},{"id":"9NCsF6reRvk","title":"القِسمُ (28) من التوكيد: التعليل (2) - شرح البرهان في علوم القرآن","publishedAt":"2021-06-03T05:21:37Z","duration":"PT20M18S","thumbnail":"https://i.ytimg.com/vi/9NCsF6reRvk/mqdefault.jpg","viewCount":"319","playlistId":"PLEkQk5xrP-tnW3iBL7HkKziOFCFZbTlf0","playlistName":"شرح البرهان في علوم القرآن - أ.د. يسري جبر","category":"تفسير"},{"id":"aAO1RtPm704","title":"شكر النعم | أ.د. يسري جبر","publishedAt":"2021-06-03T17:15:01Z","duration":"PT9M17S","thumbnail":"https://i.ytimg.com/vi/aAO1RtPm704/mqdefault.jpg","viewCount":"3031","playlistId":"PLEkQk5xrP-tlArtGpeLWaqNM7h7IDeAVC","playlistName":"خطب الجمعة أ.د. يسري جبر","category":"خطب"},{"id":"bM02sBArJwA","title":"73- \"… سُبْحَانَكَ رَبَّنَا وبِحَمْدِكَ، اللهمَّ اغْفِرْ لِي\" - شرح دليل الفالحين","publishedAt":"2021-06-04T05:31:31Z","duration":"PT23M16S","thumbnail":"https://i.ytimg.com/vi/bM02sBArJwA/mqdefault.jpg","viewCount":"1634","playlistId":"PLEkQk5xrP-tkc9DXvSLguqX5-FYp6ASR4","playlistName":"دليل الفالحين لطرق رياض الصالحين","category":"متنوع"},{"id":"-zpF6IDpihs","title":"لكل من فقد عزيزًا على قلبه ​| نصائح مهمة","publishedAt":"2021-06-04T19:27:05Z","duration":"PT12M24S","thumbnail":"https://i.ytimg.com/vi/-zpF6IDpihs/mqdefault.jpg","viewCount":"10303","playlistId":"PLEkQk5xrP-tm8ZIu74nTOZN9KJUJu416J","playlistName":"مقاطع مُهمَّة (يُسريَّات) أ.د. يسري جبر","category":"متنوع"},{"id":"vytCYGy7nHM","title":"القِسمُ (28) من التوكيد: التعليل (3) \"أن والفعل المستقبل بعدها\" شرح البرهان في علوم القرآن","publishedAt":"2021-06-05T07:47:38Z","duration":"PT30M12S","thumbnail":"https://i.ytimg.com/vi/vytCYGy7nHM/mqdefault.jpg","viewCount":"406","playlistId":"PLEkQk5xrP-tnW3iBL7HkKziOFCFZbTlf0","playlistName":"شرح البرهان في علوم القرآن - أ.د. يسري جبر","category":"تفسير"},{"id":"GzpjyJIuX6o","title":"74- بيان كثرة طُرُق الخير\"…أيُّ الأعمالِ أفْضَلُ ؟…\" شرح دليل الفالحين","publishedAt":"2021-06-06T07:27:18Z","duration":"PT34M3S","thumbnail":"https://i.ytimg.com/vi/GzpjyJIuX6o/mqdefault.jpg","viewCount":"1660","playlistId":"PLEkQk5xrP-tkc9DXvSLguqX5-FYp6ASR4","playlistName":"دليل الفالحين لطرق رياض الصالحين","category":"متنوع"},{"id":"W0RQV9kqLIU","title":"كيف أذاكر بدون ملل؟","publishedAt":"2021-06-06T19:40:22Z","duration":"PT8M5S","thumbnail":"https://i.ytimg.com/vi/W0RQV9kqLIU/mqdefault.jpg","viewCount":"15850","playlistId":"PLEkQk5xrP-tm8ZIu74nTOZN9KJUJu416J","playlistName":"مقاطع مُهمَّة (يُسريَّات) أ.د. يسري جبر","category":"متنوع"},{"id":"0_FEh_iBP8g","title":"الأسلوب الثاني\"الحذف\" شرح البرهان في علوم القرآن","publishedAt":"2021-06-07T06:08:35Z","duration":"PT24M40S","thumbnail":"https://i.ytimg.com/vi/0_FEh_iBP8g/mqdefault.jpg","viewCount":"451","playlistId":"PLEkQk5xrP-tnW3iBL7HkKziOFCFZbTlf0","playlistName":"شرح البرهان في علوم القرآن - أ.د. يسري جبر","category":"تفسير"},{"id":"jAIQTavYE48","title":"طُرُقُ شُكْر الله على نِعَمِه","publishedAt":"2021-06-07T12:14:41Z","duration":"PT36M24S","thumbnail":"https://i.ytimg.com/vi/jAIQTavYE48/mqdefault.jpg","viewCount":"5545","playlistId":"PLEkQk5xrP-tlArtGpeLWaqNM7h7IDeAVC","playlistName":"خطب الجمعة أ.د. يسري جبر","category":"خطب"},{"id":"Ywn5QSY1now","title":"أين الله؟ | أ.د. يسري جبر","publishedAt":"2021-06-07T20:00:05Z","duration":"PT15M5S","thumbnail":"https://i.ytimg.com/vi/Ywn5QSY1now/mqdefault.jpg","viewCount":"9066","playlistId":"PLEkQk5xrP-tlArtGpeLWaqNM7h7IDeAVC","playlistName":"خطب الجمعة أ.د. يسري جبر","category":"خطب"},{"id":"5Ia_Dhcpr5Q","title":"75- \"يُصْبِحُ على كُلِّ سُلامَى من أحدكُمْ صدَقَةٌ، فكُلُّ تَسْبِيحَةٍ صدَقَةٌ، …\" شرح دليل الفالحين","publishedAt":"2021-06-08T07:01:06Z","duration":"PT35M13S","thumbnail":"https://i.ytimg.com/vi/5Ia_Dhcpr5Q/mqdefault.jpg","viewCount":"1193","playlistId":"PLEkQk5xrP-tkc9DXvSLguqX5-FYp6ASR4","playlistName":"دليل الفالحين لطرق رياض الصالحين","category":"متنوع"}],"total":7675,"page":201,"pageSize":24,"totalPages":320}