{"items":[{"id":"4eGboMvrqIc","title":"مقرأة سورة الزخرف من آية ٦","publishedAt":"2018-12-11T09:36:23Z","duration":"PT20M28S","thumbnail":"https://i.ytimg.com/vi/4eGboMvrqIc/mqdefault.jpg","viewCount":"365","playlistId":"PLEkQk5xrP-tnmTYsyW6xNdyfhPq0Bhrhj","playlistName":"مقرأة الفجر - القُرْآنُ الكَرِيمُ - خَتْمَةُ التَّدَبُّرِ  أ.د. يسري جبر","category":"متنوع"},{"id":"5SyhqpiqEO4","title":"شرح صحيح البخاري كتاب استتابة المرتدين والمعاندين وقتالهم من باب ٣","publishedAt":"2018-12-11T22:19:36Z","duration":"PT34M18S","thumbnail":"https://i.ytimg.com/vi/5SyhqpiqEO4/mqdefault.jpg","viewCount":"419","playlistId":"PLEkQk5xrP-tlEerGoLa1AFy-2XvQ-sovv","playlistName":"شرح صحيح البخاري - أ.د. يسري جبر (كاملا)","category":"حديث"},{"id":"qhXt6JNx2ZY","title":"الرسالة القشيرية المجلس التاسع و الثلاثون - تكملة باب التوبة (2)   أ.د. يسري جبر","publishedAt":"2018-12-13T15:49:15Z","duration":"PT45M46S","thumbnail":"https://i.ytimg.com/vi/qhXt6JNx2ZY/mqdefault.jpg","viewCount":"4781","playlistId":"PLEkQk5xrP-tkHAGOwIKr4pc5ehhyQ5HMJ","playlistName":"كتاب الرسالة القشيرية (تصوف) - د. يسري جبر","category":"تصوف"},{"id":"afrhNKw1aRU","title":"الرسالة القشيرية المجلس الأربعون - تكملة باب التوبة (3)   أ.د. يسري جبر","publishedAt":"2018-12-13T17:58:47Z","duration":"PT30M41S","thumbnail":"https://i.ytimg.com/vi/afrhNKw1aRU/mqdefault.jpg","viewCount":"4070","playlistId":"PLEkQk5xrP-tkHAGOwIKr4pc5ehhyQ5HMJ","playlistName":"كتاب الرسالة القشيرية (تصوف) - د. يسري جبر","category":"تصوف"},{"id":"7HLRwtHfvvc","title":"مقرأة سورة الزخرف من آية ١٥","publishedAt":"2018-12-13T18:42:44Z","duration":"PT30M8S","thumbnail":"https://i.ytimg.com/vi/7HLRwtHfvvc/mqdefault.jpg","viewCount":"393","playlistId":"PLEkQk5xrP-tnmTYsyW6xNdyfhPq0Bhrhj","playlistName":"مقرأة الفجر - القُرْآنُ الكَرِيمُ - خَتْمَةُ التَّدَبُّرِ  أ.د. يسري جبر","category":"متنوع"},{"id":"6CRZsmUdKEs","title":"شرح صحيح البخاري كتاب استتابة المرتدين والمعاندين وقتالهم من باب ٨","publishedAt":"2018-12-13T21:36:03Z","duration":"PT23M42S","thumbnail":"https://i.ytimg.com/vi/6CRZsmUdKEs/mqdefault.jpg","viewCount":"316","playlistId":"PLEkQk5xrP-tlEerGoLa1AFy-2XvQ-sovv","playlistName":"شرح صحيح البخاري - أ.د. يسري جبر (كاملا)","category":"حديث"},{"id":"9mznw-aeQkw","title":"مقرأة سورة الزخرف من آية ٢٦","publishedAt":"2018-12-14T07:35:02Z","duration":"PT25M33S","thumbnail":"https://i.ytimg.com/vi/9mznw-aeQkw/mqdefault.jpg","viewCount":"285","playlistId":"PLEkQk5xrP-tnmTYsyW6xNdyfhPq0Bhrhj","playlistName":"مقرأة الفجر - القُرْآنُ الكَرِيمُ - خَتْمَةُ التَّدَبُّرِ  أ.د. يسري جبر","category":"متنوع"},{"id":"B4-t9x50IIk","title":"شرح صحيح البخاري كتاب الإكراه من أوله","publishedAt":"2018-12-14T17:34:49Z","duration":"PT21M55S","thumbnail":"https://i.ytimg.com/vi/B4-t9x50IIk/mqdefault.jpg","viewCount":"393","playlistId":"PLEkQk5xrP-tlEerGoLa1AFy-2XvQ-sovv","playlistName":"شرح صحيح البخاري - أ.د. يسري جبر (كاملا)","category":"حديث"},{"id":"x8V0Nzd3LS8","title":"مقرأة سورة الزخرف من آية ٣٣","publishedAt":"2018-12-15T09:45:33Z","duration":"PT20M48S","thumbnail":"https://i.ytimg.com/vi/x8V0Nzd3LS8/mqdefault.jpg","viewCount":"318","playlistId":"PLEkQk5xrP-tnmTYsyW6xNdyfhPq0Bhrhj","playlistName":"مقرأة الفجر - القُرْآنُ الكَرِيمُ - خَتْمَةُ التَّدَبُّرِ  أ.د. يسري جبر","category":"متنوع"},{"id":"AIV0i10FDBA","title":"حول المولد النبوي الشريف (5)   أ.د. يسري جبر","publishedAt":"2018-12-15T17:19:19Z","duration":"PT34M19S","thumbnail":"https://i.ytimg.com/vi/AIV0i10FDBA/mqdefault.jpg","viewCount":"652","playlistId":"PLEkQk5xrP-tlArtGpeLWaqNM7h7IDeAVC","playlistName":"خطب الجمعة أ.د. يسري جبر","category":"خطب"},{"id":"1Gdubkvp2wQ","title":"شرح صحيح البخاري كتاب الإكراه من باب ٣","publishedAt":"2018-12-15T21:19:54Z","duration":"PT45M58S","thumbnail":"https://i.ytimg.com/vi/1Gdubkvp2wQ/mqdefault.jpg","viewCount":"412","playlistId":"PLEkQk5xrP-tlEerGoLa1AFy-2XvQ-sovv","playlistName":"شرح صحيح البخاري - أ.د. يسري جبر (كاملا)","category":"حديث"},{"id":"f0LxsT8kCzc","title":"مقرأة سورة الزخرف من آية ٤٠","publishedAt":"2018-12-16T11:09:15Z","duration":"PT9M38S","thumbnail":"https://i.ytimg.com/vi/f0LxsT8kCzc/mqdefault.jpg","viewCount":"248","playlistId":"PLEkQk5xrP-tnmTYsyW6xNdyfhPq0Bhrhj","playlistName":"مقرأة الفجر - القُرْآنُ الكَرِيمُ - خَتْمَةُ التَّدَبُّرِ  أ.د. يسري جبر","category":"متنوع"},{"id":"c5hhs5xsOj4","title":"شرح كتاب نور اليقين في سيرة سيد المرسلين للشيخ الخضري رحمه الله (المجلس68) أ.د. يسري جبر","publishedAt":"2018-12-16T16:04:31Z","duration":"PT47M54S","thumbnail":"https://i.ytimg.com/vi/c5hhs5xsOj4/mqdefault.jpg","viewCount":"6399","playlistId":"PLEkQk5xrP-tl2t4NQx1IhKnAJCMzF0Nli","playlistName":"شرح كتاب نور اليقين في سيرة سيد المرسلين   د. يسري جبر","category":"سيرة"},{"id":"ex2Z-NtJ2Lc","title":"شرح صحيح البخاري كتاب الحيل من أوله","publishedAt":"2018-12-16T20:09:09Z","duration":"PT39M42S","thumbnail":"https://i.ytimg.com/vi/ex2Z-NtJ2Lc/mqdefault.jpg","viewCount":"664","playlistId":"PLEkQk5xrP-tlEerGoLa1AFy-2XvQ-sovv","playlistName":"شرح صحيح البخاري - أ.د. يسري جبر (كاملا)","category":"حديث"},{"id":"92OVqgL0H8M","title":"مقرأة سورة الزخرف من آية ٤٦","publishedAt":"2018-12-17T12:16:02Z","duration":"PT28M35S","thumbnail":"https://i.ytimg.com/vi/92OVqgL0H8M/mqdefault.jpg","viewCount":"381","playlistId":"PLEkQk5xrP-tnmTYsyW6xNdyfhPq0Bhrhj","playlistName":"مقرأة الفجر - القُرْآنُ الكَرِيمُ - خَتْمَةُ التَّدَبُّرِ  أ.د. يسري جبر","category":"متنوع"},{"id":"YhlVWku3RPo","title":"شرح صحيح البخاري كتاب الحيل من باب ٥","publishedAt":"2018-12-17T20:04:27Z","duration":"PT25M25S","thumbnail":"https://i.ytimg.com/vi/YhlVWku3RPo/mqdefault.jpg","viewCount":"400","playlistId":"PLEkQk5xrP-tlEerGoLa1AFy-2XvQ-sovv","playlistName":"شرح صحيح البخاري - أ.د. يسري جبر (كاملا)","category":"حديث"},{"id":"nLnWgQ_PlKE","title":"مقرأة سورة الزخرف من آية ٥٦","publishedAt":"2018-12-18T12:09:07Z","duration":"PT17M18S","thumbnail":"https://i.ytimg.com/vi/nLnWgQ_PlKE/mqdefault.jpg","viewCount":"322","playlistId":"PLEkQk5xrP-tnmTYsyW6xNdyfhPq0Bhrhj","playlistName":"مقرأة الفجر - القُرْآنُ الكَرِيمُ - خَتْمَةُ التَّدَبُّرِ  أ.د. يسري جبر","category":"متنوع"},{"id":"vo2Kgk8X2m0","title":"شرح صحيح البخاري كتاب الحيل من باب ١١","publishedAt":"2018-12-18T18:05:34Z","duration":"PT30M41S","thumbnail":"https://i.ytimg.com/vi/vo2Kgk8X2m0/mqdefault.jpg","viewCount":"405","playlistId":"PLEkQk5xrP-tlEerGoLa1AFy-2XvQ-sovv","playlistName":"شرح صحيح البخاري - أ.د. يسري جبر (كاملا)","category":"حديث"},{"id":"bOoBopey4To","title":"حول معاني سورة الماعون أ.د. يسري جبر","publishedAt":"2018-12-18T18:31:18Z","duration":"PT41M38S","thumbnail":"https://i.ytimg.com/vi/bOoBopey4To/mqdefault.jpg","viewCount":"489","playlistId":"PLEkQk5xrP-tlArtGpeLWaqNM7h7IDeAVC","playlistName":"خطب الجمعة أ.د. يسري جبر","category":"خطب"},{"id":"QIFxkMXkHdc","title":"شرح كتاب نور اليقين في سيرة سيد المرسلين للشيخ الخضري رحمه الله (المجلس69) أ.د. يسري جبر","publishedAt":"2018-12-18T19:47:16Z","duration":"PT48M34S","thumbnail":"https://i.ytimg.com/vi/QIFxkMXkHdc/mqdefault.jpg","viewCount":"6494","playlistId":"PLEkQk5xrP-tl2t4NQx1IhKnAJCMzF0Nli","playlistName":"شرح كتاب نور اليقين في سيرة سيد المرسلين   د. يسري جبر","category":"سيرة"},{"id":"j5Ub4GZqFII","title":"مقرأة سورة الزخرف من آية ٦٣","publishedAt":"2018-12-19T10:37:45Z","duration":"PT18M45S","thumbnail":"https://i.ytimg.com/vi/j5Ub4GZqFII/mqdefault.jpg","viewCount":"327","playlistId":"PLEkQk5xrP-tnmTYsyW6xNdyfhPq0Bhrhj","playlistName":"مقرأة الفجر - القُرْآنُ الكَرِيمُ - خَتْمَةُ التَّدَبُّرِ  أ.د. يسري جبر","category":"متنوع"},{"id":"BDhFY6GNZPE","title":"شرح صحيح البخاري كتاب الحيل من باب ١٤","publishedAt":"2018-12-19T21:06:15Z","duration":"PT34M46S","thumbnail":"https://i.ytimg.com/vi/BDhFY6GNZPE/mqdefault.jpg","viewCount":"394","playlistId":"PLEkQk5xrP-tlEerGoLa1AFy-2XvQ-sovv","playlistName":"شرح صحيح البخاري - أ.د. يسري جبر (كاملا)","category":"حديث"},{"id":"-5T7SM8aUFk","title":"مقرأة سورة الزخرف من آية ٦٩","publishedAt":"2018-12-20T12:48:14Z","duration":"PT17M59S","thumbnail":"https://i.ytimg.com/vi/-5T7SM8aUFk/mqdefault.jpg","viewCount":"267","playlistId":"PLEkQk5xrP-tnmTYsyW6xNdyfhPq0Bhrhj","playlistName":"مقرأة الفجر - القُرْآنُ الكَرِيمُ - خَتْمَةُ التَّدَبُّرِ  أ.د. يسري جبر","category":"متنوع"},{"id":"w5ZJZqinK1g","title":"شرح صحيح البخاري كتاب التعبير من أوله","publishedAt":"2018-12-20T17:52:44Z","duration":"PT40M45S","thumbnail":"https://i.ytimg.com/vi/w5ZJZqinK1g/mqdefault.jpg","viewCount":"1106","playlistId":"PLEkQk5xrP-tlEerGoLa1AFy-2XvQ-sovv","playlistName":"شرح صحيح البخاري - أ.د. يسري جبر (كاملا)","category":"حديث"}],"total":7675,"page":127,"pageSize":24,"totalPages":320}