{"items":[{"id":"xJypUC7gLbc","title":"ماذا نفعل في وقت الأزمات  د. يسري جبر","publishedAt":"2016-11-05T20:37:57Z","duration":"PT15M34S","thumbnail":"https://i.ytimg.com/vi/xJypUC7gLbc/mqdefault.jpg","viewCount":"8189","playlistId":"PLEkQk5xrP-tm8ZIu74nTOZN9KJUJu416J","playlistName":"مقاطع مُهمَّة (يُسريَّات) أ.د. يسري جبر","category":"متنوع"},{"id":"BuqKsmZj8P0","title":"الحياة كفاح    د. يسري جبر","publishedAt":"2016-11-05T21:20:06Z","duration":"PT49M49S","thumbnail":"https://i.ytimg.com/vi/BuqKsmZj8P0/mqdefault.jpg","viewCount":"2572","playlistId":"PLEkQk5xrP-tlArtGpeLWaqNM7h7IDeAVC","playlistName":"خطب الجمعة أ.د. يسري جبر","category":"خطب"},{"id":"clUWDYt-S5Q","title":"صحيح الإمام البخاري رضي الله عنه كتاب اللباس ( باب إعْفَاءِ اللِّحى ) المجلس الثامن. د. يسري جبر","publishedAt":"2016-11-06T14:03:06Z","duration":"PT44M","thumbnail":"https://i.ytimg.com/vi/clUWDYt-S5Q/mqdefault.jpg","viewCount":"785","playlistId":"PLEkQk5xrP-tmJuzaj4GWRenFoFx9gdbFX","playlistName":"شرح كتاب صحيح الإمام البخاري رضي الله تعالى عنه   أ.د. يسرى جبر","category":"حديث"},{"id":"ZgMX1BQvWoQ","title":"كفى من جزائه إياك على الطاعة أن رضيك لها أهل","publishedAt":"2016-11-06T20:48:54Z","duration":"PT2M49S","thumbnail":"https://i.ytimg.com/vi/ZgMX1BQvWoQ/mqdefault.jpg","viewCount":"1768","playlistId":"PLEkQk5xrP-tkI_meE148wc7V7XHlB0WPb","playlistName":"من الحكم العطائية  د. يسري جبر","category":"متنوع"},{"id":"p3al_tWSuRs","title":"صحيح الإمام البخاري رضي الله عنه كتاب اللباس ( باب الجعد ) المجلس التاسع. د. يسري جبر","publishedAt":"2016-11-07T19:10:23Z","duration":"PT50M10S","thumbnail":"https://i.ytimg.com/vi/p3al_tWSuRs/mqdefault.jpg","viewCount":"168","playlistId":"PLEkQk5xrP-tmJuzaj4GWRenFoFx9gdbFX","playlistName":"شرح كتاب صحيح الإمام البخاري رضي الله تعالى عنه   أ.د. يسرى جبر","category":"حديث"},{"id":"zsIWM_YF09A","title":"مَنْ عَبَدَه لشيء يرجوه منه ، أو ليدفع بطاعته وُرُود العقوبة عنه ، فما قام بحق أوصافه .","publishedAt":"2016-11-07T19:31:45Z","duration":"PT4M46S","thumbnail":"https://i.ytimg.com/vi/zsIWM_YF09A/mqdefault.jpg","viewCount":"1951","playlistId":"PLEkQk5xrP-tkI_meE148wc7V7XHlB0WPb","playlistName":"من الحكم العطائية  د. يسري جبر","category":"متنوع"},{"id":"GpUp-pkPcUw","title":"متى أعطاك،أشهدك بِرَّه،ومتى منعك،أشهدك قهره، فهو في كل ذلك مُتعِّرف إليك،ومُقبِل بوجود لطفه عليك","publishedAt":"2016-11-08T20:23:18Z","duration":"PT6M9S","thumbnail":"https://i.ytimg.com/vi/GpUp-pkPcUw/mqdefault.jpg","viewCount":"1775","playlistId":"PLEkQk5xrP-tkI_meE148wc7V7XHlB0WPb","playlistName":"من الحكم العطائية  د. يسري جبر","category":"متنوع"},{"id":"eNbmLq3KpIw","title":"إنما يُؤْلمكَ المَنْعُ لِعَدَمِ فَهْمِكَ عنِ اللهِ فيه","publishedAt":"2016-11-09T18:35:34Z","duration":"PT8M7S","thumbnail":"https://i.ytimg.com/vi/eNbmLq3KpIw/mqdefault.jpg","viewCount":"8161","playlistId":"PLEkQk5xrP-tkI_meE148wc7V7XHlB0WPb","playlistName":"من الحكم العطائية  د. يسري جبر","category":"متنوع"},{"id":"EwJN3qkmIs4","title":"سورة المائدة آية 42","publishedAt":"2016-11-10T04:24:06Z","duration":"PT18M41S","thumbnail":"https://i.ytimg.com/vi/EwJN3qkmIs4/mqdefault.jpg","viewCount":"390","playlistId":"PLEkQk5xrP-tnmTYsyW6xNdyfhPq0Bhrhj","playlistName":"مقرأة الفجر - القُرْآنُ الكَرِيمُ - خَتْمَةُ التَّدَبُّرِ  أ.د. يسري جبر","category":"متنوع"},{"id":"FSWo8xGC_m0","title":"شرح صحيح البخاري كتاب مواقيت الصلاة من باب ٣٩","publishedAt":"2016-11-10T04:29:40Z","duration":"PT23M45S","thumbnail":"https://i.ytimg.com/vi/FSWo8xGC_m0/mqdefault.jpg","viewCount":"1050","playlistId":"PLEkQk5xrP-tlEerGoLa1AFy-2XvQ-sovv","playlistName":"شرح صحيح البخاري - أ.د. يسري جبر (كاملا)","category":"حديث"},{"id":"3V64Hr4hja8","title":"رُبَّما فتح لك باب الطاعة ، وما فتح لك باب القبول ورُبَّما قضى عليك بالذنب ، فكان سببا في الوصول .","publishedAt":"2016-11-10T18:25:44Z","duration":"PT10M30S","thumbnail":"https://i.ytimg.com/vi/3V64Hr4hja8/mqdefault.jpg","viewCount":"9807","playlistId":"PLEkQk5xrP-tkI_meE148wc7V7XHlB0WPb","playlistName":"من الحكم العطائية  د. يسري جبر","category":"متنوع"},{"id":"43RTwm4Myhw","title":"سورة المائدة آية 45","publishedAt":"2016-11-11T04:05:55Z","duration":"PT10M11S","thumbnail":"https://i.ytimg.com/vi/43RTwm4Myhw/mqdefault.jpg","viewCount":"361","playlistId":"PLEkQk5xrP-tnmTYsyW6xNdyfhPq0Bhrhj","playlistName":"مقرأة الفجر - القُرْآنُ الكَرِيمُ - خَتْمَةُ التَّدَبُّرِ  أ.د. يسري جبر","category":"متنوع"},{"id":"5bSRn-sbZ_o","title":"شرح صحيح البخاري كتاب الأذان من باب ١","publishedAt":"2016-11-11T04:08:27Z","duration":"PT38M30S","thumbnail":"https://i.ytimg.com/vi/5bSRn-sbZ_o/mqdefault.jpg","viewCount":"1456","playlistId":"PLEkQk5xrP-tlEerGoLa1AFy-2XvQ-sovv","playlistName":"شرح صحيح البخاري - أ.د. يسري جبر (كاملا)","category":"حديث"},{"id":"GNca20yeIfw","title":"كلمة الدكتور يسري في ليلة الجمعة بالوادي المقدس","publishedAt":"2016-11-11T04:28:22Z","duration":"PT13M9S","thumbnail":"https://i.ytimg.com/vi/GNca20yeIfw/mqdefault.jpg","viewCount":"831","playlistId":"PLEkQk5xrP-tmJzNvLntpzW0uPanPzxA0c","playlistName":"لقاءات ومحاضرات","category":"متنوع"},{"id":"RDRY0uDxQ_4","title":"سورة المائدة آية 48","publishedAt":"2016-11-11T11:05:40Z","duration":"PT15M18S","thumbnail":"https://i.ytimg.com/vi/RDRY0uDxQ_4/mqdefault.jpg","viewCount":"377","playlistId":"PLEkQk5xrP-tnmTYsyW6xNdyfhPq0Bhrhj","playlistName":"مقرأة الفجر - القُرْآنُ الكَرِيمُ - خَتْمَةُ التَّدَبُّرِ  أ.د. يسري جبر","category":"متنوع"},{"id":"S1F0yZJ6iqA","title":"شرح صحيح البخاري كتاب الأذان من باب ٩","publishedAt":"2016-11-11T11:08:24Z","duration":"PT36M9S","thumbnail":"https://i.ytimg.com/vi/S1F0yZJ6iqA/mqdefault.jpg","viewCount":"1207","playlistId":"PLEkQk5xrP-tlEerGoLa1AFy-2XvQ-sovv","playlistName":"شرح صحيح البخاري - أ.د. يسري جبر (كاملا)","category":"حديث"},{"id":"7i5x8JAMm8k","title":"سورة المائدة آية 51","publishedAt":"2016-11-11T12:46:56Z","duration":"PT14M58S","thumbnail":"https://i.ytimg.com/vi/7i5x8JAMm8k/mqdefault.jpg","viewCount":"464","playlistId":"PLEkQk5xrP-tnmTYsyW6xNdyfhPq0Bhrhj","playlistName":"مقرأة الفجر - القُرْآنُ الكَرِيمُ - خَتْمَةُ التَّدَبُّرِ  أ.د. يسري جبر","category":"متنوع"},{"id":"2T5XlckgRhs","title":"شرح صحيح البخاري كتاب الأذان من باب ١٨","publishedAt":"2016-11-11T12:48:34Z","duration":"PT34M51S","thumbnail":"https://i.ytimg.com/vi/2T5XlckgRhs/mqdefault.jpg","viewCount":"1121","playlistId":"PLEkQk5xrP-tlEerGoLa1AFy-2XvQ-sovv","playlistName":"شرح صحيح البخاري - أ.د. يسري جبر (كاملا)","category":"حديث"},{"id":"tIxD5NdK7IQ","title":"نعمتان ما خرج موجود عنهما ، ولابدَّ لكل مُكوَّن منهما : نعمة الإيجاد ، ونعمة الإمداد .","publishedAt":"2016-11-11T20:13:21Z","duration":"PT20M32S","thumbnail":"https://i.ytimg.com/vi/tIxD5NdK7IQ/mqdefault.jpg","viewCount":"2498","playlistId":"PLEkQk5xrP-tkI_meE148wc7V7XHlB0WPb","playlistName":"من الحكم العطائية  د. يسري جبر","category":"متنوع"},{"id":"mMMfB7yZp-I","title":"سورة المائدة آية 54","publishedAt":"2016-11-12T04:00:17Z","duration":"PT15M42S","thumbnail":"https://i.ytimg.com/vi/mMMfB7yZp-I/mqdefault.jpg","viewCount":"429","playlistId":"PLEkQk5xrP-tnmTYsyW6xNdyfhPq0Bhrhj","playlistName":"مقرأة الفجر - القُرْآنُ الكَرِيمُ - خَتْمَةُ التَّدَبُّرِ  أ.د. يسري جبر","category":"متنوع"},{"id":"cIX4q76Kpsg","title":"شرح صحيح البخاري كتاب الأذان من باب ٢٩","publishedAt":"2016-11-12T04:01:26Z","duration":"PT34M14S","thumbnail":"https://i.ytimg.com/vi/cIX4q76Kpsg/mqdefault.jpg","viewCount":"1051","playlistId":"PLEkQk5xrP-tlEerGoLa1AFy-2XvQ-sovv","playlistName":"شرح صحيح البخاري - أ.د. يسري جبر (كاملا)","category":"حديث"},{"id":"L1mvzF2pOgA","title":"سورة المائدة آية 57","publishedAt":"2016-11-12T05:43:18Z","duration":"PT12M47S","thumbnail":"https://i.ytimg.com/vi/L1mvzF2pOgA/mqdefault.jpg","viewCount":"358","playlistId":"PLEkQk5xrP-tnmTYsyW6xNdyfhPq0Bhrhj","playlistName":"مقرأة الفجر - القُرْآنُ الكَرِيمُ - خَتْمَةُ التَّدَبُّرِ  أ.د. يسري جبر","category":"متنوع"},{"id":"DVgjlhg2Qow","title":"شرح صحيح البخاري كتاب الأذان من باب ٣٦","publishedAt":"2016-11-12T05:43:20Z","duration":"PT43M48S","thumbnail":"https://i.ytimg.com/vi/DVgjlhg2Qow/mqdefault.jpg","viewCount":"1244","playlistId":"PLEkQk5xrP-tlEerGoLa1AFy-2XvQ-sovv","playlistName":"شرح صحيح البخاري - أ.د. يسري جبر (كاملا)","category":"حديث"},{"id":"lxu2HdPW40s","title":"كيف نتعامل مع الأزمات    د. يسري جبر","publishedAt":"2016-11-12T13:04:10Z","duration":"PT44M36S","thumbnail":"https://i.ytimg.com/vi/lxu2HdPW40s/mqdefault.jpg","viewCount":"2669","playlistId":"PLEkQk5xrP-tlArtGpeLWaqNM7h7IDeAVC","playlistName":"خطب الجمعة أ.د. يسري جبر","category":"خطب"}],"total":7670,"page":52,"pageSize":24,"totalPages":320}