{"items":[{"id":"TItYQljN3bY","title":"قراءة القرآن (من آية ٢٦١ سورة البقرة)","publishedAt":"2016-05-28T18:31:13Z","duration":"PT15M48S","thumbnail":"https://i.ytimg.com/vi/TItYQljN3bY/mqdefault.jpg","viewCount":"558","playlistId":"PLEkQk5xrP-tnmTYsyW6xNdyfhPq0Bhrhj","playlistName":"مقرأة الفجر - القُرْآنُ الكَرِيمُ - خَتْمَةُ التَّدَبُّرِ  أ.د. يسري جبر","category":"متنوع"},{"id":"iH-OHGTjQUw","title":"شرح كتاب الدعوات من سنن الترمذي - المجلس الثالث عشر","publishedAt":"2016-05-28T18:32:36Z","duration":"PT33M14S","thumbnail":"https://i.ytimg.com/vi/iH-OHGTjQUw/mqdefault.jpg","viewCount":"94","playlistId":"PLEkQk5xrP-tnu6of679SvxdVx0qSrJzmb","playlistName":"شرح سنن الإمام الترمذي رضى الله عنه د. يسري جبر","category":"متنوع"},{"id":"4bguiPdOXaQ","title":"قراءة القرآن (من آية ٢٦٣ سورة البقرة)","publishedAt":"2016-05-29T01:37:56Z","duration":"PT10M43S","thumbnail":"https://i.ytimg.com/vi/4bguiPdOXaQ/mqdefault.jpg","viewCount":"558","playlistId":"PLEkQk5xrP-tnmTYsyW6xNdyfhPq0Bhrhj","playlistName":"مقرأة الفجر - القُرْآنُ الكَرِيمُ - خَتْمَةُ التَّدَبُّرِ  أ.د. يسري جبر","category":"متنوع"},{"id":"-NqiiRrkPhI","title":"شرح كتاب الدعوات من سنن الترمذي - المجلس الرابع عشر","publishedAt":"2016-05-29T01:39:43Z","duration":"PT34M44S","thumbnail":"https://i.ytimg.com/vi/-NqiiRrkPhI/mqdefault.jpg","viewCount":"119","playlistId":"PLEkQk5xrP-tnu6of679SvxdVx0qSrJzmb","playlistName":"شرح سنن الإمام الترمذي رضى الله عنه د. يسري جبر","category":"متنوع"},{"id":"kLPmRP0pT0A","title":"قراءة القرآن (من آية ٢٦٧ سورة البقرة)","publishedAt":"2016-05-30T14:21:19Z","duration":"PT20M38S","thumbnail":"https://i.ytimg.com/vi/kLPmRP0pT0A/mqdefault.jpg","viewCount":"644","playlistId":"PLEkQk5xrP-tnmTYsyW6xNdyfhPq0Bhrhj","playlistName":"مقرأة الفجر - القُرْآنُ الكَرِيمُ - خَتْمَةُ التَّدَبُّرِ  أ.د. يسري جبر","category":"متنوع"},{"id":"dh-ovC4HWpo","title":"شرح كتاب الدعوات من سنن الترمذي - المجلس الخامس عشر","publishedAt":"2016-05-30T18:12:19Z","duration":"PT37M36S","thumbnail":"https://i.ytimg.com/vi/dh-ovC4HWpo/mqdefault.jpg","viewCount":"118","playlistId":"PLEkQk5xrP-tnu6of679SvxdVx0qSrJzmb","playlistName":"شرح سنن الإمام الترمذي رضى الله عنه د. يسري جبر","category":"متنوع"},{"id":"ZI4rGOleVGw","title":"قراءة القرآن (من آية ٢٧٢ سورة البقرة)","publishedAt":"2016-05-30T19:21:32Z","duration":"PT28M45S","thumbnail":"https://i.ytimg.com/vi/ZI4rGOleVGw/mqdefault.jpg","viewCount":"730","playlistId":"PLEkQk5xrP-tnmTYsyW6xNdyfhPq0Bhrhj","playlistName":"مقرأة الفجر - القُرْآنُ الكَرِيمُ - خَتْمَةُ التَّدَبُّرِ  أ.د. يسري جبر","category":"متنوع"},{"id":"rf-O-rcVTnA","title":"شرح كتاب الدعوات من سنن الترمذي - المجلس السامس عشر","publishedAt":"2016-05-30T19:33:22Z","duration":"PT34M9S","thumbnail":"https://i.ytimg.com/vi/rf-O-rcVTnA/mqdefault.jpg","viewCount":"135","playlistId":"PLEkQk5xrP-tnu6of679SvxdVx0qSrJzmb","playlistName":"شرح سنن الإمام الترمذي رضى الله عنه د. يسري جبر","category":"متنوع"},{"id":"GK1aZ9Vzb8o","title":"17- إِعَادَةِ الصَّلاَةِ مَعَ الإِمَامِ ك صلاة الجماعة ك الموطأ د يسري جبر الأزهري بمضيفة الدح","publishedAt":"2016-05-30T22:15:05Z","duration":"PT1H58S","thumbnail":"https://i.ytimg.com/vi/GK1aZ9Vzb8o/mqdefault.jpg","viewCount":"546","playlistId":"PLEkQk5xrP-tnC6BRuqMjyO-484iqXeg0o","playlistName":"شرح كتاب الموطأ للإمام مالك","category":"متنوع"},{"id":"keRla_JYPQ8","title":"قراءة القرآن (من آية ٢٧٧ سورة البقرة)","publishedAt":"2016-06-01T01:46:38Z","duration":"PT11M49S","thumbnail":"https://i.ytimg.com/vi/keRla_JYPQ8/mqdefault.jpg","viewCount":"592","playlistId":"PLEkQk5xrP-tnmTYsyW6xNdyfhPq0Bhrhj","playlistName":"مقرأة الفجر - القُرْآنُ الكَرِيمُ - خَتْمَةُ التَّدَبُّرِ  أ.د. يسري جبر","category":"متنوع"},{"id":"JNzxRMMp-J0","title":"شرح كتاب الدعوات من سنن الترمذي - المجلس السابع عشر","publishedAt":"2016-06-01T19:23:58Z","duration":"PT39M22S","thumbnail":"https://i.ytimg.com/vi/JNzxRMMp-J0/mqdefault.jpg","viewCount":"128","playlistId":"PLEkQk5xrP-tnu6of679SvxdVx0qSrJzmb","playlistName":"شرح سنن الإمام الترمذي رضى الله عنه د. يسري جبر","category":"متنوع"},{"id":"Lf9pNDUepGk","title":"قراءة القرآن (من آية ٢٨٢ سورة البقرة)","publishedAt":"2016-06-02T02:47:06Z","duration":"PT25M32S","thumbnail":"https://i.ytimg.com/vi/Lf9pNDUepGk/mqdefault.jpg","viewCount":"672","playlistId":"PLEkQk5xrP-tnmTYsyW6xNdyfhPq0Bhrhj","playlistName":"مقرأة الفجر - القُرْآنُ الكَرِيمُ - خَتْمَةُ التَّدَبُّرِ  أ.د. يسري جبر","category":"متنوع"},{"id":"ErDaH0sLaBI","title":"شرح كتاب الدعوات من سنن الترمذي - المجلس الثامن عشر","publishedAt":"2016-06-02T02:48:10Z","duration":"PT22M35S","thumbnail":"https://i.ytimg.com/vi/ErDaH0sLaBI/mqdefault.jpg","viewCount":"121","playlistId":"PLEkQk5xrP-tnu6of679SvxdVx0qSrJzmb","playlistName":"شرح سنن الإمام الترمذي رضى الله عنه د. يسري جبر","category":"متنوع"},{"id":"QCKFVz_U__I","title":"قراءة القرآن (من آية ٢٨٤ سورة البقرة)","publishedAt":"2016-06-02T20:44:07Z","duration":"PT8M51S","thumbnail":"https://i.ytimg.com/vi/QCKFVz_U__I/mqdefault.jpg","viewCount":"672","playlistId":"PLEkQk5xrP-tnmTYsyW6xNdyfhPq0Bhrhj","playlistName":"مقرأة الفجر - القُرْآنُ الكَرِيمُ - خَتْمَةُ التَّدَبُّرِ  أ.د. يسري جبر","category":"متنوع"},{"id":"NKMHQIJo8RM","title":"18- الْجَمْعِ بَيْنَ الصَّلاَتَيْنِ فِى الْحَضَرِوَالسَّفَرِ قصرالصلاة فى السفر ك الموطأ د يسري جبر","publishedAt":"2016-06-02T23:00:58Z","duration":"PT50M44S","thumbnail":"https://i.ytimg.com/vi/NKMHQIJo8RM/mqdefault.jpg","viewCount":"578","playlistId":"PLEkQk5xrP-tnC6BRuqMjyO-484iqXeg0o","playlistName":"شرح كتاب الموطأ للإمام مالك","category":"متنوع"},{"id":"X6LRrRmsUTw","title":"شرح كتاب المناقب من سنن الترمذي - المجلس الأول","publishedAt":"2016-06-03T02:16:36Z","duration":"PT52M34S","thumbnail":"https://i.ytimg.com/vi/X6LRrRmsUTw/mqdefault.jpg","viewCount":"221","playlistId":"PLEkQk5xrP-tnu6of679SvxdVx0qSrJzmb","playlistName":"شرح سنن الإمام الترمذي رضى الله عنه د. يسري جبر","category":"متنوع"},{"id":"oRVZTngKMQU","title":"قراءة القرآن (من أول سورة آل عمران)","publishedAt":"2016-06-03T11:46:12Z","duration":"PT13M19S","thumbnail":"https://i.ytimg.com/vi/oRVZTngKMQU/mqdefault.jpg","viewCount":"1217","playlistId":"PLEkQk5xrP-tnmTYsyW6xNdyfhPq0Bhrhj","playlistName":"مقرأة الفجر - القُرْآنُ الكَرِيمُ - خَتْمَةُ التَّدَبُّرِ  أ.د. يسري جبر","category":"متنوع"},{"id":"Cckpe7UDRxs","title":"شرح كتاب المناقب من سنن الترمذي - المجلس الثاني","publishedAt":"2016-06-03T14:05:49Z","duration":"PT48M59S","thumbnail":"https://i.ytimg.com/vi/Cckpe7UDRxs/mqdefault.jpg","viewCount":"190","playlistId":"PLEkQk5xrP-tnu6of679SvxdVx0qSrJzmb","playlistName":"شرح سنن الإمام الترمذي رضى الله عنه د. يسري جبر","category":"متنوع"},{"id":"tnHKmWpNpUU","title":"قراءة القرآن (من آية ٧ سورة آل عمران)","publishedAt":"2016-06-04T06:50:11Z","duration":"PT16M41S","thumbnail":"https://i.ytimg.com/vi/tnHKmWpNpUU/mqdefault.jpg","viewCount":"874","playlistId":"PLEkQk5xrP-tnmTYsyW6xNdyfhPq0Bhrhj","playlistName":"مقرأة الفجر - القُرْآنُ الكَرِيمُ - خَتْمَةُ التَّدَبُّرِ  أ.د. يسري جبر","category":"متنوع"},{"id":"wTDukhi-5TQ","title":"برنامج - عصمة الأنبياء - الحلقة 13- سيدنا يوسف : شبهات في زمن ما بعد خروجه من السجن - @alerthTV","publishedAt":"2016-06-04T07:40:12Z","duration":"PT23M59S","thumbnail":"https://i.ytimg.com/vi/wTDukhi-5TQ/mqdefault.jpg","viewCount":"1921","playlistId":"PLEkQk5xrP-tnBp9yUT_R2vtqSPOlcyAZe","playlistName":"برنامج - عصمة الأنبياء","category":"متنوع"},{"id":"IttZCA470l4","title":"شرح كتاب المناقب من سنن الترمذي - المجلس الثالث","publishedAt":"2016-06-04T13:29:55Z","duration":"PT39M47S","thumbnail":"https://i.ytimg.com/vi/IttZCA470l4/mqdefault.jpg","viewCount":"137","playlistId":"PLEkQk5xrP-tnu6of679SvxdVx0qSrJzmb","playlistName":"شرح سنن الإمام الترمذي رضى الله عنه د. يسري جبر","category":"متنوع"},{"id":"6ba9DdA95nI","title":"كل الناس يغدو فبائع نفسه فمعتقها أو موبقها د. يسري جبر","publishedAt":"2016-06-04T14:19:17Z","duration":"PT42M29S","thumbnail":"https://i.ytimg.com/vi/6ba9DdA95nI/mqdefault.jpg","viewCount":"1601","playlistId":"PLEkQk5xrP-tlArtGpeLWaqNM7h7IDeAVC","playlistName":"خطب الجمعة أ.د. يسري جبر","category":"خطب"},{"id":"t19-GmvQqCU","title":"شرح كتاب الأذكار من كلام سيد الأبرار للإمام النووى رضى الله عنه - المجلس الثاني والأربعون","publishedAt":"2016-06-04T19:22:46Z","duration":"PT12M22S","thumbnail":"https://i.ytimg.com/vi/t19-GmvQqCU/mqdefault.jpg","viewCount":"312","playlistId":"PLEkQk5xrP-tkWS57Ubysh0ifJR8dmuEtE","playlistName":"شرح كتاب الأذكار للإمام النووي د. يسرى جبر","category":"حديث"},{"id":"53xt4ik_X0Q","title":"قراءة القرآن (من آية ١٠ سورة آل عمران)","publishedAt":"2016-06-05T20:09:14Z","duration":"PT8M47S","thumbnail":"https://i.ytimg.com/vi/53xt4ik_X0Q/mqdefault.jpg","viewCount":"706","playlistId":"PLEkQk5xrP-tnmTYsyW6xNdyfhPq0Bhrhj","playlistName":"مقرأة الفجر - القُرْآنُ الكَرِيمُ - خَتْمَةُ التَّدَبُّرِ  أ.د. يسري جبر","category":"متنوع"}],"total":7670,"page":40,"pageSize":24,"totalPages":320}