{"items":[{"id":"D0G1WWbU41A","title":"قراءة القرآن (من آية ٢٣٣ سورة البقرة)","publishedAt":"2016-05-18T02:33:32Z","duration":"PT20M27S","thumbnail":"https://i.ytimg.com/vi/D0G1WWbU41A/mqdefault.jpg","viewCount":"707","playlistId":"PLEkQk5xrP-tnmTYsyW6xNdyfhPq0Bhrhj","playlistName":"مقرأة الفجر - القُرْآنُ الكَرِيمُ - خَتْمَةُ التَّدَبُّرِ  أ.د. يسري جبر","category":"متنوع"},{"id":"yEYX9RwAXrY","title":"شرح كتاب الدعوات من سنن الترمذي - المجلس الخامس","publishedAt":"2016-05-18T02:41:23Z","duration":"PT31M44S","thumbnail":"https://i.ytimg.com/vi/yEYX9RwAXrY/mqdefault.jpg","viewCount":"119","playlistId":"PLEkQk5xrP-tnu6of679SvxdVx0qSrJzmb","playlistName":"شرح سنن الإمام الترمذي رضى الله عنه د. يسري جبر","category":"متنوع"},{"id":"eorN97_foIs","title":"برنامج - عصمة الأنبياء - الحلقة التاسعة - سيدنا إبراهيم : شبهة ( استغفاره لأبيه ) - @alerthTV","publishedAt":"2016-05-18T11:19:16Z","duration":"PT23M38S","thumbnail":"https://i.ytimg.com/vi/eorN97_foIs/mqdefault.jpg","viewCount":"1620","playlistId":"PLEkQk5xrP-tnBp9yUT_R2vtqSPOlcyAZe","playlistName":"برنامج - عصمة الأنبياء","category":"متنوع"},{"id":"BjhGntIZyYQ","title":"14-الْعَمَلِ فِى غُسْلِ يَوْمِ الْجُمُعَةِ ك الجمعة ك الموطأ د- يسري جبر الأزهري بمضيفة الدح","publishedAt":"2016-05-18T23:51:58Z","duration":"PT47M26S","thumbnail":"https://i.ytimg.com/vi/BjhGntIZyYQ/mqdefault.jpg","viewCount":"533","playlistId":"PLEkQk5xrP-tnC6BRuqMjyO-484iqXeg0o","playlistName":"شرح كتاب الموطأ للإمام مالك","category":"متنوع"},{"id":"a3uoEvWWVNo","title":"قراءة القرآن (من آية ٢٣٥ سورة البقرة)","publishedAt":"2016-05-19T02:24:13Z","duration":"PT18M23S","thumbnail":"https://i.ytimg.com/vi/a3uoEvWWVNo/mqdefault.jpg","viewCount":"697","playlistId":"PLEkQk5xrP-tnmTYsyW6xNdyfhPq0Bhrhj","playlistName":"مقرأة الفجر - القُرْآنُ الكَرِيمُ - خَتْمَةُ التَّدَبُّرِ  أ.د. يسري جبر","category":"متنوع"},{"id":"tVwl4v1TBBc","title":"شرح كتاب الدعوات من سنن الترمذي - المجلس السادس","publishedAt":"2016-05-19T05:06:30Z","duration":"PT34M25S","thumbnail":"https://i.ytimg.com/vi/tVwl4v1TBBc/mqdefault.jpg","viewCount":"141","playlistId":"PLEkQk5xrP-tnu6of679SvxdVx0qSrJzmb","playlistName":"شرح سنن الإمام الترمذي رضى الله عنه د. يسري جبر","category":"متنوع"},{"id":"rJP1cBZmsfk","title":"برنامج - عصمة الأنبياء - الحلقة العاشرة - شذوذ قوم لوط - @alerthTV","publishedAt":"2016-05-19T14:16:18Z","duration":"PT24M18S","thumbnail":"https://i.ytimg.com/vi/rJP1cBZmsfk/mqdefault.jpg","viewCount":"1479","playlistId":"PLEkQk5xrP-tnBp9yUT_R2vtqSPOlcyAZe","playlistName":"برنامج - عصمة الأنبياء","category":"متنوع"},{"id":"FVRi8NozgCA","title":"شرح كتاب الأذكار من كلام سيد الأبرار للإمام النووى رضى الله عنه - المجلس الواحد والأربعون","publishedAt":"2016-05-20T08:07:23Z","duration":"PT11M57S","thumbnail":"https://i.ytimg.com/vi/FVRi8NozgCA/mqdefault.jpg","viewCount":"365","playlistId":"PLEkQk5xrP-tkWS57Ubysh0ifJR8dmuEtE","playlistName":"شرح كتاب الأذكار للإمام النووي د. يسرى جبر","category":"حديث"},{"id":"c-oIPf0_vn0","title":"برنامج - عصمة الأنبياء - الحلقة الحادية عشر - شبهات حول سيدنا يعقوب وأبنائه -  @alerthTV","publishedAt":"2016-05-21T11:15:05Z","duration":"PT24M9S","thumbnail":"https://i.ytimg.com/vi/c-oIPf0_vn0/mqdefault.jpg","viewCount":"1691","playlistId":"PLEkQk5xrP-tnBp9yUT_R2vtqSPOlcyAZe","playlistName":"برنامج - عصمة الأنبياء","category":"متنوع"},{"id":"p5-0qpmsE_0","title":"قراءة القرآن (من آية ٢٣٨ سورة البقرة)","publishedAt":"2016-05-23T02:30:57Z","duration":"PT22M57S","thumbnail":"https://i.ytimg.com/vi/p5-0qpmsE_0/mqdefault.jpg","viewCount":"681","playlistId":"PLEkQk5xrP-tnmTYsyW6xNdyfhPq0Bhrhj","playlistName":"مقرأة الفجر - القُرْآنُ الكَرِيمُ - خَتْمَةُ التَّدَبُّرِ  أ.د. يسري جبر","category":"متنوع"},{"id":"6skQEfrdF8o","title":"شرح كتاب الدعوات من سنن الترمذي - المجلس السابع","publishedAt":"2016-05-23T04:13:14Z","duration":"PT47M36S","thumbnail":"https://i.ytimg.com/vi/6skQEfrdF8o/mqdefault.jpg","viewCount":"123","playlistId":"PLEkQk5xrP-tnu6of679SvxdVx0qSrJzmb","playlistName":"شرح سنن الإمام الترمذي رضى الله عنه د. يسري جبر","category":"متنوع"},{"id":"dmoCTi5A1xg","title":"15- التَّرْغِيبِ فِى الصَّلاَةِ فِى رَمَضَانَ ك الصلاة فى رمضان ك الموطأ د يسري جبر الأزهري","publishedAt":"2016-05-23T12:17:24Z","duration":"PT57M14S","thumbnail":"https://i.ytimg.com/vi/dmoCTi5A1xg/mqdefault.jpg","viewCount":"663","playlistId":"PLEkQk5xrP-tnC6BRuqMjyO-484iqXeg0o","playlistName":"شرح كتاب الموطأ للإمام مالك","category":"متنوع"},{"id":"G8AVAKp4Na0","title":"قراءة القرآن (من آية ٢٤٣ سورة البقرة)","publishedAt":"2016-05-23T20:11:11Z","duration":"PT31M15S","thumbnail":"https://i.ytimg.com/vi/G8AVAKp4Na0/mqdefault.jpg","viewCount":"789","playlistId":"PLEkQk5xrP-tnmTYsyW6xNdyfhPq0Bhrhj","playlistName":"مقرأة الفجر - القُرْآنُ الكَرِيمُ - خَتْمَةُ التَّدَبُّرِ  أ.د. يسري جبر","category":"متنوع"},{"id":"mmdI2jCrPas","title":"شرح كتاب الدعوات من سنن الترمذي - المجلس الثامن","publishedAt":"2016-05-24T01:30:43Z","duration":"PT26M1S","thumbnail":"https://i.ytimg.com/vi/mmdI2jCrPas/mqdefault.jpg","viewCount":"108","playlistId":"PLEkQk5xrP-tnu6of679SvxdVx0qSrJzmb","playlistName":"شرح سنن الإمام الترمذي رضى الله عنه د. يسري جبر","category":"متنوع"},{"id":"d1YN2LhvZec","title":"قراءة القرآن (من آية ٢٥٣ سورة البقرة)","publishedAt":"2016-05-25T02:39:50Z","duration":"PT17M48S","thumbnail":"https://i.ytimg.com/vi/d1YN2LhvZec/mqdefault.jpg","viewCount":"730","playlistId":"PLEkQk5xrP-tnmTYsyW6xNdyfhPq0Bhrhj","playlistName":"مقرأة الفجر - القُرْآنُ الكَرِيمُ - خَتْمَةُ التَّدَبُّرِ  أ.د. يسري جبر","category":"متنوع"},{"id":"FVY7FWl0scE","title":"شرح كتاب الدعوات من سنن الترمذي - المجلس التاسع","publishedAt":"2016-05-25T02:43:20Z","duration":"PT38M33S","thumbnail":"https://i.ytimg.com/vi/FVY7FWl0scE/mqdefault.jpg","viewCount":"124","playlistId":"PLEkQk5xrP-tnu6of679SvxdVx0qSrJzmb","playlistName":"شرح سنن الإمام الترمذي رضى الله عنه د. يسري جبر","category":"متنوع"},{"id":"q9uwRPZEJ9Y","title":"قراءة القرآن (من آية ٢٥٦ سورة البقرة)","publishedAt":"2016-05-26T02:21:52Z","duration":"PT21M22S","thumbnail":"https://i.ytimg.com/vi/q9uwRPZEJ9Y/mqdefault.jpg","viewCount":"708","playlistId":"PLEkQk5xrP-tnmTYsyW6xNdyfhPq0Bhrhj","playlistName":"مقرأة الفجر - القُرْآنُ الكَرِيمُ - خَتْمَةُ التَّدَبُّرِ  أ.د. يسري جبر","category":"متنوع"},{"id":"VBS8G7vlO-I","title":"شرح كتاب الدعوات من سنن الترمذي - المجلس العاشر","publishedAt":"2016-05-26T02:29:06Z","duration":"PT27M11S","thumbnail":"https://i.ytimg.com/vi/VBS8G7vlO-I/mqdefault.jpg","viewCount":"102","playlistId":"PLEkQk5xrP-tnu6of679SvxdVx0qSrJzmb","playlistName":"شرح سنن الإمام الترمذي رضى الله عنه د. يسري جبر","category":"متنوع"},{"id":"yFQ_N4zYwfg","title":"قراءة القرآن (من آية ٢٥٨ سورة البقرة)","publishedAt":"2016-05-27T02:29:50Z","duration":"PT21M20S","thumbnail":"https://i.ytimg.com/vi/yFQ_N4zYwfg/mqdefault.jpg","viewCount":"695","playlistId":"PLEkQk5xrP-tnmTYsyW6xNdyfhPq0Bhrhj","playlistName":"مقرأة الفجر - القُرْآنُ الكَرِيمُ - خَتْمَةُ التَّدَبُّرِ  أ.د. يسري جبر","category":"متنوع"},{"id":"q7cw1GPcvG0","title":"شرح كتاب الدعوات من سنن الترمذي - المجلس الحادي عشر","publishedAt":"2016-05-27T02:51:15Z","duration":"PT29M30S","thumbnail":"https://i.ytimg.com/vi/q7cw1GPcvG0/mqdefault.jpg","viewCount":"89","playlistId":"PLEkQk5xrP-tnu6of679SvxdVx0qSrJzmb","playlistName":"شرح سنن الإمام الترمذي رضى الله عنه د. يسري جبر","category":"متنوع"},{"id":"HZoHMo26tsQ","title":"16- فَضْلِ صَلاَةِ الْجَمَاعَةِ عَلَى صَلاَةِ الْفَذِّ ك صلاة الجماعة ك الموطأ د يسري جبر الأزهري","publishedAt":"2016-05-28T02:05:39Z","duration":"PT42M9S","thumbnail":"https://i.ytimg.com/vi/HZoHMo26tsQ/mqdefault.jpg","viewCount":"624","playlistId":"PLEkQk5xrP-tnC6BRuqMjyO-484iqXeg0o","playlistName":"شرح كتاب الموطأ للإمام مالك","category":"متنوع"},{"id":"jvLgUb0ATXs","title":"قراءة القرآن (من آية ٢٦٠ سورة البقرة)","publishedAt":"2016-05-28T02:17:49Z","duration":"PT10M50S","thumbnail":"https://i.ytimg.com/vi/jvLgUb0ATXs/mqdefault.jpg","viewCount":"588","playlistId":"PLEkQk5xrP-tnmTYsyW6xNdyfhPq0Bhrhj","playlistName":"مقرأة الفجر - القُرْآنُ الكَرِيمُ - خَتْمَةُ التَّدَبُّرِ  أ.د. يسري جبر","category":"متنوع"},{"id":"LHCOOta-gJ0","title":"شرح كتاب الدعوات من سنن الترمذي - المجلس الثاني عشر","publishedAt":"2016-05-28T02:19:28Z","duration":"PT37M31S","thumbnail":"https://i.ytimg.com/vi/LHCOOta-gJ0/mqdefault.jpg","viewCount":"127","playlistId":"PLEkQk5xrP-tnu6of679SvxdVx0qSrJzmb","playlistName":"شرح سنن الإمام الترمذي رضى الله عنه د. يسري جبر","category":"متنوع"},{"id":"Rhpj7NWr1Kw","title":"برنامج - عصمة الأنبياء - الحلقة 12 - سيدنا يوسف : شبهات حول \" ولقد همت به وهم بها \" - @alerthTV","publishedAt":"2016-05-28T07:28:58Z","duration":"PT25M10S","thumbnail":"https://i.ytimg.com/vi/Rhpj7NWr1Kw/mqdefault.jpg","viewCount":"2057","playlistId":"PLEkQk5xrP-tnBp9yUT_R2vtqSPOlcyAZe","playlistName":"برنامج - عصمة الأنبياء","category":"متنوع"}],"total":7670,"page":39,"pageSize":24,"totalPages":320}