{"items":[{"id":"8SunTfxgvPM","title":"19- Ø§Ù„Ù†ÙÙ‘ÙˆÙ’Ø¹Ù Ø§Ù„Ø«Ø§Ù…Ù†: Ù…Ø¹Ø±ÙØ© Ø¢Ø®Ø± Ù…Ø§ Ù†Ø²Ù„ Ù…Ù† Ø§Ù„Ù‚Ø±Ø¢Ù† - Ø´Ø±Ø­ Ø§Ù„Ø¥ØªÙ‚Ø§Ù† ÙÙŠ Ø¹Ù„ÙˆÙ… Ø§Ù„Ù‚Ø±Ø¢Ù†","publishedAt":"2023-02-07T05:00:06Z","duration":"PT27M23S","thumbnail":"https://i.ytimg.com/vi/8SunTfxgvPM/mqdefault.jpg","viewCount":"1115","playlistId":"PLEkQk5xrP-tlPw10KGJKagu7zm4Ry2Tge","playlistName":"Ø´Ø±Ø­ Ø§Ù„Ø¥ØªÙ‚Ø§Ù† ÙÙŠ Ø¹Ù„ÙˆÙ… Ø§Ù„Ù‚Ø±Ø¢Ù†","category":"ØªÙØ³ÙŠØ±"},{"id":"cquYRt1P3uE","title":"395- ÙØ¶Ù„ Ø¥Ù†Ø¸Ø§Ø± Ø§Ù„Ù…Ø¹Ø³Ø± ÙˆÙ…Ø¹Ø±ÙØ© Ù…ØªÙ‰ ØªÙƒÙˆÙ† Ø§Ù„Ø³Ù‘ÙÙ†Ù‘ÙØ©Ù Ø£ÙØ¶Ù„ Ù…Ù† Ø§Ù„ÙˆØ§Ø¬Ø¨ ÙÙŠ Ø§Ù„Ø«ÙˆØ§Ø¨ØŸ - Ø´Ø±Ø­ Ø¯Ù„ÙŠÙ„ Ø§Ù„ÙØ§Ù„Ø­ÙŠÙ†","publishedAt":"2023-02-07T09:00:21Z","duration":"PT34M37S","thumbnail":"https://i.ytimg.com/vi/cquYRt1P3uE/mqdefault.jpg","viewCount":"890","playlistId":"PLEkQk5xrP-tkc9DXvSLguqX5-FYp6ASR4","playlistName":"Ø¯Ù„ÙŠÙ„ Ø§Ù„ÙØ§Ù„Ø­ÙŠÙ† Ù„Ø·Ø±Ù‚ Ø±ÙŠØ§Ø¶ Ø§Ù„ØµØ§Ù„Ø­ÙŠÙ†","category":"Ù…ØªÙ†ÙˆØ¹"},{"id":"f8n5hyiCB-c","title":"Ù‡Ù„ ÙŠØ¬ÙˆØ² Ù†ÙŠØ© ØµÙ„Ø§Ø© Ø§Ù„Ø¬Ù…Ø§Ø¹Ø© Ø¨Ø§Ù„Ø¬Ù† Ø§Ù„Ù…Ø³Ù„Ù…ÙŠÙ†ØŸ","publishedAt":"2023-02-07T18:00:30Z","duration":"PT8M2S","thumbnail":"https://i.ytimg.com/vi/f8n5hyiCB-c/mqdefault.jpg","viewCount":"5196","playlistId":"PLEkQk5xrP-tkGXuZ9atE3k_7it12rUPTs","playlistName":"Ø£Ø³Ø¦Ù„Ø© Ø§Ù„Ù…ØªØ§Ø¨Ø¹ÙŠÙ†","category":"Ù…ØªÙ†ÙˆØ¹"},{"id":"HIOn5GxoLoc","title":"20- Ø§Ù„Ù†ÙÙ‘ÙˆÙ’Ø¹Ù Ø§Ù„ØªØ§Ø³Ø¹: Ù…Ø¹Ø±ÙØ© Ø³Ø¨Ø¨ Ø§Ù„Ù†Ø²ÙˆÙ„ - Ø´Ø±Ø­ Ø§Ù„Ø¥ØªÙ‚Ø§Ù† ÙÙŠ Ø¹Ù„ÙˆÙ… Ø§Ù„Ù‚Ø±Ø¢Ù†","publishedAt":"2023-02-08T05:00:11Z","duration":"PT30M23S","thumbnail":"https://i.ytimg.com/vi/HIOn5GxoLoc/mqdefault.jpg","viewCount":"1441","playlistId":"PLEkQk5xrP-tlPw10KGJKagu7zm4Ry2Tge","playlistName":"Ø´Ø±Ø­ Ø§Ù„Ø¥ØªÙ‚Ø§Ù† ÙÙŠ Ø¹Ù„ÙˆÙ… Ø§Ù„Ù‚Ø±Ø¢Ù†","category":"ØªÙØ³ÙŠØ±"},{"id":"GxC3BwxuV4w","title":"Ø´Ø±Ø­ Ù…Ù†Ø§Ø²Ù„ Ø§Ù„Ø³Ø§Ø¦Ø±ÙŠÙ† - Ø§Ù„Ù…Ø¬Ù„Ø³ (25) Ø¨Ø§Ø¨ Ø§Ù„Ø±Ø¬Ø§Ø¡ | Ø£.Ø¯. ÙŠØ³Ø±ÙŠ Ø¬Ø¨Ø±","publishedAt":"2023-02-08T18:00:11Z","duration":"PT45M56S","thumbnail":"https://i.ytimg.com/vi/GxC3BwxuV4w/mqdefault.jpg","viewCount":"5956","playlistId":"PLEkQk5xrP-tmiUfQ-2Tsn7QIak4EsvaZW","playlistName":"ÙƒØªØ§Ø¨ Ø§Ù„ØªÙŠØ³ÙŠØ± Ø§Ù„Ù…Ø¹ÙŠÙ† Ø¨Ø´Ø±Ø­ Ù…Ø¹Ø§Ù†ÙŠ Ù…Ù†Ø§Ø²Ù„ Ø§Ù„Ø³Ø§Ø¦Ø±ÙŠÙ† (ØªØµÙˆÙ) - Ø¯.ÙŠØ³Ø±ÙŠ Ø¬Ø¨Ø±","category":"ØªØµÙˆÙ"},{"id":"n5hfC83ihPE","title":"396- ÙØ¶Ù„ Ø§Ù„Ø¹ÙÙ„Ù… - Ø´Ø±Ø­ Ø¯Ù„ÙŠÙ„ Ø§Ù„ÙØ§Ù„Ø­ÙŠÙ†","publishedAt":"2023-02-09T05:00:31Z","duration":"PT32M7S","thumbnail":"https://i.ytimg.com/vi/n5hfC83ihPE/mqdefault.jpg","viewCount":"794","playlistId":"PLEkQk5xrP-tkc9DXvSLguqX5-FYp6ASR4","playlistName":"Ø¯Ù„ÙŠÙ„ Ø§Ù„ÙØ§Ù„Ø­ÙŠÙ† Ù„Ø·Ø±Ù‚ Ø±ÙŠØ§Ø¶ Ø§Ù„ØµØ§Ù„Ø­ÙŠÙ†","category":"Ù…ØªÙ†ÙˆØ¹"},{"id":"src2EZoJt88","title":"!Ù…Ø´Ø§ÙƒÙ„ Ø§Ù„Ø¹Ù„Ø§Ù‚Ø§Øª Ø§Ù„Ø²ÙˆØ¬ÙŠØ©,,  Ù„Ù„ÙƒØ¨Ø§Ø± ÙÙ‚Ø·","publishedAt":"2023-02-09T18:00:32Z","duration":"PT11M51S","thumbnail":"https://i.ytimg.com/vi/src2EZoJt88/mqdefault.jpg","viewCount":"47922","playlistId":"PLEkQk5xrP-tkGXuZ9atE3k_7it12rUPTs","playlistName":"Ø£Ø³Ø¦Ù„Ø© Ø§Ù„Ù…ØªØ§Ø¨Ø¹ÙŠÙ†","category":"Ù…ØªÙ†ÙˆØ¹"},{"id":"g79y1FJ2yJU","title":"21- Ø§Ù„Ù†ÙÙ‘ÙˆÙ’Ø¹Ù Ø§Ù„ØªØ§Ø³Ø¹: Ù…Ø¹Ø±ÙØ© Ø³Ø¨Ø¨ Ø§Ù„Ù†Ø²ÙˆÙ„ (2) - Ø´Ø±Ø­ Ø§Ù„Ø¥ØªÙ‚Ø§Ù† ÙÙŠ Ø¹Ù„ÙˆÙ… Ø§Ù„Ù‚Ø±Ø¢Ù†","publishedAt":"2023-02-10T05:00:30Z","duration":"PT20M28S","thumbnail":"https://i.ytimg.com/vi/g79y1FJ2yJU/mqdefault.jpg","viewCount":"1163","playlistId":"PLEkQk5xrP-tlPw10KGJKagu7zm4Ry2Tge","playlistName":"Ø´Ø±Ø­ Ø§Ù„Ø¥ØªÙ‚Ø§Ù† ÙÙŠ Ø¹Ù„ÙˆÙ… Ø§Ù„Ù‚Ø±Ø¢Ù†","category":"ØªÙØ³ÙŠØ±"},{"id":"_4xaxI7hqb8","title":"Ø§Ù„Ø¬Ù…Ø§Ù„ ÙˆØ§Ù„Ø¬Ù„Ø§Ù„ ÙÙŠ Ø­ÙŠØ§Ø© Ø§Ù„Ù†Ø¨ÙŠ ï·º","publishedAt":"2023-02-10T18:00:16Z","duration":"PT8M2S","thumbnail":"https://i.ytimg.com/vi/_4xaxI7hqb8/mqdefault.jpg","viewCount":"2664","playlistId":"PLEkQk5xrP-tlArtGpeLWaqNM7h7IDeAVC","playlistName":"Ø®Ø·Ø¨ Ø§Ù„Ø¬Ù…Ø¹Ø© Ø£.Ø¯. ÙŠØ³Ø±ÙŠ Ø¬Ø¨Ø±","category":"Ø®Ø·Ø¨"},{"id":"gpZ8ROtB2Bs","title":"397- Ù…ÙÙ† Ø¯ÙØ¹Ø§ Ø¥Ù„Ù‰ Ù‡ÙØ¯Ù‹Ù‰ØŒ ÙƒØ§Ù†Ù Ù„Ù‡ Ù…ÙÙ†Ù Ø§Ù„Ø£Ø¬Ù’Ø±Ù Ù…ÙØ«Ù’Ù„Ù Ø£ÙØ¬ÙÙˆØ±Ù Ù…ÙÙ† ØªÙØ¨ÙØ¹ÙÙ‡Ùâ€¦ - Ø´Ø±Ø­ Ø¯Ù„ÙŠÙ„ Ø§Ù„ÙØ§Ù„Ø­ÙŠÙ†","publishedAt":"2023-02-11T05:00:30Z","duration":"PT33M46S","thumbnail":"https://i.ytimg.com/vi/gpZ8ROtB2Bs/mqdefault.jpg","viewCount":"1005","playlistId":"PLEkQk5xrP-tkc9DXvSLguqX5-FYp6ASR4","playlistName":"Ø¯Ù„ÙŠÙ„ Ø§Ù„ÙØ§Ù„Ø­ÙŠÙ† Ù„Ø·Ø±Ù‚ Ø±ÙŠØ§Ø¶ Ø§Ù„ØµØ§Ù„Ø­ÙŠÙ†","category":"Ù…ØªÙ†ÙˆØ¹"},{"id":"nB6o_sEg9x8","title":"ÙƒÙŠÙÙŠØ© Ø¹Ù„Ø§Ø¬ Ø§Ù„Ø£Ù…Ø±Ø§Ø¶ Ø§Ù„Ù†ÙØ³ÙŠØ©ØŸ","publishedAt":"2023-02-11T18:00:19Z","duration":"PT11M37S","thumbnail":"https://i.ytimg.com/vi/nB6o_sEg9x8/mqdefault.jpg","viewCount":"53366","playlistId":"PLEkQk5xrP-tm8ZIu74nTOZN9KJUJu416J","playlistName":"Ù…Ù‚Ø§Ø·Ø¹ Ù…ÙÙ‡Ù…ÙÙ‘Ø© (ÙŠÙØ³Ø±ÙŠÙ‘ÙØ§Øª) Ø£.Ø¯. ÙŠØ³Ø±ÙŠ Ø¬Ø¨Ø±","category":"Ù…ØªÙ†ÙˆØ¹"},{"id":"usWW9h4Rn4k","title":"22- Ø§Ù„Ù†ÙÙ‘ÙˆØ¹Ù Ø§Ù„ØªØ§Ø³Ø¹: Ù…Ø¹Ø±ÙØ© Ø³Ø¨Ø¨ Ø§Ù„Ù†Ø²ÙˆÙ„ (3) Ø§Ù„Ù…Ø³Ø£Ù„Ø© Ø§Ù„Ø«Ø§Ù„Ø«Ø© - Ø§Ù„Ø¬Ø²Ø¡ Ø§Ù„Ø£ÙˆÙ„ - Ø´Ø±Ø­ Ø§Ù„Ø¥ØªÙ‚Ø§Ù† ÙÙŠ Ø¹Ù„ÙˆÙ… Ø§Ù„Ù‚Ø±Ø¢Ù†","publishedAt":"2023-02-12T05:00:26Z","duration":"PT36M12S","thumbnail":"https://i.ytimg.com/vi/usWW9h4Rn4k/mqdefault.jpg","viewCount":"1203","playlistId":"PLEkQk5xrP-tlPw10KGJKagu7zm4Ry2Tge","playlistName":"Ø´Ø±Ø­ Ø§Ù„Ø¥ØªÙ‚Ø§Ù† ÙÙŠ Ø¹Ù„ÙˆÙ… Ø§Ù„Ù‚Ø±Ø¢Ù†","category":"ØªÙØ³ÙŠØ±"},{"id":"QuzjpcvBXig","title":"Ù„Ù…Ø§Ø°Ø§ Ø®Ù„Ù‚Ù†Ø§ Ø§Ù„Ù„Ù‡ØŸ","publishedAt":"2023-02-12T18:00:10Z","duration":"PT11M29S","thumbnail":"https://i.ytimg.com/vi/QuzjpcvBXig/mqdefault.jpg","viewCount":"5833","playlistId":"PLEkQk5xrP-tlArtGpeLWaqNM7h7IDeAVC","playlistName":"Ø®Ø·Ø¨ Ø§Ù„Ø¬Ù…Ø¹Ø© Ø£.Ø¯. ÙŠØ³Ø±ÙŠ Ø¬Ø¨Ø±","category":"Ø®Ø·Ø¨"},{"id":"PLlsvJDnDwg","title":"398- Ù†ÙØ¶Ù‘ÙØ±Ù Ø§Ù„Ù„Ù‡Ù Ø§Ù…Ø±Ø£Ù‹ Ø³Ù…ÙØ¹Ù Ù…Ù†Ù‘ÙØ§ Ø´ÙŠØ¦Ù‹Ø§ ÙØ¨Ù„Ù‘ÙØºÙÙ‡Ù ÙƒÙ…Ø§ Ø³Ù…ÙØ¹ÙÙ‡ÙØŒ ÙØ±ÙØ¨Ù‘Ù Ù…ÙØ¨ÙÙ„Ù‘ÙØºÙ Ø£ÙˆÙ’Ø¹ÙÙ‰ Ù…Ù† Ø³Ø§Ù…ÙØ¹Ù","publishedAt":"2023-02-13T05:00:10Z","duration":"PT26M9S","thumbnail":"https://i.ytimg.com/vi/PLlsvJDnDwg/mqdefault.jpg","viewCount":"958","playlistId":"PLEkQk5xrP-tkc9DXvSLguqX5-FYp6ASR4","playlistName":"Ø¯Ù„ÙŠÙ„ Ø§Ù„ÙØ§Ù„Ø­ÙŠÙ† Ù„Ø·Ø±Ù‚ Ø±ÙŠØ§Ø¶ Ø§Ù„ØµØ§Ù„Ø­ÙŠÙ†","category":"Ù…ØªÙ†ÙˆØ¹"},{"id":"NfIcf4ovFMM","title":"Ø£Ø®Ù„Ø§Ù‚ Ø§Ù„Ù†Ø¨ÙŠ ï·º Ù…Ø¹ Ø£Ø¹Ø¯Ø§Ø¦Ù‡","publishedAt":"2023-02-13T18:00:13Z","duration":"PT8M17S","thumbnail":"https://i.ytimg.com/vi/NfIcf4ovFMM/mqdefault.jpg","viewCount":"2091","playlistId":"PLEkQk5xrP-tlArtGpeLWaqNM7h7IDeAVC","playlistName":"Ø®Ø·Ø¨ Ø§Ù„Ø¬Ù…Ø¹Ø© Ø£.Ø¯. ÙŠØ³Ø±ÙŠ Ø¬Ø¨Ø±","category":"Ø®Ø·Ø¨"},{"id":"5vp9Pd7AaiY","title":"23- Ø§Ù„Ù†ÙÙ‘ÙˆØ¹Ù Ø§Ù„ØªØ§Ø³Ø¹: Ù…Ø¹Ø±ÙØ© Ø³Ø¨Ø¨ Ø§Ù„Ù†Ø²ÙˆÙ„(4) Ø§Ù„Ù…Ø³Ø£Ù„Ø© Ø§Ù„Ø®Ø§Ù…Ø³Ø© - Ø§Ù„Ø¬Ø²Ø¡ Ø§Ù„Ø£ÙˆÙ„ - Ø´Ø±Ø­ Ø§Ù„Ø¥ØªÙ‚Ø§Ù† ÙÙŠ Ø¹Ù„ÙˆÙ… Ø§Ù„Ù‚Ø±Ø¢Ù†","publishedAt":"2023-02-14T05:00:02Z","duration":"PT28M18S","thumbnail":"https://i.ytimg.com/vi/5vp9Pd7AaiY/mqdefault.jpg","viewCount":"1148","playlistId":"PLEkQk5xrP-tlPw10KGJKagu7zm4Ry2Tge","playlistName":"Ø´Ø±Ø­ Ø§Ù„Ø¥ØªÙ‚Ø§Ù† ÙÙŠ Ø¹Ù„ÙˆÙ… Ø§Ù„Ù‚Ø±Ø¢Ù†","category":"ØªÙØ³ÙŠØ±"},{"id":"e7a73L9Ek_I","title":"Ù‡Ù„ Ø§Ù„ØºØ§ÙŠØ© ØªØ¨Ø±Ø± Ø§Ù„ÙˆØ³ÙŠÙ„Ø©ØŸ","publishedAt":"2023-02-14T18:00:17Z","duration":"PT11M39S","thumbnail":"https://i.ytimg.com/vi/e7a73L9Ek_I/mqdefault.jpg","viewCount":"2850","playlistId":"PLEkQk5xrP-tlArtGpeLWaqNM7h7IDeAVC","playlistName":"Ø®Ø·Ø¨ Ø§Ù„Ø¬Ù…Ø¹Ø© Ø£.Ø¯. ÙŠØ³Ø±ÙŠ Ø¬Ø¨Ø±","category":"Ø®Ø·Ø¨"},{"id":"UJ2akb-5UU4","title":"399- Ø§Ù„ÙØ±Ù‚ Ø¨ÙŠÙ† Ø§Ù„Ø­Ù…Ø¯ ÙˆØ§Ù„Ø´ÙƒØ± - Ø´Ø±Ø­ Ø¯Ù„ÙŠÙ„ Ø§Ù„ÙØ§Ù„Ø­ÙŠÙ†","publishedAt":"2023-02-15T05:00:17Z","duration":"PT39M2S","thumbnail":"https://i.ytimg.com/vi/UJ2akb-5UU4/mqdefault.jpg","viewCount":"1668","playlistId":"PLEkQk5xrP-tkc9DXvSLguqX5-FYp6ASR4","playlistName":"Ø¯Ù„ÙŠÙ„ Ø§Ù„ÙØ§Ù„Ø­ÙŠÙ† Ù„Ø·Ø±Ù‚ Ø±ÙŠØ§Ø¶ Ø§Ù„ØµØ§Ù„Ø­ÙŠÙ†","category":"Ù…ØªÙ†ÙˆØ¹"},{"id":"3mvDWiHMrz0","title":"Ø´Ø±Ø­ Ù…Ù†Ø§Ø²Ù„ Ø§Ù„Ø³Ø§Ø¦Ø±ÙŠÙ† - Ø§Ù„Ù…Ø¬Ù„Ø³ (26) Ø¨Ø§Ø¨ Ø§Ù„Ø±ØºØ¨Ø© | Ø£.Ø¯. ÙŠØ³Ø±ÙŠ Ø¬Ø¨Ø±","publishedAt":"2023-02-15T18:00:01Z","duration":"PT47M34S","thumbnail":"https://i.ytimg.com/vi/3mvDWiHMrz0/mqdefault.jpg","viewCount":"5005","playlistId":"PLEkQk5xrP-tmiUfQ-2Tsn7QIak4EsvaZW","playlistName":"ÙƒØªØ§Ø¨ Ø§Ù„ØªÙŠØ³ÙŠØ± Ø§Ù„Ù…Ø¹ÙŠÙ† Ø¨Ø´Ø±Ø­ Ù…Ø¹Ø§Ù†ÙŠ Ù…Ù†Ø§Ø²Ù„ Ø§Ù„Ø³Ø§Ø¦Ø±ÙŠÙ† (ØªØµÙˆÙ) - Ø¯.ÙŠØ³Ø±ÙŠ Ø¬Ø¨Ø±","category":"ØªØµÙˆÙ"},{"id":"xoXfqq_jOCY","title":"24- Ø§Ù„Ù†ÙÙ‘ÙˆÙ’Ø¹Ù Ø§Ù„ØªØ§Ø³Ø¹: Ù…Ø¹Ø±ÙØ© Ø³Ø¨Ø¨ Ø§Ù„Ù†Ø²ÙˆÙ„(5) Ø§Ù„Ù…Ø³Ø£Ù„Ø© Ø§Ù„Ø®Ø§Ù…Ø³Ø©: Ø§Ù„Ø­Ø§Ù„Ø© Ø§Ù„Ø³Ø§Ø¯Ø³Ø© - Ø§Ù„Ø¬Ø²Ø¡ Ø§Ù„Ø£ÙˆÙ„","publishedAt":"2023-02-16T05:00:34Z","duration":"PT32M13S","thumbnail":"https://i.ytimg.com/vi/xoXfqq_jOCY/mqdefault.jpg","viewCount":"1068","playlistId":"PLEkQk5xrP-tlPw10KGJKagu7zm4Ry2Tge","playlistName":"Ø´Ø±Ø­ Ø§Ù„Ø¥ØªÙ‚Ø§Ù† ÙÙŠ Ø¹Ù„ÙˆÙ… Ø§Ù„Ù‚Ø±Ø¢Ù†","category":"ØªÙØ³ÙŠØ±"},{"id":"HR3g55dyCZ0","title":"Ù‡Ù„ ÙŠØ¬ÙˆØ² Ø§Ù„Ø£ÙƒÙ„ Ø¹Ù†Ø¯ Ø´Ø®Øµ Ù…Ø¹ Ø¹Ù„Ù…ÙŠ Ø¨Ø£Ù† Ù…Ø§Ù„Ù‡ Ø­Ø±Ø§Ù…ØŸ","publishedAt":"2023-02-16T18:00:07Z","duration":"PT8M34S","thumbnail":"https://i.ytimg.com/vi/HR3g55dyCZ0/mqdefault.jpg","viewCount":"6267","playlistId":"PLEkQk5xrP-tkGXuZ9atE3k_7it12rUPTs","playlistName":"Ø£Ø³Ø¦Ù„Ø© Ø§Ù„Ù…ØªØ§Ø¨Ø¹ÙŠÙ†","category":"Ù…ØªÙ†ÙˆØ¹"},{"id":"ExS-dVFLC00","title":"400- Ù…Ø§ Ù‡ÙŠ Ø£ÙØ¶Ù„ Ø¹Ø¨Ø§Ø¯Ø© ØªØ·ÙˆØ¹ Ø¨Ø¹Ø¯ Ø§Ù„ÙØ±ÙŠØ¶Ø©ØŸ","publishedAt":"2023-02-17T09:00:11Z","duration":"PT45M17S","thumbnail":"https://i.ytimg.com/vi/ExS-dVFLC00/mqdefault.jpg","viewCount":"996","playlistId":"PLEkQk5xrP-tkc9DXvSLguqX5-FYp6ASR4","playlistName":"Ø¯Ù„ÙŠÙ„ Ø§Ù„ÙØ§Ù„Ø­ÙŠÙ† Ù„Ø·Ø±Ù‚ Ø±ÙŠØ§Ø¶ Ø§Ù„ØµØ§Ù„Ø­ÙŠÙ†","category":"Ù…ØªÙ†ÙˆØ¹"},{"id":"bWGXmvXSsS8","title":"Ù…Ø§Ø°Ø§ Ø­Ø¯Ø« Ù„ÙŠÙ„Ø© Ø§Ù„Ø¥Ø³Ø±Ø§Ø¡ ÙˆØ§Ù„Ù…Ø¹Ø±Ø§Ø¬ØŸ","publishedAt":"2023-02-17T10:04:14Z","duration":"PT49M5S","thumbnail":"https://i.ytimg.com/vi/bWGXmvXSsS8/mqdefault.jpg","viewCount":"8155","playlistId":"PLEkQk5xrP-tlArtGpeLWaqNM7h7IDeAVC","playlistName":"Ø®Ø·Ø¨ Ø§Ù„Ø¬Ù…Ø¹Ø© Ø£.Ø¯. ÙŠØ³Ø±ÙŠ Ø¬Ø¨Ø±","category":"Ø®Ø·Ø¨"},{"id":"8oDXY-mCy6g","title":"Ø£Ø³Ø±Ø§Ø± ÙˆÙ…Ø¹Ø§Ù†ÙŠ Ø­ÙˆÙ„ Ø§Ù„Ø¥Ø³Ø±Ø§Ø¡ ÙˆØ§Ù„Ù…Ø¹Ø±Ø§Ø¬ | Ù…Ù† Ù„ÙŠØ§Ù„ÙŠ Ø§Ù„Ù…Ø¯ÙŠÙ†Ø© Ø§Ù„Ù…Ù†ÙˆØ±Ø© ğŸ“","publishedAt":"2023-02-17T18:00:05Z","duration":"PT39M36S","thumbnail":"https://i.ytimg.com/vi/8oDXY-mCy6g/mqdefault.jpg","viewCount":"15704","playlistId":"PLEkQk5xrP-tm8ZIu74nTOZN9KJUJu416J","playlistName":"Ù…Ù‚Ø§Ø·Ø¹ Ù…ÙÙ‡Ù…ÙÙ‘Ø© (ÙŠÙØ³Ø±ÙŠÙ‘ÙØ§Øª) Ø£.Ø¯. ÙŠØ³Ø±ÙŠ Ø¬Ø¨Ø±","category":"Ù…ØªÙ†ÙˆØ¹"}],"total":7670,"page":257,"pageSize":24,"totalPages":320}