{"items":[{"id":"U03-YMmtg-Y","title":"191- قاعدةٌ في السؤال والجواب - شرح الإتقان في علوم القرآن","publishedAt":"2024-01-01T07:00:17Z","duration":"PT25M59S","thumbnail":"https://i.ytimg.com/vi/U03-YMmtg-Y/mqdefault.jpg","viewCount":"791","playlistId":"PLEkQk5xrP-tlPw10KGJKagu7zm4Ry2Tge","playlistName":"شرح الإتقان في علوم القرآن","category":"تفسير"},{"id":"oO_kNSFP8Os","title":"ذكرى ميلاد سيدنا عيسى عليه السلام","publishedAt":"2024-01-01T18:00:19Z","duration":"PT14M15S","thumbnail":"https://i.ytimg.com/vi/oO_kNSFP8Os/mqdefault.jpg","viewCount":"4601","playlistId":"PLEkQk5xrP-tm8ZIu74nTOZN9KJUJu416J","playlistName":"مقاطع مُهمَّة (يُسريَّات) أ.د. يسري جبر","category":"متنوع"},{"id":"tiUOQj2s75I","title":"60- مَشروعيَّةُ الإهلالِ بالعُمرةِ والحَجِّ معًا - شرح مسند الإمام أحمد رضي الله عنه","publishedAt":"2024-01-02T07:00:31Z","duration":"PT21M33S","thumbnail":"https://i.ytimg.com/vi/tiUOQj2s75I/mqdefault.jpg","viewCount":"754","playlistId":"PLEkQk5xrP-tkKprIuGrSdEuBSMsyg5We1","playlistName":"شرح مسند الإمام أحمد بن حنبل","category":"متنوع"},{"id":"JFjgDQY7xUg","title":"قصة حصولي على الدكتوراه | وكيف أتخلص من هم الخلق والرزق؟","publishedAt":"2024-01-02T19:08:12Z","duration":"PT12M45S","thumbnail":"https://i.ytimg.com/vi/JFjgDQY7xUg/mqdefault.jpg","viewCount":"47483","playlistId":"PLEkQk5xrP-tl6tFiMFGUucCTvLgnWyAfz","playlistName":"حياة الأستاذ الدكتور يسري جبر","category":"متنوع"},{"id":"DEBqb4kgt7Q","title":"192- قاعدةٌ في السؤال والجواب (2) - شرح الإتقان في علوم القرآن","publishedAt":"2024-01-03T07:09:01Z","duration":"PT21M52S","thumbnail":"https://i.ytimg.com/vi/DEBqb4kgt7Q/mqdefault.jpg","viewCount":"738","playlistId":"PLEkQk5xrP-tlPw10KGJKagu7zm4Ry2Tge","playlistName":"شرح الإتقان في علوم القرآن","category":"تفسير"},{"id":"T1WYQ-f7Wuc","title":"شرح منازل السائرين - المجلس (32) باب الاستقامة | أ.د. يسري جبر","publishedAt":"2024-01-03T18:36:21Z","duration":"PT46M21S","thumbnail":"https://i.ytimg.com/vi/T1WYQ-f7Wuc/mqdefault.jpg","viewCount":"6395","playlistId":"PLEkQk5xrP-tmiUfQ-2Tsn7QIak4EsvaZW","playlistName":"كتاب التيسير المعين بشرح معاني منازل السائرين (تصوف) - د.يسري جبر","category":"تصوف"},{"id":"d0R-9BRazP0","title":"61- حكم الجلوس على فُرشِ الحرير - شرح مسند الإمام أحمد رضي الله عنه","publishedAt":"2024-01-04T07:00:10Z","duration":"PT35M42S","thumbnail":"https://i.ytimg.com/vi/d0R-9BRazP0/mqdefault.jpg","viewCount":"891","playlistId":"PLEkQk5xrP-tkKprIuGrSdEuBSMsyg5We1","playlistName":"شرح مسند الإمام أحمد بن حنبل","category":"متنوع"},{"id":"GFRpyD93oYY","title":"193- قاعدةٌ في الخطاب بالاسم والخطاب بالفعل - شرح مسند الإمام أحمد رضي الله عنه","publishedAt":"2024-01-05T07:00:09Z","duration":"PT32M44S","thumbnail":"https://i.ytimg.com/vi/GFRpyD93oYY/mqdefault.jpg","viewCount":"856","playlistId":"PLEkQk5xrP-tlPw10KGJKagu7zm4Ry2Tge","playlistName":"شرح الإتقان في علوم القرآن","category":"تفسير"},{"id":"6z4jMnH-JHY","title":"3- تكملة شرح العقيدة وما جاء في النُّبوَّات - شرح مختصر الفُتُوحَات المَكْيَّة","publishedAt":"2024-01-05T21:22:09Z","duration":"PT1H10M28S","thumbnail":"https://i.ytimg.com/vi/6z4jMnH-JHY/mqdefault.jpg","viewCount":"25396","playlistId":"PLEkQk5xrP-tnpkdZki6rPTtMak1bnI5g-","playlistName":"شرح كتاب مختصر الفتوحات المكية المسمى لواقح الأنوار القدسية","category":"متنوع"},{"id":"1BT7MwWyWwY","title":"62- حكم التلقين في الحَدّ | إدّخار لحم الأضحية - شرح مسند الإمام أحمد رضي الله عنه","publishedAt":"2024-01-06T07:00:02Z","duration":"PT35M52S","thumbnail":"https://i.ytimg.com/vi/1BT7MwWyWwY/mqdefault.jpg","viewCount":"985","playlistId":"PLEkQk5xrP-tkKprIuGrSdEuBSMsyg5We1","playlistName":"شرح مسند الإمام أحمد بن حنبل","category":"متنوع"},{"id":"Vx_nQLwGoMw","title":"28- غسل الوجه وبيان اسم كل جزء فيه - شرح سنن الإمام الدار قطني رضي الله عنه","publishedAt":"2024-01-06T10:07:40Z","duration":"PT34M59S","thumbnail":"https://i.ytimg.com/vi/Vx_nQLwGoMw/mqdefault.jpg","viewCount":"942","playlistId":"PLEkQk5xrP-tk_MCBZ706ORCw6gFtFyaGj","playlistName":"شرح سنن الإمام الدارقطني","category":"متنوع"},{"id":"A-9ehOH0Byc","title":"194- قاعدةٌ في العطف - شرح الإتقان في علوم القرآن","publishedAt":"2024-01-07T06:15:00Z","duration":"PT43M28S","thumbnail":"https://i.ytimg.com/vi/A-9ehOH0Byc/mqdefault.jpg","viewCount":"806","playlistId":"PLEkQk5xrP-tlPw10KGJKagu7zm4Ry2Tge","playlistName":"شرح الإتقان في علوم القرآن","category":"تفسير"},{"id":"bdq5dT2lfGI","title":"هل يجوز المسح على الشراب في الوضوء؟","publishedAt":"2024-01-07T18:44:26Z","duration":"PT10M5S","thumbnail":"https://i.ytimg.com/vi/bdq5dT2lfGI/mqdefault.jpg","viewCount":"47608","playlistId":"PLEkQk5xrP-tkGXuZ9atE3k_7it12rUPTs","playlistName":"أسئلة المتابعين","category":"متنوع"},{"id":"jFd6eNFZ1oQ","title":"63- حكم تعدد الركوعات في صلاة الكسوف | الوتر - شرح مسند الإمام أحمد رضي الله عنه","publishedAt":"2024-01-08T06:15:01Z","duration":"PT29M33S","thumbnail":"https://i.ytimg.com/vi/jFd6eNFZ1oQ/mqdefault.jpg","viewCount":"901","playlistId":"PLEkQk5xrP-tkKprIuGrSdEuBSMsyg5We1","playlistName":"شرح مسند الإمام أحمد بن حنبل","category":"متنوع"},{"id":"04oSNE6RipI","title":"195- المحكم والمتشابه - شرح الإتقان في علوم القرآن","publishedAt":"2024-01-09T06:15:00Z","duration":"PT52M17S","thumbnail":"https://i.ytimg.com/vi/04oSNE6RipI/mqdefault.jpg","viewCount":"1344","playlistId":"PLEkQk5xrP-tlPw10KGJKagu7zm4Ry2Tge","playlistName":"شرح الإتقان في علوم القرآن","category":"تفسير"},{"id":"rlD0q5EqagU","title":"كيف أصبر على البلاء ,, وما الفرق بين البلاء والابتلاء؟","publishedAt":"2024-01-09T18:04:57Z","duration":"PT9M25S","thumbnail":"https://i.ytimg.com/vi/rlD0q5EqagU/mqdefault.jpg","viewCount":"6283","playlistId":"PLEkQk5xrP-tkGXuZ9atE3k_7it12rUPTs","playlistName":"أسئلة المتابعين","category":"متنوع"},{"id":"uetDAM_VvAM","title":"64- نصائح غالية في آداب الصلاة والآداب العامة","publishedAt":"2024-01-11T06:15:01Z","duration":"PT14M53S","thumbnail":"https://i.ytimg.com/vi/uetDAM_VvAM/mqdefault.jpg","viewCount":"1937","playlistId":"PLEkQk5xrP-tkKprIuGrSdEuBSMsyg5We1","playlistName":"شرح مسند الإمام أحمد بن حنبل","category":"متنوع"},{"id":"l-3UslFyIf0","title":"أعمل ايه علشان أكون بارة بزوجي وأولادي؟","publishedAt":"2024-01-11T19:18:18Z","duration":"PT8M9S","thumbnail":"https://i.ytimg.com/vi/l-3UslFyIf0/mqdefault.jpg","viewCount":"4236","playlistId":"PLEkQk5xrP-tkGXuZ9atE3k_7it12rUPTs","playlistName":"أسئلة المتابعين","category":"متنوع"},{"id":"4TweW2pkneo","title":"29- حكم مَن أصابه قيء أو رُعاف أو قلَس أثناء الصلاة","publishedAt":"2024-01-13T09:15:00Z","duration":"PT32M9S","thumbnail":"https://i.ytimg.com/vi/4TweW2pkneo/mqdefault.jpg","viewCount":"811","playlistId":"PLEkQk5xrP-tk_MCBZ706ORCw6gFtFyaGj","playlistName":"شرح سنن الإمام الدارقطني","category":"متنوع"},{"id":"y2H3Vl88ROw","title":"65- سبب حضور الملائكة بكثرة يوم بدر - شرح مسند الإمام أحمد رضي الله عنه","publishedAt":"2024-01-14T06:44:43Z","duration":"PT25M24S","thumbnail":"https://i.ytimg.com/vi/y2H3Vl88ROw/mqdefault.jpg","viewCount":"1446","playlistId":"PLEkQk5xrP-tkKprIuGrSdEuBSMsyg5We1","playlistName":"شرح مسند الإمام أحمد بن حنبل","category":"متنوع"},{"id":"EKr1fgpPClw","title":"ما هي أفضل الأعمال فى شهر رجب؟","publishedAt":"2024-01-14T18:16:08Z","duration":"PT17M42S","thumbnail":"https://i.ytimg.com/vi/EKr1fgpPClw/mqdefault.jpg","viewCount":"37661","playlistId":"PLEkQk5xrP-tlArtGpeLWaqNM7h7IDeAVC","playlistName":"خطب الجمعة أ.د. يسري جبر","category":"خطب"},{"id":"0JRg6SQrOaU","title":"197- فصلٌ: من الْمُتَشَابه آيَاتُ الصِّفات  - شرح الإتقان في علوم القرآن","publishedAt":"2024-01-15T06:46:40Z","duration":"PT41M55S","thumbnail":"https://i.ytimg.com/vi/0JRg6SQrOaU/mqdefault.jpg","viewCount":"1030","playlistId":"PLEkQk5xrP-tlPw10KGJKagu7zm4Ry2Tge","playlistName":"شرح الإتقان في علوم القرآن","category":"تفسير"},{"id":"Wx5kIUig-Ig","title":"فضائل العبادة في شهر رجب","publishedAt":"2024-01-15T18:36:12Z","duration":"PT16M6S","thumbnail":"https://i.ytimg.com/vi/Wx5kIUig-Ig/mqdefault.jpg","viewCount":"7152","playlistId":"PLEkQk5xrP-tlArtGpeLWaqNM7h7IDeAVC","playlistName":"خطب الجمعة أ.د. يسري جبر","category":"خطب"},{"id":"JuSqQzQL7cY","title":"4- أحوال العارفين بالله - شرح مختصر الفُتُوحَات المَكْيَّة","publishedAt":"2024-01-16T20:42:24Z","duration":"PT1H11M36S","thumbnail":"https://i.ytimg.com/vi/JuSqQzQL7cY/mqdefault.jpg","viewCount":"31859","playlistId":"PLEkQk5xrP-tnpkdZki6rPTtMak1bnI5g-","playlistName":"شرح كتاب مختصر الفتوحات المكية المسمى لواقح الأنوار القدسية","category":"متنوع"}],"total":7670,"page":281,"pageSize":24,"totalPages":320}