{"items":[{"id":"30Ys_kL72Cc","title":"186- قاعدة أخرى في التعريف والتنكير - شرح الإتقان في علوم القرآن","publishedAt":"2023-12-20T07:13:00Z","duration":"PT35M11S","thumbnail":"https://i.ytimg.com/vi/30Ys_kL72Cc/mqdefault.jpg","viewCount":"662","playlistId":"PLEkQk5xrP-tlPw10KGJKagu7zm4Ry2Tge","playlistName":"شرح الإتقان في علوم القرآن","category":"تفسير"},{"id":"VUvN9Q6rlS0","title":"ما هو علم التصوف ,, ولماذا لا يتفق أهله؟","publishedAt":"2023-12-20T18:22:44Z","duration":"PT8M57S","thumbnail":"https://i.ytimg.com/vi/VUvN9Q6rlS0/mqdefault.jpg","viewCount":"8758","playlistId":"PLEkQk5xrP-tm8ZIu74nTOZN9KJUJu416J","playlistName":"مقاطع مُهمَّة (يُسريَّات) أ.د. يسري جبر","category":"متنوع"},{"id":"MV0A7hyCuwg","title":"55- ألَا أُخبِرُكم بخَيرِ هذه الأُمَّةِ بعدَ نَبيِّهَا؟ - شرح مسند الإمام أحمد","publishedAt":"2023-12-21T07:13:57Z","duration":"PT26M17S","thumbnail":"https://i.ytimg.com/vi/MV0A7hyCuwg/mqdefault.jpg","viewCount":"1115","playlistId":"PLEkQk5xrP-tkKprIuGrSdEuBSMsyg5We1","playlistName":"شرح مسند الإمام أحمد بن حنبل","category":"متنوع"},{"id":"vZxPkKkQUvU","title":"شرح منازل السائرين - المجلس (31) باب التهذيب | أ.د. يسري جبر","publishedAt":"2023-12-21T18:00:34Z","duration":"PT58M56S","thumbnail":"https://i.ytimg.com/vi/vZxPkKkQUvU/mqdefault.jpg","viewCount":"4966","playlistId":"PLEkQk5xrP-tmiUfQ-2Tsn7QIak4EsvaZW","playlistName":"كتاب التيسير المعين بشرح معاني منازل السائرين (تصوف) - د.يسري جبر","category":"تصوف"},{"id":"I3UK0WUMOYo","title":"187- قاعدة في الإفراد والجمع - شرح الإتقان في علوم القرآن","publishedAt":"2023-12-22T06:30:10Z","duration":"PT42M19S","thumbnail":"https://i.ytimg.com/vi/I3UK0WUMOYo/mqdefault.jpg","viewCount":"499","playlistId":"PLEkQk5xrP-tlPw10KGJKagu7zm4Ry2Tge","playlistName":"شرح الإتقان في علوم القرآن","category":"تفسير"},{"id":"FS656j9jHDM","title":"تفسير الآيات القرآنية الواردة في حق النَّبيّ ﷺ","publishedAt":"2023-12-22T17:29:34Z","duration":"PT32M30S","thumbnail":"https://i.ytimg.com/vi/FS656j9jHDM/mqdefault.jpg","viewCount":"6129","playlistId":"PLEkQk5xrP-tm8ZIu74nTOZN9KJUJu416J","playlistName":"مقاطع مُهمَّة (يُسريَّات) أ.د. يسري جبر","category":"متنوع"},{"id":"hK2e3Vn1p5M","title":"56- صِفةُ خَلْقِ النَّبيّ ﷺ وأنَّه كان أحسَنَ النَّاسِ خَلْقًا - شرح مسند الإمام أحمد","publishedAt":"2023-12-23T06:15:01Z","duration":"PT29M35S","thumbnail":"https://i.ytimg.com/vi/hK2e3Vn1p5M/mqdefault.jpg","viewCount":"1158","playlistId":"PLEkQk5xrP-tkKprIuGrSdEuBSMsyg5We1","playlistName":"شرح مسند الإمام أحمد بن حنبل","category":"متنوع"},{"id":"2pK89mNneqk","title":"26- هل تقبيل الزوجة ينقض الوضوء؟","publishedAt":"2023-12-23T09:30:02Z","duration":"PT33M32S","thumbnail":"https://i.ytimg.com/vi/2pK89mNneqk/mqdefault.jpg","viewCount":"1154","playlistId":"PLEkQk5xrP-tk_MCBZ706ORCw6gFtFyaGj","playlistName":"شرح سنن الإمام الدارقطني","category":"متنوع"},{"id":"vj3DnXPsRQ0","title":"ازاي حفظت القرآن وكيف يمكن تدبره بدلا من قراءته؟","publishedAt":"2023-12-23T19:07:26Z","duration":"PT12M32S","thumbnail":"https://i.ytimg.com/vi/vj3DnXPsRQ0/mqdefault.jpg","viewCount":"8658","playlistId":"PLEkQk5xrP-tkGXuZ9atE3k_7it12rUPTs","playlistName":"أسئلة المتابعين","category":"متنوع"},{"id":"oOiuyJObduo","title":"188- قاعدةٌ: الفرق بين (بررة - أبرار ، إخوة - إخوان) - شرح الإتقان في علوم القرآن","publishedAt":"2023-12-24T07:07:38Z","duration":"PT28M34S","thumbnail":"https://i.ytimg.com/vi/oOiuyJObduo/mqdefault.jpg","viewCount":"612","playlistId":"PLEkQk5xrP-tlPw10KGJKagu7zm4Ry2Tge","playlistName":"شرح الإتقان في علوم القرآن","category":"تفسير"},{"id":"aQkJbpvjju4","title":"ازاي اتعامل مع الناس المؤذية في حياتي؟","publishedAt":"2023-12-24T18:00:02Z","duration":"PT10M15S","thumbnail":"https://i.ytimg.com/vi/aQkJbpvjju4/mqdefault.jpg","viewCount":"15210","playlistId":"PLEkQk5xrP-tkGXuZ9atE3k_7it12rUPTs","playlistName":"أسئلة المتابعين","category":"متنوع"},{"id":"REhzhW6Ac4E","title":"57- خُطورة الكذبِ في الرُّؤيا وعُقوبته - شرح مسند الإمام أحمد","publishedAt":"2023-12-25T07:00:08Z","duration":"PT36M32S","thumbnail":"https://i.ytimg.com/vi/REhzhW6Ac4E/mqdefault.jpg","viewCount":"1301","playlistId":"PLEkQk5xrP-tkKprIuGrSdEuBSMsyg5We1","playlistName":"شرح مسند الإمام أحمد بن حنبل","category":"متنوع"},{"id":"QyHUvUqET74","title":"1- بداية الفتح الربَّاني - شرح مختصر الفُتُوحَات المَكْيَّة","publishedAt":"2023-12-25T11:00:19Z","duration":"PT1H2M11S","thumbnail":"https://i.ytimg.com/vi/QyHUvUqET74/mqdefault.jpg","viewCount":"90370","playlistId":"PLEkQk5xrP-tnpkdZki6rPTtMak1bnI5g-","playlistName":"شرح كتاب مختصر الفتوحات المكية المسمى لواقح الأنوار القدسية","category":"متنوع"},{"id":"jNoB0ZX3LdI","title":"هل ربنا هيحاسبنا على حديث وخاطر النفس الأمارة بالسوء؟","publishedAt":"2023-12-25T19:09:14Z","duration":"PT8M38S","thumbnail":"https://i.ytimg.com/vi/jNoB0ZX3LdI/mqdefault.jpg","viewCount":"9536","playlistId":"PLEkQk5xrP-tkGXuZ9atE3k_7it12rUPTs","playlistName":"أسئلة المتابعين","category":"متنوع"},{"id":"LemzuVdlzMs","title":"189- قاعدةٌ: مقابلة الجمع بالجمع - شرح الإتقان في علوم القرآن","publishedAt":"2023-12-26T07:00:12Z","duration":"PT40M17S","thumbnail":"https://i.ytimg.com/vi/LemzuVdlzMs/mqdefault.jpg","viewCount":"659","playlistId":"PLEkQk5xrP-tlPw10KGJKagu7zm4Ry2Tge","playlistName":"شرح الإتقان في علوم القرآن","category":"تفسير"},{"id":"1f_SLVVefyQ","title":"هل يجوز تحديد نسل الجنين وتجميد البويضات؟","publishedAt":"2023-12-26T18:00:00Z","duration":"PT8M59S","thumbnail":"https://i.ytimg.com/vi/1f_SLVVefyQ/mqdefault.jpg","viewCount":"5566","playlistId":"PLEkQk5xrP-tkGXuZ9atE3k_7it12rUPTs","playlistName":"أسئلة المتابعين","category":"متنوع"},{"id":"rs5oOG-BhF8","title":"58- قد عفوتُ لكم عن صدقة الخيل والرقيق - شرح مسند الإمام أحمد","publishedAt":"2023-12-27T07:02:48Z","duration":"PT28M42S","thumbnail":"https://i.ytimg.com/vi/rs5oOG-BhF8/mqdefault.jpg","viewCount":"1043","playlistId":"PLEkQk5xrP-tkKprIuGrSdEuBSMsyg5We1","playlistName":"شرح مسند الإمام أحمد بن حنبل","category":"متنوع"},{"id":"_EtxvP6hQt4","title":"190- الفرق بين (مَدَّ - أمَدَّ) - شرح الإتقان في علوم القرآن","publishedAt":"2023-12-28T07:00:45Z","duration":"PT25M45S","thumbnail":"https://i.ytimg.com/vi/_EtxvP6hQt4/mqdefault.jpg","viewCount":"871","playlistId":"PLEkQk5xrP-tlPw10KGJKagu7zm4Ry2Tge","playlistName":"شرح الإتقان في علوم القرآن","category":"تفسير"},{"id":"b_nFeUevxzY","title":"أنا أعبد ربنا بس مش بحس بأي مشاعر ,, أعمل ايه؟","publishedAt":"2023-12-28T19:30:10Z","duration":"PT9M53S","thumbnail":"https://i.ytimg.com/vi/b_nFeUevxzY/mqdefault.jpg","viewCount":"9281","playlistId":"PLEkQk5xrP-tkGXuZ9atE3k_7it12rUPTs","playlistName":"أسئلة المتابعين","category":"متنوع"},{"id":"9kTZCxxW7vA","title":"أريد السفر للعمل في دولة أوروبية وخايف فما رأيك؟","publishedAt":"2023-12-29T18:15:05Z","duration":"PT8M44S","thumbnail":"https://i.ytimg.com/vi/9kTZCxxW7vA/mqdefault.jpg","viewCount":"8432","playlistId":"PLEkQk5xrP-tkGXuZ9atE3k_7it12rUPTs","playlistName":"أسئلة المتابعين","category":"متنوع"},{"id":"ZJwOb9wze_U","title":"27- حكم وضوء مَن مَسَّ عورته - شرح سنن الإمام الدار قطني","publishedAt":"2023-12-30T09:15:01Z","duration":"PT37M55S","thumbnail":"https://i.ytimg.com/vi/ZJwOb9wze_U/mqdefault.jpg","viewCount":"1461","playlistId":"PLEkQk5xrP-tk_MCBZ706ORCw6gFtFyaGj","playlistName":"شرح سنن الإمام الدارقطني","category":"متنوع"},{"id":"P7GEy823OZ0","title":"حصاد 2023","publishedAt":"2023-12-30T18:38:41Z","duration":"PT31M13S","thumbnail":"https://i.ytimg.com/vi/P7GEy823OZ0/mqdefault.jpg","viewCount":"10323","playlistId":"PLEkQk5xrP-tm8ZIu74nTOZN9KJUJu416J","playlistName":"مقاطع مُهمَّة (يُسريَّات) أ.د. يسري جبر","category":"متنوع"},{"id":"2fQs7RdRehs","title":"59- حكم الوشم وما يشبهه - شرح مسند الإمام أحمد","publishedAt":"2023-12-31T07:00:45Z","duration":"PT38M4S","thumbnail":"https://i.ytimg.com/vi/2fQs7RdRehs/mqdefault.jpg","viewCount":"1334","playlistId":"PLEkQk5xrP-tkKprIuGrSdEuBSMsyg5We1","playlistName":"شرح مسند الإمام أحمد بن حنبل","category":"متنوع"},{"id":"ScfbIPwFdeU","title":"2- شرح مبسط للعقيدة (خُطبة كتاب الفُتُوحَات المَكْيَّة) - شرح مختصر الفُتُوحَات المَكْيَّة","publishedAt":"2023-12-31T10:30:08Z","duration":"PT1H11M42S","thumbnail":"https://i.ytimg.com/vi/ScfbIPwFdeU/mqdefault.jpg","viewCount":"33111","playlistId":"PLEkQk5xrP-tnpkdZki6rPTtMak1bnI5g-","playlistName":"شرح كتاب مختصر الفتوحات المكية المسمى لواقح الأنوار القدسية","category":"متنوع"}],"total":7675,"page":280,"pageSize":24,"totalPages":320}