{"items":[{"id":"WyuZd9MXrXg","title":"شرح كتاب نوراليقين في سيرة سيد المرسلين - المجلس الثالث عشر(العرض على القبائل) د.يسري جبر","publishedAt":"2017-06-06T17:43:45Z","duration":"PT41M26S","thumbnail":"https://i.ytimg.com/vi/WyuZd9MXrXg/mqdefault.jpg","viewCount":"25817","playlistId":"PLEkQk5xrP-tl2t4NQx1IhKnAJCMzF0Nli","playlistName":"شرح كتاب نور اليقين في سيرة سيد المرسلين   د. يسري جبر","category":"سيرة"},{"id":"OyGQldnzDDk","title":"( 124 ) حديث جواز الوصية في الثلث - المجلس الثاني - د. يسري جبر","publishedAt":"2017-06-07T13:31:37Z","duration":"PT35M35S","thumbnail":"https://i.ytimg.com/vi/OyGQldnzDDk/mqdefault.jpg","viewCount":"202","playlistId":"PLEkQk5xrP-tnl7vb7KeAoPd5ZlqKKW8KV","playlistName":"شرح كتاب بهجة النفوس أ.د . يسرى جبر","category":"متنوع"},{"id":"N6tic8V8Yfk","title":"( 125 ) حديث إنذار العشيرة - المجلس الأول - د. يسري جبر","publishedAt":"2017-06-08T12:54:53Z","duration":"PT16M","thumbnail":"https://i.ytimg.com/vi/N6tic8V8Yfk/mqdefault.jpg","viewCount":"426","playlistId":"PLEkQk5xrP-tnl7vb7KeAoPd5ZlqKKW8KV","playlistName":"شرح كتاب بهجة النفوس أ.د . يسرى جبر","category":"متنوع"},{"id":"irgaqq71ytM","title":"( 125 ) حديث إنذار العشيرة - المجلس الثاني  - د. يسري جبر","publishedAt":"2017-06-10T06:16:02Z","duration":"PT32M29S","thumbnail":"https://i.ytimg.com/vi/irgaqq71ytM/mqdefault.jpg","viewCount":"358","playlistId":"PLEkQk5xrP-tnl7vb7KeAoPd5ZlqKKW8KV","playlistName":"شرح كتاب بهجة النفوس أ.د . يسرى جبر","category":"متنوع"},{"id":"aDzIOQcMyWE","title":"منوعات رمضانية   د. يسري جبر","publishedAt":"2017-06-10T17:45:11Z","duration":"PT35M56S","thumbnail":"https://i.ytimg.com/vi/aDzIOQcMyWE/mqdefault.jpg","viewCount":"645","playlistId":"PLEkQk5xrP-tlArtGpeLWaqNM7h7IDeAVC","playlistName":"خطب الجمعة أ.د. يسري جبر","category":"خطب"},{"id":"AkogudT9GWY","title":"كتاب نوراليقين في سيرة سيد المرسلين المجلس الرابع عشرهجرة المصطفى صلى الله عليه وآله وسلم د.يسري جبر","publishedAt":"2017-06-10T18:08:36Z","duration":"PT44M58S","thumbnail":"https://i.ytimg.com/vi/AkogudT9GWY/mqdefault.jpg","viewCount":"27387","playlistId":"PLEkQk5xrP-tl2t4NQx1IhKnAJCMzF0Nli","playlistName":"شرح كتاب نور اليقين في سيرة سيد المرسلين   د. يسري جبر","category":"سيرة"},{"id":"v2Y-9ZrDNiY","title":"( 126 ) حديث جواز استعمال بهيمة الصدقة للضرورة - د. يسري جبر","publishedAt":"2017-06-10T18:40:58Z","duration":"PT30M38S","thumbnail":"https://i.ytimg.com/vi/v2Y-9ZrDNiY/mqdefault.jpg","viewCount":"257","playlistId":"PLEkQk5xrP-tnl7vb7KeAoPd5ZlqKKW8KV","playlistName":"شرح كتاب بهجة النفوس أ.د . يسرى جبر","category":"متنوع"},{"id":"fSn0P7m-hzE","title":"( 127 ) حديث جواز الصدقة عن الميت و وصول ثوابها اليه  - د. يسري جبر","publishedAt":"2017-06-11T19:27:46Z","duration":"PT26M56S","thumbnail":"https://i.ytimg.com/vi/fSn0P7m-hzE/mqdefault.jpg","viewCount":"1309","playlistId":"PLEkQk5xrP-tnl7vb7KeAoPd5ZlqKKW8KV","playlistName":"شرح كتاب بهجة النفوس أ.د . يسرى جبر","category":"متنوع"},{"id":"MiyNG2bO44Q","title":"( 128 ) حديث جواز اتخاذ الخادم للرجل الصالح - د. يسري جبر","publishedAt":"2017-06-12T05:51:42Z","duration":"PT27M42S","thumbnail":"https://i.ytimg.com/vi/MiyNG2bO44Q/mqdefault.jpg","viewCount":"720","playlistId":"PLEkQk5xrP-tnl7vb7KeAoPd5ZlqKKW8KV","playlistName":"شرح كتاب بهجة النفوس أ.د . يسرى جبر","category":"متنوع"},{"id":"ayLCEef7Bx4","title":"من علامة إقامة الحق لك في الشيء: إدامته إياك فيه مع حصول النتائج","publishedAt":"2017-06-12T17:26:11Z","duration":"PT3M48S","thumbnail":"https://i.ytimg.com/vi/ayLCEef7Bx4/mqdefault.jpg","viewCount":"1566","playlistId":"PLEkQk5xrP-tkI_meE148wc7V7XHlB0WPb","playlistName":"من الحكم العطائية  د. يسري جبر","category":"متنوع"},{"id":"VDNc2ygrUKA","title":"( 129 ) حديث أفضل الأعمال - د. يسري جبر","publishedAt":"2017-06-13T14:56:48Z","duration":"PT23M11S","thumbnail":"https://i.ytimg.com/vi/VDNc2ygrUKA/mqdefault.jpg","viewCount":"909","playlistId":"PLEkQk5xrP-tnl7vb7KeAoPd5ZlqKKW8KV","playlistName":"شرح كتاب بهجة النفوس أ.د . يسرى جبر","category":"متنوع"},{"id":"7uXYl9WdnzA","title":"مَن عبّر من بساط إحسانه، أصمتته الإساءة، ومَن عبّر من بساط إحسان الله إليه، لم يصمت إذا أساء","publishedAt":"2017-06-13T15:32:09Z","duration":"PT11M35S","thumbnail":"https://i.ytimg.com/vi/7uXYl9WdnzA/mqdefault.jpg","viewCount":"2973","playlistId":"PLEkQk5xrP-tkI_meE148wc7V7XHlB0WPb","playlistName":"من الحكم العطائية  د. يسري جبر","category":"متنوع"},{"id":"_nlWhzzPFSs","title":"مقرأة سورة هود من آية ٤٤","publishedAt":"2017-06-14T09:37:12Z","duration":"PT11M24S","thumbnail":"https://i.ytimg.com/vi/_nlWhzzPFSs/mqdefault.jpg","viewCount":"776","playlistId":"PLEkQk5xrP-tnmTYsyW6xNdyfhPq0Bhrhj","playlistName":"مقرأة الفجر - القُرْآنُ الكَرِيمُ - خَتْمَةُ التَّدَبُّرِ  أ.د. يسري جبر","category":"متنوع"},{"id":"W5k4JloVfAk","title":"( 130 ) حديث لا هجرة بعد الفتح - د. يسري جبر","publishedAt":"2017-06-14T10:33:10Z","duration":"PT29M56S","thumbnail":"https://i.ytimg.com/vi/W5k4JloVfAk/mqdefault.jpg","viewCount":"582","playlistId":"PLEkQk5xrP-tnl7vb7KeAoPd5ZlqKKW8KV","playlistName":"شرح كتاب بهجة النفوس أ.د . يسرى جبر","category":"متنوع"},{"id":"LDy1ZQIbEOg","title":"شرح صحيح البخاري - كتاب العتق من باب ١٥","publishedAt":"2017-06-14T11:54:22Z","duration":"PT32M47S","thumbnail":"https://i.ytimg.com/vi/LDy1ZQIbEOg/mqdefault.jpg","viewCount":"580","playlistId":"PLEkQk5xrP-tlEerGoLa1AFy-2XvQ-sovv","playlistName":"شرح صحيح البخاري - أ.د. يسري جبر (كاملا)","category":"حديث"},{"id":"TxRQLrkZ8MY","title":"تسبق أنوارُ الحكماء أقوالَهم ..  فحيث صار التنوير، وصل التعبير.","publishedAt":"2017-06-14T17:52:43Z","duration":"PT12M30S","thumbnail":"https://i.ytimg.com/vi/TxRQLrkZ8MY/mqdefault.jpg","viewCount":"1082","playlistId":"PLEkQk5xrP-tkI_meE148wc7V7XHlB0WPb","playlistName":"من الحكم العطائية  د. يسري جبر","category":"متنوع"},{"id":"paRowm0KjOY","title":"مقرأة سورة هود من آية ٥٠","publishedAt":"2017-06-15T09:36:31Z","duration":"PT19M16S","thumbnail":"https://i.ytimg.com/vi/paRowm0KjOY/mqdefault.jpg","viewCount":"281","playlistId":"PLEkQk5xrP-tnmTYsyW6xNdyfhPq0Bhrhj","playlistName":"مقرأة الفجر - القُرْآنُ الكَرِيمُ - خَتْمَةُ التَّدَبُّرِ  أ.د. يسري جبر","category":"متنوع"},{"id":"NODOQThT5oQ","title":"شرح صحيح البخاري - كتاب المكاتب","publishedAt":"2017-06-15T11:52:56Z","duration":"PT29M50S","thumbnail":"https://i.ytimg.com/vi/NODOQThT5oQ/mqdefault.jpg","viewCount":"580","playlistId":"PLEkQk5xrP-tlEerGoLa1AFy-2XvQ-sovv","playlistName":"شرح صحيح البخاري - أ.د. يسري جبر (كاملا)","category":"حديث"},{"id":"w2WnSOIEpIw","title":"مقرأة سورة هود من آية ٦١","publishedAt":"2017-06-15T15:22:34Z","duration":"PT24M54S","thumbnail":"https://i.ytimg.com/vi/w2WnSOIEpIw/mqdefault.jpg","viewCount":"333","playlistId":"PLEkQk5xrP-tnmTYsyW6xNdyfhPq0Bhrhj","playlistName":"مقرأة الفجر - القُرْآنُ الكَرِيمُ - خَتْمَةُ التَّدَبُّرِ  أ.د. يسري جبر","category":"متنوع"},{"id":"mQkMbozSV7A","title":"شرح صحيح البخاري - كتاب الهبة من أوله","publishedAt":"2017-06-15T17:11:13Z","duration":"PT31M55S","thumbnail":"https://i.ytimg.com/vi/mQkMbozSV7A/mqdefault.jpg","viewCount":"677","playlistId":"PLEkQk5xrP-tlEerGoLa1AFy-2XvQ-sovv","playlistName":"شرح صحيح البخاري - أ.د. يسري جبر (كاملا)","category":"حديث"},{"id":"CY4kFD11-p4","title":"( 131 ) حديث المشيئة - د. يسري جبر","publishedAt":"2017-06-15T17:23:26Z","duration":"PT40M13S","thumbnail":"https://i.ytimg.com/vi/CY4kFD11-p4/mqdefault.jpg","viewCount":"2031","playlistId":"PLEkQk5xrP-tnl7vb7KeAoPd5ZlqKKW8KV","playlistName":"شرح كتاب بهجة النفوس أ.د . يسرى جبر","category":"متنوع"},{"id":"LHPPWT0LiUs","title":"مقرأة سورة هود من آية ٦٩","publishedAt":"2017-06-16T07:25:50Z","duration":"PT19M51S","thumbnail":"https://i.ytimg.com/vi/LHPPWT0LiUs/mqdefault.jpg","viewCount":"261","playlistId":"PLEkQk5xrP-tnmTYsyW6xNdyfhPq0Bhrhj","playlistName":"مقرأة الفجر - القُرْآنُ الكَرِيمُ - خَتْمَةُ التَّدَبُّرِ  أ.د. يسري جبر","category":"متنوع"},{"id":"3OAQqJTYSkE","title":"شرح صحيح البخاري - كتاب الهبة من باب ٨","publishedAt":"2017-06-16T08:37:05Z","duration":"PT28M34S","thumbnail":"https://i.ytimg.com/vi/3OAQqJTYSkE/mqdefault.jpg","viewCount":"597","playlistId":"PLEkQk5xrP-tlEerGoLa1AFy-2XvQ-sovv","playlistName":"شرح صحيح البخاري - أ.د. يسري جبر (كاملا)","category":"حديث"},{"id":"2R4jHfEuAW4","title":"مقرأة سورة هود من آية ٧٧","publishedAt":"2017-06-16T14:09:27Z","duration":"PT20M10S","thumbnail":"https://i.ytimg.com/vi/2R4jHfEuAW4/mqdefault.jpg","viewCount":"319","playlistId":"PLEkQk5xrP-tnmTYsyW6xNdyfhPq0Bhrhj","playlistName":"مقرأة الفجر - القُرْآنُ الكَرِيمُ - خَتْمَةُ التَّدَبُّرِ  أ.د. يسري جبر","category":"متنوع"}],"total":7670,"page":73,"pageSize":24,"totalPages":320}