{"items":[{"id":"n_IQFaCtyJo","title":"كيف تكون من السالكين - د. يسري جبر","publishedAt":"2015-04-15T20:14:07Z","duration":"PT45S","thumbnail":"https://i.ytimg.com/vi/n_IQFaCtyJo/mqdefault.jpg","viewCount":"11522","playlistId":"PLEkQk5xrP-tm8ZIu74nTOZN9KJUJu416J","playlistName":"مقاطع مُهمَّة (يُسريَّات) أ.د. يسري جبر","category":"متنوع"},{"id":"QUd9at943I4","title":"وَاعْلَمُوا أَنَّ فِيكُمْ رَسُولَ الله - د. يسري جبر","publishedAt":"2015-04-15T20:33:54Z","duration":"PT6M38S","thumbnail":"https://i.ytimg.com/vi/QUd9at943I4/mqdefault.jpg","viewCount":"28479","playlistId":"PLEkQk5xrP-tm8ZIu74nTOZN9KJUJu416J","playlistName":"مقاطع مُهمَّة (يُسريَّات) أ.د. يسري جبر","category":"متنوع"},{"id":"uSfygBBvHmA","title":"مفهوم التمكين","publishedAt":"2015-04-18T13:23:49Z","duration":"PT24M49S","thumbnail":"https://i.ytimg.com/vi/uSfygBBvHmA/mqdefault.jpg","viewCount":"3260","playlistId":"PLEkQk5xrP-tl5sZd_31jJw-5LldLW46Dv","playlistName":"كتاب الحق المبين في الرد على من تطاول على الدين","category":"ردود"},{"id":"JOIhcrICNNQ","title":"ذِكْرَى مَولِدِ النَّبِىِّ صَلَّى اللهُ عَلَيهِ وَآلِهِ وَسَلَّمَ بالتاريخ الميلادى","publishedAt":"2015-04-18T19:51:02Z","duration":"PT35M46S","thumbnail":"https://i.ytimg.com/vi/JOIhcrICNNQ/mqdefault.jpg","viewCount":"1306","playlistId":"PLEkQk5xrP-tlArtGpeLWaqNM7h7IDeAVC","playlistName":"خطب الجمعة أ.د. يسري جبر","category":"خطب"},{"id":"SnrYkYPIbqY","title":"صحيح الإمام البخارى رضى الله عنه - كتاب النكاح المجلس الخامس عشر","publishedAt":"2015-04-19T15:26:14Z","duration":"PT1H3M52S","thumbnail":"https://i.ytimg.com/vi/SnrYkYPIbqY/mqdefault.jpg","viewCount":"143","playlistId":"PLEkQk5xrP-tmJuzaj4GWRenFoFx9gdbFX","playlistName":"شرح كتاب صحيح الإمام البخاري رضي الله تعالى عنه   أ.د. يسرى جبر","category":"حديث"},{"id":"SjXHmEfCwoU","title":"شرح كتاب منازل السائرين للإمام الهروى المجلس الخامس والأربعون قسم الأَحوال باب العطش وباب الوجد","publishedAt":"2015-04-20T12:15:33Z","duration":"PT1H6M31S","thumbnail":"https://i.ytimg.com/vi/SjXHmEfCwoU/mqdefault.jpg","viewCount":"1193","playlistId":"PLEkQk5xrP-tnLYi_5_tSRVBwqcs7ISV7Y","playlistName":"شرح كتاب منازل السائرين للإمام الهروي","category":"متنوع"},{"id":"0d4qYqwfkRQ","title":"شرح كتاب الأذكار من كلام سيد الأبرار للإمام النووى رضى الله عنه - المجلس السابع عشر","publishedAt":"2015-04-21T17:49:56Z","duration":"PT33M26S","thumbnail":"https://i.ytimg.com/vi/0d4qYqwfkRQ/mqdefault.jpg","viewCount":"394","playlistId":"PLEkQk5xrP-tkWS57Ubysh0ifJR8dmuEtE","playlistName":"شرح كتاب الأذكار للإمام النووي د. يسرى جبر","category":"حديث"},{"id":"FpYK82crkAM","title":"شرح كتاب الأذكار من كلام سيد الأبرار للإمام النووى رضى الله عنه - المجلس الثامن عشر","publishedAt":"2015-04-22T16:03:52Z","duration":"PT32M11S","thumbnail":"https://i.ytimg.com/vi/FpYK82crkAM/mqdefault.jpg","viewCount":"372","playlistId":"PLEkQk5xrP-tkWS57Ubysh0ifJR8dmuEtE","playlistName":"شرح كتاب الأذكار للإمام النووي د. يسرى جبر","category":"حديث"},{"id":"Xc80oVchgp8","title":"شرح كتاب الأذكار من كلام سيد الأبرار للإمام النووى رضى الله عنه - المجلس التاسع عشر","publishedAt":"2015-04-22T21:19:17Z","duration":"PT25M39S","thumbnail":"https://i.ytimg.com/vi/Xc80oVchgp8/mqdefault.jpg","viewCount":"361","playlistId":"PLEkQk5xrP-tkWS57Ubysh0ifJR8dmuEtE","playlistName":"شرح كتاب الأذكار للإمام النووي د. يسرى جبر","category":"حديث"},{"id":"9DUqKpqRTAU","title":"شرح كتاب الأذكار من كلام سيد الأبرار للإمام النووى رضى الله عنه - المجلس العشرون","publishedAt":"2015-04-23T15:44:09Z","duration":"PT7M46S","thumbnail":"https://i.ytimg.com/vi/9DUqKpqRTAU/mqdefault.jpg","viewCount":"374","playlistId":"PLEkQk5xrP-tkWS57Ubysh0ifJR8dmuEtE","playlistName":"شرح كتاب الأذكار للإمام النووي د. يسرى جبر","category":"حديث"},{"id":"tJAa4oqz9yI","title":"أفَلا يَتَدَبَّرُونَ القُراءَنَ وَلَوكَانَ مِن عِندِ غَيرِ اللهِ لَوَجَدُوافِيهِ اخۡتِلَافَا كَثيرًا","publishedAt":"2015-04-24T21:14:44Z","duration":"PT40M14S","thumbnail":"https://i.ytimg.com/vi/tJAa4oqz9yI/mqdefault.jpg","viewCount":"240","playlistId":"PLEkQk5xrP-tlArtGpeLWaqNM7h7IDeAVC","playlistName":"خطب الجمعة أ.د. يسري جبر","category":"خطب"},{"id":"YEriWjM7f9M","title":"شرح كتاب فتح القريب المجيب «فصلٌ في أمور تخالف فيها المرأة الرجل في الصلاة» د. يسري رشدي جبر","publishedAt":"2015-04-25T06:40:39Z","duration":"PT1H1M57S","thumbnail":"https://i.ytimg.com/vi/YEriWjM7f9M/mqdefault.jpg","viewCount":"2001","playlistId":"PLEkQk5xrP-tlyOgfNBZTZgoATzVW4mI20","playlistName":"كتاب فتح القريب المجيب (علم الفقه الشافعي)","category":"فقه"},{"id":"0DEUby0G55o","title":"شرح كتاب الأذكار من كلام سيد الأبرار للإمام النووى رضى الله عنه - المجلس الواحد والعشرون","publishedAt":"2015-04-25T19:10:36Z","duration":"PT19M10S","thumbnail":"https://i.ytimg.com/vi/0DEUby0G55o/mqdefault.jpg","viewCount":"342","playlistId":"PLEkQk5xrP-tkWS57Ubysh0ifJR8dmuEtE","playlistName":"شرح كتاب الأذكار للإمام النووي د. يسرى جبر","category":"حديث"},{"id":"DNe2ohGlRUo","title":"ما معنى كلمة مدد وغوث؟","publishedAt":"2015-04-25T19:31:25Z","duration":"PT13M56S","thumbnail":"https://i.ytimg.com/vi/DNe2ohGlRUo/mqdefault.jpg","viewCount":"59333","playlistId":"PLEkQk5xrP-tm8ZIu74nTOZN9KJUJu416J","playlistName":"مقاطع مُهمَّة (يُسريَّات) أ.د. يسري جبر","category":"متنوع"},{"id":"6gr_v5MEMAQ","title":"مفهوم الوطن (1)","publishedAt":"2015-04-25T19:36:20Z","duration":"PT13M2S","thumbnail":"https://i.ytimg.com/vi/6gr_v5MEMAQ/mqdefault.jpg","viewCount":"1591","playlistId":"PLEkQk5xrP-tl5sZd_31jJw-5LldLW46Dv","playlistName":"كتاب الحق المبين في الرد على من تطاول على الدين","category":"ردود"},{"id":"ABUErC1_MLs","title":"صحيح الإمام البخارى رضى الله عنه - كتاب النكاح المجلس السادس عشر- باب الغيرة","publishedAt":"2015-04-26T04:32:22Z","duration":"PT1H9M","thumbnail":"https://i.ytimg.com/vi/ABUErC1_MLs/mqdefault.jpg","viewCount":"165","playlistId":"PLEkQk5xrP-tmJuzaj4GWRenFoFx9gdbFX","playlistName":"شرح كتاب صحيح الإمام البخاري رضي الله تعالى عنه   أ.د. يسرى جبر","category":"حديث"},{"id":"C-jjE-3oO9U","title":"مِنَ الفَوَائِدِ اليُسرِيَّةِ حَوْلَ مَعْنَى الدَهَشِ وَالهَيَمَانِ - د. يسري جبر","publishedAt":"2015-04-28T13:10:27Z","duration":"PT1M4S","thumbnail":"https://i.ytimg.com/vi/C-jjE-3oO9U/mqdefault.jpg","viewCount":"1460","playlistId":"PLEkQk5xrP-tm8ZIu74nTOZN9KJUJu416J","playlistName":"مقاطع مُهمَّة (يُسريَّات) أ.د. يسري جبر","category":"متنوع"},{"id":"Bio1m0b4nfg","title":"شرح كتاب منازل السائرين للإمام الهروى المجلس السادس والأربعون قسم الأَحوال باب الدهْشة وباب الهيَمان","publishedAt":"2015-04-28T13:36:03Z","duration":"PT47M24S","thumbnail":"https://i.ytimg.com/vi/Bio1m0b4nfg/mqdefault.jpg","viewCount":"1036","playlistId":"PLEkQk5xrP-tnLYi_5_tSRVBwqcs7ISV7Y","playlistName":"شرح كتاب منازل السائرين للإمام الهروي","category":"متنوع"},{"id":"TuCF_rNotiA","title":"اعرف صفات نبيك الخِلقية | اعرف نبيك","publishedAt":"2015-04-29T14:32:20Z","duration":"PT6M46S","thumbnail":"https://i.ytimg.com/vi/TuCF_rNotiA/mqdefault.jpg","viewCount":"7618","playlistId":"PLEkQk5xrP-tl6Mu_Mz3QMUSv5T6XBH-Dg","playlistName":"برنامج اعرف نبيك","category":"متنوع"},{"id":"_BIf3efuZmw","title":"شرح كتاب الأذكار من كلام سيد الأبرار للإمام النووى رضى الله عنه - المجلس الثانى والعشرون","publishedAt":"2015-04-29T20:17:53Z","duration":"PT13M2S","thumbnail":"https://i.ytimg.com/vi/_BIf3efuZmw/mqdefault.jpg","viewCount":"382","playlistId":"PLEkQk5xrP-tkWS57Ubysh0ifJR8dmuEtE","playlistName":"شرح كتاب الأذكار للإمام النووي د. يسرى جبر","category":"حديث"},{"id":"co-yV2fuAgo","title":"خاتم النبوة هل وُلدَ به سيدنا محمد أم ظهر بعد ولادته ؟ | اعرف نبيك","publishedAt":"2015-04-30T14:43:33Z","duration":"PT6M18S","thumbnail":"https://i.ytimg.com/vi/co-yV2fuAgo/mqdefault.jpg","viewCount":"13134","playlistId":"PLEkQk5xrP-tl6Mu_Mz3QMUSv5T6XBH-Dg","playlistName":"برنامج اعرف نبيك","category":"متنوع"},{"id":"x9WvM5ByynY","title":"الأحاديث الواردة فى باب خاتِم النبوة   | اعرف نبيك","publishedAt":"2015-04-30T14:52:45Z","duration":"PT6M53S","thumbnail":"https://i.ytimg.com/vi/x9WvM5ByynY/mqdefault.jpg","viewCount":"1506","playlistId":"PLEkQk5xrP-tl6Mu_Mz3QMUSv5T6XBH-Dg","playlistName":"برنامج اعرف نبيك","category":"متنوع"},{"id":"-mc9Tii8eEU","title":"علامات النبوة وقصة إسلام \"سلمان الفارسي\" | اعرف نبيك","publishedAt":"2015-04-30T15:13:16Z","duration":"PT6M26S","thumbnail":"https://i.ytimg.com/vi/-mc9Tii8eEU/mqdefault.jpg","viewCount":"2497","playlistId":"PLEkQk5xrP-tl6Mu_Mz3QMUSv5T6XBH-Dg","playlistName":"برنامج اعرف نبيك","category":"متنوع"},{"id":"Wh23wLKvEKA","title":"العقل بين الاعتراض والانقياد د. يسري جبر","publishedAt":"2015-05-02T18:26:12Z","duration":"PT38M8S","thumbnail":"https://i.ytimg.com/vi/Wh23wLKvEKA/mqdefault.jpg","viewCount":"440","playlistId":"PLEkQk5xrP-tlArtGpeLWaqNM7h7IDeAVC","playlistName":"خطب الجمعة أ.د. يسري جبر","category":"خطب"}],"total":7670,"page":10,"pageSize":24,"totalPages":320}