{"items":[{"id":"JZ4mSh35dbc","title":"سورة الأعراف آية 127","publishedAt":"2017-02-24T15:10:31Z","duration":"PT13M34S","thumbnail":"https://i.ytimg.com/vi/JZ4mSh35dbc/mqdefault.jpg","viewCount":"456","playlistId":"PLEkQk5xrP-tnmTYsyW6xNdyfhPq0Bhrhj","playlistName":"مقرأة الفجر - القُرْآنُ الكَرِيمُ - خَتْمَةُ التَّدَبُّرِ  أ.د. يسري جبر","category":"متنوع"},{"id":"naz6VXIxK6M","title":"شرح صحيح البخاري   كتاب الزكاة من باب ٦٤","publishedAt":"2017-02-24T15:20:52Z","duration":"PT41M49S","thumbnail":"https://i.ytimg.com/vi/naz6VXIxK6M/mqdefault.jpg","viewCount":"883","playlistId":"PLEkQk5xrP-tlEerGoLa1AFy-2XvQ-sovv","playlistName":"شرح صحيح البخاري - أ.د. يسري جبر (كاملا)","category":"حديث"},{"id":"l1pcWX4DUkk","title":"43- إِهْلاَلِ أَهْلِ مَكَّةَ وَمَنْ بِهَا مِنْ غَيْرِهِمْ  كتاب الحج ك الموطأ د يسري جبر الأزهري","publishedAt":"2017-02-24T23:54:13Z","duration":"PT59M30S","thumbnail":"https://i.ytimg.com/vi/l1pcWX4DUkk/mqdefault.jpg","viewCount":"322","playlistId":"PLEkQk5xrP-tnC6BRuqMjyO-484iqXeg0o","playlistName":"شرح كتاب الموطأ للإمام مالك","category":"متنوع"},{"id":"_taODXwsWtM","title":"سورة الأعراف آية 132","publishedAt":"2017-02-25T15:00:16Z","duration":"PT23M31S","thumbnail":"https://i.ytimg.com/vi/_taODXwsWtM/mqdefault.jpg","viewCount":"448","playlistId":"PLEkQk5xrP-tnmTYsyW6xNdyfhPq0Bhrhj","playlistName":"مقرأة الفجر - القُرْآنُ الكَرِيمُ - خَتْمَةُ التَّدَبُّرِ  أ.د. يسري جبر","category":"متنوع"},{"id":"ssPbVaGlbX0","title":"شرح صحيح البخاري   كتاب الزكاة من باب ٧١","publishedAt":"2017-02-25T16:08:20Z","duration":"PT26M17S","thumbnail":"https://i.ytimg.com/vi/ssPbVaGlbX0/mqdefault.jpg","viewCount":"791","playlistId":"PLEkQk5xrP-tlEerGoLa1AFy-2XvQ-sovv","playlistName":"شرح صحيح البخاري - أ.د. يسري جبر (كاملا)","category":"حديث"},{"id":"Z5d3BmLpUIY","title":"تِلْكَ حُدُودُ اللهِ فَلا تَقْرَبُوهَا ( تِلْكَ حُدُودُ اللهِ فلا تَعْتَدُوهَا  ) الفرق بينهما","publishedAt":"2017-02-25T19:03:41Z","duration":"PT42M40S","thumbnail":"https://i.ytimg.com/vi/Z5d3BmLpUIY/mqdefault.jpg","viewCount":"1265","playlistId":"PLEkQk5xrP-tlArtGpeLWaqNM7h7IDeAVC","playlistName":"خطب الجمعة أ.د. يسري جبر","category":"خطب"},{"id":"gl2gmUPnlsg","title":"أباح لك أن تنظر ما في المُكَوَّنات ، وما أذِن لك أن تقف مع ذوات المُكَوَّنات","publishedAt":"2017-02-25T20:51:05Z","duration":"PT17M20S","thumbnail":"https://i.ytimg.com/vi/gl2gmUPnlsg/mqdefault.jpg","viewCount":"1033","playlistId":"PLEkQk5xrP-tkI_meE148wc7V7XHlB0WPb","playlistName":"من الحكم العطائية  د. يسري جبر","category":"متنوع"},{"id":"Fwvih36VnWc","title":"صحيح الإمام البخاري رضي الله عنه - كتاب الأدب - المجلس السابع عشر د. يسري جبر","publishedAt":"2017-02-26T20:28:59Z","duration":"PT47M31S","thumbnail":"https://i.ytimg.com/vi/Fwvih36VnWc/mqdefault.jpg","viewCount":"259","playlistId":"PLEkQk5xrP-tmJuzaj4GWRenFoFx9gdbFX","playlistName":"شرح كتاب صحيح الإمام البخاري رضي الله تعالى عنه   أ.د. يسرى جبر","category":"حديث"},{"id":"_pK7XUdaN5w","title":"سورة الأعراف آية 142","publishedAt":"2017-02-27T08:30:54Z","duration":"PT20M16S","thumbnail":"https://i.ytimg.com/vi/_pK7XUdaN5w/mqdefault.jpg","viewCount":"388","playlistId":"PLEkQk5xrP-tnmTYsyW6xNdyfhPq0Bhrhj","playlistName":"مقرأة الفجر - القُرْآنُ الكَرِيمُ - خَتْمَةُ التَّدَبُّرِ  أ.د. يسري جبر","category":"متنوع"},{"id":"tScBU409KO0","title":"شرح صحيح البخاري   كتاب الحج من أوله","publishedAt":"2017-02-27T12:14:27Z","duration":"PT30M53S","thumbnail":"https://i.ytimg.com/vi/tScBU409KO0/mqdefault.jpg","viewCount":"1224","playlistId":"PLEkQk5xrP-tlEerGoLa1AFy-2XvQ-sovv","playlistName":"شرح صحيح البخاري - أ.د. يسري جبر (كاملا)","category":"حديث"},{"id":"_aKGlsGHx98","title":"مقرأة سورة الأعراف من آية ١٤٥","publishedAt":"2017-02-28T09:46:12Z","duration":"PT18M4S","thumbnail":"https://i.ytimg.com/vi/_aKGlsGHx98/mqdefault.jpg","viewCount":"375","playlistId":"PLEkQk5xrP-tnmTYsyW6xNdyfhPq0Bhrhj","playlistName":"مقرأة الفجر - القُرْآنُ الكَرِيمُ - خَتْمَةُ التَّدَبُّرِ  أ.د. يسري جبر","category":"متنوع"},{"id":"xRtPVBFY9_o","title":"شرح صحيح البخاري   كتاب الحج من باب ٥","publishedAt":"2017-02-28T12:12:40Z","duration":"PT27M34S","thumbnail":"https://i.ytimg.com/vi/xRtPVBFY9_o/mqdefault.jpg","viewCount":"940","playlistId":"PLEkQk5xrP-tlEerGoLa1AFy-2XvQ-sovv","playlistName":"شرح صحيح البخاري - أ.د. يسري جبر (كاملا)","category":"حديث"},{"id":"dJVstHxgVc4","title":"سورة الأعراف آية 150","publishedAt":"2017-03-01T13:43:51Z","duration":"PT20M28S","thumbnail":"https://i.ytimg.com/vi/dJVstHxgVc4/mqdefault.jpg","viewCount":"394","playlistId":"PLEkQk5xrP-tnmTYsyW6xNdyfhPq0Bhrhj","playlistName":"مقرأة الفجر - القُرْآنُ الكَرِيمُ - خَتْمَةُ التَّدَبُّرِ  أ.د. يسري جبر","category":"متنوع"},{"id":"rPOs0vZ8Epc","title":"شرح صحيح البخاري   كتاب الحج من باب ١٧","publishedAt":"2017-03-01T19:10:08Z","duration":"PT38M49S","thumbnail":"https://i.ytimg.com/vi/rPOs0vZ8Epc/mqdefault.jpg","viewCount":"972","playlistId":"PLEkQk5xrP-tlEerGoLa1AFy-2XvQ-sovv","playlistName":"شرح صحيح البخاري - أ.د. يسري جبر (كاملا)","category":"حديث"},{"id":"vEKmvdwvycU","title":"سورة الأعراف آية 156","publishedAt":"2017-03-02T10:19:58Z","duration":"PT19M58S","thumbnail":"https://i.ytimg.com/vi/vEKmvdwvycU/mqdefault.jpg","viewCount":"393","playlistId":"PLEkQk5xrP-tnmTYsyW6xNdyfhPq0Bhrhj","playlistName":"مقرأة الفجر - القُرْآنُ الكَرِيمُ - خَتْمَةُ التَّدَبُّرِ  أ.د. يسري جبر","category":"متنوع"},{"id":"diKF5bR-HwI","title":"44- مَا لاَ يَجِبُ فِيهِ التَّمَتُّعُ كتاب الحج ك الموطأ د يسري جبر الأزهري","publishedAt":"2017-03-02T16:44:05Z","duration":"PT1H11M41S","thumbnail":"https://i.ytimg.com/vi/diKF5bR-HwI/mqdefault.jpg","viewCount":"341","playlistId":"PLEkQk5xrP-tnC6BRuqMjyO-484iqXeg0o","playlistName":"شرح كتاب الموطأ للإمام مالك","category":"متنوع"},{"id":"N6Lyk72PVzM","title":"شرح صحيح البخاري -  كتاب الحج من باب ٢٥","publishedAt":"2017-03-03T03:39:48Z","duration":"PT35M49S","thumbnail":"https://i.ytimg.com/vi/N6Lyk72PVzM/mqdefault.jpg","viewCount":"892","playlistId":"PLEkQk5xrP-tlEerGoLa1AFy-2XvQ-sovv","playlistName":"شرح صحيح البخاري - أ.د. يسري جبر (كاملا)","category":"حديث"},{"id":"YxNoaSmKKds","title":"سورة الأعراف آية 159","publishedAt":"2017-03-04T11:13:24Z","duration":"PT28M42S","thumbnail":"https://i.ytimg.com/vi/YxNoaSmKKds/mqdefault.jpg","viewCount":"388","playlistId":"PLEkQk5xrP-tnmTYsyW6xNdyfhPq0Bhrhj","playlistName":"مقرأة الفجر - القُرْآنُ الكَرِيمُ - خَتْمَةُ التَّدَبُّرِ  أ.د. يسري جبر","category":"متنوع"},{"id":"AcoaRgelAGA","title":"شرح صحيح البخاري -  كتاب الحج من باب ٣٣","publishedAt":"2017-03-04T14:16:07Z","duration":"PT43M36S","thumbnail":"https://i.ytimg.com/vi/AcoaRgelAGA/mqdefault.jpg","viewCount":"936","playlistId":"PLEkQk5xrP-tlEerGoLa1AFy-2XvQ-sovv","playlistName":"شرح صحيح البخاري - أ.د. يسري جبر (كاملا)","category":"حديث"},{"id":"zQ1JCRud1l0","title":"التَبَتُّل    د. يسري جبر","publishedAt":"2017-03-04T18:14:07Z","duration":"PT33M24S","thumbnail":"https://i.ytimg.com/vi/zQ1JCRud1l0/mqdefault.jpg","viewCount":"2384","playlistId":"PLEkQk5xrP-tlArtGpeLWaqNM7h7IDeAVC","playlistName":"خطب الجمعة أ.د. يسري جبر","category":"خطب"},{"id":"X23xO2VwvfI","title":"الناسُ يْمدحونك لِمَا يظُنُّون فيك فكُنْ أنت ذامَّا لنفسِك لِمَا تعلمُه منها","publishedAt":"2017-03-04T19:05:56Z","duration":"PT7M13S","thumbnail":"https://i.ytimg.com/vi/X23xO2VwvfI/mqdefault.jpg","viewCount":"796","playlistId":"PLEkQk5xrP-tkI_meE148wc7V7XHlB0WPb","playlistName":"من الحكم العطائية  د. يسري جبر","category":"متنوع"},{"id":"lPFaqCAH4dc","title":"سورة الأعراف آية 163","publishedAt":"2017-03-05T03:44:55Z","duration":"PT16M46S","thumbnail":"https://i.ytimg.com/vi/lPFaqCAH4dc/mqdefault.jpg","viewCount":"395","playlistId":"PLEkQk5xrP-tnmTYsyW6xNdyfhPq0Bhrhj","playlistName":"مقرأة الفجر - القُرْآنُ الكَرِيمُ - خَتْمَةُ التَّدَبُّرِ  أ.د. يسري جبر","category":"متنوع"},{"id":"fucbLG5TK5U","title":"شرح صحيح البخاري -  كتاب الحج من باب ٣٥","publishedAt":"2017-03-05T13:33:10Z","duration":"PT32M33S","thumbnail":"https://i.ytimg.com/vi/fucbLG5TK5U/mqdefault.jpg","viewCount":"879","playlistId":"PLEkQk5xrP-tlEerGoLa1AFy-2XvQ-sovv","playlistName":"شرح صحيح البخاري - أ.د. يسري جبر (كاملا)","category":"حديث"},{"id":"OoNlD7NNNW4","title":"شرح كتاب نور اليقين في سيرة سيد المرسلين (المجلس الأول) | أ.د. يسري جبر","publishedAt":"2017-03-05T16:04:35Z","duration":"PT44M19S","thumbnail":"https://i.ytimg.com/vi/OoNlD7NNNW4/mqdefault.jpg","viewCount":"139209","playlistId":"PLEkQk5xrP-tl2t4NQx1IhKnAJCMzF0Nli","playlistName":"شرح كتاب نور اليقين في سيرة سيد المرسلين   د. يسري جبر","category":"سيرة"}],"total":7670,"page":62,"pageSize":24,"totalPages":320}