{"items":[{"id":"YGunXTkhu4s","title":"هل خلقنا الله ليعذبنا؟","publishedAt":"2024-05-27T18:47:33Z","duration":"PT26M43S","thumbnail":"https://i.ytimg.com/vi/YGunXTkhu4s/mqdefault.jpg","viewCount":"6554","playlistId":"PLEkQk5xrP-tlArtGpeLWaqNM7h7IDeAVC","playlistName":"خطب الجمعة أ.د. يسري جبر","category":"خطب"},{"id":"Jml4HyRxY78","title":"كيف تتخلص من العادات السيئة؟","publishedAt":"2021-02-27T19:14:09Z","duration":"PT8M29S","thumbnail":"https://i.ytimg.com/vi/Jml4HyRxY78/mqdefault.jpg","viewCount":"6454","playlistId":"PLEkQk5xrP-tlArtGpeLWaqNM7h7IDeAVC","playlistName":"خطب الجمعة أ.د. يسري جبر","category":"خطب"},{"id":"Atrli-ecdUY","title":"تفسير\"سبحان الذي أسرى بعبده ليلاً\" | كما لم تسمعه من قبل","publishedAt":"2021-03-12T19:19:37Z","duration":"PT15M29S","thumbnail":"https://i.ytimg.com/vi/Atrli-ecdUY/mqdefault.jpg","viewCount":"6453","playlistId":"PLEkQk5xrP-tlArtGpeLWaqNM7h7IDeAVC","playlistName":"خطب الجمعة أ.د. يسري جبر","category":"خطب"},{"id":"K8DfCzPbEcY","title":"ذكرى ميلاد سيدنا عيسى عليه السلام","publishedAt":"2021-01-01T18:26:11Z","duration":"PT14M15S","thumbnail":"https://i.ytimg.com/vi/K8DfCzPbEcY/mqdefault.jpg","viewCount":"6437","playlistId":"PLEkQk5xrP-tlArtGpeLWaqNM7h7IDeAVC","playlistName":"خطب الجمعة أ.د. يسري جبر","category":"خطب"},{"id":"zaLts1IMcKA","title":"حول معاني سُورة \"التَّكَاثُر\" د. يسري جبر","publishedAt":"2018-04-07T14:39:06Z","duration":"PT41M52S","thumbnail":"https://i.ytimg.com/vi/zaLts1IMcKA/mqdefault.jpg","viewCount":"6352","playlistId":"PLEkQk5xrP-tlArtGpeLWaqNM7h7IDeAVC","playlistName":"خطب الجمعة أ.د. يسري جبر","category":"خطب"},{"id":"ZQX44SYwJ5E","title":"الفرق بين الأحدية والواحدية","publishedAt":"2021-02-13T17:43:45Z","duration":"PT12M38S","thumbnail":"https://i.ytimg.com/vi/ZQX44SYwJ5E/mqdefault.jpg","viewCount":"6307","playlistId":"PLEkQk5xrP-tlArtGpeLWaqNM7h7IDeAVC","playlistName":"خطب الجمعة أ.د. يسري جبر","category":"خطب"},{"id":"58F6l8vVOKQ","title":"أول خطوة إلى الله الأدب مع سيدنا رسول الله صلى الله عليه وآله وسلم","publishedAt":"2017-12-23T07:04:59Z","duration":"PT40M53S","thumbnail":"https://i.ytimg.com/vi/58F6l8vVOKQ/mqdefault.jpg","viewCount":"6261","playlistId":"PLEkQk5xrP-tlArtGpeLWaqNM7h7IDeAVC","playlistName":"خطب الجمعة أ.د. يسري جبر","category":"خطب"},{"id":"rP_yO8WlwBk","title":"نصائح النبي ﷺ لمواجهة الفتن","publishedAt":"2022-12-18T18:00:29Z","duration":"PT8M33S","thumbnail":"https://i.ytimg.com/vi/rP_yO8WlwBk/mqdefault.jpg","viewCount":"6255","playlistId":"PLEkQk5xrP-tlArtGpeLWaqNM7h7IDeAVC","playlistName":"خطب الجمعة أ.د. يسري جبر","category":"خطب"},{"id":"G_nQl4g2XWQ","title":"فضل ليلة القدر","publishedAt":"2023-04-17T15:00:11Z","duration":"PT16M55S","thumbnail":"https://i.ytimg.com/vi/G_nQl4g2XWQ/mqdefault.jpg","viewCount":"6247","playlistId":"PLEkQk5xrP-tlArtGpeLWaqNM7h7IDeAVC","playlistName":"خطب الجمعة أ.د. يسري جبر","category":"خطب"},{"id":"As3mTPewN5A","title":"كيف نحتفل بمولد النبي ﷺ؟","publishedAt":"2025-08-24T17:00:10Z","duration":"PT21M49S","thumbnail":"https://i.ytimg.com/vi/As3mTPewN5A/mqdefault.jpg","viewCount":"6233","playlistId":"PLEkQk5xrP-tlArtGpeLWaqNM7h7IDeAVC","playlistName":"خطب الجمعة أ.د. يسري جبر","category":"خطب"},{"id":"VphX3E1hrOE","title":"فضل قضاء حوائج الناس | قصص في حياتي","publishedAt":"2024-11-19T17:30:05Z","duration":"PT16M19S","thumbnail":"https://i.ytimg.com/vi/VphX3E1hrOE/mqdefault.jpg","viewCount":"6223","playlistId":"PLEkQk5xrP-tlArtGpeLWaqNM7h7IDeAVC","playlistName":"خطب الجمعة أ.د. يسري جبر","category":"خطب"},{"id":"Y0GEATT1R7I","title":"كيف بدء الوحي؟","publishedAt":"2021-11-06T14:03:07Z","duration":"PT42M34S","thumbnail":"https://i.ytimg.com/vi/Y0GEATT1R7I/mqdefault.jpg","viewCount":"6220","playlistId":"PLEkQk5xrP-tlArtGpeLWaqNM7h7IDeAVC","playlistName":"خطب الجمعة أ.د. يسري جبر","category":"خطب"},{"id":"MxNkPl4XFBs","title":"لطائف ومعاني حول أسماء الله الحسنى","publishedAt":"2023-08-08T18:00:11Z","duration":"PT11M14S","thumbnail":"https://i.ytimg.com/vi/MxNkPl4XFBs/mqdefault.jpg","viewCount":"6004","playlistId":"PLEkQk5xrP-tlArtGpeLWaqNM7h7IDeAVC","playlistName":"خطب الجمعة أ.د. يسري جبر","category":"خطب"},{"id":"y65KhMVc85c","title":"هل حب النَّبيّ ﷺ سبب لدخول الجنة؟","publishedAt":"2022-09-29T18:00:32Z","duration":"PT12M","thumbnail":"https://i.ytimg.com/vi/y65KhMVc85c/mqdefault.jpg","viewCount":"6002","playlistId":"PLEkQk5xrP-tlArtGpeLWaqNM7h7IDeAVC","playlistName":"خطب الجمعة أ.د. يسري جبر","category":"خطب"},{"id":"VuHy_fr60Wk","title":"ما هي الأعمال المستحبة في شهر رجب؟","publishedAt":"2023-01-27T18:00:14Z","duration":"PT8M36S","thumbnail":"https://i.ytimg.com/vi/VuHy_fr60Wk/mqdefault.jpg","viewCount":"5950","playlistId":"PLEkQk5xrP-tlArtGpeLWaqNM7h7IDeAVC","playlistName":"خطب الجمعة أ.د. يسري جبر","category":"خطب"},{"id":"4FNwzK8YdIU","title":"الفرق بين الجسد والروح والنفس وما هى أنواع النفوس","publishedAt":"2014-11-25T17:12:28Z","duration":"PT31M52S","thumbnail":"https://i.ytimg.com/vi/4FNwzK8YdIU/mqdefault.jpg","viewCount":"5948","playlistId":"PLEkQk5xrP-tlArtGpeLWaqNM7h7IDeAVC","playlistName":"خطب الجمعة أ.د. يسري جبر","category":"خطب"},{"id":"uu8FJdoQutY","title":"نَجَاةُ النَّسَبِ الشَّرِيفِ مِنَ النَّارِ. أ.د. يسري جبر","publishedAt":"2019-12-01T12:32:40Z","duration":"PT49M51S","thumbnail":"https://i.ytimg.com/vi/uu8FJdoQutY/mqdefault.jpg","viewCount":"5911","playlistId":"PLEkQk5xrP-tlArtGpeLWaqNM7h7IDeAVC","playlistName":"خطب الجمعة أ.د. يسري جبر","category":"خطب"},{"id":"7WxrYljr3YQ","title":"الفرق بين الإرادة والمشيئة","publishedAt":"2022-04-10T19:30:00Z","duration":"PT18M13S","thumbnail":"https://i.ytimg.com/vi/7WxrYljr3YQ/mqdefault.jpg","viewCount":"5870","playlistId":"PLEkQk5xrP-tlArtGpeLWaqNM7h7IDeAVC","playlistName":"خطب الجمعة أ.د. يسري جبر","category":"خطب"},{"id":"v9pHBA_oSWI","title":"نَصَائِحُ رَجَبِيَّة   د. يسري جبر","publishedAt":"2018-03-25T02:45:04Z","duration":"PT29M53S","thumbnail":"https://i.ytimg.com/vi/v9pHBA_oSWI/mqdefault.jpg","viewCount":"5864","playlistId":"PLEkQk5xrP-tlArtGpeLWaqNM7h7IDeAVC","playlistName":"خطب الجمعة أ.د. يسري جبر","category":"خطب"},{"id":"flithzVV4bY","title":"هو ليه ربنا مش بيستجيب دعائي؟","publishedAt":"2023-08-10T18:00:27Z","duration":"PT8M35S","thumbnail":"https://i.ytimg.com/vi/flithzVV4bY/mqdefault.jpg","viewCount":"5861","playlistId":"PLEkQk5xrP-tlArtGpeLWaqNM7h7IDeAVC","playlistName":"خطب الجمعة أ.د. يسري جبر","category":"خطب"},{"id":"cMcyZCJl0FM","title":"هل الإيمان بالغيب أم بالكشف","publishedAt":"2020-11-16T17:45:01Z","duration":"PT9M17S","thumbnail":"https://i.ytimg.com/vi/cMcyZCJl0FM/mqdefault.jpg","viewCount":"5857","playlistId":"PLEkQk5xrP-tlArtGpeLWaqNM7h7IDeAVC","playlistName":"خطب الجمعة أ.د. يسري جبر","category":"خطب"},{"id":"QuzjpcvBXig","title":"لماذا خلقنا الله؟","publishedAt":"2023-02-12T18:00:10Z","duration":"PT11M29S","thumbnail":"https://i.ytimg.com/vi/QuzjpcvBXig/mqdefault.jpg","viewCount":"5833","playlistId":"PLEkQk5xrP-tlArtGpeLWaqNM7h7IDeAVC","playlistName":"خطب الجمعة أ.د. يسري جبر","category":"خطب"},{"id":"gffbhZiBBGo","title":"كيفية الصبر على الابتلاءات؟","publishedAt":"2024-09-29T18:59:20Z","duration":"PT17M21S","thumbnail":"https://i.ytimg.com/vi/gffbhZiBBGo/mqdefault.jpg","viewCount":"5825","playlistId":"PLEkQk5xrP-tlArtGpeLWaqNM7h7IDeAVC","playlistName":"خطب الجمعة أ.د. يسري جبر","category":"خطب"},{"id":"V2Hhr_23gBU","title":"هل خلق الله الأكوان لأجل النبي ﷺ؟","publishedAt":"2022-09-25T19:24:05Z","duration":"PT17M53S","thumbnail":"https://i.ytimg.com/vi/V2Hhr_23gBU/mqdefault.jpg","viewCount":"5755","playlistId":"PLEkQk5xrP-tlArtGpeLWaqNM7h7IDeAVC","playlistName":"خطب الجمعة أ.د. يسري جبر","category":"خطب"}],"total":676,"page":10,"pageSize":24,"totalPages":29}