{"items":[{"id":"hR-5OhNPmys","title":"قراءة القرآن (من أول سورة الشرح)","publishedAt":"2016-03-29T02:20:55Z","duration":"PT25M20S","thumbnail":"https://i.ytimg.com/vi/hR-5OhNPmys/mqdefault.jpg","viewCount":"173","playlistId":"PLEkQk5xrP-tnUSUj0uyJhA-kwNC7Gkx_j","playlistName":"مقرأة الفجر - بداية من سورة الإسراء حتى سورة الناس","category":"تفسير"},{"id":"RyfCQUhIrSI","title":"قراءة القرآن (من أول سورة الضحى)","publishedAt":"2016-03-28T02:25:12Z","duration":"PT27M48S","thumbnail":"https://i.ytimg.com/vi/RyfCQUhIrSI/mqdefault.jpg","viewCount":"446","playlistId":"PLEkQk5xrP-tnUSUj0uyJhA-kwNC7Gkx_j","playlistName":"مقرأة الفجر - بداية من سورة الإسراء حتى سورة الناس","category":"تفسير"},{"id":"pO3kb8IABnc","title":"قراءة القرآن (من أول سورة الليل)","publishedAt":"2016-03-26T21:33:45Z","duration":"PT12M32S","thumbnail":"https://i.ytimg.com/vi/pO3kb8IABnc/mqdefault.jpg","viewCount":"96","playlistId":"PLEkQk5xrP-tnUSUj0uyJhA-kwNC7Gkx_j","playlistName":"مقرأة الفجر - بداية من سورة الإسراء حتى سورة الناس","category":"تفسير"},{"id":"-6oP4XSs73s","title":"قراءة القرآن من سورة الكهف (من آية 17)","publishedAt":"2015-06-02T03:23:51Z","duration":"PT20M51S","thumbnail":"https://i.ytimg.com/vi/-6oP4XSs73s/mqdefault.jpg","viewCount":"506","playlistId":"PLEkQk5xrP-tnUSUj0uyJhA-kwNC7Gkx_j","playlistName":"مقرأة الفجر - بداية من سورة الإسراء حتى سورة الناس","category":"تفسير"},{"id":"sONSLSnw6Dk","title":"قراءة القرآن من سورة الإسراء (من آية 99)","publishedAt":"2015-06-01T03:10:15Z","duration":"PT10M41S","thumbnail":"https://i.ytimg.com/vi/sONSLSnw6Dk/mqdefault.jpg","viewCount":"453","playlistId":"PLEkQk5xrP-tnUSUj0uyJhA-kwNC7Gkx_j","playlistName":"مقرأة الفجر - بداية من سورة الإسراء حتى سورة الناس","category":"تفسير"},{"id":"RWzSjpK76JA","title":"قراءة القرآن من سورة الإسراء (من آية 70)","publishedAt":"2015-05-31T03:25:53Z","duration":"PT25M16S","thumbnail":"https://i.ytimg.com/vi/RWzSjpK76JA/mqdefault.jpg","viewCount":"587","playlistId":"PLEkQk5xrP-tnUSUj0uyJhA-kwNC7Gkx_j","playlistName":"مقرأة الفجر - بداية من سورة الإسراء حتى سورة الناس","category":"تفسير"},{"id":"Rk00KTPOC9I","title":"قراءة القرآن (من آية 105 سورة الشعراء)","publishedAt":"2015-07-03T03:36:25Z","duration":"PT14M26S","thumbnail":"https://i.ytimg.com/vi/Rk00KTPOC9I/mqdefault.jpg","viewCount":"125","playlistId":"PLEkQk5xrP-tnUSUj0uyJhA-kwNC7Gkx_j","playlistName":"مقرأة الفجر - بداية من سورة الإسراء حتى سورة الناس","category":"تفسير"},{"id":"feRrKJGnV88","title":"قراءة القرآن (من آية 52 سورة الشعراء)","publishedAt":"2015-07-02T03:42:03Z","duration":"PT11M14S","thumbnail":"https://i.ytimg.com/vi/feRrKJGnV88/mqdefault.jpg","viewCount":"283","playlistId":"PLEkQk5xrP-tnUSUj0uyJhA-kwNC7Gkx_j","playlistName":"مقرأة الفجر - بداية من سورة الإسراء حتى سورة الناس","category":"تفسير"},{"id":"1Rk-V6-oZtk","title":"قراءة القرآن ( آية  1 من سورة الشعراء)","publishedAt":"2015-07-01T03:39:35Z","duration":"PT30M31S","thumbnail":"https://i.ytimg.com/vi/1Rk-V6-oZtk/mqdefault.jpg","viewCount":"124","playlistId":"PLEkQk5xrP-tnUSUj0uyJhA-kwNC7Gkx_j","playlistName":"مقرأة الفجر - بداية من سورة الإسراء حتى سورة الناس","category":"تفسير"},{"id":"kq4RU0aWMN4","title":"قراءة القرآن من سورة الإسراء (من آية 49)","publishedAt":"2015-05-30T03:15:16Z","duration":"PT12M6S","thumbnail":"https://i.ytimg.com/vi/kq4RU0aWMN4/mqdefault.jpg","viewCount":"4088","playlistId":"PLEkQk5xrP-tnUSUj0uyJhA-kwNC7Gkx_j","playlistName":"مقرأة الفجر - بداية من سورة الإسراء حتى سورة الناس","category":"تفسير"},{"id":"1Ndwo804J84","title":"قراءة القرآن (من أول سورة طه)","publishedAt":"2015-06-09T03:15:23Z","duration":"PT17M15S","thumbnail":"https://i.ytimg.com/vi/1Ndwo804J84/mqdefault.jpg","viewCount":"248","playlistId":"PLEkQk5xrP-tnUSUj0uyJhA-kwNC7Gkx_j","playlistName":"مقرأة الفجر - بداية من سورة الإسراء حتى سورة الناس","category":"تفسير"},{"id":"e3EhNjMisnw","title":"قراءة القرآن (من سورة مريم آية 75)","publishedAt":"2015-06-08T03:17:36Z","duration":"PT13M46S","thumbnail":"https://i.ytimg.com/vi/e3EhNjMisnw/mqdefault.jpg","viewCount":"200","playlistId":"PLEkQk5xrP-tnUSUj0uyJhA-kwNC7Gkx_j","playlistName":"مقرأة الفجر - بداية من سورة الإسراء حتى سورة الناس","category":"تفسير"},{"id":"kX5lmcq8Fuo","title":"قراءة القرآن ( من آية 45 سورة ص)","publishedAt":"2015-08-27T04:47:04Z","duration":"PT34M41S","thumbnail":"https://i.ytimg.com/vi/kX5lmcq8Fuo/mqdefault.jpg","viewCount":"259","playlistId":"PLEkQk5xrP-tnUSUj0uyJhA-kwNC7Gkx_j","playlistName":"مقرأة الفجر - بداية من سورة الإسراء حتى سورة الناس","category":"تفسير"},{"id":"iN9q4d0EQmw","title":"قراءة القرآن ( من آية 30 سورة ص)","publishedAt":"2015-08-26T04:28:07Z","duration":"PT26M1S","thumbnail":"https://i.ytimg.com/vi/iN9q4d0EQmw/mqdefault.jpg","viewCount":"306","playlistId":"PLEkQk5xrP-tnUSUj0uyJhA-kwNC7Gkx_j","playlistName":"مقرأة الفجر - بداية من سورة الإسراء حتى سورة الناس","category":"تفسير"},{"id":"1zFG65YA5sQ","title":"قراءة القرآن ( من أول سورة ص)","publishedAt":"2015-08-25T04:22:26Z","duration":"PT35M36S","thumbnail":"https://i.ytimg.com/vi/1zFG65YA5sQ/mqdefault.jpg","viewCount":"125","playlistId":"PLEkQk5xrP-tnUSUj0uyJhA-kwNC7Gkx_j","playlistName":"مقرأة الفجر - بداية من سورة الإسراء حتى سورة الناس","category":"تفسير"},{"id":"WdmgRr0cUBw","title":"قراءة القرآن ( من آية 114 سورة الصافات)","publishedAt":"2015-08-24T04:11:51Z","duration":"PT30M52S","thumbnail":"https://i.ytimg.com/vi/WdmgRr0cUBw/mqdefault.jpg","viewCount":"115","playlistId":"PLEkQk5xrP-tnUSUj0uyJhA-kwNC7Gkx_j","playlistName":"مقرأة الفجر - بداية من سورة الإسراء حتى سورة الناس","category":"تفسير"},{"id":"teDCmLb-Bhs","title":"قراءة القرآن ( من آية 75 سورة الصافات)","publishedAt":"2015-08-23T04:07:05Z","duration":"PT24M","thumbnail":"https://i.ytimg.com/vi/teDCmLb-Bhs/mqdefault.jpg","viewCount":"138","playlistId":"PLEkQk5xrP-tnUSUj0uyJhA-kwNC7Gkx_j","playlistName":"مقرأة الفجر - بداية من سورة الإسراء حتى سورة الناس","category":"تفسير"},{"id":"ksb1_lhzsas","title":"قراءة القرآن (من أول سورة الإخلاص وسورة الفلق وسورة الناس) ودعاء هذه الختمة المباركة","publishedAt":"2016-04-10T11:03:17Z","duration":"PT45M39S","thumbnail":"https://i.ytimg.com/vi/ksb1_lhzsas/mqdefault.jpg","viewCount":"460","playlistId":"PLEkQk5xrP-tnUSUj0uyJhA-kwNC7Gkx_j","playlistName":"مقرأة الفجر - بداية من سورة الإسراء حتى سورة الناس","category":"تفسير"},{"id":"1kanSe9bSpI","title":"قراءة القرآن ( من آية 40 سورة سبإ)","publishedAt":"2015-08-15T03:42:42Z","duration":"PT15M17S","thumbnail":"https://i.ytimg.com/vi/1kanSe9bSpI/mqdefault.jpg","viewCount":"103","playlistId":"PLEkQk5xrP-tnUSUj0uyJhA-kwNC7Gkx_j","playlistName":"مقرأة الفجر - بداية من سورة الإسراء حتى سورة الناس","category":"تفسير"},{"id":"AzHxoOSHkec","title":"قراءة القرآن (من أول سورة عبس)","publishedAt":"2016-03-07T11:32:05Z","duration":"PT23M29S","thumbnail":"https://i.ytimg.com/vi/AzHxoOSHkec/mqdefault.jpg","viewCount":"223","playlistId":"PLEkQk5xrP-tnUSUj0uyJhA-kwNC7Gkx_j","playlistName":"مقرأة الفجر - بداية من سورة الإسراء حتى سورة الناس","category":"تفسير"},{"id":"vo22AQYmH5g","title":"قراءة القرآن (من أول سورة النازعات)","publishedAt":"2016-03-05T10:55:23Z","duration":"PT31M30S","thumbnail":"https://i.ytimg.com/vi/vo22AQYmH5g/mqdefault.jpg","viewCount":"106","playlistId":"PLEkQk5xrP-tnUSUj0uyJhA-kwNC7Gkx_j","playlistName":"مقرأة الفجر - بداية من سورة الإسراء حتى سورة الناس","category":"تفسير"},{"id":"4Jz37mBQVPg","title":"قراءة القرآن ( من أول سورة النبأ )","publishedAt":"2016-03-05T10:18:06Z","duration":"PT14M14S","thumbnail":"https://i.ytimg.com/vi/4Jz37mBQVPg/mqdefault.jpg","viewCount":"134","playlistId":"PLEkQk5xrP-tnUSUj0uyJhA-kwNC7Gkx_j","playlistName":"مقرأة الفجر - بداية من سورة الإسراء حتى سورة الناس","category":"تفسير"},{"id":"hLUxHbxakuw","title":"قراءة القرآن (من أول سورة المرسلات)","publishedAt":"2016-03-05T10:17:18Z","duration":"PT22M19S","thumbnail":"https://i.ytimg.com/vi/hLUxHbxakuw/mqdefault.jpg","viewCount":"76","playlistId":"PLEkQk5xrP-tnUSUj0uyJhA-kwNC7Gkx_j","playlistName":"مقرأة الفجر - بداية من سورة الإسراء حتى سورة الناس","category":"تفسير"},{"id":"HpRyWJkxFJ8","title":"قراءة القرآن (من أول سورة الإنسان)","publishedAt":"2016-03-02T07:20:27Z","duration":"PT25M5S","thumbnail":"https://i.ytimg.com/vi/HpRyWJkxFJ8/mqdefault.jpg","viewCount":"88","playlistId":"PLEkQk5xrP-tnUSUj0uyJhA-kwNC7Gkx_j","playlistName":"مقرأة الفجر - بداية من سورة الإسراء حتى سورة الناس","category":"تفسير"}],"total":142,"page":3,"pageSize":24,"totalPages":6}