{"items":[{"id":"UOIs7Rt8UNA","title":"قراءة القرآن (من أول سورة المدثر)","publishedAt":"2016-02-29T08:47:20Z","duration":"PT31M54S","thumbnail":"https://i.ytimg.com/vi/UOIs7Rt8UNA/mqdefault.jpg","viewCount":"92","playlistId":"PLEkQk5xrP-tnUSUj0uyJhA-kwNC7Gkx_j","playlistName":"مقرأة الفجر - بداية من سورة الإسراء حتى سورة الناس","category":"تفسير"},{"id":"cKNaL6TiSw4","title":"قراءة القرآن (من أول سورة المزمل)","publishedAt":"2016-02-28T09:23:47Z","duration":"PT21M48S","thumbnail":"https://i.ytimg.com/vi/cKNaL6TiSw4/mqdefault.jpg","viewCount":"91","playlistId":"PLEkQk5xrP-tnUSUj0uyJhA-kwNC7Gkx_j","playlistName":"مقرأة الفجر - بداية من سورة الإسراء حتى سورة الناس","category":"تفسير"},{"id":"grcUwcD3oCk","title":"قراءة القرآن (من أول سورة الجن)","publishedAt":"2016-02-28T07:27:00Z","duration":"PT25M8S","thumbnail":"https://i.ytimg.com/vi/grcUwcD3oCk/mqdefault.jpg","viewCount":"158","playlistId":"PLEkQk5xrP-tnUSUj0uyJhA-kwNC7Gkx_j","playlistName":"مقرأة الفجر - بداية من سورة الإسراء حتى سورة الناس","category":"تفسير"},{"id":"bnX9WLFsnIg","title":"مقدمة سورة الجن","publishedAt":"2016-02-27T06:52:52Z","duration":"PT22M50S","thumbnail":"https://i.ytimg.com/vi/bnX9WLFsnIg/mqdefault.jpg","viewCount":"320","playlistId":"PLEkQk5xrP-tnUSUj0uyJhA-kwNC7Gkx_j","playlistName":"مقرأة الفجر - بداية من سورة الإسراء حتى سورة الناس","category":"تفسير"},{"id":"O8vkKv_I_sg","title":"قراءة القرآن (من أول سورة نوح)","publishedAt":"2016-02-25T07:47:49Z","duration":"PT26M54S","thumbnail":"https://i.ytimg.com/vi/O8vkKv_I_sg/mqdefault.jpg","viewCount":"111","playlistId":"PLEkQk5xrP-tnUSUj0uyJhA-kwNC7Gkx_j","playlistName":"مقرأة الفجر - بداية من سورة الإسراء حتى سورة الناس","category":"تفسير"},{"id":"GzNjiiVVvPU","title":"قراءة القرآن (من آية ٢٩ سورة المعارج)","publishedAt":"2016-02-24T07:24:02Z","duration":"PT17M59S","thumbnail":"https://i.ytimg.com/vi/GzNjiiVVvPU/mqdefault.jpg","viewCount":"122","playlistId":"PLEkQk5xrP-tnUSUj0uyJhA-kwNC7Gkx_j","playlistName":"مقرأة الفجر - بداية من سورة الإسراء حتى سورة الناس","category":"تفسير"},{"id":"Ldfz5DS8Ch0","title":"قراءة القرآن (من أول سورة المعارج)","publishedAt":"2016-02-23T09:49:02Z","duration":"PT27M58S","thumbnail":"https://i.ytimg.com/vi/Ldfz5DS8Ch0/mqdefault.jpg","viewCount":"105","playlistId":"PLEkQk5xrP-tnUSUj0uyJhA-kwNC7Gkx_j","playlistName":"مقرأة الفجر - بداية من سورة الإسراء حتى سورة الناس","category":"تفسير"},{"id":"xRQJ4xa3dLs","title":"قراءة القرآن (من أول سورة الحاقة)","publishedAt":"2016-02-23T07:14:24Z","duration":"PT18M41S","thumbnail":"https://i.ytimg.com/vi/xRQJ4xa3dLs/mqdefault.jpg","viewCount":"87","playlistId":"PLEkQk5xrP-tnUSUj0uyJhA-kwNC7Gkx_j","playlistName":"مقرأة الفجر - بداية من سورة الإسراء حتى سورة الناس","category":"تفسير"},{"id":"nDZfqkPZqII","title":"قراءة القرآن (من آية ٣٤ سورة القلم)","publishedAt":"2016-02-01T16:00:14Z","duration":"PT10M6S","thumbnail":"https://i.ytimg.com/vi/nDZfqkPZqII/mqdefault.jpg","viewCount":"100","playlistId":"PLEkQk5xrP-tnUSUj0uyJhA-kwNC7Gkx_j","playlistName":"مقرأة الفجر - بداية من سورة الإسراء حتى سورة الناس","category":"تفسير"},{"id":"Tx3rtrzFfzQ","title":"قراءة القرآن ( من أول سورة الصافات)","publishedAt":"2015-08-22T03:59:12Z","duration":"PT20M31S","thumbnail":"https://i.ytimg.com/vi/Tx3rtrzFfzQ/mqdefault.jpg","viewCount":"92","playlistId":"PLEkQk5xrP-tnUSUj0uyJhA-kwNC7Gkx_j","playlistName":"مقرأة الفجر - بداية من سورة الإسراء حتى سورة الناس","category":"تفسير"},{"id":"t0oFeXTASmk","title":"قراءة القرآن ( من آية 45 سورة يس)","publishedAt":"2015-08-21T04:32:54Z","duration":"PT23M56S","thumbnail":"https://i.ytimg.com/vi/t0oFeXTASmk/mqdefault.jpg","viewCount":"644","playlistId":"PLEkQk5xrP-tnUSUj0uyJhA-kwNC7Gkx_j","playlistName":"مقرأة الفجر - بداية من سورة الإسراء حتى سورة الناس","category":"تفسير"},{"id":"QiL1oss_BOc","title":"قراءة القرآن (من أول سورة القلم)","publishedAt":"2016-02-01T02:57:27Z","duration":"PT31M1S","thumbnail":"https://i.ytimg.com/vi/QiL1oss_BOc/mqdefault.jpg","viewCount":"213","playlistId":"PLEkQk5xrP-tnUSUj0uyJhA-kwNC7Gkx_j","playlistName":"مقرأة الفجر - بداية من سورة الإسراء حتى سورة الناس","category":"تفسير"},{"id":"ENDw4lMBlCg","title":"قراءة القرآن (من آية ١٦ سورة الملك)","publishedAt":"2016-01-30T08:46:18Z","duration":"PT12M12S","thumbnail":"https://i.ytimg.com/vi/ENDw4lMBlCg/mqdefault.jpg","viewCount":"160","playlistId":"PLEkQk5xrP-tnUSUj0uyJhA-kwNC7Gkx_j","playlistName":"مقرأة الفجر - بداية من سورة الإسراء حتى سورة الناس","category":"تفسير"},{"id":"oeqdy5pB93k","title":"قراءة القرآن (من أول سورة الملك)","publishedAt":"2016-01-29T07:10:36Z","duration":"PT18M46S","thumbnail":"https://i.ytimg.com/vi/oeqdy5pB93k/mqdefault.jpg","viewCount":"136","playlistId":"PLEkQk5xrP-tnUSUj0uyJhA-kwNC7Gkx_j","playlistName":"مقرأة الفجر - بداية من سورة الإسراء حتى سورة الناس","category":"تفسير"},{"id":"ETjuh9eKIOU","title":"قراءة القرآن ( من أول سورة سبإ )","publishedAt":"2015-08-12T03:57:26Z","duration":"PT21M10S","thumbnail":"https://i.ytimg.com/vi/ETjuh9eKIOU/mqdefault.jpg","viewCount":"152","playlistId":"PLEkQk5xrP-tnUSUj0uyJhA-kwNC7Gkx_j","playlistName":"مقرأة الفجر - بداية من سورة الإسراء حتى سورة الناس","category":"تفسير"},{"id":"e71G9EWqdtU","title":"قراءة القرآن (من آية 53 في سورة الأحزاب)","publishedAt":"2015-08-11T03:51:47Z","duration":"PT22M21S","thumbnail":"https://i.ytimg.com/vi/e71G9EWqdtU/mqdefault.jpg","viewCount":"813","playlistId":"PLEkQk5xrP-tnUSUj0uyJhA-kwNC7Gkx_j","playlistName":"مقرأة الفجر - بداية من سورة الإسراء حتى سورة الناس","category":"تفسير"},{"id":"nmTRYHuGSx4","title":"قراءة القرآن (من آية 45 سورة الأحزاب)","publishedAt":"2015-08-10T03:31:00Z","duration":"PT7M32S","thumbnail":"https://i.ytimg.com/vi/nmTRYHuGSx4/mqdefault.jpg","viewCount":"116","playlistId":"PLEkQk5xrP-tnUSUj0uyJhA-kwNC7Gkx_j","playlistName":"مقرأة الفجر - بداية من سورة الإسراء حتى سورة الناس","category":"تفسير"},{"id":"GKu4ua4yu5U","title":"قراءة القرآن (من آية 35 سورة الأحزاب)","publishedAt":"2015-08-09T03:35:54Z","duration":"PT11M11S","thumbnail":"https://i.ytimg.com/vi/GKu4ua4yu5U/mqdefault.jpg","viewCount":"93","playlistId":"PLEkQk5xrP-tnUSUj0uyJhA-kwNC7Gkx_j","playlistName":"مقرأة الفجر - بداية من سورة الإسراء حتى سورة الناس","category":"تفسير"},{"id":"w2EJEXQbqlg","title":"قراءة القرآن (من آية 25 سورة الأحزاب)","publishedAt":"2015-08-08T04:00:52Z","duration":"PT29M46S","thumbnail":"https://i.ytimg.com/vi/w2EJEXQbqlg/mqdefault.jpg","viewCount":"823","playlistId":"PLEkQk5xrP-tnUSUj0uyJhA-kwNC7Gkx_j","playlistName":"مقرأة الفجر - بداية من سورة الإسراء حتى سورة الناس","category":"تفسير"},{"id":"tQ2mTUIcrNw","title":"قراءة القرآن (من آية 18 سورة الأحزاب)","publishedAt":"2015-08-07T03:55:26Z","duration":"PT9M26S","thumbnail":"https://i.ytimg.com/vi/tQ2mTUIcrNw/mqdefault.jpg","viewCount":"80","playlistId":"PLEkQk5xrP-tnUSUj0uyJhA-kwNC7Gkx_j","playlistName":"مقرأة الفجر - بداية من سورة الإسراء حتى سورة الناس","category":"تفسير"},{"id":"Rl2tiLPLG18","title":"قراءة القرآن (من آية 9 سورة الأحزاب)","publishedAt":"2015-08-06T03:56:57Z","duration":"PT7M11S","thumbnail":"https://i.ytimg.com/vi/Rl2tiLPLG18/mqdefault.jpg","viewCount":"138","playlistId":"PLEkQk5xrP-tnUSUj0uyJhA-kwNC7Gkx_j","playlistName":"مقرأة الفجر - بداية من سورة الإسراء حتى سورة الناس","category":"تفسير"},{"id":"F1nPq0zg8b4","title":"قراءة القرآن (من أول سورة الأحزاب)","publishedAt":"2015-08-05T03:39:04Z","duration":"PT8M36S","thumbnail":"https://i.ytimg.com/vi/F1nPq0zg8b4/mqdefault.jpg","viewCount":"88","playlistId":"PLEkQk5xrP-tnUSUj0uyJhA-kwNC7Gkx_j","playlistName":"مقرأة الفجر - بداية من سورة الإسراء حتى سورة الناس","category":"تفسير"},{"id":"elqE64oawtU","title":"قراءة القرآن (من آية 16 سورة السجدة)","publishedAt":"2015-08-04T03:40:02Z","duration":"PT11M21S","thumbnail":"https://i.ytimg.com/vi/elqE64oawtU/mqdefault.jpg","viewCount":"234","playlistId":"PLEkQk5xrP-tnUSUj0uyJhA-kwNC7Gkx_j","playlistName":"مقرأة الفجر - بداية من سورة الإسراء حتى سورة الناس","category":"تفسير"},{"id":"isY0HRRZBHc","title":"قراءة القرآن (من أول سورة السجدة)","publishedAt":"2015-08-03T03:42:01Z","duration":"PT20M49S","thumbnail":"https://i.ytimg.com/vi/isY0HRRZBHc/mqdefault.jpg","viewCount":"192","playlistId":"PLEkQk5xrP-tnUSUj0uyJhA-kwNC7Gkx_j","playlistName":"مقرأة الفجر - بداية من سورة الإسراء حتى سورة الناس","category":"تفسير"}],"total":142,"page":5,"pageSize":24,"totalPages":6}