{"items":[{"id":"mMvgoq6WETY","title":"22- شرح مسند الإمام الشافعيّ رضي الله عنه - الحديث (472)","publishedAt":"2021-09-27T09:29:48Z","duration":"PT54M59S","thumbnail":"https://i.ytimg.com/vi/mMvgoq6WETY/mqdefault.jpg","viewCount":"1200","playlistId":"PLEkQk5xrP-tlDtaqY0qhNXAiZ19gaGzKI","playlistName":"شرح مسند الإمام محمد بن إدريس الشافعيّ رضي الله تعالى عنه","category":"فقه"},{"id":"0ODQpq7cIiw","title":"40- حُكْمُ بَيْعِ السَّلَمِ (السَّلَفِ)","publishedAt":"2022-03-11T06:00:09Z","duration":"PT55M31S","thumbnail":"https://i.ytimg.com/vi/0ODQpq7cIiw/mqdefault.jpg","viewCount":"1190","playlistId":"PLEkQk5xrP-tlDtaqY0qhNXAiZ19gaGzKI","playlistName":"شرح مسند الإمام محمد بن إدريس الشافعيّ رضي الله تعالى عنه","category":"فقه"},{"id":"0VP6XUZjPhY","title":"14- شرائط وجوب الصلاة - شرح فتح القريب المجيب","publishedAt":"2021-10-05T11:50:06Z","duration":"PT1H7M30S","thumbnail":"https://i.ytimg.com/vi/0VP6XUZjPhY/mqdefault.jpg","viewCount":"1178","playlistId":"PLEkQk5xrP-tkXuPs-0sXfWQDWzBKmcjWN","playlistName":"\"فتح القريب المجيب في شرح ألفاظ التقريب\"( فقه شافعيّ)  أ. د. يسري جبر","category":"فقه"},{"id":"bm-KxWtuEgY","title":"20- \"…يعطي شاتين أو عشرين درهما…\" الحديث (410)  شرح مسند الإمام الشافعيّ رضي الله عنه.","publishedAt":"2021-09-06T06:36:42Z","duration":"PT1H36S","thumbnail":"https://i.ytimg.com/vi/bm-KxWtuEgY/mqdefault.jpg","viewCount":"1171","playlistId":"PLEkQk5xrP-tlDtaqY0qhNXAiZ19gaGzKI","playlistName":"شرح مسند الإمام محمد بن إدريس الشافعيّ رضي الله تعالى عنه","category":"فقه"},{"id":"rXO8QeAFDLc","title":"شرح كتاب فتح القريب المجيب «فصل صلاة العيدين» د. يسري رشدي جبر","publishedAt":"2015-09-08T23:36:57Z","duration":"PT50M30S","thumbnail":"https://i.ytimg.com/vi/rXO8QeAFDLc/mqdefault.jpg","viewCount":"1160","playlistId":"PLEkQk5xrP-tlyOgfNBZTZgoATzVW4mI20","playlistName":"كتاب فتح القريب المجيب (علم الفقه الشافعي)","category":"فقه"},{"id":"azFYWRb7YxM","title":"43- دِيَةُ الجَنينِ الذي سَقَطَ ميتًا","publishedAt":"2022-03-21T06:36:38Z","duration":"PT44M10S","thumbnail":"https://i.ytimg.com/vi/azFYWRb7YxM/mqdefault.jpg","viewCount":"1157","playlistId":"PLEkQk5xrP-tlDtaqY0qhNXAiZ19gaGzKI","playlistName":"شرح مسند الإمام محمد بن إدريس الشافعيّ رضي الله تعالى عنه","category":"فقه"},{"id":"irwpD8Vkfsc","title":"شرح كتاب فتح القريب المجيب فصلٌ في نصاب الزروع د. يسري رشدي جبر","publishedAt":"2015-12-11T23:02:17Z","duration":"PT1H36M4S","thumbnail":"https://i.ytimg.com/vi/irwpD8Vkfsc/mqdefault.jpg","viewCount":"1154","playlistId":"PLEkQk5xrP-tlyOgfNBZTZgoATzVW4mI20","playlistName":"كتاب فتح القريب المجيب (علم الفقه الشافعي)","category":"فقه"},{"id":"O4jyin34pgM","title":"58- أحكامُ الزَّواج والتَّعدُّد - شرح مسند الإمام الشافعي رضي الله عنه","publishedAt":"2022-11-10T09:00:13Z","duration":"PT36M52S","thumbnail":"https://i.ytimg.com/vi/O4jyin34pgM/mqdefault.jpg","viewCount":"1117","playlistId":"PLEkQk5xrP-tlDtaqY0qhNXAiZ19gaGzKI","playlistName":"شرح مسند الإمام محمد بن إدريس الشافعيّ رضي الله تعالى عنه","category":"فقه"},{"id":"Y-M8EUcWSdQ","title":"34- واجبات الحَجِّ - شرح كتاب فتح القريب المجيب","publishedAt":"2021-07-14T19:10:09Z","duration":"PT1H7M9S","thumbnail":"https://i.ytimg.com/vi/Y-M8EUcWSdQ/mqdefault.jpg","viewCount":"1113","playlistId":"PLEkQk5xrP-tnXN9VywgB4qmBFO8geIZTV","playlistName":"أحكام الحج من كتاب فتح القريب المجيب","category":"فقه"},{"id":"qlqkesUuGNc","title":"34- فضائل يوم عاشوراء","publishedAt":"2022-02-14T08:16:09Z","duration":"PT57M37S","thumbnail":"https://i.ytimg.com/vi/qlqkesUuGNc/mqdefault.jpg","viewCount":"1101","playlistId":"PLEkQk5xrP-tlDtaqY0qhNXAiZ19gaGzKI","playlistName":"شرح مسند الإمام محمد بن إدريس الشافعيّ رضي الله تعالى عنه","category":"فقه"},{"id":"T9a0VBkeysg","title":"41- أحكامُ الرَّهْن","publishedAt":"2022-03-22T07:21:51Z","duration":"PT53M52S","thumbnail":"https://i.ytimg.com/vi/T9a0VBkeysg/mqdefault.jpg","viewCount":"1098","playlistId":"PLEkQk5xrP-tkXuPs-0sXfWQDWzBKmcjWN","playlistName":"\"فتح القريب المجيب في شرح ألفاظ التقريب\"( فقه شافعيّ)  أ. د. يسري جبر","category":"فقه"},{"id":"5iFSiHfbtkQ","title":"40- أحكام السَّلَم - شرح كتاب فتح القريب المجيب","publishedAt":"2021-11-11T21:38:43Z","duration":"PT35M4S","thumbnail":"https://i.ytimg.com/vi/5iFSiHfbtkQ/mqdefault.jpg","viewCount":"1092","playlistId":"PLEkQk5xrP-tkXuPs-0sXfWQDWzBKmcjWN","playlistName":"\"فتح القريب المجيب في شرح ألفاظ التقريب\"( فقه شافعيّ)  أ. د. يسري جبر","category":"فقه"},{"id":"e3TslTEo9uE","title":"12- فصل في الحيض والنفاس والاستحاضة - شرح كتاب فتح القريب المجيب","publishedAt":"2021-10-03T13:02:25Z","duration":"PT1H4M4S","thumbnail":"https://i.ytimg.com/vi/e3TslTEo9uE/mqdefault.jpg","viewCount":"1088","playlistId":"PLEkQk5xrP-tkXuPs-0sXfWQDWzBKmcjWN","playlistName":"\"فتح القريب المجيب في شرح ألفاظ التقريب\"( فقه شافعيّ)  أ. د. يسري جبر","category":"فقه"},{"id":"83Y0D5hI3kg","title":"37- أحكام البيوع وغيرها من المعاملات - شرح كتاب فتح القريب المجيب","publishedAt":"2021-11-09T06:09:36Z","duration":"PT45M16S","thumbnail":"https://i.ytimg.com/vi/83Y0D5hI3kg/mqdefault.jpg","viewCount":"1075","playlistId":"PLEkQk5xrP-tkXuPs-0sXfWQDWzBKmcjWN","playlistName":"\"فتح القريب المجيب في شرح ألفاظ التقريب\"( فقه شافعيّ)  أ. د. يسري جبر","category":"فقه"},{"id":"sFFqWm9aK7Y","title":"22- أحكام صلاة الجمعة - شرح كتاب فتح القريب المجيب","publishedAt":"2021-10-14T10:41:24Z","duration":"PT1H26M36S","thumbnail":"https://i.ytimg.com/vi/sFFqWm9aK7Y/mqdefault.jpg","viewCount":"1056","playlistId":"PLEkQk5xrP-tkXuPs-0sXfWQDWzBKmcjWN","playlistName":"\"فتح القريب المجيب في شرح ألفاظ التقريب\"( فقه شافعيّ)  أ. د. يسري جبر","category":"فقه"},{"id":"tJZkDHhVuRw","title":"38- الرِّبَا - شرح كتاب فتح القريب المجيب","publishedAt":"2021-11-10T06:19:02Z","duration":"PT49M32S","thumbnail":"https://i.ytimg.com/vi/tJZkDHhVuRw/mqdefault.jpg","viewCount":"1032","playlistId":"PLEkQk5xrP-tkXuPs-0sXfWQDWzBKmcjWN","playlistName":"\"فتح القريب المجيب في شرح ألفاظ التقريب\"( فقه شافعيّ)  أ. د. يسري جبر","category":"فقه"},{"id":"50eTflHCQf4","title":"شرح مسند الإمام محمد بن إدريس الشافعيّ رضي الله تعالى عنه - المجلس السابع  أ.د. يسري جبر","publishedAt":"2019-12-22T12:00:12Z","duration":"PT51M56S","thumbnail":"https://i.ytimg.com/vi/50eTflHCQf4/mqdefault.jpg","viewCount":"991","playlistId":"PLEkQk5xrP-tlDtaqY0qhNXAiZ19gaGzKI","playlistName":"شرح مسند الإمام محمد بن إدريس الشافعيّ رضي الله تعالى عنه","category":"فقه"},{"id":"nqk_i9FCOAE","title":"66- الفرق بين الفيء والغنيمة وحكم كل منهما - شرح مسند الإمام الشافعي رضي الله عنه","publishedAt":"2023-02-06T05:00:31Z","duration":"PT43M24S","thumbnail":"https://i.ytimg.com/vi/nqk_i9FCOAE/mqdefault.jpg","viewCount":"990","playlistId":"PLEkQk5xrP-tlDtaqY0qhNXAiZ19gaGzKI","playlistName":"شرح مسند الإمام محمد بن إدريس الشافعيّ رضي الله تعالى عنه","category":"فقه"},{"id":"F6dfbTYhyUs","title":"65- قتال أهل البغي - شرح مسند الإمام الشافعي رضي الله تعالى عنه","publishedAt":"2023-01-30T05:00:11Z","duration":"PT45M18S","thumbnail":"https://i.ytimg.com/vi/F6dfbTYhyUs/mqdefault.jpg","viewCount":"984","playlistId":"PLEkQk5xrP-tlDtaqY0qhNXAiZ19gaGzKI","playlistName":"شرح مسند الإمام محمد بن إدريس الشافعيّ رضي الله تعالى عنه","category":"فقه"},{"id":"NFT2kGvK1w4","title":"35- محظورات الإحرام - شرح كتاب فتح القريب المجيب","publishedAt":"2021-07-13T19:00:04Z","duration":"PT1H32S","thumbnail":"https://i.ytimg.com/vi/NFT2kGvK1w4/mqdefault.jpg","viewCount":"966","playlistId":"PLEkQk5xrP-tnXN9VywgB4qmBFO8geIZTV","playlistName":"أحكام الحج من كتاب فتح القريب المجيب","category":"فقه"},{"id":"RRHUnoKvNIc","title":"46- حكمُ مَن صلَّى الفريضةَ ثم أتى المسجدَ فوجدَ الإمام يصلي","publishedAt":"2022-08-17T05:30:06Z","duration":"PT54M5S","thumbnail":"https://i.ytimg.com/vi/RRHUnoKvNIc/mqdefault.jpg","viewCount":"956","playlistId":"PLEkQk5xrP-tlDtaqY0qhNXAiZ19gaGzKI","playlistName":"شرح مسند الإمام محمد بن إدريس الشافعيّ رضي الله تعالى عنه","category":"فقه"},{"id":"OZS75wFCNwU","title":"17- الأحاديث الواردة في صلاة الكسوف - شرح مسند الإمام الشافعي المجلس 17","publishedAt":"2021-08-16T05:39:09Z","duration":"PT53M21S","thumbnail":"https://i.ytimg.com/vi/OZS75wFCNwU/mqdefault.jpg","viewCount":"952","playlistId":"PLEkQk5xrP-tlDtaqY0qhNXAiZ19gaGzKI","playlistName":"شرح مسند الإمام محمد بن إدريس الشافعيّ رضي الله تعالى عنه","category":"فقه"},{"id":"n_k4lJa1-pw","title":"29- عَقْدُ السَّلَم (بيَعُ السَّلَف)- الحديث (679) من أبواب المعاملات","publishedAt":"2022-01-01T07:43:46Z","duration":"PT45M30S","thumbnail":"https://i.ytimg.com/vi/n_k4lJa1-pw/mqdefault.jpg","viewCount":"951","playlistId":"PLEkQk5xrP-tlDtaqY0qhNXAiZ19gaGzKI","playlistName":"شرح مسند الإمام محمد بن إدريس الشافعيّ رضي الله تعالى عنه","category":"فقه"},{"id":"UjleIgMprcM","title":"25- فصلٌ في اللباس - شرح كتاب فتح القريب المجيب","publishedAt":"2021-10-17T10:40:45Z","duration":"PT1H6M36S","thumbnail":"https://i.ytimg.com/vi/UjleIgMprcM/mqdefault.jpg","viewCount":"928","playlistId":"PLEkQk5xrP-tkXuPs-0sXfWQDWzBKmcjWN","playlistName":"\"فتح القريب المجيب في شرح ألفاظ التقريب\"( فقه شافعيّ)  أ. د. يسري جبر","category":"فقه"}],"total":144,"page":4,"pageSize":24,"totalPages":6}