{"items":[{"id":"Ytrh34bdOOg","title":"شرح مسند الإمام محمد بن إدريس الشافعيّ رضي الله تعالى عنه - المجلس الثامن  أ.د. يسري جبر","publishedAt":"2020-01-11T13:07:43Z","duration":"PT58M17S","thumbnail":"https://i.ytimg.com/vi/Ytrh34bdOOg/mqdefault.jpg","viewCount":"926","playlistId":"PLEkQk5xrP-tlDtaqY0qhNXAiZ19gaGzKI","playlistName":"شرح مسند الإمام محمد بن إدريس الشافعيّ رضي الله تعالى عنه","category":"فقه"},{"id":"y7e1yEazOps","title":"شرح كتاب فتح القريب المجيب «فصلٌ في صلاة الكسوف والخسوف» د. يسري رشدي جبر","publishedAt":"2015-10-14T23:00:48Z","duration":"PT1H7M48S","thumbnail":"https://i.ytimg.com/vi/y7e1yEazOps/mqdefault.jpg","viewCount":"915","playlistId":"PLEkQk5xrP-tlyOgfNBZTZgoATzVW4mI20","playlistName":"كتاب فتح القريب المجيب (علم الفقه الشافعي)","category":"فقه"},{"id":"u1xEqhh9_XU","title":"32- يَحرُمُ صيام خمسة أيام - شرح كتاب فتح القريب المجيب","publishedAt":"2021-11-02T10:55:10Z","duration":"PT1H13M52S","thumbnail":"https://i.ytimg.com/vi/u1xEqhh9_XU/mqdefault.jpg","viewCount":"914","playlistId":"PLEkQk5xrP-tkXuPs-0sXfWQDWzBKmcjWN","playlistName":"\"فتح القريب المجيب في شرح ألفاظ التقريب\"( فقه شافعيّ)  أ. د. يسري جبر","category":"فقه"},{"id":"YlV57RzMi00","title":"44- الحديث 1020 - شرح مسند الإمام الشافعي رضي الله عنه","publishedAt":"2022-08-08T06:17:01Z","duration":"PT48M40S","thumbnail":"https://i.ytimg.com/vi/YlV57RzMi00/mqdefault.jpg","viewCount":"907","playlistId":"PLEkQk5xrP-tlDtaqY0qhNXAiZ19gaGzKI","playlistName":"شرح مسند الإمام محمد بن إدريس الشافعيّ رضي الله تعالى عنه","category":"فقه"},{"id":"arv1ohzTqyQ","title":"27- كتاب أحكام الزكاة - شرح كتاب فتح القريب المجيب","publishedAt":"2021-10-22T20:34:36Z","duration":"PT45M29S","thumbnail":"https://i.ytimg.com/vi/arv1ohzTqyQ/mqdefault.jpg","viewCount":"900","playlistId":"PLEkQk5xrP-tkXuPs-0sXfWQDWzBKmcjWN","playlistName":"\"فتح القريب المجيب في شرح ألفاظ التقريب\"( فقه شافعيّ)  أ. د. يسري جبر","category":"فقه"},{"id":"ajGpkbm2eH0","title":"شرح مسند الإمام محمد بن إدريس الشافعيّ رضي الله تعالى عنه - المجلس التاسع  أ.د. يسري جبر","publishedAt":"2020-01-12T08:51:47Z","duration":"PT59M29S","thumbnail":"https://i.ytimg.com/vi/ajGpkbm2eH0/mqdefault.jpg","viewCount":"884","playlistId":"PLEkQk5xrP-tlDtaqY0qhNXAiZ19gaGzKI","playlistName":"شرح مسند الإمام محمد بن إدريس الشافعيّ رضي الله تعالى عنه","category":"فقه"},{"id":"a83_n2r7cVs","title":"31- نواقض الصيام - شرح كتاب فتح القريب المجيب","publishedAt":"2021-10-31T03:12:09Z","duration":"PT1H22M21S","thumbnail":"https://i.ytimg.com/vi/a83_n2r7cVs/mqdefault.jpg","viewCount":"884","playlistId":"PLEkQk5xrP-tkXuPs-0sXfWQDWzBKmcjWN","playlistName":"\"فتح القريب المجيب في شرح ألفاظ التقريب\"( فقه شافعيّ)  أ. د. يسري جبر","category":"فقه"},{"id":"zaT8fTTlR64","title":"49- كيف نفهمُ حَدّ السَّرِقَة؟","publishedAt":"2022-09-18T06:00:26Z","duration":"PT51M37S","thumbnail":"https://i.ytimg.com/vi/zaT8fTTlR64/mqdefault.jpg","viewCount":"882","playlistId":"PLEkQk5xrP-tlDtaqY0qhNXAiZ19gaGzKI","playlistName":"شرح مسند الإمام محمد بن إدريس الشافعيّ رضي الله تعالى عنه","category":"فقه"},{"id":"0-PLkgj1Klg","title":"26- حُكْمُ استخدام الطِيب للمُحْرِم - من كتاب المناسك - شرح مسند الإمام الشافعيّ رضي الله عنه","publishedAt":"2021-10-17T06:39:32Z","duration":"PT59M7S","thumbnail":"https://i.ytimg.com/vi/0-PLkgj1Klg/mqdefault.jpg","viewCount":"868","playlistId":"PLEkQk5xrP-tlDtaqY0qhNXAiZ19gaGzKI","playlistName":"شرح مسند الإمام محمد بن إدريس الشافعيّ رضي الله تعالى عنه","category":"فقه"},{"id":"1Fn1Ci45xi0","title":"29- نصاب الزروع - شرح كتاب فتح القريب المجيب","publishedAt":"2021-10-27T01:48:28Z","duration":"PT1H36M4S","thumbnail":"https://i.ytimg.com/vi/1Fn1Ci45xi0/mqdefault.jpg","viewCount":"847","playlistId":"PLEkQk5xrP-tkXuPs-0sXfWQDWzBKmcjWN","playlistName":"\"فتح القريب المجيب في شرح ألفاظ التقريب\"( فقه شافعيّ)  أ. د. يسري جبر","category":"فقه"},{"id":"pHGIhe3Flic","title":"39- الاختيار - شرح كتاب فتح القريب المجيب","publishedAt":"2021-11-11T06:40:17Z","duration":"PT41M6S","thumbnail":"https://i.ytimg.com/vi/pHGIhe3Flic/mqdefault.jpg","viewCount":"842","playlistId":"PLEkQk5xrP-tkXuPs-0sXfWQDWzBKmcjWN","playlistName":"\"فتح القريب المجيب في شرح ألفاظ التقريب\"( فقه شافعيّ)  أ. د. يسري جبر","category":"فقه"},{"id":"7YyfOSc_Jfc","title":"شرح مسند الإمام محمد بن إدريس الشافعيّ رضي الله تعالى عنه - المجلس العاشر  أ.د. يسري جبر","publishedAt":"2020-01-19T14:45:17Z","duration":"PT54M12S","thumbnail":"https://i.ytimg.com/vi/7YyfOSc_Jfc/mqdefault.jpg","viewCount":"827","playlistId":"PLEkQk5xrP-tlDtaqY0qhNXAiZ19gaGzKI","playlistName":"شرح مسند الإمام محمد بن إدريس الشافعيّ رضي الله تعالى عنه","category":"فقه"},{"id":"KtkBOn0IT4A","title":"28- \"…لَا تَقْتُلُوا الصَّيْدَ وَأَنتُمْ حُرُمٌ…\" - الحديث (649) كتاب المناسك","publishedAt":"2021-12-30T07:10:51Z","duration":"PT57M13S","thumbnail":"https://i.ytimg.com/vi/KtkBOn0IT4A/mqdefault.jpg","viewCount":"823","playlistId":"PLEkQk5xrP-tlDtaqY0qhNXAiZ19gaGzKI","playlistName":"شرح مسند الإمام محمد بن إدريس الشافعيّ رضي الله تعالى عنه","category":"فقه"},{"id":"RobRT7DUeGE","title":"36- الدماء الواجبة في الإحرام - شرح كتاب فتح القريب المجيب","publishedAt":"2021-07-15T19:00:13Z","duration":"PT46M44S","thumbnail":"https://i.ytimg.com/vi/RobRT7DUeGE/mqdefault.jpg","viewCount":"823","playlistId":"PLEkQk5xrP-tnXN9VywgB4qmBFO8geIZTV","playlistName":"أحكام الحج من كتاب فتح القريب المجيب","category":"فقه"},{"id":"q8v_F6F5kA8","title":"كِتابُ العِيدين - شرح مسند الإمام الشافعي المجلس 16  أ.د. يسري جبر","publishedAt":"2020-04-26T12:27:54Z","duration":"PT56M38S","thumbnail":"https://i.ytimg.com/vi/q8v_F6F5kA8/mqdefault.jpg","viewCount":"804","playlistId":"PLEkQk5xrP-tlDtaqY0qhNXAiZ19gaGzKI","playlistName":"شرح مسند الإمام محمد بن إدريس الشافعيّ رضي الله تعالى عنه","category":"فقه"},{"id":"m9rDdmIfxK0","title":"شرح كتاب فتح القريب المجيب فصلٌ في نصاب الإبل د. يسري رشدي جبر","publishedAt":"2015-11-13T12:44:44Z","duration":"PT25M22S","thumbnail":"https://i.ytimg.com/vi/m9rDdmIfxK0/mqdefault.jpg","viewCount":"776","playlistId":"PLEkQk5xrP-tlyOgfNBZTZgoATzVW4mI20","playlistName":"كتاب فتح القريب المجيب (علم الفقه الشافعي)","category":"فقه"},{"id":"kGYqQ1mWU-w","title":"31- حُكْمُ مَن اشترى الثمارَ قَبلَ بُدُوِّ صَلَاحِها - الحديث \"727” من كتاب البيوع والمعاملات.","publishedAt":"2022-01-05T07:30:14Z","duration":"PT39M59S","thumbnail":"https://i.ytimg.com/vi/kGYqQ1mWU-w/mqdefault.jpg","viewCount":"771","playlistId":"PLEkQk5xrP-tlDtaqY0qhNXAiZ19gaGzKI","playlistName":"شرح مسند الإمام محمد بن إدريس الشافعيّ رضي الله تعالى عنه","category":"فقه"},{"id":"_Y511U_2tEE","title":"شرح مسند الإمام محمد بن إدريس الشافعيّ رضي الله تعالى عنه - المجلس الثاني عشر  أ.د. يسري جبر","publishedAt":"2020-02-01T18:02:19Z","duration":"PT47M35S","thumbnail":"https://i.ytimg.com/vi/_Y511U_2tEE/mqdefault.jpg","viewCount":"770","playlistId":"PLEkQk5xrP-tlDtaqY0qhNXAiZ19gaGzKI","playlistName":"شرح مسند الإمام محمد بن إدريس الشافعيّ رضي الله تعالى عنه","category":"فقه"},{"id":"hotUJ4071Pg","title":"23- صلاة العيدين - شرح كتاب فتح القريب المجيب","publishedAt":"2021-10-15T14:19:53Z","duration":"PT50M30S","thumbnail":"https://i.ytimg.com/vi/hotUJ4071Pg/mqdefault.jpg","viewCount":"763","playlistId":"PLEkQk5xrP-tkXuPs-0sXfWQDWzBKmcjWN","playlistName":"\"فتح القريب المجيب في شرح ألفاظ التقريب\"( فقه شافعيّ)  أ. د. يسري جبر","category":"فقه"},{"id":"f_VyZqd8TUM","title":"25- حُكْمُ مَن جَاوزَ المواقيت غير مُحْرِم - من كتاب المناسك - شرح مسند الإمام الشافعيّ رضي الله عنه","publishedAt":"2021-10-09T06:31:49Z","duration":"PT1H1M50S","thumbnail":"https://i.ytimg.com/vi/f_VyZqd8TUM/mqdefault.jpg","viewCount":"754","playlistId":"PLEkQk5xrP-tlDtaqY0qhNXAiZ19gaGzKI","playlistName":"شرح مسند الإمام محمد بن إدريس الشافعيّ رضي الله تعالى عنه","category":"فقه"},{"id":"iKiN_MJ181I","title":"24- من كتاب المناسك - شرح مسند الإمام الشافعيّ رضي الله عنه - الحديث (516)","publishedAt":"2021-10-08T06:16:40Z","duration":"PT1H1M29S","thumbnail":"https://i.ytimg.com/vi/iKiN_MJ181I/mqdefault.jpg","viewCount":"753","playlistId":"PLEkQk5xrP-tlDtaqY0qhNXAiZ19gaGzKI","playlistName":"شرح مسند الإمام محمد بن إدريس الشافعيّ رضي الله تعالى عنه","category":"فقه"},{"id":"z-d-aDtPwn0","title":"شرح مسند الإمام محمد بن إدريس الشافعيّ رضي الله تعالى عنه - المجلس الحادي عشر  أ.د. يسري جبر","publishedAt":"2020-01-25T18:44:59Z","duration":"PT50M54S","thumbnail":"https://i.ytimg.com/vi/z-d-aDtPwn0/mqdefault.jpg","viewCount":"750","playlistId":"PLEkQk5xrP-tlDtaqY0qhNXAiZ19gaGzKI","playlistName":"شرح مسند الإمام محمد بن إدريس الشافعيّ رضي الله تعالى عنه","category":"فقه"},{"id":"5gaobAwj5QQ","title":"26- فصل فيما يتعلق بالميت من غسله وتكفينه والصلاة عليه ودفنه - شرح كتاب فتح القريب المجيب","publishedAt":"2021-10-19T23:13:03Z","duration":"PT1H33M15S","thumbnail":"https://i.ytimg.com/vi/5gaobAwj5QQ/mqdefault.jpg","viewCount":"717","playlistId":"PLEkQk5xrP-tkXuPs-0sXfWQDWzBKmcjWN","playlistName":"\"فتح القريب المجيب في شرح ألفاظ التقريب\"( فقه شافعيّ)  أ. د. يسري جبر","category":"فقه"},{"id":"SCaeqWVIC4E","title":"30- أحكام الصيام - شرح كتاب فتح القريب المجيب","publishedAt":"2021-10-30T02:51:37Z","duration":"PT28M37S","thumbnail":"https://i.ytimg.com/vi/SCaeqWVIC4E/mqdefault.jpg","viewCount":"700","playlistId":"PLEkQk5xrP-tkXuPs-0sXfWQDWzBKmcjWN","playlistName":"\"فتح القريب المجيب في شرح ألفاظ التقريب\"( فقه شافعيّ)  أ. د. يسري جبر","category":"فقه"}],"total":144,"page":5,"pageSize":24,"totalPages":6}