{"items":[{"id":"nG-qPU4ndLY","title":"شرح فتح القريب المجيب - كتاب أحكام الأيمان والنذور","publishedAt":"2017-01-07T14:49:02Z","duration":"PT31M35S","thumbnail":"https://i.ytimg.com/vi/nG-qPU4ndLY/mqdefault.jpg","viewCount":"698","playlistId":"PLEkQk5xrP-tlyOgfNBZTZgoATzVW4mI20","playlistName":"كتاب فتح القريب المجيب (علم الفقه الشافعي)","category":"فقه"},{"id":"2keSnqhuxWg","title":"24- صلاةُ الكسوف والخسوف","publishedAt":"2021-10-16T11:21:11Z","duration":"PT1H7M47S","thumbnail":"https://i.ytimg.com/vi/2keSnqhuxWg/mqdefault.jpg","viewCount":"680","playlistId":"PLEkQk5xrP-tkXuPs-0sXfWQDWzBKmcjWN","playlistName":"\"فتح القريب المجيب في شرح ألفاظ التقريب\"( فقه شافعيّ)  أ. د. يسري جبر","category":"فقه"},{"id":"nA1TYEno3CA","title":"52- حكم ادّخار الأضحية والأكل منها بعد ثلاث","publishedAt":"2022-10-04T06:16:00Z","duration":"PT45M27S","thumbnail":"https://i.ytimg.com/vi/nA1TYEno3CA/mqdefault.jpg","viewCount":"648","playlistId":"PLEkQk5xrP-tlDtaqY0qhNXAiZ19gaGzKI","playlistName":"شرح مسند الإمام محمد بن إدريس الشافعيّ رضي الله تعالى عنه","category":"فقه"},{"id":"XDIyKh7jElY","title":"شرح فتح القريب المجيب كتاب أحكام الأقضية والشهادات - المجلس الثاني","publishedAt":"2017-02-24T09:43:51Z","duration":"PT23M43S","thumbnail":"https://i.ytimg.com/vi/XDIyKh7jElY/mqdefault.jpg","viewCount":"642","playlistId":"PLEkQk5xrP-tlyOgfNBZTZgoATzVW4mI20","playlistName":"كتاب فتح القريب المجيب (علم الفقه الشافعي)","category":"فقه"},{"id":"SUBDBbkmtS0","title":"56- الخُلْعُ و النُّشُوز - شرح مسند الإمام الشافعي رضي الله عنه","publishedAt":"2022-10-31T09:00:15Z","duration":"PT52M30S","thumbnail":"https://i.ytimg.com/vi/SUBDBbkmtS0/mqdefault.jpg","viewCount":"629","playlistId":"PLEkQk5xrP-tlDtaqY0qhNXAiZ19gaGzKI","playlistName":"شرح مسند الإمام محمد بن إدريس الشافعيّ رضي الله تعالى عنه","category":"فقه"},{"id":"Ca87A-SGr-U","title":"23- شرح مسند الإمام الشافعيّ رضي الله عنه - من كتاب الصيام الكبير- الحديث (497)","publishedAt":"2021-10-02T03:05:32Z","duration":"PT51M26S","thumbnail":"https://i.ytimg.com/vi/Ca87A-SGr-U/mqdefault.jpg","viewCount":"625","playlistId":"PLEkQk5xrP-tlDtaqY0qhNXAiZ19gaGzKI","playlistName":"شرح مسند الإمام محمد بن إدريس الشافعيّ رضي الله تعالى عنه","category":"فقه"},{"id":"TkWfgE7FW7c","title":"64- أحكام الرَّضَاع - شرح مسند الإمام الشافعي رضي الله عنه","publishedAt":"2023-01-10T09:00:13Z","duration":"PT43M1S","thumbnail":"https://i.ytimg.com/vi/TkWfgE7FW7c/mqdefault.jpg","viewCount":"620","playlistId":"PLEkQk5xrP-tlDtaqY0qhNXAiZ19gaGzKI","playlistName":"شرح مسند الإمام محمد بن إدريس الشافعيّ رضي الله تعالى عنه","category":"فقه"},{"id":"-K-07R2lghA","title":"60- كُلُ شَرَابٍ أَسْكَرَ  فَهُوَ حَرَامٌ - شرح مسند الامام الشافعي رضي الله عنه","publishedAt":"2022-11-17T05:00:00Z","duration":"PT36M22S","thumbnail":"https://i.ytimg.com/vi/-K-07R2lghA/mqdefault.jpg","viewCount":"618","playlistId":"PLEkQk5xrP-tlDtaqY0qhNXAiZ19gaGzKI","playlistName":"شرح مسند الإمام محمد بن إدريس الشافعيّ رضي الله تعالى عنه","category":"فقه"},{"id":"5aeRnn0Wg_Y","title":"28- فصلٌ في نِصاب الِإبل - شرح كتاب فتح القريب المجيب","publishedAt":"2021-10-24T11:28:36Z","duration":"PT25M21S","thumbnail":"https://i.ytimg.com/vi/5aeRnn0Wg_Y/mqdefault.jpg","viewCount":"609","playlistId":"PLEkQk5xrP-tkXuPs-0sXfWQDWzBKmcjWN","playlistName":"\"فتح القريب المجيب في شرح ألفاظ التقريب\"( فقه شافعيّ)  أ. د. يسري جبر","category":"فقه"},{"id":"_eLi-10PryQ","title":"63- حكم أُمِّ الولدِ إذا ماتَ سَيِّدُهَا - شرح مسند الإمام الشافعي رضي الله عنه","publishedAt":"2022-12-12T05:15:01Z","duration":"PT45M21S","thumbnail":"https://i.ytimg.com/vi/_eLi-10PryQ/mqdefault.jpg","viewCount":"607","playlistId":"PLEkQk5xrP-tlDtaqY0qhNXAiZ19gaGzKI","playlistName":"شرح مسند الإمام محمد بن إدريس الشافعيّ رضي الله تعالى عنه","category":"فقه"},{"id":"zNNfI4tmz-M","title":"57- الوَلاءُ لمن أعتق - شرح مسند الإمام الشافعي رضي الله عنه","publishedAt":"2022-11-07T09:00:35Z","duration":"PT58M36S","thumbnail":"https://i.ytimg.com/vi/zNNfI4tmz-M/mqdefault.jpg","viewCount":"604","playlistId":"PLEkQk5xrP-tlDtaqY0qhNXAiZ19gaGzKI","playlistName":"شرح مسند الإمام محمد بن إدريس الشافعيّ رضي الله تعالى عنه","category":"فقه"},{"id":"9h85yoU5wOs","title":"شرح فتح القريب المجيب كتاب أحكام الأقضية والشهادات - المجلس الأول","publishedAt":"2017-02-09T08:24:36Z","duration":"PT43M35S","thumbnail":"https://i.ytimg.com/vi/9h85yoU5wOs/mqdefault.jpg","viewCount":"603","playlistId":"PLEkQk5xrP-tlyOgfNBZTZgoATzVW4mI20","playlistName":"كتاب فتح القريب المجيب (علم الفقه الشافعي)","category":"فقه"},{"id":"feK6ys36gMk","title":"شرح مسند الإمام محمد بن إدريس الشافعيّ رضي الله تعالى عنه - المجلس الثالث عشر  أ.د. يسري جبر","publishedAt":"2020-02-10T13:30:31Z","duration":"PT44M2S","thumbnail":"https://i.ytimg.com/vi/feK6ys36gMk/mqdefault.jpg","viewCount":"599","playlistId":"PLEkQk5xrP-tlDtaqY0qhNXAiZ19gaGzKI","playlistName":"شرح مسند الإمام محمد بن إدريس الشافعيّ رضي الله تعالى عنه","category":"فقه"},{"id":"QA-rrIqafOA","title":"61- حَدُّ شَاربِ الخَمْر - شرح مسند الإمام الشافعي رضي الله عنه","publishedAt":"2022-11-21T09:00:14Z","duration":"PT45M58S","thumbnail":"https://i.ytimg.com/vi/QA-rrIqafOA/mqdefault.jpg","viewCount":"598","playlistId":"PLEkQk5xrP-tlDtaqY0qhNXAiZ19gaGzKI","playlistName":"شرح مسند الإمام محمد بن إدريس الشافعيّ رضي الله تعالى عنه","category":"فقه"},{"id":"jKCXioiEOFk","title":"39- حُكْمُ الصَّيْدِ لِلْمُحْرِمِ","publishedAt":"2022-03-09T03:46:01Z","duration":"PT50M41S","thumbnail":"https://i.ytimg.com/vi/jKCXioiEOFk/mqdefault.jpg","viewCount":"584","playlistId":"PLEkQk5xrP-tlDtaqY0qhNXAiZ19gaGzKI","playlistName":"شرح مسند الإمام محمد بن إدريس الشافعيّ رضي الله تعالى عنه","category":"فقه"},{"id":"9oqSTTHhpVg","title":"62- التعريض بالخِطبة - شرح مسند الإمام الشافعي رضي الله عنه","publishedAt":"2022-11-28T09:00:06Z","duration":"PT47M42S","thumbnail":"https://i.ytimg.com/vi/9oqSTTHhpVg/mqdefault.jpg","viewCount":"582","playlistId":"PLEkQk5xrP-tlDtaqY0qhNXAiZ19gaGzKI","playlistName":"شرح مسند الإمام محمد بن إدريس الشافعيّ رضي الله تعالى عنه","category":"فقه"},{"id":"2yeLoSrVRy4","title":"21- من كتاب الزكاة من أوله إلا ما كان معادا - الحديث (434)","publishedAt":"2021-09-18T03:20:37Z","duration":"PT54M53S","thumbnail":"https://i.ytimg.com/vi/2yeLoSrVRy4/mqdefault.jpg","viewCount":"563","playlistId":"PLEkQk5xrP-tlDtaqY0qhNXAiZ19gaGzKI","playlistName":"شرح مسند الإمام محمد بن إدريس الشافعيّ رضي الله تعالى عنه","category":"فقه"},{"id":"WD_93I3UTC4","title":"شرح مسند الإمام محمد بن إدريس الشافعيّ رضي الله تعالى عنه - المجلس الرابع عشر  أ.د. يسري جبر","publishedAt":"2020-02-17T10:29:44Z","duration":"PT48M37S","thumbnail":"https://i.ytimg.com/vi/WD_93I3UTC4/mqdefault.jpg","viewCount":"563","playlistId":"PLEkQk5xrP-tlDtaqY0qhNXAiZ19gaGzKI","playlistName":"شرح مسند الإمام محمد بن إدريس الشافعيّ رضي الله تعالى عنه","category":"فقه"},{"id":"YuUNYB56gtg","title":"50- حكم إفطار المرأة الحامل إذا خافت على ولدها","publishedAt":"2022-09-19T06:00:07Z","duration":"PT42M24S","thumbnail":"https://i.ytimg.com/vi/YuUNYB56gtg/mqdefault.jpg","viewCount":"534","playlistId":"PLEkQk5xrP-tlDtaqY0qhNXAiZ19gaGzKI","playlistName":"شرح مسند الإمام محمد بن إدريس الشافعيّ رضي الله تعالى عنه","category":"فقه"},{"id":"YQZCHTXVCgE","title":"شرح مسند الإمام محمد بن إدريس الشافعيّ رضي الله تعالى عنه - المجلس الخامس عشر  أ.د. يسري جبر","publishedAt":"2020-02-26T03:54:38Z","duration":"PT42M32S","thumbnail":"https://i.ytimg.com/vi/YQZCHTXVCgE/mqdefault.jpg","viewCount":"527","playlistId":"PLEkQk5xrP-tlDtaqY0qhNXAiZ19gaGzKI","playlistName":"شرح مسند الإمام محمد بن إدريس الشافعيّ رضي الله تعالى عنه","category":"فقه"},{"id":"ysHyBZxiUpU","title":"55- حكم بيع جزء من اللحم المذبوح بآخَر لم يتم ذبحه","publishedAt":"2022-10-17T05:50:00Z","duration":"PT58M3S","thumbnail":"https://i.ytimg.com/vi/ysHyBZxiUpU/mqdefault.jpg","viewCount":"498","playlistId":"PLEkQk5xrP-tlDtaqY0qhNXAiZ19gaGzKI","playlistName":"شرح مسند الإمام محمد بن إدريس الشافعيّ رضي الله تعالى عنه","category":"فقه"},{"id":"ZF2fTn-o-_M","title":"شرح كتاب فتح القريب - فصل في أحكام الأضحية والعقيقة","publishedAt":"2016-11-26T16:35:21Z","duration":"PT49M10S","thumbnail":"https://i.ytimg.com/vi/ZF2fTn-o-_M/mqdefault.jpg","viewCount":"454","playlistId":"PLEkQk5xrP-tlyOgfNBZTZgoATzVW4mI20","playlistName":"كتاب فتح القريب المجيب (علم الفقه الشافعي)","category":"فقه"},{"id":"cmI7idNnea4","title":"شرح كتاب فتح القريب ( فصل في أحكام الأطعمة )","publishedAt":"2016-11-14T04:30:57Z","duration":"PT32M56S","thumbnail":"https://i.ytimg.com/vi/cmI7idNnea4/mqdefault.jpg","viewCount":"436","playlistId":"PLEkQk5xrP-tlyOgfNBZTZgoATzVW4mI20","playlistName":"كتاب فتح القريب المجيب (علم الفقه الشافعي)","category":"فقه"},{"id":"FzdnH4RYI-o","title":"شرح فتح القريب المجيب - كتاب أحكام السبق والرمي","publishedAt":"2016-12-21T18:26:02Z","duration":"PT24M29S","thumbnail":"https://i.ytimg.com/vi/FzdnH4RYI-o/mqdefault.jpg","viewCount":"404","playlistId":"PLEkQk5xrP-tlyOgfNBZTZgoATzVW4mI20","playlistName":"كتاب فتح القريب المجيب (علم الفقه الشافعي)","category":"فقه"}],"total":144,"page":6,"pageSize":24,"totalPages":6}