{"items":[{"id":"XjXsSnRzhF8","title":"27- المسح على الرُّكْنِ اليَمَانِي والحَجَر - الحديث (614) كتاب المناسك","publishedAt":"2021-12-28T07:03:50Z","duration":"PT52M18S","thumbnail":"https://i.ytimg.com/vi/XjXsSnRzhF8/mqdefault.jpg","viewCount":"1483","playlistId":"PLEkQk5xrP-tlDtaqY0qhNXAiZ19gaGzKI","playlistName":"شرح مسند الإمام محمد بن إدريس الشافعيّ رضي الله تعالى عنه","category":"فقه"},{"id":"ZU1fVJxmQ_E","title":"9- المسح على الخُفَّين - شرح كتاب فتح القريب المجيب","publishedAt":"2021-09-30T03:38:30Z","duration":"PT1H14M45S","thumbnail":"https://i.ytimg.com/vi/ZU1fVJxmQ_E/mqdefault.jpg","viewCount":"1473","playlistId":"PLEkQk5xrP-tkXuPs-0sXfWQDWzBKmcjWN","playlistName":"\"فتح القريب المجيب في شرح ألفاظ التقريب\"( فقه شافعيّ)  أ. د. يسري جبر","category":"فقه"},{"id":"QGhRYW0Iec0","title":"37- رَفْعُ اليَدَيْنِ في الصَّلَاةِ","publishedAt":"2022-02-21T05:19:09Z","duration":"PT47M22S","thumbnail":"https://i.ytimg.com/vi/QGhRYW0Iec0/mqdefault.jpg","viewCount":"1455","playlistId":"PLEkQk5xrP-tlDtaqY0qhNXAiZ19gaGzKI","playlistName":"شرح مسند الإمام محمد بن إدريس الشافعيّ رضي الله تعالى عنه","category":"فقه"},{"id":"czpocw-HWnQ","title":"33 -اختلاف الحديث وتَرْك المُعَاد منها","publishedAt":"2022-01-24T07:09:32Z","duration":"PT46M55S","thumbnail":"https://i.ytimg.com/vi/czpocw-HWnQ/mqdefault.jpg","viewCount":"1448","playlistId":"PLEkQk5xrP-tlDtaqY0qhNXAiZ19gaGzKI","playlistName":"شرح مسند الإمام محمد بن إدريس الشافعيّ رضي الله تعالى عنه","category":"فقه"},{"id":"jCXZS_fngBo","title":"21- باب قصر الصلاة وجمعها - شرح كتاب فتح القريب المجيب","publishedAt":"2021-10-13T10:57:05Z","duration":"PT1H5M52S","thumbnail":"https://i.ytimg.com/vi/jCXZS_fngBo/mqdefault.jpg","viewCount":"1436","playlistId":"PLEkQk5xrP-tkXuPs-0sXfWQDWzBKmcjWN","playlistName":"\"فتح القريب المجيب في شرح ألفاظ التقريب\"( فقه شافعيّ)  أ. د. يسري جبر","category":"فقه"},{"id":"nT8B2jXwQ4Q","title":"41- حُكْمُ الطَّلاقِ البِدعي (طلاق الحائض)","publishedAt":"2022-03-14T06:00:50Z","duration":"PT41M44S","thumbnail":"https://i.ytimg.com/vi/nT8B2jXwQ4Q/mqdefault.jpg","viewCount":"1426","playlistId":"PLEkQk5xrP-tlDtaqY0qhNXAiZ19gaGzKI","playlistName":"شرح مسند الإمام محمد بن إدريس الشافعيّ رضي الله تعالى عنه","category":"فقه"},{"id":"G00lVTbylHU","title":"42- لا يحلُّ قتلُ امرئ مسلم إلَّا بإحدى ثلاث: كفرٌ بعد إيمان أو زنا بعد إحصان أو قتلُ نفْس بغير نفس","publishedAt":"2022-03-19T07:24:36Z","duration":"PT51M28S","thumbnail":"https://i.ytimg.com/vi/G00lVTbylHU/mqdefault.jpg","viewCount":"1418","playlistId":"PLEkQk5xrP-tlDtaqY0qhNXAiZ19gaGzKI","playlistName":"شرح مسند الإمام محمد بن إدريس الشافعيّ رضي الله تعالى عنه","category":"فقه"},{"id":"YgdrH7bLAZI","title":"17- سنن الصلاة بعد الدخول فيها - شرح كتاب فتح القريب المجيب","publishedAt":"2021-10-09T11:18:31Z","duration":"PT1H14M13S","thumbnail":"https://i.ytimg.com/vi/YgdrH7bLAZI/mqdefault.jpg","viewCount":"1414","playlistId":"PLEkQk5xrP-tkXuPs-0sXfWQDWzBKmcjWN","playlistName":"\"فتح القريب المجيب في شرح ألفاظ التقريب\"( فقه شافعيّ)  أ. د. يسري جبر","category":"فقه"},{"id":"Sk78Y2jLW-U","title":"30 - هل العبد من الأجناس الربوية؟ - الحديث 695 من كتاب البيوع والمعاملات.","publishedAt":"2022-01-03T08:39:25Z","duration":"PT53M22S","thumbnail":"https://i.ytimg.com/vi/Sk78Y2jLW-U/mqdefault.jpg","viewCount":"1412","playlistId":"PLEkQk5xrP-tlDtaqY0qhNXAiZ19gaGzKI","playlistName":"شرح مسند الإمام محمد بن إدريس الشافعيّ رضي الله تعالى عنه","category":"فقه"},{"id":"a0FMWMB15Iw","title":"شرح مسند الإمام محمد بن إدريس الشافعيّ رضي الله تعالى عنه - المجلس الخامس  أ.د. يسري جبر","publishedAt":"2019-12-04T18:40:46Z","duration":"PT48M25S","thumbnail":"https://i.ytimg.com/vi/a0FMWMB15Iw/mqdefault.jpg","viewCount":"1386","playlistId":"PLEkQk5xrP-tlDtaqY0qhNXAiZ19gaGzKI","playlistName":"شرح مسند الإمام محمد بن إدريس الشافعيّ رضي الله تعالى عنه","category":"فقه"},{"id":"jLHSxsszVmA","title":"10- فصل فى التَّيمُّم - شرح كتاب فتح القريب المجيب","publishedAt":"2021-10-01T03:40:21Z","duration":"PT1H24M3S","thumbnail":"https://i.ytimg.com/vi/jLHSxsszVmA/mqdefault.jpg","viewCount":"1347","playlistId":"PLEkQk5xrP-tkXuPs-0sXfWQDWzBKmcjWN","playlistName":"\"فتح القريب المجيب في شرح ألفاظ التقريب\"( فقه شافعيّ)  أ. د. يسري جبر","category":"فقه"},{"id":"PEuOSErirtg","title":"شرح كتاب فتح القريب المجيب كتاب الجنائز «فصل فيما يتعلق بالميت من غسله وتكفينه» د. يسري رشدي جبر","publishedAt":"2015-10-28T18:59:12Z","duration":"PT1H33M15S","thumbnail":"https://i.ytimg.com/vi/PEuOSErirtg/mqdefault.jpg","viewCount":"1343","playlistId":"PLEkQk5xrP-tlyOgfNBZTZgoATzVW4mI20","playlistName":"كتاب فتح القريب المجيب (علم الفقه الشافعي)","category":"فقه"},{"id":"0VIAeWvvE5I","title":"15-  شرائط الصلاة قبل الدخول فيها خمسة أشياء - شرح فتح القريب المجيب","publishedAt":"2021-10-06T10:33:38Z","duration":"PT1H7M1S","thumbnail":"https://i.ytimg.com/vi/0VIAeWvvE5I/mqdefault.jpg","viewCount":"1334","playlistId":"PLEkQk5xrP-tkXuPs-0sXfWQDWzBKmcjWN","playlistName":"\"فتح القريب المجيب في شرح ألفاظ التقريب\"( فقه شافعيّ)  أ. د. يسري جبر","category":"فقه"},{"id":"FwqIcR0RaFA","title":"19- \" …أنَّ النَّبيَّ ﷺ صام في سفره إلى مكة عام الفتح…\" - شرح مسند الإمام الشافعيّ رضي الله عنه.","publishedAt":"2021-08-30T07:34:01Z","duration":"PT58M39S","thumbnail":"https://i.ytimg.com/vi/FwqIcR0RaFA/mqdefault.jpg","viewCount":"1320","playlistId":"PLEkQk5xrP-tlDtaqY0qhNXAiZ19gaGzKI","playlistName":"شرح مسند الإمام محمد بن إدريس الشافعيّ رضي الله تعالى عنه","category":"فقه"},{"id":"8S8bwLVYqpw","title":"16- أركان الصلاة - شرح كتاب فتح القريب المجيب","publishedAt":"2021-10-08T11:12:11Z","duration":"PT1H6M5S","thumbnail":"https://i.ytimg.com/vi/8S8bwLVYqpw/mqdefault.jpg","viewCount":"1303","playlistId":"PLEkQk5xrP-tkXuPs-0sXfWQDWzBKmcjWN","playlistName":"\"فتح القريب المجيب في شرح ألفاظ التقريب\"( فقه شافعيّ)  أ. د. يسري جبر","category":"فقه"},{"id":"uMJZndErreU","title":"20- الأوقاتُ التى تُكْرَهُ الصلاة فيها - شرح كتاب فتح القريب المجيب","publishedAt":"2021-10-12T11:15:38Z","duration":"PT1H31M45S","thumbnail":"https://i.ytimg.com/vi/uMJZndErreU/mqdefault.jpg","viewCount":"1301","playlistId":"PLEkQk5xrP-tkXuPs-0sXfWQDWzBKmcjWN","playlistName":"\"فتح القريب المجيب في شرح ألفاظ التقريب\"( فقه شافعيّ)  أ. د. يسري جبر","category":"فقه"},{"id":"v0nUrHDjh-k","title":"32- طُرُقُ إثْبَاتِ الحُقُوق - من كتاب اليمين مع الشاهد الواحد","publishedAt":"2022-01-22T07:26:58Z","duration":"PT46M33S","thumbnail":"https://i.ytimg.com/vi/v0nUrHDjh-k/mqdefault.jpg","viewCount":"1294","playlistId":"PLEkQk5xrP-tlDtaqY0qhNXAiZ19gaGzKI","playlistName":"شرح مسند الإمام محمد بن إدريس الشافعيّ رضي الله تعالى عنه","category":"فقه"},{"id":"eWG58bNAYZQ","title":"18- فصلٌ في أمور تخالفُ فيها المرأةُ الرجلَ في الصلاة - شرح كتاب فتح القريب المجيب","publishedAt":"2021-10-10T10:47:12Z","duration":"PT1H1M57S","thumbnail":"https://i.ytimg.com/vi/eWG58bNAYZQ/mqdefault.jpg","viewCount":"1291","playlistId":"PLEkQk5xrP-tkXuPs-0sXfWQDWzBKmcjWN","playlistName":"\"فتح القريب المجيب في شرح ألفاظ التقريب\"( فقه شافعيّ)  أ. د. يسري جبر","category":"فقه"},{"id":"RhiRF2ntMPI","title":"51- قوله تعالى \"وَرَفَعْنَا لَكَ ذِكْرَكَ\" - شرح مسند الإمام الشافعي رضي الله عنه","publishedAt":"2022-09-26T06:00:06Z","duration":"PT53M50S","thumbnail":"https://i.ytimg.com/vi/RhiRF2ntMPI/mqdefault.jpg","viewCount":"1284","playlistId":"PLEkQk5xrP-tlDtaqY0qhNXAiZ19gaGzKI","playlistName":"شرح مسند الإمام محمد بن إدريس الشافعيّ رضي الله تعالى عنه","category":"فقه"},{"id":"goxE2tLTVT0","title":"شرح كتاب فتح القريب المجيب «فصلٌ في اللباس» د. يسري رشدي جبر","publishedAt":"2015-10-23T17:54:57Z","duration":"PT1H6M36S","thumbnail":"https://i.ytimg.com/vi/goxE2tLTVT0/mqdefault.jpg","viewCount":"1281","playlistId":"PLEkQk5xrP-tlyOgfNBZTZgoATzVW4mI20","playlistName":"كتاب فتح القريب المجيب (علم الفقه الشافعي)","category":"فقه"},{"id":"uuWdq0KhMg4","title":"47- حكم أداء العمرة في شوال قبل الحج","publishedAt":"2022-08-22T05:35:00Z","duration":"PT1H8M2S","thumbnail":"https://i.ytimg.com/vi/uuWdq0KhMg4/mqdefault.jpg","viewCount":"1274","playlistId":"PLEkQk5xrP-tlDtaqY0qhNXAiZ19gaGzKI","playlistName":"شرح مسند الإمام محمد بن إدريس الشافعيّ رضي الله تعالى عنه","category":"فقه"},{"id":"QC5974HEMJA","title":"6- شرح مسند الإمام محمد بن إدريس الشافعيّ رضي الله تعالى عنه - المجلس السادس  أ.د. يسري جبر","publishedAt":"2019-12-11T14:34:02Z","duration":"PT58M8S","thumbnail":"https://i.ytimg.com/vi/QC5974HEMJA/mqdefault.jpg","viewCount":"1266","playlistId":"PLEkQk5xrP-tlDtaqY0qhNXAiZ19gaGzKI","playlistName":"شرح مسند الإمام محمد بن إدريس الشافعيّ رضي الله تعالى عنه","category":"فقه"},{"id":"viQPQu9jDbU","title":"54- \"أَكْرِمُوا أصحابي ثم الذين يلونهم ثم الذين يلونهم…\"","publishedAt":"2022-10-13T07:30:17Z","duration":"PT52M43S","thumbnail":"https://i.ytimg.com/vi/viQPQu9jDbU/mqdefault.jpg","viewCount":"1219","playlistId":"PLEkQk5xrP-tlDtaqY0qhNXAiZ19gaGzKI","playlistName":"شرح مسند الإمام محمد بن إدريس الشافعيّ رضي الله تعالى عنه","category":"فقه"},{"id":"-2z3z0NGHu8","title":"19- تابع ركعات الفرائض  - شرح كتاب فتح القريب المجيب","publishedAt":"2021-10-11T10:53:16Z","duration":"PT1H15M7S","thumbnail":"https://i.ytimg.com/vi/-2z3z0NGHu8/mqdefault.jpg","viewCount":"1208","playlistId":"PLEkQk5xrP-tkXuPs-0sXfWQDWzBKmcjWN","playlistName":"\"فتح القريب المجيب في شرح ألفاظ التقريب\"( فقه شافعيّ)  أ. د. يسري جبر","category":"فقه"}],"total":144,"page":3,"pageSize":24,"totalPages":6}