{"items":[{"id":"trZOb6jk35w","title":"الرد على تعليقات بعض المتابعين","publishedAt":"2021-10-16T17:36:42Z","duration":"PT10M53S","thumbnail":"https://i.ytimg.com/vi/trZOb6jk35w/mqdefault.jpg","viewCount":"9230","playlistId":"PLEkQk5xrP-tkGXuZ9atE3k_7it12rUPTs","playlistName":"أسئلة المتابعين","category":"متنوع"},{"id":"0HmHl1_GvyE","title":"كيف أسامح من ظلمني؟","publishedAt":"2021-12-04T18:56:16Z","duration":"PT8M35S","thumbnail":"https://i.ytimg.com/vi/0HmHl1_GvyE/mqdefault.jpg","viewCount":"5465","playlistId":"PLEkQk5xrP-tkGXuZ9atE3k_7it12rUPTs","playlistName":"أسئلة المتابعين","category":"متنوع"},{"id":"173t4XewDZA","title":"حكم زيارة قبور الصالحين وطلب المدد منهم","publishedAt":"2023-01-12T18:00:00Z","duration":"PT10M25S","thumbnail":"https://i.ytimg.com/vi/173t4XewDZA/mqdefault.jpg","viewCount":"16132","playlistId":"PLEkQk5xrP-tkGXuZ9atE3k_7it12rUPTs","playlistName":"أسئلة المتابعين","category":"متنوع"},{"id":"zXwrMtgitOQ","title":"كيف حققت النجاح في دراستك وعملك؟","publishedAt":"2023-01-10T18:15:11Z","duration":"PT8M25S","thumbnail":"https://i.ytimg.com/vi/zXwrMtgitOQ/mqdefault.jpg","viewCount":"9698","playlistId":"PLEkQk5xrP-tkGXuZ9atE3k_7it12rUPTs","playlistName":"أسئلة المتابعين","category":"متنوع"},{"id":"KHTBzK42yPw","title":"حكم الاحتفال بالمولد النبوي","publishedAt":"2021-10-13T21:00:04Z","duration":"PT8M41S","thumbnail":"https://i.ytimg.com/vi/KHTBzK42yPw/mqdefault.jpg","viewCount":"18053","playlistId":"PLEkQk5xrP-tkGXuZ9atE3k_7it12rUPTs","playlistName":"أسئلة المتابعين","category":"متنوع"},{"id":"Ur_cX3z-yQs","title":"أهمية التقويم الهجري في حياتنا وما هي الصلاة الوسطى؟","publishedAt":"2025-06-24T16:00:48Z","duration":"PT9M4S","thumbnail":"https://i.ytimg.com/vi/Ur_cX3z-yQs/mqdefault.jpg","viewCount":"1995","playlistId":"PLEkQk5xrP-tkGXuZ9atE3k_7it12rUPTs","playlistName":"أسئلة المتابعين","category":"متنوع"},{"id":"UpRZQczwaxs","title":"ازاي أرضى بما قسمه الله لي؟","publishedAt":"2025-06-23T18:44:52Z","duration":"PT12M41S","thumbnail":"https://i.ytimg.com/vi/UpRZQczwaxs/mqdefault.jpg","viewCount":"6980","playlistId":"PLEkQk5xrP-tkGXuZ9atE3k_7it12rUPTs","playlistName":"أسئلة المتابعين","category":"متنوع"},{"id":"_SzeWlOI_XQ","title":"هل يجوز أن أمسك يد خطيبتي لتلبيس الدبلة؟","publishedAt":"2022-04-15T19:30:06Z","duration":"PT9M5S","thumbnail":"https://i.ytimg.com/vi/_SzeWlOI_XQ/mqdefault.jpg","viewCount":"5521","playlistId":"PLEkQk5xrP-tkGXuZ9atE3k_7it12rUPTs","playlistName":"أسئلة المتابعين","category":"متنوع"},{"id":"jnBYc2Llks8","title":"هل المدافن في مصر توافق الشريعة الإسلامية؟","publishedAt":"2022-04-13T19:30:05Z","duration":"PT12M51S","thumbnail":"https://i.ytimg.com/vi/jnBYc2Llks8/mqdefault.jpg","viewCount":"18331","playlistId":"PLEkQk5xrP-tkGXuZ9atE3k_7it12rUPTs","playlistName":"أسئلة المتابعين","category":"متنوع"},{"id":"PnOUpfAz-OA","title":"هل لبس السلسلة حرام للرجال؟","publishedAt":"2021-10-06T19:56:53Z","duration":"PT8M59S","thumbnail":"https://i.ytimg.com/vi/PnOUpfAz-OA/mqdefault.jpg","viewCount":"5967","playlistId":"PLEkQk5xrP-tkGXuZ9atE3k_7it12rUPTs","playlistName":"أسئلة المتابعين","category":"متنوع"},{"id":"RpBTb-KUdEM","title":"الرد على التساؤلات الوهابية","publishedAt":"2021-10-05T17:26:53Z","duration":"PT9M47S","thumbnail":"https://i.ytimg.com/vi/RpBTb-KUdEM/mqdefault.jpg","viewCount":"9820","playlistId":"PLEkQk5xrP-tkGXuZ9atE3k_7it12rUPTs","playlistName":"أسئلة المتابعين","category":"متنوع"},{"id":"6txGEjQDW7Y","title":"بحاول أنتظم في الصلاة بقالي سنتين ومش عارف ,, فماذا أفعل؟","publishedAt":"2023-08-03T18:00:03Z","duration":"PT11M13S","thumbnail":"https://i.ytimg.com/vi/6txGEjQDW7Y/mqdefault.jpg","viewCount":"4907","playlistId":"PLEkQk5xrP-tkGXuZ9atE3k_7it12rUPTs","playlistName":"أسئلة المتابعين","category":"متنوع"},{"id":"XABiNkbidxA","title":"لماذا يخفي بعض المشايخ عقيدتهم الأشعرية؟","publishedAt":"2024-07-22T18:35:49Z","duration":"PT8M40S","thumbnail":"https://i.ytimg.com/vi/XABiNkbidxA/mqdefault.jpg","viewCount":"4383","playlistId":"PLEkQk5xrP-tkGXuZ9atE3k_7it12rUPTs","playlistName":"أسئلة المتابعين","category":"متنوع"},{"id":"HZGTj8keX-o","title":"أخي أكل حقي في الميراث فماذا أفعل معه؟","publishedAt":"2024-07-20T18:53:31Z","duration":"PT13M10S","thumbnail":"https://i.ytimg.com/vi/HZGTj8keX-o/mqdefault.jpg","viewCount":"4635","playlistId":"PLEkQk5xrP-tkGXuZ9atE3k_7it12rUPTs","playlistName":"أسئلة المتابعين","category":"متنوع"},{"id":"Tkdx2-5O8f8","title":"هل ذكر الله أفضل من الجهاد؟ | وما أنواع الذكر؟","publishedAt":"2024-07-19T18:37:04Z","duration":"PT8M14S","thumbnail":"https://i.ytimg.com/vi/Tkdx2-5O8f8/mqdefault.jpg","viewCount":"5778","playlistId":"PLEkQk5xrP-tkGXuZ9atE3k_7it12rUPTs","playlistName":"أسئلة المتابعين","category":"متنوع"},{"id":"5-HoeEJT9zU","title":"كيف تكون طبيعة العلاقة بين الشيخ والمريد؟","publishedAt":"2024-07-14T17:40:53Z","duration":"PT8M42S","thumbnail":"https://i.ytimg.com/vi/5-HoeEJT9zU/mqdefault.jpg","viewCount":"4468","playlistId":"PLEkQk5xrP-tkGXuZ9atE3k_7it12rUPTs","playlistName":"أسئلة المتابعين","category":"متنوع"},{"id":"zuhCfWCB4Tw","title":"الرد على تساؤلات الوهابية","publishedAt":"2021-06-10T18:00:14Z","duration":"PT12M9S","thumbnail":"https://i.ytimg.com/vi/zuhCfWCB4Tw/mqdefault.jpg","viewCount":"19981","playlistId":"PLEkQk5xrP-tkGXuZ9atE3k_7it12rUPTs","playlistName":"أسئلة المتابعين","category":"متنوع"},{"id":"pNbHd5qrNws","title":"هل التصوف كان موجودا أيام النبي ﷺ؟","publishedAt":"2023-01-02T18:00:28Z","duration":"PT8M51S","thumbnail":"https://i.ytimg.com/vi/pNbHd5qrNws/mqdefault.jpg","viewCount":"6414","playlistId":"PLEkQk5xrP-tkGXuZ9atE3k_7it12rUPTs","playlistName":"أسئلة المتابعين","category":"متنوع"},{"id":"Vek-lIS0DUI","title":"كيف تدعو الناس إلى الخير؟ | وحكم من لا يستطيع الأمر بالمعروف","publishedAt":"2023-01-01T18:00:08Z","duration":"PT12M6S","thumbnail":"https://i.ytimg.com/vi/Vek-lIS0DUI/mqdefault.jpg","viewCount":"3122","playlistId":"PLEkQk5xrP-tkGXuZ9atE3k_7it12rUPTs","playlistName":"أسئلة المتابعين","category":"متنوع"},{"id":"YqTdX8cD6EA","title":"ابنتي ترفض الحجاب,, ماذا أفعل؟","publishedAt":"2021-08-01T17:32:00Z","duration":"PT10M33S","thumbnail":"https://i.ytimg.com/vi/YqTdX8cD6EA/mqdefault.jpg","viewCount":"12559","playlistId":"PLEkQk5xrP-tkGXuZ9atE3k_7it12rUPTs","playlistName":"أسئلة المتابعين","category":"متنوع"},{"id":"B8PoYKgrXpo","title":"الفرق بين الاستغاثة والتوسل,, وكيفية التعامل مع الأهل الرافضين للتصوف؟","publishedAt":"2021-07-31T17:30:01Z","duration":"PT11M14S","thumbnail":"https://i.ytimg.com/vi/B8PoYKgrXpo/mqdefault.jpg","viewCount":"17481","playlistId":"PLEkQk5xrP-tkGXuZ9atE3k_7it12rUPTs","playlistName":"أسئلة المتابعين","category":"متنوع"},{"id":"jB1eq6KUhPk","title":"أفضل طريقة لحل المشاكل الزوجية","publishedAt":"2021-07-29T17:50:10Z","duration":"PT8M32S","thumbnail":"https://i.ytimg.com/vi/jB1eq6KUhPk/mqdefault.jpg","viewCount":"12701","playlistId":"PLEkQk5xrP-tkGXuZ9atE3k_7it12rUPTs","playlistName":"أسئلة المتابعين","category":"متنوع"},{"id":"U71VggsKTME","title":"كيف أتخلص من جلد الذات؟","publishedAt":"2021-07-28T17:30:04Z","duration":"PT9M31S","thumbnail":"https://i.ytimg.com/vi/U71VggsKTME/mqdefault.jpg","viewCount":"7330","playlistId":"PLEkQk5xrP-tkGXuZ9atE3k_7it12rUPTs","playlistName":"أسئلة المتابعين","category":"متنوع"},{"id":"nae-53zn434","title":"كيف أجد فرص عمل مناسبة؟","publishedAt":"2021-07-27T19:39:00Z","duration":"PT11M51S","thumbnail":"https://i.ytimg.com/vi/nae-53zn434/mqdefault.jpg","viewCount":"5207","playlistId":"PLEkQk5xrP-tkGXuZ9atE3k_7it12rUPTs","playlistName":"أسئلة المتابعين","category":"متنوع"}],"total":335,"page":6,"pageSize":24,"totalPages":14}