{"items":[{"id":"NFg6n2JGfvY","title":"ما معنى كلمة مدد؟","publishedAt":"2022-01-26T20:15:14Z","duration":"PT10M32S","thumbnail":"https://i.ytimg.com/vi/NFg6n2JGfvY/mqdefault.jpg","viewCount":"24736","playlistId":"PLEkQk5xrP-tkGXuZ9atE3k_7it12rUPTs","playlistName":"أسئلة المتابعين","category":"متنوع"},{"id":"80TONMGzeFo","title":"من هو الصوفي وما هو العهد؟","publishedAt":"2022-05-09T18:00:02Z","duration":"PT10M19S","thumbnail":"https://i.ytimg.com/vi/80TONMGzeFo/mqdefault.jpg","viewCount":"23352","playlistId":"PLEkQk5xrP-tkGXuZ9atE3k_7it12rUPTs","playlistName":"أسئلة المتابعين","category":"متنوع"},{"id":"rCMlvvldiMs","title":"كيف نفهم حديث \"رأيتُ ربِّي في أحسنِ صورة\" بغير تشبيه؟","publishedAt":"2021-12-13T17:30:04Z","duration":"PT8M39S","thumbnail":"https://i.ytimg.com/vi/rCMlvvldiMs/mqdefault.jpg","viewCount":"9614","playlistId":"PLEkQk5xrP-tkGXuZ9atE3k_7it12rUPTs","playlistName":"أسئلة المتابعين","category":"متنوع"},{"id":"p0yfvThd-68","title":"كيف أسيطر على شهوتي؟","publishedAt":"2021-12-12T17:15:00Z","duration":"PT8M53S","thumbnail":"https://i.ytimg.com/vi/p0yfvThd-68/mqdefault.jpg","viewCount":"13279","playlistId":"PLEkQk5xrP-tkGXuZ9atE3k_7it12rUPTs","playlistName":"أسئلة المتابعين","category":"متنوع"},{"id":"8RzgvuLcmiE","title":"هل يجوز للزوج منع زوجته من العمل ,, طلبت منها ورفضت فماذا أفعل؟","publishedAt":"2024-10-28T18:01:18Z","duration":"PT12M13S","thumbnail":"https://i.ytimg.com/vi/8RzgvuLcmiE/mqdefault.jpg","viewCount":"5587","playlistId":"PLEkQk5xrP-tkGXuZ9atE3k_7it12rUPTs","playlistName":"أسئلة المتابعين","category":"متنوع"},{"id":"ap0GJNBKY6o","title":"عندي مشاكل مع أمي وأخواتي وصلت إلى الكراهية فماذا أفعل؟","publishedAt":"2024-10-26T17:30:26Z","duration":"PT11M1S","thumbnail":"https://i.ytimg.com/vi/ap0GJNBKY6o/mqdefault.jpg","viewCount":"5365","playlistId":"PLEkQk5xrP-tkGXuZ9atE3k_7it12rUPTs","playlistName":"أسئلة المتابعين","category":"متنوع"},{"id":"0xPNr8bpGbM","title":"لماذا اختلف العلماء في تحديد أسماء الله؟","publishedAt":"2022-01-21T18:24:59Z","duration":"PT12M17S","thumbnail":"https://i.ytimg.com/vi/0xPNr8bpGbM/mqdefault.jpg","viewCount":"6025","playlistId":"PLEkQk5xrP-tkGXuZ9atE3k_7it12rUPTs","playlistName":"أسئلة المتابعين","category":"متنوع"},{"id":"G38f2NTCKTo","title":"كم عدد الأنبياء العرب؟","publishedAt":"2022-01-20T18:39:29Z","duration":"PT8M46S","thumbnail":"https://i.ytimg.com/vi/G38f2NTCKTo/mqdefault.jpg","viewCount":"13987","playlistId":"PLEkQk5xrP-tkGXuZ9atE3k_7it12rUPTs","playlistName":"أسئلة المتابعين","category":"متنوع"},{"id":"YyhD84LMmKU","title":"تفسير قوله تعالى \"كُنتُمْ خَيْرَ أُمَّةٍ أُخْرِجَتْ لِلنَّاس\"","publishedAt":"2022-01-19T17:30:03Z","duration":"PT25M3S","thumbnail":"https://i.ytimg.com/vi/YyhD84LMmKU/mqdefault.jpg","viewCount":"3200","playlistId":"PLEkQk5xrP-tkGXuZ9atE3k_7it12rUPTs","playlistName":"أسئلة المتابعين","category":"متنوع"},{"id":"7pakbyPl24I","title":"شرح مبسط لعلم الإلهيات والنبوات","publishedAt":"2022-01-17T18:31:57Z","duration":"PT12M20S","thumbnail":"https://i.ytimg.com/vi/7pakbyPl24I/mqdefault.jpg","viewCount":"8806","playlistId":"PLEkQk5xrP-tkGXuZ9atE3k_7it12rUPTs","playlistName":"أسئلة المتابعين","category":"متنوع"},{"id":"GjjhlZysk0g","title":"كيف تنتفع بالشيخ المربي؟","publishedAt":"2022-01-16T17:58:41Z","duration":"PT8M23S","thumbnail":"https://i.ytimg.com/vi/GjjhlZysk0g/mqdefault.jpg","viewCount":"8642","playlistId":"PLEkQk5xrP-tkGXuZ9atE3k_7it12rUPTs","playlistName":"أسئلة المتابعين","category":"متنوع"},{"id":"ej2a8xb3GdA","title":"أحاول مقاومة الكسل في الطاعات والخشوع في الصلاة ولا أستطيع ,, فماذا أفعل؟","publishedAt":"2024-10-21T17:45:07Z","duration":"PT8M32S","thumbnail":"https://i.ytimg.com/vi/ej2a8xb3GdA/mqdefault.jpg","viewCount":"7298","playlistId":"PLEkQk5xrP-tkGXuZ9atE3k_7it12rUPTs","playlistName":"أسئلة المتابعين","category":"متنوع"},{"id":"kspnInSvjT0","title":"ما الفرق بين الجن والشياطين والعفاريت؟","publishedAt":"2024-10-20T17:40:28Z","duration":"PT11M26S","thumbnail":"https://i.ytimg.com/vi/kspnInSvjT0/mqdefault.jpg","viewCount":"8036","playlistId":"PLEkQk5xrP-tkGXuZ9atE3k_7it12rUPTs","playlistName":"أسئلة المتابعين","category":"متنوع"},{"id":"MLo675wtzgk","title":"حاسس أني تايه في الدين بسبب تعدد الطوائف والأفكار ,, فماذا أفعل؟","publishedAt":"2025-03-06T18:30:25Z","duration":"PT8M53S","thumbnail":"https://i.ytimg.com/vi/MLo675wtzgk/mqdefault.jpg","viewCount":"3861","playlistId":"PLEkQk5xrP-tkGXuZ9atE3k_7it12rUPTs","playlistName":"أسئلة المتابعين","category":"متنوع"},{"id":"vepwwHVCV00","title":"أمي تمنعني من نصيبي في الميراث ,, فماذا أفعل؟","publishedAt":"2023-09-02T18:00:55Z","duration":"PT8M15S","thumbnail":"https://i.ytimg.com/vi/vepwwHVCV00/mqdefault.jpg","viewCount":"4147","playlistId":"PLEkQk5xrP-tkGXuZ9atE3k_7it12rUPTs","playlistName":"أسئلة المتابعين","category":"متنوع"},{"id":"JMOuvMww5FQ","title":"كيف تتعامل مع شخص يسيء إليك؟","publishedAt":"2023-08-31T18:00:09Z","duration":"PT8M35S","thumbnail":"https://i.ytimg.com/vi/JMOuvMww5FQ/mqdefault.jpg","viewCount":"10955","playlistId":"PLEkQk5xrP-tkGXuZ9atE3k_7it12rUPTs","playlistName":"أسئلة المتابعين","category":"متنوع"},{"id":"5lA6jE-K2oU","title":"هل أمة النبي ﷺ معصومة من العذاب؟","publishedAt":"2023-08-29T17:30:00Z","duration":"PT9M57S","thumbnail":"https://i.ytimg.com/vi/5lA6jE-K2oU/mqdefault.jpg","viewCount":"8172","playlistId":"PLEkQk5xrP-tkGXuZ9atE3k_7it12rUPTs","playlistName":"أسئلة المتابعين","category":"متنوع"},{"id":"xxQ0OYnxbXs","title":"أنا شاب ولا استطيع غض بصري فماذا أفعل؟","publishedAt":"2023-08-21T18:00:26Z","duration":"PT8M34S","thumbnail":"https://i.ytimg.com/vi/xxQ0OYnxbXs/mqdefault.jpg","viewCount":"12910","playlistId":"PLEkQk5xrP-tkGXuZ9atE3k_7it12rUPTs","playlistName":"أسئلة المتابعين","category":"متنوع"},{"id":"r8UQCKhZaAA","title":"أفضل طريقة لإنهاء المشاكل الزوجية","publishedAt":"2023-08-20T18:00:32Z","duration":"PT13M29S","thumbnail":"https://i.ytimg.com/vi/r8UQCKhZaAA/mqdefault.jpg","viewCount":"10945","playlistId":"PLEkQk5xrP-tkGXuZ9atE3k_7it12rUPTs","playlistName":"أسئلة المتابعين","category":"متنوع"},{"id":"x5ojFfZH_xc","title":"كيف أتغلب على ضعف الهمة والفتور في العبادة؟","publishedAt":"2025-07-01T18:12:59Z","duration":"PT12M22S","thumbnail":"https://i.ytimg.com/vi/x5ojFfZH_xc/mqdefault.jpg","viewCount":"9547","playlistId":"PLEkQk5xrP-tkGXuZ9atE3k_7it12rUPTs","playlistName":"أسئلة المتابعين","category":"متنوع"},{"id":"eCBp1OI_GJQ","title":"ما هي أسهل طريقة للحج؟","publishedAt":"2024-06-05T18:33:47Z","duration":"PT8M54S","thumbnail":"https://i.ytimg.com/vi/eCBp1OI_GJQ/mqdefault.jpg","viewCount":"2340","playlistId":"PLEkQk5xrP-tkGXuZ9atE3k_7it12rUPTs","playlistName":"أسئلة المتابعين","category":"متنوع"},{"id":"hxxB98BCwRA","title":"صديقي انتحر ,, هل ممكن ربنا يغفرله؟","publishedAt":"2024-06-04T18:10:33Z","duration":"PT8M24S","thumbnail":"https://i.ytimg.com/vi/hxxB98BCwRA/mqdefault.jpg","viewCount":"8559","playlistId":"PLEkQk5xrP-tkGXuZ9atE3k_7it12rUPTs","playlistName":"أسئلة المتابعين","category":"متنوع"},{"id":"tqd3ltVk50Q","title":"ما حكم مخالفة القانون أو التحايل عليه؟","publishedAt":"2024-06-03T17:43:38Z","duration":"PT8M7S","thumbnail":"https://i.ytimg.com/vi/tqd3ltVk50Q/mqdefault.jpg","viewCount":"2518","playlistId":"PLEkQk5xrP-tkGXuZ9atE3k_7it12rUPTs","playlistName":"أسئلة المتابعين","category":"متنوع"},{"id":"siOGt_19cKs","title":"ما هي أسباب زيادة الرزق وهل يوجد ورد مخصص؟","publishedAt":"2024-06-01T17:28:14Z","duration":"PT8M54S","thumbnail":"https://i.ytimg.com/vi/siOGt_19cKs/mqdefault.jpg","viewCount":"9239","playlistId":"PLEkQk5xrP-tkGXuZ9atE3k_7it12rUPTs","playlistName":"أسئلة المتابعين","category":"متنوع"}],"total":335,"page":5,"pageSize":24,"totalPages":14}