{"items":[{"id":"UH1CTlxExu4","title":"عندي ماضي سيئ وتبت من ذنوبي لكن عندي فتور في الطاعة فماذا أفعل؟","publishedAt":"2025-01-14T19:25:44Z","duration":"PT9M43S","thumbnail":"https://i.ytimg.com/vi/UH1CTlxExu4/mqdefault.jpg","viewCount":"4616","playlistId":"PLEkQk5xrP-tkGXuZ9atE3k_7it12rUPTs","playlistName":"أسئلة المتابعين","category":"متنوع"},{"id":"JEb5opEDcgg","title":"أنا متقدملي طبيب ومستواه المادي قليل ,, فماذا أفعل؟","publishedAt":"2025-01-13T20:23:03Z","duration":"PT12M51S","thumbnail":"https://i.ytimg.com/vi/JEb5opEDcgg/mqdefault.jpg","viewCount":"4570","playlistId":"PLEkQk5xrP-tkGXuZ9atE3k_7it12rUPTs","playlistName":"أسئلة المتابعين","category":"متنوع"},{"id":"XGzysKP40no","title":"أنا متقدملي شاب للزواج وأهلي مقتنعين بيه وأنا لا أريده فماذا أفعل؟","publishedAt":"2025-01-09T17:00:39Z","duration":"PT8M24S","thumbnail":"https://i.ytimg.com/vi/XGzysKP40no/mqdefault.jpg","viewCount":"2863","playlistId":"PLEkQk5xrP-tkGXuZ9atE3k_7it12rUPTs","playlistName":"أسئلة المتابعين","category":"متنوع"},{"id":"Oipjv23535I","title":"هل تجوز الصدقة على المسيحيين وهل يجوز مشاركتهم؟","publishedAt":"2025-01-08T18:23:30Z","duration":"PT8M25S","thumbnail":"https://i.ytimg.com/vi/Oipjv23535I/mqdefault.jpg","viewCount":"2338","playlistId":"PLEkQk5xrP-tkGXuZ9atE3k_7it12rUPTs","playlistName":"أسئلة المتابعين","category":"متنوع"},{"id":"5A6tiKMYm7s","title":"أنا بعاني من جلد الذات واللوم المتواصل لنفسي فماذا أفعل؟","publishedAt":"2025-01-06T18:42:06Z","duration":"PT9M48S","thumbnail":"https://i.ytimg.com/vi/5A6tiKMYm7s/mqdefault.jpg","viewCount":"8143","playlistId":"PLEkQk5xrP-tkGXuZ9atE3k_7it12rUPTs","playlistName":"أسئلة المتابعين","category":"متنوع"},{"id":"_D3jcDwKvz8","title":"هل الشيطان سبب الذنوب أم أنه مجرد مبرر؟","publishedAt":"2025-03-24T19:00:26Z","duration":"PT9M29S","thumbnail":"https://i.ytimg.com/vi/_D3jcDwKvz8/mqdefault.jpg","viewCount":"2369","playlistId":"PLEkQk5xrP-tkGXuZ9atE3k_7it12rUPTs","playlistName":"أسئلة المتابعين","category":"متنوع"},{"id":"fofLUBTbIoE","title":"ما معنى الجذب وما أنواعه؟","publishedAt":"2025-03-23T19:00:34Z","duration":"PT8M9S","thumbnail":"https://i.ytimg.com/vi/fofLUBTbIoE/mqdefault.jpg","viewCount":"6440","playlistId":"PLEkQk5xrP-tkGXuZ9atE3k_7it12rUPTs","playlistName":"أسئلة المتابعين","category":"متنوع"},{"id":"1f_SLVVefyQ","title":"هل يجوز تحديد نسل الجنين وتجميد البويضات؟","publishedAt":"2023-12-26T18:00:00Z","duration":"PT8M59S","thumbnail":"https://i.ytimg.com/vi/1f_SLVVefyQ/mqdefault.jpg","viewCount":"5562","playlistId":"PLEkQk5xrP-tkGXuZ9atE3k_7it12rUPTs","playlistName":"أسئلة المتابعين","category":"متنوع"},{"id":"jNoB0ZX3LdI","title":"هل ربنا هيحاسبنا على حديث وخاطر النفس الأمارة بالسوء؟","publishedAt":"2023-12-25T19:09:14Z","duration":"PT8M38S","thumbnail":"https://i.ytimg.com/vi/jNoB0ZX3LdI/mqdefault.jpg","viewCount":"9535","playlistId":"PLEkQk5xrP-tkGXuZ9atE3k_7it12rUPTs","playlistName":"أسئلة المتابعين","category":"متنوع"},{"id":"aQkJbpvjju4","title":"ازاي اتعامل مع الناس المؤذية في حياتي؟","publishedAt":"2023-12-24T18:00:02Z","duration":"PT10M15S","thumbnail":"https://i.ytimg.com/vi/aQkJbpvjju4/mqdefault.jpg","viewCount":"15209","playlistId":"PLEkQk5xrP-tkGXuZ9atE3k_7it12rUPTs","playlistName":"أسئلة المتابعين","category":"متنوع"},{"id":"vj3DnXPsRQ0","title":"ازاي حفظت القرآن وكيف يمكن تدبره بدلا من قراءته؟","publishedAt":"2023-12-23T19:07:26Z","duration":"PT12M32S","thumbnail":"https://i.ytimg.com/vi/vj3DnXPsRQ0/mqdefault.jpg","viewCount":"8656","playlistId":"PLEkQk5xrP-tkGXuZ9atE3k_7it12rUPTs","playlistName":"أسئلة المتابعين","category":"متنوع"},{"id":"R_G_AASR8ik","title":"والدي وهابي وأنا أزهري ,, كيف أتعامل معه؟","publishedAt":"2022-03-03T18:47:17Z","duration":"PT9M26S","thumbnail":"https://i.ytimg.com/vi/R_G_AASR8ik/mqdefault.jpg","viewCount":"11665","playlistId":"PLEkQk5xrP-tkGXuZ9atE3k_7it12rUPTs","playlistName":"أسئلة المتابعين","category":"متنوع"},{"id":"09LMmxUqrXA","title":"هل يجوز كتابة اسمي على سجادة الصلاة؟","publishedAt":"2025-04-16T18:00:00Z","duration":"PT8M58S","thumbnail":"https://i.ytimg.com/vi/09LMmxUqrXA/mqdefault.jpg","viewCount":"3264","playlistId":"PLEkQk5xrP-tkGXuZ9atE3k_7it12rUPTs","playlistName":"أسئلة المتابعين","category":"متنوع"},{"id":"wQKAFZJ0WbA","title":"هل يطلع الله بعض الأولياء علي الغيب؟","publishedAt":"2022-12-20T18:03:09Z","duration":"PT11M54S","thumbnail":"https://i.ytimg.com/vi/wQKAFZJ0WbA/mqdefault.jpg","viewCount":"32253","playlistId":"PLEkQk5xrP-tkGXuZ9atE3k_7it12rUPTs","playlistName":"أسئلة المتابعين","category":"متنوع"},{"id":"BCJlzN4z2XU","title":"كيفية حل المشاكل الزوجية؟","publishedAt":"2022-12-19T18:00:04Z","duration":"PT8M11S","thumbnail":"https://i.ytimg.com/vi/BCJlzN4z2XU/mqdefault.jpg","viewCount":"6363","playlistId":"PLEkQk5xrP-tkGXuZ9atE3k_7it12rUPTs","playlistName":"أسئلة المتابعين","category":"متنوع"},{"id":"-eoz_3cV5m0","title":"هل يوجد أوراد تساعد على زيادة الرزق؟","publishedAt":"2025-04-15T19:00:01Z","duration":"PT8M57S","thumbnail":"https://i.ytimg.com/vi/-eoz_3cV5m0/mqdefault.jpg","viewCount":"13346","playlistId":"PLEkQk5xrP-tkGXuZ9atE3k_7it12rUPTs","playlistName":"أسئلة المتابعين","category":"متنوع"},{"id":"QefZZTur1Uo","title":"ما معنى قراءة الفاتحة لسيدنا محمد ﷺ؟","publishedAt":"2022-08-25T18:00:15Z","duration":"PT10M17S","thumbnail":"https://i.ytimg.com/vi/QefZZTur1Uo/mqdefault.jpg","viewCount":"7344","playlistId":"PLEkQk5xrP-tkGXuZ9atE3k_7it12rUPTs","playlistName":"أسئلة المتابعين","category":"متنوع"},{"id":"xNgj6HkDHo8","title":"كيف أنظم وقتي؟","publishedAt":"2022-08-21T18:00:30Z","duration":"PT8M48S","thumbnail":"https://i.ytimg.com/vi/xNgj6HkDHo8/mqdefault.jpg","viewCount":"22628","playlistId":"PLEkQk5xrP-tkGXuZ9atE3k_7it12rUPTs","playlistName":"أسئلة المتابعين","category":"متنوع"},{"id":"6TJpUv8Sa_s","title":"أعمل ايه علشان أشوف النبي ﷺ في المنام؟","publishedAt":"2023-12-19T18:00:09Z","duration":"PT9M13S","thumbnail":"https://i.ytimg.com/vi/6TJpUv8Sa_s/mqdefault.jpg","viewCount":"5761","playlistId":"PLEkQk5xrP-tkGXuZ9atE3k_7it12rUPTs","playlistName":"أسئلة المتابعين","category":"متنوع"},{"id":"r_Z2dDWx3Eo","title":"ما هي علامات ظهور المهدي المنتظر؟","publishedAt":"2022-02-26T17:00:35Z","duration":"PT10M39S","thumbnail":"https://i.ytimg.com/vi/r_Z2dDWx3Eo/mqdefault.jpg","viewCount":"15475","playlistId":"PLEkQk5xrP-tkGXuZ9atE3k_7it12rUPTs","playlistName":"أسئلة المتابعين","category":"متنوع"},{"id":"wiN19lwrmxo","title":"مراتي بتشتغل ,,هل مشاركتها في مصروف البيت واجبة؟","publishedAt":"2024-05-06T17:32:16Z","duration":"PT8M6S","thumbnail":"https://i.ytimg.com/vi/wiN19lwrmxo/mqdefault.jpg","viewCount":"6333","playlistId":"PLEkQk5xrP-tkGXuZ9atE3k_7it12rUPTs","playlistName":"أسئلة المتابعين","category":"متنوع"},{"id":"1z-jbc079SA","title":"هل مات فرعون مسلما ويمكن أن يدخله الله الجنة؟","publishedAt":"2024-05-04T18:04:18Z","duration":"PT10M8S","thumbnail":"https://i.ytimg.com/vi/1z-jbc079SA/mqdefault.jpg","viewCount":"34310","playlistId":"PLEkQk5xrP-tkGXuZ9atE3k_7it12rUPTs","playlistName":"أسئلة المتابعين","category":"متنوع"},{"id":"zv0FDnPP7Ak","title":"الرد على اعتراضات بعض المتابعين في الفترة الأخيرة","publishedAt":"2023-04-28T18:41:19Z","duration":"PT26M24S","thumbnail":"https://i.ytimg.com/vi/zv0FDnPP7Ak/mqdefault.jpg","viewCount":"47459","playlistId":"PLEkQk5xrP-tkGXuZ9atE3k_7it12rUPTs","playlistName":"أسئلة المتابعين","category":"متنوع"},{"id":"X4nmkrBF9Ag","title":"هل يجوز الحج بطريقة غير رسمية؟","publishedAt":"2024-03-07T19:00:26Z","duration":"PT13M37S","thumbnail":"https://i.ytimg.com/vi/X4nmkrBF9Ag/mqdefault.jpg","viewCount":"7066","playlistId":"PLEkQk5xrP-tkGXuZ9atE3k_7it12rUPTs","playlistName":"أسئلة المتابعين","category":"متنوع"}],"total":335,"page":4,"pageSize":24,"totalPages":14}