{"items":[{"id":"f8n5hyiCB-c","title":"هل يجوز نية صلاة الجماعة بالجن المسلمين؟","publishedAt":"2023-02-07T18:00:30Z","duration":"PT8M2S","thumbnail":"https://i.ytimg.com/vi/f8n5hyiCB-c/mqdefault.jpg","viewCount":"5196","playlistId":"PLEkQk5xrP-tkGXuZ9atE3k_7it12rUPTs","playlistName":"أسئلة المتابعين","category":"متنوع"},{"id":"lkz-VovZldQ","title":"كيف أبتعد عن الشهوات والمعاصي؟","publishedAt":"2023-02-06T18:00:22Z","duration":"PT8M1S","thumbnail":"https://i.ytimg.com/vi/lkz-VovZldQ/mqdefault.jpg","viewCount":"15096","playlistId":"PLEkQk5xrP-tkGXuZ9atE3k_7it12rUPTs","playlistName":"أسئلة المتابعين","category":"متنوع"},{"id":"pIVc5d95zvA","title":"كيف تتغلب على شهوة النفس؟","publishedAt":"2021-08-28T17:15:00Z","duration":"PT12M31S","thumbnail":"https://i.ytimg.com/vi/pIVc5d95zvA/mqdefault.jpg","viewCount":"53122","playlistId":"PLEkQk5xrP-tkGXuZ9atE3k_7it12rUPTs","playlistName":"أسئلة المتابعين","category":"متنوع"},{"id":"QPyt_W26M0E","title":"الرد على تساؤلات الوهابية","publishedAt":"2021-08-26T17:15:01Z","duration":"PT12M42S","thumbnail":"https://i.ytimg.com/vi/QPyt_W26M0E/mqdefault.jpg","viewCount":"56102","playlistId":"PLEkQk5xrP-tkGXuZ9atE3k_7it12rUPTs","playlistName":"أسئلة المتابعين","category":"متنوع"},{"id":"J2EGWFp7y4s","title":"هل انتشر الإسلام بحد السيف؟","publishedAt":"2021-08-23T18:30:28Z","duration":"PT9M47S","thumbnail":"https://i.ytimg.com/vi/J2EGWFp7y4s/mqdefault.jpg","viewCount":"3429","playlistId":"PLEkQk5xrP-tkGXuZ9atE3k_7it12rUPTs","playlistName":"أسئلة المتابعين","category":"متنوع"},{"id":"cCTGnrGJeV4","title":"أريد الانتحار,, هل سأموت كافرا؟","publishedAt":"2021-08-22T18:58:48Z","duration":"PT9M12S","thumbnail":"https://i.ytimg.com/vi/cCTGnrGJeV4/mqdefault.jpg","viewCount":"11046","playlistId":"PLEkQk5xrP-tkGXuZ9atE3k_7it12rUPTs","playlistName":"أسئلة المتابعين","category":"متنوع"},{"id":"jGxSxZSOzpk","title":"نصيحة لأهالي وطلاب الثانوية العامة","publishedAt":"2021-08-21T17:00:39Z","duration":"PT8M55S","thumbnail":"https://i.ytimg.com/vi/jGxSxZSOzpk/mqdefault.jpg","viewCount":"4015","playlistId":"PLEkQk5xrP-tkGXuZ9atE3k_7it12rUPTs","playlistName":"أسئلة المتابعين","category":"متنوع"},{"id":"zv0FDnPP7Ak","title":"الرد على اعتراضات بعض المتابعين في الفترة الأخيرة","publishedAt":"2023-04-28T18:41:19Z","duration":"PT26M24S","thumbnail":"https://i.ytimg.com/vi/zv0FDnPP7Ak/mqdefault.jpg","viewCount":"47459","playlistId":"PLEkQk5xrP-tkGXuZ9atE3k_7it12rUPTs","playlistName":"أسئلة المتابعين","category":"متنوع"},{"id":"2LDOSw-cCZM","title":"هل يجوز تقبيل القبور والتبرك بها؟","publishedAt":"2023-03-27T19:00:01Z","duration":"PT8M21S","thumbnail":"https://i.ytimg.com/vi/2LDOSw-cCZM/mqdefault.jpg","viewCount":"10611","playlistId":"PLEkQk5xrP-tkGXuZ9atE3k_7it12rUPTs","playlistName":"أسئلة المتابعين","category":"متنوع"},{"id":"80TONMGzeFo","title":"من هو الصوفي وما هو العهد؟","publishedAt":"2022-05-09T18:00:02Z","duration":"PT10M19S","thumbnail":"https://i.ytimg.com/vi/80TONMGzeFo/mqdefault.jpg","viewCount":"23352","playlistId":"PLEkQk5xrP-tkGXuZ9atE3k_7it12rUPTs","playlistName":"أسئلة المتابعين","category":"متنوع"},{"id":"rCMlvvldiMs","title":"كيف نفهم حديث \"رأيتُ ربِّي في أحسنِ صورة\" بغير تشبيه؟","publishedAt":"2021-12-13T17:30:04Z","duration":"PT8M39S","thumbnail":"https://i.ytimg.com/vi/rCMlvvldiMs/mqdefault.jpg","viewCount":"9614","playlistId":"PLEkQk5xrP-tkGXuZ9atE3k_7it12rUPTs","playlistName":"أسئلة المتابعين","category":"متنوع"},{"id":"p0yfvThd-68","title":"كيف أسيطر على شهوتي؟","publishedAt":"2021-12-12T17:15:00Z","duration":"PT8M53S","thumbnail":"https://i.ytimg.com/vi/p0yfvThd-68/mqdefault.jpg","viewCount":"13279","playlistId":"PLEkQk5xrP-tkGXuZ9atE3k_7it12rUPTs","playlistName":"أسئلة المتابعين","category":"متنوع"},{"id":"8RzgvuLcmiE","title":"هل يجوز للزوج منع زوجته من العمل ,, طلبت منها ورفضت فماذا أفعل؟","publishedAt":"2024-10-28T18:01:18Z","duration":"PT12M13S","thumbnail":"https://i.ytimg.com/vi/8RzgvuLcmiE/mqdefault.jpg","viewCount":"5587","playlistId":"PLEkQk5xrP-tkGXuZ9atE3k_7it12rUPTs","playlistName":"أسئلة المتابعين","category":"متنوع"},{"id":"ap0GJNBKY6o","title":"عندي مشاكل مع أمي وأخواتي وصلت إلى الكراهية فماذا أفعل؟","publishedAt":"2024-10-26T17:30:26Z","duration":"PT11M1S","thumbnail":"https://i.ytimg.com/vi/ap0GJNBKY6o/mqdefault.jpg","viewCount":"5365","playlistId":"PLEkQk5xrP-tkGXuZ9atE3k_7it12rUPTs","playlistName":"أسئلة المتابعين","category":"متنوع"},{"id":"ej2a8xb3GdA","title":"أحاول مقاومة الكسل في الطاعات والخشوع في الصلاة ولا أستطيع ,, فماذا أفعل؟","publishedAt":"2024-10-21T17:45:07Z","duration":"PT8M32S","thumbnail":"https://i.ytimg.com/vi/ej2a8xb3GdA/mqdefault.jpg","viewCount":"7298","playlistId":"PLEkQk5xrP-tkGXuZ9atE3k_7it12rUPTs","playlistName":"أسئلة المتابعين","category":"متنوع"},{"id":"kspnInSvjT0","title":"ما الفرق بين الجن والشياطين والعفاريت؟","publishedAt":"2024-10-20T17:40:28Z","duration":"PT11M26S","thumbnail":"https://i.ytimg.com/vi/kspnInSvjT0/mqdefault.jpg","viewCount":"8036","playlistId":"PLEkQk5xrP-tkGXuZ9atE3k_7it12rUPTs","playlistName":"أسئلة المتابعين","category":"متنوع"},{"id":"MLo675wtzgk","title":"حاسس أني تايه في الدين بسبب تعدد الطوائف والأفكار ,, فماذا أفعل؟","publishedAt":"2025-03-06T18:30:25Z","duration":"PT8M53S","thumbnail":"https://i.ytimg.com/vi/MLo675wtzgk/mqdefault.jpg","viewCount":"3861","playlistId":"PLEkQk5xrP-tkGXuZ9atE3k_7it12rUPTs","playlistName":"أسئلة المتابعين","category":"متنوع"},{"id":"vepwwHVCV00","title":"أمي تمنعني من نصيبي في الميراث ,, فماذا أفعل؟","publishedAt":"2023-09-02T18:00:55Z","duration":"PT8M15S","thumbnail":"https://i.ytimg.com/vi/vepwwHVCV00/mqdefault.jpg","viewCount":"4147","playlistId":"PLEkQk5xrP-tkGXuZ9atE3k_7it12rUPTs","playlistName":"أسئلة المتابعين","category":"متنوع"},{"id":"JMOuvMww5FQ","title":"كيف تتعامل مع شخص يسيء إليك؟","publishedAt":"2023-08-31T18:00:09Z","duration":"PT8M35S","thumbnail":"https://i.ytimg.com/vi/JMOuvMww5FQ/mqdefault.jpg","viewCount":"10955","playlistId":"PLEkQk5xrP-tkGXuZ9atE3k_7it12rUPTs","playlistName":"أسئلة المتابعين","category":"متنوع"},{"id":"5lA6jE-K2oU","title":"هل أمة النبي ﷺ معصومة من العذاب؟","publishedAt":"2023-08-29T17:30:00Z","duration":"PT9M57S","thumbnail":"https://i.ytimg.com/vi/5lA6jE-K2oU/mqdefault.jpg","viewCount":"8172","playlistId":"PLEkQk5xrP-tkGXuZ9atE3k_7it12rUPTs","playlistName":"أسئلة المتابعين","category":"متنوع"},{"id":"xxQ0OYnxbXs","title":"أنا شاب ولا استطيع غض بصري فماذا أفعل؟","publishedAt":"2023-08-21T18:00:26Z","duration":"PT8M34S","thumbnail":"https://i.ytimg.com/vi/xxQ0OYnxbXs/mqdefault.jpg","viewCount":"12910","playlistId":"PLEkQk5xrP-tkGXuZ9atE3k_7it12rUPTs","playlistName":"أسئلة المتابعين","category":"متنوع"},{"id":"r8UQCKhZaAA","title":"أفضل طريقة لإنهاء المشاكل الزوجية","publishedAt":"2023-08-20T18:00:32Z","duration":"PT13M29S","thumbnail":"https://i.ytimg.com/vi/r8UQCKhZaAA/mqdefault.jpg","viewCount":"10945","playlistId":"PLEkQk5xrP-tkGXuZ9atE3k_7it12rUPTs","playlistName":"أسئلة المتابعين","category":"متنوع"},{"id":"eCBp1OI_GJQ","title":"ما هي أسهل طريقة للحج؟","publishedAt":"2024-06-05T18:33:47Z","duration":"PT8M54S","thumbnail":"https://i.ytimg.com/vi/eCBp1OI_GJQ/mqdefault.jpg","viewCount":"2340","playlistId":"PLEkQk5xrP-tkGXuZ9atE3k_7it12rUPTs","playlistName":"أسئلة المتابعين","category":"متنوع"},{"id":"hxxB98BCwRA","title":"صديقي انتحر ,, هل ممكن ربنا يغفرله؟","publishedAt":"2024-06-04T18:10:33Z","duration":"PT8M24S","thumbnail":"https://i.ytimg.com/vi/hxxB98BCwRA/mqdefault.jpg","viewCount":"8559","playlistId":"PLEkQk5xrP-tkGXuZ9atE3k_7it12rUPTs","playlistName":"أسئلة المتابعين","category":"متنوع"}],"total":335,"page":9,"pageSize":24,"totalPages":14}