{"items":[{"id":"7NIA7_OZigM","title":"هل ابن تيمية من أهل التصوف؟","publishedAt":"2022-01-30T19:00:02Z","duration":"PT8M49S","thumbnail":"https://i.ytimg.com/vi/7NIA7_OZigM/mqdefault.jpg","viewCount":"46478","playlistId":"PLEkQk5xrP-tkGXuZ9atE3k_7it12rUPTs","playlistName":"أسئلة المتابعين","category":"متنوع"},{"id":"qz-mUTXSH_k","title":"هل يجوز زيارة القبور للنساء؟","publishedAt":"2022-01-29T18:00:13Z","duration":"PT12M32S","thumbnail":"https://i.ytimg.com/vi/qz-mUTXSH_k/mqdefault.jpg","viewCount":"6596","playlistId":"PLEkQk5xrP-tkGXuZ9atE3k_7it12rUPTs","playlistName":"أسئلة المتابعين","category":"متنوع"},{"id":"hFgqQx0sHng","title":"أنا معنديش بركة في الوقت والمال ,, فماذا أفعل؟","publishedAt":"2025-02-25T19:41:54Z","duration":"PT12M22S","thumbnail":"https://i.ytimg.com/vi/hFgqQx0sHng/mqdefault.jpg","viewCount":"7078","playlistId":"PLEkQk5xrP-tkGXuZ9atE3k_7it12rUPTs","playlistName":"أسئلة المتابعين","category":"متنوع"},{"id":"zuhCfWCB4Tw","title":"الرد على تساؤلات الوهابية","publishedAt":"2021-06-10T18:00:14Z","duration":"PT12M9S","thumbnail":"https://i.ytimg.com/vi/zuhCfWCB4Tw/mqdefault.jpg","viewCount":"19981","playlistId":"PLEkQk5xrP-tkGXuZ9atE3k_7it12rUPTs","playlistName":"أسئلة المتابعين","category":"متنوع"},{"id":"Xv4qryaPm6Y","title":"ما حكم الصلاة جالسا مع قدرتي على الوقوف؟","publishedAt":"2025-03-18T19:00:23Z","duration":"PT15M43S","thumbnail":"https://i.ytimg.com/vi/Xv4qryaPm6Y/mqdefault.jpg","viewCount":"3800","playlistId":"PLEkQk5xrP-tkGXuZ9atE3k_7it12rUPTs","playlistName":"أسئلة المتابعين","category":"متنوع"},{"id":"qPDifLQxYY0","title":"حاجات بنعملها بتفسد التوازن اللي ربنا خلقه في الأرض!","publishedAt":"2025-10-23T18:30:05Z","duration":"PT16M44S","thumbnail":"https://i.ytimg.com/vi/qPDifLQxYY0/mqdefault.jpg","viewCount":"1758","playlistId":"PLEkQk5xrP-tkGXuZ9atE3k_7it12rUPTs","playlistName":"أسئلة المتابعين","category":"متنوع"},{"id":"SRHCgzLohGc","title":"كيف أتخلص من الأرق المستمر ومشاكل النوم؟","publishedAt":"2025-10-16T17:30:07Z","duration":"PT8M1S","thumbnail":"https://i.ytimg.com/vi/SRHCgzLohGc/mqdefault.jpg","viewCount":"1909","playlistId":"PLEkQk5xrP-tkGXuZ9atE3k_7it12rUPTs","playlistName":"أسئلة المتابعين","category":"متنوع"},{"id":"vmt_EIK4UcA","title":"كيف تتخلص من الحب من طرف واحد؟","publishedAt":"2022-01-15T17:29:49Z","duration":"PT10M38S","thumbnail":"https://i.ytimg.com/vi/vmt_EIK4UcA/mqdefault.jpg","viewCount":"10771","playlistId":"PLEkQk5xrP-tkGXuZ9atE3k_7it12rUPTs","playlistName":"أسئلة المتابعين","category":"متنوع"},{"id":"XFLRWEjw1s8","title":"هل يجوز زيارة قبور الصالحين وطلب المدد منهم؟","publishedAt":"2022-01-14T19:29:40Z","duration":"PT10M43S","thumbnail":"https://i.ytimg.com/vi/XFLRWEjw1s8/mqdefault.jpg","viewCount":"25406","playlistId":"PLEkQk5xrP-tkGXuZ9atE3k_7it12rUPTs","playlistName":"أسئلة المتابعين","category":"متنوع"},{"id":"cpSVQcYD1Ts","title":"هل رفضت رؤية النَّبيّ ﷺ يقظة؟ ​| القصة كاملة","publishedAt":"2022-01-13T18:00:05Z","duration":"PT17M51S","thumbnail":"https://i.ytimg.com/vi/cpSVQcYD1Ts/mqdefault.jpg","viewCount":"232433","playlistId":"PLEkQk5xrP-tkGXuZ9atE3k_7it12rUPTs","playlistName":"أسئلة المتابعين","category":"متنوع"},{"id":"jWmwty8ocdc","title":"كيف تحبُّ اللهَ ورسولَه أكثر ممّا سواهما؟","publishedAt":"2022-01-12T17:30:04Z","duration":"PT10M34S","thumbnail":"https://i.ytimg.com/vi/jWmwty8ocdc/mqdefault.jpg","viewCount":"15891","playlistId":"PLEkQk5xrP-tkGXuZ9atE3k_7it12rUPTs","playlistName":"أسئلة المتابعين","category":"متنوع"},{"id":"FFqhdgKwR9M","title":"هل الانقطاع عن الأوراد خروج عن الطريق؟","publishedAt":"2021-08-06T17:30:00Z","duration":"PT10M9S","thumbnail":"https://i.ytimg.com/vi/FFqhdgKwR9M/mqdefault.jpg","viewCount":"12320","playlistId":"PLEkQk5xrP-tkGXuZ9atE3k_7it12rUPTs","playlistName":"أسئلة المتابعين","category":"متنوع"},{"id":"X0GR2YbAaB4","title":"هل الصلاة على النبي ﷺ أفضل من الاستغفار؟","publishedAt":"2024-09-20T17:25:54Z","duration":"PT9M7S","thumbnail":"https://i.ytimg.com/vi/X0GR2YbAaB4/mqdefault.jpg","viewCount":"8816","playlistId":"PLEkQk5xrP-tkGXuZ9atE3k_7it12rUPTs","playlistName":"أسئلة المتابعين","category":"متنوع"},{"id":"HVQacylpFCA","title":"ما هي حدود فترة كتب الكتاب ,, وما العمل إذا حدثت الدخلة في هذه الفترة؟","publishedAt":"2024-09-19T18:54:47Z","duration":"PT8M1S","thumbnail":"https://i.ytimg.com/vi/HVQacylpFCA/mqdefault.jpg","viewCount":"3056","playlistId":"PLEkQk5xrP-tkGXuZ9atE3k_7it12rUPTs","playlistName":"أسئلة المتابعين","category":"متنوع"},{"id":"WxxmfUJ_Nww","title":"حدود التعامل بين الشيوخ و النساء! #يسري_جبر","publishedAt":"2024-09-19T14:44:14Z","duration":"PT1M1S","thumbnail":"https://i.ytimg.com/vi/WxxmfUJ_Nww/mqdefault.jpg","viewCount":"24059","playlistId":"PLEkQk5xrP-tkGXuZ9atE3k_7it12rUPTs","playlistName":"أسئلة المتابعين","category":"متنوع"},{"id":"1j8pGJ8YJ_o","title":"كيف أتغلب على النفس الأمارة بالسوء؟","publishedAt":"2025-03-10T18:30:02Z","duration":"PT8M15S","thumbnail":"https://i.ytimg.com/vi/1j8pGJ8YJ_o/mqdefault.jpg","viewCount":"5392","playlistId":"PLEkQk5xrP-tkGXuZ9atE3k_7it12rUPTs","playlistName":"أسئلة المتابعين","category":"متنوع"},{"id":"plqdHDqUTQM","title":"رسالة مهمة لأهالي وطلاب الثانوية العامة","publishedAt":"2024-08-06T17:33:54Z","duration":"PT8M55S","thumbnail":"https://i.ytimg.com/vi/plqdHDqUTQM/mqdefault.jpg","viewCount":"2405","playlistId":"PLEkQk5xrP-tkGXuZ9atE3k_7it12rUPTs","playlistName":"أسئلة المتابعين","category":"متنوع"},{"id":"gbyXtCa5NXw","title":"أنا في بداية طريقي إلى الله ,, ما هي الكتب التي تنصحني بها؟","publishedAt":"2024-08-05T18:00:19Z","duration":"PT9M20S","thumbnail":"https://i.ytimg.com/vi/gbyXtCa5NXw/mqdefault.jpg","viewCount":"6857","playlistId":"PLEkQk5xrP-tkGXuZ9atE3k_7it12rUPTs","playlistName":"أسئلة المتابعين","category":"متنوع"},{"id":"p0yfvThd-68","title":"كيف أسيطر على شهوتي؟","publishedAt":"2021-12-12T17:15:00Z","duration":"PT8M53S","thumbnail":"https://i.ytimg.com/vi/p0yfvThd-68/mqdefault.jpg","viewCount":"13279","playlistId":"PLEkQk5xrP-tkGXuZ9atE3k_7it12rUPTs","playlistName":"أسئلة المتابعين","category":"متنوع"},{"id":"yeOpCGrN8iA","title":"أنا كنت في ثانوية عامة ونفسي أدخل كلية الطب بماذا تنصحني؟","publishedAt":"2024-08-01T18:14:00Z","duration":"PT8M12S","thumbnail":"https://i.ytimg.com/vi/yeOpCGrN8iA/mqdefault.jpg","viewCount":"2867","playlistId":"PLEkQk5xrP-tkGXuZ9atE3k_7it12rUPTs","playlistName":"أسئلة المتابعين","category":"متنوع"},{"id":"UFmzj_ZtQiY","title":"هل يجوز للمرأة الزواج بدون علم أهلها؟","publishedAt":"2024-11-11T18:27:01Z","duration":"PT11M32S","thumbnail":"https://i.ytimg.com/vi/UFmzj_ZtQiY/mqdefault.jpg","viewCount":"3300","playlistId":"PLEkQk5xrP-tkGXuZ9atE3k_7it12rUPTs","playlistName":"أسئلة المتابعين","category":"متنوع"},{"id":"cUm5WW0_o4M","title":"هل تفسير وفهم القرآن أفضل من الحفظ بدون فهم؟","publishedAt":"2024-11-09T18:06:38Z","duration":"PT10M57S","thumbnail":"https://i.ytimg.com/vi/cUm5WW0_o4M/mqdefault.jpg","viewCount":"4625","playlistId":"PLEkQk5xrP-tkGXuZ9atE3k_7it12rUPTs","playlistName":"أسئلة المتابعين","category":"متنوع"},{"id":"j9AC5gMrF1Y","title":"هل يجوز التبرع بالأعضاء بعد الوفاة؟","publishedAt":"2022-10-01T18:00:14Z","duration":"PT10M9S","thumbnail":"https://i.ytimg.com/vi/j9AC5gMrF1Y/mqdefault.jpg","viewCount":"5474","playlistId":"PLEkQk5xrP-tkGXuZ9atE3k_7it12rUPTs","playlistName":"أسئلة المتابعين","category":"متنوع"},{"id":"BWUMu5wE95g","title":"هل يجوز فك السحر بسحر مثله؟","publishedAt":"2022-09-24T18:00:03Z","duration":"PT9M5S","thumbnail":"https://i.ytimg.com/vi/BWUMu5wE95g/mqdefault.jpg","viewCount":"6192","playlistId":"PLEkQk5xrP-tkGXuZ9atE3k_7it12rUPTs","playlistName":"أسئلة المتابعين","category":"متنوع"}],"total":335,"page":7,"pageSize":24,"totalPages":14}