{"items":[{"id":"t5qVByQkmoI","title":"كيف أواظب على الصلاة وأتخلص من شهوة مشاهدة الإباحية؟","publishedAt":"2023-12-02T18:29:03Z","duration":"PT8M48S","thumbnail":"https://i.ytimg.com/vi/t5qVByQkmoI/mqdefault.jpg","viewCount":"9290","playlistId":"PLEkQk5xrP-tkGXuZ9atE3k_7it12rUPTs","playlistName":"أسئلة المتابعين","category":"متنوع"},{"id":"VxE9WX8IJZM","title":"ماذا أفعل حتى يزيد حبي للنبي ﷺ؟","publishedAt":"2023-11-30T16:30:20Z","duration":"PT9M28S","thumbnail":"https://i.ytimg.com/vi/VxE9WX8IJZM/mqdefault.jpg","viewCount":"16277","playlistId":"PLEkQk5xrP-tkGXuZ9atE3k_7it12rUPTs","playlistName":"أسئلة المتابعين","category":"متنوع"},{"id":"teM6OicJoLo","title":"هل يوجد شروط للدخول في طريق التصوف؟","publishedAt":"2023-11-28T19:00:35Z","duration":"PT8M41S","thumbnail":"https://i.ytimg.com/vi/teM6OicJoLo/mqdefault.jpg","viewCount":"10937","playlistId":"PLEkQk5xrP-tkGXuZ9atE3k_7it12rUPTs","playlistName":"أسئلة المتابعين","category":"متنوع"},{"id":"n-BKcvCSOuM","title":"أنا طبيب وأرتكب بعض الأخطاء التي تؤدي إلى وفاة المرضى ,, ماذا أفعل؟","publishedAt":"2023-11-26T18:30:44Z","duration":"PT11M41S","thumbnail":"https://i.ytimg.com/vi/n-BKcvCSOuM/mqdefault.jpg","viewCount":"7885","playlistId":"PLEkQk5xrP-tkGXuZ9atE3k_7it12rUPTs","playlistName":"أسئلة المتابعين","category":"متنوع"},{"id":"IyCMVX4bz3c","title":"هل النفقة واجبة على الرجل بعد الطلاق؟","publishedAt":"2022-02-03T18:00:06Z","duration":"PT9M41S","thumbnail":"https://i.ytimg.com/vi/IyCMVX4bz3c/mqdefault.jpg","viewCount":"3734","playlistId":"PLEkQk5xrP-tkGXuZ9atE3k_7it12rUPTs","playlistName":"أسئلة المتابعين","category":"متنوع"},{"id":"Sqa5bv7YfuY","title":"ما حكم قراءة القرآن بدون تجويد؟","publishedAt":"2024-09-10T18:23:28Z","duration":"PT8M52S","thumbnail":"https://i.ytimg.com/vi/Sqa5bv7YfuY/mqdefault.jpg","viewCount":"4401","playlistId":"PLEkQk5xrP-tkGXuZ9atE3k_7it12rUPTs","playlistName":"أسئلة المتابعين","category":"متنوع"},{"id":"EvFWu8tckCU","title":"ما سبب اعتراض الوهابية الدائم على كلامك؟","publishedAt":"2023-01-18T18:00:06Z","duration":"PT8M10S","thumbnail":"https://i.ytimg.com/vi/EvFWu8tckCU/mqdefault.jpg","viewCount":"22452","playlistId":"PLEkQk5xrP-tkGXuZ9atE3k_7it12rUPTs","playlistName":"أسئلة المتابعين","category":"متنوع"},{"id":"WclSUB4iS8A","title":"هل التعصب الديني يؤدي إلى التطرف؟","publishedAt":"2022-06-29T18:36:35Z","duration":"PT9M19S","thumbnail":"https://i.ytimg.com/vi/WclSUB4iS8A/mqdefault.jpg","viewCount":"4552","playlistId":"PLEkQk5xrP-tkGXuZ9atE3k_7it12rUPTs","playlistName":"أسئلة المتابعين","category":"متنوع"},{"id":"CjE0SEir3Ak","title":"كيف تعالج الاكتئاب؟","publishedAt":"2022-06-28T19:00:03Z","duration":"PT9M11S","thumbnail":"https://i.ytimg.com/vi/CjE0SEir3Ak/mqdefault.jpg","viewCount":"73423","playlistId":"PLEkQk5xrP-tkGXuZ9atE3k_7it12rUPTs","playlistName":"أسئلة المتابعين","category":"متنوع"},{"id":"7NIA7_OZigM","title":"هل ابن تيمية من أهل التصوف؟","publishedAt":"2022-01-30T19:00:02Z","duration":"PT8M49S","thumbnail":"https://i.ytimg.com/vi/7NIA7_OZigM/mqdefault.jpg","viewCount":"46478","playlistId":"PLEkQk5xrP-tkGXuZ9atE3k_7it12rUPTs","playlistName":"أسئلة المتابعين","category":"متنوع"},{"id":"qz-mUTXSH_k","title":"هل يجوز زيارة القبور للنساء؟","publishedAt":"2022-01-29T18:00:13Z","duration":"PT12M32S","thumbnail":"https://i.ytimg.com/vi/qz-mUTXSH_k/mqdefault.jpg","viewCount":"6596","playlistId":"PLEkQk5xrP-tkGXuZ9atE3k_7it12rUPTs","playlistName":"أسئلة المتابعين","category":"متنوع"},{"id":"Xv4qryaPm6Y","title":"ما حكم الصلاة جالسا مع قدرتي على الوقوف؟","publishedAt":"2025-03-18T19:00:23Z","duration":"PT15M43S","thumbnail":"https://i.ytimg.com/vi/Xv4qryaPm6Y/mqdefault.jpg","viewCount":"3800","playlistId":"PLEkQk5xrP-tkGXuZ9atE3k_7it12rUPTs","playlistName":"أسئلة المتابعين","category":"متنوع"},{"id":"uh-LE5X6QhY","title":"ابني مش بيصلي فماذا أفعل معه؟","publishedAt":"2025-03-14T19:00:50Z","duration":"PT8M1S","thumbnail":"https://i.ytimg.com/vi/uh-LE5X6QhY/mqdefault.jpg","viewCount":"2262","playlistId":"PLEkQk5xrP-tkGXuZ9atE3k_7it12rUPTs","playlistName":"أسئلة المتابعين","category":"متنوع"},{"id":"k79Xmot4NoY","title":"بعد الطلاق,, كيف تتعامل مع أولادك؟","publishedAt":"2022-06-04T19:00:16Z","duration":"PT9M35S","thumbnail":"https://i.ytimg.com/vi/k79Xmot4NoY/mqdefault.jpg","viewCount":"3750","playlistId":"PLEkQk5xrP-tkGXuZ9atE3k_7it12rUPTs","playlistName":"أسئلة المتابعين","category":"متنوع"},{"id":"CTRBgJDJWyc","title":"هل حفظ القرآن واجب على كل مسلم؟","publishedAt":"2025-03-12T19:00:10Z","duration":"PT9M14S","thumbnail":"https://i.ytimg.com/vi/CTRBgJDJWyc/mqdefault.jpg","viewCount":"3805","playlistId":"PLEkQk5xrP-tkGXuZ9atE3k_7it12rUPTs","playlistName":"أسئلة المتابعين","category":"متنوع"},{"id":"g_duznd_RPs","title":"أنا مقاطع أهلي لأنهم حرموني من الورث ,, فماذا أفعل؟","publishedAt":"2025-03-11T18:33:21Z","duration":"PT8M27S","thumbnail":"https://i.ytimg.com/vi/g_duznd_RPs/mqdefault.jpg","viewCount":"1771","playlistId":"PLEkQk5xrP-tkGXuZ9atE3k_7it12rUPTs","playlistName":"أسئلة المتابعين","category":"متنوع"},{"id":"X0GR2YbAaB4","title":"هل الصلاة على النبي ﷺ أفضل من الاستغفار؟","publishedAt":"2024-09-20T17:25:54Z","duration":"PT9M7S","thumbnail":"https://i.ytimg.com/vi/X0GR2YbAaB4/mqdefault.jpg","viewCount":"8816","playlistId":"PLEkQk5xrP-tkGXuZ9atE3k_7it12rUPTs","playlistName":"أسئلة المتابعين","category":"متنوع"},{"id":"HVQacylpFCA","title":"ما هي حدود فترة كتب الكتاب ,, وما العمل إذا حدثت الدخلة في هذه الفترة؟","publishedAt":"2024-09-19T18:54:47Z","duration":"PT8M1S","thumbnail":"https://i.ytimg.com/vi/HVQacylpFCA/mqdefault.jpg","viewCount":"3056","playlistId":"PLEkQk5xrP-tkGXuZ9atE3k_7it12rUPTs","playlistName":"أسئلة المتابعين","category":"متنوع"},{"id":"WxxmfUJ_Nww","title":"حدود التعامل بين الشيوخ و النساء! #يسري_جبر","publishedAt":"2024-09-19T14:44:14Z","duration":"PT1M1S","thumbnail":"https://i.ytimg.com/vi/WxxmfUJ_Nww/mqdefault.jpg","viewCount":"24059","playlistId":"PLEkQk5xrP-tkGXuZ9atE3k_7it12rUPTs","playlistName":"أسئلة المتابعين","category":"متنوع"},{"id":"1j8pGJ8YJ_o","title":"كيف أتغلب على النفس الأمارة بالسوء؟","publishedAt":"2025-03-10T18:30:02Z","duration":"PT8M15S","thumbnail":"https://i.ytimg.com/vi/1j8pGJ8YJ_o/mqdefault.jpg","viewCount":"5392","playlistId":"PLEkQk5xrP-tkGXuZ9atE3k_7it12rUPTs","playlistName":"أسئلة المتابعين","category":"متنوع"},{"id":"zcfSSvqPo1Q","title":"ما حكم مشاهدة مباريات كرة القدم؟","publishedAt":"2021-07-17T17:15:01Z","duration":"PT11M39S","thumbnail":"https://i.ytimg.com/vi/zcfSSvqPo1Q/mqdefault.jpg","viewCount":"5903","playlistId":"PLEkQk5xrP-tkGXuZ9atE3k_7it12rUPTs","playlistName":"أسئلة المتابعين","category":"متنوع"},{"id":"PbjtpNGFLdo","title":"خطر الإلحاد وكيفية الحماية منه؟","publishedAt":"2021-07-16T19:00:07Z","duration":"PT10M19S","thumbnail":"https://i.ytimg.com/vi/PbjtpNGFLdo/mqdefault.jpg","viewCount":"4151","playlistId":"PLEkQk5xrP-tkGXuZ9atE3k_7it12rUPTs","playlistName":"أسئلة المتابعين","category":"متنوع"},{"id":"po-x2WEfE1o","title":"كيف أطلب شيئا من الله وأنا عاصٍ؟","publishedAt":"2021-07-11T17:30:02Z","duration":"PT11M32S","thumbnail":"https://i.ytimg.com/vi/po-x2WEfE1o/mqdefault.jpg","viewCount":"8989","playlistId":"PLEkQk5xrP-tkGXuZ9atE3k_7it12rUPTs","playlistName":"أسئلة المتابعين","category":"متنوع"},{"id":"vxjkKV3QykU","title":"زوجي بيضربني دايما بدون سبب فماذا أفعل؟","publishedAt":"2023-05-16T18:00:23Z","duration":"PT8M14S","thumbnail":"https://i.ytimg.com/vi/vxjkKV3QykU/mqdefault.jpg","viewCount":"6351","playlistId":"PLEkQk5xrP-tkGXuZ9atE3k_7it12rUPTs","playlistName":"أسئلة المتابعين","category":"متنوع"}],"total":335,"page":10,"pageSize":24,"totalPages":14}