{"items":[{"id":"WdFc0sTqEMk","title":"كيف أطلب العلم عن بعد؟","publishedAt":"2021-09-02T19:30:04Z","duration":"PT11M49S","thumbnail":"https://i.ytimg.com/vi/WdFc0sTqEMk/mqdefault.jpg","viewCount":"14436","playlistId":"PLEkQk5xrP-tkGXuZ9atE3k_7it12rUPTs","playlistName":"أسئلة المتابعين","category":"متنوع"},{"id":"b5W3rlSjJio","title":"هل يجوز تهنئة المسيحيين بأعيادهم؟","publishedAt":"2024-12-25T17:00:37Z","duration":"PT9M44S","thumbnail":"https://i.ytimg.com/vi/b5W3rlSjJio/mqdefault.jpg","viewCount":"8824","playlistId":"PLEkQk5xrP-tkGXuZ9atE3k_7it12rUPTs","playlistName":"أسئلة المتابعين","category":"متنوع"},{"id":"f5-woAoqv0A","title":"عندي وسواس في إيماني ,, فماذا أفعل؟","publishedAt":"2024-12-21T18:32:11Z","duration":"PT8M39S","thumbnail":"https://i.ytimg.com/vi/f5-woAoqv0A/mqdefault.jpg","viewCount":"3037","playlistId":"PLEkQk5xrP-tkGXuZ9atE3k_7it12rUPTs","playlistName":"أسئلة المتابعين","category":"متنوع"},{"id":"rZsMVqK5ZaM","title":"اكتشفت ان زوجي بيخوني بعد 25 سنة جواز ,, أعمل ايه؟؟","publishedAt":"2024-12-16T18:59:55Z","duration":"PT10M22S","thumbnail":"https://i.ytimg.com/vi/rZsMVqK5ZaM/mqdefault.jpg","viewCount":"4037","playlistId":"PLEkQk5xrP-tkGXuZ9atE3k_7it12rUPTs","playlistName":"أسئلة المتابعين","category":"متنوع"},{"id":"yk9jx6N3xW4","title":"هل قانون الإيجار القديم في مصر جائز شرعًا؟","publishedAt":"2022-04-24T19:30:02Z","duration":"PT12M4S","thumbnail":"https://i.ytimg.com/vi/yk9jx6N3xW4/mqdefault.jpg","viewCount":"7269","playlistId":"PLEkQk5xrP-tkGXuZ9atE3k_7it12rUPTs","playlistName":"أسئلة المتابعين","category":"متنوع"},{"id":"i3iDnuYvqEs","title":"هل يوجد أولياء لهم اتصال بالجن؟","publishedAt":"2022-04-19T19:30:07Z","duration":"PT8M8S","thumbnail":"https://i.ytimg.com/vi/i3iDnuYvqEs/mqdefault.jpg","viewCount":"191064","playlistId":"PLEkQk5xrP-tkGXuZ9atE3k_7it12rUPTs","playlistName":"أسئلة المتابعين","category":"متنوع"},{"id":"WPfM_4ulKtE","title":"ما أهمية أخذ الإجازة وهل يجوز قراءة الأحاديث بدونها؟","publishedAt":"2024-05-24T17:35:05Z","duration":"PT10M47S","thumbnail":"https://i.ytimg.com/vi/WPfM_4ulKtE/mqdefault.jpg","viewCount":"2935","playlistId":"PLEkQk5xrP-tkGXuZ9atE3k_7it12rUPTs","playlistName":"أسئلة المتابعين","category":"متنوع"},{"id":"XZwrWgB1oUs","title":"كيف نرد على من ينكر وجود الأنبياء في مصر؟","publishedAt":"2024-05-18T17:52:10Z","duration":"PT8M53S","thumbnail":"https://i.ytimg.com/vi/XZwrWgB1oUs/mqdefault.jpg","viewCount":"4311","playlistId":"PLEkQk5xrP-tkGXuZ9atE3k_7it12rUPTs","playlistName":"أسئلة المتابعين","category":"متنوع"},{"id":"cCo9Ltd5t2c","title":"زوجي تزوج عليا فهل من حقي طلب الطلاق ام ماذا أفعل؟","publishedAt":"2024-05-12T18:15:11Z","duration":"PT8M7S","thumbnail":"https://i.ytimg.com/vi/cCo9Ltd5t2c/mqdefault.jpg","viewCount":"7197","playlistId":"PLEkQk5xrP-tkGXuZ9atE3k_7it12rUPTs","playlistName":"أسئلة المتابعين","category":"متنوع"},{"id":"MZCMZJZ-ogU","title":"ما حكم سماع الأغاني في رمضان؟","publishedAt":"2023-04-12T19:00:07Z","duration":"PT9M56S","thumbnail":"https://i.ytimg.com/vi/MZCMZJZ-ogU/mqdefault.jpg","viewCount":"6549","playlistId":"PLEkQk5xrP-tkGXuZ9atE3k_7it12rUPTs","playlistName":"أسئلة المتابعين","category":"متنوع"},{"id":"5QHuwh7bKHk","title":"حكم الحلف بالنبي ﷺ والحلف بغير الله وما الفرق؟","publishedAt":"2023-04-11T19:00:06Z","duration":"PT11M18S","thumbnail":"https://i.ytimg.com/vi/5QHuwh7bKHk/mqdefault.jpg","viewCount":"4666","playlistId":"PLEkQk5xrP-tkGXuZ9atE3k_7it12rUPTs","playlistName":"أسئلة المتابعين","category":"متنوع"},{"id":"_PGpy7-onW4","title":"هل حركات المولوية أثناء الذكر جائزة؟","publishedAt":"2022-03-15T19:03:53Z","duration":"PT12M29S","thumbnail":"https://i.ytimg.com/vi/_PGpy7-onW4/mqdefault.jpg","viewCount":"13370","playlistId":"PLEkQk5xrP-tkGXuZ9atE3k_7it12rUPTs","playlistName":"أسئلة المتابعين","category":"متنوع"},{"id":"XMIB7dao-uk","title":"هل النبي ﷺ يعرف حقيقته الروحانية؟","publishedAt":"2022-03-13T18:08:49Z","duration":"PT10M47S","thumbnail":"https://i.ytimg.com/vi/XMIB7dao-uk/mqdefault.jpg","viewCount":"9962","playlistId":"PLEkQk5xrP-tkGXuZ9atE3k_7it12rUPTs","playlistName":"أسئلة المتابعين","category":"متنوع"},{"id":"c8RGFwlvfl8","title":"كيف قابلت الدكتور علي جمعة؟","publishedAt":"2022-03-12T19:24:04Z","duration":"PT9M36S","thumbnail":"https://i.ytimg.com/vi/c8RGFwlvfl8/mqdefault.jpg","viewCount":"13828","playlistId":"PLEkQk5xrP-tkGXuZ9atE3k_7it12rUPTs","playlistName":"أسئلة المتابعين","category":"متنوع"},{"id":"bLGUaZ3mjEc","title":"كيف تحصل على خبرة في مجالك؟","publishedAt":"2023-04-09T19:00:24Z","duration":"PT8M1S","thumbnail":"https://i.ytimg.com/vi/bLGUaZ3mjEc/mqdefault.jpg","viewCount":"6140","playlistId":"PLEkQk5xrP-tkGXuZ9atE3k_7it12rUPTs","playlistName":"أسئلة المتابعين","category":"متنوع"},{"id":"LkjNg32gY0U","title":"كيف نتعامل مع الناس المؤذية؟","publishedAt":"2023-09-15T17:00:13Z","duration":"PT11M3S","thumbnail":"https://i.ytimg.com/vi/LkjNg32gY0U/mqdefault.jpg","viewCount":"6631","playlistId":"PLEkQk5xrP-tkGXuZ9atE3k_7it12rUPTs","playlistName":"أسئلة المتابعين","category":"متنوع"},{"id":"ESxu4Dt0NvM","title":"أنا مليش حظ في الدنيا رغم محافظتي على صلاتي ,, أعمل ايه؟","publishedAt":"2023-09-13T17:00:08Z","duration":"PT8M24S","thumbnail":"https://i.ytimg.com/vi/ESxu4Dt0NvM/mqdefault.jpg","viewCount":"10659","playlistId":"PLEkQk5xrP-tkGXuZ9atE3k_7it12rUPTs","playlistName":"أسئلة المتابعين","category":"متنوع"},{"id":"-JABB-iPWM4","title":"هل كان النبي ﷺ ينسى بعض القران؟","publishedAt":"2023-04-04T19:00:00Z","duration":"PT10M17S","thumbnail":"https://i.ytimg.com/vi/-JABB-iPWM4/mqdefault.jpg","viewCount":"4036","playlistId":"PLEkQk5xrP-tkGXuZ9atE3k_7it12rUPTs","playlistName":"أسئلة المتابعين","category":"متنوع"},{"id":"ARAJjneBGuw","title":"كيف اتخلص من التفكير السلبي؟","publishedAt":"2023-04-03T19:00:06Z","duration":"PT10M2S","thumbnail":"https://i.ytimg.com/vi/ARAJjneBGuw/mqdefault.jpg","viewCount":"41640","playlistId":"PLEkQk5xrP-tkGXuZ9atE3k_7it12rUPTs","playlistName":"أسئلة المتابعين","category":"متنوع"},{"id":"SSz1MxzNlTc","title":"ما حكم الذكر بدون حضور القلب؟","publishedAt":"2023-04-02T19:00:09Z","duration":"PT8M53S","thumbnail":"https://i.ytimg.com/vi/SSz1MxzNlTc/mqdefault.jpg","viewCount":"27698","playlistId":"PLEkQk5xrP-tkGXuZ9atE3k_7it12rUPTs","playlistName":"أسئلة المتابعين","category":"متنوع"},{"id":"q4wVPB8WPgg","title":"كيفية علاج فتور الهمة في العبادة؟","publishedAt":"2023-04-06T19:00:30Z","duration":"PT8M11S","thumbnail":"https://i.ytimg.com/vi/q4wVPB8WPgg/mqdefault.jpg","viewCount":"17633","playlistId":"PLEkQk5xrP-tkGXuZ9atE3k_7it12rUPTs","playlistName":"أسئلة المتابعين","category":"متنوع"},{"id":"eTo2waxiSVE","title":"من أول من قال بالتأويل؟","publishedAt":"2021-09-13T17:40:21Z","duration":"PT9M34S","thumbnail":"https://i.ytimg.com/vi/eTo2waxiSVE/mqdefault.jpg","viewCount":"3730","playlistId":"PLEkQk5xrP-tkGXuZ9atE3k_7it12rUPTs","playlistName":"أسئلة المتابعين","category":"متنوع"},{"id":"PlqXtXH8HqE","title":"الرد على من ينكر واسطة النبي ﷺ في الأكوان!","publishedAt":"2024-08-31T18:00:08Z","duration":"PT8M57S","thumbnail":"https://i.ytimg.com/vi/PlqXtXH8HqE/mqdefault.jpg","viewCount":"3597","playlistId":"PLEkQk5xrP-tkGXuZ9atE3k_7it12rUPTs","playlistName":"أسئلة المتابعين","category":"متنوع"},{"id":"Xw9lAdN_MeI","title":"أنا عندي وسواس قهري كيف أتحرر منه؟ | علاج الوسواس القهري","publishedAt":"2024-08-26T18:00:02Z","duration":"PT8M38S","thumbnail":"https://i.ytimg.com/vi/Xw9lAdN_MeI/mqdefault.jpg","viewCount":"4712","playlistId":"PLEkQk5xrP-tkGXuZ9atE3k_7it12rUPTs","playlistName":"أسئلة المتابعين","category":"متنوع"}],"total":335,"page":3,"pageSize":24,"totalPages":14}