{"items":[{"id":"gbyXtCa5NXw","title":"أنا في بداية طريقي إلى الله ,, ما هي الكتب التي تنصحني بها؟","publishedAt":"2024-08-05T18:00:19Z","duration":"PT9M20S","thumbnail":"https://i.ytimg.com/vi/gbyXtCa5NXw/mqdefault.jpg","viewCount":"6857","playlistId":"PLEkQk5xrP-tkGXuZ9atE3k_7it12rUPTs","playlistName":"أسئلة المتابعين","category":"متنوع"},{"id":"p0yfvThd-68","title":"كيف أسيطر على شهوتي؟","publishedAt":"2021-12-12T17:15:00Z","duration":"PT8M53S","thumbnail":"https://i.ytimg.com/vi/p0yfvThd-68/mqdefault.jpg","viewCount":"13279","playlistId":"PLEkQk5xrP-tkGXuZ9atE3k_7it12rUPTs","playlistName":"أسئلة المتابعين","category":"متنوع"},{"id":"yeOpCGrN8iA","title":"أنا كنت في ثانوية عامة ونفسي أدخل كلية الطب بماذا تنصحني؟","publishedAt":"2024-08-01T18:14:00Z","duration":"PT8M12S","thumbnail":"https://i.ytimg.com/vi/yeOpCGrN8iA/mqdefault.jpg","viewCount":"2867","playlistId":"PLEkQk5xrP-tkGXuZ9atE3k_7it12rUPTs","playlistName":"أسئلة المتابعين","category":"متنوع"},{"id":"UFmzj_ZtQiY","title":"هل يجوز للمرأة الزواج بدون علم أهلها؟","publishedAt":"2024-11-11T18:27:01Z","duration":"PT11M32S","thumbnail":"https://i.ytimg.com/vi/UFmzj_ZtQiY/mqdefault.jpg","viewCount":"3300","playlistId":"PLEkQk5xrP-tkGXuZ9atE3k_7it12rUPTs","playlistName":"أسئلة المتابعين","category":"متنوع"},{"id":"cUm5WW0_o4M","title":"هل تفسير وفهم القرآن أفضل من الحفظ بدون فهم؟","publishedAt":"2024-11-09T18:06:38Z","duration":"PT10M57S","thumbnail":"https://i.ytimg.com/vi/cUm5WW0_o4M/mqdefault.jpg","viewCount":"4625","playlistId":"PLEkQk5xrP-tkGXuZ9atE3k_7it12rUPTs","playlistName":"أسئلة المتابعين","category":"متنوع"},{"id":"j9AC5gMrF1Y","title":"هل يجوز التبرع بالأعضاء بعد الوفاة؟","publishedAt":"2022-10-01T18:00:14Z","duration":"PT10M9S","thumbnail":"https://i.ytimg.com/vi/j9AC5gMrF1Y/mqdefault.jpg","viewCount":"5474","playlistId":"PLEkQk5xrP-tkGXuZ9atE3k_7it12rUPTs","playlistName":"أسئلة المتابعين","category":"متنوع"},{"id":"BWUMu5wE95g","title":"هل يجوز فك السحر بسحر مثله؟","publishedAt":"2022-09-24T18:00:03Z","duration":"PT9M5S","thumbnail":"https://i.ytimg.com/vi/BWUMu5wE95g/mqdefault.jpg","viewCount":"6192","playlistId":"PLEkQk5xrP-tkGXuZ9atE3k_7it12rUPTs","playlistName":"أسئلة المتابعين","category":"متنوع"},{"id":"-xG1tGl-id8","title":"هل صلاة الجمعة تسقط فرض الظهر؟","publishedAt":"2021-10-17T18:30:01Z","duration":"PT8M46S","thumbnail":"https://i.ytimg.com/vi/-xG1tGl-id8/mqdefault.jpg","viewCount":"19742","playlistId":"PLEkQk5xrP-tkGXuZ9atE3k_7it12rUPTs","playlistName":"أسئلة المتابعين","category":"متنوع"},{"id":"3uXvn2lb3ps","title":"أنا لا أستطيع المواظبة على الذكر فماذا أفعل؟","publishedAt":"2024-11-04T17:18:24Z","duration":"PT8M3S","thumbnail":"https://i.ytimg.com/vi/3uXvn2lb3ps/mqdefault.jpg","viewCount":"12336","playlistId":"PLEkQk5xrP-tkGXuZ9atE3k_7it12rUPTs","playlistName":"أسئلة المتابعين","category":"متنوع"},{"id":"j1I1u5-vCFE","title":"لماذا يتم إزالة بعض المساجد في مصر؟","publishedAt":"2022-04-09T19:30:16Z","duration":"PT8M1S","thumbnail":"https://i.ytimg.com/vi/j1I1u5-vCFE/mqdefault.jpg","viewCount":"5457","playlistId":"PLEkQk5xrP-tkGXuZ9atE3k_7it12rUPTs","playlistName":"أسئلة المتابعين","category":"متنوع"},{"id":"k79Xmot4NoY","title":"بعد الطلاق,, كيف تتعامل مع أولادك؟","publishedAt":"2022-06-04T19:00:16Z","duration":"PT9M35S","thumbnail":"https://i.ytimg.com/vi/k79Xmot4NoY/mqdefault.jpg","viewCount":"3750","playlistId":"PLEkQk5xrP-tkGXuZ9atE3k_7it12rUPTs","playlistName":"أسئلة المتابعين","category":"متنوع"},{"id":"1SIRJhzv-Hw","title":"هل يجب إكراه الطفل الأعسر على استخدام اليد اليمنى؟","publishedAt":"2023-06-14T18:00:00Z","duration":"PT9M26S","thumbnail":"https://i.ytimg.com/vi/1SIRJhzv-Hw/mqdefault.jpg","viewCount":"5778","playlistId":"PLEkQk5xrP-tkGXuZ9atE3k_7it12rUPTs","playlistName":"أسئلة المتابعين","category":"متنوع"},{"id":"bmMcueZWujM","title":"خايف أموت على معصية أو بدون قول الشهادة,, أعمل ايه؟؟","publishedAt":"2023-06-12T18:00:15Z","duration":"PT8M53S","thumbnail":"https://i.ytimg.com/vi/bmMcueZWujM/mqdefault.jpg","viewCount":"8280","playlistId":"PLEkQk5xrP-tkGXuZ9atE3k_7it12rUPTs","playlistName":"أسئلة المتابعين","category":"متنوع"},{"id":"q4XKtKub7Y8","title":"أنا مقبل على الزواج بس متردد أخد الخطوة دي ,, فماذا أفعل؟","publishedAt":"2023-10-08T18:04:36Z","duration":"PT8M12S","thumbnail":"https://i.ytimg.com/vi/q4XKtKub7Y8/mqdefault.jpg","viewCount":"4067","playlistId":"PLEkQk5xrP-tkGXuZ9atE3k_7it12rUPTs","playlistName":"أسئلة المتابعين","category":"متنوع"},{"id":"UGZirCHDbq8","title":"أنا زعلان من ربنا كنت متعشم فيه وحسيت انه خذلني في مستقبلي أعمل ايه؟","publishedAt":"2023-10-07T18:00:18Z","duration":"PT12M3S","thumbnail":"https://i.ytimg.com/vi/UGZirCHDbq8/mqdefault.jpg","viewCount":"16375","playlistId":"PLEkQk5xrP-tkGXuZ9atE3k_7it12rUPTs","playlistName":"أسئلة المتابعين","category":"متنوع"},{"id":"DQQliif0UvQ","title":"أنا عامل عملية فكيف أغتسل للصلاة؟ | كيفية التيمم","publishedAt":"2023-10-05T18:00:06Z","duration":"PT11M32S","thumbnail":"https://i.ytimg.com/vi/DQQliif0UvQ/mqdefault.jpg","viewCount":"2715","playlistId":"PLEkQk5xrP-tkGXuZ9atE3k_7it12rUPTs","playlistName":"أسئلة المتابعين","category":"متنوع"},{"id":"vvSPqIBaCFc","title":"كيف نرد على من يقول أن الله في السماء؟","publishedAt":"2023-10-04T16:00:51Z","duration":"PT9M53S","thumbnail":"https://i.ytimg.com/vi/vvSPqIBaCFc/mqdefault.jpg","viewCount":"14941","playlistId":"PLEkQk5xrP-tkGXuZ9atE3k_7it12rUPTs","playlistName":"أسئلة المتابعين","category":"متنوع"},{"id":"6txGEjQDW7Y","title":"بحاول أنتظم في الصلاة بقالي سنتين ومش عارف ,, فماذا أفعل؟","publishedAt":"2023-08-03T18:00:03Z","duration":"PT11M13S","thumbnail":"https://i.ytimg.com/vi/6txGEjQDW7Y/mqdefault.jpg","viewCount":"4907","playlistId":"PLEkQk5xrP-tkGXuZ9atE3k_7it12rUPTs","playlistName":"أسئلة المتابعين","category":"متنوع"},{"id":"vf2VUVm8CxM","title":"ما رأيك في خلاف المريدين حول تنصيب شيخ الطريقة؟","publishedAt":"2024-06-24T18:18:34Z","duration":"PT8M17S","thumbnail":"https://i.ytimg.com/vi/vf2VUVm8CxM/mqdefault.jpg","viewCount":"5848","playlistId":"PLEkQk5xrP-tkGXuZ9atE3k_7it12rUPTs","playlistName":"أسئلة المتابعين","category":"متنوع"},{"id":"HR3g55dyCZ0","title":"هل يجوز الأكل عند شخص مع علمي بأن ماله حرام؟","publishedAt":"2023-02-16T18:00:07Z","duration":"PT8M34S","thumbnail":"https://i.ytimg.com/vi/HR3g55dyCZ0/mqdefault.jpg","viewCount":"6267","playlistId":"PLEkQk5xrP-tkGXuZ9atE3k_7it12rUPTs","playlistName":"أسئلة المتابعين","category":"متنوع"},{"id":"KzLxA6qk_Wg","title":"ما الحكمة من إعطاء المال للفقراء بعد التعب في تحصيله مع عدم سعي الفقير للعمل لتحصيل المال؟","publishedAt":"2023-01-09T18:00:10Z","duration":"PT8M59S","thumbnail":"https://i.ytimg.com/vi/KzLxA6qk_Wg/mqdefault.jpg","viewCount":"4384","playlistId":"PLEkQk5xrP-tkGXuZ9atE3k_7it12rUPTs","playlistName":"أسئلة المتابعين","category":"متنوع"},{"id":"bdDL-Jj4idI","title":"ابني مش بيسمع كلامي ازاى أصاحبه؟","publishedAt":"2024-02-10T18:00:13Z","duration":"PT11M40S","thumbnail":"https://i.ytimg.com/vi/bdDL-Jj4idI/mqdefault.jpg","viewCount":"4988","playlistId":"PLEkQk5xrP-tkGXuZ9atE3k_7it12rUPTs","playlistName":"أسئلة المتابعين","category":"متنوع"},{"id":"pGRxMsuBC-A","title":"عايزة أتجوز وأهلي مش موافقين ,, أعمل ايه؟ | نصيحة للأهالي","publishedAt":"2024-02-09T18:00:57Z","duration":"PT8M30S","thumbnail":"https://i.ytimg.com/vi/pGRxMsuBC-A/mqdefault.jpg","viewCount":"3808","playlistId":"PLEkQk5xrP-tkGXuZ9atE3k_7it12rUPTs","playlistName":"أسئلة المتابعين","category":"متنوع"},{"id":"hmJPnQlkY5k","title":"ما حكم الغش في الامتحان؟","publishedAt":"2021-06-22T18:00:16Z","duration":"PT10M57S","thumbnail":"https://i.ytimg.com/vi/hmJPnQlkY5k/mqdefault.jpg","viewCount":"4757","playlistId":"PLEkQk5xrP-tkGXuZ9atE3k_7it12rUPTs","playlistName":"أسئلة المتابعين","category":"متنوع"}],"total":335,"page":11,"pageSize":24,"totalPages":14}