{"items":[{"id":"8xophfKbppw","title":"2- فوائد تتعلق بالصفة -الخامسة: قد يحتمل اللفظ كثيرا من الأسباب السابقة - شرح البرهان في علوم القرآن","publishedAt":"2021-02-05T06:58:11Z","duration":"PT9M10S","thumbnail":"https://i.ytimg.com/vi/8xophfKbppw/mqdefault.jpg","viewCount":"504","playlistId":"PLEkQk5xrP-tnW3iBL7HkKziOFCFZbTlf0","playlistName":"شرح البرهان في علوم القرآن - أ.د. يسري جبر","category":"تفسير"},{"id":"CFjS1AtiWDU","title":"1- فوائد تتعلق بالصِّفة - الأول: الصّفة العامة لا تأتي بعد الصفة الخاصة - شرح البرهان في علوم القرآن","publishedAt":"2021-02-03T06:55:02Z","duration":"PT23M42S","thumbnail":"https://i.ytimg.com/vi/CFjS1AtiWDU/mqdefault.jpg","viewCount":"652","playlistId":"PLEkQk5xrP-tnW3iBL7HkKziOFCFZbTlf0","playlistName":"شرح البرهان في علوم القرآن - أ.د. يسري جبر","category":"تفسير"},{"id":"PfJY0jiuc_g","title":"القِسمُ الثاني: الصِّفَة تأتي لأسباب: ثالثًا: الثالث لتعيينه للجنسية - شرح البرهان في علوم القرآن","publishedAt":"2021-02-01T07:08:31Z","duration":"PT18M56S","thumbnail":"https://i.ytimg.com/vi/PfJY0jiuc_g/mqdefault.jpg","viewCount":"574","playlistId":"PLEkQk5xrP-tnW3iBL7HkKziOFCFZbTlf0","playlistName":"شرح البرهان في علوم القرآن - أ.د. يسري جبر","category":"تفسير"},{"id":"a_XYxyRN0Dc","title":"القسم الثاني: الصِّفة تأتي لأسباب: أولا: المدح والثناء، شرح البرهان في علوم القرآن","publishedAt":"2021-01-30T07:00:51Z","duration":"PT14M11S","thumbnail":"https://i.ytimg.com/vi/a_XYxyRN0Dc/mqdefault.jpg","viewCount":"517","playlistId":"PLEkQk5xrP-tnW3iBL7HkKziOFCFZbTlf0","playlistName":"شرح البرهان في علوم القرآن - أ.د. يسري جبر","category":"تفسير"},{"id":"fiO8_yqXAzE","title":"مؤكِّدات الجُمَل الفعليَّة - (قد - لقد) شرح البرهان في علوم القرآن","publishedAt":"2021-01-28T07:07:32Z","duration":"PT29M12S","thumbnail":"https://i.ytimg.com/vi/fiO8_yqXAzE/mqdefault.jpg","viewCount":"543","playlistId":"PLEkQk5xrP-tnW3iBL7HkKziOFCFZbTlf0","playlistName":"شرح البرهان في علوم القرآن - أ.د. يسري جبر","category":"تفسير"},{"id":"-3uKNiTQYZk","title":"(هاء) التنبيه - من أدوات التأكيد\"مؤكِّدات الجُمَل الإسميَّة\" شرح البرهان في علوم القرآن","publishedAt":"2021-01-26T08:18:03Z","duration":"PT18M14S","thumbnail":"https://i.ytimg.com/vi/-3uKNiTQYZk/mqdefault.jpg","viewCount":"691","playlistId":"PLEkQk5xrP-tnW3iBL7HkKziOFCFZbTlf0","playlistName":"شرح البرهان في علوم القرآن - أ.د. يسري جبر","category":"تفسير"},{"id":"HUbiv3AelvU","title":"تصدير الجملة بضمير مبتدأ يفيد التأكيد - أدوات التوكيد - شرح البرهان في علوم القرآن أ.د. يسري جبر","publishedAt":"2021-01-25T07:17:45Z","duration":"PT25M44S","thumbnail":"https://i.ytimg.com/vi/HUbiv3AelvU/mqdefault.jpg","viewCount":"483","playlistId":"PLEkQk5xrP-tnW3iBL7HkKziOFCFZbTlf0","playlistName":"شرح البرهان في علوم القرآن - أ.د. يسري جبر","category":"تفسير"},{"id":"ZtNG-vNgVZE","title":"أدوات التوكيد - تأكيد الضمير - شرح البرهان في علوم القرآن أ.د. يسري جبر","publishedAt":"2021-01-23T07:53:17Z","duration":"PT10M35S","thumbnail":"https://i.ytimg.com/vi/ZtNG-vNgVZE/mqdefault.jpg","viewCount":"472","playlistId":"PLEkQk5xrP-tnW3iBL7HkKziOFCFZbTlf0","playlistName":"شرح البرهان في علوم القرآن - أ.د. يسري جبر","category":"تفسير"},{"id":"ucPXzF_kODQ","title":"أدوات التوكيد - ضمير الفصل - شرح البرهان في علوم القرآن أ.د. يسري جبر","publishedAt":"2021-01-20T08:14:56Z","duration":"PT13M42S","thumbnail":"https://i.ytimg.com/vi/ucPXzF_kODQ/mqdefault.jpg","viewCount":"450","playlistId":"PLEkQk5xrP-tnW3iBL7HkKziOFCFZbTlf0","playlistName":"شرح البرهان في علوم القرآن - أ.د. يسري جبر","category":"تفسير"},{"id":"b7w7fLZQK-Y","title":"أدوات التأكيد\"مؤكِّدات الجُمَل الإسميَّة\" شرح البرهان في علوم القرآن أ.د. يسري جبر","publishedAt":"2021-01-16T07:00:26Z","duration":"PT11M26S","thumbnail":"https://i.ytimg.com/vi/b7w7fLZQK-Y/mqdefault.jpg","viewCount":"516","playlistId":"PLEkQk5xrP-tnW3iBL7HkKziOFCFZbTlf0","playlistName":"شرح البرهان في علوم القرآن - أ.د. يسري جبر","category":"تفسير"},{"id":"y_f6GSuLpEg","title":"هل الأَوْلَى\"التأكيد بالمصدر أو الفعل\"؟ شرح البرهان في علوم القرآن أ.د. يسري جبر","publishedAt":"2021-01-14T08:23:12Z","duration":"PT29M6S","thumbnail":"https://i.ytimg.com/vi/y_f6GSuLpEg/mqdefault.jpg","viewCount":"556","playlistId":"PLEkQk5xrP-tnW3iBL7HkKziOFCFZbTlf0","playlistName":"شرح البرهان في علوم القرآن - أ.د. يسري جبر","category":"تفسير"},{"id":"hQ8OzlKnlxY","title":"التأكيد لمعنى الجملة - شرح البرهان في علوم القرآن أ.د. يسري جبر","publishedAt":"2021-01-12T07:29:54Z","duration":"PT8M48S","thumbnail":"https://i.ytimg.com/vi/hQ8OzlKnlxY/mqdefault.jpg","viewCount":"499","playlistId":"PLEkQk5xrP-tnW3iBL7HkKziOFCFZbTlf0","playlistName":"شرح البرهان في علوم القرآن - أ.د. يسري جبر","category":"تفسير"},{"id":"m6e_FoLP7V4","title":"توكيد الفعل بمصدره - شرح البرهان في علوم القرآن أ.د. يسري جبر","publishedAt":"2021-01-10T07:17:28Z","duration":"PT11M15S","thumbnail":"https://i.ytimg.com/vi/m6e_FoLP7V4/mqdefault.jpg","viewCount":"588","playlistId":"PLEkQk5xrP-tnW3iBL7HkKziOFCFZbTlf0","playlistName":"شرح البرهان في علوم القرآن - أ.د. يسري جبر","category":"تفسير"},{"id":"Hyv032b85NM","title":"المفعول المطلق","publishedAt":"2021-01-08T06:51:33Z","duration":"PT23M33S","thumbnail":"https://i.ytimg.com/vi/Hyv032b85NM/mqdefault.jpg","viewCount":"828","playlistId":"PLEkQk5xrP-tnW3iBL7HkKziOFCFZbTlf0","playlistName":"شرح البرهان في علوم القرآن - أ.د. يسري جبر","category":"تفسير"},{"id":"yAuDnmczHpA","title":"تأكيدُ الفعلِ في المصدر","publishedAt":"2021-01-06T06:59:36Z","duration":"PT14M14S","thumbnail":"https://i.ytimg.com/vi/yAuDnmczHpA/mqdefault.jpg","viewCount":"530","playlistId":"PLEkQk5xrP-tnW3iBL7HkKziOFCFZbTlf0","playlistName":"شرح البرهان في علوم القرآن - أ.د. يسري جبر","category":"تفسير"},{"id":"gZ2Z7omliRE","title":"3- التوكيد","publishedAt":"2021-01-04T07:18:37Z","duration":"PT13M26S","thumbnail":"https://i.ytimg.com/vi/gZ2Z7omliRE/mqdefault.jpg","viewCount":"575","playlistId":"PLEkQk5xrP-tnW3iBL7HkKziOFCFZbTlf0","playlistName":"شرح البرهان في علوم القرآن - أ.د. يسري جبر","category":"تفسير"},{"id":"EPLAfGFT5KI","title":"التوكيد اللفظي والمعنوي","publishedAt":"2021-01-02T07:32:53Z","duration":"PT21M24S","thumbnail":"https://i.ytimg.com/vi/EPLAfGFT5KI/mqdefault.jpg","viewCount":"554","playlistId":"PLEkQk5xrP-tnW3iBL7HkKziOFCFZbTlf0","playlistName":"شرح البرهان في علوم القرآن - أ.د. يسري جبر","category":"تفسير"},{"id":"-ZywSqOxPZA","title":"التأكيد","publishedAt":"2020-12-31T08:45:11Z","duration":"PT17M37S","thumbnail":"https://i.ytimg.com/vi/-ZywSqOxPZA/mqdefault.jpg","viewCount":"932","playlistId":"PLEkQk5xrP-tnW3iBL7HkKziOFCFZbTlf0","playlistName":"شرح البرهان في علوم القرآن - أ.د. يسري جبر","category":"تفسير"},{"id":"jL4D2kZQYwU","title":"أساليب القرآن وفنونه البليغة","publishedAt":"2020-12-29T09:37:27Z","duration":"PT11M46S","thumbnail":"https://i.ytimg.com/vi/jL4D2kZQYwU/mqdefault.jpg","viewCount":"1068","playlistId":"PLEkQk5xrP-tnW3iBL7HkKziOFCFZbTlf0","playlistName":"شرح البرهان في علوم القرآن - أ.د. يسري جبر","category":"تفسير"},{"id":"eZn1hoJ6hs4","title":"النَّفْي - القاعدة الرابعة","publishedAt":"2020-12-27T07:24:08Z","duration":"PT20M14S","thumbnail":"https://i.ytimg.com/vi/eZn1hoJ6hs4/mqdefault.jpg","viewCount":"571","playlistId":"PLEkQk5xrP-tnW3iBL7HkKziOFCFZbTlf0","playlistName":"شرح البرهان في علوم القرآن - أ.د. يسري جبر","category":"تفسير"},{"id":"pW3YgO-K6Uk","title":"النَّفْي","publishedAt":"2020-12-25T06:57:12Z","duration":"PT14M13S","thumbnail":"https://i.ytimg.com/vi/pW3YgO-K6Uk/mqdefault.jpg","viewCount":"667","playlistId":"PLEkQk5xrP-tnW3iBL7HkKziOFCFZbTlf0","playlistName":"شرح البرهان في علوم القرآن - أ.د. يسري جبر","category":"تفسير"},{"id":"mcUQr_RsVOs","title":"القَسَمُ وجَوابُه","publishedAt":"2020-12-21T07:28:53Z","duration":"PT9M23S","thumbnail":"https://i.ytimg.com/vi/mcUQr_RsVOs/mqdefault.jpg","viewCount":"602","playlistId":"PLEkQk5xrP-tnW3iBL7HkKziOFCFZbTlf0","playlistName":"شرح البرهان في علوم القرآن - أ.د. يسري جبر","category":"تفسير"},{"id":"CP8bch3Efoc","title":"اعتراضُ الشَّرْط على الشَّرْط - الآية الثانية","publishedAt":"2020-12-18T07:03:54Z","duration":"PT29M19S","thumbnail":"https://i.ytimg.com/vi/CP8bch3Efoc/mqdefault.jpg","viewCount":"482","playlistId":"PLEkQk5xrP-tnW3iBL7HkKziOFCFZbTlf0","playlistName":"شرح البرهان في علوم القرآن - أ.د. يسري جبر","category":"تفسير"},{"id":"Idi5EfYU-EY","title":"اعتراضُ الشَّرْط على الشَّرْط","publishedAt":"2020-12-16T07:10:00Z","duration":"PT6M43S","thumbnail":"https://i.ytimg.com/vi/Idi5EfYU-EY/mqdefault.jpg","viewCount":"509","playlistId":"PLEkQk5xrP-tnW3iBL7HkKziOFCFZbTlf0","playlistName":"شرح البرهان في علوم القرآن - أ.د. يسري جبر","category":"تفسير"}],"total":631,"page":16,"pageSize":24,"totalPages":27}