{"items":[{"id":"CYEV4BS30jY","title":"شرح البرهان في علوم القرآن - النوع ٦ - علم المبهمات","publishedAt":"2019-09-22T10:43:51Z","duration":"PT26M49S","thumbnail":"https://i.ytimg.com/vi/CYEV4BS30jY/mqdefault.jpg","viewCount":"973","playlistId":"PLEkQk5xrP-tnW3iBL7HkKziOFCFZbTlf0","playlistName":"شرح البرهان في علوم القرآن - أ.د. يسري جبر","category":"تفسير"},{"id":"0pTb5n_UqEQ","title":"شرح البرهان في علوم القرآن - النوع ٥ - الفصل ١١ : ما جاء على أحد عشر حرفا","publishedAt":"2019-09-21T16:53:28Z","duration":"PT13M26S","thumbnail":"https://i.ytimg.com/vi/0pTb5n_UqEQ/mqdefault.jpg","viewCount":"555","playlistId":"PLEkQk5xrP-tnW3iBL7HkKziOFCFZbTlf0","playlistName":"شرح البرهان في علوم القرآن - أ.د. يسري جبر","category":"تفسير"},{"id":"KxYM9_tng-k","title":"شرح البرهان في علوم القرآن - النوع ٥ - الفصل ٥ : ما جاء على خمسة حروف","publishedAt":"2019-09-19T21:27:01Z","duration":"PT16M53S","thumbnail":"https://i.ytimg.com/vi/KxYM9_tng-k/mqdefault.jpg","viewCount":"523","playlistId":"PLEkQk5xrP-tnW3iBL7HkKziOFCFZbTlf0","playlistName":"شرح البرهان في علوم القرآن - أ.د. يسري جبر","category":"تفسير"},{"id":"yYVbGlQRDfQ","title":"شرح البرهان في علوم القرآن - النوع ٥ - الفصل ٤ : ما جاء على أربعة أحرف","publishedAt":"2019-09-18T21:51:38Z","duration":"PT14M30S","thumbnail":"https://i.ytimg.com/vi/yYVbGlQRDfQ/mqdefault.jpg","viewCount":"548","playlistId":"PLEkQk5xrP-tnW3iBL7HkKziOFCFZbTlf0","playlistName":"شرح البرهان في علوم القرآن - أ.د. يسري جبر","category":"تفسير"},{"id":"uz918peQATg","title":"شرح البرهان في علوم القرآن - النوع ٥ - الفصل ٣ : ما جاء على ثلاثة أحرف","publishedAt":"2019-09-17T22:09:29Z","duration":"PT13M5S","thumbnail":"https://i.ytimg.com/vi/uz918peQATg/mqdefault.jpg","viewCount":"628","playlistId":"PLEkQk5xrP-tnW3iBL7HkKziOFCFZbTlf0","playlistName":"شرح البرهان في علوم القرآن - أ.د. يسري جبر","category":"تفسير"},{"id":"40NVO7BucX4","title":"شرح البرهان في علوم القرآن - النوع ٥ - الفصل ٢ : ما جاء على حرفين","publishedAt":"2019-09-16T21:58:30Z","duration":"PT13M31S","thumbnail":"https://i.ytimg.com/vi/40NVO7BucX4/mqdefault.jpg","viewCount":"698","playlistId":"PLEkQk5xrP-tnW3iBL7HkKziOFCFZbTlf0","playlistName":"شرح البرهان في علوم القرآن - أ.د. يسري جبر","category":"تفسير"},{"id":"ncIuufXxUnA","title":"شرح البرهان في علوم القرآن - النوع ٥ - علم المتشابه ٤","publishedAt":"2019-09-15T12:27:51Z","duration":"PT40M21S","thumbnail":"https://i.ytimg.com/vi/ncIuufXxUnA/mqdefault.jpg","viewCount":"926","playlistId":"PLEkQk5xrP-tnW3iBL7HkKziOFCFZbTlf0","playlistName":"شرح البرهان في علوم القرآن - أ.د. يسري جبر","category":"تفسير"},{"id":"4pCB164dK-w","title":"شرح البرهان في علوم القرآن - النوع ٥ - علم المتشابه ٣","publishedAt":"2019-09-14T18:35:32Z","duration":"PT23M29S","thumbnail":"https://i.ytimg.com/vi/4pCB164dK-w/mqdefault.jpg","viewCount":"873","playlistId":"PLEkQk5xrP-tnW3iBL7HkKziOFCFZbTlf0","playlistName":"شرح البرهان في علوم القرآن - أ.د. يسري جبر","category":"تفسير"},{"id":"mrP6Zv6W_lw","title":"شرح البرهان في علوم القرآن - النوع ٥ - علم المتشابه ٢","publishedAt":"2019-09-13T21:45:16Z","duration":"PT17M28S","thumbnail":"https://i.ytimg.com/vi/mrP6Zv6W_lw/mqdefault.jpg","viewCount":"865","playlistId":"PLEkQk5xrP-tnW3iBL7HkKziOFCFZbTlf0","playlistName":"شرح البرهان في علوم القرآن - أ.د. يسري جبر","category":"تفسير"},{"id":"e8YXRha7vrY","title":"شرح البرهان في علوم القرآن - النوع ٥ - علم المتشابه","publishedAt":"2019-09-13T09:09:09Z","duration":"PT34M52S","thumbnail":"https://i.ytimg.com/vi/e8YXRha7vrY/mqdefault.jpg","viewCount":"1487","playlistId":"PLEkQk5xrP-tnW3iBL7HkKziOFCFZbTlf0","playlistName":"شرح البرهان في علوم القرآن - أ.د. يسري جبر","category":"تفسير"},{"id":"-jk5TkUJvpI","title":"شرح البرهان في علوم القرآن - النوع ٤ - في جمع الوجوه والنظائر ٢","publishedAt":"2019-09-12T14:12:47Z","duration":"PT21M35S","thumbnail":"https://i.ytimg.com/vi/-jk5TkUJvpI/mqdefault.jpg","viewCount":"1177","playlistId":"PLEkQk5xrP-tnW3iBL7HkKziOFCFZbTlf0","playlistName":"شرح البرهان في علوم القرآن - أ.د. يسري جبر","category":"تفسير"},{"id":"AbG5EGdS6RY","title":"شرح البرهان في علوم القرآن - النوع ٤ - في جمع الوجوه والنظائر","publishedAt":"2019-09-08T10:46:28Z","duration":"PT19M6S","thumbnail":"https://i.ytimg.com/vi/AbG5EGdS6RY/mqdefault.jpg","viewCount":"1193","playlistId":"PLEkQk5xrP-tnW3iBL7HkKziOFCFZbTlf0","playlistName":"شرح البرهان في علوم القرآن - أ.د. يسري جبر","category":"تفسير"},{"id":"4aIH8XByiSc","title":"شرح البرهان في علوم القرآن - النوع ٣ - فصل في ضابط الفواصل","publishedAt":"2019-09-06T18:35:41Z","duration":"PT34M11S","thumbnail":"https://i.ytimg.com/vi/4aIH8XByiSc/mqdefault.jpg","viewCount":"1196","playlistId":"PLEkQk5xrP-tnW3iBL7HkKziOFCFZbTlf0","playlistName":"شرح البرهان في علوم القرآن - أ.د. يسري جبر","category":"تفسير"},{"id":"Z1tkoFSKcDo","title":"شرح البرهان في علوم القرآن - النوع ٣ - ائتلاف الفواصل مع ما يدل عليه الكلام ٤","publishedAt":"2019-09-05T10:15:12Z","duration":"PT29M11S","thumbnail":"https://i.ytimg.com/vi/Z1tkoFSKcDo/mqdefault.jpg","viewCount":"1482","playlistId":"PLEkQk5xrP-tnW3iBL7HkKziOFCFZbTlf0","playlistName":"شرح البرهان في علوم القرآن - أ.د. يسري جبر","category":"تفسير"},{"id":"Jggd5ZlnfgI","title":"شرح البرهان في علوم القرآن - النوع ٣ - ائتلاف الفواصل مع ما يدل عليه الكلام ٣","publishedAt":"2019-09-04T07:00:28Z","duration":"PT31M35S","thumbnail":"https://i.ytimg.com/vi/Jggd5ZlnfgI/mqdefault.jpg","viewCount":"1035","playlistId":"PLEkQk5xrP-tnW3iBL7HkKziOFCFZbTlf0","playlistName":"شرح البرهان في علوم القرآن - أ.د. يسري جبر","category":"تفسير"},{"id":"Gn21xJClR4s","title":"شرح البرهان في علوم القرآن - النوع ٣ - ائتلاف الفواصل مع ما يدل عليه الكلام ٢","publishedAt":"2019-09-03T08:35:17Z","duration":"PT31M39S","thumbnail":"https://i.ytimg.com/vi/Gn21xJClR4s/mqdefault.jpg","viewCount":"1075","playlistId":"PLEkQk5xrP-tnW3iBL7HkKziOFCFZbTlf0","playlistName":"شرح البرهان في علوم القرآن - أ.د. يسري جبر","category":"تفسير"},{"id":"sUj_N1FbuGs","title":"شرح البرهان في علوم القرآن - النوع ٣ - ائتلاف الفواصل مع ما يدل عليه الكلام ١","publishedAt":"2019-09-02T10:28:35Z","duration":"PT34M41S","thumbnail":"https://i.ytimg.com/vi/sUj_N1FbuGs/mqdefault.jpg","viewCount":"1293","playlistId":"PLEkQk5xrP-tnW3iBL7HkKziOFCFZbTlf0","playlistName":"شرح البرهان في علوم القرآن - أ.د. يسري جبر","category":"تفسير"},{"id":"001-gEFzspQ","title":"شرح البرهان في علوم القرآن - النوع ٣ - تقسيم الفواصل باعتبار المتوازي والمتوازن والمطرف","publishedAt":"2019-09-01T06:12:52Z","duration":"PT10M52S","thumbnail":"https://i.ytimg.com/vi/001-gEFzspQ/mqdefault.jpg","viewCount":"1136","playlistId":"PLEkQk5xrP-tnW3iBL7HkKziOFCFZbTlf0","playlistName":"شرح البرهان في علوم القرآن - أ.د. يسري جبر","category":"تفسير"},{"id":"5H9uao6WOd8","title":"شرح البرهان في علوم القرآن - النوع ٣ - تفريعات","publishedAt":"2019-08-31T10:09:45Z","duration":"PT29M32S","thumbnail":"https://i.ytimg.com/vi/5H9uao6WOd8/mqdefault.jpg","viewCount":"1376","playlistId":"PLEkQk5xrP-tnW3iBL7HkKziOFCFZbTlf0","playlistName":"شرح البرهان في علوم القرآن - أ.د. يسري جبر","category":"تفسير"},{"id":"-oHnBNGPNG0","title":"شرح البرهان في علوم القرآن - النوع ٣ - إيقاع المناسبة في مقاطع الفواصل","publishedAt":"2019-08-30T09:25:26Z","duration":"PT33M22S","thumbnail":"https://i.ytimg.com/vi/-oHnBNGPNG0/mqdefault.jpg","viewCount":"1492","playlistId":"PLEkQk5xrP-tnW3iBL7HkKziOFCFZbTlf0","playlistName":"شرح البرهان في علوم القرآن - أ.د. يسري جبر","category":"تفسير"},{"id":"NmLTGT9LYtY","title":"شرح البرهان في علوم القرآن - النوع ٣ - معرفة الفواصل ورؤوس الآي","publishedAt":"2019-08-29T15:09:22Z","duration":"PT34M39S","thumbnail":"https://i.ytimg.com/vi/NmLTGT9LYtY/mqdefault.jpg","viewCount":"2212","playlistId":"PLEkQk5xrP-tnW3iBL7HkKziOFCFZbTlf0","playlistName":"شرح البرهان في علوم القرآن - أ.د. يسري جبر","category":"تفسير"},{"id":"C_zbpISEPZc","title":"شرح البرهان في علوم القرآن - النوع ٢ - تتمة أنواع ارتباط الآي بعضها ببعض","publishedAt":"2019-08-28T09:36:24Z","duration":"PT25M37S","thumbnail":"https://i.ytimg.com/vi/C_zbpISEPZc/mqdefault.jpg","viewCount":"1930","playlistId":"PLEkQk5xrP-tnW3iBL7HkKziOFCFZbTlf0","playlistName":"شرح البرهان في علوم القرآن - أ.د. يسري جبر","category":"تفسير"},{"id":"7ieWuZN8pMg","title":"شرح البرهان في علوم القرآن - النوع ٢ - تكملة أنواع ارتباط الآي بعضها ببعض","publishedAt":"2019-08-27T16:27:42Z","duration":"PT31M18S","thumbnail":"https://i.ytimg.com/vi/7ieWuZN8pMg/mqdefault.jpg","viewCount":"2092","playlistId":"PLEkQk5xrP-tnW3iBL7HkKziOFCFZbTlf0","playlistName":"شرح البرهان في علوم القرآن - أ.د. يسري جبر","category":"تفسير"},{"id":"joU3ciSZR9g","title":"شرح البرهان في علوم القرآن - النوع ٢ - أنواع ارتباط الآي بعضها ببعض","publishedAt":"2019-08-26T10:19:44Z","duration":"PT29M58S","thumbnail":"https://i.ytimg.com/vi/joU3ciSZR9g/mqdefault.jpg","viewCount":"2556","playlistId":"PLEkQk5xrP-tnW3iBL7HkKziOFCFZbTlf0","playlistName":"شرح البرهان في علوم القرآن - أ.د. يسري جبر","category":"تفسير"}],"total":631,"page":26,"pageSize":24,"totalPages":27}