{"items":[{"id":"n-OmJwLgg4E","title":"Ø§Ø­ØªÙØ§Ù„ÙŠØ© Ø§Ù„Ø³Ø§Ø¯Ø© Ø§Ù„Ù†Ø¬Ø¯ÙŠØ© Ø§Ù„Ø¬Ø¹Ø§ÙØ±Ø© Ø¨Ù…ÙˆÙ„Ø¯ Ø§Ù„Ø¹Ø§Ø±Ù Ø¨Ø§Ù„Ù„Ù‡ Ø³ÙŠØ¯ÙŠ Ø¹Ù„ÙŠØ§Ù† Ø§Ù„Ù†Ø¬Ø¯ÙŠ Ø±Ø¶ÙŠ Ø§Ù„Ù„Ù‡ Ø¹Ù†Ù‡","publishedAt":"2019-09-15T18:55:58Z","duration":"PT1H15M24S","thumbnail":"https://i.ytimg.com/vi/n-OmJwLgg4E/mqdefault.jpg","viewCount":"3214","playlistId":"PLEkQk5xrP-tmJzNvLntpzW0uPanPzxA0c","playlistName":"Ù„Ù‚Ø§Ø¡Ø§Øª ÙˆÙ…Ø­Ø§Ø¶Ø±Ø§Øª","category":"Ù…ØªÙ†ÙˆØ¹"},{"id":"xdTiUbe5T7s","title":"ÙƒÙ„Ù…Ø© Ø£.Ø¯. ÙŠØ³Ø±ÙŠ Ø¬Ø¨Ø± ÙÙŠ Ø§Ù„Ù…Ø¤ØªÙ…Ø± Ø§Ù„ØµÙˆÙÙŠ Ø§Ù„Ø¹Ø§Ù„Ù…ÙŠ | Ø¬Ø§ÙˆØ© Ø§Ù„ÙˆØ³Ø·Ù‰  - Ø¥Ù†Ø¯ÙˆÙ†ÙŠØ³ÙŠØ§","publishedAt":"2023-09-20T18:30:41Z","duration":"PT16M15S","thumbnail":"https://i.ytimg.com/vi/xdTiUbe5T7s/mqdefault.jpg","viewCount":"5262","playlistId":"PLEkQk5xrP-tmJzNvLntpzW0uPanPzxA0c","playlistName":"Ù„Ù‚Ø§Ø¡Ø§Øª ÙˆÙ…Ø­Ø§Ø¶Ø±Ø§Øª","category":"Ù…ØªÙ†ÙˆØ¹"},{"id":"DQHCnfSPUkw","title":"Ø§Ù„Ù†Ø¯ÙˆØ© Ø§Ù„Ø·Ø¨ÙŠØ© Ù…Ø¹ Ø¯. ÙŠØ³Ø±ÙŠ Ø¬Ø¨Ø±","publishedAt":"2018-11-28T09:55:02Z","duration":"PT38M26S","thumbnail":"https://i.ytimg.com/vi/DQHCnfSPUkw/mqdefault.jpg","viewCount":"1008","playlistId":"PLEkQk5xrP-tmJzNvLntpzW0uPanPzxA0c","playlistName":"Ù„Ù‚Ø§Ø¡Ø§Øª ÙˆÙ…Ø­Ø§Ø¶Ø±Ø§Øª","category":"Ù…ØªÙ†ÙˆØ¹"},{"id":"YAhNfWG06Ns","title":"ÙƒÙŠÙ ØªØ¹Ø±Ù Ø§Ù„Ø´ÙŠØ® Ø§Ù„Ù…Ø±Ø¨ÙŠØŸ","publishedAt":"2023-08-27T18:00:23Z","duration":"PT1H10M2S","thumbnail":"https://i.ytimg.com/vi/YAhNfWG06Ns/mqdefault.jpg","viewCount":"51650","playlistId":"PLEkQk5xrP-tmJzNvLntpzW0uPanPzxA0c","playlistName":"Ù„Ù‚Ø§Ø¡Ø§Øª ÙˆÙ…Ø­Ø§Ø¶Ø±Ø§Øª","category":"Ù…ØªÙ†ÙˆØ¹"},{"id":"KF7vbjl0LKU","title":"Ø¢Ø¯Ø§Ø¨ Ø·Ø§Ù„Ø¨ Ø§Ù„Ø¹Ù„Ù…","publishedAt":"2015-12-10T20:21:09Z","duration":"PT1H9M40S","thumbnail":"https://i.ytimg.com/vi/KF7vbjl0LKU/mqdefault.jpg","viewCount":"731","playlistId":"PLEkQk5xrP-tmJzNvLntpzW0uPanPzxA0c","playlistName":"Ù„Ù‚Ø§Ø¡Ø§Øª ÙˆÙ…Ø­Ø§Ø¶Ø±Ø§Øª","category":"Ù…ØªÙ†ÙˆØ¹"},{"id":"Vnk_h3viEmE","title":"ÙØ¨Ø°Ù„Ùƒ ÙÙ„ÙŠÙØ±Ø­ÙˆØ§ - ÙØ¶Ù„ Ø³ÙŠØ¯Ù†Ø§ Ù…Ø­Ù…Ø¯ ÙˆØªØ¹Ø¸ÙŠÙ…Ù‡ ÙÙŠ Ø§Ù„Ù‚Ù„ÙˆØ¨ - Ø¯. ÙŠØ³Ø±ÙŠ Ø¬Ø¨Ø± - @alerthTV","publishedAt":"2016-03-01T10:40:01Z","duration":"PT4M19S","thumbnail":"https://i.ytimg.com/vi/Vnk_h3viEmE/mqdefault.jpg","viewCount":"3327","playlistId":"PLEkQk5xrP-tmJzNvLntpzW0uPanPzxA0c","playlistName":"Ù„Ù‚Ø§Ø¡Ø§Øª ÙˆÙ…Ø­Ø§Ø¶Ø±Ø§Øª","category":"Ù…ØªÙ†ÙˆØ¹"},{"id":"vfpgUyXiyUc","title":"ÙØ¨Ø°Ù„Ùƒ ÙÙ„ÙŠÙØ±Ø­ÙˆØ§ - Ø§Ù„Ø¬Ø§Ù†Ø¨ Ø§Ù„Ø¹Ù‚Ø§Ø¦Ø¯ÙŠ Ø§Ù„Ù†Ø§ØªØ¬ Ù…Ù† Ù…Ø­Ø¨Ø© Ø§Ù„Ù†Ø¨ÙŠ ØµÙ„Ù‰ Ø§Ù„Ù„Ù‡ Ø¹Ù„ÙŠÙ‡ ÙˆØ³Ù„Ù… -  Ø¯.ÙŠØ³Ø±ÙŠ Ø¬Ø¨Ø± - @alerthTV","publishedAt":"2016-02-28T10:16:25Z","duration":"PT2M59S","thumbnail":"https://i.ytimg.com/vi/vfpgUyXiyUc/mqdefault.jpg","viewCount":"1232","playlistId":"PLEkQk5xrP-tmJzNvLntpzW0uPanPzxA0c","playlistName":"Ù„Ù‚Ø§Ø¡Ø§Øª ÙˆÙ…Ø­Ø§Ø¶Ø±Ø§Øª","category":"Ù…ØªÙ†ÙˆØ¹"},{"id":"PfFCdy_YK8E","title":"Ø§Ù„Ø±Ø¯ Ø¹Ù„Ù‰ Ø¬Ù…ÙŠØ¹ Ø´Ø¨Ù‡Ø§Øª ÙˆØ§Ø¯Ø¹Ø§Ø¡Ø§Øª Ø§Ù„ÙˆÙ‡Ø§Ø¨ÙŠØ© | Ø§Ù†Ø¬Ù„ØªØ±Ø§ğŸ“","publishedAt":"2025-06-02T19:27:30Z","duration":"PT1H17M38S","thumbnail":"https://i.ytimg.com/vi/PfFCdy_YK8E/mqdefault.jpg","viewCount":"15715","playlistId":"PLEkQk5xrP-tmJzNvLntpzW0uPanPzxA0c","playlistName":"Ù„Ù‚Ø§Ø¡Ø§Øª ÙˆÙ…Ø­Ø§Ø¶Ø±Ø§Øª","category":"Ù…ØªÙ†ÙˆØ¹"},{"id":"zpTFW_uM9hA","title":"Ø¯Ø±Ø¬Ø§ØªÙ Ø§Ù„Ø¥ÙŠÙ…Ø§Ù†Ù ØªØªÙØ§ÙˆØªÙ Ø¨ØªÙØ§ÙˆØªÙ Ø§Ù„Ù…Ø¹Ø±ÙØ©Ù Ø¨Ù…Ù‚Ø§Ù…Ø§ØªÙ Ø§Ù„Ù†Ù‘ÙØ¨Ù‰Ù‘Ù ÙˆØ­Ù‚Ø§Ø¦Ù‚ÙÙ‡Ù","publishedAt":"2015-12-16T17:55:50Z","duration":"PT36M41S","thumbnail":"https://i.ytimg.com/vi/zpTFW_uM9hA/mqdefault.jpg","viewCount":"1015","playlistId":"PLEkQk5xrP-tmJzNvLntpzW0uPanPzxA0c","playlistName":"Ù„Ù‚Ø§Ø¡Ø§Øª ÙˆÙ…Ø­Ø§Ø¶Ø±Ø§Øª","category":"Ù…ØªÙ†ÙˆØ¹"},{"id":"xpgCW6Zz_hw","title":"Ù‚ÙŠÙ…Ø© Ø§Ù„Ø¥Ù†Ø³Ø§Ù† ÙÙŠ Ø§Ù„Ø´Ø±Ø¹ Ø§Ù„Ø´Ø±ÙŠÙ","publishedAt":"2014-05-01T12:03:57Z","duration":"PT1H39M42S","thumbnail":"https://i.ytimg.com/vi/xpgCW6Zz_hw/mqdefault.jpg","viewCount":"700","playlistId":"PLEkQk5xrP-tmJzNvLntpzW0uPanPzxA0c","playlistName":"Ù„Ù‚Ø§Ø¡Ø§Øª ÙˆÙ…Ø­Ø§Ø¶Ø±Ø§Øª","category":"Ù…ØªÙ†ÙˆØ¹"},{"id":"v8nmIPSVXn0","title":"Ù…Ø¯ÙŠÙ†Ø© Ø§Ù„Ø´Ù‡Ø¯Ø§Ø¡ Ø§Ù„Ø¨Ù‡Ù†Ø³Ø§ (Ø¨Ù‚ÙŠØ¹ Ù…ØµØ±)","publishedAt":"2014-04-27T15:19:57Z","duration":"PT1H17M28S","thumbnail":"https://i.ytimg.com/vi/v8nmIPSVXn0/mqdefault.jpg","viewCount":"16282","playlistId":"PLEkQk5xrP-tmJzNvLntpzW0uPanPzxA0c","playlistName":"Ù„Ù‚Ø§Ø¡Ø§Øª ÙˆÙ…Ø­Ø§Ø¶Ø±Ø§Øª","category":"Ù…ØªÙ†ÙˆØ¹"},{"id":"PRh0xtIKfVY","title":"ÙƒÙ„Ù…Ø© Ø§Ù„Ø¯ÙƒØªÙˆØ± ÙŠØ³Ø±ÙŠ Ø¬Ø¨Ø± ÙÙŠ Ø§Ù„Ø§Ø­ØªÙØ§Ù„ Ø¨Ù…ÙˆÙ„Ø¯ Ø§Ù„Ø¥Ù…Ø§Ù… Ø§Ù„Ø­Ø³ÙŠÙ† 2014","publishedAt":"2014-02-26T17:08:40Z","duration":"PT13M7S","thumbnail":"https://i.ytimg.com/vi/PRh0xtIKfVY/mqdefault.jpg","viewCount":"1487","playlistId":"PLEkQk5xrP-tmJzNvLntpzW0uPanPzxA0c","playlistName":"Ù„Ù‚Ø§Ø¡Ø§Øª ÙˆÙ…Ø­Ø§Ø¶Ø±Ø§Øª","category":"Ù…ØªÙ†ÙˆØ¹"},{"id":"LY2j7U51qwM","title":"ÙƒÙŠÙ ØªØ¹Ø±Ù Ø§Ù„Ù†Ø¨ÙŠ ï·º Ù…Ù† Ø­ÙŠØ« Ø±ÙˆØ­Ø§Ù†ÙŠØªÙ‡ØŸ","publishedAt":"2024-04-27T18:24:22Z","duration":"PT56M27S","thumbnail":"https://i.ytimg.com/vi/LY2j7U51qwM/mqdefault.jpg","viewCount":"6135","playlistId":"PLEkQk5xrP-tmJzNvLntpzW0uPanPzxA0c","playlistName":"Ù„Ù‚Ø§Ø¡Ø§Øª ÙˆÙ…Ø­Ø§Ø¶Ø±Ø§Øª","category":"Ù…ØªÙ†ÙˆØ¹"},{"id":"McQ28J9aAa4","title":"Ù…ÙØ¯Ù’Ø­Ù Ø§Ù„Ù†Ù‘ÙØ¨ÙÙŠÙ‘Ù ï·º ÙÙŠ Ø§Ù„Ù‚ÙØ±Ù’Ø¢Ù†Ù - Ù…Ø³Ø¬Ù„   Ø£.Ø¯. ÙŠØ³Ø±ÙŠ Ø¬Ø¨Ø±","publishedAt":"2020-05-02T08:22:27Z","duration":"PT1H1M45S","thumbnail":"https://i.ytimg.com/vi/McQ28J9aAa4/mqdefault.jpg","viewCount":"852","playlistId":"PLEkQk5xrP-tmJzNvLntpzW0uPanPzxA0c","playlistName":"Ù„Ù‚Ø§Ø¡Ø§Øª ÙˆÙ…Ø­Ø§Ø¶Ø±Ø§Øª","category":"Ù…ØªÙ†ÙˆØ¹"},{"id":"ionvxx04Hgs","title":"Ø­ÙƒÙ… Ø§Ù„Ø§Ø¶Ø±Ø­Ø© ÙˆÙ‡Ø¯Ù…Ù‡Ø§ ÙˆØ§ØªØ®Ø§Ø°Ù‡Ø§ Ø§Ù„Ù…Ù‚Ø§Ø¨Ø± | Ø§Ù„Ø­Ù„Ù‚Ø© 12 Ù…Ù† ÙØªØ§ÙˆÙ‰ Ø§Ù„Ø¯ÙƒØªÙˆØ± ÙŠØ³Ø±ÙŠ Ø¬Ø¨Ø± | Ù‚Ù†Ø§Ø© Ø£Ø²Ù‡Ø± ØªÙ‰ ÙÙ‰ Azhar TV","publishedAt":"2012-09-16T10:49:45Z","duration":"PT1H33M21S","thumbnail":"https://i.ytimg.com/vi/ionvxx04Hgs/mqdefault.jpg","viewCount":"23437","playlistId":"PLEkQk5xrP-tmJzNvLntpzW0uPanPzxA0c","playlistName":"Ù„Ù‚Ø§Ø¡Ø§Øª ÙˆÙ…Ø­Ø§Ø¶Ø±Ø§Øª","category":"Ù…ØªÙ†ÙˆØ¹"},{"id":"CU-0zkB4MzE","title":"ÙˆØµÙ Ø§Ù„Ù†Ø¨ÙŠ ØµÙ„ Ø§Ù„Ù„Ù‡ Ø¹Ù„ÙŠÙ‡ ÙˆØ³Ù„Ù…","publishedAt":"2012-05-27T07:53:47Z","duration":"PT2H22M28S","thumbnail":"https://i.ytimg.com/vi/CU-0zkB4MzE/mqdefault.jpg","viewCount":"51437","playlistId":"PLEkQk5xrP-tmJzNvLntpzW0uPanPzxA0c","playlistName":"Ù„Ù‚Ø§Ø¡Ø§Øª ÙˆÙ…Ø­Ø§Ø¶Ø±Ø§Øª","category":"Ù…ØªÙ†ÙˆØ¹"},{"id":"8m6QREa2mms","title":"2012-02-19 Ø£Ø­ØªÙØ§Ù„ Ø¯  ÙŠØ³Ø±ÙŠ Ø¬Ø¨Ø± Ø¨Ø§Ù„Ù…ÙˆÙ„Ø¯ Ø¨Ø§Ù„Ø¨Ø¯Ø±Ø´ÙŠÙ†.avi","publishedAt":"2012-03-11T04:23:29Z","duration":"PT2H26M15S","thumbnail":"https://i.ytimg.com/vi/8m6QREa2mms/mqdefault.jpg","viewCount":"2575","playlistId":"PLEkQk5xrP-tmJzNvLntpzW0uPanPzxA0c","playlistName":"Ù„Ù‚Ø§Ø¡Ø§Øª ÙˆÙ…Ø­Ø§Ø¶Ø±Ø§Øª","category":"Ù…ØªÙ†ÙˆØ¹"},{"id":"vafyNpRgbEc","title":"ÙƒÙ„Ù…Ø© Ø£.Ø¯. ÙŠØ³Ø±ÙŠ Ø¬Ø¨Ø± ÙÙŠ Ù…Ø¯ÙŠÙ†Ø© Ø¨ÙˆÙ„Ùˆ | ØªØ±ÙƒÙŠØ§","publishedAt":"2023-08-03T08:59:00Z","duration":"PT14M3S","thumbnail":"https://i.ytimg.com/vi/vafyNpRgbEc/mqdefault.jpg","viewCount":"5033","playlistId":"PLEkQk5xrP-tmJzNvLntpzW0uPanPzxA0c","playlistName":"Ù„Ù‚Ø§Ø¡Ø§Øª ÙˆÙ…Ø­Ø§Ø¶Ø±Ø§Øª","category":"Ù…ØªÙ†ÙˆØ¹"}],"total":42,"page":2,"pageSize":24,"totalPages":2}