{"items":[{"id":"0-PLkgj1Klg","title":"26- حُكْمُ استخدام الطِيب للمُحْرِم - من كتاب المناسك - شرح مسند الإمام الشافعيّ رضي الله عنه","publishedAt":"2021-10-17T06:39:32Z","duration":"PT59M7S","thumbnail":"https://i.ytimg.com/vi/0-PLkgj1Klg/mqdefault.jpg","viewCount":"868","playlistId":"PLEkQk5xrP-tlDtaqY0qhNXAiZ19gaGzKI","playlistName":"شرح مسند الإمام محمد بن إدريس الشافعيّ رضي الله تعالى عنه","category":"فقه"},{"id":"f_VyZqd8TUM","title":"25- حُكْمُ مَن جَاوزَ المواقيت غير مُحْرِم - من كتاب المناسك - شرح مسند الإمام الشافعيّ رضي الله عنه","publishedAt":"2021-10-09T06:31:49Z","duration":"PT1H1M50S","thumbnail":"https://i.ytimg.com/vi/f_VyZqd8TUM/mqdefault.jpg","viewCount":"754","playlistId":"PLEkQk5xrP-tlDtaqY0qhNXAiZ19gaGzKI","playlistName":"شرح مسند الإمام محمد بن إدريس الشافعيّ رضي الله تعالى عنه","category":"فقه"},{"id":"iKiN_MJ181I","title":"24- من كتاب المناسك - شرح مسند الإمام الشافعيّ رضي الله عنه - الحديث (516)","publishedAt":"2021-10-08T06:16:40Z","duration":"PT1H1M29S","thumbnail":"https://i.ytimg.com/vi/iKiN_MJ181I/mqdefault.jpg","viewCount":"753","playlistId":"PLEkQk5xrP-tlDtaqY0qhNXAiZ19gaGzKI","playlistName":"شرح مسند الإمام محمد بن إدريس الشافعيّ رضي الله تعالى عنه","category":"فقه"},{"id":"Ca87A-SGr-U","title":"23- شرح مسند الإمام الشافعيّ رضي الله عنه - من كتاب الصيام الكبير- الحديث (497)","publishedAt":"2021-10-02T03:05:32Z","duration":"PT51M26S","thumbnail":"https://i.ytimg.com/vi/Ca87A-SGr-U/mqdefault.jpg","viewCount":"625","playlistId":"PLEkQk5xrP-tlDtaqY0qhNXAiZ19gaGzKI","playlistName":"شرح مسند الإمام محمد بن إدريس الشافعيّ رضي الله تعالى عنه","category":"فقه"},{"id":"mMvgoq6WETY","title":"22- شرح مسند الإمام الشافعيّ رضي الله عنه - الحديث (472)","publishedAt":"2021-09-27T09:29:48Z","duration":"PT54M59S","thumbnail":"https://i.ytimg.com/vi/mMvgoq6WETY/mqdefault.jpg","viewCount":"1200","playlistId":"PLEkQk5xrP-tlDtaqY0qhNXAiZ19gaGzKI","playlistName":"شرح مسند الإمام محمد بن إدريس الشافعيّ رضي الله تعالى عنه","category":"فقه"},{"id":"2yeLoSrVRy4","title":"21- من كتاب الزكاة من أوله إلا ما كان معادا - الحديث (434)","publishedAt":"2021-09-18T03:20:37Z","duration":"PT54M53S","thumbnail":"https://i.ytimg.com/vi/2yeLoSrVRy4/mqdefault.jpg","viewCount":"563","playlistId":"PLEkQk5xrP-tlDtaqY0qhNXAiZ19gaGzKI","playlistName":"شرح مسند الإمام محمد بن إدريس الشافعيّ رضي الله تعالى عنه","category":"فقه"},{"id":"bm-KxWtuEgY","title":"20- \"…يعطي شاتين أو عشرين درهما…\" الحديث (410)  شرح مسند الإمام الشافعيّ رضي الله عنه.","publishedAt":"2021-09-06T06:36:42Z","duration":"PT1H36S","thumbnail":"https://i.ytimg.com/vi/bm-KxWtuEgY/mqdefault.jpg","viewCount":"1171","playlistId":"PLEkQk5xrP-tlDtaqY0qhNXAiZ19gaGzKI","playlistName":"شرح مسند الإمام محمد بن إدريس الشافعيّ رضي الله تعالى عنه","category":"فقه"},{"id":"FwqIcR0RaFA","title":"19- \" …أنَّ النَّبيَّ ﷺ صام في سفره إلى مكة عام الفتح…\" - شرح مسند الإمام الشافعيّ رضي الله عنه.","publishedAt":"2021-08-30T07:34:01Z","duration":"PT58M39S","thumbnail":"https://i.ytimg.com/vi/FwqIcR0RaFA/mqdefault.jpg","viewCount":"1320","playlistId":"PLEkQk5xrP-tlDtaqY0qhNXAiZ19gaGzKI","playlistName":"شرح مسند الإمام محمد بن إدريس الشافعيّ رضي الله تعالى عنه","category":"فقه"},{"id":"voqzrF5N9RI","title":"18- \"ليس السَّنَةُ بأنْ لا تُمطَروا…\" - شرح مسند الإمام الشافعي رضي الله عنه","publishedAt":"2021-08-22T06:07:28Z","duration":"PT52M43S","thumbnail":"https://i.ytimg.com/vi/voqzrF5N9RI/mqdefault.jpg","viewCount":"2638","playlistId":"PLEkQk5xrP-tlDtaqY0qhNXAiZ19gaGzKI","playlistName":"شرح مسند الإمام محمد بن إدريس الشافعيّ رضي الله تعالى عنه","category":"فقه"},{"id":"OZS75wFCNwU","title":"17- الأحاديث الواردة في صلاة الكسوف - شرح مسند الإمام الشافعي المجلس 17","publishedAt":"2021-08-16T05:39:09Z","duration":"PT53M21S","thumbnail":"https://i.ytimg.com/vi/OZS75wFCNwU/mqdefault.jpg","viewCount":"952","playlistId":"PLEkQk5xrP-tlDtaqY0qhNXAiZ19gaGzKI","playlistName":"شرح مسند الإمام محمد بن إدريس الشافعيّ رضي الله تعالى عنه","category":"فقه"},{"id":"nqk_i9FCOAE","title":"66- الفرق بين الفيء والغنيمة وحكم كل منهما - شرح مسند الإمام الشافعي رضي الله عنه","publishedAt":"2023-02-06T05:00:31Z","duration":"PT43M24S","thumbnail":"https://i.ytimg.com/vi/nqk_i9FCOAE/mqdefault.jpg","viewCount":"990","playlistId":"PLEkQk5xrP-tlDtaqY0qhNXAiZ19gaGzKI","playlistName":"شرح مسند الإمام محمد بن إدريس الشافعيّ رضي الله تعالى عنه","category":"فقه"},{"id":"F6dfbTYhyUs","title":"65- قتال أهل البغي - شرح مسند الإمام الشافعي رضي الله تعالى عنه","publishedAt":"2023-01-30T05:00:11Z","duration":"PT45M18S","thumbnail":"https://i.ytimg.com/vi/F6dfbTYhyUs/mqdefault.jpg","viewCount":"984","playlistId":"PLEkQk5xrP-tlDtaqY0qhNXAiZ19gaGzKI","playlistName":"شرح مسند الإمام محمد بن إدريس الشافعيّ رضي الله تعالى عنه","category":"فقه"},{"id":"TkWfgE7FW7c","title":"64- أحكام الرَّضَاع - شرح مسند الإمام الشافعي رضي الله عنه","publishedAt":"2023-01-10T09:00:13Z","duration":"PT43M1S","thumbnail":"https://i.ytimg.com/vi/TkWfgE7FW7c/mqdefault.jpg","viewCount":"620","playlistId":"PLEkQk5xrP-tlDtaqY0qhNXAiZ19gaGzKI","playlistName":"شرح مسند الإمام محمد بن إدريس الشافعيّ رضي الله تعالى عنه","category":"فقه"},{"id":"_eLi-10PryQ","title":"63- حكم أُمِّ الولدِ إذا ماتَ سَيِّدُهَا - شرح مسند الإمام الشافعي رضي الله عنه","publishedAt":"2022-12-12T05:15:01Z","duration":"PT45M21S","thumbnail":"https://i.ytimg.com/vi/_eLi-10PryQ/mqdefault.jpg","viewCount":"607","playlistId":"PLEkQk5xrP-tlDtaqY0qhNXAiZ19gaGzKI","playlistName":"شرح مسند الإمام محمد بن إدريس الشافعيّ رضي الله تعالى عنه","category":"فقه"},{"id":"9oqSTTHhpVg","title":"62- التعريض بالخِطبة - شرح مسند الإمام الشافعي رضي الله عنه","publishedAt":"2022-11-28T09:00:06Z","duration":"PT47M42S","thumbnail":"https://i.ytimg.com/vi/9oqSTTHhpVg/mqdefault.jpg","viewCount":"582","playlistId":"PLEkQk5xrP-tlDtaqY0qhNXAiZ19gaGzKI","playlistName":"شرح مسند الإمام محمد بن إدريس الشافعيّ رضي الله تعالى عنه","category":"فقه"},{"id":"QA-rrIqafOA","title":"61- حَدُّ شَاربِ الخَمْر - شرح مسند الإمام الشافعي رضي الله عنه","publishedAt":"2022-11-21T09:00:14Z","duration":"PT45M58S","thumbnail":"https://i.ytimg.com/vi/QA-rrIqafOA/mqdefault.jpg","viewCount":"598","playlistId":"PLEkQk5xrP-tlDtaqY0qhNXAiZ19gaGzKI","playlistName":"شرح مسند الإمام محمد بن إدريس الشافعيّ رضي الله تعالى عنه","category":"فقه"},{"id":"-K-07R2lghA","title":"60- كُلُ شَرَابٍ أَسْكَرَ  فَهُوَ حَرَامٌ - شرح مسند الامام الشافعي رضي الله عنه","publishedAt":"2022-11-17T05:00:00Z","duration":"PT36M22S","thumbnail":"https://i.ytimg.com/vi/-K-07R2lghA/mqdefault.jpg","viewCount":"618","playlistId":"PLEkQk5xrP-tlDtaqY0qhNXAiZ19gaGzKI","playlistName":"شرح مسند الإمام محمد بن إدريس الشافعيّ رضي الله تعالى عنه","category":"فقه"},{"id":"vQMUVdoOvfw","title":"59- كيفَ تكونُ ناجحًا في حياتِك؟ - شرح مسند الإمام الشافعي رضي الله عنه","publishedAt":"2022-11-14T09:00:37Z","duration":"PT38M46S","thumbnail":"https://i.ytimg.com/vi/vQMUVdoOvfw/mqdefault.jpg","viewCount":"2215","playlistId":"PLEkQk5xrP-tlDtaqY0qhNXAiZ19gaGzKI","playlistName":"شرح مسند الإمام محمد بن إدريس الشافعيّ رضي الله تعالى عنه","category":"فقه"},{"id":"O4jyin34pgM","title":"58- أحكامُ الزَّواج والتَّعدُّد - شرح مسند الإمام الشافعي رضي الله عنه","publishedAt":"2022-11-10T09:00:13Z","duration":"PT36M52S","thumbnail":"https://i.ytimg.com/vi/O4jyin34pgM/mqdefault.jpg","viewCount":"1117","playlistId":"PLEkQk5xrP-tlDtaqY0qhNXAiZ19gaGzKI","playlistName":"شرح مسند الإمام محمد بن إدريس الشافعيّ رضي الله تعالى عنه","category":"فقه"},{"id":"zNNfI4tmz-M","title":"57- الوَلاءُ لمن أعتق - شرح مسند الإمام الشافعي رضي الله عنه","publishedAt":"2022-11-07T09:00:35Z","duration":"PT58M36S","thumbnail":"https://i.ytimg.com/vi/zNNfI4tmz-M/mqdefault.jpg","viewCount":"604","playlistId":"PLEkQk5xrP-tlDtaqY0qhNXAiZ19gaGzKI","playlistName":"شرح مسند الإمام محمد بن إدريس الشافعيّ رضي الله تعالى عنه","category":"فقه"},{"id":"SUBDBbkmtS0","title":"56- الخُلْعُ و النُّشُوز - شرح مسند الإمام الشافعي رضي الله عنه","publishedAt":"2022-10-31T09:00:15Z","duration":"PT52M30S","thumbnail":"https://i.ytimg.com/vi/SUBDBbkmtS0/mqdefault.jpg","viewCount":"629","playlistId":"PLEkQk5xrP-tlDtaqY0qhNXAiZ19gaGzKI","playlistName":"شرح مسند الإمام محمد بن إدريس الشافعيّ رضي الله تعالى عنه","category":"فقه"},{"id":"ysHyBZxiUpU","title":"55- حكم بيع جزء من اللحم المذبوح بآخَر لم يتم ذبحه","publishedAt":"2022-10-17T05:50:00Z","duration":"PT58M3S","thumbnail":"https://i.ytimg.com/vi/ysHyBZxiUpU/mqdefault.jpg","viewCount":"498","playlistId":"PLEkQk5xrP-tlDtaqY0qhNXAiZ19gaGzKI","playlistName":"شرح مسند الإمام محمد بن إدريس الشافعيّ رضي الله تعالى عنه","category":"فقه"},{"id":"viQPQu9jDbU","title":"54- \"أَكْرِمُوا أصحابي ثم الذين يلونهم ثم الذين يلونهم…\"","publishedAt":"2022-10-13T07:30:17Z","duration":"PT52M43S","thumbnail":"https://i.ytimg.com/vi/viQPQu9jDbU/mqdefault.jpg","viewCount":"1219","playlistId":"PLEkQk5xrP-tlDtaqY0qhNXAiZ19gaGzKI","playlistName":"شرح مسند الإمام محمد بن إدريس الشافعيّ رضي الله تعالى عنه","category":"فقه"},{"id":"7yO_K44eiTA","title":"53- نضَّرَ اللَّهُ عبدًا سمِعَ مَقالَتي، فحفِظَها ووَعاها وأدَّاها…","publishedAt":"2022-10-10T07:30:00Z","duration":"PT59M13S","thumbnail":"https://i.ytimg.com/vi/7yO_K44eiTA/mqdefault.jpg","viewCount":"1561","playlistId":"PLEkQk5xrP-tlDtaqY0qhNXAiZ19gaGzKI","playlistName":"شرح مسند الإمام محمد بن إدريس الشافعيّ رضي الله تعالى عنه","category":"فقه"}],"total":66,"page":1,"pageSize":24,"totalPages":3}