{"items":[{"id":"A0oPVwoUp30","title":"شرح كتاب القراءات من سنن الترمذي - المجلس الثاني","publishedAt":"2016-04-04T03:19:42Z","duration":"PT44M57S","thumbnail":"https://i.ytimg.com/vi/A0oPVwoUp30/mqdefault.jpg","viewCount":"119","playlistId":"PLEkQk5xrP-tnu6of679SvxdVx0qSrJzmb","playlistName":"شرح سنن الإمام الترمذي رضى الله عنه د. يسري جبر","category":"متنوع"},{"id":"rRfAjCYxiuw","title":"شرح كتاب تفسير القرآن من سنن الترمذي - المجلس الأول","publishedAt":"2016-04-05T03:13:44Z","duration":"PT40M49S","thumbnail":"https://i.ytimg.com/vi/rRfAjCYxiuw/mqdefault.jpg","viewCount":"234","playlistId":"PLEkQk5xrP-tnu6of679SvxdVx0qSrJzmb","playlistName":"شرح سنن الإمام الترمذي رضى الله عنه د. يسري جبر","category":"متنوع"},{"id":"6TOTLEYwxuQ","title":"شرح كتاب تفسير القرآن من سنن الترمذي - المجلس الثاني","publishedAt":"2016-04-06T02:39:52Z","duration":"PT49M30S","thumbnail":"https://i.ytimg.com/vi/6TOTLEYwxuQ/mqdefault.jpg","viewCount":"189","playlistId":"PLEkQk5xrP-tnu6of679SvxdVx0qSrJzmb","playlistName":"شرح سنن الإمام الترمذي رضى الله عنه د. يسري جبر","category":"متنوع"},{"id":"1IHJx2yrBZs","title":"شرح كتاب تفسير القرآن من سنن الترمذي - المجلس الثالث","publishedAt":"2016-04-07T02:17:47Z","duration":"PT38M41S","thumbnail":"https://i.ytimg.com/vi/1IHJx2yrBZs/mqdefault.jpg","viewCount":"117","playlistId":"PLEkQk5xrP-tnu6of679SvxdVx0qSrJzmb","playlistName":"شرح سنن الإمام الترمذي رضى الله عنه د. يسري جبر","category":"متنوع"},{"id":"ET4FVXJrbnI","title":"شرح كتاب تفسير القرآن من سنن الترمذي - المجلس الرابع","publishedAt":"2016-04-08T08:45:20Z","duration":"PT35M51S","thumbnail":"https://i.ytimg.com/vi/ET4FVXJrbnI/mqdefault.jpg","viewCount":"96","playlistId":"PLEkQk5xrP-tnu6of679SvxdVx0qSrJzmb","playlistName":"شرح سنن الإمام الترمذي رضى الله عنه د. يسري جبر","category":"متنوع"},{"id":"yNtLXZcpLNc","title":"شرح كتاب تفسير القرآن من سنن الترمذي - المجلس الخامس","publishedAt":"2016-04-08T09:16:45Z","duration":"PT43M40S","thumbnail":"https://i.ytimg.com/vi/yNtLXZcpLNc/mqdefault.jpg","viewCount":"96","playlistId":"PLEkQk5xrP-tnu6of679SvxdVx0qSrJzmb","playlistName":"شرح سنن الإمام الترمذي رضى الله عنه د. يسري جبر","category":"متنوع"},{"id":"AQZzR7zEWgg","title":"شرح كتاب تفسير القرآن من سنن الترمذي - المجلس السادس","publishedAt":"2016-04-10T07:22:08Z","duration":"PT35M","thumbnail":"https://i.ytimg.com/vi/AQZzR7zEWgg/mqdefault.jpg","viewCount":"137","playlistId":"PLEkQk5xrP-tnu6of679SvxdVx0qSrJzmb","playlistName":"شرح سنن الإمام الترمذي رضى الله عنه د. يسري جبر","category":"متنوع"},{"id":"gkXtyNmcEhQ","title":"شرح كتاب تفسير القرآن من سنن الترمذي - المجلس السابع","publishedAt":"2016-04-10T11:03:24Z","duration":"PT20M22S","thumbnail":"https://i.ytimg.com/vi/gkXtyNmcEhQ/mqdefault.jpg","viewCount":"111","playlistId":"PLEkQk5xrP-tnu6of679SvxdVx0qSrJzmb","playlistName":"شرح سنن الإمام الترمذي رضى الله عنه د. يسري جبر","category":"متنوع"},{"id":"S2FUgPrlFP0","title":"شرح كتاب تفسير القرآن من سنن الترمذي - المجلس الثامن","publishedAt":"2016-04-11T08:35:50Z","duration":"PT28M51S","thumbnail":"https://i.ytimg.com/vi/S2FUgPrlFP0/mqdefault.jpg","viewCount":"149","playlistId":"PLEkQk5xrP-tnu6of679SvxdVx0qSrJzmb","playlistName":"شرح سنن الإمام الترمذي رضى الله عنه د. يسري جبر","category":"متنوع"},{"id":"qnfeDU1eHpU","title":"شرح كتاب تفسير القرآن من سنن الترمذي - المجلس التاسع","publishedAt":"2016-04-16T20:06:16Z","duration":"PT31M7S","thumbnail":"https://i.ytimg.com/vi/qnfeDU1eHpU/mqdefault.jpg","viewCount":"122","playlistId":"PLEkQk5xrP-tnu6of679SvxdVx0qSrJzmb","playlistName":"شرح سنن الإمام الترمذي رضى الله عنه د. يسري جبر","category":"متنوع"},{"id":"uVsZICF2jKk","title":"شرح كتاب تفسير القرآن من سنن الترمذي - المجلس العاشر","publishedAt":"2016-04-17T05:17:31Z","duration":"PT38M14S","thumbnail":"https://i.ytimg.com/vi/uVsZICF2jKk/mqdefault.jpg","viewCount":"127","playlistId":"PLEkQk5xrP-tnu6of679SvxdVx0qSrJzmb","playlistName":"شرح سنن الإمام الترمذي رضى الله عنه د. يسري جبر","category":"متنوع"},{"id":"FAP8ZcQj5nA","title":"شرح كتاب تفسير القرآن من سنن الترمذي - المجلس الحادي عشر","publishedAt":"2016-04-19T01:54:58Z","duration":"PT35M21S","thumbnail":"https://i.ytimg.com/vi/FAP8ZcQj5nA/mqdefault.jpg","viewCount":"120","playlistId":"PLEkQk5xrP-tnu6of679SvxdVx0qSrJzmb","playlistName":"شرح سنن الإمام الترمذي رضى الله عنه د. يسري جبر","category":"متنوع"},{"id":"DMVupGvdt6E","title":"شرح كتاب تفسير القرآن من سنن الترمذي - المجلس الثالث عشر","publishedAt":"2016-04-20T03:09:09Z","duration":"PT40M52S","thumbnail":"https://i.ytimg.com/vi/DMVupGvdt6E/mqdefault.jpg","viewCount":"102","playlistId":"PLEkQk5xrP-tnu6of679SvxdVx0qSrJzmb","playlistName":"شرح سنن الإمام الترمذي رضى الله عنه د. يسري جبر","category":"متنوع"},{"id":"Uzplm_0g23A","title":"شرح كتاب تفسير القرآن من سنن الترمذي - المجلس الرابع عشر","publishedAt":"2016-04-21T03:18:43Z","duration":"PT29M2S","thumbnail":"https://i.ytimg.com/vi/Uzplm_0g23A/mqdefault.jpg","viewCount":"82","playlistId":"PLEkQk5xrP-tnu6of679SvxdVx0qSrJzmb","playlistName":"شرح سنن الإمام الترمذي رضى الله عنه د. يسري جبر","category":"متنوع"},{"id":"rQ9a_wq9qLg","title":"شرح كتاب تفسير القرآن من سنن الترمذي - المجلس الخامس عشر","publishedAt":"2016-04-22T09:23:37Z","duration":"PT33M4S","thumbnail":"https://i.ytimg.com/vi/rQ9a_wq9qLg/mqdefault.jpg","viewCount":"83","playlistId":"PLEkQk5xrP-tnu6of679SvxdVx0qSrJzmb","playlistName":"شرح سنن الإمام الترمذي رضى الله عنه د. يسري جبر","category":"متنوع"},{"id":"zBxkZNoQeoA","title":"شرح كتاب تفسير القرآن من سنن الترمذي - المجلس السادس عشر","publishedAt":"2016-04-22T18:23:29Z","duration":"PT37M50S","thumbnail":"https://i.ytimg.com/vi/zBxkZNoQeoA/mqdefault.jpg","viewCount":"102","playlistId":"PLEkQk5xrP-tnu6of679SvxdVx0qSrJzmb","playlistName":"شرح سنن الإمام الترمذي رضى الله عنه د. يسري جبر","category":"متنوع"},{"id":"aq8LN-3HIsw","title":"شرح كتاب تفسير القرآن من سنن الترمذي - المجلس السابع عشر","publishedAt":"2016-04-24T22:47:15Z","duration":"PT39M37S","thumbnail":"https://i.ytimg.com/vi/aq8LN-3HIsw/mqdefault.jpg","viewCount":"85","playlistId":"PLEkQk5xrP-tnu6of679SvxdVx0qSrJzmb","playlistName":"شرح سنن الإمام الترمذي رضى الله عنه د. يسري جبر","category":"متنوع"},{"id":"W1OYv0mQibk","title":"شرح كتاب تفسير القرآن من سنن الترمذي - المجلس الثامن عشر","publishedAt":"2016-04-25T21:08:56Z","duration":"PT34M45S","thumbnail":"https://i.ytimg.com/vi/W1OYv0mQibk/mqdefault.jpg","viewCount":"119","playlistId":"PLEkQk5xrP-tnu6of679SvxdVx0qSrJzmb","playlistName":"شرح سنن الإمام الترمذي رضى الله عنه د. يسري جبر","category":"متنوع"},{"id":"105bBH9M1_k","title":"شرح كتاب تفسير القرآن من سنن الترمذي - المجلس التاسع عشر","publishedAt":"2016-04-26T02:56:36Z","duration":"PT31M39S","thumbnail":"https://i.ytimg.com/vi/105bBH9M1_k/mqdefault.jpg","viewCount":"110","playlistId":"PLEkQk5xrP-tnu6of679SvxdVx0qSrJzmb","playlistName":"شرح سنن الإمام الترمذي رضى الله عنه د. يسري جبر","category":"متنوع"},{"id":"ZqLr0fkoAZI","title":"شرح كتاب تفسير القرآن من سنن الترمذي - المجلس العشرون","publishedAt":"2016-04-27T03:03:53Z","duration":"PT38M43S","thumbnail":"https://i.ytimg.com/vi/ZqLr0fkoAZI/mqdefault.jpg","viewCount":"120","playlistId":"PLEkQk5xrP-tnu6of679SvxdVx0qSrJzmb","playlistName":"شرح سنن الإمام الترمذي رضى الله عنه د. يسري جبر","category":"متنوع"},{"id":"XtRbyFU70jM","title":"شرح كتاب تفسير القرآن من سنن الترمذي - المجلس الحادي والعشرون","publishedAt":"2016-04-28T02:08:29Z","duration":"PT35M20S","thumbnail":"https://i.ytimg.com/vi/XtRbyFU70jM/mqdefault.jpg","viewCount":"89","playlistId":"PLEkQk5xrP-tnu6of679SvxdVx0qSrJzmb","playlistName":"شرح سنن الإمام الترمذي رضى الله عنه د. يسري جبر","category":"متنوع"},{"id":"32_86IEtzkI","title":"شرح كتاب تفسير القرآن من سنن الترمذي - المجلس الثاني والعشرون","publishedAt":"2016-04-29T00:39:56Z","duration":"PT34M32S","thumbnail":"https://i.ytimg.com/vi/32_86IEtzkI/mqdefault.jpg","viewCount":"80","playlistId":"PLEkQk5xrP-tnu6of679SvxdVx0qSrJzmb","playlistName":"شرح سنن الإمام الترمذي رضى الله عنه د. يسري جبر","category":"متنوع"},{"id":"rRsua6dsPSI","title":"شرح كتاب تفسير القرآن من سنن الترمذي - المجلس الثالث والعشرون","publishedAt":"2016-04-29T09:15:27Z","duration":"PT32M19S","thumbnail":"https://i.ytimg.com/vi/rRsua6dsPSI/mqdefault.jpg","viewCount":"77","playlistId":"PLEkQk5xrP-tnu6of679SvxdVx0qSrJzmb","playlistName":"شرح سنن الإمام الترمذي رضى الله عنه د. يسري جبر","category":"متنوع"},{"id":"GcBM0tMKhrU","title":"شرح كتاب تفسير القرآن من سنن الترمذي - المجلس الرابع والعشرون","publishedAt":"2016-05-01T02:53:01Z","duration":"PT33M12S","thumbnail":"https://i.ytimg.com/vi/GcBM0tMKhrU/mqdefault.jpg","viewCount":"100","playlistId":"PLEkQk5xrP-tnu6of679SvxdVx0qSrJzmb","playlistName":"شرح سنن الإمام الترمذي رضى الله عنه د. يسري جبر","category":"متنوع"}],"total":244,"page":8,"pageSize":24,"totalPages":11}