{"items":[{"id":"3X_gXg5SkAM","title":"شرح كتاب تفسير القرآن من سنن الترمذي - المجلس الخامس والعشرون","publishedAt":"2016-05-02T09:32:56Z","duration":"PT34M23S","thumbnail":"https://i.ytimg.com/vi/3X_gXg5SkAM/mqdefault.jpg","viewCount":"73","playlistId":"PLEkQk5xrP-tnu6of679SvxdVx0qSrJzmb","playlistName":"شرح سنن الإمام الترمذي رضى الله عنه د. يسري جبر","category":"متنوع"},{"id":"_uXTRxhz9MY","title":"شرح كتاب تفسير القرآن من سنن الترمذي - المجلس السادس والعشرون","publishedAt":"2016-05-02T11:12:15Z","duration":"PT41M56S","thumbnail":"https://i.ytimg.com/vi/_uXTRxhz9MY/mqdefault.jpg","viewCount":"115","playlistId":"PLEkQk5xrP-tnu6of679SvxdVx0qSrJzmb","playlistName":"شرح سنن الإمام الترمذي رضى الله عنه د. يسري جبر","category":"متنوع"},{"id":"v6HRT3igAgY","title":"شرح كتاب تفسير القرآن من سنن الترمذي - المجلس السابع والعشرون","publishedAt":"2016-05-05T02:40:30Z","duration":"PT29M23S","thumbnail":"https://i.ytimg.com/vi/v6HRT3igAgY/mqdefault.jpg","viewCount":"72","playlistId":"PLEkQk5xrP-tnu6of679SvxdVx0qSrJzmb","playlistName":"شرح سنن الإمام الترمذي رضى الله عنه د. يسري جبر","category":"متنوع"},{"id":"hMk84T_HTtk","title":"شرح كتاب تفسير القرآن من سنن الترمذي - المجلس الثامن والعشرون","publishedAt":"2016-05-05T02:46:27Z","duration":"PT36M52S","thumbnail":"https://i.ytimg.com/vi/hMk84T_HTtk/mqdefault.jpg","viewCount":"124","playlistId":"PLEkQk5xrP-tnu6of679SvxdVx0qSrJzmb","playlistName":"شرح سنن الإمام الترمذي رضى الله عنه د. يسري جبر","category":"متنوع"},{"id":"KE4ER6eV3SY","title":"شرح كتاب تفسير القرآن من سنن الترمذي - المجلس التاسع والعشرون","publishedAt":"2016-05-06T09:25:48Z","duration":"PT30M39S","thumbnail":"https://i.ytimg.com/vi/KE4ER6eV3SY/mqdefault.jpg","viewCount":"106","playlistId":"PLEkQk5xrP-tnu6of679SvxdVx0qSrJzmb","playlistName":"شرح سنن الإمام الترمذي رضى الله عنه د. يسري جبر","category":"متنوع"},{"id":"GPk3yn2gqEU","title":"شرح كتاب تفسير القرآن من سنن الترمذي - المجلس الثلاثون","publishedAt":"2016-05-08T02:35:51Z","duration":"PT30M26S","thumbnail":"https://i.ytimg.com/vi/GPk3yn2gqEU/mqdefault.jpg","viewCount":"104","playlistId":"PLEkQk5xrP-tnu6of679SvxdVx0qSrJzmb","playlistName":"شرح سنن الإمام الترمذي رضى الله عنه د. يسري جبر","category":"متنوع"},{"id":"AamrbR1-OYQ","title":"شرح كتاب تفسير القرآن من سنن الترمذي - المجلس الحادي والثلاثون","publishedAt":"2016-05-08T08:54:22Z","duration":"PT31M44S","thumbnail":"https://i.ytimg.com/vi/AamrbR1-OYQ/mqdefault.jpg","viewCount":"116","playlistId":"PLEkQk5xrP-tnu6of679SvxdVx0qSrJzmb","playlistName":"شرح سنن الإمام الترمذي رضى الله عنه د. يسري جبر","category":"متنوع"},{"id":"eigKuN-GGC8","title":"شرح كتاب تفسير القرآن من سنن الترمذي - المجلس الثاني والثلاثون","publishedAt":"2016-05-11T02:36:57Z","duration":"PT35M54S","thumbnail":"https://i.ytimg.com/vi/eigKuN-GGC8/mqdefault.jpg","viewCount":"167","playlistId":"PLEkQk5xrP-tnu6of679SvxdVx0qSrJzmb","playlistName":"شرح سنن الإمام الترمذي رضى الله عنه د. يسري جبر","category":"متنوع"},{"id":"DInZQn0Zmys","title":"شرح كتاب تفسير القرآن من سنن الترمذي - المجلس الثالث والثلاثون","publishedAt":"2016-05-11T17:27:39Z","duration":"PT25M1S","thumbnail":"https://i.ytimg.com/vi/DInZQn0Zmys/mqdefault.jpg","viewCount":"95","playlistId":"PLEkQk5xrP-tnu6of679SvxdVx0qSrJzmb","playlistName":"شرح سنن الإمام الترمذي رضى الله عنه د. يسري جبر","category":"متنوع"},{"id":"Blh3mvtpQsg","title":"شرح كتاب تفسير القرآن من سنن الترمذي - المجلس الرابع والثلاثون","publishedAt":"2016-05-12T09:51:08Z","duration":"PT41M19S","thumbnail":"https://i.ytimg.com/vi/Blh3mvtpQsg/mqdefault.jpg","viewCount":"99","playlistId":"PLEkQk5xrP-tnu6of679SvxdVx0qSrJzmb","playlistName":"شرح سنن الإمام الترمذي رضى الله عنه د. يسري جبر","category":"متنوع"},{"id":"1iyYIVfADos","title":"شرح كتاب تفسير القرآن من سنن الترمذي - المجلس الخامس والثلاثون","publishedAt":"2016-05-12T15:26:20Z","duration":"PT39M33S","thumbnail":"https://i.ytimg.com/vi/1iyYIVfADos/mqdefault.jpg","viewCount":"93","playlistId":"PLEkQk5xrP-tnu6of679SvxdVx0qSrJzmb","playlistName":"شرح سنن الإمام الترمذي رضى الله عنه د. يسري جبر","category":"متنوع"},{"id":"dGDQ3RMvTA0","title":"شرح كتاب تفسير القرآن من سنن الترمذي - المجلس السادس والثلاثون","publishedAt":"2016-05-13T01:28:43Z","duration":"PT47M3S","thumbnail":"https://i.ytimg.com/vi/dGDQ3RMvTA0/mqdefault.jpg","viewCount":"124","playlistId":"PLEkQk5xrP-tnu6of679SvxdVx0qSrJzmb","playlistName":"شرح سنن الإمام الترمذي رضى الله عنه د. يسري جبر","category":"متنوع"},{"id":"euievgGixKA","title":"شرح كتاب الدعوات من سنن الترمذي - المجلس الأول","publishedAt":"2016-05-14T01:33:39Z","duration":"PT44M33S","thumbnail":"https://i.ytimg.com/vi/euievgGixKA/mqdefault.jpg","viewCount":"301","playlistId":"PLEkQk5xrP-tnu6of679SvxdVx0qSrJzmb","playlistName":"شرح سنن الإمام الترمذي رضى الله عنه د. يسري جبر","category":"متنوع"},{"id":"fCINO4uSgJk","title":"شرح كتاب الدعوات من سنن الترمذي - المجلس الثاني","publishedAt":"2016-05-15T01:29:06Z","duration":"PT29M21S","thumbnail":"https://i.ytimg.com/vi/fCINO4uSgJk/mqdefault.jpg","viewCount":"149","playlistId":"PLEkQk5xrP-tnu6of679SvxdVx0qSrJzmb","playlistName":"شرح سنن الإمام الترمذي رضى الله عنه د. يسري جبر","category":"متنوع"},{"id":"Q2iFdHcpt58","title":"شرح كتاب الدعوات من سنن الترمذي - المجلس الثالث","publishedAt":"2016-05-15T12:16:24Z","duration":"PT22M22S","thumbnail":"https://i.ytimg.com/vi/Q2iFdHcpt58/mqdefault.jpg","viewCount":"123","playlistId":"PLEkQk5xrP-tnu6of679SvxdVx0qSrJzmb","playlistName":"شرح سنن الإمام الترمذي رضى الله عنه د. يسري جبر","category":"متنوع"},{"id":"FrESYW6FLMQ","title":"شرح كتاب الدعوات من سنن الترمذي - المجلس الرابع","publishedAt":"2016-05-17T02:40:48Z","duration":"PT41M45S","thumbnail":"https://i.ytimg.com/vi/FrESYW6FLMQ/mqdefault.jpg","viewCount":"170","playlistId":"PLEkQk5xrP-tnu6of679SvxdVx0qSrJzmb","playlistName":"شرح سنن الإمام الترمذي رضى الله عنه د. يسري جبر","category":"متنوع"},{"id":"yEYX9RwAXrY","title":"شرح كتاب الدعوات من سنن الترمذي - المجلس الخامس","publishedAt":"2016-05-18T02:41:23Z","duration":"PT31M44S","thumbnail":"https://i.ytimg.com/vi/yEYX9RwAXrY/mqdefault.jpg","viewCount":"119","playlistId":"PLEkQk5xrP-tnu6of679SvxdVx0qSrJzmb","playlistName":"شرح سنن الإمام الترمذي رضى الله عنه د. يسري جبر","category":"متنوع"},{"id":"tVwl4v1TBBc","title":"شرح كتاب الدعوات من سنن الترمذي - المجلس السادس","publishedAt":"2016-05-19T05:06:30Z","duration":"PT34M25S","thumbnail":"https://i.ytimg.com/vi/tVwl4v1TBBc/mqdefault.jpg","viewCount":"141","playlistId":"PLEkQk5xrP-tnu6of679SvxdVx0qSrJzmb","playlistName":"شرح سنن الإمام الترمذي رضى الله عنه د. يسري جبر","category":"متنوع"},{"id":"6skQEfrdF8o","title":"شرح كتاب الدعوات من سنن الترمذي - المجلس السابع","publishedAt":"2016-05-23T04:13:14Z","duration":"PT47M36S","thumbnail":"https://i.ytimg.com/vi/6skQEfrdF8o/mqdefault.jpg","viewCount":"123","playlistId":"PLEkQk5xrP-tnu6of679SvxdVx0qSrJzmb","playlistName":"شرح سنن الإمام الترمذي رضى الله عنه د. يسري جبر","category":"متنوع"},{"id":"mmdI2jCrPas","title":"شرح كتاب الدعوات من سنن الترمذي - المجلس الثامن","publishedAt":"2016-05-24T01:30:43Z","duration":"PT26M1S","thumbnail":"https://i.ytimg.com/vi/mmdI2jCrPas/mqdefault.jpg","viewCount":"108","playlistId":"PLEkQk5xrP-tnu6of679SvxdVx0qSrJzmb","playlistName":"شرح سنن الإمام الترمذي رضى الله عنه د. يسري جبر","category":"متنوع"},{"id":"FVY7FWl0scE","title":"شرح كتاب الدعوات من سنن الترمذي - المجلس التاسع","publishedAt":"2016-05-25T02:43:20Z","duration":"PT38M33S","thumbnail":"https://i.ytimg.com/vi/FVY7FWl0scE/mqdefault.jpg","viewCount":"124","playlistId":"PLEkQk5xrP-tnu6of679SvxdVx0qSrJzmb","playlistName":"شرح سنن الإمام الترمذي رضى الله عنه د. يسري جبر","category":"متنوع"},{"id":"VBS8G7vlO-I","title":"شرح كتاب الدعوات من سنن الترمذي - المجلس العاشر","publishedAt":"2016-05-26T02:29:06Z","duration":"PT27M11S","thumbnail":"https://i.ytimg.com/vi/VBS8G7vlO-I/mqdefault.jpg","viewCount":"102","playlistId":"PLEkQk5xrP-tnu6of679SvxdVx0qSrJzmb","playlistName":"شرح سنن الإمام الترمذي رضى الله عنه د. يسري جبر","category":"متنوع"},{"id":"q7cw1GPcvG0","title":"شرح كتاب الدعوات من سنن الترمذي - المجلس الحادي عشر","publishedAt":"2016-05-27T02:51:15Z","duration":"PT29M30S","thumbnail":"https://i.ytimg.com/vi/q7cw1GPcvG0/mqdefault.jpg","viewCount":"89","playlistId":"PLEkQk5xrP-tnu6of679SvxdVx0qSrJzmb","playlistName":"شرح سنن الإمام الترمذي رضى الله عنه د. يسري جبر","category":"متنوع"},{"id":"LHCOOta-gJ0","title":"شرح كتاب الدعوات من سنن الترمذي - المجلس الثاني عشر","publishedAt":"2016-05-28T02:19:28Z","duration":"PT37M31S","thumbnail":"https://i.ytimg.com/vi/LHCOOta-gJ0/mqdefault.jpg","viewCount":"127","playlistId":"PLEkQk5xrP-tnu6of679SvxdVx0qSrJzmb","playlistName":"شرح سنن الإمام الترمذي رضى الله عنه د. يسري جبر","category":"متنوع"}],"total":244,"page":9,"pageSize":24,"totalPages":11}