{"items":[{"id":"xxBDI0Ftv18","title":"لُغَتُنَا الجَمِيلَةُ. أ.د. يسري جبر","publishedAt":"2019-11-17T18:49:51Z","duration":"PT3M50S","thumbnail":"https://i.ytimg.com/vi/xxBDI0Ftv18/mqdefault.jpg","viewCount":"1536","playlistId":"PLEkQk5xrP-tm8ZIu74nTOZN9KJUJu416J","playlistName":"مقاطع مُهمَّة (يُسريَّات) أ.د. يسري جبر","category":"متنوع"},{"id":"LDN50RPJ6zc","title":"324- الدُّعاءُ المُستجاب - شرح دليل الفالحين","publishedAt":"2022-11-02T09:00:08Z","duration":"PT40M7S","thumbnail":"https://i.ytimg.com/vi/LDN50RPJ6zc/mqdefault.jpg","viewCount":"1535","playlistId":"PLEkQk5xrP-tkc9DXvSLguqX5-FYp6ASR4","playlistName":"دليل الفالحين لطرق رياض الصالحين","category":"متنوع"},{"id":"lOcCFJqLM-0","title":"35- بابُ الصَّبر:الحديثُ الأول \"...والحمدُ للهِ تملأُ الميزانَ...\" شرح دليل الفالحين","publishedAt":"2021-03-27T05:49:09Z","duration":"PT33M36S","thumbnail":"https://i.ytimg.com/vi/lOcCFJqLM-0/mqdefault.jpg","viewCount":"1533","playlistId":"PLEkQk5xrP-tkc9DXvSLguqX5-FYp6ASR4","playlistName":"دليل الفالحين لطرق رياض الصالحين","category":"متنوع"},{"id":"K6H1ytWqfAE","title":"123- فضل ضعفة المسلمين والفقراء والخاملين - شرح دليل الفالحين","publishedAt":"2021-09-07T08:00:55Z","duration":"PT28M15S","thumbnail":"https://i.ytimg.com/vi/K6H1ytWqfAE/mqdefault.jpg","viewCount":"1531","playlistId":"PLEkQk5xrP-tkc9DXvSLguqX5-FYp6ASR4","playlistName":"دليل الفالحين لطرق رياض الصالحين","category":"متنوع"},{"id":"BYRnQjGt_LU","title":"شرح كتاب منازل السائرين للإمام الهروى - المجلس الخامس والثلاثون قسم الأُصول باب اليقين وباب الأنس","publishedAt":"2016-01-07T17:20:12Z","duration":"PT1H34M47S","thumbnail":"https://i.ytimg.com/vi/BYRnQjGt_LU/mqdefault.jpg","viewCount":"1526","playlistId":"PLEkQk5xrP-tnLYi_5_tSRVBwqcs7ISV7Y","playlistName":"شرح كتاب منازل السائرين للإمام الهروي","category":"متنوع"},{"id":"LI2-uglktIk","title":"115-\"إنِّي لأقوم إلى الصَّلاة وأريدُ أن أطوِّل فيها فأسمع بُكاءَ الطفل فأتجوَّز …\" شرح دليل الفالحين","publishedAt":"2021-08-20T06:03:17Z","duration":"PT39M2S","thumbnail":"https://i.ytimg.com/vi/LI2-uglktIk/mqdefault.jpg","viewCount":"1526","playlistId":"PLEkQk5xrP-tkc9DXvSLguqX5-FYp6ASR4","playlistName":"دليل الفالحين لطرق رياض الصالحين","category":"متنوع"},{"id":"C8tFE-f3B5o","title":"بِدَع رجبيَّة.  أ.د. يسري جبر","publishedAt":"2019-03-18T18:27:01Z","duration":"PT40M3S","thumbnail":"https://i.ytimg.com/vi/C8tFE-f3B5o/mqdefault.jpg","viewCount":"1525","playlistId":"PLEkQk5xrP-tlArtGpeLWaqNM7h7IDeAVC","playlistName":"خطب الجمعة أ.د. يسري جبر","category":"خطب"},{"id":"RRKT42AObHI","title":"64- المبادرة إلى الخيرات\"بادروا بالأعمال الصالحة…\" شرح دليل الفالحين","publishedAt":"2021-05-21T22:34:26Z","duration":"PT39M30S","thumbnail":"https://i.ytimg.com/vi/RRKT42AObHI/mqdefault.jpg","viewCount":"1523","playlistId":"PLEkQk5xrP-tkc9DXvSLguqX5-FYp6ASR4","playlistName":"دليل الفالحين لطرق رياض الصالحين","category":"متنوع"},{"id":"r_zVRx5qRCc","title":"617- المشيئة والإرادة - شرح صحيح الإمام البخاري رضي الله تعالى عنه","publishedAt":"2022-10-15T09:00:32Z","duration":"PT37M2S","thumbnail":"https://i.ytimg.com/vi/r_zVRx5qRCc/mqdefault.jpg","viewCount":"1520","playlistId":"PLEkQk5xrP-tmJuzaj4GWRenFoFx9gdbFX","playlistName":"شرح كتاب صحيح الإمام البخاري رضي الله تعالى عنه   أ.د. يسرى جبر","category":"حديث"},{"id":"Ejom6cahmJA","title":"621- كَلامُ الرَّبِّ عَزَّ وجَلَّ يومَ القِيامةِ مع الأَنبِيَاءِ وغَيرِهم - شرح صحيح الإمام البخاري","publishedAt":"2022-11-12T09:00:07Z","duration":"PT42M33S","thumbnail":"https://i.ytimg.com/vi/Ejom6cahmJA/mqdefault.jpg","viewCount":"1515","playlistId":"PLEkQk5xrP-tmJuzaj4GWRenFoFx9gdbFX","playlistName":"شرح كتاب صحيح الإمام البخاري رضي الله تعالى عنه   أ.د. يسرى جبر","category":"حديث"},{"id":"dHGpirZmLaU","title":"هل يفرح الله بتوبة عباده؟ | مجالس رمضانية","publishedAt":"2023-04-12T15:00:25Z","duration":"PT55M15S","thumbnail":"https://i.ytimg.com/vi/dHGpirZmLaU/mqdefault.jpg","viewCount":"1515","playlistId":"PLEkQk5xrP-tnl7vb7KeAoPd5ZlqKKW8KV","playlistName":"شرح كتاب بهجة النفوس أ.د . يسرى جبر","category":"متنوع"},{"id":"OecHFWEbNss","title":"ما هي الأسماء التي لا يجوز التسمية بها؟ | مجالس رمضانية","publishedAt":"2023-04-05T15:00:18Z","duration":"PT34M33S","thumbnail":"https://i.ytimg.com/vi/OecHFWEbNss/mqdefault.jpg","viewCount":"1513","playlistId":"PLEkQk5xrP-tnl7vb7KeAoPd5ZlqKKW8KV","playlistName":"شرح كتاب بهجة النفوس أ.د . يسرى جبر","category":"متنوع"},{"id":"Df0sPUVytZI","title":"حَدِيث (١٨٧)\"الثلاثة الذين تكلموا في المهد\" | أ.د. يسري جبر","publishedAt":"2021-04-17T15:51:04Z","duration":"PT37M20S","thumbnail":"https://i.ytimg.com/vi/Df0sPUVytZI/mqdefault.jpg","viewCount":"1513","playlistId":"PLEkQk5xrP-tnl7vb7KeAoPd5ZlqKKW8KV","playlistName":"شرح كتاب بهجة النفوس أ.د . يسرى جبر","category":"متنوع"},{"id":"uhNms2jbERI","title":"أدلة تحريم الهجر في الإسلام","publishedAt":"2021-04-02T19:53:31Z","duration":"PT19M25S","thumbnail":"https://i.ytimg.com/vi/uhNms2jbERI/mqdefault.jpg","viewCount":"1507","playlistId":"PLEkQk5xrP-tnAJa3yfebXD7wNC_ECfZNt","playlistName":"كتاب النفحة الذكية في أن الهجر بدعة شركية","category":"متنوع"},{"id":"BZnzZYnaCu4","title":"الصدق والإخلاص د . يسري جبر","publishedAt":"2016-05-12T17:10:05Z","duration":"PT41M38S","thumbnail":"https://i.ytimg.com/vi/BZnzZYnaCu4/mqdefault.jpg","viewCount":"1506","playlistId":"PLEkQk5xrP-tlArtGpeLWaqNM7h7IDeAVC","playlistName":"خطب الجمعة أ.د. يسري جبر","category":"خطب"},{"id":"V7S8oSvdrOo","title":"شرح كتاب منازل السائرين للإمام الهروى المجلس الحادى والأربعون قسم الأَودية باب الإلهام وباب السكينة","publishedAt":"2015-03-23T21:01:30Z","duration":"PT1H15M24S","thumbnail":"https://i.ytimg.com/vi/V7S8oSvdrOo/mqdefault.jpg","viewCount":"1506","playlistId":"PLEkQk5xrP-tnLYi_5_tSRVBwqcs7ISV7Y","playlistName":"شرح كتاب منازل السائرين للإمام الهروي","category":"متنوع"},{"id":"pt9RKWnDUvc","title":"الحمدُ للهٍ أنَا بكَ وَإليكَ  أ.د يسري جبر","publishedAt":"2016-07-11T20:56:28Z","duration":"PT1M32S","thumbnail":"https://i.ytimg.com/vi/pt9RKWnDUvc/mqdefault.jpg","viewCount":"1506","playlistId":"PLEkQk5xrP-tm8ZIu74nTOZN9KJUJu416J","playlistName":"مقاطع مُهمَّة (يُسريَّات) أ.د. يسري جبر","category":"متنوع"},{"id":"x9WvM5ByynY","title":"الأحاديث الواردة فى باب خاتِم النبوة   | اعرف نبيك","publishedAt":"2015-04-30T14:52:45Z","duration":"PT6M53S","thumbnail":"https://i.ytimg.com/vi/x9WvM5ByynY/mqdefault.jpg","viewCount":"1506","playlistId":"PLEkQk5xrP-tl6Mu_Mz3QMUSv5T6XBH-Dg","playlistName":"برنامج اعرف نبيك","category":"متنوع"},{"id":"-Nqihz1iOug","title":"شرح صحيح البخاري ( كتاب الغسل مجلس ٣ )","publishedAt":"2016-09-29T19:53:36Z","duration":"PT35M37S","thumbnail":"https://i.ytimg.com/vi/-Nqihz1iOug/mqdefault.jpg","viewCount":"1504","playlistId":"PLEkQk5xrP-tlEerGoLa1AFy-2XvQ-sovv","playlistName":"شرح صحيح البخاري - أ.د. يسري جبر (كاملا)","category":"حديث"},{"id":"KHdlJ-yJhhc","title":"شرح مسند الإمام محمد بن إدريس الشافعيّ رضي الله تعالى عنه - المجلس الرابع  أ.د. يسري جبر","publishedAt":"2019-11-21T04:51:46Z","duration":"PT46M57S","thumbnail":"https://i.ytimg.com/vi/KHdlJ-yJhhc/mqdefault.jpg","viewCount":"1504","playlistId":"PLEkQk5xrP-tlDtaqY0qhNXAiZ19gaGzKI","playlistName":"شرح مسند الإمام محمد بن إدريس الشافعيّ رضي الله تعالى عنه","category":"فقه"},{"id":"82D6JeUu-kg","title":"5- صلوات اليوم الخامس - صلوات الأسماء الحسنى، شرح الصلوات اليسرية على خير البرية ﷺ","publishedAt":"2025-03-01T06:30:02Z","duration":"PT16M18S","thumbnail":"https://i.ytimg.com/vi/82D6JeUu-kg/mqdefault.jpg","viewCount":"1503","playlistId":"PLEkQk5xrP-tk92TNE3xhWCFNr9VshA9Zj","playlistName":"الصلوات اليسرية على خير البرية ﷺ","category":"صلوات"},{"id":"WM4LX6mcdhU","title":"153- فضل السيدة عائشة أم المؤمنين رضي الله عنها وعن أبيها","publishedAt":"2020-10-22T08:31:02Z","duration":"PT18M4S","thumbnail":"https://i.ytimg.com/vi/WM4LX6mcdhU/mqdefault.jpg","viewCount":"1502","playlistId":"PLEkQk5xrP-tmKNjtYLfhATC37QdIsTMe0","playlistName":"شرح كتاب اللؤلؤ والمرجان فيما اتفق عليه الشيخان إماما المحدثين البخاري ومسلم. أ.د. يسري جبر","category":"حديث"},{"id":"vtPBUQaWpsI","title":"104- الوصية الجامعة البالغة - شرح مسند الإمام أحمد رضي الله تعالى عنه","publishedAt":"2024-05-12T05:38:26Z","duration":"PT31M23S","thumbnail":"https://i.ytimg.com/vi/vtPBUQaWpsI/mqdefault.jpg","viewCount":"1501","playlistId":"PLEkQk5xrP-tkKprIuGrSdEuBSMsyg5We1","playlistName":"شرح مسند الإمام أحمد بن حنبل","category":"متنوع"},{"id":"9xs4LhRkiKA","title":"برنامج - عصمة الأنبياء - الحلقة السابعة - سيدنا لوط : شبهات ( امرأة لوط - هؤلاء بناتي) - @alerthTV","publishedAt":"2016-05-12T15:13:28Z","duration":"PT24M22S","thumbnail":"https://i.ytimg.com/vi/9xs4LhRkiKA/mqdefault.jpg","viewCount":"1500","playlistId":"PLEkQk5xrP-tnBp9yUT_R2vtqSPOlcyAZe","playlistName":"برنامج - عصمة الأنبياء","category":"متنوع"}],"total":7670,"page":122,"pageSize":24,"totalPages":320}