{"items":[{"id":"q1H3bV6Etvs","title":"كيف تبدأ رمضان بقلب سيلم؟","publishedAt":"2024-03-10T18:00:19Z","duration":"PT17M26S","thumbnail":"https://i.ytimg.com/vi/q1H3bV6Etvs/mqdefault.jpg","viewCount":"13174","playlistId":"PLEkQk5xrP-tlArtGpeLWaqNM7h7IDeAVC","playlistName":"خطب الجمعة أ.د. يسري جبر","category":"خطب"},{"id":"KRs6IZl7S4Y","title":"شرح كتاب نوراليقين في سيرة سيد المرسلين - المجلس 38 (كتاب قيصر) د.يسري جبر","publishedAt":"2018-02-10T17:56:56Z","duration":"PT49M8S","thumbnail":"https://i.ytimg.com/vi/KRs6IZl7S4Y/mqdefault.jpg","viewCount":"13168","playlistId":"PLEkQk5xrP-tl2t4NQx1IhKnAJCMzF0Nli","playlistName":"شرح كتاب نور اليقين في سيرة سيد المرسلين   د. يسري جبر","category":"سيرة"},{"id":"FseXaX0K9tM","title":"شرح كتاب نوراليقين في سيرة سيد المرسلين - المجلس 37 (تكملة صلح الحديبية) د.يسري جبر","publishedAt":"2018-02-05T09:50:57Z","duration":"PT51M1S","thumbnail":"https://i.ytimg.com/vi/FseXaX0K9tM/mqdefault.jpg","viewCount":"13152","playlistId":"PLEkQk5xrP-tl2t4NQx1IhKnAJCMzF0Nli","playlistName":"شرح كتاب نور اليقين في سيرة سيد المرسلين   د. يسري جبر","category":"سيرة"},{"id":"co-yV2fuAgo","title":"خاتم النبوة هل وُلدَ به سيدنا محمد أم ظهر بعد ولادته ؟ | اعرف نبيك","publishedAt":"2015-04-30T14:43:33Z","duration":"PT6M18S","thumbnail":"https://i.ytimg.com/vi/co-yV2fuAgo/mqdefault.jpg","viewCount":"13134","playlistId":"PLEkQk5xrP-tl6Mu_Mz3QMUSv5T6XBH-Dg","playlistName":"برنامج اعرف نبيك","category":"متنوع"},{"id":"tXMUjCOC7HQ","title":"11- كيف يوسوس الشيطان للناس؟ | شرح مختصر الفتوحات المكية","publishedAt":"2024-03-08T19:10:05Z","duration":"PT54M59S","thumbnail":"https://i.ytimg.com/vi/tXMUjCOC7HQ/mqdefault.jpg","viewCount":"13087","playlistId":"PLEkQk5xrP-tnpkdZki6rPTtMak1bnI5g-","playlistName":"شرح كتاب مختصر الفتوحات المكية المسمى لواقح الأنوار القدسية","category":"متنوع"},{"id":"4M0DKKCk_Ic","title":"حقيقة الأولية المحمدية بدليل القرآن والسنة","publishedAt":"2013-11-07T02:25:36Z","duration":"PT5M22S","thumbnail":"https://i.ytimg.com/vi/4M0DKKCk_Ic/mqdefault.jpg","viewCount":"13074","playlistId":"PLEkQk5xrP-tm8ZIu74nTOZN9KJUJu416J","playlistName":"مقاطع مُهمَّة (يُسريَّات) أ.د. يسري جبر","category":"متنوع"},{"id":"xxztBdVV4wY","title":"شرح حديث سحر النبي من صحيح الإمام مسلم","publishedAt":"2014-08-20T09:46:59Z","duration":"PT46M1S","thumbnail":"https://i.ytimg.com/vi/xxztBdVV4wY/mqdefault.jpg","viewCount":"13012","playlistId":"PLEkQk5xrP-tm8ZIu74nTOZN9KJUJu416J","playlistName":"مقاطع مُهمَّة (يُسريَّات) أ.د. يسري جبر","category":"متنوع"},{"id":"VLjrhAFVe7E","title":"حُكم استخدام صبغة الشعر والحناء والكحل للرجال","publishedAt":"2021-01-29T19:15:00Z","duration":"PT11M16S","thumbnail":"https://i.ytimg.com/vi/VLjrhAFVe7E/mqdefault.jpg","viewCount":"13011","playlistId":"PLEkQk5xrP-tm8ZIu74nTOZN9KJUJu416J","playlistName":"مقاطع مُهمَّة (يُسريَّات) أ.د. يسري جبر","category":"متنوع"},{"id":"yTg_K-dBElo","title":"كيف نرد الإساءة عن النَّبيّ ﷺ؟","publishedAt":"2020-10-31T18:05:27Z","duration":"PT12M37S","thumbnail":"https://i.ytimg.com/vi/yTg_K-dBElo/mqdefault.jpg","viewCount":"13007","playlistId":"PLEkQk5xrP-tm8ZIu74nTOZN9KJUJu416J","playlistName":"مقاطع مُهمَّة (يُسريَّات) أ.د. يسري جبر","category":"متنوع"},{"id":"YWILVpKBuEA","title":"تفسير شطحات بعض الأولياء ولماذا يختلف عليهم العلماء؟","publishedAt":"2024-07-04T19:54:10Z","duration":"PT22M19S","thumbnail":"https://i.ytimg.com/vi/YWILVpKBuEA/mqdefault.jpg","viewCount":"12991","playlistId":"PLEkQk5xrP-tm8ZIu74nTOZN9KJUJu416J","playlistName":"مقاطع مُهمَّة (يُسريَّات) أ.د. يسري جبر","category":"متنوع"},{"id":"RbFbsr_lvWk","title":"كيف تعالج قسوة القلب؟","publishedAt":"2022-06-20T18:30:33Z","duration":"PT11M26S","thumbnail":"https://i.ytimg.com/vi/RbFbsr_lvWk/mqdefault.jpg","viewCount":"12917","playlistId":"PLEkQk5xrP-tm8ZIu74nTOZN9KJUJu416J","playlistName":"مقاطع مُهمَّة (يُسريَّات) أ.د. يسري جبر","category":"متنوع"},{"id":"xxQ0OYnxbXs","title":"أنا شاب ولا استطيع غض بصري فماذا أفعل؟","publishedAt":"2023-08-21T18:00:26Z","duration":"PT8M34S","thumbnail":"https://i.ytimg.com/vi/xxQ0OYnxbXs/mqdefault.jpg","viewCount":"12910","playlistId":"PLEkQk5xrP-tkGXuZ9atE3k_7it12rUPTs","playlistName":"أسئلة المتابعين","category":"متنوع"},{"id":"_ycXPZWRWpA","title":"سبب تصنيف دلائل الخيرات","publishedAt":"2020-10-25T18:46:48Z","duration":"PT11M46S","thumbnail":"https://i.ytimg.com/vi/_ycXPZWRWpA/mqdefault.jpg","viewCount":"12874","playlistId":"PLEkQk5xrP-tm8ZIu74nTOZN9KJUJu416J","playlistName":"مقاطع مُهمَّة (يُسريَّات) أ.د. يسري جبر","category":"متنوع"},{"id":"KoPPNzEB6fU","title":"شرح الصلاة الأنموذجية د. يسري جبر","publishedAt":"2017-01-10T18:56:58Z","duration":"PT8M17S","thumbnail":"https://i.ytimg.com/vi/KoPPNzEB6fU/mqdefault.jpg","viewCount":"12871","playlistId":"PLEkQk5xrP-tm8ZIu74nTOZN9KJUJu416J","playlistName":"مقاطع مُهمَّة (يُسريَّات) أ.د. يسري جبر","category":"متنوع"},{"id":"QN3lRL2_sl4","title":"الصلاةُ على النَّبِيّ ﷺ 100 مرة","publishedAt":"2020-05-26T14:22:52Z","duration":"PT10M3S","thumbnail":"https://i.ytimg.com/vi/QN3lRL2_sl4/mqdefault.jpg","viewCount":"12829","playlistId":"PLEkQk5xrP-tm8ZIu74nTOZN9KJUJu416J","playlistName":"مقاطع مُهمَّة (يُسريَّات) أ.د. يسري جبر","category":"متنوع"},{"id":"mIha2flgPHI","title":"كتاب نوراليقين في سيرة سيد المرسلين - المجلس 43 (سرية - غزوة الفتح الأعظم) د.يسري جبر","publishedAt":"2018-03-25T08:32:36Z","duration":"PT47M47S","thumbnail":"https://i.ytimg.com/vi/mIha2flgPHI/mqdefault.jpg","viewCount":"12803","playlistId":"PLEkQk5xrP-tl2t4NQx1IhKnAJCMzF0Nli","playlistName":"شرح كتاب نور اليقين في سيرة سيد المرسلين   د. يسري جبر","category":"سيرة"},{"id":"1SMFYxB1sFY","title":"كيف أرضى بقضاء الله وقدره؟","publishedAt":"2022-07-25T18:29:03Z","duration":"PT18M3S","thumbnail":"https://i.ytimg.com/vi/1SMFYxB1sFY/mqdefault.jpg","viewCount":"12787","playlistId":"PLEkQk5xrP-tlArtGpeLWaqNM7h7IDeAVC","playlistName":"خطب الجمعة أ.د. يسري جبر","category":"خطب"},{"id":"7vnoE1J4h7s","title":"كيف تعبد ربك؟","publishedAt":"2020-08-28T19:00:14Z","duration":"PT15M11S","thumbnail":"https://i.ytimg.com/vi/7vnoE1J4h7s/mqdefault.jpg","viewCount":"12768","playlistId":"PLEkQk5xrP-tm8ZIu74nTOZN9KJUJu416J","playlistName":"مقاطع مُهمَّة (يُسريَّات) أ.د. يسري جبر","category":"متنوع"},{"id":"oLc1MjMO34c","title":"بعد رمضان ,, نصيحة لمن يريد حفظ القرآن","publishedAt":"2024-04-11T18:00:19Z","duration":"PT11M46S","thumbnail":"https://i.ytimg.com/vi/oLc1MjMO34c/mqdefault.jpg","viewCount":"12729","playlistId":"PLEkQk5xrP-tm8ZIu74nTOZN9KJUJu416J","playlistName":"مقاطع مُهمَّة (يُسريَّات) أ.د. يسري جبر","category":"متنوع"},{"id":"jB1eq6KUhPk","title":"أفضل طريقة لحل المشاكل الزوجية","publishedAt":"2021-07-29T17:50:10Z","duration":"PT8M32S","thumbnail":"https://i.ytimg.com/vi/jB1eq6KUhPk/mqdefault.jpg","viewCount":"12701","playlistId":"PLEkQk5xrP-tkGXuZ9atE3k_7it12rUPTs","playlistName":"أسئلة المتابعين","category":"متنوع"},{"id":"qt4VpE_5BVs","title":"المُلتفِت لا يَصِل","publishedAt":"2020-07-14T18:18:30Z","duration":"PT6M2S","thumbnail":"https://i.ytimg.com/vi/qt4VpE_5BVs/mqdefault.jpg","viewCount":"12670","playlistId":"PLEkQk5xrP-tm8ZIu74nTOZN9KJUJu416J","playlistName":"مقاطع مُهمَّة (يُسريَّات) أ.د. يسري جبر","category":"متنوع"},{"id":"SlDtV8z9uZ4","title":"مَن وجَد اللهَ وجَد كلَّ شيء","publishedAt":"2020-07-07T19:49:26Z","duration":"PT13M28S","thumbnail":"https://i.ytimg.com/vi/SlDtV8z9uZ4/mqdefault.jpg","viewCount":"12632","playlistId":"PLEkQk5xrP-tm8ZIu74nTOZN9KJUJu416J","playlistName":"مقاطع مُهمَّة (يُسريَّات) أ.د. يسري جبر","category":"متنوع"},{"id":"zHMnMo2-FnY","title":"الرسالة القشيرية المجلس الرابع والأربعون - باب الخلوة والعزلة.  أ.د. يسري جبر","publishedAt":"2019-01-22T18:34:04Z","duration":"PT59M32S","thumbnail":"https://i.ytimg.com/vi/zHMnMo2-FnY/mqdefault.jpg","viewCount":"12617","playlistId":"PLEkQk5xrP-tkHAGOwIKr4pc5ehhyQ5HMJ","playlistName":"كتاب الرسالة القشيرية (تصوف) - د. يسري جبر","category":"تصوف"},{"id":"3PrgpPBm464","title":"كتاب نوراليقين في سيرة سيد المرسلين - المجلس 42 (سرية - غزوة مُؤْتَة) د.يسري جبر","publishedAt":"2018-03-10T01:47:27Z","duration":"PT50M53S","thumbnail":"https://i.ytimg.com/vi/3PrgpPBm464/mqdefault.jpg","viewCount":"12601","playlistId":"PLEkQk5xrP-tl2t4NQx1IhKnAJCMzF0Nli","playlistName":"شرح كتاب نور اليقين في سيرة سيد المرسلين   د. يسري جبر","category":"سيرة"}],"total":7670,"page":23,"pageSize":24,"totalPages":320}