{"items":[{"id":"cpXRgoJCOos","title":"تأمُّلات ونفحات في حديث الشَّفاعة","publishedAt":"2022-07-16T08:05:00Z","duration":"PT41M15S","thumbnail":"https://i.ytimg.com/vi/cpXRgoJCOos/mqdefault.jpg","viewCount":"2701","playlistId":"PLEkQk5xrP-tmJuzaj4GWRenFoFx9gdbFX","playlistName":"شرح كتاب صحيح الإمام البخاري رضي الله تعالى عنه   أ.د. يسرى جبر","category":"حديث"},{"id":"UMp5dZuYqV8","title":"249- لا يَدْخُلُ الجَنَّةَ مَن في قَلْبِهِ مِثْقالُ ذَرَّةٍ مِن كِبْرٍ  - شرح دليل الفالحين","publishedAt":"2022-05-19T05:15:00Z","duration":"PT54M42S","thumbnail":"https://i.ytimg.com/vi/UMp5dZuYqV8/mqdefault.jpg","viewCount":"2701","playlistId":"PLEkQk5xrP-tkc9DXvSLguqX5-FYp6ASR4","playlistName":"دليل الفالحين لطرق رياض الصالحين","category":"متنوع"},{"id":"u277qhLcb48","title":"15- كيف نفهم الآيات التي يتنافى ظاهرها مع عصمة الأنبياء","publishedAt":"2022-09-25T06:15:04Z","duration":"PT1H5M19S","thumbnail":"https://i.ytimg.com/vi/u277qhLcb48/mqdefault.jpg","viewCount":"2699","playlistId":"PLEkQk5xrP-tmNuYT8JAh6clwa4krsgkNo","playlistName":"شرح كتاب الفُتُوحات اليُسريَّة في عقائد الأُمَّة المُحمَّديَّة","category":"متنوع"},{"id":"Rh_3VCZRwqg","title":"414- الدعاء أَمْ تفويض الأمر إلى الله تعالى - شرح دليل الفالحين","publishedAt":"2023-03-19T05:00:18Z","duration":"PT31M6S","thumbnail":"https://i.ytimg.com/vi/Rh_3VCZRwqg/mqdefault.jpg","viewCount":"2696","playlistId":"PLEkQk5xrP-tkc9DXvSLguqX5-FYp6ASR4","playlistName":"دليل الفالحين لطرق رياض الصالحين","category":"متنوع"},{"id":"37Zui8ESMjs","title":"520- جَعَلَ - خَلَقَ: ما الفرق بينهما؟ - شرح البرهان في علوم القرآن","publishedAt":"2022-06-01T17:00:02Z","duration":"PT29M16S","thumbnail":"https://i.ytimg.com/vi/37Zui8ESMjs/mqdefault.jpg","viewCount":"2694","playlistId":"PLEkQk5xrP-tnW3iBL7HkKziOFCFZbTlf0","playlistName":"شرح البرهان في علوم القرآن - أ.د. يسري جبر","category":"تفسير"},{"id":"sfxD4znWUFM","title":"شرح فتح القريب المجيب  «سنن الوضوء» د. يسري جبر","publishedAt":"2014-09-12T20:26:12Z","duration":"PT1H1M26S","thumbnail":"https://i.ytimg.com/vi/sfxD4znWUFM/mqdefault.jpg","viewCount":"2692","playlistId":"PLEkQk5xrP-tlyOgfNBZTZgoATzVW4mI20","playlistName":"كتاب فتح القريب المجيب (علم الفقه الشافعي)","category":"فقه"},{"id":"_5WkkB8ejWM","title":"كيف تعيش على سنة النبيﷺ في حياتك؟","publishedAt":"2024-11-26T17:00:14Z","duration":"PT15M49S","thumbnail":"https://i.ytimg.com/vi/_5WkkB8ejWM/mqdefault.jpg","viewCount":"2690","playlistId":"PLEkQk5xrP-tmJzNvLntpzW0uPanPzxA0c","playlistName":"لقاءات ومحاضرات","category":"متنوع"},{"id":"zKOYD1TMt8M","title":"10- اللَّهُمَّ صَلِّ وَسَلِّمْ عَلَى سَيِّدِنَا مُحَمَّد النُّورِ الأَبْلَج والبَهَاء الأَبْهَج","publishedAt":"2022-07-21T05:30:09Z","duration":"PT31M48S","thumbnail":"https://i.ytimg.com/vi/zKOYD1TMt8M/mqdefault.jpg","viewCount":"2688","playlistId":"PLEkQk5xrP-tkFEtMu56Xb9U9FCZBTXiLf","playlistName":"شرح صلوات الأولياء على خاتم الأنبياء ﷺ","category":"صلوات"},{"id":"ybQgycYhdA4","title":"السَّلامَةُ مِنَ الدُنْيَا بِتَرْكِهَا لا بِأَخْذِهَا    د. يسرى جبر","publishedAt":"2015-07-21T09:57:40Z","duration":"PT15M8S","thumbnail":"https://i.ytimg.com/vi/ybQgycYhdA4/mqdefault.jpg","viewCount":"2684","playlistId":"PLEkQk5xrP-tm8ZIu74nTOZN9KJUJu416J","playlistName":"مقاطع مُهمَّة (يُسريَّات) أ.د. يسري جبر","category":"متنوع"},{"id":"Xo8ex05XQSY","title":"15- كيف نفهم الربا وما هي الأجناس الربوية؟|هل يُعذََب الميت بنياحة غيره عليه؟- شرح مسند الإمام أحمد","publishedAt":"2023-08-12T05:00:31Z","duration":"PT28M43S","thumbnail":"https://i.ytimg.com/vi/Xo8ex05XQSY/mqdefault.jpg","viewCount":"2681","playlistId":"PLEkQk5xrP-tkKprIuGrSdEuBSMsyg5We1","playlistName":"شرح مسند الإمام أحمد بن حنبل","category":"متنوع"},{"id":"5hECAoOzTM0","title":"ازاي أتغلب على نفسي الأمارة بالسوء؟","publishedAt":"2025-08-20T17:00:17Z","duration":"PT8M49S","thumbnail":"https://i.ytimg.com/vi/5hECAoOzTM0/mqdefault.jpg","viewCount":"2680","playlistId":"PLEkQk5xrP-tkGXuZ9atE3k_7it12rUPTs","playlistName":"أسئلة المتابعين","category":"متنوع"},{"id":"7YGgfff8XdA","title":"١٤٥ حديث صدقات أعضاء بدن الإنسان د. يسري جبر","publishedAt":"2018-05-23T01:47:38Z","duration":"PT38M50S","thumbnail":"https://i.ytimg.com/vi/7YGgfff8XdA/mqdefault.jpg","viewCount":"2679","playlistId":"PLEkQk5xrP-tnl7vb7KeAoPd5ZlqKKW8KV","playlistName":"شرح كتاب بهجة النفوس أ.د . يسرى جبر","category":"متنوع"},{"id":"NAakoKdEQ28","title":"كيف تفهم آيات القرآن الكريم؟","publishedAt":"2022-08-03T18:00:19Z","duration":"PT8M27S","thumbnail":"https://i.ytimg.com/vi/NAakoKdEQ28/mqdefault.jpg","viewCount":"2679","playlistId":"PLEkQk5xrP-tlArtGpeLWaqNM7h7IDeAVC","playlistName":"خطب الجمعة أ.د. يسري جبر","category":"خطب"},{"id":"hXPeVcAuL_4","title":"104- \"يجمع اللهُ - تبارك وتعالى - الناسَ فيقوم المؤمنون حتى تُزْلَفَ لهم الجنَّة…\" شرح دليل الفالحين","publishedAt":"2021-07-28T05:23:58Z","duration":"PT1H2M35S","thumbnail":"https://i.ytimg.com/vi/hXPeVcAuL_4/mqdefault.jpg","viewCount":"2678","playlistId":"PLEkQk5xrP-tkc9DXvSLguqX5-FYp6ASR4","playlistName":"دليل الفالحين لطرق رياض الصالحين","category":"متنوع"},{"id":"BiuKZcjVeiQ","title":"200- كُنْ في الدُّنيا كَأنَّكَ غَريبٌ أو عَابِر سَبيلٍ - شرح دليل الفالحين","publishedAt":"2022-02-12T19:32:23Z","duration":"PT32M40S","thumbnail":"https://i.ytimg.com/vi/BiuKZcjVeiQ/mqdefault.jpg","viewCount":"2672","playlistId":"PLEkQk5xrP-tkc9DXvSLguqX5-FYp6ASR4","playlistName":"دليل الفالحين لطرق رياض الصالحين","category":"متنوع"},{"id":"bJQB0E9qa0E","title":"4- أسماءُ النَّبيّ ﷺ | كَثْرَةُ الأسماء تدُلُّ على شرف المُسمَّى ﷺ","publishedAt":"2022-07-14T04:00:26Z","duration":"PT13M44S","thumbnail":"https://i.ytimg.com/vi/bJQB0E9qa0E/mqdefault.jpg","viewCount":"2671","playlistId":"PLEkQk5xrP-tkFEtMu56Xb9U9FCZBTXiLf","playlistName":"شرح صلوات الأولياء على خاتم الأنبياء ﷺ","category":"صلوات"},{"id":"FGzmm9lPeR0","title":"إطعام الطعام مفتاح لدخول الجنة! | مجالس رمضانية","publishedAt":"2025-03-17T15:30:04Z","duration":"PT45M8S","thumbnail":"https://i.ytimg.com/vi/FGzmm9lPeR0/mqdefault.jpg","viewCount":"2671","playlistId":"PLEkQk5xrP-tkeI_WVPfuoTJO46aVkpaz0","playlistName":"شرح كتاب ميزان الاعتدال لحفظ الدين والأحوال","category":"متنوع"},{"id":"lxu2HdPW40s","title":"كيف نتعامل مع الأزمات    د. يسري جبر","publishedAt":"2016-11-12T13:04:10Z","duration":"PT44M36S","thumbnail":"https://i.ytimg.com/vi/lxu2HdPW40s/mqdefault.jpg","viewCount":"2669","playlistId":"PLEkQk5xrP-tlArtGpeLWaqNM7h7IDeAVC","playlistName":"خطب الجمعة أ.د. يسري جبر","category":"خطب"},{"id":"6Ax1lvtKSLM","title":"166- استحباب مجالسة الصالحين ومجانبة قرناء السوء","publishedAt":"2020-11-16T07:24:07Z","duration":"PT17M9S","thumbnail":"https://i.ytimg.com/vi/6Ax1lvtKSLM/mqdefault.jpg","viewCount":"2665","playlistId":"PLEkQk5xrP-tmKNjtYLfhATC37QdIsTMe0","playlistName":"شرح كتاب اللؤلؤ والمرجان فيما اتفق عليه الشيخان إماما المحدثين البخاري ومسلم. أ.د. يسري جبر","category":"حديث"},{"id":"_4xaxI7hqb8","title":"الجمال والجلال في حياة النبي ﷺ","publishedAt":"2023-02-10T18:00:16Z","duration":"PT8M2S","thumbnail":"https://i.ytimg.com/vi/_4xaxI7hqb8/mqdefault.jpg","viewCount":"2664","playlistId":"PLEkQk5xrP-tlArtGpeLWaqNM7h7IDeAVC","playlistName":"خطب الجمعة أ.د. يسري جبر","category":"خطب"},{"id":"bHNraVVvB_8","title":"4- معرفة ما نزل من القرآن بمكّة - شرح الإتقان في علوم القرآن","publishedAt":"2023-01-09T05:00:23Z","duration":"PT22M1S","thumbnail":"https://i.ytimg.com/vi/bHNraVVvB_8/mqdefault.jpg","viewCount":"2658","playlistId":"PLEkQk5xrP-tlPw10KGJKagu7zm4Ry2Tge","playlistName":"شرح الإتقان في علوم القرآن","category":"تفسير"},{"id":"iTTpAn-yNWI","title":"18- عقيدةُ العارفينَ بالله - قول المصنف: وعرفوا ما هو حقّ القِدَم","publishedAt":"2022-10-27T09:00:31Z","duration":"PT54M36S","thumbnail":"https://i.ytimg.com/vi/iTTpAn-yNWI/mqdefault.jpg","viewCount":"2653","playlistId":"PLEkQk5xrP-tmNuYT8JAh6clwa4krsgkNo","playlistName":"شرح كتاب الفُتُوحات اليُسريَّة في عقائد الأُمَّة المُحمَّديَّة","category":"متنوع"},{"id":"GaCtERIPIxM","title":"5- تكملة مقدمة كتاب رياض الصالحين وتعليق الشارح عليها - شرح دليل الفالحين أ.د. يسري جبر","publishedAt":"2021-01-17T08:33:35Z","duration":"PT38M","thumbnail":"https://i.ytimg.com/vi/GaCtERIPIxM/mqdefault.jpg","viewCount":"2653","playlistId":"PLEkQk5xrP-tkc9DXvSLguqX5-FYp6ASR4","playlistName":"دليل الفالحين لطرق رياض الصالحين","category":"متنوع"},{"id":"EbVsoJv5eaw","title":"26- معاني الأسماء والصفات | ختام شرح كتاب الفُتُوحات اليُسريَّة في عقائد الأُمَّة المُحمَّديَّة","publishedAt":"2023-02-05T05:00:05Z","duration":"PT48M31S","thumbnail":"https://i.ytimg.com/vi/EbVsoJv5eaw/mqdefault.jpg","viewCount":"2652","playlistId":"PLEkQk5xrP-tmNuYT8JAh6clwa4krsgkNo","playlistName":"شرح كتاب الفُتُوحات اليُسريَّة في عقائد الأُمَّة المُحمَّديَّة","category":"متنوع"}],"total":7670,"page":91,"pageSize":24,"totalPages":320}