{"items":[{"id":"vrvplf6AoDI","title":"شرح سنن الدارمي كتاب المناسك من باب ٢٧","publishedAt":"2019-07-04T20:46:06Z","duration":"PT25M","thumbnail":"https://i.ytimg.com/vi/vrvplf6AoDI/mqdefault.jpg","viewCount":"350","playlistId":"PLEkQk5xrP-tmAg-FuWjY057X_h5NmGmAa","playlistName":"شرح سنن الدارمي - أ.د. يسري جبر (كاملا)","category":"متنوع"},{"id":"5qkLlf_sL_s","title":"مقرأة سورة لقمان من آية ٢٥","publishedAt":"2018-07-05T10:25:10Z","duration":"PT19M31S","thumbnail":"https://i.ytimg.com/vi/5qkLlf_sL_s/mqdefault.jpg","viewCount":"350","playlistId":"PLEkQk5xrP-tnmTYsyW6xNdyfhPq0Bhrhj","playlistName":"مقرأة الفجر - القُرْآنُ الكَرِيمُ - خَتْمَةُ التَّدَبُّرِ  أ.د. يسري جبر","category":"متنوع"},{"id":"twPrE5RKKd8","title":"568- حروف المعاني(29): الحرف(27) (ثُمَّ) - شرح البرهان في علوم القرآن","publishedAt":"2022-10-12T21:00:23Z","duration":"PT17M58S","thumbnail":"https://i.ytimg.com/vi/twPrE5RKKd8/mqdefault.jpg","viewCount":"350","playlistId":"PLEkQk5xrP-tnW3iBL7HkKziOFCFZbTlf0","playlistName":"شرح البرهان في علوم القرآن - أ.د. يسري جبر","category":"تفسير"},{"id":"DdeN58uCwc8","title":"مقرأة سورة الأحقاف من آية ١٥","publishedAt":"2019-01-06T11:41:43Z","duration":"PT25M5S","thumbnail":"https://i.ytimg.com/vi/DdeN58uCwc8/mqdefault.jpg","viewCount":"350","playlistId":"PLEkQk5xrP-tnmTYsyW6xNdyfhPq0Bhrhj","playlistName":"مقرأة الفجر - القُرْآنُ الكَرِيمُ - خَتْمَةُ التَّدَبُّرِ  أ.د. يسري جبر","category":"متنوع"},{"id":"kBxRHueJ4pI","title":"586- حروف المعاني(47): الحرف (51)(كلَّا) - شرح البرهان في علوم القرآن","publishedAt":"2022-11-03T05:00:16Z","duration":"PT10M51S","thumbnail":"https://i.ytimg.com/vi/kBxRHueJ4pI/mqdefault.jpg","viewCount":"350","playlistId":"PLEkQk5xrP-tnW3iBL7HkKziOFCFZbTlf0","playlistName":"شرح البرهان في علوم القرآن - أ.د. يسري جبر","category":"تفسير"},{"id":"Da2b1UHv_n4","title":"شرح سنن الدارمي كتاب الطهارة من باب ٨٥","publishedAt":"2019-04-13T03:56:40Z","duration":"PT33M36S","thumbnail":"https://i.ytimg.com/vi/Da2b1UHv_n4/mqdefault.jpg","viewCount":"350","playlistId":"PLEkQk5xrP-tmAg-FuWjY057X_h5NmGmAa","playlistName":"شرح سنن الدارمي - أ.د. يسري جبر (كاملا)","category":"متنوع"},{"id":"N00xK6bRlA8","title":"مقرأة سورة الأحقاف من آية ١٧","publishedAt":"2019-01-07T09:29:15Z","duration":"PT15M59S","thumbnail":"https://i.ytimg.com/vi/N00xK6bRlA8/mqdefault.jpg","viewCount":"350","playlistId":"PLEkQk5xrP-tnmTYsyW6xNdyfhPq0Bhrhj","playlistName":"مقرأة الفجر - القُرْآنُ الكَرِيمُ - خَتْمَةُ التَّدَبُّرِ  أ.د. يسري جبر","category":"متنوع"},{"id":"KwG5ytvOL2U","title":"سورة المائدة آية 109","publishedAt":"2016-11-25T06:31:10Z","duration":"PT17M10S","thumbnail":"https://i.ytimg.com/vi/KwG5ytvOL2U/mqdefault.jpg","viewCount":"350","playlistId":"PLEkQk5xrP-tnmTYsyW6xNdyfhPq0Bhrhj","playlistName":"مقرأة الفجر - القُرْآنُ الكَرِيمُ - خَتْمَةُ التَّدَبُّرِ  أ.د. يسري جبر","category":"متنوع"},{"id":"UnmB4kSv71M","title":"شرح سنن الدارمي كتاب الصلاة من باب ٤٥","publishedAt":"2019-05-04T12:28:15Z","duration":"PT35M59S","thumbnail":"https://i.ytimg.com/vi/UnmB4kSv71M/mqdefault.jpg","viewCount":"349","playlistId":"PLEkQk5xrP-tmAg-FuWjY057X_h5NmGmAa","playlistName":"شرح سنن الدارمي - أ.د. يسري جبر (كاملا)","category":"متنوع"},{"id":"QoNAJDNv6Xc","title":"شرح البرهان في علوم القرآن - النوع ٢٥ - علم مرسوم الخط (فصل في بعض حروف الإدغام)","publishedAt":"2020-01-23T11:43:01Z","duration":"PT23M11S","thumbnail":"https://i.ytimg.com/vi/QoNAJDNv6Xc/mqdefault.jpg","viewCount":"349","playlistId":"PLEkQk5xrP-tnW3iBL7HkKziOFCFZbTlf0","playlistName":"شرح البرهان في علوم القرآن - أ.د. يسري جبر","category":"تفسير"},{"id":"aPJZYDmnrqw","title":"سورة هود آية 12","publishedAt":"2017-06-01T21:30:18Z","duration":"PT12M12S","thumbnail":"https://i.ytimg.com/vi/aPJZYDmnrqw/mqdefault.jpg","viewCount":"349","playlistId":"PLEkQk5xrP-tnmTYsyW6xNdyfhPq0Bhrhj","playlistName":"مقرأة الفجر - القُرْآنُ الكَرِيمُ - خَتْمَةُ التَّدَبُّرِ  أ.د. يسري جبر","category":"متنوع"},{"id":"m-KCFnCASNg","title":"مقرأة سورة التوبة من آية ٣٩","publishedAt":"2017-04-16T21:39:35Z","duration":"PT19M55S","thumbnail":"https://i.ytimg.com/vi/m-KCFnCASNg/mqdefault.jpg","viewCount":"349","playlistId":"PLEkQk5xrP-tnmTYsyW6xNdyfhPq0Bhrhj","playlistName":"مقرأة الفجر - القُرْآنُ الكَرِيمُ - خَتْمَةُ التَّدَبُّرِ  أ.د. يسري جبر","category":"متنوع"},{"id":"rToSXp9DG9c","title":"مقرأة سورة التوبة من آية ٣٦","publishedAt":"2017-04-16T12:42:55Z","duration":"PT23M37S","thumbnail":"https://i.ytimg.com/vi/rToSXp9DG9c/mqdefault.jpg","viewCount":"349","playlistId":"PLEkQk5xrP-tnmTYsyW6xNdyfhPq0Bhrhj","playlistName":"مقرأة الفجر - القُرْآنُ الكَرِيمُ - خَتْمَةُ التَّدَبُّرِ  أ.د. يسري جبر","category":"متنوع"},{"id":"mSaEHCPDt18","title":"مقرأة سورة النور من آية ٤٧","publishedAt":"2018-03-22T04:07:43Z","duration":"PT20M27S","thumbnail":"https://i.ytimg.com/vi/mSaEHCPDt18/mqdefault.jpg","viewCount":"348","playlistId":"PLEkQk5xrP-tnmTYsyW6xNdyfhPq0Bhrhj","playlistName":"مقرأة الفجر - القُرْآنُ الكَرِيمُ - خَتْمَةُ التَّدَبُّرِ  أ.د. يسري جبر","category":"متنوع"},{"id":"oCI00d5ho1g","title":"شرح سنن الدارمي كتاب الطهارة من باب ١٠٩","publishedAt":"2019-04-21T09:53:44Z","duration":"PT30M17S","thumbnail":"https://i.ytimg.com/vi/oCI00d5ho1g/mqdefault.jpg","viewCount":"348","playlistId":"PLEkQk5xrP-tmAg-FuWjY057X_h5NmGmAa","playlistName":"شرح سنن الدارمي - أ.د. يسري جبر (كاملا)","category":"متنوع"},{"id":"5F7Lb1oVpXs","title":"( 98 ) حَدِيثُ جَوازِ الرُقَى وَالأَجْرِ عَلَيهَا  - المجلس الأول","publishedAt":"2015-10-12T18:24:51Z","duration":"PT28M48S","thumbnail":"https://i.ytimg.com/vi/5F7Lb1oVpXs/mqdefault.jpg","viewCount":"348","playlistId":"PLEkQk5xrP-tnl7vb7KeAoPd5ZlqKKW8KV","playlistName":"شرح كتاب بهجة النفوس أ.د . يسرى جبر","category":"متنوع"},{"id":"-4jQR2BXCoA","title":"شرح البرهان في علوم القرآن - النوع ٣٣ - في معرفة جدله","publishedAt":"2020-02-24T06:00:00Z","duration":"PT29M48S","thumbnail":"https://i.ytimg.com/vi/-4jQR2BXCoA/mqdefault.jpg","viewCount":"348","playlistId":"PLEkQk5xrP-tnW3iBL7HkKziOFCFZbTlf0","playlistName":"شرح البرهان في علوم القرآن - أ.د. يسري جبر","category":"تفسير"},{"id":"ctQeeLxiqa8","title":"شرح سنن الدارمي كتاب الصوم من باب ٣٣","publishedAt":"2019-06-18T01:42:44Z","duration":"PT21M57S","thumbnail":"https://i.ytimg.com/vi/ctQeeLxiqa8/mqdefault.jpg","viewCount":"348","playlistId":"PLEkQk5xrP-tmAg-FuWjY057X_h5NmGmAa","playlistName":"شرح سنن الدارمي - أ.د. يسري جبر (كاملا)","category":"متنوع"},{"id":"og3sZwIvz8I","title":"مقرأة سورة الشعراء من آية ١٧٦","publishedAt":"2018-04-20T15:03:53Z","duration":"PT18M41S","thumbnail":"https://i.ytimg.com/vi/og3sZwIvz8I/mqdefault.jpg","viewCount":"348","playlistId":"PLEkQk5xrP-tnmTYsyW6xNdyfhPq0Bhrhj","playlistName":"مقرأة الفجر - القُرْآنُ الكَرِيمُ - خَتْمَةُ التَّدَبُّرِ  أ.د. يسري جبر","category":"متنوع"},{"id":"TZeYWHNQZmk","title":"سورة النساء آية 123","publishedAt":"2016-09-27T20:45:09Z","duration":"PT16M48S","thumbnail":"https://i.ytimg.com/vi/TZeYWHNQZmk/mqdefault.jpg","viewCount":"348","playlistId":"PLEkQk5xrP-tnmTYsyW6xNdyfhPq0Bhrhj","playlistName":"مقرأة الفجر - القُرْآنُ الكَرِيمُ - خَتْمَةُ التَّدَبُّرِ  أ.د. يسري جبر","category":"متنوع"},{"id":"GHPe2K_UPi0","title":"مقرأة سورة الإسراء من آية ٧٦","publishedAt":"2017-10-04T13:40:17Z","duration":"PT19M16S","thumbnail":"https://i.ytimg.com/vi/GHPe2K_UPi0/mqdefault.jpg","viewCount":"348","playlistId":"PLEkQk5xrP-tnmTYsyW6xNdyfhPq0Bhrhj","playlistName":"مقرأة الفجر - القُرْآنُ الكَرِيمُ - خَتْمَةُ التَّدَبُّرِ  أ.د. يسري جبر","category":"متنوع"},{"id":"p2Bplg012aw","title":"مقرأة سورة الإسراء من آية ٥٦","publishedAt":"2017-09-28T10:20:03Z","duration":"PT12M27S","thumbnail":"https://i.ytimg.com/vi/p2Bplg012aw/mqdefault.jpg","viewCount":"348","playlistId":"PLEkQk5xrP-tnmTYsyW6xNdyfhPq0Bhrhj","playlistName":"مقرأة الفجر - القُرْآنُ الكَرِيمُ - خَتْمَةُ التَّدَبُّرِ  أ.د. يسري جبر","category":"متنوع"},{"id":"eSfHwUAVjG8","title":"178- متى يصام يوم عرفة وأيام التشريق بلا كراهة؟ - شرح مسند الإمام أحمد رضي الله تعالى عنه","publishedAt":"2025-10-30T04:30:23Z","duration":"PT35M23S","thumbnail":"https://i.ytimg.com/vi/eSfHwUAVjG8/mqdefault.jpg","viewCount":"347","playlistId":"PLEkQk5xrP-tkKprIuGrSdEuBSMsyg5We1","playlistName":"شرح مسند الإمام أحمد بن حنبل","category":"متنوع"},{"id":"E8D0pN_HPmg","title":"مقرأة سورة الأعراف من آية ١٨٠","publishedAt":"2017-03-09T08:07:10Z","duration":"PT21M50S","thumbnail":"https://i.ytimg.com/vi/E8D0pN_HPmg/mqdefault.jpg","viewCount":"347","playlistId":"PLEkQk5xrP-tnmTYsyW6xNdyfhPq0Bhrhj","playlistName":"مقرأة الفجر - القُرْآنُ الكَرِيمُ - خَتْمَةُ التَّدَبُّرِ  أ.د. يسري جبر","category":"متنوع"}],"total":7670,"page":271,"pageSize":24,"totalPages":320}