{"items":[{"id":"OsaaxPP2-LM","title":"البرهان في علوم القرآن - فصل في تقسيم التأويل","publishedAt":"2020-09-01T05:36:23Z","duration":"PT22M57S","thumbnail":"https://i.ytimg.com/vi/OsaaxPP2-LM/mqdefault.jpg","viewCount":"458","playlistId":"PLEkQk5xrP-tnW3iBL7HkKziOFCFZbTlf0","playlistName":"شرح البرهان في علوم القرآن - أ.د. يسري جبر","category":"تفسير"},{"id":"VIqAqDEXbN8","title":"92- غريب القرآن (7)  - شرح الإتقان في علوم القرآن","publishedAt":"2023-06-04T08:59:00Z","duration":"PT20M44S","thumbnail":"https://i.ytimg.com/vi/VIqAqDEXbN8/mqdefault.jpg","viewCount":"458","playlistId":"PLEkQk5xrP-tlPw10KGJKagu7zm4Ry2Tge","playlistName":"شرح الإتقان في علوم القرآن","category":"تفسير"},{"id":"0m1IR4ffrs8","title":"شرح سنن الدارمي كتاب الأطعمة من أوله","publishedAt":"2019-07-24T22:38:27Z","duration":"PT27M22S","thumbnail":"https://i.ytimg.com/vi/0m1IR4ffrs8/mqdefault.jpg","viewCount":"458","playlistId":"PLEkQk5xrP-tmAg-FuWjY057X_h5NmGmAa","playlistName":"شرح سنن الدارمي - أ.د. يسري جبر (كاملا)","category":"متنوع"},{"id":"fNQ8kGbcf5o","title":"شرح صحيح البخاري كتاب الاستئذان من باب ٤٠","publishedAt":"2018-09-29T11:27:54Z","duration":"PT32M40S","thumbnail":"https://i.ytimg.com/vi/fNQ8kGbcf5o/mqdefault.jpg","viewCount":"458","playlistId":"PLEkQk5xrP-tlEerGoLa1AFy-2XvQ-sovv","playlistName":"شرح صحيح البخاري - أ.د. يسري جبر (كاملا)","category":"حديث"},{"id":"dUuBo8qAnPY","title":"مقرأة سورة الرعد من آية ٨","publishedAt":"2017-07-18T08:58:01Z","duration":"PT15M20S","thumbnail":"https://i.ytimg.com/vi/dUuBo8qAnPY/mqdefault.jpg","viewCount":"458","playlistId":"PLEkQk5xrP-tnmTYsyW6xNdyfhPq0Bhrhj","playlistName":"مقرأة الفجر - القُرْآنُ الكَرِيمُ - خَتْمَةُ التَّدَبُّرِ  أ.د. يسري جبر","category":"متنوع"},{"id":"c2C4MXxuoEY","title":"313- مفردات القرآن - شرح الإتقان في علوم القرآن","publishedAt":"2025-11-08T05:30:20Z","duration":"PT31M24S","thumbnail":"https://i.ytimg.com/vi/c2C4MXxuoEY/mqdefault.jpg","viewCount":"458","playlistId":"PLEkQk5xrP-tlPw10KGJKagu7zm4Ry2Tge","playlistName":"شرح الإتقان في علوم القرآن","category":"تفسير"},{"id":"1x51-9Ztn80","title":"494- قاعدة فيما يتعلق بالسؤال والجواب(3) - شرح البرهان في علوم القرآن","publishedAt":"2022-04-16T05:00:01Z","duration":"PT28M52S","thumbnail":"https://i.ytimg.com/vi/1x51-9Ztn80/mqdefault.jpg","viewCount":"457","playlistId":"PLEkQk5xrP-tnW3iBL7HkKziOFCFZbTlf0","playlistName":"شرح البرهان في علوم القرآن - أ.د. يسري جبر","category":"تفسير"},{"id":"lHEtIZ4RcMk","title":"45- شرح اللؤلؤ والمرجان كتاب صلاة العيدين من أوله","publishedAt":"2020-01-23T11:43:00Z","duration":"PT26M54S","thumbnail":"https://i.ytimg.com/vi/lHEtIZ4RcMk/mqdefault.jpg","viewCount":"457","playlistId":"PLEkQk5xrP-tmKNjtYLfhATC37QdIsTMe0","playlistName":"شرح كتاب اللؤلؤ والمرجان فيما اتفق عليه الشيخان إماما المحدثين البخاري ومسلم. أ.د. يسري جبر","category":"حديث"},{"id":"b_a-aj6veCI","title":"شرح صحيح البخاري كتاب الدعوات من باب ٣٣","publishedAt":"2018-10-08T21:45:35Z","duration":"PT20M25S","thumbnail":"https://i.ytimg.com/vi/b_a-aj6veCI/mqdefault.jpg","viewCount":"457","playlistId":"PLEkQk5xrP-tlEerGoLa1AFy-2XvQ-sovv","playlistName":"شرح صحيح البخاري - أ.د. يسري جبر (كاملا)","category":"حديث"},{"id":"PxO11QAX508","title":"الاختزال (17) حذف الحال - شرح البرهان في علوم القرآن","publishedAt":"2021-07-18T05:37:51Z","duration":"PT5M1S","thumbnail":"https://i.ytimg.com/vi/PxO11QAX508/mqdefault.jpg","viewCount":"457","playlistId":"PLEkQk5xrP-tnW3iBL7HkKziOFCFZbTlf0","playlistName":"شرح البرهان في علوم القرآن - أ.د. يسري جبر","category":"تفسير"},{"id":"NUMTJJVQtMg","title":"129- حكم صيام يوم عرفة للحاج - شرح مسند الإمام أحمد رضي الله تعالى عنه","publishedAt":"2024-10-20T06:00:12Z","duration":"PT22M27S","thumbnail":"https://i.ytimg.com/vi/NUMTJJVQtMg/mqdefault.jpg","viewCount":"457","playlistId":"PLEkQk5xrP-tkKprIuGrSdEuBSMsyg5We1","playlistName":"شرح مسند الإمام أحمد بن حنبل","category":"متنوع"},{"id":"Iz13ivQDXfw","title":"كيفية تطبيق الإسلام في المراحل الزمنية المختلفة","publishedAt":"2017-09-24T20:06:25Z","duration":"PT36M46S","thumbnail":"https://i.ytimg.com/vi/Iz13ivQDXfw/mqdefault.jpg","viewCount":"457","playlistId":"PLEkQk5xrP-tlArtGpeLWaqNM7h7IDeAVC","playlistName":"خطب الجمعة أ.د. يسري جبر","category":"خطب"},{"id":"xlXNq7POmE8","title":"شرح سنن الدارمي كتاب الصلاة من باب ٢٢","publishedAt":"2019-04-29T13:32:36Z","duration":"PT33M9S","thumbnail":"https://i.ytimg.com/vi/xlXNq7POmE8/mqdefault.jpg","viewCount":"457","playlistId":"PLEkQk5xrP-tmAg-FuWjY057X_h5NmGmAa","playlistName":"شرح سنن الدارمي - أ.د. يسري جبر (كاملا)","category":"متنوع"},{"id":"bziuT30O9Bk","title":"شرح صحيح البخاري كتاب الديات من باب ٣","publishedAt":"2018-12-04T20:28:14Z","duration":"PT35M4S","thumbnail":"https://i.ytimg.com/vi/bziuT30O9Bk/mqdefault.jpg","viewCount":"456","playlistId":"PLEkQk5xrP-tlEerGoLa1AFy-2XvQ-sovv","playlistName":"شرح صحيح البخاري - أ.د. يسري جبر (كاملا)","category":"حديث"},{"id":"nmAl0cu3k30","title":"مقرأة سورة إبراهيم من آية ٥","publishedAt":"2017-07-27T13:55:39Z","duration":"PT29M49S","thumbnail":"https://i.ytimg.com/vi/nmAl0cu3k30/mqdefault.jpg","viewCount":"456","playlistId":"PLEkQk5xrP-tnmTYsyW6xNdyfhPq0Bhrhj","playlistName":"مقرأة الفجر - القُرْآنُ الكَرِيمُ - خَتْمَةُ التَّدَبُّرِ  أ.د. يسري جبر","category":"متنوع"},{"id":"W_ylaKKfWOg","title":"سورة الأنعام آية 25","publishedAt":"2016-12-02T08:30:01Z","duration":"PT14M58S","thumbnail":"https://i.ytimg.com/vi/W_ylaKKfWOg/mqdefault.jpg","viewCount":"456","playlistId":"PLEkQk5xrP-tnmTYsyW6xNdyfhPq0Bhrhj","playlistName":"مقرأة الفجر - القُرْآنُ الكَرِيمُ - خَتْمَةُ التَّدَبُّرِ  أ.د. يسري جبر","category":"متنوع"},{"id":"dz8ZvlBKKlU","title":"مقرأة سورة آل عمران من آية ١٤٩","publishedAt":"2019-09-28T11:24:21Z","duration":"PT16M10S","thumbnail":"https://i.ytimg.com/vi/dz8ZvlBKKlU/mqdefault.jpg","viewCount":"456","playlistId":"PLEkQk5xrP-tnmTYsyW6xNdyfhPq0Bhrhj","playlistName":"مقرأة الفجر - القُرْآنُ الكَرِيمُ - خَتْمَةُ التَّدَبُّرِ  أ.د. يسري جبر","category":"متنوع"},{"id":"DO__WaJSibs","title":"سورة الأنعام  آية 44","publishedAt":"2016-12-06T06:42:05Z","duration":"PT8M51S","thumbnail":"https://i.ytimg.com/vi/DO__WaJSibs/mqdefault.jpg","viewCount":"456","playlistId":"PLEkQk5xrP-tnmTYsyW6xNdyfhPq0Bhrhj","playlistName":"مقرأة الفجر - القُرْآنُ الكَرِيمُ - خَتْمَةُ التَّدَبُّرِ  أ.د. يسري جبر","category":"متنوع"},{"id":"HDhWzfv-hTQ","title":"شرح صحيح البخاري كتاب اللباس من باب 38","publishedAt":"2018-08-18T18:04:07Z","duration":"PT36M32S","thumbnail":"https://i.ytimg.com/vi/HDhWzfv-hTQ/mqdefault.jpg","viewCount":"456","playlistId":"PLEkQk5xrP-tlEerGoLa1AFy-2XvQ-sovv","playlistName":"شرح صحيح البخاري - أ.د. يسري جبر (كاملا)","category":"حديث"},{"id":"K8BQB2_b6bY","title":"القِسمُ (23) من التوكيد: الاحتراس - شرح البرهان في علوم القرآن","publishedAt":"2021-05-20T07:34:03Z","duration":"PT30M18S","thumbnail":"https://i.ytimg.com/vi/K8BQB2_b6bY/mqdefault.jpg","viewCount":"456","playlistId":"PLEkQk5xrP-tnW3iBL7HkKziOFCFZbTlf0","playlistName":"شرح البرهان في علوم القرآن - أ.د. يسري جبر","category":"تفسير"},{"id":"FBENCXar6Vg","title":"شرح صحيح البخاري كتاب الرقاق من باب ٣","publishedAt":"2018-10-18T12:44:20Z","duration":"PT22M48S","thumbnail":"https://i.ytimg.com/vi/FBENCXar6Vg/mqdefault.jpg","viewCount":"456","playlistId":"PLEkQk5xrP-tlEerGoLa1AFy-2XvQ-sovv","playlistName":"شرح صحيح البخاري - أ.د. يسري جبر (كاملا)","category":"حديث"},{"id":"IkVszKGW9As","title":"مقرأة سورة الحجرات من آية ٣","publishedAt":"2019-01-25T21:36:41Z","duration":"PT16M40S","thumbnail":"https://i.ytimg.com/vi/IkVszKGW9As/mqdefault.jpg","viewCount":"456","playlistId":"PLEkQk5xrP-tnmTYsyW6xNdyfhPq0Bhrhj","playlistName":"مقرأة الفجر - القُرْآنُ الكَرِيمُ - خَتْمَةُ التَّدَبُّرِ  أ.د. يسري جبر","category":"متنوع"},{"id":"JZ4mSh35dbc","title":"سورة الأعراف آية 127","publishedAt":"2017-02-24T15:10:31Z","duration":"PT13M34S","thumbnail":"https://i.ytimg.com/vi/JZ4mSh35dbc/mqdefault.jpg","viewCount":"456","playlistId":"PLEkQk5xrP-tnmTYsyW6xNdyfhPq0Bhrhj","playlistName":"مقرأة الفجر - القُرْآنُ الكَرِيمُ - خَتْمَةُ التَّدَبُّرِ  أ.د. يسري جبر","category":"متنوع"},{"id":"TIICbexo2Z4","title":"مقرأة سورة النور من آية ١١","publishedAt":"2018-03-11T11:36:42Z","duration":"PT21M17S","thumbnail":"https://i.ytimg.com/vi/TIICbexo2Z4/mqdefault.jpg","viewCount":"455","playlistId":"PLEkQk5xrP-tnmTYsyW6xNdyfhPq0Bhrhj","playlistName":"مقرأة الفجر - القُرْآنُ الكَرِيمُ - خَتْمَةُ التَّدَبُّرِ  أ.د. يسري جبر","category":"متنوع"}],"total":7670,"page":237,"pageSize":24,"totalPages":320}