{"items":[{"id":"Ha0wyTTI0GA","title":"32- هل الضحك داخل الصلاة يبطلها وينقض الوضوء؟ | شرح سنن الإمام الدار قطني رضي الله عنه","publishedAt":"2024-03-02T09:00:11Z","duration":"PT40M1S","thumbnail":"https://i.ytimg.com/vi/Ha0wyTTI0GA/mqdefault.jpg","viewCount":"1406","playlistId":"PLEkQk5xrP-tk_MCBZ706ORCw6gFtFyaGj","playlistName":"شرح سنن الإمام الدارقطني","category":"متنوع"},{"id":"ZdHivtwyvDw","title":"212- شِدَّةُ المُعَانَاةِ مِن الجُوعِ - شرح دليل الفالحين","publishedAt":"2022-03-03T06:47:40Z","duration":"PT30M46S","thumbnail":"https://i.ytimg.com/vi/ZdHivtwyvDw/mqdefault.jpg","viewCount":"1406","playlistId":"PLEkQk5xrP-tkc9DXvSLguqX5-FYp6ASR4","playlistName":"دليل الفالحين لطرق رياض الصالحين","category":"متنوع"},{"id":"LnaLUJ33M_w","title":"83- \"آخى النَّبيُّ ﷺ بين سلمان وأبي الدَّرداء، فزار سلمانُ أبا الدَّرداء…،\" - شرح دليل الفالحين","publishedAt":"2021-06-25T07:51:01Z","duration":"PT52M8S","thumbnail":"https://i.ytimg.com/vi/LnaLUJ33M_w/mqdefault.jpg","viewCount":"1406","playlistId":"PLEkQk5xrP-tkc9DXvSLguqX5-FYp6ASR4","playlistName":"دليل الفالحين لطرق رياض الصالحين","category":"متنوع"},{"id":"QFn-nQinP1w","title":"47-“إنَّ الصِّدقَ يَهدي إلى البِرِّ ...”الحديث (١) باب الصِّدق - شرح دليل الفالحين","publishedAt":"2021-04-20T06:00:04Z","duration":"PT35M3S","thumbnail":"https://i.ytimg.com/vi/QFn-nQinP1w/mqdefault.jpg","viewCount":"1405","playlistId":"PLEkQk5xrP-tkc9DXvSLguqX5-FYp6ASR4","playlistName":"دليل الفالحين لطرق رياض الصالحين","category":"متنوع"},{"id":"TUZhG9G8E50","title":"50- المدينة خيرٌ لهم لو كانوا يعلمون - شرح مسند الإمام أحمد","publishedAt":"2023-12-11T06:30:12Z","duration":"PT28M12S","thumbnail":"https://i.ytimg.com/vi/TUZhG9G8E50/mqdefault.jpg","viewCount":"1404","playlistId":"PLEkQk5xrP-tkKprIuGrSdEuBSMsyg5We1","playlistName":"شرح مسند الإمام أحمد بن حنبل","category":"متنوع"},{"id":"7tecGV1bOGs","title":"4- صلوات اليوم الرابع - صلوات الأسماء الحسنى، شرح الصلوات اليسرية على خير البرية ﷺ","publishedAt":"2025-02-28T07:00:07Z","duration":"PT16M50S","thumbnail":"https://i.ytimg.com/vi/7tecGV1bOGs/mqdefault.jpg","viewCount":"1404","playlistId":"PLEkQk5xrP-tk92TNE3xhWCFNr9VshA9Zj","playlistName":"الصلوات اليسرية على خير البرية ﷺ","category":"صلوات"},{"id":"p_kbpa3ajl0","title":"سورة البقرة آية 92","publishedAt":"2016-04-26T02:56:07Z","duration":"PT21M58S","thumbnail":"https://i.ytimg.com/vi/p_kbpa3ajl0/mqdefault.jpg","viewCount":"1404","playlistId":"PLEkQk5xrP-tnmTYsyW6xNdyfhPq0Bhrhj","playlistName":"مقرأة الفجر - القُرْآنُ الكَرِيمُ - خَتْمَةُ التَّدَبُّرِ  أ.د. يسري جبر","category":"متنوع"},{"id":"NeF4Kl2nmBM","title":"قراءة القرآن (من آية 111 سورة طه)","publishedAt":"2015-06-12T03:39:38Z","duration":"PT21M11S","thumbnail":"https://i.ytimg.com/vi/NeF4Kl2nmBM/mqdefault.jpg","viewCount":"1402","playlistId":"PLEkQk5xrP-tnUSUj0uyJhA-kwNC7Gkx_j","playlistName":"مقرأة الفجر - بداية من سورة الإسراء حتى سورة الناس","category":"تفسير"},{"id":"ezqYiYnTCkc","title":"مفهوم الأُمِّيَّة في القرآن.  أ.د/ يسري جبر","publishedAt":"2020-01-19T20:48:21Z","duration":"PT6M2S","thumbnail":"https://i.ytimg.com/vi/ezqYiYnTCkc/mqdefault.jpg","viewCount":"1401","playlistId":"PLEkQk5xrP-tm8ZIu74nTOZN9KJUJu416J","playlistName":"مقاطع مُهمَّة (يُسريَّات) أ.د. يسري جبر","category":"متنوع"},{"id":"bVCWEzbgQbA","title":"شرح كتاب منازل السائرين للإمام الهروى - المجلس الثالث والثلاثون - قسم الأُصول باب القصد وباب العزم","publishedAt":"2015-01-05T04:19:03Z","duration":"PT52M25S","thumbnail":"https://i.ytimg.com/vi/bVCWEzbgQbA/mqdefault.jpg","viewCount":"1399","playlistId":"PLEkQk5xrP-tnLYi_5_tSRVBwqcs7ISV7Y","playlistName":"شرح كتاب منازل السائرين للإمام الهروي","category":"متنوع"},{"id":"oESN6aKpwZQ","title":"أنار الظواهر بأنوار آثاره ، وأنار السرائر بأنوار أوصافه","publishedAt":"2016-11-25T18:13:54Z","duration":"PT19M1S","thumbnail":"https://i.ytimg.com/vi/oESN6aKpwZQ/mqdefault.jpg","viewCount":"1399","playlistId":"PLEkQk5xrP-tkI_meE148wc7V7XHlB0WPb","playlistName":"من الحكم العطائية  د. يسري جبر","category":"متنوع"},{"id":"ZlYNRMYY_4E","title":"كلمة أ.د.يسري جبر في ختام مجالس قراءة صحيح البخاري | ماليزيا","publishedAt":"2024-11-20T16:09:22Z","duration":"PT9M46S","thumbnail":"https://i.ytimg.com/vi/ZlYNRMYY_4E/mqdefault.jpg","viewCount":"1397","playlistId":"PLEkQk5xrP-tmJzNvLntpzW0uPanPzxA0c","playlistName":"لقاءات ومحاضرات","category":"متنوع"},{"id":"ICMxwLgQMEA","title":"شرح البرهان في علوم القرآن - النوع ٧ - في أسرار الفواتح والسور","publishedAt":"2019-09-24T16:37:27Z","duration":"PT17M8S","thumbnail":"https://i.ytimg.com/vi/ICMxwLgQMEA/mqdefault.jpg","viewCount":"1396","playlistId":"PLEkQk5xrP-tnW3iBL7HkKziOFCFZbTlf0","playlistName":"شرح البرهان في علوم القرآن - أ.د. يسري جبر","category":"تفسير"},{"id":"F23yF16lQ0U","title":"8- ما جاء في\"حياء رسول الله ﷺ\" قراءة وشرح كتاب الشمائل المحمَّديَّة للإمام الترمذيّ رضي الله عنه","publishedAt":"2021-03-06T07:52:20Z","duration":"PT53M50S","thumbnail":"https://i.ytimg.com/vi/F23yF16lQ0U/mqdefault.jpg","viewCount":"1395","playlistId":"PLEkQk5xrP-tkCtkJ_fVpP3CmkJhWYYZtt","playlistName":"قراءةُ كتابِ الشَّمَائِلِ المُحَمَّدِيَّة للإِمام التِّرمذيّ رضي الله عن","category":"متنوع"},{"id":"H7vut5DoPT4","title":"144- حال الغني والفقير عند دخول الجنة - شرح مسند الإمام أحمد رضي الله تعالى عنه","publishedAt":"2024-12-13T06:30:09Z","duration":"PT44M10S","thumbnail":"https://i.ytimg.com/vi/H7vut5DoPT4/mqdefault.jpg","viewCount":"1395","playlistId":"PLEkQk5xrP-tkKprIuGrSdEuBSMsyg5We1","playlistName":"شرح مسند الإمام أحمد بن حنبل","category":"متنوع"},{"id":"06mmAz78mDA","title":"حديث (١٦٧) عَقْدُ الشَّيطَانِ عَلَى رَأسِ النَّائِمِ.  أ.د. يسري جبر","publishedAt":"2019-05-20T16:38:49Z","duration":"PT23M42S","thumbnail":"https://i.ytimg.com/vi/06mmAz78mDA/mqdefault.jpg","viewCount":"1393","playlistId":"PLEkQk5xrP-tnl7vb7KeAoPd5ZlqKKW8KV","playlistName":"شرح كتاب بهجة النفوس أ.د . يسرى جبر","category":"متنوع"},{"id":"E2r81lhWASI","title":"54- حكم التختُّم بالذهب، ولباس القَسِّيِّ والمُعَصْفَرِ، والقراءة في الركوع، والشرب قائمًا","publishedAt":"2023-12-19T07:29:53Z","duration":"PT29M28S","thumbnail":"https://i.ytimg.com/vi/E2r81lhWASI/mqdefault.jpg","viewCount":"1391","playlistId":"PLEkQk5xrP-tkKprIuGrSdEuBSMsyg5We1","playlistName":"شرح مسند الإمام أحمد بن حنبل","category":"متنوع"},{"id":"6X4lDjndrxY","title":"148- معني حرف الكاف - شرح الإتقان في علوم القرآن","publishedAt":"2023-09-14T05:14:17Z","duration":"PT26M6S","thumbnail":"https://i.ytimg.com/vi/6X4lDjndrxY/mqdefault.jpg","viewCount":"1391","playlistId":"PLEkQk5xrP-tlPw10KGJKagu7zm4Ry2Tge","playlistName":"شرح الإتقان في علوم القرآن","category":"تفسير"},{"id":"Qtgi8t-pGXc","title":"بِدَعُ التَفَاسِيرِ - المجلس الثاني عشر.  أ.د. يسري جبر","publishedAt":"2020-03-28T17:09:50Z","duration":"PT23M23S","thumbnail":"https://i.ytimg.com/vi/Qtgi8t-pGXc/mqdefault.jpg","viewCount":"1390","playlistId":"PLEkQk5xrP-tkSGrPLMt1BEmJ54cGWYgtp","playlistName":"كتابُ بِدَعِ التَفَاسِيرِ - أ.د. يسري جبر","category":"متنوع"},{"id":"mFnlrDkileo","title":"ما هي آداب المجلس؟ | مجالس رمضانية","publishedAt":"2023-04-09T15:00:27Z","duration":"PT43M55S","thumbnail":"https://i.ytimg.com/vi/mFnlrDkileo/mqdefault.jpg","viewCount":"1389","playlistId":"PLEkQk5xrP-tnl7vb7KeAoPd5ZlqKKW8KV","playlistName":"شرح كتاب بهجة النفوس أ.د . يسرى جبر","category":"متنوع"},{"id":"45Rc-vqz2zg","title":"شرح صحيح البخاري - كتاب الزكاة من أوله","publishedAt":"2017-02-12T14:27:38Z","duration":"PT30M54S","thumbnail":"https://i.ytimg.com/vi/45Rc-vqz2zg/mqdefault.jpg","viewCount":"1388","playlistId":"PLEkQk5xrP-tlEerGoLa1AFy-2XvQ-sovv","playlistName":"شرح صحيح البخاري - أ.د. يسري جبر (كاملا)","category":"حديث"},{"id":"27H7KTr27ro","title":"8- بيان ما نزل من الآيات المدنية في السور المكية - شرح الإتقان في علوم القرآن","publishedAt":"2023-01-15T05:00:00Z","duration":"PT31M6S","thumbnail":"https://i.ytimg.com/vi/27H7KTr27ro/mqdefault.jpg","viewCount":"1387","playlistId":"PLEkQk5xrP-tlPw10KGJKagu7zm4Ry2Tge","playlistName":"شرح الإتقان في علوم القرآن","category":"تفسير"},{"id":"a0FMWMB15Iw","title":"شرح مسند الإمام محمد بن إدريس الشافعيّ رضي الله تعالى عنه - المجلس الخامس  أ.د. يسري جبر","publishedAt":"2019-12-04T18:40:46Z","duration":"PT48M25S","thumbnail":"https://i.ytimg.com/vi/a0FMWMB15Iw/mqdefault.jpg","viewCount":"1386","playlistId":"PLEkQk5xrP-tlDtaqY0qhNXAiZ19gaGzKI","playlistName":"شرح مسند الإمام محمد بن إدريس الشافعيّ رضي الله تعالى عنه","category":"فقه"},{"id":"W2SKx_D3J3M","title":"عبادة النبي صلى الله عليه وسلم | اعرف نبيك","publishedAt":"2015-08-12T15:22:43Z","duration":"PT6M39S","thumbnail":"https://i.ytimg.com/vi/W2SKx_D3J3M/mqdefault.jpg","viewCount":"1386","playlistId":"PLEkQk5xrP-tl6Mu_Mz3QMUSv5T6XBH-Dg","playlistName":"برنامج اعرف نبيك","category":"متنوع"}],"total":7670,"page":128,"pageSize":24,"totalPages":320}