{"items":[{"id":"nrY4ssB6pj4","title":"29- شرح اللؤلؤ والمرجان كتاب الصلاة من باب ٤٩","publishedAt":"2020-01-14T02:03:49Z","duration":"PT23M16S","thumbnail":"https://i.ytimg.com/vi/nrY4ssB6pj4/mqdefault.jpg","viewCount":"622","playlistId":"PLEkQk5xrP-tmKNjtYLfhATC37QdIsTMe0","playlistName":"شرح كتاب اللؤلؤ والمرجان فيما اتفق عليه الشيخان إماما المحدثين البخاري ومسلم. أ.د. يسري جبر","category":"حديث"},{"id":"H_Tb4BU05_0","title":"167- معنى (الهاء - ها - هات - هل - هلُمَّ - هنا - هيت - هيهات)  - شرح الإتقان في علوم القرآن","publishedAt":"2023-11-02T06:15:00Z","duration":"PT30M17S","thumbnail":"https://i.ytimg.com/vi/H_Tb4BU05_0/mqdefault.jpg","viewCount":"622","playlistId":"PLEkQk5xrP-tlPw10KGJKagu7zm4Ry2Tge","playlistName":"شرح الإتقان في علوم القرآن","category":"تفسير"},{"id":"7YTAsBDAXbs","title":"مقرأة سورة فصلت من أولها","publishedAt":"2018-11-18T17:33:59Z","duration":"PT19M29S","thumbnail":"https://i.ytimg.com/vi/7YTAsBDAXbs/mqdefault.jpg","viewCount":"622","playlistId":"PLEkQk5xrP-tnmTYsyW6xNdyfhPq0Bhrhj","playlistName":"مقرأة الفجر - القُرْآنُ الكَرِيمُ - خَتْمَةُ التَّدَبُّرِ  أ.د. يسري جبر","category":"متنوع"},{"id":"-_J3YKAu2gU","title":"شرح كتاب الشمائل المحمدية للإمام أبى عيسى الترمذى رضى الله عنه - المجلس السابع","publishedAt":"2014-11-10T20:38:03Z","duration":"PT1H29M36S","thumbnail":"https://i.ytimg.com/vi/-_J3YKAu2gU/mqdefault.jpg","viewCount":"621","playlistId":"PLEkQk5xrP-tm74ioQU4BIuXLs8a9babvA","playlistName":"شرح كتاب الشمائل المحمدية للإمام الترمذى","category":"سيرة"},{"id":"9d8FTyzfT_k","title":"شرح صحيح البخاري - كتاب أحاديث الأنبياء من باب ٤٠","publishedAt":"2017-10-15T06:08:30Z","duration":"PT31M44S","thumbnail":"https://i.ytimg.com/vi/9d8FTyzfT_k/mqdefault.jpg","viewCount":"621","playlistId":"PLEkQk5xrP-tlEerGoLa1AFy-2XvQ-sovv","playlistName":"شرح صحيح البخاري - أ.د. يسري جبر (كاملا)","category":"حديث"},{"id":"vhiAVH_Ti6s","title":"شرح صحيح البخاري كتاب اللباس من باب ٣١","publishedAt":"2018-08-16T21:48:38Z","duration":"PT46M35S","thumbnail":"https://i.ytimg.com/vi/vhiAVH_Ti6s/mqdefault.jpg","viewCount":"621","playlistId":"PLEkQk5xrP-tlEerGoLa1AFy-2XvQ-sovv","playlistName":"شرح صحيح البخاري - أ.د. يسري جبر (كاملا)","category":"حديث"},{"id":"KXOuJ6omo0M","title":"19- صَلاَةِ الْمُسَافِرِ مَا لَمْ يُجْمِعْ مُكْثًا ك قصرالصلاة فى السفر ك الموطأ د يسري جبر الأزهري","publishedAt":"2016-06-05T23:21:41Z","duration":"PT40M","thumbnail":"https://i.ytimg.com/vi/KXOuJ6omo0M/mqdefault.jpg","viewCount":"621","playlistId":"PLEkQk5xrP-tnC6BRuqMjyO-484iqXeg0o","playlistName":"شرح كتاب الموطأ للإمام مالك","category":"متنوع"},{"id":"CuSmFlKmEFA","title":"شرح صحيح البخاري - كتاب أحاديث الأنبياء من باب ٢٧","publishedAt":"2017-10-09T14:10:20Z","duration":"PT31M14S","thumbnail":"https://i.ytimg.com/vi/CuSmFlKmEFA/mqdefault.jpg","viewCount":"621","playlistId":"PLEkQk5xrP-tlEerGoLa1AFy-2XvQ-sovv","playlistName":"شرح صحيح البخاري - أ.د. يسري جبر (كاملا)","category":"حديث"},{"id":"mXRpRor9QFI","title":"70- أحكام التلاوة (4): الإدغام والإظهار والإخفاء والإقلاب - شرح الإتقان في علوم القرآن","publishedAt":"2023-05-13T05:00:31Z","duration":"PT25M57S","thumbnail":"https://i.ytimg.com/vi/mXRpRor9QFI/mqdefault.jpg","viewCount":"621","playlistId":"PLEkQk5xrP-tlPw10KGJKagu7zm4Ry2Tge","playlistName":"شرح الإتقان في علوم القرآن","category":"تفسير"},{"id":"TkWfgE7FW7c","title":"64- أحكام الرَّضَاع - شرح مسند الإمام الشافعي رضي الله عنه","publishedAt":"2023-01-10T09:00:13Z","duration":"PT43M1S","thumbnail":"https://i.ytimg.com/vi/TkWfgE7FW7c/mqdefault.jpg","viewCount":"620","playlistId":"PLEkQk5xrP-tlDtaqY0qhNXAiZ19gaGzKI","playlistName":"شرح مسند الإمام محمد بن إدريس الشافعيّ رضي الله تعالى عنه","category":"فقه"},{"id":"VpJQVYgKlPc","title":"308- استحبابُ سؤالِ أهلِ المريضِ عن حاله - شرح دليل الفالحين","publishedAt":"2022-10-12T07:30:03Z","duration":"PT39M40S","thumbnail":"https://i.ytimg.com/vi/VpJQVYgKlPc/mqdefault.jpg","viewCount":"620","playlistId":"PLEkQk5xrP-tkc9DXvSLguqX5-FYp6ASR4","playlistName":"دليل الفالحين لطرق رياض الصالحين","category":"متنوع"},{"id":"OroUt00-bOo","title":"شرح صحيح البخاري كتاب الأضاحي من أوله","publishedAt":"2018-07-23T07:24:45Z","duration":"PT39M29S","thumbnail":"https://i.ytimg.com/vi/OroUt00-bOo/mqdefault.jpg","viewCount":"620","playlistId":"PLEkQk5xrP-tlEerGoLa1AFy-2XvQ-sovv","playlistName":"شرح صحيح البخاري - أ.د. يسري جبر (كاملا)","category":"حديث"},{"id":"26ugz_e0NT8","title":"مقرأة سورة النمل من أولها","publishedAt":"2018-04-25T11:11:27Z","duration":"PT34M18S","thumbnail":"https://i.ytimg.com/vi/26ugz_e0NT8/mqdefault.jpg","viewCount":"620","playlistId":"PLEkQk5xrP-tnmTYsyW6xNdyfhPq0Bhrhj","playlistName":"مقرأة الفجر - القُرْآنُ الكَرِيمُ - خَتْمَةُ التَّدَبُّرِ  أ.د. يسري جبر","category":"متنوع"},{"id":"fyZwx_EWqTc","title":"مباحث في الاستعارة - شرح البرهان في علوم القرآن","publishedAt":"2022-02-12T07:42:56Z","duration":"PT18M59S","thumbnail":"https://i.ytimg.com/vi/fyZwx_EWqTc/mqdefault.jpg","viewCount":"619","playlistId":"PLEkQk5xrP-tnW3iBL7HkKziOFCFZbTlf0","playlistName":"شرح البرهان في علوم القرآن - أ.د. يسري جبر","category":"تفسير"},{"id":"KwT7gBsV69A","title":"مقرأة سورة العاديات من أولها","publishedAt":"2019-08-04T21:27:57Z","duration":"PT10M48S","thumbnail":"https://i.ytimg.com/vi/KwT7gBsV69A/mqdefault.jpg","viewCount":"619","playlistId":"PLEkQk5xrP-tnmTYsyW6xNdyfhPq0Bhrhj","playlistName":"مقرأة الفجر - القُرْآنُ الكَرِيمُ - خَتْمَةُ التَّدَبُّرِ  أ.د. يسري جبر","category":"متنوع"},{"id":"rahWcQkKgIU","title":"شرح صحيح البخاري كتاب الرقاق من باب ١٧","publishedAt":"2018-10-22T20:22:14Z","duration":"PT43M53S","thumbnail":"https://i.ytimg.com/vi/rahWcQkKgIU/mqdefault.jpg","viewCount":"619","playlistId":"PLEkQk5xrP-tlEerGoLa1AFy-2XvQ-sovv","playlistName":"شرح صحيح البخاري - أ.د. يسري جبر (كاملا)","category":"حديث"},{"id":"FrKtxA0b7WA","title":"239- قاعدة في حذف المفعول اختصارا - شرح الإتقان في علوم القرآن","publishedAt":"2024-05-27T08:55:07Z","duration":"PT37M11S","thumbnail":"https://i.ytimg.com/vi/FrKtxA0b7WA/mqdefault.jpg","viewCount":"618","playlistId":"PLEkQk5xrP-tlPw10KGJKagu7zm4Ry2Tge","playlistName":"شرح الإتقان في علوم القرآن","category":"تفسير"},{"id":"eOVptzahNcc","title":"الصفات الذميمة التي يتجنبها المسلم  د . يسرى جبر","publishedAt":"2016-03-05T06:49:18Z","duration":"PT37M14S","thumbnail":"https://i.ytimg.com/vi/eOVptzahNcc/mqdefault.jpg","viewCount":"618","playlistId":"PLEkQk5xrP-tlArtGpeLWaqNM7h7IDeAVC","playlistName":"خطب الجمعة أ.د. يسري جبر","category":"خطب"},{"id":"IqGaSDYnM50","title":"شرح صحيح البخاري كتاب الأدب من باب ٥٤","publishedAt":"2018-09-05T16:38:04Z","duration":"PT32M3S","thumbnail":"https://i.ytimg.com/vi/IqGaSDYnM50/mqdefault.jpg","viewCount":"618","playlistId":"PLEkQk5xrP-tlEerGoLa1AFy-2XvQ-sovv","playlistName":"شرح صحيح البخاري - أ.د. يسري جبر (كاملا)","category":"حديث"},{"id":"lgGemPfsWSc","title":"مقرأة سورة الإسراء من آية ٤","publishedAt":"2017-09-14T09:07:18Z","duration":"PT15M31S","thumbnail":"https://i.ytimg.com/vi/lgGemPfsWSc/mqdefault.jpg","viewCount":"618","playlistId":"PLEkQk5xrP-tnmTYsyW6xNdyfhPq0Bhrhj","playlistName":"مقرأة الفجر - القُرْآنُ الكَرِيمُ - خَتْمَةُ التَّدَبُّرِ  أ.د. يسري جبر","category":"متنوع"},{"id":"wc-Qlz-1DIQ","title":"أقسام الاستعارة - شرح البرهان في علوم القرآن","publishedAt":"2022-02-14T19:35:35Z","duration":"PT13M40S","thumbnail":"https://i.ytimg.com/vi/wc-Qlz-1DIQ/mqdefault.jpg","viewCount":"618","playlistId":"PLEkQk5xrP-tnW3iBL7HkKziOFCFZbTlf0","playlistName":"شرح البرهان في علوم القرآن - أ.د. يسري جبر","category":"تفسير"},{"id":"-K-07R2lghA","title":"60- كُلُ شَرَابٍ أَسْكَرَ  فَهُوَ حَرَامٌ - شرح مسند الامام الشافعي رضي الله عنه","publishedAt":"2022-11-17T05:00:00Z","duration":"PT36M22S","thumbnail":"https://i.ytimg.com/vi/-K-07R2lghA/mqdefault.jpg","viewCount":"618","playlistId":"PLEkQk5xrP-tlDtaqY0qhNXAiZ19gaGzKI","playlistName":"شرح مسند الإمام محمد بن إدريس الشافعيّ رضي الله تعالى عنه","category":"فقه"},{"id":"x77uPxqNSkY","title":"64- شرح اللؤلؤ والمرجان كتاب الحج من أوله","publishedAt":"2020-02-12T06:00:07Z","duration":"PT35M13S","thumbnail":"https://i.ytimg.com/vi/x77uPxqNSkY/mqdefault.jpg","viewCount":"618","playlistId":"PLEkQk5xrP-tmKNjtYLfhATC37QdIsTMe0","playlistName":"شرح كتاب اللؤلؤ والمرجان فيما اتفق عليه الشيخان إماما المحدثين البخاري ومسلم. أ.د. يسري جبر","category":"حديث"},{"id":"8nsVHJJbQGg","title":"البحث الرابع: شرط الالتفات - شرح البرهان في علوم القرآن","publishedAt":"2021-12-01T06:45:33Z","duration":"PT15M15S","thumbnail":"https://i.ytimg.com/vi/8nsVHJJbQGg/mqdefault.jpg","viewCount":"617","playlistId":"PLEkQk5xrP-tnW3iBL7HkKziOFCFZbTlf0","playlistName":"شرح البرهان في علوم القرآن - أ.د. يسري جبر","category":"تفسير"}],"total":7670,"page":198,"pageSize":24,"totalPages":320}