{"items":[{"id":"f9aGbGX4z6o","title":"\"الرد على المعترضين على فيديو التسمية باسم محمد \"بالدليل","publishedAt":"2023-04-20T19:20:03Z","duration":"PT10M2S","thumbnail":"https://i.ytimg.com/vi/f9aGbGX4z6o/mqdefault.jpg","viewCount":"23889","playlistId":"PLEkQk5xrP-tkGXuZ9atE3k_7it12rUPTs","playlistName":"أسئلة المتابعين","category":"متنوع"},{"id":"L6TpFMwrARY","title":"هل يجوز الاستماع الى الأغاني والموسيقى؟","publishedAt":"2023-03-30T19:00:09Z","duration":"PT8M12S","thumbnail":"https://i.ytimg.com/vi/L6TpFMwrARY/mqdefault.jpg","viewCount":"23758","playlistId":"PLEkQk5xrP-tkGXuZ9atE3k_7it12rUPTs","playlistName":"أسئلة المتابعين","category":"متنوع"},{"id":"8PF0HWMbrlM","title":"الرسالة القشيرية - المجلس (113) بَابُ كرامات الأولياء ٦ | أ.د. يسري جبر","publishedAt":"2022-02-24T19:33:16Z","duration":"PT56M35S","thumbnail":"https://i.ytimg.com/vi/8PF0HWMbrlM/mqdefault.jpg","viewCount":"23703","playlistId":"PLEkQk5xrP-tkHAGOwIKr4pc5ehhyQ5HMJ","playlistName":"كتاب الرسالة القشيرية (تصوف) - د. يسري جبر","category":"تصوف"},{"id":"ekTmY6pKRGg","title":"أسهل طريقة لفهم علم التوحيد","publishedAt":"2021-06-13T19:30:06Z","duration":"PT12M52S","thumbnail":"https://i.ytimg.com/vi/ekTmY6pKRGg/mqdefault.jpg","viewCount":"23555","playlistId":"PLEkQk5xrP-tm8ZIu74nTOZN9KJUJu416J","playlistName":"مقاطع مُهمَّة (يُسريَّات) أ.د. يسري جبر","category":"متنوع"},{"id":"iQpWLiwZtdI","title":"الرسالة القشيرية - المجلس (110) بَابُ كرامات الأولياء ۳ | أ.د. يسري جبر","publishedAt":"2022-02-01T19:36:24Z","duration":"PT53M58S","thumbnail":"https://i.ytimg.com/vi/iQpWLiwZtdI/mqdefault.jpg","viewCount":"23552","playlistId":"PLEkQk5xrP-tkHAGOwIKr4pc5ehhyQ5HMJ","playlistName":"كتاب الرسالة القشيرية (تصوف) - د. يسري جبر","category":"تصوف"},{"id":"eCrEyu-Y4KE","title":"1- الفُتُوحات اليُسريَّة في عقائد الأُمَّة المُحمَّديَّة - المُقدِّمة","publishedAt":"2021-12-14T07:25:41Z","duration":"PT57M45S","thumbnail":"https://i.ytimg.com/vi/eCrEyu-Y4KE/mqdefault.jpg","viewCount":"23548","playlistId":"PLEkQk5xrP-tmNuYT8JAh6clwa4krsgkNo","playlistName":"شرح كتاب الفُتُوحات اليُسريَّة في عقائد الأُمَّة المُحمَّديَّة","category":"متنوع"},{"id":"4TxDOfeN5tE","title":"الكورونا ٢  أ.د. يسري جبر","publishedAt":"2020-03-23T15:31:34Z","duration":"PT3M41S","thumbnail":"https://i.ytimg.com/vi/4TxDOfeN5tE/mqdefault.jpg","viewCount":"23506","playlistId":"PLEkQk5xrP-tm8ZIu74nTOZN9KJUJu416J","playlistName":"مقاطع مُهمَّة (يُسريَّات) أ.د. يسري جبر","category":"متنوع"},{"id":"ggVJw5A7eBE","title":"الرد على الوهابية في قضية الحلول والاتحاد","publishedAt":"2022-06-27T19:20:49Z","duration":"PT9M12S","thumbnail":"https://i.ytimg.com/vi/ggVJw5A7eBE/mqdefault.jpg","viewCount":"23485","playlistId":"PLEkQk5xrP-tm8ZIu74nTOZN9KJUJu416J","playlistName":"مقاطع مُهمَّة (يُسريَّات) أ.د. يسري جبر","category":"متنوع"},{"id":"SOxirrqzFlA","title":"تفسير الأحلام حقيقة أم خرافة؟","publishedAt":"2021-06-21T18:45:00Z","duration":"PT13M37S","thumbnail":"https://i.ytimg.com/vi/SOxirrqzFlA/mqdefault.jpg","viewCount":"23484","playlistId":"PLEkQk5xrP-tm8ZIu74nTOZN9KJUJu416J","playlistName":"مقاطع مُهمَّة (يُسريَّات) أ.د. يسري جبر","category":"متنوع"},{"id":"SF9Mj2tfx6U","title":"شرح كتاب نوراليقين في سيرة سيد المرسلين - المجلس العشرون ( بدء القتال ) د.يسري جبر","publishedAt":"2017-08-28T21:16:39Z","duration":"PT1H3M12S","thumbnail":"https://i.ytimg.com/vi/SF9Mj2tfx6U/mqdefault.jpg","viewCount":"23455","playlistId":"PLEkQk5xrP-tl2t4NQx1IhKnAJCMzF0Nli","playlistName":"شرح كتاب نور اليقين في سيرة سيد المرسلين   د. يسري جبر","category":"سيرة"},{"id":"B2XjrreiNHE","title":"وَحدةُ الوُجود ووَحدةُ الشُهود","publishedAt":"2020-06-05T19:43:56Z","duration":"PT11M40S","thumbnail":"https://i.ytimg.com/vi/B2XjrreiNHE/mqdefault.jpg","viewCount":"23441","playlistId":"PLEkQk5xrP-tm8ZIu74nTOZN9KJUJu416J","playlistName":"مقاطع مُهمَّة (يُسريَّات) أ.د. يسري جبر","category":"متنوع"},{"id":"ionvxx04Hgs","title":"حكم الاضرحة وهدمها واتخاذها المقابر | الحلقة 12 من فتاوى الدكتور يسري جبر | قناة أزهر تى فى Azhar TV","publishedAt":"2012-09-16T10:49:45Z","duration":"PT1H33M21S","thumbnail":"https://i.ytimg.com/vi/ionvxx04Hgs/mqdefault.jpg","viewCount":"23437","playlistId":"PLEkQk5xrP-tmJzNvLntpzW0uPanPzxA0c","playlistName":"لقاءات ومحاضرات","category":"متنوع"},{"id":"cL8D6gAhMNs","title":"شرح كتاب نوراليقين في سيرة سيد المرسلين المجلس السابع عشر (السنة الأولى- بناء المسجد) د.يسري جبر","publishedAt":"2017-07-29T17:52:33Z","duration":"PT53M58S","thumbnail":"https://i.ytimg.com/vi/cL8D6gAhMNs/mqdefault.jpg","viewCount":"23427","playlistId":"PLEkQk5xrP-tl2t4NQx1IhKnAJCMzF0Nli","playlistName":"شرح كتاب نور اليقين في سيرة سيد المرسلين   د. يسري جبر","category":"سيرة"},{"id":"0oem3UAm3n0","title":"شرح كتاب نوراليقين في سيرة سيد المرسلين - المجلس الواحد والعشرون ( غزوة بدر الكبرى ) د.يسري جبر","publishedAt":"2017-09-09T06:56:03Z","duration":"PT53M20S","thumbnail":"https://i.ytimg.com/vi/0oem3UAm3n0/mqdefault.jpg","viewCount":"23404","playlistId":"PLEkQk5xrP-tl2t4NQx1IhKnAJCMzF0Nli","playlistName":"شرح كتاب نور اليقين في سيرة سيد المرسلين   د. يسري جبر","category":"سيرة"},{"id":"mZEa3mRpApU","title":"بعض خصائص وكمالات النَّبيّ الأعظم ﷺ","publishedAt":"2023-12-11T21:28:29Z","duration":"PT51M35S","thumbnail":"https://i.ytimg.com/vi/mZEa3mRpApU/mqdefault.jpg","viewCount":"23391","playlistId":"PLEkQk5xrP-tm8ZIu74nTOZN9KJUJu416J","playlistName":"مقاطع مُهمَّة (يُسريَّات) أ.د. يسري جبر","category":"متنوع"},{"id":"80TONMGzeFo","title":"من هو الصوفي وما هو العهد؟","publishedAt":"2022-05-09T18:00:02Z","duration":"PT10M19S","thumbnail":"https://i.ytimg.com/vi/80TONMGzeFo/mqdefault.jpg","viewCount":"23352","playlistId":"PLEkQk5xrP-tkGXuZ9atE3k_7it12rUPTs","playlistName":"أسئلة المتابعين","category":"متنوع"},{"id":"mqfpP2Qt3jw","title":"شرح كتاب دلائل الخيرات - المجلس الثامن أ.د. يسري جبر","publishedAt":"2019-10-27T21:38:40Z","duration":"PT45M34S","thumbnail":"https://i.ytimg.com/vi/mqfpP2Qt3jw/mqdefault.jpg","viewCount":"23349","playlistId":"PLEkQk5xrP-tlAzcbIpuqjdFICW-knvTlR","playlistName":"شرح كتاب دلائل الخيرات وشوارق الأنوار","category":"متنوع"},{"id":"x6QFFAFnubM","title":"كيف كان سيدنا محمد يشرب الماء | اعرف نبيك","publishedAt":"2015-06-11T15:19:46Z","duration":"PT2M43S","thumbnail":"https://i.ytimg.com/vi/x6QFFAFnubM/mqdefault.jpg","viewCount":"23327","playlistId":"PLEkQk5xrP-tl6Mu_Mz3QMUSv5T6XBH-Dg","playlistName":"برنامج اعرف نبيك","category":"متنوع"},{"id":"bgdkfGLs05E","title":"وصف خاتم النبي صلى الله عليه وسلم | اعرف نبيك","publishedAt":"2015-10-14T17:24:31Z","duration":"PT8M38S","thumbnail":"https://i.ytimg.com/vi/bgdkfGLs05E/mqdefault.jpg","viewCount":"23276","playlistId":"PLEkQk5xrP-tl6Mu_Mz3QMUSv5T6XBH-Dg","playlistName":"برنامج اعرف نبيك","category":"متنوع"},{"id":"UCwuM4av7l4","title":"مقدمة شرح كتاب فتح القريب المجيب - فقه شافعي","publishedAt":"2013-11-17T12:43:06Z","duration":"PT1H34M9S","thumbnail":"https://i.ytimg.com/vi/UCwuM4av7l4/mqdefault.jpg","viewCount":"23268","playlistId":"PLEkQk5xrP-tlyOgfNBZTZgoATzVW4mI20","playlistName":"كتاب فتح القريب المجيب (علم الفقه الشافعي)","category":"فقه"},{"id":"GSLXoeETu1U","title":"الفرق بين الشريعة والحقيقة والطريقة؟","publishedAt":"2021-11-15T20:23:50Z","duration":"PT26M50S","thumbnail":"https://i.ytimg.com/vi/GSLXoeETu1U/mqdefault.jpg","viewCount":"23267","playlistId":"PLEkQk5xrP-tm8ZIu74nTOZN9KJUJu416J","playlistName":"مقاطع مُهمَّة (يُسريَّات) أ.د. يسري جبر","category":"متنوع"},{"id":"wTyjlkpaMp8","title":"كيف تكون من الأغنياء؟","publishedAt":"2021-06-17T17:31:08Z","duration":"PT9M58S","thumbnail":"https://i.ytimg.com/vi/wTyjlkpaMp8/mqdefault.jpg","viewCount":"23232","playlistId":"PLEkQk5xrP-tm8ZIu74nTOZN9KJUJu416J","playlistName":"مقاطع مُهمَّة (يُسريَّات) أ.د. يسري جبر","category":"متنوع"},{"id":"0rHtgwkYA-4","title":"كيف تتخلص من جلد الذات المستمر؟","publishedAt":"2022-11-06T18:00:00Z","duration":"PT12M27S","thumbnail":"https://i.ytimg.com/vi/0rHtgwkYA-4/mqdefault.jpg","viewCount":"23124","playlistId":"PLEkQk5xrP-tkGXuZ9atE3k_7it12rUPTs","playlistName":"أسئلة المتابعين","category":"متنوع"},{"id":"lSekhXk7Eoo","title":"الفَرْقُ بَينَ الشَريعَةِ وَالطَرِيقَةِ وَ الحَقِيقَةِ - د.يسرى جبر","publishedAt":"2015-07-02T18:51:40Z","duration":"PT14M22S","thumbnail":"https://i.ytimg.com/vi/lSekhXk7Eoo/mqdefault.jpg","viewCount":"23118","playlistId":"PLEkQk5xrP-tm8ZIu74nTOZN9KJUJu416J","playlistName":"مقاطع مُهمَّة (يُسريَّات) أ.د. يسري جبر","category":"متنوع"}],"total":7670,"page":11,"pageSize":24,"totalPages":320}