{"items":[{"id":"hHl0UNzBq7A","title":"مقرأة سورة النور من آية ٣٦","publishedAt":"2018-03-18T08:28:00Z","duration":"PT8M3S","thumbnail":"https://i.ytimg.com/vi/hHl0UNzBq7A/mqdefault.jpg","viewCount":"317","playlistId":"PLEkQk5xrP-tnmTYsyW6xNdyfhPq0Bhrhj","playlistName":"مقرأة الفجر - القُرْآنُ الكَرِيمُ - خَتْمَةُ التَّدَبُّرِ  أ.د. يسري جبر","category":"متنوع"},{"id":"s87RvR68Xcc","title":"مقرأة سورة الحج من آية ٨","publishedAt":"2018-01-15T04:41:07Z","duration":"PT5M15S","thumbnail":"https://i.ytimg.com/vi/s87RvR68Xcc/mqdefault.jpg","viewCount":"317","playlistId":"PLEkQk5xrP-tnmTYsyW6xNdyfhPq0Bhrhj","playlistName":"مقرأة الفجر - القُرْآنُ الكَرِيمُ - خَتْمَةُ التَّدَبُّرِ  أ.د. يسري جبر","category":"متنوع"},{"id":"ZoW8f2N9RCU","title":"مقرأة سورة النحل من آية ٦٥","publishedAt":"2017-08-26T15:32:56Z","duration":"PT21M39S","thumbnail":"https://i.ytimg.com/vi/ZoW8f2N9RCU/mqdefault.jpg","viewCount":"317","playlistId":"PLEkQk5xrP-tnmTYsyW6xNdyfhPq0Bhrhj","playlistName":"مقرأة الفجر - القُرْآنُ الكَرِيمُ - خَتْمَةُ التَّدَبُّرِ  أ.د. يسري جبر","category":"متنوع"},{"id":"a-M9PxZZnYs","title":"شرح كتاب الأذكار من كلام سيد الأبرار للإمام النووى رضى الله عنه - المجلس الثلاثون","publishedAt":"2015-07-06T17:48:26Z","duration":"PT10M25S","thumbnail":"https://i.ytimg.com/vi/a-M9PxZZnYs/mqdefault.jpg","viewCount":"317","playlistId":"PLEkQk5xrP-tkWS57Ubysh0ifJR8dmuEtE","playlistName":"شرح كتاب الأذكار للإمام النووي د. يسرى جبر","category":"حديث"},{"id":"6CRZsmUdKEs","title":"شرح صحيح البخاري كتاب استتابة المرتدين والمعاندين وقتالهم من باب ٨","publishedAt":"2018-12-13T21:36:03Z","duration":"PT23M42S","thumbnail":"https://i.ytimg.com/vi/6CRZsmUdKEs/mqdefault.jpg","viewCount":"316","playlistId":"PLEkQk5xrP-tlEerGoLa1AFy-2XvQ-sovv","playlistName":"شرح صحيح البخاري - أ.د. يسري جبر (كاملا)","category":"حديث"},{"id":"I4wgwonEYCw","title":"مقرأة سورة فصلت من آية ٢٦","publishedAt":"2018-11-23T16:40:04Z","duration":"PT16M13S","thumbnail":"https://i.ytimg.com/vi/I4wgwonEYCw/mqdefault.jpg","viewCount":"316","playlistId":"PLEkQk5xrP-tnmTYsyW6xNdyfhPq0Bhrhj","playlistName":"مقرأة الفجر - القُرْآنُ الكَرِيمُ - خَتْمَةُ التَّدَبُّرِ  أ.د. يسري جبر","category":"متنوع"},{"id":"wtMyjStHsiA","title":"مقرأة سورة الفرقان من آية ٦٧","publishedAt":"2018-04-07T10:52:39Z","duration":"PT17M48S","thumbnail":"https://i.ytimg.com/vi/wtMyjStHsiA/mqdefault.jpg","viewCount":"316","playlistId":"PLEkQk5xrP-tnmTYsyW6xNdyfhPq0Bhrhj","playlistName":"مقرأة الفجر - القُرْآنُ الكَرِيمُ - خَتْمَةُ التَّدَبُّرِ  أ.د. يسري جبر","category":"متنوع"},{"id":"AXPuAwB_U8Y","title":"قراءة القرآن (من آية 42 سورة المؤمنون)","publishedAt":"2015-06-22T03:05:04Z","duration":"PT12M","thumbnail":"https://i.ytimg.com/vi/AXPuAwB_U8Y/mqdefault.jpg","viewCount":"316","playlistId":"PLEkQk5xrP-tnUSUj0uyJhA-kwNC7Gkx_j","playlistName":"مقرأة الفجر - بداية من سورة الإسراء حتى سورة الناس","category":"تفسير"},{"id":"2d00-DdFUs4","title":"الاختزال (34) حذف الحرف (2) حرف الواو - شرح البرهان في علوم القرآن","publishedAt":"2021-08-24T05:28:39Z","duration":"PT15M9S","thumbnail":"https://i.ytimg.com/vi/2d00-DdFUs4/mqdefault.jpg","viewCount":"315","playlistId":"PLEkQk5xrP-tnW3iBL7HkKziOFCFZbTlf0","playlistName":"شرح البرهان في علوم القرآن - أ.د. يسري جبر","category":"تفسير"},{"id":"WDuNK6phW0s","title":"67- شرح اللؤلؤ والمرجان كتاب الحج من الباب الحادي والعشرين","publishedAt":"2020-02-15T06:00:02Z","duration":"PT23M7S","thumbnail":"https://i.ytimg.com/vi/WDuNK6phW0s/mqdefault.jpg","viewCount":"315","playlistId":"PLEkQk5xrP-tmKNjtYLfhATC37QdIsTMe0","playlistName":"شرح كتاب اللؤلؤ والمرجان فيما اتفق عليه الشيخان إماما المحدثين البخاري ومسلم. أ.د. يسري جبر","category":"حديث"},{"id":"ZCXMg5ChUFQ","title":"مقرأة سورة محمد من آية ٣٣","publishedAt":"2019-01-16T15:04:28Z","duration":"PT19M29S","thumbnail":"https://i.ytimg.com/vi/ZCXMg5ChUFQ/mqdefault.jpg","viewCount":"315","playlistId":"PLEkQk5xrP-tnmTYsyW6xNdyfhPq0Bhrhj","playlistName":"مقرأة الفجر - القُرْآنُ الكَرِيمُ - خَتْمَةُ التَّدَبُّرِ  أ.د. يسري جبر","category":"متنوع"},{"id":"tVyDwEEFC-0","title":"مقرأة سورة الشورى من آية ٣٩","publishedAt":"2018-12-06T11:12:16Z","duration":"PT16M51S","thumbnail":"https://i.ytimg.com/vi/tVyDwEEFC-0/mqdefault.jpg","viewCount":"315","playlistId":"PLEkQk5xrP-tnmTYsyW6xNdyfhPq0Bhrhj","playlistName":"مقرأة الفجر - القُرْآنُ الكَرِيمُ - خَتْمَةُ التَّدَبُّرِ  أ.د. يسري جبر","category":"متنوع"},{"id":"3chapVyYzhU","title":"مقرأة سورة الأحزاب من ٱية ٤٩","publishedAt":"2018-07-30T07:42:30Z","duration":"PT13M59S","thumbnail":"https://i.ytimg.com/vi/3chapVyYzhU/mqdefault.jpg","viewCount":"315","playlistId":"PLEkQk5xrP-tnmTYsyW6xNdyfhPq0Bhrhj","playlistName":"مقرأة الفجر - القُرْآنُ الكَرِيمُ - خَتْمَةُ التَّدَبُّرِ  أ.د. يسري جبر","category":"متنوع"},{"id":"dajuMDkBgao","title":"مقرأة سورة النحل من آية ٩٧","publishedAt":"2017-09-08T15:32:31Z","duration":"PT19M42S","thumbnail":"https://i.ytimg.com/vi/dajuMDkBgao/mqdefault.jpg","viewCount":"315","playlistId":"PLEkQk5xrP-tnmTYsyW6xNdyfhPq0Bhrhj","playlistName":"مقرأة الفجر - القُرْآنُ الكَرِيمُ - خَتْمَةُ التَّدَبُّرِ  أ.د. يسري جبر","category":"متنوع"},{"id":"BHNZ28ph27c","title":"مقرأة سورة إبراهيم من آية ١٣","publishedAt":"2017-07-30T07:24:24Z","duration":"PT21M28S","thumbnail":"https://i.ytimg.com/vi/BHNZ28ph27c/mqdefault.jpg","viewCount":"315","playlistId":"PLEkQk5xrP-tnmTYsyW6xNdyfhPq0Bhrhj","playlistName":"مقرأة الفجر - القُرْآنُ الكَرِيمُ - خَتْمَةُ التَّدَبُّرِ  أ.د. يسري جبر","category":"متنوع"},{"id":"vGSV4rz-g4I","title":"سورة يونس  آية 46","publishedAt":"2017-05-16T11:20:55Z","duration":"PT13M17S","thumbnail":"https://i.ytimg.com/vi/vGSV4rz-g4I/mqdefault.jpg","viewCount":"315","playlistId":"PLEkQk5xrP-tnmTYsyW6xNdyfhPq0Bhrhj","playlistName":"مقرأة الفجر - القُرْآنُ الكَرِيمُ - خَتْمَةُ التَّدَبُّرِ  أ.د. يسري جبر","category":"متنوع"},{"id":"bwPwObzKH9E","title":"شرح كتاب صفة جهنم من سنن الترمذي - المجلس الأول","publishedAt":"2016-02-01T19:27:37Z","duration":"PT42M44S","thumbnail":"https://i.ytimg.com/vi/bwPwObzKH9E/mqdefault.jpg","viewCount":"315","playlistId":"PLEkQk5xrP-tnu6of679SvxdVx0qSrJzmb","playlistName":"شرح سنن الإمام الترمذي رضى الله عنه د. يسري جبر","category":"متنوع"},{"id":"VUlH7Dqm9pk","title":"الاختزال (11) الغرض من حذف المفعول (2) - شرح البرهان في علوم القرآن","publishedAt":"2021-07-07T22:08:28Z","duration":"PT15M11S","thumbnail":"https://i.ytimg.com/vi/VUlH7Dqm9pk/mqdefault.jpg","viewCount":"314","playlistId":"PLEkQk5xrP-tnW3iBL7HkKziOFCFZbTlf0","playlistName":"شرح البرهان في علوم القرآن - أ.د. يسري جبر","category":"تفسير"},{"id":"Hu9HFH-rtPU","title":"شرح البرهان في علوم القرآن - النوع ٢٩ - مسألة في استحباب الجهر بالقراءة","publishedAt":"2020-02-07T06:00:02Z","duration":"PT22M49S","thumbnail":"https://i.ytimg.com/vi/Hu9HFH-rtPU/mqdefault.jpg","viewCount":"314","playlistId":"PLEkQk5xrP-tnW3iBL7HkKziOFCFZbTlf0","playlistName":"شرح البرهان في علوم القرآن - أ.د. يسري جبر","category":"تفسير"},{"id":"IlAcE0Yr2iI","title":"مقرأة سورة الروم من آية ٥٢","publishedAt":"2018-06-27T10:48:36Z","duration":"PT27M41S","thumbnail":"https://i.ytimg.com/vi/IlAcE0Yr2iI/mqdefault.jpg","viewCount":"314","playlistId":"PLEkQk5xrP-tnmTYsyW6xNdyfhPq0Bhrhj","playlistName":"مقرأة الفجر - القُرْآنُ الكَرِيمُ - خَتْمَةُ التَّدَبُّرِ  أ.د. يسري جبر","category":"متنوع"},{"id":"L3xYhzoa_to","title":"شرح كتاب الأذكار من كلام سيد الأبرار للإمام النووى رضى الله عنه - المجلس السادس والثلاثون","publishedAt":"2016-03-05T19:08:57Z","duration":"PT11M54S","thumbnail":"https://i.ytimg.com/vi/L3xYhzoa_to/mqdefault.jpg","viewCount":"314","playlistId":"PLEkQk5xrP-tkWS57Ubysh0ifJR8dmuEtE","playlistName":"شرح كتاب الأذكار للإمام النووي د. يسرى جبر","category":"حديث"},{"id":"iCZiHyv2XFY","title":"شرح البرهان في علوم القرآن - النوع ٣٤ - التنبيه الثاني في ضروب النسخ في القرآن","publishedAt":"2020-02-27T06:00:11Z","duration":"PT16M55S","thumbnail":"https://i.ytimg.com/vi/iCZiHyv2XFY/mqdefault.jpg","viewCount":"313","playlistId":"PLEkQk5xrP-tnW3iBL7HkKziOFCFZbTlf0","playlistName":"شرح البرهان في علوم القرآن - أ.د. يسري جبر","category":"تفسير"},{"id":"Vh0liiEid5w","title":"شرح البرهان في علوم القرآن - النوع ٣٢ - فصل","publishedAt":"2020-02-19T06:00:07Z","duration":"PT32M20S","thumbnail":"https://i.ytimg.com/vi/Vh0liiEid5w/mqdefault.jpg","viewCount":"313","playlistId":"PLEkQk5xrP-tnW3iBL7HkKziOFCFZbTlf0","playlistName":"شرح البرهان في علوم القرآن - أ.د. يسري جبر","category":"تفسير"},{"id":"R9Cc1w3C750","title":"شرح سنن الدارمي كتاب الاستئذان من باب ٥١","publishedAt":"2019-09-24T10:04:05Z","duration":"PT40M1S","thumbnail":"https://i.ytimg.com/vi/R9Cc1w3C750/mqdefault.jpg","viewCount":"313","playlistId":"PLEkQk5xrP-tmAg-FuWjY057X_h5NmGmAa","playlistName":"شرح سنن الدارمي - أ.د. يسري جبر (كاملا)","category":"متنوع"}],"total":7675,"page":281,"pageSize":24,"totalPages":320}