{"items":[{"id":"U-L7MbuueaI","title":"شرح صحيح البخاري كتاب الجمعة من باب ٣٠","publishedAt":"2016-12-04T06:27:09Z","duration":"PT38M9S","thumbnail":"https://i.ytimg.com/vi/U-L7MbuueaI/mqdefault.jpg","viewCount":"974","playlistId":"PLEkQk5xrP-tlEerGoLa1AFy-2XvQ-sovv","playlistName":"شرح صحيح البخاري - أ.د. يسري جبر (كاملا)","category":"حديث"},{"id":"2cIhPkDiFDU","title":"129- بابٌ في طرح خاتم الذهب","publishedAt":"2020-09-10T11:57:55Z","duration":"PT33M10S","thumbnail":"https://i.ytimg.com/vi/2cIhPkDiFDU/mqdefault.jpg","viewCount":"973","playlistId":"PLEkQk5xrP-tmKNjtYLfhATC37QdIsTMe0","playlistName":"شرح كتاب اللؤلؤ والمرجان فيما اتفق عليه الشيخان إماما المحدثين البخاري ومسلم. أ.د. يسري جبر","category":"حديث"},{"id":"2IsGxVhH-Uk","title":"95- تكملة ما جاء في مسند سيدنا الفضل بن العباس رضي اللهُ تعالى عنهما (2)","publishedAt":"2024-04-19T07:00:02Z","duration":"PT26M27S","thumbnail":"https://i.ytimg.com/vi/2IsGxVhH-Uk/mqdefault.jpg","viewCount":"973","playlistId":"PLEkQk5xrP-tkKprIuGrSdEuBSMsyg5We1","playlistName":"شرح مسند الإمام أحمد بن حنبل","category":"متنوع"},{"id":"CYEV4BS30jY","title":"شرح البرهان في علوم القرآن - النوع ٦ - علم المبهمات","publishedAt":"2019-09-22T10:43:51Z","duration":"PT26M49S","thumbnail":"https://i.ytimg.com/vi/CYEV4BS30jY/mqdefault.jpg","viewCount":"972","playlistId":"PLEkQk5xrP-tnW3iBL7HkKziOFCFZbTlf0","playlistName":"شرح البرهان في علوم القرآن - أ.د. يسري جبر","category":"تفسير"},{"id":"rPOs0vZ8Epc","title":"شرح صحيح البخاري   كتاب الحج من باب ١٧","publishedAt":"2017-03-01T19:10:08Z","duration":"PT38M49S","thumbnail":"https://i.ytimg.com/vi/rPOs0vZ8Epc/mqdefault.jpg","viewCount":"972","playlistId":"PLEkQk5xrP-tlEerGoLa1AFy-2XvQ-sovv","playlistName":"شرح صحيح البخاري - أ.د. يسري جبر (كاملا)","category":"حديث"},{"id":"rycqbk0Pr_c","title":"شرح صحيح البخاري كتاب العِيدَين من باب ٩","publishedAt":"2016-12-07T08:10:28Z","duration":"PT35M43S","thumbnail":"https://i.ytimg.com/vi/rycqbk0Pr_c/mqdefault.jpg","viewCount":"972","playlistId":"PLEkQk5xrP-tlEerGoLa1AFy-2XvQ-sovv","playlistName":"شرح صحيح البخاري - أ.د. يسري جبر (كاملا)","category":"حديث"},{"id":"M7vsyDMaLXE","title":"6- حكم الوضوء بالماء الذي يُبلُّ فيه الخُبز، ومعنى قوله تعالى\"إِذَا قُمْتُمْ إِلَى الصَّلَاةِ\"","publishedAt":"2023-01-14T09:00:08Z","duration":"PT40M53S","thumbnail":"https://i.ytimg.com/vi/M7vsyDMaLXE/mqdefault.jpg","viewCount":"971","playlistId":"PLEkQk5xrP-tk_MCBZ706ORCw6gFtFyaGj","playlistName":"شرح سنن الإمام الدارقطني","category":"متنوع"},{"id":"PLg0ctqIcUU","title":"286- حكمُ الشربِ مِن فم القِربة ونحوِها - شرح دليل الفالحين","publishedAt":"2022-08-12T05:30:04Z","duration":"PT28M7S","thumbnail":"https://i.ytimg.com/vi/PLg0ctqIcUU/mqdefault.jpg","viewCount":"970","playlistId":"PLEkQk5xrP-tkc9DXvSLguqX5-FYp6ASR4","playlistName":"دليل الفالحين لطرق رياض الصالحين","category":"متنوع"},{"id":"XwC_TjQKOJM","title":"505- ختام شرح دليل الفالحين والدعاء والإِجازة","publishedAt":"2023-07-24T08:59:00Z","duration":"PT53M27S","thumbnail":"https://i.ytimg.com/vi/XwC_TjQKOJM/mqdefault.jpg","viewCount":"970","playlistId":"PLEkQk5xrP-tkc9DXvSLguqX5-FYp6ASR4","playlistName":"دليل الفالحين لطرق رياض الصالحين","category":"متنوع"},{"id":"6xumJjZdSiU","title":"حول الحج   د.يسري جبر","publishedAt":"2017-08-05T19:24:15Z","duration":"PT42M8S","thumbnail":"https://i.ytimg.com/vi/6xumJjZdSiU/mqdefault.jpg","viewCount":"969","playlistId":"PLEkQk5xrP-tlArtGpeLWaqNM7h7IDeAVC","playlistName":"خطب الجمعة أ.د. يسري جبر","category":"خطب"},{"id":"vNs2OzI7nqE","title":"348- استحباب الاضطجاع بعد ركعتي الفجر على جنبه الأيمن والحث عليه - شرح دليل الفالحين","publishedAt":"2022-11-30T09:00:33Z","duration":"PT39M32S","thumbnail":"https://i.ytimg.com/vi/vNs2OzI7nqE/mqdefault.jpg","viewCount":"968","playlistId":"PLEkQk5xrP-tkc9DXvSLguqX5-FYp6ASR4","playlistName":"دليل الفالحين لطرق رياض الصالحين","category":"متنوع"},{"id":"czQG-2M2F3A","title":"135- إنَّ الحُمَّى من فيح جهنم فأبردوها بالماء - شرح مسند الإمام أحمد رضي الله تعالى عنه","publishedAt":"2024-11-05T06:00:30Z","duration":"PT28M55S","thumbnail":"https://i.ytimg.com/vi/czQG-2M2F3A/mqdefault.jpg","viewCount":"968","playlistId":"PLEkQk5xrP-tkKprIuGrSdEuBSMsyg5We1","playlistName":"شرح مسند الإمام أحمد بن حنبل","category":"متنوع"},{"id":"NFT2kGvK1w4","title":"35- محظورات الإحرام - شرح كتاب فتح القريب المجيب","publishedAt":"2021-07-13T19:00:04Z","duration":"PT1H32S","thumbnail":"https://i.ytimg.com/vi/NFT2kGvK1w4/mqdefault.jpg","viewCount":"966","playlistId":"PLEkQk5xrP-tnXN9VywgB4qmBFO8geIZTV","playlistName":"أحكام الحج من كتاب فتح القريب المجيب","category":"فقه"},{"id":"WaiUe1Mk7D8","title":"حول الهجرة وفتنة الأسرة المعاصرة د.يسري جبر","publishedAt":"2017-10-02T19:52:50Z","duration":"PT41M51S","thumbnail":"https://i.ytimg.com/vi/WaiUe1Mk7D8/mqdefault.jpg","viewCount":"965","playlistId":"PLEkQk5xrP-tlArtGpeLWaqNM7h7IDeAVC","playlistName":"خطب الجمعة أ.د. يسري جبر","category":"خطب"},{"id":"PRj71dLYS5U","title":"أقسام معنى الكلام","publishedAt":"2020-11-09T07:32:34Z","duration":"PT23M6S","thumbnail":"https://i.ytimg.com/vi/PRj71dLYS5U/mqdefault.jpg","viewCount":"964","playlistId":"PLEkQk5xrP-tnW3iBL7HkKziOFCFZbTlf0","playlistName":"شرح البرهان في علوم القرآن - أ.د. يسري جبر","category":"تفسير"},{"id":"DzFNQ7B1Xuc","title":"كيف يَحْتَجِبُ الحقُّ بشئ ، والذي يَحْتَجِبُ به ، هُو فيه ظاهرٌ ، وموجودٌ حاضِرٌ.","publishedAt":"2018-01-08T17:04:54Z","duration":"PT14M24S","thumbnail":"https://i.ytimg.com/vi/DzFNQ7B1Xuc/mqdefault.jpg","viewCount":"963","playlistId":"PLEkQk5xrP-tkI_meE148wc7V7XHlB0WPb","playlistName":"من الحكم العطائية  د. يسري جبر","category":"متنوع"},{"id":"GDs1-DCsbuk","title":"429-أخبِرْني بعملٍ يُدخِلُني الجنَّةَ، ويباعدني منَ النَّارِ - شرح دليل  الفالحين","publishedAt":"2023-04-26T18:00:07Z","duration":"PT52M28S","thumbnail":"https://i.ytimg.com/vi/GDs1-DCsbuk/mqdefault.jpg","viewCount":"962","playlistId":"PLEkQk5xrP-tkc9DXvSLguqX5-FYp6ASR4","playlistName":"دليل الفالحين لطرق رياض الصالحين","category":"متنوع"},{"id":"9sl2CRzn2aI","title":"388- فضل الصدقة في سبيل الله - شرح دليل الفالحين","publishedAt":"2023-01-22T09:00:05Z","duration":"PT36M29S","thumbnail":"https://i.ytimg.com/vi/9sl2CRzn2aI/mqdefault.jpg","viewCount":"962","playlistId":"PLEkQk5xrP-tkc9DXvSLguqX5-FYp6ASR4","playlistName":"دليل الفالحين لطرق رياض الصالحين","category":"متنوع"},{"id":"aHhfAnrayGU","title":"نصائح من الأيام العشر  د. يسري جبر","publishedAt":"2018-08-18T01:20:07Z","duration":"PT38M41S","thumbnail":"https://i.ytimg.com/vi/aHhfAnrayGU/mqdefault.jpg","viewCount":"962","playlistId":"PLEkQk5xrP-tlArtGpeLWaqNM7h7IDeAVC","playlistName":"خطب الجمعة أ.د. يسري جبر","category":"خطب"},{"id":"UzgXGTz7XKw","title":"232- \"…ومَن كان معه فضلُ زادٍ فلْيعُدْ به على مَن لا زادَ له…\" - شرح دليل الفالحين","publishedAt":"2022-04-12T06:39:21Z","duration":"PT31M29S","thumbnail":"https://i.ytimg.com/vi/UzgXGTz7XKw/mqdefault.jpg","viewCount":"962","playlistId":"PLEkQk5xrP-tkc9DXvSLguqX5-FYp6ASR4","playlistName":"دليل الفالحين لطرق رياض الصالحين","category":"متنوع"},{"id":"jFvNCGmH9bY","title":"227- \"ما سُئِلَ رَسُولُ الله ﷺ عَلَى الإسْلَامِ شَيئًا إلَّا أَعْطَاهُ…\" - شرح دليل الفالحين","publishedAt":"2022-04-04T06:05:12Z","duration":"PT35M","thumbnail":"https://i.ytimg.com/vi/jFvNCGmH9bY/mqdefault.jpg","viewCount":"962","playlistId":"PLEkQk5xrP-tkc9DXvSLguqX5-FYp6ASR4","playlistName":"دليل الفالحين لطرق رياض الصالحين","category":"متنوع"},{"id":"k0pfkL32AvM","title":"125- باب إباحة النبيذ الذي لم يشتد ولم يصر مُسكرًا","publishedAt":"2020-09-05T05:19:53Z","duration":"PT24M57S","thumbnail":"https://i.ytimg.com/vi/k0pfkL32AvM/mqdefault.jpg","viewCount":"962","playlistId":"PLEkQk5xrP-tmKNjtYLfhATC37QdIsTMe0","playlistName":"شرح كتاب اللؤلؤ والمرجان فيما اتفق عليه الشيخان إماما المحدثين البخاري ومسلم. أ.د. يسري جبر","category":"حديث"},{"id":"zgipwNlsPEU","title":"155-  توقير العلماء والكبار وأهل الفضل - شرح دليل الفالحين","publishedAt":"2021-11-17T08:43:10Z","duration":"PT30M38S","thumbnail":"https://i.ytimg.com/vi/zgipwNlsPEU/mqdefault.jpg","viewCount":"962","playlistId":"PLEkQk5xrP-tkc9DXvSLguqX5-FYp6ASR4","playlistName":"دليل الفالحين لطرق رياض الصالحين","category":"متنوع"},{"id":"MXwmZWk53GE","title":"530- معنى كلمة \"اتَّخَذَ\" - شرح البرهان في علوم القرآن","publishedAt":"2022-06-18T05:05:00Z","duration":"PT17M49S","thumbnail":"https://i.ytimg.com/vi/MXwmZWk53GE/mqdefault.jpg","viewCount":"961","playlistId":"PLEkQk5xrP-tnW3iBL7HkKziOFCFZbTlf0","playlistName":"شرح البرهان في علوم القرآن - أ.د. يسري جبر","category":"تفسير"}],"total":7670,"page":156,"pageSize":24,"totalPages":320}