{"items":[{"id":"rZDXggAnM9M","title":"13- مَا يَفْعَلُ مَنْ رَفَعَ رَأْسَهُ قَبْلَ الإِمَامِ ك الصلاة ك الموطأ د يسري جبر الأزهري","publishedAt":"2016-05-16T10:55:23Z","duration":"PT44M37S","thumbnail":"https://i.ytimg.com/vi/rZDXggAnM9M/mqdefault.jpg","viewCount":"558","playlistId":"PLEkQk5xrP-tnC6BRuqMjyO-484iqXeg0o","playlistName":"شرح كتاب الموطأ للإمام مالك","category":"متنوع"},{"id":"P3mwTvWhSl8","title":"شرح صحيح البخاري كتاب التفسير فى سورة الكهف من باب ٣","publishedAt":"2018-04-06T11:31:47Z","duration":"PT33M38S","thumbnail":"https://i.ytimg.com/vi/P3mwTvWhSl8/mqdefault.jpg","viewCount":"558","playlistId":"PLEkQk5xrP-tlEerGoLa1AFy-2XvQ-sovv","playlistName":"شرح صحيح البخاري - أ.د. يسري جبر (كاملا)","category":"حديث"},{"id":"o1wNNmJx3t8","title":"شرح صحيح البخاري  كتاب فضائل الصحابة من باب ٢١","publishedAt":"2017-11-29T20:11:14Z","duration":"PT28M26S","thumbnail":"https://i.ytimg.com/vi/o1wNNmJx3t8/mqdefault.jpg","viewCount":"558","playlistId":"PLEkQk5xrP-tlEerGoLa1AFy-2XvQ-sovv","playlistName":"شرح صحيح البخاري - أ.د. يسري جبر (كاملا)","category":"حديث"},{"id":"J5o3ymJqwXQ","title":"شرح صحيح البخاري - كتاب الجهاد والسير من باب ١٧٨","publishedAt":"2017-08-22T17:20:28Z","duration":"PT31M40S","thumbnail":"https://i.ytimg.com/vi/J5o3ymJqwXQ/mqdefault.jpg","viewCount":"557","playlistId":"PLEkQk5xrP-tlEerGoLa1AFy-2XvQ-sovv","playlistName":"شرح صحيح البخاري - أ.د. يسري جبر (كاملا)","category":"حديث"},{"id":"8gXZTE9jkvw","title":"شرح صحيح البخاري كتاب الأطعمة من باب ٦","publishedAt":"2018-07-03T21:55:31Z","duration":"PT36M18S","thumbnail":"https://i.ytimg.com/vi/8gXZTE9jkvw/mqdefault.jpg","viewCount":"557","playlistId":"PLEkQk5xrP-tlEerGoLa1AFy-2XvQ-sovv","playlistName":"شرح صحيح البخاري - أ.د. يسري جبر (كاملا)","category":"حديث"},{"id":"lx9WolMVEWg","title":"شرح صحيح البخاري كتاب التوحيد من باب ٣٣","publishedAt":"2019-02-10T20:09:51Z","duration":"PT41M10S","thumbnail":"https://i.ytimg.com/vi/lx9WolMVEWg/mqdefault.jpg","viewCount":"557","playlistId":"PLEkQk5xrP-tlEerGoLa1AFy-2XvQ-sovv","playlistName":"شرح صحيح البخاري - أ.د. يسري جبر (كاملا)","category":"حديث"},{"id":"rv9s9Qom2FY","title":"قراءة القرآن (من آية ٨٦ سورة آل عمران)","publishedAt":"2016-07-14T10:40:40Z","duration":"PT12M33S","thumbnail":"https://i.ytimg.com/vi/rv9s9Qom2FY/mqdefault.jpg","viewCount":"557","playlistId":"PLEkQk5xrP-tnmTYsyW6xNdyfhPq0Bhrhj","playlistName":"مقرأة الفجر - القُرْآنُ الكَرِيمُ - خَتْمَةُ التَّدَبُّرِ  أ.د. يسري جبر","category":"متنوع"},{"id":"-960iickIkk","title":"551- حروف المعاني(12) حرف (إن) المُخَفَّفَة من الثقيلة - شرح البرهان في علوم القرآن","publishedAt":"2022-08-28T05:45:00Z","duration":"PT32M14S","thumbnail":"https://i.ytimg.com/vi/-960iickIkk/mqdefault.jpg","viewCount":"557","playlistId":"PLEkQk5xrP-tnW3iBL7HkKziOFCFZbTlf0","playlistName":"شرح البرهان في علوم القرآن - أ.د. يسري جبر","category":"تفسير"},{"id":"y_f6GSuLpEg","title":"هل الأَوْلَى\"التأكيد بالمصدر أو الفعل\"؟ شرح البرهان في علوم القرآن أ.د. يسري جبر","publishedAt":"2021-01-14T08:23:12Z","duration":"PT29M6S","thumbnail":"https://i.ytimg.com/vi/y_f6GSuLpEg/mqdefault.jpg","viewCount":"556","playlistId":"PLEkQk5xrP-tnW3iBL7HkKziOFCFZbTlf0","playlistName":"شرح البرهان في علوم القرآن - أ.د. يسري جبر","category":"تفسير"},{"id":"bE_c1u4mBfs","title":"شرح صحيح البخاري كتاب أخبار الآحاد من أوله","publishedAt":"2019-01-19T21:28:18Z","duration":"PT42M27S","thumbnail":"https://i.ytimg.com/vi/bE_c1u4mBfs/mqdefault.jpg","viewCount":"556","playlistId":"PLEkQk5xrP-tlEerGoLa1AFy-2XvQ-sovv","playlistName":"شرح صحيح البخاري - أ.د. يسري جبر (كاملا)","category":"حديث"},{"id":"8l2KmpDZ2k8","title":"مقرأة سورة آل عمران من آية ١٣٠","publishedAt":"2019-09-27T15:16:38Z","duration":"PT29M32S","thumbnail":"https://i.ytimg.com/vi/8l2KmpDZ2k8/mqdefault.jpg","viewCount":"555","playlistId":"PLEkQk5xrP-tnmTYsyW6xNdyfhPq0Bhrhj","playlistName":"مقرأة الفجر - القُرْآنُ الكَرِيمُ - خَتْمَةُ التَّدَبُّرِ  أ.د. يسري جبر","category":"متنوع"},{"id":"0pTb5n_UqEQ","title":"شرح البرهان في علوم القرآن - النوع ٥ - الفصل ١١ : ما جاء على أحد عشر حرفا","publishedAt":"2019-09-21T16:53:28Z","duration":"PT13M26S","thumbnail":"https://i.ytimg.com/vi/0pTb5n_UqEQ/mqdefault.jpg","viewCount":"555","playlistId":"PLEkQk5xrP-tnW3iBL7HkKziOFCFZbTlf0","playlistName":"شرح البرهان في علوم القرآن - أ.د. يسري جبر","category":"تفسير"},{"id":"EPLAfGFT5KI","title":"التوكيد اللفظي والمعنوي","publishedAt":"2021-01-02T07:32:53Z","duration":"PT21M24S","thumbnail":"https://i.ytimg.com/vi/EPLAfGFT5KI/mqdefault.jpg","viewCount":"554","playlistId":"PLEkQk5xrP-tnW3iBL7HkKziOFCFZbTlf0","playlistName":"شرح البرهان في علوم القرآن - أ.د. يسري جبر","category":"تفسير"},{"id":"Oa8R4Pl23rg","title":"الفائدة الرابعة من الاستفهام","publishedAt":"2020-11-25T06:57:03Z","duration":"PT20M53S","thumbnail":"https://i.ytimg.com/vi/Oa8R4Pl23rg/mqdefault.jpg","viewCount":"554","playlistId":"PLEkQk5xrP-tnW3iBL7HkKziOFCFZbTlf0","playlistName":"شرح البرهان في علوم القرآن - أ.د. يسري جبر","category":"تفسير"},{"id":"mDUHPw-uHWQ","title":"شرح البرهان في علوم القرآن - النوع ١٢ - في كيفية إنزاله ٢","publishedAt":"2019-10-29T12:03:18Z","duration":"PT16M53S","thumbnail":"https://i.ytimg.com/vi/mDUHPw-uHWQ/mqdefault.jpg","viewCount":"554","playlistId":"PLEkQk5xrP-tnW3iBL7HkKziOFCFZbTlf0","playlistName":"شرح البرهان في علوم القرآن - أ.د. يسري جبر","category":"تفسير"},{"id":"RdHnbGKnC3E","title":"شرح صحيح البخاري - كتاب الوصايا من باب ٩","publishedAt":"2017-07-18T15:26:57Z","duration":"PT23M38S","thumbnail":"https://i.ytimg.com/vi/RdHnbGKnC3E/mqdefault.jpg","viewCount":"554","playlistId":"PLEkQk5xrP-tlEerGoLa1AFy-2XvQ-sovv","playlistName":"شرح صحيح البخاري - أ.د. يسري جبر (كاملا)","category":"حديث"},{"id":"IqvBqUyUjnQ","title":"448- النهي عن تناجي اثنين دون الثالث بغير إذنه إلا لحاجة - شرح دليل الفالحين","publishedAt":"2023-05-17T08:59:00Z","duration":"PT27M36S","thumbnail":"https://i.ytimg.com/vi/IqvBqUyUjnQ/mqdefault.jpg","viewCount":"553","playlistId":"PLEkQk5xrP-tkc9DXvSLguqX5-FYp6ASR4","playlistName":"دليل الفالحين لطرق رياض الصالحين","category":"متنوع"},{"id":"CyGleXILhBc","title":"قيد الطاعات بأنواع الأوقات، كي لا يمنعك عنها وجود التسويف، ووسع الوقت عليك، كي تبقى لك حصة الاختيار.","publishedAt":"2017-08-29T19:34:54Z","duration":"PT6M16S","thumbnail":"https://i.ytimg.com/vi/CyGleXILhBc/mqdefault.jpg","viewCount":"553","playlistId":"PLEkQk5xrP-tkI_meE148wc7V7XHlB0WPb","playlistName":"من الحكم العطائية  د. يسري جبر","category":"متنوع"},{"id":"hPKw48nzJxU","title":"سورة النساء آية 13","publishedAt":"2016-08-14T06:15:28Z","duration":"PT13M27S","thumbnail":"https://i.ytimg.com/vi/hPKw48nzJxU/mqdefault.jpg","viewCount":"553","playlistId":"PLEkQk5xrP-tnmTYsyW6xNdyfhPq0Bhrhj","playlistName":"مقرأة الفجر - القُرْآنُ الكَرِيمُ - خَتْمَةُ التَّدَبُّرِ  أ.د. يسري جبر","category":"متنوع"},{"id":"9H3kKVTVByc","title":"مقرأة سورة يوسف من آية ٣٠","publishedAt":"2017-06-26T07:59:46Z","duration":"PT17M45S","thumbnail":"https://i.ytimg.com/vi/9H3kKVTVByc/mqdefault.jpg","viewCount":"553","playlistId":"PLEkQk5xrP-tnmTYsyW6xNdyfhPq0Bhrhj","playlistName":"مقرأة الفجر - القُرْآنُ الكَرِيمُ - خَتْمَةُ التَّدَبُّرِ  أ.د. يسري جبر","category":"متنوع"},{"id":"mpLvNLpY-PE","title":"مقرأة سورة الشورى من آية ٩","publishedAt":"2018-11-29T19:33:52Z","duration":"PT25M31S","thumbnail":"https://i.ytimg.com/vi/mpLvNLpY-PE/mqdefault.jpg","viewCount":"553","playlistId":"PLEkQk5xrP-tnmTYsyW6xNdyfhPq0Bhrhj","playlistName":"مقرأة الفجر - القُرْآنُ الكَرِيمُ - خَتْمَةُ التَّدَبُّرِ  أ.د. يسري جبر","category":"متنوع"},{"id":"0kAvg0NJE5U","title":"سورة الأنعام  آية 13","publishedAt":"2016-11-30T03:18:15Z","duration":"PT16M46S","thumbnail":"https://i.ytimg.com/vi/0kAvg0NJE5U/mqdefault.jpg","viewCount":"553","playlistId":"PLEkQk5xrP-tnmTYsyW6xNdyfhPq0Bhrhj","playlistName":"مقرأة الفجر - القُرْآنُ الكَرِيمُ - خَتْمَةُ التَّدَبُّرِ  أ.د. يسري جبر","category":"متنوع"},{"id":"LE5mEI2Kw1c","title":"308- فضائل القرآن - شرح الإتقان في علوم القرآن","publishedAt":"2025-10-26T09:00:34Z","duration":"PT22M54S","thumbnail":"https://i.ytimg.com/vi/LE5mEI2Kw1c/mqdefault.jpg","viewCount":"553","playlistId":"PLEkQk5xrP-tlPw10KGJKagu7zm4Ry2Tge","playlistName":"شرح الإتقان في علوم القرآن","category":"تفسير"},{"id":"K8sDg7MqF1Y","title":"543- (إذا) ظرفٌ لِما يُستقبل من الزمان - شرح البرهان في علوم القرآن","publishedAt":"2022-08-02T05:15:00Z","duration":"PT18M32S","thumbnail":"https://i.ytimg.com/vi/K8sDg7MqF1Y/mqdefault.jpg","viewCount":"553","playlistId":"PLEkQk5xrP-tnW3iBL7HkKziOFCFZbTlf0","playlistName":"شرح البرهان في علوم القرآن - أ.د. يسري جبر","category":"تفسير"}],"total":7670,"page":212,"pageSize":24,"totalPages":320}