{"items":[{"id":"20dLZPt5JlU","title":"Ø§Ù„Ø±Ø³Ø§Ù„Ø© Ø§Ù„Ù‚Ø´ÙŠØ±ÙŠØ© - Ø§Ù„Ù…Ø¬Ù„Ø³ Ø§Ù„Ø±Ø§Ø¨Ø¹ Ø¹Ø´Ø± (Ø¨Ø§Ø¨ ÙÙŠ Ø°ÙƒØ± Ù…Ø´Ø§ÙŠØ® Ù‡Ø°Ù‡ Ø§Ù„Ø·Ø±ÙŠÙ‚Ø© - Ø§Ù„Ù…Ø¬Ù„Ø³ Ø§Ù„Ø³Ø§Ø¯Ø³)","publishedAt":"2018-03-08T14:38:42Z","duration":"PT1H1M41S","thumbnail":"https://i.ytimg.com/vi/20dLZPt5JlU/mqdefault.jpg","viewCount":"10341","playlistId":"PLEkQk5xrP-tkHAGOwIKr4pc5ehhyQ5HMJ","playlistName":"ÙƒØªØ§Ø¨ Ø§Ù„Ø±Ø³Ø§Ù„Ø© Ø§Ù„Ù‚Ø´ÙŠØ±ÙŠØ© (ØªØµÙˆÙ) - Ø¯. ÙŠØ³Ø±ÙŠ Ø¬Ø¨Ø±","category":"ØªØµÙˆÙ"},{"id":"53JzsvjiCAs","title":"Ù…Ø§Ø°Ø§ Ø­Ø¯Ø« ÙÙŠ Ù…Ø¹Ø±ÙƒØ© ÙƒØ±Ø¨Ù„Ø§Ø¡ ÙˆÙ‚ØµØ© Ø§Ø³ØªØ´Ù‡Ø§Ø¯ Ø³ÙŠØ¯Ù†Ø§ Ø§Ù„Ø­Ø³ÙŠÙ†ØŸ","publishedAt":"2023-07-28T18:00:07Z","duration":"PT15M56S","thumbnail":"https://i.ytimg.com/vi/53JzsvjiCAs/mqdefault.jpg","viewCount":"10326","playlistId":"PLEkQk5xrP-tlArtGpeLWaqNM7h7IDeAVC","playlistName":"Ø®Ø·Ø¨ Ø§Ù„Ø¬Ù…Ø¹Ø© Ø£.Ø¯. ÙŠØ³Ø±ÙŠ Ø¬Ø¨Ø±","category":"Ø®Ø·Ø¨"},{"id":"P7GEy823OZ0","title":"Ø­ØµØ§Ø¯ 2023","publishedAt":"2023-12-30T18:38:41Z","duration":"PT31M13S","thumbnail":"https://i.ytimg.com/vi/P7GEy823OZ0/mqdefault.jpg","viewCount":"10323","playlistId":"PLEkQk5xrP-tm8ZIu74nTOZN9KJUJu416J","playlistName":"Ù…Ù‚Ø§Ø·Ø¹ Ù…ÙÙ‡Ù…ÙÙ‘Ø© (ÙŠÙØ³Ø±ÙŠÙ‘ÙØ§Øª) Ø£.Ø¯. ÙŠØ³Ø±ÙŠ Ø¬Ø¨Ø±","category":"Ù…ØªÙ†ÙˆØ¹"},{"id":"-zpF6IDpihs","title":"Ù„ÙƒÙ„ Ù…Ù† ÙÙ‚Ø¯ Ø¹Ø²ÙŠØ²Ù‹Ø§ Ø¹Ù„Ù‰ Ù‚Ù„Ø¨Ù‡ â€‹| Ù†ØµØ§Ø¦Ø­ Ù…Ù‡Ù…Ø©","publishedAt":"2021-06-04T19:27:05Z","duration":"PT12M24S","thumbnail":"https://i.ytimg.com/vi/-zpF6IDpihs/mqdefault.jpg","viewCount":"10300","playlistId":"PLEkQk5xrP-tm8ZIu74nTOZN9KJUJu416J","playlistName":"Ù…Ù‚Ø§Ø·Ø¹ Ù…ÙÙ‡Ù…ÙÙ‘Ø© (ÙŠÙØ³Ø±ÙŠÙ‘ÙØ§Øª) Ø£.Ø¯. ÙŠØ³Ø±ÙŠ Ø¬Ø¨Ø±","category":"Ù…ØªÙ†ÙˆØ¹"},{"id":"Gx2FLVypVC4","title":"Ø£Ø³Ø±Ø§Ø± ÙˆÙ…Ø¹Ø§Ù†ÙŠ Ø­ÙˆÙ„ Ø§Ù„Ø­Ù‚ÙŠÙ‚Ø© Ø§Ù„Ù…Ø­Ù…Ø¯ÙŠØ©","publishedAt":"2023-03-02T18:00:11Z","duration":"PT22M30S","thumbnail":"https://i.ytimg.com/vi/Gx2FLVypVC4/mqdefault.jpg","viewCount":"10259","playlistId":"PLEkQk5xrP-tm8ZIu74nTOZN9KJUJu416J","playlistName":"Ù…Ù‚Ø§Ø·Ø¹ Ù…ÙÙ‡Ù…ÙÙ‘Ø© (ÙŠÙØ³Ø±ÙŠÙ‘ÙØ§Øª) Ø£.Ø¯. ÙŠØ³Ø±ÙŠ Ø¬Ø¨Ø±","category":"Ù…ØªÙ†ÙˆØ¹"},{"id":"hPTav_6eXIg","title":"Ø§Ù„Ø±Ø³Ø§Ù„Ø© Ø§Ù„Ù‚Ø´ÙŠØ±ÙŠØ© - Ø§Ù„Ù…Ø¬Ù„Ø³ (91) Ø¨ÙØ§Ø¨Ù Ø§Ù„Ø£Ø¯Ø¨ | Ø£.Ø¯. ÙŠØ³Ø±ÙŠ Ø¬Ø¨Ø±","publishedAt":"2021-09-21T18:41:30Z","duration":"PT1H6M39S","thumbnail":"https://i.ytimg.com/vi/hPTav_6eXIg/mqdefault.jpg","viewCount":"10256","playlistId":"PLEkQk5xrP-tkHAGOwIKr4pc5ehhyQ5HMJ","playlistName":"ÙƒØªØ§Ø¨ Ø§Ù„Ø±Ø³Ø§Ù„Ø© Ø§Ù„Ù‚Ø´ÙŠØ±ÙŠØ© (ØªØµÙˆÙ) - Ø¯. ÙŠØ³Ø±ÙŠ Ø¬Ø¨Ø±","category":"ØªØµÙˆÙ"},{"id":"D-gyJ81l7TY","title":"ÙƒÙŠÙ Ù†Ø±Ø¨ÙŠ Ø£ÙˆÙ„Ø§Ø¯Ù†Ø§ ØªØ±Ø¨ÙŠØ© ØµØ­ÙŠØ­Ø©ØŸ","publishedAt":"2022-10-23T18:00:05Z","duration":"PT15M29S","thumbnail":"https://i.ytimg.com/vi/D-gyJ81l7TY/mqdefault.jpg","viewCount":"10247","playlistId":"PLEkQk5xrP-tm8ZIu74nTOZN9KJUJu416J","playlistName":"Ù…Ù‚Ø§Ø·Ø¹ Ù…ÙÙ‡Ù…ÙÙ‘Ø© (ÙŠÙØ³Ø±ÙŠÙ‘ÙØ§Øª) Ø£.Ø¯. ÙŠØ³Ø±ÙŠ Ø¬Ø¨Ø±","category":"Ù…ØªÙ†ÙˆØ¹"},{"id":"3oZ6QzhWbE8","title":"Ø£Ø³Ø±Ø§Ø± Ù…Ø¹Ø¬Ø²Ø© Ø§Ù„Ø¥Ø³Ø±Ø§Ø¡ ÙˆØ§Ù„Ù…Ø¹Ø±Ø§Ø¬","publishedAt":"2022-02-19T17:00:01Z","duration":"PT16M41S","thumbnail":"https://i.ytimg.com/vi/3oZ6QzhWbE8/mqdefault.jpg","viewCount":"10247","playlistId":"PLEkQk5xrP-tlArtGpeLWaqNM7h7IDeAVC","playlistName":"Ø®Ø·Ø¨ Ø§Ù„Ø¬Ù…Ø¹Ø© Ø£.Ø¯. ÙŠØ³Ø±ÙŠ Ø¬Ø¨Ø±","category":"Ø®Ø·Ø¨"},{"id":"wjtTla1-PZU","title":"Ù…Ø§ Ø³Ø± Ø§Ù„Ø£Ø­Ù„Ø§Ù… ÙˆØ§Ù„Ø±Ø¤Ù‰ Ø§Ù„ØªÙŠ ØªØªØ­Ù‚Ù‚ØŸ | Ù…Ø¬Ø§Ù„Ø³ Ø±Ù…Ø¶Ø§Ù†ÙŠØ©","publishedAt":"2024-03-15T14:00:48Z","duration":"PT37M42S","thumbnail":"https://i.ytimg.com/vi/wjtTla1-PZU/mqdefault.jpg","viewCount":"10234","playlistId":"PLEkQk5xrP-tnl7vb7KeAoPd5ZlqKKW8KV","playlistName":"Ø´Ø±Ø­ ÙƒØªØ§Ø¨ Ø¨Ù‡Ø¬Ø© Ø§Ù„Ù†ÙÙˆØ³ Ø£.Ø¯ . ÙŠØ³Ø±Ù‰ Ø¬Ø¨Ø±","category":"Ù…ØªÙ†ÙˆØ¹"},{"id":"Me9e5ZwM_pA","title":"Ø§Ù„Ù…Ø¬Ù„Ø³ Ø§Ù„Ø®Ø§Ù…Ø³ Ù…Ù† Ø´Ø±Ø­ Ø§Ù„Ø®Ø±ÙŠØ¯Ø© Ø§Ù„Ø¨Ù‡ÙŠØ©","publishedAt":"2013-08-04T16:23:14Z","duration":"PT1H1M43S","thumbnail":"https://i.ytimg.com/vi/Me9e5ZwM_pA/mqdefault.jpg","viewCount":"10226","playlistId":"PLEkQk5xrP-tnI6h_R1hvYgrrstFAJCvv9","playlistName":"Ø´Ø±Ø­ Ø§Ù„Ø®Ø±ÙŠØ¯Ø© Ø§Ù„Ø¨Ù‡ÙŠØ© Ø¯. ÙŠØ³Ø±ÙŠ Ø¬Ø¨Ø±","category":"Ù…ØªÙ†ÙˆØ¹"},{"id":"Yj5Lr0WKzDY","title":"Ø£Ø­ÙˆØ§Ù„ Ø§Ù„Ù‚Ù„Ø¨ ÙØ¶Ù„ Ù…Ù† Ø§Ù„Ù„Ù‡","publishedAt":"2020-09-30T19:26:11Z","duration":"PT13M29S","thumbnail":"https://i.ytimg.com/vi/Yj5Lr0WKzDY/mqdefault.jpg","viewCount":"10210","playlistId":"PLEkQk5xrP-tm8ZIu74nTOZN9KJUJu416J","playlistName":"Ù…Ù‚Ø§Ø·Ø¹ Ù…ÙÙ‡Ù…ÙÙ‘Ø© (ÙŠÙØ³Ø±ÙŠÙ‘ÙØ§Øª) Ø£.Ø¯. ÙŠØ³Ø±ÙŠ Ø¬Ø¨Ø±","category":"Ù…ØªÙ†ÙˆØ¹"},{"id":"I7y9UqYsOp8","title":"ÙƒÙŠÙ ÙƒØ§Ù† Ø§Ù„Ù†Ø¨ÙŠ ÙŠÙ„Ø¨Ø³ Ø§Ù„Ø®Ø§ØªÙ… ÙˆÙ„Ù…Ø§Ø°Ø§ ØªØ±Ùƒ Ø§Ù„Ø®Ø§ØªÙ… Ø§Ù„Ø°Ù‡Ø¨ | Ø§Ø¹Ø±Ù Ù†Ø¨ÙŠÙƒ","publishedAt":"2015-10-14T17:24:33Z","duration":"PT6M11S","thumbnail":"https://i.ytimg.com/vi/I7y9UqYsOp8/mqdefault.jpg","viewCount":"10207","playlistId":"PLEkQk5xrP-tl6Mu_Mz3QMUSv5T6XBH-Dg","playlistName":"Ø¨Ø±Ù†Ø§Ù…Ø¬ Ø§Ø¹Ø±Ù Ù†Ø¨ÙŠÙƒ","category":"Ù…ØªÙ†ÙˆØ¹"},{"id":"ryp5JB8yfo8","title":"ğŸ”´ Pembukaan Majelis Sama' Hadits Shahih Bukhari 2025 | Pesantren Progresif Bumi Shalawat","publishedAt":"2025-02-01T17:36:32Z","duration":"PT2H33M39S","thumbnail":"https://i.ytimg.com/vi/ryp5JB8yfo8/mqdefault.jpg","viewCount":"10200","playlistId":"PLEkQk5xrP-tkKcTKLIthzWrdXY7QaOjh_","playlistName":"Ù‚Ø±Ø§Ø¡Ø© ØµØ­ÙŠØ­ Ø§Ù„Ø¨Ø®Ø§Ø±ÙŠ ÙƒØ§Ù…Ù„Ø§Ù‹ ÙÙŠ Ø¥Ù†Ø¯ÙˆÙ†ÙŠØ³ÙŠØ§","category":"Ø­Ø¯ÙŠØ«"},{"id":"l1qeNnLttDY","title":"Ù…Ø§Ø°Ø§ ØªÙØ¹Ù„ ÙÙŠ ÙŠÙˆÙ… Ø¹Ø±ÙØ©ØŸ","publishedAt":"2025-06-04T18:15:04Z","duration":"PT14M44S","thumbnail":"https://i.ytimg.com/vi/l1qeNnLttDY/mqdefault.jpg","viewCount":"10144","playlistId":"PLEkQk5xrP-tlArtGpeLWaqNM7h7IDeAVC","playlistName":"Ø®Ø·Ø¨ Ø§Ù„Ø¬Ù…Ø¹Ø© Ø£.Ø¯. ÙŠØ³Ø±ÙŠ Ø¬Ø¨Ø±","category":"Ø®Ø·Ø¨"},{"id":"Wp62SXYw8Vk","title":"Ù‡Ù„ ÙŠÙ…ÙƒÙ† Ø±Ø¤ÙŠØ© Ø§Ù„Ù†Ø¨ÙŠ ï·º ÙÙŠ Ø§Ù„ÙŠÙ‚Ø¸Ø©ØŸ | Ù…Ø¬Ø§Ù„Ø³ Ø±Ù…Ø¶Ø§Ù†ÙŠØ©","publishedAt":"2024-03-09T14:30:10Z","duration":"PT40M43S","thumbnail":"https://i.ytimg.com/vi/Wp62SXYw8Vk/mqdefault.jpg","viewCount":"10142","playlistId":"PLEkQk5xrP-tnl7vb7KeAoPd5ZlqKKW8KV","playlistName":"Ø´Ø±Ø­ ÙƒØªØ§Ø¨ Ø¨Ù‡Ø¬Ø© Ø§Ù„Ù†ÙÙˆØ³ Ø£.Ø¯ . ÙŠØ³Ø±Ù‰ Ø¬Ø¨Ø±","category":"Ù…ØªÙ†ÙˆØ¹"},{"id":"yi2wA1JM7jU","title":"(9) Ø³ÙŠØ¯Ù†Ø§ Ø£Ø¨Ùˆ Ø¹Ù„ÙŠ Ø´Ù‚ÙŠÙ‚ Ø¨Ù† Ø¥Ø¨Ø±Ø§Ù‡ÙŠÙ… Ø§Ù„Ø¨Ù„Ø®ÙŠ Ø±Ø¶ÙŠ Ø§Ù„Ù„Ù‡ Ø¹Ù†Ù‡  Ø¯. ÙŠØ³Ø±ÙŠ Ø¬Ø¨Ø±","publishedAt":"2018-04-09T18:25:03Z","duration":"PT21M41S","thumbnail":"https://i.ytimg.com/vi/yi2wA1JM7jU/mqdefault.jpg","viewCount":"10132","playlistId":"PLEkQk5xrP-tmmI87XkWepRdTpisz2Lfgr","playlistName":"Ø¨Ø§Ø¨ ÙÙŠ Ø°ÙƒØ± Ù…Ø´Ø§ÙŠØ® Ù‡Ø°Ù‡ Ø§Ù„Ø·Ø±ÙŠÙ‚Ø© Ù…Ù† Ø´Ø±Ø­ ÙƒØªØ§Ø¨ Ø§Ù„Ø±Ø³Ø§Ù„Ø© Ø§Ù„Ù‚Ø´ÙŠØ±ÙŠØ©","category":"ØªØµÙˆÙ"},{"id":"datzEoo9P64","title":"ÙØ¶Ù„ ÙˆÙƒÙ†ÙˆØ² Ø§Ù„ØµÙ„Ø§Ø© Ø¹Ù„Ù‰ Ø§Ù„Ù†Ø¨ÙŠ ï·º","publishedAt":"2025-11-08T17:01:05Z","duration":"PT28M54S","thumbnail":"https://i.ytimg.com/vi/datzEoo9P64/mqdefault.jpg","viewCount":"10131","playlistId":"PLEkQk5xrP-tm8ZIu74nTOZN9KJUJu416J","playlistName":"Ù…Ù‚Ø§Ø·Ø¹ Ù…ÙÙ‡Ù…ÙÙ‘Ø© (ÙŠÙØ³Ø±ÙŠÙ‘ÙØ§Øª) Ø£.Ø¯. ÙŠØ³Ø±ÙŠ Ø¬Ø¨Ø±","category":"Ù…ØªÙ†ÙˆØ¹"},{"id":"py_52YiKAuM","title":"Ø§Ù„Ù…Ø¬Ù„Ø³ Ø§Ù„Ø³Ø§Ø¯Ø³ Ù…Ù† Ø´Ø±Ø­ Ø§Ù„Ø®Ø±ÙŠØ¯Ø© Ø§Ù„Ø¨Ù‡ÙŠØ©","publishedAt":"2013-08-06T13:03:41Z","duration":"PT1H4M28S","thumbnail":"https://i.ytimg.com/vi/py_52YiKAuM/mqdefault.jpg","viewCount":"10113","playlistId":"PLEkQk5xrP-tnI6h_R1hvYgrrstFAJCvv9","playlistName":"Ø´Ø±Ø­ Ø§Ù„Ø®Ø±ÙŠØ¯Ø© Ø§Ù„Ø¨Ù‡ÙŠØ© Ø¯. ÙŠØ³Ø±ÙŠ Ø¬Ø¨Ø±","category":"Ù…ØªÙ†ÙˆØ¹"},{"id":"ZL61f4qHYi0","title":"Ù„Ø§ ÙŠÙØ¹Ù„Ù… Ù‚Ø¯Ù’Ø± Ø£Ù†ÙˆØ§Ø±Ù Ø§Ù„Ù‚Ù„ÙˆØ¨ ÙˆØ§Ù„Ø£Ø³Ø±Ø§Ø± Ø¥Ù„Ø§ ÙÙŠ ØºÙŠØ¨ Ø§Ù„Ù…Ù„ÙƒÙˆØª ÙƒÙ…Ø§ Ù„Ø§ ØªØ¸Ù‡Ø± Ø£Ù†ÙˆØ§Ø± Ø§Ù„Ø³Ù…Ø§Ø¡ Ø¥Ù„Ø§ ÙÙŠ Ø´Ù‡Ø§Ø¯Ø© Ø§Ù„Ù…ÙÙ„Ùƒ","publishedAt":"2018-01-28T17:48:32Z","duration":"PT15M51S","thumbnail":"https://i.ytimg.com/vi/ZL61f4qHYi0/mqdefault.jpg","viewCount":"10107","playlistId":"PLEkQk5xrP-tkI_meE148wc7V7XHlB0WPb","playlistName":"Ù…Ù† Ø§Ù„Ø­ÙƒÙ… Ø§Ù„Ø¹Ø·Ø§Ø¦ÙŠØ©  Ø¯. ÙŠØ³Ø±ÙŠ Ø¬Ø¨Ø±","category":"Ù…ØªÙ†ÙˆØ¹"},{"id":"EUbO9KhdTBc","title":"Ø´Ø±Ø­ ÙƒØªØ§Ø¨ Ù†ÙˆØ± Ø§Ù„ÙŠÙ‚ÙŠÙ† ÙÙŠ Ø³ÙŠØ±Ø© Ø³ÙŠØ¯ Ø§Ù„Ù…Ø±Ø³Ù„ÙŠÙ† Ù„Ù„Ø´ÙŠØ® Ø§Ù„Ø®Ø¶Ø±ÙŠ Ø±Ø­Ù…Ù‡ Ø§Ù„Ù„Ù‡ (Ø§Ù„Ù…Ø¬Ù„Ø³59 Ø§Ù„Ø³Ù†Ø©11 - Ø³Ø±ÙŠØ©) Ø¯.ÙŠØ³Ø±ÙŠ Ø¬Ø¨Ø±","publishedAt":"2018-09-10T19:34:52Z","duration":"PT51M9S","thumbnail":"https://i.ytimg.com/vi/EUbO9KhdTBc/mqdefault.jpg","viewCount":"10088","playlistId":"PLEkQk5xrP-tl2t4NQx1IhKnAJCMzF0Nli","playlistName":"Ø´Ø±Ø­ ÙƒØªØ§Ø¨ Ù†ÙˆØ± Ø§Ù„ÙŠÙ‚ÙŠÙ† ÙÙŠ Ø³ÙŠØ±Ø© Ø³ÙŠØ¯ Ø§Ù„Ù…Ø±Ø³Ù„ÙŠÙ†   Ø¯. ÙŠØ³Ø±ÙŠ Ø¬Ø¨Ø±","category":"Ø³ÙŠØ±Ø©"},{"id":"SDDI7wuy93M","title":"Ø§Ù„Ø­Ù‚Ø§Ø¦Ù‚ Ø§Ù„Ù…Ø­Ù…Ø¯ÙŠØ© Ø¨Ù…Ù†Ø§Ø³Ø¨Ø© Ù…ÙˆÙ„Ø¯ Ø§Ù„Ù†Ø¨ÙŠ ï·º","publishedAt":"2017-11-26T11:59:51Z","duration":"PT39M3S","thumbnail":"https://i.ytimg.com/vi/SDDI7wuy93M/mqdefault.jpg","viewCount":"10082","playlistId":"PLEkQk5xrP-tlArtGpeLWaqNM7h7IDeAVC","playlistName":"Ø®Ø·Ø¨ Ø§Ù„Ø¬Ù…Ø¹Ø© Ø£.Ø¯. ÙŠØ³Ø±ÙŠ Ø¬Ø¨Ø±","category":"Ø®Ø·Ø¨"},{"id":"Ih4MhsxX6JE","title":"Ø³ØªØ± Ø£Ù†ÙˆØ§Ø± Ø§Ù„Ø³Ø±Ø§Ø¦Ø± Ø¨ÙƒØ«Ø§Ø¦Ù Ø§Ù„Ø¸ÙˆØ§Ù‡Ø±ØŒ Ø¥Ø¬Ù„Ø§Ù„Ø§ Ù„Ù‡Ø§ Ø£Ù† ØªØ¨ØªØ°Ù„ Ø¨ÙˆØ¬ÙˆØ¯ Ø§Ù„Ø¥Ø¸Ù‡Ø§Ø±ØŒ...","publishedAt":"2017-04-01T15:52:35Z","duration":"PT22M9S","thumbnail":"https://i.ytimg.com/vi/Ih4MhsxX6JE/mqdefault.jpg","viewCount":"10072","playlistId":"PLEkQk5xrP-tkI_meE148wc7V7XHlB0WPb","playlistName":"Ù…Ù† Ø§Ù„Ø­ÙƒÙ… Ø§Ù„Ø¹Ø·Ø§Ø¦ÙŠØ©  Ø¯. ÙŠØ³Ø±ÙŠ Ø¬Ø¨Ø±","category":"Ù…ØªÙ†ÙˆØ¹"},{"id":"yfys4A3qrGE","title":"Ø£Ù†Ø§ Ø¨Ùƒ ÙˆØ¥Ù„ÙŠÙƒ   Ø¯.ÙŠØ³Ø±ÙŠ Ø¬Ø¨Ø±","publishedAt":"2017-04-10T20:24:17Z","duration":"PT33M56S","thumbnail":"https://i.ytimg.com/vi/yfys4A3qrGE/mqdefault.jpg","viewCount":"10071","playlistId":"PLEkQk5xrP-tlArtGpeLWaqNM7h7IDeAVC","playlistName":"Ø®Ø·Ø¨ Ø§Ù„Ø¬Ù…Ø¹Ø© Ø£.Ø¯. ÙŠØ³Ø±ÙŠ Ø¬Ø¨Ø±","category":"Ø®Ø·Ø¨"},{"id":"xiduAzr6oEo","title":"Ø³ÙÙˆØ±Ø© Ø§Ù„Ø¨Ù‚Ø±Ø© Ù…Ù† Ø£ÙˆÙ‘ÙÙ„ÙÙ‡Ø§","publishedAt":"2016-04-16T20:03:59Z","duration":"PT40M25S","thumbnail":"https://i.ytimg.com/vi/xiduAzr6oEo/mqdefault.jpg","viewCount":"10064","playlistId":"PLEkQk5xrP-tnmTYsyW6xNdyfhPq0Bhrhj","playlistName":"Ù…Ù‚Ø±Ø£Ø© Ø§Ù„ÙØ¬Ø± - Ø§Ù„Ù‚ÙØ±Ù’Ø¢Ù†Ù Ø§Ù„ÙƒÙØ±ÙÙŠÙ…Ù - Ø®ÙØªÙ’Ù…ÙØ©Ù Ø§Ù„ØªÙ‘ÙØ¯ÙØ¨Ù‘ÙØ±Ù  Ø£.Ø¯. ÙŠØ³Ø±ÙŠ Ø¬Ø¨Ø±","category":"Ù…ØªÙ†ÙˆØ¹"}],"total":7670,"page":30,"pageSize":24,"totalPages":320}