{"items":[{"id":"S7khw6RV_Hg","title":"7- نبذة عن عالم المنامات والتجليات | الفرق بين كلام العلماء والأولياء - شرح مختصر الفتوحات المكية","publishedAt":"2024-02-12T12:33:02Z","duration":"PT1H2M41S","thumbnail":"https://i.ytimg.com/vi/S7khw6RV_Hg/mqdefault.jpg","viewCount":"30672","playlistId":"PLEkQk5xrP-tnpkdZki6rPTtMak1bnI5g-","playlistName":"شرح كتاب مختصر الفتوحات المكية المسمى لواقح الأنوار القدسية","category":"متنوع"},{"id":"gLdJRej8J9k","title":"الرسالة القشيرية - المجلس (97) بَابُ المعرفة بالله ۲ | أ.د. يسري جبر","publishedAt":"2021-11-02T19:00:11Z","duration":"PT1H9M41S","thumbnail":"https://i.ytimg.com/vi/gLdJRej8J9k/mqdefault.jpg","viewCount":"30649","playlistId":"PLEkQk5xrP-tkHAGOwIKr4pc5ehhyQ5HMJ","playlistName":"كتاب الرسالة القشيرية (تصوف) - د. يسري جبر","category":"تصوف"},{"id":"DqGGVU_haTc","title":"ليه الست دايما بتتألم في حياتها؟","publishedAt":"2023-05-01T18:00:09Z","duration":"PT16M34S","thumbnail":"https://i.ytimg.com/vi/DqGGVU_haTc/mqdefault.jpg","viewCount":"30124","playlistId":"PLEkQk5xrP-tm8ZIu74nTOZN9KJUJu416J","playlistName":"مقاطع مُهمَّة (يُسريَّات) أ.د. يسري جبر","category":"متنوع"},{"id":"dOfLo8-VhXE","title":"من هو أول خلق الله؟","publishedAt":"2021-02-06T18:56:05Z","duration":"PT15M12S","thumbnail":"https://i.ytimg.com/vi/dOfLo8-VhXE/mqdefault.jpg","viewCount":"29929","playlistId":"PLEkQk5xrP-tm8ZIu74nTOZN9KJUJu416J","playlistName":"مقاطع مُهمَّة (يُسريَّات) أ.د. يسري جبر","category":"متنوع"},{"id":"gf12TKOWgtQ","title":"كيف تختار شيخ الطريقة؟","publishedAt":"2014-04-29T14:21:01Z","duration":"PT2M27S","thumbnail":"https://i.ytimg.com/vi/gf12TKOWgtQ/mqdefault.jpg","viewCount":"29885","playlistId":"PLEkQk5xrP-tm8ZIu74nTOZN9KJUJu416J","playlistName":"مقاطع مُهمَّة (يُسريَّات) أ.د. يسري جبر","category":"متنوع"},{"id":"43_4FjigdJQ","title":"كيف تعاملت مع الوهابية في حياتي؟","publishedAt":"2021-09-26T17:15:00Z","duration":"PT12M7S","thumbnail":"https://i.ytimg.com/vi/43_4FjigdJQ/mqdefault.jpg","viewCount":"29843","playlistId":"PLEkQk5xrP-tl6tFiMFGUucCTvLgnWyAfz","playlistName":"حياة الأستاذ الدكتور يسري جبر","category":"متنوع"},{"id":"kDaf1MBH_oQ","title":"ما هو سر زيادة الرزق؟","publishedAt":"2022-06-02T18:29:57Z","duration":"PT8M30S","thumbnail":"https://i.ytimg.com/vi/kDaf1MBH_oQ/mqdefault.jpg","viewCount":"29842","playlistId":"PLEkQk5xrP-tm8ZIu74nTOZN9KJUJu416J","playlistName":"مقاطع مُهمَّة (يُسريَّات) أ.د. يسري جبر","category":"متنوع"},{"id":"7gdXTIjoOPA","title":"متى يفتح الله على المريد؟","publishedAt":"2021-12-15T15:45:01Z","duration":"PT9M12S","thumbnail":"https://i.ytimg.com/vi/7gdXTIjoOPA/mqdefault.jpg","viewCount":"29804","playlistId":"PLEkQk5xrP-tm8ZIu74nTOZN9KJUJu416J","playlistName":"مقاطع مُهمَّة (يُسريَّات) أ.د. يسري جبر","category":"متنوع"},{"id":"jcuoenTs1Cg","title":"مقامك حيث أقامك","publishedAt":"2021-11-22T19:13:12Z","duration":"PT20M6S","thumbnail":"https://i.ytimg.com/vi/jcuoenTs1Cg/mqdefault.jpg","viewCount":"29699","playlistId":"PLEkQk5xrP-tlArtGpeLWaqNM7h7IDeAVC","playlistName":"خطب الجمعة أ.د. يسري جبر","category":"خطب"},{"id":"Oox4haeeVEU","title":"هل الخضر عليه السلام ما زال حيًا ؟","publishedAt":"2021-02-20T18:58:14Z","duration":"PT11M57S","thumbnail":"https://i.ytimg.com/vi/Oox4haeeVEU/mqdefault.jpg","viewCount":"29525","playlistId":"PLEkQk5xrP-tm8ZIu74nTOZN9KJUJu416J","playlistName":"مقاطع مُهمَّة (يُسريَّات) أ.د. يسري جبر","category":"متنوع"},{"id":"D6wzlbaqVzw","title":"اقترب ظهور المسيح الدجال","publishedAt":"2022-11-19T18:00:06Z","duration":"PT21M5S","thumbnail":"https://i.ytimg.com/vi/D6wzlbaqVzw/mqdefault.jpg","viewCount":"29456","playlistId":"PLEkQk5xrP-tlArtGpeLWaqNM7h7IDeAVC","playlistName":"خطب الجمعة أ.د. يسري جبر","category":"خطب"},{"id":"xzYcZf23m5Q","title":"شرح كتاب نوراليقين في سيرة سيد المرسلين - المجلس الحادي عشر(كتابة الصحيفة) د.يسري جبر","publishedAt":"2017-05-20T15:05:53Z","duration":"PT55M42S","thumbnail":"https://i.ytimg.com/vi/xzYcZf23m5Q/mqdefault.jpg","viewCount":"29435","playlistId":"PLEkQk5xrP-tl2t4NQx1IhKnAJCMzF0Nli","playlistName":"شرح كتاب نور اليقين في سيرة سيد المرسلين   د. يسري جبر","category":"سيرة"},{"id":"bvEjUAB1Si8","title":"ختام الرسالة القشيرية - المجلس (120) بَابُ الوصية للمريدين ۲ | أ.د. يسري جبر","publishedAt":"2022-06-22T18:13:33Z","duration":"PT1H22M50S","thumbnail":"https://i.ytimg.com/vi/bvEjUAB1Si8/mqdefault.jpg","viewCount":"29195","playlistId":"PLEkQk5xrP-tkHAGOwIKr4pc5ehhyQ5HMJ","playlistName":"كتاب الرسالة القشيرية (تصوف) - د. يسري جبر","category":"تصوف"},{"id":"p4p6ejFBsLY","title":"بعد رمضان ,, نصيحة لمن يريد حفظ القرآن","publishedAt":"2022-05-02T19:00:23Z","duration":"PT11M46S","thumbnail":"https://i.ytimg.com/vi/p4p6ejFBsLY/mqdefault.jpg","viewCount":"29191","playlistId":"PLEkQk5xrP-tm8ZIu74nTOZN9KJUJu416J","playlistName":"مقاطع مُهمَّة (يُسريَّات) أ.د. يسري جبر","category":"متنوع"},{"id":"lPRiPsh1PIY","title":"جانب من الاحتفال بالمولد النبوي الشريف 1446","publishedAt":"2024-09-15T20:04:06Z","duration":"PT1H30M39S","thumbnail":"https://i.ytimg.com/vi/lPRiPsh1PIY/mqdefault.jpg","viewCount":"29156","playlistId":"PLEkQk5xrP-tlB8lmbwjAKR8KRgiykGKhb","playlistName":"حضرات يسرية ومدائح نبوية","category":"متنوع"},{"id":"IEqq1thuptk","title":"هل يجوز مصافحة النساء؟","publishedAt":"2023-07-22T18:00:04Z","duration":"PT8M49S","thumbnail":"https://i.ytimg.com/vi/IEqq1thuptk/mqdefault.jpg","viewCount":"29061","playlistId":"PLEkQk5xrP-tkGXuZ9atE3k_7it12rUPTs","playlistName":"أسئلة المتابعين","category":"متنوع"},{"id":"Mfw_VtgJdjY","title":"ما هي شروط رؤية النبيﷺ ؟","publishedAt":"2021-08-29T18:30:10Z","duration":"PT12M57S","thumbnail":"https://i.ytimg.com/vi/Mfw_VtgJdjY/mqdefault.jpg","viewCount":"28984","playlistId":"PLEkQk5xrP-tm8ZIu74nTOZN9KJUJu416J","playlistName":"مقاطع مُهمَّة (يُسريَّات) أ.د. يسري جبر","category":"متنوع"},{"id":"EzkcmcevKoE","title":"أريد الزواج مرة أخرى فماذا أفعل؟","publishedAt":"2022-07-16T19:30:01Z","duration":"PT13M6S","thumbnail":"https://i.ytimg.com/vi/EzkcmcevKoE/mqdefault.jpg","viewCount":"28967","playlistId":"PLEkQk5xrP-tm8ZIu74nTOZN9KJUJu416J","playlistName":"مقاطع مُهمَّة (يُسريَّات) أ.د. يسري جبر","category":"متنوع"},{"id":"aQDYD8n1TLg","title":"أفضل علاج للنفس الأمَّارة بالسوء","publishedAt":"2022-07-27T18:34:55Z","duration":"PT16M2S","thumbnail":"https://i.ytimg.com/vi/aQDYD8n1TLg/mqdefault.jpg","viewCount":"28932","playlistId":"PLEkQk5xrP-tm8ZIu74nTOZN9KJUJu416J","playlistName":"مقاطع مُهمَّة (يُسريَّات) أ.د. يسري جبر","category":"متنوع"},{"id":"mi30BQRfmIo","title":"ما هي العقيدة الأشعرية؟","publishedAt":"2024-04-12T19:00:23Z","duration":"PT40M27S","thumbnail":"https://i.ytimg.com/vi/mi30BQRfmIo/mqdefault.jpg","viewCount":"28778","playlistId":"PLEkQk5xrP-tm8ZIu74nTOZN9KJUJu416J","playlistName":"مقاطع مُهمَّة (يُسريَّات) أ.د. يسري جبر","category":"متنوع"},{"id":"APo0n61iVwQ","title":"لماذا لا يطبق حد السرقة والزنا في مصر؟","publishedAt":"2021-01-13T21:56:50Z","duration":"PT10M19S","thumbnail":"https://i.ytimg.com/vi/APo0n61iVwQ/mqdefault.jpg","viewCount":"28631","playlistId":"PLEkQk5xrP-tm8ZIu74nTOZN9KJUJu416J","playlistName":"مقاطع مُهمَّة (يُسريَّات) أ.د. يسري جبر","category":"متنوع"},{"id":"47TxVnmEEAg","title":"ما أهمية الأذكار الصوفية والرد على من ينكرها؟","publishedAt":"2021-12-05T18:45:53Z","duration":"PT14M41S","thumbnail":"https://i.ytimg.com/vi/47TxVnmEEAg/mqdefault.jpg","viewCount":"28525","playlistId":"PLEkQk5xrP-tm8ZIu74nTOZN9KJUJu416J","playlistName":"مقاطع مُهمَّة (يُسريَّات) أ.د. يسري جبر","category":"متنوع"},{"id":"QUd9at943I4","title":"وَاعْلَمُوا أَنَّ فِيكُمْ رَسُولَ الله - د. يسري جبر","publishedAt":"2015-04-15T20:33:54Z","duration":"PT6M38S","thumbnail":"https://i.ytimg.com/vi/QUd9at943I4/mqdefault.jpg","viewCount":"28479","playlistId":"PLEkQk5xrP-tm8ZIu74nTOZN9KJUJu416J","playlistName":"مقاطع مُهمَّة (يُسريَّات) أ.د. يسري جبر","category":"متنوع"},{"id":"9epEDMeytAc","title":"بداية العشر الأواخر وما هو موعد ليلة القدر؟","publishedAt":"2023-04-10T19:00:04Z","duration":"PT11M54S","thumbnail":"https://i.ytimg.com/vi/9epEDMeytAc/mqdefault.jpg","viewCount":"28443","playlistId":"PLEkQk5xrP-tlArtGpeLWaqNM7h7IDeAVC","playlistName":"خطب الجمعة أ.د. يسري جبر","category":"خطب"}],"total":7670,"page":8,"pageSize":24,"totalPages":320}