{"items":[{"id":"ZmY2_EAY3Uw","title":"شرح سنن الدارمي كتاب الفرائض من باب ١٠","publishedAt":"2019-10-14T10:29:16Z","duration":"PT30M57S","thumbnail":"https://i.ytimg.com/vi/ZmY2_EAY3Uw/mqdefault.jpg","viewCount":"217","playlistId":"PLEkQk5xrP-tmAg-FuWjY057X_h5NmGmAa","playlistName":"شرح سنن الدارمي - أ.د. يسري جبر (كاملا)","category":"متنوع"},{"id":"sxY3subbAoE","title":"( 134 ) حديث فضل الصيام في الجهاد -  د. يسري جبر","publishedAt":"2017-06-20T04:25:43Z","duration":"PT23M58S","thumbnail":"https://i.ytimg.com/vi/sxY3subbAoE/mqdefault.jpg","viewCount":"217","playlistId":"PLEkQk5xrP-tnl7vb7KeAoPd5ZlqKKW8KV","playlistName":"شرح كتاب بهجة النفوس أ.د . يسرى جبر","category":"متنوع"},{"id":"7bMK5lHDHFA","title":"( 119 ) حديث الإفك وبراءة السيدة عائشة أم المؤمنين منه - المجلس الثاني عشر","publishedAt":"2017-05-25T17:54:22Z","duration":"PT28M26S","thumbnail":"https://i.ytimg.com/vi/7bMK5lHDHFA/mqdefault.jpg","viewCount":"217","playlistId":"PLEkQk5xrP-tnl7vb7KeAoPd5ZlqKKW8KV","playlistName":"شرح كتاب بهجة النفوس أ.د . يسرى جبر","category":"متنوع"},{"id":"92sDrseOqLw","title":"شرح كتاب القدر من سنن الترمذي - المجلس الأول","publishedAt":"2015-12-10T05:54:26Z","duration":"PT30M6S","thumbnail":"https://i.ytimg.com/vi/92sDrseOqLw/mqdefault.jpg","viewCount":"217","playlistId":"PLEkQk5xrP-tnu6of679SvxdVx0qSrJzmb","playlistName":"شرح سنن الإمام الترمذي رضى الله عنه د. يسري جبر","category":"متنوع"},{"id":"CCccxQac2Yw","title":"مقرأة سورة الفرقان من آية ١٧","publishedAt":"2018-03-29T09:29:54Z","duration":"PT14M52S","thumbnail":"https://i.ytimg.com/vi/CCccxQac2Yw/mqdefault.jpg","viewCount":"217","playlistId":"PLEkQk5xrP-tnmTYsyW6xNdyfhPq0Bhrhj","playlistName":"مقرأة الفجر - القُرْآنُ الكَرِيمُ - خَتْمَةُ التَّدَبُّرِ  أ.د. يسري جبر","category":"متنوع"},{"id":"u5OMLeXpBOM","title":"كان رسول الله في عون الناس  | اعرف نبيك","publishedAt":"2015-09-16T15:57:10Z","duration":"PT8M32S","thumbnail":"https://i.ytimg.com/vi/u5OMLeXpBOM/mqdefault.jpg","viewCount":"217","playlistId":"PLEkQk5xrP-tl6Mu_Mz3QMUSv5T6XBH-Dg","playlistName":"برنامج اعرف نبيك","category":"متنوع"},{"id":"PdKggC7CrZA","title":"شرح سنن الدارمي كتاب فضائل القرآن من باب ٢٠","publishedAt":"2019-12-14T13:59:41Z","duration":"PT29M3S","thumbnail":"https://i.ytimg.com/vi/PdKggC7CrZA/mqdefault.jpg","viewCount":"217","playlistId":"PLEkQk5xrP-tmAg-FuWjY057X_h5NmGmAa","playlistName":"شرح سنن الدارمي - أ.د. يسري جبر (كاملا)","category":"متنوع"},{"id":"WSWIBNqRFYk","title":"78- باب الْعِينَةِ وَمَا يُشْبِهُهَا ك الموطأ د يسري جبر الأزهري","publishedAt":"2018-09-19T11:04:36Z","duration":"PT35M50S","thumbnail":"https://i.ytimg.com/vi/WSWIBNqRFYk/mqdefault.jpg","viewCount":"217","playlistId":"PLEkQk5xrP-tnC6BRuqMjyO-484iqXeg0o","playlistName":"شرح كتاب الموطأ للإمام مالك","category":"متنوع"},{"id":"Phx6oOmDSxA","title":"شرح كتاب فضائل القرآن من سنن الترمذي - المجلس الأول","publishedAt":"2016-03-29T02:21:01Z","duration":"PT32M14S","thumbnail":"https://i.ytimg.com/vi/Phx6oOmDSxA/mqdefault.jpg","viewCount":"216","playlistId":"PLEkQk5xrP-tnu6of679SvxdVx0qSrJzmb","playlistName":"شرح سنن الإمام الترمذي رضى الله عنه د. يسري جبر","category":"متنوع"},{"id":"YO0sxIIHqvg","title":"شرح كتاب البيوع من سنن الترمذي - المجلس السادس","publishedAt":"2015-05-29T04:12:20Z","duration":"PT32M15S","thumbnail":"https://i.ytimg.com/vi/YO0sxIIHqvg/mqdefault.jpg","viewCount":"216","playlistId":"PLEkQk5xrP-tnu6of679SvxdVx0qSrJzmb","playlistName":"شرح سنن الإمام الترمذي رضى الله عنه د. يسري جبر","category":"متنوع"},{"id":"CzFIsoJ0Ses","title":"77- باب بَيْعِ الْفَاكِهَةِ ك الموطأ د يسري جبر الأزهري","publishedAt":"2018-09-13T11:37:26Z","duration":"PT53M11S","thumbnail":"https://i.ytimg.com/vi/CzFIsoJ0Ses/mqdefault.jpg","viewCount":"216","playlistId":"PLEkQk5xrP-tnC6BRuqMjyO-484iqXeg0o","playlistName":"شرح كتاب الموطأ للإمام مالك","category":"متنوع"},{"id":"hIzsXxns7a8","title":"صحيح الإمام البخاري رضي الله عنه - كتاب اللباس باب الطيب في الرأس واللحية المجلس العاشر. د. يسري جبر","publishedAt":"2016-11-13T13:52:13Z","duration":"PT44M47S","thumbnail":"https://i.ytimg.com/vi/hIzsXxns7a8/mqdefault.jpg","viewCount":"216","playlistId":"PLEkQk5xrP-tmJuzaj4GWRenFoFx9gdbFX","playlistName":"شرح كتاب صحيح الإمام البخاري رضي الله تعالى عنه   أ.د. يسرى جبر","category":"حديث"},{"id":"le1zh-ErAcw","title":"شرح سنن الدارمي كتاب فضائل القرآن من باب ٢","publishedAt":"2019-12-11T09:25:43Z","duration":"PT30M8S","thumbnail":"https://i.ytimg.com/vi/le1zh-ErAcw/mqdefault.jpg","viewCount":"215","playlistId":"PLEkQk5xrP-tmAg-FuWjY057X_h5NmGmAa","playlistName":"شرح سنن الدارمي - أ.د. يسري جبر (كاملا)","category":"متنوع"},{"id":"bjQBORkfaTM","title":"شرح سنن الدارمي كتاب فضائل القرآن من باب ٣٠","publishedAt":"2019-12-15T12:02:19Z","duration":"PT16M11S","thumbnail":"https://i.ytimg.com/vi/bjQBORkfaTM/mqdefault.jpg","viewCount":"215","playlistId":"PLEkQk5xrP-tmAg-FuWjY057X_h5NmGmAa","playlistName":"شرح سنن الدارمي - أ.د. يسري جبر (كاملا)","category":"متنوع"},{"id":"evFrTbq8CdM","title":"حول ميلاد النَّبِىِّ صَلَّى اللهُ عليه وآله وسَلَّمَ وأَخْلاقه التى افْتَقَدْناها د. يسري جبر","publishedAt":"2015-12-27T12:01:47Z","duration":"PT53M54S","thumbnail":"https://i.ytimg.com/vi/evFrTbq8CdM/mqdefault.jpg","viewCount":"215","playlistId":"PLEkQk5xrP-tlArtGpeLWaqNM7h7IDeAVC","playlistName":"خطب الجمعة أ.د. يسري جبر","category":"خطب"},{"id":"vx6JDIzZxmM","title":"القِسمُ (14) من التوكيد: التَّكرار على وجه التأكيد - شرح البرهان في علوم القرآن","publishedAt":"2021-04-17T05:17:37Z","duration":"PT13M10S","thumbnail":"https://i.ytimg.com/vi/vx6JDIzZxmM/mqdefault.jpg","viewCount":"215","playlistId":"PLEkQk5xrP-tnW3iBL7HkKziOFCFZbTlf0","playlistName":"شرح البرهان في علوم القرآن - أ.د. يسري جبر","category":"تفسير"},{"id":"WKWAnBO4St8","title":"70- باب عِدَّةِ الَّتِى تَفْقِدُ زَوْجَهَا ك الموطأ د يسري جبر الأزهري","publishedAt":"2018-08-16T12:38:27Z","duration":"PT51M50S","thumbnail":"https://i.ytimg.com/vi/WKWAnBO4St8/mqdefault.jpg","viewCount":"213","playlistId":"PLEkQk5xrP-tnC6BRuqMjyO-484iqXeg0o","playlistName":"شرح كتاب الموطأ للإمام مالك","category":"متنوع"},{"id":"JL6_QVSKy5s","title":"شرح سنن الدارمي كتاب الفرائض من باب ٣٨","publishedAt":"2019-10-24T17:08:24Z","duration":"PT18M34S","thumbnail":"https://i.ytimg.com/vi/JL6_QVSKy5s/mqdefault.jpg","viewCount":"213","playlistId":"PLEkQk5xrP-tmAg-FuWjY057X_h5NmGmAa","playlistName":"شرح سنن الدارمي - أ.د. يسري جبر (كاملا)","category":"متنوع"},{"id":"QiL1oss_BOc","title":"قراءة القرآن (من أول سورة القلم)","publishedAt":"2016-02-01T02:57:27Z","duration":"PT31M1S","thumbnail":"https://i.ytimg.com/vi/QiL1oss_BOc/mqdefault.jpg","viewCount":"213","playlistId":"PLEkQk5xrP-tnUSUj0uyJhA-kwNC7Gkx_j","playlistName":"مقرأة الفجر - بداية من سورة الإسراء حتى سورة الناس","category":"تفسير"},{"id":"wQsw_Nhp8hY","title":"مقرأة سورة الشعراء من آية ٣٢","publishedAt":"2018-04-09T11:26:37Z","duration":"PT21M9S","thumbnail":"https://i.ytimg.com/vi/wQsw_Nhp8hY/mqdefault.jpg","viewCount":"212","playlistId":"PLEkQk5xrP-tnmTYsyW6xNdyfhPq0Bhrhj","playlistName":"مقرأة الفجر - القُرْآنُ الكَرِيمُ - خَتْمَةُ التَّدَبُّرِ  أ.د. يسري جبر","category":"متنوع"},{"id":"IKNv8ameR-c","title":"شرح سنن الدارمي كتاب المناسك من باب ٨١","publishedAt":"2019-07-16T18:49:58Z","duration":"PT29M14S","thumbnail":"https://i.ytimg.com/vi/IKNv8ameR-c/mqdefault.jpg","viewCount":"211","playlistId":"PLEkQk5xrP-tmAg-FuWjY057X_h5NmGmAa","playlistName":"شرح سنن الدارمي - أ.د. يسري جبر (كاملا)","category":"متنوع"},{"id":"_v8rpWFF-cU","title":"شرح سنن الدارمي كتاب الأطعمة من باب ٣٠","publishedAt":"2019-07-28T06:27:53Z","duration":"PT28M","thumbnail":"https://i.ytimg.com/vi/_v8rpWFF-cU/mqdefault.jpg","viewCount":"211","playlistId":"PLEkQk5xrP-tmAg-FuWjY057X_h5NmGmAa","playlistName":"شرح سنن الدارمي - أ.د. يسري جبر (كاملا)","category":"متنوع"},{"id":"Rr78Yel83iU","title":"مقرأة سورة سبأ من آية ٤٠","publishedAt":"2018-08-15T07:33:01Z","duration":"PT5M6S","thumbnail":"https://i.ytimg.com/vi/Rr78Yel83iU/mqdefault.jpg","viewCount":"210","playlistId":"PLEkQk5xrP-tnmTYsyW6xNdyfhPq0Bhrhj","playlistName":"مقرأة الفجر - القُرْآنُ الكَرِيمُ - خَتْمَةُ التَّدَبُّرِ  أ.د. يسري جبر","category":"متنوع"},{"id":"BjaAD2v27zo","title":"شرح سنن الدارمي كتاب الصلاة من باب ٢٠٨","publishedAt":"2019-06-02T09:06:04Z","duration":"PT21M21S","thumbnail":"https://i.ytimg.com/vi/BjaAD2v27zo/mqdefault.jpg","viewCount":"210","playlistId":"PLEkQk5xrP-tmAg-FuWjY057X_h5NmGmAa","playlistName":"شرح سنن الدارمي - أ.د. يسري جبر (كاملا)","category":"متنوع"}],"total":7670,"page":300,"pageSize":24,"totalPages":320}