{"items":[{"id":"5ruGyJKSrDM","title":"د. يسري رشدي جبر_محاضرة الإمام الشافعي_الدروس المحمدية","publishedAt":"2014-07-21T04:42:26Z","duration":"PT57M13S","thumbnail":"https://i.ytimg.com/vi/5ruGyJKSrDM/mqdefault.jpg","viewCount":"20346","playlistId":"PLEkQk5xrP-tmJzNvLntpzW0uPanPzxA0c","playlistName":"لقاءات ومحاضرات","category":"متنوع"},{"id":"5t_lOdcafX8","title":"رأيت الهلال ووجه الحبيب فكانا هلالين عند النظر","publishedAt":"2014-12-23T17:38:22Z","duration":"PT8M36S","thumbnail":"https://i.ytimg.com/vi/5t_lOdcafX8/mqdefault.jpg","viewCount":"20337","playlistId":"PLEkQk5xrP-tlB8lmbwjAKR8KRgiykGKhb","playlistName":"حضرات يسرية ومدائح نبوية","category":"متنوع"},{"id":"aLhbS8MEvzA","title":"شرح كتاب نوراليقين في سيرة سيد المرسلين - المجلس الثالث والعشرون ( غزوة بدر الكبرى ) (3) د.يسري جبر","publishedAt":"2017-10-03T08:31:31Z","duration":"PT48M57S","thumbnail":"https://i.ytimg.com/vi/aLhbS8MEvzA/mqdefault.jpg","viewCount":"20335","playlistId":"PLEkQk5xrP-tl2t4NQx1IhKnAJCMzF0Nli","playlistName":"شرح كتاب نور اليقين في سيرة سيد المرسلين   د. يسري جبر","category":"سيرة"},{"id":"ZSDyJKZxg3U","title":"لو أشرق لك نور اليقين ، لرأيت الآخرة أقرب إليك من أن ترحل إليها","publishedAt":"2016-10-23T21:02:52Z","duration":"PT14M11S","thumbnail":"https://i.ytimg.com/vi/ZSDyJKZxg3U/mqdefault.jpg","viewCount":"20148","playlistId":"PLEkQk5xrP-tkI_meE148wc7V7XHlB0WPb","playlistName":"من الحكم العطائية  د. يسري جبر","category":"متنوع"},{"id":"KIJqaOx3JX0","title":"منظومة أسماء الله الحسنى لسيدي أحمد الدردير رضي الله تعالى عنه  د. يسري جبر","publishedAt":"2018-08-27T20:02:11Z","duration":"PT15M20S","thumbnail":"https://i.ytimg.com/vi/KIJqaOx3JX0/mqdefault.jpg","viewCount":"20068","playlistId":"PLEkQk5xrP-tk3OeVFoMfKhOhyINnlPeYZ","playlistName":"الحَضْرَةُ الصِّدِّيقِيَّة والأوْرَاد","category":"متنوع"},{"id":"yKd518fhPnQ","title":"نزول سيدنا عيسى عليه السلام آخر الزمان.  د. يسري جبر","publishedAt":"2020-01-02T17:25:38Z","duration":"PT44M56S","thumbnail":"https://i.ytimg.com/vi/yKd518fhPnQ/mqdefault.jpg","viewCount":"20003","playlistId":"PLEkQk5xrP-tlArtGpeLWaqNM7h7IDeAVC","playlistName":"خطب الجمعة أ.د. يسري جبر","category":"خطب"},{"id":"zuhCfWCB4Tw","title":"الرد على تساؤلات الوهابية","publishedAt":"2021-06-10T18:00:14Z","duration":"PT12M9S","thumbnail":"https://i.ytimg.com/vi/zuhCfWCB4Tw/mqdefault.jpg","viewCount":"19993","playlistId":"PLEkQk5xrP-tkGXuZ9atE3k_7it12rUPTs","playlistName":"أسئلة المتابعين","category":"متنوع"},{"id":"n_fTJ578dj0","title":"الفرق بين الأحدية والواحدية والفردانية - د. يسري جبر","publishedAt":"2014-04-22T19:25:54Z","duration":"PT22M35S","thumbnail":"https://i.ytimg.com/vi/n_fTJ578dj0/mqdefault.jpg","viewCount":"19844","playlistId":"PLEkQk5xrP-tm8ZIu74nTOZN9KJUJu416J","playlistName":"مقاطع مُهمَّة (يُسريَّات) أ.د. يسري جبر","category":"متنوع"},{"id":"-xG1tGl-id8","title":"هل صلاة الجمعة تسقط فرض الظهر؟","publishedAt":"2021-10-17T18:30:01Z","duration":"PT8M46S","thumbnail":"https://i.ytimg.com/vi/-xG1tGl-id8/mqdefault.jpg","viewCount":"19757","playlistId":"PLEkQk5xrP-tkGXuZ9atE3k_7it12rUPTs","playlistName":"أسئلة المتابعين","category":"متنوع"},{"id":"m25WuecL-4E","title":"شرح كتاب منازل السائرين للإمام الهروى - المجلس الأول - المقدمة","publishedAt":"2015-12-29T18:00:17Z","duration":"PT1H36M20S","thumbnail":"https://i.ytimg.com/vi/m25WuecL-4E/mqdefault.jpg","viewCount":"19707","playlistId":"PLEkQk5xrP-tnLYi_5_tSRVBwqcs7ISV7Y","playlistName":"شرح كتاب منازل السائرين للإمام الهروي","category":"متنوع"},{"id":"GID3zQFpG34","title":"فن التعامل مع الآخرين","publishedAt":"2021-04-04T19:01:11Z","duration":"PT8M9S","thumbnail":"https://i.ytimg.com/vi/GID3zQFpG34/mqdefault.jpg","viewCount":"19680","playlistId":"PLEkQk5xrP-tlArtGpeLWaqNM7h7IDeAVC","playlistName":"خطب الجمعة أ.د. يسري جبر","category":"خطب"},{"id":"nj7r1lHq_nM","title":"المُسَبَّعَات  أ.د. يسري جبر","publishedAt":"2018-12-29T08:24:47Z","duration":"PT18M4S","thumbnail":"https://i.ytimg.com/vi/nj7r1lHq_nM/mqdefault.jpg","viewCount":"19675","playlistId":"PLEkQk5xrP-tk3OeVFoMfKhOhyINnlPeYZ","playlistName":"الحَضْرَةُ الصِّدِّيقِيَّة والأوْرَاد","category":"متنوع"},{"id":"_xM1bfmPMOU","title":"متى أطلق لسانك بالطلب ، فاعلم أنَّه يُريد أن يعطيك","publishedAt":"2016-11-14T20:39:55Z","duration":"PT15M7S","thumbnail":"https://i.ytimg.com/vi/_xM1bfmPMOU/mqdefault.jpg","viewCount":"19659","playlistId":"PLEkQk5xrP-tkI_meE148wc7V7XHlB0WPb","playlistName":"من الحكم العطائية  د. يسري جبر","category":"متنوع"},{"id":"Vc5Ea7OKFck","title":"أفضل الأعمال في العشر الأوائل من ذي الحجة","publishedAt":"2025-05-26T20:19:42Z","duration":"PT21M48S","thumbnail":"https://i.ytimg.com/vi/Vc5Ea7OKFck/mqdefault.jpg","viewCount":"19597","playlistId":"PLEkQk5xrP-tlArtGpeLWaqNM7h7IDeAVC","playlistName":"خطب الجمعة أ.د. يسري جبر","category":"خطب"},{"id":"VU98_R7tO18","title":"قراءة حزب النصر على أعداء الإسلام والمسلمين","publishedAt":"2023-10-09T16:36:51Z","duration":"PT4M43S","thumbnail":"https://i.ytimg.com/vi/VU98_R7tO18/mqdefault.jpg","viewCount":"19596","playlistId":"PLEkQk5xrP-tm8ZIu74nTOZN9KJUJu416J","playlistName":"مقاطع مُهمَّة (يُسريَّات) أ.د. يسري جبر","category":"متنوع"},{"id":"DDJL-lGtR20","title":"الرسالة القشيرية - المجلس (111) بَابُ كرامات الأولياء ٤ | أ.د. يسري جبر","publishedAt":"2022-02-10T20:05:10Z","duration":"PT51M26S","thumbnail":"https://i.ytimg.com/vi/DDJL-lGtR20/mqdefault.jpg","viewCount":"19594","playlistId":"PLEkQk5xrP-tkHAGOwIKr4pc5ehhyQ5HMJ","playlistName":"كتاب الرسالة القشيرية (تصوف) - د. يسري جبر","category":"تصوف"},{"id":"08Ny88lhi48","title":"!طريقة علاج إدمان المخدرات","publishedAt":"2021-01-21T18:22:00Z","duration":"PT9M24S","thumbnail":"https://i.ytimg.com/vi/08Ny88lhi48/mqdefault.jpg","viewCount":"19531","playlistId":"PLEkQk5xrP-tm8ZIu74nTOZN9KJUJu416J","playlistName":"مقاطع مُهمَّة (يُسريَّات) أ.د. يسري جبر","category":"متنوع"},{"id":"8xROviVH4nM","title":"هل مشايخ الوهابية لهم سند متصل؟","publishedAt":"2021-03-04T19:58:52Z","duration":"PT8M42S","thumbnail":"https://i.ytimg.com/vi/8xROviVH4nM/mqdefault.jpg","viewCount":"19529","playlistId":"PLEkQk5xrP-tm8ZIu74nTOZN9KJUJu416J","playlistName":"مقاطع مُهمَّة (يُسريَّات) أ.د. يسري جبر","category":"متنوع"},{"id":"qOYoWZHOi-A","title":"الرسالة القشيرية - المجلس (114) بَابُ كرامات الأولياء ٧ | أ.د. يسري جبر","publishedAt":"2022-03-01T18:05:28Z","duration":"PT51M51S","thumbnail":"https://i.ytimg.com/vi/qOYoWZHOi-A/mqdefault.jpg","viewCount":"19499","playlistId":"PLEkQk5xrP-tkHAGOwIKr4pc5ehhyQ5HMJ","playlistName":"كتاب الرسالة القشيرية (تصوف) - د. يسري جبر","category":"تصوف"},{"id":"IlIw4GIy4pk","title":"ورد يوم الإثنين بداية بأسماء النَّبيّ ﷺ من كتاب دلائل الخيرات وشوارق الأنوار","publishedAt":"2023-09-04T09:00:09Z","duration":"PT31M5S","thumbnail":"https://i.ytimg.com/vi/IlIw4GIy4pk/mqdefault.jpg","viewCount":"19493","playlistId":"PLEkQk5xrP-tnAXVT9Huen-nNMlvs5w6UI","playlistName":"دلائل الخيرات و شوارق الأنوار في ذكر الصلاة على النَّبيّ المختار ﷺ","category":"تصوف"},{"id":"ZC7NQSRLLnk","title":"النورالدائم - د.يسري جبر","publishedAt":"2015-01-10T18:04:01Z","duration":"PT3M12S","thumbnail":"https://i.ytimg.com/vi/ZC7NQSRLLnk/mqdefault.jpg","viewCount":"19456","playlistId":"PLEkQk5xrP-tm8ZIu74nTOZN9KJUJu416J","playlistName":"مقاطع مُهمَّة (يُسريَّات) أ.د. يسري جبر","category":"متنوع"},{"id":"YUkDvdXyh18","title":"الفرق بين النفس والروح | مع الناس","publishedAt":"2016-04-26T21:54:13Z","duration":"PT4M54S","thumbnail":"https://i.ytimg.com/vi/YUkDvdXyh18/mqdefault.jpg","viewCount":"19331","playlistId":"PLEkQk5xrP-tmJzNvLntpzW0uPanPzxA0c","playlistName":"لقاءات ومحاضرات","category":"متنوع"},{"id":"FX4BsGq5rig","title":"57- كيف تذكر الله بقلبك وما هي أنواع الذكر؟ | شرح منازل السائرين","publishedAt":"2025-01-07T18:15:00Z","duration":"PT30M53S","thumbnail":"https://i.ytimg.com/vi/FX4BsGq5rig/mqdefault.jpg","viewCount":"19324","playlistId":"PLEkQk5xrP-tmiUfQ-2Tsn7QIak4EsvaZW","playlistName":"كتاب التيسير المعين بشرح معاني منازل السائرين (تصوف) - د.يسري جبر","category":"تصوف"},{"id":"CeIy7qhJYLU","title":"كيف تعرف الشيخ المربي؟","publishedAt":"2022-06-18T19:25:13Z","duration":"PT9M1S","thumbnail":"https://i.ytimg.com/vi/CeIy7qhJYLU/mqdefault.jpg","viewCount":"19258","playlistId":"PLEkQk5xrP-tm8ZIu74nTOZN9KJUJu416J","playlistName":"مقاطع مُهمَّة (يُسريَّات) أ.د. يسري جبر","category":"متنوع"}],"total":7675,"page":14,"pageSize":24,"totalPages":320}