{"items":[{"id":"HUbiv3AelvU","title":"تصدير الجملة بضمير مبتدأ يفيد التأكيد - أدوات التوكيد - شرح البرهان في علوم القرآن أ.د. يسري جبر","publishedAt":"2021-01-25T07:17:45Z","duration":"PT25M44S","thumbnail":"https://i.ytimg.com/vi/HUbiv3AelvU/mqdefault.jpg","viewCount":"483","playlistId":"PLEkQk5xrP-tnW3iBL7HkKziOFCFZbTlf0","playlistName":"شرح البرهان في علوم القرآن - أ.د. يسري جبر","category":"تفسير"},{"id":"CP8bch3Efoc","title":"اعتراضُ الشَّرْط على الشَّرْط - الآية الثانية","publishedAt":"2020-12-18T07:03:54Z","duration":"PT29M19S","thumbnail":"https://i.ytimg.com/vi/CP8bch3Efoc/mqdefault.jpg","viewCount":"482","playlistId":"PLEkQk5xrP-tnW3iBL7HkKziOFCFZbTlf0","playlistName":"شرح البرهان في علوم القرآن - أ.د. يسري جبر","category":"تفسير"},{"id":"F-x5RWcozbo","title":"الشَّرْط: القاعدة الثامنة","publishedAt":"2020-12-14T07:47:38Z","duration":"PT17M2S","thumbnail":"https://i.ytimg.com/vi/F-x5RWcozbo/mqdefault.jpg","viewCount":"482","playlistId":"PLEkQk5xrP-tnW3iBL7HkKziOFCFZbTlf0","playlistName":"شرح البرهان في علوم القرآن - أ.د. يسري جبر","category":"تفسير"},{"id":"M0I_qUoZCTI","title":"أمثلة ما قُدّم في آية وأُخّر في أخرى(2) - تكملة أنواع التقديم والتأخير(22) البرهان في علوم القرآن","publishedAt":"2021-10-22T04:07:01Z","duration":"PT17M43S","thumbnail":"https://i.ytimg.com/vi/M0I_qUoZCTI/mqdefault.jpg","viewCount":"482","playlistId":"PLEkQk5xrP-tnW3iBL7HkKziOFCFZbTlf0","playlistName":"شرح البرهان في علوم القرآن - أ.د. يسري جبر","category":"تفسير"},{"id":"TIILTQu0YL8","title":"284- مناسبة الآيات والسور (3) - شرح الإتقان في علوم القرآن","publishedAt":"2025-02-22T07:00:27Z","duration":"PT24M33S","thumbnail":"https://i.ytimg.com/vi/TIILTQu0YL8/mqdefault.jpg","viewCount":"482","playlistId":"PLEkQk5xrP-tlPw10KGJKagu7zm4Ry2Tge","playlistName":"شرح الإتقان في علوم القرآن","category":"تفسير"},{"id":"wve-xsSjMFk","title":"مقرأة سورة المرسلات من أولها","publishedAt":"2019-06-08T09:11:48Z","duration":"PT8M8S","thumbnail":"https://i.ytimg.com/vi/wve-xsSjMFk/mqdefault.jpg","viewCount":"482","playlistId":"PLEkQk5xrP-tnmTYsyW6xNdyfhPq0Bhrhj","playlistName":"مقرأة الفجر - القُرْآنُ الكَرِيمُ - خَتْمَةُ التَّدَبُّرِ  أ.د. يسري جبر","category":"متنوع"},{"id":"mt5yU1ZnMPo","title":"148- حب الأنصار من الإيمان - شرح مسند الإمام أحمد رضي الله تعالى عنه","publishedAt":"2025-01-10T06:30:19Z","duration":"PT6M7S","thumbnail":"https://i.ytimg.com/vi/mt5yU1ZnMPo/mqdefault.jpg","viewCount":"482","playlistId":"PLEkQk5xrP-tkKprIuGrSdEuBSMsyg5We1","playlistName":"شرح مسند الإمام أحمد بن حنبل","category":"متنوع"},{"id":"HG2SMKI3mPM","title":"مقرأة سورة المزمل من آية ٢٠","publishedAt":"2019-05-26T10:02:39Z","duration":"PT8M59S","thumbnail":"https://i.ytimg.com/vi/HG2SMKI3mPM/mqdefault.jpg","viewCount":"482","playlistId":"PLEkQk5xrP-tnmTYsyW6xNdyfhPq0Bhrhj","playlistName":"مقرأة الفجر - القُرْآنُ الكَرِيمُ - خَتْمَةُ التَّدَبُّرِ  أ.د. يسري جبر","category":"متنوع"},{"id":"t1TXJAgi_RQ","title":"601- (لا) النَّافية - شرح البرهان في علوم القرآن","publishedAt":"2022-11-22T05:00:33Z","duration":"PT25M59S","thumbnail":"https://i.ytimg.com/vi/t1TXJAgi_RQ/mqdefault.jpg","viewCount":"482","playlistId":"PLEkQk5xrP-tnW3iBL7HkKziOFCFZbTlf0","playlistName":"شرح البرهان في علوم القرآن - أ.د. يسري جبر","category":"تفسير"},{"id":"WwobCrcHaNE","title":"563- حروف المعاني(24): الحرف(24) (الباء) - شرح البرهان في علوم القرآن","publishedAt":"2022-09-27T06:15:03Z","duration":"PT36M","thumbnail":"https://i.ytimg.com/vi/WwobCrcHaNE/mqdefault.jpg","viewCount":"482","playlistId":"PLEkQk5xrP-tnW3iBL7HkKziOFCFZbTlf0","playlistName":"شرح البرهان في علوم القرآن - أ.د. يسري جبر","category":"تفسير"},{"id":"zIyPEtPuXyE","title":"شرح صحيح البخاري كتاب الاعتصام بالكتاب والسنة من باب ٧","publishedAt":"2019-01-25T14:55:37Z","duration":"PT29M25S","thumbnail":"https://i.ytimg.com/vi/zIyPEtPuXyE/mqdefault.jpg","viewCount":"481","playlistId":"PLEkQk5xrP-tlEerGoLa1AFy-2XvQ-sovv","playlistName":"شرح صحيح البخاري - أ.د. يسري جبر (كاملا)","category":"حديث"},{"id":"gfHyv3O5zlo","title":"مقرأة سورة النازعات من آية ٣٤","publishedAt":"2019-06-17T20:50:52Z","duration":"PT10M19S","thumbnail":"https://i.ytimg.com/vi/gfHyv3O5zlo/mqdefault.jpg","viewCount":"481","playlistId":"PLEkQk5xrP-tnmTYsyW6xNdyfhPq0Bhrhj","playlistName":"مقرأة الفجر - القُرْآنُ الكَرِيمُ - خَتْمَةُ التَّدَبُّرِ  أ.د. يسري جبر","category":"متنوع"},{"id":"dxRonZbvO4A","title":"شرح صحيح البخاري كتاب الرقاق من باب ٤٤","publishedAt":"2018-11-01T20:06:19Z","duration":"PT32M23S","thumbnail":"https://i.ytimg.com/vi/dxRonZbvO4A/mqdefault.jpg","viewCount":"481","playlistId":"PLEkQk5xrP-tlEerGoLa1AFy-2XvQ-sovv","playlistName":"شرح صحيح البخاري - أ.د. يسري جبر (كاملا)","category":"حديث"},{"id":"FNfG8FAhn9A","title":"المجلس الخامس عشر من الحديث (١٦٠) حديث إسراء النبي صلى الله عليه وآله وسلم ومعراجه أ. د. يسري جبر","publishedAt":"2019-05-10T15:04:26Z","duration":"PT15M8S","thumbnail":"https://i.ytimg.com/vi/FNfG8FAhn9A/mqdefault.jpg","viewCount":"481","playlistId":"PLEkQk5xrP-tnl7vb7KeAoPd5ZlqKKW8KV","playlistName":"شرح كتاب بهجة النفوس أ.د . يسرى جبر","category":"متنوع"},{"id":"86rdArhGnsI","title":"99- غريب القرآن (14) - شرح الإتقان في علوم القرآن","publishedAt":"2023-06-12T05:00:07Z","duration":"PT27M19S","thumbnail":"https://i.ytimg.com/vi/86rdArhGnsI/mqdefault.jpg","viewCount":"481","playlistId":"PLEkQk5xrP-tlPw10KGJKagu7zm4Ry2Tge","playlistName":"شرح الإتقان في علوم القرآن","category":"تفسير"},{"id":"B-YuznMUHfU","title":"قراءة وتفسير القرآن (من آية ١٦٩ سورة آل عمران)","publishedAt":"2016-08-03T05:49:44Z","duration":"PT8M47S","thumbnail":"https://i.ytimg.com/vi/B-YuznMUHfU/mqdefault.jpg","viewCount":"481","playlistId":"PLEkQk5xrP-tnmTYsyW6xNdyfhPq0Bhrhj","playlistName":"مقرأة الفجر - القُرْآنُ الكَرِيمُ - خَتْمَةُ التَّدَبُّرِ  أ.د. يسري جبر","category":"متنوع"},{"id":"otp-gCH9W6Y","title":"النوع الثاني: قلب المعطوف - البرهان في علوم القرآن","publishedAt":"2021-10-26T03:44:55Z","duration":"PT7M28S","thumbnail":"https://i.ytimg.com/vi/otp-gCH9W6Y/mqdefault.jpg","viewCount":"481","playlistId":"PLEkQk5xrP-tnW3iBL7HkKziOFCFZbTlf0","playlistName":"شرح البرهان في علوم القرآن - أ.د. يسري جبر","category":"تفسير"},{"id":"ttEDtbySDo4","title":"قراءة القرآن (من آية ٩٣ سورة آل عمران)","publishedAt":"2016-07-14T13:04:40Z","duration":"PT13M36S","thumbnail":"https://i.ytimg.com/vi/ttEDtbySDo4/mqdefault.jpg","viewCount":"480","playlistId":"PLEkQk5xrP-tnmTYsyW6xNdyfhPq0Bhrhj","playlistName":"مقرأة الفجر - القُرْآنُ الكَرِيمُ - خَتْمَةُ التَّدَبُّرِ  أ.د. يسري جبر","category":"متنوع"},{"id":"oGncqwg994o","title":"تكملة ما جاء في النوع 43 في بيان حقيقته ومجازه","publishedAt":"2020-10-14T08:58:24Z","duration":"PT17M2S","thumbnail":"https://i.ytimg.com/vi/oGncqwg994o/mqdefault.jpg","viewCount":"479","playlistId":"PLEkQk5xrP-tnW3iBL7HkKziOFCFZbTlf0","playlistName":"شرح البرهان في علوم القرآن - أ.د. يسري جبر","category":"تفسير"},{"id":"vIl9lR2l2Rk","title":"شرح صحيح البخاري كتاب التفسير فى سورة الجمعة والمنافقون من أولها","publishedAt":"2018-04-26T20:13:10Z","duration":"PT41M19S","thumbnail":"https://i.ytimg.com/vi/vIl9lR2l2Rk/mqdefault.jpg","viewCount":"479","playlistId":"PLEkQk5xrP-tlEerGoLa1AFy-2XvQ-sovv","playlistName":"شرح صحيح البخاري - أ.د. يسري جبر (كاملا)","category":"حديث"},{"id":"kNRc4VBNiwA","title":"الاختزال (37) حذف الحرف (5) فائدة في حذف الجارّ - شرح البرهان في علوم القرآن","publishedAt":"2021-08-31T05:40:50Z","duration":"PT37M12S","thumbnail":"https://i.ytimg.com/vi/kNRc4VBNiwA/mqdefault.jpg","viewCount":"479","playlistId":"PLEkQk5xrP-tnW3iBL7HkKziOFCFZbTlf0","playlistName":"شرح البرهان في علوم القرآن - أ.د. يسري جبر","category":"تفسير"},{"id":"Se7U0i6BziE","title":"شرح صحيح البخاري كتاب التفسير فى سورة آل عمران من باب ٤","publishedAt":"2018-03-14T14:51:36Z","duration":"PT22M17S","thumbnail":"https://i.ytimg.com/vi/Se7U0i6BziE/mqdefault.jpg","viewCount":"479","playlistId":"PLEkQk5xrP-tlEerGoLa1AFy-2XvQ-sovv","playlistName":"شرح صحيح البخاري - أ.د. يسري جبر (كاملا)","category":"حديث"},{"id":"Gx_lETe_yKo","title":"شرح صحيح البخاري كتاب التعبير من باب ٦","publishedAt":"2018-12-22T21:31:05Z","duration":"PT21M18S","thumbnail":"https://i.ytimg.com/vi/Gx_lETe_yKo/mqdefault.jpg","viewCount":"479","playlistId":"PLEkQk5xrP-tlEerGoLa1AFy-2XvQ-sovv","playlistName":"شرح صحيح البخاري - أ.د. يسري جبر (كاملا)","category":"حديث"},{"id":"ZsgSM4d6Qts","title":"سورة النساء آية 44","publishedAt":"2016-08-23T06:44:21Z","duration":"PT20M47S","thumbnail":"https://i.ytimg.com/vi/ZsgSM4d6Qts/mqdefault.jpg","viewCount":"479","playlistId":"PLEkQk5xrP-tnmTYsyW6xNdyfhPq0Bhrhj","playlistName":"مقرأة الفجر - القُرْآنُ الكَرِيمُ - خَتْمَةُ التَّدَبُّرِ  أ.د. يسري جبر","category":"متنوع"}],"total":7670,"page":231,"pageSize":24,"totalPages":320}