{"items":[{"id":"MqJxV5cvt0k","title":"سُهُولِةِ الوِلايَةِ وَالعِلْمِ وَالإِجِازِةِ عَن بُعْد","publishedAt":"2015-06-28T18:03:01Z","duration":"PT4M53S","thumbnail":"https://i.ytimg.com/vi/MqJxV5cvt0k/mqdefault.jpg","viewCount":"9216","playlistId":"PLEkQk5xrP-tm8ZIu74nTOZN9KJUJu416J","playlistName":"مقاطع مُهمَّة (يُسريَّات) أ.د. يسري جبر","category":"متنوع"},{"id":"3ZPrwr-dtM4","title":"شرح صلاة المُتَرَدِّي   د. يسري جبر","publishedAt":"2017-01-18T17:32:18Z","duration":"PT17M47S","thumbnail":"https://i.ytimg.com/vi/3ZPrwr-dtM4/mqdefault.jpg","viewCount":"9206","playlistId":"PLEkQk5xrP-tm8ZIu74nTOZN9KJUJu416J","playlistName":"مقاطع مُهمَّة (يُسريَّات) أ.د. يسري جبر","category":"متنوع"},{"id":"RY_Q4KCDNHE","title":"الرسالة القشيرية - المجلس الثاني عشر (باب في ذكر مشايخ هذه الطريقة - المجلس الرابع)","publishedAt":"2018-02-22T18:06:32Z","duration":"PT54M54S","thumbnail":"https://i.ytimg.com/vi/RY_Q4KCDNHE/mqdefault.jpg","viewCount":"9203","playlistId":"PLEkQk5xrP-tkHAGOwIKr4pc5ehhyQ5HMJ","playlistName":"كتاب الرسالة القشيرية (تصوف) - د. يسري جبر","category":"تصوف"},{"id":"fZ_fTtDobdA","title":"الأدب حال الكشف","publishedAt":"2020-09-08T18:54:28Z","duration":"PT9M8S","thumbnail":"https://i.ytimg.com/vi/fZ_fTtDobdA/mqdefault.jpg","viewCount":"9200","playlistId":"PLEkQk5xrP-tm8ZIu74nTOZN9KJUJu416J","playlistName":"مقاطع مُهمَّة (يُسريَّات) أ.د. يسري جبر","category":"متنوع"},{"id":"PdDMo4K_oYQ","title":"الافتقار إلى الله هو أصل الطريق  د. يسري جبر","publishedAt":"2018-09-30T18:47:09Z","duration":"PT13M59S","thumbnail":"https://i.ytimg.com/vi/PdDMo4K_oYQ/mqdefault.jpg","viewCount":"9184","playlistId":"PLEkQk5xrP-tnzc5Igd5ZE8_G2H6afJ4L5","playlistName":"مجالس رحلة سيدي أبي الحسن الشاذلي رضي الله تعالى عنه.","category":"متنوع"},{"id":"E1B-ZSCAt8A","title":"شرح كتاب بهجة النفوس - المجلس الأول","publishedAt":"2020-04-23T20:00:12Z","duration":"PT40M48S","thumbnail":"https://i.ytimg.com/vi/E1B-ZSCAt8A/mqdefault.jpg","viewCount":"9171","playlistId":"PLEkQk5xrP-tlyEB2iywk4VchTQROnBrU6","playlistName":"بهجة النفوس من أوله  أ.د. يسري جبر","category":"متنوع"},{"id":"2-gBTq8oEPY","title":"شرح كتاب نور اليقين في سيرة سيد المرسلين - المجلس 56 (الوفود) د.يسري جبر","publishedAt":"2018-08-04T00:48:18Z","duration":"PT50M36S","thumbnail":"https://i.ytimg.com/vi/2-gBTq8oEPY/mqdefault.jpg","viewCount":"9150","playlistId":"PLEkQk5xrP-tl2t4NQx1IhKnAJCMzF0Nli","playlistName":"شرح كتاب نور اليقين في سيرة سيد المرسلين   د. يسري جبر","category":"سيرة"},{"id":"hST8DOv5UOA","title":"حلاوة الذكر","publishedAt":"2020-09-11T19:00:08Z","duration":"PT2M44S","thumbnail":"https://i.ytimg.com/vi/hST8DOv5UOA/mqdefault.jpg","viewCount":"9140","playlistId":"PLEkQk5xrP-tm8ZIu74nTOZN9KJUJu416J","playlistName":"مقاطع مُهمَّة (يُسريَّات) أ.د. يسري جبر","category":"متنوع"},{"id":"i7puLmXOIio","title":"فضل زيارة الأولياء  د. يسري جبر","publishedAt":"2018-09-30T14:35:05Z","duration":"PT5M16S","thumbnail":"https://i.ytimg.com/vi/i7puLmXOIio/mqdefault.jpg","viewCount":"9134","playlistId":"PLEkQk5xrP-tnzc5Igd5ZE8_G2H6afJ4L5","playlistName":"مجالس رحلة سيدي أبي الحسن الشاذلي رضي الله تعالى عنه.","category":"متنوع"},{"id":"39rZZqUtdQc","title":"هل يجوز ذكر الله أثناء التصفح على الانترنت؟","publishedAt":"2023-12-09T18:42:32Z","duration":"PT8M30S","thumbnail":"https://i.ytimg.com/vi/39rZZqUtdQc/mqdefault.jpg","viewCount":"9126","playlistId":"PLEkQk5xrP-tkGXuZ9atE3k_7it12rUPTs","playlistName":"أسئلة المتابعين","category":"متنوع"},{"id":"fGJsx9pESew","title":"لماذا نحتفل بمولد النبي ﷺ وهل الاحتفال بدعة؟","publishedAt":"2025-08-26T17:30:12Z","duration":"PT21M27S","thumbnail":"https://i.ytimg.com/vi/fGJsx9pESew/mqdefault.jpg","viewCount":"9117","playlistId":"PLEkQk5xrP-tlArtGpeLWaqNM7h7IDeAVC","playlistName":"خطب الجمعة أ.د. يسري جبر","category":"خطب"},{"id":"wzLk7rf18xc","title":"13- هل يمكننا رؤية الله يوم القيامة؟ | شرح مختصر الفتوحات المكية","publishedAt":"2024-04-14T18:18:39Z","duration":"PT53M31S","thumbnail":"https://i.ytimg.com/vi/wzLk7rf18xc/mqdefault.jpg","viewCount":"9105","playlistId":"PLEkQk5xrP-tnpkdZki6rPTtMak1bnI5g-","playlistName":"شرح كتاب مختصر الفتوحات المكية المسمى لواقح الأنوار القدسية","category":"متنوع"},{"id":"R69gCmC-Jb0","title":"هل فوائد شهادات الاستثمار حلال؟","publishedAt":"2022-12-17T18:00:14Z","duration":"PT10M30S","thumbnail":"https://i.ytimg.com/vi/R69gCmC-Jb0/mqdefault.jpg","viewCount":"9094","playlistId":"PLEkQk5xrP-tkGXuZ9atE3k_7it12rUPTs","playlistName":"أسئلة المتابعين","category":"متنوع"},{"id":"dotMxIOoosI","title":"ماذا حدث في رحلة أوروبا والعراق؟","publishedAt":"2024-02-27T18:00:31Z","duration":"PT13M34S","thumbnail":"https://i.ytimg.com/vi/dotMxIOoosI/mqdefault.jpg","viewCount":"9084","playlistId":"PLEkQk5xrP-tm8ZIu74nTOZN9KJUJu416J","playlistName":"مقاطع مُهمَّة (يُسريَّات) أ.د. يسري جبر","category":"متنوع"},{"id":"Drp9JH7JraI","title":"من الفوائد اليسرية فى كيفية صلاة الله وملائكته على خير البرية","publishedAt":"2015-01-05T20:00:34Z","duration":"PT4M45S","thumbnail":"https://i.ytimg.com/vi/Drp9JH7JraI/mqdefault.jpg","viewCount":"9084","playlistId":"PLEkQk5xrP-tm8ZIu74nTOZN9KJUJu416J","playlistName":"مقاطع مُهمَّة (يُسريَّات) أ.د. يسري جبر","category":"متنوع"},{"id":"9LJDxqX9a9o","title":"بشوف أشياء غريبة وخايفة يكون جن ,, ماذا أفعل؟","publishedAt":"2021-06-27T18:55:25Z","duration":"PT10M5S","thumbnail":"https://i.ytimg.com/vi/9LJDxqX9a9o/mqdefault.jpg","viewCount":"9081","playlistId":"PLEkQk5xrP-tm8ZIu74nTOZN9KJUJu416J","playlistName":"مقاطع مُهمَّة (يُسريَّات) أ.د. يسري جبر","category":"متنوع"},{"id":"fWben66GGSg","title":"برنامج - عصمة الأنبياء - الحلقة الأولى - مفهوم العصمة - @alerthTV","publishedAt":"2016-03-19T16:17:13Z","duration":"PT23M30S","thumbnail":"https://i.ytimg.com/vi/fWben66GGSg/mqdefault.jpg","viewCount":"9073","playlistId":"PLEkQk5xrP-tnBp9yUT_R2vtqSPOlcyAZe","playlistName":"برنامج - عصمة الأنبياء","category":"متنوع"},{"id":"Ywn5QSY1now","title":"أين الله؟ | أ.د. يسري جبر","publishedAt":"2021-06-07T20:00:05Z","duration":"PT15M5S","thumbnail":"https://i.ytimg.com/vi/Ywn5QSY1now/mqdefault.jpg","viewCount":"9066","playlistId":"PLEkQk5xrP-tlArtGpeLWaqNM7h7IDeAVC","playlistName":"خطب الجمعة أ.د. يسري جبر","category":"خطب"},{"id":"poc9MZ2Sz-c","title":"سبحان من لم يجعل الدليل على أوليائه إلا من حيث الدليل عليه، ولم يوصل إليهم إلا من أراد أن يوصله إليه","publishedAt":"2017-04-11T19:28:12Z","duration":"PT13M34S","thumbnail":"https://i.ytimg.com/vi/poc9MZ2Sz-c/mqdefault.jpg","viewCount":"9045","playlistId":"PLEkQk5xrP-tkI_meE148wc7V7XHlB0WPb","playlistName":"من الحكم العطائية  د. يسري جبر","category":"متنوع"},{"id":"11jz1O1G7K8","title":"بكاء النبي صلى الله عليه وسلم عند وفاة ابنه إبراهيم | اعرف نبيك","publishedAt":"2015-08-26T15:22:06Z","duration":"PT7M6S","thumbnail":"https://i.ytimg.com/vi/11jz1O1G7K8/mqdefault.jpg","viewCount":"9036","playlistId":"PLEkQk5xrP-tl6Mu_Mz3QMUSv5T6XBH-Dg","playlistName":"برنامج اعرف نبيك","category":"متنوع"},{"id":"ePWz15Pqg3U","title":"ذكرى ميلاد سيدنا الحسين -رضي الله عنه- وقصة استشهاده","publishedAt":"2021-11-29T18:47:21Z","duration":"PT16M47S","thumbnail":"https://i.ytimg.com/vi/ePWz15Pqg3U/mqdefault.jpg","viewCount":"9026","playlistId":"PLEkQk5xrP-tlArtGpeLWaqNM7h7IDeAVC","playlistName":"خطب الجمعة أ.د. يسري جبر","category":"خطب"},{"id":"nfeAZGWnc6s","title":"صلوات اليوم الثاني أ.د. يسري جبر","publishedAt":"2015-03-05T19:53:10Z","duration":"PT16M25S","thumbnail":"https://i.ytimg.com/vi/nfeAZGWnc6s/mqdefault.jpg","viewCount":"9007","playlistId":"PLEkQk5xrP-tmuP5s2o33O9gAOC4ACxsma","playlistName":"صَلَواتُ الأَسْمَاءِ الْحُسْنَى شَرْحُ الصَّلَواتِ الْيُسْرِيَّةِ عَلَى خَيرِ الْبَرِيَّةِ  أ.د. يسرى جبر","category":"متنوع"},{"id":"fL0MTNIEla8","title":"كيف أتقنت عملك في الطب مع دراسة العلم الشرعي؟","publishedAt":"2022-10-22T18:00:30Z","duration":"PT14M28S","thumbnail":"https://i.ytimg.com/vi/fL0MTNIEla8/mqdefault.jpg","viewCount":"8997","playlistId":"PLEkQk5xrP-tl6tFiMFGUucCTvLgnWyAfz","playlistName":"حياة الأستاذ الدكتور يسري جبر","category":"متنوع"},{"id":"po-x2WEfE1o","title":"كيف أطلب شيئا من الله وأنا عاصٍ؟","publishedAt":"2021-07-11T17:30:02Z","duration":"PT11M32S","thumbnail":"https://i.ytimg.com/vi/po-x2WEfE1o/mqdefault.jpg","viewCount":"8989","playlistId":"PLEkQk5xrP-tkGXuZ9atE3k_7it12rUPTs","playlistName":"أسئلة المتابعين","category":"متنوع"}],"total":7670,"page":34,"pageSize":24,"totalPages":320}