{"items":[{"id":"PvCkTzCk17Y","title":"67- كيفية جمع الصلاة للمسافر وصلاته في السفينة واستقبال القبلة | شرح سنن الإمام الدارقطني","publishedAt":"2025-11-16T10:30:27Z","duration":"PT33M15S","thumbnail":"https://i.ytimg.com/vi/PvCkTzCk17Y/mqdefault.jpg","viewCount":"470","playlistId":"PLEkQk5xrP-tk_MCBZ706ORCw6gFtFyaGj","playlistName":"شرح سنن الإمام الدارقطني","category":"متنوع"},{"id":"4MOVey1KE8A","title":"الجِنَاسُ مِنَ المَحَاسِنِ اللّفْظِيَّةِ لا المَعنَويَّة - شرح البرهان في علوم القرآن","publishedAt":"2022-02-23T11:10:23Z","duration":"PT15M58S","thumbnail":"https://i.ytimg.com/vi/4MOVey1KE8A/mqdefault.jpg","viewCount":"470","playlistId":"PLEkQk5xrP-tnW3iBL7HkKziOFCFZbTlf0","playlistName":"شرح البرهان في علوم القرآن - أ.د. يسري جبر","category":"تفسير"},{"id":"-uTb_ermtF0","title":"شرح سنن الدارمي كتاب النكاح من باب ٣٦","publishedAt":"2019-08-11T08:51:06Z","duration":"PT33M43S","thumbnail":"https://i.ytimg.com/vi/-uTb_ermtF0/mqdefault.jpg","viewCount":"470","playlistId":"PLEkQk5xrP-tmAg-FuWjY057X_h5NmGmAa","playlistName":"شرح سنن الدارمي - أ.د. يسري جبر (كاملا)","category":"متنوع"},{"id":"dKTq64PdPnQ","title":"سورة النساء آية 65","publishedAt":"2016-08-28T20:24:58Z","duration":"PT10M49S","thumbnail":"https://i.ytimg.com/vi/dKTq64PdPnQ/mqdefault.jpg","viewCount":"469","playlistId":"PLEkQk5xrP-tnmTYsyW6xNdyfhPq0Bhrhj","playlistName":"مقرأة الفجر - القُرْآنُ الكَرِيمُ - خَتْمَةُ التَّدَبُّرِ  أ.د. يسري جبر","category":"متنوع"},{"id":"SMy1iSZIbDA","title":"سورة الأنعام آية 65","publishedAt":"2016-12-12T18:23:29Z","duration":"PT32M10S","thumbnail":"https://i.ytimg.com/vi/SMy1iSZIbDA/mqdefault.jpg","viewCount":"469","playlistId":"PLEkQk5xrP-tnmTYsyW6xNdyfhPq0Bhrhj","playlistName":"مقرأة الفجر - القُرْآنُ الكَرِيمُ - خَتْمَةُ التَّدَبُّرِ  أ.د. يسري جبر","category":"متنوع"},{"id":"q7xcwr2OIw8","title":"73- شرح اللؤلؤ والمرجان كتاب الحج من الباب الثامن والستّين","publishedAt":"2020-02-21T06:00:06Z","duration":"PT36M8S","thumbnail":"https://i.ytimg.com/vi/q7xcwr2OIw8/mqdefault.jpg","viewCount":"469","playlistId":"PLEkQk5xrP-tmKNjtYLfhATC37QdIsTMe0","playlistName":"شرح كتاب اللؤلؤ والمرجان فيما اتفق عليه الشيخان إماما المحدثين البخاري ومسلم. أ.د. يسري جبر","category":"حديث"},{"id":"DPUinPBezm0","title":"مقرأة سورة النجم من آية ٢٦","publishedAt":"2019-02-16T17:37:37Z","duration":"PT14M48S","thumbnail":"https://i.ytimg.com/vi/DPUinPBezm0/mqdefault.jpg","viewCount":"469","playlistId":"PLEkQk5xrP-tnmTYsyW6xNdyfhPq0Bhrhj","playlistName":"مقرأة الفجر - القُرْآنُ الكَرِيمُ - خَتْمَةُ التَّدَبُّرِ  أ.د. يسري جبر","category":"متنوع"},{"id":"pSES5y_7PF4","title":"مقرأة سورة النجم من آية ١٩","publishedAt":"2019-02-14T14:40:32Z","duration":"PT11M52S","thumbnail":"https://i.ytimg.com/vi/pSES5y_7PF4/mqdefault.jpg","viewCount":"469","playlistId":"PLEkQk5xrP-tnmTYsyW6xNdyfhPq0Bhrhj","playlistName":"مقرأة الفجر - القُرْآنُ الكَرِيمُ - خَتْمَةُ التَّدَبُّرِ  أ.د. يسري جبر","category":"متنوع"},{"id":"zA40fsFy6iI","title":"شرح صحيح البخاري كتاب الإعتصام بالكتاب والسنة من باب ٤","publishedAt":"2019-01-23T09:57:34Z","duration":"PT32M11S","thumbnail":"https://i.ytimg.com/vi/zA40fsFy6iI/mqdefault.jpg","viewCount":"469","playlistId":"PLEkQk5xrP-tlEerGoLa1AFy-2XvQ-sovv","playlistName":"شرح صحيح البخاري - أ.د. يسري جبر (كاملا)","category":"حديث"},{"id":"z3ICzL8cDyk","title":"مقرأة سورة الرعد من آية ٢٥","publishedAt":"2017-07-22T11:02:50Z","duration":"PT22M52S","thumbnail":"https://i.ytimg.com/vi/z3ICzL8cDyk/mqdefault.jpg","viewCount":"469","playlistId":"PLEkQk5xrP-tnmTYsyW6xNdyfhPq0Bhrhj","playlistName":"مقرأة الفجر - القُرْآنُ الكَرِيمُ - خَتْمَةُ التَّدَبُّرِ  أ.د. يسري جبر","category":"متنوع"},{"id":"h7Cj6VwuOd0","title":"سورة التوبة آية 16","publishedAt":"2017-03-31T04:42:00Z","duration":"PT18M2S","thumbnail":"https://i.ytimg.com/vi/h7Cj6VwuOd0/mqdefault.jpg","viewCount":"469","playlistId":"PLEkQk5xrP-tnmTYsyW6xNdyfhPq0Bhrhj","playlistName":"مقرأة الفجر - القُرْآنُ الكَرِيمُ - خَتْمَةُ التَّدَبُّرِ  أ.د. يسري جبر","category":"متنوع"},{"id":"CkSrOYu1eQA","title":"مقرأة سورة الحجرات من آية ١١","publishedAt":"2019-01-27T22:15:58Z","duration":"PT25M21S","thumbnail":"https://i.ytimg.com/vi/CkSrOYu1eQA/mqdefault.jpg","viewCount":"469","playlistId":"PLEkQk5xrP-tnmTYsyW6xNdyfhPq0Bhrhj","playlistName":"مقرأة الفجر - القُرْآنُ الكَرِيمُ - خَتْمَةُ التَّدَبُّرِ  أ.د. يسري جبر","category":"متنوع"},{"id":"X9LFxvbJ-wc","title":"شرح صحيح البخاري كتاب الإعتصام بالكتاب والسنة من باب ٣","publishedAt":"2019-01-21T21:35:03Z","duration":"PT41M23S","thumbnail":"https://i.ytimg.com/vi/X9LFxvbJ-wc/mqdefault.jpg","viewCount":"469","playlistId":"PLEkQk5xrP-tlEerGoLa1AFy-2XvQ-sovv","playlistName":"شرح صحيح البخاري - أ.د. يسري جبر (كاملا)","category":"حديث"},{"id":"Uk4GSRkE-Q8","title":"مقرأة سورة المجادلة من آية ٥","publishedAt":"2019-03-26T11:01:09Z","duration":"PT14M47S","thumbnail":"https://i.ytimg.com/vi/Uk4GSRkE-Q8/mqdefault.jpg","viewCount":"469","playlistId":"PLEkQk5xrP-tnmTYsyW6xNdyfhPq0Bhrhj","playlistName":"مقرأة الفجر - القُرْآنُ الكَرِيمُ - خَتْمَةُ التَّدَبُّرِ  أ.د. يسري جبر","category":"متنوع"},{"id":"Lp60RAi2zIk","title":"شرح كتاب الأذكار من كلام سيد الأبرار للإمام النووى رضى الله عنه - المجلس الخامس عشر","publishedAt":"2015-04-12T21:11:45Z","duration":"PT21M11S","thumbnail":"https://i.ytimg.com/vi/Lp60RAi2zIk/mqdefault.jpg","viewCount":"469","playlistId":"PLEkQk5xrP-tkWS57Ubysh0ifJR8dmuEtE","playlistName":"شرح كتاب الأذكار للإمام النووي د. يسرى جبر","category":"حديث"},{"id":"Lxu2BfJCmAo","title":"إطلاق الفعل والمراد مقاربته ومشارفته لا حقيقته","publishedAt":"2020-10-28T08:08:43Z","duration":"PT14M31S","thumbnail":"https://i.ytimg.com/vi/Lxu2BfJCmAo/mqdefault.jpg","viewCount":"468","playlistId":"PLEkQk5xrP-tnW3iBL7HkKziOFCFZbTlf0","playlistName":"شرح البرهان في علوم القرآن - أ.د. يسري جبر","category":"تفسير"},{"id":"1uVes5zxfR0","title":"أسماء الاستفهام","publishedAt":"2020-11-28T10:37:45Z","duration":"PT25M55S","thumbnail":"https://i.ytimg.com/vi/1uVes5zxfR0/mqdefault.jpg","viewCount":"468","playlistId":"PLEkQk5xrP-tnW3iBL7HkKziOFCFZbTlf0","playlistName":"شرح البرهان في علوم القرآن - أ.د. يسري جبر","category":"تفسير"},{"id":"gvA1FpHDsZA","title":"الأسلوب السابع: الاختصاص - شرح البرهان في علوم القرآن","publishedAt":"2021-10-28T04:15:03Z","duration":"PT8M20S","thumbnail":"https://i.ytimg.com/vi/gvA1FpHDsZA/mqdefault.jpg","viewCount":"468","playlistId":"PLEkQk5xrP-tnW3iBL7HkKziOFCFZbTlf0","playlistName":"شرح البرهان في علوم القرآن - أ.د. يسري جبر","category":"تفسير"},{"id":"4rVTdVGeOc0","title":"مقرأة سورة الإسراء من آية ٨٠","publishedAt":"2017-10-05T13:44:00Z","duration":"PT7M","thumbnail":"https://i.ytimg.com/vi/4rVTdVGeOc0/mqdefault.jpg","viewCount":"468","playlistId":"PLEkQk5xrP-tnmTYsyW6xNdyfhPq0Bhrhj","playlistName":"مقرأة الفجر - القُرْآنُ الكَرِيمُ - خَتْمَةُ التَّدَبُّرِ  أ.د. يسري جبر","category":"متنوع"},{"id":"WEyyffSzl84","title":"شرح صحيح البخاري كتاب المغازي تكملة باب ٣٠","publishedAt":"2019-03-10T20:44:19Z","duration":"PT36M37S","thumbnail":"https://i.ytimg.com/vi/WEyyffSzl84/mqdefault.jpg","viewCount":"468","playlistId":"PLEkQk5xrP-tlEerGoLa1AFy-2XvQ-sovv","playlistName":"شرح صحيح البخاري - أ.د. يسري جبر (كاملا)","category":"حديث"},{"id":"uGfqu0_BVh4","title":"شرح سنن الدارمي كتاب الطهارة من باب ٤٤","publishedAt":"2019-04-08T20:21:58Z","duration":"PT35M33S","thumbnail":"https://i.ytimg.com/vi/uGfqu0_BVh4/mqdefault.jpg","viewCount":"467","playlistId":"PLEkQk5xrP-tmAg-FuWjY057X_h5NmGmAa","playlistName":"شرح سنن الدارمي - أ.د. يسري جبر (كاملا)","category":"متنوع"},{"id":"hPQUWfbcQyM","title":"مقرأة سورة طه من آية ٩","publishedAt":"2017-11-21T19:11:45Z","duration":"PT17M55S","thumbnail":"https://i.ytimg.com/vi/hPQUWfbcQyM/mqdefault.jpg","viewCount":"467","playlistId":"PLEkQk5xrP-tnmTYsyW6xNdyfhPq0Bhrhj","playlistName":"مقرأة الفجر - القُرْآنُ الكَرِيمُ - خَتْمَةُ التَّدَبُّرِ  أ.د. يسري جبر","category":"متنوع"},{"id":"jzLcmEUao08","title":"شرح صحيح البخاري كتاب الدعوات (الاستعاذة من أرذل العمر ومن فتنة الدنيا)المجلس السادس د.يسري جبر","publishedAt":"2017-05-14T15:20:43Z","duration":"PT44M4S","thumbnail":"https://i.ytimg.com/vi/jzLcmEUao08/mqdefault.jpg","viewCount":"467","playlistId":"PLEkQk5xrP-tmJuzaj4GWRenFoFx9gdbFX","playlistName":"شرح كتاب صحيح الإمام البخاري رضي الله تعالى عنه   أ.د. يسرى جبر","category":"حديث"},{"id":"w_TD5cHtdm0","title":"مقرأة سورة الصافات من آية ٢٠","publishedAt":"2018-09-14T17:20:49Z","duration":"PT30M36S","thumbnail":"https://i.ytimg.com/vi/w_TD5cHtdm0/mqdefault.jpg","viewCount":"467","playlistId":"PLEkQk5xrP-tnmTYsyW6xNdyfhPq0Bhrhj","playlistName":"مقرأة الفجر - القُرْآنُ الكَرِيمُ - خَتْمَةُ التَّدَبُّرِ  أ.د. يسري جبر","category":"متنوع"}],"total":7670,"page":234,"pageSize":24,"totalPages":320}