{"items":[{"id":"GmezkYISVf0","title":"58 - كتاب الفرائض ك الموطأ د يسري جبر الأزهري","publishedAt":"2017-09-17T15:34:24Z","duration":"PT58M53S","thumbnail":"https://i.ytimg.com/vi/GmezkYISVf0/mqdefault.jpg","viewCount":"354","playlistId":"PLEkQk5xrP-tnC6BRuqMjyO-484iqXeg0o","playlistName":"شرح كتاب الموطأ للإمام مالك","category":"متنوع"},{"id":"5Lxg5cSli24","title":"شرح سنن الدارمي كتاب الزكاة من أوله","publishedAt":"2019-06-05T23:48:14Z","duration":"PT23M31S","thumbnail":"https://i.ytimg.com/vi/5Lxg5cSli24/mqdefault.jpg","viewCount":"354","playlistId":"PLEkQk5xrP-tmAg-FuWjY057X_h5NmGmAa","playlistName":"شرح سنن الدارمي - أ.د. يسري جبر (كاملا)","category":"متنوع"},{"id":"DDben9eKBO4","title":"سورة هود آية 25","publishedAt":"2017-06-01T21:35:11Z","duration":"PT30M8S","thumbnail":"https://i.ytimg.com/vi/DDben9eKBO4/mqdefault.jpg","viewCount":"354","playlistId":"PLEkQk5xrP-tnmTYsyW6xNdyfhPq0Bhrhj","playlistName":"مقرأة الفجر - القُرْآنُ الكَرِيمُ - خَتْمَةُ التَّدَبُّرِ  أ.د. يسري جبر","category":"متنوع"},{"id":"wcqflDyR9k4","title":"مقرأة سورة التوبة من آية ١٢٣","publishedAt":"2017-05-06T13:01:47Z","duration":"PT23M39S","thumbnail":"https://i.ytimg.com/vi/wcqflDyR9k4/mqdefault.jpg","viewCount":"354","playlistId":"PLEkQk5xrP-tnmTYsyW6xNdyfhPq0Bhrhj","playlistName":"مقرأة الفجر - القُرْآنُ الكَرِيمُ - خَتْمَةُ التَّدَبُّرِ  أ.د. يسري جبر","category":"متنوع"},{"id":"M3N12gvkBIc","title":"مقرأة سورة طه من آية ٢٥","publishedAt":"2017-11-25T05:51:13Z","duration":"PT16M50S","thumbnail":"https://i.ytimg.com/vi/M3N12gvkBIc/mqdefault.jpg","viewCount":"354","playlistId":"PLEkQk5xrP-tnmTYsyW6xNdyfhPq0Bhrhj","playlistName":"مقرأة الفجر - القُرْآنُ الكَرِيمُ - خَتْمَةُ التَّدَبُّرِ  أ.د. يسري جبر","category":"متنوع"},{"id":"RdSPqUC-AGI","title":"مقرأة سورة الإسراء من آية ٦٦","publishedAt":"2017-10-02T09:26:48Z","duration":"PT21M22S","thumbnail":"https://i.ytimg.com/vi/RdSPqUC-AGI/mqdefault.jpg","viewCount":"353","playlistId":"PLEkQk5xrP-tnmTYsyW6xNdyfhPq0Bhrhj","playlistName":"مقرأة الفجر - القُرْآنُ الكَرِيمُ - خَتْمَةُ التَّدَبُّرِ  أ.د. يسري جبر","category":"متنوع"},{"id":"6r65SeO6hhU","title":"مقرأة سورة الحجر من آية ٦١","publishedAt":"2017-08-11T15:35:56Z","duration":"PT18M24S","thumbnail":"https://i.ytimg.com/vi/6r65SeO6hhU/mqdefault.jpg","viewCount":"353","playlistId":"PLEkQk5xrP-tnmTYsyW6xNdyfhPq0Bhrhj","playlistName":"مقرأة الفجر - القُرْآنُ الكَرِيمُ - خَتْمَةُ التَّدَبُّرِ  أ.د. يسري جبر","category":"متنوع"},{"id":"pCuupYitNN4","title":"القِسمُ (22) من التوكيد: الاعتراض (2) شرح البرهان في علوم القرآن","publishedAt":"2021-05-19T06:13:32Z","duration":"PT30M5S","thumbnail":"https://i.ytimg.com/vi/pCuupYitNN4/mqdefault.jpg","viewCount":"353","playlistId":"PLEkQk5xrP-tnW3iBL7HkKziOFCFZbTlf0","playlistName":"شرح البرهان في علوم القرآن - أ.د. يسري جبر","category":"تفسير"},{"id":"_2ZMA4ecZAs","title":"سورة الأعراف آية 194","publishedAt":"2017-03-13T07:17:20Z","duration":"PT16M48S","thumbnail":"https://i.ytimg.com/vi/_2ZMA4ecZAs/mqdefault.jpg","viewCount":"352","playlistId":"PLEkQk5xrP-tnmTYsyW6xNdyfhPq0Bhrhj","playlistName":"مقرأة الفجر - القُرْآنُ الكَرِيمُ - خَتْمَةُ التَّدَبُّرِ  أ.د. يسري جبر","category":"متنوع"},{"id":"yMt1QIZym8A","title":"سورة الأعراف آية 175","publishedAt":"2017-03-08T08:38:44Z","duration":"PT16M25S","thumbnail":"https://i.ytimg.com/vi/yMt1QIZym8A/mqdefault.jpg","viewCount":"352","playlistId":"PLEkQk5xrP-tnmTYsyW6xNdyfhPq0Bhrhj","playlistName":"مقرأة الفجر - القُرْآنُ الكَرِيمُ - خَتْمَةُ التَّدَبُّرِ  أ.د. يسري جبر","category":"متنوع"},{"id":"xmmX2aw4Beo","title":"شرح البرهان في علوم القرآن - النوع ٣٤ - التنبيه الثاني في ضروب النسخ في القرآن ٢","publishedAt":"2020-02-28T06:00:13Z","duration":"PT40M","thumbnail":"https://i.ytimg.com/vi/xmmX2aw4Beo/mqdefault.jpg","viewCount":"352","playlistId":"PLEkQk5xrP-tnW3iBL7HkKziOFCFZbTlf0","playlistName":"شرح البرهان في علوم القرآن - أ.د. يسري جبر","category":"تفسير"},{"id":"wPjKixB0_2Q","title":"مقرأة سورة الطلاق آية ٨","publishedAt":"2019-04-24T08:08:42Z","duration":"PT13M54S","thumbnail":"https://i.ytimg.com/vi/wPjKixB0_2Q/mqdefault.jpg","viewCount":"352","playlistId":"PLEkQk5xrP-tnmTYsyW6xNdyfhPq0Bhrhj","playlistName":"مقرأة الفجر - القُرْآنُ الكَرِيمُ - خَتْمَةُ التَّدَبُّرِ  أ.د. يسري جبر","category":"متنوع"},{"id":"vnEg2XMGjao","title":"42- مَوَاقِيتِ الإِهْلاَلِ كتاب الحج ك الموطأ د يسري جبر الأزهري","publishedAt":"2017-02-21T00:48:41Z","duration":"PT1H19M49S","thumbnail":"https://i.ytimg.com/vi/vnEg2XMGjao/mqdefault.jpg","viewCount":"352","playlistId":"PLEkQk5xrP-tnC6BRuqMjyO-484iqXeg0o","playlistName":"شرح كتاب الموطأ للإمام مالك","category":"متنوع"},{"id":"z6iTLPy5004","title":"مقرأة سورة الزمر من آية ٦٠","publishedAt":"2018-10-29T09:37:55Z","duration":"PT13M11S","thumbnail":"https://i.ytimg.com/vi/z6iTLPy5004/mqdefault.jpg","viewCount":"351","playlistId":"PLEkQk5xrP-tnmTYsyW6xNdyfhPq0Bhrhj","playlistName":"مقرأة الفجر - القُرْآنُ الكَرِيمُ - خَتْمَةُ التَّدَبُّرِ  أ.د. يسري جبر","category":"متنوع"},{"id":"mH7Asvbi1d8","title":"مقرأة سورة الزمر من آية ٤٩","publishedAt":"2018-10-27T12:28:46Z","duration":"PT10M27S","thumbnail":"https://i.ytimg.com/vi/mH7Asvbi1d8/mqdefault.jpg","viewCount":"351","playlistId":"PLEkQk5xrP-tnmTYsyW6xNdyfhPq0Bhrhj","playlistName":"مقرأة الفجر - القُرْآنُ الكَرِيمُ - خَتْمَةُ التَّدَبُّرِ  أ.د. يسري جبر","category":"متنوع"},{"id":"wqXmx4k5CV0","title":"95- شرح اللؤلؤ والمرجان كتاب المساقاة من الباب العشرين","publishedAt":"2020-03-14T06:30:00Z","duration":"PT30M8S","thumbnail":"https://i.ytimg.com/vi/wqXmx4k5CV0/mqdefault.jpg","viewCount":"351","playlistId":"PLEkQk5xrP-tmKNjtYLfhATC37QdIsTMe0","playlistName":"شرح كتاب اللؤلؤ والمرجان فيما اتفق عليه الشيخان إماما المحدثين البخاري ومسلم. أ.د. يسري جبر","category":"حديث"},{"id":"W1Pjepxb17M","title":"سورة النساء آية 102","publishedAt":"2016-09-18T06:07:54Z","duration":"PT10M7S","thumbnail":"https://i.ytimg.com/vi/W1Pjepxb17M/mqdefault.jpg","viewCount":"351","playlistId":"PLEkQk5xrP-tnmTYsyW6xNdyfhPq0Bhrhj","playlistName":"مقرأة الفجر - القُرْآنُ الكَرِيمُ - خَتْمَةُ التَّدَبُّرِ  أ.د. يسري جبر","category":"متنوع"},{"id":"ATDBu82kBi4","title":"582- حروف المعاني(43): الحرف (44) (في) - شرح البرهان في علوم القرآن","publishedAt":"2022-10-30T05:00:04Z","duration":"PT26M34S","thumbnail":"https://i.ytimg.com/vi/ATDBu82kBi4/mqdefault.jpg","viewCount":"351","playlistId":"PLEkQk5xrP-tnW3iBL7HkKziOFCFZbTlf0","playlistName":"شرح البرهان في علوم القرآن - أ.د. يسري جبر","category":"تفسير"},{"id":"t9mTetOZFa8","title":"شرح سنن الدارمي كتاب الرقاق من باب ١٣","publishedAt":"2019-09-26T16:31:44Z","duration":"PT32M35S","thumbnail":"https://i.ytimg.com/vi/t9mTetOZFa8/mqdefault.jpg","viewCount":"351","playlistId":"PLEkQk5xrP-tmAg-FuWjY057X_h5NmGmAa","playlistName":"شرح سنن الدارمي - أ.د. يسري جبر (كاملا)","category":"متنوع"},{"id":"qBD1eRIOG0g","title":"مقرأة سورة لقمان من آية ٢٠","publishedAt":"2018-07-04T10:37:44Z","duration":"PT25M29S","thumbnail":"https://i.ytimg.com/vi/qBD1eRIOG0g/mqdefault.jpg","viewCount":"351","playlistId":"PLEkQk5xrP-tnmTYsyW6xNdyfhPq0Bhrhj","playlistName":"مقرأة الفجر - القُرْآنُ الكَرِيمُ - خَتْمَةُ التَّدَبُّرِ  أ.د. يسري جبر","category":"متنوع"},{"id":"5n6eipCCG2w","title":"شرح سنن الدارمي كتاب السير من باب ١١","publishedAt":"2019-08-29T21:59:53Z","duration":"PT28M53S","thumbnail":"https://i.ytimg.com/vi/5n6eipCCG2w/mqdefault.jpg","viewCount":"351","playlistId":"PLEkQk5xrP-tmAg-FuWjY057X_h5NmGmAa","playlistName":"شرح سنن الدارمي - أ.د. يسري جبر (كاملا)","category":"متنوع"},{"id":"7OeK1c63w0s","title":"مقرأة سورة الحج من آية ٢٥","publishedAt":"2018-01-31T09:57:21Z","duration":"PT29M7S","thumbnail":"https://i.ytimg.com/vi/7OeK1c63w0s/mqdefault.jpg","viewCount":"351","playlistId":"PLEkQk5xrP-tnmTYsyW6xNdyfhPq0Bhrhj","playlistName":"مقرأة الفجر - القُرْآنُ الكَرِيمُ - خَتْمَةُ التَّدَبُّرِ  أ.د. يسري جبر","category":"متنوع"},{"id":"C33y-dfrd7Y","title":"مقرأة سورة الحج من آية ٥","publishedAt":"2018-01-01T13:55:48Z","duration":"PT16M34S","thumbnail":"https://i.ytimg.com/vi/C33y-dfrd7Y/mqdefault.jpg","viewCount":"351","playlistId":"PLEkQk5xrP-tnmTYsyW6xNdyfhPq0Bhrhj","playlistName":"مقرأة الفجر - القُرْآنُ الكَرِيمُ - خَتْمَةُ التَّدَبُّرِ  أ.د. يسري جبر","category":"متنوع"},{"id":"Ut-0_GbczB0","title":"شرح البرهان في علوم القرآن - النوع ٣٧ - في حكم الآيات المتشابهات الواردة في الصفات ٤","publishedAt":"2020-03-15T06:30:00Z","duration":"PT29M1S","thumbnail":"https://i.ytimg.com/vi/Ut-0_GbczB0/mqdefault.jpg","viewCount":"350","playlistId":"PLEkQk5xrP-tnW3iBL7HkKziOFCFZbTlf0","playlistName":"شرح البرهان في علوم القرآن - أ.د. يسري جبر","category":"تفسير"}],"total":7670,"page":270,"pageSize":24,"totalPages":320}