{"items":[{"id":"_28IAUxWLvY","title":"سورة الأعراف آية 19","publishedAt":"2017-02-05T06:51:02Z","duration":"PT26M21S","thumbnail":"https://i.ytimg.com/vi/_28IAUxWLvY/mqdefault.jpg","viewCount":"442","playlistId":"PLEkQk5xrP-tnmTYsyW6xNdyfhPq0Bhrhj","playlistName":"مقرأة الفجر - القُرْآنُ الكَرِيمُ - خَتْمَةُ التَّدَبُّرِ  أ.د. يسري جبر","category":"متنوع"},{"id":"f6s4qXLLYVw","title":"سورة الأنعام آية 91","publishedAt":"2016-12-24T07:06:57Z","duration":"PT22M42S","thumbnail":"https://i.ytimg.com/vi/f6s4qXLLYVw/mqdefault.jpg","viewCount":"442","playlistId":"PLEkQk5xrP-tnmTYsyW6xNdyfhPq0Bhrhj","playlistName":"مقرأة الفجر - القُرْآنُ الكَرِيمُ - خَتْمَةُ التَّدَبُّرِ  أ.د. يسري جبر","category":"متنوع"},{"id":"sQZyqCii6Cg","title":"295- أنواع الأمثال في القرآن - شرح الإتقان في علوم القرآن","publishedAt":"2025-08-03T09:01:16Z","duration":"PT34M","thumbnail":"https://i.ytimg.com/vi/sQZyqCii6Cg/mqdefault.jpg","viewCount":"442","playlistId":"PLEkQk5xrP-tlPw10KGJKagu7zm4Ry2Tge","playlistName":"شرح الإتقان في علوم القرآن","category":"تفسير"},{"id":"KSKt7LB9vnI","title":"304- المبهمات في القرآن - شرح الإتقان في علوم القرآن","publishedAt":"2025-10-13T05:07:30Z","duration":"PT24M17S","thumbnail":"https://i.ytimg.com/vi/KSKt7LB9vnI/mqdefault.jpg","viewCount":"442","playlistId":"PLEkQk5xrP-tlPw10KGJKagu7zm4Ry2Tge","playlistName":"شرح الإتقان في علوم القرآن","category":"تفسير"},{"id":"hFwqmy7iSKU","title":"الشَّرْط: القاعدة الثالثة","publishedAt":"2020-12-02T07:11:46Z","duration":"PT11M46S","thumbnail":"https://i.ytimg.com/vi/hFwqmy7iSKU/mqdefault.jpg","viewCount":"442","playlistId":"PLEkQk5xrP-tnW3iBL7HkKziOFCFZbTlf0","playlistName":"شرح البرهان في علوم القرآن - أ.د. يسري جبر","category":"تفسير"},{"id":"tT9CP4eSCMs","title":"شرح سنن الدارمي كتاب المناسك من أوله","publishedAt":"2019-06-20T22:54:32Z","duration":"PT10M29S","thumbnail":"https://i.ytimg.com/vi/tT9CP4eSCMs/mqdefault.jpg","viewCount":"441","playlistId":"PLEkQk5xrP-tmAg-FuWjY057X_h5NmGmAa","playlistName":"شرح سنن الدارمي - أ.د. يسري جبر (كاملا)","category":"متنوع"},{"id":"qEqNXJ_iSBM","title":"مقرأة سورة الذاريات من آية ٢٤","publishedAt":"2019-02-05T11:20:42Z","duration":"PT21M47S","thumbnail":"https://i.ytimg.com/vi/qEqNXJ_iSBM/mqdefault.jpg","viewCount":"441","playlistId":"PLEkQk5xrP-tnmTYsyW6xNdyfhPq0Bhrhj","playlistName":"مقرأة الفجر - القُرْآنُ الكَرِيمُ - خَتْمَةُ التَّدَبُّرِ  أ.د. يسري جبر","category":"متنوع"},{"id":"lymw2JZ8MAU","title":"مقرأة سورة الإسراء من آية ٢٣","publishedAt":"2017-09-18T09:52:45Z","duration":"PT16M29S","thumbnail":"https://i.ytimg.com/vi/lymw2JZ8MAU/mqdefault.jpg","viewCount":"441","playlistId":"PLEkQk5xrP-tnmTYsyW6xNdyfhPq0Bhrhj","playlistName":"مقرأة الفجر - القُرْآنُ الكَرِيمُ - خَتْمَةُ التَّدَبُّرِ  أ.د. يسري جبر","category":"متنوع"},{"id":"rKt-h9tS0Js","title":"شرح صحيح البخاري كتاب الرقاق من باب ٤١","publishedAt":"2018-10-31T12:05:33Z","duration":"PT31M42S","thumbnail":"https://i.ytimg.com/vi/rKt-h9tS0Js/mqdefault.jpg","viewCount":"441","playlistId":"PLEkQk5xrP-tlEerGoLa1AFy-2XvQ-sovv","playlistName":"شرح صحيح البخاري - أ.د. يسري جبر (كاملا)","category":"حديث"},{"id":"rFTULbT-u3I","title":"540- حروف المعاني: حرف إذا - شرح البرهان في علوم القرآن","publishedAt":"2022-07-24T05:15:02Z","duration":"PT14M11S","thumbnail":"https://i.ytimg.com/vi/rFTULbT-u3I/mqdefault.jpg","viewCount":"441","playlistId":"PLEkQk5xrP-tnW3iBL7HkKziOFCFZbTlf0","playlistName":"شرح البرهان في علوم القرآن - أ.د. يسري جبر","category":"تفسير"},{"id":"IdX27qBZan0","title":"شرح سنن الدارمي كتاب فضائل القرآن من أوله - تكملة","publishedAt":"2019-11-26T12:12:36Z","duration":"PT16M42S","thumbnail":"https://i.ytimg.com/vi/IdX27qBZan0/mqdefault.jpg","viewCount":"441","playlistId":"PLEkQk5xrP-tmAg-FuWjY057X_h5NmGmAa","playlistName":"شرح سنن الدارمي - أ.د. يسري جبر (كاملا)","category":"متنوع"},{"id":"GD2N2UiXGBg","title":"مقرأة سورة الصافات من أولها","publishedAt":"2018-09-12T10:44:13Z","duration":"PT11M57S","thumbnail":"https://i.ytimg.com/vi/GD2N2UiXGBg/mqdefault.jpg","viewCount":"440","playlistId":"PLEkQk5xrP-tnmTYsyW6xNdyfhPq0Bhrhj","playlistName":"مقرأة الفجر - القُرْآنُ الكَرِيمُ - خَتْمَةُ التَّدَبُّرِ  أ.د. يسري جبر","category":"متنوع"},{"id":"-DydqfY85PM","title":"شرح صحيح البخاري كتاب التمني من باب ٨","publishedAt":"2019-01-18T19:00:25Z","duration":"PT33M11S","thumbnail":"https://i.ytimg.com/vi/-DydqfY85PM/mqdefault.jpg","viewCount":"440","playlistId":"PLEkQk5xrP-tlEerGoLa1AFy-2XvQ-sovv","playlistName":"شرح صحيح البخاري - أ.د. يسري جبر (كاملا)","category":"حديث"},{"id":"PRgzw7Jrt30","title":"سورة التوبة آية 24","publishedAt":"2017-04-09T17:13:52Z","duration":"PT14M21S","thumbnail":"https://i.ytimg.com/vi/PRgzw7Jrt30/mqdefault.jpg","viewCount":"440","playlistId":"PLEkQk5xrP-tnmTYsyW6xNdyfhPq0Bhrhj","playlistName":"مقرأة الفجر - القُرْآنُ الكَرِيمُ - خَتْمَةُ التَّدَبُّرِ  أ.د. يسري جبر","category":"متنوع"},{"id":"Wh23wLKvEKA","title":"العقل بين الاعتراض والانقياد د. يسري جبر","publishedAt":"2015-05-02T18:26:12Z","duration":"PT38M8S","thumbnail":"https://i.ytimg.com/vi/Wh23wLKvEKA/mqdefault.jpg","viewCount":"440","playlistId":"PLEkQk5xrP-tlArtGpeLWaqNM7h7IDeAVC","playlistName":"خطب الجمعة أ.د. يسري جبر","category":"خطب"},{"id":"Kqt8nxfytrI","title":"شرح صحيح البخاري كتاب الذبائح والصيد من باب ١٢","publishedAt":"2018-07-17T23:24:55Z","duration":"PT37M35S","thumbnail":"https://i.ytimg.com/vi/Kqt8nxfytrI/mqdefault.jpg","viewCount":"440","playlistId":"PLEkQk5xrP-tlEerGoLa1AFy-2XvQ-sovv","playlistName":"شرح صحيح البخاري - أ.د. يسري جبر (كاملا)","category":"حديث"},{"id":"g4xNmOT9t8Y","title":"مقرأة سورة التغابن من آية ٢","publishedAt":"2019-04-16T12:14:49Z","duration":"PT18M51S","thumbnail":"https://i.ytimg.com/vi/g4xNmOT9t8Y/mqdefault.jpg","viewCount":"439","playlistId":"PLEkQk5xrP-tnmTYsyW6xNdyfhPq0Bhrhj","playlistName":"مقرأة الفجر - القُرْآنُ الكَرِيمُ - خَتْمَةُ التَّدَبُّرِ  أ.د. يسري جبر","category":"متنوع"},{"id":"o3O-3DobkVA","title":"شرح البرهان في علوم القرآن - النوع ٤١ - فصل في أمهات مآخذ التفسير للناظر في القرآن","publishedAt":"2020-04-10T19:00:11Z","duration":"PT29M22S","thumbnail":"https://i.ytimg.com/vi/o3O-3DobkVA/mqdefault.jpg","viewCount":"439","playlistId":"PLEkQk5xrP-tnW3iBL7HkKziOFCFZbTlf0","playlistName":"شرح البرهان في علوم القرآن - أ.د. يسري جبر","category":"تفسير"},{"id":"lxWTBlDY5_I","title":"مقرأة سورة القصص من أولها","publishedAt":"2018-05-09T16:38:02Z","duration":"PT19M49S","thumbnail":"https://i.ytimg.com/vi/lxWTBlDY5_I/mqdefault.jpg","viewCount":"439","playlistId":"PLEkQk5xrP-tnmTYsyW6xNdyfhPq0Bhrhj","playlistName":"مقرأة الفجر - القُرْآنُ الكَرِيمُ - خَتْمَةُ التَّدَبُّرِ  أ.د. يسري جبر","category":"متنوع"},{"id":"94edIXulj50","title":"شرح صحيح البخاري كتاب التفسير فى سورة الأعراف من أولها","publishedAt":"2018-03-25T03:17:36Z","duration":"PT33M56S","thumbnail":"https://i.ytimg.com/vi/94edIXulj50/mqdefault.jpg","viewCount":"439","playlistId":"PLEkQk5xrP-tlEerGoLa1AFy-2XvQ-sovv","playlistName":"شرح صحيح البخاري - أ.د. يسري جبر (كاملا)","category":"حديث"},{"id":"bjbM2e97ZAE","title":"القِسمُ التاسع من التوكيد: وضع الظاهر موضع المُضْمَر (2) شرح البرهان في علوم القرآن","publishedAt":"2021-03-23T07:10:02Z","duration":"PT16M55S","thumbnail":"https://i.ytimg.com/vi/bjbM2e97ZAE/mqdefault.jpg","viewCount":"439","playlistId":"PLEkQk5xrP-tnW3iBL7HkKziOFCFZbTlf0","playlistName":"شرح البرهان في علوم القرآن - أ.د. يسري جبر","category":"تفسير"},{"id":"96GJGRbvieo","title":"مقرأة سورة الكهف من آية ٥٠","publishedAt":"2017-10-26T12:41:23Z","duration":"PT13M54S","thumbnail":"https://i.ytimg.com/vi/96GJGRbvieo/mqdefault.jpg","viewCount":"439","playlistId":"PLEkQk5xrP-tnmTYsyW6xNdyfhPq0Bhrhj","playlistName":"مقرأة الفجر - القُرْآنُ الكَرِيمُ - خَتْمَةُ التَّدَبُّرِ  أ.د. يسري جبر","category":"متنوع"},{"id":"O-21DO2f4CM","title":"مقرأة سورة الحج من آية ١٤","publishedAt":"2018-01-19T09:27:20Z","duration":"PT20M45S","thumbnail":"https://i.ytimg.com/vi/O-21DO2f4CM/mqdefault.jpg","viewCount":"439","playlistId":"PLEkQk5xrP-tnmTYsyW6xNdyfhPq0Bhrhj","playlistName":"مقرأة الفجر - القُرْآنُ الكَرِيمُ - خَتْمَةُ التَّدَبُّرِ  أ.د. يسري جبر","category":"متنوع"},{"id":"DtmGBgkj9HM","title":"80- شرح اللؤلؤ والمرجان كتاب النكاح من الباب السابع عشر","publishedAt":"2020-02-28T06:00:04Z","duration":"PT12M11S","thumbnail":"https://i.ytimg.com/vi/DtmGBgkj9HM/mqdefault.jpg","viewCount":"439","playlistId":"PLEkQk5xrP-tmKNjtYLfhATC37QdIsTMe0","playlistName":"شرح كتاب اللؤلؤ والمرجان فيما اتفق عليه الشيخان إماما المحدثين البخاري ومسلم. أ.د. يسري جبر","category":"حديث"}],"total":7670,"page":242,"pageSize":24,"totalPages":320}