{"items":[{"id":"djr6PXbM_uo","title":"(ุงูุฌูููุฉ - ุฌููููุงุช) ุฌุงุกุช ุจุงูููุฑุฏ ูุงูุฌูุน (ุงููููุงุฑ ) ุฌุงุกุช ููุฑุฏุฉ ููุง ุงููุฑูุ -ุดุฑุญ ุงูุจุฑูุงู ูู ุนููู ุงููุฑุขู","publishedAt":"2022-03-18T03:51:21Z","duration":"PT10M37S","thumbnail":"https://i.ytimg.com/vi/djr6PXbM_uo/mqdefault.jpg","viewCount":"1307","playlistId":"PLEkQk5xrP-tnW3iBL7HkKziOFCFZbTlf0","playlistName":"ุดุฑุญ ุงูุจุฑูุงู ูู ุนููู ุงููุฑุขู - ุฃ.ุฏ. ูุณุฑู ุฌุจุฑ","category":"ุชูุณูุฑ"},{"id":"m9tWJoVXv7I","title":"225- ุงูููุฑูู ูุงูุฌููุฏ ูุงูุฅููุงู ูู ูุฌูููู ุงูุฎูุฑู ุซูุฉ ุจุงููู ุชุนุงูู - ุดุฑุญ ุฏููู ุงููุงูุญูู","publishedAt":"2022-04-01T05:52:38Z","duration":"PT28M11S","thumbnail":"https://i.ytimg.com/vi/m9tWJoVXv7I/mqdefault.jpg","viewCount":"1307","playlistId":"PLEkQk5xrP-tkc9DXvSLguqX5-FYp6ASR4","playlistName":"ุฏููู ุงููุงูุญูู ูุทุฑู ุฑูุงุถ ุงูุตุงูุญูู","category":"ูุชููุน"},{"id":"z6Dyl2GX49Y","title":"ุดุฑุญ ุตุญูุญ ุงูุจุฎุงุฑู ( ูุชุงุจ ุงูุบุณู ูุฌูุณ ูค )","publishedAt":"2016-09-18T06:22:06Z","duration":"PT24M29S","thumbnail":"https://i.ytimg.com/vi/z6Dyl2GX49Y/mqdefault.jpg","viewCount":"1307","playlistId":"PLEkQk5xrP-tlEerGoLa1AFy-2XvQ-sovv","playlistName":"ุดุฑุญ ุตุญูุญ ุงูุจุฎุงุฑู - ุฃ.ุฏ. ูุณุฑู ุฌุจุฑ (ูุงููุง)","category":"ุญุฏูุซ"},{"id":"JOIhcrICNNQ","title":"ุฐูููุฑูู ูููููุฏู ุงููููุจูููู ุตููููู ุงูููู ุนูููููู ููุขูููู ููุณูููููู ุจุงูุชุงุฑูุฎ ุงููููุงุฏู","publishedAt":"2015-04-18T19:51:02Z","duration":"PT35M46S","thumbnail":"https://i.ytimg.com/vi/JOIhcrICNNQ/mqdefault.jpg","viewCount":"1306","playlistId":"PLEkQk5xrP-tlArtGpeLWaqNM7h7IDeAVC","playlistName":"ุฎุทุจ ุงูุฌูุนุฉ ุฃ.ุฏ. ูุณุฑู ุฌุจุฑ","category":"ุฎุทุจ"},{"id":"nVxtTO4dfGw","title":"60- ุฃุณุฑุงุฑ ุงูุตูุงุฉ ุงูุฅุจุฑุงููููุฉ ููู ูุฌูุฒ ุฃู ูููู ุณูุฏูุง ูุญูุฏ ูู ุงูุชุดูุฏุ | ุดุฑุญ ุณูู ุงูุฅูุงู ุงูุฏุงุฑ ูุทูู","publishedAt":"2025-08-02T09:01:08Z","duration":"PT44M56S","thumbnail":"https://i.ytimg.com/vi/nVxtTO4dfGw/mqdefault.jpg","viewCount":"1305","playlistId":"PLEkQk5xrP-tk_MCBZ706ORCw6gFtFyaGj","playlistName":"ุดุฑุญ ุณูู ุงูุฅูุงู ุงูุฏุงุฑูุทูู","category":"ูุชููุน"},{"id":"d9EB-i_-mfY","title":"131- \"ุงูููููููู ุฅูููู ุฃุญุฑููุฌู ุญููู ุงูุถููุนููููู : ุงููุชููู ุ ูุงููุฑุฃูุฉู\" - ุดุฑุญ ุฏููู ุงููุงูุญูู","publishedAt":"2021-09-24T06:05:50Z","duration":"PT32M59S","thumbnail":"https://i.ytimg.com/vi/d9EB-i_-mfY/mqdefault.jpg","viewCount":"1304","playlistId":"PLEkQk5xrP-tkc9DXvSLguqX5-FYp6ASR4","playlistName":"ุฏููู ุงููุงูุญูู ูุทุฑู ุฑูุงุถ ุงูุตุงูุญูู","category":"ูุชููุน"},{"id":"8S8bwLVYqpw","title":"16- ุฃุฑูุงู ุงูุตูุงุฉ - ุดุฑุญ ูุชุงุจ ูุชุญ ุงููุฑูุจ ุงููุฌูุจ","publishedAt":"2021-10-08T11:12:11Z","duration":"PT1H6M5S","thumbnail":"https://i.ytimg.com/vi/8S8bwLVYqpw/mqdefault.jpg","viewCount":"1303","playlistId":"PLEkQk5xrP-tkXuPs-0sXfWQDWzBKmcjWN","playlistName":"\"ูุชุญ ุงููุฑูุจ ุงููุฌูุจ ูู ุดุฑุญ ุฃููุงุธ ุงูุชูุฑูุจ\"( ููู ุดุงูุนูู)  ุฃ. ุฏ. ูุณุฑู ุฌุจุฑ","category":"ููู"},{"id":"ZaEOCOb2MXw","title":"28- ุจุงุจ ุงูุชูุจุฉ: ุงูุญุฏูุซ ุงูุชุงุณุน - ุดุฑุญ ุฏููู ุงููุงูุญูู ูุทูุฑูู ุฑูุงุถ ุงูุตุงูุญูู","publishedAt":"2021-03-12T06:51:28Z","duration":"PT23M","thumbnail":"https://i.ytimg.com/vi/ZaEOCOb2MXw/mqdefault.jpg","viewCount":"1303","playlistId":"PLEkQk5xrP-tkc9DXvSLguqX5-FYp6ASR4","playlistName":"ุฏููู ุงููุงูุญูู ูุทุฑู ุฑูุงุถ ุงูุตุงูุญูู","category":"ูุชููุน"},{"id":"1Rfndz7VdRI","title":"ููุงุฒู ุงูุณุงุฆุฑูู ููุฅูุงู ุงููุฑูู ุงููุฌูุณ ุงูุซุงูุซ ูุงูุฎูุณูู ูุณู ุงูุญูุงุฆู ุฃุจูุงุจ ุงูุญูุงุฉ ูุงููุจุถ ูุงูุจุณุท","publishedAt":"2015-08-23T02:04:17Z","duration":"PT1H9M32S","thumbnail":"https://i.ytimg.com/vi/1Rfndz7VdRI/mqdefault.jpg","viewCount":"1302","playlistId":"PLEkQk5xrP-tnLYi_5_tSRVBwqcs7ISV7Y","playlistName":"ุดุฑุญ ูุชุงุจ ููุงุฒู ุงูุณุงุฆุฑูู ููุฅูุงู ุงููุฑูู","category":"ูุชููุน"},{"id":"sc5fvYbgFZg","title":"5- ุญุฏูุซ ุงูุฅุณุฑุงุก ูุงููุนุฑุงุฌ ุจูุจููุง ุตูู ุงููู ุนููู ูุขูู ูุณูู (ุงููุฌูุณ ุงูุฎุงูุณ).   ุฃ.ุฏ. ูุณุฑู ุฌุจุฑ","publishedAt":"2018-06-10T17:21:15Z","duration":"PT22M47S","thumbnail":"https://i.ytimg.com/vi/sc5fvYbgFZg/mqdefault.jpg","viewCount":"1302","playlistId":"PLEkQk5xrP-tnl7vb7KeAoPd5ZlqKKW8KV","playlistName":"ุดุฑุญ ูุชุงุจ ุจูุฌุฉ ุงููููุณ ุฃ.ุฏ . ูุณุฑู ุฌุจุฑ","category":"ูุชููุน"},{"id":"uMJZndErreU","title":"20- ุงูุฃููุงุชู ุงูุชู ุชูููุฑููู ุงูุตูุงุฉ ูููุง - ุดุฑุญ ูุชุงุจ ูุชุญ ุงููุฑูุจ ุงููุฌูุจ","publishedAt":"2021-10-12T11:15:38Z","duration":"PT1H31M45S","thumbnail":"https://i.ytimg.com/vi/uMJZndErreU/mqdefault.jpg","viewCount":"1301","playlistId":"PLEkQk5xrP-tkXuPs-0sXfWQDWzBKmcjWN","playlistName":"\"ูุชุญ ุงููุฑูุจ ุงููุฌูุจ ูู ุดุฑุญ ุฃููุงุธ ุงูุชูุฑูุจ\"( ููู ุดุงูุนูู)  ุฃ. ุฏ. ูุณุฑู ุฌุจุฑ","category":"ููู"},{"id":"REhzhW6Ac4E","title":"57- ุฎูุทูุฑุฉ ุงููุฐุจู ูู ุงูุฑููุคูุง ูุนูููุจุชู - ุดุฑุญ ูุณูุฏ ุงูุฅูุงู ุฃุญูุฏ","publishedAt":"2023-12-25T07:00:08Z","duration":"PT36M32S","thumbnail":"https://i.ytimg.com/vi/REhzhW6Ac4E/mqdefault.jpg","viewCount":"1301","playlistId":"PLEkQk5xrP-tkKprIuGrSdEuBSMsyg5We1","playlistName":"ุดุฑุญ ูุณูุฏ ุงูุฅูุงู ุฃุญูุฏ ุจู ุญูุจู","category":"ูุชููุน"},{"id":"2XFtrvIZg_A","title":"29- ุจุงุจ ุงูุชูุจุฉ: ุงูุญุฏูุซ ุงูุชุงุณุน (2) ุดุฑุญ ุฏููู ุงููุงูุญูู ูุทูุฑูู ุฑูุงุถ ุงูุตุงูุญูู","publishedAt":"2021-03-15T06:25:13Z","duration":"PT48M14S","thumbnail":"https://i.ytimg.com/vi/2XFtrvIZg_A/mqdefault.jpg","viewCount":"1301","playlistId":"PLEkQk5xrP-tkc9DXvSLguqX5-FYp6ASR4","playlistName":"ุฏููู ุงููุงูุญูู ูุทุฑู ุฑูุงุถ ุงูุตุงูุญูู","category":"ูุชููุน"},{"id":"kfK9TukzmKo","title":"ุดูุจูููุงุช ููุนูุงุตูุฑูุฉ (4) ุฃ.ุฏ. ูุณุฑู ุฌุจุฑ","publishedAt":"2019-07-13T20:38:18Z","duration":"PT44M25S","thumbnail":"https://i.ytimg.com/vi/kfK9TukzmKo/mqdefault.jpg","viewCount":"1301","playlistId":"PLEkQk5xrP-tlArtGpeLWaqNM7h7IDeAVC","playlistName":"ุฎุทุจ ุงูุฌูุนุฉ ุฃ.ุฏ. ูุณุฑู ุฌุจุฑ","category":"ุฎุทุจ"},{"id":"LJ8HDvJsAVc","title":"ุงุฎุชุฑุงุนุงุช ุฅุณูุงููุฉ","publishedAt":"2020-09-23T19:39:11Z","duration":"PT12M1S","thumbnail":"https://i.ytimg.com/vi/LJ8HDvJsAVc/mqdefault.jpg","viewCount":"1300","playlistId":"PLEkQk5xrP-tm8ZIu74nTOZN9KJUJu416J","playlistName":"ููุงุทุน ููููููุฉ (ููุณุฑูููุงุช) ุฃ.ุฏ. ูุณุฑู ุฌุจุฑ","category":"ูุชููุน"},{"id":"v4URe6lCyLU","title":"ูุง ูุนูู ุงูุงุนุชุตุงู ููุง ุงููุฑู ุจูู ุงูุงุนุชุตุงู ุจุญุจู ุงููู ูุงูุงุนุชุตุงู ุจุงููู  ุฏ.ูุณุฑู ุฌุจุฑ","publishedAt":"2016-08-06T18:13:00Z","duration":"PT48M48S","thumbnail":"https://i.ytimg.com/vi/v4URe6lCyLU/mqdefault.jpg","viewCount":"1300","playlistId":"PLEkQk5xrP-tlArtGpeLWaqNM7h7IDeAVC","playlistName":"ุฎุทุจ ุงูุฌูุนุฉ ุฃ.ุฏ. ูุณุฑู ุฌุจุฑ","category":"ุฎุทุจ"},{"id":"bn-z6v7C9h4","title":"125- \"โฆุฃููู ุงููุฑูุฃูุฉู ุณูููุฏูุงุกู ููุงููุชู ุชูููููู ุงูููุณูุฌูุฏูุ ุฃููู ุดูุงุจููุงโฆ\" - ุดุฑุญ ุฏููู ุงููุงูุญูู","publishedAt":"2021-09-11T07:25:59Z","duration":"PT32M30S","thumbnail":"https://i.ytimg.com/vi/bn-z6v7C9h4/mqdefault.jpg","viewCount":"1299","playlistId":"PLEkQk5xrP-tkc9DXvSLguqX5-FYp6ASR4","playlistName":"ุฏููู ุงููุงูุญูู ูุทุฑู ุฑูุงุถ ุงูุตุงูุญูู","category":"ูุชููุน"},{"id":"is4X2R6VqJU","title":"112- \"ุฃุชูุฏูุฑููู ููู ุงูููููููุณูุ ูุงููุง: ุงูููููููุณู ููููุง ููู ูุง ุฏูุฑูููู ูู โฆโ ุดุฑุญ ุฏููู ุงููุงูุญูู","publishedAt":"2021-08-13T20:28:19Z","duration":"PT42M2S","thumbnail":"https://i.ytimg.com/vi/is4X2R6VqJU/mqdefault.jpg","viewCount":"1298","playlistId":"PLEkQk5xrP-tkc9DXvSLguqX5-FYp6ASR4","playlistName":"ุฏููู ุงููุงูุญูู ูุทุฑู ุฑูุงุถ ุงูุตุงูุญูู","category":"ูุชููุน"},{"id":"m650j4HSECo","title":"ูกูคูฃ ุญุฏูุซ ูุชุงู ุงููุดุฑููู ุญุชู ูุนูููุง ุจูููุฉ ุงูุชูุญูุฏ ุฏ. ูุณุฑู ุฌุจุฑ","publishedAt":"2018-05-20T23:12:35Z","duration":"PT27M6S","thumbnail":"https://i.ytimg.com/vi/m650j4HSECo/mqdefault.jpg","viewCount":"1295","playlistId":"PLEkQk5xrP-tnl7vb7KeAoPd5ZlqKKW8KV","playlistName":"ุดุฑุญ ูุชุงุจ ุจูุฌุฉ ุงููููุณ ุฃ.ุฏ . ูุณุฑู ุฌุจุฑ","category":"ูุชููุน"},{"id":"BBoHT7z6URs","title":"๐ด Majelis Sama' Hadits Shahih Bukhari - PP Progresif Bumi Shalawat (Jumat, 7 Februari 2025 | Sesi 2)","publishedAt":"2025-02-07T23:26:57Z","duration":"PT2H38M36S","thumbnail":"https://i.ytimg.com/vi/BBoHT7z6URs/mqdefault.jpg","viewCount":"1294","playlistId":"PLEkQk5xrP-tkKcTKLIthzWrdXY7QaOjh_","playlistName":"ูุฑุงุกุฉ ุตุญูุญ ุงูุจุฎุงุฑู ูุงููุงู ูู ุฅูุฏูููุณูุง","category":"ุญุฏูุซ"},{"id":"v0nUrHDjh-k","title":"32- ุทูุฑููู ุฅุซูุจูุงุชู ุงูุญููููู - ูู ูุชุงุจ ุงููููู ูุน ุงูุดุงูุฏ ุงููุงุญุฏ","publishedAt":"2022-01-22T07:26:58Z","duration":"PT46M33S","thumbnail":"https://i.ytimg.com/vi/v0nUrHDjh-k/mqdefault.jpg","viewCount":"1294","playlistId":"PLEkQk5xrP-tlDtaqY0qhNXAiZ19gaGzKI","playlistName":"ุดุฑุญ ูุณูุฏ ุงูุฅูุงู ูุญูุฏ ุจู ุฅุฏุฑูุณ ุงูุดุงูุนูู ุฑุถู ุงููู ุชุนุงูู ุนูู","category":"ููู"},{"id":"AfdehqiYnIQ","title":"ูู ุตูุงุฉ ุงูุฌูุนุฉ ุชุณูุท ูุฑุถ ุงูุธูุฑุ | ูุฌุงูุณ ุฑูุถุงููุฉ","publishedAt":"2025-03-10T15:00:19Z","duration":"PT25M7S","thumbnail":"https://i.ytimg.com/vi/AfdehqiYnIQ/mqdefault.jpg","viewCount":"1294","playlistId":"PLEkQk5xrP-tkeI_WVPfuoTJO46aVkpaz0","playlistName":"ุดุฑุญ ูุชุงุจ ููุฒุงู ุงูุงุนุชุฏุงู ูุญูุธ ุงูุฏูู ูุงูุฃุญูุงู","category":"ูุชููุน"},{"id":"O8A484glFRM","title":"ููุฑุฃุฉ ุณูุฑุฉ ุงูููู ูู ุฃูููุง","publishedAt":"2019-08-17T11:23:10Z","duration":"PT14M22S","thumbnail":"https://i.ytimg.com/vi/O8A484glFRM/mqdefault.jpg","viewCount":"1294","playlistId":"PLEkQk5xrP-tnmTYsyW6xNdyfhPq0Bhrhj","playlistName":"ููุฑุฃุฉ ุงููุฌุฑ - ุงูููุฑูุขูู ุงูููุฑูููู - ุฎูุชูููุฉู ุงูุชููุฏูุจููุฑู  ุฃ.ุฏ. ูุณุฑู ุฌุจุฑ","category":"ูุชููุน"},{"id":"FMAKJQ04twM","title":"330- ูููููู ุชุนุงูู \"ูููู ูููู ุงูููููู ุฃูุญูุฏู\" - ุดุฑุญ ุฏููู ุงููุงูุญูู","publishedAt":"2022-11-09T09:00:12Z","duration":"PT52M11S","thumbnail":"https://i.ytimg.com/vi/FMAKJQ04twM/mqdefault.jpg","viewCount":"1293","playlistId":"PLEkQk5xrP-tkc9DXvSLguqX5-FYp6ASR4","playlistName":"ุฏููู ุงููุงูุญูู ูุทุฑู ุฑูุงุถ ุงูุตุงูุญูู","category":"ูุชููุน"}],"total":7670,"page":133,"pageSize":24,"totalPages":320}