{"items":[{"id":"fK_PeG_WVjA","title":"صحيح الإمام البخاري رضي الله عنه - كتاب الطلاق - المجلس السابع عشر","publishedAt":"2016-01-06T18:55:07Z","duration":"PT42M56S","thumbnail":"https://i.ytimg.com/vi/fK_PeG_WVjA/mqdefault.jpg","viewCount":"102","playlistId":"PLEkQk5xrP-tmJuzaj4GWRenFoFx9gdbFX","playlistName":"شرح كتاب صحيح الإمام البخاري رضي الله تعالى عنه   أ.د. يسرى جبر","category":"حديث"},{"id":"D1opCHa29b8","title":"قراءة القرآن (من أول سورة البلد)","publishedAt":"2016-03-16T11:15:09Z","duration":"PT17M46S","thumbnail":"https://i.ytimg.com/vi/D1opCHa29b8/mqdefault.jpg","viewCount":"101","playlistId":"PLEkQk5xrP-tnUSUj0uyJhA-kwNC7Gkx_j","playlistName":"مقرأة الفجر - بداية من سورة الإسراء حتى سورة الناس","category":"تفسير"},{"id":"cCk15XjGkMA","title":"قراءة القرآن (من أول سورة القصص)","publishedAt":"2015-07-09T03:41:42Z","duration":"PT10M21S","thumbnail":"https://i.ytimg.com/vi/cCk15XjGkMA/mqdefault.jpg","viewCount":"101","playlistId":"PLEkQk5xrP-tnUSUj0uyJhA-kwNC7Gkx_j","playlistName":"مقرأة الفجر - بداية من سورة الإسراء حتى سورة الناس","category":"تفسير"},{"id":"AZKhf92SrD8","title":"صحيح الإمام البخاري رضي الله عنه - كتاب الطلاق - المجلس الثاني عشر","publishedAt":"2015-12-07T09:04:32Z","duration":"PT27M43S","thumbnail":"https://i.ytimg.com/vi/AZKhf92SrD8/mqdefault.jpg","viewCount":"101","playlistId":"PLEkQk5xrP-tmJuzaj4GWRenFoFx9gdbFX","playlistName":"شرح كتاب صحيح الإمام البخاري رضي الله تعالى عنه   أ.د. يسرى جبر","category":"حديث"},{"id":"8W1FNXH2PTA","title":"شرح كتاب اللباس من جامع الترمذي - المجلس السادس","publishedAt":"2015-08-16T04:53:28Z","duration":"PT40M8S","thumbnail":"https://i.ytimg.com/vi/8W1FNXH2PTA/mqdefault.jpg","viewCount":"101","playlistId":"PLEkQk5xrP-tnu6of679SvxdVx0qSrJzmb","playlistName":"شرح سنن الإمام الترمذي رضى الله عنه د. يسري جبر","category":"متنوع"},{"id":"WqnfjsVpHq4","title":"قراءة القرآن (من أول سورة الفيل)","publishedAt":"2016-04-08T05:57:07Z","duration":"PT11M51S","thumbnail":"https://i.ytimg.com/vi/WqnfjsVpHq4/mqdefault.jpg","viewCount":"100","playlistId":"PLEkQk5xrP-tnUSUj0uyJhA-kwNC7Gkx_j","playlistName":"مقرأة الفجر - بداية من سورة الإسراء حتى سورة الناس","category":"تفسير"},{"id":"GcBM0tMKhrU","title":"شرح كتاب تفسير القرآن من سنن الترمذي - المجلس الرابع والعشرون","publishedAt":"2016-05-01T02:53:01Z","duration":"PT33M12S","thumbnail":"https://i.ytimg.com/vi/GcBM0tMKhrU/mqdefault.jpg","viewCount":"100","playlistId":"PLEkQk5xrP-tnu6of679SvxdVx0qSrJzmb","playlistName":"شرح سنن الإمام الترمذي رضى الله عنه د. يسري جبر","category":"متنوع"},{"id":"2bu51_cSZ7E","title":"صحيح الإمام البخاري رضي الله عنه - كتاب الديَاتِ  د.يسري جبر","publishedAt":"2018-04-01T20:53:03Z","duration":"PT37M21S","thumbnail":"https://i.ytimg.com/vi/2bu51_cSZ7E/mqdefault.jpg","viewCount":"100","playlistId":"PLEkQk5xrP-tmJuzaj4GWRenFoFx9gdbFX","playlistName":"شرح كتاب صحيح الإمام البخاري رضي الله تعالى عنه   أ.د. يسرى جبر","category":"حديث"},{"id":"nDZfqkPZqII","title":"قراءة القرآن (من آية ٣٤ سورة القلم)","publishedAt":"2016-02-01T16:00:14Z","duration":"PT10M6S","thumbnail":"https://i.ytimg.com/vi/nDZfqkPZqII/mqdefault.jpg","viewCount":"100","playlistId":"PLEkQk5xrP-tnUSUj0uyJhA-kwNC7Gkx_j","playlistName":"مقرأة الفجر - بداية من سورة الإسراء حتى سورة الناس","category":"تفسير"},{"id":"X1FVLoU8LDc","title":"قراءة القرآن (من أول سورة الممتحنة)","publishedAt":"2016-01-18T06:41:01Z","duration":"PT11M17S","thumbnail":"https://i.ytimg.com/vi/X1FVLoU8LDc/mqdefault.jpg","viewCount":"100","playlistId":"PLEkQk5xrP-tnUSUj0uyJhA-kwNC7Gkx_j","playlistName":"مقرأة الفجر - بداية من سورة الإسراء حتى سورة الناس","category":"تفسير"},{"id":"MxIG5-Yce9Y","title":"شرح كتاب اللباس من جامع الترمذي - المجلس الثالث","publishedAt":"2015-08-13T04:41:23Z","duration":"PT42M41S","thumbnail":"https://i.ytimg.com/vi/MxIG5-Yce9Y/mqdefault.jpg","viewCount":"100","playlistId":"PLEkQk5xrP-tnu6of679SvxdVx0qSrJzmb","playlistName":"شرح سنن الإمام الترمذي رضى الله عنه د. يسري جبر","category":"متنوع"},{"id":"xqICkQBKN9U","title":"شرح كتاب الجهاد من سنن الترمذي - المجلس الخامس","publishedAt":"2015-08-10T04:17:24Z","duration":"PT42M32S","thumbnail":"https://i.ytimg.com/vi/xqICkQBKN9U/mqdefault.jpg","viewCount":"100","playlistId":"PLEkQk5xrP-tnu6of679SvxdVx0qSrJzmb","playlistName":"شرح سنن الإمام الترمذي رضى الله عنه د. يسري جبر","category":"متنوع"},{"id":"Blh3mvtpQsg","title":"شرح كتاب تفسير القرآن من سنن الترمذي - المجلس الرابع والثلاثون","publishedAt":"2016-05-12T09:51:08Z","duration":"PT41M19S","thumbnail":"https://i.ytimg.com/vi/Blh3mvtpQsg/mqdefault.jpg","viewCount":"99","playlistId":"PLEkQk5xrP-tnu6of679SvxdVx0qSrJzmb","playlistName":"شرح سنن الإمام الترمذي رضى الله عنه د. يسري جبر","category":"متنوع"},{"id":"-GYaus2hmNw","title":"صحيح الإمام البخاري رضي الله عنه - كتاب الذبائح والصيد والتسمية على الصيد -المجلس الثامن د. يسري جبر","publishedAt":"2016-04-19T15:46:12Z","duration":"PT1H7M3S","thumbnail":"https://i.ytimg.com/vi/-GYaus2hmNw/mqdefault.jpg","viewCount":"99","playlistId":"PLEkQk5xrP-tmJuzaj4GWRenFoFx9gdbFX","playlistName":"شرح كتاب صحيح الإمام البخاري رضي الله تعالى عنه   أ.د. يسرى جبر","category":"حديث"},{"id":"9U7EBDL0LB8","title":"قراءة القرآن (من آية ٧ سورة المجادلة)","publishedAt":"2016-01-14T10:46:56Z","duration":"PT14M38S","thumbnail":"https://i.ytimg.com/vi/9U7EBDL0LB8/mqdefault.jpg","viewCount":"99","playlistId":"PLEkQk5xrP-tnUSUj0uyJhA-kwNC7Gkx_j","playlistName":"مقرأة الفجر - بداية من سورة الإسراء حتى سورة الناس","category":"تفسير"},{"id":"Z-jSaXDwnoE","title":"شرح كتاب الطب من سنن الترمذي - المجلس الخامس","publishedAt":"2015-12-07T01:51:15Z","duration":"PT30M","thumbnail":"https://i.ytimg.com/vi/Z-jSaXDwnoE/mqdefault.jpg","viewCount":"99","playlistId":"PLEkQk5xrP-tnu6of679SvxdVx0qSrJzmb","playlistName":"شرح سنن الإمام الترمذي رضى الله عنه د. يسري جبر","category":"متنوع"},{"id":"3EMsbVFeeDg","title":"شرح كتاب الجهاد من سنن الترمذي - المجلس الأول","publishedAt":"2015-08-06T04:27:01Z","duration":"PT27M","thumbnail":"https://i.ytimg.com/vi/3EMsbVFeeDg/mqdefault.jpg","viewCount":"99","playlistId":"PLEkQk5xrP-tnu6of679SvxdVx0qSrJzmb","playlistName":"شرح سنن الإمام الترمذي رضى الله عنه د. يسري جبر","category":"متنوع"},{"id":"GHdFoxhaiIQ","title":"صحيح الإمام البخاري رضي الله عنه - كتاب اللباس ( باب خواتيم الذهب ) المجلس السادس  د. يسري جبر","publishedAt":"2016-10-30T14:55:20Z","duration":"PT34M11S","thumbnail":"https://i.ytimg.com/vi/GHdFoxhaiIQ/mqdefault.jpg","viewCount":"98","playlistId":"PLEkQk5xrP-tmJuzaj4GWRenFoFx9gdbFX","playlistName":"شرح كتاب صحيح الإمام البخاري رضي الله تعالى عنه   أ.د. يسرى جبر","category":"حديث"},{"id":"QwBB8b-0u38","title":"صحيح الإمام البخاري رضي الله عنه - كتاب الأدب - المجلس الثامن عشر د. يسري جبر","publishedAt":"2017-04-17T09:44:09Z","duration":"PT1H3M40S","thumbnail":"https://i.ytimg.com/vi/QwBB8b-0u38/mqdefault.jpg","viewCount":"98","playlistId":"PLEkQk5xrP-tmJuzaj4GWRenFoFx9gdbFX","playlistName":"شرح كتاب صحيح الإمام البخاري رضي الله تعالى عنه   أ.د. يسرى جبر","category":"حديث"},{"id":"fgihPinq3Fk","title":"قراءة القرآن (من أول سورة القيامة)","publishedAt":"2016-03-01T08:39:35Z","duration":"PT22M1S","thumbnail":"https://i.ytimg.com/vi/fgihPinq3Fk/mqdefault.jpg","viewCount":"98","playlistId":"PLEkQk5xrP-tnUSUj0uyJhA-kwNC7Gkx_j","playlistName":"مقرأة الفجر - بداية من سورة الإسراء حتى سورة الناس","category":"تفسير"},{"id":"o4Nj_5TdcD8","title":"شرح كتاب الأضاحي من سنن الترمذى - المجلس الثاني","publishedAt":"2015-07-06T03:31:41Z","duration":"PT17M10S","thumbnail":"https://i.ytimg.com/vi/o4Nj_5TdcD8/mqdefault.jpg","viewCount":"98","playlistId":"PLEkQk5xrP-tnu6of679SvxdVx0qSrJzmb","playlistName":"شرح سنن الإمام الترمذي رضى الله عنه د. يسري جبر","category":"متنوع"},{"id":"iIWDX0C7gcI","title":"شرح كتاب الفرائض من سنن الترمذي - المجلس الرابع","publishedAt":"2015-12-09T00:47:50Z","duration":"PT37M41S","thumbnail":"https://i.ytimg.com/vi/iIWDX0C7gcI/mqdefault.jpg","viewCount":"98","playlistId":"PLEkQk5xrP-tnu6of679SvxdVx0qSrJzmb","playlistName":"شرح سنن الإمام الترمذي رضى الله عنه د. يسري جبر","category":"متنوع"},{"id":"1Ub0SDKsIXc","title":"قراءة القرآن ( من آية 15 سورة فاطر)","publishedAt":"2015-08-17T03:52:05Z","duration":"PT20M16S","thumbnail":"https://i.ytimg.com/vi/1Ub0SDKsIXc/mqdefault.jpg","viewCount":"98","playlistId":"PLEkQk5xrP-tnUSUj0uyJhA-kwNC7Gkx_j","playlistName":"مقرأة الفجر - بداية من سورة الإسراء حتى سورة الناس","category":"تفسير"},{"id":"lw5cdq_vX7E","title":"شرح كتاب الجهاد من سنن الترمذي - المجلس الرابع","publishedAt":"2015-08-09T04:19:38Z","duration":"PT41M11S","thumbnail":"https://i.ytimg.com/vi/lw5cdq_vX7E/mqdefault.jpg","viewCount":"98","playlistId":"PLEkQk5xrP-tnu6of679SvxdVx0qSrJzmb","playlistName":"شرح سنن الإمام الترمذي رضى الله عنه د. يسري جبر","category":"متنوع"}],"total":7670,"page":316,"pageSize":24,"totalPages":320}