{"items":[{"id":"5YyIFafYEmI","title":"خطاب عين والمراد غيره","publishedAt":"2020-10-03T06:37:24Z","duration":"PT25M19S","thumbnail":"https://i.ytimg.com/vi/5YyIFafYEmI/mqdefault.jpg","viewCount":"944","playlistId":"PLEkQk5xrP-tnW3iBL7HkKziOFCFZbTlf0","playlistName":"شرح البرهان في علوم القرآن - أ.د. يسري جبر","category":"تفسير"},{"id":"CX_jMf03-Os","title":"492- حنين الجذع لفراق النَّبيّ ﷺ وكيف ضمَّه فسَكَن - شرح دليل الفالحين","publishedAt":"2023-07-03T08:59:00Z","duration":"PT32M47S","thumbnail":"https://i.ytimg.com/vi/CX_jMf03-Os/mqdefault.jpg","viewCount":"943","playlistId":"PLEkQk5xrP-tkc9DXvSLguqX5-FYp6ASR4","playlistName":"دليل الفالحين لطرق رياض الصالحين","category":"متنوع"},{"id":"Vx_nQLwGoMw","title":"28- غسل الوجه وبيان اسم كل جزء فيه - شرح سنن الإمام الدار قطني رضي الله عنه","publishedAt":"2024-01-06T10:07:40Z","duration":"PT34M59S","thumbnail":"https://i.ytimg.com/vi/Vx_nQLwGoMw/mqdefault.jpg","viewCount":"942","playlistId":"PLEkQk5xrP-tk_MCBZ706ORCw6gFtFyaGj","playlistName":"شرح سنن الإمام الدارقطني","category":"متنوع"},{"id":"Wh37N31GvQA","title":"التَّوْرِيَة - شرح البرهان في علوم القرآن","publishedAt":"2022-02-19T07:02:36Z","duration":"PT40M41S","thumbnail":"https://i.ytimg.com/vi/Wh37N31GvQA/mqdefault.jpg","viewCount":"941","playlistId":"PLEkQk5xrP-tnW3iBL7HkKziOFCFZbTlf0","playlistName":"شرح البرهان في علوم القرآن - أ.د. يسري جبر","category":"تفسير"},{"id":"I0bYLcJbjac","title":"( 116 ) حديث يحرم من الرضاع ما يحرم من النسب","publishedAt":"2016-06-19T15:26:24Z","duration":"PT30M19S","thumbnail":"https://i.ytimg.com/vi/I0bYLcJbjac/mqdefault.jpg","viewCount":"941","playlistId":"PLEkQk5xrP-tnl7vb7KeAoPd5ZlqKKW8KV","playlistName":"شرح كتاب بهجة النفوس أ.د . يسرى جبر","category":"متنوع"},{"id":"gkZ5x1s6dAM","title":"قراءة القرآن (من آية ١٧٧ سورة البقرة)","publishedAt":"2016-05-06T09:24:43Z","duration":"PT16M1S","thumbnail":"https://i.ytimg.com/vi/gkZ5x1s6dAM/mqdefault.jpg","viewCount":"940","playlistId":"PLEkQk5xrP-tnmTYsyW6xNdyfhPq0Bhrhj","playlistName":"مقرأة الفجر - القُرْآنُ الكَرِيمُ - خَتْمَةُ التَّدَبُّرِ  أ.د. يسري جبر","category":"متنوع"},{"id":"xRtPVBFY9_o","title":"شرح صحيح البخاري   كتاب الحج من باب ٥","publishedAt":"2017-02-28T12:12:40Z","duration":"PT27M34S","thumbnail":"https://i.ytimg.com/vi/xRtPVBFY9_o/mqdefault.jpg","viewCount":"940","playlistId":"PLEkQk5xrP-tlEerGoLa1AFy-2XvQ-sovv","playlistName":"شرح صحيح البخاري - أ.د. يسري جبر (كاملا)","category":"حديث"},{"id":"oUyJKnzF294","title":"217- المطلق والمقيد - شرح الإتقان في علوم القرآن","publishedAt":"2024-03-14T06:30:23Z","duration":"PT27M32S","thumbnail":"https://i.ytimg.com/vi/oUyJKnzF294/mqdefault.jpg","viewCount":"940","playlistId":"PLEkQk5xrP-tlPw10KGJKagu7zm4Ry2Tge","playlistName":"شرح الإتقان في علوم القرآن","category":"تفسير"},{"id":"FRRhRiWiOvQ","title":"69- ما هي فتنة سيدنا داود؟ | وما الفرق بين سجود التلاوة وسجود الشكر | شرح سنن الإمام الدارقطني","publishedAt":"2025-11-29T10:00:33Z","duration":"PT36M40S","thumbnail":"https://i.ytimg.com/vi/FRRhRiWiOvQ/mqdefault.jpg","viewCount":"939","playlistId":"PLEkQk5xrP-tk_MCBZ706ORCw6gFtFyaGj","playlistName":"شرح سنن الإمام الدارقطني","category":"متنوع"},{"id":"upsqCfo9mcc","title":"حول مولد سيدتنا فاطمة الزهراء البتول رضي الله عنها وعليها السلام  أ.د. يسري جبر","publishedAt":"2019-02-24T18:36:12Z","duration":"PT37M14S","thumbnail":"https://i.ytimg.com/vi/upsqCfo9mcc/mqdefault.jpg","viewCount":"939","playlistId":"PLEkQk5xrP-tlArtGpeLWaqNM7h7IDeAVC","playlistName":"خطب الجمعة أ.د. يسري جبر","category":"خطب"},{"id":"TNOq6TrqDv0","title":"شرح صحيح البخاري كتاب الأذان من باب ١٢٩","publishedAt":"2016-11-25T06:39:22Z","duration":"PT35M37S","thumbnail":"https://i.ytimg.com/vi/TNOq6TrqDv0/mqdefault.jpg","viewCount":"939","playlistId":"PLEkQk5xrP-tlEerGoLa1AFy-2XvQ-sovv","playlistName":"شرح صحيح البخاري - أ.د. يسري جبر (كاملا)","category":"حديث"},{"id":"0eE-goJ9pwY","title":"شرح كتاب الإشارات الزروقيّة علی الآيات القرآنية - المجلس الخامس","publishedAt":"2018-06-28T09:27:56Z","duration":"PT35M54S","thumbnail":"https://i.ytimg.com/vi/0eE-goJ9pwY/mqdefault.jpg","viewCount":"939","playlistId":"PLEkQk5xrP-tl1OLT5J2vthcf9QHpjNkWx","playlistName":"شرح كتاب الإشارات الزروقيّة علی الآيات القرآنية  د. يسري جبر","category":"تفسير"},{"id":"1svglzxNYXg","title":"الإبدال - شرح كتاب البرهان في علوم القرآن","publishedAt":"2022-01-04T07:04:02Z","duration":"PT14M30S","thumbnail":"https://i.ytimg.com/vi/1svglzxNYXg/mqdefault.jpg","viewCount":"938","playlistId":"PLEkQk5xrP-tnW3iBL7HkKziOFCFZbTlf0","playlistName":"شرح البرهان في علوم القرآن - أ.د. يسري جبر","category":"تفسير"},{"id":"layJ_uS1O6o","title":"517- عطف الشيء على نفسه، عطف بغير أداة عطف، عطف على المضمر إن كان منفصلًا مرفوعًا","publishedAt":"2022-05-29T05:15:00Z","duration":"PT32M26S","thumbnail":"https://i.ytimg.com/vi/layJ_uS1O6o/mqdefault.jpg","viewCount":"937","playlistId":"PLEkQk5xrP-tnW3iBL7HkKziOFCFZbTlf0","playlistName":"شرح البرهان في علوم القرآن - أ.د. يسري جبر","category":"تفسير"},{"id":"QDU_Yh73u5c","title":"كلمة فضيلة الدكتور يسري جبر في مؤتمر التصوف العالمي السابع فى مقديشو 2/2","publishedAt":"2018-04-19T19:06:40Z","duration":"PT8M46S","thumbnail":"https://i.ytimg.com/vi/QDU_Yh73u5c/mqdefault.jpg","viewCount":"937","playlistId":"PLEkQk5xrP-tm8ZIu74nTOZN9KJUJu416J","playlistName":"مقاطع مُهمَّة (يُسريَّات) أ.د. يسري جبر","category":"متنوع"},{"id":"AcoaRgelAGA","title":"شرح صحيح البخاري -  كتاب الحج من باب ٣٣","publishedAt":"2017-03-04T14:16:07Z","duration":"PT43M36S","thumbnail":"https://i.ytimg.com/vi/AcoaRgelAGA/mqdefault.jpg","viewCount":"936","playlistId":"PLEkQk5xrP-tlEerGoLa1AFy-2XvQ-sovv","playlistName":"شرح صحيح البخاري - أ.د. يسري جبر (كاملا)","category":"حديث"},{"id":"_a57UiO-rIc","title":"مُعامَلةُ الحَقِّ في الخَلْق د.يسري جبر","publishedAt":"2018-08-03T22:54:51Z","duration":"PT41M8S","thumbnail":"https://i.ytimg.com/vi/_a57UiO-rIc/mqdefault.jpg","viewCount":"936","playlistId":"PLEkQk5xrP-tlArtGpeLWaqNM7h7IDeAVC","playlistName":"خطب الجمعة أ.د. يسري جبر","category":"خطب"},{"id":"lrSFCRZDlmc","title":"شرح صحيح البخاري كتاب الدعوات من أوله","publishedAt":"2018-10-02T10:18:09Z","duration":"PT16M46S","thumbnail":"https://i.ytimg.com/vi/lrSFCRZDlmc/mqdefault.jpg","viewCount":"935","playlistId":"PLEkQk5xrP-tlEerGoLa1AFy-2XvQ-sovv","playlistName":"شرح صحيح البخاري - أ.د. يسري جبر (كاملا)","category":"حديث"},{"id":"0BvcNpTwxPI","title":"114- حكم مَن اتُّهِمَ زُورًا - شرح مسند الإمام أحمد رضي الله تعالى عنه","publishedAt":"2024-06-29T07:03:44Z","duration":"PT36M36S","thumbnail":"https://i.ytimg.com/vi/0BvcNpTwxPI/mqdefault.jpg","viewCount":"935","playlistId":"PLEkQk5xrP-tkKprIuGrSdEuBSMsyg5We1","playlistName":"شرح مسند الإمام أحمد بن حنبل","category":"متنوع"},{"id":"BByzeuce25M","title":"131- كيف تتعامل مع مديرك إذا كلَّفك بشيء أخطأ فيه؟ - شرح مسند الإمام أحمد رضي الله تعالى عنه","publishedAt":"2024-10-28T06:00:06Z","duration":"PT39M11S","thumbnail":"https://i.ytimg.com/vi/BByzeuce25M/mqdefault.jpg","viewCount":"934","playlistId":"PLEkQk5xrP-tkKprIuGrSdEuBSMsyg5We1","playlistName":"شرح مسند الإمام أحمد بن حنبل","category":"متنوع"},{"id":"k62LIGPhFVM","title":"شرح صحيح البخاري - كتاب البيوع من باب ١٠١","publishedAt":"2017-05-05T20:33:48Z","duration":"PT44M59S","thumbnail":"https://i.ytimg.com/vi/k62LIGPhFVM/mqdefault.jpg","viewCount":"934","playlistId":"PLEkQk5xrP-tlEerGoLa1AFy-2XvQ-sovv","playlistName":"شرح صحيح البخاري - أ.د. يسري جبر (كاملا)","category":"حديث"},{"id":"nj7BC7Pwpeo","title":"فضل الإنفاق في سبيل الله | مجالس رمضانية","publishedAt":"2025-03-29T10:00:57Z","duration":"PT38M5S","thumbnail":"https://i.ytimg.com/vi/nj7BC7Pwpeo/mqdefault.jpg","viewCount":"933","playlistId":"PLEkQk5xrP-tkeI_WVPfuoTJO46aVkpaz0","playlistName":"شرح كتاب ميزان الاعتدال لحفظ الدين والأحوال","category":"متنوع"},{"id":"LwyujWYPJ7g","title":"سورة النساء من أولها","publishedAt":"2016-08-08T06:40:27Z","duration":"PT19M53S","thumbnail":"https://i.ytimg.com/vi/LwyujWYPJ7g/mqdefault.jpg","viewCount":"933","playlistId":"PLEkQk5xrP-tnmTYsyW6xNdyfhPq0Bhrhj","playlistName":"مقرأة الفجر - القُرْآنُ الكَرِيمُ - خَتْمَةُ التَّدَبُّرِ  أ.د. يسري جبر","category":"متنوع"},{"id":"YYs26aamPAU","title":"480- مجيءُ المَشرِق والمغرب في القرآن(بالجمع-التثنية-الإفراد) فما الفرق؟ شرح البرهان في علوم القرآن","publishedAt":"2022-03-20T06:30:14Z","duration":"PT24M19S","thumbnail":"https://i.ytimg.com/vi/YYs26aamPAU/mqdefault.jpg","viewCount":"932","playlistId":"PLEkQk5xrP-tnW3iBL7HkKziOFCFZbTlf0","playlistName":"شرح البرهان في علوم القرآن - أ.د. يسري جبر","category":"تفسير"}],"total":7670,"page":159,"pageSize":24,"totalPages":320}