{"items":[{"id":"sQgivjziTV0","title":"مقرأة سورة الأنبياء من آية ٥١","publishedAt":"2017-12-17T08:39:52Z","duration":"PT21M4S","thumbnail":"https://i.ytimg.com/vi/sQgivjziTV0/mqdefault.jpg","viewCount":"332","playlistId":"PLEkQk5xrP-tnmTYsyW6xNdyfhPq0Bhrhj","playlistName":"مقرأة الفجر - القُرْآنُ الكَرِيمُ - خَتْمَةُ التَّدَبُّرِ  أ.د. يسري جبر","category":"متنوع"},{"id":"lRoDXA0hmik","title":"‎شرح صحيح الإمام البخاري رضي الله تعالى عنه - كتاب الاعتصام من أوله - أ.د. يسري جبر","publishedAt":"2019-12-12T08:25:37Z","duration":"PT26M28S","thumbnail":"https://i.ytimg.com/vi/lRoDXA0hmik/mqdefault.jpg","viewCount":"331","playlistId":"PLEkQk5xrP-tmJuzaj4GWRenFoFx9gdbFX","playlistName":"شرح كتاب صحيح الإمام البخاري رضي الله تعالى عنه   أ.د. يسرى جبر","category":"حديث"},{"id":"LBdshoALR3Y","title":"شرح سنن الدارمي كتاب البيوع من باب ٢٣","publishedAt":"2019-09-09T12:55:27Z","duration":"PT27M13S","thumbnail":"https://i.ytimg.com/vi/LBdshoALR3Y/mqdefault.jpg","viewCount":"331","playlistId":"PLEkQk5xrP-tmAg-FuWjY057X_h5NmGmAa","playlistName":"شرح سنن الدارمي - أ.د. يسري جبر (كاملا)","category":"متنوع"},{"id":"hjx_mSC1iDs","title":"مقرأة سورة العنكبوت من آية ٤١","publishedAt":"2018-06-10T10:41:49Z","duration":"PT17M1S","thumbnail":"https://i.ytimg.com/vi/hjx_mSC1iDs/mqdefault.jpg","viewCount":"331","playlistId":"PLEkQk5xrP-tnmTYsyW6xNdyfhPq0Bhrhj","playlistName":"مقرأة الفجر - القُرْآنُ الكَرِيمُ - خَتْمَةُ التَّدَبُّرِ  أ.د. يسري جبر","category":"متنوع"},{"id":"fX0mr2O0x5Q","title":"مقرأة سورة التوبة من آية ١٢٠","publishedAt":"2017-05-05T18:45:28Z","duration":"PT11M17S","thumbnail":"https://i.ytimg.com/vi/fX0mr2O0x5Q/mqdefault.jpg","viewCount":"331","playlistId":"PLEkQk5xrP-tnmTYsyW6xNdyfhPq0Bhrhj","playlistName":"مقرأة الفجر - القُرْآنُ الكَرِيمُ - خَتْمَةُ التَّدَبُّرِ  أ.د. يسري جبر","category":"متنوع"},{"id":"UpdDA1UDI1Q","title":"مقرأة سورة الشورى من آية ٤٩","publishedAt":"2018-12-09T11:51:07Z","duration":"PT18M42S","thumbnail":"https://i.ytimg.com/vi/UpdDA1UDI1Q/mqdefault.jpg","viewCount":"331","playlistId":"PLEkQk5xrP-tnmTYsyW6xNdyfhPq0Bhrhj","playlistName":"مقرأة الفجر - القُرْآنُ الكَرِيمُ - خَتْمَةُ التَّدَبُّرِ  أ.د. يسري جبر","category":"متنوع"},{"id":"GowdPcIdNRs","title":"مقرأة سورة النحل من آية ٩٠","publishedAt":"2017-09-02T05:34:36Z","duration":"PT22M35S","thumbnail":"https://i.ytimg.com/vi/GowdPcIdNRs/mqdefault.jpg","viewCount":"330","playlistId":"PLEkQk5xrP-tnmTYsyW6xNdyfhPq0Bhrhj","playlistName":"مقرأة الفجر - القُرْآنُ الكَرِيمُ - خَتْمَةُ التَّدَبُّرِ  أ.د. يسري جبر","category":"متنوع"},{"id":"XmN2DKLnkTk","title":"شرح سنن الدارمي كتاب الوصايا من أوله","publishedAt":"2019-11-02T12:11:37Z","duration":"PT24M4S","thumbnail":"https://i.ytimg.com/vi/XmN2DKLnkTk/mqdefault.jpg","viewCount":"330","playlistId":"PLEkQk5xrP-tmAg-FuWjY057X_h5NmGmAa","playlistName":"شرح سنن الدارمي - أ.د. يسري جبر (كاملا)","category":"متنوع"},{"id":"wQR5wMpnCwo","title":"شرح سنن الدارمي كتاب الجهاد من باب ١١","publishedAt":"2019-08-25T18:14:39Z","duration":"PT20M7S","thumbnail":"https://i.ytimg.com/vi/wQR5wMpnCwo/mqdefault.jpg","viewCount":"330","playlistId":"PLEkQk5xrP-tmAg-FuWjY057X_h5NmGmAa","playlistName":"شرح سنن الدارمي - أ.د. يسري جبر (كاملا)","category":"متنوع"},{"id":"pGjXHEDhSY8","title":"شرح سنن الدارمي كتاب المناسك من باب ٥","publishedAt":"2019-06-30T20:13:51Z","duration":"PT24M40S","thumbnail":"https://i.ytimg.com/vi/pGjXHEDhSY8/mqdefault.jpg","viewCount":"330","playlistId":"PLEkQk5xrP-tmAg-FuWjY057X_h5NmGmAa","playlistName":"شرح سنن الدارمي - أ.د. يسري جبر (كاملا)","category":"متنوع"},{"id":"OmeS26EQ1kM","title":"شرح البرهان في علوم القرآن - النوع ٤٠ - في بيان معاضدة السنة للقرآن ٤","publishedAt":"2020-04-03T07:00:06Z","duration":"PT27M22S","thumbnail":"https://i.ytimg.com/vi/OmeS26EQ1kM/mqdefault.jpg","viewCount":"330","playlistId":"PLEkQk5xrP-tnW3iBL7HkKziOFCFZbTlf0","playlistName":"شرح البرهان في علوم القرآن - أ.د. يسري جبر","category":"تفسير"},{"id":"UkUBuVr6rEQ","title":"سورة الرعد آية 19","publishedAt":"2017-07-21T13:23:52Z","duration":"PT15M29S","thumbnail":"https://i.ytimg.com/vi/UkUBuVr6rEQ/mqdefault.jpg","viewCount":"330","playlistId":"PLEkQk5xrP-tnmTYsyW6xNdyfhPq0Bhrhj","playlistName":"مقرأة الفجر - القُرْآنُ الكَرِيمُ - خَتْمَةُ التَّدَبُّرِ  أ.د. يسري جبر","category":"متنوع"},{"id":"c_nlTC1SR0U","title":"القِسمُ (14) من التوكيد: فوائد التَّكرار: الفائدة السابعة (3) - شرح البرهان في علوم القرآن","publishedAt":"2021-04-30T04:41:38Z","duration":"PT29M38S","thumbnail":"https://i.ytimg.com/vi/c_nlTC1SR0U/mqdefault.jpg","viewCount":"330","playlistId":"PLEkQk5xrP-tnW3iBL7HkKziOFCFZbTlf0","playlistName":"شرح البرهان في علوم القرآن - أ.د. يسري جبر","category":"تفسير"},{"id":"lUUNPJ4XW0o","title":"الاختزال (31) حذف الفعل (5)- شرح البرهان في علوم القرآن","publishedAt":"2021-08-17T06:35:46Z","duration":"PT7M8S","thumbnail":"https://i.ytimg.com/vi/lUUNPJ4XW0o/mqdefault.jpg","viewCount":"330","playlistId":"PLEkQk5xrP-tnW3iBL7HkKziOFCFZbTlf0","playlistName":"شرح البرهان في علوم القرآن - أ.د. يسري جبر","category":"تفسير"},{"id":"b1CdOaDym00","title":"آدَابُ الصِيَامِ والقِيَامِ وَقِرَاءَةِ القُرْآنِ د. يسري جبر","publishedAt":"2015-06-22T18:56:49Z","duration":"PT32M53S","thumbnail":"https://i.ytimg.com/vi/b1CdOaDym00/mqdefault.jpg","viewCount":"329","playlistId":"PLEkQk5xrP-tlArtGpeLWaqNM7h7IDeAVC","playlistName":"خطب الجمعة أ.د. يسري جبر","category":"خطب"},{"id":"wGXrWAk47BA","title":"صحيح الإمام البخارى رضى الله عنه - كتاب فضائل القرآن - المجلس الثالث","publishedAt":"2014-12-14T04:28:42Z","duration":"PT1H4M18S","thumbnail":"https://i.ytimg.com/vi/wGXrWAk47BA/mqdefault.jpg","viewCount":"329","playlistId":"PLEkQk5xrP-tmJuzaj4GWRenFoFx9gdbFX","playlistName":"شرح كتاب صحيح الإمام البخاري رضي الله تعالى عنه   أ.د. يسرى جبر","category":"حديث"},{"id":"ym8xh9P-WeE","title":"القِسمُ التاسع من التوكيد: وضع الظاهر موضع المُضْمَر (7) شرح البرهان في علوم القرآن","publishedAt":"2021-04-02T05:47:21Z","duration":"PT18M29S","thumbnail":"https://i.ytimg.com/vi/ym8xh9P-WeE/mqdefault.jpg","viewCount":"329","playlistId":"PLEkQk5xrP-tnW3iBL7HkKziOFCFZbTlf0","playlistName":"شرح البرهان في علوم القرآن - أ.د. يسري جبر","category":"تفسير"},{"id":"jvAbPTF8DyM","title":"مقرأة سورة النحل من آية ٣٠","publishedAt":"2017-08-19T06:44:17Z","duration":"PT10M56S","thumbnail":"https://i.ytimg.com/vi/jvAbPTF8DyM/mqdefault.jpg","viewCount":"329","playlistId":"PLEkQk5xrP-tnmTYsyW6xNdyfhPq0Bhrhj","playlistName":"مقرأة الفجر - القُرْآنُ الكَرِيمُ - خَتْمَةُ التَّدَبُّرِ  أ.د. يسري جبر","category":"متنوع"},{"id":"AhNRLWqZYtw","title":"مقرأة سورة النمل من آية ٣٦","publishedAt":"2018-04-30T10:03:19Z","duration":"PT26M17S","thumbnail":"https://i.ytimg.com/vi/AhNRLWqZYtw/mqdefault.jpg","viewCount":"329","playlistId":"PLEkQk5xrP-tnmTYsyW6xNdyfhPq0Bhrhj","playlistName":"مقرأة الفجر - القُرْآنُ الكَرِيمُ - خَتْمَةُ التَّدَبُّرِ  أ.د. يسري جبر","category":"متنوع"},{"id":"7PTZsVBKZBQ","title":"الاختزال (8) حذف المعطوف عليه - شرح البرهان في علوم القرآن","publishedAt":"2021-07-05T05:40:18Z","duration":"PT11M48S","thumbnail":"https://i.ytimg.com/vi/7PTZsVBKZBQ/mqdefault.jpg","viewCount":"329","playlistId":"PLEkQk5xrP-tnW3iBL7HkKziOFCFZbTlf0","playlistName":"شرح البرهان في علوم القرآن - أ.د. يسري جبر","category":"تفسير"},{"id":"UcallKf1s5s","title":"47- الْبَدْءِ بِالصَّفَا فِى السَّعْىِ كتاب الحج ك الموطأ د يسري جبر الأزهري","publishedAt":"2017-04-20T23:46:46Z","duration":"PT1H2M38S","thumbnail":"https://i.ytimg.com/vi/UcallKf1s5s/mqdefault.jpg","viewCount":"329","playlistId":"PLEkQk5xrP-tnC6BRuqMjyO-484iqXeg0o","playlistName":"شرح كتاب الموطأ للإمام مالك","category":"متنوع"},{"id":"aMwMd35NvDo","title":"( 100 ) حَدِيثُ مَنْ لَمْ يُشْرِكْ بِاللهِ دَخَلَ الجَنَّةَ","publishedAt":"2015-10-22T19:34:40Z","duration":"PT41M3S","thumbnail":"https://i.ytimg.com/vi/aMwMd35NvDo/mqdefault.jpg","viewCount":"329","playlistId":"PLEkQk5xrP-tnl7vb7KeAoPd5ZlqKKW8KV","playlistName":"شرح كتاب بهجة النفوس أ.د . يسرى جبر","category":"متنوع"},{"id":"_NMVMvqDm9w","title":"318- مرسوم الخط وآداب كتابته (2) - شرح الإتقان في علوم القرآن","publishedAt":"2025-12-01T21:20:27Z","duration":"PT28M9S","thumbnail":"https://i.ytimg.com/vi/_NMVMvqDm9w/mqdefault.jpg","viewCount":"328","playlistId":"PLEkQk5xrP-tlPw10KGJKagu7zm4Ry2Tge","playlistName":"شرح الإتقان في علوم القرآن","category":"تفسير"},{"id":"6HG3Jq8g8-k","title":"مقرأة سورة الزمر من آية ١٣","publishedAt":"2018-10-16T07:26:35Z","duration":"PT13M18S","thumbnail":"https://i.ytimg.com/vi/6HG3Jq8g8-k/mqdefault.jpg","viewCount":"328","playlistId":"PLEkQk5xrP-tnmTYsyW6xNdyfhPq0Bhrhj","playlistName":"مقرأة الفجر - القُرْآنُ الكَرِيمُ - خَتْمَةُ التَّدَبُّرِ  أ.د. يسري جبر","category":"متنوع"}],"total":7670,"page":276,"pageSize":24,"totalPages":320}