{"items":[{"id":"Qv0kBapwHAc","title":"شرح سنن الدارمي كتاب الطهارة من باب ١١٥","publishedAt":"2019-04-24T21:43:59Z","duration":"PT31M54S","thumbnail":"https://i.ytimg.com/vi/Qv0kBapwHAc/mqdefault.jpg","viewCount":"335","playlistId":"PLEkQk5xrP-tmAg-FuWjY057X_h5NmGmAa","playlistName":"شرح سنن الدارمي - أ.د. يسري جبر (كاملا)","category":"متنوع"},{"id":"q4q85xnRZBQ","title":"مقرأة سورة فاطر من آية ٢٥","publishedAt":"2018-08-25T09:26:13Z","duration":"PT13M4S","thumbnail":"https://i.ytimg.com/vi/q4q85xnRZBQ/mqdefault.jpg","viewCount":"334","playlistId":"PLEkQk5xrP-tnmTYsyW6xNdyfhPq0Bhrhj","playlistName":"مقرأة الفجر - القُرْآنُ الكَرِيمُ - خَتْمَةُ التَّدَبُّرِ  أ.د. يسري جبر","category":"متنوع"},{"id":"Au7FilvU6AY","title":"شرح البرهان في علوم القرآن - النوع ٢٥ - علم مرسوم الخط (الناقص وأقسامه : حذف الألف ٢)","publishedAt":"2020-01-15T09:59:03Z","duration":"PT13M10S","thumbnail":"https://i.ytimg.com/vi/Au7FilvU6AY/mqdefault.jpg","viewCount":"334","playlistId":"PLEkQk5xrP-tnW3iBL7HkKziOFCFZbTlf0","playlistName":"شرح البرهان في علوم القرآن - أ.د. يسري جبر","category":"تفسير"},{"id":"m8IJ6bW7gMw","title":"( 119 ) حديث الإفك وبراءة السيدة عائشة أم المؤمنين منه - المجلس الثاني","publishedAt":"2016-06-23T14:44:52Z","duration":"PT31M1S","thumbnail":"https://i.ytimg.com/vi/m8IJ6bW7gMw/mqdefault.jpg","viewCount":"334","playlistId":"PLEkQk5xrP-tnl7vb7KeAoPd5ZlqKKW8KV","playlistName":"شرح كتاب بهجة النفوس أ.د . يسرى جبر","category":"متنوع"},{"id":"JwtNikjaMZ4","title":"شرح سنن الدارمي كتاب الصلاة من باب ٩٩","publishedAt":"2019-05-12T22:37:49Z","duration":"PT35M52S","thumbnail":"https://i.ytimg.com/vi/JwtNikjaMZ4/mqdefault.jpg","viewCount":"334","playlistId":"PLEkQk5xrP-tmAg-FuWjY057X_h5NmGmAa","playlistName":"شرح سنن الدارمي - أ.د. يسري جبر (كاملا)","category":"متنوع"},{"id":"JUm9kgg1vmQ","title":"مقرأة سورة القصص من آية ٥١","publishedAt":"2018-05-23T09:38:00Z","duration":"PT23M46S","thumbnail":"https://i.ytimg.com/vi/JUm9kgg1vmQ/mqdefault.jpg","viewCount":"334","playlistId":"PLEkQk5xrP-tnmTYsyW6xNdyfhPq0Bhrhj","playlistName":"مقرأة الفجر - القُرْآنُ الكَرِيمُ - خَتْمَةُ التَّدَبُّرِ  أ.د. يسري جبر","category":"متنوع"},{"id":"4bPRopDlU6o","title":"مقرأة سورة النمل من آية ٥٤","publishedAt":"2018-05-02T09:10:27Z","duration":"PT28M6S","thumbnail":"https://i.ytimg.com/vi/4bPRopDlU6o/mqdefault.jpg","viewCount":"334","playlistId":"PLEkQk5xrP-tnmTYsyW6xNdyfhPq0Bhrhj","playlistName":"مقرأة الفجر - القُرْآنُ الكَرِيمُ - خَتْمَةُ التَّدَبُّرِ  أ.د. يسري جبر","category":"متنوع"},{"id":"-icP_4ECmrw","title":"75- شرح اللؤلؤ والمرجان كتاب الحج من الباب الخامس والثمانين","publishedAt":"2020-02-23T06:00:00Z","duration":"PT24M6S","thumbnail":"https://i.ytimg.com/vi/-icP_4ECmrw/mqdefault.jpg","viewCount":"333","playlistId":"PLEkQk5xrP-tmKNjtYLfhATC37QdIsTMe0","playlistName":"شرح كتاب اللؤلؤ والمرجان فيما اتفق عليه الشيخان إماما المحدثين البخاري ومسلم. أ.د. يسري جبر","category":"حديث"},{"id":"R-6chPN_xYI","title":"قراءة القرآن ( من آية 29 سورة يس)","publishedAt":"2015-08-20T04:17:10Z","duration":"PT16M40S","thumbnail":"https://i.ytimg.com/vi/R-6chPN_xYI/mqdefault.jpg","viewCount":"333","playlistId":"PLEkQk5xrP-tnUSUj0uyJhA-kwNC7Gkx_j","playlistName":"مقرأة الفجر - بداية من سورة الإسراء حتى سورة الناس","category":"تفسير"},{"id":"TiG-Nm-6x0U","title":"شرح البرهان في علوم القرآن - النوع ٣٧ - في حكم الآيات المتشابهات الواردة في الصفات ٣","publishedAt":"2020-03-14T06:30:00Z","duration":"PT13M54S","thumbnail":"https://i.ytimg.com/vi/TiG-Nm-6x0U/mqdefault.jpg","viewCount":"333","playlistId":"PLEkQk5xrP-tnW3iBL7HkKziOFCFZbTlf0","playlistName":"شرح البرهان في علوم القرآن - أ.د. يسري جبر","category":"تفسير"},{"id":"4LUG3PoXl5s","title":"مقرأة سورة غافر من آية ٤٩","publishedAt":"2018-11-12T10:15:15Z","duration":"PT14M39S","thumbnail":"https://i.ytimg.com/vi/4LUG3PoXl5s/mqdefault.jpg","viewCount":"333","playlistId":"PLEkQk5xrP-tnmTYsyW6xNdyfhPq0Bhrhj","playlistName":"مقرأة الفجر - القُرْآنُ الكَرِيمُ - خَتْمَةُ التَّدَبُّرِ  أ.د. يسري جبر","category":"متنوع"},{"id":"SJy5Egc-WPk","title":"القِسمُ العاشرُ من التوكيد: صِيَغُ المبالغة (2) \"تنبيهات\" شرح البرهان في علوم القرآن","publishedAt":"2021-04-06T06:05:26Z","duration":"PT19M2S","thumbnail":"https://i.ytimg.com/vi/SJy5Egc-WPk/mqdefault.jpg","viewCount":"333","playlistId":"PLEkQk5xrP-tnW3iBL7HkKziOFCFZbTlf0","playlistName":"شرح البرهان في علوم القرآن - أ.د. يسري جبر","category":"تفسير"},{"id":"1GZQF2AYIa0","title":"مقرأة سورة النور من آية ٤","publishedAt":"2018-03-09T16:47:22Z","duration":"PT7M41S","thumbnail":"https://i.ytimg.com/vi/1GZQF2AYIa0/mqdefault.jpg","viewCount":"333","playlistId":"PLEkQk5xrP-tnmTYsyW6xNdyfhPq0Bhrhj","playlistName":"مقرأة الفجر - القُرْآنُ الكَرِيمُ - خَتْمَةُ التَّدَبُّرِ  أ.د. يسري جبر","category":"متنوع"},{"id":"957Hx8iZwys","title":"شرح صحيح البخاري كتاب الإعتصام بالكتاب والسنة من باب ١٨","publishedAt":"2019-01-28T10:30:15Z","duration":"PT28M8S","thumbnail":"https://i.ytimg.com/vi/957Hx8iZwys/mqdefault.jpg","viewCount":"333","playlistId":"PLEkQk5xrP-tlEerGoLa1AFy-2XvQ-sovv","playlistName":"شرح صحيح البخاري - أ.د. يسري جبر (كاملا)","category":"حديث"},{"id":"dflODl0A_5A","title":"مقرأة سورة المعارج من آية ٣٥","publishedAt":"2019-05-16T10:10:20Z","duration":"PT17M30S","thumbnail":"https://i.ytimg.com/vi/dflODl0A_5A/mqdefault.jpg","viewCount":"333","playlistId":"PLEkQk5xrP-tnmTYsyW6xNdyfhPq0Bhrhj","playlistName":"مقرأة الفجر - القُرْآنُ الكَرِيمُ - خَتْمَةُ التَّدَبُّرِ  أ.د. يسري جبر","category":"متنوع"},{"id":"5H7PFClJnGE","title":"شرح سنن الدارمي كتاب الصوم من باب ٧","publishedAt":"2019-06-13T21:41:17Z","duration":"PT25M31S","thumbnail":"https://i.ytimg.com/vi/5H7PFClJnGE/mqdefault.jpg","viewCount":"333","playlistId":"PLEkQk5xrP-tmAg-FuWjY057X_h5NmGmAa","playlistName":"شرح سنن الدارمي - أ.د. يسري جبر (كاملا)","category":"متنوع"},{"id":"w2WnSOIEpIw","title":"مقرأة سورة هود من آية ٦١","publishedAt":"2017-06-15T15:22:34Z","duration":"PT24M54S","thumbnail":"https://i.ytimg.com/vi/w2WnSOIEpIw/mqdefault.jpg","viewCount":"333","playlistId":"PLEkQk5xrP-tnmTYsyW6xNdyfhPq0Bhrhj","playlistName":"مقرأة الفجر - القُرْآنُ الكَرِيمُ - خَتْمَةُ التَّدَبُّرِ  أ.د. يسري جبر","category":"متنوع"},{"id":"MwUUR4-x-B8","title":"مقرأة سورة التوبة من آية ١٠١","publishedAt":"2017-05-01T10:49:58Z","duration":"PT17M46S","thumbnail":"https://i.ytimg.com/vi/MwUUR4-x-B8/mqdefault.jpg","viewCount":"333","playlistId":"PLEkQk5xrP-tnmTYsyW6xNdyfhPq0Bhrhj","playlistName":"مقرأة الفجر - القُرْآنُ الكَرِيمُ - خَتْمَةُ التَّدَبُّرِ  أ.د. يسري جبر","category":"متنوع"},{"id":"O2rmXxG03lI","title":"مقرأة سورة الأحزاب من ٱية ٤٠","publishedAt":"2018-07-26T20:49:37Z","duration":"PT11M38S","thumbnail":"https://i.ytimg.com/vi/O2rmXxG03lI/mqdefault.jpg","viewCount":"332","playlistId":"PLEkQk5xrP-tnmTYsyW6xNdyfhPq0Bhrhj","playlistName":"مقرأة الفجر - القُرْآنُ الكَرِيمُ - خَتْمَةُ التَّدَبُّرِ  أ.د. يسري جبر","category":"متنوع"},{"id":"R2lIl9T_HGE","title":"595- (كيف) للاستفهام عن الحال - شرح البرهان في علوم القرآن","publishedAt":"2022-11-14T05:05:00Z","duration":"PT9M57S","thumbnail":"https://i.ytimg.com/vi/R2lIl9T_HGE/mqdefault.jpg","viewCount":"332","playlistId":"PLEkQk5xrP-tnW3iBL7HkKziOFCFZbTlf0","playlistName":"شرح البرهان في علوم القرآن - أ.د. يسري جبر","category":"تفسير"},{"id":"gele3K_THt8","title":"594- كلمة (كَمْ) وأنواعها - شرح البرهان في علوم القرآن","publishedAt":"2022-11-13T05:05:00Z","duration":"PT12M38S","thumbnail":"https://i.ytimg.com/vi/gele3K_THt8/mqdefault.jpg","viewCount":"332","playlistId":"PLEkQk5xrP-tnW3iBL7HkKziOFCFZbTlf0","playlistName":"شرح البرهان في علوم القرآن - أ.د. يسري جبر","category":"تفسير"},{"id":"he4BZgtKRLk","title":"587- حكم الوقف على (كَلَّا) - شرح البرهان في علوم القرآن","publishedAt":"2022-11-04T05:00:16Z","duration":"PT23M7S","thumbnail":"https://i.ytimg.com/vi/he4BZgtKRLk/mqdefault.jpg","viewCount":"332","playlistId":"PLEkQk5xrP-tnW3iBL7HkKziOFCFZbTlf0","playlistName":"شرح البرهان في علوم القرآن - أ.د. يسري جبر","category":"تفسير"},{"id":"sQgivjziTV0","title":"مقرأة سورة الأنبياء من آية ٥١","publishedAt":"2017-12-17T08:39:52Z","duration":"PT21M4S","thumbnail":"https://i.ytimg.com/vi/sQgivjziTV0/mqdefault.jpg","viewCount":"332","playlistId":"PLEkQk5xrP-tnmTYsyW6xNdyfhPq0Bhrhj","playlistName":"مقرأة الفجر - القُرْآنُ الكَرِيمُ - خَتْمَةُ التَّدَبُّرِ  أ.د. يسري جبر","category":"متنوع"},{"id":"jlu-_U0h48w","title":"شرح صحيح الإمام البخاري رضي الله عنه - كتاب الحدود باب رجم الحُبْلى من الزنا إذا أحصنت  د.يسري جبر","publishedAt":"2018-03-13T18:54:56Z","duration":"PT45M31S","thumbnail":"https://i.ytimg.com/vi/jlu-_U0h48w/mqdefault.jpg","viewCount":"332","playlistId":"PLEkQk5xrP-tmJuzaj4GWRenFoFx9gdbFX","playlistName":"شرح كتاب صحيح الإمام البخاري رضي الله تعالى عنه   أ.د. يسرى جبر","category":"حديث"}],"total":7670,"page":275,"pageSize":24,"totalPages":320}