{"items":[{"id":"yc6HXLFE3AQ","title":"شرح سنن الدارمي كتاب الطهارة من باب ٩٢","publishedAt":"2019-04-13T23:52:18Z","duration":"PT35M25S","thumbnail":"https://i.ytimg.com/vi/yc6HXLFE3AQ/mqdefault.jpg","viewCount":"364","playlistId":"PLEkQk5xrP-tmAg-FuWjY057X_h5NmGmAa","playlistName":"شرح سنن الدارمي - أ.د. يسري جبر (كاملا)","category":"متنوع"},{"id":"hjrpdbTIEdQ","title":"مقرأة سورة الأنبياء من آية ٢٥","publishedAt":"2017-12-13T08:16:12Z","duration":"PT15M59S","thumbnail":"https://i.ytimg.com/vi/hjrpdbTIEdQ/mqdefault.jpg","viewCount":"364","playlistId":"PLEkQk5xrP-tnmTYsyW6xNdyfhPq0Bhrhj","playlistName":"مقرأة الفجر - القُرْآنُ الكَرِيمُ - خَتْمَةُ التَّدَبُّرِ  أ.د. يسري جبر","category":"متنوع"},{"id":"KpQpYxnVtYs","title":"القِسمُ التاسع من التوكيد: وضع الظاهر موضع المُضْمَر (4) شرح البرهان في علوم القرآن","publishedAt":"2021-03-28T06:33:45Z","duration":"PT22M40S","thumbnail":"https://i.ytimg.com/vi/KpQpYxnVtYs/mqdefault.jpg","viewCount":"363","playlistId":"PLEkQk5xrP-tnW3iBL7HkKziOFCFZbTlf0","playlistName":"شرح البرهان في علوم القرآن - أ.د. يسري جبر","category":"تفسير"},{"id":"3j_bThQmMPI","title":"شرح سنن الدارمي كتاب الصلاة من باب ٤٠","publishedAt":"2019-05-03T13:53:04Z","duration":"PT34M53S","thumbnail":"https://i.ytimg.com/vi/3j_bThQmMPI/mqdefault.jpg","viewCount":"363","playlistId":"PLEkQk5xrP-tmAg-FuWjY057X_h5NmGmAa","playlistName":"شرح سنن الدارمي - أ.د. يسري جبر (كاملا)","category":"متنوع"},{"id":"TuLdLmPd6k8","title":"577- حروف المعاني(38): الحرف 40: عسى - شرح البرهان في علوم القرآن","publishedAt":"2022-10-24T05:00:10Z","duration":"PT14M29S","thumbnail":"https://i.ytimg.com/vi/TuLdLmPd6k8/mqdefault.jpg","viewCount":"363","playlistId":"PLEkQk5xrP-tnW3iBL7HkKziOFCFZbTlf0","playlistName":"شرح البرهان في علوم القرآن - أ.د. يسري جبر","category":"تفسير"},{"id":"BwKssGUpKLI","title":"مقرأة سورة التغابن من آية ١٤","publishedAt":"2019-04-20T22:50:50Z","duration":"PT17M2S","thumbnail":"https://i.ytimg.com/vi/BwKssGUpKLI/mqdefault.jpg","viewCount":"363","playlistId":"PLEkQk5xrP-tnmTYsyW6xNdyfhPq0Bhrhj","playlistName":"مقرأة الفجر - القُرْآنُ الكَرِيمُ - خَتْمَةُ التَّدَبُّرِ  أ.د. يسري جبر","category":"متنوع"},{"id":"4ThZhyElqUQ","title":"112- شرح اللؤلؤ والمرجان كتاب الجهاد من الباب التاسع عشر","publishedAt":"2020-04-02T11:00:00Z","duration":"PT33M47S","thumbnail":"https://i.ytimg.com/vi/4ThZhyElqUQ/mqdefault.jpg","viewCount":"362","playlistId":"PLEkQk5xrP-tmKNjtYLfhATC37QdIsTMe0","playlistName":"شرح كتاب اللؤلؤ والمرجان فيما اتفق عليه الشيخان إماما المحدثين البخاري ومسلم. أ.د. يسري جبر","category":"حديث"},{"id":"Fafg5VF3yvY","title":"مقرأة سورة يونس من آية ٦٦","publishedAt":"2017-05-19T08:46:22Z","duration":"PT16M13S","thumbnail":"https://i.ytimg.com/vi/Fafg5VF3yvY/mqdefault.jpg","viewCount":"362","playlistId":"PLEkQk5xrP-tnmTYsyW6xNdyfhPq0Bhrhj","playlistName":"مقرأة الفجر - القُرْآنُ الكَرِيمُ - خَتْمَةُ التَّدَبُّرِ  أ.د. يسري جبر","category":"متنوع"},{"id":"6d-H1eF6QhE","title":"مقرأة سورة الزخرف من آية ٧٩","publishedAt":"2018-12-21T08:10:04Z","duration":"PT24M2S","thumbnail":"https://i.ytimg.com/vi/6d-H1eF6QhE/mqdefault.jpg","viewCount":"362","playlistId":"PLEkQk5xrP-tnmTYsyW6xNdyfhPq0Bhrhj","playlistName":"مقرأة الفجر - القُرْآنُ الكَرِيمُ - خَتْمَةُ التَّدَبُّرِ  أ.د. يسري جبر","category":"متنوع"},{"id":"CJXPkyTNjQ0","title":"شرح البرهان في علوم القرآن - النوع ٣٨ - بيان الأقوال المختلفة في وجوه الإعجاز","publishedAt":"2020-03-17T06:30:02Z","duration":"PT19M59S","thumbnail":"https://i.ytimg.com/vi/CJXPkyTNjQ0/mqdefault.jpg","viewCount":"362","playlistId":"PLEkQk5xrP-tnW3iBL7HkKziOFCFZbTlf0","playlistName":"شرح البرهان في علوم القرآن - أ.د. يسري جبر","category":"تفسير"},{"id":"cmWqKuXZOEk","title":"شرح سنن الدارمي كتاب الصلاة من باب ١٧٩","publishedAt":"2019-05-23T23:47:58Z","duration":"PT26M49S","thumbnail":"https://i.ytimg.com/vi/cmWqKuXZOEk/mqdefault.jpg","viewCount":"362","playlistId":"PLEkQk5xrP-tmAg-FuWjY057X_h5NmGmAa","playlistName":"شرح سنن الدارمي - أ.د. يسري جبر (كاملا)","category":"متنوع"},{"id":"3Y9Yfx1VwTE","title":"تكملة أنواع التقديم والتأخير (6) (السَّبْق) - شرح البرهان في علوم القرآن","publishedAt":"2021-09-20T12:13:53Z","duration":"PT8M33S","thumbnail":"https://i.ytimg.com/vi/3Y9Yfx1VwTE/mqdefault.jpg","viewCount":"362","playlistId":"PLEkQk5xrP-tnW3iBL7HkKziOFCFZbTlf0","playlistName":"شرح البرهان في علوم القرآن - أ.د. يسري جبر","category":"تفسير"},{"id":"crm8u38YLrI","title":"شرح سنن الدارمي كتاب الفرائض من باب ٦","publishedAt":"2019-10-10T18:41:05Z","duration":"PT30M","thumbnail":"https://i.ytimg.com/vi/crm8u38YLrI/mqdefault.jpg","viewCount":"362","playlistId":"PLEkQk5xrP-tmAg-FuWjY057X_h5NmGmAa","playlistName":"شرح سنن الدارمي - أ.د. يسري جبر (كاملا)","category":"متنوع"},{"id":"Xc80oVchgp8","title":"شرح كتاب الأذكار من كلام سيد الأبرار للإمام النووى رضى الله عنه - المجلس التاسع عشر","publishedAt":"2015-04-22T21:19:17Z","duration":"PT25M39S","thumbnail":"https://i.ytimg.com/vi/Xc80oVchgp8/mqdefault.jpg","viewCount":"361","playlistId":"PLEkQk5xrP-tkWS57Ubysh0ifJR8dmuEtE","playlistName":"شرح كتاب الأذكار للإمام النووي د. يسرى جبر","category":"حديث"},{"id":"eHOoa9XwZyE","title":"مقرأة سورة الروم من آية ٨","publishedAt":"2018-06-17T10:29:58Z","duration":"PT10M9S","thumbnail":"https://i.ytimg.com/vi/eHOoa9XwZyE/mqdefault.jpg","viewCount":"361","playlistId":"PLEkQk5xrP-tnmTYsyW6xNdyfhPq0Bhrhj","playlistName":"مقرأة الفجر - القُرْآنُ الكَرِيمُ - خَتْمَةُ التَّدَبُّرِ  أ.د. يسري جبر","category":"متنوع"},{"id":"gyPPnxZqVLE","title":"مقرأة سورة ص من آية 55","publishedAt":"2018-10-06T20:15:25Z","duration":"PT19M8S","thumbnail":"https://i.ytimg.com/vi/gyPPnxZqVLE/mqdefault.jpg","viewCount":"361","playlistId":"PLEkQk5xrP-tnmTYsyW6xNdyfhPq0Bhrhj","playlistName":"مقرأة الفجر - القُرْآنُ الكَرِيمُ - خَتْمَةُ التَّدَبُّرِ  أ.د. يسري جبر","category":"متنوع"},{"id":"CeRQjzGj1bk","title":"مقرأة سورة الحج من آية ١٩","publishedAt":"2018-01-30T10:42:52Z","duration":"PT13M29S","thumbnail":"https://i.ytimg.com/vi/CeRQjzGj1bk/mqdefault.jpg","viewCount":"361","playlistId":"PLEkQk5xrP-tnmTYsyW6xNdyfhPq0Bhrhj","playlistName":"مقرأة الفجر - القُرْآنُ الكَرِيمُ - خَتْمَةُ التَّدَبُّرِ  أ.د. يسري جبر","category":"متنوع"},{"id":"8hLIOXadAv4","title":"شرح كتاب الأذكار من كلام سيد الأبرار للإمام النووى رضى الله عنه - المجلس الثامن والأربعون","publishedAt":"2016-12-18T07:50:39Z","duration":"PT14M24S","thumbnail":"https://i.ytimg.com/vi/8hLIOXadAv4/mqdefault.jpg","viewCount":"361","playlistId":"PLEkQk5xrP-tkWS57Ubysh0ifJR8dmuEtE","playlistName":"شرح كتاب الأذكار للإمام النووي د. يسرى جبر","category":"حديث"},{"id":"43RTwm4Myhw","title":"سورة المائدة آية 45","publishedAt":"2016-11-11T04:05:55Z","duration":"PT10M11S","thumbnail":"https://i.ytimg.com/vi/43RTwm4Myhw/mqdefault.jpg","viewCount":"361","playlistId":"PLEkQk5xrP-tnmTYsyW6xNdyfhPq0Bhrhj","playlistName":"مقرأة الفجر - القُرْآنُ الكَرِيمُ - خَتْمَةُ التَّدَبُّرِ  أ.د. يسري جبر","category":"متنوع"},{"id":"dt-0zpKinXA","title":"شرح صحيح الإمام البخاري رضي الله عنه - كتاب الدعوات (الدعاء بعد الصلاة)المجلس الثالث د. يسري جبر","publishedAt":"2017-05-02T20:25:10Z","duration":"PT54M24S","thumbnail":"https://i.ytimg.com/vi/dt-0zpKinXA/mqdefault.jpg","viewCount":"361","playlistId":"PLEkQk5xrP-tmJuzaj4GWRenFoFx9gdbFX","playlistName":"شرح كتاب صحيح الإمام البخاري رضي الله تعالى عنه   أ.د. يسرى جبر","category":"حديث"},{"id":"-lu-aZteDV4","title":"القِسمُ (28) من التوكيد: التعليل - شرح البرهان في علوم القرآن","publishedAt":"2021-06-01T05:31:56Z","duration":"PT25M36S","thumbnail":"https://i.ytimg.com/vi/-lu-aZteDV4/mqdefault.jpg","viewCount":"361","playlistId":"PLEkQk5xrP-tnW3iBL7HkKziOFCFZbTlf0","playlistName":"شرح البرهان في علوم القرآن - أ.د. يسري جبر","category":"تفسير"},{"id":"PQgpa85dEE4","title":"مقرأة سورة سبأ من آية ٦","publishedAt":"2018-08-06T08:39:47Z","duration":"PT20M42S","thumbnail":"https://i.ytimg.com/vi/PQgpa85dEE4/mqdefault.jpg","viewCount":"361","playlistId":"PLEkQk5xrP-tnmTYsyW6xNdyfhPq0Bhrhj","playlistName":"مقرأة الفجر - القُرْآنُ الكَرِيمُ - خَتْمَةُ التَّدَبُّرِ  أ.د. يسري جبر","category":"متنوع"},{"id":"ZjDOsgQlXqY","title":"شرح البرهان في علوم القرآن - النوع ٣٨ - فصل في اختلاف المقامات ووضع كل شيء في موضع يلائمه","publishedAt":"2020-03-26T07:00:09Z","duration":"PT20M30S","thumbnail":"https://i.ytimg.com/vi/ZjDOsgQlXqY/mqdefault.jpg","viewCount":"360","playlistId":"PLEkQk5xrP-tnW3iBL7HkKziOFCFZbTlf0","playlistName":"شرح البرهان في علوم القرآن - أ.د. يسري جبر","category":"تفسير"},{"id":"8MJqX8fPofs","title":"شرح صحيح البخاري كتاب الإعتصام بالكتاب والسنة من باب ٢٥","publishedAt":"2019-01-29T17:09:57Z","duration":"PT35M16S","thumbnail":"https://i.ytimg.com/vi/8MJqX8fPofs/mqdefault.jpg","viewCount":"360","playlistId":"PLEkQk5xrP-tlEerGoLa1AFy-2XvQ-sovv","playlistName":"شرح صحيح البخاري - أ.د. يسري جبر (كاملا)","category":"حديث"}],"total":7670,"page":267,"pageSize":24,"totalPages":320}