{"items":[{"id":"7NemxkkhjVE","title":"كيف تتوكل على الله حق التوكل؟ | أ.د. يسري جبر","publishedAt":"2022-04-15T15:30:01Z","duration":"PT37M54S","thumbnail":"https://i.ytimg.com/vi/7NemxkkhjVE/mqdefault.jpg","viewCount":"9718","playlistId":"PLEkQk5xrP-tnl7vb7KeAoPd5ZlqKKW8KV","playlistName":"شرح كتاب بهجة النفوس أ.د . يسرى جبر","category":"متنوع"},{"id":"J3FwQo0Cdyo","title":"متى سيظهر المسيح الدجال وكيف تنجو من فتنته؟","publishedAt":"2025-02-04T18:16:56Z","duration":"PT19M56S","thumbnail":"https://i.ytimg.com/vi/J3FwQo0Cdyo/mqdefault.jpg","viewCount":"9714","playlistId":"PLEkQk5xrP-tlArtGpeLWaqNM7h7IDeAVC","playlistName":"خطب الجمعة أ.د. يسري جبر","category":"خطب"},{"id":"SERhZqLRJH8","title":"ماذا تفعل في ليلة النصف من شعبان؟","publishedAt":"2022-03-17T16:30:05Z","duration":"PT8M18S","thumbnail":"https://i.ytimg.com/vi/SERhZqLRJH8/mqdefault.jpg","viewCount":"9706","playlistId":"PLEkQk5xrP-tlArtGpeLWaqNM7h7IDeAVC","playlistName":"خطب الجمعة أ.د. يسري جبر","category":"خطب"},{"id":"zXwrMtgitOQ","title":"كيف حققت النجاح في دراستك وعملك؟","publishedAt":"2023-01-10T18:15:11Z","duration":"PT8M25S","thumbnail":"https://i.ytimg.com/vi/zXwrMtgitOQ/mqdefault.jpg","viewCount":"9698","playlistId":"PLEkQk5xrP-tkGXuZ9atE3k_7it12rUPTs","playlistName":"أسئلة المتابعين","category":"متنوع"},{"id":"EPn80Gucc9s","title":"أنا زهقان وتعبان وحاسس أني مش مستمتع بالحياة ,, فماذا أفعل؟","publishedAt":"2023-08-02T18:00:09Z","duration":"PT10M15S","thumbnail":"https://i.ytimg.com/vi/EPn80Gucc9s/mqdefault.jpg","viewCount":"9696","playlistId":"PLEkQk5xrP-tkGXuZ9atE3k_7it12rUPTs","playlistName":"أسئلة المتابعين","category":"متنوع"},{"id":"heU8B1Fw5bU","title":"الرسالة القشيرية المجلس الثاني و الثلاثون (المحاضرة والمكاشفة والمشاهدة).د. يسري جبر","publishedAt":"2018-10-18T15:18:30Z","duration":"PT49M42S","thumbnail":"https://i.ytimg.com/vi/heU8B1Fw5bU/mqdefault.jpg","viewCount":"9686","playlistId":"PLEkQk5xrP-tkHAGOwIKr4pc5ehhyQ5HMJ","playlistName":"كتاب الرسالة القشيرية (تصوف) - د. يسري جبر","category":"تصوف"},{"id":"ssDhTwEBkMU","title":"شرح صحيح البخاري ( مقدمة  مجلس ٢)","publishedAt":"2016-08-03T10:41:32Z","duration":"PT44M45S","thumbnail":"https://i.ytimg.com/vi/ssDhTwEBkMU/mqdefault.jpg","viewCount":"9669","playlistId":"PLEkQk5xrP-tlEerGoLa1AFy-2XvQ-sovv","playlistName":"شرح صحيح البخاري - أ.د. يسري جبر (كاملا)","category":"حديث"},{"id":"b2M0ADuF9ak","title":"هل ترك السيد البدوي الصلاة؟","publishedAt":"2025-10-25T19:25:18Z","duration":"PT8M3S","thumbnail":"https://i.ytimg.com/vi/b2M0ADuF9ak/mqdefault.jpg","viewCount":"9643","playlistId":"PLEkQk5xrP-tm8ZIu74nTOZN9KJUJu416J","playlistName":"مقاطع مُهمَّة (يُسريَّات) أ.د. يسري جبر","category":"متنوع"},{"id":"uOtVSkWQqb8","title":"حياة الدكتور يسري جبر | الحلقة الثانية","publishedAt":"2020-12-17T18:24:16Z","duration":"PT15M6S","thumbnail":"https://i.ytimg.com/vi/uOtVSkWQqb8/mqdefault.jpg","viewCount":"9622","playlistId":"PLEkQk5xrP-tl6tFiMFGUucCTvLgnWyAfz","playlistName":"حياة الأستاذ الدكتور يسري جبر","category":"متنوع"},{"id":"rCMlvvldiMs","title":"كيف نفهم حديث \"رأيتُ ربِّي في أحسنِ صورة\" بغير تشبيه؟","publishedAt":"2021-12-13T17:30:04Z","duration":"PT8M39S","thumbnail":"https://i.ytimg.com/vi/rCMlvvldiMs/mqdefault.jpg","viewCount":"9614","playlistId":"PLEkQk5xrP-tkGXuZ9atE3k_7it12rUPTs","playlistName":"أسئلة المتابعين","category":"متنوع"},{"id":"MkaN6E3YLGU","title":"لماذا تنازل سيدنا الحسن عن الخلافة لمعاوية؟ | القصة الكاملة","publishedAt":"2025-10-14T18:39:27Z","duration":"PT10M47S","thumbnail":"https://i.ytimg.com/vi/MkaN6E3YLGU/mqdefault.jpg","viewCount":"9604","playlistId":"PLEkQk5xrP-tlArtGpeLWaqNM7h7IDeAVC","playlistName":"خطب الجمعة أ.د. يسري جبر","category":"خطب"},{"id":"z25MTs3bX3o","title":"20- معرفة الله عزَّ وجلَّ - عقيدةُ العارفينَ بالله وأولياء الله الصالحين.","publishedAt":"2022-12-22T09:00:35Z","duration":"PT58M59S","thumbnail":"https://i.ytimg.com/vi/z25MTs3bX3o/mqdefault.jpg","viewCount":"9602","playlistId":"PLEkQk5xrP-tmNuYT8JAh6clwa4krsgkNo","playlistName":"شرح كتاب الفُتُوحات اليُسريَّة في عقائد الأُمَّة المُحمَّديَّة","category":"متنوع"},{"id":"5_8pytDAbJI","title":"شرح كتاب نور اليقين في سيرة سيد المرسلين - المجلس 54 ( تكملةُ حَجَّةِ الوَدَاع 2) د.يسري جبر","publishedAt":"2018-07-22T17:42:20Z","duration":"PT49M56S","thumbnail":"https://i.ytimg.com/vi/5_8pytDAbJI/mqdefault.jpg","viewCount":"9561","playlistId":"PLEkQk5xrP-tl2t4NQx1IhKnAJCMzF0Nli","playlistName":"شرح كتاب نور اليقين في سيرة سيد المرسلين   د. يسري جبر","category":"سيرة"},{"id":"82LMOD-EAlk","title":"الرضا بالموجود وعدم طلب المفقود","publishedAt":"2020-10-02T20:11:34Z","duration":"PT17M8S","thumbnail":"https://i.ytimg.com/vi/82LMOD-EAlk/mqdefault.jpg","viewCount":"9561","playlistId":"PLEkQk5xrP-tm8ZIu74nTOZN9KJUJu416J","playlistName":"مقاطع مُهمَّة (يُسريَّات) أ.د. يسري جبر","category":"متنوع"},{"id":"nnqczT6gBbw","title":"ما حكم الزواج العُرفيّ؟","publishedAt":"2021-04-01T15:15:03Z","duration":"PT8M40S","thumbnail":"https://i.ytimg.com/vi/nnqczT6gBbw/mqdefault.jpg","viewCount":"9558","playlistId":"PLEkQk5xrP-tm8ZIu74nTOZN9KJUJu416J","playlistName":"مقاطع مُهمَّة (يُسريَّات) أ.د. يسري جبر","category":"متنوع"},{"id":"l3wvWFxAW8I","title":"وِرْد ما بعد عصر الجمعة - الصلاة على النبي صلى الله عليه وآله وسلم ( 80 مرة )  د. يسري جبر","publishedAt":"2018-05-18T02:02:26Z","duration":"PT7M32S","thumbnail":"https://i.ytimg.com/vi/l3wvWFxAW8I/mqdefault.jpg","viewCount":"9549","playlistId":"PLEkQk5xrP-tk3OeVFoMfKhOhyINnlPeYZ","playlistName":"الحَضْرَةُ الصِّدِّيقِيَّة والأوْرَاد","category":"متنوع"},{"id":"COS9TtPa4gI","title":"كيف نتعامل مع غلاء الأسعار وارتفاع الدولار؟","publishedAt":"2022-10-28T18:00:07Z","duration":"PT13M42S","thumbnail":"https://i.ytimg.com/vi/COS9TtPa4gI/mqdefault.jpg","viewCount":"9549","playlistId":"PLEkQk5xrP-tlArtGpeLWaqNM7h7IDeAVC","playlistName":"خطب الجمعة أ.د. يسري جبر","category":"خطب"},{"id":"x5ojFfZH_xc","title":"كيف أتغلب على ضعف الهمة والفتور في العبادة؟","publishedAt":"2025-07-01T18:12:59Z","duration":"PT12M22S","thumbnail":"https://i.ytimg.com/vi/x5ojFfZH_xc/mqdefault.jpg","viewCount":"9547","playlistId":"PLEkQk5xrP-tkGXuZ9atE3k_7it12rUPTs","playlistName":"أسئلة المتابعين","category":"متنوع"},{"id":"FfmepGpEq3Y","title":"صفات الأولياء | مجالس رمضانية","publishedAt":"2024-04-06T11:00:21Z","duration":"PT34M59S","thumbnail":"https://i.ytimg.com/vi/FfmepGpEq3Y/mqdefault.jpg","viewCount":"9536","playlistId":"PLEkQk5xrP-tkeI_WVPfuoTJO46aVkpaz0","playlistName":"شرح كتاب ميزان الاعتدال لحفظ الدين والأحوال","category":"متنوع"},{"id":"jNoB0ZX3LdI","title":"هل ربنا هيحاسبنا على حديث وخاطر النفس الأمارة بالسوء؟","publishedAt":"2023-12-25T19:09:14Z","duration":"PT8M38S","thumbnail":"https://i.ytimg.com/vi/jNoB0ZX3LdI/mqdefault.jpg","viewCount":"9535","playlistId":"PLEkQk5xrP-tkGXuZ9atE3k_7it12rUPTs","playlistName":"أسئلة المتابعين","category":"متنوع"},{"id":"XM-QoKlykPI","title":"ختام شرح كتاب دلائل الخيرات - المجلس الثالث والعشرون  أ.د. يسري جبر","publishedAt":"2020-04-17T18:10:38Z","duration":"PT25M50S","thumbnail":"https://i.ytimg.com/vi/XM-QoKlykPI/mqdefault.jpg","viewCount":"9506","playlistId":"PLEkQk5xrP-tlAzcbIpuqjdFICW-knvTlR","playlistName":"شرح كتاب دلائل الخيرات وشوارق الأنوار","category":"متنوع"},{"id":"S55MYGGktCA","title":"كيف تكون تقوى الله تعالى؟","publishedAt":"2023-04-05T19:00:09Z","duration":"PT23M34S","thumbnail":"https://i.ytimg.com/vi/S55MYGGktCA/mqdefault.jpg","viewCount":"9499","playlistId":"PLEkQk5xrP-tlArtGpeLWaqNM7h7IDeAVC","playlistName":"خطب الجمعة أ.د. يسري جبر","category":"خطب"},{"id":"vQTOAA9wFwY","title":"كيف تكون فى معية الله تعالى؟","publishedAt":"2024-10-18T17:51:40Z","duration":"PT9M19S","thumbnail":"https://i.ytimg.com/vi/vQTOAA9wFwY/mqdefault.jpg","viewCount":"9483","playlistId":"PLEkQk5xrP-tlArtGpeLWaqNM7h7IDeAVC","playlistName":"خطب الجمعة أ.د. يسري جبر","category":"خطب"},{"id":"ygb9TUQq_Iw","title":"هل الإنسان مسير أم مخير؟","publishedAt":"2020-12-08T18:15:02Z","duration":"PT9M21S","thumbnail":"https://i.ytimg.com/vi/ygb9TUQq_Iw/mqdefault.jpg","viewCount":"9477","playlistId":"PLEkQk5xrP-tlArtGpeLWaqNM7h7IDeAVC","playlistName":"خطب الجمعة أ.د. يسري جبر","category":"خطب"}],"total":7670,"page":32,"pageSize":24,"totalPages":320}