{"items":[{"id":"z3Kg7rvoqkU","title":"شرح سنن الدارمي كتاب الصلاة من باب ٩٩","publishedAt":"2019-05-13T20:21:04Z","duration":"PT33M30S","thumbnail":"https://i.ytimg.com/vi/z3Kg7rvoqkU/mqdefault.jpg","viewCount":"328","playlistId":"PLEkQk5xrP-tmAg-FuWjY057X_h5NmGmAa","playlistName":"شرح سنن الدارمي - أ.د. يسري جبر (كاملا)","category":"متنوع"},{"id":"qs8PbvAdgt8","title":"القِسمُ (21) من التوكيد: المبالغة - شرح البرهان في علوم القرآن","publishedAt":"2021-05-15T06:47:51Z","duration":"PT16M24S","thumbnail":"https://i.ytimg.com/vi/qs8PbvAdgt8/mqdefault.jpg","viewCount":"328","playlistId":"PLEkQk5xrP-tnW3iBL7HkKziOFCFZbTlf0","playlistName":"شرح البرهان في علوم القرآن - أ.د. يسري جبر","category":"تفسير"},{"id":"hzc8o54ghWA","title":"القِسمُ (20) من التوكيد: الاستثناء والاستدراك - شرح البرهان في علوم القرآن","publishedAt":"2021-05-13T07:04:18Z","duration":"PT17M6S","thumbnail":"https://i.ytimg.com/vi/hzc8o54ghWA/mqdefault.jpg","viewCount":"328","playlistId":"PLEkQk5xrP-tnW3iBL7HkKziOFCFZbTlf0","playlistName":"شرح البرهان في علوم القرآن - أ.د. يسري جبر","category":"تفسير"},{"id":"6HG3Jq8g8-k","title":"مقرأة سورة الزمر من آية ١٣","publishedAt":"2018-10-16T07:26:35Z","duration":"PT13M18S","thumbnail":"https://i.ytimg.com/vi/6HG3Jq8g8-k/mqdefault.jpg","viewCount":"328","playlistId":"PLEkQk5xrP-tnmTYsyW6xNdyfhPq0Bhrhj","playlistName":"مقرأة الفجر - القُرْآنُ الكَرِيمُ - خَتْمَةُ التَّدَبُّرِ  أ.د. يسري جبر","category":"متنوع"},{"id":"aqrim-TDPGk","title":"شرح سنن الدارمي كتاب الصلاة من باب ٥٤","publishedAt":"2019-05-05T08:53:12Z","duration":"PT31M7S","thumbnail":"https://i.ytimg.com/vi/aqrim-TDPGk/mqdefault.jpg","viewCount":"328","playlistId":"PLEkQk5xrP-tmAg-FuWjY057X_h5NmGmAa","playlistName":"شرح سنن الدارمي - أ.د. يسري جبر (كاملا)","category":"متنوع"},{"id":"V1Sw1ndNFN4","title":"مقرأة سورة إبراهيم من آية ٧","publishedAt":"2017-07-28T07:04:10Z","duration":"PT16M32S","thumbnail":"https://i.ytimg.com/vi/V1Sw1ndNFN4/mqdefault.jpg","viewCount":"328","playlistId":"PLEkQk5xrP-tnmTYsyW6xNdyfhPq0Bhrhj","playlistName":"مقرأة الفجر - القُرْآنُ الكَرِيمُ - خَتْمَةُ التَّدَبُّرِ  أ.د. يسري جبر","category":"متنوع"},{"id":"szkAg9zPhhk","title":"سورة النساء آية 148","publishedAt":"2016-09-29T20:26:19Z","duration":"PT11M51S","thumbnail":"https://i.ytimg.com/vi/szkAg9zPhhk/mqdefault.jpg","viewCount":"328","playlistId":"PLEkQk5xrP-tnmTYsyW6xNdyfhPq0Bhrhj","playlistName":"مقرأة الفجر - القُرْآنُ الكَرِيمُ - خَتْمَةُ التَّدَبُّرِ  أ.د. يسري جبر","category":"متنوع"},{"id":"m0tgzHRUMRM","title":"مقرأة الفجر من سورة إبراهيم آية ٣٥","publishedAt":"2017-08-03T12:59:53Z","duration":"PT20M59S","thumbnail":"https://i.ytimg.com/vi/m0tgzHRUMRM/mqdefault.jpg","viewCount":"328","playlistId":"PLEkQk5xrP-tnmTYsyW6xNdyfhPq0Bhrhj","playlistName":"مقرأة الفجر - القُرْآنُ الكَرِيمُ - خَتْمَةُ التَّدَبُّرِ  أ.د. يسري جبر","category":"متنوع"},{"id":"LF0Tv6Z561k","title":"34- أَخْذِ الصَّدَقَاتِ وَالتَّشْدِيدِ فِيهَا كتاب الزكاة ك الموطأ د يسري جبر الأزهري","publishedAt":"2016-11-29T13:56:03Z","duration":"PT1H17M22S","thumbnail":"https://i.ytimg.com/vi/LF0Tv6Z561k/mqdefault.jpg","viewCount":"328","playlistId":"PLEkQk5xrP-tnC6BRuqMjyO-484iqXeg0o","playlistName":"شرح كتاب الموطأ للإمام مالك","category":"متنوع"},{"id":"9GHZGwNm3hY","title":"88- شرح اللؤلؤ والمرجان كتاب العتق من أوله","publishedAt":"2020-03-07T06:00:00Z","duration":"PT21M45S","thumbnail":"https://i.ytimg.com/vi/9GHZGwNm3hY/mqdefault.jpg","viewCount":"327","playlistId":"PLEkQk5xrP-tmKNjtYLfhATC37QdIsTMe0","playlistName":"شرح كتاب اللؤلؤ والمرجان فيما اتفق عليه الشيخان إماما المحدثين البخاري ومسلم. أ.د. يسري جبر","category":"حديث"},{"id":"uQfUnMbc03w","title":"مقرأة سورة الأحزاب من ٱية ١٤","publishedAt":"2018-07-19T08:28:44Z","duration":"PT5M23S","thumbnail":"https://i.ytimg.com/vi/uQfUnMbc03w/mqdefault.jpg","viewCount":"327","playlistId":"PLEkQk5xrP-tnmTYsyW6xNdyfhPq0Bhrhj","playlistName":"مقرأة الفجر - القُرْآنُ الكَرِيمُ - خَتْمَةُ التَّدَبُّرِ  أ.د. يسري جبر","category":"متنوع"},{"id":"5IEAJk1XxRU","title":"شرح البرهان في علوم القرآن - النوع ٣٢ - فصل الأحكام المستنبطة من تنبيه الخطاب","publishedAt":"2020-02-22T06:00:00Z","duration":"PT28M29S","thumbnail":"https://i.ytimg.com/vi/5IEAJk1XxRU/mqdefault.jpg","viewCount":"327","playlistId":"PLEkQk5xrP-tnW3iBL7HkKziOFCFZbTlf0","playlistName":"شرح البرهان في علوم القرآن - أ.د. يسري جبر","category":"تفسير"},{"id":"sUGI69O5fbY","title":"شرح صحيح الإمام البخاري رضي الله تعالى عنه - كتابُِ الأَحْكَامِ أ.د. يسري جبر","publishedAt":"2019-07-16T22:40:49Z","duration":"PT37M39S","thumbnail":"https://i.ytimg.com/vi/sUGI69O5fbY/mqdefault.jpg","viewCount":"327","playlistId":"PLEkQk5xrP-tmJuzaj4GWRenFoFx9gdbFX","playlistName":"شرح كتاب صحيح الإمام البخاري رضي الله تعالى عنه   أ.د. يسرى جبر","category":"حديث"},{"id":"DGxGOu2sG0o","title":"الاختزال (16) حذف المفعول (7) - شرح البرهان في علوم القرآن","publishedAt":"2021-07-16T05:27:01Z","duration":"PT21M16S","thumbnail":"https://i.ytimg.com/vi/DGxGOu2sG0o/mqdefault.jpg","viewCount":"327","playlistId":"PLEkQk5xrP-tnW3iBL7HkKziOFCFZbTlf0","playlistName":"شرح البرهان في علوم القرآن - أ.د. يسري جبر","category":"تفسير"},{"id":"ipY83FaBBck","title":"القِسمُ (26) من التوكيد: الزيادة - شرح البرهان في علوم القرآن","publishedAt":"2021-05-22T07:15:47Z","duration":"PT20M18S","thumbnail":"https://i.ytimg.com/vi/ipY83FaBBck/mqdefault.jpg","viewCount":"327","playlistId":"PLEkQk5xrP-tnW3iBL7HkKziOFCFZbTlf0","playlistName":"شرح البرهان في علوم القرآن - أ.د. يسري جبر","category":"تفسير"},{"id":"ARot-1pDBtM","title":"الاختزال (21) حذف جواب الشرط (2) أمثلة - شرح البرهان في علوم القرآن","publishedAt":"2021-07-27T05:33:36Z","duration":"PT14M14S","thumbnail":"https://i.ytimg.com/vi/ARot-1pDBtM/mqdefault.jpg","viewCount":"327","playlistId":"PLEkQk5xrP-tnW3iBL7HkKziOFCFZbTlf0","playlistName":"شرح البرهان في علوم القرآن - أ.د. يسري جبر","category":"تفسير"},{"id":"zYGmb9UTPIE","title":"تكملة أنواع التقديم والتأخير (11) - شرح البرهان في علوم القرآن","publishedAt":"2021-10-01T11:11:57Z","duration":"PT8M27S","thumbnail":"https://i.ytimg.com/vi/zYGmb9UTPIE/mqdefault.jpg","viewCount":"327","playlistId":"PLEkQk5xrP-tnW3iBL7HkKziOFCFZbTlf0","playlistName":"شرح البرهان في علوم القرآن - أ.د. يسري جبر","category":"تفسير"},{"id":"KcqkpPS0rGw","title":"مقرأة سورة مريم من آية ٣٧","publishedAt":"2017-11-08T08:54:32Z","duration":"PT6M31S","thumbnail":"https://i.ytimg.com/vi/KcqkpPS0rGw/mqdefault.jpg","viewCount":"327","playlistId":"PLEkQk5xrP-tnmTYsyW6xNdyfhPq0Bhrhj","playlistName":"مقرأة الفجر - القُرْآنُ الكَرِيمُ - خَتْمَةُ التَّدَبُّرِ  أ.د. يسري جبر","category":"متنوع"},{"id":"j5Ub4GZqFII","title":"مقرأة سورة الزخرف من آية ٦٣","publishedAt":"2018-12-19T10:37:45Z","duration":"PT18M45S","thumbnail":"https://i.ytimg.com/vi/j5Ub4GZqFII/mqdefault.jpg","viewCount":"327","playlistId":"PLEkQk5xrP-tnmTYsyW6xNdyfhPq0Bhrhj","playlistName":"مقرأة الفجر - القُرْآنُ الكَرِيمُ - خَتْمَةُ التَّدَبُّرِ  أ.د. يسري جبر","category":"متنوع"},{"id":"9vSYo5yh7Tw","title":"مقرأة سورة النحل من آية ٧١","publishedAt":"2017-08-28T08:28:40Z","duration":"PT21M50S","thumbnail":"https://i.ytimg.com/vi/9vSYo5yh7Tw/mqdefault.jpg","viewCount":"327","playlistId":"PLEkQk5xrP-tnmTYsyW6xNdyfhPq0Bhrhj","playlistName":"مقرأة الفجر - القُرْآنُ الكَرِيمُ - خَتْمَةُ التَّدَبُّرِ  أ.د. يسري جبر","category":"متنوع"},{"id":"0w5gqtXvYCY","title":"شرح سنن الدارمي كتاب الأضاحي من باب ١٠","publishedAt":"2019-07-21T16:00:42Z","duration":"PT30M11S","thumbnail":"https://i.ytimg.com/vi/0w5gqtXvYCY/mqdefault.jpg","viewCount":"326","playlistId":"PLEkQk5xrP-tmAg-FuWjY057X_h5NmGmAa","playlistName":"شرح سنن الدارمي - أ.د. يسري جبر (كاملا)","category":"متنوع"},{"id":"D_qBmQFUy98","title":"الاختزال (13) حذف المفعول (4) - شرح البرهان في علوم القرآن","publishedAt":"2021-07-10T05:20:50Z","duration":"PT14M25S","thumbnail":"https://i.ytimg.com/vi/D_qBmQFUy98/mqdefault.jpg","viewCount":"326","playlistId":"PLEkQk5xrP-tnW3iBL7HkKziOFCFZbTlf0","playlistName":"شرح البرهان في علوم القرآن - أ.د. يسري جبر","category":"تفسير"},{"id":"0xeUTwp0bwo","title":"القِسمُ العاشرُ من التوكيد: صِيَغُ المبالغة (4) \"ما جاء على صيغة فعول\" شرح البرهان في علوم القرآن","publishedAt":"2021-04-10T06:56:17Z","duration":"PT15M5S","thumbnail":"https://i.ytimg.com/vi/0xeUTwp0bwo/mqdefault.jpg","viewCount":"326","playlistId":"PLEkQk5xrP-tnW3iBL7HkKziOFCFZbTlf0","playlistName":"شرح البرهان في علوم القرآن - أ.د. يسري جبر","category":"تفسير"},{"id":"vRlyiceRfWg","title":"490- الضمير\" قد يعود على لفظ شيءٍ والمراد به الجنس من ذلك الشيءٍ - شرح البرهان في علوم القرآن","publishedAt":"2022-04-08T05:35:48Z","duration":"PT28M12S","thumbnail":"https://i.ytimg.com/vi/vRlyiceRfWg/mqdefault.jpg","viewCount":"326","playlistId":"PLEkQk5xrP-tnW3iBL7HkKziOFCFZbTlf0","playlistName":"شرح البرهان في علوم القرآن - أ.د. يسري جبر","category":"تفسير"}],"total":7670,"page":277,"pageSize":24,"totalPages":320}