{"items":[{"id":"oveeCWvwPBU","title":"105- حكم الأكل من صيد الكلب المعلم - شرح مسند الإمام أحمد رضي الله تعالى عنه","publishedAt":"2024-05-18T05:54:18Z","duration":"PT36M51S","thumbnail":"https://i.ytimg.com/vi/oveeCWvwPBU/mqdefault.jpg","viewCount":"854","playlistId":"PLEkQk5xrP-tkKprIuGrSdEuBSMsyg5We1","playlistName":"شرح مسند الإمام أحمد بن حنبل","category":"متنوع"},{"id":"uET1rapTFdI","title":"شرح صحيح البخاري - كتاب البيوع من باب ٢٥","publishedAt":"2017-04-26T20:44:50Z","duration":"PT44M7S","thumbnail":"https://i.ytimg.com/vi/uET1rapTFdI/mqdefault.jpg","viewCount":"854","playlistId":"PLEkQk5xrP-tlEerGoLa1AFy-2XvQ-sovv","playlistName":"شرح صحيح البخاري - أ.د. يسري جبر (كاملا)","category":"حديث"},{"id":"-WVpLTfKQKk","title":"235- ذِكْرُ المَوتِ وَقِصَرِ الأَمَلِ - شرح دليل الفالحين","publishedAt":"2022-04-19T05:00:01Z","duration":"PT50M36S","thumbnail":"https://i.ytimg.com/vi/-WVpLTfKQKk/mqdefault.jpg","viewCount":"853","playlistId":"PLEkQk5xrP-tkc9DXvSLguqX5-FYp6ASR4","playlistName":"دليل الفالحين لطرق رياض الصالحين","category":"متنوع"},{"id":"dfObO0LE7Zw","title":"44- أوقات الكراهة في الصلاة | شرح سنن الدار قطني رضي الله عنه","publishedAt":"2024-08-31T09:05:00Z","duration":"PT48M6S","thumbnail":"https://i.ytimg.com/vi/dfObO0LE7Zw/mqdefault.jpg","viewCount":"853","playlistId":"PLEkQk5xrP-tk_MCBZ706ORCw6gFtFyaGj","playlistName":"شرح سنن الإمام الدارقطني","category":"متنوع"},{"id":"vXK2PhD4UFA","title":"شرح البرهان في علوم القرآن - النوع ٩ - معرفة المكي والمدني وما نزل بمكة والمدينة وترتيب ذلك","publishedAt":"2019-10-04T09:40:17Z","duration":"PT18M38S","thumbnail":"https://i.ytimg.com/vi/vXK2PhD4UFA/mqdefault.jpg","viewCount":"852","playlistId":"PLEkQk5xrP-tnW3iBL7HkKziOFCFZbTlf0","playlistName":"شرح البرهان في علوم القرآن - أ.د. يسري جبر","category":"تفسير"},{"id":"McQ28J9aAa4","title":"مَدْحُ النَّبِيِّ ﷺ في القُرْآنِ - مسجل   أ.د. يسري جبر","publishedAt":"2020-05-02T08:22:27Z","duration":"PT1H1M45S","thumbnail":"https://i.ytimg.com/vi/McQ28J9aAa4/mqdefault.jpg","viewCount":"852","playlistId":"PLEkQk5xrP-tmJzNvLntpzW0uPanPzxA0c","playlistName":"لقاءات ومحاضرات","category":"متنوع"},{"id":"Wsag8A-Y0cQ","title":"شرح صحيح البخاري كتاب الأذان من باب ٣٨","publishedAt":"2016-11-15T05:54:34Z","duration":"PT30M23S","thumbnail":"https://i.ytimg.com/vi/Wsag8A-Y0cQ/mqdefault.jpg","viewCount":"850","playlistId":"PLEkQk5xrP-tlEerGoLa1AFy-2XvQ-sovv","playlistName":"شرح صحيح البخاري - أ.د. يسري جبر (كاملا)","category":"حديث"},{"id":"MU99hvE7V-c","title":"مقرأة سورة القلم من أولها","publishedAt":"2019-05-04T22:34:59Z","duration":"PT30M","thumbnail":"https://i.ytimg.com/vi/MU99hvE7V-c/mqdefault.jpg","viewCount":"850","playlistId":"PLEkQk5xrP-tnmTYsyW6xNdyfhPq0Bhrhj","playlistName":"مقرأة الفجر - القُرْآنُ الكَرِيمُ - خَتْمَةُ التَّدَبُّرِ  أ.د. يسري جبر","category":"متنوع"},{"id":"xwCptz17uow","title":"107- الألفاظ الواردة في القرآن التي لها معاني في لغات أخرى - شرح الإتقان في علوم القرآن","publishedAt":"2023-06-21T05:01:00Z","duration":"PT24M46S","thumbnail":"https://i.ytimg.com/vi/xwCptz17uow/mqdefault.jpg","viewCount":"849","playlistId":"PLEkQk5xrP-tlPw10KGJKagu7zm4Ry2Tge","playlistName":"شرح الإتقان في علوم القرآن","category":"تفسير"},{"id":"M8nkQ-CxYTY","title":"قراءة القرآن (من آية ١٨٥ سورة البقرة)","publishedAt":"2016-05-08T08:52:03Z","duration":"PT14M34S","thumbnail":"https://i.ytimg.com/vi/M8nkQ-CxYTY/mqdefault.jpg","viewCount":"849","playlistId":"PLEkQk5xrP-tnmTYsyW6xNdyfhPq0Bhrhj","playlistName":"مقرأة الفجر - القُرْآنُ الكَرِيمُ - خَتْمَةُ التَّدَبُّرِ  أ.د. يسري جبر","category":"متنوع"},{"id":"1Fn1Ci45xi0","title":"29- نصاب الزروع - شرح كتاب فتح القريب المجيب","publishedAt":"2021-10-27T01:48:28Z","duration":"PT1H36M4S","thumbnail":"https://i.ytimg.com/vi/1Fn1Ci45xi0/mqdefault.jpg","viewCount":"847","playlistId":"PLEkQk5xrP-tkXuPs-0sXfWQDWzBKmcjWN","playlistName":"\"فتح القريب المجيب في شرح ألفاظ التقريب\"( فقه شافعيّ)  أ. د. يسري جبر","category":"فقه"},{"id":"nIR65ixxlWs","title":"168- حرف ( الواو ) - شرح الإتقان في علوم القرآن","publishedAt":"2023-11-06T06:15:02Z","duration":"PT44M32S","thumbnail":"https://i.ytimg.com/vi/nIR65ixxlWs/mqdefault.jpg","viewCount":"847","playlistId":"PLEkQk5xrP-tlPw10KGJKagu7zm4Ry2Tge","playlistName":"شرح الإتقان في علوم القرآن","category":"تفسير"},{"id":"aBFQlIzBl30","title":"494- لا تكونن إن استطعتَ أولَ مَن يدخلُ السوقَ ولا آخرَ مَن يخرجُ منه - شرح دليل الفالحين","publishedAt":"2023-07-05T08:59:00Z","duration":"PT33M42S","thumbnail":"https://i.ytimg.com/vi/aBFQlIzBl30/mqdefault.jpg","viewCount":"846","playlistId":"PLEkQk5xrP-tkc9DXvSLguqX5-FYp6ASR4","playlistName":"دليل الفالحين لطرق رياض الصالحين","category":"متنوع"},{"id":"HWUXrFDOC_8","title":"شرح صحيح البخاري - كتاب التقصير من باب ٧","publishedAt":"2016-12-23T08:03:50Z","duration":"PT27M50S","thumbnail":"https://i.ytimg.com/vi/HWUXrFDOC_8/mqdefault.jpg","viewCount":"846","playlistId":"PLEkQk5xrP-tlEerGoLa1AFy-2XvQ-sovv","playlistName":"شرح صحيح البخاري - أ.د. يسري جبر (كاملا)","category":"حديث"},{"id":"R3d3tdOB14w","title":"قراءة القرآن (من آية ٢٠٠ سورة البقرة)","publishedAt":"2016-05-12T04:32:20Z","duration":"PT5M56S","thumbnail":"https://i.ytimg.com/vi/R3d3tdOB14w/mqdefault.jpg","viewCount":"846","playlistId":"PLEkQk5xrP-tnmTYsyW6xNdyfhPq0Bhrhj","playlistName":"مقرأة الفجر - القُرْآنُ الكَرِيمُ - خَتْمَةُ التَّدَبُّرِ  أ.د. يسري جبر","category":"متنوع"},{"id":"tAKb31kL62g","title":"وضعُ الخبر موضع الطلب في الأمر والنهي - شرح البرهان في علوم القرآن","publishedAt":"2021-12-07T06:32:18Z","duration":"PT30M9S","thumbnail":"https://i.ytimg.com/vi/tAKb31kL62g/mqdefault.jpg","viewCount":"846","playlistId":"PLEkQk5xrP-tnW3iBL7HkKziOFCFZbTlf0","playlistName":"شرح البرهان في علوم القرآن - أ.د. يسري جبر","category":"تفسير"},{"id":"uFSVDcBjgcY","title":"225- التشبيه - شرح الإتقان في علوم القرآن","publishedAt":"2024-04-18T06:00:23Z","duration":"PT26M26S","thumbnail":"https://i.ytimg.com/vi/uFSVDcBjgcY/mqdefault.jpg","viewCount":"846","playlistId":"PLEkQk5xrP-tlPw10KGJKagu7zm4Ry2Tge","playlistName":"شرح الإتقان في علوم القرآن","category":"تفسير"},{"id":"9XRJA72ZwN4","title":"154- أنواع اللام واستخداماتها - شرح الإتقان في علوم القرآن","publishedAt":"2023-09-29T05:15:00Z","duration":"PT41M1S","thumbnail":"https://i.ytimg.com/vi/9XRJA72ZwN4/mqdefault.jpg","viewCount":"845","playlistId":"PLEkQk5xrP-tlPw10KGJKagu7zm4Ry2Tge","playlistName":"شرح الإتقان في علوم القرآن","category":"تفسير"},{"id":"oIZPJ33hUXw","title":"الرِّيحُ والرِّيَاحُ والفَرْقُ بَينَهُمَا - شرح البرهان في علوم القرآن","publishedAt":"2022-03-13T07:27:02Z","duration":"PT11M22S","thumbnail":"https://i.ytimg.com/vi/oIZPJ33hUXw/mqdefault.jpg","viewCount":"844","playlistId":"PLEkQk5xrP-tnW3iBL7HkKziOFCFZbTlf0","playlistName":"شرح البرهان في علوم القرآن - أ.د. يسري جبر","category":"تفسير"},{"id":"VyWku3LdvT0","title":"مواقع الوقف والابتداء","publishedAt":"2020-09-17T05:39:10Z","duration":"PT20M16S","thumbnail":"https://i.ytimg.com/vi/VyWku3LdvT0/mqdefault.jpg","viewCount":"843","playlistId":"PLEkQk5xrP-tnW3iBL7HkKziOFCFZbTlf0","playlistName":"شرح البرهان في علوم القرآن - أ.د. يسري جبر","category":"تفسير"},{"id":"Ni7lzltRKtM","title":"501- قاعدة في قوله تعالى: مَن فِي السَّمَاوَاتِ وَالْأَرْضِ - شرح البرهان في علوم القرآن","publishedAt":"2022-04-29T19:30:01Z","duration":"PT10M13S","thumbnail":"https://i.ytimg.com/vi/Ni7lzltRKtM/mqdefault.jpg","viewCount":"843","playlistId":"PLEkQk5xrP-tnW3iBL7HkKziOFCFZbTlf0","playlistName":"شرح البرهان في علوم القرآن - أ.د. يسري جبر","category":"تفسير"},{"id":"2xb-kiutEwU","title":"شرح سنن الدارمي - المقدمة - ٩","publishedAt":"2019-03-02T23:30:46Z","duration":"PT29M42S","thumbnail":"https://i.ytimg.com/vi/2xb-kiutEwU/mqdefault.jpg","viewCount":"843","playlistId":"PLEkQk5xrP-tmAg-FuWjY057X_h5NmGmAa","playlistName":"شرح سنن الدارمي - أ.د. يسري جبر (كاملا)","category":"متنوع"},{"id":"EhGxUiX7qSI","title":"شرح صحيح البخاري -  كتاب الاعتكاف من أوله","publishedAt":"2017-04-18T16:08:43Z","duration":"PT28M4S","thumbnail":"https://i.ytimg.com/vi/EhGxUiX7qSI/mqdefault.jpg","viewCount":"843","playlistId":"PLEkQk5xrP-tlEerGoLa1AFy-2XvQ-sovv","playlistName":"شرح صحيح البخاري - أ.د. يسري جبر (كاملا)","category":"حديث"},{"id":"pHGIhe3Flic","title":"39- الاختيار - شرح كتاب فتح القريب المجيب","publishedAt":"2021-11-11T06:40:17Z","duration":"PT41M6S","thumbnail":"https://i.ytimg.com/vi/pHGIhe3Flic/mqdefault.jpg","viewCount":"842","playlistId":"PLEkQk5xrP-tkXuPs-0sXfWQDWzBKmcjWN","playlistName":"\"فتح القريب المجيب في شرح ألفاظ التقريب\"( فقه شافعيّ)  أ. د. يسري جبر","category":"فقه"}],"total":7670,"page":168,"pageSize":24,"totalPages":320}