{"items":[{"id":"T6Bafpkb1ZI","title":"إحياء ليلة الإسراء والمعراج | المدينة المنورة","publishedAt":"2024-02-07T18:30:08Z","duration":"PT39M36S","thumbnail":"https://i.ytimg.com/vi/T6Bafpkb1ZI/mqdefault.jpg","viewCount":"11654","playlistId":"PLEkQk5xrP-tm8ZIu74nTOZN9KJUJu416J","playlistName":"مقاطع مُهمَّة (يُسريَّات) أ.د. يسري جبر","category":"متنوع"},{"id":"QeLaU7G0jzg","title":"كيف تعيش الحب؟","publishedAt":"2020-12-09T18:34:31Z","duration":"PT9M32S","thumbnail":"https://i.ytimg.com/vi/QeLaU7G0jzg/mqdefault.jpg","viewCount":"11627","playlistId":"PLEkQk5xrP-tm8ZIu74nTOZN9KJUJu416J","playlistName":"مقاطع مُهمَّة (يُسريَّات) أ.د. يسري جبر","category":"متنوع"},{"id":"cfz3u-Ol8vM","title":"حَدِيث (١٨٣)\"مَنْ قالَ لا إلهَ إلاَّ اللَّه وحْدهُ لاَ شَرِيكَ له...\" | أ.د. يسري جبر","publishedAt":"2021-04-13T15:33:34Z","duration":"PT42M41S","thumbnail":"https://i.ytimg.com/vi/cfz3u-Ol8vM/mqdefault.jpg","viewCount":"11625","playlistId":"PLEkQk5xrP-tnl7vb7KeAoPd5ZlqKKW8KV","playlistName":"شرح كتاب بهجة النفوس أ.د . يسرى جبر","category":"متنوع"},{"id":"XiF2U7sXSgs","title":"قِسمتك ونصيبك من النَّبيّ ﷺ","publishedAt":"2021-10-23T17:15:01Z","duration":"PT9M55S","thumbnail":"https://i.ytimg.com/vi/XiF2U7sXSgs/mqdefault.jpg","viewCount":"11617","playlistId":"PLEkQk5xrP-tlnvX_MSpJzq0sTimnumdYK","playlistName":"كيف تعرفُ نبيّك؟","category":"متنوع"},{"id":"Nm-uG-KbhV4","title":"كيف تأخذ بالأسباب مع عدم اعتمادك عليها؟","publishedAt":"2024-01-29T18:16:40Z","duration":"PT10M14S","thumbnail":"https://i.ytimg.com/vi/Nm-uG-KbhV4/mqdefault.jpg","viewCount":"11583","playlistId":"PLEkQk5xrP-tm8ZIu74nTOZN9KJUJu416J","playlistName":"مقاطع مُهمَّة (يُسريَّات) أ.د. يسري جبر","category":"متنوع"},{"id":"zAe9TVd_JJc","title":"فضل زيارة مقامات الأولياء","publishedAt":"2022-05-18T18:00:31Z","duration":"PT11M57S","thumbnail":"https://i.ytimg.com/vi/zAe9TVd_JJc/mqdefault.jpg","viewCount":"11556","playlistId":"PLEkQk5xrP-tlArtGpeLWaqNM7h7IDeAVC","playlistName":"خطب الجمعة أ.د. يسري جبر","category":"خطب"},{"id":"TqGubjazrzc","title":"شرح كتاب نور اليقين في سيرة سيد المرسلين - المجلس 49 (السنة التاسعة) د.يسري جبر","publishedAt":"2018-06-02T00:15:30Z","duration":"PT51M1S","thumbnail":"https://i.ytimg.com/vi/TqGubjazrzc/mqdefault.jpg","viewCount":"11550","playlistId":"PLEkQk5xrP-tl2t4NQx1IhKnAJCMzF0Nli","playlistName":"شرح كتاب نور اليقين في سيرة سيد المرسلين   د. يسري جبر","category":"سيرة"},{"id":"n_IQFaCtyJo","title":"كيف تكون من السالكين - د. يسري جبر","publishedAt":"2015-04-15T20:14:07Z","duration":"PT45S","thumbnail":"https://i.ytimg.com/vi/n_IQFaCtyJo/mqdefault.jpg","viewCount":"11522","playlistId":"PLEkQk5xrP-tm8ZIu74nTOZN9KJUJu416J","playlistName":"مقاطع مُهمَّة (يُسريَّات) أ.د. يسري جبر","category":"متنوع"},{"id":"oo_NF_ndYQE","title":"كيف أواجه صعوبات الحياة وأتغلب على الضغوطات النفسية؟","publishedAt":"2025-09-20T19:00:43Z","duration":"PT14M35S","thumbnail":"https://i.ytimg.com/vi/oo_NF_ndYQE/mqdefault.jpg","viewCount":"11495","playlistId":"PLEkQk5xrP-tm8ZIu74nTOZN9KJUJu416J","playlistName":"مقاطع مُهمَّة (يُسريَّات) أ.د. يسري جبر","category":"متنوع"},{"id":"grKuX971Q3E","title":"ما الفرق بين العارف بالله والعالِم؟","publishedAt":"2021-11-01T17:00:37Z","duration":"PT11M40S","thumbnail":"https://i.ytimg.com/vi/grKuX971Q3E/mqdefault.jpg","viewCount":"11433","playlistId":"PLEkQk5xrP-tm8ZIu74nTOZN9KJUJu416J","playlistName":"مقاطع مُهمَّة (يُسريَّات) أ.د. يسري جبر","category":"متنوع"},{"id":"0AK8PSOVDsE","title":"مطالع الأنوار : القلوب والأسرار","publishedAt":"2017-03-23T17:19:39Z","duration":"PT14M48S","thumbnail":"https://i.ytimg.com/vi/0AK8PSOVDsE/mqdefault.jpg","viewCount":"11423","playlistId":"PLEkQk5xrP-tkI_meE148wc7V7XHlB0WPb","playlistName":"من الحكم العطائية  د. يسري جبر","category":"متنوع"},{"id":"aa-ymM-PBpo","title":"الإشفاق على الخَلْق وراثة نبوية","publishedAt":"2020-07-26T19:58:39Z","duration":"PT16M11S","thumbnail":"https://i.ytimg.com/vi/aa-ymM-PBpo/mqdefault.jpg","viewCount":"11421","playlistId":"PLEkQk5xrP-tm8ZIu74nTOZN9KJUJu416J","playlistName":"مقاطع مُهمَّة (يُسريَّات) أ.د. يسري جبر","category":"متنوع"},{"id":"Klk3SCX3YZ0","title":"صلوات اليوم الأول    أ.د. يسري جبر","publishedAt":"2020-05-01T08:30:12Z","duration":"PT12M36S","thumbnail":"https://i.ytimg.com/vi/Klk3SCX3YZ0/mqdefault.jpg","viewCount":"11415","playlistId":"PLEkQk5xrP-tmuP5s2o33O9gAOC4ACxsma","playlistName":"صَلَواتُ الأَسْمَاءِ الْحُسْنَى شَرْحُ الصَّلَواتِ الْيُسْرِيَّةِ عَلَى خَيرِ الْبَرِيَّةِ  أ.د. يسرى جبر","category":"متنوع"},{"id":"STe23jnJQdc","title":"ما سر زيادة الرزق؟","publishedAt":"2023-06-08T17:00:26Z","duration":"PT8M10S","thumbnail":"https://i.ytimg.com/vi/STe23jnJQdc/mqdefault.jpg","viewCount":"11384","playlistId":"PLEkQk5xrP-tm8ZIu74nTOZN9KJUJu416J","playlistName":"مقاطع مُهمَّة (يُسريَّات) أ.د. يسري جبر","category":"متنوع"},{"id":"Gogkq0a2fZ4","title":"شرح كتاب نور اليقين في سيرة سيد المرسلين - المجلس 46 (تكملة غزوة حُنين)  د.يسري جبر","publishedAt":"2018-05-15T11:00:41Z","duration":"PT48M21S","thumbnail":"https://i.ytimg.com/vi/Gogkq0a2fZ4/mqdefault.jpg","viewCount":"11374","playlistId":"PLEkQk5xrP-tl2t4NQx1IhKnAJCMzF0Nli","playlistName":"شرح كتاب نور اليقين في سيرة سيد المرسلين   د. يسري جبر","category":"سيرة"},{"id":"pBgMJpzI3QY","title":"شرح كتاب الرسالة القشيرية - المجلس الثامن (الفصل الثاني)","publishedAt":"2018-01-04T16:30:47Z","duration":"PT1H3M55S","thumbnail":"https://i.ytimg.com/vi/pBgMJpzI3QY/mqdefault.jpg","viewCount":"11368","playlistId":"PLEkQk5xrP-tkHAGOwIKr4pc5ehhyQ5HMJ","playlistName":"كتاب الرسالة القشيرية (تصوف) - د. يسري جبر","category":"تصوف"},{"id":"jXDlHtqHlWM","title":"هل الدعاء يغير القدر؟","publishedAt":"2022-03-19T19:16:37Z","duration":"PT9M10S","thumbnail":"https://i.ytimg.com/vi/jXDlHtqHlWM/mqdefault.jpg","viewCount":"11315","playlistId":"PLEkQk5xrP-tkGXuZ9atE3k_7it12rUPTs","playlistName":"أسئلة المتابعين","category":"متنوع"},{"id":"TZNb_V1_kBs","title":"5- السَّمْعِيَّات (المَلاَئِكَةُ عَلَيْهِمُ السَّلَامُ)","publishedAt":"2022-02-07T18:00:33Z","duration":"PT1H6M48S","thumbnail":"https://i.ytimg.com/vi/TZNb_V1_kBs/mqdefault.jpg","viewCount":"11314","playlistId":"PLEkQk5xrP-tmNuYT8JAh6clwa4krsgkNo","playlistName":"شرح كتاب الفُتُوحات اليُسريَّة في عقائد الأُمَّة المُحمَّديَّة","category":"متنوع"},{"id":"j1e3OkzaAs0","title":"فضل قراءة وحفظ القرآن | أ.د. يسري جبر","publishedAt":"2021-04-28T16:37:19Z","duration":"PT30M4S","thumbnail":"https://i.ytimg.com/vi/j1e3OkzaAs0/mqdefault.jpg","viewCount":"11303","playlistId":"PLEkQk5xrP-tnl7vb7KeAoPd5ZlqKKW8KV","playlistName":"شرح كتاب بهجة النفوس أ.د . يسرى جبر","category":"متنوع"},{"id":"PzfW_BKw1jE","title":"شرح كتاب نور اليقين في سيرة سيد المرسلين - المجلس 47 (غزوة الطائف)  د.يسري جبر","publishedAt":"2018-05-20T23:17:03Z","duration":"PT49M54S","thumbnail":"https://i.ytimg.com/vi/PzfW_BKw1jE/mqdefault.jpg","viewCount":"11299","playlistId":"PLEkQk5xrP-tl2t4NQx1IhKnAJCMzF0Nli","playlistName":"شرح كتاب نور اليقين في سيرة سيد المرسلين   د. يسري جبر","category":"سيرة"},{"id":"6eBu-0KJmq8","title":"ماذا سيحدث يوم القيامة؟","publishedAt":"2022-09-15T18:00:03Z","duration":"PT14M11S","thumbnail":"https://i.ytimg.com/vi/6eBu-0KJmq8/mqdefault.jpg","viewCount":"11287","playlistId":"PLEkQk5xrP-tlArtGpeLWaqNM7h7IDeAVC","playlistName":"خطب الجمعة أ.د. يسري جبر","category":"خطب"},{"id":"m7RKK5AgjXU","title":"شرح كتاب نور اليقين في سيرة سيد المرسلين - المجلس 48 (وفود هوازن)  د.يسري جبر","publishedAt":"2018-05-27T19:22:10Z","duration":"PT49M26S","thumbnail":"https://i.ytimg.com/vi/m7RKK5AgjXU/mqdefault.jpg","viewCount":"11281","playlistId":"PLEkQk5xrP-tl2t4NQx1IhKnAJCMzF0Nli","playlistName":"شرح كتاب نور اليقين في سيرة سيد المرسلين   د. يسري جبر","category":"سيرة"},{"id":"gEKUusEOArw","title":"هل يجوز استخدام السحر في عمل الخير؟","publishedAt":"2022-12-03T18:00:13Z","duration":"PT8M1S","thumbnail":"https://i.ytimg.com/vi/gEKUusEOArw/mqdefault.jpg","viewCount":"11200","playlistId":"PLEkQk5xrP-tkGXuZ9atE3k_7it12rUPTs","playlistName":"أسئلة المتابعين","category":"متنوع"},{"id":"ZO5JFAdwJaY","title":"بذِكْرَى المولدِ نحيا","publishedAt":"2020-11-01T18:05:30Z","duration":"PT19M42S","thumbnail":"https://i.ytimg.com/vi/ZO5JFAdwJaY/mqdefault.jpg","viewCount":"11193","playlistId":"PLEkQk5xrP-tm8ZIu74nTOZN9KJUJu416J","playlistName":"مقاطع مُهمَّة (يُسريَّات) أ.د. يسري جبر","category":"متنوع"}],"total":7670,"page":26,"pageSize":24,"totalPages":320}