{"items":[{"id":"13JsHS4trz0","title":"١٤٦ حديث الحث على اتخاذ الرفيق في السفر د. يسري جبر","publishedAt":"2018-05-24T14:00:48Z","duration":"PT19M32S","thumbnail":"https://i.ytimg.com/vi/13JsHS4trz0/mqdefault.jpg","viewCount":"403","playlistId":"PLEkQk5xrP-tnl7vb7KeAoPd5ZlqKKW8KV","playlistName":"شرح كتاب بهجة النفوس أ.د . يسرى جبر","category":"متنوع"},{"id":"bhfIYdMUdmY","title":"مقرأة سورة مريم من آية ٥٩","publishedAt":"2017-11-12T11:44:17Z","duration":"PT14M9S","thumbnail":"https://i.ytimg.com/vi/bhfIYdMUdmY/mqdefault.jpg","viewCount":"402","playlistId":"PLEkQk5xrP-tnmTYsyW6xNdyfhPq0Bhrhj","playlistName":"مقرأة الفجر - القُرْآنُ الكَرِيمُ - خَتْمَةُ التَّدَبُّرِ  أ.د. يسري جبر","category":"متنوع"},{"id":"VTjiHQvDADw","title":"صلاة التراويح | اعرف نبيك في رمضان","publishedAt":"2016-06-20T21:08:05Z","duration":"PT8M29S","thumbnail":"https://i.ytimg.com/vi/VTjiHQvDADw/mqdefault.jpg","viewCount":"402","playlistId":"PLEkQk5xrP-tmhJ_gpAAFyOpEsHp0_VAJ-","playlistName":"برنامج اعرف نبيك في رمضان","category":"متنوع"},{"id":"znw3q_YGozE","title":"قراءة وتفسير القرآن (من آية  ١٨٦ سورة آل عمران)","publishedAt":"2016-08-06T06:15:52Z","duration":"PT17M58S","thumbnail":"https://i.ytimg.com/vi/znw3q_YGozE/mqdefault.jpg","viewCount":"402","playlistId":"PLEkQk5xrP-tnmTYsyW6xNdyfhPq0Bhrhj","playlistName":"مقرأة الفجر - القُرْآنُ الكَرِيمُ - خَتْمَةُ التَّدَبُّرِ  أ.د. يسري جبر","category":"متنوع"},{"id":"LSn60rJEbUI","title":"شرح سنن الدارمي كتاب الفرائض من أوله","publishedAt":"2019-10-09T11:10:35Z","duration":"PT41M20S","thumbnail":"https://i.ytimg.com/vi/LSn60rJEbUI/mqdefault.jpg","viewCount":"402","playlistId":"PLEkQk5xrP-tmAg-FuWjY057X_h5NmGmAa","playlistName":"شرح سنن الدارمي - أ.د. يسري جبر (كاملا)","category":"متنوع"},{"id":"Q6A7xK5YmC4","title":"شرح سنن الدارمي كتاب الرقاق من باب ٨١","publishedAt":"2019-10-06T10:46:59Z","duration":"PT39M39S","thumbnail":"https://i.ytimg.com/vi/Q6A7xK5YmC4/mqdefault.jpg","viewCount":"402","playlistId":"PLEkQk5xrP-tmAg-FuWjY057X_h5NmGmAa","playlistName":"شرح سنن الدارمي - أ.د. يسري جبر (كاملا)","category":"متنوع"},{"id":"AFjQjvX3_UY","title":"مقرأة سورة طه من آية ٤٥","publishedAt":"2017-11-30T20:50:22Z","duration":"PT20M19S","thumbnail":"https://i.ytimg.com/vi/AFjQjvX3_UY/mqdefault.jpg","viewCount":"401","playlistId":"PLEkQk5xrP-tnmTYsyW6xNdyfhPq0Bhrhj","playlistName":"مقرأة الفجر - القُرْآنُ الكَرِيمُ - خَتْمَةُ التَّدَبُّرِ  أ.د. يسري جبر","category":"متنوع"},{"id":"MbmCdVTezpg","title":"القِسمُ العاشرُ من التوكيد: صِيَغُ المبالغة (3) \"ما جاء على صيغة فعيل\" شرح البرهان في علوم القرآن","publishedAt":"2021-04-08T06:06:47Z","duration":"PT26M24S","thumbnail":"https://i.ytimg.com/vi/MbmCdVTezpg/mqdefault.jpg","viewCount":"401","playlistId":"PLEkQk5xrP-tnW3iBL7HkKziOFCFZbTlf0","playlistName":"شرح البرهان في علوم القرآن - أ.د. يسري جبر","category":"تفسير"},{"id":"iugsxL7i3fs","title":"297- جدل القرآن - شرح الإتقان في علوم القرآن","publishedAt":"2025-08-18T09:00:58Z","duration":"PT33M54S","thumbnail":"https://i.ytimg.com/vi/iugsxL7i3fs/mqdefault.jpg","viewCount":"401","playlistId":"PLEkQk5xrP-tlPw10KGJKagu7zm4Ry2Tge","playlistName":"شرح الإتقان في علوم القرآن","category":"تفسير"},{"id":"sd2ZlyWqUVQ","title":"شرح صحيح البخاري كتاب الطلا‎ق من باب ٢٦","publishedAt":"2018-06-22T19:48:01Z","duration":"PT27M31S","thumbnail":"https://i.ytimg.com/vi/sd2ZlyWqUVQ/mqdefault.jpg","viewCount":"401","playlistId":"PLEkQk5xrP-tlEerGoLa1AFy-2XvQ-sovv","playlistName":"شرح صحيح البخاري - أ.د. يسري جبر (كاملا)","category":"حديث"},{"id":"4qqzI_zpBZk","title":"مقرأة سورة الجمعة من أولها","publishedAt":"2019-04-10T09:26:41Z","duration":"PT16M47S","thumbnail":"https://i.ytimg.com/vi/4qqzI_zpBZk/mqdefault.jpg","viewCount":"401","playlistId":"PLEkQk5xrP-tnmTYsyW6xNdyfhPq0Bhrhj","playlistName":"مقرأة الفجر - القُرْآنُ الكَرِيمُ - خَتْمَةُ التَّدَبُّرِ  أ.د. يسري جبر","category":"متنوع"},{"id":"YhlVWku3RPo","title":"شرح صحيح البخاري كتاب الحيل من باب ٥","publishedAt":"2018-12-17T20:04:27Z","duration":"PT25M25S","thumbnail":"https://i.ytimg.com/vi/YhlVWku3RPo/mqdefault.jpg","viewCount":"400","playlistId":"PLEkQk5xrP-tlEerGoLa1AFy-2XvQ-sovv","playlistName":"شرح صحيح البخاري - أ.د. يسري جبر (كاملا)","category":"حديث"},{"id":"Efm20ZK9nBE","title":"58- شرح اللؤلؤ والمرجان كتاب الزكاة من الباب السابع والأربعين","publishedAt":"2020-02-06T16:57:44Z","duration":"PT30M","thumbnail":"https://i.ytimg.com/vi/Efm20ZK9nBE/mqdefault.jpg","viewCount":"400","playlistId":"PLEkQk5xrP-tmKNjtYLfhATC37QdIsTMe0","playlistName":"شرح كتاب اللؤلؤ والمرجان فيما اتفق عليه الشيخان إماما المحدثين البخاري ومسلم. أ.د. يسري جبر","category":"حديث"},{"id":"GdgYRPeqQMs","title":"الاختزال (25) حذف الجملة - شرح البرهان في علوم القرآن","publishedAt":"2021-08-04T06:11:05Z","duration":"PT17M11S","thumbnail":"https://i.ytimg.com/vi/GdgYRPeqQMs/mqdefault.jpg","viewCount":"400","playlistId":"PLEkQk5xrP-tnW3iBL7HkKziOFCFZbTlf0","playlistName":"شرح البرهان في علوم القرآن - أ.د. يسري جبر","category":"تفسير"},{"id":"LOXm5-5wka8","title":"أخلاق رسول الله في مجالسه | اعرف نبيك","publishedAt":"2015-09-16T16:06:15Z","duration":"PT10M5S","thumbnail":"https://i.ytimg.com/vi/LOXm5-5wka8/mqdefault.jpg","viewCount":"400","playlistId":"PLEkQk5xrP-tl6Mu_Mz3QMUSv5T6XBH-Dg","playlistName":"برنامج اعرف نبيك","category":"متنوع"},{"id":"S0tXaCGG008","title":"130- معنى (أَنَّىٰ) - شرح الإتقان في علوم القرآن","publishedAt":"2023-07-23T05:00:11Z","duration":"PT5M4S","thumbnail":"https://i.ytimg.com/vi/S0tXaCGG008/mqdefault.jpg","viewCount":"400","playlistId":"PLEkQk5xrP-tlPw10KGJKagu7zm4Ry2Tge","playlistName":"شرح الإتقان في علوم القرآن","category":"تفسير"},{"id":"xwIw0D4gzmo","title":"مقرأة سورة غافر من آية ٢٣","publishedAt":"2018-11-06T18:41:17Z","duration":"PT24M47S","thumbnail":"https://i.ytimg.com/vi/xwIw0D4gzmo/mqdefault.jpg","viewCount":"400","playlistId":"PLEkQk5xrP-tnmTYsyW6xNdyfhPq0Bhrhj","playlistName":"مقرأة الفجر - القُرْآنُ الكَرِيمُ - خَتْمَةُ التَّدَبُّرِ  أ.د. يسري جبر","category":"متنوع"},{"id":"L2GnMzxzn4E","title":"شرح سنن الدارمي كتاب البيوع من أوله","publishedAt":"2019-09-04T17:02:28Z","duration":"PT26M15S","thumbnail":"https://i.ytimg.com/vi/L2GnMzxzn4E/mqdefault.jpg","viewCount":"400","playlistId":"PLEkQk5xrP-tmAg-FuWjY057X_h5NmGmAa","playlistName":"شرح سنن الدارمي - أ.د. يسري جبر (كاملا)","category":"متنوع"},{"id":"cYrw2CJGsy4","title":"مقرأة سورة الإسراء من آية ٨٣","publishedAt":"2017-10-08T10:44:28Z","duration":"PT15M47S","thumbnail":"https://i.ytimg.com/vi/cYrw2CJGsy4/mqdefault.jpg","viewCount":"400","playlistId":"PLEkQk5xrP-tnmTYsyW6xNdyfhPq0Bhrhj","playlistName":"مقرأة الفجر - القُرْآنُ الكَرِيمُ - خَتْمَةُ التَّدَبُّرِ  أ.د. يسري جبر","category":"متنوع"},{"id":"ubhG5fOLXR0","title":"634- الواو العاملة وغير العاملة - شرح البرهان في علوم القرآن","publishedAt":"2023-01-03T05:00:19Z","duration":"PT35M30S","thumbnail":"https://i.ytimg.com/vi/ubhG5fOLXR0/mqdefault.jpg","viewCount":"400","playlistId":"PLEkQk5xrP-tnW3iBL7HkKziOFCFZbTlf0","playlistName":"شرح البرهان في علوم القرآن - أ.د. يسري جبر","category":"تفسير"},{"id":"mDqfzE2yHNw","title":"الأسلوب الثاني\"الحذف\"(4) أدلة الحذف -  شرح البرهان في علوم القرآن","publishedAt":"2021-06-14T05:52:24Z","duration":"PT30M13S","thumbnail":"https://i.ytimg.com/vi/mDqfzE2yHNw/mqdefault.jpg","viewCount":"399","playlistId":"PLEkQk5xrP-tnW3iBL7HkKziOFCFZbTlf0","playlistName":"شرح البرهان في علوم القرآن - أ.د. يسري جبر","category":"تفسير"},{"id":"NWGOT65xmZI","title":"138- معنى (حتى) - شرح الإتقان في علوم القرآن","publishedAt":"2023-07-31T05:00:20Z","duration":"PT14M59S","thumbnail":"https://i.ytimg.com/vi/NWGOT65xmZI/mqdefault.jpg","viewCount":"399","playlistId":"PLEkQk5xrP-tlPw10KGJKagu7zm4Ry2Tge","playlistName":"شرح الإتقان في علوم القرآن","category":"تفسير"},{"id":"y1Ov4YPsNfU","title":"شرح سنن الدارمي كتاب الديات من باب ١٣","publishedAt":"2019-08-22T18:50:52Z","duration":"PT36M38S","thumbnail":"https://i.ytimg.com/vi/y1Ov4YPsNfU/mqdefault.jpg","viewCount":"399","playlistId":"PLEkQk5xrP-tmAg-FuWjY057X_h5NmGmAa","playlistName":"شرح سنن الدارمي - أ.د. يسري جبر (كاملا)","category":"متنوع"},{"id":"wKKrhGqeItE","title":"الاختزال (26) حذف القول - شرح البرهان في علوم القرآن","publishedAt":"2021-08-06T05:32:22Z","duration":"PT11M47S","thumbnail":"https://i.ytimg.com/vi/wKKrhGqeItE/mqdefault.jpg","viewCount":"399","playlistId":"PLEkQk5xrP-tnW3iBL7HkKziOFCFZbTlf0","playlistName":"شرح البرهان في علوم القرآن - أ.د. يسري جبر","category":"تفسير"}],"total":7670,"page":254,"pageSize":24,"totalPages":320}