{"items":[{"id":"MDiAi38TrLo","title":"مقرأة سورة يوسف من آية ٥٠","publishedAt":"2017-07-01T10:31:17Z","duration":"PT21M56S","thumbnail":"https://i.ytimg.com/vi/MDiAi38TrLo/mqdefault.jpg","viewCount":"578","playlistId":"PLEkQk5xrP-tnmTYsyW6xNdyfhPq0Bhrhj","playlistName":"مقرأة الفجر - القُرْآنُ الكَرِيمُ - خَتْمَةُ التَّدَبُّرِ  أ.د. يسري جبر","category":"متنوع"},{"id":"BxFU7yXIc6c","title":"142- حرف الظاء (ظنَّ) - شرح الإتقان في علوم القرآن","publishedAt":"2023-08-05T05:00:05Z","duration":"PT28M48S","thumbnail":"https://i.ytimg.com/vi/BxFU7yXIc6c/mqdefault.jpg","viewCount":"578","playlistId":"PLEkQk5xrP-tlPw10KGJKagu7zm4Ry2Tge","playlistName":"شرح الإتقان في علوم القرآن","category":"تفسير"},{"id":"TtWV6eSl5_o","title":"141- حرف السين (سوف - ساء - سواء - سبحان) - شرح الإتقان في علوم القرآن","publishedAt":"2023-08-03T05:00:11Z","duration":"PT27M8S","thumbnail":"https://i.ytimg.com/vi/TtWV6eSl5_o/mqdefault.jpg","viewCount":"578","playlistId":"PLEkQk5xrP-tlPw10KGJKagu7zm4Ry2Tge","playlistName":"شرح الإتقان في علوم القرآن","category":"تفسير"},{"id":"OSGj5u05cP0","title":"486- قاعدة في الضمائر (ألَّا يعود على مذكور، ولا معلوم بالسياق، أو غيره)- شرح البرهان في علوم القرآن","publishedAt":"2022-03-28T06:12:24Z","duration":"PT6M34S","thumbnail":"https://i.ytimg.com/vi/OSGj5u05cP0/mqdefault.jpg","viewCount":"578","playlistId":"PLEkQk5xrP-tnW3iBL7HkKziOFCFZbTlf0","playlistName":"شرح البرهان في علوم القرآن - أ.د. يسري جبر","category":"تفسير"},{"id":"tyNalDBqpMs","title":"ما ورد فيه مبيِّنًا للإجمال","publishedAt":"2020-09-19T05:19:00Z","duration":"PT23M45S","thumbnail":"https://i.ytimg.com/vi/tyNalDBqpMs/mqdefault.jpg","viewCount":"578","playlistId":"PLEkQk5xrP-tnW3iBL7HkKziOFCFZbTlf0","playlistName":"شرح البرهان في علوم القرآن - أ.د. يسري جبر","category":"تفسير"},{"id":"wY-wX3LbVsM","title":"121- شرح اللؤلؤ والمرجان كتاب الإمارة من الباب الأربعين","publishedAt":"2020-04-21T20:05:54Z","duration":"PT37M41S","thumbnail":"https://i.ytimg.com/vi/wY-wX3LbVsM/mqdefault.jpg","viewCount":"577","playlistId":"PLEkQk5xrP-tmKNjtYLfhATC37QdIsTMe0","playlistName":"شرح كتاب اللؤلؤ والمرجان فيما اتفق عليه الشيخان إماما المحدثين البخاري ومسلم. أ.د. يسري جبر","category":"حديث"},{"id":"e6FtiGmBdpI","title":"مقرأة سورة يس من آية ٧٧","publishedAt":"2018-09-11T09:26:09Z","duration":"PT26M26S","thumbnail":"https://i.ytimg.com/vi/e6FtiGmBdpI/mqdefault.jpg","viewCount":"577","playlistId":"PLEkQk5xrP-tnmTYsyW6xNdyfhPq0Bhrhj","playlistName":"مقرأة الفجر - القُرْآنُ الكَرِيمُ - خَتْمَةُ التَّدَبُّرِ  أ.د. يسري جبر","category":"متنوع"},{"id":"fr_V0eLOtrs","title":"375- فضل الصَّوم وغيره في العشر الأُوَل من ذي الحجََة - شرح دليل الفالحين","publishedAt":"2023-01-04T09:00:20Z","duration":"PT26M44S","thumbnail":"https://i.ytimg.com/vi/fr_V0eLOtrs/mqdefault.jpg","viewCount":"577","playlistId":"PLEkQk5xrP-tkc9DXvSLguqX5-FYp6ASR4","playlistName":"دليل الفالحين لطرق رياض الصالحين","category":"متنوع"},{"id":"B5wCgK5aWwM","title":"شرح البرهان في علوم القرآن - النوع ٤١ - فصل: أصل الوقوف على معني القرآن التدبر","publishedAt":"2020-09-02T20:45:01Z","duration":"PT15M27S","thumbnail":"https://i.ytimg.com/vi/B5wCgK5aWwM/mqdefault.jpg","viewCount":"577","playlistId":"PLEkQk5xrP-tnW3iBL7HkKziOFCFZbTlf0","playlistName":"شرح البرهان في علوم القرآن - أ.د. يسري جبر","category":"تفسير"},{"id":"_Cyb1Uu927A","title":"تغليب العاقل على غيره - شرح البرهان في علوم القرآن","publishedAt":"2021-10-31T10:26:24Z","duration":"PT25M3S","thumbnail":"https://i.ytimg.com/vi/_Cyb1Uu927A/mqdefault.jpg","viewCount":"576","playlistId":"PLEkQk5xrP-tnW3iBL7HkKziOFCFZbTlf0","playlistName":"شرح البرهان في علوم القرآن - أ.د. يسري جبر","category":"تفسير"},{"id":"3VZnsE3uqgg","title":"شرح صحيح البخاري - كتاب المغازي تكملة  باب ٥٥","publishedAt":"2018-02-20T20:25:16Z","duration":"PT33M19S","thumbnail":"https://i.ytimg.com/vi/3VZnsE3uqgg/mqdefault.jpg","viewCount":"576","playlistId":"PLEkQk5xrP-tlEerGoLa1AFy-2XvQ-sovv","playlistName":"شرح صحيح البخاري - أ.د. يسري جبر (كاملا)","category":"حديث"},{"id":"XHXMDCEw4Jo","title":"شرح كتاب البيوع من سنن الترمذي - المجلس الثاني","publishedAt":"2015-05-26T02:21:19Z","duration":"PT42M28S","thumbnail":"https://i.ytimg.com/vi/XHXMDCEw4Jo/mqdefault.jpg","viewCount":"576","playlistId":"PLEkQk5xrP-tnu6of679SvxdVx0qSrJzmb","playlistName":"شرح سنن الإمام الترمذي رضى الله عنه د. يسري جبر","category":"متنوع"},{"id":"N_hR593tSks","title":"شرح صحيح البخاري كتاب الدعوات من باب ١٨","publishedAt":"2018-10-06T06:31:33Z","duration":"PT38M9S","thumbnail":"https://i.ytimg.com/vi/N_hR593tSks/mqdefault.jpg","viewCount":"576","playlistId":"PLEkQk5xrP-tlEerGoLa1AFy-2XvQ-sovv","playlistName":"شرح صحيح البخاري - أ.د. يسري جبر (كاملا)","category":"حديث"},{"id":"5Q43KNbneEg","title":"314- استحباب تكثير المصلين على الجنازة، وجعل صفوفهم ثلاثة ثلاثة فأكثر","publishedAt":"2022-10-20T07:30:01Z","duration":"PT49M7S","thumbnail":"https://i.ytimg.com/vi/5Q43KNbneEg/mqdefault.jpg","viewCount":"576","playlistId":"PLEkQk5xrP-tkc9DXvSLguqX5-FYp6ASR4","playlistName":"دليل الفالحين لطرق رياض الصالحين","category":"متنوع"},{"id":"auvGX_O8JlE","title":"537- حروف المعاني: حرف العطف (أم) - شرح البرهان في علوم القرآن","publishedAt":"2022-07-07T06:00:01Z","duration":"PT33M52S","thumbnail":"https://i.ytimg.com/vi/auvGX_O8JlE/mqdefault.jpg","viewCount":"576","playlistId":"PLEkQk5xrP-tnW3iBL7HkKziOFCFZbTlf0","playlistName":"شرح البرهان في علوم القرآن - أ.د. يسري جبر","category":"تفسير"},{"id":"V0aS9gymQas","title":"شرح البرهان في علوم القرآن - النوع ٣٦ -   معرفة المحكم من المتشابه","publishedAt":"2020-03-09T06:00:03Z","duration":"PT15M51S","thumbnail":"https://i.ytimg.com/vi/V0aS9gymQas/mqdefault.jpg","viewCount":"575","playlistId":"PLEkQk5xrP-tnW3iBL7HkKziOFCFZbTlf0","playlistName":"شرح البرهان في علوم القرآن - أ.د. يسري جبر","category":"تفسير"},{"id":"vvvX-KaRXc0","title":"شرح صحيح الإمام البخاري رضي الله تعالى عنه - كتابُِ الأَحْكَامِ   أ.د. يسري جبر","publishedAt":"2019-06-23T19:23:55Z","duration":"PT37M4S","thumbnail":"https://i.ytimg.com/vi/vvvX-KaRXc0/mqdefault.jpg","viewCount":"575","playlistId":"PLEkQk5xrP-tmJuzaj4GWRenFoFx9gdbFX","playlistName":"شرح كتاب صحيح الإمام البخاري رضي الله تعالى عنه   أ.د. يسرى جبر","category":"حديث"},{"id":"DVEyjaY3Kk0","title":"لا تدهشك واردات النعم عن القيام بحقوق شكرك، فإن ذلك مما يحطُّ من وجود قدرك","publishedAt":"2017-09-05T18:38:27Z","duration":"PT12M8S","thumbnail":"https://i.ytimg.com/vi/DVEyjaY3Kk0/mqdefault.jpg","viewCount":"575","playlistId":"PLEkQk5xrP-tkI_meE148wc7V7XHlB0WPb","playlistName":"من الحكم العطائية  د. يسري جبر","category":"متنوع"},{"id":"qBm0IBNaxq0","title":"شرح صحيح البخاري - كتاب الجهاد والسير من باب ٨٣","publishedAt":"2017-08-08T16:00:27Z","duration":"PT30M1S","thumbnail":"https://i.ytimg.com/vi/qBm0IBNaxq0/mqdefault.jpg","viewCount":"575","playlistId":"PLEkQk5xrP-tlEerGoLa1AFy-2XvQ-sovv","playlistName":"شرح صحيح البخاري - أ.د. يسري جبر (كاملا)","category":"حديث"},{"id":"dhBIY2_dzAM","title":"85- حكم الاقتباس وما جرى مجْرَاه - آداب تلاوة القرآن (8) - شرح الإتقان في علوم القرآن","publishedAt":"2023-05-30T05:00:17Z","duration":"PT41M32S","thumbnail":"https://i.ytimg.com/vi/dhBIY2_dzAM/mqdefault.jpg","viewCount":"575","playlistId":"PLEkQk5xrP-tlPw10KGJKagu7zm4Ry2Tge","playlistName":"شرح الإتقان في علوم القرآن","category":"تفسير"},{"id":"gZ2Z7omliRE","title":"3- التوكيد","publishedAt":"2021-01-04T07:18:37Z","duration":"PT13M26S","thumbnail":"https://i.ytimg.com/vi/gZ2Z7omliRE/mqdefault.jpg","viewCount":"575","playlistId":"PLEkQk5xrP-tnW3iBL7HkKziOFCFZbTlf0","playlistName":"شرح البرهان في علوم القرآن - أ.د. يسري جبر","category":"تفسير"},{"id":"_EMwk1QhGIs","title":"34- شرح اللؤلؤ والمرجان كتاب المساجد ومواضع الصلاة من باب ٣١","publishedAt":"2020-01-16T02:43:33Z","duration":"PT32M22S","thumbnail":"https://i.ytimg.com/vi/_EMwk1QhGIs/mqdefault.jpg","viewCount":"574","playlistId":"PLEkQk5xrP-tmKNjtYLfhATC37QdIsTMe0","playlistName":"شرح كتاب اللؤلؤ والمرجان فيما اتفق عليه الشيخان إماما المحدثين البخاري ومسلم. أ.د. يسري جبر","category":"حديث"},{"id":"3ldOGvtcppw","title":"21- الْقُنُوتِ فِى الصُّبْحِ ك قصرالصلاة فى السفر ك الموطأ د يسري جبر الأزهري","publishedAt":"2016-08-16T13:09:36Z","duration":"PT44M6S","thumbnail":"https://i.ytimg.com/vi/3ldOGvtcppw/mqdefault.jpg","viewCount":"574","playlistId":"PLEkQk5xrP-tnC6BRuqMjyO-484iqXeg0o","playlistName":"شرح كتاب الموطأ للإمام مالك","category":"متنوع"},{"id":"C2xmMMs_Ue4","title":"مقرأة سورة الطلاق من أولها","publishedAt":"2019-04-21T23:43:21Z","duration":"PT25M38S","thumbnail":"https://i.ytimg.com/vi/C2xmMMs_Ue4/mqdefault.jpg","viewCount":"574","playlistId":"PLEkQk5xrP-tnmTYsyW6xNdyfhPq0Bhrhj","playlistName":"مقرأة الفجر - القُرْآنُ الكَرِيمُ - خَتْمَةُ التَّدَبُّرِ  أ.د. يسري جبر","category":"متنوع"}],"total":7670,"page":207,"pageSize":24,"totalPages":320}