{"items":[{"id":"wKKrhGqeItE","title":"الاختزال (26) حذف القول - شرح البرهان في علوم القرآن","publishedAt":"2021-08-06T05:32:22Z","duration":"PT11M47S","thumbnail":"https://i.ytimg.com/vi/wKKrhGqeItE/mqdefault.jpg","viewCount":"399","playlistId":"PLEkQk5xrP-tnW3iBL7HkKziOFCFZbTlf0","playlistName":"شرح البرهان في علوم القرآن - أ.د. يسري جبر","category":"تفسير"},{"id":"nzGojMHYwt4","title":"مقرأة سورة النساء من آية ١٠٠","publishedAt":"2019-09-30T09:03:41Z","duration":"PT10M11S","thumbnail":"https://i.ytimg.com/vi/nzGojMHYwt4/mqdefault.jpg","viewCount":"399","playlistId":"PLEkQk5xrP-tnmTYsyW6xNdyfhPq0Bhrhj","playlistName":"مقرأة الفجر - القُرْآنُ الكَرِيمُ - خَتْمَةُ التَّدَبُّرِ  أ.د. يسري جبر","category":"متنوع"},{"id":"CFpNUdCxjpU","title":"مقرأة سورة الصافات من آية ١١","publishedAt":"2018-09-13T10:05:02Z","duration":"PT18M50S","thumbnail":"https://i.ytimg.com/vi/CFpNUdCxjpU/mqdefault.jpg","viewCount":"398","playlistId":"PLEkQk5xrP-tnmTYsyW6xNdyfhPq0Bhrhj","playlistName":"مقرأة الفجر - القُرْآنُ الكَرِيمُ - خَتْمَةُ التَّدَبُّرِ  أ.د. يسري جبر","category":"متنوع"},{"id":"qdttEucs4tc","title":"سورة المائدة آية 94","publishedAt":"2016-11-22T19:18:55Z","duration":"PT19M26S","thumbnail":"https://i.ytimg.com/vi/qdttEucs4tc/mqdefault.jpg","viewCount":"398","playlistId":"PLEkQk5xrP-tnmTYsyW6xNdyfhPq0Bhrhj","playlistName":"مقرأة الفجر - القُرْآنُ الكَرِيمُ - خَتْمَةُ التَّدَبُّرِ  أ.د. يسري جبر","category":"متنوع"},{"id":"sT8R7EFZFfM","title":"سورة الأعراف آية 85","publishedAt":"2017-02-18T12:39:13Z","duration":"PT26M43S","thumbnail":"https://i.ytimg.com/vi/sT8R7EFZFfM/mqdefault.jpg","viewCount":"398","playlistId":"PLEkQk5xrP-tnmTYsyW6xNdyfhPq0Bhrhj","playlistName":"مقرأة الفجر - القُرْآنُ الكَرِيمُ - خَتْمَةُ التَّدَبُّرِ  أ.د. يسري جبر","category":"متنوع"},{"id":"Eu8cVrHAv84","title":"633- حرف (الواو) - شرح البرهان في علوم القرآن","publishedAt":"2023-01-01T05:00:06Z","duration":"PT16M48S","thumbnail":"https://i.ytimg.com/vi/Eu8cVrHAv84/mqdefault.jpg","viewCount":"398","playlistId":"PLEkQk5xrP-tnW3iBL7HkKziOFCFZbTlf0","playlistName":"شرح البرهان في علوم القرآن - أ.د. يسري جبر","category":"تفسير"},{"id":"8EO71CtPbA0","title":"129- معنى (إِنَّ - أَنَّ) - شرح الإتقان في علوم القرآن","publishedAt":"2023-07-22T05:00:05Z","duration":"PT26M16S","thumbnail":"https://i.ytimg.com/vi/8EO71CtPbA0/mqdefault.jpg","viewCount":"398","playlistId":"PLEkQk5xrP-tlPw10KGJKagu7zm4Ry2Tge","playlistName":"شرح الإتقان في علوم القرآن","category":"تفسير"},{"id":"n2SVVtjMsWs","title":"مقرأة سورة الصافات من آية ١٢٣","publishedAt":"2018-09-24T09:01:55Z","duration":"PT16M12S","thumbnail":"https://i.ytimg.com/vi/n2SVVtjMsWs/mqdefault.jpg","viewCount":"398","playlistId":"PLEkQk5xrP-tnmTYsyW6xNdyfhPq0Bhrhj","playlistName":"مقرأة الفجر - القُرْآنُ الكَرِيمُ - خَتْمَةُ التَّدَبُّرِ  أ.د. يسري جبر","category":"متنوع"},{"id":"tXLNjDM_z-I","title":"سورة الأنفال آية 36","publishedAt":"2017-03-22T08:09:02Z","duration":"PT14M43S","thumbnail":"https://i.ytimg.com/vi/tXLNjDM_z-I/mqdefault.jpg","viewCount":"398","playlistId":"PLEkQk5xrP-tnmTYsyW6xNdyfhPq0Bhrhj","playlistName":"مقرأة الفجر - القُرْآنُ الكَرِيمُ - خَتْمَةُ التَّدَبُّرِ  أ.د. يسري جبر","category":"متنوع"},{"id":"jLoCeUSN97w","title":"مقرأة سورة النحل من آية ٢٤","publishedAt":"2017-08-18T06:08:16Z","duration":"PT17M15S","thumbnail":"https://i.ytimg.com/vi/jLoCeUSN97w/mqdefault.jpg","viewCount":"397","playlistId":"PLEkQk5xrP-tnmTYsyW6xNdyfhPq0Bhrhj","playlistName":"مقرأة الفجر - القُرْآنُ الكَرِيمُ - خَتْمَةُ التَّدَبُّرِ  أ.د. يسري جبر","category":"متنوع"},{"id":"Y_gKA57MQHg","title":"شرح البرهان في علوم القرآن - النوع ٣٢ - معرفة أحكامه","publishedAt":"2020-02-17T06:00:06Z","duration":"PT32M56S","thumbnail":"https://i.ytimg.com/vi/Y_gKA57MQHg/mqdefault.jpg","viewCount":"397","playlistId":"PLEkQk5xrP-tnW3iBL7HkKziOFCFZbTlf0","playlistName":"شرح البرهان في علوم القرآن - أ.د. يسري جبر","category":"تفسير"},{"id":"LH9ROs9fdHQ","title":"عطاء رسول الله للناس | اعرف نبيك","publishedAt":"2015-09-17T14:56:48Z","duration":"PT7M30S","thumbnail":"https://i.ytimg.com/vi/LH9ROs9fdHQ/mqdefault.jpg","viewCount":"397","playlistId":"PLEkQk5xrP-tl6Mu_Mz3QMUSv5T6XBH-Dg","playlistName":"برنامج اعرف نبيك","category":"متنوع"},{"id":"rLsa3RWKMd4","title":"مقرأة سورة الأنبياء من آية ٩٨","publishedAt":"2017-12-30T15:00:56Z","duration":"PT15M18S","thumbnail":"https://i.ytimg.com/vi/rLsa3RWKMd4/mqdefault.jpg","viewCount":"397","playlistId":"PLEkQk5xrP-tnmTYsyW6xNdyfhPq0Bhrhj","playlistName":"مقرأة الفجر - القُرْآنُ الكَرِيمُ - خَتْمَةُ التَّدَبُّرِ  أ.د. يسري جبر","category":"متنوع"},{"id":"kZTnzBYvDAQ","title":"شرح صحيح البخاري كتاب المحاربين من أهل الكفر والردة من باب ٧","publishedAt":"2018-11-29T20:50:24Z","duration":"PT32M","thumbnail":"https://i.ytimg.com/vi/kZTnzBYvDAQ/mqdefault.jpg","viewCount":"397","playlistId":"PLEkQk5xrP-tlEerGoLa1AFy-2XvQ-sovv","playlistName":"شرح صحيح البخاري - أ.د. يسري جبر (كاملا)","category":"حديث"},{"id":"rbMilhRlnog","title":"حَدِيثُ (١٨٠)  هُرُوبِ الشَّيْطَانِ عِندَ النِّدَاءِ لِلصَّلَاةِ  أ.د. يسري جبر","publishedAt":"2019-06-02T13:02:47Z","duration":"PT23M54S","thumbnail":"https://i.ytimg.com/vi/rbMilhRlnog/mqdefault.jpg","viewCount":"397","playlistId":"PLEkQk5xrP-tnl7vb7KeAoPd5ZlqKKW8KV","playlistName":"شرح كتاب بهجة النفوس أ.د . يسرى جبر","category":"متنوع"},{"id":"YoTHV4ObHhs","title":"شرح كتاب المناقب من سنن الترمذي - المجلس الثاني والعشرون","publishedAt":"2016-07-16T18:07:58Z","duration":"PT21M56S","thumbnail":"https://i.ytimg.com/vi/YoTHV4ObHhs/mqdefault.jpg","viewCount":"397","playlistId":"PLEkQk5xrP-tnu6of679SvxdVx0qSrJzmb","playlistName":"شرح سنن الإمام الترمذي رضى الله عنه د. يسري جبر","category":"متنوع"},{"id":"VSdKdAwUgDw","title":"شرح البرهان في علوم القرآن - النوع ٢٧ - معرفة خواصه","publishedAt":"2020-01-28T12:03:47Z","duration":"PT26M6S","thumbnail":"https://i.ytimg.com/vi/VSdKdAwUgDw/mqdefault.jpg","viewCount":"397","playlistId":"PLEkQk5xrP-tnW3iBL7HkKziOFCFZbTlf0","playlistName":"شرح البرهان في علوم القرآن - أ.د. يسري جبر","category":"تفسير"},{"id":"eQo-rSw2zDc","title":"شرح صحيح البخاري كتاب الأحكام من باب ١٦","publishedAt":"2019-01-09T22:17:16Z","duration":"PT27M21S","thumbnail":"https://i.ytimg.com/vi/eQo-rSw2zDc/mqdefault.jpg","viewCount":"397","playlistId":"PLEkQk5xrP-tlEerGoLa1AFy-2XvQ-sovv","playlistName":"شرح صحيح البخاري - أ.د. يسري جبر (كاملا)","category":"حديث"},{"id":"Ao84imTVcP8","title":"الأسلوب الثاني: الحذف(6)\"أقسام الحذف\" شرح البرهان في علوم القرآن","publishedAt":"2021-06-18T06:29:36Z","duration":"PT23M53S","thumbnail":"https://i.ytimg.com/vi/Ao84imTVcP8/mqdefault.jpg","viewCount":"397","playlistId":"PLEkQk5xrP-tnW3iBL7HkKziOFCFZbTlf0","playlistName":"شرح البرهان في علوم القرآن - أ.د. يسري جبر","category":"تفسير"},{"id":"TF5ZRX-X33c","title":"مقرأة سورة غافر من آية ٥٦","publishedAt":"2018-11-13T06:12:53Z","duration":"PT34M14S","thumbnail":"https://i.ytimg.com/vi/TF5ZRX-X33c/mqdefault.jpg","viewCount":"397","playlistId":"PLEkQk5xrP-tnmTYsyW6xNdyfhPq0Bhrhj","playlistName":"مقرأة الفجر - القُرْآنُ الكَرِيمُ - خَتْمَةُ التَّدَبُّرِ  أ.د. يسري جبر","category":"متنوع"},{"id":"Co0fLk8cUkg","title":"سورة هود آية 6","publishedAt":"2017-06-01T21:28:07Z","duration":"PT15M28S","thumbnail":"https://i.ytimg.com/vi/Co0fLk8cUkg/mqdefault.jpg","viewCount":"396","playlistId":"PLEkQk5xrP-tnmTYsyW6xNdyfhPq0Bhrhj","playlistName":"مقرأة الفجر - القُرْآنُ الكَرِيمُ - خَتْمَةُ التَّدَبُّرِ  أ.د. يسري جبر","category":"متنوع"},{"id":"7Ud8CZZILIk","title":"الاختزال (23) حذف جواب الشرط (4) أمثلة - شرح البرهان في علوم القرآن","publishedAt":"2021-07-31T05:07:30Z","duration":"PT16M39S","thumbnail":"https://i.ytimg.com/vi/7Ud8CZZILIk/mqdefault.jpg","viewCount":"396","playlistId":"PLEkQk5xrP-tnW3iBL7HkKziOFCFZbTlf0","playlistName":"شرح البرهان في علوم القرآن - أ.د. يسري جبر","category":"تفسير"},{"id":"dynu39YdwwQ","title":"مقرأة الفجر من سورة إبراهيم آية ٢٢","publishedAt":"2017-08-01T08:05:00Z","duration":"PT28M18S","thumbnail":"https://i.ytimg.com/vi/dynu39YdwwQ/mqdefault.jpg","viewCount":"396","playlistId":"PLEkQk5xrP-tnmTYsyW6xNdyfhPq0Bhrhj","playlistName":"مقرأة الفجر - القُرْآنُ الكَرِيمُ - خَتْمَةُ التَّدَبُّرِ  أ.د. يسري جبر","category":"متنوع"},{"id":"gcbCZkn3FDE","title":"شرح سنن الدارمي كتاب الصلاة من باب ١٨٥","publishedAt":"2019-05-26T23:28:01Z","duration":"PT32M55S","thumbnail":"https://i.ytimg.com/vi/gcbCZkn3FDE/mqdefault.jpg","viewCount":"396","playlistId":"PLEkQk5xrP-tmAg-FuWjY057X_h5NmGmAa","playlistName":"شرح سنن الدارمي - أ.د. يسري جبر (كاملا)","category":"متنوع"}],"total":7670,"page":255,"pageSize":24,"totalPages":320}