{"items":[{"id":"yFH9f00bUOA","title":"مقرأة سورة الأعلی من أولها","publishedAt":"2019-07-16T06:18:01Z","duration":"PT27M21S","thumbnail":"https://i.ytimg.com/vi/yFH9f00bUOA/mqdefault.jpg","viewCount":"770","playlistId":"PLEkQk5xrP-tnmTYsyW6xNdyfhPq0Bhrhj","playlistName":"مقرأة الفجر - القُرْآنُ الكَرِيمُ - خَتْمَةُ التَّدَبُّرِ  أ.د. يسري جبر","category":"متنوع"},{"id":"oKoOS3AITK8","title":"27- شرح اللؤلؤ والمرجان كتاب الصلاة من باب ٣٤","publishedAt":"2020-01-10T07:29:34Z","duration":"PT20M10S","thumbnail":"https://i.ytimg.com/vi/oKoOS3AITK8/mqdefault.jpg","viewCount":"769","playlistId":"PLEkQk5xrP-tmKNjtYLfhATC37QdIsTMe0","playlistName":"شرح كتاب اللؤلؤ والمرجان فيما اتفق عليه الشيخان إماما المحدثين البخاري ومسلم. أ.د. يسري جبر","category":"حديث"},{"id":"P6Xmq9Og32s","title":"مقرأة سورة النازعات من أولها","publishedAt":"2019-06-14T12:31:06Z","duration":"PT9M3S","thumbnail":"https://i.ytimg.com/vi/P6Xmq9Og32s/mqdefault.jpg","viewCount":"769","playlistId":"PLEkQk5xrP-tnmTYsyW6xNdyfhPq0Bhrhj","playlistName":"مقرأة الفجر - القُرْآنُ الكَرِيمُ - خَتْمَةُ التَّدَبُّرِ  أ.د. يسري جبر","category":"متنوع"},{"id":"JnMzvfjGRCs","title":"شرح صحيح البخاري - كتاب المظالم من باب١١","publishedAt":"2017-05-24T20:28:43Z","duration":"PT39M59S","thumbnail":"https://i.ytimg.com/vi/JnMzvfjGRCs/mqdefault.jpg","viewCount":"769","playlistId":"PLEkQk5xrP-tlEerGoLa1AFy-2XvQ-sovv","playlistName":"شرح صحيح البخاري - أ.د. يسري جبر (كاملا)","category":"حديث"},{"id":"tiCqNmHci64","title":"شرح صحيح البخاري -  كتاب الحج من باب ٤٢","publishedAt":"2017-03-06T18:46:14Z","duration":"PT26M53S","thumbnail":"https://i.ytimg.com/vi/tiCqNmHci64/mqdefault.jpg","viewCount":"769","playlistId":"PLEkQk5xrP-tlEerGoLa1AFy-2XvQ-sovv","playlistName":"شرح صحيح البخاري - أ.د. يسري جبر (كاملا)","category":"حديث"},{"id":"lhL435018M8","title":"304- آداب التشميت والعطاس والتثاؤب - شرح دليل الفالحين","publishedAt":"2022-09-28T06:00:11Z","duration":"PT47M45S","thumbnail":"https://i.ytimg.com/vi/lhL435018M8/mqdefault.jpg","viewCount":"769","playlistId":"PLEkQk5xrP-tkc9DXvSLguqX5-FYp6ASR4","playlistName":"دليل الفالحين لطرق رياض الصالحين","category":"متنوع"},{"id":"Fe2k2MF8ktQ","title":"الالتفات: البحث الثالث: أسباب الالتفات - شرح البرهان في علوم القرآن","publishedAt":"2021-11-27T08:04:32Z","duration":"PT28M10S","thumbnail":"https://i.ytimg.com/vi/Fe2k2MF8ktQ/mqdefault.jpg","viewCount":"768","playlistId":"PLEkQk5xrP-tnW3iBL7HkKziOFCFZbTlf0","playlistName":"شرح البرهان في علوم القرآن - أ.د. يسري جبر","category":"تفسير"},{"id":"W3LbRY43jOg","title":"شرح صحيح البخاري - كتاب المساقاة من باب ١٠","publishedAt":"2017-05-17T19:09:21Z","duration":"PT47M4S","thumbnail":"https://i.ytimg.com/vi/W3LbRY43jOg/mqdefault.jpg","viewCount":"768","playlistId":"PLEkQk5xrP-tlEerGoLa1AFy-2XvQ-sovv","playlistName":"شرح صحيح البخاري - أ.د. يسري جبر (كاملا)","category":"حديث"},{"id":"HS3GDLTEqvo","title":"شرح صلوات سيدى أحمد الدردير رضي الله عنه - حرف الراء والزاى والسين والشين والصاد","publishedAt":"2014-02-20T13:09:36Z","duration":"PT33M39S","thumbnail":"https://i.ytimg.com/vi/HS3GDLTEqvo/mqdefault.jpg","viewCount":"767","playlistId":"PLEkQk5xrP-tlXZQuhEiJGJka1QcRw7fbW","playlistName":"شرح الصلوات الدرديرية لسيدي أحمد الدردير رضي الله عنه","category":"ردود"},{"id":"DIoSDW6qOGA","title":"201- هل للمحكم مزية على المتشابه أم لا ؟ - شرح الإتقان في علوم القرآن","publishedAt":"2024-01-31T06:30:03Z","duration":"PT15M43S","thumbnail":"https://i.ytimg.com/vi/DIoSDW6qOGA/mqdefault.jpg","viewCount":"767","playlistId":"PLEkQk5xrP-tlPw10KGJKagu7zm4Ry2Tge","playlistName":"شرح الإتقان في علوم القرآن","category":"تفسير"},{"id":"-SfhdEmr1Hw","title":"87- غريب القرآن (2) - ما جاء في سورة النساء وما بعدها - شرح الإتقان في علوم القرآن","publishedAt":"2023-05-31T05:00:00Z","duration":"PT28M29S","thumbnail":"https://i.ytimg.com/vi/-SfhdEmr1Hw/mqdefault.jpg","viewCount":"767","playlistId":"PLEkQk5xrP-tlPw10KGJKagu7zm4Ry2Tge","playlistName":"شرح الإتقان في علوم القرآن","category":"تفسير"},{"id":"yRkchM1lzHc","title":"444- تحريم احتقار المسلمين - شرح دليل الفالحين","publishedAt":"2023-05-12T08:59:00Z","duration":"PT24M34S","thumbnail":"https://i.ytimg.com/vi/yRkchM1lzHc/mqdefault.jpg","viewCount":"767","playlistId":"PLEkQk5xrP-tkc9DXvSLguqX5-FYp6ASR4","playlistName":"دليل الفالحين لطرق رياض الصالحين","category":"متنوع"},{"id":"hg6B9wZhML8","title":"خطاب العام والمراد الخصوص","publishedAt":"2020-09-22T21:09:20Z","duration":"PT25M53S","thumbnail":"https://i.ytimg.com/vi/hg6B9wZhML8/mqdefault.jpg","viewCount":"767","playlistId":"PLEkQk5xrP-tnW3iBL7HkKziOFCFZbTlf0","playlistName":"شرح البرهان في علوم القرآن - أ.د. يسري جبر","category":"تفسير"},{"id":"v4KiGr83QnE","title":"21- شرح اللؤلؤ والمرجان كتاب الحيض من باب ١٠","publishedAt":"2020-01-06T06:38:01Z","duration":"PT32M37S","thumbnail":"https://i.ytimg.com/vi/v4KiGr83QnE/mqdefault.jpg","viewCount":"766","playlistId":"PLEkQk5xrP-tmKNjtYLfhATC37QdIsTMe0","playlistName":"شرح كتاب اللؤلؤ والمرجان فيما اتفق عليه الشيخان إماما المحدثين البخاري ومسلم. أ.د. يسري جبر","category":"حديث"},{"id":"-FLkP4vXyU8","title":"529- معنى ألفاظ (شَعَرَ - عَسَى - لعل) والفرق بينهم - شرح البرهان في علوم القرآن","publishedAt":"2022-06-16T05:20:00Z","duration":"PT21M58S","thumbnail":"https://i.ytimg.com/vi/-FLkP4vXyU8/mqdefault.jpg","viewCount":"766","playlistId":"PLEkQk5xrP-tnW3iBL7HkKziOFCFZbTlf0","playlistName":"شرح البرهان في علوم القرآن - أ.د. يسري جبر","category":"تفسير"},{"id":"t1vG-qLjrTk","title":"تحويل القِبلة     د. يسري جبر","publishedAt":"2017-05-12T19:29:15Z","duration":"PT35M25S","thumbnail":"https://i.ytimg.com/vi/t1vG-qLjrTk/mqdefault.jpg","viewCount":"765","playlistId":"PLEkQk5xrP-tlArtGpeLWaqNM7h7IDeAVC","playlistName":"خطب الجمعة أ.د. يسري جبر","category":"خطب"},{"id":"JzyKvHpkw7I","title":"141- \"لا يمنعُ أحدُكم جارَه أن يغرِزَ خشبةً في جدارِه…\" - شرح دليل الفالحين","publishedAt":"2021-10-15T06:10:38Z","duration":"PT25M41S","thumbnail":"https://i.ytimg.com/vi/JzyKvHpkw7I/mqdefault.jpg","viewCount":"765","playlistId":"PLEkQk5xrP-tkc9DXvSLguqX5-FYp6ASR4","playlistName":"دليل الفالحين لطرق رياض الصالحين","category":"متنوع"},{"id":"ve3zJnOoH3g","title":"التَّوَسُّع - شرح البرهان في علوم القرآن","publishedAt":"2022-01-25T06:48:48Z","duration":"PT6M18S","thumbnail":"https://i.ytimg.com/vi/ve3zJnOoH3g/mqdefault.jpg","viewCount":"765","playlistId":"PLEkQk5xrP-tnW3iBL7HkKziOFCFZbTlf0","playlistName":"شرح البرهان في علوم القرآن - أ.د. يسري جبر","category":"تفسير"},{"id":"xMmluhaWOxQ","title":"أقسام التشبيه - شرح البرهان في علوم القرآن","publishedAt":"2022-01-29T06:54:09Z","duration":"PT21M38S","thumbnail":"https://i.ytimg.com/vi/xMmluhaWOxQ/mqdefault.jpg","viewCount":"765","playlistId":"PLEkQk5xrP-tnW3iBL7HkKziOFCFZbTlf0","playlistName":"شرح البرهان في علوم القرآن - أ.د. يسري جبر","category":"تفسير"},{"id":"kBFNftu23OA","title":"257- الوعد والوعيد - شرح الإتقان في علوم القرآن","publishedAt":"2024-10-10T06:00:22Z","duration":"PT25M51S","thumbnail":"https://i.ytimg.com/vi/kBFNftu23OA/mqdefault.jpg","viewCount":"764","playlistId":"PLEkQk5xrP-tlPw10KGJKagu7zm4Ry2Tge","playlistName":"شرح الإتقان في علوم القرآن","category":"تفسير"},{"id":"i3605Piy6y8","title":"شرح صحيح البخاري - كتاب البيوع من باب ٧٦","publishedAt":"2017-05-02T16:08:44Z","duration":"PT30M14S","thumbnail":"https://i.ytimg.com/vi/i3605Piy6y8/mqdefault.jpg","viewCount":"764","playlistId":"PLEkQk5xrP-tlEerGoLa1AFy-2XvQ-sovv","playlistName":"شرح صحيح البخاري - أ.د. يسري جبر (كاملا)","category":"حديث"},{"id":"nUiftOL3DO4","title":"47- فصلٌ في عدِّ آي القرآن الكريم - شرح الإتقان في علوم القرآن","publishedAt":"2023-04-03T05:00:27Z","duration":"PT25M49S","thumbnail":"https://i.ytimg.com/vi/nUiftOL3DO4/mqdefault.jpg","viewCount":"763","playlistId":"PLEkQk5xrP-tlPw10KGJKagu7zm4Ry2Tge","playlistName":"شرح الإتقان في علوم القرآن","category":"تفسير"},{"id":"VodckCvB-vQ","title":"مقرأة سورة الطارق من أولها","publishedAt":"2019-07-14T09:06:29Z","duration":"PT19M52S","thumbnail":"https://i.ytimg.com/vi/VodckCvB-vQ/mqdefault.jpg","viewCount":"763","playlistId":"PLEkQk5xrP-tnmTYsyW6xNdyfhPq0Bhrhj","playlistName":"مقرأة الفجر - القُرْآنُ الكَرِيمُ - خَتْمَةُ التَّدَبُّرِ  أ.د. يسري جبر","category":"متنوع"},{"id":"s4_2FraYEXQ","title":"مقرأة سورة عبس من آية ١٣","publishedAt":"2019-06-20T15:06:42Z","duration":"PT20M11S","thumbnail":"https://i.ytimg.com/vi/s4_2FraYEXQ/mqdefault.jpg","viewCount":"763","playlistId":"PLEkQk5xrP-tnmTYsyW6xNdyfhPq0Bhrhj","playlistName":"مقرأة الفجر - القُرْآنُ الكَرِيمُ - خَتْمَةُ التَّدَبُّرِ  أ.د. يسري جبر","category":"متنوع"}],"total":7670,"page":177,"pageSize":24,"totalPages":320}