{"items":[{"id":"9zrEYDUZCb8","title":"574- حروف المعاني(35): الحرف 37: سَوفَ - شرح البرهان في علوم القرآن","publishedAt":"2022-10-20T05:00:04Z","duration":"PT20M3S","thumbnail":"https://i.ytimg.com/vi/9zrEYDUZCb8/mqdefault.jpg","viewCount":"434","playlistId":"PLEkQk5xrP-tnW3iBL7HkKziOFCFZbTlf0","playlistName":"شرح البرهان في علوم القرآن - أ.د. يسري جبر","category":"تفسير"},{"id":"6QCznoYLIbE","title":"الأدوية وأثرها في الصوم | اعرف نبيك في رمضان","publishedAt":"2016-06-23T21:12:05Z","duration":"PT8M8S","thumbnail":"https://i.ytimg.com/vi/6QCznoYLIbE/mqdefault.jpg","viewCount":"433","playlistId":"PLEkQk5xrP-tmhJ_gpAAFyOpEsHp0_VAJ-","playlistName":"برنامج اعرف نبيك في رمضان","category":"متنوع"},{"id":"7myZezN3sN0","title":"سورة المائدة آية 20","publishedAt":"2016-11-01T05:38:33Z","duration":"PT16M29S","thumbnail":"https://i.ytimg.com/vi/7myZezN3sN0/mqdefault.jpg","viewCount":"433","playlistId":"PLEkQk5xrP-tnmTYsyW6xNdyfhPq0Bhrhj","playlistName":"مقرأة الفجر - القُرْآنُ الكَرِيمُ - خَتْمَةُ التَّدَبُّرِ  أ.د. يسري جبر","category":"متنوع"},{"id":"6cZT0LFpi3o","title":"مقرأة سورة المدثر من آية ٣٢","publishedAt":"2019-05-31T00:07:26Z","duration":"PT17M7S","thumbnail":"https://i.ytimg.com/vi/6cZT0LFpi3o/mqdefault.jpg","viewCount":"433","playlistId":"PLEkQk5xrP-tnmTYsyW6xNdyfhPq0Bhrhj","playlistName":"مقرأة الفجر - القُرْآنُ الكَرِيمُ - خَتْمَةُ التَّدَبُّرِ  أ.د. يسري جبر","category":"متنوع"},{"id":"5hoZp86N-0g","title":"شرح البرهان في علوم القرآن - النوع ٢١ - معرفة كون اللفظ والتركيب أحسن وأفصح ٢","publishedAt":"2019-12-17T19:02:36Z","duration":"PT17M28S","thumbnail":"https://i.ytimg.com/vi/5hoZp86N-0g/mqdefault.jpg","viewCount":"433","playlistId":"PLEkQk5xrP-tnW3iBL7HkKziOFCFZbTlf0","playlistName":"شرح البرهان في علوم القرآن - أ.د. يسري جبر","category":"تفسير"},{"id":"qEbf535WF9Y","title":"تعليقات حول مناسك الحج","publishedAt":"2019-11-05T14:10:50Z","duration":"PT45M28S","thumbnail":"https://i.ytimg.com/vi/qEbf535WF9Y/mqdefault.jpg","viewCount":"433","playlistId":"PLEkQk5xrP-tlArtGpeLWaqNM7h7IDeAVC","playlistName":"خطب الجمعة أ.د. يسري جبر","category":"خطب"},{"id":"sKUcBXudafk","title":"مقرأة سورة آل عمران من آية ١٥٥","publishedAt":"2019-09-28T22:34:36Z","duration":"PT13M7S","thumbnail":"https://i.ytimg.com/vi/sKUcBXudafk/mqdefault.jpg","viewCount":"433","playlistId":"PLEkQk5xrP-tnmTYsyW6xNdyfhPq0Bhrhj","playlistName":"مقرأة الفجر - القُرْآنُ الكَرِيمُ - خَتْمَةُ التَّدَبُّرِ  أ.د. يسري جبر","category":"متنوع"},{"id":"VtSvDVudqRA","title":"الأسلوب العاشر: الترديد - شرح البرهان في علوم القرآن","publishedAt":"2021-10-30T09:34:26Z","duration":"PT21M8S","thumbnail":"https://i.ytimg.com/vi/VtSvDVudqRA/mqdefault.jpg","viewCount":"432","playlistId":"PLEkQk5xrP-tnW3iBL7HkKziOFCFZbTlf0","playlistName":"شرح البرهان في علوم القرآن - أ.د. يسري جبر","category":"تفسير"},{"id":"yu9MkjpP78M","title":"481- كراهة الخروج من بلد وقع فيها الوباء فِرارا منه وكراهة القدوم عليه - شرح دليل الفالحين","publishedAt":"2023-06-20T08:59:00Z","duration":"PT26M39S","thumbnail":"https://i.ytimg.com/vi/yu9MkjpP78M/mqdefault.jpg","viewCount":"432","playlistId":"PLEkQk5xrP-tkc9DXvSLguqX5-FYp6ASR4","playlistName":"دليل الفالحين لطرق رياض الصالحين","category":"متنوع"},{"id":"U6kKEOg_Wps","title":"شرح صحيح البخاري كتاب الديات من باب ١٨","publishedAt":"2018-12-06T15:43:34Z","duration":"PT39M59S","thumbnail":"https://i.ytimg.com/vi/U6kKEOg_Wps/mqdefault.jpg","viewCount":"432","playlistId":"PLEkQk5xrP-tlEerGoLa1AFy-2XvQ-sovv","playlistName":"شرح صحيح البخاري - أ.د. يسري جبر (كاملا)","category":"حديث"},{"id":"SreOtn6A09U","title":"شرح البرهان في علوم القرآن - النوع ٣٨ - فصل في اشتمال القرآن على أعلى أنواع الإعجاز","publishedAt":"2020-03-28T07:00:07Z","duration":"PT20M25S","thumbnail":"https://i.ytimg.com/vi/SreOtn6A09U/mqdefault.jpg","viewCount":"431","playlistId":"PLEkQk5xrP-tnW3iBL7HkKziOFCFZbTlf0","playlistName":"شرح البرهان في علوم القرآن - أ.د. يسري جبر","category":"تفسير"},{"id":"Sk_vHtCoHz4","title":"مقرأة سورة المعارج من آية ١٥","publishedAt":"2019-05-15T10:29:06Z","duration":"PT24M53S","thumbnail":"https://i.ytimg.com/vi/Sk_vHtCoHz4/mqdefault.jpg","viewCount":"431","playlistId":"PLEkQk5xrP-tnmTYsyW6xNdyfhPq0Bhrhj","playlistName":"مقرأة الفجر - القُرْآنُ الكَرِيمُ - خَتْمَةُ التَّدَبُّرِ  أ.د. يسري جبر","category":"متنوع"},{"id":"2EP5dtEfF0o","title":"شرح صحيح البخاري كتاب المحاربين من أهل الكفر والردة من أوله","publishedAt":"2018-11-29T12:26:41Z","duration":"PT34M56S","thumbnail":"https://i.ytimg.com/vi/2EP5dtEfF0o/mqdefault.jpg","viewCount":"431","playlistId":"PLEkQk5xrP-tlEerGoLa1AFy-2XvQ-sovv","playlistName":"شرح صحيح البخاري - أ.د. يسري جبر (كاملا)","category":"حديث"},{"id":"MKO4R6J9Gb0","title":"سورة الأنفال آية 15","publishedAt":"2017-03-18T09:17:24Z","duration":"PT22M36S","thumbnail":"https://i.ytimg.com/vi/MKO4R6J9Gb0/mqdefault.jpg","viewCount":"431","playlistId":"PLEkQk5xrP-tnmTYsyW6xNdyfhPq0Bhrhj","playlistName":"مقرأة الفجر - القُرْآنُ الكَرِيمُ - خَتْمَةُ التَّدَبُّرِ  أ.د. يسري جبر","category":"متنوع"},{"id":"evgwU8TZgMc","title":"‎شرح صحيح الإمام البخاري رضي الله تعالى عنه - كتابُ الاعتصَامِ بالكِتابِ والسُّنَّةِ. أ.د. يسري جبر","publishedAt":"2019-12-26T08:29:54Z","duration":"PT30M54S","thumbnail":"https://i.ytimg.com/vi/evgwU8TZgMc/mqdefault.jpg","viewCount":"431","playlistId":"PLEkQk5xrP-tmJuzaj4GWRenFoFx9gdbFX","playlistName":"شرح كتاب صحيح الإمام البخاري رضي الله تعالى عنه   أ.د. يسرى جبر","category":"حديث"},{"id":"hE3jTAu3TXw","title":"سورة الأعراف آية 50","publishedAt":"2017-02-11T07:35:52Z","duration":"PT14M1S","thumbnail":"https://i.ytimg.com/vi/hE3jTAu3TXw/mqdefault.jpg","viewCount":"431","playlistId":"PLEkQk5xrP-tnmTYsyW6xNdyfhPq0Bhrhj","playlistName":"مقرأة الفجر - القُرْآنُ الكَرِيمُ - خَتْمَةُ التَّدَبُّرِ  أ.د. يسري جبر","category":"متنوع"},{"id":"LcQBOvB3qBU","title":"مقرأة سورة لقمان من آية ١٣","publishedAt":"2018-07-02T19:19:19Z","duration":"PT13M55S","thumbnail":"https://i.ytimg.com/vi/LcQBOvB3qBU/mqdefault.jpg","viewCount":"430","playlistId":"PLEkQk5xrP-tnmTYsyW6xNdyfhPq0Bhrhj","playlistName":"مقرأة الفجر - القُرْآنُ الكَرِيمُ - خَتْمَةُ التَّدَبُّرِ  أ.د. يسري جبر","category":"متنوع"},{"id":"WYN-sC6YY08","title":"شرح صحيح البخاري - كتاب بدء الخلق من باب ١١","publishedAt":"2017-09-17T21:54:15Z","duration":"PT37M7S","thumbnail":"https://i.ytimg.com/vi/WYN-sC6YY08/mqdefault.jpg","viewCount":"430","playlistId":"PLEkQk5xrP-tlEerGoLa1AFy-2XvQ-sovv","playlistName":"شرح صحيح البخاري - أ.د. يسري جبر (كاملا)","category":"حديث"},{"id":"7ZqfJ7651_E","title":"مقرأة سورة يونس من آية ٩٠","publishedAt":"2017-05-24T12:05:57Z","duration":"PT22M47S","thumbnail":"https://i.ytimg.com/vi/7ZqfJ7651_E/mqdefault.jpg","viewCount":"430","playlistId":"PLEkQk5xrP-tnmTYsyW6xNdyfhPq0Bhrhj","playlistName":"مقرأة الفجر - القُرْآنُ الكَرِيمُ - خَتْمَةُ التَّدَبُّرِ  أ.د. يسري جبر","category":"متنوع"},{"id":"IuXnwF1lISg","title":"485- حكم انتساب الإنسان إلى غير أبيه وتولِّيه إلى غير مواليه - شرح دليل الفالحين","publishedAt":"2023-06-24T18:00:07Z","duration":"PT38M2S","thumbnail":"https://i.ytimg.com/vi/IuXnwF1lISg/mqdefault.jpg","viewCount":"430","playlistId":"PLEkQk5xrP-tkc9DXvSLguqX5-FYp6ASR4","playlistName":"دليل الفالحين لطرق رياض الصالحين","category":"متنوع"},{"id":"VIFkTb7Ootc","title":"مقرأة سورة الحشر من آية ١٨","publishedAt":"2019-04-03T07:05:39Z","duration":"PT25M21S","thumbnail":"https://i.ytimg.com/vi/VIFkTb7Ootc/mqdefault.jpg","viewCount":"430","playlistId":"PLEkQk5xrP-tnmTYsyW6xNdyfhPq0Bhrhj","playlistName":"مقرأة الفجر - القُرْآنُ الكَرِيمُ - خَتْمَةُ التَّدَبُّرِ  أ.د. يسري جبر","category":"متنوع"},{"id":"OfXxB5rfRvE","title":"شرح سنن الدارمي - المقدمة - ٥٤","publishedAt":"2019-04-01T22:13:16Z","duration":"PT36M46S","thumbnail":"https://i.ytimg.com/vi/OfXxB5rfRvE/mqdefault.jpg","viewCount":"430","playlistId":"PLEkQk5xrP-tmAg-FuWjY057X_h5NmGmAa","playlistName":"شرح سنن الدارمي - أ.د. يسري جبر (كاملا)","category":"متنوع"},{"id":"kVr8LkgpGW8","title":"شرح صحيح البخاري كتاب الذبائح والصيد من باب ٥","publishedAt":"2018-07-16T23:46:17Z","duration":"PT35M11S","thumbnail":"https://i.ytimg.com/vi/kVr8LkgpGW8/mqdefault.jpg","viewCount":"429","playlistId":"PLEkQk5xrP-tlEerGoLa1AFy-2XvQ-sovv","playlistName":"شرح صحيح البخاري - أ.د. يسري جبر (كاملا)","category":"حديث"},{"id":"ugtvb3hQPgU","title":"شرح البرهان في علوم القرآن - النوع ٤٠ - في بيان معاضدة السنة للقرآن ٣","publishedAt":"2020-04-02T11:00:22Z","duration":"PT23M22S","thumbnail":"https://i.ytimg.com/vi/ugtvb3hQPgU/mqdefault.jpg","viewCount":"429","playlistId":"PLEkQk5xrP-tnW3iBL7HkKziOFCFZbTlf0","playlistName":"شرح البرهان في علوم القرآن - أ.د. يسري جبر","category":"تفسير"}],"total":7670,"page":245,"pageSize":24,"totalPages":320}