{"items":[{"id":"UaK-Rc1Q-oQ","title":"العطاءُ من الخَلْق حِرْمَان ، والمَنْعُ من اللهِ عَزَّ وجَلَّ إحْسانٌ","publishedAt":"2016-11-05T19:02:55Z","duration":"PT3M33S","thumbnail":"https://i.ytimg.com/vi/UaK-Rc1Q-oQ/mqdefault.jpg","viewCount":"2211","playlistId":"PLEkQk5xrP-tkI_meE148wc7V7XHlB0WPb","playlistName":"من الحكم العطائية  د. يسري جبر","category":"متنوع"},{"id":"mFu029ijKgI","title":"لماذا نلبس الحذاء من اليمين الى اليسار ؟ | اعرف نبيك","publishedAt":"2015-10-14T17:24:33Z","duration":"PT7M52S","thumbnail":"https://i.ytimg.com/vi/mFu029ijKgI/mqdefault.jpg","viewCount":"2211","playlistId":"PLEkQk5xrP-tl6Mu_Mz3QMUSv5T6XBH-Dg","playlistName":"برنامج اعرف نبيك","category":"متنوع"},{"id":"NmLTGT9LYtY","title":"شرح البرهان في علوم القرآن - النوع ٣ - معرفة الفواصل ورؤوس الآي","publishedAt":"2019-08-29T15:09:22Z","duration":"PT34M39S","thumbnail":"https://i.ytimg.com/vi/NmLTGT9LYtY/mqdefault.jpg","viewCount":"2210","playlistId":"PLEkQk5xrP-tnW3iBL7HkKziOFCFZbTlf0","playlistName":"شرح البرهان في علوم القرآن - أ.د. يسري جبر","category":"تفسير"},{"id":"jcXX_G1DJ5A","title":"شرح كتاب فتح القريب المجيب «فصل فى التيمم» د. يسري جبر","publishedAt":"2015-01-09T14:43:02Z","duration":"PT1H24M3S","thumbnail":"https://i.ytimg.com/vi/jcXX_G1DJ5A/mqdefault.jpg","viewCount":"2207","playlistId":"PLEkQk5xrP-tlyOgfNBZTZgoATzVW4mI20","playlistName":"كتاب فتح القريب المجيب (علم الفقه الشافعي)","category":"فقه"},{"id":"xOrCCgFoPXY","title":"29- العطاء من الخلق حرمان والمنع من اللّه إحسان | شرح الحكم العطائية","publishedAt":"2025-11-21T20:15:07Z","duration":"PT43M8S","thumbnail":"https://i.ytimg.com/vi/xOrCCgFoPXY/mqdefault.jpg","viewCount":"2205","playlistId":"PLEkQk5xrP-tmf5ToOwmW-q0JwxkapbrMN","playlistName":"شرح كتاب إرشاد البرية إلى بعض معاني الحكم العطائية","category":"متنوع"},{"id":"dm0KKYwll34","title":"تعظيم ما عظم الله","publishedAt":"2020-09-05T18:14:11Z","duration":"PT4M12S","thumbnail":"https://i.ytimg.com/vi/dm0KKYwll34/mqdefault.jpg","viewCount":"2203","playlistId":"PLEkQk5xrP-tm8ZIu74nTOZN9KJUJu416J","playlistName":"مقاطع مُهمَّة (يُسريَّات) أ.د. يسري جبر","category":"متنوع"},{"id":"_RKFjfZ8XsI","title":"405- فضل التسبيح والتحميد والتكبير بعد صلاة الفريضة - شرح دليل الفالحين","publishedAt":"2023-02-27T05:00:30Z","duration":"PT46M2S","thumbnail":"https://i.ytimg.com/vi/_RKFjfZ8XsI/mqdefault.jpg","viewCount":"2199","playlistId":"PLEkQk5xrP-tkc9DXvSLguqX5-FYp6ASR4","playlistName":"دليل الفالحين لطرق رياض الصالحين","category":"متنوع"},{"id":"Q8-ZA8otpfU","title":"20- معنى (صلاةً) كاملةً (تليقُ بك) من حيث أُلُوهِيَّتُكَ، صادرةً (منك) من حيث رُبُوبِيَّتُك","publishedAt":"2022-08-24T20:55:01Z","duration":"PT12M17S","thumbnail":"https://i.ytimg.com/vi/Q8-ZA8otpfU/mqdefault.jpg","viewCount":"2199","playlistId":"PLEkQk5xrP-tkFEtMu56Xb9U9FCZBTXiLf","playlistName":"شرح صلوات الأولياء على خاتم الأنبياء ﷺ","category":"صلوات"},{"id":"nmH0qqVyaq0","title":"لِنُرِيَهُ مِنْ آيَاتِنَا  أ.د/ يسري جبر","publishedAt":"2020-03-12T18:03:16Z","duration":"PT41M48S","thumbnail":"https://i.ytimg.com/vi/nmH0qqVyaq0/mqdefault.jpg","viewCount":"2199","playlistId":"PLEkQk5xrP-tm8ZIu74nTOZN9KJUJu416J","playlistName":"مقاطع مُهمَّة (يُسريَّات) أ.د. يسري جبر","category":"متنوع"},{"id":"FtAsTAu8iKU","title":"126- \"…لمْ يتكلّمْ في المهْد إلَّا ثلاثةٌ عِيسى ابنُ مَرْيمَ، وصاحِبُ جُرَيْجٍ…\" - شرح دليل الفاتحين","publishedAt":"2021-09-13T06:07:13Z","duration":"PT48M1S","thumbnail":"https://i.ytimg.com/vi/FtAsTAu8iKU/mqdefault.jpg","viewCount":"2197","playlistId":"PLEkQk5xrP-tkc9DXvSLguqX5-FYp6ASR4","playlistName":"دليل الفالحين لطرق رياض الصالحين","category":"متنوع"},{"id":"i217ZzHIKkQ","title":"شرح صحيح البخاري ( كتاب العلم مجلس ٩ )","publishedAt":"2016-08-24T13:10:36Z","duration":"PT47M35S","thumbnail":"https://i.ytimg.com/vi/i217ZzHIKkQ/mqdefault.jpg","viewCount":"2196","playlistId":"PLEkQk5xrP-tlEerGoLa1AFy-2XvQ-sovv","playlistName":"شرح صحيح البخاري - أ.د. يسري جبر (كاملا)","category":"حديث"},{"id":"zovYOmtBXfQ","title":"الفِرار منه وإليه","publishedAt":"2020-07-18T20:19:44Z","duration":"PT2M26S","thumbnail":"https://i.ytimg.com/vi/zovYOmtBXfQ/mqdefault.jpg","viewCount":"2194","playlistId":"PLEkQk5xrP-tm8ZIu74nTOZN9KJUJu416J","playlistName":"مقاطع مُهمَّة (يُسريَّات) أ.د. يسري جبر","category":"متنوع"},{"id":"bGYPZ0-XSBU","title":"247- حكم لعق الأصابع بعد الطعام - شرح دليل الفالحين","publishedAt":"2022-05-16T05:00:12Z","duration":"PT29M41S","thumbnail":"https://i.ytimg.com/vi/bGYPZ0-XSBU/mqdefault.jpg","viewCount":"2185","playlistId":"PLEkQk5xrP-tkc9DXvSLguqX5-FYp6ASR4","playlistName":"دليل الفالحين لطرق رياض الصالحين","category":"متنوع"},{"id":"OlVyZD6J2mQ","title":"الفرق والجمع","publishedAt":"2020-09-27T20:17:16Z","duration":"PT6M56S","thumbnail":"https://i.ytimg.com/vi/OlVyZD6J2mQ/mqdefault.jpg","viewCount":"2181","playlistId":"PLEkQk5xrP-tm8ZIu74nTOZN9KJUJu416J","playlistName":"مقاطع مُهمَّة (يُسريَّات) أ.د. يسري جبر","category":"متنوع"},{"id":"NqoFlBeNP2A","title":"مظهر الرحمة في الوالدين  د.يسري جبر","publishedAt":"2017-01-02T14:09:52Z","duration":"PT47M15S","thumbnail":"https://i.ytimg.com/vi/NqoFlBeNP2A/mqdefault.jpg","viewCount":"2179","playlistId":"PLEkQk5xrP-tlArtGpeLWaqNM7h7IDeAVC","playlistName":"خطب الجمعة أ.د. يسري جبر","category":"خطب"},{"id":"irfZ3YSLfuI","title":"شرح كتاب فتح القريب المجيب «الأوقات التى تكره الصلاة فيها» د. يسري رشدي جبر","publishedAt":"2015-05-25T14:44:29Z","duration":"PT1H31M45S","thumbnail":"https://i.ytimg.com/vi/irfZ3YSLfuI/mqdefault.jpg","viewCount":"2178","playlistId":"PLEkQk5xrP-tlyOgfNBZTZgoATzVW4mI20","playlistName":"كتاب فتح القريب المجيب (علم الفقه الشافعي)","category":"فقه"},{"id":"ww7XLDdCFWs","title":"شرح كتاب منازل السائرين للإمام الهروى - المجلس الحادي والعشرون - باب الثقة","publishedAt":"2014-09-15T09:18:58Z","duration":"PT57M34S","thumbnail":"https://i.ytimg.com/vi/ww7XLDdCFWs/mqdefault.jpg","viewCount":"2178","playlistId":"PLEkQk5xrP-tnLYi_5_tSRVBwqcs7ISV7Y","playlistName":"شرح كتاب منازل السائرين للإمام الهروي","category":"متنوع"},{"id":"cDOuhrsISXA","title":"وَصِيَّةُ النَّبيّ ﷺ للأُمَّة | أ.د. يسري جبر","publishedAt":"2022-04-08T15:30:06Z","duration":"PT17M46S","thumbnail":"https://i.ytimg.com/vi/cDOuhrsISXA/mqdefault.jpg","viewCount":"2176","playlistId":"PLEkQk5xrP-tnl7vb7KeAoPd5ZlqKKW8KV","playlistName":"شرح كتاب بهجة النفوس أ.د . يسرى جبر","category":"متنوع"},{"id":"9HqBYqbspFA","title":"ماذا سيحدث للكفار يوم القيامة؟ | مجالس رمضانية","publishedAt":"2023-04-18T10:00:09Z","duration":"PT38M52S","thumbnail":"https://i.ytimg.com/vi/9HqBYqbspFA/mqdefault.jpg","viewCount":"2175","playlistId":"PLEkQk5xrP-tnl7vb7KeAoPd5ZlqKKW8KV","playlistName":"شرح كتاب بهجة النفوس أ.د . يسرى جبر","category":"متنوع"},{"id":"_ebHa-7ToPw","title":"الحب والتراحم والسخاء   أ.د. يسري جبر","publishedAt":"2019-09-21T18:07:11Z","duration":"PT28M44S","thumbnail":"https://i.ytimg.com/vi/_ebHa-7ToPw/mqdefault.jpg","viewCount":"2173","playlistId":"PLEkQk5xrP-tmJzNvLntpzW0uPanPzxA0c","playlistName":"لقاءات ومحاضرات","category":"متنوع"},{"id":"Q1N9zZNi06I","title":"35- أهميّة فهم القرآن فهمًا صحيحًا - شرح مسند الإمام أحمد","publishedAt":"2023-11-01T06:39:54Z","duration":"PT42M1S","thumbnail":"https://i.ytimg.com/vi/Q1N9zZNi06I/mqdefault.jpg","viewCount":"2172","playlistId":"PLEkQk5xrP-tkKprIuGrSdEuBSMsyg5We1","playlistName":"شرح مسند الإمام أحمد بن حنبل","category":"متنوع"},{"id":"YVNjutTRy70","title":"تفسير رؤيا عرض الناس على النبي ﷺ | مجالس رمضانية","publishedAt":"2024-03-12T14:00:21Z","duration":"PT30M45S","thumbnail":"https://i.ytimg.com/vi/YVNjutTRy70/mqdefault.jpg","viewCount":"2171","playlistId":"PLEkQk5xrP-tnl7vb7KeAoPd5ZlqKKW8KV","playlistName":"شرح كتاب بهجة النفوس أ.د . يسرى جبر","category":"متنوع"},{"id":"fZls46rmda4","title":"الفوائد اليسرية فى الهجرة النبوية","publishedAt":"2021-08-17T19:28:53Z","duration":"PT45M28S","thumbnail":"https://i.ytimg.com/vi/fZls46rmda4/mqdefault.jpg","viewCount":"2170","playlistId":"PLEkQk5xrP-tlArtGpeLWaqNM7h7IDeAVC","playlistName":"خطب الجمعة أ.د. يسري جبر","category":"خطب"},{"id":"-lE44kMckB8","title":"شرح صحيح البخاري -  كتاب البيوع من أوله","publishedAt":"2017-04-20T10:53:38Z","duration":"PT52M38S","thumbnail":"https://i.ytimg.com/vi/-lE44kMckB8/mqdefault.jpg","viewCount":"2170","playlistId":"PLEkQk5xrP-tlEerGoLa1AFy-2XvQ-sovv","playlistName":"شرح صحيح البخاري - أ.د. يسري جبر (كاملا)","category":"حديث"}],"total":7670,"page":102,"pageSize":24,"totalPages":320}