{"items":[{"id":"PfbFCdnlFeI","title":"حديث (١٧٨) حديثُ فَضَائِلِ رَمَضَانَ.    أ.د. يسري جبر","publishedAt":"2019-06-01T11:20:17Z","duration":"PT14M15S","thumbnail":"https://i.ytimg.com/vi/PfbFCdnlFeI/mqdefault.jpg","viewCount":"322","playlistId":"PLEkQk5xrP-tnl7vb7KeAoPd5ZlqKKW8KV","playlistName":"شرح كتاب بهجة النفوس أ.د . يسرى جبر","category":"متنوع"},{"id":"nLnWgQ_PlKE","title":"مقرأة سورة الزخرف من آية ٥٦","publishedAt":"2018-12-18T12:09:07Z","duration":"PT17M18S","thumbnail":"https://i.ytimg.com/vi/nLnWgQ_PlKE/mqdefault.jpg","viewCount":"322","playlistId":"PLEkQk5xrP-tnmTYsyW6xNdyfhPq0Bhrhj","playlistName":"مقرأة الفجر - القُرْآنُ الكَرِيمُ - خَتْمَةُ التَّدَبُّرِ  أ.د. يسري جبر","category":"متنوع"},{"id":"zPKnLh6ch78","title":"مقرأة سورة النمل من آية ١٥","publishedAt":"2018-04-27T07:48:13Z","duration":"PT23M6S","thumbnail":"https://i.ytimg.com/vi/zPKnLh6ch78/mqdefault.jpg","viewCount":"322","playlistId":"PLEkQk5xrP-tnmTYsyW6xNdyfhPq0Bhrhj","playlistName":"مقرأة الفجر - القُرْآنُ الكَرِيمُ - خَتْمَةُ التَّدَبُّرِ  أ.د. يسري جبر","category":"متنوع"},{"id":"rfmjpK64kJ0","title":"مقرأة سورة الفرقان من أولها","publishedAt":"2018-03-26T04:35:54Z","duration":"PT12M33S","thumbnail":"https://i.ytimg.com/vi/rfmjpK64kJ0/mqdefault.jpg","viewCount":"322","playlistId":"PLEkQk5xrP-tnmTYsyW6xNdyfhPq0Bhrhj","playlistName":"مقرأة الفجر - القُرْآنُ الكَرِيمُ - خَتْمَةُ التَّدَبُّرِ  أ.د. يسري جبر","category":"متنوع"},{"id":"WjN2AdiPOGM","title":"مقرأة سورة المؤمنون آية ٦٣","publishedAt":"2018-02-28T20:22:31Z","duration":"PT13M2S","thumbnail":"https://i.ytimg.com/vi/WjN2AdiPOGM/mqdefault.jpg","viewCount":"322","playlistId":"PLEkQk5xrP-tnmTYsyW6xNdyfhPq0Bhrhj","playlistName":"مقرأة الفجر - القُرْآنُ الكَرِيمُ - خَتْمَةُ التَّدَبُّرِ  أ.د. يسري جبر","category":"متنوع"},{"id":"D-4kllhcB-g","title":"مقرأة سورة الأنبياء من آية ٧٤","publishedAt":"2017-12-20T09:35:36Z","duration":"PT26M45S","thumbnail":"https://i.ytimg.com/vi/D-4kllhcB-g/mqdefault.jpg","viewCount":"322","playlistId":"PLEkQk5xrP-tnmTYsyW6xNdyfhPq0Bhrhj","playlistName":"مقرأة الفجر - القُرْآنُ الكَرِيمُ - خَتْمَةُ التَّدَبُّرِ  أ.د. يسري جبر","category":"متنوع"},{"id":"wrvGOGE6RUs","title":"مقرأة سورة يونس من آية ١٧","publishedAt":"2017-05-10T11:02:34Z","duration":"PT10M57S","thumbnail":"https://i.ytimg.com/vi/wrvGOGE6RUs/mqdefault.jpg","viewCount":"322","playlistId":"PLEkQk5xrP-tnmTYsyW6xNdyfhPq0Bhrhj","playlistName":"مقرأة الفجر - القُرْآنُ الكَرِيمُ - خَتْمَةُ التَّدَبُّرِ  أ.د. يسري جبر","category":"متنوع"},{"id":"Ya2cgmrzZBQ","title":"سورة المائدة آية 97","publishedAt":"2016-11-23T06:58:58Z","duration":"PT7M59S","thumbnail":"https://i.ytimg.com/vi/Ya2cgmrzZBQ/mqdefault.jpg","viewCount":"322","playlistId":"PLEkQk5xrP-tnmTYsyW6xNdyfhPq0Bhrhj","playlistName":"مقرأة الفجر - القُرْآنُ الكَرِيمُ - خَتْمَةُ التَّدَبُّرِ  أ.د. يسري جبر","category":"متنوع"},{"id":"qSSJyr5f43Y","title":"316- خواص القرآن (2) - شرح الإتقان في علوم القرآن","publishedAt":"2025-11-22T10:01:26Z","duration":"PT23M55S","thumbnail":"https://i.ytimg.com/vi/qSSJyr5f43Y/mqdefault.jpg","viewCount":"321","playlistId":"PLEkQk5xrP-tlPw10KGJKagu7zm4Ry2Tge","playlistName":"شرح الإتقان في علوم القرآن","category":"تفسير"},{"id":"aQRMw5s094Q","title":"569- حروف المعاني(30): الحرف(28) (ثَمَّ) - شرح البرهان في علوم القرآن","publishedAt":"2022-10-14T05:00:01Z","duration":"PT6M18S","thumbnail":"https://i.ytimg.com/vi/aQRMw5s094Q/mqdefault.jpg","viewCount":"321","playlistId":"PLEkQk5xrP-tnW3iBL7HkKziOFCFZbTlf0","playlistName":"شرح البرهان في علوم القرآن - أ.د. يسري جبر","category":"تفسير"},{"id":"YDQ9uQxbTUg","title":"القِسمُ (26) من التوكيد: الزيادة (5) حروف الزيادة - شرح البرهان في علوم القرآن","publishedAt":"2021-05-27T05:00:52Z","duration":"PT11M38S","thumbnail":"https://i.ytimg.com/vi/YDQ9uQxbTUg/mqdefault.jpg","viewCount":"321","playlistId":"PLEkQk5xrP-tnW3iBL7HkKziOFCFZbTlf0","playlistName":"شرح البرهان في علوم القرآن - أ.د. يسري جبر","category":"تفسير"},{"id":"KwLA3aDqJX4","title":"شرح البرهان في علوم القرآن - النوع ٣٨ - بيان الأقوال المختلفة في وجوه الإعجاز ٤","publishedAt":"2020-03-20T06:30:01Z","duration":"PT20M31S","thumbnail":"https://i.ytimg.com/vi/KwLA3aDqJX4/mqdefault.jpg","viewCount":"321","playlistId":"PLEkQk5xrP-tnW3iBL7HkKziOFCFZbTlf0","playlistName":"شرح البرهان في علوم القرآن - أ.د. يسري جبر","category":"تفسير"},{"id":"qHMVtRnKG5g","title":"شرح البرهان في علوم القرآن - النوع ٢٩ - في آداب تلاوته وكيفيتها ٢","publishedAt":"2020-02-04T19:44:25Z","duration":"PT15M22S","thumbnail":"https://i.ytimg.com/vi/qHMVtRnKG5g/mqdefault.jpg","viewCount":"321","playlistId":"PLEkQk5xrP-tnW3iBL7HkKziOFCFZbTlf0","playlistName":"شرح البرهان في علوم القرآن - أ.د. يسري جبر","category":"تفسير"},{"id":"pL9cFTSRKPQ","title":"( 119 ) حديث الإفك وبراءة السيدة عائشة أم المؤمنين منه - المجلس الرابع عشر د. يسري جبر","publishedAt":"2017-05-28T14:15:59Z","duration":"PT39M23S","thumbnail":"https://i.ytimg.com/vi/pL9cFTSRKPQ/mqdefault.jpg","viewCount":"321","playlistId":"PLEkQk5xrP-tnl7vb7KeAoPd5ZlqKKW8KV","playlistName":"شرح كتاب بهجة النفوس أ.د . يسرى جبر","category":"متنوع"},{"id":"-_y0GstqaL8","title":"35- مَا لاَ زَكَاةَ فِيهِ مِنَ الْفَوَاكِهِ وَالْقَضْبِ وَالْبُقُولِ كتاب الزكاة ك الموطأ د يسري جبر","publishedAt":"2016-12-02T12:15:06Z","duration":"PT1H6M55S","thumbnail":"https://i.ytimg.com/vi/-_y0GstqaL8/mqdefault.jpg","viewCount":"321","playlistId":"PLEkQk5xrP-tnC6BRuqMjyO-484iqXeg0o","playlistName":"شرح كتاب الموطأ للإمام مالك","category":"متنوع"},{"id":"bnX9WLFsnIg","title":"مقدمة سورة الجن","publishedAt":"2016-02-27T06:52:52Z","duration":"PT22M50S","thumbnail":"https://i.ytimg.com/vi/bnX9WLFsnIg/mqdefault.jpg","viewCount":"321","playlistId":"PLEkQk5xrP-tnUSUj0uyJhA-kwNC7Gkx_j","playlistName":"مقرأة الفجر - بداية من سورة الإسراء حتى سورة الناس","category":"تفسير"},{"id":"Ht0cXh1C9fs","title":"فَرْقٌ كَبِيرٌ أَن تَظُنَّ أَنَّكَ مُقِيمٌ وَأَنتَ مُسَافِر د. يسري جبر","publishedAt":"2015-07-25T12:10:23Z","duration":"PT41M27S","thumbnail":"https://i.ytimg.com/vi/Ht0cXh1C9fs/mqdefault.jpg","viewCount":"321","playlistId":"PLEkQk5xrP-tlArtGpeLWaqNM7h7IDeAVC","playlistName":"خطب الجمعة أ.د. يسري جبر","category":"خطب"},{"id":"3LfClT1oCXA","title":"609- (لو) الامتناعية(2) - شرح البرهان في علوم القرآن","publishedAt":"2022-12-02T05:00:01Z","duration":"PT16M27S","thumbnail":"https://i.ytimg.com/vi/3LfClT1oCXA/mqdefault.jpg","viewCount":"320","playlistId":"PLEkQk5xrP-tnW3iBL7HkKziOFCFZbTlf0","playlistName":"شرح البرهان في علوم القرآن - أ.د. يسري جبر","category":"تفسير"},{"id":"F8T27X9Y558","title":"575- حروف المعاني(36): الحرف 38: على - شرح البرهان في علوم القرآن","publishedAt":"2022-10-21T05:00:11Z","duration":"PT15M14S","thumbnail":"https://i.ytimg.com/vi/F8T27X9Y558/mqdefault.jpg","viewCount":"320","playlistId":"PLEkQk5xrP-tnW3iBL7HkKziOFCFZbTlf0","playlistName":"شرح البرهان في علوم القرآن - أ.د. يسري جبر","category":"تفسير"},{"id":"avMg-AnSuKs","title":"القِسمُ (27) من التوكيد: الاشتغال - شرح البرهان في علوم القرآن","publishedAt":"2021-05-30T05:36:02Z","duration":"PT12M8S","thumbnail":"https://i.ytimg.com/vi/avMg-AnSuKs/mqdefault.jpg","viewCount":"320","playlistId":"PLEkQk5xrP-tnW3iBL7HkKziOFCFZbTlf0","playlistName":"شرح البرهان في علوم القرآن - أ.د. يسري جبر","category":"تفسير"},{"id":"5fGwp3iUsyc","title":"مقرأة سورة السجدة من آية ٦","publishedAt":"2018-07-11T10:59:42Z","duration":"PT7M33S","thumbnail":"https://i.ytimg.com/vi/5fGwp3iUsyc/mqdefault.jpg","viewCount":"320","playlistId":"PLEkQk5xrP-tnmTYsyW6xNdyfhPq0Bhrhj","playlistName":"مقرأة الفجر - القُرْآنُ الكَرِيمُ - خَتْمَةُ التَّدَبُّرِ  أ.د. يسري جبر","category":"متنوع"},{"id":"yn5_0MR1pTw","title":"مقرأة سورة الإسراء من آية ٤١","publishedAt":"2017-09-25T13:12:42Z","duration":"PT12M58S","thumbnail":"https://i.ytimg.com/vi/yn5_0MR1pTw/mqdefault.jpg","viewCount":"320","playlistId":"PLEkQk5xrP-tnmTYsyW6xNdyfhPq0Bhrhj","playlistName":"مقرأة الفجر - القُرْآنُ الكَرِيمُ - خَتْمَةُ التَّدَبُّرِ  أ.د. يسري جبر","category":"متنوع"},{"id":"taqLKvkZ_Cg","title":"شرح كتاب الأذكار من كلام سيد الأبرار للإمام النووى رضى الله عنه - المجلس السادس والأربعون","publishedAt":"2016-12-16T04:43:34Z","duration":"PT6M55S","thumbnail":"https://i.ytimg.com/vi/taqLKvkZ_Cg/mqdefault.jpg","viewCount":"320","playlistId":"PLEkQk5xrP-tkWS57Ubysh0ifJR8dmuEtE","playlistName":"شرح كتاب الأذكار للإمام النووي د. يسرى جبر","category":"حديث"},{"id":"i7tVX8RRJFE","title":"شرح كتاب الفتن من سنن الترمذي - المجلس الثامن","publishedAt":"2015-12-21T05:55:48Z","duration":"PT34M46S","thumbnail":"https://i.ytimg.com/vi/i7tVX8RRJFE/mqdefault.jpg","viewCount":"320","playlistId":"PLEkQk5xrP-tnu6of679SvxdVx0qSrJzmb","playlistName":"شرح سنن الإمام الترمذي رضى الله عنه د. يسري جبر","category":"متنوع"}],"total":7675,"page":279,"pageSize":24,"totalPages":320}