{"items":[{"id":"H31lTuaPj4s","title":"برنامج - عصمة الأنبياء - الحلقة الثامنة عشر - شبهات حول نبي الله موسى - @alerthTV","publishedAt":"2019-03-16T17:13:13Z","duration":"PT24M16S","thumbnail":"https://i.ytimg.com/vi/H31lTuaPj4s/mqdefault.jpg","viewCount":"1021","playlistId":"PLEkQk5xrP-tnBp9yUT_R2vtqSPOlcyAZe","playlistName":"برنامج - عصمة الأنبياء","category":"متنوع"},{"id":"be6LYh1g4mc","title":"شرح صحيح البخاري ( كتاب التيمم مجلس ٣ )","publishedAt":"2016-09-27T20:48:18Z","duration":"PT21M32S","thumbnail":"https://i.ytimg.com/vi/be6LYh1g4mc/mqdefault.jpg","viewCount":"1019","playlistId":"PLEkQk5xrP-tlEerGoLa1AFy-2XvQ-sovv","playlistName":"شرح صحيح البخاري - أ.د. يسري جبر (كاملا)","category":"حديث"},{"id":"NwP9QeElMAA","title":"289- استحباب الثوب الأبيض وجواز الأخضر والأحمر والأصفر والأسود - شرح دليل الفالحين","publishedAt":"2022-08-21T05:30:05Z","duration":"PT35M46S","thumbnail":"https://i.ytimg.com/vi/NwP9QeElMAA/mqdefault.jpg","viewCount":"1019","playlistId":"PLEkQk5xrP-tkc9DXvSLguqX5-FYp6ASR4","playlistName":"دليل الفالحين لطرق رياض الصالحين","category":"متنوع"},{"id":"ZXwgjdnUIvY","title":"133- مَن أتى مجلسًا فوجد فُرجة فجلس فيها، وإلَّا  ورائهم","publishedAt":"2020-09-16T14:30:06Z","duration":"PT20M6S","thumbnail":"https://i.ytimg.com/vi/ZXwgjdnUIvY/mqdefault.jpg","viewCount":"1018","playlistId":"PLEkQk5xrP-tmKNjtYLfhATC37QdIsTMe0","playlistName":"شرح كتاب اللؤلؤ والمرجان فيما اتفق عليه الشيخان إماما المحدثين البخاري ومسلم. أ.د. يسري جبر","category":"حديث"},{"id":"eVDrA578dTc","title":"137- من كذب عليَّ متعمِّدا فليتبوأ مقعدَه من النار - شرح مسند الإمام أحمد رضي الله تعالى عنه","publishedAt":"2024-11-12T06:15:39Z","duration":"PT27M14S","thumbnail":"https://i.ytimg.com/vi/eVDrA578dTc/mqdefault.jpg","viewCount":"1017","playlistId":"PLEkQk5xrP-tkKprIuGrSdEuBSMsyg5We1","playlistName":"شرح مسند الإمام أحمد بن حنبل","category":"متنوع"},{"id":"ppamWGHHnqk","title":"شرح البرهان في علوم القرآن - النوع ١٠ - معرفة أول ما نزل من القرآن وآخر ما نزل","publishedAt":"2019-10-15T10:06:18Z","duration":"PT27M50S","thumbnail":"https://i.ytimg.com/vi/ppamWGHHnqk/mqdefault.jpg","viewCount":"1016","playlistId":"PLEkQk5xrP-tnW3iBL7HkKziOFCFZbTlf0","playlistName":"شرح البرهان في علوم القرآن - أ.د. يسري جبر","category":"تفسير"},{"id":"zpTFW_uM9hA","title":"درجاتُ الإيمانِ تتفاوتُ بتفاوتِ المعرفةِ بمقاماتِ النَّبىِّ وحقائقِهِ","publishedAt":"2015-12-16T17:55:50Z","duration":"PT36M41S","thumbnail":"https://i.ytimg.com/vi/zpTFW_uM9hA/mqdefault.jpg","viewCount":"1015","playlistId":"PLEkQk5xrP-tmJzNvLntpzW0uPanPzxA0c","playlistName":"لقاءات ومحاضرات","category":"متنوع"},{"id":"-spUMEnoxm0","title":"164-  \"…لاَ تَنْسَنَا يَا أُخَيَّ مِنْ دُعَائِكَ…\" - شرح دليل الفالحين","publishedAt":"2021-12-06T19:58:09Z","duration":"PT22M9S","thumbnail":"https://i.ytimg.com/vi/-spUMEnoxm0/mqdefault.jpg","viewCount":"1015","playlistId":"PLEkQk5xrP-tkc9DXvSLguqX5-FYp6ASR4","playlistName":"دليل الفالحين لطرق رياض الصالحين","category":"متنوع"},{"id":"vdz0pf_tE44","title":"المودة بين الجيران | مجالس رمضانية","publishedAt":"2023-03-27T15:00:47Z","duration":"PT29M7S","thumbnail":"https://i.ytimg.com/vi/vdz0pf_tE44/mqdefault.jpg","viewCount":"1013","playlistId":"PLEkQk5xrP-tnl7vb7KeAoPd5ZlqKKW8KV","playlistName":"شرح كتاب بهجة النفوس أ.د . يسرى جبر","category":"متنوع"},{"id":"CvDaH7eo-p0","title":"كيف تتحقق بالشهادتين في طريقك إلى الله؟","publishedAt":"2025-03-05T18:30:13Z","duration":"PT11M51S","thumbnail":"https://i.ytimg.com/vi/CvDaH7eo-p0/mqdefault.jpg","viewCount":"1013","playlistId":"PLEkQk5xrP-tlArtGpeLWaqNM7h7IDeAVC","playlistName":"خطب الجمعة أ.د. يسري جبر","category":"خطب"},{"id":"WZtGaFqN6SA","title":"شرح كتاب بهجة النفوس - المجلس الثاني عشر","publishedAt":"2020-05-04T20:00:29Z","duration":"PT37M50S","thumbnail":"https://i.ytimg.com/vi/WZtGaFqN6SA/mqdefault.jpg","viewCount":"1013","playlistId":"PLEkQk5xrP-tlyEB2iywk4VchTQROnBrU6","playlistName":"بهجة النفوس من أوله  أ.د. يسري جبر","category":"متنوع"},{"id":"ebjcIacZb84","title":"150- متى يجب الجهاد في سبيل الله؟","publishedAt":"2025-02-05T07:00:23Z","duration":"PT23M17S","thumbnail":"https://i.ytimg.com/vi/ebjcIacZb84/mqdefault.jpg","viewCount":"1013","playlistId":"PLEkQk5xrP-tkKprIuGrSdEuBSMsyg5We1","playlistName":"شرح مسند الإمام أحمد بن حنبل","category":"متنوع"},{"id":"BwjP_qlAnuw","title":"3- الفرق بين الماء إذا تغير بمجاور أو بمخالط، ومعنى التطهير بالمكاثرة","publishedAt":"2022-12-24T09:00:06Z","duration":"PT39M43S","thumbnail":"https://i.ytimg.com/vi/BwjP_qlAnuw/mqdefault.jpg","viewCount":"1011","playlistId":"PLEkQk5xrP-tk_MCBZ706ORCw6gFtFyaGj","playlistName":"شرح سنن الإمام الدارقطني","category":"متنوع"},{"id":"uw5Jed2YUE8","title":"حَدِيث (١٨٤)\"كراهية صيام الدهر\" | أ.د. يسري جبر","publishedAt":"2021-04-14T15:30:14Z","duration":"PT29M10S","thumbnail":"https://i.ytimg.com/vi/uw5Jed2YUE8/mqdefault.jpg","viewCount":"1011","playlistId":"PLEkQk5xrP-tnl7vb7KeAoPd5ZlqKKW8KV","playlistName":"شرح كتاب بهجة النفوس أ.د . يسرى جبر","category":"متنوع"},{"id":"gWt6ZSEkImo","title":"شرح صحيح البخاري - كتاب الصوم من باب ٢٨","publishedAt":"2017-03-31T08:37:48Z","duration":"PT36M58S","thumbnail":"https://i.ytimg.com/vi/gWt6ZSEkImo/mqdefault.jpg","viewCount":"1010","playlistId":"PLEkQk5xrP-tlEerGoLa1AFy-2XvQ-sovv","playlistName":"شرح صحيح البخاري - أ.د. يسري جبر (كاملا)","category":"حديث"},{"id":"6O819dWuY1U","title":"533- معنى كلمة \"وَدَّ\" - شرح كتاب البرهان في علوم القرآن","publishedAt":"2022-06-26T05:00:05Z","duration":"PT16M56S","thumbnail":"https://i.ytimg.com/vi/6O819dWuY1U/mqdefault.jpg","viewCount":"1010","playlistId":"PLEkQk5xrP-tnW3iBL7HkKziOFCFZbTlf0","playlistName":"شرح البرهان في علوم القرآن - أ.د. يسري جبر","category":"تفسير"},{"id":"hYBLRGar-lc","title":"بِدَعُ التَفَاسِيرِ - المجلس الخامس عشر. أ.د. يسري جبر","publishedAt":"2020-09-17T19:17:33Z","duration":"PT10M8S","thumbnail":"https://i.ytimg.com/vi/hYBLRGar-lc/mqdefault.jpg","viewCount":"1010","playlistId":"PLEkQk5xrP-tkSGrPLMt1BEmJ54cGWYgtp","playlistName":"كتابُ بِدَعِ التَفَاسِيرِ - أ.د. يسري جبر","category":"متنوع"},{"id":"ajENrVFYcqo","title":"تقسيم القرآن إلى ما هو بيِّن بنفسه، وإلى ما ليس بيِّن بنفسه فيحتاج إلى بيان","publishedAt":"2020-09-05T05:20:16Z","duration":"PT20M32S","thumbnail":"https://i.ytimg.com/vi/ajENrVFYcqo/mqdefault.jpg","viewCount":"1010","playlistId":"PLEkQk5xrP-tnW3iBL7HkKziOFCFZbTlf0","playlistName":"شرح البرهان في علوم القرآن - أ.د. يسري جبر","category":"تفسير"},{"id":"oLShc8Cp19w","title":"10- تكملة بيان السور التي بعضها مَكِّي وبعضها مَدَني 2 - شرح الإتقان في علوم القرآن","publishedAt":"2023-01-17T05:00:26Z","duration":"PT16M13S","thumbnail":"https://i.ytimg.com/vi/oLShc8Cp19w/mqdefault.jpg","viewCount":"1009","playlistId":"PLEkQk5xrP-tlPw10KGJKagu7zm4Ry2Tge","playlistName":"شرح الإتقان في علوم القرآن","category":"تفسير"},{"id":"anVEg1-yJaA","title":"نَفْي العام يدل على نَفْي الخاص (3)  قاعدة مهمَّة - شرح البرهان في علوم القرآن","publishedAt":"2022-01-16T07:00:49Z","duration":"PT30M13S","thumbnail":"https://i.ytimg.com/vi/anVEg1-yJaA/mqdefault.jpg","viewCount":"1009","playlistId":"PLEkQk5xrP-tnW3iBL7HkKziOFCFZbTlf0","playlistName":"شرح البرهان في علوم القرآن - أ.د. يسري جبر","category":"تفسير"},{"id":"1PJehzY9NRA","title":"شرح سنن الدارمي - المقدمة - ٧","publishedAt":"2019-02-28T20:12:13Z","duration":"PT36M48S","thumbnail":"https://i.ytimg.com/vi/1PJehzY9NRA/mqdefault.jpg","viewCount":"1009","playlistId":"PLEkQk5xrP-tmAg-FuWjY057X_h5NmGmAa","playlistName":"شرح سنن الدارمي - أ.د. يسري جبر (كاملا)","category":"متنوع"},{"id":"E9yIHhUFWNM","title":"مقرأة سورة الدخان من أولها","publishedAt":"2018-12-22T09:54:01Z","duration":"PT33M47S","thumbnail":"https://i.ytimg.com/vi/E9yIHhUFWNM/mqdefault.jpg","viewCount":"1008","playlistId":"PLEkQk5xrP-tnmTYsyW6xNdyfhPq0Bhrhj","playlistName":"مقرأة الفجر - القُرْآنُ الكَرِيمُ - خَتْمَةُ التَّدَبُّرِ  أ.د. يسري جبر","category":"متنوع"},{"id":"DQHCnfSPUkw","title":"الندوة الطبية مع د. يسري جبر","publishedAt":"2018-11-28T09:55:02Z","duration":"PT38M26S","thumbnail":"https://i.ytimg.com/vi/DQHCnfSPUkw/mqdefault.jpg","viewCount":"1008","playlistId":"PLEkQk5xrP-tmJzNvLntpzW0uPanPzxA0c","playlistName":"لقاءات ومحاضرات","category":"متنوع"},{"id":"faMnNlJ1CYw","title":"شرح صحيح البخاري كتاب الأذان من باب 83","publishedAt":"2016-11-22T06:43:54Z","duration":"PT30M54S","thumbnail":"https://i.ytimg.com/vi/faMnNlJ1CYw/mqdefault.jpg","viewCount":"1008","playlistId":"PLEkQk5xrP-tlEerGoLa1AFy-2XvQ-sovv","playlistName":"شرح صحيح البخاري - أ.د. يسري جبر (كاملا)","category":"حديث"}],"total":7670,"page":152,"pageSize":24,"totalPages":320}