{"items":[{"id":"E97HkWE3-wA","title":"الوِرد اليومي (الأساس)   د. يسري جبر","publishedAt":"2018-09-01T18:55:56Z","duration":"PT24M38S","thumbnail":"https://i.ytimg.com/vi/E97HkWE3-wA/mqdefault.jpg","viewCount":"35934","playlistId":"PLEkQk5xrP-tk3OeVFoMfKhOhyINnlPeYZ","playlistName":"الحَضْرَةُ الصِّدِّيقِيَّة والأوْرَاد","category":"متنوع"},{"id":"lHE8vtw6qA4","title":"معنى وحدة الوجود عند أهل السنة والجماعة","publishedAt":"2013-11-30T19:12:47Z","duration":"PT7M43S","thumbnail":"https://i.ytimg.com/vi/lHE8vtw6qA4/mqdefault.jpg","viewCount":"35883","playlistId":"PLEkQk5xrP-tm8ZIu74nTOZN9KJUJu416J","playlistName":"مقاطع مُهمَّة (يُسريَّات) أ.د. يسري جبر","category":"متنوع"},{"id":"rKilpuQUo0Q","title":"شتات الفكر وضياع الوقت","publishedAt":"2020-08-11T18:29:39Z","duration":"PT12M41S","thumbnail":"https://i.ytimg.com/vi/rKilpuQUo0Q/mqdefault.jpg","viewCount":"35662","playlistId":"PLEkQk5xrP-tm8ZIu74nTOZN9KJUJu416J","playlistName":"مقاطع مُهمَّة (يُسريَّات) أ.د. يسري جبر","category":"متنوع"},{"id":"VQCqBxVdHjE","title":"لماذا خرج الوهابية عن أهل السنة والجماعة؟","publishedAt":"2021-06-29T20:15:01Z","duration":"PT14M35S","thumbnail":"https://i.ytimg.com/vi/VQCqBxVdHjE/mqdefault.jpg","viewCount":"35303","playlistId":"PLEkQk5xrP-tlArtGpeLWaqNM7h7IDeAVC","playlistName":"خطب الجمعة أ.د. يسري جبر","category":"خطب"},{"id":"MSH0Be4hrSQ","title":"كيف تفهم الإشارات","publishedAt":"2020-07-17T19:28:07Z","duration":"PT11M34S","thumbnail":"https://i.ytimg.com/vi/MSH0Be4hrSQ/mqdefault.jpg","viewCount":"34946","playlistId":"PLEkQk5xrP-tm8ZIu74nTOZN9KJUJu416J","playlistName":"مقاطع مُهمَّة (يُسريَّات) أ.د. يسري جبر","category":"متنوع"},{"id":"MmoYzYxjCTM","title":"184- اقترابُ الفِتنِ وفَتْحُ رَدْم يأجوج ومأجوج","publishedAt":"2020-12-20T08:00:40Z","duration":"PT22M5S","thumbnail":"https://i.ytimg.com/vi/MmoYzYxjCTM/mqdefault.jpg","viewCount":"34788","playlistId":"PLEkQk5xrP-tmKNjtYLfhATC37QdIsTMe0","playlistName":"شرح كتاب اللؤلؤ والمرجان فيما اتفق عليه الشيخان إماما المحدثين البخاري ومسلم. أ.د. يسري جبر","category":"حديث"},{"id":"Ttss3vs7dUY","title":"شرح منازل السائرين - المجلس (1) المقدمة | أ.د. يسري جبر","publishedAt":"2022-07-04T18:00:17Z","duration":"PT54M7S","thumbnail":"https://i.ytimg.com/vi/Ttss3vs7dUY/mqdefault.jpg","viewCount":"34531","playlistId":"PLEkQk5xrP-tmiUfQ-2Tsn7QIak4EsvaZW","playlistName":"كتاب التيسير المعين بشرح معاني منازل السائرين (تصوف) - د.يسري جبر","category":"تصوف"},{"id":"1z-jbc079SA","title":"هل مات فرعون مسلما ويمكن أن يدخله الله الجنة؟","publishedAt":"2024-05-04T18:04:18Z","duration":"PT10M8S","thumbnail":"https://i.ytimg.com/vi/1z-jbc079SA/mqdefault.jpg","viewCount":"34435","playlistId":"PLEkQk5xrP-tkGXuZ9atE3k_7it12rUPTs","playlistName":"أسئلة المتابعين","category":"متنوع"},{"id":"He7to-RWtfE","title":"هل أستطيع رؤية النبي ﷺ يقظة؟","publishedAt":"2021-04-06T18:37:06Z","duration":"PT10M37S","thumbnail":"https://i.ytimg.com/vi/He7to-RWtfE/mqdefault.jpg","viewCount":"34284","playlistId":"PLEkQk5xrP-tm8ZIu74nTOZN9KJUJu416J","playlistName":"مقاطع مُهمَّة (يُسريَّات) أ.د. يسري جبر","category":"متنوع"},{"id":"Qeccg8j8xlI","title":"هل العمل الصالح يغير قدر الله؟","publishedAt":"2023-09-07T18:00:17Z","duration":"PT13M4S","thumbnail":"https://i.ytimg.com/vi/Qeccg8j8xlI/mqdefault.jpg","viewCount":"34234","playlistId":"PLEkQk5xrP-tkGXuZ9atE3k_7it12rUPTs","playlistName":"أسئلة المتابعين","category":"متنوع"},{"id":"xfLN5b403z8","title":"(10) سيدنا أبو يزيد طيفور بن عيسى البسطامي رضي الله عنه   د. يسري جبر","publishedAt":"2018-04-12T17:00:33Z","duration":"PT25M36S","thumbnail":"https://i.ytimg.com/vi/xfLN5b403z8/mqdefault.jpg","viewCount":"33946","playlistId":"PLEkQk5xrP-tmmI87XkWepRdTpisz2Lfgr","playlistName":"باب في ذكر مشايخ هذه الطريقة من شرح كتاب الرسالة القشيرية","category":"تصوف"},{"id":"-SmPC2JUTTI","title":"شرح كتاب نوراليقين في سيرة سيد المرسلين - المجلس الثامن ( الجهر بالتبليغ )   د.يسري جبر","publishedAt":"2017-04-29T15:37:30Z","duration":"PT46M51S","thumbnail":"https://i.ytimg.com/vi/-SmPC2JUTTI/mqdefault.jpg","viewCount":"33836","playlistId":"PLEkQk5xrP-tl2t4NQx1IhKnAJCMzF0Nli","playlistName":"شرح كتاب نور اليقين في سيرة سيد المرسلين   د. يسري جبر","category":"سيرة"},{"id":"reBsvD53jQY","title":"الفرق بين القَدَر والعِلْم والإرادة والقُدرة","publishedAt":"2021-01-11T19:00:09Z","duration":"PT13M55S","thumbnail":"https://i.ytimg.com/vi/reBsvD53jQY/mqdefault.jpg","viewCount":"33217","playlistId":"PLEkQk5xrP-tm8ZIu74nTOZN9KJUJu416J","playlistName":"مقاطع مُهمَّة (يُسريَّات) أ.د. يسري جبر","category":"متنوع"},{"id":"ScfbIPwFdeU","title":"2- شرح مبسط للعقيدة (خُطبة كتاب الفُتُوحَات المَكْيَّة) - شرح مختصر الفُتُوحَات المَكْيَّة","publishedAt":"2023-12-31T10:30:08Z","duration":"PT1H11M42S","thumbnail":"https://i.ytimg.com/vi/ScfbIPwFdeU/mqdefault.jpg","viewCount":"33111","playlistId":"PLEkQk5xrP-tnpkdZki6rPTtMak1bnI5g-","playlistName":"شرح كتاب مختصر الفتوحات المكية المسمى لواقح الأنوار القدسية","category":"متنوع"},{"id":"uqKfA6PSVPg","title":"كيف طلبت العلم على يد السيد عبد الله الصديق الغماري؟","publishedAt":"2021-09-11T18:39:07Z","duration":"PT13M10S","thumbnail":"https://i.ytimg.com/vi/uqKfA6PSVPg/mqdefault.jpg","viewCount":"32573","playlistId":"PLEkQk5xrP-tl6tFiMFGUucCTvLgnWyAfz","playlistName":"حياة الأستاذ الدكتور يسري جبر","category":"متنوع"},{"id":"EE4g65A8yeM","title":"ما هو علاج السحر ,, وكيف تحمي نفسك منه؟","publishedAt":"2022-05-23T18:00:03Z","duration":"PT16M46S","thumbnail":"https://i.ytimg.com/vi/EE4g65A8yeM/mqdefault.jpg","viewCount":"32355","playlistId":"PLEkQk5xrP-tlArtGpeLWaqNM7h7IDeAVC","playlistName":"خطب الجمعة أ.د. يسري جبر","category":"خطب"},{"id":"wQKAFZJ0WbA","title":"هل يطلع الله بعض الأولياء علي الغيب؟","publishedAt":"2022-12-20T18:03:09Z","duration":"PT11M54S","thumbnail":"https://i.ytimg.com/vi/wQKAFZJ0WbA/mqdefault.jpg","viewCount":"32289","playlistId":"PLEkQk5xrP-tkGXuZ9atE3k_7it12rUPTs","playlistName":"أسئلة المتابعين","category":"متنوع"},{"id":"vIu6OORGjjg","title":"كيف تتعامل مع مشاعر الغضب؟","publishedAt":"2021-08-25T17:00:35Z","duration":"PT41M56S","thumbnail":"https://i.ytimg.com/vi/vIu6OORGjjg/mqdefault.jpg","viewCount":"31895","playlistId":"PLEkQk5xrP-tlArtGpeLWaqNM7h7IDeAVC","playlistName":"خطب الجمعة أ.د. يسري جبر","category":"خطب"},{"id":"JuSqQzQL7cY","title":"4- أحوال العارفين بالله - شرح مختصر الفُتُوحَات المَكْيَّة","publishedAt":"2024-01-16T20:42:24Z","duration":"PT1H11M36S","thumbnail":"https://i.ytimg.com/vi/JuSqQzQL7cY/mqdefault.jpg","viewCount":"31891","playlistId":"PLEkQk5xrP-tnpkdZki6rPTtMak1bnI5g-","playlistName":"شرح كتاب مختصر الفتوحات المكية المسمى لواقح الأنوار القدسية","category":"متنوع"},{"id":"esLWdvOrct0","title":"شرح كتاب نوراليقين في سيرة سيد المرسلين - المجلس التاسع ( إسلام حمزة ) د.يسري جبر","publishedAt":"2017-05-06T19:14:57Z","duration":"PT49M37S","thumbnail":"https://i.ytimg.com/vi/esLWdvOrct0/mqdefault.jpg","viewCount":"31867","playlistId":"PLEkQk5xrP-tl2t4NQx1IhKnAJCMzF0Nli","playlistName":"شرح كتاب نور اليقين في سيرة سيد المرسلين   د. يسري جبر","category":"سيرة"},{"id":"hLxVUzlP4Ls","title":"معنى حديث الجارية عند أهل السنة والجماعة والرد على الوهابية المجسمة","publishedAt":"2013-10-09T10:59:46Z","duration":"PT7M33S","thumbnail":"https://i.ytimg.com/vi/hLxVUzlP4Ls/mqdefault.jpg","viewCount":"31850","playlistId":"PLEkQk5xrP-tm8ZIu74nTOZN9KJUJu416J","playlistName":"مقاطع مُهمَّة (يُسريَّات) أ.د. يسري جبر","category":"متنوع"},{"id":"04tR9_i3HqY","title":"متى سيأتي نصر الله؟","publishedAt":"2023-10-24T18:19:39Z","duration":"PT21M3S","thumbnail":"https://i.ytimg.com/vi/04tR9_i3HqY/mqdefault.jpg","viewCount":"31762","playlistId":"PLEkQk5xrP-tlArtGpeLWaqNM7h7IDeAVC","playlistName":"خطب الجمعة أ.د. يسري جبر","category":"خطب"},{"id":"Y6hX6N47YKg","title":"كيف أتعامل مع صديقي الوهابي؟","publishedAt":"2021-02-10T19:56:08Z","duration":"PT8M2S","thumbnail":"https://i.ytimg.com/vi/Y6hX6N47YKg/mqdefault.jpg","viewCount":"31616","playlistId":"PLEkQk5xrP-tm8ZIu74nTOZN9KJUJu416J","playlistName":"مقاطع مُهمَّة (يُسريَّات) أ.د. يسري جبر","category":"متنوع"},{"id":"PAQMfoGACnI","title":"شرح كتاب نوراليقين في سيرة سيد المرسلين - المجلس الثاني عشر(هجرة الطائف) د.يسري جبر","publishedAt":"2017-05-27T12:49:54Z","duration":"PT58M51S","thumbnail":"https://i.ytimg.com/vi/PAQMfoGACnI/mqdefault.jpg","viewCount":"31236","playlistId":"PLEkQk5xrP-tl2t4NQx1IhKnAJCMzF0Nli","playlistName":"شرح كتاب نور اليقين في سيرة سيد المرسلين   د. يسري جبر","category":"سيرة"}],"total":7675,"page":7,"pageSize":24,"totalPages":320}