{"items":[{"id":"wlKwfcNocoo","title":"شرح صحيح الإمام البخاري رضي الله تعالى عنه - كتاب الحِيَل. د. يسري جبر","publishedAt":"2018-10-27T13:51:41Z","duration":"PT36M","thumbnail":"https://i.ytimg.com/vi/wlKwfcNocoo/mqdefault.jpg","viewCount":"282","playlistId":"PLEkQk5xrP-tmJuzaj4GWRenFoFx9gdbFX","playlistName":"شرح كتاب صحيح الإمام البخاري رضي الله تعالى عنه   أ.د. يسرى جبر","category":"حديث"},{"id":"3LpnEb24Czo","title":"مجلس رسول الله صلى الله عليه وسلم | اعرف نبيك","publishedAt":"2015-09-03T15:52:41Z","duration":"PT5M18S","thumbnail":"https://i.ytimg.com/vi/3LpnEb24Czo/mqdefault.jpg","viewCount":"282","playlistId":"PLEkQk5xrP-tl6Mu_Mz3QMUSv5T6XBH-Dg","playlistName":"برنامج اعرف نبيك","category":"متنوع"},{"id":"9of6yyyG40Q","title":"شرح البرهان في علوم القرآن - النوع ٣٨ - فصل في أنه هل يعلم إعجاز القرآن ضرورة","publishedAt":"2020-03-24T07:00:02Z","duration":"PT16M24S","thumbnail":"https://i.ytimg.com/vi/9of6yyyG40Q/mqdefault.jpg","viewCount":"282","playlistId":"PLEkQk5xrP-tnW3iBL7HkKziOFCFZbTlf0","playlistName":"شرح البرهان في علوم القرآن - أ.د. يسري جبر","category":"تفسير"},{"id":"JxD3Fli3XRY","title":"شرح البرهان في علوم القرآن - النوع ٢٥ - علم مرسوم الخط (فصل في الفصل والوصل ٢)","publishedAt":"2020-01-21T21:31:32Z","duration":"PT21M7S","thumbnail":"https://i.ytimg.com/vi/JxD3Fli3XRY/mqdefault.jpg","viewCount":"282","playlistId":"PLEkQk5xrP-tnW3iBL7HkKziOFCFZbTlf0","playlistName":"شرح البرهان في علوم القرآن - أ.د. يسري جبر","category":"تفسير"},{"id":"paRowm0KjOY","title":"مقرأة سورة هود من آية ٥٠","publishedAt":"2017-06-15T09:36:31Z","duration":"PT19M16S","thumbnail":"https://i.ytimg.com/vi/paRowm0KjOY/mqdefault.jpg","viewCount":"281","playlistId":"PLEkQk5xrP-tnmTYsyW6xNdyfhPq0Bhrhj","playlistName":"مقرأة الفجر - القُرْآنُ الكَرِيمُ - خَتْمَةُ التَّدَبُّرِ  أ.د. يسري جبر","category":"متنوع"},{"id":"1qhauR5Ruo8","title":"مقرأة سورة مريم من آية ٧٧","publishedAt":"2017-11-21T14:41:16Z","duration":"PT12M19S","thumbnail":"https://i.ytimg.com/vi/1qhauR5Ruo8/mqdefault.jpg","viewCount":"281","playlistId":"PLEkQk5xrP-tnmTYsyW6xNdyfhPq0Bhrhj","playlistName":"مقرأة الفجر - القُرْآنُ الكَرِيمُ - خَتْمَةُ التَّدَبُّرِ  أ.د. يسري جبر","category":"متنوع"},{"id":"3v9rTKhKnbM","title":"619- (ما) الشَرطيَّة - شرح البرهان في علوم القرآن","publishedAt":"2022-12-13T05:00:04Z","duration":"PT31M33S","thumbnail":"https://i.ytimg.com/vi/3v9rTKhKnbM/mqdefault.jpg","viewCount":"281","playlistId":"PLEkQk5xrP-tnW3iBL7HkKziOFCFZbTlf0","playlistName":"شرح البرهان في علوم القرآن - أ.د. يسري جبر","category":"تفسير"},{"id":"3PTKI75OPcA","title":"مقرأة سورة الأنبياء من آية ٤٤","publishedAt":"2017-12-16T16:44:54Z","duration":"PT21M38S","thumbnail":"https://i.ytimg.com/vi/3PTKI75OPcA/mqdefault.jpg","viewCount":"280","playlistId":"PLEkQk5xrP-tnmTYsyW6xNdyfhPq0Bhrhj","playlistName":"مقرأة الفجر - القُرْآنُ الكَرِيمُ - خَتْمَةُ التَّدَبُّرِ  أ.د. يسري جبر","category":"متنوع"},{"id":"tcDD9Mj5ng8","title":"القِسمُ (14) من التوكيد: فوائد التَّكرار  - شرح البرهان في علوم القرآن","publishedAt":"2021-04-19T05:40:08Z","duration":"PT8M59S","thumbnail":"https://i.ytimg.com/vi/tcDD9Mj5ng8/mqdefault.jpg","viewCount":"280","playlistId":"PLEkQk5xrP-tnW3iBL7HkKziOFCFZbTlf0","playlistName":"شرح البرهان في علوم القرآن - أ.د. يسري جبر","category":"تفسير"},{"id":"tZAdcSoNin0","title":"مقرأة سورة النحل من آية ٨٤","publishedAt":"2017-08-31T11:54:26Z","duration":"PT13M10S","thumbnail":"https://i.ytimg.com/vi/tZAdcSoNin0/mqdefault.jpg","viewCount":"280","playlistId":"PLEkQk5xrP-tnmTYsyW6xNdyfhPq0Bhrhj","playlistName":"مقرأة الفجر - القُرْآنُ الكَرِيمُ - خَتْمَةُ التَّدَبُّرِ  أ.د. يسري جبر","category":"متنوع"},{"id":"MO41E9Fzb6w","title":"الاختزال (29) حذف الفعل (3) - شرح البرهان في علوم القرآن","publishedAt":"2021-08-13T07:04:47Z","duration":"PT14M15S","thumbnail":"https://i.ytimg.com/vi/MO41E9Fzb6w/mqdefault.jpg","viewCount":"280","playlistId":"PLEkQk5xrP-tnW3iBL7HkKziOFCFZbTlf0","playlistName":"شرح البرهان في علوم القرآن - أ.د. يسري جبر","category":"تفسير"},{"id":"whevjXwhZvA","title":"شرح سنن الدارمي كتاب الجهاد من باب ٢٣","publishedAt":"2019-08-26T16:23:03Z","duration":"PT15M30S","thumbnail":"https://i.ytimg.com/vi/whevjXwhZvA/mqdefault.jpg","viewCount":"280","playlistId":"PLEkQk5xrP-tmAg-FuWjY057X_h5NmGmAa","playlistName":"شرح سنن الدارمي - أ.د. يسري جبر (كاملا)","category":"متنوع"},{"id":"CGPnBbDUS5w","title":"مقرأة سورة النور من آية ٤٥","publishedAt":"2018-03-21T07:45:00Z","duration":"PT12M33S","thumbnail":"https://i.ytimg.com/vi/CGPnBbDUS5w/mqdefault.jpg","viewCount":"279","playlistId":"PLEkQk5xrP-tnmTYsyW6xNdyfhPq0Bhrhj","playlistName":"مقرأة الفجر - القُرْآنُ الكَرِيمُ - خَتْمَةُ التَّدَبُّرِ  أ.د. يسري جبر","category":"متنوع"},{"id":"gXqR7GIp5_0","title":"صحيح الإمام البخاري رضي الله عنه - كتاب الأدب - المجلس السادس عشر د. يسري جبر","publishedAt":"2017-02-23T17:45:00Z","duration":"PT1H19M10S","thumbnail":"https://i.ytimg.com/vi/gXqR7GIp5_0/mqdefault.jpg","viewCount":"279","playlistId":"PLEkQk5xrP-tmJuzaj4GWRenFoFx9gdbFX","playlistName":"شرح كتاب صحيح الإمام البخاري رضي الله تعالى عنه   أ.د. يسرى جبر","category":"حديث"},{"id":"1wMZyhy8AgY","title":"سورة التوبة آية 93","publishedAt":"2017-04-29T11:46:15Z","duration":"PT8M46S","thumbnail":"https://i.ytimg.com/vi/1wMZyhy8AgY/mqdefault.jpg","viewCount":"279","playlistId":"PLEkQk5xrP-tnmTYsyW6xNdyfhPq0Bhrhj","playlistName":"مقرأة الفجر - القُرْآنُ الكَرِيمُ - خَتْمَةُ التَّدَبُّرِ  أ.د. يسري جبر","category":"متنوع"},{"id":"B1uy6hvpqMs","title":"القِسمُ (26) من التوكيد: الزيادة (4) حروف الزيادة - شرح البرهان في علوم القرآن","publishedAt":"2021-05-25T07:09:02Z","duration":"PT21M22S","thumbnail":"https://i.ytimg.com/vi/B1uy6hvpqMs/mqdefault.jpg","viewCount":"279","playlistId":"PLEkQk5xrP-tnW3iBL7HkKziOFCFZbTlf0","playlistName":"شرح البرهان في علوم القرآن - أ.د. يسري جبر","category":"تفسير"},{"id":"NaFQxHveOCI","title":"611- حرف (لولا) - شرح البرهان في علوم القرآن","publishedAt":"2022-12-04T05:00:14Z","duration":"PT23M30S","thumbnail":"https://i.ytimg.com/vi/NaFQxHveOCI/mqdefault.jpg","viewCount":"279","playlistId":"PLEkQk5xrP-tnW3iBL7HkKziOFCFZbTlf0","playlistName":"شرح البرهان في علوم القرآن - أ.د. يسري جبر","category":"تفسير"},{"id":"PId-0XPFw7E","title":"شرح كتاب الأذكار من كلام سيد الأبرار للإمام النووى رضى الله عنه - المجلس السابع والثلاثون","publishedAt":"2016-04-09T06:53:58Z","duration":"PT16M2S","thumbnail":"https://i.ytimg.com/vi/PId-0XPFw7E/mqdefault.jpg","viewCount":"279","playlistId":"PLEkQk5xrP-tkWS57Ubysh0ifJR8dmuEtE","playlistName":"شرح كتاب الأذكار للإمام النووي د. يسرى جبر","category":"حديث"},{"id":"R70ykF-dQYE","title":"( 103 ) حَدِيثُ الإِستِقَامَةِ عَلَى حُدُودِ اللهِ والنَّهْي عَنِ المُنكَرِ - المجلس الأول","publishedAt":"2015-07-06T00:29:57Z","duration":"PT28M7S","thumbnail":"https://i.ytimg.com/vi/R70ykF-dQYE/mqdefault.jpg","viewCount":"279","playlistId":"PLEkQk5xrP-tnl7vb7KeAoPd5ZlqKKW8KV","playlistName":"شرح كتاب بهجة النفوس أ.د . يسرى جبر","category":"متنوع"},{"id":"OePqo0_bp54","title":"مقرأة سورة النحل من آية ٧٥","publishedAt":"2017-08-29T14:48:13Z","duration":"PT11M39S","thumbnail":"https://i.ytimg.com/vi/OePqo0_bp54/mqdefault.jpg","viewCount":"279","playlistId":"PLEkQk5xrP-tnmTYsyW6xNdyfhPq0Bhrhj","playlistName":"مقرأة الفجر - القُرْآنُ الكَرِيمُ - خَتْمَةُ التَّدَبُّرِ  أ.د. يسري جبر","category":"متنوع"},{"id":"lA3IWmRBNME","title":"62- باب مَا جَاءَ فِى الصَّدَاقِ وَالْحِبَاءِ ك الموطأ د يسري جبر الأزهري","publishedAt":"2018-06-14T14:06:19Z","duration":"PT47M37S","thumbnail":"https://i.ytimg.com/vi/lA3IWmRBNME/mqdefault.jpg","viewCount":"279","playlistId":"PLEkQk5xrP-tnC6BRuqMjyO-484iqXeg0o","playlistName":"شرح كتاب الموطأ للإمام مالك","category":"متنوع"},{"id":"Gxji7ipgfUc","title":"مقرأة سورة الروم من آية ٤٠","publishedAt":"2018-06-24T07:26:29Z","duration":"PT17M27S","thumbnail":"https://i.ytimg.com/vi/Gxji7ipgfUc/mqdefault.jpg","viewCount":"278","playlistId":"PLEkQk5xrP-tnmTYsyW6xNdyfhPq0Bhrhj","playlistName":"مقرأة الفجر - القُرْآنُ الكَرِيمُ - خَتْمَةُ التَّدَبُّرِ  أ.د. يسري جبر","category":"متنوع"},{"id":"QSdxCQ8zpw8","title":"شرح البرهان في علوم القرآن - النوع ٢٥ - علم مرسوم الخط (فصل في مد التاء وقبضها ٢)","publishedAt":"2020-01-20T07:35:05Z","duration":"PT11M35S","thumbnail":"https://i.ytimg.com/vi/QSdxCQ8zpw8/mqdefault.jpg","viewCount":"278","playlistId":"PLEkQk5xrP-tnW3iBL7HkKziOFCFZbTlf0","playlistName":"شرح البرهان في علوم القرآن - أ.د. يسري جبر","category":"تفسير"},{"id":"R58L01WSWhI","title":"مقرأة سورة النحل من آية ٦٨","publishedAt":"2017-08-27T07:22:14Z","duration":"PT12M18S","thumbnail":"https://i.ytimg.com/vi/R58L01WSWhI/mqdefault.jpg","viewCount":"278","playlistId":"PLEkQk5xrP-tnmTYsyW6xNdyfhPq0Bhrhj","playlistName":"مقرأة الفجر - القُرْآنُ الكَرِيمُ - خَتْمَةُ التَّدَبُّرِ  أ.د. يسري جبر","category":"متنوع"}],"total":7670,"page":289,"pageSize":24,"totalPages":320}