{"items":[{"id":"ESyKPcT-vs8","title":"قراءة القرآن (من أول سورة الأعلى)","publishedAt":"2016-03-15T09:17:55Z","duration":"PT19M23S","thumbnail":"https://i.ytimg.com/vi/ESyKPcT-vs8/mqdefault.jpg","viewCount":"74","playlistId":"PLEkQk5xrP-tnUSUj0uyJhA-kwNC7Gkx_j","playlistName":"مقرأة الفجر - بداية من سورة الإسراء حتى سورة الناس","category":"تفسير"},{"id":"av4P95TBYGo","title":"صحيح الإمام البخاري رضي الله عنه - كتاب الطلاق - المجلس الرابع","publishedAt":"2015-05-31T17:49:38Z","duration":"PT54M42S","thumbnail":"https://i.ytimg.com/vi/av4P95TBYGo/mqdefault.jpg","viewCount":"73","playlistId":"PLEkQk5xrP-tmJuzaj4GWRenFoFx9gdbFX","playlistName":"شرح كتاب صحيح الإمام البخاري رضي الله تعالى عنه   أ.د. يسرى جبر","category":"حديث"},{"id":"3X_gXg5SkAM","title":"شرح كتاب تفسير القرآن من سنن الترمذي - المجلس الخامس والعشرون","publishedAt":"2016-05-02T09:32:56Z","duration":"PT34M23S","thumbnail":"https://i.ytimg.com/vi/3X_gXg5SkAM/mqdefault.jpg","viewCount":"73","playlistId":"PLEkQk5xrP-tnu6of679SvxdVx0qSrJzmb","playlistName":"شرح سنن الإمام الترمذي رضى الله عنه د. يسري جبر","category":"متنوع"},{"id":"v6HRT3igAgY","title":"شرح كتاب تفسير القرآن من سنن الترمذي - المجلس السابع والعشرون","publishedAt":"2016-05-05T02:40:30Z","duration":"PT29M23S","thumbnail":"https://i.ytimg.com/vi/v6HRT3igAgY/mqdefault.jpg","viewCount":"72","playlistId":"PLEkQk5xrP-tnu6of679SvxdVx0qSrJzmb","playlistName":"شرح سنن الإمام الترمذي رضى الله عنه د. يسري جبر","category":"متنوع"},{"id":"qUzRyq_27Ug","title":"صحيح الإمام البخاري رضي الله عنه - كتاب الطلاق - المجلس الخامس عشر","publishedAt":"2015-12-28T10:51:05Z","duration":"PT47M30S","thumbnail":"https://i.ytimg.com/vi/qUzRyq_27Ug/mqdefault.jpg","viewCount":"72","playlistId":"PLEkQk5xrP-tmJuzaj4GWRenFoFx9gdbFX","playlistName":"شرح كتاب صحيح الإمام البخاري رضي الله تعالى عنه   أ.د. يسرى جبر","category":"حديث"},{"id":"acE2xi83OAA","title":"شرح كتاب فضائل الجهاد من سنن الترمذي - المجلس الخامس","publishedAt":"2015-08-04T04:16:16Z","duration":"PT31M25S","thumbnail":"https://i.ytimg.com/vi/acE2xi83OAA/mqdefault.jpg","viewCount":"72","playlistId":"PLEkQk5xrP-tnu6of679SvxdVx0qSrJzmb","playlistName":"شرح سنن الإمام الترمذي رضى الله عنه د. يسري جبر","category":"متنوع"},{"id":"MrOI81EqzWs","title":"شرح كتاب فضائل الجهاد من سنن الترمذي - المجلس السادس","publishedAt":"2015-08-05T04:23:38Z","duration":"PT39M31S","thumbnail":"https://i.ytimg.com/vi/MrOI81EqzWs/mqdefault.jpg","viewCount":"71","playlistId":"PLEkQk5xrP-tnu6of679SvxdVx0qSrJzmb","playlistName":"شرح سنن الإمام الترمذي رضى الله عنه د. يسري جبر","category":"متنوع"},{"id":"hK9yWyXk3uo","title":"قراءة القرآن (من آية ٧ سورة التحريم)","publishedAt":"2016-01-29T04:25:11Z","duration":"PT14M28S","thumbnail":"https://i.ytimg.com/vi/hK9yWyXk3uo/mqdefault.jpg","viewCount":"69","playlistId":"PLEkQk5xrP-tnUSUj0uyJhA-kwNC7Gkx_j","playlistName":"مقرأة الفجر - بداية من سورة الإسراء حتى سورة الناس","category":"تفسير"},{"id":"fkBuUGh4fsE","title":"قراءة القرآن (من آية ٧ سورة الصف)","publishedAt":"2016-01-22T04:45:30Z","duration":"PT5M20S","thumbnail":"https://i.ytimg.com/vi/fkBuUGh4fsE/mqdefault.jpg","viewCount":"69","playlistId":"PLEkQk5xrP-tnUSUj0uyJhA-kwNC7Gkx_j","playlistName":"مقرأة الفجر - بداية من سورة الإسراء حتى سورة الناس","category":"تفسير"},{"id":"Ht95phQwZyU","title":"صحيح الإمام البخاري رضي الله عنه كتاب الاستئذان باب كيف يكتب الكتاب إلى أهل الكتاب - المجلس الرابع","publishedAt":"2017-04-17T09:14:04Z","duration":"PT42M19S","thumbnail":"https://i.ytimg.com/vi/Ht95phQwZyU/mqdefault.jpg","viewCount":"66","playlistId":"PLEkQk5xrP-tmJuzaj4GWRenFoFx9gdbFX","playlistName":"شرح كتاب صحيح الإمام البخاري رضي الله تعالى عنه   أ.د. يسرى جبر","category":"حديث"},{"id":"w353xitboB8","title":"قراءة القرآن (من أول سورة المطففين)","publishedAt":"2016-03-10T13:10:01Z","duration":"PT11M58S","thumbnail":"https://i.ytimg.com/vi/w353xitboB8/mqdefault.jpg","viewCount":"66","playlistId":"PLEkQk5xrP-tnUSUj0uyJhA-kwNC7Gkx_j","playlistName":"مقرأة الفجر - بداية من سورة الإسراء حتى سورة الناس","category":"تفسير"},{"id":"EIOUQVBLlBY","title":"قراءة القرآن (من أول سورة الانفطار)","publishedAt":"2016-03-10T10:40:02Z","duration":"PT10M19S","thumbnail":"https://i.ytimg.com/vi/EIOUQVBLlBY/mqdefault.jpg","viewCount":"61","playlistId":"PLEkQk5xrP-tnUSUj0uyJhA-kwNC7Gkx_j","playlistName":"مقرأة الفجر - بداية من سورة الإسراء حتى سورة الناس","category":"تفسير"},{"id":"9zlafNifljE","title":"كيفية حل الخلافات الزوجية؟","publishedAt":"2025-05-10T18:00:14Z","duration":"PT13M30S","thumbnail":"https://i.ytimg.com/vi/9zlafNifljE/mqdefault.jpg","viewCount":"50","playlistId":"PLEkQk5xrP-tkGXuZ9atE3k_7it12rUPTs","playlistName":"أسئلة المتابعين","category":"متنوع"},{"id":"hJHfk6zoDGY","title":"صحيح البخاري - كتاب الفرائض - باب الولاء لمن اعتق وميراث اللقيط","publishedAt":"2018-02-04T23:39:20Z","duration":"PT47M49S","thumbnail":"https://i.ytimg.com/vi/hJHfk6zoDGY/mqdefault.jpg","viewCount":"48","playlistId":"PLEkQk5xrP-tmJuzaj4GWRenFoFx9gdbFX","playlistName":"شرح كتاب صحيح الإمام البخاري رضي الله تعالى عنه   أ.د. يسرى جبر","category":"حديث"}],"total":7670,"page":320,"pageSize":24,"totalPages":320}