{"items":[{"id":"RFgVytXCNBE","title":"شرح البرهان في علوم القرآن - النوع ٧ - فی أسرار الفواتح والسور  ٢","publishedAt":"2019-09-26T09:51:36Z","duration":"PT13M46S","thumbnail":"https://i.ytimg.com/vi/RFgVytXCNBE/mqdefault.jpg","viewCount":"842","playlistId":"PLEkQk5xrP-tnW3iBL7HkKziOFCFZbTlf0","playlistName":"شرح البرهان في علوم القرآن - أ.د. يسري جبر","category":"تفسير"},{"id":"pHGIhe3Flic","title":"39- الاختيار - شرح كتاب فتح القريب المجيب","publishedAt":"2021-11-11T06:40:17Z","duration":"PT41M6S","thumbnail":"https://i.ytimg.com/vi/pHGIhe3Flic/mqdefault.jpg","viewCount":"842","playlistId":"PLEkQk5xrP-tkXuPs-0sXfWQDWzBKmcjWN","playlistName":"\"فتح القريب المجيب في شرح ألفاظ التقريب\"( فقه شافعيّ)  أ. د. يسري جبر","category":"فقه"},{"id":"eYHuf7pXbHw","title":"127- تكملة حديث مَن تكلّم في المَهْد (الطفل الذي تكّلم في المَهْد)  -  شرح دليل الفالحين","publishedAt":"2021-09-15T05:50:35Z","duration":"PT37M2S","thumbnail":"https://i.ytimg.com/vi/eYHuf7pXbHw/mqdefault.jpg","viewCount":"841","playlistId":"PLEkQk5xrP-tkc9DXvSLguqX5-FYp6ASR4","playlistName":"دليل الفالحين لطرق رياض الصالحين","category":"متنوع"},{"id":"J9kH-KgPmK4","title":"382- أيُّ العَمَلِ أفْضَلُ؟ قال: الإِيمانُ باللَّهِ والجِهَادُ سَبيلِه - شرح دليل الفالحين","publishedAt":"2023-01-15T09:00:09Z","duration":"PT55M15S","thumbnail":"https://i.ytimg.com/vi/J9kH-KgPmK4/mqdefault.jpg","viewCount":"841","playlistId":"PLEkQk5xrP-tkc9DXvSLguqX5-FYp6ASR4","playlistName":"دليل الفالحين لطرق رياض الصالحين","category":"متنوع"},{"id":"XPAP9YFeEfg","title":"شرح صحيح البخاري - كتاب الشركة من أوله","publishedAt":"2017-06-01T21:29:11Z","duration":"PT36M52S","thumbnail":"https://i.ytimg.com/vi/XPAP9YFeEfg/mqdefault.jpg","viewCount":"840","playlistId":"PLEkQk5xrP-tlEerGoLa1AFy-2XvQ-sovv","playlistName":"شرح صحيح البخاري - أ.د. يسري جبر (كاملا)","category":"حديث"},{"id":"oPsGhO0Fuhc","title":"النهي عن أكل لحوم كل ذي ناب من السباع | أ.د. يسري جبر","publishedAt":"2022-04-03T15:30:07Z","duration":"PT27M2S","thumbnail":"https://i.ytimg.com/vi/oPsGhO0Fuhc/mqdefault.jpg","viewCount":"839","playlistId":"PLEkQk5xrP-tnl7vb7KeAoPd5ZlqKKW8KV","playlistName":"شرح كتاب بهجة النفوس أ.د . يسرى جبر","category":"متنوع"},{"id":"_rsq1cJ88Jc","title":"166- معنى (النون - التنوين - نَعَمْ - نِعْمَ)  - شرح الإتقان في علوم القرآن","publishedAt":"2023-10-30T06:00:24Z","duration":"PT26M21S","thumbnail":"https://i.ytimg.com/vi/_rsq1cJ88Jc/mqdefault.jpg","viewCount":"839","playlistId":"PLEkQk5xrP-tlPw10KGJKagu7zm4Ry2Tge","playlistName":"شرح الإتقان في علوم القرآن","category":"تفسير"},{"id":"jFGUFu0AAXE","title":"162- التنافس على الدنيا - شرح مسند الإمام أحمد رضي الله تعالى عنه","publishedAt":"2025-07-18T09:01:47Z","duration":"PT30M32S","thumbnail":"https://i.ytimg.com/vi/jFGUFu0AAXE/mqdefault.jpg","viewCount":"839","playlistId":"PLEkQk5xrP-tkKprIuGrSdEuBSMsyg5We1","playlistName":"شرح مسند الإمام أحمد بن حنبل","category":"متنوع"},{"id":"R4AznXxbB4Y","title":"خطاب الاعتبار","publishedAt":"2020-10-05T06:32:12Z","duration":"PT23M53S","thumbnail":"https://i.ytimg.com/vi/R4AznXxbB4Y/mqdefault.jpg","viewCount":"838","playlistId":"PLEkQk5xrP-tnW3iBL7HkKziOFCFZbTlf0","playlistName":"شرح البرهان في علوم القرآن - أ.د. يسري جبر","category":"تفسير"},{"id":"bt6RdgBBzpI","title":"حَولَ الإِسْرَاءِ والمِعْرَاج  د. يسري جبر","publishedAt":"2015-05-16T16:37:44Z","duration":"PT34M45S","thumbnail":"https://i.ytimg.com/vi/bt6RdgBBzpI/mqdefault.jpg","viewCount":"837","playlistId":"PLEkQk5xrP-tlArtGpeLWaqNM7h7IDeAVC","playlistName":"خطب الجمعة أ.د. يسري جبر","category":"خطب"},{"id":"Kfe7F-xhSP8","title":"446- النهي عن المَنِّ بالعَطِيَّة ونحوه - شرح دليل الفالحين","publishedAt":"2023-05-14T08:59:00Z","duration":"PT22M18S","thumbnail":"https://i.ytimg.com/vi/Kfe7F-xhSP8/mqdefault.jpg","viewCount":"835","playlistId":"PLEkQk5xrP-tkc9DXvSLguqX5-FYp6ASR4","playlistName":"دليل الفالحين لطرق رياض الصالحين","category":"متنوع"},{"id":"APyVTqiFezI","title":"159- درء الحدود بالشبهات - شرح مسند الإمام أحمد رضي الله تعالى عنه","publishedAt":"2025-04-18T09:00:30Z","duration":"PT22M29S","thumbnail":"https://i.ytimg.com/vi/APyVTqiFezI/mqdefault.jpg","viewCount":"835","playlistId":"PLEkQk5xrP-tkKprIuGrSdEuBSMsyg5We1","playlistName":"شرح مسند الإمام أحمد بن حنبل","category":"متنوع"},{"id":"zivoDSFavIs","title":"شرح صحيح البخاري - كتاب الحوالات","publishedAt":"2017-05-10T19:19:25Z","duration":"PT31M25S","thumbnail":"https://i.ytimg.com/vi/zivoDSFavIs/mqdefault.jpg","viewCount":"835","playlistId":"PLEkQk5xrP-tlEerGoLa1AFy-2XvQ-sovv","playlistName":"شرح صحيح البخاري - أ.د. يسري جبر (كاملا)","category":"حديث"},{"id":"8ek-eD34AR0","title":"شرح صحيح البخاري - كتاب فضل الصلا‎ة في مسجد مكة والمدينة","publishedAt":"2016-12-30T16:31:51Z","duration":"PT41M15S","thumbnail":"https://i.ytimg.com/vi/8ek-eD34AR0/mqdefault.jpg","viewCount":"835","playlistId":"PLEkQk5xrP-tlEerGoLa1AFy-2XvQ-sovv","playlistName":"شرح صحيح البخاري - أ.د. يسري جبر (كاملا)","category":"حديث"},{"id":"QJ0aZoaejhw","title":"143- لا يَجزي ولدٌ والدًا إلَّا أنْ يجِدهُ مملوكًا فيشتريَهُ فيُعتقَهُ - شرح دليل الفالحين","publishedAt":"2021-10-18T06:21:37Z","duration":"PT25M28S","thumbnail":"https://i.ytimg.com/vi/QJ0aZoaejhw/mqdefault.jpg","viewCount":"834","playlistId":"PLEkQk5xrP-tkc9DXvSLguqX5-FYp6ASR4","playlistName":"دليل الفالحين لطرق رياض الصالحين","category":"متنوع"},{"id":"hntt_hxbukA","title":"كيفية تشميت العاطس بعد حمده؟ | مجالس رمضانية","publishedAt":"2023-04-06T15:00:33Z","duration":"PT38M30S","thumbnail":"https://i.ytimg.com/vi/hntt_hxbukA/mqdefault.jpg","viewCount":"834","playlistId":"PLEkQk5xrP-tnl7vb7KeAoPd5ZlqKKW8KV","playlistName":"شرح كتاب بهجة النفوس أ.د . يسرى جبر","category":"متنوع"},{"id":"Qi7jqkTx3DI","title":"47- صفة الصبح والشفق وما تجب به الصلاة | شرح سنن الدار قطني رضي الله عنه","publishedAt":"2024-12-07T09:00:32Z","duration":"PT49M51S","thumbnail":"https://i.ytimg.com/vi/Qi7jqkTx3DI/mqdefault.jpg","viewCount":"834","playlistId":"PLEkQk5xrP-tk_MCBZ706ORCw6gFtFyaGj","playlistName":"شرح سنن الإمام الدارقطني","category":"متنوع"},{"id":"dVSqDo99WFE","title":"شرح صحيح البخاري - كتاب الإجارة من باب ٨","publishedAt":"2017-05-09T12:11:36Z","duration":"PT44M2S","thumbnail":"https://i.ytimg.com/vi/dVSqDo99WFE/mqdefault.jpg","viewCount":"833","playlistId":"PLEkQk5xrP-tlEerGoLa1AFy-2XvQ-sovv","playlistName":"شرح صحيح البخاري - أ.د. يسري جبر (كاملا)","category":"حديث"},{"id":"c4i0LY3IO60","title":"مَنْ لم يعرف قدر النعم بوجدانها، عرفها بوجود فقدانها","publishedAt":"2017-09-03T18:43:55Z","duration":"PT10M21S","thumbnail":"https://i.ytimg.com/vi/c4i0LY3IO60/mqdefault.jpg","viewCount":"831","playlistId":"PLEkQk5xrP-tkI_meE148wc7V7XHlB0WPb","playlistName":"من الحكم العطائية  د. يسري جبر","category":"متنوع"},{"id":"GNca20yeIfw","title":"كلمة الدكتور يسري في ليلة الجمعة بالوادي المقدس","publishedAt":"2016-11-11T04:28:22Z","duration":"PT13M9S","thumbnail":"https://i.ytimg.com/vi/GNca20yeIfw/mqdefault.jpg","viewCount":"831","playlistId":"PLEkQk5xrP-tmJzNvLntpzW0uPanPzxA0c","playlistName":"لقاءات ومحاضرات","category":"متنوع"},{"id":"zzpk2wiMbWY","title":"سورة الأنعام من أولها","publishedAt":"2016-11-28T11:27:35Z","duration":"PT19M53S","thumbnail":"https://i.ytimg.com/vi/zzpk2wiMbWY/mqdefault.jpg","viewCount":"831","playlistId":"PLEkQk5xrP-tnmTYsyW6xNdyfhPq0Bhrhj","playlistName":"مقرأة الفجر - القُرْآنُ الكَرِيمُ - خَتْمَةُ التَّدَبُّرِ  أ.د. يسري جبر","category":"متنوع"},{"id":"1gS7uyJaBD0","title":"607- (لو) حرف امتناع لامتناع، وامتناع لوجوب - شرح البرهان في علوم القرآن","publishedAt":"2022-11-30T05:00:02Z","duration":"PT21M52S","thumbnail":"https://i.ytimg.com/vi/1gS7uyJaBD0/mqdefault.jpg","viewCount":"831","playlistId":"PLEkQk5xrP-tnW3iBL7HkKziOFCFZbTlf0","playlistName":"شرح البرهان في علوم القرآن - أ.د. يسري جبر","category":"تفسير"},{"id":"Tyft6jD4Wxs","title":"268- الوفاءُ بالعهد وإنجاز الوعد - شرح دليل الفالحين","publishedAt":"2022-06-15T05:00:11Z","duration":"PT21M15S","thumbnail":"https://i.ytimg.com/vi/Tyft6jD4Wxs/mqdefault.jpg","viewCount":"830","playlistId":"PLEkQk5xrP-tkc9DXvSLguqX5-FYp6ASR4","playlistName":"دليل الفالحين لطرق رياض الصالحين","category":"متنوع"},{"id":"mo2_M7MNYrA","title":"509- أسبابُ التنكير - شرح البرهان في علوم القرآن","publishedAt":"2022-05-18T05:10:00Z","duration":"PT25M32S","thumbnail":"https://i.ytimg.com/vi/mo2_M7MNYrA/mqdefault.jpg","viewCount":"830","playlistId":"PLEkQk5xrP-tnW3iBL7HkKziOFCFZbTlf0","playlistName":"شرح البرهان في علوم القرآن - أ.د. يسري جبر","category":"تفسير"}],"total":7670,"page":169,"pageSize":24,"totalPages":320}