{"items":[{"id":"b057IdMVr3U","title":"شرح صحيح البخاري كتاب الفتن من أوله","publishedAt":"2018-12-28T12:22:48Z","duration":"PT34M57S","thumbnail":"https://i.ytimg.com/vi/b057IdMVr3U/mqdefault.jpg","viewCount":"2124","playlistId":"PLEkQk5xrP-tlEerGoLa1AFy-2XvQ-sovv","playlistName":"شرح صحيح البخاري - أ.د. يسري جبر (كاملا)","category":"حديث"},{"id":"M6dZnClpiO0","title":"١٥٩ - حديث رحمة الله تعالی لعباده د. يسري جبر","publishedAt":"2018-06-04T12:13:57Z","duration":"PT23M18S","thumbnail":"https://i.ytimg.com/vi/M6dZnClpiO0/mqdefault.jpg","viewCount":"2123","playlistId":"PLEkQk5xrP-tnl7vb7KeAoPd5ZlqKKW8KV","playlistName":"شرح كتاب بهجة النفوس أ.د . يسرى جبر","category":"متنوع"},{"id":"QZlDD_dGFOY","title":"ما هي شروط قبول العمل الصالح؟","publishedAt":"2024-08-12T18:13:32Z","duration":"PT8M12S","thumbnail":"https://i.ytimg.com/vi/QZlDD_dGFOY/mqdefault.jpg","viewCount":"2122","playlistId":"PLEkQk5xrP-tlArtGpeLWaqNM7h7IDeAVC","playlistName":"خطب الجمعة أ.د. يسري جبر","category":"خطب"},{"id":"WLW4G30GDps","title":"أنواع الخطابات الموجهة للنبي ﷺ في القرآن","publishedAt":"2024-11-23T17:17:41Z","duration":"PT17M42S","thumbnail":"https://i.ytimg.com/vi/WLW4G30GDps/mqdefault.jpg","viewCount":"2117","playlistId":"PLEkQk5xrP-tlArtGpeLWaqNM7h7IDeAVC","playlistName":"خطب الجمعة أ.د. يسري جبر","category":"خطب"},{"id":"zCuEnwt7k-8","title":"كيف تنتمي إلى دينك ووطنك؟","publishedAt":"2022-12-16T18:00:25Z","duration":"PT12M47S","thumbnail":"https://i.ytimg.com/vi/zCuEnwt7k-8/mqdefault.jpg","viewCount":"2116","playlistId":"PLEkQk5xrP-tlArtGpeLWaqNM7h7IDeAVC","playlistName":"خطب الجمعة أ.د. يسري جبر","category":"خطب"},{"id":"rJsuWne5-FE","title":"الحضرة الصديقية","publishedAt":"2025-01-24T10:30:25Z","duration":"PT41M16S","thumbnail":"https://i.ytimg.com/vi/rJsuWne5-FE/mqdefault.jpg","viewCount":"2116","playlistId":"PLEkQk5xrP-tlB8lmbwjAKR8KRgiykGKhb","playlistName":"حضرات يسرية ومدائح نبوية","category":"متنوع"},{"id":"5BwdhUEgkhI","title":"كيفية الاختلاف مع العلماء | مجالس رمضانية","publishedAt":"2024-04-03T14:30:04Z","duration":"PT34M13S","thumbnail":"https://i.ytimg.com/vi/5BwdhUEgkhI/mqdefault.jpg","viewCount":"2112","playlistId":"PLEkQk5xrP-tkeI_WVPfuoTJO46aVkpaz0","playlistName":"شرح كتاب ميزان الاعتدال لحفظ الدين والأحوال","category":"متنوع"},{"id":"MI1TB8M7a5Q","title":"34- خير نساء العالمين - شرح مسند الإمام أحمد","publishedAt":"2023-10-27T06:07:36Z","duration":"PT31M40S","thumbnail":"https://i.ytimg.com/vi/MI1TB8M7a5Q/mqdefault.jpg","viewCount":"2112","playlistId":"PLEkQk5xrP-tkKprIuGrSdEuBSMsyg5We1","playlistName":"شرح مسند الإمام أحمد بن حنبل","category":"متنوع"},{"id":"ribnonDgVto","title":"كيف تجعل حب آل البيت طريقك إلى الجنة؟","publishedAt":"2025-09-29T16:30:31Z","duration":"PT8M32S","thumbnail":"https://i.ytimg.com/vi/ribnonDgVto/mqdefault.jpg","viewCount":"2109","playlistId":"PLEkQk5xrP-tlArtGpeLWaqNM7h7IDeAVC","playlistName":"خطب الجمعة أ.د. يسري جبر","category":"خطب"},{"id":"TXrGjefO2NE","title":"43- ماذا تفعل اذا اختلف العلماء في الفتاوى؟ | شرح مختصر الفتوحات المكية","publishedAt":"2025-05-19T18:00:34Z","duration":"PT51M26S","thumbnail":"https://i.ytimg.com/vi/TXrGjefO2NE/mqdefault.jpg","viewCount":"2109","playlistId":"PLEkQk5xrP-tnpkdZki6rPTtMak1bnI5g-","playlistName":"شرح كتاب مختصر الفتوحات المكية المسمى لواقح الأنوار القدسية","category":"متنوع"},{"id":"rMqs5UZ6ZzE","title":"ما هي صفات الشخص البخيل وكيفية علاجه؟ | مجالس رمضانية","publishedAt":"2025-03-19T15:01:17Z","duration":"PT26M50S","thumbnail":"https://i.ytimg.com/vi/rMqs5UZ6ZzE/mqdefault.jpg","viewCount":"2109","playlistId":"PLEkQk5xrP-tkeI_WVPfuoTJO46aVkpaz0","playlistName":"شرح كتاب ميزان الاعتدال لحفظ الدين والأحوال","category":"متنوع"},{"id":"wOf59LACOXc","title":"63- \"…التَّفكُّر في عظيم مخلوقات الله تعالى وفناء الدنيا…\" شرح دليل الفالحين","publishedAt":"2021-05-20T20:38:19Z","duration":"PT30M34S","thumbnail":"https://i.ytimg.com/vi/wOf59LACOXc/mqdefault.jpg","viewCount":"2108","playlistId":"PLEkQk5xrP-tkc9DXvSLguqX5-FYp6ASR4","playlistName":"دليل الفالحين لطرق رياض الصالحين","category":"متنوع"},{"id":"4ZO0KUqNgR0","title":"آداب شرب الماء في الإسلام | أ.د. يسري جبر","publishedAt":"2022-04-13T15:30:00Z","duration":"PT39M47S","thumbnail":"https://i.ytimg.com/vi/4ZO0KUqNgR0/mqdefault.jpg","viewCount":"2108","playlistId":"PLEkQk5xrP-tnl7vb7KeAoPd5ZlqKKW8KV","playlistName":"شرح كتاب بهجة النفوس أ.د . يسرى جبر","category":"متنوع"},{"id":"03hsNTI7N8c","title":"منازل السائرين للإمام الهروى المجلس الثانى والخمسون قسم الحقائق أبواب المكاشفة والمشاهدة والمعاينة","publishedAt":"2015-08-22T18:27:26Z","duration":"PT1H3M27S","thumbnail":"https://i.ytimg.com/vi/03hsNTI7N8c/mqdefault.jpg","viewCount":"2105","playlistId":"PLEkQk5xrP-tnLYi_5_tSRVBwqcs7ISV7Y","playlistName":"شرح كتاب منازل السائرين للإمام الهروي","category":"متنوع"},{"id":"up4OJY804H0","title":"329- الحث على سور وآيات مخصوصة - شرح دليل الفالحين","publishedAt":"2022-11-08T09:00:28Z","duration":"PT47M29S","thumbnail":"https://i.ytimg.com/vi/up4OJY804H0/mqdefault.jpg","viewCount":"2102","playlistId":"PLEkQk5xrP-tkc9DXvSLguqX5-FYp6ASR4","playlistName":"دليل الفالحين لطرق رياض الصالحين","category":"متنوع"},{"id":"VAP_69X7QJ4","title":"شرح صحيح البخاري ( كتاب العلم مجلس ٦ )","publishedAt":"2016-08-21T10:15:01Z","duration":"PT33M58S","thumbnail":"https://i.ytimg.com/vi/VAP_69X7QJ4/mqdefault.jpg","viewCount":"2095","playlistId":"PLEkQk5xrP-tlEerGoLa1AFy-2XvQ-sovv","playlistName":"شرح صحيح البخاري - أ.د. يسري جبر (كاملا)","category":"حديث"},{"id":"32_8sYnJAlU","title":"253- أنا زعيمٌ ببيتٍ في رَبَضِ الجنةِ لمَن تَرَكَ المِراءَ وإن كان مُحِقًّا - شرح دليل الفالحين","publishedAt":"2022-05-25T05:35:00Z","duration":"PT37M58S","thumbnail":"https://i.ytimg.com/vi/32_8sYnJAlU/mqdefault.jpg","viewCount":"2095","playlistId":"PLEkQk5xrP-tkc9DXvSLguqX5-FYp6ASR4","playlistName":"دليل الفالحين لطرق رياض الصالحين","category":"متنوع"},{"id":"lPSYxFtVYpQ","title":"21- شروط التوبة\"1\"- شرح كتاب دليل الفالحين.","publishedAt":"2021-02-21T06:53:56Z","duration":"PT28M42S","thumbnail":"https://i.ytimg.com/vi/lPSYxFtVYpQ/mqdefault.jpg","viewCount":"2094","playlistId":"PLEkQk5xrP-tkc9DXvSLguqX5-FYp6ASR4","playlistName":"دليل الفالحين لطرق رياض الصالحين","category":"متنوع"},{"id":"pZYeUl2IWek","title":"أبويا عايزني مهندس وأنا حلمي أكون دكتور! | نصيحة للوالدين المتحكمين في حياة أبنائهم","publishedAt":"2024-03-19T18:00:25Z","duration":"PT10M47S","thumbnail":"https://i.ytimg.com/vi/pZYeUl2IWek/mqdefault.jpg","viewCount":"2093","playlistId":"PLEkQk5xrP-tm8ZIu74nTOZN9KJUJu416J","playlistName":"مقاطع مُهمَّة (يُسريَّات) أ.د. يسري جبر","category":"متنوع"},{"id":"LHnsGYx_cVA","title":"حَمَلَةُ العَرْشِ. أ.د.يسري جبر","publishedAt":"2019-12-31T14:30:18Z","duration":"PT1M15S","thumbnail":"https://i.ytimg.com/vi/LHnsGYx_cVA/mqdefault.jpg","viewCount":"2093","playlistId":"PLEkQk5xrP-tm8ZIu74nTOZN9KJUJu416J","playlistName":"مقاطع مُهمَّة (يُسريَّات) أ.د. يسري جبر","category":"متنوع"},{"id":"Mg89rVNhFnM","title":"شرح صحيح البخاري - كتاب السلم","publishedAt":"2017-05-06T19:34:47Z","duration":"PT38M19S","thumbnail":"https://i.ytimg.com/vi/Mg89rVNhFnM/mqdefault.jpg","viewCount":"2092","playlistId":"PLEkQk5xrP-tlEerGoLa1AFy-2XvQ-sovv","playlistName":"شرح صحيح البخاري - أ.د. يسري جبر (كاملا)","category":"حديث"},{"id":"7ieWuZN8pMg","title":"شرح البرهان في علوم القرآن - النوع ٢ - تكملة أنواع ارتباط الآي بعضها ببعض","publishedAt":"2019-08-27T16:27:42Z","duration":"PT31M18S","thumbnail":"https://i.ytimg.com/vi/7ieWuZN8pMg/mqdefault.jpg","viewCount":"2092","playlistId":"PLEkQk5xrP-tnW3iBL7HkKziOFCFZbTlf0","playlistName":"شرح البرهان في علوم القرآن - أ.د. يسري جبر","category":"تفسير"},{"id":"NfIcf4ovFMM","title":"أخلاق النبي ﷺ مع أعدائه","publishedAt":"2023-02-13T18:00:13Z","duration":"PT8M17S","thumbnail":"https://i.ytimg.com/vi/NfIcf4ovFMM/mqdefault.jpg","viewCount":"2091","playlistId":"PLEkQk5xrP-tlArtGpeLWaqNM7h7IDeAVC","playlistName":"خطب الجمعة أ.د. يسري جبر","category":"خطب"},{"id":"f-DMF628Qi0","title":"شرح كتاب الحدود من سنن الترمذي - المجلس الثامن","publishedAt":"2015-06-30T05:34:53Z","duration":"PT22M13S","thumbnail":"https://i.ytimg.com/vi/f-DMF628Qi0/mqdefault.jpg","viewCount":"2090","playlistId":"PLEkQk5xrP-tnu6of679SvxdVx0qSrJzmb","playlistName":"شرح سنن الإمام الترمذي رضى الله عنه د. يسري جبر","category":"متنوع"}],"total":7670,"page":104,"pageSize":24,"totalPages":320}