{"items":[{"id":"sks4uPvB4Yw","title":"شرح صحيح البخاري - كتاب الجهاد والسير من باب ١٨","publishedAt":"2017-07-30T21:44:27Z","duration":"PT29M46S","thumbnail":"https://i.ytimg.com/vi/sks4uPvB4Yw/mqdefault.jpg","viewCount":"617","playlistId":"PLEkQk5xrP-tlEerGoLa1AFy-2XvQ-sovv","playlistName":"شرح صحيح البخاري - أ.د. يسري جبر (كاملا)","category":"حديث"},{"id":"tcOFrmq0v9M","title":"مقطع من احتفال المولد 2013 - د. يسري رشدي","publishedAt":"2013-04-24T11:49:31Z","duration":"PT1M6S","thumbnail":"https://i.ytimg.com/vi/tcOFrmq0v9M/mqdefault.jpg","viewCount":"617","playlistId":"PLEkQk5xrP-tm8ZIu74nTOZN9KJUJu416J","playlistName":"مقاطع مُهمَّة (يُسريَّات) أ.د. يسري جبر","category":"متنوع"},{"id":"4bhZbzefTKE","title":"مقرأة  سورة النحل من أولها","publishedAt":"2017-08-14T11:01:42Z","duration":"PT30M17S","thumbnail":"https://i.ytimg.com/vi/4bhZbzefTKE/mqdefault.jpg","viewCount":"617","playlistId":"PLEkQk5xrP-tnmTYsyW6xNdyfhPq0Bhrhj","playlistName":"مقرأة الفجر - القُرْآنُ الكَرِيمُ - خَتْمَةُ التَّدَبُّرِ  أ.د. يسري جبر","category":"متنوع"},{"id":"I3AQ4jO8dJ4","title":"شرح البرهان في علوم القرآن - النوع ١٤ - معرفة تقسيمه بحسب سوره وترتيب السور والآيات وعددها","publishedAt":"2019-11-02T23:27:34Z","duration":"PT16M44S","thumbnail":"https://i.ytimg.com/vi/I3AQ4jO8dJ4/mqdefault.jpg","viewCount":"617","playlistId":"PLEkQk5xrP-tnW3iBL7HkKziOFCFZbTlf0","playlistName":"شرح البرهان في علوم القرآن - أ.د. يسري جبر","category":"تفسير"},{"id":"-L6Goc50zfI","title":"شرح البرهان في علوم القرآن - النوع ٩ - ما يشبه تنزيل المدينة في السور المكية","publishedAt":"2019-10-10T11:19:58Z","duration":"PT15M35S","thumbnail":"https://i.ytimg.com/vi/-L6Goc50zfI/mqdefault.jpg","viewCount":"616","playlistId":"PLEkQk5xrP-tnW3iBL7HkKziOFCFZbTlf0","playlistName":"شرح البرهان في علوم القرآن - أ.د. يسري جبر","category":"تفسير"},{"id":"cAjtlydGmb0","title":"شرح صحيح الإمام البخاري رضي الله عنه - كتاب الدعوات (الدعاء عند الكرب)المجلس الرابع د. يسري جبر","publishedAt":"2017-05-07T15:30:16Z","duration":"PT37M33S","thumbnail":"https://i.ytimg.com/vi/cAjtlydGmb0/mqdefault.jpg","viewCount":"616","playlistId":"PLEkQk5xrP-tmJuzaj4GWRenFoFx9gdbFX","playlistName":"شرح كتاب صحيح الإمام البخاري رضي الله تعالى عنه   أ.د. يسرى جبر","category":"حديث"},{"id":"xA8Mvr63a24","title":"شرح صحيح البخاري - كتاب الجهاد والسير من باب ٦٢","publishedAt":"2017-08-05T20:36:02Z","duration":"PT31M30S","thumbnail":"https://i.ytimg.com/vi/xA8Mvr63a24/mqdefault.jpg","viewCount":"615","playlistId":"PLEkQk5xrP-tlEerGoLa1AFy-2XvQ-sovv","playlistName":"شرح صحيح البخاري - أ.د. يسري جبر (كاملا)","category":"حديث"},{"id":"tMj0ZdEbmEo","title":"شرح صحيح البخاري كتاب الأدب من باب ٤٣","publishedAt":"2018-09-03T09:57:10Z","duration":"PT35M51S","thumbnail":"https://i.ytimg.com/vi/tMj0ZdEbmEo/mqdefault.jpg","viewCount":"615","playlistId":"PLEkQk5xrP-tlEerGoLa1AFy-2XvQ-sovv","playlistName":"شرح صحيح البخاري - أ.د. يسري جبر (كاملا)","category":"حديث"},{"id":"tKGe7OheOts","title":"143- معنى لبَّيك اللَّهُمَّ لبَّيك - شرح مسند الإمام أحمد رضي الله تعالى عنه","publishedAt":"2024-12-10T06:15:02Z","duration":"PT16M37S","thumbnail":"https://i.ytimg.com/vi/tKGe7OheOts/mqdefault.jpg","viewCount":"615","playlistId":"PLEkQk5xrP-tkKprIuGrSdEuBSMsyg5We1","playlistName":"شرح مسند الإمام أحمد بن حنبل","category":"متنوع"},{"id":"Q3kUqqtTSxw","title":"شرح البرهان في علوم القرآن - النوع ١٣ - نسخ القرآن في المصاحف","publishedAt":"2019-10-31T10:47:41Z","duration":"PT24M28S","thumbnail":"https://i.ytimg.com/vi/Q3kUqqtTSxw/mqdefault.jpg","viewCount":"615","playlistId":"PLEkQk5xrP-tnW3iBL7HkKziOFCFZbTlf0","playlistName":"شرح البرهان في علوم القرآن - أ.د. يسري جبر","category":"تفسير"},{"id":"XhvPk_4S3Mg","title":"شرح البرهان في علوم القرآن - النوع ١١ - القول في القراءات السبع ٥","publishedAt":"2019-10-25T19:12:13Z","duration":"PT23M27S","thumbnail":"https://i.ytimg.com/vi/XhvPk_4S3Mg/mqdefault.jpg","viewCount":"614","playlistId":"PLEkQk5xrP-tnW3iBL7HkKziOFCFZbTlf0","playlistName":"شرح البرهان في علوم القرآن - أ.د. يسري جبر","category":"تفسير"},{"id":"pTgW4c9zZb4","title":"244- الاختزال: أمثلة حذف الفعل وحذف الحرف - شرح الإتقان في علوم القرآن","publishedAt":"2024-06-23T09:06:27Z","duration":"PT38M19S","thumbnail":"https://i.ytimg.com/vi/pTgW4c9zZb4/mqdefault.jpg","viewCount":"614","playlistId":"PLEkQk5xrP-tlPw10KGJKagu7zm4Ry2Tge","playlistName":"شرح الإتقان في علوم القرآن","category":"تفسير"},{"id":"mIIc1YJ8ryg","title":"شرح صحيح البخاري كتاب الأدب من باب ٥٨","publishedAt":"2018-09-06T15:49:09Z","duration":"PT32M47S","thumbnail":"https://i.ytimg.com/vi/mIIc1YJ8ryg/mqdefault.jpg","viewCount":"613","playlistId":"PLEkQk5xrP-tlEerGoLa1AFy-2XvQ-sovv","playlistName":"شرح صحيح البخاري - أ.د. يسري جبر (كاملا)","category":"حديث"},{"id":"1_A6Dl9G0rA","title":"شرح صحيح البخاري كتاب التفسير فى سورة النساء من أولها","publishedAt":"2018-03-17T14:20:40Z","duration":"PT28M32S","thumbnail":"https://i.ytimg.com/vi/1_A6Dl9G0rA/mqdefault.jpg","viewCount":"613","playlistId":"PLEkQk5xrP-tlEerGoLa1AFy-2XvQ-sovv","playlistName":"شرح صحيح البخاري - أ.د. يسري جبر (كاملا)","category":"حديث"},{"id":"yEtaYmtIxZM","title":"547- معنى حرف (إذ) - شرح البرهان في علوم القرآن","publishedAt":"2022-08-16T05:35:00Z","duration":"PT18M58S","thumbnail":"https://i.ytimg.com/vi/yEtaYmtIxZM/mqdefault.jpg","viewCount":"613","playlistId":"PLEkQk5xrP-tnW3iBL7HkKziOFCFZbTlf0","playlistName":"شرح البرهان في علوم القرآن - أ.د. يسري جبر","category":"تفسير"},{"id":"oUQ1_Ti8NDY","title":"وضع النداء موضع التعجّب - شرح البرهان في علوم القرآن","publishedAt":"2021-12-09T21:19:19Z","duration":"PT8M34S","thumbnail":"https://i.ytimg.com/vi/oUQ1_Ti8NDY/mqdefault.jpg","viewCount":"613","playlistId":"PLEkQk5xrP-tnW3iBL7HkKziOFCFZbTlf0","playlistName":"شرح البرهان في علوم القرآن - أ.د. يسري جبر","category":"تفسير"},{"id":"5kJ8TmyU9po","title":"شرح سنن الدارمي كتاب النكاح من أوله","publishedAt":"2019-08-05T11:20:27Z","duration":"PT45M5S","thumbnail":"https://i.ytimg.com/vi/5kJ8TmyU9po/mqdefault.jpg","viewCount":"613","playlistId":"PLEkQk5xrP-tmAg-FuWjY057X_h5NmGmAa","playlistName":"شرح سنن الدارمي - أ.د. يسري جبر (كاملا)","category":"متنوع"},{"id":"bdGIZTTEQXs","title":"شرح صحيح البخاري كتاب التوحيد من باب ١٣","publishedAt":"2019-02-02T21:34:05Z","duration":"PT31M6S","thumbnail":"https://i.ytimg.com/vi/bdGIZTTEQXs/mqdefault.jpg","viewCount":"613","playlistId":"PLEkQk5xrP-tlEerGoLa1AFy-2XvQ-sovv","playlistName":"شرح صحيح البخاري - أ.د. يسري جبر (كاملا)","category":"حديث"},{"id":"Dc9s7RD89iU","title":"219- أنواع الخطاب في القرآن - شرح الإتقان في علوم القرآن","publishedAt":"2024-03-21T07:00:05Z","duration":"PT32M30S","thumbnail":"https://i.ytimg.com/vi/Dc9s7RD89iU/mqdefault.jpg","viewCount":"612","playlistId":"PLEkQk5xrP-tlPw10KGJKagu7zm4Ry2Tge","playlistName":"شرح الإتقان في علوم القرآن","category":"تفسير"},{"id":"KkIx-fFCmN0","title":"مقرأة سورة الانفطار من أولها","publishedAt":"2019-07-02T09:32:07Z","duration":"PT21M5S","thumbnail":"https://i.ytimg.com/vi/KkIx-fFCmN0/mqdefault.jpg","viewCount":"612","playlistId":"PLEkQk5xrP-tnmTYsyW6xNdyfhPq0Bhrhj","playlistName":"مقرأة الفجر - القُرْآنُ الكَرِيمُ - خَتْمَةُ التَّدَبُّرِ  أ.د. يسري جبر","category":"متنوع"},{"id":"IEGjATIEBWY","title":"22- شرح اللؤلؤ والمرجان كتاب الحيض من باب ٢٤","publishedAt":"2020-01-07T07:48:29Z","duration":"PT27M42S","thumbnail":"https://i.ytimg.com/vi/IEGjATIEBWY/mqdefault.jpg","viewCount":"612","playlistId":"PLEkQk5xrP-tmKNjtYLfhATC37QdIsTMe0","playlistName":"شرح كتاب اللؤلؤ والمرجان فيما اتفق عليه الشيخان إماما المحدثين البخاري ومسلم. أ.د. يسري جبر","category":"حديث"},{"id":"W-3QC6gA_Aw","title":"شرح صحيح البخاري   كتاب المغازي من باب ٩","publishedAt":"2017-12-21T16:09:13Z","duration":"PT34M38S","thumbnail":"https://i.ytimg.com/vi/W-3QC6gA_Aw/mqdefault.jpg","viewCount":"612","playlistId":"PLEkQk5xrP-tlEerGoLa1AFy-2XvQ-sovv","playlistName":"شرح صحيح البخاري - أ.د. يسري جبر (كاملا)","category":"حديث"},{"id":"oOiuyJObduo","title":"188- قاعدةٌ: الفرق بين (بررة - أبرار ، إخوة - إخوان) - شرح الإتقان في علوم القرآن","publishedAt":"2023-12-24T07:07:38Z","duration":"PT28M34S","thumbnail":"https://i.ytimg.com/vi/oOiuyJObduo/mqdefault.jpg","viewCount":"612","playlistId":"PLEkQk5xrP-tlPw10KGJKagu7zm4Ry2Tge","playlistName":"شرح الإتقان في علوم القرآن","category":"تفسير"},{"id":"dfXCTdf2Sq4","title":"130- حكم أداء العمرة في أشهر الحج - شرح مسند الإمام أحمد رضي الله تعالى عنه","publishedAt":"2024-10-25T06:00:19Z","duration":"PT35M33S","thumbnail":"https://i.ytimg.com/vi/dfXCTdf2Sq4/mqdefault.jpg","viewCount":"611","playlistId":"PLEkQk5xrP-tkKprIuGrSdEuBSMsyg5We1","playlistName":"شرح مسند الإمام أحمد بن حنبل","category":"متنوع"}],"total":7670,"page":199,"pageSize":24,"totalPages":320}