{"items":[{"id":"4cQBTbsNE6s","title":"19- ุฅููู ุงูููู ูุชุจู ุงูุญุณููุงุชู ูุงูุณูููููุฆูุงุชู ุซููู ุจูููููู ุฐูู...\" ุดุฑุญ ูุชุงุจ ุฏููู ุงููุงูุญูู.","publishedAt":"2021-02-15T07:12:59Z","duration":"PT31M6S","thumbnail":"https://i.ytimg.com/vi/4cQBTbsNE6s/mqdefault.jpg","viewCount":"2604","playlistId":"PLEkQk5xrP-tkc9DXvSLguqX5-FYp6ASR4","playlistName":"ุฏููู ุงููุงูุญูู ูุทุฑู ุฑูุงุถ ุงูุตุงูุญูู","category":"ูุชููุน"},{"id":"VXjzV2eAV60","title":"ุดุฑุญ ููุงุฒู ุงูุณุงุฆุฑูู - ุงููุฌูุณ (47) ุฏุฑุฌุงุช ุจุงุจ ุงูุฎูููู | ุฃ.ุฏ. ูุณุฑู ุฌุจุฑ","publishedAt":"2024-07-24T17:56:04Z","duration":"PT35M37S","thumbnail":"https://i.ytimg.com/vi/VXjzV2eAV60/mqdefault.jpg","viewCount":"2603","playlistId":"PLEkQk5xrP-tmiUfQ-2Tsn7QIak4EsvaZW","playlistName":"ูุชุงุจ ุงูุชูุณูุฑ ุงููุนูู ุจุดุฑุญ ูุนุงูู ููุงุฒู ุงูุณุงุฆุฑูู (ุชุตูู) - ุฏ.ูุณุฑู ุฌุจุฑ","category":"ุชุตูู"},{"id":"06Ry9VJCvhM","title":"13- ููููุงูููู ููุงูุณููููุนู ููุงูุฅูุจูุตูุงุฑู *** ูููููู ุงูุฅููููู ุงูููุงุนููู ุงูููุฎูุชูุงุฑู","publishedAt":"2022-08-28T19:45:00Z","duration":"PT52M38S","thumbnail":"https://i.ytimg.com/vi/06Ry9VJCvhM/mqdefault.jpg","viewCount":"2602","playlistId":"PLEkQk5xrP-tmNuYT8JAh6clwa4krsgkNo","playlistName":"ุดุฑุญ ูุชุงุจ ุงูููุชููุญุงุช ุงูููุณุฑูููุฉ ูู ุนูุงุฆุฏ ุงูุฃููููุฉ ุงูููุญูููุฏูููุฉ","category":"ูุชููุน"},{"id":"pVjZMWpcXoo","title":"ูู ูููู ุงูุงูุชูุงุน ุจุงูุฃูุณุงุจ ููู ุงูููุงูุฉุ","publishedAt":"2024-11-15T18:47:01Z","duration":"PT11M20S","thumbnail":"https://i.ytimg.com/vi/pVjZMWpcXoo/mqdefault.jpg","viewCount":"2597","playlistId":"PLEkQk5xrP-tlArtGpeLWaqNM7h7IDeAVC","playlistName":"ุฎุทุจ ุงูุฌูุนุฉ ุฃ.ุฏ. ูุณุฑู ุฌุจุฑ","category":"ุฎุทุจ"},{"id":"HCU7lYSfVc4","title":"ุดุฑุญ ุงูุฎุฑูุฏุฉ ุงูุจููุฉ ูู ุนูู ุงูุชูุญูุฏ | ุฌุงูุฑุชุง - ุฅูุฏูููุณูุง ฒ๐","publishedAt":"2023-02-25T18:00:14Z","duration":"PT1H4M18S","thumbnail":"https://i.ytimg.com/vi/HCU7lYSfVc4/mqdefault.jpg","viewCount":"2597","playlistId":"PLEkQk5xrP-tm8ZIu74nTOZN9KJUJu416J","playlistName":"ููุงุทุน ููููููุฉ (ููุณุฑูููุงุช) ุฃ.ุฏ. ูุณุฑู ุฌุจุฑ","category":"ูุชููุน"},{"id":"AqLV7DoGxPY","title":"ุงูุฏูู ุงููุตูุญุฉ","publishedAt":"2020-12-20T17:43:42Z","duration":"PT8M38S","thumbnail":"https://i.ytimg.com/vi/AqLV7DoGxPY/mqdefault.jpg","viewCount":"2597","playlistId":"PLEkQk5xrP-tlArtGpeLWaqNM7h7IDeAVC","playlistName":"ุฎุทุจ ุงูุฌูุนุฉ ุฃ.ุฏ. ูุณุฑู ุฌุจุฑ","category":"ุฎุทุจ"},{"id":"Pvo0QfveC6I","title":"49- ุฃุณุฑุงุฑ ุงูุณุฌูุฏ ูุฃูุฑุจ ูุญุธุฉ ุจููู ูุจูู ุงููู | ุดุฑุญ ูุฎุชุตุฑ ุงููุชูุญุงุช ุงููููุฉ","publishedAt":"2025-07-26T18:10:03Z","duration":"PT32M14S","thumbnail":"https://i.ytimg.com/vi/Pvo0QfveC6I/mqdefault.jpg","viewCount":"2593","playlistId":"PLEkQk5xrP-tnpkdZki6rPTtMak1bnI5g-","playlistName":"ุดุฑุญ ูุชุงุจ ูุฎุชุตุฑ ุงููุชูุญุงุช ุงููููุฉ ุงููุณูู ููุงูุญ ุงูุฃููุงุฑ ุงููุฏุณูุฉ","category":"ูุชููุน"},{"id":"doT9cgDG4EQ","title":"42-\"ูููู ููุฑูุฏู ุงูููููู ุจููู ุฎูููุฑูุงุ ููุตูุจู ูููููู\" ุงูุญุฏูุซ( 15) ุจุงุจ ุงูุตููุจุฑ - ุดุฑุญ ุฏููู ุงููุงูุญูู","publishedAt":"2021-04-09T05:21:45Z","duration":"PT33M8S","thumbnail":"https://i.ytimg.com/vi/doT9cgDG4EQ/mqdefault.jpg","viewCount":"2592","playlistId":"PLEkQk5xrP-tkc9DXvSLguqX5-FYp6ASR4","playlistName":"ุฏููู ุงููุงูุญูู ูุทุฑู ุฑูุงุถ ุงูุตุงูุญูู","category":"ูุชููุน"},{"id":"ZZhYHI2NDqo","title":"ุฃูุถู ุงูุฃุนูุงู ูุงุณุชูุจุงู ุงูุนุงู ุงููุฌุฑู ุงูุฌุฏูุฏ","publishedAt":"2021-08-10T18:15:03Z","duration":"PT40M26S","thumbnail":"https://i.ytimg.com/vi/ZZhYHI2NDqo/mqdefault.jpg","viewCount":"2592","playlistId":"PLEkQk5xrP-tlArtGpeLWaqNM7h7IDeAVC","playlistName":"ุฎุทุจ ุงูุฌูุนุฉ ุฃ.ุฏ. ูุณุฑู ุฌุจุฑ","category":"ุฎุทุจ"},{"id":"sAUxljXEkcg","title":"ูุถู ุตูุฉ ุงูุฑุญู | ุฃ.ุฏ. ูุณุฑู ุฌุจุฑ","publishedAt":"2022-04-26T15:30:11Z","duration":"PT41M3S","thumbnail":"https://i.ytimg.com/vi/sAUxljXEkcg/mqdefault.jpg","viewCount":"2586","playlistId":"PLEkQk5xrP-tnl7vb7KeAoPd5ZlqKKW8KV","playlistName":"ุดุฑุญ ูุชุงุจ ุจูุฌุฉ ุงููููุณ ุฃ.ุฏ . ูุณุฑู ุฌุจุฑ","category":"ูุชููุน"},{"id":"-KRpcDGP1-w","title":"ููุงุฐุง ูุง ูุดุนุฑ ุจุงููุฑุจ ูู ุงููู ุฑุบู ูุซุฑุฉ ุงูุทุงุนุงุชุ","publishedAt":"2025-10-15T19:00:00Z","duration":"PT11M24S","thumbnail":"https://i.ytimg.com/vi/-KRpcDGP1-w/mqdefault.jpg","viewCount":"2584","playlistId":"PLEkQk5xrP-tlArtGpeLWaqNM7h7IDeAVC","playlistName":"ุฎุทุจ ุงูุฌูุนุฉ ุฃ.ุฏ. ูุณุฑู ุฌุจุฑ","category":"ุฎุทุจ"},{"id":"w9IaE_Cj1yo","title":"203- ยซููุณ ูุงุจู ุขุฏู ุญููู ูู ุณููู ูุฐู ุงูุฎูุตุงู: ุจูุชู ูุณููููุ ูุซูุจู ูููุงุฑู ุนูุฑุชููโฆยป ุดุฑุญ ุฏููู ุงููุงูุญูู","publishedAt":"2022-02-18T07:04:48Z","duration":"PT35M9S","thumbnail":"https://i.ytimg.com/vi/w9IaE_Cj1yo/mqdefault.jpg","viewCount":"2584","playlistId":"PLEkQk5xrP-tkc9DXvSLguqX5-FYp6ASR4","playlistName":"ุฏููู ุงููุงูุญูู ูุทุฑู ุฑูุงุถ ุงูุตุงูุญูู","category":"ูุชููุน"},{"id":"IzgdyjQQJ5s","title":"ุธูุฑ ุงููุณุงุฏ ูู ุงูุจุฑ ูุงูุจุญุฑ ุจูุง ูุณุจุช ุฃูุฏู ุงููุงุณ","publishedAt":"2014-10-03T19:26:38Z","duration":"PT36M57S","thumbnail":"https://i.ytimg.com/vi/IzgdyjQQJ5s/mqdefault.jpg","viewCount":"2580","playlistId":"PLEkQk5xrP-tm8ZIu74nTOZN9KJUJu416J","playlistName":"ููุงุทุน ููููููุฉ (ููุณุฑูููุงุช) ุฃ.ุฏ. ูุณุฑู ุฌุจุฑ","category":"ูุชููุน"},{"id":"H79K50fmMwQ","title":"ููุงุฐุง ูุญุงุณุจูุง ุงููู ุนูู ุฃุนูุงููุง ููู ููุชูุจุฉ ุนูููุงุ","publishedAt":"2025-03-09T18:30:16Z","duration":"PT14M45S","thumbnail":"https://i.ytimg.com/vi/H79K50fmMwQ/mqdefault.jpg","viewCount":"2580","playlistId":"PLEkQk5xrP-tlArtGpeLWaqNM7h7IDeAVC","playlistName":"ุฎุทุจ ุงูุฌูุนุฉ ุฃ.ุฏ. ูุณุฑู ุฌุจุฑ","category":"ุฎุทุจ"},{"id":"0xvKxu6V9Es","title":"ููู ุชุตุจุฑ ุนูู ุงูุจูุงุก ููุง ุตุจุฑ ุขู ุงูุจูุชุ","publishedAt":"2025-10-21T18:45:54Z","duration":"PT16M13S","thumbnail":"https://i.ytimg.com/vi/0xvKxu6V9Es/mqdefault.jpg","viewCount":"2577","playlistId":"PLEkQk5xrP-tm8ZIu74nTOZN9KJUJu416J","playlistName":"ููุงุทุน ููููููุฉ (ููุณุฑูููุงุช) ุฃ.ุฏ. ูุณุฑู ุฌุจุฑ","category":"ูุชููุน"},{"id":"P2NIXRlrnzk","title":"ูู ุงููุจู ๏ทบ ูู ุฃูู ุฎูู ุงูููุ","publishedAt":"2024-09-17T16:37:38Z","duration":"PT11M26S","thumbnail":"https://i.ytimg.com/vi/P2NIXRlrnzk/mqdefault.jpg","viewCount":"2577","playlistId":"PLEkQk5xrP-tlArtGpeLWaqNM7h7IDeAVC","playlistName":"ุฎุทุจ ุงูุฌูุนุฉ ุฃ.ุฏ. ูุณุฑู ุฌุจุฑ","category":"ุฎุทุจ"},{"id":"8m6QREa2mms","title":"2012-02-19 ุฃุญุชูุงู ุฏ  ูุณุฑู ุฌุจุฑ ุจุงููููุฏ ุจุงูุจุฏุฑุดูู.avi","publishedAt":"2012-03-11T04:23:29Z","duration":"PT2H26M15S","thumbnail":"https://i.ytimg.com/vi/8m6QREa2mms/mqdefault.jpg","viewCount":"2575","playlistId":"PLEkQk5xrP-tmJzNvLntpzW0uPanPzxA0c","playlistName":"ููุงุกุงุช ููุญุงุถุฑุงุช","category":"ูุชููุน"},{"id":"9ljYf5Ixyko","title":"ุตูููููุง ุนูููููู ููุนูููู ุขูููู  ุฃ.ุฏ. ูุณุฑู ุฌุจุฑ","publishedAt":"2020-04-05T12:42:03Z","duration":"PT1M9S","thumbnail":"https://i.ytimg.com/vi/9ljYf5Ixyko/mqdefault.jpg","viewCount":"2574","playlistId":"PLEkQk5xrP-tm8ZIu74nTOZN9KJUJu416J","playlistName":"ููุงุทุน ููููููุฉ (ููุณุฑูููุงุช) ุฃ.ุฏ. ูุณุฑู ุฌุจุฑ","category":"ูุชููุน"},{"id":"BuqKsmZj8P0","title":"ุงูุญูุงุฉ ููุงุญ    ุฏ. ูุณุฑู ุฌุจุฑ","publishedAt":"2016-11-05T21:20:06Z","duration":"PT49M49S","thumbnail":"https://i.ytimg.com/vi/BuqKsmZj8P0/mqdefault.jpg","viewCount":"2572","playlistId":"PLEkQk5xrP-tlArtGpeLWaqNM7h7IDeAVC","playlistName":"ุฎุทุจ ุงูุฌูุนุฉ ุฃ.ุฏ. ูุณุฑู ุฌุจุฑ","category":"ุฎุทุจ"},{"id":"dWz81uEoJo0","title":"ุงุจูู ุจูุณุฃู ููู ุฑุจูุงุ ุฅุฒุงู ุฃุฑุฏ ุนููู ุตุญุ","publishedAt":"2025-09-26T19:45:25Z","duration":"PT25M42S","thumbnail":"https://i.ytimg.com/vi/dWz81uEoJo0/mqdefault.jpg","viewCount":"2570","playlistId":"PLEkQk5xrP-tlArtGpeLWaqNM7h7IDeAVC","playlistName":"ุฎุทุจ ุงูุฌูุนุฉ ุฃ.ุฏ. ูุณุฑู ุฌุจุฑ","category":"ุฎุทุจ"},{"id":"mnA8zaMPkJs","title":"ูู ููุฌุฏ ูุจุงุฆุฑ ุบูุฑ ุงูุณุจุน ุงูููุจูุงุชุ","publishedAt":"2024-10-09T19:40:35Z","duration":"PT23M54S","thumbnail":"https://i.ytimg.com/vi/mnA8zaMPkJs/mqdefault.jpg","viewCount":"2561","playlistId":"PLEkQk5xrP-tnZyxWbCSqTSMV9BJLUL-zN","playlistName":"ุดุฑุญ ูุชุงุจ ุชูููุฑ ุงูุจุตูุฑุฉ ุจุจูุงู ุนูุงูุงุช ุงููุจูุฑุฉ","category":"ูุชููุน"},{"id":"jLytC9QaPv4","title":"ูููุฉ ูุถููุฉ ุงูุฏูุชูุฑ ูุณุฑู ุฌุจุฑ ูู ูุคุชูุฑ ุงูุชุตูู ุงูุนุงููู ุงูุณุงุจุน ูู ููุฏูุดู 1/2","publishedAt":"2018-04-13T11:42:59Z","duration":"PT16M47S","thumbnail":"https://i.ytimg.com/vi/jLytC9QaPv4/mqdefault.jpg","viewCount":"2557","playlistId":"PLEkQk5xrP-tm8ZIu74nTOZN9KJUJu416J","playlistName":"ููุงุทุน ููููููุฉ (ููุณุฑูููุงุช) ุฃ.ุฏ. ูุณุฑู ุฌุจุฑ","category":"ูุชููุน"},{"id":"joU3ciSZR9g","title":"ุดุฑุญ ุงูุจุฑูุงู ูู ุนููู ุงููุฑุขู - ุงูููุน ูข - ุฃููุงุน ุงุฑุชุจุงุท ุงูุขู ุจุนุถูุง ุจุจุนุถ","publishedAt":"2019-08-26T10:19:44Z","duration":"PT29M58S","thumbnail":"https://i.ytimg.com/vi/joU3ciSZR9g/mqdefault.jpg","viewCount":"2556","playlistId":"PLEkQk5xrP-tnW3iBL7HkKziOFCFZbTlf0","playlistName":"ุดุฑุญ ุงูุจุฑูุงู ูู ุนููู ุงููุฑุขู - ุฃ.ุฏ. ูุณุฑู ุฌุจุฑ","category":"ุชูุณูุฑ"},{"id":"QoMdufZwtP8","title":"ุดุฑุญ ุฑุณุงูุฉ ุงูุชูุญูุฏ ููุนุงุฑู ุจุงููู ุงูุดูุฎ ุฃุฑุณูุงู ุงูุฏูุดููู ูุฏูุณ ุงููู ุณุฑู ( ุงููุฌูุณ ุงูุณุงุฏุณ ูุงูุฃุฎูุฑ )","publishedAt":"2014-04-25T20:33:58Z","duration":"PT21M55S","thumbnail":"https://i.ytimg.com/vi/QoMdufZwtP8/mqdefault.jpg","viewCount":"2556","playlistId":"PLEkQk5xrP-tlaIFSMSnIOJlJRcxLeTosY","playlistName":"ุดุฑุญ ุฑุณุงูุฉ ุงูุชูุญูุฏ ููุนุงุฑู ุจุงููู ุงูุดูุฎ ุฃุฑุณูุงู ุงูุฏูุดูู ูุฏุณ ุงููู ุณุฑู","category":"ุนููุฏุฉ"}],"total":7670,"page":93,"pageSize":24,"totalPages":320}