{"items":[{"id":"-b0IkCYaHI4","title":"قراءة القرآن (من آية ١٤ سورة آل عمران)","publishedAt":"2016-06-06T23:27:27Z","duration":"PT16M56S","thumbnail":"https://i.ytimg.com/vi/-b0IkCYaHI4/mqdefault.jpg","viewCount":"582","playlistId":"PLEkQk5xrP-tnmTYsyW6xNdyfhPq0Bhrhj","playlistName":"مقرأة الفجر - القُرْآنُ الكَرِيمُ - خَتْمَةُ التَّدَبُّرِ  أ.د. يسري جبر","category":"متنوع"},{"id":"w7IOmfMEKGw","title":"شرح صحيح البخاري - كتاب الجزية والموادعة من باب ٩","publishedAt":"2017-09-08T22:03:42Z","duration":"PT38M2S","thumbnail":"https://i.ytimg.com/vi/w7IOmfMEKGw/mqdefault.jpg","viewCount":"582","playlistId":"PLEkQk5xrP-tlEerGoLa1AFy-2XvQ-sovv","playlistName":"شرح صحيح البخاري - أ.د. يسري جبر (كاملا)","category":"حديث"},{"id":"W5k4JloVfAk","title":"( 130 ) حديث لا هجرة بعد الفتح - د. يسري جبر","publishedAt":"2017-06-14T10:33:10Z","duration":"PT29M56S","thumbnail":"https://i.ytimg.com/vi/W5k4JloVfAk/mqdefault.jpg","viewCount":"582","playlistId":"PLEkQk5xrP-tnl7vb7KeAoPd5ZlqKKW8KV","playlistName":"شرح كتاب بهجة النفوس أ.د . يسرى جبر","category":"متنوع"},{"id":"NUl8ouYjB9o","title":"مقرأة سورة الانشقاق من أولها","publishedAt":"2019-07-08T12:12:05Z","duration":"PT17M36S","thumbnail":"https://i.ytimg.com/vi/NUl8ouYjB9o/mqdefault.jpg","viewCount":"581","playlistId":"PLEkQk5xrP-tnmTYsyW6xNdyfhPq0Bhrhj","playlistName":"مقرأة الفجر - القُرْآنُ الكَرِيمُ - خَتْمَةُ التَّدَبُّرِ  أ.د. يسري جبر","category":"متنوع"},{"id":"t9ZX0BfqjDI","title":"المجلس الثامن عشر من الحديث (١٦٠) حديث إسراء النبي صلى الله عليه وآله وسلم ومعراجه أ. د. يسري جبر","publishedAt":"2019-05-13T15:44:52Z","duration":"PT31M49S","thumbnail":"https://i.ytimg.com/vi/t9ZX0BfqjDI/mqdefault.jpg","viewCount":"581","playlistId":"PLEkQk5xrP-tnl7vb7KeAoPd5ZlqKKW8KV","playlistName":"شرح كتاب بهجة النفوس أ.د . يسرى جبر","category":"متنوع"},{"id":"3a1DhC3QgWU","title":"شرح صحيح البخاري - كتاب الشهادات من باب ٥","publishedAt":"2017-06-21T18:34:54Z","duration":"PT20M47S","thumbnail":"https://i.ytimg.com/vi/3a1DhC3QgWU/mqdefault.jpg","viewCount":"581","playlistId":"PLEkQk5xrP-tlEerGoLa1AFy-2XvQ-sovv","playlistName":"شرح صحيح البخاري - أ.د. يسري جبر (كاملا)","category":"حديث"},{"id":"8fZvypl2xKE","title":"237- الإيجاز الجامع - شرح الإتقان في علوم القرآن","publishedAt":"2024-05-21T08:34:28Z","duration":"PT23M18S","thumbnail":"https://i.ytimg.com/vi/8fZvypl2xKE/mqdefault.jpg","viewCount":"581","playlistId":"PLEkQk5xrP-tlPw10KGJKagu7zm4Ry2Tge","playlistName":"شرح الإتقان في علوم القرآن","category":"تفسير"},{"id":"v3ZlEcoy2b4","title":"90- غريب القرآن(5) - ما جاء في سورة النبأ - شرح الإتقان في علوم القرآن","publishedAt":"2023-06-03T05:00:31Z","duration":"PT25M31S","thumbnail":"https://i.ytimg.com/vi/v3ZlEcoy2b4/mqdefault.jpg","viewCount":"580","playlistId":"PLEkQk5xrP-tlPw10KGJKagu7zm4Ry2Tge","playlistName":"شرح الإتقان في علوم القرآن","category":"تفسير"},{"id":"0qg9itl3xTs","title":"سورة النساء آية 32","publishedAt":"2016-08-20T06:28:12Z","duration":"PT24M6S","thumbnail":"https://i.ytimg.com/vi/0qg9itl3xTs/mqdefault.jpg","viewCount":"580","playlistId":"PLEkQk5xrP-tnmTYsyW6xNdyfhPq0Bhrhj","playlistName":"مقرأة الفجر - القُرْآنُ الكَرِيمُ - خَتْمَةُ التَّدَبُّرِ  أ.د. يسري جبر","category":"متنوع"},{"id":"cOD40Y2-sS8","title":"366- حكم مَن فَرَّقَ بيْنَ الصَّلَاةِ والزَّكَاةِ - شرح دليل الفالحين","publishedAt":"2022-12-26T09:00:16Z","duration":"PT34M35S","thumbnail":"https://i.ytimg.com/vi/cOD40Y2-sS8/mqdefault.jpg","viewCount":"580","playlistId":"PLEkQk5xrP-tkc9DXvSLguqX5-FYp6ASR4","playlistName":"دليل الفالحين لطرق رياض الصالحين","category":"متنوع"},{"id":"rW_g-i5Nepc","title":"33- شرح اللؤلؤ والمرجان كتاب المساجد ومواضع الصلاة من باب ٢٦","publishedAt":"2020-01-16T02:43:23Z","duration":"PT29M29S","thumbnail":"https://i.ytimg.com/vi/rW_g-i5Nepc/mqdefault.jpg","viewCount":"580","playlistId":"PLEkQk5xrP-tmKNjtYLfhATC37QdIsTMe0","playlistName":"شرح كتاب اللؤلؤ والمرجان فيما اتفق عليه الشيخان إماما المحدثين البخاري ومسلم. أ.د. يسري جبر","category":"حديث"},{"id":"ZjD3NuRycZE","title":"مقرأة سورة ق من آية ١٢","publishedAt":"2019-01-31T11:08:32Z","duration":"PT12M8S","thumbnail":"https://i.ytimg.com/vi/ZjD3NuRycZE/mqdefault.jpg","viewCount":"580","playlistId":"PLEkQk5xrP-tnmTYsyW6xNdyfhPq0Bhrhj","playlistName":"مقرأة الفجر - القُرْآنُ الكَرِيمُ - خَتْمَةُ التَّدَبُّرِ  أ.د. يسري جبر","category":"متنوع"},{"id":"7hPXXzjtWJM","title":"شرح صحيح البخاري كتاب التفسير فى سورة حم (الأحقاف ) من باب ١","publishedAt":"2018-04-20T18:08:08Z","duration":"PT44M46S","thumbnail":"https://i.ytimg.com/vi/7hPXXzjtWJM/mqdefault.jpg","viewCount":"580","playlistId":"PLEkQk5xrP-tlEerGoLa1AFy-2XvQ-sovv","playlistName":"شرح صحيح البخاري - أ.د. يسري جبر (كاملا)","category":"حديث"},{"id":"NODOQThT5oQ","title":"شرح صحيح البخاري - كتاب المكاتب","publishedAt":"2017-06-15T11:52:56Z","duration":"PT29M50S","thumbnail":"https://i.ytimg.com/vi/NODOQThT5oQ/mqdefault.jpg","viewCount":"580","playlistId":"PLEkQk5xrP-tlEerGoLa1AFy-2XvQ-sovv","playlistName":"شرح صحيح البخاري - أ.د. يسري جبر (كاملا)","category":"حديث"},{"id":"LDy1ZQIbEOg","title":"شرح صحيح البخاري - كتاب العتق من باب ١٥","publishedAt":"2017-06-14T11:54:22Z","duration":"PT32M47S","thumbnail":"https://i.ytimg.com/vi/LDy1ZQIbEOg/mqdefault.jpg","viewCount":"580","playlistId":"PLEkQk5xrP-tlEerGoLa1AFy-2XvQ-sovv","playlistName":"شرح صحيح البخاري - أ.د. يسري جبر (كاملا)","category":"حديث"},{"id":"QimJT_ua9so","title":"483- حكم استعمال آنية الذهب الفضة في الأكل والشرب والطهارة وسائر وجوه الاستعمال - شرح دليل الفالحين","publishedAt":"2023-06-22T08:59:00Z","duration":"PT21M12S","thumbnail":"https://i.ytimg.com/vi/QimJT_ua9so/mqdefault.jpg","viewCount":"580","playlistId":"PLEkQk5xrP-tkc9DXvSLguqX5-FYp6ASR4","playlistName":"دليل الفالحين لطرق رياض الصالحين","category":"متنوع"},{"id":"uxVty-pri_c","title":"شرح صحيح البخاري كتاب الأدب من باب ٦٩","publishedAt":"2018-09-09T19:22:54Z","duration":"PT38M46S","thumbnail":"https://i.ytimg.com/vi/uxVty-pri_c/mqdefault.jpg","viewCount":"579","playlistId":"PLEkQk5xrP-tlEerGoLa1AFy-2XvQ-sovv","playlistName":"شرح صحيح البخاري - أ.د. يسري جبر (كاملا)","category":"حديث"},{"id":"7Rqx7TXComc","title":"شرح البرهان في علوم القرآن - النوع ١١ - القول في القراءات السبع ٤","publishedAt":"2019-10-24T10:17:44Z","duration":"PT17M14S","thumbnail":"https://i.ytimg.com/vi/7Rqx7TXComc/mqdefault.jpg","viewCount":"579","playlistId":"PLEkQk5xrP-tnW3iBL7HkKziOFCFZbTlf0","playlistName":"شرح البرهان في علوم القرآن - أ.د. يسري جبر","category":"تفسير"},{"id":"asjP8g9cc7w","title":"شرح صحيح البخاري - كتاب الجهاد والسير من باب ١٨٣","publishedAt":"2017-08-23T17:52:21Z","duration":"PT40M56S","thumbnail":"https://i.ytimg.com/vi/asjP8g9cc7w/mqdefault.jpg","viewCount":"579","playlistId":"PLEkQk5xrP-tlEerGoLa1AFy-2XvQ-sovv","playlistName":"شرح صحيح البخاري - أ.د. يسري جبر (كاملا)","category":"حديث"},{"id":"fM8mWdrE4cQ","title":"شرح صحيح البخاري كتاب الدعوات من باب ٥","publishedAt":"2018-10-03T21:37:35Z","duration":"PT35M51S","thumbnail":"https://i.ytimg.com/vi/fM8mWdrE4cQ/mqdefault.jpg","viewCount":"579","playlistId":"PLEkQk5xrP-tlEerGoLa1AFy-2XvQ-sovv","playlistName":"شرح صحيح البخاري - أ.د. يسري جبر (كاملا)","category":"حديث"},{"id":"OSGj5u05cP0","title":"486- قاعدة في الضمائر (ألَّا يعود على مذكور، ولا معلوم بالسياق، أو غيره)- شرح البرهان في علوم القرآن","publishedAt":"2022-03-28T06:12:24Z","duration":"PT6M34S","thumbnail":"https://i.ytimg.com/vi/OSGj5u05cP0/mqdefault.jpg","viewCount":"578","playlistId":"PLEkQk5xrP-tnW3iBL7HkKziOFCFZbTlf0","playlistName":"شرح البرهان في علوم القرآن - أ.د. يسري جبر","category":"تفسير"},{"id":"tyNalDBqpMs","title":"ما ورد فيه مبيِّنًا للإجمال","publishedAt":"2020-09-19T05:19:00Z","duration":"PT23M45S","thumbnail":"https://i.ytimg.com/vi/tyNalDBqpMs/mqdefault.jpg","viewCount":"578","playlistId":"PLEkQk5xrP-tnW3iBL7HkKziOFCFZbTlf0","playlistName":"شرح البرهان في علوم القرآن - أ.د. يسري جبر","category":"تفسير"},{"id":"nseu6xUHhaM","title":"106- شرح اللؤلؤ والمرجان كتاب الحدود من الباب السادس","publishedAt":"2020-03-26T07:00:22Z","duration":"PT28M49S","thumbnail":"https://i.ytimg.com/vi/nseu6xUHhaM/mqdefault.jpg","viewCount":"578","playlistId":"PLEkQk5xrP-tmKNjtYLfhATC37QdIsTMe0","playlistName":"شرح كتاب اللؤلؤ والمرجان فيما اتفق عليه الشيخان إماما المحدثين البخاري ومسلم. أ.د. يسري جبر","category":"حديث"},{"id":"NKMHQIJo8RM","title":"18- الْجَمْعِ بَيْنَ الصَّلاَتَيْنِ فِى الْحَضَرِوَالسَّفَرِ قصرالصلاة فى السفر ك الموطأ د يسري جبر","publishedAt":"2016-06-02T23:00:58Z","duration":"PT50M44S","thumbnail":"https://i.ytimg.com/vi/NKMHQIJo8RM/mqdefault.jpg","viewCount":"578","playlistId":"PLEkQk5xrP-tnC6BRuqMjyO-484iqXeg0o","playlistName":"شرح كتاب الموطأ للإمام مالك","category":"متنوع"}],"total":7670,"page":206,"pageSize":24,"totalPages":320}