{"items":[{"id":"qVr7PB2F16s","title":"74- الفرق بين اللحد والشق | النَّبيُّ ﷺ له التصريف في الأحكام - شرح مسند الإمام أحمد رضي الله عنه","publishedAt":"2024-02-07T06:30:16Z","duration":"PT29M21S","thumbnail":"https://i.ytimg.com/vi/qVr7PB2F16s/mqdefault.jpg","viewCount":"954","playlistId":"PLEkQk5xrP-tkKprIuGrSdEuBSMsyg5We1","playlistName":"شرح مسند الإمام أحمد بن حنبل","category":"متنوع"},{"id":"-z7jK3GuRX4","title":"( 137 ) حديث عدم الاتكال علي العمل د. يسري جبر","publishedAt":"2017-07-02T15:35:47Z","duration":"PT25M59S","thumbnail":"https://i.ytimg.com/vi/-z7jK3GuRX4/mqdefault.jpg","viewCount":"954","playlistId":"PLEkQk5xrP-tnl7vb7KeAoPd5ZlqKKW8KV","playlistName":"شرح كتاب بهجة النفوس أ.د . يسرى جبر","category":"متنوع"},{"id":"cze9xqHYh0M","title":"229- فائدة التشبيه والمجاز والاستعارة في فهم معاني القرآن الكريم - شرح الإتقان في علوم القرآن","publishedAt":"2024-04-26T06:16:35Z","duration":"PT21M47S","thumbnail":"https://i.ytimg.com/vi/cze9xqHYh0M/mqdefault.jpg","viewCount":"953","playlistId":"PLEkQk5xrP-tlPw10KGJKagu7zm4Ry2Tge","playlistName":"شرح الإتقان في علوم القرآن","category":"تفسير"},{"id":"OZS75wFCNwU","title":"17- الأحاديث الواردة في صلاة الكسوف - شرح مسند الإمام الشافعي المجلس 17","publishedAt":"2021-08-16T05:39:09Z","duration":"PT53M21S","thumbnail":"https://i.ytimg.com/vi/OZS75wFCNwU/mqdefault.jpg","viewCount":"953","playlistId":"PLEkQk5xrP-tlDtaqY0qhNXAiZ19gaGzKI","playlistName":"شرح مسند الإمام محمد بن إدريس الشافعيّ رضي الله تعالى عنه","category":"فقه"},{"id":"k1U-zvD2w0o","title":"384- لا يَلِجُ النارَ رجلٌ بكَى من خَشيَةِ الله حتى يعودَ اللبَنُ في الضَّرْعِ - شرح دليل الفالحين","publishedAt":"2023-01-17T09:00:21Z","duration":"PT25M13S","thumbnail":"https://i.ytimg.com/vi/k1U-zvD2w0o/mqdefault.jpg","viewCount":"952","playlistId":"PLEkQk5xrP-tkc9DXvSLguqX5-FYp6ASR4","playlistName":"دليل الفالحين لطرق رياض الصالحين","category":"متنوع"},{"id":"7Mm1gfD8WGw","title":"198- فصلٌ: من الْمُتَشَابه آيَاتُ الصِّفات - معنى (النفْس) - شرح الإتقان في علوم القرآن","publishedAt":"2024-01-23T06:50:01Z","duration":"PT26M28S","thumbnail":"https://i.ytimg.com/vi/7Mm1gfD8WGw/mqdefault.jpg","viewCount":"951","playlistId":"PLEkQk5xrP-tlPw10KGJKagu7zm4Ry2Tge","playlistName":"شرح الإتقان في علوم القرآن","category":"تفسير"},{"id":"j2VUuW4KpNs","title":"425-فضيلة قضاء دَيْن الأب بعد موته ووصيته بالبنات خيرًا","publishedAt":"2023-04-10T05:00:25Z","duration":"PT41M20S","thumbnail":"https://i.ytimg.com/vi/j2VUuW4KpNs/mqdefault.jpg","viewCount":"951","playlistId":"PLEkQk5xrP-tkc9DXvSLguqX5-FYp6ASR4","playlistName":"دليل الفالحين لطرق رياض الصالحين","category":"متنوع"},{"id":"7STAq9AtfI8","title":"285- تكثير الأيدي على الطعام - شرح دليل الفالحين","publishedAt":"2022-08-07T05:45:00Z","duration":"PT46M25S","thumbnail":"https://i.ytimg.com/vi/7STAq9AtfI8/mqdefault.jpg","viewCount":"951","playlistId":"PLEkQk5xrP-tkc9DXvSLguqX5-FYp6ASR4","playlistName":"دليل الفالحين لطرق رياض الصالحين","category":"متنوع"},{"id":"n_k4lJa1-pw","title":"29- عَقْدُ السَّلَم (بيَعُ السَّلَف)- الحديث (679) من أبواب المعاملات","publishedAt":"2022-01-01T07:43:46Z","duration":"PT45M30S","thumbnail":"https://i.ytimg.com/vi/n_k4lJa1-pw/mqdefault.jpg","viewCount":"951","playlistId":"PLEkQk5xrP-tlDtaqY0qhNXAiZ19gaGzKI","playlistName":"شرح مسند الإمام محمد بن إدريس الشافعيّ رضي الله تعالى عنه","category":"فقه"},{"id":"mz7J85KwugU","title":"حول المولد النبوي الشريف (4)   د. يسري جبر","publishedAt":"2018-12-01T17:02:52Z","duration":"PT39M2S","thumbnail":"https://i.ytimg.com/vi/mz7J85KwugU/mqdefault.jpg","viewCount":"951","playlistId":"PLEkQk5xrP-tlArtGpeLWaqNM7h7IDeAVC","playlistName":"خطب الجمعة أ.د. يسري جبر","category":"خطب"},{"id":"NLBejSiRzP4","title":"مقرأة سورة يوسف من أولها","publishedAt":"2017-06-22T12:26:46Z","duration":"PT15M39S","thumbnail":"https://i.ytimg.com/vi/NLBejSiRzP4/mqdefault.jpg","viewCount":"950","playlistId":"PLEkQk5xrP-tnmTYsyW6xNdyfhPq0Bhrhj","playlistName":"مقرأة الفجر - القُرْآنُ الكَرِيمُ - خَتْمَةُ التَّدَبُّرِ  أ.د. يسري جبر","category":"متنوع"},{"id":"Vb7DvCeDiRQ","title":"93- تكملة ما جاء في مسند سيدنا العباس بن عبد المطلب رضي الله تعالى عنه (2)","publishedAt":"2024-04-14T07:16:57Z","duration":"PT27M39S","thumbnail":"https://i.ytimg.com/vi/Vb7DvCeDiRQ/mqdefault.jpg","viewCount":"949","playlistId":"PLEkQk5xrP-tkKprIuGrSdEuBSMsyg5We1","playlistName":"شرح مسند الإمام أحمد بن حنبل","category":"متنوع"},{"id":"z7RX4EquMbc","title":"فضل الصبر على الوباء | أ.د. يسري جبر","publishedAt":"2021-04-22T17:01:10Z","duration":"PT21M14S","thumbnail":"https://i.ytimg.com/vi/z7RX4EquMbc/mqdefault.jpg","viewCount":"949","playlistId":"PLEkQk5xrP-tnl7vb7KeAoPd5ZlqKKW8KV","playlistName":"شرح كتاب بهجة النفوس أ.د . يسرى جبر","category":"متنوع"},{"id":"tK9ww_wgxyM","title":"455- تحريم تشبُّه الرجال بالنساء وتشبُّه النساء بالرجال في لباسٍ وحركةٍ وغير ذلك - شرح دليل الفالحين","publishedAt":"2023-05-25T05:00:21Z","duration":"PT29M1S","thumbnail":"https://i.ytimg.com/vi/tK9ww_wgxyM/mqdefault.jpg","viewCount":"948","playlistId":"PLEkQk5xrP-tkc9DXvSLguqX5-FYp6ASR4","playlistName":"دليل الفالحين لطرق رياض الصالحين","category":"متنوع"},{"id":"-S3Oq6ZE6lU","title":"531- معنى كلمة \"سأل\" - شرح دليل الفالحين","publishedAt":"2022-06-21T05:00:00Z","duration":"PT8M59S","thumbnail":"https://i.ytimg.com/vi/-S3Oq6ZE6lU/mqdefault.jpg","viewCount":"948","playlistId":"PLEkQk5xrP-tnW3iBL7HkKziOFCFZbTlf0","playlistName":"شرح البرهان في علوم القرآن - أ.د. يسري جبر","category":"تفسير"},{"id":"gKZYc3GWVJA","title":"ما حكم الكلام أثناء خطبة الجمعة؟","publishedAt":"2025-10-03T18:00:31Z","duration":"PT11M33S","thumbnail":"https://i.ytimg.com/vi/gKZYc3GWVJA/mqdefault.jpg","viewCount":"947","playlistId":"PLEkQk5xrP-tkGXuZ9atE3k_7it12rUPTs","playlistName":"أسئلة المتابعين","category":"متنوع"},{"id":"T3XoeuahtC4","title":"521- قوله تعالى \"إِنَّا جَعَلْنَٰهُ قُرْءَٰنًا عَرَبِيًّا\" - شرح البرهان في علوم القرآن","publishedAt":"2022-06-03T05:00:17Z","duration":"PT30M7S","thumbnail":"https://i.ytimg.com/vi/T3XoeuahtC4/mqdefault.jpg","viewCount":"947","playlistId":"PLEkQk5xrP-tnW3iBL7HkKziOFCFZbTlf0","playlistName":"شرح البرهان في علوم القرآن - أ.د. يسري جبر","category":"تفسير"},{"id":"FUv9FYWXy0M","title":"31- حكم مَن ضحك في الصلاة - شرح سنن الإمام الدار قطني رضي الله عنه","publishedAt":"2024-02-10T11:34:19Z","duration":"PT35M47S","thumbnail":"https://i.ytimg.com/vi/FUv9FYWXy0M/mqdefault.jpg","viewCount":"946","playlistId":"PLEkQk5xrP-tk_MCBZ706ORCw6gFtFyaGj","playlistName":"شرح سنن الإمام الدارقطني","category":"متنوع"},{"id":"B4pRCELbeaE","title":"50- معرفة حُفَّاظ القرآن الكريم ورُواته - شرح الإتقان في علوم القرآن","publishedAt":"2023-04-09T05:30:02Z","duration":"PT30M41S","thumbnail":"https://i.ytimg.com/vi/B4pRCELbeaE/mqdefault.jpg","viewCount":"946","playlistId":"PLEkQk5xrP-tlPw10KGJKagu7zm4Ry2Tge","playlistName":"شرح الإتقان في علوم القرآن","category":"تفسير"},{"id":"cMOzh2Xh1II","title":"161- كتابُ البِرِّ والصِّلةِ والآداب","publishedAt":"2020-11-06T07:11:11Z","duration":"PT18M","thumbnail":"https://i.ytimg.com/vi/cMOzh2Xh1II/mqdefault.jpg","viewCount":"946","playlistId":"PLEkQk5xrP-tmKNjtYLfhATC37QdIsTMe0","playlistName":"شرح كتاب اللؤلؤ والمرجان فيما اتفق عليه الشيخان إماما المحدثين البخاري ومسلم. أ.د. يسري جبر","category":"حديث"},{"id":"SE0qGOyqDqA","title":"مقرأة سورة محمد من أولها","publishedAt":"2019-01-10T11:47:53Z","duration":"PT19M14S","thumbnail":"https://i.ytimg.com/vi/SE0qGOyqDqA/mqdefault.jpg","viewCount":"946","playlistId":"PLEkQk5xrP-tnmTYsyW6xNdyfhPq0Bhrhj","playlistName":"مقرأة الفجر - القُرْآنُ الكَرِيمُ - خَتْمَةُ التَّدَبُّرِ  أ.د. يسري جبر","category":"متنوع"},{"id":"FfKCsB8yTqQ","title":"منوعات إيمانية د. يسري جبر","publishedAt":"2016-07-16T15:04:51Z","duration":"PT46M25S","thumbnail":"https://i.ytimg.com/vi/FfKCsB8yTqQ/mqdefault.jpg","viewCount":"946","playlistId":"PLEkQk5xrP-tlArtGpeLWaqNM7h7IDeAVC","playlistName":"خطب الجمعة أ.د. يسري جبر","category":"خطب"},{"id":"dL6BnYKEmo4","title":"477- حكم تفضيل الوالد بعضَ أولادِه على بعضٍ في الهِبة - شرح دليل الفالحين","publishedAt":"2023-06-16T08:59:00Z","duration":"PT24M45S","thumbnail":"https://i.ytimg.com/vi/dL6BnYKEmo4/mqdefault.jpg","viewCount":"945","playlistId":"PLEkQk5xrP-tkc9DXvSLguqX5-FYp6ASR4","playlistName":"دليل الفالحين لطرق رياض الصالحين","category":"متنوع"},{"id":"QVU5NxccDD8","title":"369- مَن أنفق زوجين في سبيل الله، نُوديَ مِن أبواب الجَنَّة يا عبد الله هذا خير - شرح دليل الفالحين","publishedAt":"2022-12-30T05:00:09Z","duration":"PT38M14S","thumbnail":"https://i.ytimg.com/vi/QVU5NxccDD8/mqdefault.jpg","viewCount":"945","playlistId":"PLEkQk5xrP-tkc9DXvSLguqX5-FYp6ASR4","playlistName":"دليل الفالحين لطرق رياض الصالحين","category":"متنوع"}],"total":7675,"page":158,"pageSize":24,"totalPages":320}