{"items":[{"id":"9P2aVuSkMJA","title":"3- حديث الإسراء والمعراج بنبينا صلى الله عليه وآله وسلم (المجلس الثالث).   أ.د. يسري جبر","publishedAt":"2018-06-08T08:44:36Z","duration":"PT39M48S","thumbnail":"https://i.ytimg.com/vi/9P2aVuSkMJA/mqdefault.jpg","viewCount":"3794","playlistId":"PLEkQk5xrP-tnl7vb7KeAoPd5ZlqKKW8KV","playlistName":"شرح كتاب بهجة النفوس أ.د . يسرى جبر","category":"متنوع"},{"id":"Rawcx6HPYy4","title":"8- الخريدة البَهيَّة - أقسامُ الواجب العقلي والمستحيل والجائز","publishedAt":"2022-06-13T18:45:00Z","duration":"PT1H4M21S","thumbnail":"https://i.ytimg.com/vi/Rawcx6HPYy4/mqdefault.jpg","viewCount":"3792","playlistId":"PLEkQk5xrP-tmNuYT8JAh6clwa4krsgkNo","playlistName":"شرح كتاب الفُتُوحات اليُسريَّة في عقائد الأُمَّة المُحمَّديَّة","category":"متنوع"},{"id":"r9Qv0JpS-ro","title":"حقائق ومعاني حول روحانية النبي ﷺ","publishedAt":"2025-02-20T20:02:42Z","duration":"PT27M28S","thumbnail":"https://i.ytimg.com/vi/r9Qv0JpS-ro/mqdefault.jpg","viewCount":"3792","playlistId":"PLEkQk5xrP-tlArtGpeLWaqNM7h7IDeAVC","playlistName":"خطب الجمعة أ.د. يسري جبر","category":"خطب"},{"id":"JB5WU3IB7hY","title":"شرح الاسرائيليات في كتب تفاسير القرآن","publishedAt":"2024-07-11T19:08:07Z","duration":"PT40M4S","thumbnail":"https://i.ytimg.com/vi/JB5WU3IB7hY/mqdefault.jpg","viewCount":"3791","playlistId":"PLEkQk5xrP-tkSGrPLMt1BEmJ54cGWYgtp","playlistName":"كتابُ بِدَعِ التَفَاسِيرِ - أ.د. يسري جبر","category":"متنوع"},{"id":"qqO56X3lL2s","title":"كيف تجمع الناس وهم متفرقون؟","publishedAt":"2022-03-28T18:00:17Z","duration":"PT15M51S","thumbnail":"https://i.ytimg.com/vi/qqO56X3lL2s/mqdefault.jpg","viewCount":"3787","playlistId":"PLEkQk5xrP-tlArtGpeLWaqNM7h7IDeAVC","playlistName":"خطب الجمعة أ.د. يسري جبر","category":"خطب"},{"id":"vxhbzGROpgw","title":"الرسالة القشيرية - المجلس الثامن والأربعون - تكملة باب الزهد - أ.د. يسري جبر","publishedAt":"2019-02-09T18:24:36Z","duration":"PT42M35S","thumbnail":"https://i.ytimg.com/vi/vxhbzGROpgw/mqdefault.jpg","viewCount":"3785","playlistId":"PLEkQk5xrP-tkHAGOwIKr4pc5ehhyQ5HMJ","playlistName":"كتاب الرسالة القشيرية (تصوف) - د. يسري جبر","category":"تصوف"},{"id":"IG5p6beeDbs","title":"فوائدُ التلْبينةِ للمريض والمُكتئِب","publishedAt":"2020-06-14T15:51:11Z","duration":"PT9M57S","thumbnail":"https://i.ytimg.com/vi/IG5p6beeDbs/mqdefault.jpg","viewCount":"3780","playlistId":"PLEkQk5xrP-tm8ZIu74nTOZN9KJUJu416J","playlistName":"مقاطع مُهمَّة (يُسريَّات) أ.د. يسري جبر","category":"متنوع"},{"id":"zcXO2fARutg","title":"شرح دعاء سيد الاستغفار | مجالس رمضانية","publishedAt":"2023-04-11T15:00:50Z","duration":"PT37M45S","thumbnail":"https://i.ytimg.com/vi/zcXO2fARutg/mqdefault.jpg","viewCount":"3779","playlistId":"PLEkQk5xrP-tnl7vb7KeAoPd5ZlqKKW8KV","playlistName":"شرح كتاب بهجة النفوس أ.د . يسرى جبر","category":"متنوع"},{"id":"y_wX8QoEP1g","title":"الرسالة القشيرية - المجلس (106) بَابُ السماع ٣ | أ.د. يسري جبر","publishedAt":"2022-01-07T17:30:06Z","duration":"PT46M12S","thumbnail":"https://i.ytimg.com/vi/y_wX8QoEP1g/mqdefault.jpg","viewCount":"3776","playlistId":"PLEkQk5xrP-tkHAGOwIKr4pc5ehhyQ5HMJ","playlistName":"كتاب الرسالة القشيرية (تصوف) - د. يسري جبر","category":"تصوف"},{"id":"tEmLbvhC-cA","title":"ما الفرق بين التأويل والتفسير؟","publishedAt":"2022-02-08T18:00:45Z","duration":"PT8M23S","thumbnail":"https://i.ytimg.com/vi/tEmLbvhC-cA/mqdefault.jpg","viewCount":"3770","playlistId":"PLEkQk5xrP-tkGXuZ9atE3k_7it12rUPTs","playlistName":"أسئلة المتابعين","category":"متنوع"},{"id":"h0XKLFbHvPE","title":"قدرةُ الله عَزَّ وجَلَّ | أ.د. يسري جبر","publishedAt":"2022-08-14T18:00:22Z","duration":"PT8M25S","thumbnail":"https://i.ytimg.com/vi/h0XKLFbHvPE/mqdefault.jpg","viewCount":"3764","playlistId":"PLEkQk5xrP-tlArtGpeLWaqNM7h7IDeAVC","playlistName":"خطب الجمعة أ.د. يسري جبر","category":"خطب"},{"id":"x56TnjoCNeQ","title":"كيف تعامل النبي ﷺ مع الأزمات السياسية؟","publishedAt":"2022-10-29T18:00:32Z","duration":"PT20M57S","thumbnail":"https://i.ytimg.com/vi/x56TnjoCNeQ/mqdefault.jpg","viewCount":"3763","playlistId":"PLEkQk5xrP-tlArtGpeLWaqNM7h7IDeAVC","playlistName":"خطب الجمعة أ.د. يسري جبر","category":"خطب"},{"id":"AkJxW3sq3FE","title":"كيف نستقبل العام الهجري الجديد؟","publishedAt":"2024-07-06T19:08:30Z","duration":"PT16M2S","thumbnail":"https://i.ytimg.com/vi/AkJxW3sq3FE/mqdefault.jpg","viewCount":"3763","playlistId":"PLEkQk5xrP-tlArtGpeLWaqNM7h7IDeAVC","playlistName":"خطب الجمعة أ.د. يسري جبر","category":"خطب"},{"id":"2lCdGCR3PsE","title":"حول ليلة النصف من شعبان د. يسري جبر","publishedAt":"2015-05-30T19:17:57Z","duration":"PT48M24S","thumbnail":"https://i.ytimg.com/vi/2lCdGCR3PsE/mqdefault.jpg","viewCount":"3753","playlistId":"PLEkQk5xrP-tlArtGpeLWaqNM7h7IDeAVC","playlistName":"خطب الجمعة أ.د. يسري جبر","category":"خطب"},{"id":"ndtUu2v6i2w","title":"89- نبذة عن سيدنا الحسن بن عليّ بن أبي طالب رضي اللهُ تعالى عنه وعليه السلام","publishedAt":"2024-03-25T06:30:11Z","duration":"PT48M57S","thumbnail":"https://i.ytimg.com/vi/ndtUu2v6i2w/mqdefault.jpg","viewCount":"3752","playlistId":"PLEkQk5xrP-tkKprIuGrSdEuBSMsyg5We1","playlistName":"شرح مسند الإمام أحمد بن حنبل","category":"متنوع"},{"id":"sNN3puAoADM","title":"ما هي أنواع الزنا؟ | مجالس رمضانية","publishedAt":"2023-04-08T15:00:37Z","duration":"PT28M12S","thumbnail":"https://i.ytimg.com/vi/sNN3puAoADM/mqdefault.jpg","viewCount":"3751","playlistId":"PLEkQk5xrP-tnl7vb7KeAoPd5ZlqKKW8KV","playlistName":"شرح كتاب بهجة النفوس أ.د . يسرى جبر","category":"متنوع"},{"id":"k79Xmot4NoY","title":"بعد الطلاق,, كيف تتعامل مع أولادك؟","publishedAt":"2022-06-04T19:00:16Z","duration":"PT9M35S","thumbnail":"https://i.ytimg.com/vi/k79Xmot4NoY/mqdefault.jpg","viewCount":"3750","playlistId":"PLEkQk5xrP-tkGXuZ9atE3k_7it12rUPTs","playlistName":"أسئلة المتابعين","category":"متنوع"},{"id":"yTOOXtcp9NA","title":"هل للصدقة أوجه غير المال؟","publishedAt":"2021-06-15T18:46:35Z","duration":"PT18M58S","thumbnail":"https://i.ytimg.com/vi/yTOOXtcp9NA/mqdefault.jpg","viewCount":"3747","playlistId":"PLEkQk5xrP-tlArtGpeLWaqNM7h7IDeAVC","playlistName":"خطب الجمعة أ.د. يسري جبر","category":"خطب"},{"id":"uyq0ejH8J4E","title":"قسمة الله في عباده","publishedAt":"2020-10-23T17:46:50Z","duration":"PT4M16S","thumbnail":"https://i.ytimg.com/vi/uyq0ejH8J4E/mqdefault.jpg","viewCount":"3747","playlistId":"PLEkQk5xrP-tm8ZIu74nTOZN9KJUJu416J","playlistName":"مقاطع مُهمَّة (يُسريَّات) أ.د. يسري جبر","category":"متنوع"},{"id":"XDWi5Iy-EbY","title":"35- من هم أهل النار وما صفاتهم وأفعالهم؟ | شرح مختصر الفتوحات المكية","publishedAt":"2024-12-15T18:16:03Z","duration":"PT53M7S","thumbnail":"https://i.ytimg.com/vi/XDWi5Iy-EbY/mqdefault.jpg","viewCount":"3745","playlistId":"PLEkQk5xrP-tnpkdZki6rPTtMak1bnI5g-","playlistName":"شرح كتاب مختصر الفتوحات المكية المسمى لواقح الأنوار القدسية","category":"متنوع"},{"id":"_uKVQsLEOXk","title":"أدلة جواز التوسل بالأنبياء والأولياء في السنة النبوية","publishedAt":"2024-08-22T17:45:36Z","duration":"PT58M9S","thumbnail":"https://i.ytimg.com/vi/_uKVQsLEOXk/mqdefault.jpg","viewCount":"3743","playlistId":"PLEkQk5xrP-tm5wKaFaltLbztkXrGxixKu","playlistName":"شرح كتاب اتحاف الاذكياء بجواز التوسل بالأنبياء والأولياء","category":"متنوع"},{"id":"JeAuYap3w-Q","title":"لا أستطيع الخشوع في الصلاة ,, فماذا أفعل؟ | مجالس رمضانية","publishedAt":"2025-03-05T15:00:20Z","duration":"PT20M29S","thumbnail":"https://i.ytimg.com/vi/JeAuYap3w-Q/mqdefault.jpg","viewCount":"3740","playlistId":"PLEkQk5xrP-tkeI_WVPfuoTJO46aVkpaz0","playlistName":"شرح كتاب ميزان الاعتدال لحفظ الدين والأحوال","category":"متنوع"},{"id":"QARk5tfDoh0","title":"13- اخرج من أوصاف بشريتك عن كل وصف يناقض عبوديتك | شرح الحكم العطائية","publishedAt":"2025-01-10T18:58:56Z","duration":"PT45M23S","thumbnail":"https://i.ytimg.com/vi/QARk5tfDoh0/mqdefault.jpg","viewCount":"3740","playlistId":"PLEkQk5xrP-tmf5ToOwmW-q0JwxkapbrMN","playlistName":"شرح كتاب إرشاد البرية إلى بعض معاني الحكم العطائية","category":"متنوع"},{"id":"AwX-7jv6qkE","title":"110- “إنَّ الزَّمانَ قد استدار كهيئتِه يومَ خَلَق اللهُ السَّمواتِ والأرض…”- شرح دليل الفالحين","publishedAt":"2021-08-10T06:01:08Z","duration":"PT59M4S","thumbnail":"https://i.ytimg.com/vi/AwX-7jv6qkE/mqdefault.jpg","viewCount":"3734","playlistId":"PLEkQk5xrP-tkc9DXvSLguqX5-FYp6ASR4","playlistName":"دليل الفالحين لطرق رياض الصالحين","category":"متنوع"}],"total":7670,"page":75,"pageSize":24,"totalPages":320}