{"items":[{"id":"J2gyofOL4wg","title":"سبيل النجاة من فتنة الدجال","publishedAt":"2022-11-20T18:00:12Z","duration":"PT10M53S","thumbnail":"https://i.ytimg.com/vi/J2gyofOL4wg/mqdefault.jpg","viewCount":"6815","playlistId":"PLEkQk5xrP-tlArtGpeLWaqNM7h7IDeAVC","playlistName":"خطب الجمعة أ.د. يسري جبر","category":"خطب"},{"id":"OgirG_I7Q5A","title":"من علامات أخر الزمان | أ.د. يسري جبر","publishedAt":"2021-04-20T17:12:40Z","duration":"PT27M45S","thumbnail":"https://i.ytimg.com/vi/OgirG_I7Q5A/mqdefault.jpg","viewCount":"6810","playlistId":"PLEkQk5xrP-tnl7vb7KeAoPd5ZlqKKW8KV","playlistName":"شرح كتاب بهجة النفوس أ.د . يسرى جبر","category":"متنوع"},{"id":"HtJfdImWgvM","title":"راجع نفسك قبل أن يحاسبك الله","publishedAt":"2023-01-08T18:00:05Z","duration":"PT19M18S","thumbnail":"https://i.ytimg.com/vi/HtJfdImWgvM/mqdefault.jpg","viewCount":"6774","playlistId":"PLEkQk5xrP-tlArtGpeLWaqNM7h7IDeAVC","playlistName":"خطب الجمعة أ.د. يسري جبر","category":"خطب"},{"id":"bFv0sE0r8yM","title":"حب النبي ﷺ عبادة يتوسل بها إلى الله","publishedAt":"2020-06-02T17:20:37Z","duration":"PT13M","thumbnail":"https://i.ytimg.com/vi/bFv0sE0r8yM/mqdefault.jpg","viewCount":"6765","playlistId":"PLEkQk5xrP-tm8ZIu74nTOZN9KJUJu416J","playlistName":"مقاطع مُهمَّة (يُسريَّات) أ.د. يسري جبر","category":"متنوع"},{"id":"kNVRUANCbVc","title":"أمورٌ يُبديها ولا يبتديها","publishedAt":"2020-09-03T18:17:29Z","duration":"PT7M13S","thumbnail":"https://i.ytimg.com/vi/kNVRUANCbVc/mqdefault.jpg","viewCount":"6762","playlistId":"PLEkQk5xrP-tm8ZIu74nTOZN9KJUJu416J","playlistName":"مقاطع مُهمَّة (يُسريَّات) أ.د. يسري جبر","category":"متنوع"},{"id":"XQZHYD3kKDY","title":"الرسالة القشيرية - المجلس (58) بابُ الحَسَدِ وبابُ الغِيبَة أ.د. يسري جبر","publishedAt":"2019-07-20T19:09:20Z","duration":"PT47M30S","thumbnail":"https://i.ytimg.com/vi/XQZHYD3kKDY/mqdefault.jpg","viewCount":"6754","playlistId":"PLEkQk5xrP-tkHAGOwIKr4pc5ehhyQ5HMJ","playlistName":"كتاب الرسالة القشيرية (تصوف) - د. يسري جبر","category":"تصوف"},{"id":"gBdOGkVcxf8","title":"شرح كتاب نور اليقين في سيرة سيد المرسلين للشيخ الخضري رحمه الله (المجلس72) أ.د. يسري جبر","publishedAt":"2019-01-07T14:45:10Z","duration":"PT47M30S","thumbnail":"https://i.ytimg.com/vi/gBdOGkVcxf8/mqdefault.jpg","viewCount":"6754","playlistId":"PLEkQk5xrP-tl2t4NQx1IhKnAJCMzF0Nli","playlistName":"شرح كتاب نور اليقين في سيرة سيد المرسلين   د. يسري جبر","category":"سيرة"},{"id":"1yWQuRQXuNw","title":"حكم زيارة القبور؟","publishedAt":"2022-11-22T18:00:00Z","duration":"PT10M2S","thumbnail":"https://i.ytimg.com/vi/1yWQuRQXuNw/mqdefault.jpg","viewCount":"6749","playlistId":"PLEkQk5xrP-tkGXuZ9atE3k_7it12rUPTs","playlistName":"أسئلة المتابعين","category":"متنوع"},{"id":"X0-C1r1po14","title":"رُفِعَت الأَقْلاَمُ وَجَفَّت الصُحُف د. يسري جبر","publishedAt":"2015-05-23T05:50:25Z","duration":"PT38M24S","thumbnail":"https://i.ytimg.com/vi/X0-C1r1po14/mqdefault.jpg","viewCount":"6741","playlistId":"PLEkQk5xrP-tlArtGpeLWaqNM7h7IDeAVC","playlistName":"خطب الجمعة أ.د. يسري جبر","category":"خطب"},{"id":"g78r22Z2K1A","title":"شرح منظومة عَقِيدَةِ العَوَام - المجلس الثالث أ.د. يسري جبر","publishedAt":"2019-05-29T09:52:11Z","duration":"PT50M55S","thumbnail":"https://i.ytimg.com/vi/g78r22Z2K1A/mqdefault.jpg","viewCount":"6738","playlistId":"PLEkQk5xrP-tlc2t-K4tRFtzhmE-e6jziG","playlistName":"شرح عقيدة العوام - أ.د. يسري جبر","category":"عقيدة"},{"id":"jmTRAVYZnDY","title":"أنتَ معَ الأكوَانِ مَا لمْ تشْهَد المُكَوِّنَ، فإذا شَهِدتهُ كانت الأكوانُ مَعَك.","publishedAt":"2018-01-25T19:14:54Z","duration":"PT17M36S","thumbnail":"https://i.ytimg.com/vi/jmTRAVYZnDY/mqdefault.jpg","viewCount":"6738","playlistId":"PLEkQk5xrP-tkI_meE148wc7V7XHlB0WPb","playlistName":"من الحكم العطائية  د. يسري جبر","category":"متنوع"},{"id":"vZJWznlyMAg","title":"شرح كتاب نور اليقين في سيرة سيد المرسلين للشيخ الخضري رحمه الله (المجلس66) د. يسري جبر","publishedAt":"2018-11-27T18:28:48Z","duration":"PT49M39S","thumbnail":"https://i.ytimg.com/vi/vZJWznlyMAg/mqdefault.jpg","viewCount":"6718","playlistId":"PLEkQk5xrP-tl2t4NQx1IhKnAJCMzF0Nli","playlistName":"شرح كتاب نور اليقين في سيرة سيد المرسلين   د. يسري جبر","category":"سيرة"},{"id":"8-y6R-DOS8Q","title":"التوبة الصادقة","publishedAt":"2022-01-01T19:07:30Z","duration":"PT37M8S","thumbnail":"https://i.ytimg.com/vi/8-y6R-DOS8Q/mqdefault.jpg","viewCount":"6717","playlistId":"PLEkQk5xrP-tlArtGpeLWaqNM7h7IDeAVC","playlistName":"خطب الجمعة أ.د. يسري جبر","category":"خطب"},{"id":"rFcAfKXSu0I","title":"الفِكْرَةُ: سَيْرُ القَلْبِ، في مَيَادِينِ الأَغْيَارِ.","publishedAt":"2018-04-03T18:12:55Z","duration":"PT19M12S","thumbnail":"https://i.ytimg.com/vi/rFcAfKXSu0I/mqdefault.jpg","viewCount":"6713","playlistId":"PLEkQk5xrP-tkI_meE148wc7V7XHlB0WPb","playlistName":"من الحكم العطائية  د. يسري جبر","category":"متنوع"},{"id":"U_Ki19KV-rA","title":"ما هي السنن المهجورة في الصلاة؟","publishedAt":"2023-01-29T18:00:10Z","duration":"PT9M33S","thumbnail":"https://i.ytimg.com/vi/U_Ki19KV-rA/mqdefault.jpg","viewCount":"6708","playlistId":"PLEkQk5xrP-tlArtGpeLWaqNM7h7IDeAVC","playlistName":"خطب الجمعة أ.د. يسري جبر","category":"خطب"},{"id":"vw0xI3BYB_4","title":"!إذا خفت من الله ففر إليه","publishedAt":"2022-11-02T18:00:31Z","duration":"PT9M31S","thumbnail":"https://i.ytimg.com/vi/vw0xI3BYB_4/mqdefault.jpg","viewCount":"6701","playlistId":"PLEkQk5xrP-tm8ZIu74nTOZN9KJUJu416J","playlistName":"مقاطع مُهمَّة (يُسريَّات) أ.د. يسري جبر","category":"متنوع"},{"id":"Y2FURtG0sJM","title":"الرسالة القشيرية - المجلس (69) بَابُ الإِرَادَةِ. أ.د. يسري جبر","publishedAt":"2019-11-08T08:37:43Z","duration":"PT55M20S","thumbnail":"https://i.ytimg.com/vi/Y2FURtG0sJM/mqdefault.jpg","viewCount":"6701","playlistId":"PLEkQk5xrP-tkHAGOwIKr4pc5ehhyQ5HMJ","playlistName":"كتاب الرسالة القشيرية (تصوف) - د. يسري جبر","category":"تصوف"},{"id":"7eAX-Q0lqdY","title":"الرسالة القشيرية - المجلس (75) بَابُ الذِكْرِ. أ.د. يسري جبر","publishedAt":"2019-12-30T17:59:33Z","duration":"PT45M19S","thumbnail":"https://i.ytimg.com/vi/7eAX-Q0lqdY/mqdefault.jpg","viewCount":"6697","playlistId":"PLEkQk5xrP-tkHAGOwIKr4pc5ehhyQ5HMJ","playlistName":"كتاب الرسالة القشيرية (تصوف) - د. يسري جبر","category":"تصوف"},{"id":"J3_wF-RQMt8","title":"هل يجوز زيارة الموتى في العيد؟","publishedAt":"2022-05-01T19:30:01Z","duration":"PT8M4S","thumbnail":"https://i.ytimg.com/vi/J3_wF-RQMt8/mqdefault.jpg","viewCount":"6695","playlistId":"PLEkQk5xrP-tkGXuZ9atE3k_7it12rUPTs","playlistName":"أسئلة المتابعين","category":"متنوع"},{"id":"pqCQuGhTUaM","title":"66- المُجَاهَدة\"إنَّ اللهَ تعالى قال: مَن عادى لي وليًّا، فقد آذنتُه بالحرب…\" شرح دليل الفالحين","publishedAt":"2021-05-23T19:31:13Z","duration":"PT39M40S","thumbnail":"https://i.ytimg.com/vi/pqCQuGhTUaM/mqdefault.jpg","viewCount":"6692","playlistId":"PLEkQk5xrP-tkc9DXvSLguqX5-FYp6ASR4","playlistName":"دليل الفالحين لطرق رياض الصالحين","category":"متنوع"},{"id":"XTqCFzo_WsQ","title":"شرح منازل السائرين - المجلس (15) باب الرياضة | أ.د. يسري جبر","publishedAt":"2022-11-16T18:00:12Z","duration":"PT41M37S","thumbnail":"https://i.ytimg.com/vi/XTqCFzo_WsQ/mqdefault.jpg","viewCount":"6686","playlistId":"PLEkQk5xrP-tmiUfQ-2Tsn7QIak4EsvaZW","playlistName":"كتاب التيسير المعين بشرح معاني منازل السائرين (تصوف) - د.يسري جبر","category":"تصوف"},{"id":"4vlAM4aLV54","title":"كيف تحافظ على دينك من الفرق الضالة؟ | مجالس رمضانية","publishedAt":"2024-03-19T14:00:06Z","duration":"PT53M21S","thumbnail":"https://i.ytimg.com/vi/4vlAM4aLV54/mqdefault.jpg","viewCount":"6683","playlistId":"PLEkQk5xrP-tnl7vb7KeAoPd5ZlqKKW8KV","playlistName":"شرح كتاب بهجة النفوس أ.د . يسرى جبر","category":"متنوع"},{"id":"zuraUNK6v8U","title":"شروط الدخول في التصوف وما هي الطريقة ومتى آخذها؟","publishedAt":"2025-05-07T18:44:36Z","duration":"PT14M9S","thumbnail":"https://i.ytimg.com/vi/zuraUNK6v8U/mqdefault.jpg","viewCount":"6680","playlistId":"PLEkQk5xrP-tm8ZIu74nTOZN9KJUJu416J","playlistName":"مقاطع مُهمَّة (يُسريَّات) أ.د. يسري جبر","category":"متنوع"},{"id":"Bu8XobLSKaA","title":"لا أستطيع المحافظة على الوضوء فماذا أفعل؟","publishedAt":"2024-03-12T18:00:05Z","duration":"PT9M25S","thumbnail":"https://i.ytimg.com/vi/Bu8XobLSKaA/mqdefault.jpg","viewCount":"6679","playlistId":"PLEkQk5xrP-tkGXuZ9atE3k_7it12rUPTs","playlistName":"أسئلة المتابعين","category":"متنوع"}],"total":7675,"page":47,"pageSize":24,"totalPages":320}