{"items":[{"id":"b7onwVLa72M","title":"419- فضل الدعاء بظهر الغيب - شرح دليل الفالحين","publishedAt":"2023-03-29T05:00:15Z","duration":"PT46M29S","thumbnail":"https://i.ytimg.com/vi/b7onwVLa72M/mqdefault.jpg","viewCount":"1043","playlistId":"PLEkQk5xrP-tkc9DXvSLguqX5-FYp6ASR4","playlistName":"دليل الفالحين لطرق رياض الصالحين","category":"متنوع"},{"id":"4r-CD4P4_J8","title":"حول المولد النبوي الشريف (3)   د. يسري جبر","publishedAt":"2018-11-25T17:34:08Z","duration":"PT42M15S","thumbnail":"https://i.ytimg.com/vi/4r-CD4P4_J8/mqdefault.jpg","viewCount":"1042","playlistId":"PLEkQk5xrP-tlArtGpeLWaqNM7h7IDeAVC","playlistName":"خطب الجمعة أ.د. يسري جبر","category":"خطب"},{"id":"p32jNsuSVHY","title":"27- النَّوعُ الثالث عشر: ما نزل مُفَرَّقًا وما نزل جمعًا - شرح الإتقان في علوم القرآن","publishedAt":"2023-02-22T05:00:32Z","duration":"PT29M40S","thumbnail":"https://i.ytimg.com/vi/p32jNsuSVHY/mqdefault.jpg","viewCount":"1042","playlistId":"PLEkQk5xrP-tlPw10KGJKagu7zm4Ry2Tge","playlistName":"شرح الإتقان في علوم القرآن","category":"تفسير"},{"id":"6ShKnFboCpE","title":"التعريض والتلويح - بقية النوع 44: في الكنايات والتعريض في  القرآن","publishedAt":"2020-11-07T06:09:19Z","duration":"PT27M37S","thumbnail":"https://i.ytimg.com/vi/6ShKnFboCpE/mqdefault.jpg","viewCount":"1042","playlistId":"PLEkQk5xrP-tnW3iBL7HkKziOFCFZbTlf0","playlistName":"شرح البرهان في علوم القرآن - أ.د. يسري جبر","category":"تفسير"},{"id":"GT9Gi0kfl90","title":"52- وجوب قراءة \"بسم الله الرحمن الرحيم\" في الصلاة والجهر بها","publishedAt":"2025-01-11T07:00:10Z","duration":"PT38M31S","thumbnail":"https://i.ytimg.com/vi/GT9Gi0kfl90/mqdefault.jpg","viewCount":"1041","playlistId":"PLEkQk5xrP-tk_MCBZ706ORCw6gFtFyaGj","playlistName":"شرح سنن الإمام الدارقطني","category":"متنوع"},{"id":"mMgWOLUcW38","title":"شرح صحيح البخاري كتاب التوحيد من أوله","publishedAt":"2019-01-31T22:04:03Z","duration":"PT32M28S","thumbnail":"https://i.ytimg.com/vi/mMgWOLUcW38/mqdefault.jpg","viewCount":"1041","playlistId":"PLEkQk5xrP-tlEerGoLa1AFy-2XvQ-sovv","playlistName":"شرح صحيح البخاري - أ.د. يسري جبر (كاملا)","category":"حديث"},{"id":"6KDDsOOu_f8","title":"ماهى شروط العبادة؟ | مجالس رمضانية","publishedAt":"2025-03-29T15:00:07Z","duration":"PT18M33S","thumbnail":"https://i.ytimg.com/vi/6KDDsOOu_f8/mqdefault.jpg","viewCount":"1041","playlistId":"PLEkQk5xrP-tkeI_WVPfuoTJO46aVkpaz0","playlistName":"شرح كتاب ميزان الاعتدال لحفظ الدين والأحوال","category":"متنوع"},{"id":"7PWrYhBBuXM","title":"شرح كتاب الأذكار من كلام سيد الأبرار للإمام النووى رضى الله عنه - المجلس الخامس","publishedAt":"2014-12-12T19:04:26Z","duration":"PT16M35S","thumbnail":"https://i.ytimg.com/vi/7PWrYhBBuXM/mqdefault.jpg","viewCount":"1041","playlistId":"PLEkQk5xrP-tkWS57Ubysh0ifJR8dmuEtE","playlistName":"شرح كتاب الأذكار للإمام النووي د. يسرى جبر","category":"حديث"},{"id":"jjeETr-F3KE","title":"48-“أَخْبَرَنِي أبو سُفْيَانَ، أنَّ هِرَقْلَ قَالَ له ...”الحديث (3) باب الصِّدق - شرح دليل الفالحين","publishedAt":"2021-04-22T05:54:01Z","duration":"PT37M29S","thumbnail":"https://i.ytimg.com/vi/jjeETr-F3KE/mqdefault.jpg","viewCount":"1041","playlistId":"PLEkQk5xrP-tkc9DXvSLguqX5-FYp6ASR4","playlistName":"دليل الفالحين لطرق رياض الصالحين","category":"متنوع"},{"id":"zoBMcM4swy0","title":"58-  الوقف والابتداء - شرح الإتقان في علوم القرآن","publishedAt":"2023-05-02T05:00:25Z","duration":"PT31M3S","thumbnail":"https://i.ytimg.com/vi/zoBMcM4swy0/mqdefault.jpg","viewCount":"1041","playlistId":"PLEkQk5xrP-tlPw10KGJKagu7zm4Ry2Tge","playlistName":"شرح الإتقان في علوم القرآن","category":"تفسير"},{"id":"7HaPCymiHBs","title":"18- شرح اللؤلؤ والمرجان كتاب الطهارة من أوله","publishedAt":"2020-01-04T08:16:07Z","duration":"PT41M52S","thumbnail":"https://i.ytimg.com/vi/7HaPCymiHBs/mqdefault.jpg","viewCount":"1040","playlistId":"PLEkQk5xrP-tmKNjtYLfhATC37QdIsTMe0","playlistName":"شرح كتاب اللؤلؤ والمرجان فيما اتفق عليه الشيخان إماما المحدثين البخاري ومسلم. أ.د. يسري جبر","category":"حديث"},{"id":"cRZVp6DJZcs","title":"شرح صحيح البخاري كتاب الأذان من باب ٥٢","publishedAt":"2016-11-20T12:14:37Z","duration":"PT38M11S","thumbnail":"https://i.ytimg.com/vi/cRZVp6DJZcs/mqdefault.jpg","viewCount":"1040","playlistId":"PLEkQk5xrP-tlEerGoLa1AFy-2XvQ-sovv","playlistName":"شرح صحيح البخاري - أ.د. يسري جبر (كاملا)","category":"حديث"},{"id":"9rY-Nyn1ISw","title":"عطف النبي صلى الله عليه  وسلم علي الفقراء | اعرف نبيك","publishedAt":"2015-09-03T16:04:11Z","duration":"PT7M18S","thumbnail":"https://i.ytimg.com/vi/9rY-Nyn1ISw/mqdefault.jpg","viewCount":"1039","playlistId":"PLEkQk5xrP-tl6Mu_Mz3QMUSv5T6XBH-Dg","playlistName":"برنامج اعرف نبيك","category":"متنوع"},{"id":"xJEXE74zXAM","title":"343- إنَّ بيْنَ الرَّجُلِ وبيْنَ الشِّرْكِ والْكُفْرِ تَرْكَ الصَّلاةِ - شرح دليل الفالحين","publishedAt":"2022-11-25T09:00:42Z","duration":"PT27M27S","thumbnail":"https://i.ytimg.com/vi/xJEXE74zXAM/mqdefault.jpg","viewCount":"1038","playlistId":"PLEkQk5xrP-tkc9DXvSLguqX5-FYp6ASR4","playlistName":"دليل الفالحين لطرق رياض الصالحين","category":"متنوع"},{"id":"zUQXgs-fVPo","title":"150- تحريم العقوق وقطيعة الرحم - شرح دليل الفالحين","publishedAt":"2021-10-29T06:24:21Z","duration":"PT33M14S","thumbnail":"https://i.ytimg.com/vi/zUQXgs-fVPo/mqdefault.jpg","viewCount":"1037","playlistId":"PLEkQk5xrP-tkc9DXvSLguqX5-FYp6ASR4","playlistName":"دليل الفالحين لطرق رياض الصالحين","category":"متنوع"},{"id":"NMPcFRjzUps","title":"شرح صحيح البخاري- كتاب المناقب من أوله","publishedAt":"2017-10-25T23:59:41Z","duration":"PT31M52S","thumbnail":"https://i.ytimg.com/vi/NMPcFRjzUps/mqdefault.jpg","viewCount":"1036","playlistId":"PLEkQk5xrP-tlEerGoLa1AFy-2XvQ-sovv","playlistName":"شرح صحيح البخاري - أ.د. يسري جبر (كاملا)","category":"حديث"},{"id":"Bio1m0b4nfg","title":"شرح كتاب منازل السائرين للإمام الهروى المجلس السادس والأربعون قسم الأَحوال باب الدهْشة وباب الهيَمان","publishedAt":"2015-04-28T13:36:03Z","duration":"PT47M24S","thumbnail":"https://i.ytimg.com/vi/Bio1m0b4nfg/mqdefault.jpg","viewCount":"1036","playlistId":"PLEkQk5xrP-tnLYi_5_tSRVBwqcs7ISV7Y","playlistName":"شرح كتاب منازل السائرين للإمام الهروي","category":"متنوع"},{"id":"dmYIBOU36KY","title":"شرح صحيح البخاري - كتاب الخصومات من باب ٧ وكتاب اللقطة","publishedAt":"2017-05-22T18:54:21Z","duration":"PT45M23S","thumbnail":"https://i.ytimg.com/vi/dmYIBOU36KY/mqdefault.jpg","viewCount":"1036","playlistId":"PLEkQk5xrP-tlEerGoLa1AFy-2XvQ-sovv","playlistName":"شرح صحيح البخاري - أ.د. يسري جبر (كاملا)","category":"حديث"},{"id":"sJijh6l0W5c","title":"شرح صحيح البخاري - كتاب البيوع من باب ٤","publishedAt":"2017-04-23T15:29:25Z","duration":"PT44M14S","thumbnail":"https://i.ytimg.com/vi/sJijh6l0W5c/mqdefault.jpg","viewCount":"1036","playlistId":"PLEkQk5xrP-tlEerGoLa1AFy-2XvQ-sovv","playlistName":"شرح صحيح البخاري - أ.د. يسري جبر (كاملا)","category":"حديث"},{"id":"6ab8M6awrkk","title":"مقرأة سورة العلق من أولها","publishedAt":"2019-07-29T10:01:54Z","duration":"PT21M50S","thumbnail":"https://i.ytimg.com/vi/6ab8M6awrkk/mqdefault.jpg","viewCount":"1035","playlistId":"PLEkQk5xrP-tnmTYsyW6xNdyfhPq0Bhrhj","playlistName":"مقرأة الفجر - القُرْآنُ الكَرِيمُ - خَتْمَةُ التَّدَبُّرِ  أ.د. يسري جبر","category":"متنوع"},{"id":"R6RSYOl0lj4","title":"شرح صحيح البخاري - كتاب المزارعة","publishedAt":"2017-05-14T19:40:13Z","duration":"PT43M","thumbnail":"https://i.ytimg.com/vi/R6RSYOl0lj4/mqdefault.jpg","viewCount":"1035","playlistId":"PLEkQk5xrP-tlEerGoLa1AFy-2XvQ-sovv","playlistName":"شرح صحيح البخاري - أ.د. يسري جبر (كاملا)","category":"حديث"},{"id":"Dj6nvEe7dbg","title":"5- الوضوء بماء أهل الكتاب، وحكم ماء البئر إذا وقع فيها حيوان - كتاب الطهارة","publishedAt":"2023-01-07T09:00:10Z","duration":"PT44M9S","thumbnail":"https://i.ytimg.com/vi/Dj6nvEe7dbg/mqdefault.jpg","viewCount":"1034","playlistId":"PLEkQk5xrP-tk_MCBZ706ORCw6gFtFyaGj","playlistName":"شرح سنن الإمام الدارقطني","category":"متنوع"},{"id":"Jggd5ZlnfgI","title":"شرح البرهان في علوم القرآن - النوع ٣ - ائتلاف الفواصل مع ما يدل عليه الكلام ٣","publishedAt":"2019-09-04T07:00:28Z","duration":"PT31M35S","thumbnail":"https://i.ytimg.com/vi/Jggd5ZlnfgI/mqdefault.jpg","viewCount":"1034","playlistId":"PLEkQk5xrP-tnW3iBL7HkKziOFCFZbTlf0","playlistName":"شرح البرهان في علوم القرآن - أ.د. يسري جبر","category":"تفسير"},{"id":"gl2gmUPnlsg","title":"أباح لك أن تنظر ما في المُكَوَّنات ، وما أذِن لك أن تقف مع ذوات المُكَوَّنات","publishedAt":"2017-02-25T20:51:05Z","duration":"PT17M20S","thumbnail":"https://i.ytimg.com/vi/gl2gmUPnlsg/mqdefault.jpg","viewCount":"1033","playlistId":"PLEkQk5xrP-tkI_meE148wc7V7XHlB0WPb","playlistName":"من الحكم العطائية  د. يسري جبر","category":"متنوع"}],"total":7670,"page":150,"pageSize":24,"totalPages":320}