{"items":[{"id":"wiDID2pnmgc","title":"درس الجمعة ٠٧ ربيع الأول ١٤٣٧هـ","publishedAt":"2015-12-18T12:53:14Z","duration":"PT54M32S","thumbnail":"https://i.ytimg.com/vi/wiDID2pnmgc/mqdefault.jpg","viewCount":"187","playlistId":"PLEkQk5xrP-tmYN0y2PQUkx881GYBxD16g","playlistName":"درس الجمعة","category":"خطب"},{"id":"6o4Q4-q5pXg","title":"67- باب مَا جَاءَ فِى الْخِيَارِ  ك الموطأ د يسري جبر الأزهري","publishedAt":"2018-07-20T11:30:51Z","duration":"PT49M10S","thumbnail":"https://i.ytimg.com/vi/6o4Q4-q5pXg/mqdefault.jpg","viewCount":"186","playlistId":"PLEkQk5xrP-tnC6BRuqMjyO-484iqXeg0o","playlistName":"شرح كتاب الموطأ للإمام مالك","category":"متنوع"},{"id":"oHspDPc7bkE","title":"شرح كتاب القراءات من سنن الترمذي - المجلس الأول","publishedAt":"2016-04-03T03:16:59Z","duration":"PT33M1S","thumbnail":"https://i.ytimg.com/vi/oHspDPc7bkE/mqdefault.jpg","viewCount":"186","playlistId":"PLEkQk5xrP-tnu6of679SvxdVx0qSrJzmb","playlistName":"شرح سنن الإمام الترمذي رضى الله عنه د. يسري جبر","category":"متنوع"},{"id":"71SroGBOh_g","title":"درس الجمعة ١٩ ربيع الآخر ١٤٣٧هـ","publishedAt":"2016-01-29T13:33:50Z","duration":"PT1H11S","thumbnail":"https://i.ytimg.com/vi/71SroGBOh_g/mqdefault.jpg","viewCount":"186","playlistId":"PLEkQk5xrP-tmYN0y2PQUkx881GYBxD16g","playlistName":"درس الجمعة","category":"خطب"},{"id":"viLCUlYrSas","title":"شرح كتاب الزهد من سنن الترمذي - المجلس الرابع","publishedAt":"2016-01-05T06:03:10Z","duration":"PT31M51S","thumbnail":"https://i.ytimg.com/vi/viLCUlYrSas/mqdefault.jpg","viewCount":"186","playlistId":"PLEkQk5xrP-tnu6of679SvxdVx0qSrJzmb","playlistName":"شرح سنن الإمام الترمذي رضى الله عنه د. يسري جبر","category":"متنوع"},{"id":"kNDSLY2jtBY","title":"شرح كتاب القدر من سنن الترمذي - المجلس الثالث","publishedAt":"2015-12-12T06:05:15Z","duration":"PT41M51S","thumbnail":"https://i.ytimg.com/vi/kNDSLY2jtBY/mqdefault.jpg","viewCount":"186","playlistId":"PLEkQk5xrP-tnu6of679SvxdVx0qSrJzmb","playlistName":"شرح سنن الإمام الترمذي رضى الله عنه د. يسري جبر","category":"متنوع"},{"id":"RjQy80Zy8N4","title":"شرح كتاب الطب من سنن الترمذي - المجلس الثانى","publishedAt":"2015-12-02T02:14:06Z","duration":"PT36M34S","thumbnail":"https://i.ytimg.com/vi/RjQy80Zy8N4/mqdefault.jpg","viewCount":"186","playlistId":"PLEkQk5xrP-tnu6of679SvxdVx0qSrJzmb","playlistName":"شرح سنن الإمام الترمذي رضى الله عنه د. يسري جبر","category":"متنوع"},{"id":"bxa8Bl5anDA","title":"قراءة القرآن (من آية 51 سورة الأنبياء)","publishedAt":"2015-06-15T03:18:33Z","duration":"PT18M46S","thumbnail":"https://i.ytimg.com/vi/bxa8Bl5anDA/mqdefault.jpg","viewCount":"186","playlistId":"PLEkQk5xrP-tnUSUj0uyJhA-kwNC7Gkx_j","playlistName":"مقرأة الفجر - بداية من سورة الإسراء حتى سورة الناس","category":"تفسير"},{"id":"IvxztUWp7Y0","title":"صحيح البخاري - كتاب الحدود","publishedAt":"2018-02-19T07:28:56Z","duration":"PT56M26S","thumbnail":"https://i.ytimg.com/vi/IvxztUWp7Y0/mqdefault.jpg","viewCount":"185","playlistId":"PLEkQk5xrP-tmJuzaj4GWRenFoFx9gdbFX","playlistName":"شرح كتاب صحيح الإمام البخاري رضي الله تعالى عنه   أ.د. يسرى جبر","category":"حديث"},{"id":"gi3XD-KulY0","title":"صحيح الإمام البخاري رضي الله عنه - ختام كتاب المرضى  وبداية كتاب الطب د. يسري جبر","publishedAt":"2016-08-07T13:32:54Z","duration":"PT1H6M38S","thumbnail":"https://i.ytimg.com/vi/gi3XD-KulY0/mqdefault.jpg","viewCount":"185","playlistId":"PLEkQk5xrP-tmJuzaj4GWRenFoFx9gdbFX","playlistName":"شرح كتاب صحيح الإمام البخاري رضي الله تعالى عنه   أ.د. يسرى جبر","category":"حديث"},{"id":"LhmeUT7x9M0","title":"( 119 ) حديث الإفك وبراءة السيدة عائشة أم المؤمنين منه - المجلس الثامن","publishedAt":"2016-07-20T16:09:02Z","duration":"PT21M53S","thumbnail":"https://i.ytimg.com/vi/LhmeUT7x9M0/mqdefault.jpg","viewCount":"185","playlistId":"PLEkQk5xrP-tnl7vb7KeAoPd5ZlqKKW8KV","playlistName":"شرح كتاب بهجة النفوس أ.د . يسرى جبر","category":"متنوع"},{"id":"wzYtNRRE8f4","title":"قراءة القرآن (من آية 83 سورة الأنبياء)","publishedAt":"2015-06-16T03:12:12Z","duration":"PT15M51S","thumbnail":"https://i.ytimg.com/vi/wzYtNRRE8f4/mqdefault.jpg","viewCount":"185","playlistId":"PLEkQk5xrP-tnUSUj0uyJhA-kwNC7Gkx_j","playlistName":"مقرأة الفجر - بداية من سورة الإسراء حتى سورة الناس","category":"تفسير"},{"id":"9zfDFIYFQtQ","title":"( 135 ) حديث من أعان غازياً فله مثل أجره  د. يسري جبر","publishedAt":"2017-06-20T23:25:13Z","duration":"PT26M30S","thumbnail":"https://i.ytimg.com/vi/9zfDFIYFQtQ/mqdefault.jpg","viewCount":"184","playlistId":"PLEkQk5xrP-tnl7vb7KeAoPd5ZlqKKW8KV","playlistName":"شرح كتاب بهجة النفوس أ.د . يسرى جبر","category":"متنوع"},{"id":"c8ZxBxubyaA","title":"صحيح الإمام البخاري رضي الله عنه - كتاب الأدب - باب قول الرجل ويلك - المجلس العشرون  د. يسري جبر","publishedAt":"2017-03-09T17:02:05Z","duration":"PT1H6M55S","thumbnail":"https://i.ytimg.com/vi/c8ZxBxubyaA/mqdefault.jpg","viewCount":"183","playlistId":"PLEkQk5xrP-tmJuzaj4GWRenFoFx9gdbFX","playlistName":"شرح كتاب صحيح الإمام البخاري رضي الله تعالى عنه   أ.د. يسرى جبر","category":"حديث"},{"id":"rC5OIlSkJiI","title":"شرح كتاب الإيمان من سنن الترمذي - المجلس الأول","publishedAt":"2016-02-23T10:49:50Z","duration":"PT39M3S","thumbnail":"https://i.ytimg.com/vi/rC5OIlSkJiI/mqdefault.jpg","viewCount":"182","playlistId":"PLEkQk5xrP-tnu6of679SvxdVx0qSrJzmb","playlistName":"شرح سنن الإمام الترمذي رضى الله عنه د. يسري جبر","category":"متنوع"},{"id":"Uvhx4_BUyCg","title":"صحيح الإمام البخاري رضي الله عنه - كتاب الأدب - المجلس الرابع    د. يسري جبر","publishedAt":"2016-12-04T18:06:31Z","duration":"PT50M11S","thumbnail":"https://i.ytimg.com/vi/Uvhx4_BUyCg/mqdefault.jpg","viewCount":"181","playlistId":"PLEkQk5xrP-tmJuzaj4GWRenFoFx9gdbFX","playlistName":"شرح كتاب صحيح الإمام البخاري رضي الله تعالى عنه   أ.د. يسرى جبر","category":"حديث"},{"id":"sQwUFYy1g2M","title":"صحيح الإمام البخاري رضي الله عنه - كتاب اللباس المجلس الثاني د. يسري جبر","publishedAt":"2016-09-26T14:34:31Z","duration":"PT27M32S","thumbnail":"https://i.ytimg.com/vi/sQwUFYy1g2M/mqdefault.jpg","viewCount":"181","playlistId":"PLEkQk5xrP-tmJuzaj4GWRenFoFx9gdbFX","playlistName":"شرح كتاب صحيح الإمام البخاري رضي الله تعالى عنه   أ.د. يسرى جبر","category":"حديث"},{"id":"FwCJqOD7s3Y","title":"درس الجمعة ٥ ربيع الآخر ١٤٣٧هـ","publishedAt":"2016-01-15T13:04:04Z","duration":"PT1H6M42S","thumbnail":"https://i.ytimg.com/vi/FwCJqOD7s3Y/mqdefault.jpg","viewCount":"180","playlistId":"PLEkQk5xrP-tmYN0y2PQUkx881GYBxD16g","playlistName":"درس الجمعة","category":"خطب"},{"id":"1O7xOQnw4qE","title":"72- باب عِدَّةِ الْمُتَوَفَّى عَنْهَا زَوْجُهَا إِذَا كَانَتْ حَامِلاً  ك الموطأ د يسري جبر الأزهري","publishedAt":"2018-08-26T11:52:29Z","duration":"PT41M31S","thumbnail":"https://i.ytimg.com/vi/1O7xOQnw4qE/mqdefault.jpg","viewCount":"179","playlistId":"PLEkQk5xrP-tnC6BRuqMjyO-484iqXeg0o","playlistName":"شرح كتاب الموطأ للإمام مالك","category":"متنوع"},{"id":"-2rJpwbnUf8","title":"صحيح الإمام البخاري رضي الله عنه - كتاب الطب المجلس السادس د. يسري جبر","publishedAt":"2016-08-22T20:49:05Z","duration":"PT55M57S","thumbnail":"https://i.ytimg.com/vi/-2rJpwbnUf8/mqdefault.jpg","viewCount":"179","playlistId":"PLEkQk5xrP-tmJuzaj4GWRenFoFx9gdbFX","playlistName":"شرح كتاب صحيح الإمام البخاري رضي الله تعالى عنه   أ.د. يسرى جبر","category":"حديث"},{"id":"QiM4Yqv14r8","title":"شرح صحيح الإمام البخاري رضي الله تعالى عنه - كتاب الإكراه - المجلس الثاني.   د. يسري جبر","publishedAt":"2018-09-12T20:47:23Z","duration":"PT19M33S","thumbnail":"https://i.ytimg.com/vi/QiM4Yqv14r8/mqdefault.jpg","viewCount":"178","playlistId":"PLEkQk5xrP-tmJuzaj4GWRenFoFx9gdbFX","playlistName":"شرح كتاب صحيح الإمام البخاري رضي الله تعالى عنه   أ.د. يسرى جبر","category":"حديث"},{"id":"-rgzU8naf-8","title":"صحيح الإمام البخاري رضي الله عنه - كتاب الأدب - المجلس الرابع عشر د. يسري جبر","publishedAt":"2017-02-14T14:30:36Z","duration":"PT1H13M57S","thumbnail":"https://i.ytimg.com/vi/-rgzU8naf-8/mqdefault.jpg","viewCount":"178","playlistId":"PLEkQk5xrP-tmJuzaj4GWRenFoFx9gdbFX","playlistName":"شرح كتاب صحيح الإمام البخاري رضي الله تعالى عنه   أ.د. يسرى جبر","category":"حديث"},{"id":"EwsXocoeDTs","title":"صحيح الإمام البخاري رضي الله عنه -  كتاب الطب المجلس الثاني  د. يسري جبر","publishedAt":"2016-08-09T20:57:08Z","duration":"PT1H22M49S","thumbnail":"https://i.ytimg.com/vi/EwsXocoeDTs/mqdefault.jpg","viewCount":"177","playlistId":"PLEkQk5xrP-tmJuzaj4GWRenFoFx9gdbFX","playlistName":"شرح كتاب صحيح الإمام البخاري رضي الله تعالى عنه   أ.د. يسرى جبر","category":"حديث"},{"id":"cH0oLec5DDo","title":"درس الجمعة","publishedAt":"2015-11-20T14:42:31Z","duration":"PT1H2M","thumbnail":"https://i.ytimg.com/vi/cH0oLec5DDo/mqdefault.jpg","viewCount":"177","playlistId":"PLEkQk5xrP-tmYN0y2PQUkx881GYBxD16g","playlistName":"درس الجمعة","category":"خطب"}],"total":7670,"page":303,"pageSize":24,"totalPages":320}