{"items":[{"id":"tTkhuTt_Rt8","title":"مقرأة سورة هود من آية ١١٢","publishedAt":"2017-06-21T11:00:48Z","duration":"PT24M36S","thumbnail":"https://i.ytimg.com/vi/tTkhuTt_Rt8/mqdefault.jpg","viewCount":"370","playlistId":"PLEkQk5xrP-tnmTYsyW6xNdyfhPq0Bhrhj","playlistName":"مقرأة الفجر - القُرْآنُ الكَرِيمُ - خَتْمَةُ التَّدَبُّرِ  أ.د. يسري جبر","category":"متنوع"},{"id":"2uVNfTcY9nw","title":"مقرأة سورة الصافات من آية ٢٥","publishedAt":"2018-09-15T21:00:09Z","duration":"PT33M5S","thumbnail":"https://i.ytimg.com/vi/2uVNfTcY9nw/mqdefault.jpg","viewCount":"370","playlistId":"PLEkQk5xrP-tnmTYsyW6xNdyfhPq0Bhrhj","playlistName":"مقرأة الفجر - القُرْآنُ الكَرِيمُ - خَتْمَةُ التَّدَبُّرِ  أ.د. يسري جبر","category":"متنوع"},{"id":"KJek24gVXQ8","title":"سورة المائدة آية 87","publishedAt":"2016-11-21T02:59:30Z","duration":"PT23M21S","thumbnail":"https://i.ytimg.com/vi/KJek24gVXQ8/mqdefault.jpg","viewCount":"370","playlistId":"PLEkQk5xrP-tnmTYsyW6xNdyfhPq0Bhrhj","playlistName":"مقرأة الفجر - القُرْآنُ الكَرِيمُ - خَتْمَةُ التَّدَبُّرِ  أ.د. يسري جبر","category":"متنوع"},{"id":"lKyrvbZNhTE","title":"‎شرح صحيح الإمام البخاري رضي الله تعالى عنه - كتابُ الاعتصَامِ بالكِتَابِ والسُّنَّةِ. أ.د. يسري جبر","publishedAt":"2019-12-21T17:46:04Z","duration":"PT32M4S","thumbnail":"https://i.ytimg.com/vi/lKyrvbZNhTE/mqdefault.jpg","viewCount":"370","playlistId":"PLEkQk5xrP-tmJuzaj4GWRenFoFx9gdbFX","playlistName":"شرح كتاب صحيح الإمام البخاري رضي الله تعالى عنه   أ.د. يسرى جبر","category":"حديث"},{"id":"WAoago2YG4g","title":"شرح صحيح البخاري كتاب الفرائض من باب ١٢","publishedAt":"2018-11-23T20:00:34Z","duration":"PT24M36S","thumbnail":"https://i.ytimg.com/vi/WAoago2YG4g/mqdefault.jpg","viewCount":"370","playlistId":"PLEkQk5xrP-tlEerGoLa1AFy-2XvQ-sovv","playlistName":"شرح صحيح البخاري - أ.د. يسري جبر (كاملا)","category":"حديث"},{"id":"AVCuUAWuzGs","title":"شرح صحيح البخاري كتاب الأيمان والنذور من باب ٢٩","publishedAt":"2018-11-19T09:16:10Z","duration":"PT21M56S","thumbnail":"https://i.ytimg.com/vi/AVCuUAWuzGs/mqdefault.jpg","viewCount":"369","playlistId":"PLEkQk5xrP-tlEerGoLa1AFy-2XvQ-sovv","playlistName":"شرح صحيح البخاري - أ.د. يسري جبر (كاملا)","category":"حديث"},{"id":"bRZoaTv5tFw","title":"شرح سنن الدارمي كتاب السير من باب ٢٥","publishedAt":"2019-08-30T16:27:15Z","duration":"PT26M7S","thumbnail":"https://i.ytimg.com/vi/bRZoaTv5tFw/mqdefault.jpg","viewCount":"369","playlistId":"PLEkQk5xrP-tmAg-FuWjY057X_h5NmGmAa","playlistName":"شرح سنن الدارمي - أ.د. يسري جبر (كاملا)","category":"متنوع"},{"id":"Q9ohcGaFF6o","title":"النوع الثاني مما قدّم والنية به التأخير - تكملة أنواع التقديم والتأخير(19)شرح البرهان في علوم القرآن","publishedAt":"2021-10-17T21:52:35Z","duration":"PT17M44S","thumbnail":"https://i.ytimg.com/vi/Q9ohcGaFF6o/mqdefault.jpg","viewCount":"369","playlistId":"PLEkQk5xrP-tnW3iBL7HkKziOFCFZbTlf0","playlistName":"شرح البرهان في علوم القرآن - أ.د. يسري جبر","category":"تفسير"},{"id":"6y8ac29qrus","title":"شرح صحيح البخاري كتاب الطلا‎ق من باب ٣٣","publishedAt":"2018-06-24T21:44:50Z","duration":"PT20M26S","thumbnail":"https://i.ytimg.com/vi/6y8ac29qrus/mqdefault.jpg","viewCount":"369","playlistId":"PLEkQk5xrP-tlEerGoLa1AFy-2XvQ-sovv","playlistName":"شرح صحيح البخاري - أ.د. يسري جبر (كاملا)","category":"حديث"},{"id":"pC_RgBvh0II","title":"القِسمُ (14) من التوكيد: فوائد التَّكرار: الفائدة السابعة (2) - شرح البرهان في علوم القرآن","publishedAt":"2021-04-27T05:25:36Z","duration":"PT29M29S","thumbnail":"https://i.ytimg.com/vi/pC_RgBvh0II/mqdefault.jpg","viewCount":"369","playlistId":"PLEkQk5xrP-tnW3iBL7HkKziOFCFZbTlf0","playlistName":"شرح البرهان في علوم القرآن - أ.د. يسري جبر","category":"تفسير"},{"id":"9g9GyflFFUE","title":"سورة الأنعام  آية 36","publishedAt":"2016-12-04T06:13:09Z","duration":"PT11M54S","thumbnail":"https://i.ytimg.com/vi/9g9GyflFFUE/mqdefault.jpg","viewCount":"369","playlistId":"PLEkQk5xrP-tnmTYsyW6xNdyfhPq0Bhrhj","playlistName":"مقرأة الفجر - القُرْآنُ الكَرِيمُ - خَتْمَةُ التَّدَبُّرِ  أ.د. يسري جبر","category":"متنوع"},{"id":"v7s5Uo6s6Go","title":"مقرأة سورة غافر من آية 41","publishedAt":"2018-11-11T08:32:01Z","duration":"PT25M15S","thumbnail":"https://i.ytimg.com/vi/v7s5Uo6s6Go/mqdefault.jpg","viewCount":"368","playlistId":"PLEkQk5xrP-tnmTYsyW6xNdyfhPq0Bhrhj","playlistName":"مقرأة الفجر - القُرْآنُ الكَرِيمُ - خَتْمَةُ التَّدَبُّرِ  أ.د. يسري جبر","category":"متنوع"},{"id":"_RZ4vUy0kvc","title":"( 99 ) حَدِيثُ لَا حِمَى إِلَّا للهِ وَلِرَسُولِهِ","publishedAt":"2015-10-19T18:10:38Z","duration":"PT39M16S","thumbnail":"https://i.ytimg.com/vi/_RZ4vUy0kvc/mqdefault.jpg","viewCount":"368","playlistId":"PLEkQk5xrP-tnl7vb7KeAoPd5ZlqKKW8KV","playlistName":"شرح كتاب بهجة النفوس أ.د . يسرى جبر","category":"متنوع"},{"id":"kcj_1iXrnYE","title":"القِسمُ الخامس من التوكيد: ذِكْر الخاص بعد العام - شرح البرهان في علوم القرآن","publishedAt":"2021-03-13T07:58:56Z","duration":"PT32M54S","thumbnail":"https://i.ytimg.com/vi/kcj_1iXrnYE/mqdefault.jpg","viewCount":"368","playlistId":"PLEkQk5xrP-tnW3iBL7HkKziOFCFZbTlf0","playlistName":"شرح البرهان في علوم القرآن - أ.د. يسري جبر","category":"تفسير"},{"id":"8IAEyUpgzB0","title":"623- (ما) الحَرفِيَّة: المُؤَكِّدَة لِلَّفْظِ - شرح البرهان في علوم القرآن","publishedAt":"2022-12-19T05:15:00Z","duration":"PT34M52S","thumbnail":"https://i.ytimg.com/vi/8IAEyUpgzB0/mqdefault.jpg","viewCount":"368","playlistId":"PLEkQk5xrP-tnW3iBL7HkKziOFCFZbTlf0","playlistName":"شرح البرهان في علوم القرآن - أ.د. يسري جبر","category":"تفسير"},{"id":"v3-1_RzOC5M","title":"مقرأة سورة التوبة من آية ١١١","publishedAt":"2017-05-03T10:51:04Z","duration":"PT17M22S","thumbnail":"https://i.ytimg.com/vi/v3-1_RzOC5M/mqdefault.jpg","viewCount":"368","playlistId":"PLEkQk5xrP-tnmTYsyW6xNdyfhPq0Bhrhj","playlistName":"مقرأة الفجر - القُرْآنُ الكَرِيمُ - خَتْمَةُ التَّدَبُّرِ  أ.د. يسري جبر","category":"متنوع"},{"id":"ywX6_sY6pog","title":"سورة التوبة آية 71","publishedAt":"2017-04-25T08:17:36Z","duration":"PT19M30S","thumbnail":"https://i.ytimg.com/vi/ywX6_sY6pog/mqdefault.jpg","viewCount":"368","playlistId":"PLEkQk5xrP-tnmTYsyW6xNdyfhPq0Bhrhj","playlistName":"مقرأة الفجر - القُرْآنُ الكَرِيمُ - خَتْمَةُ التَّدَبُّرِ  أ.د. يسري جبر","category":"متنوع"},{"id":"IWuG4AYB1vQ","title":"قراءة القرآن (من آية ٩٨ سورة آل عمران)","publishedAt":"2016-07-18T06:17:53Z","duration":"PT11M17S","thumbnail":"https://i.ytimg.com/vi/IWuG4AYB1vQ/mqdefault.jpg","viewCount":"368","playlistId":"PLEkQk5xrP-tnmTYsyW6xNdyfhPq0Bhrhj","playlistName":"مقرأة الفجر - القُرْآنُ الكَرِيمُ - خَتْمَةُ التَّدَبُّرِ  أ.د. يسري جبر","category":"متنوع"},{"id":"ySL0oiHv6hw","title":"الحَجُّ أَشْهُرٌ مَعْلُومَات    د.يسري جبر","publishedAt":"2017-08-13T19:04:38Z","duration":"PT35M18S","thumbnail":"https://i.ytimg.com/vi/ySL0oiHv6hw/mqdefault.jpg","viewCount":"368","playlistId":"PLEkQk5xrP-tlArtGpeLWaqNM7h7IDeAVC","playlistName":"خطب الجمعة أ.د. يسري جبر","category":"خطب"},{"id":"xxbqfhAzUfY","title":"شرح صحيح البخاري كتاب الرقاق من باب ٢٥","publishedAt":"2019-03-10T20:16:51Z","duration":"PT28M39S","thumbnail":"https://i.ytimg.com/vi/xxbqfhAzUfY/mqdefault.jpg","viewCount":"368","playlistId":"PLEkQk5xrP-tlEerGoLa1AFy-2XvQ-sovv","playlistName":"شرح صحيح البخاري - أ.د. يسري جبر (كاملا)","category":"حديث"},{"id":"d-bJOM6os7Q","title":"612- حرف (لوما) - شرح البرهان في علوم القرآن","publishedAt":"2022-12-05T05:00:11Z","duration":"PT19M37S","thumbnail":"https://i.ytimg.com/vi/d-bJOM6os7Q/mqdefault.jpg","viewCount":"368","playlistId":"PLEkQk5xrP-tnW3iBL7HkKziOFCFZbTlf0","playlistName":"شرح البرهان في علوم القرآن - أ.د. يسري جبر","category":"تفسير"},{"id":"y03RGRMj1ZU","title":"شرح صحيح البخاري كتاب الأحكام من باب ٤٣","publishedAt":"2019-01-14T21:16:06Z","duration":"PT43M47S","thumbnail":"https://i.ytimg.com/vi/y03RGRMj1ZU/mqdefault.jpg","viewCount":"367","playlistId":"PLEkQk5xrP-tlEerGoLa1AFy-2XvQ-sovv","playlistName":"شرح صحيح البخاري - أ.د. يسري جبر (كاملا)","category":"حديث"},{"id":"NbFGEh_UDUk","title":"شرح صحيح الإمام البخاري رضي الله تعالى عنه - كتابُِ أَخْبَار الآحَادِ  أ.د. يسري جبر","publishedAt":"2019-11-18T08:09:35Z","duration":"PT30M58S","thumbnail":"https://i.ytimg.com/vi/NbFGEh_UDUk/mqdefault.jpg","viewCount":"367","playlistId":"PLEkQk5xrP-tmJuzaj4GWRenFoFx9gdbFX","playlistName":"شرح كتاب صحيح الإمام البخاري رضي الله تعالى عنه   أ.د. يسرى جبر","category":"حديث"},{"id":"VuVENK1Bfko","title":"شرح سنن الدارمي كتاب الجهاد من أوله","publishedAt":"2019-08-24T16:52:55Z","duration":"PT16M47S","thumbnail":"https://i.ytimg.com/vi/VuVENK1Bfko/mqdefault.jpg","viewCount":"367","playlistId":"PLEkQk5xrP-tmAg-FuWjY057X_h5NmGmAa","playlistName":"شرح سنن الدارمي - أ.د. يسري جبر (كاملا)","category":"متنوع"}],"total":7670,"page":265,"pageSize":24,"totalPages":320}