{"items":[{"id":"gZE_sXu56nE","title":"2-  مقدار الماء الذي لا يحمل النجاسة - كتاب الطهارة","publishedAt":"2022-12-17T09:00:32Z","duration":"PT38M8S","thumbnail":"https://i.ytimg.com/vi/gZE_sXu56nE/mqdefault.jpg","viewCount":"1598","playlistId":"PLEkQk5xrP-tk_MCBZ706ORCw6gFtFyaGj","playlistName":"شرح سنن الإمام الدارقطني","category":"متنوع"},{"id":"SBFLtI9034U","title":"120- كيف نحافظ على نعمتي الصحة و الفراغ - شرح مسند الإمام أحمد رضي الله تعالى عنه","publishedAt":"2024-08-12T06:48:32Z","duration":"PT37M4S","thumbnail":"https://i.ytimg.com/vi/SBFLtI9034U/mqdefault.jpg","viewCount":"1596","playlistId":"PLEkQk5xrP-tkKprIuGrSdEuBSMsyg5We1","playlistName":"شرح مسند الإمام أحمد بن حنبل","category":"متنوع"},{"id":"2jiRKlVCBl0","title":"قصيدة بانت سعاد لسيدنا كعب بن زهير رضي الله تعالى عنه.   د. يسري جبر","publishedAt":"2018-09-03T19:33:23Z","duration":"PT8M3S","thumbnail":"https://i.ytimg.com/vi/2jiRKlVCBl0/mqdefault.jpg","viewCount":"1594","playlistId":"PLEkQk5xrP-tk3OeVFoMfKhOhyINnlPeYZ","playlistName":"الحَضْرَةُ الصِّدِّيقِيَّة والأوْرَاد","category":"متنوع"},{"id":"I9Fz8qNs0Rk","title":"81- الاقتصاد في العبادة - شرح دليل الفالحين","publishedAt":"2021-06-20T22:12:37Z","duration":"PT34M5S","thumbnail":"https://i.ytimg.com/vi/I9Fz8qNs0Rk/mqdefault.jpg","viewCount":"1593","playlistId":"PLEkQk5xrP-tkc9DXvSLguqX5-FYp6ASR4","playlistName":"دليل الفالحين لطرق رياض الصالحين","category":"متنوع"},{"id":"EfpdbN8aPAk","title":"شرح صحيح البخاري ( كتاب الوضوء مجلس ٧ )","publishedAt":"2016-09-02T00:01:34Z","duration":"PT35M17S","thumbnail":"https://i.ytimg.com/vi/EfpdbN8aPAk/mqdefault.jpg","viewCount":"1592","playlistId":"PLEkQk5xrP-tlEerGoLa1AFy-2XvQ-sovv","playlistName":"شرح صحيح البخاري - أ.د. يسري جبر (كاملا)","category":"حديث"},{"id":"W1FmFH7uKwg","title":"8- حكم الصلاة في الثوب الواحد|فضيلة مَن خُتِم له بالإيمان بالله واليوم الآخر - شرح مسند الإمام أحمد","publishedAt":"2023-08-02T08:59:00Z","duration":"PT55M27S","thumbnail":"https://i.ytimg.com/vi/W1FmFH7uKwg/mqdefault.jpg","viewCount":"1592","playlistId":"PLEkQk5xrP-tkKprIuGrSdEuBSMsyg5We1","playlistName":"شرح مسند الإمام أحمد بن حنبل","category":"متنوع"},{"id":"6gr_v5MEMAQ","title":"مفهوم الوطن (1)","publishedAt":"2015-04-25T19:36:20Z","duration":"PT13M2S","thumbnail":"https://i.ytimg.com/vi/6gr_v5MEMAQ/mqdefault.jpg","viewCount":"1591","playlistId":"PLEkQk5xrP-tl5sZd_31jJw-5LldLW46Dv","playlistName":"كتاب الحق المبين في الرد على من تطاول على الدين","category":"ردود"},{"id":"wnObsaWKTkU","title":"196- أبْشِرُوا وأمِّلُوا ما يَسُرُّكُمْ، فَوَالله ما الفقْرَ أخْشَى عليكُم - شرح دليل الفالحين","publishedAt":"2022-02-06T07:09:37Z","duration":"PT47M8S","thumbnail":"https://i.ytimg.com/vi/wnObsaWKTkU/mqdefault.jpg","viewCount":"1590","playlistId":"PLEkQk5xrP-tkc9DXvSLguqX5-FYp6ASR4","playlistName":"دليل الفالحين لطرق رياض الصالحين","category":"متنوع"},{"id":"5AFBkEmd-Q0","title":"كيف حج النبي ﷺ حجة الوداع؟","publishedAt":"2024-06-12T18:24:15Z","duration":"PT17M26S","thumbnail":"https://i.ytimg.com/vi/5AFBkEmd-Q0/mqdefault.jpg","viewCount":"1589","playlistId":"PLEkQk5xrP-tlArtGpeLWaqNM7h7IDeAVC","playlistName":"خطب الجمعة أ.د. يسري جبر","category":"خطب"},{"id":"3iRgP2lxE4U","title":"14- حكم غسل أعضاء الوضوء مرة وهل الترتيب واجب - كتاب الطَّهارة","publishedAt":"2023-08-27T05:00:01Z","duration":"PT43M41S","thumbnail":"https://i.ytimg.com/vi/3iRgP2lxE4U/mqdefault.jpg","viewCount":"1588","playlistId":"PLEkQk5xrP-tk_MCBZ706ORCw6gFtFyaGj","playlistName":"شرح سنن الإمام الدارقطني","category":"متنوع"},{"id":"Mm7Bpk-L1ws","title":"75- أهمية توقير النسب الشريف - شرح مسند الإمام أحمد رضي الله عنه","publishedAt":"2024-02-11T06:30:08Z","duration":"PT33M54S","thumbnail":"https://i.ytimg.com/vi/Mm7Bpk-L1ws/mqdefault.jpg","viewCount":"1587","playlistId":"PLEkQk5xrP-tkKprIuGrSdEuBSMsyg5We1","playlistName":"شرح مسند الإمام أحمد بن حنبل","category":"متنوع"},{"id":"1C7lHWXYR2Q","title":"أجهل الناس مَنْ ترك يقين ما عنده لظن ما عند الناس","publishedAt":"2017-03-08T19:14:24Z","duration":"PT6M34S","thumbnail":"https://i.ytimg.com/vi/1C7lHWXYR2Q/mqdefault.jpg","viewCount":"1585","playlistId":"PLEkQk5xrP-tkI_meE148wc7V7XHlB0WPb","playlistName":"من الحكم العطائية  د. يسري جبر","category":"متنوع"},{"id":"4gcr8Zqoxf4","title":"76- حكم التشاؤم من المرأة والفرس والدار - شرح مسند الإمام أحمد رضي الله عنه","publishedAt":"2024-02-13T06:40:13Z","duration":"PT34M55S","thumbnail":"https://i.ytimg.com/vi/4gcr8Zqoxf4/mqdefault.jpg","viewCount":"1585","playlistId":"PLEkQk5xrP-tkKprIuGrSdEuBSMsyg5We1","playlistName":"شرح مسند الإمام أحمد بن حنبل","category":"متنوع"},{"id":"Js_7UeK_XTg","title":"25- مخاطبةُ النَّاسِ على قَدْرِ عُقولِهم|ما ينقض الوضوء من الملامسة والقُبلة","publishedAt":"2023-12-16T09:15:00Z","duration":"PT32M40S","thumbnail":"https://i.ytimg.com/vi/Js_7UeK_XTg/mqdefault.jpg","viewCount":"1583","playlistId":"PLEkQk5xrP-tk_MCBZ706ORCw6gFtFyaGj","playlistName":"شرح سنن الإمام الدارقطني","category":"متنوع"},{"id":"rDsNDmsKEZo","title":"48- كيف نفهم معنى(رضاع الكبير)؟","publishedAt":"2022-09-12T07:15:02Z","duration":"PT1H2M55S","thumbnail":"https://i.ytimg.com/vi/rDsNDmsKEZo/mqdefault.jpg","viewCount":"1582","playlistId":"PLEkQk5xrP-tlDtaqY0qhNXAiZ19gaGzKI","playlistName":"شرح مسند الإمام محمد بن إدريس الشافعيّ رضي الله تعالى عنه","category":"فقه"},{"id":"t1nhj-ZYq9k","title":"116- ما معنى الأحد؟ وما الفرق بين الواحد والأحد؟ - شرح الإتقان في علوم القرآن","publishedAt":"2023-07-03T05:00:31Z","duration":"PT10M48S","thumbnail":"https://i.ytimg.com/vi/t1nhj-ZYq9k/mqdefault.jpg","viewCount":"1580","playlistId":"PLEkQk5xrP-tlPw10KGJKagu7zm4Ry2Tge","playlistName":"شرح الإتقان في علوم القرآن","category":"تفسير"},{"id":"47HJir50jes","title":"431- متى تُباح الغِيبة؟ - شرح دليل الفالحين","publishedAt":"2023-04-28T08:59:00Z","duration":"PT38M41S","thumbnail":"https://i.ytimg.com/vi/47HJir50jes/mqdefault.jpg","viewCount":"1579","playlistId":"PLEkQk5xrP-tkc9DXvSLguqX5-FYp6ASR4","playlistName":"دليل الفالحين لطرق رياض الصالحين","category":"متنوع"},{"id":"Shjg0phEPIA","title":"223- أهمية حُسنِ المُعامَلَةِ، وحُسنِ الطَّلبِ بعزَّةِ نَفْسٍ في الأُمور كلِّها - شرح دليل الفالحين","publishedAt":"2022-03-30T07:37:45Z","duration":"PT28M52S","thumbnail":"https://i.ytimg.com/vi/Shjg0phEPIA/mqdefault.jpg","viewCount":"1576","playlistId":"PLEkQk5xrP-tkc9DXvSLguqX5-FYp6ASR4","playlistName":"دليل الفالحين لطرق رياض الصالحين","category":"متنوع"},{"id":"5ylDh1KooMM","title":"71-\"…كُلُّكمْ جائعٌ إلَّا منْ أطْعمْته، فاسْتَطْعمُوني أُطْعِمْكمْ....\"الحديث (17) شرح دليل الفالحين","publishedAt":"2021-05-31T08:05:39Z","duration":"PT32M20S","thumbnail":"https://i.ytimg.com/vi/5ylDh1KooMM/mqdefault.jpg","viewCount":"1575","playlistId":"PLEkQk5xrP-tkc9DXvSLguqX5-FYp6ASR4","playlistName":"دليل الفالحين لطرق رياض الصالحين","category":"متنوع"},{"id":"U9gsf5B7Shw","title":"لماذا خص الله الصيام بأجر من عنده؟ | مجالس رمضانية","publishedAt":"2025-03-22T15:00:37Z","duration":"PT24M13S","thumbnail":"https://i.ytimg.com/vi/U9gsf5B7Shw/mqdefault.jpg","viewCount":"1574","playlistId":"PLEkQk5xrP-tkeI_WVPfuoTJO46aVkpaz0","playlistName":"شرح كتاب ميزان الاعتدال لحفظ الدين والأحوال","category":"متنوع"},{"id":"VZwKzEC2SHQ","title":"117- دعاء الكرب - شرح مسند الإمام أحمد رضي الله تعالى عنه","publishedAt":"2024-07-18T05:30:11Z","duration":"PT33M39S","thumbnail":"https://i.ytimg.com/vi/VZwKzEC2SHQ/mqdefault.jpg","viewCount":"1573","playlistId":"PLEkQk5xrP-tkKprIuGrSdEuBSMsyg5We1","playlistName":"شرح مسند الإمام أحمد بن حنبل","category":"متنوع"},{"id":"m36zWIHOZzM","title":"98- \"بايَعْنا رسولَ الله ﷺ على السَّمعِ والطَّاعةِ في العُسر واليُسر …\" شرح دليل الفالحين","publishedAt":"2021-07-15T06:00:24Z","duration":"PT39M55S","thumbnail":"https://i.ytimg.com/vi/m36zWIHOZzM/mqdefault.jpg","viewCount":"1573","playlistId":"PLEkQk5xrP-tkc9DXvSLguqX5-FYp6ASR4","playlistName":"دليل الفالحين لطرق رياض الصالحين","category":"متنوع"},{"id":"HHfFPrwe4QU","title":"94- نبذة عن سيدنا الفضل بن العباس رضي اللهُ تعالى عنهما - شرح مسند الإمام أحمد رضي الله تعالى عنه","publishedAt":"2024-04-17T06:31:15Z","duration":"PT22M41S","thumbnail":"https://i.ytimg.com/vi/HHfFPrwe4QU/mqdefault.jpg","viewCount":"1573","playlistId":"PLEkQk5xrP-tkKprIuGrSdEuBSMsyg5We1","playlistName":"شرح مسند الإمام أحمد بن حنبل","category":"متنوع"},{"id":"TUbtSVFKhHc","title":"شرح صلوات سيدى أحمد الدردير رضي الله عنه - حرف الباء","publishedAt":"2013-12-29T21:49:18Z","duration":"PT12M43S","thumbnail":"https://i.ytimg.com/vi/TUbtSVFKhHc/mqdefault.jpg","viewCount":"1572","playlistId":"PLEkQk5xrP-tlXZQuhEiJGJka1QcRw7fbW","playlistName":"شرح الصلوات الدرديرية لسيدي أحمد الدردير رضي الله عنه","category":"ردود"}],"total":7670,"page":120,"pageSize":24,"totalPages":320}