{"items":[{"id":"ltm-Woc9o48","title":"56- طريقك إلى الأنس بالله | شرح منازل السائرين","publishedAt":"2024-12-24T19:56:46Z","duration":"PT31M42S","thumbnail":"https://i.ytimg.com/vi/ltm-Woc9o48/mqdefault.jpg","viewCount":"12601","playlistId":"PLEkQk5xrP-tmiUfQ-2Tsn7QIak4EsvaZW","playlistName":"كتاب التيسير المعين بشرح معاني منازل السائرين (تصوف) - د.يسري جبر","category":"تصوف"},{"id":"L5o21wnPllE","title":"أنا شاب بحاول أبطل العادة السرية ومش قادر ,, أعمل ايه؟","publishedAt":"2024-09-24T15:42:17Z","duration":"PT11M41S","thumbnail":"https://i.ytimg.com/vi/L5o21wnPllE/mqdefault.jpg","viewCount":"12583","playlistId":"PLEkQk5xrP-tkGXuZ9atE3k_7it12rUPTs","playlistName":"أسئلة المتابعين","category":"متنوع"},{"id":"m6ofcaw4c0M","title":"كتاب نوراليقين في سيرة سيد المرسلين للشيخ الخضري رحمه الله - المجلس 41 (سرية,عمرة القضاء) د.يسري جبر","publishedAt":"2018-03-05T13:07:39Z","duration":"PT50M27S","thumbnail":"https://i.ytimg.com/vi/m6ofcaw4c0M/mqdefault.jpg","viewCount":"12579","playlistId":"PLEkQk5xrP-tl2t4NQx1IhKnAJCMzF0Nli","playlistName":"شرح كتاب نور اليقين في سيرة سيد المرسلين   د. يسري جبر","category":"سيرة"},{"id":"9TxxO_4H0x4","title":"إنَّمَا أجْرَى الأذَى عَلى أيديهم كَي لا تَكُونَ سَاكِنًا إِلَيهم..","publishedAt":"2018-02-28T19:57:22Z","duration":"PT9M39S","thumbnail":"https://i.ytimg.com/vi/9TxxO_4H0x4/mqdefault.jpg","viewCount":"12573","playlistId":"PLEkQk5xrP-tkI_meE148wc7V7XHlB0WPb","playlistName":"من الحكم العطائية  د. يسري جبر","category":"متنوع"},{"id":"YqTdX8cD6EA","title":"ابنتي ترفض الحجاب,, ماذا أفعل؟","publishedAt":"2021-08-01T17:32:00Z","duration":"PT10M33S","thumbnail":"https://i.ytimg.com/vi/YqTdX8cD6EA/mqdefault.jpg","viewCount":"12569","playlistId":"PLEkQk5xrP-tkGXuZ9atE3k_7it12rUPTs","playlistName":"أسئلة المتابعين","category":"متنوع"},{"id":"cPASN-oDX2M","title":"قومٌ تسبق أنوارُهم أذكارَهم، وقومٌ تسبق أذكارُهم أنوارَهم، وقومٌ تتساوى أذكارُهم وأنوارُهم...","publishedAt":"2018-03-17T19:37:53Z","duration":"PT10M9S","thumbnail":"https://i.ytimg.com/vi/cPASN-oDX2M/mqdefault.jpg","viewCount":"12542","playlistId":"PLEkQk5xrP-tkI_meE148wc7V7XHlB0WPb","playlistName":"من الحكم العطائية  د. يسري جبر","category":"متنوع"},{"id":"EXkLJb1RvDw","title":"كتاب نوراليقين في سيرة سيد المرسلين - المجلس 44 (غزوة الفتح الأعظم(2)،العفو عند المقدرة) د.يسري جبر","publishedAt":"2018-04-01T14:27:01Z","duration":"PT47M47S","thumbnail":"https://i.ytimg.com/vi/EXkLJb1RvDw/mqdefault.jpg","viewCount":"12505","playlistId":"PLEkQk5xrP-tl2t4NQx1IhKnAJCMzF0Nli","playlistName":"شرح كتاب نور اليقين في سيرة سيد المرسلين   د. يسري جبر","category":"سيرة"},{"id":"SmIpGsvOxGA","title":"نور المصطفى ملأ الأكوان","publishedAt":"2016-07-09T18:46:02Z","duration":"PT13M32S","thumbnail":"https://i.ytimg.com/vi/SmIpGsvOxGA/mqdefault.jpg","viewCount":"12484","playlistId":"PLEkQk5xrP-tm8ZIu74nTOZN9KJUJu416J","playlistName":"مقاطع مُهمَّة (يُسريَّات) أ.د. يسري جبر","category":"متنوع"},{"id":"dfW4xYJqybY","title":"ما هي أفضل العبادات في رحلتك إلى العمرة ومسجد النبي ﷺ؟","publishedAt":"2023-02-19T18:00:25Z","duration":"PT10M11S","thumbnail":"https://i.ytimg.com/vi/dfW4xYJqybY/mqdefault.jpg","viewCount":"12475","playlistId":"PLEkQk5xrP-tm8ZIu74nTOZN9KJUJu416J","playlistName":"مقاطع مُهمَّة (يُسريَّات) أ.د. يسري جبر","category":"متنوع"},{"id":"1nnYb4tuE8w","title":"كتاب نوراليقين في سيرة سيد المرسلين - المجلس 45 (وفود كعب بن زهير) د.يسري جبر","publishedAt":"2018-04-08T13:15:51Z","duration":"PT49M33S","thumbnail":"https://i.ytimg.com/vi/1nnYb4tuE8w/mqdefault.jpg","viewCount":"12449","playlistId":"PLEkQk5xrP-tl2t4NQx1IhKnAJCMzF0Nli","playlistName":"شرح كتاب نور اليقين في سيرة سيد المرسلين   د. يسري جبر","category":"سيرة"},{"id":"bO4CroQih0Q","title":"الرسالة القشيرية - المجلس الخامس و العشرون - (القبض والبسط - الهيبة والأُنس).","publishedAt":"2018-08-02T10:19:47Z","duration":"PT52M47S","thumbnail":"https://i.ytimg.com/vi/bO4CroQih0Q/mqdefault.jpg","viewCount":"12437","playlistId":"PLEkQk5xrP-tkHAGOwIKr4pc5ehhyQ5HMJ","playlistName":"كتاب الرسالة القشيرية (تصوف) - د. يسري جبر","category":"تصوف"},{"id":"ipAwxGCAXiI","title":"ما هي آداب زيارة الأولياء والصالحين؟","publishedAt":"2022-04-14T19:30:03Z","duration":"PT8M36S","thumbnail":"https://i.ytimg.com/vi/ipAwxGCAXiI/mqdefault.jpg","viewCount":"12429","playlistId":"PLEkQk5xrP-tm8ZIu74nTOZN9KJUJu416J","playlistName":"مقاطع مُهمَّة (يُسريَّات) أ.د. يسري جبر","category":"متنوع"},{"id":"uLDRb4XTsqs","title":"مِنْ عَجَائِبِ التَوبَةِ أَنَّهَا تُغَيِّرِ المَاضِى  د. يسرى جبر","publishedAt":"2015-07-01T17:45:47Z","duration":"PT7M6S","thumbnail":"https://i.ytimg.com/vi/uLDRb4XTsqs/mqdefault.jpg","viewCount":"12414","playlistId":"PLEkQk5xrP-tm8ZIu74nTOZN9KJUJu416J","playlistName":"مقاطع مُهمَّة (يُسريَّات) أ.د. يسري جبر","category":"متنوع"},{"id":"S6Iw7WYVx2Q","title":"كم تكون نفقة الزوجة بعد الطلاق؟","publishedAt":"2021-12-07T18:48:43Z","duration":"PT8M1S","thumbnail":"https://i.ytimg.com/vi/S6Iw7WYVx2Q/mqdefault.jpg","viewCount":"12403","playlistId":"PLEkQk5xrP-tm8ZIu74nTOZN9KJUJu416J","playlistName":"مقاطع مُهمَّة (يُسريَّات) أ.د. يسري جبر","category":"متنوع"},{"id":"krSDFCigd6o","title":"الرسالة القشيرية المجلس السابع و الثلاثون(النَّفْس والروح والسرّ) د. يسري جبر","publishedAt":"2018-11-25T18:34:55Z","duration":"PT1H12M15S","thumbnail":"https://i.ytimg.com/vi/krSDFCigd6o/mqdefault.jpg","viewCount":"12402","playlistId":"PLEkQk5xrP-tkHAGOwIKr4pc5ehhyQ5HMJ","playlistName":"كتاب الرسالة القشيرية (تصوف) - د. يسري جبر","category":"تصوف"},{"id":"2rWFUVMRBj4","title":"تفاصيل تسمعها لأول مرة عن حادثة شق صدر النبي ﷺ","publishedAt":"2022-10-08T18:16:20Z","duration":"PT18M35S","thumbnail":"https://i.ytimg.com/vi/2rWFUVMRBj4/mqdefault.jpg","viewCount":"12377","playlistId":"PLEkQk5xrP-tlArtGpeLWaqNM7h7IDeAVC","playlistName":"خطب الجمعة أ.د. يسري جبر","category":"خطب"},{"id":"7XesWbbtJXI","title":"الفرق بين المُتوكِّل والمُفوِّض","publishedAt":"2020-10-09T20:37:39Z","duration":"PT12M13S","thumbnail":"https://i.ytimg.com/vi/7XesWbbtJXI/mqdefault.jpg","viewCount":"12375","playlistId":"PLEkQk5xrP-tm8ZIu74nTOZN9KJUJu416J","playlistName":"مقاطع مُهمَّة (يُسريَّات) أ.د. يسري جبر","category":"متنوع"},{"id":"ArnlvcPAY7o","title":"ما موقف الصوفية من سيدنا معاوية بن أبي سفيان؟","publishedAt":"2022-09-17T18:41:33Z","duration":"PT11M34S","thumbnail":"https://i.ytimg.com/vi/ArnlvcPAY7o/mqdefault.jpg","viewCount":"12352","playlistId":"PLEkQk5xrP-tkGXuZ9atE3k_7it12rUPTs","playlistName":"أسئلة المتابعين","category":"متنوع"},{"id":"3uXvn2lb3ps","title":"أنا لا أستطيع المواظبة على الذكر فماذا أفعل؟","publishedAt":"2024-11-04T17:18:24Z","duration":"PT8M3S","thumbnail":"https://i.ytimg.com/vi/3uXvn2lb3ps/mqdefault.jpg","viewCount":"12341","playlistId":"PLEkQk5xrP-tkGXuZ9atE3k_7it12rUPTs","playlistName":"أسئلة المتابعين","category":"متنوع"},{"id":"FFqhdgKwR9M","title":"هل الانقطاع عن الأوراد خروج عن الطريق؟","publishedAt":"2021-08-06T17:30:00Z","duration":"PT10M9S","thumbnail":"https://i.ytimg.com/vi/FFqhdgKwR9M/mqdefault.jpg","viewCount":"12323","playlistId":"PLEkQk5xrP-tkGXuZ9atE3k_7it12rUPTs","playlistName":"أسئلة المتابعين","category":"متنوع"},{"id":"DaVm9RfIBVU","title":"كيف نواجه الأفلام الموجهة لدعم الشذوذ؟","publishedAt":"2022-01-28T18:15:03Z","duration":"PT23M53S","thumbnail":"https://i.ytimg.com/vi/DaVm9RfIBVU/mqdefault.jpg","viewCount":"12313","playlistId":"PLEkQk5xrP-tlArtGpeLWaqNM7h7IDeAVC","playlistName":"خطب الجمعة أ.د. يسري جبر","category":"خطب"},{"id":"kI8H5hsYD2k","title":"1- شرح كتاب اللؤلؤ والمرجان فيما اتفق عليه الشيخان إماما المحدثين البخاري ومسلم.   أ.د. يسري جبر","publishedAt":"2019-11-27T18:33:37Z","duration":"PT43M12S","thumbnail":"https://i.ytimg.com/vi/kI8H5hsYD2k/mqdefault.jpg","viewCount":"12267","playlistId":"PLEkQk5xrP-tmKNjtYLfhATC37QdIsTMe0","playlistName":"شرح كتاب اللؤلؤ والمرجان فيما اتفق عليه الشيخان إماما المحدثين البخاري ومسلم. أ.د. يسري جبر","category":"حديث"},{"id":"DIv5j1p8MrY","title":"الرسالة القشيرية - المجلس (118) بَابُ رؤيا القوم ٢ | أ.د. يسري جبر","publishedAt":"2022-06-09T19:07:23Z","duration":"PT56M27S","thumbnail":"https://i.ytimg.com/vi/DIv5j1p8MrY/mqdefault.jpg","viewCount":"12263","playlistId":"PLEkQk5xrP-tkHAGOwIKr4pc5ehhyQ5HMJ","playlistName":"كتاب الرسالة القشيرية (تصوف) - د. يسري جبر","category":"تصوف"},{"id":"H7PJSsNAxHI","title":"المجلس الرابع من شرح الخريدة البهية","publishedAt":"2013-08-03T16:06:02Z","duration":"PT55M35S","thumbnail":"https://i.ytimg.com/vi/H7PJSsNAxHI/mqdefault.jpg","viewCount":"12197","playlistId":"PLEkQk5xrP-tnI6h_R1hvYgrrstFAJCvv9","playlistName":"شرح الخريدة البهية د. يسري جبر","category":"متنوع"}],"total":7675,"page":24,"pageSize":24,"totalPages":320}