{"items":[{"id":"Ujtt8JB55K0","title":"الظُّلُمَاتُ وَالنُّورُ ما الفَرْقُ بَينَهُمَا؟ - شرح البرهان في علوم القرآن","publishedAt":"2022-03-16T08:46:16Z","duration":"PT9M27S","thumbnail":"https://i.ytimg.com/vi/Ujtt8JB55K0/mqdefault.jpg","viewCount":"1070","playlistId":"PLEkQk5xrP-tnW3iBL7HkKziOFCFZbTlf0","playlistName":"شرح البرهان في علوم القرآن - أ.د. يسري جبر","category":"تفسير"},{"id":"vvetyQQ_9qU","title":"قابلت مسلمين اسلموا بعد 60 سنة من الكفر!!","publishedAt":"2025-11-24T17:59:56Z","duration":"PT9M26S","thumbnail":"https://i.ytimg.com/vi/vvetyQQ_9qU/mqdefault.jpg","viewCount":"1069","playlistId":"PLEkQk5xrP-tlArtGpeLWaqNM7h7IDeAVC","playlistName":"خطب الجمعة أ.د. يسري جبر","category":"خطب"},{"id":"VVRiF8OZd9w","title":"56- القرآن والقراءات  - شرح الإتقان في علوم القرآن","publishedAt":"2023-04-30T05:00:20Z","duration":"PT33M46S","thumbnail":"https://i.ytimg.com/vi/VVRiF8OZd9w/mqdefault.jpg","viewCount":"1069","playlistId":"PLEkQk5xrP-tlPw10KGJKagu7zm4Ry2Tge","playlistName":"شرح الإتقان في علوم القرآن","category":"تفسير"},{"id":"xoXfqq_jOCY","title":"24- النَّوْعُ التاسع: معرفة سبب النزول(5) المسألة الخامسة: الحالة السادسة - الجزء الأول","publishedAt":"2023-02-16T05:00:34Z","duration":"PT32M13S","thumbnail":"https://i.ytimg.com/vi/xoXfqq_jOCY/mqdefault.jpg","viewCount":"1068","playlistId":"PLEkQk5xrP-tlPw10KGJKagu7zm4Ry2Tge","playlistName":"شرح الإتقان في علوم القرآن","category":"تفسير"},{"id":"jL4D2kZQYwU","title":"أساليب القرآن وفنونه البليغة","publishedAt":"2020-12-29T09:37:27Z","duration":"PT11M46S","thumbnail":"https://i.ytimg.com/vi/jL4D2kZQYwU/mqdefault.jpg","viewCount":"1068","playlistId":"PLEkQk5xrP-tnW3iBL7HkKziOFCFZbTlf0","playlistName":"شرح البرهان في علوم القرآن - أ.د. يسري جبر","category":"تفسير"},{"id":"i7Eo2ddo2kw","title":"سورة البقرة آية 158","publishedAt":"2016-05-05T02:39:45Z","duration":"PT13M48S","thumbnail":"https://i.ytimg.com/vi/i7Eo2ddo2kw/mqdefault.jpg","viewCount":"1067","playlistId":"PLEkQk5xrP-tnmTYsyW6xNdyfhPq0Bhrhj","playlistName":"مقرأة الفجر - القُرْآنُ الكَرِيمُ - خَتْمَةُ التَّدَبُّرِ  أ.د. يسري جبر","category":"متنوع"},{"id":"4GbYMUQMH3c","title":"94- التعاون على البِرِّ والتَّقْوى - شرح دليل الفالحين","publishedAt":"2021-07-08T05:32:35Z","duration":"PT45M15S","thumbnail":"https://i.ytimg.com/vi/4GbYMUQMH3c/mqdefault.jpg","viewCount":"1066","playlistId":"PLEkQk5xrP-tkc9DXvSLguqX5-FYp6ASR4","playlistName":"دليل الفالحين لطرق رياض الصالحين","category":"متنوع"},{"id":"kshbyyjyOfg","title":"الاستعداد لكل ليلة في رمضان | اعرف نبيك في رمضان","publishedAt":"2016-06-08T20:30:50Z","duration":"PT7M29S","thumbnail":"https://i.ytimg.com/vi/kshbyyjyOfg/mqdefault.jpg","viewCount":"1066","playlistId":"PLEkQk5xrP-tmhJ_gpAAFyOpEsHp0_VAJ-","playlistName":"برنامج اعرف نبيك في رمضان","category":"متنوع"},{"id":"p5jphaEFHYo","title":"345- \"…إنَّ اللَّهَ وملائِكتَهُ يُصلُّونَ على الصُّفوفِ الأُوَل…\" - شرح دليل الفالحين","publishedAt":"2022-11-28T05:00:22Z","duration":"PT51M37S","thumbnail":"https://i.ytimg.com/vi/p5jphaEFHYo/mqdefault.jpg","viewCount":"1066","playlistId":"PLEkQk5xrP-tkc9DXvSLguqX5-FYp6ASR4","playlistName":"دليل الفالحين لطرق رياض الصالحين","category":"متنوع"},{"id":"H23FCoJORIw","title":"144- \"…مَن أحَقُّ النَّاسِ بحُسْنِ صَحَابَتِي؟ قالَ: أُمُّكَ، قال: ثُمَّ مَنْ؟…\"- شرح دليل الفالحين","publishedAt":"2021-10-20T05:58:09Z","duration":"PT36M31S","thumbnail":"https://i.ytimg.com/vi/H23FCoJORIw/mqdefault.jpg","viewCount":"1065","playlistId":"PLEkQk5xrP-tkc9DXvSLguqX5-FYp6ASR4","playlistName":"دليل الفالحين لطرق رياض الصالحين","category":"متنوع"},{"id":"ZiRCCLd6-T4","title":"مقرأة سورة الفرقان من آية ٤٩","publishedAt":"2018-04-03T08:47:02Z","duration":"PT11M41S","thumbnail":"https://i.ytimg.com/vi/ZiRCCLd6-T4/mqdefault.jpg","viewCount":"1065","playlistId":"PLEkQk5xrP-tnmTYsyW6xNdyfhPq0Bhrhj","playlistName":"مقرأة الفجر - القُرْآنُ الكَرِيمُ - خَتْمَةُ التَّدَبُّرِ  أ.د. يسري جبر","category":"متنوع"},{"id":"94xiZegcYDs","title":"130- مَن عالَ جارِيَتَيْنِ حتَّى تَبْلُغا، جاءَ يَومَ القِيامَةِ أنا وهو كهاتين وضَمَّ أصابِعَهُ","publishedAt":"2021-09-21T06:27:36Z","duration":"PT51M16S","thumbnail":"https://i.ytimg.com/vi/94xiZegcYDs/mqdefault.jpg","viewCount":"1065","playlistId":"PLEkQk5xrP-tkc9DXvSLguqX5-FYp6ASR4","playlistName":"دليل الفالحين لطرق رياض الصالحين","category":"متنوع"},{"id":"HcO40BU3PBA","title":"شرح صحيح البخاري - كتاب الصوم من باب ٢٠","publishedAt":"2017-03-30T13:16:34Z","duration":"PT41M3S","thumbnail":"https://i.ytimg.com/vi/HcO40BU3PBA/mqdefault.jpg","viewCount":"1065","playlistId":"PLEkQk5xrP-tlEerGoLa1AFy-2XvQ-sovv","playlistName":"شرح صحيح البخاري - أ.د. يسري جبر (كاملا)","category":"حديث"},{"id":"ekR_RKDRpH0","title":"شرح صحيح البخاري كتاب الخوف من أوله","publishedAt":"2016-12-05T06:36:30Z","duration":"PT35M55S","thumbnail":"https://i.ytimg.com/vi/ekR_RKDRpH0/mqdefault.jpg","viewCount":"1065","playlistId":"PLEkQk5xrP-tlEerGoLa1AFy-2XvQ-sovv","playlistName":"شرح صحيح البخاري - أ.د. يسري جبر (كاملا)","category":"حديث"},{"id":"fsH4HzBeN6U","title":"140-أهمية دعاء التشهد قبل التسليم - شرح مسند الإمام أحمد رضي الله تعالى عنه","publishedAt":"2024-11-29T06:00:31Z","duration":"PT19M13S","thumbnail":"https://i.ytimg.com/vi/fsH4HzBeN6U/mqdefault.jpg","viewCount":"1064","playlistId":"PLEkQk5xrP-tkKprIuGrSdEuBSMsyg5We1","playlistName":"شرح مسند الإمام أحمد بن حنبل","category":"متنوع"},{"id":"AXeiUnJfTWQ","title":"432- ما يُباحُ مِن الغِيبة - شرح دليل الفالحين","publishedAt":"2023-04-30T08:59:00Z","duration":"PT18M49S","thumbnail":"https://i.ytimg.com/vi/AXeiUnJfTWQ/mqdefault.jpg","viewCount":"1064","playlistId":"PLEkQk5xrP-tkc9DXvSLguqX5-FYp6ASR4","playlistName":"دليل الفالحين لطرق رياض الصالحين","category":"متنوع"},{"id":"5n6DaWNBKoo","title":"240- الورعُ وتركُ الشُبُهات - شرح دليل الفالحين","publishedAt":"2022-04-29T05:00:04Z","duration":"PT43M40S","thumbnail":"https://i.ytimg.com/vi/5n6DaWNBKoo/mqdefault.jpg","viewCount":"1063","playlistId":"PLEkQk5xrP-tkc9DXvSLguqX5-FYp6ASR4","playlistName":"دليل الفالحين لطرق رياض الصالحين","category":"متنوع"},{"id":"WowVnzCkAJA","title":"(21) سيدنا أبو السَّري منصور بن عمَّار رضي الله عنه  د. يسري جبر","publishedAt":"2018-04-27T20:19:39Z","duration":"PT7M33S","thumbnail":"https://i.ytimg.com/vi/WowVnzCkAJA/mqdefault.jpg","viewCount":"1062","playlistId":"PLEkQk5xrP-tmmI87XkWepRdTpisz2Lfgr","playlistName":"باب في ذكر مشايخ هذه الطريقة من شرح كتاب الرسالة القشيرية","category":"تصوف"},{"id":"ikPCcfrtmqI","title":"شرح صحيح البخاري كتاب العِيدَين من أوله","publishedAt":"2016-12-06T07:55:44Z","duration":"PT39M20S","thumbnail":"https://i.ytimg.com/vi/ikPCcfrtmqI/mqdefault.jpg","viewCount":"1062","playlistId":"PLEkQk5xrP-tlEerGoLa1AFy-2XvQ-sovv","playlistName":"شرح صحيح البخاري - أ.د. يسري جبر (كاملا)","category":"حديث"},{"id":"oJXWL3IlZwc","title":"لماذا نهى النبي ﷺ عن النذر؟ | مجالس رمضانية","publishedAt":"2023-04-18T07:06:05Z","duration":"PT42M16S","thumbnail":"https://i.ytimg.com/vi/oJXWL3IlZwc/mqdefault.jpg","viewCount":"1062","playlistId":"PLEkQk5xrP-tnl7vb7KeAoPd5ZlqKKW8KV","playlistName":"شرح كتاب بهجة النفوس أ.د . يسرى جبر","category":"متنوع"},{"id":"cWqgAfpd4Fc","title":"شرح كتاب منازل السائرين للإمام الهروى المجلس الرابع والأربعون قسم الأَحوال باب الشوق وباب القلق","publishedAt":"2015-04-13T04:58:41Z","duration":"PT44M35S","thumbnail":"https://i.ytimg.com/vi/cWqgAfpd4Fc/mqdefault.jpg","viewCount":"1061","playlistId":"PLEkQk5xrP-tnLYi_5_tSRVBwqcs7ISV7Y","playlistName":"شرح كتاب منازل السائرين للإمام الهروي","category":"متنوع"},{"id":"i8I_f0Gw0Ik","title":"العلم قبل العمل  د. يسري جبر","publishedAt":"2016-08-20T20:06:44Z","duration":"PT39M31S","thumbnail":"https://i.ytimg.com/vi/i8I_f0Gw0Ik/mqdefault.jpg","viewCount":"1061","playlistId":"PLEkQk5xrP-tlArtGpeLWaqNM7h7IDeAVC","playlistName":"خطب الجمعة أ.د. يسري جبر","category":"خطب"},{"id":"D3dYnHM41DE","title":"شرح سنن الدارمي - المقدمة - ٨","publishedAt":"2019-02-28T20:13:37Z","duration":"PT41M51S","thumbnail":"https://i.ytimg.com/vi/D3dYnHM41DE/mqdefault.jpg","viewCount":"1060","playlistId":"PLEkQk5xrP-tmAg-FuWjY057X_h5NmGmAa","playlistName":"شرح سنن الدارمي - أ.د. يسري جبر (كاملا)","category":"متنوع"},{"id":"HHpOUhyAFII","title":"القصيدة المُحمَّدِيَّة للإمام البوصيري رضي الله تعالى عنه   د. يسري جبر","publishedAt":"2018-09-01T19:01:34Z","duration":"PT2M34S","thumbnail":"https://i.ytimg.com/vi/HHpOUhyAFII/mqdefault.jpg","viewCount":"1059","playlistId":"PLEkQk5xrP-tk3OeVFoMfKhOhyINnlPeYZ","playlistName":"الحَضْرَةُ الصِّدِّيقِيَّة والأوْرَاد","category":"متنوع"}],"total":7670,"page":148,"pageSize":24,"totalPages":320}