{"items":[{"id":"ZupozzbtSjM","title":"شرح منازل السائرين - المجلس (34) باب التوكل | أ.د. يسري جبر","publishedAt":"2024-01-22T19:09:34Z","duration":"PT37M13S","thumbnail":"https://i.ytimg.com/vi/ZupozzbtSjM/mqdefault.jpg","viewCount":"6071","playlistId":"PLEkQk5xrP-tmiUfQ-2Tsn7QIak4EsvaZW","playlistName":"كتاب التيسير المعين بشرح معاني منازل السائرين (تصوف) - د.يسري جبر","category":"تصوف"},{"id":"F8MCGHPZpO0","title":"الأربعون النووية - المجلس الأول","publishedAt":"2020-11-29T08:20:11Z","duration":"PT40M8S","thumbnail":"https://i.ytimg.com/vi/F8MCGHPZpO0/mqdefault.jpg","viewCount":"6071","playlistId":"PLEkQk5xrP-tmHtx4cjd_IK-SgBg00N_ZN","playlistName":"الأربعون النووية","category":"حديث"},{"id":"S2iIp9-oBug","title":"شرح منازل السائرين - المجلس (10) باب التَّفَكُّرِ ۳ | أ.د. يسري جبر","publishedAt":"2022-10-05T18:00:25Z","duration":"PT40M48S","thumbnail":"https://i.ytimg.com/vi/S2iIp9-oBug/mqdefault.jpg","viewCount":"6067","playlistId":"PLEkQk5xrP-tmiUfQ-2Tsn7QIak4EsvaZW","playlistName":"كتاب التيسير المعين بشرح معاني منازل السائرين (تصوف) - د.يسري جبر","category":"تصوف"},{"id":"ikwfZQXvG4U","title":"ما هي أنواع الحب؟","publishedAt":"2023-03-29T19:00:27Z","duration":"PT8M20S","thumbnail":"https://i.ytimg.com/vi/ikwfZQXvG4U/mqdefault.jpg","viewCount":"6065","playlistId":"PLEkQk5xrP-tm8ZIu74nTOZN9KJUJu416J","playlistName":"مقاطع مُهمَّة (يُسريَّات) أ.د. يسري جبر","category":"متنوع"},{"id":"fvebb0g180g","title":"8- مما يدلك على وجود قهره سبحانه أن حجبك عنه بما ليس بموجود معه | شرح الحكم العطائية","publishedAt":"2024-09-05T16:00:41Z","duration":"PT44M55S","thumbnail":"https://i.ytimg.com/vi/fvebb0g180g/mqdefault.jpg","viewCount":"6051","playlistId":"PLEkQk5xrP-tmf5ToOwmW-q0JwxkapbrMN","playlistName":"شرح كتاب إرشاد البرية إلى بعض معاني الحكم العطائية","category":"متنوع"},{"id":"3-5jBY9HDSo","title":"الرسالة القشيرية - المجلس (63)  بابُ الشُكْرِ . أ.د. يسري جبر","publishedAt":"2019-10-16T21:32:27Z","duration":"PT53M48S","thumbnail":"https://i.ytimg.com/vi/3-5jBY9HDSo/mqdefault.jpg","viewCount":"6043","playlistId":"PLEkQk5xrP-tkHAGOwIKr4pc5ehhyQ5HMJ","playlistName":"كتاب الرسالة القشيرية (تصوف) - د. يسري جبر","category":"تصوف"},{"id":"YCKToSCFGKk","title":"كيف تصل إلى أعلى درجات الإيمان؟ | مجالس رمضانية","publishedAt":"2025-03-15T15:30:11Z","duration":"PT31M22S","thumbnail":"https://i.ytimg.com/vi/YCKToSCFGKk/mqdefault.jpg","viewCount":"6033","playlistId":"PLEkQk5xrP-tkeI_WVPfuoTJO46aVkpaz0","playlistName":"شرح كتاب ميزان الاعتدال لحفظ الدين والأحوال","category":"متنوع"},{"id":"0xPNr8bpGbM","title":"لماذا اختلف العلماء في تحديد أسماء الله؟","publishedAt":"2022-01-21T18:24:59Z","duration":"PT12M17S","thumbnail":"https://i.ytimg.com/vi/0xPNr8bpGbM/mqdefault.jpg","viewCount":"6026","playlistId":"PLEkQk5xrP-tkGXuZ9atE3k_7it12rUPTs","playlistName":"أسئلة المتابعين","category":"متنوع"},{"id":"AUkM4MPGjH4","title":"كيف نتخلص من الخصومة","publishedAt":"2020-06-24T20:23:27Z","duration":"PT10M56S","thumbnail":"https://i.ytimg.com/vi/AUkM4MPGjH4/mqdefault.jpg","viewCount":"6019","playlistId":"PLEkQk5xrP-tm8ZIu74nTOZN9KJUJu416J","playlistName":"مقاطع مُهمَّة (يُسريَّات) أ.د. يسري جبر","category":"متنوع"},{"id":"MxNkPl4XFBs","title":"لطائف ومعاني حول أسماء الله الحسنى","publishedAt":"2023-08-08T18:00:11Z","duration":"PT11M14S","thumbnail":"https://i.ytimg.com/vi/MxNkPl4XFBs/mqdefault.jpg","viewCount":"6004","playlistId":"PLEkQk5xrP-tlArtGpeLWaqNM7h7IDeAVC","playlistName":"خطب الجمعة أ.د. يسري جبر","category":"خطب"},{"id":"BKGId54cCew","title":"هل حلق اللحية من الكبائر؟","publishedAt":"2024-09-09T18:37:42Z","duration":"PT10M50S","thumbnail":"https://i.ytimg.com/vi/BKGId54cCew/mqdefault.jpg","viewCount":"6003","playlistId":"PLEkQk5xrP-tnZyxWbCSqTSMV9BJLUL-zN","playlistName":"شرح كتاب تنوير البصيرة ببيان علامات الكبيرة","category":"متنوع"},{"id":"y65KhMVc85c","title":"هل حب النَّبيّ ﷺ سبب لدخول الجنة؟","publishedAt":"2022-09-29T18:00:32Z","duration":"PT12M","thumbnail":"https://i.ytimg.com/vi/y65KhMVc85c/mqdefault.jpg","viewCount":"6002","playlistId":"PLEkQk5xrP-tlArtGpeLWaqNM7h7IDeAVC","playlistName":"خطب الجمعة أ.د. يسري جبر","category":"خطب"},{"id":"bBr6AONS2VQ","title":"ما حدود الكلام والشات بين الشباب والفتيات قبل الزواج؟","publishedAt":"2025-08-27T18:00:39Z","duration":"PT8M9S","thumbnail":"https://i.ytimg.com/vi/bBr6AONS2VQ/mqdefault.jpg","viewCount":"5997","playlistId":"PLEkQk5xrP-tkGXuZ9atE3k_7it12rUPTs","playlistName":"أسئلة المتابعين","category":"متنوع"},{"id":"LdYfqYKT_os","title":"كيف تتغلب على وساوس الشيطان؟ | مجالس رمضانية","publishedAt":"2025-03-12T15:30:14Z","duration":"PT33M2S","thumbnail":"https://i.ytimg.com/vi/LdYfqYKT_os/mqdefault.jpg","viewCount":"5988","playlistId":"PLEkQk5xrP-tkeI_WVPfuoTJO46aVkpaz0","playlistName":"شرح كتاب ميزان الاعتدال لحفظ الدين والأحوال","category":"متنوع"},{"id":"lPyPTIY5qFA","title":"ليه ربنا خلقنا وهو هيموتنا؟","publishedAt":"2021-05-06T19:15:00Z","duration":"PT10M27S","thumbnail":"https://i.ytimg.com/vi/lPyPTIY5qFA/mqdefault.jpg","viewCount":"5979","playlistId":"PLEkQk5xrP-tkGXuZ9atE3k_7it12rUPTs","playlistName":"أسئلة المتابعين","category":"متنوع"},{"id":"CoERdT85iVM","title":"منازل السائرين للإمام الهروى المجلس السادس والخمسون قسم النهايات بَابُ المَعْرِفَة","publishedAt":"2015-11-30T17:44:14Z","duration":"PT1H3M57S","thumbnail":"https://i.ytimg.com/vi/CoERdT85iVM/mqdefault.jpg","viewCount":"5978","playlistId":"PLEkQk5xrP-tnLYi_5_tSRVBwqcs7ISV7Y","playlistName":"شرح كتاب منازل السائرين للإمام الهروي","category":"متنوع"},{"id":"PnOUpfAz-OA","title":"هل لبس السلسلة حرام للرجال؟","publishedAt":"2021-10-06T19:56:53Z","duration":"PT8M59S","thumbnail":"https://i.ytimg.com/vi/PnOUpfAz-OA/mqdefault.jpg","viewCount":"5967","playlistId":"PLEkQk5xrP-tkGXuZ9atE3k_7it12rUPTs","playlistName":"أسئلة المتابعين","category":"متنوع"},{"id":"GxC3BwxuV4w","title":"شرح منازل السائرين - المجلس (25) باب الرجاء | أ.د. يسري جبر","publishedAt":"2023-02-08T18:00:11Z","duration":"PT45M56S","thumbnail":"https://i.ytimg.com/vi/GxC3BwxuV4w/mqdefault.jpg","viewCount":"5960","playlistId":"PLEkQk5xrP-tmiUfQ-2Tsn7QIak4EsvaZW","playlistName":"كتاب التيسير المعين بشرح معاني منازل السائرين (تصوف) - د.يسري جبر","category":"تصوف"},{"id":"2lSAM2JFu2Y","title":"‎الرسالة القشيرية - المجلس (85) بَابُ الدعاء | أ.د. يسري جبر","publishedAt":"2020-03-21T20:46:35Z","duration":"PT47M56S","thumbnail":"https://i.ytimg.com/vi/2lSAM2JFu2Y/mqdefault.jpg","viewCount":"5957","playlistId":"PLEkQk5xrP-tkHAGOwIKr4pc5ehhyQ5HMJ","playlistName":"كتاب الرسالة القشيرية (تصوف) - د. يسري جبر","category":"تصوف"},{"id":"hDfOntbBmYo","title":"شرح الصلاة الأنموذجية لسيدي محمد بن عبد الكبير الكتاني رضي الله عنه  أ.د. يسري جبر","publishedAt":"2019-09-28T14:21:28Z","duration":"PT11M19S","thumbnail":"https://i.ytimg.com/vi/hDfOntbBmYo/mqdefault.jpg","viewCount":"5955","playlistId":"PLEkQk5xrP-tknLQLcWmVVpecUHkbu7cHh","playlistName":"شرح صلوات مختارة على النبي صلى الله عليه وآله وسلم  أ.د. يسري جبر","category":"سيرة"},{"id":"TXO4cipo7ks","title":"وُرُودُ الفاقات أعيادُ المُريدين","publishedAt":"2017-05-27T16:34:39Z","duration":"PT15M33S","thumbnail":"https://i.ytimg.com/vi/TXO4cipo7ks/mqdefault.jpg","viewCount":"5954","playlistId":"PLEkQk5xrP-tkI_meE148wc7V7XHlB0WPb","playlistName":"من الحكم العطائية  د. يسري جبر","category":"متنوع"},{"id":"J9K5sBqk7KQ","title":"شرح الحزب الكبير- المجلس الخامس   د.يسري جبر","publishedAt":"2017-07-04T18:13:18Z","duration":"PT50M11S","thumbnail":"https://i.ytimg.com/vi/J9K5sBqk7KQ/mqdefault.jpg","viewCount":"5953","playlistId":"PLEkQk5xrP-tlm5F9ID5I_--LMV7PcWjp_","playlistName":"شرح الحزب الكبير لسيدى أبي الحسن الشاذلي د.يسري جبر","category":"متنوع"},{"id":"Capx0Q6dLhc","title":"8- الصيغة العَليَّة لسيِّدِنا عليّ رَضي اللَّهُ عنه وكَرَّمَ اللَّهُ وجهه وعليه السَّلام","publishedAt":"2022-07-19T05:45:00Z","duration":"PT30M16S","thumbnail":"https://i.ytimg.com/vi/Capx0Q6dLhc/mqdefault.jpg","viewCount":"5952","playlistId":"PLEkQk5xrP-tkFEtMu56Xb9U9FCZBTXiLf","playlistName":"شرح صلوات الأولياء على خاتم الأنبياء ﷺ","category":"صلوات"},{"id":"VuHy_fr60Wk","title":"ما هي الأعمال المستحبة في شهر رجب؟","publishedAt":"2023-01-27T18:00:14Z","duration":"PT8M36S","thumbnail":"https://i.ytimg.com/vi/VuHy_fr60Wk/mqdefault.jpg","viewCount":"5950","playlistId":"PLEkQk5xrP-tlArtGpeLWaqNM7h7IDeAVC","playlistName":"خطب الجمعة أ.د. يسري جبر","category":"خطب"}],"total":7675,"page":52,"pageSize":24,"totalPages":320}