{"items":[{"id":"EXTsO4uDw9E","title":"Ø§Ù„ØªÙ‘ÙÙˆÙƒÙ‘ÙÙ„ Ø±Ø®ØµØ© ÙˆØ§Ù„ØªÙ‘ÙÙÙˆÙŠØ¶ Ø¹Ø²ÙŠÙ…Ø©","publishedAt":"2020-10-08T19:00:35Z","duration":"PT5M36S","thumbnail":"https://i.ytimg.com/vi/EXTsO4uDw9E/mqdefault.jpg","viewCount":"3000","playlistId":"PLEkQk5xrP-tm8ZIu74nTOZN9KJUJu416J","playlistName":"Ù…Ù‚Ø§Ø·Ø¹ Ù…ÙÙ‡Ù…ÙÙ‘Ø© (ÙŠÙØ³Ø±ÙŠÙ‘ÙØ§Øª) Ø£.Ø¯. ÙŠØ³Ø±ÙŠ Ø¬Ø¨Ø±","category":"Ù…ØªÙ†ÙˆØ¹"},{"id":"O1LyLHFcGew","title":"Ù…Ø§ Ø¹Ù„Ù‰ Ø§Ù„Ù…Ø³Ù„Ù… Ø²Ù…Ù† Ø§Ù„ÙØªÙ†Ø©  Ø¯. ÙŠØ³Ø±ÙŠ Ø¬Ø¨Ø±","publishedAt":"2018-04-01T14:29:06Z","duration":"PT36M56S","thumbnail":"https://i.ytimg.com/vi/O1LyLHFcGew/mqdefault.jpg","viewCount":"3000","playlistId":"PLEkQk5xrP-tlArtGpeLWaqNM7h7IDeAVC","playlistName":"Ø®Ø·Ø¨ Ø§Ù„Ø¬Ù…Ø¹Ø© Ø£.Ø¯. ÙŠØ³Ø±ÙŠ Ø¬Ø¨Ø±","category":"Ø®Ø·Ø¨"},{"id":"WMrUe8vGp8E","title":"Ù…Ù†Ø§Ø²Ù„ Ø§Ù„Ø³Ø§Ø¦Ø±ÙŠÙ† Ù„Ù„Ø¥Ù…Ø§Ù… Ø§Ù„Ù‡Ø±ÙˆÙ‰ Ø§Ù„Ù…Ø¬Ù„Ø³ Ø§Ù„ØªØ§Ø³Ø¹ ÙˆØ§Ù„Ø®Ù…Ø³ÙˆÙ† Ù‚Ø³Ù… Ø§Ù„Ù†Ù‡Ø§ÙŠØ§Øª Ø¨ÙØ§Ø¨Ù Ø§Ù„ÙˆÙØ¬ÙÙˆØ¯Ù ÙˆØ¨ÙØ§Ø¨Ù Ø§Ù„ØªÙØ¬Ù’Ø±ÙÙŠØ¯Ù","publishedAt":"2015-12-15T13:49:33Z","duration":"PT32M24S","thumbnail":"https://i.ytimg.com/vi/WMrUe8vGp8E/mqdefault.jpg","viewCount":"2996","playlistId":"PLEkQk5xrP-tnLYi_5_tSRVBwqcs7ISV7Y","playlistName":"Ø´Ø±Ø­ ÙƒØªØ§Ø¨ Ù…Ù†Ø§Ø²Ù„ Ø§Ù„Ø³Ø§Ø¦Ø±ÙŠÙ† Ù„Ù„Ø¥Ù…Ø§Ù… Ø§Ù„Ù‡Ø±ÙˆÙŠ","category":"Ù…ØªÙ†ÙˆØ¹"},{"id":"jv7Ewb5C8J8","title":"Ø®Ø·ÙˆØ±Ø© Ø§Ù„ÙƒØ°Ø¨ ÙÙŠ Ø§Ù„Ø±Ø¤ÙŠØ§ ÙˆØ§Ù„ØªØ¬Ø³Ø³ | Ù…Ø¬Ø§Ù„Ø³ Ø±Ù…Ø¶Ø§Ù†ÙŠØ©","publishedAt":"2024-03-14T14:00:36Z","duration":"PT35M16S","thumbnail":"https://i.ytimg.com/vi/jv7Ewb5C8J8/mqdefault.jpg","viewCount":"2992","playlistId":"PLEkQk5xrP-tnl7vb7KeAoPd5ZlqKKW8KV","playlistName":"Ø´Ø±Ø­ ÙƒØªØ§Ø¨ Ø¨Ù‡Ø¬Ø© Ø§Ù„Ù†ÙÙˆØ³ Ø£.Ø¯ . ÙŠØ³Ø±Ù‰ Ø¬Ø¨Ø±","category":"Ù…ØªÙ†ÙˆØ¹"},{"id":"7uXYl9WdnzA","title":"Ù…ÙÙ† Ø¹Ø¨Ù‘Ø± Ù…Ù† Ø¨Ø³Ø§Ø· Ø¥Ø­Ø³Ø§Ù†Ù‡ØŒ Ø£ØµÙ…ØªØªÙ‡ Ø§Ù„Ø¥Ø³Ø§Ø¡Ø©ØŒ ÙˆÙ…ÙÙ† Ø¹Ø¨Ù‘Ø± Ù…Ù† Ø¨Ø³Ø§Ø· Ø¥Ø­Ø³Ø§Ù† Ø§Ù„Ù„Ù‡ Ø¥Ù„ÙŠÙ‡ØŒ Ù„Ù… ÙŠØµÙ…Øª Ø¥Ø°Ø§ Ø£Ø³Ø§Ø¡","publishedAt":"2017-06-13T15:32:09Z","duration":"PT11M35S","thumbnail":"https://i.ytimg.com/vi/7uXYl9WdnzA/mqdefault.jpg","viewCount":"2973","playlistId":"PLEkQk5xrP-tkI_meE148wc7V7XHlB0WPb","playlistName":"Ù…Ù† Ø§Ù„Ø­ÙƒÙ… Ø§Ù„Ø¹Ø·Ø§Ø¦ÙŠØ©  Ø¯. ÙŠØ³Ø±ÙŠ Ø¬Ø¨Ø±","category":"Ù…ØªÙ†ÙˆØ¹"},{"id":"1RHHAaOdjpg","title":"ğŸ”´ Majelis Sama' Hadits Shahih Bukhari - PP. Progresif Bumi Shalawat (Ahad, 2 Februari 2025 | Sesi 1)","publishedAt":"2025-02-02T16:52:55Z","duration":"PT3H7M59S","thumbnail":"https://i.ytimg.com/vi/1RHHAaOdjpg/mqdefault.jpg","viewCount":"2970","playlistId":"PLEkQk5xrP-tkKcTKLIthzWrdXY7QaOjh_","playlistName":"Ù‚Ø±Ø§Ø¡Ø© ØµØ­ÙŠØ­ Ø§Ù„Ø¨Ø®Ø§Ø±ÙŠ ÙƒØ§Ù…Ù„Ø§Ù‹ ÙÙŠ Ø¥Ù†Ø¯ÙˆÙ†ÙŠØ³ÙŠØ§","category":"Ø­Ø¯ÙŠØ«"},{"id":"VDIbqSuXFuQ","title":"(12) Ø³ÙŠØ¯Ù†Ø§ Ø£Ø¨Ùˆ Ø³Ù„ÙŠÙ…Ø§Ù† Ø¹Ø¨Ø¯ Ø§Ù„Ø±Ø­Ù…Ù† Ø¨Ù† Ø¹Ø·ÙŠØ© Ø§Ù„Ø¯Ù‘ÙØ§Ø±Ø§Ù†ÙŠ Ø±Ø¶ÙŠ Ø§Ù„Ù„Ù‡ Ø¹Ù†Ù‡  Ø¯. ÙŠØ³Ø±ÙŠ Ø¬Ø¨Ø±","publishedAt":"2018-04-14T17:41:35Z","duration":"PT9M29S","thumbnail":"https://i.ytimg.com/vi/VDIbqSuXFuQ/mqdefault.jpg","viewCount":"2965","playlistId":"PLEkQk5xrP-tmmI87XkWepRdTpisz2Lfgr","playlistName":"Ø¨Ø§Ø¨ ÙÙŠ Ø°ÙƒØ± Ù…Ø´Ø§ÙŠØ® Ù‡Ø°Ù‡ Ø§Ù„Ø·Ø±ÙŠÙ‚Ø© Ù…Ù† Ø´Ø±Ø­ ÙƒØªØ§Ø¨ Ø§Ù„Ø±Ø³Ø§Ù„Ø© Ø§Ù„Ù‚Ø´ÙŠØ±ÙŠØ©","category":"ØªØµÙˆÙ"},{"id":"oXz8FgR1g8k","title":"Ù‡Ù„ ÙŠØ¬ÙˆØ² Ø§Ù„Ø§Ø­ØªÙØ§Ù„ Ø¨Ù…ÙˆØ§Ù„Ø¯ Ø§Ù„Ø£ÙˆÙ„ÙŠØ§Ø¡ ÙˆØ§Ù„ØµØ§Ù„Ø­ÙŠÙ†ØŸ","publishedAt":"2023-03-15T18:00:20Z","duration":"PT20M28S","thumbnail":"https://i.ytimg.com/vi/oXz8FgR1g8k/mqdefault.jpg","viewCount":"2961","playlistId":"PLEkQk5xrP-tm8ZIu74nTOZN9KJUJu416J","playlistName":"Ù…Ù‚Ø§Ø·Ø¹ Ù…ÙÙ‡Ù…ÙÙ‘Ø© (ÙŠÙØ³Ø±ÙŠÙ‘ÙØ§Øª) Ø£.Ø¯. ÙŠØ³Ø±ÙŠ Ø¬Ø¨Ø±","category":"Ù…ØªÙ†ÙˆØ¹"},{"id":"Q6fBN_GEy2A","title":"Ø¯Ù„ÙŠÙ„Ùƒ Ù„Ù„Ù…ÙˆØ§Ø¸Ø¨Ø© Ø¹Ù„Ù‰ ØµÙ„Ø§ØªÙƒ | Ù…Ø¬Ø§Ù„Ø³ Ø±Ù…Ø¶Ø§Ù†ÙŠØ©","publishedAt":"2025-03-01T15:00:36Z","duration":"PT27M28S","thumbnail":"https://i.ytimg.com/vi/Q6fBN_GEy2A/mqdefault.jpg","viewCount":"2955","playlistId":"PLEkQk5xrP-tkeI_WVPfuoTJO46aVkpaz0","playlistName":"Ø´Ø±Ø­ ÙƒØªØ§Ø¨ Ù…ÙŠØ²Ø§Ù† Ø§Ù„Ø§Ø¹ØªØ¯Ø§Ù„ Ù„Ø­ÙØ¸ Ø§Ù„Ø¯ÙŠÙ† ÙˆØ§Ù„Ø£Ø­ÙˆØ§Ù„","category":"Ù…ØªÙ†ÙˆØ¹"},{"id":"85U5x-QopCc","title":"\"Ø¨Ø§Ø¨ Ù‚ÙˆÙ„ Ø§Ù„Ù„Ù‡ ØªØ¹Ø§Ù„Ù‰\"ÙˆÙÙ‡ÙÙˆÙ Ø§Ù„Ù‘ÙØ°ÙÙŠ Ø®ÙÙ„ÙÙ‚Ù Ø§Ù„Ø³Ù‘ÙÙ…ÙØ§ÙˆÙØ§ØªÙ ÙˆÙØ§Ù„Ù’Ø£ÙØ±Ù’Ø¶Ù Ø¨ÙØ§Ù„Ù’Ø­ÙÙ‚Ù‘Ù","publishedAt":"2022-06-19T05:00:01Z","duration":"PT51M51S","thumbnail":"https://i.ytimg.com/vi/85U5x-QopCc/mqdefault.jpg","viewCount":"2955","playlistId":"PLEkQk5xrP-tmJuzaj4GWRenFoFx9gdbFX","playlistName":"Ø´Ø±Ø­ ÙƒØªØ§Ø¨ ØµØ­ÙŠØ­ Ø§Ù„Ø¥Ù…Ø§Ù… Ø§Ù„Ø¨Ø®Ø§Ø±ÙŠ Ø±Ø¶ÙŠ Ø§Ù„Ù„Ù‡ ØªØ¹Ø§Ù„Ù‰ Ø¹Ù†Ù‡   Ø£.Ø¯. ÙŠØ³Ø±Ù‰ Ø¬Ø¨Ø±","category":"Ø­Ø¯ÙŠØ«"},{"id":"iXah5FXflLM","title":"ÙƒÙŠÙ ÙƒØ§Ù† ÙŠÙ†Ø§Ù… Ø³ÙŠØ¯Ù†Ø§ Ù…Ø­Ù…Ø¯ ÙˆÙ…Ø§ Ø§Ù„Ø¯Ø¹Ø§Ø¡ Ø§Ù„Ø°ÙŠ ÙƒØ§Ù† ÙŠÙ‚ÙˆÙ„Ù‡ Ù‚Ø¨Ù„ Ø§Ù„Ù†ÙˆÙ… | Ø§Ø¹Ø±Ù Ù†Ø¨ÙŠÙƒ","publishedAt":"2015-07-23T14:45:03Z","duration":"PT1M36S","thumbnail":"https://i.ytimg.com/vi/iXah5FXflLM/mqdefault.jpg","viewCount":"2954","playlistId":"PLEkQk5xrP-tl6Mu_Mz3QMUSv5T6XBH-Dg","playlistName":"Ø¨Ø±Ù†Ø§Ù…Ø¬ Ø§Ø¹Ø±Ù Ù†Ø¨ÙŠÙƒ","category":"Ù…ØªÙ†ÙˆØ¹"},{"id":"zHhhCtiaTQc","title":"ÙŠÙ‘Ø§Ø¥ÙÙ…ÙØ§Ù…Ù Ø§Ù„Ø±Ù‘ÙØ³Ù’Ù„Ù ÙŠÙØ§Ø³ÙÙ†ÙØ¯ÙÙŠ","publishedAt":"2019-11-12T14:53:50Z","duration":"PT7M42S","thumbnail":"https://i.ytimg.com/vi/zHhhCtiaTQc/mqdefault.jpg","viewCount":"2953","playlistId":"PLEkQk5xrP-tlB8lmbwjAKR8KRgiykGKhb","playlistName":"Ø­Ø¶Ø±Ø§Øª ÙŠØ³Ø±ÙŠØ© ÙˆÙ…Ø¯Ø§Ø¦Ø­ Ù†Ø¨ÙˆÙŠØ©","category":"Ù…ØªÙ†ÙˆØ¹"},{"id":"VoqPM4Ca-dE","title":"Ù‡Ù„ ÙŠØ¬ÙˆØ² Ø¥Ø®Ø±Ø§Ø¬ Ø²ÙƒØ§Ø© Ø§Ù„Ù…Ø§Ù„ Ø£ÙƒÙ„ ÙˆØ´Ù†Ø· Ø±Ù…Ø¶Ø§Ù† Ø£Ù… ÙŠØ¬Ø¨ Ø¥Ø®Ø±Ø§Ø¬Ù‡Ø§ Ù…Ø§Ù„ØŸ","publishedAt":"2024-04-03T18:01:14Z","duration":"PT8M32S","thumbnail":"https://i.ytimg.com/vi/VoqPM4Ca-dE/mqdefault.jpg","viewCount":"2952","playlistId":"PLEkQk5xrP-tkGXuZ9atE3k_7it12rUPTs","playlistName":"Ø£Ø³Ø¦Ù„Ø© Ø§Ù„Ù…ØªØ§Ø¨Ø¹ÙŠÙ†","category":"Ù…ØªÙ†ÙˆØ¹"},{"id":"xFMZaRsyAPU","title":"Ù‡Ù„ ÙŠÙ…ÙƒÙ† Ù„ÙØ¹Ù„ Ø§Ù„Ù†Ø¨ÙŠ ï·º Ø£Ù† ÙŠØ³Ø¨Ù‚ ÙØ¹Ù„ Ø§Ù„Ù„Ù‡ØŸ","publishedAt":"2025-05-13T18:31:09Z","duration":"PT8M10S","thumbnail":"https://i.ytimg.com/vi/xFMZaRsyAPU/mqdefault.jpg","viewCount":"2952","playlistId":"PLEkQk5xrP-tkGXuZ9atE3k_7it12rUPTs","playlistName":"Ø£Ø³Ø¦Ù„Ø© Ø§Ù„Ù…ØªØ§Ø¨Ø¹ÙŠÙ†","category":"Ù…ØªÙ†ÙˆØ¹"},{"id":"ppnNFX3TD0A","title":"Ø®ÙÙŠÙ’Ø±Ù Ù…ÙØ§ ØªÙØ·Ù’Ù„ÙØ¨ÙÙ‡Ù Ù…ÙÙ†Ù’Ù‡Ù Ù…ÙØ§ Ù‡ÙÙˆÙ Ø·ÙØ§Ù„ÙØ¨ÙÙ‡Ù Ù…ÙÙ†Ù’ÙƒÙ.  Ø£.Ø¯.ÙŠØ³Ø±ÙŠ Ø¬Ø¨Ø±","publishedAt":"2019-10-20T18:18:15Z","duration":"PT32M49S","thumbnail":"https://i.ytimg.com/vi/ppnNFX3TD0A/mqdefault.jpg","viewCount":"2944","playlistId":"PLEkQk5xrP-tlArtGpeLWaqNM7h7IDeAVC","playlistName":"Ø®Ø·Ø¨ Ø§Ù„Ø¬Ù…Ø¹Ø© Ø£.Ø¯. ÙŠØ³Ø±ÙŠ Ø¬Ø¨Ø±","category":"Ø®Ø·Ø¨"},{"id":"WPfM_4ulKtE","title":"Ù…Ø§ Ø£Ù‡Ù…ÙŠØ© Ø£Ø®Ø° Ø§Ù„Ø¥Ø¬Ø§Ø²Ø© ÙˆÙ‡Ù„ ÙŠØ¬ÙˆØ² Ù‚Ø±Ø§Ø¡Ø© Ø§Ù„Ø£Ø­Ø§Ø¯ÙŠØ« Ø¨Ø¯ÙˆÙ†Ù‡Ø§ØŸ","publishedAt":"2024-05-24T17:35:05Z","duration":"PT10M47S","thumbnail":"https://i.ytimg.com/vi/WPfM_4ulKtE/mqdefault.jpg","viewCount":"2935","playlistId":"PLEkQk5xrP-tkGXuZ9atE3k_7it12rUPTs","playlistName":"Ø£Ø³Ø¦Ù„Ø© Ø§Ù„Ù…ØªØ§Ø¨Ø¹ÙŠÙ†","category":"Ù…ØªÙ†ÙˆØ¹"},{"id":"3wvTkzdX4NU","title":"50- ÙƒÙŠÙ ØªØ¹ÙŠØ´ Ù…Ø¹Ù†Ù‰ Ø§Ù„Ù„Ù‡ Ø£ÙƒØ¨Ø±ØŸ | Ø´Ø±Ø­ Ù…Ø®ØªØµØ± Ø§Ù„ÙØªÙˆØ­Ø§Øª Ø§Ù„Ù…ÙƒÙŠØ©","publishedAt":"2025-08-03T18:30:10Z","duration":"PT47M8S","thumbnail":"https://i.ytimg.com/vi/3wvTkzdX4NU/mqdefault.jpg","viewCount":"2935","playlistId":"PLEkQk5xrP-tnpkdZki6rPTtMak1bnI5g-","playlistName":"Ø´Ø±Ø­ ÙƒØªØ§Ø¨ Ù…Ø®ØªØµØ± Ø§Ù„ÙØªÙˆØ­Ø§Øª Ø§Ù„Ù…ÙƒÙŠØ© Ø§Ù„Ù…Ø³Ù…Ù‰ Ù„ÙˆØ§Ù‚Ø­ Ø§Ù„Ø£Ù†ÙˆØ§Ø± Ø§Ù„Ù‚Ø¯Ø³ÙŠØ©","category":"Ù…ØªÙ†ÙˆØ¹"},{"id":"Nt8p-g22i3E","title":"Ø³Ø¹Ø© Ø±Ø­Ù…Ø© Ø§Ù„Ù„Ù‡ ØªØ¹Ø§Ù„Ù‰ Ø¨Ø¹Ø¨Ø§Ø¯Ù‡ | Ø£.Ø¯. ÙŠØ³Ø±ÙŠ Ø¬Ø¨Ø±","publishedAt":"2022-04-30T15:30:02Z","duration":"PT28M10S","thumbnail":"https://i.ytimg.com/vi/Nt8p-g22i3E/mqdefault.jpg","viewCount":"2934","playlistId":"PLEkQk5xrP-tnl7vb7KeAoPd5ZlqKKW8KV","playlistName":"Ø´Ø±Ø­ ÙƒØªØ§Ø¨ Ø¨Ù‡Ø¬Ø© Ø§Ù„Ù†ÙÙˆØ³ Ø£.Ø¯ . ÙŠØ³Ø±Ù‰ Ø¬Ø¨Ø±","category":"Ù…ØªÙ†ÙˆØ¹"},{"id":"09mLgi3i8UQ","title":"Ø³ÙˆØ±Ø© Ø§Ù„Ù†Ø¬Ù… - Ø°ÙƒØ± Ø§Ù„ØºØ±Ø§Ù†ÙŠÙ‚","publishedAt":"2014-08-15T23:40:10Z","duration":"PT1H54S","thumbnail":"https://i.ytimg.com/vi/09mLgi3i8UQ/mqdefault.jpg","viewCount":"2934","playlistId":"PLEkQk5xrP-tmJzNvLntpzW0uPanPzxA0c","playlistName":"Ù„Ù‚Ø§Ø¡Ø§Øª ÙˆÙ…Ø­Ø§Ø¶Ø±Ø§Øª","category":"Ù…ØªÙ†ÙˆØ¹"},{"id":"AnxB-7BbtZU","title":"Ø¯Ø¹Ø§Ø¡ ÙˆØ¥Ø­ÙŠØ§Ø¡ ÙŠÙˆÙ… Ø¹Ø§Ø´ÙˆØ±Ø§Ø¡","publishedAt":"2025-07-05T12:28:11Z","duration":"PT43M38S","thumbnail":"https://i.ytimg.com/vi/AnxB-7BbtZU/mqdefault.jpg","viewCount":"2926","playlistId":"PLEkQk5xrP-tm8ZIu74nTOZN9KJUJu416J","playlistName":"Ù…Ù‚Ø§Ø·Ø¹ Ù…ÙÙ‡Ù…ÙÙ‘Ø© (ÙŠÙØ³Ø±ÙŠÙ‘ÙØ§Øª) Ø£.Ø¯. ÙŠØ³Ø±ÙŠ Ø¬Ø¨Ø±","category":"Ù…ØªÙ†ÙˆØ¹"},{"id":"ZFn-FzHK3E0","title":"Ø³ÙˆØ±Ø© Ø§Ù„Ø¨Ù‚Ø±Ø© Ø¢ÙŠØ© 29","publishedAt":"2016-04-19T10:37:32Z","duration":"PT32M55S","thumbnail":"https://i.ytimg.com/vi/ZFn-FzHK3E0/mqdefault.jpg","viewCount":"2926","playlistId":"PLEkQk5xrP-tnmTYsyW6xNdyfhPq0Bhrhj","playlistName":"Ù…Ù‚Ø±Ø£Ø© Ø§Ù„ÙØ¬Ø± - Ø§Ù„Ù‚ÙØ±Ù’Ø¢Ù†Ù Ø§Ù„ÙƒÙØ±ÙÙŠÙ…Ù - Ø®ÙØªÙ’Ù…ÙØ©Ù Ø§Ù„ØªÙ‘ÙØ¯ÙØ¨Ù‘ÙØ±Ù  Ø£.Ø¯. ÙŠØ³Ø±ÙŠ Ø¬Ø¨Ø±","category":"Ù…ØªÙ†ÙˆØ¹"},{"id":"UuFHkRWw6fg","title":"ÙƒÙŠÙ ØªØªØ­Ù‚Ù‚ Ø¨Ø§Ù„Ø¹Ø¨ÙˆØ¯ÙŠØ© ÙÙŠ Ø·Ø±ÙŠÙ‚Ùƒ Ø¥Ù„Ù‰ Ø§Ù„Ù„Ù‡ØŸ","publishedAt":"2025-02-07T17:00:39Z","duration":"PT13M52S","thumbnail":"https://i.ytimg.com/vi/UuFHkRWw6fg/mqdefault.jpg","viewCount":"2919","playlistId":"PLEkQk5xrP-tlArtGpeLWaqNM7h7IDeAVC","playlistName":"Ø®Ø·Ø¨ Ø§Ù„Ø¬Ù…Ø¹Ø© Ø£.Ø¯. ÙŠØ³Ø±ÙŠ Ø¬Ø¨Ø±","category":"Ø®Ø·Ø¨"},{"id":"gcgHr3u2d_o","title":"Ù…ÙÙ‡ÙˆÙ… Ø¯Ø§Ø± Ø§Ù„ÙƒÙØ± ÙˆØ¯Ø§Ø± Ø§Ù„Ø¥Ø³Ù„Ø§Ù…","publishedAt":"2015-03-20T21:31:28Z","duration":"PT41M14S","thumbnail":"https://i.ytimg.com/vi/gcgHr3u2d_o/mqdefault.jpg","viewCount":"2919","playlistId":"PLEkQk5xrP-tl5sZd_31jJw-5LldLW46Dv","playlistName":"ÙƒØªØ§Ø¨ Ø§Ù„Ø­Ù‚ Ø§Ù„Ù…Ø¨ÙŠÙ† ÙÙŠ Ø§Ù„Ø±Ø¯ Ø¹Ù„Ù‰ Ù…Ù† ØªØ·Ø§ÙˆÙ„ Ø¹Ù„Ù‰ Ø§Ù„Ø¯ÙŠÙ†","category":"Ø±Ø¯ÙˆØ¯"},{"id":"1Lmp0JQI3vs","title":"Ø­ÙˆÙ„ Ù…ÙˆÙ„Ø¯ Ø³ÙŠØ¯ÙŠ Ø¹Ù„ÙŠ Ø²ÙŠÙ† Ø§Ù„Ø¹Ø§Ø¨Ø¯ÙŠÙ† Ø±Ø¶ÙŠ Ø§Ù„Ù„Ù‡ Ø¹Ù†Ù‡.  Ø£.Ø¯. ÙŠØ³Ø±ÙŠ Ø¬Ø¨Ø±","publishedAt":"2020-03-13T19:39:04Z","duration":"PT32M48S","thumbnail":"https://i.ytimg.com/vi/1Lmp0JQI3vs/mqdefault.jpg","viewCount":"2915","playlistId":"PLEkQk5xrP-tlArtGpeLWaqNM7h7IDeAVC","playlistName":"Ø®Ø·Ø¨ Ø§Ù„Ø¬Ù…Ø¹Ø© Ø£.Ø¯. ÙŠØ³Ø±ÙŠ Ø¬Ø¨Ø±","category":"Ø®Ø·Ø¨"}],"total":7670,"page":86,"pageSize":24,"totalPages":320}