{"items":[{"id":"WyuZd9MXrXg","title":"شرح كتاب نوراليقين في سيرة سيد المرسلين - المجلس الثالث عشر(العرض على القبائل) د.يسري جبر","publishedAt":"2017-06-06T17:43:45Z","duration":"PT41M26S","thumbnail":"https://i.ytimg.com/vi/WyuZd9MXrXg/mqdefault.jpg","viewCount":"25817","playlistId":"PLEkQk5xrP-tl2t4NQx1IhKnAJCMzF0Nli","playlistName":"شرح كتاب نور اليقين في سيرة سيد المرسلين   د. يسري جبر","category":"سيرة"},{"id":"Uu0cRwADfP4","title":"كيف يشعر بنا الأموات؟","publishedAt":"2021-02-05T20:08:38Z","duration":"PT12M25S","thumbnail":"https://i.ytimg.com/vi/Uu0cRwADfP4/mqdefault.jpg","viewCount":"25714","playlistId":"PLEkQk5xrP-tm8ZIu74nTOZN9KJUJu416J","playlistName":"مقاطع مُهمَّة (يُسريَّات) أ.د. يسري جبر","category":"متنوع"},{"id":"XFLRWEjw1s8","title":"هل يجوز زيارة قبور الصالحين وطلب المدد منهم؟","publishedAt":"2022-01-14T19:29:40Z","duration":"PT10M43S","thumbnail":"https://i.ytimg.com/vi/XFLRWEjw1s8/mqdefault.jpg","viewCount":"25406","playlistId":"PLEkQk5xrP-tkGXuZ9atE3k_7it12rUPTs","playlistName":"أسئلة المتابعين","category":"متنوع"},{"id":"6z4jMnH-JHY","title":"3- تكملة شرح العقيدة وما جاء في النُّبوَّات - شرح مختصر الفُتُوحَات المَكْيَّة","publishedAt":"2024-01-05T21:22:09Z","duration":"PT1H10M28S","thumbnail":"https://i.ytimg.com/vi/6z4jMnH-JHY/mqdefault.jpg","viewCount":"25396","playlistId":"PLEkQk5xrP-tnpkdZki6rPTtMak1bnI5g-","playlistName":"شرح كتاب مختصر الفتوحات المكية المسمى لواقح الأنوار القدسية","category":"متنوع"},{"id":"zS2c_wiW75Q","title":"شرح كتاب نوراليقين في سيرة سيد المرسلين - المجلس العاشر(الهجرة إلى الحبشة) د.يسري جبر","publishedAt":"2017-05-13T15:50:31Z","duration":"PT32M20S","thumbnail":"https://i.ytimg.com/vi/zS2c_wiW75Q/mqdefault.jpg","viewCount":"25384","playlistId":"PLEkQk5xrP-tl2t4NQx1IhKnAJCMzF0Nli","playlistName":"شرح كتاب نور اليقين في سيرة سيد المرسلين   د. يسري جبر","category":"سيرة"},{"id":"qfWqsy7PwQE","title":"الرسالة القشيرية - المجلس (98) بَابُ المحبة | أ.د. يسري جبر","publishedAt":"2021-11-10T19:06:18Z","duration":"PT1H3M46S","thumbnail":"https://i.ytimg.com/vi/qfWqsy7PwQE/mqdefault.jpg","viewCount":"25291","playlistId":"PLEkQk5xrP-tkHAGOwIKr4pc5ehhyQ5HMJ","playlistName":"كتاب الرسالة القشيرية (تصوف) - د. يسري جبر","category":"تصوف"},{"id":"HA8BQTv-VHA","title":"ورد يوم الجمعة من كتاب دلائل الخيرات وشوارق الأنوار في ذكر الصلاة على النَّبيّ المختار ﷺ","publishedAt":"2023-09-08T09:00:11Z","duration":"PT17M11S","thumbnail":"https://i.ytimg.com/vi/HA8BQTv-VHA/mqdefault.jpg","viewCount":"25229","playlistId":"PLEkQk5xrP-tnAXVT9Huen-nNMlvs5w6UI","playlistName":"دلائل الخيرات و شوارق الأنوار في ذكر الصلاة على النَّبيّ المختار ﷺ","category":"تصوف"},{"id":"msFb8zjUaC4","title":"حقائق ومعاني حول الروحانية المحمدية | دمشق, سوريا","publishedAt":"2024-05-14T19:27:57Z","duration":"PT55M47S","thumbnail":"https://i.ytimg.com/vi/msFb8zjUaC4/mqdefault.jpg","viewCount":"25164","playlistId":"PLEkQk5xrP-tmJzNvLntpzW0uPanPzxA0c","playlistName":"لقاءات ومحاضرات","category":"متنوع"},{"id":"6JZU2IsC-7s","title":"شرح منظومة عَقِيدَةِ العَوَام - المجلس الأول  أ.د. يسري جبر","publishedAt":"2019-05-27T15:26:54Z","duration":"PT43M1S","thumbnail":"https://i.ytimg.com/vi/6JZU2IsC-7s/mqdefault.jpg","viewCount":"25154","playlistId":"PLEkQk5xrP-tlc2t-K4tRFtzhmE-e6jziG","playlistName":"شرح عقيدة العوام - أ.د. يسري جبر","category":"عقيدة"},{"id":"Ugq9G4TJW4c","title":"(4) سيدنا أبو محفوظ معروف بن فيروز الكرخي رضي الله عنه  د. يسري جبر","publishedAt":"2018-03-18T21:27:42Z","duration":"PT19M","thumbnail":"https://i.ytimg.com/vi/Ugq9G4TJW4c/mqdefault.jpg","viewCount":"25151","playlistId":"PLEkQk5xrP-tmmI87XkWepRdTpisz2Lfgr","playlistName":"باب في ذكر مشايخ هذه الطريقة من شرح كتاب الرسالة القشيرية","category":"تصوف"},{"id":"CiLHa_7Eosk","title":"مفاتيح علو الهمة عند المسلم | دمشق, سوريا","publishedAt":"2024-05-19T18:00:06Z","duration":"PT58M59S","thumbnail":"https://i.ytimg.com/vi/CiLHa_7Eosk/mqdefault.jpg","viewCount":"25009","playlistId":"PLEkQk5xrP-tmJzNvLntpzW0uPanPzxA0c","playlistName":"لقاءات ومحاضرات","category":"متنوع"},{"id":"NFg6n2JGfvY","title":"ما معنى كلمة مدد؟","publishedAt":"2022-01-26T20:15:14Z","duration":"PT10M32S","thumbnail":"https://i.ytimg.com/vi/NFg6n2JGfvY/mqdefault.jpg","viewCount":"24736","playlistId":"PLEkQk5xrP-tkGXuZ9atE3k_7it12rUPTs","playlistName":"أسئلة المتابعين","category":"متنوع"},{"id":"KbQnZN5x2-g","title":"توصية ورجاء وأمر لجميع المتابعين","publishedAt":"2023-05-05T20:13:22Z","duration":"PT10M29S","thumbnail":"https://i.ytimg.com/vi/KbQnZN5x2-g/mqdefault.jpg","viewCount":"24575","playlistId":"PLEkQk5xrP-tm8ZIu74nTOZN9KJUJu416J","playlistName":"مقاطع مُهمَّة (يُسريَّات) أ.د. يسري جبر","category":"متنوع"},{"id":"xN99o6aWopw","title":"كيف تحمي نفسك من فيروس كورونا؟","publishedAt":"2021-01-10T18:28:52Z","duration":"PT11M49S","thumbnail":"https://i.ytimg.com/vi/xN99o6aWopw/mqdefault.jpg","viewCount":"24552","playlistId":"PLEkQk5xrP-tlArtGpeLWaqNM7h7IDeAVC","playlistName":"خطب الجمعة أ.د. يسري جبر","category":"خطب"},{"id":"Jmo8dUc4sDI","title":"2- سيدنا أبو الفيض ذو النون المصري رضي الله عنه د. يسري جبر","publishedAt":"2018-03-15T18:26:54Z","duration":"PT12M17S","thumbnail":"https://i.ytimg.com/vi/Jmo8dUc4sDI/mqdefault.jpg","viewCount":"24508","playlistId":"PLEkQk5xrP-tmmI87XkWepRdTpisz2Lfgr","playlistName":"باب في ذكر مشايخ هذه الطريقة من شرح كتاب الرسالة القشيرية","category":"تصوف"},{"id":"isKbLy7gZcY","title":"حكم التوسل بالنبيﷺ؟","publishedAt":"2021-01-31T19:04:42Z","duration":"PT8M2S","thumbnail":"https://i.ytimg.com/vi/isKbLy7gZcY/mqdefault.jpg","viewCount":"24472","playlistId":"PLEkQk5xrP-tlArtGpeLWaqNM7h7IDeAVC","playlistName":"خطب الجمعة أ.د. يسري جبر","category":"خطب"},{"id":"LM2rBVIDIp0","title":"شرح كتاب نوراليقين في سيرة سيد المرسلين المجلس الخامس عشر ( النزول بقباء )  د.يسري جبر","publishedAt":"2017-06-17T15:54:53Z","duration":"PT40M34S","thumbnail":"https://i.ytimg.com/vi/LM2rBVIDIp0/mqdefault.jpg","viewCount":"24466","playlistId":"PLEkQk5xrP-tl2t4NQx1IhKnAJCMzF0Nli","playlistName":"شرح كتاب نور اليقين في سيرة سيد المرسلين   د. يسري جبر","category":"سيرة"},{"id":"uGzqje70E5s","title":"ما هي أسرار الزواج الناجح؟","publishedAt":"2022-02-16T17:30:29Z","duration":"PT9M55S","thumbnail":"https://i.ytimg.com/vi/uGzqje70E5s/mqdefault.jpg","viewCount":"24417","playlistId":"PLEkQk5xrP-tlArtGpeLWaqNM7h7IDeAVC","playlistName":"خطب الجمعة أ.د. يسري جبر","category":"خطب"},{"id":"7DfwHf7fgyk","title":"ما هي أفضل الأعمال في شهر شعبان؟","publishedAt":"2025-01-30T19:32:57Z","duration":"PT17M42S","thumbnail":"https://i.ytimg.com/vi/7DfwHf7fgyk/mqdefault.jpg","viewCount":"24403","playlistId":"PLEkQk5xrP-tlArtGpeLWaqNM7h7IDeAVC","playlistName":"خطب الجمعة أ.د. يسري جبر","category":"خطب"},{"id":"3R88723sCYA","title":"حزب النصر لسيدي أبي الحسن الشاذلي رضي الله عنه","publishedAt":"2021-05-15T15:38:07Z","duration":"PT4M43S","thumbnail":"https://i.ytimg.com/vi/3R88723sCYA/mqdefault.jpg","viewCount":"24272","playlistId":"PLEkQk5xrP-tm8ZIu74nTOZN9KJUJu416J","playlistName":"مقاطع مُهمَّة (يُسريَّات) أ.د. يسري جبر","category":"متنوع"},{"id":"J8FcnmC8JQ0","title":"شرح مبسط لوحدة الوجود عند الصوفية","publishedAt":"2023-07-14T18:00:06Z","duration":"PT9M7S","thumbnail":"https://i.ytimg.com/vi/J8FcnmC8JQ0/mqdefault.jpg","viewCount":"24258","playlistId":"PLEkQk5xrP-tlArtGpeLWaqNM7h7IDeAVC","playlistName":"خطب الجمعة أ.د. يسري جبر","category":"خطب"},{"id":"qnepN5w1qLQ","title":"أريد الزواج ماذا افعل؟","publishedAt":"2021-02-25T19:35:53Z","duration":"PT15M25S","thumbnail":"https://i.ytimg.com/vi/qnepN5w1qLQ/mqdefault.jpg","viewCount":"24082","playlistId":"PLEkQk5xrP-tm8ZIu74nTOZN9KJUJu416J","playlistName":"مقاطع مُهمَّة (يُسريَّات) أ.د. يسري جبر","category":"متنوع"},{"id":"WxxmfUJ_Nww","title":"حدود التعامل بين الشيوخ و النساء! #يسري_جبر","publishedAt":"2024-09-19T14:44:14Z","duration":"PT1M1S","thumbnail":"https://i.ytimg.com/vi/WxxmfUJ_Nww/mqdefault.jpg","viewCount":"24059","playlistId":"PLEkQk5xrP-tkGXuZ9atE3k_7it12rUPTs","playlistName":"أسئلة المتابعين","category":"متنوع"},{"id":"bvtfH7AwfQ4","title":"سؤال عن فضائل الصلوات اليُسْريَّة على خير البَريَّة - د. يسرى جبر","publishedAt":"2015-08-15T18:48:53Z","duration":"PT4M57S","thumbnail":"https://i.ytimg.com/vi/bvtfH7AwfQ4/mqdefault.jpg","viewCount":"23995","playlistId":"PLEkQk5xrP-tm8ZIu74nTOZN9KJUJu416J","playlistName":"مقاطع مُهمَّة (يُسريَّات) أ.د. يسري جبر","category":"متنوع"}],"total":7670,"page":10,"pageSize":24,"totalPages":320}