{"items":[{"id":"S-LMcv_3lpk","title":"394- فضل السماحة في البيع والشراء والأخذ والعطاء وحُسن القضاء والتقاضي - شرح دليل الفالحين","publishedAt":"2023-01-27T09:00:14Z","duration":"PT19M44S","thumbnail":"https://i.ytimg.com/vi/S-LMcv_3lpk/mqdefault.jpg","viewCount":"777","playlistId":"PLEkQk5xrP-tkc9DXvSLguqX5-FYp6ASR4","playlistName":"دليل الفالحين لطرق رياض الصالحين","category":"متنوع"},{"id":"7PIZ2poqIhU","title":"ثَلَاثٌ لَا يَسْلَمُ مِنْهُنَّ كَثِيرٌ مِنَ النَّاسِ - د. يسري جبر","publishedAt":"2015-11-29T17:21:24Z","duration":"PT34M40S","thumbnail":"https://i.ytimg.com/vi/7PIZ2poqIhU/mqdefault.jpg","viewCount":"777","playlistId":"PLEkQk5xrP-tlArtGpeLWaqNM7h7IDeAVC","playlistName":"خطب الجمعة أ.د. يسري جبر","category":"خطب"},{"id":"7in1C7MpqjU","title":"200- فصلٌ: من المتشابه أوائل السور - شرح الإتقان في علوم القرآن","publishedAt":"2024-01-27T07:07:08Z","duration":"PT35M39S","thumbnail":"https://i.ytimg.com/vi/7in1C7MpqjU/mqdefault.jpg","viewCount":"777","playlistId":"PLEkQk5xrP-tlPw10KGJKagu7zm4Ry2Tge","playlistName":"شرح الإتقان في علوم القرآن","category":"تفسير"},{"id":"_nlWhzzPFSs","title":"مقرأة سورة هود من آية ٤٤","publishedAt":"2017-06-14T09:37:12Z","duration":"PT11M24S","thumbnail":"https://i.ytimg.com/vi/_nlWhzzPFSs/mqdefault.jpg","viewCount":"776","playlistId":"PLEkQk5xrP-tnmTYsyW6xNdyfhPq0Bhrhj","playlistName":"مقرأة الفجر - القُرْآنُ الكَرِيمُ - خَتْمَةُ التَّدَبُّرِ  أ.د. يسري جبر","category":"متنوع"},{"id":"m9rDdmIfxK0","title":"شرح كتاب فتح القريب المجيب فصلٌ في نصاب الإبل د. يسري رشدي جبر","publishedAt":"2015-11-13T12:44:44Z","duration":"PT25M22S","thumbnail":"https://i.ytimg.com/vi/m9rDdmIfxK0/mqdefault.jpg","viewCount":"776","playlistId":"PLEkQk5xrP-tlyOgfNBZTZgoATzVW4mI20","playlistName":"كتاب فتح القريب المجيب (علم الفقه الشافعي)","category":"فقه"},{"id":"ryIrH1GxkTU","title":"ما حكم من أكل ناسيا في الصيام؟ | مجالس رمضانية","publishedAt":"2023-04-18T15:00:39Z","duration":"PT43M17S","thumbnail":"https://i.ytimg.com/vi/ryIrH1GxkTU/mqdefault.jpg","viewCount":"775","playlistId":"PLEkQk5xrP-tnl7vb7KeAoPd5ZlqKKW8KV","playlistName":"شرح كتاب بهجة النفوس أ.د . يسرى جبر","category":"متنوع"},{"id":"2QcCodOlUx4","title":"شرح صحيح البخاري -  كتاب الحج من باب ٧٣","publishedAt":"2017-03-11T11:21:24Z","duration":"PT43M21S","thumbnail":"https://i.ytimg.com/vi/2QcCodOlUx4/mqdefault.jpg","viewCount":"775","playlistId":"PLEkQk5xrP-tlEerGoLa1AFy-2XvQ-sovv","playlistName":"شرح صحيح البخاري - أ.د. يسري جبر (كاملا)","category":"حديث"},{"id":"7J7c1myYWFo","title":"لا نستجدي ولا نستغني   د. يسري جبر","publishedAt":"2016-10-30T14:38:10Z","duration":"PT45M28S","thumbnail":"https://i.ytimg.com/vi/7J7c1myYWFo/mqdefault.jpg","viewCount":"774","playlistId":"PLEkQk5xrP-tlArtGpeLWaqNM7h7IDeAVC","playlistName":"خطب الجمعة أ.د. يسري جبر","category":"خطب"},{"id":"V56AkD37YmU","title":"قراءة القرآن (من آية ٢٠٤ سورة البقرة)","publishedAt":"2016-05-12T11:34:44Z","duration":"PT19M24S","thumbnail":"https://i.ytimg.com/vi/V56AkD37YmU/mqdefault.jpg","viewCount":"774","playlistId":"PLEkQk5xrP-tnmTYsyW6xNdyfhPq0Bhrhj","playlistName":"مقرأة الفجر - القُرْآنُ الكَرِيمُ - خَتْمَةُ التَّدَبُّرِ  أ.د. يسري جبر","category":"متنوع"},{"id":"MAQ0N50uRI8","title":"شرح صحيح البخاري - كتاب البيوع من باب ٦٧","publishedAt":"2017-05-01T19:47:17Z","duration":"PT37M50S","thumbnail":"https://i.ytimg.com/vi/MAQ0N50uRI8/mqdefault.jpg","viewCount":"774","playlistId":"PLEkQk5xrP-tlEerGoLa1AFy-2XvQ-sovv","playlistName":"شرح صحيح البخاري - أ.د. يسري جبر (كاملا)","category":"حديث"},{"id":"mXV8LVfHI3U","title":"126- طواف القدوم - شرح مسند الإمام أحمد رضي الله تعالى عنه","publishedAt":"2024-10-09T06:17:56Z","duration":"PT41M18S","thumbnail":"https://i.ytimg.com/vi/mXV8LVfHI3U/mqdefault.jpg","viewCount":"773","playlistId":"PLEkQk5xrP-tkKprIuGrSdEuBSMsyg5We1","playlistName":"شرح مسند الإمام أحمد بن حنبل","category":"متنوع"},{"id":"5dZTMc5f8gc","title":"شرح سنن الدارمي - المقدمة - ٢٠","publishedAt":"2019-03-09T20:53:57Z","duration":"PT35M23S","thumbnail":"https://i.ytimg.com/vi/5dZTMc5f8gc/mqdefault.jpg","viewCount":"773","playlistId":"PLEkQk5xrP-tmAg-FuWjY057X_h5NmGmAa","playlistName":"شرح سنن الدارمي - أ.د. يسري جبر (كاملا)","category":"متنوع"},{"id":"yujywqA8o4Y","title":"مقرأة سورة يونس من أولها","publishedAt":"2017-05-07T09:43:18Z","duration":"PT28M57S","thumbnail":"https://i.ytimg.com/vi/yujywqA8o4Y/mqdefault.jpg","viewCount":"773","playlistId":"PLEkQk5xrP-tnmTYsyW6xNdyfhPq0Bhrhj","playlistName":"مقرأة الفجر - القُرْآنُ الكَرِيمُ - خَتْمَةُ التَّدَبُّرِ  أ.د. يسري جبر","category":"متنوع"},{"id":"NKblwYCm1_w","title":"30- شرح اللؤلؤ والمرجان كتاب المساجد ومواضع الصلاة من باب أوله","publishedAt":"2020-01-14T11:35:08Z","duration":"PT41M","thumbnail":"https://i.ytimg.com/vi/NKblwYCm1_w/mqdefault.jpg","viewCount":"772","playlistId":"PLEkQk5xrP-tmKNjtYLfhATC37QdIsTMe0","playlistName":"شرح كتاب اللؤلؤ والمرجان فيما اتفق عليه الشيخان إماما المحدثين البخاري ومسلم. أ.د. يسري جبر","category":"حديث"},{"id":"NxZ93vOwkbA","title":"25- شرح اللؤلؤ والمرجان كتاب الصلاة من باب ٢٢","publishedAt":"2020-01-09T07:09:18Z","duration":"PT28M40S","thumbnail":"https://i.ytimg.com/vi/NxZ93vOwkbA/mqdefault.jpg","viewCount":"772","playlistId":"PLEkQk5xrP-tmKNjtYLfhATC37QdIsTMe0","playlistName":"شرح كتاب اللؤلؤ والمرجان فيما اتفق عليه الشيخان إماما المحدثين البخاري ومسلم. أ.د. يسري جبر","category":"حديث"},{"id":"RwgWCkawn58","title":"42- الجمع الثالث للقرآن - شرح الإتقان في علوم القرآن","publishedAt":"2023-03-24T05:00:07Z","duration":"PT25M56S","thumbnail":"https://i.ytimg.com/vi/RwgWCkawn58/mqdefault.jpg","viewCount":"772","playlistId":"PLEkQk5xrP-tlPw10KGJKagu7zm4Ry2Tge","playlistName":"شرح الإتقان في علوم القرآن","category":"تفسير"},{"id":"zwDOpQeWmPA","title":"سُنَنُ النَّبيِّ صلى الله عليه وآله وسلم في الأزمات   د. يسري جبر","publishedAt":"2018-07-01T08:56:28Z","duration":"PT42M12S","thumbnail":"https://i.ytimg.com/vi/zwDOpQeWmPA/mqdefault.jpg","viewCount":"772","playlistId":"PLEkQk5xrP-tlArtGpeLWaqNM7h7IDeAVC","playlistName":"خطب الجمعة أ.د. يسري جبر","category":"خطب"},{"id":"c9peSk9mCGA","title":"173- شروط الإعراب (3) - شرح الإتقان في علوم القرآن","publishedAt":"2023-11-21T06:36:44Z","duration":"PT18M18S","thumbnail":"https://i.ytimg.com/vi/c9peSk9mCGA/mqdefault.jpg","viewCount":"771","playlistId":"PLEkQk5xrP-tlPw10KGJKagu7zm4Ry2Tge","playlistName":"شرح الإتقان في علوم القرآن","category":"تفسير"},{"id":"kGYqQ1mWU-w","title":"31- حُكْمُ مَن اشترى الثمارَ قَبلَ بُدُوِّ صَلَاحِها - الحديث \"727” من كتاب البيوع والمعاملات.","publishedAt":"2022-01-05T07:30:14Z","duration":"PT39M59S","thumbnail":"https://i.ytimg.com/vi/kGYqQ1mWU-w/mqdefault.jpg","viewCount":"771","playlistId":"PLEkQk5xrP-tlDtaqY0qhNXAiZ19gaGzKI","playlistName":"شرح مسند الإمام محمد بن إدريس الشافعيّ رضي الله تعالى عنه","category":"فقه"},{"id":"48prod1VoQE","title":"شرح كتاب الأذكار من كلام سيد الأبرار للإمام النووى رضى الله عنه - المجلس العاشر","publishedAt":"2015-01-30T19:59:39Z","duration":"PT21M56S","thumbnail":"https://i.ytimg.com/vi/48prod1VoQE/mqdefault.jpg","viewCount":"771","playlistId":"PLEkQk5xrP-tkWS57Ubysh0ifJR8dmuEtE","playlistName":"شرح كتاب الأذكار للإمام النووي د. يسرى جبر","category":"حديث"},{"id":"iXjaOebqVy4","title":"شرح صحيح البخاري كتاب التفسير فى سورة حم عسق (الشورى ) من باب ١","publishedAt":"2018-04-19T20:19:59Z","duration":"PT36M43S","thumbnail":"https://i.ytimg.com/vi/iXjaOebqVy4/mqdefault.jpg","viewCount":"771","playlistId":"PLEkQk5xrP-tlEerGoLa1AFy-2XvQ-sovv","playlistName":"شرح صحيح البخاري - أ.د. يسري جبر (كاملا)","category":"حديث"},{"id":"6rg_q1DL0SA","title":"234- فَضْلُ الغَنِيِّ الشَّاكِر - شرح دليل الفالحين","publishedAt":"2022-04-16T21:37:24Z","duration":"PT54M27S","thumbnail":"https://i.ytimg.com/vi/6rg_q1DL0SA/mqdefault.jpg","viewCount":"771","playlistId":"PLEkQk5xrP-tkc9DXvSLguqX5-FYp6ASR4","playlistName":"دليل الفالحين لطرق رياض الصالحين","category":"متنوع"},{"id":"_7zDn6D_HTw","title":"شرح البرهان في علوم القرآن - النوع ١٨ - معرفة غريبه","publishedAt":"2019-12-15T08:41:56Z","duration":"PT35M47S","thumbnail":"https://i.ytimg.com/vi/_7zDn6D_HTw/mqdefault.jpg","viewCount":"770","playlistId":"PLEkQk5xrP-tnW3iBL7HkKziOFCFZbTlf0","playlistName":"شرح البرهان في علوم القرآن - أ.د. يسري جبر","category":"تفسير"},{"id":"yFH9f00bUOA","title":"مقرأة سورة الأعلی من أولها","publishedAt":"2019-07-16T06:18:01Z","duration":"PT27M21S","thumbnail":"https://i.ytimg.com/vi/yFH9f00bUOA/mqdefault.jpg","viewCount":"770","playlistId":"PLEkQk5xrP-tnmTYsyW6xNdyfhPq0Bhrhj","playlistName":"مقرأة الفجر - القُرْآنُ الكَرِيمُ - خَتْمَةُ التَّدَبُّرِ  أ.د. يسري جبر","category":"متنوع"}],"total":7670,"page":176,"pageSize":24,"totalPages":320}