{"items":[{"id":"8Ish7wfJXb8","title":"248- التكرير ومن فوائده التقرير - شرح الإتقان في علوم القرآن","publishedAt":"2024-07-24T07:39:14Z","duration":"PT26M28S","thumbnail":"https://i.ytimg.com/vi/8Ish7wfJXb8/mqdefault.jpg","viewCount":"510","playlistId":"PLEkQk5xrP-tlPw10KGJKagu7zm4Ry2Tge","playlistName":"شرح الإتقان في علوم القرآن","category":"تفسير"},{"id":"WD2xPNnPyvo","title":"صحيح الإمام البخاري رضي الله عنه -كتاب القدر (2) د.يسري جبر","publishedAt":"2017-10-14T01:26:26Z","duration":"PT1H5M59S","thumbnail":"https://i.ytimg.com/vi/WD2xPNnPyvo/mqdefault.jpg","viewCount":"510","playlistId":"PLEkQk5xrP-tmJuzaj4GWRenFoFx9gdbFX","playlistName":"شرح كتاب صحيح الإمام البخاري رضي الله تعالى عنه   أ.د. يسرى جبر","category":"حديث"},{"id":"s_8Dy6cHKoM","title":"سورة النساء آية 43","publishedAt":"2016-08-22T07:40:54Z","duration":"PT32M52S","thumbnail":"https://i.ytimg.com/vi/s_8Dy6cHKoM/mqdefault.jpg","viewCount":"510","playlistId":"PLEkQk5xrP-tnmTYsyW6xNdyfhPq0Bhrhj","playlistName":"مقرأة الفجر - القُرْآنُ الكَرِيمُ - خَتْمَةُ التَّدَبُّرِ  أ.د. يسري جبر","category":"متنوع"},{"id":"0ou3QVH-hxo","title":"شرح صحيح البخاري كتاب المرضی من باب ٧","publishedAt":"2018-07-31T15:55:08Z","duration":"PT39M14S","thumbnail":"https://i.ytimg.com/vi/0ou3QVH-hxo/mqdefault.jpg","viewCount":"510","playlistId":"PLEkQk5xrP-tlEerGoLa1AFy-2XvQ-sovv","playlistName":"شرح صحيح البخاري - أ.د. يسري جبر (كاملا)","category":"حديث"},{"id":"47AHUwlM-2M","title":"شرح البرهان في علوم القرآن - النوع ١٤ - فائدة : في بيان معنى الآية لغة واصطلاحا","publishedAt":"2019-12-10T18:54:09Z","duration":"PT31M26S","thumbnail":"https://i.ytimg.com/vi/47AHUwlM-2M/mqdefault.jpg","viewCount":"510","playlistId":"PLEkQk5xrP-tnW3iBL7HkKziOFCFZbTlf0","playlistName":"شرح البرهان في علوم القرآن - أ.د. يسري جبر","category":"تفسير"},{"id":"5GrokMGoBvQ","title":"صحيح الإمام البخارى رضى الله عنه - كتاب فضائل القرآن - المجلس الثانى","publishedAt":"2014-12-06T20:01:18Z","duration":"PT1H2M26S","thumbnail":"https://i.ytimg.com/vi/5GrokMGoBvQ/mqdefault.jpg","viewCount":"509","playlistId":"PLEkQk5xrP-tmJuzaj4GWRenFoFx9gdbFX","playlistName":"شرح كتاب صحيح الإمام البخاري رضي الله تعالى عنه   أ.د. يسرى جبر","category":"حديث"},{"id":"vI-nGacWqwk","title":"28- ما جاء في الدعاء كتاب القرآن ك الموطأ د يسري جبر الأزهري بمضيفة الشيخ سعيد الدح","publishedAt":"2016-10-02T14:50:27Z","duration":"PT1H16M53S","thumbnail":"https://i.ytimg.com/vi/vI-nGacWqwk/mqdefault.jpg","viewCount":"509","playlistId":"PLEkQk5xrP-tnC6BRuqMjyO-484iqXeg0o","playlistName":"شرح كتاب الموطأ للإمام مالك","category":"متنوع"},{"id":"ndkWozAdAm8","title":"شرح صحيح البخاري كتاب الأدب من باب ٣٩","publishedAt":"2018-09-01T22:08:54Z","duration":"PT30M29S","thumbnail":"https://i.ytimg.com/vi/ndkWozAdAm8/mqdefault.jpg","viewCount":"509","playlistId":"PLEkQk5xrP-tlEerGoLa1AFy-2XvQ-sovv","playlistName":"شرح صحيح البخاري - أ.د. يسري جبر (كاملا)","category":"حديث"},{"id":"pQyG_yJA16o","title":"542- حروف المعاني: حرف إذا (3) فائدة - شرح البرهان في علوم القرآن","publishedAt":"2022-07-30T05:16:01Z","duration":"PT30M22S","thumbnail":"https://i.ytimg.com/vi/pQyG_yJA16o/mqdefault.jpg","viewCount":"509","playlistId":"PLEkQk5xrP-tnW3iBL7HkKziOFCFZbTlf0","playlistName":"شرح البرهان في علوم القرآن - أ.د. يسري جبر","category":"تفسير"},{"id":"Idi5EfYU-EY","title":"اعتراضُ الشَّرْط على الشَّرْط","publishedAt":"2020-12-16T07:10:00Z","duration":"PT6M43S","thumbnail":"https://i.ytimg.com/vi/Idi5EfYU-EY/mqdefault.jpg","viewCount":"509","playlistId":"PLEkQk5xrP-tnW3iBL7HkKziOFCFZbTlf0","playlistName":"شرح البرهان في علوم القرآن - أ.د. يسري جبر","category":"تفسير"},{"id":"zG7cxIarlZ8","title":"مقرأة سورة النحل من آية ١٠","publishedAt":"2017-08-15T12:48:05Z","duration":"PT22M7S","thumbnail":"https://i.ytimg.com/vi/zG7cxIarlZ8/mqdefault.jpg","viewCount":"509","playlistId":"PLEkQk5xrP-tnmTYsyW6xNdyfhPq0Bhrhj","playlistName":"مقرأة الفجر - القُرْآنُ الكَرِيمُ - خَتْمَةُ التَّدَبُّرِ  أ.د. يسري جبر","category":"متنوع"},{"id":"pOy9FggdIFY","title":"شرح صحيح البخاري كتاب الإعتصام بالكتاب والسنة من باب ١٦","publishedAt":"2019-01-27T11:41:31Z","duration":"PT44M9S","thumbnail":"https://i.ytimg.com/vi/pOy9FggdIFY/mqdefault.jpg","viewCount":"509","playlistId":"PLEkQk5xrP-tlEerGoLa1AFy-2XvQ-sovv","playlistName":"شرح صحيح البخاري - أ.د. يسري جبر (كاملا)","category":"حديث"},{"id":"ILcRMYz4PZs","title":"مقرأة سورة نوح من آية ٣١","publishedAt":"2019-05-20T15:57:47Z","duration":"PT26M34S","thumbnail":"https://i.ytimg.com/vi/ILcRMYz4PZs/mqdefault.jpg","viewCount":"508","playlistId":"PLEkQk5xrP-tnmTYsyW6xNdyfhPq0Bhrhj","playlistName":"مقرأة الفجر - القُرْآنُ الكَرِيمُ - خَتْمَةُ التَّدَبُّرِ  أ.د. يسري جبر","category":"متنوع"},{"id":"DCcezY7NPps","title":"مقرأة سورة التغابن من أولها","publishedAt":"2019-04-15T10:49:56Z","duration":"PT12M25S","thumbnail":"https://i.ytimg.com/vi/DCcezY7NPps/mqdefault.jpg","viewCount":"508","playlistId":"PLEkQk5xrP-tnmTYsyW6xNdyfhPq0Bhrhj","playlistName":"مقرأة الفجر - القُرْآنُ الكَرِيمُ - خَتْمَةُ التَّدَبُّرِ  أ.د. يسري جبر","category":"متنوع"},{"id":"fxMj9M64A1E","title":"مقرأة سورة الواقعة من آية ٢٧","publishedAt":"2019-03-11T11:19:37Z","duration":"PT9M14S","thumbnail":"https://i.ytimg.com/vi/fxMj9M64A1E/mqdefault.jpg","viewCount":"508","playlistId":"PLEkQk5xrP-tnmTYsyW6xNdyfhPq0Bhrhj","playlistName":"مقرأة الفجر - القُرْآنُ الكَرِيمُ - خَتْمَةُ التَّدَبُّرِ  أ.د. يسري جبر","category":"متنوع"},{"id":"Ow2ULRx_62g","title":"36- كتاب الصيام ك الموطأ د يسري جبر الأزهري","publishedAt":"2016-12-16T10:55:42Z","duration":"PT58M54S","thumbnail":"https://i.ytimg.com/vi/Ow2ULRx_62g/mqdefault.jpg","viewCount":"508","playlistId":"PLEkQk5xrP-tnC6BRuqMjyO-484iqXeg0o","playlistName":"شرح كتاب الموطأ للإمام مالك","category":"متنوع"},{"id":"lJG1pwhTEu8","title":"شرح صحيح البخاري كتاب الرقاق من باب ١٠","publishedAt":"2018-10-20T17:01:50Z","duration":"PT31M2S","thumbnail":"https://i.ytimg.com/vi/lJG1pwhTEu8/mqdefault.jpg","viewCount":"508","playlistId":"PLEkQk5xrP-tlEerGoLa1AFy-2XvQ-sovv","playlistName":"شرح صحيح البخاري - أ.د. يسري جبر (كاملا)","category":"حديث"},{"id":"9Wc-N5_6zRU","title":"487- قاعدة في الضمائر (قد يُذكر شيئان ويُعاد الضمير على أحدهما) - شرح البرهان في علوم القرآن","publishedAt":"2022-03-29T06:41:41Z","duration":"PT13M51S","thumbnail":"https://i.ytimg.com/vi/9Wc-N5_6zRU/mqdefault.jpg","viewCount":"508","playlistId":"PLEkQk5xrP-tnW3iBL7HkKziOFCFZbTlf0","playlistName":"شرح البرهان في علوم القرآن - أ.د. يسري جبر","category":"تفسير"},{"id":"LlxH1Z-qUzE","title":"سورة النساء آية 29","publishedAt":"2016-08-19T15:29:07Z","duration":"PT18M40S","thumbnail":"https://i.ytimg.com/vi/LlxH1Z-qUzE/mqdefault.jpg","viewCount":"508","playlistId":"PLEkQk5xrP-tnmTYsyW6xNdyfhPq0Bhrhj","playlistName":"مقرأة الفجر - القُرْآنُ الكَرِيمُ - خَتْمَةُ التَّدَبُّرِ  أ.د. يسري جبر","category":"متنوع"},{"id":"jKf1b-gG6VY","title":"سورة النساء آية 23","publishedAt":"2016-08-16T06:25:23Z","duration":"PT13M26S","thumbnail":"https://i.ytimg.com/vi/jKf1b-gG6VY/mqdefault.jpg","viewCount":"508","playlistId":"PLEkQk5xrP-tnmTYsyW6xNdyfhPq0Bhrhj","playlistName":"مقرأة الفجر - القُرْآنُ الكَرِيمُ - خَتْمَةُ التَّدَبُّرِ  أ.د. يسري جبر","category":"متنوع"},{"id":"hlJkjSMH8_A","title":"شرح سنن الدارمي كتاب النكاح من باب ٩","publishedAt":"2019-08-06T12:37:07Z","duration":"PT37M40S","thumbnail":"https://i.ytimg.com/vi/hlJkjSMH8_A/mqdefault.jpg","viewCount":"508","playlistId":"PLEkQk5xrP-tmAg-FuWjY057X_h5NmGmAa","playlistName":"شرح سنن الدارمي - أ.د. يسري جبر (كاملا)","category":"متنوع"},{"id":"aDbI62xgzCU","title":"شرح سنن الدارمي كتاب الصلاة من أوله","publishedAt":"2019-04-26T08:53:08Z","duration":"PT34M49S","thumbnail":"https://i.ytimg.com/vi/aDbI62xgzCU/mqdefault.jpg","viewCount":"507","playlistId":"PLEkQk5xrP-tmAg-FuWjY057X_h5NmGmAa","playlistName":"شرح سنن الدارمي - أ.د. يسري جبر (كاملا)","category":"متنوع"},{"id":"-Sz1_D5W7AU","title":"شرح صحيح البخاري كتاب التفسير فى سورتي الأنبياء والمؤمنين","publishedAt":"2018-04-08T18:51:40Z","duration":"PT39M49S","thumbnail":"https://i.ytimg.com/vi/-Sz1_D5W7AU/mqdefault.jpg","viewCount":"507","playlistId":"PLEkQk5xrP-tlEerGoLa1AFy-2XvQ-sovv","playlistName":"شرح صحيح البخاري - أ.د. يسري جبر (كاملا)","category":"حديث"},{"id":"XA5j-vE7KuU","title":"مقرأة سورة الإسراء من آية ٩","publishedAt":"2017-09-15T11:28:21Z","duration":"PT16M39S","thumbnail":"https://i.ytimg.com/vi/XA5j-vE7KuU/mqdefault.jpg","viewCount":"507","playlistId":"PLEkQk5xrP-tnmTYsyW6xNdyfhPq0Bhrhj","playlistName":"مقرأة الفجر - القُرْآنُ الكَرِيمُ - خَتْمَةُ التَّدَبُّرِ  أ.د. يسري جبر","category":"متنوع"}],"total":7670,"page":224,"pageSize":24,"totalPages":320}