{"items":[{"id":"sVJqXR7usj0","title":"القِسمُ (14) من التوكيد: فوائد التَّكرار: الفائدة الخامسة - شرح البرهان في علوم القرآن","publishedAt":"2021-04-23T04:18:33Z","duration":"PT22M7S","thumbnail":"https://i.ytimg.com/vi/sVJqXR7usj0/mqdefault.jpg","viewCount":"341","playlistId":"PLEkQk5xrP-tnW3iBL7HkKziOFCFZbTlf0","playlistName":"شرح البرهان في علوم القرآن - أ.د. يسري جبر","category":"تفسير"},{"id":"1jBVGmueAYE","title":"82- شرح اللؤلؤ والمرجان كتاب الرضاع من الباب العاشر","publishedAt":"2020-03-01T06:00:00Z","duration":"PT21M27S","thumbnail":"https://i.ytimg.com/vi/1jBVGmueAYE/mqdefault.jpg","viewCount":"340","playlistId":"PLEkQk5xrP-tmKNjtYLfhATC37QdIsTMe0","playlistName":"شرح كتاب اللؤلؤ والمرجان فيما اتفق عليه الشيخان إماما المحدثين البخاري ومسلم. أ.د. يسري جبر","category":"حديث"},{"id":"n2ubrpIpR9c","title":"مقرأة سورة العنكبوت من آية ١٦","publishedAt":"2018-06-06T10:09:30Z","duration":"PT16M9S","thumbnail":"https://i.ytimg.com/vi/n2ubrpIpR9c/mqdefault.jpg","viewCount":"340","playlistId":"PLEkQk5xrP-tnmTYsyW6xNdyfhPq0Bhrhj","playlistName":"مقرأة الفجر - القُرْآنُ الكَرِيمُ - خَتْمَةُ التَّدَبُّرِ  أ.د. يسري جبر","category":"متنوع"},{"id":"DnpAV4JcAZI","title":"مقرأة سورة الإسراء من آية ١٨","publishedAt":"2017-09-17T07:43:59Z","duration":"PT12M9S","thumbnail":"https://i.ytimg.com/vi/DnpAV4JcAZI/mqdefault.jpg","viewCount":"340","playlistId":"PLEkQk5xrP-tnmTYsyW6xNdyfhPq0Bhrhj","playlistName":"مقرأة الفجر - القُرْآنُ الكَرِيمُ - خَتْمَةُ التَّدَبُّرِ  أ.د. يسري جبر","category":"متنوع"},{"id":"lv050bJwBDM","title":"شرح سنن الدارمي كتاب النذور والأيمان من أوله","publishedAt":"2019-08-19T16:26:00Z","duration":"PT24M31S","thumbnail":"https://i.ytimg.com/vi/lv050bJwBDM/mqdefault.jpg","viewCount":"339","playlistId":"PLEkQk5xrP-tmAg-FuWjY057X_h5NmGmAa","playlistName":"شرح سنن الدارمي - أ.د. يسري جبر (كاملا)","category":"متنوع"},{"id":"Xy1R5-h7TLY","title":"مقرأة سورة الروم من آية ١٩","publishedAt":"2018-06-19T13:37:45Z","duration":"PT19M18S","thumbnail":"https://i.ytimg.com/vi/Xy1R5-h7TLY/mqdefault.jpg","viewCount":"339","playlistId":"PLEkQk5xrP-tnmTYsyW6xNdyfhPq0Bhrhj","playlistName":"مقرأة الفجر - القُرْآنُ الكَرِيمُ - خَتْمَةُ التَّدَبُّرِ  أ.د. يسري جبر","category":"متنوع"},{"id":"2ofBcqT8qnQ","title":"سورة الأنفال آية 70","publishedAt":"2017-03-28T04:41:51Z","duration":"PT12M15S","thumbnail":"https://i.ytimg.com/vi/2ofBcqT8qnQ/mqdefault.jpg","viewCount":"339","playlistId":"PLEkQk5xrP-tnmTYsyW6xNdyfhPq0Bhrhj","playlistName":"مقرأة الفجر - القُرْآنُ الكَرِيمُ - خَتْمَةُ التَّدَبُّرِ  أ.د. يسري جبر","category":"متنوع"},{"id":"UKd0ROq031g","title":"شرح صحيح البخاري كتاب المحاربين من أهل الكفر والردة من باب ٢٦","publishedAt":"2018-12-02T15:24:20Z","duration":"PT36M55S","thumbnail":"https://i.ytimg.com/vi/UKd0ROq031g/mqdefault.jpg","viewCount":"338","playlistId":"PLEkQk5xrP-tlEerGoLa1AFy-2XvQ-sovv","playlistName":"شرح صحيح البخاري - أ.د. يسري جبر (كاملا)","category":"حديث"},{"id":"zSqyN8ZUCg8","title":"576- حروف المعاني(37): الحرف 39: عن - شرح البرهان في علوم القرآن","publishedAt":"2022-10-23T05:00:20Z","duration":"PT16M33S","thumbnail":"https://i.ytimg.com/vi/zSqyN8ZUCg8/mqdefault.jpg","viewCount":"338","playlistId":"PLEkQk5xrP-tnW3iBL7HkKziOFCFZbTlf0","playlistName":"شرح البرهان في علوم القرآن - أ.د. يسري جبر","category":"تفسير"},{"id":"kN_zf3FSzB0","title":"مقرأة سورة الإسراء من آية ٥٢","publishedAt":"2017-09-27T09:26:50Z","duration":"PT18M22S","thumbnail":"https://i.ytimg.com/vi/kN_zf3FSzB0/mqdefault.jpg","viewCount":"338","playlistId":"PLEkQk5xrP-tnmTYsyW6xNdyfhPq0Bhrhj","playlistName":"مقرأة الفجر - القُرْآنُ الكَرِيمُ - خَتْمَةُ التَّدَبُّرِ  أ.د. يسري جبر","category":"متنوع"},{"id":"4redUdCrriU","title":"‎شرح صحيح الإمام البخاري رضي الله تعالى عنه - كتابُ الاعتصَامِ بالكِتابِ والسُّنَّةِ. أ.د. يسري جبر","publishedAt":"2020-02-13T12:24:26Z","duration":"PT39M6S","thumbnail":"https://i.ytimg.com/vi/4redUdCrriU/mqdefault.jpg","viewCount":"338","playlistId":"PLEkQk5xrP-tmJuzaj4GWRenFoFx9gdbFX","playlistName":"شرح كتاب صحيح الإمام البخاري رضي الله تعالى عنه   أ.د. يسرى جبر","category":"حديث"},{"id":"jI-P7miNKNc","title":"شرح البرهان في علوم القرآن - النوع ٢٩ - مسألة في عدم القراءة بالشواذ","publishedAt":"2020-02-08T06:38:15Z","duration":"PT20M45S","thumbnail":"https://i.ytimg.com/vi/jI-P7miNKNc/mqdefault.jpg","viewCount":"338","playlistId":"PLEkQk5xrP-tnW3iBL7HkKziOFCFZbTlf0","playlistName":"شرح البرهان في علوم القرآن - أ.د. يسري جبر","category":"تفسير"},{"id":"jAwz2Nbi0lk","title":"مقرأة سورة الصافات من آية ٦٢","publishedAt":"2018-09-18T23:09:59Z","duration":"PT18M31S","thumbnail":"https://i.ytimg.com/vi/jAwz2Nbi0lk/mqdefault.jpg","viewCount":"337","playlistId":"PLEkQk5xrP-tnmTYsyW6xNdyfhPq0Bhrhj","playlistName":"مقرأة الفجر - القُرْآنُ الكَرِيمُ - خَتْمَةُ التَّدَبُّرِ  أ.د. يسري جبر","category":"متنوع"},{"id":"kiEcQlsN10k","title":"شرح سنن الدارمي كتاب الطلا‎ق من باب ٧","publishedAt":"2019-08-15T16:34:40Z","duration":"PT35M52S","thumbnail":"https://i.ytimg.com/vi/kiEcQlsN10k/mqdefault.jpg","viewCount":"337","playlistId":"PLEkQk5xrP-tmAg-FuWjY057X_h5NmGmAa","playlistName":"شرح سنن الدارمي - أ.د. يسري جبر (كاملا)","category":"متنوع"},{"id":"4xICkXjxtkA","title":"برنامج - عصمة الأنبياء - الحلقة الثانية والعشرون - شبهات حول نبي الله موسى( 3) - @alerthTV","publishedAt":"2019-03-27T07:00:02Z","duration":"PT28M7S","thumbnail":"https://i.ytimg.com/vi/4xICkXjxtkA/mqdefault.jpg","viewCount":"337","playlistId":"PLEkQk5xrP-tnBp9yUT_R2vtqSPOlcyAZe","playlistName":"برنامج - عصمة الأنبياء","category":"متنوع"},{"id":"FyDGelPU0jw","title":"مقرأة سورة النور من آية ٦","publishedAt":"2018-03-10T14:08:56Z","duration":"PT17M24S","thumbnail":"https://i.ytimg.com/vi/FyDGelPU0jw/mqdefault.jpg","viewCount":"336","playlistId":"PLEkQk5xrP-tnmTYsyW6xNdyfhPq0Bhrhj","playlistName":"مقرأة الفجر - القُرْآنُ الكَرِيمُ - خَتْمَةُ التَّدَبُّرِ  أ.د. يسري جبر","category":"متنوع"},{"id":"U5DicequGdA","title":"شرح حديث سبعة يظلهم الله يوم القيامة في ظل عرشه (8/9)","publishedAt":"2014-05-09T14:54:46Z","duration":"PT41M21S","thumbnail":"https://i.ytimg.com/vi/U5DicequGdA/mqdefault.jpg","viewCount":"336","playlistId":"PLEkQk5xrP-tnzqzkOeEPbbPLsxgy-MYcW","playlistName":"شرح حديث سبعة يظلهم الله يوم القيامة في ظل عرشه - كتاب بهجة  النفوس - د. يسري جبر","category":"حديث"},{"id":"Ouzw6GLDpk0","title":"شرح البرهان في علوم القرآن - النوع ٢٥ - علم مرسوم الخط (الناقص وأقسامه : حذف الألف ٣)","publishedAt":"2020-01-16T02:43:16Z","duration":"PT16M36S","thumbnail":"https://i.ytimg.com/vi/Ouzw6GLDpk0/mqdefault.jpg","viewCount":"336","playlistId":"PLEkQk5xrP-tnW3iBL7HkKziOFCFZbTlf0","playlistName":"شرح البرهان في علوم القرآن - أ.د. يسري جبر","category":"تفسير"},{"id":"QgOGSaYn98M","title":"مقرأة سورة القصص من آية ١٢","publishedAt":"2018-05-15T17:58:30Z","duration":"PT7M49S","thumbnail":"https://i.ytimg.com/vi/QgOGSaYn98M/mqdefault.jpg","viewCount":"336","playlistId":"PLEkQk5xrP-tnmTYsyW6xNdyfhPq0Bhrhj","playlistName":"مقرأة الفجر - القُرْآنُ الكَرِيمُ - خَتْمَةُ التَّدَبُّرِ  أ.د. يسري جبر","category":"متنوع"},{"id":"OEULsP7y7Pc","title":"مقرأة سورة النحل من آية ٥١","publishedAt":"2017-08-23T10:38:31Z","duration":"PT12M6S","thumbnail":"https://i.ytimg.com/vi/OEULsP7y7Pc/mqdefault.jpg","viewCount":"336","playlistId":"PLEkQk5xrP-tnmTYsyW6xNdyfhPq0Bhrhj","playlistName":"مقرأة الفجر - القُرْآنُ الكَرِيمُ - خَتْمَةُ التَّدَبُّرِ  أ.د. يسري جبر","category":"متنوع"},{"id":"rhAvct19W8c","title":"الاختزال (6) حذف المضاف إليه - شرح البرهان في علوم القرآن","publishedAt":"2021-07-03T18:17:28Z","duration":"PT13M26S","thumbnail":"https://i.ytimg.com/vi/rhAvct19W8c/mqdefault.jpg","viewCount":"336","playlistId":"PLEkQk5xrP-tnW3iBL7HkKziOFCFZbTlf0","playlistName":"شرح البرهان في علوم القرآن - أ.د. يسري جبر","category":"تفسير"},{"id":"btlw_8-P-P0","title":"مقرأة سورة النور من آية 58","publishedAt":"2018-03-24T06:32:06Z","duration":"PT15M8S","thumbnail":"https://i.ytimg.com/vi/btlw_8-P-P0/mqdefault.jpg","viewCount":"335","playlistId":"PLEkQk5xrP-tnmTYsyW6xNdyfhPq0Bhrhj","playlistName":"مقرأة الفجر - القُرْآنُ الكَرِيمُ - خَتْمَةُ التَّدَبُّرِ  أ.د. يسري جبر","category":"متنوع"},{"id":"ZXDdTv1-LsE","title":"مقرأة سورة الإسراء من آية ٩٥","publishedAt":"2017-10-10T11:11:47Z","duration":"PT21M38S","thumbnail":"https://i.ytimg.com/vi/ZXDdTv1-LsE/mqdefault.jpg","viewCount":"335","playlistId":"PLEkQk5xrP-tnmTYsyW6xNdyfhPq0Bhrhj","playlistName":"مقرأة الفجر - القُرْآنُ الكَرِيمُ - خَتْمَةُ التَّدَبُّرِ  أ.د. يسري جبر","category":"متنوع"},{"id":"Qv0kBapwHAc","title":"شرح سنن الدارمي كتاب الطهارة من باب ١١٥","publishedAt":"2019-04-24T21:43:59Z","duration":"PT31M54S","thumbnail":"https://i.ytimg.com/vi/Qv0kBapwHAc/mqdefault.jpg","viewCount":"335","playlistId":"PLEkQk5xrP-tmAg-FuWjY057X_h5NmGmAa","playlistName":"شرح سنن الدارمي - أ.د. يسري جبر (كاملا)","category":"متنوع"}],"total":7670,"page":274,"pageSize":24,"totalPages":320}