{"items":[{"id":"OjYVsBKJ_P8","title":"ุฅูู ุฃุฑูุฏูุชู ุฃู ููููู ููู ุนูุฒู ูุง ููููู ุ ููุง ุชุณูุชูุนูุฒููููู ุจุนูุฒูู ููููู","publishedAt":"2016-11-04T18:44:21Z","duration":"PT2M37S","thumbnail":"https://i.ytimg.com/vi/OjYVsBKJ_P8/mqdefault.jpg","viewCount":"2168","playlistId":"PLEkQk5xrP-tkI_meE148wc7V7XHlB0WPb","playlistName":"ูู ุงูุญูู ุงูุนุทุงุฆูุฉ  ุฏ. ูุณุฑู ุฌุจุฑ","category":"ูุชููุน"},{"id":"3ZCQlGjjeiM","title":"ุฃุญูุงู ุงูุตูุงู ูุดุฑูุทู ูุขุฏุงุจู (ุฎุทุจุฉ ูุณุฌูุฉ)ุฃ.ุฏ. ูุณุฑู ุฌุจุฑ","publishedAt":"2020-04-10T10:15:10Z","duration":"PT39M53S","thumbnail":"https://i.ytimg.com/vi/3ZCQlGjjeiM/mqdefault.jpg","viewCount":"2166","playlistId":"PLEkQk5xrP-tlArtGpeLWaqNM7h7IDeAVC","playlistName":"ุฎุทุจ ุงูุฌูุนุฉ ุฃ.ุฏ. ูุณุฑู ุฌุจุฑ","category":"ุฎุทุจ"},{"id":"mjccf2pViFA","title":"138- ููู ุชุฏุฎู ุงูุณุฑูุฑ ุนูู ุงูุฃูููุงุก ูุงูุตุงูุญูู ูู ูุจูุฑููุ - ุดุฑุญ ูุณูุฏ ุงูุฅูุงู ุฃุญูุฏ ุฑุถู ุงููู ุชุนุงูู ุนูู","publishedAt":"2024-11-18T06:18:02Z","duration":"PT18M41S","thumbnail":"https://i.ytimg.com/vi/mjccf2pViFA/mqdefault.jpg","viewCount":"2162","playlistId":"PLEkQk5xrP-tkKprIuGrSdEuBSMsyg5We1","playlistName":"ุดุฑุญ ูุณูุฏ ุงูุฅูุงู ุฃุญูุฏ ุจู ุญูุจู","category":"ูุชููุน"},{"id":"6IgjqeuL2lU","title":"16- ูู ููุนุฐููุจ ุงูููุช ุจุจูุงุก ุฃููู ุนูููุ - ุดุฑุญ ูุณูุฏ ุงูุฅูุงู ุฃุญูุฏ","publishedAt":"2023-09-13T05:00:05Z","duration":"PT46M12S","thumbnail":"https://i.ytimg.com/vi/6IgjqeuL2lU/mqdefault.jpg","viewCount":"2161","playlistId":"PLEkQk5xrP-tkKprIuGrSdEuBSMsyg5We1","playlistName":"ุดุฑุญ ูุณูุฏ ุงูุฅูุงู ุฃุญูุฏ ุจู ุญูุจู","category":"ูุชููุน"},{"id":"MgZ4zKORxq4","title":"45- ุฅูุฐูุง ุงุดูุชูุฏูู ุงูุญูุฑููุ ูุฃุจูุฑูุฏููุง ุนูู ุงูุตููููุงุฉูุ ูุฅููู ุดูุฏููุฉู ุงูุญูุฑูู ููู ููููุญู ุฌูููููููู.","publishedAt":"2022-08-11T06:15:00Z","duration":"PT47M4S","thumbnail":"https://i.ytimg.com/vi/MgZ4zKORxq4/mqdefault.jpg","viewCount":"2160","playlistId":"PLEkQk5xrP-tlDtaqY0qhNXAiZ19gaGzKI","playlistName":"ุดุฑุญ ูุณูุฏ ุงูุฅูุงู ูุญูุฏ ุจู ุฅุฏุฑูุณ ุงูุดุงูุนูู ุฑุถู ุงููู ุชุนุงูู ุนูู","category":"ููู"},{"id":"CKw7IZmCoWI","title":"193- ุชูุฌููููู ุตูููุงุชู ุงูุฌูููุงูู ูุงูุฌูููุงูู ููุนูุง - ุดุฑุญ ุฏููู ุงููุงูุญูู","publishedAt":"2022-01-31T21:05:55Z","duration":"PT28M22S","thumbnail":"https://i.ytimg.com/vi/CKw7IZmCoWI/mqdefault.jpg","viewCount":"2159","playlistId":"PLEkQk5xrP-tkc9DXvSLguqX5-FYp6ASR4","playlistName":"ุฏููู ุงููุงูุญูู ูุทุฑู ุฑูุงุถ ุงูุตุงูุญูู","category":"ูุชููุน"},{"id":"C2eyJHjmUa0","title":"ุฏูุงู ุงููุฑุงูุจุฉ","publishedAt":"2020-09-01T19:17:24Z","duration":"PT5M42S","thumbnail":"https://i.ytimg.com/vi/C2eyJHjmUa0/mqdefault.jpg","viewCount":"2159","playlistId":"PLEkQk5xrP-tm8ZIu74nTOZN9KJUJu416J","playlistName":"ููุงุทุน ููููููุฉ (ููุณุฑูููุงุช) ุฃ.ุฏ. ูุณุฑู ุฌุจุฑ","category":"ูุชููุน"},{"id":"CCipILqb38Y","title":"5- ูุนุฑูุฉ ูุง ูุฒู ูู ุงููุฑุขู ุจุงููุฏููุฉ - ุดุฑุญ ุงูุฅุชูุงู ูู ุนููู ุงููุฑุขู","publishedAt":"2023-01-11T05:35:00Z","duration":"PT21M30S","thumbnail":"https://i.ytimg.com/vi/CCipILqb38Y/mqdefault.jpg","viewCount":"2156","playlistId":"PLEkQk5xrP-tlPw10KGJKagu7zm4Ry2Tge","playlistName":"ุดุฑุญ ุงูุฅุชูุงู ูู ุนููู ุงููุฑุขู","category":"ุชูุณูุฑ"},{"id":"B4q-xfgHRdk","title":"ููู ุงูุชุดุฑ ุงูุฅุณูุงูู ูู ุฌููุน ุฃูุญุงุก ุงูุนุงููุ","publishedAt":"2022-11-04T18:00:03Z","duration":"PT9M16S","thumbnail":"https://i.ytimg.com/vi/B4q-xfgHRdk/mqdefault.jpg","viewCount":"2152","playlistId":"PLEkQk5xrP-tlArtGpeLWaqNM7h7IDeAVC","playlistName":"ุฎุทุจ ุงูุฌูุนุฉ ุฃ.ุฏ. ูุณุฑู ุฌุจุฑ","category":"ุฎุทุจ"},{"id":"CsxTwOR8WkA","title":"18- ุตูุงุฉ ุงูุฑุฌู ุฌูุงุนุฉ ุชุฒูุฏ ุนูู ุตูุงุชู ูู ุณูููู ูุจูุชู ุจุถุนุง ูุนุดุฑูู ุฏุฑุฌุฉ... - ุดุฑุญ ูุชุงุจ ุฏููู ุงููุงูุญูู","publishedAt":"2021-02-12T07:18:19Z","duration":"PT34M58S","thumbnail":"https://i.ytimg.com/vi/CsxTwOR8WkA/mqdefault.jpg","viewCount":"2151","playlistId":"PLEkQk5xrP-tkc9DXvSLguqX5-FYp6ASR4","playlistName":"ุฏููู ุงููุงูุญูู ูุทุฑู ุฑูุงุถ ุงูุตุงูุญูู","category":"ูุชููุน"},{"id":"ZEOhpdZ-FeA","title":"ุดุฑุญ ูุชุงุจ ูุชุญ ุงููุฑูุจ ุงููุฌูุจ ูุชุงุจ ุฃุญูุงู ุงูุฒูุงุฉ ุฏ. ูุณุฑู ุฑุดุฏู ุฌุจุฑ","publishedAt":"2015-11-01T21:11:35Z","duration":"PT45M29S","thumbnail":"https://i.ytimg.com/vi/ZEOhpdZ-FeA/mqdefault.jpg","viewCount":"2150","playlistId":"PLEkQk5xrP-tlyOgfNBZTZgoATzVW4mI20","playlistName":"ูุชุงุจ ูุชุญ ุงููุฑูุจ ุงููุฌูุจ (ุนูู ุงูููู ุงูุดุงูุนู)","category":"ููู"},{"id":"1MhPmuB0k1s","title":"52-โุงุชู ุงูููู ุญูุซูุง ููุชุ ูุฃุชูุจุน ุงูุณูุฆุฉู ุงูุญุณูุฉู ุชูุญูุง...โุงูุญุฏูุซ (2) ุจุงุจ ุงููุฑุงูุจุฉ - ุดุฑุญ ุฏููู ุงููุงูุญูู","publishedAt":"2021-05-01T05:06:04Z","duration":"PT27M28S","thumbnail":"https://i.ytimg.com/vi/1MhPmuB0k1s/mqdefault.jpg","viewCount":"2149","playlistId":"PLEkQk5xrP-tkc9DXvSLguqX5-FYp6ASR4","playlistName":"ุฏููู ุงููุงูุญูู ูุทุฑู ุฑูุงุถ ุงูุตุงูุญูู","category":"ูุชููุน"},{"id":"syuggDqfsuA","title":"ูุนุฑูุฉ ุงูุดูุฑ ูุฃุฑูุงูู","publishedAt":"2020-06-28T20:49:13Z","duration":"PT7M24S","thumbnail":"https://i.ytimg.com/vi/syuggDqfsuA/mqdefault.jpg","viewCount":"2148","playlistId":"PLEkQk5xrP-tm8ZIu74nTOZN9KJUJu416J","playlistName":"ููุงุทุน ููููููุฉ (ููุณุฑูููุงุช) ุฃ.ุฏ. ูุณุฑู ุฌุจุฑ","category":"ูุชููุน"},{"id":"Tzj9xWV4BYw","title":"36- ูุถู ุงูุฒุจูุฑ ุจู ุงูุนูุงู | ููู ูููู ุงูุฃูุฑ ุจุชุณููุฉ ุงููุจูุฑ ูุฅุฒุงูุฉ ุงูุฃุตูุงู - ุดุฑุญ ูุณูุฏ ุงูุฅูุงู ุฃุญูุฏ","publishedAt":"2023-11-04T06:30:14Z","duration":"PT30M37S","thumbnail":"https://i.ytimg.com/vi/Tzj9xWV4BYw/mqdefault.jpg","viewCount":"2146","playlistId":"PLEkQk5xrP-tkKprIuGrSdEuBSMsyg5We1","playlistName":"ุดุฑุญ ูุณูุฏ ุงูุฅูุงู ุฃุญูุฏ ุจู ุญูุจู","category":"ูุชููุน"},{"id":"fqSCVtP8wwE","title":"ุดูุจูููุงุช ููุนูุงุตูุฑูุฉ (2) ุฃ.ุฏ. ูุณุฑู ุฌุจุฑ","publishedAt":"2019-06-29T20:44:11Z","duration":"PT52M25S","thumbnail":"https://i.ytimg.com/vi/fqSCVtP8wwE/mqdefault.jpg","viewCount":"2143","playlistId":"PLEkQk5xrP-tlArtGpeLWaqNM7h7IDeAVC","playlistName":"ุฎุทุจ ุงูุฌูุนุฉ ุฃ.ุฏ. ูุณุฑู ุฌุจุฑ","category":"ุฎุทุจ"},{"id":"ubrQ4rC1gxI","title":"ุงูุฎูู ูู ุงูุฐูุจ | ูุฌุงูุณ ุฑูุถุงููุฉ","publishedAt":"2023-04-12T10:00:42Z","duration":"PT47M10S","thumbnail":"https://i.ytimg.com/vi/ubrQ4rC1gxI/mqdefault.jpg","viewCount":"2143","playlistId":"PLEkQk5xrP-tnl7vb7KeAoPd5ZlqKKW8KV","playlistName":"ุดุฑุญ ูุชุงุจ ุจูุฌุฉ ุงููููุณ ุฃ.ุฏ . ูุณุฑู ุฌุจุฑ","category":"ูุชููุน"},{"id":"cTOzu721-rk","title":"๐ด Majelis Sama Hadits Shahih Bukhari - PP Progresif Bumi Shalawat (Selasa, 4 Februari 2025 | Sesi 3)","publishedAt":"2025-02-04T17:47:24Z","duration":"PT4H23M35S","thumbnail":"https://i.ytimg.com/vi/cTOzu721-rk/mqdefault.jpg","viewCount":"2143","playlistId":"PLEkQk5xrP-tkKcTKLIthzWrdXY7QaOjh_","playlistName":"ูุฑุงุกุฉ ุตุญูุญ ุงูุจุฎุงุฑู ูุงููุงู ูู ุฅูุฏูููุณูุง","category":"ุญุฏูุซ"},{"id":"xZ-o71Smi8U","title":"ูุง ูู ุขุฏุงุจ ุทูุจ ุงูุนููุ","publishedAt":"2024-07-03T18:06:58Z","duration":"PT20M20S","thumbnail":"https://i.ytimg.com/vi/xZ-o71Smi8U/mqdefault.jpg","viewCount":"2138","playlistId":"PLEkQk5xrP-tlArtGpeLWaqNM7h7IDeAVC","playlistName":"ุฎุทุจ ุงูุฌูุนุฉ ุฃ.ุฏ. ูุณุฑู ุฌุจุฑ","category":"ุฎุทุจ"},{"id":"hwrU3zHLo10","title":"ุฑุจูุง ุฏุฎู ุงูุฑูุงุก ุนููู ูู ุญูุซ ูุง ููุธุฑ ุงูุฎูู ุฅููู.","publishedAt":"2017-04-22T18:21:40Z","duration":"PT5M46S","thumbnail":"https://i.ytimg.com/vi/hwrU3zHLo10/mqdefault.jpg","viewCount":"2137","playlistId":"PLEkQk5xrP-tkI_meE148wc7V7XHlB0WPb","playlistName":"ูู ุงูุญูู ุงูุนุทุงุฆูุฉ  ุฏ. ูุณุฑู ุฌุจุฑ","category":"ูุชููุน"},{"id":"JnmlUkfsfAM","title":"ุดุฑุญ ูุชุงุจ ูุชุญ ุงููุฑูุจ ุงููุฌูุจ ยซูุตู ูู ุจูุงู ุงููุฌุงุณุงุช ูุฅุฒุงูุชูุงยป ุฏ. ูุณุฑู ุฌุจุฑ","publishedAt":"2015-01-23T23:29:08Z","duration":"PT1H31M21S","thumbnail":"https://i.ytimg.com/vi/JnmlUkfsfAM/mqdefault.jpg","viewCount":"2134","playlistId":"PLEkQk5xrP-tlyOgfNBZTZgoATzVW4mI20","playlistName":"ูุชุงุจ ูุชุญ ุงููุฑูุจ ุงููุฌูุจ (ุนูู ุงูููู ุงูุดุงูุนู)","category":"ููู"},{"id":"kmiWTEsPUpE","title":"25- ุงูููุฏ ูููุฑุงุด ูููุนุงูุฑ ุงูุญุฌุฑ | ููู ูููู ุงููุถุงุก ุจุธุงูุฑ ุงูุฃูุฑ ูููุณ ุจุญูููุฉ ุงูุฃูุฑ","publishedAt":"2023-10-04T05:56:03Z","duration":"PT45M48S","thumbnail":"https://i.ytimg.com/vi/kmiWTEsPUpE/mqdefault.jpg","viewCount":"2129","playlistId":"PLEkQk5xrP-tkKprIuGrSdEuBSMsyg5We1","playlistName":"ุดุฑุญ ูุณูุฏ ุงูุฅูุงู ุฃุญูุฏ ุจู ุญูุจู","category":"ูุชููุน"},{"id":"NABO4m3Nisk","title":"ููู ุชุชุบูุจ ุนูู ุดููุงุชู ูู ุฑูุถุงูุ","publishedAt":"2025-03-07T18:30:25Z","duration":"PT15M6S","thumbnail":"https://i.ytimg.com/vi/NABO4m3Nisk/mqdefault.jpg","viewCount":"2128","playlistId":"PLEkQk5xrP-tlArtGpeLWaqNM7h7IDeAVC","playlistName":"ุฎุทุจ ุงูุฌูุนุฉ ุฃ.ุฏ. ูุณุฑู ุฌุจุฑ","category":"ุฎุทุจ"},{"id":"Q4unoU1zTf0","title":"14- ุงูุญุฏูุซ ุงูุซุงูุซ\"ูุง ููุฌูุฑุฉู ุจุนุฏ ุงููุชูุญ ููููู ุฌูุงุฏู ูููููุฉ\"ุดุฑุญ ูุชุงุจ ุฏููู ุงููุงูุญูู ูุทุฑู ุฑูุงุถ ุงูุตุงูุญูู","publishedAt":"2021-02-04T07:10:52Z","duration":"PT27M38S","thumbnail":"https://i.ytimg.com/vi/Q4unoU1zTf0/mqdefault.jpg","viewCount":"2127","playlistId":"PLEkQk5xrP-tkc9DXvSLguqX5-FYp6ASR4","playlistName":"ุฏููู ุงููุงูุญูู ูุทุฑู ุฑูุงุถ ุงูุตุงูุญูู","category":"ูุชููุน"},{"id":"F5PoiAKX8i4","title":"4- ุดุฑุญ ุงููุคูุค ูุงููุฑุฌุงู ูุชุงุจ ุงูุฅููุงู ูู ุจุงุจ ูฉ","publishedAt":"2019-12-17T03:54:38Z","duration":"PT34M59S","thumbnail":"https://i.ytimg.com/vi/F5PoiAKX8i4/mqdefault.jpg","viewCount":"2126","playlistId":"PLEkQk5xrP-tmKNjtYLfhATC37QdIsTMe0","playlistName":"ุดุฑุญ ูุชุงุจ ุงููุคูุค ูุงููุฑุฌุงู ูููุง ุงุชูู ุนููู ุงูุดูุฎุงู ุฅูุงูุง ุงููุญุฏุซูู ุงูุจุฎุงุฑู ููุณูู. ุฃ.ุฏ. ูุณุฑู ุฌุจุฑ","category":"ุญุฏูุซ"}],"total":7670,"page":103,"pageSize":24,"totalPages":320}