{"items":[{"id":"AwX-7jv6qkE","title":"110- “إنَّ الزَّمانَ قد استدار كهيئتِه يومَ خَلَق اللهُ السَّمواتِ والأرض…”- شرح دليل الفالحين","publishedAt":"2021-08-10T06:01:08Z","duration":"PT59M4S","thumbnail":"https://i.ytimg.com/vi/AwX-7jv6qkE/mqdefault.jpg","viewCount":"3734","playlistId":"PLEkQk5xrP-tkc9DXvSLguqX5-FYp6ASR4","playlistName":"دليل الفالحين لطرق رياض الصالحين","category":"متنوع"},{"id":"bI56egvcr_s","title":"الرسالة القشيرية - المجلس (53) تكملة ما جاء في باب الرجاء    أ.د. يسري جبر","publishedAt":"2019-03-23T17:56:45Z","duration":"PT41M37S","thumbnail":"https://i.ytimg.com/vi/bI56egvcr_s/mqdefault.jpg","viewCount":"3733","playlistId":"PLEkQk5xrP-tkHAGOwIKr4pc5ehhyQ5HMJ","playlistName":"كتاب الرسالة القشيرية (تصوف) - د. يسري جبر","category":"تصوف"},{"id":"eTo2waxiSVE","title":"من أول من قال بالتأويل؟","publishedAt":"2021-09-13T17:40:21Z","duration":"PT9M34S","thumbnail":"https://i.ytimg.com/vi/eTo2waxiSVE/mqdefault.jpg","viewCount":"3730","playlistId":"PLEkQk5xrP-tkGXuZ9atE3k_7it12rUPTs","playlistName":"أسئلة المتابعين","category":"متنوع"},{"id":"R1t_Mg7Z6Xk","title":"ثواب المرض عند الله","publishedAt":"2020-06-03T16:21:26Z","duration":"PT9M28S","thumbnail":"https://i.ytimg.com/vi/R1t_Mg7Z6Xk/mqdefault.jpg","viewCount":"3730","playlistId":"PLEkQk5xrP-tm8ZIu74nTOZN9KJUJu416J","playlistName":"مقاطع مُهمَّة (يُسريَّات) أ.د. يسري جبر","category":"متنوع"},{"id":"B-2C7h99QnI","title":"بَلِ الْإِنسَانُ عَلَىٰ نَفْسِهِ بَصِيرَةٌ     أ.د.يسري جبر","publishedAt":"2019-10-18T18:47:57Z","duration":"PT43M17S","thumbnail":"https://i.ytimg.com/vi/B-2C7h99QnI/mqdefault.jpg","viewCount":"3729","playlistId":"PLEkQk5xrP-tlArtGpeLWaqNM7h7IDeAVC","playlistName":"خطب الجمعة أ.د. يسري جبر","category":"خطب"},{"id":"9YS1_BVKLAM","title":"الأخذ بالأسباب والتوكل على الله | أ.د. يسري جبر","publishedAt":"2022-04-14T15:30:03Z","duration":"PT20M12S","thumbnail":"https://i.ytimg.com/vi/9YS1_BVKLAM/mqdefault.jpg","viewCount":"3727","playlistId":"PLEkQk5xrP-tnl7vb7KeAoPd5ZlqKKW8KV","playlistName":"شرح كتاب بهجة النفوس أ.د . يسرى جبر","category":"متنوع"},{"id":"j73t_n7tuuM","title":"عبادة الشكر  د. يسري جبر","publishedAt":"2017-12-30T18:45:52Z","duration":"PT32M43S","thumbnail":"https://i.ytimg.com/vi/j73t_n7tuuM/mqdefault.jpg","viewCount":"3726","playlistId":"PLEkQk5xrP-tlArtGpeLWaqNM7h7IDeAVC","playlistName":"خطب الجمعة أ.د. يسري جبر","category":"خطب"},{"id":"YJLUbGNMDfc","title":"لماذا يقتصر دور العلماء على دعوة الناس في المساجد فقط؟","publishedAt":"2022-11-07T18:00:23Z","duration":"PT8M48S","thumbnail":"https://i.ytimg.com/vi/YJLUbGNMDfc/mqdefault.jpg","viewCount":"3719","playlistId":"PLEkQk5xrP-tkGXuZ9atE3k_7it12rUPTs","playlistName":"أسئلة المتابعين","category":"متنوع"},{"id":"t5StMhXfILU","title":"نظرة ومدد يا رسول الله د. يسري جبر","publishedAt":"2017-05-02T20:27:30Z","duration":"PT1M44S","thumbnail":"https://i.ytimg.com/vi/t5StMhXfILU/mqdefault.jpg","viewCount":"3717","playlistId":"PLEkQk5xrP-tm8ZIu74nTOZN9KJUJu416J","playlistName":"مقاطع مُهمَّة (يُسريَّات) أ.د. يسري جبر","category":"متنوع"},{"id":"OyKJNHJtseQ","title":"كيف تبدأ العام الهجري بقلب سليم؟","publishedAt":"2024-07-07T18:02:13Z","duration":"PT16M1S","thumbnail":"https://i.ytimg.com/vi/OyKJNHJtseQ/mqdefault.jpg","viewCount":"3709","playlistId":"PLEkQk5xrP-tlArtGpeLWaqNM7h7IDeAVC","playlistName":"خطب الجمعة أ.د. يسري جبر","category":"خطب"},{"id":"-DoH-Ucrq3U","title":"الرد على من ينكر فضل ليلة النصف من شعبان","publishedAt":"2024-02-26T18:30:10Z","duration":"PT25M36S","thumbnail":"https://i.ytimg.com/vi/-DoH-Ucrq3U/mqdefault.jpg","viewCount":"3693","playlistId":"PLEkQk5xrP-tm8ZIu74nTOZN9KJUJu416J","playlistName":"مقاطع مُهمَّة (يُسريَّات) أ.د. يسري جبر","category":"متنوع"},{"id":"lpgCei0A-IU","title":"ما هي صفات المؤمن الصادق؟","publishedAt":"2022-10-15T18:00:22Z","duration":"PT13M","thumbnail":"https://i.ytimg.com/vi/lpgCei0A-IU/mqdefault.jpg","viewCount":"3689","playlistId":"PLEkQk5xrP-tlArtGpeLWaqNM7h7IDeAVC","playlistName":"خطب الجمعة أ.د. يسري جبر","category":"خطب"},{"id":"_8L6uvZqIiE","title":"خطبة الاحتفال بالمولد النبوي","publishedAt":"2021-10-27T19:55:08Z","duration":"PT43M28S","thumbnail":"https://i.ytimg.com/vi/_8L6uvZqIiE/mqdefault.jpg","viewCount":"3686","playlistId":"PLEkQk5xrP-tlArtGpeLWaqNM7h7IDeAVC","playlistName":"خطب الجمعة أ.د. يسري جبر","category":"خطب"},{"id":"1ZzbOFqC1d8","title":"11- فهو الجليل والجميل والوليْ   والظاهر القدوس والربُّ العليْ","publishedAt":"2022-08-07T18:35:00Z","duration":"PT39M52S","thumbnail":"https://i.ytimg.com/vi/1ZzbOFqC1d8/mqdefault.jpg","viewCount":"3684","playlistId":"PLEkQk5xrP-tmNuYT8JAh6clwa4krsgkNo","playlistName":"شرح كتاب الفُتُوحات اليُسريَّة في عقائد الأُمَّة المُحمَّديَّة","category":"متنوع"},{"id":"02vA77On9k8","title":"شرح صحيح البخاري   ( أخر مجلس في المقدمة , مجلس ٥)","publishedAt":"2016-08-06T07:17:05Z","duration":"PT33M34S","thumbnail":"https://i.ytimg.com/vi/02vA77On9k8/mqdefault.jpg","viewCount":"3682","playlistId":"PLEkQk5xrP-tlEerGoLa1AFy-2XvQ-sovv","playlistName":"شرح صحيح البخاري - أ.د. يسري جبر (كاملا)","category":"حديث"},{"id":"ki4VlgP4Urg","title":"حديث (١٦٦) عَرْضُ الجَنَّةِ أو النَّارِ عَلَى الِإنسَانِ حِينَ مَوتِهِ.  أ.د. يسري جبر","publishedAt":"2019-05-19T18:05:57Z","duration":"PT33M51S","thumbnail":"https://i.ytimg.com/vi/ki4VlgP4Urg/mqdefault.jpg","viewCount":"3673","playlistId":"PLEkQk5xrP-tnl7vb7KeAoPd5ZlqKKW8KV","playlistName":"شرح كتاب بهجة النفوس أ.د . يسرى جبر","category":"متنوع"},{"id":"jA438oSvwdc","title":"لماذا يبتلي الله عباده؟","publishedAt":"2025-01-11T18:15:02Z","duration":"PT11M42S","thumbnail":"https://i.ytimg.com/vi/jA438oSvwdc/mqdefault.jpg","viewCount":"3671","playlistId":"PLEkQk5xrP-tlArtGpeLWaqNM7h7IDeAVC","playlistName":"خطب الجمعة أ.د. يسري جبر","category":"خطب"},{"id":"8yuU3JvfbO0","title":"تأبير النخل بين أهل الحقيقة والشريعة","publishedAt":"2014-09-12T07:41:06Z","duration":"PT27M16S","thumbnail":"https://i.ytimg.com/vi/8yuU3JvfbO0/mqdefault.jpg","viewCount":"3667","playlistId":"PLEkQk5xrP-tm8ZIu74nTOZN9KJUJu416J","playlistName":"مقاطع مُهمَّة (يُسريَّات) أ.د. يسري جبر","category":"متنوع"},{"id":"xzKO3VhESMY","title":"252- ما من شيءٍ أثقلُ في موازين  المؤمنِ يومَ القيامةِ من حُسْنِ الخُلُق - شرح دليل الفالحين","publishedAt":"2022-05-23T05:15:01Z","duration":"PT18M12S","thumbnail":"https://i.ytimg.com/vi/xzKO3VhESMY/mqdefault.jpg","viewCount":"3662","playlistId":"PLEkQk5xrP-tkc9DXvSLguqX5-FYp6ASR4","playlistName":"دليل الفالحين لطرق رياض الصالحين","category":"متنوع"},{"id":"8JGat1IL-Vw","title":"كيف تكون رحيمًا بمن حولك؟","publishedAt":"2025-04-21T18:00:09Z","duration":"PT8M37S","thumbnail":"https://i.ytimg.com/vi/8JGat1IL-Vw/mqdefault.jpg","viewCount":"3661","playlistId":"PLEkQk5xrP-tlArtGpeLWaqNM7h7IDeAVC","playlistName":"خطب الجمعة أ.د. يسري جبر","category":"خطب"},{"id":"-Wwa13CJUjs","title":"جواز التوسل بالنَّبيّ ﷺ | أ.د. يسري جبر","publishedAt":"2022-04-29T15:30:00Z","duration":"PT25M44S","thumbnail":"https://i.ytimg.com/vi/-Wwa13CJUjs/mqdefault.jpg","viewCount":"3660","playlistId":"PLEkQk5xrP-tnl7vb7KeAoPd5ZlqKKW8KV","playlistName":"شرح كتاب بهجة النفوس أ.د . يسرى جبر","category":"متنوع"},{"id":"50gnniZqpXc","title":"بمدح المصطفى تحيا القلوب","publishedAt":"2021-11-21T17:32:44Z","duration":"PT15M33S","thumbnail":"https://i.ytimg.com/vi/50gnniZqpXc/mqdefault.jpg","viewCount":"3660","playlistId":"PLEkQk5xrP-tlB8lmbwjAKR8KRgiykGKhb","playlistName":"حضرات يسرية ومدائح نبوية","category":"متنوع"},{"id":"bfhdfavFz9I","title":"هل يجوز العمل في مجال المحاماة ومجال طب التجميل؟","publishedAt":"2024-03-23T18:00:15Z","duration":"PT9M19S","thumbnail":"https://i.ytimg.com/vi/bfhdfavFz9I/mqdefault.jpg","viewCount":"3659","playlistId":"PLEkQk5xrP-tkGXuZ9atE3k_7it12rUPTs","playlistName":"أسئلة المتابعين","category":"متنوع"},{"id":"DiptGJ5AI5E","title":"مقام العبودية - د.يسري جبر","publishedAt":"2014-12-19T20:47:59Z","duration":"PT4M15S","thumbnail":"https://i.ytimg.com/vi/DiptGJ5AI5E/mqdefault.jpg","viewCount":"3654","playlistId":"PLEkQk5xrP-tm8ZIu74nTOZN9KJUJu416J","playlistName":"مقاطع مُهمَّة (يُسريَّات) أ.د. يسري جبر","category":"متنوع"}],"total":7670,"page":76,"pageSize":24,"totalPages":320}