{"items":[{"id":"yP1YqMrllO8","title":"416- اللَّهمَّ إنِّي ظلَمتُ نَفسي ظلمًا كثيرًا ولا يغفرُ الذُّنوب إلَّا أنت فاغفِر لي مغفرةً من عندك","publishedAt":"2023-03-23T05:00:19Z","duration":"PT29M13S","thumbnail":"https://i.ytimg.com/vi/yP1YqMrllO8/mqdefault.jpg","viewCount":"1674","playlistId":"PLEkQk5xrP-tkc9DXvSLguqX5-FYp6ASR4","playlistName":"دليل الفالحين لطرق رياض الصالحين","category":"متنوع"},{"id":"tmYsy7XPlUg","title":"107- فضل الإحسان إلى الأخوات والبنات - شرح مسند الإمام أحمد رضي الله تعالى عنه","publishedAt":"2024-05-23T05:42:30Z","duration":"PT33M53S","thumbnail":"https://i.ytimg.com/vi/tmYsy7XPlUg/mqdefault.jpg","viewCount":"1670","playlistId":"PLEkQk5xrP-tkKprIuGrSdEuBSMsyg5We1","playlistName":"شرح مسند الإمام أحمد بن حنبل","category":"متنوع"},{"id":"Ca_TUG7Oo9I","title":"حديث (١٧٧) الأمْرِ بذكْرِ الله تعالى عند كُلِّ شيء. أ.د. يسري جبر","publishedAt":"2019-05-31T08:45:40Z","duration":"PT37M57S","thumbnail":"https://i.ytimg.com/vi/Ca_TUG7Oo9I/mqdefault.jpg","viewCount":"1669","playlistId":"PLEkQk5xrP-tnl7vb7KeAoPd5ZlqKKW8KV","playlistName":"شرح كتاب بهجة النفوس أ.د . يسرى جبر","category":"متنوع"},{"id":"UJ2akb-5UU4","title":"399- الفرق بين الحمد والشكر - شرح دليل الفالحين","publishedAt":"2023-02-15T05:00:17Z","duration":"PT39M2S","thumbnail":"https://i.ytimg.com/vi/UJ2akb-5UU4/mqdefault.jpg","viewCount":"1668","playlistId":"PLEkQk5xrP-tkc9DXvSLguqX5-FYp6ASR4","playlistName":"دليل الفالحين لطرق رياض الصالحين","category":"متنوع"},{"id":"z7JQq3dYJEc","title":"شرح صحيح البخاري ( كتاب الوضوء مجلس ٦ )","publishedAt":"2016-08-31T06:36:54Z","duration":"PT40M48S","thumbnail":"https://i.ytimg.com/vi/z7JQq3dYJEc/mqdefault.jpg","viewCount":"1668","playlistId":"PLEkQk5xrP-tlEerGoLa1AFy-2XvQ-sovv","playlistName":"شرح صحيح البخاري - أ.د. يسري جبر (كاملا)","category":"حديث"},{"id":"gODhOAbhIBg","title":"شرح كتاب منازل السائرين للإمام الهروى - المجلس الرابع والعشرون - قسم الأخلاق- باب الرضا","publishedAt":"2014-10-20T17:34:40Z","duration":"PT1H18M35S","thumbnail":"https://i.ytimg.com/vi/gODhOAbhIBg/mqdefault.jpg","viewCount":"1667","playlistId":"PLEkQk5xrP-tnLYi_5_tSRVBwqcs7ISV7Y","playlistName":"شرح كتاب منازل السائرين للإمام الهروي","category":"متنوع"},{"id":"6faJYjngs2c","title":"بِدَعُ التَفَاسِيرِ -  المجلس الرابع .  أ.د. يسري جبر","publishedAt":"2019-10-17T22:25:29Z","duration":"PT15M39S","thumbnail":"https://i.ytimg.com/vi/6faJYjngs2c/mqdefault.jpg","viewCount":"1667","playlistId":"PLEkQk5xrP-tkSGrPLMt1BEmJ54cGWYgtp","playlistName":"كتابُ بِدَعِ التَفَاسِيرِ - أ.د. يسري جبر","category":"متنوع"},{"id":"JYZL3vD5grQ","title":"الدروس المستفادة من الهجرة النبوية","publishedAt":"2021-08-15T18:45:01Z","duration":"PT11M59S","thumbnail":"https://i.ytimg.com/vi/JYZL3vD5grQ/mqdefault.jpg","viewCount":"1666","playlistId":"PLEkQk5xrP-tlArtGpeLWaqNM7h7IDeAVC","playlistName":"خطب الجمعة أ.د. يسري جبر","category":"خطب"},{"id":"kerz91oNWmE","title":"25 - المسحُ على الخُفَّين - شرح دليل الفالحين","publishedAt":"2021-03-05T07:48:46Z","duration":"PT38M5S","thumbnail":"https://i.ytimg.com/vi/kerz91oNWmE/mqdefault.jpg","viewCount":"1664","playlistId":"PLEkQk5xrP-tkc9DXvSLguqX5-FYp6ASR4","playlistName":"دليل الفالحين لطرق رياض الصالحين","category":"متنوع"},{"id":"SIFdaGB65AI","title":"ما حكم زيارة مقامات آل البيت والصالحين؟","publishedAt":"2025-08-31T18:50:17Z","duration":"PT8M13S","thumbnail":"https://i.ytimg.com/vi/SIFdaGB65AI/mqdefault.jpg","viewCount":"1664","playlistId":"PLEkQk5xrP-tkGXuZ9atE3k_7it12rUPTs","playlistName":"أسئلة المتابعين","category":"متنوع"},{"id":"1L6hZffZvus","title":"كيف يكون طلبك اللاحق سببا في عطائه السابق","publishedAt":"2017-05-04T15:42:38Z","duration":"PT8M34S","thumbnail":"https://i.ytimg.com/vi/1L6hZffZvus/mqdefault.jpg","viewCount":"1663","playlistId":"PLEkQk5xrP-tkI_meE148wc7V7XHlB0WPb","playlistName":"من الحكم العطائية  د. يسري جبر","category":"متنوع"},{"id":"4BSbP3GBfRE","title":"شرح صحيح البخاري (  اخر مجلس في كتاب الوضوء مجلس ١٠ )","publishedAt":"2016-09-04T23:47:30Z","duration":"PT49M8S","thumbnail":"https://i.ytimg.com/vi/4BSbP3GBfRE/mqdefault.jpg","viewCount":"1661","playlistId":"PLEkQk5xrP-tlEerGoLa1AFy-2XvQ-sovv","playlistName":"شرح صحيح البخاري - أ.د. يسري جبر (كاملا)","category":"حديث"},{"id":"5dLsIVN3TUY","title":"7- أسماءُ النَّبيّ ﷺ | سَيّدُنَا مُختار ﷺ","publishedAt":"2022-07-18T04:30:01Z","duration":"PT38M6S","thumbnail":"https://i.ytimg.com/vi/5dLsIVN3TUY/mqdefault.jpg","viewCount":"1660","playlistId":"PLEkQk5xrP-tkFEtMu56Xb9U9FCZBTXiLf","playlistName":"شرح صلوات الأولياء على خاتم الأنبياء ﷺ","category":"صلوات"},{"id":"QAbJPIc2byI","title":"معنى الجهاد في سبيل الله | مع الناس","publishedAt":"2016-04-26T21:56:47Z","duration":"PT3M13S","thumbnail":"https://i.ytimg.com/vi/QAbJPIc2byI/mqdefault.jpg","viewCount":"1660","playlistId":"PLEkQk5xrP-tmJzNvLntpzW0uPanPzxA0c","playlistName":"لقاءات ومحاضرات","category":"متنوع"},{"id":"_onIx-uXOQw","title":"ماهي أحب الثياب إلى سيدنا محمد | اعرف نبيك","publishedAt":"2015-05-13T14:47:02Z","duration":"PT1M47S","thumbnail":"https://i.ytimg.com/vi/_onIx-uXOQw/mqdefault.jpg","viewCount":"1660","playlistId":"PLEkQk5xrP-tl6Mu_Mz3QMUSv5T6XBH-Dg","playlistName":"برنامج اعرف نبيك","category":"متنوع"},{"id":"98SzrZ0bvSE","title":"3- صلوات اليوم الثالث - صلوات الأسماء الحسنى، شرح الصلوات اليسرية على خير البرية ﷺ","publishedAt":"2025-02-27T07:00:04Z","duration":"PT14M26S","thumbnail":"https://i.ytimg.com/vi/98SzrZ0bvSE/mqdefault.jpg","viewCount":"1659","playlistId":"PLEkQk5xrP-tk92TNE3xhWCFNr9VshA9Zj","playlistName":"الصلوات اليسرية على خير البرية ﷺ","category":"صلوات"},{"id":"GzpjyJIuX6o","title":"74- بيان كثرة طُرُق الخير\"…أيُّ الأعمالِ أفْضَلُ ؟…\" شرح دليل الفالحين","publishedAt":"2021-06-06T07:27:18Z","duration":"PT34M3S","thumbnail":"https://i.ytimg.com/vi/GzpjyJIuX6o/mqdefault.jpg","viewCount":"1659","playlistId":"PLEkQk5xrP-tkc9DXvSLguqX5-FYp6ASR4","playlistName":"دليل الفالحين لطرق رياض الصالحين","category":"متنوع"},{"id":"qv5qtZlHAsg","title":"80- أهم الأشياء التي علَّمنا النَّبيُّ ﷺ الاستعاذة منها - شرح مسند الإمام أحمد رضي الله عنه","publishedAt":"2024-02-21T07:32:08Z","duration":"PT19M56S","thumbnail":"https://i.ytimg.com/vi/qv5qtZlHAsg/mqdefault.jpg","viewCount":"1658","playlistId":"PLEkQk5xrP-tkKprIuGrSdEuBSMsyg5We1","playlistName":"شرح مسند الإمام أحمد بن حنبل","category":"متنوع"},{"id":"UFyqiig3M6E","title":"290- كيف نُحصل سعادة الدارين؟ - شرح الإتقان في علوم القرآن","publishedAt":"2025-04-21T10:00:42Z","duration":"PT38M26S","thumbnail":"https://i.ytimg.com/vi/UFyqiig3M6E/mqdefault.jpg","viewCount":"1658","playlistId":"PLEkQk5xrP-tlPw10KGJKagu7zm4Ry2Tge","playlistName":"شرح الإتقان في علوم القرآن","category":"تفسير"},{"id":"G4FQhV9c8ng","title":"490- صفة المسيح الدَّجَّال - شرح دليل الفالحين","publishedAt":"2023-07-01T08:59:00Z","duration":"PT35M4S","thumbnail":"https://i.ytimg.com/vi/G4FQhV9c8ng/mqdefault.jpg","viewCount":"1657","playlistId":"PLEkQk5xrP-tkc9DXvSLguqX5-FYp6ASR4","playlistName":"دليل الفالحين لطرق رياض الصالحين","category":"متنوع"},{"id":"UfyzebjAApA","title":"أسرى بدر واختيار الفداء    أ.د. يسري جبر","publishedAt":"2020-05-12T00:26:57Z","duration":"PT11M51S","thumbnail":"https://i.ytimg.com/vi/UfyzebjAApA/mqdefault.jpg","viewCount":"1657","playlistId":"PLEkQk5xrP-tm8ZIu74nTOZN9KJUJu416J","playlistName":"مقاطع مُهمَّة (يُسريَّات) أ.د. يسري جبر","category":"متنوع"},{"id":"-Hr0QDUCE1w","title":"77- \"الإِيمانُ بضْعٌ وسَبْعُونَ، أوْ بضْعٌ وسِتُّونَ، شُعْبَةً،…\" شرح دليل الفالحين","publishedAt":"2021-06-13T05:31:27Z","duration":"PT45M32S","thumbnail":"https://i.ytimg.com/vi/-Hr0QDUCE1w/mqdefault.jpg","viewCount":"1655","playlistId":"PLEkQk5xrP-tkc9DXvSLguqX5-FYp6ASR4","playlistName":"دليل الفالحين لطرق رياض الصالحين","category":"متنوع"},{"id":"vEtYBCx5rdI","title":"برنامج - عصمة الأنبياء - الحلقة الثامنة - شبهات حول كذبات سيدنا إبراهيم - @alerthTV","publishedAt":"2016-05-14T21:44:32Z","duration":"PT23M40S","thumbnail":"https://i.ytimg.com/vi/vEtYBCx5rdI/mqdefault.jpg","viewCount":"1654","playlistId":"PLEkQk5xrP-tnBp9yUT_R2vtqSPOlcyAZe","playlistName":"برنامج - عصمة الأنبياء","category":"متنوع"},{"id":"HALLUn7oSCo","title":"62- الاستقامة \"…قُلْ لي في الإسْلامِ قَوْلًا لا أسْأَلُ عنْه أحَدًا بَعْدَكَ…\" شرح دليل الفالحين","publishedAt":"2021-05-19T22:19:11Z","duration":"PT21M59S","thumbnail":"https://i.ytimg.com/vi/HALLUn7oSCo/mqdefault.jpg","viewCount":"1653","playlistId":"PLEkQk5xrP-tkc9DXvSLguqX5-FYp6ASR4","playlistName":"دليل الفالحين لطرق رياض الصالحين","category":"متنوع"}],"total":7670,"page":117,"pageSize":24,"totalPages":320}