{"items":[{"id":"Tf1-255iva4","title":"7- شرح اللؤلؤ والمرجان كتاب الإيمان من باب ٣٤","publishedAt":"2019-12-19T08:50:00Z","duration":"PT35M4S","thumbnail":"https://i.ytimg.com/vi/Tf1-255iva4/mqdefault.jpg","viewCount":"1481","playlistId":"PLEkQk5xrP-tmKNjtYLfhATC37QdIsTMe0","playlistName":"شرح كتاب اللؤلؤ والمرجان فيما اتفق عليه الشيخان إماما المحدثين البخاري ومسلم. أ.د. يسري جبر","category":"حديث"},{"id":"df1OhgBz3vY","title":"شرح صحيح البخاري ( كتاب الوضوء مجلس ٨ )","publishedAt":"2016-09-02T08:07:24Z","duration":"PT31M51S","thumbnail":"https://i.ytimg.com/vi/df1OhgBz3vY/mqdefault.jpg","viewCount":"1481","playlistId":"PLEkQk5xrP-tlEerGoLa1AFy-2XvQ-sovv","playlistName":"شرح صحيح البخاري - أ.د. يسري جبر (كاملا)","category":"حديث"},{"id":"SCmDbZpZ_pw","title":"صحيح الإمام البخاري رضي الله عنه -كتاب القدر (1) د.يسري جبر","publishedAt":"2017-10-10T12:30:17Z","duration":"PT34M1S","thumbnail":"https://i.ytimg.com/vi/SCmDbZpZ_pw/mqdefault.jpg","viewCount":"1480","playlistId":"PLEkQk5xrP-tmJuzaj4GWRenFoFx9gdbFX","playlistName":"شرح كتاب صحيح الإمام البخاري رضي الله تعالى عنه   أ.د. يسرى جبر","category":"حديث"},{"id":"jk9ZRENOoIE","title":"شرح كتاب منازل السائرين للإمام الهروى-المجلس التاسع والثلاثون قسم الأَودية باب الحكمة وباب البصيرة","publishedAt":"2015-03-03T05:02:56Z","duration":"PT47M44S","thumbnail":"https://i.ytimg.com/vi/jk9ZRENOoIE/mqdefault.jpg","viewCount":"1480","playlistId":"PLEkQk5xrP-tnLYi_5_tSRVBwqcs7ISV7Y","playlistName":"شرح كتاب منازل السائرين للإمام الهروي","category":"متنوع"},{"id":"rJP1cBZmsfk","title":"برنامج - عصمة الأنبياء - الحلقة العاشرة - شذوذ قوم لوط - @alerthTV","publishedAt":"2016-05-19T14:16:18Z","duration":"PT24M18S","thumbnail":"https://i.ytimg.com/vi/rJP1cBZmsfk/mqdefault.jpg","viewCount":"1479","playlistId":"PLEkQk5xrP-tnBp9yUT_R2vtqSPOlcyAZe","playlistName":"برنامج - عصمة الأنبياء","category":"متنوع"},{"id":"njGhMc4ECic","title":"كيف تكون صلاتي مقبولة؟ | مجالس رمضانية","publishedAt":"2025-03-08T15:00:57Z","duration":"PT14M33S","thumbnail":"https://i.ytimg.com/vi/njGhMc4ECic/mqdefault.jpg","viewCount":"1477","playlistId":"PLEkQk5xrP-tkeI_WVPfuoTJO46aVkpaz0","playlistName":"شرح كتاب ميزان الاعتدال لحفظ الدين والأحوال","category":"متنوع"},{"id":"LBuSNHfYZ_c","title":"سورة البقرة آية 101","publishedAt":"2016-04-27T03:03:01Z","duration":"PT18M49S","thumbnail":"https://i.ytimg.com/vi/LBuSNHfYZ_c/mqdefault.jpg","viewCount":"1476","playlistId":"PLEkQk5xrP-tnmTYsyW6xNdyfhPq0Bhrhj","playlistName":"مقرأة الفجر - القُرْآنُ الكَرِيمُ - خَتْمَةُ التَّدَبُّرِ  أ.د. يسري جبر","category":"متنوع"},{"id":"h_QSbQuRe7E","title":"488- بيان الأماكن التي لا يدخلها الدجال - شرح دليل الفالحين","publishedAt":"2023-06-29T08:59:00Z","duration":"PT26M4S","thumbnail":"https://i.ytimg.com/vi/h_QSbQuRe7E/mqdefault.jpg","viewCount":"1476","playlistId":"PLEkQk5xrP-tkc9DXvSLguqX5-FYp6ASR4","playlistName":"دليل الفالحين لطرق رياض الصالحين","category":"متنوع"},{"id":"QuWkqSNbMNI","title":"شرح صحيح البخاري - كتاب المغازي من أوله","publishedAt":"2017-12-19T16:41:59Z","duration":"PT32M29S","thumbnail":"https://i.ytimg.com/vi/QuWkqSNbMNI/mqdefault.jpg","viewCount":"1475","playlistId":"PLEkQk5xrP-tlEerGoLa1AFy-2XvQ-sovv","playlistName":"شرح صحيح البخاري - أ.د. يسري جبر (كاملا)","category":"حديث"},{"id":"Ap-AbZMnu5g","title":"لا نهاية لِمَذَامِّكَ إنْ أرْجَعَكَ إليك ، ولا تفْرُغ مَدائِحُك إنْ أظهر جُودَه عليك .","publishedAt":"2017-02-01T17:37:53Z","duration":"PT4M58S","thumbnail":"https://i.ytimg.com/vi/Ap-AbZMnu5g/mqdefault.jpg","viewCount":"1475","playlistId":"PLEkQk5xrP-tkI_meE148wc7V7XHlB0WPb","playlistName":"من الحكم العطائية  د. يسري جبر","category":"متنوع"},{"id":"c-wlcNnDy_I","title":"شرح صحيح البخاري ( كتاب الوضوء مجلس ٩ )","publishedAt":"2016-09-05T01:13:25Z","duration":"PT31M28S","thumbnail":"https://i.ytimg.com/vi/c-wlcNnDy_I/mqdefault.jpg","viewCount":"1475","playlistId":"PLEkQk5xrP-tlEerGoLa1AFy-2XvQ-sovv","playlistName":"شرح صحيح البخاري - أ.د. يسري جبر (كاملا)","category":"حديث"},{"id":"-V7AJoSJJlE","title":"298- باب الرُّؤْيَا - شرح دليل الفالحين","publishedAt":"2022-09-06T08:09:33Z","duration":"PT50M27S","thumbnail":"https://i.ytimg.com/vi/-V7AJoSJJlE/mqdefault.jpg","viewCount":"1474","playlistId":"PLEkQk5xrP-tkc9DXvSLguqX5-FYp6ASR4","playlistName":"دليل الفالحين لطرق رياض الصالحين","category":"متنوع"},{"id":"AT8HX3INHKQ","title":"221- اليَدُ العُلْيَا خَيْرٌ مِنَ اليَدِ السُّفْلَى، وابْدَأْ بمَن تَعُولُ - شرح دليل الفالحين","publishedAt":"2022-03-25T20:44:54Z","duration":"PT37M14S","thumbnail":"https://i.ytimg.com/vi/AT8HX3INHKQ/mqdefault.jpg","viewCount":"1473","playlistId":"PLEkQk5xrP-tkc9DXvSLguqX5-FYp6ASR4","playlistName":"دليل الفالحين لطرق رياض الصالحين","category":"متنوع"},{"id":"ZU1fVJxmQ_E","title":"9- المسح على الخُفَّين - شرح كتاب فتح القريب المجيب","publishedAt":"2021-09-30T03:38:30Z","duration":"PT1H14M45S","thumbnail":"https://i.ytimg.com/vi/ZU1fVJxmQ_E/mqdefault.jpg","viewCount":"1473","playlistId":"PLEkQk5xrP-tkXuPs-0sXfWQDWzBKmcjWN","playlistName":"\"فتح القريب المجيب في شرح ألفاظ التقريب\"( فقه شافعيّ)  أ. د. يسري جبر","category":"فقه"},{"id":"iiJWxiHLImA","title":"38- سور القرآن الكريم التي لها أكثر من اسم - شرح الإتقان في علوم القرآن","publishedAt":"2023-03-16T05:00:13Z","duration":"PT21M7S","thumbnail":"https://i.ytimg.com/vi/iiJWxiHLImA/mqdefault.jpg","viewCount":"1472","playlistId":"PLEkQk5xrP-tlPw10KGJKagu7zm4Ry2Tge","playlistName":"شرح الإتقان في علوم القرآن","category":"تفسير"},{"id":"ShpuJ2l5al4","title":"6- شرح اللؤلؤ والمرجان كتاب الإيمان من باب ٢٥","publishedAt":"2019-12-18T03:48:41Z","duration":"PT23M32S","thumbnail":"https://i.ytimg.com/vi/ShpuJ2l5al4/mqdefault.jpg","viewCount":"1472","playlistId":"PLEkQk5xrP-tmKNjtYLfhATC37QdIsTMe0","playlistName":"شرح كتاب اللؤلؤ والمرجان فيما اتفق عليه الشيخان إماما المحدثين البخاري ومسلم. أ.د. يسري جبر","category":"حديث"},{"id":"wq66SIv64e8","title":"درجات القرابة في الإسلام | مجالس رمضانية","publishedAt":"2023-04-19T15:00:48Z","duration":"PT43M52S","thumbnail":"https://i.ytimg.com/vi/wq66SIv64e8/mqdefault.jpg","viewCount":"1471","playlistId":"PLEkQk5xrP-tnl7vb7KeAoPd5ZlqKKW8KV","playlistName":"شرح كتاب بهجة النفوس أ.د . يسرى جبر","category":"متنوع"},{"id":"DdBFIEjWU2s","title":"122- الإصلاح بين الناس - شرح دليل الفالحين","publishedAt":"2021-09-05T06:13:09Z","duration":"PT45M27S","thumbnail":"https://i.ytimg.com/vi/DdBFIEjWU2s/mqdefault.jpg","viewCount":"1470","playlistId":"PLEkQk5xrP-tkc9DXvSLguqX5-FYp6ASR4","playlistName":"دليل الفالحين لطرق رياض الصالحين","category":"متنوع"},{"id":"Pj15CTxcvko","title":"إِلَّا تَنصُرُوهُ فَقَدْ نَصَرَهُ اللَّهُ","publishedAt":"2020-08-28T10:30:26Z","duration":"PT32M38S","thumbnail":"https://i.ytimg.com/vi/Pj15CTxcvko/mqdefault.jpg","viewCount":"1469","playlistId":"PLEkQk5xrP-tm8ZIu74nTOZN9KJUJu416J","playlistName":"مقاطع مُهمَّة (يُسريَّات) أ.د. يسري جبر","category":"متنوع"},{"id":"dXoFlCB_lOA","title":"لكل نبي دعوة مستجابة    د. يسري جبر","publishedAt":"2017-04-27T16:55:44Z","duration":"PT10M19S","thumbnail":"https://i.ytimg.com/vi/dXoFlCB_lOA/mqdefault.jpg","viewCount":"1469","playlistId":"PLEkQk5xrP-tm8ZIu74nTOZN9KJUJu416J","playlistName":"مقاطع مُهمَّة (يُسريَّات) أ.د. يسري جبر","category":"متنوع"},{"id":"O7Dh1wMScPE","title":"نصائح تربوية  د. يسري جبر","publishedAt":"2018-11-04T18:23:46Z","duration":"PT45M11S","thumbnail":"https://i.ytimg.com/vi/O7Dh1wMScPE/mqdefault.jpg","viewCount":"1468","playlistId":"PLEkQk5xrP-tlArtGpeLWaqNM7h7IDeAVC","playlistName":"خطب الجمعة أ.د. يسري جبر","category":"خطب"},{"id":"j0ztncrjPsM","title":"شرح كتاب الإشارات الزروقيّة علی الآيات القرآنية - المجلس الرابع","publishedAt":"2018-06-18T17:33:03Z","duration":"PT35M49S","thumbnail":"https://i.ytimg.com/vi/j0ztncrjPsM/mqdefault.jpg","viewCount":"1467","playlistId":"PLEkQk5xrP-tl1OLT5J2vthcf9QHpjNkWx","playlistName":"شرح كتاب الإشارات الزروقيّة علی الآيات القرآنية  د. يسري جبر","category":"تفسير"},{"id":"MGpAq0K_aAk","title":"شرح كتاب منازل السائرين للإمام الهروى المجلس الثانى والأربعون قسم الأَودية باب الطمأنينة وباب الهمة","publishedAt":"2015-03-31T05:47:00Z","duration":"PT1H8M28S","thumbnail":"https://i.ytimg.com/vi/MGpAq0K_aAk/mqdefault.jpg","viewCount":"1467","playlistId":"PLEkQk5xrP-tnLYi_5_tSRVBwqcs7ISV7Y","playlistName":"شرح كتاب منازل السائرين للإمام الهروي","category":"متنوع"},{"id":"cIpcCFQwEUU","title":"408- أَلَا أُنَبِّئُكم بِخَيْرِ أعمالِكُم، وأَزْكاها عِندَ مَلِيكِكُم، وأَرفعِها في دَرَجاتِكُم…","publishedAt":"2023-03-07T05:00:15Z","duration":"PT36M11S","thumbnail":"https://i.ytimg.com/vi/cIpcCFQwEUU/mqdefault.jpg","viewCount":"1466","playlistId":"PLEkQk5xrP-tkc9DXvSLguqX5-FYp6ASR4","playlistName":"دليل الفالحين لطرق رياض الصالحين","category":"متنوع"}],"total":7670,"page":124,"pageSize":24,"totalPages":320}