{"items":[{"id":"jWmwty8ocdc","title":"ÙƒÙŠÙ ØªØ­Ø¨Ù‘Ù Ø§Ù„Ù„Ù‡Ù ÙˆØ±Ø³ÙˆÙ„ÙÙ‡ Ø£ÙƒØ«Ø± Ù…Ù…Ù‘Ø§ Ø³ÙˆØ§Ù‡Ù…Ø§ØŸ","publishedAt":"2022-01-12T17:30:04Z","duration":"PT10M34S","thumbnail":"https://i.ytimg.com/vi/jWmwty8ocdc/mqdefault.jpg","viewCount":"15893","playlistId":"PLEkQk5xrP-tkGXuZ9atE3k_7it12rUPTs","playlistName":"Ø£Ø³Ø¦Ù„Ø© Ø§Ù„Ù…ØªØ§Ø¨Ø¹ÙŠÙ†","category":"Ù…ØªÙ†ÙˆØ¹"},{"id":"W0RQV9kqLIU","title":"ÙƒÙŠÙ Ø£Ø°Ø§ÙƒØ± Ø¨Ø¯ÙˆÙ† Ù…Ù„Ù„ØŸ","publishedAt":"2021-06-06T19:40:22Z","duration":"PT8M5S","thumbnail":"https://i.ytimg.com/vi/W0RQV9kqLIU/mqdefault.jpg","viewCount":"15850","playlistId":"PLEkQk5xrP-tm8ZIu74nTOZN9KJUJu416J","playlistName":"Ù…Ù‚Ø§Ø·Ø¹ Ù…ÙÙ‡Ù…ÙÙ‘Ø© (ÙŠÙØ³Ø±ÙŠÙ‘ÙØ§Øª) Ø£.Ø¯. ÙŠØ³Ø±ÙŠ Ø¬Ø¨Ø±","category":"Ù…ØªÙ†ÙˆØ¹"},{"id":"Li_nh5lxwiA","title":"Ø§Ù„Ø®Ù„Ø§ØµØ© Ù…Ù† Ø§Ù„Ø¨Ø¯Ø§ÙŠØ© Ù„Ù„Ù†Ù‡Ø§ÙŠØ©","publishedAt":"2021-10-11T19:52:42Z","duration":"PT42M53S","thumbnail":"https://i.ytimg.com/vi/Li_nh5lxwiA/mqdefault.jpg","viewCount":"15787","playlistId":"PLEkQk5xrP-tlArtGpeLWaqNM7h7IDeAVC","playlistName":"Ø®Ø·Ø¨ Ø§Ù„Ø¬Ù…Ø¹Ø© Ø£.Ø¯. ÙŠØ³Ø±ÙŠ Ø¬Ø¨Ø±","category":"Ø®Ø·Ø¨"},{"id":"PfFCdy_YK8E","title":"Ø§Ù„Ø±Ø¯ Ø¹Ù„Ù‰ Ø¬Ù…ÙŠØ¹ Ø´Ø¨Ù‡Ø§Øª ÙˆØ§Ø¯Ø¹Ø§Ø¡Ø§Øª Ø§Ù„ÙˆÙ‡Ø§Ø¨ÙŠØ© | Ø§Ù†Ø¬Ù„ØªØ±Ø§ğŸ“","publishedAt":"2025-06-02T19:27:30Z","duration":"PT1H17M38S","thumbnail":"https://i.ytimg.com/vi/PfFCdy_YK8E/mqdefault.jpg","viewCount":"15785","playlistId":"PLEkQk5xrP-tmJzNvLntpzW0uPanPzxA0c","playlistName":"Ù„Ù‚Ø§Ø¡Ø§Øª ÙˆÙ…Ø­Ø§Ø¶Ø±Ø§Øª","category":"Ù…ØªÙ†ÙˆØ¹"},{"id":"OzL4hAp9YOE","title":"Ø´Ø±Ø­ Ø§Ù„Ø¨Ø±Ù‡Ø§Ù† ÙÙŠ Ø¹Ù„ÙˆÙ… Ø§Ù„Ù‚Ø±Ø¢Ù† - Ù…Ù‚Ø¯Ù…Ø© Ø§Ù„Ù…Ø¤Ù„Ù","publishedAt":"2019-08-18T11:26:07Z","duration":"PT34M46S","thumbnail":"https://i.ytimg.com/vi/OzL4hAp9YOE/mqdefault.jpg","viewCount":"15773","playlistId":"PLEkQk5xrP-tnW3iBL7HkKziOFCFZbTlf0","playlistName":"Ø´Ø±Ø­ Ø§Ù„Ø¨Ø±Ù‡Ø§Ù† ÙÙŠ Ø¹Ù„ÙˆÙ… Ø§Ù„Ù‚Ø±Ø¢Ù† - Ø£.Ø¯. ÙŠØ³Ø±ÙŠ Ø¬Ø¨Ø±","category":"ØªÙØ³ÙŠØ±"},{"id":"NslGXEdfdv0","title":"5- Ø§Ù„ØªÙ†Ø²ÙŠÙ‡ Ø§Ù„Ù…Ø·Ù„Ù‚ Ù„Ù„Ù‡ Ø³Ø¨Ø­Ø§Ù†Ù‡ ÙˆØªØ¹Ø§Ù„Ù‰ - Ø´Ø±Ø­ Ù…Ø®ØªØµØ± Ø§Ù„ÙÙØªÙÙˆØ­ÙØ§Øª Ø§Ù„Ù…ÙÙƒÙ’ÙŠÙ‘ÙØ©","publishedAt":"2024-01-28T20:03:55Z","duration":"PT1H30S","thumbnail":"https://i.ytimg.com/vi/NslGXEdfdv0/mqdefault.jpg","viewCount":"15747","playlistId":"PLEkQk5xrP-tnpkdZki6rPTtMak1bnI5g-","playlistName":"Ø´Ø±Ø­ ÙƒØªØ§Ø¨ Ù…Ø®ØªØµØ± Ø§Ù„ÙØªÙˆØ­Ø§Øª Ø§Ù„Ù…ÙƒÙŠØ© Ø§Ù„Ù…Ø³Ù…Ù‰ Ù„ÙˆØ§Ù‚Ø­ Ø§Ù„Ø£Ù†ÙˆØ§Ø± Ø§Ù„Ù‚Ø¯Ø³ÙŠØ©","category":"Ù…ØªÙ†ÙˆØ¹"},{"id":"HSev5FHVVrc","title":"Ø£Ø´Ø¹Ø± Ø¨Ø§Ù„Ù‚Ù‡Ø± ÙˆØ§Ù„Ø¸Ù„Ù… ÙÙŠ Ø¹Ù…Ù„ÙŠ ,, Ù…Ø§Ø°Ø§ Ø£ÙØ¹Ù„ØŸ","publishedAt":"2022-08-13T18:00:05Z","duration":"PT10M49S","thumbnail":"https://i.ytimg.com/vi/HSev5FHVVrc/mqdefault.jpg","viewCount":"15715","playlistId":"PLEkQk5xrP-tkGXuZ9atE3k_7it12rUPTs","playlistName":"Ø£Ø³Ø¦Ù„Ø© Ø§Ù„Ù…ØªØ§Ø¨Ø¹ÙŠÙ†","category":"Ù…ØªÙ†ÙˆØ¹"},{"id":"8oDXY-mCy6g","title":"Ø£Ø³Ø±Ø§Ø± ÙˆÙ…Ø¹Ø§Ù†ÙŠ Ø­ÙˆÙ„ Ø§Ù„Ø¥Ø³Ø±Ø§Ø¡ ÙˆØ§Ù„Ù…Ø¹Ø±Ø§Ø¬ | Ù…Ù† Ù„ÙŠØ§Ù„ÙŠ Ø§Ù„Ù…Ø¯ÙŠÙ†Ø© Ø§Ù„Ù…Ù†ÙˆØ±Ø© ğŸ“","publishedAt":"2023-02-17T18:00:05Z","duration":"PT39M36S","thumbnail":"https://i.ytimg.com/vi/8oDXY-mCy6g/mqdefault.jpg","viewCount":"15706","playlistId":"PLEkQk5xrP-tm8ZIu74nTOZN9KJUJu416J","playlistName":"Ù…Ù‚Ø§Ø·Ø¹ Ù…ÙÙ‡Ù…ÙÙ‘Ø© (ÙŠÙØ³Ø±ÙŠÙ‘ÙØ§Øª) Ø£.Ø¯. ÙŠØ³Ø±ÙŠ Ø¬Ø¨Ø±","category":"Ù…ØªÙ†ÙˆØ¹"},{"id":"4yVRMXuyK-M","title":"ÙƒÙŠÙ Ù†ØªØµØ¯Ù‰ Ù„Ø­Ø±ÙƒØ© ØªÙƒÙˆÙŠÙ† ÙˆØ§Ù„Ø¯Ø¹Ø§ÙˆÙ‰ Ø§Ù„Ù…Ø´Ø§Ø¨Ù‡Ø©ØŸ","publishedAt":"2024-05-11T18:00:03Z","duration":"PT7M59S","thumbnail":"https://i.ytimg.com/vi/4yVRMXuyK-M/mqdefault.jpg","viewCount":"15643","playlistId":"PLEkQk5xrP-tkGXuZ9atE3k_7it12rUPTs","playlistName":"Ø£Ø³Ø¦Ù„Ø© Ø§Ù„Ù…ØªØ§Ø¨Ø¹ÙŠÙ†","category":"Ù…ØªÙ†ÙˆØ¹"},{"id":"23d8DcjrnjE","title":"Ù…Ø§ Ø­ÙƒÙ… Ø§Ù„Ø²ÙˆØ§Ø¬ ÙÙŠ Ø§Ù„Ø³Ø±ØŸ","publishedAt":"2023-04-29T18:00:00Z","duration":"PT8M22S","thumbnail":"https://i.ytimg.com/vi/23d8DcjrnjE/mqdefault.jpg","viewCount":"15643","playlistId":"PLEkQk5xrP-tm8ZIu74nTOZN9KJUJu416J","playlistName":"Ù…Ù‚Ø§Ø·Ø¹ Ù…ÙÙ‡Ù…ÙÙ‘Ø© (ÙŠÙØ³Ø±ÙŠÙ‘ÙØ§Øª) Ø£.Ø¯. ÙŠØ³Ø±ÙŠ Ø¬Ø¨Ø±","category":"Ù…ØªÙ†ÙˆØ¹"},{"id":"wt_nqbWorus","title":"Ù…Ø§ Ø§Ù„Ø¯Ù„ÙŠÙ„ Ø¹Ù„Ù‰ Ø£Ù† Ø§Ù„Ù†Ø¨ÙŠ ï·º Ø­ÙŠ ÙÙŠ Ù‚Ø¨Ø±Ù‡ØŸ","publishedAt":"2023-09-05T18:00:21Z","duration":"PT8M33S","thumbnail":"https://i.ytimg.com/vi/wt_nqbWorus/mqdefault.jpg","viewCount":"15640","playlistId":"PLEkQk5xrP-tkGXuZ9atE3k_7it12rUPTs","playlistName":"Ø£Ø³Ø¦Ù„Ø© Ø§Ù„Ù…ØªØ§Ø¨Ø¹ÙŠÙ†","category":"Ù…ØªÙ†ÙˆØ¹"},{"id":"rO-07spL5q4","title":"ÙƒÙŠÙ ØªØªØ¹ÙˆØ¯ Ø¹Ù„Ù‰ Ø§Ù„Ø±Ø¶Ø§ Ø¨Ø§Ù„Ù‚Ø¶Ø§Ø¡ØŸ","publishedAt":"2023-01-22T18:00:27Z","duration":"PT8M6S","thumbnail":"https://i.ytimg.com/vi/rO-07spL5q4/mqdefault.jpg","viewCount":"15613","playlistId":"PLEkQk5xrP-tlArtGpeLWaqNM7h7IDeAVC","playlistName":"Ø®Ø·Ø¨ Ø§Ù„Ø¬Ù…Ø¹Ø© Ø£.Ø¯. ÙŠØ³Ø±ÙŠ Ø¬Ø¨Ø±","category":"Ø®Ø·Ø¨"},{"id":"Xv-jzhnL2XU","title":"ÙƒÙŠÙ ØªØªØ¹Ø§Ù…Ù„ Ù…Ø¹ Ø§Ù„Ù„Ù‡","publishedAt":"2020-07-21T19:45:08Z","duration":"PT13M22S","thumbnail":"https://i.ytimg.com/vi/Xv-jzhnL2XU/mqdefault.jpg","viewCount":"15581","playlistId":"PLEkQk5xrP-tm8ZIu74nTOZN9KJUJu416J","playlistName":"Ù…Ù‚Ø§Ø·Ø¹ Ù…ÙÙ‡Ù…ÙÙ‘Ø© (ÙŠÙØ³Ø±ÙŠÙ‘ÙØ§Øª) Ø£.Ø¯. ÙŠØ³Ø±ÙŠ Ø¬Ø¨Ø±","category":"Ù…ØªÙ†ÙˆØ¹"},{"id":"r_Z2dDWx3Eo","title":"Ù…Ø§ Ù‡ÙŠ Ø¹Ù„Ø§Ù…Ø§Øª Ø¸Ù‡ÙˆØ± Ø§Ù„Ù…Ù‡Ø¯ÙŠ Ø§Ù„Ù…Ù†ØªØ¸Ø±ØŸ","publishedAt":"2022-02-26T17:00:35Z","duration":"PT10M39S","thumbnail":"https://i.ytimg.com/vi/r_Z2dDWx3Eo/mqdefault.jpg","viewCount":"15478","playlistId":"PLEkQk5xrP-tkGXuZ9atE3k_7it12rUPTs","playlistName":"Ø£Ø³Ø¦Ù„Ø© Ø§Ù„Ù…ØªØ§Ø¨Ø¹ÙŠÙ†","category":"Ù…ØªÙ†ÙˆØ¹"},{"id":"M1YrBhXPXAc","title":"Ø§Ù„Ø±Ø³Ø§Ù„Ø© Ø§Ù„Ù‚Ø´ÙŠØ±ÙŠØ© - Ø§Ù„Ù…Ø¬Ù„Ø³ (64)  Ø¨Ø§Ø¨Ù Ø§Ù„Ù’ÙŠÙÙ‚ÙÙŠÙ†Ù. Ø£.Ø¯. ÙŠØ³Ø±ÙŠ Ø¬Ø¨Ø±","publishedAt":"2019-10-17T15:05:43Z","duration":"PT1H8M21S","thumbnail":"https://i.ytimg.com/vi/M1YrBhXPXAc/mqdefault.jpg","viewCount":"15443","playlistId":"PLEkQk5xrP-tkHAGOwIKr4pc5ehhyQ5HMJ","playlistName":"ÙƒØªØ§Ø¨ Ø§Ù„Ø±Ø³Ø§Ù„Ø© Ø§Ù„Ù‚Ø´ÙŠØ±ÙŠØ© (ØªØµÙˆÙ) - Ø¯. ÙŠØ³Ø±ÙŠ Ø¬Ø¨Ø±","category":"ØªØµÙˆÙ"},{"id":"vjuZHz7znUo","title":"Ø´Ø±Ø­ ÙƒØªØ§Ø¨ Ù†ÙˆØ±Ø§Ù„ÙŠÙ‚ÙŠÙ† ÙÙŠ Ø³ÙŠØ±Ø© Ø³ÙŠØ¯ Ø§Ù„Ù…Ø±Ø³Ù„ÙŠÙ† - Ø§Ù„Ù…Ø¬Ù„Ø³ 31 ( ØªÙƒÙ…Ù„Ø© ØºØ²ÙˆØ© Ø§Ù„Ø®Ù†Ø¯Ù‚ ) Ø¯.ÙŠØ³Ø±ÙŠ Ø¬Ø¨Ø±","publishedAt":"2017-11-27T06:43:58Z","duration":"PT50M6S","thumbnail":"https://i.ytimg.com/vi/vjuZHz7znUo/mqdefault.jpg","viewCount":"15434","playlistId":"PLEkQk5xrP-tl2t4NQx1IhKnAJCMzF0Nli","playlistName":"Ø´Ø±Ø­ ÙƒØªØ§Ø¨ Ù†ÙˆØ± Ø§Ù„ÙŠÙ‚ÙŠÙ† ÙÙŠ Ø³ÙŠØ±Ø© Ø³ÙŠØ¯ Ø§Ù„Ù…Ø±Ø³Ù„ÙŠÙ†   Ø¯. ÙŠØ³Ø±ÙŠ Ø¬Ø¨Ø±","category":"Ø³ÙŠØ±Ø©"},{"id":"enUITTKkDSE","title":"ÙƒÙŠÙ Ø£Ø¹Ø±Ù Ø£Ù†Ù†ÙŠ ØªØ±Ù‚ÙŠØª ÙÙŠ Ø·Ø±ÙŠÙ‚ Ø§Ù„ØªØµÙˆÙØŸ","publishedAt":"2022-08-01T18:00:15Z","duration":"PT8M43S","thumbnail":"https://i.ytimg.com/vi/enUITTKkDSE/mqdefault.jpg","viewCount":"15386","playlistId":"PLEkQk5xrP-tkGXuZ9atE3k_7it12rUPTs","playlistName":"Ø£Ø³Ø¦Ù„Ø© Ø§Ù„Ù…ØªØ§Ø¨Ø¹ÙŠÙ†","category":"Ù…ØªÙ†ÙˆØ¹"},{"id":"RC64W9LvysY","title":"ÙƒÙŠÙ ØªÙØ®Ø±Ù‚ Ù„Ùƒ Ø§Ù„Ø¹ÙˆØ§Ø¦Ø¯ ÙˆØ£Ù†Øª Ù„Ù… ØªØ®Ø±Ù‚ Ù…Ù† Ù†ÙØ³Ùƒ Ø§Ù„Ø¹ÙˆØ§Ø¦Ø¯","publishedAt":"2016-10-17T17:55:47Z","duration":"PT12M37S","thumbnail":"https://i.ytimg.com/vi/RC64W9LvysY/mqdefault.jpg","viewCount":"15378","playlistId":"PLEkQk5xrP-tkI_meE148wc7V7XHlB0WPb","playlistName":"Ù…Ù† Ø§Ù„Ø­ÙƒÙ… Ø§Ù„Ø¹Ø·Ø§Ø¦ÙŠØ©  Ø¯. ÙŠØ³Ø±ÙŠ Ø¬Ø¨Ø±","category":"Ù…ØªÙ†ÙˆØ¹"},{"id":"AsFKJEv0V1o","title":"Ø§Ù„Ù…Ø¬Ù„Ø³ Ø§Ù„Ø«Ø§Ù„Ø« Ù…Ù† Ø´Ø±Ø­ Ø§Ù„Ø®Ø±ÙŠØ¯Ø© Ø§Ù„Ø¨Ù‡ÙŠØ©","publishedAt":"2013-08-03T11:30:54Z","duration":"PT1H2M25S","thumbnail":"https://i.ytimg.com/vi/AsFKJEv0V1o/mqdefault.jpg","viewCount":"15301","playlistId":"PLEkQk5xrP-tnI6h_R1hvYgrrstFAJCvv9","playlistName":"Ø´Ø±Ø­ Ø§Ù„Ø®Ø±ÙŠØ¯Ø© Ø§Ù„Ø¨Ù‡ÙŠØ© Ø¯. ÙŠØ³Ø±ÙŠ Ø¬Ø¨Ø±","category":"Ù…ØªÙ†ÙˆØ¹"},{"id":"KqNM0sFvcQ8","title":"Ø´Ø±Ø­ ÙƒØªØ§Ø¨ Ø¯Ù„Ø§Ø¦Ù„ Ø§Ù„Ø®ÙŠØ±Ø§Øª - Ø§Ù„Ù…Ø¬Ù„Ø³ Ø§Ù„Ø«Ø§Ù†ÙŠ Ø¹Ø´Ø±. Ø£.Ø¯. ÙŠØ³Ø±ÙŠ Ø¬Ø¨Ø±","publishedAt":"2019-12-10T19:48:07Z","duration":"PT42M25S","thumbnail":"https://i.ytimg.com/vi/KqNM0sFvcQ8/mqdefault.jpg","viewCount":"15262","playlistId":"PLEkQk5xrP-tlAzcbIpuqjdFICW-knvTlR","playlistName":"Ø´Ø±Ø­ ÙƒØªØ§Ø¨ Ø¯Ù„Ø§Ø¦Ù„ Ø§Ù„Ø®ÙŠØ±Ø§Øª ÙˆØ´ÙˆØ§Ø±Ù‚ Ø§Ù„Ø£Ù†ÙˆØ§Ø±","category":"Ù…ØªÙ†ÙˆØ¹"},{"id":"aQkJbpvjju4","title":"Ø§Ø²Ø§ÙŠ Ø§ØªØ¹Ø§Ù…Ù„ Ù…Ø¹ Ø§Ù„Ù†Ø§Ø³ Ø§Ù„Ù…Ø¤Ø°ÙŠØ© ÙÙŠ Ø­ÙŠØ§ØªÙŠØŸ","publishedAt":"2023-12-24T18:00:02Z","duration":"PT10M15S","thumbnail":"https://i.ytimg.com/vi/aQkJbpvjju4/mqdefault.jpg","viewCount":"15210","playlistId":"PLEkQk5xrP-tkGXuZ9atE3k_7it12rUPTs","playlistName":"Ø£Ø³Ø¦Ù„Ø© Ø§Ù„Ù…ØªØ§Ø¨Ø¹ÙŠÙ†","category":"Ù…ØªÙ†ÙˆØ¹"},{"id":"dfny3k4ZI_Q","title":"Ø§Ù„Ø±Ø³Ø§Ù„Ø© Ø§Ù„Ù‚Ø´ÙŠØ±ÙŠØ© - Ø§Ù„Ù…Ø¬Ù„Ø³ (117) Ø¨ÙØ§Ø¨Ù Ø±Ø¤ÙŠØ§ Ø§Ù„Ù‚ÙˆÙ… | Ø£.Ø¯. ÙŠØ³Ø±ÙŠ Ø¬Ø¨Ø±","publishedAt":"2022-04-01T17:00:59Z","duration":"PT58M39S","thumbnail":"https://i.ytimg.com/vi/dfny3k4ZI_Q/mqdefault.jpg","viewCount":"15144","playlistId":"PLEkQk5xrP-tkHAGOwIKr4pc5ehhyQ5HMJ","playlistName":"ÙƒØªØ§Ø¨ Ø§Ù„Ø±Ø³Ø§Ù„Ø© Ø§Ù„Ù‚Ø´ÙŠØ±ÙŠØ© (ØªØµÙˆÙ) - Ø¯. ÙŠØ³Ø±ÙŠ Ø¬Ø¨Ø±","category":"ØªØµÙˆÙ"},{"id":"0nZSI5WzoSs","title":"Ø¶Ø¹Ù Ø§Ù„Ø¹Ø±Ø¨ ÙˆØµØ¨Ø± ÙˆØ±Ø¨Ø§Ø· Ø£Ù‡Ù„ Øº/Ø²Ø©","publishedAt":"2023-11-13T19:07:23Z","duration":"PT9M40S","thumbnail":"https://i.ytimg.com/vi/0nZSI5WzoSs/mqdefault.jpg","viewCount":"15136","playlistId":"PLEkQk5xrP-tlArtGpeLWaqNM7h7IDeAVC","playlistName":"Ø®Ø·Ø¨ Ø§Ù„Ø¬Ù…Ø¹Ø© Ø£.Ø¯. ÙŠØ³Ø±ÙŠ Ø¬Ø¨Ø±","category":"Ø®Ø·Ø¨"},{"id":"lkz-VovZldQ","title":"ÙƒÙŠÙ Ø£Ø¨ØªØ¹Ø¯ Ø¹Ù† Ø§Ù„Ø´Ù‡ÙˆØ§Øª ÙˆØ§Ù„Ù…Ø¹Ø§ØµÙŠØŸ","publishedAt":"2023-02-06T18:00:22Z","duration":"PT8M1S","thumbnail":"https://i.ytimg.com/vi/lkz-VovZldQ/mqdefault.jpg","viewCount":"15102","playlistId":"PLEkQk5xrP-tkGXuZ9atE3k_7it12rUPTs","playlistName":"Ø£Ø³Ø¦Ù„Ø© Ø§Ù„Ù…ØªØ§Ø¨Ø¹ÙŠÙ†","category":"Ù…ØªÙ†ÙˆØ¹"}],"total":7675,"page":19,"pageSize":24,"totalPages":320}