{"items":[{"id":"BbrO6iWDPNE","title":"شرح البرهان في علوم القرآن - النوع ١٥ - تفسير هذه الأسامي","publishedAt":"2019-12-13T15:25:48Z","duration":"PT22M5S","thumbnail":"https://i.ytimg.com/vi/BbrO6iWDPNE/mqdefault.jpg","viewCount":"549","playlistId":"PLEkQk5xrP-tnW3iBL7HkKziOFCFZbTlf0","playlistName":"شرح البرهان في علوم القرآن - أ.د. يسري جبر","category":"تفسير"},{"id":"Ud3yj6sdP1Y","title":"مقرأة سورة القلم من آية ٣٤","publishedAt":"2019-05-07T17:44:56Z","duration":"PT29M6S","thumbnail":"https://i.ytimg.com/vi/Ud3yj6sdP1Y/mqdefault.jpg","viewCount":"549","playlistId":"PLEkQk5xrP-tnmTYsyW6xNdyfhPq0Bhrhj","playlistName":"مقرأة الفجر - القُرْآنُ الكَرِيمُ - خَتْمَةُ التَّدَبُّرِ  أ.د. يسري جبر","category":"متنوع"},{"id":"tkjhgAEFZGk","title":"شرح صحيح البخاري كتاب التوحيد من باب ٣٨","publishedAt":"2019-02-12T22:46:31Z","duration":"PT41M12S","thumbnail":"https://i.ytimg.com/vi/tkjhgAEFZGk/mqdefault.jpg","viewCount":"549","playlistId":"PLEkQk5xrP-tlEerGoLa1AFy-2XvQ-sovv","playlistName":"شرح صحيح البخاري - أ.د. يسري جبر (كاملا)","category":"حديث"},{"id":"GlY8gHXPIfE","title":"39- أحكام الحيض | شرح سنن الدار قطني رضي الله عنه","publishedAt":"2024-07-25T06:00:09Z","duration":"PT45M3S","thumbnail":"https://i.ytimg.com/vi/GlY8gHXPIfE/mqdefault.jpg","viewCount":"548","playlistId":"PLEkQk5xrP-tk_MCBZ706ORCw6gFtFyaGj","playlistName":"شرح سنن الإمام الدارقطني","category":"متنوع"},{"id":"L9nbK7qUF9s","title":"233- النوع الثالث من أساليب الحصر: أنَّما - شرح الإتقان في علوم القرآن","publishedAt":"2024-05-08T05:00:10Z","duration":"PT18M53S","thumbnail":"https://i.ytimg.com/vi/L9nbK7qUF9s/mqdefault.jpg","viewCount":"548","playlistId":"PLEkQk5xrP-tlPw10KGJKagu7zm4Ry2Tge","playlistName":"شرح الإتقان في علوم القرآن","category":"تفسير"},{"id":"L87U1Ye1rDk","title":"41- شرح اللؤلؤ والمرجان كتاب الصلاة المسافرين وقصرها من باب ٢٧","publishedAt":"2020-01-20T07:35:05Z","duration":"PT30M3S","thumbnail":"https://i.ytimg.com/vi/L87U1Ye1rDk/mqdefault.jpg","viewCount":"548","playlistId":"PLEkQk5xrP-tmKNjtYLfhATC37QdIsTMe0","playlistName":"شرح كتاب اللؤلؤ والمرجان فيما اتفق عليه الشيخان إماما المحدثين البخاري ومسلم. أ.د. يسري جبر","category":"حديث"},{"id":"WzAHB9whH40","title":"شرح البرهان في علوم القرآن - النوع النوع  ١٩ - معرفة التصريف","publishedAt":"2019-11-27T04:53:22Z","duration":"PT16M24S","thumbnail":"https://i.ytimg.com/vi/WzAHB9whH40/mqdefault.jpg","viewCount":"548","playlistId":"PLEkQk5xrP-tnW3iBL7HkKziOFCFZbTlf0","playlistName":"شرح البرهان في علوم القرآن - أ.د. يسري جبر","category":"تفسير"},{"id":"yYVbGlQRDfQ","title":"شرح البرهان في علوم القرآن - النوع ٥ - الفصل ٤ : ما جاء على أربعة أحرف","publishedAt":"2019-09-18T21:51:38Z","duration":"PT14M30S","thumbnail":"https://i.ytimg.com/vi/yYVbGlQRDfQ/mqdefault.jpg","viewCount":"548","playlistId":"PLEkQk5xrP-tnW3iBL7HkKziOFCFZbTlf0","playlistName":"شرح البرهان في علوم القرآن - أ.د. يسري جبر","category":"تفسير"},{"id":"-n7tGrwaEiw","title":"المجلس السادس عشر من الحديث (١٦٠) حديث إسراء النبي صلى الله عليه وآله وسلم ومعراجه أ. د. يسري جبر","publishedAt":"2019-05-11T17:00:28Z","duration":"PT32M36S","thumbnail":"https://i.ytimg.com/vi/-n7tGrwaEiw/mqdefault.jpg","viewCount":"548","playlistId":"PLEkQk5xrP-tnl7vb7KeAoPd5ZlqKKW8KV","playlistName":"شرح كتاب بهجة النفوس أ.د . يسرى جبر","category":"متنوع"},{"id":"RN1_ki0kxj8","title":"شرح صحيح البخاري كتاب التفسير فى سورة براءة من أولها","publishedAt":"2018-03-27T06:14:03Z","duration":"PT30M56S","thumbnail":"https://i.ytimg.com/vi/RN1_ki0kxj8/mqdefault.jpg","viewCount":"548","playlistId":"PLEkQk5xrP-tlEerGoLa1AFy-2XvQ-sovv","playlistName":"شرح صحيح البخاري - أ.د. يسري جبر (كاملا)","category":"حديث"},{"id":"G0Ouyu9UwgQ","title":"شرح صحيح البخاري - كتاب المغازي من باب ٦٣","publishedAt":"2018-02-24T17:53:20Z","duration":"PT28M8S","thumbnail":"https://i.ytimg.com/vi/G0Ouyu9UwgQ/mqdefault.jpg","viewCount":"548","playlistId":"PLEkQk5xrP-tlEerGoLa1AFy-2XvQ-sovv","playlistName":"شرح صحيح البخاري - أ.د. يسري جبر (كاملا)","category":"حديث"},{"id":"IOUFAy3DgiY","title":"شرح صحيح البخاري- كتاب المناقب تكملة باب ٢٦ المجلس السادس","publishedAt":"2017-11-04T13:36:48Z","duration":"PT29M52S","thumbnail":"https://i.ytimg.com/vi/IOUFAy3DgiY/mqdefault.jpg","viewCount":"548","playlistId":"PLEkQk5xrP-tlEerGoLa1AFy-2XvQ-sovv","playlistName":"شرح صحيح البخاري - أ.د. يسري جبر (كاملا)","category":"حديث"},{"id":"NU9Z4qDmSYc","title":"262- التَّمَنِّي - شرح الإتقان في علوم القرآن","publishedAt":"2024-10-29T06:00:21Z","duration":"PT22M1S","thumbnail":"https://i.ytimg.com/vi/NU9Z4qDmSYc/mqdefault.jpg","viewCount":"547","playlistId":"PLEkQk5xrP-tlPw10KGJKagu7zm4Ry2Tge","playlistName":"شرح الإتقان في علوم القرآن","category":"تفسير"},{"id":"hI6P7a9-HRg","title":"144- حرف الغين (غير) - شرح الإتقان في علوم القرآن","publishedAt":"2023-08-07T05:00:30Z","duration":"PT18M8S","thumbnail":"https://i.ytimg.com/vi/hI6P7a9-HRg/mqdefault.jpg","viewCount":"547","playlistId":"PLEkQk5xrP-tlPw10KGJKagu7zm4Ry2Tge","playlistName":"شرح الإتقان في علوم القرآن","category":"تفسير"},{"id":"25p4sXsKT4k","title":"122- كتاب الصيد والذبائح","publishedAt":"2020-08-31T11:01:24Z","duration":"PT39M4S","thumbnail":"https://i.ytimg.com/vi/25p4sXsKT4k/mqdefault.jpg","viewCount":"547","playlistId":"PLEkQk5xrP-tmKNjtYLfhATC37QdIsTMe0","playlistName":"شرح كتاب اللؤلؤ والمرجان فيما اتفق عليه الشيخان إماما المحدثين البخاري ومسلم. أ.د. يسري جبر","category":"حديث"},{"id":"1yipzbz4P2o","title":"266- أسلوب الاطِّراد - شرح الإتقان في علوم القرآن","publishedAt":"2024-11-07T06:00:01Z","duration":"PT14M33S","thumbnail":"https://i.ytimg.com/vi/1yipzbz4P2o/mqdefault.jpg","viewCount":"546","playlistId":"PLEkQk5xrP-tlPw10KGJKagu7zm4Ry2Tge","playlistName":"شرح الإتقان في علوم القرآن","category":"تفسير"},{"id":"0sLd8vSR9AM","title":"249- بيان تكرار اللفظ مع اختلاف المعنى - شرح الإتقان في علوم القرآن","publishedAt":"2024-08-03T06:00:00Z","duration":"PT33M21S","thumbnail":"https://i.ytimg.com/vi/0sLd8vSR9AM/mqdefault.jpg","viewCount":"546","playlistId":"PLEkQk5xrP-tlPw10KGJKagu7zm4Ry2Tge","playlistName":"شرح الإتقان في علوم القرآن","category":"تفسير"},{"id":"kxpv0svl3HY","title":"إطلاق اسم المطلق على المُقيَّد","publishedAt":"2020-10-17T08:23:20Z","duration":"PT23M50S","thumbnail":"https://i.ytimg.com/vi/kxpv0svl3HY/mqdefault.jpg","viewCount":"546","playlistId":"PLEkQk5xrP-tnW3iBL7HkKziOFCFZbTlf0","playlistName":"شرح البرهان في علوم القرآن - أ.د. يسري جبر","category":"تفسير"},{"id":"MLh50WimpSI","title":"مقرأة سورة الكافرون من أولها","publishedAt":"2019-08-14T22:36:21Z","duration":"PT5M42S","thumbnail":"https://i.ytimg.com/vi/MLh50WimpSI/mqdefault.jpg","viewCount":"546","playlistId":"PLEkQk5xrP-tnmTYsyW6xNdyfhPq0Bhrhj","playlistName":"مقرأة الفجر - القُرْآنُ الكَرِيمُ - خَتْمَةُ التَّدَبُّرِ  أ.د. يسري جبر","category":"متنوع"},{"id":"WXuREW2Kqhk","title":"شرح صحيح البخاري كتاب الرقاق من باب ٥١","publishedAt":"2018-11-04T17:39:29Z","duration":"PT48M49S","thumbnail":"https://i.ytimg.com/vi/WXuREW2Kqhk/mqdefault.jpg","viewCount":"546","playlistId":"PLEkQk5xrP-tlEerGoLa1AFy-2XvQ-sovv","playlistName":"شرح صحيح البخاري - أ.د. يسري جبر (كاملا)","category":"حديث"},{"id":"uDTYSoQq4Kk","title":"شرح صحيح البخاري كتاب الأطعمة من باب ٤٩","publishedAt":"2018-07-12T23:09:30Z","duration":"PT39M47S","thumbnail":"https://i.ytimg.com/vi/uDTYSoQq4Kk/mqdefault.jpg","viewCount":"546","playlistId":"PLEkQk5xrP-tlEerGoLa1AFy-2XvQ-sovv","playlistName":"شرح صحيح البخاري - أ.د. يسري جبر (كاملا)","category":"حديث"},{"id":"ZTMaT768tz0","title":"شرح صحيح البخاري كتاب التفسير فى سورة الرعد من أولها","publishedAt":"2018-04-01T08:37:08Z","duration":"PT31M51S","thumbnail":"https://i.ytimg.com/vi/ZTMaT768tz0/mqdefault.jpg","viewCount":"546","playlistId":"PLEkQk5xrP-tlEerGoLa1AFy-2XvQ-sovv","playlistName":"شرح صحيح البخاري - أ.د. يسري جبر (كاملا)","category":"حديث"},{"id":"3IZEfamhjl4","title":"شرح صحيح البخاري - كتاب الوصايا من باب ٣٥","publishedAt":"2017-07-24T19:28:41Z","duration":"PT23M8S","thumbnail":"https://i.ytimg.com/vi/3IZEfamhjl4/mqdefault.jpg","viewCount":"546","playlistId":"PLEkQk5xrP-tlEerGoLa1AFy-2XvQ-sovv","playlistName":"شرح صحيح البخاري - أ.د. يسري جبر (كاملا)","category":"حديث"},{"id":"pfqpvUxWBNg","title":"سورة المائدة آية 4","publishedAt":"2016-10-04T08:21:07Z","duration":"PT13M5S","thumbnail":"https://i.ytimg.com/vi/pfqpvUxWBNg/mqdefault.jpg","viewCount":"546","playlistId":"PLEkQk5xrP-tnmTYsyW6xNdyfhPq0Bhrhj","playlistName":"مقرأة الفجر - القُرْآنُ الكَرِيمُ - خَتْمَةُ التَّدَبُّرِ  أ.د. يسري جبر","category":"متنوع"}],"total":7675,"page":214,"pageSize":24,"totalPages":320}