{"items":[{"id":"7_x6cV_RPSI","title":"شرح صحيح البخاري كتاب اللباس من باب ١٩","publishedAt":"2018-08-14T22:11:36Z","duration":"PT27M3S","thumbnail":"https://i.ytimg.com/vi/7_x6cV_RPSI/mqdefault.jpg","viewCount":"7576","playlistId":"PLEkQk5xrP-tlEerGoLa1AFy-2XvQ-sovv","playlistName":"شرح صحيح البخاري - أ.د. يسري جبر (كاملا)","category":"حديث"},{"id":"l-4zTknWZTs","title":"ما هي حدود الاختلاط بين الرجال والنساء؟","publishedAt":"2023-12-10T19:35:47Z","duration":"PT10M10S","thumbnail":"https://i.ytimg.com/vi/l-4zTknWZTs/mqdefault.jpg","viewCount":"7573","playlistId":"PLEkQk5xrP-tkGXuZ9atE3k_7it12rUPTs","playlistName":"أسئلة المتابعين","category":"متنوع"},{"id":"_imgPh80E2o","title":"63- كيف تكون من أصحاب البصيرة؟ | شرح منازل السائرين","publishedAt":"2025-07-08T18:59:13Z","duration":"PT27M5S","thumbnail":"https://i.ytimg.com/vi/_imgPh80E2o/mqdefault.jpg","viewCount":"7567","playlistId":"PLEkQk5xrP-tmiUfQ-2Tsn7QIak4EsvaZW","playlistName":"كتاب التيسير المعين بشرح معاني منازل السائرين (تصوف) - د.يسري جبر","category":"تصوف"},{"id":"Ia4eh8MNbQA","title":"أريد تناول المهدّئات.. بماذا تنصحني؟","publishedAt":"2021-09-05T17:37:14Z","duration":"PT9M23S","thumbnail":"https://i.ytimg.com/vi/Ia4eh8MNbQA/mqdefault.jpg","viewCount":"7561","playlistId":"PLEkQk5xrP-tkGXuZ9atE3k_7it12rUPTs","playlistName":"أسئلة المتابعين","category":"متنوع"},{"id":"68woQ3PXSeA","title":"58- ما هو الفقر الحقيقي وكيف تكون غنيا بالله؟ | شرح منازل السائرين","publishedAt":"2025-01-15T19:30:58Z","duration":"PT55M3S","thumbnail":"https://i.ytimg.com/vi/68woQ3PXSeA/mqdefault.jpg","viewCount":"7547","playlistId":"PLEkQk5xrP-tmiUfQ-2Tsn7QIak4EsvaZW","playlistName":"كتاب التيسير المعين بشرح معاني منازل السائرين (تصوف) - د.يسري جبر","category":"تصوف"},{"id":"dp6AbrUDgzo","title":"صلوات اليوم الرابع أ.د. يسري جبر","publishedAt":"2016-03-26T19:21:39Z","duration":"PT16M42S","thumbnail":"https://i.ytimg.com/vi/dp6AbrUDgzo/mqdefault.jpg","viewCount":"7544","playlistId":"PLEkQk5xrP-tmuP5s2o33O9gAOC4ACxsma","playlistName":"صَلَواتُ الأَسْمَاءِ الْحُسْنَى شَرْحُ الصَّلَواتِ الْيُسْرِيَّةِ عَلَى خَيرِ الْبَرِيَّةِ  أ.د. يسرى جبر","category":"متنوع"},{"id":"5EBnGtL-GCM","title":"شرح صلاة القاسم لسيدي أبي الفيض محمد بن عبد الكبير الكِتَّانِي رضي الله عنه . أ.د. يسري جبر","publishedAt":"2019-10-07T10:41:47Z","duration":"PT27M16S","thumbnail":"https://i.ytimg.com/vi/5EBnGtL-GCM/mqdefault.jpg","viewCount":"7539","playlistId":"PLEkQk5xrP-tknLQLcWmVVpecUHkbu7cHh","playlistName":"شرح صلوات مختارة على النبي صلى الله عليه وآله وسلم  أ.د. يسري جبر","category":"سيرة"},{"id":"PITBHDG_Ezw","title":"شرح منازل السائرين - المجلس (33) مقدمة باب التوكل | أ.د. يسري جبر","publishedAt":"2024-01-17T18:26:50Z","duration":"PT34M35S","thumbnail":"https://i.ytimg.com/vi/PITBHDG_Ezw/mqdefault.jpg","viewCount":"7531","playlistId":"PLEkQk5xrP-tmiUfQ-2Tsn7QIak4EsvaZW","playlistName":"كتاب التيسير المعين بشرح معاني منازل السائرين (تصوف) - د.يسري جبر","category":"تصوف"},{"id":"zBLcRUXt_d4","title":"السيفُ البتَّار لمنْ سبَّ النَّبيَّ المختار ﷺ","publishedAt":"2020-11-03T17:14:26Z","duration":"PT35M23S","thumbnail":"https://i.ytimg.com/vi/zBLcRUXt_d4/mqdefault.jpg","viewCount":"7522","playlistId":"PLEkQk5xrP-tlArtGpeLWaqNM7h7IDeAVC","playlistName":"خطب الجمعة أ.د. يسري جبر","category":"خطب"},{"id":"yCCzzbdgrz0","title":"167- القَدَر - بابُ خَلْقِ الآدَمِيّ في بطن أمِّهِ وكتابة رزقه وأجله وعمله وشقاوته وسعادته","publishedAt":"2020-11-18T07:25:28Z","duration":"PT34M41S","thumbnail":"https://i.ytimg.com/vi/yCCzzbdgrz0/mqdefault.jpg","viewCount":"7512","playlistId":"PLEkQk5xrP-tmKNjtYLfhATC37QdIsTMe0","playlistName":"شرح كتاب اللؤلؤ والمرجان فيما اتفق عليه الشيخان إماما المحدثين البخاري ومسلم. أ.د. يسري جبر","category":"حديث"},{"id":"Me01EjpIVQs","title":"هل خلقنا الله مستضعفين في هذه الدنيا؟","publishedAt":"2023-12-07T18:18:10Z","duration":"PT15M58S","thumbnail":"https://i.ytimg.com/vi/Me01EjpIVQs/mqdefault.jpg","viewCount":"7501","playlistId":"PLEkQk5xrP-tlArtGpeLWaqNM7h7IDeAVC","playlistName":"خطب الجمعة أ.د. يسري جبر","category":"خطب"},{"id":"AMbH7EOODCk","title":"أسرار وحكايات في ذكرى ميلاد الدكتور يسري جبر","publishedAt":"2024-09-23T19:00:18Z","duration":"PT22M2S","thumbnail":"https://i.ytimg.com/vi/AMbH7EOODCk/mqdefault.jpg","viewCount":"7499","playlistId":"PLEkQk5xrP-tl6tFiMFGUucCTvLgnWyAfz","playlistName":"حياة الأستاذ الدكتور يسري جبر","category":"متنوع"},{"id":"UfHp_kGmFiE","title":"هل الحركة والتمايل أثناء الذكر حرام؟","publishedAt":"2022-04-05T19:30:03Z","duration":"PT11M57S","thumbnail":"https://i.ytimg.com/vi/UfHp_kGmFiE/mqdefault.jpg","viewCount":"7487","playlistId":"PLEkQk5xrP-tkGXuZ9atE3k_7it12rUPTs","playlistName":"أسئلة المتابعين","category":"متنوع"},{"id":"YyO-HUnFH4M","title":"كلمة فضيلة الدكتور يسري جبر في الملتقى العالمي الثاني عشر للتصوف بالمغرب","publishedAt":"2017-11-30T12:21:12Z","duration":"PT22M44S","thumbnail":"https://i.ytimg.com/vi/YyO-HUnFH4M/mqdefault.jpg","viewCount":"7486","playlistId":"PLEkQk5xrP-tm8ZIu74nTOZN9KJUJu416J","playlistName":"مقاطع مُهمَّة (يُسريَّات) أ.د. يسري جبر","category":"متنوع"},{"id":"2mclCySzFC0","title":"الفرق بين المحبة والخلة والعشق  د. يسري جبر","publishedAt":"2016-07-18T16:56:04Z","duration":"PT8M50S","thumbnail":"https://i.ytimg.com/vi/2mclCySzFC0/mqdefault.jpg","viewCount":"7483","playlistId":"PLEkQk5xrP-tm8ZIu74nTOZN9KJUJu416J","playlistName":"مقاطع مُهمَّة (يُسريَّات) أ.د. يسري جبر","category":"متنوع"},{"id":"TFhJe4hvU64","title":"الْمَلَائِكَةُ (۲) د.يسري جبر","publishedAt":"2018-07-28T14:38:58Z","duration":"PT58M43S","thumbnail":"https://i.ytimg.com/vi/TFhJe4hvU64/mqdefault.jpg","viewCount":"7475","playlistId":"PLEkQk5xrP-tlArtGpeLWaqNM7h7IDeAVC","playlistName":"خطب الجمعة أ.د. يسري جبر","category":"خطب"},{"id":"zyp96vONxfw","title":"ما هي مفاتيح الغيب؟ | مجالس رمضانية","publishedAt":"2024-03-23T14:00:50Z","duration":"PT44M30S","thumbnail":"https://i.ytimg.com/vi/zyp96vONxfw/mqdefault.jpg","viewCount":"7475","playlistId":"PLEkQk5xrP-tnl7vb7KeAoPd5ZlqKKW8KV","playlistName":"شرح كتاب بهجة النفوس أ.د . يسرى جبر","category":"متنوع"},{"id":"EOs0Rzwi5CY","title":"كيف نستقبل العام الهجري الجديد؟","publishedAt":"2023-07-18T18:00:04Z","duration":"PT16M5S","thumbnail":"https://i.ytimg.com/vi/EOs0Rzwi5CY/mqdefault.jpg","viewCount":"7472","playlistId":"PLEkQk5xrP-tlArtGpeLWaqNM7h7IDeAVC","playlistName":"خطب الجمعة أ.د. يسري جبر","category":"خطب"},{"id":"wvpz5_ltsFE","title":"الحقائقُ تَرِدُ في حَالِ التَّجَلِّي مُجْمَلَةً وبعْدَ الوَعْي يكونُ البيانُ","publishedAt":"2018-01-02T18:50:17Z","duration":"PT13M30S","thumbnail":"https://i.ytimg.com/vi/wvpz5_ltsFE/mqdefault.jpg","viewCount":"7453","playlistId":"PLEkQk5xrP-tkI_meE148wc7V7XHlB0WPb","playlistName":"من الحكم العطائية  د. يسري جبر","category":"متنوع"},{"id":"IcHfH5VnxXU","title":"الرسالة القشيرية - المجلس (92) بَابُ السفر | أ.د. يسري جبر","publishedAt":"2021-09-28T18:30:11Z","duration":"PT1H11M47S","thumbnail":"https://i.ytimg.com/vi/IcHfH5VnxXU/mqdefault.jpg","viewCount":"7425","playlistId":"PLEkQk5xrP-tkHAGOwIKr4pc5ehhyQ5HMJ","playlistName":"كتاب الرسالة القشيرية (تصوف) - د. يسري جبر","category":"تصوف"},{"id":"BuTAVhNxaoU","title":"الجراحة بين الحلاق والطبيب!","publishedAt":"2021-01-06T18:35:22Z","duration":"PT8M1S","thumbnail":"https://i.ytimg.com/vi/BuTAVhNxaoU/mqdefault.jpg","viewCount":"7417","playlistId":"PLEkQk5xrP-tm8ZIu74nTOZN9KJUJu416J","playlistName":"مقاطع مُهمَّة (يُسريَّات) أ.د. يسري جبر","category":"متنوع"},{"id":"BeadQpCbJHM","title":"الرسالة القشيرية - المجلس الخامس عشر (باب في ذكر مشايخ هذه الطريقة - المجلس السابع)","publishedAt":"2018-04-09T11:34:47Z","duration":"PT54M28S","thumbnail":"https://i.ytimg.com/vi/BeadQpCbJHM/mqdefault.jpg","viewCount":"7414","playlistId":"PLEkQk5xrP-tkHAGOwIKr4pc5ehhyQ5HMJ","playlistName":"كتاب الرسالة القشيرية (تصوف) - د. يسري جبر","category":"تصوف"},{"id":"MbHZ4_nfSvY","title":"شرح صحيح البخاري_ كتاب (بدء الخلق) «حديث الذبابة» ورد الشبهات حولها د. يسري جبر","publishedAt":"2014-08-25T01:39:24Z","duration":"PT1H16M17S","thumbnail":"https://i.ytimg.com/vi/MbHZ4_nfSvY/mqdefault.jpg","viewCount":"7408","playlistId":"PLEkQk5xrP-tm8ZIu74nTOZN9KJUJu416J","playlistName":"مقاطع مُهمَّة (يُسريَّات) أ.د. يسري جبر","category":"متنوع"},{"id":"s9Mtfnl3zGA","title":"شرح كتاب الأذكار من كلام سيد الأبرار للإمام النووى رضى الله عنه - المجلس الأول","publishedAt":"2014-11-19T17:05:52Z","duration":"PT18M44S","thumbnail":"https://i.ytimg.com/vi/s9Mtfnl3zGA/mqdefault.jpg","viewCount":"7408","playlistId":"PLEkQk5xrP-tkWS57Ubysh0ifJR8dmuEtE","playlistName":"شرح كتاب الأذكار للإمام النووي د. يسرى جبر","category":"حديث"}],"total":7670,"page":42,"pageSize":24,"totalPages":320}