{"items":[{"id":"OYeQUyijxUU","title":"210- \"…أخرجت إلينا عائشةُ كساءً وإزارًا غليظًا، قالت: قُبض رسولُ الله ﷺ في هذين\" - شرح دليل الفالحين","publishedAt":"2022-02-28T07:39:04Z","duration":"PT22M5S","thumbnail":"https://i.ytimg.com/vi/OYeQUyijxUU/mqdefault.jpg","viewCount":"1032","playlistId":"PLEkQk5xrP-tkc9DXvSLguqX5-FYp6ASR4","playlistName":"دليل الفالحين لطرق رياض الصالحين","category":"متنوع"},{"id":"tJZkDHhVuRw","title":"38- الرِّبَا - شرح كتاب فتح القريب المجيب","publishedAt":"2021-11-10T06:19:02Z","duration":"PT49M32S","thumbnail":"https://i.ytimg.com/vi/tJZkDHhVuRw/mqdefault.jpg","viewCount":"1032","playlistId":"PLEkQk5xrP-tkXuPs-0sXfWQDWzBKmcjWN","playlistName":"\"فتح القريب المجيب في شرح ألفاظ التقريب\"( فقه شافعيّ)  أ. د. يسري جبر","category":"فقه"},{"id":"9loWimxeq4g","title":"شرح صحيح البخاري - كتاب سجود القرآن من أوله","publishedAt":"2016-12-21T09:13:02Z","duration":"PT33M33S","thumbnail":"https://i.ytimg.com/vi/9loWimxeq4g/mqdefault.jpg","viewCount":"1032","playlistId":"PLEkQk5xrP-tlEerGoLa1AFy-2XvQ-sovv","playlistName":"شرح صحيح البخاري - أ.د. يسري جبر (كاملا)","category":"حديث"},{"id":"8iuXTt1-94Q","title":"حول مولد أمّنا السيدة فاطمة الزهراء البتول رضي الله تعالى عنها وعليها السلام د. يسري جبر","publishedAt":"2018-03-10T21:10:25Z","duration":"PT43M22S","thumbnail":"https://i.ytimg.com/vi/8iuXTt1-94Q/mqdefault.jpg","viewCount":"1032","playlistId":"PLEkQk5xrP-tlArtGpeLWaqNM7h7IDeAVC","playlistName":"خطب الجمعة أ.د. يسري جبر","category":"خطب"},{"id":"lGsp2sMsbAY","title":"440- جواز لَعْن أصحاب المعاصي غير المُعَيَّنين - شرح دليل الفالحين","publishedAt":"2023-05-08T09:01:00Z","duration":"PT28M56S","thumbnail":"https://i.ytimg.com/vi/lGsp2sMsbAY/mqdefault.jpg","viewCount":"1030","playlistId":"PLEkQk5xrP-tkc9DXvSLguqX5-FYp6ASR4","playlistName":"دليل الفالحين لطرق رياض الصالحين","category":"متنوع"},{"id":"6lpQd8SGsqM","title":"شرح صحيح البخاري كتاب الطب من أوله","publishedAt":"2018-08-02T20:53:48Z","duration":"PT31M29S","thumbnail":"https://i.ytimg.com/vi/6lpQd8SGsqM/mqdefault.jpg","viewCount":"1030","playlistId":"PLEkQk5xrP-tlEerGoLa1AFy-2XvQ-sovv","playlistName":"شرح صحيح البخاري - أ.د. يسري جبر (كاملا)","category":"حديث"},{"id":"0JRg6SQrOaU","title":"197- فصلٌ: من الْمُتَشَابه آيَاتُ الصِّفات  - شرح الإتقان في علوم القرآن","publishedAt":"2024-01-15T06:46:40Z","duration":"PT41M55S","thumbnail":"https://i.ytimg.com/vi/0JRg6SQrOaU/mqdefault.jpg","viewCount":"1030","playlistId":"PLEkQk5xrP-tlPw10KGJKagu7zm4Ry2Tge","playlistName":"شرح الإتقان في علوم القرآن","category":"تفسير"},{"id":"O50aumFqcUQ","title":"6- مَا جَاءَ فِى الْمَسْحِ بِالرَّأْسِ وَالأُذُنَيْنِ ك الطهارة ك الموطأ د يسري جبر الأزهري","publishedAt":"2016-04-07T11:45:26Z","duration":"PT49M42S","thumbnail":"https://i.ytimg.com/vi/O50aumFqcUQ/mqdefault.jpg","viewCount":"1029","playlistId":"PLEkQk5xrP-tnC6BRuqMjyO-484iqXeg0o","playlistName":"شرح كتاب الموطأ للإمام مالك","category":"متنوع"},{"id":"Yu5PvKsAHw4","title":"سورة التوبة من أولها","publishedAt":"2017-03-29T08:45:05Z","duration":"PT22M48S","thumbnail":"https://i.ytimg.com/vi/Yu5PvKsAHw4/mqdefault.jpg","viewCount":"1029","playlistId":"PLEkQk5xrP-tnmTYsyW6xNdyfhPq0Bhrhj","playlistName":"مقرأة الفجر - القُرْآنُ الكَرِيمُ - خَتْمَةُ التَّدَبُّرِ  أ.د. يسري جبر","category":"متنوع"},{"id":"19I21S_mob8","title":"تذكير المؤنث - شرح البرهان في علوم القرآن","publishedAt":"2021-12-13T07:16:57Z","duration":"PT19M6S","thumbnail":"https://i.ytimg.com/vi/19I21S_mob8/mqdefault.jpg","viewCount":"1028","playlistId":"PLEkQk5xrP-tnW3iBL7HkKziOFCFZbTlf0","playlistName":"شرح البرهان في علوم القرآن - أ.د. يسري جبر","category":"تفسير"},{"id":"0V6OhvbAeuI","title":"خطابُ التَّحنُّن والاستعطاف","publishedAt":"2020-10-07T06:51:12Z","duration":"PT15M23S","thumbnail":"https://i.ytimg.com/vi/0V6OhvbAeuI/mqdefault.jpg","viewCount":"1027","playlistId":"PLEkQk5xrP-tnW3iBL7HkKziOFCFZbTlf0","playlistName":"شرح البرهان في علوم القرآن - أ.د. يسري جبر","category":"تفسير"},{"id":"PPlLyZXGeZA","title":"شرح صحيح البخاري كتاب الفتن من باب ٣","publishedAt":"2018-12-29T20:02:39Z","duration":"PT29M37S","thumbnail":"https://i.ytimg.com/vi/PPlLyZXGeZA/mqdefault.jpg","viewCount":"1027","playlistId":"PLEkQk5xrP-tlEerGoLa1AFy-2XvQ-sovv","playlistName":"شرح صحيح البخاري - أ.د. يسري جبر (كاملا)","category":"حديث"},{"id":"oCdKFfbiz2c","title":"شرح صحيح البخاري كتاب الأذان من باب ٤٨","publishedAt":"2016-11-16T05:52:07Z","duration":"PT32M53S","thumbnail":"https://i.ytimg.com/vi/oCdKFfbiz2c/mqdefault.jpg","viewCount":"1027","playlistId":"PLEkQk5xrP-tlEerGoLa1AFy-2XvQ-sovv","playlistName":"شرح صحيح البخاري - أ.د. يسري جبر (كاملا)","category":"حديث"},{"id":"Xx_Vj3bQbWU","title":"شرح صحيح البخاري كتاب الأذان من باب ٤٢","publishedAt":"2016-11-16T04:01:58Z","duration":"PT28M58S","thumbnail":"https://i.ytimg.com/vi/Xx_Vj3bQbWU/mqdefault.jpg","viewCount":"1027","playlistId":"PLEkQk5xrP-tlEerGoLa1AFy-2XvQ-sovv","playlistName":"شرح صحيح البخاري - أ.د. يسري جبر (كاملا)","category":"حديث"},{"id":"FqMYjWU46t4","title":"شرح صحيح البخاري - كتاب الجنائز من باب ٢٢","publishedAt":"2017-01-11T11:15:21Z","duration":"PT34M34S","thumbnail":"https://i.ytimg.com/vi/FqMYjWU46t4/mqdefault.jpg","viewCount":"1026","playlistId":"PLEkQk5xrP-tlEerGoLa1AFy-2XvQ-sovv","playlistName":"شرح صحيح البخاري - أ.د. يسري جبر (كاملا)","category":"حديث"},{"id":"C3-uNaIaYvM","title":"50- “...قال جبريلُ: فأخبرني عن الإيمان ...”تكملة الحديث (1) باب المراقبة - شرح دليل الفالحين","publishedAt":"2021-04-26T05:18:12Z","duration":"PT35M3S","thumbnail":"https://i.ytimg.com/vi/C3-uNaIaYvM/mqdefault.jpg","viewCount":"1025","playlistId":"PLEkQk5xrP-tkc9DXvSLguqX5-FYp6ASR4","playlistName":"دليل الفالحين لطرق رياض الصالحين","category":"متنوع"},{"id":"AU5Bh_g37j4","title":"23- شرح اللؤلؤ والمرجان كتاب الصلاة من أوله","publishedAt":"2020-01-08T07:43:30Z","duration":"PT33M53S","thumbnail":"https://i.ytimg.com/vi/AU5Bh_g37j4/mqdefault.jpg","viewCount":"1024","playlistId":"PLEkQk5xrP-tmKNjtYLfhATC37QdIsTMe0","playlistName":"شرح كتاب اللؤلؤ والمرجان فيما اتفق عليه الشيخان إماما المحدثين البخاري ومسلم. أ.د. يسري جبر","category":"حديث"},{"id":"oqUEoPYt9hg","title":"قراءة القرآن (من آية ١٩٦ سورة البقرة)","publishedAt":"2016-05-11T09:25:04Z","duration":"PT30M16S","thumbnail":"https://i.ytimg.com/vi/oqUEoPYt9hg/mqdefault.jpg","viewCount":"1024","playlistId":"PLEkQk5xrP-tnmTYsyW6xNdyfhPq0Bhrhj","playlistName":"مقرأة الفجر - القُرْآنُ الكَرِيمُ - خَتْمَةُ التَّدَبُّرِ  أ.د. يسري جبر","category":"متنوع"},{"id":"xJWjoC_vy0s","title":"شرح صحيح البخاري كتاب الأذان من باب ٧٠","publishedAt":"2016-11-21T13:54:53Z","duration":"PT32M18S","thumbnail":"https://i.ytimg.com/vi/xJWjoC_vy0s/mqdefault.jpg","viewCount":"1024","playlistId":"PLEkQk5xrP-tlEerGoLa1AFy-2XvQ-sovv","playlistName":"شرح صحيح البخاري - أ.د. يسري جبر (كاملا)","category":"حديث"},{"id":"E9JG8Hzx-i0","title":"346- فضل السنن الراتبة مع الفرائض - شرح دليل الفالحين","publishedAt":"2022-11-28T18:00:06Z","duration":"PT41M47S","thumbnail":"https://i.ytimg.com/vi/E9JG8Hzx-i0/mqdefault.jpg","viewCount":"1023","playlistId":"PLEkQk5xrP-tkc9DXvSLguqX5-FYp6ASR4","playlistName":"دليل الفالحين لطرق رياض الصالحين","category":"متنوع"},{"id":"Sr4s5C8En8Y","title":"97- كيفية تغسيل المُحْرِم وتكفينه | آداب رمي الجمرات - شرح مسند الإمام أحمد رضي الله تعالى عنه","publishedAt":"2024-04-24T06:00:19Z","duration":"PT43M40S","thumbnail":"https://i.ytimg.com/vi/Sr4s5C8En8Y/mqdefault.jpg","viewCount":"1023","playlistId":"PLEkQk5xrP-tkKprIuGrSdEuBSMsyg5We1","playlistName":"شرح مسند الإمام أحمد بن حنبل","category":"متنوع"},{"id":"X5TsaZIfvDI","title":"96- الأمر بالمعروف والنهي عن المنكر - شرح دليل الفالحين","publishedAt":"2021-07-11T06:49:33Z","duration":"PT17M38S","thumbnail":"https://i.ytimg.com/vi/X5TsaZIfvDI/mqdefault.jpg","viewCount":"1022","playlistId":"PLEkQk5xrP-tkc9DXvSLguqX5-FYp6ASR4","playlistName":"دليل الفالحين لطرق رياض الصالحين","category":"متنوع"},{"id":"mrEvDrKSZXs","title":"شرح صحيح البخاري - كتاب الزكاة من باب ٨","publishedAt":"2017-02-14T14:29:24Z","duration":"PT36M45S","thumbnail":"https://i.ytimg.com/vi/mrEvDrKSZXs/mqdefault.jpg","viewCount":"1022","playlistId":"PLEkQk5xrP-tlEerGoLa1AFy-2XvQ-sovv","playlistName":"شرح صحيح البخاري - أ.د. يسري جبر (كاملا)","category":"حديث"},{"id":"jbhf5ASDXcE","title":"301- أسماء الملائكة - شرح الإتقان في علوم القرآن","publishedAt":"2025-09-25T09:01:14Z","duration":"PT32M22S","thumbnail":"https://i.ytimg.com/vi/jbhf5ASDXcE/mqdefault.jpg","viewCount":"1021","playlistId":"PLEkQk5xrP-tlPw10KGJKagu7zm4Ry2Tge","playlistName":"شرح الإتقان في علوم القرآن","category":"تفسير"}],"total":7670,"page":151,"pageSize":24,"totalPages":320}