{"items":[{"id":"QJZt7KcPlBw","title":"شرح سنن الدارمي كتاب الاستئذان من باب ٢٢","publishedAt":"2019-09-21T23:38:20Z","duration":"PT30M50S","thumbnail":"https://i.ytimg.com/vi/QJZt7KcPlBw/mqdefault.jpg","viewCount":"382","playlistId":"PLEkQk5xrP-tmAg-FuWjY057X_h5NmGmAa","playlistName":"شرح سنن الدارمي - أ.د. يسري جبر (كاملا)","category":"متنوع"},{"id":"wPinO7rUc1I","title":"شرح سنن الدارمي كتاب الصلاة من باب ٨٤","publishedAt":"2019-05-09T20:13:28Z","duration":"PT45M9S","thumbnail":"https://i.ytimg.com/vi/wPinO7rUc1I/mqdefault.jpg","viewCount":"382","playlistId":"PLEkQk5xrP-tmAg-FuWjY057X_h5NmGmAa","playlistName":"شرح سنن الدارمي - أ.د. يسري جبر (كاملا)","category":"متنوع"},{"id":"zmnTlhgTjMQ","title":"سورة النساء آية 105","publishedAt":"2016-09-20T06:36:01Z","duration":"PT16M40S","thumbnail":"https://i.ytimg.com/vi/zmnTlhgTjMQ/mqdefault.jpg","viewCount":"382","playlistId":"PLEkQk5xrP-tnmTYsyW6xNdyfhPq0Bhrhj","playlistName":"مقرأة الفجر - القُرْآنُ الكَرِيمُ - خَتْمَةُ التَّدَبُّرِ  أ.د. يسري جبر","category":"متنوع"},{"id":"8se4eG3ndfo","title":"( 114 ) حديث الأمر بتحريم الرجوع في الصدقة","publishedAt":"2016-06-17T11:51:44Z","duration":"PT31M17S","thumbnail":"https://i.ytimg.com/vi/8se4eG3ndfo/mqdefault.jpg","viewCount":"382","playlistId":"PLEkQk5xrP-tnl7vb7KeAoPd5ZlqKKW8KV","playlistName":"شرح كتاب بهجة النفوس أ.د . يسرى جبر","category":"متنوع"},{"id":"1pf6Ld7AKBE","title":"كان رسول الله دائم البِشر| اعرف نبيك","publishedAt":"2015-09-16T15:43:55Z","duration":"PT6M17S","thumbnail":"https://i.ytimg.com/vi/1pf6Ld7AKBE/mqdefault.jpg","viewCount":"382","playlistId":"PLEkQk5xrP-tl6Mu_Mz3QMUSv5T6XBH-Dg","playlistName":"برنامج اعرف نبيك","category":"متنوع"},{"id":"MY6_tqTho3o","title":"626- حرف (مِن) لبيان الجنس - شرح البرهان في علوم القرآن","publishedAt":"2022-12-23T05:00:09Z","duration":"PT18M37S","thumbnail":"https://i.ytimg.com/vi/MY6_tqTho3o/mqdefault.jpg","viewCount":"381","playlistId":"PLEkQk5xrP-tnW3iBL7HkKziOFCFZbTlf0","playlistName":"شرح البرهان في علوم القرآن - أ.د. يسري جبر","category":"تفسير"},{"id":"Id79wDNvRfQ","title":"103- شرح اللؤلؤ والمرجان كتاب القسامة من أوله","publishedAt":"2020-03-23T07:00:04Z","duration":"PT31M3S","thumbnail":"https://i.ytimg.com/vi/Id79wDNvRfQ/mqdefault.jpg","viewCount":"381","playlistId":"PLEkQk5xrP-tmKNjtYLfhATC37QdIsTMe0","playlistName":"شرح كتاب اللؤلؤ والمرجان فيما اتفق عليه الشيخان إماما المحدثين البخاري ومسلم. أ.د. يسري جبر","category":"حديث"},{"id":"Nq-xg-MA3Cc","title":"شرح البرهان في علوم القرآن - النوع ٣٧ - في حكم الآيات المتشابهات الواردة في الصفات","publishedAt":"2020-03-12T06:30:00Z","duration":"PT31M28S","thumbnail":"https://i.ytimg.com/vi/Nq-xg-MA3Cc/mqdefault.jpg","viewCount":"381","playlistId":"PLEkQk5xrP-tnW3iBL7HkKziOFCFZbTlf0","playlistName":"شرح البرهان في علوم القرآن - أ.د. يسري جبر","category":"تفسير"},{"id":"FPWSXrI8aI0","title":"89- شرح اللؤلؤ والمرجان كتاب البيوع من أوله","publishedAt":"2020-03-08T06:00:04Z","duration":"PT34M50S","thumbnail":"https://i.ytimg.com/vi/FPWSXrI8aI0/mqdefault.jpg","viewCount":"381","playlistId":"PLEkQk5xrP-tmKNjtYLfhATC37QdIsTMe0","playlistName":"شرح كتاب اللؤلؤ والمرجان فيما اتفق عليه الشيخان إماما المحدثين البخاري ومسلم. أ.د. يسري جبر","category":"حديث"},{"id":"XGtCgytDwIM","title":"شرح البرهان في علوم القرآن - النوع ٣١ - معرفة الأمثال الكائنة فيه ٢","publishedAt":"2020-02-16T06:00:03Z","duration":"PT21M8S","thumbnail":"https://i.ytimg.com/vi/XGtCgytDwIM/mqdefault.jpg","viewCount":"381","playlistId":"PLEkQk5xrP-tnW3iBL7HkKziOFCFZbTlf0","playlistName":"شرح البرهان في علوم القرآن - أ.د. يسري جبر","category":"تفسير"},{"id":"92OVqgL0H8M","title":"مقرأة سورة الزخرف من آية ٤٦","publishedAt":"2018-12-17T12:16:02Z","duration":"PT28M35S","thumbnail":"https://i.ytimg.com/vi/92OVqgL0H8M/mqdefault.jpg","viewCount":"381","playlistId":"PLEkQk5xrP-tnmTYsyW6xNdyfhPq0Bhrhj","playlistName":"مقرأة الفجر - القُرْآنُ الكَرِيمُ - خَتْمَةُ التَّدَبُّرِ  أ.د. يسري جبر","category":"متنوع"},{"id":"3TFZz2BDT5M","title":"مقرأة سورة غافر من آية ٧١","publishedAt":"2018-11-15T07:04:27Z","duration":"PT29M30S","thumbnail":"https://i.ytimg.com/vi/3TFZz2BDT5M/mqdefault.jpg","viewCount":"381","playlistId":"PLEkQk5xrP-tnmTYsyW6xNdyfhPq0Bhrhj","playlistName":"مقرأة الفجر - القُرْآنُ الكَرِيمُ - خَتْمَةُ التَّدَبُّرِ  أ.د. يسري جبر","category":"متنوع"},{"id":"004Su5QaV40","title":"مقرأة سورة الزمر من آية ٦٧","publishedAt":"2018-10-30T21:42:46Z","duration":"PT24M14S","thumbnail":"https://i.ytimg.com/vi/004Su5QaV40/mqdefault.jpg","viewCount":"381","playlistId":"PLEkQk5xrP-tnmTYsyW6xNdyfhPq0Bhrhj","playlistName":"مقرأة الفجر - القُرْآنُ الكَرِيمُ - خَتْمَةُ التَّدَبُّرِ  أ.د. يسري جبر","category":"متنوع"},{"id":"HMoZBgZOBXw","title":"293- العلوم المستنبطة من القرآن (3) - شرح الإتقان في علوم القرآن","publishedAt":"2025-07-19T05:00:15Z","duration":"PT12M18S","thumbnail":"https://i.ytimg.com/vi/HMoZBgZOBXw/mqdefault.jpg","viewCount":"380","playlistId":"PLEkQk5xrP-tlPw10KGJKagu7zm4Ry2Tge","playlistName":"شرح الإتقان في علوم القرآن","category":"تفسير"},{"id":"mnUM_yvqkZY","title":"شرح البرهان في علوم القرآن - النوع ٣٢ - فائدة","publishedAt":"2020-02-20T06:00:06Z","duration":"PT22M46S","thumbnail":"https://i.ytimg.com/vi/mnUM_yvqkZY/mqdefault.jpg","viewCount":"380","playlistId":"PLEkQk5xrP-tnW3iBL7HkKziOFCFZbTlf0","playlistName":"شرح البرهان في علوم القرآن - أ.د. يسري جبر","category":"تفسير"},{"id":"EFvGbpvrMP8","title":"مقرأة سورة القمر من آية ٩","publishedAt":"2019-02-26T17:24:29Z","duration":"PT16M48S","thumbnail":"https://i.ytimg.com/vi/EFvGbpvrMP8/mqdefault.jpg","viewCount":"380","playlistId":"PLEkQk5xrP-tnmTYsyW6xNdyfhPq0Bhrhj","playlistName":"مقرأة الفجر - القُرْآنُ الكَرِيمُ - خَتْمَةُ التَّدَبُّرِ  أ.د. يسري جبر","category":"متنوع"},{"id":"Ei1GJTV2TnY","title":"مقرأة سورة الأحقاف من آية ٢١","publishedAt":"2019-01-08T09:07:34Z","duration":"PT25M9S","thumbnail":"https://i.ytimg.com/vi/Ei1GJTV2TnY/mqdefault.jpg","viewCount":"380","playlistId":"PLEkQk5xrP-tnmTYsyW6xNdyfhPq0Bhrhj","playlistName":"مقرأة الفجر - القُرْآنُ الكَرِيمُ - خَتْمَةُ التَّدَبُّرِ  أ.د. يسري جبر","category":"متنوع"},{"id":"NOtEPwDpe1o","title":"شرح صحيح البخاري كتاب الديات من باب ١٠","publishedAt":"2018-12-05T21:00:24Z","duration":"PT37M37S","thumbnail":"https://i.ytimg.com/vi/NOtEPwDpe1o/mqdefault.jpg","viewCount":"380","playlistId":"PLEkQk5xrP-tlEerGoLa1AFy-2XvQ-sovv","playlistName":"شرح صحيح البخاري - أ.د. يسري جبر (كاملا)","category":"حديث"},{"id":"0KFgTK0pj3Q","title":"مقرأة سورة الحجر من آية ٤٥","publishedAt":"2017-08-09T07:55:53Z","duration":"PT16M58S","thumbnail":"https://i.ytimg.com/vi/0KFgTK0pj3Q/mqdefault.jpg","viewCount":"380","playlistId":"PLEkQk5xrP-tnmTYsyW6xNdyfhPq0Bhrhj","playlistName":"مقرأة الفجر - القُرْآنُ الكَرِيمُ - خَتْمَةُ التَّدَبُّرِ  أ.د. يسري جبر","category":"متنوع"},{"id":"wGsD0WQAmUU","title":"مقرأة سورة الرعد من آية ١٢","publishedAt":"2017-07-19T11:23:38Z","duration":"PT12M40S","thumbnail":"https://i.ytimg.com/vi/wGsD0WQAmUU/mqdefault.jpg","viewCount":"380","playlistId":"PLEkQk5xrP-tnmTYsyW6xNdyfhPq0Bhrhj","playlistName":"مقرأة الفجر - القُرْآنُ الكَرِيمُ - خَتْمَةُ التَّدَبُّرِ  أ.د. يسري جبر","category":"متنوع"},{"id":"eoSl5idfOno","title":"سورة النساء آية 114","publishedAt":"2016-09-24T03:24:04Z","duration":"PT19M10S","thumbnail":"https://i.ytimg.com/vi/eoSl5idfOno/mqdefault.jpg","viewCount":"380","playlistId":"PLEkQk5xrP-tnmTYsyW6xNdyfhPq0Bhrhj","playlistName":"مقرأة الفجر - القُرْآنُ الكَرِيمُ - خَتْمَةُ التَّدَبُّرِ  أ.د. يسري جبر","category":"متنوع"},{"id":"lcoLDF2RbvI","title":"580- حروف المعاني(41): تكملة حرف (الفاء)","publishedAt":"2022-10-27T05:15:03Z","duration":"PT17M6S","thumbnail":"https://i.ytimg.com/vi/lcoLDF2RbvI/mqdefault.jpg","viewCount":"379","playlistId":"PLEkQk5xrP-tnW3iBL7HkKziOFCFZbTlf0","playlistName":"شرح البرهان في علوم القرآن - أ.د. يسري جبر","category":"تفسير"},{"id":"IWq_HOd0wLg","title":"القِسمُ (21) من التوكيد: المبالغة (فائدة) - شرح البرهان في علوم القرآن","publishedAt":"2021-05-16T19:21:28Z","duration":"PT18M35S","thumbnail":"https://i.ytimg.com/vi/IWq_HOd0wLg/mqdefault.jpg","viewCount":"379","playlistId":"PLEkQk5xrP-tnW3iBL7HkKziOFCFZbTlf0","playlistName":"شرح البرهان في علوم القرآن - أ.د. يسري جبر","category":"تفسير"},{"id":"MBT1k4LR2Sc","title":"96- شرح اللؤلؤ والمرجان كتاب المساقاة من الباب الثامن و العشرين","publishedAt":"2020-03-15T06:30:04Z","duration":"PT16M35S","thumbnail":"https://i.ytimg.com/vi/MBT1k4LR2Sc/mqdefault.jpg","viewCount":"379","playlistId":"PLEkQk5xrP-tmKNjtYLfhATC37QdIsTMe0","playlistName":"شرح كتاب اللؤلؤ والمرجان فيما اتفق عليه الشيخان إماما المحدثين البخاري ومسلم. أ.د. يسري جبر","category":"حديث"}],"total":7675,"page":261,"pageSize":24,"totalPages":320}