{"items":[{"id":"UPVVBTyIKUU","title":"مقرأة سورة النمل من آية ٦٠","publishedAt":"2018-05-03T12:09:22Z","duration":"PT25M36S","thumbnail":"https://i.ytimg.com/vi/UPVVBTyIKUU/mqdefault.jpg","viewCount":"304","playlistId":"PLEkQk5xrP-tnmTYsyW6xNdyfhPq0Bhrhj","playlistName":"مقرأة الفجر - القُرْآنُ الكَرِيمُ - خَتْمَةُ التَّدَبُّرِ  أ.د. يسري جبر","category":"متنوع"},{"id":"TH17_FIfZY4","title":"الأسلوب الثاني الحذف(12)أقسام الحذف: الثامن:الاختزال(3)حذف الفاعل - شرح البرهان في علوم القرآن","publishedAt":"2021-06-30T07:59:17Z","duration":"PT17M41S","thumbnail":"https://i.ytimg.com/vi/TH17_FIfZY4/mqdefault.jpg","viewCount":"304","playlistId":"PLEkQk5xrP-tnW3iBL7HkKziOFCFZbTlf0","playlistName":"شرح البرهان في علوم القرآن - أ.د. يسري جبر","category":"تفسير"},{"id":"l8nh1QyxV2c","title":"مقرأة سورة الدخان من آية ٥١","publishedAt":"2018-12-26T12:12:45Z","duration":"PT14M5S","thumbnail":"https://i.ytimg.com/vi/l8nh1QyxV2c/mqdefault.jpg","viewCount":"304","playlistId":"PLEkQk5xrP-tnmTYsyW6xNdyfhPq0Bhrhj","playlistName":"مقرأة الفجر - القُرْآنُ الكَرِيمُ - خَتْمَةُ التَّدَبُّرِ  أ.د. يسري جبر","category":"متنوع"},{"id":"JGEC1BfaXr4","title":"شرح كتاب الفتن من سنن الترمذي - المجلس الرابع","publishedAt":"2015-12-17T06:04:39Z","duration":"PT36M45S","thumbnail":"https://i.ytimg.com/vi/JGEC1BfaXr4/mqdefault.jpg","viewCount":"304","playlistId":"PLEkQk5xrP-tnu6of679SvxdVx0qSrJzmb","playlistName":"شرح سنن الإمام الترمذي رضى الله عنه د. يسري جبر","category":"متنوع"},{"id":"fp0F7Trl71g","title":"مقرأة سورة الإسراء من آية ٣١","publishedAt":"2017-09-20T08:21:19Z","duration":"PT12M57S","thumbnail":"https://i.ytimg.com/vi/fp0F7Trl71g/mqdefault.jpg","viewCount":"303","playlistId":"PLEkQk5xrP-tnmTYsyW6xNdyfhPq0Bhrhj","playlistName":"مقرأة الفجر - القُرْآنُ الكَرِيمُ - خَتْمَةُ التَّدَبُّرِ  أ.د. يسري جبر","category":"متنوع"},{"id":"HJKrIHb2B_Q","title":"مقرأة سورة الأحزاب من ٱية ٦٩","publishedAt":"2018-08-04T16:20:57Z","duration":"PT16M5S","thumbnail":"https://i.ytimg.com/vi/HJKrIHb2B_Q/mqdefault.jpg","viewCount":"303","playlistId":"PLEkQk5xrP-tnmTYsyW6xNdyfhPq0Bhrhj","playlistName":"مقرأة الفجر - القُرْآنُ الكَرِيمُ - خَتْمَةُ التَّدَبُّرِ  أ.د. يسري جبر","category":"متنوع"},{"id":"31Z8AFpwIEs","title":"شرح سنن الدارمي كتاب المناسك من باب ١٠","publishedAt":"2019-07-01T22:49:14Z","duration":"PT28M1S","thumbnail":"https://i.ytimg.com/vi/31Z8AFpwIEs/mqdefault.jpg","viewCount":"303","playlistId":"PLEkQk5xrP-tmAg-FuWjY057X_h5NmGmAa","playlistName":"شرح سنن الدارمي - أ.د. يسري جبر (كاملا)","category":"متنوع"},{"id":"OJbk4Ilq8VM","title":"شرح البرهان في علوم القرآن - النوع ٤٠ - في بيان معاضدة السنة للقرآن","publishedAt":"2020-03-31T07:30:04Z","duration":"PT21M17S","thumbnail":"https://i.ytimg.com/vi/OJbk4Ilq8VM/mqdefault.jpg","viewCount":"303","playlistId":"PLEkQk5xrP-tnW3iBL7HkKziOFCFZbTlf0","playlistName":"شرح البرهان في علوم القرآن - أ.د. يسري جبر","category":"تفسير"},{"id":"ph5lWotLVYU","title":"583- حروف المعاني(44): الحرف (45) (قَدْ) - شرح البرهان في علوم القرآن","publishedAt":"2022-10-31T05:00:32Z","duration":"PT24M18S","thumbnail":"https://i.ytimg.com/vi/ph5lWotLVYU/mqdefault.jpg","viewCount":"303","playlistId":"PLEkQk5xrP-tnW3iBL7HkKziOFCFZbTlf0","playlistName":"شرح البرهان في علوم القرآن - أ.د. يسري جبر","category":"تفسير"},{"id":"K_q6RpJZDw8","title":"مقرأة سورة يونس من آية ٦١","publishedAt":"2017-05-18T11:04:16Z","duration":"PT21M10S","thumbnail":"https://i.ytimg.com/vi/K_q6RpJZDw8/mqdefault.jpg","viewCount":"302","playlistId":"PLEkQk5xrP-tnmTYsyW6xNdyfhPq0Bhrhj","playlistName":"مقرأة الفجر - القُرْآنُ الكَرِيمُ - خَتْمَةُ التَّدَبُّرِ  أ.د. يسري جبر","category":"متنوع"},{"id":"7ThPEwc2y_c","title":"مقرأة سورة طه من آية ٧٧","publishedAt":"2017-12-04T04:08:22Z","duration":"PT15M4S","thumbnail":"https://i.ytimg.com/vi/7ThPEwc2y_c/mqdefault.jpg","viewCount":"302","playlistId":"PLEkQk5xrP-tnmTYsyW6xNdyfhPq0Bhrhj","playlistName":"مقرأة الفجر - القُرْآنُ الكَرِيمُ - خَتْمَةُ التَّدَبُّرِ  أ.د. يسري جبر","category":"متنوع"},{"id":"RNcdBqpXmUU","title":"شرح سنن الدارمي كتاب الأضاحي من أوله","publishedAt":"2019-07-18T07:58:41Z","duration":"PT33M43S","thumbnail":"https://i.ytimg.com/vi/RNcdBqpXmUU/mqdefault.jpg","viewCount":"301","playlistId":"PLEkQk5xrP-tmAg-FuWjY057X_h5NmGmAa","playlistName":"شرح سنن الدارمي - أ.د. يسري جبر (كاملا)","category":"متنوع"},{"id":"euievgGixKA","title":"شرح كتاب الدعوات من سنن الترمذي - المجلس الأول","publishedAt":"2016-05-14T01:33:39Z","duration":"PT44M33S","thumbnail":"https://i.ytimg.com/vi/euievgGixKA/mqdefault.jpg","viewCount":"301","playlistId":"PLEkQk5xrP-tnu6of679SvxdVx0qSrJzmb","playlistName":"شرح سنن الإمام الترمذي رضى الله عنه د. يسري جبر","category":"متنوع"},{"id":"XFS70b5ax0g","title":"مقرأة سورة المؤمنون آية ٢٣","publishedAt":"2018-02-23T08:34:27Z","duration":"PT22M41S","thumbnail":"https://i.ytimg.com/vi/XFS70b5ax0g/mqdefault.jpg","viewCount":"301","playlistId":"PLEkQk5xrP-tnmTYsyW6xNdyfhPq0Bhrhj","playlistName":"مقرأة الفجر - القُرْآنُ الكَرِيمُ - خَتْمَةُ التَّدَبُّرِ  أ.د. يسري جبر","category":"متنوع"},{"id":"YMmg_Ip7MX4","title":"مقرأة سورة يونس من آية ٣٧","publishedAt":"2017-05-14T10:21:29Z","duration":"PT16M27S","thumbnail":"https://i.ytimg.com/vi/YMmg_Ip7MX4/mqdefault.jpg","viewCount":"301","playlistId":"PLEkQk5xrP-tnmTYsyW6xNdyfhPq0Bhrhj","playlistName":"مقرأة الفجر - القُرْآنُ الكَرِيمُ - خَتْمَةُ التَّدَبُّرِ  أ.د. يسري جبر","category":"متنوع"},{"id":"PFe9d2xe_ps","title":"86- شرح اللؤلؤ والمرجان كتاب الطلاق من الباب السادس","publishedAt":"2020-03-05T06:00:02Z","duration":"PT21M8S","thumbnail":"https://i.ytimg.com/vi/PFe9d2xe_ps/mqdefault.jpg","viewCount":"301","playlistId":"PLEkQk5xrP-tmKNjtYLfhATC37QdIsTMe0","playlistName":"شرح كتاب اللؤلؤ والمرجان فيما اتفق عليه الشيخان إماما المحدثين البخاري ومسلم. أ.د. يسري جبر","category":"حديث"},{"id":"9ZUChKd-dLA","title":"مقرأة سورة الشورى من آية ٣٠","publishedAt":"2018-12-04T11:39:05Z","duration":"PT13M32S","thumbnail":"https://i.ytimg.com/vi/9ZUChKd-dLA/mqdefault.jpg","viewCount":"301","playlistId":"PLEkQk5xrP-tnmTYsyW6xNdyfhPq0Bhrhj","playlistName":"مقرأة الفجر - القُرْآنُ الكَرِيمُ - خَتْمَةُ التَّدَبُّرِ  أ.د. يسري جبر","category":"متنوع"},{"id":"TXIWLRJuHh0","title":"610- (لو) المصدرية - شرح البرهان في علوم القرآن","publishedAt":"2022-12-03T05:00:09Z","duration":"PT14M25S","thumbnail":"https://i.ytimg.com/vi/TXIWLRJuHh0/mqdefault.jpg","viewCount":"301","playlistId":"PLEkQk5xrP-tnW3iBL7HkKziOFCFZbTlf0","playlistName":"شرح البرهان في علوم القرآن - أ.د. يسري جبر","category":"تفسير"},{"id":"wtAFSlQ3Pts","title":"شرح كتاب الأحكام من سنن الترمذي - المجلس  الرابع","publishedAt":"2015-06-11T04:14:32Z","duration":"PT27M46S","thumbnail":"https://i.ytimg.com/vi/wtAFSlQ3Pts/mqdefault.jpg","viewCount":"301","playlistId":"PLEkQk5xrP-tnu6of679SvxdVx0qSrJzmb","playlistName":"شرح سنن الإمام الترمذي رضى الله عنه د. يسري جبر","category":"متنوع"},{"id":"cSTrZiWLa2c","title":"شرح كتاب الأحكام من سنن الترمذي - المجلس الثاني","publishedAt":"2015-06-09T03:53:03Z","duration":"PT34M12S","thumbnail":"https://i.ytimg.com/vi/cSTrZiWLa2c/mqdefault.jpg","viewCount":"301","playlistId":"PLEkQk5xrP-tnu6of679SvxdVx0qSrJzmb","playlistName":"شرح سنن الإمام الترمذي رضى الله عنه د. يسري جبر","category":"متنوع"},{"id":"EJ8w38iAtIw","title":"شرح سنن الدارمي كتاب الديات من باب ٥","publishedAt":"2019-08-21T18:16:43Z","duration":"PT32M58S","thumbnail":"https://i.ytimg.com/vi/EJ8w38iAtIw/mqdefault.jpg","viewCount":"300","playlistId":"PLEkQk5xrP-tmAg-FuWjY057X_h5NmGmAa","playlistName":"شرح سنن الدارمي - أ.د. يسري جبر (كاملا)","category":"متنوع"},{"id":"QnfCt6oO-nc","title":"مقرأة سورة يونس من آية ٤١","publishedAt":"2017-05-15T11:14:58Z","duration":"PT10M47S","thumbnail":"https://i.ytimg.com/vi/QnfCt6oO-nc/mqdefault.jpg","viewCount":"300","playlistId":"PLEkQk5xrP-tnmTYsyW6xNdyfhPq0Bhrhj","playlistName":"مقرأة الفجر - القُرْآنُ الكَرِيمُ - خَتْمَةُ التَّدَبُّرِ  أ.د. يسري جبر","category":"متنوع"},{"id":"33O5Jia5knY","title":"( 101 ) حَدِيثُ النَّهْىِ عَنِ الجُلُوسِ عَلَى الطَرِيقِ","publishedAt":"2015-10-30T11:01:54Z","duration":"PT35M52S","thumbnail":"https://i.ytimg.com/vi/33O5Jia5knY/mqdefault.jpg","viewCount":"300","playlistId":"PLEkQk5xrP-tnl7vb7KeAoPd5ZlqKKW8KV","playlistName":"شرح كتاب بهجة النفوس أ.د . يسرى جبر","category":"متنوع"},{"id":"LCfQ_k2m28c","title":"56- باب مَا يُنْهَى عَنْهُ مِنَ الضَّحَايَا ك الموطأ د يسري جبر الأزهري","publishedAt":"2017-09-14T13:43:27Z","duration":"PT1H5M43S","thumbnail":"https://i.ytimg.com/vi/LCfQ_k2m28c/mqdefault.jpg","viewCount":"299","playlistId":"PLEkQk5xrP-tnC6BRuqMjyO-484iqXeg0o","playlistName":"شرح كتاب الموطأ للإمام مالك","category":"متنوع"}],"total":7670,"page":284,"pageSize":24,"totalPages":320}