{"items":[{"id":"EJ8w38iAtIw","title":"شرح سنن الدارمي كتاب الديات من باب ٥","publishedAt":"2019-08-21T18:16:43Z","duration":"PT32M58S","thumbnail":"https://i.ytimg.com/vi/EJ8w38iAtIw/mqdefault.jpg","viewCount":"300","playlistId":"PLEkQk5xrP-tmAg-FuWjY057X_h5NmGmAa","playlistName":"شرح سنن الدارمي - أ.د. يسري جبر (كاملا)","category":"متنوع"},{"id":"2qrutPwgxMw","title":"مقرأة سورة القصص من آية ٨٣","publishedAt":"2018-06-02T11:05:25Z","duration":"PT21M36S","thumbnail":"https://i.ytimg.com/vi/2qrutPwgxMw/mqdefault.jpg","viewCount":"300","playlistId":"PLEkQk5xrP-tnmTYsyW6xNdyfhPq0Bhrhj","playlistName":"مقرأة الفجر - القُرْآنُ الكَرِيمُ - خَتْمَةُ التَّدَبُّرِ  أ.د. يسري جبر","category":"متنوع"},{"id":"QnfCt6oO-nc","title":"مقرأة سورة يونس من آية ٤١","publishedAt":"2017-05-15T11:14:58Z","duration":"PT10M47S","thumbnail":"https://i.ytimg.com/vi/QnfCt6oO-nc/mqdefault.jpg","viewCount":"300","playlistId":"PLEkQk5xrP-tnmTYsyW6xNdyfhPq0Bhrhj","playlistName":"مقرأة الفجر - القُرْآنُ الكَرِيمُ - خَتْمَةُ التَّدَبُّرِ  أ.د. يسري جبر","category":"متنوع"},{"id":"60MU5WDs8nE","title":"سورة التوبة آية 75","publishedAt":"2017-04-26T08:21:39Z","duration":"PT10M38S","thumbnail":"https://i.ytimg.com/vi/60MU5WDs8nE/mqdefault.jpg","viewCount":"300","playlistId":"PLEkQk5xrP-tnmTYsyW6xNdyfhPq0Bhrhj","playlistName":"مقرأة الفجر - القُرْآنُ الكَرِيمُ - خَتْمَةُ التَّدَبُّرِ  أ.د. يسري جبر","category":"متنوع"},{"id":"33O5Jia5knY","title":"( 101 ) حَدِيثُ النَّهْىِ عَنِ الجُلُوسِ عَلَى الطَرِيقِ","publishedAt":"2015-10-30T11:01:54Z","duration":"PT35M52S","thumbnail":"https://i.ytimg.com/vi/33O5Jia5knY/mqdefault.jpg","viewCount":"300","playlistId":"PLEkQk5xrP-tnl7vb7KeAoPd5ZlqKKW8KV","playlistName":"شرح كتاب بهجة النفوس أ.د . يسرى جبر","category":"متنوع"},{"id":"Of_ayaiPjL4","title":"مقرأة سورة الصافات من آية ١١٤","publishedAt":"2018-09-23T08:18:33Z","duration":"PT19M49S","thumbnail":"https://i.ytimg.com/vi/Of_ayaiPjL4/mqdefault.jpg","viewCount":"299","playlistId":"PLEkQk5xrP-tnmTYsyW6xNdyfhPq0Bhrhj","playlistName":"مقرأة الفجر - القُرْآنُ الكَرِيمُ - خَتْمَةُ التَّدَبُّرِ  أ.د. يسري جبر","category":"متنوع"},{"id":"pG-HnaU66yA","title":"61- باب مَا جَاءَ فِى الْخِطْبَةِ ك الموطأ د يسري جبر الأزهري","publishedAt":"2018-06-09T11:24:41Z","duration":"PT53M48S","thumbnail":"https://i.ytimg.com/vi/pG-HnaU66yA/mqdefault.jpg","viewCount":"299","playlistId":"PLEkQk5xrP-tnC6BRuqMjyO-484iqXeg0o","playlistName":"شرح كتاب الموطأ للإمام مالك","category":"متنوع"},{"id":"h2yxVqfII_o","title":"مقرأة سورة النمل من آية ٢٧","publishedAt":"2018-04-29T09:41:54Z","duration":"PT14M34S","thumbnail":"https://i.ytimg.com/vi/h2yxVqfII_o/mqdefault.jpg","viewCount":"299","playlistId":"PLEkQk5xrP-tnmTYsyW6xNdyfhPq0Bhrhj","playlistName":"مقرأة الفجر - القُرْآنُ الكَرِيمُ - خَتْمَةُ التَّدَبُّرِ  أ.د. يسري جبر","category":"متنوع"},{"id":"LCfQ_k2m28c","title":"56- باب مَا يُنْهَى عَنْهُ مِنَ الضَّحَايَا ك الموطأ د يسري جبر الأزهري","publishedAt":"2017-09-14T13:43:27Z","duration":"PT1H5M43S","thumbnail":"https://i.ytimg.com/vi/LCfQ_k2m28c/mqdefault.jpg","viewCount":"299","playlistId":"PLEkQk5xrP-tnC6BRuqMjyO-484iqXeg0o","playlistName":"شرح كتاب الموطأ للإمام مالك","category":"متنوع"},{"id":"TbgqklcWsBE","title":"( 119 ) حديث الإفك وبراءة السيدة عائشة أم المؤمنين منه - المجلس الثالث عشر د. يسري جبر","publishedAt":"2017-05-27T15:35:01Z","duration":"PT36M3S","thumbnail":"https://i.ytimg.com/vi/TbgqklcWsBE/mqdefault.jpg","viewCount":"299","playlistId":"PLEkQk5xrP-tnl7vb7KeAoPd5ZlqKKW8KV","playlistName":"شرح كتاب بهجة النفوس أ.د . يسرى جبر","category":"متنوع"},{"id":"wyyyj1S9iUc","title":"سورة التوبة آية 34","publishedAt":"2017-04-15T07:59:11Z","duration":"PT12M30S","thumbnail":"https://i.ytimg.com/vi/wyyyj1S9iUc/mqdefault.jpg","viewCount":"299","playlistId":"PLEkQk5xrP-tnmTYsyW6xNdyfhPq0Bhrhj","playlistName":"مقرأة الفجر - القُرْآنُ الكَرِيمُ - خَتْمَةُ التَّدَبُّرِ  أ.د. يسري جبر","category":"متنوع"},{"id":"F__iTgXDr2A","title":"شرح كتاب الأذكار من كلام سيد الأبرار للإمام النووى رضى الله عنه - المجلس التاسع والأربعون","publishedAt":"2016-12-18T07:49:32Z","duration":"PT10M15S","thumbnail":"https://i.ytimg.com/vi/F__iTgXDr2A/mqdefault.jpg","viewCount":"299","playlistId":"PLEkQk5xrP-tkWS57Ubysh0ifJR8dmuEtE","playlistName":"شرح كتاب الأذكار للإمام النووي د. يسرى جبر","category":"حديث"},{"id":"jHOo03Xr3zk","title":"شرح صحيح الإمام البخاري رضي الله تعالى عنه - كتابُِ أَخْبَارِ الآحَادِ  أ.د. يسري جبر","publishedAt":"2019-11-11T19:10:50Z","duration":"PT30M54S","thumbnail":"https://i.ytimg.com/vi/jHOo03Xr3zk/mqdefault.jpg","viewCount":"298","playlistId":"PLEkQk5xrP-tmJuzaj4GWRenFoFx9gdbFX","playlistName":"شرح كتاب صحيح الإمام البخاري رضي الله تعالى عنه   أ.د. يسرى جبر","category":"حديث"},{"id":"WXqX051KZHA","title":"شرح صحيح الإمام البخاري رضي الله تعالى عنه - كتابُِ الأَحْكَامِ  أ.د. يسري جبر","publishedAt":"2019-09-22T16:47:36Z","duration":"PT33M12S","thumbnail":"https://i.ytimg.com/vi/WXqX051KZHA/mqdefault.jpg","viewCount":"298","playlistId":"PLEkQk5xrP-tmJuzaj4GWRenFoFx9gdbFX","playlistName":"شرح كتاب صحيح الإمام البخاري رضي الله تعالى عنه   أ.د. يسرى جبر","category":"حديث"},{"id":"JeCJUOtZd9A","title":"مقرأة سورة النور من آية ٤١","publishedAt":"2018-03-20T14:45:48Z","duration":"PT17M17S","thumbnail":"https://i.ytimg.com/vi/JeCJUOtZd9A/mqdefault.jpg","viewCount":"298","playlistId":"PLEkQk5xrP-tnmTYsyW6xNdyfhPq0Bhrhj","playlistName":"مقرأة الفجر - القُرْآنُ الكَرِيمُ - خَتْمَةُ التَّدَبُّرِ  أ.د. يسري جبر","category":"متنوع"},{"id":"ZJ3Qe-y0AzA","title":"مقرأة سورة الرعد من آية ٣٢","publishedAt":"2017-07-23T09:28:50Z","duration":"PT13M50S","thumbnail":"https://i.ytimg.com/vi/ZJ3Qe-y0AzA/mqdefault.jpg","viewCount":"298","playlistId":"PLEkQk5xrP-tnmTYsyW6xNdyfhPq0Bhrhj","playlistName":"مقرأة الفجر - القُرْآنُ الكَرِيمُ - خَتْمَةُ التَّدَبُّرِ  أ.د. يسري جبر","category":"متنوع"},{"id":"iYTJ1saNEWI","title":"مقرأة سورة هود من آية ١٠٦","publishedAt":"2017-06-18T08:07:10Z","duration":"PT18M59S","thumbnail":"https://i.ytimg.com/vi/iYTJ1saNEWI/mqdefault.jpg","viewCount":"298","playlistId":"PLEkQk5xrP-tnmTYsyW6xNdyfhPq0Bhrhj","playlistName":"مقرأة الفجر - القُرْآنُ الكَرِيمُ - خَتْمَةُ التَّدَبُّرِ  أ.د. يسري جبر","category":"متنوع"},{"id":"p5dBQneVqvw","title":"صحيح الإمام البخاري رضي الله عنه - كتاب الأدب - المجلس الأول. د. يسري جبر","publishedAt":"2016-11-20T15:08:34Z","duration":"PT50M54S","thumbnail":"https://i.ytimg.com/vi/p5dBQneVqvw/mqdefault.jpg","viewCount":"298","playlistId":"PLEkQk5xrP-tmJuzaj4GWRenFoFx9gdbFX","playlistName":"شرح كتاب صحيح الإمام البخاري رضي الله تعالى عنه   أ.د. يسرى جبر","category":"حديث"},{"id":"Mtw_ccajJR4","title":"مقرأة سورة النور من آية ٢٢","publishedAt":"2018-03-13T10:16:47Z","duration":"PT10M21S","thumbnail":"https://i.ytimg.com/vi/Mtw_ccajJR4/mqdefault.jpg","viewCount":"297","playlistId":"PLEkQk5xrP-tnmTYsyW6xNdyfhPq0Bhrhj","playlistName":"مقرأة الفجر - القُرْآنُ الكَرِيمُ - خَتْمَةُ التَّدَبُّرِ  أ.د. يسري جبر","category":"متنوع"},{"id":"Mi5zW3NjGJ8","title":"بَعْضُ صِفَاتِ المُؤْمِنِ د. يسرى جبر","publishedAt":"2015-12-02T17:07:52Z","duration":"PT48M46S","thumbnail":"https://i.ytimg.com/vi/Mi5zW3NjGJ8/mqdefault.jpg","viewCount":"297","playlistId":"PLEkQk5xrP-tlArtGpeLWaqNM7h7IDeAVC","playlistName":"خطب الجمعة أ.د. يسري جبر","category":"خطب"},{"id":"zu2SqvhbKIk","title":"إِنَّمَا يُوفَّى الصَّابِرونَ أَجْرَهُم بِغَيرِ حِسَاب","publishedAt":"2015-02-14T17:44:49Z","duration":"PT32M45S","thumbnail":"https://i.ytimg.com/vi/zu2SqvhbKIk/mqdefault.jpg","viewCount":"297","playlistId":"PLEkQk5xrP-tlArtGpeLWaqNM7h7IDeAVC","playlistName":"خطب الجمعة أ.د. يسري جبر","category":"خطب"},{"id":"gYyPcCSOjZg","title":"شرح سنن الدارمي كتاب الاستئذان من باب ١٣","publishedAt":"2019-09-20T09:32:50Z","duration":"PT31M27S","thumbnail":"https://i.ytimg.com/vi/gYyPcCSOjZg/mqdefault.jpg","viewCount":"296","playlistId":"PLEkQk5xrP-tmAg-FuWjY057X_h5NmGmAa","playlistName":"شرح سنن الدارمي - أ.د. يسري جبر (كاملا)","category":"متنوع"},{"id":"BbrNmh_p8ns","title":"مقرأة سورة الجاثية من آية ٢٨","publishedAt":"2019-01-01T10:44:54Z","duration":"PT21M4S","thumbnail":"https://i.ytimg.com/vi/BbrNmh_p8ns/mqdefault.jpg","viewCount":"296","playlistId":"PLEkQk5xrP-tnmTYsyW6xNdyfhPq0Bhrhj","playlistName":"مقرأة الفجر - القُرْآنُ الكَرِيمُ - خَتْمَةُ التَّدَبُّرِ  أ.د. يسري جبر","category":"متنوع"},{"id":"u3mfp5GOKtU","title":"مقرأة سورة الصافات من آية ٥٠","publishedAt":"2018-09-17T22:46:36Z","duration":"PT18M55S","thumbnail":"https://i.ytimg.com/vi/u3mfp5GOKtU/mqdefault.jpg","viewCount":"296","playlistId":"PLEkQk5xrP-tnmTYsyW6xNdyfhPq0Bhrhj","playlistName":"مقرأة الفجر - القُرْآنُ الكَرِيمُ - خَتْمَةُ التَّدَبُّرِ  أ.د. يسري جبر","category":"متنوع"}],"total":7675,"page":285,"pageSize":24,"totalPages":320}