{"items":[{"id":"s5lG9TPPodE","title":"مقرأة سورة الجن من آية ١٦","publishedAt":"2019-05-22T08:12:40Z","duration":"PT27M8S","thumbnail":"https://i.ytimg.com/vi/s5lG9TPPodE/mqdefault.jpg","viewCount":"730","playlistId":"PLEkQk5xrP-tnmTYsyW6xNdyfhPq0Bhrhj","playlistName":"مقرأة الفجر - القُرْآنُ الكَرِيمُ - خَتْمَةُ التَّدَبُّرِ  أ.د. يسري جبر","category":"متنوع"},{"id":"Z3IvLJnfUdQ","title":"(١٤۸) حديث تحريم الخلوة بالمرآة الأجنبية د. يسري جبر","publishedAt":"2018-05-26T16:21:05Z","duration":"PT21M47S","thumbnail":"https://i.ytimg.com/vi/Z3IvLJnfUdQ/mqdefault.jpg","viewCount":"730","playlistId":"PLEkQk5xrP-tnl7vb7KeAoPd5ZlqKKW8KV","playlistName":"شرح كتاب بهجة النفوس أ.د . يسرى جبر","category":"متنوع"},{"id":"eQ5AovE-Kfg","title":"شرح صحيح البخاري كتاب التفسير فى سورة الواقعة من باب ١","publishedAt":"2018-04-24T07:02:21Z","duration":"PT38M22S","thumbnail":"https://i.ytimg.com/vi/eQ5AovE-Kfg/mqdefault.jpg","viewCount":"730","playlistId":"PLEkQk5xrP-tlEerGoLa1AFy-2XvQ-sovv","playlistName":"شرح صحيح البخاري - أ.د. يسري جبر (كاملا)","category":"حديث"},{"id":"vzbwgqt_K24","title":"شرح صحيح البخاري- كتاب فضائل الصحابة من باب ٤","publishedAt":"2017-11-09T17:48:23Z","duration":"PT36M58S","thumbnail":"https://i.ytimg.com/vi/vzbwgqt_K24/mqdefault.jpg","viewCount":"730","playlistId":"PLEkQk5xrP-tlEerGoLa1AFy-2XvQ-sovv","playlistName":"شرح صحيح البخاري - أ.د. يسري جبر (كاملا)","category":"حديث"},{"id":"u3wO-Rf0LeI","title":"شرح صحيح البخاري - كتاب الشروط من أوله","publishedAt":"2017-07-06T14:43:33Z","duration":"PT35M42S","thumbnail":"https://i.ytimg.com/vi/u3wO-Rf0LeI/mqdefault.jpg","viewCount":"730","playlistId":"PLEkQk5xrP-tlEerGoLa1AFy-2XvQ-sovv","playlistName":"شرح صحيح البخاري - أ.د. يسري جبر (كاملا)","category":"حديث"},{"id":"3zj2SKUI6yU","title":"518- العَدد: اسم الفاعل المشتق من العدد له استعمالان - شرح البرهان في علوم القرآن","publishedAt":"2022-05-30T05:15:00Z","duration":"PT25M15S","thumbnail":"https://i.ytimg.com/vi/3zj2SKUI6yU/mqdefault.jpg","viewCount":"729","playlistId":"PLEkQk5xrP-tnW3iBL7HkKziOFCFZbTlf0","playlistName":"شرح البرهان في علوم القرآن - أ.د. يسري جبر","category":"تفسير"},{"id":"RlXYLV-yBD8","title":"230- النَّهْي عن البُخلِ والشُّح - شرح دليل الفالحين","publishedAt":"2022-04-09T05:37:31Z","duration":"PT21M29S","thumbnail":"https://i.ytimg.com/vi/RlXYLV-yBD8/mqdefault.jpg","viewCount":"729","playlistId":"PLEkQk5xrP-tkc9DXvSLguqX5-FYp6ASR4","playlistName":"دليل الفالحين لطرق رياض الصالحين","category":"متنوع"},{"id":"x_dGxQL1ozY","title":"9- حديث الإسراء والمعراج بنبينا صلى الله عليه وآله وسلم (المجلس التاسع). د. يسري جبر","publishedAt":"2018-06-28T10:00:39Z","duration":"PT36M48S","thumbnail":"https://i.ytimg.com/vi/x_dGxQL1ozY/mqdefault.jpg","viewCount":"729","playlistId":"PLEkQk5xrP-tnl7vb7KeAoPd5ZlqKKW8KV","playlistName":"شرح كتاب بهجة النفوس أ.د . يسرى جبر","category":"متنوع"},{"id":"xmDzd5eYmIU","title":"شرح صحيح البخاري - كتاب الشهادات من أوله","publishedAt":"2017-06-20T17:14:58Z","duration":"PT34M59S","thumbnail":"https://i.ytimg.com/vi/xmDzd5eYmIU/mqdefault.jpg","viewCount":"729","playlistId":"PLEkQk5xrP-tlEerGoLa1AFy-2XvQ-sovv","playlistName":"شرح صحيح البخاري - أ.د. يسري جبر (كاملا)","category":"حديث"},{"id":"IYVMGg24Hjg","title":"156- معنى (لات - لا جرم) - شرح الإتقان في علوم القرآن","publishedAt":"2023-10-03T05:15:00Z","duration":"PT18M13S","thumbnail":"https://i.ytimg.com/vi/IYVMGg24Hjg/mqdefault.jpg","viewCount":"728","playlistId":"PLEkQk5xrP-tlPw10KGJKagu7zm4Ry2Tge","playlistName":"شرح الإتقان في علوم القرآن","category":"تفسير"},{"id":"Tp5_aDEyb5o","title":"442- تحريم سَبِّ الأموات بغير حَقٍّ ومصلحةٍ شرعيَّة - شرح دليل الفالحين","publishedAt":"2023-05-09T18:00:09Z","duration":"PT32M53S","thumbnail":"https://i.ytimg.com/vi/Tp5_aDEyb5o/mqdefault.jpg","viewCount":"728","playlistId":"PLEkQk5xrP-tkc9DXvSLguqX5-FYp6ASR4","playlistName":"دليل الفالحين لطرق رياض الصالحين","category":"متنوع"},{"id":"OWSXpHmHKBQ","title":"كيف كانت عبادة النَّبيّ ﷺ في شعبان؟","publishedAt":"2021-04-09T12:00:18Z","duration":"PT31M43S","thumbnail":"https://i.ytimg.com/vi/OWSXpHmHKBQ/mqdefault.jpg","viewCount":"728","playlistId":"PLEkQk5xrP-tlArtGpeLWaqNM7h7IDeAVC","playlistName":"خطب الجمعة أ.د. يسري جبر","category":"خطب"},{"id":"chP2nD7F5gE","title":"شرح صحيح البخاري- كتاب أحاديث الأنبياء من باب ٥٠","publishedAt":"2017-10-18T14:03:40Z","duration":"PT51M17S","thumbnail":"https://i.ytimg.com/vi/chP2nD7F5gE/mqdefault.jpg","viewCount":"728","playlistId":"PLEkQk5xrP-tlEerGoLa1AFy-2XvQ-sovv","playlistName":"شرح صحيح البخاري - أ.د. يسري جبر (كاملا)","category":"حديث"},{"id":"VwtWtKg-OKg","title":"وشرح صحيح البخاري - كتاب الكسوف من باب ١٠","publishedAt":"2016-12-20T12:53:23Z","duration":"PT27M28S","thumbnail":"https://i.ytimg.com/vi/VwtWtKg-OKg/mqdefault.jpg","viewCount":"728","playlistId":"PLEkQk5xrP-tlEerGoLa1AFy-2XvQ-sovv","playlistName":"شرح صحيح البخاري - أ.د. يسري جبر (كاملا)","category":"حديث"},{"id":"OeLIAp9m4uk","title":"شرح صحيح البخاري كتاب الأدب من باب ٢٨","publishedAt":"2018-08-29T23:05:36Z","duration":"PT33M28S","thumbnail":"https://i.ytimg.com/vi/OeLIAp9m4uk/mqdefault.jpg","viewCount":"727","playlistId":"PLEkQk5xrP-tlEerGoLa1AFy-2XvQ-sovv","playlistName":"شرح صحيح البخاري - أ.د. يسري جبر (كاملا)","category":"حديث"},{"id":"reIuNGAHkMM","title":"شرح صحيح البخاري كتاب الأدب من باب ٦","publishedAt":"2018-08-26T19:10:05Z","duration":"PT33M57S","thumbnail":"https://i.ytimg.com/vi/reIuNGAHkMM/mqdefault.jpg","viewCount":"727","playlistId":"PLEkQk5xrP-tlEerGoLa1AFy-2XvQ-sovv","playlistName":"شرح صحيح البخاري - أ.د. يسري جبر (كاملا)","category":"حديث"},{"id":"N4ZP7IvK_5A","title":"شرح صحيح البخاري - كتاب التقصير من باب ١٤","publishedAt":"2016-12-24T09:51:15Z","duration":"PT25M1S","thumbnail":"https://i.ytimg.com/vi/N4ZP7IvK_5A/mqdefault.jpg","viewCount":"727","playlistId":"PLEkQk5xrP-tlEerGoLa1AFy-2XvQ-sovv","playlistName":"شرح صحيح البخاري - أ.د. يسري جبر (كاملا)","category":"حديث"},{"id":"i9RblRDEzu8","title":"155- معاني (لا) - شرح الإتقان في علوم القرآن","publishedAt":"2023-10-01T05:15:01Z","duration":"PT35M32S","thumbnail":"https://i.ytimg.com/vi/i9RblRDEzu8/mqdefault.jpg","viewCount":"726","playlistId":"PLEkQk5xrP-tlPw10KGJKagu7zm4Ry2Tge","playlistName":"شرح الإتقان في علوم القرآن","category":"تفسير"},{"id":"Px-tWTKBdE8","title":"113- علم مفردات القرآن - شرح الإتقان في علوم القرآن","publishedAt":"2023-06-30T05:00:23Z","duration":"PT30M40S","thumbnail":"https://i.ytimg.com/vi/Px-tWTKBdE8/mqdefault.jpg","viewCount":"726","playlistId":"PLEkQk5xrP-tlPw10KGJKagu7zm4Ry2Tge","playlistName":"شرح الإتقان في علوم القرآن","category":"تفسير"},{"id":"yWaRhIJFc70","title":"ما حكم لبس الحرير؟ | أ.د. يسري جبر","publishedAt":"2022-04-22T15:30:11Z","duration":"PT25M38S","thumbnail":"https://i.ytimg.com/vi/yWaRhIJFc70/mqdefault.jpg","viewCount":"726","playlistId":"PLEkQk5xrP-tnl7vb7KeAoPd5ZlqKKW8KV","playlistName":"شرح كتاب بهجة النفوس أ.د . يسرى جبر","category":"متنوع"},{"id":"yDMGSKwy_Kw","title":"مقرأة سورة آل عمران من آية ١٥٩","publishedAt":"2019-09-29T00:56:58Z","duration":"PT9M29S","thumbnail":"https://i.ytimg.com/vi/yDMGSKwy_Kw/mqdefault.jpg","viewCount":"726","playlistId":"PLEkQk5xrP-tnmTYsyW6xNdyfhPq0Bhrhj","playlistName":"مقرأة الفجر - القُرْآنُ الكَرِيمُ - خَتْمَةُ التَّدَبُّرِ  أ.د. يسري جبر","category":"متنوع"},{"id":"YYsZvj-afbU","title":"( 138 ) حديث درجات النية في ربط الخيل  د. يسري جبر","publishedAt":"2018-05-17T09:31:52Z","duration":"PT22M38S","thumbnail":"https://i.ytimg.com/vi/YYsZvj-afbU/mqdefault.jpg","viewCount":"726","playlistId":"PLEkQk5xrP-tnl7vb7KeAoPd5ZlqKKW8KV","playlistName":"شرح كتاب بهجة النفوس أ.د . يسرى جبر","category":"متنوع"},{"id":"IDErcP3LwXE","title":"34- حكم التيمم مع وجود الماء - كتاب الطهارة - شرح سنن الإمام الدار قطني رضي الله عنه","publishedAt":"2024-04-27T10:00:14Z","duration":"PT36M7S","thumbnail":"https://i.ytimg.com/vi/IDErcP3LwXE/mqdefault.jpg","viewCount":"725","playlistId":"PLEkQk5xrP-tk_MCBZ706ORCw6gFtFyaGj","playlistName":"شرح سنن الإمام الدارقطني","category":"متنوع"},{"id":"_3AxasItDAs","title":"88- نبذة عن سيدنا زيد بن خارجة رضي اللهُ تعالى عنهما - شرح مسند الإمام أحمد رضي الله تعالى عنه","publishedAt":"2024-03-23T07:00:29Z","duration":"PT12M46S","thumbnail":"https://i.ytimg.com/vi/_3AxasItDAs/mqdefault.jpg","viewCount":"725","playlistId":"PLEkQk5xrP-tkKprIuGrSdEuBSMsyg5We1","playlistName":"شرح مسند الإمام أحمد بن حنبل","category":"متنوع"}],"total":7670,"page":182,"pageSize":24,"totalPages":320}