{"items":[{"id":"YTX7be3sk_4","title":"هل أدعي ربنا بكل حاجة حتى لو كانت مستحيلة؟","publishedAt":"2025-08-04T18:15:02Z","duration":"PT9M11S","thumbnail":"https://i.ytimg.com/vi/YTX7be3sk_4/mqdefault.jpg","viewCount":"5818","playlistId":"PLEkQk5xrP-tkGXuZ9atE3k_7it12rUPTs","playlistName":"أسئلة المتابعين","category":"متنوع"},{"id":"bjHRqCXh0B0","title":"المجلس الثامن من شرح الخريدة البهية","publishedAt":"2014-09-16T18:34:25Z","duration":"PT1H6M10S","thumbnail":"https://i.ytimg.com/vi/bjHRqCXh0B0/mqdefault.jpg","viewCount":"5811","playlistId":"PLEkQk5xrP-tnI6h_R1hvYgrrstFAJCvv9","playlistName":"شرح الخريدة البهية د. يسري جبر","category":"متنوع"},{"id":"gY7bhosUX-M","title":"الرسالة القشيرية - المجلس التاسع عشر (باب في ذكر مشايخ هذه الطريقة - المجلس الحادي عشر)","publishedAt":"2018-05-12T20:49:18Z","duration":"PT54M50S","thumbnail":"https://i.ytimg.com/vi/gY7bhosUX-M/mqdefault.jpg","viewCount":"5809","playlistId":"PLEkQk5xrP-tkHAGOwIKr4pc5ehhyQ5HMJ","playlistName":"كتاب الرسالة القشيرية (تصوف) - د. يسري جبر","category":"تصوف"},{"id":"ZEnet_2ZIYI","title":"كيف أعرف نتيجة صلاة الاستخارة؟","publishedAt":"2024-04-15T19:00:23Z","duration":"PT8M7S","thumbnail":"https://i.ytimg.com/vi/ZEnet_2ZIYI/mqdefault.jpg","viewCount":"5805","playlistId":"PLEkQk5xrP-tkGXuZ9atE3k_7it12rUPTs","playlistName":"أسئلة المتابعين","category":"متنوع"},{"id":"Z6pJ_lAUdPc","title":"هل يجوز قول سيدنا ومولانا محمد في الآذان والتشهد؟","publishedAt":"2022-11-25T18:00:19Z","duration":"PT9M19S","thumbnail":"https://i.ytimg.com/vi/Z6pJ_lAUdPc/mqdefault.jpg","viewCount":"5800","playlistId":"PLEkQk5xrP-tm8ZIu74nTOZN9KJUJu416J","playlistName":"مقاطع مُهمَّة (يُسريَّات) أ.د. يسري جبر","category":"متنوع"},{"id":"Tkdx2-5O8f8","title":"هل ذكر الله أفضل من الجهاد؟ | وما أنواع الذكر؟","publishedAt":"2024-07-19T18:37:04Z","duration":"PT8M14S","thumbnail":"https://i.ytimg.com/vi/Tkdx2-5O8f8/mqdefault.jpg","viewCount":"5778","playlistId":"PLEkQk5xrP-tkGXuZ9atE3k_7it12rUPTs","playlistName":"أسئلة المتابعين","category":"متنوع"},{"id":"1SIRJhzv-Hw","title":"هل يجب إكراه الطفل الأعسر على استخدام اليد اليمنى؟","publishedAt":"2023-06-14T18:00:00Z","duration":"PT9M26S","thumbnail":"https://i.ytimg.com/vi/1SIRJhzv-Hw/mqdefault.jpg","viewCount":"5778","playlistId":"PLEkQk5xrP-tkGXuZ9atE3k_7it12rUPTs","playlistName":"أسئلة المتابعين","category":"متنوع"},{"id":"DecPcbYzTvo","title":"شرح صلوات سيدى أحمد الدردير رضي الله عنه- حرف الهمزة","publishedAt":"2013-12-25T19:07:11Z","duration":"PT26M52S","thumbnail":"https://i.ytimg.com/vi/DecPcbYzTvo/mqdefault.jpg","viewCount":"5777","playlistId":"PLEkQk5xrP-tlXZQuhEiJGJka1QcRw7fbW","playlistName":"شرح الصلوات الدرديرية لسيدي أحمد الدردير رضي الله عنه","category":"ردود"},{"id":"ISHynL4au0o","title":"الرضا بالإقامة عين الكرامة     د. يسري جبر","publishedAt":"2017-08-11T08:25:04Z","duration":"PT2M55S","thumbnail":"https://i.ytimg.com/vi/ISHynL4au0o/mqdefault.jpg","viewCount":"5774","playlistId":"PLEkQk5xrP-tm8ZIu74nTOZN9KJUJu416J","playlistName":"مقاطع مُهمَّة (يُسريَّات) أ.د. يسري جبر","category":"متنوع"},{"id":"D4v6bKWSPBA","title":"هل يجوز تقبيل الإبهامين عند سماع الشهادة؟","publishedAt":"2023-07-25T18:00:05Z","duration":"PT9M10S","thumbnail":"https://i.ytimg.com/vi/D4v6bKWSPBA/mqdefault.jpg","viewCount":"5768","playlistId":"PLEkQk5xrP-tkGXuZ9atE3k_7it12rUPTs","playlistName":"أسئلة المتابعين","category":"متنوع"},{"id":"6TJpUv8Sa_s","title":"أعمل ايه علشان أشوف النبي ﷺ في المنام؟","publishedAt":"2023-12-19T18:00:09Z","duration":"PT9M13S","thumbnail":"https://i.ytimg.com/vi/6TJpUv8Sa_s/mqdefault.jpg","viewCount":"5761","playlistId":"PLEkQk5xrP-tkGXuZ9atE3k_7it12rUPTs","playlistName":"أسئلة المتابعين","category":"متنوع"},{"id":"V2Hhr_23gBU","title":"هل خلق الله الأكوان لأجل النبي ﷺ؟","publishedAt":"2022-09-25T19:24:05Z","duration":"PT17M53S","thumbnail":"https://i.ytimg.com/vi/V2Hhr_23gBU/mqdefault.jpg","viewCount":"5751","playlistId":"PLEkQk5xrP-tlArtGpeLWaqNM7h7IDeAVC","playlistName":"خطب الجمعة أ.د. يسري جبر","category":"خطب"},{"id":"qBrzlXWuESo","title":"الرسالة القشيرية المجلس التاسع و العشرون (الغَيْبَةُ والحُضُور)     د. يسري جبر","publishedAt":"2018-09-21T20:43:29Z","duration":"PT30M52S","thumbnail":"https://i.ytimg.com/vi/qBrzlXWuESo/mqdefault.jpg","viewCount":"5750","playlistId":"PLEkQk5xrP-tkHAGOwIKr4pc5ehhyQ5HMJ","playlistName":"كتاب الرسالة القشيرية (تصوف) - د. يسري جبر","category":"تصوف"},{"id":"1rMj7BIzUck","title":"كيف تكون مستجاب الدعاء؟","publishedAt":"2022-09-27T18:00:01Z","duration":"PT10M14S","thumbnail":"https://i.ytimg.com/vi/1rMj7BIzUck/mqdefault.jpg","viewCount":"5748","playlistId":"PLEkQk5xrP-tlArtGpeLWaqNM7h7IDeAVC","playlistName":"خطب الجمعة أ.د. يسري جبر","category":"خطب"},{"id":"LZYCvxWGVL4","title":"التحصن بالقرآن عند النوم | أ.د. يسري جبر","publishedAt":"2021-04-30T15:30:02Z","duration":"PT36M31S","thumbnail":"https://i.ytimg.com/vi/LZYCvxWGVL4/mqdefault.jpg","viewCount":"5742","playlistId":"PLEkQk5xrP-tnl7vb7KeAoPd5ZlqKKW8KV","playlistName":"شرح كتاب بهجة النفوس أ.د . يسرى جبر","category":"متنوع"},{"id":"XMxejr7KHog","title":"4- عددُ الرُّسُل المَذْكُورينَ في القرآن","publishedAt":"2022-01-23T17:44:22Z","duration":"PT1H6M25S","thumbnail":"https://i.ytimg.com/vi/XMxejr7KHog/mqdefault.jpg","viewCount":"5739","playlistId":"PLEkQk5xrP-tmNuYT8JAh6clwa4krsgkNo","playlistName":"شرح كتاب الفُتُوحات اليُسريَّة في عقائد الأُمَّة المُحمَّديَّة","category":"متنوع"},{"id":"xAu7S8YVp2Q","title":"الرد على من يُطالب بتطبيق الختان","publishedAt":"2021-04-07T19:26:54Z","duration":"PT13M16S","thumbnail":"https://i.ytimg.com/vi/xAu7S8YVp2Q/mqdefault.jpg","viewCount":"5739","playlistId":"PLEkQk5xrP-tm8ZIu74nTOZN9KJUJu416J","playlistName":"مقاطع مُهمَّة (يُسريَّات) أ.د. يسري جبر","category":"متنوع"},{"id":"_GFmTze0voc","title":"كيف جمعت بين العلم الشرعي والدنيوي؟","publishedAt":"2024-05-15T17:00:26Z","duration":"PT9M29S","thumbnail":"https://i.ytimg.com/vi/_GFmTze0voc/mqdefault.jpg","viewCount":"5738","playlistId":"PLEkQk5xrP-tl6tFiMFGUucCTvLgnWyAfz","playlistName":"حياة الأستاذ الدكتور يسري جبر","category":"متنوع"},{"id":"mo4FfmJHXJo","title":"الخِذْلَانُ أَنْ تتفَرَّغَ مِنَ الشَوَاغِلِ ثمَّ لا تتوجَّه إِليه  أ.د. يسري جبر","publishedAt":"2020-03-30T15:19:03Z","duration":"PT6M29S","thumbnail":"https://i.ytimg.com/vi/mo4FfmJHXJo/mqdefault.jpg","viewCount":"5737","playlistId":"PLEkQk5xrP-tkI_meE148wc7V7XHlB0WPb","playlistName":"من الحكم العطائية  د. يسري جبر","category":"متنوع"},{"id":"a4TaYKig-Mc","title":"الأعمال المستحبة في شهر شعبان","publishedAt":"2025-01-31T19:45:13Z","duration":"PT9M33S","thumbnail":"https://i.ytimg.com/vi/a4TaYKig-Mc/mqdefault.jpg","viewCount":"5733","playlistId":"PLEkQk5xrP-tlArtGpeLWaqNM7h7IDeAVC","playlistName":"خطب الجمعة أ.د. يسري جبر","category":"خطب"},{"id":"-k7mdV2BmH0","title":"الزهراءُ البتول قُرَّةُ عين الرسول ﷺ","publishedAt":"2021-02-08T19:38:07Z","duration":"PT9M49S","thumbnail":"https://i.ytimg.com/vi/-k7mdV2BmH0/mqdefault.jpg","viewCount":"5726","playlistId":"PLEkQk5xrP-tm8ZIu74nTOZN9KJUJu416J","playlistName":"مقاطع مُهمَّة (يُسريَّات) أ.د. يسري جبر","category":"متنوع"},{"id":"hEC3l0V7KIc","title":"وُصُولك إلى الله وُصُولك إلى العِلْم به، وإلا .. فجلَّ ربُّنا أن يتَّصل به شيء، أو يتَّصل هو بشيء.","publishedAt":"2017-12-31T21:02:22Z","duration":"PT13M16S","thumbnail":"https://i.ytimg.com/vi/hEC3l0V7KIc/mqdefault.jpg","viewCount":"5726","playlistId":"PLEkQk5xrP-tkI_meE148wc7V7XHlB0WPb","playlistName":"من الحكم العطائية  د. يسري جبر","category":"متنوع"},{"id":"gdwTyVFdGM8","title":"60- كيف تصل إلى مقام الإحسان؟ | شرح منازل السائرين","publishedAt":"2025-05-08T18:00:41Z","duration":"PT47M18S","thumbnail":"https://i.ytimg.com/vi/gdwTyVFdGM8/mqdefault.jpg","viewCount":"5721","playlistId":"PLEkQk5xrP-tmiUfQ-2Tsn7QIak4EsvaZW","playlistName":"كتاب التيسير المعين بشرح معاني منازل السائرين (تصوف) - د.يسري جبر","category":"تصوف"},{"id":"sBPNlT37wsY","title":"خطورة سوء الظن والتجسس","publishedAt":"2021-02-14T17:15:01Z","duration":"PT8M27S","thumbnail":"https://i.ytimg.com/vi/sBPNlT37wsY/mqdefault.jpg","viewCount":"5716","playlistId":"PLEkQk5xrP-tlArtGpeLWaqNM7h7IDeAVC","playlistName":"خطب الجمعة أ.د. يسري جبر","category":"خطب"}],"total":7670,"page":54,"pageSize":24,"totalPages":320}