{"items":[{"id":"n1f8i48Hkr4","title":"274- المواربة، المراجعة، النزاهة، الإبداع - شرح الإتقان في علوم القرآن","publishedAt":"2024-12-11T07:24:23Z","duration":"PT15M4S","thumbnail":"https://i.ytimg.com/vi/n1f8i48Hkr4/mqdefault.jpg","viewCount":"436","playlistId":"PLEkQk5xrP-tlPw10KGJKagu7zm4Ry2Tge","playlistName":"شرح الإتقان في علوم القرآن","category":"تفسير"},{"id":"wcCoC9e0LZw","title":"الغَلَبَةُ والكَثْرَةُ - تكملة أنواع التقديم والتأخير (12) - شرح البرهان في علوم القرآن","publishedAt":"2021-10-03T20:58:56Z","duration":"PT13M50S","thumbnail":"https://i.ytimg.com/vi/wcCoC9e0LZw/mqdefault.jpg","viewCount":"436","playlistId":"PLEkQk5xrP-tnW3iBL7HkKziOFCFZbTlf0","playlistName":"شرح البرهان في علوم القرآن - أ.د. يسري جبر","category":"تفسير"},{"id":"JGlMRn1XN6s","title":"القِسمُ الثامن من التوكيد: الإيضاح بعد الإبهام - شرح البرهان في علوم القرآن","publishedAt":"2021-03-20T09:05:23Z","duration":"PT27M20S","thumbnail":"https://i.ytimg.com/vi/JGlMRn1XN6s/mqdefault.jpg","viewCount":"436","playlistId":"PLEkQk5xrP-tnW3iBL7HkKziOFCFZbTlf0","playlistName":"شرح البرهان في علوم القرآن - أ.د. يسري جبر","category":"تفسير"},{"id":"hK7HgrGAAG0","title":"69- شرح اللؤلؤ والمرجان كتاب الحج من الباب الثامن والثلاثين","publishedAt":"2020-02-17T06:00:13Z","duration":"PT17M6S","thumbnail":"https://i.ytimg.com/vi/hK7HgrGAAG0/mqdefault.jpg","viewCount":"436","playlistId":"PLEkQk5xrP-tmKNjtYLfhATC37QdIsTMe0","playlistName":"شرح كتاب اللؤلؤ والمرجان فيما اتفق عليه الشيخان إماما المحدثين البخاري ومسلم. أ.د. يسري جبر","category":"حديث"},{"id":"37BlITtrQEU","title":"55- شرح اللؤلؤ والمرجان كتاب الزكاة من الباب الرابع والعشرين","publishedAt":"2020-02-04T19:44:25Z","duration":"PT33M25S","thumbnail":"https://i.ytimg.com/vi/37BlITtrQEU/mqdefault.jpg","viewCount":"436","playlistId":"PLEkQk5xrP-tmKNjtYLfhATC37QdIsTMe0","playlistName":"شرح كتاب اللؤلؤ والمرجان فيما اتفق عليه الشيخان إماما المحدثين البخاري ومسلم. أ.د. يسري جبر","category":"حديث"},{"id":"mkH8-ETIq-8","title":"شرح البرهان في علوم القرآن - النوع ٢٢ - معرفة اختلاف الألفاظ بزيادة أو نقص أو تغيير ٤","publishedAt":"2019-12-24T07:47:48Z","duration":"PT20M15S","thumbnail":"https://i.ytimg.com/vi/mkH8-ETIq-8/mqdefault.jpg","viewCount":"436","playlistId":"PLEkQk5xrP-tnW3iBL7HkKziOFCFZbTlf0","playlistName":"شرح البرهان في علوم القرآن - أ.د. يسري جبر","category":"تفسير"},{"id":"pJbDIV-HJUM","title":"شرح صحيح الإمام البخاري رضي الله تعالى عنه - كتابُ التَّمَنِّي  أ.د. يسري جبر","publishedAt":"2019-10-29T14:41:52Z","duration":"PT24M6S","thumbnail":"https://i.ytimg.com/vi/pJbDIV-HJUM/mqdefault.jpg","viewCount":"436","playlistId":"PLEkQk5xrP-tmJuzaj4GWRenFoFx9gdbFX","playlistName":"شرح كتاب صحيح الإمام البخاري رضي الله تعالى عنه   أ.د. يسرى جبر","category":"حديث"},{"id":"lnoee392018","title":"شرح صحيح البخاري كتاب الديات من باب ٢٧","publishedAt":"2018-12-09T22:30:46Z","duration":"PT42M14S","thumbnail":"https://i.ytimg.com/vi/lnoee392018/mqdefault.jpg","viewCount":"436","playlistId":"PLEkQk5xrP-tlEerGoLa1AFy-2XvQ-sovv","playlistName":"شرح صحيح البخاري - أ.د. يسري جبر (كاملا)","category":"حديث"},{"id":"U6kKEOg_Wps","title":"شرح صحيح البخاري كتاب الديات من باب ١٨","publishedAt":"2018-12-06T15:43:34Z","duration":"PT39M59S","thumbnail":"https://i.ytimg.com/vi/U6kKEOg_Wps/mqdefault.jpg","viewCount":"436","playlistId":"PLEkQk5xrP-tlEerGoLa1AFy-2XvQ-sovv","playlistName":"شرح صحيح البخاري - أ.د. يسري جبر (كاملا)","category":"حديث"},{"id":"6PJ5rGDJ0As","title":"شرح صحيح البخاري كتاب الأدب من باب ٧٧","publishedAt":"2018-09-11T17:43:14Z","duration":"PT22M28S","thumbnail":"https://i.ytimg.com/vi/6PJ5rGDJ0As/mqdefault.jpg","viewCount":"436","playlistId":"PLEkQk5xrP-tlEerGoLa1AFy-2XvQ-sovv","playlistName":"شرح صحيح البخاري - أ.د. يسري جبر (كاملا)","category":"حديث"},{"id":"PlIuYamhyY8","title":"شرح صحيح البخاري كتاب الطلا‎ق من باب ٢٤","publishedAt":"2018-06-21T15:05:22Z","duration":"PT32M18S","thumbnail":"https://i.ytimg.com/vi/PlIuYamhyY8/mqdefault.jpg","viewCount":"436","playlistId":"PLEkQk5xrP-tlEerGoLa1AFy-2XvQ-sovv","playlistName":"شرح صحيح البخاري - أ.د. يسري جبر (كاملا)","category":"حديث"},{"id":"8syZS6dFdMk","title":"١٥٥ حديث جواز التحلل من اليمين المنعقدة. د. يسري جبر","publishedAt":"2018-06-01T03:04:27Z","duration":"PT52M15S","thumbnail":"https://i.ytimg.com/vi/8syZS6dFdMk/mqdefault.jpg","viewCount":"436","playlistId":"PLEkQk5xrP-tnl7vb7KeAoPd5ZlqKKW8KV","playlistName":"شرح كتاب بهجة النفوس أ.د . يسرى جبر","category":"متنوع"},{"id":"M09qA82NKls","title":"مقرأة سورة يوسف من آية ١٠٩","publishedAt":"2017-07-09T10:13:47Z","duration":"PT17M39S","thumbnail":"https://i.ytimg.com/vi/M09qA82NKls/mqdefault.jpg","viewCount":"436","playlistId":"PLEkQk5xrP-tnmTYsyW6xNdyfhPq0Bhrhj","playlistName":"مقرأة الفجر - القُرْآنُ الكَرِيمُ - خَتْمَةُ التَّدَبُّرِ  أ.د. يسري جبر","category":"متنوع"},{"id":"MKO4R6J9Gb0","title":"سورة الأنفال آية 15","publishedAt":"2017-03-18T09:17:24Z","duration":"PT22M36S","thumbnail":"https://i.ytimg.com/vi/MKO4R6J9Gb0/mqdefault.jpg","viewCount":"436","playlistId":"PLEkQk5xrP-tnmTYsyW6xNdyfhPq0Bhrhj","playlistName":"مقرأة الفجر - القُرْآنُ الكَرِيمُ - خَتْمَةُ التَّدَبُّرِ  أ.د. يسري جبر","category":"متنوع"},{"id":"cmI7idNnea4","title":"شرح كتاب فتح القريب ( فصل في أحكام الأطعمة )","publishedAt":"2016-11-14T04:30:57Z","duration":"PT32M56S","thumbnail":"https://i.ytimg.com/vi/cmI7idNnea4/mqdefault.jpg","viewCount":"436","playlistId":"PLEkQk5xrP-tlyOgfNBZTZgoATzVW4mI20","playlistName":"كتاب فتح القريب المجيب (علم الفقه الشافعي)","category":"فقه"},{"id":"o2POrRroVPE","title":"276- فواصل الآي (2) - شرح الإتقان في علوم القرآن","publishedAt":"2024-12-19T06:30:22Z","duration":"PT22M46S","thumbnail":"https://i.ytimg.com/vi/o2POrRroVPE/mqdefault.jpg","viewCount":"435","playlistId":"PLEkQk5xrP-tlPw10KGJKagu7zm4Ry2Tge","playlistName":"شرح الإتقان في علوم القرآن","category":"تفسير"},{"id":"jdLO61q9o64","title":"63- شرح اللؤلؤ والمرجان كتاب الصيام من الباب الأربعين","publishedAt":"2020-02-11T06:00:05Z","duration":"PT18M44S","thumbnail":"https://i.ytimg.com/vi/jdLO61q9o64/mqdefault.jpg","viewCount":"435","playlistId":"PLEkQk5xrP-tmKNjtYLfhATC37QdIsTMe0","playlistName":"شرح كتاب اللؤلؤ والمرجان فيما اتفق عليه الشيخان إماما المحدثين البخاري ومسلم. أ.د. يسري جبر","category":"حديث"},{"id":"jth7Sv2z-Ek","title":"شرح البرهان في علوم القرآن - النوع ٢٢ - معرفة اختلاف الألفاظ بزيادة أو نقص أو تغيير","publishedAt":"2019-12-19T17:18:30Z","duration":"PT32M28S","thumbnail":"https://i.ytimg.com/vi/jth7Sv2z-Ek/mqdefault.jpg","viewCount":"435","playlistId":"PLEkQk5xrP-tnW3iBL7HkKziOFCFZbTlf0","playlistName":"شرح البرهان في علوم القرآن - أ.د. يسري جبر","category":"تفسير"},{"id":"IeMyIT5sH_4","title":"شرح صحيح البخاري كتاب الأيمان والنذور من باب ٥","publishedAt":"2018-11-12T14:47:45Z","duration":"PT36M50S","thumbnail":"https://i.ytimg.com/vi/IeMyIT5sH_4/mqdefault.jpg","viewCount":"435","playlistId":"PLEkQk5xrP-tlEerGoLa1AFy-2XvQ-sovv","playlistName":"شرح صحيح البخاري - أ.د. يسري جبر (كاملا)","category":"حديث"},{"id":"WqlAL73gRkc","title":"مقرأة سورة الأحزاب من ٱية ٣٥","publishedAt":"2018-07-25T15:08:53Z","duration":"PT19M1S","thumbnail":"https://i.ytimg.com/vi/WqlAL73gRkc/mqdefault.jpg","viewCount":"435","playlistId":"PLEkQk5xrP-tnmTYsyW6xNdyfhPq0Bhrhj","playlistName":"مقرأة الفجر - القُرْآنُ الكَرِيمُ - خَتْمَةُ التَّدَبُّرِ  أ.د. يسري جبر","category":"متنوع"},{"id":"S86l_9O42Vw","title":"مقرأة سورة الروم من أولها","publishedAt":"2018-06-16T09:54:29Z","duration":"PT12M15S","thumbnail":"https://i.ytimg.com/vi/S86l_9O42Vw/mqdefault.jpg","viewCount":"435","playlistId":"PLEkQk5xrP-tnmTYsyW6xNdyfhPq0Bhrhj","playlistName":"مقرأة الفجر - القُرْآنُ الكَرِيمُ - خَتْمَةُ التَّدَبُّرِ  أ.د. يسري جبر","category":"متنوع"},{"id":"8qKrTDf6xDQ","title":"شرح صحيح البخاري كتاب التفسير فى سورة (والمرسلات) من أولها","publishedAt":"2018-04-30T20:30:30Z","duration":"PT37M8S","thumbnail":"https://i.ytimg.com/vi/8qKrTDf6xDQ/mqdefault.jpg","viewCount":"435","playlistId":"PLEkQk5xrP-tlEerGoLa1AFy-2XvQ-sovv","playlistName":"شرح صحيح البخاري - أ.د. يسري جبر (كاملا)","category":"حديث"},{"id":"kyEl__66xvE","title":"مقرأة سورة الحجر من آية ٧٧","publishedAt":"2017-08-12T15:15:25Z","duration":"PT14M32S","thumbnail":"https://i.ytimg.com/vi/kyEl__66xvE/mqdefault.jpg","viewCount":"435","playlistId":"PLEkQk5xrP-tnmTYsyW6xNdyfhPq0Bhrhj","playlistName":"مقرأة الفجر - القُرْآنُ الكَرِيمُ - خَتْمَةُ التَّدَبُّرِ  أ.د. يسري جبر","category":"متنوع"},{"id":"EFnD0MCzuJ4","title":"سورة التوبة آية 55","publishedAt":"2017-04-20T10:28:46Z","duration":"PT31M11S","thumbnail":"https://i.ytimg.com/vi/EFnD0MCzuJ4/mqdefault.jpg","viewCount":"435","playlistId":"PLEkQk5xrP-tnmTYsyW6xNdyfhPq0Bhrhj","playlistName":"مقرأة الفجر - القُرْآنُ الكَرِيمُ - خَتْمَةُ التَّدَبُّرِ  أ.د. يسري جبر","category":"متنوع"}],"total":7675,"page":244,"pageSize":24,"totalPages":320}