{"items":[{"id":"jQcXiRQR9hw","title":"صحيح البخاري - كتاب الفرائض - باب (يُوصِيكُمُ اللَّهُ فِي أَوْلَادِكُمْ )","publishedAt":"2017-12-25T18:23:31Z","duration":"PT46M","thumbnail":"https://i.ytimg.com/vi/jQcXiRQR9hw/mqdefault.jpg","viewCount":"158","playlistId":"PLEkQk5xrP-tmJuzaj4GWRenFoFx9gdbFX","playlistName":"شرح كتاب صحيح الإمام البخاري رضي الله تعالى عنه   أ.د. يسرى جبر","category":"حديث"},{"id":"ciIRQE7IjT8","title":"شرح كتاب الأدب من سنن الترمذي - المجلس السادس","publishedAt":"2016-03-15T11:04:15Z","duration":"PT35M13S","thumbnail":"https://i.ytimg.com/vi/ciIRQE7IjT8/mqdefault.jpg","viewCount":"158","playlistId":"PLEkQk5xrP-tnu6of679SvxdVx0qSrJzmb","playlistName":"شرح سنن الإمام الترمذي رضى الله عنه د. يسري جبر","category":"متنوع"},{"id":"2ESx65E6zFI","title":"صحيح الإمام البخاري رضي الله عنه - كتاب الأدب - المجلس الثالث د. يسري جبر","publishedAt":"2016-11-28T19:45:20Z","duration":"PT25M3S","thumbnail":"https://i.ytimg.com/vi/2ESx65E6zFI/mqdefault.jpg","viewCount":"158","playlistId":"PLEkQk5xrP-tmJuzaj4GWRenFoFx9gdbFX","playlistName":"شرح كتاب صحيح الإمام البخاري رضي الله تعالى عنه   أ.د. يسرى جبر","category":"حديث"},{"id":"grcUwcD3oCk","title":"قراءة القرآن (من أول سورة الجن)","publishedAt":"2016-02-28T07:27:00Z","duration":"PT25M8S","thumbnail":"https://i.ytimg.com/vi/grcUwcD3oCk/mqdefault.jpg","viewCount":"158","playlistId":"PLEkQk5xrP-tnUSUj0uyJhA-kwNC7Gkx_j","playlistName":"مقرأة الفجر - بداية من سورة الإسراء حتى سورة الناس","category":"تفسير"},{"id":"EGUTPfOfTK0","title":"شرح كتاب السِّيَر من سنن الترمذي - المجلس الثاني","publishedAt":"2015-07-13T03:47:20Z","duration":"PT22M1S","thumbnail":"https://i.ytimg.com/vi/EGUTPfOfTK0/mqdefault.jpg","viewCount":"158","playlistId":"PLEkQk5xrP-tnu6of679SvxdVx0qSrJzmb","playlistName":"شرح سنن الإمام الترمذي رضى الله عنه د. يسري جبر","category":"متنوع"},{"id":"G_cjIWZ-Jro","title":"صحيح الإمام البخاري رضي الله تعالى عنه - كتاب الأطعمة - المجلس الثالث","publishedAt":"2016-01-27T20:18:51Z","duration":"PT1H4M","thumbnail":"https://i.ytimg.com/vi/G_cjIWZ-Jro/mqdefault.jpg","viewCount":"157","playlistId":"PLEkQk5xrP-tmJuzaj4GWRenFoFx9gdbFX","playlistName":"شرح كتاب صحيح الإمام البخاري رضي الله تعالى عنه   أ.د. يسرى جبر","category":"حديث"},{"id":"xShmbagvY9k","title":"صحيح الإمام البخاري رضي الله عنه - كتاب النكاح المجلس السابع عشر","publishedAt":"2015-05-03T17:42:19Z","duration":"PT1H4M23S","thumbnail":"https://i.ytimg.com/vi/xShmbagvY9k/mqdefault.jpg","viewCount":"157","playlistId":"PLEkQk5xrP-tmJuzaj4GWRenFoFx9gdbFX","playlistName":"شرح كتاب صحيح الإمام البخاري رضي الله تعالى عنه   أ.د. يسرى جبر","category":"حديث"},{"id":"CEAYhTd9e2s","title":"صحيح الإمام البخاري رضي الله عنه - كتاب اللباس المجلس الثالث د. يسري جبر","publishedAt":"2016-09-26T19:20:12Z","duration":"PT1H1M33S","thumbnail":"https://i.ytimg.com/vi/CEAYhTd9e2s/mqdefault.jpg","viewCount":"156","playlistId":"PLEkQk5xrP-tmJuzaj4GWRenFoFx9gdbFX","playlistName":"شرح كتاب صحيح الإمام البخاري رضي الله تعالى عنه   أ.د. يسرى جبر","category":"حديث"},{"id":"Tt8lVi9qZ7g","title":"شرح صحيح الإمام البخاري رضي الله تعالى عنه - كتاب الحِيَل ( باب في الصلاة)  د. يسري جبر","publishedAt":"2018-09-26T17:28:03Z","duration":"PT43M14S","thumbnail":"https://i.ytimg.com/vi/Tt8lVi9qZ7g/mqdefault.jpg","viewCount":"156","playlistId":"PLEkQk5xrP-tmJuzaj4GWRenFoFx9gdbFX","playlistName":"شرح كتاب صحيح الإمام البخاري رضي الله تعالى عنه   أ.د. يسرى جبر","category":"حديث"},{"id":"tpeIWwiMGE4","title":"قراءة القرآن (من آية ١٨  سورة القمر)","publishedAt":"2016-01-03T05:33:30Z","duration":"PT12M32S","thumbnail":"https://i.ytimg.com/vi/tpeIWwiMGE4/mqdefault.jpg","viewCount":"155","playlistId":"PLEkQk5xrP-tnUSUj0uyJhA-kwNC7Gkx_j","playlistName":"مقرأة الفجر - بداية من سورة الإسراء حتى سورة الناس","category":"تفسير"},{"id":"_GcIE7eFTNo","title":"شرح كتاب المناقب من سنن الترمذي - المجلس الثامن","publishedAt":"2016-06-09T06:39:20Z","duration":"PT41M38S","thumbnail":"https://i.ytimg.com/vi/_GcIE7eFTNo/mqdefault.jpg","viewCount":"154","playlistId":"PLEkQk5xrP-tnu6of679SvxdVx0qSrJzmb","playlistName":"شرح سنن الإمام الترمذي رضى الله عنه د. يسري جبر","category":"متنوع"},{"id":"I3EYuuF9BdI","title":"صحيح الإمام البخاري رضي الله تعالى عنه - كتاب الأطعمة - المجلس السادس","publishedAt":"2016-03-02T21:28:41Z","duration":"PT1H5M28S","thumbnail":"https://i.ytimg.com/vi/I3EYuuF9BdI/mqdefault.jpg","viewCount":"154","playlistId":"PLEkQk5xrP-tmJuzaj4GWRenFoFx9gdbFX","playlistName":"شرح كتاب صحيح الإمام البخاري رضي الله تعالى عنه   أ.د. يسرى جبر","category":"حديث"},{"id":"7XoxDECMb5k","title":"صحيح الإمام البخاري رضي الله عنه - كتاب الطب المجلس التاسع  د. يسري جبر","publishedAt":"2016-09-05T02:45:09Z","duration":"PT41M37S","thumbnail":"https://i.ytimg.com/vi/7XoxDECMb5k/mqdefault.jpg","viewCount":"154","playlistId":"PLEkQk5xrP-tmJuzaj4GWRenFoFx9gdbFX","playlistName":"شرح كتاب صحيح الإمام البخاري رضي الله تعالى عنه   أ.د. يسرى جبر","category":"حديث"},{"id":"6_mRnr7ox6k","title":"صحيح الإمام البخاري رضي الله عنه - كتاب الأضاحي- المجلس الأول د. يسري جبر","publishedAt":"2016-04-23T19:29:27Z","duration":"PT44M58S","thumbnail":"https://i.ytimg.com/vi/6_mRnr7ox6k/mqdefault.jpg","viewCount":"153","playlistId":"PLEkQk5xrP-tmJuzaj4GWRenFoFx9gdbFX","playlistName":"شرح كتاب صحيح الإمام البخاري رضي الله تعالى عنه   أ.د. يسرى جبر","category":"حديث"},{"id":"l7SRm5qKL1c","title":"صحيح البخاري - كتاب الأيمان والنذور (باب مَن حلف ألا يدخل على أهله شهرًا وكان الشهر تسعًا وعشرين)","publishedAt":"2017-11-07T06:13:20Z","duration":"PT40M5S","thumbnail":"https://i.ytimg.com/vi/l7SRm5qKL1c/mqdefault.jpg","viewCount":"153","playlistId":"PLEkQk5xrP-tmJuzaj4GWRenFoFx9gdbFX","playlistName":"شرح كتاب صحيح الإمام البخاري رضي الله تعالى عنه   أ.د. يسرى جبر","category":"حديث"},{"id":"9PB9zztGewY","title":"شرح كتاب الطب من سنن الترمذي - المجلس السابع","publishedAt":"2015-12-02T06:03:54Z","duration":"PT35M55S","thumbnail":"https://i.ytimg.com/vi/9PB9zztGewY/mqdefault.jpg","viewCount":"153","playlistId":"PLEkQk5xrP-tnu6of679SvxdVx0qSrJzmb","playlistName":"شرح سنن الإمام الترمذي رضى الله عنه د. يسري جبر","category":"متنوع"},{"id":"URh0tY6CMsw","title":"شرح كتاب الزهد من سنن الترمذي - المجلس الثالث عشر","publishedAt":"2016-01-15T06:48:02Z","duration":"PT38M51S","thumbnail":"https://i.ytimg.com/vi/URh0tY6CMsw/mqdefault.jpg","viewCount":"152","playlistId":"PLEkQk5xrP-tnu6of679SvxdVx0qSrJzmb","playlistName":"شرح سنن الإمام الترمذي رضى الله عنه د. يسري جبر","category":"متنوع"},{"id":"griYpzN-KcU","title":"شرح كتاب الزهد من سنن الترمذي - المجلس الثاني عشر","publishedAt":"2016-01-14T10:12:07Z","duration":"PT44M58S","thumbnail":"https://i.ytimg.com/vi/griYpzN-KcU/mqdefault.jpg","viewCount":"152","playlistId":"PLEkQk5xrP-tnu6of679SvxdVx0qSrJzmb","playlistName":"شرح سنن الإمام الترمذي رضى الله عنه د. يسري جبر","category":"متنوع"},{"id":"ETjuh9eKIOU","title":"قراءة القرآن ( من أول سورة سبإ )","publishedAt":"2015-08-12T03:57:26Z","duration":"PT21M10S","thumbnail":"https://i.ytimg.com/vi/ETjuh9eKIOU/mqdefault.jpg","viewCount":"152","playlistId":"PLEkQk5xrP-tnUSUj0uyJhA-kwNC7Gkx_j","playlistName":"مقرأة الفجر - بداية من سورة الإسراء حتى سورة الناس","category":"تفسير"},{"id":"rs0Ax6AACdY","title":"القِسمُ (18) من التوكيد: القَسَم \"الفائدة الأولى\"- شرح البرهان في علوم القرآن","publishedAt":"2021-05-08T06:10:05Z","duration":"PT11M21S","thumbnail":"https://i.ytimg.com/vi/rs0Ax6AACdY/mqdefault.jpg","viewCount":"152","playlistId":"PLEkQk5xrP-tnW3iBL7HkKziOFCFZbTlf0","playlistName":"شرح البرهان في علوم القرآن - أ.د. يسري جبر","category":"تفسير"},{"id":"iXCiraJB17Q","title":"شرح صحيح الإمام البخاري رضي الله عنه - كتاب الرقاق - المجلس الثالث د.يسري جبر","publishedAt":"2017-08-07T15:05:44Z","duration":"PT52M50S","thumbnail":"https://i.ytimg.com/vi/iXCiraJB17Q/mqdefault.jpg","viewCount":"151","playlistId":"PLEkQk5xrP-tmJuzaj4GWRenFoFx9gdbFX","playlistName":"شرح كتاب صحيح الإمام البخاري رضي الله تعالى عنه   أ.د. يسرى جبر","category":"حديث"},{"id":"5IRFj0US_p8","title":"شرح كتاب الزهد من سنن الترمذي - المجلس الرابع عشر","publishedAt":"2016-01-15T10:18:22Z","duration":"PT39M33S","thumbnail":"https://i.ytimg.com/vi/5IRFj0US_p8/mqdefault.jpg","viewCount":"151","playlistId":"PLEkQk5xrP-tnu6of679SvxdVx0qSrJzmb","playlistName":"شرح سنن الإمام الترمذي رضى الله عنه د. يسري جبر","category":"متنوع"},{"id":"CXVOro_qM5E","title":"شرح كتاب الأدب من سنن الترمذي - المجلس الأول","publishedAt":"2016-03-10T13:08:59Z","duration":"PT31M55S","thumbnail":"https://i.ytimg.com/vi/CXVOro_qM5E/mqdefault.jpg","viewCount":"150","playlistId":"PLEkQk5xrP-tnu6of679SvxdVx0qSrJzmb","playlistName":"شرح سنن الإمام الترمذي رضى الله عنه د. يسري جبر","category":"متنوع"},{"id":"1VetnXY1KY8","title":"قراءة القرآن (من أول سورة الحج)","publishedAt":"2015-06-17T03:06:26Z","duration":"PT11M11S","thumbnail":"https://i.ytimg.com/vi/1VetnXY1KY8/mqdefault.jpg","viewCount":"150","playlistId":"PLEkQk5xrP-tnUSUj0uyJhA-kwNC7Gkx_j","playlistName":"مقرأة الفجر - بداية من سورة الإسراء حتى سورة الناس","category":"تفسير"}],"total":7670,"page":306,"pageSize":24,"totalPages":320}