{"items":[{"id":"VpVbDGeR-9E","title":"لا يظِلمُ رَبٌك أحدًا","publishedAt":"2018-07-08T02:05:38Z","duration":"PT36M53S","thumbnail":"https://i.ytimg.com/vi/VpVbDGeR-9E/mqdefault.jpg","viewCount":"900","playlistId":"PLEkQk5xrP-tlArtGpeLWaqNM7h7IDeAVC","playlistName":"خطب الجمعة أ.د. يسري جبر","category":"خطب"},{"id":"H_ZzHsMAK-A","title":"مقرأة سورة النجم من آية ٤٩","publishedAt":"2019-02-24T20:28:15Z","duration":"PT8M27S","thumbnail":"https://i.ytimg.com/vi/H_ZzHsMAK-A/mqdefault.jpg","viewCount":"899","playlistId":"PLEkQk5xrP-tnmTYsyW6xNdyfhPq0Bhrhj","playlistName":"مقرأة الفجر - القُرْآنُ الكَرِيمُ - خَتْمَةُ التَّدَبُّرِ  أ.د. يسري جبر","category":"متنوع"},{"id":"keTcAWuR-xk","title":"334- مَنْ هم الغُرُّ المُحجَّلَين؟ - شرح دليل الفالحين","publishedAt":"2022-11-15T09:00:35Z","duration":"PT32M24S","thumbnail":"https://i.ytimg.com/vi/keTcAWuR-xk/mqdefault.jpg","viewCount":"899","playlistId":"PLEkQk5xrP-tkc9DXvSLguqX5-FYp6ASR4","playlistName":"دليل الفالحين لطرق رياض الصالحين","category":"متنوع"},{"id":"46U9EXFBTWk","title":"شرح صحيح البخاري - كتاب الجنائز من باب ٩١","publishedAt":"2017-02-10T09:48:31Z","duration":"PT34M12S","thumbnail":"https://i.ytimg.com/vi/46U9EXFBTWk/mqdefault.jpg","viewCount":"898","playlistId":"PLEkQk5xrP-tlEerGoLa1AFy-2XvQ-sovv","playlistName":"شرح صحيح البخاري - أ.د. يسري جبر (كاملا)","category":"حديث"},{"id":"jdDoI8-1pIs","title":"حول إسراء النبي صلى الله عليه وآله وسلم ومعراجه.  أ.د. يسري جبر","publishedAt":"2019-03-31T15:27:49Z","duration":"PT40M35S","thumbnail":"https://i.ytimg.com/vi/jdDoI8-1pIs/mqdefault.jpg","viewCount":"897","playlistId":"PLEkQk5xrP-tlArtGpeLWaqNM7h7IDeAVC","playlistName":"خطب الجمعة أ.د. يسري جبر","category":"خطب"},{"id":"LIrqLXtHRJ4","title":"مجموعة الشمائل المحمدية - كتاب أسماء النبي صلى الله عليه وآله وسلم وكناه - المجلس الثاني","publishedAt":"2017-10-13T19:24:40Z","duration":"PT54M51S","thumbnail":"https://i.ytimg.com/vi/LIrqLXtHRJ4/mqdefault.jpg","viewCount":"897","playlistId":"PLEkQk5xrP-tloQiuCfhC2DE160-EZBhdz","playlistName":"مجموعة الشمائل المحمدية","category":"سيرة"},{"id":"kFzV8BytyGY","title":"45- السبع الطوال - شرح الإتقان في علوم القرآن","publishedAt":"2023-03-30T05:00:30Z","duration":"PT27M13S","thumbnail":"https://i.ytimg.com/vi/kFzV8BytyGY/mqdefault.jpg","viewCount":"897","playlistId":"PLEkQk5xrP-tlPw10KGJKagu7zm4Ry2Tge","playlistName":"شرح الإتقان في علوم القرآن","category":"تفسير"},{"id":"aK7X31rJXHI","title":"شرح سنن الدارمي كتاب الرؤيا من أوله","publishedAt":"2019-08-04T09:02:04Z","duration":"PT1H8M22S","thumbnail":"https://i.ytimg.com/vi/aK7X31rJXHI/mqdefault.jpg","viewCount":"896","playlistId":"PLEkQk5xrP-tmAg-FuWjY057X_h5NmGmAa","playlistName":"شرح سنن الدارمي - أ.د. يسري جبر (كاملا)","category":"متنوع"},{"id":"fHKOYKEMmFo","title":"من علامة اتباع الهوى: المسارعة إلى نوافل الخيرات، والتكاسل عن القيام بحقوق الواجبات","publishedAt":"2017-08-28T21:37:42Z","duration":"PT13M4S","thumbnail":"https://i.ytimg.com/vi/fHKOYKEMmFo/mqdefault.jpg","viewCount":"896","playlistId":"PLEkQk5xrP-tkI_meE148wc7V7XHlB0WPb","playlistName":"من الحكم العطائية  د. يسري جبر","category":"متنوع"},{"id":"Jowdyf2w2zc","title":"73-  نُبذة عن سيدنا أبي إسحاق سعد بن أبي وقاص سابع العشرة المبشرين بالجنة رضي اللهُ تعالى عنه","publishedAt":"2024-02-05T21:41:53Z","duration":"PT23M45S","thumbnail":"https://i.ytimg.com/vi/Jowdyf2w2zc/mqdefault.jpg","viewCount":"896","playlistId":"PLEkQk5xrP-tkKprIuGrSdEuBSMsyg5We1","playlistName":"شرح مسند الإمام أحمد بن حنبل","category":"متنوع"},{"id":"FwTcY8KvvXw","title":"4- حكم الماء المتغيِّر - كتاب الطهارة - شرح سنن الإمام الدار قطني رضي الله عنه.","publishedAt":"2022-12-31T09:00:12Z","duration":"PT29M59S","thumbnail":"https://i.ytimg.com/vi/FwTcY8KvvXw/mqdefault.jpg","viewCount":"896","playlistId":"PLEkQk5xrP-tk_MCBZ706ORCw6gFtFyaGj","playlistName":"شرح سنن الإمام الدارقطني","category":"متنوع"},{"id":"CA9teS8tWFw","title":"12- ما نزل بمكَّة وحكمه مدني - شرح الإتقان في علوم القرآن","publishedAt":"2023-01-19T05:00:04Z","duration":"PT13M12S","thumbnail":"https://i.ytimg.com/vi/CA9teS8tWFw/mqdefault.jpg","viewCount":"896","playlistId":"PLEkQk5xrP-tlPw10KGJKagu7zm4Ry2Tge","playlistName":"شرح الإتقان في علوم القرآن","category":"تفسير"},{"id":"PcfPUOvVSG8","title":"شرح صحيح البخاري - كتاب التهجد من باب ٣٣","publishedAt":"2016-12-29T11:25:43Z","duration":"PT28M45S","thumbnail":"https://i.ytimg.com/vi/PcfPUOvVSG8/mqdefault.jpg","viewCount":"895","playlistId":"PLEkQk5xrP-tlEerGoLa1AFy-2XvQ-sovv","playlistName":"شرح صحيح البخاري - أ.د. يسري جبر (كاملا)","category":"حديث"},{"id":"93HDugg_g34","title":"421- ما كُنَّا نَأخُذُ مِن لُقْمةٍ إلَّا رَبَا مِن أسفَلِها - بركة طعام الصالحين والاجتماع عليه","publishedAt":"2023-04-02T05:05:00Z","duration":"PT33M22S","thumbnail":"https://i.ytimg.com/vi/93HDugg_g34/mqdefault.jpg","viewCount":"894","playlistId":"PLEkQk5xrP-tkc9DXvSLguqX5-FYp6ASR4","playlistName":"دليل الفالحين لطرق رياض الصالحين","category":"متنوع"},{"id":"Yc3x2eCjN2c","title":"7- حديث الإسراء والمعراج بنبينا صلى الله عليه وآله وسلم (المجلس السابع). د. يسري جبر","publishedAt":"2018-06-28T09:57:29Z","duration":"PT33M11S","thumbnail":"https://i.ytimg.com/vi/Yc3x2eCjN2c/mqdefault.jpg","viewCount":"894","playlistId":"PLEkQk5xrP-tnl7vb7KeAoPd5ZlqKKW8KV","playlistName":"شرح كتاب بهجة النفوس أ.د . يسرى جبر","category":"متنوع"},{"id":"-BMP4SshhR8","title":"106- حكم العمل على الأرض ببعض ما يخرج منها - شرح مسند الإمام أحمد رضي الله تعالى عنه","publishedAt":"2024-05-19T06:18:40Z","duration":"PT30M27S","thumbnail":"https://i.ytimg.com/vi/-BMP4SshhR8/mqdefault.jpg","viewCount":"893","playlistId":"PLEkQk5xrP-tkKprIuGrSdEuBSMsyg5We1","playlistName":"شرح مسند الإمام أحمد بن حنبل","category":"متنوع"},{"id":"KV70E_YtrmE","title":"شرح صحيح البخاري   كتاب الزكاة من باب ٤٠","publishedAt":"2017-02-19T16:35:37Z","duration":"PT42M48S","thumbnail":"https://i.ytimg.com/vi/KV70E_YtrmE/mqdefault.jpg","viewCount":"893","playlistId":"PLEkQk5xrP-tlEerGoLa1AFy-2XvQ-sovv","playlistName":"شرح صحيح البخاري - أ.د. يسري جبر (كاملا)","category":"حديث"},{"id":"Gjgh_RapXRM","title":"آدَابُ الأشْهُرِ الحُرُمِ  أ.د. يسري جبر","publishedAt":"2019-03-11T14:25:52Z","duration":"PT30M39S","thumbnail":"https://i.ytimg.com/vi/Gjgh_RapXRM/mqdefault.jpg","viewCount":"893","playlistId":"PLEkQk5xrP-tlArtGpeLWaqNM7h7IDeAVC","playlistName":"خطب الجمعة أ.د. يسري جبر","category":"خطب"},{"id":"N6Lyk72PVzM","title":"شرح صحيح البخاري -  كتاب الحج من باب ٢٥","publishedAt":"2017-03-03T03:39:48Z","duration":"PT35M49S","thumbnail":"https://i.ytimg.com/vi/N6Lyk72PVzM/mqdefault.jpg","viewCount":"892","playlistId":"PLEkQk5xrP-tlEerGoLa1AFy-2XvQ-sovv","playlistName":"شرح صحيح البخاري - أ.د. يسري جبر (كاملا)","category":"حديث"},{"id":"S6V4niDve-E","title":"شرح صحيح البخاري   كتاب الزكاة من باب ٤٨","publishedAt":"2017-02-20T21:41:55Z","duration":"PT35M55S","thumbnail":"https://i.ytimg.com/vi/S6V4niDve-E/mqdefault.jpg","viewCount":"892","playlistId":"PLEkQk5xrP-tlEerGoLa1AFy-2XvQ-sovv","playlistName":"شرح صحيح البخاري - أ.د. يسري جبر (كاملا)","category":"حديث"},{"id":"VYhFI9Ei5kw","title":"صلوات سيدى أحمد الدردير رضي الله عنه - حرف الفاء والقاف والكاف","publishedAt":"2014-02-21T19:36:06Z","duration":"PT25M18S","thumbnail":"https://i.ytimg.com/vi/VYhFI9Ei5kw/mqdefault.jpg","viewCount":"892","playlistId":"PLEkQk5xrP-tlXZQuhEiJGJka1QcRw7fbW","playlistName":"شرح الصلوات الدرديرية لسيدي أحمد الدردير رضي الله عنه","category":"ردود"},{"id":"rx0LhdO3ewY","title":"شرح صحيح البخاري كتاب اللباس من أوله","publishedAt":"2018-08-12T20:13:25Z","duration":"PT35M10S","thumbnail":"https://i.ytimg.com/vi/rx0LhdO3ewY/mqdefault.jpg","viewCount":"892","playlistId":"PLEkQk5xrP-tlEerGoLa1AFy-2XvQ-sovv","playlistName":"شرح صحيح البخاري - أ.د. يسري جبر (كاملا)","category":"حديث"},{"id":"Wxj9gSdxxO8","title":"164- \"فأنا فرط أمتي لم يصابوا بمثلي\" ﷺ - شرح مسند الإمام أحمد رضي الله تعالى عنه","publishedAt":"2025-08-01T09:00:54Z","duration":"PT33M24S","thumbnail":"https://i.ytimg.com/vi/Wxj9gSdxxO8/mqdefault.jpg","viewCount":"891","playlistId":"PLEkQk5xrP-tkKprIuGrSdEuBSMsyg5We1","playlistName":"شرح مسند الإمام أحمد بن حنبل","category":"متنوع"},{"id":"d0R-9BRazP0","title":"61- حكم الجلوس على فُرشِ الحرير - شرح مسند الإمام أحمد رضي الله عنه","publishedAt":"2024-01-04T07:00:10Z","duration":"PT35M42S","thumbnail":"https://i.ytimg.com/vi/d0R-9BRazP0/mqdefault.jpg","viewCount":"891","playlistId":"PLEkQk5xrP-tkKprIuGrSdEuBSMsyg5We1","playlistName":"شرح مسند الإمام أحمد بن حنبل","category":"متنوع"}],"total":7670,"page":163,"pageSize":24,"totalPages":320}