{"items":[{"id":"u3mfp5GOKtU","title":"مقرأة سورة الصافات من آية ٥٠","publishedAt":"2018-09-17T22:46:36Z","duration":"PT18M55S","thumbnail":"https://i.ytimg.com/vi/u3mfp5GOKtU/mqdefault.jpg","viewCount":"296","playlistId":"PLEkQk5xrP-tnmTYsyW6xNdyfhPq0Bhrhj","playlistName":"مقرأة الفجر - القُرْآنُ الكَرِيمُ - خَتْمَةُ التَّدَبُّرِ  أ.د. يسري جبر","category":"متنوع"},{"id":"G8s3nIv_tf8","title":"83- باب مَا جَاءَ فِى الشَّرِكَةِ وَالتَّوْلِيَةِ وَالإِقَالَةِ شرح الموطأ د يسري جبر","publishedAt":"2018-07-16T22:26:46Z","duration":"PT1H1M11S","thumbnail":"https://i.ytimg.com/vi/G8s3nIv_tf8/mqdefault.jpg","viewCount":"295","playlistId":"PLEkQk5xrP-tnC6BRuqMjyO-484iqXeg0o","playlistName":"شرح كتاب الموطأ للإمام مالك","category":"متنوع"},{"id":"Rea3erpgeRM","title":"شرح كتاب الأذكار من كلام سيد الأبرار للإمام النووى رضى الله عنه - المجلس الثالث والعشرون","publishedAt":"2015-05-06T20:12:00Z","duration":"PT11M19S","thumbnail":"https://i.ytimg.com/vi/Rea3erpgeRM/mqdefault.jpg","viewCount":"295","playlistId":"PLEkQk5xrP-tkWS57Ubysh0ifJR8dmuEtE","playlistName":"شرح كتاب الأذكار للإمام النووي د. يسرى جبر","category":"حديث"},{"id":"hbJ2CGYvzs8","title":"مقرأة سورة الروم من آية ٢٤","publishedAt":"2018-06-20T08:52:31Z","duration":"PT9M41S","thumbnail":"https://i.ytimg.com/vi/hbJ2CGYvzs8/mqdefault.jpg","viewCount":"295","playlistId":"PLEkQk5xrP-tnmTYsyW6xNdyfhPq0Bhrhj","playlistName":"مقرأة الفجر - القُرْآنُ الكَرِيمُ - خَتْمَةُ التَّدَبُّرِ  أ.د. يسري جبر","category":"متنوع"},{"id":"juB0rfvYYks","title":"رمضانيات (4) د. يسري جبر","publishedAt":"2018-06-10T16:06:28Z","duration":"PT37M12S","thumbnail":"https://i.ytimg.com/vi/juB0rfvYYks/mqdefault.jpg","viewCount":"294","playlistId":"PLEkQk5xrP-tlArtGpeLWaqNM7h7IDeAVC","playlistName":"خطب الجمعة أ.د. يسري جبر","category":"خطب"},{"id":"_0tkbuZ8y5c","title":"مقرأة سورة الحج من آية ٤٦","publishedAt":"2018-02-08T09:32:35Z","duration":"PT27M10S","thumbnail":"https://i.ytimg.com/vi/_0tkbuZ8y5c/mqdefault.jpg","viewCount":"294","playlistId":"PLEkQk5xrP-tnmTYsyW6xNdyfhPq0Bhrhj","playlistName":"مقرأة الفجر - القُرْآنُ الكَرِيمُ - خَتْمَةُ التَّدَبُّرِ  أ.د. يسري جبر","category":"متنوع"},{"id":"SXDx3gcCpGk","title":"مقرأة سورة الشورى من آية ١٦","publishedAt":"2018-12-01T10:04:54Z","duration":"PT18M57S","thumbnail":"https://i.ytimg.com/vi/SXDx3gcCpGk/mqdefault.jpg","viewCount":"294","playlistId":"PLEkQk5xrP-tnmTYsyW6xNdyfhPq0Bhrhj","playlistName":"مقرأة الفجر - القُرْآنُ الكَرِيمُ - خَتْمَةُ التَّدَبُّرِ  أ.د. يسري جبر","category":"متنوع"},{"id":"cQs7QATmk1E","title":"صحيح الإمام البخاري رضي الله عنه كتاب الدعوات (التكبير والتسبيح عند المنام)المجلس الثاني د. يسري جبر","publishedAt":"2017-05-01T09:41:23Z","duration":"PT34M38S","thumbnail":"https://i.ytimg.com/vi/cQs7QATmk1E/mqdefault.jpg","viewCount":"294","playlistId":"PLEkQk5xrP-tmJuzaj4GWRenFoFx9gdbFX","playlistName":"شرح كتاب صحيح الإمام البخاري رضي الله تعالى عنه   أ.د. يسرى جبر","category":"حديث"},{"id":"qrR7fLzg3Uw","title":"سورة التوبة آية 67","publishedAt":"2017-04-24T12:46:24Z","duration":"PT14M44S","thumbnail":"https://i.ytimg.com/vi/qrR7fLzg3Uw/mqdefault.jpg","viewCount":"294","playlistId":"PLEkQk5xrP-tnmTYsyW6xNdyfhPq0Bhrhj","playlistName":"مقرأة الفجر - القُرْآنُ الكَرِيمُ - خَتْمَةُ التَّدَبُّرِ  أ.د. يسري جبر","category":"متنوع"},{"id":"eIUWawgnsRA","title":"القِسمُ (26) من التوكيد: الزيادة (3) حروف الزيادة - شرح البرهان في علوم القرآن","publishedAt":"2021-05-24T06:57:08Z","duration":"PT13M36S","thumbnail":"https://i.ytimg.com/vi/eIUWawgnsRA/mqdefault.jpg","viewCount":"294","playlistId":"PLEkQk5xrP-tnW3iBL7HkKziOFCFZbTlf0","playlistName":"شرح البرهان في علوم القرآن - أ.د. يسري جبر","category":"تفسير"},{"id":"ajWNBi8epPY","title":"مقرأة سورة القصص من آية ٦٩","publishedAt":"2018-05-31T11:22:05Z","duration":"PT22M17S","thumbnail":"https://i.ytimg.com/vi/ajWNBi8epPY/mqdefault.jpg","viewCount":"293","playlistId":"PLEkQk5xrP-tnmTYsyW6xNdyfhPq0Bhrhj","playlistName":"مقرأة الفجر - القُرْآنُ الكَرِيمُ - خَتْمَةُ التَّدَبُّرِ  أ.د. يسري جبر","category":"متنوع"},{"id":"CqfnOI2x6Nk","title":"مقرأة سورة هود من آية ٩٠","publishedAt":"2017-06-18T07:32:44Z","duration":"PT12M9S","thumbnail":"https://i.ytimg.com/vi/CqfnOI2x6Nk/mqdefault.jpg","viewCount":"293","playlistId":"PLEkQk5xrP-tnmTYsyW6xNdyfhPq0Bhrhj","playlistName":"مقرأة الفجر - القُرْآنُ الكَرِيمُ - خَتْمَةُ التَّدَبُّرِ  أ.د. يسري جبر","category":"متنوع"},{"id":"fwDb3CpNu54","title":"( 97 ) حدِيثُ جَوازِ أَخْذِ الأَجْرِعلى كِتَابِ اللهِ عَزَّ وَجَلَّ","publishedAt":"2015-10-09T18:40:24Z","duration":"PT20M26S","thumbnail":"https://i.ytimg.com/vi/fwDb3CpNu54/mqdefault.jpg","viewCount":"293","playlistId":"PLEkQk5xrP-tnl7vb7KeAoPd5ZlqKKW8KV","playlistName":"شرح كتاب بهجة النفوس أ.د . يسرى جبر","category":"متنوع"},{"id":"oCbgcc1nLP4","title":"مقرأة سورة المؤمنون آية ١١٢","publishedAt":"2018-03-07T11:29:51Z","duration":"PT25M31S","thumbnail":"https://i.ytimg.com/vi/oCbgcc1nLP4/mqdefault.jpg","viewCount":"293","playlistId":"PLEkQk5xrP-tnmTYsyW6xNdyfhPq0Bhrhj","playlistName":"مقرأة الفجر - القُرْآنُ الكَرِيمُ - خَتْمَةُ التَّدَبُّرِ  أ.د. يسري جبر","category":"متنوع"},{"id":"uF_7lpDdKmw","title":"مقرأة سورة غافر من آية ٢٩","publishedAt":"2018-11-08T09:01:18Z","duration":"PT18M3S","thumbnail":"https://i.ytimg.com/vi/uF_7lpDdKmw/mqdefault.jpg","viewCount":"293","playlistId":"PLEkQk5xrP-tnmTYsyW6xNdyfhPq0Bhrhj","playlistName":"مقرأة الفجر - القُرْآنُ الكَرِيمُ - خَتْمَةُ التَّدَبُّرِ  أ.د. يسري جبر","category":"متنوع"},{"id":"eYw4bdId_8Y","title":"مقرأة سورة سبأ من آية ٢٢","publishedAt":"2018-08-11T13:05:51Z","duration":"PT19M41S","thumbnail":"https://i.ytimg.com/vi/eYw4bdId_8Y/mqdefault.jpg","viewCount":"293","playlistId":"PLEkQk5xrP-tnmTYsyW6xNdyfhPq0Bhrhj","playlistName":"مقرأة الفجر - القُرْآنُ الكَرِيمُ - خَتْمَةُ التَّدَبُّرِ  أ.د. يسري جبر","category":"متنوع"},{"id":"h0lI5ycS4CQ","title":"شرح كتاب الصيد والذبائح من سنن الترمذي - المجلس الثالث","publishedAt":"2015-07-03T04:11:51Z","duration":"PT30M56S","thumbnail":"https://i.ytimg.com/vi/h0lI5ycS4CQ/mqdefault.jpg","viewCount":"292","playlistId":"PLEkQk5xrP-tnu6of679SvxdVx0qSrJzmb","playlistName":"شرح سنن الإمام الترمذي رضى الله عنه د. يسري جبر","category":"متنوع"},{"id":"fc3KHYePcaE","title":"مقرأة سورة الحاقة من آية ١٩","publishedAt":"2019-05-11T12:26:46Z","duration":"PT11M3S","thumbnail":"https://i.ytimg.com/vi/fc3KHYePcaE/mqdefault.jpg","viewCount":"292","playlistId":"PLEkQk5xrP-tnmTYsyW6xNdyfhPq0Bhrhj","playlistName":"مقرأة الفجر - القُرْآنُ الكَرِيمُ - خَتْمَةُ التَّدَبُّرِ  أ.د. يسري جبر","category":"متنوع"},{"id":"e4r1XJsEf7g","title":"مقرأة سورة الجاثية من آية ١٢","publishedAt":"2018-12-29T12:56:58Z","duration":"PT19M55S","thumbnail":"https://i.ytimg.com/vi/e4r1XJsEf7g/mqdefault.jpg","viewCount":"292","playlistId":"PLEkQk5xrP-tnmTYsyW6xNdyfhPq0Bhrhj","playlistName":"مقرأة الفجر - القُرْآنُ الكَرِيمُ - خَتْمَةُ التَّدَبُّرِ  أ.د. يسري جبر","category":"متنوع"},{"id":"7Iyv9HUSq0Y","title":"مقرأة سورة الأنبياء من آية ١٦","publishedAt":"2017-12-12T09:12:06Z","duration":"PT13M44S","thumbnail":"https://i.ytimg.com/vi/7Iyv9HUSq0Y/mqdefault.jpg","viewCount":"292","playlistId":"PLEkQk5xrP-tnmTYsyW6xNdyfhPq0Bhrhj","playlistName":"مقرأة الفجر - القُرْآنُ الكَرِيمُ - خَتْمَةُ التَّدَبُّرِ  أ.د. يسري جبر","category":"متنوع"},{"id":"foilnS9aHEs","title":"شرح سنن الدارمي كتاب الصلاة من باب ١٩٠","publishedAt":"2019-05-28T02:27:14Z","duration":"PT27M8S","thumbnail":"https://i.ytimg.com/vi/foilnS9aHEs/mqdefault.jpg","viewCount":"292","playlistId":"PLEkQk5xrP-tmAg-FuWjY057X_h5NmGmAa","playlistName":"شرح سنن الدارمي - أ.د. يسري جبر (كاملا)","category":"متنوع"},{"id":"xo7KOqPliWY","title":"مقرأة سورة التوبة من آية ٩٧","publishedAt":"2017-04-30T10:45:48Z","duration":"PT12M28S","thumbnail":"https://i.ytimg.com/vi/xo7KOqPliWY/mqdefault.jpg","viewCount":"292","playlistId":"PLEkQk5xrP-tnmTYsyW6xNdyfhPq0Bhrhj","playlistName":"مقرأة الفجر - القُرْآنُ الكَرِيمُ - خَتْمَةُ التَّدَبُّرِ  أ.د. يسري جبر","category":"متنوع"},{"id":"x3rdlLsbJ7I","title":"القِسمُ (15) من التوكيد: الزيادة في بنية الكلمة - شرح البرهان في علوم القرآن","publishedAt":"2021-05-02T05:05:38Z","duration":"PT10M31S","thumbnail":"https://i.ytimg.com/vi/x3rdlLsbJ7I/mqdefault.jpg","viewCount":"292","playlistId":"PLEkQk5xrP-tnW3iBL7HkKziOFCFZbTlf0","playlistName":"شرح البرهان في علوم القرآن - أ.د. يسري جبر","category":"تفسير"},{"id":"mgTKkM5ekak","title":"مقرأة سورة الأنبياء من آية ٣٥","publishedAt":"2017-12-15T19:10:51Z","duration":"PT25M56S","thumbnail":"https://i.ytimg.com/vi/mgTKkM5ekak/mqdefault.jpg","viewCount":"292","playlistId":"PLEkQk5xrP-tnmTYsyW6xNdyfhPq0Bhrhj","playlistName":"مقرأة الفجر - القُرْآنُ الكَرِيمُ - خَتْمَةُ التَّدَبُّرِ  أ.د. يسري جبر","category":"متنوع"}],"total":7670,"page":286,"pageSize":24,"totalPages":320}