{"items":[{"id":"73SoeqjgFGw","title":"مراعاة اشتقاق اللفظ - تكملة أنواع التقديم والتأخير (14) - شرح البرهان في علوم القرآن","publishedAt":"2021-10-07T06:24:29Z","duration":"PT11M42S","thumbnail":"https://i.ytimg.com/vi/73SoeqjgFGw/mqdefault.jpg","viewCount":"423","playlistId":"PLEkQk5xrP-tnW3iBL7HkKziOFCFZbTlf0","playlistName":"شرح البرهان في علوم القرآن - أ.د. يسري جبر","category":"تفسير"},{"id":"ZJTyT5DNIQs","title":"140- حرف الدال (كلمة دون) - شرح الإتقان في علوم القرآن","publishedAt":"2023-08-02T05:08:42Z","duration":"PT17M2S","thumbnail":"https://i.ytimg.com/vi/ZJTyT5DNIQs/mqdefault.jpg","viewCount":"423","playlistId":"PLEkQk5xrP-tlPw10KGJKagu7zm4Ry2Tge","playlistName":"شرح الإتقان في علوم القرآن","category":"تفسير"},{"id":"WoALDN5T6EY","title":"مقرأة سورة الصافات من آية ٨٣","publishedAt":"2018-09-21T14:44:22Z","duration":"PT17M50S","thumbnail":"https://i.ytimg.com/vi/WoALDN5T6EY/mqdefault.jpg","viewCount":"423","playlistId":"PLEkQk5xrP-tnmTYsyW6xNdyfhPq0Bhrhj","playlistName":"مقرأة الفجر - القُرْآنُ الكَرِيمُ - خَتْمَةُ التَّدَبُّرِ  أ.د. يسري جبر","category":"متنوع"},{"id":"Sf1qvxEmqVk","title":"62- شرح اللؤلؤ والمرجان كتاب الصيام من الباب التاسع والعشرين","publishedAt":"2020-02-10T06:00:03Z","duration":"PT34M39S","thumbnail":"https://i.ytimg.com/vi/Sf1qvxEmqVk/mqdefault.jpg","viewCount":"422","playlistId":"PLEkQk5xrP-tmKNjtYLfhATC37QdIsTMe0","playlistName":"شرح كتاب اللؤلؤ والمرجان فيما اتفق عليه الشيخان إماما المحدثين البخاري ومسلم. أ.د. يسري جبر","category":"حديث"},{"id":"nPdD1_P5ce4","title":"شرح سنن الدارمي كتاب الرقاق من باب ١٠٠","publishedAt":"2019-10-08T11:56:16Z","duration":"PT38M49S","thumbnail":"https://i.ytimg.com/vi/nPdD1_P5ce4/mqdefault.jpg","viewCount":"422","playlistId":"PLEkQk5xrP-tmAg-FuWjY057X_h5NmGmAa","playlistName":"شرح سنن الدارمي - أ.د. يسري جبر (كاملا)","category":"متنوع"},{"id":"-R0IlfovUZ8","title":"شرح صحيح البخاري كتاب المحاربين من أهل الكفر والردة من باب ١٧","publishedAt":"2018-11-30T15:12:29Z","duration":"PT35M39S","thumbnail":"https://i.ytimg.com/vi/-R0IlfovUZ8/mqdefault.jpg","viewCount":"422","playlistId":"PLEkQk5xrP-tlEerGoLa1AFy-2XvQ-sovv","playlistName":"شرح صحيح البخاري - أ.د. يسري جبر (كاملا)","category":"حديث"},{"id":"YLZ8Dn6PJQ4","title":"سورة المائدة آية 67","publishedAt":"2016-11-16T02:10:25Z","duration":"PT17M13S","thumbnail":"https://i.ytimg.com/vi/YLZ8Dn6PJQ4/mqdefault.jpg","viewCount":"422","playlistId":"PLEkQk5xrP-tnmTYsyW6xNdyfhPq0Bhrhj","playlistName":"مقرأة الفجر - القُرْآنُ الكَرِيمُ - خَتْمَةُ التَّدَبُّرِ  أ.د. يسري جبر","category":"متنوع"},{"id":"kVT5DgQ_g0o","title":"مقرأة سورة الطورمن أولها","publishedAt":"2019-02-08T21:35:09Z","duration":"PT13M51S","thumbnail":"https://i.ytimg.com/vi/kVT5DgQ_g0o/mqdefault.jpg","viewCount":"421","playlistId":"PLEkQk5xrP-tnmTYsyW6xNdyfhPq0Bhrhj","playlistName":"مقرأة الفجر - القُرْآنُ الكَرِيمُ - خَتْمَةُ التَّدَبُّرِ  أ.د. يسري جبر","category":"متنوع"},{"id":"oBXVCDjTANg","title":"296- أنواع القسم في القرآن - شرح الإتقان في علوم القرآن","publishedAt":"2025-08-11T09:01:16Z","duration":"PT31M11S","thumbnail":"https://i.ytimg.com/vi/oBXVCDjTANg/mqdefault.jpg","viewCount":"421","playlistId":"PLEkQk5xrP-tlPw10KGJKagu7zm4Ry2Tge","playlistName":"شرح الإتقان في علوم القرآن","category":"تفسير"},{"id":"g1xZJ2NniWQ","title":"شرح البرهان في علوم القرآن - النوع ٤١ - معرفة تقسيره وتأويله","publishedAt":"2020-04-04T07:00:11Z","duration":"PT16M27S","thumbnail":"https://i.ytimg.com/vi/g1xZJ2NniWQ/mqdefault.jpg","viewCount":"421","playlistId":"PLEkQk5xrP-tnW3iBL7HkKziOFCFZbTlf0","playlistName":"شرح البرهان في علوم القرآن - أ.د. يسري جبر","category":"تفسير"},{"id":"iX7gPmBkoVE","title":"87- شرح اللؤلؤ والمرجان كتاب اللعان من أوله","publishedAt":"2020-03-06T06:00:05Z","duration":"PT21M38S","thumbnail":"https://i.ytimg.com/vi/iX7gPmBkoVE/mqdefault.jpg","viewCount":"421","playlistId":"PLEkQk5xrP-tmKNjtYLfhATC37QdIsTMe0","playlistName":"شرح كتاب اللؤلؤ والمرجان فيما اتفق عليه الشيخان إماما المحدثين البخاري ومسلم. أ.د. يسري جبر","category":"حديث"},{"id":"EPcyt77sp9M","title":"الأسلوب الثاني: الحذف(7)\"أقسام الحذف\" النوع الثالث - شرح البرهان في علوم القرآن","publishedAt":"2021-06-20T06:09:31Z","duration":"PT32M59S","thumbnail":"https://i.ytimg.com/vi/EPcyt77sp9M/mqdefault.jpg","viewCount":"421","playlistId":"PLEkQk5xrP-tnW3iBL7HkKziOFCFZbTlf0","playlistName":"شرح البرهان في علوم القرآن - أ.د. يسري جبر","category":"تفسير"},{"id":"CyYO_mymJfw","title":"104- شرح اللؤلؤ والمرجان كتاب القسامة من الباب الخامس","publishedAt":"2020-03-24T07:00:03Z","duration":"PT22M38S","thumbnail":"https://i.ytimg.com/vi/CyYO_mymJfw/mqdefault.jpg","viewCount":"421","playlistId":"PLEkQk5xrP-tmKNjtYLfhATC37QdIsTMe0","playlistName":"شرح كتاب اللؤلؤ والمرجان فيما اتفق عليه الشيخان إماما المحدثين البخاري ومسلم. أ.د. يسري جبر","category":"حديث"},{"id":"lARtl2O1Sck","title":"101- شرح اللؤلؤ والمرجان كتاب الأيمان من أوله","publishedAt":"2020-03-20T06:30:04Z","duration":"PT22M24S","thumbnail":"https://i.ytimg.com/vi/lARtl2O1Sck/mqdefault.jpg","viewCount":"421","playlistId":"PLEkQk5xrP-tmKNjtYLfhATC37QdIsTMe0","playlistName":"شرح كتاب اللؤلؤ والمرجان فيما اتفق عليه الشيخان إماما المحدثين البخاري ومسلم. أ.د. يسري جبر","category":"حديث"},{"id":"qRSP_1TVZks","title":"شرح البرهان في علوم القرآن - النوع ٢٤ - معرفة الوقف والابتداء ٣","publishedAt":"2020-01-04T08:16:07Z","duration":"PT18M56S","thumbnail":"https://i.ytimg.com/vi/qRSP_1TVZks/mqdefault.jpg","viewCount":"421","playlistId":"PLEkQk5xrP-tnW3iBL7HkKziOFCFZbTlf0","playlistName":"شرح البرهان في علوم القرآن - أ.د. يسري جبر","category":"تفسير"},{"id":"XQq2-t2N7Ww","title":"شرح صحيح الإمام البخاري رضي الله تعالى عنه - كتابُ التَّمَنِّي     أ.د. يسري جبر","publishedAt":"2019-10-13T08:04:19Z","duration":"PT25M36S","thumbnail":"https://i.ytimg.com/vi/XQq2-t2N7Ww/mqdefault.jpg","viewCount":"420","playlistId":"PLEkQk5xrP-tmJuzaj4GWRenFoFx9gdbFX","playlistName":"شرح كتاب صحيح الإمام البخاري رضي الله تعالى عنه   أ.د. يسرى جبر","category":"حديث"},{"id":"X30uhbyaUB8","title":"624- (مَن) - شرح البرهان في علوم القرآن","publishedAt":"2022-12-20T05:00:22Z","duration":"PT42M10S","thumbnail":"https://i.ytimg.com/vi/X30uhbyaUB8/mqdefault.jpg","viewCount":"420","playlistId":"PLEkQk5xrP-tnW3iBL7HkKziOFCFZbTlf0","playlistName":"شرح البرهان في علوم القرآن - أ.د. يسري جبر","category":"تفسير"},{"id":"gjW0xlvRHYw","title":"شرح البرهان في علوم القرآن - النوع ٤٠ - في بيان معاضدة السنة للقرآن ٢","publishedAt":"2020-04-01T07:00:12Z","duration":"PT36M2S","thumbnail":"https://i.ytimg.com/vi/gjW0xlvRHYw/mqdefault.jpg","viewCount":"420","playlistId":"PLEkQk5xrP-tnW3iBL7HkKziOFCFZbTlf0","playlistName":"شرح البرهان في علوم القرآن - أ.د. يسري جبر","category":"تفسير"},{"id":"2k6UyRDHSBA","title":"47- شرح اللؤلؤ والمرجان كتاب صلاة الكسوف من أوله","publishedAt":"2020-01-27T06:17:59Z","duration":"PT26M36S","thumbnail":"https://i.ytimg.com/vi/2k6UyRDHSBA/mqdefault.jpg","viewCount":"420","playlistId":"PLEkQk5xrP-tmKNjtYLfhATC37QdIsTMe0","playlistName":"شرح كتاب اللؤلؤ والمرجان فيما اتفق عليه الشيخان إماما المحدثين البخاري ومسلم. أ.د. يسري جبر","category":"حديث"},{"id":"ZyuEAdpyK1w","title":"128- معنى (أن) - شرح الإتقان في علوم القرآن","publishedAt":"2023-07-19T05:00:14Z","duration":"PT25M57S","thumbnail":"https://i.ytimg.com/vi/ZyuEAdpyK1w/mqdefault.jpg","viewCount":"420","playlistId":"PLEkQk5xrP-tlPw10KGJKagu7zm4Ry2Tge","playlistName":"شرح الإتقان في علوم القرآن","category":"تفسير"},{"id":"a--roHp8grs","title":"قراءة و تفسيرالقرآن (من آية ١٧١ سورة آل عمران)","publishedAt":"2016-08-03T08:00:33Z","duration":"PT14M44S","thumbnail":"https://i.ytimg.com/vi/a--roHp8grs/mqdefault.jpg","viewCount":"420","playlistId":"PLEkQk5xrP-tnmTYsyW6xNdyfhPq0Bhrhj","playlistName":"مقرأة الفجر - القُرْآنُ الكَرِيمُ - خَتْمَةُ التَّدَبُّرِ  أ.د. يسري جبر","category":"متنوع"},{"id":"H5NXIFze9uw","title":"شرح سنن الدارمي كتاب الرقاق من باب ٣٤","publishedAt":"2019-10-02T12:38:27Z","duration":"PT31M38S","thumbnail":"https://i.ytimg.com/vi/H5NXIFze9uw/mqdefault.jpg","viewCount":"419","playlistId":"PLEkQk5xrP-tmAg-FuWjY057X_h5NmGmAa","playlistName":"شرح سنن الدارمي - أ.د. يسري جبر (كاملا)","category":"متنوع"},{"id":"sQhdPueV7cs","title":"مجلس الإحتفال بمولد النبيَّين الكريمَين سيدنا محمد وسيدنا عيسى -عليهما الصلاة والسلام- ١٤٣٧ هـ","publishedAt":"2016-01-01T13:00:29Z","duration":"PT59M15S","thumbnail":"https://i.ytimg.com/vi/sQhdPueV7cs/mqdefault.jpg","viewCount":"419","playlistId":"PLEkQk5xrP-tmYN0y2PQUkx881GYBxD16g","playlistName":"درس الجمعة","category":"خطب"},{"id":"D-sAkohRgo8","title":"( 96 ) حدِيثُ النَهْىِ عَنِ التَصوِيِرِ","publishedAt":"2015-10-06T17:44:04Z","duration":"PT35M28S","thumbnail":"https://i.ytimg.com/vi/D-sAkohRgo8/mqdefault.jpg","viewCount":"419","playlistId":"PLEkQk5xrP-tnl7vb7KeAoPd5ZlqKKW8KV","playlistName":"شرح كتاب بهجة النفوس أ.د . يسرى جبر","category":"متنوع"}],"total":7670,"page":248,"pageSize":24,"totalPages":320}