{"items":[{"id":"WjB6tZkpCHw","title":"سنن الصيام مع د. يسري جبر | اعرف نبيك في رمضان","publishedAt":"2016-06-13T22:07:27Z","duration":"PT8M1S","thumbnail":"https://i.ytimg.com/vi/WjB6tZkpCHw/mqdefault.jpg","viewCount":"1088","playlistId":"PLEkQk5xrP-tmhJ_gpAAFyOpEsHp0_VAJ-","playlistName":"برنامج اعرف نبيك في رمضان","category":"متنوع"},{"id":"fro7zIG9UJA","title":"سورة الأعراف من أولها","publishedAt":"2017-02-02T07:31:55Z","duration":"PT29M45S","thumbnail":"https://i.ytimg.com/vi/fro7zIG9UJA/mqdefault.jpg","viewCount":"1087","playlistId":"PLEkQk5xrP-tnmTYsyW6xNdyfhPq0Bhrhj","playlistName":"مقرأة الفجر - القُرْآنُ الكَرِيمُ - خَتْمَةُ التَّدَبُّرِ  أ.د. يسري جبر","category":"متنوع"},{"id":"NMu0jr8rZ7E","title":"30- النَّوْعُ السادس عشر: تكملة ما جاء في كيفية إنزاله - شرح الإتقان في علوم القرآن","publishedAt":"2023-02-28T04:59:42Z","duration":"PT29M36S","thumbnail":"https://i.ytimg.com/vi/NMu0jr8rZ7E/mqdefault.jpg","viewCount":"1086","playlistId":"PLEkQk5xrP-tlPw10KGJKagu7zm4Ry2Tge","playlistName":"شرح الإتقان في علوم القرآن","category":"تفسير"},{"id":"I7hqqeDRliM","title":"الرحمة بالإنسان والحيوان","publishedAt":"2020-04-16T14:12:29Z","duration":"PT50M32S","thumbnail":"https://i.ytimg.com/vi/I7hqqeDRliM/mqdefault.jpg","viewCount":"1085","playlistId":"PLEkQk5xrP-tlhpr-bJBjCsJw3j1S-LD9B","playlistName":"كتابُ الأدَبِ - المجلس الأول  أ.د. يسري جبر","category":"تصوف"},{"id":"0IIFl-cGo5s","title":"16- شرح اللؤلؤ والمرجان كتاب الإيمان من باب ٨٢","publishedAt":"2020-01-02T09:39:00Z","duration":"PT34M25S","thumbnail":"https://i.ytimg.com/vi/0IIFl-cGo5s/mqdefault.jpg","viewCount":"1085","playlistId":"PLEkQk5xrP-tmKNjtYLfhATC37QdIsTMe0","playlistName":"شرح كتاب اللؤلؤ والمرجان فيما اتفق عليه الشيخان إماما المحدثين البخاري ومسلم. أ.د. يسري جبر","category":"حديث"},{"id":"vvetyQQ_9qU","title":"قابلت مسلمين اسلموا بعد 60 سنة من الكفر!!","publishedAt":"2025-11-24T17:59:56Z","duration":"PT9M26S","thumbnail":"https://i.ytimg.com/vi/vvetyQQ_9qU/mqdefault.jpg","viewCount":"1082","playlistId":"PLEkQk5xrP-tlArtGpeLWaqNM7h7IDeAVC","playlistName":"خطب الجمعة أ.د. يسري جبر","category":"خطب"},{"id":"QAy9qvNTUvo","title":"291- استحباب القميص - شرح دليل الفالحين","publishedAt":"2022-08-27T18:15:03Z","duration":"PT52M41S","thumbnail":"https://i.ytimg.com/vi/QAy9qvNTUvo/mqdefault.jpg","viewCount":"1082","playlistId":"PLEkQk5xrP-tkc9DXvSLguqX5-FYp6ASR4","playlistName":"دليل الفالحين لطرق رياض الصالحين","category":"متنوع"},{"id":"TxRQLrkZ8MY","title":"تسبق أنوارُ الحكماء أقوالَهم ..  فحيث صار التنوير، وصل التعبير.","publishedAt":"2017-06-14T17:52:43Z","duration":"PT12M30S","thumbnail":"https://i.ytimg.com/vi/TxRQLrkZ8MY/mqdefault.jpg","viewCount":"1082","playlistId":"PLEkQk5xrP-tkI_meE148wc7V7XHlB0WPb","playlistName":"من الحكم العطائية  د. يسري جبر","category":"متنوع"},{"id":"U3d7afVg1gM","title":"8- إخلاص النية، وحكم الاغتسال في الماء الدائم، وحكم استعمال الرجل فضل وضوء المرأة، وآداب الاستنجاء.","publishedAt":"2023-01-28T09:00:13Z","duration":"PT49M24S","thumbnail":"https://i.ytimg.com/vi/U3d7afVg1gM/mqdefault.jpg","viewCount":"1079","playlistId":"PLEkQk5xrP-tk_MCBZ706ORCw6gFtFyaGj","playlistName":"شرح سنن الإمام الدارقطني","category":"متنوع"},{"id":"B3vvX5Cx-O8","title":"صلاة العيد وصلاة الجمعة  د. يسري جبر","publishedAt":"2017-08-29T20:31:01Z","duration":"PT1M24S","thumbnail":"https://i.ytimg.com/vi/B3vvX5Cx-O8/mqdefault.jpg","viewCount":"1079","playlistId":"PLEkQk5xrP-tm8ZIu74nTOZN9KJUJu416J","playlistName":"مقاطع مُهمَّة (يُسريَّات) أ.د. يسري جبر","category":"متنوع"},{"id":"bPpjcpj2Zp8","title":"46- عدد سور القرآن وآياته وكلماته وحروفه  - شرح الإتقان في علوم القرآن","publishedAt":"2023-04-01T05:00:12Z","duration":"PT24M43S","thumbnail":"https://i.ytimg.com/vi/bPpjcpj2Zp8/mqdefault.jpg","viewCount":"1078","playlistId":"PLEkQk5xrP-tlPw10KGJKagu7zm4Ry2Tge","playlistName":"شرح الإتقان في علوم القرآن","category":"تفسير"},{"id":"O4tAHZxBUMQ","title":"رمضانيات  د. يسري جبر","publishedAt":"2018-05-19T15:48:04Z","duration":"PT36M5S","thumbnail":"https://i.ytimg.com/vi/O4tAHZxBUMQ/mqdefault.jpg","viewCount":"1078","playlistId":"PLEkQk5xrP-tlArtGpeLWaqNM7h7IDeAVC","playlistName":"خطب الجمعة أ.د. يسري جبر","category":"خطب"},{"id":"JooOq6Y92Zo","title":"332-  أبشِرْ بنورَينِ أوتيتَهما لم يؤتَهُما نبيٌّ قبلكَ - شرح دليل الفالحين","publishedAt":"2022-11-11T09:00:10Z","duration":"PT30M15S","thumbnail":"https://i.ytimg.com/vi/JooOq6Y92Zo/mqdefault.jpg","viewCount":"1077","playlistId":"PLEkQk5xrP-tkc9DXvSLguqX5-FYp6ASR4","playlistName":"دليل الفالحين لطرق رياض الصالحين","category":"متنوع"},{"id":"83Y0D5hI3kg","title":"37- أحكام البيوع وغيرها من المعاملات - شرح كتاب فتح القريب المجيب","publishedAt":"2021-11-09T06:09:36Z","duration":"PT45M16S","thumbnail":"https://i.ytimg.com/vi/83Y0D5hI3kg/mqdefault.jpg","viewCount":"1076","playlistId":"PLEkQk5xrP-tkXuPs-0sXfWQDWzBKmcjWN","playlistName":"\"فتح القريب المجيب في شرح ألفاظ التقريب\"( فقه شافعيّ)  أ. د. يسري جبر","category":"فقه"},{"id":"_HntS0-LZb8","title":"شرح صحيح البخاري - كتاب الشفعة وكتاب الإجارة من أوله","publishedAt":"2017-05-07T12:00:08Z","duration":"PT37M1S","thumbnail":"https://i.ytimg.com/vi/_HntS0-LZb8/mqdefault.jpg","viewCount":"1076","playlistId":"PLEkQk5xrP-tlEerGoLa1AFy-2XvQ-sovv","playlistName":"شرح صحيح البخاري - أ.د. يسري جبر (كاملا)","category":"حديث"},{"id":"Gn21xJClR4s","title":"شرح البرهان في علوم القرآن - النوع ٣ - ائتلاف الفواصل مع ما يدل عليه الكلام ٢","publishedAt":"2019-09-03T08:35:17Z","duration":"PT31M39S","thumbnail":"https://i.ytimg.com/vi/Gn21xJClR4s/mqdefault.jpg","viewCount":"1075","playlistId":"PLEkQk5xrP-tnW3iBL7HkKziOFCFZbTlf0","playlistName":"شرح البرهان في علوم القرآن - أ.د. يسري جبر","category":"تفسير"},{"id":"8GDnS4K2690","title":"العلمُ النافعُ هو الذي ينبسطُ في الصدرِ شُعَاعُه، وينكشِفُ به عن القلبِ قِنَاعُه.","publishedAt":"2018-01-16T20:03:01Z","duration":"PT8M19S","thumbnail":"https://i.ytimg.com/vi/8GDnS4K2690/mqdefault.jpg","viewCount":"1074","playlistId":"PLEkQk5xrP-tkI_meE148wc7V7XHlB0WPb","playlistName":"من الحكم العطائية  د. يسري جبر","category":"متنوع"},{"id":"C-mIgIa6NQk","title":"كيفية إزالة النجاسة ومتى يطهر الطعام المتنجس؟ | أ.د. يسري جبر","publishedAt":"2022-04-05T15:30:02Z","duration":"PT31M51S","thumbnail":"https://i.ytimg.com/vi/C-mIgIa6NQk/mqdefault.jpg","viewCount":"1072","playlistId":"PLEkQk5xrP-tnl7vb7KeAoPd5ZlqKKW8KV","playlistName":"شرح كتاب بهجة النفوس أ.د . يسرى جبر","category":"متنوع"},{"id":"d_gXy0jXICs","title":"151- لَا يَدْخُلُ الجَنَّةَ قَاطِعٌ - شرح دليل الفالحين","publishedAt":"2021-10-30T19:27:09Z","duration":"PT41M55S","thumbnail":"https://i.ytimg.com/vi/d_gXy0jXICs/mqdefault.jpg","viewCount":"1072","playlistId":"PLEkQk5xrP-tkc9DXvSLguqX5-FYp6ASR4","playlistName":"دليل الفالحين لطرق رياض الصالحين","category":"متنوع"},{"id":"YEqZK5ghh50","title":"(16) سيدنا أبو الحسين أحمد بن أبي الحواري رضي الله عنه   د. يسري جبر","publishedAt":"2018-04-18T19:10:25Z","duration":"PT6M22S","thumbnail":"https://i.ytimg.com/vi/YEqZK5ghh50/mqdefault.jpg","viewCount":"1072","playlistId":"PLEkQk5xrP-tmmI87XkWepRdTpisz2Lfgr","playlistName":"باب في ذكر مشايخ هذه الطريقة من شرح كتاب الرسالة القشيرية","category":"تصوف"},{"id":"NJlIPRLOQSQ","title":"شرح صحيح البخاري كتاب الأذان من باب ٦١","publishedAt":"2016-11-20T19:19:23Z","duration":"PT41M57S","thumbnail":"https://i.ytimg.com/vi/NJlIPRLOQSQ/mqdefault.jpg","viewCount":"1072","playlistId":"PLEkQk5xrP-tlEerGoLa1AFy-2XvQ-sovv","playlistName":"شرح صحيح البخاري - أ.د. يسري جبر (كاملا)","category":"حديث"},{"id":"H23FCoJORIw","title":"144- \"…مَن أحَقُّ النَّاسِ بحُسْنِ صَحَابَتِي؟ قالَ: أُمُّكَ، قال: ثُمَّ مَنْ؟…\"- شرح دليل الفالحين","publishedAt":"2021-10-20T05:58:09Z","duration":"PT36M31S","thumbnail":"https://i.ytimg.com/vi/H23FCoJORIw/mqdefault.jpg","viewCount":"1071","playlistId":"PLEkQk5xrP-tkc9DXvSLguqX5-FYp6ASR4","playlistName":"دليل الفالحين لطرق رياض الصالحين","category":"متنوع"},{"id":"pfHUoK67cEM","title":"65- المبادرة إلى الخيرات\"أَخَذَ سَيْفًا يَومَ أُحُدٍ فَقالَ:…\"الحديث (5) شرح دليل الفالحين","publishedAt":"2021-05-22T20:10:49Z","duration":"PT29M50S","thumbnail":"https://i.ytimg.com/vi/pfHUoK67cEM/mqdefault.jpg","viewCount":"1071","playlistId":"PLEkQk5xrP-tkc9DXvSLguqX5-FYp6ASR4","playlistName":"دليل الفالحين لطرق رياض الصالحين","category":"متنوع"},{"id":"PCT5T-LdJw0","title":"بِدَعُ التَفَاسِيرِ - المجلس العاشر.  أ.د. يسري جبر","publishedAt":"2020-01-25T18:08:35Z","duration":"PT13M37S","thumbnail":"https://i.ytimg.com/vi/PCT5T-LdJw0/mqdefault.jpg","viewCount":"1071","playlistId":"PLEkQk5xrP-tkSGrPLMt1BEmJ54cGWYgtp","playlistName":"كتابُ بِدَعِ التَفَاسِيرِ - أ.د. يسري جبر","category":"متنوع"}],"total":7675,"page":147,"pageSize":24,"totalPages":320}