{"items":[{"id":"KqvHQXrACvk","title":"أسماءُ النَّبيّ ﷺ 3","publishedAt":"2020-11-12T20:54:54Z","duration":"PT25M12S","thumbnail":"https://i.ytimg.com/vi/KqvHQXrACvk/mqdefault.jpg","viewCount":"1209","playlistId":"PLEkQk5xrP-tm8ZIu74nTOZN9KJUJu416J","playlistName":"مقاطع مُهمَّة (يُسريَّات) أ.د. يسري جبر","category":"متنوع"},{"id":"-2z3z0NGHu8","title":"19- تابع ركعات الفرائض  - شرح كتاب فتح القريب المجيب","publishedAt":"2021-10-11T10:53:16Z","duration":"PT1H15M7S","thumbnail":"https://i.ytimg.com/vi/-2z3z0NGHu8/mqdefault.jpg","viewCount":"1208","playlistId":"PLEkQk5xrP-tkXuPs-0sXfWQDWzBKmcjWN","playlistName":"\"فتح القريب المجيب في شرح ألفاظ التقريب\"( فقه شافعيّ)  أ. د. يسري جبر","category":"فقه"},{"id":"S1F0yZJ6iqA","title":"شرح صحيح البخاري كتاب الأذان من باب ٩","publishedAt":"2016-11-11T11:08:24Z","duration":"PT36M9S","thumbnail":"https://i.ytimg.com/vi/S1F0yZJ6iqA/mqdefault.jpg","viewCount":"1207","playlistId":"PLEkQk5xrP-tlEerGoLa1AFy-2XvQ-sovv","playlistName":"شرح صحيح البخاري - أ.د. يسري جبر (كاملا)","category":"حديث"},{"id":"b1JrB_h8NGI","title":"158- الاختلاف قد يكون سببا في حرمان الخير - شرح مسند الإمام أحمد رضي الله تعالى عنه","publishedAt":"2025-04-09T10:00:51Z","duration":"PT12M9S","thumbnail":"https://i.ytimg.com/vi/b1JrB_h8NGI/mqdefault.jpg","viewCount":"1206","playlistId":"PLEkQk5xrP-tkKprIuGrSdEuBSMsyg5We1","playlistName":"شرح مسند الإمام أحمد بن حنبل","category":"متنوع"},{"id":"tfPpaBhy-lM","title":"128- فضائل أم المؤمنين السيدة عائشة رضي اللهُ تعالى عنها وأرضاها","publishedAt":"2024-10-13T09:05:00Z","duration":"PT29M24S","thumbnail":"https://i.ytimg.com/vi/tfPpaBhy-lM/mqdefault.jpg","viewCount":"1205","playlistId":"PLEkQk5xrP-tkKprIuGrSdEuBSMsyg5We1","playlistName":"شرح مسند الإمام أحمد بن حنبل","category":"متنوع"},{"id":"usWW9h4Rn4k","title":"22- النَّوعُ التاسع: معرفة سبب النزول (3) المسألة الثالثة - الجزء الأول - شرح الإتقان في علوم القرآن","publishedAt":"2023-02-12T05:00:26Z","duration":"PT36M12S","thumbnail":"https://i.ytimg.com/vi/usWW9h4Rn4k/mqdefault.jpg","viewCount":"1203","playlistId":"PLEkQk5xrP-tlPw10KGJKagu7zm4Ry2Tge","playlistName":"شرح الإتقان في علوم القرآن","category":"تفسير"},{"id":"xIe0VWe0i6o","title":"33- باب التوبة: الحديث العاشر - شرح دليل الفالحين لطُرُق رياض الصالحين","publishedAt":"2021-03-22T20:43:11Z","duration":"PT31M10S","thumbnail":"https://i.ytimg.com/vi/xIe0VWe0i6o/mqdefault.jpg","viewCount":"1202","playlistId":"PLEkQk5xrP-tkc9DXvSLguqX5-FYp6ASR4","playlistName":"دليل الفالحين لطرق رياض الصالحين","category":"متنوع"},{"id":"qvn2amnc0SI","title":"حول تربية الأولاد في الإسلام","publishedAt":"2017-10-14T10:09:31Z","duration":"PT41M19S","thumbnail":"https://i.ytimg.com/vi/qvn2amnc0SI/mqdefault.jpg","viewCount":"1202","playlistId":"PLEkQk5xrP-tlArtGpeLWaqNM7h7IDeAVC","playlistName":"خطب الجمعة أ.د. يسري جبر","category":"خطب"},{"id":"XYphWHvHBvs","title":"224- جوازُ الأخْذِ من غير مَسْألةٍ ولا تطلُّع إليه - شرح دليل الفالحين","publishedAt":"2022-03-31T07:00:52Z","duration":"PT50M34S","thumbnail":"https://i.ytimg.com/vi/XYphWHvHBvs/mqdefault.jpg","viewCount":"1201","playlistId":"PLEkQk5xrP-tkc9DXvSLguqX5-FYp6ASR4","playlistName":"دليل الفالحين لطرق رياض الصالحين","category":"متنوع"},{"id":"NQ55dllsx5E","title":"الاستفهام الإنكاري","publishedAt":"2020-11-17T06:26:40Z","duration":"PT14M39S","thumbnail":"https://i.ytimg.com/vi/NQ55dllsx5E/mqdefault.jpg","viewCount":"1201","playlistId":"PLEkQk5xrP-tnW3iBL7HkKziOFCFZbTlf0","playlistName":"شرح البرهان في علوم القرآن - أ.د. يسري جبر","category":"تفسير"},{"id":"mMvgoq6WETY","title":"22- شرح مسند الإمام الشافعيّ رضي الله عنه - الحديث (472)","publishedAt":"2021-09-27T09:29:48Z","duration":"PT54M59S","thumbnail":"https://i.ytimg.com/vi/mMvgoq6WETY/mqdefault.jpg","viewCount":"1200","playlistId":"PLEkQk5xrP-tlDtaqY0qhNXAiZ19gaGzKI","playlistName":"شرح مسند الإمام محمد بن إدريس الشافعيّ رضي الله تعالى عنه","category":"فقه"},{"id":"KVg1O8kM6ds","title":"مقرأة سورة الذاريات من آية ٤٧","publishedAt":"2019-02-07T10:34:49Z","duration":"PT16M12S","thumbnail":"https://i.ytimg.com/vi/KVg1O8kM6ds/mqdefault.jpg","viewCount":"1200","playlistId":"PLEkQk5xrP-tnmTYsyW6xNdyfhPq0Bhrhj","playlistName":"مقرأة الفجر - القُرْآنُ الكَرِيمُ - خَتْمَةُ التَّدَبُّرِ  أ.د. يسري جبر","category":"متنوع"},{"id":"c59fuCwHKt4","title":"55- ما معنى التأويل وما أنواعه؟ | شرح مختصر الفتوحات المكية","publishedAt":"2025-11-22T19:45:03Z","duration":"PT40M19S","thumbnail":"https://i.ytimg.com/vi/c59fuCwHKt4/mqdefault.jpg","viewCount":"1198","playlistId":"PLEkQk5xrP-tnpkdZki6rPTtMak1bnI5g-","playlistName":"شرح كتاب مختصر الفتوحات المكية المسمى لواقح الأنوار القدسية","category":"متنوع"},{"id":"25UjnIB717Y","title":"بِدَعُ التَفَاسِيرِ - المجلس السابع .  أ.د. يسري جبر","publishedAt":"2019-10-20T19:49:20Z","duration":"PT14M1S","thumbnail":"https://i.ytimg.com/vi/25UjnIB717Y/mqdefault.jpg","viewCount":"1197","playlistId":"PLEkQk5xrP-tkSGrPLMt1BEmJ54cGWYgtp","playlistName":"كتابُ بِدَعِ التَفَاسِيرِ - أ.د. يسري جبر","category":"متنوع"},{"id":"4aIH8XByiSc","title":"شرح البرهان في علوم القرآن - النوع ٣ - فصل في ضابط الفواصل","publishedAt":"2019-09-06T18:35:41Z","duration":"PT34M11S","thumbnail":"https://i.ytimg.com/vi/4aIH8XByiSc/mqdefault.jpg","viewCount":"1196","playlistId":"PLEkQk5xrP-tnW3iBL7HkKziOFCFZbTlf0","playlistName":"شرح البرهان في علوم القرآن - أ.د. يسري جبر","category":"تفسير"},{"id":"weUv6xaf2EU","title":"شرح كتاب منازل السائرين للإمام الهروى المجلس الثالث والأربعون قسم الأَحوال باب المحبّة وباب الغَيْرة","publishedAt":"2015-04-07T04:18:21Z","duration":"PT1H9M49S","thumbnail":"https://i.ytimg.com/vi/weUv6xaf2EU/mqdefault.jpg","viewCount":"1195","playlistId":"PLEkQk5xrP-tnLYi_5_tSRVBwqcs7ISV7Y","playlistName":"شرح كتاب منازل السائرين للإمام الهروي","category":"متنوع"},{"id":"4GOqQfFGPMw","title":"82- نُبْذة عن سيدنا سعيد بن زيد بن عمرو بن نُفيل أحد العشرة المبشرين بالجنة رضي اللهُ تعالى عنه","publishedAt":"2024-02-28T09:32:23Z","duration":"PT21M58S","thumbnail":"https://i.ytimg.com/vi/4GOqQfFGPMw/mqdefault.jpg","viewCount":"1195","playlistId":"PLEkQk5xrP-tkKprIuGrSdEuBSMsyg5We1","playlistName":"شرح مسند الإمام أحمد بن حنبل","category":"متنوع"},{"id":"wxFDxsr8k7k","title":"معرفة النزول","publishedAt":"2020-09-13T05:45:10Z","duration":"PT24M35S","thumbnail":"https://i.ytimg.com/vi/wxFDxsr8k7k/mqdefault.jpg","viewCount":"1195","playlistId":"PLEkQk5xrP-tnW3iBL7HkKziOFCFZbTlf0","playlistName":"شرح البرهان في علوم القرآن - أ.د. يسري جبر","category":"تفسير"},{"id":"SjXHmEfCwoU","title":"شرح كتاب منازل السائرين للإمام الهروى المجلس الخامس والأربعون قسم الأَحوال باب العطش وباب الوجد","publishedAt":"2015-04-20T12:15:33Z","duration":"PT1H6M31S","thumbnail":"https://i.ytimg.com/vi/SjXHmEfCwoU/mqdefault.jpg","viewCount":"1193","playlistId":"PLEkQk5xrP-tnLYi_5_tSRVBwqcs7ISV7Y","playlistName":"شرح كتاب منازل السائرين للإمام الهروي","category":"متنوع"},{"id":"AbG5EGdS6RY","title":"شرح البرهان في علوم القرآن - النوع ٤ - في جمع الوجوه والنظائر","publishedAt":"2019-09-08T10:46:28Z","duration":"PT19M6S","thumbnail":"https://i.ytimg.com/vi/AbG5EGdS6RY/mqdefault.jpg","viewCount":"1193","playlistId":"PLEkQk5xrP-tnW3iBL7HkKziOFCFZbTlf0","playlistName":"شرح البرهان في علوم القرآن - أ.د. يسري جبر","category":"تفسير"},{"id":"5Ia_Dhcpr5Q","title":"75- \"يُصْبِحُ على كُلِّ سُلامَى من أحدكُمْ صدَقَةٌ، فكُلُّ تَسْبِيحَةٍ صدَقَةٌ، …\" شرح دليل الفالحين","publishedAt":"2021-06-08T07:01:06Z","duration":"PT35M13S","thumbnail":"https://i.ytimg.com/vi/5Ia_Dhcpr5Q/mqdefault.jpg","viewCount":"1192","playlistId":"PLEkQk5xrP-tkc9DXvSLguqX5-FYp6ASR4","playlistName":"دليل الفالحين لطرق رياض الصالحين","category":"متنوع"},{"id":"5Hp8nVZ8Qrk","title":"434- تحريم الكذب - شرح دليل الفالحين","publishedAt":"2023-05-03T08:59:00Z","duration":"PT22M2S","thumbnail":"https://i.ytimg.com/vi/5Hp8nVZ8Qrk/mqdefault.jpg","viewCount":"1192","playlistId":"PLEkQk5xrP-tkc9DXvSLguqX5-FYp6ASR4","playlistName":"دليل الفالحين لطرق رياض الصالحين","category":"متنوع"},{"id":"QkZVa75skdA","title":"اتق الله حيثما كنت   د. يسري جبر","publishedAt":"2017-07-09T19:11:41Z","duration":"PT42M36S","thumbnail":"https://i.ytimg.com/vi/QkZVa75skdA/mqdefault.jpg","viewCount":"1192","playlistId":"PLEkQk5xrP-tlArtGpeLWaqNM7h7IDeAVC","playlistName":"خطب الجمعة أ.د. يسري جبر","category":"خطب"},{"id":"qLj8_AGU5NQ","title":"176- \"يُؤْتَى بجَهَنَّمَ يَومَئذٍ لها سَبْعُونَ ألْفَ زِِمَامٍ…\" - شرح دليل الفالحين","publishedAt":"2021-12-29T20:24:02Z","duration":"PT23M41S","thumbnail":"https://i.ytimg.com/vi/qLj8_AGU5NQ/mqdefault.jpg","viewCount":"1191","playlistId":"PLEkQk5xrP-tkc9DXvSLguqX5-FYp6ASR4","playlistName":"دليل الفالحين لطرق رياض الصالحين","category":"متنوع"}],"total":7670,"page":139,"pageSize":24,"totalPages":320}