{"items":[{"id":"nQ623bZ2WCA","title":"شرح البرهان في علوم القرآن - النوع ١١ - القول في القراءات السبع ٣","publishedAt":"2019-10-23T10:44:38Z","duration":"PT11M11S","thumbnail":"https://i.ytimg.com/vi/nQ623bZ2WCA/mqdefault.jpg","viewCount":"592","playlistId":"PLEkQk5xrP-tnW3iBL7HkKziOFCFZbTlf0","playlistName":"شرح البرهان في علوم القرآن - أ.د. يسري جبر","category":"تفسير"},{"id":"7NkqtKAf-DY","title":"شرح صحيح البخاري كتاب الأيمان والنذور من أوله","publishedAt":"2018-11-10T14:25:23Z","duration":"PT32M55S","thumbnail":"https://i.ytimg.com/vi/7NkqtKAf-DY/mqdefault.jpg","viewCount":"592","playlistId":"PLEkQk5xrP-tlEerGoLa1AFy-2XvQ-sovv","playlistName":"شرح صحيح البخاري - أ.د. يسري جبر (كاملا)","category":"حديث"},{"id":"wRGQliOb7PA","title":"شرح صحيح البخاري كتاب النكاح من باب ١٦","publishedAt":"2018-05-21T14:36:12Z","duration":"PT36M32S","thumbnail":"https://i.ytimg.com/vi/wRGQliOb7PA/mqdefault.jpg","viewCount":"592","playlistId":"PLEkQk5xrP-tlEerGoLa1AFy-2XvQ-sovv","playlistName":"شرح صحيح البخاري - أ.د. يسري جبر (كاملا)","category":"حديث"},{"id":"KGi98UGcKV8","title":"شرح صحيح البخاري كتاب النكاح من باب ١٨","publishedAt":"2018-05-20T23:13:58Z","duration":"PT44M15S","thumbnail":"https://i.ytimg.com/vi/KGi98UGcKV8/mqdefault.jpg","viewCount":"592","playlistId":"PLEkQk5xrP-tlEerGoLa1AFy-2XvQ-sovv","playlistName":"شرح صحيح البخاري - أ.د. يسري جبر (كاملا)","category":"حديث"},{"id":"gf5GUX8A1tM","title":"شرح صحيح البخاري -  كتاب المغازي تكملة باب ١٢ المجلس الثاني","publishedAt":"2017-12-27T13:04:06Z","duration":"PT33M35S","thumbnail":"https://i.ytimg.com/vi/gf5GUX8A1tM/mqdefault.jpg","viewCount":"592","playlistId":"PLEkQk5xrP-tlEerGoLa1AFy-2XvQ-sovv","playlistName":"شرح صحيح البخاري - أ.د. يسري جبر (كاملا)","category":"حديث"},{"id":"rwT2PQ8dqcM","title":"شرح صحيح البخاري - كتاب المغازي من باب ٥٠","publishedAt":"2018-02-18T20:57:11Z","duration":"PT26M56S","thumbnail":"https://i.ytimg.com/vi/rwT2PQ8dqcM/mqdefault.jpg","viewCount":"592","playlistId":"PLEkQk5xrP-tlEerGoLa1AFy-2XvQ-sovv","playlistName":"شرح صحيح البخاري - أ.د. يسري جبر (كاملا)","category":"حديث"},{"id":"QjwKSezIfj4","title":"‎شرح صحيح الإمام البخاري رضي الله تعالى عنه - كتابُ التوحيد.","publishedAt":"2020-02-23T14:58:45Z","duration":"PT48M42S","thumbnail":"https://i.ytimg.com/vi/QjwKSezIfj4/mqdefault.jpg","viewCount":"592","playlistId":"PLEkQk5xrP-tmJuzaj4GWRenFoFx9gdbFX","playlistName":"شرح كتاب صحيح الإمام البخاري رضي الله تعالى عنه   أ.د. يسرى جبر","category":"حديث"},{"id":"nUCqR76_Q-I","title":"الإعراض عن صريح الحُكْم - شرح البرهان في علوم القرآن","publishedAt":"2022-01-22T20:33:08Z","duration":"PT8M9S","thumbnail":"https://i.ytimg.com/vi/nUCqR76_Q-I/mqdefault.jpg","viewCount":"591","playlistId":"PLEkQk5xrP-tnW3iBL7HkKziOFCFZbTlf0","playlistName":"شرح البرهان في علوم القرآن - أ.د. يسري جبر","category":"تفسير"},{"id":"iMSU6GPfbA8","title":"256- الخبر والإنشاء - شرح الإتقان في علوم القرآن","publishedAt":"2024-09-23T06:31:37Z","duration":"PT32M","thumbnail":"https://i.ytimg.com/vi/iMSU6GPfbA8/mqdefault.jpg","viewCount":"591","playlistId":"PLEkQk5xrP-tlPw10KGJKagu7zm4Ry2Tge","playlistName":"شرح الإتقان في علوم القرآن","category":"تفسير"},{"id":"DafnZToo39k","title":"شرح صحيح البخاري كتاب التفسير فى سورة الاحزاب من باب ٧","publishedAt":"2018-04-15T18:33:31Z","duration":"PT42M27S","thumbnail":"https://i.ytimg.com/vi/DafnZToo39k/mqdefault.jpg","viewCount":"591","playlistId":"PLEkQk5xrP-tlEerGoLa1AFy-2XvQ-sovv","playlistName":"شرح صحيح البخاري - أ.د. يسري جبر (كاملا)","category":"حديث"},{"id":"9DXuB4q3QFY","title":"176- شروط الإعراب (6) تنبيهات - شرح الإتقان في علوم القرآن","publishedAt":"2023-11-29T06:37:40Z","duration":"PT23M2S","thumbnail":"https://i.ytimg.com/vi/9DXuB4q3QFY/mqdefault.jpg","viewCount":"590","playlistId":"PLEkQk5xrP-tlPw10KGJKagu7zm4Ry2Tge","playlistName":"شرح الإتقان في علوم القرآن","category":"تفسير"},{"id":"IdhIhH_wjik","title":"شرح صحيح البخاري - كتاب أحاديث الأنبياء من باب ٣٧","publishedAt":"2017-10-12T20:20:20Z","duration":"PT35M41S","thumbnail":"https://i.ytimg.com/vi/IdhIhH_wjik/mqdefault.jpg","viewCount":"590","playlistId":"PLEkQk5xrP-tlEerGoLa1AFy-2XvQ-sovv","playlistName":"شرح صحيح البخاري - أ.د. يسري جبر (كاملا)","category":"حديث"},{"id":"GVXNbYXbORE","title":"465- حكم الذهاب إلى المسجد لمن أكل ثومًا أو بصلًا أو غيرها ممَّا له رائحة كريهة - شرح دليل الفالحين","publishedAt":"2023-06-03T08:59:00Z","duration":"PT35M19S","thumbnail":"https://i.ytimg.com/vi/GVXNbYXbORE/mqdefault.jpg","viewCount":"590","playlistId":"PLEkQk5xrP-tkc9DXvSLguqX5-FYp6ASR4","playlistName":"دليل الفالحين لطرق رياض الصالحين","category":"متنوع"},{"id":"DwCtpUi397o","title":"كفارة الفطر في رمضان | اعرف نبيك في رمضان","publishedAt":"2016-06-29T19:25:53Z","duration":"PT8M24S","thumbnail":"https://i.ytimg.com/vi/DwCtpUi397o/mqdefault.jpg","viewCount":"589","playlistId":"PLEkQk5xrP-tmhJ_gpAAFyOpEsHp0_VAJ-","playlistName":"برنامج اعرف نبيك في رمضان","category":"متنوع"},{"id":"CMQ-plazkC0","title":"شرح صحيح البخاري كتاب الطب من باب ٣٠","publishedAt":"2018-08-07T17:21:42Z","duration":"PT31M56S","thumbnail":"https://i.ytimg.com/vi/CMQ-plazkC0/mqdefault.jpg","viewCount":"589","playlistId":"PLEkQk5xrP-tlEerGoLa1AFy-2XvQ-sovv","playlistName":"شرح صحيح البخاري - أ.د. يسري جبر (كاملا)","category":"حديث"},{"id":"68wcmyJYXNc","title":"مقرأة سورة الشمس من أولها","publishedAt":"2019-07-22T09:07:41Z","duration":"PT16M7S","thumbnail":"https://i.ytimg.com/vi/68wcmyJYXNc/mqdefault.jpg","viewCount":"589","playlistId":"PLEkQk5xrP-tnmTYsyW6xNdyfhPq0Bhrhj","playlistName":"مقرأة الفجر - القُرْآنُ الكَرِيمُ - خَتْمَةُ التَّدَبُّرِ  أ.د. يسري جبر","category":"متنوع"},{"id":"D00bifiICAY","title":"الأسلوب الثالث عشر: التضمين - شرح البرهان في علوم القرآن","publishedAt":"2021-12-04T06:46:11Z","duration":"PT45M41S","thumbnail":"https://i.ytimg.com/vi/D00bifiICAY/mqdefault.jpg","viewCount":"588","playlistId":"PLEkQk5xrP-tnW3iBL7HkKziOFCFZbTlf0","playlistName":"شرح البرهان في علوم القرآن - أ.د. يسري جبر","category":"تفسير"},{"id":"jvLgUb0ATXs","title":"قراءة القرآن (من آية ٢٦٠ سورة البقرة)","publishedAt":"2016-05-28T02:17:49Z","duration":"PT10M50S","thumbnail":"https://i.ytimg.com/vi/jvLgUb0ATXs/mqdefault.jpg","viewCount":"588","playlistId":"PLEkQk5xrP-tnmTYsyW6xNdyfhPq0Bhrhj","playlistName":"مقرأة الفجر - القُرْآنُ الكَرِيمُ - خَتْمَةُ التَّدَبُّرِ  أ.د. يسري جبر","category":"متنوع"},{"id":"m6e_FoLP7V4","title":"توكيد الفعل بمصدره - شرح البرهان في علوم القرآن أ.د. يسري جبر","publishedAt":"2021-01-10T07:17:28Z","duration":"PT11M15S","thumbnail":"https://i.ytimg.com/vi/m6e_FoLP7V4/mqdefault.jpg","viewCount":"588","playlistId":"PLEkQk5xrP-tnW3iBL7HkKziOFCFZbTlf0","playlistName":"شرح البرهان في علوم القرآن - أ.د. يسري جبر","category":"تفسير"},{"id":"RES1DPc0rKA","title":"شرح صحيح البخاري كتاب التعبير من باب ٩","publishedAt":"2018-12-23T19:52:41Z","duration":"PT42M48S","thumbnail":"https://i.ytimg.com/vi/RES1DPc0rKA/mqdefault.jpg","viewCount":"588","playlistId":"PLEkQk5xrP-tlEerGoLa1AFy-2XvQ-sovv","playlistName":"شرح صحيح البخاري - أ.د. يسري جبر (كاملا)","category":"حديث"},{"id":"B4DFBLRTaSo","title":"سورة النساء آية 6","publishedAt":"2016-08-12T15:46:07Z","duration":"PT13M13S","thumbnail":"https://i.ytimg.com/vi/B4DFBLRTaSo/mqdefault.jpg","viewCount":"588","playlistId":"PLEkQk5xrP-tnmTYsyW6xNdyfhPq0Bhrhj","playlistName":"مقرأة الفجر - القُرْآنُ الكَرِيمُ - خَتْمَةُ التَّدَبُّرِ  أ.د. يسري جبر","category":"متنوع"},{"id":"zbijsB65V7c","title":"376- استحباب صوم الإثنين والخميس - شرح دليل الفالحين","publishedAt":"2023-01-06T09:00:38Z","duration":"PT34M25S","thumbnail":"https://i.ytimg.com/vi/zbijsB65V7c/mqdefault.jpg","viewCount":"588","playlistId":"PLEkQk5xrP-tkc9DXvSLguqX5-FYp6ASR4","playlistName":"دليل الفالحين لطرق رياض الصالحين","category":"متنوع"},{"id":"RWzSjpK76JA","title":"قراءة القرآن من سورة الإسراء (من آية 70)","publishedAt":"2015-05-31T03:25:53Z","duration":"PT25M16S","thumbnail":"https://i.ytimg.com/vi/RWzSjpK76JA/mqdefault.jpg","viewCount":"587","playlistId":"PLEkQk5xrP-tnUSUj0uyJhA-kwNC7Gkx_j","playlistName":"مقرأة الفجر - بداية من سورة الإسراء حتى سورة الناس","category":"تفسير"},{"id":"4xcMw0xqpg4","title":"شرح صحيح البخاري- كتاب المناقب من باب ٢٧","publishedAt":"2017-11-05T21:05:00Z","duration":"PT31M41S","thumbnail":"https://i.ytimg.com/vi/4xcMw0xqpg4/mqdefault.jpg","viewCount":"587","playlistId":"PLEkQk5xrP-tlEerGoLa1AFy-2XvQ-sovv","playlistName":"شرح صحيح البخاري - أ.د. يسري جبر (كاملا)","category":"حديث"}],"total":7670,"page":204,"pageSize":24,"totalPages":320}