{"items":[{"id":"brbBhkuLyoA","title":"شرح سنن الدارمي كتاب النكاح من باب ٤٨","publishedAt":"2019-08-13T19:41:06Z","duration":"PT33M18S","thumbnail":"https://i.ytimg.com/vi/brbBhkuLyoA/mqdefault.jpg","viewCount":"452","playlistId":"PLEkQk5xrP-tmAg-FuWjY057X_h5NmGmAa","playlistName":"شرح سنن الدارمي - أ.د. يسري جبر (كاملا)","category":"متنوع"},{"id":"JSplhX7tcBY","title":"شرح سنن الدارمي - المقدمة - ٥١","publishedAt":"2019-03-31T21:18:03Z","duration":"PT36M59S","thumbnail":"https://i.ytimg.com/vi/JSplhX7tcBY/mqdefault.jpg","viewCount":"452","playlistId":"PLEkQk5xrP-tmAg-FuWjY057X_h5NmGmAa","playlistName":"شرح سنن الدارمي - أ.د. يسري جبر (كاملا)","category":"متنوع"},{"id":"cgePepOBbus","title":"مقرأة سورة النمل من آية ٦٦","publishedAt":"2018-05-05T17:02:09Z","duration":"PT15M46S","thumbnail":"https://i.ytimg.com/vi/cgePepOBbus/mqdefault.jpg","viewCount":"452","playlistId":"PLEkQk5xrP-tnmTYsyW6xNdyfhPq0Bhrhj","playlistName":"مقرأة الفجر - القُرْآنُ الكَرِيمُ - خَتْمَةُ التَّدَبُّرِ  أ.د. يسري جبر","category":"متنوع"},{"id":"7JBGPJZWYkc","title":"261- الأمر - شرح الإتقان في علوم القرآن","publishedAt":"2024-10-27T06:00:04Z","duration":"PT18M47S","thumbnail":"https://i.ytimg.com/vi/7JBGPJZWYkc/mqdefault.jpg","viewCount":"451","playlistId":"PLEkQk5xrP-tlPw10KGJKagu7zm4Ry2Tge","playlistName":"شرح الإتقان في علوم القرآن","category":"تفسير"},{"id":"KtK1TNqgwVQ","title":"97- غريب القرآن (12) - شرح الإتقان في علوم القرآن","publishedAt":"2023-06-09T05:00:15Z","duration":"PT36M13S","thumbnail":"https://i.ytimg.com/vi/KtK1TNqgwVQ/mqdefault.jpg","viewCount":"451","playlistId":"PLEkQk5xrP-tlPw10KGJKagu7zm4Ry2Tge","playlistName":"شرح الإتقان في علوم القرآن","category":"تفسير"},{"id":"0_FEh_iBP8g","title":"الأسلوب الثاني\"الحذف\" شرح البرهان في علوم القرآن","publishedAt":"2021-06-07T06:08:35Z","duration":"PT24M40S","thumbnail":"https://i.ytimg.com/vi/0_FEh_iBP8g/mqdefault.jpg","viewCount":"451","playlistId":"PLEkQk5xrP-tnW3iBL7HkKziOFCFZbTlf0","playlistName":"شرح البرهان في علوم القرآن - أ.د. يسري جبر","category":"تفسير"},{"id":"E9V7ntw8LI8","title":"105- شرح اللؤلؤ والمرجان كتاب الحدود من أوله","publishedAt":"2020-03-25T06:00:02Z","duration":"PT37M10S","thumbnail":"https://i.ytimg.com/vi/E9V7ntw8LI8/mqdefault.jpg","viewCount":"451","playlistId":"PLEkQk5xrP-tmKNjtYLfhATC37QdIsTMe0","playlistName":"شرح كتاب اللؤلؤ والمرجان فيما اتفق عليه الشيخان إماما المحدثين البخاري ومسلم. أ.د. يسري جبر","category":"حديث"},{"id":"l2K_SCHZUd0","title":"شرح البرهان في علوم القرآن - النوع ٣٨ - معرفة إعجازه","publishedAt":"2020-03-16T08:30:04Z","duration":"PT41M57S","thumbnail":"https://i.ytimg.com/vi/l2K_SCHZUd0/mqdefault.jpg","viewCount":"451","playlistId":"PLEkQk5xrP-tnW3iBL7HkKziOFCFZbTlf0","playlistName":"شرح البرهان في علوم القرآن - أ.د. يسري جبر","category":"تفسير"},{"id":"2rLVN0kvkao","title":"الوَفَاءُ بِالعَهْدِ.   أ.د. يسري جبر","publishedAt":"2019-01-27T18:37:05Z","duration":"PT35M29S","thumbnail":"https://i.ytimg.com/vi/2rLVN0kvkao/mqdefault.jpg","viewCount":"451","playlistId":"PLEkQk5xrP-tlArtGpeLWaqNM7h7IDeAVC","playlistName":"خطب الجمعة أ.د. يسري جبر","category":"خطب"},{"id":"prxP1s1qths","title":"شرح صحيح البخاري كتاب الاستئذان من باب ١١","publishedAt":"2018-09-24T20:16:45Z","duration":"PT37M28S","thumbnail":"https://i.ytimg.com/vi/prxP1s1qths/mqdefault.jpg","viewCount":"451","playlistId":"PLEkQk5xrP-tlEerGoLa1AFy-2XvQ-sovv","playlistName":"شرح صحيح البخاري - أ.د. يسري جبر (كاملا)","category":"حديث"},{"id":"eFgdw-AVZtU","title":"شرح صحيح البخاري   كتاب مناقب الأنصار من باب ٢٩","publishedAt":"2017-12-07T21:00:58Z","duration":"PT21M","thumbnail":"https://i.ytimg.com/vi/eFgdw-AVZtU/mqdefault.jpg","viewCount":"451","playlistId":"PLEkQk5xrP-tlEerGoLa1AFy-2XvQ-sovv","playlistName":"شرح صحيح البخاري - أ.د. يسري جبر (كاملا)","category":"حديث"},{"id":"KSKt7LB9vnI","title":"304- المبهمات في القرآن - شرح الإتقان في علوم القرآن","publishedAt":"2025-10-13T05:07:30Z","duration":"PT24M17S","thumbnail":"https://i.ytimg.com/vi/KSKt7LB9vnI/mqdefault.jpg","viewCount":"450","playlistId":"PLEkQk5xrP-tlPw10KGJKagu7zm4Ry2Tge","playlistName":"شرح الإتقان في علوم القرآن","category":"تفسير"},{"id":"ucPXzF_kODQ","title":"أدوات التوكيد - ضمير الفصل - شرح البرهان في علوم القرآن أ.د. يسري جبر","publishedAt":"2021-01-20T08:14:56Z","duration":"PT13M42S","thumbnail":"https://i.ytimg.com/vi/ucPXzF_kODQ/mqdefault.jpg","viewCount":"450","playlistId":"PLEkQk5xrP-tnW3iBL7HkKziOFCFZbTlf0","playlistName":"شرح البرهان في علوم القرآن - أ.د. يسري جبر","category":"تفسير"},{"id":"kd4C9piLp5M","title":"شرح صحيح البخاري كتاب الأيمان والنذور من باب ١٧","publishedAt":"2018-11-15T15:39:33Z","duration":"PT33M51S","thumbnail":"https://i.ytimg.com/vi/kd4C9piLp5M/mqdefault.jpg","viewCount":"450","playlistId":"PLEkQk5xrP-tlEerGoLa1AFy-2XvQ-sovv","playlistName":"شرح صحيح البخاري - أ.د. يسري جبر (كاملا)","category":"حديث"},{"id":"PlYuCDiq-Ko","title":"شرح صحيح البخاري كتاب النكاح من باب ٣٧","publishedAt":"2018-06-01T14:24:39Z","duration":"PT32M20S","thumbnail":"https://i.ytimg.com/vi/PlYuCDiq-Ko/mqdefault.jpg","viewCount":"450","playlistId":"PLEkQk5xrP-tlEerGoLa1AFy-2XvQ-sovv","playlistName":"شرح صحيح البخاري - أ.د. يسري جبر (كاملا)","category":"حديث"},{"id":"411x7VE18bA","title":"شرح صحيح البخاري كتاب المغازي من باب ٧٤","publishedAt":"2018-02-28T21:29:21Z","duration":"PT28M22S","thumbnail":"https://i.ytimg.com/vi/411x7VE18bA/mqdefault.jpg","viewCount":"450","playlistId":"PLEkQk5xrP-tlEerGoLa1AFy-2XvQ-sovv","playlistName":"شرح صحيح البخاري - أ.د. يسري جبر (كاملا)","category":"حديث"},{"id":"134iWWWnPFg","title":"سورة التوبة آية 49","publishedAt":"2017-04-19T13:52:42Z","duration":"PT15M20S","thumbnail":"https://i.ytimg.com/vi/134iWWWnPFg/mqdefault.jpg","viewCount":"450","playlistId":"PLEkQk5xrP-tnmTYsyW6xNdyfhPq0Bhrhj","playlistName":"مقرأة الفجر - القُرْآنُ الكَرِيمُ - خَتْمَةُ التَّدَبُّرِ  أ.د. يسري جبر","category":"متنوع"},{"id":"R9YBm2RYmFI","title":"579- حروف المعاني(40): الحرف 42: (غير)  -شرح البرهان في علوم القرآن","publishedAt":"2022-10-26T05:15:00Z","duration":"PT38M3S","thumbnail":"https://i.ytimg.com/vi/R9YBm2RYmFI/mqdefault.jpg","viewCount":"449","playlistId":"PLEkQk5xrP-tnW3iBL7HkKziOFCFZbTlf0","playlistName":"شرح البرهان في علوم القرآن - أ.د. يسري جبر","category":"تفسير"},{"id":"Yhu0aI_-pJ4","title":"الأسلوب الثاني\"الحذف\"(2) شرح البرهان في علوم القرآن","publishedAt":"2021-06-09T05:38:34Z","duration":"PT21M17S","thumbnail":"https://i.ytimg.com/vi/Yhu0aI_-pJ4/mqdefault.jpg","viewCount":"449","playlistId":"PLEkQk5xrP-tnW3iBL7HkKziOFCFZbTlf0","playlistName":"شرح البرهان في علوم القرآن - أ.د. يسري جبر","category":"تفسير"},{"id":"ZUQmyGEbd2g","title":"شرح سنن الدارمي كتاب الرقاق من باب ٧٢","publishedAt":"2019-10-05T17:40:28Z","duration":"PT27M38S","thumbnail":"https://i.ytimg.com/vi/ZUQmyGEbd2g/mqdefault.jpg","viewCount":"449","playlistId":"PLEkQk5xrP-tmAg-FuWjY057X_h5NmGmAa","playlistName":"شرح سنن الدارمي - أ.د. يسري جبر (كاملا)","category":"متنوع"},{"id":"MLNVUgkGYdk","title":"شرح صحيح البخاري كتاب الأيمان والنذور من باب ٣","publishedAt":"2018-11-11T16:45:54Z","duration":"PT37M40S","thumbnail":"https://i.ytimg.com/vi/MLNVUgkGYdk/mqdefault.jpg","viewCount":"449","playlistId":"PLEkQk5xrP-tlEerGoLa1AFy-2XvQ-sovv","playlistName":"شرح صحيح البخاري - أ.د. يسري جبر (كاملا)","category":"حديث"},{"id":"V2Wvt7iaVS8","title":"مقرأة سورة الكهف من آية ٢٧","publishedAt":"2017-10-19T11:29:13Z","duration":"PT24M36S","thumbnail":"https://i.ytimg.com/vi/V2Wvt7iaVS8/mqdefault.jpg","viewCount":"449","playlistId":"PLEkQk5xrP-tnmTYsyW6xNdyfhPq0Bhrhj","playlistName":"مقرأة الفجر - القُرْآنُ الكَرِيمُ - خَتْمَةُ التَّدَبُّرِ  أ.د. يسري جبر","category":"متنوع"},{"id":"rDEjAIgyJkw","title":"مقرأة سورة النحل من آية ١٤","publishedAt":"2017-08-16T09:10:43Z","duration":"PT18M26S","thumbnail":"https://i.ytimg.com/vi/rDEjAIgyJkw/mqdefault.jpg","viewCount":"449","playlistId":"PLEkQk5xrP-tnmTYsyW6xNdyfhPq0Bhrhj","playlistName":"مقرأة الفجر - القُرْآنُ الكَرِيمُ - خَتْمَةُ التَّدَبُّرِ  أ.د. يسري جبر","category":"متنوع"},{"id":"XQ3Ff5aliJ4","title":"سورة الأنعام آية 136","publishedAt":"2017-01-06T15:28:13Z","duration":"PT23M38S","thumbnail":"https://i.ytimg.com/vi/XQ3Ff5aliJ4/mqdefault.jpg","viewCount":"449","playlistId":"PLEkQk5xrP-tnmTYsyW6xNdyfhPq0Bhrhj","playlistName":"مقرأة الفجر - القُرْآنُ الكَرِيمُ - خَتْمَةُ التَّدَبُّرِ  أ.د. يسري جبر","category":"متنوع"}],"total":7675,"page":239,"pageSize":24,"totalPages":320}