{"items":[{"id":"6kKhI1ixf1g","title":"هل عصى سيدنا آدم ربه؟","publishedAt":"2024-05-10T18:01:38Z","duration":"PT8M57S","thumbnail":"https://i.ytimg.com/vi/6kKhI1ixf1g/mqdefault.jpg","viewCount":"3857","playlistId":"PLEkQk5xrP-tlArtGpeLWaqNM7h7IDeAVC","playlistName":"خطب الجمعة أ.د. يسري جبر","category":"خطب"},{"id":"tjP3QiF82kA","title":"(24) سيدنا أبو عثمان سعيد بن إسماعيل الحيري رضي الله عنه د. يسري جبر","publishedAt":"2018-05-01T13:21:24Z","duration":"PT22M59S","thumbnail":"https://i.ytimg.com/vi/tjP3QiF82kA/mqdefault.jpg","viewCount":"3842","playlistId":"PLEkQk5xrP-tmmI87XkWepRdTpisz2Lfgr","playlistName":"باب في ذكر مشايخ هذه الطريقة من شرح كتاب الرسالة القشيرية","category":"تصوف"},{"id":"lz0mk8nOr6w","title":"أحاول تعليم زملائي ولكنهم يستغلونني في الحصول على ترقية فماذا أفعل؟ | المنافسة في سوق العمل","publishedAt":"2024-08-03T17:03:35Z","duration":"PT12M37S","thumbnail":"https://i.ytimg.com/vi/lz0mk8nOr6w/mqdefault.jpg","viewCount":"3834","playlistId":"PLEkQk5xrP-tm8ZIu74nTOZN9KJUJu416J","playlistName":"مقاطع مُهمَّة (يُسريَّات) أ.د. يسري جبر","category":"متنوع"},{"id":"vAIutO_k4zg","title":"قراءة حزب البحر","publishedAt":"2015-08-22T05:55:36Z","duration":"PT5M46S","thumbnail":"https://i.ytimg.com/vi/vAIutO_k4zg/mqdefault.jpg","viewCount":"3833","playlistId":"PLEkQk5xrP-tlB8lmbwjAKR8KRgiykGKhb","playlistName":"حضرات يسرية ومدائح نبوية","category":"متنوع"},{"id":"fVwYgc8BmT0","title":"كن صاحب استقامة ولا تكن طالب كرامة","publishedAt":"2020-09-26T20:01:47Z","duration":"PT6M10S","thumbnail":"https://i.ytimg.com/vi/fVwYgc8BmT0/mqdefault.jpg","viewCount":"3826","playlistId":"PLEkQk5xrP-tm8ZIu74nTOZN9KJUJu416J","playlistName":"مقاطع مُهمَّة (يُسريَّات) أ.د. يسري جبر","category":"متنوع"},{"id":"6eaacO4vqJ4","title":"عَلِم أنَّ العباد يتشوفون إلى ظهور سر العناية ، فقال \" يَخْتَصُّ بِرَحْمَتِهِ مَن يَشَاءُ \"","publishedAt":"2017-05-07T21:31:34Z","duration":"PT5M50S","thumbnail":"https://i.ytimg.com/vi/6eaacO4vqJ4/mqdefault.jpg","viewCount":"3823","playlistId":"PLEkQk5xrP-tkI_meE148wc7V7XHlB0WPb","playlistName":"من الحكم العطائية  د. يسري جبر","category":"متنوع"},{"id":"w3Riyk0csXk","title":"”تفسير قوله تعالى \"يُسَبِّحُ الرَّعْدُ بِحَمْدِهِ وَالْمَلَائِكَةُ مِنْ خِيفَتِهِ","publishedAt":"2021-06-16T17:30:08Z","duration":"PT14M29S","thumbnail":"https://i.ytimg.com/vi/w3Riyk0csXk/mqdefault.jpg","viewCount":"3822","playlistId":"PLEkQk5xrP-tkSGrPLMt1BEmJ54cGWYgtp","playlistName":"كتابُ بِدَعِ التَفَاسِيرِ - أ.د. يسري جبر","category":"متنوع"},{"id":"eY84dVKEu9g","title":"كيفية كتابة الملائكة للحسنات والسيئات | مجالس رمضانية","publishedAt":"2024-03-31T14:00:32Z","duration":"PT21M50S","thumbnail":"https://i.ytimg.com/vi/eY84dVKEu9g/mqdefault.jpg","viewCount":"3819","playlistId":"PLEkQk5xrP-tnl7vb7KeAoPd5ZlqKKW8KV","playlistName":"شرح كتاب بهجة النفوس أ.د . يسرى جبر","category":"متنوع"},{"id":"ySU6WYBdxpA","title":"كن بأوصاف ربوبيته متعلقا وبأوصاف عبوديتك متحققا","publishedAt":"2016-10-16T17:54:18Z","duration":"PT18M28S","thumbnail":"https://i.ytimg.com/vi/ySU6WYBdxpA/mqdefault.jpg","viewCount":"3817","playlistId":"PLEkQk5xrP-tkI_meE148wc7V7XHlB0WPb","playlistName":"من الحكم العطائية  د. يسري جبر","category":"متنوع"},{"id":"bKuleCIm2_I","title":"شرح الحزب الكبير- المجلس السادس   د.يسري جبر","publishedAt":"2017-07-06T18:13:13Z","duration":"PT46M49S","thumbnail":"https://i.ytimg.com/vi/bKuleCIm2_I/mqdefault.jpg","viewCount":"3814","playlistId":"PLEkQk5xrP-tlm5F9ID5I_--LMV7PcWjp_","playlistName":"شرح الحزب الكبير لسيدى أبي الحسن الشاذلي د.يسري جبر","category":"متنوع"},{"id":"PmbHe3S2cfU","title":"هل يجوز التفاخر بالأنساب؟ | مجالس رمضانية","publishedAt":"2024-04-04T14:30:07Z","duration":"PT31M44S","thumbnail":"https://i.ytimg.com/vi/PmbHe3S2cfU/mqdefault.jpg","viewCount":"3811","playlistId":"PLEkQk5xrP-tkeI_WVPfuoTJO46aVkpaz0","playlistName":"شرح كتاب ميزان الاعتدال لحفظ الدين والأحوال","category":"متنوع"},{"id":"12L6TWxgwG0","title":"خطبة عيد الفطر المبارك","publishedAt":"2022-05-02T07:00:01Z","duration":"PT28M54S","thumbnail":"https://i.ytimg.com/vi/12L6TWxgwG0/mqdefault.jpg","viewCount":"3810","playlistId":"PLEkQk5xrP-tlArtGpeLWaqNM7h7IDeAVC","playlistName":"خطب الجمعة أ.د. يسري جبر","category":"خطب"},{"id":"pGRxMsuBC-A","title":"عايزة أتجوز وأهلي مش موافقين ,, أعمل ايه؟ | نصيحة للأهالي","publishedAt":"2024-02-09T18:00:57Z","duration":"PT8M30S","thumbnail":"https://i.ytimg.com/vi/pGRxMsuBC-A/mqdefault.jpg","viewCount":"3808","playlistId":"PLEkQk5xrP-tkGXuZ9atE3k_7it12rUPTs","playlistName":"أسئلة المتابعين","category":"متنوع"},{"id":"AefPLsVSzQk","title":"ما هي سنن عيد الأضحى المبارك؟ | خطبة العيد","publishedAt":"2024-06-16T05:52:48Z","duration":"PT36M34S","thumbnail":"https://i.ytimg.com/vi/AefPLsVSzQk/mqdefault.jpg","viewCount":"3806","playlistId":"PLEkQk5xrP-tlArtGpeLWaqNM7h7IDeAVC","playlistName":"خطب الجمعة أ.د. يسري جبر","category":"خطب"},{"id":"CTRBgJDJWyc","title":"هل حفظ القرآن واجب على كل مسلم؟","publishedAt":"2025-03-12T19:00:10Z","duration":"PT9M14S","thumbnail":"https://i.ytimg.com/vi/CTRBgJDJWyc/mqdefault.jpg","viewCount":"3805","playlistId":"PLEkQk5xrP-tkGXuZ9atE3k_7it12rUPTs","playlistName":"أسئلة المتابعين","category":"متنوع"},{"id":"bfgp_piBbcE","title":"9- مقتطفات من الصلاة الكبرى لسيدي عبد القادر الجيلاني رضي الله عنه","publishedAt":"2022-07-20T05:00:30Z","duration":"PT30M5S","thumbnail":"https://i.ytimg.com/vi/bfgp_piBbcE/mqdefault.jpg","viewCount":"3804","playlistId":"PLEkQk5xrP-tkFEtMu56Xb9U9FCZBTXiLf","playlistName":"شرح صلوات الأولياء على خاتم الأنبياء ﷺ","category":"صلوات"},{"id":"lm7suKjAN8s","title":"24- ماذا أفعل حتى يرضى الله عني؟ | شرح الحكم العطائية","publishedAt":"2025-08-07T17:01:10Z","duration":"PT37M36S","thumbnail":"https://i.ytimg.com/vi/lm7suKjAN8s/mqdefault.jpg","viewCount":"3802","playlistId":"PLEkQk5xrP-tmf5ToOwmW-q0JwxkapbrMN","playlistName":"شرح كتاب إرشاد البرية إلى بعض معاني الحكم العطائية","category":"متنوع"},{"id":"r05v10vMebw","title":"2- ما جاء في عَيْش رسُول الله ﷺ - قراءة كتاب الشمائل المحمَّديَّة للإمام الترمذيّ رضي الله عنه","publishedAt":"2021-02-16T07:36:49Z","duration":"PT52M33S","thumbnail":"https://i.ytimg.com/vi/r05v10vMebw/mqdefault.jpg","viewCount":"3802","playlistId":"PLEkQk5xrP-tkCtkJ_fVpP3CmkJhWYYZtt","playlistName":"قراءةُ كتابِ الشَّمَائِلِ المُحَمَّدِيَّة للإِمام التِّرمذيّ رضي الله عن","category":"متنوع"},{"id":"noGnH_zk7v0","title":"كيفية حل الخلافات الزوجية؟","publishedAt":"2023-09-11T18:07:19Z","duration":"PT10M2S","thumbnail":"https://i.ytimg.com/vi/noGnH_zk7v0/mqdefault.jpg","viewCount":"3800","playlistId":"PLEkQk5xrP-tkGXuZ9atE3k_7it12rUPTs","playlistName":"أسئلة المتابعين","category":"متنوع"},{"id":"Xv4qryaPm6Y","title":"ما حكم الصلاة جالسا مع قدرتي على الوقوف؟","publishedAt":"2025-03-18T19:00:23Z","duration":"PT15M43S","thumbnail":"https://i.ytimg.com/vi/Xv4qryaPm6Y/mqdefault.jpg","viewCount":"3800","playlistId":"PLEkQk5xrP-tkGXuZ9atE3k_7it12rUPTs","playlistName":"أسئلة المتابعين","category":"متنوع"},{"id":"y3j8lsUUglI","title":"ما الفرق بين إرادة وقدرة وعلم الله؟","publishedAt":"2023-01-15T18:00:28Z","duration":"PT12M13S","thumbnail":"https://i.ytimg.com/vi/y3j8lsUUglI/mqdefault.jpg","viewCount":"3799","playlistId":"PLEkQk5xrP-tlArtGpeLWaqNM7h7IDeAVC","playlistName":"خطب الجمعة أ.د. يسري جبر","category":"خطب"},{"id":"GBMd7pEcyPE","title":"الواسطة العظـمى ﷺ.","publishedAt":"2020-09-25T18:35:27Z","duration":"PT6M11S","thumbnail":"https://i.ytimg.com/vi/GBMd7pEcyPE/mqdefault.jpg","viewCount":"3797","playlistId":"PLEkQk5xrP-tm8ZIu74nTOZN9KJUJu416J","playlistName":"مقاطع مُهمَّة (يُسريَّات) أ.د. يسري جبر","category":"متنوع"},{"id":"xpNqY1lLdxI","title":"الفَرْقُ بَيْنَ التَغَافُلِ والغَفْلَةِ - د.يسري جبر","publishedAt":"2015-02-14T18:58:02Z","duration":"PT7M32S","thumbnail":"https://i.ytimg.com/vi/xpNqY1lLdxI/mqdefault.jpg","viewCount":"3794","playlistId":"PLEkQk5xrP-tm8ZIu74nTOZN9KJUJu416J","playlistName":"مقاطع مُهمَّة (يُسريَّات) أ.د. يسري جبر","category":"متنوع"},{"id":"9P2aVuSkMJA","title":"3- حديث الإسراء والمعراج بنبينا صلى الله عليه وآله وسلم (المجلس الثالث).   أ.د. يسري جبر","publishedAt":"2018-06-08T08:44:36Z","duration":"PT39M48S","thumbnail":"https://i.ytimg.com/vi/9P2aVuSkMJA/mqdefault.jpg","viewCount":"3794","playlistId":"PLEkQk5xrP-tnl7vb7KeAoPd5ZlqKKW8KV","playlistName":"شرح كتاب بهجة النفوس أ.د . يسرى جبر","category":"متنوع"}],"total":7670,"page":74,"pageSize":24,"totalPages":320}