{"items":[{"id":"r6Rt0DUvRsk","title":"شرح صحيح البخاري - كتاب الصلح من باب ٧","publishedAt":"2017-07-04T11:38:58Z","duration":"PT19M37S","thumbnail":"https://i.ytimg.com/vi/r6Rt0DUvRsk/mqdefault.jpg","viewCount":"533","playlistId":"PLEkQk5xrP-tlEerGoLa1AFy-2XvQ-sovv","playlistName":"شرح صحيح البخاري - أ.د. يسري جبر (كاملا)","category":"حديث"},{"id":"lKc8hCSCc5k","title":"سورة النساء آية 36","publishedAt":"2016-08-21T07:39:58Z","duration":"PT23M12S","thumbnail":"https://i.ytimg.com/vi/lKc8hCSCc5k/mqdefault.jpg","viewCount":"533","playlistId":"PLEkQk5xrP-tnmTYsyW6xNdyfhPq0Bhrhj","playlistName":"مقرأة الفجر - القُرْآنُ الكَرِيمُ - خَتْمَةُ التَّدَبُّرِ  أ.د. يسري جبر","category":"متنوع"},{"id":"3XVpYO5zOxA","title":"109- الألفاظ الواردة في القرآن التي لها معاني في لغات أخرى - حرف القاف - شرح الإتقان في علوم القرآن","publishedAt":"2023-06-25T08:59:00Z","duration":"PT35M7S","thumbnail":"https://i.ytimg.com/vi/3XVpYO5zOxA/mqdefault.jpg","viewCount":"533","playlistId":"PLEkQk5xrP-tlPw10KGJKagu7zm4Ry2Tge","playlistName":"شرح الإتقان في علوم القرآن","category":"تفسير"},{"id":"_nET-sJo2ng","title":"شرح صحيح البخاري كتاب كفارات الأيمان من أوله","publishedAt":"2018-11-20T16:48:22Z","duration":"PT48M26S","thumbnail":"https://i.ytimg.com/vi/_nET-sJo2ng/mqdefault.jpg","viewCount":"533","playlistId":"PLEkQk5xrP-tlEerGoLa1AFy-2XvQ-sovv","playlistName":"شرح صحيح البخاري - أ.د. يسري جبر (كاملا)","category":"حديث"},{"id":"V-g2le4Guuk","title":"شرح صحيح البخاري - كتاب الجهاد والسير من باب ١٢٨","publishedAt":"2017-08-15T14:28:38Z","duration":"PT36M20S","thumbnail":"https://i.ytimg.com/vi/V-g2le4Guuk/mqdefault.jpg","viewCount":"532","playlistId":"PLEkQk5xrP-tlEerGoLa1AFy-2XvQ-sovv","playlistName":"شرح صحيح البخاري - أ.د. يسري جبر (كاملا)","category":"حديث"},{"id":"II3nmqxdDdA","title":"شرح صحيح البخاري كتاب النفقات من أوله","publishedAt":"2018-06-30T22:19:20Z","duration":"PT29M35S","thumbnail":"https://i.ytimg.com/vi/II3nmqxdDdA/mqdefault.jpg","viewCount":"532","playlistId":"PLEkQk5xrP-tlEerGoLa1AFy-2XvQ-sovv","playlistName":"شرح صحيح البخاري - أ.د. يسري جبر (كاملا)","category":"حديث"},{"id":"F9NfSmFeyq4","title":"مقرأة سورة المدثر من آية ٣١","publishedAt":"2019-05-29T23:05:20Z","duration":"PT4M30S","thumbnail":"https://i.ytimg.com/vi/F9NfSmFeyq4/mqdefault.jpg","viewCount":"532","playlistId":"PLEkQk5xrP-tnmTYsyW6xNdyfhPq0Bhrhj","playlistName":"مقرأة الفجر - القُرْآنُ الكَرِيمُ - خَتْمَةُ التَّدَبُّرِ  أ.د. يسري جبر","category":"متنوع"},{"id":"xE2ajJg8Rdk","title":"مقرأة سورة القلم من آية ١٧","publishedAt":"2019-05-06T12:21:16Z","duration":"PT24M11S","thumbnail":"https://i.ytimg.com/vi/xE2ajJg8Rdk/mqdefault.jpg","viewCount":"532","playlistId":"PLEkQk5xrP-tnmTYsyW6xNdyfhPq0Bhrhj","playlistName":"مقرأة الفجر - القُرْآنُ الكَرِيمُ - خَتْمَةُ التَّدَبُّرِ  أ.د. يسري جبر","category":"متنوع"},{"id":"0KDiOUC8yVk","title":"شرح صحيح البخاري كتاب الأدب من باب ٩١","publishedAt":"2018-09-16T09:32:43Z","duration":"PT28M59S","thumbnail":"https://i.ytimg.com/vi/0KDiOUC8yVk/mqdefault.jpg","viewCount":"531","playlistId":"PLEkQk5xrP-tlEerGoLa1AFy-2XvQ-sovv","playlistName":"شرح صحيح البخاري - أ.د. يسري جبر (كاملا)","category":"حديث"},{"id":"iUeGtqM45tU","title":"مقرأة سورة المؤمنون آية ٥٠","publishedAt":"2018-02-26T11:31:03Z","duration":"PT14M46S","thumbnail":"https://i.ytimg.com/vi/iUeGtqM45tU/mqdefault.jpg","viewCount":"531","playlistId":"PLEkQk5xrP-tnmTYsyW6xNdyfhPq0Bhrhj","playlistName":"مقرأة الفجر - القُرْآنُ الكَرِيمُ - خَتْمَةُ التَّدَبُّرِ  أ.د. يسري جبر","category":"متنوع"},{"id":"FJ-RCFDM_e4","title":"شرح صحيح البخاري   كتاب مناقب الأنصار من باب ٤٣","publishedAt":"2017-12-12T16:05:40Z","duration":"PT36M4S","thumbnail":"https://i.ytimg.com/vi/FJ-RCFDM_e4/mqdefault.jpg","viewCount":"531","playlistId":"PLEkQk5xrP-tlEerGoLa1AFy-2XvQ-sovv","playlistName":"شرح صحيح البخاري - أ.د. يسري جبر (كاملا)","category":"حديث"},{"id":"CKLZxs-Orgg","title":"175- شروط الإعراب (5) تنبيهات - شرح الإتقان في علوم القرآن","publishedAt":"2023-11-27T06:15:00Z","duration":"PT25M24S","thumbnail":"https://i.ytimg.com/vi/CKLZxs-Orgg/mqdefault.jpg","viewCount":"531","playlistId":"PLEkQk5xrP-tlPw10KGJKagu7zm4Ry2Tge","playlistName":"شرح الإتقان في علوم القرآن","category":"تفسير"},{"id":"yAuDnmczHpA","title":"تأكيدُ الفعلِ في المصدر","publishedAt":"2021-01-06T06:59:36Z","duration":"PT14M14S","thumbnail":"https://i.ytimg.com/vi/yAuDnmczHpA/mqdefault.jpg","viewCount":"530","playlistId":"PLEkQk5xrP-tnW3iBL7HkKziOFCFZbTlf0","playlistName":"شرح البرهان في علوم القرآن - أ.د. يسري جبر","category":"تفسير"},{"id":"VGptpmUqTtU","title":"مقرأة سورة الإنسان من آية ١٢","publishedAt":"2019-06-06T10:33:17Z","duration":"PT10M2S","thumbnail":"https://i.ytimg.com/vi/VGptpmUqTtU/mqdefault.jpg","viewCount":"530","playlistId":"PLEkQk5xrP-tnmTYsyW6xNdyfhPq0Bhrhj","playlistName":"مقرأة الفجر - القُرْآنُ الكَرِيمُ - خَتْمَةُ التَّدَبُّرِ  أ.د. يسري جبر","category":"متنوع"},{"id":"12twet6A0b0","title":"مقرأة سورة الواقعة من آية ٤١","publishedAt":"2019-03-12T22:23:06Z","duration":"PT17M32S","thumbnail":"https://i.ytimg.com/vi/12twet6A0b0/mqdefault.jpg","viewCount":"530","playlistId":"PLEkQk5xrP-tnmTYsyW6xNdyfhPq0Bhrhj","playlistName":"مقرأة الفجر - القُرْآنُ الكَرِيمُ - خَتْمَةُ التَّدَبُّرِ  أ.د. يسري جبر","category":"متنوع"},{"id":"Rpd3PrA8l9E","title":"شرح صحيح البخاري - كتاب الشروط من باب 19","publishedAt":"2017-07-09T18:25:21Z","duration":"PT20M29S","thumbnail":"https://i.ytimg.com/vi/Rpd3PrA8l9E/mqdefault.jpg","viewCount":"530","playlistId":"PLEkQk5xrP-tlEerGoLa1AFy-2XvQ-sovv","playlistName":"شرح صحيح البخاري - أ.د. يسري جبر (كاملا)","category":"حديث"},{"id":"THfFRQkHhJ8","title":"شرح صحيح البخاري كتاب الطب من باب ٤٤","publishedAt":"2018-08-10T07:29:42Z","duration":"PT39M28S","thumbnail":"https://i.ytimg.com/vi/THfFRQkHhJ8/mqdefault.jpg","viewCount":"529","playlistId":"PLEkQk5xrP-tlEerGoLa1AFy-2XvQ-sovv","playlistName":"شرح صحيح البخاري - أ.د. يسري جبر (كاملا)","category":"حديث"},{"id":"8mw2FufKn_Q","title":"تكملة ما جاء في أسلوب(تأنيث المذكَّر) شرح البرهان في علوم القرآن","publishedAt":"2021-12-20T06:37:54Z","duration":"PT23M","thumbnail":"https://i.ytimg.com/vi/8mw2FufKn_Q/mqdefault.jpg","viewCount":"529","playlistId":"PLEkQk5xrP-tnW3iBL7HkKziOFCFZbTlf0","playlistName":"شرح البرهان في علوم القرآن - أ.د. يسري جبر","category":"تفسير"},{"id":"0zg8j2hMgEw","title":"شرح البرهان في علوم القرآن - النوع ١٤ - فصل أتصاف القرآن ثمانية ٢","publishedAt":"2019-11-07T22:16:04Z","duration":"PT22M32S","thumbnail":"https://i.ytimg.com/vi/0zg8j2hMgEw/mqdefault.jpg","viewCount":"529","playlistId":"PLEkQk5xrP-tnW3iBL7HkKziOFCFZbTlf0","playlistName":"شرح البرهان في علوم القرآن - أ.د. يسري جبر","category":"تفسير"},{"id":"PFEWWmIRrNI","title":"شرح صحيح البخاري كتاب الأدب من باب ٧٥","publishedAt":"2018-09-10T19:32:20Z","duration":"PT38M30S","thumbnail":"https://i.ytimg.com/vi/PFEWWmIRrNI/mqdefault.jpg","viewCount":"529","playlistId":"PLEkQk5xrP-tlEerGoLa1AFy-2XvQ-sovv","playlistName":"شرح صحيح البخاري - أ.د. يسري جبر (كاملا)","category":"حديث"},{"id":"xmxQ3qzSnMw","title":"شرح صحيح البخاري   كتاب مناقب الأنصار من باب ١٦","publishedAt":"2017-12-04T10:09:38Z","duration":"PT38M54S","thumbnail":"https://i.ytimg.com/vi/xmxQ3qzSnMw/mqdefault.jpg","viewCount":"529","playlistId":"PLEkQk5xrP-tlEerGoLa1AFy-2XvQ-sovv","playlistName":"شرح صحيح البخاري - أ.د. يسري جبر (كاملا)","category":"حديث"},{"id":"MaHO2c87PlM","title":"شرح صحيح البخاري كتاب الأطعمة من باب ٢٣","publishedAt":"2018-07-08T09:01:47Z","duration":"PT35M37S","thumbnail":"https://i.ytimg.com/vi/MaHO2c87PlM/mqdefault.jpg","viewCount":"529","playlistId":"PLEkQk5xrP-tlEerGoLa1AFy-2XvQ-sovv","playlistName":"شرح صحيح البخاري - أ.د. يسري جبر (كاملا)","category":"حديث"},{"id":"Fv-Vh3ilnF8","title":"44- شرح اللؤلؤ والمرجان كتاب الجمعة من أوله","publishedAt":"2020-01-22T09:40:38Z","duration":"PT32M10S","thumbnail":"https://i.ytimg.com/vi/Fv-Vh3ilnF8/mqdefault.jpg","viewCount":"529","playlistId":"PLEkQk5xrP-tmKNjtYLfhATC37QdIsTMe0","playlistName":"شرح كتاب اللؤلؤ والمرجان فيما اتفق عليه الشيخان إماما المحدثين البخاري ومسلم. أ.د. يسري جبر","category":"حديث"},{"id":"u8mPRWHVxpU","title":"قراءة القرآن (من آية ٩٦ سورة آل عمران)","publishedAt":"2016-07-14T15:38:27Z","duration":"PT17M37S","thumbnail":"https://i.ytimg.com/vi/u8mPRWHVxpU/mqdefault.jpg","viewCount":"529","playlistId":"PLEkQk5xrP-tnmTYsyW6xNdyfhPq0Bhrhj","playlistName":"مقرأة الفجر - القُرْآنُ الكَرِيمُ - خَتْمَةُ التَّدَبُّرِ  أ.د. يسري جبر","category":"متنوع"}],"total":7670,"page":218,"pageSize":24,"totalPages":320}