{"items":[{"id":"B9j-ind1TIk","title":"صحيح الإمام البخاري رضي الله عنه - كتاب الأدب - المجلس الحادي والعشرون د. يسري جبر","publishedAt":"2017-03-13T19:22:32Z","duration":"PT40M48S","thumbnail":"https://i.ytimg.com/vi/B9j-ind1TIk/mqdefault.jpg","viewCount":"256","playlistId":"PLEkQk5xrP-tmJuzaj4GWRenFoFx9gdbFX","playlistName":"شرح كتاب صحيح الإمام البخاري رضي الله تعالى عنه   أ.د. يسرى جبر","category":"حديث"},{"id":"g6ZujwVBG0Q","title":"شرح كتاب الأذكار من كلام سيد الأبرار للإمام النووى رضى الله عنه - المجلس الثانى والثلاثون","publishedAt":"2015-08-20T18:51:13Z","duration":"PT17M45S","thumbnail":"https://i.ytimg.com/vi/g6ZujwVBG0Q/mqdefault.jpg","viewCount":"256","playlistId":"PLEkQk5xrP-tkWS57Ubysh0ifJR8dmuEtE","playlistName":"شرح كتاب الأذكار للإمام النووي د. يسرى جبر","category":"حديث"},{"id":"V4HJWuV_87Y","title":"شرح سنن الدارمي كتاب البيوع من باب ١٧","publishedAt":"2019-09-07T16:41:43Z","duration":"PT24M29S","thumbnail":"https://i.ytimg.com/vi/V4HJWuV_87Y/mqdefault.jpg","viewCount":"256","playlistId":"PLEkQk5xrP-tmAg-FuWjY057X_h5NmGmAa","playlistName":"شرح سنن الدارمي - أ.د. يسري جبر (كاملا)","category":"متنوع"},{"id":"rhUh5uUseHA","title":"63- باب مَا لاَ يَجُوزُ مِنْ نِكَاحِ الرَّجُلِ أُمَّ امْرَأَتِهِ ك الموطأ د يسري جبر الأزهري","publishedAt":"2018-06-23T13:51:36Z","duration":"PT52M35S","thumbnail":"https://i.ytimg.com/vi/rhUh5uUseHA/mqdefault.jpg","viewCount":"255","playlistId":"PLEkQk5xrP-tnC6BRuqMjyO-484iqXeg0o","playlistName":"شرح كتاب الموطأ للإمام مالك","category":"متنوع"},{"id":"1IxXvUw0EQw","title":"( 136 ) حديث اقتناء الخيل في سبيل الله  د. يسري جبر","publishedAt":"2017-06-23T05:42:02Z","duration":"PT21M27S","thumbnail":"https://i.ytimg.com/vi/1IxXvUw0EQw/mqdefault.jpg","viewCount":"254","playlistId":"PLEkQk5xrP-tnl7vb7KeAoPd5ZlqKKW8KV","playlistName":"شرح كتاب بهجة النفوس أ.د . يسرى جبر","category":"متنوع"},{"id":"ktJ0_EsKDFk","title":"شرح كتاب صفة الجنة من سنن الترمذي - المجلس الرابع","publishedAt":"2016-01-30T15:23:51Z","duration":"PT44M3S","thumbnail":"https://i.ytimg.com/vi/ktJ0_EsKDFk/mqdefault.jpg","viewCount":"254","playlistId":"PLEkQk5xrP-tnu6of679SvxdVx0qSrJzmb","playlistName":"شرح سنن الإمام الترمذي رضى الله عنه د. يسري جبر","category":"متنوع"},{"id":"9AUpei8NFic","title":"شرح كتاب الفتن من سنن الترمذي - المجلس الرابع عشر","publishedAt":"2015-12-29T06:20:18Z","duration":"PT54M26S","thumbnail":"https://i.ytimg.com/vi/9AUpei8NFic/mqdefault.jpg","viewCount":"254","playlistId":"PLEkQk5xrP-tnu6of679SvxdVx0qSrJzmb","playlistName":"شرح سنن الإمام الترمذي رضى الله عنه د. يسري جبر","category":"متنوع"},{"id":"b6_lV2GU56s","title":"شرح البرهان في علوم القرآن - النوع ٢٥ - علم مرسوم الخط (فصل في حذف النون)","publishedAt":"2020-01-18T11:25:31Z","duration":"PT10M50S","thumbnail":"https://i.ytimg.com/vi/b6_lV2GU56s/mqdefault.jpg","viewCount":"254","playlistId":"PLEkQk5xrP-tnW3iBL7HkKziOFCFZbTlf0","playlistName":"شرح البرهان في علوم القرآن - أ.د. يسري جبر","category":"تفسير"},{"id":"Yrvxz0t-Y6Y","title":"مقرأة سورة النحل من آية ١٠٤","publishedAt":"2017-09-09T12:38:07Z","duration":"PT16M48S","thumbnail":"https://i.ytimg.com/vi/Yrvxz0t-Y6Y/mqdefault.jpg","viewCount":"254","playlistId":"PLEkQk5xrP-tnmTYsyW6xNdyfhPq0Bhrhj","playlistName":"مقرأة الفجر - القُرْآنُ الكَرِيمُ - خَتْمَةُ التَّدَبُّرِ  أ.د. يسري جبر","category":"متنوع"},{"id":"FvuGnQRqoX0","title":"شرح سنن الدارمي كتاب المناسك من باب ٥٠","publishedAt":"2019-07-11T07:50:01Z","duration":"PT25M30S","thumbnail":"https://i.ytimg.com/vi/FvuGnQRqoX0/mqdefault.jpg","viewCount":"253","playlistId":"PLEkQk5xrP-tmAg-FuWjY057X_h5NmGmAa","playlistName":"شرح سنن الدارمي - أ.د. يسري جبر (كاملا)","category":"متنوع"},{"id":"2aKdH7WwcPA","title":"مقرأة سورة الشعراء من آية 217","publishedAt":"2018-04-24T06:59:09Z","duration":"PT22M12S","thumbnail":"https://i.ytimg.com/vi/2aKdH7WwcPA/mqdefault.jpg","viewCount":"253","playlistId":"PLEkQk5xrP-tnmTYsyW6xNdyfhPq0Bhrhj","playlistName":"مقرأة الفجر - القُرْآنُ الكَرِيمُ - خَتْمَةُ التَّدَبُّرِ  أ.د. يسري جبر","category":"متنوع"},{"id":"dYFsmsQmYak","title":"صحيح الإمام البخاري رضي الله عنه - كتاب الرقاق باب نفخ الصور(11) د.يسري جبر","publishedAt":"2017-09-18T12:12:33Z","duration":"PT58M19S","thumbnail":"https://i.ytimg.com/vi/dYFsmsQmYak/mqdefault.jpg","viewCount":"253","playlistId":"PLEkQk5xrP-tmJuzaj4GWRenFoFx9gdbFX","playlistName":"شرح كتاب صحيح الإمام البخاري رضي الله تعالى عنه   أ.د. يسرى جبر","category":"حديث"},{"id":"OXbIsVATU1A","title":"صحيح الإمام البخاري رضي الله عنه - كتاب الأدب - المجلس الثاني عشر د. يسري جبر","publishedAt":"2017-02-07T21:52:28Z","duration":"PT59M11S","thumbnail":"https://i.ytimg.com/vi/OXbIsVATU1A/mqdefault.jpg","viewCount":"253","playlistId":"PLEkQk5xrP-tmJuzaj4GWRenFoFx9gdbFX","playlistName":"شرح كتاب صحيح الإمام البخاري رضي الله تعالى عنه   أ.د. يسرى جبر","category":"حديث"},{"id":"dyYEtAoHxKE","title":"شرح كتاب الأذكار من كلام سيد الأبرار للإمام النووى رضى الله عنه - المجلس الرابع والأربعون","publishedAt":"2016-12-14T11:35:39Z","duration":"PT4M16S","thumbnail":"https://i.ytimg.com/vi/dyYEtAoHxKE/mqdefault.jpg","viewCount":"253","playlistId":"PLEkQk5xrP-tkWS57Ubysh0ifJR8dmuEtE","playlistName":"شرح كتاب الأذكار للإمام النووي د. يسرى جبر","category":"حديث"},{"id":"699MRxYfARY","title":"مقرأة سورة النور من آية ٥٣","publishedAt":"2018-03-23T08:02:54Z","duration":"PT17M55S","thumbnail":"https://i.ytimg.com/vi/699MRxYfARY/mqdefault.jpg","viewCount":"252","playlistId":"PLEkQk5xrP-tnmTYsyW6xNdyfhPq0Bhrhj","playlistName":"مقرأة الفجر - القُرْآنُ الكَرِيمُ - خَتْمَةُ التَّدَبُّرِ  أ.د. يسري جبر","category":"متنوع"},{"id":"V0TXJhBLbdw","title":"ثُمَّ لَا يَجِدُواْ فِيٓ أَنفُسِهِمۡ حَرَجٗا مِّمَّا قَضَيۡتَ وَيُسَلِّمُواْ تَسۡلِيمٗا د.يسري جبر","publishedAt":"2015-05-08T20:56:27Z","duration":"PT37M44S","thumbnail":"https://i.ytimg.com/vi/V0TXJhBLbdw/mqdefault.jpg","viewCount":"252","playlistId":"PLEkQk5xrP-tlArtGpeLWaqNM7h7IDeAVC","playlistName":"خطب الجمعة أ.د. يسري جبر","category":"خطب"},{"id":"NrXZl71HD_E","title":"شرح صحيح الإمام البخاري رضي الله تعالى عنه - كتاب الحِيَل.  د. يسري جبر","publishedAt":"2018-10-17T19:56:05Z","duration":"PT30M47S","thumbnail":"https://i.ytimg.com/vi/NrXZl71HD_E/mqdefault.jpg","viewCount":"251","playlistId":"PLEkQk5xrP-tmJuzaj4GWRenFoFx9gdbFX","playlistName":"شرح كتاب صحيح الإمام البخاري رضي الله تعالى عنه   أ.د. يسرى جبر","category":"حديث"},{"id":"4qMHQC2wWxQ","title":"مقرأة سورة القصص من آية ٧٦","publishedAt":"2018-06-01T18:47:06Z","duration":"PT16M43S","thumbnail":"https://i.ytimg.com/vi/4qMHQC2wWxQ/mqdefault.jpg","viewCount":"251","playlistId":"PLEkQk5xrP-tnmTYsyW6xNdyfhPq0Bhrhj","playlistName":"مقرأة الفجر - القُرْآنُ الكَرِيمُ - خَتْمَةُ التَّدَبُّرِ  أ.د. يسري جبر","category":"متنوع"},{"id":"u08PMvEH9cU","title":"صحيح الإمام البخاري رضي الله عنه -كتاب القدر (3) د.يسري جبر","publishedAt":"2017-10-21T08:13:02Z","duration":"PT33M31S","thumbnail":"https://i.ytimg.com/vi/u08PMvEH9cU/mqdefault.jpg","viewCount":"251","playlistId":"PLEkQk5xrP-tmJuzaj4GWRenFoFx9gdbFX","playlistName":"شرح كتاب صحيح الإمام البخاري رضي الله تعالى عنه   أ.د. يسرى جبر","category":"حديث"},{"id":"IIekkytllbM","title":"صحيح الإمام البخارى رضى الله عنه - كتاب النكاح - المجلس الخامس","publishedAt":"2015-02-08T21:27:36Z","duration":"PT57M39S","thumbnail":"https://i.ytimg.com/vi/IIekkytllbM/mqdefault.jpg","viewCount":"251","playlistId":"PLEkQk5xrP-tmJuzaj4GWRenFoFx9gdbFX","playlistName":"شرح كتاب صحيح الإمام البخاري رضي الله تعالى عنه   أ.د. يسرى جبر","category":"حديث"},{"id":"p6tyWmZ0Ddo","title":"مقرأة سورة الفرقان من آية ٢٧","publishedAt":"2018-03-31T08:11:25Z","duration":"PT7M14S","thumbnail":"https://i.ytimg.com/vi/p6tyWmZ0Ddo/mqdefault.jpg","viewCount":"251","playlistId":"PLEkQk5xrP-tnmTYsyW6xNdyfhPq0Bhrhj","playlistName":"مقرأة الفجر - القُرْآنُ الكَرِيمُ - خَتْمَةُ التَّدَبُّرِ  أ.د. يسري جبر","category":"متنوع"},{"id":"rED44puGedw","title":"مقرأة سورة فصلت من آية ٣٠","publishedAt":"2018-11-24T15:39:22Z","duration":"PT13M8S","thumbnail":"https://i.ytimg.com/vi/rED44puGedw/mqdefault.jpg","viewCount":"251","playlistId":"PLEkQk5xrP-tnmTYsyW6xNdyfhPq0Bhrhj","playlistName":"مقرأة الفجر - القُرْآنُ الكَرِيمُ - خَتْمَةُ التَّدَبُّرِ  أ.د. يسري جبر","category":"متنوع"},{"id":"kXAGiCfTGq0","title":"خُلق رسول الله صلى الله عليه وسلم | اعرف نبيك","publishedAt":"2015-09-09T16:16:56Z","duration":"PT6M34S","thumbnail":"https://i.ytimg.com/vi/kXAGiCfTGq0/mqdefault.jpg","viewCount":"250","playlistId":"PLEkQk5xrP-tl6Mu_Mz3QMUSv5T6XBH-Dg","playlistName":"برنامج اعرف نبيك","category":"متنوع"},{"id":"GX6drwwZb84","title":"شرح البرهان في علوم القرآن - النوع ٣٥ - فصل في الأسباب الموهمة الاختلاف ٣","publishedAt":"2020-03-06T06:00:04Z","duration":"PT12M49S","thumbnail":"https://i.ytimg.com/vi/GX6drwwZb84/mqdefault.jpg","viewCount":"249","playlistId":"PLEkQk5xrP-tnW3iBL7HkKziOFCFZbTlf0","playlistName":"شرح البرهان في علوم القرآن - أ.د. يسري جبر","category":"تفسير"}],"total":7670,"page":294,"pageSize":24,"totalPages":320}