{"items":[{"id":"cH0oLec5DDo","title":"درس الجمعة","publishedAt":"2015-11-20T14:42:31Z","duration":"PT1H2M","thumbnail":"https://i.ytimg.com/vi/cH0oLec5DDo/mqdefault.jpg","viewCount":"177","playlistId":"PLEkQk5xrP-tmYN0y2PQUkx881GYBxD16g","playlistName":"درس الجمعة","category":"خطب"},{"id":"IzqYD_OT5Rc","title":"شرح كتاب الأطعمة من جامع الترمذي - المجلس الثاني","publishedAt":"2015-08-18T16:58:26Z","duration":"PT33M47S","thumbnail":"https://i.ytimg.com/vi/IzqYD_OT5Rc/mqdefault.jpg","viewCount":"177","playlistId":"PLEkQk5xrP-tnu6of679SvxdVx0qSrJzmb","playlistName":"شرح سنن الإمام الترمذي رضى الله عنه د. يسري جبر","category":"متنوع"},{"id":"b-MR-XonDks","title":"قراءة القرآن (من آية 38 سورة الحج)","publishedAt":"2015-06-19T03:29:38Z","duration":"PT18M22S","thumbnail":"https://i.ytimg.com/vi/b-MR-XonDks/mqdefault.jpg","viewCount":"176","playlistId":"PLEkQk5xrP-tnUSUj0uyJhA-kwNC7Gkx_j","playlistName":"مقرأة الفجر - بداية من سورة الإسراء حتى سورة الناس","category":"تفسير"},{"id":"pXNJR-L491Y","title":"قراءة القرآن (من أول سورة الكافرون)","publishedAt":"2016-04-10T03:10:52Z","duration":"PT31M55S","thumbnail":"https://i.ytimg.com/vi/pXNJR-L491Y/mqdefault.jpg","viewCount":"176","playlistId":"PLEkQk5xrP-tnUSUj0uyJhA-kwNC7Gkx_j","playlistName":"مقرأة الفجر - بداية من سورة الإسراء حتى سورة الناس","category":"تفسير"},{"id":"3vtbWzLm3aM","title":"شرح كتاب الزهد من سنن الترمذي - المجلس الثامن","publishedAt":"2016-01-09T08:04:52Z","duration":"PT31M17S","thumbnail":"https://i.ytimg.com/vi/3vtbWzLm3aM/mqdefault.jpg","viewCount":"175","playlistId":"PLEkQk5xrP-tnu6of679SvxdVx0qSrJzmb","playlistName":"شرح سنن الإمام الترمذي رضى الله عنه د. يسري جبر","category":"متنوع"},{"id":"ZQToSFIaLPk","title":"قراءة القرآن (من آية 21 سورة النور)","publishedAt":"2015-06-25T03:22:56Z","duration":"PT18M51S","thumbnail":"https://i.ytimg.com/vi/ZQToSFIaLPk/mqdefault.jpg","viewCount":"175","playlistId":"PLEkQk5xrP-tnUSUj0uyJhA-kwNC7Gkx_j","playlistName":"مقرأة الفجر - بداية من سورة الإسراء حتى سورة الناس","category":"تفسير"},{"id":"riKE-n6Nmxg","title":"صحيح الإمام البخاري رضي الله عنه - ختام كتاب الأدب - المجلس الثاني والعشرون د. يسري جبر","publishedAt":"2017-03-19T21:01:22Z","duration":"PT1H21M30S","thumbnail":"https://i.ytimg.com/vi/riKE-n6Nmxg/mqdefault.jpg","viewCount":"175","playlistId":"PLEkQk5xrP-tmJuzaj4GWRenFoFx9gdbFX","playlistName":"شرح كتاب صحيح الإمام البخاري رضي الله تعالى عنه   أ.د. يسرى جبر","category":"حديث"},{"id":"xMowNvJYzZc","title":"شرح كتاب الأمثال من سنن الترمذي - المجلس الأول","publishedAt":"2016-03-27T02:18:15Z","duration":"PT33M32S","thumbnail":"https://i.ytimg.com/vi/xMowNvJYzZc/mqdefault.jpg","viewCount":"174","playlistId":"PLEkQk5xrP-tnu6of679SvxdVx0qSrJzmb","playlistName":"شرح سنن الإمام الترمذي رضى الله عنه د. يسري جبر","category":"متنوع"},{"id":"u4PWJCE6Yn0","title":"شرح كتاب الاستئذان والآداب من سنن الترمذي - المجلس الأول","publishedAt":"2016-03-05T10:18:11Z","duration":"PT43M38S","thumbnail":"https://i.ytimg.com/vi/u4PWJCE6Yn0/mqdefault.jpg","viewCount":"174","playlistId":"PLEkQk5xrP-tnu6of679SvxdVx0qSrJzmb","playlistName":"شرح سنن الإمام الترمذي رضى الله عنه د. يسري جبر","category":"متنوع"},{"id":"hR-5OhNPmys","title":"قراءة القرآن (من أول سورة الشرح)","publishedAt":"2016-03-29T02:20:55Z","duration":"PT25M20S","thumbnail":"https://i.ytimg.com/vi/hR-5OhNPmys/mqdefault.jpg","viewCount":"173","playlistId":"PLEkQk5xrP-tnUSUj0uyJhA-kwNC7Gkx_j","playlistName":"مقرأة الفجر - بداية من سورة الإسراء حتى سورة الناس","category":"تفسير"},{"id":"zndQPWdROq8","title":"شرح كتاب الأمثال من سنن الترمذي - المجلس الثاني","publishedAt":"2016-03-28T02:25:19Z","duration":"PT42M52S","thumbnail":"https://i.ytimg.com/vi/zndQPWdROq8/mqdefault.jpg","viewCount":"173","playlistId":"PLEkQk5xrP-tnu6of679SvxdVx0qSrJzmb","playlistName":"شرح سنن الإمام الترمذي رضى الله عنه د. يسري جبر","category":"متنوع"},{"id":"vQxY3B_FGGs","title":"صحيح البخاري - كتاب الأيمان والنذور (باب النذر في الطاعة )","publishedAt":"2017-11-18T15:48:44Z","duration":"PT26M21S","thumbnail":"https://i.ytimg.com/vi/vQxY3B_FGGs/mqdefault.jpg","viewCount":"173","playlistId":"PLEkQk5xrP-tmJuzaj4GWRenFoFx9gdbFX","playlistName":"شرح كتاب صحيح الإمام البخاري رضي الله تعالى عنه   أ.د. يسرى جبر","category":"حديث"},{"id":"jxrvdokgukI","title":"شرح كتاب صفة الجنة من سنن الترمذي - المجلس الثالث","publishedAt":"2016-01-29T09:01:11Z","duration":"PT28M45S","thumbnail":"https://i.ytimg.com/vi/jxrvdokgukI/mqdefault.jpg","viewCount":"171","playlistId":"PLEkQk5xrP-tnu6of679SvxdVx0qSrJzmb","playlistName":"شرح سنن الإمام الترمذي رضى الله عنه د. يسري جبر","category":"متنوع"},{"id":"_N9v1xWfMSg","title":"68- باب مَا جَاءَ فِى اللِّعَانِ ك الموطأ د يسري جبر الأزهري","publishedAt":"2018-08-04T11:34:35Z","duration":"PT41M56S","thumbnail":"https://i.ytimg.com/vi/_N9v1xWfMSg/mqdefault.jpg","viewCount":"171","playlistId":"PLEkQk5xrP-tnC6BRuqMjyO-484iqXeg0o","playlistName":"شرح كتاب الموطأ للإمام مالك","category":"متنوع"},{"id":"D7BJHpjsO3Q","title":"شرح كتاب فضائل القرآن من سنن الترمذي - المجلس الخامس","publishedAt":"2016-04-02T02:21:34Z","duration":"PT28M56S","thumbnail":"https://i.ytimg.com/vi/D7BJHpjsO3Q/mqdefault.jpg","viewCount":"171","playlistId":"PLEkQk5xrP-tnu6of679SvxdVx0qSrJzmb","playlistName":"شرح سنن الإمام الترمذي رضى الله عنه د. يسري جبر","category":"متنوع"},{"id":"FrESYW6FLMQ","title":"شرح كتاب الدعوات من سنن الترمذي - المجلس الرابع","publishedAt":"2016-05-17T02:40:48Z","duration":"PT41M45S","thumbnail":"https://i.ytimg.com/vi/FrESYW6FLMQ/mqdefault.jpg","viewCount":"170","playlistId":"PLEkQk5xrP-tnu6of679SvxdVx0qSrJzmb","playlistName":"شرح سنن الإمام الترمذي رضى الله عنه د. يسري جبر","category":"متنوع"},{"id":"GhjsVLLOEnk","title":"شرح كتاب الأشربة من سنن الترمذي - المجلس الثالث","publishedAt":"2015-08-27T05:11:22Z","duration":"PT27M40S","thumbnail":"https://i.ytimg.com/vi/GhjsVLLOEnk/mqdefault.jpg","viewCount":"170","playlistId":"PLEkQk5xrP-tnu6of679SvxdVx0qSrJzmb","playlistName":"شرح سنن الإمام الترمذي رضى الله عنه د. يسري جبر","category":"متنوع"},{"id":"qAqArrbJzos","title":"شرح صحيح الإمام البخاري رضي الله عنه - كتاب الرقاق باب رفع الأمانة (9) د.يسري جبر","publishedAt":"2017-09-03T18:16:58Z","duration":"PT58M15S","thumbnail":"https://i.ytimg.com/vi/qAqArrbJzos/mqdefault.jpg","viewCount":"169","playlistId":"PLEkQk5xrP-tmJuzaj4GWRenFoFx9gdbFX","playlistName":"شرح كتاب صحيح الإمام البخاري رضي الله تعالى عنه   أ.د. يسرى جبر","category":"حديث"},{"id":"YXh_VKdxW6s","title":"صحيح الإمام البخاري رضي الله عنه - كتاب الطلاق - المجلس الثانى","publishedAt":"2015-05-18T04:37:56Z","duration":"PT56M48S","thumbnail":"https://i.ytimg.com/vi/YXh_VKdxW6s/mqdefault.jpg","viewCount":"169","playlistId":"PLEkQk5xrP-tmJuzaj4GWRenFoFx9gdbFX","playlistName":"شرح كتاب صحيح الإمام البخاري رضي الله تعالى عنه   أ.د. يسرى جبر","category":"حديث"},{"id":"A2lEECJMdQA","title":"صحيح الإمام البخاري رضي الله عنه - كتاب الأدب - باب هِجاء المشركين - المجلس التاسع عشر د. يسري جبر","publishedAt":"2017-03-08T18:29:05Z","duration":"PT1H10M53S","thumbnail":"https://i.ytimg.com/vi/A2lEECJMdQA/mqdefault.jpg","viewCount":"169","playlistId":"PLEkQk5xrP-tmJuzaj4GWRenFoFx9gdbFX","playlistName":"شرح كتاب صحيح الإمام البخاري رضي الله تعالى عنه   أ.د. يسرى جبر","category":"حديث"},{"id":"Bt1U1poB-hs","title":"شرح كتاب صفة القيامة والرقائق والورع من سنن الترمذي - المجلس الثامن","publishedAt":"2016-01-23T22:16:47Z","duration":"PT38M33S","thumbnail":"https://i.ytimg.com/vi/Bt1U1poB-hs/mqdefault.jpg","viewCount":"169","playlistId":"PLEkQk5xrP-tnu6of679SvxdVx0qSrJzmb","playlistName":"شرح سنن الإمام الترمذي رضى الله عنه د. يسري جبر","category":"متنوع"},{"id":"CHNATKDJAb8","title":"شرح كتاب السِّيَر من سنن الترمذي - المجلس الثالث","publishedAt":"2015-07-14T03:53:01Z","duration":"PT19M16S","thumbnail":"https://i.ytimg.com/vi/CHNATKDJAb8/mqdefault.jpg","viewCount":"168","playlistId":"PLEkQk5xrP-tnu6of679SvxdVx0qSrJzmb","playlistName":"شرح سنن الإمام الترمذي رضى الله عنه د. يسري جبر","category":"متنوع"},{"id":"p3al_tWSuRs","title":"صحيح الإمام البخاري رضي الله عنه كتاب اللباس ( باب الجعد ) المجلس التاسع. د. يسري جبر","publishedAt":"2016-11-07T19:10:23Z","duration":"PT50M10S","thumbnail":"https://i.ytimg.com/vi/p3al_tWSuRs/mqdefault.jpg","viewCount":"168","playlistId":"PLEkQk5xrP-tmJuzaj4GWRenFoFx9gdbFX","playlistName":"شرح كتاب صحيح الإمام البخاري رضي الله تعالى عنه   أ.د. يسرى جبر","category":"حديث"},{"id":"eigKuN-GGC8","title":"شرح كتاب تفسير القرآن من سنن الترمذي - المجلس الثاني والثلاثون","publishedAt":"2016-05-11T02:36:57Z","duration":"PT35M54S","thumbnail":"https://i.ytimg.com/vi/eigKuN-GGC8/mqdefault.jpg","viewCount":"167","playlistId":"PLEkQk5xrP-tnu6of679SvxdVx0qSrJzmb","playlistName":"شرح سنن الإمام الترمذي رضى الله عنه د. يسري جبر","category":"متنوع"}],"total":7670,"page":304,"pageSize":24,"totalPages":320}