{"items":[{"id":"gG0qpAglgSA","title":"11- ูุตู ูู ุจูุงู ุงููุฌุงุณุงุช ูุฅุฒุงูุชูุง - ุดุฑุญ ูุชุงุจ ูุชุญ ุงููุฑูุจ ุงููุฌูุจ","publishedAt":"2021-10-02T09:59:44Z","duration":"PT1H31M21S","thumbnail":"https://i.ytimg.com/vi/gG0qpAglgSA/mqdefault.jpg","viewCount":"1835","playlistId":"PLEkQk5xrP-tkXuPs-0sXfWQDWzBKmcjWN","playlistName":"\"ูุชุญ ุงููุฑูุจ ุงููุฌูุจ ูู ุดุฑุญ ุฃููุงุธ ุงูุชูุฑูุจ\"( ููู ุดุงูุนูู)  ุฃ. ุฏ. ูุณุฑู ุฌุจุฑ","category":"ููู"},{"id":"g5MpaEwGhIM","title":"ูู ููุจู ุงููู ุนุจุงุฏุฉ ุงููุชุฎุงุตูููุ","publishedAt":"2024-12-14T17:04:06Z","duration":"PT9M18S","thumbnail":"https://i.ytimg.com/vi/g5MpaEwGhIM/mqdefault.jpg","viewCount":"1834","playlistId":"PLEkQk5xrP-tlArtGpeLWaqNM7h7IDeAVC","playlistName":"ุฎุทุจ ุงูุฌูุนุฉ ุฃ.ุฏ. ูุณุฑู ุฌุจุฑ","category":"ุฎุทุจ"},{"id":"EkFY7a8ibM8","title":"614-  ููููู ุชุนุงูู\"ุฅูููู ุฑูุญูููุชู ุงูููููู ููุฑููุจู ููููู ุงููููุญูุณูููููู\" - ุดุฑุญ ุตุญูุญ ุงูุฅูุงู ุงูุจุฎุงุฑู","publishedAt":"2022-09-17T07:00:10Z","duration":"PT35M52S","thumbnail":"https://i.ytimg.com/vi/EkFY7a8ibM8/mqdefault.jpg","viewCount":"1834","playlistId":"PLEkQk5xrP-tmJuzaj4GWRenFoFx9gdbFX","playlistName":"ุดุฑุญ ูุชุงุจ ุตุญูุญ ุงูุฅูุงู ุงูุจุฎุงุฑู ุฑุถู ุงููู ุชุนุงูู ุนูู   ุฃ.ุฏ. ูุณุฑู ุฌุจุฑ","category":"ุญุฏูุซ"},{"id":"c6_Bycnks2Q","title":"ุดุฑุญ ุตุญูุญ ุงูุจุฎุงุฑู ( ูุชุงุจ ุงูุญูุถ ูุฌูุณ ูก )","publishedAt":"2016-09-19T07:06:18Z","duration":"PT35M18S","thumbnail":"https://i.ytimg.com/vi/c6_Bycnks2Q/mqdefault.jpg","viewCount":"1832","playlistId":"PLEkQk5xrP-tlEerGoLa1AFy-2XvQ-sovv","playlistName":"ุดุฑุญ ุตุญูุญ ุงูุจุฎุงุฑู - ุฃ.ุฏ. ูุณุฑู ุฌุจุฑ (ูุงููุง)","category":"ุญุฏูุซ"},{"id":"Upz8-L-YHbQ","title":"ุดุฑุญ ูุชุงุจ ููุงุฒู ุงูุณุงุฆุฑูู ููุฅูุงู ุงููุฑูู - ุงููุฌูุณ ุงูุฎุงูุณ ูุงูุนุดุฑูู - ูุณู ุงูุฃุฎูุงู- ุจุงุจ ุงูุดูุฑ","publishedAt":"2014-11-03T19:24:27Z","duration":"PT51M58S","thumbnail":"https://i.ytimg.com/vi/Upz8-L-YHbQ/mqdefault.jpg","viewCount":"1832","playlistId":"PLEkQk5xrP-tnLYi_5_tSRVBwqcs7ISV7Y","playlistName":"ุดุฑุญ ูุชุงุจ ููุงุฒู ุงูุณุงุฆุฑูู ููุฅูุงู ุงููุฑูู","category":"ูุชููุน"},{"id":"atg50GCWXLE","title":"ููู ุชุญูู ููุณู ูู ูุธุงูุฑ ุงููุณุงุฏ ูู ุงูุฃุฑุถุ","publishedAt":"2025-10-28T17:15:01Z","duration":"PT12M6S","thumbnail":"https://i.ytimg.com/vi/atg50GCWXLE/mqdefault.jpg","viewCount":"1829","playlistId":"PLEkQk5xrP-tlArtGpeLWaqNM7h7IDeAVC","playlistName":"ุฎุทุจ ุงูุฌูุนุฉ ุฃ.ุฏ. ูุณุฑู ุฌุจุฑ","category":"ุฎุทุจ"},{"id":"lvouV9rqZxU","title":"ุดุฑุญ ุณูู ุงูุฏุงุฑูู - ุงูููุฏูุฉ - ูข","publishedAt":"2019-02-24T21:33:38Z","duration":"PT31M53S","thumbnail":"https://i.ytimg.com/vi/lvouV9rqZxU/mqdefault.jpg","viewCount":"1829","playlistId":"PLEkQk5xrP-tmAg-FuWjY057X_h5NmGmAa","playlistName":"ุดุฑุญ ุณูู ุงูุฏุงุฑูู - ุฃ.ุฏ. ูุณุฑู ุฌุจุฑ (ูุงููุง)","category":"ูุชููุน"},{"id":"PKX9JiV8b6E","title":"ุณูุฑุฉ ุงูุจูุฑุฉ ุขูุฉ 60","publishedAt":"2016-04-22T09:22:24Z","duration":"PT22M23S","thumbnail":"https://i.ytimg.com/vi/PKX9JiV8b6E/mqdefault.jpg","viewCount":"1829","playlistId":"PLEkQk5xrP-tnmTYsyW6xNdyfhPq0Bhrhj","playlistName":"ููุฑุฃุฉ ุงููุฌุฑ - ุงูููุฑูุขูู ุงูููุฑูููู - ุฎูุชูููุฉู ุงูุชููุฏูุจููุฑู  ุฃ.ุฏ. ูุณุฑู ุฌุจุฑ","category":"ูุชููุน"},{"id":"PyXKrsYiqfM","title":"ุงูุญูุฏูุงุซุฉู ูุฃุซุฑูุง ูู ุงููุงูุน ุงูููุนูุงุด     ุฏ. ูุณุฑู ุฌุจุฑ","publishedAt":"2017-05-05T19:40:05Z","duration":"PT47M24S","thumbnail":"https://i.ytimg.com/vi/PyXKrsYiqfM/mqdefault.jpg","viewCount":"1828","playlistId":"PLEkQk5xrP-tlArtGpeLWaqNM7h7IDeAVC","playlistName":"ุฎุทุจ ุงูุฌูุนุฉ ุฃ.ุฏ. ูุณุฑู ุฌุจุฑ","category":"ุฎุทุจ"},{"id":"9-HI-Z8BZoY","title":"53-โูุง ุบููุงูู ุฅูููู ุฃุนููููููู ููููุงุชู...โุงูุญุฏูุซ (3) ุจุงุจ ุงููุฑุงูุจุฉ - ุดุฑุญ ุฏููู ุงููุงูุญูู","publishedAt":"2021-05-04T05:26:34Z","duration":"PT38M52S","thumbnail":"https://i.ytimg.com/vi/9-HI-Z8BZoY/mqdefault.jpg","viewCount":"1826","playlistId":"PLEkQk5xrP-tkc9DXvSLguqX5-FYp6ASR4","playlistName":"ุฏููู ุงููุงูุญูู ูุทุฑู ุฑูุงุถ ุงูุตุงูุญูู","category":"ูุชููุน"},{"id":"73cvSO9zuYA","title":"402- ูุถู ุงูุฐูุฑ ูุงูุญุซ ุนููู - ุดุฑุญ ุฏููู ุงููุงูุญูู","publishedAt":"2023-02-21T05:00:05Z","duration":"PT28M10S","thumbnail":"https://i.ytimg.com/vi/73cvSO9zuYA/mqdefault.jpg","viewCount":"1825","playlistId":"PLEkQk5xrP-tkc9DXvSLguqX5-FYp6ASR4","playlistName":"ุฏููู ุงููุงูุญูู ูุทุฑู ุฑูุงุถ ุงูุตุงูุญูู","category":"ูุชููุน"},{"id":"EgFaTHjHjMo","title":"๐ด Majelis Sama' Hadits Shahih Bukhari - PP Progresif Bumi Shalawat (Senin, 3 Februari 2025 | Sesi 2)","publishedAt":"2025-02-03T23:19:50Z","duration":"PT2H47M26S","thumbnail":"https://i.ytimg.com/vi/EgFaTHjHjMo/mqdefault.jpg","viewCount":"1821","playlistId":"PLEkQk5xrP-tkKcTKLIthzWrdXY7QaOjh_","playlistName":"ูุฑุงุกุฉ ุตุญูุญ ุงูุจุฎุงุฑู ูุงููุงู ูู ุฅูุฏูููุณูุง","category":"ุญุฏูุซ"},{"id":"BfeOA6kv8RY","title":"32- ุญูู ุงููุฐู ูููููุฉ ุงูุชุทูุฑ ููู - ุดุฑุญ ูุณูุฏ ุงูุฅูุงู ุฃุญูุฏ","publishedAt":"2023-10-23T05:30:02Z","duration":"PT34M18S","thumbnail":"https://i.ytimg.com/vi/BfeOA6kv8RY/mqdefault.jpg","viewCount":"1821","playlistId":"PLEkQk5xrP-tkKprIuGrSdEuBSMsyg5We1","playlistName":"ุดุฑุญ ูุณูุฏ ุงูุฅูุงู ุฃุญูุฏ ุจู ุญูุจู","category":"ูุชููุน"},{"id":"XaFyeHhfwb8","title":"ุนุตูุฉ ุงูุฃูุจูุงุก ูู ุงููุฐุจ","publishedAt":"2022-10-21T18:00:18Z","duration":"PT8M30S","thumbnail":"https://i.ytimg.com/vi/XaFyeHhfwb8/mqdefault.jpg","viewCount":"1820","playlistId":"PLEkQk5xrP-tlArtGpeLWaqNM7h7IDeAVC","playlistName":"ุฎุทุจ ุงูุฌูุนุฉ ุฃ.ุฏ. ูุณุฑู ุฌุจุฑ","category":"ุฎุทุจ"},{"id":"WuwtKBxOaLM","title":"ุงูุดูุฑ","publishedAt":"2020-07-31T10:30:09Z","duration":"PT32M43S","thumbnail":"https://i.ytimg.com/vi/WuwtKBxOaLM/mqdefault.jpg","viewCount":"1820","playlistId":"PLEkQk5xrP-tlArtGpeLWaqNM7h7IDeAVC","playlistName":"ุฎุทุจ ุงูุฌูุนุฉ ุฃ.ุฏ. ูุณุฑู ุฌุจุฑ","category":"ุฎุทุจ"},{"id":"jjYy9_fxIwM","title":"42- ูุง ุงููุฑู ุจูู ุทูุงุฑุฉ ุงูุธุงูุฑ ูุงูุจุงุทูุ | ุดุฑุญ ูุฎุชุตุฑ ุงููุชูุญุงุช ุงููููุฉ","publishedAt":"2025-05-12T17:00:56Z","duration":"PT42M43S","thumbnail":"https://i.ytimg.com/vi/jjYy9_fxIwM/mqdefault.jpg","viewCount":"1819","playlistId":"PLEkQk5xrP-tnpkdZki6rPTtMak1bnI5g-","playlistName":"ุดุฑุญ ูุชุงุจ ูุฎุชุตุฑ ุงููุชูุญุงุช ุงููููุฉ ุงููุณูู ููุงูุญ ุงูุฃููุงุฑ ุงููุฏุณูุฉ","category":"ูุชููุน"},{"id":"ARhaIBJD_tk","title":"4- ุตููุฉู ููุถูุก ุฑุณูู ุงููู ๏ทบ ุนูุฏ ุงูุทุนุงู - ูุฑุงุกุฉ ูุชุงุจ ุงูุดูุงุฆู ุงููุญูููุฏูููุฉ ููุฅูุงู ุงูุชุฑูุฐูู ุฑุถู ุงููู ุนูู","publishedAt":"2021-02-22T07:19:08Z","duration":"PT54M41S","thumbnail":"https://i.ytimg.com/vi/ARhaIBJD_tk/mqdefault.jpg","viewCount":"1818","playlistId":"PLEkQk5xrP-tkCtkJ_fVpP3CmkJhWYYZtt","playlistName":"ูุฑุงุกุฉู ูุชุงุจู ุงูุดููููุงุฆููู ุงูููุญููููุฏููููุฉ ููุฅููุงู ุงูุชููุฑูุฐูู ุฑุถู ุงููู ุนู","category":"ูุชููุน"},{"id":"E3_-o1whcK4","title":"ุฅููููุง ุฃููุฒูููููุงูู ููู ููููููุฉู ุงููููุฏูุฑู\"   ุฃ.ุฏ. ูุณุฑู ุฌุจุฑ\"","publishedAt":"2019-05-29T17:58:09Z","duration":"PT30M14S","thumbnail":"https://i.ytimg.com/vi/E3_-o1whcK4/mqdefault.jpg","viewCount":"1815","playlistId":"PLEkQk5xrP-tlArtGpeLWaqNM7h7IDeAVC","playlistName":"ุฎุทุจ ุงูุฌูุนุฉ ุฃ.ุฏ. ูุณุฑู ุฌุจุฑ","category":"ุฎุทุจ"},{"id":"J5Qa7Yqy4jU","title":"ููู ุชููู ุญุณู ุงูุฎูู ุฃุซูุงุก ุงูุตูุงูุ","publishedAt":"2024-03-22T18:00:10Z","duration":"PT14M16S","thumbnail":"https://i.ytimg.com/vi/J5Qa7Yqy4jU/mqdefault.jpg","viewCount":"1814","playlistId":"PLEkQk5xrP-tlArtGpeLWaqNM7h7IDeAVC","playlistName":"ุฎุทุจ ุงูุฌูุนุฉ ุฃ.ุฏ. ูุณุฑู ุฌุจุฑ","category":"ุฎุทุจ"},{"id":"1oy7XySUk-0","title":"ุดุฑุญ ูุชุงุจ ููุงุฒู ุงูุณุงุฆุฑูู ููุฅูุงู ุงููุฑูู - ุงููุฌูุณ ุงูุซุงูู ูุงูุนุดุฑูู - ุจุงุจ ุงูุชุณููู","publishedAt":"2014-09-22T10:36:50Z","duration":"PT1H9M","thumbnail":"https://i.ytimg.com/vi/1oy7XySUk-0/mqdefault.jpg","viewCount":"1813","playlistId":"PLEkQk5xrP-tnLYi_5_tSRVBwqcs7ISV7Y","playlistName":"ุดุฑุญ ูุชุงุจ ููุงุฒู ุงูุณุงุฆุฑูู ููุฅูุงู ุงููุฑูู","category":"ูุชููุน"},{"id":"DcHIgmSW59U","title":"13- ูุชุงุจ ุฃุญูุงู ุงูุตูุงุฉ - ุดุฑุญ ูุชุงุจ ูุชุญ ุงููุฑูุจ ุงููุฌูุจ","publishedAt":"2021-10-04T20:38:03Z","duration":"PT58M16S","thumbnail":"https://i.ytimg.com/vi/DcHIgmSW59U/mqdefault.jpg","viewCount":"1809","playlistId":"PLEkQk5xrP-tkXuPs-0sXfWQDWzBKmcjWN","playlistName":"\"ูุชุญ ุงููุฑูุจ ุงููุฌูุจ ูู ุดุฑุญ ุฃููุงุธ ุงูุชูุฑูุจ\"( ููู ุดุงูุนูู)  ุฃ. ุฏ. ูุณุฑู ุฌุจุฑ","category":"ููู"},{"id":"LfkyMo-raBw","title":"68- \"โฆุญูุฌูุจูุชู ุงููููุงุฑู ุจุงูุดูููููุงุชูุ ูุญูุฌูุจูุชู ุงูุฌููููุฉู ุจุงููููุงุฑููู.\" ุงูุญุฏูุซ (7) ุดุฑุญ ุฏููู ุงููุงูุญูู","publishedAt":"2021-05-26T05:08:44Z","duration":"PT41M21S","thumbnail":"https://i.ytimg.com/vi/LfkyMo-raBw/mqdefault.jpg","viewCount":"1808","playlistId":"PLEkQk5xrP-tkc9DXvSLguqX5-FYp6ASR4","playlistName":"ุฏููู ุงููุงูุญูู ูุทุฑู ุฑูุงุถ ุงูุตุงูุญูู","category":"ูุชููุน"},{"id":"HqFzyGYs44o","title":"ุงูุตูุงุฉู ุทููุงุฑุฉู ( ุทูููุฑุฉู ) ูููููุจ ูู ุฃุฏูุงุณ ุงูุฐููุจุ ูุงุณุชูุชุงุญู ููุจูุงุจู ุงูุบูููุจ","publishedAt":"2017-01-25T17:28:27Z","duration":"PT12M31S","thumbnail":"https://i.ytimg.com/vi/HqFzyGYs44o/mqdefault.jpg","viewCount":"1808","playlistId":"PLEkQk5xrP-tkI_meE148wc7V7XHlB0WPb","playlistName":"ูู ุงูุญูู ุงูุนุทุงุฆูุฉ  ุฏ. ูุณุฑู ุฌุจุฑ","category":"ูุชููุน"},{"id":"sexPT-WHAcE","title":"276- ุงุณุชุฃุฐูุชู ุงููููุจููู ๏ทบ ูู ุงูุนูููุฑูุฉู ูุฃูุฐูู ููุงู ูุง ุชูุณุงูุง ูุง ุฃูุฎูููู ูู ุฏุนุงุฆููโฆ","publishedAt":"2022-07-06T05:15:02Z","duration":"PT27M36S","thumbnail":"https://i.ytimg.com/vi/sexPT-WHAcE/mqdefault.jpg","viewCount":"1807","playlistId":"PLEkQk5xrP-tkc9DXvSLguqX5-FYp6ASR4","playlistName":"ุฏููู ุงููุงูุญูู ูุทุฑู ุฑูุงุถ ุงูุตุงูุญูู","category":"ูุชููุน"}],"total":7675,"page":112,"pageSize":24,"totalPages":320}