{"items":[{"id":"S2FUgPrlFP0","title":"شرح كتاب تفسير القرآن من سنن الترمذي - المجلس الثامن","publishedAt":"2016-04-11T08:35:50Z","duration":"PT28M51S","thumbnail":"https://i.ytimg.com/vi/S2FUgPrlFP0/mqdefault.jpg","viewCount":"149","playlistId":"PLEkQk5xrP-tnu6of679SvxdVx0qSrJzmb","playlistName":"شرح سنن الإمام الترمذي رضى الله عنه د. يسري جبر","category":"متنوع"},{"id":"iTVZzQtAVgs","title":"صحيح الإمام البخاري رضي الله عنه -  كتاب المرضى - المجلس الثاني د. يسري جبر","publishedAt":"2016-05-16T16:27:43Z","duration":"PT50M15S","thumbnail":"https://i.ytimg.com/vi/iTVZzQtAVgs/mqdefault.jpg","viewCount":"149","playlistId":"PLEkQk5xrP-tmJuzaj4GWRenFoFx9gdbFX","playlistName":"شرح كتاب صحيح الإمام البخاري رضي الله تعالى عنه   أ.د. يسرى جبر","category":"حديث"},{"id":"fCINO4uSgJk","title":"شرح كتاب الدعوات من سنن الترمذي - المجلس الثاني","publishedAt":"2016-05-15T01:29:06Z","duration":"PT29M21S","thumbnail":"https://i.ytimg.com/vi/fCINO4uSgJk/mqdefault.jpg","viewCount":"149","playlistId":"PLEkQk5xrP-tnu6of679SvxdVx0qSrJzmb","playlistName":"شرح سنن الإمام الترمذي رضى الله عنه د. يسري جبر","category":"متنوع"},{"id":"mlMmU3jh_1s","title":"صحيح الإمام البخاري رضي الله عنه - كتاب الحدود ( باب كّمِ التَّعْزِيرُ والأَدَبُ ؟ ) د.يسري جبر","publishedAt":"2018-03-30T05:50:38Z","duration":"PT43M29S","thumbnail":"https://i.ytimg.com/vi/mlMmU3jh_1s/mqdefault.jpg","viewCount":"148","playlistId":"PLEkQk5xrP-tmJuzaj4GWRenFoFx9gdbFX","playlistName":"شرح كتاب صحيح الإمام البخاري رضي الله تعالى عنه   أ.د. يسرى جبر","category":"حديث"},{"id":"ABig3duE9G8","title":"قراءة القرآن (من أول سورة العلق)","publishedAt":"2016-03-31T02:18:26Z","duration":"PT24M17S","thumbnail":"https://i.ytimg.com/vi/ABig3duE9G8/mqdefault.jpg","viewCount":"148","playlistId":"PLEkQk5xrP-tnUSUj0uyJhA-kwNC7Gkx_j","playlistName":"مقرأة الفجر - بداية من سورة الإسراء حتى سورة الناس","category":"تفسير"},{"id":"3gAn3YxxTVQ","title":"شرح كتاب النذور و الأيمان من سنن الترمذى - المجلس الثالث","publishedAt":"2015-07-11T04:06:16Z","duration":"PT29M46S","thumbnail":"https://i.ytimg.com/vi/3gAn3YxxTVQ/mqdefault.jpg","viewCount":"148","playlistId":"PLEkQk5xrP-tnu6of679SvxdVx0qSrJzmb","playlistName":"شرح سنن الإمام الترمذي رضى الله عنه د. يسري جبر","category":"متنوع"},{"id":"BlLQfHCPa70","title":"شرح كتاب الفرائض من سنن الترمذي - المجلس الأول","publishedAt":"2015-12-08T21:04:43Z","duration":"PT42M47S","thumbnail":"https://i.ytimg.com/vi/BlLQfHCPa70/mqdefault.jpg","viewCount":"148","playlistId":"PLEkQk5xrP-tnu6of679SvxdVx0qSrJzmb","playlistName":"شرح سنن الإمام الترمذي رضى الله عنه د. يسري جبر","category":"متنوع"},{"id":"6dWH6zFxH2Q","title":"صحيح الإمام البخاري رضي الله عنه - كتاب الطب المجلس الخامس د. يسري جبر","publishedAt":"2016-08-20T18:50:22Z","duration":"PT44M37S","thumbnail":"https://i.ytimg.com/vi/6dWH6zFxH2Q/mqdefault.jpg","viewCount":"148","playlistId":"PLEkQk5xrP-tmJuzaj4GWRenFoFx9gdbFX","playlistName":"شرح كتاب صحيح الإمام البخاري رضي الله تعالى عنه   أ.د. يسرى جبر","category":"حديث"},{"id":"-tCXdA3lML8","title":"شرح صحيح الإمام البخاري رضي الله عنه - كتاب الرقاق باب من همَّ بحسنة أو بسيئة (8) د.يسري جبر","publishedAt":"2017-08-29T18:35:41Z","duration":"PT39M59S","thumbnail":"https://i.ytimg.com/vi/-tCXdA3lML8/mqdefault.jpg","viewCount":"148","playlistId":"PLEkQk5xrP-tmJuzaj4GWRenFoFx9gdbFX","playlistName":"شرح كتاب صحيح الإمام البخاري رضي الله تعالى عنه   أ.د. يسرى جبر","category":"حديث"},{"id":"kuM1dqjk6dA","title":"صحيح الإمام البخاري رضي الله عنه - كتاب الأشربة - المجلس الثالث د. يسري جبر","publishedAt":"2016-05-04T19:29:31Z","duration":"PT1H16M34S","thumbnail":"https://i.ytimg.com/vi/kuM1dqjk6dA/mqdefault.jpg","viewCount":"148","playlistId":"PLEkQk5xrP-tmJuzaj4GWRenFoFx9gdbFX","playlistName":"شرح كتاب صحيح الإمام البخاري رضي الله تعالى عنه   أ.د. يسرى جبر","category":"حديث"},{"id":"4QXeIJjMbEU","title":"صحيح الإمام البخاري رضي الله عنه -كتاب الرقاق باب \"الا يظن اولئك انهم مبعوثون\" (12) د.يسري جبر","publishedAt":"2017-09-19T05:06:33Z","duration":"PT31M24S","thumbnail":"https://i.ytimg.com/vi/4QXeIJjMbEU/mqdefault.jpg","viewCount":"147","playlistId":"PLEkQk5xrP-tmJuzaj4GWRenFoFx9gdbFX","playlistName":"شرح كتاب صحيح الإمام البخاري رضي الله تعالى عنه   أ.د. يسرى جبر","category":"حديث"},{"id":"cp9i8luGaBs","title":"قراءة القرآن (من آية ٤١ سورة الواقعة)","publishedAt":"2016-01-07T05:45:36Z","duration":"PT14M35S","thumbnail":"https://i.ytimg.com/vi/cp9i8luGaBs/mqdefault.jpg","viewCount":"147","playlistId":"PLEkQk5xrP-tnUSUj0uyJhA-kwNC7Gkx_j","playlistName":"مقرأة الفجر - بداية من سورة الإسراء حتى سورة الناس","category":"تفسير"},{"id":"Fwiqbr1Fbks","title":"شرح كتاب الأطعمة من سنن الترمذي - المجلس الثامن","publishedAt":"2015-08-24T04:39:16Z","duration":"PT27M47S","thumbnail":"https://i.ytimg.com/vi/Fwiqbr1Fbks/mqdefault.jpg","viewCount":"147","playlistId":"PLEkQk5xrP-tnu6of679SvxdVx0qSrJzmb","playlistName":"شرح سنن الإمام الترمذي رضى الله عنه د. يسري جبر","category":"متنوع"},{"id":"TUpUOtbjgTo","title":"صحيح الإمام البخاري رضي الله عنه - كتاب النفقات  - المجلس الأول","publishedAt":"2016-01-10T11:20:23Z","duration":"PT1H57S","thumbnail":"https://i.ytimg.com/vi/TUpUOtbjgTo/mqdefault.jpg","viewCount":"146","playlistId":"PLEkQk5xrP-tmJuzaj4GWRenFoFx9gdbFX","playlistName":"شرح كتاب صحيح الإمام البخاري رضي الله تعالى عنه   أ.د. يسرى جبر","category":"حديث"},{"id":"2DZoUIMaEZc","title":"صحيح الإمام البخاري رضي الله عنه - كتاب الأشربة - المجلس الثاني د. يسري جبر","publishedAt":"2016-05-02T14:08:52Z","duration":"PT56M40S","thumbnail":"https://i.ytimg.com/vi/2DZoUIMaEZc/mqdefault.jpg","viewCount":"146","playlistId":"PLEkQk5xrP-tmJuzaj4GWRenFoFx9gdbFX","playlistName":"شرح كتاب صحيح الإمام البخاري رضي الله تعالى عنه   أ.د. يسرى جبر","category":"حديث"},{"id":"u0i703Nqq9E","title":"صحيح الإمام البخاري رضي الله عنه - ختام كتاب الأشربة وبداية كتاب المرضى د. يسري جبر","publishedAt":"2016-05-10T15:00:55Z","duration":"PT1H7M43S","thumbnail":"https://i.ytimg.com/vi/u0i703Nqq9E/mqdefault.jpg","viewCount":"145","playlistId":"PLEkQk5xrP-tmJuzaj4GWRenFoFx9gdbFX","playlistName":"شرح كتاب صحيح الإمام البخاري رضي الله تعالى عنه   أ.د. يسرى جبر","category":"حديث"},{"id":"Fb4cVcm-HKc","title":"درس الجمعة ١٢ ربيع الآخر ١٤٣٧ هـ","publishedAt":"2016-01-23T06:30:12Z","duration":"PT39M6S","thumbnail":"https://i.ytimg.com/vi/Fb4cVcm-HKc/mqdefault.jpg","viewCount":"145","playlistId":"PLEkQk5xrP-tmYN0y2PQUkx881GYBxD16g","playlistName":"درس الجمعة","category":"خطب"},{"id":"u_IH3b7eU9k","title":"صحيح الإمام البخاري رضي الله عنه - كتاب اللباس المجلس الخامس د. يسري جبر","publishedAt":"2016-10-06T20:50:11Z","duration":"PT1H16M28S","thumbnail":"https://i.ytimg.com/vi/u_IH3b7eU9k/mqdefault.jpg","viewCount":"145","playlistId":"PLEkQk5xrP-tmJuzaj4GWRenFoFx9gdbFX","playlistName":"شرح كتاب صحيح الإمام البخاري رضي الله تعالى عنه   أ.د. يسرى جبر","category":"حديث"},{"id":"PVc5vuNC04I","title":"شرح كتاب العلم من سنن الترمذي - المجلس الثاني","publishedAt":"2016-03-01T10:03:41Z","duration":"PT43M11S","thumbnail":"https://i.ytimg.com/vi/PVc5vuNC04I/mqdefault.jpg","viewCount":"144","playlistId":"PLEkQk5xrP-tnu6of679SvxdVx0qSrJzmb","playlistName":"شرح سنن الإمام الترمذي رضى الله عنه د. يسري جبر","category":"متنوع"},{"id":"_9C5KFmadEM","title":"شرح كتاب الإيمان من سنن الترمذي - المجلس الثاني","publishedAt":"2016-02-24T08:58:47Z","duration":"PT49M15S","thumbnail":"https://i.ytimg.com/vi/_9C5KFmadEM/mqdefault.jpg","viewCount":"144","playlistId":"PLEkQk5xrP-tnu6of679SvxdVx0qSrJzmb","playlistName":"شرح سنن الإمام الترمذي رضى الله عنه د. يسري جبر","category":"متنوع"},{"id":"ESmgdlCcFp4","title":"قراءة القرآن (من آية 31 سورة الروم)","publishedAt":"2015-07-27T03:27:46Z","duration":"PT17M56S","thumbnail":"https://i.ytimg.com/vi/ESmgdlCcFp4/mqdefault.jpg","viewCount":"144","playlistId":"PLEkQk5xrP-tnUSUj0uyJhA-kwNC7Gkx_j","playlistName":"مقرأة الفجر - بداية من سورة الإسراء حتى سورة الناس","category":"تفسير"},{"id":"PMWijDf5SYg","title":"شرح كتاب فضائل القرآن من سنن الترمذي - المجلس الثالث","publishedAt":"2016-03-31T02:18:26Z","duration":"PT32M58S","thumbnail":"https://i.ytimg.com/vi/PMWijDf5SYg/mqdefault.jpg","viewCount":"143","playlistId":"PLEkQk5xrP-tnu6of679SvxdVx0qSrJzmb","playlistName":"شرح سنن الإمام الترمذي رضى الله عنه د. يسري جبر","category":"متنوع"},{"id":"Ut_bthceU3I","title":"شرح كتاب فضائل القرآن من سنن الترمذي - المجلس الثاني","publishedAt":"2016-03-30T02:22:06Z","duration":"PT36M4S","thumbnail":"https://i.ytimg.com/vi/Ut_bthceU3I/mqdefault.jpg","viewCount":"143","playlistId":"PLEkQk5xrP-tnu6of679SvxdVx0qSrJzmb","playlistName":"شرح سنن الإمام الترمذي رضى الله عنه د. يسري جبر","category":"متنوع"},{"id":"l22wNfBkN5M","title":"صحيح الإمام البخاري رضي الله تعالى عنه - كتاب الأطعمة - المجلس الخامس","publishedAt":"2016-03-02T18:53:32Z","duration":"PT44M57S","thumbnail":"https://i.ytimg.com/vi/l22wNfBkN5M/mqdefault.jpg","viewCount":"143","playlistId":"PLEkQk5xrP-tmJuzaj4GWRenFoFx9gdbFX","playlistName":"شرح كتاب صحيح الإمام البخاري رضي الله تعالى عنه   أ.د. يسرى جبر","category":"حديث"}],"total":7670,"page":307,"pageSize":24,"totalPages":320}