{"items":[{"id":"cToq-ZhqDCM","title":"شرح سنن الدارمي كتاب الصلاة من باب ٣٠","publishedAt":"2019-05-01T10:00:54Z","duration":"PT34M37S","thumbnail":"https://i.ytimg.com/vi/cToq-ZhqDCM/mqdefault.jpg","viewCount":"479","playlistId":"PLEkQk5xrP-tmAg-FuWjY057X_h5NmGmAa","playlistName":"شرح سنن الدارمي - أ.د. يسري جبر (كاملا)","category":"متنوع"},{"id":"ZsgSM4d6Qts","title":"سورة النساء آية 44","publishedAt":"2016-08-23T06:44:21Z","duration":"PT20M47S","thumbnail":"https://i.ytimg.com/vi/ZsgSM4d6Qts/mqdefault.jpg","viewCount":"479","playlistId":"PLEkQk5xrP-tnmTYsyW6xNdyfhPq0Bhrhj","playlistName":"مقرأة الفجر - القُرْآنُ الكَرِيمُ - خَتْمَةُ التَّدَبُّرِ  أ.د. يسري جبر","category":"متنوع"},{"id":"FxT5T6Fd9GA","title":"شرح صحيح البخاري كتاب الرقاق من باب ٥٣","publishedAt":"2018-11-06T08:05:41Z","duration":"PT33M2S","thumbnail":"https://i.ytimg.com/vi/FxT5T6Fd9GA/mqdefault.jpg","viewCount":"479","playlistId":"PLEkQk5xrP-tlEerGoLa1AFy-2XvQ-sovv","playlistName":"شرح صحيح البخاري - أ.د. يسري جبر (كاملا)","category":"حديث"},{"id":"4vDNRIsha1w","title":"316- تعجيل قضاء الدَّينِ عن الميت والمبادرة إلى تجهيزه إلا أن يموتَ فجأةً، فيُترك حتى يُتيقن موتُه","publishedAt":"2022-10-22T05:00:05Z","duration":"PT41M51S","thumbnail":"https://i.ytimg.com/vi/4vDNRIsha1w/mqdefault.jpg","viewCount":"479","playlistId":"PLEkQk5xrP-tkc9DXvSLguqX5-FYp6ASR4","playlistName":"دليل الفالحين لطرق رياض الصالحين","category":"متنوع"},{"id":"KzAHwxQlkUU","title":"109- شرح اللؤلؤ والمرجان كتاب الجهاد من أوله","publishedAt":"2020-03-30T07:00:03Z","duration":"PT26M55S","thumbnail":"https://i.ytimg.com/vi/KzAHwxQlkUU/mqdefault.jpg","viewCount":"478","playlistId":"PLEkQk5xrP-tmKNjtYLfhATC37QdIsTMe0","playlistName":"شرح كتاب اللؤلؤ والمرجان فيما اتفق عليه الشيخان إماما المحدثين البخاري ومسلم. أ.د. يسري جبر","category":"حديث"},{"id":"VDYqD2aTgxs","title":"البرهان في علوم القرآن النوع ٤١","publishedAt":"2020-08-31T11:01:30Z","duration":"PT22M57S","thumbnail":"https://i.ytimg.com/vi/VDYqD2aTgxs/mqdefault.jpg","viewCount":"478","playlistId":"PLEkQk5xrP-tnW3iBL7HkKziOFCFZbTlf0","playlistName":"شرح البرهان في علوم القرآن - أ.د. يسري جبر","category":"تفسير"},{"id":"wtsZL-eocQg","title":"شرح صحيح البخاري كتاب الأضاحي من باب ٩","publishedAt":"2018-07-24T08:46:39Z","duration":"PT32M44S","thumbnail":"https://i.ytimg.com/vi/wtsZL-eocQg/mqdefault.jpg","viewCount":"478","playlistId":"PLEkQk5xrP-tlEerGoLa1AFy-2XvQ-sovv","playlistName":"شرح صحيح البخاري - أ.د. يسري جبر (كاملا)","category":"حديث"},{"id":"rL3Gdc4O1R4","title":"رمضانيات (۳) د. يسري جبر","publishedAt":"2018-06-02T00:17:04Z","duration":"PT35M56S","thumbnail":"https://i.ytimg.com/vi/rL3Gdc4O1R4/mqdefault.jpg","viewCount":"478","playlistId":"PLEkQk5xrP-tlArtGpeLWaqNM7h7IDeAVC","playlistName":"خطب الجمعة أ.د. يسري جبر","category":"خطب"},{"id":"n20n6cPIGCw","title":"شرح صحيح البخاري - كتاب الجهاد والسير من باب ١١٦","publishedAt":"2017-08-13T14:16:56Z","duration":"PT31M3S","thumbnail":"https://i.ytimg.com/vi/n20n6cPIGCw/mqdefault.jpg","viewCount":"478","playlistId":"PLEkQk5xrP-tlEerGoLa1AFy-2XvQ-sovv","playlistName":"شرح صحيح البخاري - أ.د. يسري جبر (كاملا)","category":"حديث"},{"id":"wbCAxoQZUW0","title":"56- شرح اللؤلؤ والمرجان كتاب الزكاة من الباب الثاني والثلاثين","publishedAt":"2020-02-05T06:00:06Z","duration":"PT32M2S","thumbnail":"https://i.ytimg.com/vi/wbCAxoQZUW0/mqdefault.jpg","viewCount":"478","playlistId":"PLEkQk5xrP-tmKNjtYLfhATC37QdIsTMe0","playlistName":"شرح كتاب اللؤلؤ والمرجان فيما اتفق عليه الشيخان إماما المحدثين البخاري ومسلم. أ.د. يسري جبر","category":"حديث"},{"id":"uEr6jY_N1Vo","title":"77- شرح اللؤلؤ والمرجان كتاب النكاح من أوله","publishedAt":"2020-02-25T06:00:18Z","duration":"PT22M41S","thumbnail":"https://i.ytimg.com/vi/uEr6jY_N1Vo/mqdefault.jpg","viewCount":"478","playlistId":"PLEkQk5xrP-tmKNjtYLfhATC37QdIsTMe0","playlistName":"شرح كتاب اللؤلؤ والمرجان فيما اتفق عليه الشيخان إماما المحدثين البخاري ومسلم. أ.د. يسري جبر","category":"حديث"},{"id":"_pbuqKYfqxM","title":"‎شرح صحيح الإمام البخاري رضي الله تعالى عنه - كتابُ الاعتصَامِ بالكِتابِ والسُّنَّةِ. أ.د. يسري جبر","publishedAt":"2020-01-06T20:02:45Z","duration":"PT49M11S","thumbnail":"https://i.ytimg.com/vi/_pbuqKYfqxM/mqdefault.jpg","viewCount":"478","playlistId":"PLEkQk5xrP-tmJuzaj4GWRenFoFx9gdbFX","playlistName":"شرح كتاب صحيح الإمام البخاري رضي الله تعالى عنه   أ.د. يسرى جبر","category":"حديث"},{"id":"R5wWlrcu5Cs","title":"الشَّرْط: القاعدة الثانية","publishedAt":"2020-12-01T08:11:20Z","duration":"PT9M31S","thumbnail":"https://i.ytimg.com/vi/R5wWlrcu5Cs/mqdefault.jpg","viewCount":"477","playlistId":"PLEkQk5xrP-tnW3iBL7HkKziOFCFZbTlf0","playlistName":"شرح البرهان في علوم القرآن - أ.د. يسري جبر","category":"تفسير"},{"id":"LoJQVcS6Mn4","title":"شرح صحيح البخاري كتاب التفسير فى سورة المؤمن (الغافر) من باب ١","publishedAt":"2018-04-18T20:02:13Z","duration":"PT33M43S","thumbnail":"https://i.ytimg.com/vi/LoJQVcS6Mn4/mqdefault.jpg","viewCount":"477","playlistId":"PLEkQk5xrP-tlEerGoLa1AFy-2XvQ-sovv","playlistName":"شرح صحيح البخاري - أ.د. يسري جبر (كاملا)","category":"حديث"},{"id":"NzJWZItc_zs","title":"سورة التوبة آية 43","publishedAt":"2017-04-18T11:58:48Z","duration":"PT24M24S","thumbnail":"https://i.ytimg.com/vi/NzJWZItc_zs/mqdefault.jpg","viewCount":"477","playlistId":"PLEkQk5xrP-tnmTYsyW6xNdyfhPq0Bhrhj","playlistName":"مقرأة الفجر - القُرْآنُ الكَرِيمُ - خَتْمَةُ التَّدَبُّرِ  أ.د. يسري جبر","category":"متنوع"},{"id":"wveajyk_x_0","title":"54- شرح اللؤلؤ والمرجان كتاب الزكاة من الباب السادس عشر","publishedAt":"2020-02-03T06:00:08Z","duration":"PT27M18S","thumbnail":"https://i.ytimg.com/vi/wveajyk_x_0/mqdefault.jpg","viewCount":"477","playlistId":"PLEkQk5xrP-tmKNjtYLfhATC37QdIsTMe0","playlistName":"شرح كتاب اللؤلؤ والمرجان فيما اتفق عليه الشيخان إماما المحدثين البخاري ومسلم. أ.د. يسري جبر","category":"حديث"},{"id":"RbVGFpKoapk","title":"شرح صحيح البخاري   كتاب مناقب الأنصار من باب ٢٧","publishedAt":"2017-12-06T22:42:53Z","duration":"PT30M20S","thumbnail":"https://i.ytimg.com/vi/RbVGFpKoapk/mqdefault.jpg","viewCount":"477","playlistId":"PLEkQk5xrP-tlEerGoLa1AFy-2XvQ-sovv","playlistName":"شرح صحيح البخاري - أ.د. يسري جبر (كاملا)","category":"حديث"},{"id":"JSYPWGXevyk","title":"179-  فائدة: فيما قُرئ بثلاثة أوجه \"الإعراب، أو  البناء، أو نحو ذلك\"(2)- شرح الإتقان في علوم القرآن","publishedAt":"2023-12-06T06:30:10Z","duration":"PT30M59S","thumbnail":"https://i.ytimg.com/vi/JSYPWGXevyk/mqdefault.jpg","viewCount":"477","playlistId":"PLEkQk5xrP-tlPw10KGJKagu7zm4Ry2Tge","playlistName":"شرح الإتقان في علوم القرآن","category":"تفسير"},{"id":"oEGg4PVolYI","title":"مقرأة سورة الممتحنة من أولها","publishedAt":"2019-04-04T08:21:14Z","duration":"PT19M52S","thumbnail":"https://i.ytimg.com/vi/oEGg4PVolYI/mqdefault.jpg","viewCount":"476","playlistId":"PLEkQk5xrP-tnmTYsyW6xNdyfhPq0Bhrhj","playlistName":"مقرأة الفجر - القُرْآنُ الكَرِيمُ - خَتْمَةُ التَّدَبُّرِ  أ.د. يسري جبر","category":"متنوع"},{"id":"m_AOIep7lyc","title":"84- شرح اللؤلؤ والمرجان كتاب الطلاق من أوله","publishedAt":"2020-03-03T06:00:05Z","duration":"PT29M18S","thumbnail":"https://i.ytimg.com/vi/m_AOIep7lyc/mqdefault.jpg","viewCount":"476","playlistId":"PLEkQk5xrP-tmKNjtYLfhATC37QdIsTMe0","playlistName":"شرح كتاب اللؤلؤ والمرجان فيما اتفق عليه الشيخان إماما المحدثين البخاري ومسلم. أ.د. يسري جبر","category":"حديث"},{"id":"LE3CNLvaGNY","title":"379- إنَّ اللهَ قَدْ فَرِضَ عَليكُمُ الحجُّ فحُجُّوا - شرح دليل الفالحين","publishedAt":"2023-01-10T05:00:14Z","duration":"PT24M14S","thumbnail":"https://i.ytimg.com/vi/LE3CNLvaGNY/mqdefault.jpg","viewCount":"476","playlistId":"PLEkQk5xrP-tkc9DXvSLguqX5-FYp6ASR4","playlistName":"دليل الفالحين لطرق رياض الصالحين","category":"متنوع"},{"id":"DhwUAGwQHyU","title":"مقرأة سورة التحريم من آية ٤","publishedAt":"2019-04-26T21:27:45Z","duration":"PT18M2S","thumbnail":"https://i.ytimg.com/vi/DhwUAGwQHyU/mqdefault.jpg","viewCount":"476","playlistId":"PLEkQk5xrP-tnmTYsyW6xNdyfhPq0Bhrhj","playlistName":"مقرأة الفجر - القُرْآنُ الكَرِيمُ - خَتْمَةُ التَّدَبُّرِ  أ.د. يسري جبر","category":"متنوع"},{"id":"28QW09XiAuo","title":"شرح صحيح البخاري   كتاب مناقب الأنصار تكملة باب ٤٥ المجلس الثالث","publishedAt":"2017-12-15T20:27:10Z","duration":"PT35M41S","thumbnail":"https://i.ytimg.com/vi/28QW09XiAuo/mqdefault.jpg","viewCount":"476","playlistId":"PLEkQk5xrP-tlEerGoLa1AFy-2XvQ-sovv","playlistName":"شرح صحيح البخاري - أ.د. يسري جبر (كاملا)","category":"حديث"},{"id":"W8Mzr--ONDQ","title":"إطلاق الجَمْع وإرادة المُثَنَّى","publishedAt":"2020-10-19T06:59:43Z","duration":"PT18M49S","thumbnail":"https://i.ytimg.com/vi/W8Mzr--ONDQ/mqdefault.jpg","viewCount":"475","playlistId":"PLEkQk5xrP-tnW3iBL7HkKziOFCFZbTlf0","playlistName":"شرح البرهان في علوم القرآن - أ.د. يسري جبر","category":"تفسير"}],"total":7670,"page":232,"pageSize":24,"totalPages":320}