{"items":[{"id":"Ih6fnet2q74","title":"ألا لا إيمان لمن لا محبة له","publishedAt":"2020-11-02T20:18:55Z","duration":"PT29M","thumbnail":"https://i.ytimg.com/vi/Ih6fnet2q74/mqdefault.jpg","viewCount":"17355","playlistId":"PLEkQk5xrP-tm8ZIu74nTOZN9KJUJu416J","playlistName":"مقاطع مُهمَّة (يُسريَّات) أ.د. يسري جبر","category":"متنوع"},{"id":"QDJr8J7I8x4","title":"دقائق في العقيدة.  أ.د. يسري جبر","publishedAt":"2019-11-16T21:54:49Z","duration":"PT51M25S","thumbnail":"https://i.ytimg.com/vi/QDJr8J7I8x4/mqdefault.jpg","viewCount":"17284","playlistId":"PLEkQk5xrP-tlArtGpeLWaqNM7h7IDeAVC","playlistName":"خطب الجمعة أ.د. يسري جبر","category":"خطب"},{"id":"tAfVIjts4LY","title":"هل التدخين حرام؟؟","publishedAt":"2021-09-03T19:09:43Z","duration":"PT8M46S","thumbnail":"https://i.ytimg.com/vi/tAfVIjts4LY/mqdefault.jpg","viewCount":"17276","playlistId":"PLEkQk5xrP-tkGXuZ9atE3k_7it12rUPTs","playlistName":"أسئلة المتابعين","category":"متنوع"},{"id":"jmsH_a_L9Oo","title":"شرح صلاة الأُنسِ لسيدي أحمد الرفاعي رضي الله تعالى عنه    أ.د. يسري جبر","publishedAt":"2019-10-28T12:59:13Z","duration":"PT35M3S","thumbnail":"https://i.ytimg.com/vi/jmsH_a_L9Oo/mqdefault.jpg","viewCount":"17217","playlistId":"PLEkQk5xrP-tknLQLcWmVVpecUHkbu7cHh","playlistName":"شرح صلوات مختارة على النبي صلى الله عليه وآله وسلم  أ.د. يسري جبر","category":"سيرة"},{"id":"imqcgdYGiWg","title":"كيف نفهم كلام الأولياء؟","publishedAt":"2021-09-27T18:30:26Z","duration":"PT15M12S","thumbnail":"https://i.ytimg.com/vi/imqcgdYGiWg/mqdefault.jpg","viewCount":"17216","playlistId":"PLEkQk5xrP-tkGXuZ9atE3k_7it12rUPTs","playlistName":"أسئلة المتابعين","category":"متنوع"},{"id":"mCj-KBYtjqk","title":"الفرق بين الأحدية والواحدية والتوحيد والفرق بين الألوهية والربوبية - د. يسري جبر","publishedAt":"2014-12-19T19:48:48Z","duration":"PT5M43S","thumbnail":"https://i.ytimg.com/vi/mCj-KBYtjqk/mqdefault.jpg","viewCount":"17196","playlistId":"PLEkQk5xrP-tm8ZIu74nTOZN9KJUJu416J","playlistName":"مقاطع مُهمَّة (يُسريَّات) أ.د. يسري جبر","category":"متنوع"},{"id":"UQ4CiNB-9Rc","title":"قوانين و أسرار الرزق","publishedAt":"2022-11-21T18:00:21Z","duration":"PT12M25S","thumbnail":"https://i.ytimg.com/vi/UQ4CiNB-9Rc/mqdefault.jpg","viewCount":"17173","playlistId":"PLEkQk5xrP-tlArtGpeLWaqNM7h7IDeAVC","playlistName":"خطب الجمعة أ.د. يسري جبر","category":"خطب"},{"id":"0X-pDoaXoa0","title":"بَشَرٌ لَا كَالبَشَرِ ﷺ   أ د  يسري جبر","publishedAt":"2020-04-20T19:02:10Z","duration":"PT1H10M11S","thumbnail":"https://i.ytimg.com/vi/0X-pDoaXoa0/mqdefault.jpg","viewCount":"17166","playlistId":"PLEkQk5xrP-tlnvX_MSpJzq0sTimnumdYK","playlistName":"كيف تعرفُ نبيّك؟","category":"متنوع"},{"id":"NLbXJC5ih1Y","title":"خطورة الاعتراض على قدر الله","publishedAt":"2023-02-03T18:00:09Z","duration":"PT15M14S","thumbnail":"https://i.ytimg.com/vi/NLbXJC5ih1Y/mqdefault.jpg","viewCount":"17134","playlistId":"PLEkQk5xrP-tlArtGpeLWaqNM7h7IDeAVC","playlistName":"خطب الجمعة أ.د. يسري جبر","category":"خطب"},{"id":"3cbuCyplB2k","title":"حكم تربية الكلب في البيت؟","publishedAt":"2021-01-07T17:45:02Z","duration":"PT10M59S","thumbnail":"https://i.ytimg.com/vi/3cbuCyplB2k/mqdefault.jpg","viewCount":"17128","playlistId":"PLEkQk5xrP-tkGXuZ9atE3k_7it12rUPTs","playlistName":"أسئلة المتابعين","category":"متنوع"},{"id":"VvqxRutWilc","title":"ألا إن نصر الله قريب","publishedAt":"2023-10-13T17:00:20Z","duration":"PT8M12S","thumbnail":"https://i.ytimg.com/vi/VvqxRutWilc/mqdefault.jpg","viewCount":"17122","playlistId":"PLEkQk5xrP-tlArtGpeLWaqNM7h7IDeAVC","playlistName":"خطب الجمعة أ.د. يسري جبر","category":"خطب"},{"id":"j--NzQhEN1k","title":"ورد يوم الأربعاء من كتاب دلائل الخيرات وشوارق الأنوار في ذكر الصلاة على النَّبيّ المختار ﷺ","publishedAt":"2023-09-06T09:00:35Z","duration":"PT15M3S","thumbnail":"https://i.ytimg.com/vi/j--NzQhEN1k/mqdefault.jpg","viewCount":"17106","playlistId":"PLEkQk5xrP-tnAXVT9Huen-nNMlvs5w6UI","playlistName":"دلائل الخيرات و شوارق الأنوار في ذكر الصلاة على النَّبيّ المختار ﷺ","category":"تصوف"},{"id":"t9T2q_96FIM","title":"ما هي أفضل الأعمال في شهر شعبان؟","publishedAt":"2023-02-21T18:00:23Z","duration":"PT13M54S","thumbnail":"https://i.ytimg.com/vi/t9T2q_96FIM/mqdefault.jpg","viewCount":"17069","playlistId":"PLEkQk5xrP-tlArtGpeLWaqNM7h7IDeAVC","playlistName":"خطب الجمعة أ.د. يسري جبر","category":"خطب"},{"id":"xLDh2_K7JAw","title":"متى تنتهي جائحة كورونا؟","publishedAt":"2021-01-09T17:45:01Z","duration":"PT12M8S","thumbnail":"https://i.ytimg.com/vi/xLDh2_K7JAw/mqdefault.jpg","viewCount":"17024","playlistId":"PLEkQk5xrP-tlArtGpeLWaqNM7h7IDeAVC","playlistName":"خطب الجمعة أ.د. يسري جبر","category":"خطب"},{"id":"nZmnqKhpPsE","title":"شرح كتاب نوراليقين في سيرة سيد المرسلين - المجلس السابع والعشرون ( سرية الرجيع ) د.يسري جبر","publishedAt":"2017-10-29T20:58:45Z","duration":"PT51M36S","thumbnail":"https://i.ytimg.com/vi/nZmnqKhpPsE/mqdefault.jpg","viewCount":"17015","playlistId":"PLEkQk5xrP-tl2t4NQx1IhKnAJCMzF0Nli","playlistName":"شرح كتاب نور اليقين في سيرة سيد المرسلين   د. يسري جبر","category":"سيرة"},{"id":"d-Pkin5JZdg","title":"شرح كتاب منازل السائرين للإمام الهروى - المجلس الرابع - باب التوبة","publishedAt":"2015-12-30T14:04:06Z","duration":"PT1H47M39S","thumbnail":"https://i.ytimg.com/vi/d-Pkin5JZdg/mqdefault.jpg","viewCount":"16991","playlistId":"PLEkQk5xrP-tnLYi_5_tSRVBwqcs7ISV7Y","playlistName":"شرح كتاب منازل السائرين للإمام الهروي","category":"متنوع"},{"id":"CI-mQAoCp80","title":"ربما أطلعك على غيب ملكوته، وحجب عنك الاستشراف على أسرار العباد.","publishedAt":"2017-04-16T11:45:28Z","duration":"PT19M39S","thumbnail":"https://i.ytimg.com/vi/CI-mQAoCp80/mqdefault.jpg","viewCount":"16955","playlistId":"PLEkQk5xrP-tkI_meE148wc7V7XHlB0WPb","playlistName":"من الحكم العطائية  د. يسري جبر","category":"متنوع"},{"id":"9P0RCy9ds_w","title":"شرح كتاب نوراليقين في سيرة سيد المرسلين - المجلس الثلاثون ( غزوة الخندق ) د.يسري جبر","publishedAt":"2017-11-22T06:30:51Z","duration":"PT49M18S","thumbnail":"https://i.ytimg.com/vi/9P0RCy9ds_w/mqdefault.jpg","viewCount":"16954","playlistId":"PLEkQk5xrP-tl2t4NQx1IhKnAJCMzF0Nli","playlistName":"شرح كتاب نور اليقين في سيرة سيد المرسلين   د. يسري جبر","category":"سيرة"},{"id":"Nzp5dfVvcrk","title":"ورد يوم الخميس من كتاب دلائل الخيرات وشوارق الأنوار في ذكر الصلاة على النَّبيّ المختار ﷺ","publishedAt":"2023-09-07T09:00:24Z","duration":"PT14M49S","thumbnail":"https://i.ytimg.com/vi/Nzp5dfVvcrk/mqdefault.jpg","viewCount":"16917","playlistId":"PLEkQk5xrP-tnAXVT9Huen-nNMlvs5w6UI","playlistName":"دلائل الخيرات و شوارق الأنوار في ذكر الصلاة على النَّبيّ المختار ﷺ","category":"تصوف"},{"id":"Z45mk4FamSI","title":"شرح كتاب نوراليقين في سيرة سيد المرسلين - المجلس الثامن والعشرون ( غزوة بدر الآخرة ) د.يسري جبر","publishedAt":"2017-11-06T17:53:20Z","duration":"PT56M5S","thumbnail":"https://i.ytimg.com/vi/Z45mk4FamSI/mqdefault.jpg","viewCount":"16908","playlistId":"PLEkQk5xrP-tl2t4NQx1IhKnAJCMzF0Nli","playlistName":"شرح كتاب نور اليقين في سيرة سيد المرسلين   د. يسري جبر","category":"سيرة"},{"id":"nUY8svTWXsM","title":"كيف أتغلب على هم الرزق والخوف من الخلق | أسباب زيادة الرزق","publishedAt":"2024-08-08T17:59:54Z","duration":"PT22M41S","thumbnail":"https://i.ytimg.com/vi/nUY8svTWXsM/mqdefault.jpg","viewCount":"16853","playlistId":"PLEkQk5xrP-tlArtGpeLWaqNM7h7IDeAVC","playlistName":"خطب الجمعة أ.د. يسري جبر","category":"خطب"},{"id":"dNF5OkVznDE","title":"فضل العشر الأوائل من ذي الحجة","publishedAt":"2021-07-10T19:14:53Z","duration":"PT35M36S","thumbnail":"https://i.ytimg.com/vi/dNF5OkVznDE/mqdefault.jpg","viewCount":"16827","playlistId":"PLEkQk5xrP-tlArtGpeLWaqNM7h7IDeAVC","playlistName":"خطب الجمعة أ.د. يسري جبر","category":"خطب"},{"id":"k4hIPcu8Cis","title":"كبف تحرر نفسك من الخوف على الرزق؟","publishedAt":"2023-02-04T18:00:21Z","duration":"PT14M6S","thumbnail":"https://i.ytimg.com/vi/k4hIPcu8Cis/mqdefault.jpg","viewCount":"16801","playlistId":"PLEkQk5xrP-tlArtGpeLWaqNM7h7IDeAVC","playlistName":"خطب الجمعة أ.د. يسري جبر","category":"خطب"},{"id":"Z7N8NTGlGQM","title":"الرد على من ينكر حديث المصافحة والمشابكة","publishedAt":"2022-07-06T19:15:23Z","duration":"PT8M48S","thumbnail":"https://i.ytimg.com/vi/Z7N8NTGlGQM/mqdefault.jpg","viewCount":"16775","playlistId":"PLEkQk5xrP-tm8ZIu74nTOZN9KJUJu416J","playlistName":"مقاطع مُهمَّة (يُسريَّات) أ.د. يسري جبر","category":"متنوع"}],"total":7670,"page":17,"pageSize":24,"totalPages":320}