{"items":[{"id":"E9yIHhUFWNM","title":"مقرأة سورة الدخان من أولها","publishedAt":"2018-12-22T09:54:01Z","duration":"PT33M47S","thumbnail":"https://i.ytimg.com/vi/E9yIHhUFWNM/mqdefault.jpg","viewCount":"1008","playlistId":"PLEkQk5xrP-tnmTYsyW6xNdyfhPq0Bhrhj","playlistName":"مقرأة الفجر - القُرْآنُ الكَرِيمُ - خَتْمَةُ التَّدَبُّرِ  أ.د. يسري جبر","category":"متنوع"},{"id":"xSX2yEs6O6Q","title":"شرح كتاب الإشارات الزروقيّة علی الآيات القرآنية - المجلس السادس","publishedAt":"2018-06-29T09:13:02Z","duration":"PT40M25S","thumbnail":"https://i.ytimg.com/vi/xSX2yEs6O6Q/mqdefault.jpg","viewCount":"1007","playlistId":"PLEkQk5xrP-tl1OLT5J2vthcf9QHpjNkWx","playlistName":"شرح كتاب الإشارات الزروقيّة علی الآيات القرآنية  د. يسري جبر","category":"تفسير"},{"id":"E3-6kf-2gEk","title":"147- لعن اللهُ مَن تولَّى غير مَواليه - شرح مسند الإمام أحمد رضي الله تعالى عنه","publishedAt":"2025-01-01T07:11:04Z","duration":"PT35M38S","thumbnail":"https://i.ytimg.com/vi/E3-6kf-2gEk/mqdefault.jpg","viewCount":"1006","playlistId":"PLEkQk5xrP-tkKprIuGrSdEuBSMsyg5We1","playlistName":"شرح مسند الإمام أحمد بن حنبل","category":"متنوع"},{"id":"gpZ8ROtB2Bs","title":"397- مَن دَعا إلى هُدًى، كانَ له مِنَ الأجْرِ مِثْلُ أُجُورِ مَن تَبِعَهُ… - شرح دليل الفالحين","publishedAt":"2023-02-11T05:00:30Z","duration":"PT33M46S","thumbnail":"https://i.ytimg.com/vi/gpZ8ROtB2Bs/mqdefault.jpg","viewCount":"1005","playlistId":"PLEkQk5xrP-tkc9DXvSLguqX5-FYp6ASR4","playlistName":"دليل الفالحين لطرق رياض الصالحين","category":"متنوع"},{"id":"--oc4y51OH0","title":"شرح صحيح البخاري - كتاب البيوع من باب ٥٠","publishedAt":"2017-04-29T17:04:24Z","duration":"PT48M52S","thumbnail":"https://i.ytimg.com/vi/--oc4y51OH0/mqdefault.jpg","viewCount":"1004","playlistId":"PLEkQk5xrP-tlEerGoLa1AFy-2XvQ-sovv","playlistName":"شرح صحيح البخاري - أ.د. يسري جبر (كاملا)","category":"حديث"},{"id":"50RqYjBw1vQ","title":"264- النهي عن سؤال الإمارة - شرح دليل الفالحين","publishedAt":"2022-06-10T05:03:00Z","duration":"PT38M36S","thumbnail":"https://i.ytimg.com/vi/50RqYjBw1vQ/mqdefault.jpg","viewCount":"1004","playlistId":"PLEkQk5xrP-tkc9DXvSLguqX5-FYp6ASR4","playlistName":"دليل الفالحين لطرق رياض الصالحين","category":"متنوع"},{"id":"gHApLXHvXLk","title":"19- شرح اللؤلؤ والمرجان كتاب الطهارة من باب ١٧","publishedAt":"2020-01-04T22:16:09Z","duration":"PT50M51S","thumbnail":"https://i.ytimg.com/vi/gHApLXHvXLk/mqdefault.jpg","viewCount":"1004","playlistId":"PLEkQk5xrP-tmKNjtYLfhATC37QdIsTMe0","playlistName":"شرح كتاب اللؤلؤ والمرجان فيما اتفق عليه الشيخان إماما المحدثين البخاري ومسلم. أ.د. يسري جبر","category":"حديث"},{"id":"4sISodcxK0Y","title":"إنَّمَا جَعَلَها مَحَلًّا للأَغْيَار ومَعْدِنًا لوجُودِ الأكْدَار.. تزْهيدًا لكَ فيها.","publishedAt":"2018-03-30T18:43:47Z","duration":"PT3M38S","thumbnail":"https://i.ytimg.com/vi/4sISodcxK0Y/mqdefault.jpg","viewCount":"1003","playlistId":"PLEkQk5xrP-tkI_meE148wc7V7XHlB0WPb","playlistName":"من الحكم العطائية  د. يسري جبر","category":"متنوع"},{"id":"16Fsol2KX7U","title":"وُجوه المخاطبات والخطاب في القرآن","publishedAt":"2020-09-21T05:40:13Z","duration":"PT25M38S","thumbnail":"https://i.ytimg.com/vi/16Fsol2KX7U/mqdefault.jpg","viewCount":"1002","playlistId":"PLEkQk5xrP-tnW3iBL7HkKziOFCFZbTlf0","playlistName":"شرح البرهان في علوم القرآن - أ.د. يسري جبر","category":"تفسير"},{"id":"snzMJoq9JZk","title":"423- لقَدْ كان فيما قبْلَكُم مِن الأُممِ ناسٌ مُحَدَّثُونَ، فإنْ يَكُ في أُمَّتي أحدٌ فإنَّه عُمَرُ.","publishedAt":"2023-04-06T05:00:21Z","duration":"PT33M35S","thumbnail":"https://i.ytimg.com/vi/snzMJoq9JZk/mqdefault.jpg","viewCount":"1001","playlistId":"PLEkQk5xrP-tkc9DXvSLguqX5-FYp6ASR4","playlistName":"دليل الفالحين لطرق رياض الصالحين","category":"متنوع"},{"id":"dspKJ6OE7TQ","title":"شرح صحيح البخاري -  كتاب الزكاة من باب ٢٩","publishedAt":"2017-02-17T08:32:33Z","duration":"PT36M47S","thumbnail":"https://i.ytimg.com/vi/dspKJ6OE7TQ/mqdefault.jpg","viewCount":"1001","playlistId":"PLEkQk5xrP-tlEerGoLa1AFy-2XvQ-sovv","playlistName":"شرح صحيح البخاري - أ.د. يسري جبر (كاملا)","category":"حديث"},{"id":"Wk0ICRr__gM","title":"(38) سيدنا أبو عبد الله محمد بن إسماعيل المغربي رضي الله عنه  د. يسري جبر","publishedAt":"2018-09-17T18:53:25Z","duration":"PT3M58S","thumbnail":"https://i.ytimg.com/vi/Wk0ICRr__gM/mqdefault.jpg","viewCount":"1000","playlistId":"PLEkQk5xrP-tmmI87XkWepRdTpisz2Lfgr","playlistName":"باب في ذكر مشايخ هذه الطريقة من شرح كتاب الرسالة القشيرية","category":"تصوف"},{"id":"rbcIRODyrqo","title":"210- الناسخ والمنسوخ - شرح الإتقان في علوم القرآن","publishedAt":"2024-02-17T21:58:42Z","duration":"PT33M48S","thumbnail":"https://i.ytimg.com/vi/rbcIRODyrqo/mqdefault.jpg","viewCount":"999","playlistId":"PLEkQk5xrP-tlPw10KGJKagu7zm4Ry2Tge","playlistName":"شرح الإتقان في علوم القرآن","category":"تفسير"},{"id":"7k7E5eASIkM","title":"شرح صحيح البخاري كتاب الجمعة من باب ١٦","publishedAt":"2016-12-02T08:31:49Z","duration":"PT37M15S","thumbnail":"https://i.ytimg.com/vi/7k7E5eASIkM/mqdefault.jpg","viewCount":"998","playlistId":"PLEkQk5xrP-tlEerGoLa1AFy-2XvQ-sovv","playlistName":"شرح صحيح البخاري - أ.د. يسري جبر (كاملا)","category":"حديث"},{"id":"lKDaQNlvAF0","title":"قراءة القرآن (من آية ١٨٠ سورة البقرة)","publishedAt":"2016-05-08T02:34:05Z","duration":"PT18M47S","thumbnail":"https://i.ytimg.com/vi/lKDaQNlvAF0/mqdefault.jpg","viewCount":"997","playlistId":"PLEkQk5xrP-tnmTYsyW6xNdyfhPq0Bhrhj","playlistName":"مقرأة الفجر - القُرْآنُ الكَرِيمُ - خَتْمَةُ التَّدَبُّرِ  أ.د. يسري جبر","category":"متنوع"},{"id":"taI72_s2zLE","title":"شرح صحيح البخاري - كتاب البيوع من باب ٢٠","publishedAt":"2017-04-25T14:40:52Z","duration":"PT36M28S","thumbnail":"https://i.ytimg.com/vi/taI72_s2zLE/mqdefault.jpg","viewCount":"997","playlistId":"PLEkQk5xrP-tlEerGoLa1AFy-2XvQ-sovv","playlistName":"شرح صحيح البخاري - أ.د. يسري جبر (كاملا)","category":"حديث"},{"id":"q3wo9L5DMlg","title":"118- حكم النوم أثناء السجود - شرح مسند الإمام أحمد رضي الله تعالى عنه","publishedAt":"2024-07-29T06:00:21Z","duration":"PT25M26S","thumbnail":"https://i.ytimg.com/vi/q3wo9L5DMlg/mqdefault.jpg","viewCount":"996","playlistId":"PLEkQk5xrP-tkKprIuGrSdEuBSMsyg5We1","playlistName":"شرح مسند الإمام أحمد بن حنبل","category":"متنوع"},{"id":"-0chXj_fmWs","title":"152- آداب النوم - شرح مسند الإمام أحمد رضي الله تعالى عنه","publishedAt":"2025-02-16T07:11:05Z","duration":"PT14M","thumbnail":"https://i.ytimg.com/vi/-0chXj_fmWs/mqdefault.jpg","viewCount":"996","playlistId":"PLEkQk5xrP-tkKprIuGrSdEuBSMsyg5We1","playlistName":"شرح مسند الإمام أحمد بن حنبل","category":"متنوع"},{"id":"ExS-dVFLC00","title":"400- ما هي أفضل عبادة تطوع بعد الفريضة؟","publishedAt":"2023-02-17T09:00:11Z","duration":"PT45M17S","thumbnail":"https://i.ytimg.com/vi/ExS-dVFLC00/mqdefault.jpg","viewCount":"996","playlistId":"PLEkQk5xrP-tkc9DXvSLguqX5-FYp6ASR4","playlistName":"دليل الفالحين لطرق رياض الصالحين","category":"متنوع"},{"id":"er_CzM3RVqU","title":"تفسير سورة الهُمَزَة  د. يسري جبر","publishedAt":"2018-03-17T15:30:04Z","duration":"PT37M5S","thumbnail":"https://i.ytimg.com/vi/er_CzM3RVqU/mqdefault.jpg","viewCount":"996","playlistId":"PLEkQk5xrP-tlArtGpeLWaqNM7h7IDeAVC","playlistName":"خطب الجمعة أ.د. يسري جبر","category":"خطب"},{"id":"jkRZGGodmqw","title":"مقرأة سورة النبأ من أولها","publishedAt":"2019-06-11T12:16:36Z","duration":"PT12M35S","thumbnail":"https://i.ytimg.com/vi/jkRZGGodmqw/mqdefault.jpg","viewCount":"996","playlistId":"PLEkQk5xrP-tnmTYsyW6xNdyfhPq0Bhrhj","playlistName":"مقرأة الفجر - القُرْآنُ الكَرِيمُ - خَتْمَةُ التَّدَبُّرِ  أ.د. يسري جبر","category":"متنوع"},{"id":"ORTSxon2-Kg","title":"482- التغليظ في تحريم السحر - شرح دليل الفالحين","publishedAt":"2023-06-21T08:59:00Z","duration":"PT21M15S","thumbnail":"https://i.ytimg.com/vi/ORTSxon2-Kg/mqdefault.jpg","viewCount":"996","playlistId":"PLEkQk5xrP-tkc9DXvSLguqX5-FYp6ASR4","playlistName":"دليل الفالحين لطرق رياض الصالحين","category":"متنوع"},{"id":"iklKk8FVwUM","title":"24- شرح اللؤلؤ والمرجان كتاب الصلاة من باب ١٧","publishedAt":"2020-01-08T19:28:22Z","duration":"PT37M24S","thumbnail":"https://i.ytimg.com/vi/iklKk8FVwUM/mqdefault.jpg","viewCount":"995","playlistId":"PLEkQk5xrP-tmKNjtYLfhATC37QdIsTMe0","playlistName":"شرح كتاب اللؤلؤ والمرجان فيما اتفق عليه الشيخان إماما المحدثين البخاري ومسلم. أ.د. يسري جبر","category":"حديث"},{"id":"s_pkd3y5nnc","title":"412- بيان ما يُقال إذا أمسيْت وإذا أصبحْت وإذا أخذْت مضجعك - شرح دليل الفالحين","publishedAt":"2023-03-15T05:35:00Z","duration":"PT30M18S","thumbnail":"https://i.ytimg.com/vi/s_pkd3y5nnc/mqdefault.jpg","viewCount":"995","playlistId":"PLEkQk5xrP-tkc9DXvSLguqX5-FYp6ASR4","playlistName":"دليل الفالحين لطرق رياض الصالحين","category":"متنوع"}],"total":7670,"page":153,"pageSize":24,"totalPages":320}