{"items":[{"id":"qlfT-yHT8jw","title":"‎شرح كتاب دلائل الخيرات - المجلس الحادي والعشرون. أ.د. يسري جبر","publishedAt":"2020-02-24T12:47:58Z","duration":"PT15M53S","thumbnail":"https://i.ytimg.com/vi/qlfT-yHT8jw/mqdefault.jpg","viewCount":"6343","playlistId":"PLEkQk5xrP-tlAzcbIpuqjdFICW-knvTlR","playlistName":"شرح كتاب دلائل الخيرات وشوارق الأنوار","category":"متنوع"},{"id":"t_dq16zmdyc","title":"الرسالة القشيرية - المجلس (65)  بابُ الصَّبْر . أ.د. يسري جبر","publishedAt":"2020-01-20T17:44:22Z","duration":"PT51M14S","thumbnail":"https://i.ytimg.com/vi/t_dq16zmdyc/mqdefault.jpg","viewCount":"6339","playlistId":"PLEkQk5xrP-tkHAGOwIKr4pc5ehhyQ5HMJ","playlistName":"كتاب الرسالة القشيرية (تصوف) - د. يسري جبر","category":"تصوف"},{"id":"UoIIcgnhNVY","title":"!احذر المَلل","publishedAt":"2020-07-27T19:46:23Z","duration":"PT5M21S","thumbnail":"https://i.ytimg.com/vi/UoIIcgnhNVY/mqdefault.jpg","viewCount":"6337","playlistId":"PLEkQk5xrP-tm8ZIu74nTOZN9KJUJu416J","playlistName":"مقاطع مُهمَّة (يُسريَّات) أ.د. يسري جبر","category":"متنوع"},{"id":"wiN19lwrmxo","title":"مراتي بتشتغل ,,هل مشاركتها في مصروف البيت واجبة؟","publishedAt":"2024-05-06T17:32:16Z","duration":"PT8M6S","thumbnail":"https://i.ytimg.com/vi/wiN19lwrmxo/mqdefault.jpg","viewCount":"6333","playlistId":"PLEkQk5xrP-tkGXuZ9atE3k_7it12rUPTs","playlistName":"أسئلة المتابعين","category":"متنوع"},{"id":"nrdXeTnGd4w","title":"27- هل العالم قديم أم حادث؟ | الحيرة في معرفة الذات الإلهية | شرح مختصر الفتوحات المكية","publishedAt":"2024-07-28T17:00:37Z","duration":"PT1H2M17S","thumbnail":"https://i.ytimg.com/vi/nrdXeTnGd4w/mqdefault.jpg","viewCount":"6329","playlistId":"PLEkQk5xrP-tnpkdZki6rPTtMak1bnI5g-","playlistName":"شرح كتاب مختصر الفتوحات المكية المسمى لواقح الأنوار القدسية","category":"متنوع"},{"id":"lpP6DRNmKhM","title":"50- الانبساط والدلال في الطريق إلى الله | شرح منازل السائرين","publishedAt":"2024-10-30T13:31:59Z","duration":"PT39M54S","thumbnail":"https://i.ytimg.com/vi/lpP6DRNmKhM/mqdefault.jpg","viewCount":"6320","playlistId":"PLEkQk5xrP-tmiUfQ-2Tsn7QIak4EsvaZW","playlistName":"كتاب التيسير المعين بشرح معاني منازل السائرين (تصوف) - د.يسري جبر","category":"تصوف"},{"id":"zqXZzacitGg","title":"العُمدةُ قي شرحِ البُردةِ  أ.د. يسري جبر","publishedAt":"2020-05-13T23:15:57Z","duration":"PT43M56S","thumbnail":"https://i.ytimg.com/vi/zqXZzacitGg/mqdefault.jpg","viewCount":"6306","playlistId":"PLEkQk5xrP-tmobcu_1bgkLNfeJXVsmjFZ","playlistName":"شرح بردة الإمام البوصيري أ.د/ يسري جبر","category":"ردود"},{"id":"ZQX44SYwJ5E","title":"الفرق بين الأحدية والواحدية","publishedAt":"2021-02-13T17:43:45Z","duration":"PT12M38S","thumbnail":"https://i.ytimg.com/vi/ZQX44SYwJ5E/mqdefault.jpg","viewCount":"6304","playlistId":"PLEkQk5xrP-tlArtGpeLWaqNM7h7IDeAVC","playlistName":"خطب الجمعة أ.د. يسري جبر","category":"خطب"},{"id":"AvdJPtXhyOI","title":"الرسالة القشيرية المجلس الثاني و الأربعون - تكملة باب المجاهدة (2)  أ.د. يسري جبر","publishedAt":"2018-12-28T19:55:17Z","duration":"PT53M6S","thumbnail":"https://i.ytimg.com/vi/AvdJPtXhyOI/mqdefault.jpg","viewCount":"6303","playlistId":"PLEkQk5xrP-tkHAGOwIKr4pc5ehhyQ5HMJ","playlistName":"كتاب الرسالة القشيرية (تصوف) - د. يسري جبر","category":"تصوف"},{"id":"y5bgcxbl48E","title":"هل الحسد والعين ممكن يكونوا سبب للموت؟","publishedAt":"2024-05-02T18:10:38Z","duration":"PT10M30S","thumbnail":"https://i.ytimg.com/vi/y5bgcxbl48E/mqdefault.jpg","viewCount":"6291","playlistId":"PLEkQk5xrP-tkGXuZ9atE3k_7it12rUPTs","playlistName":"أسئلة المتابعين","category":"متنوع"},{"id":"rlD0q5EqagU","title":"كيف أصبر على البلاء ,, وما الفرق بين البلاء والابتلاء؟","publishedAt":"2024-01-09T18:04:57Z","duration":"PT9M25S","thumbnail":"https://i.ytimg.com/vi/rlD0q5EqagU/mqdefault.jpg","viewCount":"6283","playlistId":"PLEkQk5xrP-tkGXuZ9atE3k_7it12rUPTs","playlistName":"أسئلة المتابعين","category":"متنوع"},{"id":"Mf2UkU-KWok","title":"13- مناقب سيدي أحمد البدويّ -رضي الله عنه- وشرح الصَّلاة النُّورانيَّة","publishedAt":"2022-07-28T05:15:00Z","duration":"PT20M10S","thumbnail":"https://i.ytimg.com/vi/Mf2UkU-KWok/mqdefault.jpg","viewCount":"6282","playlistId":"PLEkQk5xrP-tkFEtMu56Xb9U9FCZBTXiLf","playlistName":"شرح صلوات الأولياء على خاتم الأنبياء ﷺ","category":"صلوات"},{"id":"hSkd59FxULw","title":"ما أفضل كتب تفسير القرآن وما هي أنواع التفسير؟","publishedAt":"2024-07-08T18:00:30Z","duration":"PT23M41S","thumbnail":"https://i.ytimg.com/vi/hSkd59FxULw/mqdefault.jpg","viewCount":"6275","playlistId":"PLEkQk5xrP-tkSGrPLMt1BEmJ54cGWYgtp","playlistName":"كتابُ بِدَعِ التَفَاسِيرِ - أ.د. يسري جبر","category":"متنوع"},{"id":"AbSn28cTTrg","title":"الرسالة القشيرية المجلس الواحد و الثلاثون ( المحو والإثبات - السَتر والتجلِّي ) د. يسري جبر","publishedAt":"2018-10-12T19:53:52Z","duration":"PT45M26S","thumbnail":"https://i.ytimg.com/vi/AbSn28cTTrg/mqdefault.jpg","viewCount":"6270","playlistId":"PLEkQk5xrP-tkHAGOwIKr4pc5ehhyQ5HMJ","playlistName":"كتاب الرسالة القشيرية (تصوف) - د. يسري جبر","category":"تصوف"},{"id":"HR3g55dyCZ0","title":"هل يجوز الأكل عند شخص مع علمي بأن ماله حرام؟","publishedAt":"2023-02-16T18:00:07Z","duration":"PT8M34S","thumbnail":"https://i.ytimg.com/vi/HR3g55dyCZ0/mqdefault.jpg","viewCount":"6267","playlistId":"PLEkQk5xrP-tkGXuZ9atE3k_7it12rUPTs","playlistName":"أسئلة المتابعين","category":"متنوع"},{"id":"58F6l8vVOKQ","title":"أول خطوة إلى الله الأدب مع سيدنا رسول الله صلى الله عليه وآله وسلم","publishedAt":"2017-12-23T07:04:59Z","duration":"PT40M53S","thumbnail":"https://i.ytimg.com/vi/58F6l8vVOKQ/mqdefault.jpg","viewCount":"6261","playlistId":"PLEkQk5xrP-tlArtGpeLWaqNM7h7IDeAVC","playlistName":"خطب الجمعة أ.د. يسري جبر","category":"خطب"},{"id":"QCEfdjijoN4","title":"كيف أوفق بين طلب العلم والعمل؟","publishedAt":"2022-06-07T18:15:08Z","duration":"PT10M8S","thumbnail":"https://i.ytimg.com/vi/QCEfdjijoN4/mqdefault.jpg","viewCount":"6261","playlistId":"PLEkQk5xrP-tm8ZIu74nTOZN9KJUJu416J","playlistName":"مقاطع مُهمَّة (يُسريَّات) أ.د. يسري جبر","category":"متنوع"},{"id":"Ywju_GLi3Zs","title":"هل يجوز للمسلم دخول الكنيسة؟","publishedAt":"2021-11-24T19:58:02Z","duration":"PT10M7S","thumbnail":"https://i.ytimg.com/vi/Ywju_GLi3Zs/mqdefault.jpg","viewCount":"6260","playlistId":"PLEkQk5xrP-tkGXuZ9atE3k_7it12rUPTs","playlistName":"أسئلة المتابعين","category":"متنوع"},{"id":"rP_yO8WlwBk","title":"نصائح النبي ﷺ لمواجهة الفتن","publishedAt":"2022-12-18T18:00:29Z","duration":"PT8M33S","thumbnail":"https://i.ytimg.com/vi/rP_yO8WlwBk/mqdefault.jpg","viewCount":"6253","playlistId":"PLEkQk5xrP-tlArtGpeLWaqNM7h7IDeAVC","playlistName":"خطب الجمعة أ.د. يسري جبر","category":"خطب"},{"id":"G_nQl4g2XWQ","title":"فضل ليلة القدر","publishedAt":"2023-04-17T15:00:11Z","duration":"PT16M55S","thumbnail":"https://i.ytimg.com/vi/G_nQl4g2XWQ/mqdefault.jpg","viewCount":"6247","playlistId":"PLEkQk5xrP-tlArtGpeLWaqNM7h7IDeAVC","playlistName":"خطب الجمعة أ.د. يسري جبر","category":"خطب"},{"id":"B2ESM4fqbgk","title":"شرح كتاب نور اليقين في سيرة سيد المرسلين للشيخ الخضري رحمه الله (المجلس70) أ.د. يسري جبر","publishedAt":"2018-12-25T15:47:11Z","duration":"PT50M50S","thumbnail":"https://i.ytimg.com/vi/B2ESM4fqbgk/mqdefault.jpg","viewCount":"6243","playlistId":"PLEkQk5xrP-tl2t4NQx1IhKnAJCMzF0Nli","playlistName":"شرح كتاب نور اليقين في سيرة سيد المرسلين   د. يسري جبر","category":"سيرة"},{"id":"As3mTPewN5A","title":"كيف نحتفل بمولد النبي ﷺ؟","publishedAt":"2025-08-24T17:00:10Z","duration":"PT21M49S","thumbnail":"https://i.ytimg.com/vi/As3mTPewN5A/mqdefault.jpg","viewCount":"6233","playlistId":"PLEkQk5xrP-tlArtGpeLWaqNM7h7IDeAVC","playlistName":"خطب الجمعة أ.د. يسري جبر","category":"خطب"},{"id":"I7Wy4FsgLxs","title":"شرح منازل السائرين - المجلس (13) باب الاعتصام | أ.د. يسري جبر","publishedAt":"2022-10-31T18:00:10Z","duration":"PT51M41S","thumbnail":"https://i.ytimg.com/vi/I7Wy4FsgLxs/mqdefault.jpg","viewCount":"6232","playlistId":"PLEkQk5xrP-tmiUfQ-2Tsn7QIak4EsvaZW","playlistName":"كتاب التيسير المعين بشرح معاني منازل السائرين (تصوف) - د.يسري جبر","category":"تصوف"},{"id":"KcBRO97P7Cg","title":"64- ما هي فراسة المؤمن وهل الفراسة من علم الغيب؟ | شرح منازل السائرين","publishedAt":"2025-07-16T18:50:24Z","duration":"PT34M26S","thumbnail":"https://i.ytimg.com/vi/KcBRO97P7Cg/mqdefault.jpg","viewCount":"6219","playlistId":"PLEkQk5xrP-tmiUfQ-2Tsn7QIak4EsvaZW","playlistName":"كتاب التيسير المعين بشرح معاني منازل السائرين (تصوف) - د.يسري جبر","category":"تصوف"}],"total":7670,"page":50,"pageSize":24,"totalPages":320}