{"items":[{"id":"wUSesCN9Oig","title":"كيف تعبد الله كأنك تراه وتتخلق بخلق الحياء؟","publishedAt":"2024-12-01T19:00:44Z","duration":"PT29M","thumbnail":"https://i.ytimg.com/vi/wUSesCN9Oig/mqdefault.jpg","viewCount":"4110","playlistId":"PLEkQk5xrP-tlArtGpeLWaqNM7h7IDeAVC","playlistName":"خطب الجمعة أ.د. يسري جبر","category":"خطب"},{"id":"feJdVubaISQ","title":"169- علاماتُ حُبِّ الله تعالى العبدَ والحَثِّ على التَّخلُّق بها - شرح دليل الفالحين","publishedAt":"2021-12-17T19:34:22Z","duration":"PT40M4S","thumbnail":"https://i.ytimg.com/vi/feJdVubaISQ/mqdefault.jpg","viewCount":"4108","playlistId":"PLEkQk5xrP-tkc9DXvSLguqX5-FYp6ASR4","playlistName":"دليل الفالحين لطرق رياض الصالحين","category":"متنوع"},{"id":"vUcyMilbJZM","title":"171- استحبابُ خفضِ الصوتِ بالذِكْر","publishedAt":"2020-11-25T19:05:16Z","duration":"PT32M24S","thumbnail":"https://i.ytimg.com/vi/vUcyMilbJZM/mqdefault.jpg","viewCount":"4106","playlistId":"PLEkQk5xrP-tmKNjtYLfhATC37QdIsTMe0","playlistName":"شرح كتاب اللؤلؤ والمرجان فيما اتفق عليه الشيخان إماما المحدثين البخاري ومسلم. أ.د. يسري جبر","category":"حديث"},{"id":"Ouj_6l-0Xkg","title":"فضل أخر سورة البقرة | أ.د. يسري جبر","publishedAt":"2021-04-29T14:05:00Z","duration":"PT23M3S","thumbnail":"https://i.ytimg.com/vi/Ouj_6l-0Xkg/mqdefault.jpg","viewCount":"4105","playlistId":"PLEkQk5xrP-tnl7vb7KeAoPd5ZlqKKW8KV","playlistName":"شرح كتاب بهجة النفوس أ.د . يسرى جبر","category":"متنوع"},{"id":"8ZI-e_UE1ho","title":"ما هو نور القديم؟","publishedAt":"2023-03-12T18:09:07Z","duration":"PT14M5S","thumbnail":"https://i.ytimg.com/vi/8ZI-e_UE1ho/mqdefault.jpg","viewCount":"4104","playlistId":"PLEkQk5xrP-tm8ZIu74nTOZN9KJUJu416J","playlistName":"مقاطع مُهمَّة (يُسريَّات) أ.د. يسري جبر","category":"متنوع"},{"id":"NwUDVZ4KmLc","title":"كيف انتهت تجارة العبيد والجواري وقصة تحرر المماليك؟","publishedAt":"2022-12-02T18:00:10Z","duration":"PT10M21S","thumbnail":"https://i.ytimg.com/vi/NwUDVZ4KmLc/mqdefault.jpg","viewCount":"4100","playlistId":"PLEkQk5xrP-tm8ZIu74nTOZN9KJUJu416J","playlistName":"مقاطع مُهمَّة (يُسريَّات) أ.د. يسري جبر","category":"متنوع"},{"id":"fGENFLKbwwE","title":"كيف تتعامل مع الناس بتواضع؟","publishedAt":"2022-12-26T18:00:13Z","duration":"PT12M28S","thumbnail":"https://i.ytimg.com/vi/fGENFLKbwwE/mqdefault.jpg","viewCount":"4097","playlistId":"PLEkQk5xrP-tlArtGpeLWaqNM7h7IDeAVC","playlistName":"خطب الجمعة أ.د. يسري جبر","category":"خطب"},{"id":"Rv9YqHD52mo","title":"1- المقدمة ـ كتاب الطهارة - شرح سنن الدار قطني رضي الله عنه","publishedAt":"2022-12-11T09:00:11Z","duration":"PT40M49S","thumbnail":"https://i.ytimg.com/vi/Rv9YqHD52mo/mqdefault.jpg","viewCount":"4090","playlistId":"PLEkQk5xrP-tk_MCBZ706ORCw6gFtFyaGj","playlistName":"شرح سنن الإمام الدارقطني","category":"متنوع"},{"id":"FUejH87fhLs","title":"21- من لم يقبل على الله بملاطفات اﻹحسان قيد إليه بسلاسل الامتحان | شرح الحكم العطائية","publishedAt":"2025-07-19T17:30:03Z","duration":"PT36M4S","thumbnail":"https://i.ytimg.com/vi/FUejH87fhLs/mqdefault.jpg","viewCount":"4089","playlistId":"PLEkQk5xrP-tmf5ToOwmW-q0JwxkapbrMN","playlistName":"شرح كتاب إرشاد البرية إلى بعض معاني الحكم العطائية","category":"متنوع"},{"id":"kq4RU0aWMN4","title":"قراءة القرآن من سورة الإسراء (من آية 49)","publishedAt":"2015-05-30T03:15:16Z","duration":"PT12M6S","thumbnail":"https://i.ytimg.com/vi/kq4RU0aWMN4/mqdefault.jpg","viewCount":"4088","playlistId":"PLEkQk5xrP-tnUSUj0uyJhA-kwNC7Gkx_j","playlistName":"مقرأة الفجر - بداية من سورة الإسراء حتى سورة الناس","category":"تفسير"},{"id":"t7yMEx4tWA0","title":"17- لا تصحب من لا ينهضك حاله، ولا يدلّك على الله مقاله ‏| شرح الحكم العطائية","publishedAt":"2025-05-04T17:01:04Z","duration":"PT46M44S","thumbnail":"https://i.ytimg.com/vi/t7yMEx4tWA0/mqdefault.jpg","viewCount":"4086","playlistId":"PLEkQk5xrP-tmf5ToOwmW-q0JwxkapbrMN","playlistName":"شرح كتاب إرشاد البرية إلى بعض معاني الحكم العطائية","category":"متنوع"},{"id":"EzW9RvsX0Ag","title":"الصبر بالله لا بالنفس","publishedAt":"2020-06-17T15:38:44Z","duration":"PT5M24S","thumbnail":"https://i.ytimg.com/vi/EzW9RvsX0Ag/mqdefault.jpg","viewCount":"4082","playlistId":"PLEkQk5xrP-tm8ZIu74nTOZN9KJUJu416J","playlistName":"مقاطع مُهمَّة (يُسريَّات) أ.د. يسري جبر","category":"متنوع"},{"id":"DwqNXP8OS5k","title":"هل معصية إبليس من إرادة الله؟","publishedAt":"2021-04-11T19:17:35Z","duration":"PT13M37S","thumbnail":"https://i.ytimg.com/vi/DwqNXP8OS5k/mqdefault.jpg","viewCount":"4081","playlistId":"PLEkQk5xrP-tlArtGpeLWaqNM7h7IDeAVC","playlistName":"خطب الجمعة أ.د. يسري جبر","category":"خطب"},{"id":"ad-ap9WFU0s","title":"الرسالة القشيرية - المجلس (52)  باب الرجاء   أ.د. يسري جبر","publishedAt":"2019-03-14T17:58:28Z","duration":"PT45M4S","thumbnail":"https://i.ytimg.com/vi/ad-ap9WFU0s/mqdefault.jpg","viewCount":"4077","playlistId":"PLEkQk5xrP-tkHAGOwIKr4pc5ehhyQ5HMJ","playlistName":"كتاب الرسالة القشيرية (تصوف) - د. يسري جبر","category":"تصوف"},{"id":"giJRqzAAH6g","title":"هل صدق الرؤيا من علامات الساعة؟ | مجالس رمضانية","publishedAt":"2024-03-13T14:00:36Z","duration":"PT37M38S","thumbnail":"https://i.ytimg.com/vi/giJRqzAAH6g/mqdefault.jpg","viewCount":"4075","playlistId":"PLEkQk5xrP-tnl7vb7KeAoPd5ZlqKKW8KV","playlistName":"شرح كتاب بهجة النفوس أ.د . يسرى جبر","category":"متنوع"},{"id":"v6fqIIWN_98","title":"هل يجوز تعنيف الأطفال المشاغبين في المسجد؟","publishedAt":"2021-09-04T19:01:25Z","duration":"PT9M1S","thumbnail":"https://i.ytimg.com/vi/v6fqIIWN_98/mqdefault.jpg","viewCount":"4073","playlistId":"PLEkQk5xrP-tkGXuZ9atE3k_7it12rUPTs","playlistName":"أسئلة المتابعين","category":"متنوع"},{"id":"4cDlnGseDco","title":"شرح منظومة عَقِيدَةِ العَوَام - المجلس السابع أ.د. يسري جبر","publishedAt":"2019-06-02T21:54:32Z","duration":"PT1H","thumbnail":"https://i.ytimg.com/vi/4cDlnGseDco/mqdefault.jpg","viewCount":"4071","playlistId":"PLEkQk5xrP-tlc2t-K4tRFtzhmE-e6jziG","playlistName":"شرح عقيدة العوام - أ.د. يسري جبر","category":"عقيدة"},{"id":"q4XKtKub7Y8","title":"أنا مقبل على الزواج بس متردد أخد الخطوة دي ,, فماذا أفعل؟","publishedAt":"2023-10-08T18:04:36Z","duration":"PT8M12S","thumbnail":"https://i.ytimg.com/vi/q4XKtKub7Y8/mqdefault.jpg","viewCount":"4067","playlistId":"PLEkQk5xrP-tkGXuZ9atE3k_7it12rUPTs","playlistName":"أسئلة المتابعين","category":"متنوع"},{"id":"C0aa-l2R8oc","title":"الموقف تجاه الفتنة الكبرى بين الصحابة  د. يسرى جبر","publishedAt":"2015-12-07T16:30:59Z","duration":"PT3M28S","thumbnail":"https://i.ytimg.com/vi/C0aa-l2R8oc/mqdefault.jpg","viewCount":"4066","playlistId":"PLEkQk5xrP-tm8ZIu74nTOZN9KJUJu416J","playlistName":"مقاطع مُهمَّة (يُسريَّات) أ.د. يسري جبر","category":"متنوع"},{"id":"afrhNKw1aRU","title":"الرسالة القشيرية المجلس الأربعون - تكملة باب التوبة (3)   أ.د. يسري جبر","publishedAt":"2018-12-13T17:58:47Z","duration":"PT30M41S","thumbnail":"https://i.ytimg.com/vi/afrhNKw1aRU/mqdefault.jpg","viewCount":"4066","playlistId":"PLEkQk5xrP-tkHAGOwIKr4pc5ehhyQ5HMJ","playlistName":"كتاب الرسالة القشيرية (تصوف) - د. يسري جبر","category":"تصوف"},{"id":"WEkdnRIaxkU","title":"كيف تصبر عند الصدمة الأولى؟","publishedAt":"2020-06-16T17:48:44Z","duration":"PT18M27S","thumbnail":"https://i.ytimg.com/vi/WEkdnRIaxkU/mqdefault.jpg","viewCount":"4060","playlistId":"PLEkQk5xrP-tm8ZIu74nTOZN9KJUJu416J","playlistName":"مقاطع مُهمَّة (يُسريَّات) أ.د. يسري جبر","category":"متنوع"},{"id":"HyqQfk7Irf8","title":"عِقد اللول من سيرة الزهراء البتول رضي الله عنها وعليها السلام   د. يسري جبر","publishedAt":"2017-03-18T19:32:34Z","duration":"PT36M29S","thumbnail":"https://i.ytimg.com/vi/HyqQfk7Irf8/mqdefault.jpg","viewCount":"4059","playlistId":"PLEkQk5xrP-tkxpL07FfuZbVfwJKhAVbcE","playlistName":"عِقد اللول من سيرة الزهراء البتول رضي الله عنها وعليها السلام  د . يسري جبر","category":"سيرة"},{"id":"UKPPJw0fFAE","title":"الحياءُ من الله","publishedAt":"2020-07-03T20:48:19Z","duration":"PT8M49S","thumbnail":"https://i.ytimg.com/vi/UKPPJw0fFAE/mqdefault.jpg","viewCount":"4054","playlistId":"PLEkQk5xrP-tm8ZIu74nTOZN9KJUJu416J","playlistName":"مقاطع مُهمَّة (يُسريَّات) أ.د. يسري جبر","category":"متنوع"},{"id":"-S4VyAx2S6k","title":"39- شروط صحة وقبول الصلاة | شرح مختصر الفتوحات المكية","publishedAt":"2025-02-18T20:08:39Z","duration":"PT54M48S","thumbnail":"https://i.ytimg.com/vi/-S4VyAx2S6k/mqdefault.jpg","viewCount":"4048","playlistId":"PLEkQk5xrP-tnpkdZki6rPTtMak1bnI5g-","playlistName":"شرح كتاب مختصر الفتوحات المكية المسمى لواقح الأنوار القدسية","category":"متنوع"}],"total":7670,"page":71,"pageSize":24,"totalPages":320}