{"items":[{"id":"S4wSdKGhHGg","title":"ÙƒÙŠÙ ØªØ­Ø¯Ø« Ù…Ø¹Ø¬Ø²Ø§Øª Ø§Ù„Ø£Ù†Ø¨ÙŠØ§Ø¡ØŸ","publishedAt":"2021-09-25T16:52:03Z","duration":"PT11M57S","thumbnail":"https://i.ytimg.com/vi/S4wSdKGhHGg/mqdefault.jpg","viewCount":"4047","playlistId":"PLEkQk5xrP-tkGXuZ9atE3k_7it12rUPTs","playlistName":"Ø£Ø³Ø¦Ù„Ø© Ø§Ù„Ù…ØªØ§Ø¨Ø¹ÙŠÙ†","category":"Ù…ØªÙ†ÙˆØ¹"},{"id":"VZMOtcJvMEo","title":"Ø§Ù„Ø§Ù†Ù‚Ø·Ø§Ø¹ Ø¹Ù† Ø§Ù„Ù†Ù‘ÙÙÙ’Ø³","publishedAt":"2020-08-14T19:20:30Z","duration":"PT4M5S","thumbnail":"https://i.ytimg.com/vi/VZMOtcJvMEo/mqdefault.jpg","viewCount":"4046","playlistId":"PLEkQk5xrP-tm8ZIu74nTOZN9KJUJu416J","playlistName":"Ù…Ù‚Ø§Ø·Ø¹ Ù…ÙÙ‡Ù…ÙÙ‘Ø© (ÙŠÙØ³Ø±ÙŠÙ‘ÙØ§Øª) Ø£.Ø¯. ÙŠØ³Ø±ÙŠ Ø¬Ø¨Ø±","category":"Ù…ØªÙ†ÙˆØ¹"},{"id":"zrymLO-sNrs","title":"Ù„ÙŠÙ‡ Ø§Ù„Ù…Ø¬ØªÙ…Ø¹ Ø´Ø§ÙŠÙ Ù…Ø§Ø¶ÙŠ Ø§Ù„Ø³Øª Ø¹Ø§Ø± ÙˆÙ…Ø§Ø¶ÙŠ Ø§Ù„Ø±Ø§Ø¬Ù„ ØªØ¬Ø±Ø¨Ø©ØŸ","publishedAt":"2025-07-22T17:01:29Z","duration":"PT10M2S","thumbnail":"https://i.ytimg.com/vi/zrymLO-sNrs/mqdefault.jpg","viewCount":"4044","playlistId":"PLEkQk5xrP-tkGXuZ9atE3k_7it12rUPTs","playlistName":"Ø£Ø³Ø¦Ù„Ø© Ø§Ù„Ù…ØªØ§Ø¨Ø¹ÙŠÙ†","category":"Ù…ØªÙ†ÙˆØ¹"},{"id":"9cSUenkpB20","title":"Ø§Ù„Ø±Ø³Ø§Ù„Ø© Ø§Ù„Ù‚Ø´ÙŠØ±ÙŠØ© - Ø§Ù„Ù…Ø¬Ù„Ø³ (88) Ø¨ÙØ§Ø¨Ù Ø§Ù„ÙÙ‚Ø± Û³ | Ø£.Ø¯. ÙŠØ³Ø±ÙŠ Ø¬Ø¨Ø±","publishedAt":"2021-09-01T18:30:11Z","duration":"PT47M30S","thumbnail":"https://i.ytimg.com/vi/9cSUenkpB20/mqdefault.jpg","viewCount":"4042","playlistId":"PLEkQk5xrP-tkHAGOwIKr4pc5ehhyQ5HMJ","playlistName":"ÙƒØªØ§Ø¨ Ø§Ù„Ø±Ø³Ø§Ù„Ø© Ø§Ù„Ù‚Ø´ÙŠØ±ÙŠØ© (ØªØµÙˆÙ) - Ø¯. ÙŠØ³Ø±ÙŠ Ø¬Ø¨Ø±","category":"ØªØµÙˆÙ"},{"id":"bqNUtXiantw","title":"Ø´Ø±Ø­ ÙƒØªØ§Ø¨ Ø¨Ù‡Ø¬Ø© Ø§Ù„Ù†ÙÙˆØ³ - Ø§Ù„Ù…Ø¬Ù„Ø³ Ø§Ù„Ø«Ø§Ù†ÙŠ","publishedAt":"2020-04-24T20:00:13Z","duration":"PT32M","thumbnail":"https://i.ytimg.com/vi/bqNUtXiantw/mqdefault.jpg","viewCount":"4038","playlistId":"PLEkQk5xrP-tlyEB2iywk4VchTQROnBrU6","playlistName":"Ø¨Ù‡Ø¬Ø© Ø§Ù„Ù†ÙÙˆØ³ Ù…Ù† Ø£ÙˆÙ„Ù‡  Ø£.Ø¯. ÙŠØ³Ø±ÙŠ Ø¬Ø¨Ø±","category":"Ù…ØªÙ†ÙˆØ¹"},{"id":"EJ0ErvShWlg","title":"Ø§Ù„ØªØµÙˆÙ Ø¨ÙŠÙ† Ø§Ù„Ø¹Ù„Ù… ÙˆØ§Ù„Ø³Ù„ÙˆÙƒ","publishedAt":"2020-05-29T18:49:42Z","duration":"PT9M20S","thumbnail":"https://i.ytimg.com/vi/EJ0ErvShWlg/mqdefault.jpg","viewCount":"4037","playlistId":"PLEkQk5xrP-tm8ZIu74nTOZN9KJUJu416J","playlistName":"Ù…Ù‚Ø§Ø·Ø¹ Ù…ÙÙ‡Ù…ÙÙ‘Ø© (ÙŠÙØ³Ø±ÙŠÙ‘ÙØ§Øª) Ø£.Ø¯. ÙŠØ³Ø±ÙŠ Ø¬Ø¨Ø±","category":"Ù…ØªÙ†ÙˆØ¹"},{"id":"rZsMVqK5ZaM","title":"Ø§ÙƒØªØ´ÙØª Ø§Ù† Ø²ÙˆØ¬ÙŠ Ø¨ÙŠØ®ÙˆÙ†ÙŠ Ø¨Ø¹Ø¯ 25 Ø³Ù†Ø© Ø¬ÙˆØ§Ø² ,, Ø£Ø¹Ù…Ù„ Ø§ÙŠÙ‡ØŸØŸ","publishedAt":"2024-12-16T18:59:55Z","duration":"PT10M22S","thumbnail":"https://i.ytimg.com/vi/rZsMVqK5ZaM/mqdefault.jpg","viewCount":"4037","playlistId":"PLEkQk5xrP-tkGXuZ9atE3k_7it12rUPTs","playlistName":"Ø£Ø³Ø¦Ù„Ø© Ø§Ù„Ù…ØªØ§Ø¨Ø¹ÙŠÙ†","category":"Ù…ØªÙ†ÙˆØ¹"},{"id":"-JABB-iPWM4","title":"Ù‡Ù„ ÙƒØ§Ù† Ø§Ù„Ù†Ø¨ÙŠ ï·º ÙŠÙ†Ø³Ù‰ Ø¨Ø¹Ø¶ Ø§Ù„Ù‚Ø±Ø§Ù†ØŸ","publishedAt":"2023-04-04T19:00:00Z","duration":"PT10M17S","thumbnail":"https://i.ytimg.com/vi/-JABB-iPWM4/mqdefault.jpg","viewCount":"4036","playlistId":"PLEkQk5xrP-tkGXuZ9atE3k_7it12rUPTs","playlistName":"Ø£Ø³Ø¦Ù„Ø© Ø§Ù„Ù…ØªØ§Ø¨Ø¹ÙŠÙ†","category":"Ù…ØªÙ†ÙˆØ¹"},{"id":"7OzeDrxWVdc","title":"ØªÙØ³ÙŠØ± Ù‚ÙˆÙ„Ù‡ ØªØ¹Ø§Ù„Ù‰\"ÙˆÙØ±ÙØ¨ÙÙ‘ÙƒÙ ÙŠÙØ®Ù’Ù„ÙÙ‚Ù Ù…ÙØ§ ÙŠÙØ´ÙØ§Ø¡Ù ÙˆÙÙŠÙØ®Ù’ØªÙØ§Ø±\"","publishedAt":"2022-03-14T18:00:21Z","duration":"PT9M45S","thumbnail":"https://i.ytimg.com/vi/7OzeDrxWVdc/mqdefault.jpg","viewCount":"4034","playlistId":"PLEkQk5xrP-tkSGrPLMt1BEmJ54cGWYgtp","playlistName":"ÙƒØªØ§Ø¨Ù Ø¨ÙØ¯ÙØ¹Ù Ø§Ù„ØªÙÙÙØ§Ø³ÙÙŠØ±Ù - Ø£.Ø¯. ÙŠØ³Ø±ÙŠ Ø¬Ø¨Ø±","category":"Ù…ØªÙ†ÙˆØ¹"},{"id":"y2feOz9SxAA","title":"ÙƒÙŠÙ Ø³ÙŠÙƒÙˆÙ† Ø´ÙƒÙ„ Ø§Ù„Ù†Ø§Ø³ ÙŠÙˆÙ… Ø§Ù„Ù‚ÙŠØ§Ù…Ø©ØŸ | Ù…Ø¬Ø§Ù„Ø³ Ø±Ù…Ø¶Ø§Ù†ÙŠØ©","publishedAt":"2023-04-15T15:00:43Z","duration":"PT26M","thumbnail":"https://i.ytimg.com/vi/y2feOz9SxAA/mqdefault.jpg","viewCount":"4023","playlistId":"PLEkQk5xrP-tnl7vb7KeAoPd5ZlqKKW8KV","playlistName":"Ø´Ø±Ø­ ÙƒØªØ§Ø¨ Ø¨Ù‡Ø¬Ø© Ø§Ù„Ù†ÙÙˆØ³ Ø£.Ø¯ . ÙŠØ³Ø±Ù‰ Ø¬Ø¨Ø±","category":"Ù…ØªÙ†ÙˆØ¹"},{"id":"E_qm5orDoIc","title":"Ø¯Ø±Ø¬Ø§Øª Ø§Ù„ØªÙˆÙƒÙ‘ÙÙ„","publishedAt":"2020-10-04T20:06:50Z","duration":"PT14M1S","thumbnail":"https://i.ytimg.com/vi/E_qm5orDoIc/mqdefault.jpg","viewCount":"4017","playlistId":"PLEkQk5xrP-tm8ZIu74nTOZN9KJUJu416J","playlistName":"Ù…Ù‚Ø§Ø·Ø¹ Ù…ÙÙ‡Ù…ÙÙ‘Ø© (ÙŠÙØ³Ø±ÙŠÙ‘ÙØ§Øª) Ø£.Ø¯. ÙŠØ³Ø±ÙŠ Ø¬Ø¨Ø±","category":"Ù…ØªÙ†ÙˆØ¹"},{"id":"jGxSxZSOzpk","title":"Ù†ØµÙŠØ­Ø© Ù„Ø£Ù‡Ø§Ù„ÙŠ ÙˆØ·Ù„Ø§Ø¨ Ø§Ù„Ø«Ø§Ù†ÙˆÙŠØ© Ø§Ù„Ø¹Ø§Ù…Ø©","publishedAt":"2021-08-21T17:00:39Z","duration":"PT8M55S","thumbnail":"https://i.ytimg.com/vi/jGxSxZSOzpk/mqdefault.jpg","viewCount":"4015","playlistId":"PLEkQk5xrP-tkGXuZ9atE3k_7it12rUPTs","playlistName":"Ø£Ø³Ø¦Ù„Ø© Ø§Ù„Ù…ØªØ§Ø¨Ø¹ÙŠÙ†","category":"Ù…ØªÙ†ÙˆØ¹"},{"id":"jiPKwmMbw2U","title":"Ù„Ù…Ø§Ø°Ø§ ÙØ±Ø¶ Ø§Ù„Ù„Ù‡ Ø§Ù„Ø­Ø¬ Ø¹Ù„Ù‰ Ø§Ù„Ù…Ø³Ù„Ù…ÙŠÙ†ØŸ","publishedAt":"2023-06-19T18:00:25Z","duration":"PT14M44S","thumbnail":"https://i.ytimg.com/vi/jiPKwmMbw2U/mqdefault.jpg","viewCount":"4010","playlistId":"PLEkQk5xrP-tlArtGpeLWaqNM7h7IDeAVC","playlistName":"Ø®Ø·Ø¨ Ø§Ù„Ø¬Ù…Ø¹Ø© Ø£.Ø¯. ÙŠØ³Ø±ÙŠ Ø¬Ø¨Ø±","category":"Ø®Ø·Ø¨"},{"id":"aSjZMOmADxE","title":"Ù…Ø§ Ù‡ÙŠ Ù…Ø±Ø§Ø­Ù„ Ù†Ø²ÙˆÙ„ Ø§Ù„Ù‚Ø±Ø¢Ù† Ø§Ù„ÙƒØ±ÙŠÙ…ØŸ","publishedAt":"2024-03-04T18:30:03Z","duration":"PT13M12S","thumbnail":"https://i.ytimg.com/vi/aSjZMOmADxE/mqdefault.jpg","viewCount":"4009","playlistId":"PLEkQk5xrP-tkGXuZ9atE3k_7it12rUPTs","playlistName":"Ø£Ø³Ø¦Ù„Ø© Ø§Ù„Ù…ØªØ§Ø¨Ø¹ÙŠÙ†","category":"Ù…ØªÙ†ÙˆØ¹"},{"id":"ZLk33LkX9EM","title":"Ù‚ÙŠÙ…Ø© Ø²ÙƒØ§Ø© Ø§Ù„ÙØ·Ø±,, ÙˆÙ…ØªÙ‰ ØªØ®Ø±Ø¬Ù‡Ø§ØŸ","publishedAt":"2022-04-30T19:30:03Z","duration":"PT16M41S","thumbnail":"https://i.ytimg.com/vi/ZLk33LkX9EM/mqdefault.jpg","viewCount":"4007","playlistId":"PLEkQk5xrP-tlArtGpeLWaqNM7h7IDeAVC","playlistName":"Ø®Ø·Ø¨ Ø§Ù„Ø¬Ù…Ø¹Ø© Ø£.Ø¯. ÙŠØ³Ø±ÙŠ Ø¬Ø¨Ø±","category":"Ø®Ø·Ø¨"},{"id":"y_qcOj8itQw","title":"ÙˆØµØ§ÙŠØ§ Ø§Ù„Ù†Ø¨ÙŠ Ù„Ø¯Ø®ÙˆÙ„ Ø§Ù„Ø¬Ù†Ø©","publishedAt":"2021-03-21T19:58:47Z","duration":"PT8M8S","thumbnail":"https://i.ytimg.com/vi/y_qcOj8itQw/mqdefault.jpg","viewCount":"3996","playlistId":"PLEkQk5xrP-tlArtGpeLWaqNM7h7IDeAVC","playlistName":"Ø®Ø·Ø¨ Ø§Ù„Ø¬Ù…Ø¹Ø© Ø£.Ø¯. ÙŠØ³Ø±ÙŠ Ø¬Ø¨Ø±","category":"Ø®Ø·Ø¨"},{"id":"ShE4wbGjceI","title":"ØªÙØ³ÙŠØ± Ù‚ÙˆÙ„Ù‡ ØªØ¹Ø§Ù„Ù‰\"Ø«ÙÙ…ÙÙ‘ Ø£ÙÙˆÙ’Ø±ÙØ«Ù’Ù†ÙØ§ Ø§Ù„Ù’ÙƒÙØªÙØ§Ø¨Ù Ø§Ù„ÙÙ‘Ø°ÙÙŠÙ†Ù Ø§ØµÙ’Ø·ÙÙÙÙŠÙ’Ù†ÙØ§ Ù…ÙÙ†Ù’ Ø¹ÙØ¨ÙØ§Ø¯ÙÙ†ÙØ§\"","publishedAt":"2022-04-07T19:30:02Z","duration":"PT10M40S","thumbnail":"https://i.ytimg.com/vi/ShE4wbGjceI/mqdefault.jpg","viewCount":"3986","playlistId":"PLEkQk5xrP-tkSGrPLMt1BEmJ54cGWYgtp","playlistName":"ÙƒØªØ§Ø¨Ù Ø¨ÙØ¯ÙØ¹Ù Ø§Ù„ØªÙÙÙØ§Ø³ÙÙŠØ±Ù - Ø£.Ø¯. ÙŠØ³Ø±ÙŠ Ø¬Ø¨Ø±","category":"Ù…ØªÙ†ÙˆØ¹"},{"id":"-NfOvRhQ_tU","title":"Ø§Ù„Ø®Ø´ÙˆØ¹","publishedAt":"2020-07-30T20:09:26Z","duration":"PT6M37S","thumbnail":"https://i.ytimg.com/vi/-NfOvRhQ_tU/mqdefault.jpg","viewCount":"3980","playlistId":"PLEkQk5xrP-tm8ZIu74nTOZN9KJUJu416J","playlistName":"Ù…Ù‚Ø§Ø·Ø¹ Ù…ÙÙ‡Ù…ÙÙ‘Ø© (ÙŠÙØ³Ø±ÙŠÙ‘ÙØ§Øª) Ø£.Ø¯. ÙŠØ³Ø±ÙŠ Ø¬Ø¨Ø±","category":"Ù…ØªÙ†ÙˆØ¹"},{"id":"u05lu_CXs_s","title":"Ø­Ù‚Ø§Ø¦Ù‚ ÙˆÙ…Ø¹Ø§Ù†ÙŠ Ø­ÙˆÙ„ Ø±ÙˆØ­Ø§Ù†ÙŠØ© Ø§Ù„Ù†Ø¨ÙŠ ï·º ÙÙŠ ÙŠÙˆÙ… Ù…ÙˆÙ„Ø¯Ù‡","publishedAt":"2025-09-04T18:45:45Z","duration":"PT23M21S","thumbnail":"https://i.ytimg.com/vi/u05lu_CXs_s/mqdefault.jpg","viewCount":"3980","playlistId":"PLEkQk5xrP-tlArtGpeLWaqNM7h7IDeAVC","playlistName":"Ø®Ø·Ø¨ Ø§Ù„Ø¬Ù…Ø¹Ø© Ø£.Ø¯. ÙŠØ³Ø±ÙŠ Ø¬Ø¨Ø±","category":"Ø®Ø·Ø¨"},{"id":"TueWzIJMqFg","title":"Ø´Ø±Ø­ ÙƒØ§Ù…Ù„ Ù„Ø¥Ø³Ù†Ø§Ø¯ Ø§Ù„Ø·Ø±ÙŠÙ‚Ø© Ø§Ù„ØµØ¯ÙŠÙ‚ÙŠØ© Ø§Ù„Ø´Ø§Ø°Ù„ÙŠØ© |ğŸ“ Ù…Ø¹Ù‡Ø¯ Ø§Ø¨Ùˆ Ù…Ù†ØµÙˆØ± - Ø´Ø±Ø¨ÙˆÙ† - Ø¥Ù†Ø¯ÙˆÙ†ÙŠØ³ÙŠØ§ Ù£","publishedAt":"2023-02-26T18:00:10Z","duration":"PT29M34S","thumbnail":"https://i.ytimg.com/vi/TueWzIJMqFg/mqdefault.jpg","viewCount":"3973","playlistId":"PLEkQk5xrP-tm8ZIu74nTOZN9KJUJu416J","playlistName":"Ù…Ù‚Ø§Ø·Ø¹ Ù…ÙÙ‡Ù…ÙÙ‘Ø© (ÙŠÙØ³Ø±ÙŠÙ‘ÙØ§Øª) Ø£.Ø¯. ÙŠØ³Ø±ÙŠ Ø¬Ø¨Ø±","category":"Ù…ØªÙ†ÙˆØ¹"},{"id":"APJqexHQxF4","title":"Ù‡Ù„ Ø§Ù„Ø·Ù„Ø§Ù‚ Ø§Ù„Ø´ÙÙˆÙŠ ÙŠÙ‚Ø¹ Ø£Ù… Ù„Ø§Ø¨Ø¯ Ù…Ù† Ø§Ù„ØªÙˆØ«ÙŠÙ‚ØŸ","publishedAt":"2022-02-06T18:00:24Z","duration":"PT10M49S","thumbnail":"https://i.ytimg.com/vi/APJqexHQxF4/mqdefault.jpg","viewCount":"3969","playlistId":"PLEkQk5xrP-tkGXuZ9atE3k_7it12rUPTs","playlistName":"Ø£Ø³Ø¦Ù„Ø© Ø§Ù„Ù…ØªØ§Ø¨Ø¹ÙŠÙ†","category":"Ù…ØªÙ†ÙˆØ¹"},{"id":"me6o4MCKe_Y","title":"Ø¯Ø±Ø¬Ø§Øª Ø§Ù„Ø´ÙƒØ±","publishedAt":"2020-07-02T20:36:15Z","duration":"PT25M37S","thumbnail":"https://i.ytimg.com/vi/me6o4MCKe_Y/mqdefault.jpg","viewCount":"3968","playlistId":"PLEkQk5xrP-tm8ZIu74nTOZN9KJUJu416J","playlistName":"Ù…Ù‚Ø§Ø·Ø¹ Ù…ÙÙ‡Ù…ÙÙ‘Ø© (ÙŠÙØ³Ø±ÙŠÙ‘ÙØ§Øª) Ø£.Ø¯. ÙŠØ³Ø±ÙŠ Ø¬Ø¨Ø±","category":"Ù…ØªÙ†ÙˆØ¹"},{"id":"oxEF0Phkcv0","title":"ÙƒÙŠÙ ØªØªØ®Ø·Ù‰ Ø§Ù„Ø®Ù„Ø§ÙØ§Øª Ø§Ù„Ø²ÙˆØ¬ÙŠØ© Ø¨Ø£ÙØ¶Ù„ Ø·Ø±ÙŠÙ‚Ø©ØŸ","publishedAt":"2025-05-10T19:35:11Z","duration":"PT13M30S","thumbnail":"https://i.ytimg.com/vi/oxEF0Phkcv0/mqdefault.jpg","viewCount":"3968","playlistId":"PLEkQk5xrP-tkGXuZ9atE3k_7it12rUPTs","playlistName":"Ø£Ø³Ø¦Ù„Ø© Ø§Ù„Ù…ØªØ§Ø¨Ø¹ÙŠÙ†","category":"Ù…ØªÙ†ÙˆØ¹"},{"id":"YqYH67LtCeQ","title":"Ø§Ù„Ø±Ø³Ø§Ù„Ø© Ø§Ù„Ù‚Ø´ÙŠØ±ÙŠØ© - Ø§Ù„Ù…Ø¬Ù„Ø³ (107) Ø¨ÙØ§Ø¨Ù Ø§Ù„Ø³Ù…Ø§Ø¹ Ù¤ | Ø£.Ø¯. ÙŠØ³Ø±ÙŠ Ø¬Ø¨Ø±","publishedAt":"2022-01-11T18:07:56Z","duration":"PT40M52S","thumbnail":"https://i.ytimg.com/vi/YqYH67LtCeQ/mqdefault.jpg","viewCount":"3960","playlistId":"PLEkQk5xrP-tkHAGOwIKr4pc5ehhyQ5HMJ","playlistName":"ÙƒØªØ§Ø¨ Ø§Ù„Ø±Ø³Ø§Ù„Ø© Ø§Ù„Ù‚Ø´ÙŠØ±ÙŠØ© (ØªØµÙˆÙ) - Ø¯. ÙŠØ³Ø±ÙŠ Ø¬Ø¨Ø±","category":"ØªØµÙˆÙ"}],"total":7670,"page":72,"pageSize":24,"totalPages":320}