{"items":[{"id":"JPexzZ7v50Q","title":"هل المرأة غير المحجبة تدخل النار؟","publishedAt":"2022-06-30T18:30:30Z","duration":"PT9M35S","thumbnail":"https://i.ytimg.com/vi/JPexzZ7v50Q/mqdefault.jpg","viewCount":"13650","playlistId":"PLEkQk5xrP-tm8ZIu74nTOZN9KJUJu416J","playlistName":"مقاطع مُهمَّة (يُسريَّات) أ.د. يسري جبر","category":"متنوع"},{"id":"Nmhi1QGjeF8","title":"\"جَعَلَنِي فَاتِحًا وَخَاتِمًا\"ﷺ  أ.د. يسري جبر","publishedAt":"2019-11-13T13:23:19Z","duration":"PT30M38S","thumbnail":"https://i.ytimg.com/vi/Nmhi1QGjeF8/mqdefault.jpg","viewCount":"13646","playlistId":"PLEkQk5xrP-tmJzNvLntpzW0uPanPzxA0c","playlistName":"لقاءات ومحاضرات","category":"متنوع"},{"id":"rjgZU3tYsio","title":"هل الكشف حقيقة أم خيال من النفس؟","publishedAt":"2025-07-27T18:31:14Z","duration":"PT11M43S","thumbnail":"https://i.ytimg.com/vi/rjgZU3tYsio/mqdefault.jpg","viewCount":"13644","playlistId":"PLEkQk5xrP-tkGXuZ9atE3k_7it12rUPTs","playlistName":"أسئلة المتابعين","category":"متنوع"},{"id":"2J2GMs8DrLo","title":"ما وقع من علامات ليلة مولد النبي ﷺ","publishedAt":"2023-09-26T18:25:49Z","duration":"PT19M34S","thumbnail":"https://i.ytimg.com/vi/2J2GMs8DrLo/mqdefault.jpg","viewCount":"13640","playlistId":"PLEkQk5xrP-tlArtGpeLWaqNM7h7IDeAVC","playlistName":"خطب الجمعة أ.د. يسري جبر","category":"خطب"},{"id":"Nbh-PGcyRb4","title":"(7) سيدنا أبو عبد الله الحارث بن أسد المحاسبي رضي الله عنه د. يسري جبر","publishedAt":"2018-04-09T11:35:54Z","duration":"PT21M6S","thumbnail":"https://i.ytimg.com/vi/Nbh-PGcyRb4/mqdefault.jpg","viewCount":"13546","playlistId":"PLEkQk5xrP-tmmI87XkWepRdTpisz2Lfgr","playlistName":"باب في ذكر مشايخ هذه الطريقة من شرح كتاب الرسالة القشيرية","category":"تصوف"},{"id":"fCa_pu465-Q","title":"1- التعريفُ بالإمام النوويّ - شرح كتاب دليل الفالحين أ.د يسري جبر","publishedAt":"2021-01-09T09:10:21Z","duration":"PT39M16S","thumbnail":"https://i.ytimg.com/vi/fCa_pu465-Q/mqdefault.jpg","viewCount":"13514","playlistId":"PLEkQk5xrP-tkc9DXvSLguqX5-FYp6ASR4","playlistName":"دليل الفالحين لطرق رياض الصالحين","category":"متنوع"},{"id":"-_uKnDI8yxU","title":"ما الدليل على أن العوالم خلقت من نور سيدنا محمد ﷺ؟","publishedAt":"2022-09-08T19:01:47Z","duration":"PT9M30S","thumbnail":"https://i.ytimg.com/vi/-_uKnDI8yxU/mqdefault.jpg","viewCount":"13511","playlistId":"PLEkQk5xrP-tkGXuZ9atE3k_7it12rUPTs","playlistName":"أسئلة المتابعين","category":"متنوع"},{"id":"KWhpqemHnK4","title":"(5) سيدنا أبو الحسن سَريّ بن مُغلِّس السَّقطي   د. يسري جبر","publishedAt":"2018-03-26T18:14:55Z","duration":"PT14M33S","thumbnail":"https://i.ytimg.com/vi/KWhpqemHnK4/mqdefault.jpg","viewCount":"13480","playlistId":"PLEkQk5xrP-tmmI87XkWepRdTpisz2Lfgr","playlistName":"باب في ذكر مشايخ هذه الطريقة من شرح كتاب الرسالة القشيرية","category":"تصوف"},{"id":"kBvroNUsuls","title":"شرح كتاب نوراليقين في سيرة سيد المرسلين - المجلس 39 (كتاب المنذر بن ساوى) د.يسري جبر","publishedAt":"2018-02-19T03:28:55Z","duration":"PT51M10S","thumbnail":"https://i.ytimg.com/vi/kBvroNUsuls/mqdefault.jpg","viewCount":"13480","playlistId":"PLEkQk5xrP-tl2t4NQx1IhKnAJCMzF0Nli","playlistName":"شرح كتاب نور اليقين في سيرة سيد المرسلين   د. يسري جبر","category":"سيرة"},{"id":"lSkFrXPhaFM","title":"لاتطلبنَّ بقاء الواردات بعد أن بسطت أنوارها، وأودعت أسرارها، فلك في الله غِنى عن كل شيء ...","publishedAt":"2018-01-13T19:40:01Z","duration":"PT6M31S","thumbnail":"https://i.ytimg.com/vi/lSkFrXPhaFM/mqdefault.jpg","viewCount":"13446","playlistId":"PLEkQk5xrP-tkI_meE148wc7V7XHlB0WPb","playlistName":"من الحكم العطائية  د. يسري جبر","category":"متنوع"},{"id":"ptYvWl5qtG4","title":"كيف يكون النبي ﷺ أحب إليك من نفسك؟","publishedAt":"2022-09-28T18:00:18Z","duration":"PT11M18S","thumbnail":"https://i.ytimg.com/vi/ptYvWl5qtG4/mqdefault.jpg","viewCount":"13402","playlistId":"PLEkQk5xrP-tlArtGpeLWaqNM7h7IDeAVC","playlistName":"خطب الجمعة أ.د. يسري جبر","category":"خطب"},{"id":"_NtxXSgKKNQ","title":"الرسالة القشيرية للإمام القشيري النيسابوري رضي الله عنه المجلس التاسع (باب في ذكر مشايخ هذه الطريقة)","publishedAt":"2018-02-03T18:09:14Z","duration":"PT1H1M20S","thumbnail":"https://i.ytimg.com/vi/_NtxXSgKKNQ/mqdefault.jpg","viewCount":"13401","playlistId":"PLEkQk5xrP-tkHAGOwIKr4pc5ehhyQ5HMJ","playlistName":"كتاب الرسالة القشيرية (تصوف) - د. يسري جبر","category":"تصوف"},{"id":"NLdReIqGXj0","title":"ما هي أفضل صيغة للصلاة على النبي ﷺ؟","publishedAt":"2025-11-11T18:30:22Z","duration":"PT8M5S","thumbnail":"https://i.ytimg.com/vi/NLdReIqGXj0/mqdefault.jpg","viewCount":"13390","playlistId":"PLEkQk5xrP-tm8ZIu74nTOZN9KJUJu416J","playlistName":"مقاطع مُهمَّة (يُسريَّات) أ.د. يسري جبر","category":"متنوع"},{"id":"BA0aXMsFZlY","title":"لطائف وإشارات في الطريق إلى الله","publishedAt":"2020-08-07T10:30:11Z","duration":"PT44M22S","thumbnail":"https://i.ytimg.com/vi/BA0aXMsFZlY/mqdefault.jpg","viewCount":"13385","playlistId":"PLEkQk5xrP-tm8ZIu74nTOZN9KJUJu416J","playlistName":"مقاطع مُهمَّة (يُسريَّات) أ.د. يسري جبر","category":"متنوع"},{"id":"FdTSGalDzDE","title":"‫كيف ترضى بما قسمه الله لك؟","publishedAt":"2020-12-06T18:31:09Z","duration":"PT9M1S","thumbnail":"https://i.ytimg.com/vi/FdTSGalDzDE/mqdefault.jpg","viewCount":"13372","playlistId":"PLEkQk5xrP-tlArtGpeLWaqNM7h7IDeAVC","playlistName":"خطب الجمعة أ.د. يسري جبر","category":"خطب"},{"id":"_PGpy7-onW4","title":"هل حركات المولوية أثناء الذكر جائزة؟","publishedAt":"2022-03-15T19:03:53Z","duration":"PT12M29S","thumbnail":"https://i.ytimg.com/vi/_PGpy7-onW4/mqdefault.jpg","viewCount":"13370","playlistId":"PLEkQk5xrP-tkGXuZ9atE3k_7it12rUPTs","playlistName":"أسئلة المتابعين","category":"متنوع"},{"id":"-eoz_3cV5m0","title":"هل يوجد أوراد تساعد على زيادة الرزق؟","publishedAt":"2025-04-15T19:00:01Z","duration":"PT8M57S","thumbnail":"https://i.ytimg.com/vi/-eoz_3cV5m0/mqdefault.jpg","viewCount":"13346","playlistId":"PLEkQk5xrP-tkGXuZ9atE3k_7it12rUPTs","playlistName":"أسئلة المتابعين","category":"متنوع"},{"id":"nIusb3Cwxc8","title":"كيف كنت تذاكر وأنت طالب؟ | وعلاج الكسل والخوف من المستقبل","publishedAt":"2022-11-23T18:00:21Z","duration":"PT8M58S","thumbnail":"https://i.ytimg.com/vi/nIusb3Cwxc8/mqdefault.jpg","viewCount":"13336","playlistId":"PLEkQk5xrP-tl6tFiMFGUucCTvLgnWyAfz","playlistName":"حياة الأستاذ الدكتور يسري جبر","category":"متنوع"},{"id":"e7K9FRvlI_Y","title":"تكلم مع الله","publishedAt":"2020-11-28T18:52:51Z","duration":"PT4M27S","thumbnail":"https://i.ytimg.com/vi/e7K9FRvlI_Y/mqdefault.jpg","viewCount":"13322","playlistId":"PLEkQk5xrP-tm8ZIu74nTOZN9KJUJu416J","playlistName":"مقاطع مُهمَّة (يُسريَّات) أ.د. يسري جبر","category":"متنوع"},{"id":"LHGrGijB4Xg","title":"حقيقة الدنيا","publishedAt":"2021-02-28T17:58:51Z","duration":"PT11M44S","thumbnail":"https://i.ytimg.com/vi/LHGrGijB4Xg/mqdefault.jpg","viewCount":"13321","playlistId":"PLEkQk5xrP-tlArtGpeLWaqNM7h7IDeAVC","playlistName":"خطب الجمعة أ.د. يسري جبر","category":"خطب"},{"id":"hXsB_2rL4zY","title":"كتاب نوراليقين في سيرة سيد المرسلين للشيخ الخضري رحمه الله - المجلس 40 (تكملة غزوة خيبر) د.يسري جبر","publishedAt":"2018-03-01T03:02:27Z","duration":"PT49M3S","thumbnail":"https://i.ytimg.com/vi/hXsB_2rL4zY/mqdefault.jpg","viewCount":"13305","playlistId":"PLEkQk5xrP-tl2t4NQx1IhKnAJCMzF0Nli","playlistName":"شرح كتاب نور اليقين في سيرة سيد المرسلين   د. يسري جبر","category":"سيرة"},{"id":"zvo0DQzuG14","title":"الانقطاع عن الناس","publishedAt":"2020-08-13T18:38:47Z","duration":"PT6M24S","thumbnail":"https://i.ytimg.com/vi/zvo0DQzuG14/mqdefault.jpg","viewCount":"13289","playlistId":"PLEkQk5xrP-tm8ZIu74nTOZN9KJUJu416J","playlistName":"مقاطع مُهمَّة (يُسريَّات) أ.د. يسري جبر","category":"متنوع"},{"id":"p0yfvThd-68","title":"كيف أسيطر على شهوتي؟","publishedAt":"2021-12-12T17:15:00Z","duration":"PT8M53S","thumbnail":"https://i.ytimg.com/vi/p0yfvThd-68/mqdefault.jpg","viewCount":"13279","playlistId":"PLEkQk5xrP-tkGXuZ9atE3k_7it12rUPTs","playlistName":"أسئلة المتابعين","category":"متنوع"},{"id":"5qXt7FWjqC0","title":"أفضل الأعمال فى شهر رجب","publishedAt":"2025-01-01T16:00:04Z","duration":"PT17M42S","thumbnail":"https://i.ytimg.com/vi/5qXt7FWjqC0/mqdefault.jpg","viewCount":"13205","playlistId":"PLEkQk5xrP-tlArtGpeLWaqNM7h7IDeAVC","playlistName":"خطب الجمعة أ.د. يسري جبر","category":"خطب"}],"total":7670,"page":22,"pageSize":24,"totalPages":320}