{"items":[{"id":"O8LLoX7Uj5A","title":"أين تذهب الروح بعد الموت؟","publishedAt":"2021-01-30T18:24:33Z","duration":"PT12M44S","thumbnail":"https://i.ytimg.com/vi/O8LLoX7Uj5A/mqdefault.jpg","viewCount":"107533","playlistId":"PLEkQk5xrP-tlArtGpeLWaqNM7h7IDeAVC","playlistName":"خطب الجمعة أ.د. يسري جبر","category":"خطب"},{"id":"h2tgBh9ulmk","title":"هل رؤية النبي ﷺ في المنام دليل على الولاية؟؟","publishedAt":"2020-12-29T18:15:46Z","duration":"PT10M4S","thumbnail":"https://i.ytimg.com/vi/h2tgBh9ulmk/mqdefault.jpg","viewCount":"105620","playlistId":"PLEkQk5xrP-tm8ZIu74nTOZN9KJUJu416J","playlistName":"مقاطع مُهمَّة (يُسريَّات) أ.د. يسري جبر","category":"متنوع"},{"id":"8umGwDevU10","title":"نصيحة لمن يريد حفظ القرآن بعد رمضان","publishedAt":"2025-03-27T19:30:01Z","duration":"PT11M47S","thumbnail":"https://i.ytimg.com/vi/8umGwDevU10/mqdefault.jpg","viewCount":"99847","playlistId":"PLEkQk5xrP-tm8ZIu74nTOZN9KJUJu416J","playlistName":"مقاطع مُهمَّة (يُسريَّات) أ.د. يسري جبر","category":"متنوع"},{"id":"haEn1rN0m2I","title":"فضل الصلاة على النبي ﷺ","publishedAt":"2020-10-28T19:18:08Z","duration":"PT17M55S","thumbnail":"https://i.ytimg.com/vi/haEn1rN0m2I/mqdefault.jpg","viewCount":"99813","playlistId":"PLEkQk5xrP-tm8ZIu74nTOZN9KJUJu416J","playlistName":"مقاطع مُهمَّة (يُسريَّات) أ.د. يسري جبر","category":"متنوع"},{"id":"QRsidHhS2bc","title":"فائدة الدخول فى طريق التصوف ومبايعة الشيخ | أ.د. يسري جبر","publishedAt":"2014-10-15T18:58:15Z","duration":"PT10M13S","thumbnail":"https://i.ytimg.com/vi/QRsidHhS2bc/mqdefault.jpg","viewCount":"98166","playlistId":"PLEkQk5xrP-tm8ZIu74nTOZN9KJUJu416J","playlistName":"مقاطع مُهمَّة (يُسريَّات) أ.د. يسري جبر","category":"متنوع"},{"id":"Oxkk5CUkRCM","title":"1- سيدنا إبراهيم بن أدهم رضي الله تعالى عنه  د. يسري جبر","publishedAt":"2018-03-03T17:00:32Z","duration":"PT25M50S","thumbnail":"https://i.ytimg.com/vi/Oxkk5CUkRCM/mqdefault.jpg","viewCount":"96018","playlistId":"PLEkQk5xrP-tmmI87XkWepRdTpisz2Lfgr","playlistName":"باب في ذكر مشايخ هذه الطريقة من شرح كتاب الرسالة القشيرية","category":"تصوف"},{"id":"96M0wh_sT9E","title":"!الرد على اعتراض الوهابية على مسألة الكشف","publishedAt":"2022-10-25T18:45:01Z","duration":"PT16M26S","thumbnail":"https://i.ytimg.com/vi/96M0wh_sT9E/mqdefault.jpg","viewCount":"93230","playlistId":"PLEkQk5xrP-tkGXuZ9atE3k_7it12rUPTs","playlistName":"أسئلة المتابعين","category":"متنوع"},{"id":"IyrWSL4jd00","title":"كيفية قراءة الأوراد","publishedAt":"2021-04-10T19:40:12Z","duration":"PT23M23S","thumbnail":"https://i.ytimg.com/vi/IyrWSL4jd00/mqdefault.jpg","viewCount":"92325","playlistId":"PLEkQk5xrP-tm8ZIu74nTOZN9KJUJu416J","playlistName":"مقاطع مُهمَّة (يُسريَّات) أ.د. يسري جبر","category":"متنوع"},{"id":"Sud5BTJ7liY","title":"كيف تصبح غنيا؟","publishedAt":"2021-01-12T18:42:48Z","duration":"PT12M10S","thumbnail":"https://i.ytimg.com/vi/Sud5BTJ7liY/mqdefault.jpg","viewCount":"91637","playlistId":"PLEkQk5xrP-tm8ZIu74nTOZN9KJUJu416J","playlistName":"مقاطع مُهمَّة (يُسريَّات) أ.د. يسري جبر","category":"متنوع"},{"id":"QyHUvUqET74","title":"1- بداية الفتح الربَّاني - شرح مختصر الفُتُوحَات المَكْيَّة","publishedAt":"2023-12-25T11:00:19Z","duration":"PT1H2M11S","thumbnail":"https://i.ytimg.com/vi/QyHUvUqET74/mqdefault.jpg","viewCount":"90299","playlistId":"PLEkQk5xrP-tnpkdZki6rPTtMak1bnI5g-","playlistName":"شرح كتاب مختصر الفتوحات المكية المسمى لواقح الأنوار القدسية","category":"متنوع"},{"id":"wC-rrnchtBo","title":"معنى مدد يا مولانا ياحسين؟","publishedAt":"2020-12-22T18:32:54Z","duration":"PT11M17S","thumbnail":"https://i.ytimg.com/vi/wC-rrnchtBo/mqdefault.jpg","viewCount":"85818","playlistId":"PLEkQk5xrP-tm8ZIu74nTOZN9KJUJu416J","playlistName":"مقاطع مُهمَّة (يُسريَّات) أ.د. يسري جبر","category":"متنوع"},{"id":"oXWiNMaIVSY","title":"هل السحر خرافة ؟","publishedAt":"2021-01-19T18:49:49Z","duration":"PT9M13S","thumbnail":"https://i.ytimg.com/vi/oXWiNMaIVSY/mqdefault.jpg","viewCount":"84467","playlistId":"PLEkQk5xrP-tm8ZIu74nTOZN9KJUJu416J","playlistName":"مقاطع مُهمَّة (يُسريَّات) أ.د. يسري جبر","category":"متنوع"},{"id":"yffaCPgAW_c","title":"ظاهرة خسوف القمر وكيفية صلاة الخسوف؟","publishedAt":"2025-09-07T09:15:13Z","duration":"PT12M45S","thumbnail":"https://i.ytimg.com/vi/yffaCPgAW_c/mqdefault.jpg","viewCount":"82769","playlistId":"PLEkQk5xrP-tm8ZIu74nTOZN9KJUJu416J","playlistName":"مقاطع مُهمَّة (يُسريَّات) أ.د. يسري جبر","category":"متنوع"},{"id":"NnscmR4Y6Wc","title":"الرد على منتقدي الشيخ الشعراوي","publishedAt":"2023-01-13T18:00:15Z","duration":"PT10M29S","thumbnail":"https://i.ytimg.com/vi/NnscmR4Y6Wc/mqdefault.jpg","viewCount":"77179","playlistId":"PLEkQk5xrP-tlArtGpeLWaqNM7h7IDeAVC","playlistName":"خطب الجمعة أ.د. يسري جبر","category":"خطب"},{"id":"PI0Qfb465FM","title":"شرح الحزب الكبير- المجلس الأول   د.يسري جبر","publishedAt":"2017-06-20T04:32:13Z","duration":"PT44M27S","thumbnail":"https://i.ytimg.com/vi/PI0Qfb465FM/mqdefault.jpg","viewCount":"76786","playlistId":"PLEkQk5xrP-tlm5F9ID5I_--LMV7PcWjp_","playlistName":"شرح الحزب الكبير لسيدى أبي الحسن الشاذلي د.يسري جبر","category":"متنوع"},{"id":"jHRvh6oxUjc","title":"لطائف وإشارات في الطريق إلى الله  أ.د.يسري جبر","publishedAt":"2019-10-26T18:08:43Z","duration":"PT44M22S","thumbnail":"https://i.ytimg.com/vi/jHRvh6oxUjc/mqdefault.jpg","viewCount":"75826","playlistId":"PLEkQk5xrP-tlArtGpeLWaqNM7h7IDeAVC","playlistName":"خطب الجمعة أ.د. يسري جبر","category":"خطب"},{"id":"v6P-uoulDMc","title":"شرح كتاب دلائل الخيرات - المجلس الثالث | أ.د. يسري جبر","publishedAt":"2019-02-24T19:22:07Z","duration":"PT49M35S","thumbnail":"https://i.ytimg.com/vi/v6P-uoulDMc/mqdefault.jpg","viewCount":"73949","playlistId":"PLEkQk5xrP-tlAzcbIpuqjdFICW-knvTlR","playlistName":"شرح كتاب دلائل الخيرات وشوارق الأنوار","category":"متنوع"},{"id":"qsKx9HeoJ9o","title":"كيف تصل إلى الله؟","publishedAt":"2022-10-02T18:00:30Z","duration":"PT16M52S","thumbnail":"https://i.ytimg.com/vi/qsKx9HeoJ9o/mqdefault.jpg","viewCount":"73675","playlistId":"PLEkQk5xrP-tlArtGpeLWaqNM7h7IDeAVC","playlistName":"خطب الجمعة أ.د. يسري جبر","category":"خطب"},{"id":"CjE0SEir3Ak","title":"كيف تعالج الاكتئاب؟","publishedAt":"2022-06-28T19:00:03Z","duration":"PT9M11S","thumbnail":"https://i.ytimg.com/vi/CjE0SEir3Ak/mqdefault.jpg","viewCount":"73423","playlistId":"PLEkQk5xrP-tkGXuZ9atE3k_7it12rUPTs","playlistName":"أسئلة المتابعين","category":"متنوع"},{"id":"Tt1IHeksHvI","title":"كيف تتوكل على الله حق التوكل؟","publishedAt":"2022-05-12T19:00:15Z","duration":"PT17M15S","thumbnail":"https://i.ytimg.com/vi/Tt1IHeksHvI/mqdefault.jpg","viewCount":"72075","playlistId":"PLEkQk5xrP-tm8ZIu74nTOZN9KJUJu416J","playlistName":"مقاطع مُهمَّة (يُسريَّات) أ.د. يسري جبر","category":"متنوع"},{"id":"UhTyp08m78M","title":"تفسير ما يحدث في المنطقة العربية وهل اقترب ظهور المسيح الدجال؟","publishedAt":"2024-10-07T18:14:21Z","duration":"PT32M25S","thumbnail":"https://i.ytimg.com/vi/UhTyp08m78M/mqdefault.jpg","viewCount":"71560","playlistId":"PLEkQk5xrP-tlArtGpeLWaqNM7h7IDeAVC","playlistName":"خطب الجمعة أ.د. يسري جبر","category":"خطب"},{"id":"6gk6C3DjhwI","title":"هل النبي ﷺ نور؟","publishedAt":"2020-12-02T18:30:00Z","duration":"PT20M38S","thumbnail":"https://i.ytimg.com/vi/6gk6C3DjhwI/mqdefault.jpg","viewCount":"71514","playlistId":"PLEkQk5xrP-tlArtGpeLWaqNM7h7IDeAVC","playlistName":"خطب الجمعة أ.د. يسري جبر","category":"خطب"},{"id":"ji80dtxpRoM","title":"ازاي ربنا يوفقني في حياتي وهل التوفيق حظ أم اجتهاد؟","publishedAt":"2024-03-02T18:18:52Z","duration":"PT14M24S","thumbnail":"https://i.ytimg.com/vi/ji80dtxpRoM/mqdefault.jpg","viewCount":"70362","playlistId":"PLEkQk5xrP-tkGXuZ9atE3k_7it12rUPTs","playlistName":"أسئلة المتابعين","category":"متنوع"},{"id":"HMGWfzLIkv8","title":"ما هي أوصاف قطب الزمان؟","publishedAt":"2022-06-24T19:00:00Z","duration":"PT15M17S","thumbnail":"https://i.ytimg.com/vi/HMGWfzLIkv8/mqdefault.jpg","viewCount":"70233","playlistId":"PLEkQk5xrP-tkGXuZ9atE3k_7it12rUPTs","playlistName":"أسئلة المتابعين","category":"متنوع"}],"total":7670,"page":2,"pageSize":24,"totalPages":320}