{"items":[{"id":"ra_4H615x8o","title":"حديث (١٦٨) ذِكْرُ اسم الله تعالى عند إِرادة الجِماع.  أ.د. يسري جبر","publishedAt":"2019-05-21T16:40:33Z","duration":"PT20M54S","thumbnail":"https://i.ytimg.com/vi/ra_4H615x8o/mqdefault.jpg","viewCount":"1158","playlistId":"PLEkQk5xrP-tnl7vb7KeAoPd5ZlqKKW8KV","playlistName":"شرح كتاب بهجة النفوس أ.د . يسرى جبر","category":"متنوع"},{"id":"hK2e3Vn1p5M","title":"56- صِفةُ خَلْقِ النَّبيّ ﷺ وأنَّه كان أحسَنَ النَّاسِ خَلْقًا - شرح مسند الإمام أحمد","publishedAt":"2023-12-23T06:15:01Z","duration":"PT29M35S","thumbnail":"https://i.ytimg.com/vi/hK2e3Vn1p5M/mqdefault.jpg","viewCount":"1158","playlistId":"PLEkQk5xrP-tkKprIuGrSdEuBSMsyg5We1","playlistName":"شرح مسند الإمام أحمد بن حنبل","category":"متنوع"},{"id":"iROGHTNUlZ4","title":"32- باب التوبة: الحديث التاسع (5) شرح دليل الفالحين لطُرُق رياض الصالحين","publishedAt":"2021-03-21T07:10:44Z","duration":"PT37M46S","thumbnail":"https://i.ytimg.com/vi/iROGHTNUlZ4/mqdefault.jpg","viewCount":"1158","playlistId":"PLEkQk5xrP-tkc9DXvSLguqX5-FYp6ASR4","playlistName":"دليل الفالحين لطرق رياض الصالحين","category":"متنوع"},{"id":"D4zpPmTtucA","title":"482- أكواب وأباريق | كأس ما الفرق بينهما؟ - شرح البرهان في علوم القرآن","publishedAt":"2022-03-25T05:57:57Z","duration":"PT30M29S","thumbnail":"https://i.ytimg.com/vi/D4zpPmTtucA/mqdefault.jpg","viewCount":"1157","playlistId":"PLEkQk5xrP-tnW3iBL7HkKziOFCFZbTlf0","playlistName":"شرح البرهان في علوم القرآن - أ.د. يسري جبر","category":"تفسير"},{"id":"azFYWRb7YxM","title":"43- دِيَةُ الجَنينِ الذي سَقَطَ ميتًا","publishedAt":"2022-03-21T06:36:38Z","duration":"PT44M10S","thumbnail":"https://i.ytimg.com/vi/azFYWRb7YxM/mqdefault.jpg","viewCount":"1157","playlistId":"PLEkQk5xrP-tlDtaqY0qhNXAiZ19gaGzKI","playlistName":"شرح مسند الإمام محمد بن إدريس الشافعيّ رضي الله تعالى عنه","category":"فقه"},{"id":"jLS-4ZY6iOk","title":"622- كَلَامُ الرَّبِّ مع أَهلِ الجَنَّة  - شرح صحيح الإمام البخاري رضي الله تعالى عنه","publishedAt":"2022-11-19T09:00:33Z","duration":"PT45M39S","thumbnail":"https://i.ytimg.com/vi/jLS-4ZY6iOk/mqdefault.jpg","viewCount":"1157","playlistId":"PLEkQk5xrP-tmJuzaj4GWRenFoFx9gdbFX","playlistName":"شرح كتاب صحيح الإمام البخاري رضي الله تعالى عنه   أ.د. يسرى جبر","category":"حديث"},{"id":"hXfJXDf6kXc","title":"لا تَسْتَبْطِئْ منه النَّوالَ، ولكن اسْتَبْطِئْ من نَفْسِكَ وُجُودَ الإِقْبَالِ.","publishedAt":"2017-12-26T17:32:09Z","duration":"PT6M10S","thumbnail":"https://i.ytimg.com/vi/hXfJXDf6kXc/mqdefault.jpg","viewCount":"1157","playlistId":"PLEkQk5xrP-tkI_meE148wc7V7XHlB0WPb","playlistName":"من الحكم العطائية  د. يسري جبر","category":"متنوع"},{"id":"3Eez9r2XuSA","title":"شرح صحيح البخاري - كتاب فضائل المدينة","publishedAt":"2017-03-27T12:15:26Z","duration":"PT42M16S","thumbnail":"https://i.ytimg.com/vi/3Eez9r2XuSA/mqdefault.jpg","viewCount":"1155","playlistId":"PLEkQk5xrP-tlEerGoLa1AFy-2XvQ-sovv","playlistName":"شرح صحيح البخاري - أ.د. يسري جبر (كاملا)","category":"حديث"},{"id":"eREj4x3Dtmg","title":"بِدَعُ التَفَاسِيرِ - المجلس الثامن عشر. أ.د. يسري جبر","publishedAt":"2020-11-05T17:54:53Z","duration":"PT12M13S","thumbnail":"https://i.ytimg.com/vi/eREj4x3Dtmg/mqdefault.jpg","viewCount":"1155","playlistId":"PLEkQk5xrP-tkSGrPLMt1BEmJ54cGWYgtp","playlistName":"كتابُ بِدَعِ التَفَاسِيرِ - أ.د. يسري جبر","category":"متنوع"},{"id":"irwpD8Vkfsc","title":"شرح كتاب فتح القريب المجيب فصلٌ في نصاب الزروع د. يسري رشدي جبر","publishedAt":"2015-12-11T23:02:17Z","duration":"PT1H36M4S","thumbnail":"https://i.ytimg.com/vi/irwpD8Vkfsc/mqdefault.jpg","viewCount":"1154","playlistId":"PLEkQk5xrP-tlyOgfNBZTZgoATzVW4mI20","playlistName":"كتاب فتح القريب المجيب (علم الفقه الشافعي)","category":"فقه"},{"id":"brMRJ-61F7U","title":"مقطع من شرح صلوات سيدى أحمد الدردير رضي الله عنه - حرف التاء","publishedAt":"2014-01-01T18:49:07Z","duration":"PT15M58S","thumbnail":"https://i.ytimg.com/vi/brMRJ-61F7U/mqdefault.jpg","viewCount":"1154","playlistId":"PLEkQk5xrP-tlXZQuhEiJGJka1QcRw7fbW","playlistName":"شرح الصلوات الدرديرية لسيدي أحمد الدردير رضي الله عنه","category":"ردود"},{"id":"2pK89mNneqk","title":"26- هل تقبيل الزوجة ينقض الوضوء؟","publishedAt":"2023-12-23T09:30:02Z","duration":"PT33M32S","thumbnail":"https://i.ytimg.com/vi/2pK89mNneqk/mqdefault.jpg","viewCount":"1154","playlistId":"PLEkQk5xrP-tk_MCBZ706ORCw6gFtFyaGj","playlistName":"شرح سنن الإمام الدارقطني","category":"متنوع"},{"id":"MDTc19LCwx8","title":"إحياء ليلة النصف من شعبان د. يسري جبر","publishedAt":"2018-05-01T10:48:49Z","duration":"PT40M58S","thumbnail":"https://i.ytimg.com/vi/MDTc19LCwx8/mqdefault.jpg","viewCount":"1154","playlistId":"PLEkQk5xrP-tm8ZIu74nTOZN9KJUJu416J","playlistName":"مقاطع مُهمَّة (يُسريَّات) أ.د. يسري جبر","category":"متنوع"},{"id":"zSwfFihyuGk","title":"شرح صحيح البخاري كتاب مواقيت الصلاة من باب ٣٢","publishedAt":"2016-11-05T05:36:39Z","duration":"PT36M3S","thumbnail":"https://i.ytimg.com/vi/zSwfFihyuGk/mqdefault.jpg","viewCount":"1154","playlistId":"PLEkQk5xrP-tlEerGoLa1AFy-2XvQ-sovv","playlistName":"شرح صحيح البخاري - أ.د. يسري جبر (كاملا)","category":"حديث"},{"id":"UWelXkvTXeA","title":"شرح صحيح البخاري - كتاب الجنائز من باب ٤","publishedAt":"2017-01-08T12:36:06Z","duration":"PT40M25S","thumbnail":"https://i.ytimg.com/vi/UWelXkvTXeA/mqdefault.jpg","viewCount":"1153","playlistId":"PLEkQk5xrP-tlEerGoLa1AFy-2XvQ-sovv","playlistName":"شرح صحيح البخاري - أ.د. يسري جبر (كاملا)","category":"حديث"},{"id":"VRfMC2ycBvE","title":"173- بشرى لأصحاب الأمراض المزمنة - شرح مسند الإمام أحمد رضي الله تعالى عنه","publishedAt":"2025-10-14T04:30:21Z","duration":"PT27M54S","thumbnail":"https://i.ytimg.com/vi/VRfMC2ycBvE/mqdefault.jpg","viewCount":"1153","playlistId":"PLEkQk5xrP-tkKprIuGrSdEuBSMsyg5We1","playlistName":"شرح مسند الإمام أحمد بن حنبل","category":"متنوع"},{"id":"K19cBqBmRi8","title":"359- سُئِلَ رَسُولُ اللهِ ﷺ: أَيُّ الصَّلَاةِ أَفْضَلُ؟ قالَ: طُولُ القُنُوتِ - شرح دليل الفالحين","publishedAt":"2022-12-13T09:00:08Z","duration":"PT29M58S","thumbnail":"https://i.ytimg.com/vi/K19cBqBmRi8/mqdefault.jpg","viewCount":"1150","playlistId":"PLEkQk5xrP-tkc9DXvSLguqX5-FYp6ASR4","playlistName":"دليل الفالحين لطرق رياض الصالحين","category":"متنوع"},{"id":"9Ita1ZgEBUM","title":"شرح صحيح البخاري - كتاب التهجد من باب ٥","publishedAt":"2016-12-26T13:01:28Z","duration":"PT36M10S","thumbnail":"https://i.ytimg.com/vi/9Ita1ZgEBUM/mqdefault.jpg","viewCount":"1149","playlistId":"PLEkQk5xrP-tlEerGoLa1AFy-2XvQ-sovv","playlistName":"شرح صحيح البخاري - أ.د. يسري جبر (كاملا)","category":"حديث"},{"id":"M8waa0-WG_M","title":"51- أمَارات الساعة“...قال فأخبرني عن الساعة ...”تكملة الحديث (1) باب المراقبة - شرح دليل الفالحين","publishedAt":"2021-04-28T05:37:51Z","duration":"PT26M43S","thumbnail":"https://i.ytimg.com/vi/M8waa0-WG_M/mqdefault.jpg","viewCount":"1149","playlistId":"PLEkQk5xrP-tkc9DXvSLguqX5-FYp6ASR4","playlistName":"دليل الفالحين لطرق رياض الصالحين","category":"متنوع"},{"id":"zcjd5Cr6JhE","title":"13- النوع الثاني في معرفة الحضري والسفري - شرح الإتقان في علوم القرآن","publishedAt":"2023-01-20T05:25:00Z","duration":"PT30M26S","thumbnail":"https://i.ytimg.com/vi/zcjd5Cr6JhE/mqdefault.jpg","viewCount":"1148","playlistId":"PLEkQk5xrP-tlPw10KGJKagu7zm4Ry2Tge","playlistName":"شرح الإتقان في علوم القرآن","category":"تفسير"},{"id":"5vp9Pd7AaiY","title":"23- النَّوعُ التاسع: معرفة سبب النزول(4) المسألة الخامسة - الجزء الأول - شرح الإتقان في علوم القرآن","publishedAt":"2023-02-14T05:00:02Z","duration":"PT28M18S","thumbnail":"https://i.ytimg.com/vi/5vp9Pd7AaiY/mqdefault.jpg","viewCount":"1148","playlistId":"PLEkQk5xrP-tlPw10KGJKagu7zm4Ry2Tge","playlistName":"شرح الإتقان في علوم القرآن","category":"تفسير"},{"id":"a_11jlvl864","title":"شرح كتاب منازل السائرين للإمام الهروى المجلس التاسع والأربعون قسم الولايات باب الصفاء وباب السرور","publishedAt":"2015-05-18T21:36:46Z","duration":"PT1H7M13S","thumbnail":"https://i.ytimg.com/vi/a_11jlvl864/mqdefault.jpg","viewCount":"1147","playlistId":"PLEkQk5xrP-tnLYi_5_tSRVBwqcs7ISV7Y","playlistName":"شرح كتاب منازل السائرين للإمام الهروي","category":"متنوع"},{"id":"72NzRMIBJi4","title":"428- ما يوجِب رضوان الله تعالى وما يوجِب سخطه - شرح دليل الفالحين","publishedAt":"2023-04-26T09:00:04Z","duration":"PT26M15S","thumbnail":"https://i.ytimg.com/vi/72NzRMIBJi4/mqdefault.jpg","viewCount":"1146","playlistId":"PLEkQk5xrP-tkc9DXvSLguqX5-FYp6ASR4","playlistName":"دليل الفالحين لطرق رياض الصالحين","category":"متنوع"},{"id":"do7Z0GoZGCk","title":"الحبُّ والعِرفانُ لأهلِ (بقيع مصر) بالبهنسا    أ.د. يسري جبر","publishedAt":"2019-10-13T14:33:26Z","duration":"PT2M17S","thumbnail":"https://i.ytimg.com/vi/do7Z0GoZGCk/mqdefault.jpg","viewCount":"1146","playlistId":"PLEkQk5xrP-tm8ZIu74nTOZN9KJUJu416J","playlistName":"مقاطع مُهمَّة (يُسريَّات) أ.د. يسري جبر","category":"متنوع"}],"total":7670,"page":142,"pageSize":24,"totalPages":320}