{"items":[{"id":"nJ7fUp3Ptvs","title":"شرح صحيح البخاري - كتاب المغازي من باب ٦١","publishedAt":"2018-02-23T18:34:20Z","duration":"PT31M19S","thumbnail":"https://i.ytimg.com/vi/nJ7fUp3Ptvs/mqdefault.jpg","viewCount":"598","playlistId":"PLEkQk5xrP-tlEerGoLa1AFy-2XvQ-sovv","playlistName":"شرح صحيح البخاري - أ.د. يسري جبر (كاملا)","category":"حديث"},{"id":"D-_GsBLOomM","title":"شرح صحيح البخاري - كتاب المغازي من باب ٣٨","publishedAt":"2018-02-08T16:25:24Z","duration":"PT27M33S","thumbnail":"https://i.ytimg.com/vi/D-_GsBLOomM/mqdefault.jpg","viewCount":"598","playlistId":"PLEkQk5xrP-tlEerGoLa1AFy-2XvQ-sovv","playlistName":"شرح صحيح البخاري - أ.د. يسري جبر (كاملا)","category":"حديث"},{"id":"3zUH5xLUHHQ","title":"شرح صحيح البخاري   كتاب المغازي من باب ٢٤","publishedAt":"2018-01-18T08:55:48Z","duration":"PT27M22S","thumbnail":"https://i.ytimg.com/vi/3zUH5xLUHHQ/mqdefault.jpg","viewCount":"598","playlistId":"PLEkQk5xrP-tlEerGoLa1AFy-2XvQ-sovv","playlistName":"شرح صحيح البخاري - أ.د. يسري جبر (كاملا)","category":"حديث"},{"id":"YbfVYHtoNzM","title":"مقرأة سورة يوسف من آية ٦٨","publishedAt":"2017-07-04T08:29:14Z","duration":"PT25M44S","thumbnail":"https://i.ytimg.com/vi/YbfVYHtoNzM/mqdefault.jpg","viewCount":"598","playlistId":"PLEkQk5xrP-tnmTYsyW6xNdyfhPq0Bhrhj","playlistName":"مقرأة الفجر - القُرْآنُ الكَرِيمُ - خَتْمَةُ التَّدَبُّرِ  أ.د. يسري جبر","category":"متنوع"},{"id":"OaHHcK0saLw","title":"شرح صحيح البخاري - كتاب المغازي من باب ٦","publishedAt":"2017-12-20T14:02:12Z","duration":"PT28M51S","thumbnail":"https://i.ytimg.com/vi/OaHHcK0saLw/mqdefault.jpg","viewCount":"597","playlistId":"PLEkQk5xrP-tlEerGoLa1AFy-2XvQ-sovv","playlistName":"شرح صحيح البخاري - أ.د. يسري جبر (كاملا)","category":"حديث"},{"id":"IlUwp5elvrs","title":"234- تنبيه: تقديم المعمول يفيد الحصر  - شرح الإتقان في علوم القرآن","publishedAt":"2024-05-10T05:15:01Z","duration":"PT24M41S","thumbnail":"https://i.ytimg.com/vi/IlUwp5elvrs/mqdefault.jpg","viewCount":"597","playlistId":"PLEkQk5xrP-tlPw10KGJKagu7zm4Ry2Tge","playlistName":"شرح الإتقان في علوم القرآن","category":"تفسير"},{"id":"X0RaKu8W9Uw","title":"إطلاق اسم المحلِّ على الحال","publishedAt":"2020-10-22T19:19:13Z","duration":"PT19M45S","thumbnail":"https://i.ytimg.com/vi/X0RaKu8W9Uw/mqdefault.jpg","viewCount":"597","playlistId":"PLEkQk5xrP-tnW3iBL7HkKziOFCFZbTlf0","playlistName":"شرح البرهان في علوم القرآن - أ.د. يسري جبر","category":"تفسير"},{"id":"Glic_keLDvQ","title":"شرح صحيح البخاري كتاب التفسير فى سورة الحجرات من باب ١","publishedAt":"2018-04-21T15:46:09Z","duration":"PT32M30S","thumbnail":"https://i.ytimg.com/vi/Glic_keLDvQ/mqdefault.jpg","viewCount":"597","playlistId":"PLEkQk5xrP-tlEerGoLa1AFy-2XvQ-sovv","playlistName":"شرح صحيح البخاري - أ.د. يسري جبر (كاملا)","category":"حديث"},{"id":"3OAQqJTYSkE","title":"شرح صحيح البخاري - كتاب الهبة من باب ٨","publishedAt":"2017-06-16T08:37:05Z","duration":"PT28M34S","thumbnail":"https://i.ytimg.com/vi/3OAQqJTYSkE/mqdefault.jpg","viewCount":"597","playlistId":"PLEkQk5xrP-tlEerGoLa1AFy-2XvQ-sovv","playlistName":"شرح صحيح البخاري - أ.د. يسري جبر (كاملا)","category":"حديث"},{"id":"VB_q2bL5-bg","title":"شرح البرهان في علوم القرآن - النوع ١٣ - نسخ القرآن في المصاحف ٢","publishedAt":"2019-11-01T22:21:21Z","duration":"PT19M26S","thumbnail":"https://i.ytimg.com/vi/VB_q2bL5-bg/mqdefault.jpg","viewCount":"596","playlistId":"PLEkQk5xrP-tnW3iBL7HkKziOFCFZbTlf0","playlistName":"شرح البرهان في علوم القرآن - أ.د. يسري جبر","category":"تفسير"},{"id":"mPIenwnTlFc","title":"230- الكناية والتعريض - شرح الإتقان في علوم القرآن","publishedAt":"2024-05-02T05:17:03Z","duration":"PT28M22S","thumbnail":"https://i.ytimg.com/vi/mPIenwnTlFc/mqdefault.jpg","viewCount":"596","playlistId":"PLEkQk5xrP-tlPw10KGJKagu7zm4Ry2Tge","playlistName":"شرح الإتقان في علوم القرآن","category":"تفسير"},{"id":"qOFQ6xTCatE","title":"مسك الختام لقا خير الأنام - المديح وكلمة الوداع والشكر","publishedAt":"2014-11-13T16:28:47Z","duration":"PT11M30S","thumbnail":"https://i.ytimg.com/vi/qOFQ6xTCatE/mqdefault.jpg","viewCount":"595","playlistId":"PLEkQk5xrP-tm74ioQU4BIuXLs8a9babvA","playlistName":"شرح كتاب الشمائل المحمدية للإمام الترمذى","category":"سيرة"},{"id":"a6ggS5qjRkA","title":"كيف كان رسول الله أحسن الناس خُلقاً | اعرف نبيك","publishedAt":"2015-09-09T16:23:04Z","duration":"PT7M40S","thumbnail":"https://i.ytimg.com/vi/a6ggS5qjRkA/mqdefault.jpg","viewCount":"595","playlistId":"PLEkQk5xrP-tl6Mu_Mz3QMUSv5T6XBH-Dg","playlistName":"برنامج اعرف نبيك","category":"متنوع"},{"id":"S_hQZJVxsyw","title":"شرح صحيح البخاري- كتاب أحاديث الأنبياء من باب ٤٢","publishedAt":"2017-10-16T16:12:04Z","duration":"PT35M32S","thumbnail":"https://i.ytimg.com/vi/S_hQZJVxsyw/mqdefault.jpg","viewCount":"595","playlistId":"PLEkQk5xrP-tlEerGoLa1AFy-2XvQ-sovv","playlistName":"شرح صحيح البخاري - أ.د. يسري جبر (كاملا)","category":"حديث"},{"id":"OK-frGmHD5c","title":"شرح سنن الدارمي - المقدمة - ٢٢","publishedAt":"2019-03-12T12:12:02Z","duration":"PT31M53S","thumbnail":"https://i.ytimg.com/vi/OK-frGmHD5c/mqdefault.jpg","viewCount":"594","playlistId":"PLEkQk5xrP-tmAg-FuWjY057X_h5NmGmAa","playlistName":"شرح سنن الدارمي - أ.د. يسري جبر (كاملا)","category":"متنوع"},{"id":"_llUMlMIBxI","title":"202- النوع 44: في مقدمه ومؤخره- القسم الأول: ما أُشكل معناه بحسب الظاهر- شرح الإتقان في علوم القرآن","publishedAt":"2024-02-01T20:49:40Z","duration":"PT19M","thumbnail":"https://i.ytimg.com/vi/_llUMlMIBxI/mqdefault.jpg","viewCount":"594","playlistId":"PLEkQk5xrP-tlPw10KGJKagu7zm4Ry2Tge","playlistName":"شرح الإتقان في علوم القرآن","category":"تفسير"},{"id":"sVhgVNZdgmg","title":"قَاعِدَةٌ فِيمَا وَرَدَ في القُرْآنِ مَجْمُوعًا ومُفْرَدًا - شرح البرهان في علوم القرآن","publishedAt":"2022-03-10T04:17:55Z","duration":"PT25M38S","thumbnail":"https://i.ytimg.com/vi/sVhgVNZdgmg/mqdefault.jpg","viewCount":"594","playlistId":"PLEkQk5xrP-tnW3iBL7HkKziOFCFZbTlf0","playlistName":"شرح البرهان في علوم القرآن - أ.د. يسري جبر","category":"تفسير"},{"id":"Xm8QRpInecM","title":"شرح صحيح البخاري -  كتاب المغازي تكملة باب ١٠","publishedAt":"2017-12-25T15:00:47Z","duration":"PT39M31S","thumbnail":"https://i.ytimg.com/vi/Xm8QRpInecM/mqdefault.jpg","viewCount":"594","playlistId":"PLEkQk5xrP-tlEerGoLa1AFy-2XvQ-sovv","playlistName":"شرح صحيح البخاري - أ.د. يسري جبر (كاملا)","category":"حديث"},{"id":"54ex6_9iyKg","title":"شرح صحيح البخاري   كتاب المغازي من باب ١٩","publishedAt":"2018-01-15T05:21:40Z","duration":"PT38M55S","thumbnail":"https://i.ytimg.com/vi/54ex6_9iyKg/mqdefault.jpg","viewCount":"594","playlistId":"PLEkQk5xrP-tlEerGoLa1AFy-2XvQ-sovv","playlistName":"شرح صحيح البخاري - أ.د. يسري جبر (كاملا)","category":"حديث"},{"id":"DIcoGTKw3WY","title":"شرح صحيح البخاري كتاب التفسير فى سورة يوسف من باب ١","publishedAt":"2018-03-31T08:11:52Z","duration":"PT33M12S","thumbnail":"https://i.ytimg.com/vi/DIcoGTKw3WY/mqdefault.jpg","viewCount":"593","playlistId":"PLEkQk5xrP-tlEerGoLa1AFy-2XvQ-sovv","playlistName":"شرح صحيح البخاري - أ.د. يسري جبر (كاملا)","category":"حديث"},{"id":"H-8oRSC3SqQ","title":"130- باب جواز وسْم الحيوان غير الْآدَمِيِّ في غَيْرِ الوجْه، وندْبه في نَعَم الزَّكاة وَالْجِزْيَة","publishedAt":"2020-09-13T12:37:20Z","duration":"PT27M17S","thumbnail":"https://i.ytimg.com/vi/H-8oRSC3SqQ/mqdefault.jpg","viewCount":"593","playlistId":"PLEkQk5xrP-tmKNjtYLfhATC37QdIsTMe0","playlistName":"شرح كتاب اللؤلؤ والمرجان فيما اتفق عليه الشيخان إماما المحدثين البخاري ومسلم. أ.د. يسري جبر","category":"حديث"},{"id":"YSWQWqxUyH0","title":"558- حرف (إِلَّا) يأتي بمعنى (بدل) - شرح البرهان في علوم القرآن","publishedAt":"2022-09-07T06:15:01Z","duration":"PT15M55S","thumbnail":"https://i.ytimg.com/vi/YSWQWqxUyH0/mqdefault.jpg","viewCount":"592","playlistId":"PLEkQk5xrP-tnW3iBL7HkKziOFCFZbTlf0","playlistName":"شرح البرهان في علوم القرآن - أ.د. يسري جبر","category":"تفسير"},{"id":"7NkqtKAf-DY","title":"شرح صحيح البخاري كتاب الأيمان والنذور من أوله","publishedAt":"2018-11-10T14:25:23Z","duration":"PT32M55S","thumbnail":"https://i.ytimg.com/vi/7NkqtKAf-DY/mqdefault.jpg","viewCount":"592","playlistId":"PLEkQk5xrP-tlEerGoLa1AFy-2XvQ-sovv","playlistName":"شرح صحيح البخاري - أ.د. يسري جبر (كاملا)","category":"حديث"},{"id":"keRla_JYPQ8","title":"قراءة القرآن (من آية ٢٧٧ سورة البقرة)","publishedAt":"2016-06-01T01:46:38Z","duration":"PT11M49S","thumbnail":"https://i.ytimg.com/vi/keRla_JYPQ8/mqdefault.jpg","viewCount":"592","playlistId":"PLEkQk5xrP-tnmTYsyW6xNdyfhPq0Bhrhj","playlistName":"مقرأة الفجر - القُرْآنُ الكَرِيمُ - خَتْمَةُ التَّدَبُّرِ  أ.د. يسري جبر","category":"متنوع"}],"total":7670,"page":203,"pageSize":24,"totalPages":320}