{"items":[{"id":"RMy3f8aLBTU","title":"مقرأة سورة النحل من آية ٦٢","publishedAt":"2017-08-25T14:39:54Z","duration":"PT23M31S","thumbnail":"https://i.ytimg.com/vi/RMy3f8aLBTU/mqdefault.jpg","viewCount":"393","playlistId":"PLEkQk5xrP-tnmTYsyW6xNdyfhPq0Bhrhj","playlistName":"مقرأة الفجر - القُرْآنُ الكَرِيمُ - خَتْمَةُ التَّدَبُّرِ  أ.د. يسري جبر","category":"متنوع"},{"id":"PUB_gC8J17s","title":"مقرأة سورة الأنفال من آية ٥٩","publishedAt":"2017-03-26T07:32:58Z","duration":"PT19M48S","thumbnail":"https://i.ytimg.com/vi/PUB_gC8J17s/mqdefault.jpg","viewCount":"392","playlistId":"PLEkQk5xrP-tnmTYsyW6xNdyfhPq0Bhrhj","playlistName":"مقرأة الفجر - القُرْآنُ الكَرِيمُ - خَتْمَةُ التَّدَبُّرِ  أ.د. يسري جبر","category":"متنوع"},{"id":"3ajHIFQpCtU","title":"68- شرح اللؤلؤ والمرجان كتاب الحج من الباب الثامن والعشرين","publishedAt":"2020-02-16T06:00:01Z","duration":"PT22M35S","thumbnail":"https://i.ytimg.com/vi/3ajHIFQpCtU/mqdefault.jpg","viewCount":"392","playlistId":"PLEkQk5xrP-tmKNjtYLfhATC37QdIsTMe0","playlistName":"شرح كتاب اللؤلؤ والمرجان فيما اتفق عليه الشيخان إماما المحدثين البخاري ومسلم. أ.د. يسري جبر","category":"حديث"},{"id":"ob2YvEW_VFc","title":"سورة الأنفال آية 27","publishedAt":"2017-03-20T11:11:32Z","duration":"PT13M34S","thumbnail":"https://i.ytimg.com/vi/ob2YvEW_VFc/mqdefault.jpg","viewCount":"392","playlistId":"PLEkQk5xrP-tnmTYsyW6xNdyfhPq0Bhrhj","playlistName":"مقرأة الفجر - القُرْآنُ الكَرِيمُ - خَتْمَةُ التَّدَبُّرِ  أ.د. يسري جبر","category":"متنوع"},{"id":"nmjoqSDX5Y0","title":"100- شرح اللؤلؤ والمرجان كتاب النذر من أوله","publishedAt":"2020-03-19T06:30:03Z","duration":"PT11M58S","thumbnail":"https://i.ytimg.com/vi/nmjoqSDX5Y0/mqdefault.jpg","viewCount":"392","playlistId":"PLEkQk5xrP-tmKNjtYLfhATC37QdIsTMe0","playlistName":"شرح كتاب اللؤلؤ والمرجان فيما اتفق عليه الشيخان إماما المحدثين البخاري ومسلم. أ.د. يسري جبر","category":"حديث"},{"id":"q_YJ7u0p7RU","title":"شرح البرهان في علوم القرآن - النوع ٣٦ - تفريعات ٢","publishedAt":"2020-03-11T09:15:00Z","duration":"PT22M54S","thumbnail":"https://i.ytimg.com/vi/q_YJ7u0p7RU/mqdefault.jpg","viewCount":"392","playlistId":"PLEkQk5xrP-tnW3iBL7HkKziOFCFZbTlf0","playlistName":"شرح البرهان في علوم القرآن - أ.د. يسري جبر","category":"تفسير"},{"id":"Vmj5pQxCo10","title":"شرح البرهان في علوم القرآن - النوع ٢٥ - علم مرسوم الخط (الزائد وأقسامه)","publishedAt":"2020-01-13T08:37:11Z","duration":"PT17M3S","thumbnail":"https://i.ytimg.com/vi/Vmj5pQxCo10/mqdefault.jpg","viewCount":"392","playlistId":"PLEkQk5xrP-tnW3iBL7HkKziOFCFZbTlf0","playlistName":"شرح البرهان في علوم القرآن - أ.د. يسري جبر","category":"تفسير"},{"id":"pnKDpfvCCBM","title":"مقرأة سورة محمد من آية ٧","publishedAt":"2019-01-12T13:32:14Z","duration":"PT16M22S","thumbnail":"https://i.ytimg.com/vi/pnKDpfvCCBM/mqdefault.jpg","viewCount":"391","playlistId":"PLEkQk5xrP-tnmTYsyW6xNdyfhPq0Bhrhj","playlistName":"مقرأة الفجر - القُرْآنُ الكَرِيمُ - خَتْمَةُ التَّدَبُّرِ  أ.د. يسري جبر","category":"متنوع"},{"id":"l8P92lgw2mY","title":"مقرأة سورة الإنسان من آية ٢٢","publishedAt":"2019-06-07T10:49:34Z","duration":"PT10M58S","thumbnail":"https://i.ytimg.com/vi/l8P92lgw2mY/mqdefault.jpg","viewCount":"391","playlistId":"PLEkQk5xrP-tnmTYsyW6xNdyfhPq0Bhrhj","playlistName":"مقرأة الفجر - القُرْآنُ الكَرِيمُ - خَتْمَةُ التَّدَبُّرِ  أ.د. يسري جبر","category":"متنوع"},{"id":"nAB6o_8mwCw","title":"سورة الأنعام آية 6","publishedAt":"2016-11-29T07:06:15Z","duration":"PT13M23S","thumbnail":"https://i.ytimg.com/vi/nAB6o_8mwCw/mqdefault.jpg","viewCount":"391","playlistId":"PLEkQk5xrP-tnmTYsyW6xNdyfhPq0Bhrhj","playlistName":"مقرأة الفجر - القُرْآنُ الكَرِيمُ - خَتْمَةُ التَّدَبُّرِ  أ.د. يسري جبر","category":"متنوع"},{"id":"JqgjQm1hkpw","title":"71- شرح اللؤلؤ والمرجان كتاب الحج من الباب التاسع والأربعين","publishedAt":"2020-02-19T06:00:05Z","duration":"PT23M38S","thumbnail":"https://i.ytimg.com/vi/JqgjQm1hkpw/mqdefault.jpg","viewCount":"391","playlistId":"PLEkQk5xrP-tmKNjtYLfhATC37QdIsTMe0","playlistName":"شرح كتاب اللؤلؤ والمرجان فيما اتفق عليه الشيخان إماما المحدثين البخاري ومسلم. أ.د. يسري جبر","category":"حديث"},{"id":"5_JS6ho7JFI","title":"مقرأة سورة الزمر من آية ٤٣","publishedAt":"2018-10-25T00:08:40Z","duration":"PT26M58S","thumbnail":"https://i.ytimg.com/vi/5_JS6ho7JFI/mqdefault.jpg","viewCount":"391","playlistId":"PLEkQk5xrP-tnmTYsyW6xNdyfhPq0Bhrhj","playlistName":"مقرأة الفجر - القُرْآنُ الكَرِيمُ - خَتْمَةُ التَّدَبُّرِ  أ.د. يسري جبر","category":"متنوع"},{"id":"wCjlzJNWujs","title":"102- شرح اللؤلؤ والمرجان كتاب الأيمان من الباب السادس","publishedAt":"2020-03-22T08:30:06Z","duration":"PT24M50S","thumbnail":"https://i.ytimg.com/vi/wCjlzJNWujs/mqdefault.jpg","viewCount":"391","playlistId":"PLEkQk5xrP-tmKNjtYLfhATC37QdIsTMe0","playlistName":"شرح كتاب اللؤلؤ والمرجان فيما اتفق عليه الشيخان إماما المحدثين البخاري ومسلم. أ.د. يسري جبر","category":"حديث"},{"id":"GE3NDnDqN1M","title":"مقرأة سورة فاطر من آية 15","publishedAt":"2018-08-24T09:08:50Z","duration":"PT29M58S","thumbnail":"https://i.ytimg.com/vi/GE3NDnDqN1M/mqdefault.jpg","viewCount":"391","playlistId":"PLEkQk5xrP-tnmTYsyW6xNdyfhPq0Bhrhj","playlistName":"مقرأة الفجر - القُرْآنُ الكَرِيمُ - خَتْمَةُ التَّدَبُّرِ  أ.د. يسري جبر","category":"متنوع"},{"id":"NuPqmeTmyZs","title":"618- معنى (ما) - شرح البرهان في علوم القرآن","publishedAt":"2022-12-11T05:00:09Z","duration":"PT37M19S","thumbnail":"https://i.ytimg.com/vi/NuPqmeTmyZs/mqdefault.jpg","viewCount":"391","playlistId":"PLEkQk5xrP-tnW3iBL7HkKziOFCFZbTlf0","playlistName":"شرح البرهان في علوم القرآن - أ.د. يسري جبر","category":"تفسير"},{"id":"EluNH_Wu-8o","title":"مقرأة سورة الحجرات من آية ٩","publishedAt":"2019-01-26T20:49:51Z","duration":"PT9M38S","thumbnail":"https://i.ytimg.com/vi/EluNH_Wu-8o/mqdefault.jpg","viewCount":"391","playlistId":"PLEkQk5xrP-tnmTYsyW6xNdyfhPq0Bhrhj","playlistName":"مقرأة الفجر - القُرْآنُ الكَرِيمُ - خَتْمَةُ التَّدَبُّرِ  أ.د. يسري جبر","category":"متنوع"},{"id":"Xw7euEtbmUo","title":"شرح سنن الدارمي كتاب الصلاة من باب ١٤٠","publishedAt":"2019-05-16T23:20:55Z","duration":"PT31M23S","thumbnail":"https://i.ytimg.com/vi/Xw7euEtbmUo/mqdefault.jpg","viewCount":"391","playlistId":"PLEkQk5xrP-tmAg-FuWjY057X_h5NmGmAa","playlistName":"شرح سنن الدارمي - أ.د. يسري جبر (كاملا)","category":"متنوع"},{"id":"Ib4cDYL-XuY","title":"مقرأة سورة يس من آية ٧١","publishedAt":"2018-09-10T11:04:54Z","duration":"PT9M35S","thumbnail":"https://i.ytimg.com/vi/Ib4cDYL-XuY/mqdefault.jpg","viewCount":"391","playlistId":"PLEkQk5xrP-tnmTYsyW6xNdyfhPq0Bhrhj","playlistName":"مقرأة الفجر - القُرْآنُ الكَرِيمُ - خَتْمَةُ التَّدَبُّرِ  أ.د. يسري جبر","category":"متنوع"},{"id":"bjq8JioDK1A","title":"( 120 ) حديث يمين الغموس -  د. يسري جبر","publishedAt":"2017-05-31T01:44:16Z","duration":"PT22M30S","thumbnail":"https://i.ytimg.com/vi/bjq8JioDK1A/mqdefault.jpg","viewCount":"390","playlistId":"PLEkQk5xrP-tnl7vb7KeAoPd5ZlqKKW8KV","playlistName":"شرح كتاب بهجة النفوس أ.د . يسرى جبر","category":"متنوع"},{"id":"EwJN3qkmIs4","title":"سورة المائدة آية 42","publishedAt":"2016-11-10T04:24:06Z","duration":"PT18M41S","thumbnail":"https://i.ytimg.com/vi/EwJN3qkmIs4/mqdefault.jpg","viewCount":"390","playlistId":"PLEkQk5xrP-tnmTYsyW6xNdyfhPq0Bhrhj","playlistName":"مقرأة الفجر - القُرْآنُ الكَرِيمُ - خَتْمَةُ التَّدَبُّرِ  أ.د. يسري جبر","category":"متنوع"},{"id":"8kMIrZ_fPCw","title":"سورة المائدة آية 112","publishedAt":"2016-11-26T11:22:04Z","duration":"PT20M45S","thumbnail":"https://i.ytimg.com/vi/8kMIrZ_fPCw/mqdefault.jpg","viewCount":"390","playlistId":"PLEkQk5xrP-tnmTYsyW6xNdyfhPq0Bhrhj","playlistName":"مقرأة الفجر - القُرْآنُ الكَرِيمُ - خَتْمَةُ التَّدَبُّرِ  أ.د. يسري جبر","category":"متنوع"},{"id":"HLNAFCL__hY","title":"شرح صحيح البخاري كتاب الطلا‎ق من باب ٤٠","publishedAt":"2018-06-25T20:40:47Z","duration":"PT18M53S","thumbnail":"https://i.ytimg.com/vi/HLNAFCL__hY/mqdefault.jpg","viewCount":"390","playlistId":"PLEkQk5xrP-tlEerGoLa1AFy-2XvQ-sovv","playlistName":"شرح صحيح البخاري - أ.د. يسري جبر (كاملا)","category":"حديث"},{"id":"N57BQkPDl1w","title":"شرح صحيح البخاري كتاب الطلا‎ق من باب ٢٨","publishedAt":"2018-06-23T18:40:11Z","duration":"PT24M28S","thumbnail":"https://i.ytimg.com/vi/N57BQkPDl1w/mqdefault.jpg","viewCount":"390","playlistId":"PLEkQk5xrP-tlEerGoLa1AFy-2XvQ-sovv","playlistName":"شرح صحيح البخاري - أ.د. يسري جبر (كاملا)","category":"حديث"},{"id":"1jmooUTHb6Q","title":"شرح كتاب الزهد من سنن الترمذي - المجلس الأول","publishedAt":"2016-01-02T06:18:43Z","duration":"PT36M36S","thumbnail":"https://i.ytimg.com/vi/1jmooUTHb6Q/mqdefault.jpg","viewCount":"390","playlistId":"PLEkQk5xrP-tnu6of679SvxdVx0qSrJzmb","playlistName":"شرح سنن الإمام الترمذي رضى الله عنه د. يسري جبر","category":"متنوع"}],"total":7670,"page":257,"pageSize":24,"totalPages":320}