{"items":[{"id":"MbHZ4_nfSvY","title":"شرح صحيح البخاري_ كتاب (بدء الخلق) «حديث الذبابة» ورد الشبهات حولها د. يسري جبر","publishedAt":"2014-08-25T01:39:24Z","duration":"PT1H16M17S","thumbnail":"https://i.ytimg.com/vi/MbHZ4_nfSvY/mqdefault.jpg","viewCount":"7408","playlistId":"PLEkQk5xrP-tm8ZIu74nTOZN9KJUJu416J","playlistName":"مقاطع مُهمَّة (يُسريَّات) أ.د. يسري جبر","category":"متنوع"},{"id":"YEsbag9lF-I","title":"9- شرح حديث \"إِنَّمَا الأَعْمَالُ بِالنِّيَّاتِ، وَإِنَّمَا لِكُلِّ امْرِئٍ مَا نَوَى\"","publishedAt":"2021-01-25T19:44:22Z","duration":"PT37M38S","thumbnail":"https://i.ytimg.com/vi/YEsbag9lF-I/mqdefault.jpg","viewCount":"7399","playlistId":"PLEkQk5xrP-tkc9DXvSLguqX5-FYp6ASR4","playlistName":"دليل الفالحين لطرق رياض الصالحين","category":"متنوع"},{"id":"ONgO4xybcok","title":"بَرَكَةُ النَّبيّ ﷺ في لمس الأشياء","publishedAt":"2022-07-14T18:30:20Z","duration":"PT8M34S","thumbnail":"https://i.ytimg.com/vi/ONgO4xybcok/mqdefault.jpg","viewCount":"7366","playlistId":"PLEkQk5xrP-tm8ZIu74nTOZN9KJUJu416J","playlistName":"مقاطع مُهمَّة (يُسريَّات) أ.د. يسري جبر","category":"متنوع"},{"id":"dzkwSjkfjmk","title":"الرسالة القشيرية - المجلس (101) بَابُ المحبة ٤ | أ.د. يسري جبر","publishedAt":"2021-12-02T19:00:08Z","duration":"PT40M54S","thumbnail":"https://i.ytimg.com/vi/dzkwSjkfjmk/mqdefault.jpg","viewCount":"7363","playlistId":"PLEkQk5xrP-tkHAGOwIKr4pc5ehhyQ5HMJ","playlistName":"كتاب الرسالة القشيرية (تصوف) - د. يسري جبر","category":"تصوف"},{"id":"TWOtRcWGVX8","title":"أفضل الأعمال في شهر رمضان","publishedAt":"2021-04-12T16:36:41Z","duration":"PT23M24S","thumbnail":"https://i.ytimg.com/vi/TWOtRcWGVX8/mqdefault.jpg","viewCount":"7355","playlistId":"PLEkQk5xrP-tlArtGpeLWaqNM7h7IDeAVC","playlistName":"خطب الجمعة أ.د. يسري جبر","category":"خطب"},{"id":"QefZZTur1Uo","title":"ما معنى قراءة الفاتحة لسيدنا محمد ﷺ؟","publishedAt":"2022-08-25T18:00:15Z","duration":"PT10M17S","thumbnail":"https://i.ytimg.com/vi/QefZZTur1Uo/mqdefault.jpg","viewCount":"7347","playlistId":"PLEkQk5xrP-tkGXuZ9atE3k_7it12rUPTs","playlistName":"أسئلة المتابعين","category":"متنوع"},{"id":"8zD_j4FtYyQ","title":"5 أسرار لا يعلمها إلا الله! | مجالس الاعتكاف","publishedAt":"2025-03-27T10:00:08Z","duration":"PT37M11S","thumbnail":"https://i.ytimg.com/vi/8zD_j4FtYyQ/mqdefault.jpg","viewCount":"7346","playlistId":"PLEkQk5xrP-tly7ti7Qb_lS7xjUg_fwlNP","playlistName":"شرح كتاب الدولة المكية بالمادة الغيبية","category":"متنوع"},{"id":"KMzAi84kip4","title":"هل الذكر الجماعي سنة | وما هي الأعمال التي تجنبنا المعاصي؟","publishedAt":"2022-07-17T19:19:31Z","duration":"PT9M35S","thumbnail":"https://i.ytimg.com/vi/KMzAi84kip4/mqdefault.jpg","viewCount":"7338","playlistId":"PLEkQk5xrP-tm8ZIu74nTOZN9KJUJu416J","playlistName":"مقاطع مُهمَّة (يُسريَّات) أ.د. يسري جبر","category":"متنوع"},{"id":"SfeyYKP50bM","title":"هل رؤية النبي ﷺ يقظة حقيقة أم هلاوس؟","publishedAt":"2022-08-02T18:00:16Z","duration":"PT14M10S","thumbnail":"https://i.ytimg.com/vi/SfeyYKP50bM/mqdefault.jpg","viewCount":"7336","playlistId":"PLEkQk5xrP-tkGXuZ9atE3k_7it12rUPTs","playlistName":"أسئلة المتابعين","category":"متنوع"},{"id":"U71VggsKTME","title":"كيف أتخلص من جلد الذات؟","publishedAt":"2021-07-28T17:30:04Z","duration":"PT9M31S","thumbnail":"https://i.ytimg.com/vi/U71VggsKTME/mqdefault.jpg","viewCount":"7330","playlistId":"PLEkQk5xrP-tkGXuZ9atE3k_7it12rUPTs","playlistName":"أسئلة المتابعين","category":"متنوع"},{"id":"EtEcpp2v2Gs","title":"التصوف ودوره في مواجهة الوباء والمحن","publishedAt":"2021-08-12T06:13:59Z","duration":"PT29M34S","thumbnail":"https://i.ytimg.com/vi/EtEcpp2v2Gs/mqdefault.jpg","viewCount":"7310","playlistId":"PLEkQk5xrP-tm8ZIu74nTOZN9KJUJu416J","playlistName":"مقاطع مُهمَّة (يُسريَّات) أ.د. يسري جبر","category":"متنوع"},{"id":"NMo7CyhIc40","title":"شرح منازل السائرين - المجلس (18) باب الخوف | أ.د. يسري جبر","publishedAt":"2022-12-13T18:00:06Z","duration":"PT36M22S","thumbnail":"https://i.ytimg.com/vi/NMo7CyhIc40/mqdefault.jpg","viewCount":"7306","playlistId":"PLEkQk5xrP-tmiUfQ-2Tsn7QIak4EsvaZW","playlistName":"كتاب التيسير المعين بشرح معاني منازل السائرين (تصوف) - د.يسري جبر","category":"تصوف"},{"id":"ej2a8xb3GdA","title":"أحاول مقاومة الكسل في الطاعات والخشوع في الصلاة ولا أستطيع ,, فماذا أفعل؟","publishedAt":"2024-10-21T17:45:07Z","duration":"PT8M32S","thumbnail":"https://i.ytimg.com/vi/ej2a8xb3GdA/mqdefault.jpg","viewCount":"7305","playlistId":"PLEkQk5xrP-tkGXuZ9atE3k_7it12rUPTs","playlistName":"أسئلة المتابعين","category":"متنوع"},{"id":"G-CW9KsFhYM","title":"الصِيغَةُ النَّبَوِيَّةُ الشَّرِيفَةُ    أ.د. يسري جبر","publishedAt":"2019-04-11T20:14:55Z","duration":"PT2M18S","thumbnail":"https://i.ytimg.com/vi/G-CW9KsFhYM/mqdefault.jpg","viewCount":"7302","playlistId":"PLEkQk5xrP-tm8ZIu74nTOZN9KJUJu416J","playlistName":"مقاطع مُهمَّة (يُسريَّات) أ.د. يسري جبر","category":"متنوع"},{"id":"GINeV3aLeTg","title":"(14) سيدنا أبو زكريا يحيى بن معاذ الرازي الواعظ رضي الله عنه  د. يسري جبر","publishedAt":"2018-04-15T19:53:54Z","duration":"PT30M17S","thumbnail":"https://i.ytimg.com/vi/GINeV3aLeTg/mqdefault.jpg","viewCount":"7298","playlistId":"PLEkQk5xrP-tmmI87XkWepRdTpisz2Lfgr","playlistName":"باب في ذكر مشايخ هذه الطريقة من شرح كتاب الرسالة القشيرية","category":"تصوف"},{"id":"WD67TPh8AN4","title":"شرح كتاب دلائل الخيرات - المجلس التاسع عشر. أ.د. يسري جبر","publishedAt":"2020-02-08T12:41:02Z","duration":"PT21M18S","thumbnail":"https://i.ytimg.com/vi/WD67TPh8AN4/mqdefault.jpg","viewCount":"7294","playlistId":"PLEkQk5xrP-tlAzcbIpuqjdFICW-knvTlR","playlistName":"شرح كتاب دلائل الخيرات وشوارق الأنوار","category":"متنوع"},{"id":"KgukMU92Tr8","title":"الرسالة القشيرية-المجلس الثالث و العشرون- باب في تفسير ألفاظ تدور بين هذه الطائفة وبيان ما يشكل منها","publishedAt":"2018-07-19T18:35:04Z","duration":"PT50M11S","thumbnail":"https://i.ytimg.com/vi/KgukMU92Tr8/mqdefault.jpg","viewCount":"7282","playlistId":"PLEkQk5xrP-tkHAGOwIKr4pc5ehhyQ5HMJ","playlistName":"كتاب الرسالة القشيرية (تصوف) - د. يسري جبر","category":"تصوف"},{"id":"yk9jx6N3xW4","title":"هل قانون الإيجار القديم في مصر جائز شرعًا؟","publishedAt":"2022-04-24T19:30:02Z","duration":"PT12M4S","thumbnail":"https://i.ytimg.com/vi/yk9jx6N3xW4/mqdefault.jpg","viewCount":"7270","playlistId":"PLEkQk5xrP-tkGXuZ9atE3k_7it12rUPTs","playlistName":"أسئلة المتابعين","category":"متنوع"},{"id":"8DBEEvVl5Jo","title":"الرضا بالإقامة عين الكرامة","publishedAt":"2023-03-07T18:00:06Z","duration":"PT23M54S","thumbnail":"https://i.ytimg.com/vi/8DBEEvVl5Jo/mqdefault.jpg","viewCount":"7262","playlistId":"PLEkQk5xrP-tm8ZIu74nTOZN9KJUJu416J","playlistName":"مقاطع مُهمَّة (يُسريَّات) أ.د. يسري جبر","category":"متنوع"},{"id":"qQbFNs-Zt78","title":"شرح رسالة التوحيد للعارف بالله الشيخ أرسلان الدمشقى قدس الله سره - المجلس الأول","publishedAt":"2014-03-24T07:07:33Z","duration":"PT33M28S","thumbnail":"https://i.ytimg.com/vi/qQbFNs-Zt78/mqdefault.jpg","viewCount":"7258","playlistId":"PLEkQk5xrP-tlaIFSMSnIOJlJRcxLeTosY","playlistName":"شرح رسالة التوحيد للعارف بالله الشيخ أرسلان الدمشقى قدس الله سره","category":"عقيدة"},{"id":"MVUXEIvWZfc","title":"مقامُ الفَرْقِ ومقامُ الجَمْعِ","publishedAt":"2016-10-31T13:20:31Z","duration":"PT13M2S","thumbnail":"https://i.ytimg.com/vi/MVUXEIvWZfc/mqdefault.jpg","viewCount":"7255","playlistId":"PLEkQk5xrP-tkI_meE148wc7V7XHlB0WPb","playlistName":"من الحكم العطائية  د. يسري جبر","category":"متنوع"},{"id":"GEfm0aikW-8","title":"شرح منازل السائرين - المجلس (11) باب التَّذَكُّر | أ.د. يسري جبر","publishedAt":"2022-10-12T18:00:11Z","duration":"PT52M1S","thumbnail":"https://i.ytimg.com/vi/GEfm0aikW-8/mqdefault.jpg","viewCount":"7254","playlistId":"PLEkQk5xrP-tmiUfQ-2Tsn7QIak4EsvaZW","playlistName":"كتاب التيسير المعين بشرح معاني منازل السائرين (تصوف) - د.يسري جبر","category":"تصوف"},{"id":"q_VjYYSPxwE","title":"23- هل السحر يغير الحقائق؟ | كيفية فهم معاني القرآن | شرح مختصر الفتوحات المكية","publishedAt":"2024-06-25T16:58:07Z","duration":"PT48M51S","thumbnail":"https://i.ytimg.com/vi/q_VjYYSPxwE/mqdefault.jpg","viewCount":"7240","playlistId":"PLEkQk5xrP-tnpkdZki6rPTtMak1bnI5g-","playlistName":"شرح كتاب مختصر الفتوحات المكية المسمى لواقح الأنوار القدسية","category":"متنوع"},{"id":"3qzkoSkw6PI","title":"ما هي علامات الساعة التي ظهرت؟ | مجالس رمضانية","publishedAt":"2024-03-18T14:00:04Z","duration":"PT39M30S","thumbnail":"https://i.ytimg.com/vi/3qzkoSkw6PI/mqdefault.jpg","viewCount":"7231","playlistId":"PLEkQk5xrP-tnl7vb7KeAoPd5ZlqKKW8KV","playlistName":"شرح كتاب بهجة النفوس أ.د . يسرى جبر","category":"متنوع"}],"total":7675,"page":43,"pageSize":24,"totalPages":320}