{"items":[{"id":"iu0hkM4OH3E","title":"شرح كتاب الأدب من سنن الترمذي - المجلس الثاني","publishedAt":"2016-03-10T13:10:46Z","duration":"PT41M16S","thumbnail":"https://i.ytimg.com/vi/iu0hkM4OH3E/mqdefault.jpg","viewCount":"110","playlistId":"PLEkQk5xrP-tnu6of679SvxdVx0qSrJzmb","playlistName":"شرح سنن الإمام الترمذي رضى الله عنه د. يسري جبر","category":"متنوع"},{"id":"O2SXLE2RcXI","title":"شرح كتاب الوصايا من سنن الترمذي","publishedAt":"2015-12-08T05:59:22Z","duration":"PT46M","thumbnail":"https://i.ytimg.com/vi/O2SXLE2RcXI/mqdefault.jpg","viewCount":"110","playlistId":"PLEkQk5xrP-tnu6of679SvxdVx0qSrJzmb","playlistName":"شرح سنن الإمام الترمذي رضى الله عنه د. يسري جبر","category":"متنوع"},{"id":"OYqohOOP1lA","title":"شرح كتاب الطب من سنن الترمذي - المجلس السادس","publishedAt":"2015-12-07T01:51:15Z","duration":"PT33M7S","thumbnail":"https://i.ytimg.com/vi/OYqohOOP1lA/mqdefault.jpg","viewCount":"110","playlistId":"PLEkQk5xrP-tnu6of679SvxdVx0qSrJzmb","playlistName":"شرح سنن الإمام الترمذي رضى الله عنه د. يسري جبر","category":"متنوع"},{"id":"pEyHP2CwAv8","title":"شرح كتاب الصيد والذبائح من سنن الترمذي - المجلس الرابع","publishedAt":"2015-07-04T03:40:45Z","duration":"PT24M16S","thumbnail":"https://i.ytimg.com/vi/pEyHP2CwAv8/mqdefault.jpg","viewCount":"110","playlistId":"PLEkQk5xrP-tnu6of679SvxdVx0qSrJzmb","playlistName":"شرح سنن الإمام الترمذي رضى الله عنه د. يسري جبر","category":"متنوع"},{"id":"gMJ39YZc-ks","title":"قراءة القرآن (من أول سورة الفرقان)","publishedAt":"2015-06-28T03:06:30Z","duration":"PT13M31S","thumbnail":"https://i.ytimg.com/vi/gMJ39YZc-ks/mqdefault.jpg","viewCount":"110","playlistId":"PLEkQk5xrP-tnUSUj0uyJhA-kwNC7Gkx_j","playlistName":"مقرأة الفجر - بداية من سورة الإسراء حتى سورة الناس","category":"تفسير"},{"id":"OwfQCQrvQMY","title":"صحيح الإمام البخاري رضي الله عنه - كتاب الأيمان والنذور (باب قول الرجل \"لَعَمْرُ الله\") د.يسري جبر","publishedAt":"2017-11-07T12:09:10Z","duration":"PT31M46S","thumbnail":"https://i.ytimg.com/vi/OwfQCQrvQMY/mqdefault.jpg","viewCount":"110","playlistId":"PLEkQk5xrP-tmJuzaj4GWRenFoFx9gdbFX","playlistName":"شرح كتاب صحيح الإمام البخاري رضي الله تعالى عنه   أ.د. يسرى جبر","category":"حديث"},{"id":"9pBYE8EtzkM","title":"صحيح الإمام البخاري رضي الله عنه - كتاب الذبائح والصيد والتسمية على الصيد -المجلس الرابع د. يسري جبر","publishedAt":"2016-04-04T03:02:12Z","duration":"PT1H4M10S","thumbnail":"https://i.ytimg.com/vi/9pBYE8EtzkM/mqdefault.jpg","viewCount":"110","playlistId":"PLEkQk5xrP-tmJuzaj4GWRenFoFx9gdbFX","playlistName":"شرح كتاب صحيح الإمام البخاري رضي الله تعالى عنه   أ.د. يسرى جبر","category":"حديث"},{"id":"ZsDW_Ot1sMs","title":"شرح كتاب المناقب من سنن الترمذي - المجلس السابع عشر","publishedAt":"2016-07-12T07:03:46Z","duration":"PT13M8S","thumbnail":"https://i.ytimg.com/vi/ZsDW_Ot1sMs/mqdefault.jpg","viewCount":"110","playlistId":"PLEkQk5xrP-tnu6of679SvxdVx0qSrJzmb","playlistName":"شرح سنن الإمام الترمذي رضى الله عنه د. يسري جبر","category":"متنوع"},{"id":"KHxnkeG7UJk","title":"شرح كتاب المناقب من سنن الترمذي - المجلس الخامس عشر","publishedAt":"2016-07-11T21:32:00Z","duration":"PT12M44S","thumbnail":"https://i.ytimg.com/vi/KHxnkeG7UJk/mqdefault.jpg","viewCount":"110","playlistId":"PLEkQk5xrP-tnu6of679SvxdVx0qSrJzmb","playlistName":"شرح سنن الإمام الترمذي رضى الله عنه د. يسري جبر","category":"متنوع"},{"id":"105bBH9M1_k","title":"شرح كتاب تفسير القرآن من سنن الترمذي - المجلس التاسع عشر","publishedAt":"2016-04-26T02:56:36Z","duration":"PT31M39S","thumbnail":"https://i.ytimg.com/vi/105bBH9M1_k/mqdefault.jpg","viewCount":"110","playlistId":"PLEkQk5xrP-tnu6of679SvxdVx0qSrJzmb","playlistName":"شرح سنن الإمام الترمذي رضى الله عنه د. يسري جبر","category":"متنوع"},{"id":"X3aqJi0IHuE","title":"صحيح الإمام البخاري رضي الله عنه كتاب الاستئذان باب من زار قوما فقال عندهم - المجلس السادس","publishedAt":"2017-04-17T18:47:41Z","duration":"PT34M55S","thumbnail":"https://i.ytimg.com/vi/X3aqJi0IHuE/mqdefault.jpg","viewCount":"110","playlistId":"PLEkQk5xrP-tmJuzaj4GWRenFoFx9gdbFX","playlistName":"شرح كتاب صحيح الإمام البخاري رضي الله تعالى عنه   أ.د. يسرى جبر","category":"حديث"},{"id":"S3CbrdI-BlA","title":"شرح كتاب الأطعمة من سنن الترمذي - المجلس السادس","publishedAt":"2015-08-22T07:21:22Z","duration":"PT36M46S","thumbnail":"https://i.ytimg.com/vi/S3CbrdI-BlA/mqdefault.jpg","viewCount":"109","playlistId":"PLEkQk5xrP-tnu6of679SvxdVx0qSrJzmb","playlistName":"شرح سنن الإمام الترمذي رضى الله عنه د. يسري جبر","category":"متنوع"},{"id":"UYKvYBNBkUQ","title":"شرح كتاب المناقب من سنن الترمذي - المجلس العشرون","publishedAt":"2016-07-14T13:05:05Z","duration":"PT14M3S","thumbnail":"https://i.ytimg.com/vi/UYKvYBNBkUQ/mqdefault.jpg","viewCount":"109","playlistId":"PLEkQk5xrP-tnu6of679SvxdVx0qSrJzmb","playlistName":"شرح سنن الإمام الترمذي رضى الله عنه د. يسري جبر","category":"متنوع"},{"id":"OuPo0ewQxt0","title":"شرح كتاب الإيمان من سنن الترمذي - المجلس الخامس","publishedAt":"2016-02-28T08:38:20Z","duration":"PT34M26S","thumbnail":"https://i.ytimg.com/vi/OuPo0ewQxt0/mqdefault.jpg","viewCount":"108","playlistId":"PLEkQk5xrP-tnu6of679SvxdVx0qSrJzmb","playlistName":"شرح سنن الإمام الترمذي رضى الله عنه د. يسري جبر","category":"متنوع"},{"id":"pnh-rsuBe8k","title":"قراءة القرآن (من آية ٢٢ سورة الحديد)","publishedAt":"2016-01-14T07:08:44Z","duration":"PT19M4S","thumbnail":"https://i.ytimg.com/vi/pnh-rsuBe8k/mqdefault.jpg","viewCount":"108","playlistId":"PLEkQk5xrP-tnUSUj0uyJhA-kwNC7Gkx_j","playlistName":"مقرأة الفجر - بداية من سورة الإسراء حتى سورة الناس","category":"تفسير"},{"id":"WA_Lg-AnOK8","title":"شرح كتاب الأطعمة من جامع الترمذي - المجلس الثالث","publishedAt":"2015-08-19T04:40:23Z","duration":"PT32M30S","thumbnail":"https://i.ytimg.com/vi/WA_Lg-AnOK8/mqdefault.jpg","viewCount":"108","playlistId":"PLEkQk5xrP-tnu6of679SvxdVx0qSrJzmb","playlistName":"شرح سنن الإمام الترمذي رضى الله عنه د. يسري جبر","category":"متنوع"},{"id":"mmdI2jCrPas","title":"شرح كتاب الدعوات من سنن الترمذي - المجلس الثامن","publishedAt":"2016-05-24T01:30:43Z","duration":"PT26M1S","thumbnail":"https://i.ytimg.com/vi/mmdI2jCrPas/mqdefault.jpg","viewCount":"108","playlistId":"PLEkQk5xrP-tnu6of679SvxdVx0qSrJzmb","playlistName":"شرح سنن الإمام الترمذي رضى الله عنه د. يسري جبر","category":"متنوع"},{"id":"pWHOOnqFKiw","title":"شرح كتاب العلم من سنن الترمذي - المجلس الرابع","publishedAt":"2016-03-05T10:17:52Z","duration":"PT39M35S","thumbnail":"https://i.ytimg.com/vi/pWHOOnqFKiw/mqdefault.jpg","viewCount":"107","playlistId":"PLEkQk5xrP-tnu6of679SvxdVx0qSrJzmb","playlistName":"شرح سنن الإمام الترمذي رضى الله عنه د. يسري جبر","category":"متنوع"},{"id":"ADp3dKycHII","title":"صحيح الإمام البخاري رضي الله عنه - كتاب الطلاق - المجلس التاسع","publishedAt":"2015-11-30T19:12:25Z","duration":"PT41M3S","thumbnail":"https://i.ytimg.com/vi/ADp3dKycHII/mqdefault.jpg","viewCount":"107","playlistId":"PLEkQk5xrP-tmJuzaj4GWRenFoFx9gdbFX","playlistName":"شرح كتاب صحيح الإمام البخاري رضي الله تعالى عنه   أ.د. يسرى جبر","category":"حديث"},{"id":"2WtAPi-hUuI","title":"شرح كتاب الاستئذان والآداب من سنن الترمذي - المجلس الثالث","publishedAt":"2016-03-07T12:58:10Z","duration":"PT33M57S","thumbnail":"https://i.ytimg.com/vi/2WtAPi-hUuI/mqdefault.jpg","viewCount":"106","playlistId":"PLEkQk5xrP-tnu6of679SvxdVx0qSrJzmb","playlistName":"شرح سنن الإمام الترمذي رضى الله عنه د. يسري جبر","category":"متنوع"},{"id":"vo22AQYmH5g","title":"قراءة القرآن (من أول سورة النازعات)","publishedAt":"2016-03-05T10:55:23Z","duration":"PT31M30S","thumbnail":"https://i.ytimg.com/vi/vo22AQYmH5g/mqdefault.jpg","viewCount":"106","playlistId":"PLEkQk5xrP-tnUSUj0uyJhA-kwNC7Gkx_j","playlistName":"مقرأة الفجر - بداية من سورة الإسراء حتى سورة الناس","category":"تفسير"},{"id":"4BS4OHGo6bo","title":"شرح كتاب الأضاحي من سنن الترمذى - المجلس الرابع","publishedAt":"2015-07-08T03:58:02Z","duration":"PT28M50S","thumbnail":"https://i.ytimg.com/vi/4BS4OHGo6bo/mqdefault.jpg","viewCount":"106","playlistId":"PLEkQk5xrP-tnu6of679SvxdVx0qSrJzmb","playlistName":"شرح سنن الإمام الترمذي رضى الله عنه د. يسري جبر","category":"متنوع"},{"id":"tmaJJEO8uzE","title":"شرح كتاب الحدود من سنن الترمذي - المجلس الخامس","publishedAt":"2015-06-27T05:07:47Z","duration":"PT18M58S","thumbnail":"https://i.ytimg.com/vi/tmaJJEO8uzE/mqdefault.jpg","viewCount":"106","playlistId":"PLEkQk5xrP-tnu6of679SvxdVx0qSrJzmb","playlistName":"شرح سنن الإمام الترمذي رضى الله عنه د. يسري جبر","category":"متنوع"},{"id":"KE4ER6eV3SY","title":"شرح كتاب تفسير القرآن من سنن الترمذي - المجلس التاسع والعشرون","publishedAt":"2016-05-06T09:25:48Z","duration":"PT30M39S","thumbnail":"https://i.ytimg.com/vi/KE4ER6eV3SY/mqdefault.jpg","viewCount":"106","playlistId":"PLEkQk5xrP-tnu6of679SvxdVx0qSrJzmb","playlistName":"شرح سنن الإمام الترمذي رضى الله عنه د. يسري جبر","category":"متنوع"}],"total":7670,"page":314,"pageSize":24,"totalPages":320}