{"items":[{"id":"gcbCZkn3FDE","title":"شرح سنن الدارمي كتاب الصلاة من باب ١٨٥","publishedAt":"2019-05-26T23:28:01Z","duration":"PT32M55S","thumbnail":"https://i.ytimg.com/vi/gcbCZkn3FDE/mqdefault.jpg","viewCount":"396","playlistId":"PLEkQk5xrP-tmAg-FuWjY057X_h5NmGmAa","playlistName":"شرح سنن الدارمي - أ.د. يسري جبر (كاملا)","category":"متنوع"},{"id":"N97dGVBGmic","title":"شرح البرهان في علوم القرآن - النوع ٢٥ - علم مرسوم الخط (الزائد وأقسامه ٣)","publishedAt":"2020-01-14T11:35:08Z","duration":"PT16M54S","thumbnail":"https://i.ytimg.com/vi/N97dGVBGmic/mqdefault.jpg","viewCount":"396","playlistId":"PLEkQk5xrP-tnW3iBL7HkKziOFCFZbTlf0","playlistName":"شرح البرهان في علوم القرآن - أ.د. يسري جبر","category":"تفسير"},{"id":"Qh8d1SQpS8s","title":"مقرأة سورة الصافات من آية ٤٠","publishedAt":"2018-09-16T21:19:14Z","duration":"PT20M55S","thumbnail":"https://i.ytimg.com/vi/Qh8d1SQpS8s/mqdefault.jpg","viewCount":"396","playlistId":"PLEkQk5xrP-tnmTYsyW6xNdyfhPq0Bhrhj","playlistName":"مقرأة الفجر - القُرْآنُ الكَرِيمُ - خَتْمَةُ التَّدَبُّرِ  أ.د. يسري جبر","category":"متنوع"},{"id":"NTfvE45mwNY","title":"شرح صحيح البخاري كتاب الأحكام من باب ٤٤","publishedAt":"2019-01-15T22:08:35Z","duration":"PT30M17S","thumbnail":"https://i.ytimg.com/vi/NTfvE45mwNY/mqdefault.jpg","viewCount":"396","playlistId":"PLEkQk5xrP-tlEerGoLa1AFy-2XvQ-sovv","playlistName":"شرح صحيح البخاري - أ.د. يسري جبر (كاملا)","category":"حديث"},{"id":"1T3Pzf-tfTc","title":"الأسلوب الثاني: الحذف(9)\"أقسام الحذف\" النوع السابع - شرح البرهان في علوم القرآن","publishedAt":"2021-06-24T06:04:28Z","duration":"PT43M5S","thumbnail":"https://i.ytimg.com/vi/1T3Pzf-tfTc/mqdefault.jpg","viewCount":"395","playlistId":"PLEkQk5xrP-tnW3iBL7HkKziOFCFZbTlf0","playlistName":"شرح البرهان في علوم القرآن - أ.د. يسري جبر","category":"تفسير"},{"id":"Z9LKzeFY8RU","title":"632 - حرف (هل - هيهات) - شرح البرهان في علوم القرآن","publishedAt":"2022-12-29T05:00:13Z","duration":"PT22M53S","thumbnail":"https://i.ytimg.com/vi/Z9LKzeFY8RU/mqdefault.jpg","viewCount":"395","playlistId":"PLEkQk5xrP-tnW3iBL7HkKziOFCFZbTlf0","playlistName":"شرح البرهان في علوم القرآن - أ.د. يسري جبر","category":"تفسير"},{"id":"lPFaqCAH4dc","title":"سورة الأعراف آية 163","publishedAt":"2017-03-05T03:44:55Z","duration":"PT16M46S","thumbnail":"https://i.ytimg.com/vi/lPFaqCAH4dc/mqdefault.jpg","viewCount":"395","playlistId":"PLEkQk5xrP-tnmTYsyW6xNdyfhPq0Bhrhj","playlistName":"مقرأة الفجر - القُرْآنُ الكَرِيمُ - خَتْمَةُ التَّدَبُّرِ  أ.د. يسري جبر","category":"متنوع"},{"id":"pdWEQbgdQ1U","title":"شرح صحيح البخاري كتاب الذبائح والصيد من باب ١٦","publishedAt":"2018-07-18T15:41:56Z","duration":"PT33M35S","thumbnail":"https://i.ytimg.com/vi/pdWEQbgdQ1U/mqdefault.jpg","viewCount":"395","playlistId":"PLEkQk5xrP-tlEerGoLa1AFy-2XvQ-sovv","playlistName":"شرح صحيح البخاري - أ.د. يسري جبر (كاملا)","category":"حديث"},{"id":"AYviZseVQuI","title":"شرح سنن الدارمي كتاب الرقاق من باب ٦١","publishedAt":"2019-10-04T22:39:40Z","duration":"PT28M47S","thumbnail":"https://i.ytimg.com/vi/AYviZseVQuI/mqdefault.jpg","viewCount":"395","playlistId":"PLEkQk5xrP-tmAg-FuWjY057X_h5NmGmAa","playlistName":"شرح سنن الدارمي - أ.د. يسري جبر (كاملا)","category":"متنوع"},{"id":"H9Zpf5MRxXM","title":"مقرأة سورة غافر من آية ١٠","publishedAt":"2018-11-04T10:17:06Z","duration":"PT18M49S","thumbnail":"https://i.ytimg.com/vi/H9Zpf5MRxXM/mqdefault.jpg","viewCount":"394","playlistId":"PLEkQk5xrP-tnmTYsyW6xNdyfhPq0Bhrhj","playlistName":"مقرأة الفجر - القُرْآنُ الكَرِيمُ - خَتْمَةُ التَّدَبُّرِ  أ.د. يسري جبر","category":"متنوع"},{"id":"YlIPeNKqzWg","title":"91- شرح اللؤلؤ والمرجان كتاب البيوع من الباب السادس عشر","publishedAt":"2020-03-10T06:00:03Z","duration":"PT17M24S","thumbnail":"https://i.ytimg.com/vi/YlIPeNKqzWg/mqdefault.jpg","viewCount":"394","playlistId":"PLEkQk5xrP-tmKNjtYLfhATC37QdIsTMe0","playlistName":"شرح كتاب اللؤلؤ والمرجان فيما اتفق عليه الشيخان إماما المحدثين البخاري ومسلم. أ.د. يسري جبر","category":"حديث"},{"id":"dJVstHxgVc4","title":"سورة الأعراف آية 150","publishedAt":"2017-03-01T13:43:51Z","duration":"PT20M28S","thumbnail":"https://i.ytimg.com/vi/dJVstHxgVc4/mqdefault.jpg","viewCount":"394","playlistId":"PLEkQk5xrP-tnmTYsyW6xNdyfhPq0Bhrhj","playlistName":"مقرأة الفجر - القُرْآنُ الكَرِيمُ - خَتْمَةُ التَّدَبُّرِ  أ.د. يسري جبر","category":"متنوع"},{"id":"TA6Igaosi5U","title":"مقرأة سورة الأحقاف من آية ١١","publishedAt":"2019-01-05T12:39:05Z","duration":"PT10M3S","thumbnail":"https://i.ytimg.com/vi/TA6Igaosi5U/mqdefault.jpg","viewCount":"394","playlistId":"PLEkQk5xrP-tnmTYsyW6xNdyfhPq0Bhrhj","playlistName":"مقرأة الفجر - القُرْآنُ الكَرِيمُ - خَتْمَةُ التَّدَبُّرِ  أ.د. يسري جبر","category":"متنوع"},{"id":"PiIlkrXU_IM","title":"598- وظائف (اللام) العاملة: تؤثر في حركة إعراب ما بعدها إمَّا (بالنصب أو الجر أو الجزم).","publishedAt":"2022-11-18T05:00:23Z","duration":"PT21M43S","thumbnail":"https://i.ytimg.com/vi/PiIlkrXU_IM/mqdefault.jpg","viewCount":"394","playlistId":"PLEkQk5xrP-tnW3iBL7HkKziOFCFZbTlf0","playlistName":"شرح البرهان في علوم القرآن - أ.د. يسري جبر","category":"تفسير"},{"id":"b4OVwarMgsA","title":"مقرأة سورة الممتحنة من آية ١٠","publishedAt":"2019-04-07T07:30:06Z","duration":"PT20M44S","thumbnail":"https://i.ytimg.com/vi/b4OVwarMgsA/mqdefault.jpg","viewCount":"394","playlistId":"PLEkQk5xrP-tnmTYsyW6xNdyfhPq0Bhrhj","playlistName":"مقرأة الفجر - القُرْآنُ الكَرِيمُ - خَتْمَةُ التَّدَبُّرِ  أ.د. يسري جبر","category":"متنوع"},{"id":"BDhFY6GNZPE","title":"شرح صحيح البخاري كتاب الحيل من باب ١٤","publishedAt":"2018-12-19T21:06:15Z","duration":"PT34M46S","thumbnail":"https://i.ytimg.com/vi/BDhFY6GNZPE/mqdefault.jpg","viewCount":"394","playlistId":"PLEkQk5xrP-tlEerGoLa1AFy-2XvQ-sovv","playlistName":"شرح صحيح البخاري - أ.د. يسري جبر (كاملا)","category":"حديث"},{"id":"IYCnaPkPI14","title":"الأسلوب الثاني:الحذف(11) أقسام الحذف: النوع الثامن:الاختزال(2)حذف الخبر - شرح البرهان في علوم القرآن","publishedAt":"2021-06-28T06:30:10Z","duration":"PT29M17S","thumbnail":"https://i.ytimg.com/vi/IYCnaPkPI14/mqdefault.jpg","viewCount":"394","playlistId":"PLEkQk5xrP-tnW3iBL7HkKziOFCFZbTlf0","playlistName":"شرح البرهان في علوم القرآن - أ.د. يسري جبر","category":"تفسير"},{"id":"0d4qYqwfkRQ","title":"شرح كتاب الأذكار من كلام سيد الأبرار للإمام النووى رضى الله عنه - المجلس السابع عشر","publishedAt":"2015-04-21T17:49:56Z","duration":"PT33M26S","thumbnail":"https://i.ytimg.com/vi/0d4qYqwfkRQ/mqdefault.jpg","viewCount":"394","playlistId":"PLEkQk5xrP-tkWS57Ubysh0ifJR8dmuEtE","playlistName":"شرح كتاب الأذكار للإمام النووي د. يسرى جبر","category":"حديث"},{"id":"s-TEi3-e4Ls","title":"سورة المائدة آية 17","publishedAt":"2016-10-31T03:42:51Z","duration":"PT11M58S","thumbnail":"https://i.ytimg.com/vi/s-TEi3-e4Ls/mqdefault.jpg","viewCount":"393","playlistId":"PLEkQk5xrP-tnmTYsyW6xNdyfhPq0Bhrhj","playlistName":"مقرأة الفجر - القُرْآنُ الكَرِيمُ - خَتْمَةُ التَّدَبُّرِ  أ.د. يسري جبر","category":"متنوع"},{"id":"VTjQHFUM48U","title":"سورة النساء آية 127","publishedAt":"2016-09-27T20:46:31Z","duration":"PT22M54S","thumbnail":"https://i.ytimg.com/vi/VTjQHFUM48U/mqdefault.jpg","viewCount":"393","playlistId":"PLEkQk5xrP-tnmTYsyW6xNdyfhPq0Bhrhj","playlistName":"مقرأة الفجر - القُرْآنُ الكَرِيمُ - خَتْمَةُ التَّدَبُّرِ  أ.د. يسري جبر","category":"متنوع"},{"id":"MlS4ZzSjCI4","title":"الأسلوب الثاني\"الحذف\"(3) أدلة الحذف -  شرح البرهان في علوم القرآن","publishedAt":"2021-06-12T05:53:14Z","duration":"PT23M45S","thumbnail":"https://i.ytimg.com/vi/MlS4ZzSjCI4/mqdefault.jpg","viewCount":"393","playlistId":"PLEkQk5xrP-tnW3iBL7HkKziOFCFZbTlf0","playlistName":"شرح البرهان في علوم القرآن - أ.د. يسري جبر","category":"تفسير"},{"id":"vEKmvdwvycU","title":"سورة الأعراف آية 156","publishedAt":"2017-03-02T10:19:58Z","duration":"PT19M58S","thumbnail":"https://i.ytimg.com/vi/vEKmvdwvycU/mqdefault.jpg","viewCount":"393","playlistId":"PLEkQk5xrP-tnmTYsyW6xNdyfhPq0Bhrhj","playlistName":"مقرأة الفجر - القُرْآنُ الكَرِيمُ - خَتْمَةُ التَّدَبُّرِ  أ.د. يسري جبر","category":"متنوع"},{"id":"RMy3f8aLBTU","title":"مقرأة سورة النحل من آية ٦٢","publishedAt":"2017-08-25T14:39:54Z","duration":"PT23M31S","thumbnail":"https://i.ytimg.com/vi/RMy3f8aLBTU/mqdefault.jpg","viewCount":"393","playlistId":"PLEkQk5xrP-tnmTYsyW6xNdyfhPq0Bhrhj","playlistName":"مقرأة الفجر - القُرْآنُ الكَرِيمُ - خَتْمَةُ التَّدَبُّرِ  أ.د. يسري جبر","category":"متنوع"},{"id":"B4-t9x50IIk","title":"شرح صحيح البخاري كتاب الإكراه من أوله","publishedAt":"2018-12-14T17:34:49Z","duration":"PT21M55S","thumbnail":"https://i.ytimg.com/vi/B4-t9x50IIk/mqdefault.jpg","viewCount":"393","playlistId":"PLEkQk5xrP-tlEerGoLa1AFy-2XvQ-sovv","playlistName":"شرح صحيح البخاري - أ.د. يسري جبر (كاملا)","category":"حديث"}],"total":7670,"page":256,"pageSize":24,"totalPages":320}