{"items":[{"id":"1qvBORU2Bb4","title":"قواعدُ تتعلّقُ بالتشبيه - شرح البرهان في علوم القرآن","publishedAt":"2022-02-03T07:37:25Z","duration":"PT15M2S","thumbnail":"https://i.ytimg.com/vi/1qvBORU2Bb4/mqdefault.jpg","viewCount":"629","playlistId":"PLEkQk5xrP-tnW3iBL7HkKziOFCFZbTlf0","playlistName":"شرح البرهان في علوم القرآن - أ.د. يسري جبر","category":"تفسير"},{"id":"H2G2Goa0cXQ","title":"20- التَّشْدِيدِ فِى أَنْ يَمُرَّ أَحَدٌ بَيْنَ يَدَىِ الْمُصَلِّى ك قصرالصلاة ك الموطأ د يسري جبر","publishedAt":"2016-08-12T12:41:40Z","duration":"PT56M32S","thumbnail":"https://i.ytimg.com/vi/H2G2Goa0cXQ/mqdefault.jpg","viewCount":"629","playlistId":"PLEkQk5xrP-tnC6BRuqMjyO-484iqXeg0o","playlistName":"شرح كتاب الموطأ للإمام مالك","category":"متنوع"},{"id":"qax-pwEppCk","title":"قراءة وتفسير سورة المائدة آية 6","publishedAt":"2016-10-27T03:55:02Z","duration":"PT33M58S","thumbnail":"https://i.ytimg.com/vi/qax-pwEppCk/mqdefault.jpg","viewCount":"629","playlistId":"PLEkQk5xrP-tnmTYsyW6xNdyfhPq0Bhrhj","playlistName":"مقرأة الفجر - القُرْآنُ الكَرِيمُ - خَتْمَةُ التَّدَبُّرِ  أ.د. يسري جبر","category":"متنوع"},{"id":"uB2ngqviNq4","title":"26- شرح اللؤلؤ والمرجان كتاب الصلاة من باب ٢٩","publishedAt":"2020-01-09T15:31:34Z","duration":"PT22M30S","thumbnail":"https://i.ytimg.com/vi/uB2ngqviNq4/mqdefault.jpg","viewCount":"629","playlistId":"PLEkQk5xrP-tmKNjtYLfhATC37QdIsTMe0","playlistName":"شرح كتاب اللؤلؤ والمرجان فيما اتفق عليه الشيخان إماما المحدثين البخاري ومسلم. أ.د. يسري جبر","category":"حديث"},{"id":"gKPcrU0dNPQ","title":"كيفية التأسي بالنبي صلى الله عليه وآله وسلم د. يسري جبر","publishedAt":"2016-06-14T14:25:13Z","duration":"PT49M29S","thumbnail":"https://i.ytimg.com/vi/gKPcrU0dNPQ/mqdefault.jpg","viewCount":"628","playlistId":"PLEkQk5xrP-tlArtGpeLWaqNM7h7IDeAVC","playlistName":"خطب الجمعة أ.د. يسري جبر","category":"خطب"},{"id":"uz918peQATg","title":"شرح البرهان في علوم القرآن - النوع ٥ - الفصل ٣ : ما جاء على ثلاثة أحرف","publishedAt":"2019-09-17T22:09:29Z","duration":"PT13M5S","thumbnail":"https://i.ytimg.com/vi/uz918peQATg/mqdefault.jpg","viewCount":"628","playlistId":"PLEkQk5xrP-tnW3iBL7HkKziOFCFZbTlf0","playlistName":"شرح البرهان في علوم القرآن - أ.د. يسري جبر","category":"تفسير"},{"id":"hHtynL2v6W8","title":"شرح صحيح البخاري - كتاب فرض الخمس من باب ٦","publishedAt":"2017-08-28T14:24:18Z","duration":"PT31M51S","thumbnail":"https://i.ytimg.com/vi/hHtynL2v6W8/mqdefault.jpg","viewCount":"628","playlistId":"PLEkQk5xrP-tlEerGoLa1AFy-2XvQ-sovv","playlistName":"شرح صحيح البخاري - أ.د. يسري جبر (كاملا)","category":"حديث"},{"id":"Fl8c1dnc9lo","title":"شرح صحيح البخاري - كتاب فرض الخمس من باب ١٧","publishedAt":"2017-08-31T16:46:47Z","duration":"PT46M2S","thumbnail":"https://i.ytimg.com/vi/Fl8c1dnc9lo/mqdefault.jpg","viewCount":"627","playlistId":"PLEkQk5xrP-tlEerGoLa1AFy-2XvQ-sovv","playlistName":"شرح صحيح البخاري - أ.د. يسري جبر (كاملا)","category":"حديث"},{"id":"q9khgFaohhg","title":"100- غريب القرآن (15) - شرح الإتقان في علوم القرآن","publishedAt":"2023-06-13T05:00:20Z","duration":"PT35M34S","thumbnail":"https://i.ytimg.com/vi/q9khgFaohhg/mqdefault.jpg","viewCount":"627","playlistId":"PLEkQk5xrP-tlPw10KGJKagu7zm4Ry2Tge","playlistName":"شرح الإتقان في علوم القرآن","category":"تفسير"},{"id":"G2k7fylg2Ho","title":"التَّقْسِيم - شرح البرهان في علوم القرآن","publishedAt":"2022-03-04T06:46:15Z","duration":"PT38M42S","thumbnail":"https://i.ytimg.com/vi/G2k7fylg2Ho/mqdefault.jpg","viewCount":"627","playlistId":"PLEkQk5xrP-tnW3iBL7HkKziOFCFZbTlf0","playlistName":"شرح البرهان في علوم القرآن - أ.د. يسري جبر","category":"تفسير"},{"id":"Uie1YHnFFRY","title":"سورة النساء آية 11","publishedAt":"2016-08-12T17:47:12Z","duration":"PT14M15S","thumbnail":"https://i.ytimg.com/vi/Uie1YHnFFRY/mqdefault.jpg","viewCount":"626","playlistId":"PLEkQk5xrP-tnmTYsyW6xNdyfhPq0Bhrhj","playlistName":"مقرأة الفجر - القُرْآنُ الكَرِيمُ - خَتْمَةُ التَّدَبُّرِ  أ.د. يسري جبر","category":"متنوع"},{"id":"xZKidzZAaes","title":"283- مناسبة الآيات والسور (2) - شرح الإتقان في علوم القرآن","publishedAt":"2025-02-11T06:30:32Z","duration":"PT27M12S","thumbnail":"https://i.ytimg.com/vi/xZKidzZAaes/mqdefault.jpg","viewCount":"626","playlistId":"PLEkQk5xrP-tlPw10KGJKagu7zm4Ry2Tge","playlistName":"شرح الإتقان في علوم القرآن","category":"تفسير"},{"id":"3nNyT-qmqZI","title":"شرح سنن الدارمي - المقدمة - ٢٧","publishedAt":"2019-03-18T22:45:01Z","duration":"PT48M16S","thumbnail":"https://i.ytimg.com/vi/3nNyT-qmqZI/mqdefault.jpg","viewCount":"626","playlistId":"PLEkQk5xrP-tmAg-FuWjY057X_h5NmGmAa","playlistName":"شرح سنن الدارمي - أ.د. يسري جبر (كاملا)","category":"متنوع"},{"id":"k4zASJFj3Lk","title":"238- إيجاز القصر - شرح الإتقان في علوم القرآن","publishedAt":"2024-05-24T05:00:31Z","duration":"PT31M34S","thumbnail":"https://i.ytimg.com/vi/k4zASJFj3Lk/mqdefault.jpg","viewCount":"626","playlistId":"PLEkQk5xrP-tlPw10KGJKagu7zm4Ry2Tge","playlistName":"شرح الإتقان في علوم القرآن","category":"تفسير"},{"id":"ht9Jmcu6Mx0","title":"236- الإيجاز والإطناب - شرح الإتقان في علوم القرآن","publishedAt":"2024-05-19T05:00:31Z","duration":"PT31M42S","thumbnail":"https://i.ytimg.com/vi/ht9Jmcu6Mx0/mqdefault.jpg","viewCount":"626","playlistId":"PLEkQk5xrP-tlPw10KGJKagu7zm4Ry2Tge","playlistName":"شرح الإتقان في علوم القرآن","category":"تفسير"},{"id":"Ca87A-SGr-U","title":"23- شرح مسند الإمام الشافعيّ رضي الله عنه - من كتاب الصيام الكبير- الحديث (497)","publishedAt":"2021-10-02T03:05:32Z","duration":"PT51M26S","thumbnail":"https://i.ytimg.com/vi/Ca87A-SGr-U/mqdefault.jpg","viewCount":"625","playlistId":"PLEkQk5xrP-tlDtaqY0qhNXAiZ19gaGzKI","playlistName":"شرح مسند الإمام محمد بن إدريس الشافعيّ رضي الله تعالى عنه","category":"فقه"},{"id":"YzF4LBbB1wM","title":"36- شرح اللؤلؤ والمرجان كتاب المساجد ومواضع الصلاة من باب ٤٢","publishedAt":"2020-01-16T21:48:31Z","duration":"PT35M18S","thumbnail":"https://i.ytimg.com/vi/YzF4LBbB1wM/mqdefault.jpg","viewCount":"624","playlistId":"PLEkQk5xrP-tmKNjtYLfhATC37QdIsTMe0","playlistName":"شرح كتاب اللؤلؤ والمرجان فيما اتفق عليه الشيخان إماما المحدثين البخاري ومسلم. أ.د. يسري جبر","category":"حديث"},{"id":"HZoHMo26tsQ","title":"16- فَضْلِ صَلاَةِ الْجَمَاعَةِ عَلَى صَلاَةِ الْفَذِّ ك صلاة الجماعة ك الموطأ د يسري جبر الأزهري","publishedAt":"2016-05-28T02:05:39Z","duration":"PT42M9S","thumbnail":"https://i.ytimg.com/vi/HZoHMo26tsQ/mqdefault.jpg","viewCount":"624","playlistId":"PLEkQk5xrP-tnC6BRuqMjyO-484iqXeg0o","playlistName":"شرح كتاب الموطأ للإمام مالك","category":"متنوع"},{"id":"iMvlu2b4wIM","title":"116- حكم بيع الطعام قبل أن يُستوفى - شرح مسند الإمام أحمد رضي الله تعالى عنه","publishedAt":"2024-07-14T05:00:22Z","duration":"PT33M45S","thumbnail":"https://i.ytimg.com/vi/iMvlu2b4wIM/mqdefault.jpg","viewCount":"624","playlistId":"PLEkQk5xrP-tkKprIuGrSdEuBSMsyg5We1","playlistName":"شرح مسند الإمام أحمد بن حنبل","category":"متنوع"},{"id":"cblB5BSWDxU","title":"سورة الأنفال من أولها","publishedAt":"2017-03-15T08:36:33Z","duration":"PT20M21S","thumbnail":"https://i.ytimg.com/vi/cblB5BSWDxU/mqdefault.jpg","viewCount":"624","playlistId":"PLEkQk5xrP-tnmTYsyW6xNdyfhPq0Bhrhj","playlistName":"مقرأة الفجر - القُرْآنُ الكَرِيمُ - خَتْمَةُ التَّدَبُّرِ  أ.د. يسري جبر","category":"متنوع"},{"id":"kRgerExYEvg","title":"46-  كيفية تحديد مواقيت الصلاة | شرح سنن الدار قطني رضي الله عنه","publishedAt":"2024-11-30T09:00:50Z","duration":"PT39M38S","thumbnail":"https://i.ytimg.com/vi/kRgerExYEvg/mqdefault.jpg","viewCount":"623","playlistId":"PLEkQk5xrP-tk_MCBZ706ORCw6gFtFyaGj","playlistName":"شرح سنن الإمام الدارقطني","category":"متنوع"},{"id":"LzIgvVP3ceU","title":"شرح البرهان في علوم القرآن - النوع ٩ - ذكر ما نزل من القرآن بمكة ثم ترتيبه","publishedAt":"2019-10-08T20:30:47Z","duration":"PT16M54S","thumbnail":"https://i.ytimg.com/vi/LzIgvVP3ceU/mqdefault.jpg","viewCount":"623","playlistId":"PLEkQk5xrP-tnW3iBL7HkKziOFCFZbTlf0","playlistName":"شرح البرهان في علوم القرآن - أ.د. يسري جبر","category":"تفسير"},{"id":"H_Tb4BU05_0","title":"167- معنى (الهاء - ها - هات - هل - هلُمَّ - هنا - هيت - هيهات)  - شرح الإتقان في علوم القرآن","publishedAt":"2023-11-02T06:15:00Z","duration":"PT30M17S","thumbnail":"https://i.ytimg.com/vi/H_Tb4BU05_0/mqdefault.jpg","viewCount":"622","playlistId":"PLEkQk5xrP-tlPw10KGJKagu7zm4Ry2Tge","playlistName":"شرح الإتقان في علوم القرآن","category":"تفسير"},{"id":"7YTAsBDAXbs","title":"مقرأة سورة فصلت من أولها","publishedAt":"2018-11-18T17:33:59Z","duration":"PT19M29S","thumbnail":"https://i.ytimg.com/vi/7YTAsBDAXbs/mqdefault.jpg","viewCount":"622","playlistId":"PLEkQk5xrP-tnmTYsyW6xNdyfhPq0Bhrhj","playlistName":"مقرأة الفجر - القُرْآنُ الكَرِيمُ - خَتْمَةُ التَّدَبُّرِ  أ.د. يسري جبر","category":"متنوع"}],"total":7670,"page":197,"pageSize":24,"totalPages":320}