{"items":[{"id":"KcBRO97P7Cg","title":"64- ูุง ูู ูุฑุงุณุฉ ุงููุคูู ููู ุงููุฑุงุณุฉ ูู ุนูู ุงูุบูุจุ | ุดุฑุญ ููุงุฒู ุงูุณุงุฆุฑูู","publishedAt":"2025-07-16T18:50:24Z","duration":"PT34M26S","thumbnail":"https://i.ytimg.com/vi/KcBRO97P7Cg/mqdefault.jpg","viewCount":"6219","playlistId":"PLEkQk5xrP-tmiUfQ-2Tsn7QIak4EsvaZW","playlistName":"ูุชุงุจ ุงูุชูุณูุฑ ุงููุนูู ุจุดุฑุญ ูุนุงูู ููุงุฒู ุงูุณุงุฆุฑูู (ุชุตูู) - ุฏ.ูุณุฑู ุฌุจุฑ","category":"ุชุตูู"},{"id":"EsAUGL0j-vE","title":"ุงูุฏุนุงุก ุงููุณุชุญุจ ุจุนุฏ ุดุฑุจ ุงููุจู | ุงุนุฑู ูุจูู","publishedAt":"2015-06-11T15:13:33Z","duration":"PT3M53S","thumbnail":"https://i.ytimg.com/vi/EsAUGL0j-vE/mqdefault.jpg","viewCount":"6210","playlistId":"PLEkQk5xrP-tl6Mu_Mz3QMUSv5T6XBH-Dg","playlistName":"ุจุฑูุงูุฌ ุงุนุฑู ูุจูู","category":"ูุชููุน"},{"id":"ZJoYO7M5Q-0","title":"ุดุฑุญ ูุชุงุจ ููุฑ ุงููููู ูู ุณูุฑุฉ ุณูุฏ ุงููุฑุณููู ููุดูุฎ ุงูุฎุถุฑู ุฑุญูู ุงููู (ุงููุฌูุณ73) ุฃ.ุฏ. ูุณุฑู ุฌุจุฑ","publishedAt":"2019-01-16T19:43:57Z","duration":"PT48M15S","thumbnail":"https://i.ytimg.com/vi/ZJoYO7M5Q-0/mqdefault.jpg","viewCount":"6209","playlistId":"PLEkQk5xrP-tl2t4NQx1IhKnAJCMzF0Nli","playlistName":"ุดุฑุญ ูุชุงุจ ููุฑ ุงููููู ูู ุณูุฑุฉ ุณูุฏ ุงููุฑุณููู   ุฏ. ูุณุฑู ุฌุจุฑ","category":"ุณูุฑุฉ"},{"id":"VphX3E1hrOE","title":"ูุถู ูุถุงุก ุญูุงุฆุฌ ุงููุงุณ | ูุตุต ูู ุญูุงุชู","publishedAt":"2024-11-19T17:30:05Z","duration":"PT16M19S","thumbnail":"https://i.ytimg.com/vi/VphX3E1hrOE/mqdefault.jpg","viewCount":"6206","playlistId":"PLEkQk5xrP-tlArtGpeLWaqNM7h7IDeAVC","playlistName":"ุฎุทุจ ุงูุฌูุนุฉ ุฃ.ุฏ. ูุณุฑู ุฌุจุฑ","category":"ุฎุทุจ"},{"id":"aEWx3xAGntg","title":"ุดุฑุญ ูุชุงุจ ููุฑ ุงููููู ูู ุณูุฑุฉ ุณูุฏ ุงููุฑุณููู ููุดูุฎ ุงูุฎุถุฑู ุฑุญูู ุงููู (ุงููุฌูุณ74) ุฃ.ุฏ. ูุณุฑู ุฌุจุฑ","publishedAt":"2019-01-22T14:40:38Z","duration":"PT46M36S","thumbnail":"https://i.ytimg.com/vi/aEWx3xAGntg/mqdefault.jpg","viewCount":"6201","playlistId":"PLEkQk5xrP-tl2t4NQx1IhKnAJCMzF0Nli","playlistName":"ุดุฑุญ ูุชุงุจ ููุฑ ุงููููู ูู ุณูุฑุฉ ุณูุฏ ุงููุฑุณููู   ุฏ. ูุณุฑู ุฌุจุฑ","category":"ุณูุฑุฉ"},{"id":"WxvbDgCi8a0","title":"ูู ููุฌุฏ ุชูุณูุฑ ููุฃุญุงุฏูุซ ุงูุดุงุฐุฉ ูู ุงูุณูุฉ ุงููุจููุฉุ","publishedAt":"2021-03-14T18:59:16Z","duration":"PT11M57S","thumbnail":"https://i.ytimg.com/vi/WxvbDgCi8a0/mqdefault.jpg","viewCount":"6193","playlistId":"PLEkQk5xrP-tm8ZIu74nTOZN9KJUJu416J","playlistName":"ููุงุทุน ููููููุฉ (ููุณุฑูููุงุช) ุฃ.ุฏ. ูุณุฑู ุฌุจุฑ","category":"ูุชููุน"},{"id":"k6UH4dNUX2Y","title":"ุฑุญูุฉ ุงูุฑูุญ ุจุนุฏ ุงูููุงุฉ ููุงุฐุง ูุญุฏุซ ุจุนุฏ ุงูููุชุ","publishedAt":"2025-09-11T17:01:08Z","duration":"PT26M54S","thumbnail":"https://i.ytimg.com/vi/k6UH4dNUX2Y/mqdefault.jpg","viewCount":"6193","playlistId":"PLEkQk5xrP-tmsEDdkkXMM1ca2-AquQYad","playlistName":"ุดุฑุญ ูุชุงุจ ูุฏุงุฑุฌ ุงูุญูููุฉ ูู ุงูุฑุงุจุทุฉ ุนูุฏ ุฃูู ุงูุทุฑููุฉ","category":"ูุชููุน"},{"id":"BWUMu5wE95g","title":"ูู ูุฌูุฒ ูู ุงูุณุญุฑ ุจุณุญุฑ ูุซููุ","publishedAt":"2022-09-24T18:00:03Z","duration":"PT9M5S","thumbnail":"https://i.ytimg.com/vi/BWUMu5wE95g/mqdefault.jpg","viewCount":"6192","playlistId":"PLEkQk5xrP-tkGXuZ9atE3k_7it12rUPTs","playlistName":"ุฃุณุฆูุฉ ุงููุชุงุจุนูู","category":"ูุชููุน"},{"id":"-6wXTmNvwj8","title":"ูุตุฉ ุงูุจุฑุฏุฉ ููุถุงุฆููุง ููุฑุงูุชูุง | ููุฏู๐","publishedAt":"2025-05-29T19:15:14Z","duration":"PT16M33S","thumbnail":"https://i.ytimg.com/vi/-6wXTmNvwj8/mqdefault.jpg","viewCount":"6190","playlistId":"PLEkQk5xrP-tm8ZIu74nTOZN9KJUJu416J","playlistName":"ููุงุทุน ููููููุฉ (ููุณุฑูููุงุช) ุฃ.ุฏ. ูุณุฑู ุฌุจุฑ","category":"ูุชููุน"},{"id":"0vmPcyLaQfg","title":"ุงูุฑุณุงูุฉ ุงููุดูุฑูุฉ - ุงููุฌูุณ ุงูุซุงูู ู ุงูุนุดุฑูู - ุจุงุจ ูู ุฐูุฑ ูุดุงูุฎ ูุฐู ุงูุทุฑููุฉ - ุงููุฌูุณ ุงูุฑุงุจุน ุนุดุฑ","publishedAt":"2018-07-12T14:57:34Z","duration":"PT1H4M4S","thumbnail":"https://i.ytimg.com/vi/0vmPcyLaQfg/mqdefault.jpg","viewCount":"6187","playlistId":"PLEkQk5xrP-tkHAGOwIKr4pc5ehhyQ5HMJ","playlistName":"ูุชุงุจ ุงูุฑุณุงูุฉ ุงููุดูุฑูุฉ (ุชุตูู) - ุฏ. ูุณุฑู ุฌุจุฑ","category":"ุชุตูู"},{"id":"T1nztzuCus8","title":"ุฃูุญูุจูู ุงูููู ููู ุฃูุญูุจูู ุญูุณูููููุง.    ุฃ.ุฏ. ูุณุฑู ุฌุจุฑ","publishedAt":"2019-12-24T16:56:11Z","duration":"PT35M4S","thumbnail":"https://i.ytimg.com/vi/T1nztzuCus8/mqdefault.jpg","viewCount":"6183","playlistId":"PLEkQk5xrP-tm8ZIu74nTOZN9KJUJu416J","playlistName":"ููุงุทุน ููููููุฉ (ููุณุฑูููุงุช) ุฃ.ุฏ. ูุณุฑู ุฌุจุฑ","category":"ูุชููุน"},{"id":"B9-jYxqSK_4","title":"ุญูุงุชู ูููุง ูุดุงูู ูุตุนูุจุงุช ,, ููุงุฐุง ุฃูุนูุ","publishedAt":"2024-12-09T18:56:42Z","duration":"PT8M37S","thumbnail":"https://i.ytimg.com/vi/B9-jYxqSK_4/mqdefault.jpg","viewCount":"6163","playlistId":"PLEkQk5xrP-tkGXuZ9atE3k_7it12rUPTs","playlistName":"ุฃุณุฆูุฉ ุงููุชุงุจุนูู","category":"ูุชููุน"},{"id":"bLGUaZ3mjEc","title":"ููู ุชุญุตู ุนูู ุฎุจุฑุฉ ูู ูุฌุงููุ","publishedAt":"2023-04-09T19:00:24Z","duration":"PT8M1S","thumbnail":"https://i.ytimg.com/vi/bLGUaZ3mjEc/mqdefault.jpg","viewCount":"6140","playlistId":"PLEkQk5xrP-tkGXuZ9atE3k_7it12rUPTs","playlistName":"ุฃุณุฆูุฉ ุงููุชุงุจุนูู","category":"ูุชููุน"},{"id":"LY2j7U51qwM","title":"ููู ุชุนุฑู ุงููุจู ๏ทบ ูู ุญูุซ ุฑูุญุงููุชูุ","publishedAt":"2024-04-27T18:24:22Z","duration":"PT56M27S","thumbnail":"https://i.ytimg.com/vi/LY2j7U51qwM/mqdefault.jpg","viewCount":"6135","playlistId":"PLEkQk5xrP-tmJzNvLntpzW0uPanPzxA0c","playlistName":"ููุงุกุงุช ููุญุงุถุฑุงุช","category":"ูุชููุน"},{"id":"mVr9E6ztICk","title":"169- ุงูุญุซูู ุนูู ุฐูููุฑ ุงููู ุชุนุงูู","publishedAt":"2020-11-22T07:49:00Z","duration":"PT22M25S","thumbnail":"https://i.ytimg.com/vi/mVr9E6ztICk/mqdefault.jpg","viewCount":"6134","playlistId":"PLEkQk5xrP-tmKNjtYLfhATC37QdIsTMe0","playlistName":"ุดุฑุญ ูุชุงุจ ุงููุคูุค ูุงููุฑุฌุงู ูููุง ุงุชูู ุนููู ุงูุดูุฎุงู ุฅูุงูุง ุงููุญุฏุซูู ุงูุจุฎุงุฑู ููุณูู. ุฃ.ุฏ. ูุณุฑู ุฌุจุฑ","category":"ุญุฏูุซ"},{"id":"9NyV70cbIUc","title":"ููู ุชููู ุฑุงุถููุง","publishedAt":"2020-06-21T19:55:50Z","duration":"PT7M7S","thumbnail":"https://i.ytimg.com/vi/9NyV70cbIUc/mqdefault.jpg","viewCount":"6126","playlistId":"PLEkQk5xrP-tm8ZIu74nTOZN9KJUJu416J","playlistName":"ููุงุทุน ููููููุฉ (ููุณุฑูููุงุช) ุฃ.ุฏ. ูุณุฑู ุฌุจุฑ","category":"ูุชููุน"},{"id":"FS656j9jHDM","title":"ุชูุณูุฑ ุงูุขูุงุช ุงููุฑุขููุฉ ุงููุงุฑุฏุฉ ูู ุญู ุงููููุจูู ๏ทบ","publishedAt":"2023-12-22T17:29:34Z","duration":"PT32M30S","thumbnail":"https://i.ytimg.com/vi/FS656j9jHDM/mqdefault.jpg","viewCount":"6126","playlistId":"PLEkQk5xrP-tm8ZIu74nTOZN9KJUJu416J","playlistName":"ููุงุทุน ููููููุฉ (ููุณุฑูููุงุช) ุฃ.ุฏ. ูุณุฑู ุฌุจุฑ","category":"ูุชููุน"},{"id":"3KrrGv-MTvE","title":"ุดุฑุญ ููุงุฒู ุงูุณุงุฆุฑูู - ุงููุฌูุณ (35) ุฏุฑุฌุงุช ุจุงุจ ุงูุชููู | ุฃ.ุฏ. ูุณุฑู ุฌุจุฑ","publishedAt":"2024-01-30T18:00:01Z","duration":"PT42M37S","thumbnail":"https://i.ytimg.com/vi/3KrrGv-MTvE/mqdefault.jpg","viewCount":"6115","playlistId":"PLEkQk5xrP-tmiUfQ-2Tsn7QIak4EsvaZW","playlistName":"ูุชุงุจ ุงูุชูุณูุฑ ุงููุนูู ุจุดุฑุญ ูุนุงูู ููุงุฒู ุงูุณุงุฆุฑูู (ุชุตูู) - ุฏ.ูุณุฑู ุฌุจุฑ","category":"ุชุตูู"},{"id":"h1ZeadGKiV8","title":"ุตููุงุช ุงูููู ุงูุซุงูุซ ุฃ.ุฏ. ูุณุฑู ุฌุจุฑ","publishedAt":"2015-04-03T05:02:17Z","duration":"PT14M19S","thumbnail":"https://i.ytimg.com/vi/h1ZeadGKiV8/mqdefault.jpg","viewCount":"6109","playlistId":"PLEkQk5xrP-tmuP5s2o33O9gAOC4ACxsma","playlistName":"ุตููููุงุชู ุงูุฃูุณูููุงุกู ุงููุญูุณูููู ุดูุฑูุญู ุงูุตูููููุงุชู ุงููููุณูุฑููููุฉู ุนูููู ุฎููุฑู ุงููุจูุฑููููุฉู  ุฃ.ุฏ. ูุณุฑู ุฌุจุฑ","category":"ูุชููุน"},{"id":"FNZoq8Dw_pE","title":"ูู ูุงู ุงููุจู ๏ทบ ูุชููู ุจุฌููุน ุงููุบุงุชุ","publishedAt":"2023-03-01T18:00:06Z","duration":"PT18M53S","thumbnail":"https://i.ytimg.com/vi/FNZoq8Dw_pE/mqdefault.jpg","viewCount":"6109","playlistId":"PLEkQk5xrP-tm8ZIu74nTOZN9KJUJu416J","playlistName":"ููุงุทุน ููููููุฉ (ููุณุฑูููุงุช) ุฃ.ุฏ. ูุณุฑู ุฌุจุฑ","category":"ูุชููุน"},{"id":"5HVPVJs--OM","title":"ุงูุฑุณุงูุฉ ุงููุดูุฑูุฉ ุงููุฌูุณ ุงูุณุงุฏุณ ูุงูุฃุฑุจุนูู - ุจุงุจ ุงููุฑุน - ุฃ.ุฏ. ูุณุฑู ุฌุจุฑ","publishedAt":"2019-01-29T07:21:46Z","duration":"PT1H11M52S","thumbnail":"https://i.ytimg.com/vi/5HVPVJs--OM/mqdefault.jpg","viewCount":"6108","playlistId":"PLEkQk5xrP-tkHAGOwIKr4pc5ehhyQ5HMJ","playlistName":"ูุชุงุจ ุงูุฑุณุงูุฉ ุงููุดูุฑูุฉ (ุชุตูู) - ุฏ. ูุณุฑู ุฌุจุฑ","category":"ุชุตูู"},{"id":"Rb-EQ1vL2Dk","title":"6- ููู ูุดุฑู ููุจ ุตูุฑ ุงูุฃููุงู ููุทุจุนุฉ ูู ูุฑุขุชูุ! | ุดุฑุญ ุงูุญูู ุงูุนุทุงุฆูุฉ","publishedAt":"2024-08-20T17:00:19Z","duration":"PT32M4S","thumbnail":"https://i.ytimg.com/vi/Rb-EQ1vL2Dk/mqdefault.jpg","viewCount":"6098","playlistId":"PLEkQk5xrP-tmf5ToOwmW-q0JwxkapbrMN","playlistName":"ุดุฑุญ ูุชุงุจ ุฅุฑุดุงุฏ ุงูุจุฑูุฉ ุฅูู ุจุนุถ ูุนุงูู ุงูุญูู ุงูุนุทุงุฆูุฉ","category":"ูุชููุน"},{"id":"rAJZtmjxzpk","title":"!ุงุญุฐุฑ ุงููุนุงุฑุถุฉ ูุงูุงุนุชุฑุงุถ","publishedAt":"2020-08-17T19:29:56Z","duration":"PT14M7S","thumbnail":"https://i.ytimg.com/vi/rAJZtmjxzpk/mqdefault.jpg","viewCount":"6087","playlistId":"PLEkQk5xrP-tm8ZIu74nTOZN9KJUJu416J","playlistName":"ููุงุทุน ููููููุฉ (ููุณุฑูููุงุช) ุฃ.ุฏ. ูุณุฑู ุฌุจุฑ","category":"ูุชููุน"},{"id":"v-iMattTLJM","title":"ูุง ูุนูู \"ุงูุฑููุญููููู ุนูููู ุงููุนูุฑูุดู ุงุณูุชูููู\"ุ","publishedAt":"2021-09-29T16:30:07Z","duration":"PT8M42S","thumbnail":"https://i.ytimg.com/vi/v-iMattTLJM/mqdefault.jpg","viewCount":"6078","playlistId":"PLEkQk5xrP-tkGXuZ9atE3k_7it12rUPTs","playlistName":"ุฃุณุฆูุฉ ุงููุชุงุจุนูู","category":"ูุชููุน"}],"total":7670,"page":51,"pageSize":24,"totalPages":320}