{"items":[{"id":"vo2Kgk8X2m0","title":"شرح صحيح البخاري كتاب الحيل من باب ١١","publishedAt":"2018-12-18T18:05:34Z","duration":"PT30M41S","thumbnail":"https://i.ytimg.com/vi/vo2Kgk8X2m0/mqdefault.jpg","viewCount":"405","playlistId":"PLEkQk5xrP-tlEerGoLa1AFy-2XvQ-sovv","playlistName":"شرح صحيح البخاري - أ.د. يسري جبر (كاملا)","category":"حديث"},{"id":"l9Oj6eKVzSo","title":"مقرأة سورة الفتح من آية ١١","publishedAt":"2019-01-19T15:29:52Z","duration":"PT18M48S","thumbnail":"https://i.ytimg.com/vi/l9Oj6eKVzSo/mqdefault.jpg","viewCount":"405","playlistId":"PLEkQk5xrP-tnmTYsyW6xNdyfhPq0Bhrhj","playlistName":"مقرأة الفجر - القُرْآنُ الكَرِيمُ - خَتْمَةُ التَّدَبُّرِ  أ.د. يسري جبر","category":"متنوع"},{"id":"AiNTTgPLNgk","title":"وَلَا تَسُبُّوا الَّذِينَ يَدْعُونَ مِن دُونِ اللَّهِ فَيَسُبُّوا اللَّهَ عَدْوًا بِغَيْرِ عِلْمٍ","publishedAt":"2017-09-08T21:07:51Z","duration":"PT33M3S","thumbnail":"https://i.ytimg.com/vi/AiNTTgPLNgk/mqdefault.jpg","viewCount":"405","playlistId":"PLEkQk5xrP-tlArtGpeLWaqNM7h7IDeAVC","playlistName":"خطب الجمعة أ.د. يسري جبر","category":"خطب"},{"id":"8pqakTrGPRU","title":"174- شروط الإعراب (4) - شرح الإتقان في علوم القرآن","publishedAt":"2023-11-25T06:37:51Z","duration":"PT18M47S","thumbnail":"https://i.ytimg.com/vi/8pqakTrGPRU/mqdefault.jpg","viewCount":"405","playlistId":"PLEkQk5xrP-tlPw10KGJKagu7zm4Ry2Tge","playlistName":"شرح الإتقان في علوم القرآن","category":"تفسير"},{"id":"S_8o2l2t2_g","title":"شرح سنن الدارمي كتاب السير من أوله","publishedAt":"2019-08-28T17:08:13Z","duration":"PT29M36S","thumbnail":"https://i.ytimg.com/vi/S_8o2l2t2_g/mqdefault.jpg","viewCount":"405","playlistId":"PLEkQk5xrP-tmAg-FuWjY057X_h5NmGmAa","playlistName":"شرح سنن الدارمي - أ.د. يسري جبر (كاملا)","category":"متنوع"},{"id":"_PTloh_k9nw","title":"98- غريب القرآن (13) - شرح الإتقان في علوم القرآن","publishedAt":"2023-06-11T05:00:25Z","duration":"PT22M26S","thumbnail":"https://i.ytimg.com/vi/_PTloh_k9nw/mqdefault.jpg","viewCount":"405","playlistId":"PLEkQk5xrP-tlPw10KGJKagu7zm4Ry2Tge","playlistName":"شرح الإتقان في علوم القرآن","category":"تفسير"},{"id":"HnjAwh2VDNo","title":"30- التَّكْبِيرِ عَلَى الْجَنَائِزِ كتاب الْجَنَائِزِ ك الموطأ د يسري جبر الأزهري","publishedAt":"2016-10-21T23:44:21Z","duration":"PT1H17M32S","thumbnail":"https://i.ytimg.com/vi/HnjAwh2VDNo/mqdefault.jpg","viewCount":"405","playlistId":"PLEkQk5xrP-tnC6BRuqMjyO-484iqXeg0o","playlistName":"شرح كتاب الموطأ للإمام مالك","category":"متنوع"},{"id":"0mzGE2PU3Ng","title":"شرح حديث سبعة يظلهم الله يوم القيامة في ظل عرشه (9/9)","publishedAt":"2014-05-09T14:54:51Z","duration":"PT45M38S","thumbnail":"https://i.ytimg.com/vi/0mzGE2PU3Ng/mqdefault.jpg","viewCount":"405","playlistId":"PLEkQk5xrP-tnzqzkOeEPbbPLsxgy-MYcW","playlistName":"شرح حديث سبعة يظلهم الله يوم القيامة في ظل عرشه - كتاب بهجة  النفوس - د. يسري جبر","category":"حديث"},{"id":"FzdnH4RYI-o","title":"شرح فتح القريب المجيب - كتاب أحكام السبق والرمي","publishedAt":"2016-12-21T18:26:02Z","duration":"PT24M29S","thumbnail":"https://i.ytimg.com/vi/FzdnH4RYI-o/mqdefault.jpg","viewCount":"404","playlistId":"PLEkQk5xrP-tlyOgfNBZTZgoATzVW4mI20","playlistName":"كتاب فتح القريب المجيب (علم الفقه الشافعي)","category":"فقه"},{"id":"zEbnArMtcB8","title":"الشَّرْط: القاعدة الخامسة: أدوات الشرط","publishedAt":"2020-12-06T06:52:45Z","duration":"PT13M1S","thumbnail":"https://i.ytimg.com/vi/zEbnArMtcB8/mqdefault.jpg","viewCount":"404","playlistId":"PLEkQk5xrP-tnW3iBL7HkKziOFCFZbTlf0","playlistName":"شرح البرهان في علوم القرآن - أ.د. يسري جبر","category":"تفسير"},{"id":"mfjob1pny-4","title":"الاختزال (33) حذف الحرف - شرح البرهان في علوم القرآن","publishedAt":"2021-08-21T06:21:05Z","duration":"PT22M37S","thumbnail":"https://i.ytimg.com/vi/mfjob1pny-4/mqdefault.jpg","viewCount":"404","playlistId":"PLEkQk5xrP-tnW3iBL7HkKziOFCFZbTlf0","playlistName":"شرح البرهان في علوم القرآن - أ.د. يسري جبر","category":"تفسير"},{"id":"eWj6gNTS5x0","title":"94- شرح اللؤلؤ والمرجان كتاب المساقاة من الباب الرابع عشر","publishedAt":"2020-03-13T06:30:04Z","duration":"PT28M28S","thumbnail":"https://i.ytimg.com/vi/eWj6gNTS5x0/mqdefault.jpg","viewCount":"404","playlistId":"PLEkQk5xrP-tmKNjtYLfhATC37QdIsTMe0","playlistName":"شرح كتاب اللؤلؤ والمرجان فيما اتفق عليه الشيخان إماما المحدثين البخاري ومسلم. أ.د. يسري جبر","category":"حديث"},{"id":"1PPF33WRDto","title":"608- (لو) الامتناعية؛ وفيها عِدة مسائل - شرح البرهان في علوم القران","publishedAt":"2022-12-01T05:00:00Z","duration":"PT18M54S","thumbnail":"https://i.ytimg.com/vi/1PPF33WRDto/mqdefault.jpg","viewCount":"404","playlistId":"PLEkQk5xrP-tnW3iBL7HkKziOFCFZbTlf0","playlistName":"شرح البرهان في علوم القرآن - أ.د. يسري جبر","category":"تفسير"},{"id":"BWBrooI3GEU","title":"600- اللام الجازمة: لام (الأمر أو الطلب) شرح البرهان في علوم القرآن","publishedAt":"2022-11-21T05:00:09Z","duration":"PT18M15S","thumbnail":"https://i.ytimg.com/vi/BWBrooI3GEU/mqdefault.jpg","viewCount":"404","playlistId":"PLEkQk5xrP-tnW3iBL7HkKziOFCFZbTlf0","playlistName":"شرح البرهان في علوم القرآن - أ.د. يسري جبر","category":"تفسير"},{"id":"TRyw7Ue1hM4","title":"سورة الأنفال آية 24","publishedAt":"2017-03-19T07:06:40Z","duration":"PT13M23S","thumbnail":"https://i.ytimg.com/vi/TRyw7Ue1hM4/mqdefault.jpg","viewCount":"404","playlistId":"PLEkQk5xrP-tnmTYsyW6xNdyfhPq0Bhrhj","playlistName":"مقرأة الفجر - القُرْآنُ الكَرِيمُ - خَتْمَةُ التَّدَبُّرِ  أ.د. يسري جبر","category":"متنوع"},{"id":"LnORgwmHjHs","title":"النوع الثاني مما قُدِّم ورتبته التأخير(٢)تكملة أنواع التقديم والتأخير(20)شرح البرهان في علوم القرآن","publishedAt":"2021-10-19T03:30:31Z","duration":"PT25M40S","thumbnail":"https://i.ytimg.com/vi/LnORgwmHjHs/mqdefault.jpg","viewCount":"404","playlistId":"PLEkQk5xrP-tnW3iBL7HkKziOFCFZbTlf0","playlistName":"شرح البرهان في علوم القرآن - أ.د. يسري جبر","category":"تفسير"},{"id":"2-2988Tc08g","title":"برنامج - عصمة الأنبياء - الحلقة الحادي والعشرون عشر - شبهات حول نبي الله موسى (2) - @alerthTV","publishedAt":"2019-03-26T20:30:00Z","duration":"PT25M46S","thumbnail":"https://i.ytimg.com/vi/2-2988Tc08g/mqdefault.jpg","viewCount":"404","playlistId":"PLEkQk5xrP-tnBp9yUT_R2vtqSPOlcyAZe","playlistName":"برنامج - عصمة الأنبياء","category":"متنوع"},{"id":"7wHbRl9F5-Q","title":"مقرأة سورة طه من آية ٦٦","publishedAt":"2017-12-03T15:20:38Z","duration":"PT29M50S","thumbnail":"https://i.ytimg.com/vi/7wHbRl9F5-Q/mqdefault.jpg","viewCount":"403","playlistId":"PLEkQk5xrP-tnmTYsyW6xNdyfhPq0Bhrhj","playlistName":"مقرأة الفجر - القُرْآنُ الكَرِيمُ - خَتْمَةُ التَّدَبُّرِ  أ.د. يسري جبر","category":"متنوع"},{"id":"yIxXFnoYOqY","title":"سورة النساء آية 95","publishedAt":"2016-09-05T06:06:34Z","duration":"PT10M22S","thumbnail":"https://i.ytimg.com/vi/yIxXFnoYOqY/mqdefault.jpg","viewCount":"403","playlistId":"PLEkQk5xrP-tnmTYsyW6xNdyfhPq0Bhrhj","playlistName":"مقرأة الفجر - القُرْآنُ الكَرِيمُ - خَتْمَةُ التَّدَبُّرِ  أ.د. يسري جبر","category":"متنوع"},{"id":"SR1Hy2nNapU","title":"57- شرح اللؤلؤ والمرجان كتاب الزكاة من الباب الثالث والأربعين","publishedAt":"2020-02-06T06:00:03Z","duration":"PT24M2S","thumbnail":"https://i.ytimg.com/vi/SR1Hy2nNapU/mqdefault.jpg","viewCount":"403","playlistId":"PLEkQk5xrP-tmKNjtYLfhATC37QdIsTMe0","playlistName":"شرح كتاب اللؤلؤ والمرجان فيما اتفق عليه الشيخان إماما المحدثين البخاري ومسلم. أ.د. يسري جبر","category":"حديث"},{"id":"DVRaOd3GXgA","title":"شرح البرهان في علوم القرآن - النوع ٢٩ - فصل في كراهة قراءة القرآن بلا تدبر","publishedAt":"2020-02-05T06:00:04Z","duration":"PT26M55S","thumbnail":"https://i.ytimg.com/vi/DVRaOd3GXgA/mqdefault.jpg","viewCount":"403","playlistId":"PLEkQk5xrP-tnW3iBL7HkKziOFCFZbTlf0","playlistName":"شرح البرهان في علوم القرآن - أ.د. يسري جبر","category":"تفسير"},{"id":"U7vnn3Y4dBo","title":"مقرأة سورة الفرقان من آية ٥٩","publishedAt":"2018-04-05T14:42:12Z","duration":"PT20M49S","thumbnail":"https://i.ytimg.com/vi/U7vnn3Y4dBo/mqdefault.jpg","viewCount":"403","playlistId":"PLEkQk5xrP-tnmTYsyW6xNdyfhPq0Bhrhj","playlistName":"مقرأة الفجر - القُرْآنُ الكَرِيمُ - خَتْمَةُ التَّدَبُّرِ  أ.د. يسري جبر","category":"متنوع"},{"id":"N6jwjmXOIqs","title":"الأسلوب الثاني: الحذف(10)\"أقسام الحذف\" النوع الثامن\"الاختزال\" - شرح البرهان في علوم القرآن","publishedAt":"2021-06-26T06:33:38Z","duration":"PT12M40S","thumbnail":"https://i.ytimg.com/vi/N6jwjmXOIqs/mqdefault.jpg","viewCount":"403","playlistId":"PLEkQk5xrP-tnW3iBL7HkKziOFCFZbTlf0","playlistName":"شرح البرهان في علوم القرآن - أ.د. يسري جبر","category":"تفسير"},{"id":"Wxn8nvIXm6I","title":"شرح سنن الدارمي كتاب الأضاحي من باب ٨","publishedAt":"2019-07-18T17:43:22Z","duration":"PT23M28S","thumbnail":"https://i.ytimg.com/vi/Wxn8nvIXm6I/mqdefault.jpg","viewCount":"403","playlistId":"PLEkQk5xrP-tmAg-FuWjY057X_h5NmGmAa","playlistName":"شرح سنن الدارمي - أ.د. يسري جبر (كاملا)","category":"متنوع"}],"total":7670,"page":253,"pageSize":24,"totalPages":320}