{"items":[{"id":"QVu_UZULqqQ","title":"Ø§Ù„Ø±Ø¯ Ø¹Ù„Ù‰ Ù…Ù† ÙŠÙ†ÙƒØ± Ø®ØµÙˆØµÙŠØ© Ø§Ù„Ù†Ø¨ÙŠ ï·º","publishedAt":"2025-05-22T17:40:04Z","duration":"PT17M18S","thumbnail":"https://i.ytimg.com/vi/QVu_UZULqqQ/mqdefault.jpg","viewCount":"2806","playlistId":"PLEkQk5xrP-tlArtGpeLWaqNM7h7IDeAVC","playlistName":"Ø®Ø·Ø¨ Ø§Ù„Ø¬Ù…Ø¹Ø© Ø£.Ø¯. ÙŠØ³Ø±ÙŠ Ø¬Ø¨Ø±","category":"Ø®Ø·Ø¨"},{"id":"3bobscuD7ns","title":"Ø­Ø¸ Ø§Ù„Ù†ÙØ³ ÙÙŠ Ø§Ù„Ù…Ø¹ØµÙŠØ© Ø¸Ø§Ù‡Ø± Ø¬Ù„ÙŠÙ‘ØŒ ÙˆØ­Ø¸Ù‡Ø§ ÙÙŠ Ø§Ù„Ø·Ø§Ø¹Ø© Ø¨Ø§Ø·Ù† Ø®ÙÙŠÙ‘ØŒ ÙˆÙ…Ø¯Ø§ÙˆØ© Ù…Ø§ ÙŠØ®ÙÙ‰ ØµØ¹Ø¨ Ø¹Ù„Ø§Ø¬Ù‡","publishedAt":"2017-04-17T20:24:43Z","duration":"PT6M28S","thumbnail":"https://i.ytimg.com/vi/3bobscuD7ns/mqdefault.jpg","viewCount":"2802","playlistId":"PLEkQk5xrP-tkI_meE148wc7V7XHlB0WPb","playlistName":"Ù…Ù† Ø§Ù„Ø­ÙƒÙ… Ø§Ù„Ø¹Ø·Ø§Ø¦ÙŠØ©  Ø¯. ÙŠØ³Ø±ÙŠ Ø¬Ø¨Ø±","category":"Ù…ØªÙ†ÙˆØ¹"},{"id":"4NF0YVQRuh8","title":"ØªÙØ³ÙŠØ± Ù‚ÙˆÙ„Ù‡ ØªØ¹Ø§Ù„Ù‰ \"ÙŠØ§ Ø£ÙŠÙ‡Ø§ Ø§Ù„Ù†Ø¨ÙŠ Ù„Ù… ØªØ­Ø±Ù… Ù…Ø§ Ø£Ø­Ù„ Ø§Ù„Ù„Ù‡ Ù„Ùƒ ØªØ¨ØªØºÙŠ Ù…Ø±Ø¶Ø§Ø© Ø£Ø²ÙˆØ§Ø¬Ùƒ\"","publishedAt":"2024-07-27T17:09:16Z","duration":"PT19M36S","thumbnail":"https://i.ytimg.com/vi/4NF0YVQRuh8/mqdefault.jpg","viewCount":"2801","playlistId":"PLEkQk5xrP-tkSGrPLMt1BEmJ54cGWYgtp","playlistName":"ÙƒØªØ§Ø¨Ù Ø¨ÙØ¯ÙØ¹Ù Ø§Ù„ØªÙÙÙØ§Ø³ÙÙŠØ±Ù - Ø£.Ø¯. ÙŠØ³Ø±ÙŠ Ø¬Ø¨Ø±","category":"Ù…ØªÙ†ÙˆØ¹"},{"id":"swLb_b7D81Q","title":"ÙƒÙŠÙ ØªØ­ØµÙ† Ù†ÙØ³Ùƒ Ù…Ù† Ø£ÙÙƒØ§Ø± Ø§Ù„ÙˆÙ‡Ø§Ø¨ÙŠØ©ØŸ","publishedAt":"2025-07-15T18:57:47Z","duration":"PT15M4S","thumbnail":"https://i.ytimg.com/vi/swLb_b7D81Q/mqdefault.jpg","viewCount":"2797","playlistId":"PLEkQk5xrP-tlArtGpeLWaqNM7h7IDeAVC","playlistName":"Ø®Ø·Ø¨ Ø§Ù„Ø¬Ù…Ø¹Ø© Ø£.Ø¯. ÙŠØ³Ø±ÙŠ Ø¬Ø¨Ø±","category":"Ø®Ø·Ø¨"},{"id":"psbFNfIG7no","title":"Ù…Ø¸Ø§Ù‡Ø± Ù‚Ø¯Ø±Ø© Ø§Ù„Ù„Ù‡ ÙÙŠ Ø§Ù„Ø£ÙƒÙˆØ§Ù†","publishedAt":"2024-11-25T17:30:06Z","duration":"PT10M32S","thumbnail":"https://i.ytimg.com/vi/psbFNfIG7no/mqdefault.jpg","viewCount":"2797","playlistId":"PLEkQk5xrP-tlArtGpeLWaqNM7h7IDeAVC","playlistName":"Ø®Ø·Ø¨ Ø§Ù„Ø¬Ù…Ø¹Ø© Ø£.Ø¯. ÙŠØ³Ø±ÙŠ Ø¬Ø¨Ø±","category":"Ø®Ø·Ø¨"},{"id":"gWKmvpIFrq0","title":"Ù…Ø§ Ù‡ÙŠ Ø¢Ø¯Ø§Ø¨ Ø§Ù„Ø¯Ø®ÙˆÙ„ ÙÙŠ Ø·Ø±ÙŠÙ‚ Ø§Ù„ØªØµÙˆÙØŸ","publishedAt":"2025-08-05T19:30:06Z","duration":"PT30M21S","thumbnail":"https://i.ytimg.com/vi/gWKmvpIFrq0/mqdefault.jpg","viewCount":"2796","playlistId":"PLEkQk5xrP-tmsEDdkkXMM1ca2-AquQYad","playlistName":"Ø´Ø±Ø­ ÙƒØªØ§Ø¨ Ù…Ø¯Ø§Ø±Ø¬ Ø§Ù„Ø­Ù‚ÙŠÙ‚Ø© ÙÙŠ Ø§Ù„Ø±Ø§Ø¨Ø·Ø© Ø¹Ù†Ø¯ Ø£Ù‡Ù„ Ø§Ù„Ø·Ø±ÙŠÙ‚Ø©","category":"Ù…ØªÙ†ÙˆØ¹"},{"id":"l1YjqxnHeYM","title":"ÙƒÙŠÙ Ø£Ø®Ø±Ø¬ Ø­Ø¨ Ø§Ù„Ø¯Ù†ÙŠØ§ ÙˆØ§Ù„ØªØ¹Ù„Ù‚ Ø¨Ù‡Ø§ Ù…Ù† Ù‚Ù„Ø¨ÙŠØŸ","publishedAt":"2025-10-01T18:31:00Z","duration":"PT17M45S","thumbnail":"https://i.ytimg.com/vi/l1YjqxnHeYM/mqdefault.jpg","viewCount":"2788","playlistId":"PLEkQk5xrP-tlArtGpeLWaqNM7h7IDeAVC","playlistName":"Ø®Ø·Ø¨ Ø§Ù„Ø¬Ù…Ø¹Ø© Ø£.Ø¯. ÙŠØ³Ø±ÙŠ Ø¬Ø¨Ø±","category":"Ø®Ø·Ø¨"},{"id":"kFV12_vRIKY","title":"Ù…Ø§ Ø­Ù‚ÙŠÙ‚Ø© Ø¹Ø°Ø§Ø¨ Ø§Ù„Ù‚Ø¨Ø± ÙˆÙ†Ø¹ÙŠÙ…Ù‡ ÙˆÙ…Ø§Ø°Ø§ ÙŠØ­Ø¯Ø« Ø¨Ø¹Ø¯ Ø§Ù„Ù…ÙˆØªØŸ","publishedAt":"2025-09-02T19:00:42Z","duration":"PT34M15S","thumbnail":"https://i.ytimg.com/vi/kFV12_vRIKY/mqdefault.jpg","viewCount":"2788","playlistId":"PLEkQk5xrP-tmsEDdkkXMM1ca2-AquQYad","playlistName":"Ø´Ø±Ø­ ÙƒØªØ§Ø¨ Ù…Ø¯Ø§Ø±Ø¬ Ø§Ù„Ø­Ù‚ÙŠÙ‚Ø© ÙÙŠ Ø§Ù„Ø±Ø§Ø¨Ø·Ø© Ø¹Ù†Ø¯ Ø£Ù‡Ù„ Ø§Ù„Ø·Ø±ÙŠÙ‚Ø©","category":"Ù…ØªÙ†ÙˆØ¹"},{"id":"hYGR5FU6LeI","title":"Ù‡Ù„ Ø§Ø³ØªØ¹Ù…Ø§Ù„ Ø§Ù„Ø¨Ù†Ø¬ Ø§Ù„ÙƒÙ„ÙŠ Ø£Ùˆ Ø§Ù„Ù…ÙˆØ¶Ø¹ÙŠ ÙŠÙØ³Ø¯ Ø§Ù„ØµÙŠØ§Ù…ØŸ","publishedAt":"2023-04-01T19:00:15Z","duration":"PT13M8S","thumbnail":"https://i.ytimg.com/vi/hYGR5FU6LeI/mqdefault.jpg","viewCount":"2788","playlistId":"PLEkQk5xrP-tkGXuZ9atE3k_7it12rUPTs","playlistName":"Ø£Ø³Ø¦Ù„Ø© Ø§Ù„Ù…ØªØ§Ø¨Ø¹ÙŠÙ†","category":"Ù…ØªÙ†ÙˆØ¹"},{"id":"JzWZQKLz5qs","title":"Ù…Ø§ Ø§Ù„ÙØ±Ù‚ Ø¨ÙŠÙ† Ø§Ù„Ø£Ø­Ø¯ÙŠØ© ÙˆØ§Ù„ÙˆØ§Ø­Ø¯ÙŠØ© ÙˆØ§Ù„ÙØ±Ø¯Ø§Ù†ÙŠØ©ØŸ","publishedAt":"2025-02-08T19:49:58Z","duration":"PT20M16S","thumbnail":"https://i.ytimg.com/vi/JzWZQKLz5qs/mqdefault.jpg","viewCount":"2787","playlistId":"PLEkQk5xrP-tlArtGpeLWaqNM7h7IDeAVC","playlistName":"Ø®Ø·Ø¨ Ø§Ù„Ø¬Ù…Ø¹Ø© Ø£.Ø¯. ÙŠØ³Ø±ÙŠ Ø¬Ø¨Ø±","category":"Ø®Ø·Ø¨"},{"id":"rStqYitI2-Q","title":"Ù…Ø§Ø°Ø§ Ø­Ø¯Ø« ÙÙŠ Ù…Ø¹Ø±ÙƒØ© ÙƒØ±Ø¨Ù„Ø§Ø¡ ÙˆÙ‚ØµØ© Ø§Ø³ØªØ´Ù‡Ø§Ø¯ Ø³ÙŠØ¯Ù†Ø§ Ø§Ù„Ø­Ø³ÙŠÙ†ØŸ","publishedAt":"2025-10-20T15:59:42Z","duration":"PT15M58S","thumbnail":"https://i.ytimg.com/vi/rStqYitI2-Q/mqdefault.jpg","viewCount":"2785","playlistId":"PLEkQk5xrP-tlArtGpeLWaqNM7h7IDeAVC","playlistName":"Ø®Ø·Ø¨ Ø§Ù„Ø¬Ù…Ø¹Ø© Ø£.Ø¯. ÙŠØ³Ø±ÙŠ Ø¬Ø¨Ø±","category":"Ø®Ø·Ø¨"},{"id":"WFImrIx-XAg","title":"ØªÙØ³ÙŠØ± Ù‚ÙˆÙ„Ù‡ ØªØ¹Ø§Ù„Ù‰\"ÙˆÙÙ…ÙØ§Ù“ Ø£ÙØ±Ù’Ø³ÙÙ„Ù’Ù†ÙØ§ Ù…ÙÙ† Ù‚ÙØ¨Ù’Ù„ÙÙƒÙ Ù…Ù† Ø±Ù‘ÙØ³ÙÙˆÙ„ÙÛ¢ ÙˆÙÙ„ÙØ§ Ù†ÙØ¨ÙÙ‰Ù‘Ù Ø¥ÙÙ„Ù‘ÙØ§Ù“ Ø¥ÙØ°ÙØ§ ØªÙÙ…ÙÙ†Ù‘ÙÙ‰â€¦\"","publishedAt":"2021-09-10T17:21:08Z","duration":"PT10M24S","thumbnail":"https://i.ytimg.com/vi/WFImrIx-XAg/mqdefault.jpg","viewCount":"2785","playlistId":"PLEkQk5xrP-tkSGrPLMt1BEmJ54cGWYgtp","playlistName":"ÙƒØªØ§Ø¨Ù Ø¨ÙØ¯ÙØ¹Ù Ø§Ù„ØªÙÙÙØ§Ø³ÙÙŠØ±Ù - Ø£.Ø¯. ÙŠØ³Ø±ÙŠ Ø¬Ø¨Ø±","category":"Ù…ØªÙ†ÙˆØ¹"},{"id":"J1MNCtwkSNM","title":"Ù†ÙˆØ± Ù…Ø³ØªÙˆØ¯Ø¹ ÙÙŠ Ø§Ù„Ù‚Ù„ÙˆØ¨ØŒ Ù…Ø¯Ø¯Ù‡ Ù…Ù† Ø§Ù„Ù†ÙˆØ± Ø§Ù„ÙˆØ§Ø±Ø¯ Ù…Ù† Ø®Ø²Ø§Ø¦Ù† Ø§Ù„ØºÙŠÙˆØ¨ .","publishedAt":"2017-03-27T18:08:50Z","duration":"PT15M22S","thumbnail":"https://i.ytimg.com/vi/J1MNCtwkSNM/mqdefault.jpg","viewCount":"2781","playlistId":"PLEkQk5xrP-tkI_meE148wc7V7XHlB0WPb","playlistName":"Ù…Ù† Ø§Ù„Ø­ÙƒÙ… Ø§Ù„Ø¹Ø·Ø§Ø¦ÙŠØ©  Ø¯. ÙŠØ³Ø±ÙŠ Ø¬Ø¨Ø±","category":"Ù…ØªÙ†ÙˆØ¹"},{"id":"gZHEI6jr5cE","title":"67- Ø¹Ù„Ø§Ø¬ Ø´Ø¯Ø© Ø§Ù„Ø¹ÙŠØ´ ÙˆÙ…Ø´Ù‚Ø© Ø§Ù„Ø¹Ù…Ù„ - Ø´Ø±Ø­ Ù…Ø³Ù†Ø¯ Ø§Ù„Ø¥Ù…Ø§Ù… Ø£Ø­Ù…Ø¯ Ø±Ø¶ÙŠ Ø§Ù„Ù„Ù‡ Ø¹Ù†Ù‡","publishedAt":"2024-01-24T07:20:55Z","duration":"PT38M11S","thumbnail":"https://i.ytimg.com/vi/gZHEI6jr5cE/mqdefault.jpg","viewCount":"2776","playlistId":"PLEkQk5xrP-tkKprIuGrSdEuBSMsyg5We1","playlistName":"Ø´Ø±Ø­ Ù…Ø³Ù†Ø¯ Ø§Ù„Ø¥Ù…Ø§Ù… Ø£Ø­Ù…Ø¯ Ø¨Ù† Ø­Ù†Ø¨Ù„","category":"Ù…ØªÙ†ÙˆØ¹"},{"id":"omDcJX0_NEw","title":"ğŸ”´ Majelis Sama' Hadits Shahih Bukhari - PP Progresif Bumi Shalawat (Senin, 3 Februari 2025 | Sesi 1)","publishedAt":"2025-02-03T06:01:11Z","duration":"PT4H22M22S","thumbnail":"https://i.ytimg.com/vi/omDcJX0_NEw/mqdefault.jpg","viewCount":"2771","playlistId":"PLEkQk5xrP-tkKcTKLIthzWrdXY7QaOjh_","playlistName":"Ù‚Ø±Ø§Ø¡Ø© ØµØ­ÙŠØ­ Ø§Ù„Ø¨Ø®Ø§Ø±ÙŠ ÙƒØ§Ù…Ù„Ø§Ù‹ ÙÙŠ Ø¥Ù†Ø¯ÙˆÙ†ÙŠØ³ÙŠØ§","category":"Ø­Ø¯ÙŠØ«"},{"id":"sYnGBbTHD0c","title":"Ø§Ù„ÙØ±Ù‚ Ø¨ÙŠÙ† Ø§Ù„Ø®ÙˆÙ ÙˆØ§Ù„Ø®Ø´ÙŠØ© Ù…Ù† Ø§Ù„Ù„Ù‡ ØªØ¹Ø§Ù„Ù‰ | Ù…Ø¬Ø§Ù„Ø³ Ø±Ù…Ø¶Ø§Ù†ÙŠØ©","publishedAt":"2025-03-29T19:00:39Z","duration":"PT35M53S","thumbnail":"https://i.ytimg.com/vi/sYnGBbTHD0c/mqdefault.jpg","viewCount":"2770","playlistId":"PLEkQk5xrP-tkeI_WVPfuoTJO46aVkpaz0","playlistName":"Ø´Ø±Ø­ ÙƒØªØ§Ø¨ Ù…ÙŠØ²Ø§Ù† Ø§Ù„Ø§Ø¹ØªØ¯Ø§Ù„ Ù„Ø­ÙØ¸ Ø§Ù„Ø¯ÙŠÙ† ÙˆØ§Ù„Ø£Ø­ÙˆØ§Ù„","category":"Ù…ØªÙ†ÙˆØ¹"},{"id":"iYlNySBdUaE","title":"3- Ø´Ø±Ø­ ÙƒØªØ§Ø¨ Ø§Ù„Ù„Ø¤Ù„Ø¤ ÙˆØ§Ù„Ù…Ø±Ø¬Ø§Ù† - Ø§Ù„Ù…Ø¬Ù„Ø³ Ø§Ù„Ø«Ø§Ù„Ø«. Ø£.Ø¯. ÙŠØ³Ø±ÙŠ Ø¬Ø¨Ø±","publishedAt":"2019-12-05T19:29:46Z","duration":"PT38M54S","thumbnail":"https://i.ytimg.com/vi/iYlNySBdUaE/mqdefault.jpg","viewCount":"2768","playlistId":"PLEkQk5xrP-tmKNjtYLfhATC37QdIsTMe0","playlistName":"Ø´Ø±Ø­ ÙƒØªØ§Ø¨ Ø§Ù„Ù„Ø¤Ù„Ø¤ ÙˆØ§Ù„Ù…Ø±Ø¬Ø§Ù† ÙÙŠÙ…Ø§ Ø§ØªÙÙ‚ Ø¹Ù„ÙŠÙ‡ Ø§Ù„Ø´ÙŠØ®Ø§Ù† Ø¥Ù…Ø§Ù…Ø§ Ø§Ù„Ù…Ø­Ø¯Ø«ÙŠÙ† Ø§Ù„Ø¨Ø®Ø§Ø±ÙŠ ÙˆÙ…Ø³Ù„Ù…. Ø£.Ø¯. ÙŠØ³Ø±ÙŠ Ø¬Ø¨Ø±","category":"Ø­Ø¯ÙŠØ«"},{"id":"XjwSW_r1Mag","title":"Ø´Ø±Ø­ ÙƒØªØ§Ø¨ ÙØªØ­ Ø§Ù„Ù‚Ø±ÙŠØ¨ Ø§Ù„Ù…Ø¬ÙŠØ¨ Â«Ø§Ù„Ø§Ø³ØªÙ†Ø¬Ø§Ø¡Â» Ø¯. ÙŠØ³Ø±ÙŠ Ø¬Ø¨Ø±","publishedAt":"2014-12-05T00:58:21Z","duration":"PT51M55S","thumbnail":"https://i.ytimg.com/vi/XjwSW_r1Mag/mqdefault.jpg","viewCount":"2767","playlistId":"PLEkQk5xrP-tlyOgfNBZTZgoATzVW4mI20","playlistName":"ÙƒØªØ§Ø¨ ÙØªØ­ Ø§Ù„Ù‚Ø±ÙŠØ¨ Ø§Ù„Ù…Ø¬ÙŠØ¨ (Ø¹Ù„Ù… Ø§Ù„ÙÙ‚Ù‡ Ø§Ù„Ø´Ø§ÙØ¹ÙŠ)","category":"ÙÙ‚Ù‡"},{"id":"WD25wACXI3Q","title":"Ù…ÙÙ‡ÙˆÙ… Ø§Ù„Ø¬Ø§Ù‡Ù„ÙŠØ© ÙˆØ§Ù†Ù‚Ø·Ø§Ø¹ Ø§Ù„Ø¯ÙŠÙ† ÙˆØ­ØªÙ…ÙŠØ© Ø§Ù„ØµØ¯Ø§Ù… Ø¹Ù†Ø¯ Ø³ÙŠØ¯ Ù‚Ø·Ø¨","publishedAt":"2015-03-14T14:28:52Z","duration":"PT24M11S","thumbnail":"https://i.ytimg.com/vi/WD25wACXI3Q/mqdefault.jpg","viewCount":"2765","playlistId":"PLEkQk5xrP-tl5sZd_31jJw-5LldLW46Dv","playlistName":"ÙƒØªØ§Ø¨ Ø§Ù„Ø­Ù‚ Ø§Ù„Ù…Ø¨ÙŠÙ† ÙÙŠ Ø§Ù„Ø±Ø¯ Ø¹Ù„Ù‰ Ù…Ù† ØªØ·Ø§ÙˆÙ„ Ø¹Ù„Ù‰ Ø§Ù„Ø¯ÙŠÙ†","category":"Ø±Ø¯ÙˆØ¯"},{"id":"rl_Vx0svDYc","title":"141-  Ù…Ø¹Ø¬Ø²Ø§Øª Ø§Ù„Ù†Ù‘ÙØ¨ÙŠÙ‘  ï·º","publishedAt":"2020-09-28T20:09:48Z","duration":"PT24M13S","thumbnail":"https://i.ytimg.com/vi/rl_Vx0svDYc/mqdefault.jpg","viewCount":"2759","playlistId":"PLEkQk5xrP-tmKNjtYLfhATC37QdIsTMe0","playlistName":"Ø´Ø±Ø­ ÙƒØªØ§Ø¨ Ø§Ù„Ù„Ø¤Ù„Ø¤ ÙˆØ§Ù„Ù…Ø±Ø¬Ø§Ù† ÙÙŠÙ…Ø§ Ø§ØªÙÙ‚ Ø¹Ù„ÙŠÙ‡ Ø§Ù„Ø´ÙŠØ®Ø§Ù† Ø¥Ù…Ø§Ù…Ø§ Ø§Ù„Ù…Ø­Ø¯Ø«ÙŠÙ† Ø§Ù„Ø¨Ø®Ø§Ø±ÙŠ ÙˆÙ…Ø³Ù„Ù…. Ø£.Ø¯. ÙŠØ³Ø±ÙŠ Ø¬Ø¨Ø±","category":"Ø­Ø¯ÙŠØ«"},{"id":"LfYUg_LyhCU","title":"Ù‡Ù„ ÙŠÙ…ÙƒÙ†Ù†Ø§ Ø±Ø¤ÙŠØ© Ø§Ù„Ù„Ù‡ ÙŠÙˆÙ… Ø§Ù„Ù‚ÙŠØ§Ù…Ø© ÙˆÙ‡Ù„ Ø±Ø£Ù‰ Ø§Ù„Ù†Ø¨ÙŠ Ø±Ø¨Ù‡ØŸ","publishedAt":"2024-12-03T18:21:30Z","duration":"PT11M50S","thumbnail":"https://i.ytimg.com/vi/LfYUg_LyhCU/mqdefault.jpg","viewCount":"2757","playlistId":"PLEkQk5xrP-tkGXuZ9atE3k_7it12rUPTs","playlistName":"Ø£Ø³Ø¦Ù„Ø© Ø§Ù„Ù…ØªØ§Ø¨Ø¹ÙŠÙ†","category":"Ù…ØªÙ†ÙˆØ¹"},{"id":"wj3G164j6iI","title":"Ø­ÙØ¸ Ø§Ù„Ø­ÙØ±Ù…Ø©","publishedAt":"2020-08-04T19:36:21Z","duration":"PT8M20S","thumbnail":"https://i.ytimg.com/vi/wj3G164j6iI/mqdefault.jpg","viewCount":"2757","playlistId":"PLEkQk5xrP-tm8ZIu74nTOZN9KJUJu416J","playlistName":"Ù…Ù‚Ø§Ø·Ø¹ Ù…ÙÙ‡Ù…ÙÙ‘Ø© (ÙŠÙØ³Ø±ÙŠÙ‘ÙØ§Øª) Ø£.Ø¯. ÙŠØ³Ø±ÙŠ Ø¬Ø¨Ø±","category":"Ù…ØªÙ†ÙˆØ¹"},{"id":"4u34d3TLKak","title":"22- Ù„Ù…Ø§Ø°Ø§ ÙŠÙ†Ø¹Ù… Ø§Ù„Ù„Ù‡ Ø¹Ù„ÙŠÙ†Ø§ Ø±ØºÙ… Ø£Ù†Ù†Ø§ Ù†Ø¹ØµÙŠÙ‡ØŸ | Ø´Ø±Ø­ Ø§Ù„Ø­ÙƒÙ… Ø§Ù„Ø¹Ø·Ø§Ø¦ÙŠØ©","publishedAt":"2025-07-24T18:00:07Z","duration":"PT35M24S","thumbnail":"https://i.ytimg.com/vi/4u34d3TLKak/mqdefault.jpg","viewCount":"2750","playlistId":"PLEkQk5xrP-tmf5ToOwmW-q0JwxkapbrMN","playlistName":"Ø´Ø±Ø­ ÙƒØªØ§Ø¨ Ø¥Ø±Ø´Ø§Ø¯ Ø§Ù„Ø¨Ø±ÙŠØ© Ø¥Ù„Ù‰ Ø¨Ø¹Ø¶ Ù…Ø¹Ø§Ù†ÙŠ Ø§Ù„Ø­ÙƒÙ… Ø§Ù„Ø¹Ø·Ø§Ø¦ÙŠØ©","category":"Ù…ØªÙ†ÙˆØ¹"},{"id":"KxbpFG5SzyQ","title":"ÙØ¶Ù„ Ø§Ù„ØµØ¯Ù‚Ø© ÙˆØ£Ø«Ø±Ù‡Ø§ Ø¹Ù„Ù‰ ÙƒÙ„ Ù…Ø³Ù„Ù… | Ù…Ø¬Ø§Ù„Ø³ Ø±Ù…Ø¶Ø§Ù†ÙŠØ©","publishedAt":"2023-04-16T15:00:22Z","duration":"PT41M19S","thumbnail":"https://i.ytimg.com/vi/KxbpFG5SzyQ/mqdefault.jpg","viewCount":"2747","playlistId":"PLEkQk5xrP-tnl7vb7KeAoPd5ZlqKKW8KV","playlistName":"Ø´Ø±Ø­ ÙƒØªØ§Ø¨ Ø¨Ù‡Ø¬Ø© Ø§Ù„Ù†ÙÙˆØ³ Ø£.Ø¯ . ÙŠØ³Ø±Ù‰ Ø¬Ø¨Ø±","category":"Ù…ØªÙ†ÙˆØ¹"}],"total":7675,"page":89,"pageSize":24,"totalPages":320}