{"items":[{"id":"mkEf1nMDBE0","title":"منهج حياة","publishedAt":"2020-10-03T18:06:01Z","duration":"PT20M13S","thumbnail":"https://i.ytimg.com/vi/mkEf1nMDBE0/mqdefault.jpg","viewCount":"3500","playlistId":"PLEkQk5xrP-tm8ZIu74nTOZN9KJUJu416J","playlistName":"مقاطع مُهمَّة (يُسريَّات) أ.د. يسري جبر","category":"متنوع"},{"id":"l_TvV12zKTI","title":"4- تكملة مقدمة كتاب رياض الصالحين وتعليق الشارح عليها - شرح دليل الفالحين أ.د. يسري جبر","publishedAt":"2021-01-15T07:52:06Z","duration":"PT40M41S","thumbnail":"https://i.ytimg.com/vi/l_TvV12zKTI/mqdefault.jpg","viewCount":"3494","playlistId":"PLEkQk5xrP-tkc9DXvSLguqX5-FYp6ASR4","playlistName":"دليل الفالحين لطرق رياض الصالحين","category":"متنوع"},{"id":"qXMXbog7_oY","title":"ماذا تفعل إن لم تستطع الحج هذا العام؟","publishedAt":"2025-06-03T18:51:35Z","duration":"PT18M29S","thumbnail":"https://i.ytimg.com/vi/qXMXbog7_oY/mqdefault.jpg","viewCount":"3492","playlistId":"PLEkQk5xrP-tlArtGpeLWaqNM7h7IDeAVC","playlistName":"خطب الجمعة أ.د. يسري جبر","category":"خطب"},{"id":"TfKVUZKhQ0o","title":"69- ما مفاتيح علو الهمة عند المسلم؟ | شرح منازل السائرين","publishedAt":"2025-10-30T18:00:27Z","duration":"PT29M34S","thumbnail":"https://i.ytimg.com/vi/TfKVUZKhQ0o/mqdefault.jpg","viewCount":"3488","playlistId":"PLEkQk5xrP-tmiUfQ-2Tsn7QIak4EsvaZW","playlistName":"كتاب التيسير المعين بشرح معاني منازل السائرين (تصوف) - د.يسري جبر","category":"تصوف"},{"id":"aSFhno533J4","title":"الرسالة القشيرية - المجلس السابع عشر (باب في ذكر مشايخ هذه الطريقة - المجلس التاسع)","publishedAt":"2021-11-25T16:46:27Z","duration":"PT56M59S","thumbnail":"https://i.ytimg.com/vi/aSFhno533J4/mqdefault.jpg","viewCount":"3486","playlistId":"PLEkQk5xrP-tkHAGOwIKr4pc5ehhyQ5HMJ","playlistName":"كتاب الرسالة القشيرية (تصوف) - د. يسري جبر","category":"تصوف"},{"id":"NUJyrBpVa9w","title":"تفسير قوله تعالى \"عَفَا اللَّهُ عَنكَ لِمَ أَذِنتَ لَهُمْ\" | أ.د. يسري جبر","publishedAt":"2021-04-03T15:03:11Z","duration":"PT11M29S","thumbnail":"https://i.ytimg.com/vi/NUJyrBpVa9w/mqdefault.jpg","viewCount":"3481","playlistId":"PLEkQk5xrP-tkSGrPLMt1BEmJ54cGWYgtp","playlistName":"كتابُ بِدَعِ التَفَاسِيرِ - أ.د. يسري جبر","category":"متنوع"},{"id":"9Eua1uSocMI","title":"كيف ولد رسول الله ﷺ؟","publishedAt":"2023-09-30T17:00:05Z","duration":"PT14M10S","thumbnail":"https://i.ytimg.com/vi/9Eua1uSocMI/mqdefault.jpg","viewCount":"3477","playlistId":"PLEkQk5xrP-tlArtGpeLWaqNM7h7IDeAVC","playlistName":"خطب الجمعة أ.د. يسري جبر","category":"خطب"},{"id":"g3Ji0Lwlnws","title":"رُؤْيَةُ الله في الآخِرَةِ -    أ.د. يسري جبر","publishedAt":"2019-02-04T14:31:38Z","duration":"PT43M54S","thumbnail":"https://i.ytimg.com/vi/g3Ji0Lwlnws/mqdefault.jpg","viewCount":"3473","playlistId":"PLEkQk5xrP-tlArtGpeLWaqNM7h7IDeAVC","playlistName":"خطب الجمعة أ.د. يسري جبر","category":"خطب"},{"id":"BXq8WyWC94Q","title":"10- تكملة شرح حديث \"إِنَّمَا الأَعْمَالُ بِالنِّيَّاتِ، وَإِنَّمَا لِكُلِّ امْرِئٍ مَا نَوَى\"","publishedAt":"2021-01-27T07:14:19Z","duration":"PT32M10S","thumbnail":"https://i.ytimg.com/vi/BXq8WyWC94Q/mqdefault.jpg","viewCount":"3463","playlistId":"PLEkQk5xrP-tkc9DXvSLguqX5-FYp6ASR4","playlistName":"دليل الفالحين لطرق رياض الصالحين","category":"متنوع"},{"id":"qNgmf4Z1oq4","title":"خطبة عيد الفطر المبارك","publishedAt":"2021-05-13T10:05:05Z","duration":"PT27M","thumbnail":"https://i.ytimg.com/vi/qNgmf4Z1oq4/mqdefault.jpg","viewCount":"3461","playlistId":"PLEkQk5xrP-tm8ZIu74nTOZN9KJUJu416J","playlistName":"مقاطع مُهمَّة (يُسريَّات) أ.د. يسري جبر","category":"متنوع"},{"id":"7yfZ_aSM8Rw","title":"‎ الرسالة القشيرية - المجلس (79) بَابُ الفِرَاسَةِ ٢. أ.د. يسري جبر","publishedAt":"2020-01-26T21:21:36Z","duration":"PT50M9S","thumbnail":"https://i.ytimg.com/vi/7yfZ_aSM8Rw/mqdefault.jpg","viewCount":"3457","playlistId":"PLEkQk5xrP-tkHAGOwIKr4pc5ehhyQ5HMJ","playlistName":"كتاب الرسالة القشيرية (تصوف) - د. يسري جبر","category":"تصوف"},{"id":"3b9rSfBaQYg","title":"20- كيف يكون قلبي خالصا لله؟ | شرح الحكم العطائية","publishedAt":"2025-07-03T18:36:59Z","duration":"PT39M48S","thumbnail":"https://i.ytimg.com/vi/3b9rSfBaQYg/mqdefault.jpg","viewCount":"3452","playlistId":"PLEkQk5xrP-tmf5ToOwmW-q0JwxkapbrMN","playlistName":"شرح كتاب إرشاد البرية إلى بعض معاني الحكم العطائية","category":"متنوع"},{"id":"hekABP-CK0s","title":"34- ما الفرق بين نار التنقية ونار الخلود؟ | شرح مختصر الفتوحات المكية","publishedAt":"2024-12-06T18:15:02Z","duration":"PT46M11S","thumbnail":"https://i.ytimg.com/vi/hekABP-CK0s/mqdefault.jpg","viewCount":"3449","playlistId":"PLEkQk5xrP-tnpkdZki6rPTtMak1bnI5g-","playlistName":"شرح كتاب مختصر الفتوحات المكية المسمى لواقح الأنوار القدسية","category":"متنوع"},{"id":"9HmXrpCR8aI","title":"لا يُخافُ عليك أن تلتبس الطُّرُقُ عليك ، وإنما يُخافُ عليك من غَلَبَةِ الهوى عليك","publishedAt":"2016-12-07T18:42:10Z","duration":"PT6M21S","thumbnail":"https://i.ytimg.com/vi/9HmXrpCR8aI/mqdefault.jpg","viewCount":"3449","playlistId":"PLEkQk5xrP-tkI_meE148wc7V7XHlB0WPb","playlistName":"من الحكم العطائية  د. يسري جبر","category":"متنوع"},{"id":"sf_a8bxKQUo","title":"مظاهر قدرة الله في خلق الإنسان","publishedAt":"2022-12-25T18:00:14Z","duration":"PT10M53S","thumbnail":"https://i.ytimg.com/vi/sf_a8bxKQUo/mqdefault.jpg","viewCount":"3443","playlistId":"PLEkQk5xrP-tlArtGpeLWaqNM7h7IDeAVC","playlistName":"خطب الجمعة أ.د. يسري جبر","category":"خطب"},{"id":"Fg_eRBIY42w","title":"ما أهم مفاتيح الخير وزيادة الرزق؟ | مجالس رمضانية","publishedAt":"2025-03-13T15:30:07Z","duration":"PT27M47S","thumbnail":"https://i.ytimg.com/vi/Fg_eRBIY42w/mqdefault.jpg","viewCount":"3438","playlistId":"PLEkQk5xrP-tkeI_WVPfuoTJO46aVkpaz0","playlistName":"شرح كتاب ميزان الاعتدال لحفظ الدين والأحوال","category":"متنوع"},{"id":"xYydgq0Wgn0","title":"22- شروط التوبة”2” \"عجائب التوبة تشمل الماضي والحاضر والمستقبل\" شرح كتاب دليل الفالحين.","publishedAt":"2021-02-24T09:08:38Z","duration":"PT35M40S","thumbnail":"https://i.ytimg.com/vi/xYydgq0Wgn0/mqdefault.jpg","viewCount":"3433","playlistId":"PLEkQk5xrP-tkc9DXvSLguqX5-FYp6ASR4","playlistName":"دليل الفالحين لطرق رياض الصالحين","category":"متنوع"},{"id":"BbnoLqLPJVs","title":"كيف تتخلص من سوء الظن بالناس؟","publishedAt":"2025-01-29T19:25:09Z","duration":"PT18M56S","thumbnail":"https://i.ytimg.com/vi/BbnoLqLPJVs/mqdefault.jpg","viewCount":"3432","playlistId":"PLEkQk5xrP-tlArtGpeLWaqNM7h7IDeAVC","playlistName":"خطب الجمعة أ.د. يسري جبر","category":"خطب"},{"id":"J2EGWFp7y4s","title":"هل انتشر الإسلام بحد السيف؟","publishedAt":"2021-08-23T18:30:28Z","duration":"PT9M47S","thumbnail":"https://i.ytimg.com/vi/J2EGWFp7y4s/mqdefault.jpg","viewCount":"3429","playlistId":"PLEkQk5xrP-tkGXuZ9atE3k_7it12rUPTs","playlistName":"أسئلة المتابعين","category":"متنوع"},{"id":"PMwJpUTqzJQ","title":"لطائف وإشارات في ذكرى غزوة بدر","publishedAt":"2025-03-16T19:00:15Z","duration":"PT13M2S","thumbnail":"https://i.ytimg.com/vi/PMwJpUTqzJQ/mqdefault.jpg","viewCount":"3427","playlistId":"PLEkQk5xrP-tlArtGpeLWaqNM7h7IDeAVC","playlistName":"خطب الجمعة أ.د. يسري جبر","category":"خطب"},{"id":"j4RySDfYtkA","title":"كيف تجمع بين الرابطة والمحبة والحضرة في طريق التصوف؟","publishedAt":"2025-08-08T18:47:54Z","duration":"PT28M17S","thumbnail":"https://i.ytimg.com/vi/j4RySDfYtkA/mqdefault.jpg","viewCount":"3422","playlistId":"PLEkQk5xrP-tmsEDdkkXMM1ca2-AquQYad","playlistName":"شرح كتاب مدارج الحقيقة في الرابطة عند أهل الطريقة","category":"متنوع"},{"id":"k52w4U53VgM","title":"87- \"وعَظَنَا رسولُ الله ﷺ مَوْعظَةً وجِلَتْ منها القلوبُ، وذَرَفَت منها العيونُ…\" شرح دليل الفالحين","publishedAt":"2021-07-01T18:04:48Z","duration":"PT36M59S","thumbnail":"https://i.ytimg.com/vi/k52w4U53VgM/mqdefault.jpg","viewCount":"3412","playlistId":"PLEkQk5xrP-tkc9DXvSLguqX5-FYp6ASR4","playlistName":"دليل الفالحين لطرق رياض الصالحين","category":"متنوع"},{"id":"OrNvLDXmG0M","title":"أهمية الاجتماع على صلاة الخسوف وكيفيتها","publishedAt":"2023-10-28T14:53:38Z","duration":"PT12M31S","thumbnail":"https://i.ytimg.com/vi/OrNvLDXmG0M/mqdefault.jpg","viewCount":"3408","playlistId":"PLEkQk5xrP-tm8ZIu74nTOZN9KJUJu416J","playlistName":"مقاطع مُهمَّة (يُسريَّات) أ.د. يسري جبر","category":"متنوع"},{"id":"e5-zCuZO2sw","title":"ما هي المعاصي التي تمنع من قبول التوبة؟","publishedAt":"2024-12-02T18:06:40Z","duration":"PT21M39S","thumbnail":"https://i.ytimg.com/vi/e5-zCuZO2sw/mqdefault.jpg","viewCount":"3395","playlistId":"PLEkQk5xrP-tnZyxWbCSqTSMV9BJLUL-zN","playlistName":"شرح كتاب تنوير البصيرة ببيان علامات الكبيرة","category":"متنوع"}],"total":7675,"page":79,"pageSize":24,"totalPages":320}