{"items":[{"id":"oALNF66HP9A","title":"449- النهي عن تعذيب العبد والدَّابَّة والمرأة والولد بغير سبب شرعيِّ أو زائد على قدْر الأدب","publishedAt":"2023-05-18T08:59:01Z","duration":"PT32M29S","thumbnail":"https://i.ytimg.com/vi/oALNF66HP9A/mqdefault.jpg","viewCount":"736","playlistId":"PLEkQk5xrP-tkc9DXvSLguqX5-FYp6ASR4","playlistName":"دليل الفالحين لطرق رياض الصالحين","category":"متنوع"},{"id":"rpb8vSZ-TrM","title":"حديث (١٦٩)  النَّهي عن الصَّلاةِ حينَ طُلوعِ الشَّمسِ وغُرُوبِها.   أ.د. يسري جبر","publishedAt":"2019-05-22T16:43:22Z","duration":"PT29M13S","thumbnail":"https://i.ytimg.com/vi/rpb8vSZ-TrM/mqdefault.jpg","viewCount":"736","playlistId":"PLEkQk5xrP-tnl7vb7KeAoPd5ZlqKKW8KV","playlistName":"شرح كتاب بهجة النفوس أ.د . يسرى جبر","category":"متنوع"},{"id":"OMTO_tj99fs","title":"ردا على الفيديو المقتطع (العبد رب والرب عبد)","publishedAt":"2024-03-11T15:38:22Z","duration":"PT3M14S","thumbnail":"https://i.ytimg.com/vi/OMTO_tj99fs/mqdefault.jpg","viewCount":"736","playlistId":"PLEkQk5xrP-tlG4r6Zxis5AqEnE9aNyJdV","playlistName":"الرد على المعترضين على د. يسري جبر","category":"ردود"},{"id":"ABlqvJ5ru6g","title":"381- كيف نفرق بين الجهاد في سبيل الله والجهاد في الله؟ - شرح دليل الفالحين","publishedAt":"2023-01-13T09:00:09Z","duration":"PT37M11S","thumbnail":"https://i.ytimg.com/vi/ABlqvJ5ru6g/mqdefault.jpg","viewCount":"735","playlistId":"PLEkQk5xrP-tkc9DXvSLguqX5-FYp6ASR4","playlistName":"دليل الفالحين لطرق رياض الصالحين","category":"متنوع"},{"id":"sN87pZYp0Rg","title":"180- قاعدةٌ في الضمائر - شرح الإتقان في علوم القرآن","publishedAt":"2023-12-07T06:51:37Z","duration":"PT34M44S","thumbnail":"https://i.ytimg.com/vi/sN87pZYp0Rg/mqdefault.jpg","viewCount":"735","playlistId":"PLEkQk5xrP-tlPw10KGJKagu7zm4Ry2Tge","playlistName":"شرح الإتقان في علوم القرآن","category":"تفسير"},{"id":"1U0wt6NOFGU","title":"64- بيان الموصول لَفْظًا المفصول مَعْنًى - شرح الإتقان في علوم القرآن","publishedAt":"2023-05-07T08:59:00Z","duration":"PT24M56S","thumbnail":"https://i.ytimg.com/vi/1U0wt6NOFGU/mqdefault.jpg","viewCount":"734","playlistId":"PLEkQk5xrP-tlPw10KGJKagu7zm4Ry2Tge","playlistName":"شرح الإتقان في علوم القرآن","category":"تفسير"},{"id":"bHoxCnc9z7A","title":"284- كراهية الأكل مُتَّكِئًا - شرح دليل الفالحين","publishedAt":"2022-08-04T06:15:02Z","duration":"PT40M49S","thumbnail":"https://i.ytimg.com/vi/bHoxCnc9z7A/mqdefault.jpg","viewCount":"734","playlistId":"PLEkQk5xrP-tkc9DXvSLguqX5-FYp6ASR4","playlistName":"دليل الفالحين لطرق رياض الصالحين","category":"متنوع"},{"id":"ZLD0aV80_pg","title":"(26) سيدنا أبو عبد الله أحمد بن يحيى الجلاء رضي الله عنه   د. يسري جبر","publishedAt":"2018-05-06T19:40:36Z","duration":"PT8M29S","thumbnail":"https://i.ytimg.com/vi/ZLD0aV80_pg/mqdefault.jpg","viewCount":"734","playlistId":"PLEkQk5xrP-tmmI87XkWepRdTpisz2Lfgr","playlistName":"باب في ذكر مشايخ هذه الطريقة من شرح كتاب الرسالة القشيرية","category":"تصوف"},{"id":"-ivPqDwbRUE","title":"شرح صحيح البخاري - كتاب أحاديث الأنبياء تكملة الباب الثاني","publishedAt":"2017-09-26T14:10:26Z","duration":"PT31M56S","thumbnail":"https://i.ytimg.com/vi/-ivPqDwbRUE/mqdefault.jpg","viewCount":"734","playlistId":"PLEkQk5xrP-tlEerGoLa1AFy-2XvQ-sovv","playlistName":"شرح صحيح البخاري - أ.د. يسري جبر (كاملا)","category":"حديث"},{"id":"74qFinaitS0","title":"شرح صحيح البخاري - كتاب بدء الخلق من باب ١٥","publishedAt":"2017-09-20T19:16:00Z","duration":"PT45M41S","thumbnail":"https://i.ytimg.com/vi/74qFinaitS0/mqdefault.jpg","viewCount":"733","playlistId":"PLEkQk5xrP-tlEerGoLa1AFy-2XvQ-sovv","playlistName":"شرح صحيح البخاري - أ.د. يسري جبر (كاملا)","category":"حديث"},{"id":"06cuLnQfC94","title":"شرح صحيح البخاري - كتاب بدء الخلق من باب ١٣","publishedAt":"2017-09-20T19:13:56Z","duration":"PT37M57S","thumbnail":"https://i.ytimg.com/vi/06cuLnQfC94/mqdefault.jpg","viewCount":"733","playlistId":"PLEkQk5xrP-tlEerGoLa1AFy-2XvQ-sovv","playlistName":"شرح صحيح البخاري - أ.د. يسري جبر (كاملا)","category":"حديث"},{"id":"31NnhqK0n8Y","title":"159- معنى (لن) - شرح الإتقان في علوم القرآن","publishedAt":"2023-10-11T05:15:00Z","duration":"PT18M34S","thumbnail":"https://i.ytimg.com/vi/31NnhqK0n8Y/mqdefault.jpg","viewCount":"733","playlistId":"PLEkQk5xrP-tlPw10KGJKagu7zm4Ry2Tge","playlistName":"شرح الإتقان في علوم القرآن","category":"تفسير"},{"id":"H8lmWiXxv_Y","title":"72- أحكام التلاوة (6) - المدّ العارض للسكون - شرح الإتقان في علوم القرآن","publishedAt":"2023-05-15T08:59:00Z","duration":"PT20M41S","thumbnail":"https://i.ytimg.com/vi/H8lmWiXxv_Y/mqdefault.jpg","viewCount":"732","playlistId":"PLEkQk5xrP-tlPw10KGJKagu7zm4Ry2Tge","playlistName":"شرح الإتقان في علوم القرآن","category":"تفسير"},{"id":"2wadLsWWlsk","title":"422- بركة الطعام في منزل سيدنا أبي بكر _رضيَ اللهُ عنه_ وفيه كَرامةٌ ظاهرةٌ له _رضي الله عنه_","publishedAt":"2023-04-04T05:25:00Z","duration":"PT27M5S","thumbnail":"https://i.ytimg.com/vi/2wadLsWWlsk/mqdefault.jpg","viewCount":"732","playlistId":"PLEkQk5xrP-tkc9DXvSLguqX5-FYp6ASR4","playlistName":"دليل الفالحين لطرق رياض الصالحين","category":"متنوع"},{"id":"FtYYqopfTzk","title":"355- فضل التبكير إلى صلاة الجمعة وساعة الإجابة فيها - شرح دليل الفالحين","publishedAt":"2022-12-08T09:00:05Z","duration":"PT38M28S","thumbnail":"https://i.ytimg.com/vi/FtYYqopfTzk/mqdefault.jpg","viewCount":"732","playlistId":"PLEkQk5xrP-tkc9DXvSLguqX5-FYp6ASR4","playlistName":"دليل الفالحين لطرق رياض الصالحين","category":"متنوع"},{"id":"3xLE5MSPPZc","title":"الاختزال (40) الإيجاز في بعض الأمثلة القرآنية - شرح البرهان في علوم القرآن","publishedAt":"2021-09-06T19:26:10Z","duration":"PT29M15S","thumbnail":"https://i.ytimg.com/vi/3xLE5MSPPZc/mqdefault.jpg","viewCount":"732","playlistId":"PLEkQk5xrP-tnW3iBL7HkKziOFCFZbTlf0","playlistName":"شرح البرهان في علوم القرآن - أ.د. يسري جبر","category":"تفسير"},{"id":"KF7vbjl0LKU","title":"آداب طالب العلم","publishedAt":"2015-12-10T20:21:09Z","duration":"PT1H9M40S","thumbnail":"https://i.ytimg.com/vi/KF7vbjl0LKU/mqdefault.jpg","viewCount":"731","playlistId":"PLEkQk5xrP-tmJzNvLntpzW0uPanPzxA0c","playlistName":"لقاءات ومحاضرات","category":"متنوع"},{"id":"VBuNqyuuMpc","title":"182- ضمير الشأن والقصة - شرح الإتقان في علوم القرآن","publishedAt":"2023-12-12T06:49:05Z","duration":"PT28M6S","thumbnail":"https://i.ytimg.com/vi/VBuNqyuuMpc/mqdefault.jpg","viewCount":"731","playlistId":"PLEkQk5xrP-tlPw10KGJKagu7zm4Ry2Tge","playlistName":"شرح الإتقان في علوم القرآن","category":"تفسير"},{"id":"_c2jNOXMRN8","title":"86- غريب القرآن - شرح الإتقان في علوم القرآن","publishedAt":"2023-05-30T08:59:00Z","duration":"PT17M59S","thumbnail":"https://i.ytimg.com/vi/_c2jNOXMRN8/mqdefault.jpg","viewCount":"730","playlistId":"PLEkQk5xrP-tlPw10KGJKagu7zm4Ry2Tge","playlistName":"شرح الإتقان في علوم القرآن","category":"تفسير"},{"id":"SZy3jhELfQQ","title":"الأسلوب الرابع: القلب - البرهان في علوم القرآن","publishedAt":"2021-10-24T06:19:38Z","duration":"PT32M8S","thumbnail":"https://i.ytimg.com/vi/SZy3jhELfQQ/mqdefault.jpg","viewCount":"730","playlistId":"PLEkQk5xrP-tnW3iBL7HkKziOFCFZbTlf0","playlistName":"شرح البرهان في علوم القرآن - أ.د. يسري جبر","category":"تفسير"},{"id":"OGk41KT-19s","title":"389- من أنفقَ نفقةً في سبيلِ اللَّهِ كتبت لَهُ بسبعمائةِ ضعفٍ","publishedAt":"2023-01-23T09:00:11Z","duration":"PT33M34S","thumbnail":"https://i.ytimg.com/vi/OGk41KT-19s/mqdefault.jpg","viewCount":"730","playlistId":"PLEkQk5xrP-tkc9DXvSLguqX5-FYp6ASR4","playlistName":"دليل الفالحين لطرق رياض الصالحين","category":"متنوع"},{"id":"ZI4rGOleVGw","title":"قراءة القرآن (من آية ٢٧٢ سورة البقرة)","publishedAt":"2016-05-30T19:21:32Z","duration":"PT28M45S","thumbnail":"https://i.ytimg.com/vi/ZI4rGOleVGw/mqdefault.jpg","viewCount":"730","playlistId":"PLEkQk5xrP-tnmTYsyW6xNdyfhPq0Bhrhj","playlistName":"مقرأة الفجر - القُرْآنُ الكَرِيمُ - خَتْمَةُ التَّدَبُّرِ  أ.د. يسري جبر","category":"متنوع"},{"id":"d1YN2LhvZec","title":"قراءة القرآن (من آية ٢٥٣ سورة البقرة)","publishedAt":"2016-05-25T02:39:50Z","duration":"PT17M48S","thumbnail":"https://i.ytimg.com/vi/d1YN2LhvZec/mqdefault.jpg","viewCount":"730","playlistId":"PLEkQk5xrP-tnmTYsyW6xNdyfhPq0Bhrhj","playlistName":"مقرأة الفجر - القُرْآنُ الكَرِيمُ - خَتْمَةُ التَّدَبُّرِ  أ.د. يسري جبر","category":"متنوع"},{"id":"s5lG9TPPodE","title":"مقرأة سورة الجن من آية ١٦","publishedAt":"2019-05-22T08:12:40Z","duration":"PT27M8S","thumbnail":"https://i.ytimg.com/vi/s5lG9TPPodE/mqdefault.jpg","viewCount":"730","playlistId":"PLEkQk5xrP-tnmTYsyW6xNdyfhPq0Bhrhj","playlistName":"مقرأة الفجر - القُرْآنُ الكَرِيمُ - خَتْمَةُ التَّدَبُّرِ  أ.د. يسري جبر","category":"متنوع"}],"total":7670,"page":181,"pageSize":24,"totalPages":320}