{"items":[{"id":"Elbh4B9hXxw","title":"شرح صحيح البخاري - كتاب البيوع من باب ٣٣","publishedAt":"2017-04-27T11:34:02Z","duration":"PT33M51S","thumbnail":"https://i.ytimg.com/vi/Elbh4B9hXxw/mqdefault.jpg","viewCount":"793","playlistId":"PLEkQk5xrP-tlEerGoLa1AFy-2XvQ-sovv","playlistName":"شرح صحيح البخاري - أ.د. يسري جبر (كاملا)","category":"حديث"},{"id":"9nsBzOa8Cgs","title":"شرح صحيح البخاري - كتاب البيوع من باب ٩٦","publishedAt":"2017-05-04T15:27:43Z","duration":"PT40M27S","thumbnail":"https://i.ytimg.com/vi/9nsBzOa8Cgs/mqdefault.jpg","viewCount":"792","playlistId":"PLEkQk5xrP-tlEerGoLa1AFy-2XvQ-sovv","playlistName":"شرح صحيح البخاري - أ.د. يسري جبر (كاملا)","category":"حديث"},{"id":"OddD4KGY9bI","title":"إطلاق اسم الكُلّ على الجزء","publishedAt":"2020-10-13T07:42:29Z","duration":"PT26M31S","thumbnail":"https://i.ytimg.com/vi/OddD4KGY9bI/mqdefault.jpg","viewCount":"792","playlistId":"PLEkQk5xrP-tnW3iBL7HkKziOFCFZbTlf0","playlistName":"شرح البرهان في علوم القرآن - أ.د. يسري جبر","category":"تفسير"},{"id":"lF3pKF1bpHQ","title":"قد يكون اللفظ مقتضيا لأمر ويُحمل على غيره","publishedAt":"2020-09-09T05:12:11Z","duration":"PT18M7S","thumbnail":"https://i.ytimg.com/vi/lF3pKF1bpHQ/mqdefault.jpg","viewCount":"791","playlistId":"PLEkQk5xrP-tnW3iBL7HkKziOFCFZbTlf0","playlistName":"شرح البرهان في علوم القرآن - أ.د. يسري جبر","category":"تفسير"},{"id":"CoLSHS3fRBs","title":"هَدْمُ الإِنسَانِ أَخْطَرُ مِنْ هَدْمِ البُنْيَانِ.   أ.د. يسري جبر","publishedAt":"2019-01-14T20:29:54Z","duration":"PT29M28S","thumbnail":"https://i.ytimg.com/vi/CoLSHS3fRBs/mqdefault.jpg","viewCount":"791","playlistId":"PLEkQk5xrP-tlArtGpeLWaqNM7h7IDeAVC","playlistName":"خطب الجمعة أ.د. يسري جبر","category":"خطب"},{"id":"V_hcBo6biSA","title":"حديث (١٦١) خلق الإنسان في بطن أمه ونفخ الروح فيه.   أ. د. يسري جبر","publishedAt":"2019-05-15T21:40:58Z","duration":"PT18M7S","thumbnail":"https://i.ytimg.com/vi/V_hcBo6biSA/mqdefault.jpg","viewCount":"791","playlistId":"PLEkQk5xrP-tnl7vb7KeAoPd5ZlqKKW8KV","playlistName":"شرح كتاب بهجة النفوس أ.د . يسرى جبر","category":"متنوع"},{"id":"-5Z-Rp8Hyhg","title":"شرح صحيح البخاري - كتاب جزاء الصيد من أوله","publishedAt":"2017-03-24T14:14:46Z","duration":"PT38M14S","thumbnail":"https://i.ytimg.com/vi/-5Z-Rp8Hyhg/mqdefault.jpg","viewCount":"791","playlistId":"PLEkQk5xrP-tlEerGoLa1AFy-2XvQ-sovv","playlistName":"شرح صحيح البخاري - أ.د. يسري جبر (كاملا)","category":"حديث"},{"id":"52xe17EYIJ0","title":"شرح صحيح البخاري - كتاب المظالم من باب ٢١","publishedAt":"2017-05-25T15:54:45Z","duration":"PT44M13S","thumbnail":"https://i.ytimg.com/vi/52xe17EYIJ0/mqdefault.jpg","viewCount":"791","playlistId":"PLEkQk5xrP-tlEerGoLa1AFy-2XvQ-sovv","playlistName":"شرح صحيح البخاري - أ.د. يسري جبر (كاملا)","category":"حديث"},{"id":"U03-YMmtg-Y","title":"191- قاعدةٌ في السؤال والجواب - شرح الإتقان في علوم القرآن","publishedAt":"2024-01-01T07:00:17Z","duration":"PT25M59S","thumbnail":"https://i.ytimg.com/vi/U03-YMmtg-Y/mqdefault.jpg","viewCount":"791","playlistId":"PLEkQk5xrP-tlPw10KGJKagu7zm4Ry2Tge","playlistName":"شرح الإتقان في علوم القرآن","category":"تفسير"},{"id":"NRfPLh4XuX8","title":"إجازة حديث الرحمة المسلسل بالأولية","publishedAt":"2025-09-27T19:30:02Z","duration":"PT4M29S","thumbnail":"https://i.ytimg.com/vi/NRfPLh4XuX8/mqdefault.jpg","viewCount":"791","playlistId":"PLEkQk5xrP-tmsEDdkkXMM1ca2-AquQYad","playlistName":"شرح كتاب مدارج الحقيقة في الرابطة عند أهل الطريقة","category":"متنوع"},{"id":"ssPbVaGlbX0","title":"شرح صحيح البخاري   كتاب الزكاة من باب ٧١","publishedAt":"2017-02-25T16:08:20Z","duration":"PT26M17S","thumbnail":"https://i.ytimg.com/vi/ssPbVaGlbX0/mqdefault.jpg","viewCount":"791","playlistId":"PLEkQk5xrP-tlEerGoLa1AFy-2XvQ-sovv","playlistName":"شرح صحيح البخاري - أ.د. يسري جبر (كاملا)","category":"حديث"},{"id":"wAJlnlCk-gk","title":"75- أهمّية تجويد القرآن - شرح الإتقان في علوم القرآن","publishedAt":"2023-05-19T05:00:33Z","duration":"PT33M41S","thumbnail":"https://i.ytimg.com/vi/wAJlnlCk-gk/mqdefault.jpg","viewCount":"791","playlistId":"PLEkQk5xrP-tlPw10KGJKagu7zm4Ry2Tge","playlistName":"شرح الإتقان في علوم القرآن","category":"تفسير"},{"id":"yRpd3k51M_4","title":"شرح صحيح البخاري - كتاب أحاديث الأنبياء من باب ١٠","publishedAt":"2017-09-30T21:12:57Z","duration":"PT37M4S","thumbnail":"https://i.ytimg.com/vi/yRpd3k51M_4/mqdefault.jpg","viewCount":"790","playlistId":"PLEkQk5xrP-tlEerGoLa1AFy-2XvQ-sovv","playlistName":"شرح صحيح البخاري - أ.د. يسري جبر (كاملا)","category":"حديث"},{"id":"a0QARaqmAGQ","title":"254- الإيغال وهو الإمعان - شرح الإتقان في علوم القرآن","publishedAt":"2024-09-11T05:55:52Z","duration":"PT28M40S","thumbnail":"https://i.ytimg.com/vi/a0QARaqmAGQ/mqdefault.jpg","viewCount":"790","playlistId":"PLEkQk5xrP-tlPw10KGJKagu7zm4Ry2Tge","playlistName":"شرح الإتقان في علوم القرآن","category":"تفسير"},{"id":"IC6sD9lwZVQ","title":"288- استحباب كون ساقي القوم آخرهم شُربًا - شرح دليل الفالحين","publishedAt":"2022-08-18T18:45:01Z","duration":"PT35M14S","thumbnail":"https://i.ytimg.com/vi/IC6sD9lwZVQ/mqdefault.jpg","viewCount":"789","playlistId":"PLEkQk5xrP-tkc9DXvSLguqX5-FYp6ASR4","playlistName":"دليل الفالحين لطرق رياض الصالحين","category":"متنوع"},{"id":"Ct_X7EWiXBE","title":"ختام شرح سنن الإمام الدارمي رضي الله تعالى عنه - أ.د. يسري جبر","publishedAt":"2019-11-26T19:34:21Z","duration":"PT30M28S","thumbnail":"https://i.ytimg.com/vi/Ct_X7EWiXBE/mqdefault.jpg","viewCount":"789","playlistId":"PLEkQk5xrP-tmAg-FuWjY057X_h5NmGmAa","playlistName":"شرح سنن الدارمي - أ.د. يسري جبر (كاملا)","category":"متنوع"},{"id":"G8AVAKp4Na0","title":"قراءة القرآن (من آية ٢٤٣ سورة البقرة)","publishedAt":"2016-05-23T20:11:11Z","duration":"PT31M15S","thumbnail":"https://i.ytimg.com/vi/G8AVAKp4Na0/mqdefault.jpg","viewCount":"789","playlistId":"PLEkQk5xrP-tnmTYsyW6xNdyfhPq0Bhrhj","playlistName":"مقرأة الفجر - القُرْآنُ الكَرِيمُ - خَتْمَةُ التَّدَبُّرِ  أ.د. يسري جبر","category":"متنوع"},{"id":"sOWGLHoLFZA","title":"152- \"أَبَرُّ البِرِّ أنْ يَصِلَ الرَّجُلُ وُدَّ أبِيهِ\" - شرح دليل الفالحين","publishedAt":"2021-10-31T18:31:31Z","duration":"PT44M47S","thumbnail":"https://i.ytimg.com/vi/sOWGLHoLFZA/mqdefault.jpg","viewCount":"788","playlistId":"PLEkQk5xrP-tkc9DXvSLguqX5-FYp6ASR4","playlistName":"دليل الفالحين لطرق رياض الصالحين","category":"متنوع"},{"id":"lF_stBts0ak","title":"(32) سيدنا أبو عُبيد البُسْرِي رضي الله عنه د. يسري جبر","publishedAt":"2018-08-07T18:32:37Z","duration":"PT4M47S","thumbnail":"https://i.ytimg.com/vi/lF_stBts0ak/mqdefault.jpg","viewCount":"788","playlistId":"PLEkQk5xrP-tmmI87XkWepRdTpisz2Lfgr","playlistName":"باب في ذكر مشايخ هذه الطريقة من شرح كتاب الرسالة القشيرية","category":"تصوف"},{"id":"pH3vYlv4Aoc","title":"مقرأة سورة الرحمن من آية ٢٩","publishedAt":"2019-03-06T15:44:57Z","duration":"PT23M6S","thumbnail":"https://i.ytimg.com/vi/pH3vYlv4Aoc/mqdefault.jpg","viewCount":"788","playlistId":"PLEkQk5xrP-tnmTYsyW6xNdyfhPq0Bhrhj","playlistName":"مقرأة الفجر - القُرْآنُ الكَرِيمُ - خَتْمَةُ التَّدَبُّرِ  أ.د. يسري جبر","category":"متنوع"},{"id":"53XM1qfTsHM","title":"شرح صلوات سيدى أحمد الدردير رضي الله عنه - حرف اللام والميم والنون","publishedAt":"2014-02-21T20:57:27Z","duration":"PT38M9S","thumbnail":"https://i.ytimg.com/vi/53XM1qfTsHM/mqdefault.jpg","viewCount":"788","playlistId":"PLEkQk5xrP-tlXZQuhEiJGJka1QcRw7fbW","playlistName":"شرح الصلوات الدرديرية لسيدي أحمد الدردير رضي الله عنه","category":"ردود"},{"id":"RCqwGssFptA","title":"162- معنى (ليت - ليس)- شرح الإتقان في علوم القرآن","publishedAt":"2023-10-19T05:30:07Z","duration":"PT35M38S","thumbnail":"https://i.ytimg.com/vi/RCqwGssFptA/mqdefault.jpg","viewCount":"788","playlistId":"PLEkQk5xrP-tlPw10KGJKagu7zm4Ry2Tge","playlistName":"شرح الإتقان في علوم القرآن","category":"تفسير"},{"id":"23yPXZBqlQ4","title":"63- كيفية الوقْفِ على أواخر الكَلِم - شرح الإتقان في علوم القرآن","publishedAt":"2023-05-06T08:59:00Z","duration":"PT25M52S","thumbnail":"https://i.ytimg.com/vi/23yPXZBqlQ4/mqdefault.jpg","viewCount":"787","playlistId":"PLEkQk5xrP-tlPw10KGJKagu7zm4Ry2Tge","playlistName":"شرح الإتقان في علوم القرآن","category":"تفسير"},{"id":"Eqw5fw_Xsjo","title":"الاستقامة  د.يسري جبر","publishedAt":"2016-08-17T19:14:06Z","duration":"PT39M21S","thumbnail":"https://i.ytimg.com/vi/Eqw5fw_Xsjo/mqdefault.jpg","viewCount":"787","playlistId":"PLEkQk5xrP-tlArtGpeLWaqNM7h7IDeAVC","playlistName":"خطب الجمعة أ.د. يسري جبر","category":"خطب"}],"total":7670,"page":174,"pageSize":24,"totalPages":320}