{"items":[{"id":"5pwRgp9NrdA","title":"شرح كتاب نوراليقين في سيرة سيد المرسلين - المجلس السادس والعشرون ( غزوة حمراء الأسد ) د.يسري جبر","publishedAt":"2017-10-24T20:23:18Z","duration":"PT46M11S","thumbnail":"https://i.ytimg.com/vi/5pwRgp9NrdA/mqdefault.jpg","viewCount":"16721","playlistId":"PLEkQk5xrP-tl2t4NQx1IhKnAJCMzF0Nli","playlistName":"شرح كتاب نور اليقين في سيرة سيد المرسلين   د. يسري جبر","category":"سيرة"},{"id":"_nPFnPflZZE","title":"ما هو أسلوب التربية الصحيحة للأبناء؟","publishedAt":"2021-02-03T18:56:44Z","duration":"PT13M30S","thumbnail":"https://i.ytimg.com/vi/_nPFnPflZZE/mqdefault.jpg","viewCount":"16713","playlistId":"PLEkQk5xrP-tm8ZIu74nTOZN9KJUJu416J","playlistName":"مقاطع مُهمَّة (يُسريَّات) أ.د. يسري جبر","category":"متنوع"},{"id":"mxBSRzEeFxs","title":"ازاي تتحرر من إدمان التليفون والسوشيال ميديا؟","publishedAt":"2025-03-08T18:30:42Z","duration":"PT8M51S","thumbnail":"https://i.ytimg.com/vi/mxBSRzEeFxs/mqdefault.jpg","viewCount":"16708","playlistId":"PLEkQk5xrP-tm8ZIu74nTOZN9KJUJu416J","playlistName":"مقاطع مُهمَّة (يُسريَّات) أ.د. يسري جبر","category":"متنوع"},{"id":"5zdVVADYWfA","title":"علوم الطاقة بين الحقيقة والخرافات وحكم العلاج بالطاقة؟","publishedAt":"2025-05-28T19:54:31Z","duration":"PT41M13S","thumbnail":"https://i.ytimg.com/vi/5zdVVADYWfA/mqdefault.jpg","viewCount":"16560","playlistId":"PLEkQk5xrP-tlArtGpeLWaqNM7h7IDeAVC","playlistName":"خطب الجمعة أ.د. يسري جبر","category":"خطب"},{"id":"OBh1XwJJuv8","title":"كيف تعرف أولياء الله الصالحين؟","publishedAt":"2024-10-17T18:46:19Z","duration":"PT18M36S","thumbnail":"https://i.ytimg.com/vi/OBh1XwJJuv8/mqdefault.jpg","viewCount":"16532","playlistId":"PLEkQk5xrP-tm8ZIu74nTOZN9KJUJu416J","playlistName":"مقاطع مُهمَّة (يُسريَّات) أ.د. يسري جبر","category":"متنوع"},{"id":"6z3crdLFIAY","title":"لا يَسْتَحْقِرُ الوِرْدَ إلا جَهُول","publishedAt":"2016-12-14T21:24:16Z","duration":"PT11M7S","thumbnail":"https://i.ytimg.com/vi/6z3crdLFIAY/mqdefault.jpg","viewCount":"16527","playlistId":"PLEkQk5xrP-tkI_meE148wc7V7XHlB0WPb","playlistName":"من الحكم العطائية  د. يسري جبر","category":"متنوع"},{"id":"3KzEJqSphJY","title":"فوائد الابتلاء د. يسري جبر","publishedAt":"2018-10-29T20:27:01Z","duration":"PT42M54S","thumbnail":"https://i.ytimg.com/vi/3KzEJqSphJY/mqdefault.jpg","viewCount":"16519","playlistId":"PLEkQk5xrP-tlArtGpeLWaqNM7h7IDeAVC","playlistName":"خطب الجمعة أ.د. يسري جبر","category":"خطب"},{"id":"HTw6em2Bulk","title":"هل فوائد البنوك حلال؟","publishedAt":"2022-10-10T19:00:06Z","duration":"PT9M47S","thumbnail":"https://i.ytimg.com/vi/HTw6em2Bulk/mqdefault.jpg","viewCount":"16509","playlistId":"PLEkQk5xrP-tm8ZIu74nTOZN9KJUJu416J","playlistName":"مقاطع مُهمَّة (يُسريَّات) أ.د. يسري جبر","category":"متنوع"},{"id":"f9_4jXTsP40","title":"ما سبب الوقوف عند ذكر لفظ الجلالة الله؟","publishedAt":"2022-12-12T18:00:26Z","duration":"PT8M39S","thumbnail":"https://i.ytimg.com/vi/f9_4jXTsP40/mqdefault.jpg","viewCount":"16425","playlistId":"PLEkQk5xrP-tkGXuZ9atE3k_7it12rUPTs","playlistName":"أسئلة المتابعين","category":"متنوع"},{"id":"N2QvIGvOrwk","title":"أسرار الإسراء والمعراج!","publishedAt":"2021-03-10T18:30:00Z","duration":"PT17M48S","thumbnail":"https://i.ytimg.com/vi/N2QvIGvOrwk/mqdefault.jpg","viewCount":"16394","playlistId":"PLEkQk5xrP-tlArtGpeLWaqNM7h7IDeAVC","playlistName":"خطب الجمعة أ.د. يسري جبر","category":"خطب"},{"id":"UGZirCHDbq8","title":"أنا زعلان من ربنا كنت متعشم فيه وحسيت انه خذلني في مستقبلي أعمل ايه؟","publishedAt":"2023-10-07T18:00:18Z","duration":"PT12M3S","thumbnail":"https://i.ytimg.com/vi/UGZirCHDbq8/mqdefault.jpg","viewCount":"16375","playlistId":"PLEkQk5xrP-tkGXuZ9atE3k_7it12rUPTs","playlistName":"أسئلة المتابعين","category":"متنوع"},{"id":"NUBNd1tCAc0","title":"معنى البركة والمدد","publishedAt":"2021-04-15T19:15:00Z","duration":"PT23M","thumbnail":"https://i.ytimg.com/vi/NUBNd1tCAc0/mqdefault.jpg","viewCount":"16347","playlistId":"PLEkQk5xrP-tm8ZIu74nTOZN9KJUJu416J","playlistName":"مقاطع مُهمَّة (يُسريَّات) أ.د. يسري جبر","category":"متنوع"},{"id":"gnpZk3tIsmE","title":"رسالة إلى كل شاتم ومعترض!","publishedAt":"2022-06-03T19:06:15Z","duration":"PT16M11S","thumbnail":"https://i.ytimg.com/vi/gnpZk3tIsmE/mqdefault.jpg","viewCount":"16322","playlistId":"PLEkQk5xrP-tm8ZIu74nTOZN9KJUJu416J","playlistName":"مقاطع مُهمَّة (يُسريَّات) أ.د. يسري جبر","category":"متنوع"},{"id":"v8nmIPSVXn0","title":"مدينة الشهداء البهنسا (بقيع مصر)","publishedAt":"2014-04-27T15:19:57Z","duration":"PT1H17M28S","thumbnail":"https://i.ytimg.com/vi/v8nmIPSVXn0/mqdefault.jpg","viewCount":"16282","playlistId":"PLEkQk5xrP-tmJzNvLntpzW0uPanPzxA0c","playlistName":"لقاءات ومحاضرات","category":"متنوع"},{"id":"VxE9WX8IJZM","title":"ماذا أفعل حتى يزيد حبي للنبي ﷺ؟","publishedAt":"2023-11-30T16:30:20Z","duration":"PT9M28S","thumbnail":"https://i.ytimg.com/vi/VxE9WX8IJZM/mqdefault.jpg","viewCount":"16277","playlistId":"PLEkQk5xrP-tkGXuZ9atE3k_7it12rUPTs","playlistName":"أسئلة المتابعين","category":"متنوع"},{"id":"7ngJ-fHxYOs","title":"كيفية التغلب على النفس الأمارة بالسوء؟ | مجالس رمضانية","publishedAt":"2024-04-08T11:00:06Z","duration":"PT34M43S","thumbnail":"https://i.ytimg.com/vi/7ngJ-fHxYOs/mqdefault.jpg","viewCount":"16209","playlistId":"PLEkQk5xrP-tkeI_WVPfuoTJO46aVkpaz0","playlistName":"شرح كتاب ميزان الاعتدال لحفظ الدين والأحوال","category":"متنوع"},{"id":"X3Se7tKcMFA","title":"الرسول ﷺ له التصريف في الأكوان والأحكام...  أ.د. يسري جبر","publishedAt":"2018-06-16T16:12:00Z","duration":"PT9M32S","thumbnail":"https://i.ytimg.com/vi/X3Se7tKcMFA/mqdefault.jpg","viewCount":"16199","playlistId":"PLEkQk5xrP-tm8ZIu74nTOZN9KJUJu416J","playlistName":"مقاطع مُهمَّة (يُسريَّات) أ.د. يسري جبر","category":"متنوع"},{"id":"LZyVWCkYedc","title":"8- الفرق بين الإنس والجن وأيهما أقوى | شرح مختصر الفتوحات المكية","publishedAt":"2024-02-18T17:30:02Z","duration":"PT56M1S","thumbnail":"https://i.ytimg.com/vi/LZyVWCkYedc/mqdefault.jpg","viewCount":"16180","playlistId":"PLEkQk5xrP-tnpkdZki6rPTtMak1bnI5g-","playlistName":"شرح كتاب مختصر الفتوحات المكية المسمى لواقح الأنوار القدسية","category":"متنوع"},{"id":"Kjf2bOlxGOw","title":"1- شرح كتاب \"فتح القريب المجيب في شرح ألفاظ التقريب\"( فقه شافعيّ) - المقدمة","publishedAt":"2021-09-20T06:55:15Z","duration":"PT1H34M9S","thumbnail":"https://i.ytimg.com/vi/Kjf2bOlxGOw/mqdefault.jpg","viewCount":"16145","playlistId":"PLEkQk5xrP-tkXuPs-0sXfWQDWzBKmcjWN","playlistName":"\"فتح القريب المجيب في شرح ألفاظ التقريب\"( فقه شافعيّ)  أ. د. يسري جبر","category":"فقه"},{"id":"173t4XewDZA","title":"حكم زيارة قبور الصالحين وطلب المدد منهم","publishedAt":"2023-01-12T18:00:00Z","duration":"PT10M25S","thumbnail":"https://i.ytimg.com/vi/173t4XewDZA/mqdefault.jpg","viewCount":"16132","playlistId":"PLEkQk5xrP-tkGXuZ9atE3k_7it12rUPTs","playlistName":"أسئلة المتابعين","category":"متنوع"},{"id":"Kob8B79vFW0","title":"هل اقترب ظهور المسيح الدجال وما هي فتنته؟","publishedAt":"2023-02-01T18:00:08Z","duration":"PT10M26S","thumbnail":"https://i.ytimg.com/vi/Kob8B79vFW0/mqdefault.jpg","viewCount":"16122","playlistId":"PLEkQk5xrP-tlArtGpeLWaqNM7h7IDeAVC","playlistName":"خطب الجمعة أ.د. يسري جبر","category":"خطب"},{"id":"CAYMh_vAA2U","title":"بعض أسرار المولد الشريف   د.يسري جبر","publishedAt":"2017-04-21T21:07:20Z","duration":"PT43M5S","thumbnail":"https://i.ytimg.com/vi/CAYMh_vAA2U/mqdefault.jpg","viewCount":"16080","playlistId":"PLEkQk5xrP-tlArtGpeLWaqNM7h7IDeAVC","playlistName":"خطب الجمعة أ.د. يسري جبر","category":"خطب"},{"id":"zzLtFeqcCs4","title":"كيف يوافق اختيارك اختيار الله؟","publishedAt":"2020-11-18T18:21:40Z","duration":"PT4M39S","thumbnail":"https://i.ytimg.com/vi/zzLtFeqcCs4/mqdefault.jpg","viewCount":"16028","playlistId":"PLEkQk5xrP-tm8ZIu74nTOZN9KJUJu416J","playlistName":"مقاطع مُهمَّة (يُسريَّات) أ.د. يسري جبر","category":"متنوع"},{"id":"w5YR4VtWmtI","title":"ما يجده السائر في طريقه إلى الله","publishedAt":"2020-05-31T16:26:47Z","duration":"PT6M43S","thumbnail":"https://i.ytimg.com/vi/w5YR4VtWmtI/mqdefault.jpg","viewCount":"15967","playlistId":"PLEkQk5xrP-tm8ZIu74nTOZN9KJUJu416J","playlistName":"مقاطع مُهمَّة (يُسريَّات) أ.د. يسري جبر","category":"متنوع"}],"total":7670,"page":18,"pageSize":24,"totalPages":320}