{"items":[{"id":"Aqh-5osgNV0","title":"أوجب عليك وجود خدمته، وما أوجب عليك في الحقيقة إلا دخول جنته.","publishedAt":"2017-09-01T20:50:44Z","duration":"PT9M17S","thumbnail":"https://i.ytimg.com/vi/Aqh-5osgNV0/mqdefault.jpg","viewCount":"672","playlistId":"PLEkQk5xrP-tkI_meE148wc7V7XHlB0WPb","playlistName":"من الحكم العطائية  د. يسري جبر","category":"متنوع"},{"id":"qIUV29D2JAQ","title":"مقرأة سورة الحشر من أولها","publishedAt":"2019-03-31T14:12:22Z","duration":"PT25M55S","thumbnail":"https://i.ytimg.com/vi/qIUV29D2JAQ/mqdefault.jpg","viewCount":"672","playlistId":"PLEkQk5xrP-tnmTYsyW6xNdyfhPq0Bhrhj","playlistName":"مقرأة الفجر - القُرْآنُ الكَرِيمُ - خَتْمَةُ التَّدَبُّرِ  أ.د. يسري جبر","category":"متنوع"},{"id":"JQZuddACh0Q","title":"12- الْقِرَاءَةِ خَلْفَ الإِمَامِ فِيمَا لاَ يَجْهَرُ فِيهِ بِالْقِرَاءَةِالصلاة ك الموطأ د يسري جبر","publishedAt":"2016-05-08T12:31:00Z","duration":"PT54M16S","thumbnail":"https://i.ytimg.com/vi/JQZuddACh0Q/mqdefault.jpg","viewCount":"671","playlistId":"PLEkQk5xrP-tnC6BRuqMjyO-484iqXeg0o","playlistName":"شرح كتاب الموطأ للإمام مالك","category":"متنوع"},{"id":"odrc0nN2BS4","title":"قراءة القرآن (من آية ١٨ سورة آل عمران)","publishedAt":"2016-06-07T08:19:01Z","duration":"PT14M44S","thumbnail":"https://i.ytimg.com/vi/odrc0nN2BS4/mqdefault.jpg","viewCount":"671","playlistId":"PLEkQk5xrP-tnmTYsyW6xNdyfhPq0Bhrhj","playlistName":"مقرأة الفجر - القُرْآنُ الكَرِيمُ - خَتْمَةُ التَّدَبُّرِ  أ.د. يسري جبر","category":"متنوع"},{"id":"cxACcwSGwvU","title":"الاستعارة قِسْمٌ من أقسام المجاز - شرح البرهان في علوم القرآن","publishedAt":"2022-02-13T08:51:20Z","duration":"PT31M29S","thumbnail":"https://i.ytimg.com/vi/cxACcwSGwvU/mqdefault.jpg","viewCount":"671","playlistId":"PLEkQk5xrP-tnW3iBL7HkKziOFCFZbTlf0","playlistName":"شرح البرهان في علوم القرآن - أ.د. يسري جبر","category":"تفسير"},{"id":"HUk5RSTNxu0","title":"502-قاعدة في قوله تعالى: فَمَنْ أَظْلَمُ مِمَّنِ افْتَرَىٰ عَلَى اللَّهِ كَذِبًا","publishedAt":"2022-05-01T05:00:04Z","duration":"PT23M13S","thumbnail":"https://i.ytimg.com/vi/HUk5RSTNxu0/mqdefault.jpg","viewCount":"671","playlistId":"PLEkQk5xrP-tnW3iBL7HkKziOFCFZbTlf0","playlistName":"شرح البرهان في علوم القرآن - أ.د. يسري جبر","category":"تفسير"},{"id":"coq1V_cD880","title":"مقرأة سورة البلد من أولها","publishedAt":"2019-07-21T08:16:27Z","duration":"PT18M1S","thumbnail":"https://i.ytimg.com/vi/coq1V_cD880/mqdefault.jpg","viewCount":"671","playlistId":"PLEkQk5xrP-tnmTYsyW6xNdyfhPq0Bhrhj","playlistName":"مقرأة الفجر - القُرْآنُ الكَرِيمُ - خَتْمَةُ التَّدَبُّرِ  أ.د. يسري جبر","category":"متنوع"},{"id":"DfELSHLXOSA","title":"شرح صحيح البخاري - كتاب الشهادات من باب ١٦","publishedAt":"2017-06-26T18:48:24Z","duration":"PT27M1S","thumbnail":"https://i.ytimg.com/vi/DfELSHLXOSA/mqdefault.jpg","viewCount":"670","playlistId":"PLEkQk5xrP-tlEerGoLa1AFy-2XvQ-sovv","playlistName":"شرح صحيح البخاري - أ.د. يسري جبر (كاملا)","category":"حديث"},{"id":"HndA14EuBr0","title":"478- حكم إحداد المرأة على ميت فوق ثلاثة أيام - شرح دليل الفالحين","publishedAt":"2023-06-17T08:59:00Z","duration":"PT26M31S","thumbnail":"https://i.ytimg.com/vi/HndA14EuBr0/mqdefault.jpg","viewCount":"670","playlistId":"PLEkQk5xrP-tkc9DXvSLguqX5-FYp6ASR4","playlistName":"دليل الفالحين لطرق رياض الصالحين","category":"متنوع"},{"id":"rdlu242xHEM","title":"145- حرف الفاء (أنواعها) - شرح الإتقان في علوم القرآن","publishedAt":"2023-08-09T05:01:23Z","duration":"PT35M29S","thumbnail":"https://i.ytimg.com/vi/rdlu242xHEM/mqdefault.jpg","viewCount":"669","playlistId":"PLEkQk5xrP-tlPw10KGJKagu7zm4Ry2Tge","playlistName":"شرح الإتقان في علوم القرآن","category":"تفسير"},{"id":"Sq_FszvqP0o","title":"112- معاني كلمة القضاء في القرآن - شرح الإتقان في علوم القرآن","publishedAt":"2023-06-29T05:00:11Z","duration":"PT10M42S","thumbnail":"https://i.ytimg.com/vi/Sq_FszvqP0o/mqdefault.jpg","viewCount":"668","playlistId":"PLEkQk5xrP-tlPw10KGJKagu7zm4Ry2Tge","playlistName":"شرح الإتقان في علوم القرآن","category":"تفسير"},{"id":"sRtNGcVaoVc","title":"شرح صحيح البخاري كتاب الطب من باب ٤٩","publishedAt":"2018-08-11T17:38:02Z","duration":"PT47M30S","thumbnail":"https://i.ytimg.com/vi/sRtNGcVaoVc/mqdefault.jpg","viewCount":"668","playlistId":"PLEkQk5xrP-tlEerGoLa1AFy-2XvQ-sovv","playlistName":"شرح صحيح البخاري - أ.د. يسري جبر (كاملا)","category":"حديث"},{"id":"TH0zj7Ft_Cg","title":"471- لا يَقُولَنَّ أحَدُكُمْ خَبُثَتْ نَفْسِي - شرح دليل الفالحين","publishedAt":"2023-06-08T08:59:00Z","duration":"PT28M41S","thumbnail":"https://i.ytimg.com/vi/TH0zj7Ft_Cg/mqdefault.jpg","viewCount":"667","playlistId":"PLEkQk5xrP-tkc9DXvSLguqX5-FYp6ASR4","playlistName":"دليل الفالحين لطرق رياض الصالحين","category":"متنوع"},{"id":"pW3YgO-K6Uk","title":"النَّفْي","publishedAt":"2020-12-25T06:57:12Z","duration":"PT14M13S","thumbnail":"https://i.ytimg.com/vi/pW3YgO-K6Uk/mqdefault.jpg","viewCount":"667","playlistId":"PLEkQk5xrP-tnW3iBL7HkKziOFCFZbTlf0","playlistName":"شرح البرهان في علوم القرآن - أ.د. يسري جبر","category":"تفسير"},{"id":"Kml7DpxTrB4","title":"شرح البرهان في علوم القرآن - النوع ٧ - فی أسرار الفواتح والسور - الاستفتاح بحروف التهجي ـ فصل","publishedAt":"2019-10-01T23:17:49Z","duration":"PT16M","thumbnail":"https://i.ytimg.com/vi/Kml7DpxTrB4/mqdefault.jpg","viewCount":"667","playlistId":"PLEkQk5xrP-tnW3iBL7HkKziOFCFZbTlf0","playlistName":"شرح البرهان في علوم القرآن - أ.د. يسري جبر","category":"تفسير"},{"id":"x5PmvLeKSP4","title":"شرح البرهان في علوم القرآن - النوع ١١ - القول في القراءات السبع","publishedAt":"2019-10-20T14:58:02Z","duration":"PT20M26S","thumbnail":"https://i.ytimg.com/vi/x5PmvLeKSP4/mqdefault.jpg","viewCount":"666","playlistId":"PLEkQk5xrP-tnW3iBL7HkKziOFCFZbTlf0","playlistName":"شرح البرهان في علوم القرآن - أ.د. يسري جبر","category":"تفسير"},{"id":"oMT9ovPmLQk","title":"متى يكون الصيام حراماً ؟ | اعرف نبيك في رمضان","publishedAt":"2016-06-28T19:50:14Z","duration":"PT7M14S","thumbnail":"https://i.ytimg.com/vi/oMT9ovPmLQk/mqdefault.jpg","viewCount":"666","playlistId":"PLEkQk5xrP-tmhJ_gpAAFyOpEsHp0_VAJ-","playlistName":"برنامج اعرف نبيك في رمضان","category":"متنوع"},{"id":"aN-VwbZJ49s","title":"82- تحسين الصوت بالقراءة - آداب تلاوة القرآن(5)- شرح الإتقان في علوم القرآن","publishedAt":"2023-05-27T05:00:01Z","duration":"PT23M27S","thumbnail":"https://i.ytimg.com/vi/aN-VwbZJ49s/mqdefault.jpg","viewCount":"665","playlistId":"PLEkQk5xrP-tlPw10KGJKagu7zm4Ry2Tge","playlistName":"شرح الإتقان في علوم القرآن","category":"تفسير"},{"id":"pNKLt7B_oHw","title":"شرح صحيح البخاري - كتاب أحاديث الأنبياء تكملة باب ١١","publishedAt":"2017-10-02T13:21:23Z","duration":"PT47M59S","thumbnail":"https://i.ytimg.com/vi/pNKLt7B_oHw/mqdefault.jpg","viewCount":"665","playlistId":"PLEkQk5xrP-tlEerGoLa1AFy-2XvQ-sovv","playlistName":"شرح صحيح البخاري - أ.د. يسري جبر (كاملا)","category":"حديث"},{"id":"i_QRnrFIIIk","title":"السَّبْق بالرتبة - تكملة أنواع التقديم والتأخير (8) - شرح البرهان في علوم القرآن","publishedAt":"2021-09-25T06:02:09Z","duration":"PT26M40S","thumbnail":"https://i.ytimg.com/vi/i_QRnrFIIIk/mqdefault.jpg","viewCount":"664","playlistId":"PLEkQk5xrP-tnW3iBL7HkKziOFCFZbTlf0","playlistName":"شرح البرهان في علوم القرآن - أ.د. يسري جبر","category":"تفسير"},{"id":"ex2Z-NtJ2Lc","title":"شرح صحيح البخاري كتاب الحيل من أوله","publishedAt":"2018-12-16T20:09:09Z","duration":"PT39M42S","thumbnail":"https://i.ytimg.com/vi/ex2Z-NtJ2Lc/mqdefault.jpg","viewCount":"664","playlistId":"PLEkQk5xrP-tlEerGoLa1AFy-2XvQ-sovv","playlistName":"شرح صحيح البخاري - أ.د. يسري جبر (كاملا)","category":"حديث"},{"id":"O9Ek_gfQtj0","title":"أنواع التقديم والتأخير - شرح البرهان في علوم القرآن","publishedAt":"2021-09-14T05:44:01Z","duration":"PT16M5S","thumbnail":"https://i.ytimg.com/vi/O9Ek_gfQtj0/mqdefault.jpg","viewCount":"664","playlistId":"PLEkQk5xrP-tnW3iBL7HkKziOFCFZbTlf0","playlistName":"شرح البرهان في علوم القرآن - أ.د. يسري جبر","category":"تفسير"},{"id":"bvnBHDAWXHo","title":"78- آداب تلاوة القرآن (2) - شرح الإتقان في علوم القرآن","publishedAt":"2023-05-24T05:00:21Z","duration":"PT25M17S","thumbnail":"https://i.ytimg.com/vi/bvnBHDAWXHo/mqdefault.jpg","viewCount":"663","playlistId":"PLEkQk5xrP-tlPw10KGJKagu7zm4Ry2Tge","playlistName":"شرح الإتقان في علوم القرآن","category":"تفسير"},{"id":"dmoCTi5A1xg","title":"15- التَّرْغِيبِ فِى الصَّلاَةِ فِى رَمَضَانَ ك الصلاة فى رمضان ك الموطأ د يسري جبر الأزهري","publishedAt":"2016-05-23T12:17:24Z","duration":"PT57M14S","thumbnail":"https://i.ytimg.com/vi/dmoCTi5A1xg/mqdefault.jpg","viewCount":"663","playlistId":"PLEkQk5xrP-tnC6BRuqMjyO-484iqXeg0o","playlistName":"شرح كتاب الموطأ للإمام مالك","category":"متنوع"}],"total":7670,"page":191,"pageSize":24,"totalPages":320}