{"items":[{"id":"dNukwytgzWA","title":"ÙƒÙ„Ù…Ø© Ø¯. Ù…Ø¬Ø¯ÙŠ Ø¹Ø§Ø´ÙˆØ± Ùˆ Ø¯. Ø£Ø­Ù…Ø¯ Ù…Ù…Ø¯ÙˆØ­ Ø§Ø­ØªÙØ§Ù„Ù‹Ø§ Ø¨Ø§Ù„Ù…ÙˆÙ„Ø¯ Ø§Ù„Ù†Ø¨ÙˆÙŠ","publishedAt":"2025-09-12T18:45:02Z","duration":"PT15M20S","thumbnail":"https://i.ytimg.com/vi/dNukwytgzWA/mqdefault.jpg","viewCount":"1928","playlistId":"PLEkQk5xrP-tm8ZIu74nTOZN9KJUJu416J","playlistName":"Ù…Ù‚Ø§Ø·Ø¹ Ù…ÙÙ‡Ù…ÙÙ‘Ø© (ÙŠÙØ³Ø±ÙŠÙ‘ÙØ§Øª) Ø£.Ø¯. ÙŠØ³Ø±ÙŠ Ø¬Ø¨Ø±","category":"Ù…ØªÙ†ÙˆØ¹"},{"id":"W6JSGxD5aqg","title":"Ø¹ÙÙ‚ÙÙˆÙ‚Ù Ø§Ù„ÙˆÙØ§Ù„Ø¯ÙÙŠÙ’Ù†Ù  Ø£.Ø¯. ÙŠØ³Ø±ÙŠ Ø¬Ø¨Ø±","publishedAt":"2020-04-12T11:55:25Z","duration":"PT42M43S","thumbnail":"https://i.ytimg.com/vi/W6JSGxD5aqg/mqdefault.jpg","viewCount":"1928","playlistId":"PLEkQk5xrP-tlhpr-bJBjCsJw3j1S-LD9B","playlistName":"ÙƒØªØ§Ø¨Ù Ø§Ù„Ø£Ø¯ÙØ¨Ù - Ø§Ù„Ù…Ø¬Ù„Ø³ Ø§Ù„Ø£ÙˆÙ„  Ø£.Ø¯. ÙŠØ³Ø±ÙŠ Ø¬Ø¨Ø±","category":"ØªØµÙˆÙ"},{"id":"iZ604pGi3lk","title":"133- \"Ù„ÙØ§ ÙŠÙÙÙ’Ø±ÙÙƒÙ’ Ù…ÙØ¤Ù’Ù…ÙÙ†ÙŒ Ù…ÙØ¤Ù’Ù…ÙÙ†ÙØ©Ù‹ØŒ Ø¥Ù†Ù’ ÙƒÙØ±ÙÙ‡Ù Ù…Ù†Ù‡Ø§ Ø®ÙÙ„ÙÙ‚Ù‹Ø§ Ø±ÙØ¶ÙÙŠÙ Ù…Ù†Ù‡Ø§ Ø¢Ø®ÙØ±â€¦\" Ø´Ø±Ø­ Ø¯Ù„ÙŠÙ„ Ø§Ù„ÙØ§Ù„Ø­ÙŠÙ†","publishedAt":"2021-09-29T03:20:13Z","duration":"PT35M35S","thumbnail":"https://i.ytimg.com/vi/iZ604pGi3lk/mqdefault.jpg","viewCount":"1927","playlistId":"PLEkQk5xrP-tkc9DXvSLguqX5-FYp6ASR4","playlistName":"Ø¯Ù„ÙŠÙ„ Ø§Ù„ÙØ§Ù„Ø­ÙŠÙ† Ù„Ø·Ø±Ù‚ Ø±ÙŠØ§Ø¶ Ø§Ù„ØµØ§Ù„Ø­ÙŠÙ†","category":"Ù…ØªÙ†ÙˆØ¹"},{"id":"QQ2J31qxlHw","title":"170- Ø¥ÙØ°Ø§ Ø£Ø­Ø¨Ù‘Ù Ø§Ù„Ù„Ù‘ÙÙ‡Ù Ø§Ù„Ø¹Ø¨Ø¯Ù Ù†Ø§Ø¯Ù‰ Ø¬ÙØ¨Ù’Ø±ÙÙŠÙ„: Ø¥Ù†Ù‘Ù Ø§Ù„Ù„Ù‘ÙÙ‡Ù ÙŠÙØ­Ø¨Ù‘Ù ÙÙ„Ø§Ù†Ù‹Ø§ ÙØ£Ø­Ù’Ø¨Ø¨Ù‡ - Ø´Ø±Ø­ Ø¯Ù„ÙŠÙ„ Ø§Ù„ÙØ§Ù„Ø­ÙŠÙ†","publishedAt":"2021-12-19T07:23:02Z","duration":"PT27M24S","thumbnail":"https://i.ytimg.com/vi/QQ2J31qxlHw/mqdefault.jpg","viewCount":"1926","playlistId":"PLEkQk5xrP-tkc9DXvSLguqX5-FYp6ASR4","playlistName":"Ø¯Ù„ÙŠÙ„ Ø§Ù„ÙØ§Ù„Ø­ÙŠÙ† Ù„Ø·Ø±Ù‚ Ø±ÙŠØ§Ø¶ Ø§Ù„ØµØ§Ù„Ø­ÙŠÙ†","category":"Ù…ØªÙ†ÙˆØ¹"},{"id":"PbgR1Wj9XXA","title":"ğŸ”´ Majelis Sama Hadits Shahih Bukhari - PP Progresif Bumi Shalawat (Selasa, 4 Februari 2025 | Sesi 1)","publishedAt":"2025-02-04T05:47:44Z","duration":"PT4H16M6S","thumbnail":"https://i.ytimg.com/vi/PbgR1Wj9XXA/mqdefault.jpg","viewCount":"1924","playlistId":"PLEkQk5xrP-tkKcTKLIthzWrdXY7QaOjh_","playlistName":"Ù‚Ø±Ø§Ø¡Ø© ØµØ­ÙŠØ­ Ø§Ù„Ø¨Ø®Ø§Ø±ÙŠ ÙƒØ§Ù…Ù„Ø§Ù‹ ÙÙŠ Ø¥Ù†Ø¯ÙˆÙ†ÙŠØ³ÙŠØ§","category":"Ø­Ø¯ÙŠØ«"},{"id":"Z6JqR7food4","title":"22- Ø­ÙƒÙ… Ù‚Ø±Ø§Ø¡Ø© Ø§Ù„Ù‚Ø±Ø¢Ù† ÙˆÙ…Ø³ Ø§Ù„Ù…ØµØ­Ù Ø¹Ù„Ù‰ ØºÙŠØ±Â Ø·Ù‡Ø§Ø±Ø©","publishedAt":"2023-11-25T09:00:33Z","duration":"PT29M19S","thumbnail":"https://i.ytimg.com/vi/Z6JqR7food4/mqdefault.jpg","viewCount":"1924","playlistId":"PLEkQk5xrP-tk_MCBZ706ORCw6gFtFyaGj","playlistName":"Ø´Ø±Ø­ Ø³Ù†Ù† Ø§Ù„Ø¥Ù…Ø§Ù… Ø§Ù„Ø¯Ø§Ø±Ù‚Ø·Ù†ÙŠ","category":"Ù…ØªÙ†ÙˆØ¹"},{"id":"l1Fqbd38GNo","title":"Ù…Ø§ Ø­ÙƒÙ… Ø³Ø¨ Ø§Ù„ÙˆØ§Ù„Ø¯ÙŠÙ†ØŸ | Ø£.Ø¯. ÙŠØ³Ø±ÙŠ Ø¬Ø¨Ø±","publishedAt":"2022-04-25T15:30:07Z","duration":"PT22M35S","thumbnail":"https://i.ytimg.com/vi/l1Fqbd38GNo/mqdefault.jpg","viewCount":"1923","playlistId":"PLEkQk5xrP-tnl7vb7KeAoPd5ZlqKKW8KV","playlistName":"Ø´Ø±Ø­ ÙƒØªØ§Ø¨ Ø¨Ù‡Ø¬Ø© Ø§Ù„Ù†ÙÙˆØ³ Ø£.Ø¯ . ÙŠØ³Ø±Ù‰ Ø¬Ø¨Ø±","category":"Ù…ØªÙ†ÙˆØ¹"},{"id":"wTDukhi-5TQ","title":"Ø¨Ø±Ù†Ø§Ù…Ø¬ - Ø¹ØµÙ…Ø© Ø§Ù„Ø£Ù†Ø¨ÙŠØ§Ø¡ - Ø§Ù„Ø­Ù„Ù‚Ø© 13- Ø³ÙŠØ¯Ù†Ø§ ÙŠÙˆØ³Ù : Ø´Ø¨Ù‡Ø§Øª ÙÙŠ Ø²Ù…Ù† Ù…Ø§ Ø¨Ø¹Ø¯ Ø®Ø±ÙˆØ¬Ù‡ Ù…Ù† Ø§Ù„Ø³Ø¬Ù† - @alerthTV","publishedAt":"2016-06-04T07:40:12Z","duration":"PT23M59S","thumbnail":"https://i.ytimg.com/vi/wTDukhi-5TQ/mqdefault.jpg","viewCount":"1921","playlistId":"PLEkQk5xrP-tnBp9yUT_R2vtqSPOlcyAZe","playlistName":"Ø¨Ø±Ù†Ø§Ù…Ø¬ - Ø¹ØµÙ…Ø© Ø§Ù„Ø£Ù†Ø¨ÙŠØ§Ø¡","category":"Ù…ØªÙ†ÙˆØ¹"},{"id":"rFnjA0wgwK8","title":"82- \"Ù‡ÙÙ„ÙÙƒÙ Ø§Ù„Ù…ÙØªÙÙ†ÙØ·Ù‘ÙØ¹ÙÙˆÙ†Ù\" Ù‚ÙØ§Ù„ÙÙ‡ÙØ§ Ø«Ù„Ø§Ø«Ù‹Ø§ - Ø´Ø±Ø­ Ø¯Ù„ÙŠÙ„ Ø§Ù„ÙØ§Ù„Ø­ÙŠÙ†","publishedAt":"2021-06-22T06:45:24Z","duration":"PT31M43S","thumbnail":"https://i.ytimg.com/vi/rFnjA0wgwK8/mqdefault.jpg","viewCount":"1921","playlistId":"PLEkQk5xrP-tkc9DXvSLguqX5-FYp6ASR4","playlistName":"Ø¯Ù„ÙŠÙ„ Ø§Ù„ÙØ§Ù„Ø­ÙŠÙ† Ù„Ø·Ø±Ù‚ Ø±ÙŠØ§Ø¶ Ø§Ù„ØµØ§Ù„Ø­ÙŠÙ†","category":"Ù…ØªÙ†ÙˆØ¹"},{"id":"YL0hhu2KyA8","title":"Ø´Ø±Ø­ ÙƒØªØ§Ø¨ Ù…Ù†Ø§Ø²Ù„ Ø§Ù„Ø³Ø§Ø¦Ø±ÙŠÙ† Ù„Ù„Ø¥Ù…Ø§Ù… Ø§Ù„Ù‡Ø±ÙˆÙ‰- Ø§Ù„Ù…Ø¬Ù„Ø³ Ø§Ù„Ø³Ø§Ø¯Ø³ ÙˆØ§Ù„Ø«Ù„Ø§Ø«ÙˆÙ† Ù‚Ø³Ù… Ø§Ù„Ø£ÙØµÙˆÙ„ Ø¨Ø§Ø¨ Ø§Ù„Ø°ÙÙƒØ±Ù ÙˆØ¨Ø§Ø¨ Ø§Ù„ÙÙ‚Ø±","publishedAt":"2015-01-26T18:25:01Z","duration":"PT1H22M1S","thumbnail":"https://i.ytimg.com/vi/YL0hhu2KyA8/mqdefault.jpg","viewCount":"1921","playlistId":"PLEkQk5xrP-tnLYi_5_tSRVBwqcs7ISV7Y","playlistName":"Ø´Ø±Ø­ ÙƒØªØ§Ø¨ Ù…Ù†Ø§Ø²Ù„ Ø§Ù„Ø³Ø§Ø¦Ø±ÙŠÙ† Ù„Ù„Ø¥Ù…Ø§Ù… Ø§Ù„Ù‡Ø±ÙˆÙŠ","category":"Ù…ØªÙ†ÙˆØ¹"},{"id":"HDLaPbwVPZU","title":"32- Ù…Ø¹Ù†Ù‰ Ù†Ø²ÙˆÙ„ Ø§Ù„Ù‚Ø±Ø¢Ù† Ø¹Ù„Ù‰ Ø³Ø¨Ø¹Ø© Ø£Ø­Ø±Ù - Ø§Ù„Ù…Ø³Ø£Ù„Ø© Ø§Ù„Ø«Ø§Ù„Ø«Ø© - Ø§Ù„Ø¬Ø²Ø¡ Ø§Ù„Ø£ÙˆÙ„ - Ø´Ø±Ø­ Ø§Ù„Ø¥ØªÙ‚Ø§Ù† ÙÙŠ Ø¹Ù„ÙˆÙ… Ø§Ù„Ù‚Ø±Ø¢Ù†","publishedAt":"2023-03-04T05:00:16Z","duration":"PT20M16S","thumbnail":"https://i.ytimg.com/vi/HDLaPbwVPZU/mqdefault.jpg","viewCount":"1920","playlistId":"PLEkQk5xrP-tlPw10KGJKagu7zm4Ry2Tge","playlistName":"Ø´Ø±Ø­ Ø§Ù„Ø¥ØªÙ‚Ø§Ù† ÙÙŠ Ø¹Ù„ÙˆÙ… Ø§Ù„Ù‚Ø±Ø¢Ù†","category":"ØªÙØ³ÙŠØ±"},{"id":"S5J5qvApxsI","title":"2-  Ø£Ø­ÙƒØ§Ù… Ø­ÙƒÙ… Ø§Ù„Ø¹Ù‚Ù„ - Ø´Ø±Ø­ Ù…Ù†Ø¸ÙˆÙ…Ø© Ù…Ù†Ø¬ÙŠØ© Ø§Ù„Ø¹Ø¨ÙŠØ¯ ÙÙŠ Ø¹Ù„Ù… Ø§Ù„ØªÙˆØ­ÙŠØ¯","publishedAt":"2022-09-21T18:00:10Z","duration":"PT43M16S","thumbnail":"https://i.ytimg.com/vi/S5J5qvApxsI/mqdefault.jpg","viewCount":"1919","playlistId":"PLEkQk5xrP-tk3OeVFoMfKhOhyINnlPeYZ","playlistName":"Ø§Ù„Ø­ÙØ¶Ù’Ø±ÙØ©Ù Ø§Ù„ØµÙ‘ÙØ¯Ù‘ÙÙŠÙ‚ÙÙŠÙ‘ÙØ© ÙˆØ§Ù„Ø£ÙˆÙ’Ø±ÙØ§Ø¯","category":"Ù…ØªÙ†ÙˆØ¹"},{"id":"h5TUiEbIS0A","title":"ÙƒØ«Ø±Ø© Ø§Ù„Ø£Ø³Ù…Ø§Ø¡ ØªØ¯Ù„ Ø¹Ù„Ù‰ Ø´Ø±Ù Ø§Ù„Ù…ÙØ³ÙÙ…Ù‘ÙÙ‰ ï·º","publishedAt":"2020-11-04T17:26:36Z","duration":"PT11M56S","thumbnail":"https://i.ytimg.com/vi/h5TUiEbIS0A/mqdefault.jpg","viewCount":"1918","playlistId":"PLEkQk5xrP-tm8ZIu74nTOZN9KJUJu416J","playlistName":"Ù…Ù‚Ø§Ø·Ø¹ Ù…ÙÙ‡Ù…ÙÙ‘Ø© (ÙŠÙØ³Ø±ÙŠÙ‘ÙØ§Øª) Ø£.Ø¯. ÙŠØ³Ø±ÙŠ Ø¬Ø¨Ø±","category":"Ù…ØªÙ†ÙˆØ¹"},{"id":"k4d7oyb61_o","title":"187- \"Ø£ØªÙØ±Ù’Ø¶ÙÙˆÙ’Ù†Ù Ø£Ù†Ù’ ØªÙÙƒÙÙˆÙ†ÙÙˆØ§ Ø±ÙØ¨ÙØ¹Ù Ø£Ù‡Ù’Ù„Ù Ø§Ù„Ø¬ÙÙ†Ù‘ÙØ©ÙØŸ Ù‚ÙÙ„Ù’Ù†ÙØ§: Ù†ÙØ¹ÙÙ…Ù’â€¦\" Ø´Ø±Ø­ Ø¯Ù„ÙŠÙ„ Ø§Ù„ÙØ§Ù„Ø­ÙŠÙ†","publishedAt":"2022-01-19T07:12:23Z","duration":"PT23M25S","thumbnail":"https://i.ytimg.com/vi/k4d7oyb61_o/mqdefault.jpg","viewCount":"1918","playlistId":"PLEkQk5xrP-tkc9DXvSLguqX5-FYp6ASR4","playlistName":"Ø¯Ù„ÙŠÙ„ Ø§Ù„ÙØ§Ù„Ø­ÙŠÙ† Ù„Ø·Ø±Ù‚ Ø±ÙŠØ§Ø¶ Ø§Ù„ØµØ§Ù„Ø­ÙŠÙ†","category":"Ù…ØªÙ†ÙˆØ¹"},{"id":"coMCGvsdBhI","title":"411- Ø§Ù„Ø°ÙƒØ± Ø¹Ù†Ø¯ Ø§Ù„ØµØ¨Ø§Ø­ ÙˆØ§Ù„Ù…Ø³Ø§Ø¡ ÙˆØ¨ÙŠØ§Ù† ÙˆÙ‚ØªÙ‡ - Ø´Ø±Ø­ Ø¯Ù„ÙŠÙ„ Ø§Ù„ÙØ§Ù„Ø­ÙŠÙ†","publishedAt":"2023-03-13T05:00:14Z","duration":"PT26M10S","thumbnail":"https://i.ytimg.com/vi/coMCGvsdBhI/mqdefault.jpg","viewCount":"1918","playlistId":"PLEkQk5xrP-tkc9DXvSLguqX5-FYp6ASR4","playlistName":"Ø¯Ù„ÙŠÙ„ Ø§Ù„ÙØ§Ù„Ø­ÙŠÙ† Ù„Ø·Ø±Ù‚ Ø±ÙŠØ§Ø¶ Ø§Ù„ØµØ§Ù„Ø­ÙŠÙ†","category":"Ù…ØªÙ†ÙˆØ¹"},{"id":"sxn-_DqaXRw","title":"250 - Ù„ÙØ§ ÙŠÙÙ†Ù’Ø¸ÙØ±Ù Ø§Ù„Ù„Ù‘ÙÙ‡Ù ÙŠÙÙˆÙ…Ù Ø§Ù„Ù‚ÙÙŠÙØ§Ù…ÙØ©Ù Ø¥Ù„Ù‰ Ù…ÙÙ† Ø¬ÙØ±Ù‘Ù Ø¥ÙØ²ÙØ§Ø±ÙÙ‡Ù Ø¨ÙØ·ÙØ±Ù‹Ø§ - Ø´Ø±Ø­ Ø¯Ù„ÙŠÙ„ Ø§Ù„ÙØ§Ù„Ø­ÙŠÙ†","publishedAt":"2022-05-20T20:15:00Z","duration":"PT34M12S","thumbnail":"https://i.ytimg.com/vi/sxn-_DqaXRw/mqdefault.jpg","viewCount":"1918","playlistId":"PLEkQk5xrP-tkc9DXvSLguqX5-FYp6ASR4","playlistName":"Ø¯Ù„ÙŠÙ„ Ø§Ù„ÙØ§Ù„Ø­ÙŠÙ† Ù„Ø·Ø±Ù‚ Ø±ÙŠØ§Ø¶ Ø§Ù„ØµØ§Ù„Ø­ÙŠÙ†","category":"Ù…ØªÙ†ÙˆØ¹"},{"id":"RavtZfXYwqI","title":"Ø­ÙˆÙ„ Ø§Ù„ÙƒÙÙ…ÙØ§Ù„ÙØ§ØªÙ Ø§Ù„Ù…ÙØ­ÙÙ…Ù‘ÙØ¯ÙÙŠÙ‘ÙØ©. Ø£.Ø¯.ÙŠØ³Ø±ÙŠ Ø¬Ø¨Ø±","publishedAt":"2020-02-27T13:33:55Z","duration":"PT30M28S","thumbnail":"https://i.ytimg.com/vi/RavtZfXYwqI/mqdefault.jpg","viewCount":"1918","playlistId":"PLEkQk5xrP-tm8ZIu74nTOZN9KJUJu416J","playlistName":"Ù…Ù‚Ø§Ø·Ø¹ Ù…ÙÙ‡Ù…ÙÙ‘Ø© (ÙŠÙØ³Ø±ÙŠÙ‘ÙØ§Øª) Ø£.Ø¯. ÙŠØ³Ø±ÙŠ Ø¬Ø¨Ø±","category":"Ù…ØªÙ†ÙˆØ¹"},{"id":"lmFUyH0YiQA","title":"248- ØªØ­Ø±ÙŠÙ…Ù Ø§Ù„ÙƒÙØ¨Ù’Ø±Ù ÙˆØ§Ù„Ø¥Ø¹Ø¬Ø§Ø¨ - Ø´Ø±Ø­ Ø¯Ù„ÙŠÙ„ Ø§Ù„ÙØ§Ù„Ø­ÙŠÙ†","publishedAt":"2022-05-17T05:10:00Z","duration":"PT37M45S","thumbnail":"https://i.ytimg.com/vi/lmFUyH0YiQA/mqdefault.jpg","viewCount":"1916","playlistId":"PLEkQk5xrP-tkc9DXvSLguqX5-FYp6ASR4","playlistName":"Ø¯Ù„ÙŠÙ„ Ø§Ù„ÙØ§Ù„Ø­ÙŠÙ† Ù„Ø·Ø±Ù‚ Ø±ÙŠØ§Ø¶ Ø§Ù„ØµØ§Ù„Ø­ÙŠÙ†","category":"Ù…ØªÙ†ÙˆØ¹"},{"id":"PEkon2JDAKg","title":"Ù…Ø±Ø§Ø¹Ø§Ø© Ø§Ù„Ø£Ø¯Ø¨","publishedAt":"2020-08-19T20:03:44Z","duration":"PT4M20S","thumbnail":"https://i.ytimg.com/vi/PEkon2JDAKg/mqdefault.jpg","viewCount":"1914","playlistId":"PLEkQk5xrP-tm8ZIu74nTOZN9KJUJu416J","playlistName":"Ù…Ù‚Ø§Ø·Ø¹ Ù…ÙÙ‡Ù…ÙÙ‘Ø© (ÙŠÙØ³Ø±ÙŠÙ‘ÙØ§Øª) Ø£.Ø¯. ÙŠØ³Ø±ÙŠ Ø¬Ø¨Ø±","category":"Ù…ØªÙ†ÙˆØ¹"},{"id":"pXYPCd5o1D8","title":"ğŸ”´ Majelis Sama' Hadits Shahih Bukhari - PP Progresif Bumi Shalawat (Kamis, 6 Februari 2025 | Sesi 2)","publishedAt":"2025-02-06T23:29:09Z","duration":"PT2H35M45S","thumbnail":"https://i.ytimg.com/vi/pXYPCd5o1D8/mqdefault.jpg","viewCount":"1911","playlistId":"PLEkQk5xrP-tkKcTKLIthzWrdXY7QaOjh_","playlistName":"Ù‚Ø±Ø§Ø¡Ø© ØµØ­ÙŠØ­ Ø§Ù„Ø¨Ø®Ø§Ø±ÙŠ ÙƒØ§Ù…Ù„Ø§Ù‹ ÙÙŠ Ø¥Ù†Ø¯ÙˆÙ†ÙŠØ³ÙŠØ§","category":"Ø­Ø¯ÙŠØ«"},{"id":"ESiWL0gaAlk","title":"Ù…Ù‚Ø±Ø£Ø© Ø³ÙˆØ±Ø© Ø¹Ø¨Ø³ Ù…Ù† Ø£ÙˆÙ„Ù‡Ø§","publishedAt":"2019-06-19T10:55:21Z","duration":"PT18M51S","thumbnail":"https://i.ytimg.com/vi/ESiWL0gaAlk/mqdefault.jpg","viewCount":"1910","playlistId":"PLEkQk5xrP-tnmTYsyW6xNdyfhPq0Bhrhj","playlistName":"Ù…Ù‚Ø±Ø£Ø© Ø§Ù„ÙØ¬Ø± - Ø§Ù„Ù‚ÙØ±Ù’Ø¢Ù†Ù Ø§Ù„ÙƒÙØ±ÙÙŠÙ…Ù - Ø®ÙØªÙ’Ù…ÙØ©Ù Ø§Ù„ØªÙ‘ÙØ¯ÙØ¨Ù‘ÙØ±Ù  Ø£.Ø¯. ÙŠØ³Ø±ÙŠ Ø¬Ø¨Ø±","category":"Ù…ØªÙ†ÙˆØ¹"},{"id":"SRHCgzLohGc","title":"ÙƒÙŠÙ Ø£ØªØ®Ù„Øµ Ù…Ù† Ø§Ù„Ø£Ø±Ù‚ Ø§Ù„Ù…Ø³ØªÙ…Ø± ÙˆÙ…Ø´Ø§ÙƒÙ„ Ø§Ù„Ù†ÙˆÙ…ØŸ","publishedAt":"2025-10-16T17:30:07Z","duration":"PT8M1S","thumbnail":"https://i.ytimg.com/vi/SRHCgzLohGc/mqdefault.jpg","viewCount":"1909","playlistId":"PLEkQk5xrP-tkGXuZ9atE3k_7it12rUPTs","playlistName":"Ø£Ø³Ø¦Ù„Ø© Ø§Ù„Ù…ØªØ§Ø¨Ø¹ÙŠÙ†","category":"Ù…ØªÙ†ÙˆØ¹"},{"id":"Nrmz3r1GxJE","title":"ÙƒÙŠÙ ØªØ±Ø¨ÙŠ Ù†ÙØ³Ùƒ ØªØ±Ø¨ÙŠØ© Ù†Ø¨ÙˆÙŠØ©ØŸ","publishedAt":"2025-11-20T19:45:00Z","duration":"PT18M27S","thumbnail":"https://i.ytimg.com/vi/Nrmz3r1GxJE/mqdefault.jpg","viewCount":"1908","playlistId":"PLEkQk5xrP-tlArtGpeLWaqNM7h7IDeAVC","playlistName":"Ø®Ø·Ø¨ Ø§Ù„Ø¬Ù…Ø¹Ø© Ø£.Ø¯. ÙŠØ³Ø±ÙŠ Ø¬Ø¨Ø±","category":"Ø®Ø·Ø¨"},{"id":"aIqMyyIW0PE","title":"ÙƒÙŠÙ ØªØªØ­Ù„Ù‰ Ø¨Ø£Ø®Ù„Ø§Ù‚ Ø§Ù„Ø­Ø¬Ø§Ø¬ Ø·ÙˆÙ„ Ø§Ù„Ø¹Ø§Ù…ØŸ","publishedAt":"2023-06-22T18:30:02Z","duration":"PT11M48S","thumbnail":"https://i.ytimg.com/vi/aIqMyyIW0PE/mqdefault.jpg","viewCount":"1908","playlistId":"PLEkQk5xrP-tlArtGpeLWaqNM7h7IDeAVC","playlistName":"Ø®Ø·Ø¨ Ø§Ù„Ø¬Ù…Ø¹Ø© Ø£.Ø¯. ÙŠØ³Ø±ÙŠ Ø¬Ø¨Ø±","category":"Ø®Ø·Ø¨"}],"total":7670,"page":109,"pageSize":24,"totalPages":320}