{"items":[{"id":"sr8SOaQ-Cf4","title":"شرح سنن الدارمي كتاب الأشربة من أوله","publishedAt":"2019-07-30T23:05:35Z","duration":"PT39M58S","thumbnail":"https://i.ytimg.com/vi/sr8SOaQ-Cf4/mqdefault.jpg","viewCount":"426","playlistId":"PLEkQk5xrP-tmAg-FuWjY057X_h5NmGmAa","playlistName":"شرح سنن الدارمي - أ.د. يسري جبر (كاملا)","category":"متنوع"},{"id":"dr5e8ZtzXrk","title":"شرح صحيح البخاري كتاب الأحكام من باب ٣٧","publishedAt":"2019-01-13T22:12:56Z","duration":"PT33M42S","thumbnail":"https://i.ytimg.com/vi/dr5e8ZtzXrk/mqdefault.jpg","viewCount":"426","playlistId":"PLEkQk5xrP-tlEerGoLa1AFy-2XvQ-sovv","playlistName":"شرح صحيح البخاري - أ.د. يسري جبر (كاملا)","category":"حديث"},{"id":"mHNDPM2PCnc","title":"شرح صحيح البخاري كتاب الأحكام من باب ٤","publishedAt":"2019-01-07T19:34:02Z","duration":"PT40M39S","thumbnail":"https://i.ytimg.com/vi/mHNDPM2PCnc/mqdefault.jpg","viewCount":"426","playlistId":"PLEkQk5xrP-tlEerGoLa1AFy-2XvQ-sovv","playlistName":"شرح صحيح البخاري - أ.د. يسري جبر (كاملا)","category":"حديث"},{"id":"rISdoE6w0pU","title":"شرح صحيح البخاري كتاب الطلاق من باب 21","publishedAt":"2018-06-20T18:56:02Z","duration":"PT25M51S","thumbnail":"https://i.ytimg.com/vi/rISdoE6w0pU/mqdefault.jpg","viewCount":"426","playlistId":"PLEkQk5xrP-tlEerGoLa1AFy-2XvQ-sovv","playlistName":"شرح صحيح البخاري - أ.د. يسري جبر (كاملا)","category":"حديث"},{"id":"KyR6VKuqcM8","title":"مقرأة سورة يوسف من آية ٨٤","publishedAt":"2017-07-05T08:20:22Z","duration":"PT14M36S","thumbnail":"https://i.ytimg.com/vi/KyR6VKuqcM8/mqdefault.jpg","viewCount":"426","playlistId":"PLEkQk5xrP-tnmTYsyW6xNdyfhPq0Bhrhj","playlistName":"مقرأة الفجر - القُرْآنُ الكَرِيمُ - خَتْمَةُ التَّدَبُّرِ  أ.د. يسري جبر","category":"متنوع"},{"id":"N6tic8V8Yfk","title":"( 125 ) حديث إنذار العشيرة - المجلس الأول - د. يسري جبر","publishedAt":"2017-06-08T12:54:53Z","duration":"PT16M","thumbnail":"https://i.ytimg.com/vi/N6tic8V8Yfk/mqdefault.jpg","viewCount":"426","playlistId":"PLEkQk5xrP-tnl7vb7KeAoPd5ZlqKKW8KV","playlistName":"شرح كتاب بهجة النفوس أ.د . يسرى جبر","category":"متنوع"},{"id":"RSJxbj1IYM4","title":"تغليب الموصوف على غير الموصوف - شرح البرهان في علوم القرآن","publishedAt":"2021-11-02T02:44:17Z","duration":"PT25M25S","thumbnail":"https://i.ytimg.com/vi/RSJxbj1IYM4/mqdefault.jpg","viewCount":"425","playlistId":"PLEkQk5xrP-tnW3iBL7HkKziOFCFZbTlf0","playlistName":"شرح البرهان في علوم القرآن - أ.د. يسري جبر","category":"تفسير"},{"id":"OkwldhLwwog","title":"تكملة أنواع التقديم والتأخير (9) - شرح البرهان في علوم القرآن","publishedAt":"2021-09-28T09:54:52Z","duration":"PT25M44S","thumbnail":"https://i.ytimg.com/vi/OkwldhLwwog/mqdefault.jpg","viewCount":"425","playlistId":"PLEkQk5xrP-tnW3iBL7HkKziOFCFZbTlf0","playlistName":"شرح البرهان في علوم القرآن - أ.د. يسري جبر","category":"تفسير"},{"id":"WO5YASeibK0","title":"القسم الثالث من التوكيد: البَدَل - شرح البرهان في علوم القرآن","publishedAt":"2021-03-01T07:49:03Z","duration":"PT15M55S","thumbnail":"https://i.ytimg.com/vi/WO5YASeibK0/mqdefault.jpg","viewCount":"425","playlistId":"PLEkQk5xrP-tnW3iBL7HkKziOFCFZbTlf0","playlistName":"شرح البرهان في علوم القرآن - أ.د. يسري جبر","category":"تفسير"},{"id":"FxdYHsAoYSs","title":"شرح البرهان في علوم القرآن - النوع ٣٥ - فصل في الأسباب الموهمة الاختلاف ٤","publishedAt":"2020-03-07T06:00:02Z","duration":"PT25M49S","thumbnail":"https://i.ytimg.com/vi/FxdYHsAoYSs/mqdefault.jpg","viewCount":"425","playlistId":"PLEkQk5xrP-tnW3iBL7HkKziOFCFZbTlf0","playlistName":"شرح البرهان في علوم القرآن - أ.د. يسري جبر","category":"تفسير"},{"id":"pYDQtmUpUPs","title":"سورة الأعراف آية 189","publishedAt":"2017-03-12T06:43:35Z","duration":"PT20M51S","thumbnail":"https://i.ytimg.com/vi/pYDQtmUpUPs/mqdefault.jpg","viewCount":"425","playlistId":"PLEkQk5xrP-tnmTYsyW6xNdyfhPq0Bhrhj","playlistName":"مقرأة الفجر - القُرْآنُ الكَرِيمُ - خَتْمَةُ التَّدَبُّرِ  أ.د. يسري جبر","category":"متنوع"},{"id":"TnT1V6HJGiU","title":"سورة الأنعام آية 143","publishedAt":"2017-01-10T05:35:11Z","duration":"PT21M38S","thumbnail":"https://i.ytimg.com/vi/TnT1V6HJGiU/mqdefault.jpg","viewCount":"425","playlistId":"PLEkQk5xrP-tnmTYsyW6xNdyfhPq0Bhrhj","playlistName":"مقرأة الفجر - القُرْآنُ الكَرِيمُ - خَتْمَةُ التَّدَبُّرِ  أ.د. يسري جبر","category":"متنوع"},{"id":"U-w37G5N84I","title":"مقرأة سورة الأنعام من آية ١٢٣","publishedAt":"2017-01-01T07:26:51Z","duration":"PT19M58S","thumbnail":"https://i.ytimg.com/vi/U-w37G5N84I/mqdefault.jpg","viewCount":"425","playlistId":"PLEkQk5xrP-tnmTYsyW6xNdyfhPq0Bhrhj","playlistName":"مقرأة الفجر - القُرْآنُ الكَرِيمُ - خَتْمَةُ التَّدَبُّرِ  أ.د. يسري جبر","category":"متنوع"},{"id":"ee5NpOB-5-M","title":"سورة المائدة آية 27","publishedAt":"2016-11-03T04:28:41Z","duration":"PT19M51S","thumbnail":"https://i.ytimg.com/vi/ee5NpOB-5-M/mqdefault.jpg","viewCount":"425","playlistId":"PLEkQk5xrP-tnmTYsyW6xNdyfhPq0Bhrhj","playlistName":"مقرأة الفجر - القُرْآنُ الكَرِيمُ - خَتْمَةُ التَّدَبُّرِ  أ.د. يسري جبر","category":"متنوع"},{"id":"RTjCQyqbnsA","title":"الاختزال (24) حذف جواب القَسَم - شرح البرهان في علوم القرآن","publishedAt":"2021-08-02T05:31:15Z","duration":"PT11M37S","thumbnail":"https://i.ytimg.com/vi/RTjCQyqbnsA/mqdefault.jpg","viewCount":"424","playlistId":"PLEkQk5xrP-tnW3iBL7HkKziOFCFZbTlf0","playlistName":"شرح البرهان في علوم القرآن - أ.د. يسري جبر","category":"تفسير"},{"id":"OiPEZaQ9LZ0","title":"شرح البرهان في علوم القرآن - النوع ٣٥ - فصل في الإجابة عن بعض الاستشكالات","publishedAt":"2020-03-08T06:00:04Z","duration":"PT17M54S","thumbnail":"https://i.ytimg.com/vi/OiPEZaQ9LZ0/mqdefault.jpg","viewCount":"424","playlistId":"PLEkQk5xrP-tnW3iBL7HkKziOFCFZbTlf0","playlistName":"شرح البرهان في علوم القرآن - أ.د. يسري جبر","category":"تفسير"},{"id":"m3IhFqf1t-E","title":"83- شرح اللؤلؤ والمرجان كتاب الرضاع من الباب الثالث عشر","publishedAt":"2020-03-02T06:00:04Z","duration":"PT26M10S","thumbnail":"https://i.ytimg.com/vi/m3IhFqf1t-E/mqdefault.jpg","viewCount":"424","playlistId":"PLEkQk5xrP-tmKNjtYLfhATC37QdIsTMe0","playlistName":"شرح كتاب اللؤلؤ والمرجان فيما اتفق عليه الشيخان إماما المحدثين البخاري ومسلم. أ.د. يسري جبر","category":"حديث"},{"id":"UVBjOS5ZVZo","title":"شرح البرهان في علوم القرآن - النوع ٢٢ - معرفة اختلاف الألفاظ بزيادة أو نقص أو تغيير ٣","publishedAt":"2019-12-23T09:07:20Z","duration":"PT22M4S","thumbnail":"https://i.ytimg.com/vi/UVBjOS5ZVZo/mqdefault.jpg","viewCount":"424","playlistId":"PLEkQk5xrP-tnW3iBL7HkKziOFCFZbTlf0","playlistName":"شرح البرهان في علوم القرآن - أ.د. يسري جبر","category":"تفسير"},{"id":"xLaXE5fp3GU","title":"مقرأة سورة محمد من آية ٣","publishedAt":"2019-01-11T11:53:23Z","duration":"PT14M48S","thumbnail":"https://i.ytimg.com/vi/xLaXE5fp3GU/mqdefault.jpg","viewCount":"424","playlistId":"PLEkQk5xrP-tnmTYsyW6xNdyfhPq0Bhrhj","playlistName":"مقرأة الفجر - القُرْآنُ الكَرِيمُ - خَتْمَةُ التَّدَبُّرِ  أ.د. يسري جبر","category":"متنوع"},{"id":"rLorJm7L2NI","title":"مقرأة سورة النمل من آية ٧","publishedAt":"2018-04-26T09:34:48Z","duration":"PT28M34S","thumbnail":"https://i.ytimg.com/vi/rLorJm7L2NI/mqdefault.jpg","viewCount":"424","playlistId":"PLEkQk5xrP-tnmTYsyW6xNdyfhPq0Bhrhj","playlistName":"مقرأة الفجر - القُرْآنُ الكَرِيمُ - خَتْمَةُ التَّدَبُّرِ  أ.د. يسري جبر","category":"متنوع"},{"id":"RpoNBBwUxDo","title":"شرح صحيح البخاري كتاب التفسير فى سورة الممتحنة من أولها","publishedAt":"2018-04-25T19:14:11Z","duration":"PT23M20S","thumbnail":"https://i.ytimg.com/vi/RpoNBBwUxDo/mqdefault.jpg","viewCount":"424","playlistId":"PLEkQk5xrP-tlEerGoLa1AFy-2XvQ-sovv","playlistName":"شرح صحيح البخاري - أ.د. يسري جبر (كاملا)","category":"حديث"},{"id":"xfq8Mj_lJiM","title":"مقرأة سورة مريم من آية ٤١","publishedAt":"2017-11-09T11:04:12Z","duration":"PT26M4S","thumbnail":"https://i.ytimg.com/vi/xfq8Mj_lJiM/mqdefault.jpg","viewCount":"424","playlistId":"PLEkQk5xrP-tnmTYsyW6xNdyfhPq0Bhrhj","playlistName":"مقرأة الفجر - القُرْآنُ الكَرِيمُ - خَتْمَةُ التَّدَبُّرِ  أ.د. يسري جبر","category":"متنوع"},{"id":"Yy_JQUmuU3A","title":"سورة الأنعام آية 38","publishedAt":"2016-12-05T06:33:39Z","duration":"PT17M28S","thumbnail":"https://i.ytimg.com/vi/Yy_JQUmuU3A/mqdefault.jpg","viewCount":"424","playlistId":"PLEkQk5xrP-tnmTYsyW6xNdyfhPq0Bhrhj","playlistName":"مقرأة الفجر - القُرْآنُ الكَرِيمُ - خَتْمَةُ التَّدَبُّرِ  أ.د. يسري جبر","category":"متنوع"},{"id":"ZJTyT5DNIQs","title":"140- حرف الدال (كلمة دون) - شرح الإتقان في علوم القرآن","publishedAt":"2023-08-02T05:08:42Z","duration":"PT17M2S","thumbnail":"https://i.ytimg.com/vi/ZJTyT5DNIQs/mqdefault.jpg","viewCount":"423","playlistId":"PLEkQk5xrP-tlPw10KGJKagu7zm4Ry2Tge","playlistName":"شرح الإتقان في علوم القرآن","category":"تفسير"}],"total":7675,"page":247,"pageSize":24,"totalPages":320}