{"items":[{"id":"FBENCXar6Vg","title":"شرح صحيح البخاري كتاب الرقاق من باب ٣","publishedAt":"2018-10-18T12:44:20Z","duration":"PT22M48S","thumbnail":"https://i.ytimg.com/vi/FBENCXar6Vg/mqdefault.jpg","viewCount":"456","playlistId":"PLEkQk5xrP-tlEerGoLa1AFy-2XvQ-sovv","playlistName":"شرح صحيح البخاري - أ.د. يسري جبر (كاملا)","category":"حديث"},{"id":"HDhWzfv-hTQ","title":"شرح صحيح البخاري كتاب اللباس من باب 38","publishedAt":"2018-08-18T18:04:07Z","duration":"PT36M32S","thumbnail":"https://i.ytimg.com/vi/HDhWzfv-hTQ/mqdefault.jpg","viewCount":"456","playlistId":"PLEkQk5xrP-tlEerGoLa1AFy-2XvQ-sovv","playlistName":"شرح صحيح البخاري - أ.د. يسري جبر (كاملا)","category":"حديث"},{"id":"TIICbexo2Z4","title":"مقرأة سورة النور من آية ١١","publishedAt":"2018-03-11T11:36:42Z","duration":"PT21M17S","thumbnail":"https://i.ytimg.com/vi/TIICbexo2Z4/mqdefault.jpg","viewCount":"456","playlistId":"PLEkQk5xrP-tnmTYsyW6xNdyfhPq0Bhrhj","playlistName":"مقرأة الفجر - القُرْآنُ الكَرِيمُ - خَتْمَةُ التَّدَبُّرِ  أ.د. يسري جبر","category":"متنوع"},{"id":"nmAl0cu3k30","title":"مقرأة سورة إبراهيم من آية ٥","publishedAt":"2017-07-27T13:55:39Z","duration":"PT29M49S","thumbnail":"https://i.ytimg.com/vi/nmAl0cu3k30/mqdefault.jpg","viewCount":"456","playlistId":"PLEkQk5xrP-tnmTYsyW6xNdyfhPq0Bhrhj","playlistName":"مقرأة الفجر - القُرْآنُ الكَرِيمُ - خَتْمَةُ التَّدَبُّرِ  أ.د. يسري جبر","category":"متنوع"},{"id":"DO__WaJSibs","title":"سورة الأنعام  آية 44","publishedAt":"2016-12-06T06:42:05Z","duration":"PT8M51S","thumbnail":"https://i.ytimg.com/vi/DO__WaJSibs/mqdefault.jpg","viewCount":"456","playlistId":"PLEkQk5xrP-tnmTYsyW6xNdyfhPq0Bhrhj","playlistName":"مقرأة الفجر - القُرْآنُ الكَرِيمُ - خَتْمَةُ التَّدَبُّرِ  أ.د. يسري جبر","category":"متنوع"},{"id":"W_ylaKKfWOg","title":"سورة الأنعام آية 25","publishedAt":"2016-12-02T08:30:01Z","duration":"PT14M58S","thumbnail":"https://i.ytimg.com/vi/W_ylaKKfWOg/mqdefault.jpg","viewCount":"456","playlistId":"PLEkQk5xrP-tnmTYsyW6xNdyfhPq0Bhrhj","playlistName":"مقرأة الفجر - القُرْآنُ الكَرِيمُ - خَتْمَةُ التَّدَبُّرِ  أ.د. يسري جبر","category":"متنوع"},{"id":"FDbrbhmt00Q","title":"قراءة القرآن (من آية ١٠١ سورة آل عمران)","publishedAt":"2016-07-18T07:37:30Z","duration":"PT15M5S","thumbnail":"https://i.ytimg.com/vi/FDbrbhmt00Q/mqdefault.jpg","viewCount":"456","playlistId":"PLEkQk5xrP-tnmTYsyW6xNdyfhPq0Bhrhj","playlistName":"مقرأة الفجر - القُرْآنُ الكَرِيمُ - خَتْمَةُ التَّدَبُّرِ  أ.د. يسري جبر","category":"متنوع"},{"id":"f4pO1f24B-Y","title":"605- معنى: (لات) و (لا جَرَمَ) - شرح البرهان في علوم القرآن","publishedAt":"2022-11-27T05:00:24Z","duration":"PT12M5S","thumbnail":"https://i.ytimg.com/vi/f4pO1f24B-Y/mqdefault.jpg","viewCount":"455","playlistId":"PLEkQk5xrP-tnW3iBL7HkKziOFCFZbTlf0","playlistName":"شرح البرهان في علوم القرآن - أ.د. يسري جبر","category":"تفسير"},{"id":"NPECoa1QDg0","title":"شرح سنن الدارمي كتاب النكاح من باب ٢٩","publishedAt":"2019-08-10T09:10:01Z","duration":"PT35M1S","thumbnail":"https://i.ytimg.com/vi/NPECoa1QDg0/mqdefault.jpg","viewCount":"455","playlistId":"PLEkQk5xrP-tmAg-FuWjY057X_h5NmGmAa","playlistName":"شرح سنن الدارمي - أ.د. يسري جبر (كاملا)","category":"متنوع"},{"id":"Vx302Q2wZQI","title":"مقرأة سورة الفتح من آية ٨","publishedAt":"2019-01-18T14:58:27Z","duration":"PT15M25S","thumbnail":"https://i.ytimg.com/vi/Vx302Q2wZQI/mqdefault.jpg","viewCount":"455","playlistId":"PLEkQk5xrP-tnmTYsyW6xNdyfhPq0Bhrhj","playlistName":"مقرأة الفجر - القُرْآنُ الكَرِيمُ - خَتْمَةُ التَّدَبُّرِ  أ.د. يسري جبر","category":"متنوع"},{"id":"axQxU9xBoVE","title":"شرح صحيح البخاري كتاب التعبير من باب ٢٢","publishedAt":"2018-12-25T21:05:42Z","duration":"PT27M30S","thumbnail":"https://i.ytimg.com/vi/axQxU9xBoVE/mqdefault.jpg","viewCount":"455","playlistId":"PLEkQk5xrP-tlEerGoLa1AFy-2XvQ-sovv","playlistName":"شرح صحيح البخاري - أ.د. يسري جبر (كاملا)","category":"حديث"},{"id":"3JLbublbSKo","title":"سورة النساء آية 48","publishedAt":"2016-08-24T12:02:29Z","duration":"PT15M44S","thumbnail":"https://i.ytimg.com/vi/3JLbublbSKo/mqdefault.jpg","viewCount":"455","playlistId":"PLEkQk5xrP-tnmTYsyW6xNdyfhPq0Bhrhj","playlistName":"مقرأة الفجر - القُرْآنُ الكَرِيمُ - خَتْمَةُ التَّدَبُّرِ  أ.د. يسري جبر","category":"متنوع"},{"id":"mEhuWJ3PV10","title":"شرح صحيح البخاري كتاب التفسير فى سورة المائدة من باب ٦","publishedAt":"2018-03-22T04:08:08Z","duration":"PT24M22S","thumbnail":"https://i.ytimg.com/vi/mEhuWJ3PV10/mqdefault.jpg","viewCount":"454","playlistId":"PLEkQk5xrP-tlEerGoLa1AFy-2XvQ-sovv","playlistName":"شرح صحيح البخاري - أ.د. يسري جبر (كاملا)","category":"حديث"},{"id":"ZF2fTn-o-_M","title":"شرح كتاب فتح القريب - فصل في أحكام الأضحية والعقيقة","publishedAt":"2016-11-26T16:35:21Z","duration":"PT49M10S","thumbnail":"https://i.ytimg.com/vi/ZF2fTn-o-_M/mqdefault.jpg","viewCount":"454","playlistId":"PLEkQk5xrP-tlyOgfNBZTZgoATzVW4mI20","playlistName":"كتاب فتح القريب المجيب (علم الفقه الشافعي)","category":"فقه"},{"id":"RUhkkKleBE8","title":"635- واو الثمانية - شرح البرهان في علوم القرآن","publishedAt":"2023-01-04T05:00:15Z","duration":"PT21M53S","thumbnail":"https://i.ytimg.com/vi/RUhkkKleBE8/mqdefault.jpg","viewCount":"453","playlistId":"PLEkQk5xrP-tnW3iBL7HkKziOFCFZbTlf0","playlistName":"شرح البرهان في علوم القرآن - أ.د. يسري جبر","category":"تفسير"},{"id":"boWy5NlNVuI","title":"81- شرح اللؤلؤ والمرجان كتاب الرضاع من أوله","publishedAt":"2020-02-29T06:00:02Z","duration":"PT14M30S","thumbnail":"https://i.ytimg.com/vi/boWy5NlNVuI/mqdefault.jpg","viewCount":"453","playlistId":"PLEkQk5xrP-tmKNjtYLfhATC37QdIsTMe0","playlistName":"شرح كتاب اللؤلؤ والمرجان فيما اتفق عليه الشيخان إماما المحدثين البخاري ومسلم. أ.د. يسري جبر","category":"حديث"},{"id":"5trtK0OAQJA","title":"شرح صحيح البخاري كتاب التفسير فى سورة براءة من باب ١٤","publishedAt":"2018-03-29T09:30:26Z","duration":"PT35M59S","thumbnail":"https://i.ytimg.com/vi/5trtK0OAQJA/mqdefault.jpg","viewCount":"453","playlistId":"PLEkQk5xrP-tlEerGoLa1AFy-2XvQ-sovv","playlistName":"شرح صحيح البخاري - أ.د. يسري جبر (كاملا)","category":"حديث"},{"id":"eNgg_pQvlDc","title":"شرح صحيح البخاري   كتاب مناقب الأنصار من باب ٢١","publishedAt":"2017-12-05T17:24:21Z","duration":"PT20M42S","thumbnail":"https://i.ytimg.com/vi/eNgg_pQvlDc/mqdefault.jpg","viewCount":"453","playlistId":"PLEkQk5xrP-tlEerGoLa1AFy-2XvQ-sovv","playlistName":"شرح صحيح البخاري - أ.د. يسري جبر (كاملا)","category":"حديث"},{"id":"EFuqeMXttKw","title":"سورة المائدة آية 106","publishedAt":"2016-11-24T06:26:33Z","duration":"PT13M12S","thumbnail":"https://i.ytimg.com/vi/EFuqeMXttKw/mqdefault.jpg","viewCount":"453","playlistId":"PLEkQk5xrP-tnmTYsyW6xNdyfhPq0Bhrhj","playlistName":"مقرأة الفجر - القُرْآنُ الكَرِيمُ - خَتْمَةُ التَّدَبُّرِ  أ.د. يسري جبر","category":"متنوع"},{"id":"7h1_RYPFVgg","title":"سورة النساء آية 88","publishedAt":"2016-09-02T07:37:20Z","duration":"PT10M54S","thumbnail":"https://i.ytimg.com/vi/7h1_RYPFVgg/mqdefault.jpg","viewCount":"453","playlistId":"PLEkQk5xrP-tnmTYsyW6xNdyfhPq0Bhrhj","playlistName":"مقرأة الفجر - القُرْآنُ الكَرِيمُ - خَتْمَةُ التَّدَبُّرِ  أ.د. يسري جبر","category":"متنوع"},{"id":"sONSLSnw6Dk","title":"قراءة القرآن من سورة الإسراء (من آية 99)","publishedAt":"2015-06-01T03:10:15Z","duration":"PT10M41S","thumbnail":"https://i.ytimg.com/vi/sONSLSnw6Dk/mqdefault.jpg","viewCount":"453","playlistId":"PLEkQk5xrP-tnUSUj0uyJhA-kwNC7Gkx_j","playlistName":"مقرأة الفجر - بداية من سورة الإسراء حتى سورة الناس","category":"تفسير"},{"id":"R6bi9Jv_apw","title":"شرح حديث سبعة يظلهم الله يوم القيامة في ظل عرشه (4/9)","publishedAt":"2014-05-08T17:42:16Z","duration":"PT39M3S","thumbnail":"https://i.ytimg.com/vi/R6bi9Jv_apw/mqdefault.jpg","viewCount":"453","playlistId":"PLEkQk5xrP-tnzqzkOeEPbbPLsxgy-MYcW","playlistName":"شرح حديث سبعة يظلهم الله يوم القيامة في ظل عرشه - كتاب بهجة  النفوس - د. يسري جبر","category":"حديث"},{"id":"lPqxFjqkTx8","title":"شرح البرهان في علوم القرآن - النوع ٣٥ - فصل في القول عند تعارض الآي","publishedAt":"2020-03-02T06:00:04Z","duration":"PT28M2S","thumbnail":"https://i.ytimg.com/vi/lPqxFjqkTx8/mqdefault.jpg","viewCount":"452","playlistId":"PLEkQk5xrP-tnW3iBL7HkKziOFCFZbTlf0","playlistName":"شرح البرهان في علوم القرآن - أ.د. يسري جبر","category":"تفسير"},{"id":"UtncoO6Ch5I","title":"78- شرح اللؤلؤ والمرجان كتاب النكاح من الباب السابع","publishedAt":"2020-02-26T06:00:04Z","duration":"PT25M8S","thumbnail":"https://i.ytimg.com/vi/UtncoO6Ch5I/mqdefault.jpg","viewCount":"452","playlistId":"PLEkQk5xrP-tmKNjtYLfhATC37QdIsTMe0","playlistName":"شرح كتاب اللؤلؤ والمرجان فيما اتفق عليه الشيخان إماما المحدثين البخاري ومسلم. أ.د. يسري جبر","category":"حديث"}],"total":7675,"page":238,"pageSize":24,"totalPages":320}